cid,partner_id,channel_id,action_id,cpi,ip,idfa,click time,click datetime,install time,install datetime,postback time,click id,postback url,unique user id
UpD6l1rXSJiLn4T7vV6_mw,adorca,6625_,Install,0.8,175.197.136.164,d63f5bf7-6e3b-4ee7-a495-981183ad426d,1557034197,2019-05-05 13:29:57,1557034285,2019-05-05 13:31:25,1557034452,2212902225565641469,http://ads.adorca.com/recall.do?aff_sub=2212902225565641469,idfa_d63f5bf7-6e3b-4ee7-a495-981183ad426d,%ED%95%9C%EA%B5%AD%EC%96%B4
UpD6l1rXSJiLn4T7vV6_mw,adorca,6625_,Install,0.8,210.216.14.29,a43f5612-fd7d-4119-a406-9116d1f9df22,1557035479,2019-05-05 13:51:19,1557035588,2019-05-05 13:53:08,1557035619,2212682742050058214,http://ads.adorca.com/recall.do?aff_sub=2212682742050058214,idfa_a43f5612-fd7d-4119-a406-9116d1f9df22,%ED%95%9C%EA%B5%AD%EC%96%B4
UpD6l1rXSJiLn4T7vV6_mw,adorca,6625_,Install,0.8,211.107.97.253,635cd95b-7d78-46df-8e3c-f3d9158b866d,1557035182,2019-05-05 13:46:22,1557035281,2019-05-05 13:48:01,1557035312,2205446517657202695,http://ads.adorca.com/recall.do?aff_sub=2205446517657202695,idfa_635cd95b-7d78-46df-8e3c-f3d9158b866d,%ED%95%9C%EA%B5%AD%EC%96%B4
UpD6l1rXSJiLn4T7vV6_mw,adorca,6625_,Install,0.8,119.194.7.26,55517770-7ac9-4f47-aa49-b9bed2395165,1556856105,2019-05-03 12:01:45,1556856504,2019-05-03 12:08:24,1556856535,2209085193872962937,http://ads.adorca.com/recall.do?aff_sub=2209085193872962937,idfa_55517770-7ac9-4f47-aa49-b9bed2395165,%ED%95%9C%EA%B5%AD%EC%96%B4
UpD6l1rXSJiLn4T7vV6_mw,adorca,6625_,Install,0.8,112.154.196.247,88042f1e-0b34-4540-9b79-78650676149c,1557034316,2019-05-05 13:31:56,1557034417,2019-05-05 13:33:37,1557034447,2205583435548498595,http://ads.adorca.com/recall.do?aff_sub=2205583435548498595,idfa_88042f1e-0b34-4540-9b79-78650676149c,%ED%95%9C%EA%B5%AD%EC%96%B4
UpD6l1rXSJiLn4T7vV6_mw,adorca,6625_,Install,0.8,221.145.70.128,dafbe841-95a5-4999-8f8b-99357a08a548,1557034824,2019-05-05 13:40:24,1557034907,2019-05-05 13:41:47,1557034938,2211471422215350573,http://ads.adorca.com/recall.do?aff_sub=2211471422215350573,idfa_dafbe841-95a5-4999-8f8b-99357a08a548,%ED%95%9C%EA%B5%AD%EC%96%B4
UpD6l1rXSJiLn4T7vV6_mw,adorca,6625_,Install,0.8,175.230.254.62,bf567b51-9ffd-46a7-bd72-062d15835a68,1556867885,2019-05-03 15:18:05,1556867961,2019-05-03 15:19:21,1556867991,2217735724584718928,http://ads.adorca.com/recall.do?aff_sub=2217735724584718928,idfa_bf567b51-9ffd-46a7-bd72-062d15835a68,%ED%95%9C%EA%B5%AD%EC%96%B4
UpD6l1rXSJiLn4T7vV6_mw,adorca,6625_,Install,0.8,114.30.203.71,0f12de6c-060c-4ad3-a898-9f1f6819f4fc,1556867541,2019-05-03 15:12:21,1556867621,2019-05-03 15:13:41,1556867651,2204353255260077909,http://ads.adorca.com/recall.do?aff_sub=2204353255260077909,idfa_0f12de6c-060c-4ad3-a898-9f1f6819f4fc,%ED%95%9C%EA%B5%AD%EC%96%B4
UpD6l1rXSJiLn4T7vV6_mw,adorca,6625_,Install,0.8,220.81.21.171,95f01079-01f6-4767-a2c1-219ca6bd1c66,1557035555,2019-05-05 13:52:35,1557035638,2019-05-05 13:53:58,1557035669,2216037816961733043,http://ads.adorca.com/recall.do?aff_sub=2216037816961733043,idfa_95f01079-01f6-4767-a2c1-219ca6bd1c66,%ED%95%9C%EA%B5%AD%EC%96%B4
UpD6l1rXSJiLn4T7vV6_mw,adorca,6625_,Install,0.8,211.222.34.1,d4f363c0-58dc-4476-b3b2-f6498f3426e7,1557034796,2019-05-05 13:39:56,1557034871,2019-05-05 13:41:11,1557034902,2216215520715176257,http://ads.adorca.com/recall.do?aff_sub=2216215520715176257,idfa_d4f363c0-58dc-4476-b3b2-f6498f3426e7,%ED%95%9C%EA%B5%AD%EC%96%B4
UpD6l1rXSJiLn4T7vV6_mw,adorca,6625_,Install,0.8,124.217.216.115,52c8b408-1879-4986-9546-cd86db5906b0,1556866945,2019-05-03 15:02:25,1556867015,2019-05-03 15:03:35,1556867045,2214935895622240594,http://ads.adorca.com/recall.do?aff_sub=2214935895622240594,idfa_52c8b408-1879-4986-9546-cd86db5906b0,%ED%95%9C%EA%B5%AD%EC%96%B4
UpD6l1rXSJiLn4T7vV6_mw,adorca,6625_,Install,0.8,211.224.22.35,663795f7-6a2d-468f-ad93-a778e678a15c,1557034219,2019-05-05 13:30:19,1557034310,2019-05-05 13:31:50,1557034341,2205991095096876538,http://ads.adorca.com/recall.do?aff_sub=2205991095096876538,idfa_663795f7-6a2d-468f-ad93-a778e678a15c,%ED%95%9C%EA%B5%AD%EC%96%B4
UpD6l1rXSJiLn4T7vV6_mw,adorca,6625_,Install,0.8,203.251.73.140,cab69caf-5f22-491a-abcd-b577835dc89e,1557033356,2019-05-05 13:15:56,1557033452,2019-05-05 13:17:32,1557033587,2212342660023767243,http://ads.adorca.com/recall.do?aff_sub=2212342660023767243,idfa_cab69caf-5f22-491a-abcd-b577835dc89e,%ED%95%9C%EA%B5%AD%EC%96%B4
UpD6l1rXSJiLn4T7vV6_mw,adorca,6625_,Install,0.8,1.231.14.207,22a9d67b-70a3-418c-8d5b-3b44179cccff,1556857500,2019-05-03 12:25:00,1556857649,2019-05-03 12:27:29,1556857679,2217037024812936240,http://ads.adorca.com/recall.do?aff_sub=2217037024812936240,idfa_22a9d67b-70a3-418c-8d5b-3b44179cccff,%ED%95%9C%EA%B5%AD%EC%96%B4
UpD6l1rXSJiLn4T7vV6_mw,adorca,6625_,Install,0.8,175.198.214.201,cc8fe4e2-3c76-4118-b0df-6679d48b1b0f,1557034304,2019-05-05 13:31:44,1557034412,2019-05-05 13:33:32,1557034442,2217362186500838415,http://ads.adorca.com/recall.do?aff_sub=2217362186500838415,idfa_cc8fe4e2-3c76-4118-b0df-6679d48b1b0f,%ED%95%9C%EA%B5%AD%EC%96%B4
UpD6l1rXSJiLn4T7vV6_mw,adorca,6625_,Install,0.8,125.135.252.3,834ba029-438b-4dbb-a17b-0061acf5f1dd,1556867350,2019-05-03 15:09:10,1556867428,2019-05-03 15:10:28,1556867459,2204437340445601623,http://ads.adorca.com/recall.do?aff_sub=2204437340445601623,idfa_834ba029-438b-4dbb-a17b-0061acf5f1dd,%ED%95%9C%EA%B5%AD%EC%96%B4
UpD6l1rXSJiLn4T7vV6_mw,adorca,6625_,Install,0.8,121.184.241.109,abe072e5-5df6-4842-b949-0d9ceabfdd6f,1557035099,2019-05-05 13:44:59,1557035189,2019-05-05 13:46:29,1557035219,2209142962007387206,http://ads.adorca.com/recall.do?aff_sub=2209142962007387206,idfa_abe072e5-5df6-4842-b949-0d9ceabfdd6f,%ED%95%9C%EA%B5%AD%EC%96%B4
UpD6l1rXSJiLn4T7vV6_mw,adorca,6625_,Install,0.8,119.197.84.239,8f1d0e40-8e35-4905-aaec-005605797212,1557034338,2019-05-05 13:32:18,1557034434,2019-05-05 13:33:54,1557034465,2214597094840155103,http://ads.adorca.com/recall.do?aff_sub=2214597094840155103,idfa_8f1d0e40-8e35-4905-aaec-005605797212,%ED%95%9C%EA%B5%AD%EC%96%B4
UpD6l1rXSJiLn4T7vV6_mw,adorca,6625_,Install,0.8,220.89.219.63,5adb0ead-8d28-4716-add5-23ef1a64ac64,1557035516,2019-05-05 13:51:56,1557035608,2019-05-05 13:53:28,1557035638,2203861981346597292,http://ads.adorca.com/recall.do?aff_sub=2203861981346597292,idfa_5adb0ead-8d28-4716-add5-23ef1a64ac64,%ED%95%9C%EA%B5%AD%EC%96%B4
UpD6l1rXSJiLn4T7vV6_mw,adorca,6625_,Install,0.8,61.79.155.2,0131142b-04fc-4f38-b232-4f4d41504cb9,1557035471,2019-05-05 13:51:11,1557035580,2019-05-05 13:53:00,1557035625,2210956807345680765,http://ads.adorca.com/recall.do?aff_sub=2210956807345680765,idfa_0131142b-04fc-4f38-b232-4f4d41504cb9,%ED%95%9C%EA%B5%AD%EC%96%B4
UpD6l1rXSJiLn4T7vV6_mw,adorca,6625_,Install,0.8,61.74.226.7,ef38fb77-ebef-4053-a438-b1704379bc9b,1557034999,2019-05-05 13:43:19,1557035085,2019-05-05 13:44:45,1557035115,2214909865931148297,http://ads.adorca.com/recall.do?aff_sub=2214909865931148297,idfa_ef38fb77-ebef-4053-a438-b1704379bc9b,%ED%95%9C%EA%B5%AD%EC%96%B4
UpD6l1rXSJiLn4T7vV6_mw,adorca,6625_,Install,0.8,121.136.181.58,e4289cf4-029c-4d20-bdd9-8eed13346c8b,1557035182,2019-05-05 13:46:22,1557035261,2019-05-05 13:47:41,1557035291,2210143515293666670,http://ads.adorca.com/recall.do?aff_sub=2210143515293666670,idfa_e4289cf4-029c-4d20-bdd9-8eed13346c8b,%ED%95%9C%EA%B5%AD%EC%96%B4
UpD6l1rXSJiLn4T7vV6_mw,adorca,6625_,Install,0.8,112.222.142.154,a849cd63-3259-4cec-b4fb-a866f5302410,1557035315,2019-05-05 13:48:35,1557035394,2019-05-05 13:49:54,1557035424,2205733417834052472,http://ads.adorca.com/recall.do?aff_sub=2205733417834052472,idfa_a849cd63-3259-4cec-b4fb-a866f5302410,%ED%95%9C%EA%B5%AD%EC%96%B4
UpD6l1rXSJiLn4T7vV6_mw,adorca,6625_,Install,0.8,221.141.3.100,5c55d2e4-0668-4018-ade6-feb3af99a64c,1557034940,2019-05-05 13:42:20,1557035071,2019-05-05 13:44:31,1557035101,2214193988135604140,http://ads.adorca.com/recall.do?aff_sub=2214193988135604140,idfa_5c55d2e4-0668-4018-ade6-feb3af99a64c,%ED%95%9C%EA%B5%AD%EC%96%B4
UpD6l1rXSJiLn4T7vV6_mw,adorca,6625_,Install,0.8,220.95.83.220,e06d2a37-0a3c-4c7f-afcc-a4ae5a123914,1557034289,2019-05-05 13:31:29,1557034373,2019-05-05 13:32:53,1557034403,2211409957923200679,http://ads.adorca.com/recall.do?aff_sub=2211409957923200679,idfa_e06d2a37-0a3c-4c7f-afcc-a4ae5a123914,%ED%95%9C%EA%B5%AD%EC%96%B4
UpD6l1rXSJiLn4T7vV6_mw,adorca,6625_,Install,0.8,58.78.215.78,5f3d6b40-d4a1-4697-b130-56de834b10ef,1557034535,2019-05-05 13:35:35,1557034627,2019-05-05 13:37:07,1557034658,2213906694230355936,http://ads.adorca.com/recall.do?aff_sub=2213906694230355936,idfa_5f3d6b40-d4a1-4697-b130-56de834b10ef,%ED%95%9C%EA%B5%AD%EC%96%B4
UpD6l1rXSJiLn4T7vV6_mw,adorca,6625_,Install,0.8,1.11.71.21,c8b1c28c-47a7-4762-95ed-b1cfa4a3bf52,1557034650,2019-05-05 13:37:30,1557034726,2019-05-05 13:38:46,1557034757,2202422586011209956,http://ads.adorca.com/recall.do?aff_sub=2202422586011209956,idfa_c8b1c28c-47a7-4762-95ed-b1cfa4a3bf52,%ED%95%9C%EA%B5%AD%EC%96%B4
UpD6l1rXSJiLn4T7vV6_mw,adorca,6625_,Install,0.8,121.156.239.171,2bbbb66b-3765-462c-8d47-3d5e9c843395,1556858715,2019-05-03 12:45:15,1556858967,2019-05-03 12:49:27,1556858997,2210839847773488730,http://ads.adorca.com/recall.do?aff_sub=2210839847773488730,idfa_2bbbb66b-3765-462c-8d47-3d5e9c843395,%ED%95%9C%EA%B5%AD%EC%96%B4
UpD6l1rXSJiLn4T7vV6_mw,adorca,6625_,Install,0.8,1.234.5.210,bc47fa9c-2d53-45f0-b29d-a20b8806cdb1,1557034651,2019-05-05 13:37:31,1557034740,2019-05-05 13:39:00,1557034770,2210088555984985881,http://ads.adorca.com/recall.do?aff_sub=2210088555984985881,idfa_bc47fa9c-2d53-45f0-b29d-a20b8806cdb1,%ED%95%9C%EA%B5%AD%EC%96%B4
UpD6l1rXSJiLn4T7vV6_mw,adorca,6625_,Install,0.8,1.221.192.149,184033f0-af16-40da-8ae1-03cd3762bdf9,1557034200,2019-05-05 13:30:00,1557034286,2019-05-05 13:31:26,1557034317,2208047991106662409,http://ads.adorca.com/recall.do?aff_sub=2208047991106662409,idfa_184033f0-af16-40da-8ae1-03cd3762bdf9,%ED%95%9C%EA%B5%AD%EC%96%B4
UpD6l1rXSJiLn4T7vV6_mw,adorca,6625_,Install,0.8,39.114.151.83,cbab8e47-ac16-4a63-8474-bfc34582a4c6,1556857211,2019-05-03 12:20:11,1556857292,2019-05-03 12:21:32,1556857323,2210654553117172487,http://ads.adorca.com/recall.do?aff_sub=2210654553117172487,idfa_cbab8e47-ac16-4a63-8474-bfc34582a4c6,%ED%95%9C%EA%B5%AD%EC%96%B4
UpD6l1rXSJiLn4T7vV6_mw,adorca,6625_,Install,0.8,112.162.62.41,3e496ab1-4aed-4ba6-8383-02cd18e407d4,1556859176,2019-05-03 12:52:56,1556859314,2019-05-03 12:55:14,1556859344,2209716027842266088,http://ads.adorca.com/recall.do?aff_sub=2209716027842266088,idfa_3e496ab1-4aed-4ba6-8383-02cd18e407d4,%ED%95%9C%EA%B5%AD%EC%96%B4
UpD6l1rXSJiLn4T7vV6_mw,adorca,6625_,Install,0.8,61.73.222.69,5f39980c-d73a-44d4-989b-aa3f16de5ef8,1556867717,2019-05-03 15:15:17,1556867782,2019-05-03 15:16:22,1556867828,2210121127277804139,http://ads.adorca.com/recall.do?aff_sub=2210121127277804139,idfa_5f39980c-d73a-44d4-989b-aa3f16de5ef8,%ED%95%9C%EA%B5%AD%EC%96%B4
UpD6l1rXSJiLn4T7vV6_mw,adorca,6625_,Install,0.8,121.182.120.157,77af4cad-e4cf-4e6f-bacf-44c320148801,1557034088,2019-05-05 13:28:08,1557034185,2019-05-05 13:29:45,1557034217,2208530959795590151,http://ads.adorca.com/recall.do?aff_sub=2208530959795590151,idfa_77af4cad-e4cf-4e6f-bacf-44c320148801,%ED%95%9C%EA%B5%AD%EC%96%B4
UpD6l1rXSJiLn4T7vV6_mw,adorca,6625_,Install,0.8,220.123.170.42,4f5fc6ff-66c3-4a9f-8a5f-0b661828f979,1556866512,2019-05-03 14:55:12,1556866620,2019-05-03 14:57:00,1556866651,2211089207923507370,http://ads.adorca.com/recall.do?aff_sub=2211089207923507370,idfa_4f5fc6ff-66c3-4a9f-8a5f-0b661828f979,%ED%95%9C%EA%B5%AD%EC%96%B4
UpD6l1rXSJiLn4T7vV6_mw,adorca,6625_,Install,0.8,118.222.1.35,e30199f3-9766-4419-9ee0-bcf7ec71c3ca,1557034289,2019-05-05 13:31:29,1557034391,2019-05-05 13:33:11,1557034421,2211755844359930374,http://ads.adorca.com/recall.do?aff_sub=2211755844359930374,idfa_e30199f3-9766-4419-9ee0-bcf7ec71c3ca,%ED%95%9C%EA%B5%AD%EC%96%B4
