cid,partner_id,channel_id,action_id,cpi,ip,idfa,click time,click datetime,install time,install datetime,postback time,click id,postback url,unique user id
I5_OmOSUSFmupt7SS55TZA,adorca,6641_,Install,1.6,112.162.62.41,32c669cb-897d-4cc4-97dd-a548a15b6ca8,1557920671,2019-05-15 19:44:31,1557920725,2019-05-15 19:45:25,1557920734,2215910475284171568,http://ads.adorca.com/recall.do?aff_sub=2215910475284171568,idfa_32c669cb-897d-4cc4-97dd-a548a15b6ca8,ko
I5_OmOSUSFmupt7SS55TZA,adorca,6641_,Install,1.6,220.66.155.2,b8e67884-fad4-49b8-b136-d7c3bbd127ac,1557919481,2019-05-15 19:24:41,1557919679,2019-05-15 19:27:59,1557919686,2214250328836226768,http://ads.adorca.com/recall.do?aff_sub=2214250328836226768,idfa_b8e67884-fad4-49b8-b136-d7c3bbd127ac,ko
I5_OmOSUSFmupt7SS55TZA,adorca,6641_,Install,1.6,182.208.90.83,140cfe5a-9cb8-46c6-8d1c-9b8d26b0de71,1557920341,2019-05-15 19:39:01,1557920398,2019-05-15 19:39:58,1557920407,2211305200737332608,http://ads.adorca.com/recall.do?aff_sub=2211305200737332608,idfa_140cfe5a-9cb8-46c6-8d1c-9b8d26b0de71,ko
I5_OmOSUSFmupt7SS55TZA,adorca,6641_,Install,1.6,211.202.159.71,4a680f97-8825-4e66-5f7d-1eca32bcde1d,1557965955,2019-05-16 08:19:15,1557966061,2019-05-16 08:21:01,1557966069,2211143586385878892,http://ads.adorca.com/recall.do?aff_sub=2211143586385878892,idfa_4a680f97-8825-4e66-5f7d-1eca32bcde1d,ko
I5_OmOSUSFmupt7SS55TZA,adorca,6641_,Install,1.6,183.112.115.66,cb3d199c-9596-4571-8380-f2de45019d2f,1557920310,2019-05-15 19:38:30,1557920484,2019-05-15 19:41:24,1557920491,2217918582660407351,http://ads.adorca.com/recall.do?aff_sub=2217918582660407351,idfa_cb3d199c-9596-4571-8380-f2de45019d2f,ko
I5_OmOSUSFmupt7SS55TZA,adorca,6641_,Install,1.6,1.231.14.207,5c7e4b5b-5494-423f-abd0-5508a13c4383,1557920483,2019-05-15 19:41:23,1557920535,2019-05-15 19:42:15,1557920543,2200479695133262041,http://ads.adorca.com/recall.do?aff_sub=2200479695133262041,idfa_5c7e4b5b-5494-423f-abd0-5508a13c4383,ko
I5_OmOSUSFmupt7SS55TZA,adorca,6641_,Install,1.6,203.254.158.46,bcea575e-e704-4851-b3ed-40d76058e286,1557920583,2019-05-15 19:43:03,1557920768,2019-05-15 19:46:08,1557920776,2209670893134990268,http://ads.adorca.com/recall.do?aff_sub=2209670893134990268,idfa_bcea575e-e704-4851-b3ed-40d76058e286,ko
I5_OmOSUSFmupt7SS55TZA,adorca,6641_,Install,1.6,203.233.111.241,69e61d51-2ff5-4d5e-a7a0-8d51c9932895,1557920728,2019-05-15 19:45:28,1557920786,2019-05-15 19:46:26,1557920793,2217293329440190479,http://ads.adorca.com/recall.do?aff_sub=2217293329440190479,idfa_69e61d51-2ff5-4d5e-a7a0-8d51c9932895,ko
I5_OmOSUSFmupt7SS55TZA,adorca,6641_,Install,1.6,222.100.130.21,8a998724-b974-4963-8d36-8f6f156c118e,1557919897,2019-05-15 19:31:37,1557920253,2019-05-15 19:37:33,1557920263,2212913518096815605,http://ads.adorca.com/recall.do?aff_sub=2212913518096815605,idfa_8a998724-b974-4963-8d36-8f6f156c118e,ko
I5_OmOSUSFmupt7SS55TZA,adorca,6641_,Install,1.6,59.31.57.51,45fc1e4f-8995-a0ae-6fab-45779483ae4a,1557964989,2019-05-16 08:03:09,1557965091,2019-05-16 08:04:51,1557965100,2214367684210450385,http://ads.adorca.com/recall.do?aff_sub=2214367684210450385,idfa_45fc1e4f-8995-a0ae-6fab-45779483ae4a,ko
I5_OmOSUSFmupt7SS55TZA,adorca,6641_,Install,1.6,58.238.212.11,3931230e-eef0-4a4e-ad2e-0199d340fd68,1557920523,2019-05-15 19:42:03,1557920584,2019-05-15 19:43:04,1557920591,2215049994208558048,http://ads.adorca.com/recall.do?aff_sub=2215049994208558048,idfa_3931230e-eef0-4a4e-ad2e-0199d340fd68,ko
I5_OmOSUSFmupt7SS55TZA,adorca,6641_,Install,1.6,222.239.251.60,3ad73632-32b2-41ca-9e1d-77c4d6c1dafa,1557921631,2019-05-15 20:00:31,1557921843,2019-05-15 20:04:03,1557921852,2211621095874648510,http://ads.adorca.com/recall.do?aff_sub=2211621095874648510,idfa_3ad73632-32b2-41ca-9e1d-77c4d6c1dafa,ko
I5_OmOSUSFmupt7SS55TZA,adorca,6641_,Install,1.6,211.180.176.36,f70fa8ac-06d6-49f7-a108-85f93da9bc49,1557920090,2019-05-15 19:34:50,1557920213,2019-05-15 19:36:53,1557920221,2216460001926300738,http://ads.adorca.com/recall.do?aff_sub=2216460001926300738,idfa_f70fa8ac-06d6-49f7-a108-85f93da9bc49,ko
I5_OmOSUSFmupt7SS55TZA,adorca,6641_,Install,1.6,222.114.183.131,5dc638f9-736b-448a-af24-20c51ca84431,1557921365,2019-05-15 19:56:05,1557921513,2019-05-15 19:58:33,1557921524,2205690344331838534,http://ads.adorca.com/recall.do?aff_sub=2205690344331838534,idfa_5dc638f9-736b-448a-af24-20c51ca84431,ko
I5_OmOSUSFmupt7SS55TZA,adorca,6641_,Install,1.6,211.177.239.81,3401581d-7da4-4dd2-bdad-678b19b1785f,1557920581,2019-05-15 19:43:01,1557920758,2019-05-15 19:45:58,1557920767,2215078292939363324,http://ads.adorca.com/recall.do?aff_sub=2215078292939363324,idfa_3401581d-7da4-4dd2-bdad-678b19b1785f,ko
I5_OmOSUSFmupt7SS55TZA,adorca,6641_,Install,1.6,218.149.228.155,2ed0d736-174d-4086-882e-ef2277f09de7,1557920467,2019-05-15 19:41:07,1557920682,2019-05-15 19:44:42,1557920688,2215252210681494984,http://ads.adorca.com/recall.do?aff_sub=2215252210681494984,idfa_2ed0d736-174d-4086-882e-ef2277f09de7,ko
I5_OmOSUSFmupt7SS55TZA,adorca,6641_,Install,1.6,123.108.168.45,9c4b0615-87ab-ea07-9027-98cf3b8eeb65,1557964962,2019-05-16 08:02:42,1557965069,2019-05-16 08:04:29,1557965075,2213569953292046584,http://ads.adorca.com/recall.do?aff_sub=2213569953292046584,idfa_9c4b0615-87ab-ea07-9027-98cf3b8eeb65,ko
I5_OmOSUSFmupt7SS55TZA,adorca,6641_,Install,1.6,211.216.48.158,9808f0bf-c3c4-4897-9adb-d0a8b4145566,1557921513,2019-05-15 19:58:33,1557921722,2019-05-15 20:02:02,1557921734,2217767532280310707,http://ads.adorca.com/recall.do?aff_sub=2217767532280310707,idfa_9808f0bf-c3c4-4897-9adb-d0a8b4145566,ko
I5_OmOSUSFmupt7SS55TZA,adorca,6641_,Install,1.6,218.144.17.223,a4c6ca53-c40e-4b88-9f39-b2ace6c476bb,1557921263,2019-05-15 19:54:23,1557921425,2019-05-15 19:57:05,1557921431,2210376096557388399,http://ads.adorca.com/recall.do?aff_sub=2210376096557388399,idfa_a4c6ca53-c40e-4b88-9f39-b2ace6c476bb,ko
I5_OmOSUSFmupt7SS55TZA,adorca,6641_,Install,1.6,175.192.140.241,deb6b9c4-9f2d-45a6-9d89-d3f4c4386192,1557920841,2019-05-15 19:47:21,1557920979,2019-05-15 19:49:39,1557920986,2218039130637916739,http://ads.adorca.com/recall.do?aff_sub=2218039130637916739,idfa_deb6b9c4-9f2d-45a6-9d89-d3f4c4386192,ko
I5_OmOSUSFmupt7SS55TZA,adorca,6641_,Install,1.6,58.225.75.222,76286eec-3d6f-4d41-97af-5e8d5fb55f8c,1557920575,2019-05-15 19:42:55,1557920623,2019-05-15 19:43:43,1557920630,2200983760087460457,http://ads.adorca.com/recall.do?aff_sub=2200983760087460457,idfa_76286eec-3d6f-4d41-97af-5e8d5fb55f8c,ko
I5_OmOSUSFmupt7SS55TZA,adorca,6641_,Install,1.6,45.64.144.244,ea03ddff-1459-fcdc-323c-8fec501d6243,1557965941,2019-05-16 08:19:01,1557966040,2019-05-16 08:20:40,1557966048,2200600925445096248,http://ads.adorca.com/recall.do?aff_sub=2200600925445096248,idfa_ea03ddff-1459-fcdc-323c-8fec501d6243,ko
I5_OmOSUSFmupt7SS55TZA,adorca,6641_,Install,1.6,211.224.188.72,447e7e8a-b1c6-4723-b383-a1322b1cd149,1557921580,2019-05-15 19:59:40,1557921774,2019-05-15 20:02:54,1557921780,2215095903362076337,http://ads.adorca.com/recall.do?aff_sub=2215095903362076337,idfa_447e7e8a-b1c6-4723-b383-a1322b1cd149,ko
I5_OmOSUSFmupt7SS55TZA,adorca,6641_,Install,1.6,114.30.203.37,b235b5c5-647b-40a8-9383-6aa475431a16,1557920103,2019-05-15 19:35:03,1557920213,2019-05-15 19:36:53,1557920219,2218136360885565214,http://ads.adorca.com/recall.do?aff_sub=2218136360885565214,idfa_b235b5c5-647b-40a8-9383-6aa475431a16,ko
I5_OmOSUSFmupt7SS55TZA,adorca,6641_,Install,1.6,14.61.182.195,749c59bf-f73d-4bc2-bcd9-829f8643dc1b,1557921017,2019-05-15 19:50:17,1557921219,2019-05-15 19:53:39,1557921228,2211932580831989664,http://ads.adorca.com/recall.do?aff_sub=2211932580831989664,idfa_749c59bf-f73d-4bc2-bcd9-829f8643dc1b,ko
I5_OmOSUSFmupt7SS55TZA,adorca,6641_,Install,1.6,222.121.170.21,89bcfb2f-abed-4de5-9dcd-74265f6ecad8,1557920114,2019-05-15 19:35:14,1557920212,2019-05-15 19:36:52,1557920220,2217666148225774632,http://ads.adorca.com/recall.do?aff_sub=2217666148225774632,idfa_89bcfb2f-abed-4de5-9dcd-74265f6ecad8,ko
I5_OmOSUSFmupt7SS55TZA,adorca,6641_,Install,1.6,115.136.238.247,539e433b-ce8c-4b6c-b2e1-ba81b42f9dd9,1557921269,2019-05-15 19:54:29,1557921414,2019-05-15 19:56:54,1557921424,2212167172591106544,http://ads.adorca.com/recall.do?aff_sub=2212167172591106544,idfa_539e433b-ce8c-4b6c-b2e1-ba81b42f9dd9,ko
I5_OmOSUSFmupt7SS55TZA,adorca,6641_,Install,1.6,27.116.255.243,f4e87dec-14ef-4403-b0f1-592cff33c3bd,1557911578,2019-05-15 17:12:58,1557911640,2019-05-15 17:14:00,1557911649,2207729138436934013,http://ads.adorca.com/recall.do?aff_sub=2207729138436934013,idfa_f4e87dec-14ef-4403-b0f1-592cff33c3bd,ko
I5_OmOSUSFmupt7SS55TZA,adorca,6641_,Install,1.6,175.118.69.8,94bd8c0c-9be4-421b-9c17-981c8c4d1d33,1557911841,2019-05-15 17:17:21,1557911975,2019-05-15 17:19:35,1557911982,2215788609496840125,http://ads.adorca.com/recall.do?aff_sub=2215788609496840125,idfa_94bd8c0c-9be4-421b-9c17-981c8c4d1d33,ko
I5_OmOSUSFmupt7SS55TZA,adorca,6641_,Install,1.6,59.15.185.17,79ac7a4b-06d6-47b9-84da-d65f93054648,1557919999,2019-05-15 19:33:19,1557920231,2019-05-15 19:37:11,1557920238,2204387187051790732,http://ads.adorca.com/recall.do?aff_sub=2204387187051790732,idfa_79ac7a4b-06d6-47b9-84da-d65f93054648,ko
I5_OmOSUSFmupt7SS55TZA,adorca,6641_,Install,1.6,210.126.248.35,d780e31b-ec4c-4644-91b2-ddcb9a9f4336,1557921484,2019-05-15 19:58:04,1557921618,2019-05-15 20:00:18,1557921626,2200664766781310702,http://ads.adorca.com/recall.do?aff_sub=2200664766781310702,idfa_d780e31b-ec4c-4644-91b2-ddcb9a9f4336,ko
I5_OmOSUSFmupt7SS55TZA,adorca,6641_,Install,1.6,59.5.55.190,c1020ff3-124a-41db-8a5d-721a53cdda1b,1557920469,2019-05-15 19:41:09,1557920698,2019-05-15 19:44:58,1557920705,2207750476245045689,http://ads.adorca.com/recall.do?aff_sub=2207750476245045689,idfa_c1020ff3-124a-41db-8a5d-721a53cdda1b,ko
I5_OmOSUSFmupt7SS55TZA,adorca,6641_,Install,1.6,1.225.252.142,b06613b3-a2ea-cf9c-2694-eb66d2a6ed07,1557965464,2019-05-16 08:11:04,1557965568,2019-05-16 08:12:48,1557965575,2210377648145989571,http://ads.adorca.com/recall.do?aff_sub=2210377648145989571,idfa_b06613b3-a2ea-cf9c-2694-eb66d2a6ed07,ko
I5_OmOSUSFmupt7SS55TZA,adorca,6641_,Install,1.6,175.118.69.8,2fa8d8e2-6748-4c89-9585-9bd68697c926,1557920187,2019-05-15 19:36:27,1557920300,2019-05-15 19:38:20,1557920306,2205954288213970866,http://ads.adorca.com/recall.do?aff_sub=2205954288213970866,idfa_2fa8d8e2-6748-4c89-9585-9bd68697c926,ko
I5_OmOSUSFmupt7SS55TZA,adorca,6641_,Install,1.6,114.30.209.94,d37a2240-794c-4a8e-b7c7-e8b2a5979e16,1557920970,2019-05-15 19:49:30,1557921160,2019-05-15 19:52:40,1557921171,2204485632818873639,http://ads.adorca.com/recall.do?aff_sub=2204485632818873639,idfa_d37a2240-794c-4a8e-b7c7-e8b2a5979e16,ko
I5_OmOSUSFmupt7SS55TZA,adorca,6641_,Install,1.6,223.171.42.109,e51d1db9-b948-4cd2-988d-ffa0df7ff131,1557920537,2019-05-15 19:42:17,1557920761,2019-05-15 19:46:01,1557920768,2211349381406039061,http://ads.adorca.com/recall.do?aff_sub=2211349381406039061,idfa_e51d1db9-b948-4cd2-988d-ffa0df7ff131,ko
I5_OmOSUSFmupt7SS55TZA,adorca,6641_,Install,1.6,219.254.41.41,afb54a62-aa73-840d-9579-e79aedfab4c6,1557965472,2019-05-16 08:11:12,1557965588,2019-05-16 08:13:08,1557965596,2213439546900507740,http://ads.adorca.com/recall.do?aff_sub=2213439546900507740,idfa_afb54a62-aa73-840d-9579-e79aedfab4c6,ko
I5_OmOSUSFmupt7SS55TZA,adorca,6641_,Install,1.6,61.40.77.125,0b0dd637-cedb-4570-8833-6da1cf64eee9,1557920880,2019-05-15 19:48:00,1557921004,2019-05-15 19:50:04,1557921011,2208716369712041429,http://ads.adorca.com/recall.do?aff_sub=2208716369712041429,idfa_0b0dd637-cedb-4570-8833-6da1cf64eee9,ko
I5_OmOSUSFmupt7SS55TZA,adorca,6641_,Install,1.6,112.216.55.178,60104f2e-64ad-4177-bdf7-507624b9cecc,1557920477,2019-05-15 19:41:17,1557920556,2019-05-15 19:42:36,1557920563,2204204924590100589,http://ads.adorca.com/recall.do?aff_sub=2204204924590100589,idfa_60104f2e-64ad-4177-bdf7-507624b9cecc,ko
I5_OmOSUSFmupt7SS55TZA,adorca,6641_,Install,1.6,118.220.64.41,79eaa689-5eed-4d1e-a463-46e2d2adb9a0,1557919903,2019-05-15 19:31:43,1557920229,2019-05-15 19:37:09,1557920238,2200727784711092011,http://ads.adorca.com/recall.do?aff_sub=2200727784711092011,idfa_79eaa689-5eed-4d1e-a463-46e2d2adb9a0,ko
I5_OmOSUSFmupt7SS55TZA,adorca,6641_,Install,1.6,221.158.165.111,10df6f7d-1ed4-4959-b138-b89742a18f7a,1557920961,2019-05-15 19:49:21,1557921184,2019-05-15 19:53:04,1557921191,2206373668830820917,http://ads.adorca.com/recall.do?aff_sub=2206373668830820917,idfa_10df6f7d-1ed4-4959-b138-b89742a18f7a,ko
I5_OmOSUSFmupt7SS55TZA,adorca,6641_,Install,1.6,211.56.229.155,983a5a39-200d-4abc-a39c-f793d08d92b0,1557921639,2019-05-15 20:00:39,1557921824,2019-05-15 20:03:44,1557921831,2213238475126210471,http://ads.adorca.com/recall.do?aff_sub=2213238475126210471,idfa_983a5a39-200d-4abc-a39c-f793d08d92b0,ko
I5_OmOSUSFmupt7SS55TZA,adorca,6641_,Install,1.6,182.208.90.83,2f47cf17-9ebd-481d-a71a-74b399c4f2ac,1557919467,2019-05-15 19:24:27,1557919668,2019-05-15 19:27:48,1557919675,2212495830436888708,http://ads.adorca.com/recall.do?aff_sub=2212495830436888708,idfa_2f47cf17-9ebd-481d-a71a-74b399c4f2ac,ko
I5_OmOSUSFmupt7SS55TZA,adorca,6641_,Install,1.6,39.114.151.83,df2db465-9ec7-4e10-b183-5be10b8342bd,1557920909,2019-05-15 19:48:29,1557921156,2019-05-15 19:52:36,1557921167,2209196237861250827,http://ads.adorca.com/recall.do?aff_sub=2209196237861250827,idfa_df2db465-9ec7-4e10-b183-5be10b8342bd,ko
I5_OmOSUSFmupt7SS55TZA,adorca,6641_,Install,1.6,123.200.114.247,4f46123b-9931-4b9b-b1d4-6258d330bf4e,1557919481,2019-05-15 19:24:41,1557919757,2019-05-15 19:29:17,1557919763,2213265484803395306,http://ads.adorca.com/recall.do?aff_sub=2213265484803395306,idfa_4f46123b-9931-4b9b-b1d4-6258d330bf4e,ko
I5_OmOSUSFmupt7SS55TZA,adorca,6641_,Install,1.6,124.195.190.171,3fdb8f46-3f0b-4f4e-bd5d-3be1c6159dfd,1557919782,2019-05-15 19:29:42,1557919902,2019-05-15 19:31:42,1557919909,2210895244646544467,http://ads.adorca.com/recall.do?aff_sub=2210895244646544467,idfa_3fdb8f46-3f0b-4f4e-bd5d-3be1c6159dfd,ko
