cid,partner_id,channel_id,action_id,cpi,ip,idfa,click time,click datetime,install time,install datetime,postback time,click id,postback url,unique user id
_J2XJkfvSjSyjo5AFcBlqA,adorca,6531_,install,1.3,,A3D57F3F-1227-4DA9-BA72-E7D4B499220E,1556645302,2019-05-01 01:28:22,1556645421,2019-05-01 01:30:21,1556645421,2212143676878533952,http://ads.adorca.com/recall.do?aff_sub=2212143676878533952,idfa_A3D57F3F-1227-4DA9-BA72-E7D4B499220E,ko
_J2XJkfvSjSyjo5AFcBlqA,adorca,6531_,install,1.3,,EE64E810-B19A-4B1A-A33F-0A9CD4A8DD5D,1556645582,2019-05-01 01:33:02,1556645708,2019-05-01 01:35:08,1556645708,2212032282186141086,http://ads.adorca.com/recall.do?aff_sub=2212032282186141086,idfa_EE64E810-B19A-4B1A-A33F-0A9CD4A8DD5D,ko
_J2XJkfvSjSyjo5AFcBlqA,adorca,6531_,install,1.3,,4C1B4425-F79C-4DD0-BDE9-CC44AAB6A6C0,1556645592,2019-05-01 01:33:12,1556645718,2019-05-01 01:35:18,1556645718,2206823578273102427,http://ads.adorca.com/recall.do?aff_sub=2206823578273102427,idfa_4C1B4425-F79C-4DD0-BDE9-CC44AAB6A6C0,ko
_J2XJkfvSjSyjo5AFcBlqA,adorca,6531_,install,1.3,,F8844E9A-ED4E-4172-AD42-49B783FFFF45,1556645595,2019-05-01 01:33:15,1556645720,2019-05-01 01:35:20,1556645720,2204239149049485190,http://ads.adorca.com/recall.do?aff_sub=2204239149049485190,idfa_F8844E9A-ED4E-4172-AD42-49B783FFFF45,ko
_J2XJkfvSjSyjo5AFcBlqA,adorca,6531_,install,1.3,,4D4A9C90-996D-46CB-A709-DEC378514A8E,1556645544,2019-05-01 01:32:24,1556645682,2019-05-01 01:34:42,1556645682,2215147627538572294,http://ads.adorca.com/recall.do?aff_sub=2215147627538572294,idfa_4D4A9C90-996D-46CB-A709-DEC378514A8E,ko
_J2XJkfvSjSyjo5AFcBlqA,adorca,6531_,install,1.3,,39A0C641-5875-418A-95A7-B8DE4B0B2BC7,1556645155,2019-05-01 01:25:55,1556645325,2019-05-01 01:28:45,1556645325,2211129453048200720,http://ads.adorca.com/recall.do?aff_sub=2211129453048200720,idfa_39A0C641-5875-418A-95A7-B8DE4B0B2BC7,ko
_J2XJkfvSjSyjo5AFcBlqA,adorca,6531_,install,1.3,,A5A5BA68-A694-46A4-9A17-D521FFE97BDF,1556645613,2019-05-01 01:33:33,1556645759,2019-05-01 01:35:59,1556645759,2217465459932649811,http://ads.adorca.com/recall.do?aff_sub=2217465459932649811,idfa_A5A5BA68-A694-46A4-9A17-D521FFE97BDF,ko
_J2XJkfvSjSyjo5AFcBlqA,adorca,6531_,install,1.3,,E112EA3A-4324-4407-8BB9-BC9DD2C5C651,1556645583,2019-05-01 01:33:03,1556645710,2019-05-01 01:35:10,1556645710,2214705907607851729,http://ads.adorca.com/recall.do?aff_sub=2214705907607851729,idfa_E112EA3A-4324-4407-8BB9-BC9DD2C5C651,ko
_J2XJkfvSjSyjo5AFcBlqA,adorca,6531_,install,1.3,,34B3172A-1EDB-4AEB-A3DD-C44F72C76098,1556645567,2019-05-01 01:32:47,1556645716,2019-05-01 01:35:16,1556645716,2211114662470294490,http://ads.adorca.com/recall.do?aff_sub=2211114662470294490,idfa_34B3172A-1EDB-4AEB-A3DD-C44F72C76098,ko
_J2XJkfvSjSyjo5AFcBlqA,adorca,6531_,install,1.3,,76316B25-A74B-4BDE-970D-0DFD618F3CFD,1556645628,2019-05-01 01:33:48,1556645749,2019-05-01 01:35:49,1556645749,2206105148528358735,http://ads.adorca.com/recall.do?aff_sub=2206105148528358735,idfa_76316B25-A74B-4BDE-970D-0DFD618F3CFD,ko
_J2XJkfvSjSyjo5AFcBlqA,adorca,6531_,install,1.3,,E770A3EB-A018-4548-B599-FA41A147C44B,1556645647,2019-05-01 01:34:07,1556645778,2019-05-01 01:36:18,1556645778,2211111564786177833,http://ads.adorca.com/recall.do?aff_sub=2211111564786177833,idfa_E770A3EB-A018-4548-B599-FA41A147C44B,ko
_J2XJkfvSjSyjo5AFcBlqA,adorca,6531_,install,1.3,,5462FC7C-1AEA-4398-B680-7B13114B0FF0,1556645605,2019-05-01 01:33:25,1556645734,2019-05-01 01:35:34,1556645734,2211010986160135359,http://ads.adorca.com/recall.do?aff_sub=2211010986160135359,idfa_5462FC7C-1AEA-4398-B680-7B13114B0FF0,ko
_J2XJkfvSjSyjo5AFcBlqA,adorca,6531_,install,1.3,,DBBD81B1-4608-49E8-B357-7D52D5C3029F,1556645686,2019-05-01 01:34:46,1556645805,2019-05-01 01:36:45,1556645805,2203846332029998146,http://ads.adorca.com/recall.do?aff_sub=2203846332029998146,idfa_DBBD81B1-4608-49E8-B357-7D52D5C3029F,ko
_J2XJkfvSjSyjo5AFcBlqA,adorca,6531_,install,1.3,,80D369DA-75D6-4042-8613-4881A18E2E0E,1556645273,2019-05-01 01:27:53,1556645403,2019-05-01 01:30:03,1556645403,2201560510336846536,http://ads.adorca.com/recall.do?aff_sub=2201560510336846536,idfa_80D369DA-75D6-4042-8613-4881A18E2E0E,ko
_J2XJkfvSjSyjo5AFcBlqA,adorca,6531_,install,1.3,,269FACD0-9A97-4360-B7BB-F550438BF53A,1556645706,2019-05-01 01:35:06,1556645835,2019-05-01 01:37:15,1556645835,2206829932575947121,http://ads.adorca.com/recall.do?aff_sub=2206829932575947121,idfa_269FACD0-9A97-4360-B7BB-F550438BF53A,ko
_J2XJkfvSjSyjo5AFcBlqA,adorca,6531_,install,1.3,,771EF094-AD5C-4B75-95D1-AC54B883BB86,1556645208,2019-05-01 01:26:48,1556645340,2019-05-01 01:29:00,1556645340,2215747402924372594,http://ads.adorca.com/recall.do?aff_sub=2215747402924372594,idfa_771EF094-AD5C-4B75-95D1-AC54B883BB86,ko
_J2XJkfvSjSyjo5AFcBlqA,adorca,6531_,install,1.3,,70AA1161-A107-4643-AE01-998D3FF9DCD8,1556645593,2019-05-01 01:33:13,1556645720,2019-05-01 01:35:20,1556645720,2203432263937758908,http://ads.adorca.com/recall.do?aff_sub=2203432263937758908,idfa_70AA1161-A107-4643-AE01-998D3FF9DCD8,ko
_J2XJkfvSjSyjo5AFcBlqA,adorca,6531_,install,1.3,,F84D62F7-50A2-4E4C-BCD2-10B153CBCB07,1556645144,2019-05-01 01:25:44,1556645299,2019-05-01 01:28:19,1556645299,2201420190838867014,http://ads.adorca.com/recall.do?aff_sub=2201420190838867014,idfa_F84D62F7-50A2-4E4C-BCD2-10B153CBCB07,ko
_J2XJkfvSjSyjo5AFcBlqA,adorca,6531_,install,1.3,,14F7B7CE-99A8-45B8-B7D5-FBECC2FC252F,1556645274,2019-05-01 01:27:54,1556645392,2019-05-01 01:29:52,1556645392,2202505522017157594,http://ads.adorca.com/recall.do?aff_sub=2202505522017157594,idfa_14F7B7CE-99A8-45B8-B7D5-FBECC2FC252F,ko
_J2XJkfvSjSyjo5AFcBlqA,adorca,6531_,install,1.3,,69D26B64-F808-4ABC-8022-433A55C2B970,1556645591,2019-05-01 01:33:11,1556645717,2019-05-01 01:35:17,1556645717,2213490132574842593,http://ads.adorca.com/recall.do?aff_sub=2213490132574842593,idfa_69D26B64-F808-4ABC-8022-433A55C2B970,ko
_J2XJkfvSjSyjo5AFcBlqA,adorca,6531_,install,1.3,,568EE00C-7310-465C-8F14-A6EC62123736,1556645543,2019-05-01 01:32:23,1556645652,2019-05-01 01:34:12,1556645652,2204545753097519095,http://ads.adorca.com/recall.do?aff_sub=2204545753097519095,idfa_568EE00C-7310-465C-8F14-A6EC62123736,ko
_J2XJkfvSjSyjo5AFcBlqA,adorca,6531_,install,1.3,,F6E53AAE-1C89-4F0E-ABBA-ABB2E0EE8E39,1556645601,2019-05-01 01:33:21,1556645721,2019-05-01 01:35:21,1556645721,2208663596351236019,http://ads.adorca.com/recall.do?aff_sub=2208663596351236019,idfa_F6E53AAE-1C89-4F0E-ABBA-ABB2E0EE8E39,ko
_J2XJkfvSjSyjo5AFcBlqA,adorca,6531_,install,1.3,,2E68B5AC-76D7-48D4-83CF-D3181C512914,1556645537,2019-05-01 01:32:17,1556645660,2019-05-01 01:34:20,1556645660,2200640426888302755,http://ads.adorca.com/recall.do?aff_sub=2200640426888302755,idfa_2E68B5AC-76D7-48D4-83CF-D3181C512914,ko
_J2XJkfvSjSyjo5AFcBlqA,adorca,6531_,install,1.3,,63F9F6B5-ABC8-4248-91E5-D29A98EAD691,1556645741,2019-05-01 01:35:41,1556645889,2019-05-01 01:38:09,1556645889,2205738468828463787,http://ads.adorca.com/recall.do?aff_sub=2205738468828463787,idfa_63F9F6B5-ABC8-4248-91E5-D29A98EAD691,ko
_J2XJkfvSjSyjo5AFcBlqA,adorca,6531_,install,1.3,,385B0DA8-E660-4974-9A95-0CF235422EAD,1556645547,2019-05-01 01:32:27,1556645664,2019-05-01 01:34:24,1556645664,2210884572128231374,http://ads.adorca.com/recall.do?aff_sub=2210884572128231374,idfa_385B0DA8-E660-4974-9A95-0CF235422EAD,ko
_J2XJkfvSjSyjo5AFcBlqA,adorca,6531_,install,1.3,,3229B809-5E66-452D-B7DF-6C44D35464AE,1556645701,2019-05-01 01:35:01,1556645826,2019-05-01 01:37:06,1556645826,2207402101520993354,http://ads.adorca.com/recall.do?aff_sub=2207402101520993354,idfa_3229B809-5E66-452D-B7DF-6C44D35464AE,ko
_J2XJkfvSjSyjo5AFcBlqA,adorca,6531_,install,1.3,,BC60953C-3831-4B98-BCBD-F800E1AF6133,1556645603,2019-05-01 01:33:23,1556645724,2019-05-01 01:35:24,1556645724,2202596126232840926,http://ads.adorca.com/recall.do?aff_sub=2202596126232840926,idfa_BC60953C-3831-4B98-BCBD-F800E1AF6133,ko
_J2XJkfvSjSyjo5AFcBlqA,adorca,6531_,install,1.3,,D71BFB1B-7493-4387-BA90-67C64657EDCB,1556644951,2019-05-01 01:22:31,1556645083,2019-05-01 01:24:43,1556645083,2203479711214340850,http://ads.adorca.com/recall.do?aff_sub=2203479711214340850,idfa_D71BFB1B-7493-4387-BA90-67C64657EDCB,ko
