cid,partner_id,channel_id,action_id,cpi,ip,idfa,click time,click datetime,install time,install datetime,postback time,click id,postback url,unique user id
1P0aCcizQpyl9_vpDpQ8xQ,appaniac,978484ec-9bfd-4cc2-81f0-86e276770322_a32966b34cf0376ba3500ac414ecd58a,install,3.0,221.189.167.56,87A0CD27-9B31-4491-82C2-196C54C93F18,1558519661,2019-05-22 18:07:41,1558519715,2019-05-22 18:08:35,1558519745,ff208467b250239ea0691f0155f41dd4,https://premium.appaniac.com/s2s?token=eba4a0d4-627f-11e9-aa29-901b0ededfcf&transaction_id=ff208467b250239ea0691f0155f41dd4,idfa_87A0CD27-9B31-4491-82C2-196C54C93F18,ja
1P0aCcizQpyl9_vpDpQ8xQ,appaniac,978484ec-9bfd-4cc2-81f0-86e276770322_a32966b34cf0376ba3500ac414ecd58a,install,3.0,60.239.197.202,142E9DB5-F0E8-47D4-83D5-9FD5AC8E5B08,1558574363,2019-05-23 09:19:23,1558574414,2019-05-23 09:20:14,1558574446,46e3495a0184ec79b5bf0f363e22e916,https://premium.appaniac.com/s2s?token=eba4a0d4-627f-11e9-aa29-901b0ededfcf&transaction_id=46e3495a0184ec79b5bf0f363e22e916,idfa_142E9DB5-F0E8-47D4-83D5-9FD5AC8E5B08,ja
1P0aCcizQpyl9_vpDpQ8xQ,appaniac,978484ec-9bfd-4cc2-81f0-86e276770322_a32966b34cf0376ba3500ac414ecd58a,install,3.0,126.77.72.60,523EA0CA-BAB6-451C-B664-8AEBB9FEFADF,1558518892,2019-05-22 17:54:52,1558518939,2019-05-22 17:55:39,1558518969,e04b90d583e4de19cd814a61773c57e1,https://premium.appaniac.com/s2s?token=eba4a0d4-627f-11e9-aa29-901b0ededfcf&transaction_id=e04b90d583e4de19cd814a61773c57e1,idfa_523EA0CA-BAB6-451C-B664-8AEBB9FEFADF,ja
1P0aCcizQpyl9_vpDpQ8xQ,appaniac,978484ec-9bfd-4cc2-81f0-86e276770322_a32966b34cf0376ba3500ac414ecd58a,install,3.0,180.145.151.129,B1460C38-0DEA-4939-9189-8C0A1E62DBD9,1558520292,2019-05-22 18:18:12,1558520338,2019-05-22 18:18:58,1558520368,f51ec3c6679c0b308324066e815e130f,https://premium.appaniac.com/s2s?token=eba4a0d4-627f-11e9-aa29-901b0ededfcf&transaction_id=f51ec3c6679c0b308324066e815e130f,idfa_B1460C38-0DEA-4939-9189-8C0A1E62DBD9,ja
1P0aCcizQpyl9_vpDpQ8xQ,appaniac,978484ec-9bfd-4cc2-81f0-86e276770322_a32966b34cf0376ba3500ac414ecd58a,install,3.0,153.167.133.207,68754F46-6866-41B3-853D-64D501F9731A,1558575849,2019-05-23 09:44:09,1558575896,2019-05-23 09:44:56,1558575926,f9548ed7aff636ce3b877ba8be702bcd,https://premium.appaniac.com/s2s?token=eba4a0d4-627f-11e9-aa29-901b0ededfcf&transaction_id=f9548ed7aff636ce3b877ba8be702bcd,idfa_68754F46-6866-41B3-853D-64D501F9731A,en
1P0aCcizQpyl9_vpDpQ8xQ,appaniac,978484ec-9bfd-4cc2-81f0-86e276770322_a32966b34cf0376ba3500ac414ecd58a,install,3.0,220.111.166.96,DC2EFC54-1972-4DDD-8379-A100726FB179,1558519947,2019-05-22 18:12:27,1558520006,2019-05-22 18:13:26,1558520037,47789aafdc777944a2e51d4fadc4a13b,https://premium.appaniac.com/s2s?token=eba4a0d4-627f-11e9-aa29-901b0ededfcf&transaction_id=47789aafdc777944a2e51d4fadc4a13b,idfa_DC2EFC54-1972-4DDD-8379-A100726FB179,ja
1P0aCcizQpyl9_vpDpQ8xQ,appaniac,978484ec-9bfd-4cc2-81f0-86e276770322_a32966b34cf0376ba3500ac414ecd58a,install,3.0,124.99.18.145,46AF9DCA-A46A-48E9-854A-755FD174A7D8,1558518880,2019-05-22 17:54:40,1558518923,2019-05-22 17:55:23,1558518954,adbb648d6c1ec232c8eb96dbffda2239,https://premium.appaniac.com/s2s?token=eba4a0d4-627f-11e9-aa29-901b0ededfcf&transaction_id=adbb648d6c1ec232c8eb96dbffda2239,idfa_46AF9DCA-A46A-48E9-854A-755FD174A7D8,en
1P0aCcizQpyl9_vpDpQ8xQ,appaniac,978484ec-9bfd-4cc2-81f0-86e276770322_a32966b34cf0376ba3500ac414ecd58a,install,3.0,211.2.86.89,F7AEE3DA-4528-4B5E-90FA-F3ED65438CC0,1558518886,2019-05-22 17:54:46,1558518946,2019-05-22 17:55:46,1558518976,cc74ed32db92b6357a585080a1fa9250,https://premium.appaniac.com/s2s?token=eba4a0d4-627f-11e9-aa29-901b0ededfcf&transaction_id=cc74ed32db92b6357a585080a1fa9250,idfa_F7AEE3DA-4528-4B5E-90FA-F3ED65438CC0,ja
1P0aCcizQpyl9_vpDpQ8xQ,appaniac,978484ec-9bfd-4cc2-81f0-86e276770322_a32966b34cf0376ba3500ac414ecd58a,install,3.0,159.28.238.67,6CD95022-C750-4CBA-BFB0-3CED30DDB941,1558519064,2019-05-22 17:57:44,1558575112,2019-05-23 09:31:52,1558575142,03711e88266ba0b030a6182c42f3cf21,https://premium.appaniac.com/s2s?token=eba4a0d4-627f-11e9-aa29-901b0ededfcf&transaction_id=03711e88266ba0b030a6182c42f3cf21,idfa_6CD95022-C750-4CBA-BFB0-3CED30DDB941,ja
1P0aCcizQpyl9_vpDpQ8xQ,appaniac,978484ec-9bfd-4cc2-81f0-86e276770322_a32966b34cf0376ba3500ac414ecd58a,install,3.0,153.131.40.30,3F7831F1-5F42-418B-9478-FBE3413E3DFF,1558574563,2019-05-23 09:22:43,1558574621,2019-05-23 09:23:41,1558574651,149db4d6159a74fb35782a91454eb927,https://premium.appaniac.com/s2s?token=eba4a0d4-627f-11e9-aa29-901b0ededfcf&transaction_id=149db4d6159a74fb35782a91454eb927,idfa_3F7831F1-5F42-418B-9478-FBE3413E3DFF,ja
1P0aCcizQpyl9_vpDpQ8xQ,appaniac,978484ec-9bfd-4cc2-81f0-86e276770322_a32966b34cf0376ba3500ac414ecd58a,install,3.0,219.102.128.226,C2552968-4AEB-4095-9C71-97189ADE6532,1558577342,2019-05-23 10:09:02,1558577401,2019-05-23 10:10:01,1558577433,cf3edfff0a12b360b13a89cfe009f3bb,https://premium.appaniac.com/s2s?token=eba4a0d4-627f-11e9-aa29-901b0ededfcf&transaction_id=cf3edfff0a12b360b13a89cfe009f3bb,idfa_C2552968-4AEB-4095-9C71-97189ADE6532,ja
1P0aCcizQpyl9_vpDpQ8xQ,appaniac,978484ec-9bfd-4cc2-81f0-86e276770322_a32966b34cf0376ba3500ac414ecd58a,install,3.0,14.8.70.224,CB40C7F6-DD25-4FEC-AC25-AF0D71FB4D8A,1558575610,2019-05-23 09:40:10,1558575665,2019-05-23 09:41:05,1558575695,2a8312dffb04e168630aadd9cb7b6495,https://premium.appaniac.com/s2s?token=eba4a0d4-627f-11e9-aa29-901b0ededfcf&transaction_id=2a8312dffb04e168630aadd9cb7b6495,idfa_CB40C7F6-DD25-4FEC-AC25-AF0D71FB4D8A,ja
1P0aCcizQpyl9_vpDpQ8xQ,appaniac,978484ec-9bfd-4cc2-81f0-86e276770322_a32966b34cf0376ba3500ac414ecd58a,install,3.0,114.19.214.89,C176198A-B4D2-4396-B67E-6BBBD422CA3F,1558576456,2019-05-23 09:54:16,1558576516,2019-05-23 09:55:16,1558576546,11df7975756c5edffe12a0d711be92e9,https://premium.appaniac.com/s2s?token=eba4a0d4-627f-11e9-aa29-901b0ededfcf&transaction_id=11df7975756c5edffe12a0d711be92e9,idfa_C176198A-B4D2-4396-B67E-6BBBD422CA3F,ja
1P0aCcizQpyl9_vpDpQ8xQ,appaniac,978484ec-9bfd-4cc2-81f0-86e276770322_a32966b34cf0376ba3500ac414ecd58a,install,3.0,180.47.160.47,514029CD-3A38-46F4-BE76-06A606F44040,1558519986,2019-05-22 18:13:06,1558520055,2019-05-22 18:14:15,1558520085,54aa1dae3d745aebbc818f000ff98ca6,https://premium.appaniac.com/s2s?token=eba4a0d4-627f-11e9-aa29-901b0ededfcf&transaction_id=54aa1dae3d745aebbc818f000ff98ca6,idfa_514029CD-3A38-46F4-BE76-06A606F44040,ja
1P0aCcizQpyl9_vpDpQ8xQ,appaniac,978484ec-9bfd-4cc2-81f0-86e276770322_a32966b34cf0376ba3500ac414ecd58a,install,3.0,61.198.88.166,4D197887-09D6-41CA-A420-134380391461,1558519408,2019-05-22 18:03:28,1558519466,2019-05-22 18:04:26,1558519496,ddb71e286b283d3f705dcd58f10d6cfd,https://premium.appaniac.com/s2s?token=eba4a0d4-627f-11e9-aa29-901b0ededfcf&transaction_id=ddb71e286b283d3f705dcd58f10d6cfd,idfa_4D197887-09D6-41CA-A420-134380391461,ja
1P0aCcizQpyl9_vpDpQ8xQ,appaniac,978484ec-9bfd-4cc2-81f0-86e276770322_a32966b34cf0376ba3500ac414ecd58a,install,3.0,202.236.175.40,CE037EF2-AD82-40FB-8B71-8D8EAA5A8A6C,1558519134,2019-05-22 17:58:54,1558519193,2019-05-22 17:59:53,1558519223,26a5af3c7e4878272aef54e23694547e,https://premium.appaniac.com/s2s?token=eba4a0d4-627f-11e9-aa29-901b0ededfcf&transaction_id=26a5af3c7e4878272aef54e23694547e,idfa_CE037EF2-AD82-40FB-8B71-8D8EAA5A8A6C,en
1P0aCcizQpyl9_vpDpQ8xQ,appaniac,978484ec-9bfd-4cc2-81f0-86e276770322_a32966b34cf0376ba3500ac414ecd58a,install,3.0,153.156.231.132,4F372B29-6DB5-4A5E-B659-A77D32A438B1,1558519913,2019-05-22 18:11:53,1558519974,2019-05-22 18:12:54,1558520005,fd646367e81ac4ec9a1658955232aecc,https://premium.appaniac.com/s2s?token=eba4a0d4-627f-11e9-aa29-901b0ededfcf&transaction_id=fd646367e81ac4ec9a1658955232aecc,idfa_4F372B29-6DB5-4A5E-B659-A77D32A438B1,ja
1P0aCcizQpyl9_vpDpQ8xQ,appaniac,978484ec-9bfd-4cc2-81f0-86e276770322_a32966b34cf0376ba3500ac414ecd58a,install,3.0,180.146.99.198,4093D826-6609-4BB6-A69A-1899D410A305,1558576963,2019-05-23 10:02:43,1558577019,2019-05-23 10:03:39,1558577049,60dd070a51a0bd73940f1ea6dc11658a,https://premium.appaniac.com/s2s?token=eba4a0d4-627f-11e9-aa29-901b0ededfcf&transaction_id=60dd070a51a0bd73940f1ea6dc11658a,idfa_4093D826-6609-4BB6-A69A-1899D410A305,ja
1P0aCcizQpyl9_vpDpQ8xQ,appaniac,978484ec-9bfd-4cc2-81f0-86e276770322_a32966b34cf0376ba3500ac414ecd58a,install,3.0,119.242.208.134,7CFBAB02-518E-4FE9-B014-2F5B9942AD4F,1558573865,2019-05-23 09:11:05,1558573908,2019-05-23 09:11:48,1558573938,a51371ad1decf90fbdb6bf5313172900,https://premium.appaniac.com/s2s?token=eba4a0d4-627f-11e9-aa29-901b0ededfcf&transaction_id=a51371ad1decf90fbdb6bf5313172900,idfa_7CFBAB02-518E-4FE9-B014-2F5B9942AD4F,en
1P0aCcizQpyl9_vpDpQ8xQ,appaniac,978484ec-9bfd-4cc2-81f0-86e276770322_a32966b34cf0376ba3500ac414ecd58a,install,3.0,180.199.210.70,A86DAE68-26CD-4B85-9871-08835F435049,1558519683,2019-05-22 18:08:03,1558519740,2019-05-22 18:09:00,1558519771,515352773ec80d1dd71e09b12b070bbf,https://premium.appaniac.com/s2s?token=eba4a0d4-627f-11e9-aa29-901b0ededfcf&transaction_id=515352773ec80d1dd71e09b12b070bbf,idfa_A86DAE68-26CD-4B85-9871-08835F435049,ja
1P0aCcizQpyl9_vpDpQ8xQ,appaniac,978484ec-9bfd-4cc2-81f0-86e276770322_a32966b34cf0376ba3500ac414ecd58a,install,3.0,60.42.166.85,E8AE161A-4757-4DDE-AA24-C084F07D3147,1558577146,2019-05-23 10:05:46,1558577207,2019-05-23 10:06:47,1558577237,9c4b9d312c4c4ee2aedb2580fd0d10cc,https://premium.appaniac.com/s2s?token=eba4a0d4-627f-11e9-aa29-901b0ededfcf&transaction_id=9c4b9d312c4c4ee2aedb2580fd0d10cc,idfa_E8AE161A-4757-4DDE-AA24-C084F07D3147,ja
1P0aCcizQpyl9_vpDpQ8xQ,appaniac,978484ec-9bfd-4cc2-81f0-86e276770322_a32966b34cf0376ba3500ac414ecd58a,install,3.0,114.153.56.107,10F899D2-263F-4CF7-8924-4086A0866EF6,1558575180,2019-05-23 09:33:00,1558575226,2019-05-23 09:33:46,1558575256,eb84bef657bccf6f932964bd27cb1c77,https://premium.appaniac.com/s2s?token=eba4a0d4-627f-11e9-aa29-901b0ededfcf&transaction_id=eb84bef657bccf6f932964bd27cb1c77,idfa_10F899D2-263F-4CF7-8924-4086A0866EF6,en
1P0aCcizQpyl9_vpDpQ8xQ,appaniac,978484ec-9bfd-4cc2-81f0-86e276770322_a32966b34cf0376ba3500ac414ecd58a,install,3.0,180.199.129.11,132F99A0-5CF2-4969-AD73-77BA0D1EFAFB,1558519146,2019-05-22 17:59:06,1558519193,2019-05-22 17:59:53,1558519223,73a8f8d419a5bf36fc453ed026757532,https://premium.appaniac.com/s2s?token=eba4a0d4-627f-11e9-aa29-901b0ededfcf&transaction_id=73a8f8d419a5bf36fc453ed026757532,idfa_132F99A0-5CF2-4969-AD73-77BA0D1EFAFB,ja
1P0aCcizQpyl9_vpDpQ8xQ,appaniac,978484ec-9bfd-4cc2-81f0-86e276770322_a32966b34cf0376ba3500ac414ecd58a,install,3.0,112.71.159.99,0A4AA79B-B55D-4A87-8C7E-7CB551D56D1F,1558573887,2019-05-23 09:11:27,1558573946,2019-05-23 09:12:26,1558573978,28c3e3dfabb54f07176918ac7be581ae,https://premium.appaniac.com/s2s?token=eba4a0d4-627f-11e9-aa29-901b0ededfcf&transaction_id=28c3e3dfabb54f07176918ac7be581ae,idfa_0A4AA79B-B55D-4A87-8C7E-7CB551D56D1F,ja
1P0aCcizQpyl9_vpDpQ8xQ,appaniac,978484ec-9bfd-4cc2-81f0-86e276770322_a32966b34cf0376ba3500ac414ecd58a,install,3.0,59.138.116.155,D00BB83F-5BE4-4836-A124-424FD265CF21,1558576100,2019-05-23 09:48:20,1558576162,2019-05-23 09:49:22,1558576193,6313630465bc9c0c27b60365a1c21c8a,https://premium.appaniac.com/s2s?token=eba4a0d4-627f-11e9-aa29-901b0ededfcf&transaction_id=6313630465bc9c0c27b60365a1c21c8a,idfa_D00BB83F-5BE4-4836-A124-424FD265CF21,ja
1P0aCcizQpyl9_vpDpQ8xQ,appaniac,978484ec-9bfd-4cc2-81f0-86e276770322_a32966b34cf0376ba3500ac414ecd58a,install,3.0,106.165.45.166,7C71F943-AF2C-438E-BA4C-CB2DA313FA9F,1558519404,2019-05-22 18:03:24,1558519459,2019-05-22 18:04:19,1558519489,98abc276dfcd05c9f0556abb79a1b500,https://premium.appaniac.com/s2s?token=eba4a0d4-627f-11e9-aa29-901b0ededfcf&transaction_id=98abc276dfcd05c9f0556abb79a1b500,idfa_7C71F943-AF2C-438E-BA4C-CB2DA313FA9F,ja
1P0aCcizQpyl9_vpDpQ8xQ,appaniac,978484ec-9bfd-4cc2-81f0-86e276770322_a32966b34cf0376ba3500ac414ecd58a,install,3.0,180.145.222.222,1A1D83E7-F683-405E-9716-F5D5802CF177,1558574357,2019-05-23 09:19:17,1558574423,2019-05-23 09:20:23,1558574455,976ca6a0e5f1dcd2556b3bdaace129e3,https://premium.appaniac.com/s2s?token=eba4a0d4-627f-11e9-aa29-901b0ededfcf&transaction_id=976ca6a0e5f1dcd2556b3bdaace129e3,idfa_1A1D83E7-F683-405E-9716-F5D5802CF177,ja
1P0aCcizQpyl9_vpDpQ8xQ,appaniac,978484ec-9bfd-4cc2-81f0-86e276770322_a32966b34cf0376ba3500ac414ecd58a,install,3.0,61.197.132.193,A4C9C61E-C419-4CA9-A398-796BEC0DC1A2,1558574716,2019-05-23 09:25:16,1558574772,2019-05-23 09:26:12,1558574803,9edc57331b71a1a9468806e6cec59468,https://premium.appaniac.com/s2s?token=eba4a0d4-627f-11e9-aa29-901b0ededfcf&transaction_id=9edc57331b71a1a9468806e6cec59468,idfa_A4C9C61E-C419-4CA9-A398-796BEC0DC1A2,ja
1P0aCcizQpyl9_vpDpQ8xQ,appaniac,978484ec-9bfd-4cc2-81f0-86e276770322_a32966b34cf0376ba3500ac414ecd58a,install,3.0,60.142.253.78,9CE0AA09-886D-4FF0-BA60-C1DA55190EC0,1558520240,2019-05-22 18:17:20,1558520288,2019-05-22 18:18:08,1558520319,0991b48287f43d7c8bb8b96a95a72ad9,https://premium.appaniac.com/s2s?token=eba4a0d4-627f-11e9-aa29-901b0ededfcf&transaction_id=0991b48287f43d7c8bb8b96a95a72ad9,idfa_9CE0AA09-886D-4FF0-BA60-C1DA55190EC0,en
1P0aCcizQpyl9_vpDpQ8xQ,appaniac,978484ec-9bfd-4cc2-81f0-86e276770322_a32966b34cf0376ba3500ac414ecd58a,install,3.0,118.241.146.23,690AF819-9628-413C-AE11-EE387CA73B7E,1558574385,2019-05-23 09:19:45,1558574439,2019-05-23 09:20:39,1558574469,c3880613ce57b03ab3d195996deebb02,https://premium.appaniac.com/s2s?token=eba4a0d4-627f-11e9-aa29-901b0ededfcf&transaction_id=c3880613ce57b03ab3d195996deebb02,idfa_690AF819-9628-413C-AE11-EE387CA73B7E,en
1P0aCcizQpyl9_vpDpQ8xQ,appaniac,978484ec-9bfd-4cc2-81f0-86e276770322_a32966b34cf0376ba3500ac414ecd58a,install,3.0,58.0.227.5,42631855-7318-4392-A247-0D3DFA12022A,1558519968,2019-05-22 18:12:48,1558520021,2019-05-22 18:13:41,1558520051,3061e7969e8d5aaadd11658fbf2e31c5,https://premium.appaniac.com/s2s?token=eba4a0d4-627f-11e9-aa29-901b0ededfcf&transaction_id=3061e7969e8d5aaadd11658fbf2e31c5,idfa_42631855-7318-4392-A247-0D3DFA12022A,en
1P0aCcizQpyl9_vpDpQ8xQ,appaniac,978484ec-9bfd-4cc2-81f0-86e276770322_a32966b34cf0376ba3500ac414ecd58a,install,3.0,110.5.16.9,5D80DF76-E71C-4742-AC5D-B584E4F87289,1558574009,2019-05-23 09:13:29,1558574060,2019-05-23 09:14:20,1558574092,582bd0d20f3ff7e529669a32a3284f99,https://premium.appaniac.com/s2s?token=eba4a0d4-627f-11e9-aa29-901b0ededfcf&transaction_id=582bd0d20f3ff7e529669a32a3284f99,idfa_5D80DF76-E71C-4742-AC5D-B584E4F87289,ja
1P0aCcizQpyl9_vpDpQ8xQ,appaniac,978484ec-9bfd-4cc2-81f0-86e276770322_a32966b34cf0376ba3500ac414ecd58a,install,3.0,163.131.15.55,8ACDB74D-DF2B-4CE9-A5A3-06D7CD78B7AF,1558574903,2019-05-23 09:28:23,1558574968,2019-05-23 09:29:28,1558574998,e0b23ded7482a29820b8bb07cde1a43a,https://premium.appaniac.com/s2s?token=eba4a0d4-627f-11e9-aa29-901b0ededfcf&transaction_id=e0b23ded7482a29820b8bb07cde1a43a,idfa_8ACDB74D-DF2B-4CE9-A5A3-06D7CD78B7AF,ja
1P0aCcizQpyl9_vpDpQ8xQ,appaniac,978484ec-9bfd-4cc2-81f0-86e276770322_a32966b34cf0376ba3500ac414ecd58a,install,3.0,119.171.159.188,3A550AE5-354C-42E9-89B2-2521ACBDF42D,1558519408,2019-05-22 18:03:28,1558519454,2019-05-22 18:04:14,1558519484,3ad80016de487d07c7ead1149100fca5,https://premium.appaniac.com/s2s?token=eba4a0d4-627f-11e9-aa29-901b0ededfcf&transaction_id=3ad80016de487d07c7ead1149100fca5,idfa_3A550AE5-354C-42E9-89B2-2521ACBDF42D,en
1P0aCcizQpyl9_vpDpQ8xQ,appaniac,978484ec-9bfd-4cc2-81f0-86e276770322_a32966b34cf0376ba3500ac414ecd58a,install,3.0,61.207.201.9,8127F984-612D-4619-8735-719A46384680,1558576115,2019-05-23 09:48:35,1558576171,2019-05-23 09:49:31,1558576203,013983944e068111002ad744284975fb,https://premium.appaniac.com/s2s?token=eba4a0d4-627f-11e9-aa29-901b0ededfcf&transaction_id=013983944e068111002ad744284975fb,idfa_8127F984-612D-4619-8735-719A46384680,ja
1P0aCcizQpyl9_vpDpQ8xQ,appaniac,978484ec-9bfd-4cc2-81f0-86e276770322_a32966b34cf0376ba3500ac414ecd58a,install,3.0,222.12.36.153,52CD9D5E-03FB-4E9E-93A0-A4AA5933B987,1558573653,2019-05-23 09:07:33,1558573720,2019-05-23 09:08:40,1558573750,655fd92df05c67167a2e440f8332134d,https://premium.appaniac.com/s2s?token=eba4a0d4-627f-11e9-aa29-901b0ededfcf&transaction_id=655fd92df05c67167a2e440f8332134d,idfa_52CD9D5E-03FB-4E9E-93A0-A4AA5933B987,ja
1P0aCcizQpyl9_vpDpQ8xQ,appaniac,978484ec-9bfd-4cc2-81f0-86e276770322_a32966b34cf0376ba3500ac414ecd58a,install,3.0,27.139.159.148,069D9842-4EAD-49EB-936E-8A4EC995FABA,1558520340,2019-05-22 18:19:00,1558520387,2019-05-22 18:19:47,1558520417,9ddfb4fed0276b7c4bddb08164cd4414,https://premium.appaniac.com/s2s?token=eba4a0d4-627f-11e9-aa29-901b0ededfcf&transaction_id=9ddfb4fed0276b7c4bddb08164cd4414,idfa_069D9842-4EAD-49EB-936E-8A4EC995FABA,ja
1P0aCcizQpyl9_vpDpQ8xQ,appaniac,978484ec-9bfd-4cc2-81f0-86e276770322_a32966b34cf0376ba3500ac414ecd58a,install,3.0,131.213.175.247,6548AD0A-BD36-477E-B8FB-568FFAEE1EE0,1558519401,2019-05-22 18:03:21,1558519449,2019-05-22 18:04:09,1558519480,b3deceb30b9e055758ee0e087aee0200,https://premium.appaniac.com/s2s?token=eba4a0d4-627f-11e9-aa29-901b0ededfcf&transaction_id=b3deceb30b9e055758ee0e087aee0200,idfa_6548AD0A-BD36-477E-B8FB-568FFAEE1EE0,ja
1P0aCcizQpyl9_vpDpQ8xQ,appaniac,978484ec-9bfd-4cc2-81f0-86e276770322_a32966b34cf0376ba3500ac414ecd58a,install,3.0,115.162.247.6,F56FDA6E-7D45-4496-9E5A-ABF7EA47610D,1558576240,2019-05-23 09:50:40,1558576293,2019-05-23 09:51:33,1558576323,2aa1576dab25659550db30a40b27be56,https://premium.appaniac.com/s2s?token=eba4a0d4-627f-11e9-aa29-901b0ededfcf&transaction_id=2aa1576dab25659550db30a40b27be56,idfa_F56FDA6E-7D45-4496-9E5A-ABF7EA47610D,en
1P0aCcizQpyl9_vpDpQ8xQ,appaniac,978484ec-9bfd-4cc2-81f0-86e276770322_a32966b34cf0376ba3500ac414ecd58a,install,3.0,219.98.51.24,CD704F03-BB78-4976-835D-C3BBF5D416F6,1558575267,2019-05-23 09:34:27,1558575319,2019-05-23 09:35:19,1558575349,c694aa2b0f0e44c5cc056d0ec175032f,https://premium.appaniac.com/s2s?token=eba4a0d4-627f-11e9-aa29-901b0ededfcf&transaction_id=c694aa2b0f0e44c5cc056d0ec175032f,idfa_CD704F03-BB78-4976-835D-C3BBF5D416F6,ja
1P0aCcizQpyl9_vpDpQ8xQ,appaniac,978484ec-9bfd-4cc2-81f0-86e276770322_a32966b34cf0376ba3500ac414ecd58a,install,3.0,222.151.43.153,9DCEA2AC-6EC1-4FC7-9B13-1C6314ED99A6,1558576468,2019-05-23 09:54:28,1558576533,2019-05-23 09:55:33,1558576563,cd54bbcf85fdd0138efffd0819d37401,https://premium.appaniac.com/s2s?token=eba4a0d4-627f-11e9-aa29-901b0ededfcf&transaction_id=cd54bbcf85fdd0138efffd0819d37401,idfa_9DCEA2AC-6EC1-4FC7-9B13-1C6314ED99A6,ja
1P0aCcizQpyl9_vpDpQ8xQ,appaniac,978484ec-9bfd-4cc2-81f0-86e276770322_a32966b34cf0376ba3500ac414ecd58a,install,3.0,221.191.235.26,0E267078-C892-4B96-B0DC-0925FE91C705,1558519150,2019-05-22 17:59:10,1558519194,2019-05-22 17:59:54,1558519224,573eec28dd689507c49d570fedd9cc0b,https://premium.appaniac.com/s2s?token=eba4a0d4-627f-11e9-aa29-901b0ededfcf&transaction_id=573eec28dd689507c49d570fedd9cc0b,idfa_0E267078-C892-4B96-B0DC-0925FE91C705,ja
1P0aCcizQpyl9_vpDpQ8xQ,appaniac,978484ec-9bfd-4cc2-81f0-86e276770322_a32966b34cf0376ba3500ac414ecd58a,install,3.0,198.144.138.21,EAA2E183-5C54-4BD6-9987-8E20A8553ED0,1558520272,2019-05-22 18:17:52,1558520322,2019-05-22 18:18:42,1558520352,b15f300c522b55f733ac98c8af9df831,https://premium.appaniac.com/s2s?token=eba4a0d4-627f-11e9-aa29-901b0ededfcf&transaction_id=b15f300c522b55f733ac98c8af9df831,idfa_EAA2E183-5C54-4BD6-9987-8E20A8553ED0,ja
1P0aCcizQpyl9_vpDpQ8xQ,appaniac,978484ec-9bfd-4cc2-81f0-86e276770322_a32966b34cf0376ba3500ac414ecd58a,install,3.0,36.55.54.146,F6FAF443-EE17-4313-8F48-9F73BB981856,1558575218,2019-05-23 09:33:38,1558575274,2019-05-23 09:34:34,1558575305,eab489972106938dd00690ddb7d497b9,https://premium.appaniac.com/s2s?token=eba4a0d4-627f-11e9-aa29-901b0ededfcf&transaction_id=eab489972106938dd00690ddb7d497b9,idfa_F6FAF443-EE17-4313-8F48-9F73BB981856,ja
1P0aCcizQpyl9_vpDpQ8xQ,appaniac,978484ec-9bfd-4cc2-81f0-86e276770322_a32966b34cf0376ba3500ac414ecd58a,install,3.0,122.17.222.37,F539AAC0-C121-4D45-ACC0-18ABAC927443,1558519661,2019-05-22 18:07:41,1558519709,2019-05-22 18:08:29,1558519739,5a209ea66eb3fb2fe2940f4726a321a9,https://premium.appaniac.com/s2s?token=eba4a0d4-627f-11e9-aa29-901b0ededfcf&transaction_id=5a209ea66eb3fb2fe2940f4726a321a9,idfa_F539AAC0-C121-4D45-ACC0-18ABAC927443,ja
1P0aCcizQpyl9_vpDpQ8xQ,appaniac,978484ec-9bfd-4cc2-81f0-86e276770322_a32966b34cf0376ba3500ac414ecd58a,install,3.0,180.200.18.91,58DCA4BF-043C-49CC-B43D-8C8A18617AD8,1558575567,2019-05-23 09:39:27,1558575624,2019-05-23 09:40:24,1558575655,435d26db7ea162c9de4307488b0eddda,https://premium.appaniac.com/s2s?token=eba4a0d4-627f-11e9-aa29-901b0ededfcf&transaction_id=435d26db7ea162c9de4307488b0eddda,idfa_58DCA4BF-043C-49CC-B43D-8C8A18617AD8,ja
1P0aCcizQpyl9_vpDpQ8xQ,appaniac,978484ec-9bfd-4cc2-81f0-86e276770322_a32966b34cf0376ba3500ac414ecd58a,install,3.0,61.115.113.8,32FB94C0-1F9E-47BF-B473-0EC2B54BB677,1558519667,2019-05-22 18:07:47,1558519731,2019-05-22 18:08:51,1558519761,bc6b042f5c6b9f5a8512e0b598ca1e28,https://premium.appaniac.com/s2s?token=eba4a0d4-627f-11e9-aa29-901b0ededfcf&transaction_id=bc6b042f5c6b9f5a8512e0b598ca1e28,idfa_32FB94C0-1F9E-47BF-B473-0EC2B54BB677,en
1P0aCcizQpyl9_vpDpQ8xQ,appaniac,978484ec-9bfd-4cc2-81f0-86e276770322_a32966b34cf0376ba3500ac414ecd58a,install,3.0,126.3.234.32,115C7D76-98F7-4809-8C42-E0D6C366ECE3,1558574667,2019-05-23 09:24:27,1558574715,2019-05-23 09:25:15,1558574746,c9ec5afab8e57cd51357c0a9c5548260,https://premium.appaniac.com/s2s?token=eba4a0d4-627f-11e9-aa29-901b0ededfcf&transaction_id=c9ec5afab8e57cd51357c0a9c5548260,idfa_115C7D76-98F7-4809-8C42-E0D6C366ECE3,en
1P0aCcizQpyl9_vpDpQ8xQ,appaniac,978484ec-9bfd-4cc2-81f0-86e276770322_a32966b34cf0376ba3500ac414ecd58a,install,3.0,219.160.93.7,627FFD5C-A57F-4C11-A4A0-497586CDDE6C,1558574007,2019-05-23 09:13:27,1558574067,2019-05-23 09:14:27,1558574097,867bacab509ab671b469537de1f2b14d,https://premium.appaniac.com/s2s?token=eba4a0d4-627f-11e9-aa29-901b0ededfcf&transaction_id=867bacab509ab671b469537de1f2b14d,idfa_627FFD5C-A57F-4C11-A4A0-497586CDDE6C,ja
