cid,partner_id,channel_id,action_id,cpi,ip,idfa,click time,click datetime,install time,install datetime,postback time,click id,postback url,unique user id
6RxtUBBpRBWoduw0OmhmbA,appaniac,6b512c0c-1a38-4e8a-a7eb-ca5c993ac30d_6a3fffa7e08467bb58d7e595b2451172,Of81qbvWSPKfViI7CdMfcw,3.2,,50988fd1-3672-9f08-7fa5-537e866a7200,1559051207,2019-05-28 21:46:47,1559051287,2019-05-28 21:48:07,1559051287,d8dc4b8f3cc4a002bba408d4977df994,https://premium.appaniac.com/s2s?token=eba4a0d4-627f-11e9-aa29-901b0ededfcf&transaction_id=d8dc4b8f3cc4a002bba408d4977df994,idfa_50988fd1-3672-9f08-7fa5-537e866a7200,ja
6RxtUBBpRBWoduw0OmhmbA,appaniac,6b512c0c-1a38-4e8a-a7eb-ca5c993ac30d_6a3fffa7e08467bb58d7e595b2451172,Of81qbvWSPKfViI7CdMfcw,3.2,,70b9fb12-6e72-dec8-82a9-ba204930253e,1559050448,2019-05-28 21:34:08,1559050524,2019-05-28 21:35:24,1559050524,310e5c7ad0f650c035f763c7babd3975,https://premium.appaniac.com/s2s?token=eba4a0d4-627f-11e9-aa29-901b0ededfcf&transaction_id=310e5c7ad0f650c035f763c7babd3975,idfa_70b9fb12-6e72-dec8-82a9-ba204930253e,ja
6RxtUBBpRBWoduw0OmhmbA,appaniac,6b512c0c-1a38-4e8a-a7eb-ca5c993ac30d_6a3fffa7e08467bb58d7e595b2451172,Of81qbvWSPKfViI7CdMfcw,3.2,,6ada82fa-868b-e458-ca55-f5167f0bb343,1559052577,2019-05-28 22:09:37,1559052650,2019-05-28 22:10:50,1559052650,206ed94e0e01cdfd8320c476918fd651,https://premium.appaniac.com/s2s?token=eba4a0d4-627f-11e9-aa29-901b0ededfcf&transaction_id=206ed94e0e01cdfd8320c476918fd651,idfa_6ada82fa-868b-e458-ca55-f5167f0bb343,ja
6RxtUBBpRBWoduw0OmhmbA,appaniac,6b512c0c-1a38-4e8a-a7eb-ca5c993ac30d_6a3fffa7e08467bb58d7e595b2451172,Of81qbvWSPKfViI7CdMfcw,3.2,,ef728f70-b263-7e82-8690-9c4185abcf3b,1559050067,2019-05-28 21:27:47,1559050127,2019-05-28 21:28:47,1559050127,7b2dd01c5f74338d22d02ce55e20fd87,https://premium.appaniac.com/s2s?token=eba4a0d4-627f-11e9-aa29-901b0ededfcf&transaction_id=7b2dd01c5f74338d22d02ce55e20fd87,idfa_ef728f70-b263-7e82-8690-9c4185abcf3b,ja
6RxtUBBpRBWoduw0OmhmbA,appaniac,6b512c0c-1a38-4e8a-a7eb-ca5c993ac30d_e837732fe3352b7c8fdd4d0b66cfe13b,Of81qbvWSPKfViI7CdMfcw,3.2,,d3fd8cc2-f10d-4b81-a542-410225d3943b,1559179955,2019-05-30 09:32:35,1559180476,2019-05-30 09:41:16,1559180476,a6f05fac92aaa32d6de41ca4a77040a7,https://premium.appaniac.com/s2s?token=eba4a0d4-627f-11e9-aa29-901b0ededfcf&transaction_id=a6f05fac92aaa32d6de41ca4a77040a7,idfa_d3fd8cc2-f10d-4b81-a542-410225d3943b,ja
6RxtUBBpRBWoduw0OmhmbA,appaniac,6b512c0c-1a38-4e8a-a7eb-ca5c993ac30d_e837732fe3352b7c8fdd4d0b66cfe13b,Of81qbvWSPKfViI7CdMfcw,3.2,,a58bb845-a5c5-47bb-8fed-aeb0ac26c1c1,1559180671,2019-05-30 09:44:31,1559180747,2019-05-30 09:45:47,1559180747,e0d5af5fc6e79b1eae43f9b761f971b6,https://premium.appaniac.com/s2s?token=eba4a0d4-627f-11e9-aa29-901b0ededfcf&transaction_id=e0d5af5fc6e79b1eae43f9b761f971b6,idfa_a58bb845-a5c5-47bb-8fed-aeb0ac26c1c1,ja
6RxtUBBpRBWoduw0OmhmbA,appaniac,6b512c0c-1a38-4e8a-a7eb-ca5c993ac30d_6a3fffa7e08467bb58d7e595b2451172,Of81qbvWSPKfViI7CdMfcw,3.2,,bbde1b19-d3b6-df5e-3a06-ad4936296bd8,1559052157,2019-05-28 22:02:37,1559052270,2019-05-28 22:04:30,1559052270,5b85664e0e1b7d175d8415e0197be804,https://premium.appaniac.com/s2s?token=eba4a0d4-627f-11e9-aa29-901b0ededfcf&transaction_id=5b85664e0e1b7d175d8415e0197be804,idfa_bbde1b19-d3b6-df5e-3a06-ad4936296bd8,ja
6RxtUBBpRBWoduw0OmhmbA,appaniac,6b512c0c-1a38-4e8a-a7eb-ca5c993ac30d_e837732fe3352b7c8fdd4d0b66cfe13b,Of81qbvWSPKfViI7CdMfcw,3.2,,f30caaea-458c-4c1a-a4b5-a011bb49a5a4,1559181841,2019-05-30 10:04:01,1559181943,2019-05-30 10:05:43,1559181943,4c1f3af3c4b062ed3fcafcdcd11b68b3,https://premium.appaniac.com/s2s?token=eba4a0d4-627f-11e9-aa29-901b0ededfcf&transaction_id=4c1f3af3c4b062ed3fcafcdcd11b68b3,idfa_f30caaea-458c-4c1a-a4b5-a011bb49a5a4,ja
6RxtUBBpRBWoduw0OmhmbA,appaniac,6b512c0c-1a38-4e8a-a7eb-ca5c993ac30d_6a3fffa7e08467bb58d7e595b2451172,Of81qbvWSPKfViI7CdMfcw,3.2,,aa29f88b-dab2-5db9-50c0-e99bb70bd296,1559051786,2019-05-28 21:56:26,1559051860,2019-05-28 21:57:40,1559051860,c071d8c13f321515a17488742191b78d,https://premium.appaniac.com/s2s?token=eba4a0d4-627f-11e9-aa29-901b0ededfcf&transaction_id=c071d8c13f321515a17488742191b78d,idfa_aa29f88b-dab2-5db9-50c0-e99bb70bd296,ja
6RxtUBBpRBWoduw0OmhmbA,appaniac,6b512c0c-1a38-4e8a-a7eb-ca5c993ac30d_e837732fe3352b7c8fdd4d0b66cfe13b,Of81qbvWSPKfViI7CdMfcw,3.2,,8912ba9a-d8e5-4d0a-aad4-7b50dc38b5dc,1559182221,2019-05-30 10:10:21,1559182317,2019-05-30 10:11:57,1559182317,e09cd087db2ab14b42a9d3cc74a245c2,https://premium.appaniac.com/s2s?token=eba4a0d4-627f-11e9-aa29-901b0ededfcf&transaction_id=e09cd087db2ab14b42a9d3cc74a245c2,idfa_8912ba9a-d8e5-4d0a-aad4-7b50dc38b5dc,ja
6RxtUBBpRBWoduw0OmhmbA,appaniac,6b512c0c-1a38-4e8a-a7eb-ca5c993ac30d_6a3fffa7e08467bb58d7e595b2451172,Of81qbvWSPKfViI7CdMfcw,3.2,,756aba89-2d4a-83d0-adf8-bd727d212557,1559050831,2019-05-28 21:40:31,1559050909,2019-05-28 21:41:49,1559050909,760b6f38f80239c3944f502b79f47ba6,https://premium.appaniac.com/s2s?token=eba4a0d4-627f-11e9-aa29-901b0ededfcf&transaction_id=760b6f38f80239c3944f502b79f47ba6,idfa_756aba89-2d4a-83d0-adf8-bd727d212557,ja
6RxtUBBpRBWoduw0OmhmbA,appaniac,6b512c0c-1a38-4e8a-a7eb-ca5c993ac30d_e837732fe3352b7c8fdd4d0b66cfe13b,Of81qbvWSPKfViI7CdMfcw,3.2,,b3d4537c-732e-46dd-b26d-9deab3a01c38,1559181244,2019-05-30 09:54:04,1559181330,2019-05-30 09:55:30,1559181330,0594ab39a00b3ced5ff47b4af9d89888,https://premium.appaniac.com/s2s?token=eba4a0d4-627f-11e9-aa29-901b0ededfcf&transaction_id=0594ab39a00b3ced5ff47b4af9d89888,idfa_b3d4537c-732e-46dd-b26d-9deab3a01c38,ja
