cid,partner_id,channel_id,action_id,cpi,ip,idfa,click time,click datetime,install time,install datetime,postback time,click id,postback url,unique user id
UO_LhZmrTxKmQoB6iCWXbQ,appaniac,6bfd93a4-a100-4899-958a-b7b80c2b5ad5_f52741c4aeb238ba203ab08a73c77fba,Install,1.2,112.170.215.31,4b3bf6c5-51ec-4a6c-91be-e3fca111e49a,1559095214,2019-05-29 10:00:14,1559095322,2019-05-29 10:02:02,1559095352,f9a475886271424a6adc32aac7a785b5,https://premium.appaniac.com/s2s?token=eba4a0d4-627f-11e9-aa29-901b0ededfcf&transaction_id=f9a475886271424a6adc32aac7a785b5,idfa_4b3bf6c5-51ec-4a6c-91be-e3fca111e49a,%ED%95%9C%EA%B5%AD%EC%96%B4
UO_LhZmrTxKmQoB6iCWXbQ,appaniac,6bfd93a4-a100-4899-958a-b7b80c2b5ad5_f52741c4aeb238ba203ab08a73c77fba,Install,1.2,175.118.69.8,00b004e6-e991-49d4-9b80-2ece9654c09f,1559094169,2019-05-29 09:42:49,1559094259,2019-05-29 09:44:19,1559094290,d00ecf016ed3d0fc6df919c15031394d,https://premium.appaniac.com/s2s?token=eba4a0d4-627f-11e9-aa29-901b0ededfcf&transaction_id=d00ecf016ed3d0fc6df919c15031394d,idfa_00b004e6-e991-49d4-9b80-2ece9654c09f,%ED%95%9C%EA%B5%AD%EC%96%B4
UO_LhZmrTxKmQoB6iCWXbQ,appaniac,6bfd93a4-a100-4899-958a-b7b80c2b5ad5_f52741c4aeb238ba203ab08a73c77fba,Install,1.2,61.74.226.7,e8b6b52b-74b7-4ebf-aac8-ddf9b97b1485,1559095320,2019-05-29 10:02:00,1559095443,2019-05-29 10:04:03,1559095552,9aaf765d8e6fbb3d318e8856988ee011,https://premium.appaniac.com/s2s?token=eba4a0d4-627f-11e9-aa29-901b0ededfcf&transaction_id=9aaf765d8e6fbb3d318e8856988ee011,idfa_e8b6b52b-74b7-4ebf-aac8-ddf9b97b1485,%ED%95%9C%EA%B5%AD%EC%96%B4
UO_LhZmrTxKmQoB6iCWXbQ,appaniac,6bfd93a4-a100-4899-958a-b7b80c2b5ad5_f52741c4aeb238ba203ab08a73c77fba,Install,1.2,211.244.225.164,4ecdefaa-a327-4c59-999e-2e8e0a34819c,1559095519,2019-05-29 10:05:19,1559095608,2019-05-29 10:06:48,1559095638,06780a8db007cfdb8d0a35984b47b192,https://premium.appaniac.com/s2s?token=eba4a0d4-627f-11e9-aa29-901b0ededfcf&transaction_id=06780a8db007cfdb8d0a35984b47b192,idfa_4ecdefaa-a327-4c59-999e-2e8e0a34819c,%ED%95%9C%EA%B5%AD%EC%96%B4
UO_LhZmrTxKmQoB6iCWXbQ,appaniac,6bfd93a4-a100-4899-958a-b7b80c2b5ad5_f52741c4aeb238ba203ab08a73c77fba,Install,1.2,1.234.5.210,41254e3b-e0eb-48dc-82f0-6c41d78eb3f2,1559094984,2019-05-29 09:56:24,1559095093,2019-05-29 09:58:13,1559095124,d7cce4313e0aac0ce2976b1b06a64fbc,https://premium.appaniac.com/s2s?token=eba4a0d4-627f-11e9-aa29-901b0ededfcf&transaction_id=d7cce4313e0aac0ce2976b1b06a64fbc,idfa_41254e3b-e0eb-48dc-82f0-6c41d78eb3f2,%ED%95%9C%EA%B5%AD%EC%96%B4
UO_LhZmrTxKmQoB6iCWXbQ,appaniac,6bfd93a4-a100-4899-958a-b7b80c2b5ad5_f52741c4aeb238ba203ab08a73c77fba,Install,1.2,210.94.80.108,c75746b1-019e-41dd-8f8c-61dfef8f1448,1559095990,2019-05-29 10:13:10,1559096103,2019-05-29 10:15:03,1559096466,f036b4cad6606df771b550cc14de0388,https://premium.appaniac.com/s2s?token=eba4a0d4-627f-11e9-aa29-901b0ededfcf&transaction_id=f036b4cad6606df771b550cc14de0388,idfa_c75746b1-019e-41dd-8f8c-61dfef8f1448,%ED%95%9C%EA%B5%AD%EC%96%B4
UO_LhZmrTxKmQoB6iCWXbQ,appaniac,6bfd93a4-a100-4899-958a-b7b80c2b5ad5_f52741c4aeb238ba203ab08a73c77fba,Install,1.2,121.160.188.114,98daf296-670c-4762-be3b-69389da6fab6,1559094895,2019-05-29 09:54:55,1559095093,2019-05-29 09:58:13,1559095123,0d571171d94f77775f836a45834d51b8,https://premium.appaniac.com/s2s?token=eba4a0d4-627f-11e9-aa29-901b0ededfcf&transaction_id=0d571171d94f77775f836a45834d51b8,idfa_98daf296-670c-4762-be3b-69389da6fab6,%ED%95%9C%EA%B5%AD%EC%96%B4
UO_LhZmrTxKmQoB6iCWXbQ,appaniac,6bfd93a4-a100-4899-958a-b7b80c2b5ad5_f52741c4aeb238ba203ab08a73c77fba,Install,1.2,112.218.155.92,1e2f8142-f26c-4a17-8a00-77a3eb551b61,1559095160,2019-05-29 09:59:20,1559095267,2019-05-29 10:01:07,1559095312,aaf87fdf316bdcf4c73e953441a5847c,https://premium.appaniac.com/s2s?token=eba4a0d4-627f-11e9-aa29-901b0ededfcf&transaction_id=aaf87fdf316bdcf4c73e953441a5847c,idfa_1e2f8142-f26c-4a17-8a00-77a3eb551b61,%ED%95%9C%EA%B5%AD%EC%96%B4
UO_LhZmrTxKmQoB6iCWXbQ,appaniac,6bfd93a4-a100-4899-958a-b7b80c2b5ad5_f52741c4aeb238ba203ab08a73c77fba,Install,1.2,112.220.210.10,ac5a2f7e-8551-4b67-a86f-517ff2c4790e,1559095663,2019-05-29 10:07:43,1559095775,2019-05-29 10:09:35,1559095806,2b77094549fb4ff7157238c3fbe167dd,https://premium.appaniac.com/s2s?token=eba4a0d4-627f-11e9-aa29-901b0ededfcf&transaction_id=2b77094549fb4ff7157238c3fbe167dd,idfa_ac5a2f7e-8551-4b67-a86f-517ff2c4790e,%ED%95%9C%EA%B5%AD%EC%96%B4
UO_LhZmrTxKmQoB6iCWXbQ,appaniac,6bfd93a4-a100-4899-958a-b7b80c2b5ad5_f52741c4aeb238ba203ab08a73c77fba,Install,1.2,114.30.165.109,4a933e28-ed7a-4633-83c1-fd232f7a05b3,1559096068,2019-05-29 10:14:28,1559096178,2019-05-29 10:16:18,1559096211,ce7244f4bb1036fbda7307f7834272cf,https://premium.appaniac.com/s2s?token=eba4a0d4-627f-11e9-aa29-901b0ededfcf&transaction_id=ce7244f4bb1036fbda7307f7834272cf,idfa_4a933e28-ed7a-4633-83c1-fd232f7a05b3,%ED%95%9C%EA%B5%AD%EC%96%B4
UO_LhZmrTxKmQoB6iCWXbQ,appaniac,6bfd93a4-a100-4899-958a-b7b80c2b5ad5_f52741c4aeb238ba203ab08a73c77fba,Install,1.2,121.152.137.21,7bb24354-06bb-49e5-a6df-6519a1ab80e4,1559093807,2019-05-29 09:36:47,1559093900,2019-05-29 09:38:20,1559093931,4caf17af21d3e1def3ee19b3438b2f1f,https://premium.appaniac.com/s2s?token=eba4a0d4-627f-11e9-aa29-901b0ededfcf&transaction_id=4caf17af21d3e1def3ee19b3438b2f1f,idfa_7bb24354-06bb-49e5-a6df-6519a1ab80e4,%ED%95%9C%EA%B5%AD%EC%96%B4
UO_LhZmrTxKmQoB6iCWXbQ,appaniac,6bfd93a4-a100-4899-958a-b7b80c2b5ad5_f52741c4aeb238ba203ab08a73c77fba,Install,1.2,218.38.136.99,03bb02f5-59f7-4e77-8133-45a2251397fd,1559094848,2019-05-29 09:54:08,1559094928,2019-05-29 09:55:28,1559094969,17bc292942a23e731459a4782c515426,https://premium.appaniac.com/s2s?token=eba4a0d4-627f-11e9-aa29-901b0ededfcf&transaction_id=17bc292942a23e731459a4782c515426,idfa_03bb02f5-59f7-4e77-8133-45a2251397fd,%ED%95%9C%EA%B5%AD%EC%96%B4
UO_LhZmrTxKmQoB6iCWXbQ,appaniac,6bfd93a4-a100-4899-958a-b7b80c2b5ad5_f52741c4aeb238ba203ab08a73c77fba,Install,1.2,220.81.21.171,1f359ab8-5d25-4c03-93c1-f24c3aabe112,1559094579,2019-05-29 09:49:39,1559094662,2019-05-29 09:51:02,1559094716,0e38e94777c1212ab15fd4cf72a6a596,https://premium.appaniac.com/s2s?token=eba4a0d4-627f-11e9-aa29-901b0ededfcf&transaction_id=0e38e94777c1212ab15fd4cf72a6a596,idfa_1f359ab8-5d25-4c03-93c1-f24c3aabe112,%ED%95%9C%EA%B5%AD%EC%96%B4
UO_LhZmrTxKmQoB6iCWXbQ,appaniac,6bfd93a4-a100-4899-958a-b7b80c2b5ad5_f52741c4aeb238ba203ab08a73c77fba,Install,1.2,114.30.165.115,3f4b8184-24d3-4335-b859-a013e9baa546,1559095134,2019-05-29 09:58:54,1559095303,2019-05-29 10:01:43,1559095354,c3bc82eebd952e883863c2eecc923e1c,https://premium.appaniac.com/s2s?token=eba4a0d4-627f-11e9-aa29-901b0ededfcf&transaction_id=c3bc82eebd952e883863c2eecc923e1c,idfa_3f4b8184-24d3-4335-b859-a013e9baa546,%ED%95%9C%EA%B5%AD%EC%96%B4
UO_LhZmrTxKmQoB6iCWXbQ,appaniac,6bfd93a4-a100-4899-958a-b7b80c2b5ad5_f52741c4aeb238ba203ab08a73c77fba,Install,1.2,106.254.212.86,b057ce41-5450-453f-95ff-4176c62ffa86,1559095008,2019-05-29 09:56:48,1559095107,2019-05-29 09:58:27,1559095209,d4d41ed569ace4f04d3530e6413bb314,https://premium.appaniac.com/s2s?token=eba4a0d4-627f-11e9-aa29-901b0ededfcf&transaction_id=d4d41ed569ace4f04d3530e6413bb314,idfa_b057ce41-5450-453f-95ff-4176c62ffa86,%ED%95%9C%EA%B5%AD%EC%96%B4
UO_LhZmrTxKmQoB6iCWXbQ,appaniac,6bfd93a4-a100-4899-958a-b7b80c2b5ad5_f52741c4aeb238ba203ab08a73c77fba,Install,1.2,211.182.112.240,0e0d41e8-db4f-47b1-a8be-fe21a1e7fbd8,1559094136,2019-05-29 09:42:16,1559094224,2019-05-29 09:43:44,1559094275,71852118e3cd4210a85f366f54456ce3,https://premium.appaniac.com/s2s?token=eba4a0d4-627f-11e9-aa29-901b0ededfcf&transaction_id=71852118e3cd4210a85f366f54456ce3,idfa_0e0d41e8-db4f-47b1-a8be-fe21a1e7fbd8,%ED%95%9C%EA%B5%AD%EC%96%B4
UO_LhZmrTxKmQoB6iCWXbQ,appaniac,6bfd93a4-a100-4899-958a-b7b80c2b5ad5_f52741c4aeb238ba203ab08a73c77fba,Install,1.2,183.98.75.48,6b483ecb-50b4-47d1-8314-f599b5061726,1559094459,2019-05-29 09:47:39,1559094556,2019-05-29 09:49:16,1559094670,6ad45d9b0baa4754149defec945b04ab,https://premium.appaniac.com/s2s?token=eba4a0d4-627f-11e9-aa29-901b0ededfcf&transaction_id=6ad45d9b0baa4754149defec945b04ab,idfa_6b483ecb-50b4-47d1-8314-f599b5061726,%ED%95%9C%EA%B5%AD%EC%96%B4
UO_LhZmrTxKmQoB6iCWXbQ,appaniac,6bfd93a4-a100-4899-958a-b7b80c2b5ad5_f52741c4aeb238ba203ab08a73c77fba,Install,1.2,121.150.32.84,9bc69a8a-2447-4797-94f8-a547114f50aa,1559095497,2019-05-29 10:04:57,1559095599,2019-05-29 10:06:39,1559095636,6984242a43bc8f85bb84cbbb2a6aeb4b,https://premium.appaniac.com/s2s?token=eba4a0d4-627f-11e9-aa29-901b0ededfcf&transaction_id=6984242a43bc8f85bb84cbbb2a6aeb4b,idfa_9bc69a8a-2447-4797-94f8-a547114f50aa,%ED%95%9C%EA%B5%AD%EC%96%B4
UO_LhZmrTxKmQoB6iCWXbQ,appaniac,6bfd93a4-a100-4899-958a-b7b80c2b5ad5_f52741c4aeb238ba203ab08a73c77fba,Install,1.2,112.214.162.182,d0b217a9-040c-4d57-ad22-2156e0ed392b,1559093930,2019-05-29 09:38:50,1559094035,2019-05-29 09:40:35,1559094073,1df40762f2a45e8ed81d476677a943a0,https://premium.appaniac.com/s2s?token=eba4a0d4-627f-11e9-aa29-901b0ededfcf&transaction_id=1df40762f2a45e8ed81d476677a943a0,idfa_d0b217a9-040c-4d57-ad22-2156e0ed392b,%ED%95%9C%EA%B5%AD%EC%96%B4
UO_LhZmrTxKmQoB6iCWXbQ,appaniac,6bfd93a4-a100-4899-958a-b7b80c2b5ad5_f52741c4aeb238ba203ab08a73c77fba,Install,1.2,175.226.157.65,e71a3dda-7982-4dd2-afb4-de1b5e227829,1559094824,2019-05-29 09:53:44,1559094927,2019-05-29 09:55:27,1559094997,ffd94f4583b2261b8b6db0351fb478e4,https://premium.appaniac.com/s2s?token=eba4a0d4-627f-11e9-aa29-901b0ededfcf&transaction_id=ffd94f4583b2261b8b6db0351fb478e4,idfa_e71a3dda-7982-4dd2-afb4-de1b5e227829,%ED%95%9C%EA%B5%AD%EC%96%B4
UO_LhZmrTxKmQoB6iCWXbQ,appaniac,6bfd93a4-a100-4899-958a-b7b80c2b5ad5_f52741c4aeb238ba203ab08a73c77fba,Install,1.2,1.234.5.210,a9bd685f-cec6-4fa4-ad11-dd6a6f23d9d1,1559094191,2019-05-29 09:43:11,1559094274,2019-05-29 09:44:34,1559094333,5ee268cce70200480a863a264f19fd0d,https://premium.appaniac.com/s2s?token=eba4a0d4-627f-11e9-aa29-901b0ededfcf&transaction_id=5ee268cce70200480a863a264f19fd0d,idfa_a9bd685f-cec6-4fa4-ad11-dd6a6f23d9d1,%ED%95%9C%EA%B5%AD%EC%96%B4
UO_LhZmrTxKmQoB6iCWXbQ,appaniac,6bfd93a4-a100-4899-958a-b7b80c2b5ad5_f52741c4aeb238ba203ab08a73c77fba,Install,1.2,211.46.223.240,a7cf30ca-f2e7-44cc-8ed9-47e9c0a9ae64,1559094274,2019-05-29 09:44:34,1559094384,2019-05-29 09:46:24,1559094415,1a595c57b33c909e89939fb68b4da374,https://premium.appaniac.com/s2s?token=eba4a0d4-627f-11e9-aa29-901b0ededfcf&transaction_id=1a595c57b33c909e89939fb68b4da374,idfa_a7cf30ca-f2e7-44cc-8ed9-47e9c0a9ae64,%ED%95%9C%EA%B5%AD%EC%96%B4
UO_LhZmrTxKmQoB6iCWXbQ,appaniac,6bfd93a4-a100-4899-958a-b7b80c2b5ad5_f52741c4aeb238ba203ab08a73c77fba,Install,1.2,112.222.142.154,bd6f4e11-2905-48fe-96a0-14496645674b,1559093849,2019-05-29 09:37:29,1559093953,2019-05-29 09:39:13,1559094005,d518f66d367348c7e366141418867963,https://premium.appaniac.com/s2s?token=eba4a0d4-627f-11e9-aa29-901b0ededfcf&transaction_id=d518f66d367348c7e366141418867963,idfa_bd6f4e11-2905-48fe-96a0-14496645674b,%ED%95%9C%EA%B5%AD%EC%96%B4
UO_LhZmrTxKmQoB6iCWXbQ,appaniac,6bfd93a4-a100-4899-958a-b7b80c2b5ad5_f52741c4aeb238ba203ab08a73c77fba,Install,1.2,119.204.177.120,11c6e58c-3cf4-43ea-a0b2-f952548b4490,1559093924,2019-05-29 09:38:44,1559094044,2019-05-29 09:40:44,1559094075,00a0e586dbb07a9331def2fe5c68f10f,https://premium.appaniac.com/s2s?token=eba4a0d4-627f-11e9-aa29-901b0ededfcf&transaction_id=00a0e586dbb07a9331def2fe5c68f10f,idfa_11c6e58c-3cf4-43ea-a0b2-f952548b4490,%ED%95%9C%EA%B5%AD%EC%96%B4
UO_LhZmrTxKmQoB6iCWXbQ,appaniac,6bfd93a4-a100-4899-958a-b7b80c2b5ad5_f52741c4aeb238ba203ab08a73c77fba,Install,1.2,211.47.68.238,df8e83db-a6fd-4fcc-9bbf-516d4b593512,1559093927,2019-05-29 09:38:47,1559094027,2019-05-29 09:40:27,1559094057,d8ecd04ca16673d5d24e3280f42e3026,https://premium.appaniac.com/s2s?token=eba4a0d4-627f-11e9-aa29-901b0ededfcf&transaction_id=d8ecd04ca16673d5d24e3280f42e3026,idfa_df8e83db-a6fd-4fcc-9bbf-516d4b593512,%ED%95%9C%EA%B5%AD%EC%96%B4
UO_LhZmrTxKmQoB6iCWXbQ,appaniac,6bfd93a4-a100-4899-958a-b7b80c2b5ad5_f52741c4aeb238ba203ab08a73c77fba,Install,1.2,114.30.203.10,eeb1e0b3-9a4e-4736-a3ea-cf112db2ebe1,1559095149,2019-05-29 09:59:09,1559095240,2019-05-29 10:00:40,1559095401,1254b1bc987c2e1af24ec6c675246387,https://premium.appaniac.com/s2s?token=eba4a0d4-627f-11e9-aa29-901b0ededfcf&transaction_id=1254b1bc987c2e1af24ec6c675246387,idfa_eeb1e0b3-9a4e-4736-a3ea-cf112db2ebe1,%ED%95%9C%EA%B5%AD%EC%96%B4
UO_LhZmrTxKmQoB6iCWXbQ,appaniac,6bfd93a4-a100-4899-958a-b7b80c2b5ad5_f52741c4aeb238ba203ab08a73c77fba,Install,1.2,123.200.114.247,e0056fcf-0512-46fc-b916-f4cb2520e70f,1559095640,2019-05-29 10:07:20,1559095725,2019-05-29 10:08:45,1559095793,7c9db1bc9da0d9a00e39f2bff353a596,https://premium.appaniac.com/s2s?token=eba4a0d4-627f-11e9-aa29-901b0ededfcf&transaction_id=7c9db1bc9da0d9a00e39f2bff353a596,idfa_e0056fcf-0512-46fc-b916-f4cb2520e70f,%ED%95%9C%EA%B5%AD%EC%96%B4
UO_LhZmrTxKmQoB6iCWXbQ,appaniac,6bfd93a4-a100-4899-958a-b7b80c2b5ad5_f52741c4aeb238ba203ab08a73c77fba,Install,1.2,118.62.9.2,f8e238c9-924f-483d-a08e-f7ff31bcc0a7,1559095661,2019-05-29 10:07:41,1559095771,2019-05-29 10:09:31,1559095956,a4d123e55df5cd596f9b6c26d70b67ca,https://premium.appaniac.com/s2s?token=eba4a0d4-627f-11e9-aa29-901b0ededfcf&transaction_id=a4d123e55df5cd596f9b6c26d70b67ca,idfa_f8e238c9-924f-483d-a08e-f7ff31bcc0a7,%ED%95%9C%EA%B5%AD%EC%96%B4
UO_LhZmrTxKmQoB6iCWXbQ,appaniac,6bfd93a4-a100-4899-958a-b7b80c2b5ad5_f52741c4aeb238ba203ab08a73c77fba,Install,1.2,121.131.110.228,80901937-5b04-4bd2-8335-e63a2ecb854b,1559094251,2019-05-29 09:44:11,1559094348,2019-05-29 09:45:48,1559094380,f24b1cfab3627203990f64ae26f41b74,https://premium.appaniac.com/s2s?token=eba4a0d4-627f-11e9-aa29-901b0ededfcf&transaction_id=f24b1cfab3627203990f64ae26f41b74,idfa_80901937-5b04-4bd2-8335-e63a2ecb854b,%ED%95%9C%EA%B5%AD%EC%96%B4
UO_LhZmrTxKmQoB6iCWXbQ,appaniac,6bfd93a4-a100-4899-958a-b7b80c2b5ad5_f52741c4aeb238ba203ab08a73c77fba,Install,1.2,106.255.253.178,9eed3f90-904b-466f-8461-18164ca35fce,1559093821,2019-05-29 09:37:01,1559093919,2019-05-29 09:38:39,1559093971,c3d114e75a103249155ccc2854e7abd6,https://premium.appaniac.com/s2s?token=eba4a0d4-627f-11e9-aa29-901b0ededfcf&transaction_id=c3d114e75a103249155ccc2854e7abd6,idfa_9eed3f90-904b-466f-8461-18164ca35fce,%ED%95%9C%EA%B5%AD%EC%96%B4
UO_LhZmrTxKmQoB6iCWXbQ,appaniac,6bfd93a4-a100-4899-958a-b7b80c2b5ad5_f52741c4aeb238ba203ab08a73c77fba,Install,1.2,118.41.9.209,26dac450-eed6-49fb-9d7f-ffd1f0a2a2c0,1559093913,2019-05-29 09:38:33,1559094051,2019-05-29 09:40:51,1559094082,d3758fc4097e6e4e6b9d40e916f88f76,https://premium.appaniac.com/s2s?token=eba4a0d4-627f-11e9-aa29-901b0ededfcf&transaction_id=d3758fc4097e6e4e6b9d40e916f88f76,idfa_26dac450-eed6-49fb-9d7f-ffd1f0a2a2c0,%ED%95%9C%EA%B5%AD%EC%96%B4
UO_LhZmrTxKmQoB6iCWXbQ,appaniac,6bfd93a4-a100-4899-958a-b7b80c2b5ad5_f52741c4aeb238ba203ab08a73c77fba,Install,1.2,112.222.184.51,3484ecdb-8161-4c96-bbf3-3f2356ec9194,1559094645,2019-05-29 09:50:45,1559094733,2019-05-29 09:52:13,1559094848,cd292d519f3bdb8efda094afdc6d87ce,https://premium.appaniac.com/s2s?token=eba4a0d4-627f-11e9-aa29-901b0ededfcf&transaction_id=cd292d519f3bdb8efda094afdc6d87ce,idfa_3484ecdb-8161-4c96-bbf3-3f2356ec9194,%ED%95%9C%EA%B5%AD%EC%96%B4
UO_LhZmrTxKmQoB6iCWXbQ,appaniac,6bfd93a4-a100-4899-958a-b7b80c2b5ad5_f52741c4aeb238ba203ab08a73c77fba,Install,1.2,211.244.225.164,e7249a17-0b91-4ab7-87a5-0aaec9abef39,1559095327,2019-05-29 10:02:07,1559095412,2019-05-29 10:03:32,1559095444,f54e25d61f59d2852f770f707be27c91,https://premium.appaniac.com/s2s?token=eba4a0d4-627f-11e9-aa29-901b0ededfcf&transaction_id=f54e25d61f59d2852f770f707be27c91,idfa_e7249a17-0b91-4ab7-87a5-0aaec9abef39,%ED%95%9C%EA%B5%AD%EC%96%B4
UO_LhZmrTxKmQoB6iCWXbQ,appaniac,6bfd93a4-a100-4899-958a-b7b80c2b5ad5_f52741c4aeb238ba203ab08a73c77fba,Install,1.2,183.109.79.6,0eb32512-ea06-44b3-9be5-1bd60dae401d,1559095303,2019-05-29 10:01:43,1559095399,2019-05-29 10:03:19,1559095429,961c5f62bfb478428308a245ebefafc4,https://premium.appaniac.com/s2s?token=eba4a0d4-627f-11e9-aa29-901b0ededfcf&transaction_id=961c5f62bfb478428308a245ebefafc4,idfa_0eb32512-ea06-44b3-9be5-1bd60dae401d,%ED%95%9C%EA%B5%AD%EC%96%B4
