cid,partner_id,channel_id,action_id,cpi,ip,idfa,click time,click datetime,install time,install datetime,postback time,click id,postback url,unique user id
6RxtUBBpRBWoduw0OmhmbA,appaniac,6b512c0c-1a38-4e8a-a7eb-ca5c993ac30d_00a974ce4bbcd07a3d098084e4721f41,Of81qbvWSPKfViI7CdMfcw,3.2,,b17e8548-2712-4466-8fe6-cf21480afbe8,1559183910,2019-05-30 10:38:30,1559184191,2019-05-30 10:43:11,1559184191,f7699121e35aa4333053535ec2b462ac,https://premium.appaniac.com/s2s?token=eba4a0d4-627f-11e9-aa29-901b0ededfcf&transaction_id=f7699121e35aa4333053535ec2b462ac,idfa_b17e8548-2712-4466-8fe6-cf21480afbe8,ja
6RxtUBBpRBWoduw0OmhmbA,appaniac,6b512c0c-1a38-4e8a-a7eb-ca5c993ac30d_00a974ce4bbcd07a3d098084e4721f41,Of81qbvWSPKfViI7CdMfcw,3.2,,1be8a58f-4d80-4caf-883c-7116e7d659f0,1559176822,2019-05-30 08:40:22,1559176968,2019-05-30 08:42:48,1559176968,4846440966a6a5d74f29873726ae4e80,https://premium.appaniac.com/s2s?token=eba4a0d4-627f-11e9-aa29-901b0ededfcf&transaction_id=4846440966a6a5d74f29873726ae4e80,idfa_1be8a58f-4d80-4caf-883c-7116e7d659f0,ja
6RxtUBBpRBWoduw0OmhmbA,appaniac,6b512c0c-1a38-4e8a-a7eb-ca5c993ac30d_00a974ce4bbcd07a3d098084e4721f41,Of81qbvWSPKfViI7CdMfcw,3.2,,9782df5a-70e2-4740-933b-421c4ef82b32,1559186608,2019-05-30 11:23:28,1559186725,2019-05-30 11:25:25,1559186725,1e8cdf1d6d6d85e5557d8765b4bb6ba0,https://premium.appaniac.com/s2s?token=eba4a0d4-627f-11e9-aa29-901b0ededfcf&transaction_id=1e8cdf1d6d6d85e5557d8765b4bb6ba0,idfa_9782df5a-70e2-4740-933b-421c4ef82b32,ja
6RxtUBBpRBWoduw0OmhmbA,appaniac,6b512c0c-1a38-4e8a-a7eb-ca5c993ac30d_00a974ce4bbcd07a3d098084e4721f41,Of81qbvWSPKfViI7CdMfcw,3.2,,e576f2e8-588c-425c-8744-9ce5ab77c15d,1559189393,2019-05-30 12:09:53,1559189490,2019-05-30 12:11:30,1559189490,11716993ce7840e34471d44431b7f55e,https://premium.appaniac.com/s2s?token=eba4a0d4-627f-11e9-aa29-901b0ededfcf&transaction_id=11716993ce7840e34471d44431b7f55e,idfa_e576f2e8-588c-425c-8744-9ce5ab77c15d,ja
6RxtUBBpRBWoduw0OmhmbA,appaniac,6b512c0c-1a38-4e8a-a7eb-ca5c993ac30d_00a974ce4bbcd07a3d098084e4721f41,Of81qbvWSPKfViI7CdMfcw,3.2,,69d2c64c-1eda-48dd-891f-44c5a4e4013f,1559213145,2019-05-30 18:45:45,1559213263,2019-05-30 18:47:43,1559213263,05e7888ca3c1192e58a78b2c751acd45,https://premium.appaniac.com/s2s?token=eba4a0d4-627f-11e9-aa29-901b0ededfcf&transaction_id=05e7888ca3c1192e58a78b2c751acd45,idfa_69d2c64c-1eda-48dd-891f-44c5a4e4013f,ja
6RxtUBBpRBWoduw0OmhmbA,appaniac,6b512c0c-1a38-4e8a-a7eb-ca5c993ac30d_00a974ce4bbcd07a3d098084e4721f41,Of81qbvWSPKfViI7CdMfcw,3.2,,86c00e3f-5f41-4250-90ef-0b63820e581b,1559183355,2019-05-30 10:29:15,1559183503,2019-05-30 10:31:43,1559183503,480d428bf694fdfbca8f583d802f9773,https://premium.appaniac.com/s2s?token=eba4a0d4-627f-11e9-aa29-901b0ededfcf&transaction_id=480d428bf694fdfbca8f583d802f9773,idfa_86c00e3f-5f41-4250-90ef-0b63820e581b,ja
6RxtUBBpRBWoduw0OmhmbA,appaniac,6b512c0c-1a38-4e8a-a7eb-ca5c993ac30d_00a974ce4bbcd07a3d098084e4721f41,Of81qbvWSPKfViI7CdMfcw,3.2,,48e5294a-ef5b-4bec-830c-a461d601a3b1,1559185139,2019-05-30 10:58:59,1559185250,2019-05-30 11:00:50,1559185250,de086e44704be4ebb9c7dcce9e318bc8,https://premium.appaniac.com/s2s?token=eba4a0d4-627f-11e9-aa29-901b0ededfcf&transaction_id=de086e44704be4ebb9c7dcce9e318bc8,idfa_48e5294a-ef5b-4bec-830c-a461d601a3b1,ja
6RxtUBBpRBWoduw0OmhmbA,appaniac,6b512c0c-1a38-4e8a-a7eb-ca5c993ac30d_00a974ce4bbcd07a3d098084e4721f41,Of81qbvWSPKfViI7CdMfcw,3.2,,76522e26-a3b6-4fab-868f-79239a9aeeb5,1559183340,2019-05-30 10:29:00,1559183496,2019-05-30 10:31:36,1559183496,401f20f389205cb528d0fe5d48ea9d6b,https://premium.appaniac.com/s2s?token=eba4a0d4-627f-11e9-aa29-901b0ededfcf&transaction_id=401f20f389205cb528d0fe5d48ea9d6b,idfa_76522e26-a3b6-4fab-868f-79239a9aeeb5,ja
6RxtUBBpRBWoduw0OmhmbA,appaniac,6b512c0c-1a38-4e8a-a7eb-ca5c993ac30d_00a974ce4bbcd07a3d098084e4721f41,Of81qbvWSPKfViI7CdMfcw,3.2,,fde69820-7b61-4d3c-afbd-61c30e14f610,1559180390,2019-05-30 09:39:50,1559180472,2019-05-30 09:41:12,1559180472,bd55028090f4b8a2a0141cbcac88729b,https://premium.appaniac.com/s2s?token=eba4a0d4-627f-11e9-aa29-901b0ededfcf&transaction_id=bd55028090f4b8a2a0141cbcac88729b,idfa_fde69820-7b61-4d3c-afbd-61c30e14f610,ja
6RxtUBBpRBWoduw0OmhmbA,appaniac,6b512c0c-1a38-4e8a-a7eb-ca5c993ac30d_00a974ce4bbcd07a3d098084e4721f41,Of81qbvWSPKfViI7CdMfcw,3.2,,2c217cc6-179b-4194-a402-76c0e4a4751f,1559188850,2019-05-30 12:00:50,1559188999,2019-05-30 12:03:19,1559188999,1953e3396dd3a408865ca232b498a88e,https://premium.appaniac.com/s2s?token=eba4a0d4-627f-11e9-aa29-901b0ededfcf&transaction_id=1953e3396dd3a408865ca232b498a88e,idfa_2c217cc6-179b-4194-a402-76c0e4a4751f,ja
6RxtUBBpRBWoduw0OmhmbA,appaniac,6b512c0c-1a38-4e8a-a7eb-ca5c993ac30d_00a974ce4bbcd07a3d098084e4721f41,Of81qbvWSPKfViI7CdMfcw,3.2,,dd6ac028-46f1-4216-a2a5-2de4eecc9666,1559185745,2019-05-30 11:09:05,1559185850,2019-05-30 11:10:50,1559185850,bbc731065b58ffeb570a22526cd28182,https://premium.appaniac.com/s2s?token=eba4a0d4-627f-11e9-aa29-901b0ededfcf&transaction_id=bbc731065b58ffeb570a22526cd28182,idfa_dd6ac028-46f1-4216-a2a5-2de4eecc9666,ja
6RxtUBBpRBWoduw0OmhmbA,appaniac,6b512c0c-1a38-4e8a-a7eb-ca5c993ac30d_00a974ce4bbcd07a3d098084e4721f41,Of81qbvWSPKfViI7CdMfcw,3.2,,10f9bc1f-ace7-437c-a024-08c6c75fcc2b,1559183921,2019-05-30 10:38:41,1559184194,2019-05-30 10:43:14,1559184194,4b8bdf22468711e2897ca91e24bd856b,https://premium.appaniac.com/s2s?token=eba4a0d4-627f-11e9-aa29-901b0ededfcf&transaction_id=4b8bdf22468711e2897ca91e24bd856b,idfa_10f9bc1f-ace7-437c-a024-08c6c75fcc2b,ja
6RxtUBBpRBWoduw0OmhmbA,appaniac,6b512c0c-1a38-4e8a-a7eb-ca5c993ac30d_00a974ce4bbcd07a3d098084e4721f41,Of81qbvWSPKfViI7CdMfcw,3.2,,69731c8e-95e1-4000-831f-ebc8e1457f21,1559185145,2019-05-30 10:59:05,1559185246,2019-05-30 11:00:46,1559185246,b7a5b62164299a649fd022e99d9a3748,https://premium.appaniac.com/s2s?token=eba4a0d4-627f-11e9-aa29-901b0ededfcf&transaction_id=b7a5b62164299a649fd022e99d9a3748,idfa_69731c8e-95e1-4000-831f-ebc8e1457f21,ja
6RxtUBBpRBWoduw0OmhmbA,appaniac,6b512c0c-1a38-4e8a-a7eb-ca5c993ac30d_00a974ce4bbcd07a3d098084e4721f41,Of81qbvWSPKfViI7CdMfcw,3.2,,66cb76d6-10c8-4d0b-bb4a-fd65b687e139,1559179276,2019-05-30 09:21:16,1559179352,2019-05-30 09:22:32,1559179352,864ccc47339b0af9fd2257a4fa672cfe,https://premium.appaniac.com/s2s?token=eba4a0d4-627f-11e9-aa29-901b0ededfcf&transaction_id=864ccc47339b0af9fd2257a4fa672cfe,idfa_66cb76d6-10c8-4d0b-bb4a-fd65b687e139,ja
6RxtUBBpRBWoduw0OmhmbA,appaniac,6b512c0c-1a38-4e8a-a7eb-ca5c993ac30d_00a974ce4bbcd07a3d098084e4721f41,Of81qbvWSPKfViI7CdMfcw,3.2,,e42e80f7-5865-461b-861a-f189e2c77bac,1559178400,2019-05-30 09:06:40,1559178516,2019-05-30 09:08:36,1559178516,f070d487b4f81383893f4ea1d88850db,https://premium.appaniac.com/s2s?token=eba4a0d4-627f-11e9-aa29-901b0ededfcf&transaction_id=f070d487b4f81383893f4ea1d88850db,idfa_e42e80f7-5865-461b-861a-f189e2c77bac,ja
6RxtUBBpRBWoduw0OmhmbA,appaniac,6b512c0c-1a38-4e8a-a7eb-ca5c993ac30d_00a974ce4bbcd07a3d098084e4721f41,Of81qbvWSPKfViI7CdMfcw,3.2,,e4783ab5-a3b4-47b6-a014-5dae84cff199,1559185992,2019-05-30 11:13:12,1559186134,2019-05-30 11:15:34,1559186134,bfe88aded1f71eef35f2a07b3718f8da,https://premium.appaniac.com/s2s?token=eba4a0d4-627f-11e9-aa29-901b0ededfcf&transaction_id=bfe88aded1f71eef35f2a07b3718f8da,idfa_e4783ab5-a3b4-47b6-a014-5dae84cff199,ja
6RxtUBBpRBWoduw0OmhmbA,appaniac,6b512c0c-1a38-4e8a-a7eb-ca5c993ac30d_00a974ce4bbcd07a3d098084e4721f41,Of81qbvWSPKfViI7CdMfcw,3.2,,2efe9470-0ae6-40b8-ae19-ca9a334cd01b,1559187799,2019-05-30 11:43:19,1559187937,2019-05-30 11:45:37,1559187937,9fefbae5e85e4b6c1a11a556ca9a2fe6,https://premium.appaniac.com/s2s?token=eba4a0d4-627f-11e9-aa29-901b0ededfcf&transaction_id=9fefbae5e85e4b6c1a11a556ca9a2fe6,idfa_2efe9470-0ae6-40b8-ae19-ca9a334cd01b,ja
6RxtUBBpRBWoduw0OmhmbA,appaniac,6b512c0c-1a38-4e8a-a7eb-ca5c993ac30d_00a974ce4bbcd07a3d098084e4721f41,Of81qbvWSPKfViI7CdMfcw,3.2,,dc867852-6954-4ee8-9721-44348ca96a43,1559189360,2019-05-30 12:09:20,1559189415,2019-05-30 12:10:15,1559189415,6bc1718aeea77cacd80665ce7a97d1fe,https://premium.appaniac.com/s2s?token=eba4a0d4-627f-11e9-aa29-901b0ededfcf&transaction_id=6bc1718aeea77cacd80665ce7a97d1fe,idfa_dc867852-6954-4ee8-9721-44348ca96a43,ja
6RxtUBBpRBWoduw0OmhmbA,appaniac,6b512c0c-1a38-4e8a-a7eb-ca5c993ac30d_00a974ce4bbcd07a3d098084e4721f41,Of81qbvWSPKfViI7CdMfcw,3.2,,1b50e6f5-3808-4d36-9a1b-30227176804b,1559187289,2019-05-30 11:34:49,1559187378,2019-05-30 11:36:18,1559187378,b16e8e240955688e1fd50c259edee6e4,https://premium.appaniac.com/s2s?token=eba4a0d4-627f-11e9-aa29-901b0ededfcf&transaction_id=b16e8e240955688e1fd50c259edee6e4,idfa_1b50e6f5-3808-4d36-9a1b-30227176804b,ja
6RxtUBBpRBWoduw0OmhmbA,appaniac,6b512c0c-1a38-4e8a-a7eb-ca5c993ac30d_00a974ce4bbcd07a3d098084e4721f41,Of81qbvWSPKfViI7CdMfcw,3.2,,91ea405c-20e5-4ae2-abb8-c9015b375088,1559180404,2019-05-30 09:40:04,1559180520,2019-05-30 09:42:00,1559180520,9ef5840bea903898070caa2fdda13e6f,https://premium.appaniac.com/s2s?token=eba4a0d4-627f-11e9-aa29-901b0ededfcf&transaction_id=9ef5840bea903898070caa2fdda13e6f,idfa_91ea405c-20e5-4ae2-abb8-c9015b375088,ja
6RxtUBBpRBWoduw0OmhmbA,appaniac,6b512c0c-1a38-4e8a-a7eb-ca5c993ac30d_00a974ce4bbcd07a3d098084e4721f41,Of81qbvWSPKfViI7CdMfcw,3.2,,66cb76d6-10c8-4d0b-bb4a-fd65b687e139,1559178596,2019-05-30 09:09:56,1559178711,2019-05-30 09:11:51,1559178711,a66e35b1e3f59f007f0851fd7ac50867,https://premium.appaniac.com/s2s?token=eba4a0d4-627f-11e9-aa29-901b0ededfcf&transaction_id=a66e35b1e3f59f007f0851fd7ac50867,idfa_66cb76d6-10c8-4d0b-bb4a-fd65b687e139,ja
6RxtUBBpRBWoduw0OmhmbA,appaniac,6b512c0c-1a38-4e8a-a7eb-ca5c993ac30d_00a974ce4bbcd07a3d098084e4721f41,Of81qbvWSPKfViI7CdMfcw,3.2,,25328c3d-da4c-4e6c-b6e9-c006cbbcc420,1559181240,2019-05-30 09:54:00,1559181326,2019-05-30 09:55:26,1559181326,5b90eab146cec4eb0c74a2a6dd183fb2,https://premium.appaniac.com/s2s?token=eba4a0d4-627f-11e9-aa29-901b0ededfcf&transaction_id=5b90eab146cec4eb0c74a2a6dd183fb2,idfa_25328c3d-da4c-4e6c-b6e9-c006cbbcc420,ja
6RxtUBBpRBWoduw0OmhmbA,appaniac,6b512c0c-1a38-4e8a-a7eb-ca5c993ac30d_00a974ce4bbcd07a3d098084e4721f41,Of81qbvWSPKfViI7CdMfcw,3.2,,7c3d51a5-6e4b-4909-8634-40bec18a4348,1559188799,2019-05-30 11:59:59,1559188909,2019-05-30 12:01:49,1559188909,831578d028d534547484563472fc9859,https://premium.appaniac.com/s2s?token=eba4a0d4-627f-11e9-aa29-901b0ededfcf&transaction_id=831578d028d534547484563472fc9859,idfa_7c3d51a5-6e4b-4909-8634-40bec18a4348,ja
6RxtUBBpRBWoduw0OmhmbA,appaniac,6b512c0c-1a38-4e8a-a7eb-ca5c993ac30d_00a974ce4bbcd07a3d098084e4721f41,Of81qbvWSPKfViI7CdMfcw,3.2,,e60adadb-ca61-4c9d-a462-892cfd08997d,1559186676,2019-05-30 11:24:36,1559186776,2019-05-30 11:26:16,1559186776,867e48bf8211ba0b6198ae6f69d49df3,https://premium.appaniac.com/s2s?token=eba4a0d4-627f-11e9-aa29-901b0ededfcf&transaction_id=867e48bf8211ba0b6198ae6f69d49df3,idfa_e60adadb-ca61-4c9d-a462-892cfd08997d,ja
6RxtUBBpRBWoduw0OmhmbA,appaniac,6b512c0c-1a38-4e8a-a7eb-ca5c993ac30d_00a974ce4bbcd07a3d098084e4721f41,Of81qbvWSPKfViI7CdMfcw,3.2,,7bf4b808-b068-458d-8acc-c86e2a43475e,1559183931,2019-05-30 10:38:51,1559185218,2019-05-30 11:00:18,1559185218,7f671d404cf85f1fba9d8e92a17e363f,https://premium.appaniac.com/s2s?token=eba4a0d4-627f-11e9-aa29-901b0ededfcf&transaction_id=7f671d404cf85f1fba9d8e92a17e363f,idfa_7bf4b808-b068-458d-8acc-c86e2a43475e,ja
6RxtUBBpRBWoduw0OmhmbA,appaniac,6b512c0c-1a38-4e8a-a7eb-ca5c993ac30d_00a974ce4bbcd07a3d098084e4721f41,Of81qbvWSPKfViI7CdMfcw,3.2,,3ff0f780-2765-4bea-ab90-a622db231340,1559181208,2019-05-30 09:53:28,1559181336,2019-05-30 09:55:36,1559181336,21c7232e7f1571ce8d2448a3b10488c0,https://premium.appaniac.com/s2s?token=eba4a0d4-627f-11e9-aa29-901b0ededfcf&transaction_id=21c7232e7f1571ce8d2448a3b10488c0,idfa_3ff0f780-2765-4bea-ab90-a622db231340,ja
6RxtUBBpRBWoduw0OmhmbA,appaniac,6b512c0c-1a38-4e8a-a7eb-ca5c993ac30d_00a974ce4bbcd07a3d098084e4721f41,Of81qbvWSPKfViI7CdMfcw,3.2,,df7531ce-bc5c-46bc-9f97-a74a178ee073,1559178458,2019-05-30 09:07:38,1559178552,2019-05-30 09:09:12,1559178552,c5f440ad3d5a8f618215a5388808a19f,https://premium.appaniac.com/s2s?token=eba4a0d4-627f-11e9-aa29-901b0ededfcf&transaction_id=c5f440ad3d5a8f618215a5388808a19f,idfa_df7531ce-bc5c-46bc-9f97-a74a178ee073,ja
6RxtUBBpRBWoduw0OmhmbA,appaniac,6b512c0c-1a38-4e8a-a7eb-ca5c993ac30d_00a974ce4bbcd07a3d098084e4721f41,Of81qbvWSPKfViI7CdMfcw,3.2,,ca306b70-0094-4730-8545-ec1caf5bd1e6,1559187259,2019-05-30 11:34:19,1559187333,2019-05-30 11:35:33,1559187333,7b007ea24a792f7035ea00659fa57e81,https://premium.appaniac.com/s2s?token=eba4a0d4-627f-11e9-aa29-901b0ededfcf&transaction_id=7b007ea24a792f7035ea00659fa57e81,idfa_ca306b70-0094-4730-8545-ec1caf5bd1e6,ja
6RxtUBBpRBWoduw0OmhmbA,appaniac,6b512c0c-1a38-4e8a-a7eb-ca5c993ac30d_00a974ce4bbcd07a3d098084e4721f41,Of81qbvWSPKfViI7CdMfcw,3.2,,5b8ec48b-0d11-492b-9fcc-3a65aa971009,1559185989,2019-05-30 11:13:09,1559186149,2019-05-30 11:15:49,1559186149,a4b3f02f22b160f116fd4ac2abcc500a,https://premium.appaniac.com/s2s?token=eba4a0d4-627f-11e9-aa29-901b0ededfcf&transaction_id=a4b3f02f22b160f116fd4ac2abcc500a,idfa_5b8ec48b-0d11-492b-9fcc-3a65aa971009,ja
6RxtUBBpRBWoduw0OmhmbA,appaniac,6b512c0c-1a38-4e8a-a7eb-ca5c993ac30d_00a974ce4bbcd07a3d098084e4721f41,Of81qbvWSPKfViI7CdMfcw,3.2,,2f7783f9-098d-4895-87e9-daf656831917,1559213107,2019-05-30 18:45:07,1559213261,2019-05-30 18:47:41,1559213261,74434cb8f7473090a6176a64658b56ba,https://premium.appaniac.com/s2s?token=eba4a0d4-627f-11e9-aa29-901b0ededfcf&transaction_id=74434cb8f7473090a6176a64658b56ba,idfa_2f7783f9-098d-4895-87e9-daf656831917,ja
6RxtUBBpRBWoduw0OmhmbA,appaniac,6b512c0c-1a38-4e8a-a7eb-ca5c993ac30d_00a974ce4bbcd07a3d098084e4721f41,Of81qbvWSPKfViI7CdMfcw,3.2,,8706df2a-1fac-4302-90ea-22df5638bd32,1559183474,2019-05-30 10:31:14,1559183534,2019-05-30 10:32:14,1559183534,0399df99926a3576f8bb948b9fb9fad8,https://premium.appaniac.com/s2s?token=eba4a0d4-627f-11e9-aa29-901b0ededfcf&transaction_id=0399df99926a3576f8bb948b9fb9fad8,idfa_8706df2a-1fac-4302-90ea-22df5638bd32,ja
6RxtUBBpRBWoduw0OmhmbA,appaniac,6b512c0c-1a38-4e8a-a7eb-ca5c993ac30d_00a974ce4bbcd07a3d098084e4721f41,Of81qbvWSPKfViI7CdMfcw,3.2,,eb0236bf-4cda-4d52-9c5b-2a205d83bd1a,1559178017,2019-05-30 09:00:17,1559178135,2019-05-30 09:02:15,1559178135,59c24a2bf5d120fba62d65fa254eed72,https://premium.appaniac.com/s2s?token=eba4a0d4-627f-11e9-aa29-901b0ededfcf&transaction_id=59c24a2bf5d120fba62d65fa254eed72,idfa_eb0236bf-4cda-4d52-9c5b-2a205d83bd1a,ja
6RxtUBBpRBWoduw0OmhmbA,appaniac,6b512c0c-1a38-4e8a-a7eb-ca5c993ac30d_00a974ce4bbcd07a3d098084e4721f41,Of81qbvWSPKfViI7CdMfcw,3.2,,a019d862-5fca-4ed1-9be8-2859856bc522,1559186623,2019-05-30 11:23:43,1559186722,2019-05-30 11:25:22,1559186722,f5378868c195eec5ad1490341d6ef5fb,https://premium.appaniac.com/s2s?token=eba4a0d4-627f-11e9-aa29-901b0ededfcf&transaction_id=f5378868c195eec5ad1490341d6ef5fb,idfa_a019d862-5fca-4ed1-9be8-2859856bc522,ja
