cid,partner_id,channel_id,action_id,cpi,ip,idfa,click time,click datetime,install time,install datetime,postback time,click id,postback url,unique user id
cDMT8nIjTjihYry-3zO3ng,appaniac,6bfd93a4-a100-4899-958a-b7b80c2b5ad5_cfeadd5639320ae0a33940b0c4981804,Install,2.0,119.194.7.26,d2abd03c-fa48-448c-a7e6-b09b82cf113b,1559096160,2019-05-29 10:16:00,1559096278,2019-05-29 10:17:58,1559096319,d9c0b5a5a281556fcadac3bfaa24c714,https://premium.appaniac.com/s2s?token=eba4a0d4-627f-11e9-aa29-901b0ededfcf&transaction_id=d9c0b5a5a281556fcadac3bfaa24c714,idfa_d2abd03c-fa48-448c-a7e6-b09b82cf113b,%ED%95%9C%EA%B5%AD%EC%96%B4
cDMT8nIjTjihYry-3zO3ng,appaniac,6bfd93a4-a100-4899-958a-b7b80c2b5ad5_cfeadd5639320ae0a33940b0c4981804,Install,2.0,211.216.58.204,6db2ba6e-b413-426d-9392-bfe52340f50e,1559096642,2019-05-29 10:24:02,1559096742,2019-05-29 10:25:42,1559096773,8c1bb79649c9e947b8b873f08024903b,https://premium.appaniac.com/s2s?token=eba4a0d4-627f-11e9-aa29-901b0ededfcf&transaction_id=8c1bb79649c9e947b8b873f08024903b,idfa_6db2ba6e-b413-426d-9392-bfe52340f50e,%ED%95%9C%EA%B5%AD%EC%96%B4
cDMT8nIjTjihYry-3zO3ng,appaniac,6bfd93a4-a100-4899-958a-b7b80c2b5ad5_cfeadd5639320ae0a33940b0c4981804,Install,2.0,211.232.116.145,b0a62dc0-81a2-4e00-9853-8b424d123da3,1559094934,2019-05-29 09:55:34,1559095148,2019-05-29 09:59:08,1559095178,14e3dfbccb4063711cab7999091e23e2,https://premium.appaniac.com/s2s?token=eba4a0d4-627f-11e9-aa29-901b0ededfcf&transaction_id=14e3dfbccb4063711cab7999091e23e2,idfa_b0a62dc0-81a2-4e00-9853-8b424d123da3,%ED%95%9C%EA%B5%AD%EC%96%B4
cDMT8nIjTjihYry-3zO3ng,appaniac,6bfd93a4-a100-4899-958a-b7b80c2b5ad5_cfeadd5639320ae0a33940b0c4981804,Install,2.0,182.162.146.211,f89b9290-292e-46e7-825c-fa178ab0ab68,1559096965,2019-05-29 10:29:25,1559097272,2019-05-29 10:34:32,1559097679,2a7bcde199c7cf230726720fb1b6dc4a,https://premium.appaniac.com/s2s?token=eba4a0d4-627f-11e9-aa29-901b0ededfcf&transaction_id=2a7bcde199c7cf230726720fb1b6dc4a,idfa_f89b9290-292e-46e7-825c-fa178ab0ab68,%ED%95%9C%EA%B5%AD%EC%96%B4
cDMT8nIjTjihYry-3zO3ng,appaniac,6bfd93a4-a100-4899-958a-b7b80c2b5ad5_cfeadd5639320ae0a33940b0c4981804,Install,2.0,175.200.81.33,afaa10ee-3034-45b0-af64-9cc6573d3722,1559093993,2019-05-29 09:39:53,1559094116,2019-05-29 09:41:56,1559094168,d702fe278c4f342b8041d6cf23aae944,https://premium.appaniac.com/s2s?token=eba4a0d4-627f-11e9-aa29-901b0ededfcf&transaction_id=d702fe278c4f342b8041d6cf23aae944,idfa_afaa10ee-3034-45b0-af64-9cc6573d3722,%ED%95%9C%EA%B5%AD%EC%96%B4
cDMT8nIjTjihYry-3zO3ng,appaniac,6bfd93a4-a100-4899-958a-b7b80c2b5ad5_cfeadd5639320ae0a33940b0c4981804,Install,2.0,123.108.177.202,361e25b1-3f39-4d89-87d1-53a681d3a85a,1559093204,2019-05-29 09:26:44,1559093263,2019-05-29 09:27:43,1559093300,28fc0b0783620fa3c41a11e08e870a74,https://premium.appaniac.com/s2s?token=eba4a0d4-627f-11e9-aa29-901b0ededfcf&transaction_id=28fc0b0783620fa3c41a11e08e870a74,idfa_361e25b1-3f39-4d89-87d1-53a681d3a85a,%ED%95%9C%EA%B5%AD%EC%96%B4
cDMT8nIjTjihYry-3zO3ng,appaniac,6bfd93a4-a100-4899-958a-b7b80c2b5ad5_cfeadd5639320ae0a33940b0c4981804,Install,2.0,124.217.216.115,4dcf70bd-6d20-4ae6-8c40-1d95844f5ef1,1559093959,2019-05-29 09:39:19,1559094120,2019-05-29 09:42:00,1559094210,8a4d5f12904c975d8accf261ff853c60,https://premium.appaniac.com/s2s?token=eba4a0d4-627f-11e9-aa29-901b0ededfcf&transaction_id=8a4d5f12904c975d8accf261ff853c60,idfa_4dcf70bd-6d20-4ae6-8c40-1d95844f5ef1,%ED%95%9C%EA%B5%AD%EC%96%B4
cDMT8nIjTjihYry-3zO3ng,appaniac,6bfd93a4-a100-4899-958a-b7b80c2b5ad5_cfeadd5639320ae0a33940b0c4981804,Install,2.0,58.120.226.83,6bee4903-f13b-47ca-bd8c-634114a2934c,1559096892,2019-05-29 10:28:12,1559096941,2019-05-29 10:29:01,1559096971,a29893a6e5cea661f3041b65541bc221,https://premium.appaniac.com/s2s?token=eba4a0d4-627f-11e9-aa29-901b0ededfcf&transaction_id=a29893a6e5cea661f3041b65541bc221,idfa_6bee4903-f13b-47ca-bd8c-634114a2934c,%ED%95%9C%EA%B5%AD%EC%96%B4
cDMT8nIjTjihYry-3zO3ng,appaniac,6bfd93a4-a100-4899-958a-b7b80c2b5ad5_cfeadd5639320ae0a33940b0c4981804,Install,2.0,114.31.57.188,b27fc815-4f10-40b7-978d-e5a1336285b1,1559094622,2019-05-29 09:50:22,1559094718,2019-05-29 09:51:58,1559094858,d4f2d17d568c7499373462e02b58cfa3,https://premium.appaniac.com/s2s?token=eba4a0d4-627f-11e9-aa29-901b0ededfcf&transaction_id=d4f2d17d568c7499373462e02b58cfa3,idfa_b27fc815-4f10-40b7-978d-e5a1336285b1,%ED%95%9C%EA%B5%AD%EC%96%B4
cDMT8nIjTjihYry-3zO3ng,appaniac,6bfd93a4-a100-4899-958a-b7b80c2b5ad5_cfeadd5639320ae0a33940b0c4981804,Install,2.0,124.2.182.239,1d9b970c-16d1-49de-8201-ea0593ab821d,1559093182,2019-05-29 09:26:22,1559093295,2019-05-29 09:28:15,1559093325,920ad2368b865440708acd2d9a99daee,https://premium.appaniac.com/s2s?token=eba4a0d4-627f-11e9-aa29-901b0ededfcf&transaction_id=920ad2368b865440708acd2d9a99daee,idfa_1d9b970c-16d1-49de-8201-ea0593ab821d,%ED%95%9C%EA%B5%AD%EC%96%B4
cDMT8nIjTjihYry-3zO3ng,appaniac,6bfd93a4-a100-4899-958a-b7b80c2b5ad5_cfeadd5639320ae0a33940b0c4981804,Install,2.0,59.12.38.116,eba4bc6b-2f00-492b-9a7c-c2aade9dc81e,1559094838,2019-05-29 09:53:58,1559094887,2019-05-29 09:54:47,1559095173,f1a3fccbc0e7a6b5467e1da3411cd02d,https://premium.appaniac.com/s2s?token=eba4a0d4-627f-11e9-aa29-901b0ededfcf&transaction_id=f1a3fccbc0e7a6b5467e1da3411cd02d,idfa_eba4bc6b-2f00-492b-9a7c-c2aade9dc81e,%ED%95%9C%EA%B5%AD%EC%96%B4
cDMT8nIjTjihYry-3zO3ng,appaniac,6bfd93a4-a100-4899-958a-b7b80c2b5ad5_cfeadd5639320ae0a33940b0c4981804,Install,2.0,123.108.177.202,a192a336-0e8c-4dc4-9e0e-0b63127bf87c,1559096057,2019-05-29 10:14:17,1559096145,2019-05-29 10:15:45,1559096269,8095498fab783b62621484573927c9ec,https://premium.appaniac.com/s2s?token=eba4a0d4-627f-11e9-aa29-901b0ededfcf&transaction_id=8095498fab783b62621484573927c9ec,idfa_a192a336-0e8c-4dc4-9e0e-0b63127bf87c,%ED%95%9C%EA%B5%AD%EC%96%B4
cDMT8nIjTjihYry-3zO3ng,appaniac,6bfd93a4-a100-4899-958a-b7b80c2b5ad5_cfeadd5639320ae0a33940b0c4981804,Install,2.0,211.180.176.37,58dcbf70-5538-4c3c-bae5-4dd95dceae99,1559096891,2019-05-29 10:28:11,1559097041,2019-05-29 10:30:41,1559097072,65d2171daf6160d3bb29f1b8bf6d7abf,https://premium.appaniac.com/s2s?token=eba4a0d4-627f-11e9-aa29-901b0ededfcf&transaction_id=65d2171daf6160d3bb29f1b8bf6d7abf,idfa_58dcbf70-5538-4c3c-bae5-4dd95dceae99,%ED%95%9C%EA%B5%AD%EC%96%B4
cDMT8nIjTjihYry-3zO3ng,appaniac,6bfd93a4-a100-4899-958a-b7b80c2b5ad5_cfeadd5639320ae0a33940b0c4981804,Install,2.0,112.216.55.178,b5db2fef-6028-41f1-9711-ed0fc54675ac,1559096575,2019-05-29 10:22:55,1559096738,2019-05-29 10:25:38,1559096772,ede04b9952046fab46dad114422ce495,https://premium.appaniac.com/s2s?token=eba4a0d4-627f-11e9-aa29-901b0ededfcf&transaction_id=ede04b9952046fab46dad114422ce495,idfa_b5db2fef-6028-41f1-9711-ed0fc54675ac,%ED%95%9C%EA%B5%AD%EC%96%B4
cDMT8nIjTjihYry-3zO3ng,appaniac,6bfd93a4-a100-4899-958a-b7b80c2b5ad5_cfeadd5639320ae0a33940b0c4981804,Install,2.0,220.127.126.139,54c573f9-8aa6-460b-b804-4ea9a8fbd872,1559094646,2019-05-29 09:50:46,1559094885,2019-05-29 09:54:45,1559094916,23707a50d63e29e4d021aa91ff53b0ca,https://premium.appaniac.com/s2s?token=eba4a0d4-627f-11e9-aa29-901b0ededfcf&transaction_id=23707a50d63e29e4d021aa91ff53b0ca,idfa_54c573f9-8aa6-460b-b804-4ea9a8fbd872,%ED%95%9C%EA%B5%AD%EC%96%B4
cDMT8nIjTjihYry-3zO3ng,appaniac,6bfd93a4-a100-4899-958a-b7b80c2b5ad5_cfeadd5639320ae0a33940b0c4981804,Install,2.0,211.224.188.72,5f795bb7-9d32-4547-b8ec-95c3780911e5,1559094622,2019-05-29 09:50:22,1559094750,2019-05-29 09:52:30,1559094789,bdf2ab7fbaf51ed124af685e20aca72f,https://premium.appaniac.com/s2s?token=eba4a0d4-627f-11e9-aa29-901b0ededfcf&transaction_id=bdf2ab7fbaf51ed124af685e20aca72f,idfa_5f795bb7-9d32-4547-b8ec-95c3780911e5,%ED%95%9C%EA%B5%AD%EC%96%B4
cDMT8nIjTjihYry-3zO3ng,appaniac,6bfd93a4-a100-4899-958a-b7b80c2b5ad5_cfeadd5639320ae0a33940b0c4981804,Install,2.0,106.246.250.154,033d8173-ad7e-43f0-94b7-e420f8a38fdb,1559095031,2019-05-29 09:57:11,1559095145,2019-05-29 09:59:05,1559095176,51a7da4d0f6588ca939a957b9ecae1b0,https://premium.appaniac.com/s2s?token=eba4a0d4-627f-11e9-aa29-901b0ededfcf&transaction_id=51a7da4d0f6588ca939a957b9ecae1b0,idfa_033d8173-ad7e-43f0-94b7-e420f8a38fdb,%ED%95%9C%EA%B5%AD%EC%96%B4
cDMT8nIjTjihYry-3zO3ng,appaniac,6bfd93a4-a100-4899-958a-b7b80c2b5ad5_cfeadd5639320ae0a33940b0c4981804,Install,2.0,58.225.75.222,ddbbbb4f-bda8-41d3-a46d-fc071cd85f4f,1559094905,2019-05-29 09:55:05,1559095150,2019-05-29 09:59:10,1559095227,84e8ceb2c0b9b0ca52f72355b8c0686e,https://premium.appaniac.com/s2s?token=eba4a0d4-627f-11e9-aa29-901b0ededfcf&transaction_id=84e8ceb2c0b9b0ca52f72355b8c0686e,idfa_ddbbbb4f-bda8-41d3-a46d-fc071cd85f4f,%ED%95%9C%EA%B5%AD%EC%96%B4
cDMT8nIjTjihYry-3zO3ng,appaniac,6bfd93a4-a100-4899-958a-b7b80c2b5ad5_cfeadd5639320ae0a33940b0c4981804,Install,2.0,182.162.99.154,693674ca-59df-4135-86aa-f33b076084f1,1559095044,2019-05-29 09:57:24,1559095146,2019-05-29 09:59:06,1559095199,ff88ea1f6888e1b05f0428dbe19b398c,https://premium.appaniac.com/s2s?token=eba4a0d4-627f-11e9-aa29-901b0ededfcf&transaction_id=ff88ea1f6888e1b05f0428dbe19b398c,idfa_693674ca-59df-4135-86aa-f33b076084f1,%ED%95%9C%EA%B5%AD%EC%96%B4
cDMT8nIjTjihYry-3zO3ng,appaniac,6bfd93a4-a100-4899-958a-b7b80c2b5ad5_cfeadd5639320ae0a33940b0c4981804,Install,2.0,220.124.240.66,cb3e1686-6af1-4c51-b47d-c4b208f78e59,1559094043,2019-05-29 09:40:43,1559094118,2019-05-29 09:41:58,1559094160,3b6d3319ee6c90cf9543187505492a35,https://premium.appaniac.com/s2s?token=eba4a0d4-627f-11e9-aa29-901b0ededfcf&transaction_id=3b6d3319ee6c90cf9543187505492a35,idfa_cb3e1686-6af1-4c51-b47d-c4b208f78e59,%ED%95%9C%EA%B5%AD%EC%96%B4
cDMT8nIjTjihYry-3zO3ng,appaniac,6bfd93a4-a100-4899-958a-b7b80c2b5ad5_cfeadd5639320ae0a33940b0c4981804,Install,2.0,112.222.184.51,a6d0a4e8-3efa-4968-a3ca-c78d36e0502a,1559094276,2019-05-29 09:44:36,1559094327,2019-05-29 09:45:27,1559094387,2810b38a03d863717e0db590b99b2723,https://premium.appaniac.com/s2s?token=eba4a0d4-627f-11e9-aa29-901b0ededfcf&transaction_id=2810b38a03d863717e0db590b99b2723,idfa_a6d0a4e8-3efa-4968-a3ca-c78d36e0502a,%ED%95%9C%EA%B5%AD%EC%96%B4
cDMT8nIjTjihYry-3zO3ng,appaniac,6bfd93a4-a100-4899-958a-b7b80c2b5ad5_cfeadd5639320ae0a33940b0c4981804,Install,2.0,121.166.70.91,15b28c4b-9ec3-4cf3-b287-fba9e595e74e,1559097719,2019-05-29 10:41:59,1559097942,2019-05-29 10:45:42,1559097972,dc5a57dfae34a063aa38a77de46e8f0b,https://premium.appaniac.com/s2s?token=eba4a0d4-627f-11e9-aa29-901b0ededfcf&transaction_id=dc5a57dfae34a063aa38a77de46e8f0b,idfa_15b28c4b-9ec3-4cf3-b287-fba9e595e74e,%ED%95%9C%EA%B5%AD%EC%96%B4
cDMT8nIjTjihYry-3zO3ng,appaniac,6bfd93a4-a100-4899-958a-b7b80c2b5ad5_cfeadd5639320ae0a33940b0c4981804,Install,2.0,183.105.52.126,d0b40975-7015-44f8-8286-3c0a202e5450,1559094486,2019-05-29 09:48:06,1559094535,2019-05-29 09:48:55,1559094567,1bcd6fba725771ec43f733f30b53a859,https://premium.appaniac.com/s2s?token=eba4a0d4-627f-11e9-aa29-901b0ededfcf&transaction_id=1bcd6fba725771ec43f733f30b53a859,idfa_d0b40975-7015-44f8-8286-3c0a202e5450,%ED%95%9C%EA%B5%AD%EC%96%B4
cDMT8nIjTjihYry-3zO3ng,appaniac,6bfd93a4-a100-4899-958a-b7b80c2b5ad5_cfeadd5639320ae0a33940b0c4981804,Install,2.0,121.160.166.161,33da9d87-1129-432e-8a98-67776cb0e72e,1559096890,2019-05-29 10:28:10,1559096956,2019-05-29 10:29:16,1559096986,ef12344c1dc3a8ac0d9ded6f9aea2b18,https://premium.appaniac.com/s2s?token=eba4a0d4-627f-11e9-aa29-901b0ededfcf&transaction_id=ef12344c1dc3a8ac0d9ded6f9aea2b18,idfa_33da9d87-1129-432e-8a98-67776cb0e72e,%ED%95%9C%EA%B5%AD%EC%96%B4
cDMT8nIjTjihYry-3zO3ng,appaniac,6bfd93a4-a100-4899-958a-b7b80c2b5ad5_cfeadd5639320ae0a33940b0c4981804,Install,2.0,58.120.226.83,518d227b-9107-4c95-a4e8-2baf7c5e833f,1559096946,2019-05-29 10:29:06,1559096990,2019-05-29 10:29:50,1559097020,2d68f570f2017d1188ab1b418095b601,https://premium.appaniac.com/s2s?token=eba4a0d4-627f-11e9-aa29-901b0ededfcf&transaction_id=2d68f570f2017d1188ab1b418095b601,idfa_518d227b-9107-4c95-a4e8-2baf7c5e833f,%ED%95%9C%EA%B5%AD%EC%96%B4
cDMT8nIjTjihYry-3zO3ng,appaniac,6bfd93a4-a100-4899-958a-b7b80c2b5ad5_cfeadd5639320ae0a33940b0c4981804,Install,2.0,61.39.117.6,59ec0fc9-cb26-47f7-82aa-be1161a99a9d,1559094116,2019-05-29 09:41:56,1559094310,2019-05-29 09:45:10,1559094367,b0dad607ebd760d669dd9c9a70c0defe,https://premium.appaniac.com/s2s?token=eba4a0d4-627f-11e9-aa29-901b0ededfcf&transaction_id=b0dad607ebd760d669dd9c9a70c0defe,idfa_59ec0fc9-cb26-47f7-82aa-be1161a99a9d,%ED%95%9C%EA%B5%AD%EC%96%B4
cDMT8nIjTjihYry-3zO3ng,appaniac,6bfd93a4-a100-4899-958a-b7b80c2b5ad5_cfeadd5639320ae0a33940b0c4981804,Install,2.0,203.228.17.2,68efc8fe-ce96-4187-b9a6-bc7931268b1d,1559093158,2019-05-29 09:25:58,1559093209,2019-05-29 09:26:49,1559093240,7b189e7614755e4c20878b29d55e7307,https://premium.appaniac.com/s2s?token=eba4a0d4-627f-11e9-aa29-901b0ededfcf&transaction_id=7b189e7614755e4c20878b29d55e7307,idfa_68efc8fe-ce96-4187-b9a6-bc7931268b1d,%ED%95%9C%EA%B5%AD%EC%96%B4
cDMT8nIjTjihYry-3zO3ng,appaniac,6bfd93a4-a100-4899-958a-b7b80c2b5ad5_cfeadd5639320ae0a33940b0c4981804,Install,2.0,115.92.16.253,e30f3f0b-84b3-419d-8366-e871813cb5a1,1559097514,2019-05-29 10:38:34,1559097612,2019-05-29 10:40:12,1559097646,5fd5957d5ac8a55bc3bb6489569e6ad3,https://premium.appaniac.com/s2s?token=eba4a0d4-627f-11e9-aa29-901b0ededfcf&transaction_id=5fd5957d5ac8a55bc3bb6489569e6ad3,idfa_e30f3f0b-84b3-419d-8366-e871813cb5a1,%ED%95%9C%EA%B5%AD%EC%96%B4
cDMT8nIjTjihYry-3zO3ng,appaniac,6bfd93a4-a100-4899-958a-b7b80c2b5ad5_cfeadd5639320ae0a33940b0c4981804,Install,2.0,203.251.73.140,548cac73-878a-4ce1-a084-49dfe362ed94,1559094945,2019-05-29 09:55:45,1559095154,2019-05-29 09:59:14,1559095184,0db33858a2f648f9340e5267a4ab9e41,https://premium.appaniac.com/s2s?token=eba4a0d4-627f-11e9-aa29-901b0ededfcf&transaction_id=0db33858a2f648f9340e5267a4ab9e41,idfa_548cac73-878a-4ce1-a084-49dfe362ed94,%ED%95%9C%EA%B5%AD%EC%96%B4
cDMT8nIjTjihYry-3zO3ng,appaniac,6bfd93a4-a100-4899-958a-b7b80c2b5ad5_cfeadd5639320ae0a33940b0c4981804,Install,2.0,203.252.10.3,73c9d90a-7c8d-4c1d-b1ab-605dd1b8f5f0,1559094245,2019-05-29 09:44:05,1559094380,2019-05-29 09:46:20,1559094410,d14593f7d35d118e6f2803f5d567b9f2,https://premium.appaniac.com/s2s?token=eba4a0d4-627f-11e9-aa29-901b0ededfcf&transaction_id=d14593f7d35d118e6f2803f5d567b9f2,idfa_73c9d90a-7c8d-4c1d-b1ab-605dd1b8f5f0,%ED%95%9C%EA%B5%AD%EC%96%B4
cDMT8nIjTjihYry-3zO3ng,appaniac,6bfd93a4-a100-4899-958a-b7b80c2b5ad5_cfeadd5639320ae0a33940b0c4981804,Install,2.0,121.156.239.171,14ce110e-2e85-4ba8-b3b7-8b8c6e26caed,1559096836,2019-05-29 10:27:16,1559096900,2019-05-29 10:28:20,1559096949,0787cb74e10e5355b2150ca776b2f8c5,https://premium.appaniac.com/s2s?token=eba4a0d4-627f-11e9-aa29-901b0ededfcf&transaction_id=0787cb74e10e5355b2150ca776b2f8c5,idfa_14ce110e-2e85-4ba8-b3b7-8b8c6e26caed,%ED%95%9C%EA%B5%AD%EC%96%B4
cDMT8nIjTjihYry-3zO3ng,appaniac,6bfd93a4-a100-4899-958a-b7b80c2b5ad5_cfeadd5639320ae0a33940b0c4981804,Install,2.0,211.110.167.137,3bfc5fc8-3536-4dad-b22f-1f7943b6ba02,1559095375,2019-05-29 10:02:55,1559095490,2019-05-29 10:04:50,1559095536,2aa97b85974ee6d34ca071351347b0ef,https://premium.appaniac.com/s2s?token=eba4a0d4-627f-11e9-aa29-901b0ededfcf&transaction_id=2aa97b85974ee6d34ca071351347b0ef,idfa_3bfc5fc8-3536-4dad-b22f-1f7943b6ba02,%ED%95%9C%EA%B5%AD%EC%96%B4
cDMT8nIjTjihYry-3zO3ng,appaniac,6bfd93a4-a100-4899-958a-b7b80c2b5ad5_cfeadd5639320ae0a33940b0c4981804,Install,2.0,1.209.187.2,eb75cc5a-f625-4332-a682-e933ed8d26dc,1559097572,2019-05-29 10:39:32,1559097664,2019-05-29 10:41:04,1559097695,09674b87aa1a67eee08930af56db3322,https://premium.appaniac.com/s2s?token=eba4a0d4-627f-11e9-aa29-901b0ededfcf&transaction_id=09674b87aa1a67eee08930af56db3322,idfa_eb75cc5a-f625-4332-a682-e933ed8d26dc,%ED%95%9C%EA%B5%AD%EC%96%B4
cDMT8nIjTjihYry-3zO3ng,appaniac,6bfd93a4-a100-4899-958a-b7b80c2b5ad5_cfeadd5639320ae0a33940b0c4981804,Install,2.0,218.149.104.142,f8d713ad-9528-4632-92e8-d245d365b0f7,1559096922,2019-05-29 10:28:42,1559096992,2019-05-29 10:29:52,1559097022,0f14d668291c9af48061ca7d4867d79c,https://premium.appaniac.com/s2s?token=eba4a0d4-627f-11e9-aa29-901b0ededfcf&transaction_id=0f14d668291c9af48061ca7d4867d79c,idfa_f8d713ad-9528-4632-92e8-d245d365b0f7,%ED%95%9C%EA%B5%AD%EC%96%B4
cDMT8nIjTjihYry-3zO3ng,appaniac,6bfd93a4-a100-4899-958a-b7b80c2b5ad5_cfeadd5639320ae0a33940b0c4981804,Install,2.0,211.44.106.30,c8efd46e-a24f-4bc5-8988-2dc25bd2b00d,1559095785,2019-05-29 10:09:45,1559095896,2019-05-29 10:11:36,1559095966,ab62be871494f9e1e0d027fd5cc366ea,https://premium.appaniac.com/s2s?token=eba4a0d4-627f-11e9-aa29-901b0ededfcf&transaction_id=ab62be871494f9e1e0d027fd5cc366ea,idfa_c8efd46e-a24f-4bc5-8988-2dc25bd2b00d,%ED%95%9C%EA%B5%AD%EC%96%B4
cDMT8nIjTjihYry-3zO3ng,appaniac,6bfd93a4-a100-4899-958a-b7b80c2b5ad5_cfeadd5639320ae0a33940b0c4981804,Install,2.0,61.14.209.23,e5359882-c208-441f-805c-1d442e4ca3e9,1559096490,2019-05-29 10:21:30,1559096632,2019-05-29 10:23:52,1559096663,6834becc33070d4585b70cf75de786b4,https://premium.appaniac.com/s2s?token=eba4a0d4-627f-11e9-aa29-901b0ededfcf&transaction_id=6834becc33070d4585b70cf75de786b4,idfa_e5359882-c208-441f-805c-1d442e4ca3e9,%ED%95%9C%EA%B5%AD%EC%96%B4
cDMT8nIjTjihYry-3zO3ng,appaniac,6bfd93a4-a100-4899-958a-b7b80c2b5ad5_cfeadd5639320ae0a33940b0c4981804,Install,2.0,222.110.155.108,1feffbb0-66ce-4768-9336-63cf7be26a4c,1559096801,2019-05-29 10:26:41,1559096892,2019-05-29 10:28:12,1559097082,99576822d510fd7f84a073db35d10618,https://premium.appaniac.com/s2s?token=eba4a0d4-627f-11e9-aa29-901b0ededfcf&transaction_id=99576822d510fd7f84a073db35d10618,idfa_1feffbb0-66ce-4768-9336-63cf7be26a4c,%ED%95%9C%EA%B5%AD%EC%96%B4
cDMT8nIjTjihYry-3zO3ng,appaniac,6bfd93a4-a100-4899-958a-b7b80c2b5ad5_cfeadd5639320ae0a33940b0c4981804,Install,2.0,14.72.119.3,7ec11804-0712-4606-b46d-623c841d5924,1559095976,2019-05-29 10:12:56,1559096135,2019-05-29 10:15:35,1559096176,b0a9c9c38cd3118c5dd74445807f067e,https://premium.appaniac.com/s2s?token=eba4a0d4-627f-11e9-aa29-901b0ededfcf&transaction_id=b0a9c9c38cd3118c5dd74445807f067e,idfa_7ec11804-0712-4606-b46d-623c841d5924,%ED%95%9C%EA%B5%AD%EC%96%B4
cDMT8nIjTjihYry-3zO3ng,appaniac,6bfd93a4-a100-4899-958a-b7b80c2b5ad5_cfeadd5639320ae0a33940b0c4981804,Install,2.0,211.181.72.236,7dbcb0d9-f412-4940-8898-60dbe5456d55,1559094647,2019-05-29 09:50:47,1559094754,2019-05-29 09:52:34,1559094786,1d30549e5a311b672d25b7b1913d5a1e,https://premium.appaniac.com/s2s?token=eba4a0d4-627f-11e9-aa29-901b0ededfcf&transaction_id=1d30549e5a311b672d25b7b1913d5a1e,idfa_7dbcb0d9-f412-4940-8898-60dbe5456d55,%ED%95%9C%EA%B5%AD%EC%96%B4
cDMT8nIjTjihYry-3zO3ng,appaniac,6bfd93a4-a100-4899-958a-b7b80c2b5ad5_cfeadd5639320ae0a33940b0c4981804,Install,2.0,1.255.147.114,c1fd6700-39bc-4a8f-97a5-34613e89f2ef,1559093825,2019-05-29 09:37:05,1559093898,2019-05-29 09:38:18,1559093928,48e4d9bffcf21547b5ea45b0860fd723,https://premium.appaniac.com/s2s?token=eba4a0d4-627f-11e9-aa29-901b0ededfcf&transaction_id=48e4d9bffcf21547b5ea45b0860fd723,idfa_c1fd6700-39bc-4a8f-97a5-34613e89f2ef,%ED%95%9C%EA%B5%AD%EC%96%B4
cDMT8nIjTjihYry-3zO3ng,appaniac,6bfd93a4-a100-4899-958a-b7b80c2b5ad5_cfeadd5639320ae0a33940b0c4981804,Install,2.0,180.71.153.102,97030b43-5e0e-4a29-a125-e85da5ae4f56,1559097584,2019-05-29 10:39:44,1559097743,2019-05-29 10:42:23,1559097774,11a86af446f2d02e559f0828d08827f0,https://premium.appaniac.com/s2s?token=eba4a0d4-627f-11e9-aa29-901b0ededfcf&transaction_id=11a86af446f2d02e559f0828d08827f0,idfa_97030b43-5e0e-4a29-a125-e85da5ae4f56,%ED%95%9C%EA%B5%AD%EC%96%B4
cDMT8nIjTjihYry-3zO3ng,appaniac,6bfd93a4-a100-4899-958a-b7b80c2b5ad5_cfeadd5639320ae0a33940b0c4981804,Install,2.0,123.108.177.202,5181a286-9158-4b7b-8663-0a09d8b01f5e,1559096071,2019-05-29 10:14:31,1559096259,2019-05-29 10:17:39,1559096291,c202c5b000c4fcf93e8b07f870e2d362,https://premium.appaniac.com/s2s?token=eba4a0d4-627f-11e9-aa29-901b0ededfcf&transaction_id=c202c5b000c4fcf93e8b07f870e2d362,idfa_5181a286-9158-4b7b-8663-0a09d8b01f5e,%ED%95%9C%EA%B5%AD%EC%96%B4
cDMT8nIjTjihYry-3zO3ng,appaniac,6bfd93a4-a100-4899-958a-b7b80c2b5ad5_cfeadd5639320ae0a33940b0c4981804,Install,2.0,119.56.233.115,de017e17-aaab-49b4-b2d1-2fa6492ee0d3,1559096946,2019-05-29 10:29:06,1559097020,2019-05-29 10:30:20,1559097051,a139f284fa97dca771b354bb569791a3,https://premium.appaniac.com/s2s?token=eba4a0d4-627f-11e9-aa29-901b0ededfcf&transaction_id=a139f284fa97dca771b354bb569791a3,idfa_de017e17-aaab-49b4-b2d1-2fa6492ee0d3,%ED%95%9C%EA%B5%AD%EC%96%B4
cDMT8nIjTjihYry-3zO3ng,appaniac,6bfd93a4-a100-4899-958a-b7b80c2b5ad5_cfeadd5639320ae0a33940b0c4981804,Install,2.0,118.36.234.150,e4699fdb-e98a-4b67-aeae-317ccf3df46a,1559095740,2019-05-29 10:09:00,1559095796,2019-05-29 10:09:56,1559096059,5d326ebc7b2035fb0215f7e1cb2de4d6,https://premium.appaniac.com/s2s?token=eba4a0d4-627f-11e9-aa29-901b0ededfcf&transaction_id=5d326ebc7b2035fb0215f7e1cb2de4d6,idfa_e4699fdb-e98a-4b67-aeae-317ccf3df46a,%ED%95%9C%EA%B5%AD%EC%96%B4
cDMT8nIjTjihYry-3zO3ng,appaniac,6bfd93a4-a100-4899-958a-b7b80c2b5ad5_cfeadd5639320ae0a33940b0c4981804,Install,2.0,182.252.222.211,373c779b-61f6-495c-8f28-72c1b69370a3,1559097529,2019-05-29 10:38:49,1559097646,2019-05-29 10:40:46,1559097677,425fddd2abc72b7ccf18fbb679283185,https://premium.appaniac.com/s2s?token=eba4a0d4-627f-11e9-aa29-901b0ededfcf&transaction_id=425fddd2abc72b7ccf18fbb679283185,idfa_373c779b-61f6-495c-8f28-72c1b69370a3,%ED%95%9C%EA%B5%AD%EC%96%B4
