cid,partner_id,channel_id,action_id,cpi,ip,idfa,click time,click datetime,install time,install datetime,postback time,click id,postback url,unique user id
M8J3i6R_S-WvWT8MZC2rWw,artofclick,7433_e6ba372add2206c4eabce6ffaaa800b9,Install,0.3,,8ff823e4-d4de-41a9-ae1c-d1842862966b,1558048767,2019-05-17 07:19:27,1558048881,2019-05-17 07:21:21,1558048911,211smFTV1tYDkH_E5j_JHkULaFSn6K4ge4LR4KIl9ky3Uc0gUZBQMkAov7p73fE7dDJeAPfhZhL5D3yRnZw3h5llA,http://tracking.artofclick.com/aff_lsr?transaction_id=211smFTV1tYDkH_E5j_JHkULaFSn6K4ge4LR4KIl9ky3Uc0gUZBQMkAov7p73fE7dDJeAPfhZhL5D3yRnZw3h5llA&security_token=572dae93b32a79e9ba8c5d6c0c935891,idfa_8ff823e4-d4de-41a9-ae1c-d1842862966b,%E1%80%97%E1%80%99%E1%80%AC
M8J3i6R_S-WvWT8MZC2rWw,artofclick,7433_e6ba372add2206c4eabce6ffaaa800b9,Install,0.3,,a4012099-e53d-4226-ac51-5bbea460cd7b,1558050658,2019-05-17 07:50:58,1558050828,2019-05-17 07:53:48,1558050859,211ElDp3yu9_pErj1SyiCc0mcXSE9LYLYBNkjLGl4Wrbvd-KgoeIsxj7ngnxJa0BSgJUgLTQuAjfv7ndibuMwgCQQ,http://tracking.artofclick.com/aff_lsr?transaction_id=211ElDp3yu9_pErj1SyiCc0mcXSE9LYLYBNkjLGl4Wrbvd-KgoeIsxj7ngnxJa0BSgJUgLTQuAjfv7ndibuMwgCQQ&security_token=572dae93b32a79e9ba8c5d6c0c935891,idfa_a4012099-e53d-4226-ac51-5bbea460cd7b,%E1%80%97%E1%80%99%E1%80%AC
M8J3i6R_S-WvWT8MZC2rWw,artofclick,7433_e6ba372add2206c4eabce6ffaaa800b9,Install,0.3,,ac75c921-8f5c-4ce2-af2e-a987d73eb021,1558050953,2019-05-17 07:55:53,1558051085,2019-05-17 07:58:05,1558051116,211I-z_xFQXtn4Laj0fLI-l4AuiHtht1zNrJzWwcn0crVz9JxcxTgllS1ZEKKXCzgT2Cu35gFkeKSk,http://tracking.artofclick.com/aff_lsr?transaction_id=211I-z_xFQXtn4Laj0fLI-l4AuiHtht1zNrJzWwcn0crVz9JxcxTgllS1ZEKKXCzgT2Cu35gFkeKSk&security_token=572dae93b32a79e9ba8c5d6c0c935891,idfa_ac75c921-8f5c-4ce2-af2e-a987d73eb021,%E1%80%97%E1%80%99%E1%80%AC
M8J3i6R_S-WvWT8MZC2rWw,artofclick,7433_e6ba372add2206c4eabce6ffaaa800b9,Install,0.3,,8d315abc-5856-40aa-8c97-a6c918191576,1558047396,2019-05-17 06:56:36,1558047503,2019-05-17 06:58:23,1558047534,211pJujV2mYDC7YJdvB-Zj6hg3gpWAvqGxpiAB5Fk6aixEoQWiQmSqcoblc3FPR76HmFPQOwCHAK4GHDFMciNEOYA,http://tracking.artofclick.com/aff_lsr?transaction_id=211pJujV2mYDC7YJdvB-Zj6hg3gpWAvqGxpiAB5Fk6aixEoQWiQmSqcoblc3FPR76HmFPQOwCHAK4GHDFMciNEOYA&security_token=572dae93b32a79e9ba8c5d6c0c935891,idfa_8d315abc-5856-40aa-8c97-a6c918191576,%E1%80%97%E1%80%99%E1%80%AC
M8J3i6R_S-WvWT8MZC2rWw,artofclick,7433_e6ba372add2206c4eabce6ffaaa800b9,Install,0.3,,6426e3a7-4ff2-4081-8194-9be29f0a1b28,1558050559,2019-05-17 07:49:19,1558050655,2019-05-17 07:50:55,1558050686,211zBouTqV-U-bNxvESYKlcnSE6ucQ_wlgNr6BdS_LBmrrVrFnBPAnvNaUlE8WeVi029IWf-0ZzbQQ,http://tracking.artofclick.com/aff_lsr?transaction_id=211zBouTqV-U-bNxvESYKlcnSE6ucQ_wlgNr6BdS_LBmrrVrFnBPAnvNaUlE8WeVi029IWf-0ZzbQQ&security_token=572dae93b32a79e9ba8c5d6c0c935891,idfa_6426e3a7-4ff2-4081-8194-9be29f0a1b28,%E1%80%97%E1%80%99%E1%80%AC
M8J3i6R_S-WvWT8MZC2rWw,artofclick,7433_e6ba372add2206c4eabce6ffaaa800b9,Install,0.3,,984fa238-6b8d-4837-a13d-80c1176471d3,1558049961,2019-05-17 07:39:21,1558050079,2019-05-17 07:41:19,1558050109,211tiniI5fmOSfT6ulkFAvbbGKYmtDTxIDL-RxvhqWCYhJcbg1FoO06jepk3rgDRBNNTOiJhvmiFnY,http://tracking.artofclick.com/aff_lsr?transaction_id=211tiniI5fmOSfT6ulkFAvbbGKYmtDTxIDL-RxvhqWCYhJcbg1FoO06jepk3rgDRBNNTOiJhvmiFnY&security_token=572dae93b32a79e9ba8c5d6c0c935891,idfa_984fa238-6b8d-4837-a13d-80c1176471d3,%E1%80%97%E1%80%99%E1%80%AC
M8J3i6R_S-WvWT8MZC2rWw,artofclick,7433_e6ba372add2206c4eabce6ffaaa800b9,Install,0.3,,6012e77b-743b-4af0-a162-470b4814683c,1558047438,2019-05-17 06:57:18,1558047535,2019-05-17 06:58:55,1558047566,211yiEy7TPxbmPKUk-5e4Zy6BRhOdvkjiqg8O2HcCeJcGgSyzL7LIQTzBI8Y-7zrXz1pHzLFW4me83lwEjCRYJePg,http://tracking.artofclick.com/aff_lsr?transaction_id=211yiEy7TPxbmPKUk-5e4Zy6BRhOdvkjiqg8O2HcCeJcGgSyzL7LIQTzBI8Y-7zrXz1pHzLFW4me83lwEjCRYJePg&security_token=572dae93b32a79e9ba8c5d6c0c935891,idfa_6012e77b-743b-4af0-a162-470b4814683c,%E1%80%97%E1%80%99%E1%80%AC
M8J3i6R_S-WvWT8MZC2rWw,artofclick,7433_e6ba372add2206c4eabce6ffaaa800b9,Install,0.3,,6ce09d76-e88f-463d-8f6e-0469c941a571,1558049705,2019-05-17 07:35:05,1558049827,2019-05-17 07:37:07,1558049858,211zfoqNEbLs-cEIR8F_kYkkhx7gYDH7HuTT6fAQL5dBf50mst2P9xYHdL6fMUdRs6qvE-klyWKNv0,http://tracking.artofclick.com/aff_lsr?transaction_id=211zfoqNEbLs-cEIR8F_kYkkhx7gYDH7HuTT6fAQL5dBf50mst2P9xYHdL6fMUdRs6qvE-klyWKNv0&security_token=572dae93b32a79e9ba8c5d6c0c935891,idfa_6ce09d76-e88f-463d-8f6e-0469c941a571,%E1%80%97%E1%80%99%E1%80%AC
M8J3i6R_S-WvWT8MZC2rWw,artofclick,7433_e6ba372add2206c4eabce6ffaaa800b9,Install,0.3,,f1312be2-0c07-4bc3-bde6-3a6d614a0ef4,1558050493,2019-05-17 07:48:13,1558050688,2019-05-17 07:51:28,1558050719,2113DVuCFVOd74cLvTKjFmvNbmJVctDOJAzDy3jdI8E0WN7PXJPqJbOSK6-hh7uI14do-izny1Q4Fc,http://tracking.artofclick.com/aff_lsr?transaction_id=2113DVuCFVOd74cLvTKjFmvNbmJVctDOJAzDy3jdI8E0WN7PXJPqJbOSK6-hh7uI14do-izny1Q4Fc&security_token=572dae93b32a79e9ba8c5d6c0c935891,idfa_f1312be2-0c07-4bc3-bde6-3a6d614a0ef4,%E1%80%97%E1%80%99%E1%80%AC
M8J3i6R_S-WvWT8MZC2rWw,artofclick,7433_e6ba372add2206c4eabce6ffaaa800b9,Install,0.3,,2671174a-2e7b-4c35-8bf3-b4ee9670391f,1558047790,2019-05-17 07:03:10,1558047879,2019-05-17 07:04:39,1558047910,211PFkxEVkOcaE3F12tYgEfc3gq7rimQaHcjuq0vx699pSxZQYvf1UcEuHQ-IPCrVXCtAnP_PqmYkE,http://tracking.artofclick.com/aff_lsr?transaction_id=211PFkxEVkOcaE3F12tYgEfc3gq7rimQaHcjuq0vx699pSxZQYvf1UcEuHQ-IPCrVXCtAnP_PqmYkE&security_token=572dae93b32a79e9ba8c5d6c0c935891,idfa_2671174a-2e7b-4c35-8bf3-b4ee9670391f,%E1%80%97%E1%80%99%E1%80%AC
M8J3i6R_S-WvWT8MZC2rWw,artofclick,7433_e6ba372add2206c4eabce6ffaaa800b9,Install,0.3,,2fb5e9c8-3572-4af4-9dcf-21a5900d03f7,1558050014,2019-05-17 07:40:14,1558050141,2019-05-17 07:42:21,1558050172,211IRfjXnTlGgu5gDFhFtICjqZ6N7iLnCDz3ehmoUa-1k01tr-mJHrmOnTosVUE33mDyrDq_wSkkHI,http://tracking.artofclick.com/aff_lsr?transaction_id=211IRfjXnTlGgu5gDFhFtICjqZ6N7iLnCDz3ehmoUa-1k01tr-mJHrmOnTosVUE33mDyrDq_wSkkHI&security_token=572dae93b32a79e9ba8c5d6c0c935891,idfa_2fb5e9c8-3572-4af4-9dcf-21a5900d03f7,%E1%80%97%E1%80%99%E1%80%AC
M8J3i6R_S-WvWT8MZC2rWw,artofclick,7433_e6ba372add2206c4eabce6ffaaa800b9,Install,0.3,,1ad4ca01-26e6-444b-8556-160bd49d3840,1558048653,2019-05-17 07:17:33,1558048776,2019-05-17 07:19:36,1558048806,2113dlk5L1aCbMhrf2D2qKkzGAovHWNv2aIePG6Fz0wX0SITwxkZJWIGSETP8BsuR-SL00Dj2NZauat9014A9p8_g,http://tracking.artofclick.com/aff_lsr?transaction_id=2113dlk5L1aCbMhrf2D2qKkzGAovHWNv2aIePG6Fz0wX0SITwxkZJWIGSETP8BsuR-SL00Dj2NZauat9014A9p8_g&security_token=572dae93b32a79e9ba8c5d6c0c935891,idfa_1ad4ca01-26e6-444b-8556-160bd49d3840,%E1%80%97%E1%80%99%E1%80%AC
M8J3i6R_S-WvWT8MZC2rWw,artofclick,7433_e6ba372add2206c4eabce6ffaaa800b9,Install,0.3,,09562d10-d802-4004-8f27-fafc587a66fe,1558045327,2019-05-17 06:22:07,1558045443,2019-05-17 06:24:03,1558045474,211JteKSb30VFuHuARpF2ziTcOw5ko0B_WKH91M48_vJkx1AlnDBCx4AIFN3VN4tWvWsQg1BA4T2nekBT4TZTN0Nw,http://tracking.artofclick.com/aff_lsr?transaction_id=211JteKSb30VFuHuARpF2ziTcOw5ko0B_WKH91M48_vJkx1AlnDBCx4AIFN3VN4tWvWsQg1BA4T2nekBT4TZTN0Nw&security_token=572dae93b32a79e9ba8c5d6c0c935891,idfa_09562d10-d802-4004-8f27-fafc587a66fe,%E1%80%97%E1%80%99%E1%80%AC
M8J3i6R_S-WvWT8MZC2rWw,artofclick,7433_e6ba372add2206c4eabce6ffaaa800b9,Install,0.3,,44cb9e21-e8c2-4592-8de0-ed25f3df7b54,1558047439,2019-05-17 06:57:19,1558047529,2019-05-17 06:58:49,1558047561,211n0vL4hPozQX686_VXvp4pQS5OZ6FGM-HacMCTixgxAepuDi7cVB1iJq8d_mnAVxpjiinNqiG-PM,http://tracking.artofclick.com/aff_lsr?transaction_id=211n0vL4hPozQX686_VXvp4pQS5OZ6FGM-HacMCTixgxAepuDi7cVB1iJq8d_mnAVxpjiinNqiG-PM&security_token=572dae93b32a79e9ba8c5d6c0c935891,idfa_44cb9e21-e8c2-4592-8de0-ed25f3df7b54,%E1%80%97%E1%80%99%E1%80%AC
M8J3i6R_S-WvWT8MZC2rWw,artofclick,7433_e6ba372add2206c4eabce6ffaaa800b9,Install,0.3,,616f31d3-3e3a-4c89-a832-35d75e289667,1558044831,2019-05-17 06:13:51,1558044934,2019-05-17 06:15:34,1558044965,211l8tw9f955rGBGPb-TkITykVwjwY8N0pl97qIQgGkbx4IEKl6-bvvO_p9gJtFVnsFnSZGXc7HvoOPbR1I4_3IAQ,http://tracking.artofclick.com/aff_lsr?transaction_id=211l8tw9f955rGBGPb-TkITykVwjwY8N0pl97qIQgGkbx4IEKl6-bvvO_p9gJtFVnsFnSZGXc7HvoOPbR1I4_3IAQ&security_token=572dae93b32a79e9ba8c5d6c0c935891,idfa_616f31d3-3e3a-4c89-a832-35d75e289667,%E1%80%97%E1%80%99%E1%80%AC
M8J3i6R_S-WvWT8MZC2rWw,artofclick,7433_e6ba372add2206c4eabce6ffaaa800b9,Install,0.3,,638edacf-9c09-4547-9fff-a38e1c76290f,1558050176,2019-05-17 07:42:56,1558050316,2019-05-17 07:45:16,1558050347,211LQC4E0OnbBplA4aQYPRwOZD3H8ppwS7uFZM5BDc95dx0esuzu9Nbp3rOQ9BmsNLi-mu0NXtGKCypx3GIXQYnjQ,http://tracking.artofclick.com/aff_lsr?transaction_id=211LQC4E0OnbBplA4aQYPRwOZD3H8ppwS7uFZM5BDc95dx0esuzu9Nbp3rOQ9BmsNLi-mu0NXtGKCypx3GIXQYnjQ&security_token=572dae93b32a79e9ba8c5d6c0c935891,idfa_638edacf-9c09-4547-9fff-a38e1c76290f,%E1%80%97%E1%80%99%E1%80%AC
M8J3i6R_S-WvWT8MZC2rWw,artofclick,7433_e6ba372add2206c4eabce6ffaaa800b9,Install,0.3,,d3835f57-de08-4f33-8bda-b4188acbaca5,1558047287,2019-05-17 06:54:47,1558047374,2019-05-17 06:56:14,1558047404,211-JkxPnTDgHeW4HAH6quGt49WmdqsJLDhBUztmbKhzMb3VsQSwW2t8pho0Hai2GSqaX5pGDPKZrE,http://tracking.artofclick.com/aff_lsr?transaction_id=211-JkxPnTDgHeW4HAH6quGt49WmdqsJLDhBUztmbKhzMb3VsQSwW2t8pho0Hai2GSqaX5pGDPKZrE&security_token=572dae93b32a79e9ba8c5d6c0c935891,idfa_d3835f57-de08-4f33-8bda-b4188acbaca5,%E1%80%97%E1%80%99%E1%80%AC
M8J3i6R_S-WvWT8MZC2rWw,artofclick,7433_e6ba372add2206c4eabce6ffaaa800b9,Install,0.3,,51add753-96a4-4bb1-8104-fe5ba232809a,1558050241,2019-05-17 07:44:01,1558050355,2019-05-17 07:45:55,1558050386,211ospKtNYdvm_EIUD0H5XeHPWOi2Nv4gP3Fg26qTsRe-ABLjhqKhmrpTyF3_R_jOngNJz6JTKfpKU,http://tracking.artofclick.com/aff_lsr?transaction_id=211ospKtNYdvm_EIUD0H5XeHPWOi2Nv4gP3Fg26qTsRe-ABLjhqKhmrpTyF3_R_jOngNJz6JTKfpKU&security_token=572dae93b32a79e9ba8c5d6c0c935891,idfa_51add753-96a4-4bb1-8104-fe5ba232809a,%E1%80%97%E1%80%99%E1%80%AC
M8J3i6R_S-WvWT8MZC2rWw,artofclick,7433_e6ba372add2206c4eabce6ffaaa800b9,Install,0.3,,a6d4328c-c903-474c-9486-f6ebcbcc8d25,1558048574,2019-05-17 07:16:14,1558048693,2019-05-17 07:18:13,1558048724,211ck0A1Rg6a7tf3k21cqr6PTkiWyTOlTZFsF0nFsJjHFXDk95i0E-t5sc43R-P362UjWcyRlyvfQc,http://tracking.artofclick.com/aff_lsr?transaction_id=211ck0A1Rg6a7tf3k21cqr6PTkiWyTOlTZFsF0nFsJjHFXDk95i0E-t5sc43R-P362UjWcyRlyvfQc&security_token=572dae93b32a79e9ba8c5d6c0c935891,idfa_a6d4328c-c903-474c-9486-f6ebcbcc8d25,%E1%80%97%E1%80%99%E1%80%AC
M8J3i6R_S-WvWT8MZC2rWw,artofclick,7433_e6ba372add2206c4eabce6ffaaa800b9,Install,0.3,,62ae6858-c2b0-4847-a946-b341fc6c9c47,1558047376,2019-05-17 06:56:16,1558047483,2019-05-17 06:58:03,1558047514,2116hddr0j-JaZPl0jlKU6N8s_ADUUnoALDdfTnUnsnATpWpVN0Ri1HKm8Sm5U_ACjkKwW-vxv2m9o,http://tracking.artofclick.com/aff_lsr?transaction_id=2116hddr0j-JaZPl0jlKU6N8s_ADUUnoALDdfTnUnsnATpWpVN0Ri1HKm8Sm5U_ACjkKwW-vxv2m9o&security_token=572dae93b32a79e9ba8c5d6c0c935891,idfa_62ae6858-c2b0-4847-a946-b341fc6c9c47,%E1%80%97%E1%80%99%E1%80%AC
M8J3i6R_S-WvWT8MZC2rWw,artofclick,7433_e6ba372add2206c4eabce6ffaaa800b9,Install,0.3,,c59e844f-410d-4d85-8921-85bf3874e736,1558047343,2019-05-17 06:55:43,1558047430,2019-05-17 06:57:10,1558047461,211AZfFFsN6XZqnkXHZXU8nadr8JYDl67JABIzU3SXU1MSRKftSYil19gReSmrxjMNLU0Flbmbywb8mcRhHn69qfA,http://tracking.artofclick.com/aff_lsr?transaction_id=211AZfFFsN6XZqnkXHZXU8nadr8JYDl67JABIzU3SXU1MSRKftSYil19gReSmrxjMNLU0Flbmbywb8mcRhHn69qfA&security_token=572dae93b32a79e9ba8c5d6c0c935891,idfa_c59e844f-410d-4d85-8921-85bf3874e736,%E1%80%97%E1%80%99%E1%80%AC
M8J3i6R_S-WvWT8MZC2rWw,artofclick,7433_e6ba372add2206c4eabce6ffaaa800b9,Install,0.3,,383b9131-49fc-44ff-8684-fc5c4890dca9,1558048243,2019-05-17 07:10:43,1558048469,2019-05-17 07:14:29,1558048500,2115hlK0ObMr744b9wIY4fV_T7PWotJgsKTH-_SL58ZUTxmgOo2QswxizX0b4ZtXu4s6ppynS7giGFoQmNzGIHXCw,http://tracking.artofclick.com/aff_lsr?transaction_id=2115hlK0ObMr744b9wIY4fV_T7PWotJgsKTH-_SL58ZUTxmgOo2QswxizX0b4ZtXu4s6ppynS7giGFoQmNzGIHXCw&security_token=572dae93b32a79e9ba8c5d6c0c935891,idfa_383b9131-49fc-44ff-8684-fc5c4890dca9,%E1%80%97%E1%80%99%E1%80%AC
M8J3i6R_S-WvWT8MZC2rWw,artofclick,7433_e6ba372add2206c4eabce6ffaaa800b9,Install,0.3,,b79ac73f-ee7d-4000-a75d-f2c85a053d9e,1558048570,2019-05-17 07:16:10,1558048685,2019-05-17 07:18:05,1558048716,211sJxMOWlK5Vt9JXnR8rymfjw7j6Fk8zwkEU31TEdE2wFJEcB3KnoA8bxq6YWquRoefsFMlzSct9-gSOOhQeU2aw,http://tracking.artofclick.com/aff_lsr?transaction_id=211sJxMOWlK5Vt9JXnR8rymfjw7j6Fk8zwkEU31TEdE2wFJEcB3KnoA8bxq6YWquRoefsFMlzSct9-gSOOhQeU2aw&security_token=572dae93b32a79e9ba8c5d6c0c935891,idfa_b79ac73f-ee7d-4000-a75d-f2c85a053d9e,%E1%80%97%E1%80%99%E1%80%AC
M8J3i6R_S-WvWT8MZC2rWw,artofclick,7433_e6ba372add2206c4eabce6ffaaa800b9,Install,0.3,,d4c2940e-bb8c-4418-a02e-f5768e2f38f9,1558051127,2019-05-17 07:58:47,1558051223,2019-05-17 08:00:23,1558051254,211_tvp04g-iEiIFda4_j_Jij5xZerNan423ej-6cKd-Lzg4qa8lxjAckmly-DxESjhJmmuZhqEb-0,http://tracking.artofclick.com/aff_lsr?transaction_id=211_tvp04g-iEiIFda4_j_Jij5xZerNan423ej-6cKd-Lzg4qa8lxjAckmly-DxESjhJmmuZhqEb-0&security_token=572dae93b32a79e9ba8c5d6c0c935891,idfa_d4c2940e-bb8c-4418-a02e-f5768e2f38f9,%E1%80%97%E1%80%99%E1%80%AC
M8J3i6R_S-WvWT8MZC2rWw,artofclick,7433_e6ba372add2206c4eabce6ffaaa800b9,Install,0.3,,3de6bd3f-f260-42ed-8415-42c3c58281af,1558051068,2019-05-17 07:57:48,1558051193,2019-05-17 07:59:53,1558051228,2114LVNFZu9oROEABcDOpxTNptqT37bVtT1boRzOwlP_l2DxQt563_ba-pZmd5O94L-vypAjxbnglKMln7bUHng4g,http://tracking.artofclick.com/aff_lsr?transaction_id=2114LVNFZu9oROEABcDOpxTNptqT37bVtT1boRzOwlP_l2DxQt563_ba-pZmd5O94L-vypAjxbnglKMln7bUHng4g&security_token=572dae93b32a79e9ba8c5d6c0c935891,idfa_3de6bd3f-f260-42ed-8415-42c3c58281af,%E1%80%97%E1%80%99%E1%80%AC
M8J3i6R_S-WvWT8MZC2rWw,artofclick,7433_e6ba372add2206c4eabce6ffaaa800b9,Install,0.3,,bc5e88fb-5d61-478c-8f2c-03986b4ad84e,1558047536,2019-05-17 06:58:56,1558047653,2019-05-17 07:00:53,1558047684,2110EUHd6eSvNM9YJ8wcl0tmji7f4QmqHVmEpLuOon-IqDTyBF5aRFpd_tQZHdrVMvQkO8MGLqQp0A,http://tracking.artofclick.com/aff_lsr?transaction_id=2110EUHd6eSvNM9YJ8wcl0tmji7f4QmqHVmEpLuOon-IqDTyBF5aRFpd_tQZHdrVMvQkO8MGLqQp0A&security_token=572dae93b32a79e9ba8c5d6c0c935891,idfa_bc5e88fb-5d61-478c-8f2c-03986b4ad84e,%E1%80%97%E1%80%99%E1%80%AC
M8J3i6R_S-WvWT8MZC2rWw,artofclick,7433_e6ba372add2206c4eabce6ffaaa800b9,Install,0.3,,c0528d1f-38fa-4d45-acb7-f1f199639174,1558051262,2019-05-17 08:01:02,1558051367,2019-05-17 08:02:47,1558051397,211_A35jc4jP9lVFloZOWP1jp6s44gUypG7B-kaZ_0M3CQ88dHmVs0lXUgIp8CrC_RC_R4n3rSDLuc,http://tracking.artofclick.com/aff_lsr?transaction_id=211_A35jc4jP9lVFloZOWP1jp6s44gUypG7B-kaZ_0M3CQ88dHmVs0lXUgIp8CrC_RC_R4n3rSDLuc&security_token=572dae93b32a79e9ba8c5d6c0c935891,idfa_c0528d1f-38fa-4d45-acb7-f1f199639174,%E1%80%97%E1%80%99%E1%80%AC
M8J3i6R_S-WvWT8MZC2rWw,artofclick,7433_e6ba372add2206c4eabce6ffaaa800b9,Install,0.3,,65c720ef-b3f4-40bc-926d-9fecf11e5532,1558047477,2019-05-17 06:57:57,1558047600,2019-05-17 07:00:00,1558047631,211wB6JHgBMVZEaKu-3Ycb6f2VmaUtKcLcwCqGBsA1_8GTySz3z80JwQCL-xmcHYAHlXIdLkz9p5Ws,http://tracking.artofclick.com/aff_lsr?transaction_id=211wB6JHgBMVZEaKu-3Ycb6f2VmaUtKcLcwCqGBsA1_8GTySz3z80JwQCL-xmcHYAHlXIdLkz9p5Ws&security_token=572dae93b32a79e9ba8c5d6c0c935891,idfa_65c720ef-b3f4-40bc-926d-9fecf11e5532,%E1%80%97%E1%80%99%E1%80%AC
M8J3i6R_S-WvWT8MZC2rWw,artofclick,7433_e6ba372add2206c4eabce6ffaaa800b9,Install,0.3,,c32bed36-bf7a-42e6-b938-eeb2194ab827,1558046850,2019-05-17 06:47:30,1558046970,2019-05-17 06:49:30,1558047001,211KB3KNRY4zQOMXoouFJokeDZdFdtsU8a7PYSPM1qqbhxBosq66SfmWuKjl9_etB4sYcP8-AOVkOo,http://tracking.artofclick.com/aff_lsr?transaction_id=211KB3KNRY4zQOMXoouFJokeDZdFdtsU8a7PYSPM1qqbhxBosq66SfmWuKjl9_etB4sYcP8-AOVkOo&security_token=572dae93b32a79e9ba8c5d6c0c935891,idfa_c32bed36-bf7a-42e6-b938-eeb2194ab827,%E1%80%97%E1%80%99%E1%80%AC
M8J3i6R_S-WvWT8MZC2rWw,artofclick,7433_e6ba372add2206c4eabce6ffaaa800b9,Install,0.3,,1a3d7cba-b20e-40f1-92ad-8c3d7cc537e2,1558046481,2019-05-17 06:41:21,1558046584,2019-05-17 06:43:04,1558046616,211wFL_dE-849ZPO074_9AzHH2WPEWmh4xqIDv-cyI4ZV8gv6lb1u2pNmpj-jFptEVWkCT1j38LgX4,http://tracking.artofclick.com/aff_lsr?transaction_id=211wFL_dE-849ZPO074_9AzHH2WPEWmh4xqIDv-cyI4ZV8gv6lb1u2pNmpj-jFptEVWkCT1j38LgX4&security_token=572dae93b32a79e9ba8c5d6c0c935891,idfa_1a3d7cba-b20e-40f1-92ad-8c3d7cc537e2,%E1%80%97%E1%80%99%E1%80%AC
M8J3i6R_S-WvWT8MZC2rWw,artofclick,7433_e6ba372add2206c4eabce6ffaaa800b9,Install,0.3,,2e99b688-cb0b-49c7-afe9-bb25ce6c3f10,1558045620,2019-05-17 06:27:00,1558045732,2019-05-17 06:28:52,1558045763,211EjrzMCyMSSGS_vsoI_imh68kvwPa0o0o_DDEtQsq8TnDApmVOjnZLAF0UcndjQQDcJntn2Rq3gM,http://tracking.artofclick.com/aff_lsr?transaction_id=211EjrzMCyMSSGS_vsoI_imh68kvwPa0o0o_DDEtQsq8TnDApmVOjnZLAF0UcndjQQDcJntn2Rq3gM&security_token=572dae93b32a79e9ba8c5d6c0c935891,idfa_2e99b688-cb0b-49c7-afe9-bb25ce6c3f10,%E1%80%97%E1%80%99%E1%80%AC
M8J3i6R_S-WvWT8MZC2rWw,artofclick,7433_e6ba372add2206c4eabce6ffaaa800b9,Install,0.3,,a4c0dc5e-5262-42f6-8881-969c49fa2c90,1558046818,2019-05-17 06:46:58,1558046918,2019-05-17 06:48:38,1558046950,211FL_-3MF5-KNaOhJpaoCLWtmyCBFZIpBImRj4V8cI2g4fVrvx5qsoOyt-Inl15IFBb8Sw-kmvQW9gRvXDmzuKkQ,http://tracking.artofclick.com/aff_lsr?transaction_id=211FL_-3MF5-KNaOhJpaoCLWtmyCBFZIpBImRj4V8cI2g4fVrvx5qsoOyt-Inl15IFBb8Sw-kmvQW9gRvXDmzuKkQ&security_token=572dae93b32a79e9ba8c5d6c0c935891,idfa_a4c0dc5e-5262-42f6-8881-969c49fa2c90,%E1%80%97%E1%80%99%E1%80%AC
M8J3i6R_S-WvWT8MZC2rWw,artofclick,7433_e6ba372add2206c4eabce6ffaaa800b9,Install,0.3,,6dd1e38c-3a04-4cd7-bb2a-27bf10175af7,1558050807,2019-05-17 07:53:27,1558050910,2019-05-17 07:55:10,1558050941,211j7Wc0Di3FgXY6sBul43lryUyeQmbRsVYZSUXxRQouOOkZjsFza53U3wu47vUWZOpn-r-w8092ZU,http://tracking.artofclick.com/aff_lsr?transaction_id=211j7Wc0Di3FgXY6sBul43lryUyeQmbRsVYZSUXxRQouOOkZjsFza53U3wu47vUWZOpn-r-w8092ZU&security_token=572dae93b32a79e9ba8c5d6c0c935891,idfa_6dd1e38c-3a04-4cd7-bb2a-27bf10175af7,%E1%80%97%E1%80%99%E1%80%AC
M8J3i6R_S-WvWT8MZC2rWw,artofclick,7433_e6ba372add2206c4eabce6ffaaa800b9,Install,0.3,,cbae2f2a-03ab-4f35-823c-fa64311e5308,1558049799,2019-05-17 07:36:39,1558049889,2019-05-17 07:38:09,1558049920,211kyH3LMRS5bjIGoqcn6lxXcyPbXGuyXNxVAXB26yHFNvfF8lX9cOCJcs-Zn-HllzpSmUcpxvHsMg,http://tracking.artofclick.com/aff_lsr?transaction_id=211kyH3LMRS5bjIGoqcn6lxXcyPbXGuyXNxVAXB26yHFNvfF8lX9cOCJcs-Zn-HllzpSmUcpxvHsMg&security_token=572dae93b32a79e9ba8c5d6c0c935891,idfa_cbae2f2a-03ab-4f35-823c-fa64311e5308,%E1%80%97%E1%80%99%E1%80%AC
M8J3i6R_S-WvWT8MZC2rWw,artofclick,7433_e6ba372add2206c4eabce6ffaaa800b9,Install,0.3,,5517a71f-a300-403a-bee4-f854bc5dc49d,1558047590,2019-05-17 06:59:50,1558047707,2019-05-17 07:01:47,1558047739,2110guU24Ox27Lhr5y6CEi9gXUcE8SIrg3yxAUw4DSXwmeiauhik9lrGNah7q7B80R6kVF4Cp8hQxU,http://tracking.artofclick.com/aff_lsr?transaction_id=2110guU24Ox27Lhr5y6CEi9gXUcE8SIrg3yxAUw4DSXwmeiauhik9lrGNah7q7B80R6kVF4Cp8hQxU&security_token=572dae93b32a79e9ba8c5d6c0c935891,idfa_5517a71f-a300-403a-bee4-f854bc5dc49d,%E1%80%97%E1%80%99%E1%80%AC
M8J3i6R_S-WvWT8MZC2rWw,artofclick,7433_e6ba372add2206c4eabce6ffaaa800b9,Install,0.3,,ab4413f7-9300-4a67-9c61-d1cd31a19493,1558047559,2019-05-17 06:59:19,1558047657,2019-05-17 07:00:57,1558047687,211QR-xhVb3X7Zyh337C78h6-YzdE986W8mEEDYtLsA4qqPtc6ti9y3kwrUf2ACZs6pSSVnqGDZsg4,http://tracking.artofclick.com/aff_lsr?transaction_id=211QR-xhVb3X7Zyh337C78h6-YzdE986W8mEEDYtLsA4qqPtc6ti9y3kwrUf2ACZs6pSSVnqGDZsg4&security_token=572dae93b32a79e9ba8c5d6c0c935891,idfa_ab4413f7-9300-4a67-9c61-d1cd31a19493,%E1%80%97%E1%80%99%E1%80%AC
M8J3i6R_S-WvWT8MZC2rWw,artofclick,7433_e6ba372add2206c4eabce6ffaaa800b9,Install,0.3,,7c95fac6-3b31-4bef-bf24-de3112841cf1,1558047281,2019-05-17 06:54:41,1558047419,2019-05-17 06:56:59,1558047449,211sDngWo100KWOFWSyFtfv5TSnHRaAbXZ8TUDCK_d6-IxoAt1u0LXNQgUunDq79g3_Y-cLC98XTdI,http://tracking.artofclick.com/aff_lsr?transaction_id=211sDngWo100KWOFWSyFtfv5TSnHRaAbXZ8TUDCK_d6-IxoAt1u0LXNQgUunDq79g3_Y-cLC98XTdI&security_token=572dae93b32a79e9ba8c5d6c0c935891,idfa_7c95fac6-3b31-4bef-bf24-de3112841cf1,%E1%80%97%E1%80%99%E1%80%AC
M8J3i6R_S-WvWT8MZC2rWw,artofclick,7433_e6ba372add2206c4eabce6ffaaa800b9,Install,0.3,,9cf7689b-3878-41b9-a267-a3512841c45f,1558050842,2019-05-17 07:54:02,1558050935,2019-05-17 07:55:35,1558050967,211UZ_Mr2Y-W2W4EN6mSQ1F1CbbNcBkfVfkNH4j4lmbsbIMGJGU-sYe42_ax6a6ZCISqFRE0cyVEVI,http://tracking.artofclick.com/aff_lsr?transaction_id=211UZ_Mr2Y-W2W4EN6mSQ1F1CbbNcBkfVfkNH4j4lmbsbIMGJGU-sYe42_ax6a6ZCISqFRE0cyVEVI&security_token=572dae93b32a79e9ba8c5d6c0c935891,idfa_9cf7689b-3878-41b9-a267-a3512841c45f,%E1%80%97%E1%80%99%E1%80%AC
M8J3i6R_S-WvWT8MZC2rWw,artofclick,7433_e6ba372add2206c4eabce6ffaaa800b9,Install,0.3,,0e78fc54-8fb0-4555-8915-59b044e99c1d,1558049169,2019-05-17 07:26:09,1558049275,2019-05-17 07:27:55,1558049305,211lUxBmfyqP3I2ygl3mM0090KwkljydvcLE7xdb1Cit72qNuL9I5cEESpLMxntMoxcsHQeGXcO3-g,http://tracking.artofclick.com/aff_lsr?transaction_id=211lUxBmfyqP3I2ygl3mM0090KwkljydvcLE7xdb1Cit72qNuL9I5cEESpLMxntMoxcsHQeGXcO3-g&security_token=572dae93b32a79e9ba8c5d6c0c935891,idfa_0e78fc54-8fb0-4555-8915-59b044e99c1d,%E1%80%97%E1%80%99%E1%80%AC
M8J3i6R_S-WvWT8MZC2rWw,artofclick,7433_e6ba372add2206c4eabce6ffaaa800b9,Install,0.3,,11dd6100-9144-461c-aae0-188fa3dcf9bf,1558049555,2019-05-17 07:32:35,1558049693,2019-05-17 07:34:53,1558049723,211Ds5rRjjiR4DWSJLVWh56BzRyyFYlxDkWLGzhtYkFFPxndB8R1b0uRMvWj1FYMna0YiflfFrblJU,http://tracking.artofclick.com/aff_lsr?transaction_id=211Ds5rRjjiR4DWSJLVWh56BzRyyFYlxDkWLGzhtYkFFPxndB8R1b0uRMvWj1FYMna0YiflfFrblJU&security_token=572dae93b32a79e9ba8c5d6c0c935891,idfa_11dd6100-9144-461c-aae0-188fa3dcf9bf,%E1%80%97%E1%80%99%E1%80%AC
M8J3i6R_S-WvWT8MZC2rWw,artofclick,7433_e6ba372add2206c4eabce6ffaaa800b9,Install,0.3,,a8783248-e143-4dcd-84dc-32651a3a3994,1558048979,2019-05-17 07:22:59,1558049086,2019-05-17 07:24:46,1558049118,211oIqjLrH8z_aD-FRGm4TYQwsn8KBB_ZE2mlSdNAgwd02DK4NCLldtkVfiCLBQtZ5v3I9HbBJHBCrg9fKSFB2AZA,http://tracking.artofclick.com/aff_lsr?transaction_id=211oIqjLrH8z_aD-FRGm4TYQwsn8KBB_ZE2mlSdNAgwd02DK4NCLldtkVfiCLBQtZ5v3I9HbBJHBCrg9fKSFB2AZA&security_token=572dae93b32a79e9ba8c5d6c0c935891,idfa_a8783248-e143-4dcd-84dc-32651a3a3994,%E1%80%97%E1%80%99%E1%80%AC
M8J3i6R_S-WvWT8MZC2rWw,artofclick,7433_e6ba372add2206c4eabce6ffaaa800b9,Install,0.3,,c8d8105e-bee0-4cc3-9568-d92659c32ceb,1558050388,2019-05-17 07:46:28,1558050477,2019-05-17 07:47:57,1558050508,211M9p0yBF-LDK1VQ63q6tpTFK3QHb_bB0wwFCmJXeJ61N3JV5OtzjGgRoTU5y7atZsj0G-P9k6idvATY1t6TN63w,http://tracking.artofclick.com/aff_lsr?transaction_id=211M9p0yBF-LDK1VQ63q6tpTFK3QHb_bB0wwFCmJXeJ61N3JV5OtzjGgRoTU5y7atZsj0G-P9k6idvATY1t6TN63w&security_token=572dae93b32a79e9ba8c5d6c0c935891,idfa_c8d8105e-bee0-4cc3-9568-d92659c32ceb,%E1%80%97%E1%80%99%E1%80%AC
M8J3i6R_S-WvWT8MZC2rWw,artofclick,7433_e6ba372add2206c4eabce6ffaaa800b9,Install,0.3,,9efba850-974c-487d-8dae-a2cca0d4054e,1558046802,2019-05-17 06:46:42,1558046943,2019-05-17 06:49:03,1558046974,211J6RdryHSLxlrE6gSKr22cy2Eb7kMhwtpt04iAxQO4tvJD5bv9mRuPt49dw4geup9AI_-Pc1nT4M,http://tracking.artofclick.com/aff_lsr?transaction_id=211J6RdryHSLxlrE6gSKr22cy2Eb7kMhwtpt04iAxQO4tvJD5bv9mRuPt49dw4geup9AI_-Pc1nT4M&security_token=572dae93b32a79e9ba8c5d6c0c935891,idfa_9efba850-974c-487d-8dae-a2cca0d4054e,%E1%80%97%E1%80%99%E1%80%AC
M8J3i6R_S-WvWT8MZC2rWw,artofclick,7433_e6ba372add2206c4eabce6ffaaa800b9,Install,0.3,,08e14d9b-1464-49a8-af01-65493ca4ae1c,1558046975,2019-05-17 06:49:35,1558047061,2019-05-17 06:51:01,1558047092,211GyAv96vwTnLyenLLjEgjeQYgaXRj2IH6wILOZqJ6dwXg-NRVimGWjPTyKNt5wNuK_aIwKllQS63OMvv6zivgmg,http://tracking.artofclick.com/aff_lsr?transaction_id=211GyAv96vwTnLyenLLjEgjeQYgaXRj2IH6wILOZqJ6dwXg-NRVimGWjPTyKNt5wNuK_aIwKllQS63OMvv6zivgmg&security_token=572dae93b32a79e9ba8c5d6c0c935891,idfa_08e14d9b-1464-49a8-af01-65493ca4ae1c,%E1%80%97%E1%80%99%E1%80%AC
M8J3i6R_S-WvWT8MZC2rWw,artofclick,7433_e6ba372add2206c4eabce6ffaaa800b9,Install,0.3,,5b291666-3c3d-4ec2-a317-923547f65c5e,1558051394,2019-05-17 08:03:14,1558051486,2019-05-17 08:04:46,1558051517,2110Eu6Kqgz4TZn_54HEGbit91rvvW7KRfnuAN4SraTjc2PQ83HfMi8v1LWSOa8CQovBTBmT5ER63E,http://tracking.artofclick.com/aff_lsr?transaction_id=2110Eu6Kqgz4TZn_54HEGbit91rvvW7KRfnuAN4SraTjc2PQ83HfMi8v1LWSOa8CQovBTBmT5ER63E&security_token=572dae93b32a79e9ba8c5d6c0c935891,idfa_5b291666-3c3d-4ec2-a317-923547f65c5e,%E1%80%97%E1%80%99%E1%80%AC
M8J3i6R_S-WvWT8MZC2rWw,artofclick,7433_e6ba372add2206c4eabce6ffaaa800b9,Install,0.3,,08970c06-f953-4854-854f-8048ade78c9b,1558047780,2019-05-17 07:03:00,1558047900,2019-05-17 07:05:00,1558047930,211JtNgni__fRgYdW1AVNTv4QH4-CNskv1nIXdfdVPP3pKDfPQPLtVqpV0-VRJMHoli_kxNWH5xaF8,http://tracking.artofclick.com/aff_lsr?transaction_id=211JtNgni__fRgYdW1AVNTv4QH4-CNskv1nIXdfdVPP3pKDfPQPLtVqpV0-VRJMHoli_kxNWH5xaF8&security_token=572dae93b32a79e9ba8c5d6c0c935891,idfa_08970c06-f953-4854-854f-8048ade78c9b,%E1%80%97%E1%80%99%E1%80%AC
M8J3i6R_S-WvWT8MZC2rWw,artofclick,7433_e6ba372add2206c4eabce6ffaaa800b9,Install,0.3,,059aac16-99ad-45ac-8f35-0143db5e1957,1558048629,2019-05-17 07:17:09,1558048729,2019-05-17 07:18:49,1558048763,211JRUJC0HC-fGuaB8qjTn9qlEQtA_9fKLF4wUXnUnnqfLluEaAicqkp0FDqCwlMEcNxYAK2TEfaow,http://tracking.artofclick.com/aff_lsr?transaction_id=211JRUJC0HC-fGuaB8qjTn9qlEQtA_9fKLF4wUXnUnnqfLluEaAicqkp0FDqCwlMEcNxYAK2TEfaow&security_token=572dae93b32a79e9ba8c5d6c0c935891,idfa_059aac16-99ad-45ac-8f35-0143db5e1957,%E1%80%97%E1%80%99%E1%80%AC
M8J3i6R_S-WvWT8MZC2rWw,artofclick,7433_e6ba372add2206c4eabce6ffaaa800b9,Install,0.3,,d0ae9d2c-3c59-441b-80df-a1d9edb24880,1558047844,2019-05-17 07:04:04,1558047938,2019-05-17 07:05:38,1558047969,211aKzunV_YbUMf13HOIoj9WOKjEvxr-kEcu0v-_bKo6ZUGHY2HCQx-C_X0XSCO9v0HpuywFHRWfKQ,http://tracking.artofclick.com/aff_lsr?transaction_id=211aKzunV_YbUMf13HOIoj9WOKjEvxr-kEcu0v-_bKo6ZUGHY2HCQx-C_X0XSCO9v0HpuywFHRWfKQ&security_token=572dae93b32a79e9ba8c5d6c0c935891,idfa_d0ae9d2c-3c59-441b-80df-a1d9edb24880,%E1%80%97%E1%80%99%E1%80%AC
M8J3i6R_S-WvWT8MZC2rWw,artofclick,7433_e6ba372add2206c4eabce6ffaaa800b9,Install,0.3,,23e2ebcc-350e-4464-b650-ee7cc21ccf4f,1558050415,2019-05-17 07:46:55,1558050507,2019-05-17 07:48:27,1558050537,211MKhhKCTkoJG-H8WD2vQ0-ACLPpSghbAllBclX94_5vAlMCerzK7GUPjSsHMzKgMERbE8_LZR6oUgSLz9u_pMXA,http://tracking.artofclick.com/aff_lsr?transaction_id=211MKhhKCTkoJG-H8WD2vQ0-ACLPpSghbAllBclX94_5vAlMCerzK7GUPjSsHMzKgMERbE8_LZR6oUgSLz9u_pMXA&security_token=572dae93b32a79e9ba8c5d6c0c935891,idfa_23e2ebcc-350e-4464-b650-ee7cc21ccf4f,%E1%80%97%E1%80%99%E1%80%AC
M8J3i6R_S-WvWT8MZC2rWw,artofclick,7433_e6ba372add2206c4eabce6ffaaa800b9,Install,0.3,,b6db4970-238d-4f9f-8ec3-bb0f186e93c0,1558047856,2019-05-17 07:04:16,1558047941,2019-05-17 07:05:41,1558047973,211-uVJNvKLKibMjMQGS-T5qkSadYbbmRCTio7NkPRaHey2E4xFyfHLxKPQqn-ikc3U0lKb6fev4-gQG01Ix3d5lQ,http://tracking.artofclick.com/aff_lsr?transaction_id=211-uVJNvKLKibMjMQGS-T5qkSadYbbmRCTio7NkPRaHey2E4xFyfHLxKPQqn-ikc3U0lKb6fev4-gQG01Ix3d5lQ&security_token=572dae93b32a79e9ba8c5d6c0c935891,idfa_b6db4970-238d-4f9f-8ec3-bb0f186e93c0,%E1%80%97%E1%80%99%E1%80%AC
M8J3i6R_S-WvWT8MZC2rWw,artofclick,7433_e6ba372add2206c4eabce6ffaaa800b9,Install,0.3,,879cf0dc-399c-4a6d-bf93-998efb0c9a35,1558047029,2019-05-17 06:50:29,1558047130,2019-05-17 06:52:10,1558047162,211oGVighdlHVZNP-VEzDCNIlIsSNpp5oZ6xpDDkPNyb0qYLdTIMjpbRm0oLS4p1kOLZiD-R2CZCFcJLS0BhejVRw,http://tracking.artofclick.com/aff_lsr?transaction_id=211oGVighdlHVZNP-VEzDCNIlIsSNpp5oZ6xpDDkPNyb0qYLdTIMjpbRm0oLS4p1kOLZiD-R2CZCFcJLS0BhejVRw&security_token=572dae93b32a79e9ba8c5d6c0c935891,idfa_879cf0dc-399c-4a6d-bf93-998efb0c9a35,%E1%80%97%E1%80%99%E1%80%AC
M8J3i6R_S-WvWT8MZC2rWw,artofclick,7433_e6ba372add2206c4eabce6ffaaa800b9,Install,0.3,,2e3975c6-8811-4bc3-871d-8ea2e99d604e,1558034813,2019-05-17 03:26:53,1558034938,2019-05-17 03:28:58,1558034968,211dFHiHqdDOI2dB8L2Z_JuSumAalECuDBKSFWGcHe6qDRUHMqEQ6sb-S7-_Ih1dQ8TCUai66RpKgU,http://tracking.artofclick.com/aff_lsr?transaction_id=211dFHiHqdDOI2dB8L2Z_JuSumAalECuDBKSFWGcHe6qDRUHMqEQ6sb-S7-_Ih1dQ8TCUai66RpKgU&security_token=572dae93b32a79e9ba8c5d6c0c935891,idfa_2e3975c6-8811-4bc3-871d-8ea2e99d604e,%E1%80%97%E1%80%99%E1%80%AC
M8J3i6R_S-WvWT8MZC2rWw,artofclick,7433_e6ba372add2206c4eabce6ffaaa800b9,Install,0.3,,739c9256-43ad-4eb3-92fc-a31b250367d2,1558050775,2019-05-17 07:52:55,1558050897,2019-05-17 07:54:57,1558050928,2110Xh5cPQ7DCyowk_n3mfnneOCDpb9kTXhz9Z2HPuCk8wgmvVvCH1mWOOLe6KuDMjfcp2X8JkQiUs,http://tracking.artofclick.com/aff_lsr?transaction_id=2110Xh5cPQ7DCyowk_n3mfnneOCDpb9kTXhz9Z2HPuCk8wgmvVvCH1mWOOLe6KuDMjfcp2X8JkQiUs&security_token=572dae93b32a79e9ba8c5d6c0c935891,idfa_739c9256-43ad-4eb3-92fc-a31b250367d2,%E1%80%97%E1%80%99%E1%80%AC
M8J3i6R_S-WvWT8MZC2rWw,artofclick,7433_e6ba372add2206c4eabce6ffaaa800b9,Install,0.3,,97d7af85-1bc2-4ffc-96f7-898cc23f5ba3,1558048899,2019-05-17 07:21:39,1558049016,2019-05-17 07:23:36,1558049047,211h-t1cRPHxtG8Z8qi6RloZki3ucq4J5DoQAAYcdoW33mG8nCUmchz6FqRQbuYtrdjOAhAPnS1d98,http://tracking.artofclick.com/aff_lsr?transaction_id=211h-t1cRPHxtG8Z8qi6RloZki3ucq4J5DoQAAYcdoW33mG8nCUmchz6FqRQbuYtrdjOAhAPnS1d98&security_token=572dae93b32a79e9ba8c5d6c0c935891,idfa_97d7af85-1bc2-4ffc-96f7-898cc23f5ba3,%E1%80%97%E1%80%99%E1%80%AC
M8J3i6R_S-WvWT8MZC2rWw,artofclick,7433_e6ba372add2206c4eabce6ffaaa800b9,Install,0.3,,6740fbca-0954-4acd-a584-f7a2caed3228,1558050870,2019-05-17 07:54:30,1558050997,2019-05-17 07:56:37,1558051028,211rFKtolNHBp9oOy7N9YDjWL-AsAsZmFu4j1e_PTSaYlXOMJGZStwPJVqcJbPLMONa6s93i-LN4_0,http://tracking.artofclick.com/aff_lsr?transaction_id=211rFKtolNHBp9oOy7N9YDjWL-AsAsZmFu4j1e_PTSaYlXOMJGZStwPJVqcJbPLMONa6s93i-LN4_0&security_token=572dae93b32a79e9ba8c5d6c0c935891,idfa_6740fbca-0954-4acd-a584-f7a2caed3228,English
M8J3i6R_S-WvWT8MZC2rWw,artofclick,7433_e6ba372add2206c4eabce6ffaaa800b9,Install,0.3,,ac9b0134-cffc-45bc-860b-6dd80fadd106,1558050600,2019-05-17 07:50:00,1558050688,2019-05-17 07:51:28,1558050718,2110Jiq8F03rdKBLygY1oFobWyz89WJYUisuogXowM1Lf7GU8b29Ldv8J1Dx6yR5YW1WgHh289kkeE,http://tracking.artofclick.com/aff_lsr?transaction_id=2110Jiq8F03rdKBLygY1oFobWyz89WJYUisuogXowM1Lf7GU8b29Ldv8J1Dx6yR5YW1WgHh289kkeE&security_token=572dae93b32a79e9ba8c5d6c0c935891,idfa_ac9b0134-cffc-45bc-860b-6dd80fadd106,%E1%80%97%E1%80%99%E1%80%AC
M8J3i6R_S-WvWT8MZC2rWw,artofclick,7433_e6ba372add2206c4eabce6ffaaa800b9,Install,0.3,,5211e321-da02-4758-a642-c7d2098a8fae,1558047463,2019-05-17 06:57:43,1558047556,2019-05-17 06:59:16,1558047587,211fWmxVoCBiNdFaJ5kR0LInReDUQ6xRugJ7fTDS7epb5B8qwKT41OiPmcYTqhZcUJvWHI8YOUggJo,http://tracking.artofclick.com/aff_lsr?transaction_id=211fWmxVoCBiNdFaJ5kR0LInReDUQ6xRugJ7fTDS7epb5B8qwKT41OiPmcYTqhZcUJvWHI8YOUggJo&security_token=572dae93b32a79e9ba8c5d6c0c935891,idfa_5211e321-da02-4758-a642-c7d2098a8fae,%E1%80%97%E1%80%99%E1%80%AC
M8J3i6R_S-WvWT8MZC2rWw,artofclick,7433_e6ba372add2206c4eabce6ffaaa800b9,Install,0.3,,0739aa88-90d6-4dd5-9417-8d7989a6164a,1558050175,2019-05-17 07:42:55,1558050301,2019-05-17 07:45:01,1558050331,211j1vLae4D6SChPVNwDHjSIDw1BOjwGiBchM05F5o2tHzwobHUTGMlVMudVXTpZZtRNvpJ0-c4W187Cu7FWHJyrw,http://tracking.artofclick.com/aff_lsr?transaction_id=211j1vLae4D6SChPVNwDHjSIDw1BOjwGiBchM05F5o2tHzwobHUTGMlVMudVXTpZZtRNvpJ0-c4W187Cu7FWHJyrw&security_token=572dae93b32a79e9ba8c5d6c0c935891,idfa_0739aa88-90d6-4dd5-9417-8d7989a6164a,%E1%80%97%E1%80%99%E1%80%AC
M8J3i6R_S-WvWT8MZC2rWw,artofclick,7433_e6ba372add2206c4eabce6ffaaa800b9,Install,0.3,,33adeab1-3cc3-4d65-a1e8-6e6e3d719368,1558049618,2019-05-17 07:33:38,1558049712,2019-05-17 07:35:12,1558049743,211W3qJSL4vMkmupN0TatI1KjDHSWXUTalbOYUTonf3OMEK5wDU0fdgpgZI0OoWyIl460x5-Awlgig,http://tracking.artofclick.com/aff_lsr?transaction_id=211W3qJSL4vMkmupN0TatI1KjDHSWXUTalbOYUTonf3OMEK5wDU0fdgpgZI0OoWyIl460x5-Awlgig&security_token=572dae93b32a79e9ba8c5d6c0c935891,idfa_33adeab1-3cc3-4d65-a1e8-6e6e3d719368,%E1%80%97%E1%80%99%E1%80%AC
M8J3i6R_S-WvWT8MZC2rWw,artofclick,7433_e6ba372add2206c4eabce6ffaaa800b9,Install,0.3,,a7f051e2-72a1-4f26-9604-729c792620dc,1558047408,2019-05-17 06:56:48,1558047513,2019-05-17 06:58:33,1558047545,211OnxHpsiIEoeMZQnDmiDYtpLwA5b99ltVqz9HHAHoTBz4cwnCrCZRbt26RilUzXxmOX_q-0vMy4bPNzst9OD9QA,http://tracking.artofclick.com/aff_lsr?transaction_id=211OnxHpsiIEoeMZQnDmiDYtpLwA5b99ltVqz9HHAHoTBz4cwnCrCZRbt26RilUzXxmOX_q-0vMy4bPNzst9OD9QA&security_token=572dae93b32a79e9ba8c5d6c0c935891,idfa_a7f051e2-72a1-4f26-9604-729c792620dc,%E1%80%97%E1%80%99%E1%80%AC
M8J3i6R_S-WvWT8MZC2rWw,artofclick,7433_e6ba372add2206c4eabce6ffaaa800b9,Install,0.3,,a422bfe8-2cca-4e69-8cf6-85e3a924ede6,1558048262,2019-05-17 07:11:02,1558048471,2019-05-17 07:14:31,1558048501,2110CRIeGaP2oN_1eZ_QxcmUwlkzEznxabpRS9eUKDNON4bVHCEOTBs2v05dIVPtw_1C0RWULUykV8kzuNReoRk8A,http://tracking.artofclick.com/aff_lsr?transaction_id=2110CRIeGaP2oN_1eZ_QxcmUwlkzEznxabpRS9eUKDNON4bVHCEOTBs2v05dIVPtw_1C0RWULUykV8kzuNReoRk8A&security_token=572dae93b32a79e9ba8c5d6c0c935891,idfa_a422bfe8-2cca-4e69-8cf6-85e3a924ede6,%E1%80%97%E1%80%99%E1%80%AC
M8J3i6R_S-WvWT8MZC2rWw,artofclick,7433_e6ba372add2206c4eabce6ffaaa800b9,Install,0.3,,014c45f6-a61a-41a6-8969-564b76c721aa,1558048938,2019-05-17 07:22:18,1558049019,2019-05-17 07:23:39,1558049050,2119weHPj6hJZN2BOH8wBacjBfbB5H2cwb9Iy8yVVg_UyehrkK29AjIy0EB2HX0tjN45TZsaA3tU8ul3_nDvlM47w,http://tracking.artofclick.com/aff_lsr?transaction_id=2119weHPj6hJZN2BOH8wBacjBfbB5H2cwb9Iy8yVVg_UyehrkK29AjIy0EB2HX0tjN45TZsaA3tU8ul3_nDvlM47w&security_token=572dae93b32a79e9ba8c5d6c0c935891,idfa_014c45f6-a61a-41a6-8969-564b76c721aa,%E1%80%97%E1%80%99%E1%80%AC
M8J3i6R_S-WvWT8MZC2rWw,artofclick,7433_e6ba372add2206c4eabce6ffaaa800b9,Install,0.3,,14c78de5-097e-47c2-aa65-5f4e21edca40,1558050373,2019-05-17 07:46:13,1558050475,2019-05-17 07:47:55,1558050505,211Dnke0YtR6PYB9LtE6vPVFz7xB7ipnbPF4js2WcsVcAyNvItOI0fED7Pvr2oaW_VSC2GFKpQSeZE,http://tracking.artofclick.com/aff_lsr?transaction_id=211Dnke0YtR6PYB9LtE6vPVFz7xB7ipnbPF4js2WcsVcAyNvItOI0fED7Pvr2oaW_VSC2GFKpQSeZE&security_token=572dae93b32a79e9ba8c5d6c0c935891,idfa_14c78de5-097e-47c2-aa65-5f4e21edca40,%E1%80%97%E1%80%99%E1%80%AC
M8J3i6R_S-WvWT8MZC2rWw,artofclick,7433_e6ba372add2206c4eabce6ffaaa800b9,Install,0.3,,2e13c5e7-5bf8-4e7d-8165-b09b45b64f32,1558051080,2019-05-17 07:58:00,1558051195,2019-05-17 07:59:55,1558051227,211VFzHQRo6LH1YzKxc8BQX0zdfHWr-HapVZ27AE0tJSRxvU7RZJTpyGGQB1jLMjGOgsbXJu0OvJBNage4SUW2NKA,http://tracking.artofclick.com/aff_lsr?transaction_id=211VFzHQRo6LH1YzKxc8BQX0zdfHWr-HapVZ27AE0tJSRxvU7RZJTpyGGQB1jLMjGOgsbXJu0OvJBNage4SUW2NKA&security_token=572dae93b32a79e9ba8c5d6c0c935891,idfa_2e13c5e7-5bf8-4e7d-8165-b09b45b64f32,%E1%80%97%E1%80%99%E1%80%AC
M8J3i6R_S-WvWT8MZC2rWw,artofclick,7433_e6ba372add2206c4eabce6ffaaa800b9,Install,0.3,,14e27b6b-9200-42bc-a591-f5d66664f962,1558049678,2019-05-17 07:34:38,1558049766,2019-05-17 07:36:06,1558049796,211jSDLtjMcM57WspH4wvs6viPKA2ufhX7oI1q2v-fsJURVhLKJYpz-UOVn9LGUBDBvI_MxjevPTC4,http://tracking.artofclick.com/aff_lsr?transaction_id=211jSDLtjMcM57WspH4wvs6viPKA2ufhX7oI1q2v-fsJURVhLKJYpz-UOVn9LGUBDBvI_MxjevPTC4&security_token=572dae93b32a79e9ba8c5d6c0c935891,idfa_14e27b6b-9200-42bc-a591-f5d66664f962,%E1%80%97%E1%80%99%E1%80%AC
M8J3i6R_S-WvWT8MZC2rWw,artofclick,7433_e6ba372add2206c4eabce6ffaaa800b9,Install,0.3,,f970a28c-6ed1-4aef-9897-7853f135df90,1558048806,2019-05-17 07:20:06,1558048930,2019-05-17 07:22:10,1558048961,211ZpmX0fY7Kl-DLSR5ruYLNf8-PWLg2OZgoXbQNO6yLvtmqptc75yN7FL7HUyFOyaLsjqwo7YtYY0,http://tracking.artofclick.com/aff_lsr?transaction_id=211ZpmX0fY7Kl-DLSR5ruYLNf8-PWLg2OZgoXbQNO6yLvtmqptc75yN7FL7HUyFOyaLsjqwo7YtYY0&security_token=572dae93b32a79e9ba8c5d6c0c935891,idfa_f970a28c-6ed1-4aef-9897-7853f135df90,%E1%80%97%E1%80%99%E1%80%AC
M8J3i6R_S-WvWT8MZC2rWw,artofclick,7433_e6ba372add2206c4eabce6ffaaa800b9,Install,0.3,,78589d05-a8a0-4dde-885b-e0cc497f6b4d,1558029301,2019-05-17 01:55:01,1558029401,2019-05-17 01:56:41,1558029432,211MhSkk2UkLcQ1eqgUi3jkuFsPdXx5Kxr1amd0RJ0Z6vtpc_3n5FPX9J5WrfsQyUkZ765uz_09_KE,http://tracking.artofclick.com/aff_lsr?transaction_id=211MhSkk2UkLcQ1eqgUi3jkuFsPdXx5Kxr1amd0RJ0Z6vtpc_3n5FPX9J5WrfsQyUkZ765uz_09_KE&security_token=572dae93b32a79e9ba8c5d6c0c935891,idfa_78589d05-a8a0-4dde-885b-e0cc497f6b4d,%E1%80%97%E1%80%99%E1%80%AC
M8J3i6R_S-WvWT8MZC2rWw,artofclick,7433_e6ba372add2206c4eabce6ffaaa800b9,Install,0.3,,5ded9cd4-b365-47a0-bd87-4dffadea5975,1558047127,2019-05-17 06:52:07,1558047253,2019-05-17 06:54:13,1558047283,211Su2Jx2dgEhxYqwxt5-fAj96_qAueBcptbsLV72X7wZvz8I3jDEpD3wvsrEegadnMhR1f6tnJRd3ELk2oZELPdw,http://tracking.artofclick.com/aff_lsr?transaction_id=211Su2Jx2dgEhxYqwxt5-fAj96_qAueBcptbsLV72X7wZvz8I3jDEpD3wvsrEegadnMhR1f6tnJRd3ELk2oZELPdw&security_token=572dae93b32a79e9ba8c5d6c0c935891,idfa_5ded9cd4-b365-47a0-bd87-4dffadea5975,%E1%80%97%E1%80%99%E1%80%AC
M8J3i6R_S-WvWT8MZC2rWw,artofclick,7433_e6ba372add2206c4eabce6ffaaa800b9,Install,0.3,,01acfe00-8c48-47bd-9293-2c5ccbc4b768,1558050280,2019-05-17 07:44:40,1558050409,2019-05-17 07:46:49,1558050440,2119p5CupKrlM8Xqv4njWSy-Z6uPLpOLaVIWo6iDXOKPqRV741eYVvMlkZjnVJITqS9hO2Npj7S97E,http://tracking.artofclick.com/aff_lsr?transaction_id=2119p5CupKrlM8Xqv4njWSy-Z6uPLpOLaVIWo6iDXOKPqRV741eYVvMlkZjnVJITqS9hO2Npj7S97E&security_token=572dae93b32a79e9ba8c5d6c0c935891,idfa_01acfe00-8c48-47bd-9293-2c5ccbc4b768,%E1%80%97%E1%80%99%E1%80%AC
M8J3i6R_S-WvWT8MZC2rWw,artofclick,7433_e6ba372add2206c4eabce6ffaaa800b9,Install,0.3,,bffe2e05-4c77-4b52-9b77-6f7452ca9b7c,1558049670,2019-05-17 07:34:30,1558049762,2019-05-17 07:36:02,1558049793,211o_kChk1CWRdz7AJm8jjQqGbg0hz5gqOU0tHRjSQux-ifQIw38ljVixrTv9p3sFPSgDI49HH6b2g,http://tracking.artofclick.com/aff_lsr?transaction_id=211o_kChk1CWRdz7AJm8jjQqGbg0hz5gqOU0tHRjSQux-ifQIw38ljVixrTv9p3sFPSgDI49HH6b2g&security_token=572dae93b32a79e9ba8c5d6c0c935891,idfa_bffe2e05-4c77-4b52-9b77-6f7452ca9b7c,%E1%80%97%E1%80%99%E1%80%AC
M8J3i6R_S-WvWT8MZC2rWw,artofclick,7433_e6ba372add2206c4eabce6ffaaa800b9,Install,0.3,,f37e85ce-a2ac-4f2e-9cda-5166b1fc2b3b,1558047734,2019-05-17 07:02:14,1558047820,2019-05-17 07:03:40,1558047851,211tRM3tUM5CfGn3cFiUWwJNaWUZowAor-qsZ1KLeOrYQSmnFxqGrM7AyAbA-13X6wT8NllWna-DXs,http://tracking.artofclick.com/aff_lsr?transaction_id=211tRM3tUM5CfGn3cFiUWwJNaWUZowAor-qsZ1KLeOrYQSmnFxqGrM7AyAbA-13X6wT8NllWna-DXs&security_token=572dae93b32a79e9ba8c5d6c0c935891,idfa_f37e85ce-a2ac-4f2e-9cda-5166b1fc2b3b,%E1%80%97%E1%80%99%E1%80%AC
M8J3i6R_S-WvWT8MZC2rWw,artofclick,7433_e6ba372add2206c4eabce6ffaaa800b9,Install,0.3,,c48724cd-20c2-438b-8e3a-19aa61732cac,1558049655,2019-05-17 07:34:15,1558049760,2019-05-17 07:36:00,1558049795,211FAF9lvbA3IUbJGKY6BsmVUI6oZknQ7tizuewQZ5mJotOYj8LzIqwCjxyVHW8ia-n3_Mqp3Rppxo,http://tracking.artofclick.com/aff_lsr?transaction_id=211FAF9lvbA3IUbJGKY6BsmVUI6oZknQ7tizuewQZ5mJotOYj8LzIqwCjxyVHW8ia-n3_Mqp3Rppxo&security_token=572dae93b32a79e9ba8c5d6c0c935891,idfa_c48724cd-20c2-438b-8e3a-19aa61732cac,%E1%80%97%E1%80%99%E1%80%AC
M8J3i6R_S-WvWT8MZC2rWw,artofclick,7433_e6ba372add2206c4eabce6ffaaa800b9,Install,0.3,,49b5576a-cb1c-4f46-a133-a93cbaad6a93,1558047361,2019-05-17 06:56:01,1558047459,2019-05-17 06:57:39,1558047490,211mYySq3nuMKkEbLQU56GXHgiPacXwit0ef6TfBP_LAKgS8rbhGH6dlo649i-QJNUr_AtLw-mMxhg,http://tracking.artofclick.com/aff_lsr?transaction_id=211mYySq3nuMKkEbLQU56GXHgiPacXwit0ef6TfBP_LAKgS8rbhGH6dlo649i-QJNUr_AtLw-mMxhg&security_token=572dae93b32a79e9ba8c5d6c0c935891,idfa_49b5576a-cb1c-4f46-a133-a93cbaad6a93,%E1%80%97%E1%80%99%E1%80%AC
M8J3i6R_S-WvWT8MZC2rWw,artofclick,7433_e6ba372add2206c4eabce6ffaaa800b9,Install,0.3,,43aec75d-aba1-4700-9774-ed008859f5af,1558051359,2019-05-17 08:02:39,1558051451,2019-05-17 08:04:11,1558051482,211jweN192MQHNFS9Yp1bjZY2tj3tP1ZKLHRTgcCh4ZWz4z3tN8SVQscd-ic0I8dstJ7fRjqmxMyz8,http://tracking.artofclick.com/aff_lsr?transaction_id=211jweN192MQHNFS9Yp1bjZY2tj3tP1ZKLHRTgcCh4ZWz4z3tN8SVQscd-ic0I8dstJ7fRjqmxMyz8&security_token=572dae93b32a79e9ba8c5d6c0c935891,idfa_43aec75d-aba1-4700-9774-ed008859f5af,%E1%80%97%E1%80%99%E1%80%AC
M8J3i6R_S-WvWT8MZC2rWw,artofclick,7433_e6ba372add2206c4eabce6ffaaa800b9,Install,0.3,,3310ffff-5cd9-409f-ae68-285988261edd,1558049590,2019-05-17 07:33:10,1558049696,2019-05-17 07:34:56,1558049727,211PXZ7JNfVnXAaZ8acEi99a5nyF0g7NgVECt3WyBq9-OLw-r9GEmsui6nzjjl2MkqWMz5MTt-BG_Y,http://tracking.artofclick.com/aff_lsr?transaction_id=211PXZ7JNfVnXAaZ8acEi99a5nyF0g7NgVECt3WyBq9-OLw-r9GEmsui6nzjjl2MkqWMz5MTt-BG_Y&security_token=572dae93b32a79e9ba8c5d6c0c935891,idfa_3310ffff-5cd9-409f-ae68-285988261edd,%E1%80%97%E1%80%99%E1%80%AC
M8J3i6R_S-WvWT8MZC2rWw,artofclick,7433_e6ba372add2206c4eabce6ffaaa800b9,Install,0.3,,df801ada-0e30-4fb9-b532-5f6e52ac6bc5,1558047194,2019-05-17 06:53:14,1558047294,2019-05-17 06:54:54,1558047324,211Ot60fl6_V7_wlWI2DLZTzFNcEDFE0E-oovkO8o1zLRn9HBd_gCyORL0BqYkExlNiXXg9cqSieKdJrH7Ub1HzFQ,http://tracking.artofclick.com/aff_lsr?transaction_id=211Ot60fl6_V7_wlWI2DLZTzFNcEDFE0E-oovkO8o1zLRn9HBd_gCyORL0BqYkExlNiXXg9cqSieKdJrH7Ub1HzFQ&security_token=572dae93b32a79e9ba8c5d6c0c935891,idfa_df801ada-0e30-4fb9-b532-5f6e52ac6bc5,%E1%80%97%E1%80%99%E1%80%AC
M8J3i6R_S-WvWT8MZC2rWw,artofclick,7433_e6ba372add2206c4eabce6ffaaa800b9,Install,0.3,,97492f15-ddea-4a93-aa01-504d619142d5,1558051352,2019-05-17 08:02:32,1558051448,2019-05-17 08:04:08,1558051480,211zMQWJFkVdpjJaXkASLEBpf-nnqVYm6qSSQdXEfsQ6R4nBuKRu6p3ycMeJFuSXB97q4c-YPfcXi23G0cQsX280Q,http://tracking.artofclick.com/aff_lsr?transaction_id=211zMQWJFkVdpjJaXkASLEBpf-nnqVYm6qSSQdXEfsQ6R4nBuKRu6p3ycMeJFuSXB97q4c-YPfcXi23G0cQsX280Q&security_token=572dae93b32a79e9ba8c5d6c0c935891,idfa_97492f15-ddea-4a93-aa01-504d619142d5,%E1%80%97%E1%80%99%E1%80%AC
M8J3i6R_S-WvWT8MZC2rWw,artofclick,7433_e6ba372add2206c4eabce6ffaaa800b9,Install,0.3,,9e6707ba-b3aa-4064-af15-d54709640667,1558048458,2019-05-17 07:14:18,1558048572,2019-05-17 07:16:12,1558048603,211dg64OV31xrzrLsSvRq-lWksOQepfk65dD_Qa5gDMFw3SXQl2P8P_2T43PNuzv5ZtuMsg-evKm5A,http://tracking.artofclick.com/aff_lsr?transaction_id=211dg64OV31xrzrLsSvRq-lWksOQepfk65dD_Qa5gDMFw3SXQl2P8P_2T43PNuzv5ZtuMsg-evKm5A&security_token=572dae93b32a79e9ba8c5d6c0c935891,idfa_9e6707ba-b3aa-4064-af15-d54709640667,%E1%80%97%E1%80%99%E1%80%AC
M8J3i6R_S-WvWT8MZC2rWw,artofclick,7433_e6ba372add2206c4eabce6ffaaa800b9,Install,0.3,,69fc0663-5656-4916-9557-3559d5a04612,1558048615,2019-05-17 07:16:55,1558048707,2019-05-17 07:18:27,1558048738,211NInFUHWrUegi8mZa82yJ019MVqIdZTzLOwAaVIfxsbhtGmg6a4Qigp-wiWtyxHOHzdo8D8_83IRp9IjZ4pGeKQ,http://tracking.artofclick.com/aff_lsr?transaction_id=211NInFUHWrUegi8mZa82yJ019MVqIdZTzLOwAaVIfxsbhtGmg6a4Qigp-wiWtyxHOHzdo8D8_83IRp9IjZ4pGeKQ&security_token=572dae93b32a79e9ba8c5d6c0c935891,idfa_69fc0663-5656-4916-9557-3559d5a04612,%E1%80%97%E1%80%99%E1%80%AC
M8J3i6R_S-WvWT8MZC2rWw,artofclick,7433_e6ba372add2206c4eabce6ffaaa800b9,Install,0.3,,e60e5d43-bb87-469e-99ef-ab624c01773f,1558048223,2019-05-17 07:10:23,1558048386,2019-05-17 07:13:06,1558048417,211JsyXtmB9XDvGADO5ZTZomrU52pQ0HM_gFJ2y96IR3S3VZmpk82ZD0703Pw5wB01ibAO1vIsTRto,http://tracking.artofclick.com/aff_lsr?transaction_id=211JsyXtmB9XDvGADO5ZTZomrU52pQ0HM_gFJ2y96IR3S3VZmpk82ZD0703Pw5wB01ibAO1vIsTRto&security_token=572dae93b32a79e9ba8c5d6c0c935891,idfa_e60e5d43-bb87-469e-99ef-ab624c01773f,%E1%80%97%E1%80%99%E1%80%AC
M8J3i6R_S-WvWT8MZC2rWw,artofclick,7433_e6ba372add2206c4eabce6ffaaa800b9,Install,0.3,,4d1e8c07-addd-475c-b17a-dfcc0b50eae2,1558049943,2019-05-17 07:39:03,1558050097,2019-05-17 07:41:37,1558050128,2116jIEYaMTbOoLDrxoae5XMOJe3oFVJwRer6RNE-YidNjkZmwVfplWkG3T9kxIq8t0i-2h0N-NBV0,http://tracking.artofclick.com/aff_lsr?transaction_id=2116jIEYaMTbOoLDrxoae5XMOJe3oFVJwRer6RNE-YidNjkZmwVfplWkG3T9kxIq8t0i-2h0N-NBV0&security_token=572dae93b32a79e9ba8c5d6c0c935891,idfa_4d1e8c07-addd-475c-b17a-dfcc0b50eae2,%E1%80%97%E1%80%99%E1%80%AC
M8J3i6R_S-WvWT8MZC2rWw,artofclick,7433_e6ba372add2206c4eabce6ffaaa800b9,Install,0.3,,2ec3da6a-b455-451d-81af-1daca529b04c,1558048735,2019-05-17 07:18:55,1558048849,2019-05-17 07:20:49,1558048880,211m4S4_FMHRWgO0WoM59fzydVxtN0rZAPJGZJrCHjQSqqJbOGLaA0IJPVvvX-QJOtoSOIT-2im6RqtFCb09i1Kbw,http://tracking.artofclick.com/aff_lsr?transaction_id=211m4S4_FMHRWgO0WoM59fzydVxtN0rZAPJGZJrCHjQSqqJbOGLaA0IJPVvvX-QJOtoSOIT-2im6RqtFCb09i1Kbw&security_token=572dae93b32a79e9ba8c5d6c0c935891,idfa_2ec3da6a-b455-451d-81af-1daca529b04c,%E1%80%97%E1%80%99%E1%80%AC
M8J3i6R_S-WvWT8MZC2rWw,artofclick,7433_e6ba372add2206c4eabce6ffaaa800b9,Install,0.3,,08ccdc05-8ea8-4192-8a5b-2902b9daa0f3,1558030891,2019-05-17 02:21:31,1558031022,2019-05-17 02:23:42,1558031052,211q7nKl-dC2F9-tadotNe_iy1sht2htGTN1FCPaHJNHkLJaSraqR6GcALOq9hdTZutoFj-mWPc4ZU,http://tracking.artofclick.com/aff_lsr?transaction_id=211q7nKl-dC2F9-tadotNe_iy1sht2htGTN1FCPaHJNHkLJaSraqR6GcALOq9hdTZutoFj-mWPc4ZU&security_token=572dae93b32a79e9ba8c5d6c0c935891,idfa_08ccdc05-8ea8-4192-8a5b-2902b9daa0f3,%E1%80%97%E1%80%99%E1%80%AC
M8J3i6R_S-WvWT8MZC2rWw,artofclick,7433_e6ba372add2206c4eabce6ffaaa800b9,Install,0.3,,e4940899-2a54-42f2-b5d9-6a5a7195292b,1558049747,2019-05-17 07:35:47,1558049862,2019-05-17 07:37:42,1558049901,211QFQ0cVM5NebmAXN4ElfszII7AKdiXKoxurbjb9EMKmvWpbfimk9jE5oSfNeBwqcf8l1bbYxAWek,http://tracking.artofclick.com/aff_lsr?transaction_id=211QFQ0cVM5NebmAXN4ElfszII7AKdiXKoxurbjb9EMKmvWpbfimk9jE5oSfNeBwqcf8l1bbYxAWek&security_token=572dae93b32a79e9ba8c5d6c0c935891,idfa_e4940899-2a54-42f2-b5d9-6a5a7195292b,%E1%80%97%E1%80%99%E1%80%AC
M8J3i6R_S-WvWT8MZC2rWw,artofclick,7433_e6ba372add2206c4eabce6ffaaa800b9,Install,0.3,,def45620-dfcc-44c9-806d-0ed321bfe58d,1558048228,2019-05-17 07:10:28,1558048463,2019-05-17 07:14:23,1558048494,211IAZZ71XiZnVBt7uDRTBSnd8C_CT45Y_XHIkaLmT1W06b0Y6U2sCYGBJa9SE_Kd4tuYEqFL8jBbE3ApKVDkZvPw,http://tracking.artofclick.com/aff_lsr?transaction_id=211IAZZ71XiZnVBt7uDRTBSnd8C_CT45Y_XHIkaLmT1W06b0Y6U2sCYGBJa9SE_Kd4tuYEqFL8jBbE3ApKVDkZvPw&security_token=572dae93b32a79e9ba8c5d6c0c935891,idfa_def45620-dfcc-44c9-806d-0ed321bfe58d,%E1%80%97%E1%80%99%E1%80%AC
M8J3i6R_S-WvWT8MZC2rWw,artofclick,7433_e6ba372add2206c4eabce6ffaaa800b9,Install,0.3,,d68c44d7-712d-4d23-bf11-9ece0503b5e8,1558049903,2019-05-17 07:38:23,1558050004,2019-05-17 07:40:04,1558050037,211hJs7ggQJRoHEfoWwlhFowwwYu-CvhWvCr7JGzwfnEl-CBGBXVaHS3Kh7V4iDhvqZG5XAlDz8DjY,http://tracking.artofclick.com/aff_lsr?transaction_id=211hJs7ggQJRoHEfoWwlhFowwwYu-CvhWvCr7JGzwfnEl-CBGBXVaHS3Kh7V4iDhvqZG5XAlDz8DjY&security_token=572dae93b32a79e9ba8c5d6c0c935891,idfa_d68c44d7-712d-4d23-bf11-9ece0503b5e8,%E1%80%97%E1%80%99%E1%80%AC
M8J3i6R_S-WvWT8MZC2rWw,artofclick,7433_e6ba372add2206c4eabce6ffaaa800b9,Install,0.3,,af9761ba-f224-4cc0-979e-acc5990e963d,1558048763,2019-05-17 07:19:23,1558048876,2019-05-17 07:21:16,1558048907,211iZyiaYEkju4h5jwg0HrFfv6ZKps6lEDnJD8WJnrKzAI_W5EWrSzbgXqdBYsQtbzybGgNl7VcRzI,http://tracking.artofclick.com/aff_lsr?transaction_id=211iZyiaYEkju4h5jwg0HrFfv6ZKps6lEDnJD8WJnrKzAI_W5EWrSzbgXqdBYsQtbzybGgNl7VcRzI&security_token=572dae93b32a79e9ba8c5d6c0c935891,idfa_af9761ba-f224-4cc0-979e-acc5990e963d,%E1%80%97%E1%80%99%E1%80%AC
M8J3i6R_S-WvWT8MZC2rWw,artofclick,7433_e6ba372add2206c4eabce6ffaaa800b9,Install,0.3,,95252042-5859-44f0-8403-bc6c4e21ded7,1558047280,2019-05-17 06:54:40,1558047375,2019-05-17 06:56:15,1558047406,2113PD9RNO5JchKcHs7DMtJf8YPfSk5rQTisVhDfHa-grRDr_Xxrmg0fqVStpRlWmTPzLbWL6wq0AqYd-q-dzqKSw,http://tracking.artofclick.com/aff_lsr?transaction_id=2113PD9RNO5JchKcHs7DMtJf8YPfSk5rQTisVhDfHa-grRDr_Xxrmg0fqVStpRlWmTPzLbWL6wq0AqYd-q-dzqKSw&security_token=572dae93b32a79e9ba8c5d6c0c935891,idfa_95252042-5859-44f0-8403-bc6c4e21ded7,%E1%80%97%E1%80%99%E1%80%AC
M8J3i6R_S-WvWT8MZC2rWw,artofclick,7433_e6ba372add2206c4eabce6ffaaa800b9,Install,0.3,,9a757e19-fe9e-4178-8147-86bbd10addb0,1558048697,2019-05-17 07:18:17,1558048794,2019-05-17 07:19:54,1558048825,2110MSMdDMT4phgMGE05tu5euJBUpSCnrantdFTs_EfdeT7YHvfhpWICtWy-ZqnR_zsm974EYTh7cF1u9IcCUdq2g,http://tracking.artofclick.com/aff_lsr?transaction_id=2110MSMdDMT4phgMGE05tu5euJBUpSCnrantdFTs_EfdeT7YHvfhpWICtWy-ZqnR_zsm974EYTh7cF1u9IcCUdq2g&security_token=572dae93b32a79e9ba8c5d6c0c935891,idfa_9a757e19-fe9e-4178-8147-86bbd10addb0,%E1%80%97%E1%80%99%E1%80%AC
M8J3i6R_S-WvWT8MZC2rWw,artofclick,7433_e6ba372add2206c4eabce6ffaaa800b9,Install,0.3,,cb2d124a-e01e-4abf-9e36-754f4ff589fe,1558047474,2019-05-17 06:57:54,1558047570,2019-05-17 06:59:30,1558047601,21162SUQxElvKJUpumwu86ZlImt5C68cQdUFpv1vur3DPrjbmB3gRRRJnKLA2twojcbFQKGcAlhhSU,http://tracking.artofclick.com/aff_lsr?transaction_id=21162SUQxElvKJUpumwu86ZlImt5C68cQdUFpv1vur3DPrjbmB3gRRRJnKLA2twojcbFQKGcAlhhSU&security_token=572dae93b32a79e9ba8c5d6c0c935891,idfa_cb2d124a-e01e-4abf-9e36-754f4ff589fe,%E1%80%97%E1%80%99%E1%80%AC
M8J3i6R_S-WvWT8MZC2rWw,artofclick,7433_e6ba372add2206c4eabce6ffaaa800b9,Install,0.3,,8d7fecfe-90db-4d83-b23d-c86af820c120,1558047451,2019-05-17 06:57:31,1558047539,2019-05-17 06:58:59,1558047571,211sNHLGC_zHVBHUt70rYCaddEPRXep01-7Ows3RiWtDFcFotRUv7zeuNI05431TVJTea6lF3rm6Z8,http://tracking.artofclick.com/aff_lsr?transaction_id=211sNHLGC_zHVBHUt70rYCaddEPRXep01-7Ows3RiWtDFcFotRUv7zeuNI05431TVJTea6lF3rm6Z8&security_token=572dae93b32a79e9ba8c5d6c0c935891,idfa_8d7fecfe-90db-4d83-b23d-c86af820c120,%E1%80%97%E1%80%99%E1%80%AC
M8J3i6R_S-WvWT8MZC2rWw,artofclick,7433_e6ba372add2206c4eabce6ffaaa800b9,Install,0.3,,15030cd4-56a5-42cd-ae17-0f761bac1414,1558049288,2019-05-17 07:28:08,1558049381,2019-05-17 07:29:41,1558049412,211c2CaNmM44FHVC4Kp3I9Dv0mdoyS3PgPRNWGDR_uhPcwpeAaooYdR70fmK1Be9xaF1lkidnOoCGU9Mn-UPmtWiQ,http://tracking.artofclick.com/aff_lsr?transaction_id=211c2CaNmM44FHVC4Kp3I9Dv0mdoyS3PgPRNWGDR_uhPcwpeAaooYdR70fmK1Be9xaF1lkidnOoCGU9Mn-UPmtWiQ&security_token=572dae93b32a79e9ba8c5d6c0c935891,idfa_15030cd4-56a5-42cd-ae17-0f761bac1414,%E1%80%97%E1%80%99%E1%80%AC
M8J3i6R_S-WvWT8MZC2rWw,artofclick,7433_e6ba372add2206c4eabce6ffaaa800b9,Install,0.3,,7544170b-f951-4592-bc06-168b7c7ac7f0,1557955525,2019-05-16 05:25:25,1557955645,2019-05-16 05:27:25,1557955676,211CbeylRrn6TEMS34sTLE-9g_K7YE1T9Sj_QMVVJ0R5-EHVUhLV3IROMOtT4wh3wiMbeIlMvOlHkxlOzi4xqgisA,http://tracking.artofclick.com/aff_lsr?transaction_id=211CbeylRrn6TEMS34sTLE-9g_K7YE1T9Sj_QMVVJ0R5-EHVUhLV3IROMOtT4wh3wiMbeIlMvOlHkxlOzi4xqgisA&security_token=572dae93b32a79e9ba8c5d6c0c935891,idfa_7544170b-f951-4592-bc06-168b7c7ac7f0,%E1%80%97%E1%80%99%E1%80%AC
M8J3i6R_S-WvWT8MZC2rWw,artofclick,7433_e6ba372add2206c4eabce6ffaaa800b9,Install,0.3,,3bebe623-b8a6-461f-87bd-49bc0f0c7f65,1558051201,2019-05-17 08:00:01,1558051294,2019-05-17 08:01:34,1558051324,211n3NuT9T1OB5_YYfRZJx-JH1AQy5VEhK_tN_IJ91Gw5skW1dl0i6IhqIu18OJhDpz5eVJ530-jYU,http://tracking.artofclick.com/aff_lsr?transaction_id=211n3NuT9T1OB5_YYfRZJx-JH1AQy5VEhK_tN_IJ91Gw5skW1dl0i6IhqIu18OJhDpz5eVJ530-jYU&security_token=572dae93b32a79e9ba8c5d6c0c935891,idfa_3bebe623-b8a6-461f-87bd-49bc0f0c7f65,%E1%80%97%E1%80%99%E1%80%AC
M8J3i6R_S-WvWT8MZC2rWw,artofclick,7433_e6ba372add2206c4eabce6ffaaa800b9,Install,0.3,,83f537d6-818c-4f75-b54f-ff25290318db,1558047710,2019-05-17 07:01:50,1558047807,2019-05-17 07:03:27,1558047838,211jWrMyN9mPUHQ-tVlZpauv1ttMrw0WZFMmF8vIywxmFiet2QGlpKEBc6eZzRgUV7TizSgdAPgTWA,http://tracking.artofclick.com/aff_lsr?transaction_id=211jWrMyN9mPUHQ-tVlZpauv1ttMrw0WZFMmF8vIywxmFiet2QGlpKEBc6eZzRgUV7TizSgdAPgTWA&security_token=572dae93b32a79e9ba8c5d6c0c935891,idfa_83f537d6-818c-4f75-b54f-ff25290318db,%E1%80%97%E1%80%99%E1%80%AC
M8J3i6R_S-WvWT8MZC2rWw,artofclick,7433_e6ba372add2206c4eabce6ffaaa800b9,Install,0.3,,4f9851a0-52a6-4340-a326-860a47db1313,1558049798,2019-05-17 07:36:38,1558049894,2019-05-17 07:38:14,1558049925,2116p5QFRPcFSSEmOJ2kiBHx1spTJvrRexXQZquiejf5C6yWkUnZnKdajaiuiQMbDFMQUsPrVixHCc,http://tracking.artofclick.com/aff_lsr?transaction_id=2116p5QFRPcFSSEmOJ2kiBHx1spTJvrRexXQZquiejf5C6yWkUnZnKdajaiuiQMbDFMQUsPrVixHCc&security_token=572dae93b32a79e9ba8c5d6c0c935891,idfa_4f9851a0-52a6-4340-a326-860a47db1313,%E1%80%97%E1%80%99%E1%80%AC
M8J3i6R_S-WvWT8MZC2rWw,artofclick,7433_e6ba372add2206c4eabce6ffaaa800b9,Install,0.3,,3f542bd2-03b2-4612-830e-9d6bee289b46,1558047765,2019-05-17 07:02:45,1558047856,2019-05-17 07:04:16,1558047888,211JI5iv656j9hRm1FRkszve9BUigiWF0Kv3z5CLR0EuWO2NJY7jcNuiYAriCJdn8naI0wmEGfsnrg,http://tracking.artofclick.com/aff_lsr?transaction_id=211JI5iv656j9hRm1FRkszve9BUigiWF0Kv3z5CLR0EuWO2NJY7jcNuiYAriCJdn8naI0wmEGfsnrg&security_token=572dae93b32a79e9ba8c5d6c0c935891,idfa_3f542bd2-03b2-4612-830e-9d6bee289b46,%E1%80%97%E1%80%99%E1%80%AC
M8J3i6R_S-WvWT8MZC2rWw,artofclick,7433_e6ba372add2206c4eabce6ffaaa800b9,Install,0.3,,866831a0-aa6b-4059-9ca6-132793ffccef,1558046621,2019-05-17 06:43:41,1558046740,2019-05-17 06:45:40,1558046771,211aQy4nwRTbWnFeumuYyC6YotJaoXlDAHciUzi5yb6oto2F1j8A0hJr6QqZuD4mgqP5n_ddLw3tgVMhuRuW1CkCw,http://tracking.artofclick.com/aff_lsr?transaction_id=211aQy4nwRTbWnFeumuYyC6YotJaoXlDAHciUzi5yb6oto2F1j8A0hJr6QqZuD4mgqP5n_ddLw3tgVMhuRuW1CkCw&security_token=572dae93b32a79e9ba8c5d6c0c935891,idfa_866831a0-aa6b-4059-9ca6-132793ffccef,%E1%80%97%E1%80%99%E1%80%AC
M8J3i6R_S-WvWT8MZC2rWw,artofclick,7433_e6ba372add2206c4eabce6ffaaa800b9,Install,0.3,,f492ab23-6a8f-48cf-adab-09e4c4ca68cf,1558047329,2019-05-17 06:55:29,1558047429,2019-05-17 06:57:09,1558047459,211bnEqsYgfKGIbWzwTFlEHAULJZZz8H-DmC29_V7VC72AgIp40XYGMx_8l4oNBF1ZM5DQXXc4qtnw,http://tracking.artofclick.com/aff_lsr?transaction_id=211bnEqsYgfKGIbWzwTFlEHAULJZZz8H-DmC29_V7VC72AgIp40XYGMx_8l4oNBF1ZM5DQXXc4qtnw&security_token=572dae93b32a79e9ba8c5d6c0c935891,idfa_f492ab23-6a8f-48cf-adab-09e4c4ca68cf,%E1%80%97%E1%80%99%E1%80%AC
M8J3i6R_S-WvWT8MZC2rWw,artofclick,7433_e6ba372add2206c4eabce6ffaaa800b9,Install,0.3,,15af69c2-7c99-4a89-9237-90e05a21abcf,1558024084,2019-05-17 00:28:04,1558024182,2019-05-17 00:29:42,1558024213,211mKDq_dc8wd_cFLvCQqz5o5IgXODsjzZ0XyLLQ39bAL4qEnf5pXpDxdjzdFmkIc1Y_8GT38bVJpI,http://tracking.artofclick.com/aff_lsr?transaction_id=211mKDq_dc8wd_cFLvCQqz5o5IgXODsjzZ0XyLLQ39bAL4qEnf5pXpDxdjzdFmkIc1Y_8GT38bVJpI&security_token=572dae93b32a79e9ba8c5d6c0c935891,idfa_15af69c2-7c99-4a89-9237-90e05a21abcf,%E1%80%97%E1%80%99%E1%80%AC
M8J3i6R_S-WvWT8MZC2rWw,artofclick,7433_e6ba372add2206c4eabce6ffaaa800b9,Install,0.3,,d2fdd7ff-9d76-4a5b-95f2-9ef2114ed66c,1558023448,2019-05-17 00:17:28,1558023568,2019-05-17 00:19:28,1558023598,211dSjnjnPlWQ6tU--nSZAkfAPh0lwyWgrgCvK91JplmiEXku_x7f6lqMLR7buL0UhrfOiKN3ZPZujTvZtODWQ7xw,http://tracking.artofclick.com/aff_lsr?transaction_id=211dSjnjnPlWQ6tU--nSZAkfAPh0lwyWgrgCvK91JplmiEXku_x7f6lqMLR7buL0UhrfOiKN3ZPZujTvZtODWQ7xw&security_token=572dae93b32a79e9ba8c5d6c0c935891,idfa_d2fdd7ff-9d76-4a5b-95f2-9ef2114ed66c,%E1%80%97%E1%80%99%E1%80%AC
M8J3i6R_S-WvWT8MZC2rWw,artofclick,7433_e6ba372add2206c4eabce6ffaaa800b9,Install,0.3,,5b02ffee-6375-46cb-959c-98d355666862,1558050037,2019-05-17 07:40:37,1558050151,2019-05-17 07:42:31,1558050181,211ulWbvaP46od_P1khtUdxO2RfoCWaDPtGBU_02BJKzLRAkfYSrMl-w3EwYFYumW-LCocw6DXIt9c-kDodfKO0Yw,http://tracking.artofclick.com/aff_lsr?transaction_id=211ulWbvaP46od_P1khtUdxO2RfoCWaDPtGBU_02BJKzLRAkfYSrMl-w3EwYFYumW-LCocw6DXIt9c-kDodfKO0Yw&security_token=572dae93b32a79e9ba8c5d6c0c935891,idfa_5b02ffee-6375-46cb-959c-98d355666862,%E1%80%97%E1%80%99%E1%80%AC
M8J3i6R_S-WvWT8MZC2rWw,artofclick,7433_e6ba372add2206c4eabce6ffaaa800b9,Install,0.3,,9ac153f0-6936-4468-ac82-0601ecd35f0a,1558050662,2019-05-17 07:51:02,1558050756,2019-05-17 07:52:36,1558050787,211Jv0RKHrNOwJumzF8vpRvJuQDr-oeTKFmz_2Gm2-OEx7jy-mQFlGo6OIuOZkMNeky7Q0ED9Pj5rk,http://tracking.artofclick.com/aff_lsr?transaction_id=211Jv0RKHrNOwJumzF8vpRvJuQDr-oeTKFmz_2Gm2-OEx7jy-mQFlGo6OIuOZkMNeky7Q0ED9Pj5rk&security_token=572dae93b32a79e9ba8c5d6c0c935891,idfa_9ac153f0-6936-4468-ac82-0601ecd35f0a,%E1%80%97%E1%80%99%E1%80%AC
M8J3i6R_S-WvWT8MZC2rWw,artofclick,7433_e6ba372add2206c4eabce6ffaaa800b9,Install,0.3,,177003dd-a607-4bba-9ebc-e6f91909c743,1558048639,2019-05-17 07:17:19,1558048736,2019-05-17 07:18:56,1558048767,21140Qn9ck6oEWtGTPp_wleSmzSDsuQ__0hRzmOY_zSSGIhxEtkhR566_8gXYhc_H19oCF-Aretms1FMnQEVWsKnw,http://tracking.artofclick.com/aff_lsr?transaction_id=21140Qn9ck6oEWtGTPp_wleSmzSDsuQ__0hRzmOY_zSSGIhxEtkhR566_8gXYhc_H19oCF-Aretms1FMnQEVWsKnw&security_token=572dae93b32a79e9ba8c5d6c0c935891,idfa_177003dd-a607-4bba-9ebc-e6f91909c743,%E1%80%97%E1%80%99%E1%80%AC
M8J3i6R_S-WvWT8MZC2rWw,artofclick,7433_e6ba372add2206c4eabce6ffaaa800b9,Install,0.3,,c6bbe1cc-2e11-41c4-ac47-01165aa6b748,1558050865,2019-05-17 07:54:25,1558050993,2019-05-17 07:56:33,1558051024,211z3opglGOLnxhvQRUW446_ZhcihybAjBhhPCbcyd8NWNTKTvw_F14Lc_PVFct1-f6INMGxP2QqV0,http://tracking.artofclick.com/aff_lsr?transaction_id=211z3opglGOLnxhvQRUW446_ZhcihybAjBhhPCbcyd8NWNTKTvw_F14Lc_PVFct1-f6INMGxP2QqV0&security_token=572dae93b32a79e9ba8c5d6c0c935891,idfa_c6bbe1cc-2e11-41c4-ac47-01165aa6b748,%E1%80%97%E1%80%99%E1%80%AC
M8J3i6R_S-WvWT8MZC2rWw,artofclick,7433_e6ba372add2206c4eabce6ffaaa800b9,Install,0.3,,370f66c0-90ef-46c2-8f11-e2fc64f23960,1558023094,2019-05-17 00:11:34,1558023184,2019-05-17 00:13:04,1558023215,211GTIhy48vRfGsxfzCESa12dc8x89WSe8Uq4GeD2UUnR6_jb8tf1QBVSEMFcIXBf46YcM9ro-bHYg,http://tracking.artofclick.com/aff_lsr?transaction_id=211GTIhy48vRfGsxfzCESa12dc8x89WSe8Uq4GeD2UUnR6_jb8tf1QBVSEMFcIXBf46YcM9ro-bHYg&security_token=572dae93b32a79e9ba8c5d6c0c935891,idfa_370f66c0-90ef-46c2-8f11-e2fc64f23960,%E1%80%97%E1%80%99%E1%80%AC
