cid,partner_id,channel_id,action_id,cpi,ip,idfa,click time,click datetime,install time,install datetime,postback time,click id,postback url,unique user id
OIpm6yHXQ0y-8siuG-DCeQ,berrymob,2158_22397259,Install,1.7,211.54.74.50,0EE97354-3E15-433D-929D-7435EAC59802,1558455154,2019-05-22 00:12:34,1558455264,2019-05-22 00:14:24,1558455295,20190521161231_866cd4d6aee960b58c74c3c0bb2eb92d9434404_v2,http://postback.berrymobapi.com/postback/?tid=20190521161231_866cd4d6aee960b58c74c3c0bb2eb92d9434404_v2&src=823,idfa_0EE97354-3E15-433D-929D-7435EAC59802,ko-KR
OIpm6yHXQ0y-8siuG-DCeQ,berrymob,2158_22397259,Install,1.7,14.85.88.4,0362763D-0A48-44E0-8586-E8C4FB62C8B9,1558455816,2019-05-22 00:23:36,1558455924,2019-05-22 00:25:24,1558455955,20190521162332_a29b1db5642b3b3c2d49edbff6bae1959479944_v2,http://postback.berrymobapi.com/postback/?tid=20190521162332_a29b1db5642b3b3c2d49edbff6bae1959479944_v2&src=823,idfa_0362763D-0A48-44E0-8586-E8C4FB62C8B9,ko-KR
OIpm6yHXQ0y-8siuG-DCeQ,berrymob,2158_22397259,Install,1.7,175.230.39.122,F977A667-8271-4CF9-A1A6-C57E6040ED0D,1558455514,2019-05-22 00:18:34,1558455636,2019-05-22 00:20:36,1558455668,20190521161829_5a23a08cc7f49ddb5db18570465126fe7775354_v2,http://postback.berrymobapi.com/postback/?tid=20190521161829_5a23a08cc7f49ddb5db18570465126fe7775354_v2&src=823,idfa_F977A667-8271-4CF9-A1A6-C57E6040ED0D,ko-KR
OIpm6yHXQ0y-8siuG-DCeQ,berrymob,2158_22397259,Install,1.7,106.247.228.50,56698B91-DB54-4536-A1E9-CE9AE2BAC520,1558456932,2019-05-22 00:42:12,1558457057,2019-05-22 00:44:17,1558457087,20190521164207_e0a917d245387b702e8a2c8856d32db09420713_v2,http://postback.berrymobapi.com/postback/?tid=20190521164207_e0a917d245387b702e8a2c8856d32db09420713_v2&src=823,idfa_56698B91-DB54-4536-A1E9-CE9AE2BAC520,ko-KR
OIpm6yHXQ0y-8siuG-DCeQ,berrymob,2158_22397259,Install,1.7,121.140.69.73,47AF1742-91A4-4709-ACBF-04443888C5A2,1558455533,2019-05-22 00:18:53,1558455651,2019-05-22 00:20:51,1558455681,20190521161849_180d2b2b81553938e98096c4c39e7bab1585154_v2,http://postback.berrymobapi.com/postback/?tid=20190521161849_180d2b2b81553938e98096c4c39e7bab1585154_v2&src=823,idfa_47AF1742-91A4-4709-ACBF-04443888C5A2,ko-KR
OIpm6yHXQ0y-8siuG-DCeQ,berrymob,2158_22397259,Install,1.7,210.94.80.108,01BDCB91-FF27-447D-96C3-BB025EA025E6,1558456190,2019-05-22 00:29:50,1558456307,2019-05-22 00:31:47,1558456338,20190521162946_019793849925d763fa41a1f983c8a87f1267540_v2,http://postback.berrymobapi.com/postback/?tid=20190521162946_019793849925d763fa41a1f983c8a87f1267540_v2&src=823,idfa_01BDCB91-FF27-447D-96C3-BB025EA025E6,ko-KR
OIpm6yHXQ0y-8siuG-DCeQ,berrymob,2158_22397259,Install,1.7,27.116.255.152,B11719B5-5BF5-4860-BE93-D468E6075168,1558456259,2019-05-22 00:30:59,1558456368,2019-05-22 00:32:48,1558456399,20190521163055_d6c9dde1769b8b248f87e800656b3fbd4570128_v2,http://postback.berrymobapi.com/postback/?tid=20190521163055_d6c9dde1769b8b248f87e800656b3fbd4570128_v2&src=823,idfa_B11719B5-5BF5-4860-BE93-D468E6075168,ko-KR
OIpm6yHXQ0y-8siuG-DCeQ,berrymob,2158_22397259,Install,1.7,220.76.138.57,DE6F000B-C9C9-4DA7-807E-F82024A78D6E,1558457266,2019-05-22 00:47:46,1558457388,2019-05-22 00:49:48,1558457419,20190521164742_4936f96e7bfecffdb868104b1aea769e3677924_v2,http://postback.berrymobapi.com/postback/?tid=20190521164742_4936f96e7bfecffdb868104b1aea769e3677924_v2&src=823,idfa_DE6F000B-C9C9-4DA7-807E-F82024A78D6E,ko-KR
OIpm6yHXQ0y-8siuG-DCeQ,berrymob,2158_22397259,Install,1.7,61.81.115.75,C3F0877A-EB81-4F13-B27B-A21851EB5954,1558455904,2019-05-22 00:25:04,1558456014,2019-05-22 00:26:54,1558456045,20190521162500_04d0419c94184c3d5f80ea6c9e3387182927998_v2,http://postback.berrymobapi.com/postback/?tid=20190521162500_04d0419c94184c3d5f80ea6c9e3387182927998_v2&src=823,idfa_C3F0877A-EB81-4F13-B27B-A21851EB5954,ko-KR
OIpm6yHXQ0y-8siuG-DCeQ,berrymob,2158_22397259,Install,1.7,112.170.215.31,5BB2E363-2047-403F-821C-8AFE68D23FE2,1558457180,2019-05-22 00:46:20,1558457311,2019-05-22 00:48:31,1558457342,20190521164615_073cc4bd5604b731345096b859fa732c4983829_v2,http://postback.berrymobapi.com/postback/?tid=20190521164615_073cc4bd5604b731345096b859fa732c4983829_v2&src=823,idfa_5BB2E363-2047-403F-821C-8AFE68D23FE2,ko-KR
OIpm6yHXQ0y-8siuG-DCeQ,berrymob,2158_22397259,Install,1.7,210.223.250.3,CB06C587-BB83-4F8C-A3EC-7037E7737F4F,1558455914,2019-05-22 00:25:14,1558456021,2019-05-22 00:27:01,1558456053,20190521162509_db0b7da3de85743e88452828ac5888fa4868322_v2,http://postback.berrymobapi.com/postback/?tid=20190521162509_db0b7da3de85743e88452828ac5888fa4868322_v2&src=823,idfa_CB06C587-BB83-4F8C-A3EC-7037E7737F4F,ko-KR
OIpm6yHXQ0y-8siuG-DCeQ,berrymob,2158_22397259,Install,1.7,112.175.232.147,7F22B85F-8BDD-4165-ACEF-91836AD796EF,1558457011,2019-05-22 00:43:31,1558457154,2019-05-22 00:45:54,1558457184,20190521164327_da4545a222cd742aeb1834b9d53d9c8b8994318_v2,http://postback.berrymobapi.com/postback/?tid=20190521164327_da4545a222cd742aeb1834b9d53d9c8b8994318_v2&src=823,idfa_7F22B85F-8BDD-4165-ACEF-91836AD796EF,ko-KR
OIpm6yHXQ0y-8siuG-DCeQ,berrymob,2158_22397259,Install,1.7,211.228.181.37,460625BB-418F-45BD-A8D5-BD9A2804FA0D,1558455157,2019-05-22 00:12:37,1558455265,2019-05-22 00:14:25,1558455296,20190521161232_05eb44976d791a28ada771508d91789d6703983_v2,http://postback.berrymobapi.com/postback/?tid=20190521161232_05eb44976d791a28ada771508d91789d6703983_v2&src=823,idfa_460625BB-418F-45BD-A8D5-BD9A2804FA0D,ko-KR
OIpm6yHXQ0y-8siuG-DCeQ,berrymob,2158_22397259,Install,1.7,106.255.253.178,26456134-6EEB-4F34-8D8F-DD6E82C6B27C,1558455501,2019-05-22 00:18:21,1558455614,2019-05-22 00:20:14,1558455645,20190521161817_2e7fb7db7441e15f8a7a365eede70b101808922_v2,http://postback.berrymobapi.com/postback/?tid=20190521161817_2e7fb7db7441e15f8a7a365eede70b101808922_v2&src=823,idfa_26456134-6EEB-4F34-8D8F-DD6E82C6B27C,ko-KR
OIpm6yHXQ0y-8siuG-DCeQ,berrymob,2158_22397259,Install,1.7,222.121.170.21,EB645A32-A4F3-4528-AB63-B09A51931E41,1558455523,2019-05-22 00:18:43,1558455660,2019-05-22 00:21:00,1558455691,20190521161839_1636bb6530db4264fde3f5c1a95577958896038_v2,http://postback.berrymobapi.com/postback/?tid=20190521161839_1636bb6530db4264fde3f5c1a95577958896038_v2&src=823,idfa_EB645A32-A4F3-4528-AB63-B09A51931E41,ko-KR
OIpm6yHXQ0y-8siuG-DCeQ,berrymob,2158_22397259,Install,1.7,61.109.13.40,B51D153D-6014-480D-A9D3-F1091B301DD0,1558456835,2019-05-22 00:40:35,1558456968,2019-05-22 00:42:48,1558456998,20190521164031_be359938c3a877ac58a4616d56e218985795434_v2,http://postback.berrymobapi.com/postback/?tid=20190521164031_be359938c3a877ac58a4616d56e218985795434_v2&src=823,idfa_B51D153D-6014-480D-A9D3-F1091B301DD0,ko-KR
OIpm6yHXQ0y-8siuG-DCeQ,berrymob,2158_22397259,Install,1.7,114.30.203.253,A7C540B3-57A7-4168-843B-D705A13FB6D0,1558455169,2019-05-22 00:12:49,1558455298,2019-05-22 00:14:58,1558455328,20190521161244_66cafadc7eda875ae2722f572fae43557994946_v2,http://postback.berrymobapi.com/postback/?tid=20190521161244_66cafadc7eda875ae2722f572fae43557994946_v2&src=823,idfa_A7C540B3-57A7-4168-843B-D705A13FB6D0,ko-KR
OIpm6yHXQ0y-8siuG-DCeQ,berrymob,2158_22397259,Install,1.7,220.76.251.168,D0DB3D73-99E1-4A56-B047-98645824566F,1558455903,2019-05-22 00:25:03,1558456013,2019-05-22 00:26:53,1558456043,20190521162458_77eeb53c347809b9f5ec3d6e45eb95943892528_v2,http://postback.berrymobapi.com/postback/?tid=20190521162458_77eeb53c347809b9f5ec3d6e45eb95943892528_v2&src=823,idfa_D0DB3D73-99E1-4A56-B047-98645824566F,ko-KR
OIpm6yHXQ0y-8siuG-DCeQ,berrymob,2158_22397259,Install,1.7,221.147.124.220,A0B67BB6-FB20-4708-A0CA-C7A9BA8B9E8B,1558455496,2019-05-22 00:18:16,1558455615,2019-05-22 00:20:15,1558455650,20190521161811_c0a438737784deeeaf9e899124c048812663906_v2,http://postback.berrymobapi.com/postback/?tid=20190521161811_c0a438737784deeeaf9e899124c048812663906_v2&src=823,idfa_A0B67BB6-FB20-4708-A0CA-C7A9BA8B9E8B,ko-KR
OIpm6yHXQ0y-8siuG-DCeQ,berrymob,2158_22397259,Install,1.7,14.72.119.3,7E0D8C7D-BC79-4420-8722-F51001FFEC91,1558456521,2019-05-22 00:35:21,1558456650,2019-05-22 00:37:30,1558456680,20190521163517_b25fa3bf219f8149dd6d585d65a073802676541_v2,http://postback.berrymobapi.com/postback/?tid=20190521163517_b25fa3bf219f8149dd6d585d65a073802676541_v2&src=823,idfa_7E0D8C7D-BC79-4420-8722-F51001FFEC91,ko-KR
OIpm6yHXQ0y-8siuG-DCeQ,berrymob,2158_22397259,Install,1.7,211.49.81.10,6AA9AB36-0E12-41CB-B9CE-C4D174C3E6FD,1558456288,2019-05-22 00:31:28,1558456403,2019-05-22 00:33:23,1558456434,20190521163120_149f620b5bcada5c66b6c903b45567a63594792_v2,http://postback.berrymobapi.com/postback/?tid=20190521163120_149f620b5bcada5c66b6c903b45567a63594792_v2&src=823,idfa_6AA9AB36-0E12-41CB-B9CE-C4D174C3E6FD,ko-KR
OIpm6yHXQ0y-8siuG-DCeQ,berrymob,2158_22397259,Install,1.7,221.138.38.85,1842583C-D642-4BB9-83BA-5274FEFD48A9,1558456504,2019-05-22 00:35:04,1558456623,2019-05-22 00:37:03,1558456654,20190521163459_9405bb2f04a8c67ce07c4abd98d7a0393173114_v2,http://postback.berrymobapi.com/postback/?tid=20190521163459_9405bb2f04a8c67ce07c4abd98d7a0393173114_v2&src=823,idfa_1842583C-D642-4BB9-83BA-5274FEFD48A9,ko-KR
OIpm6yHXQ0y-8siuG-DCeQ,berrymob,2158_22397259,Install,1.7,106.255.253.178,10D9911E-C5F3-42F6-AE0D-3F27D79DC368,1558456440,2019-05-22 00:34:00,1558456574,2019-05-22 00:36:14,1558456606,20190521163356_a88f6479780f523ae4b5aa56cf1a9d8b1866639_v2,http://postback.berrymobapi.com/postback/?tid=20190521163356_a88f6479780f523ae4b5aa56cf1a9d8b1866639_v2&src=823,idfa_10D9911E-C5F3-42F6-AE0D-3F27D79DC368,ko-KR
OIpm6yHXQ0y-8siuG-DCeQ,berrymob,2158_22397259,Install,1.7,218.151.86.112,0E38F882-B09C-4420-AFE0-087CD7357B50,1558456802,2019-05-22 00:40:02,1558456926,2019-05-22 00:42:06,1558456957,20190521163958_7123e49a77326ee2a260e05c17a3e5774859373_v2,http://postback.berrymobapi.com/postback/?tid=20190521163958_7123e49a77326ee2a260e05c17a3e5774859373_v2&src=823,idfa_0E38F882-B09C-4420-AFE0-087CD7357B50,ko-KR
OIpm6yHXQ0y-8siuG-DCeQ,berrymob,2158_22397259,Install,1.7,218.38.136.99,A2DBC81B-B4D0-4417-BC9D-2356C930EFA1,1558455958,2019-05-22 00:25:58,1558456066,2019-05-22 00:27:46,1558456096,20190521162554_454a343c06efc6c99a0d2f4717d5eac74326445_v2,http://postback.berrymobapi.com/postback/?tid=20190521162554_454a343c06efc6c99a0d2f4717d5eac74326445_v2&src=823,idfa_A2DBC81B-B4D0-4417-BC9D-2356C930EFA1,ko-KR
OIpm6yHXQ0y-8siuG-DCeQ,berrymob,2158_22397259,Install,1.7,112.162.62.41,7B546ECB-AFF1-421D-B7EA-948A5236B769,1558455160,2019-05-22 00:12:40,1558455279,2019-05-22 00:14:39,1558455310,20190521161235_b30bf199b27842cf501734ef29a1f1586482787_v2,http://postback.berrymobapi.com/postback/?tid=20190521161235_b30bf199b27842cf501734ef29a1f1586482787_v2&src=823,idfa_7B546ECB-AFF1-421D-B7EA-948A5236B769,ko-KR
OIpm6yHXQ0y-8siuG-DCeQ,berrymob,2158_22397259,Install,1.7,183.123.140.105,5A409812-167F-4623-83FF-90D7F3CD113A,1558455501,2019-05-22 00:18:21,1558455604,2019-05-22 00:20:04,1558455635,20190521161816_4658561ffe470a219c50f6f98f1af6845511686_v2,http://postback.berrymobapi.com/postback/?tid=20190521161816_4658561ffe470a219c50f6f98f1af6845511686_v2&src=823,idfa_5A409812-167F-4623-83FF-90D7F3CD113A,ko-KR
OIpm6yHXQ0y-8siuG-DCeQ,berrymob,2158_22397259,Install,1.7,183.112.115.66,C9348271-DA8F-41F2-A5CE-C64A1B86A87C,1558455153,2019-05-22 00:12:33,1558455267,2019-05-22 00:14:27,1558455298,20190521161229_600d8660c2ad1cb17f0a376381f3d6bb3114658_v2,http://postback.berrymobapi.com/postback/?tid=20190521161229_600d8660c2ad1cb17f0a376381f3d6bb3114658_v2&src=823,idfa_C9348271-DA8F-41F2-A5CE-C64A1B86A87C,ko-KR
OIpm6yHXQ0y-8siuG-DCeQ,berrymob,2158_22397259,Install,1.7,211.46.223.240,B539D516-8ED0-446A-868A-D6BB4E782952,1558457218,2019-05-22 00:46:58,1558457344,2019-05-22 00:49:04,1558457375,20190521164654_51eec49876b6b4bf6d6d99a019cb78238276365_v2,http://postback.berrymobapi.com/postback/?tid=20190521164654_51eec49876b6b4bf6d6d99a019cb78238276365_v2&src=823,idfa_B539D516-8ED0-446A-868A-D6BB4E782952,ko-KR
OIpm6yHXQ0y-8siuG-DCeQ,berrymob,2158_22397259,Install,1.7,218.146.86.246,0C0122D3-E540-4360-8FE4-2F6570615FA7,1558457333,2019-05-22 00:48:53,1558457444,2019-05-22 00:50:44,1558457475,20190521164849_db72b30f78197c3f5bac9b065094603a4554022_v2,http://postback.berrymobapi.com/postback/?tid=20190521164849_db72b30f78197c3f5bac9b065094603a4554022_v2&src=823,idfa_0C0122D3-E540-4360-8FE4-2F6570615FA7,ko-KR
OIpm6yHXQ0y-8siuG-DCeQ,berrymob,2158_22397259,Install,1.7,218.146.86.246,5F038362-150B-4812-A7C5-C05BEA32686C,1558456275,2019-05-22 00:31:15,1558456384,2019-05-22 00:33:04,1558456414,20190521163110_5f3d94d4f9519284198699ac833f0be75383746_v2,http://postback.berrymobapi.com/postback/?tid=20190521163110_5f3d94d4f9519284198699ac833f0be75383746_v2&src=823,idfa_5F038362-150B-4812-A7C5-C05BEA32686C,ko-KR
OIpm6yHXQ0y-8siuG-DCeQ,berrymob,2158_22397259,Install,1.7,112.179.141.189,ECFEE2B2-E61F-4A8D-81A7-2853F56F1E13,1558457219,2019-05-22 00:46:59,1558457347,2019-05-22 00:49:07,1558457378,20190521164654_47b7e332428d6cc721134ca8a2085fd04958024_v2,http://postback.berrymobapi.com/postback/?tid=20190521164654_47b7e332428d6cc721134ca8a2085fd04958024_v2&src=823,idfa_ECFEE2B2-E61F-4A8D-81A7-2853F56F1E13,ko-KR
OIpm6yHXQ0y-8siuG-DCeQ,berrymob,2158_22397259,Install,1.7,183.112.115.66,E09635B6-C464-47DE-8EC5-9327CF28F1CF,1558456653,2019-05-22 00:37:33,1558456783,2019-05-22 00:39:43,1558456814,20190521163729_4b8df78df076b7598bfe5607495206ee3812825_v2,http://postback.berrymobapi.com/postback/?tid=20190521163729_4b8df78df076b7598bfe5607495206ee3812825_v2&src=823,idfa_E09635B6-C464-47DE-8EC5-9327CF28F1CF,ko-KR
OIpm6yHXQ0y-8siuG-DCeQ,berrymob,2158_22397259,Install,1.7,222.108.143.193,36532F00-B173-42D2-B6F2-BD001FB3A140,1558456133,2019-05-22 00:28:53,1558456264,2019-05-22 00:31:04,1558456295,20190521162848_1c21176ea6f62b9a8cfb4332998d32b22082481_v2,http://postback.berrymobapi.com/postback/?tid=20190521162848_1c21176ea6f62b9a8cfb4332998d32b22082481_v2&src=823,idfa_36532F00-B173-42D2-B6F2-BD001FB3A140,ko-KR
OIpm6yHXQ0y-8siuG-DCeQ,berrymob,2158_22397259,Install,1.7,106.255.253.178,939C81F2-02AD-4FC8-9335-FA64CF9DF68C,1558456867,2019-05-22 00:41:07,1558457001,2019-05-22 00:43:21,1558457032,20190521164103_c920eca6191e889a167908cf5e01f03a6305903_v2,http://postback.berrymobapi.com/postback/?tid=20190521164103_c920eca6191e889a167908cf5e01f03a6305903_v2&src=823,idfa_939C81F2-02AD-4FC8-9335-FA64CF9DF68C,ko-KR
OIpm6yHXQ0y-8siuG-DCeQ,berrymob,2158_22397259,Install,1.7,1.234.5.210,F97C5AD4-431A-462F-8C85-2716496FFFC4,1558456526,2019-05-22 00:35:26,1558456653,2019-05-22 00:37:33,1558456683,20190521163522_9f46bca3b21a7ac8b4a5c3a9cedf9c771020742_v2,http://postback.berrymobapi.com/postback/?tid=20190521163522_9f46bca3b21a7ac8b4a5c3a9cedf9c771020742_v2&src=823,idfa_F97C5AD4-431A-462F-8C85-2716496FFFC4,ko-KR
OIpm6yHXQ0y-8siuG-DCeQ,berrymob,2158_22397259,Install,1.7,27.116.255.152,98D5917B-7377-4EF2-BDFC-835D543A1281,1558455159,2019-05-22 00:12:39,1558455292,2019-05-22 00:14:52,1558455323,20190521161235_0f7491e7531f301d4d99990408fa8e156133302_v2,http://postback.berrymobapi.com/postback/?tid=20190521161235_0f7491e7531f301d4d99990408fa8e156133302_v2&src=823,idfa_98D5917B-7377-4EF2-BDFC-835D543A1281,ko-KR
OIpm6yHXQ0y-8siuG-DCeQ,berrymob,2158_22397259,Install,1.7,220.76.203.140,20D2CC88-52E6-487E-82B7-2A2D938BD01F,1558457041,2019-05-22 00:44:01,1558457158,2019-05-22 00:45:58,1558457189,20190521164356_3cea72e41620ffd3fd4e6c2664e418183123125_v2,http://postback.berrymobapi.com/postback/?tid=20190521164356_3cea72e41620ffd3fd4e6c2664e418183123125_v2&src=823,idfa_20D2CC88-52E6-487E-82B7-2A2D938BD01F,ko-KR
OIpm6yHXQ0y-8siuG-DCeQ,berrymob,2158_22397259,Install,1.7,106.255.253.178,9B7BA2F3-ED5C-4765-9A3B-9CD5E181879C,1558456169,2019-05-22 00:29:29,1558456301,2019-05-22 00:31:41,1558456332,20190521162925_b6ec5a62c60365a6d35a19b8ed80e8f22270950_v2,http://postback.berrymobapi.com/postback/?tid=20190521162925_b6ec5a62c60365a6d35a19b8ed80e8f22270950_v2&src=823,idfa_9B7BA2F3-ED5C-4765-9A3B-9CD5E181879C,ko-KR
OIpm6yHXQ0y-8siuG-DCeQ,berrymob,2158_22397259,Install,1.7,218.52.193.208,B60AA3A7-3F5C-4FDB-9F29-FBBC2E9D73F4,1558456286,2019-05-22 00:31:26,1558456399,2019-05-22 00:33:19,1558456431,20190521163122_b18a944a568b815972275feb4e649ff84463936_v2,http://postback.berrymobapi.com/postback/?tid=20190521163122_b18a944a568b815972275feb4e649ff84463936_v2&src=823,idfa_B60AA3A7-3F5C-4FDB-9F29-FBBC2E9D73F4,ko-KR
OIpm6yHXQ0y-8siuG-DCeQ,berrymob,2158_22397259,Install,1.7,125.143.229.253,73C3E842-F7A3-4F54-83DB-2F33E20A36C8,1558455155,2019-05-22 00:12:35,1558455290,2019-05-22 00:14:50,1558455321,20190521161230_2a17da472736e9f68624e78dd772de978332961_v2,http://postback.berrymobapi.com/postback/?tid=20190521161230_2a17da472736e9f68624e78dd772de978332961_v2&src=823,idfa_73C3E842-F7A3-4F54-83DB-2F33E20A36C8,ko-KR
OIpm6yHXQ0y-8siuG-DCeQ,berrymob,2158_22397259,Install,1.7,1.209.187.2,8C0F0E2C-07FD-43F6-9BC2-D1C574E64F2D,1558456438,2019-05-22 00:33:58,1558456550,2019-05-22 00:35:50,1558456581,20190521163354_05b70c5e7f5ed576390c18ca02a064922141157_v2,http://postback.berrymobapi.com/postback/?tid=20190521163354_05b70c5e7f5ed576390c18ca02a064922141157_v2&src=823,idfa_8C0F0E2C-07FD-43F6-9BC2-D1C574E64F2D,ko-KR
OIpm6yHXQ0y-8siuG-DCeQ,berrymob,2158_22397259,Install,1.7,183.123.129.74,B2093A8E-6CDB-4921-B320-21C01183102B,1558456201,2019-05-22 00:30:01,1558456316,2019-05-22 00:31:56,1558456347,20190521162957_65e12027533adaabf185708f21dd70799373841_v2,http://postback.berrymobapi.com/postback/?tid=20190521162957_65e12027533adaabf185708f21dd70799373841_v2&src=823,idfa_B2093A8E-6CDB-4921-B320-21C01183102B,ko-KR
OIpm6yHXQ0y-8siuG-DCeQ,berrymob,2158_22397259,Install,1.7,27.116.125.146,3E5D04B3-BB0D-4956-9DFC-17D5B298F4F0,1558455959,2019-05-22 00:25:59,1558456082,2019-05-22 00:28:02,1558456113,20190521162553_f2fb266a82e2a30de2764e39829efdb27606365_v2,http://postback.berrymobapi.com/postback/?tid=20190521162553_f2fb266a82e2a30de2764e39829efdb27606365_v2&src=823,idfa_3E5D04B3-BB0D-4956-9DFC-17D5B298F4F0,ko-KR
OIpm6yHXQ0y-8siuG-DCeQ,berrymob,2158_22397259,Install,1.7,211.232.105.19,5B2EE1F7-765E-4AB7-9E9C-CD3E8395A57B,1558455562,2019-05-22 00:19:22,1558455708,2019-05-22 00:21:48,1558455739,20190521161911_f30545f6079f1cbdba229f3fd6f1ab1c1350240_v2,http://postback.berrymobapi.com/postback/?tid=20190521161911_f30545f6079f1cbdba229f3fd6f1ab1c1350240_v2&src=823,idfa_5B2EE1F7-765E-4AB7-9E9C-CD3E8395A57B,ko-KR
OIpm6yHXQ0y-8siuG-DCeQ,berrymob,2158_22397259,Install,1.7,183.123.129.74,8BE08DE1-23F8-40BE-A2D4-1DFEC8478F5E,1558456513,2019-05-22 00:35:13,1558456621,2019-05-22 00:37:01,1558456651,20190521163509_30a961005d5ffd8286b50f7ac8f04ec76295817_v2,http://postback.berrymobapi.com/postback/?tid=20190521163509_30a961005d5ffd8286b50f7ac8f04ec76295817_v2&src=823,idfa_8BE08DE1-23F8-40BE-A2D4-1DFEC8478F5E,ko-KR
OIpm6yHXQ0y-8siuG-DCeQ,berrymob,2158_22397259,Install,1.7,112.222.184.51,EB667D4A-2A8F-49C5-8C7D-98E47B2D7D60,1558455845,2019-05-22 00:24:05,1558455968,2019-05-22 00:26:08,1558456000,20190521162401_91779559765e71047543841a7f5da6d32260630_v2,http://postback.berrymobapi.com/postback/?tid=20190521162401_91779559765e71047543841a7f5da6d32260630_v2&src=823,idfa_EB667D4A-2A8F-49C5-8C7D-98E47B2D7D60,ko-KR
OIpm6yHXQ0y-8siuG-DCeQ,berrymob,2158_22397259,Install,1.7,39.114.151.82,AC3B70FD-2459-4D10-8DE1-EF47C6E5A938,1558455153,2019-05-22 00:12:33,1558455260,2019-05-22 00:14:20,1558455291,20190521161227_aca5eac12f1ea16d9a30fdb6d6a6e7b52005504_v2,http://postback.berrymobapi.com/postback/?tid=20190521161227_aca5eac12f1ea16d9a30fdb6d6a6e7b52005504_v2&src=823,idfa_AC3B70FD-2459-4D10-8DE1-EF47C6E5A938,ko-KR
OIpm6yHXQ0y-8siuG-DCeQ,berrymob,2158_22397259,Install,1.7,211.47.68.238,EE93DD55-C0C4-49D0-9512-6BDE0DB35B61,1558455528,2019-05-22 00:18:48,1558455637,2019-05-22 00:20:37,1558455668,20190521161844_db9b7e128bb757ce2881dc751f4e59111051858_v2,http://postback.berrymobapi.com/postback/?tid=20190521161844_db9b7e128bb757ce2881dc751f4e59111051858_v2&src=823,idfa_EE93DD55-C0C4-49D0-9512-6BDE0DB35B61,ko-KR
OIpm6yHXQ0y-8siuG-DCeQ,berrymob,2158_22397259,Install,1.7,211.171.103.130,7083A33E-B8CF-4820-80F1-E9A3C8791730,1558456990,2019-05-22 00:43:10,1558457127,2019-05-22 00:45:27,1558457157,20190521164305_b117175ed675c2fcbe11b91be5d155bf2948835_v2,http://postback.berrymobapi.com/postback/?tid=20190521164305_b117175ed675c2fcbe11b91be5d155bf2948835_v2&src=823,idfa_7083A33E-B8CF-4820-80F1-E9A3C8791730,ko-KR
OIpm6yHXQ0y-8siuG-DCeQ,berrymob,2158_22397259,Install,1.7,222.119.162.251,8C7BFBC8-0B7A-470F-A39C-F07953F04202,1558455849,2019-05-22 00:24:09,1558455955,2019-05-22 00:25:55,1558455985,20190521162354_9b10ef536487ca41f2d4ca8db8b6b75f4939435_v2,http://postback.berrymobapi.com/postback/?tid=20190521162354_9b10ef536487ca41f2d4ca8db8b6b75f4939435_v2&src=823,idfa_8C7BFBC8-0B7A-470F-A39C-F07953F04202,ko-KR
OIpm6yHXQ0y-8siuG-DCeQ,berrymob,2158_22397259,Install,1.7,119.66.102.7,A4DDBF73-0D48-4E18-912D-BB0F04E91419,1558457025,2019-05-22 00:43:45,1558457164,2019-05-22 00:46:04,1558457195,20190521164341_64ff84343334bbaf965376feef09ecfc3850099_v2,http://postback.berrymobapi.com/postback/?tid=20190521164341_64ff84343334bbaf965376feef09ecfc3850099_v2&src=823,idfa_A4DDBF73-0D48-4E18-912D-BB0F04E91419,ko-KR
OIpm6yHXQ0y-8siuG-DCeQ,berrymob,2158_22397259,Install,1.7,118.42.115.142,B72B4973-6725-4EA1-BE91-57DF6EA15192,1558456861,2019-05-22 00:41:01,1558456969,2019-05-22 00:42:49,1558457000,20190521164056_0c41e856f663e4fde466201bf32914898336947_v2,http://postback.berrymobapi.com/postback/?tid=20190521164056_0c41e856f663e4fde466201bf32914898336947_v2&src=823,idfa_B72B4973-6725-4EA1-BE91-57DF6EA15192,ko-KR
OIpm6yHXQ0y-8siuG-DCeQ,berrymob,2158_22397259,Install,1.7,121.135.142.250,8092A1F6-A3E5-4CD5-A3AB-0F81F633A011,1558457185,2019-05-22 00:46:25,1558457321,2019-05-22 00:48:41,1558457351,20190521164621_9fe623d19f282bfc130659e163c9c8364027282_v2,http://postback.berrymobapi.com/postback/?tid=20190521164621_9fe623d19f282bfc130659e163c9c8364027282_v2&src=823,idfa_8092A1F6-A3E5-4CD5-A3AB-0F81F633A011,ko-KR
OIpm6yHXQ0y-8siuG-DCeQ,berrymob,2158_22397259,Install,1.7,121.183.126.103,F8F1B3BB-C2DC-4C07-9C0B-FD7032FA6C5D,1558455525,2019-05-22 00:18:45,1558455650,2019-05-22 00:20:50,1558455680,20190521161840_dbd9deedb993f52b1f547d37a200d2626782470_v2,http://postback.berrymobapi.com/postback/?tid=20190521161840_dbd9deedb993f52b1f547d37a200d2626782470_v2&src=823,idfa_F8F1B3BB-C2DC-4C07-9C0B-FD7032FA6C5D,ko-KR
OIpm6yHXQ0y-8siuG-DCeQ,berrymob,2158_22397259,Install,1.7,222.108.143.193,24B49FF3-624D-442E-8219-518E94F41E59,1558456000,2019-05-22 00:26:40,1558456129,2019-05-22 00:28:49,1558456160,20190521162635_0ac03077b7c3f8564f0d66a0eaabea4c9476273_v2,http://postback.berrymobapi.com/postback/?tid=20190521162635_0ac03077b7c3f8564f0d66a0eaabea4c9476273_v2&src=823,idfa_24B49FF3-624D-442E-8219-518E94F41E59,ko-KR
OIpm6yHXQ0y-8siuG-DCeQ,berrymob,2158_22397259,Install,1.7,112.220.22.106,8E716ED0-B2E4-40D6-BF58-DF00CCEE64FC,1558455607,2019-05-22 00:20:07,1558455720,2019-05-22 00:22:00,1558455750,20190521162002_57eb288390cda3931fc185ba5faee2478304750_v2,http://postback.berrymobapi.com/postback/?tid=20190521162002_57eb288390cda3931fc185ba5faee2478304750_v2&src=823,idfa_8E716ED0-B2E4-40D6-BF58-DF00CCEE64FC,ko-KR
OIpm6yHXQ0y-8siuG-DCeQ,berrymob,2158_22397259,Install,1.7,116.120.58.199,C6AF7F3F-F8BB-4E47-8C9C-F2CE09219AEE,1558455281,2019-05-22 00:14:41,1558455396,2019-05-22 00:16:36,1558455426,20190521161436_2de555efe285833eb1ee0ce4d8b1cd5d8213879_v2,http://postback.berrymobapi.com/postback/?tid=20190521161436_2de555efe285833eb1ee0ce4d8b1cd5d8213879_v2&src=823,idfa_C6AF7F3F-F8BB-4E47-8C9C-F2CE09219AEE,ko-KR
OIpm6yHXQ0y-8siuG-DCeQ,berrymob,2158_22397259,Install,1.7,112.220.22.162,CC2AC57D-0E46-4FFC-8F33-FF9FA580D611,1558456619,2019-05-22 00:36:59,1558456762,2019-05-22 00:39:22,1558456793,20190521163655_29e0af31495d3cb43c428dd06003561c5460353_v2,http://postback.berrymobapi.com/postback/?tid=20190521163655_29e0af31495d3cb43c428dd06003561c5460353_v2&src=823,idfa_CC2AC57D-0E46-4FFC-8F33-FF9FA580D611,ko-KR
OIpm6yHXQ0y-8siuG-DCeQ,berrymob,2158_22397259,Install,1.7,175.211.47.251,7CDE42D1-1056-43E7-900F-EB8E5A987A8F,1558455156,2019-05-22 00:12:36,1558455276,2019-05-22 00:14:36,1558455307,20190521161232_66c2f2395bd2b2d25cae8ec53ff89a448402353_v2,http://postback.berrymobapi.com/postback/?tid=20190521161232_66c2f2395bd2b2d25cae8ec53ff89a448402353_v2&src=823,idfa_7CDE42D1-1056-43E7-900F-EB8E5A987A8F,ko-KR
