cid,partner_id,channel_id,action_id,cpi,ip,idfa,click time,click datetime,install time,install datetime,postback time,click id,postback url,unique user id
BQniLimbQEOA3MjhDDOpCA,berrymob,2130_22215818,Install,1.0,49.98.150.198,BB6998B4-9515-7C76-BF4E-2B56240F5430,1557447777,2019-05-10 08:22:57,1557456927,2019-05-10 10:55:27,1557456927,20190510002256_d557612209c605f76ade2f00d4ca652b4858977_v2,http://postback.berrymobapi.com/postback/?tid=20190510002256_d557612209c605f76ade2f00d4ca652b4858977_v2&src=823,idfa_BB6998B4-9515-7C76-BF4E-2B56240F5430,ja
BQniLimbQEOA3MjhDDOpCA,berrymob,2130_22215818,Install,1.0,106.133.90.193,5B168228-2E09-4507-902C-67D429630264,1557535610,2019-05-11 08:46:50,1557543772,2019-05-11 11:02:52,1557543772,20190511004650_8d5a0c404ae9d1b6bcdfccdce15818da6687457_v2,http://postback.berrymobapi.com/postback/?tid=20190511004650_8d5a0c404ae9d1b6bcdfccdce15818da6687457_v2&src=823,idfa_5B168228-2E09-4507-902C-67D429630264,ja
BQniLimbQEOA3MjhDDOpCA,berrymob,2130_22215818,Install,1.0,126.233.110.217,EA185B78-8631-4E81-828A-171E461FC1ED,1557449824,2019-05-10 08:57:04,1557471969,2019-05-10 15:06:09,1557471969,20190510005703_50268c038dd0bc7244ee504ea42e6dfe6681938_v2,http://postback.berrymobapi.com/postback/?tid=20190510005703_50268c038dd0bc7244ee504ea42e6dfe6681938_v2&src=823,idfa_EA185B78-8631-4E81-828A-171E461FC1ED,ja
BQniLimbQEOA3MjhDDOpCA,berrymob,2130_22215818,Install,1.0,126.182.65.250,D8737B9C-86F2-4452-9356-22A6A5C5AE9D,1557448601,2019-05-10 08:36:41,1557555323,2019-05-11 14:15:23,1557555323,20190510003641_e03e3374b9cfc9e33a7c694b13c4b1b15641245_v2,http://postback.berrymobapi.com/postback/?tid=20190510003641_e03e3374b9cfc9e33a7c694b13c4b1b15641245_v2&src=823,idfa_D8737B9C-86F2-4452-9356-22A6A5C5AE9D,ja
BQniLimbQEOA3MjhDDOpCA,berrymob,2130_22215818,Install,1.0,49.98.143.240,E6C0C550-0E86-4FD3-B444-949A4D18623D,1557446994,2019-05-10 08:09:54,1557452900,2019-05-10 09:48:20,1557452900,20190510000954_90d2173bebec2b2c19b70d5154142f334146614_v2,http://postback.berrymobapi.com/postback/?tid=20190510000954_90d2173bebec2b2c19b70d5154142f334146614_v2&src=823,idfa_E6C0C550-0E86-4FD3-B444-949A4D18623D,ja
BQniLimbQEOA3MjhDDOpCA,berrymob,2130_22215818,Install,1.0,124.146.103.130,BBB42821-5DC9-41A3-ACE9-C61B20267F9C,1557447451,2019-05-10 08:17:31,1557485559,2019-05-10 18:52:39,1557485559,20190510001731_17a69dfcda7286f5ea77ffc1bc605fd45081388_v2,http://postback.berrymobapi.com/postback/?tid=20190510001731_17a69dfcda7286f5ea77ffc1bc605fd45081388_v2&src=823,idfa_BBB42821-5DC9-41A3-ACE9-C61B20267F9C,ja
BQniLimbQEOA3MjhDDOpCA,berrymob,2130_22215818,Install,1.0,182.251.40.210,4874205E-CCBA-47A1-96B9-16E540B33847,1557449156,2019-05-10 08:45:56,1557455274,2019-05-10 10:27:54,1557455274,20190510004555_13b89423dcec6d9a168bbfdabd6c60db8622556_v2,http://postback.berrymobapi.com/postback/?tid=20190510004555_13b89423dcec6d9a168bbfdabd6c60db8622556_v2&src=823,idfa_4874205E-CCBA-47A1-96B9-16E540B33847,ja
BQniLimbQEOA3MjhDDOpCA,berrymob,2130_22215818,Install,1.0,106.129.201.162,EFBEDC1D-29C0-4C81-9B88-A5BCBD0C16AE,1557451961,2019-05-10 09:32:41,1557519330,2019-05-11 04:15:30,1557519330,20190510013241_0818d4ddfe5ef2f0f15a5dfd9a96716f1836136_v2,http://postback.berrymobapi.com/postback/?tid=20190510013241_0818d4ddfe5ef2f0f15a5dfd9a96716f1836136_v2&src=823,idfa_EFBEDC1D-29C0-4C81-9B88-A5BCBD0C16AE,ja
BQniLimbQEOA3MjhDDOpCA,berrymob,2130_22215818,Install,1.0,106.180.26.9,C98E6FEF-E45B-45B3-9ACE-DEAA12583BAF,1557448277,2019-05-10 08:31:17,1557454311,2019-05-10 10:11:51,1557454311,20190510003117_269cf33a35df364a70da8fddac02785d6577470_v2,http://postback.berrymobapi.com/postback/?tid=20190510003117_269cf33a35df364a70da8fddac02785d6577470_v2&src=823,idfa_C98E6FEF-E45B-45B3-9ACE-DEAA12583BAF,ja
BQniLimbQEOA3MjhDDOpCA,berrymob,2130_22215818,Install,1.0,126.245.219.130,0A344A0F-06B4-41F1-B89A-BB2F11B60890,1557535693,2019-05-11 08:48:13,1557555100,2019-05-11 14:11:40,1557555100,20190511004812_7165bf3cbde6cec1150d36a47943952b2343642_v2,http://postback.berrymobapi.com/postback/?tid=20190511004812_7165bf3cbde6cec1150d36a47943952b2343642_v2&src=823,idfa_0A344A0F-06B4-41F1-B89A-BB2F11B60890,ja
BQniLimbQEOA3MjhDDOpCA,berrymob,2130_22215818,Install,1.0,126.245.216.197,26F44E09-FDEE-5F31-62FC-98B31E7E2ACD,1557448873,2019-05-10 08:41:13,1557455909,2019-05-10 10:38:29,1557455909,20190510004110_f853791afe53579bdf10d1bdf5de01e38872241_v2,http://postback.berrymobapi.com/postback/?tid=20190510004110_f853791afe53579bdf10d1bdf5de01e38872241_v2&src=823,idfa_26F44E09-FDEE-5F31-62FC-98B31E7E2ACD,ja
BQniLimbQEOA3MjhDDOpCA,berrymob,2130_22215818,Install,1.0,106.180.46.140,0D14138D-D300-4634-B428-9B90AF5C0BAD,1557527942,2019-05-11 06:39:02,1557558170,2019-05-11 15:02:50,1557558170,20190510223901_19584c270cebe2497a75814997d4b0b55872612_v2,http://postback.berrymobapi.com/postback/?tid=20190510223901_19584c270cebe2497a75814997d4b0b55872612_v2&src=823,idfa_0D14138D-D300-4634-B428-9B90AF5C0BAD,ja
BQniLimbQEOA3MjhDDOpCA,berrymob,2130_22215818,Install,1.0,106.133.163.178,FA551263-FB5E-439D-9DAB-6FB8FA6400AB,1557452396,2019-05-10 09:39:56,1557484276,2019-05-10 18:31:16,1557484276,20190510013955_925c79d7a1d1fb93409a804398e202ae7120524_v2,http://postback.berrymobapi.com/postback/?tid=20190510013955_925c79d7a1d1fb93409a804398e202ae7120524_v2&src=823,idfa_FA551263-FB5E-439D-9DAB-6FB8FA6400AB,ja
BQniLimbQEOA3MjhDDOpCA,berrymob,2130_22215818,Install,1.0,1.75.248.31,12D6F57A-C806-4BFA-BF5C-3A3D92288666,1557452091,2019-05-10 09:34:51,1557453205,2019-05-10 09:53:25,1557453205,20190510013450_7f7512c35ff160f77a84b50eaad7923e7437020_v2,http://postback.berrymobapi.com/postback/?tid=20190510013450_7f7512c35ff160f77a84b50eaad7923e7437020_v2&src=823,idfa_12D6F57A-C806-4BFA-BF5C-3A3D92288666,ja
BQniLimbQEOA3MjhDDOpCA,berrymob,2130_22215818,Install,1.0,182.251.180.209,9FAC3F35-E88B-465B-937F-0D2873EDF024,1557447971,2019-05-10 08:26:11,1557559880,2019-05-11 15:31:20,1557559880,20190510002611_e54f0cb48ea5138865c31b2cc8f504f32862962_v2,http://postback.berrymobapi.com/postback/?tid=20190510002611_e54f0cb48ea5138865c31b2cc8f504f32862962_v2&src=823,idfa_9FAC3F35-E88B-465B-937F-0D2873EDF024,ja
BQniLimbQEOA3MjhDDOpCA,berrymob,2130_22215818,Install,1.0,49.98.161.230,05EEC0A5-BEB7-4FDA-9FB9-7DB7072656DF,1557449345,2019-05-10 08:49:05,1557473207,2019-05-10 15:26:47,1557473207,20190510004904_cc0b433ec07045cf370b24837987365c3856222_v2,http://postback.berrymobapi.com/postback/?tid=20190510004904_cc0b433ec07045cf370b24837987365c3856222_v2&src=823,idfa_05EEC0A5-BEB7-4FDA-9FB9-7DB7072656DF,ja
BQniLimbQEOA3MjhDDOpCA,berrymob,2130_22215818,Install,1.0,182.251.127.123,753080CE-5993-4683-A0AD-1D4CFDD80E74,1557448199,2019-05-10 08:29:59,1557499881,2019-05-10 22:51:21,1557499881,20190510002959_38be221b48d6037069f73addc294d9c29876067_v2,http://postback.berrymobapi.com/postback/?tid=20190510002959_38be221b48d6037069f73addc294d9c29876067_v2&src=823,idfa_753080CE-5993-4683-A0AD-1D4CFDD80E74,ja
BQniLimbQEOA3MjhDDOpCA,berrymob,2130_22215818,Install,1.0,106.132.82.20,A18CCDFF-B50B-463A-BC4E-9FB139868815,1557447178,2019-05-10 08:12:58,1557455212,2019-05-10 10:26:52,1557455212,20190510001257_578cef1248c1461b7e9731659c3c17961062983_v2,http://postback.berrymobapi.com/postback/?tid=20190510001257_578cef1248c1461b7e9731659c3c17961062983_v2&src=823,idfa_A18CCDFF-B50B-463A-BC4E-9FB139868815,ja
BQniLimbQEOA3MjhDDOpCA,berrymob,2130_22215818,Install,1.0,126.247.133.146,47D303BB-3383-4886-83AA-BC2C86227DE7,1557449872,2019-05-10 08:57:52,1557474763,2019-05-10 15:52:43,1557474763,20190510005751_138934a3cfe8083bd0d86d535995ddd85728338_v2,http://postback.berrymobapi.com/postback/?tid=20190510005751_138934a3cfe8083bd0d86d535995ddd85728338_v2&src=823,idfa_47D303BB-3383-4886-83AA-BC2C86227DE7,ja
BQniLimbQEOA3MjhDDOpCA,berrymob,2130_22215818,Install,1.0,106.180.23.25,7FD00FFC-8461-4B9A-80F3-FD42C0B3B018,1557451500,2019-05-10 09:25:00,1557485632,2019-05-10 18:53:52,1557485632,20190510012459_f371efbc562747a7a550f2de583cea519368073_v2,http://postback.berrymobapi.com/postback/?tid=20190510012459_f371efbc562747a7a550f2de583cea519368073_v2&src=823,idfa_7FD00FFC-8461-4B9A-80F3-FD42C0B3B018,ja
BQniLimbQEOA3MjhDDOpCA,berrymob,2130_22215818,Install,1.0,126.247.10.223,2BE9267D-9E6B-4E3E-8BFC-AEC0FDE7E82E,1557447425,2019-05-10 08:17:05,1557493462,2019-05-10 21:04:22,1557493462,20190510001705_3a6f46932ffc284216b57e8508cea33b9707014_v2,http://postback.berrymobapi.com/postback/?tid=20190510001705_3a6f46932ffc284216b57e8508cea33b9707014_v2&src=823,idfa_2BE9267D-9E6B-4E3E-8BFC-AEC0FDE7E82E,ja
BQniLimbQEOA3MjhDDOpCA,berrymob,2130_22215818,Install,1.0,49.98.175.46,8A0E29A8-3909-4050-BD1C-3D85A0D1A182,1557447379,2019-05-10 08:16:19,1557463763,2019-05-10 12:49:23,1557463763,20190510001619_22108bc6703e6c20634bfa4db722fa7a4421185_v2,http://postback.berrymobapi.com/postback/?tid=20190510001619_22108bc6703e6c20634bfa4db722fa7a4421185_v2&src=823,idfa_8A0E29A8-3909-4050-BD1C-3D85A0D1A182,ja
BQniLimbQEOA3MjhDDOpCA,berrymob,2130_22215818,Install,1.0,111.239.188.133,7CAFE7BB-E987-41CC-9D5B-34C67593EC24,1557448690,2019-05-10 08:38:10,1557454035,2019-05-10 10:07:15,1557454035,20190510003810_22be0cf9beaf80c1d2a7da5145f9d3ef9930548_v2,http://postback.berrymobapi.com/postback/?tid=20190510003810_22be0cf9beaf80c1d2a7da5145f9d3ef9930548_v2&src=823,idfa_7CAFE7BB-E987-41CC-9D5B-34C67593EC24,ja
BQniLimbQEOA3MjhDDOpCA,berrymob,2130_22215818,Install,1.0,182.251.147.206,6EEA2CC9-754C-4CA9-A167-598DD1A6D6CC,1557451975,2019-05-10 09:32:55,1557477362,2019-05-10 16:36:02,1557477362,20190510013254_0aa2aaabf5ccfbb7c09379ab642545234816955_v2,http://postback.berrymobapi.com/postback/?tid=20190510013254_0aa2aaabf5ccfbb7c09379ab642545234816955_v2&src=823,idfa_6EEA2CC9-754C-4CA9-A167-598DD1A6D6CC,ja
BQniLimbQEOA3MjhDDOpCA,berrymob,2130_22215818,Install,1.0,126.35.198.198,29E732D6-42B2-47F8-9E9F-E441A65CFC09,1557447890,2019-05-10 08:24:50,1557496388,2019-05-10 21:53:08,1557496388,20190510002450_4f90d1489a3009512eb4a34ad46e96467224620_v2,http://postback.berrymobapi.com/postback/?tid=20190510002450_4f90d1489a3009512eb4a34ad46e96467224620_v2&src=823,idfa_29E732D6-42B2-47F8-9E9F-E441A65CFC09,ja
BQniLimbQEOA3MjhDDOpCA,berrymob,2130_22215818,Install,1.0,106.180.22.54,EB732D4C-E083-45D5-9A26-73790B7DC045,1557447454,2019-05-10 08:17:34,1557474628,2019-05-10 15:50:28,1557474628,20190510001734_2c1822e4d43e91de1faa88823f3687c27859827_v2,http://postback.berrymobapi.com/postback/?tid=20190510001734_2c1822e4d43e91de1faa88823f3687c27859827_v2&src=823,idfa_EB732D4C-E083-45D5-9A26-73790B7DC045,ja
BQniLimbQEOA3MjhDDOpCA,berrymob,2130_22215818,Install,1.0,103.5.142.232,5B09EE2B-0970-470B-AC64-4DD76146D9FC,1557535917,2019-05-11 08:51:57,1557563259,2019-05-11 16:27:39,1557563259,20190511005156_e8eebbdfbe2871d1a71e0eeea141d3db6201683_v2,http://postback.berrymobapi.com/postback/?tid=20190511005156_e8eebbdfbe2871d1a71e0eeea141d3db6201683_v2&src=823,idfa_5B09EE2B-0970-470B-AC64-4DD76146D9FC,ja
BQniLimbQEOA3MjhDDOpCA,berrymob,2130_22215818,Install,1.0,59.84.52.218,F0DE99C8-4BBD-4498-B2A2-6E39A04241E6,1557451429,2019-05-10 09:23:49,1557552352,2019-05-11 13:25:52,1557552352,20190510012349_7b8df668ddc0fd6bcf97295af1de3ab62341893_v2,http://postback.berrymobapi.com/postback/?tid=20190510012349_7b8df668ddc0fd6bcf97295af1de3ab62341893_v2&src=823,idfa_F0DE99C8-4BBD-4498-B2A2-6E39A04241E6,ja
BQniLimbQEOA3MjhDDOpCA,berrymob,2130_22215818,Install,1.0,202.241.98.194,02950258-5E9D-46C0-A673-F6E5E8227859,1557452359,2019-05-10 09:39:19,1557453710,2019-05-10 10:01:50,1557453710,20190510013919_b179d23bfc816786a3fb142f5be5bf547171319_v2,http://postback.berrymobapi.com/postback/?tid=20190510013919_b179d23bfc816786a3fb142f5be5bf547171319_v2&src=823,idfa_02950258-5E9D-46C0-A673-F6E5E8227859,ja
BQniLimbQEOA3MjhDDOpCA,berrymob,2130_22215818,Install,1.0,180.200.35.233,CB17096F-949A-4905-BE5F-E83075E1118B,1557448637,2019-05-10 08:37:17,1557499507,2019-05-10 22:45:07,1557499507,20190510003717_a52226879f8a4692da875e5c2bbc8e965962638_v2,http://postback.berrymobapi.com/postback/?tid=20190510003717_a52226879f8a4692da875e5c2bbc8e965962638_v2&src=823,idfa_CB17096F-949A-4905-BE5F-E83075E1118B,ja
BQniLimbQEOA3MjhDDOpCA,berrymob,2130_22215818,Install,1.0,49.104.49.198,EE69C395-3C15-4A37-B165-5A5348A4F588,1557449265,2019-05-10 08:47:45,1557458739,2019-05-10 11:25:39,1557458739,20190510004744_df14bcfef5680be073b2bf70f3d8b06e1723998_v2,http://postback.berrymobapi.com/postback/?tid=20190510004744_df14bcfef5680be073b2bf70f3d8b06e1723998_v2&src=823,idfa_EE69C395-3C15-4A37-B165-5A5348A4F588,ja
BQniLimbQEOA3MjhDDOpCA,berrymob,2130_22215818,Install,1.0,217.178.67.197,4031D055-C802-477D-A6DC-796837F7972C,1557452261,2019-05-10 09:37:41,1557494524,2019-05-10 21:22:04,1557494524,20190510013741_5663b4dcadcb9fbeb9188dc6b624b3167274234_v2,http://postback.berrymobapi.com/postback/?tid=20190510013741_5663b4dcadcb9fbeb9188dc6b624b3167274234_v2&src=823,idfa_4031D055-C802-477D-A6DC-796837F7972C,ja
BQniLimbQEOA3MjhDDOpCA,berrymob,2130_22215818,Install,1.0,49.96.12.82,1D68C9BE-BC10-E1B2-71D2-0C93E9323F09,1557452700,2019-05-10 09:45:00,1557460058,2019-05-10 11:47:38,1557460058,20190510014459_8e0583ce72cd533dc008e1b8c91388004641068_v2,http://postback.berrymobapi.com/postback/?tid=20190510014459_8e0583ce72cd533dc008e1b8c91388004641068_v2&src=823,idfa_1D68C9BE-BC10-E1B2-71D2-0C93E9323F09,ja
BQniLimbQEOA3MjhDDOpCA,berrymob,2130_22215818,Install,1.0,106.180.14.136,B3164E65-53DC-40D0-A96C-EB647FCDB722,1557536177,2019-05-11 08:56:17,1557556370,2019-05-11 14:32:50,1557556370,20190511005617_9d4c456cf0d0debfb5275ecb5537165e6925765_v2,http://postback.berrymobapi.com/postback/?tid=20190511005617_9d4c456cf0d0debfb5275ecb5537165e6925765_v2&src=823,idfa_B3164E65-53DC-40D0-A96C-EB647FCDB722,ja
BQniLimbQEOA3MjhDDOpCA,berrymob,2130_22215818,Install,1.0,106.133.125.126,A6DA9A8D-614C-4251-A347-1B34308A8620,1557448123,2019-05-10 08:28:43,1557450830,2019-05-10 09:13:50,1557450830,20190510002843_1e1735bf33b738654e8b995409ada8926682039_v2,http://postback.berrymobapi.com/postback/?tid=20190510002843_1e1735bf33b738654e8b995409ada8926682039_v2&src=823,idfa_A6DA9A8D-614C-4251-A347-1B34308A8620,ja
