cid,partner_id,channel_id,action_id,cpi,ip,idfa,click time,click datetime,install time,install datetime,postback time,click id,postback url,unique user id
NEhYectjROWScFvh4DWkuw,berrymob,2158_22433817,Install,2.1,112.120.82.175,48DAFA73-5659-4BCE-AF17-A78E04EAF503,1558688558,2019-05-24 17:02:38,1558688596,2019-05-24 17:03:16,1558688627,20190524090236_1d712eadb55d5e8e636418a1b15e8fc48935006_v2,http://postback.berrymobapi.com/postback/?tid=20190524090236_1d712eadb55d5e8e636418a1b15e8fc48935006_v2&src=823,idfa_48DAFA73-5659-4BCE-AF17-A78E04EAF503,en-HK
NEhYectjROWScFvh4DWkuw,berrymob,2158_22433817,Install,2.1,202.82.230.225,70A26AB7-EECF-4B2B-AEC1-F99F9269C06F,1558752215,2019-05-25 10:43:35,1558760144,2019-05-25 12:55:44,1558760174,20190525024333_3bd016e5da52ce29000414f0270ef9dd6302570_v2,http://postback.berrymobapi.com/postback/?tid=20190525024333_3bd016e5da52ce29000414f0270ef9dd6302570_v2&src=823,idfa_70A26AB7-EECF-4B2B-AEC1-F99F9269C06F,en-HK
NEhYectjROWScFvh4DWkuw,berrymob,2158_22433817,Install,2.1,168.70.53.216,DD47E0CA-7FF2-4928-914B-A7D6508A2D6D,1558831385,2019-05-26 08:43:05,1558831419,2019-05-26 08:43:39,1558831451,20190526004250_5c771bed73e056c8641d7e733b5805ac4748267_v2,http://postback.berrymobapi.com/postback/?tid=20190526004250_5c771bed73e056c8641d7e733b5805ac4748267_v2&src=823,idfa_DD47E0CA-7FF2-4928-914B-A7D6508A2D6D,en-HK
NEhYectjROWScFvh4DWkuw,berrymob,2158_22433817,Install,2.1,223.197.162.15,01B69859-EB6C-4D08-8164-2C82032A7A6F,1558690107,2019-05-24 17:28:27,1558690149,2019-05-24 17:29:09,1558690180,20190524092823_50524713d1a264652fe9074fdec7361f2881974_v2,http://postback.berrymobapi.com/postback/?tid=20190524092823_50524713d1a264652fe9074fdec7361f2881974_v2&src=823,idfa_01B69859-EB6C-4D08-8164-2C82032A7A6F,en-HK
NEhYectjROWScFvh4DWkuw,berrymob,2158_22433817,Install,2.1,202.82.230.225,ACD88D9F-24AE-401B-B985-FF94111306C9,1558752228,2019-05-25 10:43:48,1558758706,2019-05-25 12:31:46,1558758737,20190525024347_93c224fe7f4c0dd600e9c451020ccc369286416_v2,http://postback.berrymobapi.com/postback/?tid=20190525024347_93c224fe7f4c0dd600e9c451020ccc369286416_v2&src=823,idfa_ACD88D9F-24AE-401B-B985-FF94111306C9,en-HK
NEhYectjROWScFvh4DWkuw,berrymob,2158_22433817,Install,2.1,223.197.223.161,9DA8D841-A5F1-4A60-AD8F-546562BDC5B5,1558688944,2019-05-24 17:09:04,1558688984,2019-05-24 17:09:44,1558689015,20190524090900_36890e7be2a8b2f345cf5f7a01edfdc79247730_v2,http://postback.berrymobapi.com/postback/?tid=20190524090900_36890e7be2a8b2f345cf5f7a01edfdc79247730_v2&src=823,idfa_9DA8D841-A5F1-4A60-AD8F-546562BDC5B5,en-HK
NEhYectjROWScFvh4DWkuw,berrymob,2158_22433817,Install,2.1,223.197.167.43,7F11885C-C3D9-4963-AB68-55FF6D048DA6,1558752428,2019-05-25 10:47:08,1558752472,2019-05-25 10:47:52,1558752503,20190525024700_97f117ead5c775cf44da1278c427bf238521783_v2,http://postback.berrymobapi.com/postback/?tid=20190525024700_97f117ead5c775cf44da1278c427bf238521783_v2&src=823,idfa_7F11885C-C3D9-4963-AB68-55FF6D048DA6,en-HK
NEhYectjROWScFvh4DWkuw,berrymob,2158_22433817,Install,2.1,203.198.124.70,47EC6D2A-0468-4FB2-B545-FD58D4E22ECA,1558689447,2019-05-24 17:17:27,1558689487,2019-05-24 17:18:07,1558689517,20190524091724_1ece0592a68795a822bed36a9884f0e14315643_v2,http://postback.berrymobapi.com/postback/?tid=20190524091724_1ece0592a68795a822bed36a9884f0e14315643_v2&src=823,idfa_47EC6D2A-0468-4FB2-B545-FD58D4E22ECA,en-HK
NEhYectjROWScFvh4DWkuw,berrymob,2158_22433817,Install,2.1,223.197.168.2,1EA0656F-F418-48EF-958D-0AF9DB565D7A,1558690139,2019-05-24 17:28:59,1558690178,2019-05-24 17:29:38,1558690210,20190524092857_f98f6ab046de72ba9ac09e28475e24732411027_v2,http://postback.berrymobapi.com/postback/?tid=20190524092857_f98f6ab046de72ba9ac09e28475e24732411027_v2&src=823,idfa_1EA0656F-F418-48EF-958D-0AF9DB565D7A,en-HK
NEhYectjROWScFvh4DWkuw,berrymob,2158_22433817,Install,2.1,202.82.230.225,A3501CA9-D172-4693-BCC9-AD34CB6BCE5C,1558687989,2019-05-24 16:53:09,1558688028,2019-05-24 16:53:48,1558688058,20190524085307_e96c51fdfaf2c6943d7c3888b2b8d7125532685_v2,http://postback.berrymobapi.com/postback/?tid=20190524085307_e96c51fdfaf2c6943d7c3888b2b8d7125532685_v2&src=823,idfa_A3501CA9-D172-4693-BCC9-AD34CB6BCE5C,en-HK
NEhYectjROWScFvh4DWkuw,berrymob,2158_22433817,Install,2.1,223.197.223.161,79867AFD-DFF5-4246-BFA1-E753F8CFCC49,1558751842,2019-05-25 10:37:22,1558751879,2019-05-25 10:37:59,1558751909,20190525023716_b3cfb3d7d4694fc6d989e845826231d18342129_v2,http://postback.berrymobapi.com/postback/?tid=20190525023716_b3cfb3d7d4694fc6d989e845826231d18342129_v2&src=823,idfa_79867AFD-DFF5-4246-BFA1-E753F8CFCC49,en-HK
NEhYectjROWScFvh4DWkuw,berrymob,2158_22433817,Install,2.1,223.197.162.15,2860AC40-578A-4A89-B971-14EDC9DC9553,1558752237,2019-05-25 10:43:57,1558760531,2019-05-25 13:02:11,1558760562,20190525024354_a33a123a5061fb347959dad0959b0f799409992_v2,http://postback.berrymobapi.com/postback/?tid=20190525024354_a33a123a5061fb347959dad0959b0f799409992_v2&src=823,idfa_2860AC40-578A-4A89-B971-14EDC9DC9553,en-HK
NEhYectjROWScFvh4DWkuw,berrymob,2158_22433817,Install,2.1,103.254.210.60,8C14FBE3-09AE-4B66-8D1E-7CEBB6789765,1558689538,2019-05-24 17:18:58,1558689579,2019-05-24 17:19:39,1558689611,20190524091856_78fc41af24d2b84883d27c9ad163fea82950017_v2,http://postback.berrymobapi.com/postback/?tid=20190524091856_78fc41af24d2b84883d27c9ad163fea82950017_v2&src=823,idfa_8C14FBE3-09AE-4B66-8D1E-7CEBB6789765,en-HK
NEhYectjROWScFvh4DWkuw,berrymob,2158_22433817,Install,2.1,202.82.230.225,22E24EA6-0DF3-423B-AB13-71710BEAFE22,1558689029,2019-05-24 17:10:29,1558689070,2019-05-24 17:11:10,1558689101,20190524091027_76e58731e726f56d5eccf8d91b096adf1261730_v2,http://postback.berrymobapi.com/postback/?tid=20190524091027_76e58731e726f56d5eccf8d91b096adf1261730_v2&src=823,idfa_22E24EA6-0DF3-423B-AB13-71710BEAFE22,en-HK
NEhYectjROWScFvh4DWkuw,berrymob,2158_22433817,Install,2.1,202.82.230.225,65029B41-8CD6-404D-B877-03F67399AA18,1558751824,2019-05-25 10:37:04,1558751856,2019-05-25 10:37:36,1558751892,20190525023702_5b5d1922838995d3a4e5d4a5084697f39102769_v2,http://postback.berrymobapi.com/postback/?tid=20190525023702_5b5d1922838995d3a4e5d4a5084697f39102769_v2&src=823,idfa_65029B41-8CD6-404D-B877-03F67399AA18,en-HK
NEhYectjROWScFvh4DWkuw,berrymob,2158_22433817,Install,2.1,223.197.223.219,C1D7A69F-F1DC-40C4-B5DC-48AC4A47AC1E,1558687889,2019-05-24 16:51:29,1558687954,2019-05-24 16:52:34,1558687985,20190524085126_fd786f67523a19338e2581b7ae9036f83266943_v2,http://postback.berrymobapi.com/postback/?tid=20190524085126_fd786f67523a19338e2581b7ae9036f83266943_v2&src=823,idfa_C1D7A69F-F1DC-40C4-B5DC-48AC4A47AC1E,en-HK
NEhYectjROWScFvh4DWkuw,berrymob,2158_22433817,Install,2.1,202.82.230.225,4A68BEB7-AD6E-4957-A5D2-0BD9BD769EC3,1558688456,2019-05-24 17:00:56,1558688495,2019-05-24 17:01:35,1558688526,20190524090054_88ac2e5b456f085fdf5b6b4748faefa15284460_v2,http://postback.berrymobapi.com/postback/?tid=20190524090054_88ac2e5b456f085fdf5b6b4748faefa15284460_v2&src=823,idfa_4A68BEB7-AD6E-4957-A5D2-0BD9BD769EC3,en-HK
NEhYectjROWScFvh4DWkuw,berrymob,2158_22433817,Install,2.1,218.103.126.211,3D3B8B43-5EB0-4406-9E44-CC5F64DD92A9,1558687444,2019-05-24 16:44:04,1558687485,2019-05-24 16:44:45,1558687517,20190524084359_bd0cd697006213b286b513ec0e0f24e94129197_v2,http://postback.berrymobapi.com/postback/?tid=20190524084359_bd0cd697006213b286b513ec0e0f24e94129197_v2&src=823,idfa_3D3B8B43-5EB0-4406-9E44-CC5F64DD92A9,en-HK
NEhYectjROWScFvh4DWkuw,berrymob,2158_22433817,Install,2.1,202.82.230.225,194C56F3-3947-4FFE-AD84-28DE406F2B31,1558690001,2019-05-24 17:26:41,1558690034,2019-05-24 17:27:14,1558690065,20190524092639_f77b3a8fed02f6f21cd40fc5a0086fb07593917_v2,http://postback.berrymobapi.com/postback/?tid=20190524092639_f77b3a8fed02f6f21cd40fc5a0086fb07593917_v2&src=823,idfa_194C56F3-3947-4FFE-AD84-28DE406F2B31,en-HK
NEhYectjROWScFvh4DWkuw,berrymob,2158_22433817,Install,2.1,223.197.250.232,A5D89269-4073-4F42-A6B8-094B518B57B3,1558752222,2019-05-25 10:43:42,1558757554,2019-05-25 12:12:34,1558757584,20190525024338_0a80a287589d7c616eb655eb269e2df79343981_v2,http://postback.berrymobapi.com/postback/?tid=20190525024338_0a80a287589d7c616eb655eb269e2df79343981_v2&src=823,idfa_A5D89269-4073-4F42-A6B8-094B518B57B3,en-HK
NEhYectjROWScFvh4DWkuw,berrymob,2158_22433817,Install,2.1,202.82.133.61,5D83B1CC-31E7-477F-A43C-C56354E66F59,1558689586,2019-05-24 17:19:46,1558689628,2019-05-24 17:20:28,1558689658,20190524091939_07d67822589abdc2c54d3371fd30e3fb9497024_v2,http://postback.berrymobapi.com/postback/?tid=20190524091939_07d67822589abdc2c54d3371fd30e3fb9497024_v2&src=823,idfa_5D83B1CC-31E7-477F-A43C-C56354E66F59,en-HK
NEhYectjROWScFvh4DWkuw,berrymob,2158_22433817,Install,2.1,202.82.230.225,AFC2DF8B-4421-48FC-A4E6-38C8C88D907A,1558689137,2019-05-24 17:12:17,1558689180,2019-05-24 17:13:00,1558689211,20190524091214_af01be6e01e898daf82deb9be153e8595740524_v2,http://postback.berrymobapi.com/postback/?tid=20190524091214_af01be6e01e898daf82deb9be153e8595740524_v2&src=823,idfa_AFC2DF8B-4421-48FC-A4E6-38C8C88D907A,en-HK
