cid,partner_id,channel_id,action_id,cpi,ip,idfa,click time,click datetime,install time,install datetime,postback time,click id,postback url,unique user id
uuRCXPoQTXG1o_ULUmCxjA,berrymob,2126_22001112,Install,0.21,120.188.65.219,a82ac33b-51e2-403a-8cc8-664a620aab1b,1557285746,2019-05-08 11:22:26,1557285843,2019-05-08 11:24:03,1557285874,20190508032225_2a1d3580d1361b15f905686ebeef25936147271_v2,http://postback.berrymobapi.com/postback/?tid=20190508032225_2a1d3580d1361b15f905686ebeef25936147271_v2&src=823,idfa_a82ac33b-51e2-403a-8cc8-664a620aab1b,Indonesia
uuRCXPoQTXG1o_ULUmCxjA,berrymob,2126_22001112,Install,0.21,182.1.101.241,2d0402d0-c00f-4904-9070-c922bd56f8b8,1557284839,2019-05-08 11:07:19,1557284941,2019-05-08 11:09:01,1557284972,20190508030717_1f2617886f584faf19a515db4f6d9df89937363_v2,http://postback.berrymobapi.com/postback/?tid=20190508030717_1f2617886f584faf19a515db4f6d9df89937363_v2&src=823,idfa_2d0402d0-c00f-4904-9070-c922bd56f8b8,Indonesia
uuRCXPoQTXG1o_ULUmCxjA,berrymob,2126_22001112,Install,0.21,114.125.63.120,5fbb8199-fcbd-44fe-b509-45f36a0f3aab,1557285309,2019-05-08 11:15:09,1557285420,2019-05-08 11:17:00,1557285452,20190508031507_aa96ff6f5ad8838d2bf33549a25770735274612_v2,http://postback.berrymobapi.com/postback/?tid=20190508031507_aa96ff6f5ad8838d2bf33549a25770735274612_v2&src=823,idfa_5fbb8199-fcbd-44fe-b509-45f36a0f3aab,Indonesia
uuRCXPoQTXG1o_ULUmCxjA,berrymob,2126_22001112,Install,0.21,180.248.11.127,2ec63f99-2868-43cb-a33f-8eec27915fe6,1557284832,2019-05-08 11:07:12,1557284932,2019-05-08 11:08:52,1557284963,20190508030711_79ddd0b4ea24ce20bfc25311e9e7652e5283945_v2,http://postback.berrymobapi.com/postback/?tid=20190508030711_79ddd0b4ea24ce20bfc25311e9e7652e5283945_v2&src=823,idfa_2ec63f99-2868-43cb-a33f-8eec27915fe6,Bahasa%20Indonesia
uuRCXPoQTXG1o_ULUmCxjA,berrymob,2126_22001112,Install,0.21,112.215.229.83,b7552a85-ca6f-41db-b4f5-91af89777ce4,1557285480,2019-05-08 11:18:00,1557285577,2019-05-08 11:19:37,1557285608,20190508031758_b1e4c2e24e10f2601fcfef22621e2d123707724_v2,http://postback.berrymobapi.com/postback/?tid=20190508031758_b1e4c2e24e10f2601fcfef22621e2d123707724_v2&src=823,idfa_b7552a85-ca6f-41db-b4f5-91af89777ce4,Indonesia
uuRCXPoQTXG1o_ULUmCxjA,berrymob,2126_22001112,Install,0.21,180.249.37.52,f6849002-41c7-45c8-98cf-a2ff61473ee3,1557285754,2019-05-08 11:22:34,1557285846,2019-05-08 11:24:06,1557285877,20190508032231_52cc221c0538cec94197b9af532d522b8296138_v2,http://postback.berrymobapi.com/postback/?tid=20190508032231_52cc221c0538cec94197b9af532d522b8296138_v2&src=823,idfa_f6849002-41c7-45c8-98cf-a2ff61473ee3,Bahasa%20Indonesia
uuRCXPoQTXG1o_ULUmCxjA,berrymob,2126_22001112,Install,0.21,114.124.213.221,e2fc3f47-41fb-408e-bea4-6120079ec7a0,1557285617,2019-05-08 11:20:17,1557286381,2019-05-08 11:33:01,1557286412,20190508032015_3990920c8a440bb7152c1f68cc27aa681139059_v2,http://postback.berrymobapi.com/postback/?tid=20190508032015_3990920c8a440bb7152c1f68cc27aa681139059_v2&src=823,idfa_e2fc3f47-41fb-408e-bea4-6120079ec7a0,Bahasa%20Indonesia
uuRCXPoQTXG1o_ULUmCxjA,berrymob,2126_22001112,Install,0.21,115.178.221.23,655c9a44-40e9-4697-921c-d3f4f0ce7d23,1557285470,2019-05-08 11:17:50,1557285555,2019-05-08 11:19:15,1557285586,20190508031731_cfc55dec362654e6f483c0efde58f3e02319455_v2,http://postback.berrymobapi.com/postback/?tid=20190508031731_cfc55dec362654e6f483c0efde58f3e02319455_v2&src=823,idfa_655c9a44-40e9-4697-921c-d3f4f0ce7d23,Bahasa%20Indonesia
uuRCXPoQTXG1o_ULUmCxjA,berrymob,2126_22001112,Install,0.21,180.244.34.162,9176ae41-d62f-47d8-980c-dafdebb01d87,1557284855,2019-05-08 11:07:35,1557284974,2019-05-08 11:09:34,1557285005,20190508030731_c8435828444a0a3cbf87cd2f1c0fe3736571299_v2,http://postback.berrymobapi.com/postback/?tid=20190508030731_c8435828444a0a3cbf87cd2f1c0fe3736571299_v2&src=823,idfa_9176ae41-d62f-47d8-980c-dafdebb01d87,Bahasa%20Indonesia
uuRCXPoQTXG1o_ULUmCxjA,berrymob,2126_22001112,Install,0.21,36.82.13.209,9e8454f2-06de-4bd7-8bdb-6131d09916f4,1557285370,2019-05-08 11:16:10,1557285459,2019-05-08 11:17:39,1557285491,20190508031607_6b36f552fa6245262792764983fe29fe7707915_v2,http://postback.berrymobapi.com/postback/?tid=20190508031607_6b36f552fa6245262792764983fe29fe7707915_v2&src=823,idfa_9e8454f2-06de-4bd7-8bdb-6131d09916f4,Indonesia
uuRCXPoQTXG1o_ULUmCxjA,berrymob,2126_22001112,Install,0.21,116.206.35.14,86b00c7b-72bb-4c95-b359-5cbaf2c3daad,1557285355,2019-05-08 11:15:55,1557285450,2019-05-08 11:17:30,1557285483,20190508031553_9196c76fb01bee126b212378394d5e9c3135455_v2,http://postback.berrymobapi.com/postback/?tid=20190508031553_9196c76fb01bee126b212378394d5e9c3135455_v2&src=823,idfa_86b00c7b-72bb-4c95-b359-5cbaf2c3daad,Bahasa%20Indonesia
uuRCXPoQTXG1o_ULUmCxjA,berrymob,2126_22001112,Install,0.21,139.194.150.42,b021ad36-99d7-4083-90f8-b102c5fefc16,1557285482,2019-05-08 11:18:02,1557285578,2019-05-08 11:19:38,1557285609,20190508031800_5302d695ca1bfc057d2c2fbf2ceb215e8553976_v2,http://postback.berrymobapi.com/postback/?tid=20190508031800_5302d695ca1bfc057d2c2fbf2ceb215e8553976_v2&src=823,idfa_b021ad36-99d7-4083-90f8-b102c5fefc16,English
uuRCXPoQTXG1o_ULUmCxjA,berrymob,2126_22001112,Install,0.21,36.79.210.19,2fb03b1b-ee12-4f66-b479-eab90d9a335b,1557285603,2019-05-08 11:20:03,1557285701,2019-05-08 11:21:41,1557285732,20190508032001_647f2ba57de8532b0858b707ccd699c31585530_v2,http://postback.berrymobapi.com/postback/?tid=20190508032001_647f2ba57de8532b0858b707ccd699c31585530_v2&src=823,idfa_2fb03b1b-ee12-4f66-b479-eab90d9a335b,Bahasa%20Indonesia
uuRCXPoQTXG1o_ULUmCxjA,berrymob,2126_22001112,Install,0.21,115.178.207.86,16c2134d-8546-4b0f-874a-095481f32929,1557285870,2019-05-08 11:24:30,1557285991,2019-05-08 11:26:31,1557286022,20190508032428_b8e11cb5a8ae098898a1dc403452decf9196923_v2,http://postback.berrymobapi.com/postback/?tid=20190508032428_b8e11cb5a8ae098898a1dc403452decf9196923_v2&src=823,idfa_16c2134d-8546-4b0f-874a-095481f32929,Bahasa%20Indonesia
uuRCXPoQTXG1o_ULUmCxjA,berrymob,2126_22001112,Install,0.21,222.124.58.87,dbaa3ae7-9a49-4f50-b319-f9a442a39425,1557285929,2019-05-08 11:25:29,1557286018,2019-05-08 11:26:58,1557286049,20190508032528_a5fae17b991c1cf2aa4c958c7c3fe1b06819083_v2,http://postback.berrymobapi.com/postback/?tid=20190508032528_a5fae17b991c1cf2aa4c958c7c3fe1b06819083_v2&src=823,idfa_dbaa3ae7-9a49-4f50-b319-f9a442a39425,English
uuRCXPoQTXG1o_ULUmCxjA,berrymob,2126_22001112,Install,0.21,140.213.41.111,a5b8be68-711a-4b6d-ba6e-77667d369408,1557284840,2019-05-08 11:07:20,1557285001,2019-05-08 11:10:01,1557285032,20190508030716_6812a7adbbf290b8d820453489bf83032445279_v2,http://postback.berrymobapi.com/postback/?tid=20190508030716_6812a7adbbf290b8d820453489bf83032445279_v2&src=823,idfa_a5b8be68-711a-4b6d-ba6e-77667d369408,Bahasa%20Indonesia
uuRCXPoQTXG1o_ULUmCxjA,berrymob,2126_22001112,Install,0.21,114.124.199.215,149e95ef-c4d8-4b13-90da-81a8889feca6,1557285563,2019-05-08 11:19:23,1557285664,2019-05-08 11:21:04,1557285695,20190508031921_d7b122d33aaf5631691de0f7c1675ec48250522_v2,http://postback.berrymobapi.com/postback/?tid=20190508031921_d7b122d33aaf5631691de0f7c1675ec48250522_v2&src=823,idfa_149e95ef-c4d8-4b13-90da-81a8889feca6,Indonesia
uuRCXPoQTXG1o_ULUmCxjA,berrymob,2126_22001112,Install,0.21,114.122.7.218,eaa335e7-35b6-4269-af7c-9a8bbeeaa7fc,1557284833,2019-05-08 11:07:13,1557284926,2019-05-08 11:08:46,1557284957,20190508030711_c6dd019a707c04250a0235c4523059479985447_v2,http://postback.berrymobapi.com/postback/?tid=20190508030711_c6dd019a707c04250a0235c4523059479985447_v2&src=823,idfa_eaa335e7-35b6-4269-af7c-9a8bbeeaa7fc,Indonesia
uuRCXPoQTXG1o_ULUmCxjA,berrymob,2126_22001112,Install,0.21,182.1.221.108,71fe9db3-0a52-479b-8853-5de07bd00437,1557285337,2019-05-08 11:15:37,1557285423,2019-05-08 11:17:03,1557285454,20190508031525_bc88f186614d7fc5266e48c3918dc3d23986365_v2,http://postback.berrymobapi.com/postback/?tid=20190508031525_bc88f186614d7fc5266e48c3918dc3d23986365_v2&src=823,idfa_71fe9db3-0a52-479b-8853-5de07bd00437,Bahasa%20Indonesia
uuRCXPoQTXG1o_ULUmCxjA,berrymob,2126_22001112,Install,0.21,202.67.33.1,990b6ba0-f7b2-4cd2-b1e2-97d1ce2aee9d,1557285350,2019-05-08 11:15:50,1557285455,2019-05-08 11:17:35,1557285486,20190508031549_6ef456b33ad0484249c72c67d3fc33c45140364_v2,http://postback.berrymobapi.com/postback/?tid=20190508031549_6ef456b33ad0484249c72c67d3fc33c45140364_v2&src=823,idfa_990b6ba0-f7b2-4cd2-b1e2-97d1ce2aee9d,Bahasa%20Indonesia
uuRCXPoQTXG1o_ULUmCxjA,berrymob,2126_22001112,Install,0.21,140.213.22.8,410de0fd-dbad-42bf-997e-641392188d9a,1557285664,2019-05-08 11:21:04,1557285772,2019-05-08 11:22:52,1557285803,20190508032101_d2a627570c676b14cd5a625af84075a46068393_v2,http://postback.berrymobapi.com/postback/?tid=20190508032101_d2a627570c676b14cd5a625af84075a46068393_v2&src=823,idfa_410de0fd-dbad-42bf-997e-641392188d9a,Bahasa%20Indonesia
uuRCXPoQTXG1o_ULUmCxjA,berrymob,2126_22001112,Install,0.21,140.213.43.32,8a56f6f1-0839-41e7-acb5-6e70802cb382,1557284911,2019-05-08 11:08:31,1557284983,2019-05-08 11:09:43,1557285014,20190508030816_e129138b99d7ebea4ac61cc3caabdf8d2432891_v2,http://postback.berrymobapi.com/postback/?tid=20190508030816_e129138b99d7ebea4ac61cc3caabdf8d2432891_v2&src=823,idfa_8a56f6f1-0839-41e7-acb5-6e70802cb382,Indonesia
uuRCXPoQTXG1o_ULUmCxjA,berrymob,2126_22001112,Install,0.21,182.1.78.79,0923cca0-090e-43e1-a7dd-5100263b7101,1557285122,2019-05-08 11:12:02,1557285315,2019-05-08 11:15:15,1557285669,20190508031159_36ae22e97b617b0390f065d902793be21829090_v2,http://postback.berrymobapi.com/postback/?tid=20190508031159_36ae22e97b617b0390f065d902793be21829090_v2&src=823,idfa_0923cca0-090e-43e1-a7dd-5100263b7101,Bahasa%20Indonesia
uuRCXPoQTXG1o_ULUmCxjA,berrymob,2126_22001112,Install,0.21,120.188.33.41,57aa3bf3-acbf-448e-9dbb-92708022a8b5,1557286034,2019-05-08 11:27:14,1557286100,2019-05-08 11:28:20,1557286131,20190508032658_e54902ad54db2b8289d4334c4bd3fa052336887_v2,http://postback.berrymobapi.com/postback/?tid=20190508032658_e54902ad54db2b8289d4334c4bd3fa052336887_v2&src=823,idfa_57aa3bf3-acbf-448e-9dbb-92708022a8b5,Bahasa%20Indonesia
uuRCXPoQTXG1o_ULUmCxjA,berrymob,2126_22001112,Install,0.21,114.5.208.225,7fb2cc87-9f71-44dc-bfc7-486039e9aa3f,1557285314,2019-05-08 11:15:14,1557285929,2019-05-08 11:25:29,1557285960,20190508031507_cd74a1692fc616854fa2396f30537aa09278867_v2,http://postback.berrymobapi.com/postback/?tid=20190508031507_cd74a1692fc616854fa2396f30537aa09278867_v2&src=823,idfa_7fb2cc87-9f71-44dc-bfc7-486039e9aa3f,Indonesia
uuRCXPoQTXG1o_ULUmCxjA,berrymob,2126_22001112,Install,0.21,112.215.172.221,dab16ab3-8e6c-4f2a-9aec-84c0b6244615,1557285821,2019-05-08 11:23:41,1557285955,2019-05-08 11:25:55,1557285986,20190508032328_aef8db48f543c060ebbda7ea90afef518865476_v2,http://postback.berrymobapi.com/postback/?tid=20190508032328_aef8db48f543c060ebbda7ea90afef518865476_v2&src=823,idfa_dab16ab3-8e6c-4f2a-9aec-84c0b6244615,Bahasa%20Indonesia
uuRCXPoQTXG1o_ULUmCxjA,berrymob,2126_22001112,Install,0.21,112.215.152.99,0e237d97-0ca3-49df-ab3f-c6d52039460a,1557285271,2019-05-08 11:14:31,1557285359,2019-05-08 11:15:59,1557285396,20190508031401_dde2c1ab0dde0129af2393d6179f128b7951737_v2,http://postback.berrymobapi.com/postback/?tid=20190508031401_dde2c1ab0dde0129af2393d6179f128b7951737_v2&src=823,idfa_0e237d97-0ca3-49df-ab3f-c6d52039460a,Indonesia
uuRCXPoQTXG1o_ULUmCxjA,berrymob,2126_22001112,Install,0.21,114.124.247.100,b3eba4f6-0efb-4cb3-ae28-f6ec552153b3,1557285178,2019-05-08 11:12:58,1557285269,2019-05-08 11:14:29,1557285300,20190508031256_6981843e53911f985e0f12aabd60437f2154255_v2,http://postback.berrymobapi.com/postback/?tid=20190508031256_6981843e53911f985e0f12aabd60437f2154255_v2&src=823,idfa_b3eba4f6-0efb-4cb3-ae28-f6ec552153b3,Bahasa%20Indonesia
uuRCXPoQTXG1o_ULUmCxjA,berrymob,2126_22001112,Install,0.21,114.124.229.195,9c0f2cc0-b5f2-4425-bd20-c799d5758c90,1557284987,2019-05-08 11:09:47,1557285083,2019-05-08 11:11:23,1557285114,20190508030947_0673d4f891a7f2c8361df3dd9625e8d16583658_v2,http://postback.berrymobapi.com/postback/?tid=20190508030947_0673d4f891a7f2c8361df3dd9625e8d16583658_v2&src=823,idfa_9c0f2cc0-b5f2-4425-bd20-c799d5758c90,Indonesia
uuRCXPoQTXG1o_ULUmCxjA,berrymob,2126_22001112,Install,0.21,114.125.69.4,936cce6f-030a-4d60-92fd-e537c39e3a56,1557284834,2019-05-08 11:07:14,1557284939,2019-05-08 11:08:59,1557284970,20190508030712_02d5c8f54c51c84ae9b09581c963ea363559426_v2,http://postback.berrymobapi.com/postback/?tid=20190508030712_02d5c8f54c51c84ae9b09581c963ea363559426_v2&src=823,idfa_936cce6f-030a-4d60-92fd-e537c39e3a56,Indonesia
uuRCXPoQTXG1o_ULUmCxjA,berrymob,2126_22001112,Install,0.21,114.125.218.150,58638f49-8ea0-4b07-b9ba-790d4d1abc9c,1557284838,2019-05-08 11:07:18,1557284936,2019-05-08 11:08:56,1557284968,20190508030716_6076f0a072ab2805dc2689cc3f1201b76255111_v2,http://postback.berrymobapi.com/postback/?tid=20190508030716_6076f0a072ab2805dc2689cc3f1201b76255111_v2&src=823,idfa_58638f49-8ea0-4b07-b9ba-790d4d1abc9c,Indonesia
uuRCXPoQTXG1o_ULUmCxjA,berrymob,2126_22001112,Install,0.21,140.213.91.146,61034f43-a62a-473c-bcc0-9f0ae8dbc1ac,1557285770,2019-05-08 11:22:50,1557285835,2019-05-08 11:23:55,1557285867,20190508032241_66a8333e5ff7797c05248559191c56978085144_v2,http://postback.berrymobapi.com/postback/?tid=20190508032241_66a8333e5ff7797c05248559191c56978085144_v2&src=823,idfa_61034f43-a62a-473c-bcc0-9f0ae8dbc1ac,Bahasa%20Indonesia
uuRCXPoQTXG1o_ULUmCxjA,berrymob,2126_22001112,Install,0.21,120.188.65.170,1c494dc8-4d6c-445e-9dff-b738715bc122,1557285539,2019-05-08 11:18:59,1557285633,2019-05-08 11:20:33,1557285664,20190508031856_9741a7d881514d9746fc5e852b55ea317339507_v2,http://postback.berrymobapi.com/postback/?tid=20190508031856_9741a7d881514d9746fc5e852b55ea317339507_v2&src=823,idfa_1c494dc8-4d6c-445e-9dff-b738715bc122,Indonesia
