cid,partner_id,channel_id,action_id,cpi,ip,idfa,click time,click datetime,install time,install datetime,postback time,click id,postback url,unique user id
SwAS2P2BTMSgBr6oVoSK6A,berrymob,2130_21997227,install,1.7,49.246.89.251,2B2AB668-1F8D-4987-B6DB-291019E7142F,1558661695,2019-05-24 09:34:55,1558661850,2019-05-24 09:37:30,1558661880,20190524013439_114f3fd215d03b8d6bda5e889aebba592298992_v2,http://postback.berrymobapi.com/postback/?tid=20190524013439_114f3fd215d03b8d6bda5e889aebba592298992_v2&src=823,idfa_2B2AB668-1F8D-4987-B6DB-291019E7142F,ko
SwAS2P2BTMSgBr6oVoSK6A,berrymob,2130_21997227,install,1.7,175.230.254.62,9CDE9DB3-5A02-4F60-B05A-E241E249BF43,1558661068,2019-05-24 09:24:28,1558661143,2019-05-24 09:25:43,1558661173,20190524012425_6cf52dff7c7e9ae950d39c563da530c51756092_v2,http://postback.berrymobapi.com/postback/?tid=20190524012425_6cf52dff7c7e9ae950d39c563da530c51756092_v2&src=823,idfa_9CDE9DB3-5A02-4F60-B05A-E241E249BF43,ko
SwAS2P2BTMSgBr6oVoSK6A,berrymob,2130_21997227,install,1.5,125.128.232.113,3E50F58E-57B6-4D6A-85F5-73579B48EF07,1557022924,2019-05-05 10:22:04,1557023029,2019-05-05 10:23:49,1557023137,20190505022159_eddc30c1693a35704205cfbdeff527be4980660_v2,http://postback.berrymobapi.com/postback/?tid=20190505022159_eddc30c1693a35704205cfbdeff527be4980660_v2&src=823,idfa_3E50F58E-57B6-4D6A-85F5-73579B48EF07,ko
SwAS2P2BTMSgBr6oVoSK6A,berrymob,2130_21997227,install,1.7,175.215.84.119,4A961F48-DD3D-4283-9CDA-9D15E44545C9,1558051340,2019-05-17 08:02:20,1558051446,2019-05-17 08:04:06,1558051476,20190517000216_0be1fd2309cabd929a33a8791d61a9307776495_v2,http://postback.berrymobapi.com/postback/?tid=20190517000216_0be1fd2309cabd929a33a8791d61a9307776495_v2&src=823,idfa_4A961F48-DD3D-4283-9CDA-9D15E44545C9,ko
SwAS2P2BTMSgBr6oVoSK6A,berrymob,2130_21997227,install,1.7,27.116.255.152,85ED44E0-6234-4D8F-80B5-28F0F03EA73F,1558659676,2019-05-24 09:01:16,1558659776,2019-05-24 09:02:56,1558659806,20190524010109_2a4eb8de396cb1e60bb99a207b4d999b1249255_v2,http://postback.berrymobapi.com/postback/?tid=20190524010109_2a4eb8de396cb1e60bb99a207b4d999b1249255_v2&src=823,idfa_85ED44E0-6234-4D8F-80B5-28F0F03EA73F,ko
SwAS2P2BTMSgBr6oVoSK6A,berrymob,2130_21997227,install,1.7,49.171.119.51,A338D506-C78B-4995-A66D-6A6EDD6A3CF6,1558659636,2019-05-24 09:00:36,1558659731,2019-05-24 09:02:11,1558659761,20190524010034_2b3f54978515793125455897800d61737918117_v2,http://postback.berrymobapi.com/postback/?tid=20190524010034_2b3f54978515793125455897800d61737918117_v2&src=823,idfa_A338D506-C78B-4995-A66D-6A6EDD6A3CF6,ko
SwAS2P2BTMSgBr6oVoSK6A,berrymob,2130_21997227,install,1.5,1.222.80.90,FC9285A4-C2BF-42E8-9477-E5A70EB910B7,1557018301,2019-05-05 09:05:01,1557018398,2019-05-05 09:06:38,1557018428,20190505010453_d5560cb7cb0e28159b6f2eed90a51d736624236_v2,http://postback.berrymobapi.com/postback/?tid=20190505010453_d5560cb7cb0e28159b6f2eed90a51d736624236_v2&src=823,idfa_FC9285A4-C2BF-42E8-9477-E5A70EB910B7,ko
SwAS2P2BTMSgBr6oVoSK6A,berrymob,2130_21997227,install,1.7,61.32.61.197,172F7A3F-6091-45B5-A9BA-DED10BBEF747,1558660918,2019-05-24 09:21:58,1558661022,2019-05-24 09:23:42,1558661052,20190524012143_750e9b7798e882993e2ea42d4122792e3102408_v2,http://postback.berrymobapi.com/postback/?tid=20190524012143_750e9b7798e882993e2ea42d4122792e3102408_v2&src=823,idfa_172F7A3F-6091-45B5-A9BA-DED10BBEF747,ko
SwAS2P2BTMSgBr6oVoSK6A,berrymob,2130_21997227,install,1.7,121.142.165.111,03D0F54E-752B-4156-A3C7-220876F5DB49,1558051324,2019-05-17 08:02:04,1558051438,2019-05-17 08:03:58,1558051468,20190517000201_872786957dba8e6b9c5ee4e747a7b0e02440296_v2,http://postback.berrymobapi.com/postback/?tid=20190517000201_872786957dba8e6b9c5ee4e747a7b0e02440296_v2&src=823,idfa_03D0F54E-752B-4156-A3C7-220876F5DB49,ko
SwAS2P2BTMSgBr6oVoSK6A,berrymob,2130_21997227,install,1.7,211.216.48.158,76822761-6FEE-462C-981C-40CEE8D89AB1,1558661170,2019-05-24 09:26:10,1558661265,2019-05-24 09:27:45,1558661295,20190524012600_d9f135cef91af3a0177e24626c8857103344889_v2,http://postback.berrymobapi.com/postback/?tid=20190524012600_d9f135cef91af3a0177e24626c8857103344889_v2&src=823,idfa_76822761-6FEE-462C-981C-40CEE8D89AB1,ko
SwAS2P2BTMSgBr6oVoSK6A,berrymob,2130_21997227,install,1.7,121.150.105.136,497A20E4-ACB3-446C-A0C6-F40DDB022AA7,1558660090,2019-05-24 09:08:10,1558660199,2019-05-24 09:09:59,1558660229,20190524010807_97c33eaea87e9ee17ecb8777a6b14fc25564114_v2,http://postback.berrymobapi.com/postback/?tid=20190524010807_97c33eaea87e9ee17ecb8777a6b14fc25564114_v2&src=823,idfa_497A20E4-ACB3-446C-A0C6-F40DDB022AA7,ko
SwAS2P2BTMSgBr6oVoSK6A,berrymob,2130_21997227,install,1.5,101.235.30.186,8F2D2F26-6EA3-4B92-B5B3-44FF844100ED,1557020410,2019-05-05 09:40:10,1557020543,2019-05-05 09:42:23,1557020573,20190505014003_8affe647a9b2e71d68a3b935a1a5b23a4936018_v2,http://postback.berrymobapi.com/postback/?tid=20190505014003_8affe647a9b2e71d68a3b935a1a5b23a4936018_v2&src=823,idfa_8F2D2F26-6EA3-4B92-B5B3-44FF844100ED,ko
SwAS2P2BTMSgBr6oVoSK6A,berrymob,2130_21997227,install,1.7,115.94.73.2,21986E14-9D56-4139-AD9D-8EF289F417BD,1558051357,2019-05-17 08:02:37,1558051466,2019-05-17 08:04:26,1558051496,20190517000227_45e1cc7edb97ae4db56fecf902432ef58674018_v2,http://postback.berrymobapi.com/postback/?tid=20190517000227_45e1cc7edb97ae4db56fecf902432ef58674018_v2&src=823,idfa_21986E14-9D56-4139-AD9D-8EF289F417BD,ko
SwAS2P2BTMSgBr6oVoSK6A,berrymob,2130_21997227,install,1.7,175.230.254.62,E036224D-E322-43CC-9EAF-EA952DD6DA46,1558661324,2019-05-24 09:28:44,1558661392,2019-05-24 09:29:52,1558661423,20190524012841_334274ba14cb6003d453a164904e75ac4580669_v2,http://postback.berrymobapi.com/postback/?tid=20190524012841_334274ba14cb6003d453a164904e75ac4580669_v2&src=823,idfa_E036224D-E322-43CC-9EAF-EA952DD6DA46,ko
SwAS2P2BTMSgBr6oVoSK6A,berrymob,2130_21997227,install,1.5,112.179.141.189,36DAE995-A9E3-4EB4-A313-1E5F617215E0,1557020603,2019-05-05 09:43:23,1557020734,2019-05-05 09:45:34,1557020782,20190505014315_b54e2b81ab1895d04905abb355251d0b1524247_v2,http://postback.berrymobapi.com/postback/?tid=20190505014315_b54e2b81ab1895d04905abb355251d0b1524247_v2&src=823,idfa_36DAE995-A9E3-4EB4-A313-1E5F617215E0,ko
SwAS2P2BTMSgBr6oVoSK6A,berrymob,2130_21997227,install,1.7,101.235.0.80,ABCBC34A-5556-41BA-AF8C-B93302E3EDFE,1558616346,2019-05-23 20:59:06,1558885492,2019-05-26 23:44:52,1558885524,20190523125900_54c93ba7a0daead911663504feb8684d7099244_v2,http://postback.berrymobapi.com/postback/?tid=20190523125900_54c93ba7a0daead911663504feb8684d7099244_v2&src=823,idfa_ABCBC34A-5556-41BA-AF8C-B93302E3EDFE,ko
SwAS2P2BTMSgBr6oVoSK6A,berrymob,2130_21997227,install,1.7,121.137.134.40,7D40B6CC-285D-420E-AE46-8A569202D231,1558659682,2019-05-24 09:01:22,1558659835,2019-05-24 09:03:55,1558659866,20190524010115_5531fca920d0cc757581120c8c89d1e03768943_v2,http://postback.berrymobapi.com/postback/?tid=20190524010115_5531fca920d0cc757581120c8c89d1e03768943_v2&src=823,idfa_7D40B6CC-285D-420E-AE46-8A569202D231,ko
SwAS2P2BTMSgBr6oVoSK6A,berrymob,2130_21997227,install,1.7,220.79.119.66,33981BC8-0A0E-4EF5-9115-9059DC190DB6,1557997315,2019-05-16 17:01:55,1557997394,2019-05-16 17:03:14,1557997424,20190516090151_240fd4fc0aed6984698f2b698e546aed7527553_v2,http://postback.berrymobapi.com/postback/?tid=20190516090151_240fd4fc0aed6984698f2b698e546aed7527553_v2&src=823,idfa_33981BC8-0A0E-4EF5-9115-9059DC190DB6,ko
SwAS2P2BTMSgBr6oVoSK6A,berrymob,2130_21997227,install,1.5,182.219.204.105,3DB41CB5-D2AD-415D-A547-B96D0FA4BA99,1557022262,2019-05-05 10:11:02,1557022366,2019-05-05 10:12:46,1557022396,20190505021057_c04cd2c28d2cb235df8dba0a030ab96f9623461_v2,http://postback.berrymobapi.com/postback/?tid=20190505021057_c04cd2c28d2cb235df8dba0a030ab96f9623461_v2&src=823,idfa_3DB41CB5-D2AD-415D-A547-B96D0FA4BA99,ko
SwAS2P2BTMSgBr6oVoSK6A,berrymob,2130_21997227,install,1.7,210.216.14.11,AC505D07-60B0-4035-BBD2-013DEB5E19C6,1558051341,2019-05-17 08:02:21,1558051463,2019-05-17 08:04:23,1558051494,20190517000214_7e92f0f0b8350371dc8942e6611f231f1623382_v2,http://postback.berrymobapi.com/postback/?tid=20190517000214_7e92f0f0b8350371dc8942e6611f231f1623382_v2&src=823,idfa_AC505D07-60B0-4035-BBD2-013DEB5E19C6,ko
SwAS2P2BTMSgBr6oVoSK6A,berrymob,2130_21997227,install,1.5,220.149.84.143,C6530FCB-CA13-4EBF-815D-99ED39C4449D,1557022875,2019-05-05 10:21:15,1557023025,2019-05-05 10:23:45,1557023055,20190505022059_7f34b5840a0af2876c9c382b5fc9a1246288166_v2,http://postback.berrymobapi.com/postback/?tid=20190505022059_7f34b5840a0af2876c9c382b5fc9a1246288166_v2&src=823,idfa_C6530FCB-CA13-4EBF-815D-99ED39C4449D,ko
SwAS2P2BTMSgBr6oVoSK6A,berrymob,2130_21997227,install,1.7,175.213.26.248,685AB8EE-F15D-44F3-906D-36D4FCFCE98A,1558660528,2019-05-24 09:15:28,1558660624,2019-05-24 09:17:04,1558660654,20190524011526_e60bc18d9346cf0c19bac75e77f07e4f3131361_v2,http://postback.berrymobapi.com/postback/?tid=20190524011526_e60bc18d9346cf0c19bac75e77f07e4f3131361_v2&src=823,idfa_685AB8EE-F15D-44F3-906D-36D4FCFCE98A,ko
