cid,partner_id,channel_id,action_id,cpi,ip,idfa,click time,click datetime,install time,install datetime,postback time,click id,postback url,unique user id
j3P58eOkT_eKBdVAwPUd8A,berrymob,2151_22118885,Install,1.0,39.7.18.236,e88f7d6d-60e8-4f2e-a371-3d30b6b8c4a7,1557610584,2019-05-12 05:36:24,1557610626,2019-05-12 05:37:06,1557610657,20190511213622_993aa62b941b4fe9f95cb266bbb505dc3106136_v2,http://postback.berrymobapi.com/postback/?tid=20190511213622_993aa62b941b4fe9f95cb266bbb505dc3106136_v2&src=823,idfa_e88f7d6d-60e8-4f2e-a371-3d30b6b8c4a7,%ED%95%9C%EA%B5%AD%EC%96%B4
j3P58eOkT_eKBdVAwPUd8A,berrymob,2151_22118885,Install,1.0,123.254.226.170,ed5fe8b9-9de6-4fb4-be90-bdeb68a8f329,1557609589,2019-05-12 05:19:49,1557609628,2019-05-12 05:20:28,1557609659,20190511211946_b24e0cd5c479462aebd518351d8ae7dc5077665_v2,http://postback.berrymobapi.com/postback/?tid=20190511211946_b24e0cd5c479462aebd518351d8ae7dc5077665_v2&src=823,idfa_ed5fe8b9-9de6-4fb4-be90-bdeb68a8f329,%ED%95%9C%EA%B5%AD%EC%96%B4
j3P58eOkT_eKBdVAwPUd8A,berrymob,2151_22118885,Install,1.0,14.51.25.120,14f30da7-9832-4edd-a403-fac8564f8689,1557610529,2019-05-12 05:35:29,1557610575,2019-05-12 05:36:15,1557610607,20190511213527_15c20a068bc3de0773165510781714ee1969158_v2,http://postback.berrymobapi.com/postback/?tid=20190511213527_15c20a068bc3de0773165510781714ee1969158_v2&src=823,idfa_14f30da7-9832-4edd-a403-fac8564f8689,%ED%95%9C%EA%B5%AD%EC%96%B4
j3P58eOkT_eKBdVAwPUd8A,berrymob,2151_22118885,Install,1.0,175.223.20.42,562cfa29-1b7f-48d9-a70e-e720f12179f6,1557609677,2019-05-12 05:21:17,1557609718,2019-05-12 05:21:58,1557609749,20190511212114_07472f43b333504c992316cf3fbc8fac7687082_v2,http://postback.berrymobapi.com/postback/?tid=20190511212114_07472f43b333504c992316cf3fbc8fac7687082_v2&src=823,idfa_562cfa29-1b7f-48d9-a70e-e720f12179f6,%ED%95%9C%EA%B5%AD%EC%96%B4
j3P58eOkT_eKBdVAwPUd8A,berrymob,2151_22118885,Install,1.0,14.45.10.147,9b6d3c6e-e38c-4d16-ab8b-c1c46e660c24,1557609519,2019-05-12 05:18:39,1557609566,2019-05-12 05:19:26,1557609597,20190511211837_89ae8817831afe8694e17dff002740dc1820914_v2,http://postback.berrymobapi.com/postback/?tid=20190511211837_89ae8817831afe8694e17dff002740dc1820914_v2&src=823,idfa_9b6d3c6e-e38c-4d16-ab8b-c1c46e660c24,%ED%95%9C%EA%B5%AD%EC%96%B4
j3P58eOkT_eKBdVAwPUd8A,berrymob,2151_22118885,Install,1.0,211.184.254.92,76538719-a777-47bd-b209-8f6dc7dfacfc,1557609394,2019-05-12 05:16:34,1557609436,2019-05-12 05:17:16,1557609467,20190511211632_fa9571532d755e584e446386d30125b69681605_v2,http://postback.berrymobapi.com/postback/?tid=20190511211632_fa9571532d755e584e446386d30125b69681605_v2&src=823,idfa_76538719-a777-47bd-b209-8f6dc7dfacfc,%ED%95%9C%EA%B5%AD%EC%96%B4
j3P58eOkT_eKBdVAwPUd8A,berrymob,2151_22118885,Install,1.0,175.116.186.60,00553f00-7e80-4e7d-aae9-a17eec8cb63b,1557500519,2019-05-10 23:01:59,1557500574,2019-05-10 23:02:54,1557500777,20190510150157_02639aa62d5fbfe308eba301007c790f9654699_v2,http://postback.berrymobapi.com/postback/?tid=20190510150157_02639aa62d5fbfe308eba301007c790f9654699_v2&src=823,idfa_00553f00-7e80-4e7d-aae9-a17eec8cb63b,%ED%95%9C%EA%B5%AD%EC%96%B4
j3P58eOkT_eKBdVAwPUd8A,berrymob,2151_22118885,Install,1.0,175.197.140.26,e4dbc269-19ac-496a-9ee9-a5979210912e,1557608984,2019-05-12 05:09:44,1557609036,2019-05-12 05:10:36,1557609067,20190511210942_5458adfc36f469ede4cd3fd91b7c43c98668550_v2,http://postback.berrymobapi.com/postback/?tid=20190511210942_5458adfc36f469ede4cd3fd91b7c43c98668550_v2&src=823,idfa_e4dbc269-19ac-496a-9ee9-a5979210912e,%ED%95%9C%EA%B5%AD%EC%96%B4
j3P58eOkT_eKBdVAwPUd8A,berrymob,2151_22118885,Install,1.0,119.70.8.8,ce8b00f2-4ff0-40b2-9525-6285b509490b,1557609554,2019-05-12 05:19:14,1557609763,2019-05-12 05:22:43,1557609796,20190511211912_b6f8369be891258f22234b747124e2b79297153_v2,http://postback.berrymobapi.com/postback/?tid=20190511211912_b6f8369be891258f22234b747124e2b79297153_v2&src=823,idfa_ce8b00f2-4ff0-40b2-9525-6285b509490b,%ED%95%9C%EA%B5%AD%EC%96%B4
j3P58eOkT_eKBdVAwPUd8A,berrymob,2151_22118885,Install,1.0,223.38.17.93,9c829854-9950-4c10-8cf0-9e8c31efe14d,1557609315,2019-05-12 05:15:15,1557609353,2019-05-12 05:15:53,1557609384,20190511211512_f9fd2474b663e674ad0f37eee755b4c11798965_v2,http://postback.berrymobapi.com/postback/?tid=20190511211512_f9fd2474b663e674ad0f37eee755b4c11798965_v2&src=823,idfa_9c829854-9950-4c10-8cf0-9e8c31efe14d,%ED%95%9C%EA%B5%AD%EC%96%B4
j3P58eOkT_eKBdVAwPUd8A,berrymob,2151_22118885,Install,1.0,223.62.21.57,e7ab7a5a-53ef-4c3d-9ffc-c85c93c5a479,1557609524,2019-05-12 05:18:44,1557609561,2019-05-12 05:19:21,1557609593,20190511211841_5c095fb9e704dda31e8333be77c9e6c56332183_v2,http://postback.berrymobapi.com/postback/?tid=20190511211841_5c095fb9e704dda31e8333be77c9e6c56332183_v2&src=823,idfa_e7ab7a5a-53ef-4c3d-9ffc-c85c93c5a479,%ED%95%9C%EA%B5%AD%EC%96%B4
j3P58eOkT_eKBdVAwPUd8A,berrymob,2151_22118885,Install,1.0,220.80.209.34,1026aa8f-dcf8-4b89-b150-c40bc90eab6a,1557527527,2019-05-11 06:32:07,1557527592,2019-05-11 06:33:12,1557527623,20190510223204_52279e267dce445dca3cd1aa70ede8436290459_v2,http://postback.berrymobapi.com/postback/?tid=20190510223204_52279e267dce445dca3cd1aa70ede8436290459_v2&src=823,idfa_1026aa8f-dcf8-4b89-b150-c40bc90eab6a,%ED%95%9C%EA%B5%AD%EC%96%B4
j3P58eOkT_eKBdVAwPUd8A,berrymob,2151_22118885,Install,1.0,61.105.44.47,f83d6fe2-24a1-426f-a845-7e6be8d0ad81,1557528156,2019-05-11 06:42:36,1557528197,2019-05-11 06:43:17,1557528227,20190510224236_b5f327019fb7e8eaf5823cca0d6786518442933_v2,http://postback.berrymobapi.com/postback/?tid=20190510224236_b5f327019fb7e8eaf5823cca0d6786518442933_v2&src=823,idfa_f83d6fe2-24a1-426f-a845-7e6be8d0ad81,%ED%95%9C%EA%B5%AD%EC%96%B4
j3P58eOkT_eKBdVAwPUd8A,berrymob,2151_22118885,Install,1.0,1.240.35.157,fb11c327-c5da-4917-839c-d95f47b25766,1557494166,2019-05-10 21:16:06,1557494208,2019-05-10 21:16:48,1557494239,20190510131604_92c4dfb54dcf8ed841f01322ea621d405126968_v2,http://postback.berrymobapi.com/postback/?tid=20190510131604_92c4dfb54dcf8ed841f01322ea621d405126968_v2&src=823,idfa_fb11c327-c5da-4917-839c-d95f47b25766,%ED%95%9C%EA%B5%AD%EC%96%B4
j3P58eOkT_eKBdVAwPUd8A,berrymob,2151_22118885,Install,1.0,14.53.57.168,e856cc06-f34c-4f84-bc8b-be55183b70f6,1557607753,2019-05-12 04:49:13,1557607792,2019-05-12 04:49:52,1557607822,20190511204909_85cdeb1a506cb4868f7733742bc9c5463215344_v2,http://postback.berrymobapi.com/postback/?tid=20190511204909_85cdeb1a506cb4868f7733742bc9c5463215344_v2&src=823,idfa_e856cc06-f34c-4f84-bc8b-be55183b70f6,%ED%95%9C%EA%B5%AD%EC%96%B4
j3P58eOkT_eKBdVAwPUd8A,berrymob,2151_22118885,Install,1.0,122.46.173.241,a9f9d3af-5d59-45c6-965f-e7a1383c39d2,1557493924,2019-05-10 21:12:04,1557493969,2019-05-10 21:12:49,1557494001,20190510131202_a2a83012fb944ba24557bb9cbd28b5793242128_v2,http://postback.berrymobapi.com/postback/?tid=20190510131202_a2a83012fb944ba24557bb9cbd28b5793242128_v2&src=823,idfa_a9f9d3af-5d59-45c6-965f-e7a1383c39d2,%ED%95%9C%EA%B5%AD%EC%96%B4
j3P58eOkT_eKBdVAwPUd8A,berrymob,2151_22118885,Install,1.0,175.223.34.141,4b43ed4a-3b6c-4128-90da-8b7fc2e70dd5,1557607760,2019-05-12 04:49:20,1557607797,2019-05-12 04:49:57,1557607828,20190511204918_5ece280a006a06db845c6591131a1a923906522_v2,http://postback.berrymobapi.com/postback/?tid=20190511204918_5ece280a006a06db845c6591131a1a923906522_v2&src=823,idfa_4b43ed4a-3b6c-4128-90da-8b7fc2e70dd5,%ED%95%9C%EA%B5%AD%EC%96%B4
j3P58eOkT_eKBdVAwPUd8A,berrymob,2151_22118885,Install,1.0,175.223.3.44,2d335e84-20eb-42ca-853b-e68821ea33f2,1557528344,2019-05-11 06:45:44,1557528385,2019-05-11 06:46:25,1557528416,20190510224542_8c17cef4ace50b2e7069ff4ac3482e608113263_v2,http://postback.berrymobapi.com/postback/?tid=20190510224542_8c17cef4ace50b2e7069ff4ac3482e608113263_v2&src=823,idfa_2d335e84-20eb-42ca-853b-e68821ea33f2,%ED%95%9C%EA%B5%AD%EC%96%B4
j3P58eOkT_eKBdVAwPUd8A,berrymob,2151_22118885,Install,1.0,223.39.138.80,ba870ade-7c03-483e-ac2f-d49e8d5d4b04,1557530166,2019-05-11 07:16:06,1557530214,2019-05-11 07:16:54,1557530245,20190510231604_a068b6c92f3561b7bc7ba1f2c1ab0cb08300356_v2,http://postback.berrymobapi.com/postback/?tid=20190510231604_a068b6c92f3561b7bc7ba1f2c1ab0cb08300356_v2&src=823,idfa_ba870ade-7c03-483e-ac2f-d49e8d5d4b04,%ED%95%9C%EA%B5%AD%EC%96%B4
j3P58eOkT_eKBdVAwPUd8A,berrymob,2151_22118885,Install,1.0,211.243.171.57,2643fa34-1643-43fb-bb91-143a06b29998,1557608381,2019-05-12 04:59:41,1557608440,2019-05-12 05:00:40,1557608471,20190511205939_1a07287d9024b728364f67caefc7a2e41109681_v2,http://postback.berrymobapi.com/postback/?tid=20190511205939_1a07287d9024b728364f67caefc7a2e41109681_v2&src=823,idfa_2643fa34-1643-43fb-bb91-143a06b29998,%ED%95%9C%EA%B5%AD%EC%96%B4
j3P58eOkT_eKBdVAwPUd8A,berrymob,2151_22118885,Install,1.0,59.14.120.194,9d71f380-12ea-47f7-957d-23dada093ee0,1557486073,2019-05-10 19:01:13,1557487423,2019-05-10 19:23:43,1557487455,20190510110111_b2bc936eca75080f4db71315c417260a3082305_v2,http://postback.berrymobapi.com/postback/?tid=20190510110111_b2bc936eca75080f4db71315c417260a3082305_v2&src=823,idfa_9d71f380-12ea-47f7-957d-23dada093ee0,%ED%95%9C%EA%B5%AD%EC%96%B4
j3P58eOkT_eKBdVAwPUd8A,berrymob,2151_22118885,Install,1.0,1.236.59.222,fdfe8c56-51ee-4d8f-adde-a9a0b3a3f903,1557490687,2019-05-10 20:18:07,1557490732,2019-05-10 20:18:52,1557490765,20190510121805_2ae7b26f0167e195298d6afe84b0f5d77743910_v2,http://postback.berrymobapi.com/postback/?tid=20190510121805_2ae7b26f0167e195298d6afe84b0f5d77743910_v2&src=823,idfa_fdfe8c56-51ee-4d8f-adde-a9a0b3a3f903,%ED%95%9C%EA%B5%AD%EC%96%B4
j3P58eOkT_eKBdVAwPUd8A,berrymob,2151_22118885,Install,1.0,113.30.42.200,85be5601-74d7-4cb0-a9b2-1b669452e199,1557609197,2019-05-12 05:13:17,1557609445,2019-05-12 05:17:25,1557609476,20190511211315_fd9150c71fd077c978f39161201c7cdb5602530_v2,http://postback.berrymobapi.com/postback/?tid=20190511211315_fd9150c71fd077c978f39161201c7cdb5602530_v2&src=823,idfa_85be5601-74d7-4cb0-a9b2-1b669452e199,%ED%95%9C%EA%B5%AD%EC%96%B4
j3P58eOkT_eKBdVAwPUd8A,berrymob,2151_22118885,Install,1.0,110.35.62.71,1820fc54-d4ec-4e58-8cdd-8dc2f06232ac,1557609253,2019-05-12 05:14:13,1557609296,2019-05-12 05:14:56,1557609327,20190511211411_4056d0067a4e958f52c653647b11228b6746080_v2,http://postback.berrymobapi.com/postback/?tid=20190511211411_4056d0067a4e958f52c653647b11228b6746080_v2&src=823,idfa_1820fc54-d4ec-4e58-8cdd-8dc2f06232ac,%ED%95%9C%EA%B5%AD%EC%96%B4
j3P58eOkT_eKBdVAwPUd8A,berrymob,2151_22118885,Install,1.0,182.221.56.95,3ce812c8-9f1c-4770-94d6-2e0ed11c8d98,1557610255,2019-05-12 05:30:55,1557610297,2019-05-12 05:31:37,1557610329,20190511213053_fb5cd00c02f13519207dfc9c1b56a66f7813780_v2,http://postback.berrymobapi.com/postback/?tid=20190511213053_fb5cd00c02f13519207dfc9c1b56a66f7813780_v2&src=823,idfa_3ce812c8-9f1c-4770-94d6-2e0ed11c8d98,%ED%95%9C%EA%B5%AD%EC%96%B4
j3P58eOkT_eKBdVAwPUd8A,berrymob,2151_22118885,Install,1.0,49.174.171.86,32bc50f5-2789-4833-b01f-f01ded8b983e,1557485223,2019-05-10 18:47:03,1557485281,2019-05-10 18:48:01,1557485311,20190510104701_1e2a461817f4f630049b7a689844818e7498747_v2,http://postback.berrymobapi.com/postback/?tid=20190510104701_1e2a461817f4f630049b7a689844818e7498747_v2&src=823,idfa_32bc50f5-2789-4833-b01f-f01ded8b983e,%ED%95%9C%EA%B5%AD%EC%96%B4
j3P58eOkT_eKBdVAwPUd8A,berrymob,2151_22118885,Install,1.0,106.247.69.67,cf49b285-21a4-4ebf-81f5-a4ac40948a5d,1557609278,2019-05-12 05:14:38,1557609323,2019-05-12 05:15:23,1557609354,20190511211436_a4b64bd893e33ab0f68dc714836c000c5480659_v2,http://postback.berrymobapi.com/postback/?tid=20190511211436_a4b64bd893e33ab0f68dc714836c000c5480659_v2&src=823,idfa_cf49b285-21a4-4ebf-81f5-a4ac40948a5d,%ED%95%9C%EA%B5%AD%EC%96%B4
j3P58eOkT_eKBdVAwPUd8A,berrymob,2151_22118885,Install,1.0,117.111.13.103,c8e1b7cd-7046-4bd5-94ae-bd3d20da850b,1557462328,2019-05-10 12:25:28,1557462372,2019-05-10 12:26:12,1557462404,20190510042526_623de739610f891519972153a14732c75275717_v2,http://postback.berrymobapi.com/postback/?tid=20190510042526_623de739610f891519972153a14732c75275717_v2&src=823,idfa_c8e1b7cd-7046-4bd5-94ae-bd3d20da850b,%ED%95%9C%EA%B5%AD%EC%96%B4
j3P58eOkT_eKBdVAwPUd8A,berrymob,2151_22118885,Install,1.0,122.35.127.197,57d584b0-59f2-4041-9f3d-f66037fbea8a,1557609317,2019-05-12 05:15:17,1557609501,2019-05-12 05:18:21,1557609533,20190511211514_b32f66262165c470ed6c5770679409909965743_v2,http://postback.berrymobapi.com/postback/?tid=20190511211514_b32f66262165c470ed6c5770679409909965743_v2&src=823,idfa_57d584b0-59f2-4041-9f3d-f66037fbea8a,%ED%95%9C%EA%B5%AD%EC%96%B4
j3P58eOkT_eKBdVAwPUd8A,berrymob,2151_22118885,Install,1.0,59.9.97.146,efc727bb-3bf1-46fb-a9c4-85e37e77b640,1557609472,2019-05-12 05:17:52,1557609528,2019-05-12 05:18:48,1557609559,20190511211750_21f2f46cd65ec6d49c2339269ac583552278533_v2,http://postback.berrymobapi.com/postback/?tid=20190511211750_21f2f46cd65ec6d49c2339269ac583552278533_v2&src=823,idfa_efc727bb-3bf1-46fb-a9c4-85e37e77b640,%ED%95%9C%EA%B5%AD%EC%96%B4
j3P58eOkT_eKBdVAwPUd8A,berrymob,2151_22118885,Install,1.0,175.223.3.27,bb55fcb4-df13-4f92-b045-477758772f8b,1557610586,2019-05-12 05:36:26,1557610629,2019-05-12 05:37:09,1557610660,20190511213623_94f50ce0fa24610593a60e3937e523ab9120258_v2,http://postback.berrymobapi.com/postback/?tid=20190511213623_94f50ce0fa24610593a60e3937e523ab9120258_v2&src=823,idfa_bb55fcb4-df13-4f92-b045-477758772f8b,%ED%95%9C%EA%B5%AD%EC%96%B4
j3P58eOkT_eKBdVAwPUd8A,berrymob,2151_22118885,Install,1.0,223.62.203.147,b9516ac7-e86a-438e-90cc-de30abdacd3f,1557608934,2019-05-12 05:08:54,1557608981,2019-05-12 05:09:41,1557609011,20190511210852_3599ae34e3b59127ea3a5418c7b63c066772185_v2,http://postback.berrymobapi.com/postback/?tid=20190511210852_3599ae34e3b59127ea3a5418c7b63c066772185_v2&src=823,idfa_b9516ac7-e86a-438e-90cc-de30abdacd3f,%ED%95%9C%EA%B5%AD%EC%96%B4
j3P58eOkT_eKBdVAwPUd8A,berrymob,2151_22118885,Install,1.0,106.102.128.206,542efe10-17c6-4cb6-a3d3-9a169be5aaa1,1557463269,2019-05-10 12:41:09,1557463308,2019-05-10 12:41:48,1557463338,20190510044106_813cea36dd4401733f32f1d4835241866095947_v2,http://postback.berrymobapi.com/postback/?tid=20190510044106_813cea36dd4401733f32f1d4835241866095947_v2&src=823,idfa_542efe10-17c6-4cb6-a3d3-9a169be5aaa1,%ED%95%9C%EA%B5%AD%EC%96%B4
j3P58eOkT_eKBdVAwPUd8A,berrymob,2151_22118885,Install,1.0,218.239.107.56,01cae613-cde5-4ddb-b450-c35c02a311e3,1557499619,2019-05-10 22:46:59,1557499664,2019-05-10 22:47:44,1557499784,20190510144657_b585c9f45e1ab424d59551849bf775082398301_v2,http://postback.berrymobapi.com/postback/?tid=20190510144657_b585c9f45e1ab424d59551849bf775082398301_v2&src=823,idfa_01cae613-cde5-4ddb-b450-c35c02a311e3,%ED%95%9C%EA%B5%AD%EC%96%B4
j3P58eOkT_eKBdVAwPUd8A,berrymob,2151_22118885,Install,1.0,14.38.71.224,86b3fc21-f5b7-4e61-893f-33396b2993b7,1557607759,2019-05-12 04:49:19,1557607804,2019-05-12 04:50:04,1557607835,20190511204917_be710d859d8a4ce7081c7d475e88d7069396467_v2,http://postback.berrymobapi.com/postback/?tid=20190511204917_be710d859d8a4ce7081c7d475e88d7069396467_v2&src=823,idfa_86b3fc21-f5b7-4e61-893f-33396b2993b7,%ED%95%9C%EA%B5%AD%EC%96%B4
j3P58eOkT_eKBdVAwPUd8A,berrymob,2151_22118885,Install,1.0,203.234.191.2,3fb6e5fe-25b5-430b-8cb9-b36970036b34,1557494210,2019-05-10 21:16:50,1557494255,2019-05-10 21:17:35,1557494290,20190510131647_b593f1bf5a23de05ea8584a7041859236593916_v2,http://postback.berrymobapi.com/postback/?tid=20190510131647_b593f1bf5a23de05ea8584a7041859236593916_v2&src=823,idfa_3fb6e5fe-25b5-430b-8cb9-b36970036b34,%ED%95%9C%EA%B5%AD%EC%96%B4
j3P58eOkT_eKBdVAwPUd8A,berrymob,2151_22118885,Install,1.0,112.167.197.19,575561b4-d58e-4252-9535-2590aaaf919d,1557608939,2019-05-12 05:08:59,1557609007,2019-05-12 05:10:07,1557609037,20190511210857_2f2bdba136b775d5520770f012c6adb61287441_v2,http://postback.berrymobapi.com/postback/?tid=20190511210857_2f2bdba136b775d5520770f012c6adb61287441_v2&src=823,idfa_575561b4-d58e-4252-9535-2590aaaf919d,%ED%95%9C%EA%B5%AD%EC%96%B4
j3P58eOkT_eKBdVAwPUd8A,berrymob,2151_22118885,Install,1.0,121.153.208.142,a333101b-b008-45a6-95d0-65844de45c36,1557610101,2019-05-12 05:28:21,1557610432,2019-05-12 05:33:52,1557610464,20190511212818_8cb43a426e5d74811ab9b0b63509f7f61060893_v2,http://postback.berrymobapi.com/postback/?tid=20190511212818_8cb43a426e5d74811ab9b0b63509f7f61060893_v2&src=823,idfa_a333101b-b008-45a6-95d0-65844de45c36,%ED%95%9C%EA%B5%AD%EC%96%B4
j3P58eOkT_eKBdVAwPUd8A,berrymob,2151_22118885,Install,1.0,223.38.27.145,cc3508f7-673f-4f24-bef2-421392e8bd65,1557528068,2019-05-11 06:41:08,1557528110,2019-05-11 06:41:50,1557528140,20190510224105_76fa5ba20f2fc597a9eacec223690b905775008_v2,http://postback.berrymobapi.com/postback/?tid=20190510224105_76fa5ba20f2fc597a9eacec223690b905775008_v2&src=823,idfa_cc3508f7-673f-4f24-bef2-421392e8bd65,%ED%95%9C%EA%B5%AD%EC%96%B4
j3P58eOkT_eKBdVAwPUd8A,berrymob,2151_22118885,Install,1.1,175.223.18.98,7572f9da-6e52-495e-be68-27d783c57672,1557134258,2019-05-06 17:17:38,1557134303,2019-05-06 17:18:23,1557134333,20190506091736_6dafd31014283cdb1c57c80a69f7be586974453_v2,http://postback.berrymobapi.com/postback/?tid=20190506091736_6dafd31014283cdb1c57c80a69f7be586974453_v2&src=823,idfa_7572f9da-6e52-495e-be68-27d783c57672,%ED%95%9C%EA%B5%AD%EC%96%B4
j3P58eOkT_eKBdVAwPUd8A,berrymob,2151_22118885,Install,1.0,220.86.26.129,cc2e0ad2-a6cf-4c2d-b728-beadff5ea406,1557488288,2019-05-10 19:38:08,1557490661,2019-05-10 20:17:41,1557490901,20190510113806_8fed2bbf5f7c3424beb27830211e72886321983_v2,http://postback.berrymobapi.com/postback/?tid=20190510113806_8fed2bbf5f7c3424beb27830211e72886321983_v2&src=823,idfa_cc2e0ad2-a6cf-4c2d-b728-beadff5ea406,%ED%95%9C%EA%B5%AD%EC%96%B4
j3P58eOkT_eKBdVAwPUd8A,berrymob,2151_22118885,Install,1.0,222.118.101.144,5710f07e-be74-4fd7-88cc-88024b98dd20,1557485269,2019-05-10 18:47:49,1557486196,2019-05-10 19:03:16,1557486228,20190510104747_d5f52c9b91631f4a746b699ea285b4ec1817526_v2,http://postback.berrymobapi.com/postback/?tid=20190510104747_d5f52c9b91631f4a746b699ea285b4ec1817526_v2&src=823,idfa_5710f07e-be74-4fd7-88cc-88024b98dd20,%ED%95%9C%EA%B5%AD%EC%96%B4
j3P58eOkT_eKBdVAwPUd8A,berrymob,2151_22118885,Install,1.0,175.223.23.236,468ea3bb-8080-4000-92e6-8131c3b053fe,1557609331,2019-05-12 05:15:31,1557609373,2019-05-12 05:16:13,1557609404,20190511211529_46b2d6907f82f9fa6a92bd694fc3db821321450_v2,http://postback.berrymobapi.com/postback/?tid=20190511211529_46b2d6907f82f9fa6a92bd694fc3db821321450_v2&src=823,idfa_468ea3bb-8080-4000-92e6-8131c3b053fe,%ED%95%9C%EA%B5%AD%EC%96%B4
j3P58eOkT_eKBdVAwPUd8A,berrymob,2151_22118885,Install,1.1,223.62.163.100,f70c8e7b-1094-4352-91ac-9e7ab2c3160e,1557133443,2019-05-06 17:04:03,1557133560,2019-05-06 17:06:00,1557133591,20190506090402_3aa3a8dad2672c767717032f23d527227427274_v2,http://postback.berrymobapi.com/postback/?tid=20190506090402_3aa3a8dad2672c767717032f23d527227427274_v2&src=823,idfa_f70c8e7b-1094-4352-91ac-9e7ab2c3160e,%ED%95%9C%EA%B5%AD%EC%96%B4
j3P58eOkT_eKBdVAwPUd8A,berrymob,2151_22118885,Install,1.0,223.62.204.188,8d626ee4-1eff-40d5-93f1-083fdd277fc0,1557610334,2019-05-12 05:32:14,1557610375,2019-05-12 05:32:55,1557610406,20190511213211_622f679fec9cee1b369960113ccb67885374027_v2,http://postback.berrymobapi.com/postback/?tid=20190511213211_622f679fec9cee1b369960113ccb67885374027_v2&src=823,idfa_8d626ee4-1eff-40d5-93f1-083fdd277fc0,%ED%95%9C%EA%B5%AD%EC%96%B4
j3P58eOkT_eKBdVAwPUd8A,berrymob,2151_22118885,Install,1.0,59.31.34.112,a74ea08d-3616-452a-971e-3f4e48a0e49d,1557609086,2019-05-12 05:11:26,1557609123,2019-05-12 05:12:03,1557609155,20190511211123_934d9dd754145ddc6321728374ae8e425381591_v2,http://postback.berrymobapi.com/postback/?tid=20190511211123_934d9dd754145ddc6321728374ae8e425381591_v2&src=823,idfa_a74ea08d-3616-452a-971e-3f4e48a0e49d,%ED%95%9C%EA%B5%AD%EC%96%B4
j3P58eOkT_eKBdVAwPUd8A,berrymob,2151_22118885,Install,1.0,112.148.50.105,6de05308-877e-41b1-aaeb-427c597c525e,1557609066,2019-05-12 05:11:06,1557609168,2019-05-12 05:12:48,1557609199,20190511211104_ab38d2fa384b239071806df6b95a394f8563902_v2,http://postback.berrymobapi.com/postback/?tid=20190511211104_ab38d2fa384b239071806df6b95a394f8563902_v2&src=823,idfa_6de05308-877e-41b1-aaeb-427c597c525e,%ED%95%9C%EA%B5%AD%EC%96%B4
j3P58eOkT_eKBdVAwPUd8A,berrymob,2151_22118885,Install,1.0,124.54.73.18,5a51f645-1ef6-4dcb-9eae-bd0fd4cbdea7,1557609384,2019-05-12 05:16:24,1557609428,2019-05-12 05:17:08,1557609459,20190511211622_d115795549bf94d235905182823bbf8b6113072_v2,http://postback.berrymobapi.com/postback/?tid=20190511211622_d115795549bf94d235905182823bbf8b6113072_v2&src=823,idfa_5a51f645-1ef6-4dcb-9eae-bd0fd4cbdea7,%ED%95%9C%EA%B5%AD%EC%96%B4
j3P58eOkT_eKBdVAwPUd8A,berrymob,2151_22118885,Install,1.0,110.9.22.204,691f821f-183e-4a3f-b2e1-cec1cb4eaf1b,1557610638,2019-05-12 05:37:18,1557610680,2019-05-12 05:38:00,1557610712,20190511213716_3b2e8e6a9ea96e898f22d6c117b09c909654609_v2,http://postback.berrymobapi.com/postback/?tid=20190511213716_3b2e8e6a9ea96e898f22d6c117b09c909654609_v2&src=823,idfa_691f821f-183e-4a3f-b2e1-cec1cb4eaf1b,%ED%95%9C%EA%B5%AD%EC%96%B4
j3P58eOkT_eKBdVAwPUd8A,berrymob,2151_22118885,Install,1.0,1.247.89.165,495fb60a-102b-49df-9786-ad04f81df33b,1557609728,2019-05-12 05:22:08,1557609776,2019-05-12 05:22:56,1557609807,20190511212206_d09c4f2637a2f2cf03de669477424f9e4465896_v2,http://postback.berrymobapi.com/postback/?tid=20190511212206_d09c4f2637a2f2cf03de669477424f9e4465896_v2&src=823,idfa_495fb60a-102b-49df-9786-ad04f81df33b,%ED%95%9C%EA%B5%AD%EC%96%B4
j3P58eOkT_eKBdVAwPUd8A,berrymob,2151_22118885,Install,1.0,182.227.247.52,be9083a4-e677-40b9-b7cd-50214cca12f4,1557609880,2019-05-12 05:24:40,1557609923,2019-05-12 05:25:23,1557609955,20190511212439_910f9b30e6e9353d7996ca0fbb2cc4666560078_v2,http://postback.berrymobapi.com/postback/?tid=20190511212439_910f9b30e6e9353d7996ca0fbb2cc4666560078_v2&src=823,idfa_be9083a4-e677-40b9-b7cd-50214cca12f4,%ED%95%9C%EA%B5%AD%EC%96%B4
j3P58eOkT_eKBdVAwPUd8A,berrymob,2151_22118885,Install,1.0,58.238.226.53,ee004329-6cb7-4f77-8abf-96cb9cc79579,1557528215,2019-05-11 06:43:35,1557528259,2019-05-11 06:44:19,1557528291,20190510224333_eb875f2b363e059cea017fc47dd5dc577778551_v2,http://postback.berrymobapi.com/postback/?tid=20190510224333_eb875f2b363e059cea017fc47dd5dc577778551_v2&src=823,idfa_ee004329-6cb7-4f77-8abf-96cb9cc79579,%ED%95%9C%EA%B5%AD%EC%96%B4
j3P58eOkT_eKBdVAwPUd8A,berrymob,2151_22118885,Install,1.0,121.67.77.253,c005e5c5-1342-4466-aa0d-38fa08306359,1557463609,2019-05-10 12:46:49,1557463651,2019-05-10 12:47:31,1557463684,20190510044647_4fc6ea790d298e4e12c09197c9ca259e1535313_v2,http://postback.berrymobapi.com/postback/?tid=20190510044647_4fc6ea790d298e4e12c09197c9ca259e1535313_v2&src=823,idfa_c005e5c5-1342-4466-aa0d-38fa08306359,%ED%95%9C%EA%B5%AD%EC%96%B4
j3P58eOkT_eKBdVAwPUd8A,berrymob,2151_22118885,Install,1.0,223.62.162.49,b9a6a38b-eb26-4b5b-b056-9e5c058d305c,1557607755,2019-05-12 04:49:15,1557607801,2019-05-12 04:50:01,1557607832,20190511204913_2563ccb71f21751449f41104c3a7d86f2261334_v2,http://postback.berrymobapi.com/postback/?tid=20190511204913_2563ccb71f21751449f41104c3a7d86f2261334_v2&src=823,idfa_b9a6a38b-eb26-4b5b-b056-9e5c058d305c,%ED%95%9C%EA%B5%AD%EC%96%B4
j3P58eOkT_eKBdVAwPUd8A,berrymob,2151_22118885,Install,1.1,175.113.145.40,76823e4d-fdef-4372-a6a7-a3d6b8a5b054,1557134790,2019-05-06 17:26:30,1557134836,2019-05-06 17:27:16,1557134867,20190506092630_00a47074698cea0d75b076cc0cdfa6e11944027_v2,http://postback.berrymobapi.com/postback/?tid=20190506092630_00a47074698cea0d75b076cc0cdfa6e11944027_v2&src=823,idfa_76823e4d-fdef-4372-a6a7-a3d6b8a5b054,%ED%95%9C%EA%B5%AD%EC%96%B4
j3P58eOkT_eKBdVAwPUd8A,berrymob,2151_22118885,Install,1.0,121.88.209.75,e6e67d15-0e7c-437f-80eb-c8d5bb164aed,1557609956,2019-05-12 05:25:56,1557610002,2019-05-12 05:26:42,1557610034,20190511212554_7a642531cb8d8b033151460eaad727952241500_v2,http://postback.berrymobapi.com/postback/?tid=20190511212554_7a642531cb8d8b033151460eaad727952241500_v2&src=823,idfa_e6e67d15-0e7c-437f-80eb-c8d5bb164aed,%ED%95%9C%EA%B5%AD%EC%96%B4
j3P58eOkT_eKBdVAwPUd8A,berrymob,2151_22118885,Install,1.0,49.169.56.239,d3243e01-b805-4dff-aa1d-5aded539d77a,1557610584,2019-05-12 05:36:24,1557610632,2019-05-12 05:37:12,1557610663,20190511213622_e925bc08a97e3f508c14c87b22590b0e5946217_v2,http://postback.berrymobapi.com/postback/?tid=20190511213622_e925bc08a97e3f508c14c87b22590b0e5946217_v2&src=823,idfa_d3243e01-b805-4dff-aa1d-5aded539d77a,%ED%95%9C%EA%B5%AD%EC%96%B4
j3P58eOkT_eKBdVAwPUd8A,berrymob,2151_22118885,Install,1.0,119.69.233.54,48beaf8d-c260-4eb0-bca8-5dcb0a52984e,1557494209,2019-05-10 21:16:49,1557494249,2019-05-10 21:17:29,1557494280,20190510131647_0f47a1e76cb89535e3237a71c14b21472344556_v2,http://postback.berrymobapi.com/postback/?tid=20190510131647_0f47a1e76cb89535e3237a71c14b21472344556_v2&src=823,idfa_48beaf8d-c260-4eb0-bca8-5dcb0a52984e,%ED%95%9C%EA%B5%AD%EC%96%B4
j3P58eOkT_eKBdVAwPUd8A,berrymob,2151_22118885,Install,1.0,116.38.236.224,d6578f39-b137-4b48-9e55-6ae1645b9e22,1557607756,2019-05-12 04:49:16,1557607794,2019-05-12 04:49:54,1557607825,20190511204911_25b1e5e8e6c316745613d5ed727cb2324197656_v2,http://postback.berrymobapi.com/postback/?tid=20190511204911_25b1e5e8e6c316745613d5ed727cb2324197656_v2&src=823,idfa_d6578f39-b137-4b48-9e55-6ae1645b9e22,%ED%95%9C%EA%B5%AD%EC%96%B4
j3P58eOkT_eKBdVAwPUd8A,berrymob,2151_22118885,Install,1.0,121.172.93.199,69638cb5-cbc0-447e-988a-e45f333a9a0e,1557609614,2019-05-12 05:20:14,1557609654,2019-05-12 05:20:54,1557609685,20190511212012_e27d7a558abb179c4a852ae88ac1c2f77935034_v2,http://postback.berrymobapi.com/postback/?tid=20190511212012_e27d7a558abb179c4a852ae88ac1c2f77935034_v2&src=823,idfa_69638cb5-cbc0-447e-988a-e45f333a9a0e,%ED%95%9C%EA%B5%AD%EC%96%B4
j3P58eOkT_eKBdVAwPUd8A,berrymob,2151_22118885,Install,1.0,115.136.114.24,af8097d3-38cb-4007-bcad-ef9047fa5ae3,1557608732,2019-05-12 05:05:32,1557608770,2019-05-12 05:06:10,1557608802,20190511210529_88a185eb79eaf8a1d9075177d9c44d904817754_v2,http://postback.berrymobapi.com/postback/?tid=20190511210529_88a185eb79eaf8a1d9075177d9c44d904817754_v2&src=823,idfa_af8097d3-38cb-4007-bcad-ef9047fa5ae3,%ED%95%9C%EA%B5%AD%EC%96%B4
j3P58eOkT_eKBdVAwPUd8A,berrymob,2151_22118885,Install,1.0,223.39.158.222,9e9a6244-a32d-48db-a927-e8a18548f776,1557609541,2019-05-12 05:19:01,1557609582,2019-05-12 05:19:42,1557609613,20190511211858_7ee48e5e3d213080f3d2228266ebdb3d4070068_v2,http://postback.berrymobapi.com/postback/?tid=20190511211858_7ee48e5e3d213080f3d2228266ebdb3d4070068_v2&src=823,idfa_9e9a6244-a32d-48db-a927-e8a18548f776,%ED%95%9C%EA%B5%AD%EC%96%B4
j3P58eOkT_eKBdVAwPUd8A,berrymob,2151_22118885,Install,1.0,59.28.65.189,7f499899-0267-4ca3-a5e9-a0e3fa872023,1557490619,2019-05-10 20:16:59,1557490657,2019-05-10 20:17:37,1557490695,20190510121657_5a04b9a10ddfa59fe3cc1c18a18cee198281186_v2,http://postback.berrymobapi.com/postback/?tid=20190510121657_5a04b9a10ddfa59fe3cc1c18a18cee198281186_v2&src=823,idfa_7f499899-0267-4ca3-a5e9-a0e3fa872023,%ED%95%9C%EA%B5%AD%EC%96%B4
j3P58eOkT_eKBdVAwPUd8A,berrymob,2151_22118885,Install,1.0,110.45.20.220,1cd9bc33-6b0b-47f1-b94a-adbb54aa9f20,1557609644,2019-05-12 05:20:44,1557609685,2019-05-12 05:21:25,1557609717,20190511212042_3b9fb4f7f06ef0381e7db16d303099155613012_v2,http://postback.berrymobapi.com/postback/?tid=20190511212042_3b9fb4f7f06ef0381e7db16d303099155613012_v2&src=823,idfa_1cd9bc33-6b0b-47f1-b94a-adbb54aa9f20,%ED%95%9C%EA%B5%AD%EC%96%B4
j3P58eOkT_eKBdVAwPUd8A,berrymob,2151_22118885,Install,1.0,223.38.23.17,77057c0c-a33b-41f5-b72c-78c821bfde14,1557461768,2019-05-10 12:16:08,1557461812,2019-05-10 12:16:52,1557461846,20190510041606_04c7455c061157bd5d7c9b89aededfb99648873_v2,http://postback.berrymobapi.com/postback/?tid=20190510041606_04c7455c061157bd5d7c9b89aededfb99648873_v2&src=823,idfa_77057c0c-a33b-41f5-b72c-78c821bfde14,%ED%95%9C%EA%B5%AD%EC%96%B4
j3P58eOkT_eKBdVAwPUd8A,berrymob,2151_22118885,Install,1.0,125.137.223.253,c131b727-2c06-4e7e-95d1-ea3682227f34,1557609575,2019-05-12 05:19:35,1557609613,2019-05-12 05:20:13,1557609647,20190511211932_891649c336026415ac961d2d3831d7319791447_v2,http://postback.berrymobapi.com/postback/?tid=20190511211932_891649c336026415ac961d2d3831d7319791447_v2&src=823,idfa_c131b727-2c06-4e7e-95d1-ea3682227f34,%ED%95%9C%EA%B5%AD%EC%96%B4
j3P58eOkT_eKBdVAwPUd8A,berrymob,2151_22118885,Install,1.0,223.33.184.237,9b4fb05e-8342-49b1-8106-05ad18b28e99,1557609570,2019-05-12 05:19:30,1557609633,2019-05-12 05:20:33,1557609664,20190511211928_a01c01467f5842da661b27eca61a4d862102312_v2,http://postback.berrymobapi.com/postback/?tid=20190511211928_a01c01467f5842da661b27eca61a4d862102312_v2&src=823,idfa_9b4fb05e-8342-49b1-8106-05ad18b28e99,%ED%95%9C%EA%B5%AD%EC%96%B4
j3P58eOkT_eKBdVAwPUd8A,berrymob,2151_22118885,Install,1.0,124.28.157.185,f38618d3-3253-4ca2-8666-3b4bc74c6793,1557610074,2019-05-12 05:27:54,1557610123,2019-05-12 05:28:43,1557610154,20190511212752_80a19dbc31bbf5ed9907b220b987285d4268211_v2,http://postback.berrymobapi.com/postback/?tid=20190511212752_80a19dbc31bbf5ed9907b220b987285d4268211_v2&src=823,idfa_f38618d3-3253-4ca2-8666-3b4bc74c6793,%ED%95%9C%EA%B5%AD%EC%96%B4
j3P58eOkT_eKBdVAwPUd8A,berrymob,2151_22118885,Install,1.0,117.111.1.133,199d66e7-244c-423c-9726-b5499fe731aa,1557608655,2019-05-12 05:04:15,1557608695,2019-05-12 05:04:55,1557608726,20190511210412_09c0e5d5823999822ad45e801731cbd77918322_v2,http://postback.berrymobapi.com/postback/?tid=20190511210412_09c0e5d5823999822ad45e801731cbd77918322_v2&src=823,idfa_199d66e7-244c-423c-9726-b5499fe731aa,%ED%95%9C%EA%B5%AD%EC%96%B4
j3P58eOkT_eKBdVAwPUd8A,berrymob,2151_22118885,Install,1.0,119.64.48.209,a06e5ff4-01d3-4fbd-84cb-56b017501922,1557607768,2019-05-12 04:49:28,1557607811,2019-05-12 04:50:11,1557607842,20190511204926_d60c1758da71358e76b61ba657b0045b7235952_v2,http://postback.berrymobapi.com/postback/?tid=20190511204926_d60c1758da71358e76b61ba657b0045b7235952_v2&src=823,idfa_a06e5ff4-01d3-4fbd-84cb-56b017501922,%ED%95%9C%EA%B5%AD%EC%96%B4
j3P58eOkT_eKBdVAwPUd8A,berrymob,2151_22118885,Install,1.0,61.80.5.111,cd025683-3e4d-4ad0-bb2c-327eac7d07e9,1557610199,2019-05-12 05:29:59,1557610242,2019-05-12 05:30:42,1557610273,20190511212957_aa5346e8503d604a4e8bd7f8c4d53ff08296200_v2,http://postback.berrymobapi.com/postback/?tid=20190511212957_aa5346e8503d604a4e8bd7f8c4d53ff08296200_v2&src=823,idfa_cd025683-3e4d-4ad0-bb2c-327eac7d07e9,%ED%95%9C%EA%B5%AD%EC%96%B4
j3P58eOkT_eKBdVAwPUd8A,berrymob,2151_22118885,Install,1.0,175.223.19.36,720facd2-185d-49c1-b979-a1c9eb0bef95,1557528157,2019-05-11 06:42:37,1557528204,2019-05-11 06:43:24,1557528235,20190510224236_bffe9b5f4d0992b8552a87ad3513883d2751412_v2,http://postback.berrymobapi.com/postback/?tid=20190510224236_bffe9b5f4d0992b8552a87ad3513883d2751412_v2&src=823,idfa_720facd2-185d-49c1-b979-a1c9eb0bef95,%ED%95%9C%EA%B5%AD%EC%96%B4
j3P58eOkT_eKBdVAwPUd8A,berrymob,2151_22118885,Install,1.0,58.232.122.62,ed9f2da1-3608-41fd-9e9c-e7b83768e43c,1557608732,2019-05-12 05:05:32,1557608772,2019-05-12 05:06:12,1557608802,20190511210530_9e41a453d89e9e604995004c0dd6ff1f2040619_v2,http://postback.berrymobapi.com/postback/?tid=20190511210530_9e41a453d89e9e604995004c0dd6ff1f2040619_v2&src=823,idfa_ed9f2da1-3608-41fd-9e9c-e7b83768e43c,%ED%95%9C%EA%B5%AD%EC%96%B4
j3P58eOkT_eKBdVAwPUd8A,berrymob,2151_22118885,Install,1.0,106.102.11.1,1e36ee27-ae81-4a21-9b01-3068c3fd82d9,1557609634,2019-05-12 05:20:34,1557609672,2019-05-12 05:21:12,1557609702,20190511212031_fe6164d147bdcf5d89c88e66a16141905091130_v2,http://postback.berrymobapi.com/postback/?tid=20190511212031_fe6164d147bdcf5d89c88e66a16141905091130_v2&src=823,idfa_1e36ee27-ae81-4a21-9b01-3068c3fd82d9,%ED%95%9C%EA%B5%AD%EC%96%B4
j3P58eOkT_eKBdVAwPUd8A,berrymob,2151_22118885,Install,1.0,125.141.41.101,6381e0e7-7492-4da5-b1a6-cf1abc20feee,1557610248,2019-05-12 05:30:48,1557610431,2019-05-12 05:33:51,1557610462,20190511213047_1d387b10a8b53899b0d7a9b4a2f6355f1482314_v2,http://postback.berrymobapi.com/postback/?tid=20190511213047_1d387b10a8b53899b0d7a9b4a2f6355f1482314_v2&src=823,idfa_6381e0e7-7492-4da5-b1a6-cf1abc20feee,%ED%95%9C%EA%B5%AD%EC%96%B4
j3P58eOkT_eKBdVAwPUd8A,berrymob,2151_22118885,Install,1.0,211.204.25.113,47616e2f-154e-497d-87cb-a05cf70e91c3,1557608748,2019-05-12 05:05:48,1557608791,2019-05-12 05:06:31,1557608822,20190511210546_d81e3f8749b5b535d6da48d19a7c0b702140368_v2,http://postback.berrymobapi.com/postback/?tid=20190511210546_d81e3f8749b5b535d6da48d19a7c0b702140368_v2&src=823,idfa_47616e2f-154e-497d-87cb-a05cf70e91c3,%ED%95%9C%EA%B5%AD%EC%96%B4
j3P58eOkT_eKBdVAwPUd8A,berrymob,2151_22118885,Install,1.0,175.223.48.131,7c46e9ed-11df-49b3-9052-0de73f18222e,1557609617,2019-05-12 05:20:17,1557609661,2019-05-12 05:21:01,1557609692,20190511212015_a0ffd22516bcdaac9a411e0ff04e879d4343880_v2,http://postback.berrymobapi.com/postback/?tid=20190511212015_a0ffd22516bcdaac9a411e0ff04e879d4343880_v2&src=823,idfa_7c46e9ed-11df-49b3-9052-0de73f18222e,%ED%95%9C%EA%B5%AD%EC%96%B4
