cid,partner_id,channel_id,action_id,cpi,ip,idfa,click time,click datetime,install time,install datetime,postback time,click id,postback url,unique user id
uuRCXPoQTXG1o_ULUmCxjA,berrymob,2122_22374598,Install,0.21,114.125.214.158,f5b92773-2064-4e41-aa23-dfd6539be866,1558411940,2019-05-21 12:12:20,1558412041,2019-05-21 12:14:01,1558412072,20190521041216_3a54cc31d8c2beb4c70d7faf157484809516760_v2,http://postback.berrymobapi.com/postback/?tid=20190521041216_3a54cc31d8c2beb4c70d7faf157484809516760_v2&src=823,idfa_f5b92773-2064-4e41-aa23-dfd6539be866,English
uuRCXPoQTXG1o_ULUmCxjA,berrymob,2122_22374598,Install,0.21,115.178.221.151,b45bebf3-580a-48fb-a3db-825b7a181f22,1558411664,2019-05-21 12:07:44,1558412269,2019-05-21 12:17:49,1558412300,20190521040742_618b39b33f272f4aa60677195624cbe63848338_v2,http://postback.berrymobapi.com/postback/?tid=20190521040742_618b39b33f272f4aa60677195624cbe63848338_v2&src=823,idfa_b45bebf3-580a-48fb-a3db-825b7a181f22,Bahasa%20Indonesia
uuRCXPoQTXG1o_ULUmCxjA,berrymob,2122_22374598,Install,0.21,112.215.241.150,4be9337a-3d19-4ac2-89e7-93ec6389c077,1558411935,2019-05-21 12:12:15,1558412041,2019-05-21 12:14:01,1558412073,20190521041213_fa2ef4ad059c7bc99fb27a332fb98dce7485144_v2,http://postback.berrymobapi.com/postback/?tid=20190521041213_fa2ef4ad059c7bc99fb27a332fb98dce7485144_v2&src=823,idfa_4be9337a-3d19-4ac2-89e7-93ec6389c077,Indonesia
uuRCXPoQTXG1o_ULUmCxjA,berrymob,2122_22374598,Install,0.21,114.142.172.39,d6f60cb1-838d-411c-b8b5-2f60f9fe01ae,1558411546,2019-05-21 12:05:46,1558411656,2019-05-21 12:07:36,1558411687,20190521040544_012506e189a5734369ab2a77cfe3883c7292159_v2,http://postback.berrymobapi.com/postback/?tid=20190521040544_012506e189a5734369ab2a77cfe3883c7292159_v2&src=823,idfa_d6f60cb1-838d-411c-b8b5-2f60f9fe01ae,Bahasa%20Indonesia
uuRCXPoQTXG1o_ULUmCxjA,berrymob,2122_22374598,Install,0.21,114.125.125.224,f2028b0a-e285-427b-ab87-1daca97ca673,1558412120,2019-05-21 12:15:20,1558412423,2019-05-21 12:20:23,1558412454,20190521041517_86052a0f2073b135b74621267d3b63d12759549_v2,http://postback.berrymobapi.com/postback/?tid=20190521041517_86052a0f2073b135b74621267d3b63d12759549_v2&src=823,idfa_f2028b0a-e285-427b-ab87-1daca97ca673,Bahasa%20Indonesia
uuRCXPoQTXG1o_ULUmCxjA,berrymob,2122_22374598,Install,0.21,114.124.210.152,fbbd9a0f-5295-4b6d-a450-41a4bf307e09,1558411484,2019-05-21 12:04:44,1558411588,2019-05-21 12:06:28,1558411619,20190521040442_dd0605b194600d3291c9c83e42618a2f6704546_v2,http://postback.berrymobapi.com/postback/?tid=20190521040442_dd0605b194600d3291c9c83e42618a2f6704546_v2&src=823,idfa_fbbd9a0f-5295-4b6d-a450-41a4bf307e09,English
uuRCXPoQTXG1o_ULUmCxjA,berrymob,2122_22374598,Install,0.21,118.99.113.25,f52dbace-38bd-4c0b-872a-1d3ae57bfc97,1558411878,2019-05-21 12:11:18,1558411985,2019-05-21 12:13:05,1558412015,20190521041116_78d288341217f92527a6e26f174467169087869_v2,http://postback.berrymobapi.com/postback/?tid=20190521041116_78d288341217f92527a6e26f174467169087869_v2&src=823,idfa_f52dbace-38bd-4c0b-872a-1d3ae57bfc97,Bahasa%20Indonesia
uuRCXPoQTXG1o_ULUmCxjA,berrymob,2122_22374598,Install,0.21,202.67.46.37,83122352-6ad6-4700-9017-dddfc6e410b8,1558411817,2019-05-21 12:10:17,1558411922,2019-05-21 12:12:02,1558411953,20190521041015_2be4689001f6a1f8c29a43a4ec7540047786978_v2,http://postback.berrymobapi.com/postback/?tid=20190521041015_2be4689001f6a1f8c29a43a4ec7540047786978_v2&src=823,idfa_83122352-6ad6-4700-9017-dddfc6e410b8,Indonesia
uuRCXPoQTXG1o_ULUmCxjA,berrymob,2122_22374598,Install,0.21,182.0.132.79,5f211a6f-0b0e-4bd4-82df-be160e276f8a,1558411997,2019-05-21 12:13:17,1558412168,2019-05-21 12:16:08,1558412199,20190521041316_845d215bb9133d4bda133f3040e7a17d5954435_v2,http://postback.berrymobapi.com/postback/?tid=20190521041316_845d215bb9133d4bda133f3040e7a17d5954435_v2&src=823,idfa_5f211a6f-0b0e-4bd4-82df-be160e276f8a,Bahasa%20Indonesia
uuRCXPoQTXG1o_ULUmCxjA,berrymob,2122_22374598,Install,0.21,114.124.172.81,a8c3fec0-e07a-4c2d-a1bb-fd8f97a76cf0,1558411630,2019-05-21 12:07:10,1558411750,2019-05-21 12:09:10,1558411781,20190521040650_ca6ae9ce8ce8534ea1b81deab67243565353238_v2,http://postback.berrymobapi.com/postback/?tid=20190521040650_ca6ae9ce8ce8534ea1b81deab67243565353238_v2&src=823,idfa_a8c3fec0-e07a-4c2d-a1bb-fd8f97a76cf0,Bahasa%20Indonesia
uuRCXPoQTXG1o_ULUmCxjA,berrymob,2122_22374598,Install,0.21,115.178.220.18,77e5f9b0-ad2d-49b8-a910-292740a8ebc2,1558411491,2019-05-21 12:04:51,1558411599,2019-05-21 12:06:39,1558411630,20190521040446_4e776f876da1db4a8cfa0851fcdc3caa6274691_v2,http://postback.berrymobapi.com/postback/?tid=20190521040446_4e776f876da1db4a8cfa0851fcdc3caa6274691_v2&src=823,idfa_77e5f9b0-ad2d-49b8-a910-292740a8ebc2,Indonesia
uuRCXPoQTXG1o_ULUmCxjA,berrymob,2122_22374598,Install,0.21,114.142.174.52,18f6019d-3738-47b3-b883-d9c8471552f8,1558412004,2019-05-21 12:13:24,1558412120,2019-05-21 12:15:20,1558412152,20190521041321_f7435392232033dbdb4652b8561795955562465_v2,http://postback.berrymobapi.com/postback/?tid=20190521041321_f7435392232033dbdb4652b8561795955562465_v2&src=823,idfa_18f6019d-3738-47b3-b883-d9c8471552f8,Bahasa%20Indonesia
uuRCXPoQTXG1o_ULUmCxjA,berrymob,2122_22374598,Install,0.21,114.124.183.253,2af41914-6286-4d1d-88f2-0f6ef22c29e1,1558412122,2019-05-21 12:15:22,1558412223,2019-05-21 12:17:03,1558412254,20190521041520_c009ab3f71a67f7b3434550bb8e8659b9437252_v2,http://postback.berrymobapi.com/postback/?tid=20190521041520_c009ab3f71a67f7b3434550bb8e8659b9437252_v2&src=823,idfa_2af41914-6286-4d1d-88f2-0f6ef22c29e1,Indonesia
uuRCXPoQTXG1o_ULUmCxjA,berrymob,2122_22374598,Install,0.21,180.253.18.90,bf56bc80-edbe-4f36-b4ae-c141af01e477,1558412001,2019-05-21 12:13:21,1558412104,2019-05-21 12:15:04,1558412135,20190521041319_3167a66886ce701d2796e44721b0e1795450883_v2,http://postback.berrymobapi.com/postback/?tid=20190521041319_3167a66886ce701d2796e44721b0e1795450883_v2&src=823,idfa_bf56bc80-edbe-4f36-b4ae-c141af01e477,Bahasa%20Indonesia
uuRCXPoQTXG1o_ULUmCxjA,berrymob,2122_22374598,Install,0.21,182.1.66.14,5c747437-aba6-4ae0-9ec0-471c5e7f180d,1558411969,2019-05-21 12:12:49,1558412042,2019-05-21 12:14:02,1558412073,20190521041239_f246c863a273f96f3d29a843bb2d07613447345_v2,http://postback.berrymobapi.com/postback/?tid=20190521041239_f246c863a273f96f3d29a843bb2d07613447345_v2&src=823,idfa_5c747437-aba6-4ae0-9ec0-471c5e7f180d,Bahasa%20Indonesia
uuRCXPoQTXG1o_ULUmCxjA,berrymob,2122_22374598,Install,0.21,140.213.33.200,4386de16-31e9-4f76-b285-8c5796b29fdc,1558330850,2019-05-20 13:40:50,1558331578,2019-05-20 13:52:58,1558331609,20190520054050_d59d3b63910eda9f1deb666cfda564473498072_v2,http://postback.berrymobapi.com/postback/?tid=20190520054050_d59d3b63910eda9f1deb666cfda564473498072_v2&src=823,idfa_4386de16-31e9-4f76-b285-8c5796b29fdc,Indonesia
uuRCXPoQTXG1o_ULUmCxjA,berrymob,2122_22374598,Install,0.21,182.1.60.175,39d2fb0c-7a7e-4491-916c-4b0becd04677,1558411883,2019-05-21 12:11:23,1558411990,2019-05-21 12:13:10,1558412021,20190521041121_9cf8bf994906b959b8002a5e116575d66552428_v2,http://postback.berrymobapi.com/postback/?tid=20190521041121_9cf8bf994906b959b8002a5e116575d66552428_v2&src=823,idfa_39d2fb0c-7a7e-4491-916c-4b0becd04677,English
uuRCXPoQTXG1o_ULUmCxjA,berrymob,2122_22374598,Install,0.21,112.215.172.114,1e8432a2-841d-49dd-befa-55e59a979720,1558412118,2019-05-21 12:15:18,1558412222,2019-05-21 12:17:02,1558412255,20190521041516_be3713b9d690dd7ce4d336606a8987f36337825_v2,http://postback.berrymobapi.com/postback/?tid=20190521041516_be3713b9d690dd7ce4d336606a8987f36337825_v2&src=823,idfa_1e8432a2-841d-49dd-befa-55e59a979720,Indonesia
uuRCXPoQTXG1o_ULUmCxjA,berrymob,2122_22374598,Install,0.21,114.5.213.233,cf0b37cf-205f-4998-a964-b158ec2f2e98,1558411933,2019-05-21 12:12:13,1558412115,2019-05-21 12:15:15,1558412146,20190521041210_43fb45f35998d5833d6df44b38bdac845485497_v2,http://postback.berrymobapi.com/postback/?tid=20190521041210_43fb45f35998d5833d6df44b38bdac845485497_v2&src=823,idfa_cf0b37cf-205f-4998-a964-b158ec2f2e98,English
uuRCXPoQTXG1o_ULUmCxjA,berrymob,2122_22374598,Install,0.21,114.125.218.94,8462d72a-887e-4814-9c8d-7c6751d1f33d,1558412124,2019-05-21 12:15:24,1558412222,2019-05-21 12:17:02,1558412253,20190521041518_f64701a99d4646bd9250e94a9560990e6768467_v2,http://postback.berrymobapi.com/postback/?tid=20190521041518_f64701a99d4646bd9250e94a9560990e6768467_v2&src=823,idfa_8462d72a-887e-4814-9c8d-7c6751d1f33d,Indonesia
uuRCXPoQTXG1o_ULUmCxjA,berrymob,2122_22374598,Install,0.21,120.188.32.92,2eee624b-876e-469d-ae4d-6d3ec2603895,1558411813,2019-05-21 12:10:13,1558411927,2019-05-21 12:12:07,1558411960,20190521041011_a217afa500fd398d24b975d7502ee0cd8648541_v2,http://postback.berrymobapi.com/postback/?tid=20190521041011_a217afa500fd398d24b975d7502ee0cd8648541_v2&src=823,idfa_2eee624b-876e-469d-ae4d-6d3ec2603895,Bahasa%20Indonesia
uuRCXPoQTXG1o_ULUmCxjA,berrymob,2122_22374598,Install,0.21,114.125.166.226,cb47b8ce-2b24-4956-9296-ad1028f4c98d,1558412119,2019-05-21 12:15:19,1558412233,2019-05-21 12:17:13,1558412265,20190521041516_f2dab75262ea44a4d411727f49b9f1913489549_v2,http://postback.berrymobapi.com/postback/?tid=20190521041516_f2dab75262ea44a4d411727f49b9f1913489549_v2&src=823,idfa_cb47b8ce-2b24-4956-9296-ad1028f4c98d,Bahasa%20Indonesia
uuRCXPoQTXG1o_ULUmCxjA,berrymob,2122_22374598,Install,0.21,115.178.221.201,e9882ecf-0012-4e5c-b0aa-d9cffd55aeb8,1558411948,2019-05-21 12:12:28,1558412046,2019-05-21 12:14:06,1558412077,20190521041220_bb8bdcb3c76ddac416f01c2164575f2b3344009_v2,http://postback.berrymobapi.com/postback/?tid=20190521041220_bb8bdcb3c76ddac416f01c2164575f2b3344009_v2&src=823,idfa_e9882ecf-0012-4e5c-b0aa-d9cffd55aeb8,Indonesia
uuRCXPoQTXG1o_ULUmCxjA,berrymob,2122_22374598,Install,0.21,115.178.253.12,893a7f34-5b89-4f8b-8727-d4852568b9a6,1558411221,2019-05-21 12:00:21,1558411235,2019-05-21 12:00:35,1558411266,20190521040014_33cb4a4b83b79d0953a50e9103d39a4b6608561_v2,http://postback.berrymobapi.com/postback/?tid=20190521040014_33cb4a4b83b79d0953a50e9103d39a4b6608561_v2&src=823,idfa_893a7f34-5b89-4f8b-8727-d4852568b9a6,Bahasa%20Indonesia
uuRCXPoQTXG1o_ULUmCxjA,berrymob,2122_22374598,Install,0.21,182.1.203.125,bd7f6f9a-7bb6-49b6-a269-740419a8e4e0,1558411444,2019-05-21 12:04:04,1558411543,2019-05-21 12:05:43,1558411575,20190521040357_63feb8b8b53a3bc98afb8b30f58678f01407584_v2,http://postback.berrymobapi.com/postback/?tid=20190521040357_63feb8b8b53a3bc98afb8b30f58678f01407584_v2&src=823,idfa_bd7f6f9a-7bb6-49b6-a269-740419a8e4e0,Bahasa%20Indonesia
uuRCXPoQTXG1o_ULUmCxjA,berrymob,2122_22374598,Install,0.21,114.124.140.149,760a240a-e5e5-45ae-961f-ee391ad41c87,1558411367,2019-05-21 12:02:47,1558411477,2019-05-21 12:04:37,1558411508,20190521040245_16fcba208e7b8a60e26c5d76429b39e87978053_v2,http://postback.berrymobapi.com/postback/?tid=20190521040245_16fcba208e7b8a60e26c5d76429b39e87978053_v2&src=823,idfa_760a240a-e5e5-45ae-961f-ee391ad41c87,Indonesia
uuRCXPoQTXG1o_ULUmCxjA,berrymob,2122_22374598,Install,0.21,114.125.63.176,ef77d5cc-c6fc-4431-a7db-482d95af39b3,1558411997,2019-05-21 12:13:17,1558412108,2019-05-21 12:15:08,1558412141,20190521041315_257025cdebba9e5764cfb6c95567890b9752524_v2,http://postback.berrymobapi.com/postback/?tid=20190521041315_257025cdebba9e5764cfb6c95567890b9752524_v2&src=823,idfa_ef77d5cc-c6fc-4431-a7db-482d95af39b3,Bahasa%20Indonesia
uuRCXPoQTXG1o_ULUmCxjA,berrymob,2122_22374598,Install,0.21,182.1.64.211,c2748c8c-f599-47dc-bee9-245c9eda44e8,1558411932,2019-05-21 12:12:12,1558412040,2019-05-21 12:14:00,1558412071,20190521041210_95f2f1230454f39d73f4364a5133ae111666981_v2,http://postback.berrymobapi.com/postback/?tid=20190521041210_95f2f1230454f39d73f4364a5133ae111666981_v2&src=823,idfa_c2748c8c-f599-47dc-bee9-245c9eda44e8,Indonesia
uuRCXPoQTXG1o_ULUmCxjA,berrymob,2122_22374598,Install,0.21,114.125.14.22,15b3226e-e167-487a-a017-10f8f45c071c,1558412062,2019-05-21 12:14:22,1558412166,2019-05-21 12:16:06,1558412197,20190521041420_8d15ac3983bc80183679caef23fec6a41770577_v2,http://postback.berrymobapi.com/postback/?tid=20190521041420_8d15ac3983bc80183679caef23fec6a41770577_v2&src=823,idfa_15b3226e-e167-487a-a017-10f8f45c071c,Indonesia
uuRCXPoQTXG1o_ULUmCxjA,berrymob,2122_22374598,Install,0.21,182.0.199.92,7f6513ff-5a9f-4df0-a0aa-19a92ef7e5c7,1558412119,2019-05-21 12:15:19,1558412224,2019-05-21 12:17:04,1558412256,20190521041516_b1fc0a67d1849ec730a577e62abe4e6b9720588_v2,http://postback.berrymobapi.com/postback/?tid=20190521041516_b1fc0a67d1849ec730a577e62abe4e6b9720588_v2&src=823,idfa_7f6513ff-5a9f-4df0-a0aa-19a92ef7e5c7,English
uuRCXPoQTXG1o_ULUmCxjA,berrymob,2122_22374598,Install,0.21,116.206.40.126,629087dc-c889-4e82-8f7b-8ae7361bfd5c,1558411424,2019-05-21 12:03:44,1558411530,2019-05-21 12:05:30,1558411562,20190521040343_1c91bdc000ebea41a089a06bffb6859d9749380_v2,http://postback.berrymobapi.com/postback/?tid=20190521040343_1c91bdc000ebea41a089a06bffb6859d9749380_v2&src=823,idfa_629087dc-c889-4e82-8f7b-8ae7361bfd5c,Bahasa%20Indonesia
uuRCXPoQTXG1o_ULUmCxjA,berrymob,2122_22374598,Install,0.21,182.0.202.170,8a9ba0a7-1d16-4efe-bdba-52fa86f5fe6c,1558411546,2019-05-21 12:05:46,1558411681,2019-05-21 12:08:01,1558411712,20190521040544_6151d13f8aad1dc6faaaf9c81d23c9182002931_v2,http://postback.berrymobapi.com/postback/?tid=20190521040544_6151d13f8aad1dc6faaaf9c81d23c9182002931_v2&src=823,idfa_8a9ba0a7-1d16-4efe-bdba-52fa86f5fe6c,Indonesia
uuRCXPoQTXG1o_ULUmCxjA,berrymob,2122_22374598,Install,0.21,114.125.53.96,033e8118-70b0-436f-94e0-bf66b49f7895,1558411502,2019-05-21 12:05:02,1558411590,2019-05-21 12:06:30,1558411621,20190521040441_594dfbf63c21b7ac1253ac33d08ff5573845415_v2,http://postback.berrymobapi.com/postback/?tid=20190521040441_594dfbf63c21b7ac1253ac33d08ff5573845415_v2&src=823,idfa_033e8118-70b0-436f-94e0-bf66b49f7895,Indonesia
uuRCXPoQTXG1o_ULUmCxjA,berrymob,2122_22374598,Install,0.21,116.206.14.36,a1f894c8-ea73-4d94-9034-17e463061e67,1558412006,2019-05-21 12:13:26,1558412105,2019-05-21 12:15:05,1558412138,20190521041319_e8aae6ac272668b98e078a9ce635543b3202678_v2,http://postback.berrymobapi.com/postback/?tid=20190521041319_e8aae6ac272668b98e078a9ce635543b3202678_v2&src=823,idfa_a1f894c8-ea73-4d94-9034-17e463061e67,Indonesia
uuRCXPoQTXG1o_ULUmCxjA,berrymob,2122_22374598,Install,0.21,125.163.140.59,33d73708-869d-4397-8f0b-fbab2dce949c,1558411551,2019-05-21 12:05:51,1558411664,2019-05-21 12:07:44,1558411695,20190521040549_d2c4d9fd923ae71b5229a6b59931d3a15527842_v2,http://postback.berrymobapi.com/postback/?tid=20190521040549_d2c4d9fd923ae71b5229a6b59931d3a15527842_v2&src=823,idfa_33d73708-869d-4397-8f0b-fbab2dce949c,Indonesia
uuRCXPoQTXG1o_ULUmCxjA,berrymob,2122_22374598,Install,0.21,111.95.151.116,91cf8718-a1a6-4654-8e0e-698fea89b7c6,1558411813,2019-05-21 12:10:13,1558411923,2019-05-21 12:12:03,1558411954,20190521041012_f0931885f07019f244113549b0b0aae84374830_v2,http://postback.berrymobapi.com/postback/?tid=20190521041012_f0931885f07019f244113549b0b0aae84374830_v2&src=823,idfa_91cf8718-a1a6-4654-8e0e-698fea89b7c6,English
uuRCXPoQTXG1o_ULUmCxjA,berrymob,2122_22374598,Install,0.21,114.4.212.91,085861fc-659b-46d4-9963-5c126e25a413,1558411371,2019-05-21 12:02:51,1558411473,2019-05-21 12:04:33,1558411505,20190521040249_c190de24b158470271294a3e51a530cb6008911_v2,http://postback.berrymobapi.com/postback/?tid=20190521040249_c190de24b158470271294a3e51a530cb6008911_v2&src=823,idfa_085861fc-659b-46d4-9963-5c126e25a413,Indonesia
uuRCXPoQTXG1o_ULUmCxjA,berrymob,2122_22374598,Install,0.21,125.160.207.229,3980ce15-6d53-4717-9c1f-2be6482e2a67,1558335083,2019-05-20 14:51:23,1558335379,2019-05-20 14:56:19,1558335410,20190520065122_f5724395074bf718924a6687567ae41c3800994_v2,http://postback.berrymobapi.com/postback/?tid=20190520065122_f5724395074bf718924a6687567ae41c3800994_v2&src=823,idfa_3980ce15-6d53-4717-9c1f-2be6482e2a67,Indonesia
uuRCXPoQTXG1o_ULUmCxjA,berrymob,2122_22374598,Install,0.21,182.0.177.58,bb30fff2-38d4-4801-b9cb-68093aa503e3,1558411424,2019-05-21 12:03:44,1558411533,2019-05-21 12:05:33,1558411568,20190521040342_470b8c5dfb035eb01894091aeb8b1dc04745013_v2,http://postback.berrymobapi.com/postback/?tid=20190521040342_470b8c5dfb035eb01894091aeb8b1dc04745013_v2&src=823,idfa_bb30fff2-38d4-4801-b9cb-68093aa503e3,Indonesia
uuRCXPoQTXG1o_ULUmCxjA,berrymob,2122_22374598,Install,0.21,120.188.85.76,2f63804a-9fd2-4480-a241-948a27552f5f,1558411998,2019-05-21 12:13:18,1558412104,2019-05-21 12:15:04,1558412135,20190521041315_fac4228065c167e36bd50026a33e73ac1487659_v2,http://postback.berrymobapi.com/postback/?tid=20190521041315_fac4228065c167e36bd50026a33e73ac1487659_v2&src=823,idfa_2f63804a-9fd2-4480-a241-948a27552f5f,Bahasa%20Indonesia
uuRCXPoQTXG1o_ULUmCxjA,berrymob,2122_22374598,Install,0.21,140.213.73.198,ac4b1a52-8f0c-436d-8487-9938e87d21f9,1558411816,2019-05-21 12:10:16,1558411943,2019-05-21 12:12:23,1558411974,20190521041012_c27e141e1b68f2a91c011be0c980bbcf7253536_v2,http://postback.berrymobapi.com/postback/?tid=20190521041012_c27e141e1b68f2a91c011be0c980bbcf7253536_v2&src=823,idfa_ac4b1a52-8f0c-436d-8487-9938e87d21f9,Bahasa%20Indonesia
uuRCXPoQTXG1o_ULUmCxjA,berrymob,2122_22374598,Install,0.21,182.0.179.152,946a2730-abdd-4e2d-8bdd-f5aecf5176a4,1558402683,2019-05-21 09:38:03,1558402765,2019-05-21 09:39:25,1558402798,20190521013802_5910a36f636765f5c42e92d09926f8882332520_v2,http://postback.berrymobapi.com/postback/?tid=20190521013802_5910a36f636765f5c42e92d09926f8882332520_v2&src=823,idfa_946a2730-abdd-4e2d-8bdd-f5aecf5176a4,Indonesia
uuRCXPoQTXG1o_ULUmCxjA,berrymob,2122_22374598,Install,0.21,180.253.32.217,78735468-23c9-4322-9f6d-f2dcd15323eb,1558412056,2019-05-21 12:14:16,1558412158,2019-05-21 12:15:58,1558412189,20190521041414_b785adf9ab44e82e40639f0f1875f1157019855_v2,http://postback.berrymobapi.com/postback/?tid=20190521041414_b785adf9ab44e82e40639f0f1875f1157019855_v2&src=823,idfa_78735468-23c9-4322-9f6d-f2dcd15323eb,Bahasa%20Melayu
uuRCXPoQTXG1o_ULUmCxjA,berrymob,2122_22374598,Install,0.21,114.4.213.32,dd243204-696d-48cb-8ff6-db0cca614c92,1558411383,2019-05-21 12:03:03,1558411469,2019-05-21 12:04:29,1558411774,20190521040251_42ccc924b37dc168f3247e1b4e6bb59e6212040_v2,http://postback.berrymobapi.com/postback/?tid=20190521040251_42ccc924b37dc168f3247e1b4e6bb59e6212040_v2&src=823,idfa_dd243204-696d-48cb-8ff6-db0cca614c92,Indonesia
uuRCXPoQTXG1o_ULUmCxjA,berrymob,2122_22374598,Install,0.21,114.124.237.204,a4eee911-699a-4e86-8c9b-23bcd1e19889,1558411664,2019-05-21 12:07:44,1558411770,2019-05-21 12:09:30,1558411801,20190521040742_402d3e2be21b38b778f3d067db918a221072145_v2,http://postback.berrymobapi.com/postback/?tid=20190521040742_402d3e2be21b38b778f3d067db918a221072145_v2&src=823,idfa_a4eee911-699a-4e86-8c9b-23bcd1e19889,Bahasa%20Indonesia
uuRCXPoQTXG1o_ULUmCxjA,berrymob,2122_22374598,Install,0.21,115.178.211.248,5df0ba49-4883-47ba-8f38-905ea7bbe5f0,1558412117,2019-05-21 12:15:17,1558412227,2019-05-21 12:17:07,1558412542,20190521041516_c0d4e0e7c988ec29eed335dad6f24bc58813669_v2,http://postback.berrymobapi.com/postback/?tid=20190521041516_c0d4e0e7c988ec29eed335dad6f24bc58813669_v2&src=823,idfa_5df0ba49-4883-47ba-8f38-905ea7bbe5f0,Bahasa%20Indonesia
uuRCXPoQTXG1o_ULUmCxjA,berrymob,2122_22374598,Install,0.21,114.125.247.91,c933340c-3898-44fa-931f-e7800d35bb58,1558412000,2019-05-21 12:13:20,1558412105,2019-05-21 12:15:05,1558412136,20190521041318_a4f30531c3271013a5ad38e63e580b327188421_v2,http://postback.berrymobapi.com/postback/?tid=20190521041318_a4f30531c3271013a5ad38e63e580b327188421_v2&src=823,idfa_c933340c-3898-44fa-931f-e7800d35bb58,Indonesia
uuRCXPoQTXG1o_ULUmCxjA,berrymob,2122_22374598,Install,0.21,114.125.213.128,dcc27a6b-1edb-48e7-a353-bb7b5c769789,1558411665,2019-05-21 12:07:45,1558411811,2019-05-21 12:10:11,1558411842,20190521040742_e62a20d31d84f383b905bd1c8eae68401878951_v2,http://postback.berrymobapi.com/postback/?tid=20190521040742_e62a20d31d84f383b905bd1c8eae68401878951_v2&src=823,idfa_dcc27a6b-1edb-48e7-a353-bb7b5c769789,Bahasa%20Indonesia
uuRCXPoQTXG1o_ULUmCxjA,berrymob,2122_22374598,Install,0.21,114.5.214.49,a2835b2c-d5fe-4dcd-b76b-48eba3459427,1558411686,2019-05-21 12:08:06,1558411777,2019-05-21 12:09:37,1558411899,20190521040756_45e5aada685a1220f4e4defc476ccb4f2457890_v2,http://postback.berrymobapi.com/postback/?tid=20190521040756_45e5aada685a1220f4e4defc476ccb4f2457890_v2&src=823,idfa_a2835b2c-d5fe-4dcd-b76b-48eba3459427,Indonesia
uuRCXPoQTXG1o_ULUmCxjA,berrymob,2122_22374598,Install,0.21,103.213.131.160,2154cfaf-2518-47a5-9d84-1d13e3b5c24c,1558412054,2019-05-21 12:14:14,1558412175,2019-05-21 12:16:15,1558412207,20190521041413_fc1fbc616d881eeaa0b49c509c00021f5275911_v2,http://postback.berrymobapi.com/postback/?tid=20190521041413_fc1fbc616d881eeaa0b49c509c00021f5275911_v2&src=823,idfa_2154cfaf-2518-47a5-9d84-1d13e3b5c24c,English
uuRCXPoQTXG1o_ULUmCxjA,berrymob,2122_22374598,Install,0.21,182.1.174.214,af050264-409b-4942-ab18-6034e86c7c75,1558401308,2019-05-21 09:15:08,1558402066,2019-05-21 09:27:46,1558402097,20190521011505_4c9b63bd850eb7c16938ca8915498ef71014386_v2,http://postback.berrymobapi.com/postback/?tid=20190521011505_4c9b63bd850eb7c16938ca8915498ef71014386_v2&src=823,idfa_af050264-409b-4942-ab18-6034e86c7c75,Indonesia
uuRCXPoQTXG1o_ULUmCxjA,berrymob,2122_22374598,Install,0.21,114.125.14.34,656603de-7a1a-4e69-a5e1-f5c6cb1d00c3,1558411996,2019-05-21 12:13:16,1558412111,2019-05-21 12:15:11,1558412143,20190521041315_9645f6a0c7e67d86f498fbc554228e9a3990765_v2,http://postback.berrymobapi.com/postback/?tid=20190521041315_9645f6a0c7e67d86f498fbc554228e9a3990765_v2&src=823,idfa_656603de-7a1a-4e69-a5e1-f5c6cb1d00c3,Indonesia
uuRCXPoQTXG1o_ULUmCxjA,berrymob,2122_22374598,Install,0.21,114.124.169.83,5f720f97-82b4-42e2-bede-736ce4064cd8,1558411813,2019-05-21 12:10:13,1558411923,2019-05-21 12:12:03,1558411955,20190521041011_98e36f8113037c3dfcf588e8ab5850593105887_v2,http://postback.berrymobapi.com/postback/?tid=20190521041011_98e36f8113037c3dfcf588e8ab5850593105887_v2&src=823,idfa_5f720f97-82b4-42e2-bede-736ce4064cd8,Indonesia
uuRCXPoQTXG1o_ULUmCxjA,berrymob,2122_22374598,Install,0.21,180.214.233.67,f48c3650-ee8d-4029-88b3-99a6b9b10e0b,1558412118,2019-05-21 12:15:18,1558412232,2019-05-21 12:17:12,1558412263,20190521041516_7590fe4d9579c0a1ca18eb938513ab6d6102973_v2,http://postback.berrymobapi.com/postback/?tid=20190521041516_7590fe4d9579c0a1ca18eb938513ab6d6102973_v2&src=823,idfa_f48c3650-ee8d-4029-88b3-99a6b9b10e0b,Indonesia
uuRCXPoQTXG1o_ULUmCxjA,berrymob,2122_22374598,Install,0.21,36.82.107.21,66250312-1891-4302-9a31-84c93639cd52,1558411998,2019-05-21 12:13:18,1558412105,2019-05-21 12:15:05,1558412136,20190521041314_918f76f087fec7965ba7cf655d073d2e8903475_v2,http://postback.berrymobapi.com/postback/?tid=20190521041314_918f76f087fec7965ba7cf655d073d2e8903475_v2&src=823,idfa_66250312-1891-4302-9a31-84c93639cd52,Indonesia
uuRCXPoQTXG1o_ULUmCxjA,berrymob,2122_22374598,Install,0.21,182.1.31.223,33c5b9b2-8106-44ca-a71c-0bcf7bc79ced,1558411935,2019-05-21 12:12:15,1558412041,2019-05-21 12:14:01,1558412072,20190521041212_26f3566e9abdd7df42ffc2fb5b3b453a7896138_v2,http://postback.berrymobapi.com/postback/?tid=20190521041212_26f3566e9abdd7df42ffc2fb5b3b453a7896138_v2&src=823,idfa_33c5b9b2-8106-44ca-a71c-0bcf7bc79ced,Bahasa%20Indonesia
uuRCXPoQTXG1o_ULUmCxjA,berrymob,2122_22374598,Install,0.21,114.125.203.197,905a72f7-7a01-4a9d-bde7-648389b275be,1558411440,2019-05-21 12:04:00,1558411546,2019-05-21 12:05:46,1558411577,20190521040354_9cd61560126d375b81dc4e379974790e7809532_v2,http://postback.berrymobapi.com/postback/?tid=20190521040354_9cd61560126d375b81dc4e379974790e7809532_v2&src=823,idfa_905a72f7-7a01-4a9d-bde7-648389b275be,Indonesia
uuRCXPoQTXG1o_ULUmCxjA,berrymob,2122_22374598,Install,0.21,114.124.144.50,8d223269-1c42-48b3-9534-7a57db769d38,1558412117,2019-05-21 12:15:17,1558412227,2019-05-21 12:17:07,1558412258,20190521041516_1f0208a43db644473b612cae212df66b9447218_v2,http://postback.berrymobapi.com/postback/?tid=20190521041516_1f0208a43db644473b612cae212df66b9447218_v2&src=823,idfa_8d223269-1c42-48b3-9534-7a57db769d38,Bahasa%20Indonesia
uuRCXPoQTXG1o_ULUmCxjA,berrymob,2122_22374598,Install,0.21,180.241.47.88,f6f9ad59-9a2d-47e7-95f1-fc90d6d39eab,1558411939,2019-05-21 12:12:19,1558412066,2019-05-21 12:14:26,1558412097,20190521041217_9e899b007e1b0f180806728ec13649618626358_v2,http://postback.berrymobapi.com/postback/?tid=20190521041217_9e899b007e1b0f180806728ec13649618626358_v2&src=823,idfa_f6f9ad59-9a2d-47e7-95f1-fc90d6d39eab,Bahasa%20Indonesia
uuRCXPoQTXG1o_ULUmCxjA,berrymob,2122_22374598,Install,0.21,114.5.213.21,f6ab73e8-7373-4ab0-ba7d-d5d3a042b492,1558411880,2019-05-21 12:11:20,1558411988,2019-05-21 12:13:08,1558412280,20190521041118_ab342e077e437b4b3ba5f6a4461177f09739716_v2,http://postback.berrymobapi.com/postback/?tid=20190521041118_ab342e077e437b4b3ba5f6a4461177f09739716_v2&src=823,idfa_f6ab73e8-7373-4ab0-ba7d-d5d3a042b492,Bahasa%20Indonesia
uuRCXPoQTXG1o_ULUmCxjA,berrymob,2122_22374598,Install,0.21,114.125.85.72,0682296b-5e37-4149-82b6-256970dd6fa3,1558411881,2019-05-21 12:11:21,1558411984,2019-05-21 12:13:04,1558412015,20190521041119_d986fe677c7303cf7c8bde21b6c16d9b9340467_v2,http://postback.berrymobapi.com/postback/?tid=20190521041119_d986fe677c7303cf7c8bde21b6c16d9b9340467_v2&src=823,idfa_0682296b-5e37-4149-82b6-256970dd6fa3,Indonesia
uuRCXPoQTXG1o_ULUmCxjA,berrymob,2122_22374598,Install,0.21,118.96.253.186,48a06424-783e-4dfa-9bde-976ecc77f08d,1558412061,2019-05-21 12:14:21,1558412162,2019-05-21 12:16:02,1558412193,20190521041417_3a585ecfcc014c0fbe1239b5ddf087808519762_v2,http://postback.berrymobapi.com/postback/?tid=20190521041417_3a585ecfcc014c0fbe1239b5ddf087808519762_v2&src=823,idfa_48a06424-783e-4dfa-9bde-976ecc77f08d,Indonesia
uuRCXPoQTXG1o_ULUmCxjA,berrymob,2122_22374598,Install,0.21,182.1.20.139,8cb781bf-1fa4-44c5-98dc-71edf761d3da,1558411613,2019-05-21 12:06:53,1558411821,2019-05-21 12:10:21,1558411853,20190521040648_5569dce13de216b5c677a7d3313ab1fc8832463_v2,http://postback.berrymobapi.com/postback/?tid=20190521040648_5569dce13de216b5c677a7d3313ab1fc8832463_v2&src=823,idfa_8cb781bf-1fa4-44c5-98dc-71edf761d3da,Indonesia
uuRCXPoQTXG1o_ULUmCxjA,berrymob,2122_22374598,Install,0.21,114.4.212.122,244e4a4c-2cfc-49e1-a0b2-9681df558866,1558412009,2019-05-21 12:13:29,1558412272,2019-05-21 12:17:52,1558412304,20190521041327_d1e51a476221862b76782747e93c25dc3263025_v2,http://postback.berrymobapi.com/postback/?tid=20190521041327_d1e51a476221862b76782747e93c25dc3263025_v2&src=823,idfa_244e4a4c-2cfc-49e1-a0b2-9681df558866,Bahasa%20Indonesia
uuRCXPoQTXG1o_ULUmCxjA,berrymob,2122_22374598,Install,0.21,114.125.247.172,1f77e1a9-fdb2-44c1-aa33-92747721789c,1558412055,2019-05-21 12:14:15,1558412167,2019-05-21 12:16:07,1558412199,20190521041413_b13c873f70ce332866f4417351f95e218473807_v2,http://postback.berrymobapi.com/postback/?tid=20190521041413_b13c873f70ce332866f4417351f95e218473807_v2&src=823,idfa_1f77e1a9-fdb2-44c1-aa33-92747721789c,Bahasa%20Indonesia
uuRCXPoQTXG1o_ULUmCxjA,berrymob,2122_22374598,Install,0.21,116.206.29.48,6921bad6-d201-4fea-8580-a61685161f85,1558411995,2019-05-21 12:13:15,1558412136,2019-05-21 12:15:36,1558412167,20190521041314_63220f8d956a0f9c84cf3f73ebd0364c7042689_v2,http://postback.berrymobapi.com/postback/?tid=20190521041314_63220f8d956a0f9c84cf3f73ebd0364c7042689_v2&src=823,idfa_6921bad6-d201-4fea-8580-a61685161f85,Indonesia
uuRCXPoQTXG1o_ULUmCxjA,berrymob,2122_22374598,Install,0.21,114.142.169.47,96073424-dbdf-4ee2-b132-54a57719aeb1,1558412095,2019-05-21 12:14:55,1558412289,2019-05-21 12:18:09,1558412321,20190521041453_fa7114686f12d2bdcddc7b31b255b69e5925480_v2,http://postback.berrymobapi.com/postback/?tid=20190521041453_fa7114686f12d2bdcddc7b31b255b69e5925480_v2&src=823,idfa_96073424-dbdf-4ee2-b132-54a57719aeb1,Bahasa%20Indonesia
uuRCXPoQTXG1o_ULUmCxjA,berrymob,2122_22374598,Install,0.21,115.178.223.153,2937f7f3-a2aa-4f8f-9ebd-1a9354b1b531,1558412116,2019-05-21 12:15:16,1558412248,2019-05-21 12:17:28,1558412282,20190521041514_b3e53885e5730e48f86333df751b2f034326382_v2,http://postback.berrymobapi.com/postback/?tid=20190521041514_b3e53885e5730e48f86333df751b2f034326382_v2&src=823,idfa_2937f7f3-a2aa-4f8f-9ebd-1a9354b1b531,Bahasa%20Indonesia
uuRCXPoQTXG1o_ULUmCxjA,berrymob,2122_22374598,Install,0.21,120.188.79.119,c3389081-3eae-4a65-b013-37a572bc0c55,1558401512,2019-05-21 09:18:32,1558401728,2019-05-21 09:22:08,1558401760,20190521011825_fc0806417177bd2d7f01a94023f1b07d5460347_v2,http://postback.berrymobapi.com/postback/?tid=20190521011825_fc0806417177bd2d7f01a94023f1b07d5460347_v2&src=823,idfa_c3389081-3eae-4a65-b013-37a572bc0c55,English
uuRCXPoQTXG1o_ULUmCxjA,berrymob,2122_22374598,Install,0.21,140.213.59.199,eaaaa5f0-9535-461a-b8c5-8dc7dc4df2e8,1558411998,2019-05-21 12:13:18,1558412107,2019-05-21 12:15:07,1558412139,20190521041316_0e5432b0eb4385601d7f605b806846b49987692_v2,http://postback.berrymobapi.com/postback/?tid=20190521041316_0e5432b0eb4385601d7f605b806846b49987692_v2&src=823,idfa_eaaaa5f0-9535-461a-b8c5-8dc7dc4df2e8,Indonesia
uuRCXPoQTXG1o_ULUmCxjA,berrymob,2122_22374598,Install,0.21,115.178.206.158,eba220ac-d352-4585-8f2b-240d013c1703,1558411935,2019-05-21 12:12:15,1558412065,2019-05-21 12:14:25,1558412172,20190521041210_9740d48078dd57bcbedb295fc0e900402932041_v2,http://postback.berrymobapi.com/postback/?tid=20190521041210_9740d48078dd57bcbedb295fc0e900402932041_v2&src=823,idfa_eba220ac-d352-4585-8f2b-240d013c1703,Bahasa%20Indonesia
uuRCXPoQTXG1o_ULUmCxjA,berrymob,2122_22374598,Install,0.21,114.124.232.210,2547bc47-67ab-4982-a0a7-399d577c5544,1558411482,2019-05-21 12:04:42,1558411594,2019-05-21 12:06:34,1558411625,20190521040441_5d3258e6d01c5029eb8343d39ce9c4b78692744_v2,http://postback.berrymobapi.com/postback/?tid=20190521040441_5d3258e6d01c5029eb8343d39ce9c4b78692744_v2&src=823,idfa_2547bc47-67ab-4982-a0a7-399d577c5544,Bahasa%20Indonesia
uuRCXPoQTXG1o_ULUmCxjA,berrymob,2122_22374598,Install,0.21,182.0.132.19,d6254d52-4b53-4224-a78a-b3a008d88d23,1558411610,2019-05-21 12:06:50,1558411713,2019-05-21 12:08:33,1558411840,20190521040650_f00f4e6f41e044a7ad655ae9d83c75fc2125233_v2,http://postback.berrymobapi.com/postback/?tid=20190521040650_f00f4e6f41e044a7ad655ae9d83c75fc2125233_v2&src=823,idfa_d6254d52-4b53-4224-a78a-b3a008d88d23,English
uuRCXPoQTXG1o_ULUmCxjA,berrymob,2122_22374598,Install,0.21,114.5.211.74,166c9766-8ec0-4d57-a18b-c5be64859e02,1558334001,2019-05-20 14:33:21,1558334331,2019-05-20 14:38:51,1558334362,20190520063320_82507d0ee5244e1980fa6e8cc9f2ba055827553_v2,http://postback.berrymobapi.com/postback/?tid=20190520063320_82507d0ee5244e1980fa6e8cc9f2ba055827553_v2&src=823,idfa_166c9766-8ec0-4d57-a18b-c5be64859e02,Indonesia
uuRCXPoQTXG1o_ULUmCxjA,berrymob,2122_22374598,Install,0.21,114.125.56.37,06a663d8-6218-4edc-a6f2-83a01527c850,1558411815,2019-05-21 12:10:15,1558411925,2019-05-21 12:12:05,1558411956,20190521041014_6dcd42eb10e027ada0364888d605fc968128201_v2,http://postback.berrymobapi.com/postback/?tid=20190521041014_6dcd42eb10e027ada0364888d605fc968128201_v2&src=823,idfa_06a663d8-6218-4edc-a6f2-83a01527c850,Indonesia
uuRCXPoQTXG1o_ULUmCxjA,berrymob,2122_22374598,Install,0.21,112.215.172.88,b0643ce0-6312-4488-96e9-305b92fa9dd0,1558407919,2019-05-21 11:05:19,1558412341,2019-05-21 12:19:01,1558412373,20190521030504_b10c93c3cfdcd765c66e5163681e75411101436_v2,http://postback.berrymobapi.com/postback/?tid=20190521030504_b10c93c3cfdcd765c66e5163681e75411101436_v2&src=823,idfa_b0643ce0-6312-4488-96e9-305b92fa9dd0,Bahasa%20Indonesia
uuRCXPoQTXG1o_ULUmCxjA,berrymob,2122_22374598,Install,0.21,182.0.236.10,f4726f1e-941a-422f-948a-fb34012727a7,1558411880,2019-05-21 12:11:20,1558411990,2019-05-21 12:13:10,1558412021,20190521041119_ba9a6614e0cca3a2ea7da92ee89d326e5071593_v2,http://postback.berrymobapi.com/postback/?tid=20190521041119_ba9a6614e0cca3a2ea7da92ee89d326e5071593_v2&src=823,idfa_f4726f1e-941a-422f-948a-fb34012727a7,Indonesia
uuRCXPoQTXG1o_ULUmCxjA,berrymob,2122_22374598,Install,0.21,36.92.13.143,51fa9050-3a81-46b2-9190-cdc52de5b1e1,1558411940,2019-05-21 12:12:20,1558412042,2019-05-21 12:14:02,1558412505,20190521041215_1e6f546abd3955f88a58e4ff3eaedf423357442_v2,http://postback.berrymobapi.com/postback/?tid=20190521041215_1e6f546abd3955f88a58e4ff3eaedf423357442_v2&src=823,idfa_51fa9050-3a81-46b2-9190-cdc52de5b1e1,English
uuRCXPoQTXG1o_ULUmCxjA,berrymob,2122_22374598,Install,0.21,114.4.79.167,7d91a3e3-b2e4-42b5-97b7-de90724c33aa,1558411812,2019-05-21 12:10:12,1558411924,2019-05-21 12:12:04,1558411956,20190521041011_cc83d57db826f72805d8e4143eb153c53363805_v2,http://postback.berrymobapi.com/postback/?tid=20190521041011_cc83d57db826f72805d8e4143eb153c53363805_v2&src=823,idfa_7d91a3e3-b2e4-42b5-97b7-de90724c33aa,Indonesia
uuRCXPoQTXG1o_ULUmCxjA,berrymob,2122_22374598,Install,0.21,182.1.177.148,63cb9145-2608-4ee2-8514-17b13700958c,1558411815,2019-05-21 12:10:15,1558411930,2019-05-21 12:12:10,1558411961,20190521041012_75967f1fc51958b03c155a20a67c78479289559_v2,http://postback.berrymobapi.com/postback/?tid=20190521041012_75967f1fc51958b03c155a20a67c78479289559_v2&src=823,idfa_63cb9145-2608-4ee2-8514-17b13700958c,Bahasa%20Indonesia
uuRCXPoQTXG1o_ULUmCxjA,berrymob,2122_22374598,Install,0.21,180.244.235.127,9f3d1c10-64af-480e-ace0-e3b7fa03721a,1558411879,2019-05-21 12:11:19,1558411989,2019-05-21 12:13:09,1558412020,20190521041116_9f91766cb7ae99e868556a2b4526c4965596827_v2,http://postback.berrymobapi.com/postback/?tid=20190521041116_9f91766cb7ae99e868556a2b4526c4965596827_v2&src=823,idfa_9f3d1c10-64af-480e-ace0-e3b7fa03721a,Indonesia
uuRCXPoQTXG1o_ULUmCxjA,berrymob,2122_22374598,Install,0.21,116.206.29.116,6cfb7a50-9880-4e72-95fb-a580173d7213,1558412117,2019-05-21 12:15:17,1558412220,2019-05-21 12:17:00,1558412251,20190521041515_2a7d026315e872f5e79e7856f683c5d22846911_v2,http://postback.berrymobapi.com/postback/?tid=20190521041515_2a7d026315e872f5e79e7856f683c5d22846911_v2&src=823,idfa_6cfb7a50-9880-4e72-95fb-a580173d7213,English
uuRCXPoQTXG1o_ULUmCxjA,berrymob,2122_22374598,Install,0.21,140.213.3.32,7b7a9465-91fe-4430-b8e9-78ff7f6e843b,1558411617,2019-05-21 12:06:57,1558411747,2019-05-21 12:09:07,1558411778,20190521040653_f2248262d2ccfa7fd87fee4aeb2736ca1179702_v2,http://postback.berrymobapi.com/postback/?tid=20190521040653_f2248262d2ccfa7fd87fee4aeb2736ca1179702_v2&src=823,idfa_7b7a9465-91fe-4430-b8e9-78ff7f6e843b,Bahasa%20Indonesia
uuRCXPoQTXG1o_ULUmCxjA,berrymob,2122_22374598,Install,0.21,112.215.219.171,397c6ddc-2dc0-4ef2-abea-a04a90153526,1558328884,2019-05-20 13:08:04,1558329210,2019-05-20 13:13:30,1558329241,20190520050759_06b9fde43f2f37b4ec55b244362c26e93408940_v2,http://postback.berrymobapi.com/postback/?tid=20190520050759_06b9fde43f2f37b4ec55b244362c26e93408940_v2&src=823,idfa_397c6ddc-2dc0-4ef2-abea-a04a90153526,Indonesia
uuRCXPoQTXG1o_ULUmCxjA,berrymob,2122_22374598,Install,0.21,180.214.233.85,264cbf76-ca91-4242-87fb-cc0d8cf3ab50,1558411608,2019-05-21 12:06:48,1558411715,2019-05-21 12:08:35,1558411746,20190521040646_730e19641684e6c0f5ba46c393ad77b58049146_v2,http://postback.berrymobapi.com/postback/?tid=20190521040646_730e19641684e6c0f5ba46c393ad77b58049146_v2&src=823,idfa_264cbf76-ca91-4242-87fb-cc0d8cf3ab50,Bahasa%20Indonesia
uuRCXPoQTXG1o_ULUmCxjA,berrymob,2122_22374598,Install,0.21,140.213.57.233,246173be-9ebc-46e5-94c3-5b9036459c87,1558411933,2019-05-21 12:12:13,1558412041,2019-05-21 12:14:01,1558412076,20190521041210_cbec67c58aa6dcb729e8355ecd7bc3803986373_v2,http://postback.berrymobapi.com/postback/?tid=20190521041210_cbec67c58aa6dcb729e8355ecd7bc3803986373_v2&src=823,idfa_246173be-9ebc-46e5-94c3-5b9036459c87,Bahasa%20Indonesia
uuRCXPoQTXG1o_ULUmCxjA,berrymob,2122_22374598,Install,0.21,112.215.239.92,ee169c7f-5f44-4800-8a9c-355cfc53ba68,1558412057,2019-05-21 12:14:17,1558412160,2019-05-21 12:16:00,1558412192,20190521041416_3f80490d973aa9d2c202e9f12084b6a33094791_v2,http://postback.berrymobapi.com/postback/?tid=20190521041416_3f80490d973aa9d2c202e9f12084b6a33094791_v2&src=823,idfa_ee169c7f-5f44-4800-8a9c-355cfc53ba68,Indonesia
uuRCXPoQTXG1o_ULUmCxjA,berrymob,2122_22374598,Install,0.21,223.255.229.19,93ae37cf-8cb8-4cdd-b9e7-c3238912f2df,1558411879,2019-05-21 12:11:19,1558411987,2019-05-21 12:13:07,1558412022,20190521041117_7771caaea4fcfdd6b6d32b505465fd257033696_v2,http://postback.berrymobapi.com/postback/?tid=20190521041117_7771caaea4fcfdd6b6d32b505465fd257033696_v2&src=823,idfa_93ae37cf-8cb8-4cdd-b9e7-c3238912f2df,English
uuRCXPoQTXG1o_ULUmCxjA,berrymob,2122_22374598,Install,0.21,103.213.129.46,796b697c-1f79-4a21-b4b0-1ad223322f93,1558411879,2019-05-21 12:11:19,1558411999,2019-05-21 12:13:19,1558412030,20190521041118_82465aac93d112c7b9ef56017e6975692904566_v2,http://postback.berrymobapi.com/postback/?tid=20190521041118_82465aac93d112c7b9ef56017e6975692904566_v2&src=823,idfa_796b697c-1f79-4a21-b4b0-1ad223322f93,Indonesia
uuRCXPoQTXG1o_ULUmCxjA,berrymob,2122_22374598,Install,0.21,114.5.212.18,17037267-18c5-4e77-8a4e-a877593c2006,1558412055,2019-05-21 12:14:15,1558412212,2019-05-21 12:16:52,1558412502,20190521041413_fe4db05514574043b4354255c57498686878782_v2,http://postback.berrymobapi.com/postback/?tid=20190521041413_fe4db05514574043b4354255c57498686878782_v2&src=823,idfa_17037267-18c5-4e77-8a4e-a877593c2006,Indonesia
uuRCXPoQTXG1o_ULUmCxjA,berrymob,2122_22374598,Install,0.21,202.67.35.13,7af41094-1e05-4d63-b0e2-4491654e1901,1558411903,2019-05-21 12:11:43,1558411991,2019-05-21 12:13:11,1558412021,20190521041018_a273b5c947c4cfaf46c891e899c85c162472644_v2,http://postback.berrymobapi.com/postback/?tid=20190521041018_a273b5c947c4cfaf46c891e899c85c162472644_v2&src=823,idfa_7af41094-1e05-4d63-b0e2-4491654e1901,Indonesia
uuRCXPoQTXG1o_ULUmCxjA,berrymob,2122_22374598,Install,0.21,114.125.127.70,84980ea4-84fa-4a84-bf0d-aafa15f099b2,1558411996,2019-05-21 12:13:16,1558412102,2019-05-21 12:15:02,1558412135,20190521041314_dcfbf66ff81cb57458140a19331f24542471186_v2,http://postback.berrymobapi.com/postback/?tid=20190521041314_dcfbf66ff81cb57458140a19331f24542471186_v2&src=823,idfa_84980ea4-84fa-4a84-bf0d-aafa15f099b2,Indonesia
uuRCXPoQTXG1o_ULUmCxjA,berrymob,2122_22374598,Install,0.21,115.178.254.35,3f94cb5b-61be-4cae-8e47-dbc13ceb3c2a,1558412063,2019-05-21 12:14:23,1558412168,2019-05-21 12:16:08,1558412199,20190521041419_b9d101e8821622255a8c32111c82644b5342833_v2,http://postback.berrymobapi.com/postback/?tid=20190521041419_b9d101e8821622255a8c32111c82644b5342833_v2&src=823,idfa_3f94cb5b-61be-4cae-8e47-dbc13ceb3c2a,English
uuRCXPoQTXG1o_ULUmCxjA,berrymob,2122_22374598,Install,0.21,114.4.213.105,3e3e227f-b9cf-4070-bcf8-700b079334c2,1558411995,2019-05-21 12:13:15,1558412488,2019-05-21 12:21:28,1558412519,20190521041313_63d7f4888240b9940bac384902c255c75282180_v2,http://postback.berrymobapi.com/postback/?tid=20190521041313_63d7f4888240b9940bac384902c255c75282180_v2&src=823,idfa_3e3e227f-b9cf-4070-bcf8-700b079334c2,Bahasa%20Indonesia
uuRCXPoQTXG1o_ULUmCxjA,berrymob,2122_22374598,Install,0.21,112.215.244.11,73df6e17-a3e3-4c1b-8bd2-e58eb16516fb,1558330219,2019-05-20 13:30:19,1558332374,2019-05-20 14:06:14,1558332407,20190520053010_b8d59ee9e62772d3ef808ed88d6ef0922336949_v2,http://postback.berrymobapi.com/postback/?tid=20190520053010_b8d59ee9e62772d3ef808ed88d6ef0922336949_v2&src=823,idfa_73df6e17-a3e3-4c1b-8bd2-e58eb16516fb,Indonesia
uuRCXPoQTXG1o_ULUmCxjA,berrymob,2122_22374598,Install,0.21,202.67.46.25,f8e4f2b9-5cc2-4a05-8077-5566b1e0e938,1558401604,2019-05-21 09:20:04,1558401898,2019-05-21 09:24:58,1558401930,20190521012001_f5992a50137d5bcf1d54dbe51afc51fa7048394_v2,http://postback.berrymobapi.com/postback/?tid=20190521012001_f5992a50137d5bcf1d54dbe51afc51fa7048394_v2&src=823,idfa_f8e4f2b9-5cc2-4a05-8077-5566b1e0e938,Bahasa%20Indonesia
uuRCXPoQTXG1o_ULUmCxjA,berrymob,2122_22374598,Install,0.21,115.178.203.198,bfe249ab-2af9-49ad-a2c9-6777db2ec5b3,1558397574,2019-05-21 08:12:54,1558397584,2019-05-21 08:13:04,1558397616,20190521001251_2aa360f79d6365c8466bec2727c1ba6d4920979_v2,http://postback.berrymobapi.com/postback/?tid=20190521001251_2aa360f79d6365c8466bec2727c1ba6d4920979_v2&src=823,idfa_bfe249ab-2af9-49ad-a2c9-6777db2ec5b3,Bahasa%20Indonesia
uuRCXPoQTXG1o_ULUmCxjA,berrymob,2122_22374598,Install,0.21,110.138.150.18,14f3adf8-21bf-4aeb-a8ee-e785f4d700ab,1558411812,2019-05-21 12:10:12,1558412268,2019-05-21 12:17:48,1558412299,20190521041010_27d39d5e439256f30847c1f3b4b792034055387_v2,http://postback.berrymobapi.com/postback/?tid=20190521041010_27d39d5e439256f30847c1f3b4b792034055387_v2&src=823,idfa_14f3adf8-21bf-4aeb-a8ee-e785f4d700ab,Indonesia
uuRCXPoQTXG1o_ULUmCxjA,berrymob,2122_22374598,Install,0.21,36.72.80.127,7a032372-bb8e-4c4d-97fd-943d980ab566,1558411942,2019-05-21 12:12:22,1558412054,2019-05-21 12:14:14,1558412085,20190521041220_f869609f52a89e96f0bcae9a107d99329453545_v2,http://postback.berrymobapi.com/postback/?tid=20190521041220_f869609f52a89e96f0bcae9a107d99329453545_v2&src=823,idfa_7a032372-bb8e-4c4d-97fd-943d980ab566,Indonesia
uuRCXPoQTXG1o_ULUmCxjA,berrymob,2122_22374598,Install,0.21,114.4.212.11,af18053d-b3ee-4c1a-a150-ae4edbfe288c,1558411996,2019-05-21 12:13:16,1558412106,2019-05-21 12:15:06,1558412137,20190521041314_dac6fc432fcfc523afcb6890548e8ed04779286_v2,http://postback.berrymobapi.com/postback/?tid=20190521041314_dac6fc432fcfc523afcb6890548e8ed04779286_v2&src=823,idfa_af18053d-b3ee-4c1a-a150-ae4edbfe288c,Bahasa%20Indonesia
uuRCXPoQTXG1o_ULUmCxjA,berrymob,2122_22374598,Install,0.21,114.124.210.184,667ba168-41c5-430e-876e-bff282c4e781,1558411817,2019-05-21 12:10:17,1558411920,2019-05-21 12:12:00,1558411951,20190521041015_b61d622c60f23d142be54b3e39cacd528745984_v2,http://postback.berrymobapi.com/postback/?tid=20190521041015_b61d622c60f23d142be54b3e39cacd528745984_v2&src=823,idfa_667ba168-41c5-430e-876e-bff282c4e781,English
uuRCXPoQTXG1o_ULUmCxjA,berrymob,2122_22374598,Install,0.21,36.90.46.60,1b917c64-8cf0-4f44-85b4-e3d709a709ce,1558412137,2019-05-21 12:15:37,1558412247,2019-05-21 12:17:27,1558412280,20190521041516_c437976f4f7c7090583a9ed62904051b9138204_v2,http://postback.berrymobapi.com/postback/?tid=20190521041516_c437976f4f7c7090583a9ed62904051b9138204_v2&src=823,idfa_1b917c64-8cf0-4f44-85b4-e3d709a709ce,Bahasa%20Indonesia
uuRCXPoQTXG1o_ULUmCxjA,berrymob,2122_22374598,Install,0.21,125.163.158.169,29b87c4d-33e6-4f13-a04e-3eae0a6f8a42,1558411998,2019-05-21 12:13:18,1558412333,2019-05-21 12:18:53,1558412365,20190521041316_21f8a3af98a7dcabdb0f8393776ee46e1183058_v2,http://postback.berrymobapi.com/postback/?tid=20190521041316_21f8a3af98a7dcabdb0f8393776ee46e1183058_v2&src=823,idfa_29b87c4d-33e6-4f13-a04e-3eae0a6f8a42,Bahasa%20Indonesia
uuRCXPoQTXG1o_ULUmCxjA,berrymob,2122_22374598,Install,0.21,182.0.146.172,68d6a5bb-ff0b-4ccd-ab80-e89c502736a3,1558412056,2019-05-21 12:14:16,1558412176,2019-05-21 12:16:16,1558412207,20190521041414_360780f68f2ab715478da5de27698b747431036_v2,http://postback.berrymobapi.com/postback/?tid=20190521041414_360780f68f2ab715478da5de27698b747431036_v2&src=823,idfa_68d6a5bb-ff0b-4ccd-ab80-e89c502736a3,Indonesia
uuRCXPoQTXG1o_ULUmCxjA,berrymob,2122_22374598,Install,0.21,120.188.6.239,d6e72fc8-0baa-4c70-ade8-a5687814a07a,1558411878,2019-05-21 12:11:18,1558412127,2019-05-21 12:15:27,1558412158,20190521041116_70f4128dc01d68775228b71067eff77c9558818_v2,http://postback.berrymobapi.com/postback/?tid=20190521041116_70f4128dc01d68775228b71067eff77c9558818_v2&src=823,idfa_d6e72fc8-0baa-4c70-ade8-a5687814a07a,Bahasa%20Indonesia
uuRCXPoQTXG1o_ULUmCxjA,berrymob,2122_22374598,Install,0.21,223.255.231.153,4bc0b17f-3c8a-4477-997d-002f87393c27,1558411491,2019-05-21 12:04:51,1558411592,2019-05-21 12:06:32,1558411624,20190521040450_d6c8cf8d84327c780dcd7bb2b2d46e213691596_v2,http://postback.berrymobapi.com/postback/?tid=20190521040450_d6c8cf8d84327c780dcd7bb2b2d46e213691596_v2&src=823,idfa_4bc0b17f-3c8a-4477-997d-002f87393c27,Indonesia
uuRCXPoQTXG1o_ULUmCxjA,berrymob,2122_22374598,Install,0.21,182.1.92.127,391dc025-0bd4-4dc3-aaea-a948b3091daf,1558412001,2019-05-21 12:13:21,1558412108,2019-05-21 12:15:08,1558412141,20190521041317_09d5dd4e9f681340d6f17840f465e4f62614802_v2,http://postback.berrymobapi.com/postback/?tid=20190521041317_09d5dd4e9f681340d6f17840f465e4f62614802_v2&src=823,idfa_391dc025-0bd4-4dc3-aaea-a948b3091daf,Bahasa%20Indonesia
uuRCXPoQTXG1o_ULUmCxjA,berrymob,2122_22374598,Install,0.21,114.4.216.27,24fee859-54ec-44a8-ac60-b8aea5416dcd,1558411691,2019-05-21 12:08:11,1558411769,2019-05-21 12:09:29,1558411800,20190521040801_2dfe6326ab640f0ea2487e75a9b7552c3665074_v2,http://postback.berrymobapi.com/postback/?tid=20190521040801_2dfe6326ab640f0ea2487e75a9b7552c3665074_v2&src=823,idfa_24fee859-54ec-44a8-ac60-b8aea5416dcd,Indonesia
uuRCXPoQTXG1o_ULUmCxjA,berrymob,2122_22374598,Install,0.21,120.188.95.147,03db0a10-061a-49b8-9cde-6a59db0e866d,1558411880,2019-05-21 12:11:20,1558411993,2019-05-21 12:13:13,1558412026,20190521041117_7ba94b0a4101044ae6e943fc6349e51a7174350_v2,http://postback.berrymobapi.com/postback/?tid=20190521041117_7ba94b0a4101044ae6e943fc6349e51a7174350_v2&src=823,idfa_03db0a10-061a-49b8-9cde-6a59db0e866d,Bahasa%20Indonesia
uuRCXPoQTXG1o_ULUmCxjA,berrymob,2122_22374598,Install,0.21,115.178.237.197,5def6790-3853-4f7f-b116-7700b29d6f47,1558412117,2019-05-21 12:15:17,1558412229,2019-05-21 12:17:09,1558412264,20190521041515_709ba5b938cdded1584cac88435b8d978632035_v2,http://postback.berrymobapi.com/postback/?tid=20190521041515_709ba5b938cdded1584cac88435b8d978632035_v2&src=823,idfa_5def6790-3853-4f7f-b116-7700b29d6f47,Indonesia
uuRCXPoQTXG1o_ULUmCxjA,berrymob,2122_22374598,Install,0.21,182.1.17.178,1c2e7ae1-03a8-44ae-83a2-a47a252466c8,1558411814,2019-05-21 12:10:14,1558411931,2019-05-21 12:12:11,1558411962,20190521041012_821d6a6da646cc173164f1d56330bc494965558_v2,http://postback.berrymobapi.com/postback/?tid=20190521041012_821d6a6da646cc173164f1d56330bc494965558_v2&src=823,idfa_1c2e7ae1-03a8-44ae-83a2-a47a252466c8,Bahasa%20Indonesia
uuRCXPoQTXG1o_ULUmCxjA,berrymob,2122_22374598,Install,0.21,115.178.254.83,3554aaa0-6085-458f-8f4b-938c4f2d6a39,1558411818,2019-05-21 12:10:18,1558411920,2019-05-21 12:12:00,1558411951,20190521041016_d85bd58752e591fe914aa4e7257ff3271092375_v2,http://postback.berrymobapi.com/postback/?tid=20190521041016_d85bd58752e591fe914aa4e7257ff3271092375_v2&src=823,idfa_3554aaa0-6085-458f-8f4b-938c4f2d6a39,Indonesia
uuRCXPoQTXG1o_ULUmCxjA,berrymob,2122_22374598,Install,0.21,182.1.82.144,fc84b0ba-30ef-4ecd-9aab-625a69cbeaae,1558412060,2019-05-21 12:14:20,1558412332,2019-05-21 12:18:52,1558412364,20190521041418_6559bdf5305abab39321f5ef9ae313af8159024_v2,http://postback.berrymobapi.com/postback/?tid=20190521041418_6559bdf5305abab39321f5ef9ae313af8159024_v2&src=823,idfa_fc84b0ba-30ef-4ecd-9aab-625a69cbeaae,Bahasa%20Indonesia
uuRCXPoQTXG1o_ULUmCxjA,berrymob,2122_22374598,Install,0.21,140.213.74.24,1e65b653-1559-45a6-9398-b22bcde223cd,1558412057,2019-05-21 12:14:17,1558412237,2019-05-21 12:17:17,1558412268,20190521041414_da2ac2428c15a23dbfda6ba017c98cca3414133_v2,http://postback.berrymobapi.com/postback/?tid=20190521041414_da2ac2428c15a23dbfda6ba017c98cca3414133_v2&src=823,idfa_1e65b653-1559-45a6-9398-b22bcde223cd,Indonesia
uuRCXPoQTXG1o_ULUmCxjA,berrymob,2122_22374598,Install,0.21,114.124.150.183,bd2cc62e-1b9b-49d1-980e-c4c4347a97ac,1558411997,2019-05-21 12:13:17,1558412111,2019-05-21 12:15:11,1558412142,20190521041315_d35fbb12c2c8027823e8b93e48eec6f86237504_v2,http://postback.berrymobapi.com/postback/?tid=20190521041315_d35fbb12c2c8027823e8b93e48eec6f86237504_v2&src=823,idfa_bd2cc62e-1b9b-49d1-980e-c4c4347a97ac,Bahasa%20Indonesia
uuRCXPoQTXG1o_ULUmCxjA,berrymob,2122_22374598,Install,0.21,114.124.164.98,930231a8-82b2-4c60-8415-b8eba620d2be,1558411880,2019-05-21 12:11:20,1558411986,2019-05-21 12:13:06,1558412018,20190521041119_43659060557abd6fb183c992b65787c06273276_v2,http://postback.berrymobapi.com/postback/?tid=20190521041119_43659060557abd6fb183c992b65787c06273276_v2&src=823,idfa_930231a8-82b2-4c60-8415-b8eba620d2be,English
uuRCXPoQTXG1o_ULUmCxjA,berrymob,2122_22374598,Install,0.21,125.160.64.200,7077eab3-614f-4aa1-a702-7c115d95dbeb,1558411940,2019-05-21 12:12:20,1558412044,2019-05-21 12:14:04,1558412076,20190521041218_9d3c63aceb921363af35daf8d4533c5d2224041_v2,http://postback.berrymobapi.com/postback/?tid=20190521041218_9d3c63aceb921363af35daf8d4533c5d2224041_v2&src=823,idfa_7077eab3-614f-4aa1-a702-7c115d95dbeb,Indonesia
uuRCXPoQTXG1o_ULUmCxjA,berrymob,2122_22374598,Install,0.21,120.188.81.173,fcdf4636-7051-41d5-87bd-50b47d219c71,1558411997,2019-05-21 12:13:17,1558412111,2019-05-21 12:15:11,1558412142,20190521041314_2dc7f20fa9666bd302f86739cd9d5e8c2684174_v2,http://postback.berrymobapi.com/postback/?tid=20190521041314_2dc7f20fa9666bd302f86739cd9d5e8c2684174_v2&src=823,idfa_fcdf4636-7051-41d5-87bd-50b47d219c71,Indonesia
uuRCXPoQTXG1o_ULUmCxjA,berrymob,2122_22374598,Install,0.21,118.137.119.75,e8464a09-45d6-439c-9c52-d534c4ff3383,1558412139,2019-05-21 12:15:39,1558412223,2019-05-21 12:17:03,1558412254,20190521041531_8e0a0d1112e1717beee5394d41f04e8b7541147_v2,http://postback.berrymobapi.com/postback/?tid=20190521041531_8e0a0d1112e1717beee5394d41f04e8b7541147_v2&src=823,idfa_e8464a09-45d6-439c-9c52-d534c4ff3383,Indonesia
uuRCXPoQTXG1o_ULUmCxjA,berrymob,2122_22374598,Install,0.21,114.4.212.48,0f761bd5-da17-4d76-b3a1-b37fb49b311e,1558411997,2019-05-21 12:13:17,1558412108,2019-05-21 12:15:08,1558412140,20190521041314_490e735fa995fb63e663b4fa6d26f3d92294380_v2,http://postback.berrymobapi.com/postback/?tid=20190521041314_490e735fa995fb63e663b4fa6d26f3d92294380_v2&src=823,idfa_0f761bd5-da17-4d76-b3a1-b37fb49b311e,Indonesia
uuRCXPoQTXG1o_ULUmCxjA,berrymob,2122_22374598,Install,0.21,140.213.10.143,fa9f5c16-569e-4119-beab-e2c8a18733a4,1558411999,2019-05-21 12:13:19,1558412109,2019-05-21 12:15:09,1558412278,20190521041316_dcc244e5c724e6f57d7f4ae1efc0f8fa4601761_v2,http://postback.berrymobapi.com/postback/?tid=20190521041316_dcc244e5c724e6f57d7f4ae1efc0f8fa4601761_v2&src=823,idfa_fa9f5c16-569e-4119-beab-e2c8a18733a4,Indonesia
uuRCXPoQTXG1o_ULUmCxjA,berrymob,2122_22374598,Install,0.21,140.213.7.94,31519255-89a3-49db-994c-2297c6bba96e,1558412000,2019-05-21 12:13:20,1558412108,2019-05-21 12:15:08,1558412139,20190521041314_62929d68e9b65aeacddfa2a571fca8864236425_v2,http://postback.berrymobapi.com/postback/?tid=20190521041314_62929d68e9b65aeacddfa2a571fca8864236425_v2&src=823,idfa_31519255-89a3-49db-994c-2297c6bba96e,Indonesia
uuRCXPoQTXG1o_ULUmCxjA,berrymob,2122_22374598,Install,0.21,120.188.75.87,82a745cd-fb5f-4092-8df1-649de59e45fd,1558411935,2019-05-21 12:12:15,1558412066,2019-05-21 12:14:26,1558412098,20190521041212_eb3adabb73172725490872736839081c5377603_v2,http://postback.berrymobapi.com/postback/?tid=20190521041212_eb3adabb73172725490872736839081c5377603_v2&src=823,idfa_82a745cd-fb5f-4092-8df1-649de59e45fd,Indonesia
uuRCXPoQTXG1o_ULUmCxjA,berrymob,2122_22374598,Install,0.21,120.188.87.79,a5a0eea8-01cf-42e4-a8d5-38c0af731750,1558411427,2019-05-21 12:03:47,1558411538,2019-05-21 12:05:38,1558411569,20190521040344_153ca47bbe7d2b87ae8cac7a443b29be1703631_v2,http://postback.berrymobapi.com/postback/?tid=20190521040344_153ca47bbe7d2b87ae8cac7a443b29be1703631_v2&src=823,idfa_a5a0eea8-01cf-42e4-a8d5-38c0af731750,Bahasa%20Indonesia
uuRCXPoQTXG1o_ULUmCxjA,berrymob,2122_22374598,Install,0.21,182.1.29.101,5146e670-9707-4f15-95e2-0353197aae69,1558412124,2019-05-21 12:15:24,1558412228,2019-05-21 12:17:08,1558412260,20190521041519_db423f4a5145fc4aa19cb86f51d93ad96188561_v2,http://postback.berrymobapi.com/postback/?tid=20190521041519_db423f4a5145fc4aa19cb86f51d93ad96188561_v2&src=823,idfa_5146e670-9707-4f15-95e2-0353197aae69,Bahasa%20Indonesia
uuRCXPoQTXG1o_ULUmCxjA,berrymob,2122_22374598,Install,0.21,114.125.59.160,2be69b44-3559-49f5-8239-2db0604e363c,1558411819,2019-05-21 12:10:19,1558411919,2019-05-21 12:11:59,1558412147,20190521041016_d7cfeb876dfeec7a8e4c7b5b720212bc7824640_v2,http://postback.berrymobapi.com/postback/?tid=20190521041016_d7cfeb876dfeec7a8e4c7b5b720212bc7824640_v2&src=823,idfa_2be69b44-3559-49f5-8239-2db0604e363c,Bahasa%20Indonesia
uuRCXPoQTXG1o_ULUmCxjA,berrymob,2122_22374598,Install,0.21,180.248.122.202,f3968a9b-f532-4933-b87c-9ee90d4a4632,1558411818,2019-05-21 12:10:18,1558411926,2019-05-21 12:12:06,1558411958,20190521041016_6e968ce2b04bbb3a08166f0dcd02f3af1688749_v2,http://postback.berrymobapi.com/postback/?tid=20190521041016_6e968ce2b04bbb3a08166f0dcd02f3af1688749_v2&src=823,idfa_f3968a9b-f532-4933-b87c-9ee90d4a4632,Indonesia
uuRCXPoQTXG1o_ULUmCxjA,berrymob,2122_22374598,Install,0.21,36.75.142.235,c7db4483-b0e5-4c48-b66f-63ae7af4f219,1558412067,2019-05-21 12:14:27,1558412165,2019-05-21 12:16:05,1558412196,20190521041426_19c06553c2494f3a351ba35dddaf01729976810_v2,http://postback.berrymobapi.com/postback/?tid=20190521041426_19c06553c2494f3a351ba35dddaf01729976810_v2&src=823,idfa_c7db4483-b0e5-4c48-b66f-63ae7af4f219,Indonesia
uuRCXPoQTXG1o_ULUmCxjA,berrymob,2122_22374598,Install,0.21,36.79.251.103,3573c22f-7319-4c26-a0e4-8458975da39d,1558412061,2019-05-21 12:14:21,1558412176,2019-05-21 12:16:16,1558412207,20190521041420_a74624563425602f9fb67201a2bdddb19489866_v2,http://postback.berrymobapi.com/postback/?tid=20190521041420_a74624563425602f9fb67201a2bdddb19489866_v2&src=823,idfa_3573c22f-7319-4c26-a0e4-8458975da39d,Bahasa%20Indonesia
uuRCXPoQTXG1o_ULUmCxjA,berrymob,2122_22374598,Install,0.21,114.125.78.10,c0c7f80d-766f-4598-a000-e763dc85d168,1558412118,2019-05-21 12:15:18,1558412384,2019-05-21 12:19:44,1558412416,20190521041516_136f1ab3faed65a70ccfe46897df0e848766028_v2,http://postback.berrymobapi.com/postback/?tid=20190521041516_136f1ab3faed65a70ccfe46897df0e848766028_v2&src=823,idfa_c0c7f80d-766f-4598-a000-e763dc85d168,Bahasa%20Indonesia
uuRCXPoQTXG1o_ULUmCxjA,berrymob,2122_22374598,Install,0.21,180.244.232.209,372938fd-fb6b-46b7-8149-e980916bc1ce,1558411664,2019-05-21 12:07:44,1558411779,2019-05-21 12:09:39,1558411810,20190521040742_0f2b31219b8f96592149006b595ae5ae3527554_v2,http://postback.berrymobapi.com/postback/?tid=20190521040742_0f2b31219b8f96592149006b595ae5ae3527554_v2&src=823,idfa_372938fd-fb6b-46b7-8149-e980916bc1ce,Indonesia
uuRCXPoQTXG1o_ULUmCxjA,berrymob,2122_22374598,Install,0.21,114.125.58.67,ff15d3be-a157-45a8-93c9-94ff5a3a03b0,1558411932,2019-05-21 12:12:12,1558412062,2019-05-21 12:14:22,1558412093,20190521041210_fda7fa9fd007dc5d1a5e2bf2348c463a1193145_v2,http://postback.berrymobapi.com/postback/?tid=20190521041210_fda7fa9fd007dc5d1a5e2bf2348c463a1193145_v2&src=823,idfa_ff15d3be-a157-45a8-93c9-94ff5a3a03b0,Indonesia
uuRCXPoQTXG1o_ULUmCxjA,berrymob,2122_22374598,Install,0.21,116.206.38.55,9b084c58-6e40-431e-a130-cc0a5f4a88ed,1558409726,2019-05-21 11:35:26,1558410012,2019-05-21 11:40:12,1558410043,20190521033525_15faceba35758fdfd04fdd34e12ba6bc8363691_v2,http://postback.berrymobapi.com/postback/?tid=20190521033525_15faceba35758fdfd04fdd34e12ba6bc8363691_v2&src=823,idfa_9b084c58-6e40-431e-a130-cc0a5f4a88ed,Bahasa%20Indonesia
uuRCXPoQTXG1o_ULUmCxjA,berrymob,2122_22374598,Install,0.21,140.213.24.161,c58cefc3-62ea-4923-a5dc-48b7fe2dbadf,1558412055,2019-05-21 12:14:15,1558412165,2019-05-21 12:16:05,1558412197,20190521041413_47d822db120ea61c7bc7b10f6cf157302426075_v2,http://postback.berrymobapi.com/postback/?tid=20190521041413_47d822db120ea61c7bc7b10f6cf157302426075_v2&src=823,idfa_c58cefc3-62ea-4923-a5dc-48b7fe2dbadf,Indonesia
uuRCXPoQTXG1o_ULUmCxjA,berrymob,2122_22374598,Install,0.21,202.162.201.190,92c2a6e7-aac7-4062-ba41-4115669b2b46,1558412081,2019-05-21 12:14:41,1558412176,2019-05-21 12:16:16,1558412207,20190521041434_6b5df392f290773de0cc38bd8728b15d1648109_v2,http://postback.berrymobapi.com/postback/?tid=20190521041434_6b5df392f290773de0cc38bd8728b15d1648109_v2&src=823,idfa_92c2a6e7-aac7-4062-ba41-4115669b2b46,Indonesia
uuRCXPoQTXG1o_ULUmCxjA,berrymob,2122_22374598,Install,0.21,120.188.39.192,30bafb01-81a6-444d-983b-3fda2a8f975d,1558411935,2019-05-21 12:12:15,1558412046,2019-05-21 12:14:06,1558412077,20190521041212_5f76a86a2dca921916cb232de43f73df6878904_v2,http://postback.berrymobapi.com/postback/?tid=20190521041212_5f76a86a2dca921916cb232de43f73df6878904_v2&src=823,idfa_30bafb01-81a6-444d-983b-3fda2a8f975d,Bahasa%20Indonesia
uuRCXPoQTXG1o_ULUmCxjA,berrymob,2122_22374598,Install,0.21,114.142.172.62,ac2b7cf4-c77b-4ba3-a558-6ca66433a810,1558404195,2019-05-21 10:03:15,1558404210,2019-05-21 10:03:30,1558404245,20190521020309_c88f189c650f513f3a826ab8c78d25226409396_v2,http://postback.berrymobapi.com/postback/?tid=20190521020309_c88f189c650f513f3a826ab8c78d25226409396_v2&src=823,idfa_ac2b7cf4-c77b-4ba3-a558-6ca66433a810,Indonesia
uuRCXPoQTXG1o_ULUmCxjA,berrymob,2122_22374598,Install,0.21,125.163.130.74,806c2385-4a96-4e8f-b5d1-b3fa5a0f292d,1558411368,2019-05-21 12:02:48,1558411606,2019-05-21 12:06:46,1558411638,20190521040247_8b0f8ddce188a47b18759edc6049205c8609385_v2,http://postback.berrymobapi.com/postback/?tid=20190521040247_8b0f8ddce188a47b18759edc6049205c8609385_v2&src=823,idfa_806c2385-4a96-4e8f-b5d1-b3fa5a0f292d,Indonesia
uuRCXPoQTXG1o_ULUmCxjA,berrymob,2122_22374598,Install,0.21,115.178.254.89,5b1fa7ff-da73-4c67-a2ed-5ad3bda54b51,1558397224,2019-05-21 08:07:04,1558397952,2019-05-21 08:19:12,1558397982,20190521000701_aadeb28f8c36f106fa4ada17989b70031115286_v2,http://postback.berrymobapi.com/postback/?tid=20190521000701_aadeb28f8c36f106fa4ada17989b70031115286_v2&src=823,idfa_5b1fa7ff-da73-4c67-a2ed-5ad3bda54b51,Indonesia
uuRCXPoQTXG1o_ULUmCxjA,berrymob,2122_22374598,Install,0.21,114.5.213.159,2c146cfb-dc38-4966-b481-4970a2c4e88a,1558411932,2019-05-21 12:12:12,1558412040,2019-05-21 12:14:00,1558412071,20190521041210_0cae9f4f33a0646c1718e63f468fda795040666_v2,http://postback.berrymobapi.com/postback/?tid=20190521041210_0cae9f4f33a0646c1718e63f468fda795040666_v2&src=823,idfa_2c146cfb-dc38-4966-b481-4970a2c4e88a,Indonesia
uuRCXPoQTXG1o_ULUmCxjA,berrymob,2122_22374598,Install,0.21,114.5.147.92,f6ccc305-55b7-46d4-ab2a-a452d2aff943,1558411666,2019-05-21 12:07:46,1558411781,2019-05-21 12:09:41,1558411812,20190521040744_d743471f8a79bbb76705a8a99d189c835320907_v2,http://postback.berrymobapi.com/postback/?tid=20190521040744_d743471f8a79bbb76705a8a99d189c835320907_v2&src=823,idfa_f6ccc305-55b7-46d4-ab2a-a452d2aff943,Bahasa%20Indonesia
uuRCXPoQTXG1o_ULUmCxjA,berrymob,2122_22374598,Install,0.21,114.5.215.17,f73d2dca-5928-43a6-9ac2-885b012c8221,1558411939,2019-05-21 12:12:19,1558412058,2019-05-21 12:14:18,1558412089,20190521041217_04dbed7483f4d2894af9a152092d0d015635379_v2,http://postback.berrymobapi.com/postback/?tid=20190521041217_04dbed7483f4d2894af9a152092d0d015635379_v2&src=823,idfa_f73d2dca-5928-43a6-9ac2-885b012c8221,Indonesia
uuRCXPoQTXG1o_ULUmCxjA,berrymob,2122_22374598,Install,0.21,140.213.3.38,517e4ba8-ddf6-482f-a2ec-69280010e864,1558411668,2019-05-21 12:07:48,1558411777,2019-05-21 12:09:37,1558411810,20190521040746_53d8d53f9df779d1d3931a17a8bddefe5842207_v2,http://postback.berrymobapi.com/postback/?tid=20190521040746_53d8d53f9df779d1d3931a17a8bddefe5842207_v2&src=823,idfa_517e4ba8-ddf6-482f-a2ec-69280010e864,Indonesia
uuRCXPoQTXG1o_ULUmCxjA,berrymob,2122_22374598,Install,0.21,114.124.215.1,ad207749-4c0e-4385-bd9b-76d6f2544706,1558412118,2019-05-21 12:15:18,1558412229,2019-05-21 12:17:09,1558412260,20190521041516_68160a474cdb6efc18d8c7e191b94fe88142649_v2,http://postback.berrymobapi.com/postback/?tid=20190521041516_68160a474cdb6efc18d8c7e191b94fe88142649_v2&src=823,idfa_ad207749-4c0e-4385-bd9b-76d6f2544706,Bahasa%20Indonesia
uuRCXPoQTXG1o_ULUmCxjA,berrymob,2122_22374598,Install,0.21,36.69.122.237,e818f6aa-08c2-4602-a740-a1641cb320a9,1558411880,2019-05-21 12:11:20,1558411988,2019-05-21 12:13:08,1558412019,20190521041118_7ea0e964e3b9a1bd0dc12c221c6aba833811033_v2,http://postback.berrymobapi.com/postback/?tid=20190521041118_7ea0e964e3b9a1bd0dc12c221c6aba833811033_v2&src=823,idfa_e818f6aa-08c2-4602-a740-a1641cb320a9,Indonesia
uuRCXPoQTXG1o_ULUmCxjA,berrymob,2122_22374598,Install,0.21,112.215.210.104,b6b705da-03ec-43a4-bbfb-71639fffac1a,1558411933,2019-05-21 12:12:13,1558412060,2019-05-21 12:14:20,1558412091,20190521041211_1fa7a6962afc6752f42896b6950bfae01099097_v2,http://postback.berrymobapi.com/postback/?tid=20190521041211_1fa7a6962afc6752f42896b6950bfae01099097_v2&src=823,idfa_b6b705da-03ec-43a4-bbfb-71639fffac1a,Indonesia
uuRCXPoQTXG1o_ULUmCxjA,berrymob,2122_22374598,Install,0.21,114.124.136.27,aa093e1a-9cb3-4dce-958b-b07ebbb74694,1558412120,2019-05-21 12:15:20,1558412227,2019-05-21 12:17:07,1558412259,20190521041519_38dec41bc5f3e3eb67f568dac7ccb32c3198182_v2,http://postback.berrymobapi.com/postback/?tid=20190521041519_38dec41bc5f3e3eb67f568dac7ccb32c3198182_v2&src=823,idfa_aa093e1a-9cb3-4dce-958b-b07ebbb74694,Indonesia
uuRCXPoQTXG1o_ULUmCxjA,berrymob,2122_22374598,Install,0.21,114.124.197.191,ac1f2e64-4bfe-465f-b1c6-a18bbd1fe193,1558412055,2019-05-21 12:14:15,1558412190,2019-05-21 12:16:30,1558412221,20190521041414_e0223c1acd2a21e6d3e71064e3ff08631921233_v2,http://postback.berrymobapi.com/postback/?tid=20190521041414_e0223c1acd2a21e6d3e71064e3ff08631921233_v2&src=823,idfa_ac1f2e64-4bfe-465f-b1c6-a18bbd1fe193,Indonesia
uuRCXPoQTXG1o_ULUmCxjA,berrymob,2122_22374598,Install,0.21,140.213.70.242,2c8bce48-529f-430e-8f65-8736f05c85d8,1558401859,2019-05-21 09:24:19,1558401870,2019-05-21 09:24:30,1558401903,20190521012417_1f0989428e60d67b77de9aaf474c9b6a4072322_v2,http://postback.berrymobapi.com/postback/?tid=20190521012417_1f0989428e60d67b77de9aaf474c9b6a4072322_v2&src=823,idfa_2c8bce48-529f-430e-8f65-8736f05c85d8,Bahasa%20Indonesia
uuRCXPoQTXG1o_ULUmCxjA,berrymob,2122_22374598,Install,0.21,112.215.244.208,d9ddc169-cb27-4f02-a4d9-bf0ca31ce1a4,1558412059,2019-05-21 12:14:19,1558412161,2019-05-21 12:16:01,1558412193,20190521041417_0ecefb90d330b5e2834a927f72e39c1e3825228_v2,http://postback.berrymobapi.com/postback/?tid=20190521041417_0ecefb90d330b5e2834a927f72e39c1e3825228_v2&src=823,idfa_d9ddc169-cb27-4f02-a4d9-bf0ca31ce1a4,Bahasa%20Indonesia
uuRCXPoQTXG1o_ULUmCxjA,berrymob,2122_22374598,Install,0.21,120.188.38.131,18a3bf22-5630-47c4-afff-44042deb9d6d,1558412130,2019-05-21 12:15:30,1558412386,2019-05-21 12:19:46,1558412418,20190521041519_81e35c74f5f84beaa8a941456c3f45283541188_v2,http://postback.berrymobapi.com/postback/?tid=20190521041519_81e35c74f5f84beaa8a941456c3f45283541188_v2&src=823,idfa_18a3bf22-5630-47c4-afff-44042deb9d6d,Indonesia
uuRCXPoQTXG1o_ULUmCxjA,berrymob,2122_22374598,Install,0.21,111.95.161.110,5ffdb1e6-919b-4bbc-8439-862e0c277c77,1558411482,2019-05-21 12:04:42,1558411590,2019-05-21 12:06:30,1558411622,20190521040441_5ab5d4412aa6d8b92efa64f9653f005d2408570_v2,http://postback.berrymobapi.com/postback/?tid=20190521040441_5ab5d4412aa6d8b92efa64f9653f005d2408570_v2&src=823,idfa_5ffdb1e6-919b-4bbc-8439-862e0c277c77,English
uuRCXPoQTXG1o_ULUmCxjA,berrymob,2122_22374598,Install,0.21,182.1.92.115,25ac52be-bea7-43aa-b7c2-acbcc9a22b80,1558412055,2019-05-21 12:14:15,1558412161,2019-05-21 12:16:01,1558412192,20190521041413_c609e661fe2fc26cb8e69fadd3dfe1be4012331_v2,http://postback.berrymobapi.com/postback/?tid=20190521041413_c609e661fe2fc26cb8e69fadd3dfe1be4012331_v2&src=823,idfa_25ac52be-bea7-43aa-b7c2-acbcc9a22b80,Indonesia
uuRCXPoQTXG1o_ULUmCxjA,berrymob,2122_22374598,Install,0.21,114.142.170.23,70bde3c4-64eb-4053-8f96-b0da3373259f,1558412128,2019-05-21 12:15:28,1558412245,2019-05-21 12:17:25,1558412276,20190521041519_a78e322a0964ae86367450a31b5fe0854717764_v2,http://postback.berrymobapi.com/postback/?tid=20190521041519_a78e322a0964ae86367450a31b5fe0854717764_v2&src=823,idfa_70bde3c4-64eb-4053-8f96-b0da3373259f,Indonesia
uuRCXPoQTXG1o_ULUmCxjA,berrymob,2122_22374598,Install,0.21,182.0.135.198,0278f9f2-6afc-427c-af55-857bc0c978d7,1558411931,2019-05-21 12:12:11,1558412041,2019-05-21 12:14:01,1558412076,20190521041209_4727ecd8558734da1d5f81e6377b3fd11954388_v2,http://postback.berrymobapi.com/postback/?tid=20190521041209_4727ecd8558734da1d5f81e6377b3fd11954388_v2&src=823,idfa_0278f9f2-6afc-427c-af55-857bc0c978d7,Indonesia
uuRCXPoQTXG1o_ULUmCxjA,berrymob,2122_22374598,Install,0.21,140.213.12.165,ff85fc65-4ef1-485d-be2f-93105bf91ebe,1558411550,2019-05-21 12:05:50,1558411659,2019-05-21 12:07:39,1558411690,20190521040548_c62bc2d58f32371c6a00fef264288ff74068811_v2,http://postback.berrymobapi.com/postback/?tid=20190521040548_c62bc2d58f32371c6a00fef264288ff74068811_v2&src=823,idfa_ff85fc65-4ef1-485d-be2f-93105bf91ebe,Bahasa%20Indonesia
uuRCXPoQTXG1o_ULUmCxjA,berrymob,2122_22374598,Install,0.21,140.213.68.138,24b5980d-3496-4545-b581-150211b3163e,1558328451,2019-05-20 13:00:51,1558328473,2019-05-20 13:01:13,1558328505,20190520050048_92a99e7882ed604f6dc03a333a531c0b4152884_v2,http://postback.berrymobapi.com/postback/?tid=20190520050048_92a99e7882ed604f6dc03a333a531c0b4152884_v2&src=823,idfa_24b5980d-3496-4545-b581-150211b3163e,Indonesia
uuRCXPoQTXG1o_ULUmCxjA,berrymob,2122_22374598,Install,0.21,140.213.0.129,ccf26e46-0f23-48ba-a6e7-25a67cb62ad2,1558411824,2019-05-21 12:10:24,1558411925,2019-05-21 12:12:05,1558411956,20190521041022_8c40ec6adb8812635b1d553b66aa34428087837_v2,http://postback.berrymobapi.com/postback/?tid=20190521041022_8c40ec6adb8812635b1d553b66aa34428087837_v2&src=823,idfa_ccf26e46-0f23-48ba-a6e7-25a67cb62ad2,Indonesia
uuRCXPoQTXG1o_ULUmCxjA,berrymob,2122_22374598,Install,0.21,114.124.229.118,bc509212-44e4-4f5a-bdc6-b20edd788760,1558411879,2019-05-21 12:11:19,1558411992,2019-05-21 12:13:12,1558412023,20190521041117_fbeb28eaf25fa49963a6139dc33055996358184_v2,http://postback.berrymobapi.com/postback/?tid=20190521041117_fbeb28eaf25fa49963a6139dc33055996358184_v2&src=823,idfa_bc509212-44e4-4f5a-bdc6-b20edd788760,English
uuRCXPoQTXG1o_ULUmCxjA,berrymob,2122_22374598,Install,0.21,223.255.230.232,86924df3-9694-47f2-8be4-8b0eb99a3962,1558412000,2019-05-21 12:13:20,1558412109,2019-05-21 12:15:09,1558412140,20190521041316_456cb3376da51f690ca18d65dc4a967c5412404_v2,http://postback.berrymobapi.com/postback/?tid=20190521041316_456cb3376da51f690ca18d65dc4a967c5412404_v2&src=823,idfa_86924df3-9694-47f2-8be4-8b0eb99a3962,Indonesia
uuRCXPoQTXG1o_ULUmCxjA,berrymob,2122_22374598,Install,0.21,120.188.86.48,82c83f07-095a-44c2-95c5-bae2e02fb1fd,1558329187,2019-05-20 13:13:07,1558329203,2019-05-20 13:13:23,1558329234,20190520051302_2f4031ed8170942968d2fef8e2ae95cc1789247_v2,http://postback.berrymobapi.com/postback/?tid=20190520051302_2f4031ed8170942968d2fef8e2ae95cc1789247_v2&src=823,idfa_82c83f07-095a-44c2-95c5-bae2e02fb1fd,Indonesia
uuRCXPoQTXG1o_ULUmCxjA,berrymob,2122_22374598,Install,0.21,115.178.218.182,634757ee-cd13-4559-9857-9152bc064f18,1558411825,2019-05-21 12:10:25,1558411920,2019-05-21 12:12:00,1558411954,20190521041020_450ecc4c8aaf6629588e28315c12bfbc3085235_v2,http://postback.berrymobapi.com/postback/?tid=20190521041020_450ecc4c8aaf6629588e28315c12bfbc3085235_v2&src=823,idfa_634757ee-cd13-4559-9857-9152bc064f18,English
uuRCXPoQTXG1o_ULUmCxjA,berrymob,2122_22374598,Install,0.21,115.178.220.190,6ece8c6c-665b-4f1b-8cca-c5e921039766,1558412055,2019-05-21 12:14:15,1558412170,2019-05-21 12:16:10,1558412202,20190521041413_f491010b8e08addf85022ba4a44863581717467_v2,http://postback.berrymobapi.com/postback/?tid=20190521041413_f491010b8e08addf85022ba4a44863581717467_v2&src=823,idfa_6ece8c6c-665b-4f1b-8cca-c5e921039766,English
uuRCXPoQTXG1o_ULUmCxjA,berrymob,2122_22374598,Install,0.21,180.248.55.47,78b5d8b1-9e4f-4c80-88d5-6b958548a500,1558411879,2019-05-21 12:11:19,1558412073,2019-05-21 12:14:33,1558412105,20190521041117_d952ad2e4d9c9068095e4812020a8d676219748_v2,http://postback.berrymobapi.com/postback/?tid=20190521041117_d952ad2e4d9c9068095e4812020a8d676219748_v2&src=823,idfa_78b5d8b1-9e4f-4c80-88d5-6b958548a500,English
uuRCXPoQTXG1o_ULUmCxjA,berrymob,2122_22374598,Install,0.21,202.67.45.38,8d855878-ea0f-4f49-b934-85dfaf602506,1558326465,2019-05-20 12:27:45,1558326801,2019-05-20 12:33:21,1558326831,20190520042743_831795867e3ac552c53bb39d165bc4674558838_v2,http://postback.berrymobapi.com/postback/?tid=20190520042743_831795867e3ac552c53bb39d165bc4674558838_v2&src=823,idfa_8d855878-ea0f-4f49-b934-85dfaf602506,Indonesia
uuRCXPoQTXG1o_ULUmCxjA,berrymob,2122_22374598,Install,0.21,139.193.42.142,1fb40584-a2b5-4a5d-aa96-31d0c83b62a0,1558411545,2019-05-21 12:05:45,1558411676,2019-05-21 12:07:56,1558411707,20190521040544_f9e84676e1f54cd4a769a34124283ccf6345023_v2,http://postback.berrymobapi.com/postback/?tid=20190521040544_f9e84676e1f54cd4a769a34124283ccf6345023_v2&src=823,idfa_1fb40584-a2b5-4a5d-aa96-31d0c83b62a0,Indonesia
uuRCXPoQTXG1o_ULUmCxjA,berrymob,2122_22374598,Install,0.21,125.160.47.36,8ca177de-4de4-4baf-8edc-3844d204a1f1,1558412055,2019-05-21 12:14:15,1558412159,2019-05-21 12:15:59,1558412191,20190521041413_232d9041614561d2b6e851b70df8a1592574891_v2,http://postback.berrymobapi.com/postback/?tid=20190521041413_232d9041614561d2b6e851b70df8a1592574891_v2&src=823,idfa_8ca177de-4de4-4baf-8edc-3844d204a1f1,Indonesia
uuRCXPoQTXG1o_ULUmCxjA,berrymob,2122_22374598,Install,0.21,114.125.54.92,2719fcbf-9948-4ad1-87e8-c930408fefd6,1558336280,2019-05-20 15:11:20,1558336583,2019-05-20 15:16:23,1558336613,20190520071113_f6b551a5096024d393e8fa4b6fb4f6458355035_v2,http://postback.berrymobapi.com/postback/?tid=20190520071113_f6b551a5096024d393e8fa4b6fb4f6458355035_v2&src=823,idfa_2719fcbf-9948-4ad1-87e8-c930408fefd6,Bahasa%20Indonesia
uuRCXPoQTXG1o_ULUmCxjA,berrymob,2122_22374598,Install,0.21,116.206.35.26,35ae3633-171c-4a2b-bd65-2dac67283ece,1558411883,2019-05-21 12:11:23,1558411986,2019-05-21 12:13:06,1558412018,20190521041117_c8e6ce4b546f17884ed79f9ad61d91ec5765543_v2,http://postback.berrymobapi.com/postback/?tid=20190521041117_c8e6ce4b546f17884ed79f9ad61d91ec5765543_v2&src=823,idfa_35ae3633-171c-4a2b-bd65-2dac67283ece,Indonesia
uuRCXPoQTXG1o_ULUmCxjA,berrymob,2122_22374598,Install,0.21,114.124.210.186,132d8685-63a9-4e0c-bf94-a1f5958e63b8,1558412058,2019-05-21 12:14:18,1558412169,2019-05-21 12:16:09,1558412200,20190521041417_148089a83677209e2379b3bca687fa433722615_v2,http://postback.berrymobapi.com/postback/?tid=20190521041417_148089a83677209e2379b3bca687fa433722615_v2&src=823,idfa_132d8685-63a9-4e0c-bf94-a1f5958e63b8,English
uuRCXPoQTXG1o_ULUmCxjA,berrymob,2122_22374598,Install,0.21,180.249.203.154,999f6798-bedc-4df7-bd87-554235879981,1558406927,2019-05-21 10:48:47,1558406937,2019-05-21 10:48:57,1558406968,20190521024844_fd8013a7db117c5e69d78ed686906d005842526_v2,http://postback.berrymobapi.com/postback/?tid=20190521024844_fd8013a7db117c5e69d78ed686906d005842526_v2&src=823,idfa_999f6798-bedc-4df7-bd87-554235879981,Bahasa%20Indonesia
uuRCXPoQTXG1o_ULUmCxjA,berrymob,2122_22374598,Install,0.21,115.178.204.134,93aa8139-e173-402e-8d43-631ab47b5ed5,1558411818,2019-05-21 12:10:18,1558412060,2019-05-21 12:14:20,1558412091,20190521041011_0be4806099360ddecf6efd9d2ae5be7a4718751_v2,http://postback.berrymobapi.com/postback/?tid=20190521041011_0be4806099360ddecf6efd9d2ae5be7a4718751_v2&src=823,idfa_93aa8139-e173-402e-8d43-631ab47b5ed5,Bahasa%20Indonesia
uuRCXPoQTXG1o_ULUmCxjA,berrymob,2122_22374598,Install,0.21,114.125.165.129,c2656ba8-8ca5-4322-99b2-5c997c2c4bbd,1558411547,2019-05-21 12:05:47,1558411564,2019-05-21 12:06:04,1558411594,20190521040542_d20b96716f2e076f8af7058b17be31075722012_v2,http://postback.berrymobapi.com/postback/?tid=20190521040542_d20b96716f2e076f8af7058b17be31075722012_v2&src=823,idfa_c2656ba8-8ca5-4322-99b2-5c997c2c4bbd,Bahasa%20Indonesia
uuRCXPoQTXG1o_ULUmCxjA,berrymob,2122_22374598,Install,0.21,114.124.228.65,4220b2e2-47e1-43f4-bbf9-8cbad84587a2,1558402516,2019-05-21 09:35:16,1558402531,2019-05-21 09:35:31,1558402594,20190521013515_3d5bdc1dab2d3bf3ef736c8f1e2404498625391_v2,http://postback.berrymobapi.com/postback/?tid=20190521013515_3d5bdc1dab2d3bf3ef736c8f1e2404498625391_v2&src=823,idfa_4220b2e2-47e1-43f4-bbf9-8cbad84587a2,Indonesia
uuRCXPoQTXG1o_ULUmCxjA,berrymob,2122_22374598,Install,0.21,111.94.237.118,c396847e-3e0c-4e4e-9d60-60873df9c0fe,1558411935,2019-05-21 12:12:15,1558412189,2019-05-21 12:16:29,1558412221,20190521041213_cd678722c950b3de6cccb1bd81e6235d2022861_v2,http://postback.berrymobapi.com/postback/?tid=20190521041213_cd678722c950b3de6cccb1bd81e6235d2022861_v2&src=823,idfa_c396847e-3e0c-4e4e-9d60-60873df9c0fe,Indonesia
uuRCXPoQTXG1o_ULUmCxjA,berrymob,2122_22374598,Install,0.21,182.1.49.30,8af1c46e-b8a8-43d8-9589-39c5c5b6bbb3,1558411931,2019-05-21 12:12:11,1558412042,2019-05-21 12:14:02,1558412073,20190521041209_c6fd3633cbd0c8764256c23b3f066c8b8436665_v2,http://postback.berrymobapi.com/postback/?tid=20190521041209_c6fd3633cbd0c8764256c23b3f066c8b8436665_v2&src=823,idfa_8af1c46e-b8a8-43d8-9589-39c5c5b6bbb3,Indonesia
uuRCXPoQTXG1o_ULUmCxjA,berrymob,2122_22374598,Install,0.21,114.124.230.38,0b94098a-bc1d-47cf-938f-04ff23bb0d84,1558411880,2019-05-21 12:11:20,1558412009,2019-05-21 12:13:29,1558412040,20190521041119_ef352227dfa482b02ec6b17f748d112a4804002_v2,http://postback.berrymobapi.com/postback/?tid=20190521041119_ef352227dfa482b02ec6b17f748d112a4804002_v2&src=823,idfa_0b94098a-bc1d-47cf-938f-04ff23bb0d84,Indonesia
uuRCXPoQTXG1o_ULUmCxjA,berrymob,2122_22374598,Install,0.21,114.124.228.1,3ef3dea7-e7cb-442d-a4f3-a063642ac018,1558411666,2019-05-21 12:07:46,1558411779,2019-05-21 12:09:39,1558411810,20190521040743_ffe901d5cf2971a07c6f3d17758e90849396178_v2,http://postback.berrymobapi.com/postback/?tid=20190521040743_ffe901d5cf2971a07c6f3d17758e90849396178_v2&src=823,idfa_3ef3dea7-e7cb-442d-a4f3-a063642ac018,English
uuRCXPoQTXG1o_ULUmCxjA,berrymob,2122_22374598,Install,0.21,140.213.67.214,5ef68c59-0398-40c5-a0dd-a412c6978913,1558410113,2019-05-21 11:41:53,1558410369,2019-05-21 11:46:09,1558410400,20190521034142_3f8f049c4d0dae5657f4a15491e8959e3191050_v2,http://postback.berrymobapi.com/postback/?tid=20190521034142_3f8f049c4d0dae5657f4a15491e8959e3191050_v2&src=823,idfa_5ef68c59-0398-40c5-a0dd-a412c6978913,Indonesia
uuRCXPoQTXG1o_ULUmCxjA,berrymob,2122_22374598,Install,0.21,203.78.119.218,9d13c6d9-024d-4637-bcf1-d952754e354f,1558411997,2019-05-21 12:13:17,1558412113,2019-05-21 12:15:13,1558412147,20190521041315_5a453612d9ae76660db5a4682402c7507420070_v2,http://postback.berrymobapi.com/postback/?tid=20190521041315_5a453612d9ae76660db5a4682402c7507420070_v2&src=823,idfa_9d13c6d9-024d-4637-bcf1-d952754e354f,Indonesia
uuRCXPoQTXG1o_ULUmCxjA,berrymob,2122_22374598,Install,0.21,120.188.77.158,8b83c03b-5dce-48f6-aa7d-99c4c388a761,1558411881,2019-05-21 12:11:21,1558412057,2019-05-21 12:14:17,1558412089,20190521041118_1a24879a822a4217b641b97bf82836063046510_v2,http://postback.berrymobapi.com/postback/?tid=20190521041118_1a24879a822a4217b641b97bf82836063046510_v2&src=823,idfa_8b83c03b-5dce-48f6-aa7d-99c4c388a761,Indonesia
uuRCXPoQTXG1o_ULUmCxjA,berrymob,2122_22374598,Install,0.21,114.125.52.101,252bdcb8-941b-402e-8ee4-dc28e09ad770,1558406882,2019-05-21 10:48:02,1558406892,2019-05-21 10:48:12,1558406923,20190521024759_e0b33ce09bc12a02e7a904dcd345ebc96968931_v2,http://postback.berrymobapi.com/postback/?tid=20190521024759_e0b33ce09bc12a02e7a904dcd345ebc96968931_v2&src=823,idfa_252bdcb8-941b-402e-8ee4-dc28e09ad770,Bahasa%20Indonesia
uuRCXPoQTXG1o_ULUmCxjA,berrymob,2122_22374598,Install,0.21,114.4.213.123,a2a5a0a2-7e56-443a-82ec-155ff11b9063,1558411996,2019-05-21 12:13:16,1558412120,2019-05-21 12:15:20,1558412152,20190521041314_4d32175177c37c187a0cea896ab16a843134123_v2,http://postback.berrymobapi.com/postback/?tid=20190521041314_4d32175177c37c187a0cea896ab16a843134123_v2&src=823,idfa_a2a5a0a2-7e56-443a-82ec-155ff11b9063,Indonesia
uuRCXPoQTXG1o_ULUmCxjA,berrymob,2122_22374598,Install,0.21,36.69.90.247,d5a4fcf0-4700-4bd0-b739-f43eb0a9d6d5,1558411931,2019-05-21 12:12:11,1558412037,2019-05-21 12:13:57,1558412068,20190521041210_a7a6cce2d62e02a685bf80e4d163419e7190413_v2,http://postback.berrymobapi.com/postback/?tid=20190521041210_a7a6cce2d62e02a685bf80e4d163419e7190413_v2&src=823,idfa_d5a4fcf0-4700-4bd0-b739-f43eb0a9d6d5,Indonesia
uuRCXPoQTXG1o_ULUmCxjA,berrymob,2122_22374598,Install,0.21,140.213.57.221,45c2b830-cd2a-4330-beba-b5f710edcaec,1558411878,2019-05-21 12:11:18,1558411986,2019-05-21 12:13:06,1558412017,20190521041117_5ae3b7eecbfc211ab23b9c08b4f358691323706_v2,http://postback.berrymobapi.com/postback/?tid=20190521041117_5ae3b7eecbfc211ab23b9c08b4f358691323706_v2&src=823,idfa_45c2b830-cd2a-4330-beba-b5f710edcaec,Indonesia
uuRCXPoQTXG1o_ULUmCxjA,berrymob,2122_22374598,Install,0.21,202.67.39.23,b8f7dab3-5a72-492f-92dc-ad2808649a81,1558411935,2019-05-21 12:12:15,1558412038,2019-05-21 12:13:58,1558412069,20190521041211_231ddbd35cec123b5a23fb54473bf8b93484363_v2,http://postback.berrymobapi.com/postback/?tid=20190521041211_231ddbd35cec123b5a23fb54473bf8b93484363_v2&src=823,idfa_b8f7dab3-5a72-492f-92dc-ad2808649a81,Indonesia
uuRCXPoQTXG1o_ULUmCxjA,berrymob,2122_22374598,Install,0.21,120.188.36.238,fa3b92aa-d684-42a3-a2d7-5d55313636d7,1558411964,2019-05-21 12:12:44,1558412045,2019-05-21 12:14:05,1558412076,20190521041222_bdcca965ced00798d4d0fc163ab0ceb93757249_v2,http://postback.berrymobapi.com/postback/?tid=20190521041222_bdcca965ced00798d4d0fc163ab0ceb93757249_v2&src=823,idfa_fa3b92aa-d684-42a3-a2d7-5d55313636d7,Bahasa%20Indonesia
uuRCXPoQTXG1o_ULUmCxjA,berrymob,2122_22374598,Install,0.21,114.5.222.76,c1059589-e2dd-46c2-8c11-f2b10a81dcd4,1558411815,2019-05-21 12:10:15,1558411931,2019-05-21 12:12:11,1558411963,20190521041012_45fba9c70789bc6ff937df8ec085b85e5864469_v2,http://postback.berrymobapi.com/postback/?tid=20190521041012_45fba9c70789bc6ff937df8ec085b85e5864469_v2&src=823,idfa_c1059589-e2dd-46c2-8c11-f2b10a81dcd4,Indonesia
uuRCXPoQTXG1o_ULUmCxjA,berrymob,2122_22374598,Install,0.21,140.213.9.20,dc136f51-eb55-4917-8106-3b7b696e0912,1558407136,2019-05-21 10:52:16,1558407264,2019-05-21 10:54:24,1558407295,20190521025214_2104859fe05d1416cfe502b889ac74173085952_v2,http://postback.berrymobapi.com/postback/?tid=20190521025214_2104859fe05d1416cfe502b889ac74173085952_v2&src=823,idfa_dc136f51-eb55-4917-8106-3b7b696e0912,Bahasa%20Indonesia
uuRCXPoQTXG1o_ULUmCxjA,berrymob,2122_22374598,Install,0.21,120.188.81.171,cce6f4ef-c8c2-41a8-bd62-5cdf0db6e65f,1558411551,2019-05-21 12:05:51,1558411658,2019-05-21 12:07:38,1558411689,20190521040549_44ad3776f3afcaa0f207bb276407bf684694439_v2,http://postback.berrymobapi.com/postback/?tid=20190521040549_44ad3776f3afcaa0f207bb276407bf684694439_v2&src=823,idfa_cce6f4ef-c8c2-41a8-bd62-5cdf0db6e65f,Indonesia
uuRCXPoQTXG1o_ULUmCxjA,berrymob,2122_22374598,Install,0.21,115.178.205.142,3ae32c2a-438a-4f5c-919c-80f90d05781b,1558412056,2019-05-21 12:14:16,1558412163,2019-05-21 12:16:03,1558412195,20190521041414_8f97bbf360b5045fd1d65b286f5fd6298739013_v2,http://postback.berrymobapi.com/postback/?tid=20190521041414_8f97bbf360b5045fd1d65b286f5fd6298739013_v2&src=823,idfa_3ae32c2a-438a-4f5c-919c-80f90d05781b,Indonesia
uuRCXPoQTXG1o_ULUmCxjA,berrymob,2122_22374598,Install,0.21,112.215.219.180,ec5628bd-72b2-487f-8e16-1819a249afd2,1558403368,2019-05-21 09:49:28,1558403396,2019-05-21 09:49:56,1558403426,20190521014926_f0cc1fddfb76dbf957f82633ee3028e46648355_v2,http://postback.berrymobapi.com/postback/?tid=20190521014926_f0cc1fddfb76dbf957f82633ee3028e46648355_v2&src=823,idfa_ec5628bd-72b2-487f-8e16-1819a249afd2,Bahasa%20Indonesia
uuRCXPoQTXG1o_ULUmCxjA,berrymob,2122_22374598,Install,0.21,114.125.21.160,2566b156-36a0-48e4-b7a9-1e268b1c1f01,1558412057,2019-05-21 12:14:17,1558412163,2019-05-21 12:16:03,1558412195,20190521041415_df200d3e3c7e328e6306bcd4ea4614398311472_v2,http://postback.berrymobapi.com/postback/?tid=20190521041415_df200d3e3c7e328e6306bcd4ea4614398311472_v2&src=823,idfa_2566b156-36a0-48e4-b7a9-1e268b1c1f01,Indonesia
uuRCXPoQTXG1o_ULUmCxjA,berrymob,2122_22374598,Install,0.21,223.255.227.26,8dfb9771-17fd-4cde-87f8-dd903a416582,1558411826,2019-05-21 12:10:26,1558411919,2019-05-21 12:11:59,1558411954,20190521041014_b9350ee8d69331a3b6ca712cba88f0c34234645_v2,http://postback.berrymobapi.com/postback/?tid=20190521041014_b9350ee8d69331a3b6ca712cba88f0c34234645_v2&src=823,idfa_8dfb9771-17fd-4cde-87f8-dd903a416582,English
uuRCXPoQTXG1o_ULUmCxjA,berrymob,2122_22374598,Install,0.21,114.125.169.186,0410985c-0128-424d-a327-3dcaebea7b18,1558412055,2019-05-21 12:14:15,1558412239,2019-05-21 12:17:19,1558412271,20190521041413_52d0d38063e185038374547bc78fef213815237_v2,http://postback.berrymobapi.com/postback/?tid=20190521041413_52d0d38063e185038374547bc78fef213815237_v2&src=823,idfa_0410985c-0128-424d-a327-3dcaebea7b18,Bahasa%20Indonesia
uuRCXPoQTXG1o_ULUmCxjA,berrymob,2122_22374598,Install,0.21,180.241.45.197,4e501eb2-4b7c-4a78-b75b-4846e41d8dd6,1558411820,2019-05-21 12:10:20,1558411947,2019-05-21 12:12:27,1558411978,20190521041017_ff68ce700ac8dfe32648046a4ac90d1c8002364_v2,http://postback.berrymobapi.com/postback/?tid=20190521041017_ff68ce700ac8dfe32648046a4ac90d1c8002364_v2&src=823,idfa_4e501eb2-4b7c-4a78-b75b-4846e41d8dd6,Indonesia
uuRCXPoQTXG1o_ULUmCxjA,berrymob,2122_22374598,Install,0.21,182.1.209.101,55dc4649-9949-406f-b3d9-687dc729d04e,1558411880,2019-05-21 12:11:20,1558411995,2019-05-21 12:13:15,1558412030,20190521041117_da79cc369cb103830138f799ca1dee8c8922363_v2,http://postback.berrymobapi.com/postback/?tid=20190521041117_da79cc369cb103830138f799ca1dee8c8922363_v2&src=823,idfa_55dc4649-9949-406f-b3d9-687dc729d04e,Indonesia
uuRCXPoQTXG1o_ULUmCxjA,berrymob,2122_22374598,Install,0.21,114.124.214.45,c5516e1b-b580-4d6f-82b3-7cdc271ed33e,1558411932,2019-05-21 12:12:12,1558412038,2019-05-21 12:13:58,1558412070,20190521041210_b4bc1cdea2a2736dbc7b8f1c791833d97317134_v2,http://postback.berrymobapi.com/postback/?tid=20190521041210_b4bc1cdea2a2736dbc7b8f1c791833d97317134_v2&src=823,idfa_c5516e1b-b580-4d6f-82b3-7cdc271ed33e,English
uuRCXPoQTXG1o_ULUmCxjA,berrymob,2122_22374598,Install,0.21,114.142.169.50,167f4bc7-6079-4c7c-8585-a23c746dce12,1558412062,2019-05-21 12:14:22,1558412165,2019-05-21 12:16:05,1558412196,20190521041414_6cd2be6f697c400699991d2c8d1837312705486_v2,http://postback.berrymobapi.com/postback/?tid=20190521041414_6cd2be6f697c400699991d2c8d1837312705486_v2&src=823,idfa_167f4bc7-6079-4c7c-8585-a23c746dce12,Bahasa%20Indonesia
uuRCXPoQTXG1o_ULUmCxjA,berrymob,2122_22374598,Install,0.21,114.125.216.117,d2dcd738-498a-4fbd-b41f-d6b6c43b3037,1558412121,2019-05-21 12:15:21,1558412224,2019-05-21 12:17:04,1558412256,20190521041519_3bfdefc99d69dc387f84d4886b753cb79144549_v2,http://postback.berrymobapi.com/postback/?tid=20190521041519_3bfdefc99d69dc387f84d4886b753cb79144549_v2&src=823,idfa_d2dcd738-498a-4fbd-b41f-d6b6c43b3037,Indonesia
uuRCXPoQTXG1o_ULUmCxjA,berrymob,2122_22374598,Install,0.21,139.194.80.178,5cfbe41e-2ad3-4228-a7b2-2415e08f4d7e,1558411825,2019-05-21 12:10:25,1558411919,2019-05-21 12:11:59,1558411951,20190521041023_77b9a18af68e3262643b504cef67d57f2673909_v2,http://postback.berrymobapi.com/postback/?tid=20190521041023_77b9a18af68e3262643b504cef67d57f2673909_v2&src=823,idfa_5cfbe41e-2ad3-4228-a7b2-2415e08f4d7e,Bahasa%20Indonesia
uuRCXPoQTXG1o_ULUmCxjA,berrymob,2122_22374598,Install,0.21,36.77.18.156,c702c827-face-4ffb-a9ff-07c26926dfc0,1558412061,2019-05-21 12:14:21,1558412164,2019-05-21 12:16:04,1558412196,20190521041419_77a8c3d8e5e0f5d5cfd7bc3d5886759b6643882_v2,http://postback.berrymobapi.com/postback/?tid=20190521041419_77a8c3d8e5e0f5d5cfd7bc3d5886759b6643882_v2&src=823,idfa_c702c827-face-4ffb-a9ff-07c26926dfc0,Indonesia
uuRCXPoQTXG1o_ULUmCxjA,berrymob,2122_22374598,Install,0.21,116.206.14.41,f9042ad0-a901-4e66-a10d-1816b3893708,1558411995,2019-05-21 12:13:15,1558412100,2019-05-21 12:15:00,1558412133,20190521041313_233cc3e75fa14b5040ca658c54d971f94121773_v2,http://postback.berrymobapi.com/postback/?tid=20190521041313_233cc3e75fa14b5040ca658c54d971f94121773_v2&src=823,idfa_f9042ad0-a901-4e66-a10d-1816b3893708,Indonesia
uuRCXPoQTXG1o_ULUmCxjA,berrymob,2122_22374598,Install,0.21,103.105.31.79,1adccf0d-537a-4a25-adf4-b51616c680af,1558412059,2019-05-21 12:14:19,1558412171,2019-05-21 12:16:11,1558412202,20190521041418_fa0381af645133dcb7fdd17b852d715b1320171_v2,http://postback.berrymobapi.com/postback/?tid=20190521041418_fa0381af645133dcb7fdd17b852d715b1320171_v2&src=823,idfa_1adccf0d-537a-4a25-adf4-b51616c680af,Bahasa%20Indonesia
uuRCXPoQTXG1o_ULUmCxjA,berrymob,2122_22374598,Install,0.21,182.1.162.18,a50e132c-fbb6-4f5f-84f5-51b8a5423c10,1558407345,2019-05-21 10:55:45,1558407356,2019-05-21 10:55:56,1558407387,20190521025543_043ffde90e4502748e8216a11eb083c98097704_v2,http://postback.berrymobapi.com/postback/?tid=20190521025543_043ffde90e4502748e8216a11eb083c98097704_v2&src=823,idfa_a50e132c-fbb6-4f5f-84f5-51b8a5423c10,Indonesia
uuRCXPoQTXG1o_ULUmCxjA,berrymob,2122_22374598,Install,0.21,115.178.194.241,07e16177-7320-44fa-bab2-07742ee44d87,1558411997,2019-05-21 12:13:17,1558412109,2019-05-21 12:15:09,1558412141,20190521041314_3707bbb4bb8ddaa04c5debd21b5eb9337414177_v2,http://postback.berrymobapi.com/postback/?tid=20190521041314_3707bbb4bb8ddaa04c5debd21b5eb9337414177_v2&src=823,idfa_07e16177-7320-44fa-bab2-07742ee44d87,Bahasa%20Indonesia
uuRCXPoQTXG1o_ULUmCxjA,berrymob,2122_22374598,Install,0.21,110.136.51.112,c70728c2-83ca-4e14-ba0b-b939cacd09ea,1558411813,2019-05-21 12:10:13,1558411933,2019-05-21 12:12:13,1558411967,20190521041011_cb7163f1a7c8d5b8698fdb47cbe3beb88979372_v2,http://postback.berrymobapi.com/postback/?tid=20190521041011_cb7163f1a7c8d5b8698fdb47cbe3beb88979372_v2&src=823,idfa_c70728c2-83ca-4e14-ba0b-b939cacd09ea,Indonesia
uuRCXPoQTXG1o_ULUmCxjA,berrymob,2122_22374598,Install,0.21,182.0.238.153,21a81099-b7b2-4df8-ae93-f992310eee86,1558411619,2019-05-21 12:06:59,1558411721,2019-05-21 12:08:41,1558411752,20190521040657_47a956aa6b0a7600a1f452dbdce69b1d7574229_v2,http://postback.berrymobapi.com/postback/?tid=20190521040657_47a956aa6b0a7600a1f452dbdce69b1d7574229_v2&src=823,idfa_21a81099-b7b2-4df8-ae93-f992310eee86,Indonesia
uuRCXPoQTXG1o_ULUmCxjA,berrymob,2122_22374598,Install,0.21,115.178.250.243,3d7e9b1e-34a8-49cc-9e80-98a286e00549,1558411668,2019-05-21 12:07:48,1558411776,2019-05-21 12:09:36,1558411808,20190521040746_d4c9d40eff8814775eb0a7c7643cf8125930508_v2,http://postback.berrymobapi.com/postback/?tid=20190521040746_d4c9d40eff8814775eb0a7c7643cf8125930508_v2&src=823,idfa_3d7e9b1e-34a8-49cc-9e80-98a286e00549,Bahasa%20Indonesia
uuRCXPoQTXG1o_ULUmCxjA,berrymob,2122_22374598,Install,0.21,203.78.116.94,a390092f-218c-4aa0-a5d6-69acfb0cd5e1,1558411883,2019-05-21 12:11:23,1558412002,2019-05-21 12:13:22,1558412033,20190521041121_a48902bda5d7d3db967e527e087a8f1d4510865_v2,http://postback.berrymobapi.com/postback/?tid=20190521041121_a48902bda5d7d3db967e527e087a8f1d4510865_v2&src=823,idfa_a390092f-218c-4aa0-a5d6-69acfb0cd5e1,Indonesia
uuRCXPoQTXG1o_ULUmCxjA,berrymob,2122_22374598,Install,0.21,114.124.183.179,adbb18d2-83ab-47a0-925d-25867e67fc41,1558411938,2019-05-21 12:12:18,1558412053,2019-05-21 12:14:13,1558412084,20190521041211_24bd16efdb9f0f7f51836bf77edd903f5550499_v2,http://postback.berrymobapi.com/postback/?tid=20190521041211_24bd16efdb9f0f7f51836bf77edd903f5550499_v2&src=823,idfa_adbb18d2-83ab-47a0-925d-25867e67fc41,Bahasa%20Indonesia
uuRCXPoQTXG1o_ULUmCxjA,berrymob,2122_22374598,Install,0.21,182.1.9.243,fabac4a9-c41e-48dd-bb68-ce4a07ad6d67,1558411880,2019-05-21 12:11:20,1558412049,2019-05-21 12:14:09,1558412080,20190521041118_bb223cb6aedf1040e7e3e27f99e871d75612355_v2,http://postback.berrymobapi.com/postback/?tid=20190521041118_bb223cb6aedf1040e7e3e27f99e871d75612355_v2&src=823,idfa_fabac4a9-c41e-48dd-bb68-ce4a07ad6d67,Indonesia
uuRCXPoQTXG1o_ULUmCxjA,berrymob,2122_22374598,Install,0.21,116.206.29.28,41d31019-8ddf-44ca-a0c8-8e68893376d6,1558411886,2019-05-21 12:11:26,1558411989,2019-05-21 12:13:09,1558412179,20190521041122_78c4ef56dd2f3bbcf7b156d94513e2ed8799991_v2,http://postback.berrymobapi.com/postback/?tid=20190521041122_78c4ef56dd2f3bbcf7b156d94513e2ed8799991_v2&src=823,idfa_41d31019-8ddf-44ca-a0c8-8e68893376d6,Indonesia
uuRCXPoQTXG1o_ULUmCxjA,berrymob,2122_22374598,Install,0.21,114.4.213.222,46ffdfdc-f546-4964-bac0-970253ae8900,1558411819,2019-05-21 12:10:19,1558411926,2019-05-21 12:12:06,1558411957,20190521041013_2671b60fd83ac5704c415da1764342c11125194_v2,http://postback.berrymobapi.com/postback/?tid=20190521041013_2671b60fd83ac5704c415da1764342c11125194_v2&src=823,idfa_46ffdfdc-f546-4964-bac0-970253ae8900,Bahasa%20Indonesia
uuRCXPoQTXG1o_ULUmCxjA,berrymob,2122_22374598,Install,0.21,114.125.236.52,4ce149e8-8f45-4e37-b0b6-28fc1bcbf8ed,1558400708,2019-05-21 09:05:08,1558400748,2019-05-21 09:05:48,1558400780,20190521010505_d0d6ea4cc5b0293a0d1aff6e4540ff7b1230575_v2,http://postback.berrymobapi.com/postback/?tid=20190521010505_d0d6ea4cc5b0293a0d1aff6e4540ff7b1230575_v2&src=823,idfa_4ce149e8-8f45-4e37-b0b6-28fc1bcbf8ed,Indonesia
uuRCXPoQTXG1o_ULUmCxjA,berrymob,2122_22374598,Install,0.21,116.206.42.112,2a933f5b-90e9-4723-b41a-4168eac86b68,1558411816,2019-05-21 12:10:16,1558411955,2019-05-21 12:12:35,1558411988,20190521041013_96aced9305594d3f028a5a2dadaf8bc17774489_v2,http://postback.berrymobapi.com/postback/?tid=20190521041013_96aced9305594d3f028a5a2dadaf8bc17774489_v2&src=823,idfa_2a933f5b-90e9-4723-b41a-4168eac86b68,Bahasa%20Indonesia
uuRCXPoQTXG1o_ULUmCxjA,berrymob,2122_22374598,Install,0.21,114.125.201.140,ebde4457-a918-4fac-b6cc-e96839c167c1,1558400954,2019-05-21 09:09:14,1558402927,2019-05-21 09:42:07,1558402968,20190521010913_c945cc5f9c6435492fdaa10e8c3059c12533178_v2,http://postback.berrymobapi.com/postback/?tid=20190521010913_c945cc5f9c6435492fdaa10e8c3059c12533178_v2&src=823,idfa_ebde4457-a918-4fac-b6cc-e96839c167c1,Bahasa%20Indonesia
uuRCXPoQTXG1o_ULUmCxjA,berrymob,2122_22374598,Install,0.21,114.142.172.34,516b13f1-3279-4c59-be18-0d50549afa48,1558411881,2019-05-21 12:11:21,1558412023,2019-05-21 12:13:43,1558412055,20190521041118_036045176545cf358727b4b5aea104453864038_v2,http://postback.berrymobapi.com/postback/?tid=20190521041118_036045176545cf358727b4b5aea104453864038_v2&src=823,idfa_516b13f1-3279-4c59-be18-0d50549afa48,Indonesia
uuRCXPoQTXG1o_ULUmCxjA,berrymob,2122_22374598,Install,0.21,36.90.171.144,bd3f31a2-6db6-4938-aa39-6961319fe3ec,1558411886,2019-05-21 12:11:26,1558412523,2019-05-21 12:22:03,1558412554,20190521041122_8262aab42c667a21195ee971947e48658263890_v2,http://postback.berrymobapi.com/postback/?tid=20190521041122_8262aab42c667a21195ee971947e48658263890_v2&src=823,idfa_bd3f31a2-6db6-4938-aa39-6961319fe3ec,Indonesia
uuRCXPoQTXG1o_ULUmCxjA,berrymob,2122_22374598,Install,0.21,115.178.251.174,658be81e-6c21-47f8-8ddc-e258d7dac211,1558412099,2019-05-21 12:14:59,1558412173,2019-05-21 12:16:13,1558412205,20190521041435_57671c6a78b0a3d25dee46620d18d1f21511019_v2,http://postback.berrymobapi.com/postback/?tid=20190521041435_57671c6a78b0a3d25dee46620d18d1f21511019_v2&src=823,idfa_658be81e-6c21-47f8-8ddc-e258d7dac211,Bahasa%20Indonesia
uuRCXPoQTXG1o_ULUmCxjA,berrymob,2122_22374598,Install,0.21,115.178.234.146,bdbc7ba1-3598-4aa1-901d-0f295a0c052d,1558412138,2019-05-21 12:15:38,1558412280,2019-05-21 12:18:00,1558412471,20190521041520_273d800c94f8fb374467f8a9c8820e495233660_v2,http://postback.berrymobapi.com/postback/?tid=20190521041520_273d800c94f8fb374467f8a9c8820e495233660_v2&src=823,idfa_bdbc7ba1-3598-4aa1-901d-0f295a0c052d,Bahasa%20Indonesia
uuRCXPoQTXG1o_ULUmCxjA,berrymob,2122_22374598,Install,0.21,182.1.191.209,c5f4b585-8b9a-412c-a9a6-3a9f19822e3b,1558411996,2019-05-21 12:13:16,1558412114,2019-05-21 12:15:14,1558412145,20190521041313_9210df737155264069c920f20ea027fb5620050_v2,http://postback.berrymobapi.com/postback/?tid=20190521041313_9210df737155264069c920f20ea027fb5620050_v2&src=823,idfa_c5f4b585-8b9a-412c-a9a6-3a9f19822e3b,Bahasa%20Indonesia
uuRCXPoQTXG1o_ULUmCxjA,berrymob,2122_22374598,Install,0.21,36.76.126.86,5ec2ac00-ee3c-4fe4-80c8-18b77e56a9ad,1558412119,2019-05-21 12:15:19,1558412225,2019-05-21 12:17:05,1558412256,20190521041517_9ddbdd0a22d1097ebdf7e0e3bdaf1b059654024_v2,http://postback.berrymobapi.com/postback/?tid=20190521041517_9ddbdd0a22d1097ebdf7e0e3bdaf1b059654024_v2&src=823,idfa_5ec2ac00-ee3c-4fe4-80c8-18b77e56a9ad,Indonesia
uuRCXPoQTXG1o_ULUmCxjA,berrymob,2122_22374598,Install,0.21,125.166.116.173,0365359f-38c6-4048-8841-3e65f5311116,1558412012,2019-05-21 12:13:32,1558412109,2019-05-21 12:15:09,1558412140,20190521041322_67c85ddc2a243ed4618e05f16ff09b766386510_v2,http://postback.berrymobapi.com/postback/?tid=20190521041322_67c85ddc2a243ed4618e05f16ff09b766386510_v2&src=823,idfa_0365359f-38c6-4048-8841-3e65f5311116,Indonesia
