cid,partner_id,channel_id,action_id,cpi,ip,idfa,click time,click datetime,install time,install datetime,postback time,click id,postback url,unique user id
olhpJjtfSUC_DvkuNBM7jw,berrymob,2122_22494861,install,0.8,114.30.193.46,2e2bfbbf-3688-4eaa-8e60-12e716887950,1559128687,2019-05-29 19:18:07,1559128756,2019-05-29 19:19:16,1559128787,20190529111805_25f7c65815f16f9a90c57bfae53218178619262_v2,http://postback.berrymobapi.com/postback/?tid=20190529111805_25f7c65815f16f9a90c57bfae53218178619262_v2&src=823,idfa_2e2bfbbf-3688-4eaa-8e60-12e716887950,ko
olhpJjtfSUC_DvkuNBM7jw,berrymob,2122_22494861,install,0.8,117.111.10.71,a5d6fc13-04df-4374-9371-107e9bfce64a,1559127793,2019-05-29 19:03:13,1559127862,2019-05-29 19:04:22,1559127894,20190529110311_b7f866dd439e0378967468a893db2d3e6262325_v2,http://postback.berrymobapi.com/postback/?tid=20190529110311_b7f866dd439e0378967468a893db2d3e6262325_v2&src=823,idfa_a5d6fc13-04df-4374-9371-107e9bfce64a,ko
olhpJjtfSUC_DvkuNBM7jw,berrymob,2122_22494861,install,0.8,106.102.128.21,a33b1457-8fee-43ac-bc78-ab3b951447c2,1559128640,2019-05-29 19:17:20,1559128764,2019-05-29 19:19:24,1559128795,20190529111718_80d7f4983a42927d003ff1ef5d9adb3b7751802_v2,http://postback.berrymobapi.com/postback/?tid=20190529111718_80d7f4983a42927d003ff1ef5d9adb3b7751802_v2&src=823,idfa_a33b1457-8fee-43ac-bc78-ab3b951447c2,ko
olhpJjtfSUC_DvkuNBM7jw,berrymob,2122_22494861,install,0.8,223.38.23.227,1eeabbe8-fbc7-4966-b067-59804211056a,1559127979,2019-05-29 19:06:19,1559128045,2019-05-29 19:07:25,1559128076,20190529110616_c799fd2951e664ea8c0f0f5108d4595c6878980_v2,http://postback.berrymobapi.com/postback/?tid=20190529110616_c799fd2951e664ea8c0f0f5108d4595c6878980_v2&src=823,idfa_1eeabbe8-fbc7-4966-b067-59804211056a,ko
olhpJjtfSUC_DvkuNBM7jw,berrymob,2122_22494861,install,0.8,121.1.95.42,7a5d3602-278b-49c7-8596-e7e6205c9ca0,1559127637,2019-05-29 19:00:37,1559127705,2019-05-29 19:01:45,1559127735,20190529110036_0bb2f392a034f53ffe32a723ac80d3185477164_v2,http://postback.berrymobapi.com/postback/?tid=20190529110036_0bb2f392a034f53ffe32a723ac80d3185477164_v2&src=823,idfa_7a5d3602-278b-49c7-8596-e7e6205c9ca0,ko
olhpJjtfSUC_DvkuNBM7jw,berrymob,2122_22494861,install,0.8,183.107.95.111,3dd3d49c-5563-4fe8-b647-67530077f37c,1559128761,2019-05-29 19:19:21,1559128832,2019-05-29 19:20:32,1559128862,20190529111919_ff6bc3418f7c425120764aa7ade084a04545603_v2,http://postback.berrymobapi.com/postback/?tid=20190529111919_ff6bc3418f7c425120764aa7ade084a04545603_v2&src=823,idfa_3dd3d49c-5563-4fe8-b647-67530077f37c,ko
olhpJjtfSUC_DvkuNBM7jw,berrymob,2122_22494861,install,0.8,125.178.189.246,34d8ec0a-04a8-4a3f-a48e-2b07ab0a8497,1559125781,2019-05-29 18:29:41,1559125851,2019-05-29 18:30:51,1559125882,20190529102939_10a9f7265fe0ea68a3f16dc10f2574513919309_v2,http://postback.berrymobapi.com/postback/?tid=20190529102939_10a9f7265fe0ea68a3f16dc10f2574513919309_v2&src=823,idfa_34d8ec0a-04a8-4a3f-a48e-2b07ab0a8497,ko
olhpJjtfSUC_DvkuNBM7jw,berrymob,2122_22494861,install,0.8,110.46.27.108,90e98383-cb44-4ee1-9427-9c94f90625a6,1559127165,2019-05-29 18:52:45,1559127232,2019-05-29 18:53:52,1559127263,20190529105243_72e4244b6f3438d4c2c7eb430bc67b3c8525134_v2,http://postback.berrymobapi.com/postback/?tid=20190529105243_72e4244b6f3438d4c2c7eb430bc67b3c8525134_v2&src=823,idfa_90e98383-cb44-4ee1-9427-9c94f90625a6,ko
olhpJjtfSUC_DvkuNBM7jw,berrymob,2122_22494861,install,0.8,123.141.225.115,c2ff1093-169f-4400-b62f-236c2f68af8b,1559125367,2019-05-29 18:22:47,1559125441,2019-05-29 18:24:01,1559125472,20190529102245_43aad2f73099f1363bb2e546d23a7d0c8738112_v2,http://postback.berrymobapi.com/postback/?tid=20190529102245_43aad2f73099f1363bb2e546d23a7d0c8738112_v2&src=823,idfa_c2ff1093-169f-4400-b62f-236c2f68af8b,ko
olhpJjtfSUC_DvkuNBM7jw,berrymob,2122_22494861,install,0.8,116.46.4.57,49d11508-a11a-40df-af27-4f9ebf5f3e46,1559127522,2019-05-29 18:58:42,1559127591,2019-05-29 18:59:51,1559127622,20190529105841_72f60718a6ce6c4f3c5cbe63ea1764d17300000_v2,http://postback.berrymobapi.com/postback/?tid=20190529105841_72f60718a6ce6c4f3c5cbe63ea1764d17300000_v2&src=823,idfa_49d11508-a11a-40df-af27-4f9ebf5f3e46,ko
olhpJjtfSUC_DvkuNBM7jw,berrymob,2122_22494861,install,0.8,211.36.139.99,2ac0a25e-410c-4fb6-8821-baba50a5b549,1559125668,2019-05-29 18:27:48,1559125736,2019-05-29 18:28:56,1559125767,20190529102746_809d43c145124a83b73b37fb475bc9327456026_v2,http://postback.berrymobapi.com/postback/?tid=20190529102746_809d43c145124a83b73b37fb475bc9327456026_v2&src=823,idfa_2ac0a25e-410c-4fb6-8821-baba50a5b549,ko
olhpJjtfSUC_DvkuNBM7jw,berrymob,2122_22494861,install,0.8,116.32.99.104,3f2ec467-5968-4f7b-8ee3-e5998327b61b,1559126842,2019-05-29 18:47:22,1559126910,2019-05-29 18:48:30,1559126941,20190529104721_7f1ce6d73eae6dadd64aea485b803f3e8432294_v2,http://postback.berrymobapi.com/postback/?tid=20190529104721_7f1ce6d73eae6dadd64aea485b803f3e8432294_v2&src=823,idfa_3f2ec467-5968-4f7b-8ee3-e5998327b61b,ko
olhpJjtfSUC_DvkuNBM7jw,berrymob,2122_22494861,install,0.8,39.7.50.149,d080985b-3bb0-4af5-9e35-f87498b3da26,1559125427,2019-05-29 18:23:47,1559125494,2019-05-29 18:24:54,1559125525,20190529102345_d11e03375a7c28fae753a3cd34e3aa519323369_v2,http://postback.berrymobapi.com/postback/?tid=20190529102345_d11e03375a7c28fae753a3cd34e3aa519323369_v2&src=823,idfa_d080985b-3bb0-4af5-9e35-f87498b3da26,ko
olhpJjtfSUC_DvkuNBM7jw,berrymob,2122_22494861,install,0.8,58.79.45.110,9b3eda72-e1b1-46e1-bc02-b0ca2bac6f25,1559128577,2019-05-29 19:16:17,1559128647,2019-05-29 19:17:27,1559128678,20190529111615_94f6b98ad3aae3861c1b98dac667b2a32691824_v2,http://postback.berrymobapi.com/postback/?tid=20190529111615_94f6b98ad3aae3861c1b98dac667b2a32691824_v2&src=823,idfa_9b3eda72-e1b1-46e1-bc02-b0ca2bac6f25,ko
olhpJjtfSUC_DvkuNBM7jw,berrymob,2122_22494861,install,0.8,106.102.11.10,18908d23-4b50-42fd-a384-4257af92fa72,1559128218,2019-05-29 19:10:18,1559128284,2019-05-29 19:11:24,1559128316,20190529111016_2aac43cdd85e894c085c236138ddf1c18137920_v2,http://postback.berrymobapi.com/postback/?tid=20190529111016_2aac43cdd85e894c085c236138ddf1c18137920_v2&src=823,idfa_18908d23-4b50-42fd-a384-4257af92fa72,ko
olhpJjtfSUC_DvkuNBM7jw,berrymob,2122_22494861,install,0.8,116.46.189.212,ce865d47-b2d1-4108-baa6-0ab74e29b6a9,1559128640,2019-05-29 19:17:20,1559128709,2019-05-29 19:18:29,1559128741,20190529111717_b2bd741e15ecd98d1f11e89113893d1b6961481_v2,http://postback.berrymobapi.com/postback/?tid=20190529111717_b2bd741e15ecd98d1f11e89113893d1b6961481_v2&src=823,idfa_ce865d47-b2d1-4108-baa6-0ab74e29b6a9,ko
olhpJjtfSUC_DvkuNBM7jw,berrymob,2122_22494861,install,0.8,125.183.23.42,8c611569-7281-4fef-9119-b95790180a9f,1559125724,2019-05-29 18:28:44,1559125796,2019-05-29 18:29:56,1559125827,20190529102843_220fecee99467c68a659a25e4e5b1f1e1647116_v2,http://postback.berrymobapi.com/postback/?tid=20190529102843_220fecee99467c68a659a25e4e5b1f1e1647116_v2&src=823,idfa_8c611569-7281-4fef-9119-b95790180a9f,ko
olhpJjtfSUC_DvkuNBM7jw,berrymob,2122_22494861,install,0.8,112.152.154.8,df13f030-201d-4f1f-a08b-86e54410b4b2,1559127225,2019-05-29 18:53:45,1559127294,2019-05-29 18:54:54,1559127325,20190529105344_9cbecb2741753775ff620572a13317402493885_v2,http://postback.berrymobapi.com/postback/?tid=20190529105344_9cbecb2741753775ff620572a13317402493885_v2&src=823,idfa_df13f030-201d-4f1f-a08b-86e54410b4b2,ko
olhpJjtfSUC_DvkuNBM7jw,berrymob,2122_22494861,install,0.8,223.38.17.24,56715c81-ef21-41b2-8e5a-7f3e1db9896d,1559127795,2019-05-29 19:03:15,1559127864,2019-05-29 19:04:24,1559127895,20190529110313_69ec610b6d4d9613ce4879e2585f2e293795863_v2,http://postback.berrymobapi.com/postback/?tid=20190529110313_69ec610b6d4d9613ce4879e2585f2e293795863_v2&src=823,idfa_56715c81-ef21-41b2-8e5a-7f3e1db9896d,ko
olhpJjtfSUC_DvkuNBM7jw,berrymob,2122_22494861,install,0.8,219.255.223.55,e5ae2726-d175-45f8-8ece-b9c9ee96756c,1559126095,2019-05-29 18:34:55,1559126158,2019-05-29 18:35:58,1559126189,20190529103452_2712b1e50c215533812b7de4cf87ab0d7927687_v2,http://postback.berrymobapi.com/postback/?tid=20190529103452_2712b1e50c215533812b7de4cf87ab0d7927687_v2&src=823,idfa_e5ae2726-d175-45f8-8ece-b9c9ee96756c,ko
olhpJjtfSUC_DvkuNBM7jw,berrymob,2122_22494861,install,0.8,59.20.111.220,d8869d3f-1c07-437a-b42b-0d218fa0e9e2,1559128761,2019-05-29 19:19:21,1559128863,2019-05-29 19:21:03,1559128894,20190529111919_0d57af82b41c3e0f61cb9205d3f4f5824836339_v2,http://postback.berrymobapi.com/postback/?tid=20190529111919_0d57af82b41c3e0f61cb9205d3f4f5824836339_v2&src=823,idfa_d8869d3f-1c07-437a-b42b-0d218fa0e9e2,ko
olhpJjtfSUC_DvkuNBM7jw,berrymob,2122_22494861,install,0.8,223.33.153.139,57dba350-e9cc-4d35-a987-dc7181270d06,1559127453,2019-05-29 18:57:33,1559127564,2019-05-29 18:59:24,1559127595,20190529105731_0cfad33b9a974c8d929469816fd28ed67615274_v2,http://postback.berrymobapi.com/postback/?tid=20190529105731_0cfad33b9a974c8d929469816fd28ed67615274_v2&src=823,idfa_57dba350-e9cc-4d35-a987-dc7181270d06,ko
olhpJjtfSUC_DvkuNBM7jw,berrymob,2122_22494861,install,0.8,182.228.185.165,4d46b9c6-8f66-4d24-8c5c-c5b9b5411ade,1559128336,2019-05-29 19:12:16,1559128407,2019-05-29 19:13:27,1559128438,20190529111214_24bc0217d0abb0663c586810a6041af67109788_v2,http://postback.berrymobapi.com/postback/?tid=20190529111214_24bc0217d0abb0663c586810a6041af67109788_v2&src=823,idfa_4d46b9c6-8f66-4d24-8c5c-c5b9b5411ade,ko
olhpJjtfSUC_DvkuNBM7jw,berrymob,2122_22494861,install,0.8,39.113.228.33,191fddd4-d6fc-4a71-89c3-adf7a384ea74,1559128396,2019-05-29 19:13:16,1559128464,2019-05-29 19:14:24,1559128494,20190529111314_519fa6a28c3ec246f7a44b5de3931caa1173376_v2,http://postback.berrymobapi.com/postback/?tid=20190529111314_519fa6a28c3ec246f7a44b5de3931caa1173376_v2&src=823,idfa_191fddd4-d6fc-4a71-89c3-adf7a384ea74,ko
olhpJjtfSUC_DvkuNBM7jw,berrymob,2122_22494861,install,0.8,119.148.159.168,4e5905b2-78b2-4cd6-9b4c-8fa0324ec52b,1559128688,2019-05-29 19:18:08,1559128754,2019-05-29 19:19:14,1559128785,20190529111805_5d9f3f21053215746caad3244a07445c9427665_v2,http://postback.berrymobapi.com/postback/?tid=20190529111805_5d9f3f21053215746caad3244a07445c9427665_v2&src=823,idfa_4e5905b2-78b2-4cd6-9b4c-8fa0324ec52b,ko
olhpJjtfSUC_DvkuNBM7jw,berrymob,2122_22494861,install,0.8,183.104.213.39,2062141c-671e-46c3-95f0-21816889a28c,1559125608,2019-05-29 18:26:48,1559125690,2019-05-29 18:28:10,1559125721,20190529102646_2ebc11d5fc5546019dd81ce508c21bb28630339_v2,http://postback.berrymobapi.com/postback/?tid=20190529102646_2ebc11d5fc5546019dd81ce508c21bb28630339_v2&src=823,idfa_2062141c-671e-46c3-95f0-21816889a28c,ko
olhpJjtfSUC_DvkuNBM7jw,berrymob,2122_22494861,install,0.8,121.144.243.235,60222d54-393d-4c5d-81cd-0101a13f7434,1559127113,2019-05-29 18:51:53,1559127183,2019-05-29 18:53:03,1559127214,20190529105150_0efc5b7619a4a4abf4ec87b992d1a88b4016702_v2,http://postback.berrymobapi.com/postback/?tid=20190529105150_0efc5b7619a4a4abf4ec87b992d1a88b4016702_v2&src=823,idfa_60222d54-393d-4c5d-81cd-0101a13f7434,ko
olhpJjtfSUC_DvkuNBM7jw,berrymob,2122_22494861,install,0.8,221.144.164.207,dc4c2387-918e-41b5-8c86-22dbe8b9ce37,1559127097,2019-05-29 18:51:37,1559127317,2019-05-29 18:55:17,1559127347,20190529105135_ec7c314dd6b9675d33eb0c2c546ac6a89930410_v2,http://postback.berrymobapi.com/postback/?tid=20190529105135_ec7c314dd6b9675d33eb0c2c546ac6a89930410_v2&src=823,idfa_dc4c2387-918e-41b5-8c86-22dbe8b9ce37,ko
olhpJjtfSUC_DvkuNBM7jw,berrymob,2122_22494861,install,0.8,222.112.243.27,7f1c2f87-5f29-448d-964c-8eff1e45799a,1559128095,2019-05-29 19:08:15,1559128168,2019-05-29 19:09:28,1559128198,20190529110814_6436f32c93a176b66986b5b6ec45a5615256312_v2,http://postback.berrymobapi.com/postback/?tid=20190529110814_6436f32c93a176b66986b5b6ec45a5615256312_v2&src=823,idfa_7f1c2f87-5f29-448d-964c-8eff1e45799a,ko
olhpJjtfSUC_DvkuNBM7jw,berrymob,2122_22494861,install,0.8,39.7.47.202,c262394a-1957-471f-bb27-5a276d3bedfe,1559125307,2019-05-29 18:21:47,1559125445,2019-05-29 18:24:05,1559125476,20190529102145_e8a13c69fca0ec7e7ad04c4c6788aa298195270_v2,http://postback.berrymobapi.com/postback/?tid=20190529102145_e8a13c69fca0ec7e7ad04c4c6788aa298195270_v2&src=823,idfa_c262394a-1957-471f-bb27-5a276d3bedfe,ko
olhpJjtfSUC_DvkuNBM7jw,berrymob,2122_22494861,install,0.8,223.38.10.136,7589b740-bd60-4110-9448-7d8d25d917c5,1559128699,2019-05-29 19:18:19,1559128774,2019-05-29 19:19:34,1559128805,20190529111817_85dd1e8867b225a5b47805c861be33869498707_v2,http://postback.berrymobapi.com/postback/?tid=20190529111817_85dd1e8867b225a5b47805c861be33869498707_v2&src=823,idfa_7589b740-bd60-4110-9448-7d8d25d917c5,ko
olhpJjtfSUC_DvkuNBM7jw,berrymob,2122_22494861,install,0.8,222.118.174.224,a81ba01f-ded3-40ba-bc64-3bce7fb50ec0,1559125842,2019-05-29 18:30:42,1559125917,2019-05-29 18:31:57,1559125948,20190529103041_cfcd4c0e82f6e7e2a55d681131f770745516498_v2,http://postback.berrymobapi.com/postback/?tid=20190529103041_cfcd4c0e82f6e7e2a55d681131f770745516498_v2&src=823,idfa_a81ba01f-ded3-40ba-bc64-3bce7fb50ec0,ko
olhpJjtfSUC_DvkuNBM7jw,berrymob,2122_22494861,install,0.8,112.160.95.203,ff27f57c-58b6-4a04-aabd-fc68a028b38f,1559126838,2019-05-29 18:47:18,1559127048,2019-05-29 18:50:48,1559127079,20190529104717_a34fbb4fadeb5ef835e4fd4cacef7a797308646_v2,http://postback.berrymobapi.com/postback/?tid=20190529104717_a34fbb4fadeb5ef835e4fd4cacef7a797308646_v2&src=823,idfa_ff27f57c-58b6-4a04-aabd-fc68a028b38f,ko
olhpJjtfSUC_DvkuNBM7jw,berrymob,2122_22494861,install,0.8,218.154.8.53,be0fabfd-eec1-480f-9b0e-99a6f0bd8949,1559126218,2019-05-29 18:36:58,1559126289,2019-05-29 18:38:09,1559126320,20190529103656_2f2416d4b9702f0c45861144252a88d78090729_v2,http://postback.berrymobapi.com/postback/?tid=20190529103656_2f2416d4b9702f0c45861144252a88d78090729_v2&src=823,idfa_be0fabfd-eec1-480f-9b0e-99a6f0bd8949,ko
olhpJjtfSUC_DvkuNBM7jw,berrymob,2122_22494861,install,0.8,118.41.74.241,23405228-fa77-48ec-9a0c-6010632b9277,1559127407,2019-05-29 18:56:47,1559127481,2019-05-29 18:58:01,1559127512,20190529105645_3b0987430719b92a35ba64e5c266fff77534248_v2,http://postback.berrymobapi.com/postback/?tid=20190529105645_3b0987430719b92a35ba64e5c266fff77534248_v2&src=823,idfa_23405228-fa77-48ec-9a0c-6010632b9277,ko
olhpJjtfSUC_DvkuNBM7jw,berrymob,2122_22494861,install,0.8,116.37.159.253,bbbabefb-45b9-4c0f-a41c-f5a37cbad1b3,1559127574,2019-05-29 18:59:34,1559127674,2019-05-29 19:01:14,1559127705,20190529105932_467a709b5c1538f6d93cae6ed1aa27f02502405_v2,http://postback.berrymobapi.com/postback/?tid=20190529105932_467a709b5c1538f6d93cae6ed1aa27f02502405_v2&src=823,idfa_bbbabefb-45b9-4c0f-a41c-f5a37cbad1b3,ko
olhpJjtfSUC_DvkuNBM7jw,berrymob,2122_22494861,install,0.8,1.246.215.86,8cfb5954-e9c2-4464-abb8-b5c72e555064,1559128190,2019-05-29 19:09:50,1559128671,2019-05-29 19:17:51,1559128702,20190529110949_644d175f21a27629c4391c55a779448f8165876_v2,http://postback.berrymobapi.com/postback/?tid=20190529110949_644d175f21a27629c4391c55a779448f8165876_v2&src=823,idfa_8cfb5954-e9c2-4464-abb8-b5c72e555064,ko
olhpJjtfSUC_DvkuNBM7jw,berrymob,2122_22494861,install,0.8,222.234.46.24,63c31780-a5d5-4d42-b257-6d932a98b08f,1559127796,2019-05-29 19:03:16,1559127863,2019-05-29 19:04:23,1559127899,20190529110313_0777d0e018f82bdfd02995bc35fdfc9b7565912_v2,http://postback.berrymobapi.com/postback/?tid=20190529110313_0777d0e018f82bdfd02995bc35fdfc9b7565912_v2&src=823,idfa_63c31780-a5d5-4d42-b257-6d932a98b08f,ko
olhpJjtfSUC_DvkuNBM7jw,berrymob,2122_22494861,install,0.8,175.223.20.169,560ebef3-dc06-4324-a9a5-4f96f842d7c9,1559128035,2019-05-29 19:07:15,1559128730,2019-05-29 19:18:50,1559128760,20190529110712_3cefe11a300d5bb7b370c06286fbfac57116584_v2,http://postback.berrymobapi.com/postback/?tid=20190529110712_3cefe11a300d5bb7b370c06286fbfac57116584_v2&src=823,idfa_560ebef3-dc06-4324-a9a5-4f96f842d7c9,ko
olhpJjtfSUC_DvkuNBM7jw,berrymob,2122_22494861,install,0.8,211.107.177.213,46a0e1e3-0a54-4a32-832b-d4efaee53308,1559128031,2019-05-29 19:07:11,1559128099,2019-05-29 19:08:19,1559128131,20190529110710_74216601df822670d9db0b2d8f41800b5445418_v2,http://postback.berrymobapi.com/postback/?tid=20190529110710_74216601df822670d9db0b2d8f41800b5445418_v2&src=823,idfa_46a0e1e3-0a54-4a32-832b-d4efaee53308,ko
olhpJjtfSUC_DvkuNBM7jw,berrymob,2122_22494861,install,0.8,58.237.255.108,c037f785-9ad8-4698-a577-456b2572567c,1559126020,2019-05-29 18:33:40,1559126913,2019-05-29 18:48:33,1559126945,20190529103339_d8043ab266656050c3fac6edfc3b71e26564588_v2,http://postback.berrymobapi.com/postback/?tid=20190529103339_d8043ab266656050c3fac6edfc3b71e26564588_v2&src=823,idfa_c037f785-9ad8-4698-a577-456b2572567c,ko
olhpJjtfSUC_DvkuNBM7jw,berrymob,2122_22494861,install,0.8,175.210.209.149,52f665d1-09fd-4003-8375-01596185c95d,1559125424,2019-05-29 18:23:44,1559125497,2019-05-29 18:24:57,1559125528,20190529102343_eaab2a8eac788555c2e854c88d0f5dac4971868_v2,http://postback.berrymobapi.com/postback/?tid=20190529102343_eaab2a8eac788555c2e854c88d0f5dac4971868_v2&src=823,idfa_52f665d1-09fd-4003-8375-01596185c95d,ko
olhpJjtfSUC_DvkuNBM7jw,berrymob,2122_22494861,install,0.8,211.36.140.223,3af9eae8-491d-427b-84ec-994839c6bac6,1559125667,2019-05-29 18:27:47,1559125737,2019-05-29 18:28:57,1559125770,20190529102745_5357523b4a1417f30f940a58fe688a7a4137747_v2,http://postback.berrymobapi.com/postback/?tid=20190529102745_5357523b4a1417f30f940a58fe688a7a4137747_v2&src=823,idfa_3af9eae8-491d-427b-84ec-994839c6bac6,ko
olhpJjtfSUC_DvkuNBM7jw,berrymob,2122_22494861,install,0.8,115.21.66.44,5c07477d-8182-442c-a561-75f15666d755,1559126932,2019-05-29 18:48:52,1559126999,2019-05-29 18:49:59,1559127030,20190529104850_1abde37a17c2d393cfe8d4291bcd032b6873691_v2,http://postback.berrymobapi.com/postback/?tid=20190529104850_1abde37a17c2d393cfe8d4291bcd032b6873691_v2&src=823,idfa_5c07477d-8182-442c-a561-75f15666d755,ko
olhpJjtfSUC_DvkuNBM7jw,berrymob,2122_22494861,install,0.8,110.70.58.160,2caf4681-2c9b-4317-9cf6-b94864107dbc,1559128101,2019-05-29 19:08:21,1559128168,2019-05-29 19:09:28,1559128199,20190529110818_2b7cef073902206c6e515693ca59592c3971876_v2,http://postback.berrymobapi.com/postback/?tid=20190529110818_2b7cef073902206c6e515693ca59592c3971876_v2&src=823,idfa_2caf4681-2c9b-4317-9cf6-b94864107dbc,ko
olhpJjtfSUC_DvkuNBM7jw,berrymob,2122_22494861,install,0.8,211.182.236.253,4c5fc8d1-8d47-4804-b9b2-abb0b9a9d95a,1559127521,2019-05-29 18:58:41,1559127587,2019-05-29 18:59:47,1559127618,20190529105839_7ccaebcc5feef845e6a54f1d6a25cfff5348288_v2,http://postback.berrymobapi.com/postback/?tid=20190529105839_7ccaebcc5feef845e6a54f1d6a25cfff5348288_v2&src=823,idfa_4c5fc8d1-8d47-4804-b9b2-abb0b9a9d95a,ko
olhpJjtfSUC_DvkuNBM7jw,berrymob,2122_22494861,install,0.8,223.39.141.54,2edbc250-66ee-419f-a488-b19f165392dc,1559128152,2019-05-29 19:09:12,1559128223,2019-05-29 19:10:23,1559128255,20190529110911_5dc7c51c82f68913a994f3414d04b1032670409_v2,http://postback.berrymobapi.com/postback/?tid=20190529110911_5dc7c51c82f68913a994f3414d04b1032670409_v2&src=823,idfa_2edbc250-66ee-419f-a488-b19f165392dc,ko
olhpJjtfSUC_DvkuNBM7jw,berrymob,2122_22494861,install,0.8,61.101.10.73,92120bfe-50be-4b54-80c6-8ca52aaed080,1559128154,2019-05-29 19:09:14,1559128224,2019-05-29 19:10:24,1559128256,20190529110913_095fc674b6394aa98477a024d2bb139a8336673_v2,http://postback.berrymobapi.com/postback/?tid=20190529110913_095fc674b6394aa98477a024d2bb139a8336673_v2&src=823,idfa_92120bfe-50be-4b54-80c6-8ca52aaed080,ko
olhpJjtfSUC_DvkuNBM7jw,berrymob,2122_22494861,install,0.8,223.62.212.4,f4ca6ccd-5a81-4942-8ec9-88e671d46ffb,1559125899,2019-05-29 18:31:39,1559125970,2019-05-29 18:32:50,1559126001,20190529103137_cf600d28e04a07293e60f1d179d446267076403_v2,http://postback.berrymobapi.com/postback/?tid=20190529103137_cf600d28e04a07293e60f1d179d446267076403_v2&src=823,idfa_f4ca6ccd-5a81-4942-8ec9-88e671d46ffb,ko
olhpJjtfSUC_DvkuNBM7jw,berrymob,2122_22494861,install,0.8,125.183.39.187,90454afd-5ca9-4171-9f9d-72aa9d77dc61,1559128030,2019-05-29 19:07:10,1559128101,2019-05-29 19:08:21,1559128132,20190529110708_a248a049716571066f6b2e3b85e873169390070_v2,http://postback.berrymobapi.com/postback/?tid=20190529110708_a248a049716571066f6b2e3b85e873169390070_v2&src=823,idfa_90454afd-5ca9-4171-9f9d-72aa9d77dc61,ko
olhpJjtfSUC_DvkuNBM7jw,berrymob,2122_22494861,install,0.8,211.36.139.144,f8400585-0ae1-4804-9cbb-00d07689dd5a,1559127738,2019-05-29 19:02:18,1559127806,2019-05-29 19:03:26,1559127837,20190529110216_8ccd4df1325660474297efa6839385685728984_v2,http://postback.berrymobapi.com/postback/?tid=20190529110216_8ccd4df1325660474297efa6839385685728984_v2&src=823,idfa_f8400585-0ae1-4804-9cbb-00d07689dd5a,ko
olhpJjtfSUC_DvkuNBM7jw,berrymob,2122_22494861,install,0.8,59.7.239.44,0c4047ec-f487-4dcb-a047-6252fb7f9b06,1559125480,2019-05-29 18:24:40,1559125549,2019-05-29 18:25:49,1559125580,20190529102439_5a6cbffc993093a79249d235927d369f4076030_v2,http://postback.berrymobapi.com/postback/?tid=20190529102439_5a6cbffc993093a79249d235927d369f4076030_v2&src=823,idfa_0c4047ec-f487-4dcb-a047-6252fb7f9b06,ko
olhpJjtfSUC_DvkuNBM7jw,berrymob,2122_22494861,install,0.8,211.181.182.220,3febf8ba-2eb4-4df2-9fe1-aecce16ee274,1559128517,2019-05-29 19:15:17,1559128584,2019-05-29 19:16:24,1559128615,20190529111515_930528b67cf47f45f6913c8cd9e3f1622584294_v2,http://postback.berrymobapi.com/postback/?tid=20190529111515_930528b67cf47f45f6913c8cd9e3f1622584294_v2&src=823,idfa_3febf8ba-2eb4-4df2-9fe1-aecce16ee274,ko
olhpJjtfSUC_DvkuNBM7jw,berrymob,2122_22494861,install,0.8,175.223.45.55,5d0b8fd9-d007-49e5-8709-e9c6fd87e35a,1559128456,2019-05-29 19:14:16,1559128525,2019-05-29 19:15:25,1559128556,20190529111414_1cf44273ec8d3a8af7425e290025c6001696353_v2,http://postback.berrymobapi.com/postback/?tid=20190529111414_1cf44273ec8d3a8af7425e290025c6001696353_v2&src=823,idfa_5d0b8fd9-d007-49e5-8709-e9c6fd87e35a,ko
olhpJjtfSUC_DvkuNBM7jw,berrymob,2122_22494861,install,0.8,116.125.227.79,49909514-2970-4700-aa37-c09a84d9154d,1559127703,2019-05-29 19:01:43,1559127774,2019-05-29 19:02:54,1559127805,20190529110142_01a3799b503437fda244bfccee3b74fe9619811_v2,http://postback.berrymobapi.com/postback/?tid=20190529110142_01a3799b503437fda244bfccee3b74fe9619811_v2&src=823,idfa_49909514-2970-4700-aa37-c09a84d9154d,ko
olhpJjtfSUC_DvkuNBM7jw,berrymob,2122_22494861,install,0.8,211.246.69.130,2e3cbf8c-6cb1-4a64-9a97-24e8c490257c,1559127977,2019-05-29 19:06:17,1559128052,2019-05-29 19:07:32,1559128083,20190529110615_25d47081a060119c2218ad54a6f401a34502112_v2,http://postback.berrymobapi.com/postback/?tid=20190529110615_25d47081a060119c2218ad54a6f401a34502112_v2&src=823,idfa_2e3cbf8c-6cb1-4a64-9a97-24e8c490257c,ko
olhpJjtfSUC_DvkuNBM7jw,berrymob,2122_22494861,install,0.8,14.36.126.218,a9ddc99d-675c-43e2-9d98-c257bacb6c6f,1559127850,2019-05-29 19:04:10,1559127918,2019-05-29 19:05:18,1559127949,20190529110409_baa9706fba90ebc01a95c3f0bcaa6ac32232825_v2,http://postback.berrymobapi.com/postback/?tid=20190529110409_baa9706fba90ebc01a95c3f0bcaa6ac32232825_v2&src=823,idfa_a9ddc99d-675c-43e2-9d98-c257bacb6c6f,ko
