cid,partner_id,channel_id,action_id,cpi,ip,idfa,click time,click datetime,install time,install datetime,postback time,click id,postback url,unique user id
d-5vAiJeSYCPED2Q71eiuA,berrymob,2122_22191422,install,1.7,49.106.203.136,f12d46dc-c022-472d-8f1a-57fd55c526c1,1557252574,2019-05-08 02:09:34,1557252603,2019-05-08 02:10:03,1557252634,20190507180930_407656f1cf57aee4b50a5121a0cbf1717536408_v2,http://postback.berrymobapi.com/postback/?tid=20190507180930_407656f1cf57aee4b50a5121a0cbf1717536408_v2&src=823,idfa_f12d46dc-c022-472d-8f1a-57fd55c526c1,ja
d-5vAiJeSYCPED2Q71eiuA,berrymob,2122_22191422,install,1.7,223.219.107.105,a42b33a2-7550-4823-9424-a3dda5e0ec53,1557253001,2019-05-08 02:16:41,1557253039,2019-05-08 02:17:19,1557253070,20190507181639_2d294ca0e9d75ed66f29a47821407a0d4594787_v2,http://postback.berrymobapi.com/postback/?tid=20190507181639_2d294ca0e9d75ed66f29a47821407a0d4594787_v2&src=823,idfa_a42b33a2-7550-4823-9424-a3dda5e0ec53,ja
d-5vAiJeSYCPED2Q71eiuA,berrymob,2122_22191422,install,1.7,49.104.44.121,ed30cd5c-9ff7-42b1-9f37-90cd8909898a,1557251950,2019-05-08 01:59:10,1557251988,2019-05-08 01:59:48,1557252020,20190507175909_0fd821d65a37b896a1bbab763803ff569667617_v2,http://postback.berrymobapi.com/postback/?tid=20190507175909_0fd821d65a37b896a1bbab763803ff569667617_v2&src=823,idfa_ed30cd5c-9ff7-42b1-9f37-90cd8909898a,ja
d-5vAiJeSYCPED2Q71eiuA,berrymob,2122_22191422,install,1.7,106.180.37.193,60e78eab-3e47-4ec4-bfa5-d178d288d2ba,1557252365,2019-05-08 02:06:05,1557252403,2019-05-08 02:06:43,1557252434,20190507180603_828cee24e2a84e5340f920c486b2fb3a3710226_v2,http://postback.berrymobapi.com/postback/?tid=20190507180603_828cee24e2a84e5340f920c486b2fb3a3710226_v2&src=823,idfa_60e78eab-3e47-4ec4-bfa5-d178d288d2ba,ja
d-5vAiJeSYCPED2Q71eiuA,berrymob,2122_22191422,install,1.7,110.165.135.83,10e06777-adde-4205-9e22-4ff85602f639,1557251652,2019-05-08 01:54:12,1557251693,2019-05-08 01:54:53,1557251724,20190507175411_974e87186432a55cbc30cdeb1fa02a5c2387469_v2,http://postback.berrymobapi.com/postback/?tid=20190507175411_974e87186432a55cbc30cdeb1fa02a5c2387469_v2&src=823,idfa_10e06777-adde-4205-9e22-4ff85602f639,ja
d-5vAiJeSYCPED2Q71eiuA,berrymob,2122_22191422,install,1.7,106.154.116.118,c260e2af-60e4-4da5-9926-a579c01762ce,1557252476,2019-05-08 02:07:56,1557252513,2019-05-08 02:08:33,1557252544,20190507180753_f3b142de11bc212656625385c18e43a43507716_v2,http://postback.berrymobapi.com/postback/?tid=20190507180753_f3b142de11bc212656625385c18e43a43507716_v2&src=823,idfa_c260e2af-60e4-4da5-9926-a579c01762ce,ja
d-5vAiJeSYCPED2Q71eiuA,berrymob,2122_22191422,install,1.7,119.229.207.216,7c60094b-85ed-4c8e-940d-0d2680bc05dc,1557251711,2019-05-08 01:55:11,1557251749,2019-05-08 01:55:49,1557251781,20190507175508_6526fa2b9b5cd71db6e1ba624c667f993857763_v2,http://postback.berrymobapi.com/postback/?tid=20190507175508_6526fa2b9b5cd71db6e1ba624c667f993857763_v2&src=823,idfa_7c60094b-85ed-4c8e-940d-0d2680bc05dc,ja
d-5vAiJeSYCPED2Q71eiuA,berrymob,2122_22191422,install,1.7,125.194.230.144,47d6591c-7a92-433e-bc61-88a9653cdbed,1557251314,2019-05-08 01:48:34,1557251340,2019-05-08 01:49:00,1557251370,20190507174819_11399fc7e02395bb1a9335de7ca935841940118_v2,http://postback.berrymobapi.com/postback/?tid=20190507174819_11399fc7e02395bb1a9335de7ca935841940118_v2&src=823,idfa_47d6591c-7a92-433e-bc61-88a9653cdbed,ja
d-5vAiJeSYCPED2Q71eiuA,berrymob,2122_22191422,install,1.7,113.159.216.113,a4466308-130c-44ad-9bda-496bf2021ffe,1557251315,2019-05-08 01:48:35,1557251347,2019-05-08 01:49:07,1557251379,20190507174833_7a9e0a4b4e16d453acff3de4a6c7b9f49707404_v2,http://postback.berrymobapi.com/postback/?tid=20190507174833_7a9e0a4b4e16d453acff3de4a6c7b9f49707404_v2&src=823,idfa_a4466308-130c-44ad-9bda-496bf2021ffe,ja
d-5vAiJeSYCPED2Q71eiuA,berrymob,2122_22191422,install,1.7,106.73.7.1,32466668-c448-4bbd-a945-3e0d56533b7d,1557253625,2019-05-08 02:27:05,1557253665,2019-05-08 02:27:45,1557253697,20190507182704_371ddca6b8ed1249f34c55db3636e63d4507807_v2,http://postback.berrymobapi.com/postback/?tid=20190507182704_371ddca6b8ed1249f34c55db3636e63d4507807_v2&src=823,idfa_32466668-c448-4bbd-a945-3e0d56533b7d,ja
d-5vAiJeSYCPED2Q71eiuA,berrymob,2122_22191422,install,1.7,203.165.228.115,4138253a-9716-48ed-8f1a-20a7de9ab061,1557252758,2019-05-08 02:12:38,1557252797,2019-05-08 02:13:17,1557252829,20190507181237_ef06cca8c498c4bcb353ee77370566eb9943615_v2,http://postback.berrymobapi.com/postback/?tid=20190507181237_ef06cca8c498c4bcb353ee77370566eb9943615_v2&src=823,idfa_4138253a-9716-48ed-8f1a-20a7de9ab061,ja
d-5vAiJeSYCPED2Q71eiuA,berrymob,2122_22191422,install,1.7,180.12.133.0,bed853a9-12a5-4f9b-aeb1-50429722249f,1557252866,2019-05-08 02:14:26,1557252900,2019-05-08 02:15:00,1557252933,20190507181424_a53f7ff687a56c3841037ddd88185b3f7771462_v2,http://postback.berrymobapi.com/postback/?tid=20190507181424_a53f7ff687a56c3841037ddd88185b3f7771462_v2&src=823,idfa_bed853a9-12a5-4f9b-aeb1-50429722249f,ja
d-5vAiJeSYCPED2Q71eiuA,berrymob,2122_22191422,install,1.7,150.66.70.225,5c3028b4-30d8-4462-a0b8-843a19e35722,1557251962,2019-05-08 01:59:22,1557251998,2019-05-08 01:59:58,1557252030,20190507175918_f30214c431ea5186702c9f080a55c5322047419_v2,http://postback.berrymobapi.com/postback/?tid=20190507175918_f30214c431ea5186702c9f080a55c5322047419_v2&src=823,idfa_5c3028b4-30d8-4462-a0b8-843a19e35722,ja
d-5vAiJeSYCPED2Q71eiuA,berrymob,2122_22191422,install,1.7,106.180.39.64,4eb39d9c-1045-42d6-aabd-655d58e56578,1557252526,2019-05-08 02:08:46,1557252565,2019-05-08 02:09:25,1557252596,20190507180844_276ddbae088b880454ef017965489d7e5924823_v2,http://postback.berrymobapi.com/postback/?tid=20190507180844_276ddbae088b880454ef017965489d7e5924823_v2&src=823,idfa_4eb39d9c-1045-42d6-aabd-655d58e56578,ja
d-5vAiJeSYCPED2Q71eiuA,berrymob,2122_22191422,install,1.7,49.97.104.9,ebd16242-f238-4887-a032-2f75ce223cba,1557251634,2019-05-08 01:53:54,1557251675,2019-05-08 01:54:35,1557251707,20190507175352_d4bbf11f96485e4815129131c94a0a0a4628534_v2,http://postback.berrymobapi.com/postback/?tid=20190507175352_d4bbf11f96485e4815129131c94a0a0a4628534_v2&src=823,idfa_ebd16242-f238-4887-a032-2f75ce223cba,ja
d-5vAiJeSYCPED2Q71eiuA,berrymob,2122_22191422,install,1.7,121.94.26.198,7ae0cec2-9051-48d2-9d07-0c5531cbeaeb,1557251231,2019-05-08 01:47:11,1557251270,2019-05-08 01:47:50,1557251301,20190507174709_00a1256ed00f9cdf573d39e13c3d61cc2155151_v2,http://postback.berrymobapi.com/postback/?tid=20190507174709_00a1256ed00f9cdf573d39e13c3d61cc2155151_v2&src=823,idfa_7ae0cec2-9051-48d2-9d07-0c5531cbeaeb,ja
d-5vAiJeSYCPED2Q71eiuA,berrymob,2122_22191422,install,1.7,175.177.40.17,88b3a688-538b-4e96-9e28-acfd91dbb711,1557251785,2019-05-08 01:56:25,1557251818,2019-05-08 01:56:58,1557251849,20190507175620_630bd885fd291e3372aa1a9ceda8d5543282848_v2,http://postback.berrymobapi.com/postback/?tid=20190507175620_630bd885fd291e3372aa1a9ceda8d5543282848_v2&src=823,idfa_88b3a688-538b-4e96-9e28-acfd91dbb711,ja
d-5vAiJeSYCPED2Q71eiuA,berrymob,2122_22191422,install,1.7,116.0.192.108,6709ada6-ea9f-42d4-92db-be0b9e9f5b5a,1557252368,2019-05-08 02:06:08,1557252456,2019-05-08 02:07:36,1557252487,20190507180607_58f6ed723e8e51aabdb06aba08b1df972273556_v2,http://postback.berrymobapi.com/postback/?tid=20190507180607_58f6ed723e8e51aabdb06aba08b1df972273556_v2&src=823,idfa_6709ada6-ea9f-42d4-92db-be0b9e9f5b5a,ja
d-5vAiJeSYCPED2Q71eiuA,berrymob,2122_22191422,install,1.7,126.179.144.130,dc4ccf50-d8a3-4be5-99ee-c03d2cd913f3,1557252939,2019-05-08 02:15:39,1557252975,2019-05-08 02:16:15,1557253006,20190507181537_c2878152185c72dff6f1317dba588c8c9925324_v2,http://postback.berrymobapi.com/postback/?tid=20190507181537_c2878152185c72dff6f1317dba588c8c9925324_v2&src=823,idfa_dc4ccf50-d8a3-4be5-99ee-c03d2cd913f3,ja
d-5vAiJeSYCPED2Q71eiuA,berrymob,2122_22191422,install,1.7,111.239.128.142,072679a7-d544-4eab-b79b-8f8c3e12947e,1557251318,2019-05-08 01:48:38,1557251354,2019-05-08 01:49:14,1557251387,20190507174835_4808818dbc26d9b3d8f7e05998037e347400573_v2,http://postback.berrymobapi.com/postback/?tid=20190507174835_4808818dbc26d9b3d8f7e05998037e347400573_v2&src=823,idfa_072679a7-d544-4eab-b79b-8f8c3e12947e,ja
d-5vAiJeSYCPED2Q71eiuA,berrymob,2122_22191422,install,1.7,61.23.150.213,89ce5deb-32b4-4d45-ab5c-81d49f1559af,1557253560,2019-05-08 02:26:00,1557253826,2019-05-08 02:30:26,1557253858,20190507182558_20001c71582eb3df93b67eae018665c97973828_v2,http://postback.berrymobapi.com/postback/?tid=20190507182558_20001c71582eb3df93b67eae018665c97973828_v2&src=823,idfa_89ce5deb-32b4-4d45-ab5c-81d49f1559af,ja
