cid,partner_id,channel_id,action_id,cpi,ip,idfa,click time,click datetime,install time,install datetime,postback time,click id,postback url,unique user id
uuRCXPoQTXG1o_ULUmCxjA,berrymob,2122_2122180432,Install,0.21,182.1.181.226,a98cbc9d-c0b2-46af-927d-955e314284df,1558573740,2019-05-23 09:09:00,1558573827,2019-05-23 09:10:27,1558573858,20190523010834_5dacd2643dbb81a893c3d8e7da9c48fc3602556_v2,http://postback.berrymobapi.com/postback/?tid=20190523010834_5dacd2643dbb81a893c3d8e7da9c48fc3602556_v2&src=823,idfa_a98cbc9d-c0b2-46af-927d-955e314284df,English
uuRCXPoQTXG1o_ULUmCxjA,berrymob,2122_2122180432,Install,0.21,120.188.33.211,a7e31499-2e56-4a78-8299-ae4824ea0e94,1558660282,2019-05-24 09:11:22,1558660400,2019-05-24 09:13:20,1558660431,20190524011120_44db2caaa86204124f14f5f2dede62327614879_v2,http://postback.berrymobapi.com/postback/?tid=20190524011120_44db2caaa86204124f14f5f2dede62327614879_v2&src=823,idfa_a7e31499-2e56-4a78-8299-ae4824ea0e94,Bahasa%20Indonesia
uuRCXPoQTXG1o_ULUmCxjA,berrymob,2122_2122180432,Install,0.21,114.5.216.126,d60bb797-765b-4e39-9967-136a6a577117,1558660225,2019-05-24 09:10:25,1558660326,2019-05-24 09:12:06,1558660365,20190524011023_780210cb3ddc100daab4c2b3b99344ff6806414_v2,http://postback.berrymobapi.com/postback/?tid=20190524011023_780210cb3ddc100daab4c2b3b99344ff6806414_v2&src=823,idfa_d60bb797-765b-4e39-9967-136a6a577117,Indonesia
uuRCXPoQTXG1o_ULUmCxjA,berrymob,2122_2122180432,Install,0.21,116.206.15.43,1a4e448e-069d-4b8a-a994-4a72c45ec40b,1558573647,2019-05-23 09:07:27,1558573759,2019-05-23 09:09:19,1558573790,20190523010725_ed2c2d9f17301946f99b89e9bcf92cbd8414139_v2,http://postback.berrymobapi.com/postback/?tid=20190523010725_ed2c2d9f17301946f99b89e9bcf92cbd8414139_v2&src=823,idfa_1a4e448e-069d-4b8a-a994-4a72c45ec40b,English
uuRCXPoQTXG1o_ULUmCxjA,berrymob,2122_2122180432,Install,0.21,114.5.210.230,8eb2f9af-2ce7-4e28-bf42-7c3c7238c0b9,1558659920,2019-05-24 09:05:20,1558660112,2019-05-24 09:08:32,1558660143,20190524010518_6bf8de6674cf6373914e9658272f94425912311_v2,http://postback.berrymobapi.com/postback/?tid=20190524010518_6bf8de6674cf6373914e9658272f94425912311_v2&src=823,idfa_8eb2f9af-2ce7-4e28-bf42-7c3c7238c0b9,Bahasa%20Indonesia
uuRCXPoQTXG1o_ULUmCxjA,berrymob,2122_2122180432,Install,0.21,114.125.102.254,90f59378-32e6-4882-8832-b4d330e4c04c,1558573949,2019-05-23 09:12:29,1558574063,2019-05-23 09:14:23,1558574094,20190523011227_396cd691fa4a7eea759ddcf067c02edd5703908_v2,http://postback.berrymobapi.com/postback/?tid=20190523011227_396cd691fa4a7eea759ddcf067c02edd5703908_v2&src=823,idfa_90f59378-32e6-4882-8832-b4d330e4c04c,Indonesia
uuRCXPoQTXG1o_ULUmCxjA,berrymob,2122_2122180432,Install,0.21,36.78.52.241,00095149-b6a6-49bd-b5f5-4f2c4d1f6b18,1558660180,2019-05-24 09:09:40,1558661557,2019-05-24 09:32:37,1558661608,20190524010929_44107d48a86141a9c0b1e83ee48d37ba4690359_v2,http://postback.berrymobapi.com/postback/?tid=20190524010929_44107d48a86141a9c0b1e83ee48d37ba4690359_v2&src=823,idfa_00095149-b6a6-49bd-b5f5-4f2c4d1f6b18,Indonesia
uuRCXPoQTXG1o_ULUmCxjA,berrymob,2122_2122180432,Install,0.21,115.178.220.35,0b04e0ca-db6e-49ef-8042-bd8b46452cca,1558660060,2019-05-24 09:07:40,1558660146,2019-05-24 09:09:06,1558660180,20190524010718_bea098437546b7afe2b4b2ce09d186a57430875_v2,http://postback.berrymobapi.com/postback/?tid=20190524010718_bea098437546b7afe2b4b2ce09d186a57430875_v2&src=823,idfa_0b04e0ca-db6e-49ef-8042-bd8b46452cca,Bahasa%20Indonesia
uuRCXPoQTXG1o_ULUmCxjA,berrymob,2122_2122180432,Install,0.21,116.206.8.42,da01f47f-8431-4e32-ba08-cd1b0b42a914,1558573402,2019-05-23 09:03:22,1558573514,2019-05-23 09:05:14,1558573545,20190523010321_124411e8a7e1416662ff4b289b9a33065999321_v2,http://postback.berrymobapi.com/postback/?tid=20190523010321_124411e8a7e1416662ff4b289b9a33065999321_v2&src=823,idfa_da01f47f-8431-4e32-ba08-cd1b0b42a914,Indonesia
uuRCXPoQTXG1o_ULUmCxjA,berrymob,2122_2122180432,Install,0.21,114.125.230.57,bc1d2cda-e13e-4010-880c-babbd34b407f,1558660101,2019-05-24 09:08:21,1558660205,2019-05-24 09:10:05,1558660238,20190524010819_0f1b94ff35654b4a0bc30202e01e24026875113_v2,http://postback.berrymobapi.com/postback/?tid=20190524010819_0f1b94ff35654b4a0bc30202e01e24026875113_v2&src=823,idfa_bc1d2cda-e13e-4010-880c-babbd34b407f,Indonesia
uuRCXPoQTXG1o_ULUmCxjA,berrymob,2122_2122180432,Install,0.21,203.78.120.185,171788c2-b736-4205-ae82-fbf61b5e69e9,1558659734,2019-05-24 09:02:14,1558659920,2019-05-24 09:05:20,1558659952,20190524010213_04c2f9788d38b3c29a8019b9bb2d53911163319_v2,http://postback.berrymobapi.com/postback/?tid=20190524010213_04c2f9788d38b3c29a8019b9bb2d53911163319_v2&src=823,idfa_171788c2-b736-4205-ae82-fbf61b5e69e9,Bahasa%20Indonesia
uuRCXPoQTXG1o_ULUmCxjA,berrymob,2122_2122180432,Install,0.21,115.178.205.142,ae9237e7-1541-4aad-8f00-4ee853d4ae4b,1558573957,2019-05-23 09:12:37,1558574060,2019-05-23 09:14:20,1558574093,20190523011235_7d474a139f9cb1cd558c1393ee245d5d4731849_v2,http://postback.berrymobapi.com/postback/?tid=20190523011235_7d474a139f9cb1cd558c1393ee245d5d4731849_v2&src=823,idfa_ae9237e7-1541-4aad-8f00-4ee853d4ae4b,Bahasa%20Indonesia
uuRCXPoQTXG1o_ULUmCxjA,berrymob,2122_2122180432,Install,0.21,116.206.14.46,81402026-38c9-4d3d-8029-6997f88cc806,1558749867,2019-05-25 10:04:27,1558749916,2019-05-25 10:05:16,1558749947,20190525020424_1125c0573102a124c5b145086c5c79b73909911_v2,http://postback.berrymobapi.com/postback/?tid=20190525020424_1125c0573102a124c5b145086c5c79b73909911_v2&src=823,idfa_81402026-38c9-4d3d-8029-6997f88cc806,Indonesia
uuRCXPoQTXG1o_ULUmCxjA,berrymob,2122_2122180432,Install,0.21,36.74.149.113,92123b27-1c31-4ddb-af8a-3da691e72945,1558573898,2019-05-23 09:11:38,1558574121,2019-05-23 09:15:21,1558574152,20190523011136_627763e6de4015f643bf1d9b77a9344b4799376_v2,http://postback.berrymobapi.com/postback/?tid=20190523011136_627763e6de4015f643bf1d9b77a9344b4799376_v2&src=823,idfa_92123b27-1c31-4ddb-af8a-3da691e72945,Indonesia
uuRCXPoQTXG1o_ULUmCxjA,berrymob,2122_2122180432,Install,0.21,61.94.225.229,5471aa1a-136e-4677-9928-e970685370bd,1558660165,2019-05-24 09:09:25,1558660273,2019-05-24 09:11:13,1558660306,20190524010922_8b29caf66f662d0bc77d1d133336df458952984_v2,http://postback.berrymobapi.com/postback/?tid=20190524010922_8b29caf66f662d0bc77d1d133336df458952984_v2&src=823,idfa_5471aa1a-136e-4677-9928-e970685370bd,Indonesia
uuRCXPoQTXG1o_ULUmCxjA,berrymob,2122_2122180432,Install,0.21,140.213.51.74,d59e7b97-7867-4690-9be8-3d5a8794c3af,1558659981,2019-05-24 09:06:21,1558660106,2019-05-24 09:08:26,1558660137,20190524010619_56a9e301967d09b535deaf1d6ede1bb12338084_v2,http://postback.berrymobapi.com/postback/?tid=20190524010619_56a9e301967d09b535deaf1d6ede1bb12338084_v2&src=823,idfa_d59e7b97-7867-4690-9be8-3d5a8794c3af,Bahasa%20Indonesia
uuRCXPoQTXG1o_ULUmCxjA,berrymob,2122_2122180432,Install,0.21,203.78.114.170,9a6ae832-b3bb-4e83-9f52-413a092cfa9a,1558659799,2019-05-24 09:03:19,1558659900,2019-05-24 09:05:00,1558659932,20190524010316_ebf6e50d2a9b2b1432988113a8195b8e8293367_v2,http://postback.berrymobapi.com/postback/?tid=20190524010316_ebf6e50d2a9b2b1432988113a8195b8e8293367_v2&src=823,idfa_9a6ae832-b3bb-4e83-9f52-413a092cfa9a,Indonesia
uuRCXPoQTXG1o_ULUmCxjA,berrymob,2122_2122180432,Install,0.21,36.82.101.23,6dd3e6b8-c63a-43f6-a17a-0c1c4f766faa,1558660100,2019-05-24 09:08:20,1558660211,2019-05-24 09:10:11,1558660244,20190524010818_82f5bcb77561278b1e34f8df992510be6322935_v2,http://postback.berrymobapi.com/postback/?tid=20190524010818_82f5bcb77561278b1e34f8df992510be6322935_v2&src=823,idfa_6dd3e6b8-c63a-43f6-a17a-0c1c4f766faa,Indonesia
uuRCXPoQTXG1o_ULUmCxjA,berrymob,2122_2122180432,Install,0.21,114.124.181.204,15f0f2cf-24f2-460f-83fe-9167a2fb599a,1558659977,2019-05-24 09:06:17,1558660083,2019-05-24 09:08:03,1558660117,20190524010615_d6888c57beb41d1e82b6b0760f9c4c554146720_v2,http://postback.berrymobapi.com/postback/?tid=20190524010615_d6888c57beb41d1e82b6b0760f9c4c554146720_v2&src=823,idfa_15f0f2cf-24f2-460f-83fe-9167a2fb599a,Bahasa%20Indonesia
uuRCXPoQTXG1o_ULUmCxjA,berrymob,2122_2122180432,Install,0.21,114.125.78.224,67cfa3a4-9022-41be-aac0-5c28fc5fd10d,1558660100,2019-05-24 09:08:20,1558660205,2019-05-24 09:10:05,1558660237,20190524010818_dea9655c1f5be44362a0a40aa4bf5ed21633136_v2,http://postback.berrymobapi.com/postback/?tid=20190524010818_dea9655c1f5be44362a0a40aa4bf5ed21633136_v2&src=823,idfa_67cfa3a4-9022-41be-aac0-5c28fc5fd10d,Indonesia
uuRCXPoQTXG1o_ULUmCxjA,berrymob,2122_2122180432,Install,0.21,115.178.220.78,d8d0b164-57d7-418d-b679-4bcc3439bafd,1558573948,2019-05-23 09:12:28,1558574060,2019-05-23 09:14:20,1558574094,20190523011226_6ac68aec33e021c8f570a5c55721d01b5591887_v2,http://postback.berrymobapi.com/postback/?tid=20190523011226_6ac68aec33e021c8f570a5c55721d01b5591887_v2&src=823,idfa_d8d0b164-57d7-418d-b679-4bcc3439bafd,English
uuRCXPoQTXG1o_ULUmCxjA,berrymob,2122_2122180432,Install,0.21,180.243.151.181,223f46cb-1470-45cc-92fd-20a4b47f2298,1558660295,2019-05-24 09:11:35,1558660430,2019-05-24 09:13:50,1558660466,20190524011131_22f4e201367f6e784256749d69dfd2ac2757443_v2,http://postback.berrymobapi.com/postback/?tid=20190524011131_22f4e201367f6e784256749d69dfd2ac2757443_v2&src=823,idfa_223f46cb-1470-45cc-92fd-20a4b47f2298,Bahasa%20Indonesia
uuRCXPoQTXG1o_ULUmCxjA,berrymob,2122_2122180432,Install,0.21,115.178.205.12,27663111-5286-4549-8c71-4719e06f5e4d,1558507156,2019-05-22 14:39:16,1558507214,2019-05-22 14:40:14,1558507244,20190522063914_80e20bfc096dca1568d651394ff62eb85573974_v2,http://postback.berrymobapi.com/postback/?tid=20190522063914_80e20bfc096dca1568d651394ff62eb85573974_v2&src=823,idfa_27663111-5286-4549-8c71-4719e06f5e4d,Indonesia
uuRCXPoQTXG1o_ULUmCxjA,berrymob,2122_2122180432,Install,0.21,114.125.58.219,095ea186-af05-498c-ad9c-44d2742e1919,1558769188,2019-05-25 15:26:28,1558769486,2019-05-25 15:31:26,1558769517,20190525072622_52380a4dcf052a7559bf72b42d0f6c357470380_v2,http://postback.berrymobapi.com/postback/?tid=20190525072622_52380a4dcf052a7559bf72b42d0f6c357470380_v2&src=823,idfa_095ea186-af05-498c-ad9c-44d2742e1919,Bahasa%20Indonesia
uuRCXPoQTXG1o_ULUmCxjA,berrymob,2122_2122180432,Install,0.21,116.206.29.18,df752492-f44a-421b-9568-cbed74507765,1558660038,2019-05-24 09:07:18,1558660151,2019-05-24 09:09:11,1558660183,20190524010716_5c91694dda60d694aeac430784f347c46817817_v2,http://postback.berrymobapi.com/postback/?tid=20190524010716_5c91694dda60d694aeac430784f347c46817817_v2&src=823,idfa_df752492-f44a-421b-9568-cbed74507765,Bahasa%20Indonesia
uuRCXPoQTXG1o_ULUmCxjA,berrymob,2122_2122180432,Install,0.21,114.125.58.155,00cee26d-a1c5-4148-b17a-1397a773737b,1558660104,2019-05-24 09:08:24,1558660209,2019-05-24 09:10:09,1558660240,20190524010822_72e1588d0abf77bab303752bb495f5858053606_v2,http://postback.berrymobapi.com/postback/?tid=20190524010822_72e1588d0abf77bab303752bb495f5858053606_v2&src=823,idfa_00cee26d-a1c5-4148-b17a-1397a773737b,Indonesia
uuRCXPoQTXG1o_ULUmCxjA,berrymob,2122_2122180432,Install,0.21,120.188.6.127,aba04be0-67b7-41f3-91c8-cfee3ba25370,1558660038,2019-05-24 09:07:18,1558660735,2019-05-24 09:18:55,1558660774,20190524010715_2af1fdf6e7838ee0161b175eb08d85535316673_v2,http://postback.berrymobapi.com/postback/?tid=20190524010715_2af1fdf6e7838ee0161b175eb08d85535316673_v2&src=823,idfa_aba04be0-67b7-41f3-91c8-cfee3ba25370,Bahasa%20Indonesia
uuRCXPoQTXG1o_ULUmCxjA,berrymob,2122_2122180432,Install,0.21,112.215.174.129,5e839e91-47c6-442d-8be6-21f1ef316817,1558573708,2019-05-23 09:08:28,1558573822,2019-05-23 09:10:22,1558573853,20190523010827_08e35cbce3f40924e25963a9dc29140f6643305_v2,http://postback.berrymobapi.com/postback/?tid=20190523010827_08e35cbce3f40924e25963a9dc29140f6643305_v2&src=823,idfa_5e839e91-47c6-442d-8be6-21f1ef316817,Indonesia
uuRCXPoQTXG1o_ULUmCxjA,berrymob,2122_2122180432,Install,0.21,182.1.93.136,09e2ec8c-e98b-4931-802b-bee4f0ebfe6e,1558659859,2019-05-24 09:04:19,1558659959,2019-05-24 09:05:59,1558659991,20190524010417_5c509472e04346863452364517f953ce6774718_v2,http://postback.berrymobapi.com/postback/?tid=20190524010417_5c509472e04346863452364517f953ce6774718_v2&src=823,idfa_09e2ec8c-e98b-4931-802b-bee4f0ebfe6e,Indonesia
uuRCXPoQTXG1o_ULUmCxjA,berrymob,2122_2122180432,Install,0.21,120.188.95.104,b500bfed-161b-4e4f-84a5-84d055c979b6,1558573588,2019-05-23 09:06:28,1558573827,2019-05-23 09:10:27,1558573858,20190523010626_f59b3767ca8cd5ae64a189d6e5aa9b8d6972350_v2,http://postback.berrymobapi.com/postback/?tid=20190523010626_f59b3767ca8cd5ae64a189d6e5aa9b8d6972350_v2&src=823,idfa_b500bfed-161b-4e4f-84a5-84d055c979b6,Indonesia
uuRCXPoQTXG1o_ULUmCxjA,berrymob,2122_2122180432,Install,0.21,36.75.195.100,83f4cac2-b3ab-49ba-ad79-bef68c48dcd8,1558770009,2019-05-25 15:40:09,1558770884,2019-05-25 15:54:44,1558770914,20190525074007_8047711400aa58243a0c1b71d27921c44867292_v2,http://postback.berrymobapi.com/postback/?tid=20190525074007_8047711400aa58243a0c1b71d27921c44867292_v2&src=823,idfa_83f4cac2-b3ab-49ba-ad79-bef68c48dcd8,Bahasa%20Indonesia
uuRCXPoQTXG1o_ULUmCxjA,berrymob,2122_2122180432,Install,0.21,36.65.60.29,31cee90d-f254-4c24-a013-a43d54d77f7d,1558660109,2019-05-24 09:08:29,1558660259,2019-05-24 09:10:59,1558660290,20190524010823_1bed8a62f0c0d39c21b1667d5e448deb6645404_v2,http://postback.berrymobapi.com/postback/?tid=20190524010823_1bed8a62f0c0d39c21b1667d5e448deb6645404_v2&src=823,idfa_31cee90d-f254-4c24-a013-a43d54d77f7d,Bahasa%20Indonesia
uuRCXPoQTXG1o_ULUmCxjA,berrymob,2122_2122180432,Install,0.21,202.67.46.250,178b5de4-510b-4d8f-aa04-48a80b7b245b,1558659917,2019-05-24 09:05:17,1558660016,2019-05-24 09:06:56,1558660047,20190524010515_74fc5c1920ecbba0a6b905d98f1b1fd86382095_v2,http://postback.berrymobapi.com/postback/?tid=20190524010515_74fc5c1920ecbba0a6b905d98f1b1fd86382095_v2&src=823,idfa_178b5de4-510b-4d8f-aa04-48a80b7b245b,Bahasa%20Indonesia
uuRCXPoQTXG1o_ULUmCxjA,berrymob,2122_2122180432,Install,0.21,180.214.232.30,3313ef2c-3512-432c-9f16-075766bc7973,1558573469,2019-05-23 09:04:29,1558573584,2019-05-23 09:06:24,1558573615,20190523010427_b655238f1650c520b8055f18d6ffbf5c4712159_v2,http://postback.berrymobapi.com/postback/?tid=20190523010427_b655238f1650c520b8055f18d6ffbf5c4712159_v2&src=823,idfa_3313ef2c-3512-432c-9f16-075766bc7973,Indonesia
uuRCXPoQTXG1o_ULUmCxjA,berrymob,2122_2122180432,Install,0.21,182.0.201.180,1052f670-0eb4-46bf-a4f6-b8b533c94b51,1558573948,2019-05-23 09:12:28,1558574059,2019-05-23 09:14:19,1558574090,20190523011226_b90d077c6d3044e53bdfa9eba419462a1650520_v2,http://postback.berrymobapi.com/postback/?tid=20190523011226_b90d077c6d3044e53bdfa9eba419462a1650520_v2&src=823,idfa_1052f670-0eb4-46bf-a4f6-b8b533c94b51,Bahasa%20Indonesia
