cid,partner_id,channel_id,action_id,cpi,ip,idfa,click time,click datetime,install time,install datetime,postback time,click id,postback url,unique user id
3lvsubpZTH6If5IYEdYxXA,berrymob,2151_22118885,Install,2.5,42.76.147.126,3ad2ce1f-0ee3-4449-b30c-99445b35c849,1558358829,2019-05-20 21:27:09,1558358905,2019-05-20 21:28:25,1558359104,20190520132708_4adfcd7680bb3fb308a757c51a8c09748641123_v2,http://postback.berrymobapi.com/postback/?tid=20190520132708_4adfcd7680bb3fb308a757c51a8c09748641123_v2&src=823,idfa_3ad2ce1f-0ee3-4449-b30c-99445b35c849,Indonesia
3lvsubpZTH6If5IYEdYxXA,berrymob,2151_22118885,Install,2.5,39.8.99.72,cf65dae0-ac6b-4391-b1d1-f756a61d9aef,1558514788,2019-05-22 16:46:28,1558514863,2019-05-22 16:47:43,1558514893,20190522084626_a23e08e6faacc025ca2a0f26c378efc99245484_v2,http://postback.berrymobapi.com/postback/?tid=20190522084626_a23e08e6faacc025ca2a0f26c378efc99245484_v2&src=823,idfa_cf65dae0-ac6b-4391-b1d1-f756a61d9aef,%E4%B8%AD%E6%96%87
3lvsubpZTH6If5IYEdYxXA,berrymob,2151_22118885,Install,2.5,101.9.151.215,66dc4d63-65d8-4f7e-a1e1-571a2c4c2c54,1558514782,2019-05-22 16:46:22,1558514862,2019-05-22 16:47:42,1558514893,20190522084620_c8f3aa17ce5cea887a13a3b7470307b42320398_v2,http://postback.berrymobapi.com/postback/?tid=20190522084620_c8f3aa17ce5cea887a13a3b7470307b42320398_v2&src=823,idfa_66dc4d63-65d8-4f7e-a1e1-571a2c4c2c54,%E4%B8%AD%E6%96%87
3lvsubpZTH6If5IYEdYxXA,berrymob,2151_22118885,Install,2.5,39.12.73.82,8aa30d3b-dd86-411e-9a32-492e6089b285,1558515368,2019-05-22 16:56:08,1558515470,2019-05-22 16:57:50,1558515501,20190522085606_48aa70e2ba5b2c303ef674ce2fab85039899543_v2,http://postback.berrymobapi.com/postback/?tid=20190522085606_48aa70e2ba5b2c303ef674ce2fab85039899543_v2&src=823,idfa_8aa30d3b-dd86-411e-9a32-492e6089b285,Bahasa%20Indonesia
3lvsubpZTH6If5IYEdYxXA,berrymob,2151_22118885,Install,2.5,223.140.108.143,37d953e4-3b06-4695-872d-56e59670d23d,1558504874,2019-05-22 14:01:14,1558515096,2019-05-22 16:51:36,1558515127,20190522060112_b86148b8e1b53ae1eaf33a042b8d6b8c1834217_v2,http://postback.berrymobapi.com/postback/?tid=20190522060112_b86148b8e1b53ae1eaf33a042b8d6b8c1834217_v2&src=823,idfa_37d953e4-3b06-4695-872d-56e59670d23d,%E4%B8%AD%E6%96%87
3lvsubpZTH6If5IYEdYxXA,berrymob,2151_22118885,Install,2.5,27.242.195.69,0bc582d9-d803-4bd2-aad1-79ece8bb974b,1558359008,2019-05-20 21:30:08,1558359084,2019-05-20 21:31:24,1558359115,20190520133006_73beddad4376f1141a795ca9e0d9e9bc1975727_v2,http://postback.berrymobapi.com/postback/?tid=20190520133006_73beddad4376f1141a795ca9e0d9e9bc1975727_v2&src=823,idfa_0bc582d9-d803-4bd2-aad1-79ece8bb974b,%E4%B8%AD%E6%96%87
3lvsubpZTH6If5IYEdYxXA,berrymob,2151_22118885,Install,2.5,223.137.82.0,cf634cb4-c266-44d6-a449-91093632956e,1558357732,2019-05-20 21:08:52,1558357810,2019-05-20 21:10:10,1558357841,20190520130850_fcce3a4d1d456ea9652761bffe52652f9984376_v2,http://postback.berrymobapi.com/postback/?tid=20190520130850_fcce3a4d1d456ea9652761bffe52652f9984376_v2&src=823,idfa_cf634cb4-c266-44d6-a449-91093632956e,%E4%B8%AD%E6%96%87
3lvsubpZTH6If5IYEdYxXA,berrymob,2151_22118885,Install,2.5,220.135.27.4,6218dff5-0a43-4c18-b858-8ee4a3c9f70d,1558352812,2019-05-20 19:46:52,1558352897,2019-05-20 19:48:17,1558352928,20190520114651_5220032fe04a3384b0b273062e4b36542331227_v2,http://postback.berrymobapi.com/postback/?tid=20190520114651_5220032fe04a3384b0b273062e4b36542331227_v2&src=823,idfa_6218dff5-0a43-4c18-b858-8ee4a3c9f70d,Bahasa%20Indonesia
3lvsubpZTH6If5IYEdYxXA,berrymob,2151_22118885,Install,2.5,49.215.184.19,b56ebdab-47cd-4cda-be1b-5a77b4650c80,1558617489,2019-05-23 21:18:09,1558617565,2019-05-23 21:19:25,1558617597,20190523131807_7e701196aaa21abdb05a79d82d1d4bb55229028_v2,http://postback.berrymobapi.com/postback/?tid=20190523131807_7e701196aaa21abdb05a79d82d1d4bb55229028_v2&src=823,idfa_b56ebdab-47cd-4cda-be1b-5a77b4650c80,Bahasa%20Indonesia
3lvsubpZTH6If5IYEdYxXA,berrymob,2151_22118885,Install,2.5,110.50.142.34,bd0fa255-d097-4655-ab55-362cb1e3d71d,1558513863,2019-05-22 16:31:03,1558513935,2019-05-22 16:32:15,1558513966,20190522083101_d402f82741aa469477d3125ca5bb34e22310128_v2,http://postback.berrymobapi.com/postback/?tid=20190522083101_d402f82741aa469477d3125ca5bb34e22310128_v2&src=823,idfa_bd0fa255-d097-4655-ab55-362cb1e3d71d,English
3lvsubpZTH6If5IYEdYxXA,berrymob,2151_22118885,Install,2.5,223.137.81.146,b76113af-24ef-4069-8151-0a0c8fc05da5,1558516388,2019-05-22 17:13:08,1558516485,2019-05-22 17:14:45,1558516516,20190522091306_521bf67764631629ba9dc2c784b4ef227617437_v2,http://postback.berrymobapi.com/postback/?tid=20190522091306_521bf67764631629ba9dc2c784b4ef227617437_v2&src=823,idfa_b76113af-24ef-4069-8151-0a0c8fc05da5,%E4%B8%AD%E6%96%87
3lvsubpZTH6If5IYEdYxXA,berrymob,2151_22118885,Install,2.5,117.19.133.139,0569e2dd-434a-4333-91e9-2c3ab22388e2,1558516207,2019-05-22 17:10:07,1558516315,2019-05-22 17:11:55,1558516345,20190522091005_2f9d675cad6b8a35445fa22bd96d321d8473770_v2,http://postback.berrymobapi.com/postback/?tid=20190522091005_2f9d675cad6b8a35445fa22bd96d321d8473770_v2&src=823,idfa_0569e2dd-434a-4333-91e9-2c3ab22388e2,%E4%B8%AD%E6%96%87
3lvsubpZTH6If5IYEdYxXA,berrymob,2151_22118885,Install,2.5,42.72.117.180,13681f49-78f4-498b-9751-bbe4636458d7,1558358887,2019-05-20 21:28:07,1558358964,2019-05-20 21:29:24,1558358995,20190520132804_dff767fc5f3f0708f27639ecad4f52ef5756906_v2,http://postback.berrymobapi.com/postback/?tid=20190520132804_dff767fc5f3f0708f27639ecad4f52ef5756906_v2&src=823,idfa_13681f49-78f4-498b-9751-bbe4636458d7,%E4%B8%AD%E6%96%87
3lvsubpZTH6If5IYEdYxXA,berrymob,2151_22118885,Install,2.5,180.217.84.37,2c5a6036-1d64-4872-b12d-41e563529efd,1558357963,2019-05-20 21:12:43,1558358037,2019-05-20 21:13:57,1558358068,20190520131241_51f3619a0433ccc2fc9ba4cb773fc39f8398831_v2,http://postback.berrymobapi.com/postback/?tid=20190520131241_51f3619a0433ccc2fc9ba4cb773fc39f8398831_v2&src=823,idfa_2c5a6036-1d64-4872-b12d-41e563529efd,%E4%B8%AD%E6%96%87
3lvsubpZTH6If5IYEdYxXA,berrymob,2151_22118885,Install,2.5,223.136.136.135,d356002b-624b-422d-a058-82f534b102c1,1558514808,2019-05-22 16:46:48,1558514882,2019-05-22 16:48:02,1558514913,20190522084646_1ceb40347863ee12f4e8fa476e5937c28122523_v2,http://postback.berrymobapi.com/postback/?tid=20190522084646_1ceb40347863ee12f4e8fa476e5937c28122523_v2&src=823,idfa_d356002b-624b-422d-a058-82f534b102c1,%E4%B8%AD%E6%96%87
3lvsubpZTH6If5IYEdYxXA,berrymob,2151_22118885,Install,2.5,60.248.62.217,de5c4ee3-d032-47ca-8f96-27c9fe7a038c,1558504877,2019-05-22 14:01:17,1558505182,2019-05-22 14:06:22,1558505213,20190522060115_2f20fdae33b199476fc61e5109b7bf449019515_v2,http://postback.berrymobapi.com/postback/?tid=20190522060115_2f20fdae33b199476fc61e5109b7bf449019515_v2&src=823,idfa_de5c4ee3-d032-47ca-8f96-27c9fe7a038c,%E4%B8%AD%E6%96%87
3lvsubpZTH6If5IYEdYxXA,berrymob,2151_22118885,Install,2.5,223.141.31.231,de932bc4-b505-45c5-90fa-e6a6720a1151,1558353850,2019-05-20 20:04:10,1558353920,2019-05-20 20:05:20,1558353951,20190520120408_a52050772fe45719ad3735474c89d4df2222118_v2,http://postback.berrymobapi.com/postback/?tid=20190520120408_a52050772fe45719ad3735474c89d4df2222118_v2&src=823,idfa_de932bc4-b505-45c5-90fa-e6a6720a1151,Indonesia
3lvsubpZTH6If5IYEdYxXA,berrymob,2151_22118885,Install,2.5,39.12.37.231,7b248820-1143-430f-a231-4c5b77412cfd,1558673814,2019-05-24 12:56:54,1558673893,2019-05-24 12:58:13,1558674296,20190524045652_216cebb7f32df499ebb26efd82f4597d8701018_v2,http://postback.berrymobapi.com/postback/?tid=20190524045652_216cebb7f32df499ebb26efd82f4597d8701018_v2&src=823,idfa_7b248820-1143-430f-a231-4c5b77412cfd,Bahasa%20Indonesia
3lvsubpZTH6If5IYEdYxXA,berrymob,2151_22118885,Install,2.5,114.26.210.25,e73625f1-d700-46dc-8e27-94188495fb80,1558358766,2019-05-20 21:26:06,1558358842,2019-05-20 21:27:22,1558358873,20190520132604_94dca2e3ffc7250c9cc3dea48cac09bb9203658_v2,http://postback.berrymobapi.com/postback/?tid=20190520132604_94dca2e3ffc7250c9cc3dea48cac09bb9203658_v2&src=823,idfa_e73625f1-d700-46dc-8e27-94188495fb80,%E4%B8%AD%E6%96%87
3lvsubpZTH6If5IYEdYxXA,berrymob,2151_22118885,Install,2.5,27.247.67.17,9fc45fd3-118a-4129-b6d7-d3aa8458abc2,1558358953,2019-05-20 21:29:13,1558359028,2019-05-20 21:30:28,1558359059,20190520132911_391d0983451be586ab3e163c20c2d4143508285_v2,http://postback.berrymobapi.com/postback/?tid=20190520132911_391d0983451be586ab3e163c20c2d4143508285_v2&src=823,idfa_9fc45fd3-118a-4129-b6d7-d3aa8458abc2,%E4%B8%AD%E6%96%87
3lvsubpZTH6If5IYEdYxXA,berrymob,2151_22118885,Install,2.5,101.13.215.81,afa33659-304d-4149-85c4-c3d603180143,1558358886,2019-05-20 21:28:06,1558358964,2019-05-20 21:29:24,1558358996,20190520132804_e61c3141350c29bcfbe0379c292d134c7826836_v2,http://postback.berrymobapi.com/postback/?tid=20190520132804_e61c3141350c29bcfbe0379c292d134c7826836_v2&src=823,idfa_afa33659-304d-4149-85c4-c3d603180143,%E4%B8%AD%E6%96%87
3lvsubpZTH6If5IYEdYxXA,berrymob,2151_22118885,Install,2.5,114.36.250.172,e99f6408-20a3-4823-990d-d7d5800dfef5,1558357896,2019-05-20 21:11:36,1558358229,2019-05-20 21:17:09,1558358260,20190520131133_1eed02ef63a549d1e7e3d782505f848b1370639_v2,http://postback.berrymobapi.com/postback/?tid=20190520131133_1eed02ef63a549d1e7e3d782505f848b1370639_v2&src=823,idfa_e99f6408-20a3-4823-990d-d7d5800dfef5,%E4%B8%AD%E6%96%87
3lvsubpZTH6If5IYEdYxXA,berrymob,2151_22118885,Install,2.5,223.140.220.41,3b5a1148-e23e-4a1b-8c8f-8cf2abf20a7b,1558516147,2019-05-22 17:09:07,1558516238,2019-05-22 17:10:38,1558516269,20190522090905_be6f4416c892f3c4f1cd6349441afd2e5802914_v2,http://postback.berrymobapi.com/postback/?tid=20190522090905_be6f4416c892f3c4f1cd6349441afd2e5802914_v2&src=823,idfa_3b5a1148-e23e-4a1b-8c8f-8cf2abf20a7b,%E4%B8%AD%E6%96%87
3lvsubpZTH6If5IYEdYxXA,berrymob,2151_22118885,Install,2.5,49.217.32.32,3abe52ef-bf85-4f7f-a437-2b012ac9aee1,1558516026,2019-05-22 17:07:06,1558516111,2019-05-22 17:08:31,1558516142,20190522090704_04447dd85efe6b7c0410acf67ed531d79409233_v2,http://postback.berrymobapi.com/postback/?tid=20190522090704_04447dd85efe6b7c0410acf67ed531d79409233_v2&src=823,idfa_3abe52ef-bf85-4f7f-a437-2b012ac9aee1,%E4%B8%AD%E6%96%87
3lvsubpZTH6If5IYEdYxXA,berrymob,2151_22118885,Install,2.5,223.137.118.57,92b5cb44-5f6e-47ff-a358-40bc38e8f654,1558516445,2019-05-22 17:14:05,1558516520,2019-05-22 17:15:20,1558516551,20190522091404_92c9aadc374eb70e15b09f321d33f44b7884312_v2,http://postback.berrymobapi.com/postback/?tid=20190522091404_92c9aadc374eb70e15b09f321d33f44b7884312_v2&src=823,idfa_92b5cb44-5f6e-47ff-a358-40bc38e8f654,%E4%B8%AD%E6%96%87
3lvsubpZTH6If5IYEdYxXA,berrymob,2151_22118885,Install,2.5,1.160.116.17,e2598ea0-beb0-45ad-9789-5619efaaa699,1558674845,2019-05-24 13:14:05,1558674920,2019-05-24 13:15:20,1558674952,20190524051403_ec0d7bd22414c165fda06050dc43b42a3887547_v2,http://postback.berrymobapi.com/postback/?tid=20190524051403_ec0d7bd22414c165fda06050dc43b42a3887547_v2&src=823,idfa_e2598ea0-beb0-45ad-9789-5619efaaa699,%E4%B8%AD%E6%96%87
3lvsubpZTH6If5IYEdYxXA,berrymob,2151_22118885,Install,2.5,180.217.204.191,da09c6b1-a0ca-4694-b78d-0be1851fbadd,1558358952,2019-05-20 21:29:12,1558359022,2019-05-20 21:30:22,1558359056,20190520132908_aca8739505cb46a9c8ac7b6d8def7d535581041_v2,http://postback.berrymobapi.com/postback/?tid=20190520132908_aca8739505cb46a9c8ac7b6d8def7d535581041_v2&src=823,idfa_da09c6b1-a0ca-4694-b78d-0be1851fbadd,%E4%B8%AD%E6%96%87
3lvsubpZTH6If5IYEdYxXA,berrymob,2151_22118885,Install,2.5,36.224.83.205,39b30f77-d17a-41a9-a0d2-1d349cd7703b,1558617488,2019-05-23 21:18:08,1558617796,2019-05-23 21:23:16,1558617827,20190523131806_8ba60c56afcfc058681858132cf6df9e8112800_v2,http://postback.berrymobapi.com/postback/?tid=20190523131806_8ba60c56afcfc058681858132cf6df9e8112800_v2&src=823,idfa_39b30f77-d17a-41a9-a0d2-1d349cd7703b,Indonesia
3lvsubpZTH6If5IYEdYxXA,berrymob,2151_22118885,Install,2.5,27.247.41.37,6dbc1405-4cf5-46c0-a293-c3e35ae218ef,1558359009,2019-05-20 21:30:09,1558359085,2019-05-20 21:31:25,1558359116,20190520133008_7e43a006771d2d43f1fd64b88af2d9e67410200_v2,http://postback.berrymobapi.com/postback/?tid=20190520133008_7e43a006771d2d43f1fd64b88af2d9e67410200_v2&src=823,idfa_6dbc1405-4cf5-46c0-a293-c3e35ae218ef,%E4%B8%AD%E6%96%87
3lvsubpZTH6If5IYEdYxXA,berrymob,2151_22118885,Install,2.5,49.214.140.61,fb1133de-1879-47c3-9949-2abbd9074d26,1558359132,2019-05-20 21:32:12,1558359211,2019-05-20 21:33:31,1558359242,20190520133210_f02188737fc1c70b128b8f60703ac16e8601111_v2,http://postback.berrymobapi.com/postback/?tid=20190520133210_f02188737fc1c70b128b8f60703ac16e8601111_v2&src=823,idfa_fb1133de-1879-47c3-9949-2abbd9074d26,%E4%B8%AD%E6%96%87
3lvsubpZTH6If5IYEdYxXA,berrymob,2151_22118885,Install,2.5,115.43.226.242,d7b29155-7c23-41a1-8961-0ffc9d74092a,1558514046,2019-05-22 16:34:06,1558514126,2019-05-22 16:35:26,1558514157,20190522083404_0c9e8c79907b955f2a7a9148641114141651896_v2,http://postback.berrymobapi.com/postback/?tid=20190522083404_0c9e8c79907b955f2a7a9148641114141651896_v2&src=823,idfa_d7b29155-7c23-41a1-8961-0ffc9d74092a,English
3lvsubpZTH6If5IYEdYxXA,berrymob,2151_22118885,Install,2.5,39.12.70.104,1263082b-dd8a-4dac-b023-29d6076eb042,1558516028,2019-05-22 17:07:08,1558516104,2019-05-22 17:08:24,1558516135,20190522090706_a2ae732324ea3a46bfd97674dd70e6cf8219181_v2,http://postback.berrymobapi.com/postback/?tid=20190522090706_a2ae732324ea3a46bfd97674dd70e6cf8219181_v2&src=823,idfa_1263082b-dd8a-4dac-b023-29d6076eb042,%E4%B8%AD%E6%96%87
3lvsubpZTH6If5IYEdYxXA,berrymob,2151_22118885,Install,2.5,1.162.140.69,87ac71d1-de5f-4cec-870d-4f942e890f8d,1558516215,2019-05-22 17:10:15,1558516282,2019-05-22 17:11:22,1558516313,20190522091013_7936f4ba3e4691e339b6c4023c7c4b314970990_v2,http://postback.berrymobapi.com/postback/?tid=20190522091013_7936f4ba3e4691e339b6c4023c7c4b314970990_v2&src=823,idfa_87ac71d1-de5f-4cec-870d-4f942e890f8d,Bahasa%20Indonesia
3lvsubpZTH6If5IYEdYxXA,berrymob,2151_22118885,Install,2.5,114.34.226.198,31358eb6-e677-462b-986e-3d4e1a1a657a,1558515968,2019-05-22 17:06:08,1558516046,2019-05-22 17:07:26,1558516078,20190522090606_4669ba4bd115187a18b6cc28295298958997496_v2,http://postback.berrymobapi.com/postback/?tid=20190522090606_4669ba4bd115187a18b6cc28295298958997496_v2&src=823,idfa_31358eb6-e677-462b-986e-3d4e1a1a657a,%E4%B8%AD%E6%96%87
3lvsubpZTH6If5IYEdYxXA,berrymob,2151_22118885,Install,2.5,203.222.13.190,15c67c95-d489-4d71-bb49-23483941712e,1558516451,2019-05-22 17:14:11,1558516537,2019-05-22 17:15:37,1558516569,20190522091410_53465e3300c26542c9e7f390fb9d5a287202941_v2,http://postback.berrymobapi.com/postback/?tid=20190522091410_53465e3300c26542c9e7f390fb9d5a287202941_v2&src=823,idfa_15c67c95-d489-4d71-bb49-23483941712e,%E4%B8%AD%E6%96%87
3lvsubpZTH6If5IYEdYxXA,berrymob,2151_22118885,Install,2.5,219.68.132.188,001f5911-8fc8-4c38-b04f-9e01a45c4e69,1558354501,2019-05-20 20:15:01,1558354572,2019-05-20 20:16:12,1558354619,20190520121500_ca462477f61cba936f6055a24d5572e61151384_v2,http://postback.berrymobapi.com/postback/?tid=20190520121500_ca462477f61cba936f6055a24d5572e61151384_v2&src=823,idfa_001f5911-8fc8-4c38-b04f-9e01a45c4e69,Indonesia
3lvsubpZTH6If5IYEdYxXA,berrymob,2151_22118885,Install,2.5,223.137.11.73,efa5e10d-6a73-4aed-b5bf-8593f0af327e,1558352813,2019-05-20 19:46:53,1558352900,2019-05-20 19:48:20,1558352931,20190520114651_30905ace0a65b67d7d1197353e3a6eed6366774_v2,http://postback.berrymobapi.com/postback/?tid=20190520114651_30905ace0a65b67d7d1197353e3a6eed6366774_v2&src=823,idfa_efa5e10d-6a73-4aed-b5bf-8593f0af327e,%E4%B8%AD%E6%96%87
3lvsubpZTH6If5IYEdYxXA,berrymob,2151_22118885,Install,2.5,110.50.179.36,c0b7337e-a8e6-4c9d-9010-d17d38b6c5bc,1558358947,2019-05-20 21:29:07,1558359026,2019-05-20 21:30:26,1558359057,20190520132905_49ea4edbfb81dd192da89365f23f978e4179465_v2,http://postback.berrymobapi.com/postback/?tid=20190520132905_49ea4edbfb81dd192da89365f23f978e4179465_v2&src=823,idfa_c0b7337e-a8e6-4c9d-9010-d17d38b6c5bc,%E4%B8%AD%E6%96%87
3lvsubpZTH6If5IYEdYxXA,berrymob,2151_22118885,Install,2.5,223.141.42.203,49764ea8-c925-4249-9d5a-096af483f8ab,1558515966,2019-05-22 17:06:06,1558516049,2019-05-22 17:07:29,1558516083,20190522090604_8d9f1d005e50a34c9c96288ec174d4f27588260_v2,http://postback.berrymobapi.com/postback/?tid=20190522090604_8d9f1d005e50a34c9c96288ec174d4f27588260_v2&src=823,idfa_49764ea8-c925-4249-9d5a-096af483f8ab,%E4%B8%AD%E6%96%87
3lvsubpZTH6If5IYEdYxXA,berrymob,2151_22118885,Install,2.5,27.52.32.57,62222aef-ded8-471d-b726-59ac718f3a39,1558516088,2019-05-22 17:08:08,1558516163,2019-05-22 17:09:23,1558516194,20190522090805_eb1b9836c6b3f2aa85e5d27aaa52b28a8856948_v2,http://postback.berrymobapi.com/postback/?tid=20190522090805_eb1b9836c6b3f2aa85e5d27aaa52b28a8856948_v2&src=823,idfa_62222aef-ded8-471d-b726-59ac718f3a39,Indonesia
3lvsubpZTH6If5IYEdYxXA,berrymob,2151_22118885,Install,2.5,123.110.207.216,71a8b3be-b8d3-425e-acdc-6896f76260b2,1558514775,2019-05-22 16:46:15,1558514968,2019-05-22 16:49:28,1558515000,20190522084614_e8249b58434ca4dfaa5b46cca54889b77378026_v2,http://postback.berrymobapi.com/postback/?tid=20190522084614_e8249b58434ca4dfaa5b46cca54889b77378026_v2&src=823,idfa_71a8b3be-b8d3-425e-acdc-6896f76260b2,Indonesia
3lvsubpZTH6If5IYEdYxXA,berrymob,2151_22118885,Install,2.5,61.61.13.218,089f492a-f925-4284-92aa-95b6e5d1b956,1558357893,2019-05-20 21:11:33,1558357964,2019-05-20 21:12:44,1558357996,20190520131131_c43c51150d78e44bdc81048a86d9634f1819509_v2,http://postback.berrymobapi.com/postback/?tid=20190520131131_c43c51150d78e44bdc81048a86d9634f1819509_v2&src=823,idfa_089f492a-f925-4284-92aa-95b6e5d1b956,%E4%B8%AD%E6%96%87
3lvsubpZTH6If5IYEdYxXA,berrymob,2151_22118885,Install,2.5,101.13.122.48,b04f78f7-c65c-442d-a30a-545065f4386f,1558357735,2019-05-20 21:08:55,1558357811,2019-05-20 21:10:11,1558357853,20190520130852_ab7693c15e62a780e808f825d0e97c924603991_v2,http://postback.berrymobapi.com/postback/?tid=20190520130852_ab7693c15e62a780e808f825d0e97c924603991_v2&src=823,idfa_b04f78f7-c65c-442d-a30a-545065f4386f,Bahasa%20Indonesia
3lvsubpZTH6If5IYEdYxXA,berrymob,2151_22118885,Install,2.5,49.215.236.72,c3ee9a88-f95a-4c6c-a919-ad8b17816255,1558516272,2019-05-22 17:11:12,1558516342,2019-05-22 17:12:22,1558516373,20190522091110_63549f28e75e42dc6bbc984a66c6a3cf9627995_v2,http://postback.berrymobapi.com/postback/?tid=20190522091110_63549f28e75e42dc6bbc984a66c6a3cf9627995_v2&src=823,idfa_c3ee9a88-f95a-4c6c-a919-ad8b17816255,%E4%B8%AD%E6%96%87
3lvsubpZTH6If5IYEdYxXA,berrymob,2151_22118885,Install,2.5,223.141.117.193,9a64048a-99f8-458c-9fe4-42ebcad5a446,1558515550,2019-05-22 16:59:10,1558515624,2019-05-22 17:00:24,1558515655,20190522085908_81aa10dcfdb1fc927e1648516e293f4a8500523_v2,http://postback.berrymobapi.com/postback/?tid=20190522085908_81aa10dcfdb1fc927e1648516e293f4a8500523_v2&src=823,idfa_9a64048a-99f8-458c-9fe4-42ebcad5a446,English
3lvsubpZTH6If5IYEdYxXA,berrymob,2151_22118885,Install,2.5,101.13.33.79,9a35d7d6-97ac-4f97-8b5e-8110d83d6cc4,1558515849,2019-05-22 17:04:09,1558515925,2019-05-22 17:05:25,1558515957,20190522090407_74a0f8333491377c5c24b2792cdaec502193763_v2,http://postback.berrymobapi.com/postback/?tid=20190522090407_74a0f8333491377c5c24b2792cdaec502193763_v2&src=823,idfa_9a35d7d6-97ac-4f97-8b5e-8110d83d6cc4,%E4%B8%AD%E6%96%87
3lvsubpZTH6If5IYEdYxXA,berrymob,2151_22118885,Install,2.5,114.45.157.213,55763cc8-e3b9-40a8-9e88-fb8fc7da1dad,1558514045,2019-05-22 16:34:05,1558514121,2019-05-22 16:35:21,1558514156,20190522083403_99cd94855946d6d85afe1d9f1557f75d3437326_v2,http://postback.berrymobapi.com/postback/?tid=20190522083403_99cd94855946d6d85afe1d9f1557f75d3437326_v2&src=823,idfa_55763cc8-e3b9-40a8-9e88-fb8fc7da1dad,%E4%B8%AD%E6%96%87
3lvsubpZTH6If5IYEdYxXA,berrymob,2151_22118885,Install,2.5,122.116.197.69,68bf379c-b6d2-4237-b976-5ff90653841f,1558358767,2019-05-20 21:26:07,1558358842,2019-05-20 21:27:22,1558358873,20190520132606_49873d998ef0e1ddd7d1db9068f71d369147719_v2,http://postback.berrymobapi.com/postback/?tid=20190520132606_49873d998ef0e1ddd7d1db9068f71d369147719_v2&src=823,idfa_68bf379c-b6d2-4237-b976-5ff90653841f,%E4%B8%AD%E6%96%87
3lvsubpZTH6If5IYEdYxXA,berrymob,2151_22118885,Install,2.5,101.12.5.55,afb76fe1-2dfc-470a-9b83-8f58a8db14d0,1558516087,2019-05-22 17:08:07,1558516163,2019-05-22 17:09:23,1558516194,20190522090805_0289109903db66a4177580ffd9aedad19030080_v2,http://postback.berrymobapi.com/postback/?tid=20190522090805_0289109903db66a4177580ffd9aedad19030080_v2&src=823,idfa_afb76fe1-2dfc-470a-9b83-8f58a8db14d0,%E4%B8%AD%E6%96%87
3lvsubpZTH6If5IYEdYxXA,berrymob,2151_22118885,Install,2.5,39.9.13.147,8516888b-c84b-4530-a1a6-962ad2ec0a61,1558595761,2019-05-23 15:16:01,1558595838,2019-05-23 15:17:18,1558595869,20190523071559_07267ebd204da10ab9e9d18864a21af26502215_v2,http://postback.berrymobapi.com/postback/?tid=20190523071559_07267ebd204da10ab9e9d18864a21af26502215_v2&src=823,idfa_8516888b-c84b-4530-a1a6-962ad2ec0a61,Bahasa%20Indonesia
3lvsubpZTH6If5IYEdYxXA,berrymob,2151_22118885,Install,2.5,49.216.29.79,c85153fb-a70a-4176-ab85-4a04ed6f2a03,1558515729,2019-05-22 17:02:09,1558515802,2019-05-22 17:03:22,1558515833,20190522090207_0f04b25b78cee121b630943533cbeab28923968_v2,http://postback.berrymobapi.com/postback/?tid=20190522090207_0f04b25b78cee121b630943533cbeab28923968_v2&src=823,idfa_c85153fb-a70a-4176-ab85-4a04ed6f2a03,%E4%B8%AD%E6%96%87
3lvsubpZTH6If5IYEdYxXA,berrymob,2151_22118885,Install,2.5,220.129.227.58,e686be12-b7a5-4d9e-82b8-0aa6d4c7cf6a,1558515549,2019-05-22 16:59:09,1558515638,2019-05-22 17:00:38,1558515668,20190522085907_022b6e1af6ece872138a90fccf2433169299529_v2,http://postback.berrymobapi.com/postback/?tid=20190522085907_022b6e1af6ece872138a90fccf2433169299529_v2&src=823,idfa_e686be12-b7a5-4d9e-82b8-0aa6d4c7cf6a,%E4%B8%AD%E6%96%87
3lvsubpZTH6If5IYEdYxXA,berrymob,2151_22118885,Install,2.5,180.217.214.75,4eca4b76-691f-4118-b248-3eb7aa91fe04,1558516149,2019-05-22 17:09:09,1558516221,2019-05-22 17:10:21,1558516253,20190522090907_b08eabba4cf601d2eb9a9f746be904ed9567486_v2,http://postback.berrymobapi.com/postback/?tid=20190522090907_b08eabba4cf601d2eb9a9f746be904ed9567486_v2&src=823,idfa_4eca4b76-691f-4118-b248-3eb7aa91fe04,%E4%B8%AD%E6%96%87
3lvsubpZTH6If5IYEdYxXA,berrymob,2151_22118885,Install,2.5,110.26.98.202,a08b7cc0-d66a-4f5a-8e7c-362ce8948c56,1558353847,2019-05-20 20:04:07,1558353924,2019-05-20 20:05:24,1558354008,20190520120405_dd6e8a90e71a9468ba16313fdf6121ef7857432_v2,http://postback.berrymobapi.com/postback/?tid=20190520120405_dd6e8a90e71a9468ba16313fdf6121ef7857432_v2&src=823,idfa_a08b7cc0-d66a-4f5a-8e7c-362ce8948c56,English
3lvsubpZTH6If5IYEdYxXA,berrymob,2151_22118885,Install,2.5,114.26.143.92,8c6949f9-bd8a-42f6-94d4-8e3a1230f0a5,1558514777,2019-05-22 16:46:17,1558514855,2019-05-22 16:47:35,1558514885,20190522084616_f8d8249524f9f9d95e3dc3ace8a1c04e3147437_v2,http://postback.berrymobapi.com/postback/?tid=20190522084616_f8d8249524f9f9d95e3dc3ace8a1c04e3147437_v2&src=823,idfa_8c6949f9-bd8a-42f6-94d4-8e3a1230f0a5,%E4%B8%AD%E6%96%87
3lvsubpZTH6If5IYEdYxXA,berrymob,2151_22118885,Install,2.5,39.12.196.134,657e3dd0-7749-4857-bb11-2cc97b0746b4,1558514048,2019-05-22 16:34:08,1558514304,2019-05-22 16:38:24,1558514336,20190522083407_3d6aaa688c4fa961e54d5ed7b1265c954348280_v2,http://postback.berrymobapi.com/postback/?tid=20190522083407_3d6aaa688c4fa961e54d5ed7b1265c954348280_v2&src=823,idfa_657e3dd0-7749-4857-bb11-2cc97b0746b4,%E4%B8%AD%E6%96%87
3lvsubpZTH6If5IYEdYxXA,berrymob,2151_22118885,Install,2.5,101.9.169.224,7147308c-876a-4c33-81a3-a84e880b4b73,1558516268,2019-05-22 17:11:08,1558516350,2019-05-22 17:12:30,1558516381,20190522091106_2125b8828cc5804239a975bf11e2f7e13961743_v2,http://postback.berrymobapi.com/postback/?tid=20190522091106_2125b8828cc5804239a975bf11e2f7e13961743_v2&src=823,idfa_7147308c-876a-4c33-81a3-a84e880b4b73,%E4%B8%AD%E6%96%87
3lvsubpZTH6If5IYEdYxXA,berrymob,2151_22118885,Install,2.5,27.242.77.215,c484902b-cdd8-4f20-95ec-dfaa4da2af2f,1558358337,2019-05-20 21:18:57,1558358448,2019-05-20 21:20:48,1558358479,20190520131855_ef66f7d45598f31fde1248ae6a1a9b634514492_v2,http://postback.berrymobapi.com/postback/?tid=20190520131855_ef66f7d45598f31fde1248ae6a1a9b634514492_v2&src=823,idfa_c484902b-cdd8-4f20-95ec-dfaa4da2af2f,Bahasa%20Indonesia
3lvsubpZTH6If5IYEdYxXA,berrymob,2151_22118885,Install,2.5,180.204.117.108,5d9ddd41-0c79-4e10-b6c4-4f04c8b9f6ab,1558515365,2019-05-22 16:56:05,1558533344,2019-05-22 21:55:44,1558533375,20190522085603_0918b163d58ef547bd747c138eed856e5625644_v2,http://postback.berrymobapi.com/postback/?tid=20190522085603_0918b163d58ef547bd747c138eed856e5625644_v2&src=823,idfa_5d9ddd41-0c79-4e10-b6c4-4f04c8b9f6ab,%E4%B8%AD%E6%96%87
3lvsubpZTH6If5IYEdYxXA,berrymob,2151_22118885,Install,2.5,223.141.109.99,8a2d977c-f62a-490d-9e48-2cf85cf37d05,1558359010,2019-05-20 21:30:10,1558359087,2019-05-20 21:31:27,1558359118,20190520133008_606807f9bf2289e7c18b0266fc0438db6261731_v2,http://postback.berrymobapi.com/postback/?tid=20190520133008_606807f9bf2289e7c18b0266fc0438db6261731_v2&src=823,idfa_8a2d977c-f62a-490d-9e48-2cf85cf37d05,%E4%B8%AD%E6%96%87
3lvsubpZTH6If5IYEdYxXA,berrymob,2151_22118885,Install,2.5,110.50.147.42,4aa0b65b-28f5-4b6d-bfe4-0d51ba66d8bb,1558359012,2019-05-20 21:30:12,1558359086,2019-05-20 21:31:26,1558359117,20190520133010_78bb6c92b785ce9966eeb7f79cef66c65210558_v2,http://postback.berrymobapi.com/postback/?tid=20190520133010_78bb6c92b785ce9966eeb7f79cef66c65210558_v2&src=823,idfa_4aa0b65b-28f5-4b6d-bfe4-0d51ba66d8bb,Bahasa%20Indonesia
3lvsubpZTH6If5IYEdYxXA,berrymob,2151_22118885,Install,2.5,27.247.169.93,1bca1e84-eb32-4f7e-a1bc-fadd6e17f4d9,1558515848,2019-05-22 17:04:08,1558515923,2019-05-22 17:05:23,1558515956,20190522090406_b3e22ff598c89190fbbf59b29ca20c078314470_v2,http://postback.berrymobapi.com/postback/?tid=20190522090406_b3e22ff598c89190fbbf59b29ca20c078314470_v2&src=823,idfa_1bca1e84-eb32-4f7e-a1bc-fadd6e17f4d9,English
3lvsubpZTH6If5IYEdYxXA,berrymob,2151_22118885,Install,2.5,39.9.230.36,6f06de2c-2388-4be7-84b8-330724c665b3,1558358828,2019-05-20 21:27:08,1558358908,2019-05-20 21:28:28,1558358942,20190520132706_3e3ab8be4c4b03bb139c5c851a0e09c54041777_v2,http://postback.berrymobapi.com/postback/?tid=20190520132706_3e3ab8be4c4b03bb139c5c851a0e09c54041777_v2&src=823,idfa_6f06de2c-2388-4be7-84b8-330724c665b3,Bahasa%20Indonesia
3lvsubpZTH6If5IYEdYxXA,berrymob,2151_22118885,Install,2.5,49.216.17.121,c5a1e9c7-c7a1-48c9-98c5-7b2c4cd20dc3,1558504875,2019-05-22 14:01:15,1558504981,2019-05-22 14:03:01,1558505014,20190522060113_f13b599114fe27e6283c756879edf33f3270480_v2,http://postback.berrymobapi.com/postback/?tid=20190522060113_f13b599114fe27e6283c756879edf33f3270480_v2&src=823,idfa_c5a1e9c7-c7a1-48c9-98c5-7b2c4cd20dc3,%E4%B8%AD%E6%96%87
3lvsubpZTH6If5IYEdYxXA,berrymob,2151_22118885,Install,2.5,42.73.110.82,4b729116-8f43-4325-8820-845b9095bb12,1558515363,2019-05-22 16:56:03,1558515440,2019-05-22 16:57:20,1558515471,20190522085601_7fd77d7df1729d3e4ce828c1bf0b9e789345574_v2,http://postback.berrymobapi.com/postback/?tid=20190522085601_7fd77d7df1729d3e4ce828c1bf0b9e789345574_v2&src=823,idfa_4b729116-8f43-4325-8820-845b9095bb12,%E4%B8%AD%E6%96%87
3lvsubpZTH6If5IYEdYxXA,berrymob,2151_22118885,Install,2.5,101.11.23.199,9da4bf2c-ebd2-4c88-8449-ea1024f02c2c,1558510989,2019-05-22 15:43:09,1558511750,2019-05-22 15:55:50,1558511780,20190522074307_c4fb8683624f4ce08d8444648ae30e0d3639560_v2,http://postback.berrymobapi.com/postback/?tid=20190522074307_c4fb8683624f4ce08d8444648ae30e0d3639560_v2&src=823,idfa_9da4bf2c-ebd2-4c88-8449-ea1024f02c2c,%E4%B8%AD%E6%96%87
3lvsubpZTH6If5IYEdYxXA,berrymob,2151_22118885,Install,2.5,61.70.161.23,dc391ced-66c4-4cb3-9788-b87a0f3d1cf2,1558357888,2019-05-20 21:11:28,1558357963,2019-05-20 21:12:43,1558357994,20190520131126_0278985c7b4fd800fa99fb8146103a825250688_v2,http://postback.berrymobapi.com/postback/?tid=20190520131126_0278985c7b4fd800fa99fb8146103a825250688_v2&src=823,idfa_dc391ced-66c4-4cb3-9788-b87a0f3d1cf2,%E4%B8%AD%E6%96%87
3lvsubpZTH6If5IYEdYxXA,berrymob,2151_22118885,Install,2.5,220.142.49.85,38586296-16c2-44ad-a1a0-bb608c56e217,1558515612,2019-05-22 17:00:12,1558515693,2019-05-22 17:01:33,1558515724,20190522090010_352ed2b9e256def655f216bde98d61e05285790_v2,http://postback.berrymobapi.com/postback/?tid=20190522090010_352ed2b9e256def655f216bde98d61e05285790_v2&src=823,idfa_38586296-16c2-44ad-a1a0-bb608c56e217,%E4%B8%AD%E6%96%87
3lvsubpZTH6If5IYEdYxXA,berrymob,2151_22118885,Install,2.5,114.137.229.50,c5f181ec-41ab-41b0-83f9-fca7a7933eae,1558516328,2019-05-22 17:12:08,1558516405,2019-05-22 17:13:25,1558516437,20190522091206_257f3e8a4a765cccc0fa40de5394d7ca3636549_v2,http://postback.berrymobapi.com/postback/?tid=20190522091206_257f3e8a4a765cccc0fa40de5394d7ca3636549_v2&src=823,idfa_c5f181ec-41ab-41b0-83f9-fca7a7933eae,%E4%B8%AD%E6%96%87
3lvsubpZTH6If5IYEdYxXA,berrymob,2151_22118885,Install,2.5,101.137.171.1,de986583-4a64-4ed7-9370-3768d53fde6e,1558358950,2019-05-20 21:29:10,1558359088,2019-05-20 21:31:28,1558359119,20190520132908_0dea6bb5bd18b14145bb993cb984cfb72475291_v2,http://postback.berrymobapi.com/postback/?tid=20190520132908_0dea6bb5bd18b14145bb993cb984cfb72475291_v2&src=823,idfa_de986583-4a64-4ed7-9370-3768d53fde6e,%E4%B8%AD%E6%96%87
3lvsubpZTH6If5IYEdYxXA,berrymob,2151_22118885,Install,2.5,59.127.224.35,9d2bf026-6186-491f-b546-790acf9edf39,1558352814,2019-05-20 19:46:54,1558352889,2019-05-20 19:48:09,1558352920,20190520114652_c5a9845df313b3544968ba2549fc349c7419526_v2,http://postback.berrymobapi.com/postback/?tid=20190520114652_c5a9845df313b3544968ba2549fc349c7419526_v2&src=823,idfa_9d2bf026-6186-491f-b546-790acf9edf39,%E4%B8%AD%E6%96%87
3lvsubpZTH6If5IYEdYxXA,berrymob,2151_22118885,Install,2.5,101.9.58.126,65da0413-05b9-47a9-9c6d-8fb91edf2c4f,1558358346,2019-05-20 21:19:06,1558358412,2019-05-20 21:20:12,1558358443,20190520131857_2e57cc562b5e562d70cd5543ef12be919974671_v2,http://postback.berrymobapi.com/postback/?tid=20190520131857_2e57cc562b5e562d70cd5543ef12be919974671_v2&src=823,idfa_65da0413-05b9-47a9-9c6d-8fb91edf2c4f,English
3lvsubpZTH6If5IYEdYxXA,berrymob,2151_22118885,Install,2.5,101.11.23.199,5495eacf-9221-4078-83ef-a4c42e411ddb,1558508949,2019-05-22 15:09:09,1558509150,2019-05-22 15:12:30,1558509181,20190522070907_0501331aa333ccb355668497b964216f1373455_v2,http://postback.berrymobapi.com/postback/?tid=20190522070907_0501331aa333ccb355668497b964216f1373455_v2&src=823,idfa_5495eacf-9221-4078-83ef-a4c42e411ddb,%E4%B8%AD%E6%96%87
3lvsubpZTH6If5IYEdYxXA,berrymob,2151_22118885,Install,2.5,223.139.195.163,643ab19e-ec57-46c7-adb4-d2bfdf3005f9,1558514780,2019-05-22 16:46:20,1558514855,2019-05-22 16:47:35,1558514887,20190522084618_28487408414fd6ddec2cc58c1f632cf42856163_v2,http://postback.berrymobapi.com/postback/?tid=20190522084618_28487408414fd6ddec2cc58c1f632cf42856163_v2&src=823,idfa_643ab19e-ec57-46c7-adb4-d2bfdf3005f9,%E4%B8%AD%E6%96%87
3lvsubpZTH6If5IYEdYxXA,berrymob,2151_22118885,Install,2.5,39.10.8.65,4a6ba438-200d-42fb-a801-994d17d641fd,1558504875,2019-05-22 14:01:15,1558504950,2019-05-22 14:02:30,1558504985,20190522060112_14dd91ecdc64b765045507dcce1441231507802_v2,http://postback.berrymobapi.com/postback/?tid=20190522060112_14dd91ecdc64b765045507dcce1441231507802_v2&src=823,idfa_4a6ba438-200d-42fb-a801-994d17d641fd,Bahasa%20Indonesia
3lvsubpZTH6If5IYEdYxXA,berrymob,2151_22118885,Install,2.5,101.13.72.121,b637b2ae-a6c9-4bd8-abff-f52e8e864344,1558357893,2019-05-20 21:11:33,1558357977,2019-05-20 21:12:57,1558358008,20190520131130_61e2bb04188bef0d2545a3e16fc5e8291850975_v2,http://postback.berrymobapi.com/postback/?tid=20190520131130_61e2bb04188bef0d2545a3e16fc5e8291850975_v2&src=823,idfa_b637b2ae-a6c9-4bd8-abff-f52e8e864344,%E4%B8%AD%E6%96%87
3lvsubpZTH6If5IYEdYxXA,berrymob,2151_22118885,Install,2.5,180.217.206.132,e0a3418b-5a44-427f-904c-e4b223e0353f,1558514774,2019-05-22 16:46:14,1558514851,2019-05-22 16:47:31,1558514885,20190522084613_3067ad0c58fad67cc9eeb2c623f115df4373356_v2,http://postback.berrymobapi.com/postback/?tid=20190522084613_3067ad0c58fad67cc9eeb2c623f115df4373356_v2&src=823,idfa_e0a3418b-5a44-427f-904c-e4b223e0353f,%E4%B8%AD%E6%96%87
3lvsubpZTH6If5IYEdYxXA,berrymob,2151_22118885,Install,2.5,117.19.137.36,99e8122a-1bd7-4451-9de2-67705baf14dd,1558515975,2019-05-22 17:06:15,1558516048,2019-05-22 17:07:28,1558516080,20190522090613_8cf4de941d59e91b278c56c8310d6fc95710125_v2,http://postback.berrymobapi.com/postback/?tid=20190522090613_8cf4de941d59e91b278c56c8310d6fc95710125_v2&src=823,idfa_99e8122a-1bd7-4451-9de2-67705baf14dd,%E4%B8%AD%E6%96%87
3lvsubpZTH6If5IYEdYxXA,berrymob,2151_22118885,Install,2.5,42.76.84.224,9cf5df2e-283d-4106-b14e-050c29f70437,1558359010,2019-05-20 21:30:10,1558359082,2019-05-20 21:31:22,1558359133,20190520133007_e7d72999bf068727c87ab4538e125a529834146_v2,http://postback.berrymobapi.com/postback/?tid=20190520133007_e7d72999bf068727c87ab4538e125a529834146_v2&src=823,idfa_9cf5df2e-283d-4106-b14e-050c29f70437,%E4%B8%AD%E6%96%87
3lvsubpZTH6If5IYEdYxXA,berrymob,2151_22118885,Install,2.5,27.52.126.70,ce917ae7-259c-47fb-b264-ee6bd854e27a,1558353848,2019-05-20 20:04:08,1558353921,2019-05-20 20:05:21,1558353953,20190520120406_49ec8b9833118db348ee96fdb86134b08644904_v2,http://postback.berrymobapi.com/postback/?tid=20190520120406_49ec8b9833118db348ee96fdb86134b08644904_v2&src=823,idfa_ce917ae7-259c-47fb-b264-ee6bd854e27a,Ti%E1%BA%BFng%20Vi%E1%BB%87t
3lvsubpZTH6If5IYEdYxXA,berrymob,2151_22118885,Install,2.5,218.166.58.191,f697a3d1-b6c7-4967-a0bb-736eefb4a235,1558514811,2019-05-22 16:46:51,1558514883,2019-05-22 16:48:03,1558514914,20190522084650_b52a2161534e5409eb808db91c8840716035812_v2,http://postback.berrymobapi.com/postback/?tid=20190522084650_b52a2161534e5409eb808db91c8840716035812_v2&src=823,idfa_f697a3d1-b6c7-4967-a0bb-736eefb4a235,%E4%B8%AD%E6%96%87
3lvsubpZTH6If5IYEdYxXA,berrymob,2151_22118885,Install,2.5,110.28.138.43,a439a063-0690-4992-a413-2ad8f02a1f86,1558358770,2019-05-20 21:26:10,1558358841,2019-05-20 21:27:21,1558358872,20190520132608_9177b0d1174d2403d8b68bb1e65c10276793831_v2,http://postback.berrymobapi.com/postback/?tid=20190520132608_9177b0d1174d2403d8b68bb1e65c10276793831_v2&src=823,idfa_a439a063-0690-4992-a413-2ad8f02a1f86,%E4%B8%AD%E6%96%87
3lvsubpZTH6If5IYEdYxXA,berrymob,2151_22118885,Install,2.5,61.228.231.29,e7ac5348-8669-4df7-a868-d2fe30ce1d05,1558359136,2019-05-20 21:32:16,1558359217,2019-05-20 21:33:37,1558359248,20190520133214_167ad21efabc5093c401e2e167b34c497369318_v2,http://postback.berrymobapi.com/postback/?tid=20190520133214_167ad21efabc5093c401e2e167b34c497369318_v2&src=823,idfa_e7ac5348-8669-4df7-a868-d2fe30ce1d05,%E4%B8%AD%E6%96%87
3lvsubpZTH6If5IYEdYxXA,berrymob,2151_22118885,Install,2.5,223.136.238.232,4b495821-6ade-4bcf-8b81-95049c36ce78,1558516389,2019-05-22 17:13:09,1558516465,2019-05-22 17:14:25,1558516496,20190522091307_cc3e3049e56769b527b8168085dc8e5d2595211_v2,http://postback.berrymobapi.com/postback/?tid=20190522091307_cc3e3049e56769b527b8168085dc8e5d2595211_v2&src=823,idfa_4b495821-6ade-4bcf-8b81-95049c36ce78,%E4%B8%AD%E6%96%87
3lvsubpZTH6If5IYEdYxXA,berrymob,2151_22118885,Install,2.5,111.242.138.247,1dc0821e-7524-41b9-86a0-774e1ad9dd51,1558514784,2019-05-22 16:46:24,1558514869,2019-05-22 16:47:49,1558514901,20190522084622_140f2cde494559d4e525b2263d3b82638490926_v2,http://postback.berrymobapi.com/postback/?tid=20190522084622_140f2cde494559d4e525b2263d3b82638490926_v2&src=823,idfa_1dc0821e-7524-41b9-86a0-774e1ad9dd51,%E4%B8%AD%E6%96%87
3lvsubpZTH6If5IYEdYxXA,berrymob,2151_22118885,Install,2.5,49.219.184.91,fe7a472c-8589-4ed7-836d-6591d7df13a0,1558357966,2019-05-20 21:12:46,1558358055,2019-05-20 21:14:15,1558358245,20190520131245_306caaa92e8885b2b5b15de20be0f3778457421_v2,http://postback.berrymobapi.com/postback/?tid=20190520131245_306caaa92e8885b2b5b15de20be0f3778457421_v2&src=823,idfa_fe7a472c-8589-4ed7-836d-6591d7df13a0,Indonesia
3lvsubpZTH6If5IYEdYxXA,berrymob,2151_22118885,Install,2.5,58.114.237.39,ad9f0044-db34-4c38-bac3-f1e4b73a688c,1558352816,2019-05-20 19:46:56,1558352915,2019-05-20 19:48:35,1558352946,20190520114654_1eb6b0eab425aa9b9f75a27f15ef2d001485959_v2,http://postback.berrymobapi.com/postback/?tid=20190520114654_1eb6b0eab425aa9b9f75a27f15ef2d001485959_v2&src=823,idfa_ad9f0044-db34-4c38-bac3-f1e4b73a688c,%E4%B8%AD%E6%96%87
3lvsubpZTH6If5IYEdYxXA,berrymob,2151_22118885,Install,2.5,101.11.23.199,8ddd6570-045f-4d16-85f4-7047d2c7725b,1558514927,2019-05-22 16:48:47,1558518203,2019-05-22 17:43:23,1558518233,20190522084845_e3490d3b18f4bb54abb1530e82060ac49391362_v2,http://postback.berrymobapi.com/postback/?tid=20190522084845_e3490d3b18f4bb54abb1530e82060ac49391362_v2&src=823,idfa_8ddd6570-045f-4d16-85f4-7047d2c7725b,%E4%B8%AD%E6%96%87
3lvsubpZTH6If5IYEdYxXA,berrymob,2151_22118885,Install,2.5,61.58.69.250,f411d53d-3ff2-4540-a15c-3e14df14531d,1558674964,2019-05-24 13:16:04,1558675039,2019-05-24 13:17:19,1558675070,20190524051602_b5f6f840958990d48a93a5acd25cb2ba5344193_v2,http://postback.berrymobapi.com/postback/?tid=20190524051602_b5f6f840958990d48a93a5acd25cb2ba5344193_v2&src=823,idfa_f411d53d-3ff2-4540-a15c-3e14df14531d,%E4%B8%AD%E6%96%87
3lvsubpZTH6If5IYEdYxXA,berrymob,2151_22118885,Install,2.5,101.136.173.155,950a31d7-8687-4b9e-9c7c-0af94dfa33ec,1558516268,2019-05-22 17:11:08,1558516344,2019-05-22 17:12:24,1558516375,20190522091107_1d3990ad384c8919f3d853fa2f7b19236555344_v2,http://postback.berrymobapi.com/postback/?tid=20190522091107_1d3990ad384c8919f3d853fa2f7b19236555344_v2&src=823,idfa_950a31d7-8687-4b9e-9c7c-0af94dfa33ec,%E4%B8%AD%E6%96%87
3lvsubpZTH6If5IYEdYxXA,berrymob,2151_22118885,Install,2.5,180.217.161.110,c8cb5ba1-0507-4638-8f83-7b79040f2eea,1558514048,2019-05-22 16:34:08,1558528091,2019-05-22 20:28:11,1558528122,20190522083406_a793d0053e3345489be01441c47559872411531_v2,http://postback.berrymobapi.com/postback/?tid=20190522083406_a793d0053e3345489be01441c47559872411531_v2&src=823,idfa_c8cb5ba1-0507-4638-8f83-7b79040f2eea,%E4%B8%AD%E6%96%87
3lvsubpZTH6If5IYEdYxXA,berrymob,2151_22118885,Install,2.5,123.194.114.207,259eaf37-cb18-40e3-a0db-48ac8edebeb8,1558359132,2019-05-20 21:32:12,1558359222,2019-05-20 21:33:42,1558359253,20190520133210_b49b9d4c6b1e0209e7812e57cd8141ac1620884_v2,http://postback.berrymobapi.com/postback/?tid=20190520133210_b49b9d4c6b1e0209e7812e57cd8141ac1620884_v2&src=823,idfa_259eaf37-cb18-40e3-a0db-48ac8edebeb8,Bahasa%20Indonesia
3lvsubpZTH6If5IYEdYxXA,berrymob,2151_22118885,Install,2.5,42.76.243.173,52351ce5-8442-49b5-959a-23df4e8fca24,1558516154,2019-05-22 17:09:14,1558516229,2019-05-22 17:10:29,1558516264,20190522090911_a55e287238d962a4c9bb5a6588babf443821281_v2,http://postback.berrymobapi.com/postback/?tid=20190522090911_a55e287238d962a4c9bb5a6588babf443821281_v2&src=823,idfa_52351ce5-8442-49b5-959a-23df4e8fca24,Indonesia
3lvsubpZTH6If5IYEdYxXA,berrymob,2151_22118885,Install,2.5,1.172.213.121,d4f08ea8-10c8-45f4-bf57-121e25ebf38a,1558675975,2019-05-24 13:32:55,1558676126,2019-05-24 13:35:26,1558676157,20190524053254_ea50dc2a4f8e75fd7e88d2e2317648a63985979_v2,http://postback.berrymobapi.com/postback/?tid=20190524053254_ea50dc2a4f8e75fd7e88d2e2317648a63985979_v2&src=823,idfa_d4f08ea8-10c8-45f4-bf57-121e25ebf38a,%E4%B8%AD%E6%96%87
3lvsubpZTH6If5IYEdYxXA,berrymob,2151_22118885,Install,2.5,27.247.229.35,7b1c121c-9623-41fc-870a-32c82a80fdb3,1558358948,2019-05-20 21:29:08,1558359054,2019-05-20 21:30:54,1558359086,20190520132906_e478e0927ffcbfd0705bf157605e7fcb3859880_v2,http://postback.berrymobapi.com/postback/?tid=20190520132906_e478e0927ffcbfd0705bf157605e7fcb3859880_v2&src=823,idfa_7b1c121c-9623-41fc-870a-32c82a80fdb3,Indonesia
3lvsubpZTH6If5IYEdYxXA,berrymob,2151_22118885,Install,2.5,59.120.213.123,30418633-ef01-43dc-9365-7ba71a675dc3,1558595545,2019-05-23 15:12:25,1558595619,2019-05-23 15:13:39,1558595652,20190523071223_71a4c183f7fdef192b898a43e67fc7811569913_v2,http://postback.berrymobapi.com/postback/?tid=20190523071223_71a4c183f7fdef192b898a43e67fc7811569913_v2&src=823,idfa_30418633-ef01-43dc-9365-7ba71a675dc3,%E4%B8%AD%E6%96%87
3lvsubpZTH6If5IYEdYxXA,berrymob,2151_22118885,Install,2.5,101.9.250.238,5aafbe13-09bf-4227-8e56-6679c5a74dc7,1558357966,2019-05-20 21:12:46,1558358045,2019-05-20 21:14:05,1558358077,20190520131244_35c22bb84c23c70eca42b6ce0f2225565578776_v2,http://postback.berrymobapi.com/postback/?tid=20190520131244_35c22bb84c23c70eca42b6ce0f2225565578776_v2&src=823,idfa_5aafbe13-09bf-4227-8e56-6679c5a74dc7,Indonesia
3lvsubpZTH6If5IYEdYxXA,berrymob,2151_22118885,Install,2.5,49.215.241.23,2d955e16-def8-48aa-b064-82f3e9325159,1558513864,2019-05-22 16:31:04,1558598861,2019-05-23 16:07:41,1558598892,20190522083102_ac938d07f23fc5c1015e80d9dd0db9ad5358122_v2,http://postback.berrymobapi.com/postback/?tid=20190522083102_ac938d07f23fc5c1015e80d9dd0db9ad5358122_v2&src=823,idfa_2d955e16-def8-48aa-b064-82f3e9325159,%E4%B8%AD%E6%96%87
3lvsubpZTH6If5IYEdYxXA,berrymob,2151_22118885,Install,2.5,101.13.13.89,ba65f7ce-ffd4-43fb-88d5-fad57f206554,1558515786,2019-05-22 17:03:06,1558515864,2019-05-22 17:04:24,1558515911,20190522090304_6ab316a66ea57c9b7bad0a8a417b06e84560316_v2,http://postback.berrymobapi.com/postback/?tid=20190522090304_6ab316a66ea57c9b7bad0a8a417b06e84560316_v2&src=823,idfa_ba65f7ce-ffd4-43fb-88d5-fad57f206554,%E4%B8%AD%E6%96%87
3lvsubpZTH6If5IYEdYxXA,berrymob,2151_22118885,Install,2.5,36.237.115.183,3406d76a-caed-4b6d-be29-f73cac1282ee,1558359135,2019-05-20 21:32:15,1558359211,2019-05-20 21:33:31,1558359242,20190520133213_f7ddcb729ced5688d60d7aa2e3649ff98437368_v2,http://postback.berrymobapi.com/postback/?tid=20190520133213_f7ddcb729ced5688d60d7aa2e3649ff98437368_v2&src=823,idfa_3406d76a-caed-4b6d-be29-f73cac1282ee,%E4%B8%AD%E6%96%87
3lvsubpZTH6If5IYEdYxXA,berrymob,2151_22118885,Install,2.5,180.217.208.87,2ef203a7-8cae-48b4-8740-e41994726f56,1558516087,2019-05-22 17:08:07,1558516174,2019-05-22 17:09:34,1558516205,20190522090805_95c15e10ef25486a1b25bcfdbc1e5d434447089_v2,http://postback.berrymobapi.com/postback/?tid=20190522090805_95c15e10ef25486a1b25bcfdbc1e5d434447089_v2&src=823,idfa_2ef203a7-8cae-48b4-8740-e41994726f56,%E4%B8%AD%E6%96%87
3lvsubpZTH6If5IYEdYxXA,berrymob,2151_22118885,Install,2.5,180.217.204.157,71bd9daf-1f0f-4247-8d69-26889eb4aafa,1558674778,2019-05-24 13:12:58,1558674852,2019-05-24 13:14:12,1558674883,20190524051257_3869be3ac271622fa7132163afe87cd24714673_v2,http://postback.berrymobapi.com/postback/?tid=20190524051257_3869be3ac271622fa7132163afe87cd24714673_v2&src=823,idfa_71bd9daf-1f0f-4247-8d69-26889eb4aafa,%E4%B8%AD%E6%96%87
3lvsubpZTH6If5IYEdYxXA,berrymob,2151_22118885,Install,2.5,39.10.65.161,243df6ca-81aa-4895-aaff-821ec58d9723,1558516267,2019-05-22 17:11:07,1558516348,2019-05-22 17:12:28,1558516379,20190522091104_97cbfff2c1ff3c9aa902d8139c35adad3551549_v2,http://postback.berrymobapi.com/postback/?tid=20190522091104_97cbfff2c1ff3c9aa902d8139c35adad3551549_v2&src=823,idfa_243df6ca-81aa-4895-aaff-821ec58d9723,%E4%B8%AD%E6%96%87
