cid,partner_id,channel_id,action_id,cpi,ip,idfa,click time,click datetime,install time,install datetime,postback time,click id,postback url,unique user id
KcgEbxEVQWuE6sNzxV_xiw,berrymob,2158_22427384,Install,2.1,61.64.178.99,76DA70CC-B01E-41A3-A4A2-664D05A26AB8,1558676287,2019-05-24 13:38:07,1558676342,2019-05-24 13:39:02,1558676372,20190524053759_ea7e0d3820a20662d62fc9ae041288897665377_v2,http://postback.berrymobapi.com/postback/?tid=20190524053759_ea7e0d3820a20662d62fc9ae041288897665377_v2&src=823,idfa_76DA70CC-B01E-41A3-A4A2-664D05A26AB8,en-US
KcgEbxEVQWuE6sNzxV_xiw,berrymob,2158_22427384,Install,2.1,1.160.44.241,91CD497E-306D-48CE-A586-76DDB93A225F,1558676578,2019-05-24 13:42:58,1558676639,2019-05-24 13:43:59,1558676669,20190524054253_e2d5e73332a96446776608f5e7fd43b97354725_v2,http://postback.berrymobapi.com/postback/?tid=20190524054253_e2d5e73332a96446776608f5e7fd43b97354725_v2&src=823,idfa_91CD497E-306D-48CE-A586-76DDB93A225F,en-US
KcgEbxEVQWuE6sNzxV_xiw,berrymob,2158_22427384,Install,2.1,114.47.117.232,57F792A4-FE40-4A37-A329-77E81DCE2419,1558676402,2019-05-24 13:40:02,1558676431,2019-05-24 13:40:31,1558676462,20190524053955_2c406d2e4f3c9aa39726219b38fa97b31672650_v2,http://postback.berrymobapi.com/postback/?tid=20190524053955_2c406d2e4f3c9aa39726219b38fa97b31672650_v2&src=823,idfa_57F792A4-FE40-4A37-A329-77E81DCE2419,en-US
KcgEbxEVQWuE6sNzxV_xiw,berrymob,2158_22427384,Install,2.1,59.104.220.46,BCAD1D8A-9F42-4739-8615-EF59C21F6EB6,1558676778,2019-05-24 13:46:18,1558676807,2019-05-24 13:46:47,1558676838,20190524054614_944ccec93ae2a7b6f622ec4638a14b7a9337292_v2,http://postback.berrymobapi.com/postback/?tid=20190524054614_944ccec93ae2a7b6f622ec4638a14b7a9337292_v2&src=823,idfa_BCAD1D8A-9F42-4739-8615-EF59C21F6EB6,en-US
KcgEbxEVQWuE6sNzxV_xiw,berrymob,2158_22427384,Install,2.1,1.173.72.232,AAB31AF0-7393-4405-80D3-632B40999046,1558676651,2019-05-24 13:44:11,1558676682,2019-05-24 13:44:42,1558676715,20190524054400_2ec6407813edb2c03e40a3c741cb0ef52519721_v2,http://postback.berrymobapi.com/postback/?tid=20190524054400_2ec6407813edb2c03e40a3c741cb0ef52519721_v2&src=823,idfa_AAB31AF0-7393-4405-80D3-632B40999046,en-US
KcgEbxEVQWuE6sNzxV_xiw,berrymob,2158_22433357,Install,2.1,118.167.37.204,010E5EA6-CB6F-4D8E-BEEC-88404D3211E7,1558752157,2019-05-25 10:42:37,1558752198,2019-05-25 10:43:18,1558752274,20190525024219_3299d48db44d07fc04900d13c096b3868520224_v2,http://postback.berrymobapi.com/postback/?tid=20190525024219_3299d48db44d07fc04900d13c096b3868520224_v2&src=823,idfa_010E5EA6-CB6F-4D8E-BEEC-88404D3211E7,en-US
KcgEbxEVQWuE6sNzxV_xiw,berrymob,2158_22433357,Install,2.1,114.25.196.185,6DAC1A74-4AF9-40F2-9C8E-352E9AAB1ECB,1558752199,2019-05-25 10:43:19,1558752248,2019-05-25 10:44:08,1558752280,20190525024311_8f549ee0bb6d536f627d916a8393e3d47676284_v2,http://postback.berrymobapi.com/postback/?tid=20190525024311_8f549ee0bb6d536f627d916a8393e3d47676284_v2&src=823,idfa_6DAC1A74-4AF9-40F2-9C8E-352E9AAB1ECB,en-US
KcgEbxEVQWuE6sNzxV_xiw,berrymob,2158_22427384,Install,2.1,36.224.242.157,3C5557C1-9261-42F0-ACA1-E7AA31C6C275,1558676236,2019-05-24 13:37:16,1558676275,2019-05-24 13:37:55,1558676307,20190524053710_56da9fc91b656e4a07eadab85ef2cb7e3112157_v2,http://postback.berrymobapi.com/postback/?tid=20190524053710_56da9fc91b656e4a07eadab85ef2cb7e3112157_v2&src=823,idfa_3C5557C1-9261-42F0-ACA1-E7AA31C6C275,en-US
KcgEbxEVQWuE6sNzxV_xiw,berrymob,2158_22427384,Install,2.1,1.161.100.246,B229BAE8-8DFF-4401-8D5D-C75CD346DD7A,1558676453,2019-05-24 13:40:53,1558676486,2019-05-24 13:41:26,1558676517,20190524054046_1d26218bc73b58c4b2f3c30210f960723302880_v2,http://postback.berrymobapi.com/postback/?tid=20190524054046_1d26218bc73b58c4b2f3c30210f960723302880_v2&src=823,idfa_B229BAE8-8DFF-4401-8D5D-C75CD346DD7A,en-US
KcgEbxEVQWuE6sNzxV_xiw,berrymob,2158_22427384,Install,2.1,114.27.80.8,34FD38FE-4298-4493-9AB8-A077BD0E9456,1558676672,2019-05-24 13:44:32,1558676717,2019-05-24 13:45:17,1558676751,20190524054424_0369232e015153b6865d4d35eefe9de63769150_v2,http://postback.berrymobapi.com/postback/?tid=20190524054424_0369232e015153b6865d4d35eefe9de63769150_v2&src=823,idfa_34FD38FE-4298-4493-9AB8-A077BD0E9456,en-US
KcgEbxEVQWuE6sNzxV_xiw,berrymob,2158_22433357,Install,2.1,118.161.29.34,243F5845-767B-4977-AE1F-63FA6CE1F0C3,1558752186,2019-05-25 10:43:06,1558752234,2019-05-25 10:43:54,1558752265,20190525024252_ac65030fb68541f6f1a3c14bbca75f1a4954921_v2,http://postback.berrymobapi.com/postback/?tid=20190525024252_ac65030fb68541f6f1a3c14bbca75f1a4954921_v2&src=823,idfa_243F5845-767B-4977-AE1F-63FA6CE1F0C3,en-US
KcgEbxEVQWuE6sNzxV_xiw,berrymob,2158_22427384,Install,2.1,61.231.133.169,296BA5DB-F42E-413D-947F-349AC448B762,1558676086,2019-05-24 13:34:46,1558676126,2019-05-24 13:35:26,1558676157,20190524053430_f4bebb8ad6dd8bbef363d19e526a7b4b4159703_v2,http://postback.berrymobapi.com/postback/?tid=20190524053430_f4bebb8ad6dd8bbef363d19e526a7b4b4159703_v2&src=823,idfa_296BA5DB-F42E-413D-947F-349AC448B762,en-US
KcgEbxEVQWuE6sNzxV_xiw,berrymob,2158_22427384,Install,2.1,118.232.148.242,0B6BB914-E607-403F-AFB0-EC5F9DFEDB87,1558676646,2019-05-24 13:44:06,1558676682,2019-05-24 13:44:42,1558676713,20190524054356_006548f3342f915f26a916710602a1b21415056_v2,http://postback.berrymobapi.com/postback/?tid=20190524054356_006548f3342f915f26a916710602a1b21415056_v2&src=823,idfa_0B6BB914-E607-403F-AFB0-EC5F9DFEDB87,en-US
KcgEbxEVQWuE6sNzxV_xiw,berrymob,2158_22427384,Install,2.1,182.233.85.234,6C2C62D3-E673-4C2A-ACD6-C8827B7E93C0,1558676670,2019-05-24 13:44:30,1558676697,2019-05-24 13:44:57,1558676728,20190524054425_a3d2bd9ce06685a58f7b92648b93ad709964915_v2,http://postback.berrymobapi.com/postback/?tid=20190524054425_a3d2bd9ce06685a58f7b92648b93ad709964915_v2&src=823,idfa_6C2C62D3-E673-4C2A-ACD6-C8827B7E93C0,en-US
KcgEbxEVQWuE6sNzxV_xiw,berrymob,2158_22427384,Install,2.1,36.235.194.4,47232916-D5BE-497F-B1E8-EE53E793CE59,1558676522,2019-05-24 13:42:02,1558676551,2019-05-24 13:42:31,1558676583,20190524054157_651a28c9408fd35b709e34bc27abeac13719733_v2,http://postback.berrymobapi.com/postback/?tid=20190524054157_651a28c9408fd35b709e34bc27abeac13719733_v2&src=823,idfa_47232916-D5BE-497F-B1E8-EE53E793CE59,en-US
KcgEbxEVQWuE6sNzxV_xiw,berrymob,2158_22427384,Install,2.1,111.243.55.122,6F4DBB6F-F787-4238-BCD1-AB3E925EFE05,1558676247,2019-05-24 13:37:27,1558676307,2019-05-24 13:38:27,1558676337,20190524053720_b0fb832c4186301985f87a4fbc9c8b531666100_v2,http://postback.berrymobapi.com/postback/?tid=20190524053720_b0fb832c4186301985f87a4fbc9c8b531666100_v2&src=823,idfa_6F4DBB6F-F787-4238-BCD1-AB3E925EFE05,en-US
KcgEbxEVQWuE6sNzxV_xiw,berrymob,2158_22433357,Install,2.1,114.36.185.154,AFDB6658-E785-40A9-921B-F092EB01BC2F,1558752119,2019-05-25 10:41:59,1558752159,2019-05-25 10:42:39,1558752190,20190525024153_b81ac7295d77071efab8165edbf7cc199916892_v2,http://postback.berrymobapi.com/postback/?tid=20190525024153_b81ac7295d77071efab8165edbf7cc199916892_v2&src=823,idfa_AFDB6658-E785-40A9-921B-F092EB01BC2F,en-US
KcgEbxEVQWuE6sNzxV_xiw,berrymob,2158_22427384,Install,2.1,114.37.242.94,9129FAE1-54F6-430D-A664-DF5B6D7AE797,1558676289,2019-05-24 13:38:09,1558676334,2019-05-24 13:38:54,1558676365,20190524053803_32a1c06cb7b76419d11051cac5ec46e11952912_v2,http://postback.berrymobapi.com/postback/?tid=20190524053803_32a1c06cb7b76419d11051cac5ec46e11952912_v2&src=823,idfa_9129FAE1-54F6-430D-A664-DF5B6D7AE797,en-US
KcgEbxEVQWuE6sNzxV_xiw,berrymob,2158_22427384,Install,2.1,114.26.51.141,AE6391A3-2652-44BC-A40D-5410673A0FF3,1558676061,2019-05-24 13:34:21,1558676094,2019-05-24 13:34:54,1558676125,20190524053413_13ae08572c9abc2588c4b243b7089d782753636_v2,http://postback.berrymobapi.com/postback/?tid=20190524053413_13ae08572c9abc2588c4b243b7089d782753636_v2&src=823,idfa_AE6391A3-2652-44BC-A40D-5410673A0FF3,en-US
KcgEbxEVQWuE6sNzxV_xiw,berrymob,2158_22427384,Install,2.1,114.43.105.121,30946DE5-27B9-4719-B6CE-80C7C319BE18,1558676136,2019-05-24 13:35:36,1558676185,2019-05-24 13:36:25,1558676216,20190524053528_aa0498f85ddc3a57ed1a9492403ad6605245840_v2,http://postback.berrymobapi.com/postback/?tid=20190524053528_aa0498f85ddc3a57ed1a9492403ad6605245840_v2&src=823,idfa_30946DE5-27B9-4719-B6CE-80C7C319BE18,en-US
KcgEbxEVQWuE6sNzxV_xiw,berrymob,2158_22433357,Install,2.1,111.240.98.36,785C84C2-DAB1-4B7C-95FD-8EAD75A3A2BF,1558752230,2019-05-25 10:43:50,1558752270,2019-05-25 10:44:30,1558752333,20190525024345_6afd024b3d940219f0c1d0c26575d0f25592699_v2,http://postback.berrymobapi.com/postback/?tid=20190525024345_6afd024b3d940219f0c1d0c26575d0f25592699_v2&src=823,idfa_785C84C2-DAB1-4B7C-95FD-8EAD75A3A2BF,en-US
KcgEbxEVQWuE6sNzxV_xiw,berrymob,2158_22427384,Install,2.1,1.168.217.117,97D9108A-A57D-44B8-9D3B-6F5BBA91E504,1558676778,2019-05-24 13:46:18,1558676812,2019-05-24 13:46:52,1558676844,20190524054609_3fcb63539f6b70b26aa50c6b309242629881379_v2,http://postback.berrymobapi.com/postback/?tid=20190524054609_3fcb63539f6b70b26aa50c6b309242629881379_v2&src=823,idfa_97D9108A-A57D-44B8-9D3B-6F5BBA91E504,en-US
KcgEbxEVQWuE6sNzxV_xiw,berrymob,2158_22427384,Install,2.1,36.231.183.215,599BCC77-9E16-4FD0-883A-9C18C39A0E46,1558676518,2019-05-24 13:41:58,1558676573,2019-05-24 13:42:53,1558676603,20190524054137_bb86b1bdb79096cbd38b2f3ce7ec21bf1054987_v2,http://postback.berrymobapi.com/postback/?tid=20190524054137_bb86b1bdb79096cbd38b2f3ce7ec21bf1054987_v2&src=823,idfa_599BCC77-9E16-4FD0-883A-9C18C39A0E46,en-US
KcgEbxEVQWuE6sNzxV_xiw,berrymob,2158_22427384,Install,2.1,1.172.213.189,D7D7A83A-B3F8-469C-95EB-158244E752F7,1558676204,2019-05-24 13:36:44,1558676234,2019-05-24 13:37:14,1558676266,20190524053638_df17218da069b3fd94b112ccb8896c6d9560590_v2,http://postback.berrymobapi.com/postback/?tid=20190524053638_df17218da069b3fd94b112ccb8896c6d9560590_v2&src=823,idfa_D7D7A83A-B3F8-469C-95EB-158244E752F7,en-US
