cid,partner_id,channel_id,action_id,cpi,ip,idfa,click time,click datetime,install time,install datetime,postback time,click id,postback url,unique user id
3lvsubpZTH6If5IYEdYxXA,berrymob,2157_22055711,Install,2.5,220.129.152.213,4c0cd758-80f4-4e91-9472-57dd2101b6de,1558667650,2019-05-24 11:14:10,1558667695,2019-05-24 11:14:55,1558667726,20190524031403_e933d071d792f643f6d8950d39cb00a32350339_v2,http://postback.berrymobapi.com/postback/?tid=20190524031403_e933d071d792f643f6d8950d39cb00a32350339_v2&src=823,idfa_4c0cd758-80f4-4e91-9472-57dd2101b6de,English
3lvsubpZTH6If5IYEdYxXA,berrymob,2157_22055711,Install,2.5,36.226.170.60,f1fdf5d5-9b35-48fd-9b8e-f1cff942dfd9,1558668178,2019-05-24 11:22:58,1558668218,2019-05-24 11:23:38,1558668252,20190524032249_804e498da0980587b55f64a90e5b10ee8954784_v2,http://postback.berrymobapi.com/postback/?tid=20190524032249_804e498da0980587b55f64a90e5b10ee8954784_v2&src=823,idfa_f1fdf5d5-9b35-48fd-9b8e-f1cff942dfd9,English
3lvsubpZTH6If5IYEdYxXA,berrymob,2157_22055711,Install,2.5,140.112.218.140,39af389d-0d04-4588-b775-d5a457dfbfbe,1558666122,2019-05-24 10:48:42,1558666156,2019-05-24 10:49:16,1558666187,20190524024834_02f3288e1d810eeca73faccea8ddef447335136_v2,http://postback.berrymobapi.com/postback/?tid=20190524024834_02f3288e1d810eeca73faccea8ddef447335136_v2&src=823,idfa_39af389d-0d04-4588-b775-d5a457dfbfbe,English
3lvsubpZTH6If5IYEdYxXA,berrymob,2157_22055711,Install,2.5,175.181.255.103,e78cb0a8-b2cc-422e-bfa3-652e2a5678bc,1558666023,2019-05-24 10:47:03,1558666067,2019-05-24 10:47:47,1558666098,20190524024654_ea2efff7207cc8ecea23f6f15ba90f206292237_v2,http://postback.berrymobapi.com/postback/?tid=20190524024654_ea2efff7207cc8ecea23f6f15ba90f206292237_v2&src=823,idfa_e78cb0a8-b2cc-422e-bfa3-652e2a5678bc,English
3lvsubpZTH6If5IYEdYxXA,berrymob,2157_22055711,Install,2.5,114.38.74.13,34a15ea7-787e-4641-9d70-966627417ab2,1558661333,2019-05-24 09:28:53,1558661417,2019-05-24 09:30:17,1558661448,20190524012851_e4ff97db8df026a0dc120f599baebe9f9836640_v2,http://postback.berrymobapi.com/postback/?tid=20190524012851_e4ff97db8df026a0dc120f599baebe9f9836640_v2&src=823,idfa_34a15ea7-787e-4641-9d70-966627417ab2,%E4%B8%AD%E6%96%87
3lvsubpZTH6If5IYEdYxXA,berrymob,2157_22055711,Install,2.5,111.254.2.42,f98cf5e4-cc15-4b8c-856a-875683c58563,1558667008,2019-05-24 11:03:28,1558667159,2019-05-24 11:05:59,1558667190,20190524030319_8119c99b78df63359511bd677e0b0e8f4557129_v2,http://postback.berrymobapi.com/postback/?tid=20190524030319_8119c99b78df63359511bd677e0b0e8f4557129_v2&src=823,idfa_f98cf5e4-cc15-4b8c-856a-875683c58563,English
3lvsubpZTH6If5IYEdYxXA,berrymob,2157_22055711,Install,2.5,27.246.62.63,f77c6a4e-5d86-4e80-9e0c-3f2205b6206f,1558668153,2019-05-24 11:22:33,1558668190,2019-05-24 11:23:10,1558668221,20190524032223_681120ff1b6182637c0dd2826e94599d5923509_v2,http://postback.berrymobapi.com/postback/?tid=20190524032223_681120ff1b6182637c0dd2826e94599d5923509_v2&src=823,idfa_f77c6a4e-5d86-4e80-9e0c-3f2205b6206f,English
3lvsubpZTH6If5IYEdYxXA,berrymob,2157_22055711,Install,2.5,175.181.155.156,dfc6ed69-6e64-49e6-a8fb-539bef9be395,1558668087,2019-05-24 11:21:27,1558668130,2019-05-24 11:22:10,1558668161,20190524032115_40b8b8c5d535e855ed94b32e77d0fb278090066_v2,http://postback.berrymobapi.com/postback/?tid=20190524032115_40b8b8c5d535e855ed94b32e77d0fb278090066_v2&src=823,idfa_dfc6ed69-6e64-49e6-a8fb-539bef9be395,English
3lvsubpZTH6If5IYEdYxXA,berrymob,2157_22055711,Install,2.5,36.228.98.118,99c62100-5431-480f-9973-8493b285fe93,1558667348,2019-05-24 11:09:08,1558667380,2019-05-24 11:09:40,1558667412,20190524030901_771304d9a0521298d984aebe34af32b89924759_v2,http://postback.berrymobapi.com/postback/?tid=20190524030901_771304d9a0521298d984aebe34af32b89924759_v2&src=823,idfa_99c62100-5431-480f-9973-8493b285fe93,English
3lvsubpZTH6If5IYEdYxXA,berrymob,2157_22055711,Install,2.5,59.115.69.126,7e3fd607-43d1-4551-893c-3a3184977a70,1558667125,2019-05-24 11:05:25,1558667158,2019-05-24 11:05:58,1558667190,20190524030518_e35d80b2c146d8423edd490803ed85194073242_v2,http://postback.berrymobapi.com/postback/?tid=20190524030518_e35d80b2c146d8423edd490803ed85194073242_v2&src=823,idfa_7e3fd607-43d1-4551-893c-3a3184977a70,English
3lvsubpZTH6If5IYEdYxXA,berrymob,2157_22055711,Install,2.5,59.124.106.68,23aae665-752a-4a20-a892-c451311d0a14,1558667939,2019-05-24 11:18:59,1558667974,2019-05-24 11:19:34,1558668005,20190524031840_1e0fec60b522c50f5f42a127eddb0c1b1756388_v2,http://postback.berrymobapi.com/postback/?tid=20190524031840_1e0fec60b522c50f5f42a127eddb0c1b1756388_v2&src=823,idfa_23aae665-752a-4a20-a892-c451311d0a14,English
3lvsubpZTH6If5IYEdYxXA,berrymob,2157_22055711,Install,2.5,114.45.54.6,73c8891e-a1e9-4610-8a64-5db6dbc6753a,1558667252,2019-05-24 11:07:32,1558667290,2019-05-24 11:08:10,1558667321,20190524030723_74a125f8d28ac1a2918b0e091e0f8c198082418_v2,http://postback.berrymobapi.com/postback/?tid=20190524030723_74a125f8d28ac1a2918b0e091e0f8c198082418_v2&src=823,idfa_73c8891e-a1e9-4610-8a64-5db6dbc6753a,English
3lvsubpZTH6If5IYEdYxXA,berrymob,2157_22055711,Install,2.5,59.102.175.1,051f0361-e039-4267-8889-23534605a7cb,1558668150,2019-05-24 11:22:30,1558668247,2019-05-24 11:24:07,1558668278,20190524032212_292cdb9d48562aa21ede8434bc48c7b79089755_v2,http://postback.berrymobapi.com/postback/?tid=20190524032212_292cdb9d48562aa21ede8434bc48c7b79089755_v2&src=823,idfa_051f0361-e039-4267-8889-23534605a7cb,English
3lvsubpZTH6If5IYEdYxXA,berrymob,2157_22055711,Install,2.5,211.21.114.153,9051f2cc-a3cf-46a4-b255-f4298d681034,1558666631,2019-05-24 10:57:11,1558666681,2019-05-24 10:58:01,1558666713,20190524025702_079f059377923ca0e7bd5da2ff7a78011047679_v2,http://postback.berrymobapi.com/postback/?tid=20190524025702_079f059377923ca0e7bd5da2ff7a78011047679_v2&src=823,idfa_9051f2cc-a3cf-46a4-b255-f4298d681034,English
3lvsubpZTH6If5IYEdYxXA,berrymob,2157_22055711,Install,2.5,114.32.237.161,c1e7dbe5-ac19-40b8-9423-7fc45f869da8,1558668360,2019-05-24 11:26:00,1558668397,2019-05-24 11:26:37,1558668428,20190524032550_cf26faceca75acc6cbf88b412619a8e53286656_v2,http://postback.berrymobapi.com/postback/?tid=20190524032550_cf26faceca75acc6cbf88b412619a8e53286656_v2&src=823,idfa_c1e7dbe5-ac19-40b8-9423-7fc45f869da8,English
3lvsubpZTH6If5IYEdYxXA,berrymob,2157_22055711,Install,2.5,220.137.87.100,fbe00da3-c4c3-49c4-8db5-7c7635eb93fd,1558668145,2019-05-24 11:22:25,1558668183,2019-05-24 11:23:03,1558668214,20190524032216_ab4d6b4085edb02f76e5b781721326518209911_v2,http://postback.berrymobapi.com/postback/?tid=20190524032216_ab4d6b4085edb02f76e5b781721326518209911_v2&src=823,idfa_fbe00da3-c4c3-49c4-8db5-7c7635eb93fd,English
3lvsubpZTH6If5IYEdYxXA,berrymob,2157_22055711,Install,2.5,60.249.219.83,f2ea8418-4914-4f44-9a94-33d992e85047,1558668386,2019-05-24 11:26:26,1558668430,2019-05-24 11:27:10,1558668461,20190524032611_1df7d803832ebd73eed131d2e5af101a3047477_v2,http://postback.berrymobapi.com/postback/?tid=20190524032611_1df7d803832ebd73eed131d2e5af101a3047477_v2&src=823,idfa_f2ea8418-4914-4f44-9a94-33d992e85047,English
3lvsubpZTH6If5IYEdYxXA,berrymob,2157_22055711,Install,2.5,210.68.238.224,eddfcf3d-db11-4e1e-b3f8-06379f2a0656,1558666152,2019-05-24 10:49:12,1558666194,2019-05-24 10:49:54,1558666225,20190524024902_cd04936d6fd6bd47d48b085cd5f8ab951902480_v2,http://postback.berrymobapi.com/postback/?tid=20190524024902_cd04936d6fd6bd47d48b085cd5f8ab951902480_v2&src=823,idfa_eddfcf3d-db11-4e1e-b3f8-06379f2a0656,English
3lvsubpZTH6If5IYEdYxXA,berrymob,2157_22055711,Install,2.5,211.75.239.67,00946698-0ef5-4f84-a510-71c5627ab698,1558667785,2019-05-24 11:16:25,1558667827,2019-05-24 11:17:07,1558667858,20190524031615_3f0b21b3952c7e3fbd5756687bb8e6a12600004_v2,http://postback.berrymobapi.com/postback/?tid=20190524031615_3f0b21b3952c7e3fbd5756687bb8e6a12600004_v2&src=823,idfa_00946698-0ef5-4f84-a510-71c5627ab698,English
3lvsubpZTH6If5IYEdYxXA,berrymob,2157_22055711,Install,2.5,118.163.120.148,aef41cb8-c486-4895-a843-9edf1f6014ac,1558668611,2019-05-24 11:30:11,1558668662,2019-05-24 11:31:02,1558668693,20190524033002_4c8e6ba7f93cc3423e4ea9b10c7919ce8692689_v2,http://postback.berrymobapi.com/postback/?tid=20190524033002_4c8e6ba7f93cc3423e4ea9b10c7919ce8692689_v2&src=823,idfa_aef41cb8-c486-4895-a843-9edf1f6014ac,English
3lvsubpZTH6If5IYEdYxXA,berrymob,2157_22055711,Install,2.5,59.125.208.103,080bee92-fd87-4c78-86ee-8b417dee0d62,1558667618,2019-05-24 11:13:38,1558667663,2019-05-24 11:14:23,1558667695,20190524031330_1d49d359c51dcbcdb7d95418806b81547112083_v2,http://postback.berrymobapi.com/postback/?tid=20190524031330_1d49d359c51dcbcdb7d95418806b81547112083_v2&src=823,idfa_080bee92-fd87-4c78-86ee-8b417dee0d62,English
3lvsubpZTH6If5IYEdYxXA,berrymob,2157_22055711,Install,2.5,123.194.225.123,8c16e85d-63b5-4d28-a449-2a70aa19dab3,1558666753,2019-05-24 10:59:13,1558666788,2019-05-24 10:59:48,1558666820,20190524025851_e148971f50ddc9e7b8f5fd93696cce5c4592308_v2,http://postback.berrymobapi.com/postback/?tid=20190524025851_e148971f50ddc9e7b8f5fd93696cce5c4592308_v2&src=823,idfa_8c16e85d-63b5-4d28-a449-2a70aa19dab3,English
3lvsubpZTH6If5IYEdYxXA,berrymob,2157_22055711,Install,2.5,123.241.3.226,f544735b-5e57-432f-ab7f-caca80f4b3f6,1558668161,2019-05-24 11:22:41,1558668201,2019-05-24 11:23:21,1558668232,20190524032232_acb46530439e661bacf0101a2eb8a5b85425184_v2,http://postback.berrymobapi.com/postback/?tid=20190524032232_acb46530439e661bacf0101a2eb8a5b85425184_v2&src=823,idfa_f544735b-5e57-432f-ab7f-caca80f4b3f6,English
3lvsubpZTH6If5IYEdYxXA,berrymob,2157_22055711,Install,2.5,36.234.142.61,7941bb9b-9eca-40fa-85f4-2d42cebdc8c2,1558667109,2019-05-24 11:05:09,1558667139,2019-05-24 11:05:39,1558667170,20190524030501_8e6ad67e39fe5fbaf73cebadc3f62b999527490_v2,http://postback.berrymobapi.com/postback/?tid=20190524030501_8e6ad67e39fe5fbaf73cebadc3f62b999527490_v2&src=823,idfa_7941bb9b-9eca-40fa-85f4-2d42cebdc8c2,English
3lvsubpZTH6If5IYEdYxXA,berrymob,2157_22055711,Install,2.5,36.236.169.159,9f5a479f-2797-4709-ac0a-df097c7c8df5,1558666994,2019-05-24 11:03:14,1558667031,2019-05-24 11:03:51,1558667061,20190524030306_c9f9583d0fd7764a1c44c73e435b14152728460_v2,http://postback.berrymobapi.com/postback/?tid=20190524030306_c9f9583d0fd7764a1c44c73e435b14152728460_v2&src=823,idfa_9f5a479f-2797-4709-ac0a-df097c7c8df5,English
3lvsubpZTH6If5IYEdYxXA,berrymob,2157_22055711,Install,2.5,1.160.124.232,152d68ba-9ae2-41e7-883f-209c3d832127,1558667873,2019-05-24 11:17:53,1558667925,2019-05-24 11:18:45,1558667955,20190524031745_0e38e602783568efe6f241aac38ea1844534458_v2,http://postback.berrymobapi.com/postback/?tid=20190524031745_0e38e602783568efe6f241aac38ea1844534458_v2&src=823,idfa_152d68ba-9ae2-41e7-883f-209c3d832127,English
3lvsubpZTH6If5IYEdYxXA,berrymob,2157_22055711,Install,2.5,218.173.152.228,dc669b2d-f888-4b87-b348-707bb97520da,1558666706,2019-05-24 10:58:26,1558666757,2019-05-24 10:59:17,1558666788,20190524025756_7529b0768c0e9d4d87b8205227ffda821852461_v2,http://postback.berrymobapi.com/postback/?tid=20190524025756_7529b0768c0e9d4d87b8205227ffda821852461_v2&src=823,idfa_dc669b2d-f888-4b87-b348-707bb97520da,English
3lvsubpZTH6If5IYEdYxXA,berrymob,2157_22055711,Install,2.5,27.105.36.150,4d87983d-19d2-4d71-8abb-d5a818b31b82,1558668251,2019-05-24 11:24:11,1558668306,2019-05-24 11:25:06,1558668336,20190524032400_c789692a53efd5c2b0f5c243b446378f7174304_v2,http://postback.berrymobapi.com/postback/?tid=20190524032400_c789692a53efd5c2b0f5c243b446378f7174304_v2&src=823,idfa_4d87983d-19d2-4d71-8abb-d5a818b31b82,English
3lvsubpZTH6If5IYEdYxXA,berrymob,2157_22055711,Install,2.5,118.161.84.205,602339c3-0e2c-477c-bef4-db4128685fed,1558668344,2019-05-24 11:25:44,1558668387,2019-05-24 11:26:27,1558668419,20190524032536_e794b23cb6a620fe9a4c3326f25599df8881821_v2,http://postback.berrymobapi.com/postback/?tid=20190524032536_e794b23cb6a620fe9a4c3326f25599df8881821_v2&src=823,idfa_602339c3-0e2c-477c-bef4-db4128685fed,English
3lvsubpZTH6If5IYEdYxXA,berrymob,2157_22055711,Install,2.5,140.112.238.19,83a088db-624d-4d9e-857e-8f3b0ee7d3a4,1558667842,2019-05-24 11:17:22,1558667887,2019-05-24 11:18:07,1558667920,20190524031713_22cf9fb1230461cc5915d1a94479c2746350680_v2,http://postback.berrymobapi.com/postback/?tid=20190524031713_22cf9fb1230461cc5915d1a94479c2746350680_v2&src=823,idfa_83a088db-624d-4d9e-857e-8f3b0ee7d3a4,English
3lvsubpZTH6If5IYEdYxXA,berrymob,2157_22055711,Install,2.5,111.249.130.127,6848f5b0-788d-4660-878a-d0b45118a175,1558668317,2019-05-24 11:25:17,1558668346,2019-05-24 11:25:46,1558668377,20190524032505_c37329944f6101693f0458d597c409e63908145_v2,http://postback.berrymobapi.com/postback/?tid=20190524032505_c37329944f6101693f0458d597c409e63908145_v2&src=823,idfa_6848f5b0-788d-4660-878a-d0b45118a175,English
3lvsubpZTH6If5IYEdYxXA,berrymob,2157_22055711,Install,2.5,106.105.66.138,d6f596c8-74c0-4970-8b4e-4bfe7af5c158,1558575209,2019-05-23 09:33:29,1558575777,2019-05-23 09:42:57,1558575809,20190523013329_c50bfc95c852c9fa87f9153fd4d7bba79758668_v2,http://postback.berrymobapi.com/postback/?tid=20190523013329_c50bfc95c852c9fa87f9153fd4d7bba79758668_v2&src=823,idfa_d6f596c8-74c0-4970-8b4e-4bfe7af5c158,%E4%B8%AD%E6%96%87
3lvsubpZTH6If5IYEdYxXA,berrymob,2157_22055711,Install,2.5,59.124.207.11,256bf110-5710-4d31-837e-de4e99eda026,1558668055,2019-05-24 11:20:55,1558668091,2019-05-24 11:21:31,1558668122,20190524032046_4e79c7a601dad35432c431a859f42b919645029_v2,http://postback.berrymobapi.com/postback/?tid=20190524032046_4e79c7a601dad35432c431a859f42b919645029_v2&src=823,idfa_256bf110-5710-4d31-837e-de4e99eda026,English
3lvsubpZTH6If5IYEdYxXA,berrymob,2157_22055711,Install,2.5,112.105.1.90,4738ad69-f590-477d-8d5d-e4fea3be1d24,1558667602,2019-05-24 11:13:22,1558667640,2019-05-24 11:14:00,1558667672,20190524031314_1dc5300dfc120b0c7a4090d12f9e63329590379_v2,http://postback.berrymobapi.com/postback/?tid=20190524031314_1dc5300dfc120b0c7a4090d12f9e63329590379_v2&src=823,idfa_4738ad69-f590-477d-8d5d-e4fea3be1d24,English
3lvsubpZTH6If5IYEdYxXA,berrymob,2157_22055711,Install,2.5,122.116.73.94,a5651306-cac1-45eb-bed7-68c7a7b123a0,1558668178,2019-05-24 11:22:58,1558668227,2019-05-24 11:23:47,1558668258,20190524032236_7e9d3463ef12fe7f41906ab27c7b29d03297918_v2,http://postback.berrymobapi.com/postback/?tid=20190524032236_7e9d3463ef12fe7f41906ab27c7b29d03297918_v2&src=823,idfa_a5651306-cac1-45eb-bed7-68c7a7b123a0,English
3lvsubpZTH6If5IYEdYxXA,berrymob,2157_22055711,Install,2.5,211.75.111.83,75383075-80c2-4fe9-ab89-31933574d933,1558667479,2019-05-24 11:11:19,1558667509,2019-05-24 11:11:49,1558667541,20190524031110_ee488adc20159599816fccd52ac8861a6092167_v2,http://postback.berrymobapi.com/postback/?tid=20190524031110_ee488adc20159599816fccd52ac8861a6092167_v2&src=823,idfa_75383075-80c2-4fe9-ab89-31933574d933,English
3lvsubpZTH6If5IYEdYxXA,berrymob,2157_22055711,Install,2.5,1.174.66.172,88bbd5dc-4c39-4625-b391-5db40296396e,1558667841,2019-05-24 11:17:21,1558667883,2019-05-24 11:18:03,1558667915,20190524031714_36c39d6812e808d800d23871b1734ea87217514_v2,http://postback.berrymobapi.com/postback/?tid=20190524031714_36c39d6812e808d800d23871b1734ea87217514_v2&src=823,idfa_88bbd5dc-4c39-4625-b391-5db40296396e,English
3lvsubpZTH6If5IYEdYxXA,berrymob,2157_22055711,Install,2.5,36.229.235.27,68fcfa32-db84-4fcb-8273-4351db2ec8db,1558668176,2019-05-24 11:22:56,1558668211,2019-05-24 11:23:31,1558668242,20190524032248_569e0196a67d725f614b26281d0e552d2257860_v2,http://postback.berrymobapi.com/postback/?tid=20190524032248_569e0196a67d725f614b26281d0e552d2257860_v2&src=823,idfa_68fcfa32-db84-4fcb-8273-4351db2ec8db,English
3lvsubpZTH6If5IYEdYxXA,berrymob,2157_22055711,Install,2.5,49.159.23.231,abaf1ff6-b4e9-4bb1-ab05-04ddf1b09e88,1558667312,2019-05-24 11:08:32,1558667348,2019-05-24 11:09:08,1558667379,20190524030824_94729098e128200e237090ec127ab91b1306253_v2,http://postback.berrymobapi.com/postback/?tid=20190524030824_94729098e128200e237090ec127ab91b1306253_v2&src=823,idfa_abaf1ff6-b4e9-4bb1-ab05-04ddf1b09e88,English
3lvsubpZTH6If5IYEdYxXA,berrymob,2157_22055711,Install,2.5,220.133.2.50,31b04a50-e45b-4371-9cb3-7c08783beb17,1558665915,2019-05-24 10:45:15,1558665968,2019-05-24 10:46:08,1558665999,20190524024504_371f71d1555bc869a8257987a43c337d4617048_v2,http://postback.berrymobapi.com/postback/?tid=20190524024504_371f71d1555bc869a8257987a43c337d4617048_v2&src=823,idfa_31b04a50-e45b-4371-9cb3-7c08783beb17,English
3lvsubpZTH6If5IYEdYxXA,berrymob,2157_22055711,Install,2.5,220.134.209.98,1539459b-fdf3-4a41-8a14-3f7e36f91e21,1558668338,2019-05-24 11:25:38,1558668379,2019-05-24 11:26:19,1558668409,20190524032529_f4771934690c3009c1a7cd17f9bb5b966819369_v2,http://postback.berrymobapi.com/postback/?tid=20190524032529_f4771934690c3009c1a7cd17f9bb5b966819369_v2&src=823,idfa_1539459b-fdf3-4a41-8a14-3f7e36f91e21,English
3lvsubpZTH6If5IYEdYxXA,berrymob,2157_22055711,Install,2.5,36.231.35.237,1fe40c97-9dc6-494c-89de-3eaf39a4e574,1558666818,2019-05-24 11:00:18,1558666866,2019-05-24 11:01:06,1558666897,20190524030010_c3ea2ebba11a752ef410d82dca795ebb8222884_v2,http://postback.berrymobapi.com/postback/?tid=20190524030010_c3ea2ebba11a752ef410d82dca795ebb8222884_v2&src=823,idfa_1fe40c97-9dc6-494c-89de-3eaf39a4e574,English
3lvsubpZTH6If5IYEdYxXA,berrymob,2157_22055711,Install,2.5,123.240.42.89,2203acf3-eddd-498d-81eb-d7703c718633,1558668565,2019-05-24 11:29:25,1558668611,2019-05-24 11:30:11,1558668642,20190524032917_a22d78f1ea91ee8512d1f32593fd2f4f6827617_v2,http://postback.berrymobapi.com/postback/?tid=20190524032917_a22d78f1ea91ee8512d1f32593fd2f4f6827617_v2&src=823,idfa_2203acf3-eddd-498d-81eb-d7703c718633,English
3lvsubpZTH6If5IYEdYxXA,berrymob,2157_22055711,Install,2.5,36.231.157.146,75f4d8fc-33bb-48a2-896e-b69b9db23beb,1558666810,2019-05-24 11:00:10,1558666840,2019-05-24 11:00:40,1558666933,20190524030003_184988848a2256d2e00e569b73f522885956185_v2,http://postback.berrymobapi.com/postback/?tid=20190524030003_184988848a2256d2e00e569b73f522885956185_v2&src=823,idfa_75f4d8fc-33bb-48a2-896e-b69b9db23beb,English
3lvsubpZTH6If5IYEdYxXA,berrymob,2157_22055711,Install,2.5,118.168.129.150,b9d2ff33-681b-4273-b86b-f5188d53ec1c,1558667860,2019-05-24 11:17:40,1558667901,2019-05-24 11:18:21,1558667933,20190524031731_e2f14cd566fef96c70a7c81a08f34d5c7994575_v2,http://postback.berrymobapi.com/postback/?tid=20190524031731_e2f14cd566fef96c70a7c81a08f34d5c7994575_v2&src=823,idfa_b9d2ff33-681b-4273-b86b-f5188d53ec1c,English
3lvsubpZTH6If5IYEdYxXA,berrymob,2157_22055711,Install,2.5,114.32.229.245,798a86d4-d4ef-4d59-9e18-fbdee8fcd6da,1558668144,2019-05-24 11:22:24,1558668202,2019-05-24 11:23:22,1558668234,20190524032104_0826cea1dc067085cf000b571646295a5477854_v2,http://postback.berrymobapi.com/postback/?tid=20190524032104_0826cea1dc067085cf000b571646295a5477854_v2&src=823,idfa_798a86d4-d4ef-4d59-9e18-fbdee8fcd6da,English
3lvsubpZTH6If5IYEdYxXA,berrymob,2157_22055711,Install,2.5,123.193.231.172,1383fcc5-1cc3-4fe2-a551-2dfefa7c22c1,1558667773,2019-05-24 11:16:13,1558667814,2019-05-24 11:16:54,1558667847,20190524031605_b325c5a2d6cf3d46b45814d201e525321012641_v2,http://postback.berrymobapi.com/postback/?tid=20190524031605_b325c5a2d6cf3d46b45814d201e525321012641_v2&src=823,idfa_1383fcc5-1cc3-4fe2-a551-2dfefa7c22c1,English
3lvsubpZTH6If5IYEdYxXA,berrymob,2157_22055711,Install,2.5,118.167.254.81,f78cfeb7-0ee9-494c-b471-b53a860f2fb8,1558666803,2019-05-24 11:00:03,1558666842,2019-05-24 11:00:42,1558666873,20190524025941_b466969e23b65e3a527623fd14d0c11a6441431_v2,http://postback.berrymobapi.com/postback/?tid=20190524025941_b466969e23b65e3a527623fd14d0c11a6441431_v2&src=823,idfa_f78cfeb7-0ee9-494c-b471-b53a860f2fb8,English
3lvsubpZTH6If5IYEdYxXA,berrymob,2157_22055711,Install,2.5,106.105.29.122,ca5fd8b9-bb37-4504-87b3-5bf9a317ced3,1558667312,2019-05-24 11:08:32,1558667344,2019-05-24 11:09:04,1558667375,20190524030825_02b6c91af7c1e6179063a9970cafb0047313892_v2,http://postback.berrymobapi.com/postback/?tid=20190524030825_02b6c91af7c1e6179063a9970cafb0047313892_v2&src=823,idfa_ca5fd8b9-bb37-4504-87b3-5bf9a317ced3,English
3lvsubpZTH6If5IYEdYxXA,berrymob,2157_22055711,Install,2.5,36.226.79.131,fb7d64d0-394a-4273-a369-366e57972de9,1558667639,2019-05-24 11:13:59,1558667677,2019-05-24 11:14:37,1558667707,20190524031349_c58f044c030f50a61d49d1727bfd496a3246445_v2,http://postback.berrymobapi.com/postback/?tid=20190524031349_c58f044c030f50a61d49d1727bfd496a3246445_v2&src=823,idfa_fb7d64d0-394a-4273-a369-366e57972de9,English
3lvsubpZTH6If5IYEdYxXA,berrymob,2157_22055711,Install,2.5,1.171.55.19,080272c4-0bea-419b-ba21-70ada8ba75d3,1558667307,2019-05-24 11:08:27,1558667338,2019-05-24 11:08:58,1558667369,20190524030811_1df1b5ead36327c0ceed55df4ca73cbc3572839_v2,http://postback.berrymobapi.com/postback/?tid=20190524030811_1df1b5ead36327c0ceed55df4ca73cbc3572839_v2&src=823,idfa_080272c4-0bea-419b-ba21-70ada8ba75d3,English
3lvsubpZTH6If5IYEdYxXA,berrymob,2157_22055711,Install,2.5,42.73.95.143,30355178-fff7-498b-af96-2dbfc6d8f225,1558666132,2019-05-24 10:48:52,1558666191,2019-05-24 10:49:51,1558666222,20190524024843_77c34a7c7d69193bf7f080555bb67fb85616015_v2,http://postback.berrymobapi.com/postback/?tid=20190524024843_77c34a7c7d69193bf7f080555bb67fb85616015_v2&src=823,idfa_30355178-fff7-498b-af96-2dbfc6d8f225,English
3lvsubpZTH6If5IYEdYxXA,berrymob,2157_22055711,Install,2.5,118.171.24.47,b60447f0-9976-46e9-8128-699bb3d8179c,1558668129,2019-05-24 11:22:09,1558668163,2019-05-24 11:22:43,1558668194,20190524032159_b8e29fc7c2ff2f8a1759e3ea1a20cce26984242_v2,http://postback.berrymobapi.com/postback/?tid=20190524032159_b8e29fc7c2ff2f8a1759e3ea1a20cce26984242_v2&src=823,idfa_b60447f0-9976-46e9-8128-699bb3d8179c,English
3lvsubpZTH6If5IYEdYxXA,berrymob,2157_22055711,Install,2.5,175.181.190.29,595247aa-f238-408a-9173-3d943c0a3394,1558668342,2019-05-24 11:25:42,1558668383,2019-05-24 11:26:23,1558668414,20190524032533_9542320ecd44f42c23d49e72c2f1c26e8237289_v2,http://postback.berrymobapi.com/postback/?tid=20190524032533_9542320ecd44f42c23d49e72c2f1c26e8237289_v2&src=823,idfa_595247aa-f238-408a-9173-3d943c0a3394,English
3lvsubpZTH6If5IYEdYxXA,berrymob,2157_22055711,Install,2.5,220.134.229.147,e4b4cdd7-895c-416b-8a82-33b1e4bd0fbe,1558666830,2019-05-24 11:00:30,1558666889,2019-05-24 11:01:29,1558667057,20190524030022_85ba811f7d69b977bf2b7fa636e49d508099919_v2,http://postback.berrymobapi.com/postback/?tid=20190524030022_85ba811f7d69b977bf2b7fa636e49d508099919_v2&src=823,idfa_e4b4cdd7-895c-416b-8a82-33b1e4bd0fbe,English
3lvsubpZTH6If5IYEdYxXA,berrymob,2157_22055711,Install,2.5,118.169.138.193,2f06d876-105d-4e91-a326-f2c8b7814653,1558666909,2019-05-24 11:01:49,1558666955,2019-05-24 11:02:35,1558666986,20190524030141_58b9505b654fdcde5ae7dcfb418cdbbe6911810_v2,http://postback.berrymobapi.com/postback/?tid=20190524030141_58b9505b654fdcde5ae7dcfb418cdbbe6911810_v2&src=823,idfa_2f06d876-105d-4e91-a326-f2c8b7814653,English
3lvsubpZTH6If5IYEdYxXA,berrymob,2157_22055711,Install,2.5,118.150.228.228,a7ca465b-64ec-446b-82c7-c17691700cb4,1558666749,2019-05-24 10:59:09,1558666790,2019-05-24 10:59:50,1558666821,20190524025901_a7a4519a2db25acf2857de0da965c4838061687_v2,http://postback.berrymobapi.com/postback/?tid=20190524025901_a7a4519a2db25acf2857de0da965c4838061687_v2&src=823,idfa_a7ca465b-64ec-446b-82c7-c17691700cb4,English
3lvsubpZTH6If5IYEdYxXA,berrymob,2157_22055711,Install,2.5,114.35.98.9,6ad2d0f0-1f82-4cae-ab92-de824d7b903b,1558666817,2019-05-24 11:00:17,1558666886,2019-05-24 11:01:26,1558666917,20190524030009_87906cb59748a4049573635629f810497832806_v2,http://postback.berrymobapi.com/postback/?tid=20190524030009_87906cb59748a4049573635629f810497832806_v2&src=823,idfa_6ad2d0f0-1f82-4cae-ab92-de824d7b903b,English
3lvsubpZTH6If5IYEdYxXA,berrymob,2157_22055711,Install,2.5,123.204.157.242,94c5a83f-176c-44e1-aedd-2b0406b75e9c,1558666937,2019-05-24 11:02:17,1558666984,2019-05-24 11:03:04,1558667015,20190524030207_3aca300cb952f495da0b1cbf2209a7467408954_v2,http://postback.berrymobapi.com/postback/?tid=20190524030207_3aca300cb952f495da0b1cbf2209a7467408954_v2&src=823,idfa_94c5a83f-176c-44e1-aedd-2b0406b75e9c,English
3lvsubpZTH6If5IYEdYxXA,berrymob,2157_22055711,Install,2.5,49.159.103.59,f8f04bf2-605e-4b89-9bbf-375054dd4f8c,1558659614,2019-05-24 09:00:14,1558660946,2019-05-24 09:22:26,1558660980,20190524010013_b32784aa113537d68af58f703b76e9bf7135825_v2,http://postback.berrymobapi.com/postback/?tid=20190524010013_b32784aa113537d68af58f703b76e9bf7135825_v2&src=823,idfa_f8f04bf2-605e-4b89-9bbf-375054dd4f8c,%E4%B8%AD%E6%96%87
3lvsubpZTH6If5IYEdYxXA,berrymob,2157_22055711,Install,2.5,36.227.218.3,0ab78095-ab81-4ca1-a9e1-3c4035b72544,1558666692,2019-05-24 10:58:12,1558666739,2019-05-24 10:58:59,1558666770,20190524025805_7f06f50c121887d9e4798ea4dd1e48ca5701483_v2,http://postback.berrymobapi.com/postback/?tid=20190524025805_7f06f50c121887d9e4798ea4dd1e48ca5701483_v2&src=823,idfa_0ab78095-ab81-4ca1-a9e1-3c4035b72544,English
3lvsubpZTH6If5IYEdYxXA,berrymob,2157_22055711,Install,2.5,223.140.197.201,d403fbfb-90f4-4f73-aee4-faec2524c872,1558668067,2019-05-24 11:21:07,1558668129,2019-05-24 11:22:09,1558668161,20190524032056_8030d2ca8b968f5a0d5ceae0d89b1d5a6246972_v2,http://postback.berrymobapi.com/postback/?tid=20190524032056_8030d2ca8b968f5a0d5ceae0d89b1d5a6246972_v2&src=823,idfa_d403fbfb-90f4-4f73-aee4-faec2524c872,English
3lvsubpZTH6If5IYEdYxXA,berrymob,2157_22055711,Install,2.5,118.167.5.124,030a2cfc-551a-416f-b838-3bec52dbb76a,1558667813,2019-05-24 11:16:53,1558667851,2019-05-24 11:17:31,1558667882,20190524031646_cef0220f6f1b22f2f6603ac971b7ed5c4477419_v2,http://postback.berrymobapi.com/postback/?tid=20190524031646_cef0220f6f1b22f2f6603ac971b7ed5c4477419_v2&src=823,idfa_030a2cfc-551a-416f-b838-3bec52dbb76a,English
3lvsubpZTH6If5IYEdYxXA,berrymob,2157_22055711,Install,2.5,123.193.38.114,f1e95589-11cb-460f-8c76-cf347d934566,1558666931,2019-05-24 11:02:11,1558666967,2019-05-24 11:02:47,1558666999,20190524030202_3e8315854e4b87e443062d5844a7b0426919816_v2,http://postback.berrymobapi.com/postback/?tid=20190524030202_3e8315854e4b87e443062d5844a7b0426919816_v2&src=823,idfa_f1e95589-11cb-460f-8c76-cf347d934566,English
3lvsubpZTH6If5IYEdYxXA,berrymob,2157_22055711,Install,2.5,112.105.1.90,1747e732-9c42-489a-981c-87cb503ed3d0,1558667195,2019-05-24 11:06:35,1558667228,2019-05-24 11:07:08,1558667261,20190524030628_621fea1504310a76e65125ec629b449a8136237_v2,http://postback.berrymobapi.com/postback/?tid=20190524030628_621fea1504310a76e65125ec629b449a8136237_v2&src=823,idfa_1747e732-9c42-489a-981c-87cb503ed3d0,English
3lvsubpZTH6If5IYEdYxXA,berrymob,2157_22055711,Install,2.5,1.171.3.114,cb8ed2dc-3766-46f1-8ac5-1d9d9a0ac881,1558668149,2019-05-24 11:22:29,1558668206,2019-05-24 11:23:26,1558668237,20190524032221_ccf20813ed9fc90aa677a7331cfd05483219876_v2,http://postback.berrymobapi.com/postback/?tid=20190524032221_ccf20813ed9fc90aa677a7331cfd05483219876_v2&src=823,idfa_cb8ed2dc-3766-46f1-8ac5-1d9d9a0ac881,English
3lvsubpZTH6If5IYEdYxXA,berrymob,2157_22055711,Install,2.5,140.120.99.55,c749e1e9-9264-4891-9756-a72b33479698,1558667783,2019-05-24 11:16:23,1558667829,2019-05-24 11:17:09,1558667861,20190524031614_66016b6b5b11db9f117da2c46e07683f5166775_v2,http://postback.berrymobapi.com/postback/?tid=20190524031614_66016b6b5b11db9f117da2c46e07683f5166775_v2&src=823,idfa_c749e1e9-9264-4891-9756-a72b33479698,English
3lvsubpZTH6If5IYEdYxXA,berrymob,2157_22055711,Install,2.5,118.169.9.239,cbfba833-5855-4850-a9d0-7f4f4d3fe104,1558665969,2019-05-24 10:46:09,1558666020,2019-05-24 10:47:00,1558666051,20190524024601_9336d258b6bd3401c0a318a5482fd6554325764_v2,http://postback.berrymobapi.com/postback/?tid=20190524024601_9336d258b6bd3401c0a318a5482fd6554325764_v2&src=823,idfa_cbfba833-5855-4850-a9d0-7f4f4d3fe104,English
