cid,partner_id,channel_id,action_id,cpi,ip,idfa,click time,click datetime,install time,install datetime,postback time,click id,postback url,unique user id
22SYdjRMTPudVIHvsFnZJQ,berrymob,2151_22118705,Install,2.7,101.15.186.184,89797ee9-845f-4ea5-aa99-5d55902ba017,1558520899,2019-05-22 18:28:19,1558521080,2019-05-22 18:31:20,1558521111,20190522102817_a0eba5f797ba029c1c30943ab17abe709157555_v2,http://postback.berrymobapi.com/postback/?tid=20190522102817_a0eba5f797ba029c1c30943ab17abe709157555_v2&src=823,idfa_89797ee9-845f-4ea5-aa99-5d55902ba017,%E4%B8%AD%E6%96%87
22SYdjRMTPudVIHvsFnZJQ,berrymob,2151_22118705,Install,2.7,118.150.106.115,346813ac-ddea-4217-8b29-b0e7834fccfc,1558521030,2019-05-22 18:30:30,1558521203,2019-05-22 18:33:23,1558521233,20190522103029_73d50cc1a2fe424b1a79a47faff78c5b4260236_v2,http://postback.berrymobapi.com/postback/?tid=20190522103029_73d50cc1a2fe424b1a79a47faff78c5b4260236_v2&src=823,idfa_346813ac-ddea-4217-8b29-b0e7834fccfc,%E4%B8%AD%E6%96%87
22SYdjRMTPudVIHvsFnZJQ,berrymob,2151_22118705,Install,2.7,27.242.12.139,1b394a05-a249-45b5-ae58-dfd5667ff775,1558520727,2019-05-22 18:25:27,1558520902,2019-05-22 18:28:22,1558520933,20190522102522_37a9d64322f687d9d9d10f3d26ba3fbf4591306_v2,http://postback.berrymobapi.com/postback/?tid=20190522102522_37a9d64322f687d9d9d10f3d26ba3fbf4591306_v2&src=823,idfa_1b394a05-a249-45b5-ae58-dfd5667ff775,%E4%B8%AD%E6%96%87
22SYdjRMTPudVIHvsFnZJQ,berrymob,2151_22118705,Install,2.7,114.32.137.196,1b06617f-a5b9-46ff-be93-50e2688a2e69,1558520778,2019-05-22 18:26:18,1558521076,2019-05-22 18:31:16,1558521108,20190522102617_c83d671c00075f5ee4fda7f222cda9797776062_v2,http://postback.berrymobapi.com/postback/?tid=20190522102617_c83d671c00075f5ee4fda7f222cda9797776062_v2&src=823,idfa_1b06617f-a5b9-46ff-be93-50e2688a2e69,%E4%B8%AD%E6%96%87
22SYdjRMTPudVIHvsFnZJQ,berrymob,2151_22118705,Install,2.7,101.137.67.191,d0e20c00-34fd-486e-8078-00562b133821,1558521029,2019-05-22 18:30:29,1558521201,2019-05-22 18:33:21,1558521233,20190522103019_0842cd602295bfdd4e51251854f5db2e1517497_v2,http://postback.berrymobapi.com/postback/?tid=20190522103019_0842cd602295bfdd4e51251854f5db2e1517497_v2&src=823,idfa_d0e20c00-34fd-486e-8078-00562b133821,%E4%B8%AD%E6%96%87
22SYdjRMTPudVIHvsFnZJQ,berrymob,2151_22118705,Install,2.7,101.137.56.43,3f2353f9-5328-4162-a57a-3f7702c69dc0,1558520666,2019-05-22 18:24:26,1558520967,2019-05-22 18:29:27,1558520998,20190522102424_a6630ac525e634bebe30ee145df742171409913_v2,http://postback.berrymobapi.com/postback/?tid=20190522102424_a6630ac525e634bebe30ee145df742171409913_v2&src=823,idfa_3f2353f9-5328-4162-a57a-3f7702c69dc0,%E4%B8%AD%E6%96%87
22SYdjRMTPudVIHvsFnZJQ,berrymob,2151_22118705,Install,2.7,101.136.42.102,bde80bae-c034-4d0d-91dd-34e35132c7bd,1558520768,2019-05-22 18:26:08,1558520949,2019-05-22 18:29:09,1558520980,20190522102606_acf9cd91caa9d1a62fd22537f3349b1f4107059_v2,http://postback.berrymobapi.com/postback/?tid=20190522102606_acf9cd91caa9d1a62fd22537f3349b1f4107059_v2&src=823,idfa_bde80bae-c034-4d0d-91dd-34e35132c7bd,%E4%B8%AD%E6%96%87
22SYdjRMTPudVIHvsFnZJQ,berrymob,2151_22118705,Install,2.7,36.237.65.64,79b1597c-d23f-4c27-aec4-9fcc7ea496c9,1558520960,2019-05-22 18:29:20,1558521157,2019-05-22 18:32:37,1558521189,20190522102919_75584c31fbc5b1340a4620ed6fc9ae8f5523304_v2,http://postback.berrymobapi.com/postback/?tid=20190522102919_75584c31fbc5b1340a4620ed6fc9ae8f5523304_v2&src=823,idfa_79b1597c-d23f-4c27-aec4-9fcc7ea496c9,%E4%B8%AD%E6%96%87
22SYdjRMTPudVIHvsFnZJQ,berrymob,2151_22118705,Install,2.7,27.246.229.66,5d679bf3-48ad-45fb-8869-54bb136439c1,1558520899,2019-05-22 18:28:19,1558521082,2019-05-22 18:31:22,1558521113,20190522102816_564358a179a4e2509c88329551f1c6121581204_v2,http://postback.berrymobapi.com/postback/?tid=20190522102816_564358a179a4e2509c88329551f1c6121581204_v2&src=823,idfa_5d679bf3-48ad-45fb-8869-54bb136439c1,%E4%B8%AD%E6%96%87
22SYdjRMTPudVIHvsFnZJQ,berrymob,2151_22118705,Install,2.7,220.129.113.36,04caaf58-68cd-4dd9-860a-cde853929f93,1558520240,2019-05-22 18:17:20,1558520418,2019-05-22 18:20:18,1558520450,20190522101719_8b5f3fabd446f7b9690aae523b7227492818921_v2,http://postback.berrymobapi.com/postback/?tid=20190522101719_8b5f3fabd446f7b9690aae523b7227492818921_v2&src=823,idfa_04caaf58-68cd-4dd9-860a-cde853929f93,%E4%B8%AD%E6%96%87
22SYdjRMTPudVIHvsFnZJQ,berrymob,2151_22118705,Install,2.7,123.195.47.221,faa03eee-5d4c-445a-9abb-9af0cc1a27c0,1558520711,2019-05-22 18:25:11,1558520895,2019-05-22 18:28:15,1558520927,20190522102508_17a0370e8acb018020c8a8af2e94aa1f2285876_v2,http://postback.berrymobapi.com/postback/?tid=20190522102508_17a0370e8acb018020c8a8af2e94aa1f2285876_v2&src=823,idfa_faa03eee-5d4c-445a-9abb-9af0cc1a27c0,%E4%B8%AD%E6%96%87
22SYdjRMTPudVIHvsFnZJQ,berrymob,2151_22118705,Install,2.7,219.85.47.36,7662eb0f-d459-4be2-9aff-e151227d69c5,1558521038,2019-05-22 18:30:38,1558521215,2019-05-22 18:33:35,1558521246,20190522103037_86064c1b3cf5373a62fd18bea77c0f918546648_v2,http://postback.berrymobapi.com/postback/?tid=20190522103037_86064c1b3cf5373a62fd18bea77c0f918546648_v2&src=823,idfa_7662eb0f-d459-4be2-9aff-e151227d69c5,%E4%B8%AD%E6%96%87
22SYdjRMTPudVIHvsFnZJQ,berrymob,2151_22118705,Install,2.7,223.137.187.252,e506e283-0c7d-4fdc-882c-f925ea6187c8,1558520780,2019-05-22 18:26:20,1558520965,2019-05-22 18:29:25,1558520996,20190522102618_e21d53d2c3ea8e7ca55a7525747e1dc77853432_v2,http://postback.berrymobapi.com/postback/?tid=20190522102618_e21d53d2c3ea8e7ca55a7525747e1dc77853432_v2&src=823,idfa_e506e283-0c7d-4fdc-882c-f925ea6187c8,%E4%B8%AD%E6%96%87
22SYdjRMTPudVIHvsFnZJQ,berrymob,2151_22118705,Install,2.7,61.228.128.185,d16dec3c-6d4a-4f92-8640-ea1ea4abe69f,1558521023,2019-05-22 18:30:23,1558521242,2019-05-22 18:34:02,1558521273,20190522103021_855df62b062540c7e9010c9cbb9488262620994_v2,http://postback.berrymobapi.com/postback/?tid=20190522103021_855df62b062540c7e9010c9cbb9488262620994_v2&src=823,idfa_d16dec3c-6d4a-4f92-8640-ea1ea4abe69f,%E4%B8%AD%E6%96%87
22SYdjRMTPudVIHvsFnZJQ,berrymob,2151_22118705,Install,2.7,101.10.32.176,c2cf6d15-6d21-4be8-955d-7eb20bf1dd34,1558520233,2019-05-22 18:17:13,1558520416,2019-05-22 18:20:16,1558520447,20190522101711_64bc8cb898692938c27facf0f744a8276421797_v2,http://postback.berrymobapi.com/postback/?tid=20190522101711_64bc8cb898692938c27facf0f744a8276421797_v2&src=823,idfa_c2cf6d15-6d21-4be8-955d-7eb20bf1dd34,%E4%B8%AD%E6%96%87
22SYdjRMTPudVIHvsFnZJQ,berrymob,2151_22118705,Install,2.7,111.251.213.142,bdf04844-be4d-4c66-963a-31848a117d1a,1558520829,2019-05-22 18:27:09,1558521007,2019-05-22 18:30:07,1558521038,20190522102708_440bbbc1638fe59877d67cf867d4d5711270082_v2,http://postback.berrymobapi.com/postback/?tid=20190522102708_440bbbc1638fe59877d67cf867d4d5711270082_v2&src=823,idfa_bdf04844-be4d-4c66-963a-31848a117d1a,%E4%B8%AD%E6%96%87
22SYdjRMTPudVIHvsFnZJQ,berrymob,2151_22118705,Install,2.7,36.239.89.61,6cf14514-208e-4bcf-ae5d-e3932c87357d,1558520354,2019-05-22 18:19:14,1558520554,2019-05-22 18:22:34,1558520585,20190522101911_e7974e59a665755acd65368441d3d0a61220019_v2,http://postback.berrymobapi.com/postback/?tid=20190522101911_e7974e59a665755acd65368441d3d0a61220019_v2&src=823,idfa_6cf14514-208e-4bcf-ae5d-e3932c87357d,%E4%B8%AD%E6%96%87
22SYdjRMTPudVIHvsFnZJQ,berrymob,2151_22118705,Install,2.7,110.50.151.240,dfc1a28e-18d6-40f1-983d-d8945218d8de,1558520418,2019-05-22 18:20:18,1558520600,2019-05-22 18:23:20,1558520631,20190522102014_2e9c046ba1cfb9527aad5f5ebc82d2eb7505502_v2,http://postback.berrymobapi.com/postback/?tid=20190522102014_2e9c046ba1cfb9527aad5f5ebc82d2eb7505502_v2&src=823,idfa_dfc1a28e-18d6-40f1-983d-d8945218d8de,%E4%B8%AD%E6%96%87
22SYdjRMTPudVIHvsFnZJQ,berrymob,2151_22118705,Install,2.7,39.9.70.98,7b97a442-165e-4f18-91f0-9b9adbef08b2,1558520849,2019-05-22 18:27:29,1558521027,2019-05-22 18:30:27,1558521062,20190522102727_8846ec7cfc01f186db05a2c355e482b55643258_v2,http://postback.berrymobapi.com/postback/?tid=20190522102727_8846ec7cfc01f186db05a2c355e482b55643258_v2&src=823,idfa_7b97a442-165e-4f18-91f0-9b9adbef08b2,%E4%B8%AD%E6%96%87
22SYdjRMTPudVIHvsFnZJQ,berrymob,2151_22118705,Install,2.7,49.217.23.183,fd4715e0-63e9-4536-badb-abac0feaa53e,1558518608,2019-05-22 17:50:08,1558518787,2019-05-22 17:53:07,1558518818,20190522095006_6b5d706228a37a5c3879c0a988056f286927186_v2,http://postback.berrymobapi.com/postback/?tid=20190522095006_6b5d706228a37a5c3879c0a988056f286927186_v2&src=823,idfa_fd4715e0-63e9-4536-badb-abac0feaa53e,%E4%B8%AD%E6%96%87
22SYdjRMTPudVIHvsFnZJQ,berrymob,2151_22118705,Install,2.7,101.136.9.175,7e887dfb-7889-4043-96c4-4dddc5624534,1558520947,2019-05-22 18:29:07,1558521125,2019-05-22 18:32:05,1558521158,20190522102905_8c349ada56afc3e060c431e5818e1b664921250_v2,http://postback.berrymobapi.com/postback/?tid=20190522102905_8c349ada56afc3e060c431e5818e1b664921250_v2&src=823,idfa_7e887dfb-7889-4043-96c4-4dddc5624534,%E4%B8%AD%E6%96%87
22SYdjRMTPudVIHvsFnZJQ,berrymob,2151_22118705,Install,2.7,114.136.215.143,968f8829-2c73-43bf-b8e7-f1fb3d27d9e5,1558521028,2019-05-22 18:30:28,1558521210,2019-05-22 18:33:30,1558521242,20190522103026_bf6f59b06e152567f26993cf51c1e6375787098_v2,http://postback.berrymobapi.com/postback/?tid=20190522103026_bf6f59b06e152567f26993cf51c1e6375787098_v2&src=823,idfa_968f8829-2c73-43bf-b8e7-f1fb3d27d9e5,%E4%B8%AD%E6%96%87
22SYdjRMTPudVIHvsFnZJQ,berrymob,2151_22118705,Install,2.7,49.216.17.162,1df5d27a-697e-4d47-8ab3-6a6003cd584a,1558520897,2019-05-22 18:28:17,1558521084,2019-05-22 18:31:24,1558521115,20190522102814_c2b277d18346f9b2fc519b8a91de81733756446_v2,http://postback.berrymobapi.com/postback/?tid=20190522102814_c2b277d18346f9b2fc519b8a91de81733756446_v2&src=823,idfa_1df5d27a-697e-4d47-8ab3-6a6003cd584a,%E4%B8%AD%E6%96%87
22SYdjRMTPudVIHvsFnZJQ,berrymob,2151_22118705,Install,2.7,110.50.186.179,7780af72-f771-4095-86c8-c0b4f005de49,1558520829,2019-05-22 18:27:09,1558521006,2019-05-22 18:30:06,1558521038,20190522102706_0e02108a557646513129d1bdb2a2efb54624762_v2,http://postback.berrymobapi.com/postback/?tid=20190522102706_0e02108a557646513129d1bdb2a2efb54624762_v2&src=823,idfa_7780af72-f771-4095-86c8-c0b4f005de49,%E4%B8%AD%E6%96%87
22SYdjRMTPudVIHvsFnZJQ,berrymob,2151_22118705,Install,2.7,101.12.226.75,7e2315d6-12d5-45df-b762-d3f199f70e61,1558520785,2019-05-22 18:26:25,1558521136,2019-05-22 18:32:16,1558521167,20190522102623_bd6b55b018c34240ba2b1b3f548421c13785081_v2,http://postback.berrymobapi.com/postback/?tid=20190522102623_bd6b55b018c34240ba2b1b3f548421c13785081_v2&src=823,idfa_7e2315d6-12d5-45df-b762-d3f199f70e61,%E4%B8%AD%E6%96%87
22SYdjRMTPudVIHvsFnZJQ,berrymob,2151_22118705,Install,2.7,27.246.233.100,f71a7428-a987-484f-a8a9-b7ef6fc5ecc8,1558520294,2019-05-22 18:18:14,1558520505,2019-05-22 18:21:45,1558520543,20190522101810_6749301d48dac2b5aad7ae7e5b87ccd48982456_v2,http://postback.berrymobapi.com/postback/?tid=20190522101810_6749301d48dac2b5aad7ae7e5b87ccd48982456_v2&src=823,idfa_f71a7428-a987-484f-a8a9-b7ef6fc5ecc8,%E4%B8%AD%E6%96%87
22SYdjRMTPudVIHvsFnZJQ,berrymob,2151_22118705,Install,2.7,180.217.239.98,55e78c55-bfe2-4e65-abaf-d8e473297dc8,1558520715,2019-05-22 18:25:15,1558520895,2019-05-22 18:28:15,1558520926,20190522102513_97980a9865106fe27d02fa03fb46853b7504356_v2,http://postback.berrymobapi.com/postback/?tid=20190522102513_97980a9865106fe27d02fa03fb46853b7504356_v2&src=823,idfa_55e78c55-bfe2-4e65-abaf-d8e473297dc8,%E4%B8%AD%E6%96%87
22SYdjRMTPudVIHvsFnZJQ,berrymob,2151_22118705,Install,2.7,101.136.71.214,900e946d-5aee-461e-94fc-3af268846cfe,1558520291,2019-05-22 18:18:11,1558520475,2019-05-22 18:21:15,1558520507,20190522101810_97f2f41e8f1ac8f6c364d7d819f306a25604446_v2,http://postback.berrymobapi.com/postback/?tid=20190522101810_97f2f41e8f1ac8f6c364d7d819f306a25604446_v2&src=823,idfa_900e946d-5aee-461e-94fc-3af268846cfe,%E4%B8%AD%E6%96%87
22SYdjRMTPudVIHvsFnZJQ,berrymob,2151_22118705,Install,2.7,117.19.161.123,0c13a0b5-feec-416f-91ad-075cefa93e74,1558520663,2019-05-22 18:24:23,1558520835,2019-05-22 18:27:15,1558520866,20190522102421_e4f164ac403b5f191679ceb5e5757a6d6206376_v2,http://postback.berrymobapi.com/postback/?tid=20190522102421_e4f164ac403b5f191679ceb5e5757a6d6206376_v2&src=823,idfa_0c13a0b5-feec-416f-91ad-075cefa93e74,%E4%B8%AD%E6%96%87
22SYdjRMTPudVIHvsFnZJQ,berrymob,2151_22118705,Install,2.7,111.83.53.229,bdb71bf0-51cd-475f-8e30-ad01c0445349,1558520411,2019-05-22 18:20:11,1558520909,2019-05-22 18:28:29,1558520941,20190522102008_4c1f243e5d88c3e51da92ac2319fc8855020467_v2,http://postback.berrymobapi.com/postback/?tid=20190522102008_4c1f243e5d88c3e51da92ac2319fc8855020467_v2&src=823,idfa_bdb71bf0-51cd-475f-8e30-ad01c0445349,%E4%B8%AD%E6%96%87
22SYdjRMTPudVIHvsFnZJQ,berrymob,2151_22118705,Install,2.7,27.247.230.15,a6488cf6-ef58-437f-8738-808d0a92ad6f,1558520894,2019-05-22 18:28:14,1558521076,2019-05-22 18:31:16,1558521107,20190522102812_8c2e9178b8fe567eebc37842363b90de7553184_v2,http://postback.berrymobapi.com/postback/?tid=20190522102812_8c2e9178b8fe567eebc37842363b90de7553184_v2&src=823,idfa_a6488cf6-ef58-437f-8738-808d0a92ad6f,%E4%B8%AD%E6%96%87
22SYdjRMTPudVIHvsFnZJQ,berrymob,2151_22118705,Install,2.7,180.217.168.153,966ee8de-33ec-4dcb-8706-47197bfdcbb0,1558518731,2019-05-22 17:52:11,1558519033,2019-05-22 17:57:13,1558519065,20190522095209_47430f8ace03c37a5d1cbbab07092a848427735_v2,http://postback.berrymobapi.com/postback/?tid=20190522095209_47430f8ace03c37a5d1cbbab07092a848427735_v2&src=823,idfa_966ee8de-33ec-4dcb-8706-47197bfdcbb0,%E4%B8%AD%E6%96%87
22SYdjRMTPudVIHvsFnZJQ,berrymob,2151_22118705,Install,2.7,61.218.251.7,40affc70-5839-4ce8-b378-39e068588dcd,1558520775,2019-05-22 18:26:15,1558520952,2019-05-22 18:29:12,1558520984,20190522102608_ccd1cbd41464d592aa1664c8f9a05fd89450537_v2,http://postback.berrymobapi.com/postback/?tid=20190522102608_ccd1cbd41464d592aa1664c8f9a05fd89450537_v2&src=823,idfa_40affc70-5839-4ce8-b378-39e068588dcd,%E4%B8%AD%E6%96%87
22SYdjRMTPudVIHvsFnZJQ,berrymob,2151_22118705,Install,2.7,101.13.169.139,5474e9b6-3104-40dd-ae14-8cdc8fbe5962,1558520537,2019-05-22 18:22:17,1558520722,2019-05-22 18:25:22,1558520753,20190522102215_8c190bca1fd83bcc3c3ac4a93a317cd88838232_v2,http://postback.berrymobapi.com/postback/?tid=20190522102215_8c190bca1fd83bcc3c3ac4a93a317cd88838232_v2&src=823,idfa_5474e9b6-3104-40dd-ae14-8cdc8fbe5962,%E4%B8%AD%E6%96%87
22SYdjRMTPudVIHvsFnZJQ,berrymob,2151_22118705,Install,2.7,27.247.97.176,4686ac1e-8128-4f36-bca7-fc7ce77d7ca5,1558520725,2019-05-22 18:25:25,1558520913,2019-05-22 18:28:33,1558520944,20190522102523_22a5c42aa949534a56bd298cb31a57e13484763_v2,http://postback.berrymobapi.com/postback/?tid=20190522102523_22a5c42aa949534a56bd298cb31a57e13484763_v2&src=823,idfa_4686ac1e-8128-4f36-bca7-fc7ce77d7ca5,%E4%B8%AD%E6%96%87
22SYdjRMTPudVIHvsFnZJQ,berrymob,2151_22118705,Install,2.7,1.200.58.119,bef8688a-0ee6-4ac6-bc10-decd95e96346,1558519031,2019-05-22 17:57:11,1558519212,2019-05-22 18:00:12,1558519245,20190522095709_71ef9b08ab3dba6dbba38bb58873ee041170512_v2,http://postback.berrymobapi.com/postback/?tid=20190522095709_71ef9b08ab3dba6dbba38bb58873ee041170512_v2&src=823,idfa_bef8688a-0ee6-4ac6-bc10-decd95e96346,%E4%B8%AD%E6%96%87
22SYdjRMTPudVIHvsFnZJQ,berrymob,2151_22118705,Install,2.7,114.136.15.148,521bc582-44d9-4568-9719-c08151862f81,1558520833,2019-05-22 18:27:13,1558521014,2019-05-22 18:30:14,1558521044,20190522102710_9df47f1f7cd951b0b1502f8d16b60fcd7305242_v2,http://postback.berrymobapi.com/postback/?tid=20190522102710_9df47f1f7cd951b0b1502f8d16b60fcd7305242_v2&src=823,idfa_521bc582-44d9-4568-9719-c08151862f81,%E4%B8%AD%E6%96%87
22SYdjRMTPudVIHvsFnZJQ,berrymob,2151_22118705,Install,2.7,220.141.118.5,7e18dd5c-9290-41a7-bb62-a37802afae27,1558521035,2019-05-22 18:30:35,1558521214,2019-05-22 18:33:34,1558521245,20190522103028_981b2f58120283eea41fac3e465b3fcc9099918_v2,http://postback.berrymobapi.com/postback/?tid=20190522103028_981b2f58120283eea41fac3e465b3fcc9099918_v2&src=823,idfa_7e18dd5c-9290-41a7-bb62-a37802afae27,%E4%B8%AD%E6%96%87
22SYdjRMTPudVIHvsFnZJQ,berrymob,2151_22118705,Install,2.7,39.8.5.171,e7d02847-68d6-4fd0-a2f6-8321aaceb48b,1558520969,2019-05-22 18:29:29,1558521151,2019-05-22 18:32:31,1558521182,20190522102927_964c741d0509d3d0aaf10c75b59b93ad8811601_v2,http://postback.berrymobapi.com/postback/?tid=20190522102927_964c741d0509d3d0aaf10c75b59b93ad8811601_v2&src=823,idfa_e7d02847-68d6-4fd0-a2f6-8321aaceb48b,%E4%B8%AD%E6%96%87
22SYdjRMTPudVIHvsFnZJQ,berrymob,2151_22118705,Install,2.7,49.217.186.217,b5c9cb14-4a79-4e05-b406-4badbab74cb2,1558520957,2019-05-22 18:29:17,1558521166,2019-05-22 18:32:46,1558521197,20190522102915_bb318a6c6fbccb2387befe4c94cbbbd58430850_v2,http://postback.berrymobapi.com/postback/?tid=20190522102915_bb318a6c6fbccb2387befe4c94cbbbd58430850_v2&src=823,idfa_b5c9cb14-4a79-4e05-b406-4badbab74cb2,%E4%B8%AD%E6%96%87
22SYdjRMTPudVIHvsFnZJQ,berrymob,2151_22118705,Install,2.7,110.50.142.36,67f8f808-182f-461b-b4aa-5f2f5d4dc329,1558520354,2019-05-22 18:19:14,1558520571,2019-05-22 18:22:51,1558520603,20190522101912_b19ed29043ffed0e45b88fd289ba8d169179819_v2,http://postback.berrymobapi.com/postback/?tid=20190522101912_b19ed29043ffed0e45b88fd289ba8d169179819_v2&src=823,idfa_67f8f808-182f-461b-b4aa-5f2f5d4dc329,%E4%B8%AD%E6%96%87
22SYdjRMTPudVIHvsFnZJQ,berrymob,2151_22118705,Install,2.7,114.37.8.122,d902e0bc-a5eb-41c9-98e1-a62be6de2837,1558520444,2019-05-22 18:20:44,1558520722,2019-05-22 18:25:22,1558520753,20190522102043_6263f7f72d62c44375659c15ec2885768817744_v2,http://postback.berrymobapi.com/postback/?tid=20190522102043_6263f7f72d62c44375659c15ec2885768817744_v2&src=823,idfa_d902e0bc-a5eb-41c9-98e1-a62be6de2837,%E4%B8%AD%E6%96%87
22SYdjRMTPudVIHvsFnZJQ,berrymob,2151_22118705,Install,2.7,1.200.53.206,91c133d1-e4e1-4c32-8d5a-d44f77a146cb,1558520959,2019-05-22 18:29:19,1558521142,2019-05-22 18:32:22,1558521172,20190522102918_6059b4a4315c68a2135bb96a3a3aa9b58989311_v2,http://postback.berrymobapi.com/postback/?tid=20190522102918_6059b4a4315c68a2135bb96a3a3aa9b58989311_v2&src=823,idfa_91c133d1-e4e1-4c32-8d5a-d44f77a146cb,%E4%B8%AD%E6%96%87
22SYdjRMTPudVIHvsFnZJQ,berrymob,2151_22118705,Install,2.7,36.227.7.24,48cc0e53-ae1e-408c-a742-954fbeb9bc0a,1558520354,2019-05-22 18:19:14,1558520530,2019-05-22 18:22:10,1558520562,20190522101911_1e1c82488406f94b2385cd4c2a6f340f6204069_v2,http://postback.berrymobapi.com/postback/?tid=20190522101911_1e1c82488406f94b2385cd4c2a6f340f6204069_v2&src=823,idfa_48cc0e53-ae1e-408c-a742-954fbeb9bc0a,%E4%B8%AD%E6%96%87
22SYdjRMTPudVIHvsFnZJQ,berrymob,2151_22118705,Install,2.7,27.52.139.129,83c46b7a-f629-40e5-978c-7ea563814c8a,1558520737,2019-05-22 18:25:37,1558520920,2019-05-22 18:28:40,1558520951,20190522102535_70783b18da4c6e160c9ed2111e8ed62c5364271_v2,http://postback.berrymobapi.com/postback/?tid=20190522102535_70783b18da4c6e160c9ed2111e8ed62c5364271_v2&src=823,idfa_83c46b7a-f629-40e5-978c-7ea563814c8a,%E4%B8%AD%E6%96%87
22SYdjRMTPudVIHvsFnZJQ,berrymob,2151_22118705,Install,2.7,180.217.130.206,f7c21e24-4121-44c8-ba02-912de2c11aef,1558520899,2019-05-22 18:28:19,1558521079,2019-05-22 18:31:19,1558521111,20190522102817_da4220bc08b354c5463449dd4480ff861385032_v2,http://postback.berrymobapi.com/postback/?tid=20190522102817_da4220bc08b354c5463449dd4480ff861385032_v2&src=823,idfa_f7c21e24-4121-44c8-ba02-912de2c11aef,%E4%B8%AD%E6%96%87
22SYdjRMTPudVIHvsFnZJQ,berrymob,2151_22118705,Install,2.7,223.139.67.162,3b75ef6c-b49e-4e1c-9c8e-21a1ab22c3aa,1558520297,2019-05-22 18:18:17,1558520769,2019-05-22 18:26:09,1558520800,20190522101815_15da663710725252beef0acc8f394cc85595039_v2,http://postback.berrymobapi.com/postback/?tid=20190522101815_15da663710725252beef0acc8f394cc85595039_v2&src=823,idfa_3b75ef6c-b49e-4e1c-9c8e-21a1ab22c3aa,%E4%B8%AD%E6%96%87
22SYdjRMTPudVIHvsFnZJQ,berrymob,2151_22118705,Install,2.7,36.239.218.189,5a41bb25-6d74-4f9a-86d8-2b39f0ec7705,1558520836,2019-05-22 18:27:16,1558521013,2019-05-22 18:30:13,1558521047,20190522102713_40f02b785ecbe0cc77d151f24bc7f0358505125_v2,http://postback.berrymobapi.com/postback/?tid=20190522102713_40f02b785ecbe0cc77d151f24bc7f0358505125_v2&src=823,idfa_5a41bb25-6d74-4f9a-86d8-2b39f0ec7705,%E4%B8%AD%E6%96%87
22SYdjRMTPudVIHvsFnZJQ,berrymob,2151_22118705,Install,2.7,61.61.216.173,11173565-7dbd-42c8-b8f7-0e1d4cfafd60,1558520530,2019-05-22 18:22:10,1558520716,2019-05-22 18:25:16,1558520747,20190522102209_dbcb74e9c4b5c15eb5054dbfc18a27667945066_v2,http://postback.berrymobapi.com/postback/?tid=20190522102209_dbcb74e9c4b5c15eb5054dbfc18a27667945066_v2&src=823,idfa_11173565-7dbd-42c8-b8f7-0e1d4cfafd60,%E4%B8%AD%E6%96%87
22SYdjRMTPudVIHvsFnZJQ,berrymob,2151_22118705,Install,2.7,39.12.167.88,6fbffe58-4d2a-4c2f-b47a-96481fa55c45,1558520352,2019-05-22 18:19:12,1558520532,2019-05-22 18:22:12,1558520563,20190522101909_9684b3d9342022fa34a5ca4b1cb83d051390688_v2,http://postback.berrymobapi.com/postback/?tid=20190522101909_9684b3d9342022fa34a5ca4b1cb83d051390688_v2&src=823,idfa_6fbffe58-4d2a-4c2f-b47a-96481fa55c45,%E4%B8%AD%E6%96%87
22SYdjRMTPudVIHvsFnZJQ,berrymob,2151_22118705,Install,2.7,1.200.194.86,62e075bd-9f36-480d-a09c-5384aae75a86,1558520778,2019-05-22 18:26:18,1558520958,2019-05-22 18:29:18,1558520989,20190522102617_7f0f97ec866ed9b0abff3430ac421f588524288_v2,http://postback.berrymobapi.com/postback/?tid=20190522102617_7f0f97ec866ed9b0abff3430ac421f588524288_v2&src=823,idfa_62e075bd-9f36-480d-a09c-5384aae75a86,%E4%B8%AD%E6%96%87
22SYdjRMTPudVIHvsFnZJQ,berrymob,2151_22118705,Install,2.7,36.231.172.237,977e8f51-b001-4e2f-a31f-9b14b2c4a0f9,1558520470,2019-05-22 18:21:10,1558520653,2019-05-22 18:24:13,1558520684,20190522102109_f04c0bb159f468a2d502c38ab8e9a6f02127184_v2,http://postback.berrymobapi.com/postback/?tid=20190522102109_f04c0bb159f468a2d502c38ab8e9a6f02127184_v2&src=823,idfa_977e8f51-b001-4e2f-a31f-9b14b2c4a0f9,%E4%B8%AD%E6%96%87
22SYdjRMTPudVIHvsFnZJQ,berrymob,2151_22118705,Install,2.7,39.8.198.244,4074f366-8609-4df5-b425-2d5f1d8d0269,1558520669,2019-05-22 18:24:29,1558520848,2019-05-22 18:27:28,1558520879,20190522102426_22ec7a5c2c3b3999ca9f917a256ef5e09857797_v2,http://postback.berrymobapi.com/postback/?tid=20190522102426_22ec7a5c2c3b3999ca9f917a256ef5e09857797_v2&src=823,idfa_4074f366-8609-4df5-b425-2d5f1d8d0269,%E4%B8%AD%E6%96%87
22SYdjRMTPudVIHvsFnZJQ,berrymob,2151_22118705,Install,2.7,180.217.136.234,18ecb456-1cb5-449f-b4f5-f4aa6946e181,1558520479,2019-05-22 18:21:19,1558520663,2019-05-22 18:24:23,1558520694,20190522102117_a0f052288de73b47274e382cc8371ac09484830_v2,http://postback.berrymobapi.com/postback/?tid=20190522102117_a0f052288de73b47274e382cc8371ac09484830_v2&src=823,idfa_18ecb456-1cb5-449f-b4f5-f4aa6946e181,%E4%B8%AD%E6%96%87
22SYdjRMTPudVIHvsFnZJQ,berrymob,2151_22118705,Install,2.7,223.140.172.225,502f5f09-b277-4ac7-9a56-a8a6a2d17315,1558521017,2019-05-22 18:30:17,1558521198,2019-05-22 18:33:18,1558521231,20190522103015_a99985bc08ad8d71f84c546383e281d43357445_v2,http://postback.berrymobapi.com/postback/?tid=20190522103015_a99985bc08ad8d71f84c546383e281d43357445_v2&src=823,idfa_502f5f09-b277-4ac7-9a56-a8a6a2d17315,%E4%B8%AD%E6%96%87
22SYdjRMTPudVIHvsFnZJQ,berrymob,2151_22118705,Install,2.7,122.116.219.137,b26a4e62-0c38-4e47-be2e-f5a3eea680a3,1558414420,2019-05-21 12:53:40,1558415153,2019-05-21 13:05:53,1558415183,20190521045338_8a0af8bb34b9877e938cc6280e30112f7059317_v2,http://postback.berrymobapi.com/postback/?tid=20190521045338_8a0af8bb34b9877e938cc6280e30112f7059317_v2&src=823,idfa_b26a4e62-0c38-4e47-be2e-f5a3eea680a3,%E4%B8%AD%E6%96%87
22SYdjRMTPudVIHvsFnZJQ,berrymob,2151_22118705,Install,2.7,27.52.140.83,f24af50d-6ed7-4e99-95e5-8565d436be0b,1558521015,2019-05-22 18:30:15,1558521194,2019-05-22 18:33:14,1558521225,20190522103014_47cb7bdd7d57f0a1939d964512705dd13761651_v2,http://postback.berrymobapi.com/postback/?tid=20190522103014_47cb7bdd7d57f0a1939d964512705dd13761651_v2&src=823,idfa_f24af50d-6ed7-4e99-95e5-8565d436be0b,%E4%B8%AD%E6%96%87
22SYdjRMTPudVIHvsFnZJQ,berrymob,2151_22118705,Install,2.7,150.117.240.42,675ac56b-8385-4e87-81bb-bbde37e8fd9c,1558520852,2019-05-22 18:27:32,1558521022,2019-05-22 18:30:22,1558521054,20190522102723_8911dfec5118c84f0a5712ed88ee60dd4482450_v2,http://postback.berrymobapi.com/postback/?tid=20190522102723_8911dfec5118c84f0a5712ed88ee60dd4482450_v2&src=823,idfa_675ac56b-8385-4e87-81bb-bbde37e8fd9c,%E4%B8%AD%E6%96%87
22SYdjRMTPudVIHvsFnZJQ,berrymob,2151_22118705,Install,2.7,118.161.177.217,2b75ec33-562e-40af-a119-7daee2e128f2,1558520958,2019-05-22 18:29:18,1558521157,2019-05-22 18:32:37,1558521189,20190522102916_6718f00a422096f191698c0ab95d6fea1814212_v2,http://postback.berrymobapi.com/postback/?tid=20190522102916_6718f00a422096f191698c0ab95d6fea1814212_v2&src=823,idfa_2b75ec33-562e-40af-a119-7daee2e128f2,%E4%B8%AD%E6%96%87
22SYdjRMTPudVIHvsFnZJQ,berrymob,2151_22118705,Install,2.7,115.82.196.253,63746bf6-e869-4d4d-9b6a-ac47cf2190c0,1558520855,2019-05-22 18:27:35,1558521035,2019-05-22 18:30:35,1558521067,20190522102730_a11d56a1d5612d0ff5257fd5cf3e16641063288_v2,http://postback.berrymobapi.com/postback/?tid=20190522102730_a11d56a1d5612d0ff5257fd5cf3e16641063288_v2&src=823,idfa_63746bf6-e869-4d4d-9b6a-ac47cf2190c0,%E4%B8%AD%E6%96%87
22SYdjRMTPudVIHvsFnZJQ,berrymob,2151_22118705,Install,2.7,220.142.97.179,55195978-e726-4aed-9636-1a827b65afa7,1558521017,2019-05-22 18:30:17,1558521199,2019-05-22 18:33:19,1558521230,20190522103016_4786585ffcf1e2824f45926127ffc0df5513375_v2,http://postback.berrymobapi.com/postback/?tid=20190522103016_4786585ffcf1e2824f45926127ffc0df5513375_v2&src=823,idfa_55195978-e726-4aed-9636-1a827b65afa7,%E4%B8%AD%E6%96%87
