cid,partner_id,channel_id,action_id,cpi,ip,idfa,click time,click datetime,install time,install datetime,postback time,click id,postback url,unique user id
vS_PbgA3S5iR5gN3KjEALg,berrymob,2161_22490497,Install,1.6,116.126.58.111,b168a765-52e8-482d-b18b-056079b25c5b,1559157239,2019-05-30 03:13:59,1559157322,2019-05-30 03:15:22,1559157353,20190529191358_1d9bd2dbdce42f5267e86dfdb324c8668190547_v2,http://postback.berrymobapi.com/postback/?tid=20190529191358_1d9bd2dbdce42f5267e86dfdb324c8668190547_v2&src=823,idfa_b168a765-52e8-482d-b18b-056079b25c5b,%ED%95%9C%EA%B5%AD%EC%96%B4
vS_PbgA3S5iR5gN3KjEALg,berrymob,2161_22490497,Install,1.6,27.255.92.40,18aa2db4-0ed0-4848-814c-04108f065544,1559158277,2019-05-30 03:31:17,1559158337,2019-05-30 03:32:17,1559158368,20190529193114_7ddf2c553d2e33b377a7ad2d84f0330d4669811_v2,http://postback.berrymobapi.com/postback/?tid=20190529193114_7ddf2c553d2e33b377a7ad2d84f0330d4669811_v2&src=823,idfa_18aa2db4-0ed0-4848-814c-04108f065544,English
vS_PbgA3S5iR5gN3KjEALg,berrymob,2161_22490497,Install,1.6,125.178.232.104,4d831f37-0516-4de5-bb73-97989f9a9ce6,1559159934,2019-05-30 03:58:54,1559159956,2019-05-30 03:59:16,1559159987,20190529195845_27407dfcf261ef7eb6e92b42ad5ec9c68786771_v2,http://postback.berrymobapi.com/postback/?tid=20190529195845_27407dfcf261ef7eb6e92b42ad5ec9c68786771_v2&src=823,idfa_4d831f37-0516-4de5-bb73-97989f9a9ce6,English
vS_PbgA3S5iR5gN3KjEALg,berrymob,2161_22490497,Install,1.6,211.217.249.40,e461cc01-4929-43df-bdc9-1d709be3c372,1559159784,2019-05-30 03:56:24,1559159866,2019-05-30 03:57:46,1559159897,20190529195622_068d6c407cb1ba3cf51d8dc80cffff889743625_v2,http://postback.berrymobapi.com/postback/?tid=20190529195622_068d6c407cb1ba3cf51d8dc80cffff889743625_v2&src=823,idfa_e461cc01-4929-43df-bdc9-1d709be3c372,%ED%95%9C%EA%B5%AD%EC%96%B4
vS_PbgA3S5iR5gN3KjEALg,berrymob,2161_22490497,Install,1.6,116.37.33.117,e96edf82-a61e-40ca-bf39-17fb9eb0e699,1559159177,2019-05-30 03:46:17,1559159259,2019-05-30 03:47:39,1559159289,20190529194615_4b8ecdac34849408169014f4a87a0af73044962_v2,http://postback.berrymobapi.com/postback/?tid=20190529194615_4b8ecdac34849408169014f4a87a0af73044962_v2&src=823,idfa_e96edf82-a61e-40ca-bf39-17fb9eb0e699,%ED%95%9C%EA%B5%AD%EC%96%B4
vS_PbgA3S5iR5gN3KjEALg,berrymob,2161_22490497,Install,1.6,211.36.138.177,36897ffb-4079-46c3-baa2-de8d974384e2,1559159787,2019-05-30 03:56:27,1559159886,2019-05-30 03:58:06,1559159917,20190529195624_9baed6f10f0df3c60c4201b7489709ce5876354_v2,http://postback.berrymobapi.com/postback/?tid=20190529195624_9baed6f10f0df3c60c4201b7489709ce5876354_v2&src=823,idfa_36897ffb-4079-46c3-baa2-de8d974384e2,%ED%95%9C%EA%B5%AD%EC%96%B4
vS_PbgA3S5iR5gN3KjEALg,berrymob,2161_22490497,Install,1.6,117.111.5.32,01d23437-2057-4a16-b8d9-cccc46d0f4af,1559159905,2019-05-30 03:58:25,1559161264,2019-05-30 04:21:04,1559161294,20190529195822_59b1c12cb14cd30ed9baa8e737ba5fd95295360_v2,http://postback.berrymobapi.com/postback/?tid=20190529195822_59b1c12cb14cd30ed9baa8e737ba5fd95295360_v2&src=823,idfa_01d23437-2057-4a16-b8d9-cccc46d0f4af,%ED%95%9C%EA%B5%AD%EC%96%B4
vS_PbgA3S5iR5gN3KjEALg,berrymob,2161_22490497,Install,1.6,122.37.247.61,7f7defad-6af6-49e1-a32a-d277efd8b7f4,1559158817,2019-05-30 03:40:17,1559158934,2019-05-30 03:42:14,1559158964,20190529194016_5027baa6d4160fd6066cc134fc51413d5456456_v2,http://postback.berrymobapi.com/postback/?tid=20190529194016_5027baa6d4160fd6066cc134fc51413d5456456_v2&src=823,idfa_7f7defad-6af6-49e1-a32a-d277efd8b7f4,%ED%95%9C%EA%B5%AD%EC%96%B4
vS_PbgA3S5iR5gN3KjEALg,berrymob,2161_22490497,Install,1.6,118.222.89.51,5a78d4e6-18ef-4720-bd98-6d1c465692c6,1559158695,2019-05-30 03:38:15,1559158781,2019-05-30 03:39:41,1559158812,20190529193813_e10d0d6347d0ee89e696110b2e75181f4729295_v2,http://postback.berrymobapi.com/postback/?tid=20190529193813_e10d0d6347d0ee89e696110b2e75181f4729295_v2&src=823,idfa_5a78d4e6-18ef-4720-bd98-6d1c465692c6,%ED%95%9C%EA%B5%AD%EC%96%B4
vS_PbgA3S5iR5gN3KjEALg,berrymob,2161_22490497,Install,1.6,211.187.217.8,d9e4088c-744a-44bb-b33f-ca857632c1b9,1559081732,2019-05-29 06:15:32,1559081815,2019-05-29 06:16:55,1559081846,20190528221530_684a2ba9466309d6a92e470656bde2fe1703567_v2,http://postback.berrymobapi.com/postback/?tid=20190528221530_684a2ba9466309d6a92e470656bde2fe1703567_v2&src=823,idfa_d9e4088c-744a-44bb-b33f-ca857632c1b9,%ED%95%9C%EA%B5%AD%EC%96%B4
vS_PbgA3S5iR5gN3KjEALg,berrymob,2161_22490497,Install,1.6,182.220.116.99,5b210781-d20d-45a2-8428-7e685ccb92b1,1559158881,2019-05-30 03:41:21,1559158985,2019-05-30 03:43:05,1559159016,20190529194118_569d9badce6c397d128acf57d6b172202814974_v2,http://postback.berrymobapi.com/postback/?tid=20190529194118_569d9badce6c397d128acf57d6b172202814974_v2&src=823,idfa_5b210781-d20d-45a2-8428-7e685ccb92b1,%ED%95%9C%EA%B5%AD%EC%96%B4
vS_PbgA3S5iR5gN3KjEALg,berrymob,2161_22490497,Install,1.6,124.50.25.224,4f2d0911-f45b-4bd4-a7ba-9b447dfec89a,1559159906,2019-05-30 03:58:26,1559160264,2019-05-30 04:04:24,1559160295,20190529195824_6390be4924870f42b2f56e10bb97e5974785189_v2,http://postback.berrymobapi.com/postback/?tid=20190529195824_6390be4924870f42b2f56e10bb97e5974785189_v2&src=823,idfa_4f2d0911-f45b-4bd4-a7ba-9b447dfec89a,English
vS_PbgA3S5iR5gN3KjEALg,berrymob,2161_22490497,Install,1.6,119.67.215.19,e266d96e-4832-4809-8dc9-803c3cd4c598,1559159176,2019-05-30 03:46:16,1559159378,2019-05-30 03:49:38,1559159409,20190529194614_8470d9f2124d904d73a58c409aee2dad7509054_v2,http://postback.berrymobapi.com/postback/?tid=20190529194614_8470d9f2124d904d73a58c409aee2dad7509054_v2&src=823,idfa_e266d96e-4832-4809-8dc9-803c3cd4c598,%ED%95%9C%EA%B5%AD%EC%96%B4
vS_PbgA3S5iR5gN3KjEALg,berrymob,2161_22490497,Install,1.6,117.111.22.161,b52e2404-5149-46ae-b170-9cd7f1210f04,1559158633,2019-05-30 03:37:13,1559158755,2019-05-30 03:39:15,1559158786,20190529193711_7855be8a46fb31c91e56c641bf3e2c197005172_v2,http://postback.berrymobapi.com/postback/?tid=20190529193711_7855be8a46fb31c91e56c641bf3e2c197005172_v2&src=823,idfa_b52e2404-5149-46ae-b170-9cd7f1210f04,%ED%95%9C%EA%B5%AD%EC%96%B4
vS_PbgA3S5iR5gN3KjEALg,berrymob,2161_22490497,Install,1.6,175.122.28.198,800150e0-9d95-4745-9f5d-487cd11903f4,1559159483,2019-05-30 03:51:23,1559159573,2019-05-30 03:52:53,1559159604,20190529195120_f49efe26e95815ca3739074342f2473d5067733_v2,http://postback.berrymobapi.com/postback/?tid=20190529195120_f49efe26e95815ca3739074342f2473d5067733_v2&src=823,idfa_800150e0-9d95-4745-9f5d-487cd11903f4,%ED%95%9C%EA%B5%AD%EC%96%B4
vS_PbgA3S5iR5gN3KjEALg,berrymob,2161_22490497,Install,1.6,125.182.240.200,d4ee7352-c423-4655-a50c-e8a5a2bd7453,1559158574,2019-05-30 03:36:14,1559158656,2019-05-30 03:37:36,1559158687,20190529193612_344c42da1153bb0c7ab2150a8de72ec41391305_v2,http://postback.berrymobapi.com/postback/?tid=20190529193612_344c42da1153bb0c7ab2150a8de72ec41391305_v2&src=823,idfa_d4ee7352-c423-4655-a50c-e8a5a2bd7453,%ED%95%9C%EA%B5%AD%EC%96%B4
vS_PbgA3S5iR5gN3KjEALg,berrymob,2161_22490497,Install,1.6,115.40.18.23,52fa6dba-bcf2-446d-8781-e4852270d532,1559159239,2019-05-30 03:47:19,1559159352,2019-05-30 03:49:12,1559159383,20190529194717_358afdfb2d222488c506cc9fa6a914f22841408_v2,http://postback.berrymobapi.com/postback/?tid=20190529194717_358afdfb2d222488c506cc9fa6a914f22841408_v2&src=823,idfa_52fa6dba-bcf2-446d-8781-e4852270d532,%ED%95%9C%EA%B5%AD%EC%96%B4
vS_PbgA3S5iR5gN3KjEALg,berrymob,2161_22490497,Install,1.6,125.138.111.225,52d6084d-916c-4199-afaa-96a4b7b1d2b3,1559158574,2019-05-30 03:36:14,1559158724,2019-05-30 03:38:44,1559158755,20190529193612_9791d46acae54aa88dd8b6fa6968b3f59257245_v2,http://postback.berrymobapi.com/postback/?tid=20190529193612_9791d46acae54aa88dd8b6fa6968b3f59257245_v2&src=823,idfa_52d6084d-916c-4199-afaa-96a4b7b1d2b3,%ED%95%9C%EA%B5%AD%EC%96%B4
vS_PbgA3S5iR5gN3KjEALg,berrymob,2161_22490497,Install,1.6,211.246.69.52,40636ceb-a80b-4607-9064-66cffbc0dfeb,1559159423,2019-05-30 03:50:23,1559159575,2019-05-30 03:52:55,1559159606,20190529195021_2b4395b22186dd9398ac348c00ac1efe4055332_v2,http://postback.berrymobapi.com/postback/?tid=20190529195021_2b4395b22186dd9398ac348c00ac1efe4055332_v2&src=823,idfa_40636ceb-a80b-4607-9064-66cffbc0dfeb,%ED%95%9C%EA%B5%AD%EC%96%B4
vS_PbgA3S5iR5gN3KjEALg,berrymob,2161_22490497,Install,1.6,124.199.180.14,1dd0e81a-8dc7-4b58-bd23-f61767be55cf,1559159299,2019-05-30 03:48:19,1559159789,2019-05-30 03:56:29,1559159820,20190529194818_ba573faffccf256ba162dafb94dd63ec4008683_v2,http://postback.berrymobapi.com/postback/?tid=20190529194818_ba573faffccf256ba162dafb94dd63ec4008683_v2&src=823,idfa_1dd0e81a-8dc7-4b58-bd23-f61767be55cf,%ED%95%9C%EA%B5%AD%EC%96%B4
vS_PbgA3S5iR5gN3KjEALg,berrymob,2161_22490497,Install,1.6,180.68.39.107,1f117943-3d8c-4dea-ada3-1c133d944217,1559159175,2019-05-30 03:46:15,1559159262,2019-05-30 03:47:42,1559159293,20190529194613_e7fbf416a5b713a062e494cba242879d8193019_v2,http://postback.berrymobapi.com/postback/?tid=20190529194613_e7fbf416a5b713a062e494cba242879d8193019_v2&src=823,idfa_1f117943-3d8c-4dea-ada3-1c133d944217,%ED%95%9C%EA%B5%AD%EC%96%B4
vS_PbgA3S5iR5gN3KjEALg,berrymob,2161_22490497,Install,1.6,223.38.18.196,f8163b5e-d423-4db5-bbfb-2aab4aabfb33,1559157779,2019-05-30 03:22:59,1559162038,2019-05-30 04:33:58,1559162069,20190529192257_75799fbe89350d2ee70d854c196c5c543700384_v2,http://postback.berrymobapi.com/postback/?tid=20190529192257_75799fbe89350d2ee70d854c196c5c543700384_v2&src=823,idfa_f8163b5e-d423-4db5-bbfb-2aab4aabfb33,%ED%95%9C%EA%B5%AD%EC%96%B4
vS_PbgA3S5iR5gN3KjEALg,berrymob,2161_22490497,Install,1.6,39.7.50.249,d347e8c1-0fee-434a-ad2e-b1e7e86beedb,1559159115,2019-05-30 03:45:15,1559159399,2019-05-30 03:49:59,1559159430,20190529194513_f5f94f66b0a3a1199286358e2fa76c7a8560983_v2,http://postback.berrymobapi.com/postback/?tid=20190529194513_f5f94f66b0a3a1199286358e2fa76c7a8560983_v2&src=823,idfa_d347e8c1-0fee-434a-ad2e-b1e7e86beedb,%ED%95%9C%EA%B5%AD%EC%96%B4
vS_PbgA3S5iR5gN3KjEALg,berrymob,2161_22490497,Install,1.6,220.77.179.122,2f0e3b4d-f3b5-4e83-a4f1-99eceabf6ea5,1559081797,2019-05-29 06:16:37,1559081921,2019-05-29 06:18:41,1559081952,20190528221635_5d7023e6df8180a3503fed6dfbc0a8476263919_v2,http://postback.berrymobapi.com/postback/?tid=20190528221635_5d7023e6df8180a3503fed6dfbc0a8476263919_v2&src=823,idfa_2f0e3b4d-f3b5-4e83-a4f1-99eceabf6ea5,%ED%95%9C%EA%B5%AD%EC%96%B4
vS_PbgA3S5iR5gN3KjEALg,berrymob,2161_22490497,Install,1.6,58.237.114.14,0509664d-0881-44fa-a12a-091385c0f12c,1559158878,2019-05-30 03:41:18,1559158961,2019-05-30 03:42:41,1559158993,20190529194117_c97419f64e5eef4737347fd59bdb05e21834383_v2,http://postback.berrymobapi.com/postback/?tid=20190529194117_c97419f64e5eef4737347fd59bdb05e21834383_v2&src=823,idfa_0509664d-0881-44fa-a12a-091385c0f12c,%ED%95%9C%EA%B5%AD%EC%96%B4
vS_PbgA3S5iR5gN3KjEALg,berrymob,2161_22490497,Install,1.6,183.91.204.117,604431c8-8919-4351-b7a6-abe952f86af5,1559158254,2019-05-30 03:30:54,1559158743,2019-05-30 03:39:03,1559158773,20190529193052_422e16cabc6c473bc8ba1180d6c3cd235935602_v2,http://postback.berrymobapi.com/postback/?tid=20190529193052_422e16cabc6c473bc8ba1180d6c3cd235935602_v2&src=823,idfa_604431c8-8919-4351-b7a6-abe952f86af5,%ED%95%9C%EA%B5%AD%EC%96%B4
vS_PbgA3S5iR5gN3KjEALg,berrymob,2161_22490497,Install,1.6,110.70.26.105,5539b788-fc40-4c52-80e9-6e897cf1162f,1559159609,2019-05-30 03:53:29,1559159691,2019-05-30 03:54:51,1559159722,20190529195327_54a9cf7918e6da932782a5a02c3e27c78768513_v2,http://postback.berrymobapi.com/postback/?tid=20190529195327_54a9cf7918e6da932782a5a02c3e27c78768513_v2&src=823,idfa_5539b788-fc40-4c52-80e9-6e897cf1162f,%ED%95%9C%EA%B5%AD%EC%96%B4
vS_PbgA3S5iR5gN3KjEALg,berrymob,2161_22490497,Install,1.6,220.121.120.225,fde682f9-1ad4-4796-9500-5ae9870ea45b,1559158881,2019-05-30 03:41:21,1559158968,2019-05-30 03:42:48,1559158999,20190529194118_fab00b3998f96e3387116f401c33de091620382_v2,http://postback.berrymobapi.com/postback/?tid=20190529194118_fab00b3998f96e3387116f401c33de091620382_v2&src=823,idfa_fde682f9-1ad4-4796-9500-5ae9870ea45b,%ED%95%9C%EA%B5%AD%EC%96%B4
vS_PbgA3S5iR5gN3KjEALg,berrymob,2161_22490497,Install,1.6,175.123.190.143,97507156-d442-45bf-af61-561dbe1633ee,1559159609,2019-05-30 03:53:29,1559159686,2019-05-30 03:54:46,1559159718,20190529195327_de5eddde8b4c301d16592a865051ea3d9183407_v2,http://postback.berrymobapi.com/postback/?tid=20190529195327_de5eddde8b4c301d16592a865051ea3d9183407_v2&src=823,idfa_97507156-d442-45bf-af61-561dbe1633ee,%ED%95%9C%EA%B5%AD%EC%96%B4
vS_PbgA3S5iR5gN3KjEALg,berrymob,2161_22490497,Install,1.6,222.114.105.248,101b9fa6-e653-40d9-8448-b81502d2ed7d,1559159666,2019-05-30 03:54:26,1559159745,2019-05-30 03:55:45,1559159776,20190529195425_3c02b5f16f9dd528fcd4bfeafe85ea398615155_v2,http://postback.berrymobapi.com/postback/?tid=20190529195425_3c02b5f16f9dd528fcd4bfeafe85ea398615155_v2&src=823,idfa_101b9fa6-e653-40d9-8448-b81502d2ed7d,%ED%95%9C%EA%B5%AD%EC%96%B4
vS_PbgA3S5iR5gN3KjEALg,berrymob,2161_22490497,Install,1.6,114.202.30.219,79cb968c-4c0f-4b44-a50e-fdbf3adc418a,1559159746,2019-05-30 03:55:46,1559159769,2019-05-30 03:56:09,1559159800,20190529195537_6492ebcce4134e2b34e39c79d81a7daf2976257_v2,http://postback.berrymobapi.com/postback/?tid=20190529195537_6492ebcce4134e2b34e39c79d81a7daf2976257_v2&src=823,idfa_79cb968c-4c0f-4b44-a50e-fdbf3adc418a,English
vS_PbgA3S5iR5gN3KjEALg,berrymob,2161_22490497,Install,1.6,219.240.210.230,8825d278-bf61-43df-9297-2f425f56b7a8,1559158902,2019-05-30 03:41:42,1559158925,2019-05-30 03:42:05,1559158957,20190529194120_a4b5d30a95b9b4b9f017e1d8bde254dd8765560_v2,http://postback.berrymobapi.com/postback/?tid=20190529194120_a4b5d30a95b9b4b9f017e1d8bde254dd8765560_v2&src=823,idfa_8825d278-bf61-43df-9297-2f425f56b7a8,English
vS_PbgA3S5iR5gN3KjEALg,berrymob,2161_22490497,Install,1.6,211.177.36.118,3adc4a02-093e-46e8-800f-1315ad6b1f0f,1559159692,2019-05-30 03:54:52,1559159763,2019-05-30 03:56:03,1559159794,20190529195442_b741cb4f428a50c24a7350943935fb147570464_v2,http://postback.berrymobapi.com/postback/?tid=20190529195442_b741cb4f428a50c24a7350943935fb147570464_v2&src=823,idfa_3adc4a02-093e-46e8-800f-1315ad6b1f0f,%D8%A7%D9%84%D8%B9%D8%B1%D8%A8%D9%8A%D8%A9
