cid,partner_id,channel_id,action_id,cpi,ip,idfa,click time,click datetime,install time,install datetime,postback time,click id,postback url,unique user id
qVM7SDKrRX2-Q3-UIIZKpA,berrymob,2126_2126180304,Install,1.5,118.6.251.14,06ab7887-e317-4013-9d05-8afcd91a0461,1557371509,2019-05-09 11:11:49,1557371533,2019-05-09 11:12:13,1557371564,20190509031140_55a70b1b467a95a4b1256d4a54c7156e2883941_v2,http://postback.berrymobapi.com/postback/?tid=20190509031140_55a70b1b467a95a4b1256d4a54c7156e2883941_v2&src=823,idfa_06ab7887-e317-4013-9d05-8afcd91a0461,English
qVM7SDKrRX2-Q3-UIIZKpA,berrymob,2126_2126180304,Install,1.5,126.177.152.135,2320a6e2-76a7-4073-b122-f6bd1b23e789,1557539642,2019-05-11 09:54:02,1557539671,2019-05-11 09:54:31,1557539721,20190511015342_3358b993fbfafcfb0535ab7fb75a8eed2138653_v2,http://postback.berrymobapi.com/postback/?tid=20190511015342_3358b993fbfafcfb0535ab7fb75a8eed2138653_v2&src=823,idfa_2320a6e2-76a7-4073-b122-f6bd1b23e789,English
qVM7SDKrRX2-Q3-UIIZKpA,berrymob,2126_2126180304,Install,1.5,61.23.112.119,aa9cff11-ec0b-4285-8d75-ae16096a2938,1557458262,2019-05-10 11:17:42,1557458281,2019-05-10 11:18:01,1557458312,20190510031734_3cd511c332f24e07ddca794324ba83395148130_v2,http://postback.berrymobapi.com/postback/?tid=20190510031734_3cd511c332f24e07ddca794324ba83395148130_v2&src=823,idfa_aa9cff11-ec0b-4285-8d75-ae16096a2938,English
qVM7SDKrRX2-Q3-UIIZKpA,berrymob,2126_2126180304,Install,1.5,153.188.204.138,c2fbf3a7-453a-49fa-af75-e4f2639a4759,1557372044,2019-05-09 11:20:44,1557372062,2019-05-09 11:21:02,1557372199,20190509032035_223c790a9b213e0acc8b03d9eaafba2d9328308_v2,http://postback.berrymobapi.com/postback/?tid=20190509032035_223c790a9b213e0acc8b03d9eaafba2d9328308_v2&src=823,idfa_c2fbf3a7-453a-49fa-af75-e4f2639a4759,English
qVM7SDKrRX2-Q3-UIIZKpA,berrymob,2126_2126180304,Install,1.5,219.23.88.23,689a66a3-0384-49e4-9ceb-66253902c498,1557624246,2019-05-12 09:24:06,1557624274,2019-05-12 09:24:34,1557624307,20190512012359_7f8b50547eefbfcd77a709a6856e70bf2384186_v2,http://postback.berrymobapi.com/postback/?tid=20190512012359_7f8b50547eefbfcd77a709a6856e70bf2384186_v2&src=823,idfa_689a66a3-0384-49e4-9ceb-66253902c498,English
qVM7SDKrRX2-Q3-UIIZKpA,berrymob,2126_2126180304,Install,1.5,124.40.81.149,b3ae78d6-eac6-4b84-9c13-527610565150,1557540956,2019-05-11 10:15:56,1557540994,2019-05-11 10:16:34,1557541042,20190511021550_75d9eb980dd72c4cd9e4bf55510b4fb26541118_v2,http://postback.berrymobapi.com/postback/?tid=20190511021550_75d9eb980dd72c4cd9e4bf55510b4fb26541118_v2&src=823,idfa_b3ae78d6-eac6-4b84-9c13-527610565150,English
qVM7SDKrRX2-Q3-UIIZKpA,berrymob,2126_2126180304,Install,1.5,123.222.144.218,3e86160b-250f-4072-888d-b98b81d84960,1557370556,2019-05-09 10:55:56,1557370585,2019-05-09 10:56:25,1557370934,20190509025544_935488c143d856e8d0c8e1045d5c32998132381_v2,http://postback.berrymobapi.com/postback/?tid=20190509025544_935488c143d856e8d0c8e1045d5c32998132381_v2&src=823,idfa_3e86160b-250f-4072-888d-b98b81d84960,English
qVM7SDKrRX2-Q3-UIIZKpA,berrymob,2126_2126180304,Install,1.5,106.172.196.241,31c6b01c-87e9-4d8e-b733-9f4781b0d156,1557454714,2019-05-10 10:18:34,1557454740,2019-05-10 10:19:00,1557454779,20190510021827_aad75f6aef9cc415ce23209e01bc34d61416086_v2,http://postback.berrymobapi.com/postback/?tid=20190510021827_aad75f6aef9cc415ce23209e01bc34d61416086_v2&src=823,idfa_31c6b01c-87e9-4d8e-b733-9f4781b0d156,English
qVM7SDKrRX2-Q3-UIIZKpA,berrymob,2126_2126180304,Install,1.5,122.218.113.151,f5f64331-64aa-4450-adb7-abd07ca1367a,1557458170,2019-05-10 11:16:10,1557458194,2019-05-10 11:16:34,1557458225,20190510031557_5dd1c38063340f88b7360ee1cbd995ad3935759_v2,http://postback.berrymobapi.com/postback/?tid=20190510031557_5dd1c38063340f88b7360ee1cbd995ad3935759_v2&src=823,idfa_f5f64331-64aa-4450-adb7-abd07ca1367a,English
qVM7SDKrRX2-Q3-UIIZKpA,berrymob,2126_2126180304,Install,1.5,14.13.215.96,b196eb1b-064a-441e-84f5-3f38751d3917,1557459513,2019-05-10 11:38:33,1557459550,2019-05-10 11:39:10,1557459584,20190510033826_a17bb82eba0d3bdbcdd5d1c032ea7d444212425_v2,http://postback.berrymobapi.com/postback/?tid=20190510033826_a17bb82eba0d3bdbcdd5d1c032ea7d444212425_v2&src=823,idfa_b196eb1b-064a-441e-84f5-3f38751d3917,English
qVM7SDKrRX2-Q3-UIIZKpA,berrymob,2126_2126180304,Install,1.5,58.88.15.204,ff1194b1-376d-42aa-b5cd-734869e1ff35,1557624663,2019-05-12 09:31:03,1557624682,2019-05-12 09:31:22,1557624713,20190512013056_eb4709b7201256683ebfd59f9a122cbe6779277_v2,http://postback.berrymobapi.com/postback/?tid=20190512013056_eb4709b7201256683ebfd59f9a122cbe6779277_v2&src=823,idfa_ff1194b1-376d-42aa-b5cd-734869e1ff35,English
qVM7SDKrRX2-Q3-UIIZKpA,berrymob,2126_2126180304,Install,1.5,60.121.153.122,cf421a68-da28-489d-97ad-fea069e52c3f,1557372025,2019-05-09 11:20:25,1557372054,2019-05-09 11:20:54,1557372167,20190509032003_340dd5318964558a4f20d39947fe59081804601_v2,http://postback.berrymobapi.com/postback/?tid=20190509032003_340dd5318964558a4f20d39947fe59081804601_v2&src=823,idfa_cf421a68-da28-489d-97ad-fea069e52c3f,English
qVM7SDKrRX2-Q3-UIIZKpA,berrymob,2126_2126180304,Install,1.5,133.236.59.231,76746711-1504-43f3-8331-c5ba94ac1fd2,1557624520,2019-05-12 09:28:40,1557624541,2019-05-12 09:29:01,1557624573,20190512012830_fa2c2a77a70c280ee509cf8db55b18549593522_v2,http://postback.berrymobapi.com/postback/?tid=20190512012830_fa2c2a77a70c280ee509cf8db55b18549593522_v2&src=823,idfa_76746711-1504-43f3-8331-c5ba94ac1fd2,English
qVM7SDKrRX2-Q3-UIIZKpA,berrymob,2126_2126180304,Install,1.5,58.94.20.115,b965630f-0574-4dba-ab1c-932ed51caf8c,1557538453,2019-05-11 09:34:13,1557538478,2019-05-11 09:34:38,1557538581,20190511013406_c3f1d730c6e7e11014f36875f6016f107339437_v2,http://postback.berrymobapi.com/postback/?tid=20190511013406_c3f1d730c6e7e11014f36875f6016f107339437_v2&src=823,idfa_b965630f-0574-4dba-ab1c-932ed51caf8c,English
qVM7SDKrRX2-Q3-UIIZKpA,berrymob,2126_2126180304,Install,1.5,126.74.64.54,91613158-6cf3-413c-b2d0-e93e8d706e68,1557712472,2019-05-13 09:54:32,1557712516,2019-05-13 09:55:16,1557712547,20190513015403_dd5af2adcd6ee40f2d9be0d2b3de609c9719707_v2,http://postback.berrymobapi.com/postback/?tid=20190513015403_dd5af2adcd6ee40f2d9be0d2b3de609c9719707_v2&src=823,idfa_91613158-6cf3-413c-b2d0-e93e8d706e68,English
qVM7SDKrRX2-Q3-UIIZKpA,berrymob,2126_2126180304,Install,1.5,164.70.139.21,a6dcc553-ae82-4f5d-ab00-2140556b5dee,1557540207,2019-05-11 10:03:27,1557540235,2019-05-11 10:03:55,1557540345,20190511020321_cf4e425d3b8e5e6dc23b74b1fec58c099872773_v2,http://postback.berrymobapi.com/postback/?tid=20190511020321_cf4e425d3b8e5e6dc23b74b1fec58c099872773_v2&src=823,idfa_a6dcc553-ae82-4f5d-ab00-2140556b5dee,English
qVM7SDKrRX2-Q3-UIIZKpA,berrymob,2126_2126180304,Install,1.5,220.147.211.68,15b15da1-a7d8-4fb1-854d-c0519946c805,1557624597,2019-05-12 09:29:57,1557624624,2019-05-12 09:30:24,1557624660,20190512012951_5cbbd5ff9799f2e07bc20ea54f0d69bd8735877_v2,http://postback.berrymobapi.com/postback/?tid=20190512012951_5cbbd5ff9799f2e07bc20ea54f0d69bd8735877_v2&src=823,idfa_15b15da1-a7d8-4fb1-854d-c0519946c805,English
qVM7SDKrRX2-Q3-UIIZKpA,berrymob,2126_2126180304,Install,1.5,113.33.163.137,1548c1c4-c32e-47af-93df-a0a4cafafe08,1557540318,2019-05-11 10:05:18,1557540347,2019-05-11 10:05:47,1557540513,20190511020509_79272068baec808908a7eca967a66d604944157_v2,http://postback.berrymobapi.com/postback/?tid=20190511020509_79272068baec808908a7eca967a66d604944157_v2&src=823,idfa_1548c1c4-c32e-47af-93df-a0a4cafafe08,English
qVM7SDKrRX2-Q3-UIIZKpA,berrymob,2126_2126180304,Install,1.5,111.125.150.217,634515c3-e19f-4490-9ff4-22dc7190ad54,1557460011,2019-05-10 11:46:51,1557460032,2019-05-10 11:47:12,1557460063,20190510034643_966ad351dc0347bfeffd01fe79fce95c4003477_v2,http://postback.berrymobapi.com/postback/?tid=20190510034643_966ad351dc0347bfeffd01fe79fce95c4003477_v2&src=823,idfa_634515c3-e19f-4490-9ff4-22dc7190ad54,English
qVM7SDKrRX2-Q3-UIIZKpA,berrymob,2126_2126180304,Install,1.5,133.200.135.192,a57edf8a-eb85-4502-bc8f-76c7d63bc25c,1557539044,2019-05-11 09:44:04,1557539075,2019-05-11 09:44:35,1557539156,20190511014358_e81fca6f17e94292f32da2e71ff6bb821977580_v2,http://postback.berrymobapi.com/postback/?tid=20190511014358_e81fca6f17e94292f32da2e71ff6bb821977580_v2&src=823,idfa_a57edf8a-eb85-4502-bc8f-76c7d63bc25c,English
qVM7SDKrRX2-Q3-UIIZKpA,berrymob,2126_2126180304,Install,1.5,180.145.67.9,013eb66c-3e23-494b-9ab0-0fdf0d96fe51,1557371922,2019-05-09 11:18:42,1557371942,2019-05-09 11:19:02,1557371982,20190509031829_0a5f8d70931b9d3861917359dbf3ed8d4939632_v2,http://postback.berrymobapi.com/postback/?tid=20190509031829_0a5f8d70931b9d3861917359dbf3ed8d4939632_v2&src=823,idfa_013eb66c-3e23-494b-9ab0-0fdf0d96fe51,English
qVM7SDKrRX2-Q3-UIIZKpA,berrymob,2126_2126180304,Install,1.5,59.136.121.97,5929ec2e-ec2b-4093-ae0e-b901834f5661,1557460917,2019-05-10 12:01:57,1557460947,2019-05-10 12:02:27,1557460978,20190510040149_623d0e1ac1e0a07e23f356c47e4240348117240_v2,http://postback.berrymobapi.com/postback/?tid=20190510040149_623d0e1ac1e0a07e23f356c47e4240348117240_v2&src=823,idfa_5929ec2e-ec2b-4093-ae0e-b901834f5661,English
