cid,partner_id,channel_id,action_id,cpi,ip,idfa,click time,click datetime,install time,install datetime,postback time,click id,postback url,unique user id
sBaFG7-dQiWROD5xsSZS5A,berrymob,2122_22325508,install,2.5,112.120.189.87,7099ac89-e375-44cb-ac44-363aaaedf536,1558025413,2019-05-17 00:50:13,1558025596,2019-05-17 00:53:16,1558025628,20190516165009_7dff89df0add0ff63cab265a5a60010f4674257_v2,http://postback.berrymobapi.com/postback/?tid=20190516165009_7dff89df0add0ff63cab265a5a60010f4674257_v2&src=823,idfa_7099ac89-e375-44cb-ac44-363aaaedf536,zh
sBaFG7-dQiWROD5xsSZS5A,berrymob,2122_22325508,install,2.5,27.242.136.114,833a8496-4052-459c-b235-8f179b9cdad4,1557951346,2019-05-16 04:15:46,1557951529,2019-05-16 04:18:49,1557951560,20190515201544_a814b085808f273b5ef250d5d76445644122024_v2,http://postback.berrymobapi.com/postback/?tid=20190515201544_a814b085808f273b5ef250d5d76445644122024_v2&src=823,idfa_833a8496-4052-459c-b235-8f179b9cdad4,zh
sBaFG7-dQiWROD5xsSZS5A,berrymob,2122_22325508,install,2.5,221.124.73.109,ca8eca99-a5f5-4f6d-a4b0-8b98e2c6bdf7,1558025721,2019-05-17 00:55:21,1558025900,2019-05-17 00:58:20,1558025931,20190516165519_fa30dd26aae634b94fc729fbc4984ef55982495_v2,http://postback.berrymobapi.com/postback/?tid=20190516165519_fa30dd26aae634b94fc729fbc4984ef55982495_v2&src=823,idfa_ca8eca99-a5f5-4f6d-a4b0-8b98e2c6bdf7,en
sBaFG7-dQiWROD5xsSZS5A,berrymob,2122_22325508,install,2.5,27.246.69.31,505fe38b-cc85-4e72-8975-ee9b3f04c159,1557951209,2019-05-16 04:13:29,1557951405,2019-05-16 04:16:45,1557951436,20190515201328_d4b7a042624318131cd05973218c33713637232_v2,http://postback.berrymobapi.com/postback/?tid=20190515201328_d4b7a042624318131cd05973218c33713637232_v2&src=823,idfa_505fe38b-cc85-4e72-8975-ee9b3f04c159,zh
sBaFG7-dQiWROD5xsSZS5A,berrymob,2122_22325508,install,2.5,182.239.90.250,c0e049a7-9986-4c9a-9abb-0d54b192a77d,1558024991,2019-05-17 00:43:11,1558025776,2019-05-17 00:56:16,1558025807,20190516164305_83b000ac1680532d99a28102bcd077885765607_v2,http://postback.berrymobapi.com/postback/?tid=20190516164305_83b000ac1680532d99a28102bcd077885765607_v2&src=823,idfa_c0e049a7-9986-4c9a-9abb-0d54b192a77d,zh
sBaFG7-dQiWROD5xsSZS5A,berrymob,2122_22325508,install,2.5,223.139.122.172,4025d955-3bf0-416b-9707-51efcc78e485,1558024381,2019-05-17 00:33:01,1558024802,2019-05-17 00:40:02,1558024842,20190516163259_3b919855adf52d73163eb0f623950dfb5121081_v2,http://postback.berrymobapi.com/postback/?tid=20190516163259_3b919855adf52d73163eb0f623950dfb5121081_v2&src=823,idfa_4025d955-3bf0-416b-9707-51efcc78e485,zh
sBaFG7-dQiWROD5xsSZS5A,berrymob,2122_22325508,install,2.5,182.239.122.12,d93c72fc-bb51-4fbc-bcf9-06171e3fb2e4,1558025649,2019-05-17 00:54:09,1558025828,2019-05-17 00:57:08,1558025859,20190516165406_ef8aafab7118db2d0d37f6c17676b7708812775_v2,http://postback.berrymobapi.com/postback/?tid=20190516165406_ef8aafab7118db2d0d37f6c17676b7708812775_v2&src=823,idfa_d93c72fc-bb51-4fbc-bcf9-06171e3fb2e4,zh
sBaFG7-dQiWROD5xsSZS5A,berrymob,2122_22325508,install,2.5,112.119.49.164,27630e0c-c2c5-48d1-8e15-25767f55fd67,1558025411,2019-05-17 00:50:11,1558025609,2019-05-17 00:53:29,1558025639,20190516165007_46179afc9ed20aa4898e7a5e2b71df959155592_v2,http://postback.berrymobapi.com/postback/?tid=20190516165007_46179afc9ed20aa4898e7a5e2b71df959155592_v2&src=823,idfa_27630e0c-c2c5-48d1-8e15-25767f55fd67,zh
sBaFG7-dQiWROD5xsSZS5A,berrymob,2122_22325508,install,2.5,219.77.227.47,9f4ab2b6-1452-4f9a-8130-4383063344e7,1558025705,2019-05-17 00:55:05,1558025887,2019-05-17 00:58:07,1558025918,20190516165504_cdf8ce1137aaf470c150deb2df93d9807767746_v2,http://postback.berrymobapi.com/postback/?tid=20190516165504_cdf8ce1137aaf470c150deb2df93d9807767746_v2&src=823,idfa_9f4ab2b6-1452-4f9a-8130-4383063344e7,en
sBaFG7-dQiWROD5xsSZS5A,berrymob,2122_22325508,install,2.5,14.0.175.124,e2d097de-8967-4a9a-aebd-ec3928a4b1db,1558025652,2019-05-17 00:54:12,1558025832,2019-05-17 00:57:12,1558025863,20190516165410_34615b168779bfc67e1efe677e4de7486047348_v2,http://postback.berrymobapi.com/postback/?tid=20190516165410_34615b168779bfc67e1efe677e4de7486047348_v2&src=823,idfa_e2d097de-8967-4a9a-aebd-ec3928a4b1db,zh
sBaFG7-dQiWROD5xsSZS5A,berrymob,2122_22325508,install,2.5,49.130.128.136,3862986e-d6a9-45ae-be15-3d204b48c154,1558025598,2019-05-17 00:53:18,1558025782,2019-05-17 00:56:22,1558025813,20190516165316_e77f4d30528725e79d1866292496a4786195101_v2,http://postback.berrymobapi.com/postback/?tid=20190516165316_e77f4d30528725e79d1866292496a4786195101_v2&src=823,idfa_3862986e-d6a9-45ae-be15-3d204b48c154,en
sBaFG7-dQiWROD5xsSZS5A,berrymob,2122_22325508,install,2.5,210.177.138.113,7ae5bd0c-5706-40de-a4b0-bfc23238b488,1558025499,2019-05-17 00:51:39,1558025683,2019-05-17 00:54:43,1558025713,20190516165138_e3dd564d6e07405fd49f3220595cd4c92571938_v2,http://postback.berrymobapi.com/postback/?tid=20190516165138_e3dd564d6e07405fd49f3220595cd4c92571938_v2&src=823,idfa_7ae5bd0c-5706-40de-a4b0-bfc23238b488,en
sBaFG7-dQiWROD5xsSZS5A,berrymob,2122_22325508,install,2.5,114.24.25.90,3f665480-1d4b-4dfa-8d9d-d163e3019d96,1557948439,2019-05-16 03:27:19,1557948624,2019-05-16 03:30:24,1557948656,20190515192718_9345e27a4460823a0660fa595c114c6d2159232_v2,http://postback.berrymobapi.com/postback/?tid=20190515192718_9345e27a4460823a0660fa595c114c6d2159232_v2&src=823,idfa_3f665480-1d4b-4dfa-8d9d-d163e3019d96,zh
sBaFG7-dQiWROD5xsSZS5A,berrymob,2122_22325508,install,2.5,49.217.129.56,8078873e-e3d7-4936-8e32-a304de16d162,1557949288,2019-05-16 03:41:28,1557949846,2019-05-16 03:50:46,1557949879,20190515194126_3214adc78fe70e03c8745e45d1572a399016816_v2,http://postback.berrymobapi.com/postback/?tid=20190515194126_3214adc78fe70e03c8745e45d1572a399016816_v2&src=823,idfa_8078873e-e3d7-4936-8e32-a304de16d162,zh
sBaFG7-dQiWROD5xsSZS5A,berrymob,2122_22325508,install,2.5,119.247.69.119,22616fb8-2995-41b2-b851-6d90497b5bd3,1558025471,2019-05-17 00:51:11,1558025697,2019-05-17 00:54:57,1558025728,20190516165110_cd6e3969c3a2d6bf075de395d58756485951006_v2,http://postback.berrymobapi.com/postback/?tid=20190516165110_cd6e3969c3a2d6bf075de395d58756485951006_v2&src=823,idfa_22616fb8-2995-41b2-b851-6d90497b5bd3,zh
sBaFG7-dQiWROD5xsSZS5A,berrymob,2122_22325508,install,2.5,182.239.85.36,b9855b05-36ee-4afa-8e02-ad13713e1a97,1558024558,2019-05-17 00:35:58,1558024772,2019-05-17 00:39:32,1558024804,20190516163556_fcd70f4ddf4eac3196251a0d0db9da624156890_v2,http://postback.berrymobapi.com/postback/?tid=20190516163556_fcd70f4ddf4eac3196251a0d0db9da624156890_v2&src=823,idfa_b9855b05-36ee-4afa-8e02-ad13713e1a97,zh
sBaFG7-dQiWROD5xsSZS5A,berrymob,2122_22325508,install,2.5,218.102.191.120,5fcf5fe3-bbc7-442a-b8fc-dcf313f40433,1558025572,2019-05-17 00:52:52,1558025754,2019-05-17 00:55:54,1558025786,20190516165249_91f366dc78e8a3b9416cec5ba2f6c5748535925_v2,http://postback.berrymobapi.com/postback/?tid=20190516165249_91f366dc78e8a3b9416cec5ba2f6c5748535925_v2&src=823,idfa_5fcf5fe3-bbc7-442a-b8fc-dcf313f40433,zh
sBaFG7-dQiWROD5xsSZS5A,berrymob,2122_22325508,install,2.5,14.0.228.196,18357b96-ceb1-4398-92d8-07cfd592ec8d,1558025794,2019-05-17 00:56:34,1558025974,2019-05-17 00:59:34,1558026005,20190516165633_d87d642d5668b09a759f12c8ef868b9c2568365_v2,http://postback.berrymobapi.com/postback/?tid=20190516165633_d87d642d5668b09a759f12c8ef868b9c2568365_v2&src=823,idfa_18357b96-ceb1-4398-92d8-07cfd592ec8d,zh
sBaFG7-dQiWROD5xsSZS5A,berrymob,2122_22325508,install,2.5,45.64.242.140,ac9489e4-59e4-4bdb-9fdc-b7f434c25587,1558025826,2019-05-17 00:57:06,1558026012,2019-05-17 01:00:12,1558026043,20190516165705_faa68067aab52dae48e636c0a0babb727601903_v2,http://postback.berrymobapi.com/postback/?tid=20190516165705_faa68067aab52dae48e636c0a0babb727601903_v2&src=823,idfa_ac9489e4-59e4-4bdb-9fdc-b7f434c25587,id
sBaFG7-dQiWROD5xsSZS5A,berrymob,2122_22325508,install,2.5,203.145.95.171,14aa6c27-3634-4085-9803-4b9c7da3c5cc,1558025832,2019-05-17 00:57:12,1558026012,2019-05-17 01:00:12,1558026043,20190516165710_c595e7e07c000da22eb5b3054e5c15a95752509_v2,http://postback.berrymobapi.com/postback/?tid=20190516165710_c595e7e07c000da22eb5b3054e5c15a95752509_v2&src=823,idfa_14aa6c27-3634-4085-9803-4b9c7da3c5cc,zh
sBaFG7-dQiWROD5xsSZS5A,berrymob,2122_22325508,install,2.5,112.119.93.156,8b2874e3-7397-434a-8433-ac43642a3c4d,1558025411,2019-05-17 00:50:11,1558025597,2019-05-17 00:53:17,1558025629,20190516165010_799abb4ed6155c32a4513e04a310913b7722990_v2,http://postback.berrymobapi.com/postback/?tid=20190516165010_799abb4ed6155c32a4513e04a310913b7722990_v2&src=823,idfa_8b2874e3-7397-434a-8433-ac43642a3c4d,zh
sBaFG7-dQiWROD5xsSZS5A,berrymob,2122_22325508,install,2.5,218.250.176.237,95e91351-01e1-47f9-8a23-d79a5543605b,1558025435,2019-05-17 00:50:35,1558025622,2019-05-17 00:53:42,1558025654,20190516165029_895af02966489937d6ba1d8d6ed9de305760366_v2,http://postback.berrymobapi.com/postback/?tid=20190516165029_895af02966489937d6ba1d8d6ed9de305760366_v2&src=823,idfa_95e91351-01e1-47f9-8a23-d79a5543605b,zh
sBaFG7-dQiWROD5xsSZS5A,berrymob,2122_22325508,install,2.5,14.199.227.161,b7bd1315-25e0-4c86-9fe5-13999735283d,1558025724,2019-05-17 00:55:24,1558025906,2019-05-17 00:58:26,1558025936,20190516165523_05e654778b8c3299a45ec774f9da8c136476410_v2,http://postback.berrymobapi.com/postback/?tid=20190516165523_05e654778b8c3299a45ec774f9da8c136476410_v2&src=823,idfa_b7bd1315-25e0-4c86-9fe5-13999735283d,zh
sBaFG7-dQiWROD5xsSZS5A,berrymob,2122_22325508,install,2.5,116.48.43.142,a8387fce-b337-4bc8-b414-dedbb8faf22f,1558025424,2019-05-17 00:50:24,1558025602,2019-05-17 00:53:22,1558025633,20190516165021_002622919abcf7327e8da45921f4e9096834575_v2,http://postback.berrymobapi.com/postback/?tid=20190516165021_002622919abcf7327e8da45921f4e9096834575_v2&src=823,idfa_a8387fce-b337-4bc8-b414-dedbb8faf22f,en
sBaFG7-dQiWROD5xsSZS5A,berrymob,2122_22325508,install,2.5,49.130.129.61,990bd307-24db-42cd-a12d-23d6d3aa1b93,1558025779,2019-05-17 00:56:19,1558025960,2019-05-17 00:59:20,1558025991,20190516165618_188d90fbdf98ed9f489af6080d53fa376868284_v2,http://postback.berrymobapi.com/postback/?tid=20190516165618_188d90fbdf98ed9f489af6080d53fa376868284_v2&src=823,idfa_990bd307-24db-42cd-a12d-23d6d3aa1b93,en
sBaFG7-dQiWROD5xsSZS5A,berrymob,2122_22325508,install,2.5,61.239.147.132,c05498f6-d207-48bc-81da-d3911ebf1f06,1558025732,2019-05-17 00:55:32,1558025909,2019-05-17 00:58:29,1558025940,20190516165530_04c02ea2064876866f46ff852b8b08422947914_v2,http://postback.berrymobapi.com/postback/?tid=20190516165530_04c02ea2064876866f46ff852b8b08422947914_v2&src=823,idfa_c05498f6-d207-48bc-81da-d3911ebf1f06,zh
sBaFG7-dQiWROD5xsSZS5A,berrymob,2122_22325508,install,2.5,39.10.108.113,1e73a573-f6aa-4f14-a99d-cd95309f23f1,1557950980,2019-05-16 04:09:40,1557951163,2019-05-16 04:12:43,1557951194,20190515200938_385fd1250325af046d77fe4ff7757b087811123_v2,http://postback.berrymobapi.com/postback/?tid=20190515200938_385fd1250325af046d77fe4ff7757b087811123_v2&src=823,idfa_1e73a573-f6aa-4f14-a99d-cd95309f23f1,en
sBaFG7-dQiWROD5xsSZS5A,berrymob,2122_22325508,install,2.5,124.244.137.54,36d18646-af58-4a60-a0ea-fca40e5cec73,1558025499,2019-05-17 00:51:39,1558025677,2019-05-17 00:54:37,1558025708,20190516165135_ea4956051ce343f4695b533a770087567569449_v2,http://postback.berrymobapi.com/postback/?tid=20190516165135_ea4956051ce343f4695b533a770087567569449_v2&src=823,idfa_36d18646-af58-4a60-a0ea-fca40e5cec73,zh
sBaFG7-dQiWROD5xsSZS5A,berrymob,2122_22325508,install,2.5,219.78.81.84,b324e3fa-8dde-468d-98d6-6d53870dce40,1558025565,2019-05-17 00:52:45,1558025763,2019-05-17 00:56:03,1558025795,20190516165244_045cd302f71e6d5060a968fc3f55b9234860001_v2,http://postback.berrymobapi.com/postback/?tid=20190516165244_045cd302f71e6d5060a968fc3f55b9234860001_v2&src=823,idfa_b324e3fa-8dde-468d-98d6-6d53870dce40,zh
sBaFG7-dQiWROD5xsSZS5A,berrymob,2122_22325508,install,2.5,61.239.150.49,df54d3d8-5258-4299-b8c6-615e8573d256,1558025594,2019-05-17 00:53:14,1558025778,2019-05-17 00:56:18,1558025808,20190516165313_b8a7ab07d9beea3e9de09662620a43414417722_v2,http://postback.berrymobapi.com/postback/?tid=20190516165313_b8a7ab07d9beea3e9de09662620a43414417722_v2&src=823,idfa_df54d3d8-5258-4299-b8c6-615e8573d256,zh
sBaFG7-dQiWROD5xsSZS5A,berrymob,2122_22325508,install,2.5,45.64.240.88,35e68b26-01e9-4835-89ee-b53e9b17d41a,1558025434,2019-05-17 00:50:34,1558025614,2019-05-17 00:53:34,1558025645,20190516165031_67626927a168304e944412ffb42592e88540078_v2,http://postback.berrymobapi.com/postback/?tid=20190516165031_67626927a168304e944412ffb42592e88540078_v2&src=823,idfa_35e68b26-01e9-4835-89ee-b53e9b17d41a,en
sBaFG7-dQiWROD5xsSZS5A,berrymob,2122_22325508,install,2.5,183.178.232.230,a6a88ae9-3cec-4f7e-9380-1c876bf1dbf9,1558025730,2019-05-17 00:55:30,1558025913,2019-05-17 00:58:33,1558025945,20190516165529_0d491e2e1e7847bb177415116fb8ac799667350_v2,http://postback.berrymobapi.com/postback/?tid=20190516165529_0d491e2e1e7847bb177415116fb8ac799667350_v2&src=823,idfa_a6a88ae9-3cec-4f7e-9380-1c876bf1dbf9,zh
sBaFG7-dQiWROD5xsSZS5A,berrymob,2122_22325508,install,2.5,119.236.183.132,58ec67dd-dec2-4821-b3bb-0c2cacc0f39a,1558025421,2019-05-17 00:50:21,1558025604,2019-05-17 00:53:24,1558025635,20190516165019_46f2f4e541ba5f3bac1ca503519060da8510817_v2,http://postback.berrymobapi.com/postback/?tid=20190516165019_46f2f4e541ba5f3bac1ca503519060da8510817_v2&src=823,idfa_58ec67dd-dec2-4821-b3bb-0c2cacc0f39a,zh
sBaFG7-dQiWROD5xsSZS5A,berrymob,2122_22325508,install,2.5,14.0.152.101,1f3fece4-5a57-4293-a6d9-bb437ac98472,1558025594,2019-05-17 00:53:14,1558025772,2019-05-17 00:56:12,1558025803,20190516165309_bc2ca60f967d7ca9526bd5fdd77f95284439875_v2,http://postback.berrymobapi.com/postback/?tid=20190516165309_bc2ca60f967d7ca9526bd5fdd77f95284439875_v2&src=823,idfa_1f3fece4-5a57-4293-a6d9-bb437ac98472,zh
sBaFG7-dQiWROD5xsSZS5A,berrymob,2122_22325508,install,2.5,119.246.80.216,c7952b70-53c0-493e-bd2e-b78bfd131ae3,1558025674,2019-05-17 00:54:34,1558025842,2019-05-17 00:57:22,1558025873,20190516165432_bfbfea365d480e11afa385d1ef2109d11344249_v2,http://postback.berrymobapi.com/postback/?tid=20190516165432_bfbfea365d480e11afa385d1ef2109d11344249_v2&src=823,idfa_c7952b70-53c0-493e-bd2e-b78bfd131ae3,zh
sBaFG7-dQiWROD5xsSZS5A,berrymob,2122_22325508,install,2.5,138.19.32.67,a7fd7279-3754-4f9c-8352-097d080397ad,1558025782,2019-05-17 00:56:22,1558025963,2019-05-17 00:59:23,1558025994,20190516165621_dd0480f2efe1afe78711ca8751fa04e92972417_v2,http://postback.berrymobapi.com/postback/?tid=20190516165621_dd0480f2efe1afe78711ca8751fa04e92972417_v2&src=823,idfa_a7fd7279-3754-4f9c-8352-097d080397ad,zh
sBaFG7-dQiWROD5xsSZS5A,berrymob,2122_22325508,install,2.5,219.77.93.70,4cfc2c3b-a26d-4af9-bb43-c4286c52ea47,1558025826,2019-05-17 00:57:06,1558026009,2019-05-17 01:00:09,1558026040,20190516165705_08063f6d288b73f17593185f8ab8c2e21527712_v2,http://postback.berrymobapi.com/postback/?tid=20190516165705_08063f6d288b73f17593185f8ab8c2e21527712_v2&src=823,idfa_4cfc2c3b-a26d-4af9-bb43-c4286c52ea47,zh
sBaFG7-dQiWROD5xsSZS5A,berrymob,2122_22325508,install,2.5,14.0.158.253,1d7944b8-9c7a-4ab1-b2ab-f185cc6c0259,1558025790,2019-05-17 00:56:30,1558025969,2019-05-17 00:59:29,1558026000,20190516165628_ff5c1769f9b8895a4c10142515d792546942585_v2,http://postback.berrymobapi.com/postback/?tid=20190516165628_ff5c1769f9b8895a4c10142515d792546942585_v2&src=823,idfa_1d7944b8-9c7a-4ab1-b2ab-f185cc6c0259,en
sBaFG7-dQiWROD5xsSZS5A,berrymob,2122_22325508,install,2.5,123.202.98.162,fc53131f-19ba-4904-b496-6be6ebefda2b,1558025592,2019-05-17 00:53:12,1558025780,2019-05-17 00:56:20,1558025811,20190516165311_0ac1693783f2d0bda7db1807e07cb5039418357_v2,http://postback.berrymobapi.com/postback/?tid=20190516165311_0ac1693783f2d0bda7db1807e07cb5039418357_v2&src=823,idfa_fc53131f-19ba-4904-b496-6be6ebefda2b,zh
sBaFG7-dQiWROD5xsSZS5A,berrymob,2122_22325508,install,2.5,14.0.164.26,b17e41b2-f1ed-4582-b2cd-f7fa37104c5a,1558025416,2019-05-17 00:50:16,1558025690,2019-05-17 00:54:50,1558025721,20190516165014_0a4f939a3d5fd57ac8dbb181e938f5a75832431_v2,http://postback.berrymobapi.com/postback/?tid=20190516165014_0a4f939a3d5fd57ac8dbb181e938f5a75832431_v2&src=823,idfa_b17e41b2-f1ed-4582-b2cd-f7fa37104c5a,zh
sBaFG7-dQiWROD5xsSZS5A,berrymob,2122_22325508,install,2.5,222.167.159.57,96a1e9c3-45d7-4ada-b6bc-f109071a4eb1,1558025670,2019-05-17 00:54:30,1558025857,2019-05-17 00:57:37,1558025887,20190516165429_017975bd71e0c3f0417539f2015d8e373887882_v2,http://postback.berrymobapi.com/postback/?tid=20190516165429_017975bd71e0c3f0417539f2015d8e373887882_v2&src=823,idfa_96a1e9c3-45d7-4ada-b6bc-f109071a4eb1,zh
sBaFG7-dQiWROD5xsSZS5A,berrymob,2122_22325508,install,2.5,49.130.128.231,bbf83b13-d025-4360-993e-5fd1964a0bb4,1558025540,2019-05-17 00:52:20,1558025745,2019-05-17 00:55:45,1558025776,20190516165218_fb12463cac19db94d2b2a86a2885528d4798588_v2,http://postback.berrymobapi.com/postback/?tid=20190516165218_fb12463cac19db94d2b2a86a2885528d4798588_v2&src=823,idfa_bbf83b13-d025-4360-993e-5fd1964a0bb4,id
sBaFG7-dQiWROD5xsSZS5A,berrymob,2122_22325508,install,2.5,45.64.240.57,0eecf142-beb1-4ce5-a5bf-5cce7e93f8a0,1558025601,2019-05-17 00:53:21,1558025969,2019-05-17 00:59:29,1558026000,20190516165318_df7f6072a33da3cf0b9cb82d4d3863bd2297125_v2,http://postback.berrymobapi.com/postback/?tid=20190516165318_df7f6072a33da3cf0b9cb82d4d3863bd2297125_v2&src=823,idfa_0eecf142-beb1-4ce5-a5bf-5cce7e93f8a0,zh
sBaFG7-dQiWROD5xsSZS5A,berrymob,2122_22325508,install,2.5,119.247.192.251,25292902-a3fb-406c-8b02-47ec5e7b4cc6,1558025412,2019-05-17 00:50:12,1558025593,2019-05-17 00:53:13,1558025624,20190516165011_ab312097d5912dec4aed0e158993de5d9922788_v2,http://postback.berrymobapi.com/postback/?tid=20190516165011_ab312097d5912dec4aed0e158993de5d9922788_v2&src=823,idfa_25292902-a3fb-406c-8b02-47ec5e7b4cc6,zh
sBaFG7-dQiWROD5xsSZS5A,berrymob,2122_22325508,install,2.5,112.120.121.219,9330d81f-3de8-4538-b6af-c5882def026b,1558025786,2019-05-17 00:56:26,1558025966,2019-05-17 00:59:26,1558025996,20190516165624_deb7322f234225dd4d683f9f0179f4c78790571_v2,http://postback.berrymobapi.com/postback/?tid=20190516165624_deb7322f234225dd4d683f9f0179f4c78790571_v2&src=823,idfa_9330d81f-3de8-4538-b6af-c5882def026b,zh
sBaFG7-dQiWROD5xsSZS5A,berrymob,2122_22325508,install,2.5,45.64.242.125,bd8984f1-6f0d-40fd-87e3-0587d2830e5a,1558024987,2019-05-17 00:43:07,1558025167,2019-05-17 00:46:07,1558025198,20190516164306_43eef7780b24a64a5849a47e38bb30753571140_v2,http://postback.berrymobapi.com/postback/?tid=20190516164306_43eef7780b24a64a5849a47e38bb30753571140_v2&src=823,idfa_bd8984f1-6f0d-40fd-87e3-0587d2830e5a,en
sBaFG7-dQiWROD5xsSZS5A,berrymob,2122_22325508,install,2.5,183.179.193.129,0a9b2147-fc25-4df2-baa5-3f9782a46e95,1558025484,2019-05-17 00:51:24,1558025768,2019-05-17 00:56:08,1558025799,20190516165122_6c4579ccbb3efb44ea507bc64c83ecd14355864_v2,http://postback.berrymobapi.com/postback/?tid=20190516165122_6c4579ccbb3efb44ea507bc64c83ecd14355864_v2&src=823,idfa_0a9b2147-fc25-4df2-baa5-3f9782a46e95,zh
sBaFG7-dQiWROD5xsSZS5A,berrymob,2122_22325508,install,2.5,223.16.112.138,478d2693-f3bc-44a7-a0c0-886740030828,1558025460,2019-05-17 00:51:00,1558025933,2019-05-17 00:58:53,1558025964,20190516165044_9430cd35c936986d015e6afcf55eec2c7265419_v2,http://postback.berrymobapi.com/postback/?tid=20190516165044_9430cd35c936986d015e6afcf55eec2c7265419_v2&src=823,idfa_478d2693-f3bc-44a7-a0c0-886740030828,zh
sBaFG7-dQiWROD5xsSZS5A,berrymob,2122_22325508,install,2.5,203.145.95.141,1b7c7f31-cbd6-4d32-b498-45a56eeba20a,1558025791,2019-05-17 00:56:31,1558025972,2019-05-17 00:59:32,1558026004,20190516165628_d1ce290924c83ae237c98515bbd875487847892_v2,http://postback.berrymobapi.com/postback/?tid=20190516165628_d1ce290924c83ae237c98515bbd875487847892_v2&src=823,idfa_1b7c7f31-cbd6-4d32-b498-45a56eeba20a,zh
sBaFG7-dQiWROD5xsSZS5A,berrymob,2122_22325508,install,2.5,123.203.48.188,4f1e2c37-2369-480c-827e-7b102002963f,1558025409,2019-05-17 00:50:09,1558025595,2019-05-17 00:53:15,1558025626,20190516165008_040298287b7d0d205397764d33c04e8b2867666_v2,http://postback.berrymobapi.com/postback/?tid=20190516165008_040298287b7d0d205397764d33c04e8b2867666_v2&src=823,idfa_4f1e2c37-2369-480c-827e-7b102002963f,zh
sBaFG7-dQiWROD5xsSZS5A,berrymob,2122_22325508,install,2.5,49.130.128.231,8f70cc0c-7ebb-4a03-9b00-01f5f4f848c5,1558025531,2019-05-17 00:52:11,1558025715,2019-05-17 00:55:15,1558025746,20190516165210_83f7e71d318b67dbf9905c9dab40ce679620529_v2,http://postback.berrymobapi.com/postback/?tid=20190516165210_83f7e71d318b67dbf9905c9dab40ce679620529_v2&src=823,idfa_8f70cc0c-7ebb-4a03-9b00-01f5f4f848c5,id
sBaFG7-dQiWROD5xsSZS5A,berrymob,2122_22325508,install,2.5,180.218.136.12,0f3ff817-e8a0-45c4-9d05-e4adfcbeae19,1557948979,2019-05-16 03:36:19,1557949163,2019-05-16 03:39:23,1557949195,20190515193617_fc451afba2105b4e299ecd3a9a1d0f8a2471684_v2,http://postback.berrymobapi.com/postback/?tid=20190515193617_fc451afba2105b4e299ecd3a9a1d0f8a2471684_v2&src=823,idfa_0f3ff817-e8a0-45c4-9d05-e4adfcbeae19,zh
sBaFG7-dQiWROD5xsSZS5A,berrymob,2122_22325508,install,2.5,14.0.152.252,55204223-8bdb-4770-b572-857affbfcbe3,1558025438,2019-05-17 00:50:38,1558025612,2019-05-17 00:53:32,1558025643,20190516165029_6924c0f8b6cb3515ff50460e9a9fbde25974111_v2,http://postback.berrymobapi.com/postback/?tid=20190516165029_6924c0f8b6cb3515ff50460e9a9fbde25974111_v2&src=823,idfa_55204223-8bdb-4770-b572-857affbfcbe3,en
sBaFG7-dQiWROD5xsSZS5A,berrymob,2122_22325508,install,2.5,138.19.140.12,403476f2-be08-4abf-a654-2068ff840290,1558024545,2019-05-17 00:35:45,1558024726,2019-05-17 00:38:46,1558024757,20190516163543_0658b821f12787d9806decd4d7507db58622904_v2,http://postback.berrymobapi.com/postback/?tid=20190516163543_0658b821f12787d9806decd4d7507db58622904_v2&src=823,idfa_403476f2-be08-4abf-a654-2068ff840290,zh
sBaFG7-dQiWROD5xsSZS5A,berrymob,2122_22325508,install,2.5,45.64.242.5,5631da5d-ab14-454c-a825-27fd4c139e2f,1558025469,2019-05-17 00:51:09,1558025652,2019-05-17 00:54:12,1558025686,20190516165107_3abab6775bed91e771225914e058ea465634598_v2,http://postback.berrymobapi.com/postback/?tid=20190516165107_3abab6775bed91e771225914e058ea465634598_v2&src=823,idfa_5631da5d-ab14-454c-a825-27fd4c139e2f,id
sBaFG7-dQiWROD5xsSZS5A,berrymob,2122_22325508,install,2.5,59.148.100.178,cdeb3291-24f0-4015-acad-073e1f7b8074,1558025551,2019-05-17 00:52:31,1558025732,2019-05-17 00:55:32,1558025763,20190516165230_807d8762d673e242cffc34b0c694c8833161172_v2,http://postback.berrymobapi.com/postback/?tid=20190516165230_807d8762d673e242cffc34b0c694c8833161172_v2&src=823,idfa_cdeb3291-24f0-4015-acad-073e1f7b8074,en
sBaFG7-dQiWROD5xsSZS5A,berrymob,2122_22325508,install,2.5,182.239.118.36,1a872585-0bba-4dc5-aaf4-2fc8add26ea7,1558025560,2019-05-17 00:52:40,1558025744,2019-05-17 00:55:44,1558025779,20190516165238_0a5e84b05c10963f297d26f1ee260c7d3466857_v2,http://postback.berrymobapi.com/postback/?tid=20190516165238_0a5e84b05c10963f297d26f1ee260c7d3466857_v2&src=823,idfa_1a872585-0bba-4dc5-aaf4-2fc8add26ea7,id
sBaFG7-dQiWROD5xsSZS5A,berrymob,2122_22325508,install,2.5,61.238.35.135,e6ea4dc8-2cb4-4ec9-8b89-9aa910a1453a,1558025665,2019-05-17 00:54:25,1558025850,2019-05-17 00:57:30,1558025880,20190516165424_e7c79ce98589db47a329f0f6998cd9bf7350948_v2,http://postback.berrymobapi.com/postback/?tid=20190516165424_e7c79ce98589db47a329f0f6998cd9bf7350948_v2&src=823,idfa_e6ea4dc8-2cb4-4ec9-8b89-9aa910a1453a,zh
sBaFG7-dQiWROD5xsSZS5A,berrymob,2122_22325508,install,2.5,124.217.188.7,2682dc30-6cff-408b-aaba-e8bbbd259355,1558025725,2019-05-17 00:55:25,1558025910,2019-05-17 00:58:30,1558025941,20190516165523_f07015a686fcd6461572d9185e9d3d367576414_v2,http://postback.berrymobapi.com/postback/?tid=20190516165523_f07015a686fcd6461572d9185e9d3d367576414_v2&src=823,idfa_2682dc30-6cff-408b-aaba-e8bbbd259355,zh
sBaFG7-dQiWROD5xsSZS5A,berrymob,2122_22325508,install,2.5,14.198.64.101,b6879174-8dbd-4d65-8a48-a7bbce5a26b0,1558025412,2019-05-17 00:50:12,1558025595,2019-05-17 00:53:15,1558025627,20190516165011_a522ccdde65d4e086f5e672b2554c0b98470137_v2,http://postback.berrymobapi.com/postback/?tid=20190516165011_a522ccdde65d4e086f5e672b2554c0b98470137_v2&src=823,idfa_b6879174-8dbd-4d65-8a48-a7bbce5a26b0,zh
