cid,partner_id,channel_id,action_id,cpi,ip,idfa,click time,click datetime,install time,install datetime,postback time,click id,postback url,unique user id
jCFjvJymRBCPuTFPTHzQfg,berrymob,2122_22374598,Install,1.7,42.76.219.104,c5ea427f-069c-40f8-9151-4d631a2c22c0,1558467165,2019-05-22 03:32:45,1558467220,2019-05-22 03:33:40,1558467251,20190521193242_f20d446c566d3112c98b1a405fcb81c62502547_v2,http://postback.berrymobapi.com/postback/?tid=20190521193242_f20d446c566d3112c98b1a405fcb81c62502547_v2&src=823,idfa_c5ea427f-069c-40f8-9151-4d631a2c22c0,Indonesia
jCFjvJymRBCPuTFPTHzQfg,berrymob,2122_22374598,Install,1.7,114.32.70.161,26786f8a-ca52-4f8d-bef2-2c76422fd7cf,1558467164,2019-05-22 03:32:44,1558467206,2019-05-22 03:33:26,1558467237,20190521193242_b4f6b120deb5f991c7e3eca0578622e07306037_v2,http://postback.berrymobapi.com/postback/?tid=20190521193242_b4f6b120deb5f991c7e3eca0578622e07306037_v2&src=823,idfa_26786f8a-ca52-4f8d-bef2-2c76422fd7cf,%E4%B8%AD%E6%96%87
jCFjvJymRBCPuTFPTHzQfg,berrymob,2122_22374598,Install,1.7,210.209.240.156,14c31652-b48d-451a-a441-3fa635f2b102,1558468207,2019-05-22 03:50:07,1558468249,2019-05-22 03:50:49,1558468280,20190521195006_3166eb9126a8d8b24dd5bc15e5e21e689790711_v2,http://postback.berrymobapi.com/postback/?tid=20190521195006_3166eb9126a8d8b24dd5bc15e5e21e689790711_v2&src=823,idfa_14c31652-b48d-451a-a441-3fa635f2b102,English
jCFjvJymRBCPuTFPTHzQfg,berrymob,2122_22374598,Install,1.7,36.227.124.77,2bd575a1-6add-42bf-a4e5-346a00e3d4d2,1558468394,2019-05-22 03:53:14,1558468432,2019-05-22 03:53:52,1558468463,20190521195311_64b705bd28ebcb7b514f773a7b2155df9113455_v2,http://postback.berrymobapi.com/postback/?tid=20190521195311_64b705bd28ebcb7b514f773a7b2155df9113455_v2&src=823,idfa_2bd575a1-6add-42bf-a4e5-346a00e3d4d2,Indonesia
jCFjvJymRBCPuTFPTHzQfg,berrymob,2122_22374598,Install,1.7,101.137.10.230,f725852e-68ab-4c36-ba2c-737859fbb6ed,1558464383,2019-05-22 02:46:23,1558464422,2019-05-22 02:47:02,1558464453,20190521184621_c477af3e29c09e1cc7319a8345d480684151205_v2,http://postback.berrymobapi.com/postback/?tid=20190521184621_c477af3e29c09e1cc7319a8345d480684151205_v2&src=823,idfa_f725852e-68ab-4c36-ba2c-737859fbb6ed,%E4%B8%AD%E6%96%87
jCFjvJymRBCPuTFPTHzQfg,berrymob,2122_22374598,Install,1.7,180.217.242.168,a06d6787-d5d0-49fb-bd5d-f19d314d8c29,1558468287,2019-05-22 03:51:27,1558468328,2019-05-22 03:52:08,1558468359,20190521195125_4f40455d9f49c6a1da2323cf465019fe8782666_v2,http://postback.berrymobapi.com/postback/?tid=20190521195125_4f40455d9f49c6a1da2323cf465019fe8782666_v2&src=823,idfa_a06d6787-d5d0-49fb-bd5d-f19d314d8c29,%E4%B8%AD%E6%96%87
jCFjvJymRBCPuTFPTHzQfg,berrymob,2122_22374598,Install,1.7,42.76.22.22,2a421929-c1c8-4c4d-b76a-77d1d7b1f031,1558468521,2019-05-22 03:55:21,1558468562,2019-05-22 03:56:02,1558468594,20190521195519_00a5ee77a57594a0d04ce80bbbeada834459970_v2,http://postback.berrymobapi.com/postback/?tid=20190521195519_00a5ee77a57594a0d04ce80bbbeada834459970_v2&src=823,idfa_2a421929-c1c8-4c4d-b76a-77d1d7b1f031,Indonesia
jCFjvJymRBCPuTFPTHzQfg,berrymob,2122_22374598,Install,1.7,180.217.218.213,fd75b02f-bbde-4e41-8738-a1899431e210,1558468149,2019-05-22 03:49:09,1558468189,2019-05-22 03:49:49,1558468220,20190521194905_8a549099d1fa02599f98a980616842e55591503_v2,http://postback.berrymobapi.com/postback/?tid=20190521194905_8a549099d1fa02599f98a980616842e55591503_v2&src=823,idfa_fd75b02f-bbde-4e41-8738-a1899431e210,%E4%B8%AD%E6%96%87
jCFjvJymRBCPuTFPTHzQfg,berrymob,2122_22374598,Install,1.7,111.71.75.36,a09c310e-f642-479a-867c-d4606b75c801,1558467993,2019-05-22 03:46:33,1558468067,2019-05-22 03:47:47,1558468099,20190521194631_875f521a512e54f7d083da3c0865cf234874406_v2,http://postback.berrymobapi.com/postback/?tid=20190521194631_875f521a512e54f7d083da3c0865cf234874406_v2&src=823,idfa_a09c310e-f642-479a-867c-d4606b75c801,%E4%B8%AD%E6%96%87
jCFjvJymRBCPuTFPTHzQfg,berrymob,2122_22374598,Install,1.7,42.76.65.114,adf3914e-1fd6-47e1-9477-248c3dc64629,1558464381,2019-05-22 02:46:21,1558464421,2019-05-22 02:47:01,1558464453,20190521184619_edfac295b76baeb41243d6cda5a95dbf3172127_v2,http://postback.berrymobapi.com/postback/?tid=20190521184619_edfac295b76baeb41243d6cda5a95dbf3172127_v2&src=823,idfa_adf3914e-1fd6-47e1-9477-248c3dc64629,%E4%B8%AD%E6%96%87
jCFjvJymRBCPuTFPTHzQfg,berrymob,2122_22374598,Install,1.7,42.76.24.130,945b973f-4435-4079-bcbe-1af377b38612,1558464383,2019-05-22 02:46:23,1558464427,2019-05-22 02:47:07,1558464458,20190521184621_331ffef12230f3d813605198808142dc3053084_v2,http://postback.berrymobapi.com/postback/?tid=20190521184621_331ffef12230f3d813605198808142dc3053084_v2&src=823,idfa_945b973f-4435-4079-bcbe-1af377b38612,Bahasa%20Indonesia
jCFjvJymRBCPuTFPTHzQfg,berrymob,2122_22374598,Install,1.7,49.217.177.46,b1de3ed0-a9e3-4637-b5f9-2ff5c7845df8,1558468458,2019-05-22 03:54:18,1558468498,2019-05-22 03:54:58,1558468529,20190521195416_e1aa3ca35c254314c12fe8415d7cebd08693758_v2,http://postback.berrymobapi.com/postback/?tid=20190521195416_e1aa3ca35c254314c12fe8415d7cebd08693758_v2&src=823,idfa_b1de3ed0-a9e3-4637-b5f9-2ff5c7845df8,Indonesia
jCFjvJymRBCPuTFPTHzQfg,berrymob,2122_22374598,Install,1.7,118.166.201.208,c91c481d-292f-4414-a1ed-df6e3b3b6bbb,1558467064,2019-05-22 03:31:04,1558467108,2019-05-22 03:31:48,1558467139,20190521193102_8aca5c7c977202746cbae6ac611b698e2793848_v2,http://postback.berrymobapi.com/postback/?tid=20190521193102_8aca5c7c977202746cbae6ac611b698e2793848_v2&src=823,idfa_c91c481d-292f-4414-a1ed-df6e3b3b6bbb,%E4%B8%AD%E6%96%87
jCFjvJymRBCPuTFPTHzQfg,berrymob,2122_22374598,Install,1.7,42.76.80.13,5f38acfc-92c2-464c-a82e-7f4cc675ff6d,1558468572,2019-05-22 03:56:12,1558468615,2019-05-22 03:56:55,1558468646,20190521195610_db1d5dddc0a703e173ecc8ce3d97881d5306161_v2,http://postback.berrymobapi.com/postback/?tid=20190521195610_db1d5dddc0a703e173ecc8ce3d97881d5306161_v2&src=823,idfa_5f38acfc-92c2-464c-a82e-7f4cc675ff6d,Indonesia
jCFjvJymRBCPuTFPTHzQfg,berrymob,2122_22374598,Install,1.7,27.52.43.110,5fb89738-8bae-474c-9946-6c588bb6e138,1558464383,2019-05-22 02:46:23,1558464425,2019-05-22 02:47:05,1558464459,20190521184622_b3d3279413a3eec1373abb487e7a5b962073787_v2,http://postback.berrymobapi.com/postback/?tid=20190521184622_b3d3279413a3eec1373abb487e7a5b962073787_v2&src=823,idfa_5fb89738-8bae-474c-9946-6c588bb6e138,%E4%B8%AD%E6%96%87
jCFjvJymRBCPuTFPTHzQfg,berrymob,2122_22374598,Install,1.7,49.219.163.5,d3bad089-91e6-4e3e-ae8a-38b054fe76f8,1558467493,2019-05-22 03:38:13,1558467561,2019-05-22 03:39:21,1558467592,20190521193811_e82cee15099e7a4db9f3984221f5738a5205625_v2,http://postback.berrymobapi.com/postback/?tid=20190521193811_e82cee15099e7a4db9f3984221f5738a5205625_v2&src=823,idfa_d3bad089-91e6-4e3e-ae8a-38b054fe76f8,%E4%B8%AD%E6%96%87
jCFjvJymRBCPuTFPTHzQfg,berrymob,2122_22374598,Install,1.7,36.224.136.59,eca6b0e3-cfb8-48c5-b402-8b4fcb020c0a,1558464389,2019-05-22 02:46:29,1558464433,2019-05-22 02:47:13,1558464492,20190521184627_3fd0cd32b9d55db4b59b148a80bc04196852051_v2,http://postback.berrymobapi.com/postback/?tid=20190521184627_3fd0cd32b9d55db4b59b148a80bc04196852051_v2&src=823,idfa_eca6b0e3-cfb8-48c5-b402-8b4fcb020c0a,English
jCFjvJymRBCPuTFPTHzQfg,berrymob,2122_22374598,Install,1.7,111.82.71.89,6ce5a2ba-0089-416b-ad92-b6c9b1201989,1558465258,2019-05-22 03:00:58,1558465301,2019-05-22 03:01:41,1558465332,20190521190057_fb4287537bd72543e4a30aaf598ef8e65057958_v2,http://postback.berrymobapi.com/postback/?tid=20190521190057_fb4287537bd72543e4a30aaf598ef8e65057958_v2&src=823,idfa_6ce5a2ba-0089-416b-ad92-b6c9b1201989,%E4%B8%AD%E6%96%87
jCFjvJymRBCPuTFPTHzQfg,berrymob,2122_22374598,Install,1.7,101.12.14.197,4b1974d8-9e29-4179-8a8b-f5a6313c8d3d,1558467062,2019-05-22 03:31:02,1558467113,2019-05-22 03:31:53,1558467144,20190521193100_77800759b70894db54f9f57274bc83eb9275974_v2,http://postback.berrymobapi.com/postback/?tid=20190521193100_77800759b70894db54f9f57274bc83eb9275974_v2&src=823,idfa_4b1974d8-9e29-4179-8a8b-f5a6313c8d3d,Bahasa%20Indonesia
jCFjvJymRBCPuTFPTHzQfg,berrymob,2122_22374598,Install,1.7,101.10.32.216,38836eeb-eb32-4e04-97a5-783217489a20,1558468456,2019-05-22 03:54:16,1558468496,2019-05-22 03:54:56,1558468528,20190521195414_16d99691548e230324ace51a424ce0821193788_v2,http://postback.berrymobapi.com/postback/?tid=20190521195414_16d99691548e230324ace51a424ce0821193788_v2&src=823,idfa_38836eeb-eb32-4e04-97a5-783217489a20,%E4%B8%AD%E6%96%87
jCFjvJymRBCPuTFPTHzQfg,berrymob,2122_22374598,Install,1.7,180.204.57.104,ae10a0d8-bb1b-4b0c-8c7b-c2319a51b1bf,1558468155,2019-05-22 03:49:15,1558468203,2019-05-22 03:50:03,1558468235,20190521194912_3205618e8ca07fcc03af39b456f5b9444957365_v2,http://postback.berrymobapi.com/postback/?tid=20190521194912_3205618e8ca07fcc03af39b456f5b9444957365_v2&src=823,idfa_ae10a0d8-bb1b-4b0c-8c7b-c2319a51b1bf,%E0%B9%84%E0%B8%97%E0%B8%A2
jCFjvJymRBCPuTFPTHzQfg,berrymob,2122_22374598,Install,1.7,39.10.166.64,3a07bc7a-e0df-44c3-952d-6ab3c1eec007,1558468392,2019-05-22 03:53:12,1558468434,2019-05-22 03:53:54,1558468466,20190521195311_83cec5eebf319063c84bdfbde66e9ae97620273_v2,http://postback.berrymobapi.com/postback/?tid=20190521195311_83cec5eebf319063c84bdfbde66e9ae97620273_v2&src=823,idfa_3a07bc7a-e0df-44c3-952d-6ab3c1eec007,Indonesia
jCFjvJymRBCPuTFPTHzQfg,berrymob,2122_22374598,Install,1.7,39.8.197.162,f8282b0b-1438-4f59-adec-e105948208ef,1558467162,2019-05-22 03:32:42,1558467207,2019-05-22 03:33:27,1558467238,20190521193241_8b40929f5b8dbec280b4cfdc57a327cb9521082_v2,http://postback.berrymobapi.com/postback/?tid=20190521193241_8b40929f5b8dbec280b4cfdc57a327cb9521082_v2&src=823,idfa_f8282b0b-1438-4f59-adec-e105948208ef,Indonesia
jCFjvJymRBCPuTFPTHzQfg,berrymob,2122_22374598,Install,1.7,180.217.201.76,567100e0-e938-407e-bf8c-faf9ab8032e0,1558468525,2019-05-22 03:55:25,1558468561,2019-05-22 03:56:01,1558468592,20190521195523_c0fb033a7b90ab895e5ebbdcbfe4b0351028658_v2,http://postback.berrymobapi.com/postback/?tid=20190521195523_c0fb033a7b90ab895e5ebbdcbfe4b0351028658_v2&src=823,idfa_567100e0-e938-407e-bf8c-faf9ab8032e0,Indonesia
jCFjvJymRBCPuTFPTHzQfg,berrymob,2122_22374598,Install,1.7,42.75.59.245,9a587f12-2ab1-4460-ad77-4d68633df5f7,1558468453,2019-05-22 03:54:13,1558468493,2019-05-22 03:54:53,1558468524,20190521195409_5675944377d5ce50ef8b37c99cd111713102789_v2,http://postback.berrymobapi.com/postback/?tid=20190521195409_5675944377d5ce50ef8b37c99cd111713102789_v2&src=823,idfa_9a587f12-2ab1-4460-ad77-4d68633df5f7,%E4%B8%AD%E6%96%87
jCFjvJymRBCPuTFPTHzQfg,berrymob,2122_22374598,Install,1.7,110.26.105.48,527f38c8-7413-4f03-9c64-5f594facef71,1558464380,2019-05-22 02:46:20,1558464424,2019-05-22 02:47:04,1558464455,20190521184618_44d34ded13af18eaa3d7ddd09e9ecafb4198398_v2,http://postback.berrymobapi.com/postback/?tid=20190521184618_44d34ded13af18eaa3d7ddd09e9ecafb4198398_v2&src=823,idfa_527f38c8-7413-4f03-9c64-5f594facef71,Bahasa%20Indonesia
jCFjvJymRBCPuTFPTHzQfg,berrymob,2122_22374598,Install,1.7,27.52.133.57,26e13caa-1084-4d40-ab6c-75ab818b425a,1558465258,2019-05-22 03:00:58,1558465337,2019-05-22 03:02:17,1558465368,20190521190056_4a24acd8f8ff7ca438874536fa859a3f1618626_v2,http://postback.berrymobapi.com/postback/?tid=20190521190056_4a24acd8f8ff7ca438874536fa859a3f1618626_v2&src=823,idfa_26e13caa-1084-4d40-ab6c-75ab818b425a,Bahasa%20Indonesia
jCFjvJymRBCPuTFPTHzQfg,berrymob,2122_22374598,Install,1.7,111.71.107.188,78dfcd16-ac80-484c-ad45-03ae5d5d681a,1558468513,2019-05-22 03:55:13,1558468554,2019-05-22 03:55:54,1558468585,20190521195510_b520b9b4f4c5469a66d490e45ad52be85975858_v2,http://postback.berrymobapi.com/postback/?tid=20190521195510_b520b9b4f4c5469a66d490e45ad52be85975858_v2&src=823,idfa_78dfcd16-ac80-484c-ad45-03ae5d5d681a,Indonesia
jCFjvJymRBCPuTFPTHzQfg,berrymob,2122_22374598,Install,1.7,122.118.21.92,fef16ba4-e86a-40c5-aaf5-eacf8dd8f31d,1558468082,2019-05-22 03:48:02,1558468105,2019-05-22 03:48:25,1558468137,20190521194724_c68871512c8afd432148e1dade22f9ee1663380_v2,http://postback.berrymobapi.com/postback/?tid=20190521194724_c68871512c8afd432148e1dade22f9ee1663380_v2&src=823,idfa_fef16ba4-e86a-40c5-aaf5-eacf8dd8f31d,%E4%B8%AD%E6%96%87
jCFjvJymRBCPuTFPTHzQfg,berrymob,2122_22374598,Install,1.7,125.230.117.127,fa0d2f96-fae1-4891-b3a7-6fadbc33aa6c,1558468090,2019-05-22 03:48:10,1558468128,2019-05-22 03:48:48,1558468159,20190521194808_37c4422a3f29e129f8b5b356d202a5769516356_v2,http://postback.berrymobapi.com/postback/?tid=20190521194808_37c4422a3f29e129f8b5b356d202a5769516356_v2&src=823,idfa_fa0d2f96-fae1-4891-b3a7-6fadbc33aa6c,%E4%B8%AD%E6%96%87
jCFjvJymRBCPuTFPTHzQfg,berrymob,2122_22374598,Install,1.7,39.8.139.222,fcf5a3f1-04e2-4249-b966-d87ed55e0695,1558468272,2019-05-22 03:51:12,1558468313,2019-05-22 03:51:53,1558468344,20190521195110_0b77633e48e3a55749fed62003196dbf1226924_v2,http://postback.berrymobapi.com/postback/?tid=20190521195110_0b77633e48e3a55749fed62003196dbf1226924_v2&src=823,idfa_fcf5a3f1-04e2-4249-b966-d87ed55e0695,%E4%B8%AD%E6%96%87
jCFjvJymRBCPuTFPTHzQfg,berrymob,2122_22374598,Install,1.7,61.230.117.113,4f14629c-25e1-4076-a45f-1b606bf92241,1558468207,2019-05-22 03:50:07,1558468261,2019-05-22 03:51:01,1558468293,20190521195005_96fefd818e6f86e03176e4feeca0fbd94039510_v2,http://postback.berrymobapi.com/postback/?tid=20190521195005_96fefd818e6f86e03176e4feeca0fbd94039510_v2&src=823,idfa_4f14629c-25e1-4076-a45f-1b606bf92241,%E4%B8%AD%E6%96%87
jCFjvJymRBCPuTFPTHzQfg,berrymob,2122_22374598,Install,1.7,42.77.60.129,03cc5042-2ac1-4cb9-8031-ce86bf7776b8,1558467968,2019-05-22 03:46:08,1558468019,2019-05-22 03:46:59,1558468050,20190521194606_d9a3ef7ac6b6419f9bf2b2f26ba0dd093788117_v2,http://postback.berrymobapi.com/postback/?tid=20190521194606_d9a3ef7ac6b6419f9bf2b2f26ba0dd093788117_v2&src=823,idfa_03cc5042-2ac1-4cb9-8031-ce86bf7776b8,%E4%B8%AD%E6%96%87
jCFjvJymRBCPuTFPTHzQfg,berrymob,2122_22374598,Install,1.7,180.177.242.83,d9c02a80-dcae-4aa2-89eb-3293ddbdd37d,1558468191,2019-05-22 03:49:51,1558468379,2019-05-22 03:52:59,1558468412,20190521194950_8bbe3f9f6aec44ae537d96e48bc488ec6230113_v2,http://postback.berrymobapi.com/postback/?tid=20190521194950_8bbe3f9f6aec44ae537d96e48bc488ec6230113_v2&src=823,idfa_d9c02a80-dcae-4aa2-89eb-3293ddbdd37d,%E4%B8%AD%E6%96%87
jCFjvJymRBCPuTFPTHzQfg,berrymob,2122_22374598,Install,1.7,49.216.8.188,a1035576-569a-4bca-98fe-871378c3d00c,1558468627,2019-05-22 03:57:07,1558468666,2019-05-22 03:57:46,1558468698,20190521195704_f7df10b78c5947090a00145194544da84042430_v2,http://postback.berrymobapi.com/postback/?tid=20190521195704_f7df10b78c5947090a00145194544da84042430_v2&src=823,idfa_a1035576-569a-4bca-98fe-871378c3d00c,%E4%B8%AD%E6%96%87
jCFjvJymRBCPuTFPTHzQfg,berrymob,2122_22374598,Install,1.7,101.137.124.137,7ff388b4-18ad-4fa7-a7aa-7b5cf478da70,1558464387,2019-05-22 02:46:27,1558464436,2019-05-22 02:47:16,1558464467,20190521184625_bc4fc454849eee5249e217ba8e96e5a01105422_v2,http://postback.berrymobapi.com/postback/?tid=20190521184625_bc4fc454849eee5249e217ba8e96e5a01105422_v2&src=823,idfa_7ff388b4-18ad-4fa7-a7aa-7b5cf478da70,Bahasa%20Indonesia
jCFjvJymRBCPuTFPTHzQfg,berrymob,2122_22374598,Install,1.7,223.140.69.175,fb3c2696-4f52-435e-9b19-8bf9319cb3e0,1558465262,2019-05-22 03:01:02,1558465306,2019-05-22 03:01:46,1558465338,20190521190100_1dc154e33343a21b8d28d999f9a792836732070_v2,http://postback.berrymobapi.com/postback/?tid=20190521190100_1dc154e33343a21b8d28d999f9a792836732070_v2&src=823,idfa_fb3c2696-4f52-435e-9b19-8bf9319cb3e0,English
jCFjvJymRBCPuTFPTHzQfg,berrymob,2122_22374598,Install,1.7,220.129.227.58,e686be12-b7a5-4d9e-82b8-0aa6d4c7cf6a,1558468634,2019-05-22 03:57:14,1558468683,2019-05-22 03:58:03,1558468714,20190521195713_664d03d2d8c049241afa2f0a2fa2f10a1158779_v2,http://postback.berrymobapi.com/postback/?tid=20190521195713_664d03d2d8c049241afa2f0a2fa2f10a1158779_v2&src=823,idfa_e686be12-b7a5-4d9e-82b8-0aa6d4c7cf6a,%E4%B8%AD%E6%96%87
jCFjvJymRBCPuTFPTHzQfg,berrymob,2122_22374598,Install,1.7,115.82.44.64,480b788f-e026-4318-94a6-2a8e641e302e,1558468391,2019-05-22 03:53:11,1558468435,2019-05-22 03:53:55,1558468466,20190521195309_abb37b57482822c38b2f7f08a5aceee12059444_v2,http://postback.berrymobapi.com/postback/?tid=20190521195309_abb37b57482822c38b2f7f08a5aceee12059444_v2&src=823,idfa_480b788f-e026-4318-94a6-2a8e641e302e,%E4%B8%AD%E6%96%87
jCFjvJymRBCPuTFPTHzQfg,berrymob,2122_22374598,Install,1.7,110.50.135.57,7a4ab0e6-ce24-4e60-9a4a-03d1b326f5f7,1558467065,2019-05-22 03:31:05,1558467106,2019-05-22 03:31:46,1558467137,20190521193103_41dc048c9d8d60640f7305298fee8db85611458_v2,http://postback.berrymobapi.com/postback/?tid=20190521193103_41dc048c9d8d60640f7305298fee8db85611458_v2&src=823,idfa_7a4ab0e6-ce24-4e60-9a4a-03d1b326f5f7,Ti%E1%BA%BFng%20Vi%E1%BB%87t
jCFjvJymRBCPuTFPTHzQfg,berrymob,2122_22374598,Install,1.7,27.52.167.187,0a36615f-dcbc-47e9-86fe-11597f256931,1558467490,2019-05-22 03:38:10,1558467531,2019-05-22 03:38:51,1558467562,20190521193808_6be840428d6f3bf421606004f305d4c48155213_v2,http://postback.berrymobapi.com/postback/?tid=20190521193808_6be840428d6f3bf421606004f305d4c48155213_v2&src=823,idfa_0a36615f-dcbc-47e9-86fe-11597f256931,%E4%B8%AD%E6%96%87
jCFjvJymRBCPuTFPTHzQfg,berrymob,2122_22374598,Install,1.7,42.72.197.207,6c644745-d2e4-4fca-a291-9f0ae6c37b5e,1558468095,2019-05-22 03:48:15,1558468852,2019-05-22 04:00:52,1558468883,20190521194811_f0d39034e6fb8946d99f6da8b7545a713397464_v2,http://postback.berrymobapi.com/postback/?tid=20190521194811_f0d39034e6fb8946d99f6da8b7545a713397464_v2&src=823,idfa_6c644745-d2e4-4fca-a291-9f0ae6c37b5e,%E4%B8%AD%E6%96%87
jCFjvJymRBCPuTFPTHzQfg,berrymob,2122_22374598,Install,1.7,101.9.244.155,992227aa-d82b-4165-8456-51f04d1f26ba,1558468030,2019-05-22 03:47:10,1558468079,2019-05-22 03:47:59,1558468110,20190521194708_8cb756caa7a2e731341e0659862216a28060576_v2,http://postback.berrymobapi.com/postback/?tid=20190521194708_8cb756caa7a2e731341e0659862216a28060576_v2&src=823,idfa_992227aa-d82b-4165-8456-51f04d1f26ba,%E4%B8%AD%E6%96%87
jCFjvJymRBCPuTFPTHzQfg,berrymob,2122_22374598,Install,1.7,175.181.253.202,02b48669-557e-414b-8403-857ef9d72d4c,1558468688,2019-05-22 03:58:08,1558468735,2019-05-22 03:58:55,1558468768,20190521195806_49664458125f0a51677804eb1f2937916142043_v2,http://postback.berrymobapi.com/postback/?tid=20190521195806_49664458125f0a51677804eb1f2937916142043_v2&src=823,idfa_02b48669-557e-414b-8403-857ef9d72d4c,%E4%B8%AD%E6%96%87
jCFjvJymRBCPuTFPTHzQfg,berrymob,2122_22374598,Install,1.7,114.38.88.171,1f45fa81-79ac-4f7a-940d-25bb62b1f7ff,1558468573,2019-05-22 03:56:13,1558468617,2019-05-22 03:56:57,1558468648,20190521195611_122b4d4168e157ee5c5905c2213359a83936215_v2,http://postback.berrymobapi.com/postback/?tid=20190521195611_122b4d4168e157ee5c5905c2213359a83936215_v2&src=823,idfa_1f45fa81-79ac-4f7a-940d-25bb62b1f7ff,%E6%97%A5%E6%9C%AC%E8%AA%9E
jCFjvJymRBCPuTFPTHzQfg,berrymob,2122_22374598,Install,1.7,118.167.28.45,c57c3900-cb43-43c8-a68f-a0177abde2a7,1558468692,2019-05-22 03:58:12,1558468732,2019-05-22 03:58:52,1558468762,20190521195810_fe271dbe51469e8ffe04ff675c9bf5d03295851_v2,http://postback.berrymobapi.com/postback/?tid=20190521195810_fe271dbe51469e8ffe04ff675c9bf5d03295851_v2&src=823,idfa_c57c3900-cb43-43c8-a68f-a0177abde2a7,Indonesia
jCFjvJymRBCPuTFPTHzQfg,berrymob,2122_22374598,Install,1.7,220.141.188.57,eacf3434-f8ad-4f7e-b385-15d57060fcd8,1558464383,2019-05-22 02:46:23,1558464426,2019-05-22 02:47:06,1558464457,20190521184620_7179d667a7ef51d823509740b56ada833584559_v2,http://postback.berrymobapi.com/postback/?tid=20190521184620_7179d667a7ef51d823509740b56ada833584559_v2&src=823,idfa_eacf3434-f8ad-4f7e-b385-15d57060fcd8,%E4%B8%AD%E6%96%87
jCFjvJymRBCPuTFPTHzQfg,berrymob,2122_22374598,Install,1.7,111.82.44.131,be211ab9-6ceb-40e2-8b27-1926004d5486,1558468520,2019-05-22 03:55:20,1558468615,2019-05-22 03:56:55,1558468647,20190521195517_07123781579663095cfb979c2ebbdd387695119_v2,http://postback.berrymobapi.com/postback/?tid=20190521195517_07123781579663095cfb979c2ebbdd387695119_v2&src=823,idfa_be211ab9-6ceb-40e2-8b27-1926004d5486,%E4%B8%AD%E6%96%87
jCFjvJymRBCPuTFPTHzQfg,berrymob,2122_22374598,Install,1.7,42.77.197.117,7e95d194-00ad-40f3-a9c8-0b693740349f,1558468153,2019-05-22 03:49:13,1558468441,2019-05-22 03:54:01,1558468472,20190521194907_9e5911e06d305455006730e46c96bb794665351_v2,http://postback.berrymobapi.com/postback/?tid=20190521194907_9e5911e06d305455006730e46c96bb794665351_v2&src=823,idfa_7e95d194-00ad-40f3-a9c8-0b693740349f,%E4%B8%AD%E6%96%87
jCFjvJymRBCPuTFPTHzQfg,berrymob,2122_22374598,Install,1.7,180.217.129.17,ab490fa8-9ad9-4c4f-a171-84a622f7038d,1558468148,2019-05-22 03:49:08,1558468194,2019-05-22 03:49:54,1558468225,20190521194906_2eb016125f277e1a9aacef27cd65af013485433_v2,http://postback.berrymobapi.com/postback/?tid=20190521194906_2eb016125f277e1a9aacef27cd65af013485433_v2&src=823,idfa_ab490fa8-9ad9-4c4f-a171-84a622f7038d,Bahasa%20Indonesia
jCFjvJymRBCPuTFPTHzQfg,berrymob,2122_22374598,Install,1.7,42.77.192.168,a11096fe-7f34-4464-a889-f41c7f822e78,1558467490,2019-05-22 03:38:10,1558467534,2019-05-22 03:38:54,1558467565,20190521193808_9215b986c8914a0f2ed3a8bcea6957e64190597_v2,http://postback.berrymobapi.com/postback/?tid=20190521193808_9215b986c8914a0f2ed3a8bcea6957e64190597_v2&src=823,idfa_a11096fe-7f34-4464-a889-f41c7f822e78,%E4%B8%AD%E6%96%87
jCFjvJymRBCPuTFPTHzQfg,berrymob,2122_22374598,Install,1.7,42.76.4.23,a97d0fc9-563a-46df-ab2b-f43ba9747ea1,1558464385,2019-05-22 02:46:25,1558464432,2019-05-22 02:47:12,1558464463,20190521184622_87bea7a000dd15a043e191d71c3c9a1f3829618_v2,http://postback.berrymobapi.com/postback/?tid=20190521184622_87bea7a000dd15a043e191d71c3c9a1f3829618_v2&src=823,idfa_a97d0fc9-563a-46df-ab2b-f43ba9747ea1,English
jCFjvJymRBCPuTFPTHzQfg,berrymob,2122_22374598,Install,1.7,110.28.43.177,efd9aca4-fee1-4234-88ce-536a97f7d95a,1558468569,2019-05-22 03:56:09,1558468609,2019-05-22 03:56:49,1558468640,20190521195607_bfce53fc39f433dffa7a6f53acf4c1c86050075_v2,http://postback.berrymobapi.com/postback/?tid=20190521195607_bfce53fc39f433dffa7a6f53acf4c1c86050075_v2&src=823,idfa_efd9aca4-fee1-4234-88ce-536a97f7d95a,Indonesia
