cid,partner_id,channel_id,action_id,cpi,ip,idfa,click time,click datetime,install time,install datetime,postback time,click id,postback url,unique user id
rEYHJnVaRo2yexTeu3tQPw,berrymob,2158_22224180,Install,1.0,110.34.105.225,C551D1CF-8FA3-43C5-92EA-AF90B2D70584,1557690748,2019-05-13 03:52:28,1557690856,2019-05-13 03:54:16,1557690887,20190512195212_316d2f7928411baccea2eb67facbbe5a3369584_v2,http://postback.berrymobapi.com/postback/?tid=20190512195212_316d2f7928411baccea2eb67facbbe5a3369584_v2&src=823,idfa_C551D1CF-8FA3-43C5-92EA-AF90B2D70584,ko-KR
rEYHJnVaRo2yexTeu3tQPw,berrymob,2158_22224180,Install,1.0,211.198.174.174,0867A331-6D84-47F3-8125-3601DD6349FC,1557690744,2019-05-13 03:52:24,1557690835,2019-05-13 03:53:55,1557690866,20190512195206_80bc3300b94b90fdcd661bd8ef6b70ef2332260_v2,http://postback.berrymobapi.com/postback/?tid=20190512195206_80bc3300b94b90fdcd661bd8ef6b70ef2332260_v2&src=823,idfa_0867A331-6D84-47F3-8125-3601DD6349FC,ko-KR
rEYHJnVaRo2yexTeu3tQPw,berrymob,2158_22224180,Install,1.0,112.166.66.217,93278DA8-C938-4F41-B97A-5001FDE7EDCD,1557690127,2019-05-13 03:42:07,1557690234,2019-05-13 03:43:54,1557690265,20190512194149_2647b7f4c14b1c4435cf58e4643207ff9523596_v2,http://postback.berrymobapi.com/postback/?tid=20190512194149_2647b7f4c14b1c4435cf58e4643207ff9523596_v2&src=823,idfa_93278DA8-C938-4F41-B97A-5001FDE7EDCD,ko-KR
rEYHJnVaRo2yexTeu3tQPw,berrymob,2158_22224180,Install,1.0,115.93.120.187,2A3A3274-A692-4769-9A9D-80D85B0D6A1C,1557690146,2019-05-13 03:42:26,1557690283,2019-05-13 03:44:43,1557690314,20190512194210_677e2ae311b72c5362786c4d1ff670db5461543_v2,http://postback.berrymobapi.com/postback/?tid=20190512194210_677e2ae311b72c5362786c4d1ff670db5461543_v2&src=823,idfa_2A3A3274-A692-4769-9A9D-80D85B0D6A1C,ko-KR
rEYHJnVaRo2yexTeu3tQPw,berrymob,2158_22224180,Install,1.0,211.36.133.64,C1F0226F-6F85-4C21-B356-1AD9E154AEF5,1557690231,2019-05-13 03:43:51,1557690290,2019-05-13 03:44:50,1557690320,20190512194331_daebda7a077aeebb92343c2d4491491b2653454_v2,http://postback.berrymobapi.com/postback/?tid=20190512194331_daebda7a077aeebb92343c2d4491491b2653454_v2&src=823,idfa_C1F0226F-6F85-4C21-B356-1AD9E154AEF5,ko-KR
rEYHJnVaRo2yexTeu3tQPw,berrymob,2158_22224180,Install,1.0,61.98.121.79,2130A51F-5A44-4972-A829-F2C2E0CF67DD,1557690743,2019-05-13 03:52:23,1557690888,2019-05-13 03:54:48,1557690919,20190512195209_b2f0bbb00d10a7b85f8ead0768b95b494679740_v2,http://postback.berrymobapi.com/postback/?tid=20190512195209_b2f0bbb00d10a7b85f8ead0768b95b494679740_v2&src=823,idfa_2130A51F-5A44-4972-A829-F2C2E0CF67DD,ko-KR
rEYHJnVaRo2yexTeu3tQPw,berrymob,2158_22224180,Install,1.0,211.171.128.170,C5CEC67B-55D5-4294-8614-576FDAED8DD3,1557690223,2019-05-13 03:43:43,1557690292,2019-05-13 03:44:52,1557690323,20190512194258_1650ba5298d7a122de0e1a8608f62b3c2566176_v2,http://postback.berrymobapi.com/postback/?tid=20190512194258_1650ba5298d7a122de0e1a8608f62b3c2566176_v2&src=823,idfa_C5CEC67B-55D5-4294-8614-576FDAED8DD3,ko-KR
rEYHJnVaRo2yexTeu3tQPw,berrymob,2158_22224180,Install,1.0,163.152.177.21,1A331BC6-5633-4155-9D81-EF0B608EBC16,1557690108,2019-05-13 03:41:48,1557690266,2019-05-13 03:44:26,1557690297,20190512194133_88ef0cf3eaaf4324ba2efd118f349a188064334_v2,http://postback.berrymobapi.com/postback/?tid=20190512194133_88ef0cf3eaaf4324ba2efd118f349a188064334_v2&src=823,idfa_1A331BC6-5633-4155-9D81-EF0B608EBC16,ko-KR
rEYHJnVaRo2yexTeu3tQPw,berrymob,2158_22224180,Install,1.0,39.123.18.7,ECA2238A-5C5D-43DB-AB1F-B5A4D53A079D,1557690356,2019-05-13 03:45:56,1557690455,2019-05-13 03:47:35,1557690486,20190512194541_6c9533e998c1ac77ef1164d4a4f080257372578_v2,http://postback.berrymobapi.com/postback/?tid=20190512194541_6c9533e998c1ac77ef1164d4a4f080257372578_v2&src=823,idfa_ECA2238A-5C5D-43DB-AB1F-B5A4D53A079D,ko-KR
rEYHJnVaRo2yexTeu3tQPw,berrymob,2158_22224180,Install,1.0,116.33.71.47,8FE0D607-435B-4C55-B986-A38BFFE204AD,1557690138,2019-05-13 03:42:18,1557690235,2019-05-13 03:43:55,1557690266,20190512194200_6c0f12e72b1032873a45706ba6cc09587296301_v2,http://postback.berrymobapi.com/postback/?tid=20190512194200_6c0f12e72b1032873a45706ba6cc09587296301_v2&src=823,idfa_8FE0D607-435B-4C55-B986-A38BFFE204AD,ko-KR
rEYHJnVaRo2yexTeu3tQPw,berrymob,2158_22224180,Install,1.0,221.157.24.174,68A0E269-F70E-4B8A-BF79-64C49F05026E,1557690389,2019-05-13 03:46:29,1557690482,2019-05-13 03:48:02,1557690513,20190512194614_c4bc5565b82f0df3faacec102b3a76dd1957438_v2,http://postback.berrymobapi.com/postback/?tid=20190512194614_c4bc5565b82f0df3faacec102b3a76dd1957438_v2&src=823,idfa_68A0E269-F70E-4B8A-BF79-64C49F05026E,ko-KR
rEYHJnVaRo2yexTeu3tQPw,berrymob,2158_22224180,Install,1.0,175.200.240.140,1BCB4BB9-8C07-4B09-AF41-94CD8345D434,1557690751,2019-05-13 03:52:31,1557690897,2019-05-13 03:54:57,1557690928,20190512195214_5f3e58f20cc70c5c826d607f3d4917a17632056_v2,http://postback.berrymobapi.com/postback/?tid=20190512195214_5f3e58f20cc70c5c826d607f3d4917a17632056_v2&src=823,idfa_1BCB4BB9-8C07-4B09-AF41-94CD8345D434,ko-KR
rEYHJnVaRo2yexTeu3tQPw,berrymob,2158_22224180,Install,1.0,218.37.247.110,FE56466C-4BE5-4EFB-A748-9BE2FDF19F59,1557690062,2019-05-13 03:41:02,1557690156,2019-05-13 03:42:36,1557690189,20190512194046_133e08af5b63174596247b34bf0d8e7a5065636_v2,http://postback.berrymobapi.com/postback/?tid=20190512194046_133e08af5b63174596247b34bf0d8e7a5065636_v2&src=823,idfa_FE56466C-4BE5-4EFB-A748-9BE2FDF19F59,ko-KR
rEYHJnVaRo2yexTeu3tQPw,berrymob,2158_22224180,Install,1.0,1.231.31.253,9510ABF4-FC38-4990-8900-FA8F9BDB120E,1557690665,2019-05-13 03:51:05,1557690762,2019-05-13 03:52:42,1557690793,20190512195048_15c0a44de036ab25d63647e89cdd75c03786672_v2,http://postback.berrymobapi.com/postback/?tid=20190512195048_15c0a44de036ab25d63647e89cdd75c03786672_v2&src=823,idfa_9510ABF4-FC38-4990-8900-FA8F9BDB120E,ko-KR
rEYHJnVaRo2yexTeu3tQPw,berrymob,2158_22224180,Install,1.0,112.150.224.2,017FCF2A-3973-4D86-9FD8-9219614081C4,1557690753,2019-05-13 03:52:33,1557690854,2019-05-13 03:54:14,1557690886,20190512195217_24ee0cbfeddfc2175a6cbd7f83215e246621639_v2,http://postback.berrymobapi.com/postback/?tid=20190512195217_24ee0cbfeddfc2175a6cbd7f83215e246621639_v2&src=823,idfa_017FCF2A-3973-4D86-9FD8-9219614081C4,ko-KR
rEYHJnVaRo2yexTeu3tQPw,berrymob,2158_22224180,Install,1.0,122.38.189.172,6414DAD8-CEC8-49A9-B2EF-17655CDAB503,1557690743,2019-05-13 03:52:23,1557690857,2019-05-13 03:54:17,1557690889,20190512195207_28c41adbd638aa06f8b9249e05e9b52b1087444_v2,http://postback.berrymobapi.com/postback/?tid=20190512195207_28c41adbd638aa06f8b9249e05e9b52b1087444_v2&src=823,idfa_6414DAD8-CEC8-49A9-B2EF-17655CDAB503,ko-KR
rEYHJnVaRo2yexTeu3tQPw,berrymob,2158_22224180,Install,1.0,58.65.111.80,6B90EC6A-4931-4DBC-B28C-9373E78E98FD,1557690647,2019-05-13 03:50:47,1557690744,2019-05-13 03:52:24,1557690775,20190512195030_bf5e4227c9ed89133adec2dd792de1cc1125222_v2,http://postback.berrymobapi.com/postback/?tid=20190512195030_bf5e4227c9ed89133adec2dd792de1cc1125222_v2&src=823,idfa_6B90EC6A-4931-4DBC-B28C-9373E78E98FD,ko-KR
rEYHJnVaRo2yexTeu3tQPw,berrymob,2158_22224180,Install,1.0,125.179.10.52,785BF434-DBA6-41C1-98E2-967AF6818EE6,1557690394,2019-05-13 03:46:34,1557690492,2019-05-13 03:48:12,1557690523,20190512194618_94a805a7ad34408ab3dea09bfb1f63477145978_v2,http://postback.berrymobapi.com/postback/?tid=20190512194618_94a805a7ad34408ab3dea09bfb1f63477145978_v2&src=823,idfa_785BF434-DBA6-41C1-98E2-967AF6818EE6,ko-KR
rEYHJnVaRo2yexTeu3tQPw,berrymob,2158_22224180,Install,1.0,211.170.59.247,20DC5C55-78E8-4795-B38A-931EE71794C0,1557689740,2019-05-13 03:35:40,1557689811,2019-05-13 03:36:51,1557689842,20190512193524_f3976e532c28ee3702cec714c06cc9072219417_v2,http://postback.berrymobapi.com/postback/?tid=20190512193524_f3976e532c28ee3702cec714c06cc9072219417_v2&src=823,idfa_20DC5C55-78E8-4795-B38A-931EE71794C0,ko-KR
rEYHJnVaRo2yexTeu3tQPw,berrymob,2158_22224180,Install,1.0,118.46.97.161,9B8D2804-D193-4B64-82FE-DCE3A5DEFAE1,1557690836,2019-05-13 03:53:56,1557690932,2019-05-13 03:55:32,1557690962,20190512195339_deb069d462df703a699a8ee4c7d71b881431966_v2,http://postback.berrymobapi.com/postback/?tid=20190512195339_deb069d462df703a699a8ee4c7d71b881431966_v2&src=823,idfa_9B8D2804-D193-4B64-82FE-DCE3A5DEFAE1,ko-KR
rEYHJnVaRo2yexTeu3tQPw,berrymob,2158_22224180,Install,1.0,115.137.69.243,10B5B68C-58E6-474B-AB27-933E8189511D,1557690743,2019-05-13 03:52:23,1557690857,2019-05-13 03:54:17,1557690888,20190512195207_d5d468d769ccbe5957d6df4a7b2dcff15810488_v2,http://postback.berrymobapi.com/postback/?tid=20190512195207_d5d468d769ccbe5957d6df4a7b2dcff15810488_v2&src=823,idfa_10B5B68C-58E6-474B-AB27-933E8189511D,ko-KR
rEYHJnVaRo2yexTeu3tQPw,berrymob,2158_22224180,Install,1.0,59.15.234.29,CECF03B3-0DA5-4CA7-9914-8EECB06D1A1E,1557690752,2019-05-13 03:52:32,1557690842,2019-05-13 03:54:02,1557690873,20190512195214_330ac9ec96d34353eb1a8398b2c6badd7468403_v2,http://postback.berrymobapi.com/postback/?tid=20190512195214_330ac9ec96d34353eb1a8398b2c6badd7468403_v2&src=823,idfa_CECF03B3-0DA5-4CA7-9914-8EECB06D1A1E,ko-KR
rEYHJnVaRo2yexTeu3tQPw,berrymob,2158_22224180,Install,1.0,182.212.89.217,E02EBD9E-D6FA-4CC6-A8F8-256033B6186F,1557408094,2019-05-09 21:21:34,1557408187,2019-05-09 21:23:07,1557408217,20190509132114_5b214317dade9b8739dbaabb42b48cc83137567_v2,http://postback.berrymobapi.com/postback/?tid=20190509132114_5b214317dade9b8739dbaabb42b48cc83137567_v2&src=823,idfa_E02EBD9E-D6FA-4CC6-A8F8-256033B6186F,ko-KR
rEYHJnVaRo2yexTeu3tQPw,berrymob,2158_22224180,Install,1.0,222.106.29.19,3F8D0245-5CE2-4506-8AE4-573A43BBDCD4,1557690742,2019-05-13 03:52:22,1557690846,2019-05-13 03:54:06,1557690877,20190512195207_7eb5a1471c801ceea0e4902cf928972e3459100_v2,http://postback.berrymobapi.com/postback/?tid=20190512195207_7eb5a1471c801ceea0e4902cf928972e3459100_v2&src=823,idfa_3F8D0245-5CE2-4506-8AE4-573A43BBDCD4,ko-KR
rEYHJnVaRo2yexTeu3tQPw,berrymob,2158_22224180,Install,1.0,119.69.244.80,7E5F323D-FA4E-43FA-968F-006D4C96C77A,1557690741,2019-05-13 03:52:21,1557690870,2019-05-13 03:54:30,1557690901,20190512195206_c95b61bb3b34ebcea0947f740e7fb2905506337_v2,http://postback.berrymobapi.com/postback/?tid=20190512195206_c95b61bb3b34ebcea0947f740e7fb2905506337_v2&src=823,idfa_7E5F323D-FA4E-43FA-968F-006D4C96C77A,ko-KR
rEYHJnVaRo2yexTeu3tQPw,berrymob,2158_22224180,Install,1.0,218.155.61.183,715DF8A1-E082-45CF-9EFD-728736797009,1557690748,2019-05-13 03:52:28,1557690864,2019-05-13 03:54:24,1557690895,20190512195212_46d257cff741324c7fba33e4d9757b624444264_v2,http://postback.berrymobapi.com/postback/?tid=20190512195212_46d257cff741324c7fba33e4d9757b624444264_v2&src=823,idfa_715DF8A1-E082-45CF-9EFD-728736797009,ko-KR
