cid,partner_id,channel_id,action_id,cpi,ip,idfa,click time,click datetime,install time,install datetime,postback time,click id,postback url,unique user id
QY9C2v88TIWAgmANLcyxPQ,berrymob,2122_2122180392,Install,0.25,171.253.193.215,9d0fc78f-89f8-42a9-92e6-6f6f09ed1acd,1558315399,2019-05-20 09:23:19,1558315493,2019-05-20 09:24:53,1558315526,20190520012316_074df7badd34ca1b0257135d1450f5ba3779393_v2,http://postback.berrymobapi.com/postback/?tid=20190520012316_074df7badd34ca1b0257135d1450f5ba3779393_v2&src=823,idfa_9d0fc78f-89f8-42a9-92e6-6f6f09ed1acd,Vi%EF%BF%BDtnam
QY9C2v88TIWAgmANLcyxPQ,berrymob,2122_2122180392,Install,0.25,171.232.162.155,86c53b52-68e3-423e-b390-fe95fea4ad4c,1558230987,2019-05-19 09:56:27,1558231118,2019-05-19 09:58:38,1558231182,20190519015625_f940097f182bb1734a0b7212bb6f16114823857_v2,http://postback.berrymobapi.com/postback/?tid=20190519015625_f940097f182bb1734a0b7212bb6f16114823857_v2&src=823,idfa_86c53b52-68e3-423e-b390-fe95fea4ad4c,Vi%EF%BF%BDtnam
QY9C2v88TIWAgmANLcyxPQ,berrymob,2122_2122180392,Install,0.25,125.214.59.156,9b96ce53-3c1d-42bb-b691-d954cf1d45e3,1558231646,2019-05-19 10:07:26,1558231744,2019-05-19 10:09:04,1558231793,20190519020722_2e70b2887eb8e28cc9c80f21309283066337764_v2,http://postback.berrymobapi.com/postback/?tid=20190519020722_2e70b2887eb8e28cc9c80f21309283066337764_v2&src=823,idfa_9b96ce53-3c1d-42bb-b691-d954cf1d45e3,Vi%EF%BF%BDtnam
QY9C2v88TIWAgmANLcyxPQ,berrymob,2122_2122180392,Install,0.25,125.214.59.156,180ca533-6ff5-469b-942d-b4a3e6424dc5,1558231301,2019-05-19 10:01:41,1558231392,2019-05-19 10:03:12,1558231451,20190519020137_dbe3d6b2fe99db5839fb38eeb1e00d1c6016274_v2,http://postback.berrymobapi.com/postback/?tid=20190519020137_dbe3d6b2fe99db5839fb38eeb1e00d1c6016274_v2&src=823,idfa_180ca533-6ff5-469b-942d-b4a3e6424dc5,Vi%EF%BF%BDtnam
QY9C2v88TIWAgmANLcyxPQ,berrymob,2122_2122180392,Install,0.25,42.118.49.224,f4adfc65-4230-448c-ad18-305c96676ef7,1558232563,2019-05-19 10:22:43,1558232658,2019-05-19 10:24:18,1558232689,20190519022242_0e8574fc23b9207db07bf87d59f01a957579064_v2,http://postback.berrymobapi.com/postback/?tid=20190519022242_0e8574fc23b9207db07bf87d59f01a957579064_v2&src=823,idfa_f4adfc65-4230-448c-ad18-305c96676ef7,Vi%EF%BF%BDtnam
QY9C2v88TIWAgmANLcyxPQ,berrymob,2122_2122180392,Install,0.25,14.240.170.48,0c2c9268-9a23-45ca-bee8-953ea82bc9ad,1558316120,2019-05-20 09:35:20,1558316212,2019-05-20 09:36:52,1558316243,20190520013518_e0c5ada47e608abf543e600776e2340f7166407_v2,http://postback.berrymobapi.com/postback/?tid=20190520013518_e0c5ada47e608abf543e600776e2340f7166407_v2&src=823,idfa_0c2c9268-9a23-45ca-bee8-953ea82bc9ad,Vi%EF%BF%BDtnam
QY9C2v88TIWAgmANLcyxPQ,berrymob,2122_2122180392,Install,0.25,103.199.52.148,3fc7af01-6c59-410d-9995-4af84e7e0574,1558315439,2019-05-20 09:23:59,1558315544,2019-05-20 09:25:44,1558315574,20190520012356_9cf03929a97125849a2b787b186ab0875291834_v2,http://postback.berrymobapi.com/postback/?tid=20190520012356_9cf03929a97125849a2b787b186ab0875291834_v2&src=823,idfa_3fc7af01-6c59-410d-9995-4af84e7e0574,Vi%EF%BF%BDtnam
QY9C2v88TIWAgmANLcyxPQ,berrymob,2122_2122180392,Install,0.25,45.126.99.124,86026fa0-a79a-4c9f-afcd-65ef2eb97d3d,1558316049,2019-05-20 09:34:09,1558316147,2019-05-20 09:35:47,1558316178,20190520013405_9fafbc72745b22947ce34e03aa0e37c57992649_v2,http://postback.berrymobapi.com/postback/?tid=20190520013405_9fafbc72745b22947ce34e03aa0e37c57992649_v2&src=823,idfa_86026fa0-a79a-4c9f-afcd-65ef2eb97d3d,Vi%EF%BF%BDtnam
QY9C2v88TIWAgmANLcyxPQ,berrymob,2122_2122180392,Install,0.25,125.212.182.225,cb67ed69-8c9b-4411-83cb-6c5f78def54d,1558315985,2019-05-20 09:33:05,1558316083,2019-05-20 09:34:43,1558316114,20190520013302_b2424aa3f2b9681b95321bdd924a42a48093826_v2,http://postback.berrymobapi.com/postback/?tid=20190520013302_b2424aa3f2b9681b95321bdd924a42a48093826_v2&src=823,idfa_cb67ed69-8c9b-4411-83cb-6c5f78def54d,Vi%EF%BF%BDtnam
QY9C2v88TIWAgmANLcyxPQ,berrymob,2122_2122180392,Install,0.25,113.162.41.238,d2172c82-554e-4160-880e-9c9166618105,1558316081,2019-05-20 09:34:41,1558316171,2019-05-20 09:36:11,1558316202,20190520013438_1ba9ba5b2d7e3fc5a5cf4f627f19544d2876289_v2,http://postback.berrymobapi.com/postback/?tid=20190520013438_1ba9ba5b2d7e3fc5a5cf4f627f19544d2876289_v2&src=823,idfa_d2172c82-554e-4160-880e-9c9166618105,Vi%EF%BF%BDtnam
QY9C2v88TIWAgmANLcyxPQ,berrymob,2122_2122180392,Install,0.25,14.187.174.162,4bae5752-01a0-4c89-afeb-4899fe100e6c,1558231609,2019-05-19 10:06:49,1558231695,2019-05-19 10:08:15,1558231725,20190519020645_ab5051fca125bb9d88b690739fa24a1e7095377_v2,http://postback.berrymobapi.com/postback/?tid=20190519020645_ab5051fca125bb9d88b690739fa24a1e7095377_v2&src=823,idfa_4bae5752-01a0-4c89-afeb-4899fe100e6c,Vi%EF%BF%BDtnam
QY9C2v88TIWAgmANLcyxPQ,berrymob,2122_2122180392,Install,0.25,125.212.180.143,c1d09f2a-6450-444b-b497-940800dd53c8,1558315797,2019-05-20 09:29:57,1558315894,2019-05-20 09:31:34,1558315924,20190520012955_3217d217890ea4888949be8901956a993493012_v2,http://postback.berrymobapi.com/postback/?tid=20190520012955_3217d217890ea4888949be8901956a993493012_v2&src=823,idfa_c1d09f2a-6450-444b-b497-940800dd53c8,Vi%EF%BF%BDtnam
QY9C2v88TIWAgmANLcyxPQ,berrymob,2122_2122180392,Install,0.25,27.68.21.245,6e74ea1f-3b5b-45b8-a5df-be0e86704e33,1558229754,2019-05-19 09:35:54,1558229846,2019-05-19 09:37:26,1558229878,20190519013551_803b8cb3722d8d77bc647688a85f4e842287577_v2,http://postback.berrymobapi.com/postback/?tid=20190519013551_803b8cb3722d8d77bc647688a85f4e842287577_v2&src=823,idfa_6e74ea1f-3b5b-45b8-a5df-be0e86704e33,Vi%EF%BF%BDtnam
QY9C2v88TIWAgmANLcyxPQ,berrymob,2122_2122180392,Install,0.25,27.71.204.220,5cd40bff-7dd1-4462-8a5c-ec83a87f7696,1558315598,2019-05-20 09:26:38,1558315696,2019-05-20 09:28:16,1558315727,20190520012634_6ce06d4ed29e808f684098a5d7baa9015703311_v2,http://postback.berrymobapi.com/postback/?tid=20190520012634_6ce06d4ed29e808f684098a5d7baa9015703311_v2&src=823,idfa_5cd40bff-7dd1-4462-8a5c-ec83a87f7696,Vi%EF%BF%BDtnam
QY9C2v88TIWAgmANLcyxPQ,berrymob,2122_2122180392,Install,0.25,27.3.80.235,b6c41f72-5370-4812-b43e-af99d0f80c17,1558316201,2019-05-20 09:36:41,1558316272,2019-05-20 09:37:52,1558316303,20190520013637_e7de2d00751d25d8563ca3911fab26ff5458395_v2,http://postback.berrymobapi.com/postback/?tid=20190520013637_e7de2d00751d25d8563ca3911fab26ff5458395_v2&src=823,idfa_b6c41f72-5370-4812-b43e-af99d0f80c17,Vi%EF%BF%BDtnam
QY9C2v88TIWAgmANLcyxPQ,berrymob,2122_2122180392,Install,0.25,27.71.204.220,2411a172-ba20-4f47-8dc9-2fa29ddd578b,1558315614,2019-05-20 09:26:54,1558315722,2019-05-20 09:28:42,1558315753,20190520012652_7c81f1080074a9943c3d6c5c6f5f9d081919187_v2,http://postback.berrymobapi.com/postback/?tid=20190520012652_7c81f1080074a9943c3d6c5c6f5f9d081919187_v2&src=823,idfa_2411a172-ba20-4f47-8dc9-2fa29ddd578b,Vi%EF%BF%BDtnam
QY9C2v88TIWAgmANLcyxPQ,berrymob,2122_2122180392,Install,0.25,171.228.24.237,47738ebb-083b-42ba-9216-b7c27fccc575,1558231645,2019-05-19 10:07:25,1558231730,2019-05-19 10:08:50,1558231771,20190519020723_fced4a24bed12e15b60556855ead5e8f2620228_v2,http://postback.berrymobapi.com/postback/?tid=20190519020723_fced4a24bed12e15b60556855ead5e8f2620228_v2&src=823,idfa_47738ebb-083b-42ba-9216-b7c27fccc575,Vi%EF%BF%BDtnam
QY9C2v88TIWAgmANLcyxPQ,berrymob,2122_2122180392,Install,0.25,171.239.155.121,0fdc08b5-8540-4bd1-aef9-bed56dc2c0cd,1558316125,2019-05-20 09:35:25,1558316355,2019-05-20 09:39:15,1558316385,20190520013523_ddd63e28633a6faa43703e4df3d7e3834447678_v2,http://postback.berrymobapi.com/postback/?tid=20190520013523_ddd63e28633a6faa43703e4df3d7e3834447678_v2&src=823,idfa_0fdc08b5-8540-4bd1-aef9-bed56dc2c0cd,Vi%EF%BF%BDtnam
QY9C2v88TIWAgmANLcyxPQ,berrymob,2122_2122180392,Install,0.25,14.237.63.163,e1dab8b9-4f10-401d-a478-cd1f36925366,1558233134,2019-05-19 10:32:14,1558233240,2019-05-19 10:34:00,1558233326,20190519023210_5ca197f79376c5c561be3c01929991a58241598_v2,http://postback.berrymobapi.com/postback/?tid=20190519023210_5ca197f79376c5c561be3c01929991a58241598_v2&src=823,idfa_e1dab8b9-4f10-401d-a478-cd1f36925366,Vi%EF%BF%BDtnam
QY9C2v88TIWAgmANLcyxPQ,berrymob,2122_2122180392,Install,0.25,113.185.11.150,96e84801-9de0-463c-9305-5335d9a8efb6,1558315351,2019-05-20 09:22:31,1558315471,2019-05-20 09:24:31,1558315501,20190520012229_eca57118374a89c4bea45548ecd3c39e4677340_v2,http://postback.berrymobapi.com/postback/?tid=20190520012229_eca57118374a89c4bea45548ecd3c39e4677340_v2&src=823,idfa_96e84801-9de0-463c-9305-5335d9a8efb6,Vi%EF%BF%BDtnam
QY9C2v88TIWAgmANLcyxPQ,berrymob,2122_2122180392,Install,0.25,113.185.11.150,36845478-079b-4d63-a7f4-fd39f9c11e4a,1558315428,2019-05-20 09:23:48,1558315532,2019-05-20 09:25:32,1558315563,20190520012345_1044961cc73f5c63865c26e6fbaaa2331036166_v2,http://postback.berrymobapi.com/postback/?tid=20190520012345_1044961cc73f5c63865c26e6fbaaa2331036166_v2&src=823,idfa_36845478-079b-4d63-a7f4-fd39f9c11e4a,Vi%EF%BF%BDtnam
QY9C2v88TIWAgmANLcyxPQ,berrymob,2122_2122180392,Install,0.25,171.225.169.211,357e131d-33fb-40fa-929b-c747f4559598,1558231629,2019-05-19 10:07:09,1558231725,2019-05-19 10:08:45,1558231757,20190519020706_994822bc536e4c1c088b2c460d72c2aa3169519_v2,http://postback.berrymobapi.com/postback/?tid=20190519020706_994822bc536e4c1c088b2c460d72c2aa3169519_v2&src=823,idfa_357e131d-33fb-40fa-929b-c747f4559598,Vi%EF%BF%BDtnam
QY9C2v88TIWAgmANLcyxPQ,berrymob,2122_2122180392,Install,0.25,14.246.107.46,9e95b8fc-e0a1-4030-831f-333988749e67,1558232253,2019-05-19 10:17:33,1558232348,2019-05-19 10:19:08,1558232530,20190519021729_b6c57ef1473609b46514f248b19f441a6068095_v2,http://postback.berrymobapi.com/postback/?tid=20190519021729_b6c57ef1473609b46514f248b19f441a6068095_v2&src=823,idfa_9e95b8fc-e0a1-4030-831f-333988749e67,Vi%EF%BF%BDtnam
QY9C2v88TIWAgmANLcyxPQ,berrymob,2122_2122180392,Install,0.25,171.253.185.227,a0abcc0c-6d4c-42fd-bf84-b19cabae39e5,1558315344,2019-05-20 09:22:24,1558315436,2019-05-20 09:23:56,1558315469,20190520012222_e98cea4045a1558dd61c88319d3977274803311_v2,http://postback.berrymobapi.com/postback/?tid=20190520012222_e98cea4045a1558dd61c88319d3977274803311_v2&src=823,idfa_a0abcc0c-6d4c-42fd-bf84-b19cabae39e5,Vi%EF%BF%BDtnam
