cid,partner_id,channel_id,action_id,cpi,ip,idfa,click time,click datetime,install time,install datetime,postback time,click id,postback url,unique user id
8oZQeoSgT_yT8rchr5fVjA,clicxy,6479_40715_11796,Install,1.6,211.181.72.238,4c975a61-8926-4348-b8f1-fdb8db3a097c,1559187552,2019-05-30 11:39:12,1559188489,2019-05-30 11:54:49,1559188496,5cef505651899a00017cc097,http://offers.clicxy.affise.com/postback?clickid=5cef505651899a00017cc097,idfa_4c975a61-8926-4348-b8f1-fdb8db3a097c,ko
8oZQeoSgT_yT8rchr5fVjA,clicxy,6479_40715_11796,Install,1.6,222.111.192.52,fcdbe281-d13c-441f-874f-ece9089a2175,1559185311,2019-05-30 11:01:51,1559188106,2019-05-30 11:48:26,1559188113,5cef479a51899a0001591705,http://offers.clicxy.affise.com/postback?clickid=5cef479a51899a0001591705,idfa_fcdbe281-d13c-441f-874f-ece9089a2175,ko
8oZQeoSgT_yT8rchr5fVjA,clicxy,6479_40715_11796,Install,1.6,211.54.74.50,37b59d7f-646e-4ffc-9c8a-60a7299cab07,1559006597,2019-05-28 09:23:17,1559010094,2019-05-28 10:21:34,1559010101,5cec8d7f51899a0001aab7cb,http://offers.clicxy.affise.com/postback?clickid=5cec8d7f51899a0001aab7cb,idfa_37b59d7f-646e-4ffc-9c8a-60a7299cab07,ko
8oZQeoSgT_yT8rchr5fVjA,clicxy,6479_40715_11796,Install,1.6,221.141.3.100,63f51079-4024-4472-bd2a-36b7178dc7ba,1559007461,2019-05-28 09:37:41,1559009873,2019-05-28 10:17:53,1559009880,5cec90e051899a0001bba425,http://offers.clicxy.affise.com/postback?clickid=5cec90e051899a0001bba425,idfa_63f51079-4024-4472-bd2a-36b7178dc7ba,ko
8oZQeoSgT_yT8rchr5fVjA,clicxy,6479_40715_11796,Install,1.6,118.42.115.142,9562e03e-52ad-449e-bac9-572de5d199b0,1559185553,2019-05-30 11:05:53,1559188702,2019-05-30 11:58:22,1559188709,5cef488a51899a00015ceb12,http://offers.clicxy.affise.com/postback?clickid=5cef488a51899a00015ceb12,idfa_9562e03e-52ad-449e-bac9-572de5d199b0,ko
8oZQeoSgT_yT8rchr5fVjA,clicxy,6479_40715_11796,Install,1.6,112.155.143.87,8cf0fc89-f31a-47b9-bd57-7798b00336f2,1559185046,2019-05-30 10:57:26,1559187987,2019-05-30 11:46:27,1559187994,5cef468d51899a000154919d,http://offers.clicxy.affise.com/postback?clickid=5cef468d51899a000154919d,idfa_8cf0fc89-f31a-47b9-bd57-7798b00336f2,ko
8oZQeoSgT_yT8rchr5fVjA,clicxy,6479_40715_11796,Install,1.6,175.204.125.198,89645c98-beaa-4181-94fc-eec6e353e574,1559185261,2019-05-30 11:01:01,1559188367,2019-05-30 11:52:47,1559188374,5cef476751899a000158412c,http://offers.clicxy.affise.com/postback?clickid=5cef476751899a000158412c,idfa_89645c98-beaa-4181-94fc-eec6e353e574,ko
8oZQeoSgT_yT8rchr5fVjA,clicxy,6479_40715_11796,Install,1.6,14.32.124.239,3b8c282c-fc2c-47da-8f2b-3bff99c5f2d9,1559006931,2019-05-28 09:28:51,1559089471,2019-05-29 08:24:31,1559089478,5cec8ed151899a0001b11f9f,http://offers.clicxy.affise.com/postback?clickid=5cec8ed151899a0001b11f9f,idfa_3b8c282c-fc2c-47da-8f2b-3bff99c5f2d9,ko
8oZQeoSgT_yT8rchr5fVjA,clicxy,6479_40715_11796,Install,1.6,106.248.51.20,3b1f65d2-9f80-4571-b2ed-abfd4afa0eba,1559184482,2019-05-30 10:48:02,1559188613,2019-05-30 11:56:53,1559188622,5cef445e51899a00014b424c,http://offers.clicxy.affise.com/postback?clickid=5cef445e51899a00014b424c,idfa_3b1f65d2-9f80-4571-b2ed-abfd4afa0eba,ko
8oZQeoSgT_yT8rchr5fVjA,clicxy,6479_40715_11796,Install,1.6,175.230.39.122,9c4dd168-ba4b-4eb4-a28c-97fde1686960,1559187015,2019-05-30 11:30:15,1559188036,2019-05-30 11:47:16,1559188043,5cef4e4151899a0001746c04,http://offers.clicxy.affise.com/postback?clickid=5cef4e4151899a0001746c04,idfa_9c4dd168-ba4b-4eb4-a28c-97fde1686960,ko
8oZQeoSgT_yT8rchr5fVjA,clicxy,6479_40715_11796,Install,1.6,59.10.138.195,bc0f70d4-8105-4967-908b-237b3149503c,1559006940,2019-05-28 09:29:00,1559088947,2019-05-29 08:15:47,1559088953,5cec8eda51899a0001b150de,http://offers.clicxy.affise.com/postback?clickid=5cec8eda51899a0001b150de,idfa_bc0f70d4-8105-4967-908b-237b3149503c,ko
8oZQeoSgT_yT8rchr5fVjA,clicxy,6479_40715_11796,Install,1.6,115.94.73.2,70c2ea29-620c-428e-86fc-b721f987dec7,1559186420,2019-05-30 11:20:20,1559186692,2019-05-30 11:24:52,1559186700,5cef4bee51899a00016b0bbf,http://offers.clicxy.affise.com/postback?clickid=5cef4bee51899a00016b0bbf,idfa_70c2ea29-620c-428e-86fc-b721f987dec7,ko
8oZQeoSgT_yT8rchr5fVjA,clicxy,6479_40715_11796,Install,1.6,112.220.20.170,89f33f07-4f97-487b-aadd-d42b8b75f3b9,1559007150,2019-05-28 09:32:30,1559009605,2019-05-28 10:13:25,1559009612,5cec8fa851899a0001b54dba,http://offers.clicxy.affise.com/postback?clickid=5cec8fa851899a0001b54dba,idfa_89f33f07-4f97-487b-aadd-d42b8b75f3b9,ko
8oZQeoSgT_yT8rchr5fVjA,clicxy,6479_40715_11796,Install,1.6,106.255.253.178,1a432bf3-1a67-49c9-9f05-145749627cda,1559008870,2019-05-28 10:01:10,1559009823,2019-05-28 10:17:03,1559009831,5cec966351899a0001d424d2,http://offers.clicxy.affise.com/postback?clickid=5cec966351899a0001d424d2,idfa_1a432bf3-1a67-49c9-9f05-145749627cda,ko
8oZQeoSgT_yT8rchr5fVjA,clicxy,6479_40715_11796,Install,1.6,1.234.82.100,db049dd5-6612-47a8-85f3-470bf8ef9f40,1559187396,2019-05-30 11:36:36,1559188498,2019-05-30 11:54:58,1559188506,5cef4fbd51899a00017a6e07,http://offers.clicxy.affise.com/postback?clickid=5cef4fbd51899a00017a6e07,idfa_db049dd5-6612-47a8-85f3-470bf8ef9f40,ko
8oZQeoSgT_yT8rchr5fVjA,clicxy,6479_40715_11796,Install,1.6,183.98.75.48,745b74c3-e194-4060-888e-32124f90102d,1559186582,2019-05-30 11:23:02,1559186818,2019-05-30 11:26:58,1559186825,5cef4c9351899a00016db76d,http://offers.clicxy.affise.com/postback?clickid=5cef4c9351899a00016db76d,idfa_745b74c3-e194-4060-888e-32124f90102d,ko
8oZQeoSgT_yT8rchr5fVjA,clicxy,6479_40715_11796,Install,1.6,211.216.48.158,756f5f4a-1f0e-4870-9ab0-2946bd7702d0,1559006861,2019-05-28 09:27:41,1559009667,2019-05-28 10:14:27,1559009674,5cec8e8851899a0001afbf6c,http://offers.clicxy.affise.com/postback?clickid=5cec8e8851899a0001afbf6c,idfa_756f5f4a-1f0e-4870-9ab0-2946bd7702d0,ko
8oZQeoSgT_yT8rchr5fVjA,clicxy,6479_40715_11796,Install,1.6,112.160.129.97,c822e544-c53f-428c-b7e4-84cba0699b54,1558750469,2019-05-25 10:14:29,1558750538,2019-05-25 10:15:38,1558750544,5ce8a50151899a0001da5a81,http://offers.clicxy.affise.com/postback?clickid=5ce8a50151899a0001da5a81,idfa_c822e544-c53f-428c-b7e4-84cba0699b54,ko
8oZQeoSgT_yT8rchr5fVjA,clicxy,6479_40715_11796,Install,1.6,27.116.125.146,2588c2db-2b8f-4626-a597-072ce7bd1648,1559007334,2019-05-28 09:35:34,1559009619,2019-05-28 10:13:39,1559009626,5cec906251899a0001b8f277,http://offers.clicxy.affise.com/postback?clickid=5cec906251899a0001b8f277,idfa_2588c2db-2b8f-4626-a597-072ce7bd1648,ko
8oZQeoSgT_yT8rchr5fVjA,clicxy,6479_40715_11796,Install,1.6,1.214.196.154,4e01c14d-a1a1-4e34-8be9-0342e272ba4e,1559007209,2019-05-28 09:33:29,1559008967,2019-05-28 10:02:47,1559008974,5cec8fe651899a0001b67bc3,http://offers.clicxy.affise.com/postback?clickid=5cec8fe651899a0001b67bc3,idfa_4e01c14d-a1a1-4e34-8be9-0342e272ba4e,ko
8oZQeoSgT_yT8rchr5fVjA,clicxy,6479_40715_11796,Install,1.6,14.43.79.140,65902cb2-d378-40ed-acf1-5cb3b7a3403a,1559006993,2019-05-28 09:29:53,1559089455,2019-05-29 08:24:15,1559089462,5cec8f0451899a0001b21689,http://offers.clicxy.affise.com/postback?clickid=5cec8f0451899a0001b21689,idfa_65902cb2-d378-40ed-acf1-5cb3b7a3403a,ko
8oZQeoSgT_yT8rchr5fVjA,clicxy,6479_40715_11796,Install,1.6,222.97.214.195,188b9bec-18f2-42c0-a37a-172ca42cfd26,1558835270,2019-05-26 09:47:50,1558835527,2019-05-26 09:52:07,1558835535,5ce9f04251899a00013b4699,http://offers.clicxy.affise.com/postback?clickid=5ce9f04251899a00013b4699,idfa_188b9bec-18f2-42c0-a37a-172ca42cfd26,ko
