cid,partner_id,channel_id,action_id,cpi,ip,idfa,click time,click datetime,install time,install datetime,postback time,click id,postback url,unique user id
ec-6d3wsRFG09d9x_K9g6w,clicxy,6528_qTg7MZA0Tmo,Install,0.7,126.79.143.68,8B445C9E-0946-4360-9891-970FDEB84639,1558536086,2019-05-22 22:41:26,1558536210,2019-05-22 22:43:30,1558536210,5ce55f9051899a00014be83f,http://offers.clicxy.affise.com/postback?clickid=5ce55f9051899a00014be83f,idfa_8B445C9E-0946-4360-9891-970FDEB84639,ja
ec-6d3wsRFG09d9x_K9g6w,clicxy,6528_qTg7MZA0Tmo,Install,0.7,153.130.53.34,645E34FB-C153-4602-89C8-1FFB5436223D,1558536031,2019-05-22 22:40:31,1558536132,2019-05-22 22:42:12,1558536132,5ce55f5751899a00014b7092,http://offers.clicxy.affise.com/postback?clickid=5ce55f5751899a00014b7092,idfa_645E34FB-C153-4602-89C8-1FFB5436223D,ja
ec-6d3wsRFG09d9x_K9g6w,clicxy,6528_qTg7MZA0Tmo,Install,0.7,111.239.169.167,EC3FBA6C-5626-4CB5-B940-7585BEC1BB41,1558536016,2019-05-22 22:40:16,1558536137,2019-05-22 22:42:17,1558536137,5ce55f4851899a00014b5642,http://offers.clicxy.affise.com/postback?clickid=5ce55f4851899a00014b5642,idfa_EC3FBA6C-5626-4CB5-B940-7585BEC1BB41,ja
ec-6d3wsRFG09d9x_K9g6w,clicxy,6528_qTg7MZA0Tmo,Install,0.7,59.129.147.146,5E296F78-46E8-4165-B528-8721386F12A9,1558536026,2019-05-22 22:40:26,1558536166,2019-05-22 22:42:46,1558536166,5ce55f5451899a00014b6a0e,http://offers.clicxy.affise.com/postback?clickid=5ce55f5451899a00014b6a0e,idfa_5E296F78-46E8-4165-B528-8721386F12A9,ja
ec-6d3wsRFG09d9x_K9g6w,clicxy,6528_qTg7MZA0Tmo,Install,0.7,111.89.69.58,899F7433-FCF7-4D88-84BC-072D9F302D8A,1558477988,2019-05-22 06:33:08,1558478082,2019-05-22 06:34:42,1558478082,5ce47c9e51899a000172d011,http://offers.clicxy.affise.com/postback?clickid=5ce47c9e51899a000172d011,idfa_899F7433-FCF7-4D88-84BC-072D9F302D8A,ja
ec-6d3wsRFG09d9x_K9g6w,clicxy,6528_qTg7MZA0Tmo,Install,0.7,182.169.52.87,699EBA9D-423E-4C9B-A459-285281B31F59,1558423664,2019-05-21 15:27:44,1558423765,2019-05-21 15:29:25,1558423765,5ce3a86951899a00017b6b44,http://offers.clicxy.affise.com/postback?clickid=5ce3a86951899a00017b6b44,idfa_699EBA9D-423E-4C9B-A459-285281B31F59,ja
ec-6d3wsRFG09d9x_K9g6w,clicxy,6528_qTg7MZA0Tmo,Install,0.7,182.169.52.87,DFF22608-6EDB-49F2-89F4-4B9AC6331952,1558433863,2019-05-21 18:17:43,1558433975,2019-05-21 18:19:35,1558433975,5ce3d04051899a0001b5761c,http://offers.clicxy.affise.com/postback?clickid=5ce3d04051899a0001b5761c,idfa_DFF22608-6EDB-49F2-89F4-4B9AC6331952,ja
ec-6d3wsRFG09d9x_K9g6w,clicxy,6528_qTg7MZA0Tmo,Install,0.7,180.19.13.134,4A39E5A2-BEA1-4AB7-BE6E-5486B9A81065,1558536010,2019-05-22 22:40:10,1558536147,2019-05-22 22:42:27,1558536147,5ce55f4451899a00014b4e44,http://offers.clicxy.affise.com/postback?clickid=5ce55f4451899a00014b4e44,idfa_4A39E5A2-BEA1-4AB7-BE6E-5486B9A81065,ja
ec-6d3wsRFG09d9x_K9g6w,clicxy,6528_qTg7MZA0Tmo,Install,0.7,58.88.60.72,504BF6E2-D81D-4ECA-BA35-6D976202ABAC,1558536010,2019-05-22 22:40:10,1558536138,2019-05-22 22:42:18,1558536138,5ce55f4451899a00014b4e5b,http://offers.clicxy.affise.com/postback?clickid=5ce55f4451899a00014b4e5b,idfa_504BF6E2-D81D-4ECA-BA35-6D976202ABAC,ja
ec-6d3wsRFG09d9x_K9g6w,clicxy,6528_qTg7MZA0Tmo,Install,0.7,203.76.67.149,0B020B8F-DF35-4987-AD03-7A3BF1A8C47F,1558473524,2019-05-22 05:18:44,1558473619,2019-05-22 05:20:19,1558473619,5ce46b2e51899a0001521373,http://offers.clicxy.affise.com/postback?clickid=5ce46b2e51899a0001521373,idfa_0B020B8F-DF35-4987-AD03-7A3BF1A8C47F,ja
ec-6d3wsRFG09d9x_K9g6w,clicxy,6528_qTg7MZA0Tmo,Install,0.7,120.50.246.236,2B2B12AD-312F-46CC-9124-931EB641E246,1558422582,2019-05-21 15:09:42,1558422703,2019-05-21 15:11:43,1558422703,5ce3a42f51899a00017547cf,http://offers.clicxy.affise.com/postback?clickid=5ce3a42f51899a00017547cf,idfa_2B2B12AD-312F-46CC-9124-931EB641E246,ja
ec-6d3wsRFG09d9x_K9g6w,clicxy,6528_qTg7MZA0Tmo,Install,0.7,113.156.121.119,A0AFA847-284D-4A93-A808-806D5D1DF024,1558536047,2019-05-22 22:40:47,1558536186,2019-05-22 22:43:06,1558536186,5ce55f6951899a00014b8ea2,http://offers.clicxy.affise.com/postback?clickid=5ce55f6951899a00014b8ea2,idfa_A0AFA847-284D-4A93-A808-806D5D1DF024,ja
ec-6d3wsRFG09d9x_K9g6w,clicxy,6528_qTg7MZA0Tmo,Install,0.7,49.250.136.46,395D51C5-4299-4669-A1EC-D480667F125B,1558536105,2019-05-22 22:41:45,1558536227,2019-05-22 22:43:47,1558536227,5ce55fa251899a00014c0bc0,http://offers.clicxy.affise.com/postback?clickid=5ce55fa251899a00014c0bc0,idfa_395D51C5-4299-4669-A1EC-D480667F125B,ja
ec-6d3wsRFG09d9x_K9g6w,clicxy,6528_qTg7MZA0Tmo,Install,0.7,60.238.144.241,48C838A0-1F0D-4E33-8FB1-C11F2EC67F42,1558536039,2019-05-22 22:40:39,1558536144,2019-05-22 22:42:24,1558536144,5ce55f5f51899a00014b7e7b,http://offers.clicxy.affise.com/postback?clickid=5ce55f5f51899a00014b7e7b,idfa_48C838A0-1F0D-4E33-8FB1-C11F2EC67F42,ja
ec-6d3wsRFG09d9x_K9g6w,clicxy,6528_qTg7MZA0Tmo,Install,0.7,202.163.165.23,4104639D-F70A-42F6-B1E5-4260445E246C,1558535999,2019-05-22 22:39:59,1558536117,2019-05-22 22:41:57,1558536117,5ce55f3751899a00014b36f0,http://offers.clicxy.affise.com/postback?clickid=5ce55f3751899a00014b36f0,idfa_4104639D-F70A-42F6-B1E5-4260445E246C,ja
ec-6d3wsRFG09d9x_K9g6w,clicxy,6528_qTg7MZA0Tmo,Install,0.7,180.200.250.107,985C6048-C5B1-4C79-923F-DDEEB3D49D95,1558472626,2019-05-22 05:03:46,1558472747,2019-05-22 05:05:47,1558472747,5ce467aa51899a00014c122e,http://offers.clicxy.affise.com/postback?clickid=5ce467aa51899a00014c122e,idfa_985C6048-C5B1-4C79-923F-DDEEB3D49D95,ja
ec-6d3wsRFG09d9x_K9g6w,clicxy,6528_qTg7MZA0Tmo,Install,0.7,220.104.178.184,920BD9DB-1D9E-4E54-8816-8EA1BB359536,1558478497,2019-05-22 06:41:37,1558478620,2019-05-22 06:43:40,1558478620,5ce47e9a51899a0001772b00,http://offers.clicxy.affise.com/postback?clickid=5ce47e9a51899a0001772b00,idfa_920BD9DB-1D9E-4E54-8816-8EA1BB359536,ja
ec-6d3wsRFG09d9x_K9g6w,clicxy,6528_qTg7MZA0Tmo,Install,0.7,124.213.104.237,270616DF-031F-43A5-BF9A-EDFBC0F1FE0D,1558536054,2019-05-22 22:40:54,1558536150,2019-05-22 22:42:30,1558536150,5ce55f6f51899a00014b9adb,http://offers.clicxy.affise.com/postback?clickid=5ce55f6f51899a00014b9adb,idfa_270616DF-031F-43A5-BF9A-EDFBC0F1FE0D,ja
ec-6d3wsRFG09d9x_K9g6w,clicxy,6528_qTg7MZA0Tmo,Install,0.7,125.204.62.160,95DF42F1-B83B-4EEC-80A1-5013B5C43F52,1558431091,2019-05-21 17:31:31,1558431191,2019-05-21 17:33:11,1558431191,5ce3c56d51899a0001a2ce2b,http://offers.clicxy.affise.com/postback?clickid=5ce3c56d51899a0001a2ce2b,idfa_95DF42F1-B83B-4EEC-80A1-5013B5C43F52,ja
ec-6d3wsRFG09d9x_K9g6w,clicxy,6528_qTg7MZA0Tmo,Install,0.7,180.52.162.8,38FDE85C-2B80-4966-BE12-FACD678CED1B,1558536021,2019-05-22 22:40:21,1558536135,2019-05-22 22:42:15,1558536135,5ce55f4d51899a00014b5ec0,http://offers.clicxy.affise.com/postback?clickid=5ce55f4d51899a00014b5ec0,idfa_38FDE85C-2B80-4966-BE12-FACD678CED1B,ja
ec-6d3wsRFG09d9x_K9g6w,clicxy,6528_qTg7MZA0Tmo,Install,0.7,60.108.122.84,29498E2E-9A3C-40BC-8625-34FD834BEC1E,1558471817,2019-05-22 04:50:17,1558471926,2019-05-22 04:52:06,1558471926,5ce4647f51899a000146b60e,http://offers.clicxy.affise.com/postback?clickid=5ce4647f51899a000146b60e,idfa_29498E2E-9A3C-40BC-8625-34FD834BEC1E,ja
ec-6d3wsRFG09d9x_K9g6w,clicxy,6528_qTg7MZA0Tmo,Install,0.7,114.187.223.59,E73397E1-9EAB-4C75-8ABC-373AFF4D506C,1558535996,2019-05-22 22:39:56,1558536109,2019-05-22 22:41:49,1558536109,5ce55f3651899a00014b3357,http://offers.clicxy.affise.com/postback?clickid=5ce55f3651899a00014b3357,idfa_E73397E1-9EAB-4C75-8ABC-373AFF4D506C,ja
ec-6d3wsRFG09d9x_K9g6w,clicxy,6528_qTg7MZA0Tmo,Install,0.7,175.133.125.229,F7EE7D61-E2C0-4F95-822F-EC0004D44BB5,1558536009,2019-05-22 22:40:09,1558536126,2019-05-22 22:42:06,1558536126,5ce55f4351899a00014b4cf0,http://offers.clicxy.affise.com/postback?clickid=5ce55f4351899a00014b4cf0,idfa_F7EE7D61-E2C0-4F95-822F-EC0004D44BB5,ja
ec-6d3wsRFG09d9x_K9g6w,clicxy,6528_qTg7MZA0Tmo,Install,0.7,106.163.176.245,4A461B92-537D-4A11-95D3-78284C35F9EA,1558536015,2019-05-22 22:40:15,1558536142,2019-05-22 22:42:22,1558536142,5ce55f4951899a00014b57b7,http://offers.clicxy.affise.com/postback?clickid=5ce55f4951899a00014b57b7,idfa_4A461B92-537D-4A11-95D3-78284C35F9EA,ja
ec-6d3wsRFG09d9x_K9g6w,clicxy,6528_qTg7MZA0Tmo,Install,0.7,112.137.108.154,CD99E9ED-2AE7-4912-94FA-0008DE21A128,1558536030,2019-05-22 22:40:30,1558536141,2019-05-22 22:42:21,1558536141,5ce55f5851899a00014b7198,http://offers.clicxy.affise.com/postback?clickid=5ce55f5851899a00014b7198,idfa_CD99E9ED-2AE7-4912-94FA-0008DE21A128,ja
ec-6d3wsRFG09d9x_K9g6w,clicxy,6528_qTg7MZA0Tmo,Install,0.7,123.223.106.247,E9A61C94-DAB1-4D14-A640-E7A64B4F5DF2,1558535510,2019-05-22 22:31:50,1558535612,2019-05-22 22:33:32,1558535612,5ce55d5151899a0001476d31,http://offers.clicxy.affise.com/postback?clickid=5ce55d5151899a0001476d31,idfa_E9A61C94-DAB1-4D14-A640-E7A64B4F5DF2,ja
ec-6d3wsRFG09d9x_K9g6w,clicxy,6528_qTg7MZA0Tmo,Install,0.7,220.146.242.21,EA83DF9A-C23C-4436-A2D5-193D0A651F11,1558536030,2019-05-22 22:40:30,1558536150,2019-05-22 22:42:30,1558536150,5ce55f5951899a00014b734d,http://offers.clicxy.affise.com/postback?clickid=5ce55f5951899a00014b734d,idfa_EA83DF9A-C23C-4436-A2D5-193D0A651F11,ja
ec-6d3wsRFG09d9x_K9g6w,clicxy,6528_qTg7MZA0Tmo,Install,0.7,61.89.161.155,FDBD468E-FBB2-437E-8394-2AAF81988CC3,1558474011,2019-05-22 05:26:51,1558474089,2019-05-22 05:28:09,1558474089,5ce46d1551899a0001555098,http://offers.clicxy.affise.com/postback?clickid=5ce46d1551899a0001555098,idfa_FDBD468E-FBB2-437E-8394-2AAF81988CC3,ja
ec-6d3wsRFG09d9x_K9g6w,clicxy,6528_qTg7MZA0Tmo,Install,0.7,114.154.64.45,D041F53E-ED6A-43CF-81F0-A396EAF0CEE9,1558536021,2019-05-22 22:40:21,1558536140,2019-05-22 22:42:20,1558536140,5ce55f4e51899a00014b607e,http://offers.clicxy.affise.com/postback?clickid=5ce55f4e51899a00014b607e,idfa_D041F53E-ED6A-43CF-81F0-A396EAF0CEE9,ja
ec-6d3wsRFG09d9x_K9g6w,clicxy,6528_qTg7MZA0Tmo,Install,0.7,14.13.64.33,AC62BD73-6F49-4E98-9F27-84A5B42A173B,1558536030,2019-05-22 22:40:30,1558536141,2019-05-22 22:42:21,1558536141,5ce55f5651899a00014b6e6c,http://offers.clicxy.affise.com/postback?clickid=5ce55f5651899a00014b6e6c,idfa_AC62BD73-6F49-4E98-9F27-84A5B42A173B,ja
ec-6d3wsRFG09d9x_K9g6w,clicxy,6528_qTg7MZA0Tmo,Install,0.7,153.232.231.95,53A972C8-9D16-4E24-813A-663539B4522E,1558405662,2019-05-21 10:27:42,1558405755,2019-05-21 10:29:15,1558405755,5ce3621651899a0001e93f9a,http://offers.clicxy.affise.com/postback?clickid=5ce3621651899a0001e93f9a,idfa_53A972C8-9D16-4E24-813A-663539B4522E,ja
ec-6d3wsRFG09d9x_K9g6w,clicxy,6528_qTg7MZA0Tmo,Install,0.7,126.159.211.34,8B614542-C7C7-452C-A914-963EEB217AFB,1558437872,2019-05-21 19:24:32,1558437989,2019-05-21 19:26:29,1558437989,5ce3dfe851899a0001d126df,http://offers.clicxy.affise.com/postback?clickid=5ce3dfe851899a0001d126df,idfa_8B614542-C7C7-452C-A914-963EEB217AFB,ja
ec-6d3wsRFG09d9x_K9g6w,clicxy,6528_qTg7MZA0Tmo,Install,0.7,60.120.100.72,95DF2312-6616-44EB-999D-5A9700CA8D95,1558405585,2019-05-21 10:26:25,1558405682,2019-05-21 10:28:02,1558405682,5ce361cc51899a0001e76390,http://offers.clicxy.affise.com/postback?clickid=5ce361cc51899a0001e76390,idfa_95DF2312-6616-44EB-999D-5A9700CA8D95,ja
ec-6d3wsRFG09d9x_K9g6w,clicxy,6528_qTg7MZA0Tmo,Install,0.7,219.109.67.153,63E8B921-F820-4474-B06B-04A6E2BD9DE2,1558536025,2019-05-22 22:40:25,1558536160,2019-05-22 22:42:40,1558536160,5ce55f5351899a00014b6899,http://offers.clicxy.affise.com/postback?clickid=5ce55f5351899a00014b6899,idfa_63E8B921-F820-4474-B06B-04A6E2BD9DE2,ja
ec-6d3wsRFG09d9x_K9g6w,clicxy,6528_qTg7MZA0Tmo,Install,0.7,60.119.251.200,032B8B00-1780-44E6-A061-A5B26BD4C71F,1558426699,2019-05-21 16:18:19,1558426834,2019-05-21 16:20:34,1558426834,5ce3b44551899a000189da27,http://offers.clicxy.affise.com/postback?clickid=5ce3b44551899a000189da27,idfa_032B8B00-1780-44E6-A061-A5B26BD4C71F,ja
ec-6d3wsRFG09d9x_K9g6w,clicxy,6528_qTg7MZA0Tmo,Install,0.7,118.21.162.33,1C4B8334-30EE-4C12-9BB9-5C3D0DD7C8C7,1558536002,2019-05-22 22:40:02,1558536126,2019-05-22 22:42:06,1558536126,5ce55f3b51899a00014b3f43,http://offers.clicxy.affise.com/postback?clickid=5ce55f3b51899a00014b3f43,idfa_1C4B8334-30EE-4C12-9BB9-5C3D0DD7C8C7,ja
ec-6d3wsRFG09d9x_K9g6w,clicxy,6528_qTg7MZA0Tmo,Install,0.7,220.147.180.61,393E607A-D88E-41A6-BB51-1544FABC7C63,1558478023,2019-05-22 06:33:43,1558478150,2019-05-22 06:35:50,1558478150,5ce47cbf51899a0001733694,http://offers.clicxy.affise.com/postback?clickid=5ce47cbf51899a0001733694,idfa_393E607A-D88E-41A6-BB51-1544FABC7C63,ja
ec-6d3wsRFG09d9x_K9g6w,clicxy,6528_qTg7MZA0Tmo,Install,0.7,114.186.114.192,1E905BAD-40EF-4EC1-9F9E-49025D6C0359,1558477553,2019-05-22 06:25:53,1558477656,2019-05-22 06:27:36,1558477656,5ce47aea51899a00016ee4f1,http://offers.clicxy.affise.com/postback?clickid=5ce47aea51899a00016ee4f1,idfa_1E905BAD-40EF-4EC1-9F9E-49025D6C0359,ja
ec-6d3wsRFG09d9x_K9g6w,clicxy,6528_qTg7MZA0Tmo,Install,0.7,153.209.179.234,10133F47-C6EC-407E-9653-3285E7549CAA,1558435673,2019-05-21 18:47:53,1558435773,2019-05-21 18:49:33,1558435773,5ce3d75151899a0001c24323,http://offers.clicxy.affise.com/postback?clickid=5ce3d75151899a0001c24323,idfa_10133F47-C6EC-407E-9653-3285E7549CAA,ja
ec-6d3wsRFG09d9x_K9g6w,clicxy,6528_qTg7MZA0Tmo,Install,0.7,202.213.177.1,E76FE76C-C97E-43BD-952C-50E3919A1469,1558433821,2019-05-21 18:17:01,1558433943,2019-05-21 18:19:03,1558433943,5ce3d01551899a0001b52e5b,http://offers.clicxy.affise.com/postback?clickid=5ce3d01551899a0001b52e5b,idfa_E76FE76C-C97E-43BD-952C-50E3919A1469,ja
ec-6d3wsRFG09d9x_K9g6w,clicxy,6528_qTg7MZA0Tmo,Install,0.7,60.93.34.203,18B793F9-E69E-4E93-B220-FD0F37CBE6C9,1558536018,2019-05-22 22:40:18,1558536128,2019-05-22 22:42:08,1558536128,5ce55f4c51899a00014b5da9,http://offers.clicxy.affise.com/postback?clickid=5ce55f4c51899a00014b5da9,idfa_18B793F9-E69E-4E93-B220-FD0F37CBE6C9,ja
ec-6d3wsRFG09d9x_K9g6w,clicxy,6528_qTg7MZA0Tmo,Install,0.7,111.99.214.113,9D71355B-0F81-446C-B1EE-83F6B5FBE9AB,1558536004,2019-05-22 22:40:04,1558536126,2019-05-22 22:42:06,1558536126,5ce55f3d51899a00014b4340,http://offers.clicxy.affise.com/postback?clickid=5ce55f3d51899a00014b4340,idfa_9D71355B-0F81-446C-B1EE-83F6B5FBE9AB,ja
