cid,partner_id,channel_id,action_id,cpi,ip,idfa,click time,click datetime,install time,install datetime,postback time,click id,postback url,unique user id
SjonNmb_RxyC-I-SkB2lmQ,creativeclicks,801817_78,Install,1.12,132.147.84.112,578A99E3-A1CF-46EA-BC6B-0277B924E2EB,1556810948,2019-05-02 23:29:08,1556811003,2019-05-02 23:30:03,1556811033,f2719c64-b107-4a18-b62b-d027020faea9,http://cl.untildogtop.com/t/pb?leadid=f2719c64-b107-4a18-b62b-d027020faea9,idfa_578A99E3-A1CF-46EA-BC6B-0277B924E2EB,
SjonNmb_RxyC-I-SkB2lmQ,creativeclicks,801817_78,Install,1.12,121.6.240.208,9975F775-6C6A-4F15-BB41-DCEEAC2FF659,1556814198,2019-05-03 00:23:18,1556814240,2019-05-03 00:24:00,1556814271,439d4644-6f96-4c10-ae58-a9b31b326684,http://cl.untildogtop.com/t/pb?leadid=439d4644-6f96-4c10-ae58-a9b31b326684,idfa_9975F775-6C6A-4F15-BB41-DCEEAC2FF659,
SjonNmb_RxyC-I-SkB2lmQ,creativeclicks,801817_78,Install,1.12,219.74.144.231,B7E32B7B-9902-4D54-AD1A-78D29C5ABC80,1556797023,2019-05-02 19:37:03,1556797065,2019-05-02 19:37:45,1556797095,0735e2d3-2b63-4360-a0e2-4f0354fb1d67,http://cl.untildogtop.com/t/pb?leadid=0735e2d3-2b63-4360-a0e2-4f0354fb1d67,idfa_B7E32B7B-9902-4D54-AD1A-78D29C5ABC80,
SjonNmb_RxyC-I-SkB2lmQ,creativeclicks,801817_78,Install,1.12,119.74.221.77,1385B72E-3823-4E07-B134-390CDB0666DE,1556810700,2019-05-02 23:25:00,1556810753,2019-05-02 23:25:53,1556810785,a6fd907e-fc8c-4a02-9189-03d81ff776e3,http://cl.untildogtop.com/t/pb?leadid=a6fd907e-fc8c-4a02-9189-03d81ff776e3,idfa_1385B72E-3823-4E07-B134-390CDB0666DE,
SjonNmb_RxyC-I-SkB2lmQ,creativeclicks,801817_78,Install,1.12,202.156.242.12,876073F7-5EA4-466F-A003-1F85D1C9D08E,1556798274,2019-05-02 19:57:54,1556798314,2019-05-02 19:58:34,1556798344,a0630044-6846-4677-9d4c-e4b3f0545cb0,http://cl.untildogtop.com/t/pb?leadid=a0630044-6846-4677-9d4c-e4b3f0545cb0,idfa_876073F7-5EA4-466F-A003-1F85D1C9D08E,
SjonNmb_RxyC-I-SkB2lmQ,creativeclicks,801817_78,Install,1.12,58.185.90.46,361BB4D9-3658-4A8B-BD6B-1075A931EAA3,1556776533,2019-05-02 13:55:33,1556776565,2019-05-02 13:56:05,1556776595,74f6118b-e2a9-4efd-b369-155690d60459,http://cl.untildogtop.com/t/pb?leadid=74f6118b-e2a9-4efd-b369-155690d60459,idfa_361BB4D9-3658-4A8B-BD6B-1075A931EAA3,
SjonNmb_RxyC-I-SkB2lmQ,creativeclicks,801817_78,Install,1.12,138.75.6.119,DF2C9B6A-FF90-4387-B153-E6FDFFC5408A,1556812384,2019-05-02 23:53:04,1556812423,2019-05-02 23:53:43,1556812453,f79f261d-61f3-4260-a148-ce642fa41240,http://cl.untildogtop.com/t/pb?leadid=f79f261d-61f3-4260-a148-ce642fa41240,idfa_DF2C9B6A-FF90-4387-B153-E6FDFFC5408A,
SjonNmb_RxyC-I-SkB2lmQ,creativeclicks,801817_78,Install,1.12,116.15.66.232,9F6DC703-2AD2-413D-BFC6-41B9E458310E,1556795348,2019-05-02 19:09:08,1556795390,2019-05-02 19:09:50,1556795420,5b36a4f4-dfe1-48b7-9545-3cfbe4308275,http://cl.untildogtop.com/t/pb?leadid=5b36a4f4-dfe1-48b7-9545-3cfbe4308275,idfa_9F6DC703-2AD2-413D-BFC6-41B9E458310E,
SjonNmb_RxyC-I-SkB2lmQ,creativeclicks,801817_78,Install,1.12,118.200.186.239,BC9181FC-783A-4712-86B1-639A5192C685,1556776334,2019-05-02 13:52:14,1556776378,2019-05-02 13:52:58,1556776408,f0bdfd25-16ee-451a-a679-7e6476947377,http://cl.untildogtop.com/t/pb?leadid=f0bdfd25-16ee-451a-a679-7e6476947377,idfa_BC9181FC-783A-4712-86B1-639A5192C685,
SjonNmb_RxyC-I-SkB2lmQ,creativeclicks,801817_78,Install,1.12,183.90.36.124,042D06CD-E8A6-4824-9FA9-4489773B73F2,1556775774,2019-05-02 13:42:54,1556775810,2019-05-02 13:43:30,1556775840,7912f66d-f638-492d-8952-d93a42508fd6,http://cl.untildogtop.com/t/pb?leadid=7912f66d-f638-492d-8952-d93a42508fd6,idfa_042D06CD-E8A6-4824-9FA9-4489773B73F2,
SjonNmb_RxyC-I-SkB2lmQ,creativeclicks,801817_78,Install,1.12,128.106.240.15,75EDF09F-95CC-49F3-AFC5-6DBDE550E2E8,1556797350,2019-05-02 19:42:30,1556797395,2019-05-02 19:43:15,1556797425,735222a7-0a1f-457d-b6f8-441e7b997f9c,http://cl.untildogtop.com/t/pb?leadid=735222a7-0a1f-457d-b6f8-441e7b997f9c,idfa_75EDF09F-95CC-49F3-AFC5-6DBDE550E2E8,
SjonNmb_RxyC-I-SkB2lmQ,creativeclicks,801817_78,Install,1.12,115.66.241.109,1551834B-BBE6-4670-A90E-C2A8BAB77DBA,1556814006,2019-05-03 00:20:06,1556814044,2019-05-03 00:20:44,1556814074,6db7bd9d-ab25-4c71-bd7c-b375feee165d,http://cl.untildogtop.com/t/pb?leadid=6db7bd9d-ab25-4c71-bd7c-b375feee165d,idfa_1551834B-BBE6-4670-A90E-C2A8BAB77DBA,
SjonNmb_RxyC-I-SkB2lmQ,creativeclicks,801817_78,Install,1.12,45.114.4.195,942E7BAE-7E40-46AF-9A72-6F961AAB503C,1556796297,2019-05-02 19:24:57,1556796334,2019-05-02 19:25:34,1556796364,0e99aef5-d24d-4c8e-9f67-7f62588dc798,http://cl.untildogtop.com/t/pb?leadid=0e99aef5-d24d-4c8e-9f67-7f62588dc798,idfa_942E7BAE-7E40-46AF-9A72-6F961AAB503C,
SjonNmb_RxyC-I-SkB2lmQ,creativeclicks,801817_78,Install,1.12,203.118.39.181,AF824D85-60EB-47A1-A16E-13412F13507B,1556797818,2019-05-02 19:50:18,1556797852,2019-05-02 19:50:52,1556797882,5b817cd1-89d2-4d66-97ef-a149b4d8b618,http://cl.untildogtop.com/t/pb?leadid=5b817cd1-89d2-4d66-97ef-a149b4d8b618,idfa_AF824D85-60EB-47A1-A16E-13412F13507B,
SjonNmb_RxyC-I-SkB2lmQ,creativeclicks,801817_78,Install,1.12,112.199.156.182,83254E0D-AB78-4A61-A446-9613A61566CF,1556776149,2019-05-02 13:49:09,1556776183,2019-05-02 13:49:43,1556776213,d22f2ef5-eec2-488a-bbaa-a9de4eff6cc9,http://cl.untildogtop.com/t/pb?leadid=d22f2ef5-eec2-488a-bbaa-a9de4eff6cc9,idfa_83254E0D-AB78-4A61-A446-9613A61566CF,
SjonNmb_RxyC-I-SkB2lmQ,creativeclicks,801817_78,Install,1.12,116.89.46.10,1F0A3467-E54D-4766-B0B2-17F2E5BA6021,1556813220,2019-05-03 00:07:00,1556813265,2019-05-03 00:07:45,1556813296,e8101b04-a354-4786-b801-d18915d1c203,http://cl.untildogtop.com/t/pb?leadid=e8101b04-a354-4786-b801-d18915d1c203,idfa_1F0A3467-E54D-4766-B0B2-17F2E5BA6021,
SjonNmb_RxyC-I-SkB2lmQ,creativeclicks,801817_78,Install,1.12,219.74.230.102,4D1FA590-603C-46D7-A97B-EB20D67C3AFE,1556814388,2019-05-03 00:26:28,1556814434,2019-05-03 00:27:14,1556814464,40219a89-6ba9-4c99-9bdd-29322f8d913c,http://cl.untildogtop.com/t/pb?leadid=40219a89-6ba9-4c99-9bdd-29322f8d913c,idfa_4D1FA590-603C-46D7-A97B-EB20D67C3AFE,
SjonNmb_RxyC-I-SkB2lmQ,creativeclicks,801817_78,Install,1.12,182.55.61.51,49FB1250-A757-41ED-961C-EF4211314DC1,1556811546,2019-05-02 23:39:06,1556811587,2019-05-02 23:39:47,1556811618,f2341c98-78de-4bcf-9140-d7fafe0bc704,http://cl.untildogtop.com/t/pb?leadid=f2341c98-78de-4bcf-9140-d7fafe0bc704,idfa_49FB1250-A757-41ED-961C-EF4211314DC1,
SjonNmb_RxyC-I-SkB2lmQ,creativeclicks,801817_78,Install,1.12,116.86.33.218,3D50D8B5-8BD5-42C9-8916-CA368ED4199A,1556813035,2019-05-03 00:03:55,1556813071,2019-05-03 00:04:31,1556813103,f0eb77e9-9dd7-433c-babc-27c13feb5bb5,http://cl.untildogtop.com/t/pb?leadid=f0eb77e9-9dd7-433c-babc-27c13feb5bb5,idfa_3D50D8B5-8BD5-42C9-8916-CA368ED4199A,
SjonNmb_RxyC-I-SkB2lmQ,creativeclicks,801817_78,Install,1.12,121.7.29.150,6CF20F22-8752-4D4D-83DE-8C0FDC038379,1556810224,2019-05-02 23:17:04,1556810287,2019-05-02 23:18:07,1556810317,4734fd6a-231a-4232-b812-231df21de40e,http://cl.untildogtop.com/t/pb?leadid=4734fd6a-231a-4232-b812-231df21de40e,idfa_6CF20F22-8752-4D4D-83DE-8C0FDC038379,
SjonNmb_RxyC-I-SkB2lmQ,creativeclicks,801817_78,Install,1.12,42.60.37.101,67954E85-06B9-45EE-A5D9-51E043E60383,1556796103,2019-05-02 19:21:43,1556796152,2019-05-02 19:22:32,1556796182,31b63a1e-d7c4-4512-8492-fb632bf716f7,http://cl.untildogtop.com/t/pb?leadid=31b63a1e-d7c4-4512-8492-fb632bf716f7,idfa_67954E85-06B9-45EE-A5D9-51E043E60383,
SjonNmb_RxyC-I-SkB2lmQ,creativeclicks,801817_78,Install,1.12,42.61.127.86,A660E335-8E7F-40E7-A394-A6B14DBE6D4D,1556812191,2019-05-02 23:49:51,1556812234,2019-05-02 23:50:34,1556812264,d8cdc20d-a59b-441c-bb76-7bfab0b89c3a,http://cl.untildogtop.com/t/pb?leadid=d8cdc20d-a59b-441c-bb76-7bfab0b89c3a,idfa_A660E335-8E7F-40E7-A394-A6B14DBE6D4D,
