cid,partner_id,channel_id,action_id,cpi,ip,idfa,click time,click datetime,install time,install datetime,postback time,click id,postback url,unique user id
i5O3gARSQWGPMCgl9or_Zw,creativeclicks,802987_8apgv5p24m5heydes2df,Install,2.0,115.23.175.16,ad0c45f6-1251-4a8d-961c-438897e036a0,1558980633,2019-05-28 02:10:33,1558980832,2019-05-28 02:13:52,1558980863,970950c3-d2df-48d2-8879-89544df7aa08,http://cl.untildogtop.com/t/pb?leadid=970950c3-d2df-48d2-8879-89544df7aa08,idfa_ad0c45f6-1251-4a8d-961c-438897e036a0,%ED%95%9C%EA%B5%AD%EC%96%B4
i5O3gARSQWGPMCgl9or_Zw,creativeclicks,802987_8apgv5p24m5heydes2df,Install,2.0,124.111.56.233,6d195ac7-6152-4e0e-a5da-112c6dce97a7,1558980914,2019-05-28 02:15:14,1558981088,2019-05-28 02:18:08,1558981119,c2d2a9c2-4e98-48ea-9ffb-e2e9282bff77,http://cl.untildogtop.com/t/pb?leadid=c2d2a9c2-4e98-48ea-9ffb-e2e9282bff77,idfa_6d195ac7-6152-4e0e-a5da-112c6dce97a7,%ED%95%9C%EA%B5%AD%EC%96%B4
i5O3gARSQWGPMCgl9or_Zw,creativeclicks,802987_8apgv5p24m5heydes2df,Install,2.0,121.144.77.222,1e46e136-e10c-42ef-8a81-afd79dfd0c96,1558980943,2019-05-28 02:15:43,1558981136,2019-05-28 02:18:56,1558981167,8282d1e9-77e4-4a33-856c-d33736453e3f,http://cl.untildogtop.com/t/pb?leadid=8282d1e9-77e4-4a33-856c-d33736453e3f,idfa_1e46e136-e10c-42ef-8a81-afd79dfd0c96,%ED%95%9C%EA%B5%AD%EC%96%B4
i5O3gARSQWGPMCgl9or_Zw,creativeclicks,802987_8apgv5p24m5heydes2df,Install,2.0,58.227.253.85,739e70e4-8822-4ac2-9355-9902bb6a0e21,1558980333,2019-05-28 02:05:33,1558980500,2019-05-28 02:08:20,1558980531,c6297080-c54a-4dbf-ac54-bf4555db88bf,http://cl.untildogtop.com/t/pb?leadid=c6297080-c54a-4dbf-ac54-bf4555db88bf,idfa_739e70e4-8822-4ac2-9355-9902bb6a0e21,%ED%95%9C%EA%B5%AD%EC%96%B4
i5O3gARSQWGPMCgl9or_Zw,creativeclicks,802987_8apgv5p24m5heydes2df,Install,2.0,122.35.187.85,2486f4ee-e908-4748-88d8-7f1ac2a7e765,1558984084,2019-05-28 03:08:04,1558984254,2019-05-28 03:10:54,1558984285,285aff8f-643c-4a42-976f-1021a439b852,http://cl.untildogtop.com/t/pb?leadid=285aff8f-643c-4a42-976f-1021a439b852,idfa_2486f4ee-e908-4748-88d8-7f1ac2a7e765,%ED%95%9C%EA%B5%AD%EC%96%B4
i5O3gARSQWGPMCgl9or_Zw,creativeclicks,802987_8apgv5p24m5heydes2df,Install,2.0,110.15.213.116,eaea2680-e166-4ca6-b4db-854e5992ef6f,1558981471,2019-05-28 02:24:31,1558981590,2019-05-28 02:26:30,1558981620,2f7ce779-eb01-4c1b-9744-6950c1474ba5,http://cl.untildogtop.com/t/pb?leadid=2f7ce779-eb01-4c1b-9744-6950c1474ba5,idfa_eaea2680-e166-4ca6-b4db-854e5992ef6f,%ED%95%9C%EA%B5%AD%EC%96%B4
i5O3gARSQWGPMCgl9or_Zw,creativeclicks,802987_8apgv5p24m5heydes2df,Install,2.0,27.35.93.142,eadaf2fb-d0f6-4887-82ad-4e7846e0683f,1558984384,2019-05-28 03:13:04,1558984569,2019-05-28 03:16:09,1558984600,474dedbc-5f41-4213-91e7-45532426034a,http://cl.untildogtop.com/t/pb?leadid=474dedbc-5f41-4213-91e7-45532426034a,idfa_eadaf2fb-d0f6-4887-82ad-4e7846e0683f,%ED%95%9C%EA%B5%AD%EC%96%B4
i5O3gARSQWGPMCgl9or_Zw,creativeclicks,802987_8apgv5p24m5heydes2df,Install,2.0,121.181.57.67,f5062e74-3d9a-4e21-a8e9-fd086ce97ca7,1558982183,2019-05-28 02:36:23,1558982309,2019-05-28 02:38:29,1558982340,4e32ccb2-7385-49b3-8695-37e89cc836a1,http://cl.untildogtop.com/t/pb?leadid=4e32ccb2-7385-49b3-8695-37e89cc836a1,idfa_f5062e74-3d9a-4e21-a8e9-fd086ce97ca7,%ED%95%9C%EA%B5%AD%EC%96%B4
i5O3gARSQWGPMCgl9or_Zw,creativeclicks,802987_8apgv5p24m5heydes2df,Install,2.0,110.35.40.75,7d7b11cb-30dc-4cb7-ae76-1fcfc018251b,1558980157,2019-05-28 02:02:37,1558980334,2019-05-28 02:05:34,1558980365,61a4b250-b336-40cf-8d5b-29a6d12f7bb0,http://cl.untildogtop.com/t/pb?leadid=61a4b250-b336-40cf-8d5b-29a6d12f7bb0,idfa_7d7b11cb-30dc-4cb7-ae76-1fcfc018251b,%ED%95%9C%EA%B5%AD%EC%96%B4
i5O3gARSQWGPMCgl9or_Zw,creativeclicks,802987_8apgv5p24m5heydes2df,Install,2.0,1.249.255.50,3e6dc02c-7e43-4f0b-8526-c86369ec8c41,1558981078,2019-05-28 02:17:58,1558981222,2019-05-28 02:20:22,1558981253,cb4126cc-d9c4-4c26-98fa-a6a3fee07f26,http://cl.untildogtop.com/t/pb?leadid=cb4126cc-d9c4-4c26-98fa-a6a3fee07f26,idfa_3e6dc02c-7e43-4f0b-8526-c86369ec8c41,%ED%95%9C%EA%B5%AD%EC%96%B4
i5O3gARSQWGPMCgl9or_Zw,creativeclicks,802987_8apgv5p24m5heydes2df,Install,2.0,218.155.229.87,2a5f8372-07bf-4733-ad17-73b52a9f6adc,1558979606,2019-05-28 01:53:26,1558979754,2019-05-28 01:55:54,1558979784,6ed3cfe6-4c2b-49e9-9768-8629eea7b2f7,http://cl.untildogtop.com/t/pb?leadid=6ed3cfe6-4c2b-49e9-9768-8629eea7b2f7,idfa_2a5f8372-07bf-4733-ad17-73b52a9f6adc,%ED%95%9C%EA%B5%AD%EC%96%B4
i5O3gARSQWGPMCgl9or_Zw,creativeclicks,802987_8apgv5p24m5heydes2df,Install,2.0,223.39.150.100,7cf3fa7d-9776-4c3d-8e81-7f3cc8bcb0c2,1558984542,2019-05-28 03:15:42,1558984674,2019-05-28 03:17:54,1558984706,686ef355-704a-41aa-bd39-de281415530d,http://cl.untildogtop.com/t/pb?leadid=686ef355-704a-41aa-bd39-de281415530d,idfa_7cf3fa7d-9776-4c3d-8e81-7f3cc8bcb0c2,%ED%95%9C%EA%B5%AD%EC%96%B4
i5O3gARSQWGPMCgl9or_Zw,creativeclicks,802987_8apgv5p24m5heydes2df,Install,2.0,1.230.209.9,6b1e2de7-54ac-464c-a7a4-e02de288df52,1558983953,2019-05-28 03:05:53,1558984100,2019-05-28 03:08:20,1558984131,3c581266-5f0b-466f-83a4-f12ef88cbe20,http://cl.untildogtop.com/t/pb?leadid=3c581266-5f0b-466f-83a4-f12ef88cbe20,idfa_6b1e2de7-54ac-464c-a7a4-e02de288df52,%ED%95%9C%EA%B5%AD%EC%96%B4
i5O3gARSQWGPMCgl9or_Zw,creativeclicks,802987_8apgv5p24m5heydes2df,Install,2.0,182.31.99.31,ad66b48d-8dcb-4f93-b578-8833c9912c11,1558983055,2019-05-28 02:50:55,1558983179,2019-05-28 02:52:59,1558983210,4e18401e-1b7e-4d7f-bf5c-d8ca1102311d,http://cl.untildogtop.com/t/pb?leadid=4e18401e-1b7e-4d7f-bf5c-d8ca1102311d,idfa_ad66b48d-8dcb-4f93-b578-8833c9912c11,%ED%95%9C%EA%B5%AD%EC%96%B4
i5O3gARSQWGPMCgl9or_Zw,creativeclicks,802987_8apgv5p24m5heydes2df,Install,2.0,211.49.63.146,4db3a4b6-bb77-4e07-ac35-b9cf3ecacdcf,1558981377,2019-05-28 02:22:57,1558981514,2019-05-28 02:25:14,1558981545,f27fdd5b-1fb6-4013-b81a-0bf040edfbcf,http://cl.untildogtop.com/t/pb?leadid=f27fdd5b-1fb6-4013-b81a-0bf040edfbcf,idfa_4db3a4b6-bb77-4e07-ac35-b9cf3ecacdcf,%ED%95%9C%EA%B5%AD%EC%96%B4
i5O3gARSQWGPMCgl9or_Zw,creativeclicks,802987_8apgv5p24m5heydes2df,Install,2.0,211.44.208.171,26807d23-e20b-419d-b819-79e7b131b399,1558984234,2019-05-28 03:10:34,1558984434,2019-05-28 03:13:54,1558984465,a0702b96-deeb-483a-b075-093843525934,http://cl.untildogtop.com/t/pb?leadid=a0702b96-deeb-483a-b075-093843525934,idfa_26807d23-e20b-419d-b819-79e7b131b399,%ED%95%9C%EA%B5%AD%EC%96%B4
i5O3gARSQWGPMCgl9or_Zw,creativeclicks,802987_8apgv5p24m5heydes2df,Install,2.0,115.143.252.66,e370fe34-e584-4892-804f-c258c8a0480b,1558982852,2019-05-28 02:47:32,1558982977,2019-05-28 02:49:37,1558983009,2049eda7-af0a-4cad-9124-f44d4a29298b,http://cl.untildogtop.com/t/pb?leadid=2049eda7-af0a-4cad-9124-f44d4a29298b,idfa_e370fe34-e584-4892-804f-c258c8a0480b,%ED%95%9C%EA%B5%AD%EC%96%B4
i5O3gARSQWGPMCgl9or_Zw,creativeclicks,802987_8apgv5p24m5heydes2df,Install,2.0,220.86.9.106,d0106d0b-8a44-4425-95c1-2253b8c2fc08,1558981773,2019-05-28 02:29:33,1558981890,2019-05-28 02:31:30,1558981920,77028da6-e6a5-4be6-8332-ea3e38d32930,http://cl.untildogtop.com/t/pb?leadid=77028da6-e6a5-4be6-8332-ea3e38d32930,idfa_d0106d0b-8a44-4425-95c1-2253b8c2fc08,%ED%95%9C%EA%B5%AD%EC%96%B4
i5O3gARSQWGPMCgl9or_Zw,creativeclicks,802987_8apgv5p24m5heydes2df,Install,2.0,61.42.84.216,327de2d5-8a54-4b72-b355-6096f242aee8,1558980639,2019-05-28 02:10:39,1558980813,2019-05-28 02:13:33,1558980843,20c8cc57-fa08-400a-b92e-ce7381f044ae,http://cl.untildogtop.com/t/pb?leadid=20c8cc57-fa08-400a-b92e-ce7381f044ae,idfa_327de2d5-8a54-4b72-b355-6096f242aee8,%ED%95%9C%EA%B5%AD%EC%96%B4
i5O3gARSQWGPMCgl9or_Zw,creativeclicks,802987_8apgv5p24m5heydes2df,Install,2.0,124.50.71.135,670e6b04-bfe3-4353-9c2c-2c0a8de53bd5,1558983046,2019-05-28 02:50:46,1558983160,2019-05-28 02:52:40,1558983190,4a1a6df4-338e-4254-a025-e70064776ec2,http://cl.untildogtop.com/t/pb?leadid=4a1a6df4-338e-4254-a025-e70064776ec2,idfa_670e6b04-bfe3-4353-9c2c-2c0a8de53bd5,%ED%95%9C%EA%B5%AD%EC%96%B4
i5O3gARSQWGPMCgl9or_Zw,creativeclicks,802987_8apgv5p24m5heydes2df,Install,2.0,211.177.33.213,7e25b7a7-956d-434b-aa61-eb5dc23f2c19,1558984406,2019-05-28 03:13:26,1558984563,2019-05-28 03:16:03,1558984594,b529402f-dfe5-4804-8a26-31ec4162118d,http://cl.untildogtop.com/t/pb?leadid=b529402f-dfe5-4804-8a26-31ec4162118d,idfa_7e25b7a7-956d-434b-aa61-eb5dc23f2c19,%ED%95%9C%EA%B5%AD%EC%96%B4
i5O3gARSQWGPMCgl9or_Zw,creativeclicks,802987_8apgv5p24m5heydes2df,Install,2.0,222.117.190.23,e6155eff-ce2b-4e7c-9032-052368e1ffd5,1558981204,2019-05-28 02:20:04,1558981356,2019-05-28 02:22:36,1558981386,0d3ccf60-0721-4f09-9386-91d1110dd03f,http://cl.untildogtop.com/t/pb?leadid=0d3ccf60-0721-4f09-9386-91d1110dd03f,idfa_e6155eff-ce2b-4e7c-9032-052368e1ffd5,%ED%95%9C%EA%B5%AD%EC%96%B4
i5O3gARSQWGPMCgl9or_Zw,creativeclicks,802987_8apgv5p24m5heydes2df,Install,2.0,125.176.140.171,4f257677-f457-482a-818d-1159578a3fab,1558984679,2019-05-28 03:17:59,1558984829,2019-05-28 03:20:29,1558984860,b7407daf-eb43-4d51-85bb-f9e429a95866,http://cl.untildogtop.com/t/pb?leadid=b7407daf-eb43-4d51-85bb-f9e429a95866,idfa_4f257677-f457-482a-818d-1159578a3fab,%ED%95%9C%EA%B5%AD%EC%96%B4
i5O3gARSQWGPMCgl9or_Zw,creativeclicks,802987_8apgv5p24m5heydes2df,Install,2.0,59.29.66.146,e8220213-93bf-4419-8810-4a8b85c1b151,1558983443,2019-05-28 02:57:23,1558983592,2019-05-28 02:59:52,1558983623,faba9ce3-de28-40aa-aaf6-71c89734aa2e,http://cl.untildogtop.com/t/pb?leadid=faba9ce3-de28-40aa-aaf6-71c89734aa2e,idfa_e8220213-93bf-4419-8810-4a8b85c1b151,%ED%95%9C%EA%B5%AD%EC%96%B4
i5O3gARSQWGPMCgl9or_Zw,creativeclicks,802987_8apgv5p24m5heydes2df,Install,2.0,210.210.237.2,edadd735-6aeb-46e2-992a-6b9ae4f0f8af,1558980474,2019-05-28 02:07:54,1558980640,2019-05-28 02:10:40,1558980672,ef55e639-ee84-44ee-b0e7-cffeaf3c3617,http://cl.untildogtop.com/t/pb?leadid=ef55e639-ee84-44ee-b0e7-cffeaf3c3617,idfa_edadd735-6aeb-46e2-992a-6b9ae4f0f8af,%ED%95%9C%EA%B5%AD%EC%96%B4
i5O3gARSQWGPMCgl9or_Zw,creativeclicks,802987_8apgv5p24m5heydes2df,Install,2.0,14.34.190.205,763ef99a-69c4-4004-aada-97bb9953af10,1558981640,2019-05-28 02:27:20,1558981783,2019-05-28 02:29:43,1558981813,0616601d-2bba-4269-aaf9-0260b9106c6b,http://cl.untildogtop.com/t/pb?leadid=0616601d-2bba-4269-aaf9-0260b9106c6b,idfa_763ef99a-69c4-4004-aada-97bb9953af10,%ED%95%9C%EA%B5%AD%EC%96%B4
i5O3gARSQWGPMCgl9or_Zw,creativeclicks,802987_8apgv5p24m5heydes2df,Install,2.0,121.166.50.124,4a807488-9ef6-415b-8af2-426c392b5b3e,1558981341,2019-05-28 02:22:21,1558981461,2019-05-28 02:24:21,1558981492,4e45338a-151c-47ed-b1fd-50dc7aa57428,http://cl.untildogtop.com/t/pb?leadid=4e45338a-151c-47ed-b1fd-50dc7aa57428,idfa_4a807488-9ef6-415b-8af2-426c392b5b3e,%ED%95%9C%EA%B5%AD%EC%96%B4
i5O3gARSQWGPMCgl9or_Zw,creativeclicks,802987_8apgv5p24m5heydes2df,Install,2.0,110.8.17.170,4c48692b-0973-42c6-8934-dcb14b49637c,1558982589,2019-05-28 02:43:09,1558982740,2019-05-28 02:45:40,1558982771,8a86c6c9-03a1-4e43-874c-a4140436e442,http://cl.untildogtop.com/t/pb?leadid=8a86c6c9-03a1-4e43-874c-a4140436e442,idfa_4c48692b-0973-42c6-8934-dcb14b49637c,%ED%95%9C%EA%B5%AD%EC%96%B4
i5O3gARSQWGPMCgl9or_Zw,creativeclicks,802987_8apgv5p24m5heydes2df,Install,2.0,125.176.227.110,ad399280-f5ee-4d92-bbe2-bfb93cea60d5,1558984249,2019-05-28 03:10:49,1558984399,2019-05-28 03:13:19,1558984431,69aa175a-e871-42c5-8945-58c9027e27c7,http://cl.untildogtop.com/t/pb?leadid=69aa175a-e871-42c5-8945-58c9027e27c7,idfa_ad399280-f5ee-4d92-bbe2-bfb93cea60d5,%ED%95%9C%EA%B5%AD%EC%96%B4
i5O3gARSQWGPMCgl9or_Zw,creativeclicks,802987_8apgv5p24m5heydes2df,Install,2.0,221.164.123.97,f3b4e497-0068-4674-886d-c470565b279e,1558980001,2019-05-28 02:00:01,1558980200,2019-05-28 02:03:20,1558980230,920df96e-5750-4c46-88d8-c8c17d4ec5fd,http://cl.untildogtop.com/t/pb?leadid=920df96e-5750-4c46-88d8-c8c17d4ec5fd,idfa_f3b4e497-0068-4674-886d-c470565b279e,%ED%95%9C%EA%B5%AD%EC%96%B4
i5O3gARSQWGPMCgl9or_Zw,creativeclicks,802987_8apgv5p24m5heydes2df,Install,2.0,122.32.61.105,36fcb4a7-f0f8-42e4-b6c2-c912c83b0b1f,1558979861,2019-05-28 01:57:41,1558980055,2019-05-28 02:00:55,1558980086,fbd9e8f6-515c-4b34-bb1d-ece3ca5b2572,http://cl.untildogtop.com/t/pb?leadid=fbd9e8f6-515c-4b34-bb1d-ece3ca5b2572,idfa_36fcb4a7-f0f8-42e4-b6c2-c912c83b0b1f,%ED%95%9C%EA%B5%AD%EC%96%B4
i5O3gARSQWGPMCgl9or_Zw,creativeclicks,802987_8apgv5p24m5heydes2df,Install,2.0,211.218.227.35,b032f3a6-a902-4fe6-872b-c3b2f2802441,1558984686,2019-05-28 03:18:06,1558984857,2019-05-28 03:20:57,1558984888,b3fddb96-4cdc-413c-85ef-ad3d87863dde,http://cl.untildogtop.com/t/pb?leadid=b3fddb96-4cdc-413c-85ef-ad3d87863dde,idfa_b032f3a6-a902-4fe6-872b-c3b2f2802441,%ED%95%9C%EA%B5%AD%EC%96%B4
i5O3gARSQWGPMCgl9or_Zw,creativeclicks,802987_8apgv5p24m5heydes2df,Install,2.0,175.115.58.46,15f88c7f-e5ea-4f4b-8440-6b7504e0b713,1558981634,2019-05-28 02:27:14,1558981785,2019-05-28 02:29:45,1558981817,fbaf6b98-f7d8-49cb-91ed-cf8bc66fbd86,http://cl.untildogtop.com/t/pb?leadid=fbaf6b98-f7d8-49cb-91ed-cf8bc66fbd86,idfa_15f88c7f-e5ea-4f4b-8440-6b7504e0b713,%ED%95%9C%EA%B5%AD%EC%96%B4
i5O3gARSQWGPMCgl9or_Zw,creativeclicks,802987_8apgv5p24m5heydes2df,Install,2.0,61.253.194.39,e391da9d-6d67-47c2-97b5-d40386b12840,1558983640,2019-05-28 03:00:40,1558983852,2019-05-28 03:04:12,1558983883,3e41dbc7-607b-425b-b6f3-b5ed8e930634,http://cl.untildogtop.com/t/pb?leadid=3e41dbc7-607b-425b-b6f3-b5ed8e930634,idfa_e391da9d-6d67-47c2-97b5-d40386b12840,%ED%95%9C%EA%B5%AD%EC%96%B4
i5O3gARSQWGPMCgl9or_Zw,creativeclicks,802987_8apgv5p24m5heydes2df,Install,2.0,122.46.161.252,98485f3c-3333-4f02-9b53-12391e3543d3,1558982584,2019-05-28 02:43:04,1558982722,2019-05-28 02:45:22,1558982754,a273c9ca-9007-4026-a001-676cea7f4f67,http://cl.untildogtop.com/t/pb?leadid=a273c9ca-9007-4026-a001-676cea7f4f67,idfa_98485f3c-3333-4f02-9b53-12391e3543d3,%ED%95%9C%EA%B5%AD%EC%96%B4
i5O3gARSQWGPMCgl9or_Zw,creativeclicks,802987_8apgv5p24m5heydes2df,Install,2.0,210.124.155.49,20d69cb9-8cf9-4c56-a031-0c6ec95fa2cf,1558983922,2019-05-28 03:05:22,1558984099,2019-05-28 03:08:19,1558984130,b64be6cd-1222-4a50-b5cf-484870690e58,http://cl.untildogtop.com/t/pb?leadid=b64be6cd-1222-4a50-b5cf-484870690e58,idfa_20d69cb9-8cf9-4c56-a031-0c6ec95fa2cf,%ED%95%9C%EA%B5%AD%EC%96%B4
i5O3gARSQWGPMCgl9or_Zw,creativeclicks,802987_8apgv5p24m5heydes2df,Install,2.0,123.248.251.251,e9b7128a-6083-47b0-b546-3bb7c2581e5f,1558983178,2019-05-28 02:52:58,1558983320,2019-05-28 02:55:20,1558983351,90396a77-987e-4e37-9ea3-bcc5f3d2764f,http://cl.untildogtop.com/t/pb?leadid=90396a77-987e-4e37-9ea3-bcc5f3d2764f,idfa_e9b7128a-6083-47b0-b546-3bb7c2581e5f,%ED%95%9C%EA%B5%AD%EC%96%B4
