cid,partner_id,channel_id,action_id,cpi,ip,idfa,click time,click datetime,install time,install datetime,postback time,click id,postback url,unique user id
jw6A-rIST5Cn-BSBWsp94w,creativeclicks,801791_211_23_759623_05823-05157,install,3.3,133.218.241.239,A49ED0D4-1006-4B65-AC1F-964A58233868,1558056774,2019-05-17 09:32:54,1558056833,2019-05-17 09:33:53,1558056864,8f048d4c-57a4-4bf2-9af8-6e80c9f36b81,http://cl.untildogtop.com/t/pb?leadid=8f048d4c-57a4-4bf2-9af8-6e80c9f36b81,idfa_A49ED0D4-1006-4B65-AC1F-964A58233868,ja
jw6A-rIST5Cn-BSBWsp94w,creativeclicks,801791_211_23_759623_05823-05157,install,3.3,124.102.186.234,DB886D15-9BF2-4017-891C-3959EEC7817F,1558056411,2019-05-17 09:26:51,1558056483,2019-05-17 09:28:03,1558056515,ad464eb9-68ae-4cbf-b907-ed9ef0adde1f,http://cl.untildogtop.com/t/pb?leadid=ad464eb9-68ae-4cbf-b907-ed9ef0adde1f,idfa_DB886D15-9BF2-4017-891C-3959EEC7817F,ja
jw6A-rIST5Cn-BSBWsp94w,creativeclicks,801791_211_23_759623_05823-05157,install,3.3,175.132.54.203,30D26EE8-3F27-4EAD-9A7B-0AFACA9DC111,1558056283,2019-05-17 09:24:43,1558056350,2019-05-17 09:25:50,1558056381,6f3343af-5959-46bf-ad95-914d61c31437,http://cl.untildogtop.com/t/pb?leadid=6f3343af-5959-46bf-ad95-914d61c31437,idfa_30D26EE8-3F27-4EAD-9A7B-0AFACA9DC111,ja
jw6A-rIST5Cn-BSBWsp94w,creativeclicks,801791_211_23_759623_05823-05157,install,3.3,106.172.106.29,3D2B11E8-C0FE-4FA9-8E46-7AC6AACB1BEE,1558055645,2019-05-17 09:14:05,1558055783,2019-05-17 09:16:23,1558055815,b4e6eb73-b1f9-4f83-8247-b7ca2d45c881,http://cl.untildogtop.com/t/pb?leadid=b4e6eb73-b1f9-4f83-8247-b7ca2d45c881,idfa_3D2B11E8-C0FE-4FA9-8E46-7AC6AACB1BEE,ja
jw6A-rIST5Cn-BSBWsp94w,creativeclicks,801791_211_23_759623_05823-05157,install,3.3,183.86.179.5,05FDB583-2879-4301-BBDE-BBDB8C136CC6,1558055481,2019-05-17 09:11:21,1558055559,2019-05-17 09:12:39,1558055589,35bfa667-0682-4bb1-a65c-2012d3536572,http://cl.untildogtop.com/t/pb?leadid=35bfa667-0682-4bb1-a65c-2012d3536572,idfa_05FDB583-2879-4301-BBDE-BBDB8C136CC6,ja
jw6A-rIST5Cn-BSBWsp94w,creativeclicks,801791_211_23_759623_05823-05157,install,3.3,59.85.136.170,D87ABB19-5A0A-4EE4-8A81-5E52DF83DDB3,1558055729,2019-05-17 09:15:29,1558055798,2019-05-17 09:16:38,1558055829,59974b18-2e28-4531-8998-b92765683ec5,http://cl.untildogtop.com/t/pb?leadid=59974b18-2e28-4531-8998-b92765683ec5,idfa_D87ABB19-5A0A-4EE4-8A81-5E52DF83DDB3,ja
jw6A-rIST5Cn-BSBWsp94w,creativeclicks,801791_211_23_759623_05823-05157,install,3.3,60.238.243.35,FB69AFDA-D1A7-4EA3-8F3B-010C5400B9D5,1558056494,2019-05-17 09:28:14,1558056556,2019-05-17 09:29:16,1558056586,602bf7fd-68cc-44eb-aa44-5294df3737c0,http://cl.untildogtop.com/t/pb?leadid=602bf7fd-68cc-44eb-aa44-5294df3737c0,idfa_FB69AFDA-D1A7-4EA3-8F3B-010C5400B9D5,ja
jw6A-rIST5Cn-BSBWsp94w,creativeclicks,801791_211_23_759623_05823-05157,install,3.3,150.249.51.33,196B5659-7CED-4829-8CDB-DAEEB22E9D6A,1558055992,2019-05-17 09:19:52,1558056046,2019-05-17 09:20:46,1558056175,12714fc6-ca74-45b6-93ae-56f8ad2d0cb0,http://cl.untildogtop.com/t/pb?leadid=12714fc6-ca74-45b6-93ae-56f8ad2d0cb0,idfa_196B5659-7CED-4829-8CDB-DAEEB22E9D6A,ja
jw6A-rIST5Cn-BSBWsp94w,creativeclicks,801791_211_23_759623_05823-05157,install,3.3,153.122.52.22,DC1E6CD1-0FDB-436F-9CFA-838A44D4B553,1558055552,2019-05-17 09:12:32,1558055598,2019-05-17 09:13:18,1558055629,36d1e653-d154-4a98-97f7-c997709ba147,http://cl.untildogtop.com/t/pb?leadid=36d1e653-d154-4a98-97f7-c997709ba147,idfa_DC1E6CD1-0FDB-436F-9CFA-838A44D4B553,ja
jw6A-rIST5Cn-BSBWsp94w,creativeclicks,801791_211_23_759623_05823-05157,install,3.3,153.122.52.22,6FCFC167-53B5-4743-B36D-2867F059D584,1558056154,2019-05-17 09:22:34,1558056218,2019-05-17 09:23:38,1558056249,493ec933-aef5-4213-9fdd-ba891a567c67,http://cl.untildogtop.com/t/pb?leadid=493ec933-aef5-4213-9fdd-ba891a567c67,idfa_6FCFC167-53B5-4743-B36D-2867F059D584,ja
jw6A-rIST5Cn-BSBWsp94w,creativeclicks,801791_211_23_759623_05823-05157,install,3.3,182.21.224.242,A9D556BC-2A9C-469B-861E-A2FF7DF494DB,1558056143,2019-05-17 09:22:23,1558056214,2019-05-17 09:23:34,1558056245,8d83e151-8f20-444a-aa2f-0e28c497a972,http://cl.untildogtop.com/t/pb?leadid=8d83e151-8f20-444a-aa2f-0e28c497a972,idfa_A9D556BC-2A9C-469B-861E-A2FF7DF494DB,ja
jw6A-rIST5Cn-BSBWsp94w,creativeclicks,801791_211_23_759623_05823-05157,install,3.3,180.146.96.197,62B6135F-97E6-499A-9682-12EB45951B6C,1558055891,2019-05-17 09:18:11,1558055961,2019-05-17 09:19:21,1558055992,555fec6e-f81c-485e-9b27-85f335ca8251,http://cl.untildogtop.com/t/pb?leadid=555fec6e-f81c-485e-9b27-85f335ca8251,idfa_62B6135F-97E6-499A-9682-12EB45951B6C,ja
jw6A-rIST5Cn-BSBWsp94w,creativeclicks,801791_211_23_759623_05823-05157,install,3.3,112.71.215.62,C7D300A4-9B69-4728-8AA8-F4C2B6F3CF0E,1558055881,2019-05-17 09:18:01,1558055950,2019-05-17 09:19:10,1558055981,feda04ef-51bb-4579-bcdb-fd50be02d2f8,http://cl.untildogtop.com/t/pb?leadid=feda04ef-51bb-4579-bcdb-fd50be02d2f8,idfa_C7D300A4-9B69-4728-8AA8-F4C2B6F3CF0E,en
jw6A-rIST5Cn-BSBWsp94w,creativeclicks,801791_211_23_759623_05823-05157,install,3.3,218.47.244.22,66F9657F-77DF-4291-A90A-1D9E6F1AC1CD,1558056154,2019-05-17 09:22:34,1558056228,2019-05-17 09:23:48,1558056261,3e55dfa9-f352-401f-845e-d0d85c692388,http://cl.untildogtop.com/t/pb?leadid=3e55dfa9-f352-401f-845e-d0d85c692388,idfa_66F9657F-77DF-4291-A90A-1D9E6F1AC1CD,ja
jw6A-rIST5Cn-BSBWsp94w,creativeclicks,801791_211_23_759623_05823-05157,install,3.3,113.197.43.221,7A013CDB-C576-4300-B767-D553CE543B0C,1558056413,2019-05-17 09:26:53,1558056481,2019-05-17 09:28:01,1558056512,16a85b42-ed41-4c01-be7b-e0cada31ea8a,http://cl.untildogtop.com/t/pb?leadid=16a85b42-ed41-4c01-be7b-e0cada31ea8a,idfa_7A013CDB-C576-4300-B767-D553CE543B0C,ja
jw6A-rIST5Cn-BSBWsp94w,creativeclicks,801791_211_23_759623_05823-05157,install,3.3,119.230.154.222,2990D193-CFD1-4D85-B0AE-D99BF6FE0DEA,1558055525,2019-05-17 09:12:05,1558055569,2019-05-17 09:12:49,1558055600,4c3638b1-6f84-4993-9c78-a22e0c5f5c19,http://cl.untildogtop.com/t/pb?leadid=4c3638b1-6f84-4993-9c78-a22e0c5f5c19,idfa_2990D193-CFD1-4D85-B0AE-D99BF6FE0DEA,ja
jw6A-rIST5Cn-BSBWsp94w,creativeclicks,801791_211_23_759623_05823-05157,install,3.3,153.122.52.22,830F727B-A58A-444E-A4C1-063326E7AA76,1558055555,2019-05-17 09:12:35,1558055593,2019-05-17 09:13:13,1558055624,d6aabb94-5ba3-42f4-bc7f-17262fafa423,http://cl.untildogtop.com/t/pb?leadid=d6aabb94-5ba3-42f4-bc7f-17262fafa423,idfa_830F727B-A58A-444E-A4C1-063326E7AA76,ja
jw6A-rIST5Cn-BSBWsp94w,creativeclicks,801791_211_23_759623_05823-05157,install,3.3,202.136.192.151,E2B6D595-1D3A-479B-B192-19E3B7480983,1558056435,2019-05-17 09:27:15,1558056484,2019-05-17 09:28:04,1558056515,abe709c9-e1b5-43a2-98f3-5bd343c12fda,http://cl.untildogtop.com/t/pb?leadid=abe709c9-e1b5-43a2-98f3-5bd343c12fda,idfa_E2B6D595-1D3A-479B-B192-19E3B7480983,ja
jw6A-rIST5Cn-BSBWsp94w,creativeclicks,801791_211_23_759623_05823-05157,install,3.3,180.146.96.197,53156B69-87A2-405F-8A08-D3D88D3381B6,1558055907,2019-05-17 09:18:27,1558055979,2019-05-17 09:19:39,1558056010,674bf74b-0831-476a-80ad-ccf2a2b18487,http://cl.untildogtop.com/t/pb?leadid=674bf74b-0831-476a-80ad-ccf2a2b18487,idfa_53156B69-87A2-405F-8A08-D3D88D3381B6,ja
jw6A-rIST5Cn-BSBWsp94w,creativeclicks,801791_211_23_759623_05823-05157,install,3.3,218.41.1.132,EA57F426-CD45-4B7F-A87A-7CAEA568EE37,1558056392,2019-05-17 09:26:32,1558056456,2019-05-17 09:27:36,1558056487,5297c0bb-ff06-4296-9520-0ea4c2150f6a,http://cl.untildogtop.com/t/pb?leadid=5297c0bb-ff06-4296-9520-0ea4c2150f6a,idfa_EA57F426-CD45-4B7F-A87A-7CAEA568EE37,ja
jw6A-rIST5Cn-BSBWsp94w,creativeclicks,801791_211_23_759623_05823-05157,install,3.3,202.218.48.11,2E170272-2088-471F-AB65-35B5FCF58B0F,1558055967,2019-05-17 09:19:27,1558056028,2019-05-17 09:20:28,1558056059,e5452442-75e1-40ee-a1ee-2bd59b038573,http://cl.untildogtop.com/t/pb?leadid=e5452442-75e1-40ee-a1ee-2bd59b038573,idfa_2E170272-2088-471F-AB65-35B5FCF58B0F,ja
jw6A-rIST5Cn-BSBWsp94w,creativeclicks,801791_211_23_759623_05823-05157,install,3.3,36.11.225.170,C2E580DD-3C29-4913-B51F-2D8B8C39B390,1558056151,2019-05-17 09:22:31,1558056226,2019-05-17 09:23:46,1558056259,fc96700f-68fd-48fa-ae77-957c2862a3de,http://cl.untildogtop.com/t/pb?leadid=fc96700f-68fd-48fa-ae77-957c2862a3de,idfa_C2E580DD-3C29-4913-B51F-2D8B8C39B390,ja
jw6A-rIST5Cn-BSBWsp94w,creativeclicks,801791_211_23_759623_05823-05157,install,3.3,152.165.72.145,5AF014D6-CFD2-48B0-8EC6-1566AD9F8C3D,1558055767,2019-05-17 09:16:07,1558055821,2019-05-17 09:17:01,1558055852,1f828d5c-c9e2-4f2c-8e91-72e52b54e750,http://cl.untildogtop.com/t/pb?leadid=1f828d5c-c9e2-4f2c-8e91-72e52b54e750,idfa_5AF014D6-CFD2-48B0-8EC6-1566AD9F8C3D,ja
jw6A-rIST5Cn-BSBWsp94w,creativeclicks,801791_211_23_759623_05823-05157,install,3.3,124.211.210.40,9E023F5C-1CCC-4BE9-A978-8D1EA6505F65,1558056465,2019-05-17 09:27:45,1558056511,2019-05-17 09:28:31,1558056542,83f9d831-10dd-4372-b36e-8c4543bf419a,http://cl.untildogtop.com/t/pb?leadid=83f9d831-10dd-4372-b36e-8c4543bf419a,idfa_9E023F5C-1CCC-4BE9-A978-8D1EA6505F65,ja
jw6A-rIST5Cn-BSBWsp94w,creativeclicks,801791_211_23_759623_05823-05157,install,3.3,150.249.30.84,B03B28D8-0764-4366-8CF8-3B5D0A61618B,1558055310,2019-05-17 09:08:30,1558055359,2019-05-17 09:09:19,1558055390,3090290a-6199-4e81-b0ab-0b2287d076f3,http://cl.untildogtop.com/t/pb?leadid=3090290a-6199-4e81-b0ab-0b2287d076f3,idfa_B03B28D8-0764-4366-8CF8-3B5D0A61618B,ja
jw6A-rIST5Cn-BSBWsp94w,creativeclicks,801791_211_23_759623_05823-05157,install,3.3,114.161.97.118,FF820234-B29C-4655-B9D1-8051E6E77830,1558056215,2019-05-17 09:23:35,1558056264,2019-05-17 09:24:24,1558056295,1e48e94d-55fc-4baf-ba45-e51e50a53cd9,http://cl.untildogtop.com/t/pb?leadid=1e48e94d-55fc-4baf-ba45-e51e50a53cd9,idfa_FF820234-B29C-4655-B9D1-8051E6E77830,ja
