cid,partner_id,channel_id,action_id,cpi,ip,idfa,click time,click datetime,install time,install datetime,postback time,click id,postback url,unique user id
vMTedwsOTk2LLSQXhxcACQ,creativeclicks,800292_2465_,Install,1.0,211.216.58.204,329c3283-f999-4ae3-a05c-d31c5a301d06,1557554037,2019-05-11 13:53:57,1557554143,2019-05-11 13:55:43,1557554153,249a4673-a80c-49eb-b79c-d1df3af74d7a,http://cl.untildogtop.com/t/pb?leadid=249a4673-a80c-49eb-b79c-d1df3af74d7a,idfa_329c3283-f999-4ae3-a05c-d31c5a301d06,%ED%95%9C%EA%B5%AD%EC%96%B4
vMTedwsOTk2LLSQXhxcACQ,creativeclicks,800292_2465_,Install,1.0,112.222.184.51,06018175-4c58-48e2-8a98-2ef3638d600d,1557553714,2019-05-11 13:48:34,1557553811,2019-05-11 13:50:11,1557553820,4f0f0c3d-5647-491a-86fa-5604ae83048b,http://cl.untildogtop.com/t/pb?leadid=4f0f0c3d-5647-491a-86fa-5604ae83048b,idfa_06018175-4c58-48e2-8a98-2ef3638d600d,%ED%95%9C%EA%B5%AD%EC%96%B4
vMTedwsOTk2LLSQXhxcACQ,creativeclicks,800292_2465_,Install,1.0,1.255.70.114,70073362-8b82-4138-8d0b-0daed3d1d125,1557553277,2019-05-11 13:41:17,1557553337,2019-05-11 13:42:17,1557553346,e9ccb01a-700b-44cd-ab7e-dc8bb9e99e0b,http://cl.untildogtop.com/t/pb?leadid=e9ccb01a-700b-44cd-ab7e-dc8bb9e99e0b,idfa_70073362-8b82-4138-8d0b-0daed3d1d125,%ED%95%9C%EA%B5%AD%EC%96%B4
vMTedwsOTk2LLSQXhxcACQ,creativeclicks,800292_2465_,Install,1.0,14.243.115.184,05dde562-742e-4a6c-ad08-0793d9fc3a92,1557553997,2019-05-11 13:53:17,1557554080,2019-05-11 13:54:40,1557554089,4d8df56c-105d-4fbe-ad6f-4f70a0cc66f9,http://cl.untildogtop.com/t/pb?leadid=4d8df56c-105d-4fbe-ad6f-4f70a0cc66f9,idfa_05dde562-742e-4a6c-ad08-0793d9fc3a92,%ED%95%9C%EA%B5%AD%EC%96%B4
vMTedwsOTk2LLSQXhxcACQ,creativeclicks,800292_2465_,Install,1.0,119.204.177.120,910702a7-15cc-4ca6-a063-ab8ce0561573,1557554652,2019-05-11 14:04:12,1557554690,2019-05-11 14:04:50,1557554697,0c67cf96-be45-4f78-bbf4-ff85bde92e3a,http://cl.untildogtop.com/t/pb?leadid=0c67cf96-be45-4f78-bbf4-ff85bde92e3a,idfa_910702a7-15cc-4ca6-a063-ab8ce0561573,en
vMTedwsOTk2LLSQXhxcACQ,creativeclicks,800292_2465_,Install,1.0,211.54.74.50,44d8c3a1-5d8d-4f70-8735-e766e18b151d,1557297407,2019-05-08 14:36:47,1557297963,2019-05-08 14:46:03,1557297972,ba58c6ed-d795-46df-a02e-e45de95c4cd0,http://cl.untildogtop.com/t/pb?leadid=ba58c6ed-d795-46df-a02e-e45de95c4cd0,idfa_44d8c3a1-5d8d-4f70-8735-e766e18b151d,ko
vMTedwsOTk2LLSQXhxcACQ,creativeclicks,800292_2465_,Install,1.0,175.203.189.44,d3d0f1dd-204c-4c6b-a205-13ed57db0cb9,1557553671,2019-05-11 13:47:51,1557553763,2019-05-11 13:49:23,1557553773,897f6fca-896c-4e29-b965-7424fe9ff591,http://cl.untildogtop.com/t/pb?leadid=897f6fca-896c-4e29-b965-7424fe9ff591,idfa_d3d0f1dd-204c-4c6b-a205-13ed57db0cb9,%ED%95%9C%EA%B5%AD%EC%96%B4
