cid,partner_id,channel_id,action_id,cpi,ip,idfa,click time,click datetime,install time,install datetime,postback time,click id,postback url,unique user id
v7_Q1pm9QVS8Jj1K-187dA,creativeclicks,802987_j8mtn4ytdm64mp3n2pdt,install,2.5,150.249.80.85,6874634d-40bd-4603-8d92-c7ef7e82e422,1558993756,2019-05-28 05:49:16,1558993802,2019-05-28 05:50:02,1558993839,96e0e149-8301-462a-af34-de0f302829c7,http://cl.untildogtop.com/t/pb?leadid=96e0e149-8301-462a-af34-de0f302829c7,idfa_6874634d-40bd-4603-8d92-c7ef7e82e422,ko
v7_Q1pm9QVS8Jj1K-187dA,creativeclicks,802987_j8mtn4ytdm64mp3n2pdt,install,2.5,110.165.209.188,94bfb89f-525f-45c4-9e29-1f92f589f3f2,1558993674,2019-05-28 05:47:54,1558993741,2019-05-28 05:49:01,1558993776,15518d1f-e8f9-4a3c-a601-1e09a9c91c04,http://cl.untildogtop.com/t/pb?leadid=15518d1f-e8f9-4a3c-a601-1e09a9c91c04,idfa_94bfb89f-525f-45c4-9e29-1f92f589f3f2,ko
v7_Q1pm9QVS8Jj1K-187dA,creativeclicks,802987_j8mtn4ytdm64mp3n2pdt,install,2.5,126.63.226.251,a7995d69-467f-44f0-bda7-1147f86261f6,1558993676,2019-05-28 05:47:56,1558993733,2019-05-28 05:48:53,1558993770,bca905ff-1f7b-4d5c-b226-29a0c3511390,http://cl.untildogtop.com/t/pb?leadid=bca905ff-1f7b-4d5c-b226-29a0c3511390,idfa_a7995d69-467f-44f0-bda7-1147f86261f6,ko
v7_Q1pm9QVS8Jj1K-187dA,creativeclicks,802987_j8mtn4ytdm64mp3n2pdt,install,2.5,60.90.97.250,565349ff-ae98-4d4e-ae4a-d2f33f99c0e8,1558993630,2019-05-28 05:47:10,1558993730,2019-05-28 05:48:50,1558993766,a3a86726-aa82-4c07-9e80-972aedb8f113,http://cl.untildogtop.com/t/pb?leadid=a3a86726-aa82-4c07-9e80-972aedb8f113,idfa_565349ff-ae98-4d4e-ae4a-d2f33f99c0e8,ko
v7_Q1pm9QVS8Jj1K-187dA,creativeclicks,802987_j8mtn4ytdm64mp3n2pdt,install,2.5,180.25.2.49,d045696b-cc00-4c6d-b107-1f45c6d922fc,1558993650,2019-05-28 05:47:30,1558993706,2019-05-28 05:48:26,1558993739,e3330d2b-6b9c-45aa-8343-87666771e637,http://cl.untildogtop.com/t/pb?leadid=e3330d2b-6b9c-45aa-8343-87666771e637,idfa_d045696b-cc00-4c6d-b107-1f45c6d922fc,ko
v7_Q1pm9QVS8Jj1K-187dA,creativeclicks,802987_j8mtn4ytdm64mp3n2pdt,install,2.5,153.254.193.55,01075e5b-3658-4aaa-99c0-f2093bfcabb9,1558993635,2019-05-28 05:47:15,1558993721,2019-05-28 05:48:41,1558993755,89427bf1-51ae-4494-982b-3f279733e045,http://cl.untildogtop.com/t/pb?leadid=89427bf1-51ae-4494-982b-3f279733e045,idfa_01075e5b-3658-4aaa-99c0-f2093bfcabb9,ko
v7_Q1pm9QVS8Jj1K-187dA,creativeclicks,802987_j8mtn4ytdm64mp3n2pdt,install,2.5,106.181.160.67,9cc3e5a4-09d1-40ca-bd56-a3ec70e924fd,1558993622,2019-05-28 05:47:02,1558993720,2019-05-28 05:48:40,1558993751,05f0a933-fe60-4720-8b0b-78d2726078fb,http://cl.untildogtop.com/t/pb?leadid=05f0a933-fe60-4720-8b0b-78d2726078fb,idfa_9cc3e5a4-09d1-40ca-bd56-a3ec70e924fd,ko
v7_Q1pm9QVS8Jj1K-187dA,creativeclicks,802987_j8mtn4ytdm64mp3n2pdt,install,2.5,65.99.11.170,12055b77-0f82-4599-b869-461e426c71a2,1558993666,2019-05-28 05:47:46,1558993750,2019-05-28 05:49:10,1558993788,cb4598ec-e47b-4ec4-888f-c439a1a3c1d8,http://cl.untildogtop.com/t/pb?leadid=cb4598ec-e47b-4ec4-888f-c439a1a3c1d8,idfa_12055b77-0f82-4599-b869-461e426c71a2,ko
v7_Q1pm9QVS8Jj1K-187dA,creativeclicks,802987_j8mtn4ytdm64mp3n2pdt,install,2.5,152.165.3.58,a0c2d633-b17e-40c8-b83b-ef74e2263655,1558993571,2019-05-28 05:46:11,1558993667,2019-05-28 05:47:47,1558993702,bb695c03-8f48-4ff5-8021-a3625f485070,http://cl.untildogtop.com/t/pb?leadid=bb695c03-8f48-4ff5-8021-a3625f485070,idfa_a0c2d633-b17e-40c8-b83b-ef74e2263655,ko
v7_Q1pm9QVS8Jj1K-187dA,creativeclicks,802987_j8mtn4ytdm64mp3n2pdt,install,2.5,110.132.131.202,239efc2f-2330-44fc-882e-80e10fd588f8,1558993726,2019-05-28 05:48:46,1558993784,2019-05-28 05:49:44,1558993822,fd04d283-eca5-414c-a9ae-cce7b677a5e2,http://cl.untildogtop.com/t/pb?leadid=fd04d283-eca5-414c-a9ae-cce7b677a5e2,idfa_239efc2f-2330-44fc-882e-80e10fd588f8,ko
v7_Q1pm9QVS8Jj1K-187dA,creativeclicks,802987_j8mtn4ytdm64mp3n2pdt,install,2.5,150.147.6.184,acb1f1cf-d51e-4b49-97b7-1c0879fe0c10,1558993604,2019-05-28 05:46:44,1558993672,2019-05-28 05:47:52,1558993708,385ac303-3466-48c2-952a-e15541745cae,http://cl.untildogtop.com/t/pb?leadid=385ac303-3466-48c2-952a-e15541745cae,idfa_acb1f1cf-d51e-4b49-97b7-1c0879fe0c10,ko
v7_Q1pm9QVS8Jj1K-187dA,creativeclicks,802987_j8mtn4ytdm64mp3n2pdt,install,2.5,110.233.209.245,e80f8dd0-d88d-4b84-a5c4-3aed085e2496,1558993846,2019-05-28 05:50:46,1558993909,2019-05-28 05:51:49,1558993946,95d3f47f-93aa-42eb-9f70-3dfdbee8a4ee,http://cl.untildogtop.com/t/pb?leadid=95d3f47f-93aa-42eb-9f70-3dfdbee8a4ee,idfa_e80f8dd0-d88d-4b84-a5c4-3aed085e2496,ko
v7_Q1pm9QVS8Jj1K-187dA,creativeclicks,802987_j8mtn4ytdm64mp3n2pdt,install,2.5,60.100.38.112,960f552d-50e4-44f9-99fa-3d1d494e9857,1558993665,2019-05-28 05:47:45,1558993707,2019-05-28 05:48:27,1558993743,e59d934b-ae97-49cf-ad08-9f9eae2c4d13,http://cl.untildogtop.com/t/pb?leadid=e59d934b-ae97-49cf-ad08-9f9eae2c4d13,idfa_960f552d-50e4-44f9-99fa-3d1d494e9857,ko
v7_Q1pm9QVS8Jj1K-187dA,creativeclicks,802987_j8mtn4ytdm64mp3n2pdt,install,2.5,153.136.150.254,c23cdf4b-03d8-4dea-a7dd-16d89096423a,1558993603,2019-05-28 05:46:43,1558993660,2019-05-28 05:47:40,1558993691,f2b54b61-ff1f-46ad-8c94-2d5ab4d408f0,http://cl.untildogtop.com/t/pb?leadid=f2b54b61-ff1f-46ad-8c94-2d5ab4d408f0,idfa_c23cdf4b-03d8-4dea-a7dd-16d89096423a,ko
v7_Q1pm9QVS8Jj1K-187dA,creativeclicks,802987_j8mtn4ytdm64mp3n2pdt,install,2.5,119.150.204.165,fe26b000-891d-4329-a647-8902ced6f2eb,1558993691,2019-05-28 05:48:11,1558993737,2019-05-28 05:48:57,1558993776,458852f9-382b-461f-81c4-590cd528cfcd,http://cl.untildogtop.com/t/pb?leadid=458852f9-382b-461f-81c4-590cd528cfcd,idfa_fe26b000-891d-4329-a647-8902ced6f2eb,ko
v7_Q1pm9QVS8Jj1K-187dA,creativeclicks,802987_j8mtn4ytdm64mp3n2pdt,install,2.5,211.135.221.193,39191d9f-bab0-4086-a59d-56575bb12189,1558993694,2019-05-28 05:48:14,1558993811,2019-05-28 05:50:11,1558993842,2364f03b-eaea-4169-b905-a779adeb7eb1,http://cl.untildogtop.com/t/pb?leadid=2364f03b-eaea-4169-b905-a779adeb7eb1,idfa_39191d9f-bab0-4086-a59d-56575bb12189,ko
v7_Q1pm9QVS8Jj1K-187dA,creativeclicks,802987_j8mtn4ytdm64mp3n2pdt,install,2.5,153.254.152.220,f8fd740d-6dae-44dd-be2b-1514569f997d,1558993616,2019-05-28 05:46:56,1558993742,2019-05-28 05:49:02,1558993773,8e1976e8-b925-4028-98d4-9bca60148845,http://cl.untildogtop.com/t/pb?leadid=8e1976e8-b925-4028-98d4-9bca60148845,idfa_f8fd740d-6dae-44dd-be2b-1514569f997d,ko
v7_Q1pm9QVS8Jj1K-187dA,creativeclicks,802987_j8mtn4ytdm64mp3n2pdt,install,2.5,111.64.37.183,eecd096d-f740-44c9-95a3-9836b88dcd49,1558993580,2019-05-28 05:46:20,1558993637,2019-05-28 05:47:17,1558993675,ba1b5c24-d0ec-495e-b65a-30b36948f927,http://cl.untildogtop.com/t/pb?leadid=ba1b5c24-d0ec-495e-b65a-30b36948f927,idfa_eecd096d-f740-44c9-95a3-9836b88dcd49,ko
v7_Q1pm9QVS8Jj1K-187dA,creativeclicks,802987_j8mtn4ytdm64mp3n2pdt,install,2.5,14.13.193.97,782900b2-8fda-4e52-b352-de6af811a641,1558993580,2019-05-28 05:46:20,1558993669,2019-05-28 05:47:49,1558993701,b85f35f1-1b03-4c42-8a32-b28f5fa5b178,http://cl.untildogtop.com/t/pb?leadid=b85f35f1-1b03-4c42-8a32-b28f5fa5b178,idfa_782900b2-8fda-4e52-b352-de6af811a641,ko
v7_Q1pm9QVS8Jj1K-187dA,creativeclicks,802987_j8mtn4ytdm64mp3n2pdt,install,2.5,59.133.191.232,d8cba02d-807b-481e-95e9-3f2f85ef8eb3,1558993785,2019-05-28 05:49:45,1558993859,2019-05-28 05:50:59,1558993892,a319263e-a399-4d77-a718-3c2501fbb94d,http://cl.untildogtop.com/t/pb?leadid=a319263e-a399-4d77-a718-3c2501fbb94d,idfa_d8cba02d-807b-481e-95e9-3f2f85ef8eb3,ko
v7_Q1pm9QVS8Jj1K-187dA,creativeclicks,802987_j8mtn4ytdm64mp3n2pdt,install,2.5,119.30.222.71,56b72c02-856e-4bc2-bbbd-427f388f606d,1558993849,2019-05-28 05:50:49,1558993904,2019-05-28 05:51:44,1558993940,32f0742e-8972-41ab-803e-46b11591481f,http://cl.untildogtop.com/t/pb?leadid=32f0742e-8972-41ab-803e-46b11591481f,idfa_56b72c02-856e-4bc2-bbbd-427f388f606d,ko
v7_Q1pm9QVS8Jj1K-187dA,creativeclicks,802987_j8mtn4ytdm64mp3n2pdt,install,2.5,153.217.242.127,a2161420-0780-4598-8ca5-570d11d44bd7,1558993644,2019-05-28 05:47:24,1558993693,2019-05-28 05:48:13,1558993732,f3bd0c87-d131-4aba-bcc0-c7d747bc3da5,http://cl.untildogtop.com/t/pb?leadid=f3bd0c87-d131-4aba-bcc0-c7d747bc3da5,idfa_a2161420-0780-4598-8ca5-570d11d44bd7,ko
v7_Q1pm9QVS8Jj1K-187dA,creativeclicks,802987_j8mtn4ytdm64mp3n2pdt,install,2.5,123.219.65.14,3b417652-a5a8-48e2-b764-753c51d60f02,1558993564,2019-05-28 05:46:04,1558993657,2019-05-28 05:47:37,1558993692,9c0fd74c-7b61-4083-a62b-a1052c19e112,http://cl.untildogtop.com/t/pb?leadid=9c0fd74c-7b61-4083-a62b-a1052c19e112,idfa_3b417652-a5a8-48e2-b764-753c51d60f02,ko
v7_Q1pm9QVS8Jj1K-187dA,creativeclicks,802987_j8mtn4ytdm64mp3n2pdt,install,2.5,220.111.60.222,281a402c-b89d-460a-8e05-08d3f20eca28,1558993659,2019-05-28 05:47:39,1558993751,2019-05-28 05:49:11,1558993784,2b96b179-f5ae-4cda-8048-f1730dfacb9e,http://cl.untildogtop.com/t/pb?leadid=2b96b179-f5ae-4cda-8048-f1730dfacb9e,idfa_281a402c-b89d-460a-8e05-08d3f20eca28,ko
v7_Q1pm9QVS8Jj1K-187dA,creativeclicks,802987_j8mtn4ytdm64mp3n2pdt,install,2.5,175.179.255.80,d39fbc94-a3e0-406c-87e5-cd247dcff6f4,1558993824,2019-05-28 05:50:24,1558993895,2019-05-28 05:51:35,1558993926,4448da4b-2a4d-4c06-8ad9-cfd330e2e21c,http://cl.untildogtop.com/t/pb?leadid=4448da4b-2a4d-4c06-8ad9-cfd330e2e21c,idfa_d39fbc94-a3e0-406c-87e5-cd247dcff6f4,ko
v7_Q1pm9QVS8Jj1K-187dA,creativeclicks,802987_j8mtn4ytdm64mp3n2pdt,install,2.5,59.129.72.201,52f312da-e89d-4d55-9cb8-ea01734782e1,1558993681,2019-05-28 05:48:01,1558993746,2019-05-28 05:49:06,1558993780,05808c7b-af00-4c54-85d2-0b380f2e66a8,http://cl.untildogtop.com/t/pb?leadid=05808c7b-af00-4c54-85d2-0b380f2e66a8,idfa_52f312da-e89d-4d55-9cb8-ea01734782e1,ko
v7_Q1pm9QVS8Jj1K-187dA,creativeclicks,802987_j8mtn4ytdm64mp3n2pdt,install,2.5,110.165.148.44,d070a2e5-167a-4e18-95b2-59bb7be27f07,1558993797,2019-05-28 05:49:57,1558993853,2019-05-28 05:50:53,1558993891,65032a90-afa3-4814-841d-cb8a758d4033,http://cl.untildogtop.com/t/pb?leadid=65032a90-afa3-4814-841d-cb8a758d4033,idfa_d070a2e5-167a-4e18-95b2-59bb7be27f07,ko
v7_Q1pm9QVS8Jj1K-187dA,creativeclicks,802987_j8mtn4ytdm64mp3n2pdt,install,2.5,153.226.4.197,f00ef382-bac8-4500-8030-9d2b04309cf1,1558993556,2019-05-28 05:45:56,1558993701,2019-05-28 05:48:21,1558993734,3f0f1b87-2117-4c94-a7db-87569f96c358,http://cl.untildogtop.com/t/pb?leadid=3f0f1b87-2117-4c94-a7db-87569f96c358,idfa_f00ef382-bac8-4500-8030-9d2b04309cf1,ko
v7_Q1pm9QVS8Jj1K-187dA,creativeclicks,802987_j8mtn4ytdm64mp3n2pdt,install,2.5,219.111.186.127,7b9ce8a6-32f5-4a90-9314-c427c5462beb,1558993589,2019-05-28 05:46:29,1558993660,2019-05-28 05:47:40,1558993690,a0ae5877-d27a-4955-ad9e-8d98a30a5846,http://cl.untildogtop.com/t/pb?leadid=a0ae5877-d27a-4955-ad9e-8d98a30a5846,idfa_7b9ce8a6-32f5-4a90-9314-c427c5462beb,ko
v7_Q1pm9QVS8Jj1K-187dA,creativeclicks,802987_j8mtn4ytdm64mp3n2pdt,install,2.5,153.207.204.248,d073423a-5393-4bfe-901c-07a87d4186c8,1558993803,2019-05-28 05:50:03,1558993912,2019-05-28 05:51:52,1558993943,96b7bfbd-46c1-4d3c-9d10-71a9e4468e85,http://cl.untildogtop.com/t/pb?leadid=96b7bfbd-46c1-4d3c-9d10-71a9e4468e85,idfa_d073423a-5393-4bfe-901c-07a87d4186c8,ko
