cid,partner_id,channel_id,action_id,cpi,ip,idfa,click time,click datetime,install time,install datetime,postback time,click id,postback url,unique user id
e9lJDF_HT3-mtzi3MaSlEg,crobo,20922_415_17_10010_15_05625-0511232_20922_415_17_10010_15_05625-0511232,Install,3.5,118.62.9.2,CE4C54BA-6EFF-42E6-ADB5-964B0BDCBE16,1558658989,2019-05-24 08:49:49,1558659075,2019-05-24 08:51:15,1558659121,AdU70mQAAAFq51CwngABB84AAFG6,http://pb.api.weq.com/v1.4/event?click_id=AdU70mQAAAFq51CwngABB84AAFG6,idfa_CE4C54BA-6EFF-42E6-ADB5-964B0BDCBE16,ko-KR
e9lJDF_HT3-mtzi3MaSlEg,crobo,20922_415_17_10010_15_05625-0511232_20922_415_17_10010_15_05625-0511232,Install,3.5,14.85.88.4,FD34EA64-FDD5-4ED6-B047-61F76EE5F251,1558658790,2019-05-24 08:46:30,1558658855,2019-05-24 08:47:35,1558658885,AeB6z70AAAFq502mQwABB84AAFG6,http://pb.api.weq.com/v1.4/event?click_id=AeB6z70AAAFq502mQwABB84AAFG6,idfa_FD34EA64-FDD5-4ED6-B047-61F76EE5F251,ko-KR
e9lJDF_HT3-mtzi3MaSlEg,crobo,20922_415_17_10010_15_05625-0511232_20922_415_17_10010_15_05625-0511232,Install,3.5,121.168.191.190,F27BBA54-FD90-4C2B-A62C-27BACE66658F,1558658797,2019-05-24 08:46:37,1558658869,2019-05-24 08:47:49,1558658900,AWIgvugAAAFq503AVgABB84AAFG6,http://pb.api.weq.com/v1.4/event?click_id=AWIgvugAAAFq503AVgABB84AAFG6,idfa_F27BBA54-FD90-4C2B-A62C-27BACE66658F,ko-KR
e9lJDF_HT3-mtzi3MaSlEg,crobo,20922_415_17_10010_15_05625-0511232_20922_415_17_10010_15_05625-0511232,Install,3.5,61.32.22.171,604E03DF-CA6A-4D19-A4F3-E2DFF664060D,1558658800,2019-05-24 08:46:40,1558658860,2019-05-24 08:47:40,1558658891,AdeV_qEAAAFq503JiQABB84AAFG6,http://pb.api.weq.com/v1.4/event?click_id=AdeV_qEAAAFq503JiQABB84AAFG6,idfa_604E03DF-CA6A-4D19-A4F3-E2DFF664060D,ko-KR
e9lJDF_HT3-mtzi3MaSlEg,crobo,20922_415_17_10010_15_05625-0511232_20922_415_17_10010_15_05625-0511232,Install,3.5,222.108.143.193,5B169E87-44C4-488C-8F0D-571A7D02C0EE,1558658578,2019-05-24 08:42:58,1558658663,2019-05-24 08:44:23,1558658693,Ac_0qzgAAAFq50pU1QABB84AAFG6,http://pb.api.weq.com/v1.4/event?click_id=Ac_0qzgAAAFq50pU1QABB84AAFG6,idfa_5B169E87-44C4-488C-8F0D-571A7D02C0EE,ko-KR
e9lJDF_HT3-mtzi3MaSlEg,crobo,20922_415_17_10010_15_05625-0511232_20922_415_17_10010_15_05625-0511232,Install,3.5,118.63.20.103,249D4428-FE78-4D71-8640-7B85246CBE15,1558657865,2019-05-24 08:31:05,1558657949,2019-05-24 08:32:29,1558657980,AYHIaB8AAAFq5z-ILQABB84AAFG6,http://pb.api.weq.com/v1.4/event?click_id=AYHIaB8AAAFq5z-ILQABB84AAFG6,idfa_249D4428-FE78-4D71-8640-7B85246CBE15,ko-KR
e9lJDF_HT3-mtzi3MaSlEg,crobo,20922_415_17_10010_15_05625-0511232_20922_415_17_10010_15_05625-0511232,Install,3.5,221.166.217.25,0FC4F2DB-C6AF-40F8-9935-3600BA5A2E6D,1558658294,2019-05-24 08:38:14,1558658382,2019-05-24 08:39:42,1558658414,Aet6xJMAAAFq50YAkwABB84AAFG6,http://pb.api.weq.com/v1.4/event?click_id=Aet6xJMAAAFq50YAkwABB84AAFG6,idfa_0FC4F2DB-C6AF-40F8-9935-3600BA5A2E6D,ko-KR
e9lJDF_HT3-mtzi3MaSlEg,crobo,20922_415_17_10010_15_05625-0511232_20922_415_17_10010_15_05625-0511232,Install,3.5,27.116.125.146,9E7CD967-FAD2-428C-8A56-386D93821B40,1558659247,2019-05-24 08:54:07,1558659322,2019-05-24 08:55:22,1558659353,AZ1K4jYAAAFq51SbRwABB84AAFG6,http://pb.api.weq.com/v1.4/event?click_id=AZ1K4jYAAAFq51SbRwABB84AAFG6,idfa_9E7CD967-FAD2-428C-8A56-386D93821B40,ko-KR
e9lJDF_HT3-mtzi3MaSlEg,crobo,20922_415_17_10010_15_05625-0511232_20922_415_17_10010_15_05625-0511232,Install,3.5,210.223.250.3,E9D86EAD-937B-4043-8EC1-E0E3D126772A,1558659113,2019-05-24 08:51:53,1558659195,2019-05-24 08:53:15,1558659226,AWr07TIAAAFq51KT0AABB84AAFG6,http://pb.api.weq.com/v1.4/event?click_id=AWr07TIAAAFq51KT0AABB84AAFG6,idfa_E9D86EAD-937B-4043-8EC1-E0E3D126772A,ko-KR
e9lJDF_HT3-mtzi3MaSlEg,crobo,20922_415_17_10010_15_05625-0511232_20922_415_17_10010_15_05625-0511232,Install,3.5,220.116.230.50,4D03F553-0952-4C4F-ACC2-0E9C2A818A4F,1558659206,2019-05-24 08:53:26,1558659263,2019-05-24 08:54:23,1558659293,AUojZiIAAAFq51P78wABB84AAFG6,http://pb.api.weq.com/v1.4/event?click_id=AUojZiIAAAFq51P78wABB84AAFG6,idfa_4D03F553-0952-4C4F-ACC2-0E9C2A818A4F,ko-KR
e9lJDF_HT3-mtzi3MaSlEg,crobo,20922_415_17_10010_15_05625-0511232_20922_415_17_10010_15_05625-0511232,Install,3.5,183.112.115.66,5399C299-E0C8-4EC4-850A-B1713FF57EF8,1558659522,2019-05-24 08:58:42,1558659605,2019-05-24 09:00:05,1558659637,Ab6AhPkAAAFq51jRPwABB84AAFG6,http://pb.api.weq.com/v1.4/event?click_id=Ab6AhPkAAAFq51jRPwABB84AAFG6,idfa_5399C299-E0C8-4EC4-850A-B1713FF57EF8,ko-KR
e9lJDF_HT3-mtzi3MaSlEg,crobo,20922_415_17_10010_15_05625-0511232_20922_415_17_10010_15_05625-0511232,Install,3.5,113.10.42.126,D700ECED-4AA1-4296-A1B6-C46076B83462,1558658794,2019-05-24 08:46:34,1558658853,2019-05-24 08:47:33,1558658884,AQgsTZ4AAAFq50200AABB84AAFG6,http://pb.api.weq.com/v1.4/event?click_id=AQgsTZ4AAAFq50200AABB84AAFG6,idfa_D700ECED-4AA1-4296-A1B6-C46076B83462,ko-KR
e9lJDF_HT3-mtzi3MaSlEg,crobo,20922_415_17_10010_15_05625-0511232_20922_415_17_10010_15_05625-0511232,Install,3.5,27.116.255.152,73E88767-5657-4184-A6F0-2FC1CD32CD58,1558659503,2019-05-24 08:58:23,1558659590,2019-05-24 08:59:50,1558659623,Ae6jxJsAAAFq51iF5QABB84AAFG6,http://pb.api.weq.com/v1.4/event?click_id=Ae6jxJsAAAFq51iF5QABB84AAFG6,idfa_73E88767-5657-4184-A6F0-2FC1CD32CD58,ko-KR
e9lJDF_HT3-mtzi3MaSlEg,crobo,20922_415_17_10010_15_05625-0511232_20922_415_17_10010_15_05625-0511232,Install,3.5,121.151.86.155,79179CD1-607A-4FD3-961E-117947DC09E9,1558657754,2019-05-24 08:29:14,1558657842,2019-05-24 08:30:42,1558657872,ASTQ0tsAAAFq5z3WlAABB84AAFG6,http://pb.api.weq.com/v1.4/event?click_id=ASTQ0tsAAAFq5z3WlAABB84AAFG6,idfa_79179CD1-607A-4FD3-961E-117947DC09E9,ko-KR
e9lJDF_HT3-mtzi3MaSlEg,crobo,20922_415_17_10010_15_05625-0511232_20922_415_17_10010_15_05625-0511232,Install,3.5,220.116.230.50,404D9B6E-0271-4530-9582-1EF67496DC65,1558659218,2019-05-24 08:53:38,1558659283,2019-05-24 08:54:43,1558659314,AVB89DQAAAFq51QsZQABB84AAFG6,http://pb.api.weq.com/v1.4/event?click_id=AVB89DQAAAFq51QsZQABB84AAFG6,idfa_404D9B6E-0271-4530-9582-1EF67496DC65,ko-KR
e9lJDF_HT3-mtzi3MaSlEg,crobo,20922_415_17_10010_15_05625-0511232_20922_415_17_10010_15_05625-0511232,Install,3.5,114.30.203.76,47FFE81D-056E-4E67-B9F0-3D5DFD21BE4E,1558658793,2019-05-24 08:46:33,1558658866,2019-05-24 08:47:46,1558658897,AQ7z1jYAAAFq502yigABB84AAFG6,http://pb.api.weq.com/v1.4/event?click_id=AQ7z1jYAAAFq502yigABB84AAFG6,idfa_47FFE81D-056E-4E67-B9F0-3D5DFD21BE4E,ko-KR
e9lJDF_HT3-mtzi3MaSlEg,crobo,20922_415_17_10010_15_05625-0511232_20922_415_17_10010_15_05625-0511232,Install,3.5,218.149.250.30,582743EA-E08B-494C-AB9C-2011F71306FB,1558658166,2019-05-24 08:36:06,1558658238,2019-05-24 08:37:18,1558658268,AYXfAh8AAAFq50QfYQABB84AAFG6,http://pb.api.weq.com/v1.4/event?click_id=AYXfAh8AAAFq50QfYQABB84AAFG6,idfa_582743EA-E08B-494C-AB9C-2011F71306FB,ko-KR
e9lJDF_HT3-mtzi3MaSlEg,crobo,20922_415_17_10010_15_05625-0511232_20922_415_17_10010_15_05625-0511232,Install,3.5,115.12.177.66,3F48C8CA-0534-45FC-961E-C152068226CD,1558658580,2019-05-24 08:43:00,1558658652,2019-05-24 08:44:12,1558658683,Adolt18AAAFq50pxygABB84AAFG6,http://pb.api.weq.com/v1.4/event?click_id=Adolt18AAAFq50pxygABB84AAFG6,idfa_3F48C8CA-0534-45FC-961E-C152068226CD,ko-KR
e9lJDF_HT3-mtzi3MaSlEg,crobo,20922_415_17_10010_15_05625-0511232_20922_415_17_10010_15_05625-0511232,Install,3.5,61.32.22.171,2FD810E4-14DB-48D0-ADD3-5CB1B7082FDD,1558657754,2019-05-24 08:29:14,1558657839,2019-05-24 08:30:39,1558657870,AV230oQAAAFq5z3W-AABB84AAFG6,http://pb.api.weq.com/v1.4/event?click_id=AV230oQAAAFq5z3W-AABB84AAFG6,idfa_2FD810E4-14DB-48D0-ADD3-5CB1B7082FDD,ko-KR
e9lJDF_HT3-mtzi3MaSlEg,crobo,20922_415_17_10010_15_05625-0511232_20922_415_17_10010_15_05625-0511232,Install,3.5,61.73.222.69,39F5CAAB-ECDF-4753-AEB1-B2470E9F3ACC,1558659210,2019-05-24 08:53:30,1558659262,2019-05-24 08:54:22,1558659294,AYPaT5gAAAFq51QKGAABB84AAFG6,http://pb.api.weq.com/v1.4/event?click_id=AYPaT5gAAAFq51QKGAABB84AAFG6,idfa_39F5CAAB-ECDF-4753-AEB1-B2470E9F3ACC,ko-KR
e9lJDF_HT3-mtzi3MaSlEg,crobo,20922_415_17_10010_15_05625-0511232_20922_415_17_10010_15_05625-0511232,Install,3.5,222.108.143.193,6C82CF33-CEDB-467E-ACA0-24308CAAB74A,1558658591,2019-05-24 08:43:11,1558658665,2019-05-24 08:44:25,1558658696,ARcjABwAAAFq50qYlgABB84AAFG6,http://pb.api.weq.com/v1.4/event?click_id=ARcjABwAAAFq50qYlgABB84AAFG6,idfa_6C82CF33-CEDB-467E-ACA0-24308CAAB74A,ko-KR
e9lJDF_HT3-mtzi3MaSlEg,crobo,20922_415_17_10010_15_05625-0511232_20922_415_17_10010_15_05625-0511232,Install,3.5,220.127.126.139,C643844A-21A4-4459-89A3-3ED0B6BCC70D,1558659406,2019-05-24 08:56:46,1558659489,2019-05-24 08:58:09,1558659519,AY1IvUgAAAFq51cMXgABB84AAFG6,http://pb.api.weq.com/v1.4/event?click_id=AY1IvUgAAAFq51cMXgABB84AAFG6,idfa_C643844A-21A4-4459-89A3-3ED0B6BCC70D,ko-KR
e9lJDF_HT3-mtzi3MaSlEg,crobo,20922_415_17_10010_15_05625-0511232_20922_415_17_10010_15_05625-0511232,Install,3.5,220.71.29.247,EC6D5E27-79AF-45FC-B0FF-C219FE173D9C,1558658797,2019-05-24 08:46:37,1558658854,2019-05-24 08:47:34,1558658886,AT5D7tYAAAFq5025_AABB84AAFG6,http://pb.api.weq.com/v1.4/event?click_id=AT5D7tYAAAFq5025_AABB84AAFG6,idfa_EC6D5E27-79AF-45FC-B0FF-C219FE173D9C,ko-KR
e9lJDF_HT3-mtzi3MaSlEg,crobo,20922_415_17_10010_15_05625-0511232_20922_415_17_10010_15_05625-0511232,Install,3.5,61.32.22.171,6563B616-5298-431D-93CB-CB38FE2288E1,1558658797,2019-05-24 08:46:37,1558658856,2019-05-24 08:47:36,1558658888,ATxJkJgAAAFq50294wABB84AAFG6,http://pb.api.weq.com/v1.4/event?click_id=ATxJkJgAAAFq50294wABB84AAFG6,idfa_6563B616-5298-431D-93CB-CB38FE2288E1,ko-KR
e9lJDF_HT3-mtzi3MaSlEg,crobo,20922_415_17_10010_15_05625-0511232_20922_415_17_10010_15_05625-0511232,Install,3.5,183.98.233.92,79C236BE-5B1C-4A67-B9A3-51808943F9F3,1558657751,2019-05-24 08:29:11,1558657827,2019-05-24 08:30:27,1558657858,AU9eTGcAAAFq5z3LtwABB84AAFG6,http://pb.api.weq.com/v1.4/event?click_id=AU9eTGcAAAFq5z3LtwABB84AAFG6,idfa_79C236BE-5B1C-4A67-B9A3-51808943F9F3,ko-KR
e9lJDF_HT3-mtzi3MaSlEg,crobo,20922_415_17_10010_15_05625-0511232_20922_415_17_10010_15_05625-0511232,Install,3.5,211.224.188.72,34701E04-EB0E-466C-B3CE-68573452C97C,1558659377,2019-05-24 08:56:17,1558659455,2019-05-24 08:57:35,1558659486,AS9a3o0AAAFq51aV8gABB84AAFG6,http://pb.api.weq.com/v1.4/event?click_id=AS9a3o0AAAFq51aV8gABB84AAFG6,idfa_34701E04-EB0E-466C-B3CE-68573452C97C,ko-KR
e9lJDF_HT3-mtzi3MaSlEg,crobo,20922_415_17_10010_15_05625-0511232_20922_415_17_10010_15_05625-0511232,Install,3.5,61.32.22.171,6D32C36F-018D-4267-8647-9DA743CAD902,1558658156,2019-05-24 08:35:56,1558658230,2019-05-24 08:37:10,1558658261,AcAgSdYAAAFq50P29AABB84AAFG6,http://pb.api.weq.com/v1.4/event?click_id=AcAgSdYAAAFq50P29AABB84AAFG6,idfa_6D32C36F-018D-4267-8647-9DA743CAD902,ko-KR
e9lJDF_HT3-mtzi3MaSlEg,crobo,20922_415_17_10010_15_05625-0511232_20922_415_17_10010_15_05625-0511232,Install,3.5,211.182.112.240,43BFE1BB-18B4-48C1-B577-9192DD774108,1558658173,2019-05-24 08:36:13,1558658252,2019-05-24 08:37:32,1558658284,AfyrTUgAAAFq50Q5VgABB84AAFG6,http://pb.api.weq.com/v1.4/event?click_id=AfyrTUgAAAFq50Q5VgABB84AAFG6,idfa_43BFE1BB-18B4-48C1-B577-9192DD774108,ko-KR
e9lJDF_HT3-mtzi3MaSlEg,crobo,20922_415_17_10010_15_05625-0511232_20922_415_17_10010_15_05625-0511232,Install,3.5,61.73.222.69,A44303D6-AF18-4947-9CF2-F61895FF06DF,1558657757,2019-05-24 08:29:17,1558657846,2019-05-24 08:30:46,1558657877,AYqb0n8AAAFq5z3eLgABB84AAFG6,http://pb.api.weq.com/v1.4/event?click_id=AYqb0n8AAAFq5z3eLgABB84AAFG6,idfa_A44303D6-AF18-4947-9CF2-F61895FF06DF,ko-KR
e9lJDF_HT3-mtzi3MaSlEg,crobo,20922_415_17_10010_15_05625-0511232_20922_415_17_10010_15_05625-0511232,Install,3.5,183.112.115.66,97E76329-528B-4B08-9BC5-5AAA4C9BF718,1558659494,2019-05-24 08:58:14,1558659584,2019-05-24 08:59:44,1558659614,AcCjWgUAAAFq51hlhgABB84AAFG6,http://pb.api.weq.com/v1.4/event?click_id=AcCjWgUAAAFq51hlhgABB84AAFG6,idfa_97E76329-528B-4B08-9BC5-5AAA4C9BF718,ko-KR
e9lJDF_HT3-mtzi3MaSlEg,crobo,20922_415_17_10010_15_05625-0511232_20922_415_17_10010_15_05625-0511232,Install,3.5,61.32.22.171,37E9812E-3200-4AD0-9D92-E2978126315A,1558657754,2019-05-24 08:29:14,1558657827,2019-05-24 08:30:27,1558657858,AYVkJWgAAAFq5z3WlQABB84AAFG6,http://pb.api.weq.com/v1.4/event?click_id=AYVkJWgAAAFq5z3WlQABB84AAFG6,idfa_37E9812E-3200-4AD0-9D92-E2978126315A,ko-KR
e9lJDF_HT3-mtzi3MaSlEg,crobo,20922_415_17_10010_15_05625-0511232_20922_415_17_10010_15_05625-0511232,Install,3.5,61.32.22.171,70E5E472-5251-488D-91DD-C520556FFB5B,1558658661,2019-05-24 08:44:21,1558658750,2019-05-24 08:45:50,1558658781,AcPpKuoAAAFq50uqTQABB84AAFG6,http://pb.api.weq.com/v1.4/event?click_id=AcPpKuoAAAFq50uqTQABB84AAFG6,idfa_70E5E472-5251-488D-91DD-C520556FFB5B,ko-KR
e9lJDF_HT3-mtzi3MaSlEg,crobo,20922_415_17_10010_15_05625-0511232_20922_415_17_10010_15_05625-0511232,Install,3.5,203.228.17.2,1B185D1E-7571-476A-8447-CD721F2F1768,1558658163,2019-05-24 08:36:03,1558658246,2019-05-24 08:37:26,1558658276,AT_dXDIAAAFq50QVYwABB84AAFG6,http://pb.api.weq.com/v1.4/event?click_id=AT_dXDIAAAFq50QVYwABB84AAFG6,idfa_1B185D1E-7571-476A-8447-CD721F2F1768,ko-KR
e9lJDF_HT3-mtzi3MaSlEg,crobo,20922_415_17_10010_15_05625-0511232_20922_415_17_10010_15_05625-0511232,Install,3.5,218.144.17.223,860C6834-A05B-4026-A681-93F2FE3BEEF8,1558657751,2019-05-24 08:29:11,1558657832,2019-05-24 08:30:32,1558657863,AWf-K0EAAAFq5z3LzgABB84AAFG6,http://pb.api.weq.com/v1.4/event?click_id=AWf-K0EAAAFq5z3LzgABB84AAFG6,idfa_860C6834-A05B-4026-A681-93F2FE3BEEF8,ko-KR
e9lJDF_HT3-mtzi3MaSlEg,crobo,20922_415_17_10010_15_05625-0511232_20922_415_17_10010_15_05625-0511232,Install,3.5,119.199.178.218,ABE35BAE-946E-443E-8207-10150189AAB1,1558658679,2019-05-24 08:44:39,1558658765,2019-05-24 08:46:05,1558658796,AQF9I-EAAAFq50vxBQABB84AAFG6,http://pb.api.weq.com/v1.4/event?click_id=AQF9I-EAAAFq50vxBQABB84AAFG6,idfa_ABE35BAE-946E-443E-8207-10150189AAB1,ko-KR
e9lJDF_HT3-mtzi3MaSlEg,crobo,20922_415_17_10010_15_05625-0511232_20922_415_17_10010_15_05625-0511232,Install,3.5,211.54.74.50,E4F0B12B-6BDA-4819-B84F-C884DC1E0F5F,1558658553,2019-05-24 08:42:33,1558658635,2019-05-24 08:43:55,1558658666,AbJ68RoAAAFq50oGkQABB84AAFG6,http://pb.api.weq.com/v1.4/event?click_id=AbJ68RoAAAFq50oGkQABB84AAFG6,idfa_E4F0B12B-6BDA-4819-B84F-C884DC1E0F5F,ko-KR
e9lJDF_HT3-mtzi3MaSlEg,crobo,20922_415_17_10010_15_05625-0511232_20922_415_17_10010_15_05625-0511232,Install,3.5,61.81.115.75,8CB1CC48-F445-4080-B5CD-D8885559C1AE,1558658960,2019-05-24 08:49:20,1558659049,2019-05-24 08:50:49,1558659079,ATeIezoAAAFq51A9gQABB84AAFG6,http://pb.api.weq.com/v1.4/event?click_id=ATeIezoAAAFq51A9gQABB84AAFG6,idfa_8CB1CC48-F445-4080-B5CD-D8885559C1AE,ko-KR
e9lJDF_HT3-mtzi3MaSlEg,crobo,20922_415_17_10010_15_05625-0511232_20922_415_17_10010_15_05625-0511232,Install,3.5,203.228.17.2,6CAD0071-4A0D-4868-B5EF-71F1392FA064,1558659012,2019-05-24 08:50:12,1558659081,2019-05-24 08:51:21,1558659112,AUSOvi4AAAFq51EH5AABB84AAFG6,http://pb.api.weq.com/v1.4/event?click_id=AUSOvi4AAAFq51EH5AABB84AAFG6,idfa_6CAD0071-4A0D-4868-B5EF-71F1392FA064,ko-KR
e9lJDF_HT3-mtzi3MaSlEg,crobo,20922_415_17_10010_15_05625-0511232_20922_415_17_10010_15_05625-0511232,Install,3.5,175.230.39.122,0B05393C-0854-41B2-85CC-04170C0A7A07,1558659211,2019-05-24 08:53:31,1558659269,2019-05-24 08:54:29,1558659300,ARnuptEAAAFq51QQZAABB84AAFG6,http://pb.api.weq.com/v1.4/event?click_id=ARnuptEAAAFq51QQZAABB84AAFG6,idfa_0B05393C-0854-41B2-85CC-04170C0A7A07,ko-KR
e9lJDF_HT3-mtzi3MaSlEg,crobo,20922_415_17_10010_15_05625-0511232_20922_415_17_10010_15_05625-0511232,Install,3.5,59.6.184.142,CDAF90DB-287F-4736-BABF-3F2065D91B16,1558658240,2019-05-24 08:37:20,1558658327,2019-05-24 08:38:47,1558658358,AQF9EP0AAAFq50U-5QABB84AAFG6,http://pb.api.weq.com/v1.4/event?click_id=AQF9EP0AAAFq50U-5QABB84AAFG6,idfa_CDAF90DB-287F-4736-BABF-3F2065D91B16,ko-KR
e9lJDF_HT3-mtzi3MaSlEg,crobo,20922_415_17_10010_15_05625-0511232_20922_415_17_10010_15_05625-0511232,Install,3.5,106.249.135.226,832F2023-DB55-45A1-A5CF-E48625B58A9B,1558659216,2019-05-24 08:53:36,1558659291,2019-05-24 08:54:51,1558659321,Aaad_GEAAAFq51QflgABB84AAFG6,http://pb.api.weq.com/v1.4/event?click_id=Aaad_GEAAAFq51QflgABB84AAFG6,idfa_832F2023-DB55-45A1-A5CF-E48625B58A9B,ko-KR
e9lJDF_HT3-mtzi3MaSlEg,crobo,20922_415_17_10010_15_05625-0511232_20922_415_17_10010_15_05625-0511232,Install,3.5,182.208.90.83,A94BEC32-D1E4-4CFC-AEEA-8AF7B23343F2,1558659405,2019-05-24 08:56:45,1558659489,2019-05-24 08:58:09,1558659522,ARXO8dwAAAFq51cGWQABB84AAFG6,http://pb.api.weq.com/v1.4/event?click_id=ARXO8dwAAAFq51cGWQABB84AAFG6,idfa_A94BEC32-D1E4-4CFC-AEEA-8AF7B23343F2,ko-KR
e9lJDF_HT3-mtzi3MaSlEg,crobo,20922_415_17_10010_15_05625-0511232_20922_415_17_10010_15_05625-0511232,Install,3.5,27.116.125.146,94527DAE-228B-46FD-954F-058DA16D45D1,1558659094,2019-05-24 08:51:34,1558659177,2019-05-24 08:52:57,1558659208,AV7sFPYAAAFq51JFfQABB84AAFG6,http://pb.api.weq.com/v1.4/event?click_id=AV7sFPYAAAFq51JFfQABB84AAFG6,idfa_94527DAE-228B-46FD-954F-058DA16D45D1,ko-KR
e9lJDF_HT3-mtzi3MaSlEg,crobo,20922_415_17_10010_15_05625-0511232_20922_415_17_10010_15_05625-0511232,Install,3.5,220.116.230.50,88A72489-E3F2-401C-A065-480612BADAFE,1558659287,2019-05-24 08:54:47,1558659348,2019-05-24 08:55:48,1558659379,AS8iLboAAAFq51U3HwABB84AAFG6,http://pb.api.weq.com/v1.4/event?click_id=AS8iLboAAAFq51U3HwABB84AAFG6,idfa_88A72489-E3F2-401C-A065-480612BADAFE,ko-KR
e9lJDF_HT3-mtzi3MaSlEg,crobo,20922_415_17_10010_15_05625-0511232_20922_415_17_10010_15_05625-0511232,Install,3.5,121.146.118.236,E2A29685-E3E3-4392-944C-A5D971D1DCEA,1558659596,2019-05-24 08:59:56,1558659653,2019-05-24 09:00:53,1558659684,AXq2XbMAAAFq51nsXAABB84AAFG6,http://pb.api.weq.com/v1.4/event?click_id=AXq2XbMAAAFq51nsXAABB84AAFG6,idfa_E2A29685-E3E3-4392-944C-A5D971D1DCEA,ko-KR
e9lJDF_HT3-mtzi3MaSlEg,crobo,20922_415_17_10010_15_05625-0511232_20922_415_17_10010_15_05625-0511232,Install,3.5,14.85.88.4,6628AA2F-C3FC-4C27-9E52-C7435AC97F96,1558658160,2019-05-24 08:36:00,1558658239,2019-05-24 08:37:19,1558658271,AQxcQN8AAAFq50QIqwABB84AAFG6,http://pb.api.weq.com/v1.4/event?click_id=AQxcQN8AAAFq50QIqwABB84AAFG6,idfa_6628AA2F-C3FC-4C27-9E52-C7435AC97F96,ko-KR
e9lJDF_HT3-mtzi3MaSlEg,crobo,20922_415_17_10010_15_05625-0511232_20922_415_17_10010_15_05625-0511232,Install,3.5,61.32.22.171,131A6755-7EFE-4997-9774-892D922507DC,1558658986,2019-05-24 08:49:46,1558659065,2019-05-24 08:51:05,1558659096,AewmKj0AAAFq51CheAABB84AAFG6,http://pb.api.weq.com/v1.4/event?click_id=AewmKj0AAAFq51CheAABB84AAFG6,idfa_131A6755-7EFE-4997-9774-892D922507DC,ko-KR
e9lJDF_HT3-mtzi3MaSlEg,crobo,20922_415_17_10010_15_05625-0511232_20922_415_17_10010_15_05625-0511232,Install,3.5,119.199.178.218,980F21F9-78D0-4CC2-BB7B-6DC9864FE8E3,1558659220,2019-05-24 08:53:40,1558659285,2019-05-24 08:54:45,1558659316,AX_pvbUAAAFq51Qx9gABB84AAFG6,http://pb.api.weq.com/v1.4/event?click_id=AX_pvbUAAAFq51Qx9gABB84AAFG6,idfa_980F21F9-78D0-4CC2-BB7B-6DC9864FE8E3,ko-KR
e9lJDF_HT3-mtzi3MaSlEg,crobo,20922_415_17_10010_15_05625-0511232_20922_415_17_10010_15_05625-0511232,Install,3.5,222.121.170.21,F33A5CA8-F3E1-4A37-91F2-68880A2DADDA,1558659481,2019-05-24 08:58:01,1558659560,2019-05-24 08:59:20,1558659596,AVVLQesAAAFq51gwWAABB84AAFG6,http://pb.api.weq.com/v1.4/event?click_id=AVVLQesAAAFq51gwWAABB84AAFG6,idfa_F33A5CA8-F3E1-4A37-91F2-68880A2DADDA,ko-KR
e9lJDF_HT3-mtzi3MaSlEg,crobo,20922_415_17_10010_15_05625-0511232_20922_415_17_10010_15_05625-0511232,Install,3.5,220.71.29.247,7AFCD86E-A938-4BC3-AE6A-DD38DA082C0E,1558659082,2019-05-24 08:51:22,1558659171,2019-05-24 08:52:51,1558659202,AbBFLTAAAAFq51IWFgABB84AAFG6,http://pb.api.weq.com/v1.4/event?click_id=AbBFLTAAAAFq51IWFgABB84AAFG6,idfa_7AFCD86E-A938-4BC3-AE6A-DD38DA082C0E,ko-KR
e9lJDF_HT3-mtzi3MaSlEg,crobo,20922_415_17_10010_15_05625-0511232_20922_415_17_10010_15_05625-0511232,Install,3.5,220.89.135.7,9D3E1B05-984C-4809-893D-D894EC5B0A15,1558658799,2019-05-24 08:46:39,1558658867,2019-05-24 08:47:47,1558658898,AZoiHfYAAAFq503EygABB84AAFG6,http://pb.api.weq.com/v1.4/event?click_id=AZoiHfYAAAFq503EygABB84AAFG6,idfa_9D3E1B05-984C-4809-893D-D894EC5B0A15,ko-KR
