cid,partner_id,channel_id,action_id,cpi,ip,idfa,click time,click datetime,install time,install datetime,postback time,click id,postback url,unique user id
6Ygg5Xs4QAyzYWn7K_bXlQ,crobo,20528_6_2198_3071_120,Install,1.8,218.52.39.192,53026cb9-3f65-7771-58f3-3a517ba9492a,1557363122,2019-05-09 08:52:02,1557363226,2019-05-09 08:53:46,1557363256,AW4J-84AAAFqmhM-IQAAkMIAAFAw,http://pb.api.weq.com/v1.4/event?click_id=AW4J-84AAAFqmhM-IQAAkMIAAFAw,idfa_53026cb9-3f65-7771-58f3-3a517ba9492a,%ED%95%9C%EA%B5%AD%EC%96%B4
6Ygg5Xs4QAyzYWn7K_bXlQ,crobo,20528_6_2198_3071_120,Install,1.8,210.105.75.227,a36366c0-1023-2a1d-bfc5-b51df8e07583,1557351884,2019-05-09 05:44:44,1557351988,2019-05-09 05:46:28,1557352018,AYOXoaoAAAFqmWe_HgAAkMIAAFAw,http://pb.api.weq.com/v1.4/event?click_id=AYOXoaoAAAFqmWe_HgAAkMIAAFAw,idfa_a36366c0-1023-2a1d-bfc5-b51df8e07583,%ED%95%9C%EA%B5%AD%EC%96%B4
6Ygg5Xs4QAyzYWn7K_bXlQ,crobo,20528_6_2198_3071_120,Install,1.8,220.118.98.116,62846c43-7327-06f2-bc0b-4c3e0d8a10f1,1557361193,2019-05-09 08:19:53,1557361291,2019-05-09 08:21:31,1557361321,ASX-GH8AAAFqmfXSKQAAkMIAAFAw,http://pb.api.weq.com/v1.4/event?click_id=ASX-GH8AAAFqmfXSKQAAkMIAAFAw,idfa_62846c43-7327-06f2-bc0b-4c3e0d8a10f1,%ED%95%9C%EA%B5%AD%EC%96%B4
6Ygg5Xs4QAyzYWn7K_bXlQ,crobo,20528_6_2198_3071_120,Install,1.8,49.167.221.35,5074e6b6-3979-70fb-4128-2611ada42d1a,1557363360,2019-05-09 08:56:00,1557363459,2019-05-09 08:57:39,1557363490,ARwq0LgAAAFqmhbfMQAAkMIAAFAw,http://pb.api.weq.com/v1.4/event?click_id=ARwq0LgAAAFqmhbfMQAAkMIAAFAw,idfa_5074e6b6-3979-70fb-4128-2611ada42d1a,%ED%95%9C%EA%B5%AD%EC%96%B4
6Ygg5Xs4QAyzYWn7K_bXlQ,crobo,20528_6_2198_3071_120,Install,1.8,110.70.54.242,1f3d6533-7055-7b96-c5a4-7fea724b361c,1557361536,2019-05-09 08:25:36,1557361659,2019-05-09 08:27:39,1557361690,AUtSUCcAAAFqmfsE_wAAkMIAAFAw,http://pb.api.weq.com/v1.4/event?click_id=AUtSUCcAAAFqmfsE_wAAkMIAAFAw,idfa_1f3d6533-7055-7b96-c5a4-7fea724b361c,%ED%95%9C%EA%B5%AD%EC%96%B4
6Ygg5Xs4QAyzYWn7K_bXlQ,crobo,20528_6_2198_3071_120,Install,1.8,125.133.75.204,9e57ae41-95bc-9c1f-0f0d-65e17d747593,1557362243,2019-05-09 08:37:23,1557362337,2019-05-09 08:38:57,1557362367,AcxIaroAAAFqmgXXnwAAkMIAAFAw,http://pb.api.weq.com/v1.4/event?click_id=AcxIaroAAAFqmgXXnwAAkMIAAFAw,idfa_9e57ae41-95bc-9c1f-0f0d-65e17d747593,%ED%95%9C%EA%B5%AD%EC%96%B4
6Ygg5Xs4QAyzYWn7K_bXlQ,crobo,20528_6_2198_3071_120,Install,1.8,1.249.165.127,dfd22799-efbe-3090-6f28-00855a6d59d3,1557347500,2019-05-09 04:31:40,1557347613,2019-05-09 04:33:33,1557347644,AZ_s0hAAAAFqmSTiowAAkMIAAFAw,http://pb.api.weq.com/v1.4/event?click_id=AZ_s0hAAAAFqmSTiowAAkMIAAFAw,idfa_dfd22799-efbe-3090-6f28-00855a6d59d3,%ED%95%9C%EA%B5%AD%EC%96%B4
6Ygg5Xs4QAyzYWn7K_bXlQ,crobo,20528_6_2198_3071_120,Install,1.8,1.241.48.220,63b76220-d759-74a6-c0d9-0ace96e861cb,1557356089,2019-05-09 06:54:49,1557356185,2019-05-09 06:56:25,1557356215,ASLslPgAAAFqmaftiwAAkMIAAFAw,http://pb.api.weq.com/v1.4/event?click_id=ASLslPgAAAFqmaftiwAAkMIAAFAw,idfa_63b76220-d759-74a6-c0d9-0ace96e861cb,%ED%95%9C%EA%B5%AD%EC%96%B4
6Ygg5Xs4QAyzYWn7K_bXlQ,crobo,20528_6_2198_3071_120,Install,1.8,222.107.191.217,a4ebd814-50c7-d26d-524e-c05da6f63061,1557354606,2019-05-09 06:30:06,1557354700,2019-05-09 06:31:40,1557354731,Ae-KQ-UAAAFqmZFKhwAAkMIAAFAw,http://pb.api.weq.com/v1.4/event?click_id=Ae-KQ-UAAAFqmZFKhwAAkMIAAFAw,idfa_a4ebd814-50c7-d26d-524e-c05da6f63061,%ED%95%9C%EA%B5%AD%EC%96%B4
6Ygg5Xs4QAyzYWn7K_bXlQ,crobo,20528_6_2198_3071_120,Install,1.8,211.49.140.99,a42370f9-28c2-2128-e0f1-9414a6c9e08f,1557350881,2019-05-09 05:28:01,1557350967,2019-05-09 05:29:27,1557350997,AUXv13MAAAFqmVh2WgAAkMIAAFAw,http://pb.api.weq.com/v1.4/event?click_id=AUXv13MAAAFqmVh2WgAAkMIAAFAw,idfa_a42370f9-28c2-2128-e0f1-9414a6c9e08f,%ED%95%9C%EA%B5%AD%EC%96%B4
6Ygg5Xs4QAyzYWn7K_bXlQ,crobo,20528_6_2198_3071_120,Install,1.8,39.118.44.40,dee0fb35-2ead-abfe-f0df-eec733d829f1,1557360214,2019-05-09 08:03:34,1557360311,2019-05-09 08:05:11,1557360341,AUOV384AAAFqmebdmgAAkMIAAFAw,http://pb.api.weq.com/v1.4/event?click_id=AUOV384AAAFqmebdmgAAkMIAAFAw,idfa_dee0fb35-2ead-abfe-f0df-eec733d829f1,%ED%95%9C%EA%B5%AD%EC%96%B4
6Ygg5Xs4QAyzYWn7K_bXlQ,crobo,20528_6_2198_3071_120,Install,1.8,183.99.158.58,085c6f5d-63ea-13a1-b605-e4c6e9e90c58,1557352465,2019-05-09 05:54:25,1557352683,2019-05-09 05:58:03,1557352713,ASBX_pwAAAFqmXCdrwAAkMIAAFAw,http://pb.api.weq.com/v1.4/event?click_id=ASBX_pwAAAFqmXCdrwAAkMIAAFAw,idfa_085c6f5d-63ea-13a1-b605-e4c6e9e90c58,%ED%95%9C%EA%B5%AD%EC%96%B4
6Ygg5Xs4QAyzYWn7K_bXlQ,crobo,20528_6_2198_3071_120,Install,1.8,220.76.91.23,7be3c1bf-c202-4d96-563c-7b155042f743,1557347616,2019-05-09 04:33:36,1557347720,2019-05-09 04:35:20,1557347750,Abv_AX0AAAFqmSag0gAAkMIAAFAw,http://pb.api.weq.com/v1.4/event?click_id=Abv_AX0AAAFqmSag0gAAkMIAAFAw,idfa_7be3c1bf-c202-4d96-563c-7b155042f743,%ED%95%9C%EA%B5%AD%EC%96%B4
6Ygg5Xs4QAyzYWn7K_bXlQ,crobo,20528_6_2198_3071_120,Install,1.8,121.137.70.65,b956d9c3-df20-2ea3-e1aa-5be35791fceb,1557360663,2019-05-09 08:11:03,1557360757,2019-05-09 08:12:37,1557360787,AaqiD1QAAAFqme25oAAAkMIAAFAw,http://pb.api.weq.com/v1.4/event?click_id=AaqiD1QAAAFqme25oAAAkMIAAFAw,idfa_b956d9c3-df20-2ea3-e1aa-5be35791fceb,%ED%95%9C%EA%B5%AD%EC%96%B4
6Ygg5Xs4QAyzYWn7K_bXlQ,crobo,20528_6_2198_3071_120,Install,1.8,121.170.244.47,eb5a728b-b818-eaeb-a846-819293084739,1557355522,2019-05-09 06:45:22,1557355644,2019-05-09 06:47:24,1557355675,ARpGlAIAAAFqmZ9J0AAAkMIAAFAw,http://pb.api.weq.com/v1.4/event?click_id=ARpGlAIAAAFqmZ9J0AAAkMIAAFAw,idfa_eb5a728b-b818-eaeb-a846-819293084739,%ED%95%9C%EA%B5%AD%EC%96%B4
6Ygg5Xs4QAyzYWn7K_bXlQ,crobo,20528_6_2198_3071_120,Install,1.8,112.144.24.210,31b1da4c-9ec6-9257-7b75-3bbde36f007a,1557348373,2019-05-09 04:46:13,1557348470,2019-05-09 04:47:50,1557348500,AaAM1qQAAAFqmTIxGwAAkMIAAFAw,http://pb.api.weq.com/v1.4/event?click_id=AaAM1qQAAAFqmTIxGwAAkMIAAFAw,idfa_31b1da4c-9ec6-9257-7b75-3bbde36f007a,%ED%95%9C%EA%B5%AD%EC%96%B4
6Ygg5Xs4QAyzYWn7K_bXlQ,crobo,20528_6_2198_3071_120,Install,1.8,210.110.156.57,16197933-811e-0fc0-173e-58f749bb9e48,1557362667,2019-05-09 08:44:27,1557362765,2019-05-09 08:46:05,1557362796,Ac0G-fQAAAFqmgxOmAAAkMIAAFAw,http://pb.api.weq.com/v1.4/event?click_id=Ac0G-fQAAAFqmgxOmAAAkMIAAFAw,idfa_16197933-811e-0fc0-173e-58f749bb9e48,%ED%95%9C%EA%B5%AD%EC%96%B4
6Ygg5Xs4QAyzYWn7K_bXlQ,crobo,20528_6_2198_3071_120,Install,1.8,112.144.24.210,1f4a6fbb-5f83-04ba-ea36-a2184173af77,1557348651,2019-05-09 04:50:51,1557348756,2019-05-09 04:52:36,1557348786,AdIhVTcAAAFqmTZsPgAAkMIAAFAw,http://pb.api.weq.com/v1.4/event?click_id=AdIhVTcAAAFqmTZsPgAAkMIAAFAw,idfa_1f4a6fbb-5f83-04ba-ea36-a2184173af77,%ED%95%9C%EA%B5%AD%EC%96%B4
6Ygg5Xs4QAyzYWn7K_bXlQ,crobo,20528_6_2198_3071_120,Install,1.8,211.177.110.229,678a72f9-9187-6400-a225-79b5b5ef4af9,1557348066,2019-05-09 04:41:06,1557348187,2019-05-09 04:43:07,1557348217,AR5cNVYAAAFqmS1-xwAAkMIAAFAw,http://pb.api.weq.com/v1.4/event?click_id=AR5cNVYAAAFqmS1-xwAAkMIAAFAw,idfa_678a72f9-9187-6400-a225-79b5b5ef4af9,%ED%95%9C%EA%B5%AD%EC%96%B4
6Ygg5Xs4QAyzYWn7K_bXlQ,crobo,20528_6_2198_3071_120,Install,1.8,59.22.59.107,8a85fcd0-d17a-5aed-8fd5-6b42305b9c84,1557351977,2019-05-09 05:46:17,1557352068,2019-05-09 05:47:48,1557352099,AcWzpRsAAAFqmWkvMQAAkMIAAFAw,http://pb.api.weq.com/v1.4/event?click_id=AcWzpRsAAAFqmWkvMQAAkMIAAFAw,idfa_8a85fcd0-d17a-5aed-8fd5-6b42305b9c84,%ED%95%9C%EA%B5%AD%EC%96%B4
6Ygg5Xs4QAyzYWn7K_bXlQ,crobo,20528_6_2198_3071_120,Install,1.8,218.237.244.98,95782396-cea8-0f9e-4d3b-8b9968c3c715,1557349578,2019-05-09 05:06:18,1557349673,2019-05-09 05:07:53,1557349703,Aavh1mcAAAFqmUSXywAAkMIAAFAw,http://pb.api.weq.com/v1.4/event?click_id=Aavh1mcAAAFqmUSXywAAkMIAAFAw,idfa_95782396-cea8-0f9e-4d3b-8b9968c3c715,%ED%95%9C%EA%B5%AD%EC%96%B4
6Ygg5Xs4QAyzYWn7K_bXlQ,crobo,20528_6_2198_3071_120,Install,1.8,220.119.234.101,84105cea-8744-8f92-29d8-47aba24e66fd,1557360644,2019-05-09 08:10:44,1557360871,2019-05-09 08:14:31,1557360902,AU1PkLcAAAFqme1vVAAAkMIAAFAw,http://pb.api.weq.com/v1.4/event?click_id=AU1PkLcAAAFqme1vVAAAkMIAAFAw,idfa_84105cea-8744-8f92-29d8-47aba24e66fd,%ED%95%9C%EA%B5%AD%EC%96%B4
6Ygg5Xs4QAyzYWn7K_bXlQ,crobo,20528_6_2198_3071_120,Install,1.8,125.128.114.118,d649e834-e451-3513-c69f-5bb6ddca63d7,1557351733,2019-05-09 05:42:13,1557351824,2019-05-09 05:43:44,1557351854,AQgtTUUAAAFqmWVzaAAAkMIAAFAw,http://pb.api.weq.com/v1.4/event?click_id=AQgtTUUAAAFqmWVzaAAAkMIAAFAw,idfa_d649e834-e451-3513-c69f-5bb6ddca63d7,%ED%95%9C%EA%B5%AD%EC%96%B4
6Ygg5Xs4QAyzYWn7K_bXlQ,crobo,20528_6_2198_3071_120,Install,1.8,119.75.148.8,c02e9d3f-3a71-0014-b071-0d5db1ebff92,1557352035,2019-05-09 05:47:15,1557352146,2019-05-09 05:49:06,1557352176,AUxC9JEAAAFqmWoQHAAAkMIAAFAw,http://pb.api.weq.com/v1.4/event?click_id=AUxC9JEAAAFqmWoQHAAAkMIAAFAw,idfa_c02e9d3f-3a71-0014-b071-0d5db1ebff92,%ED%95%9C%EA%B5%AD%EC%96%B4
6Ygg5Xs4QAyzYWn7K_bXlQ,crobo,20528_6_2198_3071_120,Install,1.8,221.157.123.125,7354e2b7-a0fb-a52e-3ff0-ecb19f29cd16,1557352828,2019-05-09 06:00:28,1557352930,2019-05-09 06:02:10,1557352960,AfQZaWMAAAFqmXYo4QAAkMIAAFAw,http://pb.api.weq.com/v1.4/event?click_id=AfQZaWMAAAFqmXYo4QAAkMIAAFAw,idfa_7354e2b7-a0fb-a52e-3ff0-ecb19f29cd16,%ED%95%9C%EA%B5%AD%EC%96%B4
6Ygg5Xs4QAyzYWn7K_bXlQ,crobo,20528_6_2198_3071_120,Install,1.8,121.162.147.188,6b9e05ff-dab1-4fa9-061c-b3ce6cbffac8,1557331660,2019-05-09 00:07:40,1557331749,2019-05-09 00:09:09,1557331780,AX5Hph8AAAFqmDMfrwAAkMIAAFAw,http://pb.api.weq.com/v1.4/event?click_id=AX5Hph8AAAFqmDMfrwAAkMIAAFAw,idfa_6b9e05ff-dab1-4fa9-061c-b3ce6cbffac8,%ED%95%9C%EA%B5%AD%EC%96%B4
6Ygg5Xs4QAyzYWn7K_bXlQ,crobo,20528_6_2198_3071_120,Install,1.8,1.214.254.242,415d45f2-8a77-0f2e-664b-4eca2f2bd072,1557334623,2019-05-09 00:57:03,1557334792,2019-05-09 00:59:52,1557334822,AZIPFj0AAAFqmGBasQAAkMIAAFAw,http://pb.api.weq.com/v1.4/event?click_id=AZIPFj0AAAFqmGBasQAAkMIAAFAw,idfa_415d45f2-8a77-0f2e-664b-4eca2f2bd072,%ED%95%9C%EA%B5%AD%EC%96%B4
