cid,partner_id,channel_id,action_id,cpi,ip,idfa,click time,click datetime,install time,install datetime,postback time,click id,postback url,unique user id
odtvQQOkSmePHaoXEwJjng,crobo,6078_px493157920_6078_px493157920,install,1.7,211.54.17.83,D8CA7E01-C7AF-47EA-BF05-5DD8EF99A321,1558749342,2019-05-25 09:55:42,1558749527,2019-05-25 09:58:47,1558749560,AUgzgvYAAAFq7LNFeAABCTIAABe-,http://pb.api.weq.com/v1.4/event?click_id=AUgzgvYAAAFq7LNFeAABCTIAABe-,idfa_D8CA7E01-C7AF-47EA-BF05-5DD8EF99A321,ko
odtvQQOkSmePHaoXEwJjng,crobo,6078_px493157920_6078_px493157920,install,1.7,211.34.45.223,42BE03CA-ED82-45CE-8C11-497E3F98B873,1558739993,2019-05-25 07:19:53,1558740226,2019-05-25 07:23:46,1558740260,Ad5hljkAAAFq7CSd7gABCTIAABe-,http://pb.api.weq.com/v1.4/event?click_id=Ad5hljkAAAFq7CSd7gABCTIAABe-,idfa_42BE03CA-ED82-45CE-8C11-497E3F98B873,ko
odtvQQOkSmePHaoXEwJjng,crobo,6078_px493157920_6078_px493157920,install,1.7,222.104.52.86,197E94A3-96E5-4861-A438-B8F7752D86F2,1558668714,2019-05-24 11:31:54,1558668912,2019-05-24 11:35:12,1558668945,AUDMC3IAAAFq5-UN6AABCTIAABe-,http://pb.api.weq.com/v1.4/event?click_id=AUDMC3IAAAFq5-UN6AABCTIAABe-,idfa_197E94A3-96E5-4861-A438-B8F7752D86F2,ko
odtvQQOkSmePHaoXEwJjng,crobo,6078_px493157920_6078_px493157920,install,1.7,125.134.126.204,704A3ED5-DE9B-4D80-80A4-5951EEE8A1AD,1558700931,2019-05-24 20:28:51,1558701086,2019-05-24 20:31:26,1558701120,ATjw_FUAAAFq6dCMawABCTIAABe-,http://pb.api.weq.com/v1.4/event?click_id=ATjw_FUAAAFq6dCMawABCTIAABe-,idfa_704A3ED5-DE9B-4D80-80A4-5951EEE8A1AD,ko
odtvQQOkSmePHaoXEwJjng,crobo,6078_px493157920_6078_px493157920,install,1.7,211.198.148.1,2B506577-A654-4037-9785-C678A87A70E0,1558725148,2019-05-25 03:12:28,1558725401,2019-05-25 03:16:41,1558725434,AZCaKDQAAAFq60InVAABCTIAABe-,http://pb.api.weq.com/v1.4/event?click_id=AZCaKDQAAAFq60InVAABCTIAABe-,idfa_2B506577-A654-4037-9785-C678A87A70E0,ko
odtvQQOkSmePHaoXEwJjng,crobo,6078_px493157920_6078_px493157920,install,1.7,222.237.202.142,18BB0D07-FEC2-4147-81DE-3C3DBE4F40CD,1558692807,2019-05-24 18:13:27,1558692964,2019-05-24 18:16:04,1558692998,AT1WUS4AAAFq6VStnQABCTIAABe-,http://pb.api.weq.com/v1.4/event?click_id=AT1WUS4AAAFq6VStnQABCTIAABe-,idfa_18BB0D07-FEC2-4147-81DE-3C3DBE4F40CD,ko
odtvQQOkSmePHaoXEwJjng,crobo,6078_px493157920_6078_px493157920,install,1.7,115.90.192.18,F41C74A7-8057-4FD4-A52A-ACEEC6A854CF,1558415057,2019-05-21 13:04:17,1558415230,2019-05-21 13:07:10,1558415262,AX5W42UAAAFq2MaGNQABCTIAABe-,http://pb.api.weq.com/v1.4/event?click_id=AX5W42UAAAFq2MaGNQABCTIAABe-,idfa_F41C74A7-8057-4FD4-A52A-ACEEC6A854CF,ko
odtvQQOkSmePHaoXEwJjng,crobo,6078_px493157920_6078_px493157920,install,1.7,121.169.142.167,0572EF81-ED0C-4BAF-8324-E3A5204C973C,1558757553,2019-05-25 12:12:33,1558757745,2019-05-25 12:15:45,1558757779,AXhSR8IAAAFq7TChxgABCTIAABe-,http://pb.api.weq.com/v1.4/event?click_id=AXhSR8IAAAFq7TChxgABCTIAABe-,idfa_0572EF81-ED0C-4BAF-8324-E3A5204C973C,ko
odtvQQOkSmePHaoXEwJjng,crobo,6078_px493157920_6078_px493157920,install,1.7,182.211.41.17,60832C46-AD41-4ADA-824D-226DC3CF2D22,1558730120,2019-05-25 04:35:20,1558730278,2019-05-25 04:37:58,1558730311,ARpPX0YAAAFq64314wABCTIAABe-,http://pb.api.weq.com/v1.4/event?click_id=ARpPX0YAAAFq64314wABCTIAABe-,idfa_60832C46-AD41-4ADA-824D-226DC3CF2D22,ko
odtvQQOkSmePHaoXEwJjng,crobo,6078_px493157920_6078_px493157920,install,1.7,59.21.91.69,75698035-D787-4290-BFBD-F8BA700E3CA4,1558672965,2019-05-24 12:42:45,1558673126,2019-05-24 12:45:26,1558673159,AW0K9BwAAAFq6CW1VAABCTIAABe-,http://pb.api.weq.com/v1.4/event?click_id=AW0K9BwAAAFq6CW1VAABCTIAABe-,idfa_75698035-D787-4290-BFBD-F8BA700E3CA4,ko
odtvQQOkSmePHaoXEwJjng,crobo,6078_px493157920_6078_px493157920,install,1.7,211.205.95.9,FA0F5245-0412-41D0-BCE2-978DC2C3104E,1558684639,2019-05-24 15:57:19,1558684830,2019-05-24 16:00:30,1558684864,AV7WeTIAAAFq6Nf-SAABCTIAABe-,http://pb.api.weq.com/v1.4/event?click_id=AV7WeTIAAAFq6Nf-SAABCTIAABe-,idfa_FA0F5245-0412-41D0-BCE2-978DC2C3104E,ko
odtvQQOkSmePHaoXEwJjng,crobo,6078_px493157920_6078_px493157920,install,1.7,175.212.194.215,C5B7D946-1AD2-4D6B-A2FB-8121645C1DDE,1558665651,2019-05-24 10:40:51,1558665885,2019-05-24 10:44:45,1558665918,AS6__DAAAAFq57ZDKQABCTIAABe-,http://pb.api.weq.com/v1.4/event?click_id=AS6__DAAAAFq57ZDKQABCTIAABe-,idfa_C5B7D946-1AD2-4D6B-A2FB-8121645C1DDE,ko
odtvQQOkSmePHaoXEwJjng,crobo,6078_px493157920_6078_px493157920,install,1.7,220.81.210.138,D7C4BC5E-8738-4AA5-A8CB-CEEA6AED9AB7,1558723273,2019-05-25 02:41:13,1558723420,2019-05-25 02:43:40,1558723454,AW_GDdIAAAFq6yV4ywABCTIAABe-,http://pb.api.weq.com/v1.4/event?click_id=AW_GDdIAAAFq6yV4ywABCTIAABe-,idfa_D7C4BC5E-8738-4AA5-A8CB-CEEA6AED9AB7,ko
odtvQQOkSmePHaoXEwJjng,crobo,6078_px493157920_6078_px493157920,install,1.7,121.124.160.100,AF5120DD-AB64-4BD0-A456-E98C11B7D124,1558676658,2019-05-24 13:44:18,1558676821,2019-05-24 13:47:01,1558676853,AXZNQRYAAAFq6F48kQABCTIAABe-,http://pb.api.weq.com/v1.4/event?click_id=AXZNQRYAAAFq6F48kQABCTIAABe-,idfa_AF5120DD-AB64-4BD0-A456-E98C11B7D124,ko
odtvQQOkSmePHaoXEwJjng,crobo,6078_px493157920_6078_px493157920,install,1.7,125.190.141.87,9277196F-6734-47EC-8AF0-8F02A3A03AC7,1558704725,2019-05-24 21:32:05,1558704962,2019-05-24 21:36:02,1558704996,AUwgHcUAAAFq6gqCxAABCTIAABe-,http://pb.api.weq.com/v1.4/event?click_id=AUwgHcUAAAFq6gqCxAABCTIAABe-,idfa_9277196F-6734-47EC-8AF0-8F02A3A03AC7,ko
odtvQQOkSmePHaoXEwJjng,crobo,6078_px493157920_6078_px493157920,install,1.7,121.151.64.73,59FEAEF1-E62D-42BD-8F80-79823C8A4EE4,1558397032,2019-05-21 08:03:52,1558397199,2019-05-21 08:06:39,1558397232,AXwE8SEAAAFq17OD7wABCTIAABe-,http://pb.api.weq.com/v1.4/event?click_id=AXwE8SEAAAFq17OD7wABCTIAABe-,idfa_59FEAEF1-E62D-42BD-8F80-79823C8A4EE4,ko
odtvQQOkSmePHaoXEwJjng,crobo,6078_px493157920_6078_px493157920,install,1.7,175.212.194.215,BD9CED86-0B22-4A42-9A4C-0F3E81D02E86,1558753588,2019-05-25 11:06:28,1558753778,2019-05-25 11:09:38,1558753811,Ac-Fh9MAAAFq7PQXOAABCTIAABe-,http://pb.api.weq.com/v1.4/event?click_id=Ac-Fh9MAAAFq7PQXOAABCTIAABe-,idfa_BD9CED86-0B22-4A42-9A4C-0F3E81D02E86,ko
odtvQQOkSmePHaoXEwJjng,crobo,6078_px493157920_6078_px493157920,install,1.7,58.125.33.194,7DEFA2E3-7E90-432F-A7B7-80A62C021A15,1558662003,2019-05-24 09:40:03,1558662185,2019-05-24 09:43:05,1558662217,AUTcfbUAAAFq536m8AABCTIAABe-,http://pb.api.weq.com/v1.4/event?click_id=AUTcfbUAAAFq536m8AABCTIAABe-,idfa_7DEFA2E3-7E90-432F-A7B7-80A62C021A15,ko
odtvQQOkSmePHaoXEwJjng,crobo,6078_px493157920_6078_px493157920,install,1.7,118.39.38.137,BFFAF7C6-9136-4A64-BD94-9F698E23A183,1558695799,2019-05-24 19:03:19,1558695987,2019-05-24 19:06:27,1558696020,AWaFB9MAAAFq6YJK0gABCTIAABe-,http://pb.api.weq.com/v1.4/event?click_id=AWaFB9MAAAFq6YJK0gABCTIAABe-,idfa_BFFAF7C6-9136-4A64-BD94-9F698E23A183,ko
odtvQQOkSmePHaoXEwJjng,crobo,6078_px493157920_6078_px493157920,install,1.7,58.142.29.118,FFB774BA-D5D8-4C24-AFF4-16EBE4A7CC7C,1558749614,2019-05-25 10:00:14,1558749792,2019-05-25 10:03:12,1558749824,AQldQtEAAAFq7LdvEAABCTIAABe-,http://pb.api.weq.com/v1.4/event?click_id=AQldQtEAAAFq7LdvEAABCTIAABe-,idfa_FFB774BA-D5D8-4C24-AFF4-16EBE4A7CC7C,ko
odtvQQOkSmePHaoXEwJjng,crobo,6078_px493157920_6078_px493157920,install,1.7,59.21.102.113,95E24991-76EC-494D-8882-A96C3A19325C,1558742465,2019-05-25 08:01:05,1558742671,2019-05-25 08:04:31,1558742704,AXb-rUIAAAFq7Epk5QABCTIAABe-,http://pb.api.weq.com/v1.4/event?click_id=AXb-rUIAAAFq7Epk5QABCTIAABe-,idfa_95E24991-76EC-494D-8882-A96C3A19325C,ko
odtvQQOkSmePHaoXEwJjng,crobo,6078_px493157920_6078_px493157920,install,1.7,211.54.110.57,0A9C44A2-86A3-419E-8178-DCDADB247522,1558679130,2019-05-24 14:25:30,1558679609,2019-05-24 14:33:29,1558679642,AWau3eoAAAFq6IP8RQABCTIAABe-,http://pb.api.weq.com/v1.4/event?click_id=AWau3eoAAAFq6IP8RQABCTIAABe-,idfa_0A9C44A2-86A3-419E-8178-DCDADB247522,ko
odtvQQOkSmePHaoXEwJjng,crobo,6078_px493157920_6078_px493157920,install,1.7,14.46.196.104,259BE741-8529-4256-9017-F562512405C0,1558396399,2019-05-21 07:53:19,1558396570,2019-05-21 07:56:10,1558396603,AStzdSYAAAFq16nM0gABCTIAABe-,http://pb.api.weq.com/v1.4/event?click_id=AStzdSYAAAFq16nM0gABCTIAABe-,idfa_259BE741-8529-4256-9017-F562512405C0,ko
odtvQQOkSmePHaoXEwJjng,crobo,6078_px493157920_6078_px493157920,install,1.7,211.184.143.103,64AEB979-7906-41FC-910C-98828583908A,1558716347,2019-05-25 00:45:47,1558716532,2019-05-25 00:48:52,1558716564,AVfrdxQAAAFq6rvO4AABCTIAABe-,http://pb.api.weq.com/v1.4/event?click_id=AVfrdxQAAAFq6rvO4AABCTIAABe-,idfa_64AEB979-7906-41FC-910C-98828583908A,ko
odtvQQOkSmePHaoXEwJjng,crobo,6078_px493157920_6078_px493157920,install,1.7,121.133.174.52,FE8BEE58-1420-41DE-AF3B-F8FC0CB861FE,1558707704,2019-05-24 22:21:44,1558707847,2019-05-24 22:24:07,1558707880,AQRBPHUAAAFq6jeDnQABCTIAABe-,http://pb.api.weq.com/v1.4/event?click_id=AQRBPHUAAAFq6jeDnQABCTIAABe-,idfa_FE8BEE58-1420-41DE-AF3B-F8FC0CB861FE,ko
odtvQQOkSmePHaoXEwJjng,crobo,6078_px493157920_6078_px493157920,install,1.7,223.39.152.199,6473FDF4-119B-444C-9159-E9BFCEC30DE4,1558395206,2019-05-21 07:33:26,1558509841,2019-05-22 15:24:01,1558509873,AWLrir4AAAFq15dw6QABCTIAABe-,http://pb.api.weq.com/v1.4/event?click_id=AWLrir4AAAFq15dw6QABCTIAABe-,idfa_6473FDF4-119B-444C-9159-E9BFCEC30DE4,ko
odtvQQOkSmePHaoXEwJjng,crobo,6078_px493157920_6078_px493157920,install,1.7,118.222.103.10,27961445-68AB-4E4A-90B3-D3D236EBD3D1,1558687256,2019-05-24 16:40:56,1558687424,2019-05-24 16:43:44,1558687456,AatmFjAAAAFq6P_1mwABCTIAABe-,http://pb.api.weq.com/v1.4/event?click_id=AatmFjAAAAFq6P_1mwABCTIAABe-,idfa_27961445-68AB-4E4A-90B3-D3D236EBD3D1,ko
odtvQQOkSmePHaoXEwJjng,crobo,6078_px493157920_6078_px493157920,install,1.7,115.20.251.61,E28B74B7-FFA7-459F-A578-42C2BF50EB63,1558717984,2019-05-25 01:13:04,1558718226,2019-05-25 01:17:06,1558718259,ARK783MAAAFq6tTMbwABCTIAABe-,http://pb.api.weq.com/v1.4/event?click_id=ARK783MAAAFq6tTMbwABCTIAABe-,idfa_E28B74B7-FFA7-459F-A578-42C2BF50EB63,ko
odtvQQOkSmePHaoXEwJjng,crobo,6078_px493157920_6078_px493157920,install,1.7,121.125.139.83,AC43E997-F1D2-455B-8F96-0567458727A7,1558689833,2019-05-24 17:23:53,1558690011,2019-05-24 17:26:51,1558690044,Aaa5aCsAAAFq6SdDMAABCTIAABe-,http://pb.api.weq.com/v1.4/event?click_id=Aaa5aCsAAAFq6SdDMAABCTIAABe-,idfa_AC43E997-F1D2-455B-8F96-0567458727A7,ko
odtvQQOkSmePHaoXEwJjng,crobo,6078_px493157920_6078_px493157920,install,1.7,121.157.186.249,E5FA1D99-17F6-449C-BF8E-6874DDA7930B,1558732078,2019-05-25 05:07:58,1558732942,2019-05-25 05:22:22,1558732976,ATfNMrAAAAFq66voyQABCTIAABe-,http://pb.api.weq.com/v1.4/event?click_id=ATfNMrAAAAFq66voyQABCTIAABe-,idfa_E5FA1D99-17F6-449C-BF8E-6874DDA7930B,ko
