cid,partner_id,channel_id,action_id,cpi,ip,idfa,click time,click datetime,install time,install datetime,postback time,click id,postback url,unique user id
e9lJDF_HT3-mtzi3MaSlEg,crobo,20922_415_23_759623_05788-05363_1539_20922_415_23_759623_05788-05363_1539,Install,3.5,121.165.34.25,315BFC30-A8CA-441B-A5CA-D9E1BBDDD14B,1559234170,2019-05-31 00:36:10,1559234277,2019-05-31 00:37:57,1559234308,ASk0OocAAAFrCZkFhQABB84AAFG6,http://pb.api.weq.com/v1.4/event?click_id=ASk0OocAAAFrCZkFhQABB84AAFG6,idfa_315BFC30-A8CA-441B-A5CA-D9E1BBDDD14B,ko-KR
e9lJDF_HT3-mtzi3MaSlEg,crobo,20922_415_23_759623_05788-05363_1539_20922_415_23_759623_05788-05363_1539,Install,3.5,175.120.111.235,73FC48F5-84F0-4BD2-9ED5-064E53EC5582,1559234651,2019-05-31 00:44:11,1559234762,2019-05-31 00:46:02,1559234793,AbnfzEwAAAFrCaBdVAABB84AAFG6,http://pb.api.weq.com/v1.4/event?click_id=AbnfzEwAAAFrCaBdVAABB84AAFG6,idfa_73FC48F5-84F0-4BD2-9ED5-064E53EC5582,ko-KR
e9lJDF_HT3-mtzi3MaSlEg,crobo,20922_415_23_759623_05788-05363_1539_20922_415_23_759623_05788-05363_1539,Install,3.5,221.145.44.17,1C38312C-1DEB-49DA-90F1-B01AA8BF2114,1559233409,2019-05-31 00:23:29,1559233501,2019-05-31 00:25:01,1559233532,AYGHXAQAAAFrCY1slgABB84AAFG6,http://pb.api.weq.com/v1.4/event?click_id=AYGHXAQAAAFrCY1slgABB84AAFG6,idfa_1C38312C-1DEB-49DA-90F1-B01AA8BF2114,ko-KR
e9lJDF_HT3-mtzi3MaSlEg,crobo,20922_415_23_759623_05788-05363_1539_20922_415_23_759623_05788-05363_1539,Install,3.5,39.116.91.172,37D95DB1-BC11-4939-B8BD-8E0102028EB8,1559093251,2019-05-29 09:27:31,1559093350,2019-05-29 09:29:10,1559093381,AeLmZ8AAAAFrATLUTQABB84AAFG6,http://pb.api.weq.com/v1.4/event?click_id=AeLmZ8AAAAFrATLUTQABB84AAFG6,idfa_37D95DB1-BC11-4939-B8BD-8E0102028EB8,ko-KR
e9lJDF_HT3-mtzi3MaSlEg,crobo,20922_415_23_759623_05788-05363_1539_20922_415_23_759623_05788-05363_1539,Install,3.5,1.213.182.68,5B52C6B3-AF59-4ECC-8F70-4EB1FDB23131,1559233948,2019-05-31 00:32:28,1559234051,2019-05-31 00:34:11,1559234081,AVldozIAAAFrCZWViQABB84AAFG6,http://pb.api.weq.com/v1.4/event?click_id=AVldozIAAAFrCZWViQABB84AAFG6,idfa_5B52C6B3-AF59-4ECC-8F70-4EB1FDB23131,ko-KR
e9lJDF_HT3-mtzi3MaSlEg,crobo,20922_415_23_759623_05788-05363_1539_20922_415_23_759623_05788-05363_1539,Install,3.5,222.109.92.53,A5634E74-CDBF-4D57-8688-E121AFEE036E,1559234623,2019-05-31 00:43:43,1559234711,2019-05-31 00:45:11,1559234742,AV5iYiMAAAFrCZ_13AABB84AAFG6,http://pb.api.weq.com/v1.4/event?click_id=AV5iYiMAAAFrCZ_13AABB84AAFG6,idfa_A5634E74-CDBF-4D57-8688-E121AFEE036E,ko-KR
e9lJDF_HT3-mtzi3MaSlEg,crobo,20922_415_23_759623_05788-05363_1539_20922_415_23_759623_05788-05363_1539,Install,3.5,14.50.242.251,5F45E5E9-4250-4E7E-9859-35F9E20A327E,1559234104,2019-05-31 00:35:04,1559234205,2019-05-31 00:36:45,1559234236,Ab7YYZEAAAFrCZgFowABB84AAFG6,http://pb.api.weq.com/v1.4/event?click_id=Ab7YYZEAAAFrCZgFowABB84AAFG6,idfa_5F45E5E9-4250-4E7E-9859-35F9E20A327E,ko-KR
e9lJDF_HT3-mtzi3MaSlEg,crobo,20922_415_23_759623_05788-05363_1539_20922_415_23_759623_05788-05363_1539,Install,3.5,118.38.156.27,BD20EFF6-8C5D-4ECD-925E-60868BC42601,1559234071,2019-05-31 00:34:31,1559234172,2019-05-31 00:36:12,1559234203,AX0P_rUAAAFrCZeOgAABB84AAFG6,http://pb.api.weq.com/v1.4/event?click_id=AX0P_rUAAAFrCZeOgAABB84AAFG6,idfa_BD20EFF6-8C5D-4ECD-925E-60868BC42601,ko-KR
e9lJDF_HT3-mtzi3MaSlEg,crobo,20922_415_23_759623_05788-05363_1539_20922_415_23_759623_05788-05363_1539,Install,3.5,220.126.111.27,9D464DE2-ADBE-41B7-AAA9-71899017301C,1559234209,2019-05-31 00:36:49,1559234334,2019-05-31 00:38:54,1559234365,AZeqOoYAAAFrCZmg0QABB84AAFG6,http://pb.api.weq.com/v1.4/event?click_id=AZeqOoYAAAFrCZmg0QABB84AAFG6,idfa_9D464DE2-ADBE-41B7-AAA9-71899017301C,ko-KR
e9lJDF_HT3-mtzi3MaSlEg,crobo,20922_415_23_759623_05788-05363_1539_20922_415_23_759623_05788-05363_1539,Install,3.5,180.70.224.219,89173E4B-BAF1-4640-BC1F-4AB17CA8ABFE,1559234102,2019-05-31 00:35:02,1559234187,2019-05-31 00:36:27,1559234218,AQ1_Ir4AAAFrCZgDKwABB84AAFG6,http://pb.api.weq.com/v1.4/event?click_id=AQ1_Ir4AAAFrCZgDKwABB84AAFG6,idfa_89173E4B-BAF1-4640-BC1F-4AB17CA8ABFE,ko-KR
e9lJDF_HT3-mtzi3MaSlEg,crobo,20922_415_23_759623_05788-05363_1539_20922_415_23_759623_05788-05363_1539,Install,3.5,14.36.198.74,6646830F-B5AA-46BA-9FA9-E4447173D390,1559233991,2019-05-31 00:33:11,1559234119,2019-05-31 00:35:19,1559234150,ASpMKigAAAFrCZZPyQABB84AAFG6,http://pb.api.weq.com/v1.4/event?click_id=ASpMKigAAAFrCZZPyQABB84AAFG6,idfa_6646830F-B5AA-46BA-9FA9-E4447173D390,ko-KR
e9lJDF_HT3-mtzi3MaSlEg,crobo,20922_415_23_759623_05788-05363_1539_20922_415_23_759623_05788-05363_1539,Install,3.5,110.10.255.37,603AB139-8481-4871-914D-6B0F8FCF9555,1559234635,2019-05-31 00:43:55,1559234724,2019-05-31 00:45:24,1559234755,AdMuYogAAAFrCaAlKwABB84AAFG6,http://pb.api.weq.com/v1.4/event?click_id=AdMuYogAAAFrCaAlKwABB84AAFG6,idfa_603AB139-8481-4871-914D-6B0F8FCF9555,ko-KR
e9lJDF_HT3-mtzi3MaSlEg,crobo,20922_415_23_759623_05788-05363_1539_20922_415_23_759623_05788-05363_1539,Install,3.5,14.45.125.121,0753348B-AE96-460A-957E-6D30AEC9A73A,1559234114,2019-05-31 00:35:14,1559234268,2019-05-31 00:37:48,1559234298,Af958NMAAAFrCZgrGQABB84AAFG6,http://pb.api.weq.com/v1.4/event?click_id=Af958NMAAAFrCZgrGQABB84AAFG6,idfa_0753348B-AE96-460A-957E-6D30AEC9A73A,ko-KR
e9lJDF_HT3-mtzi3MaSlEg,crobo,20922_415_23_759623_05788-05363_1539_20922_415_23_759623_05788-05363_1539,Install,3.5,122.43.85.232,2575D821-0542-4D10-ABA1-0E3B220820D9,1559234499,2019-05-31 00:41:39,1559234584,2019-05-31 00:43:04,1559234614,AXrWcoUAAAFrCZ4QfgABB84AAFG6,http://pb.api.weq.com/v1.4/event?click_id=AXrWcoUAAAFrCZ4QfgABB84AAFG6,idfa_2575D821-0542-4D10-ABA1-0E3B220820D9,ko-KR
e9lJDF_HT3-mtzi3MaSlEg,crobo,20922_415_23_759623_05788-05363_1539_20922_415_23_759623_05788-05363_1539,Install,3.5,122.43.232.155,062E069B-3583-41B3-854C-61E14CD12677,1559233960,2019-05-31 00:32:40,1559234057,2019-05-31 00:34:17,1559234088,AWu-ekUAAAFrCZXZHgABB84AAFG6,http://pb.api.weq.com/v1.4/event?click_id=AWu-ekUAAAFrCZXZHgABB84AAFG6,idfa_062E069B-3583-41B3-854C-61E14CD12677,ko-KR
e9lJDF_HT3-mtzi3MaSlEg,crobo,20922_415_23_759623_05788-05363_1539_20922_415_23_759623_05788-05363_1539,Install,3.5,58.126.234.154,238C9295-4404-4701-923F-5E99C9E3EB69,1559234000,2019-05-31 00:33:20,1559234102,2019-05-31 00:35:02,1559234132,Acd7zIwAAAFrCZZzMAABB84AAFG6,http://pb.api.weq.com/v1.4/event?click_id=Acd7zIwAAAFrCZZzMAABB84AAFG6,idfa_238C9295-4404-4701-923F-5E99C9E3EB69,ko-KR
e9lJDF_HT3-mtzi3MaSlEg,crobo,20922_415_23_759623_05788-05363_1539_20922_415_23_759623_05788-05363_1539,Install,3.5,121.65.166.42,051CC84D-1C1B-47CC-8A05-71E28C576F19,1559234500,2019-05-31 00:41:40,1559234609,2019-05-31 00:43:29,1559234639,AWx7VQkAAAFrCZ4UUwABB84AAFG6,http://pb.api.weq.com/v1.4/event?click_id=AWx7VQkAAAFrCZ4UUwABB84AAFG6,idfa_051CC84D-1C1B-47CC-8A05-71E28C576F19,ko-KR
e9lJDF_HT3-mtzi3MaSlEg,crobo,20922_415_23_759623_05788-05363_1539_20922_415_23_759623_05788-05363_1539,Install,3.5,124.56.86.217,98E93942-0BDB-4D06-9033-758B3AC4CE93,1559234235,2019-05-31 00:37:15,1559234323,2019-05-31 00:38:43,1559234354,Aft0ZNkAAAFrCZoHzQABB84AAFG6,http://pb.api.weq.com/v1.4/event?click_id=Aft0ZNkAAAFrCZoHzQABB84AAFG6,idfa_98E93942-0BDB-4D06-9033-758B3AC4CE93,ko-KR
e9lJDF_HT3-mtzi3MaSlEg,crobo,20922_415_23_759623_05788-05363_1539_20922_415_23_759623_05788-05363_1539,Install,3.5,218.237.217.251,1B15B14A-BCD0-442B-B7C1-37CD66E1CD68,1559234649,2019-05-31 00:44:09,1559234765,2019-05-31 00:46:05,1559234795,AVn5f6sAAAFrCaBYmQABB84AAFG6,http://pb.api.weq.com/v1.4/event?click_id=AVn5f6sAAAFrCaBYmQABB84AAFG6,idfa_1B15B14A-BCD0-442B-B7C1-37CD66E1CD68,ko-KR
e9lJDF_HT3-mtzi3MaSlEg,crobo,20922_415_23_759623_05788-05363_1539_20922_415_23_759623_05788-05363_1539,Install,3.5,58.121.154.97,55613E3F-3A40-4625-B8EE-C546FCD02CD0,1559234587,2019-05-31 00:43:07,1559234685,2019-05-31 00:44:45,1559234716,AT9PB6MAAAFrCZ9qVQABB84AAFG6,http://pb.api.weq.com/v1.4/event?click_id=AT9PB6MAAAFrCZ9qVQABB84AAFG6,idfa_55613E3F-3A40-4625-B8EE-C546FCD02CD0,ko-KR
e9lJDF_HT3-mtzi3MaSlEg,crobo,20922_415_23_759623_05788-05363_1539_20922_415_23_759623_05788-05363_1539,Install,3.5,211.49.16.124,DE174831-AEED-4702-B4BB-37551AC9AB0F,1559233989,2019-05-31 00:33:09,1559234111,2019-05-31 00:35:11,1559234142,AUAXrnYAAAFrCZZGiwABB84AAFG6,http://pb.api.weq.com/v1.4/event?click_id=AUAXrnYAAAFrCZZGiwABB84AAFG6,idfa_DE174831-AEED-4702-B4BB-37551AC9AB0F,ko-KR
e9lJDF_HT3-mtzi3MaSlEg,crobo,20922_415_23_759623_05788-05363_1539_20922_415_23_759623_05788-05363_1539,Install,3.5,218.235.220.206,E8625CC6-37E0-4CA4-B8F3-2BB087BF2451,1559234593,2019-05-31 00:43:13,1559234678,2019-05-31 00:44:38,1559234708,AQRV1iIAAAFrCZ91jAABB84AAFG6,http://pb.api.weq.com/v1.4/event?click_id=AQRV1iIAAAFrCZ91jAABB84AAFG6,idfa_E8625CC6-37E0-4CA4-B8F3-2BB087BF2451,ko-KR
