cid,partner_id,channel_id,action_id,cpi,ip,idfa,click time,click datetime,install time,install datetime,postback time,click id,postback url,unique user id
aQn0Jxq_Q-GrrP6qXh_POA,crobo,20211_427,Install,1.0,59.187.192.132,08d1de0b-72d5-4ec5-b2af-a9d4b3362683,1557809617,2019-05-14 12:53:37,1557809810,2019-05-14 12:56:50,1557809840,Aa8SPnAAAAFqtLBGBwAA010AAE7z,http://pb.api.weq.com/v1.4/event?click_id=Aa8SPnAAAAFqtLBGBwAA010AAE7z,idfa_08d1de0b-72d5-4ec5-b2af-a9d4b3362683,%ED%95%9C%EA%B5%AD%EC%96%B4
aQn0Jxq_Q-GrrP6qXh_POA,crobo,20211_427,Install,1.0,59.187.192.132,e2567c4a-9b8b-4b63-9f3d-b657c42fd209,1557888127,2019-05-15 10:42:07,1557888365,2019-05-15 10:46:05,1557888395,ARo4-CEAAAFquV5DwwAA010AAE7z,http://pb.api.weq.com/v1.4/event?click_id=ARo4-CEAAAFquV5DwwAA010AAE7z,idfa_e2567c4a-9b8b-4b63-9f3d-b657c42fd209,%ED%95%9C%EA%B5%AD%EC%96%B4
aQn0Jxq_Q-GrrP6qXh_POA,crobo,20211_427,Install,1.0,59.187.192.132,022d92e0-ba9f-4f5e-bb92-f6430a09a982,1557820231,2019-05-14 15:50:31,1557820426,2019-05-14 15:53:46,1557820457,AYox4p8AAAFqtVI9tAAA010AAE7z,http://pb.api.weq.com/v1.4/event?click_id=AYox4p8AAAFqtVI9tAAA010AAE7z,idfa_022d92e0-ba9f-4f5e-bb92-f6430a09a982,%ED%95%9C%EA%B5%AD%EC%96%B4
aQn0Jxq_Q-GrrP6qXh_POA,crobo,20211_427,Install,1.0,59.187.192.132,dec6f360-d3ff-4040-9d64-02c96e8ba612,1557882474,2019-05-15 09:07:54,1557882790,2019-05-15 09:13:10,1557882821,AW8xCXYAAAFquQf_jwAA010AAE7z,http://pb.api.weq.com/v1.4/event?click_id=AW8xCXYAAAFquQf_jwAA010AAE7z,idfa_dec6f360-d3ff-4040-9d64-02c96e8ba612,%ED%95%9C%EA%B5%AD%EC%96%B4
aQn0Jxq_Q-GrrP6qXh_POA,crobo,20211_427,Install,1.0,59.187.192.132,400c5608-3a3b-4ac9-8d87-08d927db69df,1557805062,2019-05-14 11:37:42,1557805306,2019-05-14 11:41:46,1557805337,AR-dqB0AAAFqtGq8zAAA010AAE7z,http://pb.api.weq.com/v1.4/event?click_id=AR-dqB0AAAFqtGq8zAAA010AAE7z,idfa_400c5608-3a3b-4ac9-8d87-08d927db69df,%ED%95%9C%EA%B5%AD%EC%96%B4
aQn0Jxq_Q-GrrP6qXh_POA,crobo,20211_427,Install,1.0,59.187.192.132,74ad70a1-de01-4f9e-98a0-aa3bb3621ad8,1557761925,2019-05-13 23:38:45,1557762147,2019-05-13 23:42:27,1557762177,AQM37VkAAAFqsdiPngAA010AAE7z,http://pb.api.weq.com/v1.4/event?click_id=AQM37VkAAAFqsdiPngAA010AAE7z,idfa_74ad70a1-de01-4f9e-98a0-aa3bb3621ad8,%ED%95%9C%EA%B5%AD%EC%96%B4
aQn0Jxq_Q-GrrP6qXh_POA,crobo,20211_427,Install,1.0,59.187.192.132,8b5fae2a-3c1d-4c41-87be-c0a49607c083,1557807202,2019-05-14 12:13:22,1557807419,2019-05-14 12:16:59,1557807450,ASWY-w0AAAFqtItrpAAA010AAE7z,http://pb.api.weq.com/v1.4/event?click_id=ASWY-w0AAAFqtItrpAAA010AAE7z,idfa_8b5fae2a-3c1d-4c41-87be-c0a49607c083,%ED%95%9C%EA%B5%AD%EC%96%B4
aQn0Jxq_Q-GrrP6qXh_POA,crobo,20211_427,Install,1.0,59.187.192.132,6bd6b70f-f64e-4a5a-83a5-b6bdaffeeb40,1557815125,2019-05-14 14:25:25,1557815276,2019-05-14 14:27:56,1557815307,AWOLKs8AAAFqtQRcEwAA010AAE7z,http://pb.api.weq.com/v1.4/event?click_id=AWOLKs8AAAFqtQRcEwAA010AAE7z,idfa_6bd6b70f-f64e-4a5a-83a5-b6bdaffeeb40,%ED%95%9C%EA%B5%AD%EC%96%B4
aQn0Jxq_Q-GrrP6qXh_POA,crobo,20211_427,Install,1.0,59.187.192.132,f0d450e5-cbc4-4cc1-bdba-7d07bda1cb21,1557802634,2019-05-14 10:57:14,1557802920,2019-05-14 11:02:00,1557802951,AVMDXA4AAAFqtEW4OQAA010AAE7z,http://pb.api.weq.com/v1.4/event?click_id=AVMDXA4AAAFqtEW4OQAA010AAE7z,idfa_f0d450e5-cbc4-4cc1-bdba-7d07bda1cb21,%ED%95%9C%EA%B5%AD%EC%96%B4
aQn0Jxq_Q-GrrP6qXh_POA,crobo,20211_427,Install,1.0,59.187.192.132,6ddb842a-7834-4e43-8de0-d3293a044d8f,1557758656,2019-05-13 22:44:16,1557758894,2019-05-13 22:48:14,1557758925,AeSebDYAAAFqsaakXgAA010AAE7z,http://pb.api.weq.com/v1.4/event?click_id=AeSebDYAAAFqsaakXgAA010AAE7z,idfa_6ddb842a-7834-4e43-8de0-d3293a044d8f,%ED%95%9C%EA%B5%AD%EC%96%B4
aQn0Jxq_Q-GrrP6qXh_POA,crobo,20211_427,Install,1.0,59.187.192.132,d572ef55-40c2-4e84-baca-0d08f712bebc,1557761029,2019-05-13 23:23:49,1557761239,2019-05-13 23:27:19,1557761269,AVLVkLcAAAFqscrfBgAA010AAE7z,http://pb.api.weq.com/v1.4/event?click_id=AVLVkLcAAAFqscrfBgAA010AAE7z,idfa_d572ef55-40c2-4e84-baca-0d08f712bebc,%ED%95%9C%EA%B5%AD%EC%96%B4
aQn0Jxq_Q-GrrP6qXh_POA,crobo,20211_427,Install,1.0,59.187.192.132,4c143c50-8367-46c9-a634-888e3a18214b,1557803280,2019-05-14 11:08:00,1557803554,2019-05-14 11:12:34,1557803585,AbfI1xcAAAFqtE-XCAAA010AAE7z,http://pb.api.weq.com/v1.4/event?click_id=AbfI1xcAAAFqtE-XCAAA010AAE7z,idfa_4c143c50-8367-46c9-a634-888e3a18214b,%ED%95%9C%EA%B5%AD%EC%96%B4
aQn0Jxq_Q-GrrP6qXh_POA,crobo,20211_427,Install,1.0,59.187.192.132,d330d404-7148-4c2b-93b5-0e6786722670,1557888669,2019-05-15 10:51:09,1557888884,2019-05-15 10:54:44,1557888914,Adh-Hv4AAAFquWaKHQAA010AAE7z,http://pb.api.weq.com/v1.4/event?click_id=Adh-Hv4AAAFquWaKHQAA010AAE7z,idfa_d330d404-7148-4c2b-93b5-0e6786722670,%ED%95%9C%EA%B5%AD%EC%96%B4
aQn0Jxq_Q-GrrP6qXh_POA,crobo,20211_427,Install,1.0,59.187.192.132,8a220c7f-2451-4e7f-b377-4c489480bf3b,1557814349,2019-05-14 14:12:29,1557814475,2019-05-14 14:14:35,1557814507,AVrB_ycAAAFqtPiE8gAA010AAE7z,http://pb.api.weq.com/v1.4/event?click_id=AVrB_ycAAAFqtPiE8gAA010AAE7z,idfa_8a220c7f-2451-4e7f-b377-4c489480bf3b,%ED%95%9C%EA%B5%AD%EC%96%B4
aQn0Jxq_Q-GrrP6qXh_POA,crobo,20211_427,Install,1.0,59.187.192.132,0ef8957b-5682-42a8-990c-adf38a5f7fe4,1557762416,2019-05-13 23:46:56,1557762608,2019-05-13 23:50:08,1557762638,Aed6rGAAAAFqseALWQAA010AAE7z,http://pb.api.weq.com/v1.4/event?click_id=Aed6rGAAAAFqseALWQAA010AAE7z,idfa_0ef8957b-5682-42a8-990c-adf38a5f7fe4,%ED%95%9C%EA%B5%AD%EC%96%B4
aQn0Jxq_Q-GrrP6qXh_POA,crobo,20211_427,Install,1.0,59.187.192.132,22135673-9e9d-4d44-9119-129ed4aa413a,1557759980,2019-05-13 23:06:20,1557760207,2019-05-13 23:10:07,1557760237,AWiWLfMAAAFqsbreSwAA010AAE7z,http://pb.api.weq.com/v1.4/event?click_id=AWiWLfMAAAFqsbreSwAA010AAE7z,idfa_22135673-9e9d-4d44-9119-129ed4aa413a,%ED%95%9C%EA%B5%AD%EC%96%B4
aQn0Jxq_Q-GrrP6qXh_POA,crobo,20211_427,Install,1.0,27.116.255.152,a4d82c89-c8b2-44d2-a3ed-dffef00572ef,1557756859,2019-05-13 22:14:19,1557757084,2019-05-13 22:18:04,1557757114,AVfKovgAAAFqsYtCyQAA010AAE7z,http://pb.api.weq.com/v1.4/event?click_id=AVfKovgAAAFqsYtCyQAA010AAE7z,idfa_a4d82c89-c8b2-44d2-a3ed-dffef00572ef,%ED%95%9C%EA%B5%AD%EC%96%B4
aQn0Jxq_Q-GrrP6qXh_POA,crobo,20211_427,Install,1.0,59.187.192.132,09b55ff3-dfb6-4099-baa4-11eac525d868,1557761514,2019-05-13 23:31:54,1557761684,2019-05-13 23:34:44,1557761714,AdHifkgAAAFqsdJGIAAA010AAE7z,http://pb.api.weq.com/v1.4/event?click_id=AdHifkgAAAFqsdJGIAAA010AAE7z,idfa_09b55ff3-dfb6-4099-baa4-11eac525d868,%ED%95%9C%EA%B5%AD%EC%96%B4
aQn0Jxq_Q-GrrP6qXh_POA,crobo,20211_427,Install,1.0,59.187.192.132,082be7e2-2f4a-463c-9518-81e70dea0249,1557809126,2019-05-14 12:45:26,1557809292,2019-05-14 12:48:12,1557809322,AaKQaFwAAAFqtKjIDAAA010AAE7z,http://pb.api.weq.com/v1.4/event?click_id=AaKQaFwAAAFqtKjIDAAA010AAE7z,idfa_082be7e2-2f4a-463c-9518-81e70dea0249,%ED%95%9C%EA%B5%AD%EC%96%B4
aQn0Jxq_Q-GrrP6qXh_POA,crobo,20211_427,Install,1.0,27.116.255.152,5fc7bf6d-3584-4a70-b86b-82f47b8930fc,1557757746,2019-05-13 22:29:06,1557757912,2019-05-13 22:31:52,1557757943,AZtj698AAAFqsZjH_wAA010AAE7z,http://pb.api.weq.com/v1.4/event?click_id=AZtj698AAAFqsZjH_wAA010AAE7z,idfa_5fc7bf6d-3584-4a70-b86b-82f47b8930fc,%ED%95%9C%EA%B5%AD%EC%96%B4
aQn0Jxq_Q-GrrP6qXh_POA,crobo,20211_427,Install,1.0,59.187.192.132,4bd88ed8-a7bd-4bb9-af2a-f5912e84d913,1557801701,2019-05-14 10:41:41,1557801865,2019-05-14 10:44:25,1557801896,AWEcHIsAAAFqtDeA7AAA010AAE7z,http://pb.api.weq.com/v1.4/event?click_id=AWEcHIsAAAFqtDeA7AAA010AAE7z,idfa_4bd88ed8-a7bd-4bb9-af2a-f5912e84d913,%ED%95%9C%EA%B5%AD%EC%96%B4
aQn0Jxq_Q-GrrP6qXh_POA,crobo,20211_427,Install,1.0,59.187.192.132,da1fbfd1-508f-48e9-bfe2-6f83b9a3061c,1557803971,2019-05-14 11:19:31,1557804390,2019-05-14 11:26:30,1557804420,AWAaBRMAAAFqtFoaewAA010AAE7z,http://pb.api.weq.com/v1.4/event?click_id=AWAaBRMAAAFqtFoaewAA010AAE7z,idfa_da1fbfd1-508f-48e9-bfe2-6f83b9a3061c,%ED%95%9C%EA%B5%AD%EC%96%B4
aQn0Jxq_Q-GrrP6qXh_POA,crobo,20211_427,Install,1.0,59.187.192.132,314ad187-2116-4af7-9a7a-a780e6f091d3,1557762971,2019-05-13 23:56:11,1557763222,2019-05-14 00:00:22,1557763254,AZ5yYv0AAAFqseiKzgAA010AAE7z,http://pb.api.weq.com/v1.4/event?click_id=AZ5yYv0AAAFqseiKzgAA010AAE7z,idfa_314ad187-2116-4af7-9a7a-a780e6f091d3,%ED%95%9C%EA%B5%AD%EC%96%B4
aQn0Jxq_Q-GrrP6qXh_POA,crobo,20211_427,Install,1.0,59.187.192.132,1a5a750e-b3ca-4fac-a443-26305b547c22,1557760468,2019-05-13 23:14:28,1557760779,2019-05-13 23:19:39,1557760810,AcM6lDMAAAFqscJMxgAA010AAE7z,http://pb.api.weq.com/v1.4/event?click_id=AcM6lDMAAAFqscJMxgAA010AAE7z,idfa_1a5a750e-b3ca-4fac-a443-26305b547c22,%ED%95%9C%EA%B5%AD%EC%96%B4
aQn0Jxq_Q-GrrP6qXh_POA,crobo,20211_427,Install,1.0,59.187.192.132,790eb749-1897-4d6b-a4ac-8de08ef06404,1557802120,2019-05-14 10:48:40,1557802297,2019-05-14 10:51:37,1557802327,AZh9mFQAAAFqtD3bnAAA010AAE7z,http://pb.api.weq.com/v1.4/event?click_id=AZh9mFQAAAFqtD3bnAAA010AAE7z,idfa_790eb749-1897-4d6b-a4ac-8de08ef06404,%ED%95%9C%EA%B5%AD%EC%96%B4
aQn0Jxq_Q-GrrP6qXh_POA,crobo,20211_427,Install,1.0,59.187.192.132,5a679210-e3d8-4c2e-bb8d-fded21865565,1557805699,2019-05-14 11:48:19,1557805953,2019-05-14 11:52:33,1557805983,Afctal0AAAFqtHR-uQAA010AAE7z,http://pb.api.weq.com/v1.4/event?click_id=Afctal0AAAFqtHR-uQAA010AAE7z,idfa_5a679210-e3d8-4c2e-bb8d-fded21865565,%ED%95%9C%EA%B5%AD%EC%96%B4
aQn0Jxq_Q-GrrP6qXh_POA,crobo,20211_427,Install,1.0,59.187.192.132,b90f3147-20f1-495b-b4c8-e585efe2843f,1557765299,2019-05-14 00:34:59,1557765582,2019-05-14 00:39:42,1557765612,Ab6_YY8AAAFqsgwJYAAA010AAE7z,http://pb.api.weq.com/v1.4/event?click_id=Ab6_YY8AAAFqsgwJYAAA010AAE7z,idfa_b90f3147-20f1-495b-b4c8-e585efe2843f,%ED%95%9C%EA%B5%AD%EC%96%B4
aQn0Jxq_Q-GrrP6qXh_POA,crobo,20211_427,Install,1.0,59.187.192.132,6f2abdf4-4eda-4b47-ab54-8a7ed634cc89,1557820782,2019-05-14 15:59:42,1557821018,2019-05-14 16:03:38,1557821048,Afmf-MAAAAFqtVqlIgAA010AAE7z,http://pb.api.weq.com/v1.4/event?click_id=Afmf-MAAAAFqtVqlIgAA010AAE7z,idfa_6f2abdf4-4eda-4b47-ab54-8a7ed634cc89,%ED%95%9C%EA%B5%AD%EC%96%B4
aQn0Jxq_Q-GrrP6qXh_POA,crobo,20211_427,Install,1.0,59.187.192.132,909a93cf-2969-43cb-aec5-f61cefd31356,1557821325,2019-05-14 16:08:45,1557821582,2019-05-14 16:13:02,1557821613,ATrUaDEAAAFqtWLtTgAA010AAE7z,http://pb.api.weq.com/v1.4/event?click_id=ATrUaDEAAAFqtWLtTgAA010AAE7z,idfa_909a93cf-2969-43cb-aec5-f61cefd31356,%ED%95%9C%EA%B5%AD%EC%96%B4
aQn0Jxq_Q-GrrP6qXh_POA,crobo,20211_427,Install,1.0,59.187.192.132,c728db45-0d83-4390-ac2a-04a469e5dd3b,1557819825,2019-05-14 15:43:45,1557819983,2019-05-14 15:46:23,1557820013,AfID2AMAAAFqtUwQvgAA010AAE7z,http://pb.api.weq.com/v1.4/event?click_id=AfID2AMAAAFqtUwQvgAA010AAE7z,idfa_c728db45-0d83-4390-ac2a-04a469e5dd3b,%ED%95%9C%EA%B5%AD%EC%96%B4
aQn0Jxq_Q-GrrP6qXh_POA,crobo,20211_427,Install,1.0,59.187.192.132,c38aa0c5-6b1e-4117-acd0-fd43ef2c7c53,1557759417,2019-05-13 22:56:57,1557759644,2019-05-13 23:00:44,1557759675,AT37hWIAAAFqsbJBwQAA010AAE7z,http://pb.api.weq.com/v1.4/event?click_id=AT37hWIAAAFqsbJBwQAA010AAE7z,idfa_c38aa0c5-6b1e-4117-acd0-fd43ef2c7c53,%ED%95%9C%EA%B5%AD%EC%96%B4
aQn0Jxq_Q-GrrP6qXh_POA,crobo,20211_427,Install,1.0,59.187.192.132,7c8cb82c-b108-462d-ba3d-010220fd7e07,1557882994,2019-05-15 09:16:34,1557883161,2019-05-15 09:19:21,1557883192,ASN88S4AAAFquQ_o5QAA010AAE7z,http://pb.api.weq.com/v1.4/event?click_id=ASN88S4AAAFquQ_o5QAA010AAE7z,idfa_7c8cb82c-b108-462d-ba3d-010220fd7e07,%ED%95%9C%EA%B5%AD%EC%96%B4
aQn0Jxq_Q-GrrP6qXh_POA,crobo,20211_427,Install,1.0,59.187.192.132,,1557764813,2019-05-14 00:26:53,1557764968,2019-05-14 00:29:28,1557764998,AT0RZccAAAFqsgSkIwAA010AAE7z,http://pb.api.weq.com/v1.4/event?click_id=AT0RZccAAAFqsgSkIwAA010AAE7z,androidid_4b3335157eb733a7,%ED%95%9C%EA%B5%AD%EC%96%B4
aQn0Jxq_Q-GrrP6qXh_POA,crobo,20211_427,Install,1.0,59.187.192.132,2d0fe620-3df6-4cbe-9b20-93f2373ffd08,1557808143,2019-05-14 12:29:03,1557808506,2019-05-14 12:35:06,1557808536,AYMwHYIAAAFqtJnL_wAA010AAE7z,http://pb.api.weq.com/v1.4/event?click_id=AYMwHYIAAAFqtJnL_wAA010AAE7z,idfa_2d0fe620-3df6-4cbe-9b20-93f2373ffd08,%ED%95%9C%EA%B5%AD%EC%96%B4
aQn0Jxq_Q-GrrP6qXh_POA,crobo,20211_427,Install,1.0,27.116.255.152,4ac4ce9c-3b52-445a-9110-de91df8f9b53,1557752592,2019-05-13 21:03:12,1557752806,2019-05-13 21:06:46,1557752871,AYHwUdEAAAFqsUop0AAA010AAE7z,http://pb.api.weq.com/v1.4/event?click_id=AYHwUdEAAAFqsUop0AAA010AAE7z,idfa_4ac4ce9c-3b52-445a-9110-de91df8f9b53,%ED%95%9C%EA%B5%AD%EC%96%B4
aQn0Jxq_Q-GrrP6qXh_POA,crobo,20211_427,Install,1.0,59.187.192.132,d076a47c-a876-4e67-992c-aabc3164d31f,1557821869,2019-05-14 16:17:49,1557822065,2019-05-14 16:21:05,1557822096,Ad4pjqoAAAFqtWtAJgAA010AAE7z,http://pb.api.weq.com/v1.4/event?click_id=Ad4pjqoAAAFqtWtAJgAA010AAE7z,idfa_d076a47c-a876-4e67-992c-aabc3164d31f,%ED%95%9C%EA%B5%AD%EC%96%B4
aQn0Jxq_Q-GrrP6qXh_POA,crobo,20211_427,Install,1.0,59.187.192.132,1a8ba8e5-3149-4d37-a7a7-e68b83e5b326,1557810082,2019-05-14 13:01:22,1557810250,2019-05-14 13:04:10,1557810280,Aa7xzTIAAAFqtLdd9QAA010AAE7z,http://pb.api.weq.com/v1.4/event?click_id=Aa7xzTIAAAFqtLdd9QAA010AAE7z,idfa_1a8ba8e5-3149-4d37-a7a7-e68b83e5b326,%ED%95%9C%EA%B5%AD%EC%96%B4
aQn0Jxq_Q-GrrP6qXh_POA,crobo,20211_427,Install,1.0,59.187.192.132,18ca5ffd-d347-4880-841b-843c6f56245e,1557806708,2019-05-14 12:05:08,1557806917,2019-05-14 12:08:37,1557806947,Adm1SG0AAAFqtIPfMAAA010AAE7z,http://pb.api.weq.com/v1.4/event?click_id=Adm1SG0AAAFqtIPfMAAA010AAE7z,idfa_18ca5ffd-d347-4880-841b-843c6f56245e,%ED%95%9C%EA%B5%AD%EC%96%B4
