cid,partner_id,channel_id,action_id,cpi,ip,idfa,click time,click datetime,install time,install datetime,postback time,click id,postback url,unique user id
dvH8wgFyQA6-48gsRSTnkg,crobo,20215_994101_20215_994101,Install,2.8,114.19.141.251,D77E34CE-3AC3-4016-9F90-4E7713AF14A7,1558091395,2019-05-17 19:09:55,1558091606,2019-05-17 19:13:26,1558091637,AVwk5-AAAAFqxXu0RAABCeIAAE73,http://pb.api.weq.com/v1.4/event?click_id=AVwk5-AAAAFqxXu0RAABCeIAAE73,idfa_D77E34CE-3AC3-4016-9F90-4E7713AF14A7,ja-JP
dvH8wgFyQA6-48gsRSTnkg,crobo,20215_994101_20215_994101,Install,2.8,101.1.136.113,C9E5C131-0FF3-4CF9-88CE-64B80DACE022,1558087368,2019-05-17 18:02:48,1558087634,2019-05-17 18:07:14,1558087728,AWv3RdgAAAFqxT48GgABCeIAAE73,http://pb.api.weq.com/v1.4/event?click_id=AWv3RdgAAAFqxT48GgABCeIAAE73,idfa_C9E5C131-0FF3-4CF9-88CE-64B80DACE022,ja-JP
dvH8wgFyQA6-48gsRSTnkg,crobo,20215_994101_20215_994101,Install,2.8,106.158.235.199,A092010C-4D64-45B2-9F6D-D141AC3D1ECC,1558062571,2019-05-17 11:09:31,1558062775,2019-05-17 11:12:55,1558062806,ATUJuEQAAAFqw8PNuQABCeIAAE73,http://pb.api.weq.com/v1.4/event?click_id=ATUJuEQAAAFqw8PNuQABCeIAAE73,idfa_A092010C-4D64-45B2-9F6D-D141AC3D1ECC,ja-JP
dvH8wgFyQA6-48gsRSTnkg,crobo,20215_994101_20215_994101,Install,2.8,180.18.246.161,37E1707A-76F4-4B8C-BF7B-D28C7F479CF3,1558215601,2019-05-19 05:40:01,1558215839,2019-05-19 05:43:59,1558215870,AX2zZkQAAAFqzOL3QQABCeIAAE73,http://pb.api.weq.com/v1.4/event?click_id=AX2zZkQAAAFqzOL3QQABCeIAAE73,idfa_37E1707A-76F4-4B8C-BF7B-D28C7F479CF3,ja-JP
dvH8wgFyQA6-48gsRSTnkg,crobo,20215_994101_20215_994101,Install,2.8,121.2.192.48,DB86D127-64FB-4087-B8DF-DDE750B6ABBE,1558201592,2019-05-19 01:46:32,1558201811,2019-05-19 01:50:11,1558201842,AT7yJsMAAAFqzA0w-AABCeIAAE73,http://pb.api.weq.com/v1.4/event?click_id=AT7yJsMAAAFqzA0w-AABCeIAAE73,idfa_DB86D127-64FB-4087-B8DF-DDE750B6ABBE,ja-JP
dvH8wgFyQA6-48gsRSTnkg,crobo,20215_994101_20215_994101,Install,2.8,121.103.113.118,7A4998B9-B650-4EE5-9034-730F9DCE314D,1558089035,2019-05-17 18:30:35,1558089206,2019-05-17 18:33:26,1558089237,ATfGrcsAAAFqxVetggABCeIAAE73,http://pb.api.weq.com/v1.4/event?click_id=ATfGrcsAAAFqxVetggABCeIAAE73,idfa_7A4998B9-B650-4EE5-9034-730F9DCE314D,ja-JP
dvH8wgFyQA6-48gsRSTnkg,crobo,20215_994101_20215_994101,Install,2.8,153.186.43.175,B61BDC51-C93B-4843-AB53-AA825CDE944B,1558228631,2019-05-19 09:17:11,1558228852,2019-05-19 09:20:52,1558228885,ATEWzNkAAAFqzam2qAABCeIAAE73,http://pb.api.weq.com/v1.4/event?click_id=ATEWzNkAAAFqzam2qAABCeIAAE73,idfa_B61BDC51-C93B-4843-AB53-AA825CDE944B,ja-JP
dvH8wgFyQA6-48gsRSTnkg,crobo,20215_994101_20215_994101,Install,2.8,103.2.248.36,F57DDBB4-0DCB-49BD-A228-349E130DC56D,1558236333,2019-05-19 11:25:33,1558236483,2019-05-19 11:28:03,1558236514,AVYpF5sAAAFqzh9FnQABCeIAAE73,http://pb.api.weq.com/v1.4/event?click_id=AVYpF5sAAAFqzh9FnQABCeIAAE73,idfa_F57DDBB4-0DCB-49BD-A228-349E130DC56D,ja-JP
dvH8wgFyQA6-48gsRSTnkg,crobo,20215_994101_20215_994101,Install,2.8,124.18.86.27,7CBCAB6A-E6AE-47E7-8626-5E7DE011773B,1558087388,2019-05-17 18:03:08,1558087717,2019-05-17 18:08:37,1558087748,AdQy-rEAAAFqxT6CeQABCeIAAE73,http://pb.api.weq.com/v1.4/event?click_id=AdQy-rEAAAFqxT6CeQABCeIAAE73,idfa_7CBCAB6A-E6AE-47E7-8626-5E7DE011773B,ja-JP
dvH8wgFyQA6-48gsRSTnkg,crobo,20215_994101_20215_994101,Install,2.8,124.140.91.182,5FD2A36E-1305-451B-A32A-32CB82BC89C6,1558092831,2019-05-17 19:33:51,1558092964,2019-05-17 19:36:04,1558092994,AXPtllAAAAFqxZGcewABCeIAAE73,http://pb.api.weq.com/v1.4/event?click_id=AXPtllAAAAFqxZGcewABCeIAAE73,idfa_5FD2A36E-1305-451B-A32A-32CB82BC89C6,ja-JP
dvH8wgFyQA6-48gsRSTnkg,crobo,20215_994101_20215_994101,Install,2.8,198.144.138.21,884507C2-FC7E-47BB-90A5-74B0F69D8E43,1558156332,2019-05-18 13:12:12,1558156462,2019-05-18 13:14:22,1558156494,AXD2bJMAAAFqyVp36QABCeIAAE73,http://pb.api.weq.com/v1.4/event?click_id=AXD2bJMAAAFqyVp36QABCeIAAE73,idfa_884507C2-FC7E-47BB-90A5-74B0F69D8E43,ja-JP
dvH8wgFyQA6-48gsRSTnkg,crobo,20215_994101_20215_994101,Install,2.8,113.153.87.232,644BBA78-AD3A-4297-91FD-716F819113D2,1558090382,2019-05-17 18:53:02,1558090574,2019-05-17 18:56:14,1558090605,ATeqOZ8AAAFqxWw_lgABCeIAAE73,http://pb.api.weq.com/v1.4/event?click_id=ATeqOZ8AAAFqxWw_lgABCeIAAE73,idfa_644BBA78-AD3A-4297-91FD-716F819113D2,ja-JP
dvH8wgFyQA6-48gsRSTnkg,crobo,20215_994101_20215_994101,Install,2.8,131.147.121.74,A0CAE055-96C5-445A-A4A0-498351838E24,1558201164,2019-05-19 01:39:24,1558201607,2019-05-19 01:46:47,1558201638,AWFPFk4AAAFqzAaheQABCeIAAE73,http://pb.api.weq.com/v1.4/event?click_id=AWFPFk4AAAFqzAaheQABCeIAAE73,idfa_A0CAE055-96C5-445A-A4A0-498351838E24,ja-JP
dvH8wgFyQA6-48gsRSTnkg,crobo,20215_994101_20215_994101,Install,2.8,1.21.134.17,0BFEE238-6834-4E85-BDDF-F6E92BF8A788,1558093755,2019-05-17 19:49:15,1558093933,2019-05-17 19:52:13,1558093964,AZ8po04AAAFqxZ-yywABCeIAAE73,http://pb.api.weq.com/v1.4/event?click_id=AZ8po04AAAFqxZ-yywABCeIAAE73,idfa_0BFEE238-6834-4E85-BDDF-F6E92BF8A788,ja-JP
dvH8wgFyQA6-48gsRSTnkg,crobo,20215_994101_20215_994101,Install,2.8,60.144.70.165,079557AE-3241-4151-BF37-2EEF1FAA7B7C,1558058961,2019-05-17 10:09:21,1558059234,2019-05-17 10:13:54,1558059266,AXnDqZsAAAFqw4zIdgABCeIAAE73,http://pb.api.weq.com/v1.4/event?click_id=AXnDqZsAAAFqw4zIdgABCeIAAE73,idfa_079557AE-3241-4151-BF37-2EEF1FAA7B7C,ja-JP
dvH8wgFyQA6-48gsRSTnkg,crobo,20215_994101_20215_994101,Install,2.8,118.241.22.5,A1071A49-B91F-4470-8B4B-AACE0ED10E2E,1558073663,2019-05-17 14:14:23,1558073808,2019-05-17 14:16:48,1558073839,AeZVo78AAAFqxG0JuwABCeIAAE73,http://pb.api.weq.com/v1.4/event?click_id=AeZVo78AAAFqxG0JuwABCeIAAE73,idfa_A1071A49-B91F-4470-8B4B-AACE0ED10E2E,ja-JP
dvH8wgFyQA6-48gsRSTnkg,crobo,20215_994101_20215_994101,Install,2.8,124.41.67.159,FCAF0B7C-C8B1-46A0-8FC6-78CD6C574080,1558087815,2019-05-17 18:10:15,1558088006,2019-05-17 18:13:26,1558088036,AQtU8TgAAAFqxUULhgABCeIAAE73,http://pb.api.weq.com/v1.4/event?click_id=AQtU8TgAAAFqxUULhgABCeIAAE73,idfa_FCAF0B7C-C8B1-46A0-8FC6-78CD6C574080,ja-JP
dvH8wgFyQA6-48gsRSTnkg,crobo,20215_994101_20215_994101,Install,2.8,39.111.58.144,D48E1DF0-20CD-4083-8FF7-1D34289EB840,1557986597,2019-05-16 14:03:17,1557986724,2019-05-16 14:05:24,1557986755,AZotbz4AAAFqvzx9-wABCeIAAE73,http://pb.api.weq.com/v1.4/event?click_id=AZotbz4AAAFqvzx9-wABCeIAAE73,idfa_D48E1DF0-20CD-4083-8FF7-1D34289EB840,ja-JP
dvH8wgFyQA6-48gsRSTnkg,crobo,20215_994101_20215_994101,Install,2.8,39.110.46.148,40FEF7FB-D074-4041-8F1A-00766F7E5064,1558091837,2019-05-17 19:17:17,1558092046,2019-05-17 19:20:46,1558092078,AeZm-8wAAAFqxYJz0wABCeIAAE73,http://pb.api.weq.com/v1.4/event?click_id=AeZm-8wAAAFqxYJz0wABCeIAAE73,idfa_40FEF7FB-D074-4041-8F1A-00766F7E5064,ja-JP
dvH8wgFyQA6-48gsRSTnkg,crobo,20215_994101_20215_994101,Install,2.8,36.8.242.156,37E39108-2766-4524-A4C5-7258A5C06D6E,1558369942,2019-05-21 00:32:22,1558370298,2019-05-21 00:38:18,1558370328,AaL2jf0AAAFq1hYMXQABCeIAAE73,http://pb.api.weq.com/v1.4/event?click_id=AaL2jf0AAAFq1hYMXQABCeIAAE73,idfa_37E39108-2766-4524-A4C5-7258A5C06D6E,ja-JP
dvH8wgFyQA6-48gsRSTnkg,crobo,20215_994101_20215_994101,Install,2.8,203.76.77.203,C53B2B0A-C81B-4A77-9B88-F06CA713B3DE,1558089183,2019-05-17 18:33:03,1558089392,2019-05-17 18:36:32,1558089423,AVXN4GgAAAFqxVnvAQABCeIAAE73,http://pb.api.weq.com/v1.4/event?click_id=AVXN4GgAAAFqxVnvAQABCeIAAE73,idfa_C53B2B0A-C81B-4A77-9B88-F06CA713B3DE,ja-JP
dvH8wgFyQA6-48gsRSTnkg,crobo,20215_994101_20215_994101,Install,2.8,153.178.145.25,A22FA20D-47C8-4BC7-AFF3-3869E198964E,1558086444,2019-05-17 17:47:24,1558086722,2019-05-17 17:52:02,1558086762,ASFpk3wAAAFqxTAm9QABCeIAAE73,http://pb.api.weq.com/v1.4/event?click_id=ASFpk3wAAAFqxTAm9QABCeIAAE73,idfa_A22FA20D-47C8-4BC7-AFF3-3869E198964E,ja-JP
dvH8wgFyQA6-48gsRSTnkg,crobo,20215_994101_20215_994101,Install,2.8,118.240.0.135,A7CF1D11-7299-41A5-AE87-A23E6A119E2D,1558239820,2019-05-19 12:23:40,1558239986,2019-05-19 12:26:26,1558240017,ASlQJ_4AAAFqzlSCOAABCeIAAE73,http://pb.api.weq.com/v1.4/event?click_id=ASlQJ_4AAAFqzlSCOAABCeIAAE73,idfa_A7CF1D11-7299-41A5-AE87-A23E6A119E2D,ja-JP
dvH8wgFyQA6-48gsRSTnkg,crobo,20215_994101_20215_994101,Install,2.8,126.140.228.160,A25327FC-2321-4FFD-9749-C27F5237E9B9,1558088674,2019-05-17 18:24:34,1558088881,2019-05-17 18:28:01,1558088912,AenZ-FAAAAFqxVItJQABCeIAAE73,http://pb.api.weq.com/v1.4/event?click_id=AenZ-FAAAAFqxVItJQABCeIAAE73,idfa_A25327FC-2321-4FFD-9749-C27F5237E9B9,ja-JP
dvH8wgFyQA6-48gsRSTnkg,crobo,20215_994101_20215_994101,Install,2.8,110.133.168.28,A12E486B-A037-4BAC-8DF0-FD0182C8A378,1558075244,2019-05-17 14:40:44,1558075476,2019-05-17 14:44:36,1558075507,Aa-IdmIAAAFqxIU9aQABCeIAAE73,http://pb.api.weq.com/v1.4/event?click_id=Aa-IdmIAAAFqxIU9aQABCeIAAE73,idfa_A12E486B-A037-4BAC-8DF0-FD0182C8A378,ja-JP
dvH8wgFyQA6-48gsRSTnkg,crobo,20215_994101_20215_994101,Install,2.8,106.73.197.0,C470F49C-F199-423C-9F10-7188CB97809B,1558093304,2019-05-17 19:41:44,1558093444,2019-05-17 19:44:04,1558093474,AZtwEEkAAAFqxZjSXQABCeIAAE73,http://pb.api.weq.com/v1.4/event?click_id=AZtwEEkAAAFqxZjSXQABCeIAAE73,idfa_C470F49C-F199-423C-9F10-7188CB97809B,ja-JP
dvH8wgFyQA6-48gsRSTnkg,crobo,20215_994101_20215_994101,Install,2.8,115.31.86.54,027A7C66-55A5-4048-8271-02BF12E01EA5,1558073835,2019-05-17 14:17:15,1558074008,2019-05-17 14:20:08,1558074039,ATXmozwAAAFqxG-1dgABCeIAAE73,http://pb.api.weq.com/v1.4/event?click_id=ATXmozwAAAFqxG-1dgABCeIAAE73,idfa_027A7C66-55A5-4048-8271-02BF12E01EA5,ja-JP
dvH8wgFyQA6-48gsRSTnkg,crobo,20215_994101_20215_994101,Install,2.8,61.89.161.155,C35220FE-29A6-46F6-A79C-E7A954145E11,1558212498,2019-05-19 04:48:18,1558212693,2019-05-19 04:51:33,1558212724,AYO36mgAAAFqzLOb6wABCeIAAE73,http://pb.api.weq.com/v1.4/event?click_id=AYO36mgAAAFqzLOb6wABCeIAAE73,idfa_C35220FE-29A6-46F6-A79C-E7A954145E11,ja-JP
dvH8wgFyQA6-48gsRSTnkg,crobo,20215_994101_20215_994101,Install,2.8,221.189.167.56,2B859745-1606-4979-9F0E-423561FDEEF1,1558123795,2019-05-18 04:09:55,1558124097,2019-05-18 04:14:57,1558124127,ATdjgyUAAAFqx2oUPwABCeIAAE73,http://pb.api.weq.com/v1.4/event?click_id=ATdjgyUAAAFqx2oUPwABCeIAAE73,idfa_2B859745-1606-4979-9F0E-423561FDEEF1,ja-JP
