cid,partner_id,channel_id,action_id,cpi,ip,idfa,click time,click datetime,install time,install datetime,postback time,click id,postback url,unique user id
Card0NaTQvyJdlw_FBvibQ,crobo,20922_415_23_759623_741-13274_20922_415_23_759623_741-13274,install,3.0,219.98.231.35,E753D7AD-0177-42BC-AD1B-54FD7A5B4F8B,1557221322,2019-05-07 17:28:42,1557221530,2019-05-07 17:32:10,1557221560,AfJXLEwAAAFqkZ9bYgABB4YAAFG6,http://pb.api.weq.com/v1.4/event?click_id=AfJXLEwAAAFqkZ9bYgABB4YAAFG6,idfa_E753D7AD-0177-42BC-AD1B-54FD7A5B4F8B,ja
Card0NaTQvyJdlw_FBvibQ,crobo,20922_415_7_741-10509741_20922_415_7_741-10509741,install,3.0,106.140.161.163,50C25CFD-48A5-4354-A9A1-7EBC4D2F53BC,1557372011,2019-05-09 11:20:11,1557372086,2019-05-09 11:21:26,1557372118,AXHdStcAAAFqmprriQABB4YAAFG6,http://pb.api.weq.com/v1.4/event?click_id=AXHdStcAAAFqmprriQABB4YAAFG6,idfa_50C25CFD-48A5-4354-A9A1-7EBC4D2F53BC,ja
Card0NaTQvyJdlw_FBvibQ,crobo,20922_300_999901_20922_300_999901,install,3.0,163.44.60.210,36067FF9-098B-492B-A2E3-80E41A959CB8,1557335997,2019-05-09 01:19:57,1557336024,2019-05-09 01:20:24,1557336055,AZ1XgmYAAAFqmHVx6AABB4YAAFG6,http://pb.api.weq.com/v1.4/event?click_id=AZ1XgmYAAAFqmHVx6AABB4YAAFG6,idfa_36067FF9-098B-492B-A2E3-80E41A959CB8,ja
Card0NaTQvyJdlw_FBvibQ,crobo,20922_415_7_741-10509741_20922_415_7_741-10509741,install,3.0,202.225.71.122,9F524E21-0A01-426F-A0D9-E76E47F15B0F,1557371536,2019-05-09 11:12:16,1557371611,2019-05-09 11:13:31,1557371642,ARhcBnUAAAFqmpOtSQABB4YAAFG6,http://pb.api.weq.com/v1.4/event?click_id=ARhcBnUAAAFqmpOtSQABB4YAAFG6,idfa_9F524E21-0A01-426F-A0D9-E76E47F15B0F,ja
Card0NaTQvyJdlw_FBvibQ,crobo,20922_300_10032_13274_20922_300_10032_13274,install,3.0,133.206.142.0,720EA665-D177-4387-8B76-5C6A1CC24162,1557364164,2019-05-09 09:09:24,1557375019,2019-05-09 12:10:19,1557375051,AQtxGcQAAAFqmiMiKAABB4YAAFG6,http://pb.api.weq.com/v1.4/event?click_id=AQtxGcQAAAFqmiMiKAABB4YAAFG6,idfa_720EA665-D177-4387-8B76-5C6A1CC24162,ja
Card0NaTQvyJdlw_FBvibQ,crobo,20922_415_7_741-10509741_20922_415_7_741-10509741,install,3.0,153.142.206.87,7F9E50E1-20E7-4D93-AA28-85DBAC7BC312,1557371386,2019-05-09 11:09:46,1557371471,2019-05-09 11:11:11,1557371503,AZjLcJ8AAAFqmpFnwQABB4YAAFG6,http://pb.api.weq.com/v1.4/event?click_id=AZjLcJ8AAAFqmpFnwQABB4YAAFG6,idfa_7F9E50E1-20E7-4D93-AA28-85DBAC7BC312,ja
Card0NaTQvyJdlw_FBvibQ,crobo,20922_300_10032_13274_20922_300_10032_13274,install,3.0,60.238.243.35,673E6187-1F82-406F-A93E-6D1BFF302870,1557368254,2019-05-09 10:17:34,1557368412,2019-05-09 10:20:12,1557368442,AejLtpAAAAFqmmFnbQABB4YAAFG6,http://pb.api.weq.com/v1.4/event?click_id=AejLtpAAAAFqmmFnbQABB4YAAFG6,idfa_673E6187-1F82-406F-A93E-6D1BFF302870,ja
Card0NaTQvyJdlw_FBvibQ,crobo,20922_415_7_741-10509741_20922_415_7_741-10509741,install,3.0,163.44.60.210,F51D3245-3948-42D0-A252-30EE7BC2EC09,1557372041,2019-05-09 11:20:41,1557372117,2019-05-09 11:21:57,1557372149,AVz2HEsAAAFqmptq7AABB4YAAFG6,http://pb.api.weq.com/v1.4/event?click_id=AVz2HEsAAAFqmptq7AABB4YAAFG6,idfa_F51D3245-3948-42D0-A252-30EE7BC2EC09,ja
Card0NaTQvyJdlw_FBvibQ,crobo,20922_300_10032_13274_20922_300_10032_13274,install,3.0,118.21.162.33,38C5E918-6B16-4E92-9CBB-E5435708FEF5,1557362436,2019-05-09 08:40:36,1557362575,2019-05-09 08:42:55,1557362605,AYFKfekAAAFqmgioJAABB4YAAFG6,http://pb.api.weq.com/v1.4/event?click_id=AYFKfekAAAFqmgioJAABB4YAAFG6,idfa_38C5E918-6B16-4E92-9CBB-E5435708FEF5,ja
Card0NaTQvyJdlw_FBvibQ,crobo,20922_300_10032_13274_20922_300_10032_13274,install,3.0,223.135.9.35,29DC26D8-B723-46C3-BEC6-2B7C804B16A9,1557336707,2019-05-09 01:31:47,1557336875,2019-05-09 01:34:35,1557336905,ARMhaxAAAAFqmIAWJwABB4YAAFG6,http://pb.api.weq.com/v1.4/event?click_id=ARMhaxAAAAFqmIAWJwABB4YAAFG6,idfa_29DC26D8-B723-46C3-BEC6-2B7C804B16A9,ja
Card0NaTQvyJdlw_FBvibQ,crobo,20922_300_10032_13274_20922_300_10032_13274,install,3.0,219.102.188.146,CE8B3D20-FCD0-4F3F-8F99-CC93CA33E094,1557339418,2019-05-09 02:16:58,1557339559,2019-05-09 02:19:19,1557339589,AZV744sAAAFqmKlvfgABB4YAAFG6,http://pb.api.weq.com/v1.4/event?click_id=AZV744sAAAFqmKlvfgABB4YAAFG6,idfa_CE8B3D20-FCD0-4F3F-8F99-CC93CA33E094,ja
Card0NaTQvyJdlw_FBvibQ,crobo,20922_300_10032_13274_20922_300_10032_13274,install,3.0,14.10.128.160,1A10EE96-980F-4E7C-9049-FD01DA08EC79,1557363711,2019-05-09 09:01:51,1557363850,2019-05-09 09:04:10,1557363880,ARH11rkAAAFqmhwXsAABB4YAAFG6,http://pb.api.weq.com/v1.4/event?click_id=ARH11rkAAAFqmhwXsAABB4YAAFG6,idfa_1A10EE96-980F-4E7C-9049-FD01DA08EC79,ja
Card0NaTQvyJdlw_FBvibQ,crobo,20922_300_10032_13274_20922_300_10032_13274,install,3.0,122.134.232.63,12592B32-4034-0D0E-0464-B8CC96E6456F,1557364122,2019-05-09 09:08:42,1557373547,2019-05-09 11:45:47,1557373586,AVDwM7AAAAFqmiKFvgABB4YAAFG6,http://pb.api.weq.com/v1.4/event?click_id=AVDwM7AAAAFqmiKFvgABB4YAAFG6,idfa_12592B32-4034-0D0E-0464-B8CC96E6456F,ja
Card0NaTQvyJdlw_FBvibQ,crobo,20922_415_7_546-534545757_20922_415_7_546-534545757,install,3.0,222.147.101.114,E73E1323-7266-4069-B38A-A18294A2C5BE,1557369138,2019-05-09 10:32:18,1557369263,2019-05-09 10:34:23,1557369293,Adef3N8AAAFqmm7xLAABB4YAAFG6,http://pb.api.weq.com/v1.4/event?click_id=Adef3N8AAAFqmm7xLAABB4YAAFG6,idfa_E73E1323-7266-4069-B38A-A18294A2C5BE,ja
Card0NaTQvyJdlw_FBvibQ,crobo,20922_300_10032_13274_20922_300_10032_13274,install,3.0,27.136.45.190,67B2FB92-0D64-4CAE-9434-C76B53D501D3,1557363700,2019-05-09 09:01:40,1557363810,2019-05-09 09:03:30,1557363840,AfZoVioAAAFqmhvm_AABB4YAAFG6,http://pb.api.weq.com/v1.4/event?click_id=AfZoVioAAAFqmhvm_AABB4YAAFG6,idfa_67B2FB92-0D64-4CAE-9434-C76B53D501D3,ja
Card0NaTQvyJdlw_FBvibQ,crobo,20922_300_10032_13274_20922_300_10032_13274,install,3.0,125.63.42.221,27C4C82A-1658-4D2B-AF32-2C3E200692CB,1557364167,2019-05-09 09:09:27,1557379531,2019-05-09 13:25:31,1557379569,AZb3qNAAAAFqmiMyTAABB4YAAFG6,http://pb.api.weq.com/v1.4/event?click_id=AZb3qNAAAAFqmiMyTAABB4YAAFG6,idfa_27C4C82A-1658-4D2B-AF32-2C3E200692CB,ja
Card0NaTQvyJdlw_FBvibQ,crobo,20922_300_10032_13274_20922_300_10032_13274,install,3.0,180.199.210.70,FEB0C40C-B9FA-4119-8523-D53E08EED799,1557369625,2019-05-09 10:40:25,1557369933,2019-05-09 10:45:33,1557369963,ATgzRzoAAAFqmnZQPAABB4YAAFG6,http://pb.api.weq.com/v1.4/event?click_id=ATgzRzoAAAFqmnZQPAABB4YAAFG6,idfa_FEB0C40C-B9FA-4119-8523-D53E08EED799,ja
Card0NaTQvyJdlw_FBvibQ,crobo,20922_300_10032_13274_20922_300_10032_13274,install,3.0,220.108.181.224,EF3E7472-8852-400B-8BED-38BF240C78A8,1557364672,2019-05-09 09:17:52,1557364799,2019-05-09 09:19:59,1557364829,AdawGzUAAAFqmiq7NgABB4YAAFG6,http://pb.api.weq.com/v1.4/event?click_id=AdawGzUAAAFqmiq7NgABB4YAAFG6,idfa_EF3E7472-8852-400B-8BED-38BF240C78A8,ja
Card0NaTQvyJdlw_FBvibQ,crobo,20922_415_7_741-10509741_20922_415_7_741-10509741,install,3.0,202.225.71.122,C07EFC9C-46C1-454E-8FF5-6013744C9163,1557372067,2019-05-09 11:21:07,1557372139,2019-05-09 11:22:19,1557372171,ASH72XIAAAFqmpvMdwABB4YAAFG6,http://pb.api.weq.com/v1.4/event?click_id=ASH72XIAAAFqmpvMdwABB4YAAFG6,idfa_C07EFC9C-46C1-454E-8FF5-6013744C9163,ja
Card0NaTQvyJdlw_FBvibQ,crobo,20922_300_10032_13274_20922_300_10032_13274,install,3.0,114.164.98.133,1A1F4EED-DB79-43AC-9D91-C56D68441DF8,1557364191,2019-05-09 09:09:51,1557377839,2019-05-09 12:57:19,1557377869,AdJ80ukAAAFqmiOStwABB4YAAFG6,http://pb.api.weq.com/v1.4/event?click_id=AdJ80ukAAAFqmiOStwABB4YAAFG6,idfa_1A1F4EED-DB79-43AC-9D91-C56D68441DF8,ja
Card0NaTQvyJdlw_FBvibQ,crobo,20922_214_84662337_20922_214_84662337,install,3.0,111.101.92.76,9B71DA74-F1C8-4047-BF80-090DDEA7BD6C,1557179838,2019-05-07 05:57:18,1557203030,2019-05-07 12:23:50,1557203060,Af3ShTgAAAFqjyaplQABB4YAAFG6,http://pb.api.weq.com/v1.4/event?click_id=Af3ShTgAAAFqjyaplQABB4YAAFG6,idfa_9B71DA74-F1C8-4047-BF80-090DDEA7BD6C,ja
Card0NaTQvyJdlw_FBvibQ,crobo,20922_415_7_741-10509741_20922_415_7_741-10509741,install,3.0,163.44.60.210,EDEF5610-2D1E-4006-9464-DF85AB6AB414,1557371783,2019-05-09 11:16:23,1557371858,2019-05-09 11:17:38,1557371890,AeU3zlMAAAFqmpd9-QABB4YAAFG6,http://pb.api.weq.com/v1.4/event?click_id=AeU3zlMAAAFqmpd9-QABB4YAAFG6,idfa_EDEF5610-2D1E-4006-9464-DF85AB6AB414,ja
Card0NaTQvyJdlw_FBvibQ,crobo,20922_415_7_741-13436_20922_415_7_741-13436,install,3.0,106.181.137.52,E3933ACA-F237-4C03-A8EF-7B929D3E653E,1557372103,2019-05-09 11:21:43,1557372316,2019-05-09 11:25:16,1557372346,AalAlg4AAAFqmpwdBAABB4YAAFG6,http://pb.api.weq.com/v1.4/event?click_id=AalAlg4AAAFqmpwdBAABB4YAAFG6,idfa_E3933ACA-F237-4C03-A8EF-7B929D3E653E,ja
Card0NaTQvyJdlw_FBvibQ,crobo,20922_300_999901_20922_300_999901,install,3.0,202.215.178.164,8CFBC77E-58CF-425A-82CD-BE92100026D4,1557336548,2019-05-09 01:29:08,1557336583,2019-05-09 01:29:43,1557336688,Abz5KhIAAAFqmH29-gABB4YAAFG6,http://pb.api.weq.com/v1.4/event?click_id=Abz5KhIAAAFqmH29-gABB4YAAFG6,idfa_8CFBC77E-58CF-425A-82CD-BE92100026D4,ja
Card0NaTQvyJdlw_FBvibQ,crobo,20922_300_999901_20922_300_999901,install,3.0,163.44.60.210,1CB93AC0-B58F-4E40-93FC-9153390DA76A,1557336430,2019-05-09 01:27:10,1557336459,2019-05-09 01:27:39,1557336490,AbdrY0YAAAFqmHwMiwABB4YAAFG6,http://pb.api.weq.com/v1.4/event?click_id=AbdrY0YAAAFqmHwMiwABB4YAAFG6,idfa_1CB93AC0-B58F-4E40-93FC-9153390DA76A,ja
Card0NaTQvyJdlw_FBvibQ,crobo,20922_300_999901_20922_300_999901,install,3.0,106.144.110.72,474CE341-E51E-451D-BD23-67218983750F,1557336313,2019-05-09 01:25:13,1557336374,2019-05-09 01:26:14,1557336404,Aa1iZEYAAAFqmHn-SAABB4YAAFG6,http://pb.api.weq.com/v1.4/event?click_id=Aa1iZEYAAAFqmHn-SAABB4YAAFG6,idfa_474CE341-E51E-451D-BD23-67218983750F,ja
