cid,partner_id,channel_id,action_id,cpi,ip,idfa,click time,click datetime,install time,install datetime,postback time,click id,postback url,unique user id
SrqmDqM3TgGSF2cZHkM7Dw,crobo,18892_1456_1989_49_18892_1456_1989_49,Install,2.0,112.220.210.10,df5f86a3-d751-4c44-b129-b25182adc395,1557551151,2019-05-11 13:05:51,1557551255,2019-05-11 13:07:35,1557551285,AQ7UryUAAAFqpUhuXQABB0sAAEnM,http://pb.api.weq.com/v1.4/event?click_id=AQ7UryUAAAFqpUhuXQABB0sAAEnM,idfa_df5f86a3-d751-4c44-b129-b25182adc395,%ED%95%9C%EA%B5%AD%EC%96%B4
SrqmDqM3TgGSF2cZHkM7Dw,crobo,18892_1456_1989_49_18892_1456_1989_49,Install,2.0,211.180.176.22,80067f5f-3195-4f85-bf90-bd2bd0fa1499,1557620686,2019-05-12 08:24:46,1557620799,2019-05-12 08:26:39,1557620830,AT0bFXkAAAFqqW1yMQABB0sAAEnM,http://pb.api.weq.com/v1.4/event?click_id=AT0bFXkAAAFqqW1yMQABB0sAAEnM,idfa_80067f5f-3195-4f85-bf90-bd2bd0fa1499,%ED%95%9C%EA%B5%AD%EC%96%B4
SrqmDqM3TgGSF2cZHkM7Dw,crobo,18892_1456_1989_49_18892_1456_1989_49,Install,2.0,58.74.180.141,9892a67a-6a6b-4746-ba41-de44c1c1ecaa,1557459707,2019-05-10 11:41:47,1557459830,2019-05-10 11:43:50,1557459860,ASlIKD4AAAFqn9UaPwABB0sAAEnM,http://pb.api.weq.com/v1.4/event?click_id=ASlIKD4AAAFqn9UaPwABB0sAAEnM,idfa_9892a67a-6a6b-4746-ba41-de44c1c1ecaa,%ED%95%9C%EA%B5%AD%EC%96%B4
SrqmDqM3TgGSF2cZHkM7Dw,crobo,18892_1456_1989_49_18892_1456_1989_49,Install,2.0,117.53.227.92,6645f52f-ff2d-4ae2-87f8-1ee1ef6ef07f,1557620674,2019-05-12 08:24:34,1557620811,2019-05-12 08:26:51,1557620842,AVcjWI8AAAFqqW0-HwABB0sAAEnM,http://pb.api.weq.com/v1.4/event?click_id=AVcjWI8AAAFqqW0-HwABB0sAAEnM,idfa_6645f52f-ff2d-4ae2-87f8-1ee1ef6ef07f,%ED%95%9C%EA%B5%AD%EC%96%B4
SrqmDqM3TgGSF2cZHkM7Dw,crobo,18892_1456_1989_49_18892_1456_1989_49,Install,2.0,203.242.126.4,28d92883-0e18-4fca-a777-63dce7141fa6,1557621413,2019-05-12 08:36:53,1557621792,2019-05-12 08:43:12,1557621822,ASLxu6cAAAFqqXiATAABB0sAAEnM,http://pb.api.weq.com/v1.4/event?click_id=ASLxu6cAAAFqqXiATAABB0sAAEnM,idfa_28d92883-0e18-4fca-a777-63dce7141fa6,%ED%95%9C%EA%B5%AD%EC%96%B4
SrqmDqM3TgGSF2cZHkM7Dw,crobo,18892_1456_1989_49_18892_1456_1989_49,Install,2.0,58.143.116.179,f82e4afc-cfb0-4150-8f1e-298951764ebf,1557550528,2019-05-11 12:55:28,1557550632,2019-05-11 12:57:12,1557550662,AfxwAcsAAAFqpT7qbQABB0sAAEnM,http://pb.api.weq.com/v1.4/event?click_id=AfxwAcsAAAFqpT7qbQABB0sAAEnM,idfa_f82e4afc-cfb0-4150-8f1e-298951764ebf,%ED%95%9C%EA%B5%AD%EC%96%B4
SrqmDqM3TgGSF2cZHkM7Dw,crobo,18892_1456_1989_49_18892_1456_1989_49,Install,2.0,112.150.97.47,92ca8093-7739-4850-bbbd-df76ca6d218b,1557550525,2019-05-11 12:55:25,1557550677,2019-05-11 12:57:57,1557550708,Aei55lcAAAFqpT7e0wABB0sAAEnM,http://pb.api.weq.com/v1.4/event?click_id=Aei55lcAAAFqpT7e0wABB0sAAEnM,idfa_92ca8093-7739-4850-bbbd-df76ca6d218b,%ED%95%9C%EA%B5%AD%EC%96%B4
SrqmDqM3TgGSF2cZHkM7Dw,crobo,18892_1456_1989_49_18892_1456_1989_49,Install,2.0,175.236.156.204,25943d3c-6cfa-469c-8ce6-3db24fada8d9,1557621145,2019-05-12 08:32:25,1557621400,2019-05-12 08:36:40,1557621431,ATzkbMgAAAFqqXR2MgABB0sAAEnM,http://pb.api.weq.com/v1.4/event?click_id=ATzkbMgAAAFqqXR2MgABB0sAAEnM,idfa_25943d3c-6cfa-469c-8ce6-3db24fada8d9,%ED%95%9C%EA%B5%AD%EC%96%B4
SrqmDqM3TgGSF2cZHkM7Dw,crobo,18892_1456_1989_49_18892_1456_1989_49,Install,2.0,175.198.214.201,b198c8ca-86ca-46db-9801-42907b7537b7,1557455036,2019-05-10 10:23:56,1557455156,2019-05-10 10:25:56,1557455186,AbuKhUAAAAFqn43VxAABB0sAAEnM,http://pb.api.weq.com/v1.4/event?click_id=AbuKhUAAAAFqn43VxAABB0sAAEnM,idfa_b198c8ca-86ca-46db-9801-42907b7537b7,%ED%95%9C%EA%B5%AD%EC%96%B4
SrqmDqM3TgGSF2cZHkM7Dw,crobo,18892_1456_1989_49_18892_1456_1989_49,Install,2.0,59.9.223.244,99ba412a-7873-464f-b7fc-60ea478e4045,1557550463,2019-05-11 12:54:23,1557550584,2019-05-11 12:56:24,1557550615,AVreeQoAAAFqpT3utwABB0sAAEnM,http://pb.api.weq.com/v1.4/event?click_id=AVreeQoAAAFqpT3utwABB0sAAEnM,idfa_99ba412a-7873-464f-b7fc-60ea478e4045,%ED%95%9C%EA%B5%AD%EC%96%B4
SrqmDqM3TgGSF2cZHkM7Dw,crobo,18892_1456_1989_49_18892_1456_1989_49,Install,2.0,101.235.114.131,3c05a1a8-881b-49e3-9dee-dd39e31c7584,1557549923,2019-05-11 12:45:23,1557550282,2019-05-11 12:51:22,1557550312,ARAmwKgAAAFqpTWyDgABB0sAAEnM,http://pb.api.weq.com/v1.4/event?click_id=ARAmwKgAAAFqpTWyDgABB0sAAEnM,idfa_3c05a1a8-881b-49e3-9dee-dd39e31c7584,%ED%95%9C%EA%B5%AD%EC%96%B4
SrqmDqM3TgGSF2cZHkM7Dw,crobo,18892_1456_1989_49_18892_1456_1989_49,Install,2.0,203.232.227.251,e0195c13-9bee-4540-9262-870e3a94c170,1557456503,2019-05-10 10:48:23,1557456616,2019-05-10 10:50:16,1557456653,Af16yVUAAAFqn6Q2yQABB0sAAEnM,http://pb.api.weq.com/v1.4/event?click_id=Af16yVUAAAFqn6Q2yQABB0sAAEnM,idfa_e0195c13-9bee-4540-9262-870e3a94c170,%ED%95%9C%EA%B5%AD%EC%96%B4
SrqmDqM3TgGSF2cZHkM7Dw,crobo,18892_1456_1989_49_18892_1456_1989_49,Install,2.0,59.25.44.197,da11798d-24fa-4d1d-b423-e308381bfb34,1557549465,2019-05-11 12:37:45,1557549594,2019-05-11 12:39:54,1557549627,AXLPZ2EAAAFqpS6yjQABB0sAAEnM,http://pb.api.weq.com/v1.4/event?click_id=AXLPZ2EAAAFqpS6yjQABB0sAAEnM,idfa_da11798d-24fa-4d1d-b423-e308381bfb34,%ED%95%9C%EA%B5%AD%EC%96%B4
SrqmDqM3TgGSF2cZHkM7Dw,crobo,18892_1456_1989_49_18892_1456_1989_49,Install,2.0,49.171.119.51,a4e84cc5-ffcc-4e36-92f4-9ee1f7f1bb45,1557552142,2019-05-11 13:22:22,1557552312,2019-05-11 13:25:12,1557552343,Ab7v-wcAAAFqpVePOQABB0sAAEnM,http://pb.api.weq.com/v1.4/event?click_id=Ab7v-wcAAAFqpVePOQABB0sAAEnM,idfa_a4e84cc5-ffcc-4e36-92f4-9ee1f7f1bb45,%ED%95%9C%EA%B5%AD%EC%96%B4
SrqmDqM3TgGSF2cZHkM7Dw,crobo,18892_1456_1989_49_18892_1456_1989_49,Install,2.0,119.56.251.123,ceacf81f-0ab6-4388-a353-e658bc744f16,1557619792,2019-05-12 08:09:52,1557619888,2019-05-12 08:11:28,1557619918,AXXxLOcAAAFqqV_N-gABB0sAAEnM,http://pb.api.weq.com/v1.4/event?click_id=AXXxLOcAAAFqqV_N-gABB0sAAEnM,idfa_ceacf81f-0ab6-4388-a353-e658bc744f16,%ED%95%9C%EA%B5%AD%EC%96%B4
SrqmDqM3TgGSF2cZHkM7Dw,crobo,18892_1456_1989_49_18892_1456_1989_49,Install,2.0,60.253.12.90,c0cb515e-9a91-4d2b-9e6e-e71976f86b6a,1557620810,2019-05-12 08:26:50,1557621081,2019-05-12 08:31:21,1557621111,ATpy8-IAAAFqqW9XSAABB0sAAEnM,http://pb.api.weq.com/v1.4/event?click_id=ATpy8-IAAAFqqW9XSAABB0sAAEnM,idfa_c0cb515e-9a91-4d2b-9e6e-e71976f86b6a,%ED%95%9C%EA%B5%AD%EC%96%B4
SrqmDqM3TgGSF2cZHkM7Dw,crobo,18892_1456_1989_49_18892_1456_1989_49,Install,2.0,119.204.177.120,f0b35801-1e92-41b2-a030-a5f050e38454,1557457711,2019-05-10 11:08:31,1557457837,2019-05-10 11:10:37,1557457868,ARAZp1MAAAFqn7ajbgABB0sAAEnM,http://pb.api.weq.com/v1.4/event?click_id=ARAZp1MAAAFqn7ajbgABB0sAAEnM,idfa_f0b35801-1e92-41b2-a030-a5f050e38454,%ED%95%9C%EA%B5%AD%EC%96%B4
SrqmDqM3TgGSF2cZHkM7Dw,crobo,18892_1456_1989_49_18892_1456_1989_49,Install,2.0,61.35.93.44,fbf07a21-1c97-44dd-a23a-eba43897e021,1557620207,2019-05-12 08:16:47,1557620346,2019-05-12 08:19:06,1557620377,AYkJeEMAAAFqqWYdpgABB0sAAEnM,http://pb.api.weq.com/v1.4/event?click_id=AYkJeEMAAAFqqWYdpgABB0sAAEnM,idfa_fbf07a21-1c97-44dd-a23a-eba43897e021,%ED%95%9C%EA%B5%AD%EC%96%B4
SrqmDqM3TgGSF2cZHkM7Dw,crobo,18892_1456_1989_49_18892_1456_1989_49,Install,2.0,203.252.10.4,5c3eed3b-cd4d-43e8-887d-62a9e4ed51db,1557457050,2019-05-10 10:57:30,1557457195,2019-05-10 10:59:55,1557457225,AQ-eQisAAAFqn6yOCwABB0sAAEnM,http://pb.api.weq.com/v1.4/event?click_id=AQ-eQisAAAFqn6yOCwABB0sAAEnM,idfa_5c3eed3b-cd4d-43e8-887d-62a9e4ed51db,%ED%95%9C%EA%B5%AD%EC%96%B4
SrqmDqM3TgGSF2cZHkM7Dw,crobo,18892_1456_1989_49_18892_1456_1989_49,Install,2.0,210.101.193.152,3887efb1-aec0-411c-ac35-075ec40d6f62,1557458259,2019-05-10 11:17:39,1557458371,2019-05-10 11:19:31,1557458401,AWbCLZ8AAAFqn7758gABB0sAAEnM,http://pb.api.weq.com/v1.4/event?click_id=AWbCLZ8AAAFqn7758gABB0sAAEnM,idfa_3887efb1-aec0-411c-ac35-075ec40d6f62,%ED%95%9C%EA%B5%AD%EC%96%B4
SrqmDqM3TgGSF2cZHkM7Dw,crobo,18892_1456_1989_49_18892_1456_1989_49,Install,2.0,210.223.11.207,6b5103d6-8675-4704-b0b0-1cf6494aeda8,1557550213,2019-05-11 12:50:13,1557550318,2019-05-11 12:51:58,1557550349,AQ03HxsAAAFqpTodQQABB0sAAEnM,http://pb.api.weq.com/v1.4/event?click_id=AQ03HxsAAAFqpTodQQABB0sAAEnM,idfa_6b5103d6-8675-4704-b0b0-1cf6494aeda8,%ED%95%9C%EA%B5%AD%EC%96%B4
SrqmDqM3TgGSF2cZHkM7Dw,crobo,18892_1456_1989_49_18892_1456_1989_49,Install,2.0,118.218.82.70,0dc275e2-ea6c-4e8b-87ae-8709d37facc1,1557619402,2019-05-12 08:03:22,1557619563,2019-05-12 08:06:03,1557619594,AZN8P4MAAAFqqVnYYQABB0sAAEnM,http://pb.api.weq.com/v1.4/event?click_id=AZN8P4MAAAFqqVnYYQABB0sAAEnM,idfa_0dc275e2-ea6c-4e8b-87ae-8709d37facc1,%ED%95%9C%EA%B5%AD%EC%96%B4
SrqmDqM3TgGSF2cZHkM7Dw,crobo,18892_1456_1989_49_18892_1456_1989_49,Install,2.0,121.125.69.2,a548973d-57d1-4bbd-a817-9aeca84996ea,1557620566,2019-05-12 08:22:46,1557620684,2019-05-12 08:24:44,1557620717,AdjO0xQAAAFqqWuaVAABB0sAAEnM,http://pb.api.weq.com/v1.4/event?click_id=AdjO0xQAAAFqqWuaVAABB0sAAEnM,idfa_a548973d-57d1-4bbd-a817-9aeca84996ea,%ED%95%9C%EA%B5%AD%EC%96%B4
SrqmDqM3TgGSF2cZHkM7Dw,crobo,18892_1456_1989_49_18892_1456_1989_49,Install,2.0,220.81.184.13,3cfa82dc-1952-47f1-b918-6efb3545693e,1557551208,2019-05-11 13:06:48,1557551334,2019-05-11 13:08:54,1557551365,AUrsOXoAAAFqpUlLyQABB0sAAEnM,http://pb.api.weq.com/v1.4/event?click_id=AUrsOXoAAAFqpUlLyQABB0sAAEnM,idfa_3cfa82dc-1952-47f1-b918-6efb3545693e,%ED%95%9C%EA%B5%AD%EC%96%B4
SrqmDqM3TgGSF2cZHkM7Dw,crobo,18892_1456_1989_49_18892_1456_1989_49,Install,2.0,120.29.140.188,2e8730d2-0abd-43eb-a879-39aec1edecb0,1557620888,2019-05-12 08:28:08,1557621023,2019-05-12 08:30:23,1557621053,AaznBb0AAAFqqXCImQABB0sAAEnM,http://pb.api.weq.com/v1.4/event?click_id=AaznBb0AAAFqqXCImQABB0sAAEnM,idfa_2e8730d2-0abd-43eb-a879-39aec1edecb0,%ED%95%9C%EA%B5%AD%EC%96%B4
SrqmDqM3TgGSF2cZHkM7Dw,crobo,18892_1456_1989_49_18892_1456_1989_49,Install,2.0,101.235.30.186,8e0e684a-b194-4da8-b5fe-adf190ee6ab9,1557550634,2019-05-11 12:57:14,1557550750,2019-05-11 12:59:10,1557550780,AajlL5gAAAFqpUCE8wABB0sAAEnM,http://pb.api.weq.com/v1.4/event?click_id=AajlL5gAAAFqpUCE8wABB0sAAEnM,idfa_8e0e684a-b194-4da8-b5fe-adf190ee6ab9,%ED%95%9C%EA%B5%AD%EC%96%B4
SrqmDqM3TgGSF2cZHkM7Dw,crobo,18892_1456_1989_49_18892_1456_1989_49,Install,2.0,59.12.1.15,1fe4ae5e-8130-4d0e-b8f6-fe4fdba4a410,1557455795,2019-05-10 10:36:35,1557456121,2019-05-10 10:42:01,1557456152,AQupwuAAAAFqn5lg4AABB0sAAEnM,http://pb.api.weq.com/v1.4/event?click_id=AQupwuAAAAFqn5lg4AABB0sAAEnM,idfa_1fe4ae5e-8130-4d0e-b8f6-fe4fdba4a410,%ED%95%9C%EA%B5%AD%EC%96%B4
SrqmDqM3TgGSF2cZHkM7Dw,crobo,18892_1456_1989_49_18892_1456_1989_49,Install,2.0,182.219.204.105,59d89085-cc04-4f6e-a958-46ed51cc7501,1557549788,2019-05-11 12:43:08,1557549898,2019-05-11 12:44:58,1557549928,AeqZJDIAAAFqpTOgrAABB0sAAEnM,http://pb.api.weq.com/v1.4/event?click_id=AeqZJDIAAAFqpTOgrAABB0sAAEnM,idfa_59d89085-cc04-4f6e-a958-46ed51cc7501,%ED%95%9C%EA%B5%AD%EC%96%B4
SrqmDqM3TgGSF2cZHkM7Dw,crobo,18892_1456_1989_49_18892_1456_1989_49,Install,2.0,61.40.77.125,3743e2e8-264e-4fd1-b815-194721f1ad27,1557624898,2019-05-12 09:34:58,1557625171,2019-05-12 09:39:31,1557625202,Aa6XwnQAAAFqqa25wQABB0sAAEnM,http://pb.api.weq.com/v1.4/event?click_id=Aa6XwnQAAAFqqa25wQABB0sAAEnM,idfa_3743e2e8-264e-4fd1-b815-194721f1ad27,%ED%95%9C%EA%B5%AD%EC%96%B4
SrqmDqM3TgGSF2cZHkM7Dw,crobo,18892_1456_1989_49_18892_1456_1989_49,Install,2.0,123.111.26.213,de48f0f4-998e-4226-a3b5-1a9e21897cd2,1557622047,2019-05-12 08:47:27,1557622394,2019-05-12 08:53:14,1557622427,ARm7oy0AAAFqqYI3IwABB0sAAEnM,http://pb.api.weq.com/v1.4/event?click_id=ARm7oy0AAAFqqYI3IwABB0sAAEnM,idfa_de48f0f4-998e-4226-a3b5-1a9e21897cd2,%ED%95%9C%EA%B5%AD%EC%96%B4
SrqmDqM3TgGSF2cZHkM7Dw,crobo,18892_1456_1989_49_18892_1456_1989_49,Install,2.0,124.195.190.174,66470f92-2ea9-4b3a-9d0d-70fce8fe8824,1557551627,2019-05-11 13:13:47,1557551758,2019-05-11 13:15:58,1557551788,AWc1GjQAAAFqpU-vGwABB0sAAEnM,http://pb.api.weq.com/v1.4/event?click_id=AWc1GjQAAAFqpU-vGwABB0sAAEnM,idfa_66470f92-2ea9-4b3a-9d0d-70fce8fe8824,%ED%95%9C%EA%B5%AD%EC%96%B4
SrqmDqM3TgGSF2cZHkM7Dw,crobo,18892_1456_1989_49_18892_1456_1989_49,Install,2.0,125.136.87.203,ab19420c-1901-41e0-8754-d91f6550c242,1557459097,2019-05-10 11:31:37,1557459239,2019-05-10 11:33:59,1557459270,Ae9EM-oAAAFqn8vFTQABB0sAAEnM,http://pb.api.weq.com/v1.4/event?click_id=Ae9EM-oAAAFqn8vFTQABB0sAAEnM,idfa_ab19420c-1901-41e0-8754-d91f6550c242,%ED%95%9C%EA%B5%AD%EC%96%B4
SrqmDqM3TgGSF2cZHkM7Dw,crobo,18892_1456_1989_49_18892_1456_1989_49,Install,2.0,1.11.71.21,f50eb3d2-2f02-4df8-947c-0e2d06e6a677,1557459082,2019-05-10 11:31:22,1557459347,2019-05-10 11:35:47,1557459377,AZWZC5AAAAFqn8uM-QABB0sAAEnM,http://pb.api.weq.com/v1.4/event?click_id=AZWZC5AAAAFqn8uM-QABB0sAAEnM,idfa_f50eb3d2-2f02-4df8-947c-0e2d06e6a677,%ED%95%9C%EA%B5%AD%EC%96%B4
SrqmDqM3TgGSF2cZHkM7Dw,crobo,18892_1456_1989_49_18892_1456_1989_49,Install,2.0,14.72.119.3,d5197de6-75f9-4363-9336-2768ae197042,1557619967,2019-05-12 08:12:47,1557620098,2019-05-12 08:14:58,1557620128,AeNjFPIAAAFqqWJ8SgABB0sAAEnM,http://pb.api.weq.com/v1.4/event?click_id=AeNjFPIAAAFqqWJ8SgABB0sAAEnM,idfa_d5197de6-75f9-4363-9336-2768ae197042,%ED%95%9C%EA%B5%AD%EC%96%B4
SrqmDqM3TgGSF2cZHkM7Dw,crobo,18892_1456_1989_49_18892_1456_1989_49,Install,2.0,110.10.130.19,f8331857-29e5-400b-b186-68f39a41516c,1557454538,2019-05-10 10:15:38,1557454703,2019-05-10 10:18:23,1557454737,ARfcu0kAAAFqn4Y54QABB0sAAEnM,http://pb.api.weq.com/v1.4/event?click_id=ARfcu0kAAAFqn4Y54QABB0sAAEnM,idfa_f8331857-29e5-400b-b186-68f39a41516c,%ED%95%9C%EA%B5%AD%EC%96%B4
SrqmDqM3TgGSF2cZHkM7Dw,crobo,18892_1456_1989_49_18892_1456_1989_49,Install,2.0,27.116.255.152,cb2bcb98-758d-46b2-ab41-c7f0114ff346,1557551284,2019-05-11 13:08:04,1557551424,2019-05-11 13:10:24,1557551455,AewXZY0AAAFqpUpxKwABB0sAAEnM,http://pb.api.weq.com/v1.4/event?click_id=AewXZY0AAAFqpUpxKwABB0sAAEnM,idfa_cb2bcb98-758d-46b2-ab41-c7f0114ff346,%ED%95%9C%EA%B5%AD%EC%96%B4
SrqmDqM3TgGSF2cZHkM7Dw,crobo,18892_1456_1989_49_18892_1456_1989_49,Install,2.0,112.216.246.154,a04173c2-c1ce-416c-bb34-2eb6a5d8557d,1557549526,2019-05-11 12:38:46,1557549660,2019-05-11 12:41:00,1557549691,AVdQImIAAAFqpS-eqQABB0sAAEnM,http://pb.api.weq.com/v1.4/event?click_id=AVdQImIAAAFqpS-eqQABB0sAAEnM,idfa_a04173c2-c1ce-416c-bb34-2eb6a5d8557d,%ED%95%9C%EA%B5%AD%EC%96%B4
SrqmDqM3TgGSF2cZHkM7Dw,crobo,18892_1456_1989_49_18892_1456_1989_49,Install,2.0,112.155.143.87,aab73875-1d86-44f3-8d34-26aba6e7f2fd,1557624078,2019-05-12 09:21:18,1557624303,2019-05-12 09:25:03,1557624334,Ab78OoQAAAFqqaE1CwABB0sAAEnM,http://pb.api.weq.com/v1.4/event?click_id=Ab78OoQAAAFqqaE1CwABB0sAAEnM,idfa_aab73875-1d86-44f3-8d34-26aba6e7f2fd,%ED%95%9C%EA%B5%AD%EC%96%B4
SrqmDqM3TgGSF2cZHkM7Dw,crobo,18892_1456_1989_49_18892_1456_1989_49,Install,2.0,118.36.234.150,93d98979-7934-4459-a7b7-5ee1a054c67f,1557551787,2019-05-11 13:16:27,1557551879,2019-05-11 13:17:59,1557551910,AevcfsIAAAFqpVIepAABB0sAAEnM,http://pb.api.weq.com/v1.4/event?click_id=AevcfsIAAAFqpVIepAABB0sAAEnM,idfa_93d98979-7934-4459-a7b7-5ee1a054c67f,%ED%95%9C%EA%B5%AD%EC%96%B4
SrqmDqM3TgGSF2cZHkM7Dw,crobo,18892_1456_1989_49_18892_1456_1989_49,Install,2.0,59.0.16.163,a0f985f3-7d43-4144-b583-3cbc995b4158,1557459256,2019-05-10 11:34:16,1557459381,2019-05-10 11:36:21,1557459411,ATdRARoAAAFqn843xAABB0sAAEnM,http://pb.api.weq.com/v1.4/event?click_id=ATdRARoAAAFqn843xAABB0sAAEnM,idfa_a0f985f3-7d43-4144-b583-3cbc995b4158,%ED%95%9C%EA%B5%AD%EC%96%B4
SrqmDqM3TgGSF2cZHkM7Dw,crobo,18892_1456_1989_49_18892_1456_1989_49,Install,2.0,211.33.192.58,5b5f5772-28a8-4603-990f-6f759b1b41e6,1557550690,2019-05-11 12:58:10,1557550798,2019-05-11 12:59:58,1557550828,AdSnoFAAAAFqpUFnrgABB0sAAEnM,http://pb.api.weq.com/v1.4/event?click_id=AdSnoFAAAAFqpUFnrgABB0sAAEnM,idfa_5b5f5772-28a8-4603-990f-6f759b1b41e6,%ED%95%9C%EA%B5%AD%EC%96%B4
SrqmDqM3TgGSF2cZHkM7Dw,crobo,18892_1456_1989_49_18892_1456_1989_49,Install,2.0,222.118.125.191,aff0460c-7076-4c49-a9fe-b79d5272d166,1557551588,2019-05-11 13:13:08,1557551808,2019-05-11 13:16:48,1557551838,AUbsi9oAAAFqpU8TewABB0sAAEnM,http://pb.api.weq.com/v1.4/event?click_id=AUbsi9oAAAFqpU8TewABB0sAAEnM,idfa_aff0460c-7076-4c49-a9fe-b79d5272d166,%ED%95%9C%EA%B5%AD%EC%96%B4
SrqmDqM3TgGSF2cZHkM7Dw,crobo,18892_1456_1989_49_18892_1456_1989_49,Install,2.0,210.102.199.253,af5a02ab-4ced-4f00-a8d2-d1aaaf92a81c,1557551315,2019-05-11 13:08:35,1557551434,2019-05-11 13:10:34,1557551465,AXc01OQAAAFqpUrr_AABB0sAAEnM,http://pb.api.weq.com/v1.4/event?click_id=AXc01OQAAAFqpUrr_AABB0sAAEnM,idfa_af5a02ab-4ced-4f00-a8d2-d1aaaf92a81c,%ED%95%9C%EA%B5%AD%EC%96%B4
SrqmDqM3TgGSF2cZHkM7Dw,crobo,18892_1456_1989_49_18892_1456_1989_49,Install,2.0,112.172.63.47,33f3d069-f116-4716-b5d1-c925b347aa48,1557550205,2019-05-11 12:50:05,1557550513,2019-05-11 12:55:13,1557550543,AX73gV8AAAFqpTn8NAABB0sAAEnM,http://pb.api.weq.com/v1.4/event?click_id=AX73gV8AAAFqpTn8NAABB0sAAEnM,idfa_33f3d069-f116-4716-b5d1-c925b347aa48,%ED%95%9C%EA%B5%AD%EC%96%B4
SrqmDqM3TgGSF2cZHkM7Dw,crobo,18892_1456_1989_49_18892_1456_1989_49,Install,2.0,14.43.79.140,cc90967f-1bc7-4f11-8b21-12bbf6f74168,1557551611,2019-05-11 13:13:31,1557551838,2019-05-11 13:17:18,1557551869,AW-2FcoAAAFqpU9toAABB0sAAEnM,http://pb.api.weq.com/v1.4/event?click_id=AW-2FcoAAAFqpU9toAABB0sAAEnM,idfa_cc90967f-1bc7-4f11-8b21-12bbf6f74168,%ED%95%9C%EA%B5%AD%EC%96%B4
SrqmDqM3TgGSF2cZHkM7Dw,crobo,18892_1456_1989_49_18892_1456_1989_49,Install,2.0,59.31.208.72,7d0c6b4a-8367-4be0-8eac-8301f29da77d,1557456880,2019-05-10 10:54:40,1557456995,2019-05-10 10:56:35,1557457025,AeLb4cIAAAFqn6n5VQABB0sAAEnM,http://pb.api.weq.com/v1.4/event?click_id=AeLb4cIAAAFqn6n5VQABB0sAAEnM,idfa_7d0c6b4a-8367-4be0-8eac-8301f29da77d,%ED%95%9C%EA%B5%AD%EC%96%B4
SrqmDqM3TgGSF2cZHkM7Dw,crobo,18892_1456_1989_49_18892_1456_1989_49,Install,2.0,1.222.80.90,e87d8621-edee-4f9d-a6ab-b633d712f7ef,1557549744,2019-05-11 12:42:24,1557549865,2019-05-11 12:44:25,1557549895,Ad-H9xwAAAFqpTL1vQABB0sAAEnM,http://pb.api.weq.com/v1.4/event?click_id=Ad-H9xwAAAFqpTL1vQABB0sAAEnM,idfa_e87d8621-edee-4f9d-a6ab-b633d712f7ef,%ED%95%9C%EA%B5%AD%EC%96%B4
SrqmDqM3TgGSF2cZHkM7Dw,crobo,18892_1456_1989_49_18892_1456_1989_49,Install,2.0,1.228.117.68,9bdcf1e6-d520-43d6-a671-d04aeab7fd03,1557625794,2019-05-12 09:49:54,1557625921,2019-05-12 09:52:01,1557626017,Aem06AQAAAFqqbtnqAABB0sAAEnM,http://pb.api.weq.com/v1.4/event?click_id=Aem06AQAAAFqqbtnqAABB0sAAEnM,idfa_9bdcf1e6-d520-43d6-a671-d04aeab7fd03,%ED%95%9C%EA%B5%AD%EC%96%B4
SrqmDqM3TgGSF2cZHkM7Dw,crobo,18892_1456_1989_49_18892_1456_1989_49,Install,2.0,1.214.47.130,e0ee6dfc-3774-451c-8c69-9859e68998af,1557458206,2019-05-10 11:16:46,1557458323,2019-05-10 11:18:43,1557458354,AW-v0iAAAAFqn74rOAABB0sAAEnM,http://pb.api.weq.com/v1.4/event?click_id=AW-v0iAAAAFqn74rOAABB0sAAEnM,idfa_e0ee6dfc-3774-451c-8c69-9859e68998af,%ED%95%9C%EA%B5%AD%EC%96%B4
SrqmDqM3TgGSF2cZHkM7Dw,crobo,18892_1456_1989_49_18892_1456_1989_49,Install,2.0,220.126.189.241,07ed5966-56b1-455d-9105-fc046c86e012,1557550906,2019-05-11 13:01:46,1557551025,2019-05-11 13:03:45,1557551056,AYCaKCYAAAFqpUSwpgABB0sAAEnM,http://pb.api.weq.com/v1.4/event?click_id=AYCaKCYAAAFqpUSwpgABB0sAAEnM,idfa_07ed5966-56b1-455d-9105-fc046c86e012,%ED%95%9C%EA%B5%AD%EC%96%B4
SrqmDqM3TgGSF2cZHkM7Dw,crobo,18892_1456_1989_49_18892_1456_1989_49,Install,2.0,121.141.148.158,aff7b9e3-28ab-42f7-839a-25810b7fdf31,1557456662,2019-05-10 10:51:02,1557456771,2019-05-10 10:52:51,1557456804,AckO338AAAFqn6aj3QABB0sAAEnM,http://pb.api.weq.com/v1.4/event?click_id=AckO338AAAFqn6aj3QABB0sAAEnM,idfa_aff7b9e3-28ab-42f7-839a-25810b7fdf31,%ED%95%9C%EA%B5%AD%EC%96%B4
SrqmDqM3TgGSF2cZHkM7Dw,crobo,18892_1456_1989_49_18892_1456_1989_49,Install,2.0,119.200.229.33,15884e7a-430d-498c-83aa-8d48fa865366,1557455520,2019-05-10 10:32:00,1557455642,2019-05-10 10:34:02,1557455672,AUIyrYIAAAFqn5U3ogABB0sAAEnM,http://pb.api.weq.com/v1.4/event?click_id=AUIyrYIAAAFqn5U3ogABB0sAAEnM,idfa_15884e7a-430d-498c-83aa-8d48fa865366,%ED%95%9C%EA%B5%AD%EC%96%B4
SrqmDqM3TgGSF2cZHkM7Dw,crobo,18892_1456_1989_49_18892_1456_1989_49,Install,2.0,211.60.138.120,c69e54cf-ab0c-4c21-8572-e3f62b7b94c6,1557619230,2019-05-12 08:00:30,1557619415,2019-05-12 08:03:35,1557619446,ATdH4OoAAAFqqVc42gABB0sAAEnM,http://pb.api.weq.com/v1.4/event?click_id=ATdH4OoAAAFqqVc42gABB0sAAEnM,idfa_c69e54cf-ab0c-4c21-8572-e3f62b7b94c6,%ED%95%9C%EA%B5%AD%EC%96%B4
SrqmDqM3TgGSF2cZHkM7Dw,crobo,18892_1456_1989_49_18892_1456_1989_49,Install,2.0,115.94.73.2,3a06093d-4e05-4590-9836-bf6beff0187c,1557551863,2019-05-11 13:17:43,1557551972,2019-05-11 13:19:32,1557552004,AU8ohY8AAAFqpVNJoAABB0sAAEnM,http://pb.api.weq.com/v1.4/event?click_id=AU8ohY8AAAFqpVNJoAABB0sAAEnM,idfa_3a06093d-4e05-4590-9836-bf6beff0187c,%ED%95%9C%EA%B5%AD%EC%96%B4
SrqmDqM3TgGSF2cZHkM7Dw,crobo,18892_1456_1989_49_18892_1456_1989_49,Install,2.0,118.39.59.121,bf1b327a-dc5d-4ec3-9fc6-8128902eecb1,1557622354,2019-05-12 08:52:34,1557622619,2019-05-12 08:56:59,1557622650,AWz3KkoAAAFqqYbllwABB0sAAEnM,http://pb.api.weq.com/v1.4/event?click_id=AWz3KkoAAAFqqYbllwABB0sAAEnM,idfa_bf1b327a-dc5d-4ec3-9fc6-8128902eecb1,%ED%95%9C%EA%B5%AD%EC%96%B4
SrqmDqM3TgGSF2cZHkM7Dw,crobo,18892_1456_1989_49_18892_1456_1989_49,Install,2.0,112.222.142.154,8daa212d-3527-456f-ae66-19448f7fbf60,1557621137,2019-05-12 08:32:17,1557621402,2019-05-12 08:36:42,1557621434,ARS3ZU4AAAFqqXRRZAABB0sAAEnM,http://pb.api.weq.com/v1.4/event?click_id=ARS3ZU4AAAFqqXRRZAABB0sAAEnM,idfa_8daa212d-3527-456f-ae66-19448f7fbf60,%ED%95%9C%EA%B5%AD%EC%96%B4
SrqmDqM3TgGSF2cZHkM7Dw,crobo,18892_1456_1989_49_18892_1456_1989_49,Install,2.0,203.233.111.241,e18de8b8-6b29-4902-9494-fd20a459bf60,1557455690,2019-05-10 10:34:50,1557455809,2019-05-10 10:36:49,1557455871,AdLdRrQAAAFqn5fL8wABB0sAAEnM,http://pb.api.weq.com/v1.4/event?click_id=AdLdRrQAAAFqn5fL8wABB0sAAEnM,idfa_e18de8b8-6b29-4902-9494-fd20a459bf60,%ED%95%9C%EA%B5%AD%EC%96%B4
SrqmDqM3TgGSF2cZHkM7Dw,crobo,18892_1456_1989_49_18892_1456_1989_49,Install,2.0,59.30.85.188,ec6fe8db-66f9-44e1-9d58-f983d49d0490,1557552155,2019-05-11 13:22:35,1557552285,2019-05-11 13:24:45,1557552317,ATm_9zAAAAFqpVfAUAABB0sAAEnM,http://pb.api.weq.com/v1.4/event?click_id=ATm_9zAAAAFqpVfAUAABB0sAAEnM,idfa_ec6fe8db-66f9-44e1-9d58-f983d49d0490,%ED%95%9C%EA%B5%AD%EC%96%B4
SrqmDqM3TgGSF2cZHkM7Dw,crobo,18892_1456_1989_49_18892_1456_1989_49,Install,2.0,1.255.70.86,deae2847-8e48-4e60-8aa3-529530a27103,1557550718,2019-05-11 12:58:38,1557550840,2019-05-11 13:00:40,1557550871,Ac10qcAAAAFqpUHUOwABB0sAAEnM,http://pb.api.weq.com/v1.4/event?click_id=Ac10qcAAAAFqpUHUOwABB0sAAEnM,idfa_deae2847-8e48-4e60-8aa3-529530a27103,%ED%95%9C%EA%B5%AD%EC%96%B4
SrqmDqM3TgGSF2cZHkM7Dw,crobo,18892_1456_1989_49_18892_1456_1989_49,Install,2.0,58.140.108.2,b25c74c1-61b6-4502-bf67-805ebcd8f08b,1557551663,2019-05-11 13:14:23,1557551775,2019-05-11 13:16:15,1557551805,Ac8KMFUAAAFqpVA5KAABB0sAAEnM,http://pb.api.weq.com/v1.4/event?click_id=Ac8KMFUAAAFqpVA5KAABB0sAAEnM,idfa_b25c74c1-61b6-4502-bf67-805ebcd8f08b,%ED%95%9C%EA%B5%AD%EC%96%B4
SrqmDqM3TgGSF2cZHkM7Dw,crobo,18892_1456_1989_49_18892_1456_1989_49,Install,2.0,112.216.241.21,80ed9fc1-e5b1-4cdb-8070-270a5e70eba2,1557619208,2019-05-12 08:00:08,1557619404,2019-05-12 08:03:24,1557619434,AfBROpQAAAFqqVbjQQABB0sAAEnM,http://pb.api.weq.com/v1.4/event?click_id=AfBROpQAAAFqqVbjQQABB0sAAEnM,idfa_80ed9fc1-e5b1-4cdb-8070-270a5e70eba2,%ED%95%9C%EA%B5%AD%EC%96%B4
SrqmDqM3TgGSF2cZHkM7Dw,crobo,18892_1456_1989_49_18892_1456_1989_49,Install,2.0,211.224.22.35,dcd051ea-ca19-402c-b0c2-0f818b302f70,1557457509,2019-05-10 11:05:09,1557457666,2019-05-10 11:07:46,1557457704,AZ-B_48AAAFqn7OKcQABB0sAAEnM,http://pb.api.weq.com/v1.4/event?click_id=AZ-B_48AAAFqn7OKcQABB0sAAEnM,idfa_dcd051ea-ca19-402c-b0c2-0f818b302f70,%ED%95%9C%EA%B5%AD%EC%96%B4
SrqmDqM3TgGSF2cZHkM7Dw,crobo,18892_1456_1989_49_18892_1456_1989_49,Install,2.0,1.220.23.252,37c626ee-a7e3-4811-9cbc-928e057a5e88,1557456153,2019-05-10 10:42:33,1557456271,2019-05-10 10:44:31,1557456317,AUJ55OwAAAFqn57bggABB0sAAEnM,http://pb.api.weq.com/v1.4/event?click_id=AUJ55OwAAAFqn57bggABB0sAAEnM,idfa_37c626ee-a7e3-4811-9cbc-928e057a5e88,%ED%95%9C%EA%B5%AD%EC%96%B4
SrqmDqM3TgGSF2cZHkM7Dw,crobo,18892_1456_1989_49_18892_1456_1989_49,Install,2.0,112.218.155.92,ae0d36b4-ddef-4156-9cb8-08ede003af40,1557549526,2019-05-11 12:38:46,1557549650,2019-05-11 12:40:50,1557549681,ASj7SxAAAAFqpS-frAABB0sAAEnM,http://pb.api.weq.com/v1.4/event?click_id=ASj7SxAAAAFqpS-frAABB0sAAEnM,idfa_ae0d36b4-ddef-4156-9cb8-08ede003af40,%ED%95%9C%EA%B5%AD%EC%96%B4
SrqmDqM3TgGSF2cZHkM7Dw,crobo,18892_1456_1989_49_18892_1456_1989_49,Install,2.0,211.38.13.83,4b9ecdf8-6bef-4bf6-bc12-beb6a0bcb5ff,1557622117,2019-05-12 08:48:37,1557622246,2019-05-12 08:50:46,1557622277,Aa3Hx28AAAFqqYND0QABB0sAAEnM,http://pb.api.weq.com/v1.4/event?click_id=Aa3Hx28AAAFqqYND0QABB0sAAEnM,idfa_4b9ecdf8-6bef-4bf6-bc12-beb6a0bcb5ff,%ED%95%9C%EA%B5%AD%EC%96%B4
SrqmDqM3TgGSF2cZHkM7Dw,crobo,18892_1456_1989_49_18892_1456_1989_49,Install,2.0,211.48.9.120,a3ace882-040a-49df-a587-dfec165e31fb,1557456457,2019-05-10 10:47:37,1557456582,2019-05-10 10:49:42,1557456612,AWOdmp4AAAFqn6N_iwABB0sAAEnM,http://pb.api.weq.com/v1.4/event?click_id=AWOdmp4AAAFqn6N_iwABB0sAAEnM,idfa_a3ace882-040a-49df-a587-dfec165e31fb,%ED%95%9C%EA%B5%AD%EC%96%B4
SrqmDqM3TgGSF2cZHkM7Dw,crobo,18892_1456_1989_49_18892_1456_1989_49,Install,2.0,1.255.70.123,729d8725-67d4-45a9-8897-25ee046d3cd7,1557549504,2019-05-11 12:38:24,1557549620,2019-05-11 12:40:20,1557549650,AZnwbuYAAAFqpS9KTAABB0sAAEnM,http://pb.api.weq.com/v1.4/event?click_id=AZnwbuYAAAFqpS9KTAABB0sAAEnM,idfa_729d8725-67d4-45a9-8897-25ee046d3cd7,%ED%95%9C%EA%B5%AD%EC%96%B4
SrqmDqM3TgGSF2cZHkM7Dw,crobo,18892_1456_1989_49_18892_1456_1989_49,Install,2.0,121.157.123.239,067fcc56-bf89-4fe2-b241-421f9df43052,1557549761,2019-05-11 12:42:41,1557549864,2019-05-11 12:44:24,1557549894,ASHJGG0AAAFqpTMuXgABB0sAAEnM,http://pb.api.weq.com/v1.4/event?click_id=ASHJGG0AAAFqpTMuXgABB0sAAEnM,idfa_067fcc56-bf89-4fe2-b241-421f9df43052,%ED%95%9C%EA%B5%AD%EC%96%B4
SrqmDqM3TgGSF2cZHkM7Dw,crobo,18892_1456_1989_49_18892_1456_1989_49,Install,2.0,112.164.148.59,7dc2f3e1-d05d-4af6-ba6b-9becc47b4fe6,1557624052,2019-05-12 09:20:52,1557624358,2019-05-12 09:25:58,1557624391,AXdgNQQAAAFqqaDNkwABB0sAAEnM,http://pb.api.weq.com/v1.4/event?click_id=AXdgNQQAAAFqqaDNkwABB0sAAEnM,idfa_7dc2f3e1-d05d-4af6-ba6b-9becc47b4fe6,%ED%95%9C%EA%B5%AD%EC%96%B4
SrqmDqM3TgGSF2cZHkM7Dw,crobo,18892_1456_1989_49_18892_1456_1989_49,Install,2.0,183.104.192.162,7e44ca1c-e1c0-4a83-af68-bea4e5e75283,1557619345,2019-05-12 08:02:25,1557619451,2019-05-12 08:04:11,1557619482,AcQTorAAAAFqqVj9zQABB0sAAEnM,http://pb.api.weq.com/v1.4/event?click_id=AcQTorAAAAFqqVj9zQABB0sAAEnM,idfa_7e44ca1c-e1c0-4a83-af68-bea4e5e75283,%ED%95%9C%EA%B5%AD%EC%96%B4
