cid,partner_id,channel_id,action_id,cpi,ip,idfa,click time,click datetime,install time,install datetime,postback time,click id,postback url,unique user id
SrqmDqM3TgGSF2cZHkM7Dw,crobo,18892_2695_183_145_18892_2695_183_145,Install,2.0,220.73.22.97,3e64516b-b9cb-4589-a16e-ec0298e868bc,1558230848,2019-05-19 09:54:08,1558231008,2019-05-19 09:56:48,1558231039,AW_UmP0AAAFqzcvEvgABB0sAAEnM,http://pb.api.weq.com/v1.4/event?click_id=AW_UmP0AAAFqzcvEvgABB0sAAEnM,idfa_3e64516b-b9cb-4589-a16e-ec0298e868bc,%ED%95%9C%EA%B5%AD%EC%96%B4
SrqmDqM3TgGSF2cZHkM7Dw,crobo,18892_2695_183_145_18892_2695_183_145,Install,2.0,106.242.161.28,a03d8eb5-e981-46a3-abfb-9a51b46c1cbf,1557976821,2019-05-16 11:20:21,1557976913,2019-05-16 11:21:53,1557976943,AexCnJgAAAFqvqefIQABB0sAAEnM,http://pb.api.weq.com/v1.4/event?click_id=AexCnJgAAAFqvqefIQABB0sAAEnM,idfa_a03d8eb5-e981-46a3-abfb-9a51b46c1cbf,%ED%95%9C%EA%B5%AD%EC%96%B4
SrqmDqM3TgGSF2cZHkM7Dw,crobo,18892_2695_183_145_18892_2695_183_145,Install,2.0,59.12.38.116,1dee9459-4ba2-45b9-b649-37c74b4b8f51,1557976511,2019-05-16 11:15:11,1557976576,2019-05-16 11:16:16,1557976606,Ab2oruoAAAFqvqLh3QABB0sAAEnM,http://pb.api.weq.com/v1.4/event?click_id=Ab2oruoAAAFqvqLh3QABB0sAAEnM,idfa_1dee9459-4ba2-45b9-b649-37c74b4b8f51,%ED%95%9C%EA%B5%AD%EC%96%B4
SrqmDqM3TgGSF2cZHkM7Dw,crobo,18892_2695_183_145_18892_2695_183_145,Install,2.0,115.12.177.66,55c09e0d-377a-4270-bf1b-c623dbf722ce,1558315104,2019-05-20 09:18:24,1558315328,2019-05-20 09:22:08,1558315359,AR8TkscAAAFq0tFraQABB0sAAEnM,http://pb.api.weq.com/v1.4/event?click_id=AR8TkscAAAFq0tFraQABB0sAAEnM,idfa_55c09e0d-377a-4270-bf1b-c623dbf722ce,%ED%95%9C%EA%B5%AD%EC%96%B4
SrqmDqM3TgGSF2cZHkM7Dw,crobo,18892_2695_183_145_18892_2695_183_145,Install,2.0,60.253.12.114,844f9cb7-a3d9-4954-ad2d-aba430b8f374,1558063074,2019-05-17 11:17:54,1558063131,2019-05-17 11:18:51,1558063162,AdH7R2IAAAFqw8u7TwABB0sAAEnM,http://pb.api.weq.com/v1.4/event?click_id=AdH7R2IAAAFqw8u7TwABB0sAAEnM,idfa_844f9cb7-a3d9-4954-ad2d-aba430b8f374,%ED%95%9C%EA%B5%AD%EC%96%B4
SrqmDqM3TgGSF2cZHkM7Dw,crobo,18892_2695_183_145_18892_2695_183_145,Install,2.0,122.202.32.118,80ae731c-8906-46fe-a37c-5c394c514360,1558062107,2019-05-17 11:01:47,1558062216,2019-05-17 11:03:36,1558062247,ASV4SaMAAAFqw7z9gAABB0sAAEnM,http://pb.api.weq.com/v1.4/event?click_id=ASV4SaMAAAFqw7z9gAABB0sAAEnM,idfa_80ae731c-8906-46fe-a37c-5c394c514360,%ED%95%9C%EA%B5%AD%EC%96%B4
SrqmDqM3TgGSF2cZHkM7Dw,crobo,18892_2695_183_145_18892_2695_183_145,Install,2.0,14.46.205.188,d8c6bc44-9c74-4aab-9d4e-bb4802d32a54,1558061051,2019-05-17 10:44:11,1558061149,2019-05-17 10:45:49,1558061179,AZhYnz4AAAFqw6zjMgABB0sAAEnM,http://pb.api.weq.com/v1.4/event?click_id=AZhYnz4AAAFqw6zjMgABB0sAAEnM,idfa_d8c6bc44-9c74-4aab-9d4e-bb4802d32a54,%ED%95%9C%EA%B5%AD%EC%96%B4
SrqmDqM3TgGSF2cZHkM7Dw,crobo,18892_2695_183_145_18892_2695_183_145,Install,2.0,182.208.90.83,ca50c617-f0a7-4617-90ce-5040cb7caaae,1558233027,2019-05-19 10:30:27,1558233084,2019-05-19 10:31:24,1558233118,AXfh-eYAAAFqze0FggABB0sAAEnM,http://pb.api.weq.com/v1.4/event?click_id=AXfh-eYAAAFqze0FggABB0sAAEnM,idfa_ca50c617-f0a7-4617-90ce-5040cb7caaae,%ED%95%9C%EA%B5%AD%EC%96%B4
SrqmDqM3TgGSF2cZHkM7Dw,crobo,18892_2695_183_145_18892_2695_183_145,Install,2.0,106.242.93.226,4f72e358-0f09-47ba-9d7d-e34838767ef5,1558061028,2019-05-17 10:43:48,1558061106,2019-05-17 10:45:06,1558061137,AQAIuloAAAFqw6yHLAABB0sAAEnM,http://pb.api.weq.com/v1.4/event?click_id=AQAIuloAAAFqw6yHLAABB0sAAEnM,idfa_4f72e358-0f09-47ba-9d7d-e34838767ef5,%ED%95%9C%EA%B5%AD%EC%96%B4
SrqmDqM3TgGSF2cZHkM7Dw,crobo,18892_2695_183_145_18892_2695_183_145,Install,2.0,222.110.155.108,c863cb39-58e5-40de-8f10-ce5970b88228,1558229145,2019-05-19 09:25:45,1558229186,2019-05-19 09:26:26,1558229216,AYPiPIQAAAFqzbHIFwABB0sAAEnM,http://pb.api.weq.com/v1.4/event?click_id=AYPiPIQAAAFqzbHIFwABB0sAAEnM,idfa_c863cb39-58e5-40de-8f10-ce5970b88228,%ED%95%9C%EA%B5%AD%EC%96%B4
SrqmDqM3TgGSF2cZHkM7Dw,crobo,18892_2695_183_145_18892_2695_183_145,Install,2.0,119.66.102.7,fdcc51a4-b8ae-47c4-bceb-82a74679ebfc,1557976088,2019-05-16 11:08:08,1557976199,2019-05-16 11:09:59,1557976234,AQYW8dcAAAFqvpxvaAABB0sAAEnM,http://pb.api.weq.com/v1.4/event?click_id=AQYW8dcAAAFqvpxvaAABB0sAAEnM,idfa_fdcc51a4-b8ae-47c4-bceb-82a74679ebfc,%ED%95%9C%EA%B5%AD%EC%96%B4
SrqmDqM3TgGSF2cZHkM7Dw,crobo,18892_2695_183_145_18892_2695_183_145,Install,2.0,1.217.20.82,ffb5af0b-9e5a-4468-8345-93ad40cbc776,1558232796,2019-05-19 10:26:36,1558232848,2019-05-19 10:27:28,1558232878,AYm2R1MAAAFqzemABAABB0sAAEnM,http://pb.api.weq.com/v1.4/event?click_id=AYm2R1MAAAFqzemABAABB0sAAEnM,idfa_ffb5af0b-9e5a-4468-8345-93ad40cbc776,%ED%95%9C%EA%B5%AD%EC%96%B4
SrqmDqM3TgGSF2cZHkM7Dw,crobo,18892_2695_183_145_18892_2695_183_145,Install,2.0,211.236.192.230,ceb61855-30da-48b9-bdac-fb14d78ddd2d,1557976187,2019-05-16 11:09:47,1557976249,2019-05-16 11:10:49,1557976280,AfcJXIoAAAFqvp3ziAABB0sAAEnM,http://pb.api.weq.com/v1.4/event?click_id=AfcJXIoAAAFqvp3ziAABB0sAAEnM,idfa_ceb61855-30da-48b9-bdac-fb14d78ddd2d,%ED%95%9C%EA%B5%AD%EC%96%B4
SrqmDqM3TgGSF2cZHkM7Dw,crobo,18892_2695_183_145_18892_2695_183_145,Install,2.0,211.43.60.60,ace22275-6ea6-41fa-bb81-1eb576b04889,1558064072,2019-05-17 11:34:32,1558064162,2019-05-17 11:36:02,1558064193,Ad7Bd38AAAFqw9rTMwABB0sAAEnM,http://pb.api.weq.com/v1.4/event?click_id=Ad7Bd38AAAFqw9rTMwABB0sAAEnM,idfa_ace22275-6ea6-41fa-bb81-1eb576b04889,%ED%95%9C%EA%B5%AD%EC%96%B4
SrqmDqM3TgGSF2cZHkM7Dw,crobo,18892_2695_183_145_18892_2695_183_145,Install,2.0,112.222.184.51,e1872f4b-7dff-4369-b08c-fe858e33985a,1558230083,2019-05-19 09:41:23,1558230138,2019-05-19 09:42:18,1558230178,AWzm2pQAAAFqzcAc3gABB0sAAEnM,http://pb.api.weq.com/v1.4/event?click_id=AWzm2pQAAAFqzcAc3gABB0sAAEnM,idfa_e1872f4b-7dff-4369-b08c-fe858e33985a,%ED%95%9C%EA%B5%AD%EC%96%B4
SrqmDqM3TgGSF2cZHkM7Dw,crobo,18892_2695_183_145_18892_2695_183_145,Install,2.0,61.74.224.26,7c7b1124-5543-47bf-83f3-bd9591b62b97,1558316564,2019-05-20 09:42:44,1558316662,2019-05-20 09:44:22,1558316692,AX3m4LoAAAFq0ue1cQABB0sAAEnM,http://pb.api.weq.com/v1.4/event?click_id=AX3m4LoAAAFq0ue1cQABB0sAAEnM,idfa_7c7b1124-5543-47bf-83f3-bd9591b62b97,%ED%95%9C%EA%B5%AD%EC%96%B4
SrqmDqM3TgGSF2cZHkM7Dw,crobo,18892_2695_183_145_18892_2695_183_145,Install,2.0,211.33.121.100,add62614-9c0a-4a82-a41f-178d73214bda,1557976621,2019-05-16 11:17:01,1557976799,2019-05-16 11:19:59,1557976829,AVLyZPQAAAFqvqRypAABB0sAAEnM,http://pb.api.weq.com/v1.4/event?click_id=AVLyZPQAAAFqvqRypAABB0sAAEnM,idfa_add62614-9c0a-4a82-a41f-178d73214bda,%ED%95%9C%EA%B5%AD%EC%96%B4
SrqmDqM3TgGSF2cZHkM7Dw,crobo,18892_2695_183_145_18892_2695_183_145,Install,2.0,49.246.3.250,83bd069a-987e-4e5e-8b73-ecd0a3c63a8d,1558064698,2019-05-17 11:44:58,1558064798,2019-05-17 11:46:38,1558064830,AR1DwvkAAAFqw-SHHAABB0sAAEnM,http://pb.api.weq.com/v1.4/event?click_id=AR1DwvkAAAFqw-SHHAABB0sAAEnM,idfa_83bd069a-987e-4e5e-8b73-ecd0a3c63a8d,%ED%95%9C%EA%B5%AD%EC%96%B4
SrqmDqM3TgGSF2cZHkM7Dw,crobo,18892_2695_183_145_18892_2695_183_145,Install,2.0,175.112.62.21,3d37924b-0242-4d50-8965-6c1117eceab6,1558315022,2019-05-20 09:17:02,1558315066,2019-05-20 09:17:46,1558315097,AZhG6LkAAAFq0tAqfQABB0sAAEnM,http://pb.api.weq.com/v1.4/event?click_id=AZhG6LkAAAFq0tAqfQABB0sAAEnM,idfa_3d37924b-0242-4d50-8965-6c1117eceab6,%ED%95%9C%EA%B5%AD%EC%96%B4
SrqmDqM3TgGSF2cZHkM7Dw,crobo,18892_2695_183_145_18892_2695_183_145,Install,2.0,211.36.186.206,7693190b-7213-4ddf-a747-c25754976cd8,1558315686,2019-05-20 09:28:06,1558315734,2019-05-20 09:28:54,1558315765,AfE6WwEAAAFq0tpKvgABB0sAAEnM,http://pb.api.weq.com/v1.4/event?click_id=AfE6WwEAAAFq0tpKvgABB0sAAEnM,idfa_7693190b-7213-4ddf-a747-c25754976cd8,%ED%95%9C%EA%B5%AD%EC%96%B4
SrqmDqM3TgGSF2cZHkM7Dw,crobo,18892_2695_183_145_18892_2695_183_145,Install,2.0,61.81.123.69,750407e1-33b4-4393-8d35-1de492997c24,1558319922,2019-05-20 10:38:42,1558319986,2019-05-20 10:39:46,1558320022,Ab8yEzQAAAFq0xruBAABB0sAAEnM,http://pb.api.weq.com/v1.4/event?click_id=Ab8yEzQAAAFq0xruBAABB0sAAEnM,idfa_750407e1-33b4-4393-8d35-1de492997c24,%ED%95%9C%EA%B5%AD%EC%96%B4
SrqmDqM3TgGSF2cZHkM7Dw,crobo,18892_2695_183_145_18892_2695_183_145,Install,2.0,49.246.89.251,d77ff86d-ab1b-45d8-82c4-b0b3aa7aa894,1558233469,2019-05-19 10:37:49,1558233590,2019-05-19 10:39:50,1558233699,AZmLJQQAAAFqzfO7wQABB0sAAEnM,http://pb.api.weq.com/v1.4/event?click_id=AZmLJQQAAAFqzfO7wQABB0sAAEnM,idfa_d77ff86d-ab1b-45d8-82c4-b0b3aa7aa894,%ED%95%9C%EA%B5%AD%EC%96%B4
SrqmDqM3TgGSF2cZHkM7Dw,crobo,18892_2695_183_145_18892_2695_183_145,Install,2.0,211.221.247.3,d6ffb530-b5a0-4e0d-8691-155a96db560f,1558059787,2019-05-17 10:23:07,1558059850,2019-05-17 10:24:10,1558059881,AeDfYWQAAAFqw5mXRwABB0sAAEnM,http://pb.api.weq.com/v1.4/event?click_id=AeDfYWQAAAFqw5mXRwABB0sAAEnM,idfa_d6ffb530-b5a0-4e0d-8691-155a96db560f,%ED%95%9C%EA%B5%AD%EC%96%B4
SrqmDqM3TgGSF2cZHkM7Dw,crobo,18892_2695_183_145_18892_2695_183_145,Install,2.0,175.112.188.68,137e9fb9-f19f-494a-a20a-9fc47a0f039c,1558060951,2019-05-17 10:42:31,1558061067,2019-05-17 10:44:27,1558061098,AUTX3xEAAAFqw6tXSwABB0sAAEnM,http://pb.api.weq.com/v1.4/event?click_id=AUTX3xEAAAFqw6tXSwABB0sAAEnM,idfa_137e9fb9-f19f-494a-a20a-9fc47a0f039c,%ED%95%9C%EA%B5%AD%EC%96%B4
SrqmDqM3TgGSF2cZHkM7Dw,crobo,18892_2695_183_145_18892_2695_183_145,Install,2.0,114.30.165.97,a7f20185-597b-4b3d-9127-e6579e63ccbe,1558059440,2019-05-17 10:17:20,1558059541,2019-05-17 10:19:01,1558059572,AfS7Zn4AAAFqw5RGeAABB0sAAEnM,http://pb.api.weq.com/v1.4/event?click_id=AfS7Zn4AAAFqw5RGeAABB0sAAEnM,idfa_a7f20185-597b-4b3d-9127-e6579e63ccbe,%ED%95%9C%EA%B5%AD%EC%96%B4
SrqmDqM3TgGSF2cZHkM7Dw,crobo,18892_2695_183_145_18892_2695_183_145,Install,2.0,211.181.72.238,79b52fb4-09f6-456d-a0a6-0fb23c1100b7,1558062936,2019-05-17 11:15:36,1558062994,2019-05-17 11:16:34,1558063025,ATvxWUEAAAFqw8mhCAABB0sAAEnM,http://pb.api.weq.com/v1.4/event?click_id=ATvxWUEAAAFqw8mhCAABB0sAAEnM,idfa_79b52fb4-09f6-456d-a0a6-0fb23c1100b7,%ED%95%9C%EA%B5%AD%EC%96%B4
SrqmDqM3TgGSF2cZHkM7Dw,crobo,18892_2695_183_145_18892_2695_183_145,Install,2.0,218.146.86.246,f4679eb0-51f0-4a71-9aad-4ae92699215b,1558063818,2019-05-17 11:30:18,1558063896,2019-05-17 11:31:36,1558063927,AfOIMYEAAAFqw9cXNwABB0sAAEnM,http://pb.api.weq.com/v1.4/event?click_id=AfOIMYEAAAFqw9cXNwABB0sAAEnM,idfa_f4679eb0-51f0-4a71-9aad-4ae92699215b,%ED%95%9C%EA%B5%AD%EC%96%B4
SrqmDqM3TgGSF2cZHkM7Dw,crobo,18892_2695_183_145_18892_2695_183_145,Install,2.0,124.195.190.171,0c92c261-d692-4db9-8cb7-a26eeb8924a3,1558232120,2019-05-19 10:15:20,1558232167,2019-05-19 10:16:07,1558232198,AYg7lRoAAAFqzd8t7QABB0sAAEnM,http://pb.api.weq.com/v1.4/event?click_id=AYg7lRoAAAFqzd8t7QABB0sAAEnM,idfa_0c92c261-d692-4db9-8cb7-a26eeb8924a3,%ED%95%9C%EA%B5%AD%EC%96%B4
SrqmDqM3TgGSF2cZHkM7Dw,crobo,18892_2695_183_145_18892_2695_183_145,Install,2.0,221.147.124.220,2f2b0e3f-604d-4937-817e-ee401f6f1432,1558063489,2019-05-17 11:24:49,1558063544,2019-05-17 11:25:44,1558063574,AUNmyukAAAFqw9ITPgABB0sAAEnM,http://pb.api.weq.com/v1.4/event?click_id=AUNmyukAAAFqw9ITPgABB0sAAEnM,idfa_2f2b0e3f-604d-4937-817e-ee401f6f1432,%ED%95%9C%EA%B5%AD%EC%96%B4
SrqmDqM3TgGSF2cZHkM7Dw,crobo,18892_2695_183_145_18892_2695_183_145,Install,2.0,118.33.122.60,0b096585-49dc-413e-b6eb-0a5fd2672933,1557976944,2019-05-16 11:22:24,1557977015,2019-05-16 11:23:35,1557977045,AVD85sgAAAFqvqlkOAABB0sAAEnM,http://pb.api.weq.com/v1.4/event?click_id=AVD85sgAAAFqvqlkOAABB0sAAEnM,idfa_0b096585-49dc-413e-b6eb-0a5fd2672933,%ED%95%9C%EA%B5%AD%EC%96%B4
SrqmDqM3TgGSF2cZHkM7Dw,crobo,18892_2695_183_145_18892_2695_183_145,Install,2.0,211.238.180.244,e600a5c3-d45a-4014-8320-4c1e4778bf33,1558062103,2019-05-17 11:01:43,1558062166,2019-05-17 11:02:46,1558062196,AZp62B0AAAFqw7zeiQABB0sAAEnM,http://pb.api.weq.com/v1.4/event?click_id=AZp62B0AAAFqw7zeiQABB0sAAEnM,idfa_e600a5c3-d45a-4014-8320-4c1e4778bf33,%ED%95%9C%EA%B5%AD%EC%96%B4
SrqmDqM3TgGSF2cZHkM7Dw,crobo,18892_2695_183_145_18892_2695_183_145,Install,2.0,121.160.252.4,ec8eee28-c418-488c-9a01-fd8db303e54c,1558062213,2019-05-17 11:03:33,1558062263,2019-05-17 11:04:23,1558062293,AbTTtMsAAAFqw76aewABB0sAAEnM,http://pb.api.weq.com/v1.4/event?click_id=AbTTtMsAAAFqw76aewABB0sAAEnM,idfa_ec8eee28-c418-488c-9a01-fd8db303e54c,%ED%95%9C%EA%B5%AD%EC%96%B4
SrqmDqM3TgGSF2cZHkM7Dw,crobo,18892_2695_183_145_18892_2695_183_145,Install,2.0,210.102.195.249,017db832-3726-4672-a316-4b1dabcacc31,1558063805,2019-05-17 11:30:05,1558063964,2019-05-17 11:32:44,1558063995,AQnYEtkAAAFqw9bexwABB0sAAEnM,http://pb.api.weq.com/v1.4/event?click_id=AQnYEtkAAAFqw9bexwABB0sAAEnM,idfa_017db832-3726-4672-a316-4b1dabcacc31,%ED%95%9C%EA%B5%AD%EC%96%B4
SrqmDqM3TgGSF2cZHkM7Dw,crobo,18892_2695_183_145_18892_2695_183_145,Install,2.0,121.178.215.5,66f7bcd1-9edd-4eb9-82e9-ba38d3d567ca,1558230783,2019-05-19 09:53:03,1558230876,2019-05-19 09:54:36,1558230948,AUD74ZYAAAFqzcrJhQABB0sAAEnM,http://pb.api.weq.com/v1.4/event?click_id=AUD74ZYAAAFqzcrJhQABB0sAAEnM,idfa_66f7bcd1-9edd-4eb9-82e9-ba38d3d567ca,%ED%95%9C%EA%B5%AD%EC%96%B4
SrqmDqM3TgGSF2cZHkM7Dw,crobo,18892_2695_183_145_18892_2695_183_145,Install,2.0,39.117.211.125,c5345104-1cbf-42ed-bf2c-dea2e095c3d6,1558061757,2019-05-17 10:55:57,1558061808,2019-05-17 10:56:48,1558061839,Afh0Z9sAAAFqw7bvoAABB0sAAEnM,http://pb.api.weq.com/v1.4/event?click_id=Afh0Z9sAAAFqw7bvoAABB0sAAEnM,idfa_c5345104-1cbf-42ed-bf2c-dea2e095c3d6,%ED%95%9C%EA%B5%AD%EC%96%B4
SrqmDqM3TgGSF2cZHkM7Dw,crobo,18892_2695_183_145_18892_2695_183_145,Install,2.0,210.223.250.3,c8f5857b-6726-467a-88b9-fd108f681f5f,1558060252,2019-05-17 10:30:52,1558060301,2019-05-17 10:31:41,1558060332,AWgzzzYAAAFqw6CtpQABB0sAAEnM,http://pb.api.weq.com/v1.4/event?click_id=AWgzzzYAAAFqw6CtpQABB0sAAEnM,idfa_c8f5857b-6726-467a-88b9-fd108f681f5f,%ED%95%9C%EA%B5%AD%EC%96%B4
SrqmDqM3TgGSF2cZHkM7Dw,crobo,18892_2695_183_145_18892_2695_183_145,Install,2.0,1.237.119.37,7b11e09b-e278-4882-ab72-907cd6c7f777,1558314111,2019-05-20 09:01:51,1558314163,2019-05-20 09:02:43,1558314194,AeyGTgcAAAFq0sJF5AABB0sAAEnM,http://pb.api.weq.com/v1.4/event?click_id=AeyGTgcAAAFq0sJF5AABB0sAAEnM,idfa_7b11e09b-e278-4882-ab72-907cd6c7f777,%ED%95%9C%EA%B5%AD%EC%96%B4
SrqmDqM3TgGSF2cZHkM7Dw,crobo,18892_2695_183_145_18892_2695_183_145,Install,2.0,61.32.61.197,f5299523-039b-43bf-a62c-d4b3b32d29d5,1558062603,2019-05-17 11:10:03,1558062660,2019-05-17 11:11:00,1558062690,Af9PkUwAAAFqw8SGmAABB0sAAEnM,http://pb.api.weq.com/v1.4/event?click_id=Af9PkUwAAAFqw8SGmAABB0sAAEnM,idfa_f5299523-039b-43bf-a62c-d4b3b32d29d5,%ED%95%9C%EA%B5%AD%EC%96%B4
SrqmDqM3TgGSF2cZHkM7Dw,crobo,18892_2695_183_145_18892_2695_183_145,Install,2.0,211.38.74.103,ebbf2fb6-0de2-4a65-b56d-98d4204b5d4d,1558060273,2019-05-17 10:31:13,1558060328,2019-05-17 10:32:08,1558060359,AX8mx9wAAAFqw6D6SQABB0sAAEnM,http://pb.api.weq.com/v1.4/event?click_id=AX8mx9wAAAFqw6D6SQABB0sAAEnM,idfa_ebbf2fb6-0de2-4a65-b56d-98d4204b5d4d,%ED%95%9C%EA%B5%AD%EC%96%B4
SrqmDqM3TgGSF2cZHkM7Dw,crobo,18892_2695_183_145_18892_2695_183_145,Install,2.0,182.216.29.134,fc7d2821-cfc3-4ff8-b768-51931cf9e038,1558060205,2019-05-17 10:30:05,1558060288,2019-05-17 10:31:28,1558060319,AcCnYcUAAAFqw5_zAgABB0sAAEnM,http://pb.api.weq.com/v1.4/event?click_id=AcCnYcUAAAFqw5_zAgABB0sAAEnM,idfa_fc7d2821-cfc3-4ff8-b768-51931cf9e038,%ED%95%9C%EA%B5%AD%EC%96%B4
SrqmDqM3TgGSF2cZHkM7Dw,crobo,18892_2695_183_145_18892_2695_183_145,Install,2.0,220.121.108.78,5d826576-b450-4dbb-91e2-03a3a49a8467,1558062985,2019-05-17 11:16:25,1558063114,2019-05-17 11:18:34,1558063144,AURM4YcAAAFqw8penQABB0sAAEnM,http://pb.api.weq.com/v1.4/event?click_id=AURM4YcAAAFqw8penQABB0sAAEnM,idfa_5d826576-b450-4dbb-91e2-03a3a49a8467,%ED%95%9C%EA%B5%AD%EC%96%B4
SrqmDqM3TgGSF2cZHkM7Dw,crobo,18892_2695_183_145_18892_2695_183_145,Install,2.0,222.110.225.180,84847f40-de22-476a-9234-c12fa0f4b8c7,1558317208,2019-05-20 09:53:28,1558317281,2019-05-20 09:54:41,1558317313,AV9A1PIAAAFq0vGFVgABB0sAAEnM,http://pb.api.weq.com/v1.4/event?click_id=AV9A1PIAAAFq0vGFVgABB0sAAEnM,idfa_84847f40-de22-476a-9234-c12fa0f4b8c7,%ED%95%9C%EA%B5%AD%EC%96%B4
SrqmDqM3TgGSF2cZHkM7Dw,crobo,18892_2695_183_145_18892_2695_183_145,Install,2.0,49.246.3.249,52c1025a-c049-42e4-94bb-29cc6464bed0,1558229124,2019-05-19 09:25:24,1558229306,2019-05-19 09:28:26,1558229337,AUwqtaIAAAFqzbFnJAABB0sAAEnM,http://pb.api.weq.com/v1.4/event?click_id=AUwqtaIAAAFqzbFnJAABB0sAAEnM,idfa_52c1025a-c049-42e4-94bb-29cc6464bed0,%ED%95%9C%EA%B5%AD%EC%96%B4
SrqmDqM3TgGSF2cZHkM7Dw,crobo,18892_2695_183_145_18892_2695_183_145,Install,2.0,59.6.184.142,72c2a76e-7355-443f-98d5-f2be477863b3,1558317219,2019-05-20 09:53:39,1558317283,2019-05-20 09:54:43,1558317314,AYV2poUAAAFq0vGwYwABB0sAAEnM,http://pb.api.weq.com/v1.4/event?click_id=AYV2poUAAAFq0vGwYwABB0sAAEnM,idfa_72c2a76e-7355-443f-98d5-f2be477863b3,%ED%95%9C%EA%B5%AD%EC%96%B4
SrqmDqM3TgGSF2cZHkM7Dw,crobo,18892_2695_183_145_18892_2695_183_145,Install,2.0,121.187.4.24,873060dd-2cda-4b03-a67f-167cb8a91f7d,1558065163,2019-05-17 11:52:43,1558065216,2019-05-17 11:53:36,1558065247,AQwscvMAAAFqw-uXxAABB0sAAEnM,http://pb.api.weq.com/v1.4/event?click_id=AQwscvMAAAFqw-uXxAABB0sAAEnM,idfa_873060dd-2cda-4b03-a67f-167cb8a91f7d,%ED%95%9C%EA%B5%AD%EC%96%B4
SrqmDqM3TgGSF2cZHkM7Dw,crobo,18892_2695_183_145_18892_2695_183_145,Install,2.0,183.98.75.48,e304862f-68df-4314-b6ae-3157b42c6672,1558316332,2019-05-20 09:38:52,1558316384,2019-05-20 09:39:44,1558316415,AVdYhPQAAAFq0uQjCQABB0sAAEnM,http://pb.api.weq.com/v1.4/event?click_id=AVdYhPQAAAFq0uQjCQABB0sAAEnM,idfa_e304862f-68df-4314-b6ae-3157b42c6672,%ED%95%9C%EA%B5%AD%EC%96%B4
SrqmDqM3TgGSF2cZHkM7Dw,crobo,18892_2695_183_145_18892_2695_183_145,Install,2.0,221.158.88.250,6fa4e195-5d45-44af-bfaa-c9dc9b12d10b,1558230868,2019-05-19 09:54:28,1558230943,2019-05-19 09:55:43,1558231059,AX5VQ2kAAAFqzcvl2QABB0sAAEnM,http://pb.api.weq.com/v1.4/event?click_id=AX5VQ2kAAAFqzcvl2QABB0sAAEnM,idfa_6fa4e195-5d45-44af-bfaa-c9dc9b12d10b,%ED%95%9C%EA%B5%AD%EC%96%B4
SrqmDqM3TgGSF2cZHkM7Dw,crobo,18892_2695_183_145_18892_2695_183_145,Install,2.0,115.88.142.4,d6708fc9-f088-4355-97c3-75b045b39a0a,1558059438,2019-05-17 10:17:18,1558059525,2019-05-17 10:18:45,1558059555,AYRURsEAAAFqw5QxiwABB0sAAEnM,http://pb.api.weq.com/v1.4/event?click_id=AYRURsEAAAFqw5QxiwABB0sAAEnM,idfa_d6708fc9-f088-4355-97c3-75b045b39a0a,%ED%95%9C%EA%B5%AD%EC%96%B4
SrqmDqM3TgGSF2cZHkM7Dw,crobo,18892_2695_183_145_18892_2695_183_145,Install,2.0,211.241.160.234,ed6281ec-206a-4e62-9297-4825d36227c4,1558063096,2019-05-17 11:18:16,1558063173,2019-05-17 11:19:33,1558063203,AQerjr8AAAFqw8wJmAABB0sAAEnM,http://pb.api.weq.com/v1.4/event?click_id=AQerjr8AAAFqw8wJmAABB0sAAEnM,idfa_ed6281ec-206a-4e62-9297-4825d36227c4,%ED%95%9C%EA%B5%AD%EC%96%B4
SrqmDqM3TgGSF2cZHkM7Dw,crobo,18892_2695_183_145_18892_2695_183_145,Install,2.0,210.95.214.130,0a3ffa40-b561-4c20-8108-e4ccc8cf712c,1558060438,2019-05-17 10:33:58,1558060624,2019-05-17 10:37:04,1558060656,AS8a0E8AAAFqw6OB0QABB0sAAEnM,http://pb.api.weq.com/v1.4/event?click_id=AS8a0E8AAAFqw6OB0QABB0sAAEnM,idfa_0a3ffa40-b561-4c20-8108-e4ccc8cf712c,%ED%95%9C%EA%B5%AD%EC%96%B4
SrqmDqM3TgGSF2cZHkM7Dw,crobo,18892_2695_183_145_18892_2695_183_145,Install,2.0,182.162.99.154,a830308e-509d-488b-8ff0-c588efc72241,1557976495,2019-05-16 11:14:55,1557976568,2019-05-16 11:16:08,1557976599,AcDzGCsAAAFqvqJdnQABB0sAAEnM,http://pb.api.weq.com/v1.4/event?click_id=AcDzGCsAAAFqvqJdnQABB0sAAEnM,idfa_a830308e-509d-488b-8ff0-c588efc72241,%ED%95%9C%EA%B5%AD%EC%96%B4
SrqmDqM3TgGSF2cZHkM7Dw,crobo,18892_2695_183_145_18892_2695_183_145,Install,2.0,106.246.250.154,72d9cb5c-99df-4662-bff7-a0fdf924549f,1558231497,2019-05-19 10:04:57,1558231549,2019-05-19 10:05:49,1558231713,AfmmVMUAAAFqzdWuRQABB0sAAEnM,http://pb.api.weq.com/v1.4/event?click_id=AfmmVMUAAAFqzdWuRQABB0sAAEnM,idfa_72d9cb5c-99df-4662-bff7-a0fdf924549f,%ED%95%9C%EA%B5%AD%EC%96%B4
SrqmDqM3TgGSF2cZHkM7Dw,crobo,18892_2695_183_145_18892_2695_183_145,Install,2.0,27.116.255.153,15b6f4e8-3c06-4a4d-94c6-f9bf3e87dbe6,1558141909,2019-05-18 09:11:49,1558141959,2019-05-18 09:12:39,1558141990,AVrr6LEAAAFqyH6tYAABB0sAAEnM,http://pb.api.weq.com/v1.4/event?click_id=AVrr6LEAAAFqyH6tYAABB0sAAEnM,idfa_15b6f4e8-3c06-4a4d-94c6-f9bf3e87dbe6,%ED%95%9C%EA%B5%AD%EC%96%B4
SrqmDqM3TgGSF2cZHkM7Dw,crobo,18892_2695_183_145_18892_2695_183_145,Install,2.0,121.66.93.195,93388224-5018-4a5b-9234-550de37c4daf,1558064016,2019-05-17 11:33:36,1558064079,2019-05-17 11:34:39,1558064110,AbOnEmAAAAFqw9obKQABB0sAAEnM,http://pb.api.weq.com/v1.4/event?click_id=AbOnEmAAAAFqw9obKQABB0sAAEnM,idfa_93388224-5018-4a5b-9234-550de37c4daf,%ED%95%9C%EA%B5%AD%EC%96%B4
SrqmDqM3TgGSF2cZHkM7Dw,crobo,18892_2695_183_145_18892_2695_183_145,Install,2.0,27.116.255.241,2b487f06-317f-4c43-a08c-6c3cc3186a64,1557975153,2019-05-16 10:52:33,1557975337,2019-05-16 10:55:37,1557975369,AfGeeLUAAAFqvo4sWQABB0sAAEnM,http://pb.api.weq.com/v1.4/event?click_id=AfGeeLUAAAFqvo4sWQABB0sAAEnM,idfa_2b487f06-317f-4c43-a08c-6c3cc3186a64,%ED%95%9C%EA%B5%AD%EC%96%B4
SrqmDqM3TgGSF2cZHkM7Dw,crobo,18892_2695_183_145_18892_2695_183_145,Install,2.0,114.70.74.5,6e2b3aad-fc49-4ea7-b8ec-6672bdf4f79f,1558229738,2019-05-19 09:35:38,1558229795,2019-05-19 09:36:35,1558229826,AX5GltMAAAFqzbrQyAABB0sAAEnM,http://pb.api.weq.com/v1.4/event?click_id=AX5GltMAAAFqzbrQyAABB0sAAEnM,idfa_6e2b3aad-fc49-4ea7-b8ec-6672bdf4f79f,%ED%95%9C%EA%B5%AD%EC%96%B4
