cid,partner_id,channel_id,action_id,cpi,ip,idfa,click time,click datetime,install time,install datetime,postback time,click id,postback url,unique user id
Card0NaTQvyJdlw_FBvibQ,crobo,20922_300_994101_20922_300_994101,install,3.0,218.219.182.245,0BB4FA70-4FA9-49ED-9F14-5895B0AC12E8,1557234630,2019-05-07 21:10:30,1557235311,2019-05-07 21:21:51,1557235341,ASbSF0YAAAFqkmp_hgABB4YAAFG6,http://pb.api.weq.com/v1.4/event?click_id=ASbSF0YAAAFqkmp_hgABB4YAAFG6,idfa_0BB4FA70-4FA9-49ED-9F14-5895B0AC12E8,ja
Card0NaTQvyJdlw_FBvibQ,crobo,20922_300_994101_20922_300_994101,install,3.0,27.114.26.62,5DBB7D5A-2F5B-4252-89E0-2343C5C15D1D,1557234611,2019-05-07 21:10:11,1557234751,2019-05-07 21:12:31,1557234781,AeRIIfAAAAFqkmo2fQABB4YAAFG6,http://pb.api.weq.com/v1.4/event?click_id=AeRIIfAAAAFqkmo2fQABB4YAAFG6,idfa_5DBB7D5A-2F5B-4252-89E0-2343C5C15D1D,ja
Card0NaTQvyJdlw_FBvibQ,crobo,20922_300_994101_20922_300_994101,install,3.0,153.206.47.206,C10C7A21-255F-4438-B2D3-844A0993DE5A,1557235221,2019-05-07 21:20:21,1557235356,2019-05-07 21:22:36,1557235386,AUv81UAAAAFqknOFtwABB4YAAFG6,http://pb.api.weq.com/v1.4/event?click_id=AUv81UAAAAFqknOFtwABB4YAAFG6,idfa_C10C7A21-255F-4438-B2D3-844A0993DE5A,ja
Card0NaTQvyJdlw_FBvibQ,crobo,20922_300_994101_20922_300_994101,install,3.0,180.214.226.101,DC6393D0-8EA7-4201-8A1B-07F78B3F5F38,1557235621,2019-05-07 21:27:01,1557235772,2019-05-07 21:29:32,1557235802,AVOMyuYAAAFqknmk4QABB4YAAFG6,http://pb.api.weq.com/v1.4/event?click_id=AVOMyuYAAAFqknmk4QABB4YAAFG6,idfa_DC6393D0-8EA7-4201-8A1B-07F78B3F5F38,ja
Card0NaTQvyJdlw_FBvibQ,crobo,20922_300_994101_20922_300_994101,install,3.0,182.171.105.180,D9E51462-CC62-4100-9373-56BA420D1929,1557235052,2019-05-07 21:17:32,1557235197,2019-05-07 21:19:57,1557235227,ATcrKasAAAFqknDoWQABB4YAAFG6,http://pb.api.weq.com/v1.4/event?click_id=ATcrKasAAAFqknDoWQABB4YAAFG6,idfa_D9E51462-CC62-4100-9373-56BA420D1929,ja
Card0NaTQvyJdlw_FBvibQ,crobo,20922_300_994101_20922_300_994101,install,3.0,218.41.15.178,B85EFC68-7299-4C87-A724-71A60E5399E2,1557235494,2019-05-07 21:24:54,1557235637,2019-05-07 21:27:17,1557235667,AT8KCswAAAFqkneq6AABB4YAAFG6,http://pb.api.weq.com/v1.4/event?click_id=AT8KCswAAAFqkneq6AABB4YAAFG6,idfa_B85EFC68-7299-4C87-A724-71A60E5399E2,ja
Card0NaTQvyJdlw_FBvibQ,crobo,20922_300_994101_20922_300_994101,install,3.0,219.204.102.82,A0431AD1-F852-4498-9645-6442A5AF91B0,1557235033,2019-05-07 21:17:13,1557235183,2019-05-07 21:19:43,1557235213,ATS9k7QAAAFqknCnEQABB4YAAFG6,http://pb.api.weq.com/v1.4/event?click_id=ATS9k7QAAAFqknCnEQABB4YAAFG6,idfa_A0431AD1-F852-4498-9645-6442A5AF91B0,ja
Card0NaTQvyJdlw_FBvibQ,crobo,20922_300_994101_20922_300_994101,install,3.0,180.145.72.41,700C437A-9A16-45A3-AA3D-6324C3E7F745,1557235081,2019-05-07 21:18:01,1557235246,2019-05-07 21:20:46,1557235276,AdxPj90AAAFqknFiAgABB4YAAFG6,http://pb.api.weq.com/v1.4/event?click_id=AdxPj90AAAFqknFiAgABB4YAAFG6,idfa_700C437A-9A16-45A3-AA3D-6324C3E7F745,ja
Card0NaTQvyJdlw_FBvibQ,crobo,20922_300_994101_20922_300_994101,install,3.0,126.159.208.232,22440027-0F6A-41ED-A0B7-EF141BB71369,1557234626,2019-05-07 21:10:26,1557235125,2019-05-07 21:18:45,1557235155,Aaw-glMAAAFqkmp1BwABB4YAAFG6,http://pb.api.weq.com/v1.4/event?click_id=Aaw-glMAAAFqkmp1BwABB4YAAFG6,idfa_22440027-0F6A-41ED-A0B7-EF141BB71369,ja
Card0NaTQvyJdlw_FBvibQ,crobo,20922_300_994101_20922_300_994101,install,3.0,106.154.88.190,8C3FF4A0-065A-4EBA-B2F9-61EFD39935C3,1557234848,2019-05-07 21:14:08,1557234997,2019-05-07 21:16:37,1557235028,AW_pIkMAAAFqkm3LcgABB4YAAFG6,http://pb.api.weq.com/v1.4/event?click_id=AW_pIkMAAAFqkm3LcgABB4YAAFG6,idfa_8C3FF4A0-065A-4EBA-B2F9-61EFD39935C3,ja
Card0NaTQvyJdlw_FBvibQ,crobo,20922_300_994101_20922_300_994101,install,3.0,210.20.68.31,E364BD5E-112C-43E0-90A8-E2BBAB5518CE,1557235037,2019-05-07 21:17:17,1557235647,2019-05-07 21:27:27,1557235678,AVrTF2IAAAFqknCthgABB4YAAFG6,http://pb.api.weq.com/v1.4/event?click_id=AVrTF2IAAAFqknCthgABB4YAAFG6,idfa_E364BD5E-112C-43E0-90A8-E2BBAB5518CE,ja
Card0NaTQvyJdlw_FBvibQ,crobo,20922_300_994101_20922_300_994101,install,3.0,182.165.98.59,9E80BB30-827E-484E-83E5-1863A2A0888B,1557234697,2019-05-07 21:11:37,1557235386,2019-05-07 21:23:06,1557235416,AS4Wgk8AAAFqkmuDMgABB4YAAFG6,http://pb.api.weq.com/v1.4/event?click_id=AS4Wgk8AAAFqkmuDMgABB4YAAFG6,idfa_9E80BB30-827E-484E-83E5-1863A2A0888B,ja
Card0NaTQvyJdlw_FBvibQ,crobo,20922_300_994101_20922_300_994101,install,3.0,219.167.135.66,85C65BD3-B61C-401F-8FD1-E14BB7E42589,1557234624,2019-05-07 21:10:24,1557235546,2019-05-07 21:25:46,1557235577,AY2f-N8AAAFqkmpvGQABB4YAAFG6,http://pb.api.weq.com/v1.4/event?click_id=AY2f-N8AAAFqkmpvGQABB4YAAFG6,idfa_85C65BD3-B61C-401F-8FD1-E14BB7E42589,ja
Card0NaTQvyJdlw_FBvibQ,crobo,20922_300_994101_20922_300_994101,install,3.0,116.91.125.173,A9D6DA44-073A-47D6-BB02-055D90A6884D,1557235652,2019-05-07 21:27:32,1557235788,2019-05-07 21:29:48,1557235818,AUOmFeQAAAFqknoUegABB4YAAFG6,http://pb.api.weq.com/v1.4/event?click_id=AUOmFeQAAAFqknoUegABB4YAAFG6,idfa_A9D6DA44-073A-47D6-BB02-055D90A6884D,ja
Card0NaTQvyJdlw_FBvibQ,crobo,20922_300_994101_20922_300_994101,install,3.0,112.71.249.128,0D13D150-0E79-4401-B28A-8BCDD3F682E1,1557235473,2019-05-07 21:24:33,1557235613,2019-05-07 21:26:53,1557235644,ATJXzHQAAAFqkndhOwABB4YAAFG6,http://pb.api.weq.com/v1.4/event?click_id=ATJXzHQAAAFqkndhOwABB4YAAFG6,idfa_0D13D150-0E79-4401-B28A-8BCDD3F682E1,ja
Card0NaTQvyJdlw_FBvibQ,crobo,20922_300_994101_20922_300_994101,install,3.0,180.59.196.98,8E22F26A-117B-40E6-A5B0-B3C40467463F,1557235554,2019-05-07 21:25:54,1557235696,2019-05-07 21:28:16,1557235726,AdotJqsAAAFqknieBQABB4YAAFG6,http://pb.api.weq.com/v1.4/event?click_id=AdotJqsAAAFqknieBQABB4YAAFG6,idfa_8E22F26A-117B-40E6-A5B0-B3C40467463F,ja
Card0NaTQvyJdlw_FBvibQ,crobo,20922_300_994101_20922_300_994101,install,3.0,14.8.70.224,7BDD7764-FDAF-4C60-82EC-70531E8F8DF7,1557235091,2019-05-07 21:18:11,1557235238,2019-05-07 21:20:38,1557235268,AbxE2jYAAAFqknF8WgABB4YAAFG6,http://pb.api.weq.com/v1.4/event?click_id=AbxE2jYAAAFqknF8WgABB4YAAFG6,idfa_7BDD7764-FDAF-4C60-82EC-70531E8F8DF7,ja
Card0NaTQvyJdlw_FBvibQ,crobo,20922_300_994101_20922_300_994101,install,3.0,106.160.178.198,E4178144-1D17-40DA-B5CD-C97C046D5812,1557235484,2019-05-07 21:24:44,1557235619,2019-05-07 21:26:59,1557235650,Af6oJDIAAAFqkneHAgABB4YAAFG6,http://pb.api.weq.com/v1.4/event?click_id=Af6oJDIAAAFqkneHAgABB4YAAFG6,idfa_E4178144-1D17-40DA-B5CD-C97C046D5812,ja
Card0NaTQvyJdlw_FBvibQ,crobo,20922_300_994101_20922_300_994101,install,3.0,122.249.99.117,7F8C05F1-101B-43EF-9470-7777ED447641,1557235034,2019-05-07 21:17:14,1557235184,2019-05-07 21:19:44,1557235214,Ae4WzCEAAAFqknCo4wABB4YAAFG6,http://pb.api.weq.com/v1.4/event?click_id=Ae4WzCEAAAFqknCo4wABB4YAAFG6,idfa_7F8C05F1-101B-43EF-9470-7777ED447641,ja
Card0NaTQvyJdlw_FBvibQ,crobo,20922_300_994101_20922_300_994101,install,3.0,61.194.140.246,0EF60014-3258-48A4-987B-7AFBCB1E5816,1557234273,2019-05-07 21:04:33,1557234456,2019-05-07 21:07:36,1557234486,ARs9Wj0AAAFqkmUOvQABB4YAAFG6,http://pb.api.weq.com/v1.4/event?click_id=ARs9Wj0AAAFqkmUOvQABB4YAAFG6,idfa_0EF60014-3258-48A4-987B-7AFBCB1E5816,ja
Card0NaTQvyJdlw_FBvibQ,crobo,20922_300_994101_20922_300_994101,install,3.0,114.181.22.71,8F7239E1-3018-44F3-92FD-4932902BE78C,1557235477,2019-05-07 21:24:37,1557235621,2019-05-07 21:27:01,1557235652,AYLqOrkAAAFqkndrfgABB4YAAFG6,http://pb.api.weq.com/v1.4/event?click_id=AYLqOrkAAAFqkndrfgABB4YAAFG6,idfa_8F7239E1-3018-44F3-92FD-4932902BE78C,ja
Card0NaTQvyJdlw_FBvibQ,crobo,20922_300_994101_20922_300_994101,install,3.0,202.86.127.114,CC63F235-33A3-4EBE-AA41-657110BFA479,1557235479,2019-05-07 21:24:39,1557235609,2019-05-07 21:26:49,1557235639,AZ-O08sAAAFqkndzqAABB4YAAFG6,http://pb.api.weq.com/v1.4/event?click_id=AZ-O08sAAAFqkndzqAABB4YAAFG6,idfa_CC63F235-33A3-4EBE-AA41-657110BFA479,ja
Card0NaTQvyJdlw_FBvibQ,crobo,20922_300_994101_20922_300_994101,install,3.0,121.103.100.174,7AF9A219-210E-445F-944C-53FD50749B1C,1557234633,2019-05-07 21:10:33,1557234749,2019-05-07 21:12:29,1557234779,ASnLC_sAAAFqkmqNSAABB4YAAFG6,http://pb.api.weq.com/v1.4/event?click_id=ASnLC_sAAAFqkmqNSAABB4YAAFG6,idfa_7AF9A219-210E-445F-944C-53FD50749B1C,ja
Card0NaTQvyJdlw_FBvibQ,crobo,20922_300_994101_20922_300_994101,install,3.0,59.85.22.195,BA828579-BF32-418F-8987-A033A66D6E0E,1557234611,2019-05-07 21:10:11,1557235650,2019-05-07 21:27:30,1557235680,AfpIhjcAAAFqkmo5nQABB4YAAFG6,http://pb.api.weq.com/v1.4/event?click_id=AfpIhjcAAAFqkmo5nQABB4YAAFG6,idfa_BA828579-BF32-418F-8987-A033A66D6E0E,ja
Card0NaTQvyJdlw_FBvibQ,crobo,20922_300_994101_20922_300_994101,install,3.0,114.181.195.230,80F7B0D1-EBCA-494A-A629-8040A537190A,1557234628,2019-05-07 21:10:28,1557235660,2019-05-07 21:27:40,1557235690,AbDHY8UAAAFqkmp57gABB4YAAFG6,http://pb.api.weq.com/v1.4/event?click_id=AbDHY8UAAAFqkmp57gABB4YAAFG6,idfa_80F7B0D1-EBCA-494A-A629-8040A537190A,ja
Card0NaTQvyJdlw_FBvibQ,crobo,20922_300_994101_20922_300_994101,install,3.0,114.159.201.27,83717952-1F00-41F9-89CA-77F6DD8E081C,1557235207,2019-05-07 21:20:07,1557235355,2019-05-07 21:22:35,1557235385,AWKUwHMAAAFqknNKngABB4YAAFG6,http://pb.api.weq.com/v1.4/event?click_id=AWKUwHMAAAFqknNKngABB4YAAFG6,idfa_83717952-1F00-41F9-89CA-77F6DD8E081C,ja
Card0NaTQvyJdlw_FBvibQ,crobo,20922_300_994101_20922_300_994101,install,3.0,114.166.184.66,F89A79B7-1E7B-4171-B476-43BD70FAD796,1557235037,2019-05-07 21:17:17,1557235344,2019-05-07 21:22:24,1557235374,AfaUqK8AAAFqknCxXgABB4YAAFG6,http://pb.api.weq.com/v1.4/event?click_id=AfaUqK8AAAFqknCxXgABB4YAAFG6,idfa_F89A79B7-1E7B-4171-B476-43BD70FAD796,ja
Card0NaTQvyJdlw_FBvibQ,crobo,20922_300_994101_20922_300_994101,install,3.0,153.184.2.39,CC26D672-97D6-4584-90E4-1CEA76BC07B2,1557234594,2019-05-07 21:09:54,1557234733,2019-05-07 21:12:13,1557234763,AX9HRIYAAAFqkmn1PQABB4YAAFG6,http://pb.api.weq.com/v1.4/event?click_id=AX9HRIYAAAFqkmn1PQABB4YAAFG6,idfa_CC26D672-97D6-4584-90E4-1CEA76BC07B2,ja
Card0NaTQvyJdlw_FBvibQ,crobo,20922_300_994101_20922_300_994101,install,3.0,126.77.72.60,5273DF43-1244-4207-96D8-601FE5CFED4E,1557234605,2019-05-07 21:10:05,1557234737,2019-05-07 21:12:17,1557234768,AZvY57cAAAFqkmolfgABB4YAAFG6,http://pb.api.weq.com/v1.4/event?click_id=AZvY57cAAAFqkmolfgABB4YAAFG6,idfa_5273DF43-1244-4207-96D8-601FE5CFED4E,ja
Card0NaTQvyJdlw_FBvibQ,crobo,20922_300_994101_20922_300_994101,install,3.0,118.8.69.188,A8BEB753-4DF9-401B-A7D3-9C2C8AA226B6,1557235571,2019-05-07 21:26:11,1557235703,2019-05-07 21:28:23,1557235733,AefgAPQAAAFqknjdHAABB4YAAFG6,http://pb.api.weq.com/v1.4/event?click_id=AefgAPQAAAFqknjdHAABB4YAAFG6,idfa_A8BEB753-4DF9-401B-A7D3-9C2C8AA226B6,ja
Card0NaTQvyJdlw_FBvibQ,crobo,20922_300_994101_20922_300_994101,install,3.0,60.130.115.134,FD369691-E6D5-4F54-99B7-2ECC780FBD36,1557234635,2019-05-07 21:10:35,1557234778,2019-05-07 21:12:58,1557234808,ASPosjcAAAFqkmqXhwABB4YAAFG6,http://pb.api.weq.com/v1.4/event?click_id=ASPosjcAAAFqkmqXhwABB4YAAFG6,idfa_FD369691-E6D5-4F54-99B7-2ECC780FBD36,ja
Card0NaTQvyJdlw_FBvibQ,crobo,20922_300_994101_20922_300_994101,install,3.0,116.199.244.138,0A0A51CE-D4B3-4AE8-B1CC-DD85A3CF8C38,1557235488,2019-05-07 21:24:48,1557235628,2019-05-07 21:27:08,1557235658,AQv0iPYAAAFqkneZywABB4YAAFG6,http://pb.api.weq.com/v1.4/event?click_id=AQv0iPYAAAFqkneZywABB4YAAFG6,idfa_0A0A51CE-D4B3-4AE8-B1CC-DD85A3CF8C38,ja
Card0NaTQvyJdlw_FBvibQ,crobo,20922_300_994101_20922_300_994101,install,3.0,59.136.43.207,0F01583B-BD7B-455A-B809-6AC1BD60B8C8,1557235166,2019-05-07 21:19:26,1557235318,2019-05-07 21:21:58,1557235348,AQl53DkAAAFqknKsvwABB4YAAFG6,http://pb.api.weq.com/v1.4/event?click_id=AQl53DkAAAFqknKsvwABB4YAAFG6,idfa_0F01583B-BD7B-455A-B809-6AC1BD60B8C8,ja
Card0NaTQvyJdlw_FBvibQ,crobo,20922_300_994101_20922_300_994101,install,3.0,183.77.104.140,7F33DBC1-69EA-4D02-8624-570DA1C97313,1557234634,2019-05-07 21:10:34,1557234814,2019-05-07 21:13:34,1557234844,AUrwtZsAAAFqkmqRPAABB4YAAFG6,http://pb.api.weq.com/v1.4/event?click_id=AUrwtZsAAAFqkmqRPAABB4YAAFG6,idfa_7F33DBC1-69EA-4D02-8624-570DA1C97313,ja
Card0NaTQvyJdlw_FBvibQ,crobo,20922_300_994101_20922_300_994101,install,3.0,153.178.35.115,5A8268DB-ED9A-4CF3-8B34-90557208DC14,1557234616,2019-05-07 21:10:16,1557235608,2019-05-07 21:26:48,1557235639,AedrV8gAAAFqkmpMqAABB4YAAFG6,http://pb.api.weq.com/v1.4/event?click_id=AedrV8gAAAFqkmpMqAABB4YAAFG6,idfa_5A8268DB-ED9A-4CF3-8B34-90557208DC14,ja
Card0NaTQvyJdlw_FBvibQ,crobo,20922_300_994101_20922_300_994101,install,3.0,42.126.74.36,30B757FA-C16C-4F07-BF57-49F79E177446,1557235086,2019-05-07 21:18:06,1557235241,2019-05-07 21:20:41,1557235271,AdPXCmIAAAFqknF1hAABB4YAAFG6,http://pb.api.weq.com/v1.4/event?click_id=AdPXCmIAAAFqknF1hAABB4YAAFG6,idfa_30B757FA-C16C-4F07-BF57-49F79E177446,ja
Card0NaTQvyJdlw_FBvibQ,crobo,20922_300_994101_20922_300_994101,install,3.0,60.145.191.92,3830D100-10B8-4FAC-917D-8CE1A7AF007B,1557233739,2019-05-07 20:55:39,1557233877,2019-05-07 20:57:57,1557233919,Aec4AM8AAAFqklzjWwABB4YAAFG6,http://pb.api.weq.com/v1.4/event?click_id=Aec4AM8AAAFqklzjWwABB4YAAFG6,idfa_3830D100-10B8-4FAC-917D-8CE1A7AF007B,ja
Card0NaTQvyJdlw_FBvibQ,crobo,20922_300_994101_20922_300_994101,install,3.0,180.28.111.220,AAE4B4F9-8D28-46F6-A334-059CDC0783F8,1557234727,2019-05-07 21:12:07,1557234860,2019-05-07 21:14:20,1557234890,AS7I61oAAAFqkmv1vQABB4YAAFG6,http://pb.api.weq.com/v1.4/event?click_id=AS7I61oAAAFqkmv1vQABB4YAAFG6,idfa_AAE4B4F9-8D28-46F6-A334-059CDC0783F8,ja
Card0NaTQvyJdlw_FBvibQ,crobo,20922_300_994101_20922_300_994101,install,3.0,121.1.249.172,E163075E-D686-485C-A04F-BECE71AB5AF7,1557235080,2019-05-07 21:18:00,1557235538,2019-05-07 21:25:38,1557235568,AV3sbcEAAAFqknFUPAABB4YAAFG6,http://pb.api.weq.com/v1.4/event?click_id=AV3sbcEAAAFqknFUPAABB4YAAFG6,idfa_E163075E-D686-485C-A04F-BECE71AB5AF7,ja
Card0NaTQvyJdlw_FBvibQ,crobo,20922_300_994101_20922_300_994101,install,3.0,220.18.171.143,1B498D75-8528-4A27-9793-2F061A1E9E3C,1557234315,2019-05-07 21:05:15,1557234441,2019-05-07 21:07:21,1557234471,ATAW9TQAAAFqkmWzmQABB4YAAFG6,http://pb.api.weq.com/v1.4/event?click_id=ATAW9TQAAAFqkmWzmQABB4YAAFG6,idfa_1B498D75-8528-4A27-9793-2F061A1E9E3C,ja
Card0NaTQvyJdlw_FBvibQ,crobo,20922_300_994101_20922_300_994101,install,3.0,175.131.252.159,FE3C1CEF-8EF9-47E2-B376-0E69D087DCB7,1557235036,2019-05-07 21:17:16,1557235176,2019-05-07 21:19:36,1557235206,AQdDHR8AAAFqknCteQABB4YAAFG6,http://pb.api.weq.com/v1.4/event?click_id=AQdDHR8AAAFqknCteQABB4YAAFG6,idfa_FE3C1CEF-8EF9-47E2-B376-0E69D087DCB7,ja
Card0NaTQvyJdlw_FBvibQ,crobo,20922_300_994101_20922_300_994101,install,3.0,153.156.77.73,C000174A-5B91-4CEC-A746-D9B6AC6ABB7B,1557235258,2019-05-07 21:20:58,1557235407,2019-05-07 21:23:27,1557235437,ARSyVEkAAAFqknQWqgABB4YAAFG6,http://pb.api.weq.com/v1.4/event?click_id=ARSyVEkAAAFqknQWqgABB4YAAFG6,idfa_C000174A-5B91-4CEC-A746-D9B6AC6ABB7B,ja
Card0NaTQvyJdlw_FBvibQ,crobo,20922_300_994101_20922_300_994101,install,3.0,122.219.93.85,15B77C6E-3911-43A9-9F8E-950715529897,1557235294,2019-05-07 21:21:34,1557235449,2019-05-07 21:24:09,1557235479,AaK-61AAAAFqknSoOgABB4YAAFG6,http://pb.api.weq.com/v1.4/event?click_id=AaK-61AAAAFqknSoOgABB4YAAFG6,idfa_15B77C6E-3911-43A9-9F8E-950715529897,ja
Card0NaTQvyJdlw_FBvibQ,crobo,20922_300_994101_20922_300_994101,install,3.0,218.221.168.171,288362A4-6FAF-4E47-97E6-CE6E4391D37D,1557235480,2019-05-07 21:24:40,1557235612,2019-05-07 21:26:52,1557235642,ASVvlx0AAAFqkndzQgABB4YAAFG6,http://pb.api.weq.com/v1.4/event?click_id=ASVvlx0AAAFqkndzQgABB4YAAFG6,idfa_288362A4-6FAF-4E47-97E6-CE6E4391D37D,ja
Card0NaTQvyJdlw_FBvibQ,crobo,20922_300_994101_20922_300_994101,install,3.0,111.99.230.36,FE81DE27-650E-4FD3-88C7-97C3E6CF1904,1557234727,2019-05-07 21:12:07,1557234866,2019-05-07 21:14:26,1557234897,AdwOrHUAAAFqkmvxVAABB4YAAFG6,http://pb.api.weq.com/v1.4/event?click_id=AdwOrHUAAAFqkmvxVAABB4YAAFG6,idfa_FE81DE27-650E-4FD3-88C7-97C3E6CF1904,ja
Card0NaTQvyJdlw_FBvibQ,crobo,20922_300_994101_20922_300_994101,install,3.0,122.222.20.241,6CFE8404-43BD-4923-B599-B3F9FE6A20FB,1557234620,2019-05-07 21:10:20,1557235114,2019-05-07 21:18:34,1557235145,AcK-ZuAAAAFqkmpWUgABB4YAAFG6,http://pb.api.weq.com/v1.4/event?click_id=AcK-ZuAAAAFqkmpWUgABB4YAAFG6,idfa_6CFE8404-43BD-4923-B599-B3F9FE6A20FB,ja
Card0NaTQvyJdlw_FBvibQ,crobo,20922_300_994101_20922_300_994101,install,3.0,117.108.23.141,7F04B7D0-5537-43CC-928B-53E3EE55FB2D,1557234633,2019-05-07 21:10:33,1557234766,2019-05-07 21:12:46,1557234796,AUuBb4sAAAFqkmqM0QABB4YAAFG6,http://pb.api.weq.com/v1.4/event?click_id=AUuBb4sAAAFqkmqM0QABB4YAAFG6,idfa_7F04B7D0-5537-43CC-928B-53E3EE55FB2D,ja
Card0NaTQvyJdlw_FBvibQ,crobo,20922_300_994101_20922_300_994101,install,3.0,219.104.9.41,F1A3E1B3-5599-4D40-B111-6E059D0BA676,1557234916,2019-05-07 21:15:16,1557235064,2019-05-07 21:17:44,1557235095,AYSNN-oAAAFqkm7ewQABB4YAAFG6,http://pb.api.weq.com/v1.4/event?click_id=AYSNN-oAAAFqkm7ewQABB4YAAFG6,idfa_F1A3E1B3-5599-4D40-B111-6E059D0BA676,ja
Card0NaTQvyJdlw_FBvibQ,crobo,20922_300_994101_20922_300_994101,install,3.0,126.161.151.228,55F5CA9E-AA62-4EC0-8EC1-34D127A5927C,1557235629,2019-05-07 21:27:09,1557235783,2019-05-07 21:29:43,1557235813,ARgErR8AAAFqknm91gABB4YAAFG6,http://pb.api.weq.com/v1.4/event?click_id=ARgErR8AAAFqknm91gABB4YAAFG6,idfa_55F5CA9E-AA62-4EC0-8EC1-34D127A5927C,ja
Card0NaTQvyJdlw_FBvibQ,crobo,20922_300_994101_20922_300_994101,install,3.0,126.91.248.62,CF4D69F2-35BC-4C66-9981-F80B055B401F,1557234279,2019-05-07 21:04:39,1557234429,2019-05-07 21:07:09,1557234461,AVMZVQIAAAFqkmUkaQABB4YAAFG6,http://pb.api.weq.com/v1.4/event?click_id=AVMZVQIAAAFqkmUkaQABB4YAAFG6,idfa_CF4D69F2-35BC-4C66-9981-F80B055B401F,ja
Card0NaTQvyJdlw_FBvibQ,crobo,20922_300_994101_20922_300_994101,install,3.0,60.120.100.72,0A2BE911-728C-42DC-846B-EBC62CE57452,1557234695,2019-05-07 21:11:35,1557234829,2019-05-07 21:13:49,1557234859,AUX-v6gAAAFqkmt9JwABB4YAAFG6,http://pb.api.weq.com/v1.4/event?click_id=AUX-v6gAAAFqkmt9JwABB4YAAFG6,idfa_0A2BE911-728C-42DC-846B-EBC62CE57452,ja
Card0NaTQvyJdlw_FBvibQ,crobo,20922_300_994101_20922_300_994101,install,3.0,222.11.90.226,5A923DF4-34C0-4123-8C5B-6945CB85354D,1557235512,2019-05-07 21:25:12,1557235653,2019-05-07 21:27:33,1557235683,Ad309jQAAAFqknf2DwABB4YAAFG6,http://pb.api.weq.com/v1.4/event?click_id=Ad309jQAAAFqknf2DwABB4YAAFG6,idfa_5A923DF4-34C0-4123-8C5B-6945CB85354D,ja
Card0NaTQvyJdlw_FBvibQ,crobo,20922_300_994101_20922_300_994101,install,3.0,59.140.3.181,61F7EFB0-21A8-4780-8830-34675AF62D3B,1557231946,2019-05-07 20:25:46,1557232180,2019-05-07 20:29:40,1557232211,AcIsomkAAAFqkkF62gABB4YAAFG6,http://pb.api.weq.com/v1.4/event?click_id=AcIsomkAAAFqkkF62gABB4YAAFG6,idfa_61F7EFB0-21A8-4780-8830-34675AF62D3B,ja
Card0NaTQvyJdlw_FBvibQ,crobo,20922_300_994101_20922_300_994101,install,3.0,27.83.43.145,810C611D-25DF-4950-A823-1D8F7982BF92,1557235487,2019-05-07 21:24:47,1557235640,2019-05-07 21:27:20,1557235670,Aai-EJwAAAFqkneaTwABB4YAAFG6,http://pb.api.weq.com/v1.4/event?click_id=Aai-EJwAAAFqkneaTwABB4YAAFG6,idfa_810C611D-25DF-4950-A823-1D8F7982BF92,ja
Card0NaTQvyJdlw_FBvibQ,crobo,20922_300_994101_20922_300_994101,install,3.0,220.100.210.107,F558B487-C9C7-4BC4-A640-C9DF3A3028B3,1557235052,2019-05-07 21:17:32,1557235659,2019-05-07 21:27:39,1557235690,AaUTTYQAAAFqknDdKAABB4YAAFG6,http://pb.api.weq.com/v1.4/event?click_id=AaUTTYQAAAFqknDdKAABB4YAAFG6,idfa_F558B487-C9C7-4BC4-A640-C9DF3A3028B3,ja
Card0NaTQvyJdlw_FBvibQ,crobo,20922_300_994101_20922_300_994101,install,3.0,116.58.161.42,BD476DAA-EE62-4265-BAF8-CCED5F05461A,1557235044,2019-05-07 21:17:24,1557235180,2019-05-07 21:19:40,1557235211,AavVMqgAAAFqknDJogABB4YAAFG6,http://pb.api.weq.com/v1.4/event?click_id=AavVMqgAAAFqknDJogABB4YAAFG6,idfa_BD476DAA-EE62-4265-BAF8-CCED5F05461A,ja
Card0NaTQvyJdlw_FBvibQ,crobo,20922_300_994101_20922_300_994101,install,3.0,182.158.80.2,4E137640-6340-4B49-AE62-2F3F031813BC,1557234609,2019-05-07 21:10:09,1557235656,2019-05-07 21:27:36,1557235686,ATAGLQ4AAAFqkmo3AgABB4YAAFG6,http://pb.api.weq.com/v1.4/event?click_id=ATAGLQ4AAAFqkmo3AgABB4YAAFG6,idfa_4E137640-6340-4B49-AE62-2F3F031813BC,ja
Card0NaTQvyJdlw_FBvibQ,crobo,20922_300_994101_20922_300_994101,install,3.0,222.12.36.153,F54A8A58-FEE3-4024-85A3-2D6C74BA6099,1557235079,2019-05-07 21:17:59,1557235212,2019-05-07 21:20:12,1557235242,AdueOB8AAAFqknFXHAABB4YAAFG6,http://pb.api.weq.com/v1.4/event?click_id=AdueOB8AAAFqknFXHAABB4YAAFG6,idfa_F54A8A58-FEE3-4024-85A3-2D6C74BA6099,ja
Card0NaTQvyJdlw_FBvibQ,crobo,20922_300_994101_20922_300_994101,install,3.0,126.163.86.80,1D873217-DAC2-410B-AF22-1A25565B99C5,1557234613,2019-05-07 21:10:13,1557235117,2019-05-07 21:18:37,1557235148,ASIAwksAAAFqkmpETAABB4YAAFG6,http://pb.api.weq.com/v1.4/event?click_id=ASIAwksAAAFqkmpETAABB4YAAFG6,idfa_1D873217-DAC2-410B-AF22-1A25565B99C5,ja
Card0NaTQvyJdlw_FBvibQ,crobo,20922_300_994101_20922_300_994101,install,3.0,126.28.212.175,BA6FB95E-202E-4BDE-B07D-55DC3321F477,1557234630,2019-05-07 21:10:30,1557235455,2019-05-07 21:24:15,1557235486,AfV7oVoAAAFqkmp44QABB4YAAFG6,http://pb.api.weq.com/v1.4/event?click_id=AfV7oVoAAAFqkmp44QABB4YAAFG6,idfa_BA6FB95E-202E-4BDE-B07D-55DC3321F477,ja
Card0NaTQvyJdlw_FBvibQ,crobo,20922_300_994101_20922_300_994101,install,3.0,116.70.143.101,347F3D23-1390-4BF2-8767-D19DFE84B04C,1557234607,2019-05-07 21:10:07,1557235314,2019-05-07 21:21:54,1557235344,ASaXmY8AAAFqkmosOQABB4YAAFG6,http://pb.api.weq.com/v1.4/event?click_id=ASaXmY8AAAFqkmosOQABB4YAAFG6,idfa_347F3D23-1390-4BF2-8767-D19DFE84B04C,ja
Card0NaTQvyJdlw_FBvibQ,crobo,20922_300_994101_20922_300_994101,install,3.0,114.184.1.205,9D7B805B-9F78-4EA5-9C73-17628D678CAF,1557234643,2019-05-07 21:10:43,1557235648,2019-05-07 21:27:28,1557235678,AfasQTAAAAFqkmqzngABB4YAAFG6,http://pb.api.weq.com/v1.4/event?click_id=AfasQTAAAAFqkmqzngABB4YAAFG6,idfa_9D7B805B-9F78-4EA5-9C73-17628D678CAF,ja
Card0NaTQvyJdlw_FBvibQ,crobo,20922_300_994101_20922_300_994101,install,3.0,126.94.219.117,EE66AD97-C759-4214-A7B9-AD35CED24419,1557234628,2019-05-07 21:10:28,1557234757,2019-05-07 21:12:37,1557234787,AXhQF2YAAAFqkmp6cAABB4YAAFG6,http://pb.api.weq.com/v1.4/event?click_id=AXhQF2YAAAFqkmp6cAABB4YAAFG6,idfa_EE66AD97-C759-4214-A7B9-AD35CED24419,ja
Card0NaTQvyJdlw_FBvibQ,crobo,20922_300_994101_20922_300_994101,install,3.0,59.85.35.229,6073A976-FF76-4076-B0F9-D1F91847302E,1557234761,2019-05-07 21:12:41,1557234892,2019-05-07 21:14:52,1557234923,AUv9e5YAAAFqkmyAcAABB4YAAFG6,http://pb.api.weq.com/v1.4/event?click_id=AUv9e5YAAAFqkmyAcAABB4YAAFG6,idfa_6073A976-FF76-4076-B0F9-D1F91847302E,ja
Card0NaTQvyJdlw_FBvibQ,crobo,20922_300_994101_20922_300_994101,install,3.0,60.114.11.4,9BC8FEB0-5B3D-4371-90F5-0AD9A54C498D,1557235356,2019-05-07 21:22:36,1557235503,2019-05-07 21:25:03,1557235533,AQGs89UAAAFqknWW1wABB4YAAFG6,http://pb.api.weq.com/v1.4/event?click_id=AQGs89UAAAFqknWW1wABB4YAAFG6,idfa_9BC8FEB0-5B3D-4371-90F5-0AD9A54C498D,ja
Card0NaTQvyJdlw_FBvibQ,crobo,20922_300_994101_20922_300_994101,install,3.0,180.146.55.229,05BC101B-CD39-4FF4-BA4F-C02C5B6C9BFD,1557234805,2019-05-07 21:13:25,1557234952,2019-05-07 21:15:52,1557234982,AYx5Pv0AAAFqkm0pGAABB4YAAFG6,http://pb.api.weq.com/v1.4/event?click_id=AYx5Pv0AAAFqkm0pGAABB4YAAFG6,idfa_05BC101B-CD39-4FF4-BA4F-C02C5B6C9BFD,ja
Card0NaTQvyJdlw_FBvibQ,crobo,20922_300_994101_20922_300_994101,install,3.0,126.124.92.222,180DA6A8-C3EE-4443-BCB3-4F280B3AD1DE,1557234517,2019-05-07 21:08:37,1557234625,2019-05-07 21:10:25,1557234655,AQZMCZcAAAFqkmgwuAABB4YAAFG6,http://pb.api.weq.com/v1.4/event?click_id=AQZMCZcAAAFqkmgwuAABB4YAAFG6,idfa_180DA6A8-C3EE-4443-BCB3-4F280B3AD1DE,ja
Card0NaTQvyJdlw_FBvibQ,crobo,20922_300_994101_20922_300_994101,install,3.0,121.106.55.214,13AB4FE7-1D02-4A94-BCAC-77F12F8D4320,1557235480,2019-05-07 21:24:40,1557235619,2019-05-07 21:26:59,1557235649,AUyLYkYAAAFqkndwbwABB4YAAFG6,http://pb.api.weq.com/v1.4/event?click_id=AUyLYkYAAAFqkndwbwABB4YAAFG6,idfa_13AB4FE7-1D02-4A94-BCAC-77F12F8D4320,ja
