cid,partner_id,channel_id,action_id,cpi,ip,idfa,click time,click datetime,install time,install datetime,postback time,click id,postback url,unique user id
e9lJDF_HT3-mtzi3MaSlEg,crobo,20922_357_48_892-53s__212_20922_357_48_892-53s__212,Install,3.5,210.100.178.197,A182EAA3-44E2-4D34-8389-048400107C1E,1559263656,2019-05-31 08:47:36,1559263724,2019-05-31 08:48:44,1559263754,AT6__dcAAAFrC1sUagABB84AAFG6,http://pb.api.weq.com/v1.4/event?click_id=AT6__dcAAAFrC1sUagABB84AAFG6,idfa_A182EAA3-44E2-4D34-8389-048400107C1E,ko-KR
e9lJDF_HT3-mtzi3MaSlEg,crobo,20922_415_23_759623_05788-05363_485_ce3c4ca130fb_20922_415_23_759623_05788-05363_485_ce3c4ca130fb,Install,3.5,121.181.199.109,F51C3CD6-B65E-4D35-9474-DDC265E721E1,1558891264,2019-05-27 01:21:04,1558891405,2019-05-27 01:23:25,1558891435,AUYtv1gAAAFq9Si8LgABB84AAFG6,http://pb.api.weq.com/v1.4/event?click_id=AUYtv1gAAAFq9Si8LgABB84AAFG6,idfa_F51C3CD6-B65E-4D35-9474-DDC265E721E1,ko-KR
e9lJDF_HT3-mtzi3MaSlEg,crobo,20922_415_23_759623_05788-05363_184_12580_a304c470c0b9_20922_415_23_759623_05788-05363_184_12580_a304c470c0b9,Install,3.5,114.200.238.219,49B7A143-B6C6-4538-B96D-4817EB0F3336,1559007744,2019-05-28 09:42:24,1559008085,2019-05-28 09:48:05,1559008336,ASBXYRQAAAFq_BodRgABB84AAFG6,http://pb.api.weq.com/v1.4/event?click_id=ASBXYRQAAAFq_BodRgABB84AAFG6,idfa_49B7A143-B6C6-4538-B96D-4817EB0F3336,ko-KR
e9lJDF_HT3-mtzi3MaSlEg,crobo,20922_415_23_759623_05788-05363_485_12f4ef1c5984_20922_415_23_759623_05788-05363_485_12f4ef1c5984,Install,3.5,219.255.180.184,78372210-4F8D-4413-BF4D-B3F47905F6B4,1558891292,2019-05-27 01:21:32,1558891409,2019-05-27 01:23:29,1558891441,Ac_VWTkAAAFq9SkomgABB84AAFG6,http://pb.api.weq.com/v1.4/event?click_id=Ac_VWTkAAAFq9SkomgABB84AAFG6,idfa_78372210-4F8D-4413-BF4D-B3F47905F6B4,ko-KR
e9lJDF_HT3-mtzi3MaSlEg,crobo,20922_415_23_759623_05565-05AT3or4mkirjrl80rocbqz063vin_jdxpxs0x6e88_20922_415_23_759623_05565-05AT3or4mkirjrl80rocbqz063vin_jdxpxs0x6e88,Install,3.5,106.101.0.49,CB9574D5-E4E5-423A-A9E7-23058416223B,1558864733,2019-05-26 17:58:53,1558864855,2019-05-26 18:00:55,1558864887,Ae-bHowAAAFq85Pv7gABB84AAFG6,http://pb.api.weq.com/v1.4/event?click_id=Ae-bHowAAAFq85Pv7gABB84AAFG6,idfa_CB9574D5-E4E5-423A-A9E7-23058416223B,ko-KR
e9lJDF_HT3-mtzi3MaSlEg,crobo,20922_415_23_759623_05788-05363_1539_1030_3063_644e8ddb5e1b_20922_415_23_759623_05788-05363_1539_1030_3063_644e8ddb5e1b,Install,3.5,123.254.156.226,7393059D-6A71-4247-A33D-E2F340E8A161,1558938104,2019-05-27 14:21:44,1558938185,2019-05-27 14:23:05,1558938217,AXeF038AAAFq9_Nr6QABB84AAFG6,http://pb.api.weq.com/v1.4/event?click_id=AXeF038AAAFq9_Nr6QABB84AAFG6,idfa_7393059D-6A71-4247-A33D-E2F340E8A161,ko-KR
e9lJDF_HT3-mtzi3MaSlEg,crobo,20922_415_23_759623_05956-053063_695734781401_20922_415_23_759623_05956-053063_695734781401,Install,3.5,222.239.160.18,7BBC5ED6-5A1B-42CC-9D47-35BA3FF370F8,1559016332,2019-05-28 12:05:32,1559016434,2019-05-28 12:07:14,1559016464,AXY9vawAAAFq_J0gHwABB84AAFG6,http://pb.api.weq.com/v1.4/event?click_id=AXY9vawAAAFq_J0gHwABB84AAFG6,idfa_7BBC5ED6-5A1B-42CC-9D47-35BA3FF370F8,ko-KR
e9lJDF_HT3-mtzi3MaSlEg,crobo,20922_415_23_759623_05966-051030_3255__20922_415_23_759623_05966-051030_3255_,Install,3.5,175.112.188.68,31153163-8072-427C-AF84-1B54563FC52C,1558927761,2019-05-27 11:29:21,1558927787,2019-05-27 11:29:47,1558927818,AZfEefsAAAFq91XSGgABB84AAFG6,http://pb.api.weq.com/v1.4/event?click_id=AZfEefsAAAFq91XSGgABB84AAFG6,idfa_31153163-8072-427C-AF84-1B54563FC52C,ko-KR
e9lJDF_HT3-mtzi3MaSlEg,crobo,20922_415_23_759623_05565-05AT7pn7qq9haj048zd3gh6xvbtfy_6b17svtjgrrd_20922_415_23_759623_05565-05AT7pn7qq9haj048zd3gh6xvbtfy_6b17svtjgrrd,Install,3.5,1.209.234.71,091D5881-F2C4-421D-ABC7-F610B245765F,1558981330,2019-05-28 02:22:10,1558981436,2019-05-28 02:23:56,1558981467,Ad3n2PIAAAFq-ocLhQABB84AAFG6,http://pb.api.weq.com/v1.4/event?click_id=Ad3n2PIAAAFq-ocLhQABB84AAFG6,idfa_091D5881-F2C4-421D-ABC7-F610B245765F,ko-KR
e9lJDF_HT3-mtzi3MaSlEg,crobo,20922_415_23_759623_05741-0513398_20922_415_23_759623_05741-0513398,Install,3.5,218.155.48.140,AABF749F-69C9-4678-91F6-63233784FDA4,1558766937,2019-05-25 14:48:57,1558767051,2019-05-25 14:50:51,1558767083,AfEVuMoAAAFq7b-n0QABB84AAFG6,http://pb.api.weq.com/v1.4/event?click_id=AfEVuMoAAAFq7b-n0QABB84AAFG6,idfa_AABF749F-69C9-4678-91F6-63233784FDA4,ko-KR
e9lJDF_HT3-mtzi3MaSlEg,crobo,20922_415_17_10010_15_05948-05759623_05565-05AT4sbtnmx4rszzot2io6d8m18oy_20922_415_17_10010_15_05948-05759623_05565-05AT4sbtnmx4rszzot2io6d8m18oy,Install,3.5,183.99.158.87,083B4974-3AD5-4005-A633-9C51B72F5A10,1559013662,2019-05-28 11:21:02,1559013902,2019-05-28 11:25:02,1559014516,AW0Qtx0AAAFq_HR_LgABB84AAFG6,http://pb.api.weq.com/v1.4/event?click_id=AW0Qtx0AAAFq_HR_LgABB84AAFG6,idfa_083B4974-3AD5-4005-A633-9C51B72F5A10,ko-KR
e9lJDF_HT3-mtzi3MaSlEg,crobo,20922_415_23_759623_05956-053063_695734781401_20922_415_23_759623_05956-053063_695734781401,Install,3.5,116.123.152.26,BD8887D6-3E49-4EA2-B1E1-D7D2BBC74366,1559016633,2019-05-28 12:10:33,1559016734,2019-05-28 12:12:14,1559016764,ATdm5iMAAAFq_KGzkQABB84AAFG6,http://pb.api.weq.com/v1.4/event?click_id=ATdm5iMAAAFq_KGzkQABB84AAFG6,idfa_BD8887D6-3E49-4EA2-B1E1-D7D2BBC74366,ko-KR
e9lJDF_HT3-mtzi3MaSlEg,crobo,20922_415_17_10010_15_05966-051030_3255__20922_415_17_10010_15_05966-051030_3255_,Install,3.5,211.250.42.74,1FB1FFB6-9771-4B78-AD54-3E2E5A928A47,1558927809,2019-05-27 11:30:09,1558927834,2019-05-27 11:30:34,1558927865,AWYe_WIAAAFq91aNtQABB84AAFG6,http://pb.api.weq.com/v1.4/event?click_id=AWYe_WIAAAFq91aNtQABB84AAFG6,idfa_1FB1FFB6-9771-4B78-AD54-3E2E5A928A47,ko-KR
e9lJDF_HT3-mtzi3MaSlEg,crobo,20922_415_23_759623_05788-05363_485_82c3cd902548_20922_415_23_759623_05788-05363_485_82c3cd902548,Install,3.5,58.238.4.44,27EC2E78-8987-4F2C-A50F-5DC22DC30C16,1558890678,2019-05-27 01:11:18,1558890789,2019-05-27 01:13:09,1558890819,AVD4QUIAAAFq9R_o5gABB84AAFG6,http://pb.api.weq.com/v1.4/event?click_id=AVD4QUIAAAFq9R_o5gABB84AAFG6,idfa_27EC2E78-8987-4F2C-A50F-5DC22DC30C16,ko-KR
e9lJDF_HT3-mtzi3MaSlEg,crobo,20922_415_23_759623_05788-05363_485_f11baed6f180_20922_415_23_759623_05788-05363_485_f11baed6f180,Install,3.5,119.193.37.214,C0568D97-D473-41CF-A674-E184A7F585C4,1558891264,2019-05-27 01:21:04,1558891372,2019-05-27 01:22:52,1558891403,Aemxu-oAAAFq9Si3RgABB84AAFG6,http://pb.api.weq.com/v1.4/event?click_id=Aemxu-oAAAFq9Si3RgABB84AAFG6,idfa_C0568D97-D473-41CF-A674-E184A7F585C4,ko-KR
e9lJDF_HT3-mtzi3MaSlEg,crobo,20922_415_23_759623_05788-05363_1539_1030_3063_73c7d0a2abde_20922_415_23_759623_05788-05363_1539_1030_3063_73c7d0a2abde,Install,3.5,183.106.242.234,06779FE2-32F9-4D08-A08C-E8164E8DAA76,1558982749,2019-05-28 02:45:49,1558982844,2019-05-28 02:47:24,1558982875,AaK28zIAAAFq-pynLAABB84AAFG6,http://pb.api.weq.com/v1.4/event?click_id=AaK28zIAAAFq-pynLAABB84AAFG6,idfa_06779FE2-32F9-4D08-A08C-E8164E8DAA76,ko-KR
e9lJDF_HT3-mtzi3MaSlEg,crobo,20922_415_23_759623_05788-05363_1539_1030_3107_acd5266ac9ab_20922_415_23_759623_05788-05363_1539_1030_3107_acd5266ac9ab,Install,3.5,222.101.202.20,96EF0BCB-354D-4FFC-91D7-FE2C026E4C28,1558975272,2019-05-28 00:41:12,1558975367,2019-05-28 00:42:47,1558975397,ASBZYDAAAAFq-iqU_wABB84AAFG6,http://pb.api.weq.com/v1.4/event?click_id=ASBZYDAAAAFq-iqU_wABB84AAFG6,idfa_96EF0BCB-354D-4FFC-91D7-FE2C026E4C28,ko-KR
e9lJDF_HT3-mtzi3MaSlEg,crobo,20922_415_17_10010_15_05565-05AT3or4mkirjrl80rocbqz063vin_jdxpxs0x6e88_20922_415_17_10010_15_05565-05AT3or4mkirjrl80rocbqz063vin_jdxpxs0x6e88,Install,3.5,110.10.252.85,3655D5DB-3041-4372-8956-F4CBD7B370EE,1558940701,2019-05-27 15:05:01,1558940781,2019-05-27 15:06:21,1558940811,ARct16AAAAFq-BsBYAABB84AAFG6,http://pb.api.weq.com/v1.4/event?click_id=ARct16AAAAFq-BsBYAABB84AAFG6,idfa_3655D5DB-3041-4372-8956-F4CBD7B370EE,ko-KR
e9lJDF_HT3-mtzi3MaSlEg,crobo,20922_415_23_759623_05718-05125_N_1030_2562_1028601_20922_415_23_759623_05718-05125_N_1030_2562_1028601,Install,3.5,211.104.59.88,D78BC5D6-5542-4EFA-8F31-0ECD0714F6A3,1558632268,2019-05-24 01:24:28,1558632337,2019-05-24 01:25:37,1558632367,AfRy8D0AAAFq5bjCZQABB84AAFG6,http://pb.api.weq.com/v1.4/event?click_id=AfRy8D0AAAFq5bjCZQABB84AAFG6,idfa_D78BC5D6-5542-4EFA-8F31-0ECD0714F6A3,en-GB
e9lJDF_HT3-mtzi3MaSlEg,crobo,20922_415_23_759623_05922-052124438_20922_415_23_759623_05922-052124438,Install,3.5,218.50.42.139,E95C5872-BB66-481F-96A9-5B7B1E6579C4,1558632046,2019-05-24 01:20:46,1558632157,2019-05-24 01:22:37,1558632188,AUdYh5oAAAFq5bVgpwABB84AAFG6,http://pb.api.weq.com/v1.4/event?click_id=AUdYh5oAAAFq5bVgpwABB84AAFG6,idfa_E95C5872-BB66-481F-96A9-5B7B1E6579C4,ko-KR
e9lJDF_HT3-mtzi3MaSlEg,crobo,20922_415_23_759623_05788-05363_184_12247_145329_20922_415_23_759623_05788-05363_184_12247_145329,Install,3.5,222.108.143.193,901E4B80-9F8B-4ABA-BD09-3D02AF500C08,1559004086,2019-05-28 08:41:26,1559004137,2019-05-28 08:42:17,1559004169,AZUQpeMAAAFq--Ju3QABB84AAFG6,http://pb.api.weq.com/v1.4/event?click_id=AZUQpeMAAAFq--Ju3QABB84AAFG6,idfa_901E4B80-9F8B-4ABA-BD09-3D02AF500C08,ko-KR
e9lJDF_HT3-mtzi3MaSlEg,crobo,20922_415_23_759623_05788-05363_184_12247_145329_20922_415_23_759623_05788-05363_184_12247_145329,Install,3.5,118.62.9.2,D1520B65-9610-4B65-AC98-C05649C8B71C,1559004299,2019-05-28 08:44:59,1559004356,2019-05-28 08:45:56,1559004387,AUBeIxcAAAFq--WwHAABB84AAFG6,http://pb.api.weq.com/v1.4/event?click_id=AUBeIxcAAAFq--WwHAABB84AAFG6,idfa_D1520B65-9610-4B65-AC98-C05649C8B71C,ko-KR
e9lJDF_HT3-mtzi3MaSlEg,crobo,20922_415_23_759623_05788-05363_1539_1030_3063_06b4dba2a58b_20922_415_23_759623_05788-05363_1539_1030_3063_06b4dba2a58b,Install,3.5,124.49.74.151,19E13A38-9E36-4202-B80C-AAF5E8D7DD10,1558982061,2019-05-28 02:34:21,1558982180,2019-05-28 02:36:20,1558982211,AViEvrkAAAFq-pI5VQABB84AAFG6,http://pb.api.weq.com/v1.4/event?click_id=AViEvrkAAAFq-pI5VQABB84AAFG6,idfa_19E13A38-9E36-4202-B80C-AAF5E8D7DD10,ko-KR
e9lJDF_HT3-mtzi3MaSlEg,crobo,20922_415_23_759623_05956-053063_e89bd93caf69_20922_415_23_759623_05956-053063_e89bd93caf69,Install,3.5,222.121.27.52,5EB90985-79E1-43A0-9588-55394AAD4C55,1559015790,2019-05-28 11:56:30,1559015892,2019-05-28 11:58:12,1559015923,AYDP-PUAAAFq_JTBaAABB84AAFG6,http://pb.api.weq.com/v1.4/event?click_id=AYDP-PUAAAFq_JTBaAABB84AAFG6,idfa_5EB90985-79E1-43A0-9588-55394AAD4C55,ko-KR
e9lJDF_HT3-mtzi3MaSlEg,crobo,20922_415_23_759623_05565-05AT3289haatpkqhf586f3hk6rlef_8rkzpgtarnyu_20922_415_23_759623_05565-05AT3289haatpkqhf586f3hk6rlef_8rkzpgtarnyu,Install,3.5,118.219.19.168,766AADA3-4F62-48EA-8ED6-737477864F7B,1558971217,2019-05-27 23:33:37,1558971366,2019-05-27 23:36:06,1558971397,ARR3ieMAAAFq-eyC6AABB84AAFG6,http://pb.api.weq.com/v1.4/event?click_id=ARR3ieMAAAFq-eyC6AABB84AAFG6,idfa_766AADA3-4F62-48EA-8ED6-737477864F7B,ko-KR
e9lJDF_HT3-mtzi3MaSlEg,crobo,20922_415_23_759623_05565-05AT3or4mkirjrl80rocbqz063vin_jdxpxs0x6e88_20922_415_23_759623_05565-05AT3or4mkirjrl80rocbqz063vin_jdxpxs0x6e88,Install,3.5,59.1.246.107,E85A36B6-B36C-466C-83A4-D2DC5C334A8C,1558859234,2019-05-26 16:27:14,1558859411,2019-05-26 16:30:11,1558859441,AcxycJAAAAFq8z_2WAABB84AAFG6,http://pb.api.weq.com/v1.4/event?click_id=AcxycJAAAAFq8z_2WAABB84AAFG6,idfa_E85A36B6-B36C-466C-83A4-D2DC5C334A8C,ko-KR
e9lJDF_HT3-mtzi3MaSlEg,crobo,20922_415_17_10010_15_05565-05AT9zbax9kq3lwn0vtakwrtrccis_6rtigxs2x4s5_20922_415_17_10010_15_05565-05AT9zbax9kq3lwn0vtakwrtrccis_6rtigxs2x4s5,Install,3.5,114.70.12.223,ECAF794D-3FF3-48D3-8C14-C401A1791628,1559222901,2019-05-30 21:28:21,1559222970,2019-05-30 21:29:30,1559223001,AZR7LhsAAAFrCO0hbQABB84AAFG6,http://pb.api.weq.com/v1.4/event?click_id=AZR7LhsAAAFrCO0hbQABB84AAFG6,idfa_ECAF794D-3FF3-48D3-8C14-C401A1791628,ko-KR
e9lJDF_HT3-mtzi3MaSlEg,crobo,20922_415_17_10010_15_05966-051030_3255__20922_415_17_10010_15_05966-051030_3255_,Install,3.5,112.162.62.41,C7229EA9-29CC-41D5-B1CB-418BDF7D4E2C,1558927733,2019-05-27 11:28:53,1558927755,2019-05-27 11:29:15,1558927785,ARErgnkAAAFq91VilwABB84AAFG6,http://pb.api.weq.com/v1.4/event?click_id=ARErgnkAAAFq91VilwABB84AAFG6,idfa_C7229EA9-29CC-41D5-B1CB-418BDF7D4E2C,ko-KR
e9lJDF_HT3-mtzi3MaSlEg,crobo,20922_415_23_759623_05455-0526_20922_415_23_759623_05455-0526,Install,3.5,218.153.105.26,8837353F-DC64-4620-ACA6-09F98A40A241,1559094064,2019-05-29 09:41:04,1559094177,2019-05-29 09:42:57,1559094221,Aa68EsAAAAFrAT844QABB84AAFG6,http://pb.api.weq.com/v1.4/event?click_id=Aa68EsAAAAFrAT844QABB84AAFG6,idfa_8837353F-DC64-4620-ACA6-09F98A40A241,ko-KR
e9lJDF_HT3-mtzi3MaSlEg,crobo,20922_415_23_759623_05788-05363_184_12247_145329_20922_415_23_759623_05788-05363_184_12247_145329,Install,3.5,115.21.226.248,628A749A-245E-4E3C-9880-4A8708633847,1559003279,2019-05-28 08:27:59,1559003345,2019-05-28 08:29:05,1559003376,AYjl1XMAAAFq-9Yf1AABB84AAFG6,http://pb.api.weq.com/v1.4/event?click_id=AYjl1XMAAAFq-9Yf1AABB84AAFG6,idfa_628A749A-245E-4E3C-9880-4A8708633847,ko-KR
e9lJDF_HT3-mtzi3MaSlEg,crobo,20922_415_23_759623_05788-05363_1539_1030_3063_68fc0972177f_20922_415_23_759623_05788-05363_1539_1030_3063_68fc0972177f,Install,3.5,125.177.198.237,66ED4D67-9427-4093-B1D3-CB77818D56BD,1558982607,2019-05-28 02:43:27,1558982792,2019-05-28 02:46:32,1558982823,ATSzhJMAAAFq-pp_YgABB84AAFG6,http://pb.api.weq.com/v1.4/event?click_id=ATSzhJMAAAFq-pp_YgABB84AAFG6,idfa_66ED4D67-9427-4093-B1D3-CB77818D56BD,ko-KR
e9lJDF_HT3-mtzi3MaSlEg,crobo,20922_415_17_10010_15_05565-05AT9zbax9kq3lwn0vtakwrtrccis_6rtigxs2x4s5_20922_415_17_10010_15_05565-05AT9zbax9kq3lwn0vtakwrtrccis_6rtigxs2x4s5,Install,3.5,203.237.110.250,52DD55FB-D867-4F0C-9BF7-5881BDD6ED0C,1559223889,2019-05-30 21:44:49,1559223980,2019-05-30 21:46:20,1559224010,AaCABY0AAAFrCPws6wABB84AAFG6,http://pb.api.weq.com/v1.4/event?click_id=AaCABY0AAAFrCPws6wABB84AAFG6,idfa_52DD55FB-D867-4F0C-9BF7-5881BDD6ED0C,ko-KR
e9lJDF_HT3-mtzi3MaSlEg,crobo,20922_415_23_759623_05565-05AT3289haatpkqhf586f3hk6rlef_8rkzpgtarnyu_20922_415_23_759623_05565-05AT3289haatpkqhf586f3hk6rlef_8rkzpgtarnyu,Install,3.5,223.38.10.125,2654FD56-70A0-4513-AD09-98C56A0A48B0,1559010147,2019-05-28 10:22:27,1559010385,2019-05-28 10:26:25,1559010417,AZVNvjEAAAFq_D6vTQABB84AAFG6,http://pb.api.weq.com/v1.4/event?click_id=AZVNvjEAAAFq_D6vTQABB84AAFG6,idfa_2654FD56-70A0-4513-AD09-98C56A0A48B0,ko-KR
e9lJDF_HT3-mtzi3MaSlEg,crobo,20922_415_23_759623_05905-05463_20922_415_23_759623_05905-05463,Install,3.5,118.45.99.152,88E75383-BDA7-4C01-A9F4-EDE9E5C2DA20,1559203951,2019-05-30 16:12:31,1559204037,2019-05-30 16:13:57,1559204068,AUvKqIwAAAFrB8wbeQABB84AAFG6,http://pb.api.weq.com/v1.4/event?click_id=AUvKqIwAAAFrB8wbeQABB84AAFG6,idfa_88E75383-BDA7-4C01-A9F4-EDE9E5C2DA20,ko-KR
e9lJDF_HT3-mtzi3MaSlEg,crobo,20922_357_48_741-12211_20922_357_48_741-12211,Install,3.5,210.216.14.25,09233244-72D4-4CC6-8880-946AD3437E08,1559238218,2019-05-31 01:43:38,1559238309,2019-05-31 01:45:09,1559238340,AU9wxmsAAAFrCdb8YgABB84AAFG6,http://pb.api.weq.com/v1.4/event?click_id=AU9wxmsAAAFrCdb8YgABB84AAFG6,idfa_09233244-72D4-4CC6-8880-946AD3437E08,ko-KR
e9lJDF_HT3-mtzi3MaSlEg,crobo,20922_415_23_759623_05788-05363_485_d586c0540da3_20922_415_23_759623_05788-05363_485_d586c0540da3,Install,3.5,182.224.163.76,1D50ED0A-E48E-4B04-B8A5-9E6AF283197E,1558891264,2019-05-27 01:21:04,1558891402,2019-05-27 01:23:22,1558891433,AdQ_ZskAAAFq9Si4XgABB84AAFG6,http://pb.api.weq.com/v1.4/event?click_id=AdQ_ZskAAAFq9Si4XgABB84AAFG6,idfa_1D50ED0A-E48E-4B04-B8A5-9E6AF283197E,ko-KR
e9lJDF_HT3-mtzi3MaSlEg,crobo,20922_415_23_759623_05788-05363_1539_1030_3063_9411c2073cca_20922_415_23_759623_05788-05363_1539_1030_3063_9411c2073cca,Install,3.5,59.15.171.238,015DCC5B-A628-40BA-B204-D181E00EB57A,1558982700,2019-05-28 02:45:00,1558982826,2019-05-28 02:47:06,1558982857,ARX98s0AAAFq-pvjzAABB84AAFG6,http://pb.api.weq.com/v1.4/event?click_id=ARX98s0AAAFq-pvjzAABB84AAFG6,idfa_015DCC5B-A628-40BA-B204-D181E00EB57A,ko-KR
e9lJDF_HT3-mtzi3MaSlEg,crobo,20922_415_23_759623_05788-05363_485_d586c0540da3_20922_415_23_759623_05788-05363_485_d586c0540da3,Install,3.5,122.44.160.227,A25F567E-B251-422D-9941-9983780BFB21,1558891263,2019-05-27 01:21:03,1558891363,2019-05-27 01:22:43,1558891394,AdUiKHYAAAFq9SitlgABB84AAFG6,http://pb.api.weq.com/v1.4/event?click_id=AdUiKHYAAAFq9SitlgABB84AAFG6,idfa_A25F567E-B251-422D-9941-9983780BFB21,ko-KR
e9lJDF_HT3-mtzi3MaSlEg,crobo,20922_415_23_759623_05788-05363_1539_1030_3063_68fc0972177f_20922_415_23_759623_05788-05363_1539_1030_3063_68fc0972177f,Install,3.5,182.31.95.77,A423E1BB-B5A4-46C1-85BA-241B2D70F478,1558982142,2019-05-28 02:35:42,1558982237,2019-05-28 02:37:17,1558982268,Afc4BLkAAAFq-pNrRwABB84AAFG6,http://pb.api.weq.com/v1.4/event?click_id=Afc4BLkAAAFq-pNrRwABB84AAFG6,idfa_A423E1BB-B5A4-46C1-85BA-241B2D70F478,ko-KR
e9lJDF_HT3-mtzi3MaSlEg,crobo,20922_431_7_05565-05AT3or4mkirjrl80rocbqz063vin_jdxpxs0x6e88_20922_431_7_05565-05AT3or4mkirjrl80rocbqz063vin_jdxpxs0x6e88,Install,3.5,182.210.194.248,AFE43CCA-A7B3-4F39-827B-D159A89966B0,1559170965,2019-05-30 07:02:45,1559171065,2019-05-30 07:04:25,1559171096,AV3z0vcAAAFrBdTCAQABB84AAFG6,http://pb.api.weq.com/v1.4/event?click_id=AV3z0vcAAAFrBdTCAQABB84AAFG6,idfa_AFE43CCA-A7B3-4F39-827B-D159A89966B0,ko-KR
e9lJDF_HT3-mtzi3MaSlEg,crobo,20922_415_23_759623_05565-05AT3or4mkirjrl80rocbqz063vin_jdxpxs0x6e88_20922_415_23_759623_05565-05AT3or4mkirjrl80rocbqz063vin_jdxpxs0x6e88,Install,3.5,223.62.188.38,EEBBBD94-9586-4A11-86B2-68C8C546D27D,1558935668,2019-05-27 13:41:08,1558935794,2019-05-27 13:43:14,1558935824,AaXXtzUAAAFq985FvAABB84AAFG6,http://pb.api.weq.com/v1.4/event?click_id=AaXXtzUAAAFq985FvAABB84AAFG6,idfa_EEBBBD94-9586-4A11-86B2-68C8C546D27D,ko-KR
e9lJDF_HT3-mtzi3MaSlEg,crobo,20922_415_23_759623_05788-05363_485_acd5266ac9ab_20922_415_23_759623_05788-05363_485_acd5266ac9ab,Install,3.5,110.70.15.120,853DE9F5-EE13-4B7E-98D5-9018FD1312E9,1558891265,2019-05-27 01:21:05,1558891377,2019-05-27 01:22:57,1558891408,AfRBojAAAAFq9Si6mgABB84AAFG6,http://pb.api.weq.com/v1.4/event?click_id=AfRBojAAAAFq9Si6mgABB84AAFG6,idfa_853DE9F5-EE13-4B7E-98D5-9018FD1312E9,ko-KR
e9lJDF_HT3-mtzi3MaSlEg,crobo,20922_415_23_759623_05788-05363_485_d586c0540da3_20922_415_23_759623_05788-05363_485_d586c0540da3,Install,3.5,14.39.149.87,E3347F8F-D3AF-4136-9D20-571BD15ECCBA,1558891258,2019-05-27 01:20:58,1558891396,2019-05-27 01:23:16,1558891428,AeB73n8AAAFq9SiiwwABB84AAFG6,http://pb.api.weq.com/v1.4/event?click_id=AeB73n8AAAFq9SiiwwABB84AAFG6,idfa_E3347F8F-D3AF-4136-9D20-571BD15ECCBA,ko-KR
e9lJDF_HT3-mtzi3MaSlEg,crobo,20922_415_23_759623_05788-05363_184_12247_145329_20922_415_23_759623_05788-05363_184_12247_145329,Install,3.5,220.116.230.50,1F27F550-FA72-451C-B513-9103E0A4C643,1559003285,2019-05-28 08:28:05,1559003358,2019-05-28 08:29:18,1559003389,AdNRaZoAAAFq-9Y1fwABB84AAFG6,http://pb.api.weq.com/v1.4/event?click_id=AdNRaZoAAAFq-9Y1fwABB84AAFG6,idfa_1F27F550-FA72-451C-B513-9103E0A4C643,ko-KR
e9lJDF_HT3-mtzi3MaSlEg,crobo,20922_415_23_759623_05956-053063_d12b6d4e146c_20922_415_23_759623_05956-053063_d12b6d4e146c,Install,3.5,1.249.41.231,8607BFA2-EC52-4A90-BD2B-39F9800DA26C,1558835056,2019-05-26 09:44:16,1558835183,2019-05-26 09:46:23,1558835213,AQzwSQQAAAFq8c8NFwABB84AAFG6,http://pb.api.weq.com/v1.4/event?click_id=AQzwSQQAAAFq8c8NFwABB84AAFG6,idfa_8607BFA2-EC52-4A90-BD2B-39F9800DA26C,ko-KR
e9lJDF_HT3-mtzi3MaSlEg,crobo,20922_214_59000703_20922_214_59000703,Install,3.5,147.47.115.194,3D4804DF-33A6-47C4-A0DF-9AE7AEC13D87,1558877712,2019-05-26 21:35:12,1558880865,2019-05-26 22:27:45,1558880897,Abj6zQ4AAAFq9FoqOgABB84AAFG6,http://pb.api.weq.com/v1.4/event?click_id=Abj6zQ4AAAFq9FoqOgABB84AAFG6,idfa_3D4804DF-33A6-47C4-A0DF-9AE7AEC13D87,ko-KR
e9lJDF_HT3-mtzi3MaSlEg,crobo,20922_415_23_759623_05956-053063_d6e5cba2d388_20922_415_23_759623_05956-053063_d6e5cba2d388,Install,3.5,115.136.51.157,30ECE952-9BB2-4BE1-9035-3F1F7D8D3AC4,1558890391,2019-05-27 01:06:31,1558890503,2019-05-27 01:08:23,1558890534,AU57RI8AAAFq9RtXRwABB84AAFG6,http://pb.api.weq.com/v1.4/event?click_id=AU57RI8AAAFq9RtXRwABB84AAFG6,idfa_30ECE952-9BB2-4BE1-9035-3F1F7D8D3AC4,ko-KR
e9lJDF_HT3-mtzi3MaSlEg,crobo,20922_415_23_759623_05788-05363_184_12247_145329_20922_415_23_759623_05788-05363_184_12247_145329,Install,3.5,59.21.169.153,64C52145-391B-48AA-8409-5E561B9319CC,1559003760,2019-05-28 08:36:00,1559003818,2019-05-28 08:36:58,1559003849,AaF8mjcAAAFq-913kwABB84AAFG6,http://pb.api.weq.com/v1.4/event?click_id=AaF8mjcAAAFq-913kwABB84AAFG6,idfa_64C52145-391B-48AA-8409-5E561B9319CC,ko-KR
e9lJDF_HT3-mtzi3MaSlEg,crobo,20922_415_23_759623_05788-05363_1539_1030_3063_4385e1d1d3ed_20922_415_23_759623_05788-05363_1539_1030_3063_4385e1d1d3ed,Install,3.5,117.123.74.73,94532B87-3BFC-4468-96E2-275C37DB1B20,1558981993,2019-05-28 02:33:13,1558982129,2019-05-28 02:35:29,1558982160,ATgksJ4AAAFq-pE0ggABB84AAFG6,http://pb.api.weq.com/v1.4/event?click_id=ATgksJ4AAAFq-pE0ggABB84AAFG6,idfa_94532B87-3BFC-4468-96E2-275C37DB1B20,ko-KR
e9lJDF_HT3-mtzi3MaSlEg,crobo,20922_415_23_759623_05956-053063_c2fb68d015bf_20922_415_23_759623_05956-053063_c2fb68d015bf,Install,3.5,1.215.111.194,9BE7787A-54D3-4E3F-8313-4D29EE26D763,1559015820,2019-05-28 11:57:00,1559015942,2019-05-28 11:59:02,1559015973,Ab0-tyYAAAFq_JVDYgABB84AAFG6,http://pb.api.weq.com/v1.4/event?click_id=Ab0-tyYAAAFq_JVDYgABB84AAFG6,idfa_9BE7787A-54D3-4E3F-8313-4D29EE26D763,ko-KR
e9lJDF_HT3-mtzi3MaSlEg,crobo,20922_415_23_759623_05721-05mob226d7285809856f5_20922_415_23_759623_05721-05mob226d7285809856f5,Install,3.5,218.155.71.186,9F11F965-2095-4F8A-B30B-AEFEBB307A31,1558974825,2019-05-28 00:33:45,1558975367,2019-05-28 00:42:47,1558975398,Afc0lyoAAAFq-iO48QABB84AAFG6,http://pb.api.weq.com/v1.4/event?click_id=Afc0lyoAAAFq-iO48QABB84AAFG6,idfa_9F11F965-2095-4F8A-B30B-AEFEBB307A31,ko-KR
e9lJDF_HT3-mtzi3MaSlEg,crobo,20922_357_48_741-12211_20922_357_48_741-12211,Install,3.5,211.232.61.60,758B9468-75A9-4355-9099-8D8CC6B94FC6,1559238527,2019-05-31 01:48:47,1559238619,2019-05-31 01:50:19,1559238650,AT3WjP4AAAFrCdu5AwABB84AAFG6,http://pb.api.weq.com/v1.4/event?click_id=AT3WjP4AAAFrCdu5AwABB84AAFG6,idfa_758B9468-75A9-4355-9099-8D8CC6B94FC6,ko-KR
e9lJDF_HT3-mtzi3MaSlEg,crobo,20922_415_17_10010_15_05718-05125_N_1030_2562_1028601_20922_415_17_10010_15_05718-05125_N_1030_2562_1028601,Install,3.5,183.109.113.83,899924AF-0ADA-4EC4-BD30-760D9F026610,1558633120,2019-05-24 01:38:40,1558633170,2019-05-24 01:39:30,1558633201,AXSTIx0AAAFq5cW-ggABB84AAFG6,http://pb.api.weq.com/v1.4/event?click_id=AXSTIx0AAAFq5cW-ggABB84AAFG6,idfa_899924AF-0ADA-4EC4-BD30-760D9F026610,en-GB
e9lJDF_HT3-mtzi3MaSlEg,crobo,20922_415_23_759623_05956-053063_c2fb68d015bf_20922_415_23_759623_05956-053063_c2fb68d015bf,Install,3.5,121.171.224.15,00267B80-D4FA-4EA1-A51F-95E3AF5886C3,1559016236,2019-05-28 12:03:56,1559016334,2019-05-28 12:05:34,1559016365,AY5RCugAAAFq_JuWBQABB84AAFG6,http://pb.api.weq.com/v1.4/event?click_id=AY5RCugAAAFq_JuWBQABB84AAFG6,idfa_00267B80-D4FA-4EA1-A51F-95E3AF5886C3,ko-KR
e9lJDF_HT3-mtzi3MaSlEg,crobo,20922_415_23_759623_05956-053063_f75c3ab24b72_20922_415_23_759623_05956-053063_f75c3ab24b72,Install,3.5,222.118.107.128,D4DB953B-D4BB-40AE-8B87-B3FFB5ADA511,1559016265,2019-05-28 12:04:25,1559016378,2019-05-28 12:06:18,1559016409,Acky3-gAAAFq_JwXSgABB84AAFG6,http://pb.api.weq.com/v1.4/event?click_id=Acky3-gAAAFq_JwXSgABB84AAFG6,idfa_D4DB953B-D4BB-40AE-8B87-B3FFB5ADA511,ko-KR
e9lJDF_HT3-mtzi3MaSlEg,crobo,20922_415_23_759623_05956-053063_d6e5cba2d388_20922_415_23_759623_05956-053063_d6e5cba2d388,Install,3.5,183.99.237.97,E4833D25-2AA9-4D62-A2F0-99012BCC85C9,1558987894,2019-05-28 04:11:34,1558988005,2019-05-28 04:13:25,1558988036,ATuOnBsAAAFq-usrxgABB84AAFG6,http://pb.api.weq.com/v1.4/event?click_id=ATuOnBsAAAFq-usrxgABB84AAFG6,idfa_E4833D25-2AA9-4D62-A2F0-99012BCC85C9,ko-KR
e9lJDF_HT3-mtzi3MaSlEg,crobo,20922_415_23_759623_05956-053063_e89bd93caf69_20922_415_23_759623_05956-053063_e89bd93caf69,Install,3.5,124.60.148.30,E6C7324D-4693-4D9A-9507-67024788C5F7,1559016163,2019-05-28 12:02:43,1559016285,2019-05-28 12:04:45,1559016316,ATXCb7EAAAFq_JqG7gABB84AAFG6,http://pb.api.weq.com/v1.4/event?click_id=ATXCb7EAAAFq_JqG7gABB84AAFG6,idfa_E6C7324D-4693-4D9A-9507-67024788C5F7,ko-KR
e9lJDF_HT3-mtzi3MaSlEg,crobo,20922_415_23_759623_05956-053063_47cd18ce8f8b_20922_415_23_759623_05956-053063_47cd18ce8f8b,Install,3.5,211.38.63.34,7005E6F5-5355-4685-9065-A084F743BE7C,1559016184,2019-05-28 12:03:04,1559016290,2019-05-28 12:04:50,1559016323,AWslzZkAAAFq_JrY0QABB84AAFG6,http://pb.api.weq.com/v1.4/event?click_id=AWslzZkAAAFq_JrY0QABB84AAFG6,idfa_7005E6F5-5355-4685-9065-A084F743BE7C,ko-KR
e9lJDF_HT3-mtzi3MaSlEg,crobo,20922_415_23_759623_05565-05AT9ced8mai1v6kzt0xxgg7dqwiw_2amzagldi8ql_20922_415_23_759623_05565-05AT9ced8mai1v6kzt0xxgg7dqwiw_2amzagldi8ql,Install,3.5,106.248.37.154,AFA109FF-AF99-4DAC-9589-212740422063,1558974763,2019-05-28 00:32:43,1558974870,2019-05-28 00:34:30,1558974901,AY90eIUAAAFq-iLKRAABB84AAFG6,http://pb.api.weq.com/v1.4/event?click_id=AY90eIUAAAFq-iLKRAABB84AAFG6,idfa_AFA109FF-AF99-4DAC-9589-212740422063,ko-KR
e9lJDF_HT3-mtzi3MaSlEg,crobo,20922_415_17_10010_15_05718-05125_N_1030_2562_1028601_20922_415_17_10010_15_05718-05125_N_1030_2562_1028601,Install,3.5,203.234.105.16,F02EC88B-5A2C-46A9-A728-2F7FD8C62801,1558633013,2019-05-24 01:36:53,1558633087,2019-05-24 01:38:07,1558633119,AbUlocgAAAFq5cQamgABB84AAFG6,http://pb.api.weq.com/v1.4/event?click_id=AbUlocgAAAFq5cQamgABB84AAFG6,idfa_F02EC88B-5A2C-46A9-A728-2F7FD8C62801,en-GB
e9lJDF_HT3-mtzi3MaSlEg,crobo,20922_415_23_759623_05788-05363_1539_1030_3063_6245fc68c962_20922_415_23_759623_05788-05363_1539_1030_3063_6245fc68c962,Install,3.5,125.129.14.102,76ABB7D9-45EB-4275-A69C-293C19A27A99,1558981535,2019-05-28 02:25:35,1558981641,2019-05-28 02:27:21,1558981672,ASVmJC0AAAFq-opI2wABB84AAFG6,http://pb.api.weq.com/v1.4/event?click_id=ASVmJC0AAAFq-opI2wABB84AAFG6,idfa_76ABB7D9-45EB-4275-A69C-293C19A27A99,ko-KR
e9lJDF_HT3-mtzi3MaSlEg,crobo,20922_357_48_741-12211_20922_357_48_741-12211,Install,3.5,114.30.165.123,C9281FB5-9F60-476A-AAF5-CAA4C0DA1F21,1559238234,2019-05-31 01:43:54,1559238308,2019-05-31 01:45:08,1559238339,AXlk6gQAAAFrCddBkwABB84AAFG6,http://pb.api.weq.com/v1.4/event?click_id=AXlk6gQAAAFrCddBkwABB84AAFG6,idfa_C9281FB5-9F60-476A-AAF5-CAA4C0DA1F21,ko-KR
e9lJDF_HT3-mtzi3MaSlEg,crobo,20922_415_17_10010_15_05565-05AT3or4mkirjrl80rocbqz063vin_jdxpxs0x6e88_20922_415_17_10010_15_05565-05AT3or4mkirjrl80rocbqz063vin_jdxpxs0x6e88,Install,3.5,59.1.167.15,90F33A74-5EFF-4196-9390-C927D2D72C8B,1558937471,2019-05-27 14:11:11,1558937557,2019-05-27 14:12:37,1558937588,ARfg3xYAAAFq9-nU6AABB84AAFG6,http://pb.api.weq.com/v1.4/event?click_id=ARfg3xYAAAFq9-nU6AABB84AAFG6,idfa_90F33A74-5EFF-4196-9390-C927D2D72C8B,ko-KR
e9lJDF_HT3-mtzi3MaSlEg,crobo,20922_357_48_892-53s__212_20922_357_48_892-53s__212,Install,3.5,121.183.126.103,042E6480-289B-445B-A040-F96A08742565,1559263662,2019-05-31 08:47:42,1559263722,2019-05-31 08:48:42,1559263753,AdA4DNMAAAFrC1sIewABB84AAFG6,http://pb.api.weq.com/v1.4/event?click_id=AdA4DNMAAAFrC1sIewABB84AAFG6,idfa_042E6480-289B-445B-A040-F96A08742565,ko-KR
e9lJDF_HT3-mtzi3MaSlEg,crobo,20922_357_48_741-12211_20922_357_48_741-12211,Install,3.5,1.234.5.210,C6DE9417-B3B2-4315-AFA0-D56815E15DDB,1559238557,2019-05-31 01:49:17,1559238640,2019-05-31 01:50:40,1559238671,AXziAvMAAAFrCdwuLwABB84AAFG6,http://pb.api.weq.com/v1.4/event?click_id=AXziAvMAAAFrCdwuLwABB84AAFG6,idfa_C6DE9417-B3B2-4315-AFA0-D56815E15DDB,ko-KR
e9lJDF_HT3-mtzi3MaSlEg,crobo,20922_415_23_759623_05788-05363_184_12247_145329_20922_415_23_759623_05788-05363_184_12247_145329,Install,3.5,183.98.75.48,CFE55383-BF41-4E49-8357-779181A45788,1559003727,2019-05-28 08:35:27,1559003792,2019-05-28 08:36:32,1559003824,AVMyUpEAAAFq-9z21gABB84AAFG6,http://pb.api.weq.com/v1.4/event?click_id=AVMyUpEAAAFq-9z21gABB84AAFG6,idfa_CFE55383-BF41-4E49-8357-779181A45788,ko-KR
e9lJDF_HT3-mtzi3MaSlEg,crobo,20922_415_23_759623_05956-053063_052e6b68772a_20922_415_23_759623_05956-053063_052e6b68772a,Install,3.5,118.223.230.86,878BC716-E5C9-435D-8BD3-AC19149826FF,1558873644,2019-05-26 20:27:24,1558873780,2019-05-26 20:29:40,1558873810,AfAhZBAAAAFq9BviUAABB84AAFG6,http://pb.api.weq.com/v1.4/event?click_id=AfAhZBAAAAFq9BviUAABB84AAFG6,idfa_878BC716-E5C9-435D-8BD3-AC19149826FF,ko-KR
e9lJDF_HT3-mtzi3MaSlEg,crobo,20922_415_17_10010_15_05905-05463_20922_415_17_10010_15_05905-05463,Install,3.5,218.52.193.208,493399F5-3853-42A5-AD12-D5E3491D6514,1559203594,2019-05-30 16:06:34,1559203626,2019-05-30 16:07:06,1559203657,AXZIRGAAAAFrB8aYvAABB84AAFG6,http://pb.api.weq.com/v1.4/event?click_id=AXZIRGAAAAFrB8aYvAABB84AAFG6,idfa_493399F5-3853-42A5-AD12-D5E3491D6514,ko-KR
e9lJDF_HT3-mtzi3MaSlEg,crobo,20922_415_23_759623_05721-05mob226d7285809856f5_20922_415_23_759623_05721-05mob226d7285809856f5,Install,3.5,39.123.95.113,440DBBB6-A8DC-45E5-98F0-F64EEDC4552B,1558942033,2019-05-27 15:27:13,1558942123,2019-05-27 15:28:43,1558942154,AZhqlbQAAAFq-C99ggABB84AAFG6,http://pb.api.weq.com/v1.4/event?click_id=AZhqlbQAAAFq-C99ggABB84AAFG6,idfa_440DBBB6-A8DC-45E5-98F0-F64EEDC4552B,ko-KR
e9lJDF_HT3-mtzi3MaSlEg,crobo,20922_357_48_741-12211_20922_357_48_741-12211,Install,3.5,211.232.105.19,10F26249-94F1-4B71-A67D-76AF42F30F53,1559238242,2019-05-31 01:44:02,1559238328,2019-05-31 01:45:28,1559238359,AeM_3gMAAAFrCddYXQABB84AAFG6,http://pb.api.weq.com/v1.4/event?click_id=AeM_3gMAAAFrCddYXQABB84AAFG6,idfa_10F26249-94F1-4B71-A67D-76AF42F30F53,ko-KR
e9lJDF_HT3-mtzi3MaSlEg,crobo,20922_415_17_10010_15_05948-05759623_05565-05AT4sbtnmx4rszzot2io6d8m18oy_20922_415_17_10010_15_05948-05759623_05565-05AT4sbtnmx4rszzot2io6d8m18oy,Install,3.5,14.46.213.251,E9398D38-BF81-4531-B483-E1B4001B3B50,1559017215,2019-05-28 12:20:15,1559017316,2019-05-28 12:21:56,1559017347,AQ4FxoUAAAFq_Kqa0wABB84AAFG6,http://pb.api.weq.com/v1.4/event?click_id=AQ4FxoUAAAFq_Kqa0wABB84AAFG6,idfa_E9398D38-BF81-4531-B483-E1B4001B3B50,ko-KR
e9lJDF_HT3-mtzi3MaSlEg,crobo,20922_357_48_892-53s__212_20922_357_48_892-53s__212,Install,3.5,211.202.42.111,65BC20C4-D5F3-4F4D-B2B8-23DA59E6C8BB,1559264139,2019-05-31 08:55:39,1559264222,2019-05-31 08:57:02,1559264252,AVZTkKMAAAFrC2JuxQABB84AAFG6,http://pb.api.weq.com/v1.4/event?click_id=AVZTkKMAAAFrC2JuxQABB84AAFG6,idfa_65BC20C4-D5F3-4F4D-B2B8-23DA59E6C8BB,ko-KR
e9lJDF_HT3-mtzi3MaSlEg,crobo,20922_415_23_759623_05956-053063_d12b6d4e146c_20922_415_23_759623_05956-053063_d12b6d4e146c,Install,3.5,49.171.159.38,5A8A466E-20E0-4A2B-B594-EFCCC80CC79D,1559016259,2019-05-28 12:04:19,1559016365,2019-05-28 12:06:05,1559016398,AZ_B0OgAAAFq_JvqqAABB84AAFG6,http://pb.api.weq.com/v1.4/event?click_id=AZ_B0OgAAAFq_JvqqAABB84AAFG6,idfa_5A8A466E-20E0-4A2B-B594-EFCCC80CC79D,ko-KR
e9lJDF_HT3-mtzi3MaSlEg,crobo,20922_415_23_759623_05788-05363_485_3f1646f76f04_20922_415_23_759623_05788-05363_485_3f1646f76f04,Install,3.5,27.124.198.29,51E24308-96F7-420A-A889-F1125CE02AD0,1558891238,2019-05-27 01:20:38,1558891353,2019-05-27 01:22:33,1558891384,ASGR0KIAAAFq9ShUTwABB84AAFG6,http://pb.api.weq.com/v1.4/event?click_id=ASGR0KIAAAFq9ShUTwABB84AAFG6,idfa_51E24308-96F7-420A-A889-F1125CE02AD0,ko-KR
e9lJDF_HT3-mtzi3MaSlEg,crobo,20922_357_48_892-53s__212_20922_357_48_892-53s__212,Install,3.5,61.40.194.10,222A5F58-ABE0-496C-A885-BC8BAD5616AB,1559263636,2019-05-31 08:47:16,1559263707,2019-05-31 08:48:27,1559263737,AfXFxmAAAAFrC1raFwABB84AAFG6,http://pb.api.weq.com/v1.4/event?click_id=AfXFxmAAAAFrC1raFwABB84AAFG6,idfa_222A5F58-ABE0-496C-A885-BC8BAD5616AB,ko-KR
e9lJDF_HT3-mtzi3MaSlEg,crobo,20922_415_23_759623_05721-05mob226d7285809856f5_20922_415_23_759623_05721-05mob226d7285809856f5,Install,3.5,112.222.50.69,74980AA4-9575-457B-8F51-312763022EBC,1559012577,2019-05-28 11:02:57,1559014101,2019-05-28 11:28:21,1559014132,Aa6Wt2AAAAFq_GPPPAABB84AAFG6,http://pb.api.weq.com/v1.4/event?click_id=Aa6Wt2AAAAFq_GPPPAABB84AAFG6,idfa_74980AA4-9575-457B-8F51-312763022EBC,ko-KR
e9lJDF_HT3-mtzi3MaSlEg,crobo,20922_415_23_759623_05966-051030_3255__20922_415_23_759623_05966-051030_3255_,Install,3.5,220.127.126.139,20BA8BB9-8B9B-46B8-B1AC-E88E9614BC9B,1558927896,2019-05-27 11:31:36,1558927925,2019-05-27 11:32:05,1558927956,AY4A2aoAAAFq91fiOwABB84AAFG6,http://pb.api.weq.com/v1.4/event?click_id=AY4A2aoAAAFq91fiOwABB84AAFG6,idfa_20BA8BB9-8B9B-46B8-B1AC-E88E9614BC9B,ko-KR
e9lJDF_HT3-mtzi3MaSlEg,crobo,20922_415_23_759623_05956-053063_cce78db4897f_20922_415_23_759623_05956-053063_cce78db4897f,Install,3.5,218.239.39.27,C83DE6FD-B976-493C-9F7D-B95439A06300,1559016338,2019-05-28 12:05:38,1559016469,2019-05-28 12:07:49,1559016501,AR9xQTQAAAFq_J0zKAABB84AAFG6,http://pb.api.weq.com/v1.4/event?click_id=AR9xQTQAAAFq_J0zKAABB84AAFG6,idfa_C83DE6FD-B976-493C-9F7D-B95439A06300,ko-KR
e9lJDF_HT3-mtzi3MaSlEg,crobo,20922_415_23_759623_05565-05AT7pn7qq9haj048zd3gh6xvbtfy_480153od5b2k_20922_415_23_759623_05565-05AT7pn7qq9haj048zd3gh6xvbtfy_480153od5b2k,Install,3.5,211.199.43.185,F3FEEF1F-BBB5-4E22-BA06-82FCDFDAD88F,1558971376,2019-05-27 23:36:16,1558971450,2019-05-27 23:37:30,1558971481,Ad4OwcQAAAFq-e8WDAABB84AAFG6,http://pb.api.weq.com/v1.4/event?click_id=Ad4OwcQAAAFq-e8WDAABB84AAFG6,idfa_F3FEEF1F-BBB5-4E22-BA06-82FCDFDAD88F,ko-KR
e9lJDF_HT3-mtzi3MaSlEg,crobo,20922_415_23_759623_05956-053063_644e8ddb5e1b_20922_415_23_759623_05956-053063_644e8ddb5e1b,Install,3.5,121.66.149.11,8768C833-7D18-443D-96D6-72BDFBB356A1,1559016629,2019-05-28 12:10:29,1559016739,2019-05-28 12:12:19,1559016770,AR58iCgAAAFq_KGjswABB84AAFG6,http://pb.api.weq.com/v1.4/event?click_id=AR58iCgAAAFq_KGjswABB84AAFG6,idfa_8768C833-7D18-443D-96D6-72BDFBB356A1,ko-KR
e9lJDF_HT3-mtzi3MaSlEg,crobo,20922_415_23_759623_05788-05363_485_d586c0540da3_20922_415_23_759623_05788-05363_485_d586c0540da3,Install,3.5,58.122.69.13,49A937FC-EDCC-42F0-81EB-5855B4A881BF,1558891258,2019-05-27 01:20:58,1558891368,2019-05-27 01:22:48,1558891399,ATdpDyYAAAFq9SiikwABB84AAFG6,http://pb.api.weq.com/v1.4/event?click_id=ATdpDyYAAAFq9SiikwABB84AAFG6,idfa_49A937FC-EDCC-42F0-81EB-5855B4A881BF,ko-KR
e9lJDF_HT3-mtzi3MaSlEg,crobo,20922_415_17_10010_15_05718-05125_N_1030_2562_1028601_20922_415_17_10010_15_05718-05125_N_1030_2562_1028601,Install,3.5,121.156.255.85,942924BE-E892-46D6-99C9-C0CF1F0A83E7,1558632928,2019-05-24 01:35:28,1558632990,2019-05-24 01:36:30,1558633021,AV0fwHkAAAFq5cLSxAABB84AAFG6,http://pb.api.weq.com/v1.4/event?click_id=AV0fwHkAAAFq5cLSxAABB84AAFG6,idfa_942924BE-E892-46D6-99C9-C0CF1F0A83E7,en-GB
e9lJDF_HT3-mtzi3MaSlEg,crobo,20922_415_23_759623_05565-05AT3289haatpkqhf586f3hk6rlef_8rkzpgtarnyu_20922_415_23_759623_05565-05AT3289haatpkqhf586f3hk6rlef_8rkzpgtarnyu,Install,3.5,58.123.221.140,5E3A713B-4B5E-473A-96C5-C9A0BA842631,1558936381,2019-05-27 13:53:01,1558936496,2019-05-27 13:54:56,1558936527,AR2lhuUAAAFq99k4HgABB84AAFG6,http://pb.api.weq.com/v1.4/event?click_id=AR2lhuUAAAFq99k4HgABB84AAFG6,idfa_5E3A713B-4B5E-473A-96C5-C9A0BA842631,ko-KR
e9lJDF_HT3-mtzi3MaSlEg,crobo,20922_415_23_759623_05788-05363_485_872392f4e42e_20922_415_23_759623_05788-05363_485_872392f4e42e,Install,3.5,183.109.174.223,9D71BC0E-DB8C-407F-9F60-78050BA32120,1558891256,2019-05-27 01:20:56,1558891359,2019-05-27 01:22:39,1558891390,AcOFkQMAAAFq9SidJwABB84AAFG6,http://pb.api.weq.com/v1.4/event?click_id=AcOFkQMAAAFq9SidJwABB84AAFG6,idfa_9D71BC0E-DB8C-407F-9F60-78050BA32120,ko-KR
e9lJDF_HT3-mtzi3MaSlEg,crobo,20922_415_23_759623_05788-05363_184_12247_145329_20922_415_23_759623_05788-05363_184_12247_145329,Install,3.5,220.71.29.247,34B607FB-4FAF-4AE7-AB3E-F7284DDE3BA6,1559003697,2019-05-28 08:34:57,1559003755,2019-05-28 08:35:55,1559003785,ARA-JJ4AAAFq-9x_-AABB84AAFG6,http://pb.api.weq.com/v1.4/event?click_id=ARA-JJ4AAAFq-9x_-AABB84AAFG6,idfa_34B607FB-4FAF-4AE7-AB3E-F7284DDE3BA6,ko-KR
e9lJDF_HT3-mtzi3MaSlEg,crobo,20922_357_48_892-53s__212_20922_357_48_892-53s__212,Install,3.5,121.152.137.21,81B05471-4B08-436D-B5A8-4F737D64FABF,1559263652,2019-05-31 08:47:32,1559263721,2019-05-31 08:48:41,1559263751,AUrh4HQAAAFrC1sRYgABB84AAFG6,http://pb.api.weq.com/v1.4/event?click_id=AUrh4HQAAAFrC1sRYgABB84AAFG6,idfa_81B05471-4B08-436D-B5A8-4F737D64FABF,ko-KR
e9lJDF_HT3-mtzi3MaSlEg,crobo,20922_415_23_759623_05788-05363_1539_1030_3063_73c7d0a2abde_20922_415_23_759623_05788-05363_1539_1030_3063_73c7d0a2abde,Install,3.5,221.146.21.41,65676B98-DF3A-421D-BFEF-2491504E0865,1558982001,2019-05-28 02:33:21,1558982089,2019-05-28 02:34:49,1558982120,AW5--uwAAAFq-pFW1AABB84AAFG6,http://pb.api.weq.com/v1.4/event?click_id=AW5--uwAAAFq-pFW1AABB84AAFG6,idfa_65676B98-DF3A-421D-BFEF-2491504E0865,ko-KR
e9lJDF_HT3-mtzi3MaSlEg,crobo,20922_357_48_741-12211_20922_357_48_741-12211,Install,3.5,222.239.251.60,6109823F-9DE8-4F4A-87FE-DC0A927D931B,1559238280,2019-05-31 01:44:40,1559238366,2019-05-31 01:46:06,1559238396,Afy8ZKgAAAFrCdf1vQABB84AAFG6,http://pb.api.weq.com/v1.4/event?click_id=Afy8ZKgAAAFrCdf1vQABB84AAFG6,idfa_6109823F-9DE8-4F4A-87FE-DC0A927D931B,ko-KR
e9lJDF_HT3-mtzi3MaSlEg,crobo,20922_415_23_759623_05788-05363_485_5bab8761b3c8_20922_415_23_759623_05788-05363_485_5bab8761b3c8,Install,3.5,14.6.178.60,D76475D3-8FFA-4899-87DE-7B4710A304EB,1558891378,2019-05-27 01:22:58,1558891527,2019-05-27 01:25:27,1558891558,ARyNt8sAAAFq9Sp1fAABB84AAFG6,http://pb.api.weq.com/v1.4/event?click_id=ARyNt8sAAAFq9Sp1fAABB84AAFG6,idfa_D76475D3-8FFA-4899-87DE-7B4710A304EB,ko-KR
e9lJDF_HT3-mtzi3MaSlEg,crobo,20922_415_23_759623_05565-05AT3ggcz90qgf5j5zl5g1gubiq0k_4ynsz36kwnkc_20922_415_23_759623_05565-05AT3ggcz90qgf5j5zl5g1gubiq0k_4ynsz36kwnkc,Install,3.5,121.176.151.34,0E9F5A2A-B1AF-4264-A954-0831DA174911,1558925329,2019-05-27 10:48:49,1558925535,2019-05-27 10:52:15,1558925566,AeFMiW4AAAFq9zCW-AABB84AAFG6,http://pb.api.weq.com/v1.4/event?click_id=AeFMiW4AAAFq9zCW-AABB84AAFG6,idfa_0E9F5A2A-B1AF-4264-A954-0831DA174911,ko-KR
e9lJDF_HT3-mtzi3MaSlEg,crobo,20922_415_23_759623_05721-05mob226d7285809856f5_20922_415_23_759623_05721-05mob226d7285809856f5,Install,3.5,203.251.141.89,4FA01C14-076B-4D40-AC5E-E3685679C262,1559079866,2019-05-29 05:44:26,1559080021,2019-05-29 05:47:01,1559080052,AYck4qUAAAFrAGaE2wABB84AAFG6,http://pb.api.weq.com/v1.4/event?click_id=AYck4qUAAAFrAGaE2wABB84AAFG6,idfa_4FA01C14-076B-4D40-AC5E-E3685679C262,ko-KR
e9lJDF_HT3-mtzi3MaSlEg,crobo,20922_415_23_759623_05788-05363_485_32214682e4be_20922_415_23_759623_05788-05363_485_32214682e4be,Install,3.5,168.131.148.72,7F09ECC2-648E-40B9-BDE1-2873CCA4F7C5,1558890664,2019-05-27 01:11:04,1558890790,2019-05-27 01:13:10,1558890822,AXWVsD8AAAFq9R_GWQABB84AAFG6,http://pb.api.weq.com/v1.4/event?click_id=AXWVsD8AAAFq9R_GWQABB84AAFG6,idfa_7F09ECC2-648E-40B9-BDE1-2873CCA4F7C5,ko-KR
e9lJDF_HT3-mtzi3MaSlEg,crobo,20922_415_23_759623_05788-05363_184_12247_145329_20922_415_23_759623_05788-05363_184_12247_145329,Install,3.5,115.21.226.248,7509D6F7-650D-4A32-AB1F-E5F5F1CDA32E,1559003284,2019-05-28 08:28:04,1559003352,2019-05-28 08:29:12,1559003382,AROZnk8AAAFq-9YyYQABB84AAFG6,http://pb.api.weq.com/v1.4/event?click_id=AROZnk8AAAFq-9YyYQABB84AAFG6,idfa_7509D6F7-650D-4A32-AB1F-E5F5F1CDA32E,ko-KR
e9lJDF_HT3-mtzi3MaSlEg,crobo,20922_415_23_759623_05721-05mob226d7285809856f5_20922_415_23_759623_05721-05mob226d7285809856f5,Install,3.5,116.45.79.118,C4638893-24C7-497E-91CE-FA1341E1EFE2,1558978898,2019-05-28 01:41:38,1558979642,2019-05-28 01:54:02,1558979673,AZHKe_kAAAFq-mHzXwABB84AAFG6,http://pb.api.weq.com/v1.4/event?click_id=AZHKe_kAAAFq-mHzXwABB84AAFG6,idfa_C4638893-24C7-497E-91CE-FA1341E1EFE2,ko-KR
e9lJDF_HT3-mtzi3MaSlEg,crobo,20922_415_23_759623_05956-053063_47cd18ce8f8b_20922_415_23_759623_05956-053063_47cd18ce8f8b,Install,3.5,118.35.3.159,564C9D85-C1C4-4933-8845-3398E11E991B,1559016217,2019-05-28 12:03:37,1559016362,2019-05-28 12:06:02,1559016396,AcnTAdgAAAFq_JtbOQABB84AAFG6,http://pb.api.weq.com/v1.4/event?click_id=AcnTAdgAAAFq_JtbOQABB84AAFG6,idfa_564C9D85-C1C4-4933-8845-3398E11E991B,ko-KR
e9lJDF_HT3-mtzi3MaSlEg,crobo,20922_415_23_759623_05721-05mob226d7285809856f5_20922_415_23_759623_05721-05mob226d7285809856f5,Install,3.5,218.237.79.16,590C5514-6050-4A0E-9CBF-AE84E1FD18FB,1558987905,2019-05-28 04:11:45,1558988013,2019-05-28 04:13:33,1558988044,AZ1KQn8AAAFq-utoxwABB84AAFG6,http://pb.api.weq.com/v1.4/event?click_id=AZ1KQn8AAAFq-utoxwABB84AAFG6,idfa_590C5514-6050-4A0E-9CBF-AE84E1FD18FB,ko-KR
e9lJDF_HT3-mtzi3MaSlEg,crobo,20922_415_23_759623_05788-05363_485_20922_415_23_759623_05788-05363_485,Install,3.5,121.148.204.215,E3C33A58-C1D8-472D-9AF6-F82508B4F254,1559180857,2019-05-30 09:47:37,1559180996,2019-05-30 09:49:56,1559181027,AaAIbpMAAAFrBmukvAABB84AAFG6,http://pb.api.weq.com/v1.4/event?click_id=AaAIbpMAAAFrBmukvAABB84AAFG6,idfa_E3C33A58-C1D8-472D-9AF6-F82508B4F254,ko-KR
e9lJDF_HT3-mtzi3MaSlEg,crobo,20922_415_17_10010_15_05718-05125_N_1030_2562_1028601_20922_415_17_10010_15_05718-05125_N_1030_2562_1028601,Install,3.5,110.47.59.97,FF81273F-EDBC-45BF-88CE-177C93A24962,1558632474,2019-05-24 01:27:54,1558632513,2019-05-24 01:28:33,1558632562,ARd3FdsAAAFq5bvSEAABB84AAFG6,http://pb.api.weq.com/v1.4/event?click_id=ARd3FdsAAAFq5bvSEAABB84AAFG6,idfa_FF81273F-EDBC-45BF-88CE-177C93A24962,en-GB
e9lJDF_HT3-mtzi3MaSlEg,crobo,20922_415_23_759623_05788-05363_1539_1030_3063_4cbedc741d6c_20922_415_23_759623_05788-05363_1539_1030_3063_4cbedc741d6c,Install,3.5,119.75.88.97,160488C1-3E85-4EB6-B40C-88AAAE9A8CF7,1558982609,2019-05-28 02:43:29,1558982712,2019-05-28 02:45:12,1558982742,AWZvuosAAAFq-pqGyAABB84AAFG6,http://pb.api.weq.com/v1.4/event?click_id=AWZvuosAAAFq-pqGyAABB84AAFG6,idfa_160488C1-3E85-4EB6-B40C-88AAAE9A8CF7,ko-KR
e9lJDF_HT3-mtzi3MaSlEg,crobo,20922_357_48_892-53s__212_20922_357_48_892-53s__212,Install,3.5,118.223.196.124,54D777F3-F4D6-4AFF-97DC-A820CE15465B,1559263643,2019-05-31 08:47:23,1559263719,2019-05-31 08:48:39,1559263750,AXWxKQcAAAFrC1r1-AABB84AAFG6,http://pb.api.weq.com/v1.4/event?click_id=AXWxKQcAAAFrC1r1-AABB84AAFG6,idfa_54D777F3-F4D6-4AFF-97DC-A820CE15465B,ko-KR
e9lJDF_HT3-mtzi3MaSlEg,crobo,20922_415_23_759623_05956-053063_695734781401_20922_415_23_759623_05956-053063_695734781401,Install,3.5,121.171.220.127,B1142FB9-95CB-4819-8E5C-CE73ED3D98C1,1559016497,2019-05-28 12:08:17,1559016600,2019-05-28 12:10:00,1559016631,AcQrR20AAAFq_J-dgAABB84AAFG6,http://pb.api.weq.com/v1.4/event?click_id=AcQrR20AAAFq_J-dgAABB84AAFG6,idfa_B1142FB9-95CB-4819-8E5C-CE73ED3D98C1,ko-KR
e9lJDF_HT3-mtzi3MaSlEg,crobo,20922_415_23_759623_05788-05363_1458_112_955902_1290_20922_415_23_759623_05788-05363_1458_112_955902_1290,Install,3.5,211.228.218.67,B3F07529-125C-438C-AB63-C802F247E7FB,1558922771,2019-05-27 10:06:11,1558922884,2019-05-27 10:08:04,1558922931,Aa9qoKIAAAFq9wmYAAABB84AAFG6,http://pb.api.weq.com/v1.4/event?click_id=Aa9qoKIAAAFq9wmYAAABB84AAFG6,idfa_B3F07529-125C-438C-AB63-C802F247E7FB,ko-KR
e9lJDF_HT3-mtzi3MaSlEg,crobo,20922_415_23_759623_05788-05363_184_12247_145329_20922_415_23_759623_05788-05363_184_12247_145329,Install,3.5,220.71.29.247,0A092653-05A4-4669-AAA8-CA5735CD2595,1559004153,2019-05-28 08:42:33,1559004217,2019-05-28 08:43:37,1559004248,AbUr4W8AAAFq--NxpgABB84AAFG6,http://pb.api.weq.com/v1.4/event?click_id=AbUr4W8AAAFq--NxpgABB84AAFG6,idfa_0A092653-05A4-4669-AAA8-CA5735CD2595,ko-KR
e9lJDF_HT3-mtzi3MaSlEg,crobo,20922_415_23_759623_05788-05363_184_12247_145329_20922_415_23_759623_05788-05363_184_12247_145329,Install,3.5,220.116.230.50,851E8230-E91B-449E-A773-DCBF0DE7409C,1559003283,2019-05-28 08:28:03,1559003342,2019-05-28 08:29:02,1559003372,AflRRpQAAAFq-9YxtgABB84AAFG6,http://pb.api.weq.com/v1.4/event?click_id=AflRRpQAAAFq-9YxtgABB84AAFG6,idfa_851E8230-E91B-449E-A773-DCBF0DE7409C,ko-KR
e9lJDF_HT3-mtzi3MaSlEg,crobo,20922_357_48_892-53s__212_20922_357_48_892-53s__212,Install,3.5,175.230.254.62,7CC8C953-FD17-417E-B06A-40A1127E63AD,1559263661,2019-05-31 08:47:41,1559263733,2019-05-31 08:48:53,1559263764,Ab4dVwMAAAFrC1sY5QABB84AAFG6,http://pb.api.weq.com/v1.4/event?click_id=Ab4dVwMAAAFrC1sY5QABB84AAFG6,idfa_7CC8C953-FD17-417E-B06A-40A1127E63AD,ko-KR
e9lJDF_HT3-mtzi3MaSlEg,crobo,20922_415_23_759623_05788-05363_485_12f4ef1c5984_20922_415_23_759623_05788-05363_485_12f4ef1c5984,Install,3.5,123.200.106.147,636F3D06-B2A9-4A0C-94AB-858136182D72,1558891263,2019-05-27 01:21:03,1558891378,2019-05-27 01:22:58,1558891408,AcyJq0MAAAFq9Si0_gABB84AAFG6,http://pb.api.weq.com/v1.4/event?click_id=AcyJq0MAAAFq9Si0_gABB84AAFG6,idfa_636F3D06-B2A9-4A0C-94AB-858136182D72,ko-KR
e9lJDF_HT3-mtzi3MaSlEg,crobo,20922_431_15_05741-0513398_20922_431_15_05741-0513398,Install,3.5,58.123.57.133,A5E24535-EE45-4787-883C-75A63012CE4D,1559195528,2019-05-30 13:52:08,1559195656,2019-05-30 13:54:16,1559195686,ASPODc4AAAFrB0tntgABB84AAFG6,http://pb.api.weq.com/v1.4/event?click_id=ASPODc4AAAFrB0tntgABB84AAFG6,idfa_A5E24535-EE45-4787-883C-75A63012CE4D,ko-KR
e9lJDF_HT3-mtzi3MaSlEg,crobo,20922_415_23_759623_05956-053063_47cd18ce8f8b_20922_415_23_759623_05956-053063_47cd18ce8f8b,Install,3.5,1.222.49.85,E2C07D13-1556-403E-8CD2-229D5E8E4F10,1559015832,2019-05-28 11:57:12,1559015951,2019-05-28 11:59:11,1559015981,AbxTVIwAAAFq_JV1qQABB84AAFG6,http://pb.api.weq.com/v1.4/event?click_id=AbxTVIwAAAFq_JV1qQABB84AAFG6,idfa_E2C07D13-1556-403E-8CD2-229D5E8E4F10,ko-KR
e9lJDF_HT3-mtzi3MaSlEg,crobo,20922_357_48_741-12211_20922_357_48_741-12211,Install,3.5,112.220.210.10,581B5195-71C1-4908-BE72-3EBF0315B38E,1559238230,2019-05-31 01:43:50,1559238316,2019-05-31 01:45:16,1559238346,AQR6AjkAAAFrCdcp-QABB84AAFG6,http://pb.api.weq.com/v1.4/event?click_id=AQR6AjkAAAFrCdcp-QABB84AAFG6,idfa_581B5195-71C1-4908-BE72-3EBF0315B38E,ko-KR
e9lJDF_HT3-mtzi3MaSlEg,crobo,20922_431_15_05741-0513306_20922_431_15_05741-0513306,Install,3.5,182.211.96.19,B8886AD2-5B52-4A60-A851-AB36909613D7,1559202608,2019-05-30 15:50:08,1559202990,2019-05-30 15:56:30,1559203021,AXP2P6AAAAFrB7dujQABB84AAFG6,http://pb.api.weq.com/v1.4/event?click_id=AXP2P6AAAAFrB7dujQABB84AAFG6,idfa_B8886AD2-5B52-4A60-A851-AB36909613D7,ko-KR
e9lJDF_HT3-mtzi3MaSlEg,crobo,20922_214_3679_20922_214_3679,Install,3.5,220.94.186.71,DC7CFDDA-5D88-4F1B-9D44-82B79F9E83EA,1558763886,2019-05-25 13:58:06,1558764729,2019-05-25 14:12:09,1558764759,ASW4JRUAAAFq7ZFUzQABB84AAFG6,http://pb.api.weq.com/v1.4/event?click_id=ASW4JRUAAAFq7ZFUzQABB84AAFG6,idfa_DC7CFDDA-5D88-4F1B-9D44-82B79F9E83EA,ko-KR
e9lJDF_HT3-mtzi3MaSlEg,crobo,20922_415_17_10010_15_05718-05125_N_1030_2562_1028601_20922_415_17_10010_15_05718-05125_N_1030_2562_1028601,Install,3.5,211.104.59.88,8DF6E385-CC1D-49F0-A634-2D938F71E162,1558632404,2019-05-24 01:26:44,1558632467,2019-05-24 01:27:47,1558632498,AQDoRTMAAAFq5brVQAABB84AAFG6,http://pb.api.weq.com/v1.4/event?click_id=AQDoRTMAAAFq5brVQAABB84AAFG6,idfa_8DF6E385-CC1D-49F0-A634-2D938F71E162,en-GB
e9lJDF_HT3-mtzi3MaSlEg,crobo,20922_214_56076613_20922_214_56076613,Install,3.5,182.227.193.141,F507EC17-D0E1-4CDE-B23E-EAA91411E880,1558876101,2019-05-26 21:08:21,1558878890,2019-05-26 21:54:50,1558878923,AQPJob4AAAFq9EGSZwABB84AAFG6,http://pb.api.weq.com/v1.4/event?click_id=AQPJob4AAAFq9EGSZwABB84AAFG6,idfa_F507EC17-D0E1-4CDE-B23E-EAA91411E880,ko-KR
e9lJDF_HT3-mtzi3MaSlEg,crobo,20922_415_23_759623_05788-05363_184_12247_145329_20922_415_23_759623_05788-05363_184_12247_145329,Install,3.5,106.249.135.226,86F568D4-B4CE-48CF-A7FA-DE0289052C0B,1559004150,2019-05-28 08:42:30,1559004219,2019-05-28 08:43:39,1559004253,AXogPzoAAAFq--NBbAABB84AAFG6,http://pb.api.weq.com/v1.4/event?click_id=AXogPzoAAAFq--NBbAABB84AAFG6,idfa_86F568D4-B4CE-48CF-A7FA-DE0289052C0B,ko-KR
e9lJDF_HT3-mtzi3MaSlEg,crobo,20922_415_17_10010_15_05565-05AT3or4mkirjrl80rocbqz063vin_jdxpxs0x6e88_20922_415_17_10010_15_05565-05AT3or4mkirjrl80rocbqz063vin_jdxpxs0x6e88,Install,3.5,119.193.251.116,04CBE313-4D2D-4DAD-866D-2DFFC5C615F7,1558941969,2019-05-27 15:26:09,1558942060,2019-05-27 15:27:40,1558942091,AWoxVbkAAAFq-C5imgABB84AAFG6,http://pb.api.weq.com/v1.4/event?click_id=AWoxVbkAAAFq-C5imgABB84AAFG6,idfa_04CBE313-4D2D-4DAD-866D-2DFFC5C615F7,ko-KR
e9lJDF_HT3-mtzi3MaSlEg,crobo,20922_415_23_759623_05788-05363_1539_1030_3063_06b4dba2a58b_20922_415_23_759623_05788-05363_1539_1030_3063_06b4dba2a58b,Install,3.5,220.88.78.16,8BE91A05-04C8-4426-AAE5-76E5DFD7CBB6,1558982607,2019-05-28 02:43:27,1558982729,2019-05-28 02:45:29,1558982760,AXyKvmQAAAFq-pp4swABB84AAFG6,http://pb.api.weq.com/v1.4/event?click_id=AXyKvmQAAAFq-pp4swABB84AAFG6,idfa_8BE91A05-04C8-4426-AAE5-76E5DFD7CBB6,ko-KR
e9lJDF_HT3-mtzi3MaSlEg,crobo,20922_415_23_759623_05788-05363_1539_1030_3063_06b4dba2a58b_20922_415_23_759623_05788-05363_1539_1030_3063_06b4dba2a58b,Install,3.5,220.124.223.3,0E84767C-F2BD-4F08-A6BF-B3484DEFB006,1558982300,2019-05-28 02:38:20,1558982410,2019-05-28 02:40:10,1558982440,AVKSw0IAAAFq-pXhbwABB84AAFG6,http://pb.api.weq.com/v1.4/event?click_id=AVKSw0IAAAFq-pXhbwABB84AAFG6,idfa_0E84767C-F2BD-4F08-A6BF-B3484DEFB006,ko-KR
e9lJDF_HT3-mtzi3MaSlEg,crobo,20922_415_23_759623_05956-053063_644e8ddb5e1b_20922_415_23_759623_05956-053063_644e8ddb5e1b,Install,3.5,1.229.120.153,30A00241-FB64-4496-9BC1-8A4395619D88,1559016205,2019-05-28 12:03:25,1559016312,2019-05-28 12:05:12,1559016343,AVwmmQkAAAFq_JsjpwABB84AAFG6,http://pb.api.weq.com/v1.4/event?click_id=AVwmmQkAAAFq_JsjpwABB84AAFG6,idfa_30A00241-FB64-4496-9BC1-8A4395619D88,ko-KR
e9lJDF_HT3-mtzi3MaSlEg,crobo,20922_415_23_759623_05788-05363_184_12247_145329_20922_415_23_759623_05788-05363_184_12247_145329,Install,3.5,125.143.229.253,ED88D722-FA1D-4FD4-8286-AAE19D0F0191,1559003801,2019-05-28 08:36:41,1559003868,2019-05-28 08:37:48,1559003899,Adb24MgAAAFq-94Q1AABB84AAFG6,http://pb.api.weq.com/v1.4/event?click_id=Adb24MgAAAFq-94Q1AABB84AAFG6,idfa_ED88D722-FA1D-4FD4-8286-AAE19D0F0191,ko-KR
e9lJDF_HT3-mtzi3MaSlEg,crobo,20922_214_2167_20922_214_2167,Install,3.5,175.223.21.111,74B6A238-81EC-4A49-99A2-012C9D057D5E,1558833929,2019-05-26 09:25:29,1558833976,2019-05-26 09:26:16,1558834007,AcU0uKsAAAFq8b4ThQABB84AAFG6,http://pb.api.weq.com/v1.4/event?click_id=AcU0uKsAAAFq8b4ThQABB84AAFG6,idfa_74B6A238-81EC-4A49-99A2-012C9D057D5E,ko-KR
e9lJDF_HT3-mtzi3MaSlEg,crobo,20922_415_23_759623_05956-052622_pt_7952_20922_415_23_759623_05956-052622_pt_7952,Install,3.5,124.54.18.29,F3E85606-378C-4D7B-96D0-D8B2B36347E1,1559236137,2019-05-31 01:08:57,1559236209,2019-05-31 01:10:09,1559236241,AadX9qkAAAFrCbca2gABB84AAFG6,http://pb.api.weq.com/v1.4/event?click_id=AadX9qkAAAFrCbca2gABB84AAFG6,idfa_F3E85606-378C-4D7B-96D0-D8B2B36347E1,en-GB
e9lJDF_HT3-mtzi3MaSlEg,crobo,20922_415_23_759623_05788-05363_485_aaaf39ab867b_20922_415_23_759623_05788-05363_485_aaaf39ab867b,Install,3.5,58.127.63.122,2C9BD9CD-06C7-4F54-A4BB-2D7D27BBD345,1558891290,2019-05-27 01:21:30,1558891410,2019-05-27 01:23:30,1558891441,AW3YPyoAAAFq9SkiLAABB84AAFG6,http://pb.api.weq.com/v1.4/event?click_id=AW3YPyoAAAFq9SkiLAABB84AAFG6,idfa_2C9BD9CD-06C7-4F54-A4BB-2D7D27BBD345,ko-KR
e9lJDF_HT3-mtzi3MaSlEg,crobo,20922_415_23_759623_05565-05AT9ced8mai1v6kzt0xxgg7dqwiw_2amzagldi8ql_20922_415_23_759623_05565-05AT9ced8mai1v6kzt0xxgg7dqwiw_2amzagldi8ql,Install,3.5,116.46.147.188,D0AC26DF-75D1-48FD-A5AF-04552C3BCAB5,1558987873,2019-05-28 04:11:13,1558987976,2019-05-28 04:12:56,1558988007,AVnvIrcAAAFq-ur_4gABB84AAFG6,http://pb.api.weq.com/v1.4/event?click_id=AVnvIrcAAAFq-ur_4gABB84AAFG6,idfa_D0AC26DF-75D1-48FD-A5AF-04552C3BCAB5,ko-KR
e9lJDF_HT3-mtzi3MaSlEg,crobo,20922_415_17_10010_15_05565-05AT3or4mkirjrl80rocbqz063vin_jdxpxs0x6e88_20922_415_17_10010_15_05565-05AT3or4mkirjrl80rocbqz063vin_jdxpxs0x6e88,Install,3.5,211.253.82.235,38605105-750F-4D3B-A52F-16720732A2CA,1558939789,2019-05-27 14:49:49,1558939870,2019-05-27 14:51:10,1558939901,AXnx2zIAAAFq-A0ghAABB84AAFG6,http://pb.api.weq.com/v1.4/event?click_id=AXnx2zIAAAFq-A0ghAABB84AAFG6,idfa_38605105-750F-4D3B-A52F-16720732A2CA,ko-KR
e9lJDF_HT3-mtzi3MaSlEg,crobo,20922_415_23_759623_05741-0513398_20922_415_23_759623_05741-0513398,Install,3.5,125.189.161.58,9DA3865C-A1AD-4BB7-B93A-9E73485A0BD3,1558764658,2019-05-25 14:10:58,1558764935,2019-05-25 14:15:35,1558764966,AafnbooAAAFq7ZzjgwABB84AAFG6,http://pb.api.weq.com/v1.4/event?click_id=AafnbooAAAFq7ZzjgwABB84AAFG6,idfa_9DA3865C-A1AD-4BB7-B93A-9E73485A0BD3,ko-KR
e9lJDF_HT3-mtzi3MaSlEg,crobo,20922_431_15_05905-05463_20922_431_15_05905-05463,Install,3.5,211.202.42.111,3CE2FA81-4DD0-43F6-8C5E-15882C8DD6BF,1559204418,2019-05-30 16:20:18,1559204499,2019-05-30 16:21:39,1559204529,AYbBY3EAAAFrB9ND7wABB84AAFG6,http://pb.api.weq.com/v1.4/event?click_id=AYbBY3EAAAFrB9ND7wABB84AAFG6,idfa_3CE2FA81-4DD0-43F6-8C5E-15882C8DD6BF,ko-KR
e9lJDF_HT3-mtzi3MaSlEg,crobo,20922_415_17_10010_15_05718-05125_N_1030_2562_1028601_20922_415_17_10010_15_05718-05125_N_1030_2562_1028601,Install,3.5,203.234.105.16,AED11683-2869-427C-AC61-CF9A62C29BA1,1558633215,2019-05-24 01:40:15,1558633283,2019-05-24 01:41:23,1558633314,ASVLG9YAAAFq5ccUmQABB84AAFG6,http://pb.api.weq.com/v1.4/event?click_id=ASVLG9YAAAFq5ccUmQABB84AAFG6,idfa_AED11683-2869-427C-AC61-CF9A62C29BA1,en-GB
e9lJDF_HT3-mtzi3MaSlEg,crobo,20922_357_48_741-12211_20922_357_48_741-12211,Install,3.5,211.169.209.130,3ED0FE7B-C3B1-4651-A885-8F2B72039FD1,1559238534,2019-05-31 01:48:54,1559238625,2019-05-31 01:50:25,1559238656,AWWki1MAAAFrCdvWawABB84AAFG6,http://pb.api.weq.com/v1.4/event?click_id=AWWki1MAAAFrCdvWawABB84AAFG6,idfa_3ED0FE7B-C3B1-4651-A885-8F2B72039FD1,ko-KR
e9lJDF_HT3-mtzi3MaSlEg,crobo,20922_357_48_892-53s__212_20922_357_48_892-53s__212,Install,3.5,211.220.169.67,D4483E3A-C2DB-47E8-8A2F-4785DDFA5164,1559264083,2019-05-31 08:54:43,1559264144,2019-05-31 08:55:44,1559264174,AVhU9CsAAAFrC2GckAABB84AAFG6,http://pb.api.weq.com/v1.4/event?click_id=AVhU9CsAAAFrC2GckAABB84AAFG6,idfa_D4483E3A-C2DB-47E8-8A2F-4785DDFA5164,ko-KR
e9lJDF_HT3-mtzi3MaSlEg,crobo,20922_357_48_892-53s__212_20922_357_48_892-53s__212,Install,3.5,222.100.130.21,4DE01E43-CB4E-4B01-A002-63E187AFC9C4,1559264190,2019-05-31 08:56:30,1559264250,2019-05-31 08:57:30,1559264281,AWK5xkMAAAFrC2MqgQABB84AAFG6,http://pb.api.weq.com/v1.4/event?click_id=AWK5xkMAAAFrC2MqgQABB84AAFG6,idfa_4DE01E43-CB4E-4B01-A002-63E187AFC9C4,ko-KR
e9lJDF_HT3-mtzi3MaSlEg,crobo,20922_415_23_759623_05565-05AT3or4mkirjrl80rocbqz063vin_jdxpxs0x6e88_20922_415_23_759623_05565-05AT3or4mkirjrl80rocbqz063vin_jdxpxs0x6e88,Install,3.5,14.7.50.183,1892C403-09F5-4336-B861-FAE7DE5F2FA2,1558885485,2019-05-26 23:44:45,1558885584,2019-05-26 23:46:24,1558885615,AX6tJs4AAAFq9NCsHAABB84AAFG6,http://pb.api.weq.com/v1.4/event?click_id=AX6tJs4AAAFq9NCsHAABB84AAFG6,idfa_1892C403-09F5-4336-B861-FAE7DE5F2FA2,ko-KR
e9lJDF_HT3-mtzi3MaSlEg,crobo,20922_415_23_759623_05788-05363_485_94e5d32ce155_20922_415_23_759623_05788-05363_485_94e5d32ce155,Install,3.5,183.108.58.84,419C1409-EC54-4F4B-BDB2-4C72048F09B2,1558891242,2019-05-27 01:20:42,1558891351,2019-05-27 01:22:31,1558891382,AZez9moAAAFq9Shg9AABB84AAFG6,http://pb.api.weq.com/v1.4/event?click_id=AZez9moAAAFq9Shg9AABB84AAFG6,idfa_419C1409-EC54-4F4B-BDB2-4C72048F09B2,ko-KR
e9lJDF_HT3-mtzi3MaSlEg,crobo,20922_415_23_759623_05788-05363_184_12247_145329_20922_415_23_759623_05788-05363_184_12247_145329,Install,3.5,220.116.230.50,925954A5-96CF-4E0D-8C98-563D450FF61F,1559003283,2019-05-28 08:28:03,1559003332,2019-05-28 08:28:52,1559003363,AayTnawAAAFq-9YxCQABB84AAFG6,http://pb.api.weq.com/v1.4/event?click_id=AayTnawAAAFq-9YxCQABB84AAFG6,idfa_925954A5-96CF-4E0D-8C98-563D450FF61F,ko-KR
e9lJDF_HT3-mtzi3MaSlEg,crobo,20922_415_23_759623_05956-053063_1b908c771c1a_20922_415_23_759623_05956-053063_1b908c771c1a,Install,3.5,59.2.40.50,7EF289DF-1E2A-45B2-AB58-1357B14098ED,1558834998,2019-05-26 09:43:18,1558835101,2019-05-26 09:45:01,1558835133,AfEsEyIAAAFq8c41SAABB84AAFG6,http://pb.api.weq.com/v1.4/event?click_id=AfEsEyIAAAFq8c41SAABB84AAFG6,idfa_7EF289DF-1E2A-45B2-AB58-1357B14098ED,ko-KR
e9lJDF_HT3-mtzi3MaSlEg,crobo,20922_415_23_759623_05565-05AT3or4mkirjrl80rocbqz063vin_jdxpxs0x6e88_20922_415_23_759623_05565-05AT3or4mkirjrl80rocbqz063vin_jdxpxs0x6e88,Install,3.5,114.204.161.44,B1FFE0AC-4CF0-47C1-8D84-A599EF03CA9E,1558864577,2019-05-26 17:56:17,1558864667,2019-05-26 17:57:47,1558864699,AWCQ1U8AAAFq85F5CQABB84AAFG6,http://pb.api.weq.com/v1.4/event?click_id=AWCQ1U8AAAFq85F5CQABB84AAFG6,idfa_B1FFE0AC-4CF0-47C1-8D84-A599EF03CA9E,ko-KR
e9lJDF_HT3-mtzi3MaSlEg,crobo,20922_415_23_759623_05788-05363_485_3065df07e8c6_20922_415_23_759623_05788-05363_485_3065df07e8c6,Install,3.5,118.36.221.155,91302789-B292-48EF-BD02-DD02A17A0B78,1558891051,2019-05-27 01:17:31,1558891153,2019-05-27 01:19:13,1558891183,ASoPBZgAAAFq9SV7OAABB84AAFG6,http://pb.api.weq.com/v1.4/event?click_id=ASoPBZgAAAFq9SV7OAABB84AAFG6,idfa_91302789-B292-48EF-BD02-DD02A17A0B78,ko-KR
e9lJDF_HT3-mtzi3MaSlEg,crobo,20922_214_3679_20922_214_3679,Install,3.5,223.33.165.66,56A3AAD4-5476-41E3-874B-9539A96D0DC5,1558755570,2019-05-25 11:39:30,1558755729,2019-05-25 11:42:09,1558755761,AR2v1tEAAAFq7RJuGwABB84AAFG6,http://pb.api.weq.com/v1.4/event?click_id=AR2v1tEAAAFq7RJuGwABB84AAFG6,idfa_56A3AAD4-5476-41E3-874B-9539A96D0DC5,ko-KR
e9lJDF_HT3-mtzi3MaSlEg,crobo,20922_415_23_759623_05721-05mob226d7285809856f5_20922_415_23_759623_05721-05mob226d7285809856f5,Install,3.5,1.224.146.181,CB67F051-5DD2-42A4-8D5F-EC5E9EFC6FA2,1558941598,2019-05-27 15:19:58,1558941693,2019-05-27 15:21:33,1558941724,AVwAJGkAAAFq-Ci5pAABB84AAFG6,http://pb.api.weq.com/v1.4/event?click_id=AVwAJGkAAAFq-Ci5pAABB84AAFG6,idfa_CB67F051-5DD2-42A4-8D5F-EC5E9EFC6FA2,ko-KR
e9lJDF_HT3-mtzi3MaSlEg,crobo,20922_415_23_759623_05956-053063_e89bd93caf69_20922_415_23_759623_05956-053063_e89bd93caf69,Install,3.5,119.194.227.122,00EB8C62-FDDB-48D7-B087-DB74BD253A9E,1559016123,2019-05-28 12:02:03,1559016233,2019-05-28 12:03:53,1559016264,AY6OSWEAAAFq_Jno0gABB84AAFG6,http://pb.api.weq.com/v1.4/event?click_id=AY6OSWEAAAFq_Jno0gABB84AAFG6,idfa_00EB8C62-FDDB-48D7-B087-DB74BD253A9E,ko-KR
e9lJDF_HT3-mtzi3MaSlEg,crobo,20922_357_48_892-53s__212_20922_357_48_892-53s__212,Install,3.5,222.239.251.60,29EA1D3B-A00D-4F39-8C37-AFAC215E1424,1559263727,2019-05-31 08:48:47,1559263795,2019-05-31 08:49:55,1559263825,AbHba1EAAAFrC1w_SQABB84AAFG6,http://pb.api.weq.com/v1.4/event?click_id=AbHba1EAAAFrC1w_SQABB84AAFG6,idfa_29EA1D3B-A00D-4F39-8C37-AFAC215E1424,ko-KR
e9lJDF_HT3-mtzi3MaSlEg,crobo,20922_415_23_759623_05788-05363_184_20922_415_23_759623_05788-05363_184,Install,3.5,121.162.65.154,34C7CA44-CD30-4901-AB9B-042A0B1DF658,1559079520,2019-05-29 05:38:40,1559079680,2019-05-29 05:41:20,1559079711,AbF9nLAAAAFrAGFTXwABB84AAFG6,http://pb.api.weq.com/v1.4/event?click_id=AbF9nLAAAAFrAGFTXwABB84AAFG6,idfa_34C7CA44-CD30-4901-AB9B-042A0B1DF658,ko-KR
e9lJDF_HT3-mtzi3MaSlEg,crobo,20922_357_48_741-12211_20922_357_48_741-12211,Install,3.5,210.216.14.25,5ED76FC9-F28F-4824-81DB-CE74B55577B2,1559238238,2019-05-31 01:43:58,1559238318,2019-05-31 01:45:18,1559238349,AbDxgdwAAAFrCddRKAABB84AAFG6,http://pb.api.weq.com/v1.4/event?click_id=AbDxgdwAAAFrCddRKAABB84AAFG6,idfa_5ED76FC9-F28F-4824-81DB-CE74B55577B2,ko-KR
e9lJDF_HT3-mtzi3MaSlEg,crobo,20922_415_23_759623_05788-05363_485_872392f4e42e_20922_415_23_759623_05788-05363_485_872392f4e42e,Install,3.5,121.136.228.231,5C4749B6-E65C-4194-BDD3-F8A9AD192975,1558890337,2019-05-27 01:05:37,1558890443,2019-05-27 01:07:23,1558890474,AeJ7q_0AAAFq9Rqf7gABB84AAFG6,http://pb.api.weq.com/v1.4/event?click_id=AeJ7q_0AAAFq9Rqf7gABB84AAFG6,idfa_5C4749B6-E65C-4194-BDD3-F8A9AD192975,ko-KR
e9lJDF_HT3-mtzi3MaSlEg,crobo,20922_415_23_759623_05956-053063_d12b6d4e146c_20922_415_23_759623_05956-053063_d12b6d4e146c,Install,3.5,120.136.127.11,63C088F4-F228-495F-8AE4-030535DC7F7F,1558839433,2019-05-26 10:57:13,1558839535,2019-05-26 10:58:55,1558839567,AQucoU4AAAFq8hG3HAABB84AAFG6,http://pb.api.weq.com/v1.4/event?click_id=AQucoU4AAAFq8hG3HAABB84AAFG6,idfa_63C088F4-F228-495F-8AE4-030535DC7F7F,ko-KR
e9lJDF_HT3-mtzi3MaSlEg,crobo,20922_415_23_759623_05788-05363_485_ce3c4ca130fb_20922_415_23_759623_05788-05363_485_ce3c4ca130fb,Install,3.5,116.47.177.25,DA839001-1415-43C2-90AE-97EBE32897AE,1558891343,2019-05-27 01:22:23,1558891449,2019-05-27 01:24:09,1558891480,ASW4WOEAAAFq9Snp7wABB84AAFG6,http://pb.api.weq.com/v1.4/event?click_id=ASW4WOEAAAFq9Snp7wABB84AAFG6,idfa_DA839001-1415-43C2-90AE-97EBE32897AE,ko-KR
e9lJDF_HT3-mtzi3MaSlEg,crobo,20922_357_48_892-53s__212_20922_357_48_892-53s__212,Install,3.5,121.131.98.250,89FA4CDE-C8C3-44B9-8E5A-B5B820054D87,1559263634,2019-05-31 08:47:14,1559263693,2019-05-31 08:48:13,1559263724,AaprUbQAAAFrC1rTsAABB84AAFG6,http://pb.api.weq.com/v1.4/event?click_id=AaprUbQAAAFrC1rTsAABB84AAFG6,idfa_89FA4CDE-C8C3-44B9-8E5A-B5B820054D87,ko-KR
e9lJDF_HT3-mtzi3MaSlEg,crobo,20922_415_23_759623_05565-05AT3289haatpkqhf586f3hk6rlef_8rkzpgtarnyu_20922_415_23_759623_05565-05AT3289haatpkqhf586f3hk6rlef_8rkzpgtarnyu,Install,3.5,59.12.57.207,9A5B5856-5D42-443E-B05A-79B98C599EAA,1558973157,2019-05-28 00:05:57,1558973291,2019-05-28 00:08:11,1558973322,AZyimIsAAAFq-gpI1gABB84AAFG6,http://pb.api.weq.com/v1.4/event?click_id=AZyimIsAAAFq-gpI1gABB84AAFG6,idfa_9A5B5856-5D42-443E-B05A-79B98C599EAA,ko-KR
e9lJDF_HT3-mtzi3MaSlEg,crobo,20922_415_23_759623_05788-05363_184_12247_145329_20922_415_23_759623_05788-05363_184_12247_145329,Install,3.5,175.226.157.65,663D58B0-F859-4401-94AD-B2816577DE88,1559004384,2019-05-28 08:46:24,1559004453,2019-05-28 08:47:33,1559004483,AS_XAjoAAAFq--b-vwABB84AAFG6,http://pb.api.weq.com/v1.4/event?click_id=AS_XAjoAAAFq--b-vwABB84AAFG6,idfa_663D58B0-F859-4401-94AD-B2816577DE88,ko-KR
e9lJDF_HT3-mtzi3MaSlEg,crobo,20922_357_48_892-53s__212_20922_357_48_892-53s__212,Install,3.5,210.223.250.3,AFEEF27E-4027-42E1-871F-0B018C71F292,1559264130,2019-05-31 08:55:30,1559264192,2019-05-31 08:56:32,1559264223,ASrl4k0AAAFrC2JHXAABB84AAFG6,http://pb.api.weq.com/v1.4/event?click_id=ASrl4k0AAAFrC2JHXAABB84AAFG6,idfa_AFEEF27E-4027-42E1-871F-0B018C71F292,ko-KR
e9lJDF_HT3-mtzi3MaSlEg,crobo,20922_415_17_10010_15_05718-05125_N_1030_2562_1028601_20922_415_17_10010_15_05718-05125_N_1030_2562_1028601,Install,3.5,211.104.59.88,D24A9870-A621-4055-8BB5-66145AE4542F,1558632456,2019-05-24 01:27:36,1558632529,2019-05-24 01:28:49,1558632572,AUTpek4AAAFq5bugIAABB84AAFG6,http://pb.api.weq.com/v1.4/event?click_id=AUTpek4AAAFq5bugIAABB84AAFG6,idfa_D24A9870-A621-4055-8BB5-66145AE4542F,en-GB
e9lJDF_HT3-mtzi3MaSlEg,crobo,20922_415_23_759623_05565-05AT3289haatpkqhf586f3hk6rlef_8rkzpgtarnyu_20922_415_23_759623_05565-05AT3289haatpkqhf586f3hk6rlef_8rkzpgtarnyu,Install,3.5,222.100.181.107,B416AED1-6334-46E1-9422-BD4C8F0B020D,1558942048,2019-05-27 15:27:28,1558942139,2019-05-27 15:28:59,1558942173,AUfiHNsAAAFq-C-VVgABB84AAFG6,http://pb.api.weq.com/v1.4/event?click_id=AUfiHNsAAAFq-C-VVgABB84AAFG6,idfa_B416AED1-6334-46E1-9422-BD4C8F0B020D,ko-KR
e9lJDF_HT3-mtzi3MaSlEg,crobo,20922_415_23_759623_05788-05363_184_12247_145329_20922_415_23_759623_05788-05363_184_12247_145329,Install,3.5,222.108.143.193,CFA7DC24-76AD-4100-812B-6F99F9927757,1559003753,2019-05-28 08:35:53,1559003826,2019-05-28 08:37:06,1559003857,AZ2eXOMAAAFq-91aAgABB84AAFG6,http://pb.api.weq.com/v1.4/event?click_id=AZ2eXOMAAAFq-91aAgABB84AAFG6,idfa_CFA7DC24-76AD-4100-812B-6F99F9927757,ko-KR
e9lJDF_HT3-mtzi3MaSlEg,crobo,20922_214_99375218_20922_214_99375218,Install,3.5,122.37.196.252,45A1A7DC-7F2D-493D-BD0C-D5722847BE1C,1559195577,2019-05-30 13:52:57,1559195648,2019-05-30 13:54:08,1559195681,AWt2b7MAAAFrB0xkjwABB84AAFG6,http://pb.api.weq.com/v1.4/event?click_id=AWt2b7MAAAFrB0xkjwABB84AAFG6,idfa_45A1A7DC-7F2D-493D-BD0C-D5722847BE1C,ko-KR
e9lJDF_HT3-mtzi3MaSlEg,crobo,20922_415_23_759623_05956-053063_1b908c771c1a_20922_415_23_759623_05956-053063_1b908c771c1a,Install,3.5,116.125.252.180,3127221C-6A66-41DD-964F-4BD5078DDE58,1559015819,2019-05-28 11:56:59,1559015928,2019-05-28 11:58:48,1559015959,AQdD5OYAAAFq_JVJtwABB84AAFG6,http://pb.api.weq.com/v1.4/event?click_id=AQdD5OYAAAFq_JVJtwABB84AAFG6,idfa_3127221C-6A66-41DD-964F-4BD5078DDE58,ko-KR
e9lJDF_HT3-mtzi3MaSlEg,crobo,20922_415_23_759623_05788-05363_1539_1030_3063_d6e5cba2d388_20922_415_23_759623_05788-05363_1539_1030_3063_d6e5cba2d388,Install,3.5,115.93.3.58,C95EF09D-EF38-47FB-8DE7-C472D49EDB58,1558982662,2019-05-28 02:44:22,1558982819,2019-05-28 02:46:59,1558982850,AaF6P34AAAFq-ptYyAABB84AAFG6,http://pb.api.weq.com/v1.4/event?click_id=AaF6P34AAAFq-ptYyAABB84AAFG6,idfa_C95EF09D-EF38-47FB-8DE7-C472D49EDB58,ko-KR
e9lJDF_HT3-mtzi3MaSlEg,crobo,20922_415_23_759623_05788-05363_1539_1030_3063_9411c2073cca_20922_415_23_759623_05788-05363_1539_1030_3063_9411c2073cca,Install,3.5,125.134.215.181,D7B5FCF7-3582-4CC1-AE24-F496AD34D46F,1558982206,2019-05-28 02:36:46,1558982301,2019-05-28 02:38:21,1558982332,Ab-Bjw0AAAFq-pRWYAABB84AAFG6,http://pb.api.weq.com/v1.4/event?click_id=Ab-Bjw0AAAFq-pRWYAABB84AAFG6,idfa_D7B5FCF7-3582-4CC1-AE24-F496AD34D46F,ko-KR
e9lJDF_HT3-mtzi3MaSlEg,crobo,20922_415_23_759623_05565-05AT7pn7qq9haj048zd3gh6xvbtfy_480153od5b2k_20922_415_23_759623_05565-05AT7pn7qq9haj048zd3gh6xvbtfy_480153od5b2k,Install,3.5,106.245.188.228,C2D403A2-8C8E-452B-ABC3-D66386692405,1559015968,2019-05-28 11:59:28,1559016065,2019-05-28 12:01:05,1559016096,Af-7kcQAAAFq_JeEVAABB84AAFG6,http://pb.api.weq.com/v1.4/event?click_id=Af-7kcQAAAFq_JeEVAABB84AAFG6,idfa_C2D403A2-8C8E-452B-ABC3-D66386692405,ko-KR
e9lJDF_HT3-mtzi3MaSlEg,crobo,20922_415_17_10010_15_05718-05125_N_1030_2562_1028601_20922_415_17_10010_15_05718-05125_N_1030_2562_1028601,Install,3.5,27.102.127.145,BFFE6BDC-628E-46DF-91B3-C624E2F641F3,1558632806,2019-05-24 01:33:26,1558632875,2019-05-24 01:34:35,1558632906,AfY_28YAAAFq5cDkawABB84AAFG6,http://pb.api.weq.com/v1.4/event?click_id=AfY_28YAAAFq5cDkawABB84AAFG6,idfa_BFFE6BDC-628E-46DF-91B3-C624E2F641F3,en-GB
e9lJDF_HT3-mtzi3MaSlEg,crobo,20922_415_23_759623_05565-05AT9ybagetkqc35tdmxhfdblfnnt_wszpj3go6gzd_20922_415_23_759623_05565-05AT9ybagetkqc35tdmxhfdblfnnt_wszpj3go6gzd,Install,3.5,125.186.0.144,BAF3C23A-EE54-498A-B517-E2F5D3AFFCF5,1559011792,2019-05-28 10:49:52,1559012333,2019-05-28 10:58:53,1559012364,Ac014gwAAAFq_FfJRAABB84AAFG6,http://pb.api.weq.com/v1.4/event?click_id=Ac014gwAAAFq_FfJRAABB84AAFG6,idfa_BAF3C23A-EE54-498A-B517-E2F5D3AFFCF5,ko-KR
e9lJDF_HT3-mtzi3MaSlEg,crobo,20922_415_23_759623_05966-051030_3255__20922_415_23_759623_05966-051030_3255_,Install,3.5,203.255.32.133,FBA02C15-7D05-4FE6-9957-C2D568F62E00,1558927558,2019-05-27 11:25:58,1558927587,2019-05-27 11:26:27,1558927617,AfxOc28AAAFq91K10gABB84AAFG6,http://pb.api.weq.com/v1.4/event?click_id=AfxOc28AAAFq91K10gABB84AAFG6,idfa_FBA02C15-7D05-4FE6-9957-C2D568F62E00,ko-KR
e9lJDF_HT3-mtzi3MaSlEg,crobo,20922_357_48_892-53s__212_20922_357_48_892-53s__212,Install,3.5,59.28.140.15,1BB82D96-C9FA-4385-ABFC-04AB7BA6C215,1559264062,2019-05-31 08:54:22,1559264129,2019-05-31 08:55:29,1559264160,AZxEzkgAAAFrC2FX3QABB84AAFG6,http://pb.api.weq.com/v1.4/event?click_id=AZxEzkgAAAFrC2FX3QABB84AAFG6,idfa_1BB82D96-C9FA-4385-ABFC-04AB7BA6C215,ko-KR
e9lJDF_HT3-mtzi3MaSlEg,crobo,20922_415_23_759623_05721-05mob226d7285809856f5_20922_415_23_759623_05721-05mob226d7285809856f5,Install,3.5,106.243.20.180,6E1CFD56-B5D7-4681-A54D-21B079DBBBA5,1558936158,2019-05-27 13:49:18,1558936243,2019-05-27 13:50:43,1558936274,AdI76B4AAAFq99W_3wABB84AAFG6,http://pb.api.weq.com/v1.4/event?click_id=AdI76B4AAAFq99W_3wABB84AAFG6,idfa_6E1CFD56-B5D7-4681-A54D-21B079DBBBA5,ko-KR
e9lJDF_HT3-mtzi3MaSlEg,crobo,20922_415_23_759623_05788-05363_184_12247_145329_20922_415_23_759623_05788-05363_184_12247_145329,Install,3.5,222.108.143.193,880FFF33-F06D-456D-ACC2-AE8090BDB8B2,1559003720,2019-05-28 08:35:20,1559003779,2019-05-28 08:36:19,1559003810,ARrwCigAAAFq-9zcYgABB84AAFG6,http://pb.api.weq.com/v1.4/event?click_id=ARrwCigAAAFq-9zcYgABB84AAFG6,idfa_880FFF33-F06D-456D-ACC2-AE8090BDB8B2,ko-KR
e9lJDF_HT3-mtzi3MaSlEg,crobo,20922_415_17_10010_15_05565-05AT3or4mkirjrl80rocbqz063vin_jdxpxs0x6e88_20922_415_17_10010_15_05565-05AT3or4mkirjrl80rocbqz063vin_jdxpxs0x6e88,Install,3.5,115.126.216.174,5FA6C31B-C422-4E4C-9C87-1F40128CDDE9,1558940241,2019-05-27 14:57:21,1558940341,2019-05-27 14:59:01,1558940371,Ae5B88QAAAFq-BQBPQABB84AAFG6,http://pb.api.weq.com/v1.4/event?click_id=Ae5B88QAAAFq-BQBPQABB84AAFG6,idfa_5FA6C31B-C422-4E4C-9C87-1F40128CDDE9,ko-KR
e9lJDF_HT3-mtzi3MaSlEg,crobo,20922_357_48_892-53s__212_20922_357_48_892-53s__212,Install,3.5,61.73.222.69,C53A8709-7FF4-40A9-9164-DDE953094A85,1559264113,2019-05-31 08:55:13,1559264196,2019-05-31 08:56:36,1559264226,AReWghEAAAFrC2IXAAABB84AAFG6,http://pb.api.weq.com/v1.4/event?click_id=AReWghEAAAFrC2IXAAABB84AAFG6,idfa_C53A8709-7FF4-40A9-9164-DDE953094A85,ko-KR
e9lJDF_HT3-mtzi3MaSlEg,crobo,20922_357_48_741-12211_20922_357_48_741-12211,Install,3.5,1.214.196.154,539C1454-0E36-459E-A92E-EEAF8EA683AB,1559238557,2019-05-31 01:49:17,1559238644,2019-05-31 01:50:44,1559238675,ASNQzqUAAAFrCdwwHwABB84AAFG6,http://pb.api.weq.com/v1.4/event?click_id=ASNQzqUAAAFrCdwwHwABB84AAFG6,idfa_539C1454-0E36-459E-A92E-EEAF8EA683AB,ko-KR
e9lJDF_HT3-mtzi3MaSlEg,crobo,20922_214_59000703_20922_214_59000703,Install,3.5,39.7.55.101,2A1D8A84-F8B3-4C7F-9D50-787467292782,1558876373,2019-05-26 21:12:53,1558877353,2019-05-26 21:29:13,1558877385,AYg5UeQAAAFq9EW5rwABB84AAFG6,http://pb.api.weq.com/v1.4/event?click_id=AYg5UeQAAAFq9EW5rwABB84AAFG6,idfa_2A1D8A84-F8B3-4C7F-9D50-787467292782,ko-KR
e9lJDF_HT3-mtzi3MaSlEg,crobo,20922_415_23_759623_05718-05125_N_1030_2562_1028601_20922_415_23_759623_05718-05125_N_1030_2562_1028601,Install,3.5,183.109.113.83,4BF76396-57A9-4229-A6D5-D87860591C15,1558633026,2019-05-24 01:37:06,1558633084,2019-05-24 01:38:04,1558633115,AWkWVLUAAAFq5cRCFwABB84AAFG6,http://pb.api.weq.com/v1.4/event?click_id=AWkWVLUAAAFq5cRCFwABB84AAFG6,idfa_4BF76396-57A9-4229-A6D5-D87860591C15,en-GB
e9lJDF_HT3-mtzi3MaSlEg,crobo,20922_415_23_759623_05956-053063_644e8ddb5e1b_20922_415_23_759623_05956-053063_644e8ddb5e1b,Install,3.5,110.34.123.225,B2BB9EFA-CC55-471B-887D-390FC192C3BB,1559015351,2019-05-28 11:49:11,1559015507,2019-05-28 11:51:47,1559015538,ARu_Nh4AAAFq_I4VTgABB84AAFG6,http://pb.api.weq.com/v1.4/event?click_id=ARu_Nh4AAAFq_I4VTgABB84AAFG6,idfa_B2BB9EFA-CC55-471B-887D-390FC192C3BB,ko-KR
e9lJDF_HT3-mtzi3MaSlEg,crobo,20922_415_23_759623_05788-05363_485_f11baed6f180_20922_415_23_759623_05788-05363_485_f11baed6f180,Install,3.5,182.230.155.159,A517F25A-E029-403E-8835-F5795D5AFC72,1558891259,2019-05-27 01:20:59,1558891389,2019-05-27 01:23:09,1558891419,AZEdEr8AAAFq9SikXgABB84AAFG6,http://pb.api.weq.com/v1.4/event?click_id=AZEdEr8AAAFq9SikXgABB84AAFG6,idfa_A517F25A-E029-403E-8835-F5795D5AFC72,ko-KR
e9lJDF_HT3-mtzi3MaSlEg,crobo,20922_415_23_759623_05721-05mob226d7285809856f5_20922_415_23_759623_05721-05mob226d7285809856f5,Install,3.5,220.75.220.143,D1FB9962-15CC-4CAD-B1B5-14C7AB318115,1558890092,2019-05-27 01:01:32,1558890214,2019-05-27 01:03:34,1558890245,AUZcxawAAAFq9RboXwABB84AAFG6,http://pb.api.weq.com/v1.4/event?click_id=AUZcxawAAAFq9RboXwABB84AAFG6,idfa_D1FB9962-15CC-4CAD-B1B5-14C7AB318115,ko-KR
e9lJDF_HT3-mtzi3MaSlEg,crobo,20922_214_93951605_20922_214_93951605,Install,3.5,223.62.190.208,818AAFDB-7673-4304-9A7C-F2C35EA448D7,1558769783,2019-05-25 15:36:23,1558772770,2019-05-25 16:26:10,1558773095,AV1mLN4AAAFq7etP3wABB84AAFG6,http://pb.api.weq.com/v1.4/event?click_id=AV1mLN4AAAFq7etP3wABB84AAFG6,idfa_818AAFDB-7673-4304-9A7C-F2C35EA448D7,ko-KR
e9lJDF_HT3-mtzi3MaSlEg,crobo,20922_415_23_759623_05788-05363_1539_1030_3063_06b4dba2a58b_20922_415_23_759623_05788-05363_1539_1030_3063_06b4dba2a58b,Install,3.5,182.229.52.120,0BA8AB98-A1AD-4EE5-B72D-AD89111AFB26,1558982661,2019-05-28 02:44:21,1558982766,2019-05-28 02:46:06,1558982797,AQN60OwAAAFq-ptN4wABB84AAFG6,http://pb.api.weq.com/v1.4/event?click_id=AQN60OwAAAFq-ptN4wABB84AAFG6,idfa_0BA8AB98-A1AD-4EE5-B72D-AD89111AFB26,ko-KR
e9lJDF_HT3-mtzi3MaSlEg,crobo,20922_415_23_759623_05565-05AT3289haatpkqhf586f3hk6rlef_8rkzpgtarnyu_20922_415_23_759623_05565-05AT3289haatpkqhf586f3hk6rlef_8rkzpgtarnyu,Install,3.5,61.76.49.84,B416D569-7B51-4859-96D4-38C0C1C1C4D4,1558987561,2019-05-28 04:06:01,1558987813,2019-05-28 04:10:13,1558987844,AVyBZD4AAAFq-uYO3gABB84AAFG6,http://pb.api.weq.com/v1.4/event?click_id=AVyBZD4AAAFq-uYO3gABB84AAFG6,idfa_B416D569-7B51-4859-96D4-38C0C1C1C4D4,ko-KR
e9lJDF_HT3-mtzi3MaSlEg,crobo,20922_415_23_759623_05788-05363_485_3065df07e8c6_20922_415_23_759623_05788-05363_485_3065df07e8c6,Install,3.5,119.69.130.170,E57540AB-5E3F-4700-84FC-010E6B140D2D,1558891288,2019-05-27 01:21:28,1558891386,2019-05-27 01:23:06,1558891417,Ac8N7oEAAAFq9SkVIgABB84AAFG6,http://pb.api.weq.com/v1.4/event?click_id=Ac8N7oEAAAFq9SkVIgABB84AAFG6,idfa_E57540AB-5E3F-4700-84FC-010E6B140D2D,ko-KR
e9lJDF_HT3-mtzi3MaSlEg,crobo,20922_357_48_741-12211_20922_357_48_741-12211,Install,3.5,210.216.14.25,C8908E22-5B86-44DA-A312-34D974A1AEB9,1559238585,2019-05-31 01:49:45,1559238676,2019-05-31 01:51:16,1559238707,AQSHfWwAAAFrCdyfdAABB84AAFG6,http://pb.api.weq.com/v1.4/event?click_id=AQSHfWwAAAFrCdyfdAABB84AAFG6,idfa_C8908E22-5B86-44DA-A312-34D974A1AEB9,ko-KR
e9lJDF_HT3-mtzi3MaSlEg,crobo,20922_415_23_759623_05788-05363_485_12f4ef1c5984_20922_415_23_759623_05788-05363_485_12f4ef1c5984,Install,3.5,222.99.111.85,AF408A30-D55E-407E-84E4-12C91F073B52,1558891261,2019-05-27 01:21:01,1558891425,2019-05-27 01:23:45,1558891456,AcUJivsAAAFq9SitiQABB84AAFG6,http://pb.api.weq.com/v1.4/event?click_id=AcUJivsAAAFq9SitiQABB84AAFG6,idfa_AF408A30-D55E-407E-84E4-12C91F073B52,ko-KR
e9lJDF_HT3-mtzi3MaSlEg,crobo,20922_415_23_759623_05741-0513398_20922_415_23_759623_05741-0513398,Install,3.5,112.216.250.18,6946B930-2ED4-4DAF-B674-2D75E3781DC0,1559090663,2019-05-29 08:44:23,1559090759,2019-05-29 08:45:59,1559090790,AQFvP8MAAAFrAQtIpAABB84AAFG6,http://pb.api.weq.com/v1.4/event?click_id=AQFvP8MAAAFrAQtIpAABB84AAFG6,idfa_6946B930-2ED4-4DAF-B674-2D75E3781DC0,ko-KR
e9lJDF_HT3-mtzi3MaSlEg,crobo,20922_415_23_759623_05788-05363_184_12247_145329_20922_415_23_759623_05788-05363_184_12247_145329,Install,3.5,115.21.226.248,37AED124-EA28-488E-93F6-A77C0887CF24,1559004188,2019-05-28 08:43:08,1559004247,2019-05-28 08:44:07,1559004277,AYIyj74AAAFq--P_nAABB84AAFG6,http://pb.api.weq.com/v1.4/event?click_id=AYIyj74AAAFq--P_nAABB84AAFG6,idfa_37AED124-EA28-488E-93F6-A77C0887CF24,ko-KR
e9lJDF_HT3-mtzi3MaSlEg,crobo,20922_415_23_759623_05788-05363_485_f11baed6f180_20922_415_23_759623_05788-05363_485_f11baed6f180,Install,3.5,61.253.180.63,30B0CB63-E702-4419-A235-48859817B216,1558891259,2019-05-27 01:20:59,1558891389,2019-05-27 01:23:09,1558891420,AdYaIQEAAAFq9Sir1wABB84AAFG6,http://pb.api.weq.com/v1.4/event?click_id=AdYaIQEAAAFq9Sir1wABB84AAFG6,idfa_30B0CB63-E702-4419-A235-48859817B216,ko-KR
e9lJDF_HT3-mtzi3MaSlEg,crobo,20922_415_23_759623_05788-05363_1539_1030_3063_06b4dba2a58b_20922_415_23_759623_05788-05363_1539_1030_3063_06b4dba2a58b,Install,3.5,175.208.176.93,C0743A81-480C-46FA-8C9B-9B1BBF547D46,1558982005,2019-05-28 02:33:25,1558982127,2019-05-28 02:35:27,1558982157,ATl7NccAAAFq-pFkpAABB84AAFG6,http://pb.api.weq.com/v1.4/event?click_id=ATl7NccAAAFq-pFkpAABB84AAFG6,idfa_C0743A81-480C-46FA-8C9B-9B1BBF547D46,ko-KR
e9lJDF_HT3-mtzi3MaSlEg,crobo,20922_357_48_741-12211_20922_357_48_741-12211,Install,3.5,112.220.210.10,52881399-5D3F-4222-B935-2B407B0382E9,1559238229,2019-05-31 01:43:49,1559238308,2019-05-31 01:45:08,1559238338,AenTTVkAAAFrCdcqZQABB84AAFG6,http://pb.api.weq.com/v1.4/event?click_id=AenTTVkAAAFrCdcqZQABB84AAFG6,idfa_52881399-5D3F-4222-B935-2B407B0382E9,ko-KR
e9lJDF_HT3-mtzi3MaSlEg,crobo,20922_415_23_759623_05788-05363_1539_1030_3107_1219faa56d53_20922_415_23_759623_05788-05363_1539_1030_3107_1219faa56d53,Install,3.5,211.213.124.176,7954D25A-6E01-4381-B7ED-95F1F7990F1C,1559010108,2019-05-28 10:21:48,1559010214,2019-05-28 10:23:34,1559010246,AU5BzjUAAAFq_D4PzwABB84AAFG6,http://pb.api.weq.com/v1.4/event?click_id=AU5BzjUAAAFq_D4PzwABB84AAFG6,idfa_7954D25A-6E01-4381-B7ED-95F1F7990F1C,ko-KR
e9lJDF_HT3-mtzi3MaSlEg,crobo,20922_415_23_759623_05956-053063_1b908c771c1a_20922_415_23_759623_05956-053063_1b908c771c1a,Install,3.5,14.63.106.25,44B9F39D-CC34-4279-9142-466505DBD66D,1559016627,2019-05-28 12:10:27,1559016747,2019-05-28 12:12:27,1559016778,ATGyyU8AAAFq_KGbYgABB84AAFG6,http://pb.api.weq.com/v1.4/event?click_id=ATGyyU8AAAFq_KGbYgABB84AAFG6,idfa_44B9F39D-CC34-4279-9142-466505DBD66D,ko-KR
e9lJDF_HT3-mtzi3MaSlEg,crobo,20922_357_48_892-53s__212_20922_357_48_892-53s__212,Install,3.5,175.201.12.200,DF43724B-9FAD-459E-BE79-29D787B82820,1559264127,2019-05-31 08:55:27,1559264197,2019-05-31 08:56:37,1559264227,AY7aSeIAAAFrC2JS8gABB84AAFG6,http://pb.api.weq.com/v1.4/event?click_id=AY7aSeIAAAFrC2JS8gABB84AAFG6,idfa_DF43724B-9FAD-459E-BE79-29D787B82820,ko-KR
e9lJDF_HT3-mtzi3MaSlEg,crobo,20922_415_23_759623_05956-053063_644e8ddb5e1b_20922_415_23_759623_05956-053063_644e8ddb5e1b,Install,3.5,116.46.147.188,B4843EFE-CEAB-424F-BCD9-071E55C93ED8,1558838553,2019-05-26 10:42:33,1558838747,2019-05-26 10:45:47,1558838778,AYkFE1cAAAFq8gRj9gABB84AAFG6,http://pb.api.weq.com/v1.4/event?click_id=AYkFE1cAAAFq8gRj9gABB84AAFG6,idfa_B4843EFE-CEAB-424F-BCD9-071E55C93ED8,ko-KR
e9lJDF_HT3-mtzi3MaSlEg,crobo,20922_415_23_759623_05788-05363_184_12247_145329_20922_415_23_759623_05788-05363_184_12247_145329,Install,3.5,210.223.250.3,3DF0B868-0C2F-484C-9EB1-54125388A6C6,1559003328,2019-05-28 08:28:48,1559003401,2019-05-28 08:30:01,1559003433,Ac5kS2MAAAFq-9bd5AABB84AAFG6,http://pb.api.weq.com/v1.4/event?click_id=Ac5kS2MAAAFq-9bd5AABB84AAFG6,idfa_3DF0B868-0C2F-484C-9EB1-54125388A6C6,ko-KR
e9lJDF_HT3-mtzi3MaSlEg,crobo,20922_415_23_759623_05788-05363_184_12247_145329_20922_415_23_759623_05788-05363_184_12247_145329,Install,3.5,183.109.79.6,3ABA80FD-58F5-443C-8921-8C30E4B57906,1559003668,2019-05-28 08:34:28,1559003728,2019-05-28 08:35:28,1559003759,AZ5bEgQAAAFq-9wP5QABB84AAFG6,http://pb.api.weq.com/v1.4/event?click_id=AZ5bEgQAAAFq-9wP5QABB84AAFG6,idfa_3ABA80FD-58F5-443C-8921-8C30E4B57906,ko-KR
e9lJDF_HT3-mtzi3MaSlEg,crobo,20922_415_23_759623_05565-05AT3or4mkirjrl80rocbqz063vin_jdxpxs0x6e88_20922_415_23_759623_05565-05AT3or4mkirjrl80rocbqz063vin_jdxpxs0x6e88,Install,3.5,211.212.163.191,FAEC00DD-D343-4AFC-8037-E31DB307A63E,1558855638,2019-05-26 15:27:18,1558855729,2019-05-26 15:28:49,1558855760,AaH5TGkAAAFq8wkhaQABB84AAFG6,http://pb.api.weq.com/v1.4/event?click_id=AaH5TGkAAAFq8wkhaQABB84AAFG6,idfa_FAEC00DD-D343-4AFC-8037-E31DB307A63E,ko-KR
e9lJDF_HT3-mtzi3MaSlEg,crobo,20922_415_23_759623_05788-05363_485_4a80836958d0_20922_415_23_759623_05788-05363_485_4a80836958d0,Install,3.5,211.55.162.145,FE38E6FC-FE95-41C2-861A-18B2786950DD,1558891248,2019-05-27 01:20:48,1558891340,2019-05-27 01:22:20,1558891371,AVfSCS4AAAFq9ShyTAABB84AAFG6,http://pb.api.weq.com/v1.4/event?click_id=AVfSCS4AAAFq9ShyTAABB84AAFG6,idfa_FE38E6FC-FE95-41C2-861A-18B2786950DD,ko-KR
e9lJDF_HT3-mtzi3MaSlEg,crobo,20922_431_15_05741-0513306_20922_431_15_05741-0513306,Install,3.5,59.8.205.110,E2A4FE4E-C2E6-4EA8-82D1-7E7A5861DB46,1559203605,2019-05-30 16:06:45,1559203764,2019-05-30 16:09:24,1559203795,ASNW9FAAAAFrB8ayugABB84AAFG6,http://pb.api.weq.com/v1.4/event?click_id=ASNW9FAAAAFrB8ayugABB84AAFG6,idfa_E2A4FE4E-C2E6-4EA8-82D1-7E7A5861DB46,ko-KR
e9lJDF_HT3-mtzi3MaSlEg,crobo,20922_415_23_759623_05788-05363_1539_1030_3063_d6e5cba2d388_20922_415_23_759623_05788-05363_1539_1030_3063_d6e5cba2d388,Install,3.5,219.251.130.235,C12DC95E-D426-452B-A258-EDF1F03B6991,1558982195,2019-05-28 02:36:35,1558982299,2019-05-28 02:38:19,1558982330,AQ8I3QcAAAFq-pRBRAABB84AAFG6,http://pb.api.weq.com/v1.4/event?click_id=AQ8I3QcAAAFq-pRBRAABB84AAFG6,idfa_C12DC95E-D426-452B-A258-EDF1F03B6991,ko-KR
e9lJDF_HT3-mtzi3MaSlEg,crobo,20922_357_48_892-53s__212_20922_357_48_892-53s__212,Install,3.5,116.120.58.199,5E338049-C135-4787-9151-C7C6282B23B3,1559263757,2019-05-31 08:49:17,1559263824,2019-05-31 08:50:24,1559263855,Af7wQkAAAAFrC1yB7QABB84AAFG6,http://pb.api.weq.com/v1.4/event?click_id=Af7wQkAAAAFrC1yB7QABB84AAFG6,idfa_5E338049-C135-4787-9151-C7C6282B23B3,ko-KR
e9lJDF_HT3-mtzi3MaSlEg,crobo,20922_415_23_759623_05718-05125_N_1030_2562_1028601_20922_415_23_759623_05718-05125_N_1030_2562_1028601,Install,3.5,119.203.123.162,C06DB563-0EC8-4221-8673-CBF31F06DBE2,1558632326,2019-05-24 01:25:26,1558632393,2019-05-24 01:26:33,1558632424,AauMR_kAAAFq5bmgdwABB84AAFG6,http://pb.api.weq.com/v1.4/event?click_id=AauMR_kAAAFq5bmgdwABB84AAFG6,idfa_C06DB563-0EC8-4221-8673-CBF31F06DBE2,en-GB
e9lJDF_HT3-mtzi3MaSlEg,crobo,20922_415_23_759623_05966-051030_3255__20922_415_23_759623_05966-051030_3255_,Install,3.5,119.199.178.218,6E31D678-D21F-4CCC-AC6F-09AED5C24A49,1558927817,2019-05-27 11:30:17,1558927846,2019-05-27 11:30:46,1558927876,AXRkC0UAAAFq91as_AABB84AAFG6,http://pb.api.weq.com/v1.4/event?click_id=AXRkC0UAAAFq91as_AABB84AAFG6,idfa_6E31D678-D21F-4CCC-AC6F-09AED5C24A49,ko-KR
e9lJDF_HT3-mtzi3MaSlEg,crobo,20922_415_23_759623_05788-05363_1539_1030_3063_c2fb68d015bf_20922_415_23_759623_05788-05363_1539_1030_3063_c2fb68d015bf,Install,3.5,125.134.227.144,5E1DA162-F1E9-4E06-977E-B15DCECDCFA2,1558940851,2019-05-27 15:07:31,1558940982,2019-05-27 15:09:42,1558941013,AT38q4QAAAFq-B1E3gABB84AAFG6,http://pb.api.weq.com/v1.4/event?click_id=AT38q4QAAAFq-B1E3gABB84AAFG6,idfa_5E1DA162-F1E9-4E06-977E-B15DCECDCFA2,ko-KR
e9lJDF_HT3-mtzi3MaSlEg,crobo,20922_415_23_759623_05788-05363_485_acd5266ac9ab_20922_415_23_759623_05788-05363_485_acd5266ac9ab,Install,3.5,116.121.43.50,4BBD7F9D-A325-47ED-BE6F-87B4C69A79B9,1558891204,2019-05-27 01:20:04,1558891302,2019-05-27 01:21:42,1558891333,Ae0gF2cAAAFq9SfRcAABB84AAFG6,http://pb.api.weq.com/v1.4/event?click_id=Ae0gF2cAAAFq9SfRcAABB84AAFG6,idfa_4BBD7F9D-A325-47ED-BE6F-87B4C69A79B9,ko-KR
e9lJDF_HT3-mtzi3MaSlEg,crobo,20922_415_23_759623_05788-05363_1539_1030_3063_cce78db4897f_20922_415_23_759623_05788-05363_1539_1030_3063_cce78db4897f,Install,3.5,182.31.95.77,CAA93995-A1CF-45A7-B6E3-D573BA6CD848,1558936426,2019-05-27 13:53:46,1558936512,2019-05-27 13:55:12,1558936543,AbCH69UAAAFq99mkfgABB84AAFG6,http://pb.api.weq.com/v1.4/event?click_id=AbCH69UAAAFq99mkfgABB84AAFG6,idfa_CAA93995-A1CF-45A7-B6E3-D573BA6CD848,ko-KR
e9lJDF_HT3-mtzi3MaSlEg,crobo,20922_415_23_759623_05565-05AT9ced8mai1v6kzt0xxgg7dqwiw_2amzagldi8ql_20922_415_23_759623_05565-05AT9ced8mai1v6kzt0xxgg7dqwiw_2amzagldi8ql,Install,3.5,220.89.204.226,874864DB-9821-4AE9-A2F9-8B19872F022F,1558926691,2019-05-27 11:11:31,1558926770,2019-05-27 11:12:50,1558926800,AVMetwAAAAFq90UmpgABB84AAFG6,http://pb.api.weq.com/v1.4/event?click_id=AVMetwAAAAFq90UmpgABB84AAFG6,idfa_874864DB-9821-4AE9-A2F9-8B19872F022F,ko-KR
e9lJDF_HT3-mtzi3MaSlEg,crobo,20922_357_48_741-12211_20922_357_48_741-12211,Install,3.5,211.232.61.60,F1E170C0-215B-49FD-8560-0CC41D181718,1559238552,2019-05-31 01:49:12,1559238628,2019-05-31 01:50:28,1559238659,AY3Q6rsAAAFrCdwa6AABB84AAFG6,http://pb.api.weq.com/v1.4/event?click_id=AY3Q6rsAAAFrCdwa6AABB84AAFG6,idfa_F1E170C0-215B-49FD-8560-0CC41D181718,ko-KR
e9lJDF_HT3-mtzi3MaSlEg,crobo,20922_415_23_759623_05565-05AT3ggcz90qgf5j5zl5g1gubiq0k_cnyxw7lucoeb_20922_415_23_759623_05565-05AT3ggcz90qgf5j5zl5g1gubiq0k_cnyxw7lucoeb,Install,3.5,1.242.66.37,B11338A2-4D3A-4E59-9168-B98605C3DF92,1558982595,2019-05-28 02:43:15,1558983334,2019-05-28 02:55:34,1558983365,AfFFzPgAAAFq-ppdiAABB84AAFG6,http://pb.api.weq.com/v1.4/event?click_id=AfFFzPgAAAFq-ppdiAABB84AAFG6,idfa_B11338A2-4D3A-4E59-9168-B98605C3DF92,ko-KR
