cid,partner_id,channel_id,action_id,cpi,ip,idfa,click time,click datetime,install time,install datetime,postback time,click id,postback url,unique user id
aQn0Jxq_Q-GrrP6qXh_POA,crobo,20930_145,Install,1.0,220.73.80.174,36eb65fc-cd34-4ee8-913f-f8f21bdcf273,1558146830,2019-05-18 10:33:50,1558147013,2019-05-18 10:36:53,1558147045,Aci71Z0AAAFqyMm_EwAA010AAFHC,http://pb.api.weq.com/v1.4/event?click_id=Aci71Z0AAAFqyMm_EwAA010AAFHC,idfa_36eb65fc-cd34-4ee8-913f-f8f21bdcf273,%ED%95%9C%EA%B5%AD%EC%96%B4
aQn0Jxq_Q-GrrP6qXh_POA,crobo,20930_145,Install,1.0,121.153.74.28,e9cde4c0-b23b-4e12-8f45-1cbe9ced7e43,1558227132,2019-05-19 08:52:12,1558227411,2019-05-19 08:56:51,1558227441,AVF3GVAAAAFqzZLj2QAA010AAFHC,http://pb.api.weq.com/v1.4/event?click_id=AVF3GVAAAAFqzZLj2QAA010AAFHC,idfa_e9cde4c0-b23b-4e12-8f45-1cbe9ced7e43,%ED%95%9C%EA%B5%AD%EC%96%B4
aQn0Jxq_Q-GrrP6qXh_POA,crobo,20930_145,Install,1.0,114.30.203.253,165578ec-650f-4de5-a789-849b3b8eb5c7,1558228230,2019-05-19 09:10:30,1558228593,2019-05-19 09:16:33,1558228624,AY9XEVwAAAFqzaPNngAA010AAFHC,http://pb.api.weq.com/v1.4/event?click_id=AY9XEVwAAAFqzaPNngAA010AAFHC,idfa_165578ec-650f-4de5-a789-849b3b8eb5c7,%ED%95%9C%EA%B5%AD%EC%96%B4
aQn0Jxq_Q-GrrP6qXh_POA,crobo,20930_145,Install,1.0,211.54.74.50,709c725b-1d62-4ded-827d-adb68f617d5c,1558111541,2019-05-18 00:45:41,1558111753,2019-05-18 00:49:13,1558111783,ATjwGwkAAAFqxq9E5wAA010AAFHC,http://pb.api.weq.com/v1.4/event?click_id=ATjwGwkAAAFqxq9E5wAA010AAFHC,idfa_709c725b-1d62-4ded-827d-adb68f617d5c,%ED%95%9C%EA%B5%AD%EC%96%B4
aQn0Jxq_Q-GrrP6qXh_POA,crobo,20930_145,Install,1.0,114.30.165.99,890d7307-da5d-4ff9-bc6e-f022676ce751,1558110356,2019-05-18 00:25:56,1558110525,2019-05-18 00:28:45,1558110556,AYwGIcsAAAFqxp0nSgAA010AAFHC,http://pb.api.weq.com/v1.4/event?click_id=AYwGIcsAAAFqxp0nSgAA010AAFHC,idfa_890d7307-da5d-4ff9-bc6e-f022676ce751,%ED%95%9C%EA%B5%AD%EC%96%B4
aQn0Jxq_Q-GrrP6qXh_POA,crobo,20930_145,Install,1.0,14.32.124.239,,1558227247,2019-05-19 08:54:07,1558227471,2019-05-19 08:57:51,1558227502,AR1E-B0AAAFqzZTLpAAA010AAFHC,http://pb.api.weq.com/v1.4/event?click_id=AR1E-B0AAAFqzZTLpAAA010AAFHC,ip_14.32.124.239,%ED%95%9C%EA%B5%AD%EC%96%B4
aQn0Jxq_Q-GrrP6qXh_POA,crobo,20930_145,Install,1.0,125.184.154.143,6debe1bf-c61c-40c8-8fec-b744dd17fb21,1558149482,2019-05-18 11:18:02,1558149637,2019-05-18 11:20:37,1558149667,AfyBw_kAAAFqyPIwHAAA010AAFHC,http://pb.api.weq.com/v1.4/event?click_id=AfyBw_kAAAFqyPIwHAAA010AAFHC,idfa_6debe1bf-c61c-40c8-8fec-b744dd17fb21,%ED%95%9C%EA%B5%AD%EC%96%B4
aQn0Jxq_Q-GrrP6qXh_POA,crobo,20930_145,Install,1.0,218.38.136.99,2c21034a-9e84-4780-a972-44662187ca35,1558111351,2019-05-18 00:42:31,1558111546,2019-05-18 00:45:46,1558111577,ARPd23kAAAFqxqxcmAAA010AAFHC,http://pb.api.weq.com/v1.4/event?click_id=ARPd23kAAAFqxqxcmAAA010AAFHC,idfa_2c21034a-9e84-4780-a972-44662187ca35,%ED%95%9C%EA%B5%AD%EC%96%B4
aQn0Jxq_Q-GrrP6qXh_POA,crobo,20930_145,Install,1.0,14.43.79.140,e19f162f-9add-4e2f-a99f-41e78795746e,1558229027,2019-05-19 09:23:47,1558229239,2019-05-19 09:27:19,1558229269,AVumlY8AAAFqza_2SwAA010AAFHC,http://pb.api.weq.com/v1.4/event?click_id=AVumlY8AAAFqza_2SwAA010AAFHC,idfa_e19f162f-9add-4e2f-a99f-41e78795746e,%ED%95%9C%EA%B5%AD%EC%96%B4
aQn0Jxq_Q-GrrP6qXh_POA,crobo,20930_145,Install,1.0,223.171.38.75,c82c7f75-b446-4d1b-a0ed-5a4ddacc5563,1558147161,2019-05-18 10:39:21,1558147315,2019-05-18 10:41:55,1558147346,AdiaSaoAAAFqyM63kQAA010AAFHC,http://pb.api.weq.com/v1.4/event?click_id=AdiaSaoAAAFqyM63kQAA010AAFHC,idfa_c82c7f75-b446-4d1b-a0ed-5a4ddacc5563,%ED%95%9C%EA%B5%AD%EC%96%B4
aQn0Jxq_Q-GrrP6qXh_POA,crobo,20930_145,Install,1.0,112.161.25.140,67797718-4518-42b3-8311-189130559975,1558110300,2019-05-18 00:25:00,1558110476,2019-05-18 00:27:56,1558110508,AbX2ZSAAAAFqxpxSxAAA010AAFHC,http://pb.api.weq.com/v1.4/event?click_id=AbX2ZSAAAAFqxpxSxAAA010AAFHC,idfa_67797718-4518-42b3-8311-189130559975,%ED%95%9C%EA%B5%AD%EC%96%B4
aQn0Jxq_Q-GrrP6qXh_POA,crobo,20930_145,Install,1.0,220.127.126.139,62e1d4bb-eea0-401d-8597-ce33b481a488,1558147229,2019-05-18 10:40:29,1558147439,2019-05-18 10:43:59,1558147470,AfsTiqIAAAFqyM_ECgAA010AAFHC,http://pb.api.weq.com/v1.4/event?click_id=AfsTiqIAAAFqyM_ECgAA010AAFHC,idfa_62e1d4bb-eea0-401d-8597-ce33b481a488,%ED%95%9C%EA%B5%AD%EC%96%B4
aQn0Jxq_Q-GrrP6qXh_POA,crobo,20930_145,Install,1.0,183.112.102.112,532049ee-278d-4d4f-9e8b-c96792ce3856,1558149000,2019-05-18 11:10:00,1558149145,2019-05-18 11:12:25,1558149176,Ac6rjGcAAAFqyOra0AAA010AAFHC,http://pb.api.weq.com/v1.4/event?click_id=Ac6rjGcAAAFqyOra0AAA010AAFHC,idfa_532049ee-278d-4d4f-9e8b-c96792ce3856,%ED%95%9C%EA%B5%AD%EC%96%B4
aQn0Jxq_Q-GrrP6qXh_POA,crobo,20930_145,Install,1.0,113.10.49.101,d1a315e4-d596-42cd-bf41-cabf686240fe,1558146028,2019-05-18 10:20:28,1558146195,2019-05-18 10:23:15,1558146315,ARRWwdAAAAFqyL13zQAA010AAFHC,http://pb.api.weq.com/v1.4/event?click_id=ARRWwdAAAAFqyL13zQAA010AAFHC,idfa_d1a315e4-d596-42cd-bf41-cabf686240fe,%ED%95%9C%EA%B5%AD%EC%96%B4
aQn0Jxq_Q-GrrP6qXh_POA,crobo,20930_145,Install,1.0,221.151.37.120,f7f0e3ba-f84f-43d1-b4a8-e98bbe15e58d,1558145540,2019-05-18 10:12:20,1558145700,2019-05-18 10:15:00,1558145730,AdijW1AAAAFqyLYI8wAA010AAFHC,http://pb.api.weq.com/v1.4/event?click_id=AdijW1AAAAFqyLYI8wAA010AAFHC,idfa_f7f0e3ba-f84f-43d1-b4a8-e98bbe15e58d,%ED%95%9C%EA%B5%AD%EC%96%B4
aQn0Jxq_Q-GrrP6qXh_POA,crobo,20930_145,Install,1.0,119.194.7.26,58eb2ea8-66d7-494c-8ef0-36a06be06c39,1558145628,2019-05-18 10:13:48,1558145793,2019-05-18 10:16:33,1558145865,AZKzbuEAAAFqyLditwAA010AAFHC,http://pb.api.weq.com/v1.4/event?click_id=AZKzbuEAAAFqyLditwAA010AAFHC,idfa_58eb2ea8-66d7-494c-8ef0-36a06be06c39,%ED%95%9C%EA%B5%AD%EC%96%B4
aQn0Jxq_Q-GrrP6qXh_POA,crobo,20930_145,Install,1.0,1.222.80.90,9b82e7eb-b5e5-4d68-97f0-cb9d563e6346,1558147531,2019-05-18 10:45:31,1558147698,2019-05-18 10:48:18,1558147728,AUnkGtUAAAFqyNRtPwAA010AAFHC,http://pb.api.weq.com/v1.4/event?click_id=AUnkGtUAAAFqyNRtPwAA010AAFHC,idfa_9b82e7eb-b5e5-4d68-97f0-cb9d563e6346,%ED%95%9C%EA%B5%AD%EC%96%B4
aQn0Jxq_Q-GrrP6qXh_POA,crobo,20930_145,Install,1.0,121.140.69.73,846d6bce-67b1-4cd7-836a-d47f2253b66d,1558144823,2019-05-18 10:00:23,1558144993,2019-05-18 10:03:13,1558145056,Ac3dIw0AAAFqyKse-QAA010AAFHC,http://pb.api.weq.com/v1.4/event?click_id=Ac3dIw0AAAFqyKse-QAA010AAFHC,idfa_846d6bce-67b1-4cd7-836a-d47f2253b66d,%ED%95%9C%EA%B5%AD%EC%96%B4
aQn0Jxq_Q-GrrP6qXh_POA,crobo,20930_145,Install,1.0,220.76.251.168,0f35d704-4e53-49c4-8f25-4ccb1a9531ae,1558229841,2019-05-19 09:37:21,1558230058,2019-05-19 09:40:58,1558230093,Adm2VSAAAAFqzbxljgAA010AAFHC,http://pb.api.weq.com/v1.4/event?click_id=Adm2VSAAAAFqzbxljgAA010AAFHC,idfa_0f35d704-4e53-49c4-8f25-4ccb1a9531ae,%ED%95%9C%EA%B5%AD%EC%96%B4
aQn0Jxq_Q-GrrP6qXh_POA,crobo,20930_145,Install,1.0,210.216.14.25,975ffc15-ad03-4a5b-bac5-b46b43ad8c48,1558228837,2019-05-19 09:20:37,1558229048,2019-05-19 09:24:08,1558229084,ARZ6dIIAAAFqza0QBQAA010AAFHC,http://pb.api.weq.com/v1.4/event?click_id=ARZ6dIIAAAFqza0QBQAA010AAFHC,idfa_975ffc15-ad03-4a5b-bac5-b46b43ad8c48,%ED%95%9C%EA%B5%AD%EC%96%B4
aQn0Jxq_Q-GrrP6qXh_POA,crobo,20930_145,Install,1.0,211.216.48.158,4e4d24e2-6bae-4736-ac50-46160d31487e,1558228356,2019-05-19 09:12:36,1558229198,2019-05-19 09:26:38,1558229228,AQI-XJkAAAFqzaWx1gAA010AAFHC,http://pb.api.weq.com/v1.4/event?click_id=AQI-XJkAAAFqzaWx1gAA010AAFHC,idfa_4e4d24e2-6bae-4736-ac50-46160d31487e,%ED%95%9C%EA%B5%AD%EC%96%B4
aQn0Jxq_Q-GrrP6qXh_POA,crobo,20930_145,Install,1.0,59.10.138.195,bd523f1d-8ccd-4b99-802b-8f91844cd987,1558229144,2019-05-19 09:25:44,1558229347,2019-05-19 09:29:07,1558229377,AUYPuTYAAAFqzbG-wAAA010AAFHC,http://pb.api.weq.com/v1.4/event?click_id=AUYPuTYAAAFqzbG-wAAA010AAFHC,idfa_bd523f1d-8ccd-4b99-802b-8f91844cd987,%ED%95%9C%EA%B5%AD%EC%96%B4
aQn0Jxq_Q-GrrP6qXh_POA,crobo,20930_145,Install,1.0,220.123.170.42,a301a6e3-d684-45a5-8dba-a1ea43ba4495,1558229993,2019-05-19 09:39:53,1558230188,2019-05-19 09:43:08,1558230227,ARDTqv8AAAFqzb6gXQAA010AAFHC,http://pb.api.weq.com/v1.4/event?click_id=ARDTqv8AAAFqzb6gXQAA010AAFHC,idfa_a301a6e3-d684-45a5-8dba-a1ea43ba4495,%ED%95%9C%EA%B5%AD%EC%96%B4
aQn0Jxq_Q-GrrP6qXh_POA,crobo,20930_145,Install,1.0,114.30.165.101,5993d657-ed95-4106-b5fb-645b8ea4c648,1558147945,2019-05-18 10:52:25,1558148113,2019-05-18 10:55:13,1558148147,Afm8baUAAAFqyNqzNAAA010AAFHC,http://pb.api.weq.com/v1.4/event?click_id=Afm8baUAAAFqyNqzNAAA010AAFHC,idfa_5993d657-ed95-4106-b5fb-645b8ea4c648,%ED%95%9C%EA%B5%AD%EC%96%B4
aQn0Jxq_Q-GrrP6qXh_POA,crobo,20930_145,Install,1.0,220.126.189.241,5c26833a-17f4-4ec2-9bb1-874b396c23d7,1558152967,2019-05-18 12:16:07,1558153151,2019-05-18 12:19:11,1558153181,AdwS6iEAAAFqySdgMAAA010AAFHC,http://pb.api.weq.com/v1.4/event?click_id=AdwS6iEAAAFqySdgMAAA010AAFHC,idfa_5c26833a-17f4-4ec2-9bb1-874b396c23d7,%ED%95%9C%EA%B5%AD%EC%96%B4
aQn0Jxq_Q-GrrP6qXh_POA,crobo,20930_145,Install,1.0,101.235.30.186,6389938d-38ef-4deb-9172-e7fafb43bdd1,1558111795,2019-05-18 00:49:55,1558112006,2019-05-18 00:53:26,1558112036,AZ-f4jAAAAFqxrMbqAAA010AAFHC,http://pb.api.weq.com/v1.4/event?click_id=AZ-f4jAAAAFqxrMbqAAA010AAFHC,idfa_6389938d-38ef-4deb-9172-e7fafb43bdd1,%ED%95%9C%EA%B5%AD%EC%96%B4
aQn0Jxq_Q-GrrP6qXh_POA,crobo,20930_145,Install,1.0,123.200.114.248,a1386299-e4be-4a99-8012-fa8d49fed39b,1558150533,2019-05-18 11:35:33,1558150712,2019-05-18 11:38:32,1558150743,AeMpoM8AAAFqyQI89AAA010AAFHC,http://pb.api.weq.com/v1.4/event?click_id=AeMpoM8AAAFqyQI89AAA010AAFHC,idfa_a1386299-e4be-4a99-8012-fa8d49fed39b,%ED%95%9C%EA%B5%AD%EC%96%B4
aQn0Jxq_Q-GrrP6qXh_POA,crobo,20930_145,Install,1.0,112.162.62.41,cf28e4e7-82eb-462d-b5cd-fc56e8dc7b84,1558226557,2019-05-19 08:42:37,1558226763,2019-05-19 08:46:03,1558226794,AfG856sAAAFqzYpB_QAA010AAFHC,http://pb.api.weq.com/v1.4/event?click_id=AfG856sAAAFqzYpB_QAA010AAFHC,idfa_cf28e4e7-82eb-462d-b5cd-fc56e8dc7b84,%ED%95%9C%EA%B5%AD%EC%96%B4
aQn0Jxq_Q-GrrP6qXh_POA,crobo,20930_145,Install,1.0,183.98.233.92,e7f9e43f-6bef-4013-aa03-02d2c866eca9,1558229342,2019-05-19 09:29:02,1558229535,2019-05-19 09:32:15,1558229565,AfkhhxMAAAFqzbS7wgAA010AAFHC,http://pb.api.weq.com/v1.4/event?click_id=AfkhhxMAAAFqzbS7wgAA010AAFHC,idfa_e7f9e43f-6bef-4013-aa03-02d2c866eca9,%ED%95%9C%EA%B5%AD%EC%96%B4
aQn0Jxq_Q-GrrP6qXh_POA,crobo,20930_145,Install,1.0,211.63.144.112,0e66ac15-aec6-4ef2-8920-c5a8d66ac70a,1558227184,2019-05-19 08:53:04,1558227503,2019-05-19 08:58:23,1558227534,AbAkEDEAAAFqzZPYhAAA010AAFHC,http://pb.api.weq.com/v1.4/event?click_id=AbAkEDEAAAFqzZPYhAAA010AAFHC,idfa_0e66ac15-aec6-4ef2-8920-c5a8d66ac70a,%ED%95%9C%EA%B5%AD%EC%96%B4
aQn0Jxq_Q-GrrP6qXh_POA,crobo,20930_145,Install,1.0,121.159.135.131,9f460b19-9a91-4e5a-9e43-4fe66e09270f,1558148101,2019-05-18 10:55:01,1558148259,2019-05-18 10:57:39,1558148418,AbgtqhoAAAFqyN0j5QAA010AAFHC,http://pb.api.weq.com/v1.4/event?click_id=AbgtqhoAAAFqyN0j5QAA010AAFHC,idfa_9f460b19-9a91-4e5a-9e43-4fe66e09270f,%ED%95%9C%EA%B5%AD%EC%96%B4
aQn0Jxq_Q-GrrP6qXh_POA,crobo,20930_145,Install,1.0,210.216.14.11,,1558229501,2019-05-19 09:31:41,1558229718,2019-05-19 09:35:18,1558229748,AdDU2r8AAAFqzbcqZQAA010AAFHC,http://pb.api.weq.com/v1.4/event?click_id=AdDU2r8AAAFqzbcqZQAA010AAFHC,ip_210.216.14.11,%ED%95%9C%EA%B5%AD%EC%96%B4
aQn0Jxq_Q-GrrP6qXh_POA,crobo,20930_145,Install,1.0,123.200.114.215,528d9f8b-88d4-4726-a3b7-cc88a1dae509,1558139472,2019-05-18 08:31:12,1558139649,2019-05-18 08:34:09,1558139680,AQ943TMAAAFqyFl2-gAA010AAFHC,http://pb.api.weq.com/v1.4/event?click_id=AQ943TMAAAFqyFl2-gAA010AAFHC,idfa_528d9f8b-88d4-4726-a3b7-cc88a1dae509,%ED%95%9C%EA%B5%AD%EC%96%B4
aQn0Jxq_Q-GrrP6qXh_POA,crobo,20930_145,Install,1.0,119.66.102.7,824bfb34-cac4-44d0-806f-abecc902a3d6,1558150378,2019-05-18 11:32:58,1558150549,2019-05-18 11:35:49,1558150580,AS7PBpsAAAFqyP_htAAA010AAFHC,http://pb.api.weq.com/v1.4/event?click_id=AS7PBpsAAAFqyP_htAAA010AAFHC,idfa_824bfb34-cac4-44d0-806f-abecc902a3d6,%ED%95%9C%EA%B5%AD%EC%96%B4
aQn0Jxq_Q-GrrP6qXh_POA,crobo,20930_145,Install,1.0,118.42.115.142,0449fdc5-89c9-4499-86de-eb8cdb9865be,1558226893,2019-05-19 08:48:13,1558227090,2019-05-19 08:51:30,1558227123,AaYr5zoAAAFqzY9pBgAA010AAFHC,http://pb.api.weq.com/v1.4/event?click_id=AaYr5zoAAAFqzY9pBgAA010AAFHC,idfa_0449fdc5-89c9-4499-86de-eb8cdb9865be,%ED%95%9C%EA%B5%AD%EC%96%B4
aQn0Jxq_Q-GrrP6qXh_POA,crobo,20930_145,Install,1.0,1.221.192.149,17870e7b-4395-4f99-8086-a3d0de239fa0,1558145223,2019-05-18 10:07:03,1558145398,2019-05-18 10:09:58,1558145428,AUeXgAQAAAFqyLE2XgAA010AAFHC,http://pb.api.weq.com/v1.4/event?click_id=AUeXgAQAAAFqyLE2XgAA010AAFHC,idfa_17870e7b-4395-4f99-8086-a3d0de239fa0,%ED%95%9C%EA%B5%AD%EC%96%B4
aQn0Jxq_Q-GrrP6qXh_POA,crobo,20930_145,Install,1.0,121.186.96.167,80936421-c12f-4bc4-ac91-b3dde60d274d,1558110950,2019-05-18 00:35:50,1558111282,2019-05-18 00:41:22,1558111312,AUG93E8AAAFqxqYy8gAA010AAFHC,http://pb.api.weq.com/v1.4/event?click_id=AUG93E8AAAFqxqYy8gAA010AAFHC,idfa_80936421-c12f-4bc4-ac91-b3dde60d274d,%ED%95%9C%EA%B5%AD%EC%96%B4
aQn0Jxq_Q-GrrP6qXh_POA,crobo,20930_145,Install,1.0,218.158.238.131,fbf54f83-d94d-4047-a5cf-cdd3cd6fa0fb,1558224890,2019-05-19 08:14:50,1558225108,2019-05-19 08:18:28,1558225138,ARsIS-kAAAFqzXDMsAAA010AAFHC,http://pb.api.weq.com/v1.4/event?click_id=ARsIS-kAAAFqzXDMsAAA010AAFHC,idfa_fbf54f83-d94d-4047-a5cf-cdd3cd6fa0fb,%ED%95%9C%EA%B5%AD%EC%96%B4
aQn0Jxq_Q-GrrP6qXh_POA,crobo,20930_145,Install,1.0,218.146.86.246,314aa52f-b71a-4622-93e7-ef704eb4d993,1558150641,2019-05-18 11:37:21,1558150800,2019-05-18 11:40:00,1558150831,AXhaNt8AAAFqyQPmmgAA010AAFHC,http://pb.api.weq.com/v1.4/event?click_id=AXhaNt8AAAFqyQPmmgAA010AAFHC,idfa_314aa52f-b71a-4622-93e7-ef704eb4d993,%ED%95%9C%EA%B5%AD%EC%96%B4
aQn0Jxq_Q-GrrP6qXh_POA,crobo,20930_145,Install,1.0,106.249.135.226,d7ec3357-a69f-47e1-a5c6-012378f3739a,1558226673,2019-05-19 08:44:33,1558226845,2019-05-19 08:47:25,1558226875,AX-C64kAAAFqzYwLcgAA010AAFHC,http://pb.api.weq.com/v1.4/event?click_id=AX-C64kAAAFqzYwLcgAA010AAFHC,idfa_d7ec3357-a69f-47e1-a5c6-012378f3739a,%ED%95%9C%EA%B5%AD%EC%96%B4
aQn0Jxq_Q-GrrP6qXh_POA,crobo,20930_145,Install,1.0,165.132.123.30,1bb36cf5-0896-476b-b516-82a9a0b3b87e,1558227662,2019-05-19 09:01:02,1558227844,2019-05-19 09:04:04,1558227876,Af2ebDcAAAFqzZsargAA010AAFHC,http://pb.api.weq.com/v1.4/event?click_id=Af2ebDcAAAFqzZsargAA010AAFHC,idfa_1bb36cf5-0896-476b-b516-82a9a0b3b87e,%ED%95%9C%EA%B5%AD%EC%96%B4
aQn0Jxq_Q-GrrP6qXh_POA,crobo,20930_145,Install,1.0,124.217.216.115,3d8c3db2-245c-408c-a92f-145dda4f4160,1558151405,2019-05-18 11:50:05,1558151575,2019-05-18 11:52:55,1558151613,AWY7mukAAAFqyQ-KBAAA010AAFHC,http://pb.api.weq.com/v1.4/event?click_id=AWY7mukAAAFqyQ-KBAAA010AAFHC,idfa_3d8c3db2-245c-408c-a92f-145dda4f4160,%ED%95%9C%EA%B5%AD%EC%96%B4
aQn0Jxq_Q-GrrP6qXh_POA,crobo,20930_145,Install,1.0,211.202.42.111,934c7ddc-fbe4-45cd-b007-a34d578322f7,1558151033,2019-05-18 11:43:53,1558151194,2019-05-18 11:46:34,1558151225,Ach9MSkAAAFqyQniMwAA010AAFHC,http://pb.api.weq.com/v1.4/event?click_id=Ach9MSkAAAFqyQniMwAA010AAFHC,idfa_934c7ddc-fbe4-45cd-b007-a34d578322f7,%ED%95%9C%EA%B5%AD%EC%96%B4
aQn0Jxq_Q-GrrP6qXh_POA,crobo,20930_145,Install,1.0,121.152.137.21,9cc3fa9a-ecc5-4264-acf1-816a716c182d,1558225761,2019-05-19 08:29:21,1558225944,2019-05-19 08:32:24,1558225974,AYQ0PMQAAAFqzX4iZgAA010AAFHC,http://pb.api.weq.com/v1.4/event?click_id=AYQ0PMQAAAFqzX4iZgAA010AAFHC,idfa_9cc3fa9a-ecc5-4264-acf1-816a716c182d,%ED%95%9C%EA%B5%AD%EC%96%B4
aQn0Jxq_Q-GrrP6qXh_POA,crobo,20930_145,Install,1.0,210.216.14.29,2d4f559f-3688-4d62-9682-7f3cf4a88a7b,1558149359,2019-05-18 11:15:59,1558149541,2019-05-18 11:19:01,1558149572,AW61ZFIAAAFqyPBO8QAA010AAFHC,http://pb.api.weq.com/v1.4/event?click_id=AW61ZFIAAAFqyPBO8QAA010AAFHC,idfa_2d4f559f-3688-4d62-9682-7f3cf4a88a7b,%ED%95%9C%EA%B5%AD%EC%96%B4
aQn0Jxq_Q-GrrP6qXh_POA,crobo,20930_145,Install,1.0,175.118.37.32,067b5d58-a18a-4d0b-806e-32f0f7d240cd,1558148715,2019-05-18 11:05:15,1558148868,2019-05-18 11:07:48,1558148898,AcRBCUUAAAFqyOZ_hgAA010AAFHC,http://pb.api.weq.com/v1.4/event?click_id=AcRBCUUAAAFqyOZ_hgAA010AAFHC,idfa_067b5d58-a18a-4d0b-806e-32f0f7d240cd,%ED%95%9C%EA%B5%AD%EC%96%B4
aQn0Jxq_Q-GrrP6qXh_POA,crobo,20930_145,Install,1.0,61.250.197.74,fa9888e6-9a77-4c43-bea2-617862a4b043,1558225176,2019-05-19 08:19:36,1558225353,2019-05-19 08:22:33,1558225383,AQk14_wAAAFqzXUvsAAA010AAFHC,http://pb.api.weq.com/v1.4/event?click_id=AQk14_wAAAFqzXUvsAAA010AAFHC,idfa_fa9888e6-9a77-4c43-bea2-617862a4b043,%ED%95%9C%EA%B5%AD%EC%96%B4
aQn0Jxq_Q-GrrP6qXh_POA,crobo,20930_145,Install,1.0,220.81.21.171,407764e7-01de-4565-9920-4b5b651c0828,1558149097,2019-05-18 11:11:37,1558149255,2019-05-18 11:14:15,1558149286,AWBvH9UAAAFqyOxQ6wAA010AAFHC,http://pb.api.weq.com/v1.4/event?click_id=AWBvH9UAAAFqyOxQ6wAA010AAFHC,idfa_407764e7-01de-4565-9920-4b5b651c0828,%ED%95%9C%EA%B5%AD%EC%96%B4
aQn0Jxq_Q-GrrP6qXh_POA,crobo,20930_145,Install,1.0,121.137.134.40,9d191849-84d7-4f79-9a23-342dc3977453,1558229617,2019-05-19 09:33:37,1558229820,2019-05-19 09:37:00,1558229852,AWZcKD0AAAFqzbjwsQAA010AAFHC,http://pb.api.weq.com/v1.4/event?click_id=AWZcKD0AAAFqzbjwsQAA010AAFHC,idfa_9d191849-84d7-4f79-9a23-342dc3977453,%ED%95%9C%EA%B5%AD%EC%96%B4
aQn0Jxq_Q-GrrP6qXh_POA,crobo,20930_145,Install,1.0,218.234.198.91,781ded7a-6a1b-4d17-a923-42f2fd4a1cde,1558110937,2019-05-18 00:35:37,1558111114,2019-05-18 00:38:34,1558111144,AVcLqRwAAAFqxqYMqQAA010AAFHC,http://pb.api.weq.com/v1.4/event?click_id=AVcLqRwAAAFqxqYMqQAA010AAFHC,idfa_781ded7a-6a1b-4d17-a923-42f2fd4a1cde,%ED%95%9C%EA%B5%AD%EC%96%B4
aQn0Jxq_Q-GrrP6qXh_POA,crobo,20930_145,Install,1.0,223.28.243.244,bbc5027e-c874-4821-9b05-f17e8bc6e121,1558148707,2019-05-18 11:05:07,1558148867,2019-05-18 11:07:47,1558148898,AQkH5_AAAAFqyOZg0gAA010AAFHC,http://pb.api.weq.com/v1.4/event?click_id=AQkH5_AAAAFqyOZg0gAA010AAFHC,idfa_bbc5027e-c874-4821-9b05-f17e8bc6e121,%ED%95%9C%EA%B5%AD%EC%96%B4
aQn0Jxq_Q-GrrP6qXh_POA,crobo,20930_145,Install,1.0,180.66.58.111,e0b0c9ec-dfe3-40fb-8f00-380b1ad5cb37,1558145214,2019-05-18 10:06:54,1558145384,2019-05-18 10:09:44,1558145455,AQCB8E4AAAFqyLESWwAA010AAFHC,http://pb.api.weq.com/v1.4/event?click_id=AQCB8E4AAAFqyLESWwAA010AAFHC,idfa_e0b0c9ec-dfe3-40fb-8f00-380b1ad5cb37,%ED%95%9C%EA%B5%AD%EC%96%B4
aQn0Jxq_Q-GrrP6qXh_POA,crobo,20930_145,Install,1.0,61.37.41.130,bb29d2a3-889b-4f0a-b4c5-0fde5632ea86,1558152571,2019-05-18 12:09:31,1558152736,2019-05-18 12:12:16,1558152766,Acxih_gAAAFqySFURQAA010AAFHC,http://pb.api.weq.com/v1.4/event?click_id=Acxih_gAAAFqySFURQAA010AAFHC,idfa_bb29d2a3-889b-4f0a-b4c5-0fde5632ea86,%ED%95%9C%EA%B5%AD%EC%96%B4
aQn0Jxq_Q-GrrP6qXh_POA,crobo,20930_145,Install,1.0,118.62.9.2,816afe08-ecba-4435-acb3-43864010e268,1558152120,2019-05-18 12:02:00,1558152298,2019-05-18 12:04:58,1558152328,AV_FSFYAAAFqyRp4_QAA010AAFHC,http://pb.api.weq.com/v1.4/event?click_id=AV_FSFYAAAFqyRp4_QAA010AAFHC,idfa_816afe08-ecba-4435-acb3-43864010e268,%ED%95%9C%EA%B5%AD%EC%96%B4
aQn0Jxq_Q-GrrP6qXh_POA,crobo,20930_145,Install,1.0,59.31.84.142,a9bf0648-fa53-4aaa-8416-27f5f76896e0,1558225863,2019-05-19 08:31:03,1558226088,2019-05-19 08:34:48,1558226119,Aab5lgAAAAFqzX-jUAAA010AAFHC,http://pb.api.weq.com/v1.4/event?click_id=Aab5lgAAAAFqzX-jUAAA010AAFHC,idfa_a9bf0648-fa53-4aaa-8416-27f5f76896e0,%ED%95%9C%EA%B5%AD%EC%96%B4
