cid,partner_id,channel_id,action_id,cpi,ip,idfa,click time,click datetime,install time,install datetime,postback time,click id,postback url,unique user id
Pgb8rJV6Tdi5OjS3pzMpNg,crobo,19559_SSG5I3Xj/WuBs8cTkCPIMQ==_19559_SSG5I3Xj/WuBs8cTkCPIMQ==,Install,3.5,122.134.193.232,EF1C3C5A-93DE-3810-B450-37733F71EB72,1557478061,2019-05-10 16:47:41,1557478553,2019-05-10 16:55:53,1557478583,AWbVzEIAAAFqoO0P5QABB88AAExn,http://pb.api.weq.com/v1.4/event?click_id=AWbVzEIAAAFqoO0P5QABB88AAExn,idfa_EF1C3C5A-93DE-3810-B450-37733F71EB72,ja-JP
Pgb8rJV6Tdi5OjS3pzMpNg,crobo,19559_SSG5I3Xj/WuBs8cTkCPIMQ==_19559_SSG5I3Xj/WuBs8cTkCPIMQ==,Install,3.5,219.195.206.73,DE6200B9-B589-38CD-9DFE-550BDFAFF982,1557478735,2019-05-10 16:58:55,1557478852,2019-05-10 17:00:52,1557478882,AXYVf28AAAFqoPcuhgABB88AAExn,http://pb.api.weq.com/v1.4/event?click_id=AXYVf28AAAFqoPcuhgABB88AAExn,idfa_DE6200B9-B589-38CD-9DFE-550BDFAFF982,ja-JP
Pgb8rJV6Tdi5OjS3pzMpNg,crobo,19559_SSG5I3Xj/WuBs8cTkCPIMQ==_19559_SSG5I3Xj/WuBs8cTkCPIMQ==,Install,3.5,111.101.18.97,47FF6CC2-44FA-30F9-91E0-B51D8D1A0068,1557479016,2019-05-10 17:03:36,1557479127,2019-05-10 17:05:27,1557479158,ASMn6zIAAAFqoPulBQABB88AAExn,http://pb.api.weq.com/v1.4/event?click_id=ASMn6zIAAAFqoPulBQABB88AAExn,idfa_47FF6CC2-44FA-30F9-91E0-B51D8D1A0068,ja-JP
Pgb8rJV6Tdi5OjS3pzMpNg,crobo,19559_SSG5I3Xj/WuBs8cTkCPIMQ==_19559_SSG5I3Xj/WuBs8cTkCPIMQ==,Install,3.5,133.123.127.141,8F521252-46C9-32BF-8975-B6E6EF658A2A,1557477538,2019-05-10 16:38:58,1557477711,2019-05-10 16:41:51,1557477742,AY5XIQQAAAFqoOUDlgABB88AAExn,http://pb.api.weq.com/v1.4/event?click_id=AY5XIQQAAAFqoOUDlgABB88AAExn,idfa_8F521252-46C9-32BF-8975-B6E6EF658A2A,ja-JP
Pgb8rJV6Tdi5OjS3pzMpNg,crobo,19559_SSG5I3Xj/WuBs8cTkCPIMQ==_19559_SSG5I3Xj/WuBs8cTkCPIMQ==,Install,3.5,118.240.192.180,438ECCC9-AC5D-3FB1-98E7-F5D8A660B041,1557477628,2019-05-10 16:40:28,1557477726,2019-05-10 16:42:06,1557477757,AetRVnAAAAFqoOZ1lQABB88AAExn,http://pb.api.weq.com/v1.4/event?click_id=AetRVnAAAAFqoOZ1lQABB88AAExn,idfa_438ECCC9-AC5D-3FB1-98E7-F5D8A660B041,ja-JP
Pgb8rJV6Tdi5OjS3pzMpNg,crobo,19559_SSG5I3Xj/WuBs8cTkCPIMQ==_19559_SSG5I3Xj/WuBs8cTkCPIMQ==,Install,3.5,27.253.251.194,5BBF0BB8-D2D0-3643-B7A0-5A2F457FFB12,1557478157,2019-05-10 16:49:17,1557478288,2019-05-10 16:51:28,1557478358,Ae4XOWQAAAFqoO5EPAABB88AAExn,http://pb.api.weq.com/v1.4/event?click_id=Ae4XOWQAAAFqoO5EPAABB88AAExn,idfa_5BBF0BB8-D2D0-3643-B7A0-5A2F457FFB12,ja-JP
Pgb8rJV6Tdi5OjS3pzMpNg,crobo,19559_SSG5I3Xj/WuBs8cTkCPIMQ==_19559_SSG5I3Xj/WuBs8cTkCPIMQ==,Install,3.5,14.10.113.128,4447B21D-1A76-3798-9C98-14A1360F2818,1557478079,2019-05-10 16:47:59,1557478187,2019-05-10 16:49:47,1557478218,AS_fC2EAAAFqoO1DSwABB88AAExn,http://pb.api.weq.com/v1.4/event?click_id=AS_fC2EAAAFqoO1DSwABB88AAExn,idfa_4447B21D-1A76-3798-9C98-14A1360F2818,ja-JP
Pgb8rJV6Tdi5OjS3pzMpNg,crobo,19559_SSG5I3Xj/WuBs8cTkCPIMQ==_19559_SSG5I3Xj/WuBs8cTkCPIMQ==,Install,3.5,180.146.175.134,1E128817-7285-3B43-936D-0F9131D14E99,1557478730,2019-05-10 16:58:50,1557478837,2019-05-10 17:00:37,1557478869,AfT2absAAAFqoPdAQAABB88AAExn,http://pb.api.weq.com/v1.4/event?click_id=AfT2absAAAFqoPdAQAABB88AAExn,idfa_1E128817-7285-3B43-936D-0F9131D14E99,ja-JP
Pgb8rJV6Tdi5OjS3pzMpNg,crobo,19559_SSG5I3Xj/WuBs8cTkCPIMQ==_19559_SSG5I3Xj/WuBs8cTkCPIMQ==,Install,3.5,126.241.52.199,CACB7043-5076-3883-A05E-DE465CE7FFFF,1557478242,2019-05-10 16:50:42,1557478383,2019-05-10 16:53:03,1557478414,ASJ_FkQAAAFqoO_R9QABB88AAExn,http://pb.api.weq.com/v1.4/event?click_id=ASJ_FkQAAAFqoO_R9QABB88AAExn,idfa_CACB7043-5076-3883-A05E-DE465CE7FFFF,ja-JP
Pgb8rJV6Tdi5OjS3pzMpNg,crobo,19559_SSG5I3Xj/WuBs8cTkCPIMQ==_19559_SSG5I3Xj/WuBs8cTkCPIMQ==,Install,3.5,203.140.124.121,463D1765-0F95-3EEA-AD5D-861D3C1D2E9F,1557477794,2019-05-10 16:43:14,1557478011,2019-05-10 16:46:51,1557478048,Af7h1ZsAAAFqoOjwtQABB88AAExn,http://pb.api.weq.com/v1.4/event?click_id=Af7h1ZsAAAFqoOjwtQABB88AAExn,idfa_463D1765-0F95-3EEA-AD5D-861D3C1D2E9F,ja-JP
Pgb8rJV6Tdi5OjS3pzMpNg,crobo,19559_SSG5I3Xj/WuBs8cTkCPIMQ==_19559_SSG5I3Xj/WuBs8cTkCPIMQ==,Install,3.5,60.130.249.68,A9365A45-A655-3988-B05D-D158224E3551,1557478021,2019-05-10 16:47:01,1557478170,2019-05-10 16:49:30,1557478200,AVw5sTIAAAFqoOxcRQABB88AAExn,http://pb.api.weq.com/v1.4/event?click_id=AVw5sTIAAAFqoOxcRQABB88AAExn,idfa_A9365A45-A655-3988-B05D-D158224E3551,ja-JP
Pgb8rJV6Tdi5OjS3pzMpNg,crobo,19559_SSG5I3Xj/WuBs8cTkCPIMQ==_19559_SSG5I3Xj/WuBs8cTkCPIMQ==,Install,3.5,106.154.41.176,9706847A-E92A-3232-8029-A87361664234,1557477803,2019-05-10 16:43:23,1557477924,2019-05-10 16:45:24,1557477955,AZNKk6UAAAFqoOkW2AABB88AAExn,http://pb.api.weq.com/v1.4/event?click_id=AZNKk6UAAAFqoOkW2AABB88AAExn,idfa_9706847A-E92A-3232-8029-A87361664234,ja-JP
Pgb8rJV6Tdi5OjS3pzMpNg,crobo,19559_SSG5I3Xj/WuBs8cTkCPIMQ==_19559_SSG5I3Xj/WuBs8cTkCPIMQ==,Install,3.5,219.102.216.123,05EEEA94-30A8-366A-B1E4-732345D00F6D,1557478279,2019-05-10 16:51:19,1557478387,2019-05-10 16:53:07,1557478418,AdjPf24AAAFqoPBiLQABB88AAExn,http://pb.api.weq.com/v1.4/event?click_id=AdjPf24AAAFqoPBiLQABB88AAExn,idfa_05EEEA94-30A8-366A-B1E4-732345D00F6D,ja-JP
Pgb8rJV6Tdi5OjS3pzMpNg,crobo,19559_SSG5I3Xj/WuBs8cTkCPIMQ==_19559_SSG5I3Xj/WuBs8cTkCPIMQ==,Install,3.5,61.125.230.4,B4552D6B-435B-3FB2-8943-84B502C82E75,1557478557,2019-05-10 16:55:57,1557478709,2019-05-10 16:58:29,1557478739,AdEASBAAAAFqoPRuxQABB88AAExn,http://pb.api.weq.com/v1.4/event?click_id=AdEASBAAAAFqoPRuxQABB88AAExn,idfa_B4552D6B-435B-3FB2-8943-84B502C82E75,ja-JP
Pgb8rJV6Tdi5OjS3pzMpNg,crobo,19559_SSG5I3Xj/WuBs8cTkCPIMQ==_19559_SSG5I3Xj/WuBs8cTkCPIMQ==,Install,3.5,133.204.84.96,2F6894C2-6D6D-3809-B349-EC98D4297B97,1557478771,2019-05-10 16:59:31,1557478862,2019-05-10 17:01:02,1557478892,Af1VMWQAAAFqoPfkEgABB88AAExn,http://pb.api.weq.com/v1.4/event?click_id=Af1VMWQAAAFqoPfkEgABB88AAExn,idfa_2F6894C2-6D6D-3809-B349-EC98D4297B97,ja-JP
Pgb8rJV6Tdi5OjS3pzMpNg,crobo,19559_SSG5I3Xj/WuBs8cTkCPIMQ==_19559_SSG5I3Xj/WuBs8cTkCPIMQ==,Install,3.5,122.132.222.218,E5DB1CFE-3879-3568-AFD7-D0114812CCCA,1557477787,2019-05-10 16:43:07,1557478140,2019-05-10 16:49:00,1557478171,AUgZm3MAAAFqoOjglwABB88AAExn,http://pb.api.weq.com/v1.4/event?click_id=AUgZm3MAAAFqoOjglwABB88AAExn,idfa_E5DB1CFE-3879-3568-AFD7-D0114812CCCA,ja-JP
Pgb8rJV6Tdi5OjS3pzMpNg,crobo,19559_SSG5I3Xj/WuBs8cTkCPIMQ==_19559_SSG5I3Xj/WuBs8cTkCPIMQ==,Install,3.5,180.21.150.83,F1D9AD49-E059-32D5-AEEA-6A0F4DB192EC,1557478639,2019-05-10 16:57:19,1557478766,2019-05-10 16:59:26,1557478797,AbgLQFgAAAFqoPWDhQABB88AAExn,http://pb.api.weq.com/v1.4/event?click_id=AbgLQFgAAAFqoPWDhQABB88AAExn,idfa_F1D9AD49-E059-32D5-AEEA-6A0F4DB192EC,ja-JP
Pgb8rJV6Tdi5OjS3pzMpNg,crobo,19559_SSG5I3Xj/WuBs8cTkCPIMQ==_19559_SSG5I3Xj/WuBs8cTkCPIMQ==,Install,3.5,153.232.21.121,C3C2C1EC-81A6-3ABE-B98A-C7E8FF461508,1557477588,2019-05-10 16:39:48,1557477701,2019-05-10 16:41:41,1557477732,AW8kL64AAAFqoOXLcAABB88AAExn,http://pb.api.weq.com/v1.4/event?click_id=AW8kL64AAAFqoOXLcAABB88AAExn,idfa_C3C2C1EC-81A6-3ABE-B98A-C7E8FF461508,ja-JP
Pgb8rJV6Tdi5OjS3pzMpNg,crobo,19559_SSG5I3Xj/WuBs8cTkCPIMQ==_19559_SSG5I3Xj/WuBs8cTkCPIMQ==,Install,3.5,223.216.16.158,F2C4C7CB-7559-3DC4-8FF8-4F0232DE3F28,1557478526,2019-05-10 16:55:26,1557478649,2019-05-10 16:57:29,1557478679,AW2mHc0AAAFqoPQn0wABB88AAExn,http://pb.api.weq.com/v1.4/event?click_id=AW2mHc0AAAFqoPQn0wABB88AAExn,idfa_F2C4C7CB-7559-3DC4-8FF8-4F0232DE3F28,ja-JP
