cid,partner_id,channel_id,action_id,cpi,ip,idfa,click time,click datetime,install time,install datetime,postback time,click id,postback url,unique user id
DETBOkCTQ5KRY4R4IgiqJw,cygobel,1597_,Install,1.0,210.216.14.25,29664e7b-6121-44db-94d9-1b9908461474,1557292747,2019-05-08 13:19:07,1557292854,2019-05-08 13:20:54,1557292886,11e97150cb7f49f0b92a271e50078ba3,http://www.trackrc.com/track/p_conversion?aid=1579&clickid=11e97150cb7f49f0b92a271e50078ba3,idfa_29664e7b-6121-44db-94d9-1b9908461474,%ED%95%9C%EA%B5%AD%EC%96%B4
DETBOkCTQ5KRY4R4IgiqJw,cygobel,1597_,Install,1.0,14.61.182.195,34335c37-0ccb-43a0-a524-224ab9d1bd58,1557372705,2019-05-09 11:31:45,1557372791,2019-05-09 11:33:11,1557372821,11e9720af65e37c09e7f4f3a6d8c47a3,http://www.trackrc.com/track/p_conversion?aid=1579&clickid=11e9720af65e37c09e7f4f3a6d8c47a3,idfa_34335c37-0ccb-43a0-a524-224ab9d1bd58,%ED%95%9C%EA%B5%AD%EC%96%B4
DETBOkCTQ5KRY4R4IgiqJw,cygobel,1597_,Install,1.0,61.81.115.75,95b2229e-92b1-4102-9020-404eb63a3f99,1557371263,2019-05-09 11:07:43,1557371349,2019-05-09 11:09:09,1557371396,11e9720799539500a27af919e889fa63,http://www.trackrc.com/track/p_conversion?aid=1579&clickid=11e9720799539500a27af919e889fa63,idfa_95b2229e-92b1-4102-9020-404eb63a3f99,%ED%95%9C%EA%B5%AD%EC%96%B4
DETBOkCTQ5KRY4R4IgiqJw,cygobel,1597_,Install,1.0,27.116.255.153,3fa37f55-9454-464f-af4a-d4ab905211ec,1557370849,2019-05-09 11:00:49,1557370941,2019-05-09 11:02:21,1557371017,11e97206a49291b0bd4bc194859cd675,http://www.trackrc.com/track/p_conversion?aid=1579&clickid=11e97206a49291b0bd4bc194859cd675,idfa_3fa37f55-9454-464f-af4a-d4ab905211ec,%ED%95%9C%EA%B5%AD%EC%96%B4
DETBOkCTQ5KRY4R4IgiqJw,cygobel,1597_,Install,1.0,221.141.3.100,cbd9169b-7762-40ae-8e29-6a37c1b87691,1557363684,2019-05-09 09:01:24,1557363819,2019-05-09 09:03:39,1557363849,11e971f5f5a8aff0992f599a89488d35,http://www.trackrc.com/track/p_conversion?aid=1579&clickid=11e971f5f5a8aff0992f599a89488d35,idfa_cbd9169b-7762-40ae-8e29-6a37c1b87691,%ED%95%9C%EA%B5%AD%EC%96%B4
DETBOkCTQ5KRY4R4IgiqJw,cygobel,1597_,Install,1.0,121.66.93.195,25c3cc9a-26ee-4385-bc49-700550f16176,1557372687,2019-05-09 11:31:27,1557372772,2019-05-09 11:32:52,1557372802,11e9720aeb18c7e0a5e501589c63eebd,http://www.trackrc.com/track/p_conversion?aid=1579&clickid=11e9720aeb18c7e0a5e501589c63eebd,idfa_25c3cc9a-26ee-4385-bc49-700550f16176,%ED%95%9C%EA%B5%AD%EC%96%B4
DETBOkCTQ5KRY4R4IgiqJw,cygobel,1597_,Install,1.0,211.216.58.204,9ee1dda5-cd27-41e6-8da7-a3bc436ed022,1557295235,2019-05-08 14:00:35,1557295316,2019-05-08 14:01:56,1557295346,11e9715695ed3df099e7b7482ac00b2c,http://www.trackrc.com/track/p_conversion?aid=1579&clickid=11e9715695ed3df099e7b7482ac00b2c,idfa_9ee1dda5-cd27-41e6-8da7-a3bc436ed022,%ED%95%9C%EA%B5%AD%EC%96%B4
DETBOkCTQ5KRY4R4IgiqJw,cygobel,1597_,Install,1.0,211.180.176.37,83600c7b-7d47-4c7c-bb3b-8e773b26e15f,1557294798,2019-05-08 13:53:18,1557294883,2019-05-08 13:54:43,1557294914,11e9715592639770b342cbd0425eceec,http://www.trackrc.com/track/p_conversion?aid=1579&clickid=11e9715592639770b342cbd0425eceec,idfa_83600c7b-7d47-4c7c-bb3b-8e773b26e15f,%ED%95%9C%EA%B5%AD%EC%96%B4
DETBOkCTQ5KRY4R4IgiqJw,cygobel,1597_,Install,1.0,112.220.22.106,ef02993f-ad4f-46d2-b8dd-bbb58e4af83c,1557373000,2019-05-09 11:36:40,1557373088,2019-05-09 11:38:08,1557373118,11e9720ba64335a0992f599a89488d35,http://www.trackrc.com/track/p_conversion?aid=1579&clickid=11e9720ba64335a0992f599a89488d35,idfa_ef02993f-ad4f-46d2-b8dd-bbb58e4af83c,%ED%95%9C%EA%B5%AD%EC%96%B4
DETBOkCTQ5KRY4R4IgiqJw,cygobel,1597_,Install,1.0,118.44.9.61,e9d5cbf7-cf95-4ffd-8ba1-587e2341615f,1557293150,2019-05-08 13:25:50,1557293241,2019-05-08 13:27:21,1557293274,11e97151bc2c72b093d30b886d30b5b0,http://www.trackrc.com/track/p_conversion?aid=1579&clickid=11e97151bc2c72b093d30b886d30b5b0,idfa_e9d5cbf7-cf95-4ffd-8ba1-587e2341615f,%ED%95%9C%EA%B5%AD%EC%96%B4
DETBOkCTQ5KRY4R4IgiqJw,cygobel,1597_,Install,1.0,49.246.68.220,ab0fb5ee-f293-4f7a-b891-175d5bc1999a,1557293405,2019-05-08 13:30:05,1557293492,2019-05-08 13:31:32,1557293523,11e9715253bc3110a63d79e18a0d5a13,http://www.trackrc.com/track/p_conversion?aid=1579&clickid=11e9715253bc3110a63d79e18a0d5a13,idfa_ab0fb5ee-f293-4f7a-b891-175d5bc1999a,%ED%95%9C%EA%B5%AD%EC%96%B4
DETBOkCTQ5KRY4R4IgiqJw,cygobel,1597_,Install,1.0,14.38.128.160,d06bd399-2fd3-4804-9652-cbc33dceccf6,1557294897,2019-05-08 13:54:57,1557294988,2019-05-08 13:56:28,1557295020,11e97155cd200f60a9749137440f6ce1,http://www.trackrc.com/track/p_conversion?aid=1579&clickid=11e97155cd200f60a9749137440f6ce1,idfa_d06bd399-2fd3-4804-9652-cbc33dceccf6,%ED%95%9C%EA%B5%AD%EC%96%B4
DETBOkCTQ5KRY4R4IgiqJw,cygobel,1597_,Install,1.0,61.37.150.6,b2dfc4ba-a642-4f99-988b-bffe8d0edc1f,1557358460,2019-05-09 07:34:20,1557358577,2019-05-09 07:36:17,1557358607,11e971e9bbe3fbf088863d0bd7e94b53,http://www.trackrc.com/track/p_conversion?aid=1579&clickid=11e971e9bbe3fbf088863d0bd7e94b53,idfa_b2dfc4ba-a642-4f99-988b-bffe8d0edc1f,%ED%95%9C%EA%B5%AD%EC%96%B4
DETBOkCTQ5KRY4R4IgiqJw,cygobel,1597_,Install,1.0,210.216.14.29,9a08dd6a-3972-41e0-97da-0c2c96620748,1557369165,2019-05-09 10:32:45,1557369264,2019-05-09 10:34:24,1557369294,11e97202b8761c009da3e11a6f64226b,http://www.trackrc.com/track/p_conversion?aid=1579&clickid=11e97202b8761c009da3e11a6f64226b,idfa_9a08dd6a-3972-41e0-97da-0c2c96620748,%ED%95%9C%EA%B5%AD%EC%96%B4
DETBOkCTQ5KRY4R4IgiqJw,cygobel,1597_,Install,1.0,110.10.130.19,06ef642b-4d6f-4828-b654-c28ca9b3e693,1557364387,2019-05-09 09:13:07,1557364580,2019-05-09 09:16:20,1557364611,11e971f7980b50d08ffb2f3069980f96,http://www.trackrc.com/track/p_conversion?aid=1579&clickid=11e971f7980b50d08ffb2f3069980f96,idfa_06ef642b-4d6f-4828-b654-c28ca9b3e693,%ED%95%9C%EA%B5%AD%EC%96%B4
DETBOkCTQ5KRY4R4IgiqJw,cygobel,1597_,Install,1.0,175.198.214.202,cc80ddfa-b078-46fa-a0c0-13ee822cacf7,1557358742,2019-05-09 07:39:02,1557358856,2019-05-09 07:40:56,1557358887,11e971ea72a20ee08ffb2f3069980f96,http://www.trackrc.com/track/p_conversion?aid=1579&clickid=11e971ea72a20ee08ffb2f3069980f96,idfa_cc80ddfa-b078-46fa-a0c0-13ee822cacf7,%ED%95%9C%EA%B5%AD%EC%96%B4
DETBOkCTQ5KRY4R4IgiqJw,cygobel,1597_,Install,1.0,14.7.165.143,d2caa884-3765-44df-861a-efd30716b116,1557358890,2019-05-09 07:41:30,1557359033,2019-05-09 07:43:53,1557359063,11e971eacc10586088863d0bd7e94b53,http://www.trackrc.com/track/p_conversion?aid=1579&clickid=11e971eacc10586088863d0bd7e94b53,idfa_d2caa884-3765-44df-861a-efd30716b116,%ED%95%9C%EA%B5%AD%EC%96%B4
DETBOkCTQ5KRY4R4IgiqJw,cygobel,1597_,Install,1.0,218.152.41.111,eb73524a-b21f-4884-94f6-d44ba3690c08,1557372431,2019-05-09 11:27:11,1557372516,2019-05-09 11:28:36,1557372554,11e9720a510d3410a27af919e889fa63,http://www.trackrc.com/track/p_conversion?aid=1579&clickid=11e9720a510d3410a27af919e889fa63,idfa_eb73524a-b21f-4884-94f6-d44ba3690c08,%ED%95%9C%EA%B5%AD%EC%96%B4
DETBOkCTQ5KRY4R4IgiqJw,cygobel,1597_,Install,1.0,175.236.156.204,9c3d141f-ed0a-4be5-a3e7-5c42c4e60bff,1557294759,2019-05-08 13:52:39,1557294846,2019-05-08 13:54:06,1557295343,11e971557921fc209acac9caf46abdf3,http://www.trackrc.com/track/p_conversion?aid=1579&clickid=11e971557921fc209acac9caf46abdf3,idfa_9c3d141f-ed0a-4be5-a3e7-5c42c4e60bff,%ED%95%9C%EA%B5%AD%EC%96%B4
DETBOkCTQ5KRY4R4IgiqJw,cygobel,1597_,Install,1.0,114.30.165.105,20767f44-653c-4d7d-be1a-59031bf826a7,1557293970,2019-05-08 13:39:30,1557294070,2019-05-08 13:41:10,1557294100,11e97153a1c29920b342cbd0425eceec,http://www.trackrc.com/track/p_conversion?aid=1579&clickid=11e97153a1c29920b342cbd0425eceec,idfa_20767f44-653c-4d7d-be1a-59031bf826a7,%ED%95%9C%EA%B5%AD%EC%96%B4
DETBOkCTQ5KRY4R4IgiqJw,cygobel,1597_,Install,1.0,1.214.196.154,fd4dfd6e-ca6a-46e5-a796-57b3cb318354,1557372532,2019-05-09 11:28:52,1557372628,2019-05-09 11:30:28,1557372666,11e9720a8f9978b0a5e501589c63eebd,http://www.trackrc.com/track/p_conversion?aid=1579&clickid=11e9720a8f9978b0a5e501589c63eebd,idfa_fd4dfd6e-ca6a-46e5-a796-57b3cb318354,%ED%95%9C%EA%B5%AD%EC%96%B4
DETBOkCTQ5KRY4R4IgiqJw,cygobel,1597_,Install,1.0,183.123.129.74,6fc4b93c-5237-4b6e-9197-d43accf75c41,1557358336,2019-05-09 07:32:16,1557358468,2019-05-09 07:34:28,1557358498,11e971e97ff71a508ffb2f3069980f96,http://www.trackrc.com/track/p_conversion?aid=1579&clickid=11e971e97ff71a508ffb2f3069980f96,idfa_6fc4b93c-5237-4b6e-9197-d43accf75c41,%ED%95%9C%EA%B5%AD%EC%96%B4
DETBOkCTQ5KRY4R4IgiqJw,cygobel,1597_,Install,1.0,58.143.116.179,827e3bff-f099-4a76-a4b2-1e2e506a6177,1557369167,2019-05-09 10:32:47,1557369253,2019-05-09 10:34:13,1557369285,11e97202b9e144c0996b8b742ac807d5,http://www.trackrc.com/track/p_conversion?aid=1579&clickid=11e97202b9e144c0996b8b742ac807d5,idfa_827e3bff-f099-4a76-a4b2-1e2e506a6177,%ED%95%9C%EA%B5%AD%EC%96%B4
DETBOkCTQ5KRY4R4IgiqJw,cygobel,1597_,Install,1.0,1.234.5.210,eb425a2b-4650-439c-bd9a-2bc9e6a84dfd,1557289836,2019-05-08 12:30:36,1557289935,2019-05-08 12:32:15,1557289965,11e9714a0438ca208019a9c7a8c9d832,http://www.trackrc.com/track/p_conversion?aid=1579&clickid=11e9714a0438ca208019a9c7a8c9d832,idfa_eb425a2b-4650-439c-bd9a-2bc9e6a84dfd,%ED%95%9C%EA%B5%AD%EC%96%B4
