cid,partner_id,channel_id,action_id,cpi,ip,idfa,click time,click datetime,install time,install datetime,postback time,click id,postback url,unique user id
mLq8TdCFSm-4-_TSEMLeNg,cygobel,6807_16210_,Install,1.2,120.50.246.236,F0963070-8E9A-4BDB-8E44-C96FED48B1B6,1557947427,2019-05-16 03:10:27,1557947564,2019-05-16 03:12:44,1557947594,11e977450e6faf80b2af7b5c17275b39,http://www.trackrc.com/track/p_conversion?aid=1579&clickid=11e977450e6faf80b2af7b5c17275b39,idfa_F0963070-8E9A-4BDB-8E44-C96FED48B1B6,ja-JP
mLq8TdCFSm-4-_TSEMLeNg,cygobel,6807_16210_,Install,1.2,221.39.65.121,1D49F220-96DF-4D25-AC6E-361636D3A8E8,1557954633,2019-05-16 05:10:33,1557954764,2019-05-16 05:12:44,1557954797,11e97755d69560308ff7c71b337da097,http://www.trackrc.com/track/p_conversion?aid=1579&clickid=11e97755d69560308ff7c71b337da097,idfa_1D49F220-96DF-4D25-AC6E-361636D3A8E8,ja-JP
mLq8TdCFSm-4-_TSEMLeNg,cygobel,6807_16210_,Install,1.2,153.136.146.235,E80A8D11-3E7F-4DA5-899C-F8AA5FD734FF,1557968573,2019-05-16 09:02:53,1557968719,2019-05-16 09:05:19,1557968853,11e977764ae44170a13fe784fbd5ad55,http://www.trackrc.com/track/p_conversion?aid=1579&clickid=11e977764ae44170a13fe784fbd5ad55,idfa_E80A8D11-3E7F-4DA5-899C-F8AA5FD734FF,ja-JP
mLq8TdCFSm-4-_TSEMLeNg,cygobel,6807_16210_,Install,1.2,124.212.85.20,6E876EF9-1E06-48C9-B07B-9D6FAA4CC3BF,1557948960,2019-05-16 03:36:00,1557949126,2019-05-16 03:38:46,1557949157,11e97748a0ae29f09a4d4dbf82192508,http://www.trackrc.com/track/p_conversion?aid=1579&clickid=11e97748a0ae29f09a4d4dbf82192508,idfa_6E876EF9-1E06-48C9-B07B-9D6FAA4CC3BF,ja-JP
mLq8TdCFSm-4-_TSEMLeNg,cygobel,6807_16210_,Install,1.2,119.170.46.184,DC631095-B967-4E8D-A819-FC1827B5D3E5,1557290262,2019-05-08 12:37:42,1557290405,2019-05-08 12:40:05,1557290435,11e9714afb6fd68080f1d1eafd72f6f0,http://www.trackrc.com/track/p_conversion?aid=1579&clickid=11e9714afb6fd68080f1d1eafd72f6f0,idfa_DC631095-B967-4E8D-A819-FC1827B5D3E5,ja-JP
mLq8TdCFSm-4-_TSEMLeNg,cygobel,6807_16210_,Install,1.3,202.238.114.19,56C00EA5-49BB-4F07-857E-E3125747B84E,1557275526,2019-05-08 08:32:06,1557275618,2019-05-08 08:33:38,1557275649,11e97128b11625c188b70b04f2069e75,http://www.trackrc.com/track/p_conversion?aid=1579&clickid=11e97128b11625c188b70b04f2069e75,idfa_56C00EA5-49BB-4F07-857E-E3125747B84E,en-VN
mLq8TdCFSm-4-_TSEMLeNg,cygobel,6807_16210_,Install,1.2,106.154.84.232,C5114177-915B-4999-AF29-A825B3791B63,1557287688,2019-05-08 11:54:48,1557287819,2019-05-08 11:56:59,1557287851,11e97144fe7d2541aeb89f6efdd8ebb0,http://www.trackrc.com/track/p_conversion?aid=1579&clickid=11e97144fe7d2541aeb89f6efdd8ebb0,idfa_C5114177-915B-4999-AF29-A825B3791B63,ja-JP
mLq8TdCFSm-4-_TSEMLeNg,cygobel,6807_16210_,Install,1.3,202.238.65.117,D2EB8E15-9ADB-46DE-8790-928C65082E49,1557275732,2019-05-08 08:35:32,1557275888,2019-05-08 08:38:08,1557275919,11e971292b8560f0aabb7bcd33b244e4,http://www.trackrc.com/track/p_conversion?aid=1579&clickid=11e971292b8560f0aabb7bcd33b244e4,idfa_D2EB8E15-9ADB-46DE-8790-928C65082E49,en-US
mLq8TdCFSm-4-_TSEMLeNg,cygobel,6807_16210_,Install,1.2,125.30.215.137,9B3CDF86-00D6-441F-9DBA-8316EA10583A,1557290023,2019-05-08 12:33:43,1557290155,2019-05-08 12:35:55,1557290186,11e9714a6ce29ce0ac0de799de855e24,http://www.trackrc.com/track/p_conversion?aid=1579&clickid=11e9714a6ce29ce0ac0de799de855e24,idfa_9B3CDF86-00D6-441F-9DBA-8316EA10583A,ja-JP
mLq8TdCFSm-4-_TSEMLeNg,cygobel,6807_16210_,Install,1.2,118.238.225.231,81E43657-EB45-4E6C-9E06-41F9A16142D8,1557940130,2019-05-16 01:08:50,1557940232,2019-05-16 01:10:32,1557940263,11e9773412b5a650be4543bbb5bc5dff,http://www.trackrc.com/track/p_conversion?aid=1579&clickid=11e9773412b5a650be4543bbb5bc5dff,idfa_81E43657-EB45-4E6C-9E06-41F9A16142D8,ja-JP
mLq8TdCFSm-4-_TSEMLeNg,cygobel,6807_16210_,Install,1.2,106.159.19.46,14A59CD7-6B35-4810-8569-6827B7736980,1557954597,2019-05-16 05:09:57,1557954731,2019-05-16 05:12:11,1557954761,11e97755c2b9e900b98a63b39a1d4ae7,http://www.trackrc.com/track/p_conversion?aid=1579&clickid=11e97755c2b9e900b98a63b39a1d4ae7,idfa_14A59CD7-6B35-4810-8569-6827B7736980,ja-JP
mLq8TdCFSm-4-_TSEMLeNg,cygobel,6807_16210_,Install,1.2,14.3.120.191,AB9987F7-E5BF-4D9D-8755-D90624E37F46,1557283306,2019-05-08 10:41:46,1557283465,2019-05-08 10:44:25,1557283495,11e9713acca184d0ade0ef63221c2bac,http://www.trackrc.com/track/p_conversion?aid=1579&clickid=11e9713acca184d0ade0ef63221c2bac,idfa_AB9987F7-E5BF-4D9D-8755-D90624E37F46,ja-JP
mLq8TdCFSm-4-_TSEMLeNg,cygobel,6807_16210_,Install,1.2,220.111.166.96,788EED63-6F3A-4590-A980-6B8D4FEDF152,1557289998,2019-05-08 12:33:18,1557290137,2019-05-08 12:35:37,1557290177,11e9714a5b860860a87abd9fe7c69edc,http://www.trackrc.com/track/p_conversion?aid=1579&clickid=11e9714a5b860860a87abd9fe7c69edc,idfa_788EED63-6F3A-4590-A980-6B8D4FEDF152,ja-JP
mLq8TdCFSm-4-_TSEMLeNg,cygobel,6807_16210_,Install,1.2,61.118.148.73,7E3ED845-A11C-4B5D-A1C1-5D2DC2C4F6E7,1557968568,2019-05-16 09:02:48,1557968708,2019-05-16 09:05:08,1557968738,11e97776486622108d10b3f308b2a1df,http://www.trackrc.com/track/p_conversion?aid=1579&clickid=11e97776486622108d10b3f308b2a1df,idfa_7E3ED845-A11C-4B5D-A1C1-5D2DC2C4F6E7,ja-JP
mLq8TdCFSm-4-_TSEMLeNg,cygobel,6807_16210_,Install,1.2,118.243.127.73,11D52DDA-6FCE-406E-9D5C-DCBF42C0347D,1557966278,2019-05-16 08:24:38,1557966406,2019-05-16 08:26:46,1557966439,11e97770f455b19096bbd377c1560343,http://www.trackrc.com/track/p_conversion?aid=1579&clickid=11e97770f455b19096bbd377c1560343,idfa_11D52DDA-6FCE-406E-9D5C-DCBF42C0347D,ja-JP
mLq8TdCFSm-4-_TSEMLeNg,cygobel,6807_16210_,Install,1.2,60.119.144.12,31FFE982-1326-4680-8F75-4230A3A7AAA2,1557448766,2019-05-10 08:39:26,1557448885,2019-05-10 08:41:25,1557448916,11e972bc053ad2b0b91e6f9ae454ef4f,http://www.trackrc.com/track/p_conversion?aid=1579&clickid=11e972bc053ad2b0b91e6f9ae454ef4f,idfa_31FFE982-1326-4680-8F75-4230A3A7AAA2,ja-JP
mLq8TdCFSm-4-_TSEMLeNg,cygobel,6807_16210_,Install,1.2,153.178.52.227,78558A92-E6F6-462E-8F63-3106E26B5DE8,1557449186,2019-05-10 08:46:26,1557449336,2019-05-10 08:48:56,1557449369,11e972bd0072a6d09db3e33598a6602b,http://www.trackrc.com/track/p_conversion?aid=1579&clickid=11e972bd0072a6d09db3e33598a6602b,idfa_78558A92-E6F6-462E-8F63-3106E26B5DE8,ja-JP
mLq8TdCFSm-4-_TSEMLeNg,cygobel,6807_16210_,Install,1.3,202.238.114.111,CE9189DE-6DDB-4083-950F-6387CCD94F6D,1557276365,2019-05-08 08:46:05,1557276461,2019-05-08 08:47:41,1557276492,11e9712aa531cbe085160be556b7e898,http://www.trackrc.com/track/p_conversion?aid=1579&clickid=11e9712aa531cbe085160be556b7e898,idfa_CE9189DE-6DDB-4083-950F-6387CCD94F6D,en-US
mLq8TdCFSm-4-_TSEMLeNg,cygobel,6807_16210_,Install,1.2,106.159.121.68,27FEC6BA-4529-4AD9-80EE-074807D03F99,1557289987,2019-05-08 12:33:07,1557290137,2019-05-08 12:35:37,1557290168,11e9714a5a0b9d6098ed37ec68759064,http://www.trackrc.com/track/p_conversion?aid=1579&clickid=11e9714a5a0b9d6098ed37ec68759064,idfa_27FEC6BA-4529-4AD9-80EE-074807D03F99,ja-JP
mLq8TdCFSm-4-_TSEMLeNg,cygobel,6807_16210_,Install,1.3,112.69.209.247,2C84650E-70CE-4D45-83F3-43304750F828,1557273624,2019-05-08 08:00:24,1557273807,2019-05-08 08:03:27,1557273838,11e9712444255750a2f63586db02e2c6,http://www.trackrc.com/track/p_conversion?aid=1579&clickid=11e9712444255750a2f63586db02e2c6,idfa_2C84650E-70CE-4D45-83F3-43304750F828,ja-JP
mLq8TdCFSm-4-_TSEMLeNg,cygobel,6807_16210_,Install,1.2,60.105.183.233,C023AD9F-C4F5-423A-A367-873D5EFDA025,1557448263,2019-05-10 08:31:03,1557448399,2019-05-10 08:33:19,1557448430,11e972bada35e74097f373b4b6c2bda0,http://www.trackrc.com/track/p_conversion?aid=1579&clickid=11e972bada35e74097f373b4b6c2bda0,idfa_C023AD9F-C4F5-423A-A367-873D5EFDA025,ja-JP
mLq8TdCFSm-4-_TSEMLeNg,cygobel,6807_16210_,Install,1.2,221.71.77.144,61F04DC0-C3AC-44CB-959B-C1CAF79622C7,1557966260,2019-05-16 08:24:20,1557966382,2019-05-16 08:26:22,1557966413,11e97770e77f8f90b5dd77d4d645ce27,http://www.trackrc.com/track/p_conversion?aid=1579&clickid=11e97770e77f8f90b5dd77d4d645ce27,idfa_61F04DC0-C3AC-44CB-959B-C1CAF79622C7,ja-JP
mLq8TdCFSm-4-_TSEMLeNg,cygobel,6807_16210_,Install,1.2,123.255.234.21,573797D6-D1F8-4A7C-AB30-4E72B101F455,1557457327,2019-05-10 11:02:07,1557457457,2019-05-10 11:04:17,1557457488,11e972cff6124520b6a4a781c7eaa682,http://www.trackrc.com/track/p_conversion?aid=1579&clickid=11e972cff6124520b6a4a781c7eaa682,idfa_573797D6-D1F8-4A7C-AB30-4E72B101F455,ja-JP
mLq8TdCFSm-4-_TSEMLeNg,cygobel,6807_16210_,Install,1.3,219.100.41.7,262BA448-C556-4B6E-ABCE-2542DBD0426F,1557275062,2019-05-08 08:24:22,1557275201,2019-05-08 08:26:41,1557275231,11e9712795c5c420a7f6f72406bd446a,http://www.trackrc.com/track/p_conversion?aid=1579&clickid=11e9712795c5c420a7f6f72406bd446a,idfa_262BA448-C556-4B6E-ABCE-2542DBD0426F,ja-JP
mLq8TdCFSm-4-_TSEMLeNg,cygobel,6807_16210_,Install,1.2,221.39.65.121,F8C896B1-84A3-4FAB-BB01-A84024487BA6,1557968146,2019-05-16 08:55:46,1557968294,2019-05-16 08:58:14,1557968328,11e977754c88710083eec3b4cfeef514,http://www.trackrc.com/track/p_conversion?aid=1579&clickid=11e977754c88710083eec3b4cfeef514,idfa_F8C896B1-84A3-4FAB-BB01-A84024487BA6,ja-JP
mLq8TdCFSm-4-_TSEMLeNg,cygobel,6807_16210_,Install,1.3,121.84.102.246,7DF46E69-C258-42D8-9BD5-FC5826A56197,1557282266,2019-05-08 10:24:26,1557282423,2019-05-08 10:27:03,1557282458,11e9713863a473e0aeb89f6efdd8ebb0,http://www.trackrc.com/track/p_conversion?aid=1579&clickid=11e9713863a473e0aeb89f6efdd8ebb0,idfa_7DF46E69-C258-42D8-9BD5-FC5826A56197,lo-JP
mLq8TdCFSm-4-_TSEMLeNg,cygobel,6807_16210_,Install,1.2,126.150.231.229,552DABED-A73F-4FFC-B4F8-D9F8EED7876F,1557952111,2019-05-16 04:28:31,1557952290,2019-05-16 04:31:30,1557952320,11e9774ffcf57fe0a5a267bb01880cd8,http://www.trackrc.com/track/p_conversion?aid=1579&clickid=11e9774ffcf57fe0a5a267bb01880cd8,idfa_552DABED-A73F-4FFC-B4F8-D9F8EED7876F,ja-JP
mLq8TdCFSm-4-_TSEMLeNg,cygobel,6807_16210_,Install,1.2,182.20.95.186,6DCF741A-F36B-4B17-93CB-1086FFF7B390,1557289911,2019-05-08 12:31:51,1557290053,2019-05-08 12:34:13,1557290083,11e9714a27f66ad0a87abd9fe7c69edc,http://www.trackrc.com/track/p_conversion?aid=1579&clickid=11e9714a27f66ad0a87abd9fe7c69edc,idfa_6DCF741A-F36B-4B17-93CB-1086FFF7B390,ja-JP
mLq8TdCFSm-4-_TSEMLeNg,cygobel,6807_16210_,Install,1.2,106.154.96.183,0906D203-647D-4775-AB04-311E21BA9936,1557968663,2019-05-16 09:04:23,1557968805,2019-05-16 09:06:45,1557968837,11e977767fc5b36086dc3ddea0740768,http://www.trackrc.com/track/p_conversion?aid=1579&clickid=11e977767fc5b36086dc3ddea0740768,idfa_0906D203-647D-4775-AB04-311E21BA9936,ja-JP
mLq8TdCFSm-4-_TSEMLeNg,cygobel,6807_16210_,Install,1.2,219.98.231.35,369281B6-90DB-4E43-9DF5-6EEEFF1F30BB,1557290420,2019-05-08 12:40:20,1557290571,2019-05-08 12:42:51,1557290601,11e9714b594ee7a0a87abd9fe7c69edc,http://www.trackrc.com/track/p_conversion?aid=1579&clickid=11e9714b594ee7a0a87abd9fe7c69edc,idfa_369281B6-90DB-4E43-9DF5-6EEEFF1F30BB,ja-JP
mLq8TdCFSm-4-_TSEMLeNg,cygobel,6807_16210_,Install,1.2,180.43.108.116,D5717ECD-63E1-4F55-B7F0-B92CCEC2EE51,1557942056,2019-05-16 01:40:56,1557942185,2019-05-16 01:43:05,1557942216,11e977388e9898f0be4543bbb5bc5dff,http://www.trackrc.com/track/p_conversion?aid=1579&clickid=11e977388e9898f0be4543bbb5bc5dff,idfa_D5717ECD-63E1-4F55-B7F0-B92CCEC2EE51,ja-JP
mLq8TdCFSm-4-_TSEMLeNg,cygobel,6807_16210_,Install,1.2,175.179.246.147,4A37836D-7CA5-4302-958A-501D19CC75CA,1557967375,2019-05-16 08:42:55,1557967506,2019-05-16 08:45:06,1557967536,11e97773812041b08258038b1408c3fd,http://www.trackrc.com/track/p_conversion?aid=1579&clickid=11e97773812041b08258038b1408c3fd,idfa_4A37836D-7CA5-4302-958A-501D19CC75CA,ja-JP
mLq8TdCFSm-4-_TSEMLeNg,cygobel,6807_16210_,Install,1.3,202.19.222.228,C52103A2-B454-4A49-B6BB-C7973940A28D,1557277010,2019-05-08 08:56:50,1557277136,2019-05-08 08:58:56,1557277167,11e9712c279e5b60aeb89f6efdd8ebb0,http://www.trackrc.com/track/p_conversion?aid=1579&clickid=11e9712c279e5b60aeb89f6efdd8ebb0,idfa_C52103A2-B454-4A49-B6BB-C7973940A28D,en-JP
mLq8TdCFSm-4-_TSEMLeNg,cygobel,6807_16210_,Install,1.3,1.21.169.65,F6A32361-26B7-4AE5-9CC1-7CD6EC9DA73E,1557279507,2019-05-08 09:38:27,1557279694,2019-05-08 09:41:34,1557279782,11e97131f73e1d1080f1d1eafd72f6f0,http://www.trackrc.com/track/p_conversion?aid=1579&clickid=11e97131f73e1d1080f1d1eafd72f6f0,idfa_F6A32361-26B7-4AE5-9CC1-7CD6EC9DA73E,ja-JP
mLq8TdCFSm-4-_TSEMLeNg,cygobel,6807_16210_,Install,1.2,153.232.168.135,FED4458C-2EE4-4A56-A784-5DEDEB4D38DC,1557457276,2019-05-10 11:01:16,1557457415,2019-05-10 11:03:35,1557457446,11e972cfd6eaf570855c2766fddae9c5,http://www.trackrc.com/track/p_conversion?aid=1579&clickid=11e972cfd6eaf570855c2766fddae9c5,idfa_FED4458C-2EE4-4A56-A784-5DEDEB4D38DC,ja-JP
mLq8TdCFSm-4-_TSEMLeNg,cygobel,6807_16210_,Install,1.2,122.223.8.135,CBEF54AB-EFC0-438F-AA62-E5A21ABBF1E0,1557967640,2019-05-16 08:47:20,1557967777,2019-05-16 08:49:37,1557967807,11e9777420e3c320b25a9183b4cd2473,http://www.trackrc.com/track/p_conversion?aid=1579&clickid=11e9777420e3c320b25a9183b4cd2473,idfa_CBEF54AB-EFC0-438F-AA62-E5A21ABBF1E0,ja-JP
mLq8TdCFSm-4-_TSEMLeNg,cygobel,6807_16210_,Install,1.2,124.219.160.219,E124E1EF-5613-4AA7-8D83-A2C027E95769,1557457059,2019-05-10 10:57:39,1557457198,2019-05-10 10:59:58,1557457229,11e972cf54ff876093b42b5188ffcf0e,http://www.trackrc.com/track/p_conversion?aid=1579&clickid=11e972cf54ff876093b42b5188ffcf0e,idfa_E124E1EF-5613-4AA7-8D83-A2C027E95769,ja-JP
mLq8TdCFSm-4-_TSEMLeNg,cygobel,6807_16210_,Install,1.2,220.104.242.166,81DDADD7-6820-44E2-99C6-9078F3FF8258,1557952439,2019-05-16 04:33:59,1557952573,2019-05-16 04:36:13,1557952603,11e97750b76291109a68a70845228a2f,http://www.trackrc.com/track/p_conversion?aid=1579&clickid=11e97750b76291109a68a70845228a2f,idfa_81DDADD7-6820-44E2-99C6-9078F3FF8258,ja-JP
mLq8TdCFSm-4-_TSEMLeNg,cygobel,6807_16210_,Install,1.2,182.171.244.177,0EAEDF67-EE40-4574-8B6F-474C9F58D782,1557965876,2019-05-16 08:17:56,1557966005,2019-05-16 08:20:05,1557966035,11e9777004059cf087463b4db6f6e34b,http://www.trackrc.com/track/p_conversion?aid=1579&clickid=11e9777004059cf087463b4db6f6e34b,idfa_0EAEDF67-EE40-4574-8B6F-474C9F58D782,ja-JP
mLq8TdCFSm-4-_TSEMLeNg,cygobel,6807_16210_,Install,1.2,153.223.162.78,1003DB31-9B0E-40D5-88AC-D86CE0C00CC1,1557968568,2019-05-16 09:02:48,1557968708,2019-05-16 09:05:08,1557968739,11e9777648cef6008851d1c55cb55e5c,http://www.trackrc.com/track/p_conversion?aid=1579&clickid=11e9777648cef6008851d1c55cb55e5c,idfa_1003DB31-9B0E-40D5-88AC-D86CE0C00CC1,ja-JP
mLq8TdCFSm-4-_TSEMLeNg,cygobel,6807_16210_,Install,1.2,59.138.19.35,55289748-F478-4AD2-B675-226A5B457168,1557954610,2019-05-16 05:10:10,1557954745,2019-05-16 05:12:25,1557954776,11e97755ca377b7096bbd377c1560343,http://www.trackrc.com/track/p_conversion?aid=1579&clickid=11e97755ca377b7096bbd377c1560343,idfa_55289748-F478-4AD2-B675-226A5B457168,ja-JP
mLq8TdCFSm-4-_TSEMLeNg,cygobel,6807_16210_,Install,1.2,153.194.68.76,ECD167F9-B3A2-48E1-ACA0-BC56087AE4A2,1557457293,2019-05-10 11:01:33,1557457440,2019-05-10 11:04:00,1557457470,11e972cfe05b0910837c2f2aa62bc26e,http://www.trackrc.com/track/p_conversion?aid=1579&clickid=11e972cfe05b0910837c2f2aa62bc26e,idfa_ECD167F9-B3A2-48E1-ACA0-BC56087AE4A2,ja-JP
mLq8TdCFSm-4-_TSEMLeNg,cygobel,6807_16210_,Install,1.2,118.241.246.56,E9057D8A-5332-4FFB-8F0A-EFD34370BC32,1557289494,2019-05-08 12:24:54,1557289643,2019-05-08 12:27:23,1557289674,11e971492fbc465083b3c5f121306d20,http://www.trackrc.com/track/p_conversion?aid=1579&clickid=11e971492fbc465083b3c5f121306d20,idfa_E9057D8A-5332-4FFB-8F0A-EFD34370BC32,ja-JP
mLq8TdCFSm-4-_TSEMLeNg,cygobel,6807_16210_,Install,1.2,219.116.219.9,D7FAD272-B4C6-49F9-8278-53ECB87B4541,1557287259,2019-05-08 11:47:39,1557287398,2019-05-08 11:49:58,1557287428,11e97143fd302850a82bd342d569b03e,http://www.trackrc.com/track/p_conversion?aid=1579&clickid=11e97143fd302850a82bd342d569b03e,idfa_D7FAD272-B4C6-49F9-8278-53ECB87B4541,ja-JP
