cid,partner_id,channel_id,action_id,cpi,ip,idfa,click time,click datetime,install time,install datetime,postback time,click id,postback url,unique user id
Zzhtw5fXS5yVdowuemHIdw,cygobel,4481_77661_,install,1.7,165.132.123.30,93736277-865f-4126-b8d5-c8e79b0fe63b,1558233417,2019-05-19 10:36:57,1558233671,2019-05-19 10:41:11,1558233705,11e979def22173d0822d43ef2fe325e8,http://www.trackrc.com/track/p_conversion?aid=1579&clickid=11e979def22173d0822d43ef2fe325e8,idfa_93736277-865f-4126-b8d5-c8e79b0fe63b,ko
Zzhtw5fXS5yVdowuemHIdw,cygobel,4481_77661_,install,1.7,182.216.29.134,e8db4d28-eca9-4299-b14c-686ecd594c21,1558233529,2019-05-19 10:38:49,1558233781,2019-05-19 10:43:01,1558233814,11e979df35e4b640a1a7abc068207593,http://www.trackrc.com/track/p_conversion?aid=1579&clickid=11e979df35e4b640a1a7abc068207593,idfa_e8db4d28-eca9-4299-b14c-686ecd594c21,ko
Zzhtw5fXS5yVdowuemHIdw,cygobel,4481_77661_,install,1.7,39.7.28.152,8cbaed5a-ad62-4535-a1db-64af486e18c5,1559115800,2019-05-29 15:43:20,1559115841,2019-05-29 15:44:01,1559115872,11e981e56c6c1fb0b9082d5a0479b696,http://www.trackrc.com/track/p_conversion?aid=1579&clickid=11e981e56c6c1fb0b9082d5a0479b696,idfa_8cbaed5a-ad62-4535-a1db-64af486e18c5,ko
Zzhtw5fXS5yVdowuemHIdw,cygobel,4481_77661_,install,1.7,110.70.55.31,9146de0d-e619-48f8-8e50-48d35057897d,1559100153,2019-05-29 11:22:33,1559100164,2019-05-29 11:22:44,1559100194,11e981c0fecd1d70882c214037818b36,http://www.trackrc.com/track/p_conversion?aid=1579&clickid=11e981c0fecd1d70882c214037818b36,idfa_9146de0d-e619-48f8-8e50-48d35057897d,ko
Zzhtw5fXS5yVdowuemHIdw,cygobel,4481_77661_,install,1.7,223.38.23.157,fa48d2a5-a2d2-495f-81fd-98e5507ef9c0,1557992659,2019-05-16 15:44:19,1557992749,2019-05-16 15:45:49,1557992780,11e977ae688089e08d5e51b90b3a2acf,http://www.trackrc.com/track/p_conversion?aid=1579&clickid=11e977ae688089e08d5e51b90b3a2acf,idfa_fa48d2a5-a2d2-495f-81fd-98e5507ef9c0,ko
Zzhtw5fXS5yVdowuemHIdw,cygobel,4481_77661_,install,1.7,125.183.38.159,8da1b4c3-97c2-43bb-a533-e0fec15bb7a5,1559104711,2019-05-29 12:38:31,1559104750,2019-05-29 12:39:10,1559104782,11e981cb9b27c5d0823b434411d230c1,http://www.trackrc.com/track/p_conversion?aid=1579&clickid=11e981cb9b27c5d0823b434411d230c1,idfa_8da1b4c3-97c2-43bb-a533-e0fec15bb7a5,ko
Zzhtw5fXS5yVdowuemHIdw,cygobel,4481_77661_,install,1.7,223.62.21.59,d6cfd177-6c2e-48ca-8eb8-b4114bed4919,1558256956,2019-05-19 17:09:16,1558531235,2019-05-22 21:20:35,1558531268,11e97a15c61bbfc0ac29314c8e83704b,http://www.trackrc.com/track/p_conversion?aid=1579&clickid=11e97a15c61bbfc0ac29314c8e83704b,idfa_d6cfd177-6c2e-48ca-8eb8-b4114bed4919,ko
Zzhtw5fXS5yVdowuemHIdw,cygobel,4481_77661_,install,1.7,221.149.94.115,3a4b2014-e785-4b39-9dbd-8ade5b2a3121,1559103710,2019-05-29 12:21:50,1559103729,2019-05-29 12:22:09,1559108264,11e981c93d52ffd1abe14f01be83f9ee,http://www.trackrc.com/track/p_conversion?aid=1579&clickid=11e981c93d52ffd1abe14f01be83f9ee,idfa_3a4b2014-e785-4b39-9dbd-8ade5b2a3121,ko
Zzhtw5fXS5yVdowuemHIdw,cygobel,4481_77661_,install,1.7,59.17.85.116,ad4bf864-48d5-4539-843b-74cb385cbd63,1559112521,2019-05-29 14:48:41,1559112554,2019-05-29 14:49:14,1559112585,11e981ddcad987c09d59b9e71c7a8639,http://www.trackrc.com/track/p_conversion?aid=1579&clickid=11e981ddcad987c09d59b9e71c7a8639,idfa_ad4bf864-48d5-4539-843b-74cb385cbd63,ko
Zzhtw5fXS5yVdowuemHIdw,cygobel,4481_77661_,install,1.7,117.111.28.232,e3677757-5be7-478e-afce-83d1e4f98bf3,1559104300,2019-05-29 12:31:40,1559104339,2019-05-29 12:32:19,1559104369,11e981caa62ee9a0ae18ff89b7ba832c,http://www.trackrc.com/track/p_conversion?aid=1579&clickid=11e981caa62ee9a0ae18ff89b7ba832c,idfa_e3677757-5be7-478e-afce-83d1e4f98bf3,ko
Zzhtw5fXS5yVdowuemHIdw,cygobel,4481_77661_,install,1.7,115.139.112.49,75d71f2b-2ce6-4f43-890a-d4d863c87af2,1559105787,2019-05-29 12:56:27,1559105825,2019-05-29 12:57:05,1559105856,11e981ce1ce2c32083e003731d2d2a28,http://www.trackrc.com/track/p_conversion?aid=1579&clickid=11e981ce1ce2c32083e003731d2d2a28,idfa_75d71f2b-2ce6-4f43-890a-d4d863c87af2,ko
Zzhtw5fXS5yVdowuemHIdw,cygobel,4481_77661_,install,1.7,180.67.107.199,f502bec4-b3bc-4476-83ab-2dbf5f9b5aa6,1557996467,2019-05-16 16:47:47,1557996562,2019-05-16 16:49:22,1557996600,11e977b738856ea0b9f7bd5c84eb73d3,http://www.trackrc.com/track/p_conversion?aid=1579&clickid=11e977b738856ea0b9f7bd5c84eb73d3,idfa_f502bec4-b3bc-4476-83ab-2dbf5f9b5aa6,ko
Zzhtw5fXS5yVdowuemHIdw,cygobel,4481_77661_,install,1.7,211.36.137.147,f8b4d8bf-f3a5-4d68-b30c-619cfc35c659,1557999477,2019-05-16 17:37:57,1557999510,2019-05-16 17:38:30,1557999541,11e977be47d53f00bdfee3db193fe98d,http://www.trackrc.com/track/p_conversion?aid=1579&clickid=11e977be47d53f00bdfee3db193fe98d,idfa_f8b4d8bf-f3a5-4d68-b30c-619cfc35c659,ko
Zzhtw5fXS5yVdowuemHIdw,cygobel,4481_77661_,install,1.7,125.191.245.34,e067c182-bfdd-46bc-9c36-2c0b57520f63,1557978371,2019-05-16 11:46:11,1557978493,2019-05-16 11:48:13,1557978527,11e9778d21757271b0a8350997158851,http://www.trackrc.com/track/p_conversion?aid=1579&clickid=11e9778d21757271b0a8350997158851,idfa_e067c182-bfdd-46bc-9c36-2c0b57520f63,ko
Zzhtw5fXS5yVdowuemHIdw,cygobel,4481_77661_,install,1.7,211.110.23.124,7ef81fc5-02e3-4b9e-bf25-3c885cc80afd,1559104479,2019-05-29 12:34:39,1559104514,2019-05-29 12:35:14,1559104546,11e981cb10e81460abe14f01be83f9ee,http://www.trackrc.com/track/p_conversion?aid=1579&clickid=11e981cb10e81460abe14f01be83f9ee,idfa_7ef81fc5-02e3-4b9e-bf25-3c885cc80afd,ko
Zzhtw5fXS5yVdowuemHIdw,cygobel,4481_77661_,install,1.7,124.51.1.15,1942f810-2e10-441c-a27b-d486120f2d17,1558244631,2019-05-19 13:43:51,1558244653,2019-05-19 13:44:13,1558244685,11e979f913ad8fb0929f274ae57bb3e5,http://www.trackrc.com/track/p_conversion?aid=1579&clickid=11e979f913ad8fb0929f274ae57bb3e5,idfa_1942f810-2e10-441c-a27b-d486120f2d17,ko
Zzhtw5fXS5yVdowuemHIdw,cygobel,4481_77661_,install,1.7,220.120.57.169,c0caeef3-7f6b-44cf-a5c9-b38d186112e6,1559111904,2019-05-29 14:38:24,1559111946,2019-05-29 14:39:06,1559111976,11e981dc5b0d5760b9082d5a0479b696,http://www.trackrc.com/track/p_conversion?aid=1579&clickid=11e981dc5b0d5760b9082d5a0479b696,idfa_c0caeef3-7f6b-44cf-a5c9-b38d186112e6,ko
Zzhtw5fXS5yVdowuemHIdw,cygobel,4481_77661_,install,1.7,211.46.223.240,dc052de8-17df-4ab1-bc77-3a1dff764789,1558021190,2019-05-16 23:39:50,1558021237,2019-05-16 23:40:37,1558021269,11e977f0cf5c7470813995296c0f869f,http://www.trackrc.com/track/p_conversion?aid=1579&clickid=11e977f0cf5c7470813995296c0f869f,idfa_dc052de8-17df-4ab1-bc77-3a1dff764789,ko
Zzhtw5fXS5yVdowuemHIdw,cygobel,4481_77661_,install,1.7,211.36.142.67,579be7bb-5bae-48ae-ad02-f07f28a048eb,1559091704,2019-05-29 09:01:44,1559091775,2019-05-29 09:02:55,1559091808,11e981ad526f6c30b0e141757709e2d0,http://www.trackrc.com/track/p_conversion?aid=1579&clickid=11e981ad526f6c30b0e141757709e2d0,idfa_579be7bb-5bae-48ae-ad02-f07f28a048eb,ko
Zzhtw5fXS5yVdowuemHIdw,cygobel,4481_77661_,install,1.7,112.218.155.92,0a9c450b-e2ec-4c75-9088-1196b2fa85b7,1558235936,2019-05-19 11:18:56,1558236225,2019-05-19 11:23:45,1558236259,11e979e4d17411a09331e944545f7975,http://www.trackrc.com/track/p_conversion?aid=1579&clickid=11e979e4d17411a09331e944545f7975,idfa_0a9c450b-e2ec-4c75-9088-1196b2fa85b7,ko
Zzhtw5fXS5yVdowuemHIdw,cygobel,4481_77661_,install,1.7,121.190.33.111,543b9887-44a6-400d-8cf0-3ec73aba4d6c,1557963210,2019-05-16 07:33:30,1558706724,2019-05-24 22:05:24,1558706757,11e97769cc67b1d0bd7d3732ded34586,http://www.trackrc.com/track/p_conversion?aid=1579&clickid=11e97769cc67b1d0bd7d3732ded34586,idfa_543b9887-44a6-400d-8cf0-3ec73aba4d6c,ko
Zzhtw5fXS5yVdowuemHIdw,cygobel,4481_77661_,install,1.7,175.223.23.184,c5b99d32-8efb-4f3f-bee7-fb070362dcf2,1558016976,2019-05-16 22:29:36,1558541969,2019-05-23 00:19:29,1558542000,11e977e7069a58809204738cdaaddf96,http://www.trackrc.com/track/p_conversion?aid=1579&clickid=11e977e7069a58809204738cdaaddf96,idfa_c5b99d32-8efb-4f3f-bee7-fb070362dcf2,ko
Zzhtw5fXS5yVdowuemHIdw,cygobel,4481_77661_,install,1.7,27.35.110.88,023c9f13-cd1c-4d8d-abae-9759687bb963,1559100521,2019-05-29 11:28:41,1559100532,2019-05-29 11:28:52,1559100565,11e981c1d8c76c108325a951cb844880,http://www.trackrc.com/track/p_conversion?aid=1579&clickid=11e981c1d8c76c108325a951cb844880,idfa_023c9f13-cd1c-4d8d-abae-9759687bb963,ko
Zzhtw5fXS5yVdowuemHIdw,cygobel,4481_77661_,install,1.7,106.102.128.157,dd0830ee-506f-4848-ae63-a788a46f1f4b,1559111360,2019-05-29 14:29:20,1559111371,2019-05-29 14:29:31,1559111419,11e981db156df760af175572606c1982,http://www.trackrc.com/track/p_conversion?aid=1579&clickid=11e981db156df760af175572606c1982,idfa_dd0830ee-506f-4848-ae63-a788a46f1f4b,ko
Zzhtw5fXS5yVdowuemHIdw,cygobel,4481_77661_,install,1.7,211.237.231.55,9188d105-51c6-4807-959b-87a6821a9509,1557998213,2019-05-16 17:16:53,1558085214,2019-05-17 17:26:54,1558085245,11e977bb51b5f620b9f7bd5c84eb73d3,http://www.trackrc.com/track/p_conversion?aid=1579&clickid=11e977bb51b5f620b9f7bd5c84eb73d3,idfa_9188d105-51c6-4807-959b-87a6821a9509,ko
Zzhtw5fXS5yVdowuemHIdw,cygobel,4481_77661_,install,1.7,1.241.72.117,1c5ef91b-99d7-40fe-8e10-38eed82638d3,1558274036,2019-05-19 21:53:56,1558717264,2019-05-25 01:01:04,1558717296,11e97a3d8b0c3ea0a995c9695db846bc,http://www.trackrc.com/track/p_conversion?aid=1579&clickid=11e97a3d8b0c3ea0a995c9695db846bc,idfa_1c5ef91b-99d7-40fe-8e10-38eed82638d3,ko
Zzhtw5fXS5yVdowuemHIdw,cygobel,4481_77661_,install,1.7,175.117.186.85,a8b70f4f-0c39-4fb4-96d2-c9e988aabfb7,1559102540,2019-05-29 12:02:20,1559102579,2019-05-29 12:02:59,1559102609,11e981c68da21c308cd27d4ca5726ec7,http://www.trackrc.com/track/p_conversion?aid=1579&clickid=11e981c68da21c308cd27d4ca5726ec7,idfa_a8b70f4f-0c39-4fb4-96d2-c9e988aabfb7,ko
Zzhtw5fXS5yVdowuemHIdw,cygobel,4481_77661_,install,1.7,223.39.146.38,4e795c8b-efbf-4db9-9cd4-82695353087b,1559107895,2019-05-29 13:31:35,1559107930,2019-05-29 13:32:10,1559107961,11e981d305170cb09d59ab5d8f3aa3ef,http://www.trackrc.com/track/p_conversion?aid=1579&clickid=11e981d305170cb09d59ab5d8f3aa3ef,idfa_4e795c8b-efbf-4db9-9cd4-82695353087b,ko
Zzhtw5fXS5yVdowuemHIdw,cygobel,4481_77661_,install,1.7,218.239.25.90,1845f961-ddc0-403a-9063-891422cc723b,1559116283,2019-05-29 15:51:23,1559116322,2019-05-29 15:52:02,1559116353,11e981e68c8e7bc0bf21e7f6960ec9d9,http://www.trackrc.com/track/p_conversion?aid=1579&clickid=11e981e68c8e7bc0bf21e7f6960ec9d9,idfa_1845f961-ddc0-403a-9063-891422cc723b,ko
