cid,partner_id,channel_id,action_id,cpi,ip,idfa,click time,click datetime,install time,install datetime,postback time,click id,postback url,unique user id
R9ti-PN8RMSbs0M_sck6Jg,datafirst,49_2823_987_,Install,0.5,14.52.220.69,126a737f-09f7-f2f1-310f-2ae054b8c086,1558982591,2019-05-28 02:43:11,1558982697,2019-05-28 02:44:57,1558982704,5cec2fb188f4e700019500e0,http://p.datafirst.io/postback?clickid=5cec2fb188f4e700019500e0&adv_key=dbe0012fd9608d6bbc572aff09b55104,idfa_126a737f-09f7-f2f1-310f-2ae054b8c086,ko
R9ti-PN8RMSbs0M_sck6Jg,datafirst,49_2823_987_,Install,0.5,114.203.202.154,270616d7-0e54-875e-044e-a4fb03904f1f,1558981253,2019-05-28 02:20:53,1558981360,2019-05-28 02:22:40,1558981369,5cec2a7988f4e700018a1dae,http://p.datafirst.io/postback?clickid=5cec2a7988f4e700018a1dae&adv_key=dbe0012fd9608d6bbc572aff09b55104,idfa_270616d7-0e54-875e-044e-a4fb03904f1f,ko
R9ti-PN8RMSbs0M_sck6Jg,datafirst,49_2823_987_,Install,0.5,211.251.203.203,808d166e-971b-cadd-902f-17cf85319fcf,1558982226,2019-05-28 02:37:06,1558982328,2019-05-28 02:38:48,1558982338,5cec2e4688f4e7000191d897,http://p.datafirst.io/postback?clickid=5cec2e4688f4e7000191d897&adv_key=dbe0012fd9608d6bbc572aff09b55104,idfa_808d166e-971b-cadd-902f-17cf85319fcf,ko
R9ti-PN8RMSbs0M_sck6Jg,datafirst,49_2823_987_,Install,0.5,59.10.241.26,b3b8fc78-914e-76ec-1449-3f8e3dafafe5,1558983018,2019-05-28 02:50:18,1558983130,2019-05-28 02:52:10,1558983137,5cec315d88f4e7000198a9d7,http://p.datafirst.io/postback?clickid=5cec315d88f4e7000198a9d7&adv_key=dbe0012fd9608d6bbc572aff09b55104,idfa_b3b8fc78-914e-76ec-1449-3f8e3dafafe5,ko
R9ti-PN8RMSbs0M_sck6Jg,datafirst,49_2823_987_,Install,0.5,211.224.100.118,7134ea8a-1b6b-90ea-6714-f86cf9261240,1558980923,2019-05-28 02:15:23,1558981023,2019-05-28 02:17:03,1558981030,5cec292e88f4e70001885b6d,http://p.datafirst.io/postback?clickid=5cec292e88f4e70001885b6d&adv_key=dbe0012fd9608d6bbc572aff09b55104,idfa_7134ea8a-1b6b-90ea-6714-f86cf9261240,ko
R9ti-PN8RMSbs0M_sck6Jg,datafirst,49_2823_987_,Install,0.5,1.254.4.34,06175090-474d-9059-58f5-58c449fb95de,1558982923,2019-05-28 02:48:43,1558983032,2019-05-28 02:50:32,1558983039,5cec30ff88f4e7000197d790,http://p.datafirst.io/postback?clickid=5cec30ff88f4e7000197d790&adv_key=dbe0012fd9608d6bbc572aff09b55104,idfa_06175090-474d-9059-58f5-58c449fb95de,ko
R9ti-PN8RMSbs0M_sck6Jg,datafirst,49_2823_987_,Install,0.5,106.252.235.101,74cb20dd-ede8-30ac-e04a-794e6e60b6df,1558982186,2019-05-28 02:36:26,1558982289,2019-05-28 02:38:09,1558982298,5cec2e1e88f4e70001918690,http://p.datafirst.io/postback?clickid=5cec2e1e88f4e70001918690&adv_key=dbe0012fd9608d6bbc572aff09b55104,idfa_74cb20dd-ede8-30ac-e04a-794e6e60b6df,ko
R9ti-PN8RMSbs0M_sck6Jg,datafirst,49_2823_987_,Install,0.5,220.88.52.21,77e98aeb-6eb8-b198-4fc2-1ea0c754c0dd,1558981940,2019-05-28 02:32:20,1558982045,2019-05-28 02:34:05,1558982053,5cec2d2788f4e700018f8474,http://p.datafirst.io/postback?clickid=5cec2d2788f4e700018f8474&adv_key=dbe0012fd9608d6bbc572aff09b55104,idfa_77e98aeb-6eb8-b198-4fc2-1ea0c754c0dd,ko
R9ti-PN8RMSbs0M_sck6Jg,datafirst,49_2823_987_,Install,0.5,118.39.151.23,1be32b69-c24f-c897-10b7-4fc6620b8295,1558982430,2019-05-28 02:40:30,1558982534,2019-05-28 02:42:14,1558982543,5cec2f1288f4e7000193a37b,http://p.datafirst.io/postback?clickid=5cec2f1288f4e7000193a37b&adv_key=dbe0012fd9608d6bbc572aff09b55104,idfa_1be32b69-c24f-c897-10b7-4fc6620b8295,ko
R9ti-PN8RMSbs0M_sck6Jg,datafirst,49_2823_987_,Install,0.5,218.152.94.33,fd106388-7e2d-14c6-a262-caa60a0365b5,1558982957,2019-05-28 02:49:17,1558983063,2019-05-28 02:51:03,1558983072,5cec312088f4e70001981ae5,http://p.datafirst.io/postback?clickid=5cec312088f4e70001981ae5&adv_key=dbe0012fd9608d6bbc572aff09b55104,idfa_fd106388-7e2d-14c6-a262-caa60a0365b5,ko
R9ti-PN8RMSbs0M_sck6Jg,datafirst,49_2823_987_,Install,0.5,175.208.237.163,0bc5101d-4f6b-a249-fdbe-8937bb092635,1558982420,2019-05-28 02:40:20,1558982531,2019-05-28 02:42:11,1558982538,5cec2f0888f4e70001938a1e,http://p.datafirst.io/postback?clickid=5cec2f0888f4e70001938a1e&adv_key=dbe0012fd9608d6bbc572aff09b55104,idfa_0bc5101d-4f6b-a249-fdbe-8937bb092635,ko
R9ti-PN8RMSbs0M_sck6Jg,datafirst,49_2823_987_,Install,0.5,211.58.11.212,1e822b94-e239-bd5b-d4ca-8481344960b3,1558980670,2019-05-28 02:11:10,1558980780,2019-05-28 02:13:00,1558980787,5cec283188f4e7000186f4a6,http://p.datafirst.io/postback?clickid=5cec283188f4e7000186f4a6&adv_key=dbe0012fd9608d6bbc572aff09b55104,idfa_1e822b94-e239-bd5b-d4ca-8481344960b3,ko
R9ti-PN8RMSbs0M_sck6Jg,datafirst,49_2823_987_,Install,0.5,59.7.185.21,78fc922b-0595-3b01-de14-0a7b62cd3b29,1558981166,2019-05-28 02:19:26,1558981270,2019-05-28 02:21:10,1558981277,5cec2a2288f4e700018995dd,http://p.datafirst.io/postback?clickid=5cec2a2288f4e700018995dd&adv_key=dbe0012fd9608d6bbc572aff09b55104,idfa_78fc922b-0595-3b01-de14-0a7b62cd3b29,ko
R9ti-PN8RMSbs0M_sck6Jg,datafirst,49_2823_987_,Install,0.5,121.185.36.56,3a228d3e-f07c-cf77-7679-b941aeb222e8,1558980921,2019-05-28 02:15:21,1558981029,2019-05-28 02:17:09,1558981041,5cec292c88f4e700018859dd,http://p.datafirst.io/postback?clickid=5cec292c88f4e700018859dd&adv_key=dbe0012fd9608d6bbc572aff09b55104,idfa_3a228d3e-f07c-cf77-7679-b941aeb222e8,ko
R9ti-PN8RMSbs0M_sck6Jg,datafirst,49_2823_987_,Install,0.5,118.46.214.4,1fee6ace-f0f9-0f7f-8feb-5437d0477c04,1558982671,2019-05-28 02:44:31,1558982779,2019-05-28 02:46:19,1558982786,5cec300388f4e7000195c1c3,http://p.datafirst.io/postback?clickid=5cec300388f4e7000195c1c3&adv_key=dbe0012fd9608d6bbc572aff09b55104,idfa_1fee6ace-f0f9-0f7f-8feb-5437d0477c04,ko
R9ti-PN8RMSbs0M_sck6Jg,datafirst,49_2823_987_,Install,0.5,211.239.82.68,a61d3c54-ae36-f045-cf01-9bab51126237,1558982976,2019-05-28 02:49:36,1558983086,2019-05-28 02:51:26,1558983097,5cec313288f4e700019841b9,http://p.datafirst.io/postback?clickid=5cec313288f4e700019841b9&adv_key=dbe0012fd9608d6bbc572aff09b55104,idfa_a61d3c54-ae36-f045-cf01-9bab51126237,ko
R9ti-PN8RMSbs0M_sck6Jg,datafirst,49_2823_987_,Install,0.5,175.210.21.134,601c12dc-57d0-8f79-2df5-4be0a12e4259,1558982519,2019-05-28 02:41:59,1558982628,2019-05-28 02:43:48,1558982639,5cec2f6a88f4e70001946e97,http://p.datafirst.io/postback?clickid=5cec2f6a88f4e70001946e97&adv_key=dbe0012fd9608d6bbc572aff09b55104,idfa_601c12dc-57d0-8f79-2df5-4be0a12e4259,ko
R9ti-PN8RMSbs0M_sck6Jg,datafirst,49_2823_987_,Install,0.5,218.147.158.144,48a87b5f-55d6-d13b-3d75-5bb1daa1df05,1558983445,2019-05-28 02:57:25,1558983556,2019-05-28 02:59:16,1558983565,5cec330888f4e700019c3cd3,http://p.datafirst.io/postback?clickid=5cec330888f4e700019c3cd3&adv_key=dbe0012fd9608d6bbc572aff09b55104,idfa_48a87b5f-55d6-d13b-3d75-5bb1daa1df05,ko
R9ti-PN8RMSbs0M_sck6Jg,datafirst,49_2823_987_,Install,0.5,59.16.155.181,3d940241-ba68-78aa-a0dc-b0e81f4020e2,1558982489,2019-05-28 02:41:29,1558982601,2019-05-28 02:43:21,1558982607,5cec2f4d88f4e70001942be9,http://p.datafirst.io/postback?clickid=5cec2f4d88f4e70001942be9&adv_key=dbe0012fd9608d6bbc572aff09b55104,idfa_3d940241-ba68-78aa-a0dc-b0e81f4020e2,ko
R9ti-PN8RMSbs0M_sck6Jg,datafirst,49_2823_987_,Install,0.5,211.237.83.132,d1b38821-0723-ed67-5246-69d8e683786f,1558981635,2019-05-28 02:27:15,1558981739,2019-05-28 02:28:59,1558981749,5cec2bf388f4e700018d2d59,http://p.datafirst.io/postback?clickid=5cec2bf388f4e700018d2d59&adv_key=dbe0012fd9608d6bbc572aff09b55104,idfa_d1b38821-0723-ed67-5246-69d8e683786f,ko
R9ti-PN8RMSbs0M_sck6Jg,datafirst,49_2823_987_,Install,0.5,223.62.173.233,d7f0fe95-7da3-50df-eb61-11d038b92cfb,1558981361,2019-05-28 02:22:41,1558981466,2019-05-28 02:24:26,1558981474,5cec2ae488f4e700018af6ba,http://p.datafirst.io/postback?clickid=5cec2ae488f4e700018af6ba&adv_key=dbe0012fd9608d6bbc572aff09b55104,idfa_d7f0fe95-7da3-50df-eb61-11d038b92cfb,ko
R9ti-PN8RMSbs0M_sck6Jg,datafirst,49_2823_987_,Install,0.5,59.12.179.113,bf32b51f-86fe-3ce3-5510-efcd5d9cd507,1558981166,2019-05-28 02:19:26,1558981269,2019-05-28 02:21:09,1558981277,5cec2a2288f4e70001899690,http://p.datafirst.io/postback?clickid=5cec2a2288f4e70001899690&adv_key=dbe0012fd9608d6bbc572aff09b55104,idfa_bf32b51f-86fe-3ce3-5510-efcd5d9cd507,ko
R9ti-PN8RMSbs0M_sck6Jg,datafirst,49_2823_987_,Install,0.5,218.152.14.48,4fa0276c-6e9c-1dd2-9c5f-985cbeb502d5,1558981405,2019-05-28 02:23:25,1558981508,2019-05-28 02:25:08,1558981515,5cec2b1088f4e700018b5646,http://p.datafirst.io/postback?clickid=5cec2b1088f4e700018b5646&adv_key=dbe0012fd9608d6bbc572aff09b55104,idfa_4fa0276c-6e9c-1dd2-9c5f-985cbeb502d5,ko
R9ti-PN8RMSbs0M_sck6Jg,datafirst,49_2823_987_,Install,0.5,221.158.163.133,af468b24-cda7-194c-b0a2-479bc5cbbf04,1558982838,2019-05-28 02:47:18,1558982942,2019-05-28 02:49:02,1558982952,5cec30aa88f4e7000197313d,http://p.datafirst.io/postback?clickid=5cec30aa88f4e7000197313d&adv_key=dbe0012fd9608d6bbc572aff09b55104,idfa_af468b24-cda7-194c-b0a2-479bc5cbbf04,ko
R9ti-PN8RMSbs0M_sck6Jg,datafirst,49_2823_987_,Install,0.5,1.220.85.74,55c8f762-b837-70a9-6249-61ed8f34889f,1558981088,2019-05-28 02:18:08,1558981191,2019-05-28 02:19:51,1558981203,5cec29d488f4e700018932ac,http://p.datafirst.io/postback?clickid=5cec29d488f4e700018932ac&adv_key=dbe0012fd9608d6bbc572aff09b55104,idfa_55c8f762-b837-70a9-6249-61ed8f34889f,ko
R9ti-PN8RMSbs0M_sck6Jg,datafirst,49_2823_987_,Install,0.5,218.155.71.186,d6c2d906-f2c2-b7d3-9a5c-c3b1fb867c7a,1558982544,2019-05-28 02:42:24,1558982653,2019-05-28 02:44:13,1558982661,5cec2f7988f4e70001948e78,http://p.datafirst.io/postback?clickid=5cec2f7988f4e70001948e78&adv_key=dbe0012fd9608d6bbc572aff09b55104,idfa_d6c2d906-f2c2-b7d3-9a5c-c3b1fb867c7a,ko
R9ti-PN8RMSbs0M_sck6Jg,datafirst,49_2823_987_,Install,0.5,110.10.114.5,dc70d3fd-0395-a6d6-bda6-00910fedcd82,1558983467,2019-05-28 02:57:47,1558983576,2019-05-28 02:59:36,1558983583,5cec331e88f4e700019c752a,http://p.datafirst.io/postback?clickid=5cec331e88f4e700019c752a&adv_key=dbe0012fd9608d6bbc572aff09b55104,idfa_dc70d3fd-0395-a6d6-bda6-00910fedcd82,ko
R9ti-PN8RMSbs0M_sck6Jg,datafirst,49_2823_987_,Install,0.5,112.187.247.7,076016e1-0305-9c88-7901-f353fcba7518,1558982747,2019-05-28 02:45:47,1558982855,2019-05-28 02:47:35,1558982862,5cec304d88f4e7000196764e,http://p.datafirst.io/postback?clickid=5cec304d88f4e7000196764e&adv_key=dbe0012fd9608d6bbc572aff09b55104,idfa_076016e1-0305-9c88-7901-f353fcba7518,ko
R9ti-PN8RMSbs0M_sck6Jg,datafirst,49_2823_987_,Install,0.5,182.225.103.244,8b95b4f4-1bde-afdb-dd29-6977bcfbed45,1558981740,2019-05-28 02:29:00,1558981844,2019-05-28 02:30:44,1558981855,5cec2c6088f4e700018dfd7a,http://p.datafirst.io/postback?clickid=5cec2c6088f4e700018dfd7a&adv_key=dbe0012fd9608d6bbc572aff09b55104,idfa_8b95b4f4-1bde-afdb-dd29-6977bcfbed45,ko
R9ti-PN8RMSbs0M_sck6Jg,datafirst,49_2823_987_,Install,0.5,121.138.213.23,331cacc1-1a8e-b980-ca63-dd9663f078ea,1558982180,2019-05-28 02:36:20,1558982280,2019-05-28 02:38:00,1558982291,5cec2e1888f4e70001917811,http://p.datafirst.io/postback?clickid=5cec2e1888f4e70001917811&adv_key=dbe0012fd9608d6bbc572aff09b55104,idfa_331cacc1-1a8e-b980-ca63-dd9663f078ea,ko
R9ti-PN8RMSbs0M_sck6Jg,datafirst,49_2823_987_,Install,0.5,183.100.205.201,64fdaa87-e606-4211-6c47-fcda8e22a65b,1558983214,2019-05-28 02:53:34,1558983323,2019-05-28 02:55:23,1558983333,5cec322188f4e700019a5d16,http://p.datafirst.io/postback?clickid=5cec322188f4e700019a5d16&adv_key=dbe0012fd9608d6bbc572aff09b55104,idfa_64fdaa87-e606-4211-6c47-fcda8e22a65b,ko
R9ti-PN8RMSbs0M_sck6Jg,datafirst,49_2823_987_,Install,0.5,1.225.227.210,449d6c37-e257-9e56-fa7c-e9f74f3e5c42,1558982997,2019-05-28 02:49:57,1558983116,2019-05-28 02:51:56,1558983127,5cec314988f4e70001987bb5,http://p.datafirst.io/postback?clickid=5cec314988f4e70001987bb5&adv_key=dbe0012fd9608d6bbc572aff09b55104,idfa_449d6c37-e257-9e56-fa7c-e9f74f3e5c42,ko
R9ti-PN8RMSbs0M_sck6Jg,datafirst,49_2823_987_,Install,0.5,124.216.10.80,8e5e19a7-ca5b-04aa-2fb5-e23c34056046,1558983369,2019-05-28 02:56:09,1558983474,2019-05-28 02:57:54,1558983483,5cec32bc88f4e700019b9b18,http://p.datafirst.io/postback?clickid=5cec32bc88f4e700019b9b18&adv_key=dbe0012fd9608d6bbc572aff09b55104,idfa_8e5e19a7-ca5b-04aa-2fb5-e23c34056046,ko
R9ti-PN8RMSbs0M_sck6Jg,datafirst,49_2823_987_,Install,0.5,1.225.229.42,d312a043-84fa-d9fd-9cb0-5a0ac8c2b467,1558981214,2019-05-28 02:20:14,1558981318,2019-05-28 02:21:58,1558981325,5cec2a5388f4e7000189d906,http://p.datafirst.io/postback?clickid=5cec2a5388f4e7000189d906&adv_key=dbe0012fd9608d6bbc572aff09b55104,idfa_d312a043-84fa-d9fd-9cb0-5a0ac8c2b467,ko
R9ti-PN8RMSbs0M_sck6Jg,datafirst,49_2823_987_,Install,0.5,210.205.15.82,b10c495c-465a-d679-8a5d-7000e0e151cf,1558981160,2019-05-28 02:19:20,1558981266,2019-05-28 02:21:06,1558981272,5cec2a1b88f4e70001898ae0,http://p.datafirst.io/postback?clickid=5cec2a1b88f4e70001898ae0&adv_key=dbe0012fd9608d6bbc572aff09b55104,idfa_b10c495c-465a-d679-8a5d-7000e0e151cf,ko
R9ti-PN8RMSbs0M_sck6Jg,datafirst,49_2823_987_,Install,0.5,121.189.181.77,f7be35d5-30d6-4dbc-ae03-4f2ce3c14a79,1558981209,2019-05-28 02:20:09,1558981316,2019-05-28 02:21:56,1558981324,5cec2a4c88f4e7000189cedc,http://p.datafirst.io/postback?clickid=5cec2a4c88f4e7000189cedc&adv_key=dbe0012fd9608d6bbc572aff09b55104,idfa_f7be35d5-30d6-4dbc-ae03-4f2ce3c14a79,ko
R9ti-PN8RMSbs0M_sck6Jg,datafirst,49_2823_987_,Install,0.5,118.37.147.186,2ea4a830-4f8b-65e4-8238-3fe058eb34ed,1558982207,2019-05-28 02:36:47,1558982315,2019-05-28 02:38:35,1558982321,5cec2e3088f4e7000191b039,http://p.datafirst.io/postback?clickid=5cec2e3088f4e7000191b039&adv_key=dbe0012fd9608d6bbc572aff09b55104,idfa_2ea4a830-4f8b-65e4-8238-3fe058eb34ed,ko
R9ti-PN8RMSbs0M_sck6Jg,datafirst,49_2823_987_,Install,0.5,42.82.8.239,db9ef958-94b7-5404-c3e9-b66fb98ec556,1558981496,2019-05-28 02:24:56,1558981600,2019-05-28 02:26:40,1558981606,5cec2b6d88f4e700018c0b6e,http://p.datafirst.io/postback?clickid=5cec2b6d88f4e700018c0b6e&adv_key=dbe0012fd9608d6bbc572aff09b55104,idfa_db9ef958-94b7-5404-c3e9-b66fb98ec556,ko
R9ti-PN8RMSbs0M_sck6Jg,datafirst,49_2823_987_,Install,0.5,211.200.177.119,3c294c34-1eff-a96e-cdab-4eb2ccdd2f0e,1558981488,2019-05-28 02:24:48,1558981593,2019-05-28 02:26:33,1558981605,5cec2b6488f4e700018bff78,http://p.datafirst.io/postback?clickid=5cec2b6488f4e700018bff78&adv_key=dbe0012fd9608d6bbc572aff09b55104,idfa_3c294c34-1eff-a96e-cdab-4eb2ccdd2f0e,ko
R9ti-PN8RMSbs0M_sck6Jg,datafirst,49_2823_987_,Install,0.5,211.46.166.240,4a660277-e8ea-72d5-e15e-9d191ca48e23,1558982025,2019-05-28 02:33:45,1558982125,2019-05-28 02:35:25,1558982131,5cec2d7c88f4e70001903946,http://p.datafirst.io/postback?clickid=5cec2d7c88f4e70001903946&adv_key=dbe0012fd9608d6bbc572aff09b55104,idfa_4a660277-e8ea-72d5-e15e-9d191ca48e23,ko
R9ti-PN8RMSbs0M_sck6Jg,datafirst,49_2823_987_,Install,0.5,14.43.191.75,ecc31d1d-b3af-2768-5023-bf0e0195e2cd,1558983458,2019-05-28 02:57:38,1558983567,2019-05-28 02:59:27,1558983573,5cec331588f4e700019c59f6,http://p.datafirst.io/postback?clickid=5cec331588f4e700019c59f6&adv_key=dbe0012fd9608d6bbc572aff09b55104,idfa_ecc31d1d-b3af-2768-5023-bf0e0195e2cd,ko
R9ti-PN8RMSbs0M_sck6Jg,datafirst,49_2823_987_,Install,0.5,61.251.193.200,4a8099ab-1c69-a288-8567-058a30d93f2e,1558981643,2019-05-28 02:27:23,1558981746,2019-05-28 02:29:06,1558981753,5cec2bff88f4e700018d40c6,http://p.datafirst.io/postback?clickid=5cec2bff88f4e700018d40c6&adv_key=dbe0012fd9608d6bbc572aff09b55104,idfa_4a8099ab-1c69-a288-8567-058a30d93f2e,ko
R9ti-PN8RMSbs0M_sck6Jg,datafirst,49_2823_987_,Install,0.5,110.34.123.225,3d5b87bc-456c-1fba-38ad-04617da60375,1558983279,2019-05-28 02:54:39,1558983384,2019-05-28 02:56:24,1558983401,5cec325d88f4e700019ad48d,http://p.datafirst.io/postback?clickid=5cec325d88f4e700019ad48d&adv_key=dbe0012fd9608d6bbc572aff09b55104,idfa_3d5b87bc-456c-1fba-38ad-04617da60375,ko
R9ti-PN8RMSbs0M_sck6Jg,datafirst,49_2823_987_,Install,0.5,58.78.35.210,16a9a13e-9564-04ab-1b9a-9049e5236c53,1558981417,2019-05-28 02:23:37,1558981515,2019-05-28 02:25:15,1558981529,5cec2b1888f4e700018b6667,http://p.datafirst.io/postback?clickid=5cec2b1888f4e700018b6667&adv_key=dbe0012fd9608d6bbc572aff09b55104,idfa_16a9a13e-9564-04ab-1b9a-9049e5236c53,ko
R9ti-PN8RMSbs0M_sck6Jg,datafirst,49_2823_987_,Install,0.5,59.14.113.185,d7dbe160-15d6-03b4-527e-07daa9bac8ae,1558983228,2019-05-28 02:53:48,1558983332,2019-05-28 02:55:32,1558983339,5cec323088f4e700019a7ac4,http://p.datafirst.io/postback?clickid=5cec323088f4e700019a7ac4&adv_key=dbe0012fd9608d6bbc572aff09b55104,idfa_d7dbe160-15d6-03b4-527e-07daa9bac8ae,ko
R9ti-PN8RMSbs0M_sck6Jg,datafirst,49_2823_987_,Install,0.5,14.50.94.196,39f4b02a-3758-029e-b92c-aa6f11995bfc,1558982477,2019-05-28 02:41:17,1558982582,2019-05-28 02:43:02,1558982594,5cec2f3f88f4e70001940d1b,http://p.datafirst.io/postback?clickid=5cec2f3f88f4e70001940d1b&adv_key=dbe0012fd9608d6bbc572aff09b55104,idfa_39f4b02a-3758-029e-b92c-aa6f11995bfc,ko
R9ti-PN8RMSbs0M_sck6Jg,datafirst,49_2823_987_,Install,0.5,121.131.17.217,dad62f42-b356-c5eb-effb-2976d8434731,1558980919,2019-05-28 02:15:19,1558981026,2019-05-28 02:17:06,1558981033,5cec292b88f4e700018858b6,http://p.datafirst.io/postback?clickid=5cec292b88f4e700018858b6&adv_key=dbe0012fd9608d6bbc572aff09b55104,idfa_dad62f42-b356-c5eb-effb-2976d8434731,ko
R9ti-PN8RMSbs0M_sck6Jg,datafirst,49_2823_987_,Install,0.5,122.42.75.119,3cb867bd-a385-12c3-ae8a-ce742c875373,1558981217,2019-05-28 02:20:17,1558981324,2019-05-28 02:22:04,1558981334,5cec2a5088f4e7000189d460,http://p.datafirst.io/postback?clickid=5cec2a5088f4e7000189d460&adv_key=dbe0012fd9608d6bbc572aff09b55104,idfa_3cb867bd-a385-12c3-ae8a-ce742c875373,ko
R9ti-PN8RMSbs0M_sck6Jg,datafirst,49_2823_987_,Install,0.5,211.49.26.19,0bec9b00-cb61-6bb4-305c-ea11412da39c,1558981540,2019-05-28 02:25:40,1558981652,2019-05-28 02:27:32,1558981666,5cec2b9888f4e700018c681c,http://p.datafirst.io/postback?clickid=5cec2b9888f4e700018c681c&adv_key=dbe0012fd9608d6bbc572aff09b55104,idfa_0bec9b00-cb61-6bb4-305c-ea11412da39c,ko
R9ti-PN8RMSbs0M_sck6Jg,datafirst,49_2823_987_,Install,0.5,175.195.18.57,77f843f9-5f26-cfb0-b334-31ef0409df9d,1558982724,2019-05-28 02:45:24,1558982831,2019-05-28 02:47:11,1558982838,5cec303588f4e70001963da2,http://p.datafirst.io/postback?clickid=5cec303588f4e70001963da2&adv_key=dbe0012fd9608d6bbc572aff09b55104,idfa_77f843f9-5f26-cfb0-b334-31ef0409df9d,ko
R9ti-PN8RMSbs0M_sck6Jg,datafirst,49_2823_987_,Install,0.5,175.223.16.59,b1812947-7d52-d8c8-5a1b-b4ccdf4516d0,1558981944,2019-05-28 02:32:24,1558982054,2019-05-28 02:34:14,1558982063,5cec2d2888f4e700018f85e0,http://p.datafirst.io/postback?clickid=5cec2d2888f4e700018f85e0&adv_key=dbe0012fd9608d6bbc572aff09b55104,idfa_b1812947-7d52-d8c8-5a1b-b4ccdf4516d0,ko
R9ti-PN8RMSbs0M_sck6Jg,datafirst,49_2823_987_,Install,0.5,175.117.25.115,66a5a9b2-6684-3e98-a2e9-55359342f3bf,1558980925,2019-05-28 02:15:25,1558981026,2019-05-28 02:17:06,1558981032,5cec292f88f4e70001885c4d,http://p.datafirst.io/postback?clickid=5cec292f88f4e70001885c4d&adv_key=dbe0012fd9608d6bbc572aff09b55104,idfa_66a5a9b2-6684-3e98-a2e9-55359342f3bf,ko
R9ti-PN8RMSbs0M_sck6Jg,datafirst,49_2823_987_,Install,0.5,210.222.87.154,182be6f4-2005-6ce9-f1c7-fef67be08194,1558981462,2019-05-28 02:24:22,1558981577,2019-05-28 02:26:17,1558981584,5cec2b4a88f4e700018bcb29,http://p.datafirst.io/postback?clickid=5cec2b4a88f4e700018bcb29&adv_key=dbe0012fd9608d6bbc572aff09b55104,idfa_182be6f4-2005-6ce9-f1c7-fef67be08194,ko
R9ti-PN8RMSbs0M_sck6Jg,datafirst,49_2823_987_,Install,0.5,106.254.218.37,b8680a92-6a02-519b-a3dc-36fa84472c33,1558982225,2019-05-28 02:37:05,1558982328,2019-05-28 02:38:48,1558982337,5cec2e4588f4e7000191d6eb,http://p.datafirst.io/postback?clickid=5cec2e4588f4e7000191d6eb&adv_key=dbe0012fd9608d6bbc572aff09b55104,idfa_b8680a92-6a02-519b-a3dc-36fa84472c33,ko
R9ti-PN8RMSbs0M_sck6Jg,datafirst,49_2823_987_,Install,0.5,222.109.133.122,fe516f57-661a-43ef-4717-6672b3b4e4be,1558982706,2019-05-28 02:45:06,1558982814,2019-05-28 02:46:54,1558982820,5cec302488f4e7000196127f,http://p.datafirst.io/postback?clickid=5cec302488f4e7000196127f&adv_key=dbe0012fd9608d6bbc572aff09b55104,idfa_fe516f57-661a-43ef-4717-6672b3b4e4be,ko
R9ti-PN8RMSbs0M_sck6Jg,datafirst,49_2823_987_,Install,0.5,121.177.144.86,1927d0bc-eef8-9640-a7ea-812b2a07e645,1558981657,2019-05-28 02:27:37,1558981760,2019-05-28 02:29:20,1558981768,5cec2c0d88f4e700018d5f76,http://p.datafirst.io/postback?clickid=5cec2c0d88f4e700018d5f76&adv_key=dbe0012fd9608d6bbc572aff09b55104,idfa_1927d0bc-eef8-9640-a7ea-812b2a07e645,ko
R9ti-PN8RMSbs0M_sck6Jg,datafirst,49_2823_987_,Install,0.5,61.33.16.244,abbeb871-4d39-6110-fa87-977b146ded2c,1558981975,2019-05-28 02:32:55,1558982082,2019-05-28 02:34:42,1558982088,5cec2d4b88f4e700018fc6b7,http://p.datafirst.io/postback?clickid=5cec2d4b88f4e700018fc6b7&adv_key=dbe0012fd9608d6bbc572aff09b55104,idfa_abbeb871-4d39-6110-fa87-977b146ded2c,ko
R9ti-PN8RMSbs0M_sck6Jg,datafirst,49_2823_987_,Install,0.5,220.75.185.34,17cc5959-e8b7-4289-3b1e-372251bc75b2,1558982453,2019-05-28 02:40:53,1558982561,2019-05-28 02:42:41,1558982571,5cec2f2888f4e7000193d93f,http://p.datafirst.io/postback?clickid=5cec2f2888f4e7000193d93f&adv_key=dbe0012fd9608d6bbc572aff09b55104,idfa_17cc5959-e8b7-4289-3b1e-372251bc75b2,ko
R9ti-PN8RMSbs0M_sck6Jg,datafirst,49_2823_987_,Install,0.5,211.187.4.59,9d4f561e-796e-9e41-54d8-b15defe4293c,1558981938,2019-05-28 02:32:18,1558982051,2019-05-28 02:34:11,1558982058,5cec2d2288f4e700018f7a68,http://p.datafirst.io/postback?clickid=5cec2d2288f4e700018f7a68&adv_key=dbe0012fd9608d6bbc572aff09b55104,idfa_9d4f561e-796e-9e41-54d8-b15defe4293c,ko
R9ti-PN8RMSbs0M_sck6Jg,datafirst,49_2823_987_,Install,0.5,117.111.25.33,e183ec43-5c9b-0aad-d1ca-7fd26eaaf860,1558980961,2019-05-28 02:16:01,1558981074,2019-05-28 02:17:54,1558981083,5cec295688f4e70001888d99,http://p.datafirst.io/postback?clickid=5cec295688f4e70001888d99&adv_key=dbe0012fd9608d6bbc572aff09b55104,idfa_e183ec43-5c9b-0aad-d1ca-7fd26eaaf860,ko
R9ti-PN8RMSbs0M_sck6Jg,datafirst,49_2823_987_,Install,0.5,210.92.98.233,d8127c7f-01f2-8c64-bec6-5c2678b43546,1558983421,2019-05-28 02:57:01,1558983529,2019-05-28 02:58:49,1558983536,5cec32f288f4e700019c13eb,http://p.datafirst.io/postback?clickid=5cec32f288f4e700019c13eb&adv_key=dbe0012fd9608d6bbc572aff09b55104,idfa_d8127c7f-01f2-8c64-bec6-5c2678b43546,ko
R9ti-PN8RMSbs0M_sck6Jg,datafirst,49_2823_987_,Install,0.5,39.118.86.86,62a98224-f19c-68a7-58ce-84ab32a85747,1558982883,2019-05-28 02:48:03,1558982991,2019-05-28 02:49:51,1558982998,5cec30d788f4e70001978805,http://p.datafirst.io/postback?clickid=5cec30d788f4e70001978805&adv_key=dbe0012fd9608d6bbc572aff09b55104,idfa_62a98224-f19c-68a7-58ce-84ab32a85747,ko
R9ti-PN8RMSbs0M_sck6Jg,datafirst,49_2823_987_,Install,0.5,121.140.135.90,443788d2-6d2c-233c-9bf2-faa60880be7f,1558982833,2019-05-28 02:47:13,1558982941,2019-05-28 02:49:01,1558982952,5cec30a288f4e7000197224a,http://p.datafirst.io/postback?clickid=5cec30a288f4e7000197224a&adv_key=dbe0012fd9608d6bbc572aff09b55104,idfa_443788d2-6d2c-233c-9bf2-faa60880be7f,ko
R9ti-PN8RMSbs0M_sck6Jg,datafirst,49_2823_987_,Install,0.5,221.158.163.133,a6d89cc9-1df1-a3d3-556f-06b7a3f812af,1558983332,2019-05-28 02:55:32,1558983437,2019-05-28 02:57:17,1558983443,5cec329688f4e700019b5237,http://p.datafirst.io/postback?clickid=5cec329688f4e700019b5237&adv_key=dbe0012fd9608d6bbc572aff09b55104,idfa_a6d89cc9-1df1-a3d3-556f-06b7a3f812af,ko
R9ti-PN8RMSbs0M_sck6Jg,datafirst,49_2823_987_,Install,0.5,175.210.113.222,862eaf15-bd23-b3a3-16f4-978a5908be4d,1558982247,2019-05-28 02:37:27,1558982351,2019-05-28 02:39:11,1558982358,5cec2e5988f4e7000191fdbc,http://p.datafirst.io/postback?clickid=5cec2e5988f4e7000191fdbc&adv_key=dbe0012fd9608d6bbc572aff09b55104,idfa_862eaf15-bd23-b3a3-16f4-978a5908be4d,ko
R9ti-PN8RMSbs0M_sck6Jg,datafirst,49_2823_987_,Install,0.5,221.163.239.56,cd66ae92-4558-bf31-69d6-cf2cce4874d9,1558982727,2019-05-28 02:45:27,1558982840,2019-05-28 02:47:20,1558982851,5cec303a88f4e70001964956,http://p.datafirst.io/postback?clickid=5cec303a88f4e70001964956&adv_key=dbe0012fd9608d6bbc572aff09b55104,idfa_cd66ae92-4558-bf31-69d6-cf2cce4874d9,ko
R9ti-PN8RMSbs0M_sck6Jg,datafirst,49_2823_987_,Install,0.5,220.77.175.24,3204f647-d378-3c8f-ab6d-426a171960ac,1558983201,2019-05-28 02:53:21,1558983304,2019-05-28 02:55:04,1558983312,5cec321388f4e700019a3d24,http://p.datafirst.io/postback?clickid=5cec321388f4e700019a3d24&adv_key=dbe0012fd9608d6bbc572aff09b55104,idfa_3204f647-d378-3c8f-ab6d-426a171960ac,ko
R9ti-PN8RMSbs0M_sck6Jg,datafirst,49_2823_987_,Install,0.5,121.134.249.54,b0609d30-1370-bae0-03e0-327373d14390,1558981244,2019-05-28 02:20:44,1558981349,2019-05-28 02:22:29,1558981356,5cec2a7088f4e700018a0b86,http://p.datafirst.io/postback?clickid=5cec2a7088f4e700018a0b86&adv_key=dbe0012fd9608d6bbc572aff09b55104,idfa_b0609d30-1370-bae0-03e0-327373d14390,ko
R9ti-PN8RMSbs0M_sck6Jg,datafirst,49_2823_987_,Install,0.5,121.162.36.154,4762179d-e557-6137-d8f1-eaf6954e7c09,1558983179,2019-05-28 02:52:59,1558983285,2019-05-28 02:54:45,1558983303,5cec31ff88f4e700019a155e,http://p.datafirst.io/postback?clickid=5cec31ff88f4e700019a155e&adv_key=dbe0012fd9608d6bbc572aff09b55104,idfa_4762179d-e557-6137-d8f1-eaf6954e7c09,ko
R9ti-PN8RMSbs0M_sck6Jg,datafirst,49_2823_987_,Install,0.5,125.133.203.254,c06840a2-a1c7-c3e9-098d-189492f7cd16,1558981685,2019-05-28 02:28:05,1558981789,2019-05-28 02:29:49,1558981799,5cec2c2788f4e700018d9a3c,http://p.datafirst.io/postback?clickid=5cec2c2788f4e700018d9a3c&adv_key=dbe0012fd9608d6bbc572aff09b55104,idfa_c06840a2-a1c7-c3e9-098d-189492f7cd16,ko
R9ti-PN8RMSbs0M_sck6Jg,datafirst,49_2823_987_,Install,0.5,14.63.7.52,2a19ebf8-dc5d-1d23-b65f-842bf3db0ae1,1558982156,2019-05-28 02:35:56,1558982263,2019-05-28 02:37:43,1558982282,5cec2dff88f4e70001914eee,http://p.datafirst.io/postback?clickid=5cec2dff88f4e70001914eee&adv_key=dbe0012fd9608d6bbc572aff09b55104,idfa_2a19ebf8-dc5d-1d23-b65f-842bf3db0ae1,ko
R9ti-PN8RMSbs0M_sck6Jg,datafirst,49_2823_987_,Install,0.5,125.180.10.78,d8c1e1a6-4d71-1f26-1902-ce6d703fec4c,1558981736,2019-05-28 02:28:56,1558981845,2019-05-28 02:30:45,1558981854,5cec2c5c88f4e700018df70f,http://p.datafirst.io/postback?clickid=5cec2c5c88f4e700018df70f&adv_key=dbe0012fd9608d6bbc572aff09b55104,idfa_d8c1e1a6-4d71-1f26-1902-ce6d703fec4c,ko
R9ti-PN8RMSbs0M_sck6Jg,datafirst,49_2823_987_,Install,0.5,118.127.211.56,eafc2373-52af-6d31-94da-309185946649,1558980995,2019-05-28 02:16:35,1558981101,2019-05-28 02:18:21,1558981109,5cec297888f4e7000188b49d,http://p.datafirst.io/postback?clickid=5cec297888f4e7000188b49d&adv_key=dbe0012fd9608d6bbc572aff09b55104,idfa_eafc2373-52af-6d31-94da-309185946649,ko
R9ti-PN8RMSbs0M_sck6Jg,datafirst,49_2823_987_,Install,0.5,182.215.75.113,0bb784a8-a73a-a940-c6a7-d5635d5d50a0,1558982007,2019-05-28 02:33:27,1558982116,2019-05-28 02:35:16,1558982125,5cec2d6b88f4e70001900b8c,http://p.datafirst.io/postback?clickid=5cec2d6b88f4e70001900b8c&adv_key=dbe0012fd9608d6bbc572aff09b55104,idfa_0bb784a8-a73a-a940-c6a7-d5635d5d50a0,ko
R9ti-PN8RMSbs0M_sck6Jg,datafirst,49_2823_987_,Install,0.5,14.34.250.110,3d1b05b6-8e6c-38a1-f0b0-fb0eb21db8c2,1558982591,2019-05-28 02:43:11,1558982695,2019-05-28 02:44:55,1558982701,5cec2fb088f4e7000194ff0f,http://p.datafirst.io/postback?clickid=5cec2fb088f4e7000194ff0f&adv_key=dbe0012fd9608d6bbc572aff09b55104,idfa_3d1b05b6-8e6c-38a1-f0b0-fb0eb21db8c2,ko
R9ti-PN8RMSbs0M_sck6Jg,datafirst,49_2823_987_,Install,0.5,121.185.112.160,0f3da11c-e902-fa3f-fa67-7d53862c01a7,1558982268,2019-05-28 02:37:48,1558982373,2019-05-28 02:39:33,1558982383,5cec2e6e88f4e700019231e6,http://p.datafirst.io/postback?clickid=5cec2e6e88f4e700019231e6&adv_key=dbe0012fd9608d6bbc572aff09b55104,idfa_0f3da11c-e902-fa3f-fa67-7d53862c01a7,ko
R9ti-PN8RMSbs0M_sck6Jg,datafirst,49_2823_987_,Install,0.5,124.54.219.9,7dfc13cb-2ab8-da7c-4016-87b9d95b8613,1558982922,2019-05-28 02:48:42,1558983033,2019-05-28 02:50:33,1558983043,5cec30fd88f4e7000197d4be,http://p.datafirst.io/postback?clickid=5cec30fd88f4e7000197d4be&adv_key=dbe0012fd9608d6bbc572aff09b55104,idfa_7dfc13cb-2ab8-da7c-4016-87b9d95b8613,ko
R9ti-PN8RMSbs0M_sck6Jg,datafirst,49_2823_987_,Install,0.5,121.135.222.29,0323e0de-4db6-5999-c5dc-551030c501f7,1558983083,2019-05-28 02:51:23,1558983192,2019-05-28 02:53:12,1558983199,5cec319e88f4e70001993b8b,http://p.datafirst.io/postback?clickid=5cec319e88f4e70001993b8b&adv_key=dbe0012fd9608d6bbc572aff09b55104,idfa_0323e0de-4db6-5999-c5dc-551030c501f7,ko
