cid,partner_id,channel_id,action_id,cpi,ip,idfa,click time,click datetime,install time,install datetime,postback time,click id,postback url,unique user id
eG_c-gHpThm1JaO2x8BOgw,datafirst,39_1570,install,1.7,112.151.150.82,b972588d-5375-473d-91e1-78913fe06cc7,1557853208,2019-05-15 01:00:08,1557853290,2019-05-15 01:01:30,1557853321,5cdaf41788f4e7000156f2f6,http://p.datafirst.io/postback?clickid=5cdaf41788f4e7000156f2f6&adv_key=dbe0012fd9608d6bbc572aff09b55104,idfa_b972588d-5375-473d-91e1-78913fe06cc7,ko
eG_c-gHpThm1JaO2x8BOgw,datafirst,39_1570,install,1.5,221.164.147.182,db319d22-a08f-4fc4-91f6-d324fa38d20f,1557339436,2019-05-09 02:17:16,1557339471,2019-05-09 02:17:51,1557339502,5cd31d2a88f4e70001355212,http://p.datafirst.io/postback?clickid=5cd31d2a88f4e70001355212&adv_key=dbe0012fd9608d6bbc572aff09b55104,idfa_db319d22-a08f-4fc4-91f6-d324fa38d20f,ko
eG_c-gHpThm1JaO2x8BOgw,datafirst,39_1570,install,1.7,218.233.251.48,78737aa1-6f28-4769-ac81-0b0a883e2822,1557841925,2019-05-14 21:52:05,1557841963,2019-05-14 21:52:43,1557841993,5cdac80288f4e70001312b98,http://p.datafirst.io/postback?clickid=5cdac80288f4e70001312b98&adv_key=dbe0012fd9608d6bbc572aff09b55104,idfa_78737aa1-6f28-4769-ac81-0b0a883e2822,ko
eG_c-gHpThm1JaO2x8BOgw,datafirst,39_1570,install,1.7,1.240.52.57,6a1f8b22-8ba5-4583-9e56-410950ad2943,1557835970,2019-05-14 20:12:50,1557836005,2019-05-14 20:13:25,1557836045,5cdab0c188f4e700012585b2,http://p.datafirst.io/postback?clickid=5cdab0c188f4e700012585b2&adv_key=dbe0012fd9608d6bbc572aff09b55104,idfa_6a1f8b22-8ba5-4583-9e56-410950ad2943,ko
eG_c-gHpThm1JaO2x8BOgw,datafirst,39_1570,install,1.7,211.36.139.93,7e6dcad9-fffc-49d4-b5be-8d63b4a71e75,1557709538,2019-05-13 09:05:38,1557738115,2019-05-13 17:01:55,1557738146,5cd8c2e188f4e7000124c0ae,http://p.datafirst.io/postback?clickid=5cd8c2e188f4e7000124c0ae&adv_key=dbe0012fd9608d6bbc572aff09b55104,idfa_7e6dcad9-fffc-49d4-b5be-8d63b4a71e75,ko
eG_c-gHpThm1JaO2x8BOgw,datafirst,39_1570,install,1.7,182.216.121.245,d5ecc64c-001e-4a1d-8bd4-cc0478791b36,1557846294,2019-05-14 23:04:54,1557846334,2019-05-14 23:05:34,1557846366,5cdad91588f4e700013ccf07,http://p.datafirst.io/postback?clickid=5cdad91588f4e700013ccf07&adv_key=dbe0012fd9608d6bbc572aff09b55104,idfa_d5ecc64c-001e-4a1d-8bd4-cc0478791b36,ko
eG_c-gHpThm1JaO2x8BOgw,datafirst,39_1570,install,1.7,210.104.68.57,e8baa66f-5589-493b-8c3b-d49886d11536,1557864937,2019-05-15 04:15:37,1557864975,2019-05-15 04:16:15,1557865006,5cdb21e888f4e7000179e7af,http://p.datafirst.io/postback?clickid=5cdb21e888f4e7000179e7af&adv_key=dbe0012fd9608d6bbc572aff09b55104,idfa_e8baa66f-5589-493b-8c3b-d49886d11536,ko
eG_c-gHpThm1JaO2x8BOgw,datafirst,39_1570,install,1.7,180.231.158.150,706fa8ef-3eb3-4005-9dd1-9a76d223c344,1557853849,2019-05-15 01:10:49,1557853881,2019-05-15 01:11:21,1557853912,5cdaf69688f4e70001595325,http://p.datafirst.io/postback?clickid=5cdaf69688f4e70001595325&adv_key=dbe0012fd9608d6bbc572aff09b55104,idfa_706fa8ef-3eb3-4005-9dd1-9a76d223c344,ko
eG_c-gHpThm1JaO2x8BOgw,datafirst,39_1570,install,1.7,124.5.112.6,9ded1629-6295-41d5-babb-50727314547c,1557859561,2019-05-15 02:46:01,1557859601,2019-05-15 02:46:41,1557859632,5cdb0ce888f4e700016acb7a,http://p.datafirst.io/postback?clickid=5cdb0ce888f4e700016acb7a&adv_key=dbe0012fd9608d6bbc572aff09b55104,idfa_9ded1629-6295-41d5-babb-50727314547c,ko
eG_c-gHpThm1JaO2x8BOgw,datafirst,39_1570,install,1.7,182.230.229.182,633a3b94-cb57-4847-b7a5-04213ab22fb4,1557863928,2019-05-15 03:58:48,1557863965,2019-05-15 03:59:25,1557863996,5cdb1df788f4e7000176f063,http://p.datafirst.io/postback?clickid=5cdb1df788f4e7000176f063&adv_key=dbe0012fd9608d6bbc572aff09b55104,idfa_633a3b94-cb57-4847-b7a5-04213ab22fb4,ko
eG_c-gHpThm1JaO2x8BOgw,datafirst,39_1570,install,1.7,112.150.251.188,d12068aa-8775-42e3-bac9-ce375c2f8bf6,1557839228,2019-05-14 21:07:08,1557839757,2019-05-14 21:15:57,1557839789,5cdabd7a88f4e700012ba0f9,http://p.datafirst.io/postback?clickid=5cdabd7a88f4e700012ba0f9&adv_key=dbe0012fd9608d6bbc572aff09b55104,idfa_d12068aa-8775-42e3-bac9-ce375c2f8bf6,ko
eG_c-gHpThm1JaO2x8BOgw,datafirst,39_1570,install,1.7,183.102.152.181,141454c2-1383-496e-8b40-506b45c04e13,1557859256,2019-05-15 02:40:56,1557859633,2019-05-15 02:47:13,1557859663,5cdb0bb788f4e700016a05cd,http://p.datafirst.io/postback?clickid=5cdb0bb788f4e700016a05cd&adv_key=dbe0012fd9608d6bbc572aff09b55104,idfa_141454c2-1383-496e-8b40-506b45c04e13,ko
eG_c-gHpThm1JaO2x8BOgw,datafirst,39_1570,install,1.7,211.195.26.149,e70fc65e-99a1-4b23-8ea8-e67f397910a4,1557844012,2019-05-14 22:26:52,1557844050,2019-05-14 22:27:30,1557844082,5cdad02b88f4e700013655fd,http://p.datafirst.io/postback?clickid=5cdad02b88f4e700013655fd&adv_key=dbe0012fd9608d6bbc572aff09b55104,idfa_e70fc65e-99a1-4b23-8ea8-e67f397910a4,ko
eG_c-gHpThm1JaO2x8BOgw,datafirst,39_1570,install,1.7,1.253.109.58,a3515070-90fd-4aab-8dd1-1fea2af71828,1557833456,2019-05-14 19:30:56,1557833505,2019-05-14 19:31:45,1557833536,5cdaa6ec88f4e700012280ff,http://p.datafirst.io/postback?clickid=5cdaa6ec88f4e700012280ff&adv_key=dbe0012fd9608d6bbc572aff09b55104,idfa_a3515070-90fd-4aab-8dd1-1fea2af71828,ko
eG_c-gHpThm1JaO2x8BOgw,datafirst,39_1570,install,1.7,125.128.159.197,49cc697e-efa3-4195-b557-e387f7b28623,1557851219,2019-05-15 00:26:59,1557851359,2019-05-15 00:29:19,1557851389,5cdaec5188f4e700014da1da,http://p.datafirst.io/postback?clickid=5cdaec5188f4e700014da1da&adv_key=dbe0012fd9608d6bbc572aff09b55104,idfa_49cc697e-efa3-4195-b557-e387f7b28623,ko
eG_c-gHpThm1JaO2x8BOgw,datafirst,39_1570,install,1.7,121.171.161.193,7e4db1d5-317b-407e-936e-97b4ca9dcba1,1557755076,2019-05-13 21:44:36,1557755156,2019-05-13 21:45:56,1557755187,5cd974c288f4e7000175595b,http://p.datafirst.io/postback?clickid=5cd974c288f4e7000175595b&adv_key=dbe0012fd9608d6bbc572aff09b55104,idfa_7e4db1d5-317b-407e-936e-97b4ca9dcba1,ko
eG_c-gHpThm1JaO2x8BOgw,datafirst,39_1570,install,1.7,59.22.85.250,50c43abb-39a2-47e3-b712-7f05ae68f93f,1557843964,2019-05-14 22:26:04,1557843994,2019-05-14 22:26:34,1557844026,5cdacff788f4e700013630b8,http://p.datafirst.io/postback?clickid=5cdacff788f4e700013630b8&adv_key=dbe0012fd9608d6bbc572aff09b55104,idfa_50c43abb-39a2-47e3-b712-7f05ae68f93f,ko
eG_c-gHpThm1JaO2x8BOgw,datafirst,39_1570,install,1.7,14.48.214.112,2e9866ff-8ffc-4bbd-8e44-f21f894b3739,1557858605,2019-05-15 02:30:05,1557858858,2019-05-15 02:34:18,1557858889,5cdb092b88f4e70001682c91,http://p.datafirst.io/postback?clickid=5cdb092b88f4e70001682c91&adv_key=dbe0012fd9608d6bbc572aff09b55104,idfa_2e9866ff-8ffc-4bbd-8e44-f21f894b3739,ko
eG_c-gHpThm1JaO2x8BOgw,datafirst,39_1570,install,1.7,14.54.177.18,35553119-393b-41d9-80c5-2bc365f3bfc7,1557859980,2019-05-15 02:53:00,1557860016,2019-05-15 02:53:36,1557860047,5cdb0e8b88f4e700016bdbac,http://p.datafirst.io/postback?clickid=5cdb0e8b88f4e700016bdbac&adv_key=dbe0012fd9608d6bbc572aff09b55104,idfa_35553119-393b-41d9-80c5-2bc365f3bfc7,ko
eG_c-gHpThm1JaO2x8BOgw,datafirst,39_1570,install,1.7,61.33.94.134,6dd75cba-b8c4-42a0-8f8b-b34276f8b195,1557861211,2019-05-15 03:13:31,1557861246,2019-05-15 03:14:06,1557861277,5cdb135888f4e70001700b07,http://p.datafirst.io/postback?clickid=5cdb135888f4e70001700b07&adv_key=dbe0012fd9608d6bbc572aff09b55104,idfa_6dd75cba-b8c4-42a0-8f8b-b34276f8b195,ko
eG_c-gHpThm1JaO2x8BOgw,datafirst,39_1570,install,1.7,123.212.207.99,a670c0bb-279e-4ffe-bd7c-422f70745ed5,1557851026,2019-05-15 00:23:46,1557851063,2019-05-15 00:24:23,1557851094,5cdaeb9188f4e700014cae98,http://p.datafirst.io/postback?clickid=5cdaeb9188f4e700014cae98&adv_key=dbe0012fd9608d6bbc572aff09b55104,idfa_a670c0bb-279e-4ffe-bd7c-422f70745ed5,ko
eG_c-gHpThm1JaO2x8BOgw,datafirst,39_1570,install,1.7,39.7.58.213,72b2de21-46fb-4b2d-a44b-e2c3e05ffc0f,1557852958,2019-05-15 00:55:58,1557853398,2019-05-15 01:03:18,1557853429,5cdaf31d88f4e70001559fb5,http://p.datafirst.io/postback?clickid=5cdaf31d88f4e70001559fb5&adv_key=dbe0012fd9608d6bbc572aff09b55104,idfa_72b2de21-46fb-4b2d-a44b-e2c3e05ffc0f,ko
eG_c-gHpThm1JaO2x8BOgw,datafirst,39_1570,install,1.7,14.38.201.178,f269f74d-6fa4-468d-8458-7c67f63b527a,1557849563,2019-05-14 23:59:23,1557849602,2019-05-15 00:00:02,1557849633,5cdae5da88f4e7000145408b,http://p.datafirst.io/postback?clickid=5cdae5da88f4e7000145408b&adv_key=dbe0012fd9608d6bbc572aff09b55104,idfa_f269f74d-6fa4-468d-8458-7c67f63b527a,ko
eG_c-gHpThm1JaO2x8BOgw,datafirst,39_1570,install,1.7,221.143.115.67,f0f47bba-771c-4078-a255-f36d367d8371,1557762384,2019-05-13 23:46:24,1557762424,2019-05-13 23:47:04,1557762455,5cd9914f88f4e70001897152,http://p.datafirst.io/postback?clickid=5cd9914f88f4e70001897152&adv_key=dbe0012fd9608d6bbc572aff09b55104,idfa_f0f47bba-771c-4078-a255-f36d367d8371,ko
eG_c-gHpThm1JaO2x8BOgw,datafirst,39_1570,install,1.7,49.163.85.184,457b5f26-4993-499f-abe1-f6f7e0d255da,1557833330,2019-05-14 19:28:50,1557833365,2019-05-14 19:29:25,1557833398,5cdaa67188f4e70001225fce,http://p.datafirst.io/postback?clickid=5cdaa67188f4e70001225fce&adv_key=dbe0012fd9608d6bbc572aff09b55104,idfa_457b5f26-4993-499f-abe1-f6f7e0d255da,ko
