cid,partner_id,channel_id,action_id,cpi,ip,idfa,click time,click datetime,install time,install datetime,postback time,click id,postback url,unique user id
R9ti-PN8RMSbs0M_sck6Jg,datafirst,49_2823_998_,Install,0.5,163.152.3.164,357a593d-b082-6ec2-a75e-4a2d523e6869,1559239733,2019-05-31 02:08:53,1559239876,2019-05-31 02:11:16,1559239884,5cf01c2a88f4e700014a30f7,http://p.datafirst.io/postback?clickid=5cf01c2a88f4e700014a30f7&adv_key=dbe0012fd9608d6bbc572aff09b55104,idfa_357a593d-b082-6ec2-a75e-4a2d523e6869,ko
R9ti-PN8RMSbs0M_sck6Jg,datafirst,49_2823_998_,Install,0.5,114.199.19.189,f5edbda8-fff8-df19-ebb7-210c712ce2ab,1559238119,2019-05-31 01:41:59,1559238268,2019-05-31 01:44:28,1559238277,5cf015db88f4e7000132c896,http://p.datafirst.io/postback?clickid=5cf015db88f4e7000132c896&adv_key=dbe0012fd9608d6bbc572aff09b55104,idfa_f5edbda8-fff8-df19-ebb7-210c712ce2ab,ko
R9ti-PN8RMSbs0M_sck6Jg,datafirst,49_2823_998_,Install,0.5,121.66.14.138,a2317bc6-a440-6861-7b83-a4bbd7ec87d6,1559240153,2019-05-31 02:15:53,1559240257,2019-05-31 02:17:37,1559240268,5cf01dcc88f4e700014ffba4,http://p.datafirst.io/postback?clickid=5cf01dcc88f4e700014ffba4&adv_key=dbe0012fd9608d6bbc572aff09b55104,idfa_a2317bc6-a440-6861-7b83-a4bbd7ec87d6,ko
R9ti-PN8RMSbs0M_sck6Jg,datafirst,49_2823_998_,Install,0.5,125.143.71.122,a92800d4-942f-cd37-1e40-c6101875b638,1559239464,2019-05-31 02:04:24,1559239586,2019-05-31 02:06:26,1559239593,5cf01b1c88f4e700014675e3,http://p.datafirst.io/postback?clickid=5cf01b1c88f4e700014675e3&adv_key=dbe0012fd9608d6bbc572aff09b55104,idfa_a92800d4-942f-cd37-1e40-c6101875b638,ko
R9ti-PN8RMSbs0M_sck6Jg,datafirst,49_2823_998_,Install,0.5,58.122.52.242,3f0cebdd-2650-2bb2-267d-d5243cf897e9,1559240301,2019-05-31 02:18:21,1559240396,2019-05-31 02:19:56,1559240404,5cf01e6188f4e70001521a05,http://p.datafirst.io/postback?clickid=5cf01e6188f4e70001521a05&adv_key=dbe0012fd9608d6bbc572aff09b55104,idfa_3f0cebdd-2650-2bb2-267d-d5243cf897e9,ko
R9ti-PN8RMSbs0M_sck6Jg,datafirst,49_2823_998_,Install,0.5,58.236.185.70,7df6eb96-e28b-00ad-8649-81da174d0fd6,1559240204,2019-05-31 02:16:44,1559240327,2019-05-31 02:18:47,1559240339,5cf01dff88f4e7000150c3af,http://p.datafirst.io/postback?clickid=5cf01dff88f4e7000150c3af&adv_key=dbe0012fd9608d6bbc572aff09b55104,idfa_7df6eb96-e28b-00ad-8649-81da174d0fd6,ko
R9ti-PN8RMSbs0M_sck6Jg,datafirst,49_2823_998_,Install,0.5,222.121.252.38,d921ff65-f24e-c58d-1be7-e6d4913b493a,1559239801,2019-05-31 02:10:01,1559239918,2019-05-31 02:11:58,1559239925,5cf01c6d88f4e700014b0395,http://p.datafirst.io/postback?clickid=5cf01c6d88f4e700014b0395&adv_key=dbe0012fd9608d6bbc572aff09b55104,idfa_d921ff65-f24e-c58d-1be7-e6d4913b493a,ko
R9ti-PN8RMSbs0M_sck6Jg,datafirst,49_2823_998_,Install,0.5,220.78.129.154,5616c194-65b6-4a6a-a14b-76159b4ab31a,1559239532,2019-05-31 02:05:32,1559239716,2019-05-31 02:08:36,1559239724,5cf01b6088f4e70001476242,http://p.datafirst.io/postback?clickid=5cf01b6088f4e70001476242&adv_key=dbe0012fd9608d6bbc572aff09b55104,idfa_5616c194-65b6-4a6a-a14b-76159b4ab31a,ko
R9ti-PN8RMSbs0M_sck6Jg,datafirst,49_2823_998_,Install,0.5,221.141.184.83,60099b16-f430-c884-279f-1ce5f4a40cd7,1559237871,2019-05-31 01:37:51,1559237989,2019-05-31 01:39:49,1559237996,5cf014e388f4e700012f31da,http://p.datafirst.io/postback?clickid=5cf014e388f4e700012f31da&adv_key=dbe0012fd9608d6bbc572aff09b55104,idfa_60099b16-f430-c884-279f-1ce5f4a40cd7,ko
R9ti-PN8RMSbs0M_sck6Jg,datafirst,49_2823_998_,Install,0.5,14.38.128.160,f8b4ba36-d8e8-35cd-dc8e-df678b7a2e1a,1559239720,2019-05-31 02:08:40,1559244523,2019-05-31 03:28:43,1559244533,5cf01c1d88f4e700014a056e,http://p.datafirst.io/postback?clickid=5cf01c1d88f4e700014a056e&adv_key=dbe0012fd9608d6bbc572aff09b55104,idfa_f8b4ba36-d8e8-35cd-dc8e-df678b7a2e1a,ko
R9ti-PN8RMSbs0M_sck6Jg,datafirst,49_2823_998_,Install,0.5,222.232.39.63,17e04634-005c-c5bb-95de-9a400174154d,1559238953,2019-05-31 01:55:53,1559239234,2019-05-31 02:00:34,1559239245,5cf0191d88f4e700013f0736,http://p.datafirst.io/postback?clickid=5cf0191d88f4e700013f0736&adv_key=dbe0012fd9608d6bbc572aff09b55104,idfa_17e04634-005c-c5bb-95de-9a400174154d,ko
R9ti-PN8RMSbs0M_sck6Jg,datafirst,49_2823_998_,Install,0.5,175.124.177.45,f8fa6728-bede-ac51-4598-3284fe4f387c,1559239151,2019-05-31 01:59:11,1559239261,2019-05-31 02:01:01,1559239273,5cf019e188f4e7000141d126,http://p.datafirst.io/postback?clickid=5cf019e188f4e7000141d126&adv_key=dbe0012fd9608d6bbc572aff09b55104,idfa_f8fa6728-bede-ac51-4598-3284fe4f387c,ko
R9ti-PN8RMSbs0M_sck6Jg,datafirst,49_2823_998_,Install,0.5,218.158.191.242,d1a7c7e2-1f51-290b-8945-cb03ab07a6f7,1559239859,2019-05-31 02:10:59,1559239975,2019-05-31 02:12:55,1559239984,5cf01ca788f4e700014bcda9,http://p.datafirst.io/postback?clickid=5cf01ca788f4e700014bcda9&adv_key=dbe0012fd9608d6bbc572aff09b55104,idfa_d1a7c7e2-1f51-290b-8945-cb03ab07a6f7,ko
R9ti-PN8RMSbs0M_sck6Jg,datafirst,49_2823_998_,Install,0.5,121.170.195.200,3d20d0fd-ca80-7525-e8ac-25cca08d344e,1559237611,2019-05-31 01:33:31,1559237729,2019-05-31 01:35:29,1559237737,5cf013de88f4e700012b7ff7,http://p.datafirst.io/postback?clickid=5cf013de88f4e700012b7ff7&adv_key=dbe0012fd9608d6bbc572aff09b55104,idfa_3d20d0fd-ca80-7525-e8ac-25cca08d344e,ko
R9ti-PN8RMSbs0M_sck6Jg,datafirst,49_2823_998_,Install,0.5,14.55.233.66,3e923b7b-8ff5-2afc-18e5-75fb34b461be,1559239082,2019-05-31 01:58:02,1559239185,2019-05-31 01:59:45,1559239192,5cf0199e88f4e7000140dddd,http://p.datafirst.io/postback?clickid=5cf0199e88f4e7000140dddd&adv_key=dbe0012fd9608d6bbc572aff09b55104,idfa_3e923b7b-8ff5-2afc-18e5-75fb34b461be,ko
R9ti-PN8RMSbs0M_sck6Jg,datafirst,49_2823_998_,Install,0.5,210.223.113.251,fe1578b2-b61a-642d-b41c-a9c5443bccf0,1559238928,2019-05-31 01:55:28,1559239039,2019-05-31 01:57:19,1559239045,5cf0190388f4e700013ea011,http://p.datafirst.io/postback?clickid=5cf0190388f4e700013ea011&adv_key=dbe0012fd9608d6bbc572aff09b55104,idfa_fe1578b2-b61a-642d-b41c-a9c5443bccf0,ko
R9ti-PN8RMSbs0M_sck6Jg,datafirst,49_2823_998_,Install,0.5,220.124.234.16,908e6d7b-f886-9ad0-f7a5-b5ed3c1671af,1559240366,2019-05-31 02:19:26,1559240477,2019-05-31 02:21:17,1559240484,5cf01ea288f4e7000152fb0b,http://p.datafirst.io/postback?clickid=5cf01ea288f4e7000152fb0b&adv_key=dbe0012fd9608d6bbc572aff09b55104,idfa_908e6d7b-f886-9ad0-f7a5-b5ed3c1671af,ko
R9ti-PN8RMSbs0M_sck6Jg,datafirst,49_2823_998_,Install,0.5,123.199.90.246,0b3a4217-ba6e-58d5-17ac-6febf668846c,1559239098,2019-05-31 01:58:18,1559239231,2019-05-31 02:00:31,1559239238,5cf0199f88f4e7000140e160,http://p.datafirst.io/postback?clickid=5cf0199f88f4e7000140e160&adv_key=dbe0012fd9608d6bbc572aff09b55104,idfa_0b3a4217-ba6e-58d5-17ac-6febf668846c,ko
R9ti-PN8RMSbs0M_sck6Jg,datafirst,49_2823_998_,Install,0.5,182.172.163.14,07bef964-2c51-4ea3-b508-c2373770362e,1559239761,2019-05-31 02:09:21,1559240052,2019-05-31 02:14:12,1559240060,5cf01c4588f4e700014a7f42,http://p.datafirst.io/postback?clickid=5cf01c4588f4e700014a7f42&adv_key=dbe0012fd9608d6bbc572aff09b55104,idfa_07bef964-2c51-4ea3-b508-c2373770362e,ko
R9ti-PN8RMSbs0M_sck6Jg,datafirst,49_2823_998_,Install,0.5,1.244.120.18,17c3313a-f5d2-195c-17bc-ce5f687e93d9,1559238542,2019-05-31 01:49:02,1559238642,2019-05-31 01:50:42,1559238651,5cf0178388f4e7000138d269,http://p.datafirst.io/postback?clickid=5cf0178388f4e7000138d269&adv_key=dbe0012fd9608d6bbc572aff09b55104,idfa_17c3313a-f5d2-195c-17bc-ce5f687e93d9,ko
R9ti-PN8RMSbs0M_sck6Jg,datafirst,49_2823_998_,Install,0.5,182.211.82.90,673aecb4-677e-1169-16c8-6362a2b9af94,1559240131,2019-05-31 02:15:31,1559240236,2019-05-31 02:17:16,1559240242,5cf01db888f4e700014fafd4,http://p.datafirst.io/postback?clickid=5cf01db888f4e700014fafd4&adv_key=dbe0012fd9608d6bbc572aff09b55104,idfa_673aecb4-677e-1169-16c8-6362a2b9af94,ko
R9ti-PN8RMSbs0M_sck6Jg,datafirst,49_2823_998_,Install,0.5,121.134.119.249,e759bc3b-a4cf-8b6e-31d0-6a8d4272b549,1559239528,2019-05-31 02:05:28,1559239656,2019-05-31 02:07:36,1559239672,5cf01b5b88f4e700014752b2,http://p.datafirst.io/postback?clickid=5cf01b5b88f4e700014752b2&adv_key=dbe0012fd9608d6bbc572aff09b55104,idfa_e759bc3b-a4cf-8b6e-31d0-6a8d4272b549,ko
R9ti-PN8RMSbs0M_sck6Jg,datafirst,49_2823_998_,Install,0.5,61.76.100.22,118a0dca-a905-ed57-f7d1-d8ef1c96de4b,1559240491,2019-05-31 02:21:31,1559240596,2019-05-31 02:23:16,1559240609,5cf01f1f88f4e7000154c0ce,http://p.datafirst.io/postback?clickid=5cf01f1f88f4e7000154c0ce&adv_key=dbe0012fd9608d6bbc572aff09b55104,idfa_118a0dca-a905-ed57-f7d1-d8ef1c96de4b,ko
R9ti-PN8RMSbs0M_sck6Jg,datafirst,49_2823_998_,Install,0.5,211.197.94.136,e956ce3a-fcd6-1752-8d5c-7b0a0b1f3c7d,1559238817,2019-05-31 01:53:37,1559238951,2019-05-31 01:55:51,1559238961,5cf0187988f4e700013ca014,http://p.datafirst.io/postback?clickid=5cf0187988f4e700013ca014&adv_key=dbe0012fd9608d6bbc572aff09b55104,idfa_e956ce3a-fcd6-1752-8d5c-7b0a0b1f3c7d,ko
R9ti-PN8RMSbs0M_sck6Jg,datafirst,49_2823_998_,Install,0.5,119.207.157.113,36164189-5277-cb0f-b533-f6611cb00a90,1559239776,2019-05-31 02:09:36,1559239991,2019-05-31 02:13:11,1559240002,5cf01c5588f4e700014aaef9,http://p.datafirst.io/postback?clickid=5cf01c5588f4e700014aaef9&adv_key=dbe0012fd9608d6bbc572aff09b55104,idfa_36164189-5277-cb0f-b533-f6611cb00a90,ko
R9ti-PN8RMSbs0M_sck6Jg,datafirst,49_2823_998_,Install,0.5,59.19.71.72,bdaf162f-2fce-1f5d-1ab0-32255360b6c4,1559238423,2019-05-31 01:47:03,1559238611,2019-05-31 01:50:11,1559238618,5cf0170a88f4e700013714e3,http://p.datafirst.io/postback?clickid=5cf0170a88f4e700013714e3&adv_key=dbe0012fd9608d6bbc572aff09b55104,idfa_bdaf162f-2fce-1f5d-1ab0-32255360b6c4,ko
R9ti-PN8RMSbs0M_sck6Jg,datafirst,49_2823_998_,Install,0.5,39.123.18.7,49c1f4d8-65f4-51e2-7351-dc05aaf4c7fd,1559239491,2019-05-31 02:04:51,1559239599,2019-05-31 02:06:39,1559239607,5cf01b2c88f4e7000146ac5e,http://p.datafirst.io/postback?clickid=5cf01b2c88f4e7000146ac5e&adv_key=dbe0012fd9608d6bbc572aff09b55104,idfa_49c1f4d8-65f4-51e2-7351-dc05aaf4c7fd,ko
R9ti-PN8RMSbs0M_sck6Jg,datafirst,49_2823_998_,Install,0.5,59.27.111.70,08ebc829-d815-e206-7913-6d7a02cc2a34,1559240107,2019-05-31 02:15:07,1559240223,2019-05-31 02:17:03,1559240232,5cf01d9d88f4e700014f4ef0,http://p.datafirst.io/postback?clickid=5cf01d9d88f4e700014f4ef0&adv_key=dbe0012fd9608d6bbc572aff09b55104,idfa_08ebc829-d815-e206-7913-6d7a02cc2a34,ko
R9ti-PN8RMSbs0M_sck6Jg,datafirst,49_2823_998_,Install,0.5,14.4.124.79,6f2314c8-9d7c-ccee-dcde-fe4965f86090,1559237642,2019-05-31 01:34:02,1559237830,2019-05-31 01:37:10,1559237836,5cf013fe88f4e700012bf4a4,http://p.datafirst.io/postback?clickid=5cf013fe88f4e700012bf4a4&adv_key=dbe0012fd9608d6bbc572aff09b55104,idfa_6f2314c8-9d7c-ccee-dcde-fe4965f86090,ko
R9ti-PN8RMSbs0M_sck6Jg,datafirst,49_2823_998_,Install,0.5,141.223.115.148,f8ed3747-eaed-d472-e928-52909eb11e3b,1559237608,2019-05-31 01:33:28,1559237753,2019-05-31 01:35:53,1559237766,5cf013dc88f4e700012b7b12,http://p.datafirst.io/postback?clickid=5cf013dc88f4e700012b7b12&adv_key=dbe0012fd9608d6bbc572aff09b55104,idfa_f8ed3747-eaed-d472-e928-52909eb11e3b,ko
R9ti-PN8RMSbs0M_sck6Jg,datafirst,49_2823_998_,Install,0.5,61.109.13.177,950ebb0e-11fd-93a4-ca3d-2470e65bde03,1559237904,2019-05-31 01:38:24,1559238036,2019-05-31 01:40:36,1559238045,5cf0150488f4e700012fafd0,http://p.datafirst.io/postback?clickid=5cf0150488f4e700012fafd0&adv_key=dbe0012fd9608d6bbc572aff09b55104,idfa_950ebb0e-11fd-93a4-ca3d-2470e65bde03,ko
R9ti-PN8RMSbs0M_sck6Jg,datafirst,49_2823_998_,Install,0.5,106.240.160.86,80923886-e870-8d45-4166-c1c18f8d7d7e,1559239134,2019-05-31 01:58:54,1559239246,2019-05-31 02:00:46,1559239252,5cf019cf88f4e7000141931a,http://p.datafirst.io/postback?clickid=5cf019cf88f4e7000141931a&adv_key=dbe0012fd9608d6bbc572aff09b55104,idfa_80923886-e870-8d45-4166-c1c18f8d7d7e,ko
R9ti-PN8RMSbs0M_sck6Jg,datafirst,49_2823_998_,Install,0.5,125.178.115.146,720e309a-2c21-5e4f-b5e9-3bc4c4265d87,1559239462,2019-05-31 02:04:22,1559239709,2019-05-31 02:08:29,1559239717,5cf01b1b88f4e7000146719f,http://p.datafirst.io/postback?clickid=5cf01b1b88f4e7000146719f&adv_key=dbe0012fd9608d6bbc572aff09b55104,idfa_720e309a-2c21-5e4f-b5e9-3bc4c4265d87,ko
R9ti-PN8RMSbs0M_sck6Jg,datafirst,49_2823_998_,Install,0.5,59.19.29.150,a098a946-b828-6e0a-85f5-df77905f2d6e,1559238188,2019-05-31 01:43:08,1559238316,2019-05-31 01:45:16,1559238325,5cf0162088f4e7000133bb8e,http://p.datafirst.io/postback?clickid=5cf0162088f4e7000133bb8e&adv_key=dbe0012fd9608d6bbc572aff09b55104,idfa_a098a946-b828-6e0a-85f5-df77905f2d6e,ko
R9ti-PN8RMSbs0M_sck6Jg,datafirst,49_2823_998_,Install,0.5,61.42.222.137,5c996dd3-8cdd-60f2-2ad6-ae90071d56e4,1559239181,2019-05-31 01:59:41,1559239289,2019-05-31 02:01:29,1559239299,5cf019ff88f4e70001424445,http://p.datafirst.io/postback?clickid=5cf019ff88f4e70001424445&adv_key=dbe0012fd9608d6bbc572aff09b55104,idfa_5c996dd3-8cdd-60f2-2ad6-ae90071d56e4,ko
R9ti-PN8RMSbs0M_sck6Jg,datafirst,49_2823_998_,Install,0.5,183.109.214.145,b78b9865-0492-67ef-6371-cc153b46111a,1559239737,2019-05-31 02:08:57,1559239842,2019-05-31 02:10:42,1559239856,5cf01c2d88f4e700014a38f8,http://p.datafirst.io/postback?clickid=5cf01c2d88f4e700014a38f8&adv_key=dbe0012fd9608d6bbc572aff09b55104,idfa_b78b9865-0492-67ef-6371-cc153b46111a,ko
R9ti-PN8RMSbs0M_sck6Jg,datafirst,49_2823_998_,Install,0.5,125.188.101.66,3e5cf234-e3c2-d0ef-b911-f8d3c44a6243,1559238210,2019-05-31 01:43:30,1559238312,2019-05-31 01:45:12,1559238319,5cf0163788f4e700013409f1,http://p.datafirst.io/postback?clickid=5cf0163788f4e700013409f1&adv_key=dbe0012fd9608d6bbc572aff09b55104,idfa_3e5cf234-e3c2-d0ef-b911-f8d3c44a6243,ko
R9ti-PN8RMSbs0M_sck6Jg,datafirst,49_2823_998_,Install,0.5,210.91.52.196,bf4d91f2-d3c5-ba66-4a0e-1cbfd78a8ea7,1559239924,2019-05-31 02:12:04,1559240043,2019-05-31 02:14:03,1559240051,5cf01ce788f4e700014cbabe,http://p.datafirst.io/postback?clickid=5cf01ce788f4e700014cbabe&adv_key=dbe0012fd9608d6bbc572aff09b55104,idfa_bf4d91f2-d3c5-ba66-4a0e-1cbfd78a8ea7,ko
R9ti-PN8RMSbs0M_sck6Jg,datafirst,49_2823_998_,Install,0.5,59.19.71.72,c8a03edd-2195-e74b-42e0-08983f9ed04b,1559239801,2019-05-31 02:10:01,1559239907,2019-05-31 02:11:47,1559239914,5cf01c6d88f4e700014b0385,http://p.datafirst.io/postback?clickid=5cf01c6d88f4e700014b0385&adv_key=dbe0012fd9608d6bbc572aff09b55104,idfa_c8a03edd-2195-e74b-42e0-08983f9ed04b,ko
R9ti-PN8RMSbs0M_sck6Jg,datafirst,49_2823_998_,Install,0.5,175.124.177.45,00e3c764-1221-a6b3-e082-2d7064ac7470,1559238225,2019-05-31 01:43:45,1559238325,2019-05-31 01:45:25,1559238331,5cf0164788f4e70001344ae5,http://p.datafirst.io/postback?clickid=5cf0164788f4e70001344ae5&adv_key=dbe0012fd9608d6bbc572aff09b55104,idfa_00e3c764-1221-a6b3-e082-2d7064ac7470,ko
R9ti-PN8RMSbs0M_sck6Jg,datafirst,49_2823_998_,Install,0.5,118.37.170.162,474e55bd-631f-5568-e4da-0953b70c7721,1559240282,2019-05-31 02:18:02,1559240390,2019-05-31 02:19:50,1559240397,5cf01e4988f4e7000151c6c8,http://p.datafirst.io/postback?clickid=5cf01e4988f4e7000151c6c8&adv_key=dbe0012fd9608d6bbc572aff09b55104,idfa_474e55bd-631f-5568-e4da-0953b70c7721,ko
R9ti-PN8RMSbs0M_sck6Jg,datafirst,49_2823_998_,Install,0.5,118.130.255.235,4f1709ef-0d89-243d-da1d-3a70e37f382d,1559239460,2019-05-31 02:04:20,1559239591,2019-05-31 02:06:31,1559239600,5cf01b1888f4e700014668dd,http://p.datafirst.io/postback?clickid=5cf01b1888f4e700014668dd&adv_key=dbe0012fd9608d6bbc572aff09b55104,idfa_4f1709ef-0d89-243d-da1d-3a70e37f382d,ko
R9ti-PN8RMSbs0M_sck6Jg,datafirst,49_2823_998_,Install,0.5,124.56.86.217,725d4b11-4446-204d-9711-0864325fe6ed,1559240267,2019-05-31 02:17:47,1559240386,2019-05-31 02:19:46,1559240392,5cf01e3c88f4e70001519963,http://p.datafirst.io/postback?clickid=5cf01e3c88f4e70001519963&adv_key=dbe0012fd9608d6bbc572aff09b55104,idfa_725d4b11-4446-204d-9711-0864325fe6ed,ko
R9ti-PN8RMSbs0M_sck6Jg,datafirst,49_2823_998_,Install,0.5,59.13.210.166,ca38ea6d-8633-472c-425c-971a2845b49e,1559237607,2019-05-31 01:33:27,1559237728,2019-05-31 01:35:28,1559237739,5cf013da88f4e700012b746b,http://p.datafirst.io/postback?clickid=5cf013da88f4e700012b746b&adv_key=dbe0012fd9608d6bbc572aff09b55104,idfa_ca38ea6d-8633-472c-425c-971a2845b49e,ko
R9ti-PN8RMSbs0M_sck6Jg,datafirst,49_2823_998_,Install,0.5,1.228.82.103,e32c2cd3-9a8f-c2e4-1f03-31a7f8786bac,1559239461,2019-05-31 02:04:21,1559239575,2019-05-31 02:06:15,1559239581,5cf01b1a88f4e70001466e91,http://p.datafirst.io/postback?clickid=5cf01b1a88f4e70001466e91&adv_key=dbe0012fd9608d6bbc572aff09b55104,idfa_e32c2cd3-9a8f-c2e4-1f03-31a7f8786bac,ko
R9ti-PN8RMSbs0M_sck6Jg,datafirst,49_2823_998_,Install,0.5,175.207.151.201,f17d40e1-7c7b-a148-7f50-657bd49ad95b,1559239462,2019-05-31 02:04:22,1559239565,2019-05-31 02:06:05,1559239574,5cf01b1988f4e70001466a81,http://p.datafirst.io/postback?clickid=5cf01b1988f4e70001466a81&adv_key=dbe0012fd9608d6bbc572aff09b55104,idfa_f17d40e1-7c7b-a148-7f50-657bd49ad95b,ko
R9ti-PN8RMSbs0M_sck6Jg,datafirst,49_2823_998_,Install,0.5,59.2.40.50,31b5f0ec-c438-ac90-2f3b-a271037cedcf,1559239084,2019-05-31 01:58:04,1559239203,2019-05-31 02:00:03,1559239212,5cf0199f88f4e7000140dfbf,http://p.datafirst.io/postback?clickid=5cf0199f88f4e7000140dfbf&adv_key=dbe0012fd9608d6bbc572aff09b55104,idfa_31b5f0ec-c438-ac90-2f3b-a271037cedcf,ko
R9ti-PN8RMSbs0M_sck6Jg,datafirst,49_2823_998_,Install,0.5,121.134.119.249,b5190d44-c0e5-e19c-d233-fd31c0e092e5,1559239098,2019-05-31 01:58:18,1559239328,2019-05-31 02:02:08,1559239338,5cf019ac88f4e70001410f51,http://p.datafirst.io/postback?clickid=5cf019ac88f4e70001410f51&adv_key=dbe0012fd9608d6bbc572aff09b55104,idfa_b5190d44-c0e5-e19c-d233-fd31c0e092e5,ko
R9ti-PN8RMSbs0M_sck6Jg,datafirst,49_2823_998_,Install,0.5,211.222.242.236,e73d59ba-5603-7e06-8092-b7d6d65261f8,1559239468,2019-05-31 02:04:28,1559239636,2019-05-31 02:07:16,1559239643,5cf01b2088f4e70001468106,http://p.datafirst.io/postback?clickid=5cf01b2088f4e70001468106&adv_key=dbe0012fd9608d6bbc572aff09b55104,idfa_e73d59ba-5603-7e06-8092-b7d6d65261f8,ko
