cid,partner_id,channel_id,action_id,cpi,ip,idfa,click time,click datetime,install time,install datetime,postback time,click id,postback url,unique user id
Hqn_p078TCqnZ6E_xDlVjg,dlab,24_2448_98426,Install,3.4,202.82.230.225,7C606EF5-C8E0-433D-A113-266F9D6E2051,1556822481,2019-05-03 02:41:21,1556822521,2019-05-03 02:42:01,1556822552,5ccb39ce4cc89400016b5d5a,http://dashboard.d-lab.io/postback?clickid=5ccb39ce4cc89400016b5d5a&secure=bd16ae7d609965b6d66bdfc7d1eb046e,idfa_7C606EF5-C8E0-433D-A113-266F9D6E2051,zh-HK
Hqn_p078TCqnZ6E_xDlVjg,dlab,24_5211,Install,3.4,202.82.230.225,1A52C8D7-ABE1-40CD-B0C5-4BAE8389BFD5,1556924865,2019-05-04 07:07:45,1556924911,2019-05-04 07:08:31,1556924941,5cccc9be4cc8940001b73f0a,http://dashboard.d-lab.io/postback?clickid=5cccc9be4cc8940001b73f0a&secure=bd16ae7d609965b6d66bdfc7d1eb046e,idfa_1A52C8D7-ABE1-40CD-B0C5-4BAE8389BFD5,zh-HK
Hqn_p078TCqnZ6E_xDlVjg,dlab,24_4233,Install,3.4,218.103.121.13,61B6A3F6-6E91-4B1F-B98F-EDBD59BA1E0E,1557001027,2019-05-05 04:17:07,1557001056,2019-05-05 04:17:36,1557001087,5ccdf33f4cc89400010c9292,http://dashboard.d-lab.io/postback?clickid=5ccdf33f4cc89400010c9292&secure=bd16ae7d609965b6d66bdfc7d1eb046e,idfa_61B6A3F6-6E91-4B1F-B98F-EDBD59BA1E0E,zh-HK
Hqn_p078TCqnZ6E_xDlVjg,dlab,24_8816,Install,3.4,203.198.149.181,A4535C0D-DC72-418A-A33C-22966C7B21DC,1557004959,2019-05-05 05:22:39,1557004990,2019-05-05 05:23:10,1557005020,5cce029c4cc89400018c57d1,http://dashboard.d-lab.io/postback?clickid=5cce029c4cc89400018c57d1&secure=bd16ae7d609965b6d66bdfc7d1eb046e,idfa_A4535C0D-DC72-418A-A33C-22966C7B21DC,zh-HK-hk
Hqn_p078TCqnZ6E_xDlVjg,dlab,24_2417,Install,3.4,223.197.130.82,AECF6D3E-48B0-4223-BCEC-22BB7F749A90,1557004326,2019-05-05 05:12:06,1557004371,2019-05-05 05:12:51,1557004401,5cce00224cc894000177ed9f,http://dashboard.d-lab.io/postback?clickid=5cce00224cc894000177ed9f&secure=bd16ae7d609965b6d66bdfc7d1eb046e,idfa_AECF6D3E-48B0-4223-BCEC-22BB7F749A90,zh-HK
Hqn_p078TCqnZ6E_xDlVjg,dlab,24_3483_928832,Install,3.4,182.239.58.168,D17DEB1D-5EB9-448B-AFA2-D3B24A86E307,1557004479,2019-05-05 05:14:39,1557004509,2019-05-05 05:15:09,1557004540,5cce00ad4cc89400017c9972,http://dashboard.d-lab.io/postback?clickid=5cce00ad4cc89400017c9972&secure=bd16ae7d609965b6d66bdfc7d1eb046e,idfa_D17DEB1D-5EB9-448B-AFA2-D3B24A86E307,zh-HK-hk
Hqn_p078TCqnZ6E_xDlVjg,dlab,24_6793,Install,3.4,218.103.126.211,C8B37B16-2B28-44F5-9801-BC5ADF78B918,1557001818,2019-05-05 04:30:18,1557212400,2019-05-07 15:00:00,1557212430,5ccdf6554cc89400012620ef,http://dashboard.d-lab.io/postback?clickid=5ccdf6554cc89400012620ef&secure=bd16ae7d609965b6d66bdfc7d1eb046e,idfa_C8B37B16-2B28-44F5-9801-BC5ADF78B918,zh-HK
Hqn_p078TCqnZ6E_xDlVjg,dlab,24_1742,Install,3.4,219.76.177.98,A25A6287-4526-42F0-A43E-1D279CECC0DD,1556925006,2019-05-04 07:10:06,1556925053,2019-05-04 07:10:53,1556925083,5cccca4b4cc8940001bdab29,http://dashboard.d-lab.io/postback?clickid=5cccca4b4cc8940001bdab29&secure=bd16ae7d609965b6d66bdfc7d1eb046e,idfa_A25A6287-4526-42F0-A43E-1D279CECC0DD,zh-HK
Hqn_p078TCqnZ6E_xDlVjg,dlab,24_2833,Install,3.4,223.197.162.15,73FE2C3A-79DB-4A38-9FDE-7F9B81F1F136,1556821812,2019-05-03 02:30:12,1556821844,2019-05-03 02:30:44,1556821875,5ccb372c4cc8940001427b70,http://dashboard.d-lab.io/postback?clickid=5ccb372c4cc8940001427b70&secure=bd16ae7d609965b6d66bdfc7d1eb046e,idfa_73FE2C3A-79DB-4A38-9FDE-7F9B81F1F136,zh-HK-hk
Hqn_p078TCqnZ6E_xDlVjg,dlab,24_4836_54488,Install,3.4,219.76.177.98,8F209209-FD6C-4F7A-8E56-2152E36E6BDB,1557080329,2019-05-06 02:18:49,1557080366,2019-05-06 02:19:26,1557080397,5ccf28f94cc89400016b2d08,http://dashboard.d-lab.io/postback?clickid=5ccf28f94cc89400016b2d08&secure=bd16ae7d609965b6d66bdfc7d1eb046e,idfa_8F209209-FD6C-4F7A-8E56-2152E36E6BDB,zh-HK-hk
Hqn_p078TCqnZ6E_xDlVjg,dlab,24_4834,Install,3.4,203.198.151.85,6D73064B-F9B3-4E2D-978A-10483C55ACFB,1557166440,2019-05-07 02:14:00,1557166473,2019-05-07 02:14:33,1557166504,5cd079644cc894000138ddaa,http://dashboard.d-lab.io/postback?clickid=5cd079644cc894000138ddaa&secure=bd16ae7d609965b6d66bdfc7d1eb046e,idfa_6D73064B-F9B3-4E2D-978A-10483C55ACFB,zh-HK
Hqn_p078TCqnZ6E_xDlVjg,dlab,24_5128_5941068,Install,3.4,203.198.148.196,68A57C45-9915-4CD4-8F20-42F00C8B7971,1557003551,2019-05-05 04:59:11,1557003579,2019-05-05 04:59:39,1557003610,5ccdfd1c4cc89400015d71a7,http://dashboard.d-lab.io/postback?clickid=5ccdfd1c4cc89400015d71a7&secure=bd16ae7d609965b6d66bdfc7d1eb046e,idfa_68A57C45-9915-4CD4-8F20-42F00C8B7971,zh-HK-hk
Hqn_p078TCqnZ6E_xDlVjg,dlab,24_1742,Install,3.4,59.148.210.242,4C33F647-AABC-4431-B02C-13403E9B8F37,1556925926,2019-05-04 07:25:26,1556925955,2019-05-04 07:25:55,1556925985,5ccccde44cc8940001e9f035,http://dashboard.d-lab.io/postback?clickid=5ccccde44cc8940001e9f035&secure=bd16ae7d609965b6d66bdfc7d1eb046e,idfa_4C33F647-AABC-4431-B02C-13403E9B8F37,zh-HK-hk
Hqn_p078TCqnZ6E_xDlVjg,dlab,24_6838_473198,Install,3.4,42.200.234.95,EACB0E5F-A2CE-4E9E-9522-5EEB6B9581C1,1557000302,2019-05-05 04:05:02,1557000330,2019-05-05 04:05:30,1557000361,5ccdf06b4cc8940001eeed77,http://dashboard.d-lab.io/postback?clickid=5ccdf06b4cc8940001eeed77&secure=bd16ae7d609965b6d66bdfc7d1eb046e,idfa_EACB0E5F-A2CE-4E9E-9522-5EEB6B9581C1,zh-HK-hk
Hqn_p078TCqnZ6E_xDlVjg,dlab,24_1837_562630,Install,3.4,42.200.215.124,1B71BF63-BD39-41A1-9E1F-CA30F8BD67E8,1557003557,2019-05-05 04:59:17,1557003588,2019-05-05 04:59:48,1557003618,5ccdfd204cc89400015d9147,http://dashboard.d-lab.io/postback?clickid=5ccdfd204cc89400015d9147&secure=bd16ae7d609965b6d66bdfc7d1eb046e,idfa_1B71BF63-BD39-41A1-9E1F-CA30F8BD67E8,zh-HK
Hqn_p078TCqnZ6E_xDlVjg,dlab,24_3706,Install,3.4,43.240.117.239,71F5FC03-B324-43EE-B550-D4F5B261EEA1,1556925250,2019-05-04 07:14:10,1556925287,2019-05-04 07:14:47,1556925317,5ccccb3f4cc8940001c920da,http://dashboard.d-lab.io/postback?clickid=5ccccb3f4cc8940001c920da&secure=bd16ae7d609965b6d66bdfc7d1eb046e,idfa_71F5FC03-B324-43EE-B550-D4F5B261EEA1,zh-HK-hk
Hqn_p078TCqnZ6E_xDlVjg,dlab,24_8816,Install,3.4,202.82.230.225,0335D42C-E047-4D0F-BE57-AD9276302706,1557004198,2019-05-05 05:09:58,1557004250,2019-05-05 05:10:50,1557004280,5ccdffa34cc8940001738b79,http://dashboard.d-lab.io/postback?clickid=5ccdffa34cc8940001738b79&secure=bd16ae7d609965b6d66bdfc7d1eb046e,idfa_0335D42C-E047-4D0F-BE57-AD9276302706,zh-HK-hk
Hqn_p078TCqnZ6E_xDlVjg,dlab,24_6838_473198,Install,3.4,223.197.167.43,A5336F8B-4531-4750-962A-02490BD91ECB,1557004075,2019-05-05 05:07:55,1557004115,2019-05-05 05:08:35,1557004145,5ccdff244cc89400016f56f6,http://dashboard.d-lab.io/postback?clickid=5ccdff244cc89400016f56f6&secure=bd16ae7d609965b6d66bdfc7d1eb046e,idfa_A5336F8B-4531-4750-962A-02490BD91ECB,zh-HK
Hqn_p078TCqnZ6E_xDlVjg,dlab,24_4236_81928739,Install,3.4,118.141.46.21,C527DEA0-C997-4450-972F-01A1140067AF,1557165888,2019-05-07 02:04:48,1557165913,2019-05-07 02:05:13,1557165943,5cd0773d4cc894000122534b,http://dashboard.d-lab.io/postback?clickid=5cd0773d4cc894000122534b&secure=bd16ae7d609965b6d66bdfc7d1eb046e,idfa_C527DEA0-C997-4450-972F-01A1140067AF,zh-HK
Hqn_p078TCqnZ6E_xDlVjg,dlab,24_6793,Install,3.4,103.6.178.202,7A609B55-46B1-43D2-BBCD-C2098F06652E,1557001566,2019-05-05 04:26:06,1557001600,2019-05-05 04:26:40,1557001630,5ccdf55a4cc89400011ea1b8,http://dashboard.d-lab.io/postback?clickid=5ccdf55a4cc89400011ea1b8&secure=bd16ae7d609965b6d66bdfc7d1eb046e,idfa_7A609B55-46B1-43D2-BBCD-C2098F06652E,zh-HK
Hqn_p078TCqnZ6E_xDlVjg,dlab,24_9817,Install,3.4,202.82.230.225,969217AF-E247-46CE-A27B-74B7889B19F4,1557164811,2019-05-07 01:46:51,1557164844,2019-05-07 01:47:24,1557164875,5cd073094cc8940001f19c5f,http://dashboard.d-lab.io/postback?clickid=5cd073094cc8940001f19c5f&secure=bd16ae7d609965b6d66bdfc7d1eb046e,idfa_969217AF-E247-46CE-A27B-74B7889B19F4,zh-HK-in
Hqn_p078TCqnZ6E_xDlVjg,dlab,24_4836_54488,Install,3.4,182.239.58.169,7D3E2F51-371E-4A35-A65E-21ADA7287237,1557080095,2019-05-06 02:14:55,1557080128,2019-05-06 02:15:28,1557080158,5ccf281b4cc894000161b996,http://dashboard.d-lab.io/postback?clickid=5ccf281b4cc894000161b996&secure=bd16ae7d609965b6d66bdfc7d1eb046e,idfa_7D3E2F51-371E-4A35-A65E-21ADA7287237,zh-HK-hk
Hqn_p078TCqnZ6E_xDlVjg,dlab,24_4570,Install,3.4,203.198.151.85,987AF212-F9B5-4301-97F6-C9FE61FB68D9,1557001527,2019-05-05 04:25:27,1557001558,2019-05-05 04:25:58,1557001588,5ccdf5314cc89400011d5211,http://dashboard.d-lab.io/postback?clickid=5ccdf5314cc89400011d5211&secure=bd16ae7d609965b6d66bdfc7d1eb046e,idfa_987AF212-F9B5-4301-97F6-C9FE61FB68D9,zh-HK
Hqn_p078TCqnZ6E_xDlVjg,dlab,24_7133,Install,3.4,202.82.133.61,EEAC67D5-A3C6-4A19-8BBB-22A090E79D7A,1557001393,2019-05-05 04:23:13,1557001439,2019-05-05 04:23:59,1557001469,5ccdf4a54cc894000118ca8d,http://dashboard.d-lab.io/postback?clickid=5ccdf4a54cc894000118ca8d&secure=bd16ae7d609965b6d66bdfc7d1eb046e,idfa_EEAC67D5-A3C6-4A19-8BBB-22A090E79D7A,zh-HK-hk
Hqn_p078TCqnZ6E_xDlVjg,dlab,24_7127,Install,3.4,223.197.167.43,0FDFAC51-1541-4487-9311-BC77855DD365,1557081080,2019-05-06 02:31:20,1557081113,2019-05-06 02:31:53,1557081143,5ccf2bf04cc894000189dffe,http://dashboard.d-lab.io/postback?clickid=5ccf2bf04cc894000189dffe&secure=bd16ae7d609965b6d66bdfc7d1eb046e,idfa_0FDFAC51-1541-4487-9311-BC77855DD365,zh-HK-hk
Hqn_p078TCqnZ6E_xDlVjg,dlab,24_4099_38828,Install,3.4,202.82.230.225,D1568E96-B789-46E1-8A83-16F7364EFF04,1557166560,2019-05-07 02:16:00,1557166613,2019-05-07 02:16:53,1557166643,5cd079dc4cc89400013d9b38,http://dashboard.d-lab.io/postback?clickid=5cd079dc4cc89400013d9b38&secure=bd16ae7d609965b6d66bdfc7d1eb046e,idfa_D1568E96-B789-46E1-8A83-16F7364EFF04,zh-HK-hk
Hqn_p078TCqnZ6E_xDlVjg,dlab,24_4099_38828,Install,3.4,103.6.51.114,B755F1AE-F514-4E84-B34D-0580DC281856,1557164856,2019-05-07 01:47:36,1557164888,2019-05-07 01:48:08,1557164918,5cd073344cc8940001f3ac1b,http://dashboard.d-lab.io/postback?clickid=5cd073344cc8940001f3ac1b&secure=bd16ae7d609965b6d66bdfc7d1eb046e,idfa_B755F1AE-F514-4E84-B34D-0580DC281856,zh-HK
Hqn_p078TCqnZ6E_xDlVjg,dlab,24_1088_3852754,Install,3.4,125.31.39.187,58D4C31F-6377-4706-ADC6-44E9CF57FFD8,1556819968,2019-05-03 01:59:28,1556820013,2019-05-03 02:00:13,1556820055,5ccb2ffc4cc8940001d0b431,http://dashboard.d-lab.io/postback?clickid=5ccb2ffc4cc8940001d0b431&secure=bd16ae7d609965b6d66bdfc7d1eb046e,idfa_58D4C31F-6377-4706-ADC6-44E9CF57FFD8,zh-CN
Hqn_p078TCqnZ6E_xDlVjg,dlab,24_7662_99330836,Install,3.4,202.82.230.225,C2ADF4C6-0DE5-4267-89B9-58B49F5CBE6F,1557166681,2019-05-07 02:18:01,1557166715,2019-05-07 02:18:35,1557166745,5cd07a564cc8940001426a14,http://dashboard.d-lab.io/postback?clickid=5cd07a564cc8940001426a14&secure=bd16ae7d609965b6d66bdfc7d1eb046e,idfa_C2ADF4C6-0DE5-4267-89B9-58B49F5CBE6F,zh-HK
Hqn_p078TCqnZ6E_xDlVjg,dlab,24_3483_928832,Install,3.4,203.198.163.73,875B395A-693D-43ED-A7D6-8BED8B50577D,1557001031,2019-05-05 04:17:11,1557001064,2019-05-05 04:17:44,1557001094,5ccdf3434cc89400010cb891,http://dashboard.d-lab.io/postback?clickid=5ccdf3434cc89400010cb891&secure=bd16ae7d609965b6d66bdfc7d1eb046e,idfa_875B395A-693D-43ED-A7D6-8BED8B50577D,zh-HK
Hqn_p078TCqnZ6E_xDlVjg,dlab,24_2833,Install,3.4,223.197.223.161,32897126-0C60-4FA7-818D-942011B062C6,1556823265,2019-05-03 02:54:25,1556823302,2019-05-03 02:55:02,1556823332,5ccb3cdd4cc89400019e1bf0,http://dashboard.d-lab.io/postback?clickid=5ccb3cdd4cc89400019e1bf0&secure=bd16ae7d609965b6d66bdfc7d1eb046e,idfa_32897126-0C60-4FA7-818D-942011B062C6,zh-HK
Hqn_p078TCqnZ6E_xDlVjg,dlab,24_4834,Install,3.4,218.255.108.202,05E6E8DC-6099-4AF0-8014-BFCB9B5186E5,1557165318,2019-05-07 01:55:18,1557165354,2019-05-07 01:55:54,1557165385,5cd075014cc8940001095663,http://dashboard.d-lab.io/postback?clickid=5cd075014cc8940001095663&secure=bd16ae7d609965b6d66bdfc7d1eb046e,idfa_05E6E8DC-6099-4AF0-8014-BFCB9B5186E5,zh-HK
Hqn_p078TCqnZ6E_xDlVjg,dlab,24_6852,Install,3.4,202.82.230.225,977AA926-F75D-4104-B5EF-289FBE4880AD,1556821274,2019-05-03 02:21:14,1556821317,2019-05-03 02:21:57,1556821347,5ccb35164cc8940001216487,http://dashboard.d-lab.io/postback?clickid=5ccb35164cc8940001216487&secure=bd16ae7d609965b6d66bdfc7d1eb046e,idfa_977AA926-F75D-4104-B5EF-289FBE4880AD,zh-HK-hk
Hqn_p078TCqnZ6E_xDlVjg,dlab,24_7951_96273085,Install,3.4,112.120.82.175,DD9DF259-0C8E-406E-AEA3-A0FDCF1BB080,1557166060,2019-05-07 02:07:40,1557166098,2019-05-07 02:08:18,1557166128,5cd077e84cc89400012914a1,http://dashboard.d-lab.io/postback?clickid=5cd077e84cc89400012914a1&secure=bd16ae7d609965b6d66bdfc7d1eb046e,idfa_DD9DF259-0C8E-406E-AEA3-A0FDCF1BB080,zh-HK
Hqn_p078TCqnZ6E_xDlVjg,dlab,24_5204_98768454,Install,3.4,223.197.223.165,430906F4-28B8-4DEB-BCDC-B9EBD141CE80,1557080226,2019-05-06 02:17:06,1557080257,2019-05-06 02:17:37,1557080287,5ccf289d4cc8940001675385,http://dashboard.d-lab.io/postback?clickid=5ccf289d4cc8940001675385&secure=bd16ae7d609965b6d66bdfc7d1eb046e,idfa_430906F4-28B8-4DEB-BCDC-B9EBD141CE80,zh-HK
Hqn_p078TCqnZ6E_xDlVjg,dlab,24_2963,Install,3.4,113.28.9.22,1996D775-6CED-44A0-B8E4-A55B5DF8546D,1557081560,2019-05-06 02:39:20,1557081591,2019-05-06 02:39:51,1557081622,5ccf2dd44cc89400019d635f,http://dashboard.d-lab.io/postback?clickid=5ccf2dd44cc89400019d635f&secure=bd16ae7d609965b6d66bdfc7d1eb046e,idfa_1996D775-6CED-44A0-B8E4-A55B5DF8546D,zh-HK-hk
Hqn_p078TCqnZ6E_xDlVjg,dlab,24_6793,Install,3.4,103.6.51.114,A7B30B54-64AE-4627-AEA1-14862B2AFEAD,1557000637,2019-05-05 04:10:37,1557000702,2019-05-05 04:11:42,1557000732,5ccdf1a74cc8940001fc0d8b,http://dashboard.d-lab.io/postback?clickid=5ccdf1a74cc8940001fc0d8b&secure=bd16ae7d609965b6d66bdfc7d1eb046e,idfa_A7B30B54-64AE-4627-AEA1-14862B2AFEAD,zh-HK-hk
Hqn_p078TCqnZ6E_xDlVjg,dlab,24_6793,Install,3.4,113.28.9.22,1D446FA6-CE3E-4BAD-9329-E7BF017E4CBA,1557003270,2019-05-05 04:54:30,1557003300,2019-05-05 04:55:00,1557003330,5ccdfc024cc894000153e202,http://dashboard.d-lab.io/postback?clickid=5ccdfc024cc894000153e202&secure=bd16ae7d609965b6d66bdfc7d1eb046e,idfa_1D446FA6-CE3E-4BAD-9329-E7BF017E4CBA,zh-HK
Hqn_p078TCqnZ6E_xDlVjg,dlab,24_8086_44428,Install,3.4,202.175.173.66,455A5365-3AE5-4197-A0E6-40880E4567A8,1556820130,2019-05-03 02:02:10,1556820167,2019-05-03 02:02:47,1556820232,5ccb309f4cc8940001db4fa2,http://dashboard.d-lab.io/postback?clickid=5ccb309f4cc8940001db4fa2&secure=bd16ae7d609965b6d66bdfc7d1eb046e,idfa_455A5365-3AE5-4197-A0E6-40880E4567A8,zh-CN
Hqn_p078TCqnZ6E_xDlVjg,dlab,24_7243,Install,3.4,223.197.142.140,A2B9223A-410C-4637-8F5C-8C003D8C32FF,1556924523,2019-05-04 07:02:03,1556924634,2019-05-04 07:03:54,1556924665,5cccc8624cc8940001a7db59,http://dashboard.d-lab.io/postback?clickid=5cccc8624cc8940001a7db59&secure=bd16ae7d609965b6d66bdfc7d1eb046e,idfa_A2B9223A-410C-4637-8F5C-8C003D8C32FF,zh-HK-hk
Hqn_p078TCqnZ6E_xDlVjg,dlab,24_1980_151823,Install,3.4,58.152.59.95,FEAD1765-21F1-4643-845B-C8FEFBCB8052,1557165278,2019-05-07 01:54:38,1557165316,2019-05-07 01:55:16,1557165346,5cd074d94cc8940001078a07,http://dashboard.d-lab.io/postback?clickid=5cd074d94cc8940001078a07&secure=bd16ae7d609965b6d66bdfc7d1eb046e,idfa_FEAD1765-21F1-4643-845B-C8FEFBCB8052,zh-HK-hk
Hqn_p078TCqnZ6E_xDlVjg,dlab,24_8086_44428,Install,3.4,223.197.223.165,FA972D1A-4A7C-415B-A33E-24C5B93D4B23,1556822090,2019-05-03 02:34:50,1556822139,2019-05-03 02:35:39,1556822169,5ccb38454cc8940001528dc9,http://dashboard.d-lab.io/postback?clickid=5ccb38454cc8940001528dc9&secure=bd16ae7d609965b6d66bdfc7d1eb046e,idfa_FA972D1A-4A7C-415B-A33E-24C5B93D4B23,zh-HK-hk
Hqn_p078TCqnZ6E_xDlVjg,dlab,24_3805,Install,3.4,203.198.148.196,23F64622-7315-4247-9428-2F8524530839,1557081311,2019-05-06 02:35:11,1557081341,2019-05-06 02:35:41,1557081371,5ccf2cdc4cc8940001934f44,http://dashboard.d-lab.io/postback?clickid=5ccf2cdc4cc8940001934f44&secure=bd16ae7d609965b6d66bdfc7d1eb046e,idfa_23F64622-7315-4247-9428-2F8524530839,zh-HK-hk
Hqn_p078TCqnZ6E_xDlVjg,dlab,24_3086_1998671,Install,3.4,223.197.223.103,172B1A68-6111-42E1-8DC1-3FB1EE4583B4,1556727520,2019-05-02 00:18:40,1556729955,2019-05-02 00:59:15,1556729986,5cc9c6da4cc8940001649f20,http://dashboard.d-lab.io/postback?clickid=5cc9c6da4cc8940001649f20&secure=bd16ae7d609965b6d66bdfc7d1eb046e,idfa_172B1A68-6111-42E1-8DC1-3FB1EE4583B4,de-HK
Hqn_p078TCqnZ6E_xDlVjg,dlab,24_3782_35542943,Install,3.4,203.198.131.238,E16A6363-2C2D-4F2E-8774-2502ACAF1B23,1556820683,2019-05-03 02:11:23,1556820727,2019-05-03 02:12:07,1556820757,5ccb32c64cc8940001fd2b53,http://dashboard.d-lab.io/postback?clickid=5ccb32c64cc8940001fd2b53&secure=bd16ae7d609965b6d66bdfc7d1eb046e,idfa_E16A6363-2C2D-4F2E-8774-2502ACAF1B23,zh-HK-cn
Hqn_p078TCqnZ6E_xDlVjg,dlab,24_1837_562630,Install,3.4,116.49.126.132,,1556993714,2019-05-05 02:15:14,1557019421,2019-05-05 09:23:41,1557019451,5ccdd6b24cc8940001e0e3e6,http://dashboard.d-lab.io/postback?clickid=5ccdd6b24cc8940001e0e3e6&secure=bd16ae7d609965b6d66bdfc7d1eb046e,ip_116.49.126.132,en-HK
Hqn_p078TCqnZ6E_xDlVjg,dlab,24_2589,Install,3.4,223.197.163.246,F0677329-2B34-4004-89B6-460C07857B1A,1557165160,2019-05-07 01:52:40,1557165204,2019-05-07 01:53:24,1557165234,5cd074644cc8940001024f5e,http://dashboard.d-lab.io/postback?clickid=5cd074644cc8940001024f5e&secure=bd16ae7d609965b6d66bdfc7d1eb046e,idfa_F0677329-2B34-4004-89B6-460C07857B1A,zh-HK
Hqn_p078TCqnZ6E_xDlVjg,dlab,24_1514,Install,3.4,182.239.58.169,6B0E5C0F-5D59-4248-BD6E-CD0B9B60720C,1556821801,2019-05-03 02:30:01,1556821843,2019-05-03 02:30:43,1556821874,5ccb37254cc894000141ffee,http://dashboard.d-lab.io/postback?clickid=5ccb37254cc894000141ffee&secure=bd16ae7d609965b6d66bdfc7d1eb046e,idfa_6B0E5C0F-5D59-4248-BD6E-CD0B9B60720C,zh-HK-hk
Hqn_p078TCqnZ6E_xDlVjg,dlab,24_2417,Install,3.4,43.240.117.239,D0C88CE8-F911-4A08-B6A0-924A552592E3,1557000890,2019-05-05 04:14:50,1557000925,2019-05-05 04:15:25,1557000955,5ccdf2b74cc89400010742b8,http://dashboard.d-lab.io/postback?clickid=5ccdf2b74cc89400010742b8&secure=bd16ae7d609965b6d66bdfc7d1eb046e,idfa_D0C88CE8-F911-4A08-B6A0-924A552592E3,zh-HK-hk
Hqn_p078TCqnZ6E_xDlVjg,dlab,24_4236_81928739,Install,3.4,210.56.56.213,7274FD67-5CC0-411D-AC4B-0563BEB45173,1557165649,2019-05-07 02:00:49,1557165702,2019-05-07 02:01:42,1557165732,5cd076484cc8940001176560,http://dashboard.d-lab.io/postback?clickid=5cd076484cc8940001176560&secure=bd16ae7d609965b6d66bdfc7d1eb046e,idfa_7274FD67-5CC0-411D-AC4B-0563BEB45173,zh-HK
Hqn_p078TCqnZ6E_xDlVjg,dlab,24_6793,Install,3.4,113.254.52.181,75D02574-E836-48AD-81BE-BFD8FCC7037A,1557001717,2019-05-05 04:28:37,1557001761,2019-05-05 04:29:21,1557001791,5ccdf5f14cc8940001231c2b,http://dashboard.d-lab.io/postback?clickid=5ccdf5f14cc8940001231c2b&secure=bd16ae7d609965b6d66bdfc7d1eb046e,idfa_75D02574-E836-48AD-81BE-BFD8FCC7037A,zh-HK-hk
Hqn_p078TCqnZ6E_xDlVjg,dlab,24_2833,Install,3.4,202.175.173.66,7E93F0A2-E716-46F1-8595-B36D5E8F770F,1556821030,2019-05-03 02:17:10,1556821062,2019-05-03 02:17:42,1556821092,5ccb34224cc8940001125fa0,http://dashboard.d-lab.io/postback?clickid=5ccb34224cc8940001125fa0&secure=bd16ae7d609965b6d66bdfc7d1eb046e,idfa_7E93F0A2-E716-46F1-8595-B36D5E8F770F,zh-Hant-CN
Hqn_p078TCqnZ6E_xDlVjg,dlab,24_7581_637610,Install,3.4,125.31.39.187,48C54C24-C5B0-47CC-BB0A-AA9A6A359A10,1556820535,2019-05-03 02:08:55,1556820564,2019-05-03 02:09:24,1556820595,5ccb32334cc8940001f41ce4,http://dashboard.d-lab.io/postback?clickid=5ccb32334cc8940001f41ce4&secure=bd16ae7d609965b6d66bdfc7d1eb046e,idfa_48C54C24-C5B0-47CC-BB0A-AA9A6A359A10,zh-Hant-CN
Hqn_p078TCqnZ6E_xDlVjg,dlab,24_7100,Install,3.4,218.103.126.211,AEBC12AF-29EC-499F-889C-B577072686FB,1557080763,2019-05-06 02:26:03,1557080793,2019-05-06 02:26:33,1557080823,5ccf2ab74cc89400017d375b,http://dashboard.d-lab.io/postback?clickid=5ccf2ab74cc89400017d375b&secure=bd16ae7d609965b6d66bdfc7d1eb046e,idfa_AEBC12AF-29EC-499F-889C-B577072686FB,zh-HK-hk
Hqn_p078TCqnZ6E_xDlVjg,dlab,24_2833,Install,3.4,125.31.39.187,46CF4964-C5A8-4309-BDA7-6F613CA51179,1556820512,2019-05-03 02:08:32,1556820554,2019-05-03 02:09:14,1556820585,5ccb321d4cc8940001f2caeb,http://dashboard.d-lab.io/postback?clickid=5ccb321d4cc8940001f2caeb&secure=bd16ae7d609965b6d66bdfc7d1eb046e,idfa_46CF4964-C5A8-4309-BDA7-6F613CA51179,zh-CN
Hqn_p078TCqnZ6E_xDlVjg,dlab,24_2589,Install,3.4,218.255.251.242,D09C877F-6EF5-4A9B-BDFB-C5AD1790FEA3,1557165561,2019-05-07 01:59:21,1557165632,2019-05-07 02:00:32,1557165662,5cd075f64cc894000113e084,http://dashboard.d-lab.io/postback?clickid=5cd075f64cc894000113e084&secure=bd16ae7d609965b6d66bdfc7d1eb046e,idfa_D09C877F-6EF5-4A9B-BDFB-C5AD1790FEA3,zh-HK
Hqn_p078TCqnZ6E_xDlVjg,dlab,24_1837_562630,Install,3.4,118.141.39.242,4F67C06F-4ED2-4562-BC98-0D754D8D624B,1557003427,2019-05-05 04:57:07,1557003492,2019-05-05 04:58:12,1557003523,5ccdfc9d4cc8940001590f3e,http://dashboard.d-lab.io/postback?clickid=5ccdfc9d4cc8940001590f3e&secure=bd16ae7d609965b6d66bdfc7d1eb046e,idfa_4F67C06F-4ED2-4562-BC98-0D754D8D624B,zh-HK
Hqn_p078TCqnZ6E_xDlVjg,dlab,24_4233,Install,3.4,61.244.114.180,33670240-6D64-47F6-B1E4-91370D167D22,1557000698,2019-05-05 04:11:38,1557000747,2019-05-05 04:12:27,1557000778,5ccdf1f64cc8940001ff2cc3,http://dashboard.d-lab.io/postback?clickid=5ccdf1f64cc8940001ff2cc3&secure=bd16ae7d609965b6d66bdfc7d1eb046e,idfa_33670240-6D64-47F6-B1E4-91370D167D22,zh-HK
Hqn_p078TCqnZ6E_xDlVjg,dlab,24_6838_473198,Install,3.4,210.3.173.34,679CB3F2-E076-4349-80C0-FF023DBD8B6F,1557001181,2019-05-05 04:19:41,1557001242,2019-05-05 04:20:42,1557001272,5ccdf3d24cc894000112289b,http://dashboard.d-lab.io/postback?clickid=5ccdf3d24cc894000112289b&secure=bd16ae7d609965b6d66bdfc7d1eb046e,idfa_679CB3F2-E076-4349-80C0-FF023DBD8B6F,zh-HK-hk
Hqn_p078TCqnZ6E_xDlVjg,dlab,24_6478,Install,3.4,223.197.163.246,0487CDEF-A0E1-49A8-8060-C46EC6AA9DB6,1557000292,2019-05-05 04:04:52,1557000323,2019-05-05 04:05:23,1557000353,5ccdf05f4cc8940001ee6888,http://dashboard.d-lab.io/postback?clickid=5ccdf05f4cc8940001ee6888&secure=bd16ae7d609965b6d66bdfc7d1eb046e,idfa_0487CDEF-A0E1-49A8-8060-C46EC6AA9DB6,zh-HK
Hqn_p078TCqnZ6E_xDlVjg,dlab,24_4859_86401,Install,3.4,223.197.162.15,B9A0BCC0-847B-45D9-9DD0-3B24BAEF54F2,1556924489,2019-05-04 07:01:29,1556924520,2019-05-04 07:02:00,1556924550,5cccc8454cc8940001a67357,http://dashboard.d-lab.io/postback?clickid=5cccc8454cc8940001a67357&secure=bd16ae7d609965b6d66bdfc7d1eb046e,idfa_B9A0BCC0-847B-45D9-9DD0-3B24BAEF54F2,zh-HK
Hqn_p078TCqnZ6E_xDlVjg,dlab,24_5128_5941068,Install,3.4,61.93.209.90,B2CE4AA7-D30B-4D0B-BE21-02F40695C130,1557003400,2019-05-05 04:56:40,1557003446,2019-05-05 04:57:26,1557003476,5ccdfc844cc89400015848ba,http://dashboard.d-lab.io/postback?clickid=5ccdfc844cc89400015848ba&secure=bd16ae7d609965b6d66bdfc7d1eb046e,idfa_B2CE4AA7-D30B-4D0B-BE21-02F40695C130,zh-HK-hk
Hqn_p078TCqnZ6E_xDlVjg,dlab,24_6280,Install,3.4,223.197.223.219,5866384F-7231-458C-A59D-AE789F033784,1557166429,2019-05-07 02:13:49,1557166464,2019-05-07 02:14:24,1557166494,5cd079564cc89400013849b7,http://dashboard.d-lab.io/postback?clickid=5cd079564cc89400013849b7&secure=bd16ae7d609965b6d66bdfc7d1eb046e,idfa_5866384F-7231-458C-A59D-AE789F033784,zh-HK
Hqn_p078TCqnZ6E_xDlVjg,dlab,24_3483_928832,Install,3.4,203.198.124.70,FC7C9331-95D0-4DE8-B838-18739428694C,1557002797,2019-05-05 04:46:37,1557002827,2019-05-05 04:47:07,1557002858,5ccdfa284cc89400014472c7,http://dashboard.d-lab.io/postback?clickid=5ccdfa284cc89400014472c7&secure=bd16ae7d609965b6d66bdfc7d1eb046e,idfa_FC7C9331-95D0-4DE8-B838-18739428694C,zh-HK
Hqn_p078TCqnZ6E_xDlVjg,dlab,24_4123,Install,3.4,202.82.230.225,FE4C30A8-8BCC-4961-B06E-AD668488F379,1557081690,2019-05-06 02:41:30,1557081721,2019-05-06 02:42:01,1557081751,5ccf2e574cc8940001a2f110,http://dashboard.d-lab.io/postback?clickid=5ccf2e574cc8940001a2f110&secure=bd16ae7d609965b6d66bdfc7d1eb046e,idfa_FE4C30A8-8BCC-4961-B06E-AD668488F379,zh-HK
Hqn_p078TCqnZ6E_xDlVjg,dlab,24_4123,Install,3.4,202.82.230.225,A8072847-7798-4F09-A8C6-C712A4F53442,1557079982,2019-05-06 02:13:02,1557080012,2019-05-06 02:13:32,1557080042,5ccf27a74cc89400015c6470,http://dashboard.d-lab.io/postback?clickid=5ccf27a74cc89400015c6470&secure=bd16ae7d609965b6d66bdfc7d1eb046e,idfa_A8072847-7798-4F09-A8C6-C712A4F53442,zh-HK
Hqn_p078TCqnZ6E_xDlVjg,dlab,24_6478,Install,3.4,45.120.30.241,0275783C-4410-45AA-AA12-B37955436946,1557001667,2019-05-05 04:27:47,1557001697,2019-05-05 04:28:17,1557001728,5ccdf5bf4cc894000121a8f5,http://dashboard.d-lab.io/postback?clickid=5ccdf5bf4cc894000121a8f5&secure=bd16ae7d609965b6d66bdfc7d1eb046e,idfa_0275783C-4410-45AA-AA12-B37955436946,zh-HK-hk
Hqn_p078TCqnZ6E_xDlVjg,dlab,24_1980_151823,Install,3.4,210.56.56.213,058BFB54-B42C-4FF0-B1D6-B93891E656DB,1557166836,2019-05-07 02:20:36,1557166862,2019-05-07 02:21:02,1557166892,5cd07af14cc894000148a36a,http://dashboard.d-lab.io/postback?clickid=5cd07af14cc894000148a36a&secure=bd16ae7d609965b6d66bdfc7d1eb046e,idfa_058BFB54-B42C-4FF0-B1D6-B93891E656DB,zh-HK-hk
Hqn_p078TCqnZ6E_xDlVjg,dlab,24_6852,Install,3.4,223.197.142.140,0AB57B85-897F-4DD9-B65A-406318B77B6F,1556821177,2019-05-03 02:19:37,1556821210,2019-05-03 02:20:10,1556821240,5ccb34b44cc89400011b6928,http://dashboard.d-lab.io/postback?clickid=5ccb34b44cc89400011b6928&secure=bd16ae7d609965b6d66bdfc7d1eb046e,idfa_0AB57B85-897F-4DD9-B65A-406318B77B6F,zh-HK
Hqn_p078TCqnZ6E_xDlVjg,dlab,24_7951_96273085,Install,3.4,61.244.114.180,C722BBD5-A387-4659-AC86-610849B15756,1557165684,2019-05-07 02:01:24,1557165726,2019-05-07 02:02:06,1557165756,5cd0766f4cc894000118f66a,http://dashboard.d-lab.io/postback?clickid=5cd0766f4cc894000118f66a&secure=bd16ae7d609965b6d66bdfc7d1eb046e,idfa_C722BBD5-A387-4659-AC86-610849B15756,zh-HK-hk
Hqn_p078TCqnZ6E_xDlVjg,dlab,24_9176,Install,3.4,125.31.39.187,4061D37A-2EBA-4173-B37B-29B5054DB25F,1556820657,2019-05-03 02:10:57,1556820731,2019-05-03 02:12:11,1556820761,5ccb32ae4cc8940001fbaf38,http://dashboard.d-lab.io/postback?clickid=5ccb32ae4cc8940001fbaf38&secure=bd16ae7d609965b6d66bdfc7d1eb046e,idfa_4061D37A-2EBA-4173-B37B-29B5054DB25F,zh-CN
Hqn_p078TCqnZ6E_xDlVjg,dlab,24_7127,Install,3.4,223.197.223.164,7C93D975-DC3D-4F80-853D-B2DEF64AFE3F,1557081572,2019-05-06 02:39:32,1557081602,2019-05-06 02:40:02,1557081632,5ccf2ddf4cc89400019dcdfa,http://dashboard.d-lab.io/postback?clickid=5ccf2ddf4cc89400019dcdfa&secure=bd16ae7d609965b6d66bdfc7d1eb046e,idfa_7C93D975-DC3D-4F80-853D-B2DEF64AFE3F,zh-HK-hk
Hqn_p078TCqnZ6E_xDlVjg,dlab,24_3609_596691,Install,3.4,223.197.163.246,57AC1D61-F925-4526-9DC6-6F71B04BC730,1557000893,2019-05-05 04:14:53,1557000923,2019-05-05 04:15:23,1557000953,5ccdf2b94cc894000107516b,http://dashboard.d-lab.io/postback?clickid=5ccdf2b94cc894000107516b&secure=bd16ae7d609965b6d66bdfc7d1eb046e,idfa_57AC1D61-F925-4526-9DC6-6F71B04BC730,zh-HK-hk
Hqn_p078TCqnZ6E_xDlVjg,dlab,24_2396,Install,3.4,210.56.56.213,EDC505DD-9E95-4713-B64B-DAB360C781AE,1556810225,2019-05-02 23:17:05,1556810276,2019-05-02 23:17:56,1556810307,5ccb09eb4cc894000102283b,http://dashboard.d-lab.io/postback?clickid=5ccb09eb4cc894000102283b&secure=bd16ae7d609965b6d66bdfc7d1eb046e,idfa_EDC505DD-9E95-4713-B64B-DAB360C781AE,zh-Hant-CN
Hqn_p078TCqnZ6E_xDlVjg,dlab,24_1088_3852754,Install,3.4,202.82.133.61,3ECE7964-4CD0-42A0-B8C9-67001C12FDF6,1556821955,2019-05-03 02:32:35,1556822001,2019-05-03 02:33:21,1556822032,5ccb37bc4cc89400014afa3e,http://dashboard.d-lab.io/postback?clickid=5ccb37bc4cc89400014afa3e&secure=bd16ae7d609965b6d66bdfc7d1eb046e,idfa_3ECE7964-4CD0-42A0-B8C9-67001C12FDF6,zh-HK
Hqn_p078TCqnZ6E_xDlVjg,dlab,24_4201_4753620,Install,3.4,203.198.124.70,39199EE8-A336-476C-BA74-C7F5C43CC7C2,1557080347,2019-05-06 02:19:07,1557080377,2019-05-06 02:19:37,1557080407,5ccf29154cc89400016c52f0,http://dashboard.d-lab.io/postback?clickid=5ccf29154cc89400016c52f0&secure=bd16ae7d609965b6d66bdfc7d1eb046e,idfa_39199EE8-A336-476C-BA74-C7F5C43CC7C2,zh-HK-hk
Hqn_p078TCqnZ6E_xDlVjg,dlab,24_3805,Install,3.4,118.141.39.242,76E50EBF-3BD2-45F4-8D05-D8C064176CC9,1557080456,2019-05-06 02:20:56,1557080496,2019-05-06 02:21:36,1557080527,5ccf29844cc894000170bb95,http://dashboard.d-lab.io/postback?clickid=5ccf29844cc894000170bb95&secure=bd16ae7d609965b6d66bdfc7d1eb046e,idfa_76E50EBF-3BD2-45F4-8D05-D8C064176CC9,zh-HK
Hqn_p078TCqnZ6E_xDlVjg,dlab,24_7662_99330836,Install,3.4,202.82.230.225,6E2D3B21-D124-4D91-9655-6D4D905F4AE6,1557165762,2019-05-07 02:02:42,1557165788,2019-05-07 02:03:08,1557165818,5cd076be4cc89400011caf2a,http://dashboard.d-lab.io/postback?clickid=5cd076be4cc89400011caf2a&secure=bd16ae7d609965b6d66bdfc7d1eb046e,idfa_6E2D3B21-D124-4D91-9655-6D4D905F4AE6,zh-HK-hk
Hqn_p078TCqnZ6E_xDlVjg,dlab,24_8816,Install,3.4,202.82.230.225,C70E134A-7BA0-49AA-8467-95B8891B3303,1557002472,2019-05-05 04:41:12,1557002507,2019-05-05 04:41:47,1557002537,5ccdf8e14cc89400013a3a51,http://dashboard.d-lab.io/postback?clickid=5ccdf8e14cc89400013a3a51&secure=bd16ae7d609965b6d66bdfc7d1eb046e,idfa_C70E134A-7BA0-49AA-8467-95B8891B3303,zh-HK-hk
Hqn_p078TCqnZ6E_xDlVjg,dlab,24_4233,Install,3.4,61.93.209.90,9E245AB8-8033-4FAF-AFAD-AA4843EA4891,1557005095,2019-05-05 05:24:55,1557005122,2019-05-05 05:25:22,1557005152,5cce03234cc894000190a1e6,http://dashboard.d-lab.io/postback?clickid=5cce03234cc894000190a1e6&secure=bd16ae7d609965b6d66bdfc7d1eb046e,idfa_9E245AB8-8033-4FAF-AFAD-AA4843EA4891,zh-HK
Hqn_p078TCqnZ6E_xDlVjg,dlab,24_7865_77227094,Install,3.4,203.198.149.164,9EF3AD84-A69F-4489-BDBD-38706728CDD0,1556821949,2019-05-03 02:32:29,1556821982,2019-05-03 02:33:02,1556822013,5ccb37b94cc89400014acd85,http://dashboard.d-lab.io/postback?clickid=5ccb37b94cc89400014acd85&secure=bd16ae7d609965b6d66bdfc7d1eb046e,idfa_9EF3AD84-A69F-4489-BDBD-38706728CDD0,zh-HK
Hqn_p078TCqnZ6E_xDlVjg,dlab,24_2833,Install,3.4,182.239.58.150,2A868001-11B7-4C3D-92CA-9F8DA0B2CC8C,1556822781,2019-05-03 02:46:21,1557053167,2019-05-05 18:46:07,1557053198,5ccb3afa4cc89400017ea24f,http://dashboard.d-lab.io/postback?clickid=5ccb3afa4cc89400017ea24f&secure=bd16ae7d609965b6d66bdfc7d1eb046e,idfa_2A868001-11B7-4C3D-92CA-9F8DA0B2CC8C,zh-HK
Hqn_p078TCqnZ6E_xDlVjg,dlab,24_2963,Install,3.4,223.197.162.15,EA0A0EBD-1460-44BA-B50C-1BC36E58403B,1557080472,2019-05-06 02:21:12,1557080502,2019-05-06 02:21:42,1557080533,5ccf29934cc8940001715389,http://dashboard.d-lab.io/postback?clickid=5ccf29934cc8940001715389&secure=bd16ae7d609965b6d66bdfc7d1eb046e,idfa_EA0A0EBD-1460-44BA-B50C-1BC36E58403B,zh-HK
Hqn_p078TCqnZ6E_xDlVjg,dlab,24_5128_5941068,Install,3.4,202.82.230.225,AE6041F4-D005-46B4-B509-C9491A9116A8,1557004835,2019-05-05 05:20:35,1557004865,2019-05-05 05:21:05,1557004895,5cce02204cc89400018872b3,http://dashboard.d-lab.io/postback?clickid=5cce02204cc89400018872b3&secure=bd16ae7d609965b6d66bdfc7d1eb046e,idfa_AE6041F4-D005-46B4-B509-C9491A9116A8,zh-HK
Hqn_p078TCqnZ6E_xDlVjg,dlab,24_9176,Install,3.4,202.175.173.66,91E49387-4EE0-43BA-AB65-4E7F7AC1618D,1556820097,2019-05-03 02:01:37,1556820127,2019-05-03 02:02:07,1556820195,5ccb307d4cc8940001d91341,http://dashboard.d-lab.io/postback?clickid=5ccb307d4cc8940001d91341&secure=bd16ae7d609965b6d66bdfc7d1eb046e,idfa_91E49387-4EE0-43BA-AB65-4E7F7AC1618D,zh-Hant-CN
Hqn_p078TCqnZ6E_xDlVjg,dlab,24_7951_96273085,Install,3.4,116.48.159.160,F458F97C-8432-4C6A-B7E9-081E84D6220F,1557166551,2019-05-07 02:15:51,1557166575,2019-05-07 02:16:15,1557166606,5cd079d54cc89400013d4caa,http://dashboard.d-lab.io/postback?clickid=5cd079d54cc89400013d4caa&secure=bd16ae7d609965b6d66bdfc7d1eb046e,idfa_F458F97C-8432-4C6A-B7E9-081E84D6220F,zh-HK-hk
Hqn_p078TCqnZ6E_xDlVjg,dlab,24_3483_928832,Install,3.4,223.197.223.164,321AAEF7-05A1-4A82-AEFF-1EDF75FF226D,1557003169,2019-05-05 04:52:49,1557003197,2019-05-05 04:53:17,1557003228,5ccdfb9c4cc8940001506d46,http://dashboard.d-lab.io/postback?clickid=5ccdfb9c4cc8940001506d46&secure=bd16ae7d609965b6d66bdfc7d1eb046e,idfa_321AAEF7-05A1-4A82-AEFF-1EDF75FF226D,zh-HK
Hqn_p078TCqnZ6E_xDlVjg,dlab,24_8884,Install,3.4,203.198.148.196,C4F64CC1-5E4C-4F60-9995-74B70DC02066,1557166698,2019-05-07 02:18:18,1557166740,2019-05-07 02:19:00,1557166770,5cd07a624cc894000142e24b,http://dashboard.d-lab.io/postback?clickid=5cd07a624cc894000142e24b&secure=bd16ae7d609965b6d66bdfc7d1eb046e,idfa_C4F64CC1-5E4C-4F60-9995-74B70DC02066,zh-HK
Hqn_p078TCqnZ6E_xDlVjg,dlab,24_2448_98426,Install,3.4,203.198.151.85,34E16B99-0123-4A39-8D67-C1810A18F56E,1556822606,2019-05-03 02:43:26,1556822646,2019-05-03 02:44:06,1556822676,5ccb3a494cc8940001735107,http://dashboard.d-lab.io/postback?clickid=5ccb3a494cc8940001735107&secure=bd16ae7d609965b6d66bdfc7d1eb046e,idfa_34E16B99-0123-4A39-8D67-C1810A18F56E,zh-HK-hk
Hqn_p078TCqnZ6E_xDlVjg,dlab,24_2417,Install,3.4,223.197.223.219,39E0EB44-6DC8-4C83-9F70-37E1CA4D79E6,1557004064,2019-05-05 05:07:44,1557004121,2019-05-05 05:08:41,1557004151,5ccdff1a4cc89400016efb86,http://dashboard.d-lab.io/postback?clickid=5ccdff1a4cc89400016efb86&secure=bd16ae7d609965b6d66bdfc7d1eb046e,idfa_39E0EB44-6DC8-4C83-9F70-37E1CA4D79E6,zh-HK
Hqn_p078TCqnZ6E_xDlVjg,dlab,24_3782_35542943,Install,3.4,203.198.124.70,AB88349D-B7DF-4186-8B4C-74C6D71209CA,1556822647,2019-05-03 02:44:07,1557053094,2019-05-05 18:44:54,1557053124,5ccb3a744cc894000175f3a6,http://dashboard.d-lab.io/postback?clickid=5ccb3a744cc894000175f3a6&secure=bd16ae7d609965b6d66bdfc7d1eb046e,idfa_AB88349D-B7DF-4186-8B4C-74C6D71209CA,zh-HK-hk
Hqn_p078TCqnZ6E_xDlVjg,dlab,24_1835,Install,3.4,223.197.223.103,C8440361-DE9E-4F89-BB51-0C0AC41C68A0,1556924762,2019-05-04 07:06:02,1556924816,2019-05-04 07:06:56,1556924846,5cccc94f4cc8940001b250e0,http://dashboard.d-lab.io/postback?clickid=5cccc94f4cc8940001b250e0&secure=bd16ae7d609965b6d66bdfc7d1eb046e,idfa_C8440361-DE9E-4F89-BB51-0C0AC41C68A0,zh-HK
Hqn_p078TCqnZ6E_xDlVjg,dlab,24_4570,Install,3.4,203.198.150.167,CDC2ED75-BE96-4C24-9E55-210BAD22433C,1557000433,2019-05-05 04:07:13,1557000498,2019-05-05 04:08:18,1557000529,5ccdf0ea4cc8940001f468c3,http://dashboard.d-lab.io/postback?clickid=5ccdf0ea4cc8940001f468c3&secure=bd16ae7d609965b6d66bdfc7d1eb046e,idfa_CDC2ED75-BE96-4C24-9E55-210BAD22433C,zh-HK
Hqn_p078TCqnZ6E_xDlVjg,dlab,24_2963,Install,3.4,202.82.230.225,E93B40A6-DC0D-493A-9C4F-97715B599705,1557080703,2019-05-06 02:25:03,1557080733,2019-05-06 02:25:33,1557080763,5ccf2a7c4cc89400017ac6d5,http://dashboard.d-lab.io/postback?clickid=5ccf2a7c4cc89400017ac6d5&secure=bd16ae7d609965b6d66bdfc7d1eb046e,idfa_E93B40A6-DC0D-493A-9C4F-97715B599705,zh-HK
Hqn_p078TCqnZ6E_xDlVjg,dlab,24_7581_637610,Install,3.4,202.82.230.225,22A6A768-F1C4-4C06-AEB6-B9B81E3ECF0B,1556823071,2019-05-03 02:51:11,1556823101,2019-05-03 02:51:41,1556823131,5ccb3c1c4cc8940001918f07,http://dashboard.d-lab.io/postback?clickid=5ccb3c1c4cc8940001918f07&secure=bd16ae7d609965b6d66bdfc7d1eb046e,idfa_22A6A768-F1C4-4C06-AEB6-B9B81E3ECF0B,zh-HK
Hqn_p078TCqnZ6E_xDlVjg,dlab,24_8086_44428,Install,3.4,175.45.35.182,A05CDA9E-7034-4466-A88A-80E1B6B6A005,1556822739,2019-05-03 02:45:39,1556822779,2019-05-03 02:46:19,1556822809,5ccb3acd4cc89400017b9cd4,http://dashboard.d-lab.io/postback?clickid=5ccb3acd4cc89400017b9cd4&secure=bd16ae7d609965b6d66bdfc7d1eb046e,idfa_A05CDA9E-7034-4466-A88A-80E1B6B6A005,zh-HK
Hqn_p078TCqnZ6E_xDlVjg,dlab,24_1088_3852754,Install,3.4,210.56.56.213,AFDB1936-761C-43FF-B3C2-B67EAA8B7B9D,1556821302,2019-05-03 02:21:42,1556821336,2019-05-03 02:22:16,1556821366,5ccb35334cc89400012328e4,http://dashboard.d-lab.io/postback?clickid=5ccb35334cc89400012328e4&secure=bd16ae7d609965b6d66bdfc7d1eb046e,idfa_AFDB1936-761C-43FF-B3C2-B67EAA8B7B9D,zh-HK-hk
Hqn_p078TCqnZ6E_xDlVjg,dlab,24_2448_98426,Install,3.4,118.143.207.1,0B2DF254-C504-4993-B0D7-A9F7BBB65BEC,1556822512,2019-05-03 02:41:52,1557053023,2019-05-05 18:43:43,1557053053,5ccb39eb4cc89400016d29b9,http://dashboard.d-lab.io/postback?clickid=5ccb39eb4cc89400016d29b9&secure=bd16ae7d609965b6d66bdfc7d1eb046e,idfa_0B2DF254-C504-4993-B0D7-A9F7BBB65BEC,zh-HK
Hqn_p078TCqnZ6E_xDlVjg,dlab,24_4859_86401,Install,3.4,219.76.177.98,5F2F6F89-BC5B-414A-97B5-35C2C28C382E,1556923334,2019-05-04 06:42:14,1556923372,2019-05-04 06:42:52,1556923403,5cccc3c24cc894000171855b,http://dashboard.d-lab.io/postback?clickid=5cccc3c24cc894000171855b&secure=bd16ae7d609965b6d66bdfc7d1eb046e,idfa_5F2F6F89-BC5B-414A-97B5-35C2C28C382E,zh-HK-eg
Hqn_p078TCqnZ6E_xDlVjg,dlab,24_4570,Install,3.4,42.200.234.95,813C68C7-8A11-4D8E-BFC1-E0972A1AA89E,1557004713,2019-05-05 05:18:33,1557004740,2019-05-05 05:19:00,1557004770,5cce01a64cc894000184afae,http://dashboard.d-lab.io/postback?clickid=5cce01a64cc894000184afae&secure=bd16ae7d609965b6d66bdfc7d1eb046e,idfa_813C68C7-8A11-4D8E-BFC1-E0972A1AA89E,zh-HK-hk
Hqn_p078TCqnZ6E_xDlVjg,dlab,24_2833,Install,3.4,125.31.39.187,CAA2FC35-2757-4ECF-B073-8C7DFDAA4A3A,1556820354,2019-05-03 02:05:54,1556820386,2019-05-03 02:06:26,1556820420,5ccb317f4cc8940001e8fb81,http://dashboard.d-lab.io/postback?clickid=5ccb317f4cc8940001e8fb81&secure=bd16ae7d609965b6d66bdfc7d1eb046e,idfa_CAA2FC35-2757-4ECF-B073-8C7DFDAA4A3A,zh-Hant-CN
Hqn_p078TCqnZ6E_xDlVjg,dlab,24_4123,Install,3.4,116.48.159.160,2E88AF89-4BE1-43BA-92B2-6B9B6F37F1FD,1557080828,2019-05-06 02:27:08,1557080858,2019-05-06 02:27:38,1557080888,5ccf2af84cc89400017fc67c,http://dashboard.d-lab.io/postback?clickid=5ccf2af84cc89400017fc67c&secure=bd16ae7d609965b6d66bdfc7d1eb046e,idfa_2E88AF89-4BE1-43BA-92B2-6B9B6F37F1FD,zh-HK-hk
Hqn_p078TCqnZ6E_xDlVjg,dlab,24_1675,Install,3.4,223.197.223.164,2BCA2614-5F1A-4A24-B2F9-3CC9D16D59A8,1556822229,2019-05-03 02:37:09,1556822273,2019-05-03 02:37:53,1556822303,5ccb38d14cc89400015b7a89,http://dashboard.d-lab.io/postback?clickid=5ccb38d14cc89400015b7a89&secure=bd16ae7d609965b6d66bdfc7d1eb046e,idfa_2BCA2614-5F1A-4A24-B2F9-3CC9D16D59A8,zh-HK
Hqn_p078TCqnZ6E_xDlVjg,dlab,24_1835,Install,3.4,223.197.167.43,9BBC20ED-1344-41F9-AE95-A69F819059B2,1556924122,2019-05-04 06:55:22,1556924156,2019-05-04 06:55:56,1556924186,5cccc6d44cc894000194d7f9,http://dashboard.d-lab.io/postback?clickid=5cccc6d44cc894000194d7f9&secure=bd16ae7d609965b6d66bdfc7d1eb046e,idfa_9BBC20ED-1344-41F9-AE95-A69F819059B2,zh-HK-hk
Hqn_p078TCqnZ6E_xDlVjg,dlab,24_3483_928832,Install,3.4,210.56.56.213,D0299296-BFCB-4ABD-AE29-BFBEF13A9331,1557003912,2019-05-05 05:05:12,1557211986,2019-05-07 14:53:06,1557212016,5ccdfe854cc894000169ce17,http://dashboard.d-lab.io/postback?clickid=5ccdfe854cc894000169ce17&secure=bd16ae7d609965b6d66bdfc7d1eb046e,idfa_D0299296-BFCB-4ABD-AE29-BFBEF13A9331,zh-HK-hk
Hqn_p078TCqnZ6E_xDlVjg,dlab,24_6478,Install,3.4,202.82.230.225,B54F09DA-AD45-4975-A19F-DFFEA07EDFBB,1557000181,2019-05-05 04:03:01,1557000213,2019-05-05 04:03:33,1557000243,5ccdeff24cc8940001e9e257,http://dashboard.d-lab.io/postback?clickid=5ccdeff24cc8940001e9e257&secure=bd16ae7d609965b6d66bdfc7d1eb046e,idfa_B54F09DA-AD45-4975-A19F-DFFEA07EDFBB,zh-HK
Hqn_p078TCqnZ6E_xDlVjg,dlab,24_3706,Install,3.4,116.48.159.160,60377234-D3CA-4ADD-B8A4-6B50D4F3B256,1556926121,2019-05-04 07:28:41,1556926151,2019-05-04 07:29:11,1556926181,5ccccea54cc8940001f33838,http://dashboard.d-lab.io/postback?clickid=5ccccea54cc8940001f33838&secure=bd16ae7d609965b6d66bdfc7d1eb046e,idfa_60377234-D3CA-4ADD-B8A4-6B50D4F3B256,zh-HK-hk
Hqn_p078TCqnZ6E_xDlVjg,dlab,24_3705_38523,Install,3.4,202.82.133.61,2373ABEF-3F00-4E3F-8ED8-15643928A40F,1557166162,2019-05-07 02:09:22,1557166190,2019-05-07 02:09:50,1557166221,5cd0784b4cc89400012d26ee,http://dashboard.d-lab.io/postback?clickid=5cd0784b4cc89400012d26ee&secure=bd16ae7d609965b6d66bdfc7d1eb046e,idfa_2373ABEF-3F00-4E3F-8ED8-15643928A40F,zh-HK
Hqn_p078TCqnZ6E_xDlVjg,dlab,24_3609_596691,Install,3.4,203.90.233.59,E457B9E6-CC57-4F91-A483-98244DB4C15F,1557002957,2019-05-05 04:49:17,1557002985,2019-05-05 04:49:45,1557003015,5ccdfac94cc894000149a678,http://dashboard.d-lab.io/postback?clickid=5ccdfac94cc894000149a678&secure=bd16ae7d609965b6d66bdfc7d1eb046e,idfa_E457B9E6-CC57-4F91-A483-98244DB4C15F,zh-HK
Hqn_p078TCqnZ6E_xDlVjg,dlab,24_2833,Install,3.4,223.197.223.165,3DFFDD85-7DCA-40F2-8DF4-24235CF8CEB6,1556822087,2019-05-03 02:34:47,1556822127,2019-05-03 02:35:27,1556822170,5ccb38434cc8940001527015,http://dashboard.d-lab.io/postback?clickid=5ccb38434cc8940001527015&secure=bd16ae7d609965b6d66bdfc7d1eb046e,idfa_3DFFDD85-7DCA-40F2-8DF4-24235CF8CEB6,zh-HK-hk
Hqn_p078TCqnZ6E_xDlVjg,dlab,24_7100,Install,3.4,103.254.210.60,C5998A28-A833-48FC-8EF1-7D4F364FC4BE,1557081064,2019-05-06 02:31:04,1557081100,2019-05-06 02:31:40,1557081130,5ccf2be54cc8940001897038,http://dashboard.d-lab.io/postback?clickid=5ccf2be54cc8940001897038&secure=bd16ae7d609965b6d66bdfc7d1eb046e,idfa_C5998A28-A833-48FC-8EF1-7D4F364FC4BE,zh-HK-hk
Hqn_p078TCqnZ6E_xDlVjg,dlab,24_7133,Install,3.4,112.120.82.232,8CB6E972-2E32-47AC-B180-26DEF1A5E750,1557001437,2019-05-05 04:23:57,1557001469,2019-05-05 04:24:29,1557001499,5ccdf4d94cc89400011a76c2,http://dashboard.d-lab.io/postback?clickid=5ccdf4d94cc89400011a76c2&secure=bd16ae7d609965b6d66bdfc7d1eb046e,idfa_8CB6E972-2E32-47AC-B180-26DEF1A5E750,zh-HK-hk
Hqn_p078TCqnZ6E_xDlVjg,dlab,24_6280,Install,3.4,223.197.223.165,255144F3-3112-42C4-9FA1-F0176E24C52B,1557165513,2019-05-07 01:58:33,1557165541,2019-05-07 01:59:01,1557165571,5cd075c24cc894000111c883,http://dashboard.d-lab.io/postback?clickid=5cd075c24cc894000111c883&secure=bd16ae7d609965b6d66bdfc7d1eb046e,idfa_255144F3-3112-42C4-9FA1-F0176E24C52B,zh-HK-hk
Hqn_p078TCqnZ6E_xDlVjg,dlab,24_6852,Install,3.4,223.197.196.85,D99E0615-3626-43E7-9BE2-03F3477F7760,1556823431,2019-05-03 02:57:11,1556823485,2019-05-03 02:58:05,1556823516,5ccb3d774cc8940001a924d3,http://dashboard.d-lab.io/postback?clickid=5ccb3d774cc8940001a924d3&secure=bd16ae7d609965b6d66bdfc7d1eb046e,idfa_D99E0615-3626-43E7-9BE2-03F3477F7760,zh-HK-hk
Hqn_p078TCqnZ6E_xDlVjg,dlab,24_5128_5941068,Install,3.4,43.240.117.239,5BD178A3-4603-4775-92A9-EB898DE0B025,1557005160,2019-05-05 05:26:00,1557005196,2019-05-05 05:26:36,1557005227,5cce03644cc894000192c324,http://dashboard.d-lab.io/postback?clickid=5cce03644cc894000192c324&secure=bd16ae7d609965b6d66bdfc7d1eb046e,idfa_5BD178A3-4603-4775-92A9-EB898DE0B025,zh-HK-hk
Hqn_p078TCqnZ6E_xDlVjg,dlab,24_1805_57269,Install,3.4,103.6.178.202,642F13E0-5ECC-441D-9912-4C3EAC2EC7AD,1557081187,2019-05-06 02:33:07,1557081215,2019-05-06 02:33:35,1557081246,5ccf2c604cc89400018e63c8,http://dashboard.d-lab.io/postback?clickid=5ccf2c604cc89400018e63c8&secure=bd16ae7d609965b6d66bdfc7d1eb046e,idfa_642F13E0-5ECC-441D-9912-4C3EAC2EC7AD,zh-HK
Hqn_p078TCqnZ6E_xDlVjg,dlab,24_6478,Install,3.4,218.103.126.211,C4FF861D-A9E1-422D-A8E3-CA27C29F59D4,1557004544,2019-05-05 05:15:44,1557004575,2019-05-05 05:16:15,1557004605,5cce00fc4cc89400017f60f8,http://dashboard.d-lab.io/postback?clickid=5cce00fc4cc89400017f60f8&secure=bd16ae7d609965b6d66bdfc7d1eb046e,idfa_C4FF861D-A9E1-422D-A8E3-CA27C29F59D4,zh-HK
Hqn_p078TCqnZ6E_xDlVjg,dlab,24_8372_31928,Install,3.4,103.6.178.202,DC1A56BA-58FA-46F3-B9B5-BE77C242422B,1557166811,2019-05-07 02:20:11,1557166848,2019-05-07 02:20:48,1557166878,5cd07ad74cc894000147ac50,http://dashboard.d-lab.io/postback?clickid=5cd07ad74cc894000147ac50&secure=bd16ae7d609965b6d66bdfc7d1eb046e,idfa_DC1A56BA-58FA-46F3-B9B5-BE77C242422B,zh-HK-hk
Hqn_p078TCqnZ6E_xDlVjg,dlab,24_2448_98426,Install,3.4,125.59.129.182,C71B63D5-3320-44C7-8CBF-B5F477AB8B4F,1556822936,2019-05-03 02:48:56,1556822988,2019-05-03 02:49:48,1556823019,5ccb3b914cc8940001887683,http://dashboard.d-lab.io/postback?clickid=5ccb3b914cc8940001887683&secure=bd16ae7d609965b6d66bdfc7d1eb046e,idfa_C71B63D5-3320-44C7-8CBF-B5F477AB8B4F,zh-HK-hk
Hqn_p078TCqnZ6E_xDlVjg,dlab,24_2963,Install,3.4,203.198.149.181,993DEF0A-5863-4A8E-AF59-46CC40AF2C16,1557081326,2019-05-06 02:35:26,1557081356,2019-05-06 02:35:56,1557081387,5ccf2cea4cc894000193e3f5,http://dashboard.d-lab.io/postback?clickid=5ccf2cea4cc894000193e3f5&secure=bd16ae7d609965b6d66bdfc7d1eb046e,idfa_993DEF0A-5863-4A8E-AF59-46CC40AF2C16,zh-HK-hk
Hqn_p078TCqnZ6E_xDlVjg,dlab,24_4123,Install,3.4,202.82.230.225,82605AB5-0375-465C-B519-AF2A2023592D,1557081197,2019-05-06 02:33:17,1557081226,2019-05-06 02:33:46,1557081256,5ccf2c694cc89400018ebfca,http://dashboard.d-lab.io/postback?clickid=5ccf2c694cc89400018ebfca&secure=bd16ae7d609965b6d66bdfc7d1eb046e,idfa_82605AB5-0375-465C-B519-AF2A2023592D,zh-HK
Hqn_p078TCqnZ6E_xDlVjg,dlab,24_9817,Install,3.4,202.82.230.225,B4E97F61-94A0-4981-A60E-F43976E18488,1557165440,2019-05-07 01:57:20,1557165474,2019-05-07 01:57:54,1557165505,5cd0757c4cc89400010eb817,http://dashboard.d-lab.io/postback?clickid=5cd0757c4cc89400010eb817&secure=bd16ae7d609965b6d66bdfc7d1eb046e,idfa_B4E97F61-94A0-4981-A60E-F43976E18488,zh-HK-hk
Hqn_p078TCqnZ6E_xDlVjg,dlab,24_7865_77227094,Install,3.4,210.176.61.250,7575E49D-5EB3-4840-831A-94A6DFF84596,1556822238,2019-05-03 02:37:18,1556822275,2019-05-03 02:37:55,1556822305,5ccb38da4cc89400015bf638,http://dashboard.d-lab.io/postback?clickid=5ccb38da4cc89400015bf638&secure=bd16ae7d609965b6d66bdfc7d1eb046e,idfa_7575E49D-5EB3-4840-831A-94A6DFF84596,zh-HK
Hqn_p078TCqnZ6E_xDlVjg,dlab,24_1742,Install,3.4,182.239.58.169,B2A9A28D-6766-4934-909A-09227EBEC9EB,1556923996,2019-05-04 06:53:16,1556924030,2019-05-04 06:53:50,1556924061,5cccc64a4cc89400018e8a1c,http://dashboard.d-lab.io/postback?clickid=5cccc64a4cc89400018e8a1c&secure=bd16ae7d609965b6d66bdfc7d1eb046e,idfa_B2A9A28D-6766-4934-909A-09227EBEC9EB,zh-HK
Hqn_p078TCqnZ6E_xDlVjg,dlab,24_6852,Install,3.4,112.119.209.81,AB164DF5-2DCE-4041-8C43-A3C49DD2A49C,1556823353,2019-05-03 02:55:53,1556823385,2019-05-03 02:56:25,1556823416,5ccb3d364cc8940001a46f02,http://dashboard.d-lab.io/postback?clickid=5ccb3d364cc8940001a46f02&secure=bd16ae7d609965b6d66bdfc7d1eb046e,idfa_AB164DF5-2DCE-4041-8C43-A3C49DD2A49C,zh-HK-hk
Hqn_p078TCqnZ6E_xDlVjg,dlab,24_8884,Install,3.4,45.120.30.241,9ADE45E5-DB67-44C6-BAC3-FDE165B2F728,1557165392,2019-05-07 01:56:32,1557165433,2019-05-07 01:57:13,1557165463,5cd0754d4cc89400010ca374,http://dashboard.d-lab.io/postback?clickid=5cd0754d4cc89400010ca374&secure=bd16ae7d609965b6d66bdfc7d1eb046e,idfa_9ADE45E5-DB67-44C6-BAC3-FDE165B2F728,zh-HK
Hqn_p078TCqnZ6E_xDlVjg,dlab,24_1980_151823,Install,3.4,203.198.149.164,E08CE430-4FA5-462D-9338-983AC000989E,1557164971,2019-05-07 01:49:31,1557165004,2019-05-07 01:50:04,1557165035,5cd073a74cc8940001f9581f,http://dashboard.d-lab.io/postback?clickid=5cd073a74cc8940001f9581f&secure=bd16ae7d609965b6d66bdfc7d1eb046e,idfa_E08CE430-4FA5-462D-9338-983AC000989E,zh-HK-hk
Hqn_p078TCqnZ6E_xDlVjg,dlab,24_8372_31928,Install,3.4,203.198.151.85,A66EFF92-FFA3-475A-8E00-44877640D598,1557165819,2019-05-07 02:03:39,1557165885,2019-05-07 02:04:45,1557165915,5cd076f64cc89400011f2b23,http://dashboard.d-lab.io/postback?clickid=5cd076f64cc89400011f2b23&secure=bd16ae7d609965b6d66bdfc7d1eb046e,idfa_A66EFF92-FFA3-475A-8E00-44877640D598,zh-HK
Hqn_p078TCqnZ6E_xDlVjg,dlab,24_1835,Install,3.4,218.189.15.187,CC07E60C-4CED-4192-A2F9-E72EEB85994F,1556925626,2019-05-04 07:20:26,1556925657,2019-05-04 07:20:57,1556925688,5cccccb74cc8940001daaa35,http://dashboard.d-lab.io/postback?clickid=5cccccb74cc8940001daaa35&secure=bd16ae7d609965b6d66bdfc7d1eb046e,idfa_CC07E60C-4CED-4192-A2F9-E72EEB85994F,zh-HK
Hqn_p078TCqnZ6E_xDlVjg,dlab,24_8884,Install,3.4,223.197.223.103,E60883DA-CF93-4E5A-A142-F94E23FA7151,1557165188,2019-05-07 01:53:08,1557165224,2019-05-07 01:53:44,1557165255,5cd074804cc894000103879d,http://dashboard.d-lab.io/postback?clickid=5cd074804cc894000103879d&secure=bd16ae7d609965b6d66bdfc7d1eb046e,idfa_E60883DA-CF93-4E5A-A142-F94E23FA7151,zh-HK-hk
Hqn_p078TCqnZ6E_xDlVjg,dlab,24_2833,Install,3.4,45.64.243.162,23A59E7F-6514-41D4-9FB3-3C3FDC8623B0,1556851802,2019-05-03 10:50:02,1556893507,2019-05-03 22:25:07,1556893538,5ccbac594cc894000155ad05,http://dashboard.d-lab.io/postback?clickid=5ccbac594cc894000155ad05&secure=bd16ae7d609965b6d66bdfc7d1eb046e,idfa_23A59E7F-6514-41D4-9FB3-3C3FDC8623B0,zh-Hant-HK
Hqn_p078TCqnZ6E_xDlVjg,dlab,24_4570,Install,3.4,113.28.9.22,9FD9008B-4486-42F5-A1CF-12ED9B42629B,1557004599,2019-05-05 05:16:39,1557004628,2019-05-05 05:17:08,1557004658,5cce01344cc894000181374c,http://dashboard.d-lab.io/postback?clickid=5cce01344cc894000181374c&secure=bd16ae7d609965b6d66bdfc7d1eb046e,idfa_9FD9008B-4486-42F5-A1CF-12ED9B42629B,zh-HK
Hqn_p078TCqnZ6E_xDlVjg,dlab,24_2733,Install,3.4,219.76.177.98,B513099C-4E91-4562-95CA-BB7858180217,1556822986,2019-05-03 02:49:46,1556823022,2019-05-03 02:50:22,1556823053,5ccb3bc74cc89400018c22a1,http://dashboard.d-lab.io/postback?clickid=5ccb3bc74cc89400018c22a1&secure=bd16ae7d609965b6d66bdfc7d1eb046e,idfa_B513099C-4E91-4562-95CA-BB7858180217,zh-HK
Hqn_p078TCqnZ6E_xDlVjg,dlab,24_6838_473198,Install,3.4,45.120.30.241,25A661EB-32B1-4AEC-A5F0-46553C95400F,1557003292,2019-05-05 04:54:52,1557003350,2019-05-05 04:55:50,1557003381,5ccdfc184cc894000154ab55,http://dashboard.d-lab.io/postback?clickid=5ccdfc184cc894000154ab55&secure=bd16ae7d609965b6d66bdfc7d1eb046e,idfa_25A661EB-32B1-4AEC-A5F0-46553C95400F,zh-HK-hk
Hqn_p078TCqnZ6E_xDlVjg,dlab,24_6838_473198,Install,3.4,112.120.82.175,6620DC02-3481-4B0A-BDBA-32614B2827BB,1557000562,2019-05-05 04:09:22,1557000594,2019-05-05 04:09:54,1557000625,5ccdf16e4cc8940001f9ca99,http://dashboard.d-lab.io/postback?clickid=5ccdf16e4cc8940001f9ca99&secure=bd16ae7d609965b6d66bdfc7d1eb046e,idfa_6620DC02-3481-4B0A-BDBA-32614B2827BB,zh-HK-hk
Hqn_p078TCqnZ6E_xDlVjg,dlab,24_1675,Install,3.4,202.175.173.66,25EF4C6E-E896-4571-A38A-6C4C3B5EDA0A,1556820227,2019-05-03 02:03:47,1556820275,2019-05-03 02:04:35,1556820306,5ccb30ff4cc8940001e151cd,http://dashboard.d-lab.io/postback?clickid=5ccb30ff4cc8940001e151cd&secure=bd16ae7d609965b6d66bdfc7d1eb046e,idfa_25EF4C6E-E896-4571-A38A-6C4C3B5EDA0A,zh-CN
Hqn_p078TCqnZ6E_xDlVjg,dlab,24_6793,Install,3.4,218.255.189.26,9B41B7FD-B2A6-4722-9184-AE749BBB3ADB,1557001298,2019-05-05 04:21:38,1557001348,2019-05-05 04:22:28,1557001378,5ccdf4454cc894000115e9c2,http://dashboard.d-lab.io/postback?clickid=5ccdf4454cc894000115e9c2&secure=bd16ae7d609965b6d66bdfc7d1eb046e,idfa_9B41B7FD-B2A6-4722-9184-AE749BBB3ADB,zh-HK
Hqn_p078TCqnZ6E_xDlVjg,dlab,24_8513_19279999,Install,3.4,202.175.173.66,41C14241-7163-4718-9AB8-A4B7E73ADDA6,1556820786,2019-05-03 02:13:06,1556820818,2019-05-03 02:13:38,1556820848,5ccb332e4cc8940001039d5b,http://dashboard.d-lab.io/postback?clickid=5ccb332e4cc8940001039d5b&secure=bd16ae7d609965b6d66bdfc7d1eb046e,idfa_41C14241-7163-4718-9AB8-A4B7E73ADDA6,zh-Hant-CN
Hqn_p078TCqnZ6E_xDlVjg,dlab,24_5128_5941068,Install,3.4,175.45.35.182,C5D42484-5F24-4A20-93A8-F340D8C8EA9C,1557004191,2019-05-05 05:09:51,1557004222,2019-05-05 05:10:22,1557004253,5ccdff994cc8940001733331,http://dashboard.d-lab.io/postback?clickid=5ccdff994cc8940001733331&secure=bd16ae7d609965b6d66bdfc7d1eb046e,idfa_C5D42484-5F24-4A20-93A8-F340D8C8EA9C,zh-HK-hk
Hqn_p078TCqnZ6E_xDlVjg,dlab,24_1835,Install,3.4,202.82.230.225,407A84CA-E8F0-4687-B6B8-81DD31CE55C1,1556924247,2019-05-04 06:57:27,1556924277,2019-05-04 06:57:57,1556924307,5cccc7534cc89400019ac397,http://dashboard.d-lab.io/postback?clickid=5cccc7534cc89400019ac397&secure=bd16ae7d609965b6d66bdfc7d1eb046e,idfa_407A84CA-E8F0-4687-B6B8-81DD31CE55C1,zh-HK
Hqn_p078TCqnZ6E_xDlVjg,dlab,24_8269_788295,Install,3.4,61.93.209.90,2ED0A388-5C14-46D1-A652-2EE8784E9109,1556924994,2019-05-04 07:09:54,1556925052,2019-05-04 07:10:52,1556925082,5cccca3f4cc8940001bd13c9,http://dashboard.d-lab.io/postback?clickid=5cccca3f4cc8940001bd13c9&secure=bd16ae7d609965b6d66bdfc7d1eb046e,idfa_2ED0A388-5C14-46D1-A652-2EE8784E9109,zh-HK-hk
Hqn_p078TCqnZ6E_xDlVjg,dlab,24_7127,Install,3.4,218.103.116.121,D43E4811-94FA-46E2-AC56-8292FB5C1C5C,1557079955,2019-05-06 02:12:35,1557079987,2019-05-06 02:13:07,1557080017,5ccf278f4cc89400015b4a8c,http://dashboard.d-lab.io/postback?clickid=5ccf278f4cc89400015b4a8c&secure=bd16ae7d609965b6d66bdfc7d1eb046e,idfa_D43E4811-94FA-46E2-AC56-8292FB5C1C5C,zh-HK
Hqn_p078TCqnZ6E_xDlVjg,dlab,24_7243,Install,3.4,103.254.210.60,542ADF46-A6BC-4E1A-95D0-D1E4219254BF,1556925240,2019-05-04 07:14:00,1556925286,2019-05-04 07:14:46,1556925317,5ccccb354cc8940001c8ac31,http://dashboard.d-lab.io/postback?clickid=5ccccb354cc8940001c8ac31&secure=bd16ae7d609965b6d66bdfc7d1eb046e,idfa_542ADF46-A6BC-4E1A-95D0-D1E4219254BF,zh-HK
Hqn_p078TCqnZ6E_xDlVjg,dlab,24_4099_38828,Install,3.4,121.202.255.188,2E6AC744-A229-46DD-9064-DD90658DA947,1557164938,2019-05-07 01:48:58,1557164965,2019-05-07 01:49:25,1557164995,5cd073864cc8940001f7b9a8,http://dashboard.d-lab.io/postback?clickid=5cd073864cc8940001f7b9a8&secure=bd16ae7d609965b6d66bdfc7d1eb046e,idfa_2E6AC744-A229-46DD-9064-DD90658DA947,zh-HK
Hqn_p078TCqnZ6E_xDlVjg,dlab,24_1675,Install,3.4,223.197.250.232,29BE1FC9-94A2-47EE-9E73-89E4DF8FA570,1556822361,2019-05-03 02:39:21,1556822401,2019-05-03 02:40:01,1556822432,5ccb39544cc8940001638395,http://dashboard.d-lab.io/postback?clickid=5ccb39544cc8940001638395&secure=bd16ae7d609965b6d66bdfc7d1eb046e,idfa_29BE1FC9-94A2-47EE-9E73-89E4DF8FA570,zh-HK-hk
Hqn_p078TCqnZ6E_xDlVjg,dlab,24_7581_637610,Install,3.4,202.82.230.225,B9149230-92CE-4F64-B68B-72B325484516,1556821669,2019-05-03 02:27:49,1556821707,2019-05-03 02:28:27,1556821738,5ccb36a24cc894000139f3d2,http://dashboard.d-lab.io/postback?clickid=5ccb36a24cc894000139f3d2&secure=bd16ae7d609965b6d66bdfc7d1eb046e,idfa_B9149230-92CE-4F64-B68B-72B325484516,zh-HK
Hqn_p078TCqnZ6E_xDlVjg,dlab,24_7100,Install,3.4,203.198.131.238,691F3759-A710-42A2-92EE-D4AA7AD408C2,1557080878,2019-05-06 02:27:58,1557080909,2019-05-06 02:28:29,1557080940,5ccf2b2a4cc894000181e834,http://dashboard.d-lab.io/postback?clickid=5ccf2b2a4cc894000181e834&secure=bd16ae7d609965b6d66bdfc7d1eb046e,idfa_691F3759-A710-42A2-92EE-D4AA7AD408C2,zh-HK
Hqn_p078TCqnZ6E_xDlVjg,dlab,24_9091_263886,Install,3.4,223.19.188.197,6CEAC0F0-2096-47F5-BF57-AE713F7ACBC8,1557004887,2019-05-05 05:21:27,1557211775,2019-05-07 14:49:35,1557211805,5cce02534cc89400018a1fe1,http://dashboard.d-lab.io/postback?clickid=5cce02534cc89400018a1fe1&secure=bd16ae7d609965b6d66bdfc7d1eb046e,idfa_6CEAC0F0-2096-47F5-BF57-AE713F7ACBC8,zh-HK-hk
Hqn_p078TCqnZ6E_xDlVjg,dlab,24_1514,Install,3.4,223.197.162.15,025F120F-F1A9-4DBC-B52D-C3683B4E1539,1556822863,2019-05-03 02:47:43,1556822898,2019-05-03 02:48:18,1556822928,5ccb3b4b4cc894000183f37d,http://dashboard.d-lab.io/postback?clickid=5ccb3b4b4cc894000183f37d&secure=bd16ae7d609965b6d66bdfc7d1eb046e,idfa_025F120F-F1A9-4DBC-B52D-C3683B4E1539,zh-HK-hk
Hqn_p078TCqnZ6E_xDlVjg,dlab,24_4836_54488,Install,3.4,223.197.223.165,10B421E2-2864-4A5A-8223-89A9829213B0,1557081446,2019-05-06 02:37:26,1557081475,2019-05-06 02:37:55,1557081505,5ccf2d604cc894000198c3b6,http://dashboard.d-lab.io/postback?clickid=5ccf2d604cc894000198c3b6&secure=bd16ae7d609965b6d66bdfc7d1eb046e,idfa_10B421E2-2864-4A5A-8223-89A9829213B0,zh-HK
Hqn_p078TCqnZ6E_xDlVjg,dlab,24_2733,Install,3.4,203.198.124.70,A79D7897-B38C-47B7-8404-FCEEFDAE00F5,1556820992,2019-05-03 02:16:32,1556821037,2019-05-03 02:17:17,1556821067,5ccb33fb4cc8940001100b3e,http://dashboard.d-lab.io/postback?clickid=5ccb33fb4cc8940001100b3e&secure=bd16ae7d609965b6d66bdfc7d1eb046e,idfa_A79D7897-B38C-47B7-8404-FCEEFDAE00F5,zh-HK-hk
Hqn_p078TCqnZ6E_xDlVjg,dlab,24_4201_4753620,Install,3.4,218.255.108.202,9C3D7019-F7CF-46C3-AEF7-6D6F8E289C68,1557081432,2019-05-06 02:37:12,1557081464,2019-05-06 02:37:44,1557081495,5ccf2d544cc8940001983bd9,http://dashboard.d-lab.io/postback?clickid=5ccf2d544cc8940001983bd9&secure=bd16ae7d609965b6d66bdfc7d1eb046e,idfa_9C3D7019-F7CF-46C3-AEF7-6D6F8E289C68,zh-HK
Hqn_p078TCqnZ6E_xDlVjg,dlab,24_7133,Install,3.4,218.103.116.121,D558477A-8FD7-4E07-A9F5-EEF400305855,1557004327,2019-05-05 05:12:07,1557004358,2019-05-05 05:12:38,1557004393,5cce001c4cc894000177bdf9,http://dashboard.d-lab.io/postback?clickid=5cce001c4cc894000177bdf9&secure=bd16ae7d609965b6d66bdfc7d1eb046e,idfa_D558477A-8FD7-4E07-A9F5-EEF400305855,zh-HK
Hqn_p078TCqnZ6E_xDlVjg,dlab,24_6852,Install,3.4,116.48.159.160,149922DD-991B-4A37-AB63-C75CAA9B53D0,1556821400,2019-05-03 02:23:20,1556821442,2019-05-03 02:24:02,1556821472,5ccb35954cc894000129107f,http://dashboard.d-lab.io/postback?clickid=5ccb35954cc894000129107f&secure=bd16ae7d609965b6d66bdfc7d1eb046e,idfa_149922DD-991B-4A37-AB63-C75CAA9B53D0,zh-HK
Hqn_p078TCqnZ6E_xDlVjg,dlab,24_5211,Install,3.4,203.198.151.85,F98E84A8-12AE-4A3D-ADB0-867C580FA7EC,1556924369,2019-05-04 06:59:29,1556924400,2019-05-04 07:00:00,1556924431,5cccc7cd4cc8940001a01e32,http://dashboard.d-lab.io/postback?clickid=5cccc7cd4cc8940001a01e32&secure=bd16ae7d609965b6d66bdfc7d1eb046e,idfa_F98E84A8-12AE-4A3D-ADB0-867C580FA7EC,zh-HK-hk
Hqn_p078TCqnZ6E_xDlVjg,dlab,24_4236_81928739,Install,3.4,1.64.58.40,3B15C4B5-7B06-4A7A-95CD-BD33BF657984,1557166020,2019-05-07 02:07:00,1557166063,2019-05-07 02:07:43,1557166093,5cd077c14cc89400012788a2,http://dashboard.d-lab.io/postback?clickid=5cd077c14cc89400012788a2&secure=bd16ae7d609965b6d66bdfc7d1eb046e,idfa_3B15C4B5-7B06-4A7A-95CD-BD33BF657984,zh-HK-hk
Hqn_p078TCqnZ6E_xDlVjg,dlab,24_9091_263886,Install,3.4,223.197.223.164,F5BB50A9-2414-4E72-AAB3-5D5875DCA52A,1557005031,2019-05-05 05:23:51,1557005090,2019-05-05 05:24:50,1557005120,5cce02e24cc89400018e811d,http://dashboard.d-lab.io/postback?clickid=5cce02e24cc89400018e811d&secure=bd16ae7d609965b6d66bdfc7d1eb046e,idfa_F5BB50A9-2414-4E72-AAB3-5D5875DCA52A,zh-HK
Hqn_p078TCqnZ6E_xDlVjg,dlab,24_4233,Install,3.4,210.56.56.213,6CFB841F-3A72-44E8-9F84-DE7A793F87CA,1557002923,2019-05-05 04:48:43,1557002956,2019-05-05 04:49:16,1557002987,5ccdfaa74cc894000148787b,http://dashboard.d-lab.io/postback?clickid=5ccdfaa74cc894000148787b&secure=bd16ae7d609965b6d66bdfc7d1eb046e,idfa_6CFB841F-3A72-44E8-9F84-DE7A793F87CA,zh-HK-hk
Hqn_p078TCqnZ6E_xDlVjg,dlab,24_4836_54488,Install,3.4,182.239.58.150,0D269B31-C8BC-4BD8-9255-0E18D0DC213A,1557080589,2019-05-06 02:23:09,1557080620,2019-05-06 02:23:40,1557080650,5ccf2a0a4cc8940001761300,http://dashboard.d-lab.io/postback?clickid=5ccf2a0a4cc8940001761300&secure=bd16ae7d609965b6d66bdfc7d1eb046e,idfa_0D269B31-C8BC-4BD8-9255-0E18D0DC213A,zh-HK-hk
Hqn_p078TCqnZ6E_xDlVjg,dlab,24_3706,Install,3.4,202.82.230.225,9CEA6E75-F79E-433B-9315-F8D060609402,1556924264,2019-05-04 06:57:44,1556924307,2019-05-04 06:58:27,1556924338,5cccc7654cc89400019b97ae,http://dashboard.d-lab.io/postback?clickid=5cccc7654cc89400019b97ae&secure=bd16ae7d609965b6d66bdfc7d1eb046e,idfa_9CEA6E75-F79E-433B-9315-F8D060609402,zh-HK
Hqn_p078TCqnZ6E_xDlVjg,dlab,24_3805,Install,3.4,202.82.230.225,38F7484E-EAD0-4D1E-B68F-745129BAB292,1557080596,2019-05-06 02:23:16,1557080625,2019-05-06 02:23:45,1557080655,5ccf2a104cc89400017659e2,http://dashboard.d-lab.io/postback?clickid=5ccf2a104cc89400017659e2&secure=bd16ae7d609965b6d66bdfc7d1eb046e,idfa_38F7484E-EAD0-4D1E-B68F-745129BAB292,zh-HK-hk
Hqn_p078TCqnZ6E_xDlVjg,dlab,24_6838_473198,Install,3.4,182.239.58.150,C1363DBB-56D8-4FFD-9881-BCCBD222418A,1557002426,2019-05-05 04:40:26,1557002454,2019-05-05 04:40:54,1557002484,5ccdf8b54cc894000138e20e,http://dashboard.d-lab.io/postback?clickid=5ccdf8b54cc894000138e20e&secure=bd16ae7d609965b6d66bdfc7d1eb046e,idfa_C1363DBB-56D8-4FFD-9881-BCCBD222418A,zh-HK
Hqn_p078TCqnZ6E_xDlVjg,dlab,24_9176,Install,3.4,103.6.178.202,5B02C1F5-477F-4BD9-90C4-0FFDD6EAF17F,1556821139,2019-05-03 02:18:59,1556821182,2019-05-03 02:19:42,1556821213,5ccb348f4cc89400011910de,http://dashboard.d-lab.io/postback?clickid=5ccb348f4cc89400011910de&secure=bd16ae7d609965b6d66bdfc7d1eb046e,idfa_5B02C1F5-477F-4BD9-90C4-0FFDD6EAF17F,zh-HK
Hqn_p078TCqnZ6E_xDlVjg,dlab,24_8372_31928,Install,3.4,218.189.15.187,40F1EA15-B463-41A5-8BAB-ECD0EE31FCF9,1557166964,2019-05-07 02:22:44,1557166996,2019-05-07 02:23:16,1557167026,5cd07b704cc89400014d68dd,http://dashboard.d-lab.io/postback?clickid=5cd07b704cc89400014d68dd&secure=bd16ae7d609965b6d66bdfc7d1eb046e,idfa_40F1EA15-B463-41A5-8BAB-ECD0EE31FCF9,zh-HK
Hqn_p078TCqnZ6E_xDlVjg,dlab,24_8513_19279999,Install,3.4,113.254.52.181,BEBD3A98-2E68-4987-AE5E-337685F78E3F,1556822377,2019-05-03 02:39:37,1557052955,2019-05-05 18:42:35,1557052986,5ccb39654cc89400016490d9,http://dashboard.d-lab.io/postback?clickid=5ccb39654cc89400016490d9&secure=bd16ae7d609965b6d66bdfc7d1eb046e,idfa_BEBD3A98-2E68-4987-AE5E-337685F78E3F,zh-HK-hk
Hqn_p078TCqnZ6E_xDlVjg,dlab,24_1514,Install,3.4,103.6.51.114,97C4D0AC-2EEA-419B-9C9E-BBE38DE357A2,1556823141,2019-05-03 02:52:21,1556823180,2019-05-03 02:53:00,1556823210,5ccb3c5f4cc894000195c8b9,http://dashboard.d-lab.io/postback?clickid=5ccb3c5f4cc894000195c8b9&secure=bd16ae7d609965b6d66bdfc7d1eb046e,idfa_97C4D0AC-2EEA-419B-9C9E-BBE38DE357A2,zh-HK-hk
Hqn_p078TCqnZ6E_xDlVjg,dlab,24_8513_19279999,Install,3.4,125.31.39.187,866F820E-7F13-4B57-B2F1-EAB704E527C6,1556819996,2019-05-03 01:59:56,1556820033,2019-05-03 02:00:33,1556820133,5ccb30184cc8940001d28f84,http://dashboard.d-lab.io/postback?clickid=5ccb30184cc8940001d28f84&secure=bd16ae7d609965b6d66bdfc7d1eb046e,idfa_866F820E-7F13-4B57-B2F1-EAB704E527C6,zh-Hant-SG
Hqn_p078TCqnZ6E_xDlVjg,dlab,24_7133,Install,3.4,210.56.56.213,599EA96B-A229-4EBD-9715-6DBBBE05BB4F,1557002329,2019-05-05 04:38:49,1557002358,2019-05-05 04:39:18,1557002388,5ccdf8564cc894000135d6a5,http://dashboard.d-lab.io/postback?clickid=5ccdf8564cc894000135d6a5&secure=bd16ae7d609965b6d66bdfc7d1eb046e,idfa_599EA96B-A229-4EBD-9715-6DBBBE05BB4F,zh-HK
Hqn_p078TCqnZ6E_xDlVjg,dlab,24_8816,Install,3.4,202.82.230.225,25E1A6D4-AB78-4F3A-A0D0-A836B7AE3AD3,1557000162,2019-05-05 04:02:42,1557000196,2019-05-05 04:03:16,1557000226,5ccdefdf4cc8940001e90cdf,http://dashboard.d-lab.io/postback?clickid=5ccdefdf4cc8940001e90cdf&secure=bd16ae7d609965b6d66bdfc7d1eb046e,idfa_25E1A6D4-AB78-4F3A-A0D0-A836B7AE3AD3,zh-HK-in
Hqn_p078TCqnZ6E_xDlVjg,dlab,24_3805,Install,3.4,218.255.189.26,DE109F65-2BE6-41D8-87C1-8A657830159C,1557081729,2019-05-06 02:42:09,1557081794,2019-05-06 02:43:14,1557081824,5ccf2e764cc8940001a43bcb,http://dashboard.d-lab.io/postback?clickid=5ccf2e764cc8940001a43bcb&secure=bd16ae7d609965b6d66bdfc7d1eb046e,idfa_DE109F65-2BE6-41D8-87C1-8A657830159C,zh-HK
Hqn_p078TCqnZ6E_xDlVjg,dlab,24_1675,Install,3.4,210.56.56.213,F5C90512-3462-49F6-930E-2C8B8D007BC8,1556821439,2019-05-03 02:23:59,1556821477,2019-05-03 02:24:37,1556821508,5ccb35b64cc89400012b0ef9,http://dashboard.d-lab.io/postback?clickid=5ccb35b64cc89400012b0ef9&secure=bd16ae7d609965b6d66bdfc7d1eb046e,idfa_F5C90512-3462-49F6-930E-2C8B8D007BC8,zh-HK
Hqn_p078TCqnZ6E_xDlVjg,dlab,24_3483_928832,Install,3.4,223.197.250.232,CE91D1AB-EF38-4248-8FC9-A59CF5E9CB19,1557002713,2019-05-05 04:45:13,1557002763,2019-05-05 04:46:03,1557002794,5ccdf9d34cc8940001419ff5,http://dashboard.d-lab.io/postback?clickid=5ccdf9d34cc8940001419ff5&secure=bd16ae7d609965b6d66bdfc7d1eb046e,idfa_CE91D1AB-EF38-4248-8FC9-A59CF5E9CB19,zh-HK
Hqn_p078TCqnZ6E_xDlVjg,dlab,24_3805,Install,3.4,203.198.149.181,57A870E6-E8FB-4F57-8700-2D3306F763D4,1557080101,2019-05-06 02:15:01,1557080129,2019-05-06 02:15:29,1557080160,5ccf28214cc8940001620a4d,http://dashboard.d-lab.io/postback?clickid=5ccf28214cc8940001620a4d&secure=bd16ae7d609965b6d66bdfc7d1eb046e,idfa_57A870E6-E8FB-4F57-8700-2D3306F763D4,zh-HK-hk
Hqn_p078TCqnZ6E_xDlVjg,dlab,24_1675,Install,3.4,218.103.126.211,0F16E966-6341-4E7E-BF88-E622843861B2,1556820849,2019-05-03 02:14:09,1556820892,2019-05-03 02:14:52,1556820922,5ccb336c4cc8940001075b8e,http://dashboard.d-lab.io/postback?clickid=5ccb336c4cc8940001075b8e&secure=bd16ae7d609965b6d66bdfc7d1eb046e,idfa_0F16E966-6341-4E7E-BF88-E622843861B2,zh-HK
Hqn_p078TCqnZ6E_xDlVjg,dlab,24_8086_44428,Install,3.4,202.175.173.66,4981A520-5DA6-493E-AA0F-5B8609B72021,1556820320,2019-05-03 02:05:20,1556820376,2019-05-03 02:06:16,1556820406,5ccb315d4cc8940001e6ce83,http://dashboard.d-lab.io/postback?clickid=5ccb315d4cc8940001e6ce83&secure=bd16ae7d609965b6d66bdfc7d1eb046e,idfa_4981A520-5DA6-493E-AA0F-5B8609B72021,zh-CN
Hqn_p078TCqnZ6E_xDlVjg,dlab,24_4123,Install,3.4,203.198.151.85,170DD04D-58AD-4524-834C-1196FE7D84DA,1557080947,2019-05-06 02:29:07,1557080977,2019-05-06 02:29:37,1557081007,5ccf2b6f4cc89400018495c7,http://dashboard.d-lab.io/postback?clickid=5ccf2b6f4cc89400018495c7&secure=bd16ae7d609965b6d66bdfc7d1eb046e,idfa_170DD04D-58AD-4524-834C-1196FE7D84DA,zh-HK
Hqn_p078TCqnZ6E_xDlVjg,dlab,24_7133,Install,3.4,223.197.250.232,9B6CFDCA-6D90-47F8-A6AE-A74E079B2E65,1557002193,2019-05-05 04:36:33,1557002225,2019-05-05 04:37:05,1557002255,5ccdf7cb4cc8940001318378,http://dashboard.d-lab.io/postback?clickid=5ccdf7cb4cc8940001318378&secure=bd16ae7d609965b6d66bdfc7d1eb046e,idfa_9B6CFDCA-6D90-47F8-A6AE-A74E079B2E65,zh-HK-hk
Hqn_p078TCqnZ6E_xDlVjg,dlab,24_3706,Install,3.4,182.239.58.150,A6AF3976-6CEA-4136-85B0-84F7E3581A2A,1556925786,2019-05-04 07:23:06,1556925844,2019-05-04 07:24:04,1556925874,5ccccd564cc8940001e2bedf,http://dashboard.d-lab.io/postback?clickid=5ccccd564cc8940001e2bedf&secure=bd16ae7d609965b6d66bdfc7d1eb046e,idfa_A6AF3976-6CEA-4136-85B0-84F7E3581A2A,zh-HK
Hqn_p078TCqnZ6E_xDlVjg,dlab,24_6826_5165085,Install,3.4,202.82.230.225,7B614836-2A61-486C-83FA-53B63510D776,1556924879,2019-05-04 07:07:59,1556924907,2019-05-04 07:08:27,1556924937,5cccc9cc4cc8940001b7de55,http://dashboard.d-lab.io/postback?clickid=5cccc9cc4cc8940001b7de55&secure=bd16ae7d609965b6d66bdfc7d1eb046e,idfa_7B614836-2A61-486C-83FA-53B63510D776,zh-HK-hk
Hqn_p078TCqnZ6E_xDlVjg,dlab,24_4737,Install,3.4,202.82.133.61,CA15DC99-458E-4E3C-AA3F-ECA8A943A141,1556755531,2019-05-02 08:05:31,1556755590,2019-05-02 08:06:30,1556755621,5cca34444cc8940001c28f72,http://dashboard.d-lab.io/postback?clickid=5cca34444cc8940001c28f72&secure=bd16ae7d609965b6d66bdfc7d1eb046e,idfa_CA15DC99-458E-4E3C-AA3F-ECA8A943A141,zh-HK-HK
Hqn_p078TCqnZ6E_xDlVjg,dlab,24_8816,Install,3.4,182.239.58.150,AEF5D3AA-ACFE-4971-A0F1-0ECFC5C5A556,1557003154,2019-05-05 04:52:34,1557003192,2019-05-05 04:53:12,1557003222,5ccdfb8f4cc89400014fff5e,http://dashboard.d-lab.io/postback?clickid=5ccdfb8f4cc89400014fff5e&secure=bd16ae7d609965b6d66bdfc7d1eb046e,idfa_AEF5D3AA-ACFE-4971-A0F1-0ECFC5C5A556,zh-HK-hk
Hqn_p078TCqnZ6E_xDlVjg,dlab,24_3705_38523,Install,3.4,121.202.255.188,5C06EEA0-0884-440E-B33D-895E85976C8F,1557166213,2019-05-07 02:10:13,1557166248,2019-05-07 02:10:48,1557166279,5cd078804cc89400012f429a,http://dashboard.d-lab.io/postback?clickid=5cd078804cc89400012f429a&secure=bd16ae7d609965b6d66bdfc7d1eb046e,idfa_5C06EEA0-0884-440E-B33D-895E85976C8F,zh-HK-hk
