cid,partner_id,channel_id,action_id,cpi,ip,idfa,click time,click datetime,install time,install datetime,postback time,click id,postback url,unique user id
NMYbaTrrQwey2_P859ujCw,dlab,24_5193_278536,Install,1.7,118.14.20.36,3E236B51-CF8D-498D-B927-90C7F2B5FA41,1557299468,2019-05-08 15:11:08,1557299526,2019-05-08 15:12:06,1557299557,5cd280fe4cc8940001f7bcf0,http://dashboard.d-lab.io/postback?clickid=5cd280fe4cc8940001f7bcf0&secure=bd16ae7d609965b6d66bdfc7d1eb046e,idfa_3E236B51-CF8D-498D-B927-90C7F2B5FA41,ja
NMYbaTrrQwey2_P859ujCw,dlab,24_5193_278536,Install,1.7,111.99.230.36,5A308F09-CC88-49CF-AA1D-9A26765198A5,1557290737,2019-05-08 12:45:37,1557290810,2019-05-08 12:46:50,1557290841,5cd25edd4cc8940001993677,http://dashboard.d-lab.io/postback?clickid=5cd25edd4cc8940001993677&secure=bd16ae7d609965b6d66bdfc7d1eb046e,idfa_5A308F09-CC88-49CF-AA1D-9A26765198A5,ja
NMYbaTrrQwey2_P859ujCw,dlab,24_5193_278536,Install,1.7,36.11.225.191,BEECCA51-B612-452D-9622-DF16D3BA2860,1557308338,2019-05-08 17:38:58,1557308393,2019-05-08 17:39:53,1557308428,5cd2a3a14cc89400010895a0,http://dashboard.d-lab.io/postback?clickid=5cd2a3a14cc89400010895a0&secure=bd16ae7d609965b6d66bdfc7d1eb046e,idfa_BEECCA51-B612-452D-9622-DF16D3BA2860,ja
NMYbaTrrQwey2_P859ujCw,dlab,24_5193_278536,Install,1.7,202.248.246.253,33EDDC65-B7A5-4453-BC41-8101BF7000CA,1557298070,2019-05-08 14:47:50,1557298141,2019-05-08 14:49:01,1557298172,5cd27b8b4cc8940001c2c7ea,http://dashboard.d-lab.io/postback?clickid=5cd27b8b4cc8940001c2c7ea&secure=bd16ae7d609965b6d66bdfc7d1eb046e,idfa_33EDDC65-B7A5-4453-BC41-8101BF7000CA,ja
NMYbaTrrQwey2_P859ujCw,dlab,24_5193_278536,Install,1.7,153.222.211.92,59F2384D-E72A-4DC3-81F0-1424E872CC1F,1557298133,2019-05-08 14:48:53,1557298221,2019-05-08 14:50:21,1557298252,5cd27bc64cc8940001c53372,http://dashboard.d-lab.io/postback?clickid=5cd27bc64cc8940001c53372&secure=bd16ae7d609965b6d66bdfc7d1eb046e,idfa_59F2384D-E72A-4DC3-81F0-1424E872CC1F,ja-JP
NMYbaTrrQwey2_P859ujCw,dlab,24_5193_278536,Install,1.7,122.134.36.114,8FC3307D-7B1F-4BD5-A1C9-4D4254D03B48,1557294310,2019-05-08 13:45:10,1557294376,2019-05-08 13:46:16,1557294406,5cd26cd64cc894000124f129,http://dashboard.d-lab.io/postback?clickid=5cd26cd64cc894000124f129&secure=bd16ae7d609965b6d66bdfc7d1eb046e,idfa_8FC3307D-7B1F-4BD5-A1C9-4D4254D03B48,ja
NMYbaTrrQwey2_P859ujCw,dlab,24_5193_278536,Install,1.7,118.14.20.36,ABDFC088-0481-4338-90BB-E9AF25B9DA0F,1557299696,2019-05-08 15:14:56,1557299750,2019-05-08 15:15:50,1557299781,5cd281e34cc8940001ff654e,http://dashboard.d-lab.io/postback?clickid=5cd281e34cc8940001ff654e&secure=bd16ae7d609965b6d66bdfc7d1eb046e,idfa_ABDFC088-0481-4338-90BB-E9AF25B9DA0F,ja
NMYbaTrrQwey2_P859ujCw,dlab,24_5193_278536,Install,1.7,61.7.28.231,73A63889-8BCC-4951-9B51-819EC5C4FB59,1557308773,2019-05-08 17:46:13,1557308833,2019-05-08 17:47:13,1557308902,5cd2a5574cc8940001168ca1,http://dashboard.d-lab.io/postback?clickid=5cd2a5574cc8940001168ca1&secure=bd16ae7d609965b6d66bdfc7d1eb046e,idfa_73A63889-8BCC-4951-9B51-819EC5C4FB59,ja
NMYbaTrrQwey2_P859ujCw,dlab,24_5193_278536,Install,1.7,130.34.46.51,8BED7848-24D7-4B1A-8277-D3DE6284895D,1557291248,2019-05-08 12:54:08,1557293094,2019-05-08 13:24:54,1557293125,5cd260ef4cc8940001b05856,http://dashboard.d-lab.io/postback?clickid=5cd260ef4cc8940001b05856&secure=bd16ae7d609965b6d66bdfc7d1eb046e,idfa_8BED7848-24D7-4B1A-8277-D3DE6284895D,ja-JP
NMYbaTrrQwey2_P859ujCw,dlab,24_5193_278536,Install,1.7,61.197.165.41,446FD16D-DB80-49DC-AD00-9BD4604CFB11,1557300770,2019-05-08 15:32:50,1557300845,2019-05-08 15:34:05,1557300875,5cd286164cc8940001224910,http://dashboard.d-lab.io/postback?clickid=5cd286164cc8940001224910&secure=bd16ae7d609965b6d66bdfc7d1eb046e,idfa_446FD16D-DB80-49DC-AD00-9BD4604CFB11,ja
NMYbaTrrQwey2_P859ujCw,dlab,24_5193_278536,Install,1.7,49.98.47.179,,1557292634,2019-05-08 13:17:14,1557294314,2019-05-08 13:45:14,1557294344,5cd266594cc8940001e3958f,http://dashboard.d-lab.io/postback?clickid=5cd266594cc8940001e3958f&secure=bd16ae7d609965b6d66bdfc7d1eb046e,ip_49.98.47.179,ja-JP
NMYbaTrrQwey2_P859ujCw,dlab,24_5193_278536,Install,1.7,182.166.184.76,0F509D50-709D-47EC-85B4-A8E1E51B7CE0,1557299364,2019-05-08 15:09:24,1557299440,2019-05-08 15:10:40,1557299471,5cd280934cc8940001f4146c,http://dashboard.d-lab.io/postback?clickid=5cd280934cc8940001f4146c&secure=bd16ae7d609965b6d66bdfc7d1eb046e,idfa_0F509D50-709D-47EC-85B4-A8E1E51B7CE0,ja
NMYbaTrrQwey2_P859ujCw,dlab,24_5193_278536,Install,1.7,222.230.119.145,74C06CBB-5C89-4F46-BF31-CCE59BB41EE0,1557293865,2019-05-08 13:37:45,1557293951,2019-05-08 13:39:11,1557293981,5cd26b134cc89400011375a8,http://dashboard.d-lab.io/postback?clickid=5cd26b134cc89400011375a8&secure=bd16ae7d609965b6d66bdfc7d1eb046e,idfa_74C06CBB-5C89-4F46-BF31-CCE59BB41EE0,ja
NMYbaTrrQwey2_P859ujCw,dlab,24_5193_278536,Install,1.7,118.243.74.206,781C8E70-EAEC-466F-8EF7-7427D5A77412,1557303819,2019-05-08 16:23:39,1557303883,2019-05-08 16:24:43,1557303918,5cd291fc4cc8940001802d49,http://dashboard.d-lab.io/postback?clickid=5cd291fc4cc8940001802d49&secure=bd16ae7d609965b6d66bdfc7d1eb046e,idfa_781C8E70-EAEC-466F-8EF7-7427D5A77412,ja
NMYbaTrrQwey2_P859ujCw,dlab,24_5193_278536,Install,1.7,153.146.158.178,AB8463D0-A9C6-4194-A5BF-D2657C08462C,1557308659,2019-05-08 17:44:19,1557308747,2019-05-08 17:45:47,1557308778,5cd2a4f04cc8940001134bf3,http://dashboard.d-lab.io/postback?clickid=5cd2a4f04cc8940001134bf3&secure=bd16ae7d609965b6d66bdfc7d1eb046e,idfa_AB8463D0-A9C6-4194-A5BF-D2657C08462C,ja-JP
NMYbaTrrQwey2_P859ujCw,dlab,24_5193_278536,Install,1.7,122.24.188.153,F6937DB4-BFC5-41EA-B53C-0FC1AE561B8A,1557292707,2019-05-08 13:18:27,1557292821,2019-05-08 13:20:21,1557292853,5cd266914cc8940001e5762a,http://dashboard.d-lab.io/postback?clickid=5cd266914cc8940001e5762a&secure=bd16ae7d609965b6d66bdfc7d1eb046e,idfa_F6937DB4-BFC5-41EA-B53C-0FC1AE561B8A,ja-JP
NMYbaTrrQwey2_P859ujCw,dlab,24_5193_278536,Install,1.7,210.139.111.101,0C402FAC-7C13-48B3-9B78-0FAA8615F295,1557305702,2019-05-08 16:55:02,1557305829,2019-05-08 16:57:09,1557305860,5cd299584cc8940001b76db5,http://dashboard.d-lab.io/postback?clickid=5cd299584cc8940001b76db5&secure=bd16ae7d609965b6d66bdfc7d1eb046e,idfa_0C402FAC-7C13-48B3-9B78-0FAA8615F295,ja-JP
NMYbaTrrQwey2_P859ujCw,dlab,24_5193_278536,Install,1.7,60.47.226.141,69A7D722-1BEB-4CA3-8815-BA36752D06B5,1557301680,2019-05-08 15:48:00,1557301769,2019-05-08 15:49:29,1557301800,5cd2899e4cc89400013e6302,http://dashboard.d-lab.io/postback?clickid=5cd2899e4cc89400013e6302&secure=bd16ae7d609965b6d66bdfc7d1eb046e,idfa_69A7D722-1BEB-4CA3-8815-BA36752D06B5,ja-JP
NMYbaTrrQwey2_P859ujCw,dlab,24_5193_278536,Install,1.7,125.13.134.101,9DF3DA6E-5DAA-4D1A-A43B-9F6CDC419FAD,1557309834,2019-05-08 18:03:54,1557309943,2019-05-08 18:05:43,1557309974,5cd2a9774cc89400013886d1,http://dashboard.d-lab.io/postback?clickid=5cd2a9774cc89400013886d1&secure=bd16ae7d609965b6d66bdfc7d1eb046e,idfa_9DF3DA6E-5DAA-4D1A-A43B-9F6CDC419FAD,ja-JP
NMYbaTrrQwey2_P859ujCw,dlab,24_5193_278536,Install,1.7,114.142.71.119,0AA43AE6-6041-48C3-815F-2BF38AD92D72,1557290965,2019-05-08 12:49:25,1557291036,2019-05-08 12:50:36,1557291077,5cd25fc84cc8940001a2df76,http://dashboard.d-lab.io/postback?clickid=5cd25fc84cc8940001a2df76&secure=bd16ae7d609965b6d66bdfc7d1eb046e,idfa_0AA43AE6-6041-48C3-815F-2BF38AD92D72,ja
NMYbaTrrQwey2_P859ujCw,dlab,24_5193_278536,Install,1.7,112.71.215.62,4C9825C0-51C3-49BD-94E7-BBADEF28AF0C,1557294503,2019-05-08 13:48:23,1557294615,2019-05-08 13:50:15,1557294645,5cd26d954cc89400012d343b,http://dashboard.d-lab.io/postback?clickid=5cd26d954cc89400012d343b&secure=bd16ae7d609965b6d66bdfc7d1eb046e,idfa_4C9825C0-51C3-49BD-94E7-BBADEF28AF0C,ja-JP
NMYbaTrrQwey2_P859ujCw,dlab,24_5193_278536,Install,1.7,14.13.145.32,53A834CC-5591-4805-B158-229445361AF8,1557295012,2019-05-08 13:56:52,1557295095,2019-05-08 13:58:15,1557295125,5cd26f984cc8940001420ca8,http://dashboard.d-lab.io/postback?clickid=5cd26f984cc8940001420ca8&secure=bd16ae7d609965b6d66bdfc7d1eb046e,idfa_53A834CC-5591-4805-B158-229445361AF8,ja
NMYbaTrrQwey2_P859ujCw,dlab,24_5193_278536,Install,1.7,110.54.45.167,E972BC06-0C72-45F5-BDA1-4FDA56D0D050,1557295517,2019-05-08 14:05:17,1557295596,2019-05-08 14:06:36,1557295627,5cd271894cc894000157404b,http://dashboard.d-lab.io/postback?clickid=5cd271894cc894000157404b&secure=bd16ae7d609965b6d66bdfc7d1eb046e,idfa_E972BC06-0C72-45F5-BDA1-4FDA56D0D050,ja
