cid,partner_id,channel_id,action_id,cpi,ip,idfa,click time,click datetime,install time,install datetime,postback time,click id,postback url,unique user id
SWUIzwroRJePFxTBJE2vnw,dlab,8_rysfx937574f20b4,Install,1.6,121.160.165.136,85f8a399-ab50-47a6-a719-a92b91652181,1556976944,2019-05-04 21:35:44,1556977102,2019-05-04 21:38:22,1556977109,5ccd952b4cc89400013bf2d7,http://dashboard.d-lab.io/postback?clickid=5ccd952b4cc89400013bf2d7&secure=bd16ae7d609965b6d66bdfc7d1eb046e,idfa_85f8a399-ab50-47a6-a719-a92b91652181,ko
SWUIzwroRJePFxTBJE2vnw,dlab,8_rysfx937574f20b4,Install,1.6,14.43.79.140,dc220241-6d45-48ed-b2b7-634ca45b9162,1556975299,2019-05-04 21:08:19,1556975452,2019-05-04 21:10:52,1556975459,5ccd8eb74cc8940001ee4061,http://dashboard.d-lab.io/postback?clickid=5ccd8eb74cc8940001ee4061&secure=bd16ae7d609965b6d66bdfc7d1eb046e,idfa_dc220241-6d45-48ed-b2b7-634ca45b9162,ko
SWUIzwroRJePFxTBJE2vnw,dlab,8_rysfx937574f20b4,Install,1.6,61.77.105.232,7a196ca6-a15b-412c-8c64-8a7e76d1425c,1556977049,2019-05-04 21:37:29,1556977196,2019-05-04 21:39:56,1556977203,5ccd95944cc8940001407f0e,http://dashboard.d-lab.io/postback?clickid=5ccd95944cc8940001407f0e&secure=bd16ae7d609965b6d66bdfc7d1eb046e,idfa_7a196ca6-a15b-412c-8c64-8a7e76d1425c,ko
SWUIzwroRJePFxTBJE2vnw,dlab,8_rysfx937574f20b4,Install,1.6,220.126.189.241,ceb6400a-5b60-420e-9417-c503a91a042c,1556913386,2019-05-04 03:56:26,1556913489,2019-05-04 03:58:09,1556913502,5ccc9ce04cc8940001c8050d,http://dashboard.d-lab.io/postback?clickid=5ccc9ce04cc8940001c8050d&secure=bd16ae7d609965b6d66bdfc7d1eb046e,idfa_ceb6400a-5b60-420e-9417-c503a91a042c,ko
SWUIzwroRJePFxTBJE2vnw,dlab,8_rysfx937574f20b4,Install,1.6,223.28.243.244,d797906c-aa64-43d5-9472-991819e89d6b,1556913299,2019-05-04 03:54:59,1556913635,2019-05-04 04:00:35,1556913642,5ccc9c7d4cc8940001c43660,http://dashboard.d-lab.io/postback?clickid=5ccc9c7d4cc8940001c43660&secure=bd16ae7d609965b6d66bdfc7d1eb046e,idfa_d797906c-aa64-43d5-9472-991819e89d6b,ko
SWUIzwroRJePFxTBJE2vnw,dlab,8_rysfx937574f20b4,Install,1.6,183.97.106.140,bcca758e-f8cc-4213-931e-11f2c8ef44a8,1556974024,2019-05-04 20:47:04,1556974181,2019-05-04 20:49:41,1556974191,5ccd89c24cc8940001ad7ac5,http://dashboard.d-lab.io/postback?clickid=5ccd89c24cc8940001ad7ac5&secure=bd16ae7d609965b6d66bdfc7d1eb046e,idfa_bcca758e-f8cc-4213-931e-11f2c8ef44a8,ko
SWUIzwroRJePFxTBJE2vnw,dlab,8_rysfx937574f20b4,Install,1.6,115.89.11.34,f0c504c5-bd55-4dde-85a9-327f34b1208e,1556927720,2019-05-04 07:55:20,1556927874,2019-05-04 07:57:54,1556927881,5cccd4e24cc894000143fc2a,http://dashboard.d-lab.io/postback?clickid=5cccd4e24cc894000143fc2a&secure=bd16ae7d609965b6d66bdfc7d1eb046e,idfa_f0c504c5-bd55-4dde-85a9-327f34b1208e,ko
SWUIzwroRJePFxTBJE2vnw,dlab,8_rysfx937574f20b4,Install,1.6,112.222.68.235,47cbddb9-639d-4694-a11b-396259e10c7b,1556976263,2019-05-04 21:24:23,1556976506,2019-05-04 21:28:26,1556976513,5ccd927e4cc89400011a6b16,http://dashboard.d-lab.io/postback?clickid=5ccd927e4cc89400011a6b16&secure=bd16ae7d609965b6d66bdfc7d1eb046e,idfa_47cbddb9-639d-4694-a11b-396259e10c7b,ko
SWUIzwroRJePFxTBJE2vnw,dlab,8_rysfx937574f20b4,Install,1.6,125.143.229.253,7e043ea1-d73a-4a8c-b488-0c146b25cdb3,1556977017,2019-05-04 21:36:57,1556977244,2019-05-04 21:40:44,1556977251,5ccd95694cc89400013ea084,http://dashboard.d-lab.io/postback?clickid=5ccd95694cc89400013ea084&secure=bd16ae7d609965b6d66bdfc7d1eb046e,idfa_7e043ea1-d73a-4a8c-b488-0c146b25cdb3,ko
SWUIzwroRJePFxTBJE2vnw,dlab,8_rysfx937574f20b4,Install,1.6,115.89.11.34,56e800da-9804-4370-a1ed-94e68278fd2e,1556922247,2019-05-04 06:24:07,1556922449,2019-05-04 06:27:29,1556922456,5cccbf7d4cc894000140c17a,http://dashboard.d-lab.io/postback?clickid=5cccbf7d4cc894000140c17a&secure=bd16ae7d609965b6d66bdfc7d1eb046e,idfa_56e800da-9804-4370-a1ed-94e68278fd2e,ko
SWUIzwroRJePFxTBJE2vnw,dlab,8_rysfx937574f20b4,Install,1.6,175.212.238.6,da3d3dd3-45d8-4bae-b7c6-a2acb1b91580,1556976005,2019-05-04 21:20:05,1556976131,2019-05-04 21:22:11,1556976137,5ccd917f4cc89400010ea4a3,http://dashboard.d-lab.io/postback?clickid=5ccd917f4cc89400010ea4a3&secure=bd16ae7d609965b6d66bdfc7d1eb046e,idfa_da3d3dd3-45d8-4bae-b7c6-a2acb1b91580,ko
SWUIzwroRJePFxTBJE2vnw,dlab,8_rysfx937574f20b4,Install,1.6,112.222.68.235,04c5d367-177f-4bc3-9982-ba027c02bbda,1556922017,2019-05-04 06:20:17,1556922230,2019-05-04 06:23:50,1556922239,5cccbe904cc8940001368a73,http://dashboard.d-lab.io/postback?clickid=5cccbe904cc8940001368a73&secure=bd16ae7d609965b6d66bdfc7d1eb046e,idfa_04c5d367-177f-4bc3-9982-ba027c02bbda,ko
SWUIzwroRJePFxTBJE2vnw,dlab,8_rysfx937574f20b4,Install,1.6,222.109.161.106,97e9cda6-19a5-4858-a3bb-9d48fe76aa8b,1556976654,2019-05-04 21:30:54,1556976907,2019-05-04 21:35:07,1556976915,5ccd94034cc89400012dc93a,http://dashboard.d-lab.io/postback?clickid=5ccd94034cc89400012dc93a&secure=bd16ae7d609965b6d66bdfc7d1eb046e,idfa_97e9cda6-19a5-4858-a3bb-9d48fe76aa8b,ko
SWUIzwroRJePFxTBJE2vnw,dlab,8_rysfx937574f20b4,Install,1.6,112.222.142.154,65a8b5eb-ebda-433e-aeae-2e13efef26d2,1556975676,2019-05-04 21:14:36,1556975921,2019-05-04 21:18:41,1556975931,5ccd90324cc8940001ff4d68,http://dashboard.d-lab.io/postback?clickid=5ccd90324cc8940001ff4d68&secure=bd16ae7d609965b6d66bdfc7d1eb046e,idfa_65a8b5eb-ebda-433e-aeae-2e13efef26d2,ko
SWUIzwroRJePFxTBJE2vnw,dlab,8_rysfx937574f20b4,Install,1.6,220.127.126.139,74588911-0558-4caa-b2ae-76591a742cf0,1556974995,2019-05-04 21:03:15,1556975191,2019-05-04 21:06:31,1556975200,5ccd8d8c4cc8940001e068a0,http://dashboard.d-lab.io/postback?clickid=5ccd8d8c4cc8940001e068a0&secure=bd16ae7d609965b6d66bdfc7d1eb046e,idfa_74588911-0558-4caa-b2ae-76591a742cf0,ko
SWUIzwroRJePFxTBJE2vnw,dlab,8_rysfx937574f20b4,Install,1.6,1.11.71.21,af6fec69-57b3-4e7c-bde8-8091e5007104,1556976778,2019-05-04 21:32:58,1556977002,2019-05-04 21:36:42,1556977009,5ccd94834cc8940001343c41,http://dashboard.d-lab.io/postback?clickid=5ccd94834cc8940001343c41&secure=bd16ae7d609965b6d66bdfc7d1eb046e,idfa_af6fec69-57b3-4e7c-bde8-8091e5007104,ko
SWUIzwroRJePFxTBJE2vnw,dlab,8_rysfx937574f20b4,Install,1.6,222.111.192.52,0d4f1e9d-ca83-4ee6-87ca-1b82bb548a9f,1556922108,2019-05-04 06:21:48,1556922444,2019-05-04 06:27:24,1556922451,5cccbeea4cc89400013a60d4,http://dashboard.d-lab.io/postback?clickid=5cccbeea4cc89400013a60d4&secure=bd16ae7d609965b6d66bdfc7d1eb046e,idfa_0d4f1e9d-ca83-4ee6-87ca-1b82bb548a9f,ko
SWUIzwroRJePFxTBJE2vnw,dlab,8_rysfx937574f20b4,Install,1.6,112.222.142.154,4b8d56cc-8811-4100-9bb8-e63cf6a7ce09,1556920993,2019-05-04 06:03:13,1556968639,2019-05-04 19:17:19,1556968651,5cccba964cc8940001058b15,http://dashboard.d-lab.io/postback?clickid=5cccba964cc8940001058b15&secure=bd16ae7d609965b6d66bdfc7d1eb046e,idfa_4b8d56cc-8811-4100-9bb8-e63cf6a7ce09,ko
SWUIzwroRJePFxTBJE2vnw,dlab,8_rysfx937574f20b4,Install,1.6,121.126.37.154,860bd9a3-dc09-488f-8be1-2b7248dc0e16,1556961109,2019-05-04 17:11:49,1556961314,2019-05-04 17:15:14,1556961321,5ccd57464cc8940001ab7eb3,http://dashboard.d-lab.io/postback?clickid=5ccd57464cc8940001ab7eb3&secure=bd16ae7d609965b6d66bdfc7d1eb046e,idfa_860bd9a3-dc09-488f-8be1-2b7248dc0e16,ko
SWUIzwroRJePFxTBJE2vnw,dlab,8_rysfx937574f20b4,Install,1.6,115.4.56.37,30bb8712-91d8-453d-9d9a-10302fa78282,1556976669,2019-05-04 21:31:09,1556976865,2019-05-04 21:34:25,1556976874,5ccd94164cc89400012ec356,http://dashboard.d-lab.io/postback?clickid=5ccd94164cc89400012ec356&secure=bd16ae7d609965b6d66bdfc7d1eb046e,idfa_30bb8712-91d8-453d-9d9a-10302fa78282,ko
SWUIzwroRJePFxTBJE2vnw,dlab,8_rysfx937574f20b4,Install,1.6,175.197.136.164,0c03f21f-d4e7-4a2c-8e4d-33f7ceb762d5,1556919622,2019-05-04 05:40:22,1556919959,2019-05-04 05:45:59,1556919968,5cccb5324cc8940001d098ff,http://dashboard.d-lab.io/postback?clickid=5cccb5324cc8940001d098ff&secure=bd16ae7d609965b6d66bdfc7d1eb046e,idfa_0c03f21f-d4e7-4a2c-8e4d-33f7ceb762d5,ko
SWUIzwroRJePFxTBJE2vnw,dlab,8_rysfx937574f20b4,Install,1.6,210.216.14.29,652c91c5-f5a8-4a06-93ac-f087fda745f3,1556920651,2019-05-04 05:57:31,1556920869,2019-05-04 06:01:09,1556920877,5cccb9404cc8940001f718c0,http://dashboard.d-lab.io/postback?clickid=5cccb9404cc8940001f718c0&secure=bd16ae7d609965b6d66bdfc7d1eb046e,idfa_652c91c5-f5a8-4a06-93ac-f087fda745f3,ko
SWUIzwroRJePFxTBJE2vnw,dlab,8_rysfx937574f20b4,Install,1.6,119.197.84.239,462c09e1-16b6-4bce-9e18-9a6b6dd37019,1556927635,2019-05-04 07:53:55,1556927840,2019-05-04 07:57:20,1556927851,5cccd48d4cc89400013fa933,http://dashboard.d-lab.io/postback?clickid=5cccd48d4cc89400013fa933&secure=bd16ae7d609965b6d66bdfc7d1eb046e,idfa_462c09e1-16b6-4bce-9e18-9a6b6dd37019,ko
SWUIzwroRJePFxTBJE2vnw,dlab,8_rysfx937574f20b4,Install,1.6,175.226.157.65,7ca0048d-4075-4003-8515-3c93fb0ec5c1,1556976673,2019-05-04 21:31:13,1556976925,2019-05-04 21:35:25,1556976932,5ccd94154cc89400012eb36a,http://dashboard.d-lab.io/postback?clickid=5ccd94154cc89400012eb36a&secure=bd16ae7d609965b6d66bdfc7d1eb046e,idfa_7ca0048d-4075-4003-8515-3c93fb0ec5c1,ko
SWUIzwroRJePFxTBJE2vnw,dlab,8_rysfx937574f20b4,Install,1.6,39.114.151.82,3ec19de0-dc55-4f49-9130-867ab70eeb6c,1556975513,2019-05-04 21:11:53,1556975645,2019-05-04 21:14:05,1556975652,5ccd8f924cc8940001f84d01,http://dashboard.d-lab.io/postback?clickid=5ccd8f924cc8940001f84d01&secure=bd16ae7d609965b6d66bdfc7d1eb046e,idfa_3ec19de0-dc55-4f49-9130-867ab70eeb6c,ko
SWUIzwroRJePFxTBJE2vnw,dlab,8_rysfx937574f20b4,Install,1.6,58.233.85.4,585b8d19-ec8d-43be-bc80-e152898076e0,1556920472,2019-05-04 05:54:32,1556920640,2019-05-04 05:57:20,1556920648,5cccb88f4cc8940001f0e2d3,http://dashboard.d-lab.io/postback?clickid=5cccb88f4cc8940001f0e2d3&secure=bd16ae7d609965b6d66bdfc7d1eb046e,idfa_585b8d19-ec8d-43be-bc80-e152898076e0,ko
SWUIzwroRJePFxTBJE2vnw,dlab,8_rysfx937574f20b4,Install,1.6,183.109.79.6,5726d92a-41be-4289-a719-3ec9174089bf,1556919681,2019-05-04 05:41:21,1556919958,2019-05-04 05:45:58,1556919965,5cccb5744cc8940001d336ab,http://dashboard.d-lab.io/postback?clickid=5cccb5744cc8940001d336ab&secure=bd16ae7d609965b6d66bdfc7d1eb046e,idfa_5726d92a-41be-4289-a719-3ec9174089bf,ko
SWUIzwroRJePFxTBJE2vnw,dlab,8_rysfx937574f20b4,Install,1.6,125.184.154.143,9ac49538-9fbf-4bc6-9b02-ffc5626423ea,1556921148,2019-05-04 06:05:48,1556921449,2019-05-04 06:10:49,1556921455,5cccbb2d4cc89400010c4f88,http://dashboard.d-lab.io/postback?clickid=5cccbb2d4cc89400010c4f88&secure=bd16ae7d609965b6d66bdfc7d1eb046e,idfa_9ac49538-9fbf-4bc6-9b02-ffc5626423ea,ko
SWUIzwroRJePFxTBJE2vnw,dlab,8_rysfx937574f20b4,Install,1.6,58.229.163.82,cddecb4c-cba8-4474-868b-91043944d65e,1556926984,2019-05-04 07:43:04,1556927232,2019-05-04 07:47:12,1556927240,5cccd1fc4cc89400011f3481,http://dashboard.d-lab.io/postback?clickid=5cccd1fc4cc89400011f3481&secure=bd16ae7d609965b6d66bdfc7d1eb046e,idfa_cddecb4c-cba8-4474-868b-91043944d65e,ko
SWUIzwroRJePFxTBJE2vnw,dlab,8_rysfx937574f20b4,Install,1.6,211.216.48.158,95444c2b-3935-4cf6-88d6-d528698bab3a,1556974033,2019-05-04 20:47:13,1556974258,2019-05-04 20:50:58,1556974269,5ccd89c94cc8940001add4ae,http://dashboard.d-lab.io/postback?clickid=5ccd89c94cc8940001add4ae&secure=bd16ae7d609965b6d66bdfc7d1eb046e,idfa_95444c2b-3935-4cf6-88d6-d528698bab3a,ko
SWUIzwroRJePFxTBJE2vnw,dlab,8_rysfx937574f20b4,Install,1.6,125.178.39.249,9d5ce195-6595-45e1-83b8-5556026f759c,1556913146,2019-05-04 03:52:26,1556913427,2019-05-04 03:57:07,1556913435,5ccc9bed4cc8940001be5c90,http://dashboard.d-lab.io/postback?clickid=5ccc9bed4cc8940001be5c90&secure=bd16ae7d609965b6d66bdfc7d1eb046e,idfa_9d5ce195-6595-45e1-83b8-5556026f759c,ko
SWUIzwroRJePFxTBJE2vnw,dlab,8_rysfx937574f20b4,Install,1.6,14.72.119.3,92667796-25e8-4e04-8ad0-40ba8c0f3d19,1556919329,2019-05-04 05:35:29,1556919661,2019-05-04 05:41:01,1556919668,5cccb40b4cc8940001c482dc,http://dashboard.d-lab.io/postback?clickid=5cccb40b4cc8940001c482dc&secure=bd16ae7d609965b6d66bdfc7d1eb046e,idfa_92667796-25e8-4e04-8ad0-40ba8c0f3d19,ko
