cid,partner_id,channel_id,action_id,cpi,ip,idfa,click time,click datetime,install time,install datetime,postback time,click id,postback url,unique user id
yMMXHVOuQKmn2Vgy8__AOA,dlab,20_2066169_1184,Install,1.0,45.64.144.244,DA10BCD7-3478-4ED4-B324-4687E2B15B36,1557960151,2019-05-16 06:42:31,1557960263,2019-05-16 06:44:23,1557960294,5cdc95c54cc8940001efa9d4,http://dashboard.d-lab.io/postback?clickid=5cdc95c54cc8940001efa9d4&secure=bd16ae7d609965b6d66bdfc7d1eb046e,idfa_DA10BCD7-3478-4ED4-B324-4687E2B15B36,ko-KR
yMMXHVOuQKmn2Vgy8__AOA,dlab,20_2066169_1184,Install,1.0,221.142.104.155,B77CC775-BB66-49DC-BC60-7C1CBACF9060,1557959650,2019-05-16 06:34:10,1557959767,2019-05-16 06:36:07,1557959799,5cdc93d14cc8940001dedeeb,http://dashboard.d-lab.io/postback?clickid=5cdc93d14cc8940001dedeeb&secure=bd16ae7d609965b6d66bdfc7d1eb046e,idfa_B77CC775-BB66-49DC-BC60-7C1CBACF9060,ko-KR
yMMXHVOuQKmn2Vgy8__AOA,dlab,20_2066169_1184,Install,1.0,58.76.163.162,94782BC7-2C5E-4F06-A515-1F860EA0F2D3,1557960158,2019-05-16 06:42:38,1557960265,2019-05-16 06:44:25,1557960295,5cdc95cc4cc8940001efeda0,http://dashboard.d-lab.io/postback?clickid=5cdc95cc4cc8940001efeda0&secure=bd16ae7d609965b6d66bdfc7d1eb046e,idfa_94782BC7-2C5E-4F06-A515-1F860EA0F2D3,ko-KR
yMMXHVOuQKmn2Vgy8__AOA,dlab,20_2066169_1184,Install,1.0,58.121.180.99,3D05D99C-43FA-4E8D-A350-6C9096497108,1557959221,2019-05-16 06:27:01,1557959342,2019-05-16 06:29:02,1557959373,5cdc92234cc8940001d162b4,http://dashboard.d-lab.io/postback?clickid=5cdc92234cc8940001d162b4&secure=bd16ae7d609965b6d66bdfc7d1eb046e,idfa_3D05D99C-43FA-4E8D-A350-6C9096497108,ko-KR
yMMXHVOuQKmn2Vgy8__AOA,dlab,20_2066169_1184,Install,1.0,175.198.138.56,6AB8B429-A234-46E1-BC90-66A84818BC3D,1557958625,2019-05-16 06:17:05,1557958741,2019-05-16 06:19:01,1557958772,5cdc8fd04cc8940001bf5c84,http://dashboard.d-lab.io/postback?clickid=5cdc8fd04cc8940001bf5c84&secure=bd16ae7d609965b6d66bdfc7d1eb046e,idfa_6AB8B429-A234-46E1-BC90-66A84818BC3D,ko-KR
yMMXHVOuQKmn2Vgy8__AOA,dlab,20_2066169_1184,Install,1.0,112.166.41.166,307E7213-EDCC-4652-9CDD-5B7C56EEA260,1557959578,2019-05-16 06:32:58,1557959694,2019-05-16 06:34:54,1557959725,5cdc93894cc8940001dcd2e2,http://dashboard.d-lab.io/postback?clickid=5cdc93894cc8940001dcd2e2&secure=bd16ae7d609965b6d66bdfc7d1eb046e,idfa_307E7213-EDCC-4652-9CDD-5B7C56EEA260,ko-KR
yMMXHVOuQKmn2Vgy8__AOA,dlab,20_2066169_1184,Install,1.0,106.253.61.24,583DCF29-95EC-44AE-A7B7-3CB501E8D80F,1557960147,2019-05-16 06:42:27,1557960262,2019-05-16 06:44:22,1557960298,5cdc95c04cc8940001ef7b8a,http://dashboard.d-lab.io/postback?clickid=5cdc95c04cc8940001ef7b8a&secure=bd16ae7d609965b6d66bdfc7d1eb046e,idfa_583DCF29-95EC-44AE-A7B7-3CB501E8D80F,ko-KR
yMMXHVOuQKmn2Vgy8__AOA,dlab,20_2066169_1184,Install,1.0,49.163.252.82,61B7AF8B-8C46-45C6-9242-7BEA5E50015C,1557959224,2019-05-16 06:27:04,1557959335,2019-05-16 06:28:55,1557959365,5cdc92264cc8940001d17b2d,http://dashboard.d-lab.io/postback?clickid=5cdc92264cc8940001d17b2d&secure=bd16ae7d609965b6d66bdfc7d1eb046e,idfa_61B7AF8B-8C46-45C6-9242-7BEA5E50015C,ko-KR
yMMXHVOuQKmn2Vgy8__AOA,dlab,20_2066169_1184,Install,1.0,221.167.126.174,0AFC248F-528E-4878-8D48-390A7130C31F,1557958538,2019-05-16 06:15:38,1557958675,2019-05-16 06:17:55,1557958706,5cdc8f794cc8940001bca135,http://dashboard.d-lab.io/postback?clickid=5cdc8f794cc8940001bca135&secure=bd16ae7d609965b6d66bdfc7d1eb046e,idfa_0AFC248F-528E-4878-8D48-390A7130C31F,ko-KR
yMMXHVOuQKmn2Vgy8__AOA,dlab,20_2066169_1184,Install,1.0,115.90.246.139,08260997-223A-4328-B629-BA036D2D6608,1557959272,2019-05-16 06:27:52,1557959383,2019-05-16 06:29:43,1557959414,5cdc92554cc8940001d2f117,http://dashboard.d-lab.io/postback?clickid=5cdc92554cc8940001d2f117&secure=bd16ae7d609965b6d66bdfc7d1eb046e,idfa_08260997-223A-4328-B629-BA036D2D6608,ko-KR
yMMXHVOuQKmn2Vgy8__AOA,dlab,20_2066169_1184,Install,1.0,27.1.78.52,568FF4B5-CED8-44A3-8227-86A8CA359043,1557959669,2019-05-16 06:34:29,1557959785,2019-05-16 06:36:25,1557959817,5cdc93e44cc8940001df6fed,http://dashboard.d-lab.io/postback?clickid=5cdc93e44cc8940001df6fed&secure=bd16ae7d609965b6d66bdfc7d1eb046e,idfa_568FF4B5-CED8-44A3-8227-86A8CA359043,ko-KR
yMMXHVOuQKmn2Vgy8__AOA,dlab,20_2066169_1184,Install,1.0,211.107.135.50,6047634F-72CA-4A77-B0BB-683C97473853,1557959021,2019-05-16 06:23:41,1557959130,2019-05-16 06:25:30,1557959162,5cdc915b4cc8940001cb39fb,http://dashboard.d-lab.io/postback?clickid=5cdc915b4cc8940001cb39fb&secure=bd16ae7d609965b6d66bdfc7d1eb046e,idfa_6047634F-72CA-4A77-B0BB-683C97473853,ko-KR
yMMXHVOuQKmn2Vgy8__AOA,dlab,20_2066169_1184,Install,1.0,116.38.177.56,671DEFCC-430E-416B-A83C-1E913232E1C1,1557959222,2019-05-16 06:27:02,1557959331,2019-05-16 06:28:51,1557959362,5cdc92244cc8940001d1659f,http://dashboard.d-lab.io/postback?clickid=5cdc92244cc8940001d1659f&secure=bd16ae7d609965b6d66bdfc7d1eb046e,idfa_671DEFCC-430E-416B-A83C-1E913232E1C1,ko-KR
yMMXHVOuQKmn2Vgy8__AOA,dlab,20_2066169_1184,Install,1.0,220.73.0.85,9BC13B97-78CE-46AD-9DCC-5CE7F49EDA3E,1557958397,2019-05-16 06:13:17,1557958512,2019-05-16 06:15:12,1557958542,5cdc8eed4cc8940001b86903,http://dashboard.d-lab.io/postback?clickid=5cdc8eed4cc8940001b86903&secure=bd16ae7d609965b6d66bdfc7d1eb046e,idfa_9BC13B97-78CE-46AD-9DCC-5CE7F49EDA3E,ko-KR
yMMXHVOuQKmn2Vgy8__AOA,dlab,20_2066169_1184,Install,1.0,14.40.92.47,321C0071-01A5-4BE3-9C8B-ACC74F1D69C6,1557960149,2019-05-16 06:42:29,1557960289,2019-05-16 06:44:49,1557960320,5cdc95c34cc8940001ef9a0a,http://dashboard.d-lab.io/postback?clickid=5cdc95c34cc8940001ef9a0a&secure=bd16ae7d609965b6d66bdfc7d1eb046e,idfa_321C0071-01A5-4BE3-9C8B-ACC74F1D69C6,ko-KR
yMMXHVOuQKmn2Vgy8__AOA,dlab,20_2066169_1184,Install,1.0,58.225.126.85,CCBBFC53-A71C-47AB-A1FC-0E81CE8BB13A,1557960228,2019-05-16 06:43:48,1557960340,2019-05-16 06:45:40,1557960371,5cdc96134cc8940001f279b8,http://dashboard.d-lab.io/postback?clickid=5cdc96134cc8940001f279b8&secure=bd16ae7d609965b6d66bdfc7d1eb046e,idfa_CCBBFC53-A71C-47AB-A1FC-0E81CE8BB13A,ko-KR
yMMXHVOuQKmn2Vgy8__AOA,dlab,20_2066169_1184,Install,1.0,114.204.180.138,59033DF5-71ED-4129-B870-DEC77B965DDB,1557958529,2019-05-16 06:15:29,1557958644,2019-05-16 06:17:24,1557958675,5cdc8f704cc8940001bc52e5,http://dashboard.d-lab.io/postback?clickid=5cdc8f704cc8940001bc52e5&secure=bd16ae7d609965b6d66bdfc7d1eb046e,idfa_59033DF5-71ED-4129-B870-DEC77B965DDB,ko-KR
yMMXHVOuQKmn2Vgy8__AOA,dlab,20_2066169_1184,Install,1.0,222.118.177.160,A07C2D8E-B892-4A57-8705-064C71D94B89,1557958529,2019-05-16 06:15:29,1557958639,2019-05-16 06:17:19,1557958670,5cdc8f6e4cc8940001bc4658,http://dashboard.d-lab.io/postback?clickid=5cdc8f6e4cc8940001bc4658&secure=bd16ae7d609965b6d66bdfc7d1eb046e,idfa_A07C2D8E-B892-4A57-8705-064C71D94B89,ko-KR
yMMXHVOuQKmn2Vgy8__AOA,dlab,20_2066169_1184,Install,1.0,114.205.58.194,3E42C0E3-3EF4-419C-9E7C-17DB7983B4FD,1557958689,2019-05-16 06:18:09,1557958781,2019-05-16 06:19:41,1557958812,5cdc90064cc8940001c0fc4b,http://dashboard.d-lab.io/postback?clickid=5cdc90064cc8940001c0fc4b&secure=bd16ae7d609965b6d66bdfc7d1eb046e,idfa_3E42C0E3-3EF4-419C-9E7C-17DB7983B4FD,ko-KR
yMMXHVOuQKmn2Vgy8__AOA,dlab,20_2066169_1184,Install,1.0,223.39.155.185,6EAC53F4-CFF1-4041-8003-FF1C4D10670B,1557959696,2019-05-16 06:34:56,1557959803,2019-05-16 06:36:43,1557959834,5cdc93fb4cc8940001e035cd,http://dashboard.d-lab.io/postback?clickid=5cdc93fb4cc8940001e035cd&secure=bd16ae7d609965b6d66bdfc7d1eb046e,idfa_6EAC53F4-CFF1-4041-8003-FF1C4D10670B,ko-KR
yMMXHVOuQKmn2Vgy8__AOA,dlab,20_2066169_1184,Install,1.0,121.88.70.221,EC395011-3209-4C2B-BF80-8FEC98D39FE7,1557959089,2019-05-16 06:24:49,1557959199,2019-05-16 06:26:39,1557959230,5cdc91a04cc8940001cd3dea,http://dashboard.d-lab.io/postback?clickid=5cdc91a04cc8940001cd3dea&secure=bd16ae7d609965b6d66bdfc7d1eb046e,idfa_EC395011-3209-4C2B-BF80-8FEC98D39FE7,ko-KR
yMMXHVOuQKmn2Vgy8__AOA,dlab,20_2066169_1184,Install,1.0,59.17.137.64,7E3EA1BF-143B-412E-B2B0-3168D136A90B,1557958589,2019-05-16 06:16:29,1557958696,2019-05-16 06:18:16,1557958727,5cdc8fa14cc8940001bdeded,http://dashboard.d-lab.io/postback?clickid=5cdc8fa14cc8940001bdeded&secure=bd16ae7d609965b6d66bdfc7d1eb046e,idfa_7E3EA1BF-143B-412E-B2B0-3168D136A90B,ko-KR
yMMXHVOuQKmn2Vgy8__AOA,dlab,20_2066169_1184,Install,1.0,1.177.49.65,560A1BE7-E490-42AA-BB72-E21CA737BBA6,1557959003,2019-05-16 06:23:23,1557959110,2019-05-16 06:25:10,1557959141,5cdc914a4cc8940001cac397,http://dashboard.d-lab.io/postback?clickid=5cdc914a4cc8940001cac397&secure=bd16ae7d609965b6d66bdfc7d1eb046e,idfa_560A1BE7-E490-42AA-BB72-E21CA737BBA6,ko-KR
yMMXHVOuQKmn2Vgy8__AOA,dlab,20_2066169_1184,Install,1.0,61.76.132.250,E2A2D480-0593-4FCB-B1E8-B92FD71EF66C,1557960156,2019-05-16 06:42:36,1557960264,2019-05-16 06:44:24,1557960303,5cdc95ca4cc8940001efda35,http://dashboard.d-lab.io/postback?clickid=5cdc95ca4cc8940001efda35&secure=bd16ae7d609965b6d66bdfc7d1eb046e,idfa_E2A2D480-0593-4FCB-B1E8-B92FD71EF66C,ko-KR
yMMXHVOuQKmn2Vgy8__AOA,dlab,20_2066169_1184,Install,1.0,175.195.26.97,4BA09076-A46A-4809-92EC-8DEF4C8556E6,1557960214,2019-05-16 06:43:34,1557960328,2019-05-16 06:45:28,1557960359,5cdc96054cc8940001f203b5,http://dashboard.d-lab.io/postback?clickid=5cdc96054cc8940001f203b5&secure=bd16ae7d609965b6d66bdfc7d1eb046e,idfa_4BA09076-A46A-4809-92EC-8DEF4C8556E6,ko-KR
yMMXHVOuQKmn2Vgy8__AOA,dlab,20_2066169_1184,Install,1.0,112.163.55.211,E8E42663-71D1-4256-BD9A-A4FA2AC9DB65,1557958545,2019-05-16 06:15:45,1557958653,2019-05-16 06:17:33,1557958684,5cdc8f7f4cc8940001bcd7c4,http://dashboard.d-lab.io/postback?clickid=5cdc8f7f4cc8940001bcd7c4&secure=bd16ae7d609965b6d66bdfc7d1eb046e,idfa_E8E42663-71D1-4256-BD9A-A4FA2AC9DB65,ko-KR
yMMXHVOuQKmn2Vgy8__AOA,dlab,20_2066169_1184,Install,1.0,222.106.254.59,89AEFB2E-3CF5-4A0B-A65E-F3FE14136207,1557959751,2019-05-16 06:35:51,1557959868,2019-05-16 06:37:48,1557959986,5cdc94354cc8940001e1f2cf,http://dashboard.d-lab.io/postback?clickid=5cdc94354cc8940001e1f2cf&secure=bd16ae7d609965b6d66bdfc7d1eb046e,idfa_89AEFB2E-3CF5-4A0B-A65E-F3FE14136207,ko-KR
yMMXHVOuQKmn2Vgy8__AOA,dlab,20_2066169_1184,Install,1.0,115.95.17.162,2E2774FC-3742-4FD7-A1A6-724185B879BF,1557960167,2019-05-16 06:42:47,1557960285,2019-05-16 06:44:45,1557960317,5cdc95d64cc8940001f04369,http://dashboard.d-lab.io/postback?clickid=5cdc95d64cc8940001f04369&secure=bd16ae7d609965b6d66bdfc7d1eb046e,idfa_2E2774FC-3742-4FD7-A1A6-724185B879BF,ko-KR
yMMXHVOuQKmn2Vgy8__AOA,dlab,20_2066169_1184,Install,1.0,112.151.133.134,1688B28A-3FFB-4E72-AC69-A77F6A4AB43A,1557959570,2019-05-16 06:32:50,1557959683,2019-05-16 06:34:43,1557959714,5cdc93814cc8940001dc9ad4,http://dashboard.d-lab.io/postback?clickid=5cdc93814cc8940001dc9ad4&secure=bd16ae7d609965b6d66bdfc7d1eb046e,idfa_1688B28A-3FFB-4E72-AC69-A77F6A4AB43A,ko-KR
yMMXHVOuQKmn2Vgy8__AOA,dlab,20_2066169_1184,Install,1.0,59.11.234.126,D1F225C0-ABF8-4940-9658-99222CF6C430,1557958882,2019-05-16 06:21:22,1557958998,2019-05-16 06:23:18,1557959030,5cdc90d14cc8940001c71463,http://dashboard.d-lab.io/postback?clickid=5cdc90d14cc8940001c71463&secure=bd16ae7d609965b6d66bdfc7d1eb046e,idfa_D1F225C0-ABF8-4940-9658-99222CF6C430,ko-KR
yMMXHVOuQKmn2Vgy8__AOA,dlab,20_2066169_1184,Install,1.0,119.203.123.162,0A246B29-2CD0-4F42-8036-9AA2E6591D3E,1557959174,2019-05-16 06:26:14,1557959293,2019-05-16 06:28:13,1557959324,5cdc91f44cc8940001cfe695,http://dashboard.d-lab.io/postback?clickid=5cdc91f44cc8940001cfe695&secure=bd16ae7d609965b6d66bdfc7d1eb046e,idfa_0A246B29-2CD0-4F42-8036-9AA2E6591D3E,ko-KR
yMMXHVOuQKmn2Vgy8__AOA,dlab,20_2066169_1184,Install,1.0,210.95.101.140,EC73081B-1A5E-4B98-812C-433F9E9ED40D,1557958651,2019-05-16 06:17:31,1557958761,2019-05-16 06:19:21,1557958793,5cdc8fea4cc8940001c021d8,http://dashboard.d-lab.io/postback?clickid=5cdc8fea4cc8940001c021d8&secure=bd16ae7d609965b6d66bdfc7d1eb046e,idfa_EC73081B-1A5E-4B98-812C-433F9E9ED40D,ko-KR
yMMXHVOuQKmn2Vgy8__AOA,dlab,20_2066169_1184,Install,1.0,115.20.159.89,C35D49A9-EDBF-4D6C-8AE5-CB861586FA33,1557960152,2019-05-16 06:42:32,1557960248,2019-05-16 06:44:08,1557960279,5cdc95c54cc8940001efaf33,http://dashboard.d-lab.io/postback?clickid=5cdc95c54cc8940001efaf33&secure=bd16ae7d609965b6d66bdfc7d1eb046e,idfa_C35D49A9-EDBF-4D6C-8AE5-CB861586FA33,ko-KR
yMMXHVOuQKmn2Vgy8__AOA,dlab,20_2066169_1184,Install,1.0,121.143.108.176,8918CAC3-2F56-4319-AA15-27431174070E,1557960162,2019-05-16 06:42:42,1557960278,2019-05-16 06:44:38,1557960310,5cdc95d14cc8940001f01195,http://dashboard.d-lab.io/postback?clickid=5cdc95d14cc8940001f01195&secure=bd16ae7d609965b6d66bdfc7d1eb046e,idfa_8918CAC3-2F56-4319-AA15-27431174070E,ko-KR
yMMXHVOuQKmn2Vgy8__AOA,dlab,20_2066169_1184,Install,1.0,210.205.65.150,E0A570CC-FA8D-42AE-AD41-EF6949FCF161,1557959017,2019-05-16 06:23:37,1557959130,2019-05-16 06:25:30,1557959162,5cdc91584cc8940001cb2341,http://dashboard.d-lab.io/postback?clickid=5cdc91584cc8940001cb2341&secure=bd16ae7d609965b6d66bdfc7d1eb046e,idfa_E0A570CC-FA8D-42AE-AD41-EF6949FCF161,ko-KR
yMMXHVOuQKmn2Vgy8__AOA,dlab,20_2066169_1184,Install,1.0,1.177.109.112,4AA07867-18E1-4099-8C80-4A915C458C4C,1557957879,2019-05-16 06:04:39,1557957992,2019-05-16 06:06:32,1557958023,5cdc8ce74cc8940001a92057,http://dashboard.d-lab.io/postback?clickid=5cdc8ce74cc8940001a92057&secure=bd16ae7d609965b6d66bdfc7d1eb046e,idfa_4AA07867-18E1-4099-8C80-4A915C458C4C,ko-KR
yMMXHVOuQKmn2Vgy8__AOA,dlab,20_2066169_1184,Install,1.0,218.158.57.62,FD9FE2CF-97A3-47CF-BFC7-A40505986A47,1557959100,2019-05-16 06:25:00,1557959214,2019-05-16 06:26:54,1557959245,5cdc91a94cc8940001cd7dd6,http://dashboard.d-lab.io/postback?clickid=5cdc91a94cc8940001cd7dd6&secure=bd16ae7d609965b6d66bdfc7d1eb046e,idfa_FD9FE2CF-97A3-47CF-BFC7-A40505986A47,ko-KR
yMMXHVOuQKmn2Vgy8__AOA,dlab,20_2066169_1184,Install,1.0,211.248.90.179,DB8A7B36-4918-40C6-8521-5AADC749D0C8,1557960159,2019-05-16 06:42:39,1557960282,2019-05-16 06:44:42,1557960313,5cdc95cc4cc8940001efea31,http://dashboard.d-lab.io/postback?clickid=5cdc95cc4cc8940001efea31&secure=bd16ae7d609965b6d66bdfc7d1eb046e,idfa_DB8A7B36-4918-40C6-8521-5AADC749D0C8,ko-KR
yMMXHVOuQKmn2Vgy8__AOA,dlab,20_2066169_1184,Install,1.0,222.108.19.12,F41F5771-48DE-43F8-BAE7-2C55ED552508,1557958522,2019-05-16 06:15:22,1557958638,2019-05-16 06:17:18,1557958669,5cdc8f684cc8940001bc161e,http://dashboard.d-lab.io/postback?clickid=5cdc8f684cc8940001bc161e&secure=bd16ae7d609965b6d66bdfc7d1eb046e,idfa_F41F5771-48DE-43F8-BAE7-2C55ED552508,ko-KR
yMMXHVOuQKmn2Vgy8__AOA,dlab,20_2066169_1184,Install,1.0,14.42.119.179,0D3F11F4-BAB3-4502-950C-FDF7DFE4176C,1557959564,2019-05-16 06:32:44,1557959676,2019-05-16 06:34:36,1557959707,5cdc937b4cc8940001dc6d67,http://dashboard.d-lab.io/postback?clickid=5cdc937b4cc8940001dc6d67&secure=bd16ae7d609965b6d66bdfc7d1eb046e,idfa_0D3F11F4-BAB3-4502-950C-FDF7DFE4176C,ko-KR
yMMXHVOuQKmn2Vgy8__AOA,dlab,20_2066169_1184,Install,1.0,210.103.2.211,22604CF0-100D-4FAD-9726-7E5D894BECDE,1557959567,2019-05-16 06:32:47,1557959676,2019-05-16 06:34:36,1557959707,5cdc937e4cc8940001dc83af,http://dashboard.d-lab.io/postback?clickid=5cdc937e4cc8940001dc83af&secure=bd16ae7d609965b6d66bdfc7d1eb046e,idfa_22604CF0-100D-4FAD-9726-7E5D894BECDE,ko-KR
yMMXHVOuQKmn2Vgy8__AOA,dlab,20_2066169_1184,Install,1.0,39.117.28.113,CD25B672-444F-462F-B25D-792CA026DBB3,1557959294,2019-05-16 06:28:14,1557959405,2019-05-16 06:30:05,1557959436,5cdc926d4cc8940001d3b14e,http://dashboard.d-lab.io/postback?clickid=5cdc926d4cc8940001d3b14e&secure=bd16ae7d609965b6d66bdfc7d1eb046e,idfa_CD25B672-444F-462F-B25D-792CA026DBB3,ko-KR
yMMXHVOuQKmn2Vgy8__AOA,dlab,20_2066169_1184,Install,1.0,59.26.199.45,37D73DEF-13A0-42D2-80C5-F7B33D53C9A2,1557956468,2019-05-16 05:41:08,1557956554,2019-05-16 05:42:34,1557956586,5cdc87694cc89400018028f8,http://dashboard.d-lab.io/postback?clickid=5cdc87694cc89400018028f8&secure=bd16ae7d609965b6d66bdfc7d1eb046e,idfa_37D73DEF-13A0-42D2-80C5-F7B33D53C9A2,ko-KR
yMMXHVOuQKmn2Vgy8__AOA,dlab,20_2066169_1184,Install,1.0,218.232.178.114,63C3A148-7296-445B-90FD-3437F64A9974,1557960174,2019-05-16 06:42:54,1557960291,2019-05-16 06:44:51,1557960323,5cdc95dd4cc8940001f085e3,http://dashboard.d-lab.io/postback?clickid=5cdc95dd4cc8940001f085e3&secure=bd16ae7d609965b6d66bdfc7d1eb046e,idfa_63C3A148-7296-445B-90FD-3437F64A9974,ko-KR
yMMXHVOuQKmn2Vgy8__AOA,dlab,20_2066169_1184,Install,1.0,125.138.142.148,D513E07A-A57C-4B79-A5BA-419474238009,1557958533,2019-05-16 06:15:33,1557958646,2019-05-16 06:17:26,1557958677,5cdc8f734cc8940001bc6dc3,http://dashboard.d-lab.io/postback?clickid=5cdc8f734cc8940001bc6dc3&secure=bd16ae7d609965b6d66bdfc7d1eb046e,idfa_D513E07A-A57C-4B79-A5BA-419474238009,ko-KR
yMMXHVOuQKmn2Vgy8__AOA,dlab,20_2066169_1184,Install,1.0,210.91.129.46,F40410AD-8E6A-43B1-8AD8-92CED92D9C9F,1557960160,2019-05-16 06:42:40,1557960281,2019-05-16 06:44:41,1557960312,5cdc95cd4cc8940001eff3a7,http://dashboard.d-lab.io/postback?clickid=5cdc95cd4cc8940001eff3a7&secure=bd16ae7d609965b6d66bdfc7d1eb046e,idfa_F40410AD-8E6A-43B1-8AD8-92CED92D9C9F,ko-KR
yMMXHVOuQKmn2Vgy8__AOA,dlab,20_2066169_1184,Install,1.0,119.70.133.53,1FCEBFB0-8FB2-40E6-A298-F19962375020,1557958580,2019-05-16 06:16:20,1557958699,2019-05-16 06:18:19,1557958730,5cdc8fa44cc8940001be0730,http://dashboard.d-lab.io/postback?clickid=5cdc8fa44cc8940001be0730&secure=bd16ae7d609965b6d66bdfc7d1eb046e,idfa_1FCEBFB0-8FB2-40E6-A298-F19962375020,ko-KR
yMMXHVOuQKmn2Vgy8__AOA,dlab,20_2066169_1184,Install,1.0,211.207.106.176,87102AA5-D234-4D5B-A31F-51D1AC862AD9,1557960179,2019-05-16 06:42:59,1557960443,2019-05-16 06:47:23,1557960474,5cdc95e24cc8940001f0ae26,http://dashboard.d-lab.io/postback?clickid=5cdc95e24cc8940001f0ae26&secure=bd16ae7d609965b6d66bdfc7d1eb046e,idfa_87102AA5-D234-4D5B-A31F-51D1AC862AD9,ko-KR
yMMXHVOuQKmn2Vgy8__AOA,dlab,20_2066169_1184,Install,1.0,182.215.237.104,787A6D16-90FF-4ACB-A0DC-130B7DCD9141,1557960179,2019-05-16 06:42:59,1557960299,2019-05-16 06:44:59,1557960330,5cdc95da4cc8940001f064f7,http://dashboard.d-lab.io/postback?clickid=5cdc95da4cc8940001f064f7&secure=bd16ae7d609965b6d66bdfc7d1eb046e,idfa_787A6D16-90FF-4ACB-A0DC-130B7DCD9141,ko-KR
yMMXHVOuQKmn2Vgy8__AOA,dlab,20_2066169_1184,Install,1.0,61.85.100.254,F44365E6-362C-49FC-B6AD-1A846F724F3C,1557959219,2019-05-16 06:26:59,1557959349,2019-05-16 06:29:09,1557959380,5cdc92234cc8940001d160a8,http://dashboard.d-lab.io/postback?clickid=5cdc92234cc8940001d160a8&secure=bd16ae7d609965b6d66bdfc7d1eb046e,idfa_F44365E6-362C-49FC-B6AD-1A846F724F3C,ko-KR
yMMXHVOuQKmn2Vgy8__AOA,dlab,20_2066169_1184,Install,1.0,118.91.96.96,6EB54A86-5034-4433-8FEA-8488725B3D1C,1557958529,2019-05-16 06:15:29,1557958636,2019-05-16 06:17:16,1557958667,5cdc8f6c4cc8940001bc37a2,http://dashboard.d-lab.io/postback?clickid=5cdc8f6c4cc8940001bc37a2&secure=bd16ae7d609965b6d66bdfc7d1eb046e,idfa_6EB54A86-5034-4433-8FEA-8488725B3D1C,ko-KR
yMMXHVOuQKmn2Vgy8__AOA,dlab,20_2066169_1184,Install,1.0,121.170.244.47,31977C1B-FF99-4BC9-A264-E1FCE759FB45,1557959222,2019-05-16 06:27:02,1557959332,2019-05-16 06:28:52,1557959362,5cdc92234cc8940001d15eb3,http://dashboard.d-lab.io/postback?clickid=5cdc92234cc8940001d15eb3&secure=bd16ae7d609965b6d66bdfc7d1eb046e,idfa_31977C1B-FF99-4BC9-A264-E1FCE759FB45,ko-KR
yMMXHVOuQKmn2Vgy8__AOA,dlab,20_2066169_1184,Install,1.0,219.240.46.237,AF98154B-7D36-41AD-9ECD-EF234F6342FC,1557952965,2019-05-16 04:42:45,1557953081,2019-05-16 04:44:41,1557953115,5cdc79b44cc89400011de2a9,http://dashboard.d-lab.io/postback?clickid=5cdc79b44cc89400011de2a9&secure=bd16ae7d609965b6d66bdfc7d1eb046e,idfa_AF98154B-7D36-41AD-9ECD-EF234F6342FC,ko-KR
yMMXHVOuQKmn2Vgy8__AOA,dlab,20_2066169_1184,Install,1.0,218.234.115.13,67D184E4-4609-4844-815A-15CFC62C0C68,1557959313,2019-05-16 06:28:33,1557959411,2019-05-16 06:30:11,1557959443,5cdc92804cc8940001d44cbf,http://dashboard.d-lab.io/postback?clickid=5cdc92804cc8940001d44cbf&secure=bd16ae7d609965b6d66bdfc7d1eb046e,idfa_67D184E4-4609-4844-815A-15CFC62C0C68,ko-KR
yMMXHVOuQKmn2Vgy8__AOA,dlab,20_2066169_1184,Install,1.0,183.102.236.31,8F7709AD-D9EB-42DF-B759-304C0F139037,1557960373,2019-05-16 06:46:13,1557960491,2019-05-16 06:48:11,1557960522,5cdc96a44cc8940001f77c43,http://dashboard.d-lab.io/postback?clickid=5cdc96a44cc8940001f77c43&secure=bd16ae7d609965b6d66bdfc7d1eb046e,idfa_8F7709AD-D9EB-42DF-B759-304C0F139037,ko-KR
yMMXHVOuQKmn2Vgy8__AOA,dlab,20_2066169_1184,Install,1.0,203.255.24.38,7B43AEA6-F524-4BA1-A12F-1319861CFD4C,1557954776,2019-05-16 05:12:56,1557954892,2019-05-16 05:14:52,1557954923,5cdc80c84cc894000154003e,http://dashboard.d-lab.io/postback?clickid=5cdc80c84cc894000154003e&secure=bd16ae7d609965b6d66bdfc7d1eb046e,idfa_7B43AEA6-F524-4BA1-A12F-1319861CFD4C,ko-KR
yMMXHVOuQKmn2Vgy8__AOA,dlab,20_2066169_1184,Install,1.0,59.150.236.246,13AB7D5F-C158-41D1-B01D-239CFB5A87E7,1557959551,2019-05-16 06:32:31,1557959658,2019-05-16 06:34:18,1557959688,5cdc936e4cc8940001dc0b48,http://dashboard.d-lab.io/postback?clickid=5cdc936e4cc8940001dc0b48&secure=bd16ae7d609965b6d66bdfc7d1eb046e,idfa_13AB7D5F-C158-41D1-B01D-239CFB5A87E7,ko-KR
yMMXHVOuQKmn2Vgy8__AOA,dlab,20_2066169_1184,Install,1.0,116.34.184.31,973F27B7-3C44-42FA-ABD4-DFB80CFCDC7E,1557959569,2019-05-16 06:32:49,1557959675,2019-05-16 06:34:35,1557959706,5cdc937f4cc8940001dc8848,http://dashboard.d-lab.io/postback?clickid=5cdc937f4cc8940001dc8848&secure=bd16ae7d609965b6d66bdfc7d1eb046e,idfa_973F27B7-3C44-42FA-ABD4-DFB80CFCDC7E,ko-KR
yMMXHVOuQKmn2Vgy8__AOA,dlab,20_2066169_1184,Install,1.0,141.223.115.148,ED10A3C9-FF01-4FC9-9A1B-68604F05BA4F,1557947724,2019-05-16 03:15:24,1557947815,2019-05-16 03:16:55,1557947845,5cdc653c4cc894000181228f,http://dashboard.d-lab.io/postback?clickid=5cdc653c4cc894000181228f&secure=bd16ae7d609965b6d66bdfc7d1eb046e,idfa_ED10A3C9-FF01-4FC9-9A1B-68604F05BA4F,ko-KR
yMMXHVOuQKmn2Vgy8__AOA,dlab,20_2066169_1184,Install,1.0,125.188.163.182,2639C5FA-BBBF-4A80-8C5F-931EDEE83CF6,1557959214,2019-05-16 06:26:54,1557959328,2019-05-16 06:28:48,1557959359,5cdc921d4cc8940001d13257,http://dashboard.d-lab.io/postback?clickid=5cdc921d4cc8940001d13257&secure=bd16ae7d609965b6d66bdfc7d1eb046e,idfa_2639C5FA-BBBF-4A80-8C5F-931EDEE83CF6,ko-KR
yMMXHVOuQKmn2Vgy8__AOA,dlab,20_2066169_1184,Install,1.0,115.92.7.130,2328837F-0B33-4BF6-8163-3FE7B8AA22A1,1557958582,2019-05-16 06:16:22,1557958694,2019-05-16 06:18:14,1557958725,5cdc8fa44cc8940001be0b72,http://dashboard.d-lab.io/postback?clickid=5cdc8fa44cc8940001be0b72&secure=bd16ae7d609965b6d66bdfc7d1eb046e,idfa_2328837F-0B33-4BF6-8163-3FE7B8AA22A1,ko-KR
yMMXHVOuQKmn2Vgy8__AOA,dlab,20_2066169_1184,Install,1.0,58.225.126.85,2FF57A25-5D86-4558-B365-B4F512D22CC0,1557959227,2019-05-16 06:27:07,1557959345,2019-05-16 06:29:05,1557959376,5cdc92294cc8940001d19884,http://dashboard.d-lab.io/postback?clickid=5cdc92294cc8940001d19884&secure=bd16ae7d609965b6d66bdfc7d1eb046e,idfa_2FF57A25-5D86-4558-B365-B4F512D22CC0,ko-KR
yMMXHVOuQKmn2Vgy8__AOA,dlab,20_2066169_1184,Install,1.0,175.211.253.172,17C2E106-103B-4D54-BA12-9585C0FA23B6,1557960168,2019-05-16 06:42:48,1557960281,2019-05-16 06:44:41,1557960311,5cdc95d64cc8940001f0476f,http://dashboard.d-lab.io/postback?clickid=5cdc95d64cc8940001f0476f&secure=bd16ae7d609965b6d66bdfc7d1eb046e,idfa_17C2E106-103B-4D54-BA12-9585C0FA23B6,ko-KR
yMMXHVOuQKmn2Vgy8__AOA,dlab,20_2066169_1184,Install,1.0,112.220.56.58,6A217153-919F-43CC-B293-0FFC621AAC88,1557959222,2019-05-16 06:27:02,1557959339,2019-05-16 06:28:59,1557959370,5cdc92254cc8940001d16e0e,http://dashboard.d-lab.io/postback?clickid=5cdc92254cc8940001d16e0e&secure=bd16ae7d609965b6d66bdfc7d1eb046e,idfa_6A217153-919F-43CC-B293-0FFC621AAC88,ko-KR
yMMXHVOuQKmn2Vgy8__AOA,dlab,20_2066169_1184,Install,1.0,211.229.191.14,903EF7A8-8C4F-4092-9C62-C1E91681427C,1557960200,2019-05-16 06:43:20,1557960308,2019-05-16 06:45:08,1557960339,5cdc95f54cc8940001f17570,http://dashboard.d-lab.io/postback?clickid=5cdc95f54cc8940001f17570&secure=bd16ae7d609965b6d66bdfc7d1eb046e,idfa_903EF7A8-8C4F-4092-9C62-C1E91681427C,ko-KR
yMMXHVOuQKmn2Vgy8__AOA,dlab,20_2066169_1184,Install,1.0,59.20.229.27,E23526C3-B153-40D4-A5A0-D85C37B98D32,1557960187,2019-05-16 06:43:07,1557960295,2019-05-16 06:44:55,1557960327,5cdc95e94cc8940001f0ff34,http://dashboard.d-lab.io/postback?clickid=5cdc95e94cc8940001f0ff34&secure=bd16ae7d609965b6d66bdfc7d1eb046e,idfa_E23526C3-B153-40D4-A5A0-D85C37B98D32,ko-KR
yMMXHVOuQKmn2Vgy8__AOA,dlab,20_2066169_1184,Install,1.0,121.128.167.128,9C5FE031-38AC-4321-9AFB-6F92D2D5D83E,1557960155,2019-05-16 06:42:35,1557960262,2019-05-16 06:44:22,1557960293,5cdc95c94cc8940001efcecb,http://dashboard.d-lab.io/postback?clickid=5cdc95c94cc8940001efcecb&secure=bd16ae7d609965b6d66bdfc7d1eb046e,idfa_9C5FE031-38AC-4321-9AFB-6F92D2D5D83E,ko-KR
yMMXHVOuQKmn2Vgy8__AOA,dlab,20_2066169_1184,Install,1.0,115.94.179.214,22F6C6FE-905A-413C-AC05-98637C7F28E6,1557959576,2019-05-16 06:32:56,1557959686,2019-05-16 06:34:46,1557959717,5cdc93874cc8940001dcc96a,http://dashboard.d-lab.io/postback?clickid=5cdc93874cc8940001dcc96a&secure=bd16ae7d609965b6d66bdfc7d1eb046e,idfa_22F6C6FE-905A-413C-AC05-98637C7F28E6,ko-KR
yMMXHVOuQKmn2Vgy8__AOA,dlab,20_2066169_1184,Install,1.0,1.176.130.238,FA1AD2C4-AC4C-4F7A-A60C-387712557B75,1557960171,2019-05-16 06:42:51,1557960279,2019-05-16 06:44:39,1557960309,5cdc95da4cc8940001f06830,http://dashboard.d-lab.io/postback?clickid=5cdc95da4cc8940001f06830&secure=bd16ae7d609965b6d66bdfc7d1eb046e,idfa_FA1AD2C4-AC4C-4F7A-A60C-387712557B75,ko-KR
yMMXHVOuQKmn2Vgy8__AOA,dlab,20_2066169_1184,Install,1.0,175.120.153.63,43DFC5C6-720D-49C8-AD39-C8F9EE613BFE,1557954299,2019-05-16 05:04:59,1557954435,2019-05-16 05:07:15,1557954466,5cdc7eec4cc894000146a19c,http://dashboard.d-lab.io/postback?clickid=5cdc7eec4cc894000146a19c&secure=bd16ae7d609965b6d66bdfc7d1eb046e,idfa_43DFC5C6-720D-49C8-AD39-C8F9EE613BFE,ko-KR
yMMXHVOuQKmn2Vgy8__AOA,dlab,20_2066169_1184,Install,1.0,180.69.192.6,BB1C8BDE-5422-436B-AAA1-967EDE35B8E5,1557958526,2019-05-16 06:15:26,1557958632,2019-05-16 06:17:12,1557958663,5cdc8f6e4cc8940001bc4476,http://dashboard.d-lab.io/postback?clickid=5cdc8f6e4cc8940001bc4476&secure=bd16ae7d609965b6d66bdfc7d1eb046e,idfa_BB1C8BDE-5422-436B-AAA1-967EDE35B8E5,ko-KR
