cid,partner_id,channel_id,action_id,cpi,ip,idfa,click time,click datetime,install time,install datetime,postback time,click id,postback url,unique user id
NMYbaTrrQwey2_P859ujCw,dlab,24_2691_68666,Install,2.0,119.104.11.217,56EEB64D-A796-4555-85EF-5EE06E934FA5,1556911040,2019-05-04 03:17:20,1556911142,2019-05-04 03:19:02,1556911173,5ccc93ad4cc89400016ab7d6,http://dashboard.d-lab.io/postback?clickid=5ccc93ad4cc89400016ab7d6&secure=bd16ae7d609965b6d66bdfc7d1eb046e,idfa_56EEB64D-A796-4555-85EF-5EE06E934FA5,ja-JP
NMYbaTrrQwey2_P859ujCw,dlab,24_2691_68666,Install,2.0,175.132.4.23,382D047E-4A17-47AB-81B9-7851F36807DC,1556861641,2019-05-03 13:34:01,1556861813,2019-05-03 13:36:53,1556861843,5ccbd2b24cc894000104e2bf,http://dashboard.d-lab.io/postback?clickid=5ccbd2b24cc894000104e2bf&secure=bd16ae7d609965b6d66bdfc7d1eb046e,idfa_382D047E-4A17-47AB-81B9-7851F36807DC,ja-JP
NMYbaTrrQwey2_P859ujCw,dlab,24_2691_68666,Install,2.0,153.191.117.202,7A9CD7E4-33EF-4352-9B0B-A6E931B6364C,1556894046,2019-05-03 22:34:06,1556894168,2019-05-03 22:36:08,1556894198,5ccc51544cc894000161d7b0,http://dashboard.d-lab.io/postback?clickid=5ccc51544cc894000161d7b0&secure=bd16ae7d609965b6d66bdfc7d1eb046e,idfa_7A9CD7E4-33EF-4352-9B0B-A6E931B6364C,ja-JP
NMYbaTrrQwey2_P859ujCw,dlab,24_2691_68666,Install,2.0,153.203.236.16,69D86742-1AC0-437F-A676-CE69F5E120A8,1556912419,2019-05-04 03:40:19,1556912533,2019-05-04 03:42:13,1556912563,5ccc99144cc8940001a0a7b7,http://dashboard.d-lab.io/postback?clickid=5ccc99144cc8940001a0a7b7&secure=bd16ae7d609965b6d66bdfc7d1eb046e,idfa_69D86742-1AC0-437F-A676-CE69F5E120A8,ja-JP
NMYbaTrrQwey2_P859ujCw,dlab,24_2691_68666,Install,2.0,123.218.166.130,B465FF69-6788-4131-B0BF-391B9E08FCE5,1556907742,2019-05-04 02:22:22,1556907841,2019-05-04 02:24:01,1556907872,5ccc86ce4cc8940001ea863c,http://dashboard.d-lab.io/postback?clickid=5ccc86ce4cc8940001ea863c&secure=bd16ae7d609965b6d66bdfc7d1eb046e,idfa_B465FF69-6788-4131-B0BF-391B9E08FCE5,ja-JP
NMYbaTrrQwey2_P859ujCw,dlab,24_2691_68666,Install,2.0,124.215.131.207,D65DE9BD-EC5A-42F5-B230-3F9607BF3B98,1556909401,2019-05-04 02:50:01,1556909514,2019-05-04 02:51:54,1556909545,5ccc8d494cc89400012811e8,http://dashboard.d-lab.io/postback?clickid=5ccc8d494cc89400012811e8&secure=bd16ae7d609965b6d66bdfc7d1eb046e,idfa_D65DE9BD-EC5A-42F5-B230-3F9607BF3B98,ja-JP
NMYbaTrrQwey2_P859ujCw,dlab,24_2691_68666,Install,2.0,153.196.165.157,0F6DE528-AB11-4842-AF66-B8DA339792E9,1556911955,2019-05-04 03:32:35,1556912044,2019-05-04 03:34:04,1556912075,5ccc97424cc89400018ef451,http://dashboard.d-lab.io/postback?clickid=5ccc97424cc89400018ef451&secure=bd16ae7d609965b6d66bdfc7d1eb046e,idfa_0F6DE528-AB11-4842-AF66-B8DA339792E9,ja-JP
NMYbaTrrQwey2_P859ujCw,dlab,24_2691_68666,Install,2.0,49.97.93.75,,1556859532,2019-05-03 12:58:52,1556875605,2019-05-03 17:26:45,1556875635,5ccbca8a4cc8940001b1581f,http://dashboard.d-lab.io/postback?clickid=5ccbca8a4cc8940001b1581f&secure=bd16ae7d609965b6d66bdfc7d1eb046e,ip_49.97.93.75,ja-JP
NMYbaTrrQwey2_P859ujCw,dlab,24_2691_68666,Install,2.0,220.220.67.89,A922CFD4-23DE-4CF1-A604-BAEB017B2A3A,1556905226,2019-05-04 01:40:26,1556905358,2019-05-04 01:42:38,1556905388,5ccc7cf24cc894000181dfab,http://dashboard.d-lab.io/postback?clickid=5ccc7cf24cc894000181dfab&secure=bd16ae7d609965b6d66bdfc7d1eb046e,idfa_A922CFD4-23DE-4CF1-A604-BAEB017B2A3A,ja-JP
NMYbaTrrQwey2_P859ujCw,dlab,24_2691_68666,Install,2.0,218.219.228.9,18BCB68F-32AC-4345-9A3E-F4FDCFF7C363,1556912942,2019-05-04 03:49:02,1556913022,2019-05-04 03:50:22,1556913052,5ccc9b214cc8940001b61a3e,http://dashboard.d-lab.io/postback?clickid=5ccc9b214cc8940001b61a3e&secure=bd16ae7d609965b6d66bdfc7d1eb046e,idfa_18BCB68F-32AC-4345-9A3E-F4FDCFF7C363,en-GB-gb
NMYbaTrrQwey2_P859ujCw,dlab,24_2691_68666,Install,2.0,123.225.13.123,E2AEB0E7-2AAF-40DA-8013-0A1F424DD497,1556911078,2019-05-04 03:17:58,1556911177,2019-05-04 03:19:37,1556911208,5ccc93d74cc89400016c6650,http://dashboard.d-lab.io/postback?clickid=5ccc93d74cc89400016c6650&secure=bd16ae7d609965b6d66bdfc7d1eb046e,idfa_E2AEB0E7-2AAF-40DA-8013-0A1F424DD497,ja-JP
NMYbaTrrQwey2_P859ujCw,dlab,24_2691_68666,Install,2.0,112.68.116.253,542411C2-3E9F-4BEF-933B-0BFCFE6BCCA4,1556909749,2019-05-04 02:55:49,1556909871,2019-05-04 02:57:51,1556909902,5ccc8ea44cc894000134b6f2,http://dashboard.d-lab.io/postback?clickid=5ccc8ea44cc894000134b6f2&secure=bd16ae7d609965b6d66bdfc7d1eb046e,idfa_542411C2-3E9F-4BEF-933B-0BFCFE6BCCA4,ja-JP
NMYbaTrrQwey2_P859ujCw,dlab,24_2691_68666,Install,2.0,112.68.116.253,F4541300-1237-45B6-ACB2-E3FDB048C635,1556911578,2019-05-04 03:26:18,1556911670,2019-05-04 03:27:50,1556911700,5ccc95c84cc8940001804515,http://dashboard.d-lab.io/postback?clickid=5ccc95c84cc8940001804515&secure=bd16ae7d609965b6d66bdfc7d1eb046e,idfa_F4541300-1237-45B6-ACB2-E3FDB048C635,ja-JP
NMYbaTrrQwey2_P859ujCw,dlab,24_2691_68666,Install,2.0,219.107.108.240,82A6C76A-35D9-4BBC-A1BA-975883F4CC91,1556910269,2019-05-04 03:04:29,1556910407,2019-05-04 03:06:47,1556910438,5ccc90a94cc894000148f3e7,http://dashboard.d-lab.io/postback?clickid=5ccc90a94cc894000148f3e7&secure=bd16ae7d609965b6d66bdfc7d1eb046e,idfa_82A6C76A-35D9-4BBC-A1BA-975883F4CC91,ja-JP
NMYbaTrrQwey2_P859ujCw,dlab,24_2691_68666,Install,2.0,27.121.138.194,5D90AF56-2C24-466F-ACDF-442AE431F35D,1556912449,2019-05-04 03:40:49,1556912562,2019-05-04 03:42:42,1556912592,5ccc992c4cc8940001a190a9,http://dashboard.d-lab.io/postback?clickid=5ccc992c4cc8940001a190a9&secure=bd16ae7d609965b6d66bdfc7d1eb046e,idfa_5D90AF56-2C24-466F-ACDF-442AE431F35D,ja-JP
NMYbaTrrQwey2_P859ujCw,dlab,24_2691_68666,Install,2.0,114.19.132.212,A7E80CD2-67E8-490C-BD6F-900D1A8D2E9C,1556910509,2019-05-04 03:08:29,1556910595,2019-05-04 03:09:55,1556910625,5ccc919b4cc8940001530329,http://dashboard.d-lab.io/postback?clickid=5ccc919b4cc8940001530329&secure=bd16ae7d609965b6d66bdfc7d1eb046e,idfa_A7E80CD2-67E8-490C-BD6F-900D1A8D2E9C,ja-JP
NMYbaTrrQwey2_P859ujCw,dlab,24_2691_68666,Install,2.0,126.25.217.3,388FB9AE-8728-4325-868B-5D4B9536119D,1556907746,2019-05-04 02:22:26,1556907853,2019-05-04 02:24:13,1556907883,5ccc86d74cc8940001eae8db,http://dashboard.d-lab.io/postback?clickid=5ccc86d74cc8940001eae8db&secure=bd16ae7d609965b6d66bdfc7d1eb046e,idfa_388FB9AE-8728-4325-868B-5D4B9536119D,ja-JP
NMYbaTrrQwey2_P859ujCw,dlab,24_2691_68666,Install,2.0,223.29.190.61,37D2299A-6824-47F1-B8AF-7E52EB58FC97,1556908878,2019-05-04 02:41:18,1556908971,2019-05-04 02:42:51,1556909001,5ccc8b3c4cc8940001150f1c,http://dashboard.d-lab.io/postback?clickid=5ccc8b3c4cc8940001150f1c&secure=bd16ae7d609965b6d66bdfc7d1eb046e,idfa_37D2299A-6824-47F1-B8AF-7E52EB58FC97,ja-JP
NMYbaTrrQwey2_P859ujCw,dlab,24_2691_68666,Install,2.0,114.176.132.85,E0C29BA6-3ED7-446F-9C8F-6147ED7B7F96,1556913035,2019-05-04 03:50:35,1556913163,2019-05-04 03:52:43,1556913193,5ccc9b774cc8940001b9b2d2,http://dashboard.d-lab.io/postback?clickid=5ccc9b774cc8940001b9b2d2&secure=bd16ae7d609965b6d66bdfc7d1eb046e,idfa_E0C29BA6-3ED7-446F-9C8F-6147ED7B7F96,ja-JP
NMYbaTrrQwey2_P859ujCw,dlab,24_2691_68666,Install,2.0,60.119.155.252,1E6C2F54-96C9-4340-ACEA-E568F11923D1,1556910445,2019-05-04 03:07:25,1556910540,2019-05-04 03:09:00,1556910571,5ccc915e4cc8940001506e3c,http://dashboard.d-lab.io/postback?clickid=5ccc915e4cc8940001506e3c&secure=bd16ae7d609965b6d66bdfc7d1eb046e,idfa_1E6C2F54-96C9-4340-ACEA-E568F11923D1,ja-JP
NMYbaTrrQwey2_P859ujCw,dlab,24_2691_68666,Install,2.0,153.142.90.116,29BD9376-59DE-4197-AC0B-9927269556E5,1556912890,2019-05-04 03:48:10,1556913017,2019-05-04 03:50:17,1556913047,5ccc9ae94cc8940001b3b173,http://dashboard.d-lab.io/postback?clickid=5ccc9ae94cc8940001b3b173&secure=bd16ae7d609965b6d66bdfc7d1eb046e,idfa_29BD9376-59DE-4197-AC0B-9927269556E5,ja-JP
NMYbaTrrQwey2_P859ujCw,dlab,24_2691_68666,Install,2.0,101.1.136.113,2A92823F-756F-40A4-90D3-01F84AD6D1F6,1556904925,2019-05-04 01:35:25,1556905007,2019-05-04 01:36:47,1556905037,5ccc7bca4cc894000175a44c,http://dashboard.d-lab.io/postback?clickid=5ccc7bca4cc894000175a44c&secure=bd16ae7d609965b6d66bdfc7d1eb046e,idfa_2A92823F-756F-40A4-90D3-01F84AD6D1F6,ja-JP
NMYbaTrrQwey2_P859ujCw,dlab,24_2691_68666,Install,2.0,150.31.154.95,5284F3B1-E708-49CD-AE46-9E0AC74EEAF4,1556907385,2019-05-04 02:16:25,1556907496,2019-05-04 02:18:16,1556907526,5ccc856f4cc8940001dc2990,http://dashboard.d-lab.io/postback?clickid=5ccc856f4cc8940001dc2990&secure=bd16ae7d609965b6d66bdfc7d1eb046e,idfa_5284F3B1-E708-49CD-AE46-9E0AC74EEAF4,ja-JP
NMYbaTrrQwey2_P859ujCw,dlab,24_2691_68666,Install,2.0,223.223.210.158,47720AE9-23FF-4EE4-BAB8-82FA1926A5BE,1556908877,2019-05-04 02:41:17,1556908982,2019-05-04 02:43:02,1556909012,5ccc8b3d4cc8940001151afb,http://dashboard.d-lab.io/postback?clickid=5ccc8b3d4cc8940001151afb&secure=bd16ae7d609965b6d66bdfc7d1eb046e,idfa_47720AE9-23FF-4EE4-BAB8-82FA1926A5BE,ja-JP
NMYbaTrrQwey2_P859ujCw,dlab,24_2691_68666,Install,2.0,60.114.11.4,F8E0E13F-4BE5-4958-A003-4AB0500DFB33,1556907559,2019-05-04 02:19:19,1556907678,2019-05-04 02:21:18,1556907708,5ccc86194cc8940001e30b51,http://dashboard.d-lab.io/postback?clickid=5ccc86194cc8940001e30b51&secure=bd16ae7d609965b6d66bdfc7d1eb046e,idfa_F8E0E13F-4BE5-4958-A003-4AB0500DFB33,ja-JP
