cid,partner_id,channel_id,action_id,cpi,ip,idfa,click time,click datetime,install time,install datetime,postback time,click id,postback url,unique user id
iTv1aw9vSLKbhaJurWUOCw,dlab,28_12394_6eae4874d9c3amp,Install,0.55,,261BB073-A893-478E-8B47-D640B7B46EF8,1557465193,2019-05-10 13:13:13,1557470434,2019-05-10 14:40:34,1557470434,5cd508684cc894000120c75c,http://dashboard.d-lab.io/postback?clickid=5cd508684cc894000120c75c&secure=bd16ae7d609965b6d66bdfc7d1eb046e,idfa_261BB073-A893-478E-8B47-D640B7B46EF8,
iTv1aw9vSLKbhaJurWUOCw,dlab,28_12394_6eae4874d9c3amp,Install,0.55,,CEE4B832-01C5-42C0-8DA3-54D878F16326,1557377510,2019-05-09 12:51:50,1557410605,2019-05-09 22:03:25,1557410605,5cd3b1e54cc894000162e7b9,http://dashboard.d-lab.io/postback?clickid=5cd3b1e54cc894000162e7b9&secure=bd16ae7d609965b6d66bdfc7d1eb046e,idfa_CEE4B832-01C5-42C0-8DA3-54D878F16326,
iTv1aw9vSLKbhaJurWUOCw,dlab,28_12394_6eae4874d9c3amp,Install,0.55,,F7D9A45F-412D-437B-968E-739D213190DD,1558257596,2019-05-19 17:19:56,1558309828,2019-05-20 07:50:28,1558309828,5ce11fbc4cc89400017abf94,http://dashboard.d-lab.io/postback?clickid=5ce11fbc4cc89400017abf94&secure=bd16ae7d609965b6d66bdfc7d1eb046e,idfa_F7D9A45F-412D-437B-968E-739D213190DD,
iTv1aw9vSLKbhaJurWUOCw,dlab,28_12394_6eae4874d9c3amp,Install,0.55,,1629BFFD-AA4F-42FA-8BCA-DF01062A7670,1557763974,2019-05-14 00:12:54,1557798060,2019-05-14 09:41:00,1557798060,5cd997854cc8940001b207ad,http://dashboard.d-lab.io/postback?clickid=5cd997854cc8940001b207ad&secure=bd16ae7d609965b6d66bdfc7d1eb046e,idfa_1629BFFD-AA4F-42FA-8BCA-DF01062A7670,
iTv1aw9vSLKbhaJurWUOCw,dlab,28_12394_6eae4874d9c3amp,Install,0.55,,9FB08D0A-7FB1-47A7-8B74-3F38544A3C33,1558279579,2019-05-19 23:26:19,1558339218,2019-05-20 16:00:18,1558339218,5ce175994cc8940001861030,http://dashboard.d-lab.io/postback?clickid=5ce175994cc8940001861030&secure=bd16ae7d609965b6d66bdfc7d1eb046e,idfa_9FB08D0A-7FB1-47A7-8B74-3F38544A3C33,
iTv1aw9vSLKbhaJurWUOCw,dlab,28_12394_6eae4874d9c3amp,Install,0.55,,FEE1E29D-3304-4200-A227-A475DCB5E474,1557736495,2019-05-13 16:34:55,1557757725,2019-05-13 22:28:45,1557757725,5cd92c2a4cc8940001dc8ac9,http://dashboard.d-lab.io/postback?clickid=5cd92c2a4cc8940001dc8ac9&secure=bd16ae7d609965b6d66bdfc7d1eb046e,idfa_FEE1E29D-3304-4200-A227-A475DCB5E474,
iTv1aw9vSLKbhaJurWUOCw,dlab,28_12394_6eae4874d9c3amp,Install,0.55,,DC6E89FF-4E8B-410F-B924-56B5723FF532,1557485418,2019-05-10 18:50:18,1557550558,2019-05-11 12:55:58,1557550558,5cd557694cc8940001f2c5e6,http://dashboard.d-lab.io/postback?clickid=5cd557694cc8940001f2c5e6&secure=bd16ae7d609965b6d66bdfc7d1eb046e,idfa_DC6E89FF-4E8B-410F-B924-56B5723FF532,
iTv1aw9vSLKbhaJurWUOCw,dlab,28_12394_6eae4874d9c3amp,Install,0.55,,0ECE3598-BAA3-40BB-81DB-22A7A2BA0FB1,1558169006,2019-05-18 16:43:26,1558189754,2019-05-18 22:29:14,1558189754,5cdfc5ae4cc8940001d8a4b5,http://dashboard.d-lab.io/postback?clickid=5cdfc5ae4cc8940001d8a4b5&secure=bd16ae7d609965b6d66bdfc7d1eb046e,idfa_0ECE3598-BAA3-40BB-81DB-22A7A2BA0FB1,
iTv1aw9vSLKbhaJurWUOCw,dlab,28_12394_6eae4874d9c3amp,Install,0.55,,E1A1F35C-5CDA-49F8-A4C7-F6203C60FCA3,1557322962,2019-05-08 21:42:42,1557363443,2019-05-09 08:57:23,1557363443,5cd2dcd24cc89400016f9e45,http://dashboard.d-lab.io/postback?clickid=5cd2dcd24cc89400016f9e45&secure=bd16ae7d609965b6d66bdfc7d1eb046e,idfa_E1A1F35C-5CDA-49F8-A4C7-F6203C60FCA3,
iTv1aw9vSLKbhaJurWUOCw,dlab,28_12394_6eae4874d9c3amp,Install,0.55,,D9BB8E64-36DB-47DE-953A-0EEA1E54D3CD,1557386724,2019-05-09 15:25:24,1557470101,2019-05-10 14:35:01,1557470101,5cd3d5e24cc8940001e9bba2,http://dashboard.d-lab.io/postback?clickid=5cd3d5e24cc8940001e9bba2&secure=bd16ae7d609965b6d66bdfc7d1eb046e,idfa_D9BB8E64-36DB-47DE-953A-0EEA1E54D3CD,
iTv1aw9vSLKbhaJurWUOCw,dlab,28_12394_6eae4874d9c3amp,Install,0.55,,2FCB08A5-A837-4939-A992-5154AF20842A,1557570066,2019-05-11 18:21:06,1557576010,2019-05-11 20:00:10,1557576010,5cd6a2104cc89400010ab6b9,http://dashboard.d-lab.io/postback?clickid=5cd6a2104cc89400010ab6b9&secure=bd16ae7d609965b6d66bdfc7d1eb046e,idfa_2FCB08A5-A837-4939-A992-5154AF20842A,
iTv1aw9vSLKbhaJurWUOCw,dlab,28_12394_6eae4874d9c3amp,Install,0.55,,E6E8EB6F-98AC-4643-996F-A916044B24B2,1558363211,2019-05-20 22:40:11,1558400688,2019-05-21 09:04:48,1558400688,5ce2bc4b4cc8940001fa711d,http://dashboard.d-lab.io/postback?clickid=5ce2bc4b4cc8940001fa711d&secure=bd16ae7d609965b6d66bdfc7d1eb046e,idfa_E6E8EB6F-98AC-4643-996F-A916044B24B2,
iTv1aw9vSLKbhaJurWUOCw,dlab,28_12394_6eae4874d9c3amp,Install,0.55,,AE3286EB-0C1F-41EF-9E5A-4AC8FE2AFFE7,1557839676,2019-05-14 21:14:36,1557880788,2019-05-15 08:39:48,1557880788,5cdabf3b4cc8940001ebc3c5,http://dashboard.d-lab.io/postback?clickid=5cdabf3b4cc8940001ebc3c5&secure=bd16ae7d609965b6d66bdfc7d1eb046e,idfa_AE3286EB-0C1F-41EF-9E5A-4AC8FE2AFFE7,
iTv1aw9vSLKbhaJurWUOCw,dlab,28_12394_6eae4874d9c3amp,Install,0.55,,7FC96957-FFD0-4E75-85D2-7D96C73B5B1D,1557670204,2019-05-12 22:10:04,1557683102,2019-05-13 01:45:02,1557683102,5cd8292e4cc89400013047ee,http://dashboard.d-lab.io/postback?clickid=5cd8292e4cc89400013047ee&secure=bd16ae7d609965b6d66bdfc7d1eb046e,idfa_7FC96957-FFD0-4E75-85D2-7D96C73B5B1D,
iTv1aw9vSLKbhaJurWUOCw,dlab,28_12394_6eae4874d9c3amp,Install,0.55,,ABBA7963-4D7F-4B0D-B9EF-3CB5D18C4570,1557828879,2019-05-14 18:14:39,1557830772,2019-05-14 18:46:12,1557830772,5cda950e4cc894000175de2f,http://dashboard.d-lab.io/postback?clickid=5cda950e4cc894000175de2f&secure=bd16ae7d609965b6d66bdfc7d1eb046e,idfa_ABBA7963-4D7F-4B0D-B9EF-3CB5D18C4570,
iTv1aw9vSLKbhaJurWUOCw,dlab,28_12394_6eae4874d9c3amp,Install,0.55,,C3E627BA-163A-4CC3-9CAD-458D31D844CF,1557328567,2019-05-08 23:16:07,1557393285,2019-05-09 17:14:45,1557393285,5cd2f2b64cc8940001e09c84,http://dashboard.d-lab.io/postback?clickid=5cd2f2b64cc8940001e09c84&secure=bd16ae7d609965b6d66bdfc7d1eb046e,idfa_C3E627BA-163A-4CC3-9CAD-458D31D844CF,
iTv1aw9vSLKbhaJurWUOCw,dlab,28_12394_6eae4874d9c3amp,Install,0.55,,7E233E79-3208-4207-84A5-731B9A38D416,1557422329,2019-05-10 01:18:49,1557458045,2019-05-10 11:14:05,1557458045,5cd460db4cc8940001996bc1,http://dashboard.d-lab.io/postback?clickid=5cd460db4cc8940001996bc1&secure=bd16ae7d609965b6d66bdfc7d1eb046e,idfa_7E233E79-3208-4207-84A5-731B9A38D416,
iTv1aw9vSLKbhaJurWUOCw,dlab,28_12394_6eae4874d9c3amp,Install,0.55,,7FB71CD8-1E30-4316-AF6F-2A1C19DC5B91,1557645151,2019-05-12 15:12:31,1557724466,2019-05-13 13:14:26,1557724466,5cd7c75e4cc894000135933b,http://dashboard.d-lab.io/postback?clickid=5cd7c75e4cc894000135933b&secure=bd16ae7d609965b6d66bdfc7d1eb046e,idfa_7FB71CD8-1E30-4316-AF6F-2A1C19DC5B91,
iTv1aw9vSLKbhaJurWUOCw,dlab,28_12394_6eae4874d9c3amp,Install,0.55,,F591FFDC-9D87-4867-8AEB-3E86D39248EC,1557418351,2019-05-10 00:12:31,1557496718,2019-05-10 21:58:38,1557496718,5cd4516f4cc8940001bc2270,http://dashboard.d-lab.io/postback?clickid=5cd4516f4cc8940001bc2270&secure=bd16ae7d609965b6d66bdfc7d1eb046e,idfa_F591FFDC-9D87-4867-8AEB-3E86D39248EC,
iTv1aw9vSLKbhaJurWUOCw,dlab,28_12394_6eae4874d9c3amp,Install,0.55,,CF65AA4B-E8C3-4A3B-A476-BB311BD52317,1557214926,2019-05-07 15:42:06,1557224726,2019-05-07 18:25:26,1557224726,5cd136c94cc8940001aa87e2,http://dashboard.d-lab.io/postback?clickid=5cd136c94cc8940001aa87e2&secure=bd16ae7d609965b6d66bdfc7d1eb046e,idfa_CF65AA4B-E8C3-4A3B-A476-BB311BD52317,
iTv1aw9vSLKbhaJurWUOCw,dlab,28_12394_6eae4874d9c3amp,Install,0.55,,10D3701E-E84F-4ACA-B5B4-B39F624367BE,1557897159,2019-05-15 13:12:39,1557979034,2019-05-16 11:57:14,1557979034,5cdb9fc74cc89400013b48f8,http://dashboard.d-lab.io/postback?clickid=5cdb9fc74cc89400013b48f8&secure=bd16ae7d609965b6d66bdfc7d1eb046e,idfa_10D3701E-E84F-4ACA-B5B4-B39F624367BE,
iTv1aw9vSLKbhaJurWUOCw,dlab,28_12394_6eae4874d9c3amp,Install,0.55,,B8A7906D-4892-48A6-9487-63D277FC5239,1558261857,2019-05-19 18:30:57,1558264210,2019-05-19 19:10:10,1558264210,5ce130604cc89400010cf12d,http://dashboard.d-lab.io/postback?clickid=5ce130604cc89400010cf12d&secure=bd16ae7d609965b6d66bdfc7d1eb046e,idfa_B8A7906D-4892-48A6-9487-63D277FC5239,
iTv1aw9vSLKbhaJurWUOCw,dlab,28_12394_6eae4874d9c3amp,Install,0.55,,213E4C71-FCAE-41C2-9775-CCC9FEB0A19A,1558364411,2019-05-20 23:00:11,1558373609,2019-05-21 01:33:29,1558373609,5ce2c0fa4cc89400011f3984,http://dashboard.d-lab.io/postback?clickid=5ce2c0fa4cc89400011f3984&secure=bd16ae7d609965b6d66bdfc7d1eb046e,idfa_213E4C71-FCAE-41C2-9775-CCC9FEB0A19A,
iTv1aw9vSLKbhaJurWUOCw,dlab,28_12394_6eae4874d9c3amp,Install,0.55,,BF4B91F2-61A6-4DC3-B04C-1A7291CB8FFA,1556937460,2019-05-04 10:37:40,1556941825,2019-05-04 11:50:25,1556941825,5cccfaf34cc89400011d305d,http://dashboard.d-lab.io/postback?clickid=5cccfaf34cc89400011d305d&secure=bd16ae7d609965b6d66bdfc7d1eb046e,idfa_BF4B91F2-61A6-4DC3-B04C-1A7291CB8FFA,
iTv1aw9vSLKbhaJurWUOCw,dlab,28_12394_6eae4874d9c3amp,Install,0.55,,5B73361E-A192-44B0-9CB9-211F9D1228F0,1558162846,2019-05-18 15:00:46,1558169847,2019-05-18 16:57:27,1558169847,5cdfad9d4cc8940001225357,http://dashboard.d-lab.io/postback?clickid=5cdfad9d4cc8940001225357&secure=bd16ae7d609965b6d66bdfc7d1eb046e,idfa_5B73361E-A192-44B0-9CB9-211F9D1228F0,
iTv1aw9vSLKbhaJurWUOCw,dlab,28_12394_6eae4874d9c3amp,Install,0.55,,0E8CF2F8-9A0C-4289-813F-93873D6B2D2D,1558189422,2019-05-18 22:23:42,1558189800,2019-05-18 22:30:00,1558189800,5ce0156c4cc8940001d105cc,http://dashboard.d-lab.io/postback?clickid=5ce0156c4cc8940001d105cc&secure=bd16ae7d609965b6d66bdfc7d1eb046e,idfa_0E8CF2F8-9A0C-4289-813F-93873D6B2D2D,
iTv1aw9vSLKbhaJurWUOCw,dlab,28_12394_6eae4874d9c3amp,Install,0.55,,304CF47F-3B9E-4D6A-8747-E0966CA30771,1557286976,2019-05-08 11:42:56,1557288611,2019-05-08 12:10:11,1557288611,5cd250404cc8940001f4dc5d,http://dashboard.d-lab.io/postback?clickid=5cd250404cc8940001f4dc5d&secure=bd16ae7d609965b6d66bdfc7d1eb046e,idfa_304CF47F-3B9E-4D6A-8747-E0966CA30771,
iTv1aw9vSLKbhaJurWUOCw,dlab,28_12394_6eae4874d9c3amp,Install,0.55,,08A08F9A-8B09-431C-BA15-5E52CA45EE91,1557485874,2019-05-10 18:57:54,1557486498,2019-05-10 19:08:18,1557486498,5cd559304cc8940001fb7fe4,http://dashboard.d-lab.io/postback?clickid=5cd559304cc8940001fb7fe4&secure=bd16ae7d609965b6d66bdfc7d1eb046e,idfa_08A08F9A-8B09-431C-BA15-5E52CA45EE91,
iTv1aw9vSLKbhaJurWUOCw,dlab,28_12394_6eae4874d9c3amp,Install,0.55,,FF6D1AD2-07AF-4C6E-9F70-1D5DD77BAA93,1558346109,2019-05-20 17:55:09,1558356350,2019-05-20 20:45:50,1558356350,5ce2797c4cc89400013a7706,http://dashboard.d-lab.io/postback?clickid=5ce2797c4cc89400013a7706&secure=bd16ae7d609965b6d66bdfc7d1eb046e,idfa_FF6D1AD2-07AF-4C6E-9F70-1D5DD77BAA93,
iTv1aw9vSLKbhaJurWUOCw,dlab,28_12394_6eae4874d9c3amp,Install,0.55,,166C50B6-462D-4D8C-89BA-6366E2578107,1558090580,2019-05-17 18:56:20,1558097004,2019-05-17 20:43:24,1558097004,5cde93534cc8940001fa5918,http://dashboard.d-lab.io/postback?clickid=5cde93534cc8940001fa5918&secure=bd16ae7d609965b6d66bdfc7d1eb046e,idfa_166C50B6-462D-4D8C-89BA-6366E2578107,
iTv1aw9vSLKbhaJurWUOCw,dlab,28_12394_6eae4874d9c3amp,Install,0.55,,8C878F59-A3EF-48B2-8F29-27B307EC1A49,1557377403,2019-05-09 12:50:03,1557391851,2019-05-09 16:50:51,1557391851,5cd3b17b4cc89400015e68a8,http://dashboard.d-lab.io/postback?clickid=5cd3b17b4cc89400015e68a8&secure=bd16ae7d609965b6d66bdfc7d1eb046e,idfa_8C878F59-A3EF-48B2-8F29-27B307EC1A49,
iTv1aw9vSLKbhaJurWUOCw,dlab,28_12394_6eae4874d9c3amp,Install,0.55,,FF6556A5-B580-4B10-BFB5-ACCCB106AA00,1558578205,2019-05-23 10:23:25,1558594843,2019-05-23 15:00:43,1558594843,5ce603fb4cc89400013a55b4,http://dashboard.d-lab.io/postback?clickid=5ce603fb4cc89400013a55b4&secure=bd16ae7d609965b6d66bdfc7d1eb046e,idfa_FF6556A5-B580-4B10-BFB5-ACCCB106AA00,
iTv1aw9vSLKbhaJurWUOCw,dlab,28_12394_6eae4874d9c3amp,Install,0.55,,4C7E07CE-0E8E-4566-88A2-A1072E1A7E38,1557649908,2019-05-12 16:31:48,1557664544,2019-05-12 20:35:44,1557664544,5cd7d9f44cc894000114cccb,http://dashboard.d-lab.io/postback?clickid=5cd7d9f44cc894000114cccb&secure=bd16ae7d609965b6d66bdfc7d1eb046e,idfa_4C7E07CE-0E8E-4566-88A2-A1072E1A7E38,
iTv1aw9vSLKbhaJurWUOCw,dlab,28_12394_6eae4874d9c3amp,Install,0.55,,C834D81B-4F93-40E1-B3DE-969B7471F23A,1557937634,2019-05-16 00:27:14,1557965886,2019-05-16 08:18:06,1557965886,5cdc3de24cc89400011a2429,http://dashboard.d-lab.io/postback?clickid=5cdc3de24cc89400011a2429&secure=bd16ae7d609965b6d66bdfc7d1eb046e,idfa_C834D81B-4F93-40E1-B3DE-969B7471F23A,
iTv1aw9vSLKbhaJurWUOCw,dlab,28_12394_6eae4874d9c3amp,Install,0.55,,8A532485-6AAC-4276-BFBD-A9E7ED99D417,1557975700,2019-05-16 11:01:40,1557983018,2019-05-16 13:03:38,1557983018,5cdcd2934cc89400014924a8,http://dashboard.d-lab.io/postback?clickid=5cdcd2934cc89400014924a8&secure=bd16ae7d609965b6d66bdfc7d1eb046e,idfa_8A532485-6AAC-4276-BFBD-A9E7ED99D417,
iTv1aw9vSLKbhaJurWUOCw,dlab,28_12394_6eae4874d9c3amp,Install,0.55,,57836B10-102A-4CBC-A0E6-F2F8A3ADA215,1557206754,2019-05-07 13:25:54,1557230542,2019-05-07 20:02:22,1557230542,5cd116e14cc89400018ee429,http://dashboard.d-lab.io/postback?clickid=5cd116e14cc89400018ee429&secure=bd16ae7d609965b6d66bdfc7d1eb046e,idfa_57836B10-102A-4CBC-A0E6-F2F8A3ADA215,
iTv1aw9vSLKbhaJurWUOCw,dlab,28_12394_6eae4874d9c3amp,Install,0.55,,57FF69AC-75B4-4648-9EAD-CD0F963524AB,1557502393,2019-05-10 23:33:13,1557578385,2019-05-11 20:39:45,1557578385,5cd599b74cc8940001e2b7a6,http://dashboard.d-lab.io/postback?clickid=5cd599b74cc8940001e2b7a6&secure=bd16ae7d609965b6d66bdfc7d1eb046e,idfa_57FF69AC-75B4-4648-9EAD-CD0F963524AB,
iTv1aw9vSLKbhaJurWUOCw,dlab,28_12394_6eae4874d9c3amp,Install,0.55,,261D1C39-9C02-4019-B3FD-27CD21878428,1557845554,2019-05-14 22:52:34,1557886046,2019-05-15 10:07:26,1557886046,5cdad6314cc8940001c834e3,http://dashboard.d-lab.io/postback?clickid=5cdad6314cc8940001c834e3&secure=bd16ae7d609965b6d66bdfc7d1eb046e,idfa_261D1C39-9C02-4019-B3FD-27CD21878428,
iTv1aw9vSLKbhaJurWUOCw,dlab,28_12394_6eae4874d9c3amp,Install,0.55,,596F5FE2-1F3A-4661-9E09-73D276617AFE,1556897940,2019-05-03 23:39:00,1556934945,2019-05-04 09:55:45,1556934945,5ccc60944cc8940001221565,http://dashboard.d-lab.io/postback?clickid=5ccc60944cc8940001221565&secure=bd16ae7d609965b6d66bdfc7d1eb046e,idfa_596F5FE2-1F3A-4661-9E09-73D276617AFE,
iTv1aw9vSLKbhaJurWUOCw,dlab,28_12394_6eae4874d9c3amp,Install,0.55,,A86A7FAB-9783-40AF-A94C-4DC768A6574D,1558514265,2019-05-22 16:37:45,1558522652,2019-05-22 18:57:32,1558522652,5ce50a564cc8940001d7a31d,http://dashboard.d-lab.io/postback?clickid=5ce50a564cc8940001d7a31d&secure=bd16ae7d609965b6d66bdfc7d1eb046e,idfa_A86A7FAB-9783-40AF-A94C-4DC768A6574D,
iTv1aw9vSLKbhaJurWUOCw,dlab,28_12394_6eae4874d9c3amp,Install,0.55,,9F71A21F-9567-4963-864A-40447D2E1D68,1557636937,2019-05-12 12:55:37,1557662008,2019-05-12 19:53:28,1557662008,5cd7a7484cc8940001c3fa80,http://dashboard.d-lab.io/postback?clickid=5cd7a7484cc8940001c3fa80&secure=bd16ae7d609965b6d66bdfc7d1eb046e,idfa_9F71A21F-9567-4963-864A-40447D2E1D68,
iTv1aw9vSLKbhaJurWUOCw,dlab,28_12394_6eae4874d9c3amp,Install,0.55,,C74DED5F-A09D-45DE-A313-1EEFC3EAD84A,1557480686,2019-05-10 17:31:26,1557489295,2019-05-10 19:54:55,1557489295,5cd544ee4cc8940001a16036,http://dashboard.d-lab.io/postback?clickid=5cd544ee4cc8940001a16036&secure=bd16ae7d609965b6d66bdfc7d1eb046e,idfa_C74DED5F-A09D-45DE-A313-1EEFC3EAD84A,
iTv1aw9vSLKbhaJurWUOCw,dlab,28_12394_6eae4874d9c3amp,Install,0.55,,3DB47F5E-8895-478E-A52F-A7BC5673C76A,1557644509,2019-05-12 15:01:49,1557669645,2019-05-12 22:00:45,1557669645,5cd7c4dd4cc894000119031a,http://dashboard.d-lab.io/postback?clickid=5cd7c4dd4cc894000119031a&secure=bd16ae7d609965b6d66bdfc7d1eb046e,idfa_3DB47F5E-8895-478E-A52F-A7BC5673C76A,
iTv1aw9vSLKbhaJurWUOCw,dlab,28_12394_6eae4874d9c3amp,Install,0.55,,7B85647F-3D23-41C1-A4B1-34CD2CF2CD8E,1557739816,2019-05-13 17:30:16,1557744047,2019-05-13 18:40:47,1557744047,5cd939254cc89400015c0cc1,http://dashboard.d-lab.io/postback?clickid=5cd939254cc89400015c0cc1&secure=bd16ae7d609965b6d66bdfc7d1eb046e,idfa_7B85647F-3D23-41C1-A4B1-34CD2CF2CD8E,
iTv1aw9vSLKbhaJurWUOCw,dlab,28_12394_6eae4874d9c3amp,Install,0.55,,794D1F47-9680-4193-AE8A-FC6A89373CF0,1557840825,2019-05-14 21:33:45,1557845641,2019-05-14 22:54:01,1557845641,5cdac3584cc89400010fe898,http://dashboard.d-lab.io/postback?clickid=5cdac3584cc89400010fe898&secure=bd16ae7d609965b6d66bdfc7d1eb046e,idfa_794D1F47-9680-4193-AE8A-FC6A89373CF0,
