cid,partner_id,channel_id,action_id,cpi,ip,idfa,click time,click datetime,install time,install datetime,postback time,click id,postback url,unique user id
1JYr-2NpRyWCwFsg22Fiyw,doglobal_api,450_20150197,Install,0.8,222.97.78.179,c8dfefa2-e0f9-44ea-bfa6-d23aa6382a61,1556839504,2019-05-03 07:25:04,1556839538,2019-05-03 07:25:38,1556839568,P_634af92bb3ebad15-NDUwXy0xMzUzODUwMy04MDAtOTYwLTA1MDMtLTIwMTUwMTk3,http://pb.xyz.duunion.com/conv?tid=P_634af92bb3ebad15-NDUwXy0xMzUzODUwMy04MDAtOTYwLTA1MDMtLTIwMTUwMTk3&adv_sectkn=55dea06a643eb8a2d267a735fe2683bd&adv_name=appier-api&payout=0.8,idfa_c8dfefa2-e0f9-44ea-bfa6-d23aa6382a61,%ED%95%9C%EA%B5%AD%EC%96%B4
1JYr-2NpRyWCwFsg22Fiyw,doglobal_api,450_20150197,Install,0.8,182.216.31.141,ba2a3211-efc5-4283-9f49-8171dc68b446,1556845192,2019-05-03 08:59:52,1556845208,2019-05-03 09:00:08,1556845239,B_cbf5181ed0cc2456-NDUwXy0xMzUzODUwMy04MDAtOTYwLTA1MDMtLTIwMTUwMTk3,http://pb.xyz.duunion.com/conv?tid=B_cbf5181ed0cc2456-NDUwXy0xMzUzODUwMy04MDAtOTYwLTA1MDMtLTIwMTUwMTk3&adv_sectkn=55dea06a643eb8a2d267a735fe2683bd&adv_name=appier-api&payout=0.8,idfa_ba2a3211-efc5-4283-9f49-8171dc68b446,%ED%95%9C%EA%B5%AD%EC%96%B4
1JYr-2NpRyWCwFsg22Fiyw,doglobal_api,450_20150197,Install,0.8,39.7.50.188,6464714a-d147-40b4-b3e9-5999724ca981,1556859901,2019-05-03 13:05:01,1556859927,2019-05-03 13:05:27,1556859957,P_64c5e64529f1cada-NDUwXy0xMzUzODUwMy04MDAtOTYwLTA1MDMtLTIwMTUwMTk3,http://pb.xyz.duunion.com/conv?tid=P_64c5e64529f1cada-NDUwXy0xMzUzODUwMy04MDAtOTYwLTA1MDMtLTIwMTUwMTk3&adv_sectkn=55dea06a643eb8a2d267a735fe2683bd&adv_name=appier-api&payout=0.8,idfa_6464714a-d147-40b4-b3e9-5999724ca981,%ED%95%9C%EA%B5%AD%EC%96%B4
1JYr-2NpRyWCwFsg22Fiyw,doglobal_api,450_20150197,Install,0.8,175.223.39.136,4d8b2c66-3667-492b-a3f6-f057e58fe65c,1556878531,2019-05-03 18:15:31,1556878785,2019-05-03 18:19:45,1556878816,P_2355b01a6e09937c-NDUwXy0xMzUzODUwMy04MDAtOTYwLTA1MDMtLTIwMTUwMTk3,http://pb.xyz.duunion.com/conv?tid=P_2355b01a6e09937c-NDUwXy0xMzUzODUwMy04MDAtOTYwLTA1MDMtLTIwMTUwMTk3&adv_sectkn=55dea06a643eb8a2d267a735fe2683bd&adv_name=appier-api&payout=0.8,idfa_4d8b2c66-3667-492b-a3f6-f057e58fe65c,%ED%95%9C%EA%B5%AD%EC%96%B4
1JYr-2NpRyWCwFsg22Fiyw,doglobal_api,450_20150197,Install,0.8,223.38.22.249,49012215-40dd-4c2a-9db3-8f2018197792,1556985553,2019-05-04 23:59:13,1556985605,2019-05-05 00:00:05,1556985635,P_d8da962b62942b3a-NDUwXy0xMzUzODUwMy04MDAtOTYwLTA1MDQtLTIwMTUwMTk3,http://pb.xyz.duunion.com/conv?tid=P_d8da962b62942b3a-NDUwXy0xMzUzODUwMy04MDAtOTYwLTA1MDQtLTIwMTUwMTk3&adv_sectkn=55dea06a643eb8a2d267a735fe2683bd&adv_name=appier-api&payout=0.8,idfa_49012215-40dd-4c2a-9db3-8f2018197792,%ED%95%9C%EA%B5%AD%EC%96%B4
1JYr-2NpRyWCwFsg22Fiyw,doglobal_api,450_20150197,Install,0.8,1.242.209.238,07011d03-14a4-411f-8a8f-54b157901c14,1557090522,2019-05-06 05:08:42,1557090546,2019-05-06 05:09:06,1557090577,P_68011a72ef7c91a9-NDUwXy0xMzUzODUwMy04MDAtOTYwLTA1MDYtLTIwMTUwMTk3,http://pb.xyz.duunion.com/conv?tid=P_68011a72ef7c91a9-NDUwXy0xMzUzODUwMy04MDAtOTYwLTA1MDYtLTIwMTUwMTk3&adv_sectkn=55dea06a643eb8a2d267a735fe2683bd&adv_name=appier-api&payout=0.8,idfa_07011d03-14a4-411f-8a8f-54b157901c14,%ED%95%9C%EA%B5%AD%EC%96%B4
1JYr-2NpRyWCwFsg22Fiyw,doglobal_api,450_20150197,Install,0.8,223.38.28.101,2cd2a942-49d8-4fd3-aa25-35ea0197e0a5,1557076496,2019-05-06 01:14:56,1557076699,2019-05-06 01:18:19,1557076729,P_39e7dcfcf5715221-NDUwXy0xMzUzODUwMy04MDAtOTYwLTA1MDYtLTIwMTUwMTk3,http://pb.xyz.duunion.com/conv?tid=P_39e7dcfcf5715221-NDUwXy0xMzUzODUwMy04MDAtOTYwLTA1MDYtLTIwMTUwMTk3&adv_sectkn=55dea06a643eb8a2d267a735fe2683bd&adv_name=appier-api&payout=0.8,idfa_2cd2a942-49d8-4fd3-aa25-35ea0197e0a5,%ED%95%9C%EA%B5%AD%EC%96%B4
1JYr-2NpRyWCwFsg22Fiyw,doglobal_api,450_20150197,Install,0.8,223.62.175.118,d82f0b42-5e00-4981-b0f6-534163fde20d,1556845580,2019-05-03 09:06:20,1556848414,2019-05-03 09:53:34,1556848444,P_aef99fe487673fbd-NDUwXy0xMzUzODUwMy04MDAtOTYwLTA1MDMtLTIwMTUwMTk3,http://pb.xyz.duunion.com/conv?tid=P_aef99fe487673fbd-NDUwXy0xMzUzODUwMy04MDAtOTYwLTA1MDMtLTIwMTUwMTk3&adv_sectkn=55dea06a643eb8a2d267a735fe2683bd&adv_name=appier-api&payout=0.8,idfa_d82f0b42-5e00-4981-b0f6-534163fde20d,%ED%95%9C%EA%B5%AD%EC%96%B4
1JYr-2NpRyWCwFsg22Fiyw,doglobal_api,450_20150197,Install,0.8,223.38.21.80,ad3f99c0-857c-4305-b959-d0f6296c198a,1557077137,2019-05-06 01:25:37,1557077275,2019-05-06 01:27:55,1557077305,P_751b40ec16a884d6-NDUwXy0xMzUzODUwMy04MDAtOTYwLTA1MDYtLTIwMTUwMTk3,http://pb.xyz.duunion.com/conv?tid=P_751b40ec16a884d6-NDUwXy0xMzUzODUwMy04MDAtOTYwLTA1MDYtLTIwMTUwMTk3&adv_sectkn=55dea06a643eb8a2d267a735fe2683bd&adv_name=appier-api&payout=0.8,idfa_ad3f99c0-857c-4305-b959-d0f6296c198a,%ED%95%9C%EA%B5%AD%EC%96%B4
1JYr-2NpRyWCwFsg22Fiyw,doglobal_api,450_20150197,Install,0.8,1.242.209.238,53688464-20ee-40ed-9477-0d0504a5e1d6,1556883353,2019-05-03 19:35:53,1556883370,2019-05-03 19:36:10,1556883401,B_26bbb90a69a59fbf-NDUwXy0xMzUzODUwMy04MDAtOTYwLTA1MDMtLTIwMTUwMTk3,http://pb.xyz.duunion.com/conv?tid=B_26bbb90a69a59fbf-NDUwXy0xMzUzODUwMy04MDAtOTYwLTA1MDMtLTIwMTUwMTk3&adv_sectkn=55dea06a643eb8a2d267a735fe2683bd&adv_name=appier-api&payout=0.8,idfa_53688464-20ee-40ed-9477-0d0504a5e1d6,%ED%95%9C%EA%B5%AD%EC%96%B4
1JYr-2NpRyWCwFsg22Fiyw,doglobal_api,450_20150197,Install,0.8,121.180.18.13,cbb311c0-6d08-4a4b-a3ff-efe4b27d5c79,1556975213,2019-05-04 21:06:53,1556975248,2019-05-04 21:07:28,1556975279,P_3b32152a665d6a27-NDUwXy0xMzUzODUwMy04MDAtOTYwLTA1MDQtLTIwMTUwMTk3,http://pb.xyz.duunion.com/conv?tid=P_3b32152a665d6a27-NDUwXy0xMzUzODUwMy04MDAtOTYwLTA1MDQtLTIwMTUwMTk3&adv_sectkn=55dea06a643eb8a2d267a735fe2683bd&adv_name=appier-api&payout=0.8,idfa_cbb311c0-6d08-4a4b-a3ff-efe4b27d5c79,%ED%95%9C%EA%B5%AD%EC%96%B4
1JYr-2NpRyWCwFsg22Fiyw,doglobal_api,450_20150197,Install,0.8,223.62.219.141,88e7e86c-3e0f-459a-bfa7-c7c5bb7fb793,1556896605,2019-05-03 23:16:45,1556896643,2019-05-03 23:17:23,1556896673,B_e3c84b465f99a8d5-NDUwXy0xMzUzODUwMy04MDAtOTYwLTA1MDMtLTIwMTUwMTk3,http://pb.xyz.duunion.com/conv?tid=B_e3c84b465f99a8d5-NDUwXy0xMzUzODUwMy04MDAtOTYwLTA1MDMtLTIwMTUwMTk3&adv_sectkn=55dea06a643eb8a2d267a735fe2683bd&adv_name=appier-api&payout=0.8,idfa_88e7e86c-3e0f-459a-bfa7-c7c5bb7fb793,%ED%95%9C%EA%B5%AD%EC%96%B4
1JYr-2NpRyWCwFsg22Fiyw,doglobal_api,450_20150197,Install,0.8,221.161.132.87,7195336e-0727-47bb-a2ad-0fedef6e94c1,1557052655,2019-05-05 18:37:35,1557052672,2019-05-05 18:37:52,1557052703,P_ca283ced80fad48b-NDUwXy0xMzUzODUwMy04MDAtOTYwLTA1MDUtLTIwMTUwMTk3,http://pb.xyz.duunion.com/conv?tid=P_ca283ced80fad48b-NDUwXy0xMzUzODUwMy04MDAtOTYwLTA1MDUtLTIwMTUwMTk3&adv_sectkn=55dea06a643eb8a2d267a735fe2683bd&adv_name=appier-api&payout=0.8,idfa_7195336e-0727-47bb-a2ad-0fedef6e94c1,%ED%95%9C%EA%B5%AD%EC%96%B4
1JYr-2NpRyWCwFsg22Fiyw,doglobal_api,450_20150197,Install,0.8,1.242.209.238,62408669-9e7c-4477-a343-d5a6d495f5ea,1557015290,2019-05-05 08:14:50,1557015327,2019-05-05 08:15:27,1557015358,P_651872010747eb3d-NDUwXy0xMzUzODUwMy04MDAtOTYwLTA1MDUtLTIwMTUwMTk3,http://pb.xyz.duunion.com/conv?tid=P_651872010747eb3d-NDUwXy0xMzUzODUwMy04MDAtOTYwLTA1MDUtLTIwMTUwMTk3&adv_sectkn=55dea06a643eb8a2d267a735fe2683bd&adv_name=appier-api&payout=0.8,idfa_62408669-9e7c-4477-a343-d5a6d495f5ea,%ED%95%9C%EA%B5%AD%EC%96%B4
1JYr-2NpRyWCwFsg22Fiyw,doglobal_api,450_20150197,Install,0.8,223.62.169.174,62880ee6-831a-40fc-98ee-8f583b469de7,1557070450,2019-05-05 23:34:10,1557070588,2019-05-05 23:36:28,1557070619,B_6d5ab94eaa3349c1-NDUwXy0xMzUzODUwMy04MDAtOTYwLTA1MDUtLTIwMTUwMTk3,http://pb.xyz.duunion.com/conv?tid=B_6d5ab94eaa3349c1-NDUwXy0xMzUzODUwMy04MDAtOTYwLTA1MDUtLTIwMTUwMTk3&adv_sectkn=55dea06a643eb8a2d267a735fe2683bd&adv_name=appier-api&payout=0.8,idfa_62880ee6-831a-40fc-98ee-8f583b469de7,%ED%95%9C%EA%B5%AD%EC%96%B4
1JYr-2NpRyWCwFsg22Fiyw,doglobal_api,450_20150197,Install,0.8,223.62.202.5,17213efa-8a5a-4ced-9b5d-4d86840d3f4e,1556985549,2019-05-04 23:59:09,1556985605,2019-05-05 00:00:05,1556985636,P_28c478d6f3896740-NDUwXy0xMzUzODUwMy04MDAtOTYwLTA1MDQtLTIwMTUwMTk3,http://pb.xyz.duunion.com/conv?tid=P_28c478d6f3896740-NDUwXy0xMzUzODUwMy04MDAtOTYwLTA1MDQtLTIwMTUwMTk3&adv_sectkn=55dea06a643eb8a2d267a735fe2683bd&adv_name=appier-api&payout=0.8,idfa_17213efa-8a5a-4ced-9b5d-4d86840d3f4e,%ED%95%9C%EA%B5%AD%EC%96%B4
1JYr-2NpRyWCwFsg22Fiyw,doglobal_api,450_20150197,Install,0.8,223.38.34.75,4cb63eee-f43b-4e15-abf3-4234d5168248,1556902240,2019-05-04 00:50:40,1556902298,2019-05-04 00:51:38,1556902329,B_8daa4ec028cad854-NDUwXy0xMzUzODUwMy04MDAtOTYwLTA1MDQtLTIwMTUwMTk3,http://pb.xyz.duunion.com/conv?tid=B_8daa4ec028cad854-NDUwXy0xMzUzODUwMy04MDAtOTYwLTA1MDQtLTIwMTUwMTk3&adv_sectkn=55dea06a643eb8a2d267a735fe2683bd&adv_name=appier-api&payout=0.8,idfa_4cb63eee-f43b-4e15-abf3-4234d5168248,%ED%95%9C%EA%B5%AD%EC%96%B4
1JYr-2NpRyWCwFsg22Fiyw,doglobal_api,450_20150197,Install,0.8,116.39.59.163,109dd89a-2da6-4d01-bf27-2f186d91c612,1556969074,2019-05-04 19:24:34,1556969117,2019-05-04 19:25:17,1556969148,B_e4ffe2395505fd55-NDUwXy0xMzUzODUwMy04MDAtOTYwLTA1MDQtLTIwMTUwMTk3,http://pb.xyz.duunion.com/conv?tid=B_e4ffe2395505fd55-NDUwXy0xMzUzODUwMy04MDAtOTYwLTA1MDQtLTIwMTUwMTk3&adv_sectkn=55dea06a643eb8a2d267a735fe2683bd&adv_name=appier-api&payout=0.8,idfa_109dd89a-2da6-4d01-bf27-2f186d91c612,%ED%95%9C%EA%B5%AD%EC%96%B4
1JYr-2NpRyWCwFsg22Fiyw,doglobal_api,450_20150197,Install,0.8,223.62.8.162,d48f6f55-3a26-4e21-a108-26f2fc7ce75a,1556985975,2019-05-05 00:06:15,1556986123,2019-05-05 00:08:43,1556986153,B_ad5f03dbe40f0280-NDUwXy0xMzUzODUwMy04MDAtOTYwLTA1MDUtLTIwMTUwMTk3,http://pb.xyz.duunion.com/conv?tid=B_ad5f03dbe40f0280-NDUwXy0xMzUzODUwMy04MDAtOTYwLTA1MDUtLTIwMTUwMTk3&adv_sectkn=55dea06a643eb8a2d267a735fe2683bd&adv_name=appier-api&payout=0.8,idfa_d48f6f55-3a26-4e21-a108-26f2fc7ce75a,%ED%95%9C%EA%B5%AD%EC%96%B4
1JYr-2NpRyWCwFsg22Fiyw,doglobal_api,450_20150197,Install,0.8,223.39.156.210,e9d19cbe-3a3c-4197-8f81-8cd68ed2be01,1557069952,2019-05-05 23:25:52,1557069964,2019-05-05 23:26:04,1557072322,B_9506f56aacf58686-NDUwXy0xMzUzODUwMy04MDAtOTYwLTA1MDUtLTIwMTUwMTk3,http://pb.xyz.duunion.com/conv?tid=B_9506f56aacf58686-NDUwXy0xMzUzODUwMy04MDAtOTYwLTA1MDUtLTIwMTUwMTk3&adv_sectkn=55dea06a643eb8a2d267a735fe2683bd&adv_name=appier-api&payout=0.8,idfa_e9d19cbe-3a3c-4197-8f81-8cd68ed2be01,%ED%95%9C%EA%B5%AD%EC%96%B4
1JYr-2NpRyWCwFsg22Fiyw,doglobal_api,450_20150197,Install,0.8,223.38.17.220,25c20e5d-4d65-40c8-a942-70b66a4f1878,1556986787,2019-05-05 00:19:47,1556986869,2019-05-05 00:21:09,1556986899,P_b13fea8e1682f212-NDUwXy0xMzUzODUwMy04MDAtOTYwLTA1MDUtLTIwMTUwMTk3,http://pb.xyz.duunion.com/conv?tid=P_b13fea8e1682f212-NDUwXy0xMzUzODUwMy04MDAtOTYwLTA1MDUtLTIwMTUwMTk3&adv_sectkn=55dea06a643eb8a2d267a735fe2683bd&adv_name=appier-api&payout=0.8,idfa_25c20e5d-4d65-40c8-a942-70b66a4f1878,%ED%95%9C%EA%B5%AD%EC%96%B4
1JYr-2NpRyWCwFsg22Fiyw,doglobal_api,450_20150197,Install,0.8,223.33.184.109,382ddab4-3096-4133-8a70-f7338b6c90ec,1557073913,2019-05-06 00:31:53,1557073923,2019-05-06 00:32:03,1557074845,B_5a3a5bcb886e8c6e-NDUwXy0xMzUzODUwMy04MDAtOTYwLTA1MDYtLTIwMTUwMTk3,http://pb.xyz.duunion.com/conv?tid=B_5a3a5bcb886e8c6e-NDUwXy0xMzUzODUwMy04MDAtOTYwLTA1MDYtLTIwMTUwMTk3&adv_sectkn=55dea06a643eb8a2d267a735fe2683bd&adv_name=appier-api&payout=0.8,idfa_382ddab4-3096-4133-8a70-f7338b6c90ec,%ED%95%9C%EA%B5%AD%EC%96%B4
1JYr-2NpRyWCwFsg22Fiyw,doglobal_api,450_20150197,Install,0.8,122.32.217.15,ac8be7a5-b17e-4370-bd89-de38b64bbf79,1557107915,2019-05-06 09:58:35,1557108450,2019-05-06 10:07:30,1557108480,P_0eb5c0f0f9151558-NDUwXy0xMzUzODUwMy04MDAtOTYwLTA1MDYtLTIwMTUwMTk3,http://pb.xyz.duunion.com/conv?tid=P_0eb5c0f0f9151558-NDUwXy0xMzUzODUwMy04MDAtOTYwLTA1MDYtLTIwMTUwMTk3&adv_sectkn=55dea06a643eb8a2d267a735fe2683bd&adv_name=appier-api&payout=0.8,idfa_ac8be7a5-b17e-4370-bd89-de38b64bbf79,%ED%95%9C%EA%B5%AD%EC%96%B4
1JYr-2NpRyWCwFsg22Fiyw,doglobal_api,450_20150197,Install,0.8,223.62.175.58,f3fd4c5c-9a47-40e4-abca-436962f13ebb,1556886600,2019-05-03 20:30:00,1556886600,2019-05-03 20:30:00,1556886631,B_0b4e09e2fd4e096f-NDUwXy0xMzUzODUwMy04MDAtOTYwLTA1MDMtLTIwMTUwMTk3,http://pb.xyz.duunion.com/conv?tid=B_0b4e09e2fd4e096f-NDUwXy0xMzUzODUwMy04MDAtOTYwLTA1MDMtLTIwMTUwMTk3&adv_sectkn=55dea06a643eb8a2d267a735fe2683bd&adv_name=appier-api&payout=0.8,idfa_f3fd4c5c-9a47-40e4-abca-436962f13ebb,%ED%95%9C%EA%B5%AD%EC%96%B4
1JYr-2NpRyWCwFsg22Fiyw,doglobal_api,450_20150197,Install,0.8,49.170.201.42,c076e117-9389-407e-a0c5-5f1f306b8c94,1556935928,2019-05-04 10:12:08,1556935968,2019-05-04 10:12:48,1556936172,B_78f7604ebd0d871b-NDUwXy0xMzUzODUwMy04MDAtOTYwLTA1MDQtLTIwMTUwMTk3,http://pb.xyz.duunion.com/conv?tid=B_78f7604ebd0d871b-NDUwXy0xMzUzODUwMy04MDAtOTYwLTA1MDQtLTIwMTUwMTk3&adv_sectkn=55dea06a643eb8a2d267a735fe2683bd&adv_name=appier-api&payout=0.8,idfa_c076e117-9389-407e-a0c5-5f1f306b8c94,%ED%95%9C%EA%B5%AD%EC%96%B4
1JYr-2NpRyWCwFsg22Fiyw,doglobal_api,450_20150197,Install,0.8,1.242.209.238,c9ab358a-394f-4bb2-a7fc-4ee0bb55d1dc,1556880491,2019-05-03 18:48:11,1556880554,2019-05-03 18:49:14,1556880585,B_51df1ee2a6c6e969-NDUwXy0xMzUzODUwMy04MDAtOTYwLTA1MDMtLTIwMTUwMTk3,http://pb.xyz.duunion.com/conv?tid=B_51df1ee2a6c6e969-NDUwXy0xMzUzODUwMy04MDAtOTYwLTA1MDMtLTIwMTUwMTk3&adv_sectkn=55dea06a643eb8a2d267a735fe2683bd&adv_name=appier-api&payout=0.8,idfa_c9ab358a-394f-4bb2-a7fc-4ee0bb55d1dc,%ED%95%9C%EA%B5%AD%EC%96%B4
1JYr-2NpRyWCwFsg22Fiyw,doglobal_api,450_20150197,Install,0.8,1.242.209.238,4466627e-46c9-437b-9d57-8d5a6cac05ba,1556879968,2019-05-03 18:39:28,1556880004,2019-05-03 18:40:04,1556880034,P_0b3dd10922eb680e-NDUwXy0xMzUzODUwMy04MDAtOTYwLTA1MDMtLTIwMTUwMTk3,http://pb.xyz.duunion.com/conv?tid=P_0b3dd10922eb680e-NDUwXy0xMzUzODUwMy04MDAtOTYwLTA1MDMtLTIwMTUwMTk3&adv_sectkn=55dea06a643eb8a2d267a735fe2683bd&adv_name=appier-api&payout=0.8,idfa_4466627e-46c9-437b-9d57-8d5a6cac05ba,%ED%95%9C%EA%B5%AD%EC%96%B4
1JYr-2NpRyWCwFsg22Fiyw,doglobal_api,450_20150197,Install,0.8,182.230.4.209,7d1046cf-c1cb-4b53-89db-6c8060c7df55,1556847270,2019-05-03 09:34:30,1556847270,2019-05-03 09:34:30,1556847301,B_983a0bfd66054a2b-NDUwXy0xMzUzODUwMy04MDAtOTYwLTA1MDMtLTIwMTUwMTk3,http://pb.xyz.duunion.com/conv?tid=B_983a0bfd66054a2b-NDUwXy0xMzUzODUwMy04MDAtOTYwLTA1MDMtLTIwMTUwMTk3&adv_sectkn=55dea06a643eb8a2d267a735fe2683bd&adv_name=appier-api&payout=0.8,idfa_7d1046cf-c1cb-4b53-89db-6c8060c7df55,%ED%95%9C%EA%B5%AD%EC%96%B4
1JYr-2NpRyWCwFsg22Fiyw,doglobal_api,450_20150197,Install,0.8,223.62.172.23,f960433b-efa3-43cd-93d0-fb208d802c10,1556898055,2019-05-03 23:40:55,1556898198,2019-05-03 23:43:18,1556898228,P_2da41032525eac57-NDUwXy0xMzUzODUwMy04MDAtOTYwLTA1MDMtLTIwMTUwMTk3,http://pb.xyz.duunion.com/conv?tid=P_2da41032525eac57-NDUwXy0xMzUzODUwMy04MDAtOTYwLTA1MDMtLTIwMTUwMTk3&adv_sectkn=55dea06a643eb8a2d267a735fe2683bd&adv_name=appier-api&payout=0.8,idfa_f960433b-efa3-43cd-93d0-fb208d802c10,%ED%95%9C%EA%B5%AD%EC%96%B4
1JYr-2NpRyWCwFsg22Fiyw,doglobal_api,450_20150197,Install,0.8,1.242.209.238,72a3419e-0232-42f6-af8b-31883f2b9b7c,1556880511,2019-05-03 18:48:31,1556880560,2019-05-03 18:49:20,1556880590,B_3522821f2d472398-NDUwXy0xMzUzODUwMy04MDAtOTYwLTA1MDMtLTIwMTUwMTk3,http://pb.xyz.duunion.com/conv?tid=B_3522821f2d472398-NDUwXy0xMzUzODUwMy04MDAtOTYwLTA1MDMtLTIwMTUwMTk3&adv_sectkn=55dea06a643eb8a2d267a735fe2683bd&adv_name=appier-api&payout=0.8,idfa_72a3419e-0232-42f6-af8b-31883f2b9b7c,%ED%95%9C%EA%B5%AD%EC%96%B4
1JYr-2NpRyWCwFsg22Fiyw,doglobal_api,450_20150197,Install,0.8,121.129.213.97,15512c40-f06a-450b-b246-0850bf85be7f,1556982518,2019-05-04 23:08:38,1556982610,2019-05-04 23:10:10,1556982641,B_a70ee6d2473667ea-NDUwXy0xMzUzODUwMy04MDAtOTYwLTA1MDQtLTIwMTUwMTk3,http://pb.xyz.duunion.com/conv?tid=B_a70ee6d2473667ea-NDUwXy0xMzUzODUwMy04MDAtOTYwLTA1MDQtLTIwMTUwMTk3&adv_sectkn=55dea06a643eb8a2d267a735fe2683bd&adv_name=appier-api&payout=0.8,idfa_15512c40-f06a-450b-b246-0850bf85be7f,%ED%95%9C%EA%B5%AD%EC%96%B4
