cid,partner_id,channel_id,action_id,cpi,ip,idfa,click time,click datetime,install time,install datetime,postback time,click id,postback url,unique user id
N1AFHqzfTGuSB0SmGpCmZA,doglobal_api,784_5308,Install,3.2,218.45.178.104,5411AAB6-43E1-441E-97C3-30B75E393363,1557078283,2019-05-06 01:44:43,1557078393,2019-05-06 01:46:33,1557078424,P_a43ec1fa76d7ffe6-Nzg0Xy0xMjI1MDkzMy0zMjAwLTMyMDAtMDUwNi0tNTMwOA,http://pb.xyz.duunion.com/conv?tid=P_a43ec1fa76d7ffe6-Nzg0Xy0xMjI1MDkzMy0zMjAwLTMyMDAtMDUwNi0tNTMwOA&adv_sectkn=55dea06a643eb8a2d267a735fe2683bd&adv_name=appier-api&payout=3.2,idfa_5411AAB6-43E1-441E-97C3-30B75E393363,ja-JP
N1AFHqzfTGuSB0SmGpCmZA,doglobal_api,784_5308,Install,3.2,126.58.178.38,67617D8D-3827-4071-B9CD-D587E0911505,1557076972,2019-05-06 01:22:52,1557077096,2019-05-06 01:24:56,1557077126,P_90f6f92f1d944496-Nzg0Xy0xMjI1MDkzMy0zMjAwLTMyMDAtMDUwNi0tNTMwOA,http://pb.xyz.duunion.com/conv?tid=P_90f6f92f1d944496-Nzg0Xy0xMjI1MDkzMy0zMjAwLTMyMDAtMDUwNi0tNTMwOA&adv_sectkn=55dea06a643eb8a2d267a735fe2683bd&adv_name=appier-api&payout=3.2,idfa_67617D8D-3827-4071-B9CD-D587E0911505,ja-JP
N1AFHqzfTGuSB0SmGpCmZA,doglobal_api,784_5308,Install,3.2,106.73.136.160,FBD1C830-D579-48AE-87E7-23D8F69737CD,1557078150,2019-05-06 01:42:30,1557078274,2019-05-06 01:44:34,1557078305,P_7355a50a7ad2fa62-Nzg0Xy0xMjI1MDkzMy0zMjAwLTMyMDAtMDUwNi0tNTMwOA,http://pb.xyz.duunion.com/conv?tid=P_7355a50a7ad2fa62-Nzg0Xy0xMjI1MDkzMy0zMjAwLTMyMDAtMDUwNi0tNTMwOA&adv_sectkn=55dea06a643eb8a2d267a735fe2683bd&adv_name=appier-api&payout=3.2,idfa_FBD1C830-D579-48AE-87E7-23D8F69737CD,ja-JP
N1AFHqzfTGuSB0SmGpCmZA,doglobal_api,784_5308,Install,3.2,126.7.140.132,189350AB-71C0-4587-9D1F-2615635220A6,1557077035,2019-05-06 01:23:55,1557077160,2019-05-06 01:26:00,1557077190,B_4fd68c1eca79170e-Nzg0Xy0xMjI1MDkzMy0zMjAwLTMyMDAtMDUwNi0tNTMwOA,http://pb.xyz.duunion.com/conv?tid=B_4fd68c1eca79170e-Nzg0Xy0xMjI1MDkzMy0zMjAwLTMyMDAtMDUwNi0tNTMwOA&adv_sectkn=55dea06a643eb8a2d267a735fe2683bd&adv_name=appier-api&payout=3.2,idfa_189350AB-71C0-4587-9D1F-2615635220A6,ja-JP
N1AFHqzfTGuSB0SmGpCmZA,doglobal_api,784_5308,Install,3.2,126.5.124.25,2A919CF8-0C76-4081-AD74-8401D2EA663D,1557078758,2019-05-06 01:52:38,1557078910,2019-05-06 01:55:10,1557078940,P_e6073f11f87cb4f0-Nzg0Xy0xMjI1MDkzMy0zMjAwLTMyMDAtMDUwNi0tNTMwOA,http://pb.xyz.duunion.com/conv?tid=P_e6073f11f87cb4f0-Nzg0Xy0xMjI1MDkzMy0zMjAwLTMyMDAtMDUwNi0tNTMwOA&adv_sectkn=55dea06a643eb8a2d267a735fe2683bd&adv_name=appier-api&payout=3.2,idfa_2A919CF8-0C76-4081-AD74-8401D2EA663D,ja-JP
N1AFHqzfTGuSB0SmGpCmZA,doglobal_api,784_5308,Install,3.2,60.68.133.126,D4AAE565-0E05-4C67-BFE8-F3D959F2ED58,1557073546,2019-05-06 00:25:46,1557073674,2019-05-06 00:27:54,1557073706,P_016c84b53fdb59c7-Nzg0Xy0xMjI1MDkzMy0zMjAwLTMyMDAtMDUwNi0tNTMwOA,http://pb.xyz.duunion.com/conv?tid=P_016c84b53fdb59c7-Nzg0Xy0xMjI1MDkzMy0zMjAwLTMyMDAtMDUwNi0tNTMwOA&adv_sectkn=55dea06a643eb8a2d267a735fe2683bd&adv_name=appier-api&payout=3.2,idfa_D4AAE565-0E05-4C67-BFE8-F3D959F2ED58,ja-JP
N1AFHqzfTGuSB0SmGpCmZA,doglobal_api,784_5308,Install,3.2,126.163.160.139,3BF62678-EF45-44EC-BFB1-15503906A263,1557075344,2019-05-06 00:55:44,1557075471,2019-05-06 00:57:51,1557075502,P_66d41b44d11054a8-Nzg0Xy0xMjI1MDkzMy0zMjAwLTMyMDAtMDUwNi0tNTMwOA,http://pb.xyz.duunion.com/conv?tid=P_66d41b44d11054a8-Nzg0Xy0xMjI1MDkzMy0zMjAwLTMyMDAtMDUwNi0tNTMwOA&adv_sectkn=55dea06a643eb8a2d267a735fe2683bd&adv_name=appier-api&payout=3.2,idfa_3BF62678-EF45-44EC-BFB1-15503906A263,ja-JP
N1AFHqzfTGuSB0SmGpCmZA,doglobal_api,784_5308,Install,3.2,180.146.78.132,E27B0B41-CA11-4D63-9C64-6624313E33FF,1557077247,2019-05-06 01:27:27,1557077365,2019-05-06 01:29:25,1557077395,P_7e2e4aa783b66e26-Nzg0Xy0xMjI1MDkzMy0zMjAwLTMyMDAtMDUwNi0tNTMwOA,http://pb.xyz.duunion.com/conv?tid=P_7e2e4aa783b66e26-Nzg0Xy0xMjI1MDkzMy0zMjAwLTMyMDAtMDUwNi0tNTMwOA&adv_sectkn=55dea06a643eb8a2d267a735fe2683bd&adv_name=appier-api&payout=3.2,idfa_E27B0B41-CA11-4D63-9C64-6624313E33FF,ja-JP
N1AFHqzfTGuSB0SmGpCmZA,doglobal_api,784_5308,Install,3.2,121.86.29.52,5106EC42-8C20-421D-8F01-2536E2EC44D9,1557076990,2019-05-06 01:23:10,1557077128,2019-05-06 01:25:28,1557077159,P_970a29ad4098ba8e-Nzg0Xy0xMjI1MDkzMy0zMjAwLTMyMDAtMDUwNi0tNTMwOA,http://pb.xyz.duunion.com/conv?tid=P_970a29ad4098ba8e-Nzg0Xy0xMjI1MDkzMy0zMjAwLTMyMDAtMDUwNi0tNTMwOA&adv_sectkn=55dea06a643eb8a2d267a735fe2683bd&adv_name=appier-api&payout=3.2,idfa_5106EC42-8C20-421D-8F01-2536E2EC44D9,ja-JP
N1AFHqzfTGuSB0SmGpCmZA,doglobal_api,784_5308,Install,3.2,222.1.244.210,75F65364-D807-419E-96D1-9A1E7313AA41,1557077042,2019-05-06 01:24:02,1557077171,2019-05-06 01:26:11,1557077201,P_dd24e9965effdb7d-Nzg0Xy0xMjI1MDkzMy0zMjAwLTMyMDAtMDUwNi0tNTMwOA,http://pb.xyz.duunion.com/conv?tid=P_dd24e9965effdb7d-Nzg0Xy0xMjI1MDkzMy0zMjAwLTMyMDAtMDUwNi0tNTMwOA&adv_sectkn=55dea06a643eb8a2d267a735fe2683bd&adv_name=appier-api&payout=3.2,idfa_75F65364-D807-419E-96D1-9A1E7313AA41,ja-JP
N1AFHqzfTGuSB0SmGpCmZA,doglobal_api,784_5308,Install,3.2,180.28.112.171,52FCF989-C8E4-429E-8F5A-482796FB1A83,1557075167,2019-05-06 00:52:47,1557075295,2019-05-06 00:54:55,1557075325,P_b893796e193b5a06-Nzg0Xy0xMjI1MDkzMy0zMjAwLTMyMDAtMDUwNi0tNTMwOA,http://pb.xyz.duunion.com/conv?tid=P_b893796e193b5a06-Nzg0Xy0xMjI1MDkzMy0zMjAwLTMyMDAtMDUwNi0tNTMwOA&adv_sectkn=55dea06a643eb8a2d267a735fe2683bd&adv_name=appier-api&payout=3.2,idfa_52FCF989-C8E4-429E-8F5A-482796FB1A83,ja-JP
N1AFHqzfTGuSB0SmGpCmZA,doglobal_api,784_5308,Install,3.2,118.241.103.62,2B41306A-D8EC-46C3-82C9-CAE247C6450B,1557076550,2019-05-06 01:15:50,1557076682,2019-05-06 01:18:02,1557076723,B_d225a894c42a6679-Nzg0Xy0xMjI1MDkzMy0zMjAwLTMyMDAtMDUwNi0tNTMwOA,http://pb.xyz.duunion.com/conv?tid=B_d225a894c42a6679-Nzg0Xy0xMjI1MDkzMy0zMjAwLTMyMDAtMDUwNi0tNTMwOA&adv_sectkn=55dea06a643eb8a2d267a735fe2683bd&adv_name=appier-api&payout=3.2,idfa_2B41306A-D8EC-46C3-82C9-CAE247C6450B,ja-JP
N1AFHqzfTGuSB0SmGpCmZA,doglobal_api,784_5308,Install,3.2,180.144.189.250,5CC3C1E9-003F-4DD4-922F-5086D24A465B,1557078718,2019-05-06 01:51:58,1557078838,2019-05-06 01:53:58,1557078869,P_5ae4c6fc33cba97e-Nzg0Xy0xMjI1MDkzMy0zMjAwLTMyMDAtMDUwNi0tNTMwOA,http://pb.xyz.duunion.com/conv?tid=P_5ae4c6fc33cba97e-Nzg0Xy0xMjI1MDkzMy0zMjAwLTMyMDAtMDUwNi0tNTMwOA&adv_sectkn=55dea06a643eb8a2d267a735fe2683bd&adv_name=appier-api&payout=3.2,idfa_5CC3C1E9-003F-4DD4-922F-5086D24A465B,ja-JP
N1AFHqzfTGuSB0SmGpCmZA,doglobal_api,784_5308,Install,3.2,220.60.202.9,57500E9C-AF89-4770-8DDE-56E8BD94371E,1557078619,2019-05-06 01:50:19,1557078749,2019-05-06 01:52:29,1557078779,B_7debd0e0e449c06f-Nzg0Xy0xMjI1MDkzMy0zMjAwLTMyMDAtMDUwNi0tNTMwOA,http://pb.xyz.duunion.com/conv?tid=B_7debd0e0e449c06f-Nzg0Xy0xMjI1MDkzMy0zMjAwLTMyMDAtMDUwNi0tNTMwOA&adv_sectkn=55dea06a643eb8a2d267a735fe2683bd&adv_name=appier-api&payout=3.2,idfa_57500E9C-AF89-4770-8DDE-56E8BD94371E,ja-JP
N1AFHqzfTGuSB0SmGpCmZA,doglobal_api,784_5308,Install,3.2,61.200.110.42,9AA235DF-107A-48E7-BDE6-E930D9C89105,1557078146,2019-05-06 01:42:26,1557078274,2019-05-06 01:44:34,1557078305,P_d29f4def4f5dfd39-Nzg0Xy0xMjI1MDkzMy0zMjAwLTMyMDAtMDUwNi0tNTMwOA,http://pb.xyz.duunion.com/conv?tid=P_d29f4def4f5dfd39-Nzg0Xy0xMjI1MDkzMy0zMjAwLTMyMDAtMDUwNi0tNTMwOA&adv_sectkn=55dea06a643eb8a2d267a735fe2683bd&adv_name=appier-api&payout=3.2,idfa_9AA235DF-107A-48E7-BDE6-E930D9C89105,ja-JP
N1AFHqzfTGuSB0SmGpCmZA,doglobal_api,784_5308,Install,3.2,126.119.13.115,6CCF60D9-FA04-4925-BF2F-8FE0CE0A786C,1557075122,2019-05-06 00:52:02,1557075240,2019-05-06 00:54:00,1557075270,P_3882e331c882abe0-Nzg0Xy0xMjI1MDkzMy0zMjAwLTMyMDAtMDUwNi0tNTMwOA,http://pb.xyz.duunion.com/conv?tid=P_3882e331c882abe0-Nzg0Xy0xMjI1MDkzMy0zMjAwLTMyMDAtMDUwNi0tNTMwOA&adv_sectkn=55dea06a643eb8a2d267a735fe2683bd&adv_name=appier-api&payout=3.2,idfa_6CCF60D9-FA04-4925-BF2F-8FE0CE0A786C,ja-JP
N1AFHqzfTGuSB0SmGpCmZA,doglobal_api,784_5308,Install,3.2,60.83.78.98,DAC977E9-4B21-4EE2-B3C3-39C86F13FFE5,1557078206,2019-05-06 01:43:26,1557078329,2019-05-06 01:45:29,1557078360,B_7169ca19726161d6-Nzg0Xy0xMjI1MDkzMy0zMjAwLTMyMDAtMDUwNi0tNTMwOA,http://pb.xyz.duunion.com/conv?tid=B_7169ca19726161d6-Nzg0Xy0xMjI1MDkzMy0zMjAwLTMyMDAtMDUwNi0tNTMwOA&adv_sectkn=55dea06a643eb8a2d267a735fe2683bd&adv_name=appier-api&payout=3.2,idfa_DAC977E9-4B21-4EE2-B3C3-39C86F13FFE5,ja-JP
N1AFHqzfTGuSB0SmGpCmZA,doglobal_api,784_5308,Install,3.2,60.113.96.19,B5B0BED6-A2D5-4718-8080-48DF05A8EF25,1557075843,2019-05-06 01:04:03,1557075974,2019-05-06 01:06:14,1557076005,B_21c24d885cd32b77-Nzg0Xy0xMjI1MDkzMy0zMjAwLTMyMDAtMDUwNi0tNTMwOA,http://pb.xyz.duunion.com/conv?tid=B_21c24d885cd32b77-Nzg0Xy0xMjI1MDkzMy0zMjAwLTMyMDAtMDUwNi0tNTMwOA&adv_sectkn=55dea06a643eb8a2d267a735fe2683bd&adv_name=appier-api&payout=3.2,idfa_B5B0BED6-A2D5-4718-8080-48DF05A8EF25,ja-JP
N1AFHqzfTGuSB0SmGpCmZA,doglobal_api,784_5308,Install,3.2,60.122.159.22,F4E8F629-EEA0-4982-A37D-18424B7071CE,1557075827,2019-05-06 01:03:47,1557075960,2019-05-06 01:06:00,1557076243,B_b6e23748c09fdeb6-Nzg0Xy0xMjI1MDkzMy0zMjAwLTMyMDAtMDUwNi0tNTMwOA,http://pb.xyz.duunion.com/conv?tid=B_b6e23748c09fdeb6-Nzg0Xy0xMjI1MDkzMy0zMjAwLTMyMDAtMDUwNi0tNTMwOA&adv_sectkn=55dea06a643eb8a2d267a735fe2683bd&adv_name=appier-api&payout=3.2,idfa_F4E8F629-EEA0-4982-A37D-18424B7071CE,ja-JP
N1AFHqzfTGuSB0SmGpCmZA,doglobal_api,784_5308,Install,3.2,202.229.48.8,BA7EB74A-3FF4-47C5-B4B7-ED3921093346,1557078331,2019-05-06 01:45:31,1557078463,2019-05-06 01:47:43,1557078494,P_1d96b84fc9a2fd17-Nzg0Xy0xMjI1MDkzMy0zMjAwLTMyMDAtMDUwNi0tNTMwOA,http://pb.xyz.duunion.com/conv?tid=P_1d96b84fc9a2fd17-Nzg0Xy0xMjI1MDkzMy0zMjAwLTMyMDAtMDUwNi0tNTMwOA&adv_sectkn=55dea06a643eb8a2d267a735fe2683bd&adv_name=appier-api&payout=3.2,idfa_BA7EB74A-3FF4-47C5-B4B7-ED3921093346,ja-JP
N1AFHqzfTGuSB0SmGpCmZA,doglobal_api,784_5308,Install,3.2,61.194.140.246,AEFF0BCD-5BF5-4B7B-A820-52897B1ADB20,1557078676,2019-05-06 01:51:16,1557078794,2019-05-06 01:53:14,1557078824,P_74a7ee5ec02c62d6-Nzg0Xy0xMjI1MDkzMy0zMjAwLTMyMDAtMDUwNi0tNTMwOA,http://pb.xyz.duunion.com/conv?tid=P_74a7ee5ec02c62d6-Nzg0Xy0xMjI1MDkzMy0zMjAwLTMyMDAtMDUwNi0tNTMwOA&adv_sectkn=55dea06a643eb8a2d267a735fe2683bd&adv_name=appier-api&payout=3.2,idfa_AEFF0BCD-5BF5-4B7B-A820-52897B1ADB20,ja-JP
N1AFHqzfTGuSB0SmGpCmZA,doglobal_api,784_5308,Install,3.2,116.70.143.101,C93A9778-F593-4E9E-9F35-943013B135AA,1557076707,2019-05-06 01:18:27,1557076824,2019-05-06 01:20:24,1557076854,B_c9f61e4b691814c8-Nzg0Xy0xMjI1MDkzMy0zMjAwLTMyMDAtMDUwNi0tNTMwOA,http://pb.xyz.duunion.com/conv?tid=B_c9f61e4b691814c8-Nzg0Xy0xMjI1MDkzMy0zMjAwLTMyMDAtMDUwNi0tNTMwOA&adv_sectkn=55dea06a643eb8a2d267a735fe2683bd&adv_name=appier-api&payout=3.2,idfa_C93A9778-F593-4E9E-9F35-943013B135AA,ja-JP
N1AFHqzfTGuSB0SmGpCmZA,doglobal_api,784_5308,Install,3.2,153.156.26.150,3C06F791-CC83-490C-B38F-F8BB52FCF417,1557078727,2019-05-06 01:52:07,1557078855,2019-05-06 01:54:15,1557078886,P_ea64e06b7e43639f-Nzg0Xy0xMjI1MDkzMy0zMjAwLTMyMDAtMDUwNi0tNTMwOA,http://pb.xyz.duunion.com/conv?tid=P_ea64e06b7e43639f-Nzg0Xy0xMjI1MDkzMy0zMjAwLTMyMDAtMDUwNi0tNTMwOA&adv_sectkn=55dea06a643eb8a2d267a735fe2683bd&adv_name=appier-api&payout=3.2,idfa_3C06F791-CC83-490C-B38F-F8BB52FCF417,ja-JP
