cid,partner_id,channel_id,action_id,cpi,ip,idfa,click time,click datetime,install time,install datetime,postback time,click id,postback url,unique user id
gbKqGRNJSui9-Gfv2Sr-Hw,doglobal_api,772_10521772,Install,0.9,116.46.66.163,1683EACD-C02B-44AA-97A1-F9A0337FA699,1558403401,2019-05-21 09:50:01,1558403509,2019-05-21 09:51:49,1558403516,P_4ed1d4334c3a6ce8-NzcyXy0xMjE4MTI4My05MDAtODEwLTA1MjEtMTA1MjE3NzItMzU5OTY0MzI,http://pb.xyz.duunion.com/conv?tid=P_4ed1d4334c3a6ce8-NzcyXy0xMjE4MTI4My05MDAtODEwLTA1MjEtMTA1MjE3NzItMzU5OTY0MzI&adv_sectkn=55dea06a643eb8a2d267a735fe2683bd&adv_name=appier-api&payout=0.9,idfa_1683EACD-C02B-44AA-97A1-F9A0337FA699,ko
gbKqGRNJSui9-Gfv2Sr-Hw,doglobal_api,772_10521772,Install,0.9,183.109.124.73,4AC081C7-7597-435D-8E81-E33AF4F96DC5,1558410628,2019-05-21 11:50:28,1558410744,2019-05-21 11:52:24,1558410754,P_fc62079be5596777-NzcyXy0xMjE4MTI4My05MDAtODEwLTA1MjEtMTA1MjE3NzItMzMwMDI2NTg,http://pb.xyz.duunion.com/conv?tid=P_fc62079be5596777-NzcyXy0xMjE4MTI4My05MDAtODEwLTA1MjEtMTA1MjE3NzItMzMwMDI2NTg&adv_sectkn=55dea06a643eb8a2d267a735fe2683bd&adv_name=appier-api&payout=0.9,idfa_4AC081C7-7597-435D-8E81-E33AF4F96DC5,ko
gbKqGRNJSui9-Gfv2Sr-Hw,doglobal_api,772_10521772,Install,0.9,39.7.53.88,945863B6-496D-413A-B255-EC99027F08F9,1558410540,2019-05-21 11:49:00,1558410702,2019-05-21 11:51:42,1558410709,P_614a8edf0c6c162c-NzcyXy0xMjE4MTI4My05MDAtODEwLTA1MjEtMTA1MjE3NzItMzMwMDI2NTg,http://pb.xyz.duunion.com/conv?tid=P_614a8edf0c6c162c-NzcyXy0xMjE4MTI4My05MDAtODEwLTA1MjEtMTA1MjE3NzItMzMwMDI2NTg&adv_sectkn=55dea06a643eb8a2d267a735fe2683bd&adv_name=appier-api&payout=0.9,idfa_945863B6-496D-413A-B255-EC99027F08F9,ko
gbKqGRNJSui9-Gfv2Sr-Hw,doglobal_api,772_10521772,Install,0.9,175.193.64.74,1FF083D7-BED0-4730-8C8E-A910B300061B,1558410766,2019-05-21 11:52:46,1558410878,2019-05-21 11:54:38,1558410885,P_06eda79beffa2447-NzcyXy0xMjE4MTI4My05MDAtODEwLTA1MjEtMTA1MjE3NzItMzI4ODQxNzE,http://pb.xyz.duunion.com/conv?tid=P_06eda79beffa2447-NzcyXy0xMjE4MTI4My05MDAtODEwLTA1MjEtMTA1MjE3NzItMzI4ODQxNzE&adv_sectkn=55dea06a643eb8a2d267a735fe2683bd&adv_name=appier-api&payout=0.9,idfa_1FF083D7-BED0-4730-8C8E-A910B300061B,ko
gbKqGRNJSui9-Gfv2Sr-Hw,doglobal_api,772_10521772,Install,0.9,121.140.135.90,6DF9615B-CA05-487E-8DC9-911EDFA09A40,1558409820,2019-05-21 11:37:00,1558409922,2019-05-21 11:38:42,1558409932,P_643e25799080f2d7-NzcyXy0xMjE4MTI4My05MDAtODEwLTA1MjEtMTA1MjE3NzItMzI4ODQxNzI,http://pb.xyz.duunion.com/conv?tid=P_643e25799080f2d7-NzcyXy0xMjE4MTI4My05MDAtODEwLTA1MjEtMTA1MjE3NzItMzI4ODQxNzI&adv_sectkn=55dea06a643eb8a2d267a735fe2683bd&adv_name=appier-api&payout=0.9,idfa_6DF9615B-CA05-487E-8DC9-911EDFA09A40,ko
gbKqGRNJSui9-Gfv2Sr-Hw,doglobal_api,772_10521772,Install,0.9,210.102.151.174,EF7F465C-8006-469F-A66B-654F2BB74C68,1558410288,2019-05-21 11:44:48,1558410398,2019-05-21 11:46:38,1558410405,B_1da8be04684938d4-NzcyXy0xMjE4MTI4My05MDAtODEwLTA1MjEtMTA1MjE3NzItMzMwMDY2MDI,http://pb.xyz.duunion.com/conv?tid=B_1da8be04684938d4-NzcyXy0xMjE4MTI4My05MDAtODEwLTA1MjEtMTA1MjE3NzItMzMwMDY2MDI&adv_sectkn=55dea06a643eb8a2d267a735fe2683bd&adv_name=appier-api&payout=0.9,idfa_EF7F465C-8006-469F-A66B-654F2BB74C68,ko
gbKqGRNJSui9-Gfv2Sr-Hw,doglobal_api,772_10521772,Install,0.9,1.225.113.191,D8A1DCBA-C1D1-4191-A209-13105F5BBB64,1558410533,2019-05-21 11:48:53,1558410735,2019-05-21 11:52:15,1558410746,B_46afad8ca6d88820-NzcyXy0xMjE4MTI4My05MDAtODEwLTA1MjEtMTA1MjE3NzItMzMwMDI2NTg,http://pb.xyz.duunion.com/conv?tid=B_46afad8ca6d88820-NzcyXy0xMjE4MTI4My05MDAtODEwLTA1MjEtMTA1MjE3NzItMzMwMDI2NTg&adv_sectkn=55dea06a643eb8a2d267a735fe2683bd&adv_name=appier-api&payout=0.9,idfa_D8A1DCBA-C1D1-4191-A209-13105F5BBB64,ko
gbKqGRNJSui9-Gfv2Sr-Hw,doglobal_api,772_10521772,Install,0.9,1.215.196.27,F6E56550-D8DE-4512-AC99-064546CEACBF,1558410245,2019-05-21 11:44:05,1558410351,2019-05-21 11:45:51,1558410360,P_4f566ddce11e6c5f-NzcyXy0xMjE4MTI4My05MDAtODEwLTA1MjEtMTA1MjE3NzItMzMwMDY2MDE,http://pb.xyz.duunion.com/conv?tid=P_4f566ddce11e6c5f-NzcyXy0xMjE4MTI4My05MDAtODEwLTA1MjEtMTA1MjE3NzItMzMwMDY2MDE&adv_sectkn=55dea06a643eb8a2d267a735fe2683bd&adv_name=appier-api&payout=0.9,idfa_F6E56550-D8DE-4512-AC99-064546CEACBF,ko
gbKqGRNJSui9-Gfv2Sr-Hw,doglobal_api,772_10521772,Install,0.9,115.22.176.209,2CB34A5C-A555-4B40-8718-241ADEAB409A,1558410157,2019-05-21 11:42:37,1558410290,2019-05-21 11:44:50,1558410298,B_6787baef2941724b-NzcyXy0xMjE4MTI4My05MDAtODEwLTA1MjEtMTA1MjE3NzItMzMwMDY2MDI,http://pb.xyz.duunion.com/conv?tid=B_6787baef2941724b-NzcyXy0xMjE4MTI4My05MDAtODEwLTA1MjEtMTA1MjE3NzItMzMwMDY2MDI&adv_sectkn=55dea06a643eb8a2d267a735fe2683bd&adv_name=appier-api&payout=0.9,idfa_2CB34A5C-A555-4B40-8718-241ADEAB409A,ko
gbKqGRNJSui9-Gfv2Sr-Hw,doglobal_api,772_10521772,Install,0.9,121.167.147.162,3076F64C-5D82-47B1-9BD3-AC23B65BB3B3,1558410524,2019-05-21 11:48:44,1558410680,2019-05-21 11:51:20,1558410686,P_3e769a891bc7be93-NzcyXy0xMjE4MTI4My05MDAtODEwLTA1MjEtMTA1MjE3NzItMzMwMDcxMTI,http://pb.xyz.duunion.com/conv?tid=P_3e769a891bc7be93-NzcyXy0xMjE4MTI4My05MDAtODEwLTA1MjEtMTA1MjE3NzItMzMwMDcxMTI&adv_sectkn=55dea06a643eb8a2d267a735fe2683bd&adv_name=appier-api&payout=0.9,idfa_3076F64C-5D82-47B1-9BD3-AC23B65BB3B3,ko
gbKqGRNJSui9-Gfv2Sr-Hw,doglobal_api,772_10521772,Install,0.9,106.244.224.5,B46DD5CC-3CD6-4B01-9B54-B30B3EA1CA7A,1558409969,2019-05-21 11:39:29,1558410070,2019-05-21 11:41:10,1558410079,B_53bcf7f969a8f2a1-NzcyXy0xMjE4MTI4My05MDAtODEwLTA1MjEtMTA1MjE3NzItMzI4ODQ4NDM,http://pb.xyz.duunion.com/conv?tid=B_53bcf7f969a8f2a1-NzcyXy0xMjE4MTI4My05MDAtODEwLTA1MjEtMTA1MjE3NzItMzI4ODQ4NDM&adv_sectkn=55dea06a643eb8a2d267a735fe2683bd&adv_name=appier-api&payout=0.9,idfa_B46DD5CC-3CD6-4B01-9B54-B30B3EA1CA7A,ko
gbKqGRNJSui9-Gfv2Sr-Hw,doglobal_api,772_10521772,Install,0.9,59.0.151.129,B087BFBD-E836-41AD-919C-9F3F965D3081,1558410528,2019-05-21 11:48:48,1558410647,2019-05-21 11:50:47,1558410654,B_ab47ccf2bd7583de-NzcyXy0xMjE4MTI4My05MDAtODEwLTA1MjEtMTA1MjE3NzItMzMwMDI2NTg,http://pb.xyz.duunion.com/conv?tid=B_ab47ccf2bd7583de-NzcyXy0xMjE4MTI4My05MDAtODEwLTA1MjEtMTA1MjE3NzItMzMwMDI2NTg&adv_sectkn=55dea06a643eb8a2d267a735fe2683bd&adv_name=appier-api&payout=0.9,idfa_B087BFBD-E836-41AD-919C-9F3F965D3081,ko
gbKqGRNJSui9-Gfv2Sr-Hw,doglobal_api,772_10521772,Install,0.9,106.245.38.110,3F7A3123-1074-400E-9661-A7B0CD030FF2,1558406476,2019-05-21 10:41:16,1558406568,2019-05-21 10:42:48,1558406577,B_f5c9baf75ca97969-NzcyXy0xMjE4MTI4My05MDAtODEwLTA1MjEtMTA1MjE3NzItMzU1ODU3NjY,http://pb.xyz.duunion.com/conv?tid=B_f5c9baf75ca97969-NzcyXy0xMjE4MTI4My05MDAtODEwLTA1MjEtMTA1MjE3NzItMzU1ODU3NjY&adv_sectkn=55dea06a643eb8a2d267a735fe2683bd&adv_name=appier-api&payout=0.9,idfa_3F7A3123-1074-400E-9661-A7B0CD030FF2,ko
gbKqGRNJSui9-Gfv2Sr-Hw,doglobal_api,772_10521772,Install,0.9,182.31.21.165,4D86918B-2D0D-4845-A4D8-E8359B78B27C,1558410700,2019-05-21 11:51:40,1558410807,2019-05-21 11:53:27,1558410815,P_1e06a93daaa0a15b-NzcyXy0xMjE4MTI4My05MDAtODEwLTA1MjEtMTA1MjE3NzItMzI4ODQwNDg,http://pb.xyz.duunion.com/conv?tid=P_1e06a93daaa0a15b-NzcyXy0xMjE4MTI4My05MDAtODEwLTA1MjEtMTA1MjE3NzItMzI4ODQwNDg&adv_sectkn=55dea06a643eb8a2d267a735fe2683bd&adv_name=appier-api&payout=0.9,idfa_4D86918B-2D0D-4845-A4D8-E8359B78B27C,ko
gbKqGRNJSui9-Gfv2Sr-Hw,doglobal_api,772_10521772,Install,0.9,121.163.108.51,2435701B-EF18-469D-969C-88F572A57157,1558410521,2019-05-21 11:48:41,1558410651,2019-05-21 11:50:51,1558410657,P_729df40b6c04a977-NzcyXy0xMjE4MTI4My05MDAtODEwLTA1MjEtMTA1MjE3NzItMzMwMDY2MDI,http://pb.xyz.duunion.com/conv?tid=P_729df40b6c04a977-NzcyXy0xMjE4MTI4My05MDAtODEwLTA1MjEtMTA1MjE3NzItMzMwMDY2MDI&adv_sectkn=55dea06a643eb8a2d267a735fe2683bd&adv_name=appier-api&payout=0.9,idfa_2435701B-EF18-469D-969C-88F572A57157,ko
gbKqGRNJSui9-Gfv2Sr-Hw,doglobal_api,772_10521772,Install,0.9,121.148.9.14,59ADB7BC-8EA3-4D0E-9860-3D98126B2534,1558410735,2019-05-21 11:52:15,1558410850,2019-05-21 11:54:10,1558410858,P_b7bf6803b91aab76-NzcyXy0xMjE4MTI4My05MDAtODEwLTA1MjEtMTA1MjE3NzItMzI4ODQwNDg,http://pb.xyz.duunion.com/conv?tid=P_b7bf6803b91aab76-NzcyXy0xMjE4MTI4My05MDAtODEwLTA1MjEtMTA1MjE3NzItMzI4ODQwNDg&adv_sectkn=55dea06a643eb8a2d267a735fe2683bd&adv_name=appier-api&payout=0.9,idfa_59ADB7BC-8EA3-4D0E-9860-3D98126B2534,ko
gbKqGRNJSui9-Gfv2Sr-Hw,doglobal_api,772_10521772,Install,0.9,121.136.98.5,68AE657F-7613-4124-B61F-4D7716FA97F2,1558391123,2019-05-21 06:25:23,1558391207,2019-05-21 06:26:47,1558391218,P_ffff3d271ce66bfb-NzcyXy0xMjE4MTI4My05MDAtODEwLTA1MjEtMTA1MjE3NzItMzU4MjIyNzc,http://pb.xyz.duunion.com/conv?tid=P_ffff3d271ce66bfb-NzcyXy0xMjE4MTI4My05MDAtODEwLTA1MjEtMTA1MjE3NzItMzU4MjIyNzc&adv_sectkn=55dea06a643eb8a2d267a735fe2683bd&adv_name=appier-api&payout=0.9,idfa_68AE657F-7613-4124-B61F-4D7716FA97F2,ko
gbKqGRNJSui9-Gfv2Sr-Hw,doglobal_api,772_10521772,Install,0.9,121.143.152.79,9D06DA73-5CB3-47BD-800F-869E77F81309,1558410592,2019-05-21 11:49:52,1558410717,2019-05-21 11:51:57,1558410725,P_f583c1862bddf188-NzcyXy0xMjE4MTI4My05MDAtODEwLTA1MjEtMTA1MjE3NzItMzI4ODQxNzE,http://pb.xyz.duunion.com/conv?tid=P_f583c1862bddf188-NzcyXy0xMjE4MTI4My05MDAtODEwLTA1MjEtMTA1MjE3NzItMzI4ODQxNzE&adv_sectkn=55dea06a643eb8a2d267a735fe2683bd&adv_name=appier-api&payout=0.9,idfa_9D06DA73-5CB3-47BD-800F-869E77F81309,ko
gbKqGRNJSui9-Gfv2Sr-Hw,doglobal_api,772_10521772,Install,0.9,221.140.214.108,0C5BA6D3-51D9-4689-9F09-0D7EE74D6DC0,1558410524,2019-05-21 11:48:44,1558410652,2019-05-21 11:50:52,1558410660,B_31e36757bf3c6f71-NzcyXy0xMjE4MTI4My05MDAtODEwLTA1MjEtMTA1MjE3NzItMzMwMTY2NTI,http://pb.xyz.duunion.com/conv?tid=B_31e36757bf3c6f71-NzcyXy0xMjE4MTI4My05MDAtODEwLTA1MjEtMTA1MjE3NzItMzMwMTY2NTI&adv_sectkn=55dea06a643eb8a2d267a735fe2683bd&adv_name=appier-api&payout=0.9,idfa_0C5BA6D3-51D9-4689-9F09-0D7EE74D6DC0,ko
gbKqGRNJSui9-Gfv2Sr-Hw,doglobal_api,772_10521772,Install,0.9,1.232.40.19,BCCBEF88-8ADE-4E00-912B-2074FC6A04FC,1558410517,2019-05-21 11:48:37,1558410645,2019-05-21 11:50:45,1558410653,P_6431c09dcefa27e8-NzcyXy0xMjE4MTI4My05MDAtODEwLTA1MjEtMTA1MjE3NzItMzMwMDk3Mzg,http://pb.xyz.duunion.com/conv?tid=P_6431c09dcefa27e8-NzcyXy0xMjE4MTI4My05MDAtODEwLTA1MjEtMTA1MjE3NzItMzMwMDk3Mzg&adv_sectkn=55dea06a643eb8a2d267a735fe2683bd&adv_name=appier-api&payout=0.9,idfa_BCCBEF88-8ADE-4E00-912B-2074FC6A04FC,ko
gbKqGRNJSui9-Gfv2Sr-Hw,doglobal_api,772_10521772,Install,0.9,221.144.97.220,58BC328C-6476-48E2-82A7-1F51B8629893,1558410528,2019-05-21 11:48:48,1558410641,2019-05-21 11:50:41,1558410648,B_36b5392d97b10ee8-NzcyXy0xMjE4MTI4My05MDAtODEwLTA1MjEtMTA1MjE3NzItMzMwMDI2NTg,http://pb.xyz.duunion.com/conv?tid=B_36b5392d97b10ee8-NzcyXy0xMjE4MTI4My05MDAtODEwLTA1MjEtMTA1MjE3NzItMzMwMDI2NTg&adv_sectkn=55dea06a643eb8a2d267a735fe2683bd&adv_name=appier-api&payout=0.9,idfa_58BC328C-6476-48E2-82A7-1F51B8629893,ko
gbKqGRNJSui9-Gfv2Sr-Hw,doglobal_api,772_10521772,Install,0.9,112.216.29.42,DC88B221-E4BE-4061-9308-CB83C3A954B3,1558410694,2019-05-21 11:51:34,1558410812,2019-05-21 11:53:32,1558410819,P_5b66bc6a7fcfeaba-NzcyXy0xMjE4MTI4My05MDAtODEwLTA1MjEtMTA1MjE3NzItMzI4ODQxODY,http://pb.xyz.duunion.com/conv?tid=P_5b66bc6a7fcfeaba-NzcyXy0xMjE4MTI4My05MDAtODEwLTA1MjEtMTA1MjE3NzItMzI4ODQxODY&adv_sectkn=55dea06a643eb8a2d267a735fe2683bd&adv_name=appier-api&payout=0.9,idfa_DC88B221-E4BE-4061-9308-CB83C3A954B3,ko
gbKqGRNJSui9-Gfv2Sr-Hw,doglobal_api,772_10521772,Install,0.9,106.243.105.236,36897009-76C0-4DE1-8FCC-425B3A0EC787,1558410568,2019-05-21 11:49:28,1558410718,2019-05-21 11:51:58,1558410727,P_277c6d35e0b7965b-NzcyXy0xMjE4MTI4My05MDAtODEwLTA1MjEtMTA1MjE3NzItMzI4ODQxODM,http://pb.xyz.duunion.com/conv?tid=P_277c6d35e0b7965b-NzcyXy0xMjE4MTI4My05MDAtODEwLTA1MjEtMTA1MjE3NzItMzI4ODQxODM&adv_sectkn=55dea06a643eb8a2d267a735fe2683bd&adv_name=appier-api&payout=0.9,idfa_36897009-76C0-4DE1-8FCC-425B3A0EC787,ko
gbKqGRNJSui9-Gfv2Sr-Hw,doglobal_api,772_10521772,Install,0.9,222.237.165.39,55924E6D-7B10-4C74-92D0-7BEC36DD48AF,1558410284,2019-05-21 11:44:44,1558410398,2019-05-21 11:46:38,1558410405,P_0b81d5d43fffb3df-NzcyXy0xMjE4MTI4My05MDAtODEwLTA1MjEtMTA1MjE3NzItMzI4ODQxNzU,http://pb.xyz.duunion.com/conv?tid=P_0b81d5d43fffb3df-NzcyXy0xMjE4MTI4My05MDAtODEwLTA1MjEtMTA1MjE3NzItMzI4ODQxNzU&adv_sectkn=55dea06a643eb8a2d267a735fe2683bd&adv_name=appier-api&payout=0.9,idfa_55924E6D-7B10-4C74-92D0-7BEC36DD48AF,ko
gbKqGRNJSui9-Gfv2Sr-Hw,doglobal_api,772_10521772,Install,0.9,59.14.64.211,0464E6F5-960A-4BDA-BAC1-EF842F29AFA2,1558410290,2019-05-21 11:44:50,1558410394,2019-05-21 11:46:34,1558410402,B_84beac57ed0e6159-NzcyXy0xMjE4MTI4My05MDAtODEwLTA1MjEtMTA1MjE3NzItMzI4ODQyNjI,http://pb.xyz.duunion.com/conv?tid=B_84beac57ed0e6159-NzcyXy0xMjE4MTI4My05MDAtODEwLTA1MjEtMTA1MjE3NzItMzI4ODQyNjI&adv_sectkn=55dea06a643eb8a2d267a735fe2683bd&adv_name=appier-api&payout=0.9,idfa_0464E6F5-960A-4BDA-BAC1-EF842F29AFA2,ko
gbKqGRNJSui9-Gfv2Sr-Hw,doglobal_api,772_10521772,Install,0.9,39.117.179.46,AF46B66F-964B-4DF9-83EC-7FA67912D977,1558410521,2019-05-21 11:48:41,1558410647,2019-05-21 11:50:47,1558410654,B_744abff96c110e07-NzcyXy0xMjE4MTI4My05MDAtODEwLTA1MjEtMTA1MjE3NzItMzMwMDI2ODc,http://pb.xyz.duunion.com/conv?tid=B_744abff96c110e07-NzcyXy0xMjE4MTI4My05MDAtODEwLTA1MjEtMTA1MjE3NzItMzMwMDI2ODc&adv_sectkn=55dea06a643eb8a2d267a735fe2683bd&adv_name=appier-api&payout=0.9,idfa_AF46B66F-964B-4DF9-83EC-7FA67912D977,ko
gbKqGRNJSui9-Gfv2Sr-Hw,doglobal_api,772_10521772,Install,0.9,112.221.194.206,A1835810-6E3F-4BFE-8CE6-B2FB7A60A057,1558410124,2019-05-21 11:42:04,1558410234,2019-05-21 11:43:54,1558410241,B_041335914f8497bf-NzcyXy0xMjE4MTI4My05MDAtODEwLTA1MjEtMTA1MjE3NzItMzMwMDY2MDU,http://pb.xyz.duunion.com/conv?tid=B_041335914f8497bf-NzcyXy0xMjE4MTI4My05MDAtODEwLTA1MjEtMTA1MjE3NzItMzMwMDY2MDU&adv_sectkn=55dea06a643eb8a2d267a735fe2683bd&adv_name=appier-api&payout=0.9,idfa_A1835810-6E3F-4BFE-8CE6-B2FB7A60A057,ko
gbKqGRNJSui9-Gfv2Sr-Hw,doglobal_api,772_10521772,Install,0.9,210.115.39.105,AD5CC730-45C3-4CAF-9119-2B9706035D3A,1558410136,2019-05-21 11:42:16,1558410249,2019-05-21 11:44:09,1558410255,B_1cd836b6ac1f18a1-NzcyXy0xMjE4MTI4My05MDAtODEwLTA1MjEtMTA1MjE3NzItMzMwMDY2MDU,http://pb.xyz.duunion.com/conv?tid=B_1cd836b6ac1f18a1-NzcyXy0xMjE4MTI4My05MDAtODEwLTA1MjEtMTA1MjE3NzItMzMwMDY2MDU&adv_sectkn=55dea06a643eb8a2d267a735fe2683bd&adv_name=appier-api&payout=0.9,idfa_AD5CC730-45C3-4CAF-9119-2B9706035D3A,ko
gbKqGRNJSui9-Gfv2Sr-Hw,doglobal_api,772_10521772,Install,0.9,183.100.151.202,09E8EB61-7840-496D-A129-51B6C95FE0BC,1558410597,2019-05-21 11:49:57,1558410734,2019-05-21 11:52:14,1558410746,P_63101541f7826234-NzcyXy0xMjE4MTI4My05MDAtODEwLTA1MjEtMTA1MjE3NzItMzMwMDI3Mzg,http://pb.xyz.duunion.com/conv?tid=P_63101541f7826234-NzcyXy0xMjE4MTI4My05MDAtODEwLTA1MjEtMTA1MjE3NzItMzMwMDI3Mzg&adv_sectkn=55dea06a643eb8a2d267a735fe2683bd&adv_name=appier-api&payout=0.9,idfa_09E8EB61-7840-496D-A129-51B6C95FE0BC,ko
gbKqGRNJSui9-Gfv2Sr-Hw,doglobal_api,772_10521772,Install,0.9,122.45.71.162,75471382-7270-44BD-B969-116BEFA7DD2F,1558385700,2019-05-21 04:55:00,1558385816,2019-05-21 04:56:56,1558385823,B_d5b60dfe0635c66a-NzcyXy0xMjE4MTI4My05MDAtODEwLTA1MjEtMTA1MjE3NzItMzU4MjI2NDI,http://pb.xyz.duunion.com/conv?tid=B_d5b60dfe0635c66a-NzcyXy0xMjE4MTI4My05MDAtODEwLTA1MjEtMTA1MjE3NzItMzU4MjI2NDI&adv_sectkn=55dea06a643eb8a2d267a735fe2683bd&adv_name=appier-api&payout=0.9,idfa_75471382-7270-44BD-B969-116BEFA7DD2F,ko
gbKqGRNJSui9-Gfv2Sr-Hw,doglobal_api,772_10521772,Install,0.9,211.178.165.52,3C38AE6C-E543-46D9-ADFF-40AA95030C01,1558409788,2019-05-21 11:36:28,1558409909,2019-05-21 11:38:29,1558409918,P_9a632792e053bd36-NzcyXy0xMjE4MTI4My05MDAtODEwLTA1MjEtMTA1MjE3NzItMzI4ODQxOTA,http://pb.xyz.duunion.com/conv?tid=P_9a632792e053bd36-NzcyXy0xMjE4MTI4My05MDAtODEwLTA1MjEtMTA1MjE3NzItMzI4ODQxOTA&adv_sectkn=55dea06a643eb8a2d267a735fe2683bd&adv_name=appier-api&payout=0.9,idfa_3C38AE6C-E543-46D9-ADFF-40AA95030C01,ko
gbKqGRNJSui9-Gfv2Sr-Hw,doglobal_api,772_10521772,Install,0.9,119.193.175.179,C95844DD-D923-40B3-ACF5-40A2826D984C,1558410759,2019-05-21 11:52:39,1558410858,2019-05-21 11:54:18,1558410865,P_07ec33242a6b7d72-NzcyXy0xMjE4MTI4My05MDAtODEwLTA1MjEtMTA1MjE3NzItMzI4ODQxOTA,http://pb.xyz.duunion.com/conv?tid=P_07ec33242a6b7d72-NzcyXy0xMjE4MTI4My05MDAtODEwLTA1MjEtMTA1MjE3NzItMzI4ODQxOTA&adv_sectkn=55dea06a643eb8a2d267a735fe2683bd&adv_name=appier-api&payout=0.9,idfa_C95844DD-D923-40B3-ACF5-40A2826D984C,ko
gbKqGRNJSui9-Gfv2Sr-Hw,doglobal_api,772_10521772,Install,0.9,1.221.215.51,1EEC4CA5-8CF4-48AB-8ECC-B54ECA60C5DF,1558410145,2019-05-21 11:42:25,1558410253,2019-05-21 11:44:13,1558410260,B_b081c55bb3282192-NzcyXy0xMjE4MTI4My05MDAtODEwLTA1MjEtMTA1MjE3NzItMzMwMDI2ODc,http://pb.xyz.duunion.com/conv?tid=B_b081c55bb3282192-NzcyXy0xMjE4MTI4My05MDAtODEwLTA1MjEtMTA1MjE3NzItMzMwMDI2ODc&adv_sectkn=55dea06a643eb8a2d267a735fe2683bd&adv_name=appier-api&payout=0.9,idfa_1EEC4CA5-8CF4-48AB-8ECC-B54ECA60C5DF,ko
gbKqGRNJSui9-Gfv2Sr-Hw,doglobal_api,772_10521772,Install,0.9,14.37.2.196,898258AE-FF63-4155-B0E6-5710AC282F7A,1558410523,2019-05-21 11:48:43,1558410633,2019-05-21 11:50:33,1558410640,P_924493d22a5c6f14-NzcyXy0xMjE4MTI4My05MDAtODEwLTA1MjEtMTA1MjE3NzItMzMwMDY2MDU,http://pb.xyz.duunion.com/conv?tid=P_924493d22a5c6f14-NzcyXy0xMjE4MTI4My05MDAtODEwLTA1MjEtMTA1MjE3NzItMzMwMDY2MDU&adv_sectkn=55dea06a643eb8a2d267a735fe2683bd&adv_name=appier-api&payout=0.9,idfa_898258AE-FF63-4155-B0E6-5710AC282F7A,ko
gbKqGRNJSui9-Gfv2Sr-Hw,doglobal_api,772_10521772,Install,0.9,119.67.19.100,ADDF7276-2512-419D-B512-C24505ACEEC5,1558410529,2019-05-21 11:48:49,1558410666,2019-05-21 11:51:06,1558410675,P_efed3e4d4337e399-NzcyXy0xMjE4MTI4My05MDAtODEwLTA1MjEtMTA1MjE3NzItMzI4ODQxNzI,http://pb.xyz.duunion.com/conv?tid=P_efed3e4d4337e399-NzcyXy0xMjE4MTI4My05MDAtODEwLTA1MjEtMTA1MjE3NzItMzI4ODQxNzI&adv_sectkn=55dea06a643eb8a2d267a735fe2683bd&adv_name=appier-api&payout=0.9,idfa_ADDF7276-2512-419D-B512-C24505ACEEC5,ko
gbKqGRNJSui9-Gfv2Sr-Hw,doglobal_api,772_10521772,Install,0.9,14.34.187.251,DBD6BED6-5230-4574-A03A-83F861254087,1558410702,2019-05-21 11:51:42,1558410814,2019-05-21 11:53:34,1558410820,P_006e61bb988d6780-NzcyXy0xMjE4MTI4My05MDAtODEwLTA1MjEtMTA1MjE3NzItMzI4ODQxNzE,http://pb.xyz.duunion.com/conv?tid=P_006e61bb988d6780-NzcyXy0xMjE4MTI4My05MDAtODEwLTA1MjEtMTA1MjE3NzItMzI4ODQxNzE&adv_sectkn=55dea06a643eb8a2d267a735fe2683bd&adv_name=appier-api&payout=0.9,idfa_DBD6BED6-5230-4574-A03A-83F861254087,ko
gbKqGRNJSui9-Gfv2Sr-Hw,doglobal_api,772_10521772,Install,0.9,220.126.102.88,0A2DC6F5-0F3D-4CA0-9420-452DE103110E,1558409934,2019-05-21 11:38:54,1558410058,2019-05-21 11:40:58,1558410066,P_f35800431751530b-NzcyXy0xMjE4MTI4My05MDAtODEwLTA1MjEtMTA1MjE3NzItMzMwMDI2NTg,http://pb.xyz.duunion.com/conv?tid=P_f35800431751530b-NzcyXy0xMjE4MTI4My05MDAtODEwLTA1MjEtMTA1MjE3NzItMzMwMDI2NTg&adv_sectkn=55dea06a643eb8a2d267a735fe2683bd&adv_name=appier-api&payout=0.9,idfa_0A2DC6F5-0F3D-4CA0-9420-452DE103110E,ko
gbKqGRNJSui9-Gfv2Sr-Hw,doglobal_api,772_10521772,Install,0.9,59.7.184.54,64522CB9-60F5-4F5C-9C4B-85F0812941A3,1558401731,2019-05-21 09:22:11,1558401818,2019-05-21 09:23:38,1558401826,B_a3f1e82e2c39936a-NzcyXy0xMjE4MTI4My05MDAtODEwLTA1MjEtMTA1MjE3NzItMzU5OTY0MzI,http://pb.xyz.duunion.com/conv?tid=B_a3f1e82e2c39936a-NzcyXy0xMjE4MTI4My05MDAtODEwLTA1MjEtMTA1MjE3NzItMzU5OTY0MzI&adv_sectkn=55dea06a643eb8a2d267a735fe2683bd&adv_name=appier-api&payout=0.9,idfa_64522CB9-60F5-4F5C-9C4B-85F0812941A3,ko
gbKqGRNJSui9-Gfv2Sr-Hw,doglobal_api,772_10521772,Install,0.9,39.120.249.10,EF1054DE-E54C-4E64-9257-3F557E5314BC,1558409839,2019-05-21 11:37:19,1558410007,2019-05-21 11:40:07,1558410015,P_c31cfb23a021e6cb-NzcyXy0xMjE4MTI4My05MDAtODEwLTA1MjEtMTA1MjE3NzItMzMwMDI2ODc,http://pb.xyz.duunion.com/conv?tid=P_c31cfb23a021e6cb-NzcyXy0xMjE4MTI4My05MDAtODEwLTA1MjEtMTA1MjE3NzItMzMwMDI2ODc&adv_sectkn=55dea06a643eb8a2d267a735fe2683bd&adv_name=appier-api&payout=0.9,idfa_EF1054DE-E54C-4E64-9257-3F557E5314BC,ko
gbKqGRNJSui9-Gfv2Sr-Hw,doglobal_api,772_10521772,Install,0.9,183.99.158.58,333E4176-FC81-4BBD-A440-6F3120289966,1558410492,2019-05-21 11:48:12,1558410600,2019-05-21 11:50:00,1558410607,B_c0ae406edef3ced3-NzcyXy0xMjE4MTI4My05MDAtODEwLTA1MjEtMTA1MjE3NzItMzI4ODQyNjI,http://pb.xyz.duunion.com/conv?tid=B_c0ae406edef3ced3-NzcyXy0xMjE4MTI4My05MDAtODEwLTA1MjEtMTA1MjE3NzItMzI4ODQyNjI&adv_sectkn=55dea06a643eb8a2d267a735fe2683bd&adv_name=appier-api&payout=0.9,idfa_333E4176-FC81-4BBD-A440-6F3120289966,ko
gbKqGRNJSui9-Gfv2Sr-Hw,doglobal_api,772_10521772,Install,0.9,118.131.124.142,00000000-0000-0000-0000-000000000000,1558410746,2019-05-21 11:52:26,1558410860,2019-05-21 11:54:20,1558410867,P_9d675c663cb2f7c3-NzcyXy0xMjE4MTI4My05MDAtODEwLTA1MjEtMTA1MjE3NzItMzI4ODQxNzI,http://pb.xyz.duunion.com/conv?tid=P_9d675c663cb2f7c3-NzcyXy0xMjE4MTI4My05MDAtODEwLTA1MjEtMTA1MjE3NzItMzI4ODQxNzI&adv_sectkn=55dea06a643eb8a2d267a735fe2683bd&adv_name=appier-api&payout=0.9,idfa_00000000-0000-0000-0000-000000000000,ko
gbKqGRNJSui9-Gfv2Sr-Hw,doglobal_api,772_10521772,Install,0.9,165.229.125.70,172A790F-F6E5-40A6-831E-40EAD51006A9,1558410700,2019-05-21 11:51:40,1558410811,2019-05-21 11:53:31,1558410819,B_ff7c3bfa384c59b8-NzcyXy0xMjE4MTI4My05MDAtODEwLTA1MjEtMTA1MjE3NzItMzI4ODQxNzE,http://pb.xyz.duunion.com/conv?tid=B_ff7c3bfa384c59b8-NzcyXy0xMjE4MTI4My05MDAtODEwLTA1MjEtMTA1MjE3NzItMzI4ODQxNzE&adv_sectkn=55dea06a643eb8a2d267a735fe2683bd&adv_name=appier-api&payout=0.9,idfa_172A790F-F6E5-40A6-831E-40EAD51006A9,ko
gbKqGRNJSui9-Gfv2Sr-Hw,doglobal_api,772_10521772,Install,0.9,223.39.138.154,2B355369-C26E-4551-AE9B-FF858FD9428A,1558384378,2019-05-21 04:32:58,1558384477,2019-05-21 04:34:37,1558384485,P_97ca756e44b3180f-NzcyXy0xMjE4MTI4My05MDAtODEwLTA1MjEtMTA1MjE3NzItMzU4MTUxNzU,http://pb.xyz.duunion.com/conv?tid=P_97ca756e44b3180f-NzcyXy0xMjE4MTI4My05MDAtODEwLTA1MjEtMTA1MjE3NzItMzU4MTUxNzU&adv_sectkn=55dea06a643eb8a2d267a735fe2683bd&adv_name=appier-api&payout=0.9,idfa_2B355369-C26E-4551-AE9B-FF858FD9428A,ko
gbKqGRNJSui9-Gfv2Sr-Hw,doglobal_api,772_10521772,Install,0.9,183.103.123.56,C5068737-AC44-404B-8BC4-9501C8CAFC68,1558410525,2019-05-21 11:48:45,1558410642,2019-05-21 11:50:42,1558410648,P_abcd8cf07e15e1ce-NzcyXy0xMjE4MTI4My05MDAtODEwLTA1MjEtMTA1MjE3NzItMzMwMDI3Mzg,http://pb.xyz.duunion.com/conv?tid=P_abcd8cf07e15e1ce-NzcyXy0xMjE4MTI4My05MDAtODEwLTA1MjEtMTA1MjE3NzItMzMwMDI3Mzg&adv_sectkn=55dea06a643eb8a2d267a735fe2683bd&adv_name=appier-api&payout=0.9,idfa_C5068737-AC44-404B-8BC4-9501C8CAFC68,ko
gbKqGRNJSui9-Gfv2Sr-Hw,doglobal_api,772_10521772,Install,0.9,1.242.95.9,3197CDFB-6D78-45B6-9AF7-306DDB4AFA97,1558410755,2019-05-21 11:52:35,1558410869,2019-05-21 11:54:29,1558410879,P_98b7acb80202c9cc-NzcyXy0xMjE4MTI4My05MDAtODEwLTA1MjEtMTA1MjE3NzItMzMwMDY2MDE,http://pb.xyz.duunion.com/conv?tid=P_98b7acb80202c9cc-NzcyXy0xMjE4MTI4My05MDAtODEwLTA1MjEtMTA1MjE3NzItMzMwMDY2MDE&adv_sectkn=55dea06a643eb8a2d267a735fe2683bd&adv_name=appier-api&payout=0.9,idfa_3197CDFB-6D78-45B6-9AF7-306DDB4AFA97,ko
gbKqGRNJSui9-Gfv2Sr-Hw,doglobal_api,772_10521772,Install,0.9,61.73.103.36,B482CFE4-A1E3-40A2-97A5-6859A6A2E89E,1558410529,2019-05-21 11:48:49,1558410647,2019-05-21 11:50:47,1558410653,P_d31a3fe287a95459-NzcyXy0xMjE4MTI4My05MDAtODEwLTA1MjEtMTA1MjE3NzItMzI4ODQyNjI,http://pb.xyz.duunion.com/conv?tid=P_d31a3fe287a95459-NzcyXy0xMjE4MTI4My05MDAtODEwLTA1MjEtMTA1MjE3NzItMzI4ODQyNjI&adv_sectkn=55dea06a643eb8a2d267a735fe2683bd&adv_name=appier-api&payout=0.9,idfa_B482CFE4-A1E3-40A2-97A5-6859A6A2E89E,ko
gbKqGRNJSui9-Gfv2Sr-Hw,doglobal_api,772_10521772,Install,0.9,211.168.69.41,8262DC0D-CF88-425A-898F-0B0A004C3A12,1558410024,2019-05-21 11:40:24,1558410132,2019-05-21 11:42:12,1558410139,B_db3d99c222e28a09-NzcyXy0xMjE4MTI4My05MDAtODEwLTA1MjEtMTA1MjE3NzItMzI4ODQxODY,http://pb.xyz.duunion.com/conv?tid=B_db3d99c222e28a09-NzcyXy0xMjE4MTI4My05MDAtODEwLTA1MjEtMTA1MjE3NzItMzI4ODQxODY&adv_sectkn=55dea06a643eb8a2d267a735fe2683bd&adv_name=appier-api&payout=0.9,idfa_8262DC0D-CF88-425A-898F-0B0A004C3A12,ko
gbKqGRNJSui9-Gfv2Sr-Hw,doglobal_api,772_10521772,Install,0.9,115.90.69.230,714F5BCA-159F-4B73-82CD-EF9B9C916A50,1558410527,2019-05-21 11:48:47,1558410664,2019-05-21 11:51:04,1558410673,B_ef080782d86210d5-NzcyXy0xMjE4MTI4My05MDAtODEwLTA1MjEtMTA1MjE3NzItMzI4ODQwNDg,http://pb.xyz.duunion.com/conv?tid=B_ef080782d86210d5-NzcyXy0xMjE4MTI4My05MDAtODEwLTA1MjEtMTA1MjE3NzItMzI4ODQwNDg&adv_sectkn=55dea06a643eb8a2d267a735fe2683bd&adv_name=appier-api&payout=0.9,idfa_714F5BCA-159F-4B73-82CD-EF9B9C916A50,ko
gbKqGRNJSui9-Gfv2Sr-Hw,doglobal_api,772_10521772,Install,0.9,210.181.113.222,A563167B-CC9D-41A6-93C3-50774A2B838E,1558410218,2019-05-21 11:43:38,1558410354,2019-05-21 11:45:54,1558410363,B_d8bc86c6c98c496e-NzcyXy0xMjE4MTI4My05MDAtODEwLTA1MjEtMTA1MjE3NzItMzI4ODQxNjY,http://pb.xyz.duunion.com/conv?tid=B_d8bc86c6c98c496e-NzcyXy0xMjE4MTI4My05MDAtODEwLTA1MjEtMTA1MjE3NzItMzI4ODQxNjY&adv_sectkn=55dea06a643eb8a2d267a735fe2683bd&adv_name=appier-api&payout=0.9,idfa_A563167B-CC9D-41A6-93C3-50774A2B838E,ko
gbKqGRNJSui9-Gfv2Sr-Hw,doglobal_api,772_10521772,Install,0.9,14.52.119.223,436FC530-0FB6-4763-95FA-9508A483EF79,1558409788,2019-05-21 11:36:28,1558409886,2019-05-21 11:38:06,1558409893,B_df952c6b6e36479d-NzcyXy0xMjE4MTI4My05MDAtODEwLTA1MjEtMTA1MjE3NzItMzI4ODQxNjY,http://pb.xyz.duunion.com/conv?tid=B_df952c6b6e36479d-NzcyXy0xMjE4MTI4My05MDAtODEwLTA1MjEtMTA1MjE3NzItMzI4ODQxNjY&adv_sectkn=55dea06a643eb8a2d267a735fe2683bd&adv_name=appier-api&payout=0.9,idfa_436FC530-0FB6-4763-95FA-9508A483EF79,ko
gbKqGRNJSui9-Gfv2Sr-Hw,doglobal_api,772_10521772,Install,0.9,211.62.150.2,4D04ED7E-7CAF-46EE-8753-70D4BE87EABB,1558410531,2019-05-21 11:48:51,1558410672,2019-05-21 11:51:12,1558410681,B_08195defa23ae740-NzcyXy0xMjE4MTI4My05MDAtODEwLTA1MjEtMTA1MjE3NzItMzI4ODQyNjI,http://pb.xyz.duunion.com/conv?tid=B_08195defa23ae740-NzcyXy0xMjE4MTI4My05MDAtODEwLTA1MjEtMTA1MjE3NzItMzI4ODQyNjI&adv_sectkn=55dea06a643eb8a2d267a735fe2683bd&adv_name=appier-api&payout=0.9,idfa_4D04ED7E-7CAF-46EE-8753-70D4BE87EABB,ko
gbKqGRNJSui9-Gfv2Sr-Hw,doglobal_api,772_10521772,Install,0.9,118.45.4.180,4419F4FB-F9E9-449D-8D1F-E92B14D868E4,1558409784,2019-05-21 11:36:24,1558409894,2019-05-21 11:38:14,1558409903,B_750959ed8d7d8f30-NzcyXy0xMjE4MTI4My05MDAtODEwLTA1MjEtMTA1MjE3NzItMzI4ODQxNzU,http://pb.xyz.duunion.com/conv?tid=B_750959ed8d7d8f30-NzcyXy0xMjE4MTI4My05MDAtODEwLTA1MjEtMTA1MjE3NzItMzI4ODQxNzU&adv_sectkn=55dea06a643eb8a2d267a735fe2683bd&adv_name=appier-api&payout=0.9,idfa_4419F4FB-F9E9-449D-8D1F-E92B14D868E4,ko
gbKqGRNJSui9-Gfv2Sr-Hw,doglobal_api,772_10521772,Install,0.9,121.165.56.53,772150DF-3E5E-42E6-AE07-98E3ED9835FD,1558409946,2019-05-21 11:39:06,1558410060,2019-05-21 11:41:00,1558410066,B_3610c8faa5bb42b8-NzcyXy0xMjE4MTI4My05MDAtODEwLTA1MjEtMTA1MjE3NzItMzMwMDY2MDE,http://pb.xyz.duunion.com/conv?tid=B_3610c8faa5bb42b8-NzcyXy0xMjE4MTI4My05MDAtODEwLTA1MjEtMTA1MjE3NzItMzMwMDY2MDE&adv_sectkn=55dea06a643eb8a2d267a735fe2683bd&adv_name=appier-api&payout=0.9,idfa_772150DF-3E5E-42E6-AE07-98E3ED9835FD,ko
gbKqGRNJSui9-Gfv2Sr-Hw,doglobal_api,772_10521772,Install,0.9,121.138.119.2,6C6E29C3-DE4A-4D5D-9CCF-BDA918E18FC4,1558410628,2019-05-21 11:50:28,1558410749,2019-05-21 11:52:29,1558410757,P_8fb1fb3dda12b8ef-NzcyXy0xMjE4MTI4My05MDAtODEwLTA1MjEtMTA1MjE3NzItMzMwMTEzNjg,http://pb.xyz.duunion.com/conv?tid=P_8fb1fb3dda12b8ef-NzcyXy0xMjE4MTI4My05MDAtODEwLTA1MjEtMTA1MjE3NzItMzMwMTEzNjg&adv_sectkn=55dea06a643eb8a2d267a735fe2683bd&adv_name=appier-api&payout=0.9,idfa_6C6E29C3-DE4A-4D5D-9CCF-BDA918E18FC4,ko
gbKqGRNJSui9-Gfv2Sr-Hw,doglobal_api,772_10521772,Install,0.9,119.192.248.115,00000000-0000-0000-0000-000000000000,1558409032,2019-05-21 11:23:52,1558409150,2019-05-21 11:25:50,1558409157,B_5f46e5c4326e0523-NzcyXy0xMjE4MTI4My05MDAtODEwLTA1MjEtMTA1MjE3NzItMzI4ODQxNzE,http://pb.xyz.duunion.com/conv?tid=B_5f46e5c4326e0523-NzcyXy0xMjE4MTI4My05MDAtODEwLTA1MjEtMTA1MjE3NzItMzI4ODQxNzE&adv_sectkn=55dea06a643eb8a2d267a735fe2683bd&adv_name=appier-api&payout=0.9,idfa_00000000-0000-0000-0000-000000000000,ko
gbKqGRNJSui9-Gfv2Sr-Hw,doglobal_api,772_10521772,Install,0.9,116.32.126.220,43147CEE-6BDC-4BC4-98FC-3DAB45770DF1,1558410012,2019-05-21 11:40:12,1558410038,2019-05-21 11:40:38,1558410045,P_3cea3e7220610b12-NzcyXy0xMjE4MTI4My05MDAtODEwLTA1MjEtMTA1MjE3NzItMzI4ODQwNDg,http://pb.xyz.duunion.com/conv?tid=P_3cea3e7220610b12-NzcyXy0xMjE4MTI4My05MDAtODEwLTA1MjEtMTA1MjE3NzItMzI4ODQwNDg&adv_sectkn=55dea06a643eb8a2d267a735fe2683bd&adv_name=appier-api&payout=0.9,idfa_43147CEE-6BDC-4BC4-98FC-3DAB45770DF1,ko
gbKqGRNJSui9-Gfv2Sr-Hw,doglobal_api,772_10521772,Install,0.9,124.49.69.82,7C908EDA-FEEB-4CAB-AB5C-9D9E67CD86AC,1558410520,2019-05-21 11:48:40,1558410647,2019-05-21 11:50:47,1558410655,B_475bbc4d018fad3b-NzcyXy0xMjE4MTI4My05MDAtODEwLTA1MjEtMTA1MjE3NzItMzMwMDY2MDI,http://pb.xyz.duunion.com/conv?tid=B_475bbc4d018fad3b-NzcyXy0xMjE4MTI4My05MDAtODEwLTA1MjEtMTA1MjE3NzItMzMwMDY2MDI&adv_sectkn=55dea06a643eb8a2d267a735fe2683bd&adv_name=appier-api&payout=0.9,idfa_7C908EDA-FEEB-4CAB-AB5C-9D9E67CD86AC,ko
gbKqGRNJSui9-Gfv2Sr-Hw,doglobal_api,772_10521772,Install,0.9,115.92.36.2,02BF528C-BC00-4773-A1EB-D9AD049833ED,1558410525,2019-05-21 11:48:45,1558410675,2019-05-21 11:51:15,1558410682,P_7440827693ac6f19-NzcyXy0xMjE4MTI4My05MDAtODEwLTA1MjEtMTA1MjE3NzItMzI4ODQxODY,http://pb.xyz.duunion.com/conv?tid=P_7440827693ac6f19-NzcyXy0xMjE4MTI4My05MDAtODEwLTA1MjEtMTA1MjE3NzItMzI4ODQxODY&adv_sectkn=55dea06a643eb8a2d267a735fe2683bd&adv_name=appier-api&payout=0.9,idfa_02BF528C-BC00-4773-A1EB-D9AD049833ED,ko
gbKqGRNJSui9-Gfv2Sr-Hw,doglobal_api,772_10521772,Install,0.9,59.19.194.242,F218B172-1E51-4064-9EE8-888A77F4ED40,1558409972,2019-05-21 11:39:32,1558410077,2019-05-21 11:41:17,1558410085,B_81e188a5c061bac3-NzcyXy0xMjE4MTI4My05MDAtODEwLTA1MjEtMTA1MjE3NzItMzI4ODQyNjI,http://pb.xyz.duunion.com/conv?tid=B_81e188a5c061bac3-NzcyXy0xMjE4MTI4My05MDAtODEwLTA1MjEtMTA1MjE3NzItMzI4ODQyNjI&adv_sectkn=55dea06a643eb8a2d267a735fe2683bd&adv_name=appier-api&payout=0.9,idfa_F218B172-1E51-4064-9EE8-888A77F4ED40,ko
gbKqGRNJSui9-Gfv2Sr-Hw,doglobal_api,772_10521772,Install,0.9,222.108.214.80,B6BA2510-7971-45EE-B66A-647296AA4B28,1558410529,2019-05-21 11:48:49,1558410661,2019-05-21 11:51:01,1558410668,P_b48be956ada3b692-NzcyXy0xMjE4MTI4My05MDAtODEwLTA1MjEtMTA1MjE3NzItMzI4ODQxNjY,http://pb.xyz.duunion.com/conv?tid=P_b48be956ada3b692-NzcyXy0xMjE4MTI4My05MDAtODEwLTA1MjEtMTA1MjE3NzItMzI4ODQxNjY&adv_sectkn=55dea06a643eb8a2d267a735fe2683bd&adv_name=appier-api&payout=0.9,idfa_B6BA2510-7971-45EE-B66A-647296AA4B28,ko
gbKqGRNJSui9-Gfv2Sr-Hw,doglobal_api,772_10521772,Install,0.9,27.113.71.213,458EF1EF-2177-44D7-B428-A39C4D2E2454,1558410025,2019-05-21 11:40:25,1558410145,2019-05-21 11:42:25,1558410153,B_db7efbdeac8296a8-NzcyXy0xMjE4MTI4My05MDAtODEwLTA1MjEtMTA1MjE3NzItMzI4ODQxOTA,http://pb.xyz.duunion.com/conv?tid=B_db7efbdeac8296a8-NzcyXy0xMjE4MTI4My05MDAtODEwLTA1MjEtMTA1MjE3NzItMzI4ODQxOTA&adv_sectkn=55dea06a643eb8a2d267a735fe2683bd&adv_name=appier-api&payout=0.9,idfa_458EF1EF-2177-44D7-B428-A39C4D2E2454,ko
gbKqGRNJSui9-Gfv2Sr-Hw,doglobal_api,772_10521772,Install,0.9,220.87.89.238,6C18C191-531D-44AD-AB15-C2ABD6247784,1558410047,2019-05-21 11:40:47,1558410145,2019-05-21 11:42:25,1558410153,P_4903d693175b412c-NzcyXy0xMjE4MTI4My05MDAtODEwLTA1MjEtMTA1MjE3NzItMzI4ODQxNzE,http://pb.xyz.duunion.com/conv?tid=P_4903d693175b412c-NzcyXy0xMjE4MTI4My05MDAtODEwLTA1MjEtMTA1MjE3NzItMzI4ODQxNzE&adv_sectkn=55dea06a643eb8a2d267a735fe2683bd&adv_name=appier-api&payout=0.9,idfa_6C18C191-531D-44AD-AB15-C2ABD6247784,ko
gbKqGRNJSui9-Gfv2Sr-Hw,doglobal_api,772_10521772,Install,0.9,211.245.102.153,5558EFF5-D35B-4846-9ABA-F8848A73B7F8,1558410526,2019-05-21 11:48:46,1558410659,2019-05-21 11:50:59,1558410668,P_1269d959d31febbc-NzcyXy0xMjE4MTI4My05MDAtODEwLTA1MjEtMTA1MjE3NzItMzMwMTEzNjg,http://pb.xyz.duunion.com/conv?tid=P_1269d959d31febbc-NzcyXy0xMjE4MTI4My05MDAtODEwLTA1MjEtMTA1MjE3NzItMzMwMTEzNjg&adv_sectkn=55dea06a643eb8a2d267a735fe2683bd&adv_name=appier-api&payout=0.9,idfa_5558EFF5-D35B-4846-9ABA-F8848A73B7F8,ko
