cid,partner_id,channel_id,action_id,cpi,ip,idfa,click time,click datetime,install time,install datetime,postback time,click id,postback url,unique user id
pIlHmb9_SFu2kr67J95xeQ,doglobal_api,499_p1849,install,1.7,182.228.81.190,331b89ce-1c44-4576-b739-8d6c5da495d9,1557400701,2019-05-09 19:18:21,1557400740,2019-05-09 19:19:00,1557400772,B_d4d184723c4dd211-NDk5XzQ5OS0xNDExODg2My0xNzAwLTE4NzAtMDUwOS1wMTg0OS1wMTg0OQ,http://pb.xyz.duunion.com/conv?tid=B_d4d184723c4dd211-NDk5XzQ5OS0xNDExODg2My0xNzAwLTE4NzAtMDUwOS1wMTg0OS1wMTg0OQ&adv_sectkn=55dea06a643eb8a2d267a735fe2683bd&adv_name=appier-api&payout=1.7,idfa_331b89ce-1c44-4576-b739-8d6c5da495d9,ko
pIlHmb9_SFu2kr67J95xeQ,doglobal_api,499_p1849,install,1.7,106.102.130.163,a3a2fa77-20ba-4944-8bb8-9b9e5b55d44c,1557399041,2019-05-09 18:50:41,1557407559,2019-05-09 21:12:39,1557407590,P_b59e32036cd463ee-NDk5XzQ5OS0xNDExODg2My0xNzAwLTE4NzAtMDUwOS1wMTg0OS1wMTg0OQ,http://pb.xyz.duunion.com/conv?tid=P_b59e32036cd463ee-NDk5XzQ5OS0xNDExODg2My0xNzAwLTE4NzAtMDUwOS1wMTg0OS1wMTg0OQ&adv_sectkn=55dea06a643eb8a2d267a735fe2683bd&adv_name=appier-api&payout=1.7,idfa_a3a2fa77-20ba-4944-8bb8-9b9e5b55d44c,ko
pIlHmb9_SFu2kr67J95xeQ,doglobal_api,499_p1849,install,1.7,123.254.182.192,3424a91f-0a8e-45d8-a534-7c8ed8f35644,1557392544,2019-05-09 17:02:24,1557392583,2019-05-09 17:03:03,1557392613,B_75e46add20da8b34-NDk5XzQ5OS0xNDExODg2My0xNzAwLTE4NzAtMDUwOS1wMTg0OS1wMTg0OQ,http://pb.xyz.duunion.com/conv?tid=B_75e46add20da8b34-NDk5XzQ5OS0xNDExODg2My0xNzAwLTE4NzAtMDUwOS1wMTg0OS1wMTg0OQ&adv_sectkn=55dea06a643eb8a2d267a735fe2683bd&adv_name=appier-api&payout=1.7,idfa_3424a91f-0a8e-45d8-a534-7c8ed8f35644,ko
pIlHmb9_SFu2kr67J95xeQ,doglobal_api,499_p1849,install,1.7,211.36.140.212,58fbbba0-1cca-4b13-a245-cb2f03ff2585,1557396403,2019-05-09 18:06:43,1557407727,2019-05-09 21:15:27,1557407758,P_a0bf07da807fec52-NDk5XzQ5OS0xNDExODg2My0xNzAwLTE4NzAtMDUwOS1wMTg0OS1wMTg0OQ,http://pb.xyz.duunion.com/conv?tid=P_a0bf07da807fec52-NDk5XzQ5OS0xNDExODg2My0xNzAwLTE4NzAtMDUwOS1wMTg0OS1wMTg0OQ&adv_sectkn=55dea06a643eb8a2d267a735fe2683bd&adv_name=appier-api&payout=1.7,idfa_58fbbba0-1cca-4b13-a245-cb2f03ff2585,ko
pIlHmb9_SFu2kr67J95xeQ,doglobal_api,499_p1849,install,1.7,61.75.190.11,a4cee502-5973-4ede-8a71-3a4cbcffc684,1557399652,2019-05-09 19:00:52,1557399713,2019-05-09 19:01:53,1557399746,P_d6f8f9464bd7cb7b-NDk5XzQ5OS0xNDExODg2My0xNzAwLTE4NzAtMDUwOS1wMTg0OS1wMTg0OQ,http://pb.xyz.duunion.com/conv?tid=P_d6f8f9464bd7cb7b-NDk5XzQ5OS0xNDExODg2My0xNzAwLTE4NzAtMDUwOS1wMTg0OS1wMTg0OQ&adv_sectkn=55dea06a643eb8a2d267a735fe2683bd&adv_name=appier-api&payout=1.7,idfa_a4cee502-5973-4ede-8a71-3a4cbcffc684,ko
pIlHmb9_SFu2kr67J95xeQ,doglobal_api,499_p1849,install,1.7,110.70.27.173,47d9a431-a1b7-4cc2-bf80-5d5e274d5b10,1557397814,2019-05-09 18:30:14,1557397851,2019-05-09 18:30:51,1557397882,P_4793d3cf962271da-NDk5XzQ5OS0xNDExODg2My0xNzAwLTE4NzAtMDUwOS1wMTg0OS1wMTg0OQ,http://pb.xyz.duunion.com/conv?tid=P_4793d3cf962271da-NDk5XzQ5OS0xNDExODg2My0xNzAwLTE4NzAtMDUwOS1wMTg0OS1wMTg0OQ&adv_sectkn=55dea06a643eb8a2d267a735fe2683bd&adv_name=appier-api&payout=1.7,idfa_47d9a431-a1b7-4cc2-bf80-5d5e274d5b10,ko
pIlHmb9_SFu2kr67J95xeQ,doglobal_api,499_p1849,install,1.4,58.141.210.110,1cc0e641-4491-468f-906b-c4aa9e4515dd,1557303000,2019-05-08 16:10:00,1557303042,2019-05-08 16:10:42,1557303073,P_8969d0cf1cf66971-NDk5Xy0xNDExODg2My0xNDAwLTE1NDAtMDUwOC0tcDE4NDk,http://pb.xyz.duunion.com/conv?tid=P_8969d0cf1cf66971-NDk5Xy0xNDExODg2My0xNDAwLTE1NDAtMDUwOC0tcDE4NDk&adv_sectkn=55dea06a643eb8a2d267a735fe2683bd&adv_name=appier-api&payout=1.4,idfa_1cc0e641-4491-468f-906b-c4aa9e4515dd,ko
pIlHmb9_SFu2kr67J95xeQ,doglobal_api,499_p1849,install,1.7,175.206.201.230,1dd81a49-42a4-420b-b383-8e6fdec882c3,1557400350,2019-05-09 19:12:30,1557400392,2019-05-09 19:13:12,1557400423,B_5352e25229df32ac-NDk5XzQ5OS0xNDExODg2My0xNzAwLTE4NzAtMDUwOS1wMTg0OS1wMTg0OQ,http://pb.xyz.duunion.com/conv?tid=B_5352e25229df32ac-NDk5XzQ5OS0xNDExODg2My0xNzAwLTE4NzAtMDUwOS1wMTg0OS1wMTg0OQ&adv_sectkn=55dea06a643eb8a2d267a735fe2683bd&adv_name=appier-api&payout=1.7,idfa_1dd81a49-42a4-420b-b383-8e6fdec882c3,ko
pIlHmb9_SFu2kr67J95xeQ,doglobal_api,499_p1849,install,1.4,58.228.123.190,6f72c5b8-c8ec-4888-81b3-2e644e01f01c,1557299949,2019-05-08 15:19:09,1557299988,2019-05-08 15:19:48,1557300019,P_b97bdb2d813be2ff-NDk5Xy0xNDExODg2My0xNDAwLTE1NDAtMDUwOC0tcDE4NDk,http://pb.xyz.duunion.com/conv?tid=P_b97bdb2d813be2ff-NDk5Xy0xNDExODg2My0xNDAwLTE1NDAtMDUwOC0tcDE4NDk&adv_sectkn=55dea06a643eb8a2d267a735fe2683bd&adv_name=appier-api&payout=1.4,idfa_6f72c5b8-c8ec-4888-81b3-2e644e01f01c,ko
pIlHmb9_SFu2kr67J95xeQ,doglobal_api,499_p1849,install,1.7,122.45.156.77,0fbc2db9-e1b4-441a-9d02-3a10ee317390,1557399946,2019-05-09 19:05:46,1557406496,2019-05-09 20:54:56,1557406527,P_4947ec65f684113b-NDk5XzQ5OS0xNDExODg2My0xNzAwLTE4NzAtMDUwOS1wMTg0OS1wMTg0OQ,http://pb.xyz.duunion.com/conv?tid=P_4947ec65f684113b-NDk5XzQ5OS0xNDExODg2My0xNzAwLTE4NzAtMDUwOS1wMTg0OS1wMTg0OQ&adv_sectkn=55dea06a643eb8a2d267a735fe2683bd&adv_name=appier-api&payout=1.7,idfa_0fbc2db9-e1b4-441a-9d02-3a10ee317390,ko
pIlHmb9_SFu2kr67J95xeQ,doglobal_api,499_p1849,install,1.7,223.38.29.18,a3cc8e91-be43-4a61-bb86-ef21ee017b11,1557392588,2019-05-09 17:03:08,1557392627,2019-05-09 17:03:47,1557392658,P_24e9d3b7cb086c44-NDk5XzQ5OS0xNDExODg2My0xNzAwLTE4NzAtMDUwOS1wMTg0OS1wMTg0OQ,http://pb.xyz.duunion.com/conv?tid=P_24e9d3b7cb086c44-NDk5XzQ5OS0xNDExODg2My0xNzAwLTE4NzAtMDUwOS1wMTg0OS1wMTg0OQ&adv_sectkn=55dea06a643eb8a2d267a735fe2683bd&adv_name=appier-api&payout=1.7,idfa_a3cc8e91-be43-4a61-bb86-ef21ee017b11,ko
pIlHmb9_SFu2kr67J95xeQ,doglobal_api,499_p1849,install,1.7,223.38.34.240,202efa2f-5b1d-463d-a03c-0df5358c7afe,1557395283,2019-05-09 17:48:03,1557395323,2019-05-09 17:48:43,1557395354,P_4a7ce64cf278f5f0-NDk5XzQ5OS0xNDExODg2My0xNzAwLTE4NzAtMDUwOS1wMTg0OS1wMTg0OQ,http://pb.xyz.duunion.com/conv?tid=P_4a7ce64cf278f5f0-NDk5XzQ5OS0xNDExODg2My0xNzAwLTE4NzAtMDUwOS1wMTg0OS1wMTg0OQ&adv_sectkn=55dea06a643eb8a2d267a735fe2683bd&adv_name=appier-api&payout=1.7,idfa_202efa2f-5b1d-463d-a03c-0df5358c7afe,ko
pIlHmb9_SFu2kr67J95xeQ,doglobal_api,499_p1849,install,1.7,210.113.126.15,9abd7ff1-4ba9-4793-8f74-e6e635dd198d,1557400711,2019-05-09 19:18:31,1557400750,2019-05-09 19:19:10,1557400781,B_ec4ae79744b817f7-NDk5XzQ5OS0xNDExODg2My0xNzAwLTE4NzAtMDUwOS1wMTg0OS1wMTg0OQ,http://pb.xyz.duunion.com/conv?tid=B_ec4ae79744b817f7-NDk5XzQ5OS0xNDExODg2My0xNzAwLTE4NzAtMDUwOS1wMTg0OS1wMTg0OQ&adv_sectkn=55dea06a643eb8a2d267a735fe2683bd&adv_name=appier-api&payout=1.7,idfa_9abd7ff1-4ba9-4793-8f74-e6e635dd198d,ko
pIlHmb9_SFu2kr67J95xeQ,doglobal_api,499_p1849,install,1.7,39.118.145.97,cdd734c3-86f8-401d-a9a2-ff0dfa6d4af0,1557397844,2019-05-09 18:30:44,1557397884,2019-05-09 18:31:24,1557397915,P_6b6d88d6c5aa83df-NDk5XzQ5OS0xNDExODg2My0xNzAwLTE4NzAtMDUwOS1wMTg0OS1wMTg0OQ,http://pb.xyz.duunion.com/conv?tid=P_6b6d88d6c5aa83df-NDk5XzQ5OS0xNDExODg2My0xNzAwLTE4NzAtMDUwOS1wMTg0OS1wMTg0OQ&adv_sectkn=55dea06a643eb8a2d267a735fe2683bd&adv_name=appier-api&payout=1.7,idfa_cdd734c3-86f8-401d-a9a2-ff0dfa6d4af0,ko
pIlHmb9_SFu2kr67J95xeQ,doglobal_api,499_p1849,install,1.7,182.225.3.181,ebd80e8e-00ec-46d1-860c-6951047287f4,1557395121,2019-05-09 17:45:21,1557395161,2019-05-09 17:46:01,1557395192,B_c2c25bc2efc615ec-NDk5XzQ5OS0xNDExODg2My0xNzAwLTE4NzAtMDUwOS1wMTg0OS1wMTg0OQ,http://pb.xyz.duunion.com/conv?tid=B_c2c25bc2efc615ec-NDk5XzQ5OS0xNDExODg2My0xNzAwLTE4NzAtMDUwOS1wMTg0OS1wMTg0OQ&adv_sectkn=55dea06a643eb8a2d267a735fe2683bd&adv_name=appier-api&payout=1.7,idfa_ebd80e8e-00ec-46d1-860c-6951047287f4,ko
pIlHmb9_SFu2kr67J95xeQ,doglobal_api,499_p1849,install,1.7,110.70.59.141,94cf27d6-91d8-4737-ae4f-00e5e1deb667,1557397369,2019-05-09 18:22:49,1557397409,2019-05-09 18:23:29,1557397440,P_2b5beddd38786aab-NDk5XzQ5OS0xNDExODg2My0xNzAwLTE4NzAtMDUwOS1wMTg0OS1wMTg0OQ,http://pb.xyz.duunion.com/conv?tid=P_2b5beddd38786aab-NDk5XzQ5OS0xNDExODg2My0xNzAwLTE4NzAtMDUwOS1wMTg0OS1wMTg0OQ&adv_sectkn=55dea06a643eb8a2d267a735fe2683bd&adv_name=appier-api&payout=1.7,idfa_94cf27d6-91d8-4737-ae4f-00e5e1deb667,ko
pIlHmb9_SFu2kr67J95xeQ,doglobal_api,499_p1849,install,1.7,114.207.136.86,f33b46dc-0d73-45d1-b0fb-26a38e4998cb,1557400675,2019-05-09 19:17:55,1557400714,2019-05-09 19:18:34,1557400746,B_b85804590391cdf0-NDk5XzQ5OS0xNDExODg2My0xNzAwLTE4NzAtMDUwOS1wMTg0OS1wMTg0OQ,http://pb.xyz.duunion.com/conv?tid=B_b85804590391cdf0-NDk5XzQ5OS0xNDExODg2My0xNzAwLTE4NzAtMDUwOS1wMTg0OS1wMTg0OQ&adv_sectkn=55dea06a643eb8a2d267a735fe2683bd&adv_name=appier-api&payout=1.7,idfa_f33b46dc-0d73-45d1-b0fb-26a38e4998cb,ko
pIlHmb9_SFu2kr67J95xeQ,doglobal_api,499_p1849,install,1.7,121.145.193.243,ccdb81c5-2cc5-4160-a25c-64460a16155f,1557396693,2019-05-09 18:11:33,1557396736,2019-05-09 18:12:16,1557396769,B_53e46e590188a73a-NDk5XzQ5OS0xNDExODg2My0xNzAwLTE4NzAtMDUwOS1wMTg0OS1wMTg0OQ,http://pb.xyz.duunion.com/conv?tid=B_53e46e590188a73a-NDk5XzQ5OS0xNDExODg2My0xNzAwLTE4NzAtMDUwOS1wMTg0OS1wMTg0OQ&adv_sectkn=55dea06a643eb8a2d267a735fe2683bd&adv_name=appier-api&payout=1.7,idfa_ccdb81c5-2cc5-4160-a25c-64460a16155f,ko
pIlHmb9_SFu2kr67J95xeQ,doglobal_api,499_p1849,install,1.7,223.39.146.113,a0143563-26a4-4dde-91f3-d25e0ace96ca,1557399964,2019-05-09 19:06:04,1557402156,2019-05-09 19:42:36,1557402188,P_fd9cb54b37921851-NDk5XzQ5OS0xNDExODg2My0xNzAwLTE4NzAtMDUwOS1wMTg0OS1wMTg0OQ,http://pb.xyz.duunion.com/conv?tid=P_fd9cb54b37921851-NDk5XzQ5OS0xNDExODg2My0xNzAwLTE4NzAtMDUwOS1wMTg0OS1wMTg0OQ&adv_sectkn=55dea06a643eb8a2d267a735fe2683bd&adv_name=appier-api&payout=1.7,idfa_a0143563-26a4-4dde-91f3-d25e0ace96ca,ko
pIlHmb9_SFu2kr67J95xeQ,doglobal_api,499_p1849,install,1.7,113.199.5.153,e81e7770-e935-461b-a866-4bb672f16189,1557398876,2019-05-09 18:47:56,1557402194,2019-05-09 19:43:14,1557402227,B_f11c12ed9984ae00-NDk5XzQ5OS0xNDExODg2My0xNzAwLTE4NzAtMDUwOS1wMTg0OS1wMTg0OQ,http://pb.xyz.duunion.com/conv?tid=B_f11c12ed9984ae00-NDk5XzQ5OS0xNDExODg2My0xNzAwLTE4NzAtMDUwOS1wMTg0OS1wMTg0OQ&adv_sectkn=55dea06a643eb8a2d267a735fe2683bd&adv_name=appier-api&payout=1.7,idfa_e81e7770-e935-461b-a866-4bb672f16189,ko
pIlHmb9_SFu2kr67J95xeQ,doglobal_api,499_p1849,install,1.7,101.235.144.87,8c80cb45-6fc7-4916-be04-a1543134e317,1557395838,2019-05-09 17:57:18,1557406079,2019-05-09 20:47:59,1557406110,B_c6ae5d7336e94078-NDk5XzQ5OS0xNDExODg2My0xNzAwLTE4NzAtMDUwOS1wMTg0OS1wMTg0OQ,http://pb.xyz.duunion.com/conv?tid=B_c6ae5d7336e94078-NDk5XzQ5OS0xNDExODg2My0xNzAwLTE4NzAtMDUwOS1wMTg0OS1wMTg0OQ&adv_sectkn=55dea06a643eb8a2d267a735fe2683bd&adv_name=appier-api&payout=1.7,idfa_8c80cb45-6fc7-4916-be04-a1543134e317,ko
pIlHmb9_SFu2kr67J95xeQ,doglobal_api,499_p1849,install,1.7,39.7.59.215,9eb9823c-5d30-4a8a-99c4-5e516f322181,1557396224,2019-05-09 18:03:44,1557396267,2019-05-09 18:04:27,1557396299,B_512da27e721ea7bf-NDk5XzQ5OS0xNDExODg2My0xNzAwLTE4NzAtMDUwOS1wMTg0OS1wMTg0OQ,http://pb.xyz.duunion.com/conv?tid=B_512da27e721ea7bf-NDk5XzQ5OS0xNDExODg2My0xNzAwLTE4NzAtMDUwOS1wMTg0OS1wMTg0OQ&adv_sectkn=55dea06a643eb8a2d267a735fe2683bd&adv_name=appier-api&payout=1.7,idfa_9eb9823c-5d30-4a8a-99c4-5e516f322181,ko
pIlHmb9_SFu2kr67J95xeQ,doglobal_api,499_p1849,install,1.7,175.223.14.172,37a27d35-dc5e-420c-848e-d565030f1f03,1557398982,2019-05-09 18:49:42,1557407327,2019-05-09 21:08:47,1557407357,P_85f0112e5ff2b322-NDk5XzQ5OS0xNDExODg2My0xNzAwLTE4NzAtMDUwOS1wMTg0OS1wMTg0OQ,http://pb.xyz.duunion.com/conv?tid=P_85f0112e5ff2b322-NDk5XzQ5OS0xNDExODg2My0xNzAwLTE4NzAtMDUwOS1wMTg0OS1wMTg0OQ&adv_sectkn=55dea06a643eb8a2d267a735fe2683bd&adv_name=appier-api&payout=1.7,idfa_37a27d35-dc5e-420c-848e-d565030f1f03,ko
pIlHmb9_SFu2kr67J95xeQ,doglobal_api,499_p1849,install,1.7,110.45.76.248,04000435-bb46-49c4-943a-f57b69959950,1557399653,2019-05-09 19:00:53,1557399693,2019-05-09 19:01:33,1557399724,P_ca8e036358cebeed-NDk5XzQ5OS0xNDExODg2My0xNzAwLTE4NzAtMDUwOS1wMTg0OS1wMTg0OQ,http://pb.xyz.duunion.com/conv?tid=P_ca8e036358cebeed-NDk5XzQ5OS0xNDExODg2My0xNzAwLTE4NzAtMDUwOS1wMTg0OS1wMTg0OQ&adv_sectkn=55dea06a643eb8a2d267a735fe2683bd&adv_name=appier-api&payout=1.7,idfa_04000435-bb46-49c4-943a-f57b69959950,ko
pIlHmb9_SFu2kr67J95xeQ,doglobal_api,499_p1849,install,1.7,211.36.142.109,6a759a35-4005-43c9-9538-6d746ffa1ba0,1557394240,2019-05-09 17:30:40,1557394279,2019-05-09 17:31:19,1557394310,B_6c1d6e2e020958f9-NDk5XzQ5OS0xNDExODg2My0xNzAwLTE4NzAtMDUwOS1wMTg0OS1wMTg0OQ,http://pb.xyz.duunion.com/conv?tid=B_6c1d6e2e020958f9-NDk5XzQ5OS0xNDExODg2My0xNzAwLTE4NzAtMDUwOS1wMTg0OS1wMTg0OQ&adv_sectkn=55dea06a643eb8a2d267a735fe2683bd&adv_name=appier-api&payout=1.7,idfa_6a759a35-4005-43c9-9538-6d746ffa1ba0,ko
pIlHmb9_SFu2kr67J95xeQ,doglobal_api,499_p1849,install,1.7,110.70.46.143,a876daec-29b2-4c5d-bb88-640cbcb5fecf,1557397026,2019-05-09 18:17:06,1557397067,2019-05-09 18:17:47,1557397098,B_30345a34f595b098-NDk5XzQ5OS0xNDExODg2My0xNzAwLTE4NzAtMDUwOS1wMTg0OS1wMTg0OQ,http://pb.xyz.duunion.com/conv?tid=B_30345a34f595b098-NDk5XzQ5OS0xNDExODg2My0xNzAwLTE4NzAtMDUwOS1wMTg0OS1wMTg0OQ&adv_sectkn=55dea06a643eb8a2d267a735fe2683bd&adv_name=appier-api&payout=1.7,idfa_a876daec-29b2-4c5d-bb88-640cbcb5fecf,ko
pIlHmb9_SFu2kr67J95xeQ,doglobal_api,499_p1849,install,1.4,223.62.178.176,6bc453d4-b26c-4713-bd5d-d03144d0d701,1557299952,2019-05-08 15:19:12,1557299985,2019-05-08 15:19:45,1557300016,P_4ab983fc5979a21e-NDk5Xy0xNDExODg2My0xNDAwLTE1NDAtMDUwOC0tcDE4NDk,http://pb.xyz.duunion.com/conv?tid=P_4ab983fc5979a21e-NDk5Xy0xNDExODg2My0xNDAwLTE1NDAtMDUwOC0tcDE4NDk&adv_sectkn=55dea06a643eb8a2d267a735fe2683bd&adv_name=appier-api&payout=1.4,idfa_6bc453d4-b26c-4713-bd5d-d03144d0d701,ko
