cid,partner_id,channel_id,action_id,cpi,ip,idfa,click time,click datetime,install time,install datetime,postback time,click id,postback url,unique user id
wEACTBR5R9-LXNpBMlwnGw,doglobal_api,544_391,Install,3.5,27.116.255.153,899B4BC7-5A48-4183-815C-35344DDF6010,1558287431,2019-05-20 01:37:11,1558287508,2019-05-20 01:38:28,1558287539,B_9d08d75e3b721909-NTQ0Xy0xNDAwODI5OS0zNTAwLTM1MDAtMDUyMC0tMzkx,http://pb.xyz.duunion.com/conv?tid=B_9d08d75e3b721909-NTQ0Xy0xNDAwODI5OS0zNTAwLTM1MDAtMDUyMC0tMzkx&adv_sectkn=55dea06a643eb8a2d267a735fe2683bd&adv_name=appier-api&payout=3.5,idfa_899B4BC7-5A48-4183-815C-35344DDF6010,ko-KR
wEACTBR5R9-LXNpBMlwnGw,doglobal_api,544_391,Install,3.5,211.216.48.158,87BAC6FC-5807-4F4A-BEDE-D261EBAD120A,1558145655,2019-05-18 10:14:15,1558145746,2019-05-18 10:15:46,1558145876,B_dfcd3f790c0474e7-NTQ0Xy0xNDAwODI5OS0zNTAwLTM1MDAtMDUxOC0tMzkx,http://pb.xyz.duunion.com/conv?tid=B_dfcd3f790c0474e7-NTQ0Xy0xNDAwODI5OS0zNTAwLTM1MDAtMDUxOC0tMzkx&adv_sectkn=55dea06a643eb8a2d267a735fe2683bd&adv_name=appier-api&payout=3.5,idfa_87BAC6FC-5807-4F4A-BEDE-D261EBAD120A,ko-KR
wEACTBR5R9-LXNpBMlwnGw,doglobal_api,544_391,Install,3.5,210.216.14.11,EB816F84-1589-4E97-BA1E-445413D385A1,1558287080,2019-05-20 01:31:20,1558287160,2019-05-20 01:32:40,1558287191,P_c909aabe1c34efee-NTQ0Xy0xNDAwODI5OS0zNTAwLTM1MDAtMDUyMC0tMzkx,http://pb.xyz.duunion.com/conv?tid=P_c909aabe1c34efee-NTQ0Xy0xNDAwODI5OS0zNTAwLTM1MDAtMDUyMC0tMzkx&adv_sectkn=55dea06a643eb8a2d267a735fe2683bd&adv_name=appier-api&payout=3.5,idfa_EB816F84-1589-4E97-BA1E-445413D385A1,ko-KR
wEACTBR5R9-LXNpBMlwnGw,doglobal_api,544_391,Install,3.5,119.66.102.7,60E3C040-B19D-45C5-9274-96FECC06CFD2,1558147174,2019-05-18 10:39:34,1558147263,2019-05-18 10:41:03,1558147294,P_9b9ddb97da36e391-NTQ0Xy0xNDAwODI5OS0zNTAwLTM1MDAtMDUxOC0tMzkx,http://pb.xyz.duunion.com/conv?tid=P_9b9ddb97da36e391-NTQ0Xy0xNDAwODI5OS0zNTAwLTM1MDAtMDUxOC0tMzkx&adv_sectkn=55dea06a643eb8a2d267a735fe2683bd&adv_name=appier-api&payout=3.5,idfa_60E3C040-B19D-45C5-9274-96FECC06CFD2,ko-KR
wEACTBR5R9-LXNpBMlwnGw,doglobal_api,544_391,Install,3.5,125.143.229.253,D53630E1-30C0-4F77-B099-1FD5A0C28B3D,1558287404,2019-05-20 01:36:44,1558287482,2019-05-20 01:38:02,1558287513,B_1a82a638fbec0f1d-NTQ0Xy0xNDAwODI5OS0zNTAwLTM1MDAtMDUyMC0tMzkx,http://pb.xyz.duunion.com/conv?tid=B_1a82a638fbec0f1d-NTQ0Xy0xNDAwODI5OS0zNTAwLTM1MDAtMDUyMC0tMzkx&adv_sectkn=55dea06a643eb8a2d267a735fe2683bd&adv_name=appier-api&payout=3.5,idfa_D53630E1-30C0-4F77-B099-1FD5A0C28B3D,ko-KR
wEACTBR5R9-LXNpBMlwnGw,doglobal_api,544_391,Install,3.5,125.140.89.97,37EE7A46-FDB8-4E93-9907-D1DF62145F55,1558147860,2019-05-18 10:51:00,1558147939,2019-05-18 10:52:19,1558147970,B_b645dfe9398a84cc-NTQ0Xy0xNDAwODI5OS0zNTAwLTM1MDAtMDUxOC0tMzkx,http://pb.xyz.duunion.com/conv?tid=B_b645dfe9398a84cc-NTQ0Xy0xNDAwODI5OS0zNTAwLTM1MDAtMDUxOC0tMzkx&adv_sectkn=55dea06a643eb8a2d267a735fe2683bd&adv_name=appier-api&payout=3.5,idfa_37EE7A46-FDB8-4E93-9907-D1DF62145F55,ko-KR
wEACTBR5R9-LXNpBMlwnGw,doglobal_api,544_391,Install,3.5,218.144.17.223,B878C7F7-EEE9-4CBF-8836-E26EA5801596,1558287372,2019-05-20 01:36:12,1558287454,2019-05-20 01:37:34,1558287485,P_051794e8cf21e369-NTQ0Xy0xNDAwODI5OS0zNTAwLTM1MDAtMDUyMC0tMzkx,http://pb.xyz.duunion.com/conv?tid=P_051794e8cf21e369-NTQ0Xy0xNDAwODI5OS0zNTAwLTM1MDAtMDUyMC0tMzkx&adv_sectkn=55dea06a643eb8a2d267a735fe2683bd&adv_name=appier-api&payout=3.5,idfa_B878C7F7-EEE9-4CBF-8836-E26EA5801596,ko-KR
wEACTBR5R9-LXNpBMlwnGw,doglobal_api,544_391,Install,3.5,61.84.155.73,C676EDFA-1665-4602-849B-585463A3F61A,1558144997,2019-05-18 10:03:17,1558145077,2019-05-18 10:04:37,1558145107,B_3f65d8158fba69d4-NTQ0Xy0xNDAwODI5OS0zNTAwLTM1MDAtMDUxOC0tMzkx,http://pb.xyz.duunion.com/conv?tid=B_3f65d8158fba69d4-NTQ0Xy0xNDAwODI5OS0zNTAwLTM1MDAtMDUxOC0tMzkx&adv_sectkn=55dea06a643eb8a2d267a735fe2683bd&adv_name=appier-api&payout=3.5,idfa_C676EDFA-1665-4602-849B-585463A3F61A,ko-KR
wEACTBR5R9-LXNpBMlwnGw,doglobal_api,544_391,Install,3.5,175.226.157.65,56F4348E-BF01-41CE-9657-E2FAC41D0707,1558287382,2019-05-20 01:36:22,1558287468,2019-05-20 01:37:48,1558287499,P_a64e07d9083f04b4-NTQ0Xy0xNDAwODI5OS0zNTAwLTM1MDAtMDUyMC0tMzkx,http://pb.xyz.duunion.com/conv?tid=P_a64e07d9083f04b4-NTQ0Xy0xNDAwODI5OS0zNTAwLTM1MDAtMDUyMC0tMzkx&adv_sectkn=55dea06a643eb8a2d267a735fe2683bd&adv_name=appier-api&payout=3.5,idfa_56F4348E-BF01-41CE-9657-E2FAC41D0707,ko-KR
wEACTBR5R9-LXNpBMlwnGw,doglobal_api,544_391,Install,3.5,61.32.61.197,F5EEEAF2-CF2C-422F-A40E-AE9FE704E791,1558287075,2019-05-20 01:31:15,1558287159,2019-05-20 01:32:39,1558287189,P_4ec80656e88a2752-NTQ0Xy0xNDAwODI5OS0zNTAwLTM1MDAtMDUyMC0tMzkx,http://pb.xyz.duunion.com/conv?tid=P_4ec80656e88a2752-NTQ0Xy0xNDAwODI5OS0zNTAwLTM1MDAtMDUyMC0tMzkx&adv_sectkn=55dea06a643eb8a2d267a735fe2683bd&adv_name=appier-api&payout=3.5,idfa_F5EEEAF2-CF2C-422F-A40E-AE9FE704E791,ko-KR
wEACTBR5R9-LXNpBMlwnGw,doglobal_api,544_391,Install,3.5,211.181.72.238,F19AF78F-8A97-4EE5-9D8D-8376134679C2,1558287383,2019-05-20 01:36:23,1558287465,2019-05-20 01:37:45,1558287496,B_3fec40a1d81d877e-NTQ0Xy0xNDAwODI5OS0zNTAwLTM1MDAtMDUyMC0tMzkx,http://pb.xyz.duunion.com/conv?tid=B_3fec40a1d81d877e-NTQ0Xy0xNDAwODI5OS0zNTAwLTM1MDAtMDUyMC0tMzkx&adv_sectkn=55dea06a643eb8a2d267a735fe2683bd&adv_name=appier-api&payout=3.5,idfa_F19AF78F-8A97-4EE5-9D8D-8376134679C2,ko-KR
wEACTBR5R9-LXNpBMlwnGw,doglobal_api,544_391,Install,3.5,59.21.169.165,23EDE718-0EC9-4DAA-B912-0D25AA511F5E,1558287391,2019-05-20 01:36:31,1558287477,2019-05-20 01:37:57,1558287509,P_a31345d2222919bf-NTQ0Xy0xNDAwODI5OS0zNTAwLTM1MDAtMDUyMC0tMzkx,http://pb.xyz.duunion.com/conv?tid=P_a31345d2222919bf-NTQ0Xy0xNDAwODI5OS0zNTAwLTM1MDAtMDUyMC0tMzkx&adv_sectkn=55dea06a643eb8a2d267a735fe2683bd&adv_name=appier-api&payout=3.5,idfa_23EDE718-0EC9-4DAA-B912-0D25AA511F5E,ko-KR
wEACTBR5R9-LXNpBMlwnGw,doglobal_api,544_391,Install,3.5,211.216.48.158,06B55EBF-9E2C-4A67-8249-332A74F5AAC6,1558147856,2019-05-18 10:50:56,1558147940,2019-05-18 10:52:20,1558147973,B_1cfa487a8f21a402-NTQ0Xy0xNDAwODI5OS0zNTAwLTM1MDAtMDUxOC0tMzkx,http://pb.xyz.duunion.com/conv?tid=B_1cfa487a8f21a402-NTQ0Xy0xNDAwODI5OS0zNTAwLTM1MDAtMDUxOC0tMzkx&adv_sectkn=55dea06a643eb8a2d267a735fe2683bd&adv_name=appier-api&payout=3.5,idfa_06B55EBF-9E2C-4A67-8249-332A74F5AAC6,ko-KR
wEACTBR5R9-LXNpBMlwnGw,doglobal_api,544_391,Install,3.5,182.208.90.83,4B18BABD-BF62-4A54-B0BD-69060EC5A5B8,1558146826,2019-05-18 10:33:46,1558146916,2019-05-18 10:35:16,1558147053,P_ac1fffe8774d6fdb-NTQ0Xy0xNDAwODI5OS0zNTAwLTM1MDAtMDUxOC0tMzkx,http://pb.xyz.duunion.com/conv?tid=P_ac1fffe8774d6fdb-NTQ0Xy0xNDAwODI5OS0zNTAwLTM1MDAtMDUxOC0tMzkx&adv_sectkn=55dea06a643eb8a2d267a735fe2683bd&adv_name=appier-api&payout=3.5,idfa_4B18BABD-BF62-4A54-B0BD-69060EC5A5B8,ko-KR
wEACTBR5R9-LXNpBMlwnGw,doglobal_api,544_391,Install,3.5,125.135.252.3,D92B0B44-43B9-41EE-BF36-13E133745A0F,1558287077,2019-05-20 01:31:17,1558287165,2019-05-20 01:32:45,1558287195,P_635d89970b726be1-NTQ0Xy0xNDAwODI5OS0zNTAwLTM1MDAtMDUyMC0tMzkx,http://pb.xyz.duunion.com/conv?tid=P_635d89970b726be1-NTQ0Xy0xNDAwODI5OS0zNTAwLTM1MDAtMDUyMC0tMzkx&adv_sectkn=55dea06a643eb8a2d267a735fe2683bd&adv_name=appier-api&payout=3.5,idfa_D92B0B44-43B9-41EE-BF36-13E133745A0F,ko-KR
wEACTBR5R9-LXNpBMlwnGw,doglobal_api,544_391,Install,3.5,211.169.209.130,A9EF7795-D787-46A3-A0EF-8BB41945B3C3,1558287077,2019-05-20 01:31:17,1558287166,2019-05-20 01:32:46,1558287197,P_e5e9e57e211898e6-NTQ0Xy0xNDAwODI5OS0zNTAwLTM1MDAtMDUyMC0tMzkx,http://pb.xyz.duunion.com/conv?tid=P_e5e9e57e211898e6-NTQ0Xy0xNDAwODI5OS0zNTAwLTM1MDAtMDUyMC0tMzkx&adv_sectkn=55dea06a643eb8a2d267a735fe2683bd&adv_name=appier-api&payout=3.5,idfa_A9EF7795-D787-46A3-A0EF-8BB41945B3C3,ko-KR
wEACTBR5R9-LXNpBMlwnGw,doglobal_api,544_391,Install,3.5,114.30.203.10,6E5708AC-DBE6-45D4-B4DC-D0C722ADB9B1,1558287077,2019-05-20 01:31:17,1558287167,2019-05-20 01:32:47,1558287199,P_733970834bcca419-NTQ0Xy0xNDAwODI5OS0zNTAwLTM1MDAtMDUyMC0tMzkx,http://pb.xyz.duunion.com/conv?tid=P_733970834bcca419-NTQ0Xy0xNDAwODI5OS0zNTAwLTM1MDAtMDUyMC0tMzkx&adv_sectkn=55dea06a643eb8a2d267a735fe2683bd&adv_name=appier-api&payout=3.5,idfa_6E5708AC-DBE6-45D4-B4DC-D0C722ADB9B1,ko-KR
wEACTBR5R9-LXNpBMlwnGw,doglobal_api,544_391,Install,3.5,175.211.47.251,C3E29573-C231-4D45-AB6E-E325D30720FB,1558287369,2019-05-20 01:36:09,1558287453,2019-05-20 01:37:33,1558287484,B_a0a9ed6f6f77af52-NTQ0Xy0xNDAwODI5OS0zNTAwLTM1MDAtMDUyMC0tMzkx,http://pb.xyz.duunion.com/conv?tid=B_a0a9ed6f6f77af52-NTQ0Xy0xNDAwODI5OS0zNTAwLTM1MDAtMDUyMC0tMzkx&adv_sectkn=55dea06a643eb8a2d267a735fe2683bd&adv_name=appier-api&payout=3.5,idfa_C3E29573-C231-4D45-AB6E-E325D30720FB,ko-KR
wEACTBR5R9-LXNpBMlwnGw,doglobal_api,544_391,Install,3.5,211.54.74.50,1A3B0ACD-ABA8-45AD-9D56-89E648F5C69D,1558287075,2019-05-20 01:31:15,1558287154,2019-05-20 01:32:34,1558287185,B_b884d9bfd4f3dab1-NTQ0Xy0xNDAwODI5OS0zNTAwLTM1MDAtMDUyMC0tMzkx,http://pb.xyz.duunion.com/conv?tid=B_b884d9bfd4f3dab1-NTQ0Xy0xNDAwODI5OS0zNTAwLTM1MDAtMDUyMC0tMzkx&adv_sectkn=55dea06a643eb8a2d267a735fe2683bd&adv_name=appier-api&payout=3.5,idfa_1A3B0ACD-ABA8-45AD-9D56-89E648F5C69D,ko-KR
wEACTBR5R9-LXNpBMlwnGw,doglobal_api,544_391,Install,3.5,115.12.177.66,C1BEA1EB-B705-4049-86C1-100713291998,1558287075,2019-05-20 01:31:15,1558287156,2019-05-20 01:32:36,1558287186,P_5ef6a5752dea5890-NTQ0Xy0xNDAwODI5OS0zNTAwLTM1MDAtMDUyMC0tMzkx,http://pb.xyz.duunion.com/conv?tid=P_5ef6a5752dea5890-NTQ0Xy0xNDAwODI5OS0zNTAwLTM1MDAtMDUyMC0tMzkx&adv_sectkn=55dea06a643eb8a2d267a735fe2683bd&adv_name=appier-api&payout=3.5,idfa_C1BEA1EB-B705-4049-86C1-100713291998,ko-KR
wEACTBR5R9-LXNpBMlwnGw,doglobal_api,544_391,Install,3.5,118.42.115.142,65478029-AF69-4038-878C-0AF140135CB5,1558287383,2019-05-20 01:36:23,1558287459,2019-05-20 01:37:39,1558287489,P_26bea888b7da4bb6-NTQ0Xy0xNDAwODI5OS0zNTAwLTM1MDAtMDUyMC0tMzkx,http://pb.xyz.duunion.com/conv?tid=P_26bea888b7da4bb6-NTQ0Xy0xNDAwODI5OS0zNTAwLTM1MDAtMDUyMC0tMzkx&adv_sectkn=55dea06a643eb8a2d267a735fe2683bd&adv_name=appier-api&payout=3.5,idfa_65478029-AF69-4038-878C-0AF140135CB5,ko-KR
wEACTBR5R9-LXNpBMlwnGw,doglobal_api,544_391,Install,3.5,112.220.22.106,52776DE8-9979-49E4-AC05-265560F60F07,1558147548,2019-05-18 10:45:48,1558147627,2019-05-18 10:47:07,1558147800,P_263fbb25d44f99d3-NTQ0Xy0xNDAwODI5OS0zNTAwLTM1MDAtMDUxOC0tMzkx,http://pb.xyz.duunion.com/conv?tid=P_263fbb25d44f99d3-NTQ0Xy0xNDAwODI5OS0zNTAwLTM1MDAtMDUxOC0tMzkx&adv_sectkn=55dea06a643eb8a2d267a735fe2683bd&adv_name=appier-api&payout=3.5,idfa_52776DE8-9979-49E4-AC05-265560F60F07,ko-KR
wEACTBR5R9-LXNpBMlwnGw,doglobal_api,544_391,Install,3.5,125.135.252.3,C508C89C-CFEE-4799-8FD2-D1BDBA900997,1558287404,2019-05-20 01:36:44,1558287475,2019-05-20 01:37:55,1558287505,B_cb23310c8f9f637f-NTQ0Xy0xNDAwODI5OS0zNTAwLTM1MDAtMDUyMC0tMzkx,http://pb.xyz.duunion.com/conv?tid=B_cb23310c8f9f637f-NTQ0Xy0xNDAwODI5OS0zNTAwLTM1MDAtMDUyMC0tMzkx&adv_sectkn=55dea06a643eb8a2d267a735fe2683bd&adv_name=appier-api&payout=3.5,idfa_C508C89C-CFEE-4799-8FD2-D1BDBA900997,ko-KR
wEACTBR5R9-LXNpBMlwnGw,doglobal_api,544_391,Install,3.5,220.76.251.168,89F0EB45-B3C6-4BB6-8E48-85237D4DF708,1558147884,2019-05-18 10:51:24,1558147972,2019-05-18 10:52:52,1558148064,P_c7c882ee0299451e-NTQ0Xy0xNDAwODI5OS0zNTAwLTM1MDAtMDUxOC0tMzkx,http://pb.xyz.duunion.com/conv?tid=P_c7c882ee0299451e-NTQ0Xy0xNDAwODI5OS0zNTAwLTM1MDAtMDUxOC0tMzkx&adv_sectkn=55dea06a643eb8a2d267a735fe2683bd&adv_name=appier-api&payout=3.5,idfa_89F0EB45-B3C6-4BB6-8E48-85237D4DF708,ko-KR
wEACTBR5R9-LXNpBMlwnGw,doglobal_api,544_391,Install,3.5,119.66.102.7,7AB99085-3E76-4A17-9E9D-F2050A082A82,1558147533,2019-05-18 10:45:33,1558147611,2019-05-18 10:46:51,1558147643,B_2762c000a3c74d51-NTQ0Xy0xNDAwODI5OS0zNTAwLTM1MDAtMDUxOC0tMzkx,http://pb.xyz.duunion.com/conv?tid=B_2762c000a3c74d51-NTQ0Xy0xNDAwODI5OS0zNTAwLTM1MDAtMDUxOC0tMzkx&adv_sectkn=55dea06a643eb8a2d267a735fe2683bd&adv_name=appier-api&payout=3.5,idfa_7AB99085-3E76-4A17-9E9D-F2050A082A82,ko-KR
wEACTBR5R9-LXNpBMlwnGw,doglobal_api,544_391,Install,3.5,211.216.48.158,C1B43938-25A8-43BA-821E-04547AB91C93,1558287086,2019-05-20 01:31:26,1558287194,2019-05-20 01:33:14,1558287224,P_9cc83e3448f4b7a9-NTQ0Xy0xNDAwODI5OS0zNTAwLTM1MDAtMDUyMC0tMzkx,http://pb.xyz.duunion.com/conv?tid=P_9cc83e3448f4b7a9-NTQ0Xy0xNDAwODI5OS0zNTAwLTM1MDAtMDUyMC0tMzkx&adv_sectkn=55dea06a643eb8a2d267a735fe2683bd&adv_name=appier-api&payout=3.5,idfa_C1B43938-25A8-43BA-821E-04547AB91C93,ko-KR
wEACTBR5R9-LXNpBMlwnGw,doglobal_api,544_391,Install,3.5,61.81.115.75,74F861C5-2985-49AC-9CC2-BB90385C538E,1558148166,2019-05-18 10:56:06,1558148245,2019-05-18 10:57:25,1558148276,B_9ca966789efd652f-NTQ0Xy0xNDAwODI5OS0zNTAwLTM1MDAtMDUxOC0tMzkx,http://pb.xyz.duunion.com/conv?tid=B_9ca966789efd652f-NTQ0Xy0xNDAwODI5OS0zNTAwLTM1MDAtMDUxOC0tMzkx&adv_sectkn=55dea06a643eb8a2d267a735fe2683bd&adv_name=appier-api&payout=3.5,idfa_74F861C5-2985-49AC-9CC2-BB90385C538E,ko-KR
wEACTBR5R9-LXNpBMlwnGw,doglobal_api,544_391,Install,3.5,211.43.60.60,D435AF73-FB14-4B16-A13A-F1A11F2B2687,1558287070,2019-05-20 01:31:10,1558287152,2019-05-20 01:32:32,1558287182,B_511c1a0f4ddad0f6-NTQ0Xy0xNDAwODI5OS0zNTAwLTM1MDAtMDUyMC0tMzkx,http://pb.xyz.duunion.com/conv?tid=B_511c1a0f4ddad0f6-NTQ0Xy0xNDAwODI5OS0zNTAwLTM1MDAtMDUyMC0tMzkx&adv_sectkn=55dea06a643eb8a2d267a735fe2683bd&adv_name=appier-api&payout=3.5,idfa_D435AF73-FB14-4B16-A13A-F1A11F2B2687,ko-KR
wEACTBR5R9-LXNpBMlwnGw,doglobal_api,544_391,Install,3.5,61.32.61.197,040AC11D-ECB0-40C6-9AEE-773527BD2F02,1558145327,2019-05-18 10:08:47,1558145423,2019-05-18 10:10:23,1558145487,B_c0df726c63728a13-NTQ0Xy0xNDAwODI5OS0zNTAwLTM1MDAtMDUxOC0tMzkx,http://pb.xyz.duunion.com/conv?tid=B_c0df726c63728a13-NTQ0Xy0xNDAwODI5OS0zNTAwLTM1MDAtMDUxOC0tMzkx&adv_sectkn=55dea06a643eb8a2d267a735fe2683bd&adv_name=appier-api&payout=3.5,idfa_040AC11D-ECB0-40C6-9AEE-773527BD2F02,ko-KR
