cid,partner_id,channel_id,action_id,cpi,ip,idfa,click time,click datetime,install time,install datetime,postback time,click id,postback url,unique user id
8rHwn3WUTN-oJ9J2NTxAMg,doglobal_api,937_hu_po_gyuft,install,4.0,180.131.244.19,FB1B6E36-CB89-4A44-AFDC-AC75B36EED9F,1558055305,2019-05-17 09:08:25,1558055396,2019-05-17 09:09:56,1558055426,B_d0d40a53c7119444-OTM3Xy0xMTg0NjQwOC00MDAwLTMyMDAtMDUxNy0taHVfcG9fZ3l1ZnQ,http://pb.xyz.duunion.com/conv?tid=B_d0d40a53c7119444-OTM3Xy0xMTg0NjQwOC00MDAwLTMyMDAtMDUxNy0taHVfcG9fZ3l1ZnQ&adv_sectkn=55dea06a643eb8a2d267a735fe2683bd&adv_name=appier-api&payout=4.0,idfa_FB1B6E36-CB89-4A44-AFDC-AC75B36EED9F,ja
8rHwn3WUTN-oJ9J2NTxAMg,doglobal_api,937_hu_po_gyuft,install,4.0,220.108.38.107,5B418610-03F3-433D-9EE0-14ED2E4DF2EA,1558056877,2019-05-17 09:34:37,1558056973,2019-05-17 09:36:13,1558057003,B_3af94f5d263fc27e-OTM3Xy0xMTg0NjQwOC00MDAwLTMyMDAtMDUxNy0taHVfcG9fZ3l1ZnQ,http://pb.xyz.duunion.com/conv?tid=B_3af94f5d263fc27e-OTM3Xy0xMTg0NjQwOC00MDAwLTMyMDAtMDUxNy0taHVfcG9fZ3l1ZnQ&adv_sectkn=55dea06a643eb8a2d267a735fe2683bd&adv_name=appier-api&payout=4.0,idfa_5B418610-03F3-433D-9EE0-14ED2E4DF2EA,ja
8rHwn3WUTN-oJ9J2NTxAMg,doglobal_api,937_hu_po_gyuft,install,4.5,183.86.35.72,5CFA6F9A-15C8-456A-BD6A-93A07BF87CA4,1557978434,2019-05-16 11:47:14,1557978564,2019-05-16 11:49:24,1557978594,P_1c73562721ca89c2-OTM3Xy0xMTg0NjQwOC00NTAwLTM2MDAtMDUxNi0taHVfcG9fZ3l1ZnQ,http://pb.xyz.duunion.com/conv?tid=P_1c73562721ca89c2-OTM3Xy0xMTg0NjQwOC00NTAwLTM2MDAtMDUxNi0taHVfcG9fZ3l1ZnQ&adv_sectkn=55dea06a643eb8a2d267a735fe2683bd&adv_name=appier-api&payout=4.5,idfa_5CFA6F9A-15C8-456A-BD6A-93A07BF87CA4,ja
8rHwn3WUTN-oJ9J2NTxAMg,doglobal_api,937_hu_po_gyuft,install,4.0,198.144.134.199,94E7D8A0-B539-41DB-A563-097AFE9051AF,1558057134,2019-05-17 09:38:54,1558057376,2019-05-17 09:42:56,1558057407,B_ffc34bda87d9457b-OTM3Xy0xMTg0NjQwOC00MDAwLTMyMDAtMDUxNy0taHVfcG9fZ3l1ZnQ,http://pb.xyz.duunion.com/conv?tid=B_ffc34bda87d9457b-OTM3Xy0xMTg0NjQwOC00MDAwLTMyMDAtMDUxNy0taHVfcG9fZ3l1ZnQ&adv_sectkn=55dea06a643eb8a2d267a735fe2683bd&adv_name=appier-api&payout=4.0,idfa_94E7D8A0-B539-41DB-A563-097AFE9051AF,ja
8rHwn3WUTN-oJ9J2NTxAMg,doglobal_api,937_hu_po_gyuft,install,4.0,60.157.77.203,BFE2A9B1-B0C1-4B50-A410-1DA593DD455B,1558058175,2019-05-17 09:56:15,1558058274,2019-05-17 09:57:54,1558058304,P_a9e5e6d6c73aa366-OTM3Xy0xMTg0NjQwOC00MDAwLTMyMDAtMDUxNy0taHVfcG9fZ3l1ZnQ,http://pb.xyz.duunion.com/conv?tid=P_a9e5e6d6c73aa366-OTM3Xy0xMTg0NjQwOC00MDAwLTMyMDAtMDUxNy0taHVfcG9fZ3l1ZnQ&adv_sectkn=55dea06a643eb8a2d267a735fe2683bd&adv_name=appier-api&payout=4.0,idfa_BFE2A9B1-B0C1-4B50-A410-1DA593DD455B,ja
8rHwn3WUTN-oJ9J2NTxAMg,doglobal_api,937_hu_po_gyuft,install,4.0,113.144.182.183,0A6D4CE5-490A-4A20-BF3C-5BCEB7C439EC,1558053224,2019-05-17 08:33:44,1558053311,2019-05-17 08:35:11,1558053342,B_c416e0e5beae4815-OTM3Xy0xMTg0NjQwOC00MDAwLTMyMDAtMDUxNy0taHVfcG9fZ3l1ZnQ,http://pb.xyz.duunion.com/conv?tid=B_c416e0e5beae4815-OTM3Xy0xMTg0NjQwOC00MDAwLTMyMDAtMDUxNy0taHVfcG9fZ3l1ZnQ&adv_sectkn=55dea06a643eb8a2d267a735fe2683bd&adv_name=appier-api&payout=4.0,idfa_0A6D4CE5-490A-4A20-BF3C-5BCEB7C439EC,ja
8rHwn3WUTN-oJ9J2NTxAMg,doglobal_api,937_hu_po_gyuft,install,4.0,180.4.177.104,F21D6E69-6625-4E0A-B0CB-87A06814EC1C,1558052709,2019-05-17 08:25:09,1558052994,2019-05-17 08:29:54,1558053024,B_757f21652432383a-OTM3Xy0xMTg0NjQwOC00MDAwLTMyMDAtMDUxNy0taHVfcG9fZ3l1ZnQ,http://pb.xyz.duunion.com/conv?tid=B_757f21652432383a-OTM3Xy0xMTg0NjQwOC00MDAwLTMyMDAtMDUxNy0taHVfcG9fZ3l1ZnQ&adv_sectkn=55dea06a643eb8a2d267a735fe2683bd&adv_name=appier-api&payout=4.0,idfa_F21D6E69-6625-4E0A-B0CB-87A06814EC1C,ja
8rHwn3WUTN-oJ9J2NTxAMg,doglobal_api,937_hu_po_gyuft,install,4.5,180.131.244.19,9DA69E07-1414-4056-BD8F-B9B918DE9790,1557975566,2019-05-16 10:59:26,1557975688,2019-05-16 11:01:28,1557975718,P_8475172448710e35-OTM3Xy0xMTg0NjQwOC00NTAwLTM2MDAtMDUxNi0taHVfcG9fZ3l1ZnQ,http://pb.xyz.duunion.com/conv?tid=P_8475172448710e35-OTM3Xy0xMTg0NjQwOC00NTAwLTM2MDAtMDUxNi0taHVfcG9fZ3l1ZnQ&adv_sectkn=55dea06a643eb8a2d267a735fe2683bd&adv_name=appier-api&payout=4.5,idfa_9DA69E07-1414-4056-BD8F-B9B918DE9790,ja
8rHwn3WUTN-oJ9J2NTxAMg,doglobal_api,937_hu_po_gyuft,install,4.0,106.161.106.225,E61D65E0-A7F5-40F3-934A-16EAC410DF67,1558054054,2019-05-17 08:47:34,1558054133,2019-05-17 08:48:53,1558054163,B_97f7d27454ab7f7c-OTM3Xy0xMTg0NjQwOC00MDAwLTMyMDAtMDUxNy0taHVfcG9fZ3l1ZnQ,http://pb.xyz.duunion.com/conv?tid=B_97f7d27454ab7f7c-OTM3Xy0xMTg0NjQwOC00MDAwLTMyMDAtMDUxNy0taHVfcG9fZ3l1ZnQ&adv_sectkn=55dea06a643eb8a2d267a735fe2683bd&adv_name=appier-api&payout=4.0,idfa_E61D65E0-A7F5-40F3-934A-16EAC410DF67,ja
8rHwn3WUTN-oJ9J2NTxAMg,doglobal_api,937_hu_po_gyuft,install,4.5,126.119.104.162,4F7A789E-0635-4171-B5C5-35E36AFA1721,1557975008,2019-05-16 10:50:08,1557975091,2019-05-16 10:51:31,1557975121,P_4428513ddb4c2e9e-OTM3Xy0xMTg0NjQwOC00NTAwLTM2MDAtMDUxNi0taHVfcG9fZ3l1ZnQ,http://pb.xyz.duunion.com/conv?tid=P_4428513ddb4c2e9e-OTM3Xy0xMTg0NjQwOC00NTAwLTM2MDAtMDUxNi0taHVfcG9fZ3l1ZnQ&adv_sectkn=55dea06a643eb8a2d267a735fe2683bd&adv_name=appier-api&payout=4.5,idfa_4F7A789E-0635-4171-B5C5-35E36AFA1721,ja
8rHwn3WUTN-oJ9J2NTxAMg,doglobal_api,937_hu_po_gyuft,install,4.0,153.209.105.48,8B5DA775-7A00-4273-8F02-F899D20CEC62,1558054766,2019-05-17 08:59:26,1558054853,2019-05-17 09:00:53,1558054883,P_070546f6cf4edd3d-OTM3Xy0xMTg0NjQwOC00MDAwLTMyMDAtMDUxNy0taHVfcG9fZ3l1ZnQ,http://pb.xyz.duunion.com/conv?tid=P_070546f6cf4edd3d-OTM3Xy0xMTg0NjQwOC00MDAwLTMyMDAtMDUxNy0taHVfcG9fZ3l1ZnQ&adv_sectkn=55dea06a643eb8a2d267a735fe2683bd&adv_name=appier-api&payout=4.0,idfa_8B5DA775-7A00-4273-8F02-F899D20CEC62,ja
8rHwn3WUTN-oJ9J2NTxAMg,doglobal_api,937_hu_po_gyuft,install,4.0,106.181.171.155,68A3AC1E-A496-421B-AFEE-C9B016221715,1558051909,2019-05-17 08:11:49,1558052040,2019-05-17 08:14:00,1558054501,P_da3b0086454889fa-OTM3Xy0xMTg0NjQwOC00MDAwLTMyMDAtMDUxNy0taHVfcG9fZ3l1ZnQ,http://pb.xyz.duunion.com/conv?tid=P_da3b0086454889fa-OTM3Xy0xMTg0NjQwOC00MDAwLTMyMDAtMDUxNy0taHVfcG9fZ3l1ZnQ&adv_sectkn=55dea06a643eb8a2d267a735fe2683bd&adv_name=appier-api&payout=4.0,idfa_68A3AC1E-A496-421B-AFEE-C9B016221715,ja
8rHwn3WUTN-oJ9J2NTxAMg,doglobal_api,937_hu_po_gyuft,install,4.0,218.226.184.86,C1915640-9F53-4FA6-8A7E-B38678F03EEE,1558062695,2019-05-17 11:11:35,1558062775,2019-05-17 11:12:55,1558062805,B_3d4c09ba63390275-OTM3Xy0xMTg0NjQwOC00MDAwLTMyMDAtMDUxNy0taHVfcG9fZ3l1ZnQ,http://pb.xyz.duunion.com/conv?tid=B_3d4c09ba63390275-OTM3Xy0xMTg0NjQwOC00MDAwLTMyMDAtMDUxNy0taHVfcG9fZ3l1ZnQ&adv_sectkn=55dea06a643eb8a2d267a735fe2683bd&adv_name=appier-api&payout=4.0,idfa_C1915640-9F53-4FA6-8A7E-B38678F03EEE,ja
8rHwn3WUTN-oJ9J2NTxAMg,doglobal_api,937_hu_po_gyuft,install,4.5,153.178.249.249,D65A3932-B588-4DF9-9CE6-106EF53C016E,1557976284,2019-05-16 11:11:24,1557976400,2019-05-16 11:13:20,1557976430,B_e39efd6d12c7a886-OTM3Xy0xMTg0NjQwOC00NTAwLTM2MDAtMDUxNi0taHVfcG9fZ3l1ZnQ,http://pb.xyz.duunion.com/conv?tid=B_e39efd6d12c7a886-OTM3Xy0xMTg0NjQwOC00NTAwLTM2MDAtMDUxNi0taHVfcG9fZ3l1ZnQ&adv_sectkn=55dea06a643eb8a2d267a735fe2683bd&adv_name=appier-api&payout=4.5,idfa_D65A3932-B588-4DF9-9CE6-106EF53C016E,ja
8rHwn3WUTN-oJ9J2NTxAMg,doglobal_api,937_hu_po_gyuft,install,4.0,153.133.179.7,2F83D5EC-94C9-4CD8-9FD9-A932C5730A10,1558051920,2019-05-17 08:12:00,1558052001,2019-05-17 08:13:21,1558052032,B_a0f988b44b552196-OTM3Xy0xMTg0NjQwOC00MDAwLTMyMDAtMDUxNy0taHVfcG9fZ3l1ZnQ,http://pb.xyz.duunion.com/conv?tid=B_a0f988b44b552196-OTM3Xy0xMTg0NjQwOC00MDAwLTMyMDAtMDUxNy0taHVfcG9fZ3l1ZnQ&adv_sectkn=55dea06a643eb8a2d267a735fe2683bd&adv_name=appier-api&payout=4.0,idfa_2F83D5EC-94C9-4CD8-9FD9-A932C5730A10,ja
8rHwn3WUTN-oJ9J2NTxAMg,doglobal_api,937_hu_po_gyuft,install,4.0,106.181.134.85,5EC4658E-87E4-41DB-B810-43243829781E,1558059709,2019-05-17 10:21:49,1558059817,2019-05-17 10:23:37,1558059848,P_38672e49a2f2aa2c-OTM3Xy0xMTg0NjQwOC00MDAwLTMyMDAtMDUxNy0taHVfcG9fZ3l1ZnQ,http://pb.xyz.duunion.com/conv?tid=P_38672e49a2f2aa2c-OTM3Xy0xMTg0NjQwOC00MDAwLTMyMDAtMDUxNy0taHVfcG9fZ3l1ZnQ&adv_sectkn=55dea06a643eb8a2d267a735fe2683bd&adv_name=appier-api&payout=4.0,idfa_5EC4658E-87E4-41DB-B810-43243829781E,ja
8rHwn3WUTN-oJ9J2NTxAMg,doglobal_api,937_hu_po_gyuft,install,4.0,60.61.245.23,72EA444A-36B1-4572-8898-D69458BFD6C2,1558056579,2019-05-17 09:29:39,1558056839,2019-05-17 09:33:59,1558056869,P_ad6479855d47c577-OTM3Xy0xMTg0NjQwOC00MDAwLTMyMDAtMDUxNy0taHVfcG9fZ3l1ZnQ,http://pb.xyz.duunion.com/conv?tid=P_ad6479855d47c577-OTM3Xy0xMTg0NjQwOC00MDAwLTMyMDAtMDUxNy0taHVfcG9fZ3l1ZnQ&adv_sectkn=55dea06a643eb8a2d267a735fe2683bd&adv_name=appier-api&payout=4.0,idfa_72EA444A-36B1-4572-8898-D69458BFD6C2,ja
8rHwn3WUTN-oJ9J2NTxAMg,doglobal_api,937_hu_po_gyuft,install,4.0,59.86.115.62,300A6AA8-CB42-489C-861B-34661B473D6E,1558051937,2019-05-17 08:12:17,1558052028,2019-05-17 08:13:48,1558052058,P_d08cabefcb00fcf9-OTM3Xy0xMTg0NjQwOC00MDAwLTMyMDAtMDUxNy0taHVfcG9fZ3l1ZnQ,http://pb.xyz.duunion.com/conv?tid=P_d08cabefcb00fcf9-OTM3Xy0xMTg0NjQwOC00MDAwLTMyMDAtMDUxNy0taHVfcG9fZ3l1ZnQ&adv_sectkn=55dea06a643eb8a2d267a735fe2683bd&adv_name=appier-api&payout=4.0,idfa_300A6AA8-CB42-489C-861B-34661B473D6E,ja
8rHwn3WUTN-oJ9J2NTxAMg,doglobal_api,937_hu_po_gyuft,install,4.5,122.215.84.47,4077FAE0-7429-453C-B0E2-A729DB1747F2,1557976315,2019-05-16 11:11:55,1557976426,2019-05-16 11:13:46,1557976456,P_e4b87c60e6e3bc63-OTM3Xy0xMTg0NjQwOC00NTAwLTM2MDAtMDUxNi0taHVfcG9fZ3l1ZnQ,http://pb.xyz.duunion.com/conv?tid=P_e4b87c60e6e3bc63-OTM3Xy0xMTg0NjQwOC00NTAwLTM2MDAtMDUxNi0taHVfcG9fZ3l1ZnQ&adv_sectkn=55dea06a643eb8a2d267a735fe2683bd&adv_name=appier-api&payout=4.5,idfa_4077FAE0-7429-453C-B0E2-A729DB1747F2,ja
8rHwn3WUTN-oJ9J2NTxAMg,doglobal_api,937_hu_po_gyuft,install,4.5,111.90.99.231,87F547DA-9CD7-45BA-8040-A97E79AC352D,1557973512,2019-05-16 10:25:12,1557973620,2019-05-16 10:27:00,1557973650,P_7829fc5437ab4f8d-OTM3Xy0xMTg0NjQwOC00NTAwLTM2MDAtMDUxNi0taHVfcG9fZ3l1ZnQ,http://pb.xyz.duunion.com/conv?tid=P_7829fc5437ab4f8d-OTM3Xy0xMTg0NjQwOC00NTAwLTM2MDAtMDUxNi0taHVfcG9fZ3l1ZnQ&adv_sectkn=55dea06a643eb8a2d267a735fe2683bd&adv_name=appier-api&payout=4.5,idfa_87F547DA-9CD7-45BA-8040-A97E79AC352D,ja
8rHwn3WUTN-oJ9J2NTxAMg,doglobal_api,937_hu_po_gyuft,install,4.5,121.116.22.165,24B67245-8958-42F3-B9DB-7DD5CBDB5195,1557971754,2019-05-16 09:55:54,1557971850,2019-05-16 09:57:30,1557971880,P_6b8dfe6e89e6b75a-OTM3Xy0xMTg0NjQwOC00NTAwLTM2MDAtMDUxNi0taHVfcG9fZ3l1ZnQ,http://pb.xyz.duunion.com/conv?tid=P_6b8dfe6e89e6b75a-OTM3Xy0xMTg0NjQwOC00NTAwLTM2MDAtMDUxNi0taHVfcG9fZ3l1ZnQ&adv_sectkn=55dea06a643eb8a2d267a735fe2683bd&adv_name=appier-api&payout=4.5,idfa_24B67245-8958-42F3-B9DB-7DD5CBDB5195,ja
8rHwn3WUTN-oJ9J2NTxAMg,doglobal_api,937_hu_po_gyuft,install,4.0,153.188.204.138,92167456-66AC-4E1F-A1AF-7D5BBF37C4B2,1558058671,2019-05-17 10:04:31,1558058815,2019-05-17 10:06:55,1558058845,P_683915189c14197f-OTM3Xy0xMTg0NjQwOC00MDAwLTMyMDAtMDUxNy0taHVfcG9fZ3l1ZnQ,http://pb.xyz.duunion.com/conv?tid=P_683915189c14197f-OTM3Xy0xMTg0NjQwOC00MDAwLTMyMDAtMDUxNy0taHVfcG9fZ3l1ZnQ&adv_sectkn=55dea06a643eb8a2d267a735fe2683bd&adv_name=appier-api&payout=4.0,idfa_92167456-66AC-4E1F-A1AF-7D5BBF37C4B2,ja
8rHwn3WUTN-oJ9J2NTxAMg,doglobal_api,937_hu_po_gyuft,install,4.5,126.103.176.222,ACA5576D-A9DE-4980-B85F-27D89BA70C59,1557976368,2019-05-16 11:12:48,1557976506,2019-05-16 11:15:06,1557976536,P_498c7bcc50cc7358-OTM3Xy0xMTg0NjQwOC00NTAwLTM2MDAtMDUxNi0taHVfcG9fZ3l1ZnQ,http://pb.xyz.duunion.com/conv?tid=P_498c7bcc50cc7358-OTM3Xy0xMTg0NjQwOC00NTAwLTM2MDAtMDUxNi0taHVfcG9fZ3l1ZnQ&adv_sectkn=55dea06a643eb8a2d267a735fe2683bd&adv_name=appier-api&payout=4.5,idfa_ACA5576D-A9DE-4980-B85F-27D89BA70C59,ja
8rHwn3WUTN-oJ9J2NTxAMg,doglobal_api,937_hu_po_gyuft,install,4.0,124.98.164.49,0F6F4698-3106-4271-80BB-3A41C32F44EF,1558059514,2019-05-17 10:18:34,1558059746,2019-05-17 10:22:26,1558059776,P_55d756970f14428b-OTM3Xy0xMTg0NjQwOC00MDAwLTMyMDAtMDUxNy0taHVfcG9fZ3l1ZnQ,http://pb.xyz.duunion.com/conv?tid=P_55d756970f14428b-OTM3Xy0xMTg0NjQwOC00MDAwLTMyMDAtMDUxNy0taHVfcG9fZ3l1ZnQ&adv_sectkn=55dea06a643eb8a2d267a735fe2683bd&adv_name=appier-api&payout=4.0,idfa_0F6F4698-3106-4271-80BB-3A41C32F44EF,ja
8rHwn3WUTN-oJ9J2NTxAMg,doglobal_api,937_hu_po_gyuft,install,4.5,125.1.116.42,C842A2B2-0605-46CB-B9A8-B1329E3912ED,1557975419,2019-05-16 10:56:59,1557975525,2019-05-16 10:58:45,1557975555,B_87e464d253f3682b-OTM3Xy0xMTg0NjQwOC00NTAwLTM2MDAtMDUxNi0taHVfcG9fZ3l1ZnQ,http://pb.xyz.duunion.com/conv?tid=B_87e464d253f3682b-OTM3Xy0xMTg0NjQwOC00NTAwLTM2MDAtMDUxNi0taHVfcG9fZ3l1ZnQ&adv_sectkn=55dea06a643eb8a2d267a735fe2683bd&adv_name=appier-api&payout=4.5,idfa_C842A2B2-0605-46CB-B9A8-B1329E3912ED,ja
8rHwn3WUTN-oJ9J2NTxAMg,doglobal_api,937_hu_po_gyuft,install,4.0,60.90.206.247,C4E37081-269C-4BC6-BEAA-5AB878AA1FD2,1558057754,2019-05-17 09:49:14,1558057861,2019-05-17 09:51:01,1558057891,P_dd9bdb3e6083dba0-OTM3Xy0xMTg0NjQwOC00MDAwLTMyMDAtMDUxNy0taHVfcG9fZ3l1ZnQ,http://pb.xyz.duunion.com/conv?tid=P_dd9bdb3e6083dba0-OTM3Xy0xMTg0NjQwOC00MDAwLTMyMDAtMDUxNy0taHVfcG9fZ3l1ZnQ&adv_sectkn=55dea06a643eb8a2d267a735fe2683bd&adv_name=appier-api&payout=4.0,idfa_C4E37081-269C-4BC6-BEAA-5AB878AA1FD2,ja
8rHwn3WUTN-oJ9J2NTxAMg,doglobal_api,937_hu_po_gyuft,install,4.5,36.3.208.144,C485229B-BD65-4152-9902-24AA1D196D0F,1557976692,2019-05-16 11:18:12,1557976766,2019-05-16 11:19:26,1557976796,B_8357cb7f7e639d4a-OTM3Xy0xMTg0NjQwOC00NTAwLTM2MDAtMDUxNi0taHVfcG9fZ3l1ZnQ,http://pb.xyz.duunion.com/conv?tid=B_8357cb7f7e639d4a-OTM3Xy0xMTg0NjQwOC00NTAwLTM2MDAtMDUxNi0taHVfcG9fZ3l1ZnQ&adv_sectkn=55dea06a643eb8a2d267a735fe2683bd&adv_name=appier-api&payout=4.5,idfa_C485229B-BD65-4152-9902-24AA1D196D0F,ja
8rHwn3WUTN-oJ9J2NTxAMg,doglobal_api,937_hu_po_gyuft,install,4.0,61.192.11.66,B7CF36EC-FA2D-4221-A76D-5074C82348E7,1558056446,2019-05-17 09:27:26,1558056561,2019-05-17 09:29:21,1558056591,P_3b13d682d19668e4-OTM3Xy0xMTg0NjQwOC00MDAwLTMyMDAtMDUxNy0taHVfcG9fZ3l1ZnQ,http://pb.xyz.duunion.com/conv?tid=P_3b13d682d19668e4-OTM3Xy0xMTg0NjQwOC00MDAwLTMyMDAtMDUxNy0taHVfcG9fZ3l1ZnQ&adv_sectkn=55dea06a643eb8a2d267a735fe2683bd&adv_name=appier-api&payout=4.0,idfa_B7CF36EC-FA2D-4221-A76D-5074C82348E7,ja
8rHwn3WUTN-oJ9J2NTxAMg,doglobal_api,937_hu_po_gyuft,install,4.5,220.210.146.131,33257F8C-23F8-414B-9879-590DCDE98CA8,1557977081,2019-05-16 11:24:41,1557977171,2019-05-16 11:26:11,1557977202,P_baac5ec6c625be41-OTM3Xy0xMTg0NjQwOC00NTAwLTM2MDAtMDUxNi0taHVfcG9fZ3l1ZnQ,http://pb.xyz.duunion.com/conv?tid=P_baac5ec6c625be41-OTM3Xy0xMTg0NjQwOC00NTAwLTM2MDAtMDUxNi0taHVfcG9fZ3l1ZnQ&adv_sectkn=55dea06a643eb8a2d267a735fe2683bd&adv_name=appier-api&payout=4.5,idfa_33257F8C-23F8-414B-9879-590DCDE98CA8,ja
8rHwn3WUTN-oJ9J2NTxAMg,doglobal_api,937_hu_po_gyuft,install,4.5,42.148.119.96,651EA71D-D91B-413A-8EFE-B821122CD5E0,1557972818,2019-05-16 10:13:38,1557972948,2019-05-16 10:15:48,1557972978,B_32219183b467e12b-OTM3Xy0xMTg0NjQwOC00NTAwLTM2MDAtMDUxNi0taHVfcG9fZ3l1ZnQ,http://pb.xyz.duunion.com/conv?tid=B_32219183b467e12b-OTM3Xy0xMTg0NjQwOC00NTAwLTM2MDAtMDUxNi0taHVfcG9fZ3l1ZnQ&adv_sectkn=55dea06a643eb8a2d267a735fe2683bd&adv_name=appier-api&payout=4.5,idfa_651EA71D-D91B-413A-8EFE-B821122CD5E0,ja
8rHwn3WUTN-oJ9J2NTxAMg,doglobal_api,937_hu_po_gyuft,install,4.0,202.32.132.105,93CC746D-51FA-4678-AAF9-DD242325F58C,1558057787,2019-05-17 09:49:47,1558058056,2019-05-17 09:54:16,1558058086,B_64ffff0dcabd8092-OTM3Xy0xMTg0NjQwOC00MDAwLTMyMDAtMDUxNy0taHVfcG9fZ3l1ZnQ,http://pb.xyz.duunion.com/conv?tid=B_64ffff0dcabd8092-OTM3Xy0xMTg0NjQwOC00MDAwLTMyMDAtMDUxNy0taHVfcG9fZ3l1ZnQ&adv_sectkn=55dea06a643eb8a2d267a735fe2683bd&adv_name=appier-api&payout=4.0,idfa_93CC746D-51FA-4678-AAF9-DD242325F58C,ja
8rHwn3WUTN-oJ9J2NTxAMg,doglobal_api,937_hu_po_gyuft,install,4.0,133.202.29.247,92E16882-6CAC-4751-BB0F-DBF31C9BB0EB,1558057940,2019-05-17 09:52:20,1558058024,2019-05-17 09:53:44,1558058054,B_26d23096e9cc927d-OTM3Xy0xMTg0NjQwOC00MDAwLTMyMDAtMDUxNy0taHVfcG9fZ3l1ZnQ,http://pb.xyz.duunion.com/conv?tid=B_26d23096e9cc927d-OTM3Xy0xMTg0NjQwOC00MDAwLTMyMDAtMDUxNy0taHVfcG9fZ3l1ZnQ&adv_sectkn=55dea06a643eb8a2d267a735fe2683bd&adv_name=appier-api&payout=4.0,idfa_92E16882-6CAC-4751-BB0F-DBF31C9BB0EB,ja
8rHwn3WUTN-oJ9J2NTxAMg,doglobal_api,937_hu_po_gyuft,install,4.0,133.236.59.231,8F28A3F5-1C26-4670-A18B-02A7172ABCFD,1558058994,2019-05-17 10:09:54,1558059085,2019-05-17 10:11:25,1558059116,P_fd84fb516de4a0ca-OTM3Xy0xMTg0NjQwOC00MDAwLTMyMDAtMDUxNy0taHVfcG9fZ3l1ZnQ,http://pb.xyz.duunion.com/conv?tid=P_fd84fb516de4a0ca-OTM3Xy0xMTg0NjQwOC00MDAwLTMyMDAtMDUxNy0taHVfcG9fZ3l1ZnQ&adv_sectkn=55dea06a643eb8a2d267a735fe2683bd&adv_name=appier-api&payout=4.0,idfa_8F28A3F5-1C26-4670-A18B-02A7172ABCFD,ja
8rHwn3WUTN-oJ9J2NTxAMg,doglobal_api,937_hu_po_gyuft,install,4.0,126.72.73.115,787F2B89-C164-4E78-8319-01A5D9DCFFAC,1558059237,2019-05-17 10:13:57,1558059535,2019-05-17 10:18:55,1558059566,P_4640c6d595acebf3-OTM3Xy0xMTg0NjQwOC00MDAwLTMyMDAtMDUxNy0taHVfcG9fZ3l1ZnQ,http://pb.xyz.duunion.com/conv?tid=P_4640c6d595acebf3-OTM3Xy0xMTg0NjQwOC00MDAwLTMyMDAtMDUxNy0taHVfcG9fZ3l1ZnQ&adv_sectkn=55dea06a643eb8a2d267a735fe2683bd&adv_name=appier-api&payout=4.0,idfa_787F2B89-C164-4E78-8319-01A5D9DCFFAC,ja
8rHwn3WUTN-oJ9J2NTxAMg,doglobal_api,937_hu_po_gyuft,install,4.5,180.6.183.67,51DA8AE6-CDA2-4F94-BC17-865530FE374E,1557973423,2019-05-16 10:23:43,1557973529,2019-05-16 10:25:29,1557973678,P_b37394cf2d9b7063-OTM3Xy0xMTg0NjQwOC00NTAwLTM2MDAtMDUxNi0taHVfcG9fZ3l1ZnQ,http://pb.xyz.duunion.com/conv?tid=P_b37394cf2d9b7063-OTM3Xy0xMTg0NjQwOC00NTAwLTM2MDAtMDUxNi0taHVfcG9fZ3l1ZnQ&adv_sectkn=55dea06a643eb8a2d267a735fe2683bd&adv_name=appier-api&payout=4.5,idfa_51DA8AE6-CDA2-4F94-BC17-865530FE374E,ja
8rHwn3WUTN-oJ9J2NTxAMg,doglobal_api,937_hu_po_gyuft,install,4.0,111.239.174.86,3268F4F8-DDA9-4BC1-B10A-AC4E2FA3902A,1558055135,2019-05-17 09:05:35,1558055218,2019-05-17 09:06:58,1558055248,B_4026b49d5ea766cb-OTM3Xy0xMTg0NjQwOC00MDAwLTMyMDAtMDUxNy0taHVfcG9fZ3l1ZnQ,http://pb.xyz.duunion.com/conv?tid=B_4026b49d5ea766cb-OTM3Xy0xMTg0NjQwOC00MDAwLTMyMDAtMDUxNy0taHVfcG9fZ3l1ZnQ&adv_sectkn=55dea06a643eb8a2d267a735fe2683bd&adv_name=appier-api&payout=4.0,idfa_3268F4F8-DDA9-4BC1-B10A-AC4E2FA3902A,ja
8rHwn3WUTN-oJ9J2NTxAMg,doglobal_api,937_hu_po_gyuft,install,4.0,60.114.107.120,3831D773-8A1A-4605-B1ED-3B24F6966753,1558053452,2019-05-17 08:37:32,1558053722,2019-05-17 08:42:02,1558053752,P_a5191ee13896fe52-OTM3Xy0xMTg0NjQwOC00MDAwLTMyMDAtMDUxNy0taHVfcG9fZ3l1ZnQ,http://pb.xyz.duunion.com/conv?tid=P_a5191ee13896fe52-OTM3Xy0xMTg0NjQwOC00MDAwLTMyMDAtMDUxNy0taHVfcG9fZ3l1ZnQ&adv_sectkn=55dea06a643eb8a2d267a735fe2683bd&adv_name=appier-api&payout=4.0,idfa_3831D773-8A1A-4605-B1ED-3B24F6966753,ja
8rHwn3WUTN-oJ9J2NTxAMg,doglobal_api,937_hu_po_gyuft,install,4.0,153.254.193.55,033854CE-296B-40E5-8EFA-5EC3D465A776,1558056037,2019-05-17 09:20:37,1558056123,2019-05-17 09:22:03,1558056153,B_f01094d6e84c7f00-OTM3Xy0xMTg0NjQwOC00MDAwLTMyMDAtMDUxNy0taHVfcG9fZ3l1ZnQ,http://pb.xyz.duunion.com/conv?tid=B_f01094d6e84c7f00-OTM3Xy0xMTg0NjQwOC00MDAwLTMyMDAtMDUxNy0taHVfcG9fZ3l1ZnQ&adv_sectkn=55dea06a643eb8a2d267a735fe2683bd&adv_name=appier-api&payout=4.0,idfa_033854CE-296B-40E5-8EFA-5EC3D465A776,ja
8rHwn3WUTN-oJ9J2NTxAMg,doglobal_api,937_hu_po_gyuft,install,4.0,126.241.52.199,AACE20BB-0292-4E56-B6CB-EFFD7E898C3B,1558055681,2019-05-17 09:14:41,1558055786,2019-05-17 09:16:26,1558055817,B_89b5974741020279-OTM3Xy0xMTg0NjQwOC00MDAwLTMyMDAtMDUxNy0taHVfcG9fZ3l1ZnQ,http://pb.xyz.duunion.com/conv?tid=B_89b5974741020279-OTM3Xy0xMTg0NjQwOC00MDAwLTMyMDAtMDUxNy0taHVfcG9fZ3l1ZnQ&adv_sectkn=55dea06a643eb8a2d267a735fe2683bd&adv_name=appier-api&payout=4.0,idfa_AACE20BB-0292-4E56-B6CB-EFFD7E898C3B,ja
8rHwn3WUTN-oJ9J2NTxAMg,doglobal_api,937_hu_po_gyuft,install,4.5,203.140.124.121,1C60A604-17B3-4E22-9BFA-ACCDDFD6A035,1557972840,2019-05-16 10:14:00,1557972955,2019-05-16 10:15:55,1557972985,B_b8e9bea68021c9cf-OTM3Xy0xMTg0NjQwOC00NTAwLTM2MDAtMDUxNi0taHVfcG9fZ3l1ZnQ,http://pb.xyz.duunion.com/conv?tid=B_b8e9bea68021c9cf-OTM3Xy0xMTg0NjQwOC00NTAwLTM2MDAtMDUxNi0taHVfcG9fZ3l1ZnQ&adv_sectkn=55dea06a643eb8a2d267a735fe2683bd&adv_name=appier-api&payout=4.5,idfa_1C60A604-17B3-4E22-9BFA-ACCDDFD6A035,ja
8rHwn3WUTN-oJ9J2NTxAMg,doglobal_api,937_hu_po_gyuft,install,4.5,180.4.92.125,FF0CD25B-32FA-4428-ABCB-475B2AC932F7,1557975076,2019-05-16 10:51:16,1557975164,2019-05-16 10:52:44,1557975194,B_7f976d57aa6bcd0e-OTM3Xy0xMTg0NjQwOC00NTAwLTM2MDAtMDUxNi0taHVfcG9fZ3l1ZnQ,http://pb.xyz.duunion.com/conv?tid=B_7f976d57aa6bcd0e-OTM3Xy0xMTg0NjQwOC00NTAwLTM2MDAtMDUxNi0taHVfcG9fZ3l1ZnQ&adv_sectkn=55dea06a643eb8a2d267a735fe2683bd&adv_name=appier-api&payout=4.5,idfa_FF0CD25B-32FA-4428-ABCB-475B2AC932F7,ja
8rHwn3WUTN-oJ9J2NTxAMg,doglobal_api,937_hu_po_gyuft,install,4.0,14.10.113.128,865403A2-E8D1-4897-BA6F-F461289ABCD5,1558059785,2019-05-17 10:23:05,1558059870,2019-05-17 10:24:30,1558059900,P_385e34db084e5070-OTM3Xy0xMTg0NjQwOC00MDAwLTMyMDAtMDUxNy0taHVfcG9fZ3l1ZnQ,http://pb.xyz.duunion.com/conv?tid=P_385e34db084e5070-OTM3Xy0xMTg0NjQwOC00MDAwLTMyMDAtMDUxNy0taHVfcG9fZ3l1ZnQ&adv_sectkn=55dea06a643eb8a2d267a735fe2683bd&adv_name=appier-api&payout=4.0,idfa_865403A2-E8D1-4897-BA6F-F461289ABCD5,ja
8rHwn3WUTN-oJ9J2NTxAMg,doglobal_api,937_hu_po_gyuft,install,4.0,122.249.173.138,910365A3-D4BD-4987-818F-C04DA6444E23,1558059027,2019-05-17 10:10:27,1558059110,2019-05-17 10:11:50,1558059140,P_4853b6afa52d8ee1-OTM3Xy0xMTg0NjQwOC00MDAwLTMyMDAtMDUxNy0taHVfcG9fZ3l1ZnQ,http://pb.xyz.duunion.com/conv?tid=P_4853b6afa52d8ee1-OTM3Xy0xMTg0NjQwOC00MDAwLTMyMDAtMDUxNy0taHVfcG9fZ3l1ZnQ&adv_sectkn=55dea06a643eb8a2d267a735fe2683bd&adv_name=appier-api&payout=4.0,idfa_910365A3-D4BD-4987-818F-C04DA6444E23,ja
8rHwn3WUTN-oJ9J2NTxAMg,doglobal_api,937_hu_po_gyuft,install,4.5,61.192.11.66,82B22A3E-7582-4DDE-9EC5-6CB4F2970879,1557977632,2019-05-16 11:33:52,1557977749,2019-05-16 11:35:49,1557977779,P_3776e2a8225611f8-OTM3Xy0xMTg0NjQwOC00NTAwLTM2MDAtMDUxNi0taHVfcG9fZ3l1ZnQ,http://pb.xyz.duunion.com/conv?tid=P_3776e2a8225611f8-OTM3Xy0xMTg0NjQwOC00NTAwLTM2MDAtMDUxNi0taHVfcG9fZ3l1ZnQ&adv_sectkn=55dea06a643eb8a2d267a735fe2683bd&adv_name=appier-api&payout=4.5,idfa_82B22A3E-7582-4DDE-9EC5-6CB4F2970879,ja
8rHwn3WUTN-oJ9J2NTxAMg,doglobal_api,937_hu_po_gyuft,install,4.0,36.2.6.56,61BD5C94-66F1-4C17-83A5-5826E30F5EB0,1558059418,2019-05-17 10:16:58,1558059501,2019-05-17 10:18:21,1558059531,P_17ab04a6ea24cf90-OTM3Xy0xMTg0NjQwOC00MDAwLTMyMDAtMDUxNy0taHVfcG9fZ3l1ZnQ,http://pb.xyz.duunion.com/conv?tid=P_17ab04a6ea24cf90-OTM3Xy0xMTg0NjQwOC00MDAwLTMyMDAtMDUxNy0taHVfcG9fZ3l1ZnQ&adv_sectkn=55dea06a643eb8a2d267a735fe2683bd&adv_name=appier-api&payout=4.0,idfa_61BD5C94-66F1-4C17-83A5-5826E30F5EB0,ja
8rHwn3WUTN-oJ9J2NTxAMg,doglobal_api,937_hu_po_gyuft,install,4.5,58.88.15.204,1DFFCB89-0CDC-4DBB-AE5B-F0AF71C891AB,1557977291,2019-05-16 11:28:11,1557977396,2019-05-16 11:29:56,1557977426,P_cd3651c7e1bd5c2a-OTM3Xy0xMTg0NjQwOC00NTAwLTM2MDAtMDUxNi0taHVfcG9fZ3l1ZnQ,http://pb.xyz.duunion.com/conv?tid=P_cd3651c7e1bd5c2a-OTM3Xy0xMTg0NjQwOC00NTAwLTM2MDAtMDUxNi0taHVfcG9fZ3l1ZnQ&adv_sectkn=55dea06a643eb8a2d267a735fe2683bd&adv_name=appier-api&payout=4.5,idfa_1DFFCB89-0CDC-4DBB-AE5B-F0AF71C891AB,ja
8rHwn3WUTN-oJ9J2NTxAMg,doglobal_api,937_hu_po_gyuft,install,4.0,60.120.152.251,88B546A7-7E4B-4F0D-9ADB-1FBF80D09AB3,1558056424,2019-05-17 09:27:04,1558056508,2019-05-17 09:28:28,1558056538,B_f1061ce8ff80067f-OTM3Xy0xMTg0NjQwOC00MDAwLTMyMDAtMDUxNy0taHVfcG9fZ3l1ZnQ,http://pb.xyz.duunion.com/conv?tid=B_f1061ce8ff80067f-OTM3Xy0xMTg0NjQwOC00MDAwLTMyMDAtMDUxNy0taHVfcG9fZ3l1ZnQ&adv_sectkn=55dea06a643eb8a2d267a735fe2683bd&adv_name=appier-api&payout=4.0,idfa_88B546A7-7E4B-4F0D-9ADB-1FBF80D09AB3,ja
8rHwn3WUTN-oJ9J2NTxAMg,doglobal_api,937_hu_po_gyuft,install,4.5,121.117.25.192,FACD9341-8C35-48D3-A698-50DF3F5B12E4,1557976771,2019-05-16 11:19:31,1557976877,2019-05-16 11:21:17,1557976907,P_dfcb3d370e44d393-OTM3Xy0xMTg0NjQwOC00NTAwLTM2MDAtMDUxNi0taHVfcG9fZ3l1ZnQ,http://pb.xyz.duunion.com/conv?tid=P_dfcb3d370e44d393-OTM3Xy0xMTg0NjQwOC00NTAwLTM2MDAtMDUxNi0taHVfcG9fZ3l1ZnQ&adv_sectkn=55dea06a643eb8a2d267a735fe2683bd&adv_name=appier-api&payout=4.5,idfa_FACD9341-8C35-48D3-A698-50DF3F5B12E4,ja
8rHwn3WUTN-oJ9J2NTxAMg,doglobal_api,937_hu_po_gyuft,install,4.5,27.0.24.233,530CD679-D831-4771-A9D7-FB8F5641CE4A,1557977165,2019-05-16 11:26:05,1557977294,2019-05-16 11:28:14,1557977325,P_0ab0023c06e86a88-OTM3Xy0xMTg0NjQwOC00NTAwLTM2MDAtMDUxNi0taHVfcG9fZ3l1ZnQ,http://pb.xyz.duunion.com/conv?tid=P_0ab0023c06e86a88-OTM3Xy0xMTg0NjQwOC00NTAwLTM2MDAtMDUxNi0taHVfcG9fZ3l1ZnQ&adv_sectkn=55dea06a643eb8a2d267a735fe2683bd&adv_name=appier-api&payout=4.5,idfa_530CD679-D831-4771-A9D7-FB8F5641CE4A,ja
8rHwn3WUTN-oJ9J2NTxAMg,doglobal_api,937_hu_po_gyuft,install,4.5,36.2.232.13,C0F73179-A63F-43D3-A859-E381AF44E918,1557974490,2019-05-16 10:41:30,1557974650,2019-05-16 10:44:10,1557974680,P_7affc0f1a226e6f6-OTM3Xy0xMTg0NjQwOC00NTAwLTM2MDAtMDUxNi0taHVfcG9fZ3l1ZnQ,http://pb.xyz.duunion.com/conv?tid=P_7affc0f1a226e6f6-OTM3Xy0xMTg0NjQwOC00NTAwLTM2MDAtMDUxNi0taHVfcG9fZ3l1ZnQ&adv_sectkn=55dea06a643eb8a2d267a735fe2683bd&adv_name=appier-api&payout=4.5,idfa_C0F73179-A63F-43D3-A859-E381AF44E918,ja
8rHwn3WUTN-oJ9J2NTxAMg,doglobal_api,937_hu_po_gyuft,install,4.0,180.199.76.34,A649031D-190F-43C4-B467-CBC1197F1C6F,1558056025,2019-05-17 09:20:25,1558056134,2019-05-17 09:22:14,1558056164,P_0dd9a9ca32a01060-OTM3Xy0xMTg0NjQwOC00MDAwLTMyMDAtMDUxNy0taHVfcG9fZ3l1ZnQ,http://pb.xyz.duunion.com/conv?tid=P_0dd9a9ca32a01060-OTM3Xy0xMTg0NjQwOC00MDAwLTMyMDAtMDUxNy0taHVfcG9fZ3l1ZnQ&adv_sectkn=55dea06a643eb8a2d267a735fe2683bd&adv_name=appier-api&payout=4.0,idfa_A649031D-190F-43C4-B467-CBC1197F1C6F,ja
8rHwn3WUTN-oJ9J2NTxAMg,doglobal_api,937_hu_po_gyuft,install,4.0,42.147.176.215,E7CC0FE1-EAEE-4182-AED8-119A7DA9BE8E,1558054773,2019-05-17 08:59:33,1558055032,2019-05-17 09:03:52,1558055062,P_eeafaa8671b58998-OTM3Xy0xMTg0NjQwOC00MDAwLTMyMDAtMDUxNy0taHVfcG9fZ3l1ZnQ,http://pb.xyz.duunion.com/conv?tid=P_eeafaa8671b58998-OTM3Xy0xMTg0NjQwOC00MDAwLTMyMDAtMDUxNy0taHVfcG9fZ3l1ZnQ&adv_sectkn=55dea06a643eb8a2d267a735fe2683bd&adv_name=appier-api&payout=4.0,idfa_E7CC0FE1-EAEE-4182-AED8-119A7DA9BE8E,ja
8rHwn3WUTN-oJ9J2NTxAMg,doglobal_api,937_hu_po_gyuft,install,4.0,126.26.162.187,A67F9257-53A8-4E25-80A0-82CE636C116C,1558051906,2019-05-17 08:11:46,1558052026,2019-05-17 08:13:46,1558052056,B_6e6a9cb7eff4bcca-OTM3Xy0xMTg0NjQwOC00MDAwLTMyMDAtMDUxNy0taHVfcG9fZ3l1ZnQ,http://pb.xyz.duunion.com/conv?tid=B_6e6a9cb7eff4bcca-OTM3Xy0xMTg0NjQwOC00MDAwLTMyMDAtMDUxNy0taHVfcG9fZ3l1ZnQ&adv_sectkn=55dea06a643eb8a2d267a735fe2683bd&adv_name=appier-api&payout=4.0,idfa_A67F9257-53A8-4E25-80A0-82CE636C116C,ja
8rHwn3WUTN-oJ9J2NTxAMg,doglobal_api,937_hu_po_gyuft,install,4.0,60.71.167.72,6B1B86FE-75DA-4FA2-B8E1-3D05F8C0D39D,1558055639,2019-05-17 09:13:59,1558055726,2019-05-17 09:15:26,1558055756,B_dc0e2d5d79fef032-OTM3Xy0xMTg0NjQwOC00MDAwLTMyMDAtMDUxNy0taHVfcG9fZ3l1ZnQ,http://pb.xyz.duunion.com/conv?tid=B_dc0e2d5d79fef032-OTM3Xy0xMTg0NjQwOC00MDAwLTMyMDAtMDUxNy0taHVfcG9fZ3l1ZnQ&adv_sectkn=55dea06a643eb8a2d267a735fe2683bd&adv_name=appier-api&payout=4.0,idfa_6B1B86FE-75DA-4FA2-B8E1-3D05F8C0D39D,ja
8rHwn3WUTN-oJ9J2NTxAMg,doglobal_api,937_hu_po_gyuft,install,4.0,180.131.244.19,2AB05B55-A1E7-43FB-8953-EFD125379A01,1558056514,2019-05-17 09:28:34,1558056775,2019-05-17 09:32:55,1558056805,P_2d8106d9758d1f43-OTM3Xy0xMTg0NjQwOC00MDAwLTMyMDAtMDUxNy0taHVfcG9fZ3l1ZnQ,http://pb.xyz.duunion.com/conv?tid=P_2d8106d9758d1f43-OTM3Xy0xMTg0NjQwOC00MDAwLTMyMDAtMDUxNy0taHVfcG9fZ3l1ZnQ&adv_sectkn=55dea06a643eb8a2d267a735fe2683bd&adv_name=appier-api&payout=4.0,idfa_2AB05B55-A1E7-43FB-8953-EFD125379A01,ja
8rHwn3WUTN-oJ9J2NTxAMg,doglobal_api,937_hu_po_gyuft,install,4.0,163.44.33.48,C189B548-8F11-4526-81A1-5362C8687BFE,1558059835,2019-05-17 10:23:55,1558060042,2019-05-17 10:27:22,1558060169,B_1e06505436b8f6e9-OTM3Xy0xMTg0NjQwOC00MDAwLTMyMDAtMDUxNy0taHVfcG9fZ3l1ZnQ,http://pb.xyz.duunion.com/conv?tid=B_1e06505436b8f6e9-OTM3Xy0xMTg0NjQwOC00MDAwLTMyMDAtMDUxNy0taHVfcG9fZ3l1ZnQ&adv_sectkn=55dea06a643eb8a2d267a735fe2683bd&adv_name=appier-api&payout=4.0,idfa_C189B548-8F11-4526-81A1-5362C8687BFE,ja
8rHwn3WUTN-oJ9J2NTxAMg,doglobal_api,937_hu_po_gyuft,install,4.0,180.199.76.34,AAFA1B00-9F11-4D29-9EF6-A41AACC98852,1558055330,2019-05-17 09:08:50,1558055619,2019-05-17 09:13:39,1558055650,P_052e6aba120eaea4-OTM3Xy0xMTg0NjQwOC00MDAwLTMyMDAtMDUxNy0taHVfcG9fZ3l1ZnQ,http://pb.xyz.duunion.com/conv?tid=P_052e6aba120eaea4-OTM3Xy0xMTg0NjQwOC00MDAwLTMyMDAtMDUxNy0taHVfcG9fZ3l1ZnQ&adv_sectkn=55dea06a643eb8a2d267a735fe2683bd&adv_name=appier-api&payout=4.0,idfa_AAFA1B00-9F11-4D29-9EF6-A41AACC98852,ja
8rHwn3WUTN-oJ9J2NTxAMg,doglobal_api,937_hu_po_gyuft,install,4.0,58.98.126.136,CD5FD74A-B089-41A0-B946-1F84D01388A3,1558058904,2019-05-17 10:08:24,1558059177,2019-05-17 10:12:57,1558059208,P_371ab650f386c40a-OTM3Xy0xMTg0NjQwOC00MDAwLTMyMDAtMDUxNy0taHVfcG9fZ3l1ZnQ,http://pb.xyz.duunion.com/conv?tid=P_371ab650f386c40a-OTM3Xy0xMTg0NjQwOC00MDAwLTMyMDAtMDUxNy0taHVfcG9fZ3l1ZnQ&adv_sectkn=55dea06a643eb8a2d267a735fe2683bd&adv_name=appier-api&payout=4.0,idfa_CD5FD74A-B089-41A0-B946-1F84D01388A3,ja
8rHwn3WUTN-oJ9J2NTxAMg,doglobal_api,937_hu_po_gyuft,install,4.5,60.121.107.75,8D4ED5BF-6AD8-49D4-8956-8B52F2CA380D,1557976527,2019-05-16 11:15:27,1557976613,2019-05-16 11:16:53,1557976643,P_b2383ac389935b6d-OTM3Xy0xMTg0NjQwOC00NTAwLTM2MDAtMDUxNi0taHVfcG9fZ3l1ZnQ,http://pb.xyz.duunion.com/conv?tid=P_b2383ac389935b6d-OTM3Xy0xMTg0NjQwOC00NTAwLTM2MDAtMDUxNi0taHVfcG9fZ3l1ZnQ&adv_sectkn=55dea06a643eb8a2d267a735fe2683bd&adv_name=appier-api&payout=4.5,idfa_8D4ED5BF-6AD8-49D4-8956-8B52F2CA380D,ja
8rHwn3WUTN-oJ9J2NTxAMg,doglobal_api,937_hu_po_gyuft,install,4.0,27.0.24.227,97DA2B70-463F-4396-9701-A66FCE9E64E8,1558063047,2019-05-17 11:17:27,1558063132,2019-05-17 11:18:52,1558063162,P_453af93e5091bf08-OTM3Xy0xMTg0NjQwOC00MDAwLTMyMDAtMDUxNy0taHVfcG9fZ3l1ZnQ,http://pb.xyz.duunion.com/conv?tid=P_453af93e5091bf08-OTM3Xy0xMTg0NjQwOC00MDAwLTMyMDAtMDUxNy0taHVfcG9fZ3l1ZnQ&adv_sectkn=55dea06a643eb8a2d267a735fe2683bd&adv_name=appier-api&payout=4.0,idfa_97DA2B70-463F-4396-9701-A66FCE9E64E8,ja
8rHwn3WUTN-oJ9J2NTxAMg,doglobal_api,937_hu_po_gyuft,install,4.5,211.135.221.193,AA458DC6-00E4-4CE9-88C5-A5982A74D5D0,1557974346,2019-05-16 10:39:06,1557974436,2019-05-16 10:40:36,1557974466,P_2ac9e7987abe1ed8-OTM3Xy0xMTg0NjQwOC00NTAwLTM2MDAtMDUxNi0taHVfcG9fZ3l1ZnQ,http://pb.xyz.duunion.com/conv?tid=P_2ac9e7987abe1ed8-OTM3Xy0xMTg0NjQwOC00NTAwLTM2MDAtMDUxNi0taHVfcG9fZ3l1ZnQ&adv_sectkn=55dea06a643eb8a2d267a735fe2683bd&adv_name=appier-api&payout=4.5,idfa_AA458DC6-00E4-4CE9-88C5-A5982A74D5D0,ja
8rHwn3WUTN-oJ9J2NTxAMg,doglobal_api,937_hu_po_gyuft,install,4.0,203.205.124.52,3DD64BDC-DC85-4E23-B067-1F921D2CB521,1558054542,2019-05-17 08:55:42,1558054635,2019-05-17 08:57:15,1558054665,P_528fb71a0316ed0d-OTM3Xy0xMTg0NjQwOC00MDAwLTMyMDAtMDUxNy0taHVfcG9fZ3l1ZnQ,http://pb.xyz.duunion.com/conv?tid=P_528fb71a0316ed0d-OTM3Xy0xMTg0NjQwOC00MDAwLTMyMDAtMDUxNy0taHVfcG9fZ3l1ZnQ&adv_sectkn=55dea06a643eb8a2d267a735fe2683bd&adv_name=appier-api&payout=4.0,idfa_3DD64BDC-DC85-4E23-B067-1F921D2CB521,ja
8rHwn3WUTN-oJ9J2NTxAMg,doglobal_api,937_hu_po_gyuft,install,4.0,106.163.65.77,84C52720-A251-4AFF-B7A3-0AEFEDF38AD9,1558057295,2019-05-17 09:41:35,1558057388,2019-05-17 09:43:08,1558057419,P_b338cba9da0142d1-OTM3Xy0xMTg0NjQwOC00MDAwLTMyMDAtMDUxNy0taHVfcG9fZ3l1ZnQ,http://pb.xyz.duunion.com/conv?tid=P_b338cba9da0142d1-OTM3Xy0xMTg0NjQwOC00MDAwLTMyMDAtMDUxNy0taHVfcG9fZ3l1ZnQ&adv_sectkn=55dea06a643eb8a2d267a735fe2683bd&adv_name=appier-api&payout=4.0,idfa_84C52720-A251-4AFF-B7A3-0AEFEDF38AD9,ja
8rHwn3WUTN-oJ9J2NTxAMg,doglobal_api,937_hu_po_gyuft,install,4.5,220.215.255.70,76EFF4E6-EC35-474E-BAE3-E44689718B0E,1557978369,2019-05-16 11:46:09,1557978458,2019-05-16 11:47:38,1557978488,P_66d7e39370c6acf5-OTM3Xy0xMTg0NjQwOC00NTAwLTM2MDAtMDUxNi0taHVfcG9fZ3l1ZnQ,http://pb.xyz.duunion.com/conv?tid=P_66d7e39370c6acf5-OTM3Xy0xMTg0NjQwOC00NTAwLTM2MDAtMDUxNi0taHVfcG9fZ3l1ZnQ&adv_sectkn=55dea06a643eb8a2d267a735fe2683bd&adv_name=appier-api&payout=4.5,idfa_76EFF4E6-EC35-474E-BAE3-E44689718B0E,ja
8rHwn3WUTN-oJ9J2NTxAMg,doglobal_api,937_hu_po_gyuft,install,4.0,122.30.174.166,4A213C56-2F96-41FD-BFD2-2F33508EB477,1558055342,2019-05-17 09:09:02,1558055571,2019-05-17 09:12:51,1558055601,P_cb87e54eea7bec22-OTM3Xy0xMTg0NjQwOC00MDAwLTMyMDAtMDUxNy0taHVfcG9fZ3l1ZnQ,http://pb.xyz.duunion.com/conv?tid=P_cb87e54eea7bec22-OTM3Xy0xMTg0NjQwOC00MDAwLTMyMDAtMDUxNy0taHVfcG9fZ3l1ZnQ&adv_sectkn=55dea06a643eb8a2d267a735fe2683bd&adv_name=appier-api&payout=4.0,idfa_4A213C56-2F96-41FD-BFD2-2F33508EB477,ja
8rHwn3WUTN-oJ9J2NTxAMg,doglobal_api,937_hu_po_gyuft,install,4.0,153.182.4.6,4E3AE063-50C6-4DA3-B92B-1CB91713FBFF,1558055960,2019-05-17 09:19:20,1558056216,2019-05-17 09:23:36,1558056246,B_0138f09c4fd2ae7f-OTM3Xy0xMTg0NjQwOC00MDAwLTMyMDAtMDUxNy0taHVfcG9fZ3l1ZnQ,http://pb.xyz.duunion.com/conv?tid=B_0138f09c4fd2ae7f-OTM3Xy0xMTg0NjQwOC00MDAwLTMyMDAtMDUxNy0taHVfcG9fZ3l1ZnQ&adv_sectkn=55dea06a643eb8a2d267a735fe2683bd&adv_name=appier-api&payout=4.0,idfa_4E3AE063-50C6-4DA3-B92B-1CB91713FBFF,ja
8rHwn3WUTN-oJ9J2NTxAMg,doglobal_api,937_hu_po_gyuft,install,4.0,180.39.254.153,84477D74-0C92-43A5-ABF2-A754EE79E331,1558058365,2019-05-17 09:59:25,1558058600,2019-05-17 10:03:20,1558058630,P_8c19a7719db4bfc9-OTM3Xy0xMTg0NjQwOC00MDAwLTMyMDAtMDUxNy0taHVfcG9fZ3l1ZnQ,http://pb.xyz.duunion.com/conv?tid=P_8c19a7719db4bfc9-OTM3Xy0xMTg0NjQwOC00MDAwLTMyMDAtMDUxNy0taHVfcG9fZ3l1ZnQ&adv_sectkn=55dea06a643eb8a2d267a735fe2683bd&adv_name=appier-api&payout=4.0,idfa_84477D74-0C92-43A5-ABF2-A754EE79E331,ja
8rHwn3WUTN-oJ9J2NTxAMg,doglobal_api,937_hu_po_gyuft,install,4.5,125.101.133.142,2D5E50E5-7F74-4155-9511-47F45F665708,1557973725,2019-05-16 10:28:45,1557973840,2019-05-16 10:30:40,1557973870,P_baeda54790a0898a-OTM3Xy0xMTg0NjQwOC00NTAwLTM2MDAtMDUxNi0taHVfcG9fZ3l1ZnQ,http://pb.xyz.duunion.com/conv?tid=P_baeda54790a0898a-OTM3Xy0xMTg0NjQwOC00NTAwLTM2MDAtMDUxNi0taHVfcG9fZ3l1ZnQ&adv_sectkn=55dea06a643eb8a2d267a735fe2683bd&adv_name=appier-api&payout=4.5,idfa_2D5E50E5-7F74-4155-9511-47F45F665708,ja
8rHwn3WUTN-oJ9J2NTxAMg,doglobal_api,937_hu_po_gyuft,install,4.5,133.202.29.247,6956A6A0-CDAF-4319-BB7E-E4726F2BF2E5,1557976043,2019-05-16 11:07:23,1557976135,2019-05-16 11:08:55,1557976165,B_7008b80d3a837353-OTM3Xy0xMTg0NjQwOC00NTAwLTM2MDAtMDUxNi0taHVfcG9fZ3l1ZnQ,http://pb.xyz.duunion.com/conv?tid=B_7008b80d3a837353-OTM3Xy0xMTg0NjQwOC00NTAwLTM2MDAtMDUxNi0taHVfcG9fZ3l1ZnQ&adv_sectkn=55dea06a643eb8a2d267a735fe2683bd&adv_name=appier-api&payout=4.5,idfa_6956A6A0-CDAF-4319-BB7E-E4726F2BF2E5,ja
8rHwn3WUTN-oJ9J2NTxAMg,doglobal_api,937_hu_po_gyuft,install,4.5,153.135.228.37,58C7B44D-0E9B-4BC4-BAE4-C7A08FBD004D,1557973450,2019-05-16 10:24:10,1557973566,2019-05-16 10:26:06,1557973696,P_6a622530a4e59af3-OTM3Xy0xMTg0NjQwOC00NTAwLTM2MDAtMDUxNi0taHVfcG9fZ3l1ZnQ,http://pb.xyz.duunion.com/conv?tid=P_6a622530a4e59af3-OTM3Xy0xMTg0NjQwOC00NTAwLTM2MDAtMDUxNi0taHVfcG9fZ3l1ZnQ&adv_sectkn=55dea06a643eb8a2d267a735fe2683bd&adv_name=appier-api&payout=4.5,idfa_58C7B44D-0E9B-4BC4-BAE4-C7A08FBD004D,ja
8rHwn3WUTN-oJ9J2NTxAMg,doglobal_api,937_hu_po_gyuft,install,4.0,219.117.196.28,B3EA4301-671E-4BC8-A9C8-B9BED8BF1A68,1558052157,2019-05-17 08:15:57,1558052425,2019-05-17 08:20:25,1558052455,P_ccf68c119c768b2f-OTM3Xy0xMTg0NjQwOC00MDAwLTMyMDAtMDUxNy0taHVfcG9fZ3l1ZnQ,http://pb.xyz.duunion.com/conv?tid=P_ccf68c119c768b2f-OTM3Xy0xMTg0NjQwOC00MDAwLTMyMDAtMDUxNy0taHVfcG9fZ3l1ZnQ&adv_sectkn=55dea06a643eb8a2d267a735fe2683bd&adv_name=appier-api&payout=4.0,idfa_B3EA4301-671E-4BC8-A9C8-B9BED8BF1A68,ja
8rHwn3WUTN-oJ9J2NTxAMg,doglobal_api,937_hu_po_gyuft,install,4.5,27.92.48.134,B5A2EB7F-1F88-43E2-A9D6-06904370ED71,1557977598,2019-05-16 11:33:18,1557977722,2019-05-16 11:35:22,1557977752,B_1548bece447e0ce2-OTM3Xy0xMTg0NjQwOC00NTAwLTM2MDAtMDUxNi0taHVfcG9fZ3l1ZnQ,http://pb.xyz.duunion.com/conv?tid=B_1548bece447e0ce2-OTM3Xy0xMTg0NjQwOC00NTAwLTM2MDAtMDUxNi0taHVfcG9fZ3l1ZnQ&adv_sectkn=55dea06a643eb8a2d267a735fe2683bd&adv_name=appier-api&payout=4.5,idfa_B5A2EB7F-1F88-43E2-A9D6-06904370ED71,ja
8rHwn3WUTN-oJ9J2NTxAMg,doglobal_api,937_hu_po_gyuft,install,4.0,59.166.136.57,72205B4F-5E03-49CC-91E7-34BB026657B6,1558052495,2019-05-17 08:21:35,1558052613,2019-05-17 08:23:33,1558052643,P_695ba33518bce76c-OTM3Xy0xMTg0NjQwOC00MDAwLTMyMDAtMDUxNy0taHVfcG9fZ3l1ZnQ,http://pb.xyz.duunion.com/conv?tid=P_695ba33518bce76c-OTM3Xy0xMTg0NjQwOC00MDAwLTMyMDAtMDUxNy0taHVfcG9fZ3l1ZnQ&adv_sectkn=55dea06a643eb8a2d267a735fe2683bd&adv_name=appier-api&payout=4.0,idfa_72205B4F-5E03-49CC-91E7-34BB026657B6,ja
8rHwn3WUTN-oJ9J2NTxAMg,doglobal_api,937_hu_po_gyuft,install,4.0,133.207.45.96,8A146684-D0BE-40E0-8DA4-C731DE1CCAAE,1558054037,2019-05-17 08:47:17,1558054151,2019-05-17 08:49:11,1558054181,P_d02e2fc9970d8484-OTM3Xy0xMTg0NjQwOC00MDAwLTMyMDAtMDUxNy0taHVfcG9fZ3l1ZnQ,http://pb.xyz.duunion.com/conv?tid=P_d02e2fc9970d8484-OTM3Xy0xMTg0NjQwOC00MDAwLTMyMDAtMDUxNy0taHVfcG9fZ3l1ZnQ&adv_sectkn=55dea06a643eb8a2d267a735fe2683bd&adv_name=appier-api&payout=4.0,idfa_8A146684-D0BE-40E0-8DA4-C731DE1CCAAE,ja
8rHwn3WUTN-oJ9J2NTxAMg,doglobal_api,937_hu_po_gyuft,install,4.0,203.205.119.156,2D0B3328-A02D-4534-B0D9-33CEC37FD485,1558063006,2019-05-17 11:16:46,1558063118,2019-05-17 11:18:38,1558063148,P_bd77dd8e604b7d44-OTM3Xy0xMTg0NjQwOC00MDAwLTMyMDAtMDUxNy0taHVfcG9fZ3l1ZnQ,http://pb.xyz.duunion.com/conv?tid=P_bd77dd8e604b7d44-OTM3Xy0xMTg0NjQwOC00MDAwLTMyMDAtMDUxNy0taHVfcG9fZ3l1ZnQ&adv_sectkn=55dea06a643eb8a2d267a735fe2683bd&adv_name=appier-api&payout=4.0,idfa_2D0B3328-A02D-4534-B0D9-33CEC37FD485,ja
8rHwn3WUTN-oJ9J2NTxAMg,doglobal_api,937_hu_po_gyuft,install,4.0,131.147.94.65,49EF6428-2A89-4215-BA1A-E77BFDCD1000,1558060110,2019-05-17 10:28:30,1558060216,2019-05-17 10:30:16,1558060247,B_5dc8ac8b18444395-OTM3Xy0xMTg0NjQwOC00MDAwLTMyMDAtMDUxNy0taHVfcG9fZ3l1ZnQ,http://pb.xyz.duunion.com/conv?tid=B_5dc8ac8b18444395-OTM3Xy0xMTg0NjQwOC00MDAwLTMyMDAtMDUxNy0taHVfcG9fZ3l1ZnQ&adv_sectkn=55dea06a643eb8a2d267a735fe2683bd&adv_name=appier-api&payout=4.0,idfa_49EF6428-2A89-4215-BA1A-E77BFDCD1000,ja
8rHwn3WUTN-oJ9J2NTxAMg,doglobal_api,937_hu_po_gyuft,install,4.0,121.83.21.149,0E3945AE-B076-489D-9DF9-082A2CD6DABF,1558057158,2019-05-17 09:39:18,1558057238,2019-05-17 09:40:38,1558057268,B_a9d6ed076d49b300-OTM3Xy0xMTg0NjQwOC00MDAwLTMyMDAtMDUxNy0taHVfcG9fZ3l1ZnQ,http://pb.xyz.duunion.com/conv?tid=B_a9d6ed076d49b300-OTM3Xy0xMTg0NjQwOC00MDAwLTMyMDAtMDUxNy0taHVfcG9fZ3l1ZnQ&adv_sectkn=55dea06a643eb8a2d267a735fe2683bd&adv_name=appier-api&payout=4.0,idfa_0E3945AE-B076-489D-9DF9-082A2CD6DABF,ja
8rHwn3WUTN-oJ9J2NTxAMg,doglobal_api,937_hu_po_gyuft,install,4.5,61.213.184.175,D90ECF89-1897-421B-85EC-546753691E60,1557973720,2019-05-16 10:28:40,1557973814,2019-05-16 10:30:14,1557973964,B_8fe7cbe31a1d3bb0-OTM3Xy0xMTg0NjQwOC00NTAwLTM2MDAtMDUxNi0taHVfcG9fZ3l1ZnQ,http://pb.xyz.duunion.com/conv?tid=B_8fe7cbe31a1d3bb0-OTM3Xy0xMTg0NjQwOC00NTAwLTM2MDAtMDUxNi0taHVfcG9fZ3l1ZnQ&adv_sectkn=55dea06a643eb8a2d267a735fe2683bd&adv_name=appier-api&payout=4.5,idfa_D90ECF89-1897-421B-85EC-546753691E60,ja
8rHwn3WUTN-oJ9J2NTxAMg,doglobal_api,937_hu_po_gyuft,install,4.0,122.26.245.160,F51EFF84-A5A0-4FD4-AD4A-3F6BC3171F3C,1558058648,2019-05-17 10:04:08,1558058733,2019-05-17 10:05:33,1558058763,P_aa3185fd11a8d97f-OTM3Xy0xMTg0NjQwOC00MDAwLTMyMDAtMDUxNy0taHVfcG9fZ3l1ZnQ,http://pb.xyz.duunion.com/conv?tid=P_aa3185fd11a8d97f-OTM3Xy0xMTg0NjQwOC00MDAwLTMyMDAtMDUxNy0taHVfcG9fZ3l1ZnQ&adv_sectkn=55dea06a643eb8a2d267a735fe2683bd&adv_name=appier-api&payout=4.0,idfa_F51EFF84-A5A0-4FD4-AD4A-3F6BC3171F3C,ja
8rHwn3WUTN-oJ9J2NTxAMg,doglobal_api,937_hu_po_gyuft,install,4.0,60.56.155.141,E8FEF1DF-6AB8-4AB8-8CC0-649A5CA9A7D1,1558059438,2019-05-17 10:17:18,1558059564,2019-05-17 10:19:24,1558059594,P_35067cf143232a8b-OTM3Xy0xMTg0NjQwOC00MDAwLTMyMDAtMDUxNy0taHVfcG9fZ3l1ZnQ,http://pb.xyz.duunion.com/conv?tid=P_35067cf143232a8b-OTM3Xy0xMTg0NjQwOC00MDAwLTMyMDAtMDUxNy0taHVfcG9fZ3l1ZnQ&adv_sectkn=55dea06a643eb8a2d267a735fe2683bd&adv_name=appier-api&payout=4.0,idfa_E8FEF1DF-6AB8-4AB8-8CC0-649A5CA9A7D1,ja
8rHwn3WUTN-oJ9J2NTxAMg,doglobal_api,937_hu_po_gyuft,install,4.0,122.18.166.146,5FE31B4E-7567-40CF-8F2B-E390B303D90E,1558058108,2019-05-17 09:55:08,1558058356,2019-05-17 09:59:16,1558058387,P_20950a9d6ce508b0-OTM3Xy0xMTg0NjQwOC00MDAwLTMyMDAtMDUxNy0taHVfcG9fZ3l1ZnQ,http://pb.xyz.duunion.com/conv?tid=P_20950a9d6ce508b0-OTM3Xy0xMTg0NjQwOC00MDAwLTMyMDAtMDUxNy0taHVfcG9fZ3l1ZnQ&adv_sectkn=55dea06a643eb8a2d267a735fe2683bd&adv_name=appier-api&payout=4.0,idfa_5FE31B4E-7567-40CF-8F2B-E390B303D90E,ja
8rHwn3WUTN-oJ9J2NTxAMg,doglobal_api,937_hu_po_gyuft,install,4.0,118.236.165.221,D6D3B02C-AC41-4364-8C30-BBD32F4CF871,1558053006,2019-05-17 08:30:06,1558053229,2019-05-17 08:33:49,1558053259,P_8faa5582602977fd-OTM3Xy0xMTg0NjQwOC00MDAwLTMyMDAtMDUxNy0taHVfcG9fZ3l1ZnQ,http://pb.xyz.duunion.com/conv?tid=P_8faa5582602977fd-OTM3Xy0xMTg0NjQwOC00MDAwLTMyMDAtMDUxNy0taHVfcG9fZ3l1ZnQ&adv_sectkn=55dea06a643eb8a2d267a735fe2683bd&adv_name=appier-api&payout=4.0,idfa_D6D3B02C-AC41-4364-8C30-BBD32F4CF871,ja
8rHwn3WUTN-oJ9J2NTxAMg,doglobal_api,937_hu_po_gyuft,install,4.0,133.203.172.96,ED050A20-1D3C-451F-AA83-F1D804EAE892,1558054012,2019-05-17 08:46:52,1558054245,2019-05-17 08:50:45,1558054275,B_9a10132f10d25cf3-OTM3Xy0xMTg0NjQwOC00MDAwLTMyMDAtMDUxNy0taHVfcG9fZ3l1ZnQ,http://pb.xyz.duunion.com/conv?tid=B_9a10132f10d25cf3-OTM3Xy0xMTg0NjQwOC00MDAwLTMyMDAtMDUxNy0taHVfcG9fZ3l1ZnQ&adv_sectkn=55dea06a643eb8a2d267a735fe2683bd&adv_name=appier-api&payout=4.0,idfa_ED050A20-1D3C-451F-AA83-F1D804EAE892,ja
8rHwn3WUTN-oJ9J2NTxAMg,doglobal_api,937_hu_po_gyuft,install,4.0,60.106.161.20,9B6FF81B-6BE5-43B7-B265-A25059D47989,1558052862,2019-05-17 08:27:42,1558052943,2019-05-17 08:29:03,1558052973,P_c106a645604b10d2-OTM3Xy0xMTg0NjQwOC00MDAwLTMyMDAtMDUxNy0taHVfcG9fZ3l1ZnQ,http://pb.xyz.duunion.com/conv?tid=P_c106a645604b10d2-OTM3Xy0xMTg0NjQwOC00MDAwLTMyMDAtMDUxNy0taHVfcG9fZ3l1ZnQ&adv_sectkn=55dea06a643eb8a2d267a735fe2683bd&adv_name=appier-api&payout=4.0,idfa_9B6FF81B-6BE5-43B7-B265-A25059D47989,ja
8rHwn3WUTN-oJ9J2NTxAMg,doglobal_api,937_hu_po_gyuft,install,4.5,126.72.84.79,C8332510-F016-4365-BFB8-5110285C5DF7,1557973821,2019-05-16 10:30:21,1557973955,2019-05-16 10:32:35,1557973985,P_75655cf8bfe51b90-OTM3Xy0xMTg0NjQwOC00NTAwLTM2MDAtMDUxNi0taHVfcG9fZ3l1ZnQ,http://pb.xyz.duunion.com/conv?tid=P_75655cf8bfe51b90-OTM3Xy0xMTg0NjQwOC00NTAwLTM2MDAtMDUxNi0taHVfcG9fZ3l1ZnQ&adv_sectkn=55dea06a643eb8a2d267a735fe2683bd&adv_name=appier-api&payout=4.5,idfa_C8332510-F016-4365-BFB8-5110285C5DF7,ja
8rHwn3WUTN-oJ9J2NTxAMg,doglobal_api,937_hu_po_gyuft,install,4.5,106.72.150.160,9D65CC72-F93A-4733-96D6-0B1652541E67,1557974026,2019-05-16 10:33:46,1557974130,2019-05-16 10:35:30,1557974160,B_6396efcac4c6b0fa-OTM3Xy0xMTg0NjQwOC00NTAwLTM2MDAtMDUxNi0taHVfcG9fZ3l1ZnQ,http://pb.xyz.duunion.com/conv?tid=B_6396efcac4c6b0fa-OTM3Xy0xMTg0NjQwOC00NTAwLTM2MDAtMDUxNi0taHVfcG9fZ3l1ZnQ&adv_sectkn=55dea06a643eb8a2d267a735fe2683bd&adv_name=appier-api&payout=4.5,idfa_9D65CC72-F93A-4733-96D6-0B1652541E67,ja
8rHwn3WUTN-oJ9J2NTxAMg,doglobal_api,937_hu_po_gyuft,install,4.5,221.22.222.31,796C9335-FDD8-4C20-A6FD-9262943DC8D5,1557974977,2019-05-16 10:49:37,1557975094,2019-05-16 10:51:34,1557975124,P_e6f16c1bfcfee7dd-OTM3Xy0xMTg0NjQwOC00NTAwLTM2MDAtMDUxNi0taHVfcG9fZ3l1ZnQ,http://pb.xyz.duunion.com/conv?tid=P_e6f16c1bfcfee7dd-OTM3Xy0xMTg0NjQwOC00NTAwLTM2MDAtMDUxNi0taHVfcG9fZ3l1ZnQ&adv_sectkn=55dea06a643eb8a2d267a735fe2683bd&adv_name=appier-api&payout=4.5,idfa_796C9335-FDD8-4C20-A6FD-9262943DC8D5,ja
8rHwn3WUTN-oJ9J2NTxAMg,doglobal_api,937_hu_po_gyuft,install,4.5,182.164.35.64,0B66B5C6-D904-4C09-8219-6CB86C0B69DE,1557975641,2019-05-16 11:00:41,1557975732,2019-05-16 11:02:12,1557975762,B_78b65cfb51ed9b8f-OTM3Xy0xMTg0NjQwOC00NTAwLTM2MDAtMDUxNi0taHVfcG9fZ3l1ZnQ,http://pb.xyz.duunion.com/conv?tid=B_78b65cfb51ed9b8f-OTM3Xy0xMTg0NjQwOC00NTAwLTM2MDAtMDUxNi0taHVfcG9fZ3l1ZnQ&adv_sectkn=55dea06a643eb8a2d267a735fe2683bd&adv_name=appier-api&payout=4.5,idfa_0B66B5C6-D904-4C09-8219-6CB86C0B69DE,ja
8rHwn3WUTN-oJ9J2NTxAMg,doglobal_api,937_hu_po_gyuft,install,4.5,126.100.244.78,AFADDC28-E717-4C87-B070-2B8B1177BD48,1557975366,2019-05-16 10:56:06,1557975485,2019-05-16 10:58:05,1557975515,B_39811d0e88b389af-OTM3Xy0xMTg0NjQwOC00NTAwLTM2MDAtMDUxNi0taHVfcG9fZ3l1ZnQ,http://pb.xyz.duunion.com/conv?tid=B_39811d0e88b389af-OTM3Xy0xMTg0NjQwOC00NTAwLTM2MDAtMDUxNi0taHVfcG9fZ3l1ZnQ&adv_sectkn=55dea06a643eb8a2d267a735fe2683bd&adv_name=appier-api&payout=4.5,idfa_AFADDC28-E717-4C87-B070-2B8B1177BD48,ja
8rHwn3WUTN-oJ9J2NTxAMg,doglobal_api,937_hu_po_gyuft,install,4.5,111.90.99.231,32447784-9851-4BEB-B33A-8B15161CD338,1557974108,2019-05-16 10:35:08,1557974231,2019-05-16 10:37:11,1557974261,B_916ac605d4fe91bc-OTM3Xy0xMTg0NjQwOC00NTAwLTM2MDAtMDUxNi0taHVfcG9fZ3l1ZnQ,http://pb.xyz.duunion.com/conv?tid=B_916ac605d4fe91bc-OTM3Xy0xMTg0NjQwOC00NTAwLTM2MDAtMDUxNi0taHVfcG9fZ3l1ZnQ&adv_sectkn=55dea06a643eb8a2d267a735fe2683bd&adv_name=appier-api&payout=4.5,idfa_32447784-9851-4BEB-B33A-8B15161CD338,ja
8rHwn3WUTN-oJ9J2NTxAMg,doglobal_api,937_hu_po_gyuft,install,4.0,126.94.73.223,060A53E7-988B-4CA5-B5AF-E67F951B5FFA,1558052161,2019-05-17 08:16:01,1558052250,2019-05-17 08:17:30,1558052280,B_bfeb48e4a6753037-OTM3Xy0xMTg0NjQwOC00MDAwLTMyMDAtMDUxNy0taHVfcG9fZ3l1ZnQ,http://pb.xyz.duunion.com/conv?tid=B_bfeb48e4a6753037-OTM3Xy0xMTg0NjQwOC00MDAwLTMyMDAtMDUxNy0taHVfcG9fZ3l1ZnQ&adv_sectkn=55dea06a643eb8a2d267a735fe2683bd&adv_name=appier-api&payout=4.0,idfa_060A53E7-988B-4CA5-B5AF-E67F951B5FFA,ja
8rHwn3WUTN-oJ9J2NTxAMg,doglobal_api,937_hu_po_gyuft,install,4.0,180.54.237.75,231EF072-0D61-41E6-93C0-ED3915180332,1558053595,2019-05-17 08:39:55,1558053691,2019-05-17 08:41:31,1558053721,P_38319e0af4bd91d1-OTM3Xy0xMTg0NjQwOC00MDAwLTMyMDAtMDUxNy0taHVfcG9fZ3l1ZnQ,http://pb.xyz.duunion.com/conv?tid=P_38319e0af4bd91d1-OTM3Xy0xMTg0NjQwOC00MDAwLTMyMDAtMDUxNy0taHVfcG9fZ3l1ZnQ&adv_sectkn=55dea06a643eb8a2d267a735fe2683bd&adv_name=appier-api&payout=4.0,idfa_231EF072-0D61-41E6-93C0-ED3915180332,ja
8rHwn3WUTN-oJ9J2NTxAMg,doglobal_api,937_hu_po_gyuft,install,4.0,124.155.103.3,A3911555-7DC0-475D-9DE5-57872E1D336E,1558057641,2019-05-17 09:47:21,1558057840,2019-05-17 09:50:40,1558057870,P_c116cf53386f9d27-OTM3Xy0xMTg0NjQwOC00MDAwLTMyMDAtMDUxNy0taHVfcG9fZ3l1ZnQ,http://pb.xyz.duunion.com/conv?tid=P_c116cf53386f9d27-OTM3Xy0xMTg0NjQwOC00MDAwLTMyMDAtMDUxNy0taHVfcG9fZ3l1ZnQ&adv_sectkn=55dea06a643eb8a2d267a735fe2683bd&adv_name=appier-api&payout=4.0,idfa_A3911555-7DC0-475D-9DE5-57872E1D336E,ja
8rHwn3WUTN-oJ9J2NTxAMg,doglobal_api,937_hu_po_gyuft,install,4.0,123.1.126.84,0D97D029-1FBD-4084-B35B-89161D6B664E,1558060232,2019-05-17 10:30:32,1558060322,2019-05-17 10:32:02,1558060352,B_d6ab5a21c05a5b82-OTM3Xy0xMTg0NjQwOC00MDAwLTMyMDAtMDUxNy0taHVfcG9fZ3l1ZnQ,http://pb.xyz.duunion.com/conv?tid=B_d6ab5a21c05a5b82-OTM3Xy0xMTg0NjQwOC00MDAwLTMyMDAtMDUxNy0taHVfcG9fZ3l1ZnQ&adv_sectkn=55dea06a643eb8a2d267a735fe2683bd&adv_name=appier-api&payout=4.0,idfa_0D97D029-1FBD-4084-B35B-89161D6B664E,ja
8rHwn3WUTN-oJ9J2NTxAMg,doglobal_api,937_hu_po_gyuft,install,4.5,61.23.112.119,C49036D8-AF5B-428F-8E9A-BDD683BACE77,1557977588,2019-05-16 11:33:08,1557977676,2019-05-16 11:34:36,1557977706,P_41d2f68d747322be-OTM3Xy0xMTg0NjQwOC00NTAwLTM2MDAtMDUxNi0taHVfcG9fZ3l1ZnQ,http://pb.xyz.duunion.com/conv?tid=P_41d2f68d747322be-OTM3Xy0xMTg0NjQwOC00NTAwLTM2MDAtMDUxNi0taHVfcG9fZ3l1ZnQ&adv_sectkn=55dea06a643eb8a2d267a735fe2683bd&adv_name=appier-api&payout=4.5,idfa_C49036D8-AF5B-428F-8E9A-BDD683BACE77,ja
8rHwn3WUTN-oJ9J2NTxAMg,doglobal_api,937_hu_po_gyuft,install,4.5,153.188.114.153,839F8E61-2C2D-4C95-B75C-8987B56642F7,1557973165,2019-05-16 10:19:25,1557973262,2019-05-16 10:21:02,1557973292,B_e9e5d6fae700e893-OTM3Xy0xMTg0NjQwOC00NTAwLTM2MDAtMDUxNi0taHVfcG9fZ3l1ZnQ,http://pb.xyz.duunion.com/conv?tid=B_e9e5d6fae700e893-OTM3Xy0xMTg0NjQwOC00NTAwLTM2MDAtMDUxNi0taHVfcG9fZ3l1ZnQ&adv_sectkn=55dea06a643eb8a2d267a735fe2683bd&adv_name=appier-api&payout=4.5,idfa_839F8E61-2C2D-4C95-B75C-8987B56642F7,ja
8rHwn3WUTN-oJ9J2NTxAMg,doglobal_api,937_hu_po_gyuft,install,4.5,59.135.158.3,105A9173-3D18-416C-B392-0CC8B5439115,1557976682,2019-05-16 11:18:02,1557976796,2019-05-16 11:19:56,1557976826,P_31ad1defa3c40897-OTM3Xy0xMTg0NjQwOC00NTAwLTM2MDAtMDUxNi0taHVfcG9fZ3l1ZnQ,http://pb.xyz.duunion.com/conv?tid=P_31ad1defa3c40897-OTM3Xy0xMTg0NjQwOC00NTAwLTM2MDAtMDUxNi0taHVfcG9fZ3l1ZnQ&adv_sectkn=55dea06a643eb8a2d267a735fe2683bd&adv_name=appier-api&payout=4.5,idfa_105A9173-3D18-416C-B392-0CC8B5439115,ja
8rHwn3WUTN-oJ9J2NTxAMg,doglobal_api,937_hu_po_gyuft,install,4.0,126.29.61.238,CA2F55C3-7BE0-444A-8E49-884EC9943A4E,1558057054,2019-05-17 09:37:34,1558057337,2019-05-17 09:42:17,1558057367,B_bba3ad27a089c670-OTM3Xy0xMTg0NjQwOC00MDAwLTMyMDAtMDUxNy0taHVfcG9fZ3l1ZnQ,http://pb.xyz.duunion.com/conv?tid=B_bba3ad27a089c670-OTM3Xy0xMTg0NjQwOC00MDAwLTMyMDAtMDUxNy0taHVfcG9fZ3l1ZnQ&adv_sectkn=55dea06a643eb8a2d267a735fe2683bd&adv_name=appier-api&payout=4.0,idfa_CA2F55C3-7BE0-444A-8E49-884EC9943A4E,ja
8rHwn3WUTN-oJ9J2NTxAMg,doglobal_api,937_hu_po_gyuft,install,4.0,210.146.242.25,995EBAC6-8D40-44BC-999B-4B66F4C4C32B,1558057550,2019-05-17 09:45:50,1558057638,2019-05-17 09:47:18,1558057669,P_2502d3fa6300b852-OTM3Xy0xMTg0NjQwOC00MDAwLTMyMDAtMDUxNy0taHVfcG9fZ3l1ZnQ,http://pb.xyz.duunion.com/conv?tid=P_2502d3fa6300b852-OTM3Xy0xMTg0NjQwOC00MDAwLTMyMDAtMDUxNy0taHVfcG9fZ3l1ZnQ&adv_sectkn=55dea06a643eb8a2d267a735fe2683bd&adv_name=appier-api&payout=4.0,idfa_995EBAC6-8D40-44BC-999B-4B66F4C4C32B,ja
8rHwn3WUTN-oJ9J2NTxAMg,doglobal_api,937_hu_po_gyuft,install,4.0,180.196.5.64,AE1F9FB7-61AD-4BC8-8DB4-794EDF8B626D,1558052572,2019-05-17 08:22:52,1558052677,2019-05-17 08:24:37,1558052707,B_749e41bbe22ae67f-OTM3Xy0xMTg0NjQwOC00MDAwLTMyMDAtMDUxNy0taHVfcG9fZ3l1ZnQ,http://pb.xyz.duunion.com/conv?tid=B_749e41bbe22ae67f-OTM3Xy0xMTg0NjQwOC00MDAwLTMyMDAtMDUxNy0taHVfcG9fZ3l1ZnQ&adv_sectkn=55dea06a643eb8a2d267a735fe2683bd&adv_name=appier-api&payout=4.0,idfa_AE1F9FB7-61AD-4BC8-8DB4-794EDF8B626D,ja
8rHwn3WUTN-oJ9J2NTxAMg,doglobal_api,937_hu_po_gyuft,install,4.0,103.2.248.40,92F6F555-3015-4DE6-99ED-D98A7A67B90D,1558056025,2019-05-17 09:20:25,1558056279,2019-05-17 09:24:39,1558056311,P_0361fc6610f43802-OTM3Xy0xMTg0NjQwOC00MDAwLTMyMDAtMDUxNy0taHVfcG9fZ3l1ZnQ,http://pb.xyz.duunion.com/conv?tid=P_0361fc6610f43802-OTM3Xy0xMTg0NjQwOC00MDAwLTMyMDAtMDUxNy0taHVfcG9fZ3l1ZnQ&adv_sectkn=55dea06a643eb8a2d267a735fe2683bd&adv_name=appier-api&payout=4.0,idfa_92F6F555-3015-4DE6-99ED-D98A7A67B90D,ja
8rHwn3WUTN-oJ9J2NTxAMg,doglobal_api,937_hu_po_gyuft,install,4.0,126.147.162.111,4D59AC81-08B0-4C4B-ADA3-43D9A9B27CA0,1558053050,2019-05-17 08:30:50,1558053161,2019-05-17 08:32:41,1558053191,B_c11592b3793f228f-OTM3Xy0xMTg0NjQwOC00MDAwLTMyMDAtMDUxNy0taHVfcG9fZ3l1ZnQ,http://pb.xyz.duunion.com/conv?tid=B_c11592b3793f228f-OTM3Xy0xMTg0NjQwOC00MDAwLTMyMDAtMDUxNy0taHVfcG9fZ3l1ZnQ&adv_sectkn=55dea06a643eb8a2d267a735fe2683bd&adv_name=appier-api&payout=4.0,idfa_4D59AC81-08B0-4C4B-ADA3-43D9A9B27CA0,ja
8rHwn3WUTN-oJ9J2NTxAMg,doglobal_api,937_hu_po_gyuft,install,4.0,114.185.142.174,45FF2349-BEAD-433D-B4BC-6597DBC63933,1558053687,2019-05-17 08:41:27,1558053944,2019-05-17 08:45:44,1558053974,P_435150362970d329-OTM3Xy0xMTg0NjQwOC00MDAwLTMyMDAtMDUxNy0taHVfcG9fZ3l1ZnQ,http://pb.xyz.duunion.com/conv?tid=P_435150362970d329-OTM3Xy0xMTg0NjQwOC00MDAwLTMyMDAtMDUxNy0taHVfcG9fZ3l1ZnQ&adv_sectkn=55dea06a643eb8a2d267a735fe2683bd&adv_name=appier-api&payout=4.0,idfa_45FF2349-BEAD-433D-B4BC-6597DBC63933,ja
8rHwn3WUTN-oJ9J2NTxAMg,doglobal_api,937_hu_po_gyuft,install,4.5,36.2.237.166,29B2A2E0-C215-481E-8FDE-A9AE49F3D7E5,1557974901,2019-05-16 10:48:21,1557974999,2019-05-16 10:49:59,1557975029,B_8b80363481e194ea-OTM3Xy0xMTg0NjQwOC00NTAwLTM2MDAtMDUxNi0taHVfcG9fZ3l1ZnQ,http://pb.xyz.duunion.com/conv?tid=B_8b80363481e194ea-OTM3Xy0xMTg0NjQwOC00NTAwLTM2MDAtMDUxNi0taHVfcG9fZ3l1ZnQ&adv_sectkn=55dea06a643eb8a2d267a735fe2683bd&adv_name=appier-api&payout=4.5,idfa_29B2A2E0-C215-481E-8FDE-A9AE49F3D7E5,ja
8rHwn3WUTN-oJ9J2NTxAMg,doglobal_api,937_hu_po_gyuft,install,4.5,124.154.108.43,18689EA1-67C4-4FB7-A007-D3B12860136B,1557974283,2019-05-16 10:38:03,1557974392,2019-05-16 10:39:52,1557974422,B_1ff0015407745ee0-OTM3Xy0xMTg0NjQwOC00NTAwLTM2MDAtMDUxNi0taHVfcG9fZ3l1ZnQ,http://pb.xyz.duunion.com/conv?tid=B_1ff0015407745ee0-OTM3Xy0xMTg0NjQwOC00NTAwLTM2MDAtMDUxNi0taHVfcG9fZ3l1ZnQ&adv_sectkn=55dea06a643eb8a2d267a735fe2683bd&adv_name=appier-api&payout=4.5,idfa_18689EA1-67C4-4FB7-A007-D3B12860136B,ja
8rHwn3WUTN-oJ9J2NTxAMg,doglobal_api,937_hu_po_gyuft,install,4.0,60.101.67.9,1B2CD46F-D08F-4CD3-98EB-0BC6B483D506,1558053572,2019-05-17 08:39:32,1558053636,2019-05-17 08:40:36,1558053666,P_0065fe5f2c6a5341-OTM3Xy0xMTg0NjQwOC00MDAwLTMyMDAtMDUxNy0taHVfcG9fZ3l1ZnQ,http://pb.xyz.duunion.com/conv?tid=P_0065fe5f2c6a5341-OTM3Xy0xMTg0NjQwOC00MDAwLTMyMDAtMDUxNy0taHVfcG9fZ3l1ZnQ&adv_sectkn=55dea06a643eb8a2d267a735fe2683bd&adv_name=appier-api&payout=4.0,idfa_1B2CD46F-D08F-4CD3-98EB-0BC6B483D506,ja
8rHwn3WUTN-oJ9J2NTxAMg,doglobal_api,937_hu_po_gyuft,install,4.0,65.99.69.91,0DFF1E92-019C-4A7F-B057-A24803D1A81D,1558052152,2019-05-17 08:15:52,1558052402,2019-05-17 08:20:02,1558052432,B_97e15a4aad52be46-OTM3Xy0xMTg0NjQwOC00MDAwLTMyMDAtMDUxNy0taHVfcG9fZ3l1ZnQ,http://pb.xyz.duunion.com/conv?tid=B_97e15a4aad52be46-OTM3Xy0xMTg0NjQwOC00MDAwLTMyMDAtMDUxNy0taHVfcG9fZ3l1ZnQ&adv_sectkn=55dea06a643eb8a2d267a735fe2683bd&adv_name=appier-api&payout=4.0,idfa_0DFF1E92-019C-4A7F-B057-A24803D1A81D,ja
8rHwn3WUTN-oJ9J2NTxAMg,doglobal_api,937_hu_po_gyuft,install,4.5,60.140.206.152,1BB289F8-877B-4648-A80E-464710164C41,1557978368,2019-05-16 11:46:08,1557978477,2019-05-16 11:47:57,1557978507,P_4672e184b96b6ebb-OTM3Xy0xMTg0NjQwOC00NTAwLTM2MDAtMDUxNi0taHVfcG9fZ3l1ZnQ,http://pb.xyz.duunion.com/conv?tid=P_4672e184b96b6ebb-OTM3Xy0xMTg0NjQwOC00NTAwLTM2MDAtMDUxNi0taHVfcG9fZ3l1ZnQ&adv_sectkn=55dea06a643eb8a2d267a735fe2683bd&adv_name=appier-api&payout=4.5,idfa_1BB289F8-877B-4648-A80E-464710164C41,ja
8rHwn3WUTN-oJ9J2NTxAMg,doglobal_api,937_hu_po_gyuft,install,4.5,114.160.198.72,D4B400D5-016F-42B4-B3A3-54A41317E82E,1557977066,2019-05-16 11:24:26,1557977187,2019-05-16 11:26:27,1557977217,B_244e8a91f1287d53-OTM3Xy0xMTg0NjQwOC00NTAwLTM2MDAtMDUxNi0taHVfcG9fZ3l1ZnQ,http://pb.xyz.duunion.com/conv?tid=B_244e8a91f1287d53-OTM3Xy0xMTg0NjQwOC00NTAwLTM2MDAtMDUxNi0taHVfcG9fZ3l1ZnQ&adv_sectkn=55dea06a643eb8a2d267a735fe2683bd&adv_name=appier-api&payout=4.5,idfa_D4B400D5-016F-42B4-B3A3-54A41317E82E,ja
8rHwn3WUTN-oJ9J2NTxAMg,doglobal_api,937_hu_po_gyuft,install,4.0,133.6.28.35,B4BBBA58-E076-4CD6-B1B1-AB4F3B912FC7,1558056789,2019-05-17 09:33:09,1558056874,2019-05-17 09:34:34,1558056905,P_63302ccc4f7f7378-OTM3Xy0xMTg0NjQwOC00MDAwLTMyMDAtMDUxNy0taHVfcG9fZ3l1ZnQ,http://pb.xyz.duunion.com/conv?tid=P_63302ccc4f7f7378-OTM3Xy0xMTg0NjQwOC00MDAwLTMyMDAtMDUxNy0taHVfcG9fZ3l1ZnQ&adv_sectkn=55dea06a643eb8a2d267a735fe2683bd&adv_name=appier-api&payout=4.0,idfa_B4BBBA58-E076-4CD6-B1B1-AB4F3B912FC7,ja
8rHwn3WUTN-oJ9J2NTxAMg,doglobal_api,937_hu_po_gyuft,install,4.0,153.189.2.213,0D3A6C41-9095-4BB0-BFF0-1844033430BE,1558058561,2019-05-17 10:02:41,1558058659,2019-05-17 10:04:19,1558058690,B_3c50bba4f3740f83-OTM3Xy0xMTg0NjQwOC00MDAwLTMyMDAtMDUxNy0taHVfcG9fZ3l1ZnQ,http://pb.xyz.duunion.com/conv?tid=B_3c50bba4f3740f83-OTM3Xy0xMTg0NjQwOC00MDAwLTMyMDAtMDUxNy0taHVfcG9fZ3l1ZnQ&adv_sectkn=55dea06a643eb8a2d267a735fe2683bd&adv_name=appier-api&payout=4.0,idfa_0D3A6C41-9095-4BB0-BFF0-1844033430BE,ja
8rHwn3WUTN-oJ9J2NTxAMg,doglobal_api,937_hu_po_gyuft,install,4.5,153.189.2.213,5B955C40-5E05-4460-BF5F-C311FA0B3462,1557978003,2019-05-16 11:40:03,1557978133,2019-05-16 11:42:13,1557978163,P_7a799bb7a710ca20-OTM3Xy0xMTg0NjQwOC00NTAwLTM2MDAtMDUxNi0taHVfcG9fZ3l1ZnQ,http://pb.xyz.duunion.com/conv?tid=P_7a799bb7a710ca20-OTM3Xy0xMTg0NjQwOC00NTAwLTM2MDAtMDUxNi0taHVfcG9fZ3l1ZnQ&adv_sectkn=55dea06a643eb8a2d267a735fe2683bd&adv_name=appier-api&payout=4.5,idfa_5B955C40-5E05-4460-BF5F-C311FA0B3462,ja
8rHwn3WUTN-oJ9J2NTxAMg,doglobal_api,937_hu_po_gyuft,install,4.0,59.129.112.137,32F39D9F-42E8-4612-91F2-F3D47ED9A23F,1558052152,2019-05-17 08:15:52,1558052258,2019-05-17 08:17:38,1558052289,B_5a70a73798ecc9b0-OTM3Xy0xMTg0NjQwOC00MDAwLTMyMDAtMDUxNy0taHVfcG9fZ3l1ZnQ,http://pb.xyz.duunion.com/conv?tid=B_5a70a73798ecc9b0-OTM3Xy0xMTg0NjQwOC00MDAwLTMyMDAtMDUxNy0taHVfcG9fZ3l1ZnQ&adv_sectkn=55dea06a643eb8a2d267a735fe2683bd&adv_name=appier-api&payout=4.0,idfa_32F39D9F-42E8-4612-91F2-F3D47ED9A23F,ja
