cid,partner_id,channel_id,action_id,cpi,ip,idfa,click time,click datetime,install time,install datetime,postback time,click id,postback url,unique user id
kGwMzkNJS-yDZke3RuGdgQ,doglobal_api,784_2143,install,2.5,112.120.5.10,25F3F69A-7603-4D4E-BB75-376B655CF41E,1557638863,2019-05-12 13:27:43,1557638920,2019-05-12 13:28:40,1557638950,P_7d9c562957c9002b-Nzg0Xy0xMzY3OTM4Ni0yNTAwLTI1MDAtMDUxMi0tMjE0Mw,http://pb.xyz.duunion.com/conv?tid=P_7d9c562957c9002b-Nzg0Xy0xMzY3OTM4Ni0yNTAwLTI1MDAtMDUxMi0tMjE0Mw&adv_sectkn=55dea06a643eb8a2d267a735fe2683bd&adv_name=appier-api&payout=2.5,idfa_25F3F69A-7603-4D4E-BB75-376B655CF41E,en
kGwMzkNJS-yDZke3RuGdgQ,doglobal_api,784_2143,install,2.5,182.239.58.166,F532C7AA-AF98-40AD-BE8A-5A1C5FE5510F,1557548773,2019-05-11 12:26:13,1557550323,2019-05-11 12:52:03,1557550355,P_0449ca57ea25c025-Nzg0Xy0xMzY3OTM4Ni0yNTAwLTI1MDAtMDUxMS0tMjE0Mw,http://pb.xyz.duunion.com/conv?tid=P_0449ca57ea25c025-Nzg0Xy0xMzY3OTM4Ni0yNTAwLTI1MDAtMDUxMS0tMjE0Mw&adv_sectkn=55dea06a643eb8a2d267a735fe2683bd&adv_name=appier-api&payout=2.5,idfa_F532C7AA-AF98-40AD-BE8A-5A1C5FE5510F,en
kGwMzkNJS-yDZke3RuGdgQ,doglobal_api,784_2143,install,2.5,203.198.163.73,E9BA0A40-5283-4F27-B7BB-86A67A41E171,1557638736,2019-05-12 13:25:36,1557638775,2019-05-12 13:26:15,1557638806,P_8a0409e9c6b689a1-Nzg0Xy0xMzY3OTM4Ni0yNTAwLTI1MDAtMDUxMi0tMjE0Mw,http://pb.xyz.duunion.com/conv?tid=P_8a0409e9c6b689a1-Nzg0Xy0xMzY3OTM4Ni0yNTAwLTI1MDAtMDUxMi0tMjE0Mw&adv_sectkn=55dea06a643eb8a2d267a735fe2683bd&adv_name=appier-api&payout=2.5,idfa_E9BA0A40-5283-4F27-B7BB-86A67A41E171,en
kGwMzkNJS-yDZke3RuGdgQ,doglobal_api,784_2143,install,2.5,218.103.116.121,6CAB9DCE-FC95-4447-8358-5E7718A46F51,1557638441,2019-05-12 13:20:41,1557638486,2019-05-12 13:21:26,1557638518,B_8276473dd82ff60a-Nzg0Xy0xMzY3OTM4Ni0yNTAwLTI1MDAtMDUxMi0tMjE0Mw,http://pb.xyz.duunion.com/conv?tid=B_8276473dd82ff60a-Nzg0Xy0xMzY3OTM4Ni0yNTAwLTI1MDAtMDUxMi0tMjE0Mw&adv_sectkn=55dea06a643eb8a2d267a735fe2683bd&adv_name=appier-api&payout=2.5,idfa_6CAB9DCE-FC95-4447-8358-5E7718A46F51,en
kGwMzkNJS-yDZke3RuGdgQ,doglobal_api,784_2143,install,2.5,223.197.196.85,470AD904-215E-43BA-B6B3-3B9F8D1C5F3D,1557548598,2019-05-11 12:23:18,1557548655,2019-05-11 12:24:15,1557548686,P_7f73bf8bdb8aae56-Nzg0Xy0xMzY3OTM4Ni0yNTAwLTI1MDAtMDUxMS0tMjE0Mw,http://pb.xyz.duunion.com/conv?tid=P_7f73bf8bdb8aae56-Nzg0Xy0xMzY3OTM4Ni0yNTAwLTI1MDAtMDUxMS0tMjE0Mw&adv_sectkn=55dea06a643eb8a2d267a735fe2683bd&adv_name=appier-api&payout=2.5,idfa_470AD904-215E-43BA-B6B3-3B9F8D1C5F3D,en
kGwMzkNJS-yDZke3RuGdgQ,doglobal_api,784_2143,install,2.5,210.3.173.34,D5717C9B-625D-4BEE-B4BD-D47CD2073264,1557546656,2019-05-11 11:50:56,1557546703,2019-05-11 11:51:43,1557546734,P_97e46505d08ab131-Nzg0Xy0xMzY3OTM4Ni0yNTAwLTI1MDAtMDUxMS0tMjE0Mw,http://pb.xyz.duunion.com/conv?tid=P_97e46505d08ab131-Nzg0Xy0xMzY3OTM4Ni0yNTAwLTI1MDAtMDUxMS0tMjE0Mw&adv_sectkn=55dea06a643eb8a2d267a735fe2683bd&adv_name=appier-api&payout=2.5,idfa_D5717C9B-625D-4BEE-B4BD-D47CD2073264,en
kGwMzkNJS-yDZke3RuGdgQ,doglobal_api,784_2143,install,2.5,103.6.51.114,84F2346E-C63C-4A34-8302-62959F0600AD,1557638713,2019-05-12 13:25:13,1557638752,2019-05-12 13:25:52,1557638783,P_36d05456b66ef980-Nzg0Xy0xMzY3OTM4Ni0yNTAwLTI1MDAtMDUxMi0tMjE0Mw,http://pb.xyz.duunion.com/conv?tid=P_36d05456b66ef980-Nzg0Xy0xMzY3OTM4Ni0yNTAwLTI1MDAtMDUxMi0tMjE0Mw&adv_sectkn=55dea06a643eb8a2d267a735fe2683bd&adv_name=appier-api&payout=2.5,idfa_84F2346E-C63C-4A34-8302-62959F0600AD,en
kGwMzkNJS-yDZke3RuGdgQ,doglobal_api,784_2143,install,2.5,203.198.149.164,25D9388D-F346-4183-94F7-3A5DA9F3ABE3,1557550802,2019-05-11 13:00:02,1557550845,2019-05-11 13:00:45,1557550876,P_befd6241caa7eadc-Nzg0Xy0xMzY3OTM4Ni0yNTAwLTI1MDAtMDUxMS0tMjE0Mw,http://pb.xyz.duunion.com/conv?tid=P_befd6241caa7eadc-Nzg0Xy0xMzY3OTM4Ni0yNTAwLTI1MDAtMDUxMS0tMjE0Mw&adv_sectkn=55dea06a643eb8a2d267a735fe2683bd&adv_name=appier-api&payout=2.5,idfa_25D9388D-F346-4183-94F7-3A5DA9F3ABE3,en
kGwMzkNJS-yDZke3RuGdgQ,doglobal_api,784_2143,install,2.5,203.198.150.167,38B6C23A-DA0B-4153-A665-6D6805CE9E91,1557547013,2019-05-11 11:56:53,1557547059,2019-05-11 11:57:39,1557547090,P_a912ad280493b8c1-Nzg0Xy0xMzY3OTM4Ni0yNTAwLTI1MDAtMDUxMS0tMjE0Mw,http://pb.xyz.duunion.com/conv?tid=P_a912ad280493b8c1-Nzg0Xy0xMzY3OTM4Ni0yNTAwLTI1MDAtMDUxMS0tMjE0Mw&adv_sectkn=55dea06a643eb8a2d267a735fe2683bd&adv_name=appier-api&payout=2.5,idfa_38B6C23A-DA0B-4153-A665-6D6805CE9E91,en
kGwMzkNJS-yDZke3RuGdgQ,doglobal_api,784_2143,install,2.5,202.82.133.61,C4397753-BB93-42DD-B314-5E3ECA6454B0,1557637095,2019-05-12 12:58:15,1557637133,2019-05-12 12:58:53,1557637164,P_a60c22b38b0b5e7a-Nzg0Xy0xMzY3OTM4Ni0yNTAwLTI1MDAtMDUxMi0tMjE0Mw,http://pb.xyz.duunion.com/conv?tid=P_a60c22b38b0b5e7a-Nzg0Xy0xMzY3OTM4Ni0yNTAwLTI1MDAtMDUxMi0tMjE0Mw&adv_sectkn=55dea06a643eb8a2d267a735fe2683bd&adv_name=appier-api&payout=2.5,idfa_C4397753-BB93-42DD-B314-5E3ECA6454B0,en
kGwMzkNJS-yDZke3RuGdgQ,doglobal_api,784_2143,install,2.5,202.82.133.61,3BF591C0-F61E-4110-91E3-D2DDBC521AE1,1557636002,2019-05-12 12:40:02,1557636044,2019-05-12 12:40:44,1557636076,B_402ac833defaa4d2-Nzg0Xy0xMzY3OTM4Ni0yNTAwLTI1MDAtMDUxMi0tMjE0Mw,http://pb.xyz.duunion.com/conv?tid=B_402ac833defaa4d2-Nzg0Xy0xMzY3OTM4Ni0yNTAwLTI1MDAtMDUxMi0tMjE0Mw&adv_sectkn=55dea06a643eb8a2d267a735fe2683bd&adv_name=appier-api&payout=2.5,idfa_3BF591C0-F61E-4110-91E3-D2DDBC521AE1,en
kGwMzkNJS-yDZke3RuGdgQ,doglobal_api,784_2143,install,2.5,223.197.163.246,D94F84B2-57CC-42CF-B44D-C2E049C0ED22,1557637904,2019-05-12 13:11:44,1557637941,2019-05-12 13:12:21,1557637972,P_85798c8394739fb0-Nzg0Xy0xMzY3OTM4Ni0yNTAwLTI1MDAtMDUxMi0tMjE0Mw,http://pb.xyz.duunion.com/conv?tid=P_85798c8394739fb0-Nzg0Xy0xMzY3OTM4Ni0yNTAwLTI1MDAtMDUxMi0tMjE0Mw&adv_sectkn=55dea06a643eb8a2d267a735fe2683bd&adv_name=appier-api&payout=2.5,idfa_D94F84B2-57CC-42CF-B44D-C2E049C0ED22,en
kGwMzkNJS-yDZke3RuGdgQ,doglobal_api,784_2143,install,2.5,223.197.167.43,EB508FF3-6A9A-45A3-B5F4-A062FBBBEFB5,1557549199,2019-05-11 12:33:19,1557550298,2019-05-11 12:51:38,1557550329,P_b0b7017792fba54d-Nzg0Xy0xMzY3OTM4Ni0yNTAwLTI1MDAtMDUxMS0tMjE0Mw,http://pb.xyz.duunion.com/conv?tid=P_b0b7017792fba54d-Nzg0Xy0xMzY3OTM4Ni0yNTAwLTI1MDAtMDUxMS0tMjE0Mw&adv_sectkn=55dea06a643eb8a2d267a735fe2683bd&adv_name=appier-api&payout=2.5,idfa_EB508FF3-6A9A-45A3-B5F4-A062FBBBEFB5,ko
kGwMzkNJS-yDZke3RuGdgQ,doglobal_api,784_2143,install,2.5,203.198.148.196,BC240F74-5038-4E48-B77E-9463520DAF44,1557547874,2019-05-11 12:11:14,1557547921,2019-05-11 12:12:01,1557547953,B_f281f72e7bd03f95-Nzg0Xy0xMzY3OTM4Ni0yNTAwLTI1MDAtMDUxMS0tMjE0Mw,http://pb.xyz.duunion.com/conv?tid=B_f281f72e7bd03f95-Nzg0Xy0xMzY3OTM4Ni0yNTAwLTI1MDAtMDUxMS0tMjE0Mw&adv_sectkn=55dea06a643eb8a2d267a735fe2683bd&adv_name=appier-api&payout=2.5,idfa_BC240F74-5038-4E48-B77E-9463520DAF44,en
kGwMzkNJS-yDZke3RuGdgQ,doglobal_api,784_2143,install,2.5,223.197.163.246,F7905715-5EC1-4856-9CB3-D14ABF325EBA,1557547564,2019-05-11 12:06:04,1557547610,2019-05-11 12:06:50,1557547642,B_cfd49dfad0df3637-Nzg0Xy0xMzY3OTM4Ni0yNTAwLTI1MDAtMDUxMS0tMjE0Mw,http://pb.xyz.duunion.com/conv?tid=B_cfd49dfad0df3637-Nzg0Xy0xMzY3OTM4Ni0yNTAwLTI1MDAtMDUxMS0tMjE0Mw&adv_sectkn=55dea06a643eb8a2d267a735fe2683bd&adv_name=appier-api&payout=2.5,idfa_F7905715-5EC1-4856-9CB3-D14ABF325EBA,en
kGwMzkNJS-yDZke3RuGdgQ,doglobal_api,784_2143,install,2.5,218.255.108.202,3D832818-851A-49FF-92AA-334BE26B3C5C,1557637742,2019-05-12 13:09:02,1557637782,2019-05-12 13:09:42,1557637813,P_809a2f2a1d1e2174-Nzg0Xy0xMzY3OTM4Ni0yNTAwLTI1MDAtMDUxMi0tMjE0Mw,http://pb.xyz.duunion.com/conv?tid=P_809a2f2a1d1e2174-Nzg0Xy0xMzY3OTM4Ni0yNTAwLTI1MDAtMDUxMi0tMjE0Mw&adv_sectkn=55dea06a643eb8a2d267a735fe2683bd&adv_name=appier-api&payout=2.5,idfa_3D832818-851A-49FF-92AA-334BE26B3C5C,en
kGwMzkNJS-yDZke3RuGdgQ,doglobal_api,784_2143,install,2.5,203.198.148.196,E85B4C37-AFD1-4CE8-AD46-56114B11B494,1557637572,2019-05-12 13:06:12,1557637610,2019-05-12 13:06:50,1557637641,P_a04afb55b003fbc8-Nzg0Xy0xMzY3OTM4Ni0yNTAwLTI1MDAtMDUxMi0tMjE0Mw,http://pb.xyz.duunion.com/conv?tid=P_a04afb55b003fbc8-Nzg0Xy0xMzY3OTM4Ni0yNTAwLTI1MDAtMDUxMi0tMjE0Mw&adv_sectkn=55dea06a643eb8a2d267a735fe2683bd&adv_name=appier-api&payout=2.5,idfa_E85B4C37-AFD1-4CE8-AD46-56114B11B494,en
kGwMzkNJS-yDZke3RuGdgQ,doglobal_api,784_2143,install,2.5,113.28.9.22,293918F9-DC65-41FE-AD24-EFA837F51B5B,1557638163,2019-05-12 13:16:03,1557638201,2019-05-12 13:16:41,1557638231,B_dd449119985ad792-Nzg0Xy0xMzY3OTM4Ni0yNTAwLTI1MDAtMDUxMi0tMjE0Mw,http://pb.xyz.duunion.com/conv?tid=B_dd449119985ad792-Nzg0Xy0xMzY3OTM4Ni0yNTAwLTI1MDAtMDUxMi0tMjE0Mw&adv_sectkn=55dea06a643eb8a2d267a735fe2683bd&adv_name=appier-api&payout=2.5,idfa_293918F9-DC65-41FE-AD24-EFA837F51B5B,en
kGwMzkNJS-yDZke3RuGdgQ,doglobal_api,784_2143,install,2.5,218.255.108.202,B03A6185-295E-422D-9A13-1F16C5CAAAC5,1557637737,2019-05-12 13:08:57,1557637778,2019-05-12 13:09:38,1557637808,P_5b22838ca0bf34c9-Nzg0Xy0xMzY3OTM4Ni0yNTAwLTI1MDAtMDUxMi0tMjE0Mw,http://pb.xyz.duunion.com/conv?tid=P_5b22838ca0bf34c9-Nzg0Xy0xMzY3OTM4Ni0yNTAwLTI1MDAtMDUxMi0tMjE0Mw&adv_sectkn=55dea06a643eb8a2d267a735fe2683bd&adv_name=appier-api&payout=2.5,idfa_B03A6185-295E-422D-9A13-1F16C5CAAAC5,en
kGwMzkNJS-yDZke3RuGdgQ,doglobal_api,784_2143,install,2.5,182.239.58.168,5B219672-DEAE-485E-BCFB-257A3CAAB3E1,1557546831,2019-05-11 11:53:51,1557546874,2019-05-11 11:54:34,1557546905,B_3fbaa6e2ad6620bd-Nzg0Xy0xMzY3OTM4Ni0yNTAwLTI1MDAtMDUxMS0tMjE0Mw,http://pb.xyz.duunion.com/conv?tid=B_3fbaa6e2ad6620bd-Nzg0Xy0xMzY3OTM4Ni0yNTAwLTI1MDAtMDUxMS0tMjE0Mw&adv_sectkn=55dea06a643eb8a2d267a735fe2683bd&adv_name=appier-api&payout=2.5,idfa_5B219672-DEAE-485E-BCFB-257A3CAAB3E1,en
kGwMzkNJS-yDZke3RuGdgQ,doglobal_api,784_2143,install,2.5,223.197.142.122,ED407B8F-65C4-4262-B356-A113DF308E48,1557636774,2019-05-12 12:52:54,1557636810,2019-05-12 12:53:30,1557636842,P_9398069f986af1ee-Nzg0Xy0xMzY3OTM4Ni0yNTAwLTI1MDAtMDUxMi0tMjE0Mw,http://pb.xyz.duunion.com/conv?tid=P_9398069f986af1ee-Nzg0Xy0xMzY3OTM4Ni0yNTAwLTI1MDAtMDUxMi0tMjE0Mw&adv_sectkn=55dea06a643eb8a2d267a735fe2683bd&adv_name=appier-api&payout=2.5,idfa_ED407B8F-65C4-4262-B356-A113DF308E48,en
kGwMzkNJS-yDZke3RuGdgQ,doglobal_api,784_2143,install,2.5,210.176.61.250,70218EC9-A4C6-4ECB-8147-D202D75185DB,1557637357,2019-05-12 13:02:37,1557637395,2019-05-12 13:03:15,1557637427,B_da215c054a6817de-Nzg0Xy0xMzY3OTM4Ni0yNTAwLTI1MDAtMDUxMi0tMjE0Mw,http://pb.xyz.duunion.com/conv?tid=B_da215c054a6817de-Nzg0Xy0xMzY3OTM4Ni0yNTAwLTI1MDAtMDUxMi0tMjE0Mw&adv_sectkn=55dea06a643eb8a2d267a735fe2683bd&adv_name=appier-api&payout=2.5,idfa_70218EC9-A4C6-4ECB-8147-D202D75185DB,en
kGwMzkNJS-yDZke3RuGdgQ,doglobal_api,784_2143,install,2.5,210.3.173.34,AA374C17-5C19-4C4F-A2A1-5328205D482A,1557639058,2019-05-12 13:30:58,1557639097,2019-05-12 13:31:37,1557639128,B_16ea24b1a406f21f-Nzg0Xy0xMzY3OTM4Ni0yNTAwLTI1MDAtMDUxMi0tMjE0Mw,http://pb.xyz.duunion.com/conv?tid=B_16ea24b1a406f21f-Nzg0Xy0xMzY3OTM4Ni0yNTAwLTI1MDAtMDUxMi0tMjE0Mw&adv_sectkn=55dea06a643eb8a2d267a735fe2683bd&adv_name=appier-api&payout=2.5,idfa_AA374C17-5C19-4C4F-A2A1-5328205D482A,en
kGwMzkNJS-yDZke3RuGdgQ,doglobal_api,784_2143,install,2.5,223.197.162.15,83AC066D-D86B-4632-BF64-F5D0F7099863,1557548283,2019-05-11 12:18:03,1557549174,2019-05-11 12:32:54,1557549204,B_e4e609312fce6e43-Nzg0Xy0xMzY3OTM4Ni0yNTAwLTI1MDAtMDUxMS0tMjE0Mw,http://pb.xyz.duunion.com/conv?tid=B_e4e609312fce6e43-Nzg0Xy0xMzY3OTM4Ni0yNTAwLTI1MDAtMDUxMS0tMjE0Mw&adv_sectkn=55dea06a643eb8a2d267a735fe2683bd&adv_name=appier-api&payout=2.5,idfa_83AC066D-D86B-4632-BF64-F5D0F7099863,ko
kGwMzkNJS-yDZke3RuGdgQ,doglobal_api,784_2143,install,2.5,223.197.163.246,72A08318-05E1-40D2-BE0C-826708B705CA,1557636267,2019-05-12 12:44:27,1557636305,2019-05-12 12:45:05,1557636337,P_1e538659fa140661-Nzg0Xy0xMzY3OTM4Ni0yNTAwLTI1MDAtMDUxMi0tMjE0Mw,http://pb.xyz.duunion.com/conv?tid=P_1e538659fa140661-Nzg0Xy0xMzY3OTM4Ni0yNTAwLTI1MDAtMDUxMi0tMjE0Mw&adv_sectkn=55dea06a643eb8a2d267a735fe2683bd&adv_name=appier-api&payout=2.5,idfa_72A08318-05E1-40D2-BE0C-826708B705CA,en
kGwMzkNJS-yDZke3RuGdgQ,doglobal_api,784_2143,install,2.5,223.197.163.246,7B281717-5653-4EB1-A5EF-F4215954CB16,1557637908,2019-05-12 13:11:48,1557637950,2019-05-12 13:12:30,1557637981,B_96da9c0868a73fb9-Nzg0Xy0xMzY3OTM4Ni0yNTAwLTI1MDAtMDUxMi0tMjE0Mw,http://pb.xyz.duunion.com/conv?tid=B_96da9c0868a73fb9-Nzg0Xy0xMzY3OTM4Ni0yNTAwLTI1MDAtMDUxMi0tMjE0Mw&adv_sectkn=55dea06a643eb8a2d267a735fe2683bd&adv_name=appier-api&payout=2.5,idfa_7B281717-5653-4EB1-A5EF-F4215954CB16,en
kGwMzkNJS-yDZke3RuGdgQ,doglobal_api,784_2143,install,2.5,113.28.9.22,57F2C65A-E699-46D4-B166-1D97F75CAD6A,1557638171,2019-05-12 13:16:11,1557638209,2019-05-12 13:16:49,1557638240,B_820f9276eaa6d530-Nzg0Xy0xMzY3OTM4Ni0yNTAwLTI1MDAtMDUxMi0tMjE0Mw,http://pb.xyz.duunion.com/conv?tid=B_820f9276eaa6d530-Nzg0Xy0xMzY3OTM4Ni0yNTAwLTI1MDAtMDUxMi0tMjE0Mw&adv_sectkn=55dea06a643eb8a2d267a735fe2683bd&adv_name=appier-api&payout=2.5,idfa_57F2C65A-E699-46D4-B166-1D97F75CAD6A,en
kGwMzkNJS-yDZke3RuGdgQ,doglobal_api,784_2143,install,2.5,202.82.133.61,39F6C4E8-D204-42D1-8934-6BE1B2DCF29F,1557637098,2019-05-12 12:58:18,1557637135,2019-05-12 12:58:55,1557637166,P_ff4ceda43dacb6fb-Nzg0Xy0xMzY3OTM4Ni0yNTAwLTI1MDAtMDUxMi0tMjE0Mw,http://pb.xyz.duunion.com/conv?tid=P_ff4ceda43dacb6fb-Nzg0Xy0xMzY3OTM4Ni0yNTAwLTI1MDAtMDUxMi0tMjE0Mw&adv_sectkn=55dea06a643eb8a2d267a735fe2683bd&adv_name=appier-api&payout=2.5,idfa_39F6C4E8-D204-42D1-8934-6BE1B2DCF29F,en
kGwMzkNJS-yDZke3RuGdgQ,doglobal_api,784_2143,install,2.5,116.48.159.160,A28CFE4B-3613-41EF-A2D4-2E5BA00F9074,1557636760,2019-05-12 12:52:40,1557636796,2019-05-12 12:53:16,1557636827,P_dc639e2f18bdffe2-Nzg0Xy0xMzY3OTM4Ni0yNTAwLTI1MDAtMDUxMi0tMjE0Mw,http://pb.xyz.duunion.com/conv?tid=P_dc639e2f18bdffe2-Nzg0Xy0xMzY3OTM4Ni0yNTAwLTI1MDAtMDUxMi0tMjE0Mw&adv_sectkn=55dea06a643eb8a2d267a735fe2683bd&adv_name=appier-api&payout=2.5,idfa_A28CFE4B-3613-41EF-A2D4-2E5BA00F9074,en
kGwMzkNJS-yDZke3RuGdgQ,doglobal_api,784_2143,install,2.5,203.198.151.85,C6BBC81E-F44D-4106-9A7B-8BF4354A08F3,1557639108,2019-05-12 13:31:48,1557639143,2019-05-12 13:32:23,1557639174,B_4771ed327f69d133-Nzg0Xy0xMzY3OTM4Ni0yNTAwLTI1MDAtMDUxMi0tMjE0Mw,http://pb.xyz.duunion.com/conv?tid=B_4771ed327f69d133-Nzg0Xy0xMzY3OTM4Ni0yNTAwLTI1MDAtMDUxMi0tMjE0Mw&adv_sectkn=55dea06a643eb8a2d267a735fe2683bd&adv_name=appier-api&payout=2.5,idfa_C6BBC81E-F44D-4106-9A7B-8BF4354A08F3,en
kGwMzkNJS-yDZke3RuGdgQ,doglobal_api,784_2143,install,2.5,203.198.150.167,2300B6BA-DEDC-47FC-9D9A-61D58AD99B77,1557639371,2019-05-12 13:36:11,1557639411,2019-05-12 13:36:51,1557639442,B_26cffd8e82382cac-Nzg0Xy0xMzY3OTM4Ni0yNTAwLTI1MDAtMDUxMi0tMjE0Mw,http://pb.xyz.duunion.com/conv?tid=B_26cffd8e82382cac-Nzg0Xy0xMzY3OTM4Ni0yNTAwLTI1MDAtMDUxMi0tMjE0Mw&adv_sectkn=55dea06a643eb8a2d267a735fe2683bd&adv_name=appier-api&payout=2.5,idfa_2300B6BA-DEDC-47FC-9D9A-61D58AD99B77,en
kGwMzkNJS-yDZke3RuGdgQ,doglobal_api,784_2143,install,2.5,210.3.173.34,02FC5DC0-C513-423C-B88E-D5A935CAFDC2,1557638212,2019-05-12 13:16:52,1557638253,2019-05-12 13:17:33,1557638284,P_5958d45348f28264-Nzg0Xy0xMzY3OTM4Ni0yNTAwLTI1MDAtMDUxMi0tMjE0Mw,http://pb.xyz.duunion.com/conv?tid=P_5958d45348f28264-Nzg0Xy0xMzY3OTM4Ni0yNTAwLTI1MDAtMDUxMi0tMjE0Mw&adv_sectkn=55dea06a643eb8a2d267a735fe2683bd&adv_name=appier-api&payout=2.5,idfa_02FC5DC0-C513-423C-B88E-D5A935CAFDC2,en
kGwMzkNJS-yDZke3RuGdgQ,doglobal_api,784_2143,install,2.5,210.3.173.34,7C661C00-A99F-4111-8F05-39910F0B92ED,1557639050,2019-05-12 13:30:50,1557639088,2019-05-12 13:31:28,1557639119,P_25fe45206dd8d574-Nzg0Xy0xMzY3OTM4Ni0yNTAwLTI1MDAtMDUxMi0tMjE0Mw,http://pb.xyz.duunion.com/conv?tid=P_25fe45206dd8d574-Nzg0Xy0xMzY3OTM4Ni0yNTAwLTI1MDAtMDUxMi0tMjE0Mw&adv_sectkn=55dea06a643eb8a2d267a735fe2683bd&adv_name=appier-api&payout=2.5,idfa_7C661C00-A99F-4111-8F05-39910F0B92ED,en
kGwMzkNJS-yDZke3RuGdgQ,doglobal_api,784_2143,install,2.5,203.198.149.164,63AE6F1A-92BD-4FE5-BC6B-F3512B9F09D9,1557636824,2019-05-12 12:53:44,1557636860,2019-05-12 12:54:20,1557636891,B_20b3e0a18dfd7b1a-Nzg0Xy0xMzY3OTM4Ni0yNTAwLTI1MDAtMDUxMi0tMjE0Mw,http://pb.xyz.duunion.com/conv?tid=B_20b3e0a18dfd7b1a-Nzg0Xy0xMzY3OTM4Ni0yNTAwLTI1MDAtMDUxMi0tMjE0Mw&adv_sectkn=55dea06a643eb8a2d267a735fe2683bd&adv_name=appier-api&payout=2.5,idfa_63AE6F1A-92BD-4FE5-BC6B-F3512B9F09D9,en
kGwMzkNJS-yDZke3RuGdgQ,doglobal_api,784_2143,install,2.5,103.6.51.114,6773305F-0508-44EE-985B-96CE698667A1,1557637738,2019-05-12 13:08:58,1557637780,2019-05-12 13:09:40,1557637811,P_e6c9f71d92f8db3d-Nzg0Xy0xMzY3OTM4Ni0yNTAwLTI1MDAtMDUxMi0tMjE0Mw,http://pb.xyz.duunion.com/conv?tid=P_e6c9f71d92f8db3d-Nzg0Xy0xMzY3OTM4Ni0yNTAwLTI1MDAtMDUxMi0tMjE0Mw&adv_sectkn=55dea06a643eb8a2d267a735fe2683bd&adv_name=appier-api&payout=2.5,idfa_6773305F-0508-44EE-985B-96CE698667A1,en
kGwMzkNJS-yDZke3RuGdgQ,doglobal_api,784_2143,install,2.5,203.198.151.85,96A8B273-69BA-48BB-9865-8AA99FF624EC,1557548210,2019-05-11 12:16:50,1557548259,2019-05-11 12:17:39,1557548290,P_36695fccc68a87a4-Nzg0Xy0xMzY3OTM4Ni0yNTAwLTI1MDAtMDUxMS0tMjE0Mw,http://pb.xyz.duunion.com/conv?tid=P_36695fccc68a87a4-Nzg0Xy0xMzY3OTM4Ni0yNTAwLTI1MDAtMDUxMS0tMjE0Mw&adv_sectkn=55dea06a643eb8a2d267a735fe2683bd&adv_name=appier-api&payout=2.5,idfa_96A8B273-69BA-48BB-9865-8AA99FF624EC,en
kGwMzkNJS-yDZke3RuGdgQ,doglobal_api,784_2143,install,2.5,218.103.126.211,86E274FF-7F47-4326-A138-30A34C30A5D0,1557548885,2019-05-11 12:28:05,1557548931,2019-05-11 12:28:51,1557548962,B_726b95352e0cdec1-Nzg0Xy0xMzY3OTM4Ni0yNTAwLTI1MDAtMDUxMS0tMjE0Mw,http://pb.xyz.duunion.com/conv?tid=B_726b95352e0cdec1-Nzg0Xy0xMzY3OTM4Ni0yNTAwLTI1MDAtMDUxMS0tMjE0Mw&adv_sectkn=55dea06a643eb8a2d267a735fe2683bd&adv_name=appier-api&payout=2.5,idfa_86E274FF-7F47-4326-A138-30A34C30A5D0,en
kGwMzkNJS-yDZke3RuGdgQ,doglobal_api,784_2143,install,2.5,59.148.210.242,2AE99438-88C7-463B-9807-A5B6FC050C9C,1557637522,2019-05-12 13:05:22,1557637564,2019-05-12 13:06:04,1557637595,P_10ba415a16e20783-Nzg0Xy0xMzY3OTM4Ni0yNTAwLTI1MDAtMDUxMi0tMjE0Mw,http://pb.xyz.duunion.com/conv?tid=P_10ba415a16e20783-Nzg0Xy0xMzY3OTM4Ni0yNTAwLTI1MDAtMDUxMi0tMjE0Mw&adv_sectkn=55dea06a643eb8a2d267a735fe2683bd&adv_name=appier-api&payout=2.5,idfa_2AE99438-88C7-463B-9807-A5B6FC050C9C,en
kGwMzkNJS-yDZke3RuGdgQ,doglobal_api,784_2143,install,2.5,223.197.223.103,A5115278-B8A9-4C08-B9C4-E913BE277F7F,1557638012,2019-05-12 13:13:32,1557638053,2019-05-12 13:14:13,1557638085,P_d0790f1d4b04f1b1-Nzg0Xy0xMzY3OTM4Ni0yNTAwLTI1MDAtMDUxMi0tMjE0Mw,http://pb.xyz.duunion.com/conv?tid=P_d0790f1d4b04f1b1-Nzg0Xy0xMzY3OTM4Ni0yNTAwLTI1MDAtMDUxMi0tMjE0Mw&adv_sectkn=55dea06a643eb8a2d267a735fe2683bd&adv_name=appier-api&payout=2.5,idfa_A5115278-B8A9-4C08-B9C4-E913BE277F7F,en
kGwMzkNJS-yDZke3RuGdgQ,doglobal_api,784_2143,install,2.5,203.186.69.214,5FE77B7B-74C3-4A0D-AB21-078BD410AAF5,1557636001,2019-05-12 12:40:01,1557636041,2019-05-12 12:40:41,1557636072,P_528dc68d447eb4bf-Nzg0Xy0xMzY3OTM4Ni0yNTAwLTI1MDAtMDUxMi0tMjE0Mw,http://pb.xyz.duunion.com/conv?tid=P_528dc68d447eb4bf-Nzg0Xy0xMzY3OTM4Ni0yNTAwLTI1MDAtMDUxMi0tMjE0Mw&adv_sectkn=55dea06a643eb8a2d267a735fe2683bd&adv_name=appier-api&payout=2.5,idfa_5FE77B7B-74C3-4A0D-AB21-078BD410AAF5,en
kGwMzkNJS-yDZke3RuGdgQ,doglobal_api,784_2143,install,2.5,42.200.215.124,40DC84D9-1273-44CD-B7A0-63C2ECC97675,1557636320,2019-05-12 12:45:20,1557636357,2019-05-12 12:45:57,1557636388,P_8ce09362dda74ab8-Nzg0Xy0xMzY3OTM4Ni0yNTAwLTI1MDAtMDUxMi0tMjE0Mw,http://pb.xyz.duunion.com/conv?tid=P_8ce09362dda74ab8-Nzg0Xy0xMzY3OTM4Ni0yNTAwLTI1MDAtMDUxMi0tMjE0Mw&adv_sectkn=55dea06a643eb8a2d267a735fe2683bd&adv_name=appier-api&payout=2.5,idfa_40DC84D9-1273-44CD-B7A0-63C2ECC97675,en
kGwMzkNJS-yDZke3RuGdgQ,doglobal_api,784_2143,install,2.5,218.255.189.26,5C0AD5CE-B35A-4EB2-8880-792B9EF78443,1557639332,2019-05-12 13:35:32,1557639383,2019-05-12 13:36:23,1557639414,B_21e03d01cb51b5af-Nzg0Xy0xMzY3OTM4Ni0yNTAwLTI1MDAtMDUxMi0tMjE0Mw,http://pb.xyz.duunion.com/conv?tid=B_21e03d01cb51b5af-Nzg0Xy0xMzY3OTM4Ni0yNTAwLTI1MDAtMDUxMi0tMjE0Mw&adv_sectkn=55dea06a643eb8a2d267a735fe2683bd&adv_name=appier-api&payout=2.5,idfa_5C0AD5CE-B35A-4EB2-8880-792B9EF78443,en
kGwMzkNJS-yDZke3RuGdgQ,doglobal_api,784_2143,install,2.5,203.186.69.214,8E3541CD-9E46-4FF3-BC94-46614E1AE989,1557635923,2019-05-12 12:38:43,1557635960,2019-05-12 12:39:20,1557635991,P_c8a78a6be46a8903-Nzg0Xy0xMzY3OTM4Ni0yNTAwLTI1MDAtMDUxMi0tMjE0Mw,http://pb.xyz.duunion.com/conv?tid=P_c8a78a6be46a8903-Nzg0Xy0xMzY3OTM4Ni0yNTAwLTI1MDAtMDUxMi0tMjE0Mw&adv_sectkn=55dea06a643eb8a2d267a735fe2683bd&adv_name=appier-api&payout=2.5,idfa_8E3541CD-9E46-4FF3-BC94-46614E1AE989,en
kGwMzkNJS-yDZke3RuGdgQ,doglobal_api,784_2143,install,2.5,223.197.223.219,DBB7BAF5-2F26-42C3-83E3-2F6DBCA92DD5,1557638474,2019-05-12 13:21:14,1557638513,2019-05-12 13:21:53,1557638544,P_e8fad75379334d38-Nzg0Xy0xMzY3OTM4Ni0yNTAwLTI1MDAtMDUxMi0tMjE0Mw,http://pb.xyz.duunion.com/conv?tid=P_e8fad75379334d38-Nzg0Xy0xMzY3OTM4Ni0yNTAwLTI1MDAtMDUxMi0tMjE0Mw&adv_sectkn=55dea06a643eb8a2d267a735fe2683bd&adv_name=appier-api&payout=2.5,idfa_DBB7BAF5-2F26-42C3-83E3-2F6DBCA92DD5,en
kGwMzkNJS-yDZke3RuGdgQ,doglobal_api,784_2143,install,2.5,203.198.163.73,CF7BDE57-C1BA-45CB-898C-E228E4AD9E89,1557548650,2019-05-11 12:24:10,1557550913,2019-05-11 13:01:53,1557550943,P_79484bb1e7b4ac7c-Nzg0Xy0xMzY3OTM4Ni0yNTAwLTI1MDAtMDUxMS0tMjE0Mw,http://pb.xyz.duunion.com/conv?tid=P_79484bb1e7b4ac7c-Nzg0Xy0xMzY3OTM4Ni0yNTAwLTI1MDAtMDUxMS0tMjE0Mw&adv_sectkn=55dea06a643eb8a2d267a735fe2683bd&adv_name=appier-api&payout=2.5,idfa_CF7BDE57-C1BA-45CB-898C-E228E4AD9E89,en
kGwMzkNJS-yDZke3RuGdgQ,doglobal_api,784_2143,install,2.5,223.197.142.122,75681E42-36A6-4F8C-BFDB-9C30005D7EFF,1557548380,2019-05-11 12:19:40,1557548424,2019-05-11 12:20:24,1557548455,P_6f82205a6ed6176d-Nzg0Xy0xMzY3OTM4Ni0yNTAwLTI1MDAtMDUxMS0tMjE0Mw,http://pb.xyz.duunion.com/conv?tid=P_6f82205a6ed6176d-Nzg0Xy0xMzY3OTM4Ni0yNTAwLTI1MDAtMDUxMS0tMjE0Mw&adv_sectkn=55dea06a643eb8a2d267a735fe2683bd&adv_name=appier-api&payout=2.5,idfa_75681E42-36A6-4F8C-BFDB-9C30005D7EFF,en
