cid,partner_id,channel_id,action_id,cpi,ip,idfa,click time,click datetime,install time,install datetime,postback time,click id,postback url,unique user id
gB2rEoreS86CA92_hptj0w,doglobal_api,784_4699,install,5.0,121.6.185.5,E909ED1C-40E9-4F9D-AEA8-75EC0CCA89E4,1557925177,2019-05-15 20:59:37,1557925234,2019-05-15 21:00:34,1557925265,P_ee4cfac5eb3b4eca-Nzg0Xy0xMzM3MzY0OS01MDAwLTUwMDAtMDUxNS0tNDY5OQ,http://pb.xyz.duunion.com/conv?tid=P_ee4cfac5eb3b4eca-Nzg0Xy0xMzM3MzY0OS01MDAwLTUwMDAtMDUxNS0tNDY5OQ&adv_sectkn=55dea06a643eb8a2d267a735fe2683bd&adv_name=appier-api&payout=5.0,idfa_E909ED1C-40E9-4F9D-AEA8-75EC0CCA89E4,vi
gB2rEoreS86CA92_hptj0w,doglobal_api,784_4699,install,5.0,58.182.43.82,DE1A9BB2-EF65-41CD-BE54-418921541AFE,1557924423,2019-05-15 20:47:03,1557924469,2019-05-15 20:47:49,1557924499,P_30def26e0910c6ba-Nzg0Xy0xMzM3MzY0OS01MDAwLTUwMDAtMDUxNS0tNDY5OQ,http://pb.xyz.duunion.com/conv?tid=P_30def26e0910c6ba-Nzg0Xy0xMzM3MzY0OS01MDAwLTUwMDAtMDUxNS0tNDY5OQ&adv_sectkn=55dea06a643eb8a2d267a735fe2683bd&adv_name=appier-api&payout=5.0,idfa_DE1A9BB2-EF65-41CD-BE54-418921541AFE,zh
gB2rEoreS86CA92_hptj0w,doglobal_api,784_4699,install,5.0,138.75.148.12,9F21B6E1-0A6D-4E7E-871A-7462CFE17949,1557925063,2019-05-15 20:57:43,1557925111,2019-05-15 20:58:31,1557925141,P_26546d9cfe7fcaae-Nzg0Xy0xMzM3MzY0OS01MDAwLTUwMDAtMDUxNS0tNDY5OQ,http://pb.xyz.duunion.com/conv?tid=P_26546d9cfe7fcaae-Nzg0Xy0xMzM3MzY0OS01MDAwLTUwMDAtMDUxNS0tNDY5OQ&adv_sectkn=55dea06a643eb8a2d267a735fe2683bd&adv_name=appier-api&payout=5.0,idfa_9F21B6E1-0A6D-4E7E-871A-7462CFE17949,zh
gB2rEoreS86CA92_hptj0w,doglobal_api,784_4699,install,5.0,121.6.7.133,0F492196-E835-4B50-8906-D84C87817E31,1557924584,2019-05-15 20:49:44,1557924631,2019-05-15 20:50:31,1557924661,P_9f241e1a1e948ea1-Nzg0Xy0xMzM3MzY0OS01MDAwLTUwMDAtMDUxNS0tNDY5OQ,http://pb.xyz.duunion.com/conv?tid=P_9f241e1a1e948ea1-Nzg0Xy0xMzM3MzY0OS01MDAwLTUwMDAtMDUxNS0tNDY5OQ&adv_sectkn=55dea06a643eb8a2d267a735fe2683bd&adv_name=appier-api&payout=5.0,idfa_0F492196-E835-4B50-8906-D84C87817E31,zh
gB2rEoreS86CA92_hptj0w,doglobal_api,784_4699,install,5.0,219.75.55.95,3CFE5A23-184E-4DE6-9767-94607132F4A7,1557924482,2019-05-15 20:48:02,1557924535,2019-05-15 20:48:55,1557924566,P_9bacd915d8088264-Nzg0Xy0xMzM3MzY0OS01MDAwLTUwMDAtMDUxNS0tNDY5OQ,http://pb.xyz.duunion.com/conv?tid=P_9bacd915d8088264-Nzg0Xy0xMzM3MzY0OS01MDAwLTUwMDAtMDUxNS0tNDY5OQ&adv_sectkn=55dea06a643eb8a2d267a735fe2683bd&adv_name=appier-api&payout=5.0,idfa_3CFE5A23-184E-4DE6-9767-94607132F4A7,vi
gB2rEoreS86CA92_hptj0w,doglobal_api,784_4699,install,5.0,101.127.18.161,E81429DA-68E6-4029-8E78-9B6410776CC4,1557925134,2019-05-15 20:58:54,1557925165,2019-05-15 20:59:25,1557925196,P_0c21cf2ff49f662e-Nzg0Xy0xMzM3MzY0OS01MDAwLTUwMDAtMDUxNS0tNDY5OQ,http://pb.xyz.duunion.com/conv?tid=P_0c21cf2ff49f662e-Nzg0Xy0xMzM3MzY0OS01MDAwLTUwMDAtMDUxNS0tNDY5OQ&adv_sectkn=55dea06a643eb8a2d267a735fe2683bd&adv_name=appier-api&payout=5.0,idfa_E81429DA-68E6-4029-8E78-9B6410776CC4,zh
gB2rEoreS86CA92_hptj0w,doglobal_api,784_4699,install,5.0,116.87.131.85,6EFD3871-B1E5-46D5-A4F8-E4A487953F1D,1557924227,2019-05-15 20:43:47,1557924267,2019-05-15 20:44:27,1557924298,P_2798d2400af73dc8-Nzg0Xy0xMzM3MzY0OS01MDAwLTUwMDAtMDUxNS0tNDY5OQ,http://pb.xyz.duunion.com/conv?tid=P_2798d2400af73dc8-Nzg0Xy0xMzM3MzY0OS01MDAwLTUwMDAtMDUxNS0tNDY5OQ&adv_sectkn=55dea06a643eb8a2d267a735fe2683bd&adv_name=appier-api&payout=5.0,idfa_6EFD3871-B1E5-46D5-A4F8-E4A487953F1D,zh
gB2rEoreS86CA92_hptj0w,doglobal_api,784_4699,install,5.0,103.252.202.28,D1C79255-BEC0-4E74-9308-B8D804E39CC2,1557924620,2019-05-15 20:50:20,1557924679,2019-05-15 20:51:19,1557924709,B_ce13432f85f02424-Nzg0Xy0xMzM3MzY0OS01MDAwLTUwMDAtMDUxNS0tNDY5OQ,http://pb.xyz.duunion.com/conv?tid=B_ce13432f85f02424-Nzg0Xy0xMzM3MzY0OS01MDAwLTUwMDAtMDUxNS0tNDY5OQ&adv_sectkn=55dea06a643eb8a2d267a735fe2683bd&adv_name=appier-api&payout=5.0,idfa_D1C79255-BEC0-4E74-9308-B8D804E39CC2,vi
gB2rEoreS86CA92_hptj0w,doglobal_api,784_4699,install,5.0,116.14.44.106,27C6367A-474D-4205-B47F-C1849191477B,1557923791,2019-05-15 20:36:31,1557923830,2019-05-15 20:37:10,1557923861,B_f8985aa41c10c057-Nzg0Xy0xMzM3MzY0OS01MDAwLTUwMDAtMDUxNS0tNDY5OQ,http://pb.xyz.duunion.com/conv?tid=B_f8985aa41c10c057-Nzg0Xy0xMzM3MzY0OS01MDAwLTUwMDAtMDUxNS0tNDY5OQ&adv_sectkn=55dea06a643eb8a2d267a735fe2683bd&adv_name=appier-api&payout=5.0,idfa_27C6367A-474D-4205-B47F-C1849191477B,en
gB2rEoreS86CA92_hptj0w,doglobal_api,784_4699,install,5.0,116.86.2.155,93ED7EB1-2A73-41AB-8A6E-2CA9C8E9B3E9,1557923834,2019-05-15 20:37:14,1557923881,2019-05-15 20:38:01,1557923912,B_125d98b768bd9444-Nzg0Xy0xMzM3MzY0OS01MDAwLTUwMDAtMDUxNS0tNDY5OQ,http://pb.xyz.duunion.com/conv?tid=B_125d98b768bd9444-Nzg0Xy0xMzM3MzY0OS01MDAwLTUwMDAtMDUxNS0tNDY5OQ&adv_sectkn=55dea06a643eb8a2d267a735fe2683bd&adv_name=appier-api&payout=5.0,idfa_93ED7EB1-2A73-41AB-8A6E-2CA9C8E9B3E9,zh
gB2rEoreS86CA92_hptj0w,doglobal_api,784_4699,install,5.0,202.166.80.58,84E9118C-39ED-407C-B6E0-8BCA7E69950A,1557924812,2019-05-15 20:53:32,1557924868,2019-05-15 20:54:28,1557924898,P_a6de7a575eb25771-Nzg0Xy0xMzM3MzY0OS01MDAwLTUwMDAtMDUxNS0tNDY5OQ,http://pb.xyz.duunion.com/conv?tid=P_a6de7a575eb25771-Nzg0Xy0xMzM3MzY0OS01MDAwLTUwMDAtMDUxNS0tNDY5OQ&adv_sectkn=55dea06a643eb8a2d267a735fe2683bd&adv_name=appier-api&payout=5.0,idfa_84E9118C-39ED-407C-B6E0-8BCA7E69950A,vi
gB2rEoreS86CA92_hptj0w,doglobal_api,784_4699,install,5.0,122.11.163.28,1A6CC84C-7C32-4A9E-96FA-311804284320,1557921815,2019-05-15 20:03:35,1557921852,2019-05-15 20:04:12,1557921883,P_bfbdc52280ddaaeb-Nzg0Xy0xMzM3MzY0OS01MDAwLTUwMDAtMDUxNS0tNDY5OQ,http://pb.xyz.duunion.com/conv?tid=P_bfbdc52280ddaaeb-Nzg0Xy0xMzM3MzY0OS01MDAwLTUwMDAtMDUxNS0tNDY5OQ&adv_sectkn=55dea06a643eb8a2d267a735fe2683bd&adv_name=appier-api&payout=5.0,idfa_1A6CC84C-7C32-4A9E-96FA-311804284320,zh
gB2rEoreS86CA92_hptj0w,doglobal_api,784_4699,install,5.0,119.56.110.106,C31D2D4A-63AF-4F82-BA29-0C79A6FB02A1,1557922639,2019-05-15 20:17:19,1557922679,2019-05-15 20:17:59,1557922710,P_12a8fb6fa423a24d-Nzg0Xy0xMzM3MzY0OS01MDAwLTUwMDAtMDUxNS0tNDY5OQ,http://pb.xyz.duunion.com/conv?tid=P_12a8fb6fa423a24d-Nzg0Xy0xMzM3MzY0OS01MDAwLTUwMDAtMDUxNS0tNDY5OQ&adv_sectkn=55dea06a643eb8a2d267a735fe2683bd&adv_name=appier-api&payout=5.0,idfa_C31D2D4A-63AF-4F82-BA29-0C79A6FB02A1,zh
gB2rEoreS86CA92_hptj0w,doglobal_api,784_4699,install,5.0,116.14.42.69,EEBCF202-FCD2-4671-AEAA-17917577B500,1557922335,2019-05-15 20:12:15,1557922383,2019-05-15 20:13:03,1557922413,B_da4097d8fbbd9644-Nzg0Xy0xMzM3MzY0OS01MDAwLTUwMDAtMDUxNS0tNDY5OQ,http://pb.xyz.duunion.com/conv?tid=B_da4097d8fbbd9644-Nzg0Xy0xMzM3MzY0OS01MDAwLTUwMDAtMDUxNS0tNDY5OQ&adv_sectkn=55dea06a643eb8a2d267a735fe2683bd&adv_name=appier-api&payout=5.0,idfa_EEBCF202-FCD2-4671-AEAA-17917577B500,zh
gB2rEoreS86CA92_hptj0w,doglobal_api,784_4699,install,5.0,116.87.9.221,8169AB30-21FF-49CC-9F06-B81511E7AC97,1557924060,2019-05-15 20:41:00,1557924140,2019-05-15 20:42:20,1557924170,B_5a3fefd5ee60a1f8-Nzg0Xy0xMzM3MzY0OS01MDAwLTUwMDAtMDUxNS0tNDY5OQ,http://pb.xyz.duunion.com/conv?tid=B_5a3fefd5ee60a1f8-Nzg0Xy0xMzM3MzY0OS01MDAwLTUwMDAtMDUxNS0tNDY5OQ&adv_sectkn=55dea06a643eb8a2d267a735fe2683bd&adv_name=appier-api&payout=5.0,idfa_8169AB30-21FF-49CC-9F06-B81511E7AC97,vi
gB2rEoreS86CA92_hptj0w,doglobal_api,784_4699,install,5.0,115.66.186.229,58608AA7-46EA-4D67-8D85-83A7DA809B24,1557924248,2019-05-15 20:44:08,1557924297,2019-05-15 20:44:57,1557924327,P_eeb30e4be41e63ca-Nzg0Xy0xMzM3MzY0OS01MDAwLTUwMDAtMDUxNS0tNDY5OQ,http://pb.xyz.duunion.com/conv?tid=P_eeb30e4be41e63ca-Nzg0Xy0xMzM3MzY0OS01MDAwLTUwMDAtMDUxNS0tNDY5OQ&adv_sectkn=55dea06a643eb8a2d267a735fe2683bd&adv_name=appier-api&payout=5.0,idfa_58608AA7-46EA-4D67-8D85-83A7DA809B24,vi
gB2rEoreS86CA92_hptj0w,doglobal_api,784_4699,install,5.0,138.75.148.12,56DB25F0-F957-4D15-BCAE-B045BC684483,1557923859,2019-05-15 20:37:39,1557923925,2019-05-15 20:38:45,1557923955,P_44de13a788bc9a92-Nzg0Xy0xMzM3MzY0OS01MDAwLTUwMDAtMDUxNS0tNDY5OQ,http://pb.xyz.duunion.com/conv?tid=P_44de13a788bc9a92-Nzg0Xy0xMzM3MzY0OS01MDAwLTUwMDAtMDUxNS0tNDY5OQ&adv_sectkn=55dea06a643eb8a2d267a735fe2683bd&adv_name=appier-api&payout=5.0,idfa_56DB25F0-F957-4D15-BCAE-B045BC684483,vi
gB2rEoreS86CA92_hptj0w,doglobal_api,784_4699,install,5.0,58.182.43.82,D93DBAF7-92C2-498D-9999-01AC26F80FFD,1557923206,2019-05-15 20:26:46,1557923249,2019-05-15 20:27:29,1557923280,P_78edbd36e6bb5f58-Nzg0Xy0xMzM3MzY0OS01MDAwLTUwMDAtMDUxNS0tNDY5OQ,http://pb.xyz.duunion.com/conv?tid=P_78edbd36e6bb5f58-Nzg0Xy0xMzM3MzY0OS01MDAwLTUwMDAtMDUxNS0tNDY5OQ&adv_sectkn=55dea06a643eb8a2d267a735fe2683bd&adv_name=appier-api&payout=5.0,idfa_D93DBAF7-92C2-498D-9999-01AC26F80FFD,zh
gB2rEoreS86CA92_hptj0w,doglobal_api,784_4699,install,5.0,101.127.167.35,21C345A0-5E6E-4BD6-B84F-40C0EC3A5ED4,1557924596,2019-05-15 20:49:56,1557924645,2019-05-15 20:50:45,1557924675,P_bb9ae1b641bd65bd-Nzg0Xy0xMzM3MzY0OS01MDAwLTUwMDAtMDUxNS0tNDY5OQ,http://pb.xyz.duunion.com/conv?tid=P_bb9ae1b641bd65bd-Nzg0Xy0xMzM3MzY0OS01MDAwLTUwMDAtMDUxNS0tNDY5OQ&adv_sectkn=55dea06a643eb8a2d267a735fe2683bd&adv_name=appier-api&payout=5.0,idfa_21C345A0-5E6E-4BD6-B84F-40C0EC3A5ED4,vi
gB2rEoreS86CA92_hptj0w,doglobal_api,784_4699,install,5.0,101.100.169.182,EA47F6FD-65E9-4DB5-88D8-04956E76B3D3,1557919873,2019-05-15 19:31:13,1557920040,2019-05-15 19:34:00,1557920071,P_b5f3c8c3a71b2640-Nzg0Xy0xMzM3MzY0OS01MDAwLTUwMDAtMDUxNS0tNDY5OQ,http://pb.xyz.duunion.com/conv?tid=P_b5f3c8c3a71b2640-Nzg0Xy0xMzM3MzY0OS01MDAwLTUwMDAtMDUxNS0tNDY5OQ&adv_sectkn=55dea06a643eb8a2d267a735fe2683bd&adv_name=appier-api&payout=5.0,idfa_EA47F6FD-65E9-4DB5-88D8-04956E76B3D3,zh
gB2rEoreS86CA92_hptj0w,doglobal_api,784_4699,install,5.0,116.86.60.218,49A577F4-AEBE-4E64-89F2-EDB14E08B3F3,1557924753,2019-05-15 20:52:33,1557924796,2019-05-15 20:53:16,1557924827,B_f8177e697e4442d0-Nzg0Xy0xMzM3MzY0OS01MDAwLTUwMDAtMDUxNS0tNDY5OQ,http://pb.xyz.duunion.com/conv?tid=B_f8177e697e4442d0-Nzg0Xy0xMzM3MzY0OS01MDAwLTUwMDAtMDUxNS0tNDY5OQ&adv_sectkn=55dea06a643eb8a2d267a735fe2683bd&adv_name=appier-api&payout=5.0,idfa_49A577F4-AEBE-4E64-89F2-EDB14E08B3F3,zh
gB2rEoreS86CA92_hptj0w,doglobal_api,784_4699,install,5.0,58.182.53.180,868B69DA-4680-4B98-9ADA-4F9A0DB0C414,1557925153,2019-05-15 20:59:13,1557925195,2019-05-15 20:59:55,1557925227,B_c26fe51b833a78a4-Nzg0Xy0xMzM3MzY0OS01MDAwLTUwMDAtMDUxNS0tNDY5OQ,http://pb.xyz.duunion.com/conv?tid=B_c26fe51b833a78a4-Nzg0Xy0xMzM3MzY0OS01MDAwLTUwMDAtMDUxNS0tNDY5OQ&adv_sectkn=55dea06a643eb8a2d267a735fe2683bd&adv_name=appier-api&payout=5.0,idfa_868B69DA-4680-4B98-9ADA-4F9A0DB0C414,zh
gB2rEoreS86CA92_hptj0w,doglobal_api,784_4699,install,5.0,116.14.44.106,E79F8508-B341-46A8-83AA-819E2F93F3E5,1557921440,2019-05-15 19:57:20,1557921481,2019-05-15 19:58:01,1557921511,P_d605b22c3b085baa-Nzg0Xy0xMzM3MzY0OS01MDAwLTUwMDAtMDUxNS0tNDY5OQ,http://pb.xyz.duunion.com/conv?tid=P_d605b22c3b085baa-Nzg0Xy0xMzM3MzY0OS01MDAwLTUwMDAtMDUxNS0tNDY5OQ&adv_sectkn=55dea06a643eb8a2d267a735fe2683bd&adv_name=appier-api&payout=5.0,idfa_E79F8508-B341-46A8-83AA-819E2F93F3E5,zh
gB2rEoreS86CA92_hptj0w,doglobal_api,784_4699,install,5.0,121.7.8.50,F57FCA58-4D57-4E39-9F93-48ADBEB6B909,1557924160,2019-05-15 20:42:40,1557924200,2019-05-15 20:43:20,1557924231,B_400e627d9c07e22f-Nzg0Xy0xMzM3MzY0OS01MDAwLTUwMDAtMDUxNS0tNDY5OQ,http://pb.xyz.duunion.com/conv?tid=B_400e627d9c07e22f-Nzg0Xy0xMzM3MzY0OS01MDAwLTUwMDAtMDUxNS0tNDY5OQ&adv_sectkn=55dea06a643eb8a2d267a735fe2683bd&adv_name=appier-api&payout=5.0,idfa_F57FCA58-4D57-4E39-9F93-48ADBEB6B909,zh
gB2rEoreS86CA92_hptj0w,doglobal_api,784_4699,install,5.0,42.60.169.62,8C8CE99A-8B32-4F1F-AB6A-4F0F34D8CA7E,1557923960,2019-05-15 20:39:20,1557923999,2019-05-15 20:39:59,1557924029,P_93579d380e25ae3b-Nzg0Xy0xMzM3MzY0OS01MDAwLTUwMDAtMDUxNS0tNDY5OQ,http://pb.xyz.duunion.com/conv?tid=P_93579d380e25ae3b-Nzg0Xy0xMzM3MzY0OS01MDAwLTUwMDAtMDUxNS0tNDY5OQ&adv_sectkn=55dea06a643eb8a2d267a735fe2683bd&adv_name=appier-api&payout=5.0,idfa_8C8CE99A-8B32-4F1F-AB6A-4F0F34D8CA7E,zh
gB2rEoreS86CA92_hptj0w,doglobal_api,784_4699,install,5.0,103.252.202.28,89FF04DF-EEB3-422A-9A9B-5EA14F14A08F,1557924437,2019-05-15 20:47:17,1557924500,2019-05-15 20:48:20,1557924530,B_ea938e663e5854b3-Nzg0Xy0xMzM3MzY0OS01MDAwLTUwMDAtMDUxNS0tNDY5OQ,http://pb.xyz.duunion.com/conv?tid=B_ea938e663e5854b3-Nzg0Xy0xMzM3MzY0OS01MDAwLTUwMDAtMDUxNS0tNDY5OQ&adv_sectkn=55dea06a643eb8a2d267a735fe2683bd&adv_name=appier-api&payout=5.0,idfa_89FF04DF-EEB3-422A-9A9B-5EA14F14A08F,vi
gB2rEoreS86CA92_hptj0w,doglobal_api,784_4699,install,5.0,42.60.211.147,EE15216F-D5B8-483F-ACFC-4F1B8497DC3D,1557924882,2019-05-15 20:54:42,1557924938,2019-05-15 20:55:38,1557924968,B_f8410493ded0fe35-Nzg0Xy0xMzM3MzY0OS01MDAwLTUwMDAtMDUxNS0tNDY5OQ,http://pb.xyz.duunion.com/conv?tid=B_f8410493ded0fe35-Nzg0Xy0xMzM3MzY0OS01MDAwLTUwMDAtMDUxNS0tNDY5OQ&adv_sectkn=55dea06a643eb8a2d267a735fe2683bd&adv_name=appier-api&payout=5.0,idfa_EE15216F-D5B8-483F-ACFC-4F1B8497DC3D,vi
gB2rEoreS86CA92_hptj0w,doglobal_api,784_4699,install,5.0,116.89.26.125,BA6A9975-65BE-409A-826B-09C45C157BAC,1557924274,2019-05-15 20:44:34,1557924355,2019-05-15 20:45:55,1557924385,B_b18962827b83883e-Nzg0Xy0xMzM3MzY0OS01MDAwLTUwMDAtMDUxNS0tNDY5OQ,http://pb.xyz.duunion.com/conv?tid=B_b18962827b83883e-Nzg0Xy0xMzM3MzY0OS01MDAwLTUwMDAtMDUxNS0tNDY5OQ&adv_sectkn=55dea06a643eb8a2d267a735fe2683bd&adv_name=appier-api&payout=5.0,idfa_BA6A9975-65BE-409A-826B-09C45C157BAC,vi
gB2rEoreS86CA92_hptj0w,doglobal_api,784_4699,install,5.0,180.129.22.91,67CE829C-49EC-4C11-A971-BB55F8E1016D,1557924820,2019-05-15 20:53:40,1557924880,2019-05-15 20:54:40,1557924910,B_6e7e74ac5d41ee67-Nzg0Xy0xMzM3MzY0OS01MDAwLTUwMDAtMDUxNS0tNDY5OQ,http://pb.xyz.duunion.com/conv?tid=B_6e7e74ac5d41ee67-Nzg0Xy0xMzM3MzY0OS01MDAwLTUwMDAtMDUxNS0tNDY5OQ&adv_sectkn=55dea06a643eb8a2d267a735fe2683bd&adv_name=appier-api&payout=5.0,idfa_67CE829C-49EC-4C11-A971-BB55F8E1016D,vi
gB2rEoreS86CA92_hptj0w,doglobal_api,784_4699,install,5.0,182.55.154.243,EDA57027-FB4F-4940-8A27-A11B0D876572,1557924616,2019-05-15 20:50:16,1557924671,2019-05-15 20:51:11,1557924701,P_1776a5bbd391c13e-Nzg0Xy0xMzM3MzY0OS01MDAwLTUwMDAtMDUxNS0tNDY5OQ,http://pb.xyz.duunion.com/conv?tid=P_1776a5bbd391c13e-Nzg0Xy0xMzM3MzY0OS01MDAwLTUwMDAtMDUxNS0tNDY5OQ&adv_sectkn=55dea06a643eb8a2d267a735fe2683bd&adv_name=appier-api&payout=5.0,idfa_EDA57027-FB4F-4940-8A27-A11B0D876572,vi
gB2rEoreS86CA92_hptj0w,doglobal_api,784_4699,install,5.0,218.212.147.155,,1557924904,2019-05-15 20:55:04,1557924960,2019-05-15 20:56:00,1557924990,B_8932f1ff075368a6-Nzg0Xy0xMzM3MzY0OS01MDAwLTUwMDAtMDUxNS0tNDY5OQ,http://pb.xyz.duunion.com/conv?tid=B_8932f1ff075368a6-Nzg0Xy0xMzM3MzY0OS01MDAwLTUwMDAtMDUxNS0tNDY5OQ&adv_sectkn=55dea06a643eb8a2d267a735fe2683bd&adv_name=appier-api&payout=5.0,ip_218.212.147.155,vi
gB2rEoreS86CA92_hptj0w,doglobal_api,784_4699,install,5.0,115.66.186.229,3068AB65-5897-4B4C-9215-4B668AADBC33,1557923559,2019-05-15 20:32:39,1557923609,2019-05-15 20:33:29,1557923639,B_c3a9e6241a33041d-Nzg0Xy0xMzM3MzY0OS01MDAwLTUwMDAtMDUxNS0tNDY5OQ,http://pb.xyz.duunion.com/conv?tid=B_c3a9e6241a33041d-Nzg0Xy0xMzM3MzY0OS01MDAwLTUwMDAtMDUxNS0tNDY5OQ&adv_sectkn=55dea06a643eb8a2d267a735fe2683bd&adv_name=appier-api&payout=5.0,idfa_3068AB65-5897-4B4C-9215-4B668AADBC33,zh
gB2rEoreS86CA92_hptj0w,doglobal_api,784_4699,install,5.0,116.86.60.218,BEE81E65-62BF-47F2-ABF4-F17DAE5FD237,1557924878,2019-05-15 20:54:38,1557924916,2019-05-15 20:55:16,1557924946,P_e3446cec6a034184-Nzg0Xy0xMzM3MzY0OS01MDAwLTUwMDAtMDUxNS0tNDY5OQ,http://pb.xyz.duunion.com/conv?tid=P_e3446cec6a034184-Nzg0Xy0xMzM3MzY0OS01MDAwLTUwMDAtMDUxNS0tNDY5OQ&adv_sectkn=55dea06a643eb8a2d267a735fe2683bd&adv_name=appier-api&payout=5.0,idfa_BEE81E65-62BF-47F2-ABF4-F17DAE5FD237,zh
gB2rEoreS86CA92_hptj0w,doglobal_api,784_4699,install,5.0,49.245.101.214,DFF92FC4-BF3F-4679-9729-9D07FA0DA1EE,1557922929,2019-05-15 20:22:09,1557922975,2019-05-15 20:22:55,1557923006,P_db53ed50a4f4aee4-Nzg0Xy0xMzM3MzY0OS01MDAwLTUwMDAtMDUxNS0tNDY5OQ,http://pb.xyz.duunion.com/conv?tid=P_db53ed50a4f4aee4-Nzg0Xy0xMzM3MzY0OS01MDAwLTUwMDAtMDUxNS0tNDY5OQ&adv_sectkn=55dea06a643eb8a2d267a735fe2683bd&adv_name=appier-api&payout=5.0,idfa_DFF92FC4-BF3F-4679-9729-9D07FA0DA1EE,zh
gB2rEoreS86CA92_hptj0w,doglobal_api,784_4699,install,5.0,138.75.15.47,774FAFBD-CC32-41E3-B190-79D066010B0F,1557923687,2019-05-15 20:34:47,1557923727,2019-05-15 20:35:27,1557923757,P_e289ad957ade2998-Nzg0Xy0xMzM3MzY0OS01MDAwLTUwMDAtMDUxNS0tNDY5OQ,http://pb.xyz.duunion.com/conv?tid=P_e289ad957ade2998-Nzg0Xy0xMzM3MzY0OS01MDAwLTUwMDAtMDUxNS0tNDY5OQ&adv_sectkn=55dea06a643eb8a2d267a735fe2683bd&adv_name=appier-api&payout=5.0,idfa_774FAFBD-CC32-41E3-B190-79D066010B0F,zh
