cid,partner_id,channel_id,action_id,cpi,ip,idfa,click time,click datetime,install time,install datetime,postback time,click id,postback url,unique user id
c2ZylcWzT5WnJA6P_CLhGw,doglobal_api,1391_543646_104964983109,install,4.0,180.20.168.168,25AFB5C4-832F-45A5-8B69-1B14F09FBE8A,1557536530,2019-05-11 09:02:10,1557537492,2019-05-11 09:18:12,1557537522,B_bce51ac56c49334c-OTIwXzEzOTEtMTM1NDE4NDEtNDAwMC00NDAwLTA1MTEtNTQzNjQ2XzEwNDk2NDk4MzEwOS0,http://pb.xyz.duunion.com/conv?tid=B_bce51ac56c49334c-OTIwXzEzOTEtMTM1NDE4NDEtNDAwMC00NDAwLTA1MTEtNTQzNjQ2XzEwNDk2NDk4MzEwOS0&adv_sectkn=55dea06a643eb8a2d267a735fe2683bd&adv_name=appier-api&payout=4.0,idfa_25AFB5C4-832F-45A5-8B69-1B14F09FBE8A,ja
c2ZylcWzT5WnJA6P_CLhGw,doglobal_api,1391_543646_104964983109,install,4.0,157.107.33.157,5204F703-5770-49D3-B9C3-D82B8719F79E,1557623907,2019-05-12 09:18:27,1557624815,2019-05-12 09:33:35,1557624846,B_5da2c06caeb5d70a-OTIwXzEzOTEtMTM1NDE4NDEtNDAwMC00NDAwLTA1MTItNTQzNjQ2XzEwNDk2NDk4MzEwOS0,http://pb.xyz.duunion.com/conv?tid=B_5da2c06caeb5d70a-OTIwXzEzOTEtMTM1NDE4NDEtNDAwMC00NDAwLTA1MTItNTQzNjQ2XzEwNDk2NDk4MzEwOS0&adv_sectkn=55dea06a643eb8a2d267a735fe2683bd&adv_name=appier-api&payout=4.0,idfa_5204F703-5770-49D3-B9C3-D82B8719F79E,ja
c2ZylcWzT5WnJA6P_CLhGw,doglobal_api,1391_543646_104964983109,install,4.0,112.68.198.14,88ACCDB4-D9F8-4C62-814E-7BE2FEE3C0F6,1557623066,2019-05-12 09:04:26,1557625873,2019-05-12 09:51:13,1557625903,B_330973db7e87f581-OTIwXzEzOTEtMTM1NDE4NDEtNDAwMC00NDAwLTA1MTItNTQzNjQ2XzEwNDk2NDk4MzEwOS0,http://pb.xyz.duunion.com/conv?tid=B_330973db7e87f581-OTIwXzEzOTEtMTM1NDE4NDEtNDAwMC00NDAwLTA1MTItNTQzNjQ2XzEwNDk2NDk4MzEwOS0&adv_sectkn=55dea06a643eb8a2d267a735fe2683bd&adv_name=appier-api&payout=4.0,idfa_88ACCDB4-D9F8-4C62-814E-7BE2FEE3C0F6,ja
c2ZylcWzT5WnJA6P_CLhGw,doglobal_api,1391_543646_104964983109,install,4.0,120.138.128.191,3B566435-0DCA-41F6-AA31-3B16F6194CEF,1557536417,2019-05-11 09:00:17,1557538337,2019-05-11 09:32:17,1557538367,P_e405db2b929aec29-OTIwXzEzOTEtMTM1NDE4NDEtNDAwMC00NDAwLTA1MTEtNTQzNjQ2XzEwNDk2NDk4MzEwOS0,http://pb.xyz.duunion.com/conv?tid=P_e405db2b929aec29-OTIwXzEzOTEtMTM1NDE4NDEtNDAwMC00NDAwLTA1MTEtNTQzNjQ2XzEwNDk2NDk4MzEwOS0&adv_sectkn=55dea06a643eb8a2d267a735fe2683bd&adv_name=appier-api&payout=4.0,idfa_3B566435-0DCA-41F6-AA31-3B16F6194CEF,ja
c2ZylcWzT5WnJA6P_CLhGw,doglobal_api,1391_543646_104964983109,install,4.0,126.2.168.32,45F7775E-5481-4325-810E-BBA386DC85B9,1557536557,2019-05-11 09:02:37,1557539385,2019-05-11 09:49:45,1557539416,B_6891151b59f0cc84-OTIwXzEzOTEtMTM1NDE4NDEtNDAwMC00NDAwLTA1MTEtNTQzNjQ2XzEwNDk2NDk4MzEwOS0,http://pb.xyz.duunion.com/conv?tid=B_6891151b59f0cc84-OTIwXzEzOTEtMTM1NDE4NDEtNDAwMC00NDAwLTA1MTEtNTQzNjQ2XzEwNDk2NDk4MzEwOS0&adv_sectkn=55dea06a643eb8a2d267a735fe2683bd&adv_name=appier-api&payout=4.0,idfa_45F7775E-5481-4325-810E-BBA386DC85B9,ja
c2ZylcWzT5WnJA6P_CLhGw,doglobal_api,1391_543646_104964983109,install,4.0,61.117.147.129,36FD7260-0BAC-4813-A867-8870A38ED829,1557623888,2019-05-12 09:18:08,1557626570,2019-05-12 10:02:50,1557626600,P_0b5a8437216ab649-OTIwXzEzOTEtMTM1NDE4NDEtNDAwMC00NDAwLTA1MTItNTQzNjQ2XzEwNDk2NDk4MzEwOS0,http://pb.xyz.duunion.com/conv?tid=P_0b5a8437216ab649-OTIwXzEzOTEtMTM1NDE4NDEtNDAwMC00NDAwLTA1MTItNTQzNjQ2XzEwNDk2NDk4MzEwOS0&adv_sectkn=55dea06a643eb8a2d267a735fe2683bd&adv_name=appier-api&payout=4.0,idfa_36FD7260-0BAC-4813-A867-8870A38ED829,ja
c2ZylcWzT5WnJA6P_CLhGw,doglobal_api,1391_543646_104964983109,install,4.0,126.78.237.222,AB98EB48-10D4-4D93-A7E2-2962D18A4679,1557536512,2019-05-11 09:01:52,1557536826,2019-05-11 09:07:06,1557536856,P_89a48d633f9f726f-OTIwXzEzOTEtMTM1NDE4NDEtNDAwMC00NDAwLTA1MTEtNTQzNjQ2XzEwNDk2NDk4MzEwOS0,http://pb.xyz.duunion.com/conv?tid=P_89a48d633f9f726f-OTIwXzEzOTEtMTM1NDE4NDEtNDAwMC00NDAwLTA1MTEtNTQzNjQ2XzEwNDk2NDk4MzEwOS0&adv_sectkn=55dea06a643eb8a2d267a735fe2683bd&adv_name=appier-api&payout=4.0,idfa_AB98EB48-10D4-4D93-A7E2-2962D18A4679,ja
c2ZylcWzT5WnJA6P_CLhGw,doglobal_api,1391_543646_104964983109,install,4.0,153.168.116.209,1890A070-A7AA-475D-BB75-ACE4EADB74F8,1557623038,2019-05-12 09:03:58,1557623467,2019-05-12 09:11:07,1557623497,P_ceb83eb0aa3be7f5-OTIwXzEzOTEtMTM1NDE4NDEtNDAwMC00NDAwLTA1MTItNTQzNjQ2XzEwNDk2NDk4MzEwOS0,http://pb.xyz.duunion.com/conv?tid=P_ceb83eb0aa3be7f5-OTIwXzEzOTEtMTM1NDE4NDEtNDAwMC00NDAwLTA1MTItNTQzNjQ2XzEwNDk2NDk4MzEwOS0&adv_sectkn=55dea06a643eb8a2d267a735fe2683bd&adv_name=appier-api&payout=4.0,idfa_1890A070-A7AA-475D-BB75-ACE4EADB74F8,ja
c2ZylcWzT5WnJA6P_CLhGw,doglobal_api,1391_543646_104964983109,install,4.0,113.33.163.137,91DF7422-A191-4A91-B83A-9F9C233E6553,1557623198,2019-05-12 09:06:38,1557625677,2019-05-12 09:47:57,1557625708,B_439f199cd081abb6-OTIwXzEzOTEtMTM1NDE4NDEtNDAwMC00NDAwLTA1MTItNTQzNjQ2XzEwNDk2NDk4MzEwOS0,http://pb.xyz.duunion.com/conv?tid=B_439f199cd081abb6-OTIwXzEzOTEtMTM1NDE4NDEtNDAwMC00NDAwLTA1MTItNTQzNjQ2XzEwNDk2NDk4MzEwOS0&adv_sectkn=55dea06a643eb8a2d267a735fe2683bd&adv_name=appier-api&payout=4.0,idfa_91DF7422-A191-4A91-B83A-9F9C233E6553,ja
c2ZylcWzT5WnJA6P_CLhGw,doglobal_api,1391_543646_104964983109,install,4.0,106.73.233.128,1A497B2D-7A92-4636-8890-817B1863AD01,1557536727,2019-05-11 09:05:27,1557538560,2019-05-11 09:36:00,1557538590,P_0e47a361d9e45d5d-OTIwXzEzOTEtMTM1NDE4NDEtNDAwMC00NDAwLTA1MTEtNTQzNjQ2XzEwNDk2NDk4MzEwOS0,http://pb.xyz.duunion.com/conv?tid=P_0e47a361d9e45d5d-OTIwXzEzOTEtMTM1NDE4NDEtNDAwMC00NDAwLTA1MTEtNTQzNjQ2XzEwNDk2NDk4MzEwOS0&adv_sectkn=55dea06a643eb8a2d267a735fe2683bd&adv_name=appier-api&payout=4.0,idfa_1A497B2D-7A92-4636-8890-817B1863AD01,ja
c2ZylcWzT5WnJA6P_CLhGw,doglobal_api,1391_543646_104964983109,install,4.0,114.158.218.104,44BA10F3-1E2C-4142-8BFD-E04DEEA186B5,1557623119,2019-05-12 09:05:19,1557625892,2019-05-12 09:51:32,1557625923,P_09c49da8a2a14621-OTIwXzEzOTEtMTM1NDE4NDEtNDAwMC00NDAwLTA1MTItNTQzNjQ2XzEwNDk2NDk4MzEwOS0,http://pb.xyz.duunion.com/conv?tid=P_09c49da8a2a14621-OTIwXzEzOTEtMTM1NDE4NDEtNDAwMC00NDAwLTA1MTItNTQzNjQ2XzEwNDk2NDk4MzEwOS0&adv_sectkn=55dea06a643eb8a2d267a735fe2683bd&adv_name=appier-api&payout=4.0,idfa_44BA10F3-1E2C-4142-8BFD-E04DEEA186B5,ja
c2ZylcWzT5WnJA6P_CLhGw,doglobal_api,1391_543646_104964983109,install,4.0,220.211.222.1,D7951659-ECF3-4AAA-B5CE-A9157CBAA39F,1557623240,2019-05-12 09:07:20,1557624181,2019-05-12 09:23:01,1557624211,B_953a133072fac0c4-OTIwXzEzOTEtMTM1NDE4NDEtNDAwMC00NDAwLTA1MTItNTQzNjQ2XzEwNDk2NDk4MzEwOS0,http://pb.xyz.duunion.com/conv?tid=B_953a133072fac0c4-OTIwXzEzOTEtMTM1NDE4NDEtNDAwMC00NDAwLTA1MTItNTQzNjQ2XzEwNDk2NDk4MzEwOS0&adv_sectkn=55dea06a643eb8a2d267a735fe2683bd&adv_name=appier-api&payout=4.0,idfa_D7951659-ECF3-4AAA-B5CE-A9157CBAA39F,ja
c2ZylcWzT5WnJA6P_CLhGw,doglobal_api,1391_543646_104964983109,install,4.0,222.12.213.81,A46C23D7-CE21-4832-AD78-D8AB9249B519,1557536446,2019-05-11 09:00:46,1557536832,2019-05-11 09:07:12,1557537035,B_355870a2b01fbdb1-OTIwXzEzOTEtMTM1NDE4NDEtNDAwMC00NDAwLTA1MTEtNTQzNjQ2XzEwNDk2NDk4MzEwOS0,http://pb.xyz.duunion.com/conv?tid=B_355870a2b01fbdb1-OTIwXzEzOTEtMTM1NDE4NDEtNDAwMC00NDAwLTA1MTEtNTQzNjQ2XzEwNDk2NDk4MzEwOS0&adv_sectkn=55dea06a643eb8a2d267a735fe2683bd&adv_name=appier-api&payout=4.0,idfa_A46C23D7-CE21-4832-AD78-D8AB9249B519,ja
c2ZylcWzT5WnJA6P_CLhGw,doglobal_api,1391_543646_104964983109,install,4.0,175.179.255.80,8FDFEB42-B15C-4917-BEBE-B83E6D5B6847,1557623160,2019-05-12 09:06:00,1557623968,2019-05-12 09:19:28,1557623998,B_bb31d00d8941a7aa-OTIwXzEzOTEtMTM1NDE4NDEtNDAwMC00NDAwLTA1MTItNTQzNjQ2XzEwNDk2NDk4MzEwOS0,http://pb.xyz.duunion.com/conv?tid=B_bb31d00d8941a7aa-OTIwXzEzOTEtMTM1NDE4NDEtNDAwMC00NDAwLTA1MTItNTQzNjQ2XzEwNDk2NDk4MzEwOS0&adv_sectkn=55dea06a643eb8a2d267a735fe2683bd&adv_name=appier-api&payout=4.0,idfa_8FDFEB42-B15C-4917-BEBE-B83E6D5B6847,ja
c2ZylcWzT5WnJA6P_CLhGw,doglobal_api,1391_543646_104964983109,install,4.0,180.47.165.41,E85E6F2E-28A9-4A75-9216-EC3BF95B2654,1557623751,2019-05-12 09:15:51,1557625234,2019-05-12 09:40:34,1557625264,P_79f4465ba2958fbb-OTIwXzEzOTEtMTM1NDE4NDEtNDAwMC00NDAwLTA1MTItNTQzNjQ2XzEwNDk2NDk4MzEwOS0,http://pb.xyz.duunion.com/conv?tid=P_79f4465ba2958fbb-OTIwXzEzOTEtMTM1NDE4NDEtNDAwMC00NDAwLTA1MTItNTQzNjQ2XzEwNDk2NDk4MzEwOS0&adv_sectkn=55dea06a643eb8a2d267a735fe2683bd&adv_name=appier-api&payout=4.0,idfa_E85E6F2E-28A9-4A75-9216-EC3BF95B2654,ja
c2ZylcWzT5WnJA6P_CLhGw,doglobal_api,1391_543646_104964983109,install,4.0,27.139.53.215,69989791-20AA-41BE-973C-A717FACFA797,1557536743,2019-05-11 09:05:43,1557538122,2019-05-11 09:28:42,1557538152,B_5f4c806369bc44d2-OTIwXzEzOTEtMTM1NDE4NDEtNDAwMC00NDAwLTA1MTEtNTQzNjQ2XzEwNDk2NDk4MzEwOS0,http://pb.xyz.duunion.com/conv?tid=B_5f4c806369bc44d2-OTIwXzEzOTEtMTM1NDE4NDEtNDAwMC00NDAwLTA1MTEtNTQzNjQ2XzEwNDk2NDk4MzEwOS0&adv_sectkn=55dea06a643eb8a2d267a735fe2683bd&adv_name=appier-api&payout=4.0,idfa_69989791-20AA-41BE-973C-A717FACFA797,ja
c2ZylcWzT5WnJA6P_CLhGw,doglobal_api,1391_543646_104964983109,install,4.0,180.131.234.199,5B5F2966-CA1E-4FCC-8CED-D89030FB75BC,1557624053,2019-05-12 09:20:53,1557626560,2019-05-12 10:02:40,1557626590,P_8efcbfcf57b1a639-OTIwXzEzOTEtMTM1NDE4NDEtNDAwMC00NDAwLTA1MTItNTQzNjQ2XzEwNDk2NDk4MzEwOS0,http://pb.xyz.duunion.com/conv?tid=P_8efcbfcf57b1a639-OTIwXzEzOTEtMTM1NDE4NDEtNDAwMC00NDAwLTA1MTItNTQzNjQ2XzEwNDk2NDk4MzEwOS0&adv_sectkn=55dea06a643eb8a2d267a735fe2683bd&adv_name=appier-api&payout=4.0,idfa_5B5F2966-CA1E-4FCC-8CED-D89030FB75BC,ja
c2ZylcWzT5WnJA6P_CLhGw,doglobal_api,1391_543646_104964983109,install,4.0,219.125.69.141,DB9DC74D-D12F-4EC2-8EB1-7EEEA437F5EF,1557623804,2019-05-12 09:16:44,1557624096,2019-05-12 09:21:36,1557624127,P_a2a64bf3ef156e24-OTIwXzEzOTEtMTM1NDE4NDEtNDAwMC00NDAwLTA1MTItNTQzNjQ2XzEwNDk2NDk4MzEwOS0,http://pb.xyz.duunion.com/conv?tid=P_a2a64bf3ef156e24-OTIwXzEzOTEtMTM1NDE4NDEtNDAwMC00NDAwLTA1MTItNTQzNjQ2XzEwNDk2NDk4MzEwOS0&adv_sectkn=55dea06a643eb8a2d267a735fe2683bd&adv_name=appier-api&payout=4.0,idfa_DB9DC74D-D12F-4EC2-8EB1-7EEEA437F5EF,ja
c2ZylcWzT5WnJA6P_CLhGw,doglobal_api,1391_543646_104964983109,install,4.0,157.147.13.151,F74BE21B-A0EA-4C33-B8B2-BDA0785C9084,1557623042,2019-05-12 09:04:02,1557625033,2019-05-12 09:37:13,1557625063,B_e00b7f85fb5e641f-OTIwXzEzOTEtMTM1NDE4NDEtNDAwMC00NDAwLTA1MTItNTQzNjQ2XzEwNDk2NDk4MzEwOS0,http://pb.xyz.duunion.com/conv?tid=B_e00b7f85fb5e641f-OTIwXzEzOTEtMTM1NDE4NDEtNDAwMC00NDAwLTA1MTItNTQzNjQ2XzEwNDk2NDk4MzEwOS0&adv_sectkn=55dea06a643eb8a2d267a735fe2683bd&adv_name=appier-api&payout=4.0,idfa_F74BE21B-A0EA-4C33-B8B2-BDA0785C9084,ja
c2ZylcWzT5WnJA6P_CLhGw,doglobal_api,1391_543646_104964983109,install,4.0,126.162.68.112,B493774A-2A12-417E-8F78-7B562984FF9B,1557623624,2019-05-12 09:13:44,1557626759,2019-05-12 10:05:59,1557626789,B_27f60718c8836102-OTIwXzEzOTEtMTM1NDE4NDEtNDAwMC00NDAwLTA1MTItNTQzNjQ2XzEwNDk2NDk4MzEwOS0,http://pb.xyz.duunion.com/conv?tid=B_27f60718c8836102-OTIwXzEzOTEtMTM1NDE4NDEtNDAwMC00NDAwLTA1MTItNTQzNjQ2XzEwNDk2NDk4MzEwOS0&adv_sectkn=55dea06a643eb8a2d267a735fe2683bd&adv_name=appier-api&payout=4.0,idfa_B493774A-2A12-417E-8F78-7B562984FF9B,ja
c2ZylcWzT5WnJA6P_CLhGw,doglobal_api,1391_543646_104964983109,install,4.0,42.83.56.170,F510F6C5-26B2-4715-8E31-ED382351848A,1557536761,2019-05-11 09:06:01,1557537047,2019-05-11 09:10:47,1557537078,B_be423cb8fec55fbd-OTIwXzEzOTEtMTM1NDE4NDEtNDAwMC00NDAwLTA1MTEtNTQzNjQ2XzEwNDk2NDk4MzEwOS0,http://pb.xyz.duunion.com/conv?tid=B_be423cb8fec55fbd-OTIwXzEzOTEtMTM1NDE4NDEtNDAwMC00NDAwLTA1MTEtNTQzNjQ2XzEwNDk2NDk4MzEwOS0&adv_sectkn=55dea06a643eb8a2d267a735fe2683bd&adv_name=appier-api&payout=4.0,idfa_F510F6C5-26B2-4715-8E31-ED382351848A,ja
c2ZylcWzT5WnJA6P_CLhGw,doglobal_api,1391_543646_104964983109,install,4.0,210.160.192.190,C89DAC8D-4BAA-45E0-9142-215434226541,1557622895,2019-05-12 09:01:35,1557623252,2019-05-12 09:07:32,1557623282,P_21ed33800a13ca32-OTIwXzEzOTEtMTM1NDE4NDEtNDAwMC00NDAwLTA1MTItNTQzNjQ2XzEwNDk2NDk4MzEwOS0,http://pb.xyz.duunion.com/conv?tid=P_21ed33800a13ca32-OTIwXzEzOTEtMTM1NDE4NDEtNDAwMC00NDAwLTA1MTItNTQzNjQ2XzEwNDk2NDk4MzEwOS0&adv_sectkn=55dea06a643eb8a2d267a735fe2683bd&adv_name=appier-api&payout=4.0,idfa_C89DAC8D-4BAA-45E0-9142-215434226541,ja
c2ZylcWzT5WnJA6P_CLhGw,doglobal_api,1391_543646_104964983109,install,4.0,153.199.5.76,8E4A94C5-6DD4-488B-8C5A-0B1A4406E2CA,1557536754,2019-05-11 09:05:54,1557538332,2019-05-11 09:32:12,1557538362,B_6a0155c5094f0baf-OTIwXzEzOTEtMTM1NDE4NDEtNDAwMC00NDAwLTA1MTEtNTQzNjQ2XzEwNDk2NDk4MzEwOS0,http://pb.xyz.duunion.com/conv?tid=B_6a0155c5094f0baf-OTIwXzEzOTEtMTM1NDE4NDEtNDAwMC00NDAwLTA1MTEtNTQzNjQ2XzEwNDk2NDk4MzEwOS0&adv_sectkn=55dea06a643eb8a2d267a735fe2683bd&adv_name=appier-api&payout=4.0,idfa_8E4A94C5-6DD4-488B-8C5A-0B1A4406E2CA,ja
c2ZylcWzT5WnJA6P_CLhGw,doglobal_api,1391_543646_104964983109,install,4.0,126.123.58.17,2E73A35E-081B-4B69-A4E0-602670D7593C,1557536547,2019-05-11 09:02:27,1557539194,2019-05-11 09:46:34,1557539224,P_037b789334a98643-OTIwXzEzOTEtMTM1NDE4NDEtNDAwMC00NDAwLTA1MTEtNTQzNjQ2XzEwNDk2NDk4MzEwOS0,http://pb.xyz.duunion.com/conv?tid=P_037b789334a98643-OTIwXzEzOTEtMTM1NDE4NDEtNDAwMC00NDAwLTA1MTEtNTQzNjQ2XzEwNDk2NDk4MzEwOS0&adv_sectkn=55dea06a643eb8a2d267a735fe2683bd&adv_name=appier-api&payout=4.0,idfa_2E73A35E-081B-4B69-A4E0-602670D7593C,ja
c2ZylcWzT5WnJA6P_CLhGw,doglobal_api,1391_543646_104964983109,install,4.0,101.141.133.237,CC287B52-B415-4882-9487-5420C3D1BB2D,1557623411,2019-05-12 09:10:11,1557626530,2019-05-12 10:02:10,1557626560,P_f0a0b17daa68fc85-OTIwXzEzOTEtMTM1NDE4NDEtNDAwMC00NDAwLTA1MTItNTQzNjQ2XzEwNDk2NDk4MzEwOS0,http://pb.xyz.duunion.com/conv?tid=P_f0a0b17daa68fc85-OTIwXzEzOTEtMTM1NDE4NDEtNDAwMC00NDAwLTA1MTItNTQzNjQ2XzEwNDk2NDk4MzEwOS0&adv_sectkn=55dea06a643eb8a2d267a735fe2683bd&adv_name=appier-api&payout=4.0,idfa_CC287B52-B415-4882-9487-5420C3D1BB2D,ja
c2ZylcWzT5WnJA6P_CLhGw,doglobal_api,1391_543646_104964983109,install,4.0,198.144.128.110,272CF934-1124-4C86-9C05-122BDFAAFA9F,1557623155,2019-05-12 09:05:55,1557625255,2019-05-12 09:40:55,1557625285,P_575daf975da9f0b7-OTIwXzEzOTEtMTM1NDE4NDEtNDAwMC00NDAwLTA1MTItNTQzNjQ2XzEwNDk2NDk4MzEwOS0,http://pb.xyz.duunion.com/conv?tid=P_575daf975da9f0b7-OTIwXzEzOTEtMTM1NDE4NDEtNDAwMC00NDAwLTA1MTItNTQzNjQ2XzEwNDk2NDk4MzEwOS0&adv_sectkn=55dea06a643eb8a2d267a735fe2683bd&adv_name=appier-api&payout=4.0,idfa_272CF934-1124-4C86-9C05-122BDFAAFA9F,ja
c2ZylcWzT5WnJA6P_CLhGw,doglobal_api,1391_543646_104964983109,install,4.0,60.111.6.86,A0C181B3-EFA9-4338-99BB-8A46D13E5C74,1557623293,2019-05-12 09:08:13,1557623676,2019-05-12 09:14:36,1557623706,P_eb6f7d8f70f09f4e-OTIwXzEzOTEtMTM1NDE4NDEtNDAwMC00NDAwLTA1MTItNTQzNjQ2XzEwNDk2NDk4MzEwOS0,http://pb.xyz.duunion.com/conv?tid=P_eb6f7d8f70f09f4e-OTIwXzEzOTEtMTM1NDE4NDEtNDAwMC00NDAwLTA1MTItNTQzNjQ2XzEwNDk2NDk4MzEwOS0&adv_sectkn=55dea06a643eb8a2d267a735fe2683bd&adv_name=appier-api&payout=4.0,idfa_A0C181B3-EFA9-4338-99BB-8A46D13E5C74,ja
c2ZylcWzT5WnJA6P_CLhGw,doglobal_api,1391_543646_104964983109,install,4.0,42.148.48.177,486598EF-76E5-4C36-AAFB-C9C30E3CEDB5,1557623848,2019-05-12 09:17:28,1557626294,2019-05-12 09:58:14,1557626324,P_7018f1e81dca6cde-OTIwXzEzOTEtMTM1NDE4NDEtNDAwMC00NDAwLTA1MTItNTQzNjQ2XzEwNDk2NDk4MzEwOS0,http://pb.xyz.duunion.com/conv?tid=P_7018f1e81dca6cde-OTIwXzEzOTEtMTM1NDE4NDEtNDAwMC00NDAwLTA1MTItNTQzNjQ2XzEwNDk2NDk4MzEwOS0&adv_sectkn=55dea06a643eb8a2d267a735fe2683bd&adv_name=appier-api&payout=4.0,idfa_486598EF-76E5-4C36-AAFB-C9C30E3CEDB5,ja
c2ZylcWzT5WnJA6P_CLhGw,doglobal_api,1391_543646_104964983109,install,4.0,180.24.100.96,2B1B7694-EB9D-4436-A0C3-822E3B298A2A,1557536575,2019-05-11 09:02:55,1557537273,2019-05-11 09:14:33,1557537303,B_e90245ccff9a3755-OTIwXzEzOTEtMTM1NDE4NDEtNDAwMC00NDAwLTA1MTEtNTQzNjQ2XzEwNDk2NDk4MzEwOS0,http://pb.xyz.duunion.com/conv?tid=B_e90245ccff9a3755-OTIwXzEzOTEtMTM1NDE4NDEtNDAwMC00NDAwLTA1MTEtNTQzNjQ2XzEwNDk2NDk4MzEwOS0&adv_sectkn=55dea06a643eb8a2d267a735fe2683bd&adv_name=appier-api&payout=4.0,idfa_2B1B7694-EB9D-4436-A0C3-822E3B298A2A,ja
