cid,partner_id,channel_id,action_id,cpi,ip,idfa,click time,click datetime,install time,install datetime,postback time,click id,postback url,unique user id
zr6klQ6VTvOIdCZQtWvoNA,doglobal_api,721_mobbeecd38ad7987cf111,Install,4.0,153.186.122.124,E9338698-2BC3-40A7-B5A2-6576E04370EC,1556940272,2019-05-04 11:24:32,1556940410,2019-05-04 11:26:50,1556940440,P_33ec75f0eec4a7bd-NzIxXzcyMS0xMzAyNTYwMi00MDAwLTQ2MDAtMDUwNC1tb2JiZWVjZDM4YWQ3OTg3Y2YxMTEt,http://pb.xyz.duunion.com/conv?tid=P_33ec75f0eec4a7bd-NzIxXzcyMS0xMzAyNTYwMi00MDAwLTQ2MDAtMDUwNC1tb2JiZWVjZDM4YWQ3OTg3Y2YxMTEt&adv_sectkn=55dea06a643eb8a2d267a735fe2683bd&adv_name=appier-api&payout=4.0,idfa_E9338698-2BC3-40A7-B5A2-6576E04370EC,ja-JP
zr6klQ6VTvOIdCZQtWvoNA,doglobal_api,721_mob625b5f82c72a9f7a11,Install,4.0,14.12.136.64,2304D46C-0AFD-4B95-8D71-51B2C707AE45,1556767031,2019-05-02 11:17:11,1556767150,2019-05-02 11:19:10,1556767187,P_abbcc3947e81dcf8-NzIxXzcyMS0xMzAyNTYwMi00MDAwLTQ2MDAtMDUwMi1tb2I2MjViNWY4MmM3MmE5ZjdhMTEt,http://pb.xyz.duunion.com/conv?tid=P_abbcc3947e81dcf8-NzIxXzcyMS0xMzAyNTYwMi00MDAwLTQ2MDAtMDUwMi1tb2I2MjViNWY4MmM3MmE5ZjdhMTEt&adv_sectkn=55dea06a643eb8a2d267a735fe2683bd&adv_name=appier-api&payout=4.0,idfa_2304D46C-0AFD-4B95-8D71-51B2C707AE45,ja-JP
zr6klQ6VTvOIdCZQtWvoNA,doglobal_api,721_mobbeecd38ad7987cf109,Install,4.0,153.176.32.217,D302CE0F-C41C-43D0-B48A-E03DB39975B1,1556848576,2019-05-03 09:56:16,1556848714,2019-05-03 09:58:34,1556848745,B_e44d4cf140263066-NzIxXzcyMS0xMzAyNTYwMi00MDAwLTQ2MDAtMDUwMy1tb2JiZWVjZDM4YWQ3OTg3Y2YxMDkt,http://pb.xyz.duunion.com/conv?tid=B_e44d4cf140263066-NzIxXzcyMS0xMzAyNTYwMi00MDAwLTQ2MDAtMDUwMy1tb2JiZWVjZDM4YWQ3OTg3Y2YxMDkt&adv_sectkn=55dea06a643eb8a2d267a735fe2683bd&adv_name=appier-api&payout=4.0,idfa_D302CE0F-C41C-43D0-B48A-E03DB39975B1,ja-JP
zr6klQ6VTvOIdCZQtWvoNA,doglobal_api,721_mobbeecd38ad7987cf111,Install,4.0,111.90.50.54,F5BB9297-8C32-406E-A0E4-7C2817B33467,1556940156,2019-05-04 11:22:36,1556940295,2019-05-04 11:24:55,1556940326,B_4c6970b7973bbf21-NzIxXzcyMS0xMzAyNTYwMi00MDAwLTQ2MDAtMDUwNC1tb2JiZWVjZDM4YWQ3OTg3Y2YxMTEt,http://pb.xyz.duunion.com/conv?tid=B_4c6970b7973bbf21-NzIxXzcyMS0xMzAyNTYwMi00MDAwLTQ2MDAtMDUwNC1tb2JiZWVjZDM4YWQ3OTg3Y2YxMTEt&adv_sectkn=55dea06a643eb8a2d267a735fe2683bd&adv_name=appier-api&payout=4.0,idfa_F5BB9297-8C32-406E-A0E4-7C2817B33467,ja-JP
zr6klQ6VTvOIdCZQtWvoNA,doglobal_api,721_mobbeecd38ad7987cf111,Install,4.0,121.114.144.198,5F9CEEDD-C39A-49C6-8E24-C6D03E8EDE7E,1556939419,2019-05-04 11:10:19,1556939570,2019-05-04 11:12:50,1556939601,B_d7b33eac65a6ecd3-NzIxXzcyMS0xMzAyNTYwMi00MDAwLTQ2MDAtMDUwNC1tb2JiZWVjZDM4YWQ3OTg3Y2YxMTEt,http://pb.xyz.duunion.com/conv?tid=B_d7b33eac65a6ecd3-NzIxXzcyMS0xMzAyNTYwMi00MDAwLTQ2MDAtMDUwNC1tb2JiZWVjZDM4YWQ3OTg3Y2YxMTEt&adv_sectkn=55dea06a643eb8a2d267a735fe2683bd&adv_name=appier-api&payout=4.0,idfa_5F9CEEDD-C39A-49C6-8E24-C6D03E8EDE7E,ja-JP
zr6klQ6VTvOIdCZQtWvoNA,doglobal_api,721_mob625b5f82c72a9f7a11,Install,4.0,36.54.218.139,7F84A051-87CA-472E-A71D-1DB1A4FF170B,1556766596,2019-05-02 11:09:56,1556766686,2019-05-02 11:11:26,1556766717,P_a281957edbbc7169-NzIxXzcyMS0xMzAyNTYwMi00MDAwLTQ2MDAtMDUwMi1tb2I2MjViNWY4MmM3MmE5ZjdhMTEt,http://pb.xyz.duunion.com/conv?tid=P_a281957edbbc7169-NzIxXzcyMS0xMzAyNTYwMi00MDAwLTQ2MDAtMDUwMi1tb2I2MjViNWY4MmM3MmE5ZjdhMTEt&adv_sectkn=55dea06a643eb8a2d267a735fe2683bd&adv_name=appier-api&payout=4.0,idfa_7F84A051-87CA-472E-A71D-1DB1A4FF170B,ja-JP
zr6klQ6VTvOIdCZQtWvoNA,doglobal_api,721_mobbeecd38ad7987cf111,Install,4.0,114.187.36.4,3595E3E7-D9D2-4C20-9C5C-A3B37D44ADE1,1556939847,2019-05-04 11:17:27,1556939988,2019-05-04 11:19:48,1556940019,P_60817c7f4ba0d81c-NzIxXzcyMS0xMzAyNTYwMi00MDAwLTQ2MDAtMDUwNC1tb2JiZWVjZDM4YWQ3OTg3Y2YxMTEt,http://pb.xyz.duunion.com/conv?tid=P_60817c7f4ba0d81c-NzIxXzcyMS0xMzAyNTYwMi00MDAwLTQ2MDAtMDUwNC1tb2JiZWVjZDM4YWQ3OTg3Y2YxMTEt&adv_sectkn=55dea06a643eb8a2d267a735fe2683bd&adv_name=appier-api&payout=4.0,idfa_3595E3E7-D9D2-4C20-9C5C-A3B37D44ADE1,ja-JP
zr6klQ6VTvOIdCZQtWvoNA,doglobal_api,721_mobbeecd38ad7987cf110,Install,4.0,114.142.189.62,37FED06C-970A-4750-8F62-CC806E97477A,1556849009,2019-05-03 10:03:29,1556849119,2019-05-03 10:05:19,1556849149,P_2d076be2b0228283-NzIxXzcyMS0xMzAyNTYwMi00MDAwLTQ2MDAtMDUwMy1tb2JiZWVjZDM4YWQ3OTg3Y2YxMTAt,http://pb.xyz.duunion.com/conv?tid=P_2d076be2b0228283-NzIxXzcyMS0xMzAyNTYwMi00MDAwLTQ2MDAtMDUwMy1tb2JiZWVjZDM4YWQ3OTg3Y2YxMTAt&adv_sectkn=55dea06a643eb8a2d267a735fe2683bd&adv_name=appier-api&payout=4.0,idfa_37FED06C-970A-4750-8F62-CC806E97477A,ja-JP
zr6klQ6VTvOIdCZQtWvoNA,doglobal_api,721_mobbeecd38ad7987cf109,Install,4.0,211.1.214.14,7F23EA4B-18C6-4908-B407-2086F8672CA6,1556848475,2019-05-03 09:54:35,1556848597,2019-05-03 09:56:37,1556848628,P_34a4f621b4ea41eb-NzIxXzcyMS0xMzAyNTYwMi00MDAwLTQ2MDAtMDUwMy1tb2JiZWVjZDM4YWQ3OTg3Y2YxMDkt,http://pb.xyz.duunion.com/conv?tid=P_34a4f621b4ea41eb-NzIxXzcyMS0xMzAyNTYwMi00MDAwLTQ2MDAtMDUwMy1tb2JiZWVjZDM4YWQ3OTg3Y2YxMDkt&adv_sectkn=55dea06a643eb8a2d267a735fe2683bd&adv_name=appier-api&payout=4.0,idfa_7F23EA4B-18C6-4908-B407-2086F8672CA6,ja-JP
zr6klQ6VTvOIdCZQtWvoNA,doglobal_api,721_mobbeecd38ad7987cf111,Install,4.0,180.35.60.242,B8AC54AC-0FD5-4CEB-970D-223A5715A1EE,1556939836,2019-05-04 11:17:16,1556939983,2019-05-04 11:19:43,1556940013,B_26c9b61869494d3c-NzIxXzcyMS0xMzAyNTYwMi00MDAwLTQ2MDAtMDUwNC1tb2JiZWVjZDM4YWQ3OTg3Y2YxMTEt,http://pb.xyz.duunion.com/conv?tid=B_26c9b61869494d3c-NzIxXzcyMS0xMzAyNTYwMi00MDAwLTQ2MDAtMDUwNC1tb2JiZWVjZDM4YWQ3OTg3Y2YxMTEt&adv_sectkn=55dea06a643eb8a2d267a735fe2683bd&adv_name=appier-api&payout=4.0,idfa_B8AC54AC-0FD5-4CEB-970D-223A5715A1EE,ja-JP
zr6klQ6VTvOIdCZQtWvoNA,doglobal_api,721_mobbeecd38ad7987cf109,Install,4.0,121.2.69.117,ED456451-4606-46FC-A5A5-15F70F140C7B,1556848464,2019-05-03 09:54:24,1556848594,2019-05-03 09:56:34,1556848788,P_899543ab421a574b-NzIxXzcyMS0xMzAyNTYwMi00MDAwLTQ2MDAtMDUwMy1tb2JiZWVjZDM4YWQ3OTg3Y2YxMDkt,http://pb.xyz.duunion.com/conv?tid=P_899543ab421a574b-NzIxXzcyMS0xMzAyNTYwMi00MDAwLTQ2MDAtMDUwMy1tb2JiZWVjZDM4YWQ3OTg3Y2YxMDkt&adv_sectkn=55dea06a643eb8a2d267a735fe2683bd&adv_name=appier-api&payout=4.0,idfa_ED456451-4606-46FC-A5A5-15F70F140C7B,ja-JP
zr6klQ6VTvOIdCZQtWvoNA,doglobal_api,721_mob625b5f82c72a9f7a11,Install,4.0,126.227.164.49,802C7237-BF9A-4AB5-BEF3-903DB3DF587F,1556766091,2019-05-02 11:01:31,1556766223,2019-05-02 11:03:43,1556766253,B_78569527a7391d9f-NzIxXzcyMS0xMzAyNTYwMi00MDAwLTQ2MDAtMDUwMi1tb2I2MjViNWY4MmM3MmE5ZjdhMTEt,http://pb.xyz.duunion.com/conv?tid=B_78569527a7391d9f-NzIxXzcyMS0xMzAyNTYwMi00MDAwLTQ2MDAtMDUwMi1tb2I2MjViNWY4MmM3MmE5ZjdhMTEt&adv_sectkn=55dea06a643eb8a2d267a735fe2683bd&adv_name=appier-api&payout=4.0,idfa_802C7237-BF9A-4AB5-BEF3-903DB3DF587F,ja-JP
zr6klQ6VTvOIdCZQtWvoNA,doglobal_api,721_mobbeecd38ad7987cf110,Install,4.0,182.167.18.191,F5A3AAF8-C7B1-4641-8B4E-64BACE0EE101,1556848995,2019-05-03 10:03:15,1556849124,2019-05-03 10:05:24,1556849154,B_216aa9da07dafbad-NzIxXzcyMS0xMzAyNTYwMi00MDAwLTQ2MDAtMDUwMy1tb2JiZWVjZDM4YWQ3OTg3Y2YxMTAt,http://pb.xyz.duunion.com/conv?tid=B_216aa9da07dafbad-NzIxXzcyMS0xMzAyNTYwMi00MDAwLTQ2MDAtMDUwMy1tb2JiZWVjZDM4YWQ3OTg3Y2YxMTAt&adv_sectkn=55dea06a643eb8a2d267a735fe2683bd&adv_name=appier-api&payout=4.0,idfa_F5A3AAF8-C7B1-4641-8B4E-64BACE0EE101,ja-JP
zr6klQ6VTvOIdCZQtWvoNA,doglobal_api,721_mobbeecd38ad7987cf110,Install,4.0,125.205.176.92,3072331F-561B-44B7-8654-81E41A2C5C62,1556849015,2019-05-03 10:03:35,1556849144,2019-05-03 10:05:44,1556849175,B_ec6f76e696994692-NzIxXzcyMS0xMzAyNTYwMi00MDAwLTQ2MDAtMDUwMy1tb2JiZWVjZDM4YWQ3OTg3Y2YxMTAt,http://pb.xyz.duunion.com/conv?tid=B_ec6f76e696994692-NzIxXzcyMS0xMzAyNTYwMi00MDAwLTQ2MDAtMDUwMy1tb2JiZWVjZDM4YWQ3OTg3Y2YxMTAt&adv_sectkn=55dea06a643eb8a2d267a735fe2683bd&adv_name=appier-api&payout=4.0,idfa_3072331F-561B-44B7-8654-81E41A2C5C62,ja-JP
zr6klQ6VTvOIdCZQtWvoNA,doglobal_api,721_mobbeecd38ad7987cf109,Install,4.0,153.215.107.144,DF9C775D-8EFD-4997-ACB8-FCB31C582153,1556848728,2019-05-03 09:58:48,1556848864,2019-05-03 10:01:04,1556848895,B_57bc79725dc41fdf-NzIxXzcyMS0xMzAyNTYwMi00MDAwLTQ2MDAtMDUwMy1tb2JiZWVjZDM4YWQ3OTg3Y2YxMDkt,http://pb.xyz.duunion.com/conv?tid=B_57bc79725dc41fdf-NzIxXzcyMS0xMzAyNTYwMi00MDAwLTQ2MDAtMDUwMy1tb2JiZWVjZDM4YWQ3OTg3Y2YxMDkt&adv_sectkn=55dea06a643eb8a2d267a735fe2683bd&adv_name=appier-api&payout=4.0,idfa_DF9C775D-8EFD-4997-ACB8-FCB31C582153,ja-JP
zr6klQ6VTvOIdCZQtWvoNA,doglobal_api,721_mobbeecd38ad7987cf110,Install,4.0,110.5.53.34,5E99E4CF-41F4-4D54-B905-836552B49A1C,1556848980,2019-05-03 10:03:00,1556849127,2019-05-03 10:05:27,1556849158,B_72dafe96fac4a7d9-NzIxXzcyMS0xMzAyNTYwMi00MDAwLTQ2MDAtMDUwMy1tb2JiZWVjZDM4YWQ3OTg3Y2YxMTAt,http://pb.xyz.duunion.com/conv?tid=B_72dafe96fac4a7d9-NzIxXzcyMS0xMzAyNTYwMi00MDAwLTQ2MDAtMDUwMy1tb2JiZWVjZDM4YWQ3OTg3Y2YxMTAt&adv_sectkn=55dea06a643eb8a2d267a735fe2683bd&adv_name=appier-api&payout=4.0,idfa_5E99E4CF-41F4-4D54-B905-836552B49A1C,ja-JP
zr6klQ6VTvOIdCZQtWvoNA,doglobal_api,721_mobbeecd38ad7987cf110,Install,4.0,202.53.114.135,2FD98D1F-952F-4079-9E3D-2303C03DA082,1556849001,2019-05-03 10:03:21,1556849129,2019-05-03 10:05:29,1556849299,B_eff09725054ef761-NzIxXzcyMS0xMzAyNTYwMi00MDAwLTQ2MDAtMDUwMy1tb2JiZWVjZDM4YWQ3OTg3Y2YxMTAt,http://pb.xyz.duunion.com/conv?tid=B_eff09725054ef761-NzIxXzcyMS0xMzAyNTYwMi00MDAwLTQ2MDAtMDUwMy1tb2JiZWVjZDM4YWQ3OTg3Y2YxMTAt&adv_sectkn=55dea06a643eb8a2d267a735fe2683bd&adv_name=appier-api&payout=4.0,idfa_2FD98D1F-952F-4079-9E3D-2303C03DA082,ja-JP
zr6klQ6VTvOIdCZQtWvoNA,doglobal_api,721_mob625b5f82c72a9f7a11,Install,4.0,180.35.60.242,5C1CB390-A3DD-415E-ABA7-015365A7BBA8,1556767029,2019-05-02 11:17:09,1556767150,2019-05-02 11:19:10,1556767180,P_c216e36394341ddd-NzIxXzcyMS0xMzAyNTYwMi00MDAwLTQ2MDAtMDUwMi1tb2I2MjViNWY4MmM3MmE5ZjdhMTEt,http://pb.xyz.duunion.com/conv?tid=P_c216e36394341ddd-NzIxXzcyMS0xMzAyNTYwMi00MDAwLTQ2MDAtMDUwMi1tb2I2MjViNWY4MmM3MmE5ZjdhMTEt&adv_sectkn=55dea06a643eb8a2d267a735fe2683bd&adv_name=appier-api&payout=4.0,idfa_5C1CB390-A3DD-415E-ABA7-015365A7BBA8,ja-JP
zr6klQ6VTvOIdCZQtWvoNA,doglobal_api,721_mob625b5f82c72a9f7a11,Install,4.0,14.8.35.128,D94C026E-E50E-466A-8008-205A217E7819,1556766625,2019-05-02 11:10:25,1556766726,2019-05-02 11:12:06,1556766756,P_6a47d4ecf825ac1a-NzIxXzcyMS0xMzAyNTYwMi00MDAwLTQ2MDAtMDUwMi1tb2I2MjViNWY4MmM3MmE5ZjdhMTEt,http://pb.xyz.duunion.com/conv?tid=P_6a47d4ecf825ac1a-NzIxXzcyMS0xMzAyNTYwMi00MDAwLTQ2MDAtMDUwMi1tb2I2MjViNWY4MmM3MmE5ZjdhMTEt&adv_sectkn=55dea06a643eb8a2d267a735fe2683bd&adv_name=appier-api&payout=4.0,idfa_D94C026E-E50E-466A-8008-205A217E7819,ja-JP
zr6klQ6VTvOIdCZQtWvoNA,doglobal_api,721_mob536df301dd316ed610,Install,4.0,61.89.55.131,AED3C29F-960A-4302-BBF5-A4A997E2B2F0,1556936509,2019-05-04 10:21:49,1556936557,2019-05-04 10:22:37,1556936589,B_0fba7449b8e34764-NzIxXzcyMS0xMzAyNTYwMi00MDAwLTQ2MDAtMDUwNC1tb2I1MzZkZjMwMWRkMzE2ZWQ2MTAt,http://pb.xyz.duunion.com/conv?tid=B_0fba7449b8e34764-NzIxXzcyMS0xMzAyNTYwMi00MDAwLTQ2MDAtMDUwNC1tb2I1MzZkZjMwMWRkMzE2ZWQ2MTAt&adv_sectkn=55dea06a643eb8a2d267a735fe2683bd&adv_name=appier-api&payout=4.0,idfa_AED3C29F-960A-4302-BBF5-A4A997E2B2F0,ja-JP
zr6klQ6VTvOIdCZQtWvoNA,doglobal_api,721_mobbeecd38ad7987cf110,Install,4.0,27.142.80.151,FD1B3EDD-C36D-4AC6-9210-6F2BC9B37BFD,1556848988,2019-05-03 10:03:08,1556849123,2019-05-03 10:05:23,1556849218,P_deed30ff67380a1a-NzIxXzcyMS0xMzAyNTYwMi00MDAwLTQ2MDAtMDUwMy1tb2JiZWVjZDM4YWQ3OTg3Y2YxMTAt,http://pb.xyz.duunion.com/conv?tid=P_deed30ff67380a1a-NzIxXzcyMS0xMzAyNTYwMi00MDAwLTQ2MDAtMDUwMy1tb2JiZWVjZDM4YWQ3OTg3Y2YxMTAt&adv_sectkn=55dea06a643eb8a2d267a735fe2683bd&adv_name=appier-api&payout=4.0,idfa_FD1B3EDD-C36D-4AC6-9210-6F2BC9B37BFD,ja-JP
zr6klQ6VTvOIdCZQtWvoNA,doglobal_api,721_mobbeecd38ad7987cf110,Install,4.0,106.72.206.1,86F08B1C-A1A5-4E06-92BB-4C43F174423B,1556848998,2019-05-03 10:03:18,1556849137,2019-05-03 10:05:37,1556849168,B_fa28a37af06a1df0-NzIxXzcyMS0xMzAyNTYwMi00MDAwLTQ2MDAtMDUwMy1tb2JiZWVjZDM4YWQ3OTg3Y2YxMTAt,http://pb.xyz.duunion.com/conv?tid=B_fa28a37af06a1df0-NzIxXzcyMS0xMzAyNTYwMi00MDAwLTQ2MDAtMDUwMy1tb2JiZWVjZDM4YWQ3OTg3Y2YxMTAt&adv_sectkn=55dea06a643eb8a2d267a735fe2683bd&adv_name=appier-api&payout=4.0,idfa_86F08B1C-A1A5-4E06-92BB-4C43F174423B,ja-JP
zr6klQ6VTvOIdCZQtWvoNA,doglobal_api,721_mob625b5f82c72a9f7a11,Install,4.0,210.149.159.174,166D8C28-3B5B-43AF-87B7-31A08EEB46CC,1556766123,2019-05-02 11:02:03,1556766248,2019-05-02 11:04:08,1556766278,P_0ed6faaef321a6b7-NzIxXzcyMS0xMzAyNTYwMi00MDAwLTQ2MDAtMDUwMi1tb2I2MjViNWY4MmM3MmE5ZjdhMTEt,http://pb.xyz.duunion.com/conv?tid=P_0ed6faaef321a6b7-NzIxXzcyMS0xMzAyNTYwMi00MDAwLTQ2MDAtMDUwMi1tb2I2MjViNWY4MmM3MmE5ZjdhMTEt&adv_sectkn=55dea06a643eb8a2d267a735fe2683bd&adv_name=appier-api&payout=4.0,idfa_166D8C28-3B5B-43AF-87B7-31A08EEB46CC,ja-JP
zr6klQ6VTvOIdCZQtWvoNA,doglobal_api,721_mob625b5f82c72a9f7a11,Install,4.0,14.133.83.20,4AA259F9-2F25-4D9F-A91F-0E6487A42A0C,1556766192,2019-05-02 11:03:12,1556766280,2019-05-02 11:04:40,1556766310,P_6a5f5b6b0cc09ea3-NzIxXzcyMS0xMzAyNTYwMi00MDAwLTQ2MDAtMDUwMi1tb2I2MjViNWY4MmM3MmE5ZjdhMTEt,http://pb.xyz.duunion.com/conv?tid=P_6a5f5b6b0cc09ea3-NzIxXzcyMS0xMzAyNTYwMi00MDAwLTQ2MDAtMDUwMi1tb2I2MjViNWY4MmM3MmE5ZjdhMTEt&adv_sectkn=55dea06a643eb8a2d267a735fe2683bd&adv_name=appier-api&payout=4.0,idfa_4AA259F9-2F25-4D9F-A91F-0E6487A42A0C,ja-JP
zr6klQ6VTvOIdCZQtWvoNA,doglobal_api,721_mobbeecd38ad7987cf109,Install,4.0,111.239.236.14,F27ABDFF-76B2-4251-B4EF-4010068CDDE0,1556848717,2019-05-03 09:58:37,1556848863,2019-05-03 10:01:03,1556848894,B_f1eda097991ae738-NzIxXzcyMS0xMzAyNTYwMi00MDAwLTQ2MDAtMDUwMy1tb2JiZWVjZDM4YWQ3OTg3Y2YxMDkt,http://pb.xyz.duunion.com/conv?tid=B_f1eda097991ae738-NzIxXzcyMS0xMzAyNTYwMi00MDAwLTQ2MDAtMDUwMy1tb2JiZWVjZDM4YWQ3OTg3Y2YxMDkt&adv_sectkn=55dea06a643eb8a2d267a735fe2683bd&adv_name=appier-api&payout=4.0,idfa_F27ABDFF-76B2-4251-B4EF-4010068CDDE0,ja-JP
zr6klQ6VTvOIdCZQtWvoNA,doglobal_api,721_mob625b5f82c72a9f7a11,Install,4.0,106.180.10.199,C4938ED1-FA70-42A6-BDE4-D29AFE496FD4,1556767285,2019-05-02 11:21:25,1556767409,2019-05-02 11:23:29,1556767440,B_7dfedf520d315aea-NzIxXzcyMS0xMzAyNTYwMi00MDAwLTQ2MDAtMDUwMi1tb2I2MjViNWY4MmM3MmE5ZjdhMTEt,http://pb.xyz.duunion.com/conv?tid=B_7dfedf520d315aea-NzIxXzcyMS0xMzAyNTYwMi00MDAwLTQ2MDAtMDUwMi1tb2I2MjViNWY4MmM3MmE5ZjdhMTEt&adv_sectkn=55dea06a643eb8a2d267a735fe2683bd&adv_name=appier-api&payout=4.0,idfa_C4938ED1-FA70-42A6-BDE4-D29AFE496FD4,ja-JP
zr6klQ6VTvOIdCZQtWvoNA,doglobal_api,721_mobbeecd38ad7987cf109,Install,4.0,120.75.52.239,8FE34AB7-F76E-4821-81B6-1BD3994BA377,1556848469,2019-05-03 09:54:29,1556848599,2019-05-03 09:56:39,1556848630,P_d9bcff65bb1df0fd-NzIxXzcyMS0xMzAyNTYwMi00MDAwLTQ2MDAtMDUwMy1tb2JiZWVjZDM4YWQ3OTg3Y2YxMDkt,http://pb.xyz.duunion.com/conv?tid=P_d9bcff65bb1df0fd-NzIxXzcyMS0xMzAyNTYwMi00MDAwLTQ2MDAtMDUwMy1tb2JiZWVjZDM4YWQ3OTg3Y2YxMDkt&adv_sectkn=55dea06a643eb8a2d267a735fe2683bd&adv_name=appier-api&payout=4.0,idfa_8FE34AB7-F76E-4821-81B6-1BD3994BA377,ja-JP
zr6klQ6VTvOIdCZQtWvoNA,doglobal_api,721_mob9099f65aab6a8b0113,Install,4.0,219.109.153.199,3B399A03-7B00-4110-9AEE-EE75009411E4,1556689245,2019-05-01 13:40:45,1556689359,2019-05-01 13:42:39,1556689389,B_bed99c588bb3cfc8-NzIxXzcyMS0xMzAyNTYwMi00MDAwLTQ2MDAtMDUwMS1tb2I5MDk5ZjY1YWFiNmE4YjAxMTMt,http://pb.xyz.duunion.com/conv?tid=B_bed99c588bb3cfc8-NzIxXzcyMS0xMzAyNTYwMi00MDAwLTQ2MDAtMDUwMS1tb2I5MDk5ZjY1YWFiNmE4YjAxMTMt&adv_sectkn=55dea06a643eb8a2d267a735fe2683bd&adv_name=appier-api&payout=4.0,idfa_3B399A03-7B00-4110-9AEE-EE75009411E4,ja-JP
zr6klQ6VTvOIdCZQtWvoNA,doglobal_api,721_mobbeecd38ad7987cf110,Install,4.0,106.172.238.108,C8EB3570-5541-400E-8DFD-1EDC51AD8039,1556849031,2019-05-03 10:03:51,1556849162,2019-05-03 10:06:02,1556849192,B_03cf803944e88e77-NzIxXzcyMS0xMzAyNTYwMi00MDAwLTQ2MDAtMDUwMy1tb2JiZWVjZDM4YWQ3OTg3Y2YxMTAt,http://pb.xyz.duunion.com/conv?tid=B_03cf803944e88e77-NzIxXzcyMS0xMzAyNTYwMi00MDAwLTQ2MDAtMDUwMy1tb2JiZWVjZDM4YWQ3OTg3Y2YxMTAt&adv_sectkn=55dea06a643eb8a2d267a735fe2683bd&adv_name=appier-api&payout=4.0,idfa_C8EB3570-5541-400E-8DFD-1EDC51AD8039,ja-JP
zr6klQ6VTvOIdCZQtWvoNA,doglobal_api,721_mobbeecd38ad7987cf109,Install,4.0,122.30.253.184,F42C8B8E-87CB-4D46-8DDD-22D5B1EBE477,1556848470,2019-05-03 09:54:30,1556848614,2019-05-03 09:56:54,1556848658,P_17a7a95fe7be6548-NzIxXzcyMS0xMzAyNTYwMi00MDAwLTQ2MDAtMDUwMy1tb2JiZWVjZDM4YWQ3OTg3Y2YxMDkt,http://pb.xyz.duunion.com/conv?tid=P_17a7a95fe7be6548-NzIxXzcyMS0xMzAyNTYwMi00MDAwLTQ2MDAtMDUwMy1tb2JiZWVjZDM4YWQ3OTg3Y2YxMDkt&adv_sectkn=55dea06a643eb8a2d267a735fe2683bd&adv_name=appier-api&payout=4.0,idfa_F42C8B8E-87CB-4D46-8DDD-22D5B1EBE477,ja-JP
zr6klQ6VTvOIdCZQtWvoNA,doglobal_api,721_mobbeecd38ad7987cf111,Install,4.0,180.196.224.209,53C5A2E4-CB55-4B4D-9DE4-077E8DCAEEC8,1556939840,2019-05-04 11:17:20,1556939971,2019-05-04 11:19:31,1556940002,P_e3ed212404a83c04-NzIxXzcyMS0xMzAyNTYwMi00MDAwLTQ2MDAtMDUwNC1tb2JiZWVjZDM4YWQ3OTg3Y2YxMTEt,http://pb.xyz.duunion.com/conv?tid=P_e3ed212404a83c04-NzIxXzcyMS0xMzAyNTYwMi00MDAwLTQ2MDAtMDUwNC1tb2JiZWVjZDM4YWQ3OTg3Y2YxMTEt&adv_sectkn=55dea06a643eb8a2d267a735fe2683bd&adv_name=appier-api&payout=4.0,idfa_53C5A2E4-CB55-4B4D-9DE4-077E8DCAEEC8,ja-JP
zr6klQ6VTvOIdCZQtWvoNA,doglobal_api,721_mobbeecd38ad7987cf110,Install,4.0,123.225.13.123,A7904EBE-7365-4AAB-8EB7-83C9DEB42F10,1556848973,2019-05-03 10:02:53,1556849107,2019-05-03 10:05:07,1556849137,P_72f30deee1a9243a-NzIxXzcyMS0xMzAyNTYwMi00MDAwLTQ2MDAtMDUwMy1tb2JiZWVjZDM4YWQ3OTg3Y2YxMTAt,http://pb.xyz.duunion.com/conv?tid=P_72f30deee1a9243a-NzIxXzcyMS0xMzAyNTYwMi00MDAwLTQ2MDAtMDUwMy1tb2JiZWVjZDM4YWQ3OTg3Y2YxMTAt&adv_sectkn=55dea06a643eb8a2d267a735fe2683bd&adv_name=appier-api&payout=4.0,idfa_A7904EBE-7365-4AAB-8EB7-83C9DEB42F10,ja-JP
zr6klQ6VTvOIdCZQtWvoNA,doglobal_api,721_mob625b5f82c72a9f7a11,Install,4.0,131.147.121.74,1E809608-89C8-409C-BF3E-5458BB56E495,1556767035,2019-05-02 11:17:15,1556767171,2019-05-02 11:19:31,1556767211,P_55486752b1181e0a-NzIxXzcyMS0xMzAyNTYwMi00MDAwLTQ2MDAtMDUwMi1tb2I2MjViNWY4MmM3MmE5ZjdhMTEt,http://pb.xyz.duunion.com/conv?tid=P_55486752b1181e0a-NzIxXzcyMS0xMzAyNTYwMi00MDAwLTQ2MDAtMDUwMi1tb2I2MjViNWY4MmM3MmE5ZjdhMTEt&adv_sectkn=55dea06a643eb8a2d267a735fe2683bd&adv_name=appier-api&payout=4.0,idfa_1E809608-89C8-409C-BF3E-5458BB56E495,ja-JP
zr6klQ6VTvOIdCZQtWvoNA,doglobal_api,721_mobbeecd38ad7987cf111,Install,4.0,202.215.107.12,2060F69A-4628-4651-A312-A14CA0A11319,1556940196,2019-05-04 11:23:16,1556940331,2019-05-04 11:25:31,1556940361,P_e782157e84463b75-NzIxXzcyMS0xMzAyNTYwMi00MDAwLTQ2MDAtMDUwNC1tb2JiZWVjZDM4YWQ3OTg3Y2YxMTEt,http://pb.xyz.duunion.com/conv?tid=P_e782157e84463b75-NzIxXzcyMS0xMzAyNTYwMi00MDAwLTQ2MDAtMDUwNC1tb2JiZWVjZDM4YWQ3OTg3Y2YxMTEt&adv_sectkn=55dea06a643eb8a2d267a735fe2683bd&adv_name=appier-api&payout=4.0,idfa_2060F69A-4628-4651-A312-A14CA0A11319,ja-JP
zr6klQ6VTvOIdCZQtWvoNA,doglobal_api,721_mobbeecd38ad7987cf111,Install,4.0,117.18.131.205,D05CE5DE-A0FC-45E2-ABBF-A898B2C42D15,1556939411,2019-05-04 11:10:11,1556939552,2019-05-04 11:12:32,1556939583,B_9a7756a5b7775b01-NzIxXzcyMS0xMzAyNTYwMi00MDAwLTQ2MDAtMDUwNC1tb2JiZWVjZDM4YWQ3OTg3Y2YxMTEt,http://pb.xyz.duunion.com/conv?tid=B_9a7756a5b7775b01-NzIxXzcyMS0xMzAyNTYwMi00MDAwLTQ2MDAtMDUwNC1tb2JiZWVjZDM4YWQ3OTg3Y2YxMTEt&adv_sectkn=55dea06a643eb8a2d267a735fe2683bd&adv_name=appier-api&payout=4.0,idfa_D05CE5DE-A0FC-45E2-ABBF-A898B2C42D15,ja-JP
zr6klQ6VTvOIdCZQtWvoNA,doglobal_api,721_mobbeecd38ad7987cf110,Install,4.0,49.129.217.212,FDE185E4-0B28-4DC4-9691-309441DC2DD5,1556848995,2019-05-03 10:03:15,1556849137,2019-05-03 10:05:37,1556849167,P_535e7d65f4e38d82-NzIxXzcyMS0xMzAyNTYwMi00MDAwLTQ2MDAtMDUwMy1tb2JiZWVjZDM4YWQ3OTg3Y2YxMTAt,http://pb.xyz.duunion.com/conv?tid=P_535e7d65f4e38d82-NzIxXzcyMS0xMzAyNTYwMi00MDAwLTQ2MDAtMDUwMy1tb2JiZWVjZDM4YWQ3OTg3Y2YxMTAt&adv_sectkn=55dea06a643eb8a2d267a735fe2683bd&adv_name=appier-api&payout=4.0,idfa_FDE185E4-0B28-4DC4-9691-309441DC2DD5,ja-JP
zr6klQ6VTvOIdCZQtWvoNA,doglobal_api,721_mobbeecd38ad7987cf111,Install,4.0,180.147.180.179,6B20AC2D-21CF-475F-A64A-774F1D2A25F9,1556939480,2019-05-04 11:11:20,1556939614,2019-05-04 11:13:34,1556939645,P_bb5c6bde34b0afdb-NzIxXzcyMS0xMzAyNTYwMi00MDAwLTQ2MDAtMDUwNC1tb2JiZWVjZDM4YWQ3OTg3Y2YxMTEt,http://pb.xyz.duunion.com/conv?tid=P_bb5c6bde34b0afdb-NzIxXzcyMS0xMzAyNTYwMi00MDAwLTQ2MDAtMDUwNC1tb2JiZWVjZDM4YWQ3OTg3Y2YxMTEt&adv_sectkn=55dea06a643eb8a2d267a735fe2683bd&adv_name=appier-api&payout=4.0,idfa_6B20AC2D-21CF-475F-A64A-774F1D2A25F9,ja-JP
zr6klQ6VTvOIdCZQtWvoNA,doglobal_api,721_mobbeecd38ad7987cf111,Install,4.0,180.24.2.216,47EE2EE4-A84B-4372-9F7A-9D5D03758AAD,1556939412,2019-05-04 11:10:12,1556939549,2019-05-04 11:12:29,1556939581,P_000384c8fc3c2c0c-NzIxXzcyMS0xMzAyNTYwMi00MDAwLTQ2MDAtMDUwNC1tb2JiZWVjZDM4YWQ3OTg3Y2YxMTEt,http://pb.xyz.duunion.com/conv?tid=P_000384c8fc3c2c0c-NzIxXzcyMS0xMzAyNTYwMi00MDAwLTQ2MDAtMDUwNC1tb2JiZWVjZDM4YWQ3OTg3Y2YxMTEt&adv_sectkn=55dea06a643eb8a2d267a735fe2683bd&adv_name=appier-api&payout=4.0,idfa_47EE2EE4-A84B-4372-9F7A-9D5D03758AAD,ja-JP
zr6klQ6VTvOIdCZQtWvoNA,doglobal_api,721_mobbeecd38ad7987cf111,Install,4.0,175.105.73.42,62DA1DB1-8DE5-418E-BDD3-BCCF4ABF372E,1556939426,2019-05-04 11:10:26,1556939559,2019-05-04 11:12:39,1556939589,P_ed134b6792dbd570-NzIxXzcyMS0xMzAyNTYwMi00MDAwLTQ2MDAtMDUwNC1tb2JiZWVjZDM4YWQ3OTg3Y2YxMTEt,http://pb.xyz.duunion.com/conv?tid=P_ed134b6792dbd570-NzIxXzcyMS0xMzAyNTYwMi00MDAwLTQ2MDAtMDUwNC1tb2JiZWVjZDM4YWQ3OTg3Y2YxMTEt&adv_sectkn=55dea06a643eb8a2d267a735fe2683bd&adv_name=appier-api&payout=4.0,idfa_62DA1DB1-8DE5-418E-BDD3-BCCF4ABF372E,ja-JP
zr6klQ6VTvOIdCZQtWvoNA,doglobal_api,721_mobbeecd38ad7987cf109,Install,4.0,27.81.248.117,82E4AB8F-5A9E-4566-A116-55A1D4400D0B,1556848472,2019-05-03 09:54:32,1556848595,2019-05-03 09:56:35,1556848625,B_b22616a9bd79ebec-NzIxXzcyMS0xMzAyNTYwMi00MDAwLTQ2MDAtMDUwMy1tb2JiZWVjZDM4YWQ3OTg3Y2YxMDkt,http://pb.xyz.duunion.com/conv?tid=B_b22616a9bd79ebec-NzIxXzcyMS0xMzAyNTYwMi00MDAwLTQ2MDAtMDUwMy1tb2JiZWVjZDM4YWQ3OTg3Y2YxMDkt&adv_sectkn=55dea06a643eb8a2d267a735fe2683bd&adv_name=appier-api&payout=4.0,idfa_82E4AB8F-5A9E-4566-A116-55A1D4400D0B,ja-JP
zr6klQ6VTvOIdCZQtWvoNA,doglobal_api,721_mob625b5f82c72a9f7a11,Install,4.0,153.230.188.199,4BADA57B-FEA0-4084-9812-B2FEDBC3D2F6,1556767033,2019-05-02 11:17:13,1556767145,2019-05-02 11:19:05,1556767175,B_840d6d0c57843328-NzIxXzcyMS0xMzAyNTYwMi00MDAwLTQ2MDAtMDUwMi1tb2I2MjViNWY4MmM3MmE5ZjdhMTEt,http://pb.xyz.duunion.com/conv?tid=B_840d6d0c57843328-NzIxXzcyMS0xMzAyNTYwMi00MDAwLTQ2MDAtMDUwMi1tb2I2MjViNWY4MmM3MmE5ZjdhMTEt&adv_sectkn=55dea06a643eb8a2d267a735fe2683bd&adv_name=appier-api&payout=4.0,idfa_4BADA57B-FEA0-4084-9812-B2FEDBC3D2F6,ja-JP
zr6klQ6VTvOIdCZQtWvoNA,doglobal_api,721_mobbeecd38ad7987cf109,Install,4.0,126.75.212.148,5C8355F1-D54C-4151-BF1A-04CE1D0905CC,1556848522,2019-05-03 09:55:22,1556848643,2019-05-03 09:57:23,1556848675,B_c0c324307d73018c-NzIxXzcyMS0xMzAyNTYwMi00MDAwLTQ2MDAtMDUwMy1tb2JiZWVjZDM4YWQ3OTg3Y2YxMDkt,http://pb.xyz.duunion.com/conv?tid=B_c0c324307d73018c-NzIxXzcyMS0xMzAyNTYwMi00MDAwLTQ2MDAtMDUwMy1tb2JiZWVjZDM4YWQ3OTg3Y2YxMDkt&adv_sectkn=55dea06a643eb8a2d267a735fe2683bd&adv_name=appier-api&payout=4.0,idfa_5C8355F1-D54C-4151-BF1A-04CE1D0905CC,ja-JP
zr6klQ6VTvOIdCZQtWvoNA,doglobal_api,721_mob625b5f82c72a9f7a11,Install,4.0,110.163.141.187,6BAE3F49-0C2F-4725-BF29-ECEE842E3FC7,1556767079,2019-05-02 11:17:59,1556767210,2019-05-02 11:20:10,1556767241,B_56499c609b4e55ee-NzIxXzcyMS0xMzAyNTYwMi00MDAwLTQ2MDAtMDUwMi1tb2I2MjViNWY4MmM3MmE5ZjdhMTEt,http://pb.xyz.duunion.com/conv?tid=B_56499c609b4e55ee-NzIxXzcyMS0xMzAyNTYwMi00MDAwLTQ2MDAtMDUwMi1tb2I2MjViNWY4MmM3MmE5ZjdhMTEt&adv_sectkn=55dea06a643eb8a2d267a735fe2683bd&adv_name=appier-api&payout=4.0,idfa_6BAE3F49-0C2F-4725-BF29-ECEE842E3FC7,ja-JP
zr6klQ6VTvOIdCZQtWvoNA,doglobal_api,721_mobbeecd38ad7987cf110,Install,4.0,110.54.45.167,BFA59BD6-252C-4C33-AA90-D96180F9B344,1556849006,2019-05-03 10:03:26,1556849140,2019-05-03 10:05:40,1556849170,P_344645de36f53cbb-NzIxXzcyMS0xMzAyNTYwMi00MDAwLTQ2MDAtMDUwMy1tb2JiZWVjZDM4YWQ3OTg3Y2YxMTAt,http://pb.xyz.duunion.com/conv?tid=P_344645de36f53cbb-NzIxXzcyMS0xMzAyNTYwMi00MDAwLTQ2MDAtMDUwMy1tb2JiZWVjZDM4YWQ3OTg3Y2YxMTAt&adv_sectkn=55dea06a643eb8a2d267a735fe2683bd&adv_name=appier-api&payout=4.0,idfa_BFA59BD6-252C-4C33-AA90-D96180F9B344,ja-JP
zr6klQ6VTvOIdCZQtWvoNA,doglobal_api,721_mobbeecd38ad7987cf111,Install,4.0,210.20.225.222,92C7FBCA-8250-415B-8E28-A1AE583AA1F3,1556939385,2019-05-04 11:09:45,1556939503,2019-05-04 11:11:43,1556939534,P_2662c1bda901263f-NzIxXzcyMS0xMzAyNTYwMi00MDAwLTQ2MDAtMDUwNC1tb2JiZWVjZDM4YWQ3OTg3Y2YxMTEt,http://pb.xyz.duunion.com/conv?tid=P_2662c1bda901263f-NzIxXzcyMS0xMzAyNTYwMi00MDAwLTQ2MDAtMDUwNC1tb2JiZWVjZDM4YWQ3OTg3Y2YxMTEt&adv_sectkn=55dea06a643eb8a2d267a735fe2683bd&adv_name=appier-api&payout=4.0,idfa_92C7FBCA-8250-415B-8E28-A1AE583AA1F3,ja-JP
zr6klQ6VTvOIdCZQtWvoNA,doglobal_api,721_mobbeecd38ad7987cf110,Install,4.0,182.167.47.13,86EB55B3-CE95-4B9D-A29A-5FF04003D0D3,1556848990,2019-05-03 10:03:10,1556849096,2019-05-03 10:04:56,1556849127,P_736d613c93abfce3-NzIxXzcyMS0xMzAyNTYwMi00MDAwLTQ2MDAtMDUwMy1tb2JiZWVjZDM4YWQ3OTg3Y2YxMTAt,http://pb.xyz.duunion.com/conv?tid=P_736d613c93abfce3-NzIxXzcyMS0xMzAyNTYwMi00MDAwLTQ2MDAtMDUwMy1tb2JiZWVjZDM4YWQ3OTg3Y2YxMTAt&adv_sectkn=55dea06a643eb8a2d267a735fe2683bd&adv_name=appier-api&payout=4.0,idfa_86EB55B3-CE95-4B9D-A29A-5FF04003D0D3,ja-JP
zr6klQ6VTvOIdCZQtWvoNA,doglobal_api,721_mobbeecd38ad7987cf109,Install,4.0,111.239.181.231,7D3F00BA-53E8-45F7-B6C6-C5E09E24A270,1556848472,2019-05-03 09:54:32,1556848568,2019-05-03 09:56:08,1556848598,P_5de44194d7d6199e-NzIxXzcyMS0xMzAyNTYwMi00MDAwLTQ2MDAtMDUwMy1tb2JiZWVjZDM4YWQ3OTg3Y2YxMDkt,http://pb.xyz.duunion.com/conv?tid=P_5de44194d7d6199e-NzIxXzcyMS0xMzAyNTYwMi00MDAwLTQ2MDAtMDUwMy1tb2JiZWVjZDM4YWQ3OTg3Y2YxMDkt&adv_sectkn=55dea06a643eb8a2d267a735fe2683bd&adv_name=appier-api&payout=4.0,idfa_7D3F00BA-53E8-45F7-B6C6-C5E09E24A270,ja-JP
zr6klQ6VTvOIdCZQtWvoNA,doglobal_api,721_mobbeecd38ad7987cf110,Install,4.0,111.239.171.71,22E8C2F1-E47C-4AFF-85B4-08B985EE8DB0,1556849062,2019-05-03 10:04:22,1556849197,2019-05-03 10:06:37,1556849227,B_a98da3dad9608cce-NzIxXzcyMS0xMzAyNTYwMi00MDAwLTQ2MDAtMDUwMy1tb2JiZWVjZDM4YWQ3OTg3Y2YxMTAt,http://pb.xyz.duunion.com/conv?tid=B_a98da3dad9608cce-NzIxXzcyMS0xMzAyNTYwMi00MDAwLTQ2MDAtMDUwMy1tb2JiZWVjZDM4YWQ3OTg3Y2YxMTAt&adv_sectkn=55dea06a643eb8a2d267a735fe2683bd&adv_name=appier-api&payout=4.0,idfa_22E8C2F1-E47C-4AFF-85B4-08B985EE8DB0,ja-JP
zr6klQ6VTvOIdCZQtWvoNA,doglobal_api,721_mobbeecd38ad7987cf110,Install,4.0,121.84.128.50,2A2DDD65-8CBB-41D5-A22C-60F9E44F9977,1556849403,2019-05-03 10:10:03,1556849529,2019-05-03 10:12:09,1556849560,B_dea2ab77ec25a770-NzIxXzcyMS0xMzAyNTYwMi00MDAwLTQ2MDAtMDUwMy1tb2JiZWVjZDM4YWQ3OTg3Y2YxMTAt,http://pb.xyz.duunion.com/conv?tid=B_dea2ab77ec25a770-NzIxXzcyMS0xMzAyNTYwMi00MDAwLTQ2MDAtMDUwMy1tb2JiZWVjZDM4YWQ3OTg3Y2YxMTAt&adv_sectkn=55dea06a643eb8a2d267a735fe2683bd&adv_name=appier-api&payout=4.0,idfa_2A2DDD65-8CBB-41D5-A22C-60F9E44F9977,ja-JP
