cid,partner_id,channel_id,action_id,cpi,ip,idfa,click time,click datetime,install time,install datetime,postback time,click id,postback url,unique user id
wEACTBR5R9-LXNpBMlwnGw,doglobal_api,7201_mobedfd1104415133fe09,Install,3.5,175.236.156.204,894F21B6-F7D3-4255-A035-08E83F960453,1558230362,2019-05-19 09:46:02,1558230409,2019-05-19 09:46:49,1558230484,P_5081e5ab0bfbb58e-NzIxXzcyMDEtMTQwMDgyOTktMzUwMC00MDI1LTA1MTktbW9iZWRmZDExMDQ0MTUxMzNmZTA5LQ,http://pb.xyz.duunion.com/conv?tid=P_5081e5ab0bfbb58e-NzIxXzcyMDEtMTQwMDgyOTktMzUwMC00MDI1LTA1MTktbW9iZWRmZDExMDQ0MTUxMzNmZTA5LQ&adv_sectkn=55dea06a643eb8a2d267a735fe2683bd&adv_name=appier-api&payout=3.5,idfa_894F21B6-F7D3-4255-A035-08E83F960453,ko-KR
wEACTBR5R9-LXNpBMlwnGw,doglobal_api,7201_mobddb47ece5499827123,Install,3.5,123.212.36.208,9AC940BA-F8AA-4026-80B9-348808A6CE83,1556982288,2019-05-04 23:04:48,1556982354,2019-05-04 23:05:54,1556982385,P_fcedb0842d248eda-NzIxXzcyMDEtMTQwMDgyOTktMzUwMC00MDI1LTA1MDQtbW9iZGRiNDdlY2U1NDk5ODI3MTIzLQ,http://pb.xyz.duunion.com/conv?tid=P_fcedb0842d248eda-NzIxXzcyMDEtMTQwMDgyOTktMzUwMC00MDI1LTA1MDQtbW9iZGRiNDdlY2U1NDk5ODI3MTIzLQ&adv_sectkn=55dea06a643eb8a2d267a735fe2683bd&adv_name=appier-api&payout=3.5,idfa_9AC940BA-F8AA-4026-80B9-348808A6CE83,en-GB
wEACTBR5R9-LXNpBMlwnGw,doglobal_api,7201_mobddb47ece5499827112,Install,3.5,58.225.149.115,11662285-23EB-41ED-A9A0-39416A1F09DA,1557547521,2019-05-11 12:05:21,1557547587,2019-05-11 12:06:27,1557547618,P_0f13660c5febba52-NzIxXzcyMDEtMTQwMDgyOTktMzUwMC00MDI1LTA1MTEtbW9iZGRiNDdlY2U1NDk5ODI3MTEyLQ,http://pb.xyz.duunion.com/conv?tid=P_0f13660c5febba52-NzIxXzcyMDEtMTQwMDgyOTktMzUwMC00MDI1LTA1MTEtbW9iZGRiNDdlY2U1NDk5ODI3MTEyLQ&adv_sectkn=55dea06a643eb8a2d267a735fe2683bd&adv_name=appier-api&payout=3.5,idfa_11662285-23EB-41ED-A9A0-39416A1F09DA,en-GB
wEACTBR5R9-LXNpBMlwnGw,doglobal_api,7201_mobedfd1104415133fe10,Install,3.5,1.223.40.67,B69A5BDB-C817-4975-AACE-6F4FAE6314B7,1558231995,2019-05-19 10:13:15,1558232130,2019-05-19 10:15:30,1558232161,B_5be34fecc0c844d4-NzIxXzcyMDEtMTQwMDgyOTktMzUwMC00MDI1LTA1MTktbW9iZWRmZDExMDQ0MTUxMzNmZTEwLQ,http://pb.xyz.duunion.com/conv?tid=B_5be34fecc0c844d4-NzIxXzcyMDEtMTQwMDgyOTktMzUwMC00MDI1LTA1MTktbW9iZWRmZDExMDQ0MTUxMzNmZTEwLQ&adv_sectkn=55dea06a643eb8a2d267a735fe2683bd&adv_name=appier-api&payout=3.5,idfa_B69A5BDB-C817-4975-AACE-6F4FAE6314B7,ko-KR
wEACTBR5R9-LXNpBMlwnGw,doglobal_api,7201_mobddb47ece5499827101,Install,3.5,115.41.147.129,B983A348-A4DD-4AA1-A81B-F4E276EB8DA2,1557337574,2019-05-09 01:46:14,1557337638,2019-05-09 01:47:18,1557337668,P_1fe4ef68fd95666a-NzIxXzcyMDEtMTQwMDgyOTktMzUwMC00MDI1LTA1MDktbW9iZGRiNDdlY2U1NDk5ODI3MTAxLQ,http://pb.xyz.duunion.com/conv?tid=P_1fe4ef68fd95666a-NzIxXzcyMDEtMTQwMDgyOTktMzUwMC00MDI1LTA1MDktbW9iZGRiNDdlY2U1NDk5ODI3MTAxLQ&adv_sectkn=55dea06a643eb8a2d267a735fe2683bd&adv_name=appier-api&payout=3.5,idfa_B983A348-A4DD-4AA1-A81B-F4E276EB8DA2,en-GB
wEACTBR5R9-LXNpBMlwnGw,doglobal_api,7201_mob441738ca4a41316511,Install,3.5,59.14.147.165,43D1550E-89FE-4A2F-8F26-5DDE40D67593,1558065079,2019-05-17 11:51:19,1558065112,2019-05-17 11:51:52,1558065143,P_8a99751bf2b540a2-NzIxXzcyMDEtMTQwMDgyOTktMzUwMC00MDI1LTA1MTctbW9iNDQxNzM4Y2E0YTQxMzE2NTExLQ,http://pb.xyz.duunion.com/conv?tid=P_8a99751bf2b540a2-NzIxXzcyMDEtMTQwMDgyOTktMzUwMC00MDI1LTA1MTctbW9iNDQxNzM4Y2E0YTQxMzE2NTExLQ&adv_sectkn=55dea06a643eb8a2d267a735fe2683bd&adv_name=appier-api&payout=3.5,idfa_43D1550E-89FE-4A2F-8F26-5DDE40D67593,en-KR
wEACTBR5R9-LXNpBMlwnGw,doglobal_api,7201_mobddb47ece5499827101,Install,3.5,221.157.85.169,C4AEABC9-E06A-4945-B09B-AC54A22C0A22,1557510868,2019-05-11 01:54:28,1557510926,2019-05-11 01:55:26,1557510956,P_2f801d22a05fbfd6-NzIxXzcyMDEtMTQwMDgyOTktMzUwMC00MDI1LTA1MTEtbW9iZGRiNDdlY2U1NDk5ODI3MTAxLQ,http://pb.xyz.duunion.com/conv?tid=P_2f801d22a05fbfd6-NzIxXzcyMDEtMTQwMDgyOTktMzUwMC00MDI1LTA1MTEtbW9iZGRiNDdlY2U1NDk5ODI3MTAxLQ&adv_sectkn=55dea06a643eb8a2d267a735fe2683bd&adv_name=appier-api&payout=3.5,idfa_C4AEABC9-E06A-4945-B09B-AC54A22C0A22,en-GB
wEACTBR5R9-LXNpBMlwnGw,doglobal_api,7201_mob441738ca4a41316518,Install,3.5,59.5.55.190,A6377CF8-E5E3-401E-B65A-7DBB02FFDEBB,1557914953,2019-05-15 18:09:13,1557915009,2019-05-15 18:10:09,1557915043,B_d765876c8b5003dc-NzIxXzcyMDEtMTQwMDgyOTktMzUwMC00MDI1LTA1MTUtbW9iNDQxNzM4Y2E0YTQxMzE2NTE4LQ,http://pb.xyz.duunion.com/conv?tid=B_d765876c8b5003dc-NzIxXzcyMDEtMTQwMDgyOTktMzUwMC00MDI1LTA1MTUtbW9iNDQxNzM4Y2E0YTQxMzE2NTE4LQ&adv_sectkn=55dea06a643eb8a2d267a735fe2683bd&adv_name=appier-api&payout=3.5,idfa_A6377CF8-E5E3-401E-B65A-7DBB02FFDEBB,ko-KR
wEACTBR5R9-LXNpBMlwnGw,doglobal_api,7201_mob441738ca4a41316518,Install,3.5,220.72.228.77,05044C34-D2F1-4BDC-A38E-33F78AAD3140,1557915077,2019-05-15 18:11:17,1557915216,2019-05-15 18:13:36,1557915247,B_04fbae37a768ac0a-NzIxXzcyMDEtMTQwMDgyOTktMzUwMC00MDI1LTA1MTUtbW9iNDQxNzM4Y2E0YTQxMzE2NTE4LQ,http://pb.xyz.duunion.com/conv?tid=B_04fbae37a768ac0a-NzIxXzcyMDEtMTQwMDgyOTktMzUwMC00MDI1LTA1MTUtbW9iNDQxNzM4Y2E0YTQxMzE2NTE4LQ&adv_sectkn=55dea06a643eb8a2d267a735fe2683bd&adv_name=appier-api&payout=3.5,idfa_05044C34-D2F1-4BDC-A38E-33F78AAD3140,ko-KR
wEACTBR5R9-LXNpBMlwnGw,doglobal_api,7201_mobddb47ece5499827116,Install,3.5,59.9.255.151,3E82F5E1-BFEE-4424-A68E-4A2E0F56EA62,1557649280,2019-05-12 16:21:20,1557649370,2019-05-12 16:22:50,1557649404,P_7e16fe0168bad65b-NzIxXzcyMDEtMTQwMDgyOTktMzUwMC00MDI1LTA1MTItbW9iZGRiNDdlY2U1NDk5ODI3MTE2LQ,http://pb.xyz.duunion.com/conv?tid=P_7e16fe0168bad65b-NzIxXzcyMDEtMTQwMDgyOTktMzUwMC00MDI1LTA1MTItbW9iZGRiNDdlY2U1NDk5ODI3MTE2LQ&adv_sectkn=55dea06a643eb8a2d267a735fe2683bd&adv_name=appier-api&payout=3.5,idfa_3E82F5E1-BFEE-4424-A68E-4A2E0F56EA62,en-GB
wEACTBR5R9-LXNpBMlwnGw,doglobal_api,7201_mobedfd1104415133fe12,Install,3.5,221.160.89.191,F7C7D533-364F-4DED-91F6-37A14B94A717,1558152148,2019-05-18 12:02:28,1558152283,2019-05-18 12:04:43,1558152314,P_3578f638071d97ac-NzIxXzcyMDEtMTQwMDgyOTktMzUwMC00MDI1LTA1MTgtbW9iZWRmZDExMDQ0MTUxMzNmZTEyLQ,http://pb.xyz.duunion.com/conv?tid=P_3578f638071d97ac-NzIxXzcyMDEtMTQwMDgyOTktMzUwMC00MDI1LTA1MTgtbW9iZWRmZDExMDQ0MTUxMzNmZTEyLQ&adv_sectkn=55dea06a643eb8a2d267a735fe2683bd&adv_name=appier-api&payout=3.5,idfa_F7C7D533-364F-4DED-91F6-37A14B94A717,ko-KR
wEACTBR5R9-LXNpBMlwnGw,doglobal_api,7201_mob441738ca4a41316518,Install,3.5,210.91.129.46,F83F81FC-DFDF-4964-A530-7C0854A47681,1557914962,2019-05-15 18:09:22,1557915213,2019-05-15 18:13:33,1557915247,P_ffebc6f270fa7d7f-NzIxXzcyMDEtMTQwMDgyOTktMzUwMC00MDI1LTA1MTUtbW9iNDQxNzM4Y2E0YTQxMzE2NTE4LQ,http://pb.xyz.duunion.com/conv?tid=P_ffebc6f270fa7d7f-NzIxXzcyMDEtMTQwMDgyOTktMzUwMC00MDI1LTA1MTUtbW9iNDQxNzM4Y2E0YTQxMzE2NTE4LQ&adv_sectkn=55dea06a643eb8a2d267a735fe2683bd&adv_name=appier-api&payout=3.5,idfa_F83F81FC-DFDF-4964-A530-7C0854A47681,ko-KR
wEACTBR5R9-LXNpBMlwnGw,doglobal_api,7201_mobddb47ece5499827112,Install,3.5,180.231.20.250,D4B09564-B705-47B9-BC0B-30EE03A3497E,1557548259,2019-05-11 12:17:39,1557548324,2019-05-11 12:18:44,1557548355,P_02de0fb562479d22-NzIxXzcyMDEtMTQwMDgyOTktMzUwMC00MDI1LTA1MTEtbW9iZGRiNDdlY2U1NDk5ODI3MTEyLQ,http://pb.xyz.duunion.com/conv?tid=P_02de0fb562479d22-NzIxXzcyMDEtMTQwMDgyOTktMzUwMC00MDI1LTA1MTEtbW9iZGRiNDdlY2U1NDk5ODI3MTEyLQ&adv_sectkn=55dea06a643eb8a2d267a735fe2683bd&adv_name=appier-api&payout=3.5,idfa_D4B09564-B705-47B9-BC0B-30EE03A3497E,en-GB
wEACTBR5R9-LXNpBMlwnGw,doglobal_api,7201_mobedfd1104415133fe09,Install,3.5,114.30.165.104,B4A5CE66-762A-43F0-B292-13E0DEADF0BC,1558316444,2019-05-20 09:40:44,1558316470,2019-05-20 09:41:10,1558316502,B_74e1d0d937cfa0b4-NzIxXzcyMDEtMTQwMDgyOTktMzUwMC00MDI1LTA1MjAtbW9iZWRmZDExMDQ0MTUxMzNmZTA5LQ,http://pb.xyz.duunion.com/conv?tid=B_74e1d0d937cfa0b4-NzIxXzcyMDEtMTQwMDgyOTktMzUwMC00MDI1LTA1MjAtbW9iZWRmZDExMDQ0MTUxMzNmZTA5LQ&adv_sectkn=55dea06a643eb8a2d267a735fe2683bd&adv_name=appier-api&payout=3.5,idfa_B4A5CE66-762A-43F0-B292-13E0DEADF0BC,en-KR
wEACTBR5R9-LXNpBMlwnGw,doglobal_api,7201_mobedfd1104415133fe09,Install,3.5,211.43.60.60,0A950B5E-8834-4F4A-993C-952CE2375B94,1558230734,2019-05-19 09:52:14,1558230789,2019-05-19 09:53:09,1558230912,P_3e024e8668c6a02c-NzIxXzcyMDEtMTQwMDgyOTktMzUwMC00MDI1LTA1MTktbW9iZWRmZDExMDQ0MTUxMzNmZTA5LQ,http://pb.xyz.duunion.com/conv?tid=P_3e024e8668c6a02c-NzIxXzcyMDEtMTQwMDgyOTktMzUwMC00MDI1LTA1MTktbW9iZWRmZDExMDQ0MTUxMzNmZTA5LQ&adv_sectkn=55dea06a643eb8a2d267a735fe2683bd&adv_name=appier-api&payout=3.5,idfa_0A950B5E-8834-4F4A-993C-952CE2375B94,ko-KR
wEACTBR5R9-LXNpBMlwnGw,doglobal_api,7201_mobddb47ece5499827111,Install,3.5,106.248.52.184,31C1159C-12F4-4B08-B90C-54B81A469B32,1557373272,2019-05-09 11:41:12,1557373343,2019-05-09 11:42:23,1557373374,B_84c8e6641a1331b1-NzIxXzcyMDEtMTQwMDgyOTktMzUwMC00MDI1LTA1MDktbW9iZGRiNDdlY2U1NDk5ODI3MTExLQ,http://pb.xyz.duunion.com/conv?tid=B_84c8e6641a1331b1-NzIxXzcyMDEtMTQwMDgyOTktMzUwMC00MDI1LTA1MDktbW9iZGRiNDdlY2U1NDk5ODI3MTExLQ&adv_sectkn=55dea06a643eb8a2d267a735fe2683bd&adv_name=appier-api&payout=3.5,idfa_31C1159C-12F4-4B08-B90C-54B81A469B32,en-GB
wEACTBR5R9-LXNpBMlwnGw,doglobal_api,7201_mob441738ca4a41316518,Install,3.5,121.139.123.201,FD291B62-221C-4115-BF97-774B0B49911C,1557914822,2019-05-15 18:07:02,1557914941,2019-05-15 18:09:01,1557914973,P_2e9b6dbb1fa777b2-NzIxXzcyMDEtMTQwMDgyOTktMzUwMC00MDI1LTA1MTUtbW9iNDQxNzM4Y2E0YTQxMzE2NTE4LQ,http://pb.xyz.duunion.com/conv?tid=P_2e9b6dbb1fa777b2-NzIxXzcyMDEtMTQwMDgyOTktMzUwMC00MDI1LTA1MTUtbW9iNDQxNzM4Y2E0YTQxMzE2NTE4LQ&adv_sectkn=55dea06a643eb8a2d267a735fe2683bd&adv_name=appier-api&payout=3.5,idfa_FD291B62-221C-4115-BF97-774B0B49911C,ko-KR
wEACTBR5R9-LXNpBMlwnGw,doglobal_api,7201_mobddb47ece5499827102,Install,3.5,119.195.29.84,A11CBA13-3C78-43E0-BA5E-A7F2E2A974EA,1557512448,2019-05-11 02:20:48,1557512511,2019-05-11 02:21:51,1557512542,P_f81217465a3d12f4-NzIxXzcyMDEtMTQwMDgyOTktMzUwMC00MDI1LTA1MTEtbW9iZGRiNDdlY2U1NDk5ODI3MTAyLQ,http://pb.xyz.duunion.com/conv?tid=P_f81217465a3d12f4-NzIxXzcyMDEtMTQwMDgyOTktMzUwMC00MDI1LTA1MTEtbW9iZGRiNDdlY2U1NDk5ODI3MTAyLQ&adv_sectkn=55dea06a643eb8a2d267a735fe2683bd&adv_name=appier-api&payout=3.5,idfa_A11CBA13-3C78-43E0-BA5E-A7F2E2A974EA,en-GB
wEACTBR5R9-LXNpBMlwnGw,doglobal_api,7201_mobddb47ece5499827112,Install,3.5,119.195.97.222,5C71AE8A-E89A-4863-8B13-B13117BAD131,1557892986,2019-05-15 12:03:06,1557893042,2019-05-15 12:04:02,1557893073,P_ca02c805278c4082-NzIxXzcyMDEtMTQwMDgyOTktMzUwMC00MDI1LTA1MTUtbW9iZGRiNDdlY2U1NDk5ODI3MTEyLQ,http://pb.xyz.duunion.com/conv?tid=P_ca02c805278c4082-NzIxXzcyMDEtMTQwMDgyOTktMzUwMC00MDI1LTA1MTUtbW9iZGRiNDdlY2U1NDk5ODI3MTEyLQ&adv_sectkn=55dea06a643eb8a2d267a735fe2683bd&adv_name=appier-api&payout=3.5,idfa_5C71AE8A-E89A-4863-8B13-B13117BAD131,en-GB
wEACTBR5R9-LXNpBMlwnGw,doglobal_api,7201_mobb27edb7c280e596910,Install,3.5,221.157.239.138,89FC7992-3E84-40F3-84CE-741486D0E23C,1557802260,2019-05-14 10:51:00,1557802401,2019-05-14 10:53:21,1557802432,B_21e60c502dd4f32c-NzIxXzcyMDEtMTQwMDgyOTktMzUwMC00MDI1LTA1MTQtbW9iYjI3ZWRiN2MyODBlNTk2OTEwLQ,http://pb.xyz.duunion.com/conv?tid=B_21e60c502dd4f32c-NzIxXzcyMDEtMTQwMDgyOTktMzUwMC00MDI1LTA1MTQtbW9iYjI3ZWRiN2MyODBlNTk2OTEwLQ&adv_sectkn=55dea06a643eb8a2d267a735fe2683bd&adv_name=appier-api&payout=3.5,idfa_89FC7992-3E84-40F3-84CE-741486D0E23C,ko
wEACTBR5R9-LXNpBMlwnGw,doglobal_api,7201_mobddb47ece5499827118,Install,3.5,203.212.126.90,BDE73BA3-7390-48CA-A98E-05E69484AF3E,1557915125,2019-05-15 18:12:05,1557915194,2019-05-15 18:13:14,1557915224,B_f4b7fd56d806aaf7-NzIxXzcyMDEtMTQwMDgyOTktMzUwMC00MDI1LTA1MTUtbW9iZGRiNDdlY2U1NDk5ODI3MTE4LQ,http://pb.xyz.duunion.com/conv?tid=B_f4b7fd56d806aaf7-NzIxXzcyMDEtMTQwMDgyOTktMzUwMC00MDI1LTA1MTUtbW9iZGRiNDdlY2U1NDk5ODI3MTE4LQ&adv_sectkn=55dea06a643eb8a2d267a735fe2683bd&adv_name=appier-api&payout=3.5,idfa_BDE73BA3-7390-48CA-A98E-05E69484AF3E,en-GB
wEACTBR5R9-LXNpBMlwnGw,doglobal_api,7201_mob57979728d2699c3811,Install,3.5,175.193.64.74,61D2251F-5184-450D-9DDE-9FF5AA90D823,1557373493,2019-05-09 11:44:53,1557373557,2019-05-09 11:45:57,1557373588,B_f30ecdadf802a010-NzIxXzcyMDEtMTQwMDgyOTktMzUwMC00MDI1LTA1MDktbW9iNTc5Nzk3MjhkMjY5OWMzODExLQ,http://pb.xyz.duunion.com/conv?tid=B_f30ecdadf802a010-NzIxXzcyMDEtMTQwMDgyOTktMzUwMC00MDI1LTA1MDktbW9iNTc5Nzk3MjhkMjY5OWMzODExLQ&adv_sectkn=55dea06a643eb8a2d267a735fe2683bd&adv_name=appier-api&payout=3.5,idfa_61D2251F-5184-450D-9DDE-9FF5AA90D823,en-GB
wEACTBR5R9-LXNpBMlwnGw,doglobal_api,7201_mob3f8313dc24b5623112,Install,3.5,59.15.185.17,512F4453-844B-4CB3-B611-618730C2FEC7,1557548021,2019-05-11 12:13:41,1557548120,2019-05-11 12:15:20,1557548150,B_28090a8bfe563636-NzIxXzcyMDEtMTQwMDgyOTktMzUwMC00MDI1LTA1MTEtbW9iM2Y4MzEzZGMyNGI1NjIzMTEyLQ,http://pb.xyz.duunion.com/conv?tid=B_28090a8bfe563636-NzIxXzcyMDEtMTQwMDgyOTktMzUwMC00MDI1LTA1MTEtbW9iM2Y4MzEzZGMyNGI1NjIzMTEyLQ&adv_sectkn=55dea06a643eb8a2d267a735fe2683bd&adv_name=appier-api&payout=3.5,idfa_512F4453-844B-4CB3-B611-618730C2FEC7,ko-KR
wEACTBR5R9-LXNpBMlwnGw,doglobal_api,7201_mobddb47ece5499827121,Install,3.5,211.107.182.86,29977882-3866-4970-8E88-16C156E071AE,1557061635,2019-05-05 21:07:15,1557061688,2019-05-05 21:08:08,1557061719,P_9c7ddd85f07bb876-NzIxXzcyMDEtMTQwMDgyOTktMzUwMC00MDI1LTA1MDUtbW9iZGRiNDdlY2U1NDk5ODI3MTIxLQ,http://pb.xyz.duunion.com/conv?tid=P_9c7ddd85f07bb876-NzIxXzcyMDEtMTQwMDgyOTktMzUwMC00MDI1LTA1MDUtbW9iZGRiNDdlY2U1NDk5ODI3MTIxLQ&adv_sectkn=55dea06a643eb8a2d267a735fe2683bd&adv_name=appier-api&payout=3.5,idfa_29977882-3866-4970-8E88-16C156E071AE,en-GB
wEACTBR5R9-LXNpBMlwnGw,doglobal_api,7201_mobddb47ece5499827122,Install,3.5,220.84.20.31,3A414106-C46B-4A68-8A1E-6514435EBEDB,1556981688,2019-05-04 22:54:48,1556981770,2019-05-04 22:56:10,1556981957,P_d6b15df8719036c8-NzIxXzcyMDEtMTQwMDgyOTktMzUwMC00MDI1LTA1MDQtbW9iZGRiNDdlY2U1NDk5ODI3MTIyLQ,http://pb.xyz.duunion.com/conv?tid=P_d6b15df8719036c8-NzIxXzcyMDEtMTQwMDgyOTktMzUwMC00MDI1LTA1MDQtbW9iZGRiNDdlY2U1NDk5ODI3MTIyLQ&adv_sectkn=55dea06a643eb8a2d267a735fe2683bd&adv_name=appier-api&payout=3.5,idfa_3A414106-C46B-4A68-8A1E-6514435EBEDB,en-GB
wEACTBR5R9-LXNpBMlwnGw,doglobal_api,7201_mob3f8313dc24b5623112,Install,3.5,106.246.250.154,A4251ADE-C899-4A6D-B079-7DF09122F0E5,1557547936,2019-05-11 12:12:16,1557548026,2019-05-11 12:13:46,1557548057,P_570dd5bf6f4e96dc-NzIxXzcyMDEtMTQwMDgyOTktMzUwMC00MDI1LTA1MTEtbW9iM2Y4MzEzZGMyNGI1NjIzMTEyLQ,http://pb.xyz.duunion.com/conv?tid=P_570dd5bf6f4e96dc-NzIxXzcyMDEtMTQwMDgyOTktMzUwMC00MDI1LTA1MTEtbW9iM2Y4MzEzZGMyNGI1NjIzMTEyLQ&adv_sectkn=55dea06a643eb8a2d267a735fe2683bd&adv_name=appier-api&payout=3.5,idfa_A4251ADE-C899-4A6D-B079-7DF09122F0E5,ko-KR
wEACTBR5R9-LXNpBMlwnGw,doglobal_api,7201_mobddb47ece5499827102,Install,3.5,221.153.49.33,7CD23282-8A28-4979-AC58-BEA8CEA09183,1557513732,2019-05-11 02:42:12,1557513796,2019-05-11 02:43:16,1557513827,P_454da1ad6c6f2ca3-NzIxXzcyMDEtMTQwMDgyOTktMzUwMC00MDI1LTA1MTEtbW9iZGRiNDdlY2U1NDk5ODI3MTAyLQ,http://pb.xyz.duunion.com/conv?tid=P_454da1ad6c6f2ca3-NzIxXzcyMDEtMTQwMDgyOTktMzUwMC00MDI1LTA1MTEtbW9iZGRiNDdlY2U1NDk5ODI3MTAyLQ&adv_sectkn=55dea06a643eb8a2d267a735fe2683bd&adv_name=appier-api&payout=3.5,idfa_7CD23282-8A28-4979-AC58-BEA8CEA09183,en-GB
wEACTBR5R9-LXNpBMlwnGw,doglobal_api,7201_mobddb47ece5499827110,Install,3.5,210.178.90.192,F7DCBD30-CE20-47FA-B630-991F662CD48C,1557712858,2019-05-13 10:00:58,1557712919,2019-05-13 10:01:59,1557712950,P_3aa83f4218248d19-NzIxXzcyMDEtMTQwMDgyOTktMzUwMC00MDI1LTA1MTMtbW9iZGRiNDdlY2U1NDk5ODI3MTEwLQ,http://pb.xyz.duunion.com/conv?tid=P_3aa83f4218248d19-NzIxXzcyMDEtMTQwMDgyOTktMzUwMC00MDI1LTA1MTMtbW9iZGRiNDdlY2U1NDk5ODI3MTEwLQ&adv_sectkn=55dea06a643eb8a2d267a735fe2683bd&adv_name=appier-api&payout=3.5,idfa_F7DCBD30-CE20-47FA-B630-991F662CD48C,en-GB
wEACTBR5R9-LXNpBMlwnGw,doglobal_api,7201_mobddb47ece5499827101,Install,3.5,112.154.210.37,362AFF77-5ADF-4B4A-A114-149686039C72,1557337342,2019-05-09 01:42:22,1557337430,2019-05-09 01:43:50,1557337460,P_ada840bb0f97717f-NzIxXzcyMDEtMTQwMDgyOTktMzUwMC00MDI1LTA1MDktbW9iZGRiNDdlY2U1NDk5ODI3MTAxLQ,http://pb.xyz.duunion.com/conv?tid=P_ada840bb0f97717f-NzIxXzcyMDEtMTQwMDgyOTktMzUwMC00MDI1LTA1MDktbW9iZGRiNDdlY2U1NDk5ODI3MTAxLQ&adv_sectkn=55dea06a643eb8a2d267a735fe2683bd&adv_name=appier-api&payout=3.5,idfa_362AFF77-5ADF-4B4A-A114-149686039C72,en-GB
wEACTBR5R9-LXNpBMlwnGw,doglobal_api,7201_mobddb47ece5499827112,Install,3.5,118.37.185.204,65B45236-6FCC-4865-9EBA-C7A7241B2384,1557894335,2019-05-15 12:25:35,1557894396,2019-05-15 12:26:36,1557894434,B_bb76447d3ff67c73-NzIxXzcyMDEtMTQwMDgyOTktMzUwMC00MDI1LTA1MTUtbW9iZGRiNDdlY2U1NDk5ODI3MTEyLQ,http://pb.xyz.duunion.com/conv?tid=B_bb76447d3ff67c73-NzIxXzcyMDEtMTQwMDgyOTktMzUwMC00MDI1LTA1MTUtbW9iZGRiNDdlY2U1NDk5ODI3MTEyLQ&adv_sectkn=55dea06a643eb8a2d267a735fe2683bd&adv_name=appier-api&payout=3.5,idfa_65B45236-6FCC-4865-9EBA-C7A7241B2384,en-GB
wEACTBR5R9-LXNpBMlwnGw,doglobal_api,7201_mobddb47ece5499827112,Install,3.5,118.218.217.5,2302180B-F5FC-45BF-B37C-235FEC7458C8,1557807576,2019-05-14 12:19:36,1557807671,2019-05-14 12:21:11,1557807702,P_bc505a7be72a0c5a-NzIxXzcyMDEtMTQwMDgyOTktMzUwMC00MDI1LTA1MTQtbW9iZGRiNDdlY2U1NDk5ODI3MTEyLQ,http://pb.xyz.duunion.com/conv?tid=P_bc505a7be72a0c5a-NzIxXzcyMDEtMTQwMDgyOTktMzUwMC00MDI1LTA1MTQtbW9iZGRiNDdlY2U1NDk5ODI3MTEyLQ&adv_sectkn=55dea06a643eb8a2d267a735fe2683bd&adv_name=appier-api&payout=3.5,idfa_2302180B-F5FC-45BF-B37C-235FEC7458C8,en-GB
wEACTBR5R9-LXNpBMlwnGw,doglobal_api,7201_mobddb47ece5499827113,Install,3.5,218.52.80.123,B53967D6-03BB-444F-9341-D0D83F589717,1557896586,2019-05-15 13:03:06,1557896670,2019-05-15 13:04:30,1557896702,P_98a481b055ac9960-NzIxXzcyMDEtMTQwMDgyOTktMzUwMC00MDI1LTA1MTUtbW9iZGRiNDdlY2U1NDk5ODI3MTEzLQ,http://pb.xyz.duunion.com/conv?tid=P_98a481b055ac9960-NzIxXzcyMDEtMTQwMDgyOTktMzUwMC00MDI1LTA1MTUtbW9iZGRiNDdlY2U1NDk5ODI3MTEzLQ&adv_sectkn=55dea06a643eb8a2d267a735fe2683bd&adv_name=appier-api&payout=3.5,idfa_B53967D6-03BB-444F-9341-D0D83F589717,en-GB
wEACTBR5R9-LXNpBMlwnGw,doglobal_api,7201_mob94f1914373bed1f210,Install,3.5,125.183.166.55,52FA477D-F447-43F0-B52F-27187E9EDB43,1557801009,2019-05-14 10:30:09,1557801116,2019-05-14 10:31:56,1557801148,P_f4e696f145ef97a2-NzIxXzcyMDEtMTQwMDgyOTktMzUwMC00MDI1LTA1MTQtbW9iOTRmMTkxNDM3M2JlZDFmMjEwLQ,http://pb.xyz.duunion.com/conv?tid=P_f4e696f145ef97a2-NzIxXzcyMDEtMTQwMDgyOTktMzUwMC00MDI1LTA1MTQtbW9iOTRmMTkxNDM3M2JlZDFmMjEwLQ&adv_sectkn=55dea06a643eb8a2d267a735fe2683bd&adv_name=appier-api&payout=3.5,idfa_52FA477D-F447-43F0-B52F-27187E9EDB43,ko-KR
wEACTBR5R9-LXNpBMlwnGw,doglobal_api,7201_mobedfd1104415133fe12,Install,3.5,58.77.28.203,8691FC86-B703-40B5-A7F1-D2745CF72CD2,1558152176,2019-05-18 12:02:56,1558152304,2019-05-18 12:05:04,1558152395,P_3965f3a71eed884b-NzIxXzcyMDEtMTQwMDgyOTktMzUwMC00MDI1LTA1MTgtbW9iZWRmZDExMDQ0MTUxMzNmZTEyLQ,http://pb.xyz.duunion.com/conv?tid=P_3965f3a71eed884b-NzIxXzcyMDEtMTQwMDgyOTktMzUwMC00MDI1LTA1MTgtbW9iZWRmZDExMDQ0MTUxMzNmZTEyLQ&adv_sectkn=55dea06a643eb8a2d267a735fe2683bd&adv_name=appier-api&payout=3.5,idfa_8691FC86-B703-40B5-A7F1-D2745CF72CD2,ko-KR
wEACTBR5R9-LXNpBMlwnGw,doglobal_api,7201_mobddb47ece5499827110,Install,3.5,1.243.50.123,FF084DEB-98D9-43B4-9D26-3EE8360DE18D,1557454266,2019-05-10 10:11:06,1557454334,2019-05-10 10:12:14,1557454365,B_0f14910b6c5d55f0-NzIxXzcyMDEtMTQwMDgyOTktMzUwMC00MDI1LTA1MTAtbW9iZGRiNDdlY2U1NDk5ODI3MTEwLQ,http://pb.xyz.duunion.com/conv?tid=B_0f14910b6c5d55f0-NzIxXzcyMDEtMTQwMDgyOTktMzUwMC00MDI1LTA1MTAtbW9iZGRiNDdlY2U1NDk5ODI3MTEwLQ&adv_sectkn=55dea06a643eb8a2d267a735fe2683bd&adv_name=appier-api&payout=3.5,idfa_FF084DEB-98D9-43B4-9D26-3EE8360DE18D,en-GB
wEACTBR5R9-LXNpBMlwnGw,doglobal_api,7201_mob441738ca4a41316511,Install,3.5,112.221.173.170,26C400C8-4777-4B72-8F8D-9B7A9147DCD8,1558064975,2019-05-17 11:49:35,1558065015,2019-05-17 11:50:15,1558065045,P_fc317f901a68e2e9-NzIxXzcyMDEtMTQwMDgyOTktMzUwMC00MDI1LTA1MTctbW9iNDQxNzM4Y2E0YTQxMzE2NTExLQ,http://pb.xyz.duunion.com/conv?tid=P_fc317f901a68e2e9-NzIxXzcyMDEtMTQwMDgyOTktMzUwMC00MDI1LTA1MTctbW9iNDQxNzM4Y2E0YTQxMzE2NTExLQ&adv_sectkn=55dea06a643eb8a2d267a735fe2683bd&adv_name=appier-api&payout=3.5,idfa_26C400C8-4777-4B72-8F8D-9B7A9147DCD8,en-US
wEACTBR5R9-LXNpBMlwnGw,doglobal_api,7201_mobddb47ece5499827112,Install,3.5,58.225.149.115,0D03C8AF-6D63-42E3-B48D-FFE79CECC0E8,1557547597,2019-05-11 12:06:37,1557547674,2019-05-11 12:07:54,1557547715,B_97c44cf7a36ff87a-NzIxXzcyMDEtMTQwMDgyOTktMzUwMC00MDI1LTA1MTEtbW9iZGRiNDdlY2U1NDk5ODI3MTEyLQ,http://pb.xyz.duunion.com/conv?tid=B_97c44cf7a36ff87a-NzIxXzcyMDEtMTQwMDgyOTktMzUwMC00MDI1LTA1MTEtbW9iZGRiNDdlY2U1NDk5ODI3MTEyLQ&adv_sectkn=55dea06a643eb8a2d267a735fe2683bd&adv_name=appier-api&payout=3.5,idfa_0D03C8AF-6D63-42E3-B48D-FFE79CECC0E8,en-GB
wEACTBR5R9-LXNpBMlwnGw,doglobal_api,7201_mobddb47ece5499827117,Install,3.5,211.182.112.240,143CB8B1-89F2-46BD-B0BB-E28327899096,1557653621,2019-05-12 17:33:41,1557653646,2019-05-12 17:34:06,1557653676,B_d7f7104641a87952-NzIxXzcyMDEtMTQwMDgyOTktMzUwMC00MDI1LTA1MTItbW9iZGRiNDdlY2U1NDk5ODI3MTE3LQ,http://pb.xyz.duunion.com/conv?tid=B_d7f7104641a87952-NzIxXzcyMDEtMTQwMDgyOTktMzUwMC00MDI1LTA1MTItbW9iZGRiNDdlY2U1NDk5ODI3MTE3LQ&adv_sectkn=55dea06a643eb8a2d267a735fe2683bd&adv_name=appier-api&payout=3.5,idfa_143CB8B1-89F2-46BD-B0BB-E28327899096,en-KR
wEACTBR5R9-LXNpBMlwnGw,doglobal_api,7201_mobedfd1104415133fe10,Install,3.5,123.200.114.215,3BAB76EC-A328-4A36-B12D-31D2221AFA0B,1558231878,2019-05-19 10:11:18,1558231930,2019-05-19 10:12:10,1558232035,B_0ea521fcd95cdd4d-NzIxXzcyMDEtMTQwMDgyOTktMzUwMC00MDI1LTA1MTktbW9iZWRmZDExMDQ0MTUxMzNmZTEwLQ,http://pb.xyz.duunion.com/conv?tid=B_0ea521fcd95cdd4d-NzIxXzcyMDEtMTQwMDgyOTktMzUwMC00MDI1LTA1MTktbW9iZWRmZDExMDQ0MTUxMzNmZTEwLQ&adv_sectkn=55dea06a643eb8a2d267a735fe2683bd&adv_name=appier-api&payout=3.5,idfa_3BAB76EC-A328-4A36-B12D-31D2221AFA0B,ko-KR
wEACTBR5R9-LXNpBMlwnGw,doglobal_api,7201_mobddb47ece5499827112,Install,3.5,58.225.149.115,00BF975D-258C-4F68-AA4B-C65EF3F0CC01,1557547709,2019-05-11 12:08:29,1557547769,2019-05-11 12:09:29,1557547800,P_5ad05c04e3730f8e-NzIxXzcyMDEtMTQwMDgyOTktMzUwMC00MDI1LTA1MTEtbW9iZGRiNDdlY2U1NDk5ODI3MTEyLQ,http://pb.xyz.duunion.com/conv?tid=P_5ad05c04e3730f8e-NzIxXzcyMDEtMTQwMDgyOTktMzUwMC00MDI1LTA1MTEtbW9iZGRiNDdlY2U1NDk5ODI3MTEyLQ&adv_sectkn=55dea06a643eb8a2d267a735fe2683bd&adv_name=appier-api&payout=3.5,idfa_00BF975D-258C-4F68-AA4B-C65EF3F0CC01,en-GB
wEACTBR5R9-LXNpBMlwnGw,doglobal_api,7201_mobddb47ece5499827112,Install,3.5,61.73.218.125,1592027F-80A4-4409-9BEA-4DED6B3A10C0,1557808932,2019-05-14 12:42:12,1557808982,2019-05-14 12:43:02,1557809012,P_1401b29ff962a8c1-NzIxXzcyMDEtMTQwMDgyOTktMzUwMC00MDI1LTA1MTQtbW9iZGRiNDdlY2U1NDk5ODI3MTEyLQ,http://pb.xyz.duunion.com/conv?tid=P_1401b29ff962a8c1-NzIxXzcyMDEtMTQwMDgyOTktMzUwMC00MDI1LTA1MTQtbW9iZGRiNDdlY2U1NDk5ODI3MTEyLQ&adv_sectkn=55dea06a643eb8a2d267a735fe2683bd&adv_name=appier-api&payout=3.5,idfa_1592027F-80A4-4409-9BEA-4DED6B3A10C0,en-GB
wEACTBR5R9-LXNpBMlwnGw,doglobal_api,7201_mobddb47ece5499827111,Install,3.5,218.147.71.96,0B14765B-7943-4C10-A8CC-946151E93A10,1557546645,2019-05-11 11:50:45,1557546717,2019-05-11 11:51:57,1557546747,B_efec6bab08c4d126-NzIxXzcyMDEtMTQwMDgyOTktMzUwMC00MDI1LTA1MTEtbW9iZGRiNDdlY2U1NDk5ODI3MTExLQ,http://pb.xyz.duunion.com/conv?tid=B_efec6bab08c4d126-NzIxXzcyMDEtMTQwMDgyOTktMzUwMC00MDI1LTA1MTEtbW9iZGRiNDdlY2U1NDk5ODI3MTExLQ&adv_sectkn=55dea06a643eb8a2d267a735fe2683bd&adv_name=appier-api&payout=3.5,idfa_0B14765B-7943-4C10-A8CC-946151E93A10,en-GB
wEACTBR5R9-LXNpBMlwnGw,doglobal_api,7201_mobedfd1104415133fe09,Install,3.5,211.202.42.111,74BBBB08-9369-40CA-9AD1-8139A80C7FCD,1558315499,2019-05-20 09:24:59,1558315520,2019-05-20 09:25:20,1558315551,B_c4cdbe11d7e268ce-NzIxXzcyMDEtMTQwMDgyOTktMzUwMC00MDI1LTA1MjAtbW9iZWRmZDExMDQ0MTUxMzNmZTA5LQ,http://pb.xyz.duunion.com/conv?tid=B_c4cdbe11d7e268ce-NzIxXzcyMDEtMTQwMDgyOTktMzUwMC00MDI1LTA1MjAtbW9iZWRmZDExMDQ0MTUxMzNmZTA5LQ&adv_sectkn=55dea06a643eb8a2d267a735fe2683bd&adv_name=appier-api&payout=3.5,idfa_74BBBB08-9369-40CA-9AD1-8139A80C7FCD,en-KR
wEACTBR5R9-LXNpBMlwnGw,doglobal_api,7201_mob441738ca4a41316511,Install,3.5,220.79.74.102,22B83A70-187B-41C7-A94D-EACF32CDEA08,1558064887,2019-05-17 11:48:07,1558064922,2019-05-17 11:48:42,1558064952,B_b77c33fec15c6f4e-NzIxXzcyMDEtMTQwMDgyOTktMzUwMC00MDI1LTA1MTctbW9iNDQxNzM4Y2E0YTQxMzE2NTExLQ,http://pb.xyz.duunion.com/conv?tid=B_b77c33fec15c6f4e-NzIxXzcyMDEtMTQwMDgyOTktMzUwMC00MDI1LTA1MTctbW9iNDQxNzM4Y2E0YTQxMzE2NTExLQ&adv_sectkn=55dea06a643eb8a2d267a735fe2683bd&adv_name=appier-api&payout=3.5,idfa_22B83A70-187B-41C7-A94D-EACF32CDEA08,en-KR
wEACTBR5R9-LXNpBMlwnGw,doglobal_api,7201_mobedfd1104415133fe12,Install,3.5,125.134.130.173,03AAE01B-61E1-4BEB-BFB0-EDC1ECECB603,1558152148,2019-05-18 12:02:28,1558152284,2019-05-18 12:04:44,1558152317,B_f4cfadc27aebb2b3-NzIxXzcyMDEtMTQwMDgyOTktMzUwMC00MDI1LTA1MTgtbW9iZWRmZDExMDQ0MTUxMzNmZTEyLQ,http://pb.xyz.duunion.com/conv?tid=B_f4cfadc27aebb2b3-NzIxXzcyMDEtMTQwMDgyOTktMzUwMC00MDI1LTA1MTgtbW9iZWRmZDExMDQ0MTUxMzNmZTEyLQ&adv_sectkn=55dea06a643eb8a2d267a735fe2683bd&adv_name=appier-api&payout=3.5,idfa_03AAE01B-61E1-4BEB-BFB0-EDC1ECECB603,ko-KR
wEACTBR5R9-LXNpBMlwnGw,doglobal_api,7201_mob57979728d2699c3811,Install,3.5,116.46.105.189,D120A22F-8248-44DE-92F5-9FF283BB8CE3,1557373840,2019-05-09 11:50:40,1557373902,2019-05-09 11:51:42,1557373932,P_4417b03233ca29ef-NzIxXzcyMDEtMTQwMDgyOTktMzUwMC00MDI1LTA1MDktbW9iNTc5Nzk3MjhkMjY5OWMzODExLQ,http://pb.xyz.duunion.com/conv?tid=P_4417b03233ca29ef-NzIxXzcyMDEtMTQwMDgyOTktMzUwMC00MDI1LTA1MDktbW9iNTc5Nzk3MjhkMjY5OWMzODExLQ&adv_sectkn=55dea06a643eb8a2d267a735fe2683bd&adv_name=appier-api&payout=3.5,idfa_D120A22F-8248-44DE-92F5-9FF283BB8CE3,en-GB
wEACTBR5R9-LXNpBMlwnGw,doglobal_api,7201_mobddb47ece5499827123,Install,3.5,121.166.149.115,B814D9F2-754C-4865-B517-D5BFF12887CE,1556982444,2019-05-04 23:07:24,1556982521,2019-05-04 23:08:41,1556982551,B_a8f64c1c929f5c74-NzIxXzcyMDEtMTQwMDgyOTktMzUwMC00MDI1LTA1MDQtbW9iZGRiNDdlY2U1NDk5ODI3MTIzLQ,http://pb.xyz.duunion.com/conv?tid=B_a8f64c1c929f5c74-NzIxXzcyMDEtMTQwMDgyOTktMzUwMC00MDI1LTA1MDQtbW9iZGRiNDdlY2U1NDk5ODI3MTIzLQ&adv_sectkn=55dea06a643eb8a2d267a735fe2683bd&adv_name=appier-api&payout=3.5,idfa_B814D9F2-754C-4865-B517-D5BFF12887CE,en-GB
wEACTBR5R9-LXNpBMlwnGw,doglobal_api,7201_mobedfd1104415133fe09,Install,3.5,211.171.103.130,0987C4AE-78F0-4AFD-825B-5A16E7DFD963,1558231105,2019-05-19 09:58:25,1558231150,2019-05-19 09:59:10,1558231192,P_2669f25196529a5d-NzIxXzcyMDEtMTQwMDgyOTktMzUwMC00MDI1LTA1MTktbW9iZWRmZDExMDQ0MTUxMzNmZTA5LQ,http://pb.xyz.duunion.com/conv?tid=P_2669f25196529a5d-NzIxXzcyMDEtMTQwMDgyOTktMzUwMC00MDI1LTA1MTktbW9iZWRmZDExMDQ0MTUxMzNmZTA5LQ&adv_sectkn=55dea06a643eb8a2d267a735fe2683bd&adv_name=appier-api&payout=3.5,idfa_0987C4AE-78F0-4AFD-825B-5A16E7DFD963,ko-KR
wEACTBR5R9-LXNpBMlwnGw,doglobal_api,7201_mobddb47ece5499827108,Install,3.5,220.122.69.23,F6AF43A6-2C50-4F0A-A050-07D986C50660,1557708559,2019-05-13 08:49:19,1557708614,2019-05-13 08:50:14,1557708656,P_b0b0e39c4825695e-NzIxXzcyMDEtMTQwMDgyOTktMzUwMC00MDI1LTA1MTMtbW9iZGRiNDdlY2U1NDk5ODI3MTA4LQ,http://pb.xyz.duunion.com/conv?tid=P_b0b0e39c4825695e-NzIxXzcyMDEtMTQwMDgyOTktMzUwMC00MDI1LTA1MTMtbW9iZGRiNDdlY2U1NDk5ODI3MTA4LQ&adv_sectkn=55dea06a643eb8a2d267a735fe2683bd&adv_name=appier-api&payout=3.5,idfa_F6AF43A6-2C50-4F0A-A050-07D986C50660,en-GB
wEACTBR5R9-LXNpBMlwnGw,doglobal_api,7201_mobddb47ece5499827108,Install,3.5,211.179.241.220,20BC4490-FC03-42D8-9428-DC4E5961C357,1557708283,2019-05-13 08:44:43,1557708338,2019-05-13 08:45:38,1557708369,P_7a1a535b1e509cf6-NzIxXzcyMDEtMTQwMDgyOTktMzUwMC00MDI1LTA1MTMtbW9iZGRiNDdlY2U1NDk5ODI3MTA4LQ,http://pb.xyz.duunion.com/conv?tid=P_7a1a535b1e509cf6-NzIxXzcyMDEtMTQwMDgyOTktMzUwMC00MDI1LTA1MTMtbW9iZGRiNDdlY2U1NDk5ODI3MTA4LQ&adv_sectkn=55dea06a643eb8a2d267a735fe2683bd&adv_name=appier-api&payout=3.5,idfa_20BC4490-FC03-42D8-9428-DC4E5961C357,en-GB
wEACTBR5R9-LXNpBMlwnGw,doglobal_api,7201_mobddb47ece5499827123,Install,3.5,121.162.212.188,4B9CDDE2-D7CE-4618-90D5-8957EA294A6A,1556983330,2019-05-04 23:22:10,1556983400,2019-05-04 23:23:20,1556983430,P_d56dd0faab6727e3-NzIxXzcyMDEtMTQwMDgyOTktMzUwMC00MDI1LTA1MDQtbW9iZGRiNDdlY2U1NDk5ODI3MTIzLQ,http://pb.xyz.duunion.com/conv?tid=P_d56dd0faab6727e3-NzIxXzcyMDEtMTQwMDgyOTktMzUwMC00MDI1LTA1MDQtbW9iZGRiNDdlY2U1NDk5ODI3MTIzLQ&adv_sectkn=55dea06a643eb8a2d267a735fe2683bd&adv_name=appier-api&payout=3.5,idfa_4B9CDDE2-D7CE-4618-90D5-8957EA294A6A,en-GB
wEACTBR5R9-LXNpBMlwnGw,doglobal_api,7201_mobddb47ece5499827113,Install,3.5,1.247.101.18,E0033737-1EB9-4A0C-B45C-FABE8DAEEE9A,1557810221,2019-05-14 13:03:41,1557810315,2019-05-14 13:05:15,1557810347,P_625bbffeedfa4fc2-NzIxXzcyMDEtMTQwMDgyOTktMzUwMC00MDI1LTA1MTQtbW9iZGRiNDdlY2U1NDk5ODI3MTEzLQ,http://pb.xyz.duunion.com/conv?tid=P_625bbffeedfa4fc2-NzIxXzcyMDEtMTQwMDgyOTktMzUwMC00MDI1LTA1MTQtbW9iZGRiNDdlY2U1NDk5ODI3MTEzLQ&adv_sectkn=55dea06a643eb8a2d267a735fe2683bd&adv_name=appier-api&payout=3.5,idfa_E0033737-1EB9-4A0C-B45C-FABE8DAEEE9A,en-GB
wEACTBR5R9-LXNpBMlwnGw,doglobal_api,7201_mobddb47ece5499827111,Install,3.5,110.70.27.112,05E906BA-9DF7-4710-A705-83BEF658B5EA,1557374270,2019-05-09 11:57:50,1557374335,2019-05-09 11:58:55,1557374366,P_36c60272ac85e9fd-NzIxXzcyMDEtMTQwMDgyOTktMzUwMC00MDI1LTA1MDktbW9iZGRiNDdlY2U1NDk5ODI3MTExLQ,http://pb.xyz.duunion.com/conv?tid=P_36c60272ac85e9fd-NzIxXzcyMDEtMTQwMDgyOTktMzUwMC00MDI1LTA1MDktbW9iZGRiNDdlY2U1NDk5ODI3MTExLQ&adv_sectkn=55dea06a643eb8a2d267a735fe2683bd&adv_name=appier-api&payout=3.5,idfa_05E906BA-9DF7-4710-A705-83BEF658B5EA,en-GB
wEACTBR5R9-LXNpBMlwnGw,doglobal_api,7201_mobddb47ece5499827121,Install,3.5,111.171.6.216,87B47B2B-D09A-4C24-8467-76D34050C176,1557061344,2019-05-05 21:02:24,1557061416,2019-05-05 21:03:36,1557061446,B_d459e8c1a238b4ea-NzIxXzcyMDEtMTQwMDgyOTktMzUwMC00MDI1LTA1MDUtbW9iZGRiNDdlY2U1NDk5ODI3MTIxLQ,http://pb.xyz.duunion.com/conv?tid=B_d459e8c1a238b4ea-NzIxXzcyMDEtMTQwMDgyOTktMzUwMC00MDI1LTA1MDUtbW9iZGRiNDdlY2U1NDk5ODI3MTIxLQ&adv_sectkn=55dea06a643eb8a2d267a735fe2683bd&adv_name=appier-api&payout=3.5,idfa_87B47B2B-D09A-4C24-8467-76D34050C176,en-GB
wEACTBR5R9-LXNpBMlwnGw,doglobal_api,7201_mobddb47ece5499827122,Install,3.5,59.9.255.151,FB7F7B0A-6478-4996-AA8B-63EAC74BDC32,1556980894,2019-05-04 22:41:34,1556980968,2019-05-04 22:42:48,1556980999,P_d692f3c8a6bf73b6-NzIxXzcyMDEtMTQwMDgyOTktMzUwMC00MDI1LTA1MDQtbW9iZGRiNDdlY2U1NDk5ODI3MTIyLQ,http://pb.xyz.duunion.com/conv?tid=P_d692f3c8a6bf73b6-NzIxXzcyMDEtMTQwMDgyOTktMzUwMC00MDI1LTA1MDQtbW9iZGRiNDdlY2U1NDk5ODI3MTIyLQ&adv_sectkn=55dea06a643eb8a2d267a735fe2683bd&adv_name=appier-api&payout=3.5,idfa_FB7F7B0A-6478-4996-AA8B-63EAC74BDC32,en-GB
wEACTBR5R9-LXNpBMlwnGw,doglobal_api,7201_mob441738ca4a41316511,Install,3.5,115.23.171.224,2CF5A732-2C2C-4C4C-BCB1-48122700A7E5,1558065250,2019-05-17 11:54:10,1558065278,2019-05-17 11:54:38,1558065308,P_7e5f2306f2889c32-NzIxXzcyMDEtMTQwMDgyOTktMzUwMC00MDI1LTA1MTctbW9iNDQxNzM4Y2E0YTQxMzE2NTExLQ,http://pb.xyz.duunion.com/conv?tid=P_7e5f2306f2889c32-NzIxXzcyMDEtMTQwMDgyOTktMzUwMC00MDI1LTA1MTctbW9iNDQxNzM4Y2E0YTQxMzE2NTExLQ&adv_sectkn=55dea06a643eb8a2d267a735fe2683bd&adv_name=appier-api&payout=3.5,idfa_2CF5A732-2C2C-4C4C-BCB1-48122700A7E5,en-KR
wEACTBR5R9-LXNpBMlwnGw,doglobal_api,7201_mobddb47ece5499827108,Install,3.5,220.122.69.23,30E5B00A-B296-445B-82B7-640D66AE45C6,1557708579,2019-05-13 08:49:39,1557708642,2019-05-13 08:50:42,1557708674,B_0a7b72561db65ccd-NzIxXzcyMDEtMTQwMDgyOTktMzUwMC00MDI1LTA1MTMtbW9iZGRiNDdlY2U1NDk5ODI3MTA4LQ,http://pb.xyz.duunion.com/conv?tid=B_0a7b72561db65ccd-NzIxXzcyMDEtMTQwMDgyOTktMzUwMC00MDI1LTA1MTMtbW9iZGRiNDdlY2U1NDk5ODI3MTA4LQ&adv_sectkn=55dea06a643eb8a2d267a735fe2683bd&adv_name=appier-api&payout=3.5,idfa_30E5B00A-B296-445B-82B7-640D66AE45C6,en-GB
wEACTBR5R9-LXNpBMlwnGw,doglobal_api,7201_mobddb47ece5499827111,Install,3.5,49.164.45.226,6268EF9F-BE13-464A-BD46-8F9E3F434B80,1557373765,2019-05-09 11:49:25,1557373841,2019-05-09 11:50:41,1557373873,P_137e687904210732-NzIxXzcyMDEtMTQwMDgyOTktMzUwMC00MDI1LTA1MDktbW9iZGRiNDdlY2U1NDk5ODI3MTExLQ,http://pb.xyz.duunion.com/conv?tid=P_137e687904210732-NzIxXzcyMDEtMTQwMDgyOTktMzUwMC00MDI1LTA1MDktbW9iZGRiNDdlY2U1NDk5ODI3MTExLQ&adv_sectkn=55dea06a643eb8a2d267a735fe2683bd&adv_name=appier-api&payout=3.5,idfa_6268EF9F-BE13-464A-BD46-8F9E3F434B80,en-GB
wEACTBR5R9-LXNpBMlwnGw,doglobal_api,7201_mobddb47ece5499827101,Install,3.5,49.142.43.51,5D349656-F655-4C23-87C7-AFA6CE85B4F4,1557337440,2019-05-09 01:44:00,1557337511,2019-05-09 01:45:11,1557337542,P_9c9af528c2f69291-NzIxXzcyMDEtMTQwMDgyOTktMzUwMC00MDI1LTA1MDktbW9iZGRiNDdlY2U1NDk5ODI3MTAxLQ,http://pb.xyz.duunion.com/conv?tid=P_9c9af528c2f69291-NzIxXzcyMDEtMTQwMDgyOTktMzUwMC00MDI1LTA1MDktbW9iZGRiNDdlY2U1NDk5ODI3MTAxLQ&adv_sectkn=55dea06a643eb8a2d267a735fe2683bd&adv_name=appier-api&payout=3.5,idfa_5D349656-F655-4C23-87C7-AFA6CE85B4F4,en-GB
wEACTBR5R9-LXNpBMlwnGw,doglobal_api,7201_mobddb47ece5499827112,Install,3.5,121.153.36.160,44CA4BB7-BAB2-4CFA-8FF3-B66391D8269E,1557893287,2019-05-15 12:08:07,1557893356,2019-05-15 12:09:16,1557893387,P_c6011ac3eba550c8-NzIxXzcyMDEtMTQwMDgyOTktMzUwMC00MDI1LTA1MTUtbW9iZGRiNDdlY2U1NDk5ODI3MTEyLQ,http://pb.xyz.duunion.com/conv?tid=P_c6011ac3eba550c8-NzIxXzcyMDEtMTQwMDgyOTktMzUwMC00MDI1LTA1MTUtbW9iZGRiNDdlY2U1NDk5ODI3MTEyLQ&adv_sectkn=55dea06a643eb8a2d267a735fe2683bd&adv_name=appier-api&payout=3.5,idfa_44CA4BB7-BAB2-4CFA-8FF3-B66391D8269E,en-GB
wEACTBR5R9-LXNpBMlwnGw,doglobal_api,7201_mobddb47ece5499827101,Install,3.5,116.46.154.201,3A76666B-13A9-4943-BE9F-C65A11FFA53B,1557509991,2019-05-11 01:39:51,1557510061,2019-05-11 01:41:01,1557510092,P_2ca002c40608ebac-NzIxXzcyMDEtMTQwMDgyOTktMzUwMC00MDI1LTA1MTEtbW9iZGRiNDdlY2U1NDk5ODI3MTAxLQ,http://pb.xyz.duunion.com/conv?tid=P_2ca002c40608ebac-NzIxXzcyMDEtMTQwMDgyOTktMzUwMC00MDI1LTA1MTEtbW9iZGRiNDdlY2U1NDk5ODI3MTAxLQ&adv_sectkn=55dea06a643eb8a2d267a735fe2683bd&adv_name=appier-api&payout=3.5,idfa_3A76666B-13A9-4943-BE9F-C65A11FFA53B,en-GB
wEACTBR5R9-LXNpBMlwnGw,doglobal_api,7201_mobddb47ece5499827110,Install,3.5,118.33.185.219,E822B1D2-3DDA-4A80-B437-27EC2760382E,1557108285,2019-05-06 10:04:45,1557108338,2019-05-06 10:05:38,1557108369,P_63e55556532c7137-NzIxXzcyMDEtMTQwMDgyOTktMzUwMC00MDI1LTA1MDYtbW9iZGRiNDdlY2U1NDk5ODI3MTEwLQ,http://pb.xyz.duunion.com/conv?tid=P_63e55556532c7137-NzIxXzcyMDEtMTQwMDgyOTktMzUwMC00MDI1LTA1MDYtbW9iZGRiNDdlY2U1NDk5ODI3MTEwLQ&adv_sectkn=55dea06a643eb8a2d267a735fe2683bd&adv_name=appier-api&payout=3.5,idfa_E822B1D2-3DDA-4A80-B437-27EC2760382E,en-GB
wEACTBR5R9-LXNpBMlwnGw,doglobal_api,7201_mobddb47ece5499827111,Install,3.5,121.142.222.100,FEB6902F-0BE0-4330-8BD8-358A71563C63,1557373925,2019-05-09 11:52:05,1557373977,2019-05-09 11:52:57,1557374008,B_219b3cb1feb5cadd-NzIxXzcyMDEtMTQwMDgyOTktMzUwMC00MDI1LTA1MDktbW9iZGRiNDdlY2U1NDk5ODI3MTExLQ,http://pb.xyz.duunion.com/conv?tid=B_219b3cb1feb5cadd-NzIxXzcyMDEtMTQwMDgyOTktMzUwMC00MDI1LTA1MDktbW9iZGRiNDdlY2U1NDk5ODI3MTExLQ&adv_sectkn=55dea06a643eb8a2d267a735fe2683bd&adv_name=appier-api&payout=3.5,idfa_FEB6902F-0BE0-4330-8BD8-358A71563C63,en-GB
wEACTBR5R9-LXNpBMlwnGw,doglobal_api,7201_mobddb47ece5499827117,Install,3.5,114.30.209.94,2D9B41BB-22BB-4F95-990E-690E9A545D19,1557653358,2019-05-12 17:29:18,1557653382,2019-05-12 17:29:42,1557653413,P_02497daf6accdb65-NzIxXzcyMDEtMTQwMDgyOTktMzUwMC00MDI1LTA1MTItbW9iZGRiNDdlY2U1NDk5ODI3MTE3LQ,http://pb.xyz.duunion.com/conv?tid=P_02497daf6accdb65-NzIxXzcyMDEtMTQwMDgyOTktMzUwMC00MDI1LTA1MTItbW9iZGRiNDdlY2U1NDk5ODI3MTE3LQ&adv_sectkn=55dea06a643eb8a2d267a735fe2683bd&adv_name=appier-api&payout=3.5,idfa_2D9B41BB-22BB-4F95-990E-690E9A545D19,en-KR
wEACTBR5R9-LXNpBMlwnGw,doglobal_api,7201_mobddb47ece5499827122,Install,3.5,59.9.255.151,57679675-9D80-49D0-A633-FCA75A5A6B73,1556981063,2019-05-04 22:44:23,1556981134,2019-05-04 22:45:34,1556981165,P_68a28ef3304bcf92-NzIxXzcyMDEtMTQwMDgyOTktMzUwMC00MDI1LTA1MDQtbW9iZGRiNDdlY2U1NDk5ODI3MTIyLQ,http://pb.xyz.duunion.com/conv?tid=P_68a28ef3304bcf92-NzIxXzcyMDEtMTQwMDgyOTktMzUwMC00MDI1LTA1MDQtbW9iZGRiNDdlY2U1NDk5ODI3MTIyLQ&adv_sectkn=55dea06a643eb8a2d267a735fe2683bd&adv_name=appier-api&payout=3.5,idfa_57679675-9D80-49D0-A633-FCA75A5A6B73,en-GB
wEACTBR5R9-LXNpBMlwnGw,doglobal_api,7201_mobddb47ece5499827111,Install,3.5,110.70.27.112,465F5EE9-F158-42D2-BCCB-1CA5662C3812,1557374172,2019-05-09 11:56:12,1557374263,2019-05-09 11:57:43,1557374293,P_a68e28de6a74a49d-NzIxXzcyMDEtMTQwMDgyOTktMzUwMC00MDI1LTA1MDktbW9iZGRiNDdlY2U1NDk5ODI3MTExLQ,http://pb.xyz.duunion.com/conv?tid=P_a68e28de6a74a49d-NzIxXzcyMDEtMTQwMDgyOTktMzUwMC00MDI1LTA1MDktbW9iZGRiNDdlY2U1NDk5ODI3MTExLQ&adv_sectkn=55dea06a643eb8a2d267a735fe2683bd&adv_name=appier-api&payout=3.5,idfa_465F5EE9-F158-42D2-BCCB-1CA5662C3812,en-GB
wEACTBR5R9-LXNpBMlwnGw,doglobal_api,7201_mob57979728d2699c3810,Install,3.5,116.46.66.163,6C0AF618-5E29-423D-ADF1-F8D0F794D622,1557108210,2019-05-06 10:03:30,1557108280,2019-05-06 10:04:40,1557108310,B_58327f0cb7a790a4-NzIxXzcyMDEtMTQwMDgyOTktMzUwMC00MDI1LTA1MDYtbW9iNTc5Nzk3MjhkMjY5OWMzODEwLQ,http://pb.xyz.duunion.com/conv?tid=B_58327f0cb7a790a4-NzIxXzcyMDEtMTQwMDgyOTktMzUwMC00MDI1LTA1MDYtbW9iNTc5Nzk3MjhkMjY5OWMzODEwLQ&adv_sectkn=55dea06a643eb8a2d267a735fe2683bd&adv_name=appier-api&payout=3.5,idfa_6C0AF618-5E29-423D-ADF1-F8D0F794D622,en-GB
wEACTBR5R9-LXNpBMlwnGw,doglobal_api,7201_mobddb47ece5499827108,Install,3.5,1.232.118.217,616F223A-EF86-478C-881A-170D9B41A161,1557709208,2019-05-13 09:00:08,1557709316,2019-05-13 09:01:56,1557709347,B_0a8b7bfcbc841cf6-NzIxXzcyMDEtMTQwMDgyOTktMzUwMC00MDI1LTA1MTMtbW9iZGRiNDdlY2U1NDk5ODI3MTA4LQ,http://pb.xyz.duunion.com/conv?tid=B_0a8b7bfcbc841cf6-NzIxXzcyMDEtMTQwMDgyOTktMzUwMC00MDI1LTA1MTMtbW9iZGRiNDdlY2U1NDk5ODI3MTA4LQ&adv_sectkn=55dea06a643eb8a2d267a735fe2683bd&adv_name=appier-api&payout=3.5,idfa_616F223A-EF86-478C-881A-170D9B41A161,en-GB
wEACTBR5R9-LXNpBMlwnGw,doglobal_api,7201_mobddb47ece5499827102,Install,3.5,203.229.73.39,13CD6504-2A7A-4053-8541-354B88CBA2C9,1557513559,2019-05-11 02:39:19,1557513623,2019-05-11 02:40:23,1557513654,P_6171db0639e06ffd-NzIxXzcyMDEtMTQwMDgyOTktMzUwMC00MDI1LTA1MTEtbW9iZGRiNDdlY2U1NDk5ODI3MTAyLQ,http://pb.xyz.duunion.com/conv?tid=P_6171db0639e06ffd-NzIxXzcyMDEtMTQwMDgyOTktMzUwMC00MDI1LTA1MTEtbW9iZGRiNDdlY2U1NDk5ODI3MTAyLQ&adv_sectkn=55dea06a643eb8a2d267a735fe2683bd&adv_name=appier-api&payout=3.5,idfa_13CD6504-2A7A-4053-8541-354B88CBA2C9,en-GB
wEACTBR5R9-LXNpBMlwnGw,doglobal_api,7201_mobedfd1104415133fe10,Install,3.5,112.220.86.122,CE101579-BFB3-4B46-BFF3-309D1F1A8ECD,1558231661,2019-05-19 10:07:41,1558231708,2019-05-19 10:08:28,1558231812,P_adb897ddd789e5a4-NzIxXzcyMDEtMTQwMDgyOTktMzUwMC00MDI1LTA1MTktbW9iZWRmZDExMDQ0MTUxMzNmZTEwLQ,http://pb.xyz.duunion.com/conv?tid=P_adb897ddd789e5a4-NzIxXzcyMDEtMTQwMDgyOTktMzUwMC00MDI1LTA1MTktbW9iZWRmZDExMDQ0MTUxMzNmZTEwLQ&adv_sectkn=55dea06a643eb8a2d267a735fe2683bd&adv_name=appier-api&payout=3.5,idfa_CE101579-BFB3-4B46-BFF3-309D1F1A8ECD,ko-KR
wEACTBR5R9-LXNpBMlwnGw,doglobal_api,7201_mobddb47ece5499827117,Install,3.5,14.85.41.26,945D911E-41B8-4903-AFC6-4F5EF9FBC09F,1557653717,2019-05-12 17:35:17,1557653740,2019-05-12 17:35:40,1557653771,P_3a5fb1033e270521-NzIxXzcyMDEtMTQwMDgyOTktMzUwMC00MDI1LTA1MTItbW9iZGRiNDdlY2U1NDk5ODI3MTE3LQ,http://pb.xyz.duunion.com/conv?tid=P_3a5fb1033e270521-NzIxXzcyMDEtMTQwMDgyOTktMzUwMC00MDI1LTA1MTItbW9iZGRiNDdlY2U1NDk5ODI3MTE3LQ&adv_sectkn=55dea06a643eb8a2d267a735fe2683bd&adv_name=appier-api&payout=3.5,idfa_945D911E-41B8-4903-AFC6-4F5EF9FBC09F,en-KR
wEACTBR5R9-LXNpBMlwnGw,doglobal_api,7201_mobddb47ece5499827108,Install,3.5,125.177.186.178,5DB219DE-99AD-4023-9FC9-51BC956F5BDB,1557708172,2019-05-13 08:42:52,1557708275,2019-05-13 08:44:35,1557708313,B_a10c6b0c4d34f425-NzIxXzcyMDEtMTQwMDgyOTktMzUwMC00MDI1LTA1MTMtbW9iZGRiNDdlY2U1NDk5ODI3MTA4LQ,http://pb.xyz.duunion.com/conv?tid=B_a10c6b0c4d34f425-NzIxXzcyMDEtMTQwMDgyOTktMzUwMC00MDI1LTA1MTMtbW9iZGRiNDdlY2U1NDk5ODI3MTA4LQ&adv_sectkn=55dea06a643eb8a2d267a735fe2683bd&adv_name=appier-api&payout=3.5,idfa_5DB219DE-99AD-4023-9FC9-51BC956F5BDB,en-GB
wEACTBR5R9-LXNpBMlwnGw,doglobal_api,7201_mobddb47ece5499827112,Install,3.5,61.74.181.17,7ED3E634-03DC-432A-9D41-DF28865A4F46,1557807109,2019-05-14 12:11:49,1557807160,2019-05-14 12:12:40,1557807190,P_79e78f93f51d740f-NzIxXzcyMDEtMTQwMDgyOTktMzUwMC00MDI1LTA1MTQtbW9iZGRiNDdlY2U1NDk5ODI3MTEyLQ,http://pb.xyz.duunion.com/conv?tid=P_79e78f93f51d740f-NzIxXzcyMDEtMTQwMDgyOTktMzUwMC00MDI1LTA1MTQtbW9iZGRiNDdlY2U1NDk5ODI3MTEyLQ&adv_sectkn=55dea06a643eb8a2d267a735fe2683bd&adv_name=appier-api&payout=3.5,idfa_7ED3E634-03DC-432A-9D41-DF28865A4F46,en-GB
wEACTBR5R9-LXNpBMlwnGw,doglobal_api,7201_mob441738ca4a41316518,Install,3.5,121.126.37.157,FB302846-732E-4F30-AFF4-A1164E9991EC,1557914834,2019-05-15 18:07:14,1557914884,2019-05-15 18:08:04,1557914915,B_877221f55b616454-NzIxXzcyMDEtMTQwMDgyOTktMzUwMC00MDI1LTA1MTUtbW9iNDQxNzM4Y2E0YTQxMzE2NTE4LQ,http://pb.xyz.duunion.com/conv?tid=B_877221f55b616454-NzIxXzcyMDEtMTQwMDgyOTktMzUwMC00MDI1LTA1MTUtbW9iNDQxNzM4Y2E0YTQxMzE2NTE4LQ&adv_sectkn=55dea06a643eb8a2d267a735fe2683bd&adv_name=appier-api&payout=3.5,idfa_FB302846-732E-4F30-AFF4-A1164E9991EC,ko-KR
wEACTBR5R9-LXNpBMlwnGw,doglobal_api,7201_mobedfd1104415133fe09,Install,3.5,1.234.5.210,7481C9D1-88B1-4592-913A-1037EDA0F40E,1558230923,2019-05-19 09:55:23,1558230963,2019-05-19 09:56:03,1558231002,B_310445b10ea49491-NzIxXzcyMDEtMTQwMDgyOTktMzUwMC00MDI1LTA1MTktbW9iZWRmZDExMDQ0MTUxMzNmZTA5LQ,http://pb.xyz.duunion.com/conv?tid=B_310445b10ea49491-NzIxXzcyMDEtMTQwMDgyOTktMzUwMC00MDI1LTA1MTktbW9iZWRmZDExMDQ0MTUxMzNmZTA5LQ&adv_sectkn=55dea06a643eb8a2d267a735fe2683bd&adv_name=appier-api&payout=3.5,idfa_7481C9D1-88B1-4592-913A-1037EDA0F40E,ko-KR
wEACTBR5R9-LXNpBMlwnGw,doglobal_api,7201_mobddb47ece5499827101,Install,3.5,115.41.147.129,7C2E3AF1-8F1A-409B-B91C-050307CF70E8,1557337557,2019-05-09 01:45:57,1557337622,2019-05-09 01:47:02,1557337653,B_5db91e55499412de-NzIxXzcyMDEtMTQwMDgyOTktMzUwMC00MDI1LTA1MDktbW9iZGRiNDdlY2U1NDk5ODI3MTAxLQ,http://pb.xyz.duunion.com/conv?tid=B_5db91e55499412de-NzIxXzcyMDEtMTQwMDgyOTktMzUwMC00MDI1LTA1MDktbW9iZGRiNDdlY2U1NDk5ODI3MTAxLQ&adv_sectkn=55dea06a643eb8a2d267a735fe2683bd&adv_name=appier-api&payout=3.5,idfa_7C2E3AF1-8F1A-409B-B91C-050307CF70E8,en-GB
wEACTBR5R9-LXNpBMlwnGw,doglobal_api,7201_mob441738ca4a41316518,Install,3.5,121.151.86.155,82597C6B-EF89-4753-BCE8-38808077B34A,1557915204,2019-05-15 18:13:24,1557915295,2019-05-15 18:14:55,1557915327,P_034d6611244fe891-NzIxXzcyMDEtMTQwMDgyOTktMzUwMC00MDI1LTA1MTUtbW9iNDQxNzM4Y2E0YTQxMzE2NTE4LQ,http://pb.xyz.duunion.com/conv?tid=P_034d6611244fe891-NzIxXzcyMDEtMTQwMDgyOTktMzUwMC00MDI1LTA1MTUtbW9iNDQxNzM4Y2E0YTQxMzE2NTE4LQ&adv_sectkn=55dea06a643eb8a2d267a735fe2683bd&adv_name=appier-api&payout=3.5,idfa_82597C6B-EF89-4753-BCE8-38808077B34A,ko-KR
wEACTBR5R9-LXNpBMlwnGw,doglobal_api,7201_mobedfd1104415133fe09,Install,3.5,118.220.64.41,7594404F-1A20-4A30-98B6-5045D1F8A81E,1558316434,2019-05-20 09:40:34,1558316466,2019-05-20 09:41:06,1558316497,P_1b016e68cdecf2ea-NzIxXzcyMDEtMTQwMDgyOTktMzUwMC00MDI1LTA1MjAtbW9iZWRmZDExMDQ0MTUxMzNmZTA5LQ,http://pb.xyz.duunion.com/conv?tid=P_1b016e68cdecf2ea-NzIxXzcyMDEtMTQwMDgyOTktMzUwMC00MDI1LTA1MjAtbW9iZWRmZDExMDQ0MTUxMzNmZTA5LQ&adv_sectkn=55dea06a643eb8a2d267a735fe2683bd&adv_name=appier-api&payout=3.5,idfa_7594404F-1A20-4A30-98B6-5045D1F8A81E,ko-KR
wEACTBR5R9-LXNpBMlwnGw,doglobal_api,7201_mob441738ca4a41316511,Install,3.5,121.173.142.131,7714C6A5-6D08-4445-AE48-AA2036F1E18A,1558065000,2019-05-17 11:50:00,1558065032,2019-05-17 11:50:32,1558065069,P_bc2621afda2ae2b7-NzIxXzcyMDEtMTQwMDgyOTktMzUwMC00MDI1LTA1MTctbW9iNDQxNzM4Y2E0YTQxMzE2NTExLQ,http://pb.xyz.duunion.com/conv?tid=P_bc2621afda2ae2b7-NzIxXzcyMDEtMTQwMDgyOTktMzUwMC00MDI1LTA1MTctbW9iNDQxNzM4Y2E0YTQxMzE2NTExLQ&adv_sectkn=55dea06a643eb8a2d267a735fe2683bd&adv_name=appier-api&payout=3.5,idfa_7714C6A5-6D08-4445-AE48-AA2036F1E18A,zh-Hant-KR
wEACTBR5R9-LXNpBMlwnGw,doglobal_api,7201_mobddb47ece5499827120,Install,3.5,175.197.130.159,B4CA42B9-1174-4776-BDEB-47860BC28EB9,1557060372,2019-05-05 20:46:12,1557060439,2019-05-05 20:47:19,1557060470,B_99223c4a8108c34b-NzIxXzcyMDEtMTQwMDgyOTktMzUwMC00MDI1LTA1MDUtbW9iZGRiNDdlY2U1NDk5ODI3MTIwLQ,http://pb.xyz.duunion.com/conv?tid=B_99223c4a8108c34b-NzIxXzcyMDEtMTQwMDgyOTktMzUwMC00MDI1LTA1MDUtbW9iZGRiNDdlY2U1NDk5ODI3MTIwLQ&adv_sectkn=55dea06a643eb8a2d267a735fe2683bd&adv_name=appier-api&payout=3.5,idfa_B4CA42B9-1174-4776-BDEB-47860BC28EB9,en-GB
wEACTBR5R9-LXNpBMlwnGw,doglobal_api,7201_mob441738ca4a41316510,Install,3.5,182.218.54.20,FDC304A5-C3B2-4B95-A8D7-CE7AC86F7690,1557108902,2019-05-06 10:15:02,1557108962,2019-05-06 10:16:02,1557108992,P_215d5013afd0bbe1-NzIxXzcyMDEtMTQwMDgyOTktMzUwMC00MDI1LTA1MDYtbW9iNDQxNzM4Y2E0YTQxMzE2NTEwLQ,http://pb.xyz.duunion.com/conv?tid=P_215d5013afd0bbe1-NzIxXzcyMDEtMTQwMDgyOTktMzUwMC00MDI1LTA1MDYtbW9iNDQxNzM4Y2E0YTQxMzE2NTEwLQ&adv_sectkn=55dea06a643eb8a2d267a735fe2683bd&adv_name=appier-api&payout=3.5,idfa_FDC304A5-C3B2-4B95-A8D7-CE7AC86F7690,ko-KR
wEACTBR5R9-LXNpBMlwnGw,doglobal_api,7201_mobddb47ece5499827102,Install,3.5,122.36.4.51,9F08FC7D-0D95-4551-8317-6CBE5272A057,1557513707,2019-05-11 02:41:47,1557513785,2019-05-11 02:43:05,1557513816,B_b43a4aa390334697-NzIxXzcyMDEtMTQwMDgyOTktMzUwMC00MDI1LTA1MTEtbW9iZGRiNDdlY2U1NDk5ODI3MTAyLQ,http://pb.xyz.duunion.com/conv?tid=B_b43a4aa390334697-NzIxXzcyMDEtMTQwMDgyOTktMzUwMC00MDI1LTA1MTEtbW9iZGRiNDdlY2U1NDk5ODI3MTAyLQ&adv_sectkn=55dea06a643eb8a2d267a735fe2683bd&adv_name=appier-api&payout=3.5,idfa_9F08FC7D-0D95-4551-8317-6CBE5272A057,en-GB
wEACTBR5R9-LXNpBMlwnGw,doglobal_api,7201_mobddb47ece5499827112,Install,3.5,118.45.70.122,82444399-6EBA-40BE-9B5A-08E5F4A14EAB,1557893682,2019-05-15 12:14:42,1557893744,2019-05-15 12:15:44,1557893778,P_17ae84537a9f690a-NzIxXzcyMDEtMTQwMDgyOTktMzUwMC00MDI1LTA1MTUtbW9iZGRiNDdlY2U1NDk5ODI3MTEyLQ,http://pb.xyz.duunion.com/conv?tid=P_17ae84537a9f690a-NzIxXzcyMDEtMTQwMDgyOTktMzUwMC00MDI1LTA1MTUtbW9iZGRiNDdlY2U1NDk5ODI3MTEyLQ&adv_sectkn=55dea06a643eb8a2d267a735fe2683bd&adv_name=appier-api&payout=3.5,idfa_82444399-6EBA-40BE-9B5A-08E5F4A14EAB,en-GB
wEACTBR5R9-LXNpBMlwnGw,doglobal_api,7201_mobddb47ece5499827101,Install,3.5,1.236.158.236,A4516147-217C-43B1-9CC1-7A8AFF552DB8,1557510791,2019-05-11 01:53:11,1557510850,2019-05-11 01:54:10,1557510883,P_6f238e2ea8f62738-NzIxXzcyMDEtMTQwMDgyOTktMzUwMC00MDI1LTA1MTEtbW9iZGRiNDdlY2U1NDk5ODI3MTAxLQ,http://pb.xyz.duunion.com/conv?tid=P_6f238e2ea8f62738-NzIxXzcyMDEtMTQwMDgyOTktMzUwMC00MDI1LTA1MTEtbW9iZGRiNDdlY2U1NDk5ODI3MTAxLQ&adv_sectkn=55dea06a643eb8a2d267a735fe2683bd&adv_name=appier-api&payout=3.5,idfa_A4516147-217C-43B1-9CC1-7A8AFF552DB8,en-GB
wEACTBR5R9-LXNpBMlwnGw,doglobal_api,7201_mob57979728d2699c3810,Install,3.5,175.125.190.6,B2485892-286E-4701-8F6E-93BD4193EF3A,1557108501,2019-05-06 10:08:21,1557108569,2019-05-06 10:09:29,1557108599,P_715b12f63b46d3aa-NzIxXzcyMDEtMTQwMDgyOTktMzUwMC00MDI1LTA1MDYtbW9iNTc5Nzk3MjhkMjY5OWMzODEwLQ,http://pb.xyz.duunion.com/conv?tid=P_715b12f63b46d3aa-NzIxXzcyMDEtMTQwMDgyOTktMzUwMC00MDI1LTA1MDYtbW9iNTc5Nzk3MjhkMjY5OWMzODEwLQ&adv_sectkn=55dea06a643eb8a2d267a735fe2683bd&adv_name=appier-api&payout=3.5,idfa_B2485892-286E-4701-8F6E-93BD4193EF3A,en-GB
wEACTBR5R9-LXNpBMlwnGw,doglobal_api,7201_mobddb47ece5499827115,Install,3.5,61.77.250.100,9F764692-392E-40F2-A8B6-21A5FE9888E9,1557647614,2019-05-12 15:53:34,1557647702,2019-05-12 15:55:02,1557647733,P_59832ac1940f539c-NzIxXzcyMDEtMTQwMDgyOTktMzUwMC00MDI1LTA1MTItbW9iZGRiNDdlY2U1NDk5ODI3MTE1LQ,http://pb.xyz.duunion.com/conv?tid=P_59832ac1940f539c-NzIxXzcyMDEtMTQwMDgyOTktMzUwMC00MDI1LTA1MTItbW9iZGRiNDdlY2U1NDk5ODI3MTE1LQ&adv_sectkn=55dea06a643eb8a2d267a735fe2683bd&adv_name=appier-api&payout=3.5,idfa_9F764692-392E-40F2-A8B6-21A5FE9888E9,en-GB
wEACTBR5R9-LXNpBMlwnGw,doglobal_api,7201_mob441738ca4a41316518,Install,3.5,211.250.42.74,EE085E48-2329-4659-82D1-A5A6D2229970,1557914722,2019-05-15 18:05:22,1557914773,2019-05-15 18:06:13,1557914804,B_5df28923b62bab40-NzIxXzcyMDEtMTQwMDgyOTktMzUwMC00MDI1LTA1MTUtbW9iNDQxNzM4Y2E0YTQxMzE2NTE4LQ,http://pb.xyz.duunion.com/conv?tid=B_5df28923b62bab40-NzIxXzcyMDEtMTQwMDgyOTktMzUwMC00MDI1LTA1MTUtbW9iNDQxNzM4Y2E0YTQxMzE2NTE4LQ&adv_sectkn=55dea06a643eb8a2d267a735fe2683bd&adv_name=appier-api&payout=3.5,idfa_EE085E48-2329-4659-82D1-A5A6D2229970,ko-KR
wEACTBR5R9-LXNpBMlwnGw,doglobal_api,7201_mobddb47ece5499827112,Install,3.5,222.110.142.202,2E3D11E5-60BB-47A0-99D3-F27A39F49364,1557808393,2019-05-14 12:33:13,1557808473,2019-05-14 12:34:33,1557808504,P_42268fc6cf878647-NzIxXzcyMDEtMTQwMDgyOTktMzUwMC00MDI1LTA1MTQtbW9iZGRiNDdlY2U1NDk5ODI3MTEyLQ,http://pb.xyz.duunion.com/conv?tid=P_42268fc6cf878647-NzIxXzcyMDEtMTQwMDgyOTktMzUwMC00MDI1LTA1MTQtbW9iZGRiNDdlY2U1NDk5ODI3MTEyLQ&adv_sectkn=55dea06a643eb8a2d267a735fe2683bd&adv_name=appier-api&payout=3.5,idfa_2E3D11E5-60BB-47A0-99D3-F27A39F49364,en-GB
wEACTBR5R9-LXNpBMlwnGw,doglobal_api,7201_mobedfd1104415133fe09,Install,3.5,114.30.165.105,7BDC94C4-C596-4342-BC5A-36E3BF78D874,1558315708,2019-05-20 09:28:28,1558315729,2019-05-20 09:28:49,1558315760,P_05ee053e870a9927-NzIxXzcyMDEtMTQwMDgyOTktMzUwMC00MDI1LTA1MjAtbW9iZWRmZDExMDQ0MTUxMzNmZTA5LQ,http://pb.xyz.duunion.com/conv?tid=P_05ee053e870a9927-NzIxXzcyMDEtMTQwMDgyOTktMzUwMC00MDI1LTA1MjAtbW9iZWRmZDExMDQ0MTUxMzNmZTA5LQ&adv_sectkn=55dea06a643eb8a2d267a735fe2683bd&adv_name=appier-api&payout=3.5,idfa_7BDC94C4-C596-4342-BC5A-36E3BF78D874,en-KR
wEACTBR5R9-LXNpBMlwnGw,doglobal_api,7201_mob3f8313dc24b5623112,Install,3.5,61.81.121.62,B391E080-E43A-488D-9732-38666086A590,1557547661,2019-05-11 12:07:41,1557547732,2019-05-11 12:08:52,1557547763,B_5e6144099c80ad18-NzIxXzcyMDEtMTQwMDgyOTktMzUwMC00MDI1LTA1MTEtbW9iM2Y4MzEzZGMyNGI1NjIzMTEyLQ,http://pb.xyz.duunion.com/conv?tid=B_5e6144099c80ad18-NzIxXzcyMDEtMTQwMDgyOTktMzUwMC00MDI1LTA1MTEtbW9iM2Y4MzEzZGMyNGI1NjIzMTEyLQ&adv_sectkn=55dea06a643eb8a2d267a735fe2683bd&adv_name=appier-api&payout=3.5,idfa_B391E080-E43A-488D-9732-38666086A590,ko-KR
wEACTBR5R9-LXNpBMlwnGw,doglobal_api,7201_mobddb47ece5499827108,Install,3.5,118.39.15.60,269B99D4-D997-474B-B722-A3E3F695D962,1557709171,2019-05-13 08:59:31,1557709226,2019-05-13 09:00:26,1557709257,P_9aef470b54603ff7-NzIxXzcyMDEtMTQwMDgyOTktMzUwMC00MDI1LTA1MTMtbW9iZGRiNDdlY2U1NDk5ODI3MTA4LQ,http://pb.xyz.duunion.com/conv?tid=P_9aef470b54603ff7-NzIxXzcyMDEtMTQwMDgyOTktMzUwMC00MDI1LTA1MTMtbW9iZGRiNDdlY2U1NDk5ODI3MTA4LQ&adv_sectkn=55dea06a643eb8a2d267a735fe2683bd&adv_name=appier-api&payout=3.5,idfa_269B99D4-D997-474B-B722-A3E3F695D962,en-GB
wEACTBR5R9-LXNpBMlwnGw,doglobal_api,7201_mobddb47ece5499827101,Install,3.5,175.119.84.201,B2EC25DF-1ACC-46A1-93C7-2CD57D697C51,1557511197,2019-05-11 01:59:57,1557511270,2019-05-11 02:01:10,1557511301,P_8f9b412c4ec9a3f4-NzIxXzcyMDEtMTQwMDgyOTktMzUwMC00MDI1LTA1MTEtbW9iZGRiNDdlY2U1NDk5ODI3MTAxLQ,http://pb.xyz.duunion.com/conv?tid=P_8f9b412c4ec9a3f4-NzIxXzcyMDEtMTQwMDgyOTktMzUwMC00MDI1LTA1MTEtbW9iZGRiNDdlY2U1NDk5ODI3MTAxLQ&adv_sectkn=55dea06a643eb8a2d267a735fe2683bd&adv_name=appier-api&payout=3.5,idfa_B2EC25DF-1ACC-46A1-93C7-2CD57D697C51,en-GB
wEACTBR5R9-LXNpBMlwnGw,doglobal_api,7201_mob57979728d2699c3811,Install,3.5,49.164.45.226,,1557373957,2019-05-09 11:52:37,1557374032,2019-05-09 11:53:52,1557374062,B_61bc0ebe3d1587dd-NzIxXzcyMDEtMTQwMDgyOTktMzUwMC00MDI1LTA1MDktbW9iNTc5Nzk3MjhkMjY5OWMzODExLQ,http://pb.xyz.duunion.com/conv?tid=B_61bc0ebe3d1587dd-NzIxXzcyMDEtMTQwMDgyOTktMzUwMC00MDI1LTA1MDktbW9iNTc5Nzk3MjhkMjY5OWMzODExLQ&adv_sectkn=55dea06a643eb8a2d267a735fe2683bd&adv_name=appier-api&payout=3.5,ip_49.164.45.226,en-GB
wEACTBR5R9-LXNpBMlwnGw,doglobal_api,7201_mob57979728d2699c3802,Install,3.5,175.200.240.140,9A1C6C41-BBD1-44FF-BC1A-30019B069DFC,1557252098,2019-05-08 02:01:38,1557252182,2019-05-08 02:03:02,1557252213,P_110ecd298c72c57b-NzIxXzcyMDEtMTQwMDgyOTktMzUwMC00MDI1LTA1MDgtbW9iNTc5Nzk3MjhkMjY5OWMzODAyLQ,http://pb.xyz.duunion.com/conv?tid=P_110ecd298c72c57b-NzIxXzcyMDEtMTQwMDgyOTktMzUwMC00MDI1LTA1MDgtbW9iNTc5Nzk3MjhkMjY5OWMzODAyLQ&adv_sectkn=55dea06a643eb8a2d267a735fe2683bd&adv_name=appier-api&payout=3.5,idfa_9A1C6C41-BBD1-44FF-BC1A-30019B069DFC,en-GB
wEACTBR5R9-LXNpBMlwnGw,doglobal_api,7201_mob57979728d2699c3820,Install,3.5,218.39.162.100,02C322B4-C7E5-47B4-AB4F-033B75771EE3,1557060403,2019-05-05 20:46:43,1557060463,2019-05-05 20:47:43,1557060494,B_ff972fe765e0fe8a-NzIxXzcyMDEtMTQwMDgyOTktMzUwMC00MDI1LTA1MDUtbW9iNTc5Nzk3MjhkMjY5OWMzODIwLQ,http://pb.xyz.duunion.com/conv?tid=B_ff972fe765e0fe8a-NzIxXzcyMDEtMTQwMDgyOTktMzUwMC00MDI1LTA1MDUtbW9iNTc5Nzk3MjhkMjY5OWMzODIwLQ&adv_sectkn=55dea06a643eb8a2d267a735fe2683bd&adv_name=appier-api&payout=3.5,idfa_02C322B4-C7E5-47B4-AB4F-033B75771EE3,en-GB
wEACTBR5R9-LXNpBMlwnGw,doglobal_api,7201_mobddb47ece5499827112,Install,3.5,119.194.115.80,63BA6B5D-9A92-4556-B6E7-9D719EB1C70E,1557896203,2019-05-15 12:56:43,1557896268,2019-05-15 12:57:48,1557896299,P_f6d3b79034934032-NzIxXzcyMDEtMTQwMDgyOTktMzUwMC00MDI1LTA1MTUtbW9iZGRiNDdlY2U1NDk5ODI3MTEyLQ,http://pb.xyz.duunion.com/conv?tid=P_f6d3b79034934032-NzIxXzcyMDEtMTQwMDgyOTktMzUwMC00MDI1LTA1MTUtbW9iZGRiNDdlY2U1NDk5ODI3MTEyLQ&adv_sectkn=55dea06a643eb8a2d267a735fe2683bd&adv_name=appier-api&payout=3.5,idfa_63BA6B5D-9A92-4556-B6E7-9D719EB1C70E,en-GB
wEACTBR5R9-LXNpBMlwnGw,doglobal_api,7201_mobedfd1104415133fe12,Install,3.5,14.85.88.4,90331743-05CD-438B-8594-FDB6F5A692A2,1558411218,2019-05-21 12:00:18,1558411272,2019-05-21 12:01:12,1558411302,B_9c510219805c1b4b-NzIxXzcyMDEtMTQwMDgyOTktMzUwMC00MDI1LTA1MjEtbW9iZWRmZDExMDQ0MTUxMzNmZTEyLQ,http://pb.xyz.duunion.com/conv?tid=B_9c510219805c1b4b-NzIxXzcyMDEtMTQwMDgyOTktMzUwMC00MDI1LTA1MjEtbW9iZWRmZDExMDQ0MTUxMzNmZTEyLQ&adv_sectkn=55dea06a643eb8a2d267a735fe2683bd&adv_name=appier-api&payout=3.5,idfa_90331743-05CD-438B-8594-FDB6F5A692A2,ko-KR
wEACTBR5R9-LXNpBMlwnGw,doglobal_api,7201_mobddb47ece5499827120,Install,3.5,211.170.59.247,2B9381A0-61BB-45AF-80B6-E76C474516C8,1557060931,2019-05-05 20:55:31,1557060996,2019-05-05 20:56:36,1557061026,B_a9938813e2792d9d-NzIxXzcyMDEtMTQwMDgyOTktMzUwMC00MDI1LTA1MDUtbW9iZGRiNDdlY2U1NDk5ODI3MTIwLQ,http://pb.xyz.duunion.com/conv?tid=B_a9938813e2792d9d-NzIxXzcyMDEtMTQwMDgyOTktMzUwMC00MDI1LTA1MDUtbW9iZGRiNDdlY2U1NDk5ODI3MTIwLQ&adv_sectkn=55dea06a643eb8a2d267a735fe2683bd&adv_name=appier-api&payout=3.5,idfa_2B9381A0-61BB-45AF-80B6-E76C474516C8,en-GB
wEACTBR5R9-LXNpBMlwnGw,doglobal_api,7201_mobddb47ece5499827111,Install,3.5,39.119.180.254,4D2ABB07-0334-4F3F-9A59-FDE82474DD6E,1557544669,2019-05-11 11:17:49,1557544777,2019-05-11 11:19:37,1557544808,B_8670ee5c3e3a7fd3-NzIxXzcyMDEtMTQwMDgyOTktMzUwMC00MDI1LTA1MTEtbW9iZGRiNDdlY2U1NDk5ODI3MTExLQ,http://pb.xyz.duunion.com/conv?tid=B_8670ee5c3e3a7fd3-NzIxXzcyMDEtMTQwMDgyOTktMzUwMC00MDI1LTA1MTEtbW9iZGRiNDdlY2U1NDk5ODI3MTExLQ&adv_sectkn=55dea06a643eb8a2d267a735fe2683bd&adv_name=appier-api&payout=3.5,idfa_4D2ABB07-0334-4F3F-9A59-FDE82474DD6E,en-GB
wEACTBR5R9-LXNpBMlwnGw,doglobal_api,7201_mobddb47ece5499827108,Install,3.5,123.212.21.200,F79750BF-AA6D-4BF4-8FBA-A88828795777,1557708919,2019-05-13 08:55:19,1557708988,2019-05-13 08:56:28,1557709019,B_ea2c73b9b2bacbc4-NzIxXzcyMDEtMTQwMDgyOTktMzUwMC00MDI1LTA1MTMtbW9iZGRiNDdlY2U1NDk5ODI3MTA4LQ,http://pb.xyz.duunion.com/conv?tid=B_ea2c73b9b2bacbc4-NzIxXzcyMDEtMTQwMDgyOTktMzUwMC00MDI1LTA1MTMtbW9iZGRiNDdlY2U1NDk5ODI3MTA4LQ&adv_sectkn=55dea06a643eb8a2d267a735fe2683bd&adv_name=appier-api&payout=3.5,idfa_F79750BF-AA6D-4BF4-8FBA-A88828795777,en-GB
wEACTBR5R9-LXNpBMlwnGw,doglobal_api,7201_mob441738ca4a41316511,Install,3.5,211.244.225.164,B55F8E78-9DA8-412D-8FB3-6B0307011C93,1558064760,2019-05-17 11:46:00,1558064804,2019-05-17 11:46:44,1558064835,P_8320e6fb818ea869-NzIxXzcyMDEtMTQwMDgyOTktMzUwMC00MDI1LTA1MTctbW9iNDQxNzM4Y2E0YTQxMzE2NTExLQ,http://pb.xyz.duunion.com/conv?tid=P_8320e6fb818ea869-NzIxXzcyMDEtMTQwMDgyOTktMzUwMC00MDI1LTA1MTctbW9iNDQxNzM4Y2E0YTQxMzE2NTExLQ&adv_sectkn=55dea06a643eb8a2d267a735fe2683bd&adv_name=appier-api&payout=3.5,idfa_B55F8E78-9DA8-412D-8FB3-6B0307011C93,en-US
wEACTBR5R9-LXNpBMlwnGw,doglobal_api,7201_mob441738ca4a41316518,Install,3.5,182.231.16.78,999DFDCB-BF49-44F8-86CB-1244345B54CE,1557915042,2019-05-15 18:10:42,1557915150,2019-05-15 18:12:30,1557915200,B_c884d861bc7cde5d-NzIxXzcyMDEtMTQwMDgyOTktMzUwMC00MDI1LTA1MTUtbW9iNDQxNzM4Y2E0YTQxMzE2NTE4LQ,http://pb.xyz.duunion.com/conv?tid=B_c884d861bc7cde5d-NzIxXzcyMDEtMTQwMDgyOTktMzUwMC00MDI1LTA1MTUtbW9iNDQxNzM4Y2E0YTQxMzE2NTE4LQ&adv_sectkn=55dea06a643eb8a2d267a735fe2683bd&adv_name=appier-api&payout=3.5,idfa_999DFDCB-BF49-44F8-86CB-1244345B54CE,ko-KR
wEACTBR5R9-LXNpBMlwnGw,doglobal_api,7201_mobddb47ece5499827102,Install,3.5,220.78.185.150,64661D09-0371-4167-9012-78F915435CB5,1557252066,2019-05-08 02:01:06,1557252139,2019-05-08 02:02:19,1557252169,B_ae32ec56c70f7722-NzIxXzcyMDEtMTQwMDgyOTktMzUwMC00MDI1LTA1MDgtbW9iZGRiNDdlY2U1NDk5ODI3MTAyLQ,http://pb.xyz.duunion.com/conv?tid=B_ae32ec56c70f7722-NzIxXzcyMDEtMTQwMDgyOTktMzUwMC00MDI1LTA1MDgtbW9iZGRiNDdlY2U1NDk5ODI3MTAyLQ&adv_sectkn=55dea06a643eb8a2d267a735fe2683bd&adv_name=appier-api&payout=3.5,idfa_64661D09-0371-4167-9012-78F915435CB5,en-GB
wEACTBR5R9-LXNpBMlwnGw,doglobal_api,7201_mobddb47ece5499827110,Install,3.5,59.0.133.154,,1557110189,2019-05-06 10:36:29,1557110251,2019-05-06 10:37:31,1557110281,B_6f429125e653ffce-NzIxXzcyMDEtMTQwMDgyOTktMzUwMC00MDI1LTA1MDYtbW9iZGRiNDdlY2U1NDk5ODI3MTEwLQ,http://pb.xyz.duunion.com/conv?tid=B_6f429125e653ffce-NzIxXzcyMDEtMTQwMDgyOTktMzUwMC00MDI1LTA1MDYtbW9iZGRiNDdlY2U1NDk5ODI3MTEwLQ&adv_sectkn=55dea06a643eb8a2d267a735fe2683bd&adv_name=appier-api&payout=3.5,ip_59.0.133.154,en-GB
wEACTBR5R9-LXNpBMlwnGw,doglobal_api,7201_mobedfd1104415133fe09,Install,3.5,218.146.86.246,22CAEA94-BB63-40BC-AA94-2960C1FA4364,1558316509,2019-05-20 09:41:49,1558316533,2019-05-20 09:42:13,1558316563,P_39d269069ba12d42-NzIxXzcyMDEtMTQwMDgyOTktMzUwMC00MDI1LTA1MjAtbW9iZWRmZDExMDQ0MTUxMzNmZTA5LQ,http://pb.xyz.duunion.com/conv?tid=P_39d269069ba12d42-NzIxXzcyMDEtMTQwMDgyOTktMzUwMC00MDI1LTA1MjAtbW9iZWRmZDExMDQ0MTUxMzNmZTA5LQ&adv_sectkn=55dea06a643eb8a2d267a735fe2683bd&adv_name=appier-api&payout=3.5,idfa_22CAEA94-BB63-40BC-AA94-2960C1FA4364,en-KR
wEACTBR5R9-LXNpBMlwnGw,doglobal_api,7201_mobddb47ece5499827108,Install,3.5,218.157.227.187,7B89CC3E-911B-4AE7-BEE8-A0B1C17ED0BC,1557708987,2019-05-13 08:56:27,1557709056,2019-05-13 08:57:36,1557709088,P_be9de9ea138d8fdb-NzIxXzcyMDEtMTQwMDgyOTktMzUwMC00MDI1LTA1MTMtbW9iZGRiNDdlY2U1NDk5ODI3MTA4LQ,http://pb.xyz.duunion.com/conv?tid=P_be9de9ea138d8fdb-NzIxXzcyMDEtMTQwMDgyOTktMzUwMC00MDI1LTA1MTMtbW9iZGRiNDdlY2U1NDk5ODI3MTA4LQ&adv_sectkn=55dea06a643eb8a2d267a735fe2683bd&adv_name=appier-api&payout=3.5,idfa_7B89CC3E-911B-4AE7-BEE8-A0B1C17ED0BC,en-GB
wEACTBR5R9-LXNpBMlwnGw,doglobal_api,7201_mobddb47ece5499827112,Install,3.5,58.151.94.253,E1F7C904-7963-490C-A3A4-7C863C0AF33F,1557374601,2019-05-09 12:03:21,1557374668,2019-05-09 12:04:28,1557374698,P_3ea3fb0cf720a405-NzIxXzcyMDEtMTQwMDgyOTktMzUwMC00MDI1LTA1MDktbW9iZGRiNDdlY2U1NDk5ODI3MTEyLQ,http://pb.xyz.duunion.com/conv?tid=P_3ea3fb0cf720a405-NzIxXzcyMDEtMTQwMDgyOTktMzUwMC00MDI1LTA1MDktbW9iZGRiNDdlY2U1NDk5ODI3MTEyLQ&adv_sectkn=55dea06a643eb8a2d267a735fe2683bd&adv_name=appier-api&payout=3.5,idfa_E1F7C904-7963-490C-A3A4-7C863C0AF33F,en-GB
wEACTBR5R9-LXNpBMlwnGw,doglobal_api,7201_mobddb47ece5499827117,Install,3.5,1.214.196.154,9D995FB9-D64C-4969-AF80-8BFCE6D06081,1557652984,2019-05-12 17:23:04,1557653009,2019-05-12 17:23:29,1557653040,B_5a059d2221a062f9-NzIxXzcyMDEtMTQwMDgyOTktMzUwMC00MDI1LTA1MTItbW9iZGRiNDdlY2U1NDk5ODI3MTE3LQ,http://pb.xyz.duunion.com/conv?tid=B_5a059d2221a062f9-NzIxXzcyMDEtMTQwMDgyOTktMzUwMC00MDI1LTA1MTItbW9iZGRiNDdlY2U1NDk5ODI3MTE3LQ&adv_sectkn=55dea06a643eb8a2d267a735fe2683bd&adv_name=appier-api&payout=3.5,idfa_9D995FB9-D64C-4969-AF80-8BFCE6D06081,en-KR
wEACTBR5R9-LXNpBMlwnGw,doglobal_api,7201_mob441738ca4a41316518,Install,3.5,183.97.106.140,E343070B-D32C-4EAC-BA73-C5F475B3BB2F,1557914615,2019-05-15 18:03:35,1557914659,2019-05-15 18:04:19,1557914690,B_2f6ce56c639ca6d3-NzIxXzcyMDEtMTQwMDgyOTktMzUwMC00MDI1LTA1MTUtbW9iNDQxNzM4Y2E0YTQxMzE2NTE4LQ,http://pb.xyz.duunion.com/conv?tid=B_2f6ce56c639ca6d3-NzIxXzcyMDEtMTQwMDgyOTktMzUwMC00MDI1LTA1MTUtbW9iNDQxNzM4Y2E0YTQxMzE2NTE4LQ&adv_sectkn=55dea06a643eb8a2d267a735fe2683bd&adv_name=appier-api&payout=3.5,idfa_E343070B-D32C-4EAC-BA73-C5F475B3BB2F,ko-KR
wEACTBR5R9-LXNpBMlwnGw,doglobal_api,7201_mobddb47ece5499827117,Install,3.5,121.126.37.154,BE7D048E-50E8-433C-8CE5-A8197407B708,1557653663,2019-05-12 17:34:23,1557653688,2019-05-12 17:34:48,1557653718,P_812ba447eb57897d-NzIxXzcyMDEtMTQwMDgyOTktMzUwMC00MDI1LTA1MTItbW9iZGRiNDdlY2U1NDk5ODI3MTE3LQ,http://pb.xyz.duunion.com/conv?tid=P_812ba447eb57897d-NzIxXzcyMDEtMTQwMDgyOTktMzUwMC00MDI1LTA1MTItbW9iZGRiNDdlY2U1NDk5ODI3MTE3LQ&adv_sectkn=55dea06a643eb8a2d267a735fe2683bd&adv_name=appier-api&payout=3.5,idfa_BE7D048E-50E8-433C-8CE5-A8197407B708,en-KR
wEACTBR5R9-LXNpBMlwnGw,doglobal_api,7201_mobddb47ece5499827101,Install,3.5,58.125.99.143,5EB812EE-33C5-45E1-960D-1F5BB11933A4,1557251697,2019-05-08 01:54:57,1557251753,2019-05-08 01:55:53,1557251783,P_4711be3c7cba270b-NzIxXzcyMDEtMTQwMDgyOTktMzUwMC00MDI1LTA1MDgtbW9iZGRiNDdlY2U1NDk5ODI3MTAxLQ,http://pb.xyz.duunion.com/conv?tid=P_4711be3c7cba270b-NzIxXzcyMDEtMTQwMDgyOTktMzUwMC00MDI1LTA1MDgtbW9iZGRiNDdlY2U1NDk5ODI3MTAxLQ&adv_sectkn=55dea06a643eb8a2d267a735fe2683bd&adv_name=appier-api&payout=3.5,idfa_5EB812EE-33C5-45E1-960D-1F5BB11933A4,en-GB
wEACTBR5R9-LXNpBMlwnGw,doglobal_api,7201_mob441738ca4a41316518,Install,3.5,115.139.233.22,56F60A1A-B94B-404D-B685-B94CD151A689,1557915063,2019-05-15 18:11:03,1557915163,2019-05-15 18:12:43,1557915195,P_2bc3cd81b02a5bad-NzIxXzcyMDEtMTQwMDgyOTktMzUwMC00MDI1LTA1MTUtbW9iNDQxNzM4Y2E0YTQxMzE2NTE4LQ,http://pb.xyz.duunion.com/conv?tid=P_2bc3cd81b02a5bad-NzIxXzcyMDEtMTQwMDgyOTktMzUwMC00MDI1LTA1MTUtbW9iNDQxNzM4Y2E0YTQxMzE2NTE4LQ&adv_sectkn=55dea06a643eb8a2d267a735fe2683bd&adv_name=appier-api&payout=3.5,idfa_56F60A1A-B94B-404D-B685-B94CD151A689,ko-KR
wEACTBR5R9-LXNpBMlwnGw,doglobal_api,7201_mobddb47ece5499827119,Install,3.5,211.179.184.8,43E46474-EA6A-4CE0-82FB-31B2DFFFBBAC,1557315920,2019-05-08 19:45:20,1557315990,2019-05-08 19:46:30,1557316023,P_5c55b1dd2f1d9d40-NzIxXzcyMDEtMTQwMDgyOTktMzUwMC00MDI1LTA1MDgtbW9iZGRiNDdlY2U1NDk5ODI3MTE5LQ,http://pb.xyz.duunion.com/conv?tid=P_5c55b1dd2f1d9d40-NzIxXzcyMDEtMTQwMDgyOTktMzUwMC00MDI1LTA1MDgtbW9iZGRiNDdlY2U1NDk5ODI3MTE5LQ&adv_sectkn=55dea06a643eb8a2d267a735fe2683bd&adv_name=appier-api&payout=3.5,idfa_43E46474-EA6A-4CE0-82FB-31B2DFFFBBAC,en-GB
wEACTBR5R9-LXNpBMlwnGw,doglobal_api,7201_mob57979728d2699c3820,Install,3.5,121.163.73.77,7F14E3D8-317F-4A18-A6C2-1B46328FBFD8,1557060471,2019-05-05 20:47:51,1557060539,2019-05-05 20:48:59,1557060570,P_4c4025c5ac27f222-NzIxXzcyMDEtMTQwMDgyOTktMzUwMC00MDI1LTA1MDUtbW9iNTc5Nzk3MjhkMjY5OWMzODIwLQ,http://pb.xyz.duunion.com/conv?tid=P_4c4025c5ac27f222-NzIxXzcyMDEtMTQwMDgyOTktMzUwMC00MDI1LTA1MDUtbW9iNTc5Nzk3MjhkMjY5OWMzODIwLQ&adv_sectkn=55dea06a643eb8a2d267a735fe2683bd&adv_name=appier-api&payout=3.5,idfa_7F14E3D8-317F-4A18-A6C2-1B46328FBFD8,en-GB
wEACTBR5R9-LXNpBMlwnGw,doglobal_api,7201_mobddb47ece5499827123,Install,3.5,112.147.119.26,1DE2AD27-30F2-4A46-A186-D056A4CD7A3A,1556983113,2019-05-04 23:18:33,1556983176,2019-05-04 23:19:36,1556983542,B_b0e74ec5a435de77-NzIxXzcyMDEtMTQwMDgyOTktMzUwMC00MDI1LTA1MDQtbW9iZGRiNDdlY2U1NDk5ODI3MTIzLQ,http://pb.xyz.duunion.com/conv?tid=B_b0e74ec5a435de77-NzIxXzcyMDEtMTQwMDgyOTktMzUwMC00MDI1LTA1MDQtbW9iZGRiNDdlY2U1NDk5ODI3MTIzLQ&adv_sectkn=55dea06a643eb8a2d267a735fe2683bd&adv_name=appier-api&payout=3.5,idfa_1DE2AD27-30F2-4A46-A186-D056A4CD7A3A,en-GB
wEACTBR5R9-LXNpBMlwnGw,doglobal_api,7201_mobedfd1104415133fe12,Install,3.5,119.75.89.79,7372C89C-36A9-49C4-9592-7DF40BB66B99,1558152142,2019-05-18 12:02:22,1558152295,2019-05-18 12:04:55,1558152326,P_3398f0cb01e30c4c-NzIxXzcyMDEtMTQwMDgyOTktMzUwMC00MDI1LTA1MTgtbW9iZWRmZDExMDQ0MTUxMzNmZTEyLQ,http://pb.xyz.duunion.com/conv?tid=P_3398f0cb01e30c4c-NzIxXzcyMDEtMTQwMDgyOTktMzUwMC00MDI1LTA1MTgtbW9iZWRmZDExMDQ0MTUxMzNmZTEyLQ&adv_sectkn=55dea06a643eb8a2d267a735fe2683bd&adv_name=appier-api&payout=3.5,idfa_7372C89C-36A9-49C4-9592-7DF40BB66B99,ko-KR
wEACTBR5R9-LXNpBMlwnGw,doglobal_api,7201_mobddb47ece5499827113,Install,3.5,210.105.5.253,382EB63E-49A8-4F44-8DAC-5A3957128D46,1557812867,2019-05-14 13:47:47,1557812922,2019-05-14 13:48:42,1557812953,P_21bbe0f01f62842e-NzIxXzcyMDEtMTQwMDgyOTktMzUwMC00MDI1LTA1MTQtbW9iZGRiNDdlY2U1NDk5ODI3MTEzLQ,http://pb.xyz.duunion.com/conv?tid=P_21bbe0f01f62842e-NzIxXzcyMDEtMTQwMDgyOTktMzUwMC00MDI1LTA1MTQtbW9iZGRiNDdlY2U1NDk5ODI3MTEzLQ&adv_sectkn=55dea06a643eb8a2d267a735fe2683bd&adv_name=appier-api&payout=3.5,idfa_382EB63E-49A8-4F44-8DAC-5A3957128D46,en-GB
wEACTBR5R9-LXNpBMlwnGw,doglobal_api,7201_mobedfd1104415133fe09,Install,3.5,112.170.215.31,E78A816E-FC35-4B9F-BC96-428ACD84BA91,1558315403,2019-05-20 09:23:23,1558315424,2019-05-20 09:23:44,1558315455,B_297c458dda3ad018-NzIxXzcyMDEtMTQwMDgyOTktMzUwMC00MDI1LTA1MjAtbW9iZWRmZDExMDQ0MTUxMzNmZTA5LQ,http://pb.xyz.duunion.com/conv?tid=B_297c458dda3ad018-NzIxXzcyMDEtMTQwMDgyOTktMzUwMC00MDI1LTA1MjAtbW9iZWRmZDExMDQ0MTUxMzNmZTA5LQ&adv_sectkn=55dea06a643eb8a2d267a735fe2683bd&adv_name=appier-api&payout=3.5,idfa_E78A816E-FC35-4B9F-BC96-428ACD84BA91,en-KR
wEACTBR5R9-LXNpBMlwnGw,doglobal_api,7201_mob57979728d2699c3810,Install,3.5,175.125.190.6,50CEEC17-A74E-4AC2-A348-6F287C1F59DF,1557108604,2019-05-06 10:10:04,1557108665,2019-05-06 10:11:05,1557108696,P_7205b7a4d0dd3211-NzIxXzcyMDEtMTQwMDgyOTktMzUwMC00MDI1LTA1MDYtbW9iNTc5Nzk3MjhkMjY5OWMzODEwLQ,http://pb.xyz.duunion.com/conv?tid=P_7205b7a4d0dd3211-NzIxXzcyMDEtMTQwMDgyOTktMzUwMC00MDI1LTA1MDYtbW9iNTc5Nzk3MjhkMjY5OWMzODEwLQ&adv_sectkn=55dea06a643eb8a2d267a735fe2683bd&adv_name=appier-api&payout=3.5,idfa_50CEEC17-A74E-4AC2-A348-6F287C1F59DF,en-GB
wEACTBR5R9-LXNpBMlwnGw,doglobal_api,7201_mobb27edb7c280e596910,Install,3.5,221.157.239.138,B2E866AE-88AD-4C70-8DA6-B57F6038ED50,1557800042,2019-05-14 10:14:02,1557800204,2019-05-14 10:16:44,1557800235,P_a5df3d11844da360-NzIxXzcyMDEtMTQwMDgyOTktMzUwMC00MDI1LTA1MTQtbW9iYjI3ZWRiN2MyODBlNTk2OTEwLQ,http://pb.xyz.duunion.com/conv?tid=P_a5df3d11844da360-NzIxXzcyMDEtMTQwMDgyOTktMzUwMC00MDI1LTA1MTQtbW9iYjI3ZWRiN2MyODBlNTk2OTEwLQ&adv_sectkn=55dea06a643eb8a2d267a735fe2683bd&adv_name=appier-api&payout=3.5,idfa_B2E866AE-88AD-4C70-8DA6-B57F6038ED50,ko
wEACTBR5R9-LXNpBMlwnGw,doglobal_api,7201_mob441738ca4a41316518,Install,3.5,211.54.74.50,806A8E46-A22A-4F52-A2AD-DEA9095ECAE9,1557914860,2019-05-15 18:07:40,1557914910,2019-05-15 18:08:30,1557914941,P_6a82e52277f1b616-NzIxXzcyMDEtMTQwMDgyOTktMzUwMC00MDI1LTA1MTUtbW9iNDQxNzM4Y2E0YTQxMzE2NTE4LQ,http://pb.xyz.duunion.com/conv?tid=P_6a82e52277f1b616-NzIxXzcyMDEtMTQwMDgyOTktMzUwMC00MDI1LTA1MTUtbW9iNDQxNzM4Y2E0YTQxMzE2NTE4LQ&adv_sectkn=55dea06a643eb8a2d267a735fe2683bd&adv_name=appier-api&payout=3.5,idfa_806A8E46-A22A-4F52-A2AD-DEA9095ECAE9,ko-KR
wEACTBR5R9-LXNpBMlwnGw,doglobal_api,7201_mob441738ca4a41316518,Install,3.5,211.206.123.161,65073CCE-3171-44F7-9BD0-D6E657A353F7,1557914987,2019-05-15 18:09:47,1557916593,2019-05-15 18:36:33,1557916624,P_720ec289a03a005d-NzIxXzcyMDEtMTQwMDgyOTktMzUwMC00MDI1LTA1MTUtbW9iNDQxNzM4Y2E0YTQxMzE2NTE4LQ,http://pb.xyz.duunion.com/conv?tid=P_720ec289a03a005d-NzIxXzcyMDEtMTQwMDgyOTktMzUwMC00MDI1LTA1MTUtbW9iNDQxNzM4Y2E0YTQxMzE2NTE4LQ&adv_sectkn=55dea06a643eb8a2d267a735fe2683bd&adv_name=appier-api&payout=3.5,idfa_65073CCE-3171-44F7-9BD0-D6E657A353F7,ko-KR
wEACTBR5R9-LXNpBMlwnGw,doglobal_api,7201_mobddb47ece5499827123,Install,3.5,211.52.210.65,2CEB3C21-98B1-4852-8613-6AC403A39D46,1556983963,2019-05-04 23:32:43,1556984027,2019-05-04 23:33:47,1556984057,P_f71dc057d68abb67-NzIxXzcyMDEtMTQwMDgyOTktMzUwMC00MDI1LTA1MDQtbW9iZGRiNDdlY2U1NDk5ODI3MTIzLQ,http://pb.xyz.duunion.com/conv?tid=P_f71dc057d68abb67-NzIxXzcyMDEtMTQwMDgyOTktMzUwMC00MDI1LTA1MDQtbW9iZGRiNDdlY2U1NDk5ODI3MTIzLQ&adv_sectkn=55dea06a643eb8a2d267a735fe2683bd&adv_name=appier-api&payout=3.5,idfa_2CEB3C21-98B1-4852-8613-6AC403A39D46,en-GB
wEACTBR5R9-LXNpBMlwnGw,doglobal_api,7201_mobddb47ece5499827120,Install,3.5,112.151.14.152,,1557060628,2019-05-05 20:50:28,1557060692,2019-05-05 20:51:32,1557060722,P_403de68234e9a620-NzIxXzcyMDEtMTQwMDgyOTktMzUwMC00MDI1LTA1MDUtbW9iZGRiNDdlY2U1NDk5ODI3MTIwLQ,http://pb.xyz.duunion.com/conv?tid=P_403de68234e9a620-NzIxXzcyMDEtMTQwMDgyOTktMzUwMC00MDI1LTA1MDUtbW9iZGRiNDdlY2U1NDk5ODI3MTIwLQ&adv_sectkn=55dea06a643eb8a2d267a735fe2683bd&adv_name=appier-api&payout=3.5,ip_112.151.14.152,en-GB
wEACTBR5R9-LXNpBMlwnGw,doglobal_api,7201_mob3f8313dc24b5623112,Install,3.5,118.63.20.103,7C4B573B-670B-49A2-8CDE-F1370D59DAD4,1557548108,2019-05-11 12:15:08,1557548173,2019-05-11 12:16:13,1557548203,B_365960170e302c8b-NzIxXzcyMDEtMTQwMDgyOTktMzUwMC00MDI1LTA1MTEtbW9iM2Y4MzEzZGMyNGI1NjIzMTEyLQ,http://pb.xyz.duunion.com/conv?tid=B_365960170e302c8b-NzIxXzcyMDEtMTQwMDgyOTktMzUwMC00MDI1LTA1MTEtbW9iM2Y4MzEzZGMyNGI1NjIzMTEyLQ&adv_sectkn=55dea06a643eb8a2d267a735fe2683bd&adv_name=appier-api&payout=3.5,idfa_7C4B573B-670B-49A2-8CDE-F1370D59DAD4,ko-KR
wEACTBR5R9-LXNpBMlwnGw,doglobal_api,7201_mobddb47ece5499827115,Install,3.5,1.227.159.75,2CE52B4D-1F90-41BF-934F-59F1B0FD1514,1557647028,2019-05-12 15:43:48,1557647102,2019-05-12 15:45:02,1557647133,P_e6a49a41e45803db-NzIxXzcyMDEtMTQwMDgyOTktMzUwMC00MDI1LTA1MTItbW9iZGRiNDdlY2U1NDk5ODI3MTE1LQ,http://pb.xyz.duunion.com/conv?tid=P_e6a49a41e45803db-NzIxXzcyMDEtMTQwMDgyOTktMzUwMC00MDI1LTA1MTItbW9iZGRiNDdlY2U1NDk5ODI3MTE1LQ&adv_sectkn=55dea06a643eb8a2d267a735fe2683bd&adv_name=appier-api&payout=3.5,idfa_2CE52B4D-1F90-41BF-934F-59F1B0FD1514,en-GB
wEACTBR5R9-LXNpBMlwnGw,doglobal_api,7201_mobddb47ece5499827120,Install,3.5,218.39.162.100,BB1D1AA0-D9DD-4854-A311-8E50C9612C93,1557060312,2019-05-05 20:45:12,1557060375,2019-05-05 20:46:15,1557060406,B_502d9173abb95509-NzIxXzcyMDEtMTQwMDgyOTktMzUwMC00MDI1LTA1MDUtbW9iZGRiNDdlY2U1NDk5ODI3MTIwLQ,http://pb.xyz.duunion.com/conv?tid=B_502d9173abb95509-NzIxXzcyMDEtMTQwMDgyOTktMzUwMC00MDI1LTA1MDUtbW9iZGRiNDdlY2U1NDk5ODI3MTIwLQ&adv_sectkn=55dea06a643eb8a2d267a735fe2683bd&adv_name=appier-api&payout=3.5,idfa_BB1D1AA0-D9DD-4854-A311-8E50C9612C93,en-GB
wEACTBR5R9-LXNpBMlwnGw,doglobal_api,7201_mob441738ca4a41316511,Install,3.5,118.42.115.142,2A774C68-1787-4005-9273-32F5C473A418,1558065406,2019-05-17 11:56:46,1558065429,2019-05-17 11:57:09,1558065460,P_f963edbb704b1aae-NzIxXzcyMDEtMTQwMDgyOTktMzUwMC00MDI1LTA1MTctbW9iNDQxNzM4Y2E0YTQxMzE2NTExLQ,http://pb.xyz.duunion.com/conv?tid=P_f963edbb704b1aae-NzIxXzcyMDEtMTQwMDgyOTktMzUwMC00MDI1LTA1MTctbW9iNDQxNzM4Y2E0YTQxMzE2NTExLQ&adv_sectkn=55dea06a643eb8a2d267a735fe2683bd&adv_name=appier-api&payout=3.5,idfa_2A774C68-1787-4005-9273-32F5C473A418,en-KR
wEACTBR5R9-LXNpBMlwnGw,doglobal_api,7201_mobddb47ece5499827115,Install,3.5,14.43.167.32,10FA8FC1-D83A-4F51-BC5E-78731307FA89,1557647622,2019-05-12 15:53:42,1557647682,2019-05-12 15:54:42,1557647713,B_125c2564319f7590-NzIxXzcyMDEtMTQwMDgyOTktMzUwMC00MDI1LTA1MTItbW9iZGRiNDdlY2U1NDk5ODI3MTE1LQ,http://pb.xyz.duunion.com/conv?tid=B_125c2564319f7590-NzIxXzcyMDEtMTQwMDgyOTktMzUwMC00MDI1LTA1MTItbW9iZGRiNDdlY2U1NDk5ODI3MTE1LQ&adv_sectkn=55dea06a643eb8a2d267a735fe2683bd&adv_name=appier-api&payout=3.5,idfa_10FA8FC1-D83A-4F51-BC5E-78731307FA89,en-GB
wEACTBR5R9-LXNpBMlwnGw,doglobal_api,7201_mobddb47ece5499827121,Install,3.5,211.44.100.11,4D478A07-2DB8-4F63-9F13-4EC75273D08B,1557061236,2019-05-05 21:00:36,1557061334,2019-05-05 21:02:14,1557061365,P_ccd6c1f3d24c4fa5-NzIxXzcyMDEtMTQwMDgyOTktMzUwMC00MDI1LTA1MDUtbW9iZGRiNDdlY2U1NDk5ODI3MTIxLQ,http://pb.xyz.duunion.com/conv?tid=P_ccd6c1f3d24c4fa5-NzIxXzcyMDEtMTQwMDgyOTktMzUwMC00MDI1LTA1MDUtbW9iZGRiNDdlY2U1NDk5ODI3MTIxLQ&adv_sectkn=55dea06a643eb8a2d267a735fe2683bd&adv_name=appier-api&payout=3.5,idfa_4D478A07-2DB8-4F63-9F13-4EC75273D08B,en-GB
wEACTBR5R9-LXNpBMlwnGw,doglobal_api,7201_mobddb47ece5499827111,Install,3.5,121.125.89.9,,1557460196,2019-05-10 11:49:56,1557460252,2019-05-10 11:50:52,1557460283,P_1157bfaa45ffb026-NzIxXzcyMDEtMTQwMDgyOTktMzUwMC00MDI1LTA1MTAtbW9iZGRiNDdlY2U1NDk5ODI3MTExLQ,http://pb.xyz.duunion.com/conv?tid=P_1157bfaa45ffb026-NzIxXzcyMDEtMTQwMDgyOTktMzUwMC00MDI1LTA1MTAtbW9iZGRiNDdlY2U1NDk5ODI3MTExLQ&adv_sectkn=55dea06a643eb8a2d267a735fe2683bd&adv_name=appier-api&payout=3.5,ip_121.125.89.9,en-GB
wEACTBR5R9-LXNpBMlwnGw,doglobal_api,7201_mobedfd1104415133fe09,Install,3.5,115.4.56.37,9353197B-416E-4909-B404-FDBC49C0492D,1558315596,2019-05-20 09:26:36,1558315616,2019-05-20 09:26:56,1558315647,P_2c333a2058a8204e-NzIxXzcyMDEtMTQwMDgyOTktMzUwMC00MDI1LTA1MjAtbW9iZWRmZDExMDQ0MTUxMzNmZTA5LQ,http://pb.xyz.duunion.com/conv?tid=P_2c333a2058a8204e-NzIxXzcyMDEtMTQwMDgyOTktMzUwMC00MDI1LTA1MjAtbW9iZWRmZDExMDQ0MTUxMzNmZTA5LQ&adv_sectkn=55dea06a643eb8a2d267a735fe2683bd&adv_name=appier-api&payout=3.5,idfa_9353197B-416E-4909-B404-FDBC49C0492D,en-KR
wEACTBR5R9-LXNpBMlwnGw,doglobal_api,7201_mob57979728d2699c3801,Install,3.5,175.193.222.197,882A969E-2774-4FB1-8439-A1DC98D79128,1557251090,2019-05-08 01:44:50,1557251165,2019-05-08 01:46:05,1557251195,P_00a5b3023a66d296-NzIxXzcyMDEtMTQwMDgyOTktMzUwMC00MDI1LTA1MDgtbW9iNTc5Nzk3MjhkMjY5OWMzODAxLQ,http://pb.xyz.duunion.com/conv?tid=P_00a5b3023a66d296-NzIxXzcyMDEtMTQwMDgyOTktMzUwMC00MDI1LTA1MDgtbW9iNTc5Nzk3MjhkMjY5OWMzODAxLQ&adv_sectkn=55dea06a643eb8a2d267a735fe2683bd&adv_name=appier-api&payout=3.5,idfa_882A969E-2774-4FB1-8439-A1DC98D79128,en-GB
wEACTBR5R9-LXNpBMlwnGw,doglobal_api,7201_mobddb47ece5499827123,Install,3.5,27.118.81.237,2F03CFA5-97E4-4436-8156-26F3E76B2BDA,1556982605,2019-05-04 23:10:05,1556982675,2019-05-04 23:11:15,1556982706,B_55d196a639a62a2a-NzIxXzcyMDEtMTQwMDgyOTktMzUwMC00MDI1LTA1MDQtbW9iZGRiNDdlY2U1NDk5ODI3MTIzLQ,http://pb.xyz.duunion.com/conv?tid=B_55d196a639a62a2a-NzIxXzcyMDEtMTQwMDgyOTktMzUwMC00MDI1LTA1MDQtbW9iZGRiNDdlY2U1NDk5ODI3MTIzLQ&adv_sectkn=55dea06a643eb8a2d267a735fe2683bd&adv_name=appier-api&payout=3.5,idfa_2F03CFA5-97E4-4436-8156-26F3E76B2BDA,en-GB
wEACTBR5R9-LXNpBMlwnGw,doglobal_api,7201_mobddb47ece5499827111,Install,3.5,1.228.155.131,5D7BC81C-2622-4FAE-8E88-35977A2E5FCE,1557373746,2019-05-09 11:49:06,1557373809,2019-05-09 11:50:09,1557373839,B_2323c45037ad2c6c-NzIxXzcyMDEtMTQwMDgyOTktMzUwMC00MDI1LTA1MDktbW9iZGRiNDdlY2U1NDk5ODI3MTExLQ,http://pb.xyz.duunion.com/conv?tid=B_2323c45037ad2c6c-NzIxXzcyMDEtMTQwMDgyOTktMzUwMC00MDI1LTA1MDktbW9iZGRiNDdlY2U1NDk5ODI3MTExLQ&adv_sectkn=55dea06a643eb8a2d267a735fe2683bd&adv_name=appier-api&payout=3.5,idfa_5D7BC81C-2622-4FAE-8E88-35977A2E5FCE,en-GB
wEACTBR5R9-LXNpBMlwnGw,doglobal_api,7201_mobedfd1104415133fe10,Install,3.5,218.50.84.75,6DB1137C-B3A5-4F5D-B650-480F04538128,1558231290,2019-05-19 10:01:30,1558231334,2019-05-19 10:02:14,1558231478,B_80c34694f93ef96b-NzIxXzcyMDEtMTQwMDgyOTktMzUwMC00MDI1LTA1MTktbW9iZWRmZDExMDQ0MTUxMzNmZTEwLQ,http://pb.xyz.duunion.com/conv?tid=B_80c34694f93ef96b-NzIxXzcyMDEtMTQwMDgyOTktMzUwMC00MDI1LTA1MTktbW9iZWRmZDExMDQ0MTUxMzNmZTEwLQ&adv_sectkn=55dea06a643eb8a2d267a735fe2683bd&adv_name=appier-api&payout=3.5,idfa_6DB1137C-B3A5-4F5D-B650-480F04538128,ko-KR
wEACTBR5R9-LXNpBMlwnGw,doglobal_api,7201_mobedfd1104415133fe10,Install,3.5,14.85.41.26,6470BA5E-12BA-4F29-8E99-986C4D2C7EF7,1558231477,2019-05-19 10:04:37,1558231521,2019-05-19 10:05:21,1558231564,P_2d174e95e632915d-NzIxXzcyMDEtMTQwMDgyOTktMzUwMC00MDI1LTA1MTktbW9iZWRmZDExMDQ0MTUxMzNmZTEwLQ,http://pb.xyz.duunion.com/conv?tid=P_2d174e95e632915d-NzIxXzcyMDEtMTQwMDgyOTktMzUwMC00MDI1LTA1MTktbW9iZWRmZDExMDQ0MTUxMzNmZTEwLQ&adv_sectkn=55dea06a643eb8a2d267a735fe2683bd&adv_name=appier-api&payout=3.5,idfa_6470BA5E-12BA-4F29-8E99-986C4D2C7EF7,ko-KR
wEACTBR5R9-LXNpBMlwnGw,doglobal_api,7201_mob441738ca4a41316511,Install,3.5,121.182.120.157,AF90D55A-2C60-41F5-B27F-5980995AD813,1558065238,2019-05-17 11:53:58,1558065261,2019-05-17 11:54:21,1558065294,P_395751fd0b3cb288-NzIxXzcyMDEtMTQwMDgyOTktMzUwMC00MDI1LTA1MTctbW9iNDQxNzM4Y2E0YTQxMzE2NTExLQ,http://pb.xyz.duunion.com/conv?tid=P_395751fd0b3cb288-NzIxXzcyMDEtMTQwMDgyOTktMzUwMC00MDI1LTA1MTctbW9iNDQxNzM4Y2E0YTQxMzE2NTExLQ&adv_sectkn=55dea06a643eb8a2d267a735fe2683bd&adv_name=appier-api&payout=3.5,idfa_AF90D55A-2C60-41F5-B27F-5980995AD813,en-KR
wEACTBR5R9-LXNpBMlwnGw,doglobal_api,7201_mobddb47ece5499827110,Install,3.5,221.154.41.222,FBA5774C-B05D-49A3-B9C4-0B7B0E653122,1557455493,2019-05-10 10:31:33,1557455559,2019-05-10 10:32:39,1557455705,B_2cf5d2df86d89518-NzIxXzcyMDEtMTQwMDgyOTktMzUwMC00MDI1LTA1MTAtbW9iZGRiNDdlY2U1NDk5ODI3MTEwLQ,http://pb.xyz.duunion.com/conv?tid=B_2cf5d2df86d89518-NzIxXzcyMDEtMTQwMDgyOTktMzUwMC00MDI1LTA1MTAtbW9iZGRiNDdlY2U1NDk5ODI3MTEwLQ&adv_sectkn=55dea06a643eb8a2d267a735fe2683bd&adv_name=appier-api&payout=3.5,idfa_FBA5774C-B05D-49A3-B9C4-0B7B0E653122,en-GB
wEACTBR5R9-LXNpBMlwnGw,doglobal_api,7201_mobddb47ece5499827112,Install,3.5,125.129.14.102,2FED139A-3B0F-4D2C-9B0F-59F1D1120A96,1557892953,2019-05-15 12:02:33,1557893027,2019-05-15 12:03:47,1557893057,B_28e77c2409544024-NzIxXzcyMDEtMTQwMDgyOTktMzUwMC00MDI1LTA1MTUtbW9iZGRiNDdlY2U1NDk5ODI3MTEyLQ,http://pb.xyz.duunion.com/conv?tid=B_28e77c2409544024-NzIxXzcyMDEtMTQwMDgyOTktMzUwMC00MDI1LTA1MTUtbW9iZGRiNDdlY2U1NDk5ODI3MTEyLQ&adv_sectkn=55dea06a643eb8a2d267a735fe2683bd&adv_name=appier-api&payout=3.5,idfa_2FED139A-3B0F-4D2C-9B0F-59F1D1120A96,en-GB
wEACTBR5R9-LXNpBMlwnGw,doglobal_api,7201_mobddb47ece5499827123,Install,3.5,175.123.121.54,65E499AA-1543-45BC-B16B-D39D7BD0D4AF,1556982791,2019-05-04 23:13:11,1556982877,2019-05-04 23:14:37,1556982907,B_75eb8a983ee7fbd9-NzIxXzcyMDEtMTQwMDgyOTktMzUwMC00MDI1LTA1MDQtbW9iZGRiNDdlY2U1NDk5ODI3MTIzLQ,http://pb.xyz.duunion.com/conv?tid=B_75eb8a983ee7fbd9-NzIxXzcyMDEtMTQwMDgyOTktMzUwMC00MDI1LTA1MDQtbW9iZGRiNDdlY2U1NDk5ODI3MTIzLQ&adv_sectkn=55dea06a643eb8a2d267a735fe2683bd&adv_name=appier-api&payout=3.5,idfa_65E499AA-1543-45BC-B16B-D39D7BD0D4AF,en-GB
wEACTBR5R9-LXNpBMlwnGw,doglobal_api,7201_mobedfd1104415133fe09,Install,3.5,211.38.74.103,B1806389-F0B9-4726-9246-2AC88EE46A1A,1558230543,2019-05-19 09:49:03,1558230589,2019-05-19 09:49:49,1558230656,B_dd3a3edc2a3c70b8-NzIxXzcyMDEtMTQwMDgyOTktMzUwMC00MDI1LTA1MTktbW9iZWRmZDExMDQ0MTUxMzNmZTA5LQ,http://pb.xyz.duunion.com/conv?tid=B_dd3a3edc2a3c70b8-NzIxXzcyMDEtMTQwMDgyOTktMzUwMC00MDI1LTA1MTktbW9iZWRmZDExMDQ0MTUxMzNmZTA5LQ&adv_sectkn=55dea06a643eb8a2d267a735fe2683bd&adv_name=appier-api&payout=3.5,idfa_B1806389-F0B9-4726-9246-2AC88EE46A1A,ko-KR
wEACTBR5R9-LXNpBMlwnGw,doglobal_api,7201_mobedfd1104415133fe09,Install,3.5,183.98.233.92,06FAD9EF-67E6-4CA8-9417-1E9C215AC7E3,1558315507,2019-05-20 09:25:07,1558315531,2019-05-20 09:25:31,1558315562,P_6ee940d2e854085c-NzIxXzcyMDEtMTQwMDgyOTktMzUwMC00MDI1LTA1MjAtbW9iZWRmZDExMDQ0MTUxMzNmZTA5LQ,http://pb.xyz.duunion.com/conv?tid=P_6ee940d2e854085c-NzIxXzcyMDEtMTQwMDgyOTktMzUwMC00MDI1LTA1MjAtbW9iZWRmZDExMDQ0MTUxMzNmZTA5LQ&adv_sectkn=55dea06a643eb8a2d267a735fe2683bd&adv_name=appier-api&payout=3.5,idfa_06FAD9EF-67E6-4CA8-9417-1E9C215AC7E3,en-KR
wEACTBR5R9-LXNpBMlwnGw,doglobal_api,7201_mobddb47ece5499827111,Install,3.5,121.178.65.73,13979E96-FB2B-4939-8798-2156848BF58C,1557373604,2019-05-09 11:46:44,1557373685,2019-05-09 11:48:05,1557373716,P_9935d5db53e1625f-NzIxXzcyMDEtMTQwMDgyOTktMzUwMC00MDI1LTA1MDktbW9iZGRiNDdlY2U1NDk5ODI3MTExLQ,http://pb.xyz.duunion.com/conv?tid=P_9935d5db53e1625f-NzIxXzcyMDEtMTQwMDgyOTktMzUwMC00MDI1LTA1MDktbW9iZGRiNDdlY2U1NDk5ODI3MTExLQ&adv_sectkn=55dea06a643eb8a2d267a735fe2683bd&adv_name=appier-api&payout=3.5,idfa_13979E96-FB2B-4939-8798-2156848BF58C,en-GB
wEACTBR5R9-LXNpBMlwnGw,doglobal_api,7201_mobddb47ece5499827123,Install,3.5,124.58.152.218,F5CD286A-21BE-440E-B8BB-D61412D28EA6,1556982635,2019-05-04 23:10:35,1556982710,2019-05-04 23:11:50,1556982740,P_12cb96a583521b09-NzIxXzcyMDEtMTQwMDgyOTktMzUwMC00MDI1LTA1MDQtbW9iZGRiNDdlY2U1NDk5ODI3MTIzLQ,http://pb.xyz.duunion.com/conv?tid=P_12cb96a583521b09-NzIxXzcyMDEtMTQwMDgyOTktMzUwMC00MDI1LTA1MDQtbW9iZGRiNDdlY2U1NDk5ODI3MTIzLQ&adv_sectkn=55dea06a643eb8a2d267a735fe2683bd&adv_name=appier-api&payout=3.5,idfa_F5CD286A-21BE-440E-B8BB-D61412D28EA6,en-GB
wEACTBR5R9-LXNpBMlwnGw,doglobal_api,7201_mobddb47ece5499827113,Install,3.5,182.215.237.104,C38AE9D6-BC37-4880-AF6F-4E92CD6CBCB0,1557896927,2019-05-15 13:08:47,1557897013,2019-05-15 13:10:13,1557897044,P_2f999782789e3ac3-NzIxXzcyMDEtMTQwMDgyOTktMzUwMC00MDI1LTA1MTUtbW9iZGRiNDdlY2U1NDk5ODI3MTEzLQ,http://pb.xyz.duunion.com/conv?tid=P_2f999782789e3ac3-NzIxXzcyMDEtMTQwMDgyOTktMzUwMC00MDI1LTA1MTUtbW9iZGRiNDdlY2U1NDk5ODI3MTEzLQ&adv_sectkn=55dea06a643eb8a2d267a735fe2683bd&adv_name=appier-api&payout=3.5,idfa_C38AE9D6-BC37-4880-AF6F-4E92CD6CBCB0,en-GB
wEACTBR5R9-LXNpBMlwnGw,doglobal_api,7201_mobedfd1104415133fe09,Install,3.5,183.109.79.6,ACBEF862-129E-4772-88F7-A7E2FC55082A,1558230561,2019-05-19 09:49:21,1558230605,2019-05-19 09:50:05,1558230636,B_acf54e3db609a0c8-NzIxXzcyMDEtMTQwMDgyOTktMzUwMC00MDI1LTA1MTktbW9iZWRmZDExMDQ0MTUxMzNmZTA5LQ,http://pb.xyz.duunion.com/conv?tid=B_acf54e3db609a0c8-NzIxXzcyMDEtMTQwMDgyOTktMzUwMC00MDI1LTA1MTktbW9iZWRmZDExMDQ0MTUxMzNmZTA5LQ&adv_sectkn=55dea06a643eb8a2d267a735fe2683bd&adv_name=appier-api&payout=3.5,idfa_ACBEF862-129E-4772-88F7-A7E2FC55082A,ko-KR
wEACTBR5R9-LXNpBMlwnGw,doglobal_api,7201_mobddb47ece5499827110,Install,3.5,14.34.195.168,0A9542D0-0DDF-478F-A84D-4FB4E39F726B,1557109885,2019-05-06 10:31:25,1557109947,2019-05-06 10:32:27,1557109978,P_2fd13028dbbbabc6-NzIxXzcyMDEtMTQwMDgyOTktMzUwMC00MDI1LTA1MDYtbW9iZGRiNDdlY2U1NDk5ODI3MTEwLQ,http://pb.xyz.duunion.com/conv?tid=P_2fd13028dbbbabc6-NzIxXzcyMDEtMTQwMDgyOTktMzUwMC00MDI1LTA1MDYtbW9iZGRiNDdlY2U1NDk5ODI3MTEwLQ&adv_sectkn=55dea06a643eb8a2d267a735fe2683bd&adv_name=appier-api&payout=3.5,idfa_0A9542D0-0DDF-478F-A84D-4FB4E39F726B,en-GB
wEACTBR5R9-LXNpBMlwnGw,doglobal_api,7201_mobedfd1104415133fe09,Install,3.5,58.227.42.57,F7838DE2-437B-435D-A40B-A63D04100898,1558316691,2019-05-20 09:44:51,1558316727,2019-05-20 09:45:27,1558316758,P_cf4b1767c7f7e940-NzIxXzcyMDEtMTQwMDgyOTktMzUwMC00MDI1LTA1MjAtbW9iZWRmZDExMDQ0MTUxMzNmZTA5LQ,http://pb.xyz.duunion.com/conv?tid=P_cf4b1767c7f7e940-NzIxXzcyMDEtMTQwMDgyOTktMzUwMC00MDI1LTA1MjAtbW9iZWRmZDExMDQ0MTUxMzNmZTA5LQ&adv_sectkn=55dea06a643eb8a2d267a735fe2683bd&adv_name=appier-api&payout=3.5,idfa_F7838DE2-437B-435D-A40B-A63D04100898,ko-KR
wEACTBR5R9-LXNpBMlwnGw,doglobal_api,7201_mobddb47ece5499827108,Install,3.5,118.39.15.60,C292BC59-4114-41FF-BF9B-AEDC9E5E7441,1557709171,2019-05-13 08:59:31,1557709232,2019-05-13 09:00:32,1557709263,B_5d04b17cb341913c-NzIxXzcyMDEtMTQwMDgyOTktMzUwMC00MDI1LTA1MTMtbW9iZGRiNDdlY2U1NDk5ODI3MTA4LQ,http://pb.xyz.duunion.com/conv?tid=B_5d04b17cb341913c-NzIxXzcyMDEtMTQwMDgyOTktMzUwMC00MDI1LTA1MTMtbW9iZGRiNDdlY2U1NDk5ODI3MTA4LQ&adv_sectkn=55dea06a643eb8a2d267a735fe2683bd&adv_name=appier-api&payout=3.5,idfa_C292BC59-4114-41FF-BF9B-AEDC9E5E7441,en-GB
wEACTBR5R9-LXNpBMlwnGw,doglobal_api,7201_mobddb47ece5499827110,Install,3.5,59.6.159.189,78E18733-7FE1-4E11-9F28-8B5171A28791,1557456596,2019-05-10 10:49:56,1557456667,2019-05-10 10:51:07,1557456699,P_1f3f5916b5e0ec90-NzIxXzcyMDEtMTQwMDgyOTktMzUwMC00MDI1LTA1MTAtbW9iZGRiNDdlY2U1NDk5ODI3MTEwLQ,http://pb.xyz.duunion.com/conv?tid=P_1f3f5916b5e0ec90-NzIxXzcyMDEtMTQwMDgyOTktMzUwMC00MDI1LTA1MTAtbW9iZGRiNDdlY2U1NDk5ODI3MTEwLQ&adv_sectkn=55dea06a643eb8a2d267a735fe2683bd&adv_name=appier-api&payout=3.5,idfa_78E18733-7FE1-4E11-9F28-8B5171A28791,en-GB
wEACTBR5R9-LXNpBMlwnGw,doglobal_api,7201_mob441738ca4a41316521,Install,3.5,1.231.14.207,C294384A-B975-4905-9BFE-1DD247EA7521,1557061390,2019-05-05 21:03:10,1557061468,2019-05-05 21:04:28,1557061519,P_409a2e4032c01961-NzIxXzcyMDEtMTQwMDgyOTktMzUwMC00MDI1LTA1MDUtbW9iNDQxNzM4Y2E0YTQxMzE2NTIxLQ,http://pb.xyz.duunion.com/conv?tid=P_409a2e4032c01961-NzIxXzcyMDEtMTQwMDgyOTktMzUwMC00MDI1LTA1MDUtbW9iNDQxNzM4Y2E0YTQxMzE2NTIxLQ&adv_sectkn=55dea06a643eb8a2d267a735fe2683bd&adv_name=appier-api&payout=3.5,idfa_C294384A-B975-4905-9BFE-1DD247EA7521,ko-KR
wEACTBR5R9-LXNpBMlwnGw,doglobal_api,7201_mob3f8313dc24b5623112,Install,3.5,115.89.11.34,578C4B63-783F-49B7-979D-0F24722FE767,1557547843,2019-05-11 12:10:43,1557547920,2019-05-11 12:12:00,1557547951,B_e1300f8ea37b5208-NzIxXzcyMDEtMTQwMDgyOTktMzUwMC00MDI1LTA1MTEtbW9iM2Y4MzEzZGMyNGI1NjIzMTEyLQ,http://pb.xyz.duunion.com/conv?tid=B_e1300f8ea37b5208-NzIxXzcyMDEtMTQwMDgyOTktMzUwMC00MDI1LTA1MTEtbW9iM2Y4MzEzZGMyNGI1NjIzMTEyLQ&adv_sectkn=55dea06a643eb8a2d267a735fe2683bd&adv_name=appier-api&payout=3.5,idfa_578C4B63-783F-49B7-979D-0F24722FE767,ko-KR
wEACTBR5R9-LXNpBMlwnGw,doglobal_api,7201_mobddb47ece5499827112,Install,3.5,221.167.62.38,BD486C13-2A90-400B-B707-C86D4735DDBE,1557808079,2019-05-14 12:27:59,1557808148,2019-05-14 12:29:08,1557808179,P_7a3cc6aa6bde447d-NzIxXzcyMDEtMTQwMDgyOTktMzUwMC00MDI1LTA1MTQtbW9iZGRiNDdlY2U1NDk5ODI3MTEyLQ,http://pb.xyz.duunion.com/conv?tid=P_7a3cc6aa6bde447d-NzIxXzcyMDEtMTQwMDgyOTktMzUwMC00MDI1LTA1MTQtbW9iZGRiNDdlY2U1NDk5ODI3MTEyLQ&adv_sectkn=55dea06a643eb8a2d267a735fe2683bd&adv_name=appier-api&payout=3.5,idfa_BD486C13-2A90-400B-B707-C86D4735DDBE,en-GB
wEACTBR5R9-LXNpBMlwnGw,doglobal_api,7201_mob57979728d2699c3802,Install,3.5,143.248.19.193,7EDCB41D-9342-461E-A53C-DAAE70370CEF,1557252043,2019-05-08 02:00:43,1557252106,2019-05-08 02:01:46,1557252137,P_3126467dc5e4e911-NzIxXzcyMDEtMTQwMDgyOTktMzUwMC00MDI1LTA1MDgtbW9iNTc5Nzk3MjhkMjY5OWMzODAyLQ,http://pb.xyz.duunion.com/conv?tid=P_3126467dc5e4e911-NzIxXzcyMDEtMTQwMDgyOTktMzUwMC00MDI1LTA1MDgtbW9iNTc5Nzk3MjhkMjY5OWMzODAyLQ&adv_sectkn=55dea06a643eb8a2d267a735fe2683bd&adv_name=appier-api&payout=3.5,idfa_7EDCB41D-9342-461E-A53C-DAAE70370CEF,en-GB
wEACTBR5R9-LXNpBMlwnGw,doglobal_api,7201_mobddb47ece5499827112,Install,3.5,175.113.134.251,166D7228-9C10-4769-9A0F-B658CDDED282,1557896223,2019-05-15 12:57:03,1557896287,2019-05-15 12:58:07,1557896317,B_2521783a31bbb536-NzIxXzcyMDEtMTQwMDgyOTktMzUwMC00MDI1LTA1MTUtbW9iZGRiNDdlY2U1NDk5ODI3MTEyLQ,http://pb.xyz.duunion.com/conv?tid=B_2521783a31bbb536-NzIxXzcyMDEtMTQwMDgyOTktMzUwMC00MDI1LTA1MTUtbW9iZGRiNDdlY2U1NDk5ODI3MTEyLQ&adv_sectkn=55dea06a643eb8a2d267a735fe2683bd&adv_name=appier-api&payout=3.5,idfa_166D7228-9C10-4769-9A0F-B658CDDED282,en-GB
wEACTBR5R9-LXNpBMlwnGw,doglobal_api,7201_mob441738ca4a41316518,Install,3.5,14.36.21.96,E7D4A169-7E26-4848-802B-AF226C34DA52,1557914649,2019-05-15 18:04:09,1557914696,2019-05-15 18:04:56,1557915155,P_bc89dcb5e7d6e495-NzIxXzcyMDEtMTQwMDgyOTktMzUwMC00MDI1LTA1MTUtbW9iNDQxNzM4Y2E0YTQxMzE2NTE4LQ,http://pb.xyz.duunion.com/conv?tid=P_bc89dcb5e7d6e495-NzIxXzcyMDEtMTQwMDgyOTktMzUwMC00MDI1LTA1MTUtbW9iNDQxNzM4Y2E0YTQxMzE2NTE4LQ&adv_sectkn=55dea06a643eb8a2d267a735fe2683bd&adv_name=appier-api&payout=3.5,idfa_E7D4A169-7E26-4848-802B-AF226C34DA52,ko-KR
wEACTBR5R9-LXNpBMlwnGw,doglobal_api,7201_mobddb47ece5499827102,Install,3.5,14.47.148.220,DEE029AB-748C-4515-AFE4-AE6E1D61DC19,1557513453,2019-05-11 02:37:33,1557513519,2019-05-11 02:38:39,1557513551,P_79c1be6da6814bc6-NzIxXzcyMDEtMTQwMDgyOTktMzUwMC00MDI1LTA1MTEtbW9iZGRiNDdlY2U1NDk5ODI3MTAyLQ,http://pb.xyz.duunion.com/conv?tid=P_79c1be6da6814bc6-NzIxXzcyMDEtMTQwMDgyOTktMzUwMC00MDI1LTA1MTEtbW9iZGRiNDdlY2U1NDk5ODI3MTAyLQ&adv_sectkn=55dea06a643eb8a2d267a735fe2683bd&adv_name=appier-api&payout=3.5,idfa_DEE029AB-748C-4515-AFE4-AE6E1D61DC19,en-GB
wEACTBR5R9-LXNpBMlwnGw,doglobal_api,7201_mobddb47ece5499827101,Install,3.5,121.133.166.20,8FE2A045-F4FB-4D61-8334-2B129B94B45A,1557251961,2019-05-08 01:59:21,1557252030,2019-05-08 02:00:30,1557252060,B_d68c764de796f311-NzIxXzcyMDEtMTQwMDgyOTktMzUwMC00MDI1LTA1MDgtbW9iZGRiNDdlY2U1NDk5ODI3MTAxLQ,http://pb.xyz.duunion.com/conv?tid=B_d68c764de796f311-NzIxXzcyMDEtMTQwMDgyOTktMzUwMC00MDI1LTA1MDgtbW9iZGRiNDdlY2U1NDk5ODI3MTAxLQ&adv_sectkn=55dea06a643eb8a2d267a735fe2683bd&adv_name=appier-api&payout=3.5,idfa_8FE2A045-F4FB-4D61-8334-2B129B94B45A,en-GB
