cid,partner_id,channel_id,action_id,cpi,ip,idfa,click time,click datetime,install time,install datetime,postback time,click id,postback url,unique user id
C1RxqSaCQiCYFHuUTxIezw,doglobal_api,973_47s__hsctfknkmmmv20thuvmo,Install,1.8,59.124.2.57,72fcf177-93d2-4caa-9a39-8bdb9882f19d,1559007770,2019-05-28 09:42:50,1559007919,2019-05-28 09:45:19,1559008028,P_b95abf888244fc0c-OTczXzk3My0xNDYwODU2Ni0xODAwLTE1MDAtMDUyOC00N3NfX2hzY3Rma25rbW1tdjIwdGh1dm1vLQ,http://pb.xyz.duunion.com/conv?tid=P_b95abf888244fc0c-OTczXzk3My0xNDYwODU2Ni0xODAwLTE1MDAtMDUyOC00N3NfX2hzY3Rma25rbW1tdjIwdGh1dm1vLQ&adv_sectkn=55dea06a643eb8a2d267a735fe2683bd&adv_name=appier-api&payout=1.8,idfa_72fcf177-93d2-4caa-9a39-8bdb9882f19d,%E4%B8%AD%E6%96%87
C1RxqSaCQiCYFHuUTxIezw,doglobal_api,973_47s__hsctfknkmmmv20thuvmo,Install,1.8,36.233.33.210,4f0bd186-2512-4aa3-bad5-03843fd15b0f,1558980354,2019-05-28 02:05:54,1558980558,2019-05-28 02:09:18,1558980589,P_2b698a6e8433aac7-OTczXzk3My0xNDYwODU2Ni0xODAwLTE1MDAtMDUyOC00N3NfX2hzY3Rma25rbW1tdjIwdGh1dm1vLQ,http://pb.xyz.duunion.com/conv?tid=P_2b698a6e8433aac7-OTczXzk3My0xNDYwODU2Ni0xODAwLTE1MDAtMDUyOC00N3NfX2hzY3Rma25rbW1tdjIwdGh1dm1vLQ&adv_sectkn=55dea06a643eb8a2d267a735fe2683bd&adv_name=appier-api&payout=1.8,idfa_4f0bd186-2512-4aa3-bad5-03843fd15b0f,%E4%B8%AD%E6%96%87
C1RxqSaCQiCYFHuUTxIezw,doglobal_api,973_47s__hsctfknkmmmv20thuvmo,Install,1.8,180.204.116.92,03cd2b52-e9c5-4de2-9f8c-0ef093f3e76a,1559041599,2019-05-28 19:06:39,1559041752,2019-05-28 19:09:12,1559041782,B_dca788c7f5686602-OTczXzk3My0xNDYwODU2Ni0xODAwLTE1MDAtMDUyOC00N3NfX2hzY3Rma25rbW1tdjIwdGh1dm1vLQ,http://pb.xyz.duunion.com/conv?tid=B_dca788c7f5686602-OTczXzk3My0xNDYwODU2Ni0xODAwLTE1MDAtMDUyOC00N3NfX2hzY3Rma25rbW1tdjIwdGh1dm1vLQ&adv_sectkn=55dea06a643eb8a2d267a735fe2683bd&adv_name=appier-api&payout=1.8,idfa_03cd2b52-e9c5-4de2-9f8c-0ef093f3e76a,%E4%B8%AD%E6%96%87
C1RxqSaCQiCYFHuUTxIezw,doglobal_api,973_47s__hsctfknkmmmv20thuvmo,Install,1.8,114.43.55.240,36a92ac5-a4e3-4cb5-816c-3cb1707be647,1559095334,2019-05-29 10:02:14,1559095487,2019-05-29 10:04:47,1559095537,P_02555b45e1d469fe-OTczXzk3My0xNDYwODU2Ni0xODAwLTE1MDAtMDUyOS00N3NfX2hzY3Rma25rbW1tdjIwdGh1dm1vLQ,http://pb.xyz.duunion.com/conv?tid=P_02555b45e1d469fe-OTczXzk3My0xNDYwODU2Ni0xODAwLTE1MDAtMDUyOS00N3NfX2hzY3Rma25rbW1tdjIwdGh1dm1vLQ&adv_sectkn=55dea06a643eb8a2d267a735fe2683bd&adv_name=appier-api&payout=1.8,idfa_36a92ac5-a4e3-4cb5-816c-3cb1707be647,%E4%B8%AD%E6%96%87
C1RxqSaCQiCYFHuUTxIezw,doglobal_api,973_47s__hsctfknkmmmv20thuvmo,Install,1.8,111.242.145.49,9abd77c3-560d-433e-9c6f-5ebf66deb986,1558951381,2019-05-27 18:03:01,1558951561,2019-05-27 18:06:01,1558951593,B_d76b30cb0d65d193-OTczXzk3My0xNDYwODU2Ni0xODAwLTE1MDAtMDUyNy00N3NfX2hzY3Rma25rbW1tdjIwdGh1dm1vLQ,http://pb.xyz.duunion.com/conv?tid=B_d76b30cb0d65d193-OTczXzk3My0xNDYwODU2Ni0xODAwLTE1MDAtMDUyNy00N3NfX2hzY3Rma25rbW1tdjIwdGh1dm1vLQ&adv_sectkn=55dea06a643eb8a2d267a735fe2683bd&adv_name=appier-api&payout=1.8,idfa_9abd77c3-560d-433e-9c6f-5ebf66deb986,%E4%B8%AD%E6%96%87
C1RxqSaCQiCYFHuUTxIezw,doglobal_api,973_47s__hsctfknkmmmv20thuvmo,Install,1.8,114.44.130.78,c676c7b5-a424-4e71-8ce4-8ec2f81c665b,1559012374,2019-05-28 10:59:34,1559012550,2019-05-28 11:02:30,1559012580,P_35b8f1d8ff649755-OTczXzk3My0xNDYwODU2Ni0xODAwLTE1MDAtMDUyOC00N3NfX2hzY3Rma25rbW1tdjIwdGh1dm1vLQ,http://pb.xyz.duunion.com/conv?tid=P_35b8f1d8ff649755-OTczXzk3My0xNDYwODU2Ni0xODAwLTE1MDAtMDUyOC00N3NfX2hzY3Rma25rbW1tdjIwdGh1dm1vLQ&adv_sectkn=55dea06a643eb8a2d267a735fe2683bd&adv_name=appier-api&payout=1.8,idfa_c676c7b5-a424-4e71-8ce4-8ec2f81c665b,%E4%B8%AD%E6%96%87
C1RxqSaCQiCYFHuUTxIezw,doglobal_api,973_47s__hsctfknkmmmv20thuvmo,Install,1.8,140.114.236.46,290f7d4e-7aeb-436e-bdb8-dacf4d8ae1e9,1559012377,2019-05-28 10:59:37,1559012536,2019-05-28 11:02:16,1559012570,P_817e52a0ca446ca2-OTczXzk3My0xNDYwODU2Ni0xODAwLTE1MDAtMDUyOC00N3NfX2hzY3Rma25rbW1tdjIwdGh1dm1vLQ,http://pb.xyz.duunion.com/conv?tid=P_817e52a0ca446ca2-OTczXzk3My0xNDYwODU2Ni0xODAwLTE1MDAtMDUyOC00N3NfX2hzY3Rma25rbW1tdjIwdGh1dm1vLQ&adv_sectkn=55dea06a643eb8a2d267a735fe2683bd&adv_name=appier-api&payout=1.8,idfa_290f7d4e-7aeb-436e-bdb8-dacf4d8ae1e9,%E4%B8%AD%E6%96%87
C1RxqSaCQiCYFHuUTxIezw,doglobal_api,973_47s__hsctfknkmmmv20thuvmo,Install,1.8,61.219.217.199,466f7f54-5c84-4df9-b29a-e67f06cb6067,1559010823,2019-05-28 10:33:43,1559011019,2019-05-28 10:36:59,1559011050,B_6f0bc828ec9b0413-OTczXzk3My0xNDYwODU2Ni0xODAwLTE1MDAtMDUyOC00N3NfX2hzY3Rma25rbW1tdjIwdGh1dm1vLQ,http://pb.xyz.duunion.com/conv?tid=B_6f0bc828ec9b0413-OTczXzk3My0xNDYwODU2Ni0xODAwLTE1MDAtMDUyOC00N3NfX2hzY3Rma25rbW1tdjIwdGh1dm1vLQ&adv_sectkn=55dea06a643eb8a2d267a735fe2683bd&adv_name=appier-api&payout=1.8,idfa_466f7f54-5c84-4df9-b29a-e67f06cb6067,%E4%B8%AD%E6%96%87
C1RxqSaCQiCYFHuUTxIezw,doglobal_api,973_47s__hsctfknkmmmv20thuvmo,Install,1.8,123.194.181.7,da927575-5385-419e-9a84-037ffcb9b80f,1558980689,2019-05-28 02:11:29,1558980858,2019-05-28 02:14:18,1558980889,P_86603c3101612890-OTczXzk3My0xNDYwODU2Ni0xODAwLTE1MDAtMDUyOC00N3NfX2hzY3Rma25rbW1tdjIwdGh1dm1vLQ,http://pb.xyz.duunion.com/conv?tid=P_86603c3101612890-OTczXzk3My0xNDYwODU2Ni0xODAwLTE1MDAtMDUyOC00N3NfX2hzY3Rma25rbW1tdjIwdGh1dm1vLQ&adv_sectkn=55dea06a643eb8a2d267a735fe2683bd&adv_name=appier-api&payout=1.8,idfa_da927575-5385-419e-9a84-037ffcb9b80f,%E4%B8%AD%E6%96%87
C1RxqSaCQiCYFHuUTxIezw,doglobal_api,973_47s__hsctfknkmmmv20thuvmo,Install,1.8,36.236.150.55,2c8acd29-b824-4984-9bbf-79f194dceaf3,1559096500,2019-05-29 10:21:40,1559096664,2019-05-29 10:24:24,1559096695,B_0b882f0ba0118414-OTczXzk3My0xNDYwODU2Ni0xODAwLTE1MDAtMDUyOS00N3NfX2hzY3Rma25rbW1tdjIwdGh1dm1vLQ,http://pb.xyz.duunion.com/conv?tid=B_0b882f0ba0118414-OTczXzk3My0xNDYwODU2Ni0xODAwLTE1MDAtMDUyOS00N3NfX2hzY3Rma25rbW1tdjIwdGh1dm1vLQ&adv_sectkn=55dea06a643eb8a2d267a735fe2683bd&adv_name=appier-api&payout=1.8,idfa_2c8acd29-b824-4984-9bbf-79f194dceaf3,%E4%B8%AD%E6%96%87
C1RxqSaCQiCYFHuUTxIezw,doglobal_api,973_47s__hsctfknkmmmv20thuvmo,Install,1.8,59.115.140.129,e1ad1fde-fbfb-4bcf-bb05-01571ccf7bee,1558950684,2019-05-27 17:51:24,1558950843,2019-05-27 17:54:03,1558950874,B_8646f709485a759e-OTczXzk3My0xNDYwODU2Ni0xODAwLTE1MDAtMDUyNy00N3NfX2hzY3Rma25rbW1tdjIwdGh1dm1vLQ,http://pb.xyz.duunion.com/conv?tid=B_8646f709485a759e-OTczXzk3My0xNDYwODU2Ni0xODAwLTE1MDAtMDUyNy00N3NfX2hzY3Rma25rbW1tdjIwdGh1dm1vLQ&adv_sectkn=55dea06a643eb8a2d267a735fe2683bd&adv_name=appier-api&payout=1.8,idfa_e1ad1fde-fbfb-4bcf-bb05-01571ccf7bee,%E4%B8%AD%E6%96%87
C1RxqSaCQiCYFHuUTxIezw,doglobal_api,973_47s__hsctfknkmmmv20thuvmo,Install,1.8,36.227.8.190,7bbc134d-0a87-44e4-9235-6d574291769c,1558951526,2019-05-27 18:05:26,1558951641,2019-05-27 18:07:21,1558951674,B_9b1fe7d9eb26406a-OTczXzk3My0xNDYwODU2Ni0xODAwLTE1MDAtMDUyNy00N3NfX2hzY3Rma25rbW1tdjIwdGh1dm1vLQ,http://pb.xyz.duunion.com/conv?tid=B_9b1fe7d9eb26406a-OTczXzk3My0xNDYwODU2Ni0xODAwLTE1MDAtMDUyNy00N3NfX2hzY3Rma25rbW1tdjIwdGh1dm1vLQ&adv_sectkn=55dea06a643eb8a2d267a735fe2683bd&adv_name=appier-api&payout=1.8,idfa_7bbc134d-0a87-44e4-9235-6d574291769c,%E4%B8%AD%E6%96%87
C1RxqSaCQiCYFHuUTxIezw,doglobal_api,973_47s__hsctfknkmmmv20thuvmo,Install,1.8,175.182.185.136,557b434c-109d-4ea2-9e5f-76d905b1521f,1559097991,2019-05-29 10:46:31,1559098151,2019-05-29 10:49:11,1559098181,B_07c0be898958b3d7-OTczXzk3My0xNDYwODU2Ni0xODAwLTE1MDAtMDUyOS00N3NfX2hzY3Rma25rbW1tdjIwdGh1dm1vLQ,http://pb.xyz.duunion.com/conv?tid=B_07c0be898958b3d7-OTczXzk3My0xNDYwODU2Ni0xODAwLTE1MDAtMDUyOS00N3NfX2hzY3Rma25rbW1tdjIwdGh1dm1vLQ&adv_sectkn=55dea06a643eb8a2d267a735fe2683bd&adv_name=appier-api&payout=1.8,idfa_557b434c-109d-4ea2-9e5f-76d905b1521f,%E4%B8%AD%E6%96%87
C1RxqSaCQiCYFHuUTxIezw,doglobal_api,973_47s__hsctfknkmmmv20thuvmo,Install,1.8,111.249.108.216,0e24d7e3-0359-af84-ee06-f0cda3455f88,1558950426,2019-05-27 17:47:06,1558950573,2019-05-27 17:49:33,1558950605,B_1b9cc201b320bc1e-OTczXzk3My0xNDYwODU2Ni0xODAwLTE1MDAtMDUyNy00N3NfX2hzY3Rma25rbW1tdjIwdGh1dm1vLQ,http://pb.xyz.duunion.com/conv?tid=B_1b9cc201b320bc1e-OTczXzk3My0xNDYwODU2Ni0xODAwLTE1MDAtMDUyNy00N3NfX2hzY3Rma25rbW1tdjIwdGh1dm1vLQ&adv_sectkn=55dea06a643eb8a2d267a735fe2683bd&adv_name=appier-api&payout=1.8,idfa_0e24d7e3-0359-af84-ee06-f0cda3455f88,%E4%B8%AD%E6%96%87
C1RxqSaCQiCYFHuUTxIezw,doglobal_api,973_47s__hsctfknkmmmv20thuvmo,Install,1.8,220.133.130.53,49ea3517-fcd4-4457-9a20-69ee9342e1fa,1559097224,2019-05-29 10:33:44,1559097368,2019-05-29 10:36:08,1559097400,B_9e5f62baafff9dcc-OTczXzk3My0xNDYwODU2Ni0xODAwLTE1MDAtMDUyOS00N3NfX2hzY3Rma25rbW1tdjIwdGh1dm1vLQ,http://pb.xyz.duunion.com/conv?tid=B_9e5f62baafff9dcc-OTczXzk3My0xNDYwODU2Ni0xODAwLTE1MDAtMDUyOS00N3NfX2hzY3Rma25rbW1tdjIwdGh1dm1vLQ&adv_sectkn=55dea06a643eb8a2d267a735fe2683bd&adv_name=appier-api&payout=1.8,idfa_49ea3517-fcd4-4457-9a20-69ee9342e1fa,%E4%B8%AD%E6%96%87
C1RxqSaCQiCYFHuUTxIezw,doglobal_api,973_47s__hsctfknkmmmv20thuvmo,Install,1.8,140.112.218.140,b8e21dd2-434a-43f2-b4c4-a1f45ebd5817,1559011316,2019-05-28 10:41:56,1559011490,2019-05-28 10:44:50,1559011520,P_aef1b9e1a9dccf35-OTczXzk3My0xNDYwODU2Ni0xODAwLTE1MDAtMDUyOC00N3NfX2hzY3Rma25rbW1tdjIwdGh1dm1vLQ,http://pb.xyz.duunion.com/conv?tid=P_aef1b9e1a9dccf35-OTczXzk3My0xNDYwODU2Ni0xODAwLTE1MDAtMDUyOC00N3NfX2hzY3Rma25rbW1tdjIwdGh1dm1vLQ&adv_sectkn=55dea06a643eb8a2d267a735fe2683bd&adv_name=appier-api&payout=1.8,idfa_b8e21dd2-434a-43f2-b4c4-a1f45ebd5817,%E4%B8%AD%E6%96%87
C1RxqSaCQiCYFHuUTxIezw,doglobal_api,973_47s__hsctfknkmmmv20thuvmo,Install,1.8,36.226.251.80,0965ec84-a152-451d-8f72-ef851f65ccfc,1559093843,2019-05-29 09:37:23,1559093999,2019-05-29 09:39:59,1559094032,P_8c46c8997f454fc4-OTczXzk3My0xNDYwODU2Ni0xODAwLTE1MDAtMDUyOS00N3NfX2hzY3Rma25rbW1tdjIwdGh1dm1vLQ,http://pb.xyz.duunion.com/conv?tid=P_8c46c8997f454fc4-OTczXzk3My0xNDYwODU2Ni0xODAwLTE1MDAtMDUyOS00N3NfX2hzY3Rma25rbW1tdjIwdGh1dm1vLQ&adv_sectkn=55dea06a643eb8a2d267a735fe2683bd&adv_name=appier-api&payout=1.8,idfa_0965ec84-a152-451d-8f72-ef851f65ccfc,%E4%B8%AD%E6%96%87
C1RxqSaCQiCYFHuUTxIezw,doglobal_api,973_47s__hsctfknkmmmv20thuvmo,Install,1.8,36.231.161.155,81352a17-d210-4ee1-a0c7-12057fb122b4,1558950428,2019-05-27 17:47:08,1558950569,2019-05-27 17:49:29,1558950600,P_69b81e05f3ff0a11-OTczXzk3My0xNDYwODU2Ni0xODAwLTE1MDAtMDUyNy00N3NfX2hzY3Rma25rbW1tdjIwdGh1dm1vLQ,http://pb.xyz.duunion.com/conv?tid=P_69b81e05f3ff0a11-OTczXzk3My0xNDYwODU2Ni0xODAwLTE1MDAtMDUyNy00N3NfX2hzY3Rma25rbW1tdjIwdGh1dm1vLQ&adv_sectkn=55dea06a643eb8a2d267a735fe2683bd&adv_name=appier-api&payout=1.8,idfa_81352a17-d210-4ee1-a0c7-12057fb122b4,%E4%B8%AD%E6%96%87
C1RxqSaCQiCYFHuUTxIezw,doglobal_api,973_47s__hsctfknkmmmv20thuvmo,Install,1.8,220.134.138.95,3004b666-ae08-4c34-baa8-fcca65ea831e,1559098627,2019-05-29 10:57:07,1559098787,2019-05-29 10:59:47,1559098819,P_34a9c69755e0b31f-OTczXzk3My0xNDYwODU2Ni0xODAwLTE1MDAtMDUyOS00N3NfX2hzY3Rma25rbW1tdjIwdGh1dm1vLQ,http://pb.xyz.duunion.com/conv?tid=P_34a9c69755e0b31f-OTczXzk3My0xNDYwODU2Ni0xODAwLTE1MDAtMDUyOS00N3NfX2hzY3Rma25rbW1tdjIwdGh1dm1vLQ&adv_sectkn=55dea06a643eb8a2d267a735fe2683bd&adv_name=appier-api&payout=1.8,idfa_3004b666-ae08-4c34-baa8-fcca65ea831e,%E4%B8%AD%E6%96%87
C1RxqSaCQiCYFHuUTxIezw,doglobal_api,973_47s__hsctfknkmmmv20thuvmo,Install,1.8,111.254.67.250,b3d470d5-0993-4bf0-a02b-0c5e40280c17,1558950816,2019-05-27 17:53:36,1558950944,2019-05-27 17:55:44,1558950975,B_7117a68c688e5013-OTczXzk3My0xNDYwODU2Ni0xODAwLTE1MDAtMDUyNy00N3NfX2hzY3Rma25rbW1tdjIwdGh1dm1vLQ,http://pb.xyz.duunion.com/conv?tid=B_7117a68c688e5013-OTczXzk3My0xNDYwODU2Ni0xODAwLTE1MDAtMDUyNy00N3NfX2hzY3Rma25rbW1tdjIwdGh1dm1vLQ&adv_sectkn=55dea06a643eb8a2d267a735fe2683bd&adv_name=appier-api&payout=1.8,idfa_b3d470d5-0993-4bf0-a02b-0c5e40280c17,%E4%B8%AD%E6%96%87
C1RxqSaCQiCYFHuUTxIezw,doglobal_api,973_47s__hsctfknkmmmv20thuvmo,Install,1.8,36.237.31.93,ff26d486-7af9-40a7-86cc-497fefe6c96f,1559095131,2019-05-29 09:58:51,1559095303,2019-05-29 10:01:43,1559095396,P_5622e9538dacce1e-OTczXzk3My0xNDYwODU2Ni0xODAwLTE1MDAtMDUyOS00N3NfX2hzY3Rma25rbW1tdjIwdGh1dm1vLQ,http://pb.xyz.duunion.com/conv?tid=P_5622e9538dacce1e-OTczXzk3My0xNDYwODU2Ni0xODAwLTE1MDAtMDUyOS00N3NfX2hzY3Rma25rbW1tdjIwdGh1dm1vLQ&adv_sectkn=55dea06a643eb8a2d267a735fe2683bd&adv_name=appier-api&payout=1.8,idfa_ff26d486-7af9-40a7-86cc-497fefe6c96f,%E4%B8%AD%E6%96%87
C1RxqSaCQiCYFHuUTxIezw,doglobal_api,973_47s__hsctfknkmmmv20thuvmo,Install,1.8,114.44.35.72,83813da7-0e1f-48ad-948d-97f35737c13a,1558951801,2019-05-27 18:10:01,1558951963,2019-05-27 18:12:43,1558951995,B_1d7e55b0cabbdd88-OTczXzk3My0xNDYwODU2Ni0xODAwLTE1MDAtMDUyNy00N3NfX2hzY3Rma25rbW1tdjIwdGh1dm1vLQ,http://pb.xyz.duunion.com/conv?tid=B_1d7e55b0cabbdd88-OTczXzk3My0xNDYwODU2Ni0xODAwLTE1MDAtMDUyNy00N3NfX2hzY3Rma25rbW1tdjIwdGh1dm1vLQ&adv_sectkn=55dea06a643eb8a2d267a735fe2683bd&adv_name=appier-api&payout=1.8,idfa_83813da7-0e1f-48ad-948d-97f35737c13a,%E4%B8%AD%E6%96%87
C1RxqSaCQiCYFHuUTxIezw,doglobal_api,973_47s__hsctfknkmmmv20thuvmo,Install,1.8,59.115.228.227,1c140320-81d5-4f67-a0a0-8f0eeca5b29c,1558950558,2019-05-27 17:49:18,1558950717,2019-05-27 17:51:57,1558950747,B_d60f1519b431013f-OTczXzk3My0xNDYwODU2Ni0xODAwLTE1MDAtMDUyNy00N3NfX2hzY3Rma25rbW1tdjIwdGh1dm1vLQ,http://pb.xyz.duunion.com/conv?tid=B_d60f1519b431013f-OTczXzk3My0xNDYwODU2Ni0xODAwLTE1MDAtMDUyNy00N3NfX2hzY3Rma25rbW1tdjIwdGh1dm1vLQ&adv_sectkn=55dea06a643eb8a2d267a735fe2683bd&adv_name=appier-api&payout=1.8,idfa_1c140320-81d5-4f67-a0a0-8f0eeca5b29c,%E4%B8%AD%E6%96%87
C1RxqSaCQiCYFHuUTxIezw,doglobal_api,973_47s__hsctfknkmmmv20thuvmo,Install,1.8,118.168.75.39,2f5ed58a-a5ba-4703-8041-379096e149d1,1559041886,2019-05-28 19:11:26,1559042047,2019-05-28 19:14:07,1559042078,B_fa56a5f55adf17e6-OTczXzk3My0xNDYwODU2Ni0xODAwLTE1MDAtMDUyOC00N3NfX2hzY3Rma25rbW1tdjIwdGh1dm1vLQ,http://pb.xyz.duunion.com/conv?tid=B_fa56a5f55adf17e6-OTczXzk3My0xNDYwODU2Ni0xODAwLTE1MDAtMDUyOC00N3NfX2hzY3Rma25rbW1tdjIwdGh1dm1vLQ&adv_sectkn=55dea06a643eb8a2d267a735fe2683bd&adv_name=appier-api&payout=1.8,idfa_2f5ed58a-a5ba-4703-8041-379096e149d1,%E4%B8%AD%E6%96%87
C1RxqSaCQiCYFHuUTxIezw,doglobal_api,973_47s__hsctfknkmmmv20thuvmo,Install,1.8,111.184.69.236,245c2de8-c7dc-4a37-138a-a246670c06ce,1558950301,2019-05-27 17:45:01,1558950421,2019-05-27 17:47:01,1558950494,B_053c001568c20891-OTczXzk3My0xNDYwODU2Ni0xODAwLTE1MDAtMDUyNy00N3NfX2hzY3Rma25rbW1tdjIwdGh1dm1vLQ,http://pb.xyz.duunion.com/conv?tid=B_053c001568c20891-OTczXzk3My0xNDYwODU2Ni0xODAwLTE1MDAtMDUyNy00N3NfX2hzY3Rma25rbW1tdjIwdGh1dm1vLQ&adv_sectkn=55dea06a643eb8a2d267a735fe2683bd&adv_name=appier-api&payout=1.8,idfa_245c2de8-c7dc-4a37-138a-a246670c06ce,%E4%B8%AD%E6%96%87
C1RxqSaCQiCYFHuUTxIezw,doglobal_api,973_47s__hsctfknkmmmv20thuvmo,Install,1.8,125.224.12.55,a1645e25-5306-4301-830d-96178770eea7,1558950708,2019-05-27 17:51:48,1558950822,2019-05-27 17:53:42,1558950852,P_8a6e7dc969af67db-OTczXzk3My0xNDYwODU2Ni0xODAwLTE1MDAtMDUyNy00N3NfX2hzY3Rma25rbW1tdjIwdGh1dm1vLQ,http://pb.xyz.duunion.com/conv?tid=P_8a6e7dc969af67db-OTczXzk3My0xNDYwODU2Ni0xODAwLTE1MDAtMDUyNy00N3NfX2hzY3Rma25rbW1tdjIwdGh1dm1vLQ&adv_sectkn=55dea06a643eb8a2d267a735fe2683bd&adv_name=appier-api&payout=1.8,idfa_a1645e25-5306-4301-830d-96178770eea7,%E4%B8%AD%E6%96%87
C1RxqSaCQiCYFHuUTxIezw,doglobal_api,973_47s__hsctfknkmmmv20thuvmo,Install,1.8,36.237.19.102,25c192ff-21a3-47cb-8fd0-8d0b96666de0,1559040888,2019-05-28 18:54:48,1559041018,2019-05-28 18:56:58,1559041049,P_8f7ba6bd303aeeee-OTczXzk3My0xNDYwODU2Ni0xODAwLTE1MDAtMDUyOC00N3NfX2hzY3Rma25rbW1tdjIwdGh1dm1vLQ,http://pb.xyz.duunion.com/conv?tid=P_8f7ba6bd303aeeee-OTczXzk3My0xNDYwODU2Ni0xODAwLTE1MDAtMDUyOC00N3NfX2hzY3Rma25rbW1tdjIwdGh1dm1vLQ&adv_sectkn=55dea06a643eb8a2d267a735fe2683bd&adv_name=appier-api&payout=1.8,idfa_25c192ff-21a3-47cb-8fd0-8d0b96666de0,%E4%B8%AD%E6%96%87
