cid,partner_id,channel_id,action_id,cpi,ip,idfa,click time,click datetime,install time,install datetime,postback time,click id,postback url,unique user id
IAWJC7cXQtqKuBqWVzJcAA,doglobal_api,967_17_25666,install,2.0,49.106.215.194,FB2A4E08-AB70-4CF5-9D67-187A06AC90AC,1559014671,2019-05-28 11:37:51,1559014732,2019-05-28 11:38:52,1559014762,P_cc3537f205c40302-OTY3Xy0xMjY3MTU1MS0yMDAwLTI2MDAtMDUyOC0tMTdfMjU2NjY,http://pb.xyz.duunion.com/conv?tid=P_cc3537f205c40302-OTY3Xy0xMjY3MTU1MS0yMDAwLTI2MDAtMDUyOC0tMTdfMjU2NjY&adv_sectkn=55dea06a643eb8a2d267a735fe2683bd&adv_name=appier-api&payout=2.0,idfa_FB2A4E08-AB70-4CF5-9D67-187A06AC90AC,ja
IAWJC7cXQtqKuBqWVzJcAA,doglobal_api,967_17_25666,install,2.0,128.53.230.199,6BBBBE2C-B19F-44F0-AFB9-BDC776C9FC0A,1559019675,2019-05-28 13:01:15,1559019733,2019-05-28 13:02:13,1559019763,P_05d92f3eab73c545-OTY3Xy0xMjY3MTU1MS0yMDAwLTI2MDAtMDUyOC0tMTdfMjU2NjY,http://pb.xyz.duunion.com/conv?tid=P_05d92f3eab73c545-OTY3Xy0xMjY3MTU1MS0yMDAwLTI2MDAtMDUyOC0tMTdfMjU2NjY&adv_sectkn=55dea06a643eb8a2d267a735fe2683bd&adv_name=appier-api&payout=2.0,idfa_6BBBBE2C-B19F-44F0-AFB9-BDC776C9FC0A,ja
IAWJC7cXQtqKuBqWVzJcAA,doglobal_api,967_17_25666,install,2.0,125.198.226.224,970D3B01-F410-4ADE-B210-D8F22D8FE1A6,1559019660,2019-05-28 13:01:00,1559019715,2019-05-28 13:01:55,1559019745,B_0efc95dad55ab635-OTY3Xy0xMjY3MTU1MS0yMDAwLTI2MDAtMDUyOC0tMTdfMjU2NjY,http://pb.xyz.duunion.com/conv?tid=B_0efc95dad55ab635-OTY3Xy0xMjY3MTU1MS0yMDAwLTI2MDAtMDUyOC0tMTdfMjU2NjY&adv_sectkn=55dea06a643eb8a2d267a735fe2683bd&adv_name=appier-api&payout=2.0,idfa_970D3B01-F410-4ADE-B210-D8F22D8FE1A6,ja
IAWJC7cXQtqKuBqWVzJcAA,doglobal_api,967_17_25666,install,2.0,60.47.48.103,51971DBE-3DC4-4A0C-8AE6-278A939215CF,1559014640,2019-05-28 11:37:20,1559014746,2019-05-28 11:39:06,1559014776,B_496f66d1c8b15599-OTY3Xy0xMjY3MTU1MS0yMDAwLTI2MDAtMDUyOC0tMTdfMjU2NjY,http://pb.xyz.duunion.com/conv?tid=B_496f66d1c8b15599-OTY3Xy0xMjY3MTU1MS0yMDAwLTI2MDAtMDUyOC0tMTdfMjU2NjY&adv_sectkn=55dea06a643eb8a2d267a735fe2683bd&adv_name=appier-api&payout=2.0,idfa_51971DBE-3DC4-4A0C-8AE6-278A939215CF,ja
IAWJC7cXQtqKuBqWVzJcAA,doglobal_api,967_17_25666,install,2.0,202.225.71.122,1BFD5A9B-912C-4DAC-A050-2ADC629DDBE1,1559019539,2019-05-28 12:58:59,1559019606,2019-05-28 13:00:06,1559019636,B_ddd49579fb052da7-OTY3Xy0xMjY3MTU1MS0yMDAwLTI2MDAtMDUyOC0tMTdfMjU2NjY,http://pb.xyz.duunion.com/conv?tid=B_ddd49579fb052da7-OTY3Xy0xMjY3MTU1MS0yMDAwLTI2MDAtMDUyOC0tMTdfMjU2NjY&adv_sectkn=55dea06a643eb8a2d267a735fe2683bd&adv_name=appier-api&payout=2.0,idfa_1BFD5A9B-912C-4DAC-A050-2ADC629DDBE1,ja
IAWJC7cXQtqKuBqWVzJcAA,doglobal_api,967_17_25666,install,2.0,153.201.186.35,6BD33D61-507A-460A-9B57-417D8B0BA0B1,1559016025,2019-05-28 12:00:25,1559016094,2019-05-28 12:01:34,1559016124,B_dfbab455f4d72dd1-OTY3Xy0xMjY3MTU1MS0yMDAwLTI2MDAtMDUyOC0tMTdfMjU2NjY,http://pb.xyz.duunion.com/conv?tid=B_dfbab455f4d72dd1-OTY3Xy0xMjY3MTU1MS0yMDAwLTI2MDAtMDUyOC0tMTdfMjU2NjY&adv_sectkn=55dea06a643eb8a2d267a735fe2683bd&adv_name=appier-api&payout=2.0,idfa_6BD33D61-507A-460A-9B57-417D8B0BA0B1,ja
IAWJC7cXQtqKuBqWVzJcAA,doglobal_api,967_17_25666,install,2.0,183.74.192.24,5DC95831-88D5-4565-A807-0290E8B4F5FA,1559011122,2019-05-28 10:38:42,1559011195,2019-05-28 10:39:55,1559011225,P_668bf6da4ef597cb-OTY3Xy0xMjY3MTU1MS0yMDAwLTI2MDAtMDUyOC0tMTdfMjU2NjY,http://pb.xyz.duunion.com/conv?tid=P_668bf6da4ef597cb-OTY3Xy0xMjY3MTU1MS0yMDAwLTI2MDAtMDUyOC0tMTdfMjU2NjY&adv_sectkn=55dea06a643eb8a2d267a735fe2683bd&adv_name=appier-api&payout=2.0,idfa_5DC95831-88D5-4565-A807-0290E8B4F5FA,ja
IAWJC7cXQtqKuBqWVzJcAA,doglobal_api,967_17_25666,install,2.1,160.86.143.33,07BEDF1E-60E2-407E-8E0F-DF931FD74C9C,1558921971,2019-05-27 09:52:51,1558922033,2019-05-27 09:53:53,1558922063,B_41550ac70fe756e3-OTY3Xy0xMjY3MTU1MS0yMTAwLTI3MzAtMDUyNy0tMTdfMjU2NjY,http://pb.xyz.duunion.com/conv?tid=B_41550ac70fe756e3-OTY3Xy0xMjY3MTU1MS0yMTAwLTI3MzAtMDUyNy0tMTdfMjU2NjY&adv_sectkn=55dea06a643eb8a2d267a735fe2683bd&adv_name=appier-api&payout=2.1,idfa_07BEDF1E-60E2-407E-8E0F-DF931FD74C9C,ja
IAWJC7cXQtqKuBqWVzJcAA,doglobal_api,967_17_25666,install,2.0,202.225.71.122,F7D842DF-3D02-4111-A470-DB4EDD8B6918,1559019163,2019-05-28 12:52:43,1559019239,2019-05-28 12:53:59,1559019269,P_09336be20f1ee05c-OTY3Xy0xMjY3MTU1MS0yMDAwLTI2MDAtMDUyOC0tMTdfMjU2NjY,http://pb.xyz.duunion.com/conv?tid=P_09336be20f1ee05c-OTY3Xy0xMjY3MTU1MS0yMDAwLTI2MDAtMDUyOC0tMTdfMjU2NjY&adv_sectkn=55dea06a643eb8a2d267a735fe2683bd&adv_name=appier-api&payout=2.0,idfa_F7D842DF-3D02-4111-A470-DB4EDD8B6918,ja
IAWJC7cXQtqKuBqWVzJcAA,doglobal_api,967_17_25666,install,2.0,126.151.68.91,71AC1A6B-E886-4476-82AD-A4BC78BDCB3A,1559012089,2019-05-28 10:54:49,1559012144,2019-05-28 10:55:44,1559012174,P_e74bc669ae1d000e-OTY3Xy0xMjY3MTU1MS0yMDAwLTI2MDAtMDUyOC0tMTdfMjU2NjY,http://pb.xyz.duunion.com/conv?tid=P_e74bc669ae1d000e-OTY3Xy0xMjY3MTU1MS0yMDAwLTI2MDAtMDUyOC0tMTdfMjU2NjY&adv_sectkn=55dea06a643eb8a2d267a735fe2683bd&adv_name=appier-api&payout=2.0,idfa_71AC1A6B-E886-4476-82AD-A4BC78BDCB3A,ja
IAWJC7cXQtqKuBqWVzJcAA,doglobal_api,967_17_25666,install,2.0,159.28.137.155,DA9E6776-FB72-4A13-A399-EB057D325161,1559015397,2019-05-28 11:49:57,1559015460,2019-05-28 11:51:00,1559015490,B_3504e4c908e67632-OTY3Xy0xMjY3MTU1MS0yMDAwLTI2MDAtMDUyOC0tMTdfMjU2NjY,http://pb.xyz.duunion.com/conv?tid=B_3504e4c908e67632-OTY3Xy0xMjY3MTU1MS0yMDAwLTI2MDAtMDUyOC0tMTdfMjU2NjY&adv_sectkn=55dea06a643eb8a2d267a735fe2683bd&adv_name=appier-api&payout=2.0,idfa_DA9E6776-FB72-4A13-A399-EB057D325161,ja
IAWJC7cXQtqKuBqWVzJcAA,doglobal_api,967_17_25666,install,2.1,119.229.169.108,D6A56A49-A5E5-47B7-B4E7-4B8C12C57D59,1558921729,2019-05-27 09:48:49,1558921808,2019-05-27 09:50:08,1558921838,B_2588aa2b0b89b1e3-OTY3Xy0xMjY3MTU1MS0yMTAwLTI3MzAtMDUyNy0tMTdfMjU2NjY,http://pb.xyz.duunion.com/conv?tid=B_2588aa2b0b89b1e3-OTY3Xy0xMjY3MTU1MS0yMTAwLTI3MzAtMDUyNy0tMTdfMjU2NjY&adv_sectkn=55dea06a643eb8a2d267a735fe2683bd&adv_name=appier-api&payout=2.1,idfa_D6A56A49-A5E5-47B7-B4E7-4B8C12C57D59,ja
IAWJC7cXQtqKuBqWVzJcAA,doglobal_api,967_17_25666,install,2.0,121.86.151.222,DA6B4E97-FE2A-4117-A112-3F64CDC76113,1559019387,2019-05-28 12:56:27,1559019478,2019-05-28 12:57:58,1559019508,B_3b1a572804564185-OTY3Xy0xMjY3MTU1MS0yMDAwLTI2MDAtMDUyOC0tMTdfMjU2NjY,http://pb.xyz.duunion.com/conv?tid=B_3b1a572804564185-OTY3Xy0xMjY3MTU1MS0yMDAwLTI2MDAtMDUyOC0tMTdfMjU2NjY&adv_sectkn=55dea06a643eb8a2d267a735fe2683bd&adv_name=appier-api&payout=2.0,idfa_DA6B4E97-FE2A-4117-A112-3F64CDC76113,ja
IAWJC7cXQtqKuBqWVzJcAA,doglobal_api,967_17_25666,install,2.0,183.74.194.101,2AC916F5-65FD-44FC-B5F2-C6CD450B55FB,1559016092,2019-05-28 12:01:32,1559102101,2019-05-29 11:55:01,1559102131,P_beba318f8a72cdd3-OTY3Xy0xMjY3MTU1MS0yMDAwLTI2MDAtMDUyOC0tMTdfMjU2NjY,http://pb.xyz.duunion.com/conv?tid=P_beba318f8a72cdd3-OTY3Xy0xMjY3MTU1MS0yMDAwLTI2MDAtMDUyOC0tMTdfMjU2NjY&adv_sectkn=55dea06a643eb8a2d267a735fe2683bd&adv_name=appier-api&payout=2.0,idfa_2AC916F5-65FD-44FC-B5F2-C6CD450B55FB,ja
IAWJC7cXQtqKuBqWVzJcAA,doglobal_api,967_17_25666,install,2.0,221.113.157.197,D1984142-1D3F-4F83-B370-82639225CA55,1559012075,2019-05-28 10:54:35,1559012136,2019-05-28 10:55:36,1559012166,B_12c26c951720ef59-OTY3Xy0xMjY3MTU1MS0yMDAwLTI2MDAtMDUyOC0tMTdfMjU2NjY,http://pb.xyz.duunion.com/conv?tid=B_12c26c951720ef59-OTY3Xy0xMjY3MTU1MS0yMDAwLTI2MDAtMDUyOC0tMTdfMjU2NjY&adv_sectkn=55dea06a643eb8a2d267a735fe2683bd&adv_name=appier-api&payout=2.0,idfa_D1984142-1D3F-4F83-B370-82639225CA55,ja
IAWJC7cXQtqKuBqWVzJcAA,doglobal_api,967_17_25666,install,2.1,211.129.107.95,2A0EB5DD-1F3C-4202-9078-0C78A417E381,1558920845,2019-05-27 09:34:05,1558920931,2019-05-27 09:35:31,1558920961,B_a4664bedbd058e52-OTY3Xy0xMjY3MTU1MS0yMTAwLTI3MzAtMDUyNy0tMTdfMjU2NjY,http://pb.xyz.duunion.com/conv?tid=B_a4664bedbd058e52-OTY3Xy0xMjY3MTU1MS0yMTAwLTI3MzAtMDUyNy0tMTdfMjU2NjY&adv_sectkn=55dea06a643eb8a2d267a735fe2683bd&adv_name=appier-api&payout=2.1,idfa_2A0EB5DD-1F3C-4202-9078-0C78A417E381,ja
IAWJC7cXQtqKuBqWVzJcAA,doglobal_api,967_17_25666,install,2.0,60.47.48.103,7C9B4E8E-B776-48D1-A14E-D519F8985AD6,1559015323,2019-05-28 11:48:43,1559015390,2019-05-28 11:49:50,1559015420,B_978135078b2489ef-OTY3Xy0xMjY3MTU1MS0yMDAwLTI2MDAtMDUyOC0tMTdfMjU2NjY,http://pb.xyz.duunion.com/conv?tid=B_978135078b2489ef-OTY3Xy0xMjY3MTU1MS0yMDAwLTI2MDAtMDUyOC0tMTdfMjU2NjY&adv_sectkn=55dea06a643eb8a2d267a735fe2683bd&adv_name=appier-api&payout=2.0,idfa_7C9B4E8E-B776-48D1-A14E-D519F8985AD6,ja
IAWJC7cXQtqKuBqWVzJcAA,doglobal_api,967_17_25666,install,2.1,126.225.105.62,2F05CE8B-A7F6-44B6-B381-C826B7A2148F,1558922392,2019-05-27 09:59:52,1558922458,2019-05-27 10:00:58,1558922489,P_3cc0774648ca3007-OTY3Xy0xMjY3MTU1MS0yMTAwLTI3MzAtMDUyNy0tMTdfMjU2NjY,http://pb.xyz.duunion.com/conv?tid=P_3cc0774648ca3007-OTY3Xy0xMjY3MTU1MS0yMTAwLTI3MzAtMDUyNy0tMTdfMjU2NjY&adv_sectkn=55dea06a643eb8a2d267a735fe2683bd&adv_name=appier-api&payout=2.1,idfa_2F05CE8B-A7F6-44B6-B381-C826B7A2148F,ja
IAWJC7cXQtqKuBqWVzJcAA,doglobal_api,967_17_25666,install,2.0,153.142.120.116,22E2A57B-002D-4301-BE2B-B10650B7D3A0,1559014418,2019-05-28 11:33:38,1559014477,2019-05-28 11:34:37,1559014507,B_fd300ffadfced3f9-OTY3Xy0xMjY3MTU1MS0yMDAwLTI2MDAtMDUyOC0tMTdfMjU2NjY,http://pb.xyz.duunion.com/conv?tid=B_fd300ffadfced3f9-OTY3Xy0xMjY3MTU1MS0yMDAwLTI2MDAtMDUyOC0tMTdfMjU2NjY&adv_sectkn=55dea06a643eb8a2d267a735fe2683bd&adv_name=appier-api&payout=2.0,idfa_22E2A57B-002D-4301-BE2B-B10650B7D3A0,ja
IAWJC7cXQtqKuBqWVzJcAA,doglobal_api,967_17_25666,install,2.0,116.65.137.134,7ECDDBAC-2F0F-4142-8A0D-9F227C6D0DB2,1559011299,2019-05-28 10:41:39,1559011360,2019-05-28 10:42:40,1559011391,P_186e496d684b9baa-OTY3Xy0xMjY3MTU1MS0yMDAwLTI2MDAtMDUyOC0tMTdfMjU2NjY,http://pb.xyz.duunion.com/conv?tid=P_186e496d684b9baa-OTY3Xy0xMjY3MTU1MS0yMDAwLTI2MDAtMDUyOC0tMTdfMjU2NjY&adv_sectkn=55dea06a643eb8a2d267a735fe2683bd&adv_name=appier-api&payout=2.0,idfa_7ECDDBAC-2F0F-4142-8A0D-9F227C6D0DB2,ja
IAWJC7cXQtqKuBqWVzJcAA,doglobal_api,967_17_25666,install,2.0,160.86.179.100,C94B2149-044F-4E04-90AA-455B72F222CF,1559015954,2019-05-28 11:59:14,1559016047,2019-05-28 12:00:47,1559016078,P_a794a503eaf59e74-OTY3Xy0xMjY3MTU1MS0yMDAwLTI2MDAtMDUyOC0tMTdfMjU2NjY,http://pb.xyz.duunion.com/conv?tid=P_a794a503eaf59e74-OTY3Xy0xMjY3MTU1MS0yMDAwLTI2MDAtMDUyOC0tMTdfMjU2NjY&adv_sectkn=55dea06a643eb8a2d267a735fe2683bd&adv_name=appier-api&payout=2.0,idfa_C94B2149-044F-4E04-90AA-455B72F222CF,ja
IAWJC7cXQtqKuBqWVzJcAA,doglobal_api,967_17_25666,install,2.0,42.150.134.105,95A77277-5CD8-4A5E-B949-DD4CA555A4D2,1559012133,2019-05-28 10:55:33,1559012203,2019-05-28 10:56:43,1559012234,B_729077736532ac63-OTY3Xy0xMjY3MTU1MS0yMDAwLTI2MDAtMDUyOC0tMTdfMjU2NjY,http://pb.xyz.duunion.com/conv?tid=B_729077736532ac63-OTY3Xy0xMjY3MTU1MS0yMDAwLTI2MDAtMDUyOC0tMTdfMjU2NjY&adv_sectkn=55dea06a643eb8a2d267a735fe2683bd&adv_name=appier-api&payout=2.0,idfa_95A77277-5CD8-4A5E-B949-DD4CA555A4D2,ja
IAWJC7cXQtqKuBqWVzJcAA,doglobal_api,967_17_25666,install,2.1,153.209.166.98,0CFD0526-A0A8-4200-A18D-3D37F00E7B5E,1558922708,2019-05-27 10:05:08,1558922765,2019-05-27 10:06:05,1558922796,P_b0bb35b5956ac3a5-OTY3Xy0xMjY3MTU1MS0yMTAwLTI3MzAtMDUyNy0tMTdfMjU2NjY,http://pb.xyz.duunion.com/conv?tid=P_b0bb35b5956ac3a5-OTY3Xy0xMjY3MTU1MS0yMTAwLTI3MzAtMDUyNy0tMTdfMjU2NjY&adv_sectkn=55dea06a643eb8a2d267a735fe2683bd&adv_name=appier-api&payout=2.1,idfa_0CFD0526-A0A8-4200-A18D-3D37F00E7B5E,ja
IAWJC7cXQtqKuBqWVzJcAA,doglobal_api,967_17_25666,install,2.1,124.141.10.82,294792BD-7CF4-48A6-AF78-1262A57FE4D3,1558921588,2019-05-27 09:46:28,1558921665,2019-05-27 09:47:45,1558921697,B_2423d991d56b4c93-OTY3Xy0xMjY3MTU1MS0yMTAwLTI3MzAtMDUyNy0tMTdfMjU2NjY,http://pb.xyz.duunion.com/conv?tid=B_2423d991d56b4c93-OTY3Xy0xMjY3MTU1MS0yMTAwLTI3MzAtMDUyNy0tMTdfMjU2NjY&adv_sectkn=55dea06a643eb8a2d267a735fe2683bd&adv_name=appier-api&payout=2.1,idfa_294792BD-7CF4-48A6-AF78-1262A57FE4D3,ja
IAWJC7cXQtqKuBqWVzJcAA,doglobal_api,967_17_25666,install,2.0,182.167.152.182,9FFE0C24-AF5E-4CD0-9B1E-A0044924E3A1,1559011361,2019-05-28 10:42:41,1559011422,2019-05-28 10:43:42,1559011452,P_7f8a3e7be49ef16c-OTY3Xy0xMjY3MTU1MS0yMDAwLTI2MDAtMDUyOC0tMTdfMjU2NjY,http://pb.xyz.duunion.com/conv?tid=P_7f8a3e7be49ef16c-OTY3Xy0xMjY3MTU1MS0yMDAwLTI2MDAtMDUyOC0tMTdfMjU2NjY&adv_sectkn=55dea06a643eb8a2d267a735fe2683bd&adv_name=appier-api&payout=2.0,idfa_9FFE0C24-AF5E-4CD0-9B1E-A0044924E3A1,ja
IAWJC7cXQtqKuBqWVzJcAA,doglobal_api,967_17_25666,install,2.0,153.142.120.116,BC416A30-D780-4650-8C91-FBDBFEA8A8EF,1559015359,2019-05-28 11:49:19,1559015418,2019-05-28 11:50:18,1559015448,B_a4b5ea65abb244a5-OTY3Xy0xMjY3MTU1MS0yMDAwLTI2MDAtMDUyOC0tMTdfMjU2NjY,http://pb.xyz.duunion.com/conv?tid=B_a4b5ea65abb244a5-OTY3Xy0xMjY3MTU1MS0yMDAwLTI2MDAtMDUyOC0tMTdfMjU2NjY&adv_sectkn=55dea06a643eb8a2d267a735fe2683bd&adv_name=appier-api&payout=2.0,idfa_BC416A30-D780-4650-8C91-FBDBFEA8A8EF,ja
IAWJC7cXQtqKuBqWVzJcAA,doglobal_api,967_17_25666,install,2.1,126.225.105.62,CD14DA66-2B77-464E-A06A-4801453667CB,1558921654,2019-05-27 09:47:34,1558921711,2019-05-27 09:48:31,1558921741,P_afe8e7037041767f-OTY3Xy0xMjY3MTU1MS0yMTAwLTI3MzAtMDUyNy0tMTdfMjU2NjY,http://pb.xyz.duunion.com/conv?tid=P_afe8e7037041767f-OTY3Xy0xMjY3MTU1MS0yMTAwLTI3MzAtMDUyNy0tMTdfMjU2NjY&adv_sectkn=55dea06a643eb8a2d267a735fe2683bd&adv_name=appier-api&payout=2.1,idfa_CD14DA66-2B77-464E-A06A-4801453667CB,ja
IAWJC7cXQtqKuBqWVzJcAA,doglobal_api,967_17_25666,install,2.0,125.201.57.81,61AB46B8-422C-4A23-BEF2-58D6EAFFA279,1559015736,2019-05-28 11:55:36,1559015791,2019-05-28 11:56:31,1559015821,P_00389de3da152c83-OTY3Xy0xMjY3MTU1MS0yMDAwLTI2MDAtMDUyOC0tMTdfMjU2NjY,http://pb.xyz.duunion.com/conv?tid=P_00389de3da152c83-OTY3Xy0xMjY3MTU1MS0yMDAwLTI2MDAtMDUyOC0tMTdfMjU2NjY&adv_sectkn=55dea06a643eb8a2d267a735fe2683bd&adv_name=appier-api&payout=2.0,idfa_61AB46B8-422C-4A23-BEF2-58D6EAFFA279,ja
IAWJC7cXQtqKuBqWVzJcAA,doglobal_api,967_17_25666,install,2.0,153.142.206.87,D5E66B65-2569-4DAF-AECF-5F660BF8AD9B,1559011109,2019-05-28 10:38:29,1559011203,2019-05-28 10:40:03,1559011233,P_5a58a42c82aaeeb0-OTY3Xy0xMjY3MTU1MS0yMDAwLTI2MDAtMDUyOC0tMTdfMjU2NjY,http://pb.xyz.duunion.com/conv?tid=P_5a58a42c82aaeeb0-OTY3Xy0xMjY3MTU1MS0yMDAwLTI2MDAtMDUyOC0tMTdfMjU2NjY&adv_sectkn=55dea06a643eb8a2d267a735fe2683bd&adv_name=appier-api&payout=2.0,idfa_D5E66B65-2569-4DAF-AECF-5F660BF8AD9B,ja
IAWJC7cXQtqKuBqWVzJcAA,doglobal_api,967_17_25666,install,2.0,182.167.152.182,3CBC4165-E288-45DA-9DDC-BBD2FC2BF422,1559012160,2019-05-28 10:56:00,1559012222,2019-05-28 10:57:02,1559012252,P_cc4530e971a2f77e-OTY3Xy0xMjY3MTU1MS0yMDAwLTI2MDAtMDUyOC0tMTdfMjU2NjY,http://pb.xyz.duunion.com/conv?tid=P_cc4530e971a2f77e-OTY3Xy0xMjY3MTU1MS0yMDAwLTI2MDAtMDUyOC0tMTdfMjU2NjY&adv_sectkn=55dea06a643eb8a2d267a735fe2683bd&adv_name=appier-api&payout=2.0,idfa_3CBC4165-E288-45DA-9DDC-BBD2FC2BF422,ja
IAWJC7cXQtqKuBqWVzJcAA,doglobal_api,967_17_25666,install,2.0,153.142.120.116,D26CA30E-196A-4D1E-9FFA-488F4AF8ABAA,1559014768,2019-05-28 11:39:28,1559014833,2019-05-28 11:40:33,1559014863,P_8dec78c49c66c6a1-OTY3Xy0xMjY3MTU1MS0yMDAwLTI2MDAtMDUyOC0tMTdfMjU2NjY,http://pb.xyz.duunion.com/conv?tid=P_8dec78c49c66c6a1-OTY3Xy0xMjY3MTU1MS0yMDAwLTI2MDAtMDUyOC0tMTdfMjU2NjY&adv_sectkn=55dea06a643eb8a2d267a735fe2683bd&adv_name=appier-api&payout=2.0,idfa_D26CA30E-196A-4D1E-9FFA-488F4AF8ABAA,ja
IAWJC7cXQtqKuBqWVzJcAA,doglobal_api,967_17_25666,install,2.0,153.142.206.87,E0D175CC-D462-4A47-9E0A-840050F85407,1559011461,2019-05-28 10:44:21,1559011548,2019-05-28 10:45:48,1559011578,B_dff9c1b7fb240aec-OTY3Xy0xMjY3MTU1MS0yMDAwLTI2MDAtMDUyOC0tMTdfMjU2NjY,http://pb.xyz.duunion.com/conv?tid=B_dff9c1b7fb240aec-OTY3Xy0xMjY3MTU1MS0yMDAwLTI2MDAtMDUyOC0tMTdfMjU2NjY&adv_sectkn=55dea06a643eb8a2d267a735fe2683bd&adv_name=appier-api&payout=2.0,idfa_E0D175CC-D462-4A47-9E0A-840050F85407,ja
IAWJC7cXQtqKuBqWVzJcAA,doglobal_api,967_17_25666,install,2.0,60.135.177.116,883EE170-F7EB-42CC-9EC3-984766E183D5,1559019655,2019-05-28 13:00:55,1559019718,2019-05-28 13:01:58,1559019748,P_723dfed9e8026599-OTY3Xy0xMjY3MTU1MS0yMDAwLTI2MDAtMDUyOC0tMTdfMjU2NjY,http://pb.xyz.duunion.com/conv?tid=P_723dfed9e8026599-OTY3Xy0xMjY3MTU1MS0yMDAwLTI2MDAtMDUyOC0tMTdfMjU2NjY&adv_sectkn=55dea06a643eb8a2d267a735fe2683bd&adv_name=appier-api&payout=2.0,idfa_883EE170-F7EB-42CC-9EC3-984766E183D5,ja
IAWJC7cXQtqKuBqWVzJcAA,doglobal_api,967_17_25666,install,2.1,119.224.172.237,FF93CDC9-275A-499E-8787-66A5E9CF66B9,1558921378,2019-05-27 09:42:58,1558921452,2019-05-27 09:44:12,1558921482,P_ea1c4c16aaeab7c9-OTY3Xy0xMjY3MTU1MS0yMTAwLTI3MzAtMDUyNy0tMTdfMjU2NjY,http://pb.xyz.duunion.com/conv?tid=P_ea1c4c16aaeab7c9-OTY3Xy0xMjY3MTU1MS0yMTAwLTI3MzAtMDUyNy0tMTdfMjU2NjY&adv_sectkn=55dea06a643eb8a2d267a735fe2683bd&adv_name=appier-api&payout=2.1,idfa_FF93CDC9-275A-499E-8787-66A5E9CF66B9,ja
IAWJC7cXQtqKuBqWVzJcAA,doglobal_api,967_17_25666,install,2.0,125.175.98.31,28D8A86C-6F93-4AEC-8128-86838F0B8629,1559011649,2019-05-28 10:47:29,1559011705,2019-05-28 10:48:25,1559011737,P_955d5c4d2cf746b5-OTY3Xy0xMjY3MTU1MS0yMDAwLTI2MDAtMDUyOC0tMTdfMjU2NjY,http://pb.xyz.duunion.com/conv?tid=P_955d5c4d2cf746b5-OTY3Xy0xMjY3MTU1MS0yMDAwLTI2MDAtMDUyOC0tMTdfMjU2NjY&adv_sectkn=55dea06a643eb8a2d267a735fe2683bd&adv_name=appier-api&payout=2.0,idfa_28D8A86C-6F93-4AEC-8128-86838F0B8629,ja
IAWJC7cXQtqKuBqWVzJcAA,doglobal_api,967_17_25666,install,2.0,49.251.248.206,C158E388-4B79-43E6-A2A0-926394AE41D8,1559012141,2019-05-28 10:55:41,1559012201,2019-05-28 10:56:41,1559012231,P_239a088719b7fe1b-OTY3Xy0xMjY3MTU1MS0yMDAwLTI2MDAtMDUyOC0tMTdfMjU2NjY,http://pb.xyz.duunion.com/conv?tid=P_239a088719b7fe1b-OTY3Xy0xMjY3MTU1MS0yMDAwLTI2MDAtMDUyOC0tMTdfMjU2NjY&adv_sectkn=55dea06a643eb8a2d267a735fe2683bd&adv_name=appier-api&payout=2.0,idfa_C158E388-4B79-43E6-A2A0-926394AE41D8,ja
IAWJC7cXQtqKuBqWVzJcAA,doglobal_api,967_17_25666,install,2.1,114.142.6.214,215AAA82-E336-4E6D-94AE-E88BD60ED15C,1558922645,2019-05-27 10:04:05,1558922688,2019-05-27 10:04:48,1558922718,P_05acde707e7366e9-OTY3Xy0xMjY3MTU1MS0yMTAwLTI3MzAtMDUyNy0tMTdfMjU2NjY,http://pb.xyz.duunion.com/conv?tid=P_05acde707e7366e9-OTY3Xy0xMjY3MTU1MS0yMTAwLTI3MzAtMDUyNy0tMTdfMjU2NjY&adv_sectkn=55dea06a643eb8a2d267a735fe2683bd&adv_name=appier-api&payout=2.1,idfa_215AAA82-E336-4E6D-94AE-E88BD60ED15C,ja
IAWJC7cXQtqKuBqWVzJcAA,doglobal_api,967_17_25666,install,2.1,203.205.116.170,4252F698-E592-4D46-8B1E-782D291E079F,1558922169,2019-05-27 09:56:09,1558922281,2019-05-27 09:58:01,1558922312,B_d61d0f3a1daf564a-OTY3Xy0xMjY3MTU1MS0yMTAwLTI3MzAtMDUyNy0tMTdfMjU2NjY,http://pb.xyz.duunion.com/conv?tid=B_d61d0f3a1daf564a-OTY3Xy0xMjY3MTU1MS0yMTAwLTI3MzAtMDUyNy0tMTdfMjU2NjY&adv_sectkn=55dea06a643eb8a2d267a735fe2683bd&adv_name=appier-api&payout=2.1,idfa_4252F698-E592-4D46-8B1E-782D291E079F,ja
IAWJC7cXQtqKuBqWVzJcAA,doglobal_api,967_17_25666,install,2.1,152.165.86.204,166DC1AE-A3C7-4A4B-A605-0CF62FEE438E,1558922402,2019-05-27 10:00:02,1558922476,2019-05-27 10:01:16,1558922506,P_f4f3d64c551932fd-OTY3Xy0xMjY3MTU1MS0yMTAwLTI3MzAtMDUyNy0tMTdfMjU2NjY,http://pb.xyz.duunion.com/conv?tid=P_f4f3d64c551932fd-OTY3Xy0xMjY3MTU1MS0yMTAwLTI3MzAtMDUyNy0tMTdfMjU2NjY&adv_sectkn=55dea06a643eb8a2d267a735fe2683bd&adv_name=appier-api&payout=2.1,idfa_166DC1AE-A3C7-4A4B-A605-0CF62FEE438E,ja
IAWJC7cXQtqKuBqWVzJcAA,doglobal_api,967_17_25666,install,2.0,125.175.98.31,E2AD226D-DD05-4BC5-8EC0-ADD3E8FB1CEB,1559012005,2019-05-28 10:53:25,1559012060,2019-05-28 10:54:20,1559012091,B_e7a300d635304bab-OTY3Xy0xMjY3MTU1MS0yMDAwLTI2MDAtMDUyOC0tMTdfMjU2NjY,http://pb.xyz.duunion.com/conv?tid=B_e7a300d635304bab-OTY3Xy0xMjY3MTU1MS0yMDAwLTI2MDAtMDUyOC0tMTdfMjU2NjY&adv_sectkn=55dea06a643eb8a2d267a735fe2683bd&adv_name=appier-api&payout=2.0,idfa_E2AD226D-DD05-4BC5-8EC0-ADD3E8FB1CEB,ja
IAWJC7cXQtqKuBqWVzJcAA,doglobal_api,967_17_25666,install,2.0,121.113.128.174,820C8C75-CF84-4D1B-B752-CF97B775B6A1,1559012001,2019-05-28 10:53:21,1559012062,2019-05-28 10:54:22,1559012092,P_db19ff3ce7a31997-OTY3Xy0xMjY3MTU1MS0yMDAwLTI2MDAtMDUyOC0tMTdfMjU2NjY,http://pb.xyz.duunion.com/conv?tid=P_db19ff3ce7a31997-OTY3Xy0xMjY3MTU1MS0yMDAwLTI2MDAtMDUyOC0tMTdfMjU2NjY&adv_sectkn=55dea06a643eb8a2d267a735fe2683bd&adv_name=appier-api&payout=2.0,idfa_820C8C75-CF84-4D1B-B752-CF97B775B6A1,ja
IAWJC7cXQtqKuBqWVzJcAA,doglobal_api,967_17_25666,install,2.0,114.176.36.149,F22B4319-671E-4783-93BC-0A1FB16666B9,1559010903,2019-05-28 10:35:03,1559010971,2019-05-28 10:36:11,1559011001,B_ef5c2f8c65c13054-OTY3Xy0xMjY3MTU1MS0yMDAwLTI2MDAtMDUyOC0tMTdfMjU2NjY,http://pb.xyz.duunion.com/conv?tid=B_ef5c2f8c65c13054-OTY3Xy0xMjY3MTU1MS0yMDAwLTI2MDAtMDUyOC0tMTdfMjU2NjY&adv_sectkn=55dea06a643eb8a2d267a735fe2683bd&adv_name=appier-api&payout=2.0,idfa_F22B4319-671E-4783-93BC-0A1FB16666B9,ja
IAWJC7cXQtqKuBqWVzJcAA,doglobal_api,967_17_25666,install,2.0,42.150.134.105,79CDC543-7CB6-436A-9CCD-64019D962910,1559014833,2019-05-28 11:40:33,1559014902,2019-05-28 11:41:42,1559014934,B_b1aefa0ed9184d78-OTY3Xy0xMjY3MTU1MS0yMDAwLTI2MDAtMDUyOC0tMTdfMjU2NjY,http://pb.xyz.duunion.com/conv?tid=B_b1aefa0ed9184d78-OTY3Xy0xMjY3MTU1MS0yMDAwLTI2MDAtMDUyOC0tMTdfMjU2NjY&adv_sectkn=55dea06a643eb8a2d267a735fe2683bd&adv_name=appier-api&payout=2.0,idfa_79CDC543-7CB6-436A-9CCD-64019D962910,ja
IAWJC7cXQtqKuBqWVzJcAA,doglobal_api,967_17_25666,install,2.0,42.124.210.172,7C29E67D-F763-4AD2-A9AB-1A814601A56B,1559019461,2019-05-28 12:57:41,1559019533,2019-05-28 12:58:53,1559019563,B_598a68193f7e58cd-OTY3Xy0xMjY3MTU1MS0yMDAwLTI2MDAtMDUyOC0tMTdfMjU2NjY,http://pb.xyz.duunion.com/conv?tid=B_598a68193f7e58cd-OTY3Xy0xMjY3MTU1MS0yMDAwLTI2MDAtMDUyOC0tMTdfMjU2NjY&adv_sectkn=55dea06a643eb8a2d267a735fe2683bd&adv_name=appier-api&payout=2.0,idfa_7C29E67D-F763-4AD2-A9AB-1A814601A56B,ja
IAWJC7cXQtqKuBqWVzJcAA,doglobal_api,967_17_25666,install,2.0,157.14.175.145,7A22E16B-D451-4676-87D3-7B48D9D46EE4,1559010862,2019-05-28 10:34:22,1559010937,2019-05-28 10:35:37,1559010967,P_0649ba9e4b595dc3-OTY3Xy0xMjY3MTU1MS0yMDAwLTI2MDAtMDUyOC0tMTdfMjU2NjY,http://pb.xyz.duunion.com/conv?tid=P_0649ba9e4b595dc3-OTY3Xy0xMjY3MTU1MS0yMDAwLTI2MDAtMDUyOC0tMTdfMjU2NjY&adv_sectkn=55dea06a643eb8a2d267a735fe2683bd&adv_name=appier-api&payout=2.0,idfa_7A22E16B-D451-4676-87D3-7B48D9D46EE4,ja
IAWJC7cXQtqKuBqWVzJcAA,doglobal_api,967_17_25666,install,2.0,182.167.152.182,54E23C1E-8AC4-4417-B853-857E732F6840,1559011542,2019-05-28 10:45:42,1559011590,2019-05-28 10:46:30,1559011620,P_4f31802c8b7c2726-OTY3Xy0xMjY3MTU1MS0yMDAwLTI2MDAtMDUyOC0tMTdfMjU2NjY,http://pb.xyz.duunion.com/conv?tid=P_4f31802c8b7c2726-OTY3Xy0xMjY3MTU1MS0yMDAwLTI2MDAtMDUyOC0tMTdfMjU2NjY&adv_sectkn=55dea06a643eb8a2d267a735fe2683bd&adv_name=appier-api&payout=2.0,idfa_54E23C1E-8AC4-4417-B853-857E732F6840,ja
IAWJC7cXQtqKuBqWVzJcAA,doglobal_api,967_17_25666,install,2.0,125.198.226.224,8256A08A-617D-4593-922C-2C3BACC9B2AA,1559019346,2019-05-28 12:55:46,1559019411,2019-05-28 12:56:51,1559019441,B_e2958df2bcc3a1e5-OTY3Xy0xMjY3MTU1MS0yMDAwLTI2MDAtMDUyOC0tMTdfMjU2NjY,http://pb.xyz.duunion.com/conv?tid=B_e2958df2bcc3a1e5-OTY3Xy0xMjY3MTU1MS0yMDAwLTI2MDAtMDUyOC0tMTdfMjU2NjY&adv_sectkn=55dea06a643eb8a2d267a735fe2683bd&adv_name=appier-api&payout=2.0,idfa_8256A08A-617D-4593-922C-2C3BACC9B2AA,ja
IAWJC7cXQtqKuBqWVzJcAA,doglobal_api,967_17_25666,install,2.0,159.28.137.155,AB26A93E-9C69-4768-AE5D-EE3ECAABE552,1559012045,2019-05-28 10:54:05,1559012098,2019-05-28 10:54:58,1559012128,P_cf972c35ba51780c-OTY3Xy0xMjY3MTU1MS0yMDAwLTI2MDAtMDUyOC0tMTdfMjU2NjY,http://pb.xyz.duunion.com/conv?tid=P_cf972c35ba51780c-OTY3Xy0xMjY3MTU1MS0yMDAwLTI2MDAtMDUyOC0tMTdfMjU2NjY&adv_sectkn=55dea06a643eb8a2d267a735fe2683bd&adv_name=appier-api&payout=2.0,idfa_AB26A93E-9C69-4768-AE5D-EE3ECAABE552,ja
IAWJC7cXQtqKuBqWVzJcAA,doglobal_api,967_17_25666,install,2.0,49.251.248.206,BBED892D-C09D-4ADA-ACBB-3D4FCEDE901C,1559011353,2019-05-28 10:42:33,1559011423,2019-05-28 10:43:43,1559011454,P_083670132bbd59c2-OTY3Xy0xMjY3MTU1MS0yMDAwLTI2MDAtMDUyOC0tMTdfMjU2NjY,http://pb.xyz.duunion.com/conv?tid=P_083670132bbd59c2-OTY3Xy0xMjY3MTU1MS0yMDAwLTI2MDAtMDUyOC0tMTdfMjU2NjY&adv_sectkn=55dea06a643eb8a2d267a735fe2683bd&adv_name=appier-api&payout=2.0,idfa_BBED892D-C09D-4ADA-ACBB-3D4FCEDE901C,ja
IAWJC7cXQtqKuBqWVzJcAA,doglobal_api,967_17_25666,install,2.0,125.175.98.31,D16CC653-A625-4AC8-82C0-66884D2E9F90,1559011510,2019-05-28 10:45:10,1559011571,2019-05-28 10:46:11,1559011601,P_4b6f33b587e8a072-OTY3Xy0xMjY3MTU1MS0yMDAwLTI2MDAtMDUyOC0tMTdfMjU2NjY,http://pb.xyz.duunion.com/conv?tid=P_4b6f33b587e8a072-OTY3Xy0xMjY3MTU1MS0yMDAwLTI2MDAtMDUyOC0tMTdfMjU2NjY&adv_sectkn=55dea06a643eb8a2d267a735fe2683bd&adv_name=appier-api&payout=2.0,idfa_D16CC653-A625-4AC8-82C0-66884D2E9F90,ja
IAWJC7cXQtqKuBqWVzJcAA,doglobal_api,967_17_25666,install,2.1,152.165.75.64,FF8765C5-AE23-44A0-B108-EA822674626A,1558922206,2019-05-27 09:56:46,1558922268,2019-05-27 09:57:48,1558922298,B_ac9a2680d60a8d00-OTY3Xy0xMjY3MTU1MS0yMTAwLTI3MzAtMDUyNy0tMTdfMjU2NjY,http://pb.xyz.duunion.com/conv?tid=B_ac9a2680d60a8d00-OTY3Xy0xMjY3MTU1MS0yMTAwLTI3MzAtMDUyNy0tMTdfMjU2NjY&adv_sectkn=55dea06a643eb8a2d267a735fe2683bd&adv_name=appier-api&payout=2.1,idfa_FF8765C5-AE23-44A0-B108-EA822674626A,ja
IAWJC7cXQtqKuBqWVzJcAA,doglobal_api,967_17_25666,install,2.0,121.113.128.174,D6CD64AF-08D4-41B8-AAA1-5EC02887B961,1559015302,2019-05-28 11:48:22,1559015357,2019-05-28 11:49:17,1559015387,P_81058b1f5ae940c7-OTY3Xy0xMjY3MTU1MS0yMDAwLTI2MDAtMDUyOC0tMTdfMjU2NjY,http://pb.xyz.duunion.com/conv?tid=P_81058b1f5ae940c7-OTY3Xy0xMjY3MTU1MS0yMDAwLTI2MDAtMDUyOC0tMTdfMjU2NjY&adv_sectkn=55dea06a643eb8a2d267a735fe2683bd&adv_name=appier-api&payout=2.0,idfa_D6CD64AF-08D4-41B8-AAA1-5EC02887B961,ja
IAWJC7cXQtqKuBqWVzJcAA,doglobal_api,967_17_25666,install,2.1,153.229.110.247,09C44D22-454D-48CB-BC5C-DA0143F7C212,1558922664,2019-05-27 10:04:24,1558922728,2019-05-27 10:05:28,1558922759,P_3f0bf9841f640f22-OTY3Xy0xMjY3MTU1MS0yMTAwLTI3MzAtMDUyNy0tMTdfMjU2NjY,http://pb.xyz.duunion.com/conv?tid=P_3f0bf9841f640f22-OTY3Xy0xMjY3MTU1MS0yMTAwLTI3MzAtMDUyNy0tMTdfMjU2NjY&adv_sectkn=55dea06a643eb8a2d267a735fe2683bd&adv_name=appier-api&payout=2.1,idfa_09C44D22-454D-48CB-BC5C-DA0143F7C212,ja
IAWJC7cXQtqKuBqWVzJcAA,doglobal_api,967_17_25666,install,2.0,128.53.230.199,DB202512-DE3C-475F-9FAD-B35C3B224816,1559019391,2019-05-28 12:56:31,1559019462,2019-05-28 12:57:42,1559019492,P_0ba632a2b1d88277-OTY3Xy0xMjY3MTU1MS0yMDAwLTI2MDAtMDUyOC0tMTdfMjU2NjY,http://pb.xyz.duunion.com/conv?tid=P_0ba632a2b1d88277-OTY3Xy0xMjY3MTU1MS0yMDAwLTI2MDAtMDUyOC0tMTdfMjU2NjY&adv_sectkn=55dea06a643eb8a2d267a735fe2683bd&adv_name=appier-api&payout=2.0,idfa_DB202512-DE3C-475F-9FAD-B35C3B224816,ja
IAWJC7cXQtqKuBqWVzJcAA,doglobal_api,967_17_25666,install,2.1,119.245.195.104,C40842B4-C764-43F2-B59D-FA6C0205BCA0,1558922239,2019-05-27 09:57:19,1558922303,2019-05-27 09:58:23,1558922333,P_7ec119c61a89dbee-OTY3Xy0xMjY3MTU1MS0yMTAwLTI3MzAtMDUyNy0tMTdfMjU2NjY,http://pb.xyz.duunion.com/conv?tid=P_7ec119c61a89dbee-OTY3Xy0xMjY3MTU1MS0yMTAwLTI3MzAtMDUyNy0tMTdfMjU2NjY&adv_sectkn=55dea06a643eb8a2d267a735fe2683bd&adv_name=appier-api&payout=2.1,idfa_C40842B4-C764-43F2-B59D-FA6C0205BCA0,ja
IAWJC7cXQtqKuBqWVzJcAA,doglobal_api,967_17_25666,install,2.1,110.66.91.121,07D9BB7F-BD32-44C1-A65C-B31BE70CE50F,1558919993,2019-05-27 09:19:53,1558920064,2019-05-27 09:21:04,1558920094,B_d3a3722b24a30082-OTY3Xy0xMjY3MTU1MS0yMTAwLTI3MzAtMDUyNy0tMTdfMjU2NjY,http://pb.xyz.duunion.com/conv?tid=B_d3a3722b24a30082-OTY3Xy0xMjY3MTU1MS0yMTAwLTI3MzAtMDUyNy0tMTdfMjU2NjY&adv_sectkn=55dea06a643eb8a2d267a735fe2683bd&adv_name=appier-api&payout=2.1,idfa_07D9BB7F-BD32-44C1-A65C-B31BE70CE50F,ja
IAWJC7cXQtqKuBqWVzJcAA,doglobal_api,967_17_25666,install,2.0,153.142.206.87,4EF530CD-BFA7-496D-93B2-BFF8AE77757B,1559011439,2019-05-28 10:43:59,1559011524,2019-05-28 10:45:24,1559011554,B_0257ee6f53e2453a-OTY3Xy0xMjY3MTU1MS0yMDAwLTI2MDAtMDUyOC0tMTdfMjU2NjY,http://pb.xyz.duunion.com/conv?tid=B_0257ee6f53e2453a-OTY3Xy0xMjY3MTU1MS0yMDAwLTI2MDAtMDUyOC0tMTdfMjU2NjY&adv_sectkn=55dea06a643eb8a2d267a735fe2683bd&adv_name=appier-api&payout=2.0,idfa_4EF530CD-BFA7-496D-93B2-BFF8AE77757B,ja
IAWJC7cXQtqKuBqWVzJcAA,doglobal_api,967_17_25666,install,2.0,121.86.151.222,61FF4743-843C-4D62-B6BF-98F72D72FB71,1559019230,2019-05-28 12:53:50,1559019297,2019-05-28 12:54:57,1559019329,B_305e07aa2343fc53-OTY3Xy0xMjY3MTU1MS0yMDAwLTI2MDAtMDUyOC0tMTdfMjU2NjY,http://pb.xyz.duunion.com/conv?tid=B_305e07aa2343fc53-OTY3Xy0xMjY3MTU1MS0yMDAwLTI2MDAtMDUyOC0tMTdfMjU2NjY&adv_sectkn=55dea06a643eb8a2d267a735fe2683bd&adv_name=appier-api&payout=2.0,idfa_61FF4743-843C-4D62-B6BF-98F72D72FB71,ja
IAWJC7cXQtqKuBqWVzJcAA,doglobal_api,967_17_25666,install,2.0,126.110.51.153,3D1C8067-580D-4DF3-8FC7-9EEC58F2A9A0,1559019131,2019-05-28 12:52:11,1559019192,2019-05-28 12:53:12,1559019222,P_fe3dd30b45d7a068-OTY3Xy0xMjY3MTU1MS0yMDAwLTI2MDAtMDUyOC0tMTdfMjU2NjY,http://pb.xyz.duunion.com/conv?tid=P_fe3dd30b45d7a068-OTY3Xy0xMjY3MTU1MS0yMDAwLTI2MDAtMDUyOC0tMTdfMjU2NjY&adv_sectkn=55dea06a643eb8a2d267a735fe2683bd&adv_name=appier-api&payout=2.0,idfa_3D1C8067-580D-4DF3-8FC7-9EEC58F2A9A0,ja
IAWJC7cXQtqKuBqWVzJcAA,doglobal_api,967_17_25666,install,2.0,126.151.68.91,A27C75FD-9AD3-4CBF-92DD-64BFD442F46B,1559011276,2019-05-28 10:41:16,1559011344,2019-05-28 10:42:24,1559011374,B_0c306b5021217a02-OTY3Xy0xMjY3MTU1MS0yMDAwLTI2MDAtMDUyOC0tMTdfMjU2NjY,http://pb.xyz.duunion.com/conv?tid=B_0c306b5021217a02-OTY3Xy0xMjY3MTU1MS0yMDAwLTI2MDAtMDUyOC0tMTdfMjU2NjY&adv_sectkn=55dea06a643eb8a2d267a735fe2683bd&adv_name=appier-api&payout=2.0,idfa_A27C75FD-9AD3-4CBF-92DD-64BFD442F46B,ja
IAWJC7cXQtqKuBqWVzJcAA,doglobal_api,967_17_25666,install,2.1,126.0.236.158,DBCCAA63-4CFA-4A37-AAFA-09DD2C8398EA,1558922701,2019-05-27 10:05:01,1558922769,2019-05-27 10:06:09,1558922799,P_fcc740278f09ce86-OTY3Xy0xMjY3MTU1MS0yMTAwLTI3MzAtMDUyNy0tMTdfMjU2NjY,http://pb.xyz.duunion.com/conv?tid=P_fcc740278f09ce86-OTY3Xy0xMjY3MTU1MS0yMTAwLTI3MzAtMDUyNy0tMTdfMjU2NjY&adv_sectkn=55dea06a643eb8a2d267a735fe2683bd&adv_name=appier-api&payout=2.1,idfa_DBCCAA63-4CFA-4A37-AAFA-09DD2C8398EA,ja
IAWJC7cXQtqKuBqWVzJcAA,doglobal_api,967_17_25666,install,2.1,119.229.169.108,F966C987-D4B1-4A2A-9AF6-9FCF9C1758EE,1558922311,2019-05-27 09:58:31,1558922387,2019-05-27 09:59:47,1558922417,P_897ad811671a8471-OTY3Xy0xMjY3MTU1MS0yMTAwLTI3MzAtMDUyNy0tMTdfMjU2NjY,http://pb.xyz.duunion.com/conv?tid=P_897ad811671a8471-OTY3Xy0xMjY3MTU1MS0yMTAwLTI3MzAtMDUyNy0tMTdfMjU2NjY&adv_sectkn=55dea06a643eb8a2d267a735fe2683bd&adv_name=appier-api&payout=2.1,idfa_F966C987-D4B1-4A2A-9AF6-9FCF9C1758EE,ja
IAWJC7cXQtqKuBqWVzJcAA,doglobal_api,967_17_25666,install,2.0,125.201.57.81,09CA88F6-8668-411A-9C60-D8BED17B21F5,1559014560,2019-05-28 11:36:00,1559014620,2019-05-28 11:37:00,1559014650,B_38583409582bb56f-OTY3Xy0xMjY3MTU1MS0yMDAwLTI2MDAtMDUyOC0tMTdfMjU2NjY,http://pb.xyz.duunion.com/conv?tid=B_38583409582bb56f-OTY3Xy0xMjY3MTU1MS0yMDAwLTI2MDAtMDUyOC0tMTdfMjU2NjY&adv_sectkn=55dea06a643eb8a2d267a735fe2683bd&adv_name=appier-api&payout=2.0,idfa_09CA88F6-8668-411A-9C60-D8BED17B21F5,ja
IAWJC7cXQtqKuBqWVzJcAA,doglobal_api,967_17_25666,install,2.0,126.151.68.91,4AB6262E-E173-4749-9E9B-12CC64B2CBEF,1559011095,2019-05-28 10:38:15,1559011181,2019-05-28 10:39:41,1559011211,B_4bb10bf6f0008fdf-OTY3Xy0xMjY3MTU1MS0yMDAwLTI2MDAtMDUyOC0tMTdfMjU2NjY,http://pb.xyz.duunion.com/conv?tid=B_4bb10bf6f0008fdf-OTY3Xy0xMjY3MTU1MS0yMDAwLTI2MDAtMDUyOC0tMTdfMjU2NjY&adv_sectkn=55dea06a643eb8a2d267a735fe2683bd&adv_name=appier-api&payout=2.0,idfa_4AB6262E-E173-4749-9E9B-12CC64B2CBEF,ja
IAWJC7cXQtqKuBqWVzJcAA,doglobal_api,967_17_25666,install,2.0,60.135.177.116,92F9694E-F40B-49E1-B156-D25B3B2CB08B,1559019179,2019-05-28 12:52:59,1559019239,2019-05-28 12:53:59,1559019269,B_5b80f61efb95e0c0-OTY3Xy0xMjY3MTU1MS0yMDAwLTI2MDAtMDUyOC0tMTdfMjU2NjY,http://pb.xyz.duunion.com/conv?tid=B_5b80f61efb95e0c0-OTY3Xy0xMjY3MTU1MS0yMDAwLTI2MDAtMDUyOC0tMTdfMjU2NjY&adv_sectkn=55dea06a643eb8a2d267a735fe2683bd&adv_name=appier-api&payout=2.0,idfa_92F9694E-F40B-49E1-B156-D25B3B2CB08B,ja
IAWJC7cXQtqKuBqWVzJcAA,doglobal_api,967_17_25666,install,2.0,49.251.248.206,284ED4D8-940E-438F-B701-88D55094B001,1559011751,2019-05-28 10:49:11,1559011814,2019-05-28 10:50:14,1559011845,B_b9dc3634b773c365-OTY3Xy0xMjY3MTU1MS0yMDAwLTI2MDAtMDUyOC0tMTdfMjU2NjY,http://pb.xyz.duunion.com/conv?tid=B_b9dc3634b773c365-OTY3Xy0xMjY3MTU1MS0yMDAwLTI2MDAtMDUyOC0tMTdfMjU2NjY&adv_sectkn=55dea06a643eb8a2d267a735fe2683bd&adv_name=appier-api&payout=2.0,idfa_284ED4D8-940E-438F-B701-88D55094B001,ja
IAWJC7cXQtqKuBqWVzJcAA,doglobal_api,967_17_25666,install,2.1,211.129.107.95,72ECE84C-98FA-4D70-A45F-EAD91C8409A7,1558921167,2019-05-27 09:39:27,1558921236,2019-05-27 09:40:36,1558921266,B_ab837ea17b53e934-OTY3Xy0xMjY3MTU1MS0yMTAwLTI3MzAtMDUyNy0tMTdfMjU2NjY,http://pb.xyz.duunion.com/conv?tid=B_ab837ea17b53e934-OTY3Xy0xMjY3MTU1MS0yMTAwLTI3MzAtMDUyNy0tMTdfMjU2NjY&adv_sectkn=55dea06a643eb8a2d267a735fe2683bd&adv_name=appier-api&payout=2.1,idfa_72ECE84C-98FA-4D70-A45F-EAD91C8409A7,ja
IAWJC7cXQtqKuBqWVzJcAA,doglobal_api,967_17_25666,install,2.0,114.176.36.149,66434D2A-9221-46C3-BD70-5516DC41D365,1559011090,2019-05-28 10:38:10,1559011162,2019-05-28 10:39:22,1559011192,P_aba79a8fd2d6a04f-OTY3Xy0xMjY3MTU1MS0yMDAwLTI2MDAtMDUyOC0tMTdfMjU2NjY,http://pb.xyz.duunion.com/conv?tid=P_aba79a8fd2d6a04f-OTY3Xy0xMjY3MTU1MS0yMDAwLTI2MDAtMDUyOC0tMTdfMjU2NjY&adv_sectkn=55dea06a643eb8a2d267a735fe2683bd&adv_name=appier-api&payout=2.0,idfa_66434D2A-9221-46C3-BD70-5516DC41D365,ja
IAWJC7cXQtqKuBqWVzJcAA,doglobal_api,967_17_25666,install,2.1,114.142.6.214,C5877972-2D01-4CB8-AF23-AA246DC5E96C,1558922712,2019-05-27 10:05:12,1558922781,2019-05-27 10:06:21,1558922811,P_0cf349959f743c6d-OTY3Xy0xMjY3MTU1MS0yMTAwLTI3MzAtMDUyNy0tMTdfMjU2NjY,http://pb.xyz.duunion.com/conv?tid=P_0cf349959f743c6d-OTY3Xy0xMjY3MTU1MS0yMTAwLTI3MzAtMDUyNy0tMTdfMjU2NjY&adv_sectkn=55dea06a643eb8a2d267a735fe2683bd&adv_name=appier-api&payout=2.1,idfa_C5877972-2D01-4CB8-AF23-AA246DC5E96C,ja
IAWJC7cXQtqKuBqWVzJcAA,doglobal_api,967_17_25666,install,2.1,153.209.166.98,A22C2C22-9850-4765-8FB8-4044E5F122A8,1558921791,2019-05-27 09:49:51,1558921852,2019-05-27 09:50:52,1558921882,B_bc824b343a61eb43-OTY3Xy0xMjY3MTU1MS0yMTAwLTI3MzAtMDUyNy0tMTdfMjU2NjY,http://pb.xyz.duunion.com/conv?tid=B_bc824b343a61eb43-OTY3Xy0xMjY3MTU1MS0yMTAwLTI3MzAtMDUyNy0tMTdfMjU2NjY&adv_sectkn=55dea06a643eb8a2d267a735fe2683bd&adv_name=appier-api&payout=2.1,idfa_A22C2C22-9850-4765-8FB8-4044E5F122A8,ja
