cid,partner_id,channel_id,action_id,cpi,ip,idfa,click time,click datetime,install time,install datetime,postback time,click id,postback url,unique user id
uSoqDPNBQ3KMU09tBdzgGQ,doglobal_api,967_147_95,Install,0.9,220.89.135.7,870260DA-52F0-4E0B-8FF2-395042945DD3,1558586857,2019-05-23 12:47:37,1558586942,2019-05-23 12:49:02,1558586949,P_1881f2d46ed34947-OTY3Xy0xMjQ5MzMzMy05MDAtMTE3MC0wNTIzLS0xNDdfOTU,http://pb.xyz.duunion.com/conv?tid=P_1881f2d46ed34947-OTY3Xy0xMjQ5MzMzMy05MDAtMTE3MC0wNTIzLS0xNDdfOTU&adv_sectkn=55dea06a643eb8a2d267a735fe2683bd&adv_name=appier-api&payout=0.9,idfa_870260DA-52F0-4E0B-8FF2-395042945DD3,ko
uSoqDPNBQ3KMU09tBdzgGQ,doglobal_api,967_147_95,Install,0.9,113.10.42.126,9EC0EF36-1AF4-4492-A2D6-CE97340F10A4,1558585734,2019-05-23 12:28:54,1558585807,2019-05-23 12:30:07,1558585817,B_1ed83655c367f2a0-OTY3Xy0xMjQ5MzMzMy05MDAtMTE3MC0wNTIzLS0xNDdfOTU,http://pb.xyz.duunion.com/conv?tid=B_1ed83655c367f2a0-OTY3Xy0xMjQ5MzMzMy05MDAtMTE3MC0wNTIzLS0xNDdfOTU&adv_sectkn=55dea06a643eb8a2d267a735fe2683bd&adv_name=appier-api&payout=0.9,idfa_9EC0EF36-1AF4-4492-A2D6-CE97340F10A4,ko
uSoqDPNBQ3KMU09tBdzgGQ,doglobal_api,967_147_95,Install,0.9,220.83.54.195,980C2033-871F-4CAE-9CE2-A8FD2400469C,1558582945,2019-05-23 11:42:25,1558582972,2019-05-23 11:42:52,1558582979,P_44d8ca4c253b68f8-OTY3Xy0xMjQ5MzMzMy05MDAtMTE3MC0wNTIzLS0xNDdfOTU,http://pb.xyz.duunion.com/conv?tid=P_44d8ca4c253b68f8-OTY3Xy0xMjQ5MzMzMy05MDAtMTE3MC0wNTIzLS0xNDdfOTU&adv_sectkn=55dea06a643eb8a2d267a735fe2683bd&adv_name=appier-api&payout=0.9,idfa_980C2033-871F-4CAE-9CE2-A8FD2400469C,ko
uSoqDPNBQ3KMU09tBdzgGQ,doglobal_api,967_147_95,Install,0.9,221.146.28.219,C1D9ACA8-375F-4C29-B5B1-ED895E6A6E54,1558586434,2019-05-23 12:40:34,1558586522,2019-05-23 12:42:02,1558586528,B_f8f9b720a2e3eacd-OTY3Xy0xMjQ5MzMzMy05MDAtMTE3MC0wNTIzLS0xNDdfOTU,http://pb.xyz.duunion.com/conv?tid=B_f8f9b720a2e3eacd-OTY3Xy0xMjQ5MzMzMy05MDAtMTE3MC0wNTIzLS0xNDdfOTU&adv_sectkn=55dea06a643eb8a2d267a735fe2683bd&adv_name=appier-api&payout=0.9,idfa_C1D9ACA8-375F-4C29-B5B1-ED895E6A6E54,ko
uSoqDPNBQ3KMU09tBdzgGQ,doglobal_api,967_147_95,Install,0.9,220.116.230.50,4C010FF7-483B-43FA-B0DF-4B01B03A037D,1558586317,2019-05-23 12:38:37,1558586393,2019-05-23 12:39:53,1558586399,P_6193d82ca7023f0c-OTY3Xy0xMjQ5MzMzMy05MDAtMTE3MC0wNTIzLS0xNDdfOTU,http://pb.xyz.duunion.com/conv?tid=P_6193d82ca7023f0c-OTY3Xy0xMjQ5MzMzMy05MDAtMTE3MC0wNTIzLS0xNDdfOTU&adv_sectkn=55dea06a643eb8a2d267a735fe2683bd&adv_name=appier-api&payout=0.9,idfa_4C010FF7-483B-43FA-B0DF-4B01B03A037D,ko
uSoqDPNBQ3KMU09tBdzgGQ,doglobal_api,967_147_95,Install,0.9,118.42.115.142,C465349F-5E3E-4467-A4C1-7047AD428F86,1558585600,2019-05-23 12:26:40,1558585676,2019-05-23 12:27:56,1558585683,B_54b08a9bfa78aa37-OTY3Xy0xMjQ5MzMzMy05MDAtMTE3MC0wNTIzLS0xNDdfOTU,http://pb.xyz.duunion.com/conv?tid=B_54b08a9bfa78aa37-OTY3Xy0xMjQ5MzMzMy05MDAtMTE3MC0wNTIzLS0xNDdfOTU&adv_sectkn=55dea06a643eb8a2d267a735fe2683bd&adv_name=appier-api&payout=0.9,idfa_C465349F-5E3E-4467-A4C1-7047AD428F86,ko
uSoqDPNBQ3KMU09tBdzgGQ,doglobal_api,967_147_95,Install,0.9,220.116.230.50,20FD0CB7-B430-4FCC-A98D-549BC55FC3B5,1558587462,2019-05-23 12:57:42,1558587478,2019-05-23 12:57:58,1558587487,P_7a2922a1ab1de8e5-OTY3Xy0xMjQ5MzMzMy05MDAtMTE3MC0wNTIzLS0xNDdfOTU,http://pb.xyz.duunion.com/conv?tid=P_7a2922a1ab1de8e5-OTY3Xy0xMjQ5MzMzMy05MDAtMTE3MC0wNTIzLS0xNDdfOTU&adv_sectkn=55dea06a643eb8a2d267a735fe2683bd&adv_name=appier-api&payout=0.9,idfa_20FD0CB7-B430-4FCC-A98D-549BC55FC3B5,ko
uSoqDPNBQ3KMU09tBdzgGQ,doglobal_api,967_147_95,Install,0.9,121.140.69.73,45BFB3FE-83DA-4B35-97C2-611E570CE661,1558585479,2019-05-23 12:24:39,1558585556,2019-05-23 12:25:56,1558585564,P_cb2e324ae35aad1f-OTY3Xy0xMjQ5MzMzMy05MDAtMTE3MC0wNTIzLS0xNDdfOTU,http://pb.xyz.duunion.com/conv?tid=P_cb2e324ae35aad1f-OTY3Xy0xMjQ5MzMzMy05MDAtMTE3MC0wNTIzLS0xNDdfOTU&adv_sectkn=55dea06a643eb8a2d267a735fe2683bd&adv_name=appier-api&payout=0.9,idfa_45BFB3FE-83DA-4B35-97C2-611E570CE661,ko
uSoqDPNBQ3KMU09tBdzgGQ,doglobal_api,967_147_95,Install,0.9,119.204.177.120,6431190B-4164-4F30-B5EC-8B52E749D718,1558583360,2019-05-23 11:49:20,1558583389,2019-05-23 11:49:49,1558583401,P_6ae5082f89389c26-OTY3Xy0xMjQ5MzMzMy05MDAtMTE3MC0wNTIzLS0xNDdfOTU,http://pb.xyz.duunion.com/conv?tid=P_6ae5082f89389c26-OTY3Xy0xMjQ5MzMzMy05MDAtMTE3MC0wNTIzLS0xNDdfOTU&adv_sectkn=55dea06a643eb8a2d267a735fe2683bd&adv_name=appier-api&payout=0.9,idfa_6431190B-4164-4F30-B5EC-8B52E749D718,ko
uSoqDPNBQ3KMU09tBdzgGQ,doglobal_api,967_147_95,Install,0.9,222.121.170.21,F2168668-2D51-4EA7-9C35-F536D8091E34,1558582902,2019-05-23 11:41:42,1558582992,2019-05-23 11:43:12,1558583001,B_3a4c6d8b0b504af5-OTY3Xy0xMjQ5MzMzMy05MDAtMTE3MC0wNTIzLS0xNDdfOTU,http://pb.xyz.duunion.com/conv?tid=B_3a4c6d8b0b504af5-OTY3Xy0xMjQ5MzMzMy05MDAtMTE3MC0wNTIzLS0xNDdfOTU&adv_sectkn=55dea06a643eb8a2d267a735fe2683bd&adv_name=appier-api&payout=0.9,idfa_F2168668-2D51-4EA7-9C35-F536D8091E34,ko
uSoqDPNBQ3KMU09tBdzgGQ,doglobal_api,967_147_95,Install,0.9,220.83.54.195,A08490FE-8980-412A-9C88-CE9DB0F75A0A,1558583797,2019-05-23 11:56:37,1558583819,2019-05-23 11:56:59,1558583831,P_b043854cecafb6c9-OTY3Xy0xMjQ5MzMzMy05MDAtMTE3MC0wNTIzLS0xNDdfOTU,http://pb.xyz.duunion.com/conv?tid=P_b043854cecafb6c9-OTY3Xy0xMjQ5MzMzMy05MDAtMTE3MC0wNTIzLS0xNDdfOTU&adv_sectkn=55dea06a643eb8a2d267a735fe2683bd&adv_name=appier-api&payout=0.9,idfa_A08490FE-8980-412A-9C88-CE9DB0F75A0A,ko
uSoqDPNBQ3KMU09tBdzgGQ,doglobal_api,967_147_95,Install,0.9,220.76.138.57,85F724EE-DBFA-4552-BDC3-D0666836B751,1558585637,2019-05-23 12:27:17,1558585695,2019-05-23 12:28:15,1558585703,P_1afce0439da9e620-OTY3Xy0xMjQ5MzMzMy05MDAtMTE3MC0wNTIzLS0xNDdfOTU,http://pb.xyz.duunion.com/conv?tid=P_1afce0439da9e620-OTY3Xy0xMjQ5MzMzMy05MDAtMTE3MC0wNTIzLS0xNDdfOTU&adv_sectkn=55dea06a643eb8a2d267a735fe2683bd&adv_name=appier-api&payout=0.9,idfa_85F724EE-DBFA-4552-BDC3-D0666836B751,ko
uSoqDPNBQ3KMU09tBdzgGQ,doglobal_api,967_147_95,Install,0.9,27.116.255.153,91B269A0-1DA8-412C-B1F1-F516DCFA5191,1558585602,2019-05-23 12:26:42,1558585622,2019-05-23 12:27:02,1558585628,P_4faec51af8f39f85-OTY3Xy0xMjQ5MzMzMy05MDAtMTE3MC0wNTIzLS0xNDdfOTU,http://pb.xyz.duunion.com/conv?tid=P_4faec51af8f39f85-OTY3Xy0xMjQ5MzMzMy05MDAtMTE3MC0wNTIzLS0xNDdfOTU&adv_sectkn=55dea06a643eb8a2d267a735fe2683bd&adv_name=appier-api&payout=0.9,idfa_91B269A0-1DA8-412C-B1F1-F516DCFA5191,ko
uSoqDPNBQ3KMU09tBdzgGQ,doglobal_api,967_147_95,Install,0.9,118.44.169.247,E7C68811-FB24-4C86-AE01-6B1CF5778399,1558585981,2019-05-23 12:33:01,1558586039,2019-05-23 12:33:59,1558586046,B_1a8d20cff66e43c8-OTY3Xy0xMjQ5MzMzMy05MDAtMTE3MC0wNTIzLS0xNDdfOTU,http://pb.xyz.duunion.com/conv?tid=B_1a8d20cff66e43c8-OTY3Xy0xMjQ5MzMzMy05MDAtMTE3MC0wNTIzLS0xNDdfOTU&adv_sectkn=55dea06a643eb8a2d267a735fe2683bd&adv_name=appier-api&payout=0.9,idfa_E7C68811-FB24-4C86-AE01-6B1CF5778399,ko
uSoqDPNBQ3KMU09tBdzgGQ,doglobal_api,967_147_95,Install,0.9,183.98.75.48,E3FEB908-47B5-42FC-9FBF-156A03D0150F,1558583460,2019-05-23 11:51:00,1558583495,2019-05-23 11:51:35,1558583503,P_d57d9b4f0e651535-OTY3Xy0xMjQ5MzMzMy05MDAtMTE3MC0wNTIzLS0xNDdfOTU,http://pb.xyz.duunion.com/conv?tid=P_d57d9b4f0e651535-OTY3Xy0xMjQ5MzMzMy05MDAtMTE3MC0wNTIzLS0xNDdfOTU&adv_sectkn=55dea06a643eb8a2d267a735fe2683bd&adv_name=appier-api&payout=0.9,idfa_E3FEB908-47B5-42FC-9FBF-156A03D0150F,ko
uSoqDPNBQ3KMU09tBdzgGQ,doglobal_api,967_147_95,Install,0.9,221.166.217.25,C1ED04F0-A250-4783-A99C-2FB59F240058,1558583946,2019-05-23 11:59:06,1558583958,2019-05-23 11:59:18,1558583964,P_014457b14069a5da-OTY3Xy0xMjQ5MzMzMy05MDAtMTE3MC0wNTIzLS0xNDdfOTU,http://pb.xyz.duunion.com/conv?tid=P_014457b14069a5da-OTY3Xy0xMjQ5MzMzMy05MDAtMTE3MC0wNTIzLS0xNDdfOTU&adv_sectkn=55dea06a643eb8a2d267a735fe2683bd&adv_name=appier-api&payout=0.9,idfa_C1ED04F0-A250-4783-A99C-2FB59F240058,ko
uSoqDPNBQ3KMU09tBdzgGQ,doglobal_api,967_147_95,Install,0.9,121.153.74.28,0DB40429-17A9-405B-B5BA-211D1C2AD22E,1558586868,2019-05-23 12:47:48,1558586905,2019-05-23 12:48:25,1558586911,B_a8d8d2baf7573975-OTY3Xy0xMjQ5MzMzMy05MDAtMTE3MC0wNTIzLS0xNDdfOTU,http://pb.xyz.duunion.com/conv?tid=B_a8d8d2baf7573975-OTY3Xy0xMjQ5MzMzMy05MDAtMTE3MC0wNTIzLS0xNDdfOTU&adv_sectkn=55dea06a643eb8a2d267a735fe2683bd&adv_name=appier-api&payout=0.9,idfa_0DB40429-17A9-405B-B5BA-211D1C2AD22E,ko
uSoqDPNBQ3KMU09tBdzgGQ,doglobal_api,967_147_95,Install,0.9,183.98.75.48,448199E3-F2B6-49EB-ADA0-87FAFA8C4DA8,1558585996,2019-05-23 12:33:16,1558586048,2019-05-23 12:34:08,1558586054,B_3c013615a90bcd61-OTY3Xy0xMjQ5MzMzMy05MDAtMTE3MC0wNTIzLS0xNDdfOTU,http://pb.xyz.duunion.com/conv?tid=B_3c013615a90bcd61-OTY3Xy0xMjQ5MzMzMy05MDAtMTE3MC0wNTIzLS0xNDdfOTU&adv_sectkn=55dea06a643eb8a2d267a735fe2683bd&adv_name=appier-api&payout=0.9,idfa_448199E3-F2B6-49EB-ADA0-87FAFA8C4DA8,ko
uSoqDPNBQ3KMU09tBdzgGQ,doglobal_api,967_147_95,Install,0.9,106.249.135.226,1A55345F-0ABF-4F68-ADF0-DDF54767BFE4,1558583842,2019-05-23 11:57:22,1558583868,2019-05-23 11:57:48,1558583874,B_11d5f732f0f0c91c-OTY3Xy0xMjQ5MzMzMy05MDAtMTE3MC0wNTIzLS0xNDdfOTU,http://pb.xyz.duunion.com/conv?tid=B_11d5f732f0f0c91c-OTY3Xy0xMjQ5MzMzMy05MDAtMTE3MC0wNTIzLS0xNDdfOTU&adv_sectkn=55dea06a643eb8a2d267a735fe2683bd&adv_name=appier-api&payout=0.9,idfa_1A55345F-0ABF-4F68-ADF0-DDF54767BFE4,ko
uSoqDPNBQ3KMU09tBdzgGQ,doglobal_api,967_147_95,Install,0.9,220.116.230.50,8DFFB973-719A-4636-BED0-36785C46F213,1558587200,2019-05-23 12:53:20,1558587215,2019-05-23 12:53:35,1558587226,P_4d184591367e183c-OTY3Xy0xMjQ5MzMzMy05MDAtMTE3MC0wNTIzLS0xNDdfOTU,http://pb.xyz.duunion.com/conv?tid=P_4d184591367e183c-OTY3Xy0xMjQ5MzMzMy05MDAtMTE3MC0wNTIzLS0xNDdfOTU&adv_sectkn=55dea06a643eb8a2d267a735fe2683bd&adv_name=appier-api&payout=0.9,idfa_8DFFB973-719A-4636-BED0-36785C46F213,ko
uSoqDPNBQ3KMU09tBdzgGQ,doglobal_api,967_147_95,Install,0.9,112.221.173.170,04D926E2-7526-4650-92CA-FABC9BC64309,1558583323,2019-05-23 11:48:43,1558583410,2019-05-23 11:50:10,1558583420,P_040aa0af212c7101-OTY3Xy0xMjQ5MzMzMy05MDAtMTE3MC0wNTIzLS0xNDdfOTU,http://pb.xyz.duunion.com/conv?tid=P_040aa0af212c7101-OTY3Xy0xMjQ5MzMzMy05MDAtMTE3MC0wNTIzLS0xNDdfOTU&adv_sectkn=55dea06a643eb8a2d267a735fe2683bd&adv_name=appier-api&payout=0.9,idfa_04D926E2-7526-4650-92CA-FABC9BC64309,ko
uSoqDPNBQ3KMU09tBdzgGQ,doglobal_api,967_147_95,Install,0.9,220.116.230.50,291EF407-BCB9-458A-9DF3-2F51D8B90177,1558586034,2019-05-23 12:33:54,1558586120,2019-05-23 12:35:20,1558586127,P_250c985d100f9142-OTY3Xy0xMjQ5MzMzMy05MDAtMTE3MC0wNTIzLS0xNDdfOTU,http://pb.xyz.duunion.com/conv?tid=P_250c985d100f9142-OTY3Xy0xMjQ5MzMzMy05MDAtMTE3MC0wNTIzLS0xNDdfOTU&adv_sectkn=55dea06a643eb8a2d267a735fe2683bd&adv_name=appier-api&payout=0.9,idfa_291EF407-BCB9-458A-9DF3-2F51D8B90177,ko
uSoqDPNBQ3KMU09tBdzgGQ,doglobal_api,967_147_95,Install,0.9,218.144.17.223,4696D731-9A82-448F-908E-C0E747FA72DF,1558585896,2019-05-23 12:31:36,1558585980,2019-05-23 12:33:00,1558585988,B_bc8f611a567a6467-OTY3Xy0xMjQ5MzMzMy05MDAtMTE3MC0wNTIzLS0xNDdfOTU,http://pb.xyz.duunion.com/conv?tid=B_bc8f611a567a6467-OTY3Xy0xMjQ5MzMzMy05MDAtMTE3MC0wNTIzLS0xNDdfOTU&adv_sectkn=55dea06a643eb8a2d267a735fe2683bd&adv_name=appier-api&payout=0.9,idfa_4696D731-9A82-448F-908E-C0E747FA72DF,ko
uSoqDPNBQ3KMU09tBdzgGQ,doglobal_api,967_147_95,Install,0.9,222.108.143.193,BC8B6F12-32C4-4A5B-A60E-F8091A39B921,1558585312,2019-05-23 12:21:52,1558585397,2019-05-23 12:23:17,1558585404,P_cbf9dfd0c82430b7-OTY3Xy0xMjQ5MzMzMy05MDAtMTE3MC0wNTIzLS0xNDdfOTU,http://pb.xyz.duunion.com/conv?tid=P_cbf9dfd0c82430b7-OTY3Xy0xMjQ5MzMzMy05MDAtMTE3MC0wNTIzLS0xNDdfOTU&adv_sectkn=55dea06a643eb8a2d267a735fe2683bd&adv_name=appier-api&payout=0.9,idfa_BC8B6F12-32C4-4A5B-A60E-F8091A39B921,ko
uSoqDPNBQ3KMU09tBdzgGQ,doglobal_api,967_147_95,Install,0.9,211.228.181.37,942FB333-23A2-4B4B-A539-1382D7E7650C,1558584543,2019-05-23 12:09:03,1558584602,2019-05-23 12:10:02,1558584609,P_5324b7d4161a54c8-OTY3Xy0xMjQ5MzMzMy05MDAtMTE3MC0wNTIzLS0xNDdfOTU,http://pb.xyz.duunion.com/conv?tid=P_5324b7d4161a54c8-OTY3Xy0xMjQ5MzMzMy05MDAtMTE3MC0wNTIzLS0xNDdfOTU&adv_sectkn=55dea06a643eb8a2d267a735fe2683bd&adv_name=appier-api&payout=0.9,idfa_942FB333-23A2-4B4B-A539-1382D7E7650C,ko
uSoqDPNBQ3KMU09tBdzgGQ,doglobal_api,967_147_95,Install,0.9,211.54.74.50,1346D337-ED7E-4DD0-922A-E7D17836B5BA,1558586012,2019-05-23 12:33:32,1558586090,2019-05-23 12:34:50,1558586099,B_47d16d99c1072105-OTY3Xy0xMjQ5MzMzMy05MDAtMTE3MC0wNTIzLS0xNDdfOTU,http://pb.xyz.duunion.com/conv?tid=B_47d16d99c1072105-OTY3Xy0xMjQ5MzMzMy05MDAtMTE3MC0wNTIzLS0xNDdfOTU&adv_sectkn=55dea06a643eb8a2d267a735fe2683bd&adv_name=appier-api&payout=0.9,idfa_1346D337-ED7E-4DD0-922A-E7D17836B5BA,ko
uSoqDPNBQ3KMU09tBdzgGQ,doglobal_api,967_147_95,Install,0.9,220.76.138.57,43F16771-1014-4BD1-86CF-BD36AF4270F0,1558586570,2019-05-23 12:42:50,1558586653,2019-05-23 12:44:13,1558586662,P_8ae2f5a6a49b3b33-OTY3Xy0xMjQ5MzMzMy05MDAtMTE3MC0wNTIzLS0xNDdfOTU,http://pb.xyz.duunion.com/conv?tid=P_8ae2f5a6a49b3b33-OTY3Xy0xMjQ5MzMzMy05MDAtMTE3MC0wNTIzLS0xNDdfOTU&adv_sectkn=55dea06a643eb8a2d267a735fe2683bd&adv_name=appier-api&payout=0.9,idfa_43F16771-1014-4BD1-86CF-BD36AF4270F0,ko
uSoqDPNBQ3KMU09tBdzgGQ,doglobal_api,967_147_95,Install,0.9,121.183.126.103,2D8E73A0-B646-4040-B9CA-3F0C199679C5,1558586754,2019-05-23 12:45:54,1558586803,2019-05-23 12:46:43,1558586810,P_7066ac0b25be5201-OTY3Xy0xMjQ5MzMzMy05MDAtMTE3MC0wNTIzLS0xNDdfOTU,http://pb.xyz.duunion.com/conv?tid=P_7066ac0b25be5201-OTY3Xy0xMjQ5MzMzMy05MDAtMTE3MC0wNTIzLS0xNDdfOTU&adv_sectkn=55dea06a643eb8a2d267a735fe2683bd&adv_name=appier-api&payout=0.9,idfa_2D8E73A0-B646-4040-B9CA-3F0C199679C5,ko
uSoqDPNBQ3KMU09tBdzgGQ,doglobal_api,967_147_95,Install,0.9,220.116.230.50,1AED2714-2D50-4490-890E-A843DDB5DB8F,1558586844,2019-05-23 12:47:24,1558586865,2019-05-23 12:47:45,1558586872,P_a64ebcbf0f762341-OTY3Xy0xMjQ5MzMzMy05MDAtMTE3MC0wNTIzLS0xNDdfOTU,http://pb.xyz.duunion.com/conv?tid=P_a64ebcbf0f762341-OTY3Xy0xMjQ5MzMzMy05MDAtMTE3MC0wNTIzLS0xNDdfOTU&adv_sectkn=55dea06a643eb8a2d267a735fe2683bd&adv_name=appier-api&payout=0.9,idfa_1AED2714-2D50-4490-890E-A843DDB5DB8F,ko
uSoqDPNBQ3KMU09tBdzgGQ,doglobal_api,967_147_95,Install,0.9,211.38.74.103,9472E17B-0DD3-4DE0-B19E-C51F91334321,1558585124,2019-05-23 12:18:44,1558585211,2019-05-23 12:20:11,1558585218,P_054091b3d6cb251e-OTY3Xy0xMjQ5MzMzMy05MDAtMTE3MC0wNTIzLS0xNDdfOTU,http://pb.xyz.duunion.com/conv?tid=P_054091b3d6cb251e-OTY3Xy0xMjQ5MzMzMy05MDAtMTE3MC0wNTIzLS0xNDdfOTU&adv_sectkn=55dea06a643eb8a2d267a735fe2683bd&adv_name=appier-api&payout=0.9,idfa_9472E17B-0DD3-4DE0-B19E-C51F91334321,ko
uSoqDPNBQ3KMU09tBdzgGQ,doglobal_api,967_147_95,Install,0.9,220.76.138.57,C7E3ED49-C166-4D10-B659-E18E900D3893,1558587510,2019-05-23 12:58:30,1558587559,2019-05-23 12:59:19,1558587571,B_8d6c35f40033c49e-OTY3Xy0xMjQ5MzMzMy05MDAtMTE3MC0wNTIzLS0xNDdfOTU,http://pb.xyz.duunion.com/conv?tid=B_8d6c35f40033c49e-OTY3Xy0xMjQ5MzMzMy05MDAtMTE3MC0wNTIzLS0xNDdfOTU&adv_sectkn=55dea06a643eb8a2d267a735fe2683bd&adv_name=appier-api&payout=0.9,idfa_C7E3ED49-C166-4D10-B659-E18E900D3893,ko
uSoqDPNBQ3KMU09tBdzgGQ,doglobal_api,967_147_95,Install,0.9,101.235.30.186,59B4B51D-101B-4975-B411-BA82300591A4,1558585215,2019-05-23 12:20:15,1558585293,2019-05-23 12:21:33,1558585301,P_806ec93cc97d82ec-OTY3Xy0xMjQ5MzMzMy05MDAtMTE3MC0wNTIzLS0xNDdfOTU,http://pb.xyz.duunion.com/conv?tid=P_806ec93cc97d82ec-OTY3Xy0xMjQ5MzMzMy05MDAtMTE3MC0wNTIzLS0xNDdfOTU&adv_sectkn=55dea06a643eb8a2d267a735fe2683bd&adv_name=appier-api&payout=0.9,idfa_59B4B51D-101B-4975-B411-BA82300591A4,ko
uSoqDPNBQ3KMU09tBdzgGQ,doglobal_api,967_147_95,Install,0.9,183.112.102.112,0923F36F-E389-433A-ACFC-DBE89843A665,1558584702,2019-05-23 12:11:42,1558584742,2019-05-23 12:12:22,1558584749,P_51f98e662b9dca95-OTY3Xy0xMjQ5MzMzMy05MDAtMTE3MC0wNTIzLS0xNDdfOTU,http://pb.xyz.duunion.com/conv?tid=P_51f98e662b9dca95-OTY3Xy0xMjQ5MzMzMy05MDAtMTE3MC0wNTIzLS0xNDdfOTU&adv_sectkn=55dea06a643eb8a2d267a735fe2683bd&adv_name=appier-api&payout=0.9,idfa_0923F36F-E389-433A-ACFC-DBE89843A665,ko
uSoqDPNBQ3KMU09tBdzgGQ,doglobal_api,967_147_95,Install,0.9,211.46.223.240,83FAD707-D0F0-42D1-BA0B-C320ADEECD5C,1558586232,2019-05-23 12:37:12,1558586262,2019-05-23 12:37:42,1558586270,P_5d528c4b553d92f3-OTY3Xy0xMjQ5MzMzMy05MDAtMTE3MC0wNTIzLS0xNDdfOTU,http://pb.xyz.duunion.com/conv?tid=P_5d528c4b553d92f3-OTY3Xy0xMjQ5MzMzMy05MDAtMTE3MC0wNTIzLS0xNDdfOTU&adv_sectkn=55dea06a643eb8a2d267a735fe2683bd&adv_name=appier-api&payout=0.9,idfa_83FAD707-D0F0-42D1-BA0B-C320ADEECD5C,ko
uSoqDPNBQ3KMU09tBdzgGQ,doglobal_api,967_147_95,Install,0.9,183.105.52.126,752C7B6D-F565-4C53-A552-816D9F2AA316,1558584465,2019-05-23 12:07:45,1558584541,2019-05-23 12:09:01,1558584548,P_e5b8553f38cbeda6-OTY3Xy0xMjQ5MzMzMy05MDAtMTE3MC0wNTIzLS0xNDdfOTU,http://pb.xyz.duunion.com/conv?tid=P_e5b8553f38cbeda6-OTY3Xy0xMjQ5MzMzMy05MDAtMTE3MC0wNTIzLS0xNDdfOTU&adv_sectkn=55dea06a643eb8a2d267a735fe2683bd&adv_name=appier-api&payout=0.9,idfa_752C7B6D-F565-4C53-A552-816D9F2AA316,ko
uSoqDPNBQ3KMU09tBdzgGQ,doglobal_api,967_147_95,Install,0.9,220.127.126.139,5B9C74B2-C009-4393-99DC-EAB563F964DA,1558585588,2019-05-23 12:26:28,1558585629,2019-05-23 12:27:09,1558585636,P_be620ee81f851b2d-OTY3Xy0xMjQ5MzMzMy05MDAtMTE3MC0wNTIzLS0xNDdfOTU,http://pb.xyz.duunion.com/conv?tid=P_be620ee81f851b2d-OTY3Xy0xMjQ5MzMzMy05MDAtMTE3MC0wNTIzLS0xNDdfOTU&adv_sectkn=55dea06a643eb8a2d267a735fe2683bd&adv_name=appier-api&payout=0.9,idfa_5B9C74B2-C009-4393-99DC-EAB563F964DA,ko
uSoqDPNBQ3KMU09tBdzgGQ,doglobal_api,967_147_95,Install,0.9,175.201.12.200,DC9AEC49-88A9-48AC-8A73-2B5C0FF1BFE7,1558584210,2019-05-23 12:03:30,1558584282,2019-05-23 12:04:42,1558584289,P_3c6bac235401d86d-OTY3Xy0xMjQ5MzMzMy05MDAtMTE3MC0wNTIzLS0xNDdfOTU,http://pb.xyz.duunion.com/conv?tid=P_3c6bac235401d86d-OTY3Xy0xMjQ5MzMzMy05MDAtMTE3MC0wNTIzLS0xNDdfOTU&adv_sectkn=55dea06a643eb8a2d267a735fe2683bd&adv_name=appier-api&payout=0.9,idfa_DC9AEC49-88A9-48AC-8A73-2B5C0FF1BFE7,ko
uSoqDPNBQ3KMU09tBdzgGQ,doglobal_api,967_147_95,Install,0.9,112.218.76.163,53C842E2-A950-443C-893E-9176EE7F6522,1558586448,2019-05-23 12:40:48,1558586462,2019-05-23 12:41:02,1558586469,B_71b5e1a06d04f6be-OTY3Xy0xMjQ5MzMzMy05MDAtMTE3MC0wNTIzLS0xNDdfOTU,http://pb.xyz.duunion.com/conv?tid=B_71b5e1a06d04f6be-OTY3Xy0xMjQ5MzMzMy05MDAtMTE3MC0wNTIzLS0xNDdfOTU&adv_sectkn=55dea06a643eb8a2d267a735fe2683bd&adv_name=appier-api&payout=0.9,idfa_53C842E2-A950-443C-893E-9176EE7F6522,ko
uSoqDPNBQ3KMU09tBdzgGQ,doglobal_api,967_147_95,Install,0.9,211.110.1.65,16295B1D-CB13-4714-83A1-115FD059EB51,1558587274,2019-05-23 12:54:34,1558587360,2019-05-23 12:56:00,1558587370,P_644e3a865c5b5394-OTY3Xy0xMjQ5MzMzMy05MDAtMTE3MC0wNTIzLS0xNDdfOTU,http://pb.xyz.duunion.com/conv?tid=P_644e3a865c5b5394-OTY3Xy0xMjQ5MzMzMy05MDAtMTE3MC0wNTIzLS0xNDdfOTU&adv_sectkn=55dea06a643eb8a2d267a735fe2683bd&adv_name=appier-api&payout=0.9,idfa_16295B1D-CB13-4714-83A1-115FD059EB51,ko
uSoqDPNBQ3KMU09tBdzgGQ,doglobal_api,967_147_95,Install,0.9,220.76.251.168,8172F621-C4CA-4967-9552-4A4876A81F96,1558585155,2019-05-23 12:19:15,1558585202,2019-05-23 12:20:02,1558585209,P_4c93eb48b3239aa2-OTY3Xy0xMjQ5MzMzMy05MDAtMTE3MC0wNTIzLS0xNDdfOTU,http://pb.xyz.duunion.com/conv?tid=P_4c93eb48b3239aa2-OTY3Xy0xMjQ5MzMzMy05MDAtMTE3MC0wNTIzLS0xNDdfOTU&adv_sectkn=55dea06a643eb8a2d267a735fe2683bd&adv_name=appier-api&payout=0.9,idfa_8172F621-C4CA-4967-9552-4A4876A81F96,ko
uSoqDPNBQ3KMU09tBdzgGQ,doglobal_api,967_147_95,Install,0.9,1.176.29.250,D676E89B-EE80-4074-A089-FE688DFC8A72,1558584224,2019-05-23 12:03:44,1558584306,2019-05-23 12:05:06,1558584314,P_00728b5e68945360-OTY3Xy0xMjQ5MzMzMy05MDAtMTE3MC0wNTIzLS0xNDdfOTU,http://pb.xyz.duunion.com/conv?tid=P_00728b5e68945360-OTY3Xy0xMjQ5MzMzMy05MDAtMTE3MC0wNTIzLS0xNDdfOTU&adv_sectkn=55dea06a643eb8a2d267a735fe2683bd&adv_name=appier-api&payout=0.9,idfa_D676E89B-EE80-4074-A089-FE688DFC8A72,ko
uSoqDPNBQ3KMU09tBdzgGQ,doglobal_api,967_147_95,Install,0.9,218.144.17.223,BABB58B7-DE45-43F4-B739-E1BBFA72FB99,1558584248,2019-05-23 12:04:08,1558584324,2019-05-23 12:05:24,1558584331,P_db3dc4ba2ab843f4-OTY3Xy0xMjQ5MzMzMy05MDAtMTE3MC0wNTIzLS0xNDdfOTU,http://pb.xyz.duunion.com/conv?tid=P_db3dc4ba2ab843f4-OTY3Xy0xMjQ5MzMzMy05MDAtMTE3MC0wNTIzLS0xNDdfOTU&adv_sectkn=55dea06a643eb8a2d267a735fe2683bd&adv_name=appier-api&payout=0.9,idfa_BABB58B7-DE45-43F4-B739-E1BBFA72FB99,ko
uSoqDPNBQ3KMU09tBdzgGQ,doglobal_api,967_147_95,Install,0.9,61.81.115.75,4FA794A6-9A5C-4FAC-88B9-79E8E5F6E1BA,1558583814,2019-05-23 11:56:54,1558583853,2019-05-23 11:57:33,1558583860,P_39eeed3c667e42bc-OTY3Xy0xMjQ5MzMzMy05MDAtMTE3MC0wNTIzLS0xNDdfOTU,http://pb.xyz.duunion.com/conv?tid=P_39eeed3c667e42bc-OTY3Xy0xMjQ5MzMzMy05MDAtMTE3MC0wNTIzLS0xNDdfOTU&adv_sectkn=55dea06a643eb8a2d267a735fe2683bd&adv_name=appier-api&payout=0.9,idfa_4FA794A6-9A5C-4FAC-88B9-79E8E5F6E1BA,ko
uSoqDPNBQ3KMU09tBdzgGQ,doglobal_api,967_147_95,Install,0.9,183.105.52.126,72883CA1-C2B4-4976-8E86-07D6A38F9A2E,1558587017,2019-05-23 12:50:17,1558587077,2019-05-23 12:51:17,1558587085,P_099dab4771d29a06-OTY3Xy0xMjQ5MzMzMy05MDAtMTE3MC0wNTIzLS0xNDdfOTU,http://pb.xyz.duunion.com/conv?tid=P_099dab4771d29a06-OTY3Xy0xMjQ5MzMzMy05MDAtMTE3MC0wNTIzLS0xNDdfOTU&adv_sectkn=55dea06a643eb8a2d267a735fe2683bd&adv_name=appier-api&payout=0.9,idfa_72883CA1-C2B4-4976-8E86-07D6A38F9A2E,ko
uSoqDPNBQ3KMU09tBdzgGQ,doglobal_api,967_147_95,Install,0.9,220.116.230.50,63A16374-D9CA-47FA-906C-7EC93240B7F3,1558587334,2019-05-23 12:55:34,1558587354,2019-05-23 12:55:54,1558587363,P_090898f0235f0c5d-OTY3Xy0xMjQ5MzMzMy05MDAtMTE3MC0wNTIzLS0xNDdfOTU,http://pb.xyz.duunion.com/conv?tid=P_090898f0235f0c5d-OTY3Xy0xMjQ5MzMzMy05MDAtMTE3MC0wNTIzLS0xNDdfOTU&adv_sectkn=55dea06a643eb8a2d267a735fe2683bd&adv_name=appier-api&payout=0.9,idfa_63A16374-D9CA-47FA-906C-7EC93240B7F3,ko
uSoqDPNBQ3KMU09tBdzgGQ,doglobal_api,967_147_95,Install,0.9,118.41.9.209,886CF0ED-87FA-4AAE-8FEC-06606E0F148A,1558584622,2019-05-23 12:10:22,1558584697,2019-05-23 12:11:37,1558584704,P_5adcfb36a3736711-OTY3Xy0xMjQ5MzMzMy05MDAtMTE3MC0wNTIzLS0xNDdfOTU,http://pb.xyz.duunion.com/conv?tid=P_5adcfb36a3736711-OTY3Xy0xMjQ5MzMzMy05MDAtMTE3MC0wNTIzLS0xNDdfOTU&adv_sectkn=55dea06a643eb8a2d267a735fe2683bd&adv_name=appier-api&payout=0.9,idfa_886CF0ED-87FA-4AAE-8FEC-06606E0F148A,ko
uSoqDPNBQ3KMU09tBdzgGQ,doglobal_api,967_147_95,Install,0.9,118.42.115.142,26E6F6A6-FA57-457A-90E4-A8798620BEDF,1558583017,2019-05-23 11:43:37,1558583051,2019-05-23 11:44:11,1558583058,P_22f629911f2a9195-OTY3Xy0xMjQ5MzMzMy05MDAtMTE3MC0wNTIzLS0xNDdfOTU,http://pb.xyz.duunion.com/conv?tid=P_22f629911f2a9195-OTY3Xy0xMjQ5MzMzMy05MDAtMTE3MC0wNTIzLS0xNDdfOTU&adv_sectkn=55dea06a643eb8a2d267a735fe2683bd&adv_name=appier-api&payout=0.9,idfa_26E6F6A6-FA57-457A-90E4-A8798620BEDF,ko
uSoqDPNBQ3KMU09tBdzgGQ,doglobal_api,967_147_95,Install,0.9,118.62.9.2,0236B6BA-17F8-47CB-A0B2-EF41DC1A3CE4,1558584940,2019-05-23 12:15:40,1558584998,2019-05-23 12:16:38,1558585004,P_bbe0d3a06498f46e-OTY3Xy0xMjQ5MzMzMy05MDAtMTE3MC0wNTIzLS0xNDdfOTU,http://pb.xyz.duunion.com/conv?tid=P_bbe0d3a06498f46e-OTY3Xy0xMjQ5MzMzMy05MDAtMTE3MC0wNTIzLS0xNDdfOTU&adv_sectkn=55dea06a643eb8a2d267a735fe2683bd&adv_name=appier-api&payout=0.9,idfa_0236B6BA-17F8-47CB-A0B2-EF41DC1A3CE4,ko
uSoqDPNBQ3KMU09tBdzgGQ,doglobal_api,967_147_95,Install,0.9,123.200.126.205,1B0B58DA-C305-4518-BA41-C683EFB1F6EC,1558586619,2019-05-23 12:43:39,1558586683,2019-05-23 12:44:43,1558586692,P_9f3847439c82e742-OTY3Xy0xMjQ5MzMzMy05MDAtMTE3MC0wNTIzLS0xNDdfOTU,http://pb.xyz.duunion.com/conv?tid=P_9f3847439c82e742-OTY3Xy0xMjQ5MzMzMy05MDAtMTE3MC0wNTIzLS0xNDdfOTU&adv_sectkn=55dea06a643eb8a2d267a735fe2683bd&adv_name=appier-api&payout=0.9,idfa_1B0B58DA-C305-4518-BA41-C683EFB1F6EC,ko
uSoqDPNBQ3KMU09tBdzgGQ,doglobal_api,967_147_95,Install,0.9,121.151.86.155,E41C0E12-6C43-49AB-8097-81F7DD19599B,1558584202,2019-05-23 12:03:22,1558584216,2019-05-23 12:03:36,1558584223,P_b8b1207f53486589-OTY3Xy0xMjQ5MzMzMy05MDAtMTE3MC0wNTIzLS0xNDdfOTU,http://pb.xyz.duunion.com/conv?tid=P_b8b1207f53486589-OTY3Xy0xMjQ5MzMzMy05MDAtMTE3MC0wNTIzLS0xNDdfOTU&adv_sectkn=55dea06a643eb8a2d267a735fe2683bd&adv_name=appier-api&payout=0.9,idfa_E41C0E12-6C43-49AB-8097-81F7DD19599B,ko
uSoqDPNBQ3KMU09tBdzgGQ,doglobal_api,967_147_95,Install,0.9,118.44.169.247,495AABB8-99F9-452F-95A6-21F50B9504F8,1558587316,2019-05-23 12:55:16,1558587372,2019-05-23 12:56:12,1558587381,P_37e71f32a07e9259-OTY3Xy0xMjQ5MzMzMy05MDAtMTE3MC0wNTIzLS0xNDdfOTU,http://pb.xyz.duunion.com/conv?tid=P_37e71f32a07e9259-OTY3Xy0xMjQ5MzMzMy05MDAtMTE3MC0wNTIzLS0xNDdfOTU&adv_sectkn=55dea06a643eb8a2d267a735fe2683bd&adv_name=appier-api&payout=0.9,idfa_495AABB8-99F9-452F-95A6-21F50B9504F8,ko
uSoqDPNBQ3KMU09tBdzgGQ,doglobal_api,967_147_95,Install,0.9,112.170.215.31,38E26304-1123-43EF-B4DF-1A61D2D359B7,1558582982,2019-05-23 11:43:02,1558583064,2019-05-23 11:44:24,1558583073,B_6ada06a11d4d246d-OTY3Xy0xMjQ5MzMzMy05MDAtMTE3MC0wNTIzLS0xNDdfOTU,http://pb.xyz.duunion.com/conv?tid=B_6ada06a11d4d246d-OTY3Xy0xMjQ5MzMzMy05MDAtMTE3MC0wNTIzLS0xNDdfOTU&adv_sectkn=55dea06a643eb8a2d267a735fe2683bd&adv_name=appier-api&payout=0.9,idfa_38E26304-1123-43EF-B4DF-1A61D2D359B7,ko
uSoqDPNBQ3KMU09tBdzgGQ,doglobal_api,967_147_95,Install,0.9,106.249.135.226,82F0F3B5-E9ED-4F55-8FC6-052303C249A3,1558585411,2019-05-23 12:23:31,1558585438,2019-05-23 12:23:58,1558585447,P_fdca87cff9f4e48d-OTY3Xy0xMjQ5MzMzMy05MDAtMTE3MC0wNTIzLS0xNDdfOTU,http://pb.xyz.duunion.com/conv?tid=P_fdca87cff9f4e48d-OTY3Xy0xMjQ5MzMzMy05MDAtMTE3MC0wNTIzLS0xNDdfOTU&adv_sectkn=55dea06a643eb8a2d267a735fe2683bd&adv_name=appier-api&payout=0.9,idfa_82F0F3B5-E9ED-4F55-8FC6-052303C249A3,ko
uSoqDPNBQ3KMU09tBdzgGQ,doglobal_api,967_147_95,Install,0.9,222.108.143.193,A949BD0E-08D4-44BB-BB56-FB3599E43F44,1558586386,2019-05-23 12:39:46,1558586461,2019-05-23 12:41:01,1558586468,P_1dd1d9c8b1b57cc3-OTY3Xy0xMjQ5MzMzMy05MDAtMTE3MC0wNTIzLS0xNDdfOTU,http://pb.xyz.duunion.com/conv?tid=P_1dd1d9c8b1b57cc3-OTY3Xy0xMjQ5MzMzMy05MDAtMTE3MC0wNTIzLS0xNDdfOTU&adv_sectkn=55dea06a643eb8a2d267a735fe2683bd&adv_name=appier-api&payout=0.9,idfa_A949BD0E-08D4-44BB-BB56-FB3599E43F44,ko
uSoqDPNBQ3KMU09tBdzgGQ,doglobal_api,967_147_95,Install,0.9,14.71.124.25,66A5E833-8AA3-4287-A74B-95E5561A724C,1558584895,2019-05-23 12:14:55,1558584946,2019-05-23 12:15:46,1558584955,P_5de3343b7cfe2b03-OTY3Xy0xMjQ5MzMzMy05MDAtMTE3MC0wNTIzLS0xNDdfOTU,http://pb.xyz.duunion.com/conv?tid=P_5de3343b7cfe2b03-OTY3Xy0xMjQ5MzMzMy05MDAtMTE3MC0wNTIzLS0xNDdfOTU&adv_sectkn=55dea06a643eb8a2d267a735fe2683bd&adv_name=appier-api&payout=0.9,idfa_66A5E833-8AA3-4287-A74B-95E5561A724C,ko
uSoqDPNBQ3KMU09tBdzgGQ,doglobal_api,967_147_95,Install,0.9,119.194.7.26,A9E41556-F786-41AC-A12A-95A48ABA2F3D,1558583821,2019-05-23 11:57:01,1558583900,2019-05-23 11:58:20,1558583908,P_5539d85f19fb26f1-OTY3Xy0xMjQ5MzMzMy05MDAtMTE3MC0wNTIzLS0xNDdfOTU,http://pb.xyz.duunion.com/conv?tid=P_5539d85f19fb26f1-OTY3Xy0xMjQ5MzMzMy05MDAtMTE3MC0wNTIzLS0xNDdfOTU&adv_sectkn=55dea06a643eb8a2d267a735fe2683bd&adv_name=appier-api&payout=0.9,idfa_A9E41556-F786-41AC-A12A-95A48ABA2F3D,ko
uSoqDPNBQ3KMU09tBdzgGQ,doglobal_api,967_147_95,Install,0.9,125.141.67.74,A10E23E2-FFAD-4095-9F9B-219C4C34DDF5,1558583360,2019-05-23 11:49:20,1558583442,2019-05-23 11:50:42,1558583449,P_394380bbf7c8d1da-OTY3Xy0xMjQ5MzMzMy05MDAtMTE3MC0wNTIzLS0xNDdfOTU,http://pb.xyz.duunion.com/conv?tid=P_394380bbf7c8d1da-OTY3Xy0xMjQ5MzMzMy05MDAtMTE3MC0wNTIzLS0xNDdfOTU&adv_sectkn=55dea06a643eb8a2d267a735fe2683bd&adv_name=appier-api&payout=0.9,idfa_A10E23E2-FFAD-4095-9F9B-219C4C34DDF5,ko
uSoqDPNBQ3KMU09tBdzgGQ,doglobal_api,967_147_95,Install,0.9,101.235.30.186,61F35F76-EECF-4274-A2B3-41FE64448A6A,1558586999,2019-05-23 12:49:59,1558587073,2019-05-23 12:51:13,1558587083,P_453971b984c9e70a-OTY3Xy0xMjQ5MzMzMy05MDAtMTE3MC0wNTIzLS0xNDdfOTU,http://pb.xyz.duunion.com/conv?tid=P_453971b984c9e70a-OTY3Xy0xMjQ5MzMzMy05MDAtMTE3MC0wNTIzLS0xNDdfOTU&adv_sectkn=55dea06a643eb8a2d267a735fe2683bd&adv_name=appier-api&payout=0.9,idfa_61F35F76-EECF-4274-A2B3-41FE64448A6A,ko
uSoqDPNBQ3KMU09tBdzgGQ,doglobal_api,967_147_95,Install,0.9,61.81.115.75,7C8B93F1-DFDB-414F-825D-50195B06031A,1558584294,2019-05-23 12:04:54,1558584373,2019-05-23 12:06:13,1558584379,B_1595d57376b1a16e-OTY3Xy0xMjQ5MzMzMy05MDAtMTE3MC0wNTIzLS0xNDdfOTU,http://pb.xyz.duunion.com/conv?tid=B_1595d57376b1a16e-OTY3Xy0xMjQ5MzMzMy05MDAtMTE3MC0wNTIzLS0xNDdfOTU&adv_sectkn=55dea06a643eb8a2d267a735fe2683bd&adv_name=appier-api&payout=0.9,idfa_7C8B93F1-DFDB-414F-825D-50195B06031A,ko
uSoqDPNBQ3KMU09tBdzgGQ,doglobal_api,967_147_95,Install,0.9,114.30.165.76,8A00DD14-8CAC-41C7-BCD2-FB5CE1CE23EF,1558585086,2019-05-23 12:18:06,1558585169,2019-05-23 12:19:29,1558585176,B_1300ee98039361b8-OTY3Xy0xMjQ5MzMzMy05MDAtMTE3MC0wNTIzLS0xNDdfOTU,http://pb.xyz.duunion.com/conv?tid=B_1300ee98039361b8-OTY3Xy0xMjQ5MzMzMy05MDAtMTE3MC0wNTIzLS0xNDdfOTU&adv_sectkn=55dea06a643eb8a2d267a735fe2683bd&adv_name=appier-api&payout=0.9,idfa_8A00DD14-8CAC-41C7-BCD2-FB5CE1CE23EF,ko
uSoqDPNBQ3KMU09tBdzgGQ,doglobal_api,967_147_95,Install,0.9,175.230.39.122,2A1CF30E-69F9-48B0-9415-3A93A1E302D8,1558584238,2019-05-23 12:03:58,1558584313,2019-05-23 12:05:13,1558584321,B_6a3ae56d75a3c3bc-OTY3Xy0xMjQ5MzMzMy05MDAtMTE3MC0wNTIzLS0xNDdfOTU,http://pb.xyz.duunion.com/conv?tid=B_6a3ae56d75a3c3bc-OTY3Xy0xMjQ5MzMzMy05MDAtMTE3MC0wNTIzLS0xNDdfOTU&adv_sectkn=55dea06a643eb8a2d267a735fe2683bd&adv_name=appier-api&payout=0.9,idfa_2A1CF30E-69F9-48B0-9415-3A93A1E302D8,ko
uSoqDPNBQ3KMU09tBdzgGQ,doglobal_api,967_147_95,Install,0.9,1.209.187.2,36E293B5-0DB7-4A1E-B56D-0DEFEF0B38C0,1558583833,2019-05-23 11:57:13,1558583870,2019-05-23 11:57:50,1558583878,B_d39693e50c2e7215-OTY3Xy0xMjQ5MzMzMy05MDAtMTE3MC0wNTIzLS0xNDdfOTU,http://pb.xyz.duunion.com/conv?tid=B_d39693e50c2e7215-OTY3Xy0xMjQ5MzMzMy05MDAtMTE3MC0wNTIzLS0xNDdfOTU&adv_sectkn=55dea06a643eb8a2d267a735fe2683bd&adv_name=appier-api&payout=0.9,idfa_36E293B5-0DB7-4A1E-B56D-0DEFEF0B38C0,ko
uSoqDPNBQ3KMU09tBdzgGQ,doglobal_api,967_147_95,Install,0.9,183.123.129.74,0AA8C6F8-962C-4A0E-97D1-CED01BFEB007,1558586458,2019-05-23 12:40:58,1558586524,2019-05-23 12:42:04,1558586530,B_d6a0c8e2401efd08-OTY3Xy0xMjQ5MzMzMy05MDAtMTE3MC0wNTIzLS0xNDdfOTU,http://pb.xyz.duunion.com/conv?tid=B_d6a0c8e2401efd08-OTY3Xy0xMjQ5MzMzMy05MDAtMTE3MC0wNTIzLS0xNDdfOTU&adv_sectkn=55dea06a643eb8a2d267a735fe2683bd&adv_name=appier-api&payout=0.9,idfa_0AA8C6F8-962C-4A0E-97D1-CED01BFEB007,ko
uSoqDPNBQ3KMU09tBdzgGQ,doglobal_api,967_147_95,Install,0.9,175.226.157.65,DB244461-9429-4021-A122-9DDACD139F65,1558584652,2019-05-23 12:10:52,1558584725,2019-05-23 12:12:05,1558584733,P_391da5f9eff13d3c-OTY3Xy0xMjQ5MzMzMy05MDAtMTE3MC0wNTIzLS0xNDdfOTU,http://pb.xyz.duunion.com/conv?tid=P_391da5f9eff13d3c-OTY3Xy0xMjQ5MzMzMy05MDAtMTE3MC0wNTIzLS0xNDdfOTU&adv_sectkn=55dea06a643eb8a2d267a735fe2683bd&adv_name=appier-api&payout=0.9,idfa_DB244461-9429-4021-A122-9DDACD139F65,ko
