cid,partner_id,channel_id,action_id,cpi,ip,idfa,click time,click datetime,install time,install datetime,postback time,click id,postback url,unique user id
66FqpntrTg-jUSCXJYn84A,doglobal_api,936_28_11,Install,2.4,111.236.98.173,D6D5163C-B99B-4364-9FBF-96D53AECD6D6,1559269708,2019-05-31 10:28:28,1559269785,2019-05-31 10:29:45,1559269854,P_c3852f52850e4f6c-OTM2Xy0xMTg2NjIxOC0yNDAwLTMxMjAtMDUzMS0yOF8xMS0yOF8xMQ,http://pb.xyz.duunion.com/conv?tid=P_c3852f52850e4f6c-OTM2Xy0xMTg2NjIxOC0yNDAwLTMxMjAtMDUzMS0yOF8xMS0yOF8xMQ&adv_sectkn=55dea06a643eb8a2d267a735fe2683bd&adv_name=appier-api&payout=2.4,idfa_D6D5163C-B99B-4364-9FBF-96D53AECD6D6,ja-JP
66FqpntrTg-jUSCXJYn84A,doglobal_api,936_28_11,Install,2.4,118.27.11.11,0CD43600-D27D-489A-9227-CC26EE68160F,1559269294,2019-05-31 10:21:34,1559269380,2019-05-31 10:23:00,1559269411,P_e21c557d3eb3a8c9-OTM2Xy0xMTg2NjIxOC0yNDAwLTMxMjAtMDUzMS0yOF8xMS0yOF8xMQ,http://pb.xyz.duunion.com/conv?tid=P_e21c557d3eb3a8c9-OTM2Xy0xMTg2NjIxOC0yNDAwLTMxMjAtMDUzMS0yOF8xMS0yOF8xMQ&adv_sectkn=55dea06a643eb8a2d267a735fe2683bd&adv_name=appier-api&payout=2.4,idfa_0CD43600-D27D-489A-9227-CC26EE68160F,ja-JP
66FqpntrTg-jUSCXJYn84A,doglobal_api,936_28_11,Install,2.4,150.147.215.187,86A5411A-D090-4082-B130-391A6C0DB9B9,1559266881,2019-05-31 09:41:21,1559266964,2019-05-31 09:42:44,1559266994,B_06c3ffa2256ea973-OTM2Xy0xMTg2NjIxOC0yNDAwLTMxMjAtMDUzMS0yOF8xMS0yOF8xMQ,http://pb.xyz.duunion.com/conv?tid=B_06c3ffa2256ea973-OTM2Xy0xMTg2NjIxOC0yNDAwLTMxMjAtMDUzMS0yOF8xMS0yOF8xMQ&adv_sectkn=55dea06a643eb8a2d267a735fe2683bd&adv_name=appier-api&payout=2.4,idfa_86A5411A-D090-4082-B130-391A6C0DB9B9,ja-JP
66FqpntrTg-jUSCXJYn84A,doglobal_api,936_28_11,Install,2.4,111.236.98.173,1ACB8B7D-260A-49B7-99CA-C4BC872775A6,1559267437,2019-05-31 09:50:37,1559267525,2019-05-31 09:52:05,1559267557,B_1bb04d3d11c10e0f-OTM2Xy0xMTg2NjIxOC0yNDAwLTMxMjAtMDUzMS0yOF8xMS0yOF8xMQ,http://pb.xyz.duunion.com/conv?tid=B_1bb04d3d11c10e0f-OTM2Xy0xMTg2NjIxOC0yNDAwLTMxMjAtMDUzMS0yOF8xMS0yOF8xMQ&adv_sectkn=55dea06a643eb8a2d267a735fe2683bd&adv_name=appier-api&payout=2.4,idfa_1ACB8B7D-260A-49B7-99CA-C4BC872775A6,ja-JP
66FqpntrTg-jUSCXJYn84A,doglobal_api,936_28_11,Install,2.4,222.229.112.168,339AAEDE-8383-4EAB-8E8E-B75064F03EDA,1559269736,2019-05-31 10:28:56,1559269806,2019-05-31 10:30:06,1559269837,B_899882404dee7156-OTM2Xy0xMTg2NjIxOC0yNDAwLTMxMjAtMDUzMS0yOF8xMS0yOF8xMQ,http://pb.xyz.duunion.com/conv?tid=B_899882404dee7156-OTM2Xy0xMTg2NjIxOC0yNDAwLTMxMjAtMDUzMS0yOF8xMS0yOF8xMQ&adv_sectkn=55dea06a643eb8a2d267a735fe2683bd&adv_name=appier-api&payout=2.4,idfa_339AAEDE-8383-4EAB-8E8E-B75064F03EDA,ja-JP
66FqpntrTg-jUSCXJYn84A,doglobal_api,936_28_11,Install,2.4,118.27.11.11,9DE559B5-51D8-4E58-BAF0-3C5ABB7C1EC1,1559268446,2019-05-31 10:07:26,1559268520,2019-05-31 10:08:40,1559268638,P_d8febe5832d9a22d-OTM2Xy0xMTg2NjIxOC0yNDAwLTMxMjAtMDUzMS0yOF8xMS0yOF8xMQ,http://pb.xyz.duunion.com/conv?tid=P_d8febe5832d9a22d-OTM2Xy0xMTg2NjIxOC0yNDAwLTMxMjAtMDUzMS0yOF8xMS0yOF8xMQ&adv_sectkn=55dea06a643eb8a2d267a735fe2683bd&adv_name=appier-api&payout=2.4,idfa_9DE559B5-51D8-4E58-BAF0-3C5ABB7C1EC1,ja-JP
66FqpntrTg-jUSCXJYn84A,doglobal_api,936_28_11,Install,2.4,61.205.226.45,88C8A12B-A41B-4D87-84B1-7CE35ADA08A6,1559268896,2019-05-31 10:14:56,1559268963,2019-05-31 10:16:03,1559268994,B_cf7b2ac4fe0ec8f7-OTM2Xy0xMTg2NjIxOC0yNDAwLTMxMjAtMDUzMS0yOF8xMS0yOF8xMQ,http://pb.xyz.duunion.com/conv?tid=B_cf7b2ac4fe0ec8f7-OTM2Xy0xMTg2NjIxOC0yNDAwLTMxMjAtMDUzMS0yOF8xMS0yOF8xMQ&adv_sectkn=55dea06a643eb8a2d267a735fe2683bd&adv_name=appier-api&payout=2.4,idfa_88C8A12B-A41B-4D87-84B1-7CE35ADA08A6,ja-JP
66FqpntrTg-jUSCXJYn84A,doglobal_api,936_28_11,Install,2.4,111.236.98.173,CDA22FAE-0E51-4397-9271-B2AE52E3251F,1559267895,2019-05-31 09:58:15,1559267976,2019-05-31 09:59:36,1559268006,B_b6fdc416d5cc3cbb-OTM2Xy0xMTg2NjIxOC0yNDAwLTMxMjAtMDUzMS0yOF8xMS0yOF8xMQ,http://pb.xyz.duunion.com/conv?tid=B_b6fdc416d5cc3cbb-OTM2Xy0xMTg2NjIxOC0yNDAwLTMxMjAtMDUzMS0yOF8xMS0yOF8xMQ&adv_sectkn=55dea06a643eb8a2d267a735fe2683bd&adv_name=appier-api&payout=2.4,idfa_CDA22FAE-0E51-4397-9271-B2AE52E3251F,ja-JP
66FqpntrTg-jUSCXJYn84A,doglobal_api,936_28_11,Install,2.4,122.134.156.248,1CD8A8F2-0CD9-4257-A794-898C7EB26DC0,1559266856,2019-05-31 09:40:56,1559266936,2019-05-31 09:42:16,1559266967,P_8f03042a7adbfddb-OTM2Xy0xMTg2NjIxOC0yNDAwLTMxMjAtMDUzMS0yOF8xMS0yOF8xMQ,http://pb.xyz.duunion.com/conv?tid=P_8f03042a7adbfddb-OTM2Xy0xMTg2NjIxOC0yNDAwLTMxMjAtMDUzMS0yOF8xMS0yOF8xMQ&adv_sectkn=55dea06a643eb8a2d267a735fe2683bd&adv_name=appier-api&payout=2.4,idfa_1CD8A8F2-0CD9-4257-A794-898C7EB26DC0,ja-JP
66FqpntrTg-jUSCXJYn84A,doglobal_api,936_28_11,Install,2.4,61.205.226.45,FE87CEE9-1C51-45BF-8958-83631DEA3F86,1559269733,2019-05-31 10:28:53,1559269811,2019-05-31 10:30:11,1559269875,P_decd0670f2d7a7e6-OTM2Xy0xMTg2NjIxOC0yNDAwLTMxMjAtMDUzMS0yOF8xMS0yOF8xMQ,http://pb.xyz.duunion.com/conv?tid=P_decd0670f2d7a7e6-OTM2Xy0xMTg2NjIxOC0yNDAwLTMxMjAtMDUzMS0yOF8xMS0yOF8xMQ&adv_sectkn=55dea06a643eb8a2d267a735fe2683bd&adv_name=appier-api&payout=2.4,idfa_FE87CEE9-1C51-45BF-8958-83631DEA3F86,ja-JP
66FqpntrTg-jUSCXJYn84A,doglobal_api,936_28_11,Install,2.4,61.205.226.45,A095C8CC-263C-45D9-855B-B2C34ABF58BC,1559268864,2019-05-31 10:14:24,1559268946,2019-05-31 10:15:46,1559268984,P_28dac0d460a1e0f2-OTM2Xy0xMTg2NjIxOC0yNDAwLTMxMjAtMDUzMS0yOF8xMS0yOF8xMQ,http://pb.xyz.duunion.com/conv?tid=P_28dac0d460a1e0f2-OTM2Xy0xMTg2NjIxOC0yNDAwLTMxMjAtMDUzMS0yOF8xMS0yOF8xMQ&adv_sectkn=55dea06a643eb8a2d267a735fe2683bd&adv_name=appier-api&payout=2.4,idfa_A095C8CC-263C-45D9-855B-B2C34ABF58BC,ja-JP
66FqpntrTg-jUSCXJYn84A,doglobal_api,936_28_11,Install,2.4,222.229.112.168,50507BAE-9AE1-447A-9F2E-1B6E3A91828C,1559267346,2019-05-31 09:49:06,1559267436,2019-05-31 09:50:36,1559267467,B_e3f68b169181d28c-OTM2Xy0xMTg2NjIxOC0yNDAwLTMxMjAtMDUzMS0yOF8xMS0yOF8xMQ,http://pb.xyz.duunion.com/conv?tid=B_e3f68b169181d28c-OTM2Xy0xMTg2NjIxOC0yNDAwLTMxMjAtMDUzMS0yOF8xMS0yOF8xMQ&adv_sectkn=55dea06a643eb8a2d267a735fe2683bd&adv_name=appier-api&payout=2.4,idfa_50507BAE-9AE1-447A-9F2E-1B6E3A91828C,ja-JP
66FqpntrTg-jUSCXJYn84A,doglobal_api,936_28_11,Install,2.4,118.27.11.11,9C79B5F2-6280-44BF-B48B-20C59687E5C0,1559268743,2019-05-31 10:12:23,1559268822,2019-05-31 10:13:42,1559268853,B_66bf34d0f64d493c-OTM2Xy0xMTg2NjIxOC0yNDAwLTMxMjAtMDUzMS0yOF8xMS0yOF8xMQ,http://pb.xyz.duunion.com/conv?tid=B_66bf34d0f64d493c-OTM2Xy0xMTg2NjIxOC0yNDAwLTMxMjAtMDUzMS0yOF8xMS0yOF8xMQ&adv_sectkn=55dea06a643eb8a2d267a735fe2683bd&adv_name=appier-api&payout=2.4,idfa_9C79B5F2-6280-44BF-B48B-20C59687E5C0,ja-JP
66FqpntrTg-jUSCXJYn84A,doglobal_api,936_28_11,Install,2.4,111.236.98.173,97591027-1934-4CB9-B27E-D30F492BC550,1559269761,2019-05-31 10:29:21,1559269851,2019-05-31 10:30:51,1559269928,P_18989d0bab09df4e-OTM2Xy0xMTg2NjIxOC0yNDAwLTMxMjAtMDUzMS0yOF8xMS0yOF8xMQ,http://pb.xyz.duunion.com/conv?tid=P_18989d0bab09df4e-OTM2Xy0xMTg2NjIxOC0yNDAwLTMxMjAtMDUzMS0yOF8xMS0yOF8xMQ&adv_sectkn=55dea06a643eb8a2d267a735fe2683bd&adv_name=appier-api&payout=2.4,idfa_97591027-1934-4CB9-B27E-D30F492BC550,ja-JP
66FqpntrTg-jUSCXJYn84A,doglobal_api,936_28_11,Install,2.4,202.218.48.11,41408D2A-4BA5-4F21-8BA0-FF1F308FBC14,1559268351,2019-05-31 10:05:51,1559268450,2019-05-31 10:07:30,1559268596,P_e3087449fe01a6d0-OTM2Xy0xMTg2NjIxOC0yNDAwLTMxMjAtMDUzMS0yOF8xMS0yOF8xMQ,http://pb.xyz.duunion.com/conv?tid=P_e3087449fe01a6d0-OTM2Xy0xMTg2NjIxOC0yNDAwLTMxMjAtMDUzMS0yOF8xMS0yOF8xMQ&adv_sectkn=55dea06a643eb8a2d267a735fe2683bd&adv_name=appier-api&payout=2.4,idfa_41408D2A-4BA5-4F21-8BA0-FF1F308FBC14,ja-JP
66FqpntrTg-jUSCXJYn84A,doglobal_api,936_28_11,Install,2.4,150.147.215.187,147EE429-2859-45D6-B70A-7DA8299BC8C1,1559266886,2019-05-31 09:41:26,1559266960,2019-05-31 09:42:40,1559267002,P_be7e1f6026be76be-OTM2Xy0xMTg2NjIxOC0yNDAwLTMxMjAtMDUzMS0yOF8xMS0yOF8xMQ,http://pb.xyz.duunion.com/conv?tid=P_be7e1f6026be76be-OTM2Xy0xMTg2NjIxOC0yNDAwLTMxMjAtMDUzMS0yOF8xMS0yOF8xMQ&adv_sectkn=55dea06a643eb8a2d267a735fe2683bd&adv_name=appier-api&payout=2.4,idfa_147EE429-2859-45D6-B70A-7DA8299BC8C1,ja-JP
66FqpntrTg-jUSCXJYn84A,doglobal_api,936_28_11,Install,2.4,118.27.11.11,10EE1E5E-9D5B-48B6-85EF-06E5296105B6,1559268440,2019-05-31 10:07:20,1559268524,2019-05-31 10:08:44,1559268556,P_2fa5a1fa4067db88-OTM2Xy0xMTg2NjIxOC0yNDAwLTMxMjAtMDUzMS0yOF8xMS0yOF8xMQ,http://pb.xyz.duunion.com/conv?tid=P_2fa5a1fa4067db88-OTM2Xy0xMTg2NjIxOC0yNDAwLTMxMjAtMDUzMS0yOF8xMS0yOF8xMQ&adv_sectkn=55dea06a643eb8a2d267a735fe2683bd&adv_name=appier-api&payout=2.4,idfa_10EE1E5E-9D5B-48B6-85EF-06E5296105B6,ja-JP
66FqpntrTg-jUSCXJYn84A,doglobal_api,936_28_11,Install,2.4,61.205.226.45,A8D7BBC3-CAE8-430A-AEB5-D39EA4652A06,1559268886,2019-05-31 10:14:46,1559268971,2019-05-31 10:16:11,1559269159,B_e791d2059a5dad3d-OTM2Xy0xMTg2NjIxOC0yNDAwLTMxMjAtMDUzMS0yOF8xMS0yOF8xMQ,http://pb.xyz.duunion.com/conv?tid=B_e791d2059a5dad3d-OTM2Xy0xMTg2NjIxOC0yNDAwLTMxMjAtMDUzMS0yOF8xMS0yOF8xMQ&adv_sectkn=55dea06a643eb8a2d267a735fe2683bd&adv_name=appier-api&payout=2.4,idfa_A8D7BBC3-CAE8-430A-AEB5-D39EA4652A06,ja-JP
66FqpntrTg-jUSCXJYn84A,doglobal_api,936_28_11,Install,2.4,61.205.226.45,EC11C53C-AC86-40D6-87FC-116F554D2B63,1559269694,2019-05-31 10:28:14,1559269766,2019-05-31 10:29:26,1559269799,B_a9804bcdfdacfb9f-OTM2Xy0xMTg2NjIxOC0yNDAwLTMxMjAtMDUzMS0yOF8xMS0yOF8xMQ,http://pb.xyz.duunion.com/conv?tid=B_a9804bcdfdacfb9f-OTM2Xy0xMTg2NjIxOC0yNDAwLTMxMjAtMDUzMS0yOF8xMS0yOF8xMQ&adv_sectkn=55dea06a643eb8a2d267a735fe2683bd&adv_name=appier-api&payout=2.4,idfa_EC11C53C-AC86-40D6-87FC-116F554D2B63,ja-JP
66FqpntrTg-jUSCXJYn84A,doglobal_api,936_28_11,Install,2.4,111.236.98.173,AD7B7E0A-21CF-4ED8-B141-6E1BC039991F,1559269788,2019-05-31 10:29:48,1559269865,2019-05-31 10:31:05,1559269908,P_53a7193864cbe7e7-OTM2Xy0xMTg2NjIxOC0yNDAwLTMxMjAtMDUzMS0yOF8xMS0yOF8xMQ,http://pb.xyz.duunion.com/conv?tid=P_53a7193864cbe7e7-OTM2Xy0xMTg2NjIxOC0yNDAwLTMxMjAtMDUzMS0yOF8xMS0yOF8xMQ&adv_sectkn=55dea06a643eb8a2d267a735fe2683bd&adv_name=appier-api&payout=2.4,idfa_AD7B7E0A-21CF-4ED8-B141-6E1BC039991F,ja-JP
66FqpntrTg-jUSCXJYn84A,doglobal_api,936_28_11,Install,2.4,121.110.238.25,E5AAEB78-47F9-4FC2-9B84-34AD2751AAE7,1559267988,2019-05-31 09:59:48,1559268067,2019-05-31 10:01:07,1559268098,B_5331a1f38412414d-OTM2Xy0xMTg2NjIxOC0yNDAwLTMxMjAtMDUzMS0yOF8xMS0yOF8xMQ,http://pb.xyz.duunion.com/conv?tid=B_5331a1f38412414d-OTM2Xy0xMTg2NjIxOC0yNDAwLTMxMjAtMDUzMS0yOF8xMS0yOF8xMQ&adv_sectkn=55dea06a643eb8a2d267a735fe2683bd&adv_name=appier-api&payout=2.4,idfa_E5AAEB78-47F9-4FC2-9B84-34AD2751AAE7,ja-JP
66FqpntrTg-jUSCXJYn84A,doglobal_api,936_28_11,Install,2.4,150.147.215.187,7F3AA78A-A758-49D6-9930-30EC37388232,1559267420,2019-05-31 09:50:20,1559267500,2019-05-31 09:51:40,1559267531,P_e9c6ba1323aa3ead-OTM2Xy0xMTg2NjIxOC0yNDAwLTMxMjAtMDUzMS0yOF8xMS0yOF8xMQ,http://pb.xyz.duunion.com/conv?tid=P_e9c6ba1323aa3ead-OTM2Xy0xMTg2NjIxOC0yNDAwLTMxMjAtMDUzMS0yOF8xMS0yOF8xMQ&adv_sectkn=55dea06a643eb8a2d267a735fe2683bd&adv_name=appier-api&payout=2.4,idfa_7F3AA78A-A758-49D6-9930-30EC37388232,ja-JP
66FqpntrTg-jUSCXJYn84A,doglobal_api,936_28_11,Install,2.4,121.110.238.25,4C8473AB-AAF4-48DA-A8BA-FCE891900D46,1559269855,2019-05-31 10:30:55,1559269943,2019-05-31 10:32:23,1559269974,P_919340d648b90cf1-OTM2Xy0xMTg2NjIxOC0yNDAwLTMxMjAtMDUzMS0yOF8xMS0yOF8xMQ,http://pb.xyz.duunion.com/conv?tid=P_919340d648b90cf1-OTM2Xy0xMTg2NjIxOC0yNDAwLTMxMjAtMDUzMS0yOF8xMS0yOF8xMQ&adv_sectkn=55dea06a643eb8a2d267a735fe2683bd&adv_name=appier-api&payout=2.4,idfa_4C8473AB-AAF4-48DA-A8BA-FCE891900D46,ja-JP
66FqpntrTg-jUSCXJYn84A,doglobal_api,936_28_11,Install,2.4,150.147.215.187,D4FBB907-5C93-4923-B78B-0BBE1F5B95B9,1559267539,2019-05-31 09:52:19,1559267613,2019-05-31 09:53:33,1559267644,B_aaace4496b3d3c6d-OTM2Xy0xMTg2NjIxOC0yNDAwLTMxMjAtMDUzMS0yOF8xMS0yOF8xMQ,http://pb.xyz.duunion.com/conv?tid=B_aaace4496b3d3c6d-OTM2Xy0xMTg2NjIxOC0yNDAwLTMxMjAtMDUzMS0yOF8xMS0yOF8xMQ&adv_sectkn=55dea06a643eb8a2d267a735fe2683bd&adv_name=appier-api&payout=2.4,idfa_D4FBB907-5C93-4923-B78B-0BBE1F5B95B9,ja-JP
66FqpntrTg-jUSCXJYn84A,doglobal_api,936_28_11,Install,2.4,61.205.226.45,D7866634-0E84-4840-AC65-F2195DA039E5,1559269701,2019-05-31 10:28:21,1559269776,2019-05-31 10:29:36,1559269809,P_d85e18522624e0f2-OTM2Xy0xMTg2NjIxOC0yNDAwLTMxMjAtMDUzMS0yOF8xMS0yOF8xMQ,http://pb.xyz.duunion.com/conv?tid=P_d85e18522624e0f2-OTM2Xy0xMTg2NjIxOC0yNDAwLTMxMjAtMDUzMS0yOF8xMS0yOF8xMQ&adv_sectkn=55dea06a643eb8a2d267a735fe2683bd&adv_name=appier-api&payout=2.4,idfa_D7866634-0E84-4840-AC65-F2195DA039E5,ja-JP
66FqpntrTg-jUSCXJYn84A,doglobal_api,936_28_11,Install,2.4,111.236.98.173,81DA44C3-9EE9-4ECA-A6CE-6D4563FF707A,1559266894,2019-05-31 09:41:34,1559266970,2019-05-31 09:42:50,1559267001,P_0fb4bb3d7f46ec75-OTM2Xy0xMTg2NjIxOC0yNDAwLTMxMjAtMDUzMS0yOF8xMS0yOF8xMQ,http://pb.xyz.duunion.com/conv?tid=P_0fb4bb3d7f46ec75-OTM2Xy0xMTg2NjIxOC0yNDAwLTMxMjAtMDUzMS0yOF8xMS0yOF8xMQ&adv_sectkn=55dea06a643eb8a2d267a735fe2683bd&adv_name=appier-api&payout=2.4,idfa_81DA44C3-9EE9-4ECA-A6CE-6D4563FF707A,ja-JP
66FqpntrTg-jUSCXJYn84A,doglobal_api,936_28_11,Install,2.4,118.27.11.11,279D1E2B-F05C-4EE0-AD1C-7FD3D48D9963,1559269315,2019-05-31 10:21:55,1559269399,2019-05-31 10:23:19,1559269685,P_e3c4cef2121788be-OTM2Xy0xMTg2NjIxOC0yNDAwLTMxMjAtMDUzMS0yOF8xMS0yOF8xMQ,http://pb.xyz.duunion.com/conv?tid=P_e3c4cef2121788be-OTM2Xy0xMTg2NjIxOC0yNDAwLTMxMjAtMDUzMS0yOF8xMS0yOF8xMQ&adv_sectkn=55dea06a643eb8a2d267a735fe2683bd&adv_name=appier-api&payout=2.4,idfa_279D1E2B-F05C-4EE0-AD1C-7FD3D48D9963,ja-JP
66FqpntrTg-jUSCXJYn84A,doglobal_api,936_28_11,Install,2.4,111.236.98.173,734487CC-9049-4A51-AEC3-C0CBDEF7BCB8,1559269447,2019-05-31 10:24:07,1559269530,2019-05-31 10:25:30,1559269562,B_0854d0b51ba41e75-OTM2Xy0xMTg2NjIxOC0yNDAwLTMxMjAtMDUzMS0yOF8xMS0yOF8xMQ,http://pb.xyz.duunion.com/conv?tid=B_0854d0b51ba41e75-OTM2Xy0xMTg2NjIxOC0yNDAwLTMxMjAtMDUzMS0yOF8xMS0yOF8xMQ&adv_sectkn=55dea06a643eb8a2d267a735fe2683bd&adv_name=appier-api&payout=2.4,idfa_734487CC-9049-4A51-AEC3-C0CBDEF7BCB8,ja-JP
66FqpntrTg-jUSCXJYn84A,doglobal_api,936_28_11,Install,2.4,61.205.226.45,181E40F7-D311-411A-B4BE-338366C1EB63,1559269396,2019-05-31 10:23:16,1559269477,2019-05-31 10:24:37,1559269509,B_3e7a6ec78fc3b2c6-OTM2Xy0xMTg2NjIxOC0yNDAwLTMxMjAtMDUzMS0yOF8xMS0yOF8xMQ,http://pb.xyz.duunion.com/conv?tid=B_3e7a6ec78fc3b2c6-OTM2Xy0xMTg2NjIxOC0yNDAwLTMxMjAtMDUzMS0yOF8xMS0yOF8xMQ&adv_sectkn=55dea06a643eb8a2d267a735fe2683bd&adv_name=appier-api&payout=2.4,idfa_181E40F7-D311-411A-B4BE-338366C1EB63,ja-JP
66FqpntrTg-jUSCXJYn84A,doglobal_api,936_28_11,Install,2.4,222.229.112.168,27E8D5AD-8331-481B-A511-A0463CC355BE,1559267869,2019-05-31 09:57:49,1559267959,2019-05-31 09:59:19,1559267990,B_f79dec5bcaf33a7a-OTM2Xy0xMTg2NjIxOC0yNDAwLTMxMjAtMDUzMS0yOF8xMS0yOF8xMQ,http://pb.xyz.duunion.com/conv?tid=B_f79dec5bcaf33a7a-OTM2Xy0xMTg2NjIxOC0yNDAwLTMxMjAtMDUzMS0yOF8xMS0yOF8xMQ&adv_sectkn=55dea06a643eb8a2d267a735fe2683bd&adv_name=appier-api&payout=2.4,idfa_27E8D5AD-8331-481B-A511-A0463CC355BE,ja-JP
66FqpntrTg-jUSCXJYn84A,doglobal_api,936_28_11,Install,2.4,111.236.98.173,E79363BB-2D9A-488F-A4FF-72B87C5CAAB9,1559266887,2019-05-31 09:41:27,1559266965,2019-05-31 09:42:45,1559266995,B_4e473a7edd1501bd-OTM2Xy0xMTg2NjIxOC0yNDAwLTMxMjAtMDUzMS0yOF8xMS0yOF8xMQ,http://pb.xyz.duunion.com/conv?tid=B_4e473a7edd1501bd-OTM2Xy0xMTg2NjIxOC0yNDAwLTMxMjAtMDUzMS0yOF8xMS0yOF8xMQ&adv_sectkn=55dea06a643eb8a2d267a735fe2683bd&adv_name=appier-api&payout=2.4,idfa_E79363BB-2D9A-488F-A4FF-72B87C5CAAB9,ja-JP
66FqpntrTg-jUSCXJYn84A,doglobal_api,936_28_11,Install,2.4,163.44.60.210,43DCC50E-E1A1-4141-8A19-881DF179E531,1559266876,2019-05-31 09:41:16,1559267004,2019-05-31 09:43:24,1559267036,B_f7025de23e463b1f-OTM2Xy0xMTg2NjIxOC0yNDAwLTMxMjAtMDUzMS0yOF8xMS0yOF8xMQ,http://pb.xyz.duunion.com/conv?tid=B_f7025de23e463b1f-OTM2Xy0xMTg2NjIxOC0yNDAwLTMxMjAtMDUzMS0yOF8xMS0yOF8xMQ&adv_sectkn=55dea06a643eb8a2d267a735fe2683bd&adv_name=appier-api&payout=2.4,idfa_43DCC50E-E1A1-4141-8A19-881DF179E531,ja-JP
66FqpntrTg-jUSCXJYn84A,doglobal_api,936_28_11,Install,2.4,150.147.215.187,D17E1026-C0C4-494A-87AF-8FF76CDD978E,1559267413,2019-05-31 09:50:13,1559267487,2019-05-31 09:51:27,1559267519,B_c9e48558eac9cb75-OTM2Xy0xMTg2NjIxOC0yNDAwLTMxMjAtMDUzMS0yOF8xMS0yOF8xMQ,http://pb.xyz.duunion.com/conv?tid=B_c9e48558eac9cb75-OTM2Xy0xMTg2NjIxOC0yNDAwLTMxMjAtMDUzMS0yOF8xMS0yOF8xMQ&adv_sectkn=55dea06a643eb8a2d267a735fe2683bd&adv_name=appier-api&payout=2.4,idfa_D17E1026-C0C4-494A-87AF-8FF76CDD978E,ja-JP
66FqpntrTg-jUSCXJYn84A,doglobal_api,936_28_11,Install,2.4,222.229.112.168,8A9FF68E-B61B-4493-8B43-AEFDC01315CE,1559267560,2019-05-31 09:52:40,1559267643,2019-05-31 09:54:03,1559267706,B_a6095d955b520987-OTM2Xy0xMTg2NjIxOC0yNDAwLTMxMjAtMDUzMS0yOF8xMS0yOF8xMQ,http://pb.xyz.duunion.com/conv?tid=B_a6095d955b520987-OTM2Xy0xMTg2NjIxOC0yNDAwLTMxMjAtMDUzMS0yOF8xMS0yOF8xMQ&adv_sectkn=55dea06a643eb8a2d267a735fe2683bd&adv_name=appier-api&payout=2.4,idfa_8A9FF68E-B61B-4493-8B43-AEFDC01315CE,ja-JP
66FqpntrTg-jUSCXJYn84A,doglobal_api,936_28_11,Install,2.4,61.205.226.45,0EE8CB1B-9077-4F59-8AC6-82B85A2382B9,1559269208,2019-05-31 10:20:08,1559269279,2019-05-31 10:21:19,1559269310,B_0e0094a7df50ed14-OTM2Xy0xMTg2NjIxOC0yNDAwLTMxMjAtMDUzMS0yOF8xMS0yOF8xMQ,http://pb.xyz.duunion.com/conv?tid=B_0e0094a7df50ed14-OTM2Xy0xMTg2NjIxOC0yNDAwLTMxMjAtMDUzMS0yOF8xMS0yOF8xMQ&adv_sectkn=55dea06a643eb8a2d267a735fe2683bd&adv_name=appier-api&payout=2.4,idfa_0EE8CB1B-9077-4F59-8AC6-82B85A2382B9,ja-JP
66FqpntrTg-jUSCXJYn84A,doglobal_api,936_28_11,Install,2.4,222.229.112.168,F484253C-8540-4774-B1A0-01F6EAA0DB5A,1559268082,2019-05-31 10:01:22,1559268170,2019-05-31 10:02:50,1559268203,B_9fec31910e18c525-OTM2Xy0xMTg2NjIxOC0yNDAwLTMxMjAtMDUzMS0yOF8xMS0yOF8xMQ,http://pb.xyz.duunion.com/conv?tid=B_9fec31910e18c525-OTM2Xy0xMTg2NjIxOC0yNDAwLTMxMjAtMDUzMS0yOF8xMS0yOF8xMQ&adv_sectkn=55dea06a643eb8a2d267a735fe2683bd&adv_name=appier-api&payout=2.4,idfa_F484253C-8540-4774-B1A0-01F6EAA0DB5A,ja-JP
66FqpntrTg-jUSCXJYn84A,doglobal_api,936_28_11,Install,2.4,222.229.112.168,FE6F753C-3FB1-4858-8BB7-35A51C4F3CF0,1559268139,2019-05-31 10:02:19,1559268216,2019-05-31 10:03:36,1559268304,P_4ac56ef7c5957c98-OTM2Xy0xMTg2NjIxOC0yNDAwLTMxMjAtMDUzMS0yOF8xMS0yOF8xMQ,http://pb.xyz.duunion.com/conv?tid=P_4ac56ef7c5957c98-OTM2Xy0xMTg2NjIxOC0yNDAwLTMxMjAtMDUzMS0yOF8xMS0yOF8xMQ&adv_sectkn=55dea06a643eb8a2d267a735fe2683bd&adv_name=appier-api&payout=2.4,idfa_FE6F753C-3FB1-4858-8BB7-35A51C4F3CF0,ja-JP
66FqpntrTg-jUSCXJYn84A,doglobal_api,936_28_11,Install,2.4,121.110.238.25,54E3F0C0-7201-4E2F-832E-E766947D15F0,1559269263,2019-05-31 10:21:03,1559269338,2019-05-31 10:22:18,1559269396,B_561d4cbe6d9bdcbc-OTM2Xy0xMTg2NjIxOC0yNDAwLTMxMjAtMDUzMS0yOF8xMS0yOF8xMQ,http://pb.xyz.duunion.com/conv?tid=B_561d4cbe6d9bdcbc-OTM2Xy0xMTg2NjIxOC0yNDAwLTMxMjAtMDUzMS0yOF8xMS0yOF8xMQ&adv_sectkn=55dea06a643eb8a2d267a735fe2683bd&adv_name=appier-api&payout=2.4,idfa_54E3F0C0-7201-4E2F-832E-E766947D15F0,ja-JP
66FqpntrTg-jUSCXJYn84A,doglobal_api,936_28_11,Install,2.4,111.169.82.160,0832125C-87E6-47E4-A579-96C21021997C,1559113397,2019-05-29 15:03:17,1559113529,2019-05-29 15:05:29,1559113560,B_51dd7cc3ce2f63e8-OTM2Xy0xMTg2NjIxOC0yNDAwLTMxMjAtMDUyOS0yOF8xMS0yOF8xMQ,http://pb.xyz.duunion.com/conv?tid=B_51dd7cc3ce2f63e8-OTM2Xy0xMTg2NjIxOC0yNDAwLTMxMjAtMDUyOS0yOF8xMS0yOF8xMQ&adv_sectkn=55dea06a643eb8a2d267a735fe2683bd&adv_name=appier-api&payout=2.4,idfa_0832125C-87E6-47E4-A579-96C21021997C,ja-JP
66FqpntrTg-jUSCXJYn84A,doglobal_api,936_28_11,Install,2.4,121.110.238.25,1FA2B398-DE7D-4935-9A3C-C6DFC4D16D85,1559267991,2019-05-31 09:59:51,1559268063,2019-05-31 10:01:03,1559268096,P_c3ea4ccc838ff4d9-OTM2Xy0xMTg2NjIxOC0yNDAwLTMxMjAtMDUzMS0yOF8xMS0yOF8xMQ,http://pb.xyz.duunion.com/conv?tid=P_c3ea4ccc838ff4d9-OTM2Xy0xMTg2NjIxOC0yNDAwLTMxMjAtMDUzMS0yOF8xMS0yOF8xMQ&adv_sectkn=55dea06a643eb8a2d267a735fe2683bd&adv_name=appier-api&payout=2.4,idfa_1FA2B398-DE7D-4935-9A3C-C6DFC4D16D85,ja-JP
66FqpntrTg-jUSCXJYn84A,doglobal_api,936_28_11,Install,2.4,121.110.238.25,5B1D8BD2-04D4-42D0-B6C1-41DECB687670,1559267998,2019-05-31 09:59:58,1559268075,2019-05-31 10:01:15,1559268106,B_f80292d2d740afd8-OTM2Xy0xMTg2NjIxOC0yNDAwLTMxMjAtMDUzMS0yOF8xMS0yOF8xMQ,http://pb.xyz.duunion.com/conv?tid=B_f80292d2d740afd8-OTM2Xy0xMTg2NjIxOC0yNDAwLTMxMjAtMDUzMS0yOF8xMS0yOF8xMQ&adv_sectkn=55dea06a643eb8a2d267a735fe2683bd&adv_name=appier-api&payout=2.4,idfa_5B1D8BD2-04D4-42D0-B6C1-41DECB687670,ja-JP
66FqpntrTg-jUSCXJYn84A,doglobal_api,936_28_11,Install,2.4,118.27.11.11,B3937C6B-06D4-430A-8A6A-95B64226E453,1559267447,2019-05-31 09:50:47,1559267532,2019-05-31 09:52:12,1559267563,B_e34de801b7ae6bb1-OTM2Xy0xMTg2NjIxOC0yNDAwLTMxMjAtMDUzMS0yOF8xMS0yOF8xMQ,http://pb.xyz.duunion.com/conv?tid=B_e34de801b7ae6bb1-OTM2Xy0xMTg2NjIxOC0yNDAwLTMxMjAtMDUzMS0yOF8xMS0yOF8xMQ&adv_sectkn=55dea06a643eb8a2d267a735fe2683bd&adv_name=appier-api&payout=2.4,idfa_B3937C6B-06D4-430A-8A6A-95B64226E453,ja-JP
66FqpntrTg-jUSCXJYn84A,doglobal_api,936_28_11,Install,2.4,202.218.48.11,EC584375-9BAD-499C-B793-4C53399CE9BB,1559268631,2019-05-31 10:10:31,1559268729,2019-05-31 10:12:09,1559268762,P_fe04f1fd02fcee22-OTM2Xy0xMTg2NjIxOC0yNDAwLTMxMjAtMDUzMS0yOF8xMS0yOF8xMQ,http://pb.xyz.duunion.com/conv?tid=P_fe04f1fd02fcee22-OTM2Xy0xMTg2NjIxOC0yNDAwLTMxMjAtMDUzMS0yOF8xMS0yOF8xMQ&adv_sectkn=55dea06a643eb8a2d267a735fe2683bd&adv_name=appier-api&payout=2.4,idfa_EC584375-9BAD-499C-B793-4C53399CE9BB,ja-JP
