cid,partner_id,channel_id,action_id,cpi,ip,idfa,click time,click datetime,install time,install datetime,postback time,click id,postback url,unique user id
F6e_b2egTqunNcOqAQH4xg,doglobal,920_5983598_11378527020507,install,5.5,153.188.204.138,EDCC558D-E9C7-419E-A088-BD1D2A175F87,1557190100,2019-05-07 08:48:20,1557190310,2019-05-07 08:51:50,1557190340,P_30f992bfe3de175f-OTIwXy0xMjI2MDI0OC01NTAwLTYwNTAtMDUwNy01OTgzNTk4XzExMzc4NTI3MDIwNTA3LQ,http://pb.xyz.duunion.com/conv?tid=P_30f992bfe3de175f-OTIwXy0xMjI2MDI0OC01NTAwLTYwNTAtMDUwNy01OTgzNTk4XzExMzc4NTI3MDIwNTA3LQ&adv_sectkn=6ce7ea3978d9a0a8dbfac07e4a513a0f&adv_name=Appier,idfa_EDCC558D-E9C7-419E-A088-BD1D2A175F87,ja
F6e_b2egTqunNcOqAQH4xg,doglobal,920_5983598_11378527020507,install,5.5,219.118.124.41,0E38C3B9-416A-4963-9544-C7EE9570AA21,1557196795,2019-05-07 10:39:55,1557199495,2019-05-07 11:24:55,1557199646,P_230250084820d879-OTIwXy0xMjI2MDI0OC01NTAwLTYwNTAtMDUwNy01OTgzNTk4XzExMzc4NTI3MDIwNTA3LQ,http://pb.xyz.duunion.com/conv?tid=P_230250084820d879-OTIwXy0xMjI2MDI0OC01NTAwLTYwNTAtMDUwNy01OTgzNTk4XzExMzc4NTI3MDIwNTA3LQ&adv_sectkn=6ce7ea3978d9a0a8dbfac07e4a513a0f&adv_name=Appier,idfa_0E38C3B9-416A-4963-9544-C7EE9570AA21,ja
F6e_b2egTqunNcOqAQH4xg,doglobal,920_5983598_11378527020507,install,5.5,175.177.5.170,2843F945-457F-4715-98A5-034252FC37DA,1557200425,2019-05-07 11:40:25,1557200754,2019-05-07 11:45:54,1557200784,P_17cdd507629750bd-OTIwXy0xMjI2MDI0OC01NTAwLTYwNTAtMDUwNy01OTgzNTk4XzExMzc4NTI3MDIwNTA3LQ,http://pb.xyz.duunion.com/conv?tid=P_17cdd507629750bd-OTIwXy0xMjI2MDI0OC01NTAwLTYwNTAtMDUwNy01OTgzNTk4XzExMzc4NTI3MDIwNTA3LQ&adv_sectkn=6ce7ea3978d9a0a8dbfac07e4a513a0f&adv_name=Appier,idfa_2843F945-457F-4715-98A5-034252FC37DA,ja
F6e_b2egTqunNcOqAQH4xg,doglobal,920_5983598_11378527020507,install,5.5,222.144.163.146,8BC4D275-FC71-431A-BFB1-6E22777B23E2,1557193252,2019-05-07 09:40:52,1557193440,2019-05-07 09:44:00,1557193470,B_95ff4047d63e0379-OTIwXy0xMjI2MDI0OC01NTAwLTYwNTAtMDUwNy01OTgzNTk4XzExMzc4NTI3MDIwNTA3LQ,http://pb.xyz.duunion.com/conv?tid=B_95ff4047d63e0379-OTIwXy0xMjI2MDI0OC01NTAwLTYwNTAtMDUwNy01OTgzNTk4XzExMzc4NTI3MDIwNTA3LQ&adv_sectkn=6ce7ea3978d9a0a8dbfac07e4a513a0f&adv_name=Appier,idfa_8BC4D275-FC71-431A-BFB1-6E22777B23E2,ja
F6e_b2egTqunNcOqAQH4xg,doglobal,920_5983598_11378527020507,install,5.5,60.108.197.110,BC01270D-AB1A-4A94-890C-B64162949688,1557200206,2019-05-07 11:36:46,1557201382,2019-05-07 11:56:22,1557201412,B_899663563bc682b8-OTIwXy0xMjI2MDI0OC01NTAwLTYwNTAtMDUwNy01OTgzNTk4XzExMzc4NTI3MDIwNTA3LQ,http://pb.xyz.duunion.com/conv?tid=B_899663563bc682b8-OTIwXy0xMjI2MDI0OC01NTAwLTYwNTAtMDUwNy01OTgzNTk4XzExMzc4NTI3MDIwNTA3LQ&adv_sectkn=6ce7ea3978d9a0a8dbfac07e4a513a0f&adv_name=Appier,idfa_BC01270D-AB1A-4A94-890C-B64162949688,ja
F6e_b2egTqunNcOqAQH4xg,doglobal,920_5983598_11378527020507,install,5.5,59.86.25.236,5AE0FC73-A2FA-46FD-B805-889533FD0BE0,1557189917,2019-05-07 08:45:17,1557192407,2019-05-07 09:26:47,1557192437,B_ab1847d4fec15de5-OTIwXy0xMjI2MDI0OC01NTAwLTYwNTAtMDUwNy01OTgzNTk4XzExMzc4NTI3MDIwNTA3LQ,http://pb.xyz.duunion.com/conv?tid=B_ab1847d4fec15de5-OTIwXy0xMjI2MDI0OC01NTAwLTYwNTAtMDUwNy01OTgzNTk4XzExMzc4NTI3MDIwNTA3LQ&adv_sectkn=6ce7ea3978d9a0a8dbfac07e4a513a0f&adv_name=Appier,idfa_5AE0FC73-A2FA-46FD-B805-889533FD0BE0,ja
F6e_b2egTqunNcOqAQH4xg,doglobal,920_5983598_11378527020507,install,5.5,180.30.205.187,F2E065BB-8752-4047-AAE3-89775779643A,1557200920,2019-05-07 11:48:40,1557201794,2019-05-07 12:03:14,1557201824,P_97876a58e242a5cb-OTIwXy0xMjI2MDI0OC01NTAwLTYwNTAtMDUwNy01OTgzNTk4XzExMzc4NTI3MDIwNTA3LQ,http://pb.xyz.duunion.com/conv?tid=P_97876a58e242a5cb-OTIwXy0xMjI2MDI0OC01NTAwLTYwNTAtMDUwNy01OTgzNTk4XzExMzc4NTI3MDIwNTA3LQ&adv_sectkn=6ce7ea3978d9a0a8dbfac07e4a513a0f&adv_name=Appier,idfa_F2E065BB-8752-4047-AAE3-89775779643A,ja
F6e_b2egTqunNcOqAQH4xg,doglobal,920_5983598_11378527020507,install,5.5,116.64.248.108,EF767A9F-66C3-4A7B-9D3E-A3DF245E15D0,1557193582,2019-05-07 09:46:22,1557196981,2019-05-07 10:43:01,1557197174,B_827983eda6bb7c39-OTIwXy0xMjI2MDI0OC01NTAwLTYwNTAtMDUwNy01OTgzNTk4XzExMzc4NTI3MDIwNTA3LQ,http://pb.xyz.duunion.com/conv?tid=B_827983eda6bb7c39-OTIwXy0xMjI2MDI0OC01NTAwLTYwNTAtMDUwNy01OTgzNTk4XzExMzc4NTI3MDIwNTA3LQ&adv_sectkn=6ce7ea3978d9a0a8dbfac07e4a513a0f&adv_name=Appier,idfa_EF767A9F-66C3-4A7B-9D3E-A3DF245E15D0,ja
F6e_b2egTqunNcOqAQH4xg,doglobal,920_5983598_11378527020507,install,5.5,65.99.15.161,B93D5D0A-8265-431D-842E-9B013AE16148,1557189969,2019-05-07 08:46:09,1557190117,2019-05-07 08:48:37,1557190147,B_544147b05f0a41af-OTIwXy0xMjI2MDI0OC01NTAwLTYwNTAtMDUwNy01OTgzNTk4XzExMzc4NTI3MDIwNTA3LQ,http://pb.xyz.duunion.com/conv?tid=B_544147b05f0a41af-OTIwXy0xMjI2MDI0OC01NTAwLTYwNTAtMDUwNy01OTgzNTk4XzExMzc4NTI3MDIwNTA3LQ&adv_sectkn=6ce7ea3978d9a0a8dbfac07e4a513a0f&adv_name=Appier,idfa_B93D5D0A-8265-431D-842E-9B013AE16148,ja
F6e_b2egTqunNcOqAQH4xg,doglobal,920_5983598_11378527020507,install,5.5,124.144.198.145,44835CBF-46EC-454E-AD2C-0EAD589603D2,1557201211,2019-05-07 11:53:31,1557204546,2019-05-07 12:49:06,1557204576,B_cccc070354c53d83-OTIwXy0xMjI2MDI0OC01NTAwLTYwNTAtMDUwNy01OTgzNTk4XzExMzc4NTI3MDIwNTA3LQ,http://pb.xyz.duunion.com/conv?tid=B_cccc070354c53d83-OTIwXy0xMjI2MDI0OC01NTAwLTYwNTAtMDUwNy01OTgzNTk4XzExMzc4NTI3MDIwNTA3LQ&adv_sectkn=6ce7ea3978d9a0a8dbfac07e4a513a0f&adv_name=Appier,idfa_44835CBF-46EC-454E-AD2C-0EAD589603D2,ja
F6e_b2egTqunNcOqAQH4xg,doglobal,920_5983598_11378527020507,install,5.5,61.197.114.184,0AF72785-3B31-4D32-A285-C8B0866D4D90,1557199700,2019-05-07 11:28:20,1557200113,2019-05-07 11:35:13,1557200232,P_eb3dbdbbd6cdff9f-OTIwXy0xMjI2MDI0OC01NTAwLTYwNTAtMDUwNy01OTgzNTk4XzExMzc4NTI3MDIwNTA3LQ,http://pb.xyz.duunion.com/conv?tid=P_eb3dbdbbd6cdff9f-OTIwXy0xMjI2MDI0OC01NTAwLTYwNTAtMDUwNy01OTgzNTk4XzExMzc4NTI3MDIwNTA3LQ&adv_sectkn=6ce7ea3978d9a0a8dbfac07e4a513a0f&adv_name=Appier,idfa_0AF72785-3B31-4D32-A285-C8B0866D4D90,ja
F6e_b2egTqunNcOqAQH4xg,doglobal,920_5983598_11378527020507,install,5.5,60.157.77.203,6549213D-C609-4ED6-9960-94E07D0807FB,1557189386,2019-05-07 08:36:26,1557189457,2019-05-07 08:37:37,1557189488,P_613cd00663bf53bd-OTIwXy0xMjI2MDI0OC01NTAwLTYwNTAtMDUwNy01OTgzNTk4XzExMzc4NTI3MDIwNTA3LQ,http://pb.xyz.duunion.com/conv?tid=P_613cd00663bf53bd-OTIwXy0xMjI2MDI0OC01NTAwLTYwNTAtMDUwNy01OTgzNTk4XzExMzc4NTI3MDIwNTA3LQ&adv_sectkn=6ce7ea3978d9a0a8dbfac07e4a513a0f&adv_name=Appier,idfa_6549213D-C609-4ED6-9960-94E07D0807FB,ja
F6e_b2egTqunNcOqAQH4xg,doglobal,920_5983598_11378527020507,install,5.5,153.215.100.131,38C91ABD-B338-48FA-9A30-3D20F1F046F4,1557195825,2019-05-07 10:23:45,1557195959,2019-05-07 10:25:59,1557195989,B_34940ac6c14f5ecd-OTIwXy0xMjI2MDI0OC01NTAwLTYwNTAtMDUwNy01OTgzNTk4XzExMzc4NTI3MDIwNTA3LQ,http://pb.xyz.duunion.com/conv?tid=B_34940ac6c14f5ecd-OTIwXy0xMjI2MDI0OC01NTAwLTYwNTAtMDUwNy01OTgzNTk4XzExMzc4NTI3MDIwNTA3LQ&adv_sectkn=6ce7ea3978d9a0a8dbfac07e4a513a0f&adv_name=Appier,idfa_38C91ABD-B338-48FA-9A30-3D20F1F046F4,ja
F6e_b2egTqunNcOqAQH4xg,doglobal,920_5983598_11378527020507,install,5.5,220.100.126.198,C2AB881D-10FE-4DCD-8CE8-F3696B260CC8,1557195648,2019-05-07 10:20:48,1557198684,2019-05-07 11:11:24,1557198715,P_6459993bfbfcaec4-OTIwXy0xMjI2MDI0OC01NTAwLTYwNTAtMDUwNy01OTgzNTk4XzExMzc4NTI3MDIwNTA3LQ,http://pb.xyz.duunion.com/conv?tid=P_6459993bfbfcaec4-OTIwXy0xMjI2MDI0OC01NTAwLTYwNTAtMDUwNy01OTgzNTk4XzExMzc4NTI3MDIwNTA3LQ&adv_sectkn=6ce7ea3978d9a0a8dbfac07e4a513a0f&adv_name=Appier,idfa_C2AB881D-10FE-4DCD-8CE8-F3696B260CC8,ja
F6e_b2egTqunNcOqAQH4xg,doglobal,920_5983598_11378527020507,install,5.5,219.199.66.2,F3B160C9-5A63-4893-9C32-F5548F29B7CE,1557190616,2019-05-07 08:56:56,1557190722,2019-05-07 08:58:42,1557190752,P_aac02fa3f549bbc9-OTIwXy0xMjI2MDI0OC01NTAwLTYwNTAtMDUwNy01OTgzNTk4XzExMzc4NTI3MDIwNTA3LQ,http://pb.xyz.duunion.com/conv?tid=P_aac02fa3f549bbc9-OTIwXy0xMjI2MDI0OC01NTAwLTYwNTAtMDUwNy01OTgzNTk4XzExMzc4NTI3MDIwNTA3LQ&adv_sectkn=6ce7ea3978d9a0a8dbfac07e4a513a0f&adv_name=Appier,idfa_F3B160C9-5A63-4893-9C32-F5548F29B7CE,ja
F6e_b2egTqunNcOqAQH4xg,doglobal,920_5983598_11378527020507,install,5.5,114.170.124.77,055E11EC-A364-45F3-BB39-18989C34AFDE,1557190109,2019-05-07 08:48:29,1557190516,2019-05-07 08:55:16,1557190546,B_25f67132dcbd8e48-OTIwXy0xMjI2MDI0OC01NTAwLTYwNTAtMDUwNy01OTgzNTk4XzExMzc4NTI3MDIwNTA3LQ,http://pb.xyz.duunion.com/conv?tid=B_25f67132dcbd8e48-OTIwXy0xMjI2MDI0OC01NTAwLTYwNTAtMDUwNy01OTgzNTk4XzExMzc4NTI3MDIwNTA3LQ&adv_sectkn=6ce7ea3978d9a0a8dbfac07e4a513a0f&adv_name=Appier,idfa_055E11EC-A364-45F3-BB39-18989C34AFDE,ja
F6e_b2egTqunNcOqAQH4xg,doglobal,920_5983598_11378527020507,install,5.5,126.197.35.179,DAB7E449-4ED2-4CCC-81E6-1482A9202064,1557197392,2019-05-07 10:49:52,1557198865,2019-05-07 11:14:25,1557198895,B_e87f8e0a09a095a2-OTIwXy0xMjI2MDI0OC01NTAwLTYwNTAtMDUwNy01OTgzNTk4XzExMzc4NTI3MDIwNTA3LQ,http://pb.xyz.duunion.com/conv?tid=B_e87f8e0a09a095a2-OTIwXy0xMjI2MDI0OC01NTAwLTYwNTAtMDUwNy01OTgzNTk4XzExMzc4NTI3MDIwNTA3LQ&adv_sectkn=6ce7ea3978d9a0a8dbfac07e4a513a0f&adv_name=Appier,idfa_DAB7E449-4ED2-4CCC-81E6-1482A9202064,ja
F6e_b2egTqunNcOqAQH4xg,doglobal,920_5983598_11378527020507,install,5.5,126.94.76.104,22CEA31A-418F-4B3A-887E-14F84F01BBF4,1557191217,2019-05-07 09:06:57,1557193027,2019-05-07 09:37:07,1557193058,P_6af365a6f28f12e1-OTIwXy0xMjI2MDI0OC01NTAwLTYwNTAtMDUwNy01OTgzNTk4XzExMzc4NTI3MDIwNTA3LQ,http://pb.xyz.duunion.com/conv?tid=P_6af365a6f28f12e1-OTIwXy0xMjI2MDI0OC01NTAwLTYwNTAtMDUwNy01OTgzNTk4XzExMzc4NTI3MDIwNTA3LQ&adv_sectkn=6ce7ea3978d9a0a8dbfac07e4a513a0f&adv_name=Appier,idfa_22CEA31A-418F-4B3A-887E-14F84F01BBF4,ja
F6e_b2egTqunNcOqAQH4xg,doglobal,920_5983598_11378527020507,install,5.5,153.194.209.88,2A3322EB-2196-4829-AAE6-D1ACB45A0D2D,1557200377,2019-05-07 11:39:37,1557200988,2019-05-07 11:49:48,1557201158,P_bebfcd82f3d5d2f9-OTIwXy0xMjI2MDI0OC01NTAwLTYwNTAtMDUwNy01OTgzNTk4XzExMzc4NTI3MDIwNTA3LQ,http://pb.xyz.duunion.com/conv?tid=P_bebfcd82f3d5d2f9-OTIwXy0xMjI2MDI0OC01NTAwLTYwNTAtMDUwNy01OTgzNTk4XzExMzc4NTI3MDIwNTA3LQ&adv_sectkn=6ce7ea3978d9a0a8dbfac07e4a513a0f&adv_name=Appier,idfa_2A3322EB-2196-4829-AAE6-D1ACB45A0D2D,ja
F6e_b2egTqunNcOqAQH4xg,doglobal,920_5983598_11378527020507,install,5.5,65.99.15.157,E967A705-2179-497F-89F0-B150D6E7306B,1557189391,2019-05-07 08:36:31,1557189872,2019-05-07 08:44:32,1557189902,B_71c42c92e74b7003-OTIwXy0xMjI2MDI0OC01NTAwLTYwNTAtMDUwNy01OTgzNTk4XzExMzc4NTI3MDIwNTA3LQ,http://pb.xyz.duunion.com/conv?tid=B_71c42c92e74b7003-OTIwXy0xMjI2MDI0OC01NTAwLTYwNTAtMDUwNy01OTgzNTk4XzExMzc4NTI3MDIwNTA3LQ&adv_sectkn=6ce7ea3978d9a0a8dbfac07e4a513a0f&adv_name=Appier,idfa_E967A705-2179-497F-89F0-B150D6E7306B,ja
F6e_b2egTqunNcOqAQH4xg,doglobal,920_5983598_11378527020507,install,5.5,133.201.74.33,8558C238-8018-4AF9-A9AC-D2A9B59A66C4,1557194304,2019-05-07 09:58:24,1557194518,2019-05-07 10:01:58,1557194548,P_e9bf2a5a7d4055b4-OTIwXy0xMjI2MDI0OC01NTAwLTYwNTAtMDUwNy01OTgzNTk4XzExMzc4NTI3MDIwNTA3LQ,http://pb.xyz.duunion.com/conv?tid=P_e9bf2a5a7d4055b4-OTIwXy0xMjI2MDI0OC01NTAwLTYwNTAtMDUwNy01OTgzNTk4XzExMzc4NTI3MDIwNTA3LQ&adv_sectkn=6ce7ea3978d9a0a8dbfac07e4a513a0f&adv_name=Appier,idfa_8558C238-8018-4AF9-A9AC-D2A9B59A66C4,ja
F6e_b2egTqunNcOqAQH4xg,doglobal,920_5983598_11378527020507,install,5.5,180.49.151.210,BDA961F4-62EB-4D9F-A791-047DB467DDB4,1557193585,2019-05-07 09:46:25,1557196779,2019-05-07 10:39:39,1557196809,P_3e33c1be417df146-OTIwXy0xMjI2MDI0OC01NTAwLTYwNTAtMDUwNy01OTgzNTk4XzExMzc4NTI3MDIwNTA3LQ,http://pb.xyz.duunion.com/conv?tid=P_3e33c1be417df146-OTIwXy0xMjI2MDI0OC01NTAwLTYwNTAtMDUwNy01OTgzNTk4XzExMzc4NTI3MDIwNTA3LQ&adv_sectkn=6ce7ea3978d9a0a8dbfac07e4a513a0f&adv_name=Appier,idfa_BDA961F4-62EB-4D9F-A791-047DB467DDB4,ja
F6e_b2egTqunNcOqAQH4xg,doglobal,920_5983598_11378527020507,install,5.5,106.161.102.246,AE3F5614-CEF4-4B74-81F1-8F882CE1E963,1557193028,2019-05-07 09:37:08,1557194159,2019-05-07 09:55:59,1557194189,P_c0405450ed224442-OTIwXy0xMjI2MDI0OC01NTAwLTYwNTAtMDUwNy01OTgzNTk4XzExMzc4NTI3MDIwNTA3LQ,http://pb.xyz.duunion.com/conv?tid=P_c0405450ed224442-OTIwXy0xMjI2MDI0OC01NTAwLTYwNTAtMDUwNy01OTgzNTk4XzExMzc4NTI3MDIwNTA3LQ&adv_sectkn=6ce7ea3978d9a0a8dbfac07e4a513a0f&adv_name=Appier,idfa_AE3F5614-CEF4-4B74-81F1-8F882CE1E963,ja
F6e_b2egTqunNcOqAQH4xg,doglobal,920_5983598_11378527020507,install,5.5,153.151.174.109,6AD24795-6BCB-4B89-83B7-3F61F7AD9347,1557195395,2019-05-07 10:16:35,1557198469,2019-05-07 11:07:49,1557198499,B_84308309ededbe07-OTIwXy0xMjI2MDI0OC01NTAwLTYwNTAtMDUwNy01OTgzNTk4XzExMzc4NTI3MDIwNTA3LQ,http://pb.xyz.duunion.com/conv?tid=B_84308309ededbe07-OTIwXy0xMjI2MDI0OC01NTAwLTYwNTAtMDUwNy01OTgzNTk4XzExMzc4NTI3MDIwNTA3LQ&adv_sectkn=6ce7ea3978d9a0a8dbfac07e4a513a0f&adv_name=Appier,idfa_6AD24795-6BCB-4B89-83B7-3F61F7AD9347,ja
F6e_b2egTqunNcOqAQH4xg,doglobal,920_5983598_11378527020507,install,5.5,133.6.28.35,BD13E7D3-6498-4C3D-B966-BB94560B2FEF,1557200824,2019-05-07 11:47:04,1557201587,2019-05-07 11:59:47,1557201617,P_ef6d1c95c261b1f0-OTIwXy0xMjI2MDI0OC01NTAwLTYwNTAtMDUwNy01OTgzNTk4XzExMzc4NTI3MDIwNTA3LQ,http://pb.xyz.duunion.com/conv?tid=P_ef6d1c95c261b1f0-OTIwXy0xMjI2MDI0OC01NTAwLTYwNTAtMDUwNy01OTgzNTk4XzExMzc4NTI3MDIwNTA3LQ&adv_sectkn=6ce7ea3978d9a0a8dbfac07e4a513a0f&adv_name=Appier,idfa_BD13E7D3-6498-4C3D-B966-BB94560B2FEF,ja
F6e_b2egTqunNcOqAQH4xg,doglobal,920_5983598_11378527020507,install,5.5,133.201.64.128,F02F0AA0-8F42-4933-8CDE-C64E41C52A5A,1557192982,2019-05-07 09:36:22,1557193233,2019-05-07 09:40:33,1557193264,B_9733cb7e87a65966-OTIwXy0xMjI2MDI0OC01NTAwLTYwNTAtMDUwNy01OTgzNTk4XzExMzc4NTI3MDIwNTA3LQ,http://pb.xyz.duunion.com/conv?tid=B_9733cb7e87a65966-OTIwXy0xMjI2MDI0OC01NTAwLTYwNTAtMDUwNy01OTgzNTk4XzExMzc4NTI3MDIwNTA3LQ&adv_sectkn=6ce7ea3978d9a0a8dbfac07e4a513a0f&adv_name=Appier,idfa_F02F0AA0-8F42-4933-8CDE-C64E41C52A5A,ja
F6e_b2egTqunNcOqAQH4xg,doglobal,920_5983598_11378527020507,install,5.5,27.127.109.206,0E236E2F-B2D9-462E-9C22-7F4E06634FF6,1557194608,2019-05-07 10:03:28,1557194687,2019-05-07 10:04:47,1557194717,B_d55379812f740288-OTIwXy0xMjI2MDI0OC01NTAwLTYwNTAtMDUwNy01OTgzNTk4XzExMzc4NTI3MDIwNTA3LQ,http://pb.xyz.duunion.com/conv?tid=B_d55379812f740288-OTIwXy0xMjI2MDI0OC01NTAwLTYwNTAtMDUwNy01OTgzNTk4XzExMzc4NTI3MDIwNTA3LQ&adv_sectkn=6ce7ea3978d9a0a8dbfac07e4a513a0f&adv_name=Appier,idfa_0E236E2F-B2D9-462E-9C22-7F4E06634FF6,ja
F6e_b2egTqunNcOqAQH4xg,doglobal,920_5983598_11378527020507,install,5.5,210.172.214.213,6CB2700C-E6BE-43BD-BE0D-FF0950E10D14,1557201993,2019-05-07 12:06:33,1557203500,2019-05-07 12:31:40,1557203530,B_e0ce57a64570955b-OTIwXy0xMjI2MDI0OC01NTAwLTYwNTAtMDUwNy01OTgzNTk4XzExMzc4NTI3MDIwNTA3LQ,http://pb.xyz.duunion.com/conv?tid=B_e0ce57a64570955b-OTIwXy0xMjI2MDI0OC01NTAwLTYwNTAtMDUwNy01OTgzNTk4XzExMzc4NTI3MDIwNTA3LQ&adv_sectkn=6ce7ea3978d9a0a8dbfac07e4a513a0f&adv_name=Appier,idfa_6CB2700C-E6BE-43BD-BE0D-FF0950E10D14,ja
F6e_b2egTqunNcOqAQH4xg,doglobal,920_5983598_11378527020507,install,5.5,125.15.45.70,96AA4C9B-E683-4608-9D22-A37FEBF5C2D5,1557201165,2019-05-07 11:52:45,1557202833,2019-05-07 12:20:33,1557202863,P_081596bf9e5968e2-OTIwXy0xMjI2MDI0OC01NTAwLTYwNTAtMDUwNy01OTgzNTk4XzExMzc4NTI3MDIwNTA3LQ,http://pb.xyz.duunion.com/conv?tid=P_081596bf9e5968e2-OTIwXy0xMjI2MDI0OC01NTAwLTYwNTAtMDUwNy01OTgzNTk4XzExMzc4NTI3MDIwNTA3LQ&adv_sectkn=6ce7ea3978d9a0a8dbfac07e4a513a0f&adv_name=Appier,idfa_96AA4C9B-E683-4608-9D22-A37FEBF5C2D5,ja
F6e_b2egTqunNcOqAQH4xg,doglobal,920_5983598_11378527020507,install,5.5,153.226.120.15,59142DBB-B0B1-4CD2-86E7-AC717C38B6B3,1557196486,2019-05-07 10:34:46,1557199694,2019-05-07 11:28:14,1557199725,B_fdf3da0499241332-OTIwXy0xMjI2MDI0OC01NTAwLTYwNTAtMDUwNy01OTgzNTk4XzExMzc4NTI3MDIwNTA3LQ,http://pb.xyz.duunion.com/conv?tid=B_fdf3da0499241332-OTIwXy0xMjI2MDI0OC01NTAwLTYwNTAtMDUwNy01OTgzNTk4XzExMzc4NTI3MDIwNTA3LQ&adv_sectkn=6ce7ea3978d9a0a8dbfac07e4a513a0f&adv_name=Appier,idfa_59142DBB-B0B1-4CD2-86E7-AC717C38B6B3,ja
F6e_b2egTqunNcOqAQH4xg,doglobal,920_5983598_11378527020507,install,5.5,157.14.180.116,5F40F473-F028-4DA3-BE59-B8FEF157C73A,1557192316,2019-05-07 09:25:16,1557193854,2019-05-07 09:50:54,1557193884,P_20647c281c2e5bee-OTIwXy0xMjI2MDI0OC01NTAwLTYwNTAtMDUwNy01OTgzNTk4XzExMzc4NTI3MDIwNTA3LQ,http://pb.xyz.duunion.com/conv?tid=P_20647c281c2e5bee-OTIwXy0xMjI2MDI0OC01NTAwLTYwNTAtMDUwNy01OTgzNTk4XzExMzc4NTI3MDIwNTA3LQ&adv_sectkn=6ce7ea3978d9a0a8dbfac07e4a513a0f&adv_name=Appier,idfa_5F40F473-F028-4DA3-BE59-B8FEF157C73A,ja
F6e_b2egTqunNcOqAQH4xg,doglobal,920_5983598_11378527020507,install,5.5,211.5.246.83,1EEF4965-C427-4211-A560-49C950B4DAF0,1557193248,2019-05-07 09:40:48,1557194952,2019-05-07 10:09:12,1557194982,P_c4344e8ea779da39-OTIwXy0xMjI2MDI0OC01NTAwLTYwNTAtMDUwNy01OTgzNTk4XzExMzc4NTI3MDIwNTA3LQ,http://pb.xyz.duunion.com/conv?tid=P_c4344e8ea779da39-OTIwXy0xMjI2MDI0OC01NTAwLTYwNTAtMDUwNy01OTgzNTk4XzExMzc4NTI3MDIwNTA3LQ&adv_sectkn=6ce7ea3978d9a0a8dbfac07e4a513a0f&adv_name=Appier,idfa_1EEF4965-C427-4211-A560-49C950B4DAF0,ja
F6e_b2egTqunNcOqAQH4xg,doglobal,920_5983598_11378527020507,install,5.5,153.211.27.237,F00F4CC4-F42A-4805-BBC8-8603E1817F29,1557192847,2019-05-07 09:34:07,1557196355,2019-05-07 10:32:35,1557196386,P_b1ec4be21c9a9fe9-OTIwXy0xMjI2MDI0OC01NTAwLTYwNTAtMDUwNy01OTgzNTk4XzExMzc4NTI3MDIwNTA3LQ,http://pb.xyz.duunion.com/conv?tid=P_b1ec4be21c9a9fe9-OTIwXy0xMjI2MDI0OC01NTAwLTYwNTAtMDUwNy01OTgzNTk4XzExMzc4NTI3MDIwNTA3LQ&adv_sectkn=6ce7ea3978d9a0a8dbfac07e4a513a0f&adv_name=Appier,idfa_F00F4CC4-F42A-4805-BBC8-8603E1817F29,ja
F6e_b2egTqunNcOqAQH4xg,doglobal,920_5983598_11378527020507,install,5.5,180.198.36.95,95D11D44-A619-4D75-AF30-5689E6D61FB8,1557195789,2019-05-07 10:23:09,1557196563,2019-05-07 10:36:03,1557196593,P_0bdffe126d9f0204-OTIwXy0xMjI2MDI0OC01NTAwLTYwNTAtMDUwNy01OTgzNTk4XzExMzc4NTI3MDIwNTA3LQ,http://pb.xyz.duunion.com/conv?tid=P_0bdffe126d9f0204-OTIwXy0xMjI2MDI0OC01NTAwLTYwNTAtMDUwNy01OTgzNTk4XzExMzc4NTI3MDIwNTA3LQ&adv_sectkn=6ce7ea3978d9a0a8dbfac07e4a513a0f&adv_name=Appier,idfa_95D11D44-A619-4D75-AF30-5689E6D61FB8,ja
F6e_b2egTqunNcOqAQH4xg,doglobal,920_5983598_11378527020507,install,5.5,220.213.14.192,40BE6192-8E27-4205-8102-B6AF7ADFA43E,1557196505,2019-05-07 10:35:05,1557198242,2019-05-07 11:04:02,1557198272,B_308a223ebd6502d8-OTIwXy0xMjI2MDI0OC01NTAwLTYwNTAtMDUwNy01OTgzNTk4XzExMzc4NTI3MDIwNTA3LQ,http://pb.xyz.duunion.com/conv?tid=B_308a223ebd6502d8-OTIwXy0xMjI2MDI0OC01NTAwLTYwNTAtMDUwNy01OTgzNTk4XzExMzc4NTI3MDIwNTA3LQ&adv_sectkn=6ce7ea3978d9a0a8dbfac07e4a513a0f&adv_name=Appier,idfa_40BE6192-8E27-4205-8102-B6AF7ADFA43E,ja
F6e_b2egTqunNcOqAQH4xg,doglobal,920_5983598_11378527020507,install,5.5,126.28.189.13,97D677E0-673D-4377-A495-B1CB10F4B57E,1557195606,2019-05-07 10:20:06,1557195734,2019-05-07 10:22:14,1557195765,B_09a698be0a187099-OTIwXy0xMjI2MDI0OC01NTAwLTYwNTAtMDUwNy01OTgzNTk4XzExMzc4NTI3MDIwNTA3LQ,http://pb.xyz.duunion.com/conv?tid=B_09a698be0a187099-OTIwXy0xMjI2MDI0OC01NTAwLTYwNTAtMDUwNy01OTgzNTk4XzExMzc4NTI3MDIwNTA3LQ&adv_sectkn=6ce7ea3978d9a0a8dbfac07e4a513a0f&adv_name=Appier,idfa_97D677E0-673D-4377-A495-B1CB10F4B57E,ja
F6e_b2egTqunNcOqAQH4xg,doglobal,920_5983598_11378527020507,install,5.5,60.32.133.1,C82378CD-70F7-411C-A2F0-F132E186E70F,1557196931,2019-05-07 10:42:11,1557200547,2019-05-07 11:42:27,1557200577,P_e43ebbdffb40c0df-OTIwXy0xMjI2MDI0OC01NTAwLTYwNTAtMDUwNy01OTgzNTk4XzExMzc4NTI3MDIwNTA3LQ,http://pb.xyz.duunion.com/conv?tid=P_e43ebbdffb40c0df-OTIwXy0xMjI2MDI0OC01NTAwLTYwNTAtMDUwNy01OTgzNTk4XzExMzc4NTI3MDIwNTA3LQ&adv_sectkn=6ce7ea3978d9a0a8dbfac07e4a513a0f&adv_name=Appier,idfa_C82378CD-70F7-411C-A2F0-F132E186E70F,ja
F6e_b2egTqunNcOqAQH4xg,doglobal,920_5983598_11378527020507,install,5.5,125.205.46.234,1FCFD7D5-497F-4466-A445-591645F13E86,1557191515,2019-05-07 09:11:55,1557191777,2019-05-07 09:16:17,1557191808,B_6378efd87186a38a-OTIwXy0xMjI2MDI0OC01NTAwLTYwNTAtMDUwNy01OTgzNTk4XzExMzc4NTI3MDIwNTA3LQ,http://pb.xyz.duunion.com/conv?tid=B_6378efd87186a38a-OTIwXy0xMjI2MDI0OC01NTAwLTYwNTAtMDUwNy01OTgzNTk4XzExMzc4NTI3MDIwNTA3LQ&adv_sectkn=6ce7ea3978d9a0a8dbfac07e4a513a0f&adv_name=Appier,idfa_1FCFD7D5-497F-4466-A445-591645F13E86,ja
F6e_b2egTqunNcOqAQH4xg,doglobal,920_5983598_11378527020507,install,5.5,60.96.199.123,428F9E6A-E54C-416E-80DC-FA45BF74020C,1557196791,2019-05-07 10:39:51,1557199072,2019-05-07 11:17:52,1557199102,B_87541980f3bd45a4-OTIwXy0xMjI2MDI0OC01NTAwLTYwNTAtMDUwNy01OTgzNTk4XzExMzc4NTI3MDIwNTA3LQ,http://pb.xyz.duunion.com/conv?tid=B_87541980f3bd45a4-OTIwXy0xMjI2MDI0OC01NTAwLTYwNTAtMDUwNy01OTgzNTk4XzExMzc4NTI3MDIwNTA3LQ&adv_sectkn=6ce7ea3978d9a0a8dbfac07e4a513a0f&adv_name=Appier,idfa_428F9E6A-E54C-416E-80DC-FA45BF74020C,ja
F6e_b2egTqunNcOqAQH4xg,doglobal,920_5983598_11378527020507,install,5.5,223.217.95.18,D44875F0-6675-4A08-99B4-0C60871EEF8A,1557201410,2019-05-07 11:56:50,1557204817,2019-05-07 12:53:37,1557204847,B_6cee6ffcd750811d-OTIwXy0xMjI2MDI0OC01NTAwLTYwNTAtMDUwNy01OTgzNTk4XzExMzc4NTI3MDIwNTA3LQ,http://pb.xyz.duunion.com/conv?tid=B_6cee6ffcd750811d-OTIwXy0xMjI2MDI0OC01NTAwLTYwNTAtMDUwNy01OTgzNTk4XzExMzc4NTI3MDIwNTA3LQ&adv_sectkn=6ce7ea3978d9a0a8dbfac07e4a513a0f&adv_name=Appier,idfa_D44875F0-6675-4A08-99B4-0C60871EEF8A,ja
F6e_b2egTqunNcOqAQH4xg,doglobal,920_5983598_11378527020507,install,5.5,103.5.142.121,CA447A34-FF88-4F95-A842-AD511C89991A,1557200842,2019-05-07 11:47:22,1557202418,2019-05-07 12:13:38,1557202448,B_0f22f1d0718c55ae-OTIwXy0xMjI2MDI0OC01NTAwLTYwNTAtMDUwNy01OTgzNTk4XzExMzc4NTI3MDIwNTA3LQ,http://pb.xyz.duunion.com/conv?tid=B_0f22f1d0718c55ae-OTIwXy0xMjI2MDI0OC01NTAwLTYwNTAtMDUwNy01OTgzNTk4XzExMzc4NTI3MDIwNTA3LQ&adv_sectkn=6ce7ea3978d9a0a8dbfac07e4a513a0f&adv_name=Appier,idfa_CA447A34-FF88-4F95-A842-AD511C89991A,ja
F6e_b2egTqunNcOqAQH4xg,doglobal,920_5983598_11378527020507,install,5.5,150.249.149.60,A0F2C540-1F24-481E-A0B3-DD32E1F3F7D0,1557196934,2019-05-07 10:42:14,1557200354,2019-05-07 11:39:14,1557200384,B_c679bad69b79ee37-OTIwXy0xMjI2MDI0OC01NTAwLTYwNTAtMDUwNy01OTgzNTk4XzExMzc4NTI3MDIwNTA3LQ,http://pb.xyz.duunion.com/conv?tid=B_c679bad69b79ee37-OTIwXy0xMjI2MDI0OC01NTAwLTYwNTAtMDUwNy01OTgzNTk4XzExMzc4NTI3MDIwNTA3LQ&adv_sectkn=6ce7ea3978d9a0a8dbfac07e4a513a0f&adv_name=Appier,idfa_A0F2C540-1F24-481E-A0B3-DD32E1F3F7D0,ja
F6e_b2egTqunNcOqAQH4xg,doglobal,920_5983598_11378527020507,install,5.5,124.27.46.182,30F0F724-127D-4EC3-B541-0A1FAE5E2C6F,1557190327,2019-05-07 08:52:07,1557192614,2019-05-07 09:30:14,1557192645,B_8fb0037b36678806-OTIwXy0xMjI2MDI0OC01NTAwLTYwNTAtMDUwNy01OTgzNTk4XzExMzc4NTI3MDIwNTA3LQ,http://pb.xyz.duunion.com/conv?tid=B_8fb0037b36678806-OTIwXy0xMjI2MDI0OC01NTAwLTYwNTAtMDUwNy01OTgzNTk4XzExMzc4NTI3MDIwNTA3LQ&adv_sectkn=6ce7ea3978d9a0a8dbfac07e4a513a0f&adv_name=Appier,idfa_30F0F724-127D-4EC3-B541-0A1FAE5E2C6F,ja
F6e_b2egTqunNcOqAQH4xg,doglobal,920_5983598_11378527020507,install,5.5,42.148.119.96,1CD159F6-81E3-414E-93D1-5EFCF2EB3D23,1557201826,2019-05-07 12:03:46,1557205389,2019-05-07 13:03:09,1557205419,P_e3259e6acc4ce64b-OTIwXy0xMjI2MDI0OC01NTAwLTYwNTAtMDUwNy01OTgzNTk4XzExMzc4NTI3MDIwNTA3LQ,http://pb.xyz.duunion.com/conv?tid=P_e3259e6acc4ce64b-OTIwXy0xMjI2MDI0OC01NTAwLTYwNTAtMDUwNy01OTgzNTk4XzExMzc4NTI3MDIwNTA3LQ&adv_sectkn=6ce7ea3978d9a0a8dbfac07e4a513a0f&adv_name=Appier,idfa_1CD159F6-81E3-414E-93D1-5EFCF2EB3D23,ja
F6e_b2egTqunNcOqAQH4xg,doglobal,920_5983598_11378527020507,install,5.5,58.189.34.90,9D066F24-B663-46BA-8DEB-76EF8D7BCEE5,1557189666,2019-05-07 08:41:06,1557190949,2019-05-07 09:02:29,1557190979,P_6b37f8079d2f5a75-OTIwXy0xMjI2MDI0OC01NTAwLTYwNTAtMDUwNy01OTgzNTk4XzExMzc4NTI3MDIwNTA3LQ,http://pb.xyz.duunion.com/conv?tid=P_6b37f8079d2f5a75-OTIwXy0xMjI2MDI0OC01NTAwLTYwNTAtMDUwNy01OTgzNTk4XzExMzc4NTI3MDIwNTA3LQ&adv_sectkn=6ce7ea3978d9a0a8dbfac07e4a513a0f&adv_name=Appier,idfa_9D066F24-B663-46BA-8DEB-76EF8D7BCEE5,ja
F6e_b2egTqunNcOqAQH4xg,doglobal,920_5983598_11378527020507,install,5.5,27.85.121.64,43DDA9B0-7052-4AD0-A226-B078EE0FF736,1557195850,2019-05-07 10:24:10,1557197415,2019-05-07 10:50:15,1557197445,P_e00f9d2eb09750cd-OTIwXy0xMjI2MDI0OC01NTAwLTYwNTAtMDUwNy01OTgzNTk4XzExMzc4NTI3MDIwNTA3LQ,http://pb.xyz.duunion.com/conv?tid=P_e00f9d2eb09750cd-OTIwXy0xMjI2MDI0OC01NTAwLTYwNTAtMDUwNy01OTgzNTk4XzExMzc4NTI3MDIwNTA3LQ&adv_sectkn=6ce7ea3978d9a0a8dbfac07e4a513a0f&adv_name=Appier,idfa_43DDA9B0-7052-4AD0-A226-B078EE0FF736,ja
F6e_b2egTqunNcOqAQH4xg,doglobal,920_5983598_11378527020507,install,5.5,124.32.132.238,F30C8CD1-2A90-4C7E-B803-5483D006C4F4,1557200991,2019-05-07 11:49:51,1557203910,2019-05-07 12:38:30,1557203940,B_33f11f72b73feac4-OTIwXy0xMjI2MDI0OC01NTAwLTYwNTAtMDUwNy01OTgzNTk4XzExMzc4NTI3MDIwNTA3LQ,http://pb.xyz.duunion.com/conv?tid=B_33f11f72b73feac4-OTIwXy0xMjI2MDI0OC01NTAwLTYwNTAtMDUwNy01OTgzNTk4XzExMzc4NTI3MDIwNTA3LQ&adv_sectkn=6ce7ea3978d9a0a8dbfac07e4a513a0f&adv_name=Appier,idfa_F30C8CD1-2A90-4C7E-B803-5483D006C4F4,ja
F6e_b2egTqunNcOqAQH4xg,doglobal,920_5983598_11378527020507,install,5.5,60.34.5.58,6F63A843-BF64-44D0-913D-CE82ACFF8483,1557201853,2019-05-07 12:04:13,1557203072,2019-05-07 12:24:32,1557203102,P_9c497682ffbd686e-OTIwXy0xMjI2MDI0OC01NTAwLTYwNTAtMDUwNy01OTgzNTk4XzExMzc4NTI3MDIwNTA3LQ,http://pb.xyz.duunion.com/conv?tid=P_9c497682ffbd686e-OTIwXy0xMjI2MDI0OC01NTAwLTYwNTAtMDUwNy01OTgzNTk4XzExMzc4NTI3MDIwNTA3LQ&adv_sectkn=6ce7ea3978d9a0a8dbfac07e4a513a0f&adv_name=Appier,idfa_6F63A843-BF64-44D0-913D-CE82ACFF8483,ja
F6e_b2egTqunNcOqAQH4xg,doglobal,920_5983598_11378527020507,install,5.5,126.197.35.179,030F8FF0-5925-4F0D-B769-ADCCCBDC6F0E,1557198681,2019-05-07 11:11:21,1557201198,2019-05-07 11:53:18,1557201228,B_831dc3a8fcf7cc44-OTIwXy0xMjI2MDI0OC01NTAwLTYwNTAtMDUwNy01OTgzNTk4XzExMzc4NTI3MDIwNTA3LQ,http://pb.xyz.duunion.com/conv?tid=B_831dc3a8fcf7cc44-OTIwXy0xMjI2MDI0OC01NTAwLTYwNTAtMDUwNy01OTgzNTk4XzExMzc4NTI3MDIwNTA3LQ&adv_sectkn=6ce7ea3978d9a0a8dbfac07e4a513a0f&adv_name=Appier,idfa_030F8FF0-5925-4F0D-B769-ADCCCBDC6F0E,ja
F6e_b2egTqunNcOqAQH4xg,doglobal,920_5983598_11378527020507,install,5.5,114.164.179.73,23E0D1ED-9A13-47D0-A1C1-F320039047EC,1557200708,2019-05-07 11:45:08,1557204120,2019-05-07 12:42:00,1557204150,P_2c570be243093746-OTIwXy0xMjI2MDI0OC01NTAwLTYwNTAtMDUwNy01OTgzNTk4XzExMzc4NTI3MDIwNTA3LQ,http://pb.xyz.duunion.com/conv?tid=P_2c570be243093746-OTIwXy0xMjI2MDI0OC01NTAwLTYwNTAtMDUwNy01OTgzNTk4XzExMzc4NTI3MDIwNTA3LQ&adv_sectkn=6ce7ea3978d9a0a8dbfac07e4a513a0f&adv_name=Appier,idfa_23E0D1ED-9A13-47D0-A1C1-F320039047EC,ja
F6e_b2egTqunNcOqAQH4xg,doglobal,920_5983598_11378527020507,install,5.5,14.133.112.111,3FF19084-DF4B-47F9-B56F-237ABFC9B45E,1557201404,2019-05-07 11:56:44,1557204975,2019-05-07 12:56:15,1557205005,P_d09e2ed2786f1d2a-OTIwXy0xMjI2MDI0OC01NTAwLTYwNTAtMDUwNy01OTgzNTk4XzExMzc4NTI3MDIwNTA3LQ,http://pb.xyz.duunion.com/conv?tid=P_d09e2ed2786f1d2a-OTIwXy0xMjI2MDI0OC01NTAwLTYwNTAtMDUwNy01OTgzNTk4XzExMzc4NTI3MDIwNTA3LQ&adv_sectkn=6ce7ea3978d9a0a8dbfac07e4a513a0f&adv_name=Appier,idfa_3FF19084-DF4B-47F9-B56F-237ABFC9B45E,ja
F6e_b2egTqunNcOqAQH4xg,doglobal,920_5983598_11378527020507,install,5.5,180.4.61.84,ED6C991B-29B6-4AE8-A3FE-2D89EA106E07,1557194364,2019-05-07 09:59:24,1557195525,2019-05-07 10:18:45,1557195555,P_2872092f6079c0dc-OTIwXy0xMjI2MDI0OC01NTAwLTYwNTAtMDUwNy01OTgzNTk4XzExMzc4NTI3MDIwNTA3LQ,http://pb.xyz.duunion.com/conv?tid=P_2872092f6079c0dc-OTIwXy0xMjI2MDI0OC01NTAwLTYwNTAtMDUwNy01OTgzNTk4XzExMzc4NTI3MDIwNTA3LQ&adv_sectkn=6ce7ea3978d9a0a8dbfac07e4a513a0f&adv_name=Appier,idfa_ED6C991B-29B6-4AE8-A3FE-2D89EA106E07,ja
F6e_b2egTqunNcOqAQH4xg,doglobal,920_5983598_11378527020507,install,5.5,60.101.67.9,6DB145F1-A7F0-4088-A70A-86F537005F84,1557193592,2019-05-07 09:46:32,1557196149,2019-05-07 10:29:09,1557196179,B_b10aa66ee4e90fe7-OTIwXy0xMjI2MDI0OC01NTAwLTYwNTAtMDUwNy01OTgzNTk4XzExMzc4NTI3MDIwNTA3LQ,http://pb.xyz.duunion.com/conv?tid=B_b10aa66ee4e90fe7-OTIwXy0xMjI2MDI0OC01NTAwLTYwNTAtMDUwNy01OTgzNTk4XzExMzc4NTI3MDIwNTA3LQ&adv_sectkn=6ce7ea3978d9a0a8dbfac07e4a513a0f&adv_name=Appier,idfa_6DB145F1-A7F0-4088-A70A-86F537005F84,ja
F6e_b2egTqunNcOqAQH4xg,doglobal,920_5983598_11378527020507,install,5.5,65.99.15.157,C5D107F0-541E-4E39-B322-B1D24A2F8BBC,1557201381,2019-05-07 11:56:21,1557203703,2019-05-07 12:35:03,1557203734,B_d469c084545a4c21-OTIwXy0xMjI2MDI0OC01NTAwLTYwNTAtMDUwNy01OTgzNTk4XzExMzc4NTI3MDIwNTA3LQ,http://pb.xyz.duunion.com/conv?tid=B_d469c084545a4c21-OTIwXy0xMjI2MDI0OC01NTAwLTYwNTAtMDUwNy01OTgzNTk4XzExMzc4NTI3MDIwNTA3LQ&adv_sectkn=6ce7ea3978d9a0a8dbfac07e4a513a0f&adv_name=Appier,idfa_C5D107F0-541E-4E39-B322-B1D24A2F8BBC,ja
F6e_b2egTqunNcOqAQH4xg,doglobal,920_5983598_11378527020507,install,5.5,60.42.116.114,2A1AF6C7-53A7-4ECE-B034-2C791767B628,1557201927,2019-05-07 12:05:27,1557205182,2019-05-07 12:59:42,1557205212,B_d96896f3657b142e-OTIwXy0xMjI2MDI0OC01NTAwLTYwNTAtMDUwNy01OTgzNTk4XzExMzc4NTI3MDIwNTA3LQ,http://pb.xyz.duunion.com/conv?tid=B_d96896f3657b142e-OTIwXy0xMjI2MDI0OC01NTAwLTYwNTAtMDUwNy01OTgzNTk4XzExMzc4NTI3MDIwNTA3LQ&adv_sectkn=6ce7ea3978d9a0a8dbfac07e4a513a0f&adv_name=Appier,idfa_2A1AF6C7-53A7-4ECE-B034-2C791767B628,ja
F6e_b2egTqunNcOqAQH4xg,doglobal,920_5983598_11378527020507,install,5.5,121.116.58.224,3C0BA8E4-FE17-482A-BBB0-712ABD820CB9,1557189592,2019-05-07 08:39:52,1557189665,2019-05-07 08:41:05,1557189695,B_afe908074a9623e7-OTIwXy0xMjI2MDI0OC01NTAwLTYwNTAtMDUwNy01OTgzNTk4XzExMzc4NTI3MDIwNTA3LQ,http://pb.xyz.duunion.com/conv?tid=B_afe908074a9623e7-OTIwXy0xMjI2MDI0OC01NTAwLTYwNTAtMDUwNy01OTgzNTk4XzExMzc4NTI3MDIwNTA3LQ&adv_sectkn=6ce7ea3978d9a0a8dbfac07e4a513a0f&adv_name=Appier,idfa_3C0BA8E4-FE17-482A-BBB0-712ABD820CB9,ja
F6e_b2egTqunNcOqAQH4xg,doglobal,920_5983598_11378527020507,install,5.5,223.134.247.58,F581B387-C5D3-4C06-A80D-EB42178DA988,1557201690,2019-05-07 12:01:30,1557203282,2019-05-07 12:28:02,1557203312,B_eef152add708de04-OTIwXy0xMjI2MDI0OC01NTAwLTYwNTAtMDUwNy01OTgzNTk4XzExMzc4NTI3MDIwNTA3LQ,http://pb.xyz.duunion.com/conv?tid=B_eef152add708de04-OTIwXy0xMjI2MDI0OC01NTAwLTYwNTAtMDUwNy01OTgzNTk4XzExMzc4NTI3MDIwNTA3LQ&adv_sectkn=6ce7ea3978d9a0a8dbfac07e4a513a0f&adv_name=Appier,idfa_F581B387-C5D3-4C06-A80D-EB42178DA988,ja
F6e_b2egTqunNcOqAQH4xg,doglobal,920_5983598_11378527020507,install,5.5,211.15.242.193,CC8BFB5D-263B-4393-A034-106EF5C56287,1557189772,2019-05-07 08:42:52,1557191141,2019-05-07 09:05:41,1557191171,P_3351744f868bbea6-OTIwXy0xMjI2MDI0OC01NTAwLTYwNTAtMDUwNy01OTgzNTk4XzExMzc4NTI3MDIwNTA3LQ,http://pb.xyz.duunion.com/conv?tid=P_3351744f868bbea6-OTIwXy0xMjI2MDI0OC01NTAwLTYwNTAtMDUwNy01OTgzNTk4XzExMzc4NTI3MDIwNTA3LQ&adv_sectkn=6ce7ea3978d9a0a8dbfac07e4a513a0f&adv_name=Appier,idfa_CC8BFB5D-263B-4393-A034-106EF5C56287,ja
F6e_b2egTqunNcOqAQH4xg,doglobal,920_5983598_11378527020507,install,5.5,202.240.109.135,A09E7D5D-147C-45B1-B195-F8641B1DC2D4,1557197522,2019-05-07 10:52:02,1557197844,2019-05-07 10:57:24,1557197875,P_971508f45d749646-OTIwXy0xMjI2MDI0OC01NTAwLTYwNTAtMDUwNy01OTgzNTk4XzExMzc4NTI3MDIwNTA3LQ,http://pb.xyz.duunion.com/conv?tid=P_971508f45d749646-OTIwXy0xMjI2MDI0OC01NTAwLTYwNTAtMDUwNy01OTgzNTk4XzExMzc4NTI3MDIwNTA3LQ&adv_sectkn=6ce7ea3978d9a0a8dbfac07e4a513a0f&adv_name=Appier,idfa_A09E7D5D-147C-45B1-B195-F8641B1DC2D4,ja
F6e_b2egTqunNcOqAQH4xg,doglobal,920_5983598_11378527020507,install,5.5,222.229.5.146,40DF1589-8E5E-4D5E-B8B1-831E1E82E766,1557197535,2019-05-07 10:52:15,1557198036,2019-05-07 11:00:36,1557198066,B_b3952533499681e8-OTIwXy0xMjI2MDI0OC01NTAwLTYwNTAtMDUwNy01OTgzNTk4XzExMzc4NTI3MDIwNTA3LQ,http://pb.xyz.duunion.com/conv?tid=B_b3952533499681e8-OTIwXy0xMjI2MDI0OC01NTAwLTYwNTAtMDUwNy01OTgzNTk4XzExMzc4NTI3MDIwNTA3LQ&adv_sectkn=6ce7ea3978d9a0a8dbfac07e4a513a0f&adv_name=Appier,idfa_40DF1589-8E5E-4D5E-B8B1-831E1E82E766,ja
F6e_b2egTqunNcOqAQH4xg,doglobal,920_5983598_11378527020507,install,5.5,122.25.249.250,B2CC18A2-DBCB-4B8D-870B-EC248D4BE34D,1557199063,2019-05-07 11:17:43,1557199278,2019-05-07 11:21:18,1557199308,P_4b75a46a63069d88-OTIwXy0xMjI2MDI0OC01NTAwLTYwNTAtMDUwNy01OTgzNTk4XzExMzc4NTI3MDIwNTA3LQ,http://pb.xyz.duunion.com/conv?tid=P_4b75a46a63069d88-OTIwXy0xMjI2MDI0OC01NTAwLTYwNTAtMDUwNy01OTgzNTk4XzExMzc4NTI3MDIwNTA3LQ&adv_sectkn=6ce7ea3978d9a0a8dbfac07e4a513a0f&adv_name=Appier,idfa_B2CC18A2-DBCB-4B8D-870B-EC248D4BE34D,ja
F6e_b2egTqunNcOqAQH4xg,doglobal,920_5983598_11378527020507,install,5.5,175.131.74.67,B2596C7A-041E-4246-9D45-B685948A8744,1557190705,2019-05-07 08:58:25,1557191974,2019-05-07 09:19:34,1557192004,P_f08fa7bceb7e63dd-OTIwXy0xMjI2MDI0OC01NTAwLTYwNTAtMDUwNy01OTgzNTk4XzExMzc4NTI3MDIwNTA3LQ,http://pb.xyz.duunion.com/conv?tid=P_f08fa7bceb7e63dd-OTIwXy0xMjI2MDI0OC01NTAwLTYwNTAtMDUwNy01OTgzNTk4XzExMzc4NTI3MDIwNTA3LQ&adv_sectkn=6ce7ea3978d9a0a8dbfac07e4a513a0f&adv_name=Appier,idfa_B2596C7A-041E-4246-9D45-B685948A8744,ja
F6e_b2egTqunNcOqAQH4xg,doglobal,920_5983598_11378527020507,install,5.5,198.144.140.221,9BD1E4AA-5C43-4DDF-925A-FF94871D669C,1557190399,2019-05-07 08:53:19,1557191352,2019-05-07 09:09:12,1557191472,P_0c14bfb0a6eb18ae-OTIwXy0xMjI2MDI0OC01NTAwLTYwNTAtMDUwNy01OTgzNTk4XzExMzc4NTI3MDIwNTA3LQ,http://pb.xyz.duunion.com/conv?tid=P_0c14bfb0a6eb18ae-OTIwXy0xMjI2MDI0OC01NTAwLTYwNTAtMDUwNy01OTgzNTk4XzExMzc4NTI3MDIwNTA3LQ&adv_sectkn=6ce7ea3978d9a0a8dbfac07e4a513a0f&adv_name=Appier,idfa_9BD1E4AA-5C43-4DDF-925A-FF94871D669C,ja
F6e_b2egTqunNcOqAQH4xg,doglobal,920_5983598_11378527020507,install,5.5,60.39.213.237,85C07F4E-6F35-42B8-AA40-EF83C927B413,1557198968,2019-05-07 11:16:08,1557199920,2019-05-07 11:32:00,1557199950,P_4b7a717860c6404d-OTIwXy0xMjI2MDI0OC01NTAwLTYwNTAtMDUwNy01OTgzNTk4XzExMzc4NTI3MDIwNTA3LQ,http://pb.xyz.duunion.com/conv?tid=P_4b7a717860c6404d-OTIwXy0xMjI2MDI0OC01NTAwLTYwNTAtMDUwNy01OTgzNTk4XzExMzc4NTI3MDIwNTA3LQ&adv_sectkn=6ce7ea3978d9a0a8dbfac07e4a513a0f&adv_name=Appier,idfa_85C07F4E-6F35-42B8-AA40-EF83C927B413,ja
F6e_b2egTqunNcOqAQH4xg,doglobal,920_5983598_11378527020507,install,5.5,58.70.64.164,12CF5498-05C7-4C8D-882C-C004151F1317,1557191173,2019-05-07 09:06:13,1557191619,2019-05-07 09:13:39,1557191649,P_a1d5ab098ced82a5-OTIwXy0xMjI2MDI0OC01NTAwLTYwNTAtMDUwNy01OTgzNTk4XzExMzc4NTI3MDIwNTA3LQ,http://pb.xyz.duunion.com/conv?tid=P_a1d5ab098ced82a5-OTIwXy0xMjI2MDI0OC01NTAwLTYwNTAtMDUwNy01OTgzNTk4XzExMzc4NTI3MDIwNTA3LQ&adv_sectkn=6ce7ea3978d9a0a8dbfac07e4a513a0f&adv_name=Appier,idfa_12CF5498-05C7-4C8D-882C-C004151F1317,ja
F6e_b2egTqunNcOqAQH4xg,doglobal,920_5983598_11378527020507,install,5.5,221.187.134.101,9DDB066E-D149-4E32-9C11-CF142B34387B,1557196290,2019-05-07 10:31:30,1557197633,2019-05-07 10:53:53,1557197663,B_4899ca452b5ae6ed-OTIwXy0xMjI2MDI0OC01NTAwLTYwNTAtMDUwNy01OTgzNTk4XzExMzc4NTI3MDIwNTA3LQ,http://pb.xyz.duunion.com/conv?tid=B_4899ca452b5ae6ed-OTIwXy0xMjI2MDI0OC01NTAwLTYwNTAtMDUwNy01OTgzNTk4XzExMzc4NTI3MDIwNTA3LQ&adv_sectkn=6ce7ea3978d9a0a8dbfac07e4a513a0f&adv_name=Appier,idfa_9DDB066E-D149-4E32-9C11-CF142B34387B,ja
F6e_b2egTqunNcOqAQH4xg,doglobal,920_5983598_11378527020507,install,5.5,114.180.105.49,7CB9F9DF-E1CA-4B75-A104-58F8CDA4A6FE,1557200455,2019-05-07 11:40:55,1557202223,2019-05-07 12:10:23,1557202253,P_5652f7468d7c0dc4-OTIwXy0xMjI2MDI0OC01NTAwLTYwNTAtMDUwNy01OTgzNTk4XzExMzc4NTI3MDIwNTA3LQ,http://pb.xyz.duunion.com/conv?tid=P_5652f7468d7c0dc4-OTIwXy0xMjI2MDI0OC01NTAwLTYwNTAtMDUwNy01OTgzNTk4XzExMzc4NTI3MDIwNTA3LQ&adv_sectkn=6ce7ea3978d9a0a8dbfac07e4a513a0f&adv_name=Appier,idfa_7CB9F9DF-E1CA-4B75-A104-58F8CDA4A6FE,ja
F6e_b2egTqunNcOqAQH4xg,doglobal,920_5983598_11378527020507,install,5.5,120.88.51.98,FCE35826-211F-4AC5-9897-563E0FCCBEE5,1557201276,2019-05-07 11:54:36,1557202000,2019-05-07 12:06:40,1557202030,P_7c154d218ec235ea-OTIwXy0xMjI2MDI0OC01NTAwLTYwNTAtMDUwNy01OTgzNTk4XzExMzc4NTI3MDIwNTA3LQ,http://pb.xyz.duunion.com/conv?tid=P_7c154d218ec235ea-OTIwXy0xMjI2MDI0OC01NTAwLTYwNTAtMDUwNy01OTgzNTk4XzExMzc4NTI3MDIwNTA3LQ&adv_sectkn=6ce7ea3978d9a0a8dbfac07e4a513a0f&adv_name=Appier,idfa_FCE35826-211F-4AC5-9897-563E0FCCBEE5,ja
F6e_b2egTqunNcOqAQH4xg,doglobal,920_5983598_11378527020507,install,5.5,61.24.71.70,7863C049-CFDA-4C33-BE2D-03B72FB0D600,1557192683,2019-05-07 09:31:23,1557192826,2019-05-07 09:33:46,1557192856,B_1265e9682fdc2b3d-OTIwXy0xMjI2MDI0OC01NTAwLTYwNTAtMDUwNy01OTgzNTk4XzExMzc4NTI3MDIwNTA3LQ,http://pb.xyz.duunion.com/conv?tid=B_1265e9682fdc2b3d-OTIwXy0xMjI2MDI0OC01NTAwLTYwNTAtMDUwNy01OTgzNTk4XzExMzc4NTI3MDIwNTA3LQ&adv_sectkn=6ce7ea3978d9a0a8dbfac07e4a513a0f&adv_name=Appier,idfa_7863C049-CFDA-4C33-BE2D-03B72FB0D600,ja
F6e_b2egTqunNcOqAQH4xg,doglobal,920_5983598_11378527020507,install,5.5,27.141.218.26,CCC069D9-3F5B-4A11-B2A8-EBFC1F0DA57A,1557192817,2019-05-07 09:33:37,1557193646,2019-05-07 09:47:26,1557193676,P_e017627558cddb23-OTIwXy0xMjI2MDI0OC01NTAwLTYwNTAtMDUwNy01OTgzNTk4XzExMzc4NTI3MDIwNTA3LQ,http://pb.xyz.duunion.com/conv?tid=P_e017627558cddb23-OTIwXy0xMjI2MDI0OC01NTAwLTYwNTAtMDUwNy01OTgzNTk4XzExMzc4NTI3MDIwNTA3LQ&adv_sectkn=6ce7ea3978d9a0a8dbfac07e4a513a0f&adv_name=Appier,idfa_CCC069D9-3F5B-4A11-B2A8-EBFC1F0DA57A,ja
F6e_b2egTqunNcOqAQH4xg,doglobal,920_5983598_11378527020507,install,5.5,114.149.169.3,EBD5C2E9-31D5-430D-9F83-2F768BF5F852,1557201576,2019-05-07 11:59:36,1557202625,2019-05-07 12:17:05,1557202655,P_0b87931354f4bd8a-OTIwXy0xMjI2MDI0OC01NTAwLTYwNTAtMDUwNy01OTgzNTk4XzExMzc4NTI3MDIwNTA3LQ,http://pb.xyz.duunion.com/conv?tid=P_0b87931354f4bd8a-OTIwXy0xMjI2MDI0OC01NTAwLTYwNTAtMDUwNy01OTgzNTk4XzExMzc4NTI3MDIwNTA3LQ&adv_sectkn=6ce7ea3978d9a0a8dbfac07e4a513a0f&adv_name=Appier,idfa_EBD5C2E9-31D5-430D-9F83-2F768BF5F852,ja
F6e_b2egTqunNcOqAQH4xg,doglobal,920_5983598_11378527020507,install,5.5,118.104.109.67,1F90E8CB-826D-499F-9E21-E3E10E5865B1,1557193838,2019-05-07 09:50:38,1557194273,2019-05-07 09:57:53,1557194303,B_f0a9d4678d3baf1a-OTIwXy0xMjI2MDI0OC01NTAwLTYwNTAtMDUwNy01OTgzNTk4XzExMzc4NTI3MDIwNTA3LQ,http://pb.xyz.duunion.com/conv?tid=B_f0a9d4678d3baf1a-OTIwXy0xMjI2MDI0OC01NTAwLTYwNTAtMDUwNy01OTgzNTk4XzExMzc4NTI3MDIwNTA3LQ&adv_sectkn=6ce7ea3978d9a0a8dbfac07e4a513a0f&adv_name=Appier,idfa_1F90E8CB-826D-499F-9E21-E3E10E5865B1,ja
