cid,partner_id,channel_id,action_id,cpi,ip,idfa,click time,click datetime,install time,install datetime,postback time,click id,postback url,unique user id
y1079lpARO24DZvfoVzP0w,doglobal_api,784_5308,install,1.3,112.158.95.115,5AD2C0E9-314F-43D0-8F50-2FA4DFC4649E,1556789065,2019-05-02 17:24:25,1556789221,2019-05-02 17:27:01,1556789252,B_c10978c49677fe62-Nzg0Xy0xMzc5OTc0Ny0xMzAwLTEzMDAtMDUwMi0tNTMwOA,http://pb.xyz.duunion.com/conv?tid=B_c10978c49677fe62-Nzg0Xy0xMzc5OTc0Ny0xMzAwLTEzMDAtMDUwMi0tNTMwOA&adv_sectkn=55dea06a643eb8a2d267a735fe2683bd&adv_name=appier-api&payout=1.3,idfa_5AD2C0E9-314F-43D0-8F50-2FA4DFC4649E,ko
y1079lpARO24DZvfoVzP0w,doglobal_api,784_5308,install,1.3,218.52.80.123,879DA08F-9929-4A06-8336-659FABB395A9,1556790179,2019-05-02 17:42:59,1556790333,2019-05-02 17:45:33,1556790364,P_727b83ca0a14458b-Nzg0Xy0xMzc5OTc0Ny0xMzAwLTEzMDAtMDUwMi0tNTMwOA,http://pb.xyz.duunion.com/conv?tid=P_727b83ca0a14458b-Nzg0Xy0xMzc5OTc0Ny0xMzAwLTEzMDAtMDUwMi0tNTMwOA&adv_sectkn=55dea06a643eb8a2d267a735fe2683bd&adv_name=appier-api&payout=1.3,idfa_879DA08F-9929-4A06-8336-659FABB395A9,ko
y1079lpARO24DZvfoVzP0w,doglobal_api,784_5308,install,1.3,119.194.129.146,90E34D63-EC27-46DB-8DCD-B247F6C461CF,1556790197,2019-05-02 17:43:17,1556790359,2019-05-02 17:45:59,1556790390,B_aeebe0f5bf09b569-Nzg0Xy0xMzc5OTc0Ny0xMzAwLTEzMDAtMDUwMi0tNTMwOA,http://pb.xyz.duunion.com/conv?tid=B_aeebe0f5bf09b569-Nzg0Xy0xMzc5OTc0Ny0xMzAwLTEzMDAtMDUwMi0tNTMwOA&adv_sectkn=55dea06a643eb8a2d267a735fe2683bd&adv_name=appier-api&payout=1.3,idfa_90E34D63-EC27-46DB-8DCD-B247F6C461CF,ko
y1079lpARO24DZvfoVzP0w,doglobal_api,784_5308,install,1.3,61.253.32.118,D8DB6585-71FD-4492-B950-0C8F59FA2A76,1556789162,2019-05-02 17:26:02,1556789324,2019-05-02 17:28:44,1556789354,P_dad3eddae90d7975-Nzg0Xy0xMzc5OTc0Ny0xMzAwLTEzMDAtMDUwMi0tNTMwOA,http://pb.xyz.duunion.com/conv?tid=P_dad3eddae90d7975-Nzg0Xy0xMzc5OTc0Ny0xMzAwLTEzMDAtMDUwMi0tNTMwOA&adv_sectkn=55dea06a643eb8a2d267a735fe2683bd&adv_name=appier-api&payout=1.3,idfa_D8DB6585-71FD-4492-B950-0C8F59FA2A76,ko
y1079lpARO24DZvfoVzP0w,doglobal_api,784_5308,install,1.3,175.119.151.230,1B0362D8-1578-4FDA-B32F-621A4639367C,1556790212,2019-05-02 17:43:32,1556790367,2019-05-02 17:46:07,1556790398,P_a2c5e281df9611f3-Nzg0Xy0xMzc5OTc0Ny0xMzAwLTEzMDAtMDUwMi0tNTMwOA,http://pb.xyz.duunion.com/conv?tid=P_a2c5e281df9611f3-Nzg0Xy0xMzc5OTc0Ny0xMzAwLTEzMDAtMDUwMi0tNTMwOA&adv_sectkn=55dea06a643eb8a2d267a735fe2683bd&adv_name=appier-api&payout=1.3,idfa_1B0362D8-1578-4FDA-B32F-621A4639367C,ko
y1079lpARO24DZvfoVzP0w,doglobal_api,784_5308,install,1.3,119.202.21.197,FF7FD2E8-3D8C-4D64-832B-623CA7B3BF37,1556789589,2019-05-02 17:33:09,1556789743,2019-05-02 17:35:43,1556789773,B_1022508c42837ac5-Nzg0Xy0xMzc5OTc0Ny0xMzAwLTEzMDAtMDUwMi0tNTMwOA,http://pb.xyz.duunion.com/conv?tid=B_1022508c42837ac5-Nzg0Xy0xMzc5OTc0Ny0xMzAwLTEzMDAtMDUwMi0tNTMwOA&adv_sectkn=55dea06a643eb8a2d267a735fe2683bd&adv_name=appier-api&payout=1.3,idfa_FF7FD2E8-3D8C-4D64-832B-623CA7B3BF37,ko
y1079lpARO24DZvfoVzP0w,doglobal_api,784_5308,install,1.3,218.233.119.31,966A3823-B5D7-40F4-83BE-2230339436DD,1556790801,2019-05-02 17:53:21,1556790947,2019-05-02 17:55:47,1556790977,P_a46526f4c7c533ec-Nzg0Xy0xMzc5OTc0Ny0xMzAwLTEzMDAtMDUwMi0tNTMwOA,http://pb.xyz.duunion.com/conv?tid=P_a46526f4c7c533ec-Nzg0Xy0xMzc5OTc0Ny0xMzAwLTEzMDAtMDUwMi0tNTMwOA&adv_sectkn=55dea06a643eb8a2d267a735fe2683bd&adv_name=appier-api&payout=1.3,idfa_966A3823-B5D7-40F4-83BE-2230339436DD,ko
y1079lpARO24DZvfoVzP0w,doglobal_api,784_5308,install,1.3,211.202.70.113,A5AC7DBE-2681-4BCA-9E68-1E0CEB023453,1556789572,2019-05-02 17:32:52,1556789720,2019-05-02 17:35:20,1556789750,P_1d22ebc825148693-Nzg0Xy0xMzc5OTc0Ny0xMzAwLTEzMDAtMDUwMi0tNTMwOA,http://pb.xyz.duunion.com/conv?tid=P_1d22ebc825148693-Nzg0Xy0xMzc5OTc0Ny0xMzAwLTEzMDAtMDUwMi0tNTMwOA&adv_sectkn=55dea06a643eb8a2d267a735fe2683bd&adv_name=appier-api&payout=1.3,idfa_A5AC7DBE-2681-4BCA-9E68-1E0CEB023453,ko
y1079lpARO24DZvfoVzP0w,doglobal_api,784_5308,install,1.3,220.71.13.82,CE474BB8-01FB-47AA-8926-84D3B1A0E290,1556789586,2019-05-02 17:33:06,1556789751,2019-05-02 17:35:51,1556789781,P_221e1686211c0f42-Nzg0Xy0xMzc5OTc0Ny0xMzAwLTEzMDAtMDUwMi0tNTMwOA,http://pb.xyz.duunion.com/conv?tid=P_221e1686211c0f42-Nzg0Xy0xMzc5OTc0Ny0xMzAwLTEzMDAtMDUwMi0tNTMwOA&adv_sectkn=55dea06a643eb8a2d267a735fe2683bd&adv_name=appier-api&payout=1.3,idfa_CE474BB8-01FB-47AA-8926-84D3B1A0E290,ko
y1079lpARO24DZvfoVzP0w,doglobal_api,784_5308,install,1.3,122.199.121.83,A9FAE836-1645-47CB-BABE-2201730DD700,1556790596,2019-05-02 17:49:56,1556790745,2019-05-02 17:52:25,1556790776,B_e8710fd5e9971ead-Nzg0Xy0xMzc5OTc0Ny0xMzAwLTEzMDAtMDUwMi0tNTMwOA,http://pb.xyz.duunion.com/conv?tid=B_e8710fd5e9971ead-Nzg0Xy0xMzc5OTc0Ny0xMzAwLTEzMDAtMDUwMi0tNTMwOA&adv_sectkn=55dea06a643eb8a2d267a735fe2683bd&adv_name=appier-api&payout=1.3,idfa_A9FAE836-1645-47CB-BABE-2201730DD700,ko
y1079lpARO24DZvfoVzP0w,doglobal_api,784_5308,install,1.3,112.144.13.47,2019AD4D-279C-44E2-8276-881253CA76AE,1556788964,2019-05-02 17:22:44,1556789120,2019-05-02 17:25:20,1556789150,P_d8a773f38c299784-Nzg0Xy0xMzc5OTc0Ny0xMzAwLTEzMDAtMDUwMi0tNTMwOA,http://pb.xyz.duunion.com/conv?tid=P_d8a773f38c299784-Nzg0Xy0xMzc5OTc0Ny0xMzAwLTEzMDAtMDUwMi0tNTMwOA&adv_sectkn=55dea06a643eb8a2d267a735fe2683bd&adv_name=appier-api&payout=1.3,idfa_2019AD4D-279C-44E2-8276-881253CA76AE,ko
y1079lpARO24DZvfoVzP0w,doglobal_api,784_5308,install,1.3,124.60.253.34,FF6D9F9F-B72C-4817-B15C-A622188CF434,1556789688,2019-05-02 17:34:48,1556789833,2019-05-02 17:37:13,1556789863,B_cd83926de09ccf2f-Nzg0Xy0xMzc5OTc0Ny0xMzAwLTEzMDAtMDUwMi0tNTMwOA,http://pb.xyz.duunion.com/conv?tid=B_cd83926de09ccf2f-Nzg0Xy0xMzc5OTc0Ny0xMzAwLTEzMDAtMDUwMi0tNTMwOA&adv_sectkn=55dea06a643eb8a2d267a735fe2683bd&adv_name=appier-api&payout=1.3,idfa_FF6D9F9F-B72C-4817-B15C-A622188CF434,ko
y1079lpARO24DZvfoVzP0w,doglobal_api,784_5308,install,1.3,221.144.252.150,6E3E03A8-10F5-4BC6-A2FE-47801ABBA669,1556789983,2019-05-02 17:39:43,1556790133,2019-05-02 17:42:13,1556790163,P_15c1653ddb087aea-Nzg0Xy0xMzc5OTc0Ny0xMzAwLTEzMDAtMDUwMi0tNTMwOA,http://pb.xyz.duunion.com/conv?tid=P_15c1653ddb087aea-Nzg0Xy0xMzc5OTc0Ny0xMzAwLTEzMDAtMDUwMi0tNTMwOA&adv_sectkn=55dea06a643eb8a2d267a735fe2683bd&adv_name=appier-api&payout=1.3,idfa_6E3E03A8-10F5-4BC6-A2FE-47801ABBA669,ko
y1079lpARO24DZvfoVzP0w,doglobal_api,784_5308,install,1.3,175.206.175.216,E0AB8843-E772-43D7-8BA3-A433EB84B00F,1556790904,2019-05-02 17:55:04,1556791055,2019-05-02 17:57:35,1556791086,P_57c590f441cf2a6b-Nzg0Xy0xMzc5OTc0Ny0xMzAwLTEzMDAtMDUwMi0tNTMwOA,http://pb.xyz.duunion.com/conv?tid=P_57c590f441cf2a6b-Nzg0Xy0xMzc5OTc0Ny0xMzAwLTEzMDAtMDUwMi0tNTMwOA&adv_sectkn=55dea06a643eb8a2d267a735fe2683bd&adv_name=appier-api&payout=1.3,idfa_E0AB8843-E772-43D7-8BA3-A433EB84B00F,ko
y1079lpARO24DZvfoVzP0w,doglobal_api,784_5308,install,1.3,121.138.50.203,60161254-8831-42B5-89B8-5D44FC0E92C8,1556789641,2019-05-02 17:34:01,1556789940,2019-05-02 17:39:00,1556789970,P_9979522fc2895540-Nzg0Xy0xMzc5OTc0Ny0xMzAwLTEzMDAtMDUwMi0tNTMwOA,http://pb.xyz.duunion.com/conv?tid=P_9979522fc2895540-Nzg0Xy0xMzc5OTc0Ny0xMzAwLTEzMDAtMDUwMi0tNTMwOA&adv_sectkn=55dea06a643eb8a2d267a735fe2683bd&adv_name=appier-api&payout=1.3,idfa_60161254-8831-42B5-89B8-5D44FC0E92C8,ko
y1079lpARO24DZvfoVzP0w,doglobal_api,784_5308,install,1.3,1.176.130.238,D17C676D-53BC-46B7-B357-81AA8E5FAF8F,1556788957,2019-05-02 17:22:37,1556789113,2019-05-02 17:25:13,1556789144,P_75f8ca207ed9e369-Nzg0Xy0xMzc5OTc0Ny0xMzAwLTEzMDAtMDUwMi0tNTMwOA,http://pb.xyz.duunion.com/conv?tid=P_75f8ca207ed9e369-Nzg0Xy0xMzc5OTc0Ny0xMzAwLTEzMDAtMDUwMi0tNTMwOA&adv_sectkn=55dea06a643eb8a2d267a735fe2683bd&adv_name=appier-api&payout=1.3,idfa_D17C676D-53BC-46B7-B357-81AA8E5FAF8F,ko
y1079lpARO24DZvfoVzP0w,doglobal_api,784_5308,install,1.3,175.197.24.193,178AC2FC-796C-4CB6-A5F4-09557985BD03,1556789180,2019-05-02 17:26:20,1556789345,2019-05-02 17:29:05,1556789377,B_07ccbe9c59c4fbc4-Nzg0Xy0xMzc5OTc0Ny0xMzAwLTEzMDAtMDUwMi0tNTMwOA,http://pb.xyz.duunion.com/conv?tid=B_07ccbe9c59c4fbc4-Nzg0Xy0xMzc5OTc0Ny0xMzAwLTEzMDAtMDUwMi0tNTMwOA&adv_sectkn=55dea06a643eb8a2d267a735fe2683bd&adv_name=appier-api&payout=1.3,idfa_178AC2FC-796C-4CB6-A5F4-09557985BD03,ko
y1079lpARO24DZvfoVzP0w,doglobal_api,784_5308,install,1.3,116.41.221.143,0F29215B-037F-4CC3-8441-E39D190C9FE4,1556790187,2019-05-02 17:43:07,1556790348,2019-05-02 17:45:48,1556790379,B_9642d44075f451ab-Nzg0Xy0xMzc5OTc0Ny0xMzAwLTEzMDAtMDUwMi0tNTMwOA,http://pb.xyz.duunion.com/conv?tid=B_9642d44075f451ab-Nzg0Xy0xMzc5OTc0Ny0xMzAwLTEzMDAtMDUwMi0tNTMwOA&adv_sectkn=55dea06a643eb8a2d267a735fe2683bd&adv_name=appier-api&payout=1.3,idfa_0F29215B-037F-4CC3-8441-E39D190C9FE4,ko
y1079lpARO24DZvfoVzP0w,doglobal_api,784_5308,install,1.3,182.216.191.3,214AEA4F-2C9F-4009-A46B-EF7C30DB6147,1556789582,2019-05-02 17:33:02,1556789745,2019-05-02 17:35:45,1556789776,B_342e7161772f8cf0-Nzg0Xy0xMzc5OTc0Ny0xMzAwLTEzMDAtMDUwMi0tNTMwOA,http://pb.xyz.duunion.com/conv?tid=B_342e7161772f8cf0-Nzg0Xy0xMzc5OTc0Ny0xMzAwLTEzMDAtMDUwMi0tNTMwOA&adv_sectkn=55dea06a643eb8a2d267a735fe2683bd&adv_name=appier-api&payout=1.3,idfa_214AEA4F-2C9F-4009-A46B-EF7C30DB6147,ko
y1079lpARO24DZvfoVzP0w,doglobal_api,784_5308,install,1.3,115.22.209.156,FD56F538-AA4A-4355-B0B2-45656354CCAE,1556790173,2019-05-02 17:42:53,1556790331,2019-05-02 17:45:31,1556790361,B_6f2c841fd4da4bd4-Nzg0Xy0xMzc5OTc0Ny0xMzAwLTEzMDAtMDUwMi0tNTMwOA,http://pb.xyz.duunion.com/conv?tid=B_6f2c841fd4da4bd4-Nzg0Xy0xMzc5OTc0Ny0xMzAwLTEzMDAtMDUwMi0tNTMwOA&adv_sectkn=55dea06a643eb8a2d267a735fe2683bd&adv_name=appier-api&payout=1.3,idfa_FD56F538-AA4A-4355-B0B2-45656354CCAE,ko
y1079lpARO24DZvfoVzP0w,doglobal_api,784_5308,install,1.3,118.35.108.181,00BCD84F-ED9E-4516-8274-938B5D1B6BBA,1556790184,2019-05-02 17:43:04,1556790331,2019-05-02 17:45:31,1556790362,P_80679a20a3066986-Nzg0Xy0xMzc5OTc0Ny0xMzAwLTEzMDAtMDUwMi0tNTMwOA,http://pb.xyz.duunion.com/conv?tid=P_80679a20a3066986-Nzg0Xy0xMzc5OTc0Ny0xMzAwLTEzMDAtMDUwMi0tNTMwOA&adv_sectkn=55dea06a643eb8a2d267a735fe2683bd&adv_name=appier-api&payout=1.3,idfa_00BCD84F-ED9E-4516-8274-938B5D1B6BBA,ko
y1079lpARO24DZvfoVzP0w,doglobal_api,784_5308,install,1.3,121.188.173.73,05C90C42-C046-4880-B700-AB7E8515139C,1556789050,2019-05-02 17:24:10,1556789201,2019-05-02 17:26:41,1556789231,B_da9438eaf50f1c40-Nzg0Xy0xMzc5OTc0Ny0xMzAwLTEzMDAtMDUwMi0tNTMwOA,http://pb.xyz.duunion.com/conv?tid=B_da9438eaf50f1c40-Nzg0Xy0xMzc5OTc0Ny0xMzAwLTEzMDAtMDUwMi0tNTMwOA&adv_sectkn=55dea06a643eb8a2d267a735fe2683bd&adv_name=appier-api&payout=1.3,idfa_05C90C42-C046-4880-B700-AB7E8515139C,ko
y1079lpARO24DZvfoVzP0w,doglobal_api,784_5308,install,1.3,121.171.104.151,B2FEF5EC-3813-4173-9617-C87E9865890B,1556790795,2019-05-02 17:53:15,1556790947,2019-05-02 17:55:47,1556790977,P_a445bef5c9ebcb6a-Nzg0Xy0xMzc5OTc0Ny0xMzAwLTEzMDAtMDUwMi0tNTMwOA,http://pb.xyz.duunion.com/conv?tid=P_a445bef5c9ebcb6a-Nzg0Xy0xMzc5OTc0Ny0xMzAwLTEzMDAtMDUwMi0tNTMwOA&adv_sectkn=55dea06a643eb8a2d267a735fe2683bd&adv_name=appier-api&payout=1.3,idfa_B2FEF5EC-3813-4173-9617-C87E9865890B,ko
y1079lpARO24DZvfoVzP0w,doglobal_api,784_5308,install,1.3,211.213.201.58,CABEE8D2-2517-4E30-8D82-41F540146314,1556790180,2019-05-02 17:43:00,1556790353,2019-05-02 17:45:53,1556790383,P_f33cc849926e5129-Nzg0Xy0xMzc5OTc0Ny0xMzAwLTEzMDAtMDUwMi0tNTMwOA,http://pb.xyz.duunion.com/conv?tid=P_f33cc849926e5129-Nzg0Xy0xMzc5OTc0Ny0xMzAwLTEzMDAtMDUwMi0tNTMwOA&adv_sectkn=55dea06a643eb8a2d267a735fe2683bd&adv_name=appier-api&payout=1.3,idfa_CABEE8D2-2517-4E30-8D82-41F540146314,ko
y1079lpARO24DZvfoVzP0w,doglobal_api,784_5308,install,1.3,112.162.139.216,74CD4F63-BFA0-408F-B397-14F3BEB007A6,1556790864,2019-05-02 17:54:24,1556791029,2019-05-02 17:57:09,1556791063,B_59e1f53cc7f34f4f-Nzg0Xy0xMzc5OTc0Ny0xMzAwLTEzMDAtMDUwMi0tNTMwOA,http://pb.xyz.duunion.com/conv?tid=B_59e1f53cc7f34f4f-Nzg0Xy0xMzc5OTc0Ny0xMzAwLTEzMDAtMDUwMi0tNTMwOA&adv_sectkn=55dea06a643eb8a2d267a735fe2683bd&adv_name=appier-api&payout=1.3,idfa_74CD4F63-BFA0-408F-B397-14F3BEB007A6,ko
y1079lpARO24DZvfoVzP0w,doglobal_api,784_5308,install,1.3,211.218.173.195,9D82EDE2-7E58-4EA2-9D60-3F23070956BF,1556789206,2019-05-02 17:26:46,1556789367,2019-05-02 17:29:27,1556789398,P_9193262b4f764725-Nzg0Xy0xMzc5OTc0Ny0xMzAwLTEzMDAtMDUwMi0tNTMwOA,http://pb.xyz.duunion.com/conv?tid=P_9193262b4f764725-Nzg0Xy0xMzc5OTc0Ny0xMzAwLTEzMDAtMDUwMi0tNTMwOA&adv_sectkn=55dea06a643eb8a2d267a735fe2683bd&adv_name=appier-api&payout=1.3,idfa_9D82EDE2-7E58-4EA2-9D60-3F23070956BF,ko
y1079lpARO24DZvfoVzP0w,doglobal_api,784_5308,install,1.3,121.147.210.19,89940E65-3D4A-4A58-9992-013E6F6978FC,1556790184,2019-05-02 17:43:04,1556790344,2019-05-02 17:45:44,1556790374,P_f407672f6a9bf5c2-Nzg0Xy0xMzc5OTc0Ny0xMzAwLTEzMDAtMDUwMi0tNTMwOA,http://pb.xyz.duunion.com/conv?tid=P_f407672f6a9bf5c2-Nzg0Xy0xMzc5OTc0Ny0xMzAwLTEzMDAtMDUwMi0tNTMwOA&adv_sectkn=55dea06a643eb8a2d267a735fe2683bd&adv_name=appier-api&payout=1.3,idfa_89940E65-3D4A-4A58-9992-013E6F6978FC,ko
y1079lpARO24DZvfoVzP0w,doglobal_api,784_5308,install,1.3,220.70.15.102,ABA04E3C-9E01-4EC3-A0C4-CD4B3C29326C,1556790566,2019-05-02 17:49:26,1556791607,2019-05-02 18:06:47,1556791637,P_43a4f3196b06dd43-Nzg0Xy0xMzc5OTc0Ny0xMzAwLTEzMDAtMDUwMi0tNTMwOA,http://pb.xyz.duunion.com/conv?tid=P_43a4f3196b06dd43-Nzg0Xy0xMzc5OTc0Ny0xMzAwLTEzMDAtMDUwMi0tNTMwOA&adv_sectkn=55dea06a643eb8a2d267a735fe2683bd&adv_name=appier-api&payout=1.3,idfa_ABA04E3C-9E01-4EC3-A0C4-CD4B3C29326C,ko
y1079lpARO24DZvfoVzP0w,doglobal_api,784_5308,install,1.3,222.239.29.77,A87C322D-6A17-4BD2-A617-B971CAAC4566,1556790888,2019-05-02 17:54:48,1556791051,2019-05-02 17:57:31,1556791081,B_1c824e3265e8ae05-Nzg0Xy0xMzc5OTc0Ny0xMzAwLTEzMDAtMDUwMi0tNTMwOA,http://pb.xyz.duunion.com/conv?tid=B_1c824e3265e8ae05-Nzg0Xy0xMzc5OTc0Ny0xMzAwLTEzMDAtMDUwMi0tNTMwOA&adv_sectkn=55dea06a643eb8a2d267a735fe2683bd&adv_name=appier-api&payout=1.3,idfa_A87C322D-6A17-4BD2-A617-B971CAAC4566,ko
y1079lpARO24DZvfoVzP0w,doglobal_api,784_5308,install,1.3,221.156.189.147,7E0A4643-F973-4F1F-A986-2C855DF37F53,1556789056,2019-05-02 17:24:16,1556789204,2019-05-02 17:26:44,1556789235,P_30c7a3a6b1dfdcee-Nzg0Xy0xMzc5OTc0Ny0xMzAwLTEzMDAtMDUwMi0tNTMwOA,http://pb.xyz.duunion.com/conv?tid=P_30c7a3a6b1dfdcee-Nzg0Xy0xMzc5OTc0Ny0xMzAwLTEzMDAtMDUwMi0tNTMwOA&adv_sectkn=55dea06a643eb8a2d267a735fe2683bd&adv_name=appier-api&payout=1.3,idfa_7E0A4643-F973-4F1F-A986-2C855DF37F53,ko
y1079lpARO24DZvfoVzP0w,doglobal_api,784_5308,install,1.3,116.127.198.74,61867F69-1110-43DA-A5A2-6FF6ECDBE74C,1556790171,2019-05-02 17:42:51,1556790319,2019-05-02 17:45:19,1556790349,P_9d167a59f9456cec-Nzg0Xy0xMzc5OTc0Ny0xMzAwLTEzMDAtMDUwMi0tNTMwOA,http://pb.xyz.duunion.com/conv?tid=P_9d167a59f9456cec-Nzg0Xy0xMzc5OTc0Ny0xMzAwLTEzMDAtMDUwMi0tNTMwOA&adv_sectkn=55dea06a643eb8a2d267a735fe2683bd&adv_name=appier-api&payout=1.3,idfa_61867F69-1110-43DA-A5A2-6FF6ECDBE74C,ko
y1079lpARO24DZvfoVzP0w,doglobal_api,784_5308,install,1.3,218.239.205.60,37681CBB-E557-452E-AE74-754F5B377652,1556790819,2019-05-02 17:53:39,1556790986,2019-05-02 17:56:26,1556791016,P_580ff211af3b55b4-Nzg0Xy0xMzc5OTc0Ny0xMzAwLTEzMDAtMDUwMi0tNTMwOA,http://pb.xyz.duunion.com/conv?tid=P_580ff211af3b55b4-Nzg0Xy0xMzc5OTc0Ny0xMzAwLTEzMDAtMDUwMi0tNTMwOA&adv_sectkn=55dea06a643eb8a2d267a735fe2683bd&adv_name=appier-api&payout=1.3,idfa_37681CBB-E557-452E-AE74-754F5B377652,ko
y1079lpARO24DZvfoVzP0w,doglobal_api,784_5308,install,1.3,106.245.132.38,5F41D784-F31C-45B2-9DBC-70841EC6EF0B,1556790774,2019-05-02 17:52:54,1556790934,2019-05-02 17:55:34,1556790964,P_b9098f913b35403a-Nzg0Xy0xMzc5OTc0Ny0xMzAwLTEzMDAtMDUwMi0tNTMwOA,http://pb.xyz.duunion.com/conv?tid=P_b9098f913b35403a-Nzg0Xy0xMzc5OTc0Ny0xMzAwLTEzMDAtMDUwMi0tNTMwOA&adv_sectkn=55dea06a643eb8a2d267a735fe2683bd&adv_name=appier-api&payout=1.3,idfa_5F41D784-F31C-45B2-9DBC-70841EC6EF0B,ko
y1079lpARO24DZvfoVzP0w,doglobal_api,784_5308,install,1.3,115.140.8.150,F0B48F72-59D6-4071-A6C3-3D555D196046,1556790554,2019-05-02 17:49:14,1556790710,2019-05-02 17:51:50,1556790740,B_74dc1706d74f2a7a-Nzg0Xy0xMzc5OTc0Ny0xMzAwLTEzMDAtMDUwMi0tNTMwOA,http://pb.xyz.duunion.com/conv?tid=B_74dc1706d74f2a7a-Nzg0Xy0xMzc5OTc0Ny0xMzAwLTEzMDAtMDUwMi0tNTMwOA&adv_sectkn=55dea06a643eb8a2d267a735fe2683bd&adv_name=appier-api&payout=1.3,idfa_F0B48F72-59D6-4071-A6C3-3D555D196046,ko
y1079lpARO24DZvfoVzP0w,doglobal_api,784_5308,install,1.3,221.141.39.2,2EA4D1BE-4B33-4AFA-B607-702B7FE70451,1556789702,2019-05-02 17:35:02,1556789857,2019-05-02 17:37:37,1556789887,P_4790951f27b8fd08-Nzg0Xy0xMzc5OTc0Ny0xMzAwLTEzMDAtMDUwMi0tNTMwOA,http://pb.xyz.duunion.com/conv?tid=P_4790951f27b8fd08-Nzg0Xy0xMzc5OTc0Ny0xMzAwLTEzMDAtMDUwMi0tNTMwOA&adv_sectkn=55dea06a643eb8a2d267a735fe2683bd&adv_name=appier-api&payout=1.3,idfa_2EA4D1BE-4B33-4AFA-B607-702B7FE70451,ko
y1079lpARO24DZvfoVzP0w,doglobal_api,784_5308,install,1.3,211.104.178.137,3CF62583-D888-457E-BF57-2D451076472A,1556790298,2019-05-02 17:44:58,1556790460,2019-05-02 17:47:40,1556790491,P_758cb5ed440a953f-Nzg0Xy0xMzc5OTc0Ny0xMzAwLTEzMDAtMDUwMi0tNTMwOA,http://pb.xyz.duunion.com/conv?tid=P_758cb5ed440a953f-Nzg0Xy0xMzc5OTc0Ny0xMzAwLTEzMDAtMDUwMi0tNTMwOA&adv_sectkn=55dea06a643eb8a2d267a735fe2683bd&adv_name=appier-api&payout=1.3,idfa_3CF62583-D888-457E-BF57-2D451076472A,ko
y1079lpARO24DZvfoVzP0w,doglobal_api,784_5308,install,1.3,115.92.157.161,A6A13044-BAA8-4EE0-8DDA-4731F47A9DA5,1556787297,2019-05-02 16:54:57,1556787428,2019-05-02 16:57:08,1556787458,P_189ba7cd5a7b8a55-Nzg0Xy0xMzc5OTc0Ny0xMzAwLTEzMDAtMDUwMi0tNTMwOA,http://pb.xyz.duunion.com/conv?tid=P_189ba7cd5a7b8a55-Nzg0Xy0xMzc5OTc0Ny0xMzAwLTEzMDAtMDUwMi0tNTMwOA&adv_sectkn=55dea06a643eb8a2d267a735fe2683bd&adv_name=appier-api&payout=1.3,idfa_A6A13044-BAA8-4EE0-8DDA-4731F47A9DA5,ko
y1079lpARO24DZvfoVzP0w,doglobal_api,784_5308,install,1.3,14.63.88.58,C0B16B04-A6D0-48D4-AF12-696443A43B82,1556790686,2019-05-02 17:51:26,1556790839,2019-05-02 17:53:59,1556790869,P_67fa293141db848d-Nzg0Xy0xMzc5OTc0Ny0xMzAwLTEzMDAtMDUwMi0tNTMwOA,http://pb.xyz.duunion.com/conv?tid=P_67fa293141db848d-Nzg0Xy0xMzc5OTc0Ny0xMzAwLTEzMDAtMDUwMi0tNTMwOA&adv_sectkn=55dea06a643eb8a2d267a735fe2683bd&adv_name=appier-api&payout=1.3,idfa_C0B16B04-A6D0-48D4-AF12-696443A43B82,ko
y1079lpARO24DZvfoVzP0w,doglobal_api,784_5308,install,1.3,211.193.235.125,B006579C-F1E8-4751-8C54-86CA818A4185,1556789598,2019-05-02 17:33:18,1556789752,2019-05-02 17:35:52,1556789782,P_72649818bcb67a5e-Nzg0Xy0xMzc5OTc0Ny0xMzAwLTEzMDAtMDUwMi0tNTMwOA,http://pb.xyz.duunion.com/conv?tid=P_72649818bcb67a5e-Nzg0Xy0xMzc5OTc0Ny0xMzAwLTEzMDAtMDUwMi0tNTMwOA&adv_sectkn=55dea06a643eb8a2d267a735fe2683bd&adv_name=appier-api&payout=1.3,idfa_B006579C-F1E8-4751-8C54-86CA818A4185,ko
y1079lpARO24DZvfoVzP0w,doglobal_api,784_5308,install,1.3,49.167.191.140,6A9AEC72-C87D-4BFD-8EC2-F7417B725AAD,1556789576,2019-05-02 17:32:56,1556789738,2019-05-02 17:35:38,1556789769,B_1e76bae76033b09d-Nzg0Xy0xMzc5OTc0Ny0xMzAwLTEzMDAtMDUwMi0tNTMwOA,http://pb.xyz.duunion.com/conv?tid=B_1e76bae76033b09d-Nzg0Xy0xMzc5OTc0Ny0xMzAwLTEzMDAtMDUwMi0tNTMwOA&adv_sectkn=55dea06a643eb8a2d267a735fe2683bd&adv_name=appier-api&payout=1.3,idfa_6A9AEC72-C87D-4BFD-8EC2-F7417B725AAD,ko
y1079lpARO24DZvfoVzP0w,doglobal_api,784_5308,install,1.3,112.151.154.84,B5F3C6AF-F075-40E1-AE0E-A69759C57BCE,1556790188,2019-05-02 17:43:08,1556790344,2019-05-02 17:45:44,1556790374,B_058c1f48bbb7304e-Nzg0Xy0xMzc5OTc0Ny0xMzAwLTEzMDAtMDUwMi0tNTMwOA,http://pb.xyz.duunion.com/conv?tid=B_058c1f48bbb7304e-Nzg0Xy0xMzc5OTc0Ny0xMzAwLTEzMDAtMDUwMi0tNTMwOA&adv_sectkn=55dea06a643eb8a2d267a735fe2683bd&adv_name=appier-api&payout=1.3,idfa_B5F3C6AF-F075-40E1-AE0E-A69759C57BCE,ko
