cid,partner_id,channel_id,action_id,cpi,ip,idfa,click time,click datetime,install time,install datetime,postback time,click id,postback url,unique user id
2gTfzMIeSzmNH4OZZFRPQA,doglobal_api,772_10522772,Install,1.3,116.48.159.160,E8675C09-8F2D-4333-B60D-C3D11F300900,1558491178,2019-05-22 10:12:58,1558491225,2019-05-22 10:13:45,1558491256,B_0c1555145878add8-NzcyXy0xNDM0MTk5Mi0xMzAwLTExNzAtMDUyMi0xMDUyMjc3Mi0yOTY0MTI3OA,http://pb.xyz.duunion.com/conv?tid=B_0c1555145878add8-NzcyXy0xNDM0MTk5Mi0xMzAwLTExNzAtMDUyMi0xMDUyMjc3Mi0yOTY0MTI3OA&adv_sectkn=55dea06a643eb8a2d267a735fe2683bd&adv_name=appier-api&payout=1.3,idfa_E8675C09-8F2D-4333-B60D-C3D11F300900,zh
2gTfzMIeSzmNH4OZZFRPQA,doglobal_api,772_10522772,Install,1.3,223.197.223.219,8A657AD2-6BE6-4890-9FA5-FCD702E5121E,1558490748,2019-05-22 10:05:48,1558490774,2019-05-22 10:06:14,1558490804,P_ad28ddae7aba3c30-NzcyXy0xNDM0MTk5Mi0xMzAwLTExNzAtMDUyMi0xMDUyMjc3Mi0yOTYwODExNg,http://pb.xyz.duunion.com/conv?tid=P_ad28ddae7aba3c30-NzcyXy0xNDM0MTk5Mi0xMzAwLTExNzAtMDUyMi0xMDUyMjc3Mi0yOTYwODExNg&adv_sectkn=55dea06a643eb8a2d267a735fe2683bd&adv_name=appier-api&payout=1.3,idfa_8A657AD2-6BE6-4890-9FA5-FCD702E5121E,zh
2gTfzMIeSzmNH4OZZFRPQA,doglobal_api,772_10522772,Install,1.3,223.197.202.104,9B7E3390-8E82-487B-B6DC-971C806F859B,1558490735,2019-05-22 10:05:35,1558490757,2019-05-22 10:05:57,1558490788,P_635ce4c51e930c27-NzcyXy0xNDM0MTk5Mi0xMzAwLTExNzAtMDUyMi0xMDUyMjc3Mi0yOTQ0MTM5NA,http://pb.xyz.duunion.com/conv?tid=P_635ce4c51e930c27-NzcyXy0xNDM0MTk5Mi0xMzAwLTExNzAtMDUyMi0xMDUyMjc3Mi0yOTQ0MTM5NA&adv_sectkn=55dea06a643eb8a2d267a735fe2683bd&adv_name=appier-api&payout=1.3,idfa_9B7E3390-8E82-487B-B6DC-971C806F859B,zh
2gTfzMIeSzmNH4OZZFRPQA,doglobal_api,772_10522772,Install,1.3,221.124.64.218,216C91DF-9AFB-4177-81D9-8C08FE914BDF,1558491095,2019-05-22 10:11:35,1558491114,2019-05-22 10:11:54,1558491144,B_9567c7560da0ce3a-NzcyXy0xNDM0MTk5Mi0xMzAwLTExNzAtMDUyMi0xMDUyMjc3Mi0yOTg0NjY0NA,http://pb.xyz.duunion.com/conv?tid=B_9567c7560da0ce3a-NzcyXy0xNDM0MTk5Mi0xMzAwLTExNzAtMDUyMi0xMDUyMjc3Mi0yOTg0NjY0NA&adv_sectkn=55dea06a643eb8a2d267a735fe2683bd&adv_name=appier-api&payout=1.3,idfa_216C91DF-9AFB-4177-81D9-8C08FE914BDF,zh
2gTfzMIeSzmNH4OZZFRPQA,doglobal_api,772_10522772,Install,1.3,223.197.223.29,C04447D6-FCF8-4FC6-B108-24BFDD004115,1558490595,2019-05-22 10:03:15,1558490647,2019-05-22 10:04:07,1558490677,B_b3aa35b77dfa057a-NzcyXy0xNDM0MTk5Mi0xMzAwLTExNzAtMDUyMi0xMDUyMjc3Mi0yOTYwODExNg,http://pb.xyz.duunion.com/conv?tid=B_b3aa35b77dfa057a-NzcyXy0xNDM0MTk5Mi0xMzAwLTExNzAtMDUyMi0xMDUyMjc3Mi0yOTYwODExNg&adv_sectkn=55dea06a643eb8a2d267a735fe2683bd&adv_name=appier-api&payout=1.3,idfa_C04447D6-FCF8-4FC6-B108-24BFDD004115,zh
2gTfzMIeSzmNH4OZZFRPQA,doglobal_api,772_10522772,Install,1.3,116.48.159.160,5FAFA3D9-E6F8-4323-A025-40AAE1890C0C,1558490730,2019-05-22 10:05:30,1558490751,2019-05-22 10:05:51,1558490782,P_177a0412bc44dc84-NzcyXy0xNDM0MTk5Mi0xMzAwLTExNzAtMDUyMi0xMDUyMjc3Mi0yOTQ0MTM5NA,http://pb.xyz.duunion.com/conv?tid=P_177a0412bc44dc84-NzcyXy0xNDM0MTk5Mi0xMzAwLTExNzAtMDUyMi0xMDUyMjc3Mi0yOTQ0MTM5NA&adv_sectkn=55dea06a643eb8a2d267a735fe2683bd&adv_name=appier-api&payout=1.3,idfa_5FAFA3D9-E6F8-4323-A025-40AAE1890C0C,en
2gTfzMIeSzmNH4OZZFRPQA,doglobal_api,772_10522772,Install,1.3,42.200.215.124,19308498-58ED-4028-8DAD-5E8694DA2771,1558490423,2019-05-22 10:00:23,1558490462,2019-05-22 10:01:02,1558490492,B_79007d4a5373a658-NzcyXy0xNDM0MTk5Mi0xMzAwLTExNzAtMDUyMi0xMDUyMjc3Mi0yOTYwODExNg,http://pb.xyz.duunion.com/conv?tid=B_79007d4a5373a658-NzcyXy0xNDM0MTk5Mi0xMzAwLTExNzAtMDUyMi0xMDUyMjc3Mi0yOTYwODExNg&adv_sectkn=55dea06a643eb8a2d267a735fe2683bd&adv_name=appier-api&payout=1.3,idfa_19308498-58ED-4028-8DAD-5E8694DA2771,zh
2gTfzMIeSzmNH4OZZFRPQA,doglobal_api,772_10522772,Install,1.3,223.197.215.77,49662597-7FDB-4C60-9575-992C3B513836,1558491117,2019-05-22 10:11:57,1558491149,2019-05-22 10:12:29,1558491180,B_4907b1d3eda7ecd6-NzcyXy0xNDM0MTk5Mi0xMzAwLTExNzAtMDUyMi0xMDUyMjc3Mi0yOTg0NjY0NA,http://pb.xyz.duunion.com/conv?tid=B_4907b1d3eda7ecd6-NzcyXy0xNDM0MTk5Mi0xMzAwLTExNzAtMDUyMi0xMDUyMjc3Mi0yOTg0NjY0NA&adv_sectkn=55dea06a643eb8a2d267a735fe2683bd&adv_name=appier-api&payout=1.3,idfa_49662597-7FDB-4C60-9575-992C3B513836,zh
2gTfzMIeSzmNH4OZZFRPQA,doglobal_api,772_10522772,Install,1.3,203.198.149.181,6B887630-DF32-4D31-9D7C-3D38A12EE271,1558491205,2019-05-22 10:13:25,1558491241,2019-05-22 10:14:01,1558491271,P_e096f1f12d9dde9a-NzcyXy0xNDM0MTk5Mi0xMzAwLTExNzAtMDUyMi0xMDUyMjc3Mi0zMDM3NTQ4OQ,http://pb.xyz.duunion.com/conv?tid=P_e096f1f12d9dde9a-NzcyXy0xNDM0MTk5Mi0xMzAwLTExNzAtMDUyMi0xMDUyMjc3Mi0zMDM3NTQ4OQ&adv_sectkn=55dea06a643eb8a2d267a735fe2683bd&adv_name=appier-api&payout=1.3,idfa_6B887630-DF32-4D31-9D7C-3D38A12EE271,ja
2gTfzMIeSzmNH4OZZFRPQA,doglobal_api,772_10522772,Install,1.3,223.197.223.219,604581AB-F994-4FC7-8E1C-B320C8D2427A,1558491188,2019-05-22 10:13:08,1558491207,2019-05-22 10:13:27,1558491238,P_3232cab63a3a818e-NzcyXy0xNDM0MTk5Mi0xMzAwLTExNzAtMDUyMi0xMDUyMjc3Mi0yOTg0NjY0NA,http://pb.xyz.duunion.com/conv?tid=P_3232cab63a3a818e-NzcyXy0xNDM0MTk5Mi0xMzAwLTExNzAtMDUyMi0xMDUyMjc3Mi0yOTg0NjY0NA&adv_sectkn=55dea06a643eb8a2d267a735fe2683bd&adv_name=appier-api&payout=1.3,idfa_604581AB-F994-4FC7-8E1C-B320C8D2427A,zh
2gTfzMIeSzmNH4OZZFRPQA,doglobal_api,772_10522772,Install,1.3,223.197.223.219,94224D25-137F-490A-B9FA-3F70AF320230,1558491204,2019-05-22 10:13:24,1558491227,2019-05-22 10:13:47,1558491257,B_824c8f043ce936ec-NzcyXy0xNDM0MTk5Mi0xMzAwLTExNzAtMDUyMi0xMDUyMjc3Mi0yOTYwODExNg,http://pb.xyz.duunion.com/conv?tid=B_824c8f043ce936ec-NzcyXy0xNDM0MTk5Mi0xMzAwLTExNzAtMDUyMi0xMDUyMjc3Mi0yOTYwODExNg&adv_sectkn=55dea06a643eb8a2d267a735fe2683bd&adv_name=appier-api&payout=1.3,idfa_94224D25-137F-490A-B9FA-3F70AF320230,zh
2gTfzMIeSzmNH4OZZFRPQA,doglobal_api,772_10522772,Install,1.3,61.244.114.180,B7BB728A-8A6E-4FAC-9D43-116CE4743DE3,1558491163,2019-05-22 10:12:43,1558491187,2019-05-22 10:13:07,1558491217,P_6546d6e0cef82aaa-NzcyXy0xNDM0MTk5Mi0xMzAwLTExNzAtMDUyMi0xMDUyMjc3Mi0yOTYwODExNg,http://pb.xyz.duunion.com/conv?tid=P_6546d6e0cef82aaa-NzcyXy0xNDM0MTk5Mi0xMzAwLTExNzAtMDUyMi0xMDUyMjc3Mi0yOTYwODExNg&adv_sectkn=55dea06a643eb8a2d267a735fe2683bd&adv_name=appier-api&payout=1.3,idfa_B7BB728A-8A6E-4FAC-9D43-116CE4743DE3,zh
2gTfzMIeSzmNH4OZZFRPQA,doglobal_api,772_10522772,Install,1.3,223.197.162.15,534ED470-6F19-4B9A-968E-3686CE3ABA69,1558491188,2019-05-22 10:13:08,1558491213,2019-05-22 10:13:33,1558491243,P_28e36edd0f6f2e2b-NzcyXy0xNDM0MTk5Mi0xMzAwLTExNzAtMDUyMi0xMDUyMjc3Mi0yOTYwODExNg,http://pb.xyz.duunion.com/conv?tid=P_28e36edd0f6f2e2b-NzcyXy0xNDM0MTk5Mi0xMzAwLTExNzAtMDUyMi0xMDUyMjc3Mi0yOTYwODExNg&adv_sectkn=55dea06a643eb8a2d267a735fe2683bd&adv_name=appier-api&payout=1.3,idfa_534ED470-6F19-4B9A-968E-3686CE3ABA69,zh
2gTfzMIeSzmNH4OZZFRPQA,doglobal_api,772_10522772,Install,1.3,223.197.142.122,EF3D129A-37EE-4FCB-88C7-ED868F594867,1558490807,2019-05-22 10:06:47,1558490855,2019-05-22 10:07:35,1558490886,P_247e5ed247a8a7aa-NzcyXy0xNDM0MTk5Mi0xMzAwLTExNzAtMDUyMi0xMDUyMjc3Mi0yOTY0MTI3OA,http://pb.xyz.duunion.com/conv?tid=P_247e5ed247a8a7aa-NzcyXy0xNDM0MTk5Mi0xMzAwLTExNzAtMDUyMi0xMDUyMjc3Mi0yOTY0MTI3OA&adv_sectkn=55dea06a643eb8a2d267a735fe2683bd&adv_name=appier-api&payout=1.3,idfa_EF3D129A-37EE-4FCB-88C7-ED868F594867,zh
2gTfzMIeSzmNH4OZZFRPQA,doglobal_api,772_10522772,Install,1.3,221.124.64.218,05CE8174-78C4-4632-9F1F-9EBF2D8B1DE0,1558490723,2019-05-22 10:05:23,1558490752,2019-05-22 10:05:52,1558490783,B_a68e085237e42e9e-NzcyXy0xNDM0MTk5Mi0xMzAwLTExNzAtMDUyMi0xMDUyMjc3Mi0yOTQ0MTM5NA,http://pb.xyz.duunion.com/conv?tid=B_a68e085237e42e9e-NzcyXy0xNDM0MTk5Mi0xMzAwLTExNzAtMDUyMi0xMDUyMjc3Mi0yOTQ0MTM5NA&adv_sectkn=55dea06a643eb8a2d267a735fe2683bd&adv_name=appier-api&payout=1.3,idfa_05CE8174-78C4-4632-9F1F-9EBF2D8B1DE0,zh
2gTfzMIeSzmNH4OZZFRPQA,doglobal_api,772_10522772,Install,1.3,58.152.59.95,F40ECBF3-6D1A-41A9-9914-87742E54608B,1558490529,2019-05-22 10:02:09,1558490556,2019-05-22 10:02:36,1558490586,B_eebc2da74cec7b90-NzcyXy0xNDM0MTk5Mi0xMzAwLTExNzAtMDUyMi0xMDUyMjc3Mi0yOTYwODExNg,http://pb.xyz.duunion.com/conv?tid=B_eebc2da74cec7b90-NzcyXy0xNDM0MTk5Mi0xMzAwLTExNzAtMDUyMi0xMDUyMjc3Mi0yOTYwODExNg&adv_sectkn=55dea06a643eb8a2d267a735fe2683bd&adv_name=appier-api&payout=1.3,idfa_F40ECBF3-6D1A-41A9-9914-87742E54608B,zh
2gTfzMIeSzmNH4OZZFRPQA,doglobal_api,772_10522772,Install,1.3,175.45.35.182,13C20EA8-398F-4218-B7BB-50C7623F350E,1558490378,2019-05-22 09:59:38,1558490412,2019-05-22 10:00:12,1558490442,P_56a6bae86b286525-NzcyXy0xNDM0MTk5Mi0xMzAwLTExNzAtMDUyMi0xMDUyMjc3Mi0yOTYwODExNg,http://pb.xyz.duunion.com/conv?tid=P_56a6bae86b286525-NzcyXy0xNDM0MTk5Mi0xMzAwLTExNzAtMDUyMi0xMDUyMjc3Mi0yOTYwODExNg&adv_sectkn=55dea06a643eb8a2d267a735fe2683bd&adv_name=appier-api&payout=1.3,idfa_13C20EA8-398F-4218-B7BB-50C7623F350E,zh
2gTfzMIeSzmNH4OZZFRPQA,doglobal_api,772_10522772,Install,1.3,223.197.142.140,D4F3903F-76DF-4BBB-8F13-A9CF1EC152D9,1558490980,2019-05-22 10:09:40,1558491004,2019-05-22 10:10:04,1558491034,P_b0ba8ad5bf7e0889-NzcyXy0xNDM0MTk5Mi0xMzAwLTExNzAtMDUyMi0xMDUyMjc3Mi0yOTYwODExNg,http://pb.xyz.duunion.com/conv?tid=P_b0ba8ad5bf7e0889-NzcyXy0xNDM0MTk5Mi0xMzAwLTExNzAtMDUyMi0xMDUyMjc3Mi0yOTYwODExNg&adv_sectkn=55dea06a643eb8a2d267a735fe2683bd&adv_name=appier-api&payout=1.3,idfa_D4F3903F-76DF-4BBB-8F13-A9CF1EC152D9,zh
2gTfzMIeSzmNH4OZZFRPQA,doglobal_api,772_10522772,Install,1.3,223.197.168.2,E7C0A227-579A-4890-9D68-BA451CBD8683,1558490346,2019-05-22 09:59:06,1558490371,2019-05-22 09:59:31,1558490401,P_a51f2c08350c7d1c-NzcyXy0xNDM0MTk5Mi0xMzAwLTExNzAtMDUyMi0xMDUyMjc3Mi0yOTYwODExNg,http://pb.xyz.duunion.com/conv?tid=P_a51f2c08350c7d1c-NzcyXy0xNDM0MTk5Mi0xMzAwLTExNzAtMDUyMi0xMDUyMjc3Mi0yOTYwODExNg&adv_sectkn=55dea06a643eb8a2d267a735fe2683bd&adv_name=appier-api&payout=1.3,idfa_E7C0A227-579A-4890-9D68-BA451CBD8683,zh
2gTfzMIeSzmNH4OZZFRPQA,doglobal_api,772_10522772,Install,1.3,223.197.133.27,1360D202-C10C-4DF3-8EBD-12D1E4F81647,1558490661,2019-05-22 10:04:21,1558490685,2019-05-22 10:04:45,1558490715,P_0e176dd328fee619-NzcyXy0xNDM0MTk5Mi0xMzAwLTExNzAtMDUyMi0xMDUyMjc3Mi0yOTYwODExNg,http://pb.xyz.duunion.com/conv?tid=P_0e176dd328fee619-NzcyXy0xNDM0MTk5Mi0xMzAwLTExNzAtMDUyMi0xMDUyMjc3Mi0yOTYwODExNg&adv_sectkn=55dea06a643eb8a2d267a735fe2683bd&adv_name=appier-api&payout=1.3,idfa_1360D202-C10C-4DF3-8EBD-12D1E4F81647,zh
2gTfzMIeSzmNH4OZZFRPQA,doglobal_api,772_10522772,Install,1.3,116.48.159.160,FB407421-BD6E-40E9-AAC4-015E3EEEAA7E,1558490116,2019-05-22 09:55:16,1558490137,2019-05-22 09:55:37,1558490168,B_e5b6ec879b7a746a-NzcyXy0xNDM0MTk5Mi0xMzAwLTExNzAtMDUyMi0xMDUyMjc3Mi0yOTYwODExNg,http://pb.xyz.duunion.com/conv?tid=B_e5b6ec879b7a746a-NzcyXy0xNDM0MTk5Mi0xMzAwLTExNzAtMDUyMi0xMDUyMjc3Mi0yOTYwODExNg&adv_sectkn=55dea06a643eb8a2d267a735fe2683bd&adv_name=appier-api&payout=1.3,idfa_FB407421-BD6E-40E9-AAC4-015E3EEEAA7E,zh
2gTfzMIeSzmNH4OZZFRPQA,doglobal_api,772_10522772,Install,1.3,223.197.133.27,A413698D-34D3-4047-9AF4-6D84D2067657,1558490020,2019-05-22 09:53:40,1558490053,2019-05-22 09:54:13,1558490083,B_aebd18bd02d8e5eb-NzcyXy0xNDM0MTk5Mi0xMzAwLTExNzAtMDUyMi0xMDUyMjc3Mi0yOTYwODExNg,http://pb.xyz.duunion.com/conv?tid=B_aebd18bd02d8e5eb-NzcyXy0xNDM0MTk5Mi0xMzAwLTExNzAtMDUyMi0xMDUyMjc3Mi0yOTYwODExNg&adv_sectkn=55dea06a643eb8a2d267a735fe2683bd&adv_name=appier-api&payout=1.3,idfa_A413698D-34D3-4047-9AF4-6D84D2067657,zh
2gTfzMIeSzmNH4OZZFRPQA,doglobal_api,772_10522772,Install,1.3,43.240.117.239,BBB83BA3-0E62-41A5-8AA9-728C78C281BF,1558491102,2019-05-22 10:11:42,1558491156,2019-05-22 10:12:36,1558491187,P_efbea89d0742d534-NzcyXy0xNDM0MTk5Mi0xMzAwLTExNzAtMDUyMi0xMDUyMjc3Mi0zMDM3NTQ4OQ,http://pb.xyz.duunion.com/conv?tid=P_efbea89d0742d534-NzcyXy0xNDM0MTk5Mi0xMzAwLTExNzAtMDUyMi0xMDUyMjc3Mi0zMDM3NTQ4OQ&adv_sectkn=55dea06a643eb8a2d267a735fe2683bd&adv_name=appier-api&payout=1.3,idfa_BBB83BA3-0E62-41A5-8AA9-728C78C281BF,ar
2gTfzMIeSzmNH4OZZFRPQA,doglobal_api,772_10522772,Install,1.3,223.197.142.122,8B6B79FE-78B8-4842-AAE2-DCF521DEA12E,1558490015,2019-05-22 09:53:35,1558490049,2019-05-22 09:54:09,1558490079,B_664958f7001d4015-NzcyXy0xNDM0MTk5Mi0xMzAwLTExNzAtMDUyMi0xMDUyMjc3Mi0yOTYwODExNg,http://pb.xyz.duunion.com/conv?tid=B_664958f7001d4015-NzcyXy0xNDM0MTk5Mi0xMzAwLTExNzAtMDUyMi0xMDUyMjc3Mi0yOTYwODExNg&adv_sectkn=55dea06a643eb8a2d267a735fe2683bd&adv_name=appier-api&payout=1.3,idfa_8B6B79FE-78B8-4842-AAE2-DCF521DEA12E,zh
2gTfzMIeSzmNH4OZZFRPQA,doglobal_api,772_10522772,Install,1.3,218.103.126.211,E176B5AA-FD45-418B-9615-875A32F42D73,1558490878,2019-05-22 10:07:58,1558490908,2019-05-22 10:08:28,1558490938,P_48868e13432c17ab-NzcyXy0xNDM0MTk5Mi0xMzAwLTExNzAtMDUyMi0xMDUyMjc3Mi0yOTYwODExNg,http://pb.xyz.duunion.com/conv?tid=P_48868e13432c17ab-NzcyXy0xNDM0MTk5Mi0xMzAwLTExNzAtMDUyMi0xMDUyMjc3Mi0yOTYwODExNg&adv_sectkn=55dea06a643eb8a2d267a735fe2683bd&adv_name=appier-api&payout=1.3,idfa_E176B5AA-FD45-418B-9615-875A32F42D73,zh
2gTfzMIeSzmNH4OZZFRPQA,doglobal_api,772_10522772,Install,1.3,223.197.168.2,D0A27FC0-FB65-4AE4-8DC4-6B8FC062952E,1558491200,2019-05-22 10:13:20,1558491263,2019-05-22 10:14:23,1558491293,P_6efe587ab5403e81-NzcyXy0xNDM0MTk5Mi0xMzAwLTExNzAtMDUyMi0xMDUyMjc3Mi0zMDQ2ODUwMg,http://pb.xyz.duunion.com/conv?tid=P_6efe587ab5403e81-NzcyXy0xNDM0MTk5Mi0xMzAwLTExNzAtMDUyMi0xMDUyMjc3Mi0zMDQ2ODUwMg&adv_sectkn=55dea06a643eb8a2d267a735fe2683bd&adv_name=appier-api&payout=1.3,idfa_D0A27FC0-FB65-4AE4-8DC4-6B8FC062952E,zh
2gTfzMIeSzmNH4OZZFRPQA,doglobal_api,772_10522772,Install,1.3,218.103.126.211,946E7811-A22C-48AB-BC3E-07DA21C3953B,1558490835,2019-05-22 10:07:15,1558490864,2019-05-22 10:07:44,1558490895,B_a27bac389d8d3f52-NzcyXy0xNDM0MTk5Mi0xMzAwLTExNzAtMDUyMi0xMDUyMjc3Mi0yOTQ0MTM5NA,http://pb.xyz.duunion.com/conv?tid=B_a27bac389d8d3f52-NzcyXy0xNDM0MTk5Mi0xMzAwLTExNzAtMDUyMi0xMDUyMjc3Mi0yOTQ0MTM5NA&adv_sectkn=55dea06a643eb8a2d267a735fe2683bd&adv_name=appier-api&payout=1.3,idfa_946E7811-A22C-48AB-BC3E-07DA21C3953B,zh
2gTfzMIeSzmNH4OZZFRPQA,doglobal_api,772_10522772,Install,1.3,203.198.149.164,D5052076-31A6-4120-9102-6560D6A835FA,1558490699,2019-05-22 10:04:59,1558490721,2019-05-22 10:05:21,1558490751,P_2cdb5a6c7b8e552b-NzcyXy0xNDM0MTk5Mi0xMzAwLTExNzAtMDUyMi0xMDUyMjc3Mi0yOTYwODExNg,http://pb.xyz.duunion.com/conv?tid=P_2cdb5a6c7b8e552b-NzcyXy0xNDM0MTk5Mi0xMzAwLTExNzAtMDUyMi0xMDUyMjc3Mi0yOTYwODExNg&adv_sectkn=55dea06a643eb8a2d267a735fe2683bd&adv_name=appier-api&payout=1.3,idfa_D5052076-31A6-4120-9102-6560D6A835FA,zh
2gTfzMIeSzmNH4OZZFRPQA,doglobal_api,772_10522772,Install,1.3,210.176.61.250,C04E7609-1DC8-445A-B505-B05B480405F2,1558491163,2019-05-22 10:12:43,1558491189,2019-05-22 10:13:09,1558491219,P_5eac1cf34834ec2a-NzcyXy0xNDM0MTk5Mi0xMzAwLTExNzAtMDUyMi0xMDUyMjc3Mi0yOTYwODExNg,http://pb.xyz.duunion.com/conv?tid=P_5eac1cf34834ec2a-NzcyXy0xNDM0MTk5Mi0xMzAwLTExNzAtMDUyMi0xMDUyMjc3Mi0yOTYwODExNg&adv_sectkn=55dea06a643eb8a2d267a735fe2683bd&adv_name=appier-api&payout=1.3,idfa_C04E7609-1DC8-445A-B505-B05B480405F2,zh
2gTfzMIeSzmNH4OZZFRPQA,doglobal_api,772_10522772,Install,1.3,223.197.250.232,BAB6AE9E-1DA3-4CF6-BF72-BC251C514479,1558490120,2019-05-22 09:55:20,1558490146,2019-05-22 09:55:46,1558490176,B_9417fb91cb282d0d-NzcyXy0xNDM0MTk5Mi0xMzAwLTExNzAtMDUyMi0xMDUyMjc3Mi0yOTYwODExNg,http://pb.xyz.duunion.com/conv?tid=B_9417fb91cb282d0d-NzcyXy0xNDM0MTk5Mi0xMzAwLTExNzAtMDUyMi0xMDUyMjc3Mi0yOTYwODExNg&adv_sectkn=55dea06a643eb8a2d267a735fe2683bd&adv_name=appier-api&payout=1.3,idfa_BAB6AE9E-1DA3-4CF6-BF72-BC251C514479,zh
2gTfzMIeSzmNH4OZZFRPQA,doglobal_api,772_10522772,Install,1.3,203.198.151.85,54874409-BC15-4A12-A8EF-2FD9C0D9F743,1558490640,2019-05-22 10:04:00,1558490665,2019-05-22 10:04:25,1558490695,P_f797b3a1084705c2-NzcyXy0xNDM0MTk5Mi0xMzAwLTExNzAtMDUyMi0xMDUyMjc3Mi0yOTYwODExNg,http://pb.xyz.duunion.com/conv?tid=P_f797b3a1084705c2-NzcyXy0xNDM0MTk5Mi0xMzAwLTExNzAtMDUyMi0xMDUyMjc3Mi0yOTYwODExNg&adv_sectkn=55dea06a643eb8a2d267a735fe2683bd&adv_name=appier-api&payout=1.3,idfa_54874409-BC15-4A12-A8EF-2FD9C0D9F743,zh
2gTfzMIeSzmNH4OZZFRPQA,doglobal_api,772_10522772,Install,1.3,223.197.202.104,114AD4CC-7A1B-4CF1-9832-F5B9A1871F20,1558490983,2019-05-22 10:09:43,1558491007,2019-05-22 10:10:07,1558491037,P_0c41997c97a65895-NzcyXy0xNDM0MTk5Mi0xMzAwLTExNzAtMDUyMi0xMDUyMjc3Mi0yOTYwODExNg,http://pb.xyz.duunion.com/conv?tid=P_0c41997c97a65895-NzcyXy0xNDM0MTk5Mi0xMzAwLTExNzAtMDUyMi0xMDUyMjc3Mi0yOTYwODExNg&adv_sectkn=55dea06a643eb8a2d267a735fe2683bd&adv_name=appier-api&payout=1.3,idfa_114AD4CC-7A1B-4CF1-9832-F5B9A1871F20,zh
2gTfzMIeSzmNH4OZZFRPQA,doglobal_api,772_10522772,Install,1.3,210.176.61.250,5C1549C4-733E-416D-B6CA-72F08EB4D36E,1558490966,2019-05-22 10:09:26,1558490989,2019-05-22 10:09:49,1558491019,B_ee9526e91c6581a6-NzcyXy0xNDM0MTk5Mi0xMzAwLTExNzAtMDUyMi0xMDUyMjc3Mi0yOTYwODExNg,http://pb.xyz.duunion.com/conv?tid=B_ee9526e91c6581a6-NzcyXy0xNDM0MTk5Mi0xMzAwLTExNzAtMDUyMi0xMDUyMjc3Mi0yOTYwODExNg&adv_sectkn=55dea06a643eb8a2d267a735fe2683bd&adv_name=appier-api&payout=1.3,idfa_5C1549C4-733E-416D-B6CA-72F08EB4D36E,zh
2gTfzMIeSzmNH4OZZFRPQA,doglobal_api,772_10522772,Install,1.3,203.198.150.167,638F6A7D-0675-4545-8942-743458E705D3,1558490791,2019-05-22 10:06:31,1558490841,2019-05-22 10:07:21,1558490872,P_4698ee8acab3185a-NzcyXy0xNDM0MTk5Mi0xMzAwLTExNzAtMDUyMi0xMDUyMjc3Mi0yOTY0MTI3OA,http://pb.xyz.duunion.com/conv?tid=P_4698ee8acab3185a-NzcyXy0xNDM0MTk5Mi0xMzAwLTExNzAtMDUyMi0xMDUyMjc3Mi0yOTY0MTI3OA&adv_sectkn=55dea06a643eb8a2d267a735fe2683bd&adv_name=appier-api&payout=1.3,idfa_638F6A7D-0675-4545-8942-743458E705D3,zh
2gTfzMIeSzmNH4OZZFRPQA,doglobal_api,772_10522772,Install,1.3,221.124.64.218,F22427D9-6581-4099-A5F3-66F5794457B8,1558491170,2019-05-22 10:12:50,1558491189,2019-05-22 10:13:09,1558491219,B_e5a826fa33c20d92-NzcyXy0xNDM0MTk5Mi0xMzAwLTExNzAtMDUyMi0xMDUyMjc3Mi0yOTg0NjY0NA,http://pb.xyz.duunion.com/conv?tid=B_e5a826fa33c20d92-NzcyXy0xNDM0MTk5Mi0xMzAwLTExNzAtMDUyMi0xMDUyMjc3Mi0yOTg0NjY0NA&adv_sectkn=55dea06a643eb8a2d267a735fe2683bd&adv_name=appier-api&payout=1.3,idfa_F22427D9-6581-4099-A5F3-66F5794457B8,zh
2gTfzMIeSzmNH4OZZFRPQA,doglobal_api,772_10522772,Install,1.3,43.240.117.239,0BCB6488-0B2A-41AF-83BD-79751044862A,1558490765,2019-05-22 10:06:05,1558490788,2019-05-22 10:06:28,1558490818,B_162377c823a45613-NzcyXy0xNDM0MTk5Mi0xMzAwLTExNzAtMDUyMi0xMDUyMjc3Mi0yOTYwODExNg,http://pb.xyz.duunion.com/conv?tid=B_162377c823a45613-NzcyXy0xNDM0MTk5Mi0xMzAwLTExNzAtMDUyMi0xMDUyMjc3Mi0yOTYwODExNg&adv_sectkn=55dea06a643eb8a2d267a735fe2683bd&adv_name=appier-api&payout=1.3,idfa_0BCB6488-0B2A-41AF-83BD-79751044862A,zh
2gTfzMIeSzmNH4OZZFRPQA,doglobal_api,772_10522772,Install,1.3,203.198.149.164,45A19D8B-3CD9-4957-B033-5FDC728ACD63,1558491055,2019-05-22 10:10:55,1558491109,2019-05-22 10:11:49,1558491140,P_cd9bb3a0af53f9d1-NzcyXy0xNDM0MTk5Mi0xMzAwLTExNzAtMDUyMi0xMDUyMjc3Mi0yOTY0MTI3OA,http://pb.xyz.duunion.com/conv?tid=P_cd9bb3a0af53f9d1-NzcyXy0xNDM0MTk5Mi0xMzAwLTExNzAtMDUyMi0xMDUyMjc3Mi0yOTY0MTI3OA&adv_sectkn=55dea06a643eb8a2d267a735fe2683bd&adv_name=appier-api&payout=1.3,idfa_45A19D8B-3CD9-4957-B033-5FDC728ACD63,zh
2gTfzMIeSzmNH4OZZFRPQA,doglobal_api,772_10522772,Install,1.3,113.28.9.22,10B4FC28-96CF-4123-8DAA-8EE88B14F50D,1558490452,2019-05-22 10:00:52,1558490474,2019-05-22 10:01:14,1558490505,B_1bfeb64d4374351d-NzcyXy0xNDM0MTk5Mi0xMzAwLTExNzAtMDUyMi0xMDUyMjc3Mi0yOTYwODExNg,http://pb.xyz.duunion.com/conv?tid=B_1bfeb64d4374351d-NzcyXy0xNDM0MTk5Mi0xMzAwLTExNzAtMDUyMi0xMDUyMjc3Mi0yOTYwODExNg&adv_sectkn=55dea06a643eb8a2d267a735fe2683bd&adv_name=appier-api&payout=1.3,idfa_10B4FC28-96CF-4123-8DAA-8EE88B14F50D,zh
2gTfzMIeSzmNH4OZZFRPQA,doglobal_api,772_10522772,Install,1.3,42.200.215.124,DE67ABEF-78FD-4C1C-8BC9-2A2AAF9050E0,1558490778,2019-05-22 10:06:18,1558490840,2019-05-22 10:07:20,1558490871,B_a758ef0bbd692ef3-NzcyXy0xNDM0MTk5Mi0xMzAwLTExNzAtMDUyMi0xMDUyMjc3Mi0yOTY0MTI3OA,http://pb.xyz.duunion.com/conv?tid=B_a758ef0bbd692ef3-NzcyXy0xNDM0MTk5Mi0xMzAwLTExNzAtMDUyMi0xMDUyMjc3Mi0yOTY0MTI3OA&adv_sectkn=55dea06a643eb8a2d267a735fe2683bd&adv_name=appier-api&payout=1.3,idfa_DE67ABEF-78FD-4C1C-8BC9-2A2AAF9050E0,zh
2gTfzMIeSzmNH4OZZFRPQA,doglobal_api,772_10522772,Install,1.3,203.198.150.167,CE05DD4D-365D-4799-ADBF-74C93B4A92C0,1558490945,2019-05-22 10:09:05,1558490999,2019-05-22 10:09:59,1558491029,B_acf86854234d7e14-NzcyXy0xNDM0MTk5Mi0xMzAwLTExNzAtMDUyMi0xMDUyMjc3Mi0zMDM3NTQ4OQ,http://pb.xyz.duunion.com/conv?tid=B_acf86854234d7e14-NzcyXy0xNDM0MTk5Mi0xMzAwLTExNzAtMDUyMi0xMDUyMjc3Mi0zMDM3NTQ4OQ&adv_sectkn=55dea06a643eb8a2d267a735fe2683bd&adv_name=appier-api&payout=1.3,idfa_CE05DD4D-365D-4799-ADBF-74C93B4A92C0,ja
2gTfzMIeSzmNH4OZZFRPQA,doglobal_api,772_10522772,Install,1.3,223.197.133.27,9D2337C2-8F85-440D-8515-D8F6512FBBF9,1558490817,2019-05-22 10:06:57,1558490868,2019-05-22 10:07:48,1558490899,P_37f234333290adbc-NzcyXy0xNDM0MTk5Mi0xMzAwLTExNzAtMDUyMi0xMDUyMjc3Mi0yOTY0MTI3OA,http://pb.xyz.duunion.com/conv?tid=P_37f234333290adbc-NzcyXy0xNDM0MTk5Mi0xMzAwLTExNzAtMDUyMi0xMDUyMjc3Mi0yOTY0MTI3OA&adv_sectkn=55dea06a643eb8a2d267a735fe2683bd&adv_name=appier-api&payout=1.3,idfa_9D2337C2-8F85-440D-8515-D8F6512FBBF9,zh
2gTfzMIeSzmNH4OZZFRPQA,doglobal_api,772_10522772,Install,1.3,223.197.223.161,42530C8F-35C0-4A45-A9BF-755FA186EA07,1558490267,2019-05-22 09:57:47,1558490293,2019-05-22 09:58:13,1558490323,B_78aa9cd409cdf3d5-NzcyXy0xNDM0MTk5Mi0xMzAwLTExNzAtMDUyMi0xMDUyMjc3Mi0yOTYwODExNg,http://pb.xyz.duunion.com/conv?tid=B_78aa9cd409cdf3d5-NzcyXy0xNDM0MTk5Mi0xMzAwLTExNzAtMDUyMi0xMDUyMjc3Mi0yOTYwODExNg&adv_sectkn=55dea06a643eb8a2d267a735fe2683bd&adv_name=appier-api&payout=1.3,idfa_42530C8F-35C0-4A45-A9BF-755FA186EA07,zh
2gTfzMIeSzmNH4OZZFRPQA,doglobal_api,772_10522772,Install,1.3,118.141.42.153,1BDE770A-05FC-4AF8-AB5D-F04A1DC5C4BE,1558490669,2019-05-22 10:04:29,1558490691,2019-05-22 10:04:51,1558490722,B_27a96caa488669e6-NzcyXy0xNDM0MTk5Mi0xMzAwLTExNzAtMDUyMi0xMDUyMjc3Mi0yOTQ0MTM5NA,http://pb.xyz.duunion.com/conv?tid=B_27a96caa488669e6-NzcyXy0xNDM0MTk5Mi0xMzAwLTExNzAtMDUyMi0xMDUyMjc3Mi0yOTQ0MTM5NA&adv_sectkn=55dea06a643eb8a2d267a735fe2683bd&adv_name=appier-api&payout=1.3,idfa_1BDE770A-05FC-4AF8-AB5D-F04A1DC5C4BE,zh
2gTfzMIeSzmNH4OZZFRPQA,doglobal_api,772_10522772,Install,1.3,219.76.177.98,11F86C02-36FC-41AA-A3AC-9419CBD8CC12,1558490873,2019-05-22 10:07:53,1558490934,2019-05-22 10:08:54,1558491001,P_8de74160594bbc9d-NzcyXy0xNDM0MTk5Mi0xMzAwLTExNzAtMDUyMi0xMDUyMjc3Mi0yOTY0MTI3OA,http://pb.xyz.duunion.com/conv?tid=P_8de74160594bbc9d-NzcyXy0xNDM0MTk5Mi0xMzAwLTExNzAtMDUyMi0xMDUyMjc3Mi0yOTY0MTI3OA&adv_sectkn=55dea06a643eb8a2d267a735fe2683bd&adv_name=appier-api&payout=1.3,idfa_11F86C02-36FC-41AA-A3AC-9419CBD8CC12,zh
2gTfzMIeSzmNH4OZZFRPQA,doglobal_api,772_10522772,Install,1.3,221.124.64.218,D66B5EDE-D4AF-4F4E-95B9-76D3F6C104BF,1558490248,2019-05-22 09:57:28,1558490271,2019-05-22 09:57:51,1558490301,B_7664e4bb78b31cff-NzcyXy0xNDM0MTk5Mi0xMzAwLTExNzAtMDUyMi0xMDUyMjc3Mi0yOTYwODExNg,http://pb.xyz.duunion.com/conv?tid=B_7664e4bb78b31cff-NzcyXy0xNDM0MTk5Mi0xMzAwLTExNzAtMDUyMi0xMDUyMjc3Mi0yOTYwODExNg&adv_sectkn=55dea06a643eb8a2d267a735fe2683bd&adv_name=appier-api&payout=1.3,idfa_D66B5EDE-D4AF-4F4E-95B9-76D3F6C104BF,zh
2gTfzMIeSzmNH4OZZFRPQA,doglobal_api,772_10522772,Install,1.3,218.255.70.198,490B981A-BEAA-4D43-88D3-434D7CA18137,1558489949,2019-05-22 09:52:29,1558490114,2019-05-22 09:55:14,1558490148,P_3c59f84c2b2af65b-NzcyXy0xNDM0MTk5Mi0xMzAwLTExNzAtMDUyMi0xMDUyMjc3Mi0yOTU2NzEyMQ,http://pb.xyz.duunion.com/conv?tid=P_3c59f84c2b2af65b-NzcyXy0xNDM0MTk5Mi0xMzAwLTExNzAtMDUyMi0xMDUyMjc3Mi0yOTU2NzEyMQ&adv_sectkn=55dea06a643eb8a2d267a735fe2683bd&adv_name=appier-api&payout=1.3,idfa_490B981A-BEAA-4D43-88D3-434D7CA18137,zh
2gTfzMIeSzmNH4OZZFRPQA,doglobal_api,772_10522772,Install,1.3,218.103.126.211,D25BE8BC-3A9B-4992-B391-87571CAD3383,1558490863,2019-05-22 10:07:43,1558490889,2019-05-22 10:08:09,1558490919,P_f4e5f3f808cc0bab-NzcyXy0xNDM0MTk5Mi0xMzAwLTExNzAtMDUyMi0xMDUyMjc3Mi0yOTYwODExNg,http://pb.xyz.duunion.com/conv?tid=P_f4e5f3f808cc0bab-NzcyXy0xNDM0MTk5Mi0xMzAwLTExNzAtMDUyMi0xMDUyMjc3Mi0yOTYwODExNg&adv_sectkn=55dea06a643eb8a2d267a735fe2683bd&adv_name=appier-api&payout=1.3,idfa_D25BE8BC-3A9B-4992-B391-87571CAD3383,zh
2gTfzMIeSzmNH4OZZFRPQA,doglobal_api,772_10522772,Install,1.3,223.197.223.161,2563D253-210A-4561-B7DF-8A34D11565AA,1558490754,2019-05-22 10:05:54,1558490779,2019-05-22 10:06:19,1558490810,P_4063da8ef9ad173f-NzcyXy0xNDM0MTk5Mi0xMzAwLTExNzAtMDUyMi0xMDUyMjc3Mi0yOTQ0MTM5NA,http://pb.xyz.duunion.com/conv?tid=P_4063da8ef9ad173f-NzcyXy0xNDM0MTk5Mi0xMzAwLTExNzAtMDUyMi0xMDUyMjc3Mi0yOTQ0MTM5NA&adv_sectkn=55dea06a643eb8a2d267a735fe2683bd&adv_name=appier-api&payout=1.3,idfa_2563D253-210A-4561-B7DF-8A34D11565AA,zh
2gTfzMIeSzmNH4OZZFRPQA,doglobal_api,772_10522772,Install,1.3,203.198.149.164,D4250744-A3A0-4EB3-BC38-0F86C6A7B1D3,1558490549,2019-05-22 10:02:29,1558490574,2019-05-22 10:02:54,1558490604,B_3e0d6065c41db963-NzcyXy0xNDM0MTk5Mi0xMzAwLTExNzAtMDUyMi0xMDUyMjc3Mi0yOTYwODExNg,http://pb.xyz.duunion.com/conv?tid=B_3e0d6065c41db963-NzcyXy0xNDM0MTk5Mi0xMzAwLTExNzAtMDUyMi0xMDUyMjc3Mi0yOTYwODExNg&adv_sectkn=55dea06a643eb8a2d267a735fe2683bd&adv_name=appier-api&payout=1.3,idfa_D4250744-A3A0-4EB3-BC38-0F86C6A7B1D3,zh
2gTfzMIeSzmNH4OZZFRPQA,doglobal_api,772_10522772,Install,1.3,223.197.202.104,BE34EE0E-B742-4D84-9C2C-A0E04B894C59,1558491088,2019-05-22 10:11:28,1558491110,2019-05-22 10:11:50,1558491142,P_55911e9579870e66-NzcyXy0xNDM0MTk5Mi0xMzAwLTExNzAtMDUyMi0xMDUyMjc3Mi0yOTYwODExNg,http://pb.xyz.duunion.com/conv?tid=P_55911e9579870e66-NzcyXy0xNDM0MTk5Mi0xMzAwLTExNzAtMDUyMi0xMDUyMjc3Mi0yOTYwODExNg&adv_sectkn=55dea06a643eb8a2d267a735fe2683bd&adv_name=appier-api&payout=1.3,idfa_BE34EE0E-B742-4D84-9C2C-A0E04B894C59,zh
2gTfzMIeSzmNH4OZZFRPQA,doglobal_api,772_10522772,Install,1.3,210.3.173.34,E1089D79-0440-40C8-A282-D69E2F84958F,1558491054,2019-05-22 10:10:54,1558491103,2019-05-22 10:11:43,1558491135,B_677f37cd98f0103c-NzcyXy0xNDM0MTk5Mi0xMzAwLTExNzAtMDUyMi0xMDUyMjc3Mi0yOTY0MTI3OA,http://pb.xyz.duunion.com/conv?tid=B_677f37cd98f0103c-NzcyXy0xNDM0MTk5Mi0xMzAwLTExNzAtMDUyMi0xMDUyMjc3Mi0yOTY0MTI3OA&adv_sectkn=55dea06a643eb8a2d267a735fe2683bd&adv_name=appier-api&payout=1.3,idfa_E1089D79-0440-40C8-A282-D69E2F84958F,zh
2gTfzMIeSzmNH4OZZFRPQA,doglobal_api,772_10522772,Install,1.3,203.198.150.167,91194681-5937-42B1-8FCD-84013C940BA2,1558490645,2019-05-22 10:04:05,1558497636,2019-05-22 12:00:36,1558497666,B_448d7704192c6831-NzcyXy0xNDM0MTk5Mi0xMzAwLTExNzAtMDUyMi0xMDUyMjc3Mi0yOTYwODExNg,http://pb.xyz.duunion.com/conv?tid=B_448d7704192c6831-NzcyXy0xNDM0MTk5Mi0xMzAwLTExNzAtMDUyMi0xMDUyMjc3Mi0yOTYwODExNg&adv_sectkn=55dea06a643eb8a2d267a735fe2683bd&adv_name=appier-api&payout=1.3,idfa_91194681-5937-42B1-8FCD-84013C940BA2,zh
2gTfzMIeSzmNH4OZZFRPQA,doglobal_api,772_10522772,Install,1.3,218.103.126.211,45976251-DF3D-43A4-8427-2400C6A8569C,1558490821,2019-05-22 10:07:01,1558490844,2019-05-22 10:07:24,1558490874,P_ce63cefe55ac9af1-NzcyXy0xNDM0MTk5Mi0xMzAwLTExNzAtMDUyMi0xMDUyMjc3Mi0yOTYwODExNg,http://pb.xyz.duunion.com/conv?tid=P_ce63cefe55ac9af1-NzcyXy0xNDM0MTk5Mi0xMzAwLTExNzAtMDUyMi0xMDUyMjc3Mi0yOTYwODExNg&adv_sectkn=55dea06a643eb8a2d267a735fe2683bd&adv_name=appier-api&payout=1.3,idfa_45976251-DF3D-43A4-8427-2400C6A8569C,zh
2gTfzMIeSzmNH4OZZFRPQA,doglobal_api,772_10522772,Install,1.3,223.197.168.2,AB9916FA-A6DA-4874-AA56-A05D539F3F51,1558489998,2019-05-22 09:53:18,1558490021,2019-05-22 09:53:41,1558490051,B_29055b6e2b623fb4-NzcyXy0xNDM0MTk5Mi0xMzAwLTExNzAtMDUyMi0xMDUyMjc3Mi0yOTYwODExNg,http://pb.xyz.duunion.com/conv?tid=B_29055b6e2b623fb4-NzcyXy0xNDM0MTk5Mi0xMzAwLTExNzAtMDUyMi0xMDUyMjc3Mi0yOTYwODExNg&adv_sectkn=55dea06a643eb8a2d267a735fe2683bd&adv_name=appier-api&payout=1.3,idfa_AB9916FA-A6DA-4874-AA56-A05D539F3F51,zh
