cid,partner_id,channel_id,action_id,cpi,ip,idfa,click time,click datetime,install time,install datetime,postback time,click id,postback url,unique user id
neHczP2bSlGvI70stGcXCg,doglobal_api,967_512509_7_31_1545_10010_15_05961-05121_12935,Install,2.1,1.171.192.228,7F2761D5-7878-4017-87F2-A560ABD02D6D,1557901219,2019-05-15 14:20:19,1557901280,2019-05-15 14:21:20,1557901311,P_6b46afc5bdb63615-OTY3Xy0xNDE0NjUwNS0yMTAwLTI3MzAtMDUxNS0t,http://pb.xyz.duunion.com/conv?tid=P_6b46afc5bdb63615-OTY3Xy0xNDE0NjUwNS0yMTAwLTI3MzAtMDUxNS0t&adv_sectkn=55dea06a643eb8a2d267a735fe2683bd&adv_name=appier-api&payout=2.1,idfa_7F2761D5-7878-4017-87F2-A560ABD02D6D,zh-Hant-TW
neHczP2bSlGvI70stGcXCg,doglobal_api,967_512509_7_31_1545_10010_15_05961-05121_12935,Install,2.1,114.36.241.220,B7C9BEB2-3665-43F5-B50E-14C2EF975E7F,1557901035,2019-05-15 14:17:15,1557901119,2019-05-15 14:18:39,1557901150,B_dd6ca12f43f47192-OTY3Xy0xNDE0NjUwNS0yMTAwLTI3MzAtMDUxNS0t,http://pb.xyz.duunion.com/conv?tid=B_dd6ca12f43f47192-OTY3Xy0xNDE0NjUwNS0yMTAwLTI3MzAtMDUxNS0t&adv_sectkn=55dea06a643eb8a2d267a735fe2683bd&adv_name=appier-api&payout=2.1,idfa_B7C9BEB2-3665-43F5-B50E-14C2EF975E7F,zh-Hant-TW
neHczP2bSlGvI70stGcXCg,doglobal_api,967_512509_7_31_1545_10010_15_05961-05121_12935,Install,2.1,36.237.98.15,7F71FB5A-93A7-4375-BF22-645527F5C725,1557901207,2019-05-15 14:20:07,1557901245,2019-05-15 14:20:45,1557901276,P_2dcec6615585e9d3-OTY3Xy0xNDE0NjUwNS0yMTAwLTI3MzAtMDUxNS0t,http://pb.xyz.duunion.com/conv?tid=P_2dcec6615585e9d3-OTY3Xy0xNDE0NjUwNS0yMTAwLTI3MzAtMDUxNS0t&adv_sectkn=55dea06a643eb8a2d267a735fe2683bd&adv_name=appier-api&payout=2.1,idfa_7F71FB5A-93A7-4375-BF22-645527F5C725,zh-Hant-TW
neHczP2bSlGvI70stGcXCg,doglobal_api,967_512509_7_31_1545_10010_15_05961-05121_12935,Install,2.1,111.251.230.70,A6BB437F-DAD2-4A5A-BF82-3590EC1E2C5C,1557900953,2019-05-15 14:15:53,1557901003,2019-05-15 14:16:43,1557901034,P_3017ea11e5482985-OTY3Xy0xNDE0NjUwNS0yMTAwLTI3MzAtMDUxNS0t,http://pb.xyz.duunion.com/conv?tid=P_3017ea11e5482985-OTY3Xy0xNDE0NjUwNS0yMTAwLTI3MzAtMDUxNS0t&adv_sectkn=55dea06a643eb8a2d267a735fe2683bd&adv_name=appier-api&payout=2.1,idfa_A6BB437F-DAD2-4A5A-BF82-3590EC1E2C5C,zh-Hant-TW
neHczP2bSlGvI70stGcXCg,doglobal_api,967_512509_7_31_1545_10010_15_05961-05121_12935,Install,2.1,36.225.167.224,93B7E19C-0AE2-496D-BD34-13061E6A34BF,1557901213,2019-05-15 14:20:13,1557901262,2019-05-15 14:21:02,1557901294,B_66dd39d9ea1c6f99-OTY3Xy0xNDE0NjUwNS0yMTAwLTI3MzAtMDUxNS0t,http://pb.xyz.duunion.com/conv?tid=B_66dd39d9ea1c6f99-OTY3Xy0xNDE0NjUwNS0yMTAwLTI3MzAtMDUxNS0t&adv_sectkn=55dea06a643eb8a2d267a735fe2683bd&adv_name=appier-api&payout=2.1,idfa_93B7E19C-0AE2-496D-BD34-13061E6A34BF,zh-Hant-TW
neHczP2bSlGvI70stGcXCg,doglobal_api,967_512509_7_31_1545_10010_15_05961-05121_12935,Install,2.1,36.231.156.204,34F56C0F-1B65-447F-9F0F-5E755BD58C8F,1557901365,2019-05-15 14:22:45,1557901400,2019-05-15 14:23:20,1557901431,P_240bf33a7625a5cf-OTY3Xy0xNDE0NjUwNS0yMTAwLTI3MzAtMDUxNS0t,http://pb.xyz.duunion.com/conv?tid=P_240bf33a7625a5cf-OTY3Xy0xNDE0NjUwNS0yMTAwLTI3MzAtMDUxNS0t&adv_sectkn=55dea06a643eb8a2d267a735fe2683bd&adv_name=appier-api&payout=2.1,idfa_34F56C0F-1B65-447F-9F0F-5E755BD58C8F,zh-Hant-TW
neHczP2bSlGvI70stGcXCg,doglobal_api,967_512509_7_31_1545_10010_15_05961-05121_12935,Install,2.1,1.161.71.239,B20528BE-847B-4485-9569-C1CFEBF6373E,1557901311,2019-05-15 14:21:51,1557901342,2019-05-15 14:22:22,1557901374,P_ce3d1dec9a55f954-OTY3Xy0xNDE0NjUwNS0yMTAwLTI3MzAtMDUxNS0t,http://pb.xyz.duunion.com/conv?tid=P_ce3d1dec9a55f954-OTY3Xy0xNDE0NjUwNS0yMTAwLTI3MzAtMDUxNS0t&adv_sectkn=55dea06a643eb8a2d267a735fe2683bd&adv_name=appier-api&payout=2.1,idfa_B20528BE-847B-4485-9569-C1CFEBF6373E,zh-Hant-TW
neHczP2bSlGvI70stGcXCg,doglobal_api,967_512509_7_31_1545_10010_15_05961-05121_12935,Install,2.1,111.249.51.140,5C88A6CB-B45A-4AEF-AECC-586AC7BF5748,1557900775,2019-05-15 14:12:55,1557900819,2019-05-15 14:13:39,1557900850,B_0b0449cdabd60c3c-OTY3Xy0xNDE0NjUwNS0yMTAwLTI3MzAtMDUxNS0t,http://pb.xyz.duunion.com/conv?tid=B_0b0449cdabd60c3c-OTY3Xy0xNDE0NjUwNS0yMTAwLTI3MzAtMDUxNS0t&adv_sectkn=55dea06a643eb8a2d267a735fe2683bd&adv_name=appier-api&payout=2.1,idfa_5C88A6CB-B45A-4AEF-AECC-586AC7BF5748,zh-Hant-TW
neHczP2bSlGvI70stGcXCg,doglobal_api,967_512509_7_31_1545_10010_15_05961-05121_12935,Install,2.1,114.40.10.15,41EA81FB-8BA1-4403-A3ED-9A29613C41F2,1557900926,2019-05-15 14:15:26,1557900989,2019-05-15 14:16:29,1557901020,B_66ac42493211da11-OTY3Xy0xNDE0NjUwNS0yMTAwLTI3MzAtMDUxNS0t,http://pb.xyz.duunion.com/conv?tid=B_66ac42493211da11-OTY3Xy0xNDE0NjUwNS0yMTAwLTI3MzAtMDUxNS0t&adv_sectkn=55dea06a643eb8a2d267a735fe2683bd&adv_name=appier-api&payout=2.1,idfa_41EA81FB-8BA1-4403-A3ED-9A29613C41F2,zh-Hant-TW
neHczP2bSlGvI70stGcXCg,doglobal_api,967_512509_7_31_1545_10010_15_05961-05121_12935,Install,2.1,125.224.163.150,88BD28F3-C79A-4B15-9FFB-6933681A74DF,1557900863,2019-05-15 14:14:23,1557900897,2019-05-15 14:14:57,1557900928,B_3c81181c9250e998-OTY3Xy0xNDE0NjUwNS0yMTAwLTI3MzAtMDUxNS0t,http://pb.xyz.duunion.com/conv?tid=B_3c81181c9250e998-OTY3Xy0xNDE0NjUwNS0yMTAwLTI3MzAtMDUxNS0t&adv_sectkn=55dea06a643eb8a2d267a735fe2683bd&adv_name=appier-api&payout=2.1,idfa_88BD28F3-C79A-4B15-9FFB-6933681A74DF,zh-Hant-TW
neHczP2bSlGvI70stGcXCg,doglobal_api,967_512509_7_31_1545_10010_15_05961-05121_12935,Install,2.1,114.37.209.111,CA0FE1B1-D38A-400B-AD54-7C8192CAD7E3,1557901063,2019-05-15 14:17:43,1557901109,2019-05-15 14:18:29,1557901140,P_30fd6af78636d836-OTY3Xy0xNDE0NjUwNS0yMTAwLTI3MzAtMDUxNS0t,http://pb.xyz.duunion.com/conv?tid=P_30fd6af78636d836-OTY3Xy0xNDE0NjUwNS0yMTAwLTI3MzAtMDUxNS0t&adv_sectkn=55dea06a643eb8a2d267a735fe2683bd&adv_name=appier-api&payout=2.1,idfa_CA0FE1B1-D38A-400B-AD54-7C8192CAD7E3,zh-Hant-TW
neHczP2bSlGvI70stGcXCg,doglobal_api,967_512509_7_31_1545_10010_15_05961-05121_12935,Install,2.1,114.36.19.177,773F004D-427D-4EFA-81E1-28F1DA56D29F,1557900917,2019-05-15 14:15:17,1557900948,2019-05-15 14:15:48,1557900979,P_daa32d1e48e53e75-OTY3Xy0xNDE0NjUwNS0yMTAwLTI3MzAtMDUxNS0t,http://pb.xyz.duunion.com/conv?tid=P_daa32d1e48e53e75-OTY3Xy0xNDE0NjUwNS0yMTAwLTI3MzAtMDUxNS0t&adv_sectkn=55dea06a643eb8a2d267a735fe2683bd&adv_name=appier-api&payout=2.1,idfa_773F004D-427D-4EFA-81E1-28F1DA56D29F,zh-Hant-TW
neHczP2bSlGvI70stGcXCg,doglobal_api,967_512509_7_31_1545_10010_15_05961-05121_12935,Install,2.1,118.170.72.73,6F91F953-6717-45BA-BFB3-D1D43FC55955,1557901404,2019-05-15 14:23:24,1557901446,2019-05-15 14:24:06,1557901477,P_00ea0f6d636084fb-OTY3Xy0xNDE0NjUwNS0yMTAwLTI3MzAtMDUxNS0t,http://pb.xyz.duunion.com/conv?tid=P_00ea0f6d636084fb-OTY3Xy0xNDE0NjUwNS0yMTAwLTI3MzAtMDUxNS0t&adv_sectkn=55dea06a643eb8a2d267a735fe2683bd&adv_name=appier-api&payout=2.1,idfa_6F91F953-6717-45BA-BFB3-D1D43FC55955,zh-Hant-TW
neHczP2bSlGvI70stGcXCg,doglobal_api,967_512509_7_31_1545_10010_15_05961-05121_12935,Install,2.1,61.224.16.6,BFF2736B-4A70-4718-9DDD-E0868668509D,1557901045,2019-05-15 14:17:25,1557901112,2019-05-15 14:18:32,1557901143,P_4c73e859fe2d75f7-OTY3Xy0xNDE0NjUwNS0yMTAwLTI3MzAtMDUxNS0t,http://pb.xyz.duunion.com/conv?tid=P_4c73e859fe2d75f7-OTY3Xy0xNDE0NjUwNS0yMTAwLTI3MzAtMDUxNS0t&adv_sectkn=55dea06a643eb8a2d267a735fe2683bd&adv_name=appier-api&payout=2.1,idfa_BFF2736B-4A70-4718-9DDD-E0868668509D,zh-Hant-TW
neHczP2bSlGvI70stGcXCg,doglobal_api,967_512509_7_31_1545_10010_15_05961-05121_12935,Install,2.1,1.173.216.107,6F084B12-C8DD-4C11-BAAB-7F636AD5C43D,1557900729,2019-05-15 14:12:09,1557900780,2019-05-15 14:13:00,1557900811,B_07f1569bd7321106-OTY3Xy0xNDE0NjUwNS0yMTAwLTI3MzAtMDUxNS0t,http://pb.xyz.duunion.com/conv?tid=B_07f1569bd7321106-OTY3Xy0xNDE0NjUwNS0yMTAwLTI3MzAtMDUxNS0t&adv_sectkn=55dea06a643eb8a2d267a735fe2683bd&adv_name=appier-api&payout=2.1,idfa_6F084B12-C8DD-4C11-BAAB-7F636AD5C43D,zh-Hant-TW
neHczP2bSlGvI70stGcXCg,doglobal_api,967_512509_7_31_1545_10010_15_05961-05121_12935,Install,2.1,111.251.43.134,8F7394C7-34A5-431F-A0D1-EAD9CA39E036,1557901487,2019-05-15 14:24:47,1557901532,2019-05-15 14:25:32,1557901562,B_269fceb027b01a9a-OTY3Xy0xNDE0NjUwNS0yMTAwLTI3MzAtMDUxNS0t,http://pb.xyz.duunion.com/conv?tid=B_269fceb027b01a9a-OTY3Xy0xNDE0NjUwNS0yMTAwLTI3MzAtMDUxNS0t&adv_sectkn=55dea06a643eb8a2d267a735fe2683bd&adv_name=appier-api&payout=2.1,idfa_8F7394C7-34A5-431F-A0D1-EAD9CA39E036,zh-Hant-TW
neHczP2bSlGvI70stGcXCg,doglobal_api,967_512509_7_31_1545_10010_15_05961-05121_12935,Install,2.1,36.235.241.169,7664025A-8389-45D5-8B89-C41E3567858B,1557901240,2019-05-15 14:20:40,1557901310,2019-05-15 14:21:50,1557901340,P_7383b1622c6abe1e-OTY3Xy0xNDE0NjUwNS0yMTAwLTI3MzAtMDUxNS0t,http://pb.xyz.duunion.com/conv?tid=P_7383b1622c6abe1e-OTY3Xy0xNDE0NjUwNS0yMTAwLTI3MzAtMDUxNS0t&adv_sectkn=55dea06a643eb8a2d267a735fe2683bd&adv_name=appier-api&payout=2.1,idfa_7664025A-8389-45D5-8B89-C41E3567858B,zh-Hant-TW
neHczP2bSlGvI70stGcXCg,doglobal_api,967_512509_7_31_1545_10010_15_05961-05121_12935,Install,2.1,118.165.129.203,41632EA0-E119-45E2-B7EF-082DAD6B01FD,1557901090,2019-05-15 14:18:10,1557901123,2019-05-15 14:18:43,1557901154,B_320f282c50b03394-OTY3Xy0xNDE0NjUwNS0yMTAwLTI3MzAtMDUxNS0t,http://pb.xyz.duunion.com/conv?tid=B_320f282c50b03394-OTY3Xy0xNDE0NjUwNS0yMTAwLTI3MzAtMDUxNS0t&adv_sectkn=55dea06a643eb8a2d267a735fe2683bd&adv_name=appier-api&payout=2.1,idfa_41632EA0-E119-45E2-B7EF-082DAD6B01FD,zh-Hant-TW
neHczP2bSlGvI70stGcXCg,doglobal_api,967_512509_7_31_1545_10010_15_05961-05121_12935,Install,2.1,59.115.233.44,F7ABCD6D-6162-440B-8B5A-730C66B765A3,1557901098,2019-05-15 14:18:18,1557901130,2019-05-15 14:18:50,1557901161,P_03aee570ba28fc5c-OTY3Xy0xNDE0NjUwNS0yMTAwLTI3MzAtMDUxNS0t,http://pb.xyz.duunion.com/conv?tid=P_03aee570ba28fc5c-OTY3Xy0xNDE0NjUwNS0yMTAwLTI3MzAtMDUxNS0t&adv_sectkn=55dea06a643eb8a2d267a735fe2683bd&adv_name=appier-api&payout=2.1,idfa_F7ABCD6D-6162-440B-8B5A-730C66B765A3,zh-Hant-TW
neHczP2bSlGvI70stGcXCg,doglobal_api,967_512509_7_31_1545_10010_15_05961-05121_12935,Install,2.1,111.240.136.55,4AE72441-1335-488E-AB01-A8F933CED4FA,1557901503,2019-05-15 14:25:03,1557901537,2019-05-15 14:25:37,1557901568,P_8f8b95a3947d017b-OTY3Xy0xNDE0NjUwNS0yMTAwLTI3MzAtMDUxNS0t,http://pb.xyz.duunion.com/conv?tid=P_8f8b95a3947d017b-OTY3Xy0xNDE0NjUwNS0yMTAwLTI3MzAtMDUxNS0t&adv_sectkn=55dea06a643eb8a2d267a735fe2683bd&adv_name=appier-api&payout=2.1,idfa_4AE72441-1335-488E-AB01-A8F933CED4FA,zh-Hant-TW
neHczP2bSlGvI70stGcXCg,doglobal_api,967_512509_7_31_1545_10010_15_05961-05121_12935,Install,2.1,122.121.234.244,C8201914-A4AF-4351-A42D-8A1863F8518A,1557901224,2019-05-15 14:20:24,1557901259,2019-05-15 14:20:59,1557901290,P_a8d7b2d9cccf7cfa-OTY3Xy0xNDE0NjUwNS0yMTAwLTI3MzAtMDUxNS0t,http://pb.xyz.duunion.com/conv?tid=P_a8d7b2d9cccf7cfa-OTY3Xy0xNDE0NjUwNS0yMTAwLTI3MzAtMDUxNS0t&adv_sectkn=55dea06a643eb8a2d267a735fe2683bd&adv_name=appier-api&payout=2.1,idfa_C8201914-A4AF-4351-A42D-8A1863F8518A,zh-Hant-TW
neHczP2bSlGvI70stGcXCg,doglobal_api,967_512509_7_31_1545_10010_15_05961-05121_12935,Install,2.1,218.173.161.166,B1B94A85-C67A-4F62-BD10-A736506C5BF9,1557900921,2019-05-15 14:15:21,1557900956,2019-05-15 14:15:56,1557900987,P_ae0e2c7b0fa5816e-OTY3Xy0xNDE0NjUwNS0yMTAwLTI3MzAtMDUxNS0t,http://pb.xyz.duunion.com/conv?tid=P_ae0e2c7b0fa5816e-OTY3Xy0xNDE0NjUwNS0yMTAwLTI3MzAtMDUxNS0t&adv_sectkn=55dea06a643eb8a2d267a735fe2683bd&adv_name=appier-api&payout=2.1,idfa_B1B94A85-C67A-4F62-BD10-A736506C5BF9,zh-Hant-TW
neHczP2bSlGvI70stGcXCg,doglobal_api,967_512509_7_31_1545_10010_15_05961-05121_12935,Install,2.1,1.163.24.121,5A219D3D-ADFC-4F0B-B22E-8333BE0C832B,1557900776,2019-05-15 14:12:56,1557900820,2019-05-15 14:13:40,1557900853,B_81ade4fee3487dfc-OTY3Xy0xNDE0NjUwNS0yMTAwLTI3MzAtMDUxNS0t,http://pb.xyz.duunion.com/conv?tid=B_81ade4fee3487dfc-OTY3Xy0xNDE0NjUwNS0yMTAwLTI3MzAtMDUxNS0t&adv_sectkn=55dea06a643eb8a2d267a735fe2683bd&adv_name=appier-api&payout=2.1,idfa_5A219D3D-ADFC-4F0B-B22E-8333BE0C832B,zh-Hant-TW
neHczP2bSlGvI70stGcXCg,doglobal_api,967_512509_7_31_1545_10010_15_05961-05121_12935,Install,2.1,125.230.122.81,20300838-1DB8-404E-AFA4-2C02327A6D62,1557901080,2019-05-15 14:18:00,1557901123,2019-05-15 14:18:43,1557901154,P_940b07b613ae976f-OTY3Xy0xNDE0NjUwNS0yMTAwLTI3MzAtMDUxNS0t,http://pb.xyz.duunion.com/conv?tid=P_940b07b613ae976f-OTY3Xy0xNDE0NjUwNS0yMTAwLTI3MzAtMDUxNS0t&adv_sectkn=55dea06a643eb8a2d267a735fe2683bd&adv_name=appier-api&payout=2.1,idfa_20300838-1DB8-404E-AFA4-2C02327A6D62,zh-Hant-TW
neHczP2bSlGvI70stGcXCg,doglobal_api,967_512509_7_31_1545_10010_15_05961-05121_12935,Install,2.1,111.255.205.246,AB0E76DE-7142-4097-98F7-627888B2D864,1557901118,2019-05-15 14:18:38,1557901189,2019-05-15 14:19:49,1557901220,B_6e326e7951739575-OTY3Xy0xNDE0NjUwNS0yMTAwLTI3MzAtMDUxNS0t,http://pb.xyz.duunion.com/conv?tid=B_6e326e7951739575-OTY3Xy0xNDE0NjUwNS0yMTAwLTI3MzAtMDUxNS0t&adv_sectkn=55dea06a643eb8a2d267a735fe2683bd&adv_name=appier-api&payout=2.1,idfa_AB0E76DE-7142-4097-98F7-627888B2D864,zh-Hant-TW
neHczP2bSlGvI70stGcXCg,doglobal_api,967_512509_7_31_1545_10010_15_05961-05121_12935,Install,2.1,61.62.73.175,C946A0BE-66E5-457A-AF62-CF45AF48FDF4,1557901135,2019-05-15 14:18:55,1557901187,2019-05-15 14:19:47,1557901219,P_c57332fbf5a5e5c5-OTY3Xy0xNDE0NjUwNS0yMTAwLTI3MzAtMDUxNS0t,http://pb.xyz.duunion.com/conv?tid=P_c57332fbf5a5e5c5-OTY3Xy0xNDE0NjUwNS0yMTAwLTI3MzAtMDUxNS0t&adv_sectkn=55dea06a643eb8a2d267a735fe2683bd&adv_name=appier-api&payout=2.1,idfa_C946A0BE-66E5-457A-AF62-CF45AF48FDF4,zh-Hant-TW
neHczP2bSlGvI70stGcXCg,doglobal_api,967_512509_7_31_1545_10010_15_05961-05121_12935,Install,2.1,1.168.196.105,48DC5071-F142-46C8-BBFB-080D4D4D2912,1557901494,2019-05-15 14:24:54,1557901531,2019-05-15 14:25:31,1557901562,P_473d40788b72ca5c-OTY3Xy0xNDE0NjUwNS0yMTAwLTI3MzAtMDUxNS0t,http://pb.xyz.duunion.com/conv?tid=P_473d40788b72ca5c-OTY3Xy0xNDE0NjUwNS0yMTAwLTI3MzAtMDUxNS0t&adv_sectkn=55dea06a643eb8a2d267a735fe2683bd&adv_name=appier-api&payout=2.1,idfa_48DC5071-F142-46C8-BBFB-080D4D4D2912,zh-Hant-TW
neHczP2bSlGvI70stGcXCg,doglobal_api,967_512509_7_31_1545_10010_15_05961-05121_12935,Install,2.1,59.115.96.244,E8068154-34AD-4A65-A261-22E8B4231192,1557901083,2019-05-15 14:18:03,1557901134,2019-05-15 14:18:54,1557901165,P_d74d09e16179f273-OTY3Xy0xNDE0NjUwNS0yMTAwLTI3MzAtMDUxNS0t,http://pb.xyz.duunion.com/conv?tid=P_d74d09e16179f273-OTY3Xy0xNDE0NjUwNS0yMTAwLTI3MzAtMDUxNS0t&adv_sectkn=55dea06a643eb8a2d267a735fe2683bd&adv_name=appier-api&payout=2.1,idfa_E8068154-34AD-4A65-A261-22E8B4231192,zh-Hant-TW
neHczP2bSlGvI70stGcXCg,doglobal_api,967_512509_7_31_1545_10010_15_05961-05121_12935,Install,2.1,111.253.100.248,0D52E5F4-B968-4CB4-A914-664835F5CDF1,1557901349,2019-05-15 14:22:29,1557901382,2019-05-15 14:23:02,1557901412,P_c6fc75b596b19f9f-OTY3Xy0xNDE0NjUwNS0yMTAwLTI3MzAtMDUxNS0t,http://pb.xyz.duunion.com/conv?tid=P_c6fc75b596b19f9f-OTY3Xy0xNDE0NjUwNS0yMTAwLTI3MzAtMDUxNS0t&adv_sectkn=55dea06a643eb8a2d267a735fe2683bd&adv_name=appier-api&payout=2.1,idfa_0D52E5F4-B968-4CB4-A914-664835F5CDF1,zh-Hant-TW
neHczP2bSlGvI70stGcXCg,doglobal_api,967_512509_7_31_1545_10010_15_05961-05121_12935,Install,2.1,1.169.13.196,E61CA0B6-BA6E-4B4B-AC7C-39EDD4951C41,1557901476,2019-05-15 14:24:36,1557901515,2019-05-15 14:25:15,1557901545,P_5cb5b93c60b65dff-OTY3Xy0xNDE0NjUwNS0yMTAwLTI3MzAtMDUxNS0t,http://pb.xyz.duunion.com/conv?tid=P_5cb5b93c60b65dff-OTY3Xy0xNDE0NjUwNS0yMTAwLTI3MzAtMDUxNS0t&adv_sectkn=55dea06a643eb8a2d267a735fe2683bd&adv_name=appier-api&payout=2.1,idfa_E61CA0B6-BA6E-4B4B-AC7C-39EDD4951C41,zh-Hant-TW
neHczP2bSlGvI70stGcXCg,doglobal_api,967_512509_7_31_1545_10010_15_05961-05121_12935,Install,2.1,111.254.114.189,385DEE3D-9986-4D91-AA10-AF485A041CCC,1557901230,2019-05-15 14:20:30,1557901281,2019-05-15 14:21:21,1557901311,P_db9ff5fc784fd574-OTY3Xy0xNDE0NjUwNS0yMTAwLTI3MzAtMDUxNS0t,http://pb.xyz.duunion.com/conv?tid=P_db9ff5fc784fd574-OTY3Xy0xNDE0NjUwNS0yMTAwLTI3MzAtMDUxNS0t&adv_sectkn=55dea06a643eb8a2d267a735fe2683bd&adv_name=appier-api&payout=2.1,idfa_385DEE3D-9986-4D91-AA10-AF485A041CCC,zh-Hant-TW
neHczP2bSlGvI70stGcXCg,doglobal_api,967_512509_7_31_1545_10010_15_05961-05121_12935,Install,2.1,114.43.109.142,D157C657-E3C6-46F3-A4F6-5C5977225A07,1557900846,2019-05-15 14:14:06,1557900909,2019-05-15 14:15:09,1557900940,B_c0972f58f21cf0eb-OTY3Xy0xNDE0NjUwNS0yMTAwLTI3MzAtMDUxNS0t,http://pb.xyz.duunion.com/conv?tid=B_c0972f58f21cf0eb-OTY3Xy0xNDE0NjUwNS0yMTAwLTI3MzAtMDUxNS0t&adv_sectkn=55dea06a643eb8a2d267a735fe2683bd&adv_name=appier-api&payout=2.1,idfa_D157C657-E3C6-46F3-A4F6-5C5977225A07,zh-Hant-TW
