cid,partner_id,channel_id,action_id,cpi,ip,idfa,click time,click datetime,install time,install datetime,postback time,click id,postback url,unique user id
1WvQVHBBTPSbdHl71UwccA,doglobal_api,784_1050,Install,1.0,222.112.82.67,9EE97AEC-C477-49F5-9E52-A65CC324A8BE,1557547380,2019-05-11 12:03:00,1557547450,2019-05-11 12:04:10,1557547481,P_dc75e5d82571af10-Nzg0Xy0xMjc4MzgyNy0xMDAwLTEwMDAtMDUxMS0tMTA1MA,http://pb.xyz.duunion.com/conv?tid=P_dc75e5d82571af10-Nzg0Xy0xMjc4MzgyNy0xMDAwLTEwMDAtMDUxMS0tMTA1MA&adv_sectkn=55dea06a643eb8a2d267a735fe2683bd&adv_name=appier-api&payout=1.0,idfa_9EE97AEC-C477-49F5-9E52-A65CC324A8BE,ko-KR
1WvQVHBBTPSbdHl71UwccA,doglobal_api,784_1050,Install,1.0,123.200.114.253,3759F4F2-82D5-44E0-AEC4-F66D4AC08879,1557549250,2019-05-11 12:34:10,1557549300,2019-05-11 12:35:00,1557549331,B_1f9eada756e34579-Nzg0Xy0xMjc4MzgyNy0xMDAwLTEwMDAtMDUxMS0tMTA1MA,http://pb.xyz.duunion.com/conv?tid=B_1f9eada756e34579-Nzg0Xy0xMjc4MzgyNy0xMDAwLTEwMDAtMDUxMS0tMTA1MA&adv_sectkn=55dea06a643eb8a2d267a735fe2683bd&adv_name=appier-api&payout=1.0,idfa_3759F4F2-82D5-44E0-AEC4-F66D4AC08879,ko-KR
1WvQVHBBTPSbdHl71UwccA,doglobal_api,784_1050,Install,1.0,220.126.189.241,8F4466D8-C16C-4F4E-8802-B39D5D9BB3AC,1557545041,2019-05-11 11:24:01,1557545102,2019-05-11 11:25:02,1557545133,B_27d7f031bc4df0b3-Nzg0Xy0xMjc4MzgyNy0xMDAwLTEwMDAtMDUxMS0tMTA1MA,http://pb.xyz.duunion.com/conv?tid=B_27d7f031bc4df0b3-Nzg0Xy0xMjc4MzgyNy0xMDAwLTEwMDAtMDUxMS0tMTA1MA&adv_sectkn=55dea06a643eb8a2d267a735fe2683bd&adv_name=appier-api&payout=1.0,idfa_8F4466D8-C16C-4F4E-8802-B39D5D9BB3AC,ko-KR
1WvQVHBBTPSbdHl71UwccA,doglobal_api,784_1050,Install,1.0,59.21.169.153,134B646E-E814-4179-A547-059641AB519E,1557545706,2019-05-11 11:35:06,1557545742,2019-05-11 11:35:42,1557545773,P_45f714c51fd8c4c7-Nzg0Xy0xMjc4MzgyNy0xMDAwLTEwMDAtMDUxMS0tMTA1MA,http://pb.xyz.duunion.com/conv?tid=P_45f714c51fd8c4c7-Nzg0Xy0xMjc4MzgyNy0xMDAwLTEwMDAtMDUxMS0tMTA1MA&adv_sectkn=55dea06a643eb8a2d267a735fe2683bd&adv_name=appier-api&payout=1.0,idfa_134B646E-E814-4179-A547-059641AB519E,ko-KR
1WvQVHBBTPSbdHl71UwccA,doglobal_api,784_1050,Install,1.0,210.216.14.25,CF40F241-2CEC-40EE-BCDE-8332F396E9EC,1557545731,2019-05-11 11:35:31,1557545782,2019-05-11 11:36:22,1557545813,P_573951358e48ec34-Nzg0Xy0xMjc4MzgyNy0xMDAwLTEwMDAtMDUxMS0tMTA1MA,http://pb.xyz.duunion.com/conv?tid=P_573951358e48ec34-Nzg0Xy0xMjc4MzgyNy0xMDAwLTEwMDAtMDUxMS0tMTA1MA&adv_sectkn=55dea06a643eb8a2d267a735fe2683bd&adv_name=appier-api&payout=1.0,idfa_CF40F241-2CEC-40EE-BCDE-8332F396E9EC,ko-KR
1WvQVHBBTPSbdHl71UwccA,doglobal_api,784_1050,Install,1.0,61.81.121.62,67CC78A5-DEFF-4746-A264-A405C148CC9B,1557544772,2019-05-11 11:19:32,1557544833,2019-05-11 11:20:33,1557544864,P_cfc8e89a82a1ba02-Nzg0Xy0xMjc4MzgyNy0xMDAwLTEwMDAtMDUxMS0tMTA1MA,http://pb.xyz.duunion.com/conv?tid=P_cfc8e89a82a1ba02-Nzg0Xy0xMjc4MzgyNy0xMDAwLTEwMDAtMDUxMS0tMTA1MA&adv_sectkn=55dea06a643eb8a2d267a735fe2683bd&adv_name=appier-api&payout=1.0,idfa_67CC78A5-DEFF-4746-A264-A405C148CC9B,ko-KR
1WvQVHBBTPSbdHl71UwccA,doglobal_api,784_1050,Install,1.0,27.116.125.146,7AF71C7C-4733-4CC9-8D96-A993B164166A,1557544812,2019-05-11 11:20:12,1557544873,2019-05-11 11:21:13,1557544903,B_04246e27a70f161c-Nzg0Xy0xMjc4MzgyNy0xMDAwLTEwMDAtMDUxMS0tMTA1MA,http://pb.xyz.duunion.com/conv?tid=B_04246e27a70f161c-Nzg0Xy0xMjc4MzgyNy0xMDAwLTEwMDAtMDUxMS0tMTA1MA&adv_sectkn=55dea06a643eb8a2d267a735fe2683bd&adv_name=appier-api&payout=1.0,idfa_7AF71C7C-4733-4CC9-8D96-A993B164166A,ko-KR
1WvQVHBBTPSbdHl71UwccA,doglobal_api,784_1050,Install,1.0,175.197.139.53,D75D5B2F-D926-4B4F-B4E5-DD366E250AD4,1557547193,2019-05-11 11:59:53,1557547265,2019-05-11 12:01:05,1557547296,P_ceb70448c7631a52-Nzg0Xy0xMjc4MzgyNy0xMDAwLTEwMDAtMDUxMS0tMTA1MA,http://pb.xyz.duunion.com/conv?tid=P_ceb70448c7631a52-Nzg0Xy0xMjc4MzgyNy0xMDAwLTEwMDAtMDUxMS0tMTA1MA&adv_sectkn=55dea06a643eb8a2d267a735fe2683bd&adv_name=appier-api&payout=1.0,idfa_D75D5B2F-D926-4B4F-B4E5-DD366E250AD4,ko-KR
1WvQVHBBTPSbdHl71UwccA,doglobal_api,784_1050,Install,1.0,110.15.70.56,D858F816-A7F2-4B2B-82FA-C98F5B46C7DF,1557549274,2019-05-11 12:34:34,1557549329,2019-05-11 12:35:29,1557549360,P_8d8d86817d632a97-Nzg0Xy0xMjc4MzgyNy0xMDAwLTEwMDAtMDUxMS0tMTA1MA,http://pb.xyz.duunion.com/conv?tid=P_8d8d86817d632a97-Nzg0Xy0xMjc4MzgyNy0xMDAwLTEwMDAtMDUxMS0tMTA1MA&adv_sectkn=55dea06a643eb8a2d267a735fe2683bd&adv_name=appier-api&payout=1.0,idfa_D858F816-A7F2-4B2B-82FA-C98F5B46C7DF,ko-KR
1WvQVHBBTPSbdHl71UwccA,doglobal_api,784_1050,Install,1.0,116.37.16.55,CC502AC6-3A18-4DFA-BA2C-E5F377ED8EF8,1557545010,2019-05-11 11:23:30,1557545080,2019-05-11 11:24:40,1557545111,P_30119fb32fc3aef0-Nzg0Xy0xMjc4MzgyNy0xMDAwLTEwMDAtMDUxMS0tMTA1MA,http://pb.xyz.duunion.com/conv?tid=P_30119fb32fc3aef0-Nzg0Xy0xMjc4MzgyNy0xMDAwLTEwMDAtMDUxMS0tMTA1MA&adv_sectkn=55dea06a643eb8a2d267a735fe2683bd&adv_name=appier-api&payout=1.0,idfa_CC502AC6-3A18-4DFA-BA2C-E5F377ED8EF8,ko-KR
1WvQVHBBTPSbdHl71UwccA,doglobal_api,784_1050,Install,1.0,211.224.22.35,9989652E-28D5-467D-80C4-43C6BCED6949,1557545037,2019-05-11 11:23:57,1557545098,2019-05-11 11:24:58,1557545128,B_7ff676425450fb6d-Nzg0Xy0xMjc4MzgyNy0xMDAwLTEwMDAtMDUxMS0tMTA1MA,http://pb.xyz.duunion.com/conv?tid=B_7ff676425450fb6d-Nzg0Xy0xMjc4MzgyNy0xMDAwLTEwMDAtMDUxMS0tMTA1MA&adv_sectkn=55dea06a643eb8a2d267a735fe2683bd&adv_name=appier-api&payout=1.0,idfa_9989652E-28D5-467D-80C4-43C6BCED6949,ko-KR
1WvQVHBBTPSbdHl71UwccA,doglobal_api,784_1050,Install,1.0,114.30.203.10,AA4BC572-53CF-4EF8-AF36-534C823BF740,1557546938,2019-05-11 11:55:38,1557547011,2019-05-11 11:56:51,1557547043,P_6058d49aa0ec9ae6-Nzg0Xy0xMjc4MzgyNy0xMDAwLTEwMDAtMDUxMS0tMTA1MA,http://pb.xyz.duunion.com/conv?tid=P_6058d49aa0ec9ae6-Nzg0Xy0xMjc4MzgyNy0xMDAwLTEwMDAtMDUxMS0tMTA1MA&adv_sectkn=55dea06a643eb8a2d267a735fe2683bd&adv_name=appier-api&payout=1.0,idfa_AA4BC572-53CF-4EF8-AF36-534C823BF740,ko-KR
1WvQVHBBTPSbdHl71UwccA,doglobal_api,784_1050,Install,1.0,27.116.255.153,A0C84CF0-43C9-40A7-8E1F-1DB639612A71,1557546970,2019-05-11 11:56:10,1557547036,2019-05-11 11:57:16,1557547067,P_21332b9257b7cff1-Nzg0Xy0xMjc4MzgyNy0xMDAwLTEwMDAtMDUxMS0tMTA1MA,http://pb.xyz.duunion.com/conv?tid=P_21332b9257b7cff1-Nzg0Xy0xMjc4MzgyNy0xMDAwLTEwMDAtMDUxMS0tMTA1MA&adv_sectkn=55dea06a643eb8a2d267a735fe2683bd&adv_name=appier-api&payout=1.0,idfa_A0C84CF0-43C9-40A7-8E1F-1DB639612A71,ko-KR
1WvQVHBBTPSbdHl71UwccA,doglobal_api,784_1050,Install,1.0,223.171.42.109,A27C1A02-A84B-4100-A335-99C4B4ABE090,1557545252,2019-05-11 11:27:32,1557545307,2019-05-11 11:28:27,1557545338,P_c81d428d0d32be7e-Nzg0Xy0xMjc4MzgyNy0xMDAwLTEwMDAtMDUxMS0tMTA1MA,http://pb.xyz.duunion.com/conv?tid=P_c81d428d0d32be7e-Nzg0Xy0xMjc4MzgyNy0xMDAwLTEwMDAtMDUxMS0tMTA1MA&adv_sectkn=55dea06a643eb8a2d267a735fe2683bd&adv_name=appier-api&payout=1.0,idfa_A27C1A02-A84B-4100-A335-99C4B4ABE090,ko-KR
1WvQVHBBTPSbdHl71UwccA,doglobal_api,784_1050,Install,1.0,112.222.68.235,CFCB2751-5194-4EE5-BF5D-F49E22482982,1557544786,2019-05-11 11:19:46,1557544857,2019-05-11 11:20:57,1557544888,P_d6ffc0738715f92f-Nzg0Xy0xMjc4MzgyNy0xMDAwLTEwMDAtMDUxMS0tMTA1MA,http://pb.xyz.duunion.com/conv?tid=P_d6ffc0738715f92f-Nzg0Xy0xMjc4MzgyNy0xMDAwLTEwMDAtMDUxMS0tMTA1MA&adv_sectkn=55dea06a643eb8a2d267a735fe2683bd&adv_name=appier-api&payout=1.0,idfa_CFCB2751-5194-4EE5-BF5D-F49E22482982,ko-KR
1WvQVHBBTPSbdHl71UwccA,doglobal_api,784_1050,Install,1.0,218.50.84.75,2CD6DD6E-8794-41E4-897B-8BD20781F386,1557549235,2019-05-11 12:33:55,1557549285,2019-05-11 12:34:45,1557549316,B_5000c19ec833621c-Nzg0Xy0xMjc4MzgyNy0xMDAwLTEwMDAtMDUxMS0tMTA1MA,http://pb.xyz.duunion.com/conv?tid=B_5000c19ec833621c-Nzg0Xy0xMjc4MzgyNy0xMDAwLTEwMDAtMDUxMS0tMTA1MA&adv_sectkn=55dea06a643eb8a2d267a735fe2683bd&adv_name=appier-api&payout=1.0,idfa_2CD6DD6E-8794-41E4-897B-8BD20781F386,ko-KR
1WvQVHBBTPSbdHl71UwccA,doglobal_api,784_1050,Install,1.0,121.153.74.28,F8AB1201-905C-4B81-88A4-0EE9697A2870,1557368733,2019-05-09 10:25:33,1557368779,2019-05-09 10:26:19,1557368817,B_d68f53dfdbf02dbf-Nzg0Xy0xMjc4MzgyNy0xMDAwLTEwMDAtMDUwOS0tMTA1MA,http://pb.xyz.duunion.com/conv?tid=B_d68f53dfdbf02dbf-Nzg0Xy0xMjc4MzgyNy0xMDAwLTEwMDAtMDUwOS0tMTA1MA&adv_sectkn=55dea06a643eb8a2d267a735fe2683bd&adv_name=appier-api&payout=1.0,idfa_F8AB1201-905C-4B81-88A4-0EE9697A2870,ko-KR
1WvQVHBBTPSbdHl71UwccA,doglobal_api,784_1050,Install,1.0,218.158.238.131,B83F2BDA-C99D-4C58-BAA2-33831AC64CB1,1557547407,2019-05-11 12:03:27,1557547463,2019-05-11 12:04:23,1557547495,B_320c604a5559ecf4-Nzg0Xy0xMjc4MzgyNy0xMDAwLTEwMDAtMDUxMS0tMTA1MA,http://pb.xyz.duunion.com/conv?tid=B_320c604a5559ecf4-Nzg0Xy0xMjc4MzgyNy0xMDAwLTEwMDAtMDUxMS0tMTA1MA&adv_sectkn=55dea06a643eb8a2d267a735fe2683bd&adv_name=appier-api&payout=1.0,idfa_B83F2BDA-C99D-4C58-BAA2-33831AC64CB1,ko-KR
1WvQVHBBTPSbdHl71UwccA,doglobal_api,784_1050,Install,1.0,112.171.248.197,C4857125-25B9-4D19-A34E-4D4771F38D81,1557546986,2019-05-11 11:56:26,1557547053,2019-05-11 11:57:33,1557547084,B_9020204e3c6897a3-Nzg0Xy0xMjc4MzgyNy0xMDAwLTEwMDAtMDUxMS0tMTA1MA,http://pb.xyz.duunion.com/conv?tid=B_9020204e3c6897a3-Nzg0Xy0xMjc4MzgyNy0xMDAwLTEwMDAtMDUxMS0tMTA1MA&adv_sectkn=55dea06a643eb8a2d267a735fe2683bd&adv_name=appier-api&payout=1.0,idfa_C4857125-25B9-4D19-A34E-4D4771F38D81,ko-KR
1WvQVHBBTPSbdHl71UwccA,doglobal_api,784_1050,Install,1.0,14.38.128.160,D72B8E7B-D997-4720-933C-15AA5720FA03,1557544820,2019-05-11 11:20:20,1557544876,2019-05-11 11:21:16,1557544908,P_d12e9bf4c79afbd0-Nzg0Xy0xMjc4MzgyNy0xMDAwLTEwMDAtMDUxMS0tMTA1MA,http://pb.xyz.duunion.com/conv?tid=P_d12e9bf4c79afbd0-Nzg0Xy0xMjc4MzgyNy0xMDAwLTEwMDAtMDUxMS0tMTA1MA&adv_sectkn=55dea06a643eb8a2d267a735fe2683bd&adv_name=appier-api&payout=1.0,idfa_D72B8E7B-D997-4720-933C-15AA5720FA03,ko-KR
1WvQVHBBTPSbdHl71UwccA,doglobal_api,784_1050,Install,1.0,220.116.112.76,B80258A5-98D6-4464-A8C6-A649726B8B82,1557546959,2019-05-11 11:55:59,1557547036,2019-05-11 11:57:16,1557547067,B_ee07a86a17a75ed5-Nzg0Xy0xMjc4MzgyNy0xMDAwLTEwMDAtMDUxMS0tMTA1MA,http://pb.xyz.duunion.com/conv?tid=B_ee07a86a17a75ed5-Nzg0Xy0xMjc4MzgyNy0xMDAwLTEwMDAtMDUxMS0tMTA1MA&adv_sectkn=55dea06a643eb8a2d267a735fe2683bd&adv_name=appier-api&payout=1.0,idfa_B80258A5-98D6-4464-A8C6-A649726B8B82,ko-KR
1WvQVHBBTPSbdHl71UwccA,doglobal_api,784_1050,Install,1.0,114.30.165.111,E99941D5-2D73-4E2E-8C12-76B01ED439D2,1557368488,2019-05-09 10:21:28,1557368530,2019-05-09 10:22:10,1557368561,P_c574d4b3fb546804-Nzg0Xy0xMjc4MzgyNy0xMDAwLTEwMDAtMDUwOS0tMTA1MA,http://pb.xyz.duunion.com/conv?tid=P_c574d4b3fb546804-Nzg0Xy0xMjc4MzgyNy0xMDAwLTEwMDAtMDUwOS0tMTA1MA&adv_sectkn=55dea06a643eb8a2d267a735fe2683bd&adv_name=appier-api&payout=1.0,idfa_E99941D5-2D73-4E2E-8C12-76B01ED439D2,ko-KR
1WvQVHBBTPSbdHl71UwccA,doglobal_api,784_1050,Install,1.0,121.136.181.58,48E9D54D-1BFA-487B-8512-6F482EA85B4E,1557547416,2019-05-11 12:03:36,1557547473,2019-05-11 12:04:33,1557547504,P_5fd74092795a1702-Nzg0Xy0xMjc4MzgyNy0xMDAwLTEwMDAtMDUxMS0tMTA1MA,http://pb.xyz.duunion.com/conv?tid=P_5fd74092795a1702-Nzg0Xy0xMjc4MzgyNy0xMDAwLTEwMDAtMDUxMS0tMTA1MA&adv_sectkn=55dea06a643eb8a2d267a735fe2683bd&adv_name=appier-api&payout=1.0,idfa_48E9D54D-1BFA-487B-8512-6F482EA85B4E,ko-KR
1WvQVHBBTPSbdHl71UwccA,doglobal_api,784_1050,Install,1.0,221.158.165.111,1A34A263-41AB-49C4-81DB-D829933F76E5,1557547184,2019-05-11 11:59:44,1557547246,2019-05-11 12:00:46,1557547276,P_c484db33f839deb2-Nzg0Xy0xMjc4MzgyNy0xMDAwLTEwMDAtMDUxMS0tMTA1MA,http://pb.xyz.duunion.com/conv?tid=P_c484db33f839deb2-Nzg0Xy0xMjc4MzgyNy0xMDAwLTEwMDAtMDUxMS0tMTA1MA&adv_sectkn=55dea06a643eb8a2d267a735fe2683bd&adv_name=appier-api&payout=1.0,idfa_1A34A263-41AB-49C4-81DB-D829933F76E5,ko-KR
1WvQVHBBTPSbdHl71UwccA,doglobal_api,784_1050,Install,1.0,61.74.226.7,351E238E-6EE0-42E5-AEBC-2C99B93DC847,1557544790,2019-05-11 11:19:50,1557544853,2019-05-11 11:20:53,1557544884,P_6738f3fb534ac51f-Nzg0Xy0xMjc4MzgyNy0xMDAwLTEwMDAtMDUxMS0tMTA1MA,http://pb.xyz.duunion.com/conv?tid=P_6738f3fb534ac51f-Nzg0Xy0xMjc4MzgyNy0xMDAwLTEwMDAtMDUxMS0tMTA1MA&adv_sectkn=55dea06a643eb8a2d267a735fe2683bd&adv_name=appier-api&payout=1.0,idfa_351E238E-6EE0-42E5-AEBC-2C99B93DC847,ko-KR
1WvQVHBBTPSbdHl71UwccA,doglobal_api,784_1050,Install,1.0,14.43.171.84,AD625FC8-3E19-4169-BBF7-B45096040F63,1557545005,2019-05-11 11:23:25,1557545069,2019-05-11 11:24:29,1557545099,B_64da41c0251c4fdf-Nzg0Xy0xMjc4MzgyNy0xMDAwLTEwMDAtMDUxMS0tMTA1MA,http://pb.xyz.duunion.com/conv?tid=B_64da41c0251c4fdf-Nzg0Xy0xMjc4MzgyNy0xMDAwLTEwMDAtMDUxMS0tMTA1MA&adv_sectkn=55dea06a643eb8a2d267a735fe2683bd&adv_name=appier-api&payout=1.0,idfa_AD625FC8-3E19-4169-BBF7-B45096040F63,ko-KR
1WvQVHBBTPSbdHl71UwccA,doglobal_api,784_1050,Install,1.0,14.32.29.69,6567BF8A-04A8-4E12-9893-78EF8DA1488A,1557545483,2019-05-11 11:31:23,1557545531,2019-05-11 11:32:11,1557545561,B_d1ccf639ad621c03-Nzg0Xy0xMjc4MzgyNy0xMDAwLTEwMDAtMDUxMS0tMTA1MA,http://pb.xyz.duunion.com/conv?tid=B_d1ccf639ad621c03-Nzg0Xy0xMjc4MzgyNy0xMDAwLTEwMDAtMDUxMS0tMTA1MA&adv_sectkn=55dea06a643eb8a2d267a735fe2683bd&adv_name=appier-api&payout=1.0,idfa_6567BF8A-04A8-4E12-9893-78EF8DA1488A,ko-KR
1WvQVHBBTPSbdHl71UwccA,doglobal_api,784_1050,Install,1.0,182.219.204.105,89ECC345-E27A-45A4-B50B-35774D7CC8A1,1557545297,2019-05-11 11:28:17,1557545334,2019-05-11 11:28:54,1557545365,P_d129e6cf09cd6128-Nzg0Xy0xMjc4MzgyNy0xMDAwLTEwMDAtMDUxMS0tMTA1MA,http://pb.xyz.duunion.com/conv?tid=P_d129e6cf09cd6128-Nzg0Xy0xMjc4MzgyNy0xMDAwLTEwMDAtMDUxMS0tMTA1MA&adv_sectkn=55dea06a643eb8a2d267a735fe2683bd&adv_name=appier-api&payout=1.0,idfa_89ECC345-E27A-45A4-B50B-35774D7CC8A1,ko-KR
1WvQVHBBTPSbdHl71UwccA,doglobal_api,784_1050,Install,1.0,175.212.238.6,CA0F6325-855F-433E-AE0B-12DC1F8626C6,1557547199,2019-05-11 11:59:59,1557547258,2019-05-11 12:00:58,1557547289,P_48968f7ea934e0dd-Nzg0Xy0xMjc4MzgyNy0xMDAwLTEwMDAtMDUxMS0tMTA1MA,http://pb.xyz.duunion.com/conv?tid=P_48968f7ea934e0dd-Nzg0Xy0xMjc4MzgyNy0xMDAwLTEwMDAtMDUxMS0tMTA1MA&adv_sectkn=55dea06a643eb8a2d267a735fe2683bd&adv_name=appier-api&payout=1.0,idfa_CA0F6325-855F-433E-AE0B-12DC1F8626C6,ko-KR
1WvQVHBBTPSbdHl71UwccA,doglobal_api,784_1050,Install,1.0,175.204.125.198,FEBAE388-07A0-41B4-86EF-5E424C6DBEBB,1557546972,2019-05-11 11:56:12,1557547027,2019-05-11 11:57:07,1557547058,B_4d234e960ff7497f-Nzg0Xy0xMjc4MzgyNy0xMDAwLTEwMDAtMDUxMS0tMTA1MA,http://pb.xyz.duunion.com/conv?tid=B_4d234e960ff7497f-Nzg0Xy0xMjc4MzgyNy0xMDAwLTEwMDAtMDUxMS0tMTA1MA&adv_sectkn=55dea06a643eb8a2d267a735fe2683bd&adv_name=appier-api&payout=1.0,idfa_FEBAE388-07A0-41B4-86EF-5E424C6DBEBB,ko-KR
