cid,partner_id,channel_id,action_id,cpi,ip,idfa,click time,click datetime,install time,install datetime,postback time,click id,postback url,unique user id
luAwkgWnTlO0HLhYkWCVag,doglobal_api,921_2161965,Of81qbvWSPKfViI7CdMfcw,2.5,,9F334C9E-3FC8-4BD0-BAA1-2C1E4D04C0C9,1558744924,2019-05-25 08:42:04,1558744994,2019-05-25 08:43:14,1558744994,P_22b16432623942cf-OTIxXy0xMTg0MTQ0Ny0yNTAwLTI3NTAtMDUyNS0tMjE2MTk2NQ,http://pb.xyz.duunion.com/conv?tid=P_22b16432623942cf-OTIxXy0xMTg0MTQ0Ny0yNTAwLTI3NTAtMDUyNS0tMjE2MTk2NQ&adv_sectkn=55dea06a643eb8a2d267a735fe2683bd&adv_name=appier-api&payout=2.5,idfa_9F334C9E-3FC8-4BD0-BAA1-2C1E4D04C0C9,ja
luAwkgWnTlO0HLhYkWCVag,doglobal_api,921_2161965,Of81qbvWSPKfViI7CdMfcw,2.5,,83C678FB-E9EF-475E-BE44-3625ECB988BF,1558745238,2019-05-25 08:47:18,1558745310,2019-05-25 08:48:30,1558745310,B_3ba02ca8509b883d-OTIxXy0xMTg0MTQ0Ny0yNTAwLTI3NTAtMDUyNS0tMjE2MTk2NQ,http://pb.xyz.duunion.com/conv?tid=B_3ba02ca8509b883d-OTIxXy0xMTg0MTQ0Ny0yNTAwLTI3NTAtMDUyNS0tMjE2MTk2NQ&adv_sectkn=55dea06a643eb8a2d267a735fe2683bd&adv_name=appier-api&payout=2.5,idfa_83C678FB-E9EF-475E-BE44-3625ECB988BF,ja
luAwkgWnTlO0HLhYkWCVag,doglobal_api,921_2161965,Of81qbvWSPKfViI7CdMfcw,2.5,,494D5120-6B49-4307-9A41-8FCF951DE45D,1558747045,2019-05-25 09:17:25,1558747123,2019-05-25 09:18:43,1558747123,B_ccbee4e1939eaed3-OTIxXy0xMTg0MTQ0Ny0yNTAwLTI3NTAtMDUyNS0tMjE2MTk2NQ,http://pb.xyz.duunion.com/conv?tid=B_ccbee4e1939eaed3-OTIxXy0xMTg0MTQ0Ny0yNTAwLTI3NTAtMDUyNS0tMjE2MTk2NQ&adv_sectkn=55dea06a643eb8a2d267a735fe2683bd&adv_name=appier-api&payout=2.5,idfa_494D5120-6B49-4307-9A41-8FCF951DE45D,ja
luAwkgWnTlO0HLhYkWCVag,doglobal_api,921_2161965,Of81qbvWSPKfViI7CdMfcw,2.5,,2173B425-2B18-4CF2-9554-945FC5CD2092,1558744386,2019-05-25 08:33:06,1558744460,2019-05-25 08:34:20,1558744460,B_b522491a906d971a-OTIxXy0xMTg0MTQ0Ny0yNTAwLTI3NTAtMDUyNS0tMjE2MTk2NQ,http://pb.xyz.duunion.com/conv?tid=B_b522491a906d971a-OTIxXy0xMTg0MTQ0Ny0yNTAwLTI3NTAtMDUyNS0tMjE2MTk2NQ&adv_sectkn=55dea06a643eb8a2d267a735fe2683bd&adv_name=appier-api&payout=2.5,idfa_2173B425-2B18-4CF2-9554-945FC5CD2092,ja
luAwkgWnTlO0HLhYkWCVag,doglobal_api,921_2161965,Of81qbvWSPKfViI7CdMfcw,2.5,,072DAF78-E0A2-4A92-B115-BCC638FCC55C,1558744396,2019-05-25 08:33:16,1558744481,2019-05-25 08:34:41,1558744481,P_ab449628ca8fb8d9-OTIxXy0xMTg0MTQ0Ny0yNTAwLTI3NTAtMDUyNS0tMjE2MTk2NQ,http://pb.xyz.duunion.com/conv?tid=P_ab449628ca8fb8d9-OTIxXy0xMTg0MTQ0Ny0yNTAwLTI3NTAtMDUyNS0tMjE2MTk2NQ&adv_sectkn=55dea06a643eb8a2d267a735fe2683bd&adv_name=appier-api&payout=2.5,idfa_072DAF78-E0A2-4A92-B115-BCC638FCC55C,ja
luAwkgWnTlO0HLhYkWCVag,doglobal_api,921_2161965,Of81qbvWSPKfViI7CdMfcw,2.5,,33BCB2F6-3319-4CDD-BD1A-CF0596C33B26,1558746388,2019-05-25 09:06:28,1558746463,2019-05-25 09:07:43,1558746463,B_8f04cb3acce5781f-OTIxXy0xMTg0MTQ0Ny0yNTAwLTI3NTAtMDUyNS0tMjE2MTk2NQ,http://pb.xyz.duunion.com/conv?tid=B_8f04cb3acce5781f-OTIxXy0xMTg0MTQ0Ny0yNTAwLTI3NTAtMDUyNS0tMjE2MTk2NQ&adv_sectkn=55dea06a643eb8a2d267a735fe2683bd&adv_name=appier-api&payout=2.5,idfa_33BCB2F6-3319-4CDD-BD1A-CF0596C33B26,ja
luAwkgWnTlO0HLhYkWCVag,doglobal_api,921_2161965,Of81qbvWSPKfViI7CdMfcw,2.5,,425D52AC-AEBE-4FF7-BA08-9E79EA78024E,1558747014,2019-05-25 09:16:54,1558747089,2019-05-25 09:18:09,1558747089,P_8cf8af2d972b6684-OTIxXy0xMTg0MTQ0Ny0yNTAwLTI3NTAtMDUyNS0tMjE2MTk2NQ,http://pb.xyz.duunion.com/conv?tid=P_8cf8af2d972b6684-OTIxXy0xMTg0MTQ0Ny0yNTAwLTI3NTAtMDUyNS0tMjE2MTk2NQ&adv_sectkn=55dea06a643eb8a2d267a735fe2683bd&adv_name=appier-api&payout=2.5,idfa_425D52AC-AEBE-4FF7-BA08-9E79EA78024E,ja
luAwkgWnTlO0HLhYkWCVag,doglobal_api,921_2161965,Of81qbvWSPKfViI7CdMfcw,2.5,,127A9C5D-130E-4213-ADA2-A941B2E73683,1558745139,2019-05-25 08:45:39,1558745218,2019-05-25 08:46:58,1558745218,B_9e27fb1605ed535f-OTIxXy0xMTg0MTQ0Ny0yNTAwLTI3NTAtMDUyNS0tMjE2MTk2NQ,http://pb.xyz.duunion.com/conv?tid=B_9e27fb1605ed535f-OTIxXy0xMTg0MTQ0Ny0yNTAwLTI3NTAtMDUyNS0tMjE2MTk2NQ&adv_sectkn=55dea06a643eb8a2d267a735fe2683bd&adv_name=appier-api&payout=2.5,idfa_127A9C5D-130E-4213-ADA2-A941B2E73683,ja
luAwkgWnTlO0HLhYkWCVag,doglobal_api,921_2161965,Of81qbvWSPKfViI7CdMfcw,2.5,,067160EE-3A6C-46B7-9AD3-BF75D9951495,1558745355,2019-05-25 08:49:15,1558745428,2019-05-25 08:50:28,1558745428,B_c952552860df1755-OTIxXy0xMTg0MTQ0Ny0yNTAwLTI3NTAtMDUyNS0tMjE2MTk2NQ,http://pb.xyz.duunion.com/conv?tid=B_c952552860df1755-OTIxXy0xMTg0MTQ0Ny0yNTAwLTI3NTAtMDUyNS0tMjE2MTk2NQ&adv_sectkn=55dea06a643eb8a2d267a735fe2683bd&adv_name=appier-api&payout=2.5,idfa_067160EE-3A6C-46B7-9AD3-BF75D9951495,ja
luAwkgWnTlO0HLhYkWCVag,doglobal_api,921_2161965,Of81qbvWSPKfViI7CdMfcw,2.5,,81ED3436-1DB8-41B7-AC5B-476D7CA6A842,1558744564,2019-05-25 08:36:04,1558744640,2019-05-25 08:37:20,1558744640,P_5caa771fb915556f-OTIxXy0xMTg0MTQ0Ny0yNTAwLTI3NTAtMDUyNS0tMjE2MTk2NQ,http://pb.xyz.duunion.com/conv?tid=P_5caa771fb915556f-OTIxXy0xMTg0MTQ0Ny0yNTAwLTI3NTAtMDUyNS0tMjE2MTk2NQ&adv_sectkn=55dea06a643eb8a2d267a735fe2683bd&adv_name=appier-api&payout=2.5,idfa_81ED3436-1DB8-41B7-AC5B-476D7CA6A842,ja
luAwkgWnTlO0HLhYkWCVag,doglobal_api,921_2161965,Of81qbvWSPKfViI7CdMfcw,2.5,,CC469786-1E51-43EE-AF7C-F3474D6D311A,1558746521,2019-05-25 09:08:41,1558746595,2019-05-25 09:09:55,1558746595,P_f1ce00f9141812e8-OTIxXy0xMTg0MTQ0Ny0yNTAwLTI3NTAtMDUyNS0tMjE2MTk2NQ,http://pb.xyz.duunion.com/conv?tid=P_f1ce00f9141812e8-OTIxXy0xMTg0MTQ0Ny0yNTAwLTI3NTAtMDUyNS0tMjE2MTk2NQ&adv_sectkn=55dea06a643eb8a2d267a735fe2683bd&adv_name=appier-api&payout=2.5,idfa_CC469786-1E51-43EE-AF7C-F3474D6D311A,ja
luAwkgWnTlO0HLhYkWCVag,doglobal_api,921_2161965,Of81qbvWSPKfViI7CdMfcw,2.5,,D0CFE07D-C153-4C81-918F-F8DAFA219B3C,1558745100,2019-05-25 08:45:00,1558745172,2019-05-25 08:46:12,1558745172,B_83f22dfe8cb31d17-OTIxXy0xMTg0MTQ0Ny0yNTAwLTI3NTAtMDUyNS0tMjE2MTk2NQ,http://pb.xyz.duunion.com/conv?tid=B_83f22dfe8cb31d17-OTIxXy0xMTg0MTQ0Ny0yNTAwLTI3NTAtMDUyNS0tMjE2MTk2NQ&adv_sectkn=55dea06a643eb8a2d267a735fe2683bd&adv_name=appier-api&payout=2.5,idfa_D0CFE07D-C153-4C81-918F-F8DAFA219B3C,ja
luAwkgWnTlO0HLhYkWCVag,doglobal_api,921_2161965,Of81qbvWSPKfViI7CdMfcw,2.5,,AD350D35-A3C0-45BC-ABDB-12EABCC016FE,1558744852,2019-05-25 08:40:52,1558744926,2019-05-25 08:42:06,1558744926,B_0dce77cb2d50efb7-OTIxXy0xMTg0MTQ0Ny0yNTAwLTI3NTAtMDUyNS0tMjE2MTk2NQ,http://pb.xyz.duunion.com/conv?tid=B_0dce77cb2d50efb7-OTIxXy0xMTg0MTQ0Ny0yNTAwLTI3NTAtMDUyNS0tMjE2MTk2NQ&adv_sectkn=55dea06a643eb8a2d267a735fe2683bd&adv_name=appier-api&payout=2.5,idfa_AD350D35-A3C0-45BC-ABDB-12EABCC016FE,ja
luAwkgWnTlO0HLhYkWCVag,doglobal_api,921_2161965,Of81qbvWSPKfViI7CdMfcw,2.5,,5A119C21-E217-44DD-8E73-B39E726115E8,1558744714,2019-05-25 08:38:34,1558744786,2019-05-25 08:39:46,1558744786,B_454f551527ff0d94-OTIxXy0xMTg0MTQ0Ny0yNTAwLTI3NTAtMDUyNS0tMjE2MTk2NQ,http://pb.xyz.duunion.com/conv?tid=B_454f551527ff0d94-OTIxXy0xMTg0MTQ0Ny0yNTAwLTI3NTAtMDUyNS0tMjE2MTk2NQ&adv_sectkn=55dea06a643eb8a2d267a735fe2683bd&adv_name=appier-api&payout=2.5,idfa_5A119C21-E217-44DD-8E73-B39E726115E8,ja
luAwkgWnTlO0HLhYkWCVag,doglobal_api,921_2161965,Of81qbvWSPKfViI7CdMfcw,2.5,,0D838526-1CD1-4A5F-BF36-9D3184FB17F0,1558745336,2019-05-25 08:48:56,1558745407,2019-05-25 08:50:07,1558745407,P_01cec561b11ddce6-OTIxXy0xMTg0MTQ0Ny0yNTAwLTI3NTAtMDUyNS0tMjE2MTk2NQ,http://pb.xyz.duunion.com/conv?tid=P_01cec561b11ddce6-OTIxXy0xMTg0MTQ0Ny0yNTAwLTI3NTAtMDUyNS0tMjE2MTk2NQ&adv_sectkn=55dea06a643eb8a2d267a735fe2683bd&adv_name=appier-api&payout=2.5,idfa_0D838526-1CD1-4A5F-BF36-9D3184FB17F0,ja
luAwkgWnTlO0HLhYkWCVag,doglobal_api,921_2161965,Of81qbvWSPKfViI7CdMfcw,2.5,,B70620C6-3A54-4F3F-88E5-960373FAB0CA,1558744567,2019-05-25 08:36:07,1558744650,2019-05-25 08:37:30,1558744650,P_f7493877c8150687-OTIxXy0xMTg0MTQ0Ny0yNTAwLTI3NTAtMDUyNS0tMjE2MTk2NQ,http://pb.xyz.duunion.com/conv?tid=P_f7493877c8150687-OTIxXy0xMTg0MTQ0Ny0yNTAwLTI3NTAtMDUyNS0tMjE2MTk2NQ&adv_sectkn=55dea06a643eb8a2d267a735fe2683bd&adv_name=appier-api&payout=2.5,idfa_B70620C6-3A54-4F3F-88E5-960373FAB0CA,ja
luAwkgWnTlO0HLhYkWCVag,doglobal_api,921_2161965,Of81qbvWSPKfViI7CdMfcw,2.5,,956E7058-951F-4859-8DFE-0FDF2DB1AE60,1558745059,2019-05-25 08:44:19,1558745130,2019-05-25 08:45:30,1558745130,P_13b4a6276b8a7250-OTIxXy0xMTg0MTQ0Ny0yNTAwLTI3NTAtMDUyNS0tMjE2MTk2NQ,http://pb.xyz.duunion.com/conv?tid=P_13b4a6276b8a7250-OTIxXy0xMTg0MTQ0Ny0yNTAwLTI3NTAtMDUyNS0tMjE2MTk2NQ&adv_sectkn=55dea06a643eb8a2d267a735fe2683bd&adv_name=appier-api&payout=2.5,idfa_956E7058-951F-4859-8DFE-0FDF2DB1AE60,ja
luAwkgWnTlO0HLhYkWCVag,doglobal_api,921_2161965,Of81qbvWSPKfViI7CdMfcw,2.5,,416C0BCE-EE76-4E54-A517-2D4D1D742327,1558747145,2019-05-25 09:19:05,1558747215,2019-05-25 09:20:15,1558747215,P_fc886e88b9f56793-OTIxXy0xMTg0MTQ0Ny0yNTAwLTI3NTAtMDUyNS0tMjE2MTk2NQ,http://pb.xyz.duunion.com/conv?tid=P_fc886e88b9f56793-OTIxXy0xMTg0MTQ0Ny0yNTAwLTI3NTAtMDUyNS0tMjE2MTk2NQ&adv_sectkn=55dea06a643eb8a2d267a735fe2683bd&adv_name=appier-api&payout=2.5,idfa_416C0BCE-EE76-4E54-A517-2D4D1D742327,ja
luAwkgWnTlO0HLhYkWCVag,doglobal_api,921_2161965,Of81qbvWSPKfViI7CdMfcw,2.5,,8A68EA7B-5E56-479E-8B7C-F54289682ECC,1558747182,2019-05-25 09:19:42,1558747257,2019-05-25 09:20:57,1558747257,P_383e5f681fcc421f-OTIxXy0xMTg0MTQ0Ny0yNTAwLTI3NTAtMDUyNS0tMjE2MTk2NQ,http://pb.xyz.duunion.com/conv?tid=P_383e5f681fcc421f-OTIxXy0xMTg0MTQ0Ny0yNTAwLTI3NTAtMDUyNS0tMjE2MTk2NQ&adv_sectkn=55dea06a643eb8a2d267a735fe2683bd&adv_name=appier-api&payout=2.5,idfa_8A68EA7B-5E56-479E-8B7C-F54289682ECC,ja
luAwkgWnTlO0HLhYkWCVag,doglobal_api,921_2161965,Of81qbvWSPKfViI7CdMfcw,2.5,,0F81DA9D-2F8C-47E4-8455-61762C675963,1558744991,2019-05-25 08:43:11,1558745068,2019-05-25 08:44:28,1558745068,P_69b43bc2373e90c9-OTIxXy0xMTg0MTQ0Ny0yNTAwLTI3NTAtMDUyNS0tMjE2MTk2NQ,http://pb.xyz.duunion.com/conv?tid=P_69b43bc2373e90c9-OTIxXy0xMTg0MTQ0Ny0yNTAwLTI3NTAtMDUyNS0tMjE2MTk2NQ&adv_sectkn=55dea06a643eb8a2d267a735fe2683bd&adv_name=appier-api&payout=2.5,idfa_0F81DA9D-2F8C-47E4-8455-61762C675963,ja
luAwkgWnTlO0HLhYkWCVag,doglobal_api,921_2161965,Of81qbvWSPKfViI7CdMfcw,2.5,,59F0DE72-FC3D-4DCB-B5D8-EC627B0834A7,1558745217,2019-05-25 08:46:57,1558745289,2019-05-25 08:48:09,1558745289,P_f45f19c9b0691107-OTIxXy0xMTg0MTQ0Ny0yNTAwLTI3NTAtMDUyNS0tMjE2MTk2NQ,http://pb.xyz.duunion.com/conv?tid=P_f45f19c9b0691107-OTIxXy0xMTg0MTQ0Ny0yNTAwLTI3NTAtMDUyNS0tMjE2MTk2NQ&adv_sectkn=55dea06a643eb8a2d267a735fe2683bd&adv_name=appier-api&payout=2.5,idfa_59F0DE72-FC3D-4DCB-B5D8-EC627B0834A7,ja
luAwkgWnTlO0HLhYkWCVag,doglobal_api,921_2161965,Of81qbvWSPKfViI7CdMfcw,2.5,,C8051DF5-12E3-4FDA-AF36-E1B5EA7B64B4,1558744961,2019-05-25 08:42:41,1558745034,2019-05-25 08:43:54,1558745034,B_3c63e7db6ad94542-OTIxXy0xMTg0MTQ0Ny0yNTAwLTI3NTAtMDUyNS0tMjE2MTk2NQ,http://pb.xyz.duunion.com/conv?tid=B_3c63e7db6ad94542-OTIxXy0xMTg0MTQ0Ny0yNTAwLTI3NTAtMDUyNS0tMjE2MTk2NQ&adv_sectkn=55dea06a643eb8a2d267a735fe2683bd&adv_name=appier-api&payout=2.5,idfa_C8051DF5-12E3-4FDA-AF36-E1B5EA7B64B4,ja
