cid,partner_id,channel_id,action_id,cpi,ip,idfa,click time,click datetime,install time,install datetime,postback time,click id,postback url,unique user id
9hehDG-0Tyenxd4tYsB7BQ,doglobal_api,463108_46328,install,1.2,150.249.158.250,1714ac3a-25f4-4497-b695-0bd95328687c,1558485967,2019-05-22 08:46:07,1558486006,2019-05-22 08:46:46,1558486037,P_89a577e334006902-NDYzXzQ2MzEwOC0xMzMzNjU3OS0xMjAwLTEwODAtMDUyMi00NjMyOC00NjM,http://pb.xyz.duunion.com/conv?tid=P_89a577e334006902-NDYzXzQ2MzEwOC0xMzMzNjU3OS0xMjAwLTEwODAtMDUyMi00NjMyOC00NjM&adv_sectkn=55dea06a643eb8a2d267a735fe2683bd&adv_name=appier-api&payout=1.2,idfa_1714ac3a-25f4-4497-b695-0bd95328687c,ja
9hehDG-0Tyenxd4tYsB7BQ,doglobal_api,463108_46319,install,1.2,126.211.3.241,a5a0e0c8-2242-444f-a232-327e1d1f6517,1558485189,2019-05-22 08:33:09,1558485230,2019-05-22 08:33:50,1558485261,B_f8e8d6aaedd11770-NDYzXzQ2MzEwOC0xMzMzNjU3OS0xMjAwLTEwODAtMDUyMi00NjMxOS00NjM,http://pb.xyz.duunion.com/conv?tid=B_f8e8d6aaedd11770-NDYzXzQ2MzEwOC0xMzMzNjU3OS0xMjAwLTEwODAtMDUyMi00NjMxOS00NjM&adv_sectkn=55dea06a643eb8a2d267a735fe2683bd&adv_name=appier-api&payout=1.2,idfa_a5a0e0c8-2242-444f-a232-327e1d1f6517,ja
9hehDG-0Tyenxd4tYsB7BQ,doglobal_api,463108_46326,install,1.2,175.132.112.140,91623862-352a-4f5c-acc4-267bdc008f4e,1558485849,2019-05-22 08:44:09,1558485890,2019-05-22 08:44:50,1558485924,B_19f810f81f77859e-NDYzXzQ2MzEwOC0xMzMzNjU3OS0xMjAwLTEwODAtMDUyMi00NjMyNi00NjM,http://pb.xyz.duunion.com/conv?tid=B_19f810f81f77859e-NDYzXzQ2MzEwOC0xMzMzNjU3OS0xMjAwLTEwODAtMDUyMi00NjMyNi00NjM&adv_sectkn=55dea06a643eb8a2d267a735fe2683bd&adv_name=appier-api&payout=1.2,idfa_91623862-352a-4f5c-acc4-267bdc008f4e,ja
9hehDG-0Tyenxd4tYsB7BQ,doglobal_api,463108_46311,install,1.2,59.129.204.58,f95954b7-52c6-41ce-bc65-7e42a1029e16,1558313354,2019-05-20 08:49:14,1558313390,2019-05-20 08:49:50,1558313422,B_de4028309cc87bc3-NDYzXzQ2MzEwOC0xMzMzNjU3OS0xMjAwLTEwODAtMDUyMC00NjMxMS00NjM,http://pb.xyz.duunion.com/conv?tid=B_de4028309cc87bc3-NDYzXzQ2MzEwOC0xMzMzNjU3OS0xMjAwLTEwODAtMDUyMC00NjMxMS00NjM&adv_sectkn=55dea06a643eb8a2d267a735fe2683bd&adv_name=appier-api&payout=1.2,idfa_f95954b7-52c6-41ce-bc65-7e42a1029e16,ja
9hehDG-0Tyenxd4tYsB7BQ,doglobal_api,463108_46312,install,1.2,106.133.123.86,72b9949e-a761-4a98-ba97-d9ef7a1680e5,1558485253,2019-05-22 08:34:13,1558485290,2019-05-22 08:34:50,1558485322,B_0e48a782b1530a0c-NDYzXzQ2MzEwOC0xMzMzNjU3OS0xMjAwLTEwODAtMDUyMi00NjMxMi00NjM,http://pb.xyz.duunion.com/conv?tid=B_0e48a782b1530a0c-NDYzXzQ2MzEwOC0xMzMzNjU3OS0xMjAwLTEwODAtMDUyMi00NjMxMi00NjM&adv_sectkn=55dea06a643eb8a2d267a735fe2683bd&adv_name=appier-api&payout=1.2,idfa_72b9949e-a761-4a98-ba97-d9ef7a1680e5,ja
9hehDG-0Tyenxd4tYsB7BQ,doglobal_api,463108_46329,install,1.2,116.70.148.56,0c73a338-33ce-42bf-a73c-431eb069fa4c,1558313182,2019-05-20 08:46:22,1558313253,2019-05-20 08:47:33,1558313285,B_24b027870703e900-NDYzXzQ2MzEwOC0xMzMzNjU3OS0xMjAwLTEwODAtMDUyMC00NjMyOS00NjM,http://pb.xyz.duunion.com/conv?tid=B_24b027870703e900-NDYzXzQ2MzEwOC0xMzMzNjU3OS0xMjAwLTEwODAtMDUyMC00NjMyOS00NjM&adv_sectkn=55dea06a643eb8a2d267a735fe2683bd&adv_name=appier-api&payout=1.2,idfa_0c73a338-33ce-42bf-a73c-431eb069fa4c,ja
9hehDG-0Tyenxd4tYsB7BQ,doglobal_api,463108_46325,install,1.2,49.98.138.222,e362655c-2f6b-4295-947a-b93cd62d1b10,1558311767,2019-05-20 08:22:47,1558311812,2019-05-20 08:23:32,1558311843,B_cd75f32d1a597e48-NDYzXzQ2MzEwOC0xMzMzNjU3OS0xMjAwLTEwODAtMDUyMC00NjMyNS00NjM,http://pb.xyz.duunion.com/conv?tid=B_cd75f32d1a597e48-NDYzXzQ2MzEwOC0xMzMzNjU3OS0xMjAwLTEwODAtMDUyMC00NjMyNS00NjM&adv_sectkn=55dea06a643eb8a2d267a735fe2683bd&adv_name=appier-api&payout=1.2,idfa_e362655c-2f6b-4295-947a-b93cd62d1b10,ja
9hehDG-0Tyenxd4tYsB7BQ,doglobal_api,463108_46314,install,1.2,49.98.15.227,063a5e56-b13c-4f54-a0f6-9ae725d56323,1558484844,2019-05-22 08:27:24,1558484883,2019-05-22 08:28:03,1558484913,P_229a00ad04740bf6-NDYzXzQ2MzEwOC0xMzMzNjU3OS0xMjAwLTEwODAtMDUyMi00NjMxNC00NjM,http://pb.xyz.duunion.com/conv?tid=P_229a00ad04740bf6-NDYzXzQ2MzEwOC0xMzMzNjU3OS0xMjAwLTEwODAtMDUyMi00NjMxNC00NjM&adv_sectkn=55dea06a643eb8a2d267a735fe2683bd&adv_name=appier-api&payout=1.2,idfa_063a5e56-b13c-4f54-a0f6-9ae725d56323,ja
9hehDG-0Tyenxd4tYsB7BQ,doglobal_api,463108_46316,install,1.2,163.49.215.131,9f4cfdac-7820-4a36-8ee4-51122f25332a,1558484406,2019-05-22 08:20:06,1558484448,2019-05-22 08:20:48,1558484479,P_d06b6b69aeca2336-NDYzXzQ2MzEwOC0xMzMzNjU3OS0xMjAwLTEwODAtMDUyMi00NjMxNi00NjM,http://pb.xyz.duunion.com/conv?tid=P_d06b6b69aeca2336-NDYzXzQ2MzEwOC0xMzMzNjU3OS0xMjAwLTEwODAtMDUyMi00NjMxNi00NjM&adv_sectkn=55dea06a643eb8a2d267a735fe2683bd&adv_name=appier-api&payout=1.2,idfa_9f4cfdac-7820-4a36-8ee4-51122f25332a,ja
9hehDG-0Tyenxd4tYsB7BQ,doglobal_api,463108_46313,install,1.2,126.179.131.52,9166b5c7-4035-433f-aeb8-93dae74cd541,1558312630,2019-05-20 08:37:10,1558312669,2019-05-20 08:37:49,1558312700,P_634166a23f1b6e8e-NDYzXzQ2MzEwOC0xMzMzNjU3OS0xMjAwLTEwODAtMDUyMC00NjMxMy00NjM,http://pb.xyz.duunion.com/conv?tid=P_634166a23f1b6e8e-NDYzXzQ2MzEwOC0xMzMzNjU3OS0xMjAwLTEwODAtMDUyMC00NjMxMy00NjM&adv_sectkn=55dea06a643eb8a2d267a735fe2683bd&adv_name=appier-api&payout=1.2,idfa_9166b5c7-4035-433f-aeb8-93dae74cd541,ja
9hehDG-0Tyenxd4tYsB7BQ,doglobal_api,463108_46316,install,1.2,126.234.56.125,c45a1b0f-5288-4ebe-98d9-ae0a6aec5258,1558484241,2019-05-22 08:17:21,1558484275,2019-05-22 08:17:55,1558484308,B_05c821a0d44f8da3-NDYzXzQ2MzEwOC0xMzMzNjU3OS0xMjAwLTEwODAtMDUyMi00NjMxNi00NjM,http://pb.xyz.duunion.com/conv?tid=B_05c821a0d44f8da3-NDYzXzQ2MzEwOC0xMzMzNjU3OS0xMjAwLTEwODAtMDUyMi00NjMxNi00NjM&adv_sectkn=55dea06a643eb8a2d267a735fe2683bd&adv_name=appier-api&payout=1.2,idfa_c45a1b0f-5288-4ebe-98d9-ae0a6aec5258,ja
9hehDG-0Tyenxd4tYsB7BQ,doglobal_api,463108_46326,install,1.2,180.197.183.159,23284c46-2928-4852-9f58-3eb5dad45c04,1558485910,2019-05-22 08:45:10,1558485950,2019-05-22 08:45:50,1558485981,B_062ecb9b2c090d7b-NDYzXzQ2MzEwOC0xMzMzNjU3OS0xMjAwLTEwODAtMDUyMi00NjMyNi00NjM,http://pb.xyz.duunion.com/conv?tid=B_062ecb9b2c090d7b-NDYzXzQ2MzEwOC0xMzMzNjU3OS0xMjAwLTEwODAtMDUyMi00NjMyNi00NjM&adv_sectkn=55dea06a643eb8a2d267a735fe2683bd&adv_name=appier-api&payout=1.2,idfa_23284c46-2928-4852-9f58-3eb5dad45c04,ja
9hehDG-0Tyenxd4tYsB7BQ,doglobal_api,463108_46328,install,1.2,106.130.49.226,6e2d6b26-15bb-4e4b-91c9-3a09f4f4abf6,1558484892,2019-05-22 08:28:12,1558484935,2019-05-22 08:28:55,1558484966,B_ced283bee14a7f91-NDYzXzQ2MzEwOC0xMzMzNjU3OS0xMjAwLTEwODAtMDUyMi00NjMyOC00NjM,http://pb.xyz.duunion.com/conv?tid=B_ced283bee14a7f91-NDYzXzQ2MzEwOC0xMzMzNjU3OS0xMjAwLTEwODAtMDUyMi00NjMyOC00NjM&adv_sectkn=55dea06a643eb8a2d267a735fe2683bd&adv_name=appier-api&payout=1.2,idfa_6e2d6b26-15bb-4e4b-91c9-3a09f4f4abf6,ja
9hehDG-0Tyenxd4tYsB7BQ,doglobal_api,463108_46319,install,1.2,60.143.97.139,1f20f2b3-cba0-40ff-b4ef-685bd5b2c8ae,1558485608,2019-05-22 08:40:08,1558485647,2019-05-22 08:40:47,1558485679,B_024fd13ee82657d1-NDYzXzQ2MzEwOC0xMzMzNjU3OS0xMjAwLTEwODAtMDUyMi00NjMxOS00NjM,http://pb.xyz.duunion.com/conv?tid=B_024fd13ee82657d1-NDYzXzQ2MzEwOC0xMzMzNjU3OS0xMjAwLTEwODAtMDUyMi00NjMxOS00NjM&adv_sectkn=55dea06a643eb8a2d267a735fe2683bd&adv_name=appier-api&payout=1.2,idfa_1f20f2b3-cba0-40ff-b4ef-685bd5b2c8ae,ja
9hehDG-0Tyenxd4tYsB7BQ,doglobal_api,463108_46328,install,1.2,210.138.178.238,398a0ce5-99c5-4dd9-b52e-3eaa1126f242,1558484297,2019-05-22 08:18:17,1558484329,2019-05-22 08:18:49,1558484360,P_0dab83171b4ed72f-NDYzXzQ2MzEwOC0xMzMzNjU3OS0xMjAwLTEwODAtMDUyMi00NjMyOC00NjM,http://pb.xyz.duunion.com/conv?tid=P_0dab83171b4ed72f-NDYzXzQ2MzEwOC0xMzMzNjU3OS0xMjAwLTEwODAtMDUyMi00NjMyOC00NjM&adv_sectkn=55dea06a643eb8a2d267a735fe2683bd&adv_name=appier-api&payout=1.2,idfa_398a0ce5-99c5-4dd9-b52e-3eaa1126f242,ja
9hehDG-0Tyenxd4tYsB7BQ,doglobal_api,463108_46326,install,1.2,118.6.188.105,5d2b54c2-2045-4e61-8961-a06172212ac5,1558484895,2019-05-22 08:28:15,1558484948,2019-05-22 08:29:08,1558484979,B_96dfd65943e9dc0d-NDYzXzQ2MzEwOC0xMzMzNjU3OS0xMjAwLTEwODAtMDUyMi00NjMyNi00NjM,http://pb.xyz.duunion.com/conv?tid=B_96dfd65943e9dc0d-NDYzXzQ2MzEwOC0xMzMzNjU3OS0xMjAwLTEwODAtMDUyMi00NjMyNi00NjM&adv_sectkn=55dea06a643eb8a2d267a735fe2683bd&adv_name=appier-api&payout=1.2,idfa_5d2b54c2-2045-4e61-8961-a06172212ac5,ja
9hehDG-0Tyenxd4tYsB7BQ,doglobal_api,463108_46318,install,1.2,106.154.121.202,672cc011-adcd-486a-ae6a-3a60747b7df4,1558485548,2019-05-22 08:39:08,1558485731,2019-05-22 08:42:11,1558485763,P_9843030e62d778e0-NDYzXzQ2MzEwOC0xMzMzNjU3OS0xMjAwLTEwODAtMDUyMi00NjMxOC00NjM,http://pb.xyz.duunion.com/conv?tid=P_9843030e62d778e0-NDYzXzQ2MzEwOC0xMzMzNjU3OS0xMjAwLTEwODAtMDUyMi00NjMxOC00NjM&adv_sectkn=55dea06a643eb8a2d267a735fe2683bd&adv_name=appier-api&payout=1.2,idfa_672cc011-adcd-486a-ae6a-3a60747b7df4,ja
9hehDG-0Tyenxd4tYsB7BQ,doglobal_api,463108_46312,install,1.2,126.179.162.248,5e545e38-51ed-420a-bffa-5e6cf76576c5,1558484539,2019-05-22 08:22:19,1558484579,2019-05-22 08:22:59,1558484610,P_945dcc5a6ef6a46f-NDYzXzQ2MzEwOC0xMzMzNjU3OS0xMjAwLTEwODAtMDUyMi00NjMxMi00NjM,http://pb.xyz.duunion.com/conv?tid=P_945dcc5a6ef6a46f-NDYzXzQ2MzEwOC0xMzMzNjU3OS0xMjAwLTEwODAtMDUyMi00NjMxMi00NjM&adv_sectkn=55dea06a643eb8a2d267a735fe2683bd&adv_name=appier-api&payout=1.2,idfa_5e545e38-51ed-420a-bffa-5e6cf76576c5,ja
9hehDG-0Tyenxd4tYsB7BQ,doglobal_api,463108_46325,install,1.2,49.98.73.23,e87c22f6-ba9f-4c7c-ae8f-44aede09425a,1558484830,2019-05-22 08:27:10,1558484872,2019-05-22 08:27:52,1558492228,P_2847f89a3f53692b-NDYzXzQ2MzEwOC0xMzMzNjU3OS0xMjAwLTEwODAtMDUyMi00NjMyNS00NjM,http://pb.xyz.duunion.com/conv?tid=P_2847f89a3f53692b-NDYzXzQ2MzEwOC0xMzMzNjU3OS0xMjAwLTEwODAtMDUyMi00NjMyNS00NjM&adv_sectkn=55dea06a643eb8a2d267a735fe2683bd&adv_name=appier-api&payout=1.2,idfa_e87c22f6-ba9f-4c7c-ae8f-44aede09425a,ja
9hehDG-0Tyenxd4tYsB7BQ,doglobal_api,463108_46314,install,1.2,106.133.133.230,7e35a8e4-1bd2-4afb-b8ff-55311b98ca2d,1558484842,2019-05-22 08:27:22,1558488261,2019-05-22 09:24:21,1558488292,B_4dbbc6386a534dc1-NDYzXzQ2MzEwOC0xMzMzNjU3OS0xMjAwLTEwODAtMDUyMi00NjMxNC00NjM,http://pb.xyz.duunion.com/conv?tid=B_4dbbc6386a534dc1-NDYzXzQ2MzEwOC0xMzMzNjU3OS0xMjAwLTEwODAtMDUyMi00NjMxNC00NjM&adv_sectkn=55dea06a643eb8a2d267a735fe2683bd&adv_name=appier-api&payout=1.2,idfa_7e35a8e4-1bd2-4afb-b8ff-55311b98ca2d,ja
9hehDG-0Tyenxd4tYsB7BQ,doglobal_api,463108_46313,install,1.2,106.180.32.125,18622525-1528-4a25-8ae2-a41e2d52f283,1558485313,2019-05-22 08:35:13,1558485349,2019-05-22 08:35:49,1558485380,B_84c9c1edd7507d6b-NDYzXzQ2MzEwOC0xMzMzNjU3OS0xMjAwLTEwODAtMDUyMi00NjMxMy00NjM,http://pb.xyz.duunion.com/conv?tid=B_84c9c1edd7507d6b-NDYzXzQ2MzEwOC0xMzMzNjU3OS0xMjAwLTEwODAtMDUyMi00NjMxMy00NjM&adv_sectkn=55dea06a643eb8a2d267a735fe2683bd&adv_name=appier-api&payout=1.2,idfa_18622525-1528-4a25-8ae2-a41e2d52f283,ja
9hehDG-0Tyenxd4tYsB7BQ,doglobal_api,463108_46329,install,1.2,60.37.144.128,562132fe-f94c-4987-8cb5-d851423c927a,1558485141,2019-05-22 08:32:21,1558485172,2019-05-22 08:32:52,1558485203,B_235fa4d3dcfdcc45-NDYzXzQ2MzEwOC0xMzMzNjU3OS0xMjAwLTEwODAtMDUyMi00NjMyOS00NjM,http://pb.xyz.duunion.com/conv?tid=B_235fa4d3dcfdcc45-NDYzXzQ2MzEwOC0xMzMzNjU3OS0xMjAwLTEwODAtMDUyMi00NjMyOS00NjM&adv_sectkn=55dea06a643eb8a2d267a735fe2683bd&adv_name=appier-api&payout=1.2,idfa_562132fe-f94c-4987-8cb5-d851423c927a,ja
9hehDG-0Tyenxd4tYsB7BQ,doglobal_api,463108_46324,install,1.2,49.98.45.77,371e9885-2f4e-4865-884f-36fef0368391,1558484835,2019-05-22 08:27:15,1558484875,2019-05-22 08:27:55,1558484905,P_28a32d68bbf2b389-NDYzXzQ2MzEwOC0xMzMzNjU3OS0xMjAwLTEwODAtMDUyMi00NjMyNC00NjM,http://pb.xyz.duunion.com/conv?tid=P_28a32d68bbf2b389-NDYzXzQ2MzEwOC0xMzMzNjU3OS0xMjAwLTEwODAtMDUyMi00NjMyNC00NjM&adv_sectkn=55dea06a643eb8a2d267a735fe2683bd&adv_name=appier-api&payout=1.2,idfa_371e9885-2f4e-4865-884f-36fef0368391,ja
9hehDG-0Tyenxd4tYsB7BQ,doglobal_api,463108_46317,install,1.2,49.104.36.252,f9002a57-63a1-4a81-96f5-381169278eef,1558485016,2019-05-22 08:30:16,1558485171,2019-05-22 08:32:51,1558485202,B_0f7b7754ca394b8f-NDYzXzQ2MzEwOC0xMzMzNjU3OS0xMjAwLTEwODAtMDUyMi00NjMxNy00NjM,http://pb.xyz.duunion.com/conv?tid=B_0f7b7754ca394b8f-NDYzXzQ2MzEwOC0xMzMzNjU3OS0xMjAwLTEwODAtMDUyMi00NjMxNy00NjM&adv_sectkn=55dea06a643eb8a2d267a735fe2683bd&adv_name=appier-api&payout=1.2,idfa_f9002a57-63a1-4a81-96f5-381169278eef,ja
9hehDG-0Tyenxd4tYsB7BQ,doglobal_api,463108_46322,install,1.2,43.234.197.203,1fce392a-e824-454c-9922-d66d3aaa04a9,1558484467,2019-05-22 08:21:07,1558484511,2019-05-22 08:21:51,1558484543,P_97def72c745dfb62-NDYzXzQ2MzEwOC0xMzMzNjU3OS0xMjAwLTEwODAtMDUyMi00NjMyMi00NjM,http://pb.xyz.duunion.com/conv?tid=P_97def72c745dfb62-NDYzXzQ2MzEwOC0xMzMzNjU3OS0xMjAwLTEwODAtMDUyMi00NjMyMi00NjM&adv_sectkn=55dea06a643eb8a2d267a735fe2683bd&adv_name=appier-api&payout=1.2,idfa_1fce392a-e824-454c-9922-d66d3aaa04a9,ja
9hehDG-0Tyenxd4tYsB7BQ,doglobal_api,463108_46327,install,1.2,111.87.58.232,f1205016-ff3d-4a0c-9457-ab0b5e14eae4,1558484951,2019-05-22 08:29:11,1558484991,2019-05-22 08:29:51,1558485023,B_f94eaf7b415fa950-NDYzXzQ2MzEwOC0xMzMzNjU3OS0xMjAwLTEwODAtMDUyMi00NjMyNy00NjM,http://pb.xyz.duunion.com/conv?tid=B_f94eaf7b415fa950-NDYzXzQ2MzEwOC0xMzMzNjU3OS0xMjAwLTEwODAtMDUyMi00NjMyNy00NjM&adv_sectkn=55dea06a643eb8a2d267a735fe2683bd&adv_name=appier-api&payout=1.2,idfa_f1205016-ff3d-4a0c-9457-ab0b5e14eae4,ja
9hehDG-0Tyenxd4tYsB7BQ,doglobal_api,463108_46319,install,1.2,126.125.237.88,dcd67367-1742-4528-8ae9-c7fc79448975,1558312357,2019-05-20 08:32:37,1558312393,2019-05-20 08:33:13,1558312424,P_3a1a6c71990a3eaa-NDYzXzQ2MzEwOC0xMzMzNjU3OS0xMjAwLTEwODAtMDUyMC00NjMxOS00NjM,http://pb.xyz.duunion.com/conv?tid=P_3a1a6c71990a3eaa-NDYzXzQ2MzEwOC0xMzMzNjU3OS0xMjAwLTEwODAtMDUyMC00NjMxOS00NjM&adv_sectkn=55dea06a643eb8a2d267a735fe2683bd&adv_name=appier-api&payout=1.2,idfa_dcd67367-1742-4528-8ae9-c7fc79448975,ja
9hehDG-0Tyenxd4tYsB7BQ,doglobal_api,463108_46312,install,1.2,183.176.43.57,f7dabc07-edb5-4efc-9647-5374675dc307,1558484602,2019-05-22 08:23:22,1558484641,2019-05-22 08:24:01,1558484672,B_b9a95b55d9d3c4c4-NDYzXzQ2MzEwOC0xMzMzNjU3OS0xMjAwLTEwODAtMDUyMi00NjMxMi00NjM,http://pb.xyz.duunion.com/conv?tid=B_b9a95b55d9d3c4c4-NDYzXzQ2MzEwOC0xMzMzNjU3OS0xMjAwLTEwODAtMDUyMi00NjMxMi00NjM&adv_sectkn=55dea06a643eb8a2d267a735fe2683bd&adv_name=appier-api&payout=1.2,idfa_f7dabc07-edb5-4efc-9647-5374675dc307,ja
9hehDG-0Tyenxd4tYsB7BQ,doglobal_api,463108_46314,install,1.2,126.60.231.117,926b366f-7fd8-4446-ac1f-d31e3e8d5111,1558484366,2019-05-22 08:19:26,1558484747,2019-05-22 08:25:47,1558484778,P_654bae6259c7bcc0-NDYzXzQ2MzEwOC0xMzMzNjU3OS0xMjAwLTEwODAtMDUyMi00NjMxNC00NjM,http://pb.xyz.duunion.com/conv?tid=P_654bae6259c7bcc0-NDYzXzQ2MzEwOC0xMzMzNjU3OS0xMjAwLTEwODAtMDUyMi00NjMxNC00NjM&adv_sectkn=55dea06a643eb8a2d267a735fe2683bd&adv_name=appier-api&payout=1.2,idfa_926b366f-7fd8-4446-ac1f-d31e3e8d5111,ja
9hehDG-0Tyenxd4tYsB7BQ,doglobal_api,463108_46318,install,1.2,126.34.50.86,5cb40b64-573b-4399-b06e-5fbe21e18f18,1558484951,2019-05-22 08:29:11,1558484990,2019-05-22 08:29:50,1558485021,P_fd5ac873f170cc31-NDYzXzQ2MzEwOC0xMzMzNjU3OS0xMjAwLTEwODAtMDUyMi00NjMxOC00NjM,http://pb.xyz.duunion.com/conv?tid=P_fd5ac873f170cc31-NDYzXzQ2MzEwOC0xMzMzNjU3OS0xMjAwLTEwODAtMDUyMi00NjMxOC00NjM&adv_sectkn=55dea06a643eb8a2d267a735fe2683bd&adv_name=appier-api&payout=1.2,idfa_5cb40b64-573b-4399-b06e-5fbe21e18f18,ja
9hehDG-0Tyenxd4tYsB7BQ,doglobal_api,463108_46312,install,1.2,180.3.191.135,f6691f89-d966-434f-9194-11d055ad2fa5,1558484774,2019-05-22 08:26:14,1558484811,2019-05-22 08:26:51,1558484841,B_77216e63a3293136-NDYzXzQ2MzEwOC0xMzMzNjU3OS0xMjAwLTEwODAtMDUyMi00NjMxMi00NjM,http://pb.xyz.duunion.com/conv?tid=B_77216e63a3293136-NDYzXzQ2MzEwOC0xMzMzNjU3OS0xMjAwLTEwODAtMDUyMi00NjMxMi00NjM&adv_sectkn=55dea06a643eb8a2d267a735fe2683bd&adv_name=appier-api&payout=1.2,idfa_f6691f89-d966-434f-9194-11d055ad2fa5,ja
9hehDG-0Tyenxd4tYsB7BQ,doglobal_api,463108_46323,install,1.2,126.74.81.54,5ab8f871-52b0-4c4f-ace8-a25979869718,1558312574,2019-05-20 08:36:14,1558312696,2019-05-20 08:38:16,1558312729,P_aecde0e4ff8a07d9-NDYzXzQ2MzEwOC0xMzMzNjU3OS0xMjAwLTEwODAtMDUyMC00NjMyMy00NjM,http://pb.xyz.duunion.com/conv?tid=P_aecde0e4ff8a07d9-NDYzXzQ2MzEwOC0xMzMzNjU3OS0xMjAwLTEwODAtMDUyMC00NjMyMy00NjM&adv_sectkn=55dea06a643eb8a2d267a735fe2683bd&adv_name=appier-api&payout=1.2,idfa_5ab8f871-52b0-4c4f-ace8-a25979869718,ja
9hehDG-0Tyenxd4tYsB7BQ,doglobal_api,463108_46328,install,1.2,153.147.237.18,195833f5-1abd-4b67-bbd3-5a47830c7a27,1558485022,2019-05-22 08:30:22,1558485054,2019-05-22 08:30:54,1558485085,P_fec7b32b3b04aff0-NDYzXzQ2MzEwOC0xMzMzNjU3OS0xMjAwLTEwODAtMDUyMi00NjMyOC00NjM,http://pb.xyz.duunion.com/conv?tid=P_fec7b32b3b04aff0-NDYzXzQ2MzEwOC0xMzMzNjU3OS0xMjAwLTEwODAtMDUyMi00NjMyOC00NjM&adv_sectkn=55dea06a643eb8a2d267a735fe2683bd&adv_name=appier-api&payout=1.2,idfa_195833f5-1abd-4b67-bbd3-5a47830c7a27,ja
9hehDG-0Tyenxd4tYsB7BQ,doglobal_api,463108_46327,install,1.2,182.251.100.229,5d633821-8000-490e-aacd-db5f816e0ec1,1558311809,2019-05-20 08:23:29,1558311848,2019-05-20 08:24:08,1558311879,P_ec41690d72d6f98c-NDYzXzQ2MzEwOC0xMzMzNjU3OS0xMjAwLTEwODAtMDUyMC00NjMyNy00NjM,http://pb.xyz.duunion.com/conv?tid=P_ec41690d72d6f98c-NDYzXzQ2MzEwOC0xMzMzNjU3OS0xMjAwLTEwODAtMDUyMC00NjMyNy00NjM&adv_sectkn=55dea06a643eb8a2d267a735fe2683bd&adv_name=appier-api&payout=1.2,idfa_5d633821-8000-490e-aacd-db5f816e0ec1,ja
9hehDG-0Tyenxd4tYsB7BQ,doglobal_api,463108_46319,install,1.2,111.239.172.253,f1459304-9f3f-422f-aa07-d6315c2f6969,1558484773,2019-05-22 08:26:13,1558484813,2019-05-22 08:26:53,1558484844,B_ee899b24d2ef56f3-NDYzXzQ2MzEwOC0xMzMzNjU3OS0xMjAwLTEwODAtMDUyMi00NjMxOS00NjM,http://pb.xyz.duunion.com/conv?tid=B_ee899b24d2ef56f3-NDYzXzQ2MzEwOC0xMzMzNjU3OS0xMjAwLTEwODAtMDUyMi00NjMxOS00NjM&adv_sectkn=55dea06a643eb8a2d267a735fe2683bd&adv_name=appier-api&payout=1.2,idfa_f1459304-9f3f-422f-aa07-d6315c2f6969,ja
9hehDG-0Tyenxd4tYsB7BQ,doglobal_api,463108_46321,install,1.2,125.201.58.73,4207e922-84bb-421f-bbd6-010576d959b3,1558484531,2019-05-22 08:22:11,1558484570,2019-05-22 08:22:50,1558484601,B_de414433c794f787-NDYzXzQ2MzEwOC0xMzMzNjU3OS0xMjAwLTEwODAtMDUyMi00NjMyMS00NjM,http://pb.xyz.duunion.com/conv?tid=B_de414433c794f787-NDYzXzQ2MzEwOC0xMzMzNjU3OS0xMjAwLTEwODAtMDUyMi00NjMyMS00NjM&adv_sectkn=55dea06a643eb8a2d267a735fe2683bd&adv_name=appier-api&payout=1.2,idfa_4207e922-84bb-421f-bbd6-010576d959b3,ja
9hehDG-0Tyenxd4tYsB7BQ,doglobal_api,463108_46322,install,1.2,126.226.39.237,5a44b93a-e1d2-4a31-980f-44c1a214ea55,1558312039,2019-05-20 08:27:19,1558312082,2019-05-20 08:28:02,1558312113,B_581968e7b5eb3216-NDYzXzQ2MzEwOC0xMzMzNjU3OS0xMjAwLTEwODAtMDUyMC00NjMyMi00NjM,http://pb.xyz.duunion.com/conv?tid=B_581968e7b5eb3216-NDYzXzQ2MzEwOC0xMzMzNjU3OS0xMjAwLTEwODAtMDUyMC00NjMyMi00NjM&adv_sectkn=55dea06a643eb8a2d267a735fe2683bd&adv_name=appier-api&payout=1.2,idfa_5a44b93a-e1d2-4a31-980f-44c1a214ea55,ja
9hehDG-0Tyenxd4tYsB7BQ,doglobal_api,463108_46325,install,1.2,122.222.1.233,c2c80237-c740-4354-9f90-64e2f3283019,1558485369,2019-05-22 08:36:09,1558485486,2019-05-22 08:38:06,1558485517,P_b334686889839edb-NDYzXzQ2MzEwOC0xMzMzNjU3OS0xMjAwLTEwODAtMDUyMi00NjMyNS00NjM,http://pb.xyz.duunion.com/conv?tid=P_b334686889839edb-NDYzXzQ2MzEwOC0xMzMzNjU3OS0xMjAwLTEwODAtMDUyMi00NjMyNS00NjM&adv_sectkn=55dea06a643eb8a2d267a735fe2683bd&adv_name=appier-api&payout=1.2,idfa_c2c80237-c740-4354-9f90-64e2f3283019,ja
9hehDG-0Tyenxd4tYsB7BQ,doglobal_api,463108_46311,install,1.2,106.166.90.126,52aa64c4-0bc0-4159-ace0-f5f8b623d0c0,1558485426,2019-05-22 08:37:06,1558485467,2019-05-22 08:37:47,1558485498,B_3a5abd2ffa4ac3b2-NDYzXzQ2MzEwOC0xMzMzNjU3OS0xMjAwLTEwODAtMDUyMi00NjMxMS00NjM,http://pb.xyz.duunion.com/conv?tid=B_3a5abd2ffa4ac3b2-NDYzXzQ2MzEwOC0xMzMzNjU3OS0xMjAwLTEwODAtMDUyMi00NjMxMS00NjM&adv_sectkn=55dea06a643eb8a2d267a735fe2683bd&adv_name=appier-api&payout=1.2,idfa_52aa64c4-0bc0-4159-ace0-f5f8b623d0c0,ja
9hehDG-0Tyenxd4tYsB7BQ,doglobal_api,463108_46330,install,1.2,183.177.170.111,df73f669-dfd0-4034-b397-31bf8eea80e3,1558484657,2019-05-22 08:24:17,1558484703,2019-05-22 08:25:03,1558484734,P_119ffa13e01acfae-NDYzXzQ2MzEwOC0xMzMzNjU3OS0xMjAwLTEwODAtMDUyMi00NjMzMC00NjM,http://pb.xyz.duunion.com/conv?tid=P_119ffa13e01acfae-NDYzXzQ2MzEwOC0xMzMzNjU3OS0xMjAwLTEwODAtMDUyMi00NjMzMC00NjM&adv_sectkn=55dea06a643eb8a2d267a735fe2683bd&adv_name=appier-api&payout=1.2,idfa_df73f669-dfd0-4034-b397-31bf8eea80e3,ja
9hehDG-0Tyenxd4tYsB7BQ,doglobal_api,463108_46317,install,1.2,153.141.252.66,35e7d524-2e9a-47d9-a388-5ee9902553f6,1558484732,2019-05-22 08:25:32,1558484754,2019-05-22 08:25:54,1558484785,B_222b463c158376e0-NDYzXzQ2MzEwOC0xMzMzNjU3OS0xMjAwLTEwODAtMDUyMi00NjMxNy00NjM,http://pb.xyz.duunion.com/conv?tid=B_222b463c158376e0-NDYzXzQ2MzEwOC0xMzMzNjU3OS0xMjAwLTEwODAtMDUyMi00NjMxNy00NjM&adv_sectkn=55dea06a643eb8a2d267a735fe2683bd&adv_name=appier-api&payout=1.2,idfa_35e7d524-2e9a-47d9-a388-5ee9902553f6,ja
9hehDG-0Tyenxd4tYsB7BQ,doglobal_api,463108_46313,install,1.2,36.11.224.203,b2882e97-676b-4dce-833c-a7928a3bcdef,1558313799,2019-05-20 08:56:39,1558313868,2019-05-20 08:57:48,1558313903,P_df62dfa88a11178e-NDYzXzQ2MzEwOC0xMzMzNjU3OS0xMjAwLTEwODAtMDUyMC00NjMxMy00NjM,http://pb.xyz.duunion.com/conv?tid=P_df62dfa88a11178e-NDYzXzQ2MzEwOC0xMzMzNjU3OS0xMjAwLTEwODAtMDUyMC00NjMxMy00NjM&adv_sectkn=55dea06a643eb8a2d267a735fe2683bd&adv_name=appier-api&payout=1.2,idfa_b2882e97-676b-4dce-833c-a7928a3bcdef,ja
9hehDG-0Tyenxd4tYsB7BQ,doglobal_api,463108_46312,install,1.2,121.87.27.39,924c6edf-e2c8-4067-9155-465259af4fb3,1558484540,2019-05-22 08:22:20,1558484572,2019-05-22 08:22:52,1558484603,P_9cdb4241a5a00d99-NDYzXzQ2MzEwOC0xMzMzNjU3OS0xMjAwLTEwODAtMDUyMi00NjMxMi00NjM,http://pb.xyz.duunion.com/conv?tid=P_9cdb4241a5a00d99-NDYzXzQ2MzEwOC0xMzMzNjU3OS0xMjAwLTEwODAtMDUyMi00NjMxMi00NjM&adv_sectkn=55dea06a643eb8a2d267a735fe2683bd&adv_name=appier-api&payout=1.2,idfa_924c6edf-e2c8-4067-9155-465259af4fb3,ja
9hehDG-0Tyenxd4tYsB7BQ,doglobal_api,463108_46322,install,1.2,182.251.57.178,093cf9f4-ff9e-4ec8-896a-5277aa851699,1558484720,2019-05-22 08:25:20,1558484757,2019-05-22 08:25:57,1558484788,P_4068a769c45f0f4c-NDYzXzQ2MzEwOC0xMzMzNjU3OS0xMjAwLTEwODAtMDUyMi00NjMyMi00NjM,http://pb.xyz.duunion.com/conv?tid=P_4068a769c45f0f4c-NDYzXzQ2MzEwOC0xMzMzNjU3OS0xMjAwLTEwODAtMDUyMi00NjMyMi00NjM&adv_sectkn=55dea06a643eb8a2d267a735fe2683bd&adv_name=appier-api&payout=1.2,idfa_093cf9f4-ff9e-4ec8-896a-5277aa851699,ja
9hehDG-0Tyenxd4tYsB7BQ,doglobal_api,463108_46315,install,1.2,126.133.217.121,87e2a136-6145-4cad-96be-04d2da3845b6,1558484415,2019-05-22 08:20:15,1558484452,2019-05-22 08:20:52,1558484483,B_bf1137e52665de27-NDYzXzQ2MzEwOC0xMzMzNjU3OS0xMjAwLTEwODAtMDUyMi00NjMxNS00NjM,http://pb.xyz.duunion.com/conv?tid=B_bf1137e52665de27-NDYzXzQ2MzEwOC0xMzMzNjU3OS0xMjAwLTEwODAtMDUyMi00NjMxNS00NjM&adv_sectkn=55dea06a643eb8a2d267a735fe2683bd&adv_name=appier-api&payout=1.2,idfa_87e2a136-6145-4cad-96be-04d2da3845b6,ja
9hehDG-0Tyenxd4tYsB7BQ,doglobal_api,463108_46325,install,1.2,61.22.104.239,8837e034-28f1-43b5-8b33-f2f92783fc68,1558484624,2019-05-22 08:23:44,1558487352,2019-05-22 09:09:12,1558487384,P_2f4a943742c24d41-NDYzXzQ2MzEwOC0xMzMzNjU3OS0xMjAwLTEwODAtMDUyMi00NjMyNS00NjM,http://pb.xyz.duunion.com/conv?tid=P_2f4a943742c24d41-NDYzXzQ2MzEwOC0xMzMzNjU3OS0xMjAwLTEwODAtMDUyMi00NjMyNS00NjM&adv_sectkn=55dea06a643eb8a2d267a735fe2683bd&adv_name=appier-api&payout=1.2,idfa_8837e034-28f1-43b5-8b33-f2f92783fc68,ja
9hehDG-0Tyenxd4tYsB7BQ,doglobal_api,463108_46318,install,1.2,106.154.90.39,ed984303-067f-4417-bc22-b5601ac6707e,1558484713,2019-05-22 08:25:13,1558484752,2019-05-22 08:25:52,1558484783,B_37f69ea295510ab2-NDYzXzQ2MzEwOC0xMzMzNjU3OS0xMjAwLTEwODAtMDUyMi00NjMxOC00NjM,http://pb.xyz.duunion.com/conv?tid=B_37f69ea295510ab2-NDYzXzQ2MzEwOC0xMzMzNjU3OS0xMjAwLTEwODAtMDUyMi00NjMxOC00NjM&adv_sectkn=55dea06a643eb8a2d267a735fe2683bd&adv_name=appier-api&payout=1.2,idfa_ed984303-067f-4417-bc22-b5601ac6707e,ja
9hehDG-0Tyenxd4tYsB7BQ,doglobal_api,463108_46314,install,1.2,106.161.132.235,1272aa3c-602e-4f4a-8545-e36e449a8ae9,1558484707,2019-05-22 08:25:07,1558484746,2019-05-22 08:25:46,1558484777,P_45e03b4b42fa6280-NDYzXzQ2MzEwOC0xMzMzNjU3OS0xMjAwLTEwODAtMDUyMi00NjMxNC00NjM,http://pb.xyz.duunion.com/conv?tid=P_45e03b4b42fa6280-NDYzXzQ2MzEwOC0xMzMzNjU3OS0xMjAwLTEwODAtMDUyMi00NjMxNC00NjM&adv_sectkn=55dea06a643eb8a2d267a735fe2683bd&adv_name=appier-api&payout=1.2,idfa_1272aa3c-602e-4f4a-8545-e36e449a8ae9,ja
9hehDG-0Tyenxd4tYsB7BQ,doglobal_api,463108_46313,install,1.2,49.239.64.121,236a172e-9934-405b-9ac6-02df6b484bf1,1558484658,2019-05-22 08:24:18,1558484690,2019-05-22 08:24:50,1558484721,B_e8e60d549a16a9e2-NDYzXzQ2MzEwOC0xMzMzNjU3OS0xMjAwLTEwODAtMDUyMi00NjMxMy00NjM,http://pb.xyz.duunion.com/conv?tid=B_e8e60d549a16a9e2-NDYzXzQ2MzEwOC0xMzMzNjU3OS0xMjAwLTEwODAtMDUyMi00NjMxMy00NjM&adv_sectkn=55dea06a643eb8a2d267a735fe2683bd&adv_name=appier-api&payout=1.2,idfa_236a172e-9934-405b-9ac6-02df6b484bf1,ja
9hehDG-0Tyenxd4tYsB7BQ,doglobal_api,463108_46325,install,1.2,1.66.97.152,ebfdba14-5245-4331-af2c-9e36c9b6da93,1558311695,2019-05-20 08:21:35,1558311751,2019-05-20 08:22:31,1558311782,B_2e19c90c242b2b79-NDYzXzQ2MzEwOC0xMzMzNjU3OS0xMjAwLTEwODAtMDUyMC00NjMyNS00NjM,http://pb.xyz.duunion.com/conv?tid=B_2e19c90c242b2b79-NDYzXzQ2MzEwOC0xMzMzNjU3OS0xMjAwLTEwODAtMDUyMC00NjMyNS00NjM&adv_sectkn=55dea06a643eb8a2d267a735fe2683bd&adv_name=appier-api&payout=1.2,idfa_ebfdba14-5245-4331-af2c-9e36c9b6da93,ja
9hehDG-0Tyenxd4tYsB7BQ,doglobal_api,463108_46317,install,1.2,153.206.249.127,395d7e67-af01-4dcc-9215-79004fcd2671,1558484588,2019-05-22 08:23:08,1558485218,2019-05-22 08:33:38,1558485249,B_7b3bdb8bb54299fb-NDYzXzQ2MzEwOC0xMzMzNjU3OS0xMjAwLTEwODAtMDUyMi00NjMxNy00NjM,http://pb.xyz.duunion.com/conv?tid=B_7b3bdb8bb54299fb-NDYzXzQ2MzEwOC0xMzMzNjU3OS0xMjAwLTEwODAtMDUyMi00NjMxNy00NjM&adv_sectkn=55dea06a643eb8a2d267a735fe2683bd&adv_name=appier-api&payout=1.2,idfa_395d7e67-af01-4dcc-9215-79004fcd2671,ja
