cid,partner_id,channel_id,action_id,cpi,ip,idfa,click time,click datetime,install time,install datetime,postback time,click id,postback url,unique user id
wYxlpktMQ7etxjQVIHEsAA,doglobal_api,921_1955228,Install,1.3,106.181.204.141,A22FEC26-3DB5-49F3-928A-AB103D390332,1558408298,2019-05-21 11:11:38,1558408453,2019-05-21 11:14:13,1558408453,B_b44358ca26aca0d0-OTIxXy0xMzUzODk1NS0xMzAwLTE0MzAtMDUyMS0tMTk1NTIyOA,http://pb.xyz.duunion.com/conv?tid=B_b44358ca26aca0d0-OTIxXy0xMzUzODk1NS0xMzAwLTE0MzAtMDUyMS0tMTk1NTIyOA&adv_sectkn=55dea06a643eb8a2d267a735fe2683bd&adv_name=appier-api&payout=1.3,idfa_A22FEC26-3DB5-49F3-928A-AB103D390332,ja
wYxlpktMQ7etxjQVIHEsAA,doglobal_api,921_1956137,Install,1.3,110.133.51.8,D58CC9BF-E799-4A73-B64E-A5A88B7C0611,1558408525,2019-05-21 11:15:25,1558408680,2019-05-21 11:18:00,1558408680,P_077c84ebf780587f-OTIxXy0xMzUzODk1NS0xMzAwLTE0MzAtMDUyMS0tMTk1NjEzNw,http://pb.xyz.duunion.com/conv?tid=P_077c84ebf780587f-OTIxXy0xMzUzODk1NS0xMzAwLTE0MzAtMDUyMS0tMTk1NjEzNw&adv_sectkn=55dea06a643eb8a2d267a735fe2683bd&adv_name=appier-api&payout=1.3,idfa_D58CC9BF-E799-4A73-B64E-A5A88B7C0611,ja
wYxlpktMQ7etxjQVIHEsAA,doglobal_api,921_1974747,Install,1.3,126.23.214.51,D9A477AD-D15C-4009-B56F-A18882128F48,1558407470,2019-05-21 10:57:50,1558407757,2019-05-21 11:02:37,1558407757,P_c59f687701cf5f57-OTIxXy0xMzUzODk1NS0xMzAwLTE0MzAtMDUyMS0tMTk3NDc0Nw,http://pb.xyz.duunion.com/conv?tid=P_c59f687701cf5f57-OTIxXy0xMzUzODk1NS0xMzAwLTE0MzAtMDUyMS0tMTk3NDc0Nw&adv_sectkn=55dea06a643eb8a2d267a735fe2683bd&adv_name=appier-api&payout=1.3,idfa_D9A477AD-D15C-4009-B56F-A18882128F48,ja
wYxlpktMQ7etxjQVIHEsAA,doglobal_api,921_1955385,Install,1.3,14.13.145.32,401CFDE6-5F8B-4DCC-B971-CB265C9452A2,1558407455,2019-05-21 10:57:35,1558407653,2019-05-21 11:00:53,1558407653,P_9c26dc4fdc485c9c-OTIxXy0xMzUzODk1NS0xMzAwLTE0MzAtMDUyMS0tMTk1NTM4NQ,http://pb.xyz.duunion.com/conv?tid=P_9c26dc4fdc485c9c-OTIxXy0xMzUzODk1NS0xMzAwLTE0MzAtMDUyMS0tMTk1NTM4NQ&adv_sectkn=55dea06a643eb8a2d267a735fe2683bd&adv_name=appier-api&payout=1.3,idfa_401CFDE6-5F8B-4DCC-B971-CB265C9452A2,ja
wYxlpktMQ7etxjQVIHEsAA,doglobal_api,921_1974716,Install,1.3,61.197.142.31,5501F80C-2AD0-4D90-956F-949F3C933239,1558408196,2019-05-21 11:09:56,1558408524,2019-05-21 11:15:24,1558408524,B_d518a8d8be9960ba-OTIxXy0xMzUzODk1NS0xMzAwLTE0MzAtMDUyMS0tMTk3NDcxNg,http://pb.xyz.duunion.com/conv?tid=B_d518a8d8be9960ba-OTIxXy0xMzUzODk1NS0xMzAwLTE0MzAtMDUyMS0tMTk3NDcxNg&adv_sectkn=55dea06a643eb8a2d267a735fe2683bd&adv_name=appier-api&payout=1.3,idfa_5501F80C-2AD0-4D90-956F-949F3C933239,ja
wYxlpktMQ7etxjQVIHEsAA,doglobal_api,921_1974716,Install,1.3,126.163.80.105,BB98EA93-6D13-484B-A653-AE2209420922,1558407546,2019-05-21 10:59:06,1558407839,2019-05-21 11:03:59,1558407839,B_64acf6288befe2d8-OTIxXy0xMzUzODk1NS0xMzAwLTE0MzAtMDUyMS0tMTk3NDcxNg,http://pb.xyz.duunion.com/conv?tid=B_64acf6288befe2d8-OTIxXy0xMzUzODk1NS0xMzAwLTE0MzAtMDUyMS0tMTk3NDcxNg&adv_sectkn=55dea06a643eb8a2d267a735fe2683bd&adv_name=appier-api&payout=1.3,idfa_BB98EA93-6D13-484B-A653-AE2209420922,ja
wYxlpktMQ7etxjQVIHEsAA,doglobal_api,921_1977850,Install,1.3,114.141.33.173,4BEB4F8C-2413-44B0-9D98-AE16ED38387A,1558408698,2019-05-21 11:18:18,1558409008,2019-05-21 11:23:28,1558409008,B_a958b6dfbf852939-OTIxXy0xMzUzODk1NS0xMzAwLTE0MzAtMDUyMS0tMTk3Nzg1MA,http://pb.xyz.duunion.com/conv?tid=B_a958b6dfbf852939-OTIxXy0xMzUzODk1NS0xMzAwLTE0MzAtMDUyMS0tMTk3Nzg1MA&adv_sectkn=55dea06a643eb8a2d267a735fe2683bd&adv_name=appier-api&payout=1.3,idfa_4BEB4F8C-2413-44B0-9D98-AE16ED38387A,ja
wYxlpktMQ7etxjQVIHEsAA,doglobal_api,921_1955387,Install,1.3,210.139.220.204,C677A5F5-9508-486F-80D0-2CD6A9FD0266,1558407411,2019-05-21 10:56:51,1558407583,2019-05-21 10:59:43,1558407583,P_e7b595944c3d25bf-OTIxXy0xMzUzODk1NS0xMzAwLTE0MzAtMDUyMS0tMTk1NTM4Nw,http://pb.xyz.duunion.com/conv?tid=P_e7b595944c3d25bf-OTIxXy0xMzUzODk1NS0xMzAwLTE0MzAtMDUyMS0tMTk1NTM4Nw&adv_sectkn=55dea06a643eb8a2d267a735fe2683bd&adv_name=appier-api&payout=1.3,idfa_C677A5F5-9508-486F-80D0-2CD6A9FD0266,ja
wYxlpktMQ7etxjQVIHEsAA,doglobal_api,921_1973980,Install,1.3,106.158.252.73,E026C509-4D5F-4E52-A327-5B2A2BCEAB41,1558490319,2019-05-22 09:58:39,1558490704,2019-05-22 10:05:04,1558490704,P_9563632448c8995b-OTIxXy0xMzUzODk1NS0xMzAwLTE0MzAtMDUyMi0tMTk3Mzk4MA,http://pb.xyz.duunion.com/conv?tid=P_9563632448c8995b-OTIxXy0xMzUzODk1NS0xMzAwLTE0MzAtMDUyMi0tMTk3Mzk4MA&adv_sectkn=55dea06a643eb8a2d267a735fe2683bd&adv_name=appier-api&payout=1.3,idfa_E026C509-4D5F-4E52-A327-5B2A2BCEAB41,ja
wYxlpktMQ7etxjQVIHEsAA,doglobal_api,921_1955089,Install,1.3,126.196.9.4,78D5356B-8765-4E8E-8544-A1A9A854C9FC,1558408465,2019-05-21 11:14:25,1558408637,2019-05-21 11:17:17,1558408637,P_2fd42cd3d9e9d416-OTIxXy0xMzUzODk1NS0xMzAwLTE0MzAtMDUyMS0tMTk1NTA4OQ,http://pb.xyz.duunion.com/conv?tid=P_2fd42cd3d9e9d416-OTIxXy0xMzUzODk1NS0xMzAwLTE0MzAtMDUyMS0tMTk1NTA4OQ&adv_sectkn=55dea06a643eb8a2d267a735fe2683bd&adv_name=appier-api&payout=1.3,idfa_78D5356B-8765-4E8E-8544-A1A9A854C9FC,ja
wYxlpktMQ7etxjQVIHEsAA,doglobal_api,921_1955154,Install,1.3,61.197.137.27,9E440980-4350-47E3-9C75-022B9B8226EE,1558407438,2019-05-21 10:57:18,1558407668,2019-05-21 11:01:08,1558407668,B_20326cadaaebea11-OTIxXy0xMzUzODk1NS0xMzAwLTE0MzAtMDUyMS0tMTk1NTE1NA,http://pb.xyz.duunion.com/conv?tid=B_20326cadaaebea11-OTIxXy0xMzUzODk1NS0xMzAwLTE0MzAtMDUyMS0tMTk1NTE1NA&adv_sectkn=55dea06a643eb8a2d267a735fe2683bd&adv_name=appier-api&payout=1.3,idfa_9E440980-4350-47E3-9C75-022B9B8226EE,ja
wYxlpktMQ7etxjQVIHEsAA,doglobal_api,921_1977850,Install,1.3,61.197.155.195,254D469C-5748-4720-8500-6CF392C1B421,1558490037,2019-05-22 09:53:57,1558490199,2019-05-22 09:56:39,1558490199,P_3e8f2e3f674c28fb-OTIxXy0xMzUzODk1NS0xMzAwLTE0MzAtMDUyMi0tMTk3Nzg1MA,http://pb.xyz.duunion.com/conv?tid=P_3e8f2e3f674c28fb-OTIxXy0xMzUzODk1NS0xMzAwLTE0MzAtMDUyMi0tMTk3Nzg1MA&adv_sectkn=55dea06a643eb8a2d267a735fe2683bd&adv_name=appier-api&payout=1.3,idfa_254D469C-5748-4720-8500-6CF392C1B421,ja
wYxlpktMQ7etxjQVIHEsAA,doglobal_api,921_1973980,Install,1.3,182.167.215.167,C1376073-8089-4EEB-AD32-68885394204A,1558408200,2019-05-21 11:10:00,1558408490,2019-05-21 11:14:50,1558408490,P_253380c6db7baf5b-OTIxXy0xMzUzODk1NS0xMzAwLTE0MzAtMDUyMS0tMTk3Mzk4MA,http://pb.xyz.duunion.com/conv?tid=P_253380c6db7baf5b-OTIxXy0xMzUzODk1NS0xMzAwLTE0MzAtMDUyMS0tMTk3Mzk4MA&adv_sectkn=55dea06a643eb8a2d267a735fe2683bd&adv_name=appier-api&payout=1.3,idfa_C1376073-8089-4EEB-AD32-68885394204A,ja
wYxlpktMQ7etxjQVIHEsAA,doglobal_api,921_1973980,Install,1.3,153.214.69.127,98CC5CD0-BB77-4E20-A52B-1944819DEF4F,1558408197,2019-05-21 11:09:57,1558408691,2019-05-21 11:18:11,1558408691,B_e67b10cb253838fc-OTIxXy0xMzUzODk1NS0xMzAwLTE0MzAtMDUyMS0tMTk3Mzk4MA,http://pb.xyz.duunion.com/conv?tid=B_e67b10cb253838fc-OTIxXy0xMzUzODk1NS0xMzAwLTE0MzAtMDUyMS0tMTk3Mzk4MA&adv_sectkn=55dea06a643eb8a2d267a735fe2683bd&adv_name=appier-api&payout=1.3,idfa_98CC5CD0-BB77-4E20-A52B-1944819DEF4F,ja
wYxlpktMQ7etxjQVIHEsAA,doglobal_api,921_1974747,Install,1.3,27.141.193.38,695940E7-4742-4240-9169-1F7EBC760E99,1558489725,2019-05-22 09:48:45,1558489885,2019-05-22 09:51:25,1558489885,P_9074177172f95996-OTIxXy0xMzUzODk1NS0xMzAwLTE0MzAtMDUyMi0tMTk3NDc0Nw,http://pb.xyz.duunion.com/conv?tid=P_9074177172f95996-OTIxXy0xMzUzODk1NS0xMzAwLTE0MzAtMDUyMi0tMTk3NDc0Nw&adv_sectkn=55dea06a643eb8a2d267a735fe2683bd&adv_name=appier-api&payout=1.3,idfa_695940E7-4742-4240-9169-1F7EBC760E99,ja
wYxlpktMQ7etxjQVIHEsAA,doglobal_api,921_1956045,Install,1.3,119.230.148.222,7013E5AF-37E9-4DB6-95CF-E0A060E33018,1558408393,2019-05-21 11:13:13,1558408593,2019-05-21 11:16:33,1558408593,P_bc77809a990adcc4-OTIxXy0xMzUzODk1NS0xMzAwLTE0MzAtMDUyMS0tMTk1NjA0NQ,http://pb.xyz.duunion.com/conv?tid=P_bc77809a990adcc4-OTIxXy0xMzUzODk1NS0xMzAwLTE0MzAtMDUyMS0tMTk1NjA0NQ&adv_sectkn=55dea06a643eb8a2d267a735fe2683bd&adv_name=appier-api&payout=1.3,idfa_7013E5AF-37E9-4DB6-95CF-E0A060E33018,ja
wYxlpktMQ7etxjQVIHEsAA,doglobal_api,921_1973979,Install,1.3,210.251.99.112,D284B321-5D47-4BB8-B585-4FC180DE85E7,1558489785,2019-05-22 09:49:45,1558489996,2019-05-22 09:53:16,1558489996,P_c12485459b7a6f9b-OTIxXy0xMzUzODk1NS0xMzAwLTE0MzAtMDUyMi0tMTk3Mzk3OQ,http://pb.xyz.duunion.com/conv?tid=P_c12485459b7a6f9b-OTIxXy0xMzUzODk1NS0xMzAwLTE0MzAtMDUyMi0tMTk3Mzk3OQ&adv_sectkn=55dea06a643eb8a2d267a735fe2683bd&adv_name=appier-api&payout=1.3,idfa_D284B321-5D47-4BB8-B585-4FC180DE85E7,ja
wYxlpktMQ7etxjQVIHEsAA,doglobal_api,921_1956137,Install,1.3,124.211.70.225,5DEBDF58-BFE1-496E-8E51-656AED2D9291,1558408693,2019-05-21 11:18:13,1558408892,2019-05-21 11:21:32,1558408892,B_246496b1c7956209-OTIxXy0xMzUzODk1NS0xMzAwLTE0MzAtMDUyMS0tMTk1NjEzNw,http://pb.xyz.duunion.com/conv?tid=B_246496b1c7956209-OTIxXy0xMzUzODk1NS0xMzAwLTE0MzAtMDUyMS0tMTk1NjEzNw&adv_sectkn=55dea06a643eb8a2d267a735fe2683bd&adv_name=appier-api&payout=1.3,idfa_5DEBDF58-BFE1-496E-8E51-656AED2D9291,ja
wYxlpktMQ7etxjQVIHEsAA,doglobal_api,921_1973979,Install,1.3,60.109.53.179,DB6488FC-BD26-4D66-A6F9-4B528D46D0FB,1558489758,2019-05-22 09:49:18,1558489920,2019-05-22 09:52:00,1558489920,B_7cf4b25d7b38253f-OTIxXy0xMzUzODk1NS0xMzAwLTE0MzAtMDUyMi0tMTk3Mzk3OQ,http://pb.xyz.duunion.com/conv?tid=B_7cf4b25d7b38253f-OTIxXy0xMzUzODk1NS0xMzAwLTE0MzAtMDUyMi0tMTk3Mzk3OQ&adv_sectkn=55dea06a643eb8a2d267a735fe2683bd&adv_name=appier-api&payout=1.3,idfa_DB6488FC-BD26-4D66-A6F9-4B528D46D0FB,ja
wYxlpktMQ7etxjQVIHEsAA,doglobal_api,921_1977850,Install,1.3,111.239.182.53,0B6E45DF-24CD-462C-8E42-25D8754C5BA2,1558407497,2019-05-21 10:58:17,1558407825,2019-05-21 11:03:45,1558407825,B_76e0446cc6b884b6-OTIxXy0xMzUzODk1NS0xMzAwLTE0MzAtMDUyMS0tMTk3Nzg1MA,http://pb.xyz.duunion.com/conv?tid=B_76e0446cc6b884b6-OTIxXy0xMzUzODk1NS0xMzAwLTE0MzAtMDUyMS0tMTk3Nzg1MA&adv_sectkn=55dea06a643eb8a2d267a735fe2683bd&adv_name=appier-api&payout=1.3,idfa_0B6E45DF-24CD-462C-8E42-25D8754C5BA2,ja
wYxlpktMQ7etxjQVIHEsAA,doglobal_api,921_1974716,Install,1.3,221.185.64.95,518C90BE-5B78-4FDF-BF0E-88753C320684,1558408216,2019-05-21 11:10:16,1558408744,2019-05-21 11:19:04,1558408744,B_eedd01cfde463ab4-OTIxXy0xMzUzODk1NS0xMzAwLTE0MzAtMDUyMS0tMTk3NDcxNg,http://pb.xyz.duunion.com/conv?tid=B_eedd01cfde463ab4-OTIxXy0xMzUzODk1NS0xMzAwLTE0MzAtMDUyMS0tMTk3NDcxNg&adv_sectkn=55dea06a643eb8a2d267a735fe2683bd&adv_name=appier-api&payout=1.3,idfa_518C90BE-5B78-4FDF-BF0E-88753C320684,ja
wYxlpktMQ7etxjQVIHEsAA,doglobal_api,921_1974325,Install,1.3,110.133.51.8,625B939E-2465-4A2E-AD00-163243382C28,1558408201,2019-05-21 11:10:01,1558408539,2019-05-21 11:15:39,1558408539,P_6c4bc5dbabcd61db-OTIxXy0xMzUzODk1NS0xMzAwLTE0MzAtMDUyMS0tMTk3NDMyNQ,http://pb.xyz.duunion.com/conv?tid=P_6c4bc5dbabcd61db-OTIxXy0xMzUzODk1NS0xMzAwLTE0MzAtMDUyMS0tMTk3NDMyNQ&adv_sectkn=55dea06a643eb8a2d267a735fe2683bd&adv_name=appier-api&payout=1.3,idfa_625B939E-2465-4A2E-AD00-163243382C28,ja
wYxlpktMQ7etxjQVIHEsAA,doglobal_api,921_1955387,Install,1.3,222.224.161.165,3CAEC778-B185-4782-8D9C-42FA8DD0341B,1558407386,2019-05-21 10:56:26,1558407569,2019-05-21 10:59:29,1558407569,P_7eacd35233ea8c65-OTIxXy0xMzUzODk1NS0xMzAwLTE0MzAtMDUyMS0tMTk1NTM4Nw,http://pb.xyz.duunion.com/conv?tid=P_7eacd35233ea8c65-OTIxXy0xMzUzODk1NS0xMzAwLTE0MzAtMDUyMS0tMTk1NTM4Nw&adv_sectkn=55dea06a643eb8a2d267a735fe2683bd&adv_name=appier-api&payout=1.3,idfa_3CAEC778-B185-4782-8D9C-42FA8DD0341B,ja
wYxlpktMQ7etxjQVIHEsAA,doglobal_api,921_1955089,Install,1.3,219.104.89.11,FFF59676-ED7F-41CF-AE7A-2676C18448E1,1558408497,2019-05-21 11:14:57,1558408657,2019-05-21 11:17:37,1558408657,P_1ba704743e42cf9f-OTIxXy0xMzUzODk1NS0xMzAwLTE0MzAtMDUyMS0tMTk1NTA4OQ,http://pb.xyz.duunion.com/conv?tid=P_1ba704743e42cf9f-OTIxXy0xMzUzODk1NS0xMzAwLTE0MzAtMDUyMS0tMTk1NTA4OQ&adv_sectkn=55dea06a643eb8a2d267a735fe2683bd&adv_name=appier-api&payout=1.3,idfa_FFF59676-ED7F-41CF-AE7A-2676C18448E1,ja
wYxlpktMQ7etxjQVIHEsAA,doglobal_api,921_1977850,Install,1.3,118.22.45.154,5F61E897-288B-47EF-AC01-84414864EC86,1558489718,2019-05-22 09:48:38,1558489881,2019-05-22 09:51:21,1558489881,P_2108e6a7efea6315-OTIxXy0xMzUzODk1NS0xMzAwLTE0MzAtMDUyMi0tMTk3Nzg1MA,http://pb.xyz.duunion.com/conv?tid=P_2108e6a7efea6315-OTIxXy0xMzUzODk1NS0xMzAwLTE0MzAtMDUyMi0tMTk3Nzg1MA&adv_sectkn=55dea06a643eb8a2d267a735fe2683bd&adv_name=appier-api&payout=1.3,idfa_5F61E897-288B-47EF-AC01-84414864EC86,ja
wYxlpktMQ7etxjQVIHEsAA,doglobal_api,921_1974325,Install,1.3,123.48.60.217,08608F31-5090-4B7E-9E11-2BE49F804429,1558408196,2019-05-21 11:09:56,1558408537,2019-05-21 11:15:37,1558408537,B_8fab91bff0e15bf5-OTIxXy0xMzUzODk1NS0xMzAwLTE0MzAtMDUyMS0tMTk3NDMyNQ,http://pb.xyz.duunion.com/conv?tid=B_8fab91bff0e15bf5-OTIxXy0xMzUzODk1NS0xMzAwLTE0MzAtMDUyMS0tMTk3NDMyNQ&adv_sectkn=55dea06a643eb8a2d267a735fe2683bd&adv_name=appier-api&payout=1.3,idfa_08608F31-5090-4B7E-9E11-2BE49F804429,ja
wYxlpktMQ7etxjQVIHEsAA,doglobal_api,921_1974722,Install,1.3,126.243.119.110,1D4004F5-F794-4E68-9AEE-F7199A38E3F5,1558408203,2019-05-21 11:10:03,1558408687,2019-05-21 11:18:07,1558408687,B_f8c319533fe5abb8-OTIxXy0xMzUzODk1NS0xMzAwLTE0MzAtMDUyMS0tMTk3NDcyMg,http://pb.xyz.duunion.com/conv?tid=B_f8c319533fe5abb8-OTIxXy0xMzUzODk1NS0xMzAwLTE0MzAtMDUyMS0tMTk3NDcyMg&adv_sectkn=55dea06a643eb8a2d267a735fe2683bd&adv_name=appier-api&payout=1.3,idfa_1D4004F5-F794-4E68-9AEE-F7199A38E3F5,ja
wYxlpktMQ7etxjQVIHEsAA,doglobal_api,921_1977850,Install,1.3,14.10.132.160,6080F3A3-BEAD-4FF9-8498-2A6739FDDE9B,1558490532,2019-05-22 10:02:12,1558490684,2019-05-22 10:04:44,1558490684,P_4891abfbbdabf255-OTIxXy0xMzUzODk1NS0xMzAwLTE0MzAtMDUyMi0tMTk3Nzg1MA,http://pb.xyz.duunion.com/conv?tid=P_4891abfbbdabf255-OTIxXy0xMzUzODk1NS0xMzAwLTE0MzAtMDUyMi0tMTk3Nzg1MA&adv_sectkn=55dea06a643eb8a2d267a735fe2683bd&adv_name=appier-api&payout=1.3,idfa_6080F3A3-BEAD-4FF9-8498-2A6739FDDE9B,ja
wYxlpktMQ7etxjQVIHEsAA,doglobal_api,921_1974747,Install,1.3,126.68.165.163,98121976-F064-429B-8F47-30D289ADAE5E,1558489788,2019-05-22 09:49:48,1558489898,2019-05-22 09:51:38,1558489898,P_9cedd62ddf9dff49-OTIxXy0xMzUzODk1NS0xMzAwLTE0MzAtMDUyMi0tMTk3NDc0Nw,http://pb.xyz.duunion.com/conv?tid=P_9cedd62ddf9dff49-OTIxXy0xMzUzODk1NS0xMzAwLTE0MzAtMDUyMi0tMTk3NDc0Nw&adv_sectkn=55dea06a643eb8a2d267a735fe2683bd&adv_name=appier-api&payout=1.3,idfa_98121976-F064-429B-8F47-30D289ADAE5E,ja
wYxlpktMQ7etxjQVIHEsAA,doglobal_api,921_1973979,Install,1.3,60.154.106.202,B1012FD0-5ADE-4C74-AED0-8B83498B03F8,1558490221,2019-05-22 09:57:01,1558490383,2019-05-22 09:59:43,1558490383,P_b6a4bdcb42ad2e0b-OTIxXy0xMzUzODk1NS0xMzAwLTE0MzAtMDUyMi0tMTk3Mzk3OQ,http://pb.xyz.duunion.com/conv?tid=P_b6a4bdcb42ad2e0b-OTIxXy0xMzUzODk1NS0xMzAwLTE0MzAtMDUyMi0tMTk3Mzk3OQ&adv_sectkn=55dea06a643eb8a2d267a735fe2683bd&adv_name=appier-api&payout=1.3,idfa_B1012FD0-5ADE-4C74-AED0-8B83498B03F8,ja
wYxlpktMQ7etxjQVIHEsAA,doglobal_api,921_1974722,Install,1.3,61.46.108.168,CD93BFF6-2885-4EF5-869D-57CAA6306056,1558406926,2019-05-21 10:48:46,1558407129,2019-05-21 10:52:09,1558407129,B_8d1a39a84e8a091b-OTIxXy0xMzUzODk1NS0xMzAwLTE0MzAtMDUyMS0tMTk3NDcyMg,http://pb.xyz.duunion.com/conv?tid=B_8d1a39a84e8a091b-OTIxXy0xMzUzODk1NS0xMzAwLTE0MzAtMDUyMS0tMTk3NDcyMg&adv_sectkn=55dea06a643eb8a2d267a735fe2683bd&adv_name=appier-api&payout=1.3,idfa_CD93BFF6-2885-4EF5-869D-57CAA6306056,ja
wYxlpktMQ7etxjQVIHEsAA,doglobal_api,921_1955154,Install,1.3,1.33.243.37,B5D91798-74AB-4BB5-A5F0-1D17C6843ADA,1558408390,2019-05-21 11:13:10,1558408609,2019-05-21 11:16:49,1558408609,B_6d27af47583d3966-OTIxXy0xMzUzODk1NS0xMzAwLTE0MzAtMDUyMS0tMTk1NTE1NA,http://pb.xyz.duunion.com/conv?tid=B_6d27af47583d3966-OTIxXy0xMzUzODk1NS0xMzAwLTE0MzAtMDUyMS0tMTk1NTE1NA&adv_sectkn=55dea06a643eb8a2d267a735fe2683bd&adv_name=appier-api&payout=1.3,idfa_B5D91798-74AB-4BB5-A5F0-1D17C6843ADA,ja
wYxlpktMQ7etxjQVIHEsAA,doglobal_api,921_1974325,Install,1.3,60.47.226.141,4F3AF931-5818-46E3-A9B0-5916A2B77929,1558407470,2019-05-21 10:57:50,1558407672,2019-05-21 11:01:12,1558407672,P_fa912f1dcb3c636e-OTIxXy0xMzUzODk1NS0xMzAwLTE0MzAtMDUyMS0tMTk3NDMyNQ,http://pb.xyz.duunion.com/conv?tid=P_fa912f1dcb3c636e-OTIxXy0xMzUzODk1NS0xMzAwLTE0MzAtMDUyMS0tMTk3NDMyNQ&adv_sectkn=55dea06a643eb8a2d267a735fe2683bd&adv_name=appier-api&payout=1.3,idfa_4F3AF931-5818-46E3-A9B0-5916A2B77929,ja
wYxlpktMQ7etxjQVIHEsAA,doglobal_api,921_1974716,Install,1.3,153.204.90.173,599B581F-FC0A-4365-97EF-270A87E70D4B,1558490768,2019-05-22 10:06:08,1558490924,2019-05-22 10:08:44,1558490924,B_c0b23914d8700873-OTIxXy0xMzUzODk1NS0xMzAwLTE0MzAtMDUyMi0tMTk3NDcxNg,http://pb.xyz.duunion.com/conv?tid=B_c0b23914d8700873-OTIxXy0xMzUzODk1NS0xMzAwLTE0MzAtMDUyMi0tMTk3NDcxNg&adv_sectkn=55dea06a643eb8a2d267a735fe2683bd&adv_name=appier-api&payout=1.3,idfa_599B581F-FC0A-4365-97EF-270A87E70D4B,ja
wYxlpktMQ7etxjQVIHEsAA,doglobal_api,921_1955387,Install,1.3,220.220.221.198,E28879AD-215E-4569-A711-E6A21269BD44,1558408382,2019-05-21 11:13:02,1558408701,2019-05-21 11:18:21,1558408701,B_393d0e8320012ec2-OTIxXy0xMzUzODk1NS0xMzAwLTE0MzAtMDUyMS0tMTk1NTM4Nw,http://pb.xyz.duunion.com/conv?tid=B_393d0e8320012ec2-OTIxXy0xMzUzODk1NS0xMzAwLTE0MzAtMDUyMS0tMTk1NTM4Nw&adv_sectkn=55dea06a643eb8a2d267a735fe2683bd&adv_name=appier-api&payout=1.3,idfa_E28879AD-215E-4569-A711-E6A21269BD44,ja
wYxlpktMQ7etxjQVIHEsAA,doglobal_api,921_1956137,Install,1.3,126.194.143.132,42A78FA0-E8EE-411B-9553-EA967C2D1D17,1558408399,2019-05-21 11:13:19,1558408606,2019-05-21 11:16:46,1558408606,P_acac559741eb1f68-OTIxXy0xMzUzODk1NS0xMzAwLTE0MzAtMDUyMS0tMTk1NjEzNw,http://pb.xyz.duunion.com/conv?tid=P_acac559741eb1f68-OTIxXy0xMzUzODk1NS0xMzAwLTE0MzAtMDUyMS0tMTk1NjEzNw&adv_sectkn=55dea06a643eb8a2d267a735fe2683bd&adv_name=appier-api&payout=1.3,idfa_42A78FA0-E8EE-411B-9553-EA967C2D1D17,ja
wYxlpktMQ7etxjQVIHEsAA,doglobal_api,921_1977187,Install,1.3,125.15.24.91,7E24BCBD-2EEE-4527-B387-FD1A9DB74828,1558408235,2019-05-21 11:10:35,1558408588,2019-05-21 11:16:28,1558408588,B_9732e030e82ed2fd-OTIxXy0xMzUzODk1NS0xMzAwLTE0MzAtMDUyMS0tMTk3NzE4Nw,http://pb.xyz.duunion.com/conv?tid=B_9732e030e82ed2fd-OTIxXy0xMzUzODk1NS0xMzAwLTE0MzAtMDUyMS0tMTk3NzE4Nw&adv_sectkn=55dea06a643eb8a2d267a735fe2683bd&adv_name=appier-api&payout=1.3,idfa_7E24BCBD-2EEE-4527-B387-FD1A9DB74828,ja
wYxlpktMQ7etxjQVIHEsAA,doglobal_api,921_1955228,Install,1.3,61.120.2.113,29CBFC58-9259-49E2-BC0D-8A0339534B04,1558408384,2019-05-21 11:13:04,1558408602,2019-05-21 11:16:42,1558408602,P_ea24aca279e6e648-OTIxXy0xMzUzODk1NS0xMzAwLTE0MzAtMDUyMS0tMTk1NTIyOA,http://pb.xyz.duunion.com/conv?tid=P_ea24aca279e6e648-OTIxXy0xMzUzODk1NS0xMzAwLTE0MzAtMDUyMS0tMTk1NTIyOA&adv_sectkn=55dea06a643eb8a2d267a735fe2683bd&adv_name=appier-api&payout=1.3,idfa_29CBFC58-9259-49E2-BC0D-8A0339534B04,ja
wYxlpktMQ7etxjQVIHEsAA,doglobal_api,921_1955385,Install,1.3,124.159.48.49,4D0ECB73-E04D-488C-B5C5-356941A98ACE,1558408648,2019-05-21 11:17:28,1558408868,2019-05-21 11:21:08,1558408868,B_852d8cf76524f17e-OTIxXy0xMzUzODk1NS0xMzAwLTE0MzAtMDUyMS0tMTk1NTM4NQ,http://pb.xyz.duunion.com/conv?tid=B_852d8cf76524f17e-OTIxXy0xMzUzODk1NS0xMzAwLTE0MzAtMDUyMS0tMTk1NTM4NQ&adv_sectkn=55dea06a643eb8a2d267a735fe2683bd&adv_name=appier-api&payout=1.3,idfa_4D0ECB73-E04D-488C-B5C5-356941A98ACE,ja
wYxlpktMQ7etxjQVIHEsAA,doglobal_api,921_1955089,Install,1.3,153.150.177.142,FB98AC89-1108-4014-A312-800CCC2650E6,1558407383,2019-05-21 10:56:23,1558407556,2019-05-21 10:59:16,1558407556,B_660093c9ea9fd0d3-OTIxXy0xMzUzODk1NS0xMzAwLTE0MzAtMDUyMS0tMTk1NTA4OQ,http://pb.xyz.duunion.com/conv?tid=B_660093c9ea9fd0d3-OTIxXy0xMzUzODk1NS0xMzAwLTE0MzAtMDUyMS0tMTk1NTA4OQ&adv_sectkn=55dea06a643eb8a2d267a735fe2683bd&adv_name=appier-api&payout=1.3,idfa_FB98AC89-1108-4014-A312-800CCC2650E6,ja
wYxlpktMQ7etxjQVIHEsAA,doglobal_api,921_1973980,Install,1.3,221.112.96.177,4538AB40-59DE-43FD-8652-4B7DEACCE813,1558408211,2019-05-21 11:10:11,1558408758,2019-05-21 11:19:18,1558408758,B_4c27896bda9d1079-OTIxXy0xMzUzODk1NS0xMzAwLTE0MzAtMDUyMS0tMTk3Mzk4MA,http://pb.xyz.duunion.com/conv?tid=B_4c27896bda9d1079-OTIxXy0xMzUzODk1NS0xMzAwLTE0MzAtMDUyMS0tMTk3Mzk4MA&adv_sectkn=55dea06a643eb8a2d267a735fe2683bd&adv_name=appier-api&payout=1.3,idfa_4538AB40-59DE-43FD-8652-4B7DEACCE813,ja
wYxlpktMQ7etxjQVIHEsAA,doglobal_api,921_1973979,Install,1.3,157.65.254.116,0D182B3A-0017-41C2-B091-0E31B0F69932,1558489716,2019-05-22 09:48:36,1558489877,2019-05-22 09:51:17,1558489877,B_05544ef9488650f2-OTIxXy0xMzUzODk1NS0xMzAwLTE0MzAtMDUyMi0tMTk3Mzk3OQ,http://pb.xyz.duunion.com/conv?tid=B_05544ef9488650f2-OTIxXy0xMzUzODk1NS0xMzAwLTE0MzAtMDUyMi0tMTk3Mzk3OQ&adv_sectkn=55dea06a643eb8a2d267a735fe2683bd&adv_name=appier-api&payout=1.3,idfa_0D182B3A-0017-41C2-B091-0E31B0F69932,ja
wYxlpktMQ7etxjQVIHEsAA,doglobal_api,921_1956137,Install,1.3,118.156.112.220,AB603E41-D4E1-471A-9A66-BFC99D6C02DB,1558408391,2019-05-21 11:13:11,1558408660,2019-05-21 11:17:40,1558408660,P_544ffab58ca693b5-OTIxXy0xMzUzODk1NS0xMzAwLTE0MzAtMDUyMS0tMTk1NjEzNw,http://pb.xyz.duunion.com/conv?tid=P_544ffab58ca693b5-OTIxXy0xMzUzODk1NS0xMzAwLTE0MzAtMDUyMS0tMTk1NjEzNw&adv_sectkn=55dea06a643eb8a2d267a735fe2683bd&adv_name=appier-api&payout=1.3,idfa_AB603E41-D4E1-471A-9A66-BFC99D6C02DB,ja
wYxlpktMQ7etxjQVIHEsAA,doglobal_api,921_1974747,Install,1.3,218.229.4.137,8890CC49-5FEF-4B41-A292-F231C0071771,1558408215,2019-05-21 11:10:15,1558408753,2019-05-21 11:19:13,1558408753,P_524c0121d629adec-OTIxXy0xMzUzODk1NS0xMzAwLTE0MzAtMDUyMS0tMTk3NDc0Nw,http://pb.xyz.duunion.com/conv?tid=P_524c0121d629adec-OTIxXy0xMzUzODk1NS0xMzAwLTE0MzAtMDUyMS0tMTk3NDc0Nw&adv_sectkn=55dea06a643eb8a2d267a735fe2683bd&adv_name=appier-api&payout=1.3,idfa_8890CC49-5FEF-4B41-A292-F231C0071771,ja
wYxlpktMQ7etxjQVIHEsAA,doglobal_api,921_1973979,Install,1.3,203.143.111.6,6599185D-6342-477D-B28E-2223A3D0B993,1558490251,2019-05-22 09:57:31,1558490416,2019-05-22 10:00:16,1558490416,P_a9d94eceee4808f2-OTIxXy0xMzUzODk1NS0xMzAwLTE0MzAtMDUyMi0tMTk3Mzk3OQ,http://pb.xyz.duunion.com/conv?tid=P_a9d94eceee4808f2-OTIxXy0xMzUzODk1NS0xMzAwLTE0MzAtMDUyMi0tMTk3Mzk3OQ&adv_sectkn=55dea06a643eb8a2d267a735fe2683bd&adv_name=appier-api&payout=1.3,idfa_6599185D-6342-477D-B28E-2223A3D0B993,ja
wYxlpktMQ7etxjQVIHEsAA,doglobal_api,921_1974722,Install,1.3,125.1.188.151,E43B7FDC-8467-4327-ABDD-4C2BAE588A19,1558408202,2019-05-21 11:10:02,1558408450,2019-05-21 11:14:10,1558408450,P_c0bcf70623aa6b83-OTIxXy0xMzUzODk1NS0xMzAwLTE0MzAtMDUyMS0tMTk3NDcyMg,http://pb.xyz.duunion.com/conv?tid=P_c0bcf70623aa6b83-OTIxXy0xMzUzODk1NS0xMzAwLTE0MzAtMDUyMS0tMTk3NDcyMg&adv_sectkn=55dea06a643eb8a2d267a735fe2683bd&adv_name=appier-api&payout=1.3,idfa_E43B7FDC-8467-4327-ABDD-4C2BAE588A19,ja
wYxlpktMQ7etxjQVIHEsAA,doglobal_api,921_1955387,Install,1.3,163.131.15.55,4D00B098-6891-42FD-A144-49325FC99056,1558408624,2019-05-21 11:17:04,1558408801,2019-05-21 11:20:01,1558408801,B_d6dd0278212386e2-OTIxXy0xMzUzODk1NS0xMzAwLTE0MzAtMDUyMS0tMTk1NTM4Nw,http://pb.xyz.duunion.com/conv?tid=B_d6dd0278212386e2-OTIxXy0xMzUzODk1NS0xMzAwLTE0MzAtMDUyMS0tMTk1NTM4Nw&adv_sectkn=55dea06a643eb8a2d267a735fe2683bd&adv_name=appier-api&payout=1.3,idfa_4D00B098-6891-42FD-A144-49325FC99056,ja
wYxlpktMQ7etxjQVIHEsAA,doglobal_api,921_1974325,Install,1.3,153.165.38.238,03FB43C3-FAEA-4F34-9800-958721CEB569,1558489763,2019-05-22 09:49:23,1558489914,2019-05-22 09:51:54,1558489914,P_55d1343c250db56a-OTIxXy0xMzUzODk1NS0xMzAwLTE0MzAtMDUyMi0tMTk3NDMyNQ,http://pb.xyz.duunion.com/conv?tid=P_55d1343c250db56a-OTIxXy0xMzUzODk1NS0xMzAwLTE0MzAtMDUyMi0tMTk3NDMyNQ&adv_sectkn=55dea06a643eb8a2d267a735fe2683bd&adv_name=appier-api&payout=1.3,idfa_03FB43C3-FAEA-4F34-9800-958721CEB569,ja
wYxlpktMQ7etxjQVIHEsAA,doglobal_api,921_1955387,Install,1.3,59.168.87.166,F2A6FC73-0929-4585-A7DC-376071625430,1558407382,2019-05-21 10:56:22,1558407641,2019-05-21 11:00:41,1558407641,P_10969558340da9ff-OTIxXy0xMzUzODk1NS0xMzAwLTE0MzAtMDUyMS0tMTk1NTM4Nw,http://pb.xyz.duunion.com/conv?tid=P_10969558340da9ff-OTIxXy0xMzUzODk1NS0xMzAwLTE0MzAtMDUyMS0tMTk1NTM4Nw&adv_sectkn=55dea06a643eb8a2d267a735fe2683bd&adv_name=appier-api&payout=1.3,idfa_F2A6FC73-0929-4585-A7DC-376071625430,ja
wYxlpktMQ7etxjQVIHEsAA,doglobal_api,921_1974747,Install,1.3,101.142.166.10,901387C3-AD10-4B28-AA7F-9C08A3CC751B,1558490713,2019-05-22 10:05:13,1558490868,2019-05-22 10:07:48,1558490868,P_a0340d2e59492d63-OTIxXy0xMzUzODk1NS0xMzAwLTE0MzAtMDUyMi0tMTk3NDc0Nw,http://pb.xyz.duunion.com/conv?tid=P_a0340d2e59492d63-OTIxXy0xMzUzODk1NS0xMzAwLTE0MzAtMDUyMi0tMTk3NDc0Nw&adv_sectkn=55dea06a643eb8a2d267a735fe2683bd&adv_name=appier-api&payout=1.3,idfa_901387C3-AD10-4B28-AA7F-9C08A3CC751B,ja
wYxlpktMQ7etxjQVIHEsAA,doglobal_api,921_1974314,Install,1.3,119.230.11.222,82A9BF34-9AF6-4638-A7DC-412D3A5E024D,1558408254,2019-05-21 11:10:54,1558408733,2019-05-21 11:18:53,1558408733,P_ff90a861b63ccbc7-OTIxXy0xMzUzODk1NS0xMzAwLTE0MzAtMDUyMS0tMTk3NDMxNA,http://pb.xyz.duunion.com/conv?tid=P_ff90a861b63ccbc7-OTIxXy0xMzUzODk1NS0xMzAwLTE0MzAtMDUyMS0tMTk3NDMxNA&adv_sectkn=55dea06a643eb8a2d267a735fe2683bd&adv_name=appier-api&payout=1.3,idfa_82A9BF34-9AF6-4638-A7DC-412D3A5E024D,ja
wYxlpktMQ7etxjQVIHEsAA,doglobal_api,921_1955129,Install,1.3,175.177.40.62,1437426D-A965-4FAD-86AC-8D5D3C97979E,1558408330,2019-05-21 11:12:10,1558408507,2019-05-21 11:15:07,1558408507,P_1735a8e0b477dcd7-OTIxXy0xMzUzODk1NS0xMzAwLTE0MzAtMDUyMS0tMTk1NTEyOQ,http://pb.xyz.duunion.com/conv?tid=P_1735a8e0b477dcd7-OTIxXy0xMzUzODk1NS0xMzAwLTE0MzAtMDUyMS0tMTk1NTEyOQ&adv_sectkn=55dea06a643eb8a2d267a735fe2683bd&adv_name=appier-api&payout=1.3,idfa_1437426D-A965-4FAD-86AC-8D5D3C97979E,ja
wYxlpktMQ7etxjQVIHEsAA,doglobal_api,921_1974325,Install,1.3,27.142.80.151,0C54460F-F9B9-41DA-9C77-242A8BB0C267,1558490000,2019-05-22 09:53:20,1558490153,2019-05-22 09:55:53,1558490153,B_4e228bc1f22afae2-OTIxXy0xMzUzODk1NS0xMzAwLTE0MzAtMDUyMi0tMTk3NDMyNQ,http://pb.xyz.duunion.com/conv?tid=B_4e228bc1f22afae2-OTIxXy0xMzUzODk1NS0xMzAwLTE0MzAtMDUyMi0tMTk3NDMyNQ&adv_sectkn=55dea06a643eb8a2d267a735fe2683bd&adv_name=appier-api&payout=1.3,idfa_0C54460F-F9B9-41DA-9C77-242A8BB0C267,ja
wYxlpktMQ7etxjQVIHEsAA,doglobal_api,921_1955089,Install,1.3,61.46.216.112,482F379E-BC96-464D-A1BF-A5AF99A77CEA,1558408385,2019-05-21 11:13:05,1558408559,2019-05-21 11:15:59,1558408559,P_593bc5a2b6af3474-OTIxXy0xMzUzODk1NS0xMzAwLTE0MzAtMDUyMS0tMTk1NTA4OQ,http://pb.xyz.duunion.com/conv?tid=P_593bc5a2b6af3474-OTIxXy0xMzUzODk1NS0xMzAwLTE0MzAtMDUyMS0tMTk1NTA4OQ&adv_sectkn=55dea06a643eb8a2d267a735fe2683bd&adv_name=appier-api&payout=1.3,idfa_482F379E-BC96-464D-A1BF-A5AF99A77CEA,ja
wYxlpktMQ7etxjQVIHEsAA,doglobal_api,921_1974716,Install,1.3,61.89.161.155,229C4B7E-FE1C-4F02-B952-B61D491CA281,1558408712,2019-05-21 11:18:32,1558408873,2019-05-21 11:21:13,1558408873,B_f49c7d07e2535319-OTIxXy0xMzUzODk1NS0xMzAwLTE0MzAtMDUyMS0tMTk3NDcxNg,http://pb.xyz.duunion.com/conv?tid=B_f49c7d07e2535319-OTIxXy0xMzUzODk1NS0xMzAwLTE0MzAtMDUyMS0tMTk3NDcxNg&adv_sectkn=55dea06a643eb8a2d267a735fe2683bd&adv_name=appier-api&payout=1.3,idfa_229C4B7E-FE1C-4F02-B952-B61D491CA281,ja
wYxlpktMQ7etxjQVIHEsAA,doglobal_api,921_1973980,Install,1.3,126.224.118.5,22E1945F-AFCF-47E6-A73E-9BC6E48615A8,1558490565,2019-05-22 10:02:45,1558490726,2019-05-22 10:05:26,1558490726,B_a0a99242f3dec3de-OTIxXy0xMzUzODk1NS0xMzAwLTE0MzAtMDUyMi0tMTk3Mzk4MA,http://pb.xyz.duunion.com/conv?tid=B_a0a99242f3dec3de-OTIxXy0xMzUzODk1NS0xMzAwLTE0MzAtMDUyMi0tMTk3Mzk4MA&adv_sectkn=55dea06a643eb8a2d267a735fe2683bd&adv_name=appier-api&payout=1.3,idfa_22E1945F-AFCF-47E6-A73E-9BC6E48615A8,ja
wYxlpktMQ7etxjQVIHEsAA,doglobal_api,921_1956137,Install,1.3,106.158.107.179,CB6C3178-FBAA-4680-8E9F-1C00704A4A69,1558407386,2019-05-21 10:56:26,1558407563,2019-05-21 10:59:23,1558407563,P_eabe5cd5517bc0f3-OTIxXy0xMzUzODk1NS0xMzAwLTE0MzAtMDUyMS0tMTk1NjEzNw,http://pb.xyz.duunion.com/conv?tid=P_eabe5cd5517bc0f3-OTIxXy0xMzUzODk1NS0xMzAwLTE0MzAtMDUyMS0tMTk1NjEzNw&adv_sectkn=55dea06a643eb8a2d267a735fe2683bd&adv_name=appier-api&payout=1.3,idfa_CB6C3178-FBAA-4680-8E9F-1C00704A4A69,ja
wYxlpktMQ7etxjQVIHEsAA,doglobal_api,921_1955385,Install,1.3,14.3.232.98,020B64CE-CC48-4273-9E3C-A4BBE4066837,1558408388,2019-05-21 11:13:08,1558408585,2019-05-21 11:16:25,1558408585,P_b8d45ecae5dd47cd-OTIxXy0xMzUzODk1NS0xMzAwLTE0MzAtMDUyMS0tMTk1NTM4NQ,http://pb.xyz.duunion.com/conv?tid=P_b8d45ecae5dd47cd-OTIxXy0xMzUzODk1NS0xMzAwLTE0MzAtMDUyMS0tMTk1NTM4NQ&adv_sectkn=55dea06a643eb8a2d267a735fe2683bd&adv_name=appier-api&payout=1.3,idfa_020B64CE-CC48-4273-9E3C-A4BBE4066837,ja
wYxlpktMQ7etxjQVIHEsAA,doglobal_api,921_1956137,Install,1.3,106.73.136.160,E967A0AD-08E1-4BC4-B282-30E8108730D5,1558408407,2019-05-21 11:13:27,1558408620,2019-05-21 11:17:00,1558408620,P_eca1e8c9f07b49bd-OTIxXy0xMzUzODk1NS0xMzAwLTE0MzAtMDUyMS0tMTk1NjEzNw,http://pb.xyz.duunion.com/conv?tid=P_eca1e8c9f07b49bd-OTIxXy0xMzUzODk1NS0xMzAwLTE0MzAtMDUyMS0tMTk1NjEzNw&adv_sectkn=55dea06a643eb8a2d267a735fe2683bd&adv_name=appier-api&payout=1.3,idfa_E967A0AD-08E1-4BC4-B282-30E8108730D5,ja
wYxlpktMQ7etxjQVIHEsAA,doglobal_api,921_1974314,Install,1.3,111.99.143.109,B189FEE0-F9D4-458D-93D9-6D50D1C58AF1,1558407447,2019-05-21 10:57:27,1558407651,2019-05-21 11:00:51,1558407651,P_caeeac08a9872d02-OTIxXy0xMzUzODk1NS0xMzAwLTE0MzAtMDUyMS0tMTk3NDMxNA,http://pb.xyz.duunion.com/conv?tid=P_caeeac08a9872d02-OTIxXy0xMzUzODk1NS0xMzAwLTE0MzAtMDUyMS0tMTk3NDMxNA&adv_sectkn=55dea06a643eb8a2d267a735fe2683bd&adv_name=appier-api&payout=1.3,idfa_B189FEE0-F9D4-458D-93D9-6D50D1C58AF1,ja
wYxlpktMQ7etxjQVIHEsAA,doglobal_api,921_1974325,Install,1.3,183.76.16.44,9FD8F6B6-A351-49A2-81CF-23EB978E7A2D,1558489764,2019-05-22 09:49:24,1558489930,2019-05-22 09:52:10,1558489930,P_6dbf8abed4797890-OTIxXy0xMzUzODk1NS0xMzAwLTE0MzAtMDUyMi0tMTk3NDMyNQ,http://pb.xyz.duunion.com/conv?tid=P_6dbf8abed4797890-OTIxXy0xMzUzODk1NS0xMzAwLTE0MzAtMDUyMi0tMTk3NDMyNQ&adv_sectkn=55dea06a643eb8a2d267a735fe2683bd&adv_name=appier-api&payout=1.3,idfa_9FD8F6B6-A351-49A2-81CF-23EB978E7A2D,ja
wYxlpktMQ7etxjQVIHEsAA,doglobal_api,921_1974722,Install,1.3,39.111.58.144,77F0265D-1657-4781-B9CD-1BDA9F97FF6B,1558408203,2019-05-21 11:10:03,1558408353,2019-05-21 11:12:33,1558408353,B_b6fb01144f8c69a5-OTIxXy0xMzUzODk1NS0xMzAwLTE0MzAtMDUyMS0tMTk3NDcyMg,http://pb.xyz.duunion.com/conv?tid=B_b6fb01144f8c69a5-OTIxXy0xMzUzODk1NS0xMzAwLTE0MzAtMDUyMS0tMTk3NDcyMg&adv_sectkn=55dea06a643eb8a2d267a735fe2683bd&adv_name=appier-api&payout=1.3,idfa_77F0265D-1657-4781-B9CD-1BDA9F97FF6B,ja
wYxlpktMQ7etxjQVIHEsAA,doglobal_api,921_1956045,Install,1.3,133.5.11.12,F4BF4F45-E459-4ACC-9F2A-B4A098BDC049,1558408435,2019-05-21 11:13:55,1558408630,2019-05-21 11:17:10,1558408630,B_e756b433b3b29ae3-OTIxXy0xMzUzODk1NS0xMzAwLTE0MzAtMDUyMS0tMTk1NjA0NQ,http://pb.xyz.duunion.com/conv?tid=B_e756b433b3b29ae3-OTIxXy0xMzUzODk1NS0xMzAwLTE0MzAtMDUyMS0tMTk1NjA0NQ&adv_sectkn=55dea06a643eb8a2d267a735fe2683bd&adv_name=appier-api&payout=1.3,idfa_F4BF4F45-E459-4ACC-9F2A-B4A098BDC049,ja
wYxlpktMQ7etxjQVIHEsAA,doglobal_api,921_1974351,Install,1.3,153.151.225.68,2AB8FB2C-D4DE-4C41-BDA9-98DCD443DC88,1558407710,2019-05-21 11:01:50,1558407891,2019-05-21 11:04:51,1558407891,P_093d059ecc410012-OTIxXy0xMzUzODk1NS0xMzAwLTE0MzAtMDUyMS0tMTk3NDM1MQ,http://pb.xyz.duunion.com/conv?tid=P_093d059ecc410012-OTIxXy0xMzUzODk1NS0xMzAwLTE0MzAtMDUyMS0tMTk3NDM1MQ&adv_sectkn=55dea06a643eb8a2d267a735fe2683bd&adv_name=appier-api&payout=1.3,idfa_2AB8FB2C-D4DE-4C41-BDA9-98DCD443DC88,ja
wYxlpktMQ7etxjQVIHEsAA,doglobal_api,921_1974716,Install,1.3,111.239.163.207,69C9EC9D-2002-4D1E-B0D0-40E72BFF42B6,1558408208,2019-05-21 11:10:08,1558408576,2019-05-21 11:16:16,1558408576,P_cbd86a08dcbbea33-OTIxXy0xMzUzODk1NS0xMzAwLTE0MzAtMDUyMS0tMTk3NDcxNg,http://pb.xyz.duunion.com/conv?tid=P_cbd86a08dcbbea33-OTIxXy0xMzUzODk1NS0xMzAwLTE0MzAtMDUyMS0tMTk3NDcxNg&adv_sectkn=55dea06a643eb8a2d267a735fe2683bd&adv_name=appier-api&payout=1.3,idfa_69C9EC9D-2002-4D1E-B0D0-40E72BFF42B6,ja
wYxlpktMQ7etxjQVIHEsAA,doglobal_api,921_1974314,Install,1.3,116.70.154.216,0B322BE6-495A-4173-9F22-9619320DC8B6,1558408202,2019-05-21 11:10:02,1558408696,2019-05-21 11:18:16,1558408696,P_ac6c20021bedc4d2-OTIxXy0xMzUzODk1NS0xMzAwLTE0MzAtMDUyMS0tMTk3NDMxNA,http://pb.xyz.duunion.com/conv?tid=P_ac6c20021bedc4d2-OTIxXy0xMzUzODk1NS0xMzAwLTE0MzAtMDUyMS0tMTk3NDMxNA&adv_sectkn=55dea06a643eb8a2d267a735fe2683bd&adv_name=appier-api&payout=1.3,idfa_0B322BE6-495A-4173-9F22-9619320DC8B6,ja
wYxlpktMQ7etxjQVIHEsAA,doglobal_api,921_1974325,Install,1.3,124.211.245.77,51EC1BA7-BA99-4857-8BD4-FD778350E94F,1558490504,2019-05-22 10:01:44,1558490663,2019-05-22 10:04:23,1558490663,B_800cc91499d0f859-OTIxXy0xMzUzODk1NS0xMzAwLTE0MzAtMDUyMi0tMTk3NDMyNQ,http://pb.xyz.duunion.com/conv?tid=B_800cc91499d0f859-OTIxXy0xMzUzODk1NS0xMzAwLTE0MzAtMDUyMi0tMTk3NDMyNQ&adv_sectkn=55dea06a643eb8a2d267a735fe2683bd&adv_name=appier-api&payout=1.3,idfa_51EC1BA7-BA99-4857-8BD4-FD778350E94F,ja
wYxlpktMQ7etxjQVIHEsAA,doglobal_api,921_1973980,Install,1.3,125.172.95.200,BE2F1A8C-1E85-43AC-A74D-BD5E7550B289,1558490269,2019-05-22 09:57:49,1558490427,2019-05-22 10:00:27,1558490427,P_254508e4a3fcd89a-OTIxXy0xMzUzODk1NS0xMzAwLTE0MzAtMDUyMi0tMTk3Mzk4MA,http://pb.xyz.duunion.com/conv?tid=P_254508e4a3fcd89a-OTIxXy0xMzUzODk1NS0xMzAwLTE0MzAtMDUyMi0tMTk3Mzk4MA&adv_sectkn=55dea06a643eb8a2d267a735fe2683bd&adv_name=appier-api&payout=1.3,idfa_BE2F1A8C-1E85-43AC-A74D-BD5E7550B289,ja
wYxlpktMQ7etxjQVIHEsAA,doglobal_api,921_1973979,Install,1.3,118.108.66.178,B095CD61-07AB-40EF-AC9B-FD4900BFE3D7,1558490235,2019-05-22 09:57:15,1558490337,2019-05-22 09:58:57,1558490337,B_5b3626565d48696d-OTIxXy0xMzUzODk1NS0xMzAwLTE0MzAtMDUyMi0tMTk3Mzk3OQ,http://pb.xyz.duunion.com/conv?tid=B_5b3626565d48696d-OTIxXy0xMzUzODk1NS0xMzAwLTE0MzAtMDUyMi0tMTk3Mzk3OQ&adv_sectkn=55dea06a643eb8a2d267a735fe2683bd&adv_name=appier-api&payout=1.3,idfa_B095CD61-07AB-40EF-AC9B-FD4900BFE3D7,ja
wYxlpktMQ7etxjQVIHEsAA,doglobal_api,921_1973979,Install,1.3,126.162.32.248,45CD061B-1FBE-4214-9990-2AA814F7588C,1558408139,2019-05-21 11:08:59,1558408340,2019-05-21 11:12:20,1558408340,B_a94e1f088f91342b-OTIxXy0xMzUzODk1NS0xMzAwLTE0MzAtMDUyMS0tMTk3Mzk3OQ,http://pb.xyz.duunion.com/conv?tid=B_a94e1f088f91342b-OTIxXy0xMzUzODk1NS0xMzAwLTE0MzAtMDUyMS0tMTk3Mzk3OQ&adv_sectkn=55dea06a643eb8a2d267a735fe2683bd&adv_name=appier-api&payout=1.3,idfa_45CD061B-1FBE-4214-9990-2AA814F7588C,ja
wYxlpktMQ7etxjQVIHEsAA,doglobal_api,921_1973979,Install,1.3,27.127.121.78,71EC1234-7CF0-43E7-A481-78D2658073B4,1558408208,2019-05-21 11:10:08,1558408755,2019-05-21 11:19:15,1558408755,B_f0141166832c9a2a-OTIxXy0xMzUzODk1NS0xMzAwLTE0MzAtMDUyMS0tMTk3Mzk3OQ,http://pb.xyz.duunion.com/conv?tid=B_f0141166832c9a2a-OTIxXy0xMzUzODk1NS0xMzAwLTE0MzAtMDUyMS0tMTk3Mzk3OQ&adv_sectkn=55dea06a643eb8a2d267a735fe2683bd&adv_name=appier-api&payout=1.3,idfa_71EC1234-7CF0-43E7-A481-78D2658073B4,ja
wYxlpktMQ7etxjQVIHEsAA,doglobal_api,921_1977850,Install,1.3,202.215.236.129,17A73121-6D08-4596-B664-643116987EFF,1558489728,2019-05-22 09:48:48,1558489972,2019-05-22 09:52:52,1558489972,P_6ccb072ac4070a83-OTIxXy0xMzUzODk1NS0xMzAwLTE0MzAtMDUyMi0tMTk3Nzg1MA,http://pb.xyz.duunion.com/conv?tid=P_6ccb072ac4070a83-OTIxXy0xMzUzODk1NS0xMzAwLTE0MzAtMDUyMi0tMTk3Nzg1MA&adv_sectkn=55dea06a643eb8a2d267a735fe2683bd&adv_name=appier-api&payout=1.3,idfa_17A73121-6D08-4596-B664-643116987EFF,ja
wYxlpktMQ7etxjQVIHEsAA,doglobal_api,921_1955154,Install,1.3,119.230.11.222,8C1C95F0-A78A-41F2-948A-D5DE7F96EE8D,1558408745,2019-05-21 11:19:05,1558408907,2019-05-21 11:21:47,1558408907,P_f182ccf173ef62d8-OTIxXy0xMzUzODk1NS0xMzAwLTE0MzAtMDUyMS0tMTk1NTE1NA,http://pb.xyz.duunion.com/conv?tid=P_f182ccf173ef62d8-OTIxXy0xMzUzODk1NS0xMzAwLTE0MzAtMDUyMS0tMTk1NTE1NA&adv_sectkn=55dea06a643eb8a2d267a735fe2683bd&adv_name=appier-api&payout=1.3,idfa_8C1C95F0-A78A-41F2-948A-D5DE7F96EE8D,ja
wYxlpktMQ7etxjQVIHEsAA,doglobal_api,921_1956137,Install,1.3,118.108.49.227,774B0160-CED7-4836-BAAE-926EBD7FE0CB,1558408442,2019-05-21 11:14:02,1558408629,2019-05-21 11:17:09,1558408629,B_4917fdc568fd1f9e-OTIxXy0xMzUzODk1NS0xMzAwLTE0MzAtMDUyMS0tMTk1NjEzNw,http://pb.xyz.duunion.com/conv?tid=B_4917fdc568fd1f9e-OTIxXy0xMzUzODk1NS0xMzAwLTE0MzAtMDUyMS0tMTk1NjEzNw&adv_sectkn=55dea06a643eb8a2d267a735fe2683bd&adv_name=appier-api&payout=1.3,idfa_774B0160-CED7-4836-BAAE-926EBD7FE0CB,ja
wYxlpktMQ7etxjQVIHEsAA,doglobal_api,921_1974314,Install,1.3,115.162.40.162,218697E9-FBA5-48EA-818A-35F35F9D8CA4,1558408200,2019-05-21 11:10:00,1558408726,2019-05-21 11:18:46,1558408726,P_51c6d33ca731ab5a-OTIxXy0xMzUzODk1NS0xMzAwLTE0MzAtMDUyMS0tMTk3NDMxNA,http://pb.xyz.duunion.com/conv?tid=P_51c6d33ca731ab5a-OTIxXy0xMzUzODk1NS0xMzAwLTE0MzAtMDUyMS0tMTk3NDMxNA&adv_sectkn=55dea06a643eb8a2d267a735fe2683bd&adv_name=appier-api&payout=1.3,idfa_218697E9-FBA5-48EA-818A-35F35F9D8CA4,ja
wYxlpktMQ7etxjQVIHEsAA,doglobal_api,921_1955129,Install,1.3,153.156.252.106,57FE74F3-3982-4CF6-BFB2-F3231467AF86,1558407295,2019-05-21 10:54:55,1558407447,2019-05-21 10:57:27,1558407447,P_4be767b153316aed-OTIxXy0xMzUzODk1NS0xMzAwLTE0MzAtMDUyMS0tMTk1NTEyOQ,http://pb.xyz.duunion.com/conv?tid=P_4be767b153316aed-OTIxXy0xMzUzODk1NS0xMzAwLTE0MzAtMDUyMS0tMTk1NTEyOQ&adv_sectkn=55dea06a643eb8a2d267a735fe2683bd&adv_name=appier-api&payout=1.3,idfa_57FE74F3-3982-4CF6-BFB2-F3231467AF86,ja
wYxlpktMQ7etxjQVIHEsAA,doglobal_api,921_1973979,Install,1.3,219.204.102.82,DA6C3185-B4A6-489D-B4EE-9E773B729E7A,1558489713,2019-05-22 09:48:33,1558489864,2019-05-22 09:51:04,1558489864,B_41a4ae7d0fd9a763-OTIxXy0xMzUzODk1NS0xMzAwLTE0MzAtMDUyMi0tMTk3Mzk3OQ,http://pb.xyz.duunion.com/conv?tid=B_41a4ae7d0fd9a763-OTIxXy0xMzUzODk1NS0xMzAwLTE0MzAtMDUyMi0tMTk3Mzk3OQ&adv_sectkn=55dea06a643eb8a2d267a735fe2683bd&adv_name=appier-api&payout=1.3,idfa_DA6C3185-B4A6-489D-B4EE-9E773B729E7A,ja
wYxlpktMQ7etxjQVIHEsAA,doglobal_api,921_1956137,Install,1.3,183.77.249.226,BB31C099-155D-4E5E-8435-A722E6DBB05C,1558407379,2019-05-21 10:56:19,1558407562,2019-05-21 10:59:22,1558407562,B_30d5e8c1b54abb31-OTIxXy0xMzUzODk1NS0xMzAwLTE0MzAtMDUyMS0tMTk1NjEzNw,http://pb.xyz.duunion.com/conv?tid=B_30d5e8c1b54abb31-OTIxXy0xMzUzODk1NS0xMzAwLTE0MzAtMDUyMS0tMTk1NjEzNw&adv_sectkn=55dea06a643eb8a2d267a735fe2683bd&adv_name=appier-api&payout=1.3,idfa_BB31C099-155D-4E5E-8435-A722E6DBB05C,ja
wYxlpktMQ7etxjQVIHEsAA,doglobal_api,921_1974747,Install,1.3,60.124.86.158,CCABB488-97C6-40C1-BC66-23EA54166E50,1558490222,2019-05-22 09:57:02,1558490365,2019-05-22 09:59:25,1558490365,B_1a6ee9a81dfbc360-OTIxXy0xMzUzODk1NS0xMzAwLTE0MzAtMDUyMi0tMTk3NDc0Nw,http://pb.xyz.duunion.com/conv?tid=B_1a6ee9a81dfbc360-OTIxXy0xMzUzODk1NS0xMzAwLTE0MzAtMDUyMi0tMTk3NDc0Nw&adv_sectkn=55dea06a643eb8a2d267a735fe2683bd&adv_name=appier-api&payout=1.3,idfa_CCABB488-97C6-40C1-BC66-23EA54166E50,ja
wYxlpktMQ7etxjQVIHEsAA,doglobal_api,921_1974747,Install,1.3,123.48.118.27,2E7A40E7-262D-4F9D-B7FD-62DFD45F7291,1558489720,2019-05-22 09:48:40,1558489885,2019-05-22 09:51:25,1558489885,P_2ed36fbf40b4c08e-OTIxXy0xMzUzODk1NS0xMzAwLTE0MzAtMDUyMi0tMTk3NDc0Nw,http://pb.xyz.duunion.com/conv?tid=P_2ed36fbf40b4c08e-OTIxXy0xMzUzODk1NS0xMzAwLTE0MzAtMDUyMi0tMTk3NDc0Nw&adv_sectkn=55dea06a643eb8a2d267a735fe2683bd&adv_name=appier-api&payout=1.3,idfa_2E7A40E7-262D-4F9D-B7FD-62DFD45F7291,ja
