cid,partner_id,channel_id,action_id,cpi,ip,idfa,click time,click datetime,install time,install datetime,postback time,click id,postback url,unique user id
LjzTthiSQRSnMDwvZeO_HQ,doglobal_api,784_4957,install,2.5,1.64.58.40,EB9F03C8-2979-4429-BCFF-8415753801B9,1556787110,2019-05-02 16:51:50,1556787203,2019-05-02 16:53:23,1556787233,B_3c978b0e510c21dd-Nzg0Xy0xMjUzNTI1My0yNTAwLTI1MDAtMDUwMi0tNDk1Nw,http://pb.xyz.duunion.com/conv?tid=B_3c978b0e510c21dd-Nzg0Xy0xMjUzNTI1My0yNTAwLTI1MDAtMDUwMi0tNDk1Nw&adv_sectkn=55dea06a643eb8a2d267a735fe2683bd&adv_name=appier-api&payout=2.5,idfa_EB9F03C8-2979-4429-BCFF-8415753801B9,en
LjzTthiSQRSnMDwvZeO_HQ,doglobal_api,784_4957,install,2.5,223.197.167.43,D5DC71BB-9FE1-4E72-9E29-D961B63F1B3A,1556790605,2019-05-02 17:50:05,1556790702,2019-05-02 17:51:42,1556790732,P_c99132a39d112c5b-Nzg0Xy0xMjUzNTI1My0yNTAwLTI1MDAtMDUwMi0tNDk1Nw,http://pb.xyz.duunion.com/conv?tid=P_c99132a39d112c5b-Nzg0Xy0xMjUzNTI1My0yNTAwLTI1MDAtMDUwMi0tNDk1Nw&adv_sectkn=55dea06a643eb8a2d267a735fe2683bd&adv_name=appier-api&payout=2.5,idfa_D5DC71BB-9FE1-4E72-9E29-D961B63F1B3A,en
LjzTthiSQRSnMDwvZeO_HQ,doglobal_api,784_4957,install,2.5,218.255.108.202,5017314F-5043-493C-B418-10CFA1A22561,1556789547,2019-05-02 17:32:27,1556789641,2019-05-02 17:34:01,1556789671,P_12f08c5f295b6746-Nzg0Xy0xMjUzNTI1My0yNTAwLTI1MDAtMDUwMi0tNDk1Nw,http://pb.xyz.duunion.com/conv?tid=P_12f08c5f295b6746-Nzg0Xy0xMjUzNTI1My0yNTAwLTI1MDAtMDUwMi0tNDk1Nw&adv_sectkn=55dea06a643eb8a2d267a735fe2683bd&adv_name=appier-api&payout=2.5,idfa_5017314F-5043-493C-B418-10CFA1A22561,en
LjzTthiSQRSnMDwvZeO_HQ,doglobal_api,784_4957,install,2.5,203.198.150.167,77B2F118-8C0B-4BC5-83D4-8DA512389C3C,1556781616,2019-05-02 15:20:16,1556781712,2019-05-02 15:21:52,1556781742,P_ea9e9f63a264768f-Nzg0Xy0xMjUzNTI1My0yNTAwLTI1MDAtMDUwMi0tNDk1Nw,http://pb.xyz.duunion.com/conv?tid=P_ea9e9f63a264768f-Nzg0Xy0xMjUzNTI1My0yNTAwLTI1MDAtMDUwMi0tNDk1Nw&adv_sectkn=55dea06a643eb8a2d267a735fe2683bd&adv_name=appier-api&payout=2.5,idfa_77B2F118-8C0B-4BC5-83D4-8DA512389C3C,en
LjzTthiSQRSnMDwvZeO_HQ,doglobal_api,784_4957,install,2.5,58.152.59.95,4C8812B1-345B-4EB2-B411-4D9A1DD8F9DF,1556788205,2019-05-02 17:10:05,1556788300,2019-05-02 17:11:40,1556788330,P_a85c3413859bc0bd-Nzg0Xy0xMjUzNTI1My0yNTAwLTI1MDAtMDUwMi0tNDk1Nw,http://pb.xyz.duunion.com/conv?tid=P_a85c3413859bc0bd-Nzg0Xy0xMjUzNTI1My0yNTAwLTI1MDAtMDUwMi0tNDk1Nw&adv_sectkn=55dea06a643eb8a2d267a735fe2683bd&adv_name=appier-api&payout=2.5,idfa_4C8812B1-345B-4EB2-B411-4D9A1DD8F9DF,en
LjzTthiSQRSnMDwvZeO_HQ,doglobal_api,784_4957,install,2.5,223.18.103.72,B21C2C2E-9AB2-4878-944D-DB9999B89CFF,1556784832,2019-05-02 16:13:52,1556784927,2019-05-02 16:15:27,1556784957,P_10a96906cf317d42-Nzg0Xy0xMjUzNTI1My0yNTAwLTI1MDAtMDUwMi0tNDk1Nw,http://pb.xyz.duunion.com/conv?tid=P_10a96906cf317d42-Nzg0Xy0xMjUzNTI1My0yNTAwLTI1MDAtMDUwMi0tNDk1Nw&adv_sectkn=55dea06a643eb8a2d267a735fe2683bd&adv_name=appier-api&payout=2.5,idfa_B21C2C2E-9AB2-4878-944D-DB9999B89CFF,en
LjzTthiSQRSnMDwvZeO_HQ,doglobal_api,784_4957,install,2.5,1.64.58.40,B6E11622-9FA0-4863-B84A-9B0A79D2E377,1556786336,2019-05-02 16:38:56,1556786430,2019-05-02 16:40:30,1556786461,B_123db0a68c1bc643-Nzg0Xy0xMjUzNTI1My0yNTAwLTI1MDAtMDUwMi0tNDk1Nw,http://pb.xyz.duunion.com/conv?tid=B_123db0a68c1bc643-Nzg0Xy0xMjUzNTI1My0yNTAwLTI1MDAtMDUwMi0tNDk1Nw&adv_sectkn=55dea06a643eb8a2d267a735fe2683bd&adv_name=appier-api&payout=2.5,idfa_B6E11622-9FA0-4863-B84A-9B0A79D2E377,en
LjzTthiSQRSnMDwvZeO_HQ,doglobal_api,784_4957,install,2.5,112.119.209.81,24A2AFE4-FA3C-4EDE-BDC4-F06EA1796262,1556783915,2019-05-02 15:58:35,1556784009,2019-05-02 16:00:09,1556784040,P_f2fe8650b34a0452-Nzg0Xy0xMjUzNTI1My0yNTAwLTI1MDAtMDUwMi0tNDk1Nw,http://pb.xyz.duunion.com/conv?tid=P_f2fe8650b34a0452-Nzg0Xy0xMjUzNTI1My0yNTAwLTI1MDAtMDUwMi0tNDk1Nw&adv_sectkn=55dea06a643eb8a2d267a735fe2683bd&adv_name=appier-api&payout=2.5,idfa_24A2AFE4-FA3C-4EDE-BDC4-F06EA1796262,en
LjzTthiSQRSnMDwvZeO_HQ,doglobal_api,784_4957,install,2.5,42.200.234.95,CD0CAD62-59F0-43DE-9F29-EA5055CD125D,1556781119,2019-05-02 15:11:59,1556781211,2019-05-02 15:13:31,1556781241,B_54639c54947ca2b4-Nzg0Xy0xMjUzNTI1My0yNTAwLTI1MDAtMDUwMi0tNDk1Nw,http://pb.xyz.duunion.com/conv?tid=B_54639c54947ca2b4-Nzg0Xy0xMjUzNTI1My0yNTAwLTI1MDAtMDUwMi0tNDk1Nw&adv_sectkn=55dea06a643eb8a2d267a735fe2683bd&adv_name=appier-api&payout=2.5,idfa_CD0CAD62-59F0-43DE-9F29-EA5055CD125D,en
LjzTthiSQRSnMDwvZeO_HQ,doglobal_api,784_4957,install,2.5,210.176.61.250,82C7CC7C-BADA-441D-8C3D-4E88AA2242D6,1556780262,2019-05-02 14:57:42,1556780356,2019-05-02 14:59:16,1556780386,P_e7c4555502c8b025-Nzg0Xy0xMjUzNTI1My0yNTAwLTI1MDAtMDUwMi0tNDk1Nw,http://pb.xyz.duunion.com/conv?tid=P_e7c4555502c8b025-Nzg0Xy0xMjUzNTI1My0yNTAwLTI1MDAtMDUwMi0tNDk1Nw&adv_sectkn=55dea06a643eb8a2d267a735fe2683bd&adv_name=appier-api&payout=2.5,idfa_82C7CC7C-BADA-441D-8C3D-4E88AA2242D6,en
LjzTthiSQRSnMDwvZeO_HQ,doglobal_api,784_4957,install,2.5,175.45.35.182,DB0F8409-D9A3-475F-BDFE-45FF6CE4D778,1556788593,2019-05-02 17:16:33,1556788689,2019-05-02 17:18:09,1556788719,B_52117c62154a1905-Nzg0Xy0xMjUzNTI1My0yNTAwLTI1MDAtMDUwMi0tNDk1Nw,http://pb.xyz.duunion.com/conv?tid=B_52117c62154a1905-Nzg0Xy0xMjUzNTI1My0yNTAwLTI1MDAtMDUwMi0tNDk1Nw&adv_sectkn=55dea06a643eb8a2d267a735fe2683bd&adv_name=appier-api&payout=2.5,idfa_DB0F8409-D9A3-475F-BDFE-45FF6CE4D778,en
LjzTthiSQRSnMDwvZeO_HQ,doglobal_api,784_4957,install,2.5,115.160.132.84,F1C856FD-7008-4AB6-990D-ACA76F0038F5,1556780658,2019-05-02 15:04:18,1556780754,2019-05-02 15:05:54,1556780784,P_8b3578386644c93a-Nzg0Xy0xMjUzNTI1My0yNTAwLTI1MDAtMDUwMi0tNDk1Nw,http://pb.xyz.duunion.com/conv?tid=P_8b3578386644c93a-Nzg0Xy0xMjUzNTI1My0yNTAwLTI1MDAtMDUwMi0tNDk1Nw&adv_sectkn=55dea06a643eb8a2d267a735fe2683bd&adv_name=appier-api&payout=2.5,idfa_F1C856FD-7008-4AB6-990D-ACA76F0038F5,en
LjzTthiSQRSnMDwvZeO_HQ,doglobal_api,784_4957,install,2.5,223.197.202.104,F59CA900-BF38-4C71-B831-95095E8AE8E1,1556790154,2019-05-02 17:42:34,1556790248,2019-05-02 17:44:08,1556790278,B_4a7799b120286ec4-Nzg0Xy0xMjUzNTI1My0yNTAwLTI1MDAtMDUwMi0tNDk1Nw,http://pb.xyz.duunion.com/conv?tid=B_4a7799b120286ec4-Nzg0Xy0xMjUzNTI1My0yNTAwLTI1MDAtMDUwMi0tNDk1Nw&adv_sectkn=55dea06a643eb8a2d267a735fe2683bd&adv_name=appier-api&payout=2.5,idfa_F59CA900-BF38-4C71-B831-95095E8AE8E1,en
LjzTthiSQRSnMDwvZeO_HQ,doglobal_api,784_4957,install,2.5,223.197.223.29,FD1758D4-C054-4B78-8B60-6BF0B3016616,1556787539,2019-05-02 16:58:59,1556787635,2019-05-02 17:00:35,1556787665,P_de8eca00d4b2f87b-Nzg0Xy0xMjUzNTI1My0yNTAwLTI1MDAtMDUwMi0tNDk1Nw,http://pb.xyz.duunion.com/conv?tid=P_de8eca00d4b2f87b-Nzg0Xy0xMjUzNTI1My0yNTAwLTI1MDAtMDUwMi0tNDk1Nw&adv_sectkn=55dea06a643eb8a2d267a735fe2683bd&adv_name=appier-api&payout=2.5,idfa_FD1758D4-C054-4B78-8B60-6BF0B3016616,en
LjzTthiSQRSnMDwvZeO_HQ,doglobal_api,784_4957,install,2.5,113.28.9.22,40681007-9FAA-4DA0-96E3-467622120242,1556779251,2019-05-02 14:40:51,1556779348,2019-05-02 14:42:28,1556779378,B_c62b437cadda790b-Nzg0Xy0xMjUzNTI1My0yNTAwLTI1MDAtMDUwMi0tNDk1Nw,http://pb.xyz.duunion.com/conv?tid=B_c62b437cadda790b-Nzg0Xy0xMjUzNTI1My0yNTAwLTI1MDAtMDUwMi0tNDk1Nw&adv_sectkn=55dea06a643eb8a2d267a735fe2683bd&adv_name=appier-api&payout=2.5,idfa_40681007-9FAA-4DA0-96E3-467622120242,en
LjzTthiSQRSnMDwvZeO_HQ,doglobal_api,784_4957,install,2.5,223.197.250.232,FF353631-3FBA-4682-AE26-E7430F3B5942,1556782899,2019-05-02 15:41:39,1556782995,2019-05-02 15:43:15,1556783025,P_3e4466399ba86cbf-Nzg0Xy0xMjUzNTI1My0yNTAwLTI1MDAtMDUwMi0tNDk1Nw,http://pb.xyz.duunion.com/conv?tid=P_3e4466399ba86cbf-Nzg0Xy0xMjUzNTI1My0yNTAwLTI1MDAtMDUwMi0tNDk1Nw&adv_sectkn=55dea06a643eb8a2d267a735fe2683bd&adv_name=appier-api&payout=2.5,idfa_FF353631-3FBA-4682-AE26-E7430F3B5942,en
LjzTthiSQRSnMDwvZeO_HQ,doglobal_api,784_4957,install,2.5,182.239.58.166,3C066DFD-6BCE-4C59-9B4C-640041CA78FC,1556785309,2019-05-02 16:21:49,1556785404,2019-05-02 16:23:24,1556785435,B_d0767b5cfa3c7c72-Nzg0Xy0xMjUzNTI1My0yNTAwLTI1MDAtMDUwMi0tNDk1Nw,http://pb.xyz.duunion.com/conv?tid=B_d0767b5cfa3c7c72-Nzg0Xy0xMjUzNTI1My0yNTAwLTI1MDAtMDUwMi0tNDk1Nw&adv_sectkn=55dea06a643eb8a2d267a735fe2683bd&adv_name=appier-api&payout=2.5,idfa_3C066DFD-6BCE-4C59-9B4C-640041CA78FC,en
LjzTthiSQRSnMDwvZeO_HQ,doglobal_api,784_4957,install,2.5,42.200.215.124,1043CC2A-B242-434B-AA57-8A9606BFCCBE,1556786728,2019-05-02 16:45:28,1556786823,2019-05-02 16:47:03,1556786853,P_e5efabc25f3968c7-Nzg0Xy0xMjUzNTI1My0yNTAwLTI1MDAtMDUwMi0tNDk1Nw,http://pb.xyz.duunion.com/conv?tid=P_e5efabc25f3968c7-Nzg0Xy0xMjUzNTI1My0yNTAwLTI1MDAtMDUwMi0tNDk1Nw&adv_sectkn=55dea06a643eb8a2d267a735fe2683bd&adv_name=appier-api&payout=2.5,idfa_1043CC2A-B242-434B-AA57-8A9606BFCCBE,en
LjzTthiSQRSnMDwvZeO_HQ,doglobal_api,784_4957,install,2.5,223.19.190.14,DA0D8879-54DC-4A9D-9C1C-097E528D96BE,1556779875,2019-05-02 14:51:15,1556779970,2019-05-02 14:52:50,1556780000,P_af8743aadda7856e-Nzg0Xy0xMjUzNTI1My0yNTAwLTI1MDAtMDUwMi0tNDk1Nw,http://pb.xyz.duunion.com/conv?tid=P_af8743aadda7856e-Nzg0Xy0xMjUzNTI1My0yNTAwLTI1MDAtMDUwMi0tNDk1Nw&adv_sectkn=55dea06a643eb8a2d267a735fe2683bd&adv_name=appier-api&payout=2.5,idfa_DA0D8879-54DC-4A9D-9C1C-097E528D96BE,en
LjzTthiSQRSnMDwvZeO_HQ,doglobal_api,784_4957,install,2.5,203.198.148.196,C6E68F34-9D72-4125-B781-F19908A285DC,1556783327,2019-05-02 15:48:47,1556783423,2019-05-02 15:50:23,1556783453,B_7bb4dd39a9f84cef-Nzg0Xy0xMjUzNTI1My0yNTAwLTI1MDAtMDUwMi0tNDk1Nw,http://pb.xyz.duunion.com/conv?tid=B_7bb4dd39a9f84cef-Nzg0Xy0xMjUzNTI1My0yNTAwLTI1MDAtMDUwMi0tNDk1Nw&adv_sectkn=55dea06a643eb8a2d267a735fe2683bd&adv_name=appier-api&payout=2.5,idfa_C6E68F34-9D72-4125-B781-F19908A285DC,en
LjzTthiSQRSnMDwvZeO_HQ,doglobal_api,784_4957,install,2.5,116.48.159.160,073D50FB-4C55-4FCB-93C9-7D1FECA97366,1556785907,2019-05-02 16:31:47,1556786001,2019-05-02 16:33:21,1556786032,B_48f7999eaa6c891e-Nzg0Xy0xMjUzNTI1My0yNTAwLTI1MDAtMDUwMi0tNDk1Nw,http://pb.xyz.duunion.com/conv?tid=B_48f7999eaa6c891e-Nzg0Xy0xMjUzNTI1My0yNTAwLTI1MDAtMDUwMi0tNDk1Nw&adv_sectkn=55dea06a643eb8a2d267a735fe2683bd&adv_name=appier-api&payout=2.5,idfa_073D50FB-4C55-4FCB-93C9-7D1FECA97366,en
LjzTthiSQRSnMDwvZeO_HQ,doglobal_api,784_4957,install,2.5,223.197.148.192,9FB81A09-8608-4A26-A3D1-D98B9B142280,1556784381,2019-05-02 16:06:21,1556784494,2019-05-02 16:08:14,1556784524,P_c6ce01c3490c4eff-Nzg0Xy0xMjUzNTI1My0yNTAwLTI1MDAtMDUwMi0tNDk1Nw,http://pb.xyz.duunion.com/conv?tid=P_c6ce01c3490c4eff-Nzg0Xy0xMjUzNTI1My0yNTAwLTI1MDAtMDUwMi0tNDk1Nw&adv_sectkn=55dea06a643eb8a2d267a735fe2683bd&adv_name=appier-api&payout=2.5,idfa_9FB81A09-8608-4A26-A3D1-D98B9B142280,en
