cid,partner_id,channel_id,action_id,cpi,ip,idfa,click time,click datetime,install time,install datetime,postback time,click id,postback url,unique user id
LY8Fleh_QLyD3xARs14c_Q,doglobal_api,772_29443104,Install,1.4,133.175.10.30,42DC4EB4-4761-4C15-9A01-5D7D5AE3395A,1557894736,2019-05-15 12:32:16,1557894880,2019-05-15 12:34:40,1557894911,P_bb88e277158ffd3d-NzcyXy0xMjM5NTc0Ny0xNDAwLTEyNjAtMDUxNS0tMjk0NDMxMDQ,http://pb.xyz.duunion.com/conv?tid=P_bb88e277158ffd3d-NzcyXy0xMjM5NTc0Ny0xNDAwLTEyNjAtMDUxNS0tMjk0NDMxMDQ&adv_sectkn=55dea06a643eb8a2d267a735fe2683bd&adv_name=appier-api&payout=1.4,idfa_42DC4EB4-4761-4C15-9A01-5D7D5AE3395A,ja-JP
LY8Fleh_QLyD3xARs14c_Q,doglobal_api,772_29443104,Install,1.4,157.107.72.215,C58303E0-7BB8-43FF-BA88-84DABBE02D87,1558319098,2019-05-20 10:24:58,1558319224,2019-05-20 10:27:04,1558319258,P_939be18c755b9b52-NzcyXy0xMjM5NTc0Ny0xNDAwLTEyNjAtMDUyMC0tMjk0NDMxMDQ,http://pb.xyz.duunion.com/conv?tid=P_939be18c755b9b52-NzcyXy0xMjM5NTc0Ny0xNDAwLTEyNjAtMDUyMC0tMjk0NDMxMDQ&adv_sectkn=55dea06a643eb8a2d267a735fe2683bd&adv_name=appier-api&payout=1.4,idfa_C58303E0-7BB8-43FF-BA88-84DABBE02D87,ja-JP
LY8Fleh_QLyD3xARs14c_Q,doglobal_api,772_29443104,Install,1.4,116.65.21.116,C912A10A-21FD-4FEC-9358-83B9B68309D7,1558331676,2019-05-20 13:54:36,1558331820,2019-05-20 13:57:00,1558331851,P_369d12b2b646272b-NzcyXy0xMjM5NTc0Ny0xNDAwLTEyNjAtMDUyMC0tMjk0NDMxMDQ,http://pb.xyz.duunion.com/conv?tid=P_369d12b2b646272b-NzcyXy0xMjM5NTc0Ny0xNDAwLTEyNjAtMDUyMC0tMjk0NDMxMDQ&adv_sectkn=55dea06a643eb8a2d267a735fe2683bd&adv_name=appier-api&payout=1.4,idfa_C912A10A-21FD-4FEC-9358-83B9B68309D7,ja-JP
LY8Fleh_QLyD3xARs14c_Q,doglobal_api,772_29443104,Install,1.4,60.90.23.79,D3DC2E32-C832-4629-A03E-82423A31AD59,1557894739,2019-05-15 12:32:19,1557894883,2019-05-15 12:34:43,1557894918,B_d21b47462017e593-NzcyXy0xMjM5NTc0Ny0xNDAwLTEyNjAtMDUxNS0tMjk0NDMxMDQ,http://pb.xyz.duunion.com/conv?tid=B_d21b47462017e593-NzcyXy0xMjM5NTc0Ny0xNDAwLTEyNjAtMDUxNS0tMjk0NDMxMDQ&adv_sectkn=55dea06a643eb8a2d267a735fe2683bd&adv_name=appier-api&payout=1.4,idfa_D3DC2E32-C832-4629-A03E-82423A31AD59,ja-JP
LY8Fleh_QLyD3xARs14c_Q,doglobal_api,772_29443104,Install,1.4,119.170.46.184,FCDF8B54-2E31-4862-AE76-B40A9396CA14,1557894627,2019-05-15 12:30:27,1557894758,2019-05-15 12:32:38,1557894791,P_1a716729e3d5f6a3-NzcyXy0xMjM5NTc0Ny0xNDAwLTEyNjAtMDUxNS0tMjk0NDMxMDQ,http://pb.xyz.duunion.com/conv?tid=P_1a716729e3d5f6a3-NzcyXy0xMjM5NTc0Ny0xNDAwLTEyNjAtMDUxNS0tMjk0NDMxMDQ&adv_sectkn=55dea06a643eb8a2d267a735fe2683bd&adv_name=appier-api&payout=1.4,idfa_FCDF8B54-2E31-4862-AE76-B40A9396CA14,ja-JP
LY8Fleh_QLyD3xARs14c_Q,doglobal_api,772_29443104,Install,1.4,153.232.231.95,C4BB3947-9AE0-48CC-8790-5B8558698F2F,1558459065,2019-05-22 01:17:45,1558459205,2019-05-22 01:20:05,1558459235,P_f2bf8134753585f6-NzcyXy0xMjM5NTc0Ny0xNDAwLTEyNjAtMDUyMi0tMjk0NDMxMDQ,http://pb.xyz.duunion.com/conv?tid=P_f2bf8134753585f6-NzcyXy0xMjM5NTc0Ny0xNDAwLTEyNjAtMDUyMi0tMjk0NDMxMDQ&adv_sectkn=55dea06a643eb8a2d267a735fe2683bd&adv_name=appier-api&payout=1.4,idfa_C4BB3947-9AE0-48CC-8790-5B8558698F2F,ja-JP
LY8Fleh_QLyD3xARs14c_Q,doglobal_api,772_29443104,Install,1.4,59.168.87.166,86E27832-0393-49CF-9CF1-E98AEC4BFFFA,1558410443,2019-05-21 11:47:23,1558410567,2019-05-21 11:49:27,1558410598,B_e4bf6d0c67466880-NzcyXy0xMjM5NTc0Ny0xNDAwLTEyNjAtMDUyMS0tMjk0NDMxMDQ,http://pb.xyz.duunion.com/conv?tid=B_e4bf6d0c67466880-NzcyXy0xMjM5NTc0Ny0xNDAwLTEyNjAtMDUyMS0tMjk0NDMxMDQ&adv_sectkn=55dea06a643eb8a2d267a735fe2683bd&adv_name=appier-api&payout=1.4,idfa_86E27832-0393-49CF-9CF1-E98AEC4BFFFA,ja-JP
LY8Fleh_QLyD3xARs14c_Q,doglobal_api,772_29443104,Install,1.4,153.212.121.232,FB3EEB3D-FC91-4318-8ACC-C417B0C86B08,1558332620,2019-05-20 14:10:20,1558332780,2019-05-20 14:13:00,1558332812,P_bd39f05b210829d0-NzcyXy0xMjM5NTc0Ny0xNDAwLTEyNjAtMDUyMC0tMjk0NDMxMDQ,http://pb.xyz.duunion.com/conv?tid=P_bd39f05b210829d0-NzcyXy0xMjM5NTc0Ny0xNDAwLTEyNjAtMDUyMC0tMjk0NDMxMDQ&adv_sectkn=55dea06a643eb8a2d267a735fe2683bd&adv_name=appier-api&payout=1.4,idfa_FB3EEB3D-FC91-4318-8ACC-C417B0C86B08,ja-JP
LY8Fleh_QLyD3xARs14c_Q,doglobal_api,772_29443104,Install,1.4,211.132.155.70,93CAA7DF-C2CA-4B9F-B815-D0FF0422D0CC,1558458617,2019-05-22 01:10:17,1558458830,2019-05-22 01:13:50,1558458860,B_b43b17f11fc2be85-NzcyXy0xMjM5NTc0Ny0xNDAwLTEyNjAtMDUyMi0tMjk0NDMxMDQ,http://pb.xyz.duunion.com/conv?tid=B_b43b17f11fc2be85-NzcyXy0xMjM5NTc0Ny0xNDAwLTEyNjAtMDUyMi0tMjk0NDMxMDQ&adv_sectkn=55dea06a643eb8a2d267a735fe2683bd&adv_name=appier-api&payout=1.4,idfa_93CAA7DF-C2CA-4B9F-B815-D0FF0422D0CC,ja-JP
LY8Fleh_QLyD3xARs14c_Q,doglobal_api,772_29443104,Install,1.4,153.175.67.233,03267F86-5526-40DD-8B85-5511E069CFC8,1557894807,2019-05-15 12:33:27,1557894933,2019-05-15 12:35:33,1557894964,P_a96767e3aa0f3496-NzcyXy0xMjM5NTc0Ny0xNDAwLTEyNjAtMDUxNS0tMjk0NDMxMDQ,http://pb.xyz.duunion.com/conv?tid=P_a96767e3aa0f3496-NzcyXy0xMjM5NTc0Ny0xNDAwLTEyNjAtMDUxNS0tMjk0NDMxMDQ&adv_sectkn=55dea06a643eb8a2d267a735fe2683bd&adv_name=appier-api&payout=1.4,idfa_03267F86-5526-40DD-8B85-5511E069CFC8,ja-JP
LY8Fleh_QLyD3xARs14c_Q,doglobal_api,772_29443104,Install,1.4,60.104.17.57,7075AB4C-E108-42B4-91C0-67475BF5C13A,1557894848,2019-05-15 12:34:08,1557894983,2019-05-15 12:36:23,1557895013,B_0134e06dd87fb086-NzcyXy0xMjM5NTc0Ny0xNDAwLTEyNjAtMDUxNS0tMjk0NDMxMDQ,http://pb.xyz.duunion.com/conv?tid=B_0134e06dd87fb086-NzcyXy0xMjM5NTc0Ny0xNDAwLTEyNjAtMDUxNS0tMjk0NDMxMDQ&adv_sectkn=55dea06a643eb8a2d267a735fe2683bd&adv_name=appier-api&payout=1.4,idfa_7075AB4C-E108-42B4-91C0-67475BF5C13A,ja-JP
LY8Fleh_QLyD3xARs14c_Q,doglobal_api,772_29443104,Install,1.4,153.184.187.174,8B51A380-DA2C-4661-A19F-010FFF88424E,1557894714,2019-05-15 12:31:54,1557894841,2019-05-15 12:34:01,1557894871,P_3cd7c94b0dddddca-NzcyXy0xMjM5NTc0Ny0xNDAwLTEyNjAtMDUxNS0tMjk0NDMxMDQ,http://pb.xyz.duunion.com/conv?tid=P_3cd7c94b0dddddca-NzcyXy0xMjM5NTc0Ny0xNDAwLTEyNjAtMDUxNS0tMjk0NDMxMDQ&adv_sectkn=55dea06a643eb8a2d267a735fe2683bd&adv_name=appier-api&payout=1.4,idfa_8B51A380-DA2C-4661-A19F-010FFF88424E,ja-JP
LY8Fleh_QLyD3xARs14c_Q,doglobal_api,772_29443104,Install,1.4,126.149.64.234,6C4F16B7-6C01-4C60-A816-715143B4EE3F,1557971683,2019-05-16 09:54:43,1557971811,2019-05-16 09:56:51,1557971845,B_1e529c6e58815144-NzcyXy0xMjM5NTc0Ny0xNDAwLTEyNjAtMDUxNi0tMjk0NDMxMDQ,http://pb.xyz.duunion.com/conv?tid=B_1e529c6e58815144-NzcyXy0xMjM5NTc0Ny0xNDAwLTEyNjAtMDUxNi0tMjk0NDMxMDQ&adv_sectkn=55dea06a643eb8a2d267a735fe2683bd&adv_name=appier-api&payout=1.4,idfa_6C4F16B7-6C01-4C60-A816-715143B4EE3F,ja-JP
LY8Fleh_QLyD3xARs14c_Q,doglobal_api,772_29443104,Install,1.4,115.39.22.148,49423BCD-74AA-446D-85A9-F7B6FF27DCBE,1558460016,2019-05-22 01:33:36,1558460161,2019-05-22 01:36:01,1558460192,P_d9d07c01c1968379-NzcyXy0xMjM5NTc0Ny0xNDAwLTEyNjAtMDUyMi0tMjk0NDMxMDQ,http://pb.xyz.duunion.com/conv?tid=P_d9d07c01c1968379-NzcyXy0xMjM5NTc0Ny0xNDAwLTEyNjAtMDUyMi0tMjk0NDMxMDQ&adv_sectkn=55dea06a643eb8a2d267a735fe2683bd&adv_name=appier-api&payout=1.4,idfa_49423BCD-74AA-446D-85A9-F7B6FF27DCBE,ja-JP
LY8Fleh_QLyD3xARs14c_Q,doglobal_api,772_29443104,Install,1.4,153.220.32.7,723D3FB0-54B0-48B2-B6AA-63DFEAAFB6A3,1557893831,2019-05-15 12:17:11,1557893978,2019-05-15 12:19:38,1557894009,P_778f02d5f2cdf8da-NzcyXy0xMjM5NTc0Ny0xNDAwLTEyNjAtMDUxNS0tMjk0NDMxMDQ,http://pb.xyz.duunion.com/conv?tid=P_778f02d5f2cdf8da-NzcyXy0xMjM5NTc0Ny0xNDAwLTEyNjAtMDUxNS0tMjk0NDMxMDQ&adv_sectkn=55dea06a643eb8a2d267a735fe2683bd&adv_name=appier-api&payout=1.4,idfa_723D3FB0-54B0-48B2-B6AA-63DFEAAFB6A3,ja-JP
LY8Fleh_QLyD3xARs14c_Q,doglobal_api,772_29443104,Install,1.4,114.156.135.152,4FC18CFE-4166-40BE-A4E4-A7A9562A5D6D,1558408614,2019-05-21 11:16:54,1558408729,2019-05-21 11:18:49,1558408760,P_5301ce80c720b3f6-NzcyXy0xMjM5NTc0Ny0xNDAwLTEyNjAtMDUyMS0tMjk0NDMxMDQ,http://pb.xyz.duunion.com/conv?tid=P_5301ce80c720b3f6-NzcyXy0xMjM5NTc0Ny0xNDAwLTEyNjAtMDUyMS0tMjk0NDMxMDQ&adv_sectkn=55dea06a643eb8a2d267a735fe2683bd&adv_name=appier-api&payout=1.4,idfa_4FC18CFE-4166-40BE-A4E4-A7A9562A5D6D,ja-JP
LY8Fleh_QLyD3xARs14c_Q,doglobal_api,772_29443104,Install,1.4,60.128.220.90,BF5ED79D-7A98-42F2-9D09-FD5B222854D8,1558408693,2019-05-21 11:18:13,1558408848,2019-05-21 11:20:48,1558408957,P_8a85f3eeb1f740fa-NzcyXy0xMjM5NTc0Ny0xNDAwLTEyNjAtMDUyMS0tMjk0NDMxMDQ,http://pb.xyz.duunion.com/conv?tid=P_8a85f3eeb1f740fa-NzcyXy0xMjM5NTc0Ny0xNDAwLTEyNjAtMDUyMS0tMjk0NDMxMDQ&adv_sectkn=55dea06a643eb8a2d267a735fe2683bd&adv_name=appier-api&payout=1.4,idfa_BF5ED79D-7A98-42F2-9D09-FD5B222854D8,ja-JP
LY8Fleh_QLyD3xARs14c_Q,doglobal_api,772_29443104,Install,1.4,14.10.144.32,0B804534-7D76-4B3E-BCA1-7656494F6E6B,1558458174,2019-05-22 01:02:54,1558458319,2019-05-22 01:05:19,1558458350,P_f0bb665b93c1bd1a-NzcyXy0xMjM5NTc0Ny0xNDAwLTEyNjAtMDUyMi0tMjk0NDMxMDQ,http://pb.xyz.duunion.com/conv?tid=P_f0bb665b93c1bd1a-NzcyXy0xMjM5NTc0Ny0xNDAwLTEyNjAtMDUyMi0tMjk0NDMxMDQ&adv_sectkn=55dea06a643eb8a2d267a735fe2683bd&adv_name=appier-api&payout=1.4,idfa_0B804534-7D76-4B3E-BCA1-7656494F6E6B,ja-JP
LY8Fleh_QLyD3xARs14c_Q,doglobal_api,772_29443104,Install,1.4,153.206.47.206,9588D9C3-93C2-4C90-9D14-B2C255DBDC4D,1557894708,2019-05-15 12:31:48,1557894836,2019-05-15 12:33:56,1557894867,P_6dbc6b8641bbc785-NzcyXy0xMjM5NTc0Ny0xNDAwLTEyNjAtMDUxNS0tMjk0NDMxMDQ,http://pb.xyz.duunion.com/conv?tid=P_6dbc6b8641bbc785-NzcyXy0xMjM5NTc0Ny0xNDAwLTEyNjAtMDUxNS0tMjk0NDMxMDQ&adv_sectkn=55dea06a643eb8a2d267a735fe2683bd&adv_name=appier-api&payout=1.4,idfa_9588D9C3-93C2-4C90-9D14-B2C255DBDC4D,ja-JP
LY8Fleh_QLyD3xARs14c_Q,doglobal_api,772_29443104,Install,1.4,183.76.16.44,7EF287ED-30D5-4CFC-801B-F7E3BC4B3BA9,1558330811,2019-05-20 13:40:11,1558330938,2019-05-20 13:42:18,1558330970,B_994295229bc9fbf8-NzcyXy0xMjM5NTc0Ny0xNDAwLTEyNjAtMDUyMC0tMjk0NDMxMDQ,http://pb.xyz.duunion.com/conv?tid=B_994295229bc9fbf8-NzcyXy0xMjM5NTc0Ny0xNDAwLTEyNjAtMDUyMC0tMjk0NDMxMDQ&adv_sectkn=55dea06a643eb8a2d267a735fe2683bd&adv_name=appier-api&payout=1.4,idfa_7EF287ED-30D5-4CFC-801B-F7E3BC4B3BA9,ja-JP
LY8Fleh_QLyD3xARs14c_Q,doglobal_api,772_29443104,Install,1.4,14.133.131.100,0C584D2C-DCDB-4AF8-8E88-6615A272011A,1558330836,2019-05-20 13:40:36,1558330982,2019-05-20 13:43:02,1558331014,P_a8c29799c6e47288-NzcyXy0xMjM5NTc0Ny0xNDAwLTEyNjAtMDUyMC0tMjk0NDMxMDQ,http://pb.xyz.duunion.com/conv?tid=P_a8c29799c6e47288-NzcyXy0xMjM5NTc0Ny0xNDAwLTEyNjAtMDUyMC0tMjk0NDMxMDQ&adv_sectkn=55dea06a643eb8a2d267a735fe2683bd&adv_name=appier-api&payout=1.4,idfa_0C584D2C-DCDB-4AF8-8E88-6615A272011A,ja-JP
LY8Fleh_QLyD3xARs14c_Q,doglobal_api,772_29443104,Install,1.4,219.114.76.250,3CDACC23-9C4A-4366-9EAA-28F5A9866DEB,1558326840,2019-05-20 12:34:00,1558326982,2019-05-20 12:36:22,1558327013,B_b358ab4887bf36c7-NzcyXy0xMjM5NTc0Ny0xNDAwLTEyNjAtMDUyMC0tMjk0NDMxMDQ,http://pb.xyz.duunion.com/conv?tid=B_b358ab4887bf36c7-NzcyXy0xMjM5NTc0Ny0xNDAwLTEyNjAtMDUyMC0tMjk0NDMxMDQ&adv_sectkn=55dea06a643eb8a2d267a735fe2683bd&adv_name=appier-api&payout=1.4,idfa_3CDACC23-9C4A-4366-9EAA-28F5A9866DEB,ja-JP
LY8Fleh_QLyD3xARs14c_Q,doglobal_api,772_29443104,Install,1.4,221.33.83.137,893427EF-4A1A-4FA4-96D2-74DB4598B664,1558319593,2019-05-20 10:33:13,1558319732,2019-05-20 10:35:32,1558319764,B_006f9700054a7502-NzcyXy0xMjM5NTc0Ny0xNDAwLTEyNjAtMDUyMC0tMjk0NDMxMDQ,http://pb.xyz.duunion.com/conv?tid=B_006f9700054a7502-NzcyXy0xMjM5NTc0Ny0xNDAwLTEyNjAtMDUyMC0tMjk0NDMxMDQ&adv_sectkn=55dea06a643eb8a2d267a735fe2683bd&adv_name=appier-api&payout=1.4,idfa_893427EF-4A1A-4FA4-96D2-74DB4598B664,ja-JP
LY8Fleh_QLyD3xARs14c_Q,doglobal_api,772_29443104,Install,1.4,220.104.82.5,3F851988-8670-4021-8AEF-21B16EE026B1,1557894712,2019-05-15 12:31:52,1557894849,2019-05-15 12:34:09,1557894879,P_1cbf59efd51bae0a-NzcyXy0xMjM5NTc0Ny0xNDAwLTEyNjAtMDUxNS0tMjk0NDMxMDQ,http://pb.xyz.duunion.com/conv?tid=P_1cbf59efd51bae0a-NzcyXy0xMjM5NTc0Ny0xNDAwLTEyNjAtMDUxNS0tMjk0NDMxMDQ&adv_sectkn=55dea06a643eb8a2d267a735fe2683bd&adv_name=appier-api&payout=1.4,idfa_3F851988-8670-4021-8AEF-21B16EE026B1,ja-JP
