cid,partner_id,channel_id,action_id,cpi,ip,idfa,click time,click datetime,install time,install datetime,postback time,click id,postback url,unique user id
neHczP2bSlGvI70stGcXCg,doglobal_api,784_1050,Install,2.1,1.163.19.154,1AE6B5C6-B97F-4A5B-B8AD-3B352B25D340,1557618181,2019-05-12 07:43:01,1557618215,2019-05-12 07:43:35,1557618246,P_2ee48965acf50f1d-Nzg0Xy0xNDE0NjUwNS0yMTAwLTIxMDAtMDUxMi0tMTA1MA,http://pb.xyz.duunion.com/conv?tid=P_2ee48965acf50f1d-Nzg0Xy0xNDE0NjUwNS0yMTAwLTIxMDAtMDUxMi0tMTA1MA&adv_sectkn=55dea06a643eb8a2d267a735fe2683bd&adv_name=appier-api&payout=2.1,idfa_1AE6B5C6-B97F-4A5B-B8AD-3B352B25D340,zh-Hant-TW
neHczP2bSlGvI70stGcXCg,doglobal_api,784_1050,Install,2.1,111.249.53.113,3CBE7138-1D3D-4D60-814F-C1D0E9C3E379,1557618040,2019-05-12 07:40:40,1557618124,2019-05-12 07:42:04,1557618154,B_a31d35b7febb01b7-Nzg0Xy0xNDE0NjUwNS0yMTAwLTIxMDAtMDUxMi0tMTA1MA,http://pb.xyz.duunion.com/conv?tid=B_a31d35b7febb01b7-Nzg0Xy0xNDE0NjUwNS0yMTAwLTIxMDAtMDUxMi0tMTA1MA&adv_sectkn=55dea06a643eb8a2d267a735fe2683bd&adv_name=appier-api&payout=2.1,idfa_3CBE7138-1D3D-4D60-814F-C1D0E9C3E379,zh-Hant-TW
neHczP2bSlGvI70stGcXCg,doglobal_api,784_1050,Install,2.1,118.160.201.196,5A78C386-3B47-4DA4-95A0-C371FB8AFCCE,1557617847,2019-05-12 07:37:27,1557617877,2019-05-12 07:37:57,1557617908,B_04e4d5cb55760177-Nzg0Xy0xNDE0NjUwNS0yMTAwLTIxMDAtMDUxMi0tMTA1MA,http://pb.xyz.duunion.com/conv?tid=B_04e4d5cb55760177-Nzg0Xy0xNDE0NjUwNS0yMTAwLTIxMDAtMDUxMi0tMTA1MA&adv_sectkn=55dea06a643eb8a2d267a735fe2683bd&adv_name=appier-api&payout=2.1,idfa_5A78C386-3B47-4DA4-95A0-C371FB8AFCCE,zh-Hant-TW
neHczP2bSlGvI70stGcXCg,doglobal_api,784_1050,Install,2.1,114.27.66.97,58259CBE-DAA0-4546-8C25-CF5F1F7C9473,1557618128,2019-05-12 07:42:08,1557618224,2019-05-12 07:43:44,1557618255,P_ebabbee1b48afc55-Nzg0Xy0xNDE0NjUwNS0yMTAwLTIxMDAtMDUxMi0tMTA1MA,http://pb.xyz.duunion.com/conv?tid=P_ebabbee1b48afc55-Nzg0Xy0xNDE0NjUwNS0yMTAwLTIxMDAtMDUxMi0tMTA1MA&adv_sectkn=55dea06a643eb8a2d267a735fe2683bd&adv_name=appier-api&payout=2.1,idfa_58259CBE-DAA0-4546-8C25-CF5F1F7C9473,zh-Hant-TW
neHczP2bSlGvI70stGcXCg,doglobal_api,784_1050,Install,2.1,114.25.0.36,C7CB8598-E4D4-45E7-B666-EBACEF976E76,1557617724,2019-05-12 07:35:24,1557617902,2019-05-12 07:38:22,1557617933,P_87fad68a82e00ab3-Nzg0Xy0xNDE0NjUwNS0yMTAwLTIxMDAtMDUxMi0tMTA1MA,http://pb.xyz.duunion.com/conv?tid=P_87fad68a82e00ab3-Nzg0Xy0xNDE0NjUwNS0yMTAwLTIxMDAtMDUxMi0tMTA1MA&adv_sectkn=55dea06a643eb8a2d267a735fe2683bd&adv_name=appier-api&payout=2.1,idfa_C7CB8598-E4D4-45E7-B666-EBACEF976E76,zh-Hant-TW
neHczP2bSlGvI70stGcXCg,doglobal_api,784_1050,Install,2.1,111.255.179.6,F4832D84-B3D1-4BE9-99A7-43AA76F046D2,1557617930,2019-05-12 07:38:50,1557617964,2019-05-12 07:39:24,1557617995,B_e9bf594e7b7d556b-Nzg0Xy0xNDE0NjUwNS0yMTAwLTIxMDAtMDUxMi0tMTA1MA,http://pb.xyz.duunion.com/conv?tid=B_e9bf594e7b7d556b-Nzg0Xy0xNDE0NjUwNS0yMTAwLTIxMDAtMDUxMi0tMTA1MA&adv_sectkn=55dea06a643eb8a2d267a735fe2683bd&adv_name=appier-api&payout=2.1,idfa_F4832D84-B3D1-4BE9-99A7-43AA76F046D2,zh-Hant-TW
neHczP2bSlGvI70stGcXCg,doglobal_api,784_1050,Install,2.1,1.161.46.124,0266AF69-C9D4-4A67-9A98-7D54CC9A7AB6,1557618037,2019-05-12 07:40:37,1557618109,2019-05-12 07:41:49,1557618140,P_8addfeb54c4db025-Nzg0Xy0xNDE0NjUwNS0yMTAwLTIxMDAtMDUxMi0tMTA1MA,http://pb.xyz.duunion.com/conv?tid=P_8addfeb54c4db025-Nzg0Xy0xNDE0NjUwNS0yMTAwLTIxMDAtMDUxMi0tMTA1MA&adv_sectkn=55dea06a643eb8a2d267a735fe2683bd&adv_name=appier-api&payout=2.1,idfa_0266AF69-C9D4-4A67-9A98-7D54CC9A7AB6,zh-Hant-TW
neHczP2bSlGvI70stGcXCg,doglobal_api,784_1050,Install,2.1,114.36.230.173,872540A6-1621-4208-BB9A-57C1B4ABDB40,1557617566,2019-05-12 07:32:46,1557617614,2019-05-12 07:33:34,1557617645,P_27caf988f12280e4-Nzg0Xy0xNDE0NjUwNS0yMTAwLTIxMDAtMDUxMi0tMTA1MA,http://pb.xyz.duunion.com/conv?tid=P_27caf988f12280e4-Nzg0Xy0xNDE0NjUwNS0yMTAwLTIxMDAtMDUxMi0tMTA1MA&adv_sectkn=55dea06a643eb8a2d267a735fe2683bd&adv_name=appier-api&payout=2.1,idfa_872540A6-1621-4208-BB9A-57C1B4ABDB40,zh-Hant-TW
neHczP2bSlGvI70stGcXCg,doglobal_api,784_1050,Install,2.1,1.171.30.108,4B001176-7CC9-4170-B008-7E1E7CA62E42,1557618096,2019-05-12 07:41:36,1557618168,2019-05-12 07:42:48,1557618198,B_48151976682f050c-Nzg0Xy0xNDE0NjUwNS0yMTAwLTIxMDAtMDUxMi0tMTA1MA,http://pb.xyz.duunion.com/conv?tid=B_48151976682f050c-Nzg0Xy0xNDE0NjUwNS0yMTAwLTIxMDAtMDUxMi0tMTA1MA&adv_sectkn=55dea06a643eb8a2d267a735fe2683bd&adv_name=appier-api&payout=2.1,idfa_4B001176-7CC9-4170-B008-7E1E7CA62E42,zh-Hant-TW
neHczP2bSlGvI70stGcXCg,doglobal_api,784_1050,Install,2.1,114.41.66.217,E0BFCCF1-EC07-4953-B1A0-F96363D3BE03,1557618151,2019-05-12 07:42:31,1557618236,2019-05-12 07:43:56,1557618273,B_c5adfc14a824aa83-Nzg0Xy0xNDE0NjUwNS0yMTAwLTIxMDAtMDUxMi0tMTA1MA,http://pb.xyz.duunion.com/conv?tid=B_c5adfc14a824aa83-Nzg0Xy0xNDE0NjUwNS0yMTAwLTIxMDAtMDUxMi0tMTA1MA&adv_sectkn=55dea06a643eb8a2d267a735fe2683bd&adv_name=appier-api&payout=2.1,idfa_E0BFCCF1-EC07-4953-B1A0-F96363D3BE03,zh-Hant-TW
neHczP2bSlGvI70stGcXCg,doglobal_api,784_1050,Install,2.1,1.160.80.50,F670672D-9592-433B-A4B0-56B5418200C8,1557618122,2019-05-12 07:42:02,1557618163,2019-05-12 07:42:43,1557618194,P_aef6d5d343757e90-Nzg0Xy0xNDE0NjUwNS0yMTAwLTIxMDAtMDUxMi0tMTA1MA,http://pb.xyz.duunion.com/conv?tid=P_aef6d5d343757e90-Nzg0Xy0xNDE0NjUwNS0yMTAwLTIxMDAtMDUxMi0tMTA1MA&adv_sectkn=55dea06a643eb8a2d267a735fe2683bd&adv_name=appier-api&payout=2.1,idfa_F670672D-9592-433B-A4B0-56B5418200C8,zh-Hant-TW
neHczP2bSlGvI70stGcXCg,doglobal_api,784_1050,Install,2.1,1.168.161.59,DFB96771-1269-4FF9-AA30-07D6E3BC5683,1557617937,2019-05-12 07:38:57,1557617975,2019-05-12 07:39:35,1557618006,P_5885831aa0a5fc4f-Nzg0Xy0xNDE0NjUwNS0yMTAwLTIxMDAtMDUxMi0tMTA1MA,http://pb.xyz.duunion.com/conv?tid=P_5885831aa0a5fc4f-Nzg0Xy0xNDE0NjUwNS0yMTAwLTIxMDAtMDUxMi0tMTA1MA&adv_sectkn=55dea06a643eb8a2d267a735fe2683bd&adv_name=appier-api&payout=2.1,idfa_DFB96771-1269-4FF9-AA30-07D6E3BC5683,zh-Hant-TW
neHczP2bSlGvI70stGcXCg,doglobal_api,784_1050,Install,2.1,1.174.38.174,225E255B-F952-442F-B40B-A361930B88F8,1557618038,2019-05-12 07:40:38,1557618101,2019-05-12 07:41:41,1557618131,P_092fd89ab2381428-Nzg0Xy0xNDE0NjUwNS0yMTAwLTIxMDAtMDUxMi0tMTA1MA,http://pb.xyz.duunion.com/conv?tid=P_092fd89ab2381428-Nzg0Xy0xNDE0NjUwNS0yMTAwLTIxMDAtMDUxMi0tMTA1MA&adv_sectkn=55dea06a643eb8a2d267a735fe2683bd&adv_name=appier-api&payout=2.1,idfa_225E255B-F952-442F-B40B-A361930B88F8,zh-Hant-TW
neHczP2bSlGvI70stGcXCg,doglobal_api,784_1050,Install,2.1,61.228.184.199,CDFD331C-BB54-4214-8CC1-AA79D3EAC1C1,1557618154,2019-05-12 07:42:34,1557618249,2019-05-12 07:44:09,1557618279,P_c7031c231a1dffa8-Nzg0Xy0xNDE0NjUwNS0yMTAwLTIxMDAtMDUxMi0tMTA1MA,http://pb.xyz.duunion.com/conv?tid=P_c7031c231a1dffa8-Nzg0Xy0xNDE0NjUwNS0yMTAwLTIxMDAtMDUxMi0tMTA1MA&adv_sectkn=55dea06a643eb8a2d267a735fe2683bd&adv_name=appier-api&payout=2.1,idfa_CDFD331C-BB54-4214-8CC1-AA79D3EAC1C1,zh-Hant-TW
neHczP2bSlGvI70stGcXCg,doglobal_api,784_1050,Install,2.1,220.142.91.16,782E120E-BC8E-4DB8-868D-4A45E88C7738,1557617908,2019-05-12 07:38:28,1557618014,2019-05-12 07:40:14,1557618045,B_d50db81e8a6ad888-Nzg0Xy0xNDE0NjUwNS0yMTAwLTIxMDAtMDUxMi0tMTA1MA,http://pb.xyz.duunion.com/conv?tid=B_d50db81e8a6ad888-Nzg0Xy0xNDE0NjUwNS0yMTAwLTIxMDAtMDUxMi0tMTA1MA&adv_sectkn=55dea06a643eb8a2d267a735fe2683bd&adv_name=appier-api&payout=2.1,idfa_782E120E-BC8E-4DB8-868D-4A45E88C7738,zh-Hant-TW
neHczP2bSlGvI70stGcXCg,doglobal_api,784_1050,Install,2.1,114.27.54.161,5F41DF43-F4C2-4C60-9CE1-A724AC81235A,1557617605,2019-05-12 07:33:25,1557617645,2019-05-12 07:34:05,1557617676,P_904b47227f5f002e-Nzg0Xy0xNDE0NjUwNS0yMTAwLTIxMDAtMDUxMi0tMTA1MA,http://pb.xyz.duunion.com/conv?tid=P_904b47227f5f002e-Nzg0Xy0xNDE0NjUwNS0yMTAwLTIxMDAtMDUxMi0tMTA1MA&adv_sectkn=55dea06a643eb8a2d267a735fe2683bd&adv_name=appier-api&payout=2.1,idfa_5F41DF43-F4C2-4C60-9CE1-A724AC81235A,zh-Hant-TW
neHczP2bSlGvI70stGcXCg,doglobal_api,784_1050,Install,2.1,118.160.201.196,983D4589-8096-43A3-A51F-8D4701C583EB,1557617543,2019-05-12 07:32:23,1557617616,2019-05-12 07:33:36,1557617647,P_47727a4d3881b6f4-Nzg0Xy0xNDE0NjUwNS0yMTAwLTIxMDAtMDUxMi0tMTA1MA,http://pb.xyz.duunion.com/conv?tid=P_47727a4d3881b6f4-Nzg0Xy0xNDE0NjUwNS0yMTAwLTIxMDAtMDUxMi0tMTA1MA&adv_sectkn=55dea06a643eb8a2d267a735fe2683bd&adv_name=appier-api&payout=2.1,idfa_983D4589-8096-43A3-A51F-8D4701C583EB,zh-Hant-TW
neHczP2bSlGvI70stGcXCg,doglobal_api,784_1050,Install,2.1,1.172.56.123,B674AA8C-C502-4912-AE7B-ECF84C8027F1,1557617728,2019-05-12 07:35:28,1557617774,2019-05-12 07:36:14,1557617810,P_898d61db67428c1d-Nzg0Xy0xNDE0NjUwNS0yMTAwLTIxMDAtMDUxMi0tMTA1MA,http://pb.xyz.duunion.com/conv?tid=P_898d61db67428c1d-Nzg0Xy0xNDE0NjUwNS0yMTAwLTIxMDAtMDUxMi0tMTA1MA&adv_sectkn=55dea06a643eb8a2d267a735fe2683bd&adv_name=appier-api&payout=2.1,idfa_B674AA8C-C502-4912-AE7B-ECF84C8027F1,zh-Hant-TW
neHczP2bSlGvI70stGcXCg,doglobal_api,784_1050,Install,2.1,36.237.1.40,A7CF6031-36BC-40FB-B9B4-BEEB8D667685,1557617621,2019-05-12 07:33:41,1557617688,2019-05-12 07:34:48,1557617718,P_58a2c87c56fb2d7c-Nzg0Xy0xNDE0NjUwNS0yMTAwLTIxMDAtMDUxMi0tMTA1MA,http://pb.xyz.duunion.com/conv?tid=P_58a2c87c56fb2d7c-Nzg0Xy0xNDE0NjUwNS0yMTAwLTIxMDAtMDUxMi0tMTA1MA&adv_sectkn=55dea06a643eb8a2d267a735fe2683bd&adv_name=appier-api&payout=2.1,idfa_A7CF6031-36BC-40FB-B9B4-BEEB8D667685,zh-Hant-TW
neHczP2bSlGvI70stGcXCg,doglobal_api,784_1050,Install,2.1,1.162.227.223,950AB9A1-74AE-49A0-AB34-0E449EA1A5B1,1557617787,2019-05-12 07:36:27,1557617860,2019-05-12 07:37:40,1557617890,P_b45a70d4365fa500-Nzg0Xy0xNDE0NjUwNS0yMTAwLTIxMDAtMDUxMi0tMTA1MA,http://pb.xyz.duunion.com/conv?tid=P_b45a70d4365fa500-Nzg0Xy0xNDE0NjUwNS0yMTAwLTIxMDAtMDUxMi0tMTA1MA&adv_sectkn=55dea06a643eb8a2d267a735fe2683bd&adv_name=appier-api&payout=2.1,idfa_950AB9A1-74AE-49A0-AB34-0E449EA1A5B1,zh-Hant-TW
neHczP2bSlGvI70stGcXCg,doglobal_api,784_1050,Install,2.1,111.253.14.94,C8B7E473-1073-44EC-9621-2332E803A396,1557617888,2019-05-12 07:38:08,1557617955,2019-05-12 07:39:15,1557617986,P_1a9b29725cb3d9f2-Nzg0Xy0xNDE0NjUwNS0yMTAwLTIxMDAtMDUxMi0tMTA1MA,http://pb.xyz.duunion.com/conv?tid=P_1a9b29725cb3d9f2-Nzg0Xy0xNDE0NjUwNS0yMTAwLTIxMDAtMDUxMi0tMTA1MA&adv_sectkn=55dea06a643eb8a2d267a735fe2683bd&adv_name=appier-api&payout=2.1,idfa_C8B7E473-1073-44EC-9621-2332E803A396,zh-Hant-TW
