cid,partner_id,channel_id,action_id,cpi,ip,idfa,click time,click datetime,install time,install datetime,postback time,click id,postback url,unique user id
etkV7n8-TXmviHg4PssHZA,doglobal_api,7201_mob94f1914373bed1f213,Install,3.5,219.124.218.193,5B9E8A6A-3789-41A3-A89A-633270A635C3,1556687301,2019-05-01 13:08:21,1556687412,2019-05-01 13:10:12,1556687443,P_eb33f2b7990e540e-NzIxXzcyMDEtMTQwMDgwNTctMzUwMC00MDI1LTA1MDEtbW9iOTRmMTkxNDM3M2JlZDFmMjEzLQ,http://pb.xyz.duunion.com/conv?tid=P_eb33f2b7990e540e-NzIxXzcyMDEtMTQwMDgwNTctMzUwMC00MDI1LTA1MDEtbW9iOTRmMTkxNDM3M2JlZDFmMjEzLQ&adv_sectkn=55dea06a643eb8a2d267a735fe2683bd&adv_name=appier-api&payout=3.5,idfa_5B9E8A6A-3789-41A3-A89A-633270A635C3,ja-JP
etkV7n8-TXmviHg4PssHZA,doglobal_api,7201_mob94f1914373bed1f213,Install,3.5,180.200.65.212,211B96EB-690D-4522-B394-ADC4220BEFCB,1556687209,2019-05-01 13:06:49,1556687463,2019-05-01 13:11:03,1556687495,P_62b4556089e730ab-NzIxXzcyMDEtMTQwMDgwNTctMzUwMC00MDI1LTA1MDEtbW9iOTRmMTkxNDM3M2JlZDFmMjEzLQ,http://pb.xyz.duunion.com/conv?tid=P_62b4556089e730ab-NzIxXzcyMDEtMTQwMDgwNTctMzUwMC00MDI1LTA1MDEtbW9iOTRmMTkxNDM3M2JlZDFmMjEzLQ&adv_sectkn=55dea06a643eb8a2d267a735fe2683bd&adv_name=appier-api&payout=3.5,idfa_211B96EB-690D-4522-B394-ADC4220BEFCB,ja-JP
etkV7n8-TXmviHg4PssHZA,doglobal_api,7201_mob94f1914373bed1f213,Install,3.5,133.175.70.146,4B24AC07-2EFE-4E27-8523-C3E82457CB75,1556688307,2019-05-01 13:25:07,1556688436,2019-05-01 13:27:16,1556688536,B_bbda8619ddb58884-NzIxXzcyMDEtMTQwMDgwNTctMzUwMC00MDI1LTA1MDEtbW9iOTRmMTkxNDM3M2JlZDFmMjEzLQ,http://pb.xyz.duunion.com/conv?tid=B_bbda8619ddb58884-NzIxXzcyMDEtMTQwMDgwNTctMzUwMC00MDI1LTA1MDEtbW9iOTRmMTkxNDM3M2JlZDFmMjEzLQ&adv_sectkn=55dea06a643eb8a2d267a735fe2683bd&adv_name=appier-api&payout=3.5,idfa_4B24AC07-2EFE-4E27-8523-C3E82457CB75,ja-JP
etkV7n8-TXmviHg4PssHZA,doglobal_api,7201_mob94f1914373bed1f213,Install,3.5,126.88.54.27,BF845D66-095F-4C8A-A4A2-CBBE510E8BD1,1556688181,2019-05-01 13:23:01,1556688313,2019-05-01 13:25:13,1556688344,P_1eb189b9b7054d7e-NzIxXzcyMDEtMTQwMDgwNTctMzUwMC00MDI1LTA1MDEtbW9iOTRmMTkxNDM3M2JlZDFmMjEzLQ,http://pb.xyz.duunion.com/conv?tid=P_1eb189b9b7054d7e-NzIxXzcyMDEtMTQwMDgwNTctMzUwMC00MDI1LTA1MDEtbW9iOTRmMTkxNDM3M2JlZDFmMjEzLQ&adv_sectkn=55dea06a643eb8a2d267a735fe2683bd&adv_name=appier-api&payout=3.5,idfa_BF845D66-095F-4C8A-A4A2-CBBE510E8BD1,ja-JP
etkV7n8-TXmviHg4PssHZA,doglobal_api,7201_mob94f1914373bed1f213,Install,3.5,113.154.158.144,ADE9A33F-D543-4419-906A-909C8A10B2D5,1556687155,2019-05-01 13:05:55,1556687309,2019-05-01 13:08:29,1556687360,B_fcbd3e755a3d33cf-NzIxXzcyMDEtMTQwMDgwNTctMzUwMC00MDI1LTA1MDEtbW9iOTRmMTkxNDM3M2JlZDFmMjEzLQ,http://pb.xyz.duunion.com/conv?tid=B_fcbd3e755a3d33cf-NzIxXzcyMDEtMTQwMDgwNTctMzUwMC00MDI1LTA1MDEtbW9iOTRmMTkxNDM3M2JlZDFmMjEzLQ&adv_sectkn=55dea06a643eb8a2d267a735fe2683bd&adv_name=appier-api&payout=3.5,idfa_ADE9A33F-D543-4419-906A-909C8A10B2D5,ja-JP
etkV7n8-TXmviHg4PssHZA,doglobal_api,7201_mob94f1914373bed1f213,Install,3.5,180.19.80.10,DC48CDAD-82F5-4CD0-B08D-B7B7D8F1BDAD,1556688171,2019-05-01 13:22:51,1556688291,2019-05-01 13:24:51,1556688357,B_ec5e9812df06c67f-NzIxXzcyMDEtMTQwMDgwNTctMzUwMC00MDI1LTA1MDEtbW9iOTRmMTkxNDM3M2JlZDFmMjEzLQ,http://pb.xyz.duunion.com/conv?tid=B_ec5e9812df06c67f-NzIxXzcyMDEtMTQwMDgwNTctMzUwMC00MDI1LTA1MDEtbW9iOTRmMTkxNDM3M2JlZDFmMjEzLQ&adv_sectkn=55dea06a643eb8a2d267a735fe2683bd&adv_name=appier-api&payout=3.5,idfa_DC48CDAD-82F5-4CD0-B08D-B7B7D8F1BDAD,ja-JP
etkV7n8-TXmviHg4PssHZA,doglobal_api,7201_mob94f1914373bed1f213,Install,3.5,106.161.143.111,D940CF5D-4CFF-44DE-B937-BD0C253F3248,1556687713,2019-05-01 13:15:13,1556687830,2019-05-01 13:17:10,1556687861,P_3f8830c084da9bb1-NzIxXzcyMDEtMTQwMDgwNTctMzUwMC00MDI1LTA1MDEtbW9iOTRmMTkxNDM3M2JlZDFmMjEzLQ,http://pb.xyz.duunion.com/conv?tid=P_3f8830c084da9bb1-NzIxXzcyMDEtMTQwMDgwNTctMzUwMC00MDI1LTA1MDEtbW9iOTRmMTkxNDM3M2JlZDFmMjEzLQ&adv_sectkn=55dea06a643eb8a2d267a735fe2683bd&adv_name=appier-api&payout=3.5,idfa_D940CF5D-4CFF-44DE-B937-BD0C253F3248,ja-JP
etkV7n8-TXmviHg4PssHZA,doglobal_api,7201_mob94f1914373bed1f213,Install,3.5,222.5.183.250,3B12C7D8-10A0-4B64-AE5F-16CB86C2DFB3,1556687569,2019-05-01 13:12:49,1556687775,2019-05-01 13:16:15,1556687805,B_21b9cc17ca8a3f30-NzIxXzcyMDEtMTQwMDgwNTctMzUwMC00MDI1LTA1MDEtbW9iOTRmMTkxNDM3M2JlZDFmMjEzLQ,http://pb.xyz.duunion.com/conv?tid=B_21b9cc17ca8a3f30-NzIxXzcyMDEtMTQwMDgwNTctMzUwMC00MDI1LTA1MDEtbW9iOTRmMTkxNDM3M2JlZDFmMjEzLQ&adv_sectkn=55dea06a643eb8a2d267a735fe2683bd&adv_name=appier-api&payout=3.5,idfa_3B12C7D8-10A0-4B64-AE5F-16CB86C2DFB3,ja-JP
etkV7n8-TXmviHg4PssHZA,doglobal_api,7201_mob94f1914373bed1f213,Install,3.5,126.15.232.47,5CC1DB06-0296-4DA3-B0C2-04DEAA11469E,1556687371,2019-05-01 13:09:31,1556687551,2019-05-01 13:12:31,1556687582,B_e5b015681bc891c9-NzIxXzcyMDEtMTQwMDgwNTctMzUwMC00MDI1LTA1MDEtbW9iOTRmMTkxNDM3M2JlZDFmMjEzLQ,http://pb.xyz.duunion.com/conv?tid=B_e5b015681bc891c9-NzIxXzcyMDEtMTQwMDgwNTctMzUwMC00MDI1LTA1MDEtbW9iOTRmMTkxNDM3M2JlZDFmMjEzLQ&adv_sectkn=55dea06a643eb8a2d267a735fe2683bd&adv_name=appier-api&payout=3.5,idfa_5CC1DB06-0296-4DA3-B0C2-04DEAA11469E,ja-JP
etkV7n8-TXmviHg4PssHZA,doglobal_api,7201_mob94f1914373bed1f213,Install,3.5,182.166.168.123,2F4C8714-BCDF-4708-B775-67D309449F68,1556687723,2019-05-01 13:15:23,1556687974,2019-05-01 13:19:34,1556688005,B_2c13af4d2f597960-NzIxXzcyMDEtMTQwMDgwNTctMzUwMC00MDI1LTA1MDEtbW9iOTRmMTkxNDM3M2JlZDFmMjEzLQ,http://pb.xyz.duunion.com/conv?tid=B_2c13af4d2f597960-NzIxXzcyMDEtMTQwMDgwNTctMzUwMC00MDI1LTA1MDEtbW9iOTRmMTkxNDM3M2JlZDFmMjEzLQ&adv_sectkn=55dea06a643eb8a2d267a735fe2683bd&adv_name=appier-api&payout=3.5,idfa_2F4C8714-BCDF-4708-B775-67D309449F68,ja-JP
etkV7n8-TXmviHg4PssHZA,doglobal_api,7201_mob94f1914373bed1f213,Install,3.5,114.166.184.66,D9C7E9DE-6237-416E-B44B-CCD94A4A2FDD,1556688241,2019-05-01 13:24:01,1556688428,2019-05-01 13:27:08,1556688815,B_f028348ea885db2b-NzIxXzcyMDEtMTQwMDgwNTctMzUwMC00MDI1LTA1MDEtbW9iOTRmMTkxNDM3M2JlZDFmMjEzLQ,http://pb.xyz.duunion.com/conv?tid=B_f028348ea885db2b-NzIxXzcyMDEtMTQwMDgwNTctMzUwMC00MDI1LTA1MDEtbW9iOTRmMTkxNDM3M2JlZDFmMjEzLQ&adv_sectkn=55dea06a643eb8a2d267a735fe2683bd&adv_name=appier-api&payout=3.5,idfa_D9C7E9DE-6237-416E-B44B-CCD94A4A2FDD,ja-JP
etkV7n8-TXmviHg4PssHZA,doglobal_api,7201_mob94f1914373bed1f213,Install,3.5,153.198.168.38,5FF3942B-99FF-494D-8269-D30F7720238C,1556688251,2019-05-01 13:24:11,1556688384,2019-05-01 13:26:24,1556688414,B_1861d75301a92ddc-NzIxXzcyMDEtMTQwMDgwNTctMzUwMC00MDI1LTA1MDEtbW9iOTRmMTkxNDM3M2JlZDFmMjEzLQ,http://pb.xyz.duunion.com/conv?tid=B_1861d75301a92ddc-NzIxXzcyMDEtMTQwMDgwNTctMzUwMC00MDI1LTA1MDEtbW9iOTRmMTkxNDM3M2JlZDFmMjEzLQ&adv_sectkn=55dea06a643eb8a2d267a735fe2683bd&adv_name=appier-api&payout=3.5,idfa_5FF3942B-99FF-494D-8269-D30F7720238C,ja-JP
etkV7n8-TXmviHg4PssHZA,doglobal_api,7201_mob94f1914373bed1f213,Install,3.5,180.148.144.11,DB519E7B-72BC-48FD-8872-362209893E36,1556688174,2019-05-01 13:22:54,1556688366,2019-05-01 13:26:06,1556688397,P_f66e9a9258c70149-NzIxXzcyMDEtMTQwMDgwNTctMzUwMC00MDI1LTA1MDEtbW9iOTRmMTkxNDM3M2JlZDFmMjEzLQ,http://pb.xyz.duunion.com/conv?tid=P_f66e9a9258c70149-NzIxXzcyMDEtMTQwMDgwNTctMzUwMC00MDI1LTA1MDEtbW9iOTRmMTkxNDM3M2JlZDFmMjEzLQ&adv_sectkn=55dea06a643eb8a2d267a735fe2683bd&adv_name=appier-api&payout=3.5,idfa_DB519E7B-72BC-48FD-8872-362209893E36,ja-JP
etkV7n8-TXmviHg4PssHZA,doglobal_api,7201_mob94f1914373bed1f213,Install,3.5,124.241.72.77,23A90A83-83D7-449C-B4E6-D20A7F0E15DA,1556687871,2019-05-01 13:17:51,1556687986,2019-05-01 13:19:46,1556688016,P_d1da1365b19974e6-NzIxXzcyMDEtMTQwMDgwNTctMzUwMC00MDI1LTA1MDEtbW9iOTRmMTkxNDM3M2JlZDFmMjEzLQ,http://pb.xyz.duunion.com/conv?tid=P_d1da1365b19974e6-NzIxXzcyMDEtMTQwMDgwNTctMzUwMC00MDI1LTA1MDEtbW9iOTRmMTkxNDM3M2JlZDFmMjEzLQ&adv_sectkn=55dea06a643eb8a2d267a735fe2683bd&adv_name=appier-api&payout=3.5,idfa_23A90A83-83D7-449C-B4E6-D20A7F0E15DA,ja-JP
etkV7n8-TXmviHg4PssHZA,doglobal_api,7201_mob94f1914373bed1f213,Install,3.5,126.3.3.245,825C925D-B4F4-41F7-98C8-06EFBC6743BA,1556688196,2019-05-01 13:23:16,1556688378,2019-05-01 13:26:18,1556688409,P_f2b6494b62392311-NzIxXzcyMDEtMTQwMDgwNTctMzUwMC00MDI1LTA1MDEtbW9iOTRmMTkxNDM3M2JlZDFmMjEzLQ,http://pb.xyz.duunion.com/conv?tid=P_f2b6494b62392311-NzIxXzcyMDEtMTQwMDgwNTctMzUwMC00MDI1LTA1MDEtbW9iOTRmMTkxNDM3M2JlZDFmMjEzLQ&adv_sectkn=55dea06a643eb8a2d267a735fe2683bd&adv_name=appier-api&payout=3.5,idfa_825C925D-B4F4-41F7-98C8-06EFBC6743BA,ja-JP
etkV7n8-TXmviHg4PssHZA,doglobal_api,7201_mob94f1914373bed1f213,Install,3.5,110.66.175.165,916E084E-84D6-4898-8EE1-08BF8FE6D173,1556688194,2019-05-01 13:23:14,1556688358,2019-05-01 13:25:58,1556688388,P_2125bc3787ee2106-NzIxXzcyMDEtMTQwMDgwNTctMzUwMC00MDI1LTA1MDEtbW9iOTRmMTkxNDM3M2JlZDFmMjEzLQ,http://pb.xyz.duunion.com/conv?tid=P_2125bc3787ee2106-NzIxXzcyMDEtMTQwMDgwNTctMzUwMC00MDI1LTA1MDEtbW9iOTRmMTkxNDM3M2JlZDFmMjEzLQ&adv_sectkn=55dea06a643eb8a2d267a735fe2683bd&adv_name=appier-api&payout=3.5,idfa_916E084E-84D6-4898-8EE1-08BF8FE6D173,ja-JP
etkV7n8-TXmviHg4PssHZA,doglobal_api,7201_mob94f1914373bed1f213,Install,3.5,111.239.187.10,3FD678D7-7C32-4DA9-9E0C-04BB2C4B2BB3,1556687561,2019-05-01 13:12:41,1556687681,2019-05-01 13:14:41,1556687807,B_5e3efcc2325b97a2-NzIxXzcyMDEtMTQwMDgwNTctMzUwMC00MDI1LTA1MDEtbW9iOTRmMTkxNDM3M2JlZDFmMjEzLQ,http://pb.xyz.duunion.com/conv?tid=B_5e3efcc2325b97a2-NzIxXzcyMDEtMTQwMDgwNTctMzUwMC00MDI1LTA1MDEtbW9iOTRmMTkxNDM3M2JlZDFmMjEzLQ&adv_sectkn=55dea06a643eb8a2d267a735fe2683bd&adv_name=appier-api&payout=3.5,idfa_3FD678D7-7C32-4DA9-9E0C-04BB2C4B2BB3,ja-JP
etkV7n8-TXmviHg4PssHZA,doglobal_api,7201_mob94f1914373bed1f213,Install,3.5,219.105.127.223,35B01CFD-E3DF-44F3-A5B2-B55B2A87A680,1556687530,2019-05-01 13:12:10,1556687665,2019-05-01 13:14:25,1556687695,B_131d1afad7d0092d-NzIxXzcyMDEtMTQwMDgwNTctMzUwMC00MDI1LTA1MDEtbW9iOTRmMTkxNDM3M2JlZDFmMjEzLQ,http://pb.xyz.duunion.com/conv?tid=B_131d1afad7d0092d-NzIxXzcyMDEtMTQwMDgwNTctMzUwMC00MDI1LTA1MDEtbW9iOTRmMTkxNDM3M2JlZDFmMjEzLQ&adv_sectkn=55dea06a643eb8a2d267a735fe2683bd&adv_name=appier-api&payout=3.5,idfa_35B01CFD-E3DF-44F3-A5B2-B55B2A87A680,ja-JP
etkV7n8-TXmviHg4PssHZA,doglobal_api,7201_mob94f1914373bed1f213,Install,3.5,220.60.202.9,4C59B054-564E-4B8B-9866-A356BD4B03C8,1556687146,2019-05-01 13:05:46,1556687270,2019-05-01 13:07:50,1556687320,P_ea037838d605b543-NzIxXzcyMDEtMTQwMDgwNTctMzUwMC00MDI1LTA1MDEtbW9iOTRmMTkxNDM3M2JlZDFmMjEzLQ,http://pb.xyz.duunion.com/conv?tid=P_ea037838d605b543-NzIxXzcyMDEtMTQwMDgwNTctMzUwMC00MDI1LTA1MDEtbW9iOTRmMTkxNDM3M2JlZDFmMjEzLQ&adv_sectkn=55dea06a643eb8a2d267a735fe2683bd&adv_name=appier-api&payout=3.5,idfa_4C59B054-564E-4B8B-9866-A356BD4B03C8,ja-JP
etkV7n8-TXmviHg4PssHZA,doglobal_api,7201_mob94f1914373bed1f213,Install,3.5,27.110.107.89,84FA9BF9-6780-46C8-AB35-2B079BBCE7F8,1556688221,2019-05-01 13:23:41,1556688370,2019-05-01 13:26:10,1556688400,P_645096a3da49a747-NzIxXzcyMDEtMTQwMDgwNTctMzUwMC00MDI1LTA1MDEtbW9iOTRmMTkxNDM3M2JlZDFmMjEzLQ,http://pb.xyz.duunion.com/conv?tid=P_645096a3da49a747-NzIxXzcyMDEtMTQwMDgwNTctMzUwMC00MDI1LTA1MDEtbW9iOTRmMTkxNDM3M2JlZDFmMjEzLQ&adv_sectkn=55dea06a643eb8a2d267a735fe2683bd&adv_name=appier-api&payout=3.5,idfa_84FA9BF9-6780-46C8-AB35-2B079BBCE7F8,ja-JP
etkV7n8-TXmviHg4PssHZA,doglobal_api,7201_mob94f1914373bed1f213,Install,3.5,27.94.35.216,B91DEAA0-4CAB-4F9C-A61B-A868CBE97116,1556687041,2019-05-01 13:04:01,1556687221,2019-05-01 13:07:01,1556687252,B_c98b8678741821d7-NzIxXzcyMDEtMTQwMDgwNTctMzUwMC00MDI1LTA1MDEtbW9iOTRmMTkxNDM3M2JlZDFmMjEzLQ,http://pb.xyz.duunion.com/conv?tid=B_c98b8678741821d7-NzIxXzcyMDEtMTQwMDgwNTctMzUwMC00MDI1LTA1MDEtbW9iOTRmMTkxNDM3M2JlZDFmMjEzLQ&adv_sectkn=55dea06a643eb8a2d267a735fe2683bd&adv_name=appier-api&payout=3.5,idfa_B91DEAA0-4CAB-4F9C-A61B-A868CBE97116,ja-JP
