cid,partner_id,channel_id,action_id,cpi,ip,idfa,click time,click datetime,install time,install datetime,postback time,click id,postback url,unique user id
FocXQn_RTIaeGjGoUxhPeA,doglobal_api,966_10530966,install,1.7,220.121.232.237,BC789A58-4B80-47C2-A884-D625E7306510,1559186058,2019-05-30 11:14:18,1559186165,2019-05-30 11:16:05,1559186246,P_56ac856f7755924e-OTY2Xy0xNDEyMTk0Ny0xNzAwLTE4NzAtMDUzMC0xMDUzMDk2Ni0,http://pb.xyz.duunion.com/conv?tid=P_56ac856f7755924e-OTY2Xy0xNDEyMTk0Ny0xNzAwLTE4NzAtMDUzMC0xMDUzMDk2Ni0&adv_sectkn=55dea06a643eb8a2d267a735fe2683bd&adv_name=appier-api&payout=1.7,idfa_BC789A58-4B80-47C2-A884-D625E7306510,ko
FocXQn_RTIaeGjGoUxhPeA,doglobal_api,966_10530966,install,1.7,210.178.101.163,42910E5D-90CB-4C76-8475-4CADB3E2FA39,1559183687,2019-05-30 10:34:47,1559183802,2019-05-30 10:36:42,1559183833,P_ad66122c3f1dceb6-OTY2Xy0xNDEyMTk0Ny0xNzAwLTE4NzAtMDUzMC0xMDUzMDk2Ni0,http://pb.xyz.duunion.com/conv?tid=P_ad66122c3f1dceb6-OTY2Xy0xNDEyMTk0Ny0xNzAwLTE4NzAtMDUzMC0xMDUzMDk2Ni0&adv_sectkn=55dea06a643eb8a2d267a735fe2683bd&adv_name=appier-api&payout=1.7,idfa_42910E5D-90CB-4C76-8475-4CADB3E2FA39,ko
FocXQn_RTIaeGjGoUxhPeA,doglobal_api,966_10530966,install,1.7,122.32.46.252,3A2D74CE-037C-4412-A8C3-44D92DE0FE90,1559185421,2019-05-30 11:03:41,1559185557,2019-05-30 11:05:57,1559185589,P_102251d61b9c7b41-OTY2Xy0xNDEyMTk0Ny0xNzAwLTE4NzAtMDUzMC0xMDUzMDk2Ni0,http://pb.xyz.duunion.com/conv?tid=P_102251d61b9c7b41-OTY2Xy0xNDEyMTk0Ny0xNzAwLTE4NzAtMDUzMC0xMDUzMDk2Ni0&adv_sectkn=55dea06a643eb8a2d267a735fe2683bd&adv_name=appier-api&payout=1.7,idfa_3A2D74CE-037C-4412-A8C3-44D92DE0FE90,ko
FocXQn_RTIaeGjGoUxhPeA,doglobal_api,966_10530966,install,1.7,121.154.182.137,2B3E8F5E-88B9-4073-A214-46EB104ED8C1,1559184855,2019-05-30 10:54:15,1559184984,2019-05-30 10:56:24,1559185021,P_dc2d85339be702f2-OTY2Xy0xNDEyMTk0Ny0xNzAwLTE4NzAtMDUzMC0xMDUzMDk2Ni0,http://pb.xyz.duunion.com/conv?tid=P_dc2d85339be702f2-OTY2Xy0xNDEyMTk0Ny0xNzAwLTE4NzAtMDUzMC0xMDUzMDk2Ni0&adv_sectkn=55dea06a643eb8a2d267a735fe2683bd&adv_name=appier-api&payout=1.7,idfa_2B3E8F5E-88B9-4073-A214-46EB104ED8C1,ko
FocXQn_RTIaeGjGoUxhPeA,doglobal_api,966_10530966,install,1.7,175.198.138.56,BC5339BB-D828-42B4-9A43-AE3D62D5C654,1559185005,2019-05-30 10:56:45,1559185145,2019-05-30 10:59:05,1559185181,B_bf0e5715e54a9307-OTY2Xy0xNDEyMTk0Ny0xNzAwLTE4NzAtMDUzMC0xMDUzMDk2Ni0,http://pb.xyz.duunion.com/conv?tid=B_bf0e5715e54a9307-OTY2Xy0xNDEyMTk0Ny0xNzAwLTE4NzAtMDUzMC0xMDUzMDk2Ni0&adv_sectkn=55dea06a643eb8a2d267a735fe2683bd&adv_name=appier-api&payout=1.7,idfa_BC5339BB-D828-42B4-9A43-AE3D62D5C654,ko
FocXQn_RTIaeGjGoUxhPeA,doglobal_api,966_10530966,install,1.7,59.3.97.35,7033BB4E-A612-4032-BDCE-A284DAE4E7EC,1559184089,2019-05-30 10:41:29,1559184217,2019-05-30 10:43:37,1559184255,P_5660abf4394262df-OTY2Xy0xNDEyMTk0Ny0xNzAwLTE4NzAtMDUzMC0xMDUzMDk2Ni0,http://pb.xyz.duunion.com/conv?tid=P_5660abf4394262df-OTY2Xy0xNDEyMTk0Ny0xNzAwLTE4NzAtMDUzMC0xMDUzMDk2Ni0&adv_sectkn=55dea06a643eb8a2d267a735fe2683bd&adv_name=appier-api&payout=1.7,idfa_7033BB4E-A612-4032-BDCE-A284DAE4E7EC,ko
FocXQn_RTIaeGjGoUxhPeA,doglobal_api,966_10530966,install,1.7,58.231.74.47,4B1E61A1-FE15-4DC3-8E91-89BFC1845807,1559183288,2019-05-30 10:28:08,1559183418,2019-05-30 10:30:18,1559183448,B_f8ed9a552ccb85e6-OTY2Xy0xNDEyMTk0Ny0xNzAwLTE4NzAtMDUzMC0xMDUzMDk2Ni0,http://pb.xyz.duunion.com/conv?tid=B_f8ed9a552ccb85e6-OTY2Xy0xNDEyMTk0Ny0xNzAwLTE4NzAtMDUzMC0xMDUzMDk2Ni0&adv_sectkn=55dea06a643eb8a2d267a735fe2683bd&adv_name=appier-api&payout=1.7,idfa_4B1E61A1-FE15-4DC3-8E91-89BFC1845807,ko
FocXQn_RTIaeGjGoUxhPeA,doglobal_api,966_10530966,install,1.7,218.154.71.25,0E434715-D499-436D-9BE6-80BE88A4F485,1559186149,2019-05-30 11:15:49,1559186267,2019-05-30 11:17:47,1559186298,P_e2105bef684768ec-OTY2Xy0xNDEyMTk0Ny0xNzAwLTE4NzAtMDUzMC0xMDUzMDk2Ni0,http://pb.xyz.duunion.com/conv?tid=P_e2105bef684768ec-OTY2Xy0xNDEyMTk0Ny0xNzAwLTE4NzAtMDUzMC0xMDUzMDk2Ni0&adv_sectkn=55dea06a643eb8a2d267a735fe2683bd&adv_name=appier-api&payout=1.7,idfa_0E434715-D499-436D-9BE6-80BE88A4F485,ko
FocXQn_RTIaeGjGoUxhPeA,doglobal_api,966_10530966,install,1.7,220.74.106.27,36CB6967-119D-4ECC-BDC2-AF6745E5163A,1559184156,2019-05-30 10:42:36,1559185289,2019-05-30 11:01:29,1559185319,P_4aa43a76cfca9b61-OTY2Xy0xNDEyMTk0Ny0xNzAwLTE4NzAtMDUzMC0xMDUzMDk2Ni0,http://pb.xyz.duunion.com/conv?tid=P_4aa43a76cfca9b61-OTY2Xy0xNDEyMTk0Ny0xNzAwLTE4NzAtMDUzMC0xMDUzMDk2Ni0&adv_sectkn=55dea06a643eb8a2d267a735fe2683bd&adv_name=appier-api&payout=1.7,idfa_36CB6967-119D-4ECC-BDC2-AF6745E5163A,ko
FocXQn_RTIaeGjGoUxhPeA,doglobal_api,966_10530966,install,1.7,222.96.161.192,D272D95B-379F-4AAB-A0F7-7715093B6BE4,1559183141,2019-05-30 10:25:41,1559183257,2019-05-30 10:27:37,1559183288,P_ae11a0e8d0683bf0-OTY2Xy0xNDEyMTk0Ny0xNzAwLTE4NzAtMDUzMC0xMDUzMDk2Ni0,http://pb.xyz.duunion.com/conv?tid=P_ae11a0e8d0683bf0-OTY2Xy0xNDEyMTk0Ny0xNzAwLTE4NzAtMDUzMC0xMDUzMDk2Ni0&adv_sectkn=55dea06a643eb8a2d267a735fe2683bd&adv_name=appier-api&payout=1.7,idfa_D272D95B-379F-4AAB-A0F7-7715093B6BE4,ko
FocXQn_RTIaeGjGoUxhPeA,doglobal_api,966_10530966,install,1.7,1.239.246.212,B0BBE30C-B6F2-40B6-B12C-ADDAA07281EF,1559183722,2019-05-30 10:35:22,1559183855,2019-05-30 10:37:35,1559183891,P_bbffe3f83684639f-OTY2Xy0xNDEyMTk0Ny0xNzAwLTE4NzAtMDUzMC0xMDUzMDk2Ni0,http://pb.xyz.duunion.com/conv?tid=P_bbffe3f83684639f-OTY2Xy0xNDEyMTk0Ny0xNzAwLTE4NzAtMDUzMC0xMDUzMDk2Ni0&adv_sectkn=55dea06a643eb8a2d267a735fe2683bd&adv_name=appier-api&payout=1.7,idfa_B0BBE30C-B6F2-40B6-B12C-ADDAA07281EF,ko
FocXQn_RTIaeGjGoUxhPeA,doglobal_api,966_10530966,install,1.7,141.223.108.66,76C3128E-2AAA-4535-A1B7-315CF50FA63D,1559185931,2019-05-30 11:12:11,1559186043,2019-05-30 11:14:03,1559186074,P_64ba581b52db7a2d-OTY2Xy0xNDEyMTk0Ny0xNzAwLTE4NzAtMDUzMC0xMDUzMDk2Ni0,http://pb.xyz.duunion.com/conv?tid=P_64ba581b52db7a2d-OTY2Xy0xNDEyMTk0Ny0xNzAwLTE4NzAtMDUzMC0xMDUzMDk2Ni0&adv_sectkn=55dea06a643eb8a2d267a735fe2683bd&adv_name=appier-api&payout=1.7,idfa_76C3128E-2AAA-4535-A1B7-315CF50FA63D,ko
FocXQn_RTIaeGjGoUxhPeA,doglobal_api,966_10530966,install,1.7,112.150.208.149,6D487FD0-B909-4D6B-8E06-23EB1898357B,1559183626,2019-05-30 10:33:46,1559183744,2019-05-30 10:35:44,1559183774,P_4a4c7b6733669056-OTY2Xy0xNDEyMTk0Ny0xNzAwLTE4NzAtMDUzMC0xMDUzMDk2Ni0,http://pb.xyz.duunion.com/conv?tid=P_4a4c7b6733669056-OTY2Xy0xNDEyMTk0Ny0xNzAwLTE4NzAtMDUzMC0xMDUzMDk2Ni0&adv_sectkn=55dea06a643eb8a2d267a735fe2683bd&adv_name=appier-api&payout=1.7,idfa_6D487FD0-B909-4D6B-8E06-23EB1898357B,ko
FocXQn_RTIaeGjGoUxhPeA,doglobal_api,966_10530966,install,1.7,116.32.212.130,C72A071C-EF31-49D8-9BBC-45BC6E71741B,1559183631,2019-05-30 10:33:51,1559183764,2019-05-30 10:36:04,1559183844,P_673a27103d56beef-OTY2Xy0xNDEyMTk0Ny0xNzAwLTE4NzAtMDUzMC0xMDUzMDk2Ni0,http://pb.xyz.duunion.com/conv?tid=P_673a27103d56beef-OTY2Xy0xNDEyMTk0Ny0xNzAwLTE4NzAtMDUzMC0xMDUzMDk2Ni0&adv_sectkn=55dea06a643eb8a2d267a735fe2683bd&adv_name=appier-api&payout=1.7,idfa_C72A071C-EF31-49D8-9BBC-45BC6E71741B,ko
FocXQn_RTIaeGjGoUxhPeA,doglobal_api,966_10530966,install,1.7,61.72.37.41,274A8918-41FC-4700-A415-45424EC3FCDC,1559186347,2019-05-30 11:19:07,1559186476,2019-05-30 11:21:16,1559186511,B_11ed63b8cb7d8212-OTY2Xy0xNDEyMTk0Ny0xNzAwLTE4NzAtMDUzMC0xMDUzMDk2Ni0,http://pb.xyz.duunion.com/conv?tid=B_11ed63b8cb7d8212-OTY2Xy0xNDEyMTk0Ny0xNzAwLTE4NzAtMDUzMC0xMDUzMDk2Ni0&adv_sectkn=55dea06a643eb8a2d267a735fe2683bd&adv_name=appier-api&payout=1.7,idfa_274A8918-41FC-4700-A415-45424EC3FCDC,ko
FocXQn_RTIaeGjGoUxhPeA,doglobal_api,966_10530966,install,1.7,119.67.19.100,F1469FB7-072D-471B-B4BC-F1A55284D05B,1559184514,2019-05-30 10:48:34,1559184643,2019-05-30 10:50:43,1559184680,B_48b7d203693adb82-OTY2Xy0xNDEyMTk0Ny0xNzAwLTE4NzAtMDUzMC0xMDUzMDk2Ni0,http://pb.xyz.duunion.com/conv?tid=B_48b7d203693adb82-OTY2Xy0xNDEyMTk0Ny0xNzAwLTE4NzAtMDUzMC0xMDUzMDk2Ni0&adv_sectkn=55dea06a643eb8a2d267a735fe2683bd&adv_name=appier-api&payout=1.7,idfa_F1469FB7-072D-471B-B4BC-F1A55284D05B,ko
FocXQn_RTIaeGjGoUxhPeA,doglobal_api,966_10530966,install,1.7,61.38.153.133,8C85CDD1-6360-47C0-87DD-55C30DDC9013,1559183135,2019-05-30 10:25:35,1559183243,2019-05-30 10:27:23,1559183274,P_e1e7bd1799fcb748-OTY2Xy0xNDEyMTk0Ny0xNzAwLTE4NzAtMDUzMC0xMDUzMDk2Ni0,http://pb.xyz.duunion.com/conv?tid=P_e1e7bd1799fcb748-OTY2Xy0xNDEyMTk0Ny0xNzAwLTE4NzAtMDUzMC0xMDUzMDk2Ni0&adv_sectkn=55dea06a643eb8a2d267a735fe2683bd&adv_name=appier-api&payout=1.7,idfa_8C85CDD1-6360-47C0-87DD-55C30DDC9013,ko
FocXQn_RTIaeGjGoUxhPeA,doglobal_api,966_10530966,install,1.7,180.70.232.5,2B49CDA8-1286-400A-9E25-CCFAA95D504C,1559183852,2019-05-30 10:37:32,1559183976,2019-05-30 10:39:36,1559184008,P_8fbbd0caac0cb123-OTY2Xy0xNDEyMTk0Ny0xNzAwLTE4NzAtMDUzMC0xMDUzMDk2Ni0,http://pb.xyz.duunion.com/conv?tid=P_8fbbd0caac0cb123-OTY2Xy0xNDEyMTk0Ny0xNzAwLTE4NzAtMDUzMC0xMDUzMDk2Ni0&adv_sectkn=55dea06a643eb8a2d267a735fe2683bd&adv_name=appier-api&payout=1.7,idfa_2B49CDA8-1286-400A-9E25-CCFAA95D504C,ko
FocXQn_RTIaeGjGoUxhPeA,doglobal_api,966_10530966,install,1.7,222.237.218.123,9767D986-7E71-4854-8614-30DB673B107B,1559185362,2019-05-30 11:02:42,1559185502,2019-05-30 11:05:02,1559185538,B_fda2e467328f315f-OTY2Xy0xNDEyMTk0Ny0xNzAwLTE4NzAtMDUzMC0xMDUzMDk2Ni0,http://pb.xyz.duunion.com/conv?tid=B_fda2e467328f315f-OTY2Xy0xNDEyMTk0Ny0xNzAwLTE4NzAtMDUzMC0xMDUzMDk2Ni0&adv_sectkn=55dea06a643eb8a2d267a735fe2683bd&adv_name=appier-api&payout=1.7,idfa_9767D986-7E71-4854-8614-30DB673B107B,ko
FocXQn_RTIaeGjGoUxhPeA,doglobal_api,966_10530966,install,1.7,125.184.8.77,83E5F0F2-E95C-4F74-8605-136B77255FD3,1559184516,2019-05-30 10:48:36,1559185287,2019-05-30 11:01:27,1559185318,B_1f1fcb0b7e391893-OTY2Xy0xNDEyMTk0Ny0xNzAwLTE4NzAtMDUzMC0xMDUzMDk2Ni0,http://pb.xyz.duunion.com/conv?tid=B_1f1fcb0b7e391893-OTY2Xy0xNDEyMTk0Ny0xNzAwLTE4NzAtMDUzMC0xMDUzMDk2Ni0&adv_sectkn=55dea06a643eb8a2d267a735fe2683bd&adv_name=appier-api&payout=1.7,idfa_83E5F0F2-E95C-4F74-8605-136B77255FD3,ko
FocXQn_RTIaeGjGoUxhPeA,doglobal_api,966_10530966,install,1.7,125.182.82.3,E1CEE1D0-3484-49E9-8518-278947E6BF78,1559183074,2019-05-30 10:24:34,1559183219,2019-05-30 10:26:59,1559183251,B_3ff4b526fe49aa85-OTY2Xy0xNDEyMTk0Ny0xNzAwLTE4NzAtMDUzMC0xMDUzMDk2Ni0,http://pb.xyz.duunion.com/conv?tid=B_3ff4b526fe49aa85-OTY2Xy0xNDEyMTk0Ny0xNzAwLTE4NzAtMDUzMC0xMDUzMDk2Ni0&adv_sectkn=55dea06a643eb8a2d267a735fe2683bd&adv_name=appier-api&payout=1.7,idfa_E1CEE1D0-3484-49E9-8518-278947E6BF78,ko
FocXQn_RTIaeGjGoUxhPeA,doglobal_api,966_10530966,install,1.7,115.92.7.130,DF2BF122-8A72-4FEE-9F2E-0F1D3D66C789,1559185932,2019-05-30 11:12:12,1559186047,2019-05-30 11:14:07,1559186078,P_b33a587922fa61d5-OTY2Xy0xNDEyMTk0Ny0xNzAwLTE4NzAtMDUzMC0xMDUzMDk2Ni0,http://pb.xyz.duunion.com/conv?tid=P_b33a587922fa61d5-OTY2Xy0xNDEyMTk0Ny0xNzAwLTE4NzAtMDUzMC0xMDUzMDk2Ni0&adv_sectkn=55dea06a643eb8a2d267a735fe2683bd&adv_name=appier-api&payout=1.7,idfa_DF2BF122-8A72-4FEE-9F2E-0F1D3D66C789,ko
FocXQn_RTIaeGjGoUxhPeA,doglobal_api,966_10530966,install,1.7,14.52.67.108,ED09043F-5D01-4876-81FE-9EB5186486C0,1559184053,2019-05-30 10:40:53,1559185286,2019-05-30 11:01:26,1559185317,B_90657ea6f1ac30ce-OTY2Xy0xNDEyMTk0Ny0xNzAwLTE4NzAtMDUzMC0xMDUzMDk2Ni0,http://pb.xyz.duunion.com/conv?tid=B_90657ea6f1ac30ce-OTY2Xy0xNDEyMTk0Ny0xNzAwLTE4NzAtMDUzMC0xMDUzMDk2Ni0&adv_sectkn=55dea06a643eb8a2d267a735fe2683bd&adv_name=appier-api&payout=1.7,idfa_ED09043F-5D01-4876-81FE-9EB5186486C0,ko
FocXQn_RTIaeGjGoUxhPeA,doglobal_api,966_10530966,install,1.7,203.252.55.179,2F89FF6E-A16E-4734-B931-2F1A58CFE7A1,1559183209,2019-05-30 10:26:49,1559183329,2019-05-30 10:28:49,1559183360,B_59a1ad3d18b69353-OTY2Xy0xNDEyMTk0Ny0xNzAwLTE4NzAtMDUzMC0xMDUzMDk2Ni0,http://pb.xyz.duunion.com/conv?tid=B_59a1ad3d18b69353-OTY2Xy0xNDEyMTk0Ny0xNzAwLTE4NzAtMDUzMC0xMDUzMDk2Ni0&adv_sectkn=55dea06a643eb8a2d267a735fe2683bd&adv_name=appier-api&payout=1.7,idfa_2F89FF6E-A16E-4734-B931-2F1A58CFE7A1,ko
FocXQn_RTIaeGjGoUxhPeA,doglobal_api,966_10530966,install,1.7,210.110.26.215,A062FA0D-0EA7-4BE1-92A0-6A16F25D0D1F,1559185910,2019-05-30 11:11:50,1559186050,2019-05-30 11:14:10,1559186081,B_54fc0a51abfcd092-OTY2Xy0xNDEyMTk0Ny0xNzAwLTE4NzAtMDUzMC0xMDUzMDk2Ni0,http://pb.xyz.duunion.com/conv?tid=B_54fc0a51abfcd092-OTY2Xy0xNDEyMTk0Ny0xNzAwLTE4NzAtMDUzMC0xMDUzMDk2Ni0&adv_sectkn=55dea06a643eb8a2d267a735fe2683bd&adv_name=appier-api&payout=1.7,idfa_A062FA0D-0EA7-4BE1-92A0-6A16F25D0D1F,ko
FocXQn_RTIaeGjGoUxhPeA,doglobal_api,966_10530966,install,1.7,112.187.211.32,34544E80-82D3-4CD1-B42F-9B5150CA31A7,1559184133,2019-05-30 10:42:13,1559185286,2019-05-30 11:01:26,1559185318,P_839afc10dd410dea-OTY2Xy0xNDEyMTk0Ny0xNzAwLTE4NzAtMDUzMC0xMDUzMDk2Ni0,http://pb.xyz.duunion.com/conv?tid=P_839afc10dd410dea-OTY2Xy0xNDEyMTk0Ny0xNzAwLTE4NzAtMDUzMC0xMDUzMDk2Ni0&adv_sectkn=55dea06a643eb8a2d267a735fe2683bd&adv_name=appier-api&payout=1.7,idfa_34544E80-82D3-4CD1-B42F-9B5150CA31A7,ko
FocXQn_RTIaeGjGoUxhPeA,doglobal_api,966_10530966,install,1.7,121.168.141.222,B140E6CA-525F-4EF7-912E-E8A38008BF1F,1559183642,2019-05-30 10:34:02,1559183789,2019-05-30 10:36:29,1559183825,B_b8f8bdbe67751e33-OTY2Xy0xNDEyMTk0Ny0xNzAwLTE4NzAtMDUzMC0xMDUzMDk2Ni0,http://pb.xyz.duunion.com/conv?tid=B_b8f8bdbe67751e33-OTY2Xy0xNDEyMTk0Ny0xNzAwLTE4NzAtMDUzMC0xMDUzMDk2Ni0&adv_sectkn=55dea06a643eb8a2d267a735fe2683bd&adv_name=appier-api&payout=1.7,idfa_B140E6CA-525F-4EF7-912E-E8A38008BF1F,ko
FocXQn_RTIaeGjGoUxhPeA,doglobal_api,966_10530966,install,1.7,221.154.117.166,4932280D-1FDB-45FC-97F4-0BB2FC5B6CAF,1559186178,2019-05-30 11:16:18,1559186289,2019-05-30 11:18:09,1559186320,B_c41bf08041671db9-OTY2Xy0xNDEyMTk0Ny0xNzAwLTE4NzAtMDUzMC0xMDUzMDk2Ni0,http://pb.xyz.duunion.com/conv?tid=B_c41bf08041671db9-OTY2Xy0xNDEyMTk0Ny0xNzAwLTE4NzAtMDUzMC0xMDUzMDk2Ni0&adv_sectkn=55dea06a643eb8a2d267a735fe2683bd&adv_name=appier-api&payout=1.7,idfa_4932280D-1FDB-45FC-97F4-0BB2FC5B6CAF,ko
FocXQn_RTIaeGjGoUxhPeA,doglobal_api,966_10530966,install,1.7,175.113.206.54,269E5710-8E33-4D71-897B-A15925C877CE,1559184159,2019-05-30 10:42:39,1559184295,2019-05-30 10:44:55,1559184332,B_bf2557181e1b424c-OTY2Xy0xNDEyMTk0Ny0xNzAwLTE4NzAtMDUzMC0xMDUzMDk2Ni0,http://pb.xyz.duunion.com/conv?tid=B_bf2557181e1b424c-OTY2Xy0xNDEyMTk0Ny0xNzAwLTE4NzAtMDUzMC0xMDUzMDk2Ni0&adv_sectkn=55dea06a643eb8a2d267a735fe2683bd&adv_name=appier-api&payout=1.7,idfa_269E5710-8E33-4D71-897B-A15925C877CE,ko
FocXQn_RTIaeGjGoUxhPeA,doglobal_api,966_10530966,install,1.7,59.13.152.227,D9DDFBF6-4609-4A57-95A7-3C90A2E24C51,1559183852,2019-05-30 10:37:32,1559183980,2019-05-30 10:39:40,1559184016,B_37ebdce95cb4548e-OTY2Xy0xNDEyMTk0Ny0xNzAwLTE4NzAtMDUzMC0xMDUzMDk2Ni0,http://pb.xyz.duunion.com/conv?tid=B_37ebdce95cb4548e-OTY2Xy0xNDEyMTk0Ny0xNzAwLTE4NzAtMDUzMC0xMDUzMDk2Ni0&adv_sectkn=55dea06a643eb8a2d267a735fe2683bd&adv_name=appier-api&payout=1.7,idfa_D9DDFBF6-4609-4A57-95A7-3C90A2E24C51,ko
FocXQn_RTIaeGjGoUxhPeA,doglobal_api,966_10530966,install,1.7,61.72.171.75,8D6316A0-3B44-4D91-B9BA-030372561469,1559185016,2019-05-30 10:56:56,1559185157,2019-05-30 10:59:17,1559185198,B_197476d36ae2eb1d-OTY2Xy0xNDEyMTk0Ny0xNzAwLTE4NzAtMDUzMC0xMDUzMDk2Ni0,http://pb.xyz.duunion.com/conv?tid=B_197476d36ae2eb1d-OTY2Xy0xNDEyMTk0Ny0xNzAwLTE4NzAtMDUzMC0xMDUzMDk2Ni0&adv_sectkn=55dea06a643eb8a2d267a735fe2683bd&adv_name=appier-api&payout=1.7,idfa_8D6316A0-3B44-4D91-B9BA-030372561469,ko
FocXQn_RTIaeGjGoUxhPeA,doglobal_api,966_10530966,install,1.7,1.242.66.37,088D1482-3149-44C6-9B56-B6C84840E4DB,1559185424,2019-05-30 11:03:44,1559185535,2019-05-30 11:05:35,1559185566,B_f49733b8ffcd6ea2-OTY2Xy0xNDEyMTk0Ny0xNzAwLTE4NzAtMDUzMC0xMDUzMDk2Ni0,http://pb.xyz.duunion.com/conv?tid=B_f49733b8ffcd6ea2-OTY2Xy0xNDEyMTk0Ny0xNzAwLTE4NzAtMDUzMC0xMDUzMDk2Ni0&adv_sectkn=55dea06a643eb8a2d267a735fe2683bd&adv_name=appier-api&payout=1.7,idfa_088D1482-3149-44C6-9B56-B6C84840E4DB,ko
FocXQn_RTIaeGjGoUxhPeA,doglobal_api,966_10530966,install,1.7,221.146.63.229,06C219EB-2908-43C8-BF9F-0E600A976CF8,1559183574,2019-05-30 10:32:54,1559183682,2019-05-30 10:34:42,1559183715,P_fbba89b347b24f54-OTY2Xy0xNDEyMTk0Ny0xNzAwLTE4NzAtMDUzMC0xMDUzMDk2Ni0,http://pb.xyz.duunion.com/conv?tid=P_fbba89b347b24f54-OTY2Xy0xNDEyMTk0Ny0xNzAwLTE4NzAtMDUzMC0xMDUzMDk2Ni0&adv_sectkn=55dea06a643eb8a2d267a735fe2683bd&adv_name=appier-api&payout=1.7,idfa_06C219EB-2908-43C8-BF9F-0E600A976CF8,ko
FocXQn_RTIaeGjGoUxhPeA,doglobal_api,966_10530966,install,1.7,175.212.212.189,44CAE9C4-CA70-422B-BA9F-FB310588738D,1559184858,2019-05-30 10:54:18,1559184989,2019-05-30 10:56:29,1559185026,P_3087b2ddde1299c4-OTY2Xy0xNDEyMTk0Ny0xNzAwLTE4NzAtMDUzMC0xMDUzMDk2Ni0,http://pb.xyz.duunion.com/conv?tid=P_3087b2ddde1299c4-OTY2Xy0xNDEyMTk0Ny0xNzAwLTE4NzAtMDUzMC0xMDUzMDk2Ni0&adv_sectkn=55dea06a643eb8a2d267a735fe2683bd&adv_name=appier-api&payout=1.7,idfa_44CAE9C4-CA70-422B-BA9F-FB310588738D,ko
FocXQn_RTIaeGjGoUxhPeA,doglobal_api,966_10530966,install,1.7,222.100.181.107,21B81ADB-BA1D-430D-BDA5-A56C6309AD26,1559184278,2019-05-30 10:44:38,1559184411,2019-05-30 10:46:51,1559184448,P_07edf650f1bf9cdf-OTY2Xy0xNDEyMTk0Ny0xNzAwLTE4NzAtMDUzMC0xMDUzMDk2Ni0,http://pb.xyz.duunion.com/conv?tid=P_07edf650f1bf9cdf-OTY2Xy0xNDEyMTk0Ny0xNzAwLTE4NzAtMDUzMC0xMDUzMDk2Ni0&adv_sectkn=55dea06a643eb8a2d267a735fe2683bd&adv_name=appier-api&payout=1.7,idfa_21B81ADB-BA1D-430D-BDA5-A56C6309AD26,ko
FocXQn_RTIaeGjGoUxhPeA,doglobal_api,966_10530966,install,1.7,106.244.123.216,A00321D5-E3A9-4C44-9AB7-1C36411B0612,1559185621,2019-05-30 11:07:01,1559185729,2019-05-30 11:08:49,1559185759,P_442ea8b252f1f263-OTY2Xy0xNDEyMTk0Ny0xNzAwLTE4NzAtMDUzMC0xMDUzMDk2Ni0,http://pb.xyz.duunion.com/conv?tid=P_442ea8b252f1f263-OTY2Xy0xNDEyMTk0Ny0xNzAwLTE4NzAtMDUzMC0xMDUzMDk2Ni0&adv_sectkn=55dea06a643eb8a2d267a735fe2683bd&adv_name=appier-api&payout=1.7,idfa_A00321D5-E3A9-4C44-9AB7-1C36411B0612,ko
FocXQn_RTIaeGjGoUxhPeA,doglobal_api,966_10530966,install,1.7,222.118.42.32,A3ED44EB-A3AD-44EA-8EFF-3834F7DEEF3F,1559183089,2019-05-30 10:24:49,1559183201,2019-05-30 10:26:41,1559183232,B_5265c4a99f29c644-OTY2Xy0xNDEyMTk0Ny0xNzAwLTE4NzAtMDUzMC0xMDUzMDk2Ni0,http://pb.xyz.duunion.com/conv?tid=B_5265c4a99f29c644-OTY2Xy0xNDEyMTk0Ny0xNzAwLTE4NzAtMDUzMC0xMDUzMDk2Ni0&adv_sectkn=55dea06a643eb8a2d267a735fe2683bd&adv_name=appier-api&payout=1.7,idfa_A3ED44EB-A3AD-44EA-8EFF-3834F7DEEF3F,ko
FocXQn_RTIaeGjGoUxhPeA,doglobal_api,966_10530966,install,1.7,118.36.214.72,C4E8B60F-3C62-49BD-B57E-0ACE008C37E2,1559183610,2019-05-30 10:33:30,1559183714,2019-05-30 10:35:14,1559183745,P_00d2ca0aa39364d5-OTY2Xy0xNDEyMTk0Ny0xNzAwLTE4NzAtMDUzMC0xMDUzMDk2Ni0,http://pb.xyz.duunion.com/conv?tid=P_00d2ca0aa39364d5-OTY2Xy0xNDEyMTk0Ny0xNzAwLTE4NzAtMDUzMC0xMDUzMDk2Ni0&adv_sectkn=55dea06a643eb8a2d267a735fe2683bd&adv_name=appier-api&payout=1.7,idfa_C4E8B60F-3C62-49BD-B57E-0ACE008C37E2,ko
FocXQn_RTIaeGjGoUxhPeA,doglobal_api,966_10530966,install,1.7,61.34.195.185,AA057557-C164-4C34-957F-8B930F0BA83B,1559184546,2019-05-30 10:49:06,1559185286,2019-05-30 11:01:26,1559185317,B_340c09674165a6cb-OTY2Xy0xNDEyMTk0Ny0xNzAwLTE4NzAtMDUzMC0xMDUzMDk2Ni0,http://pb.xyz.duunion.com/conv?tid=B_340c09674165a6cb-OTY2Xy0xNDEyMTk0Ny0xNzAwLTE4NzAtMDUzMC0xMDUzMDk2Ni0&adv_sectkn=55dea06a643eb8a2d267a735fe2683bd&adv_name=appier-api&payout=1.7,idfa_AA057557-C164-4C34-957F-8B930F0BA83B,ko
FocXQn_RTIaeGjGoUxhPeA,doglobal_api,966_10530966,install,1.7,59.28.47.75,CAFFDAE7-981B-461C-B63D-6866818D58F1,1559183629,2019-05-30 10:33:49,1559183748,2019-05-30 10:35:48,1559183781,P_856435d582c3e7e7-OTY2Xy0xNDEyMTk0Ny0xNzAwLTE4NzAtMDUzMC0xMDUzMDk2Ni0,http://pb.xyz.duunion.com/conv?tid=P_856435d582c3e7e7-OTY2Xy0xNDEyMTk0Ny0xNzAwLTE4NzAtMDUzMC0xMDUzMDk2Ni0&adv_sectkn=55dea06a643eb8a2d267a735fe2683bd&adv_name=appier-api&payout=1.7,idfa_CAFFDAE7-981B-461C-B63D-6866818D58F1,ko
FocXQn_RTIaeGjGoUxhPeA,doglobal_api,966_10530966,install,1.7,119.203.79.86,7FD0863B-DB37-40A8-85A6-03C649C310E7,1559186353,2019-05-30 11:19:13,1559186485,2019-05-30 11:21:25,1559186520,P_e976de65b9a95e45-OTY2Xy0xNDEyMTk0Ny0xNzAwLTE4NzAtMDUzMC0xMDUzMDk2Ni0,http://pb.xyz.duunion.com/conv?tid=P_e976de65b9a95e45-OTY2Xy0xNDEyMTk0Ny0xNzAwLTE4NzAtMDUzMC0xMDUzMDk2Ni0&adv_sectkn=55dea06a643eb8a2d267a735fe2683bd&adv_name=appier-api&payout=1.7,idfa_7FD0863B-DB37-40A8-85A6-03C649C310E7,ko
FocXQn_RTIaeGjGoUxhPeA,doglobal_api,966_10530966,install,1.7,61.73.164.140,6D3CE270-306F-4E8E-A258-0FDC07231693,1559183187,2019-05-30 10:26:27,1559183292,2019-05-30 10:28:12,1559183337,P_a3932264fe406ffc-OTY2Xy0xNDEyMTk0Ny0xNzAwLTE4NzAtMDUzMC0xMDUzMDk2Ni0,http://pb.xyz.duunion.com/conv?tid=P_a3932264fe406ffc-OTY2Xy0xNDEyMTk0Ny0xNzAwLTE4NzAtMDUzMC0xMDUzMDk2Ni0&adv_sectkn=55dea06a643eb8a2d267a735fe2683bd&adv_name=appier-api&payout=1.7,idfa_6D3CE270-306F-4E8E-A258-0FDC07231693,ko
FocXQn_RTIaeGjGoUxhPeA,doglobal_api,966_10530966,install,1.7,210.117.165.193,30B1A4BC-575D-4346-AF55-4671C313AD8D,1559183731,2019-05-30 10:35:31,1559183876,2019-05-30 10:37:56,1559183913,B_93dd5999f6b56940-OTY2Xy0xNDEyMTk0Ny0xNzAwLTE4NzAtMDUzMC0xMDUzMDk2Ni0,http://pb.xyz.duunion.com/conv?tid=B_93dd5999f6b56940-OTY2Xy0xNDEyMTk0Ny0xNzAwLTE4NzAtMDUzMC0xMDUzMDk2Ni0&adv_sectkn=55dea06a643eb8a2d267a735fe2683bd&adv_name=appier-api&payout=1.7,idfa_30B1A4BC-575D-4346-AF55-4671C313AD8D,ko
FocXQn_RTIaeGjGoUxhPeA,doglobal_api,966_10530966,install,1.7,118.41.33.33,2BDC1FAA-85B3-4E18-8E29-D2B0AC472006,1559185366,2019-05-30 11:02:46,1559185494,2019-05-30 11:04:54,1559185536,B_cbdad8b1ec28f2a6-OTY2Xy0xNDEyMTk0Ny0xNzAwLTE4NzAtMDUzMC0xMDUzMDk2Ni0,http://pb.xyz.duunion.com/conv?tid=B_cbdad8b1ec28f2a6-OTY2Xy0xNDEyMTk0Ny0xNzAwLTE4NzAtMDUzMC0xMDUzMDk2Ni0&adv_sectkn=55dea06a643eb8a2d267a735fe2683bd&adv_name=appier-api&payout=1.7,idfa_2BDC1FAA-85B3-4E18-8E29-D2B0AC472006,ko
FocXQn_RTIaeGjGoUxhPeA,doglobal_api,966_10530966,install,1.7,221.149.104.247,22B5C3B5-E92A-4C00-97EB-9385E467CDAF,1559185647,2019-05-30 11:07:27,1559185774,2019-05-30 11:09:34,1559185805,B_e395e61f4d0c7164-OTY2Xy0xNDEyMTk0Ny0xNzAwLTE4NzAtMDUzMC0xMDUzMDk2Ni0,http://pb.xyz.duunion.com/conv?tid=B_e395e61f4d0c7164-OTY2Xy0xNDEyMTk0Ny0xNzAwLTE4NzAtMDUzMC0xMDUzMDk2Ni0&adv_sectkn=55dea06a643eb8a2d267a735fe2683bd&adv_name=appier-api&payout=1.7,idfa_22B5C3B5-E92A-4C00-97EB-9385E467CDAF,ko
FocXQn_RTIaeGjGoUxhPeA,doglobal_api,966_10530966,install,1.7,61.84.30.82,05FE18EA-C29B-41D0-94D1-7F4F3E38F088,1559186130,2019-05-30 11:15:30,1559186254,2019-05-30 11:17:34,1559186285,P_0684e2d23561dcb4-OTY2Xy0xNDEyMTk0Ny0xNzAwLTE4NzAtMDUzMC0xMDUzMDk2Ni0,http://pb.xyz.duunion.com/conv?tid=P_0684e2d23561dcb4-OTY2Xy0xNDEyMTk0Ny0xNzAwLTE4NzAtMDUzMC0xMDUzMDk2Ni0&adv_sectkn=55dea06a643eb8a2d267a735fe2683bd&adv_name=appier-api&payout=1.7,idfa_05FE18EA-C29B-41D0-94D1-7F4F3E38F088,ko
FocXQn_RTIaeGjGoUxhPeA,doglobal_api,966_10530966,install,1.7,59.3.230.230,CEFC00CA-890C-4A33-893C-7F61F63A1AF4,1559185934,2019-05-30 11:12:14,1559186041,2019-05-30 11:14:01,1559186072,P_5c98901f0b79593d-OTY2Xy0xNDEyMTk0Ny0xNzAwLTE4NzAtMDUzMC0xMDUzMDk2Ni0,http://pb.xyz.duunion.com/conv?tid=P_5c98901f0b79593d-OTY2Xy0xNDEyMTk0Ny0xNzAwLTE4NzAtMDUzMC0xMDUzMDk2Ni0&adv_sectkn=55dea06a643eb8a2d267a735fe2683bd&adv_name=appier-api&payout=1.7,idfa_CEFC00CA-890C-4A33-893C-7F61F63A1AF4,ko
FocXQn_RTIaeGjGoUxhPeA,doglobal_api,966_10530966,install,1.7,112.167.5.108,80339C2C-F8CB-4406-A98A-255B52AE2DD5,1559186087,2019-05-30 11:14:47,1559186214,2019-05-30 11:16:54,1559186249,P_8431924de752d1e7-OTY2Xy0xNDEyMTk0Ny0xNzAwLTE4NzAtMDUzMC0xMDUzMDk2Ni0,http://pb.xyz.duunion.com/conv?tid=P_8431924de752d1e7-OTY2Xy0xNDEyMTk0Ny0xNzAwLTE4NzAtMDUzMC0xMDUzMDk2Ni0&adv_sectkn=55dea06a643eb8a2d267a735fe2683bd&adv_name=appier-api&payout=1.7,idfa_80339C2C-F8CB-4406-A98A-255B52AE2DD5,ko
FocXQn_RTIaeGjGoUxhPeA,doglobal_api,966_10530966,install,1.7,49.164.164.236,356D3C23-73EF-4CC6-B697-78C3B92ED5AD,1559183130,2019-05-30 10:25:30,1559183272,2019-05-30 10:27:52,1559183303,P_c40a11f176e6b9ba-OTY2Xy0xNDEyMTk0Ny0xNzAwLTE4NzAtMDUzMC0xMDUzMDk2Ni0,http://pb.xyz.duunion.com/conv?tid=P_c40a11f176e6b9ba-OTY2Xy0xNDEyMTk0Ny0xNzAwLTE4NzAtMDUzMC0xMDUzMDk2Ni0&adv_sectkn=55dea06a643eb8a2d267a735fe2683bd&adv_name=appier-api&payout=1.7,idfa_356D3C23-73EF-4CC6-B697-78C3B92ED5AD,ko
FocXQn_RTIaeGjGoUxhPeA,doglobal_api,966_10530966,install,1.7,116.32.212.130,CE028F47-19A2-40AC-861F-C2DDC13ABD7C,1559184302,2019-05-30 10:45:02,1559185283,2019-05-30 11:01:23,1559185316,P_8d61b48b13756215-OTY2Xy0xNDEyMTk0Ny0xNzAwLTE4NzAtMDUzMC0xMDUzMDk2Ni0,http://pb.xyz.duunion.com/conv?tid=P_8d61b48b13756215-OTY2Xy0xNDEyMTk0Ny0xNzAwLTE4NzAtMDUzMC0xMDUzMDk2Ni0&adv_sectkn=55dea06a643eb8a2d267a735fe2683bd&adv_name=appier-api&payout=1.7,idfa_CE028F47-19A2-40AC-861F-C2DDC13ABD7C,ko
FocXQn_RTIaeGjGoUxhPeA,doglobal_api,966_10530966,install,1.7,221.150.43.98,6419B02D-23F0-42B1-88A7-369E046F76D4,1559186103,2019-05-30 11:15:03,1559186249,2019-05-30 11:17:29,1559186287,P_a4762b98c6af3908-OTY2Xy0xNDEyMTk0Ny0xNzAwLTE4NzAtMDUzMC0xMDUzMDk2Ni0,http://pb.xyz.duunion.com/conv?tid=P_a4762b98c6af3908-OTY2Xy0xNDEyMTk0Ny0xNzAwLTE4NzAtMDUzMC0xMDUzMDk2Ni0&adv_sectkn=55dea06a643eb8a2d267a735fe2683bd&adv_name=appier-api&payout=1.7,idfa_6419B02D-23F0-42B1-88A7-369E046F76D4,ko
FocXQn_RTIaeGjGoUxhPeA,doglobal_api,966_10530966,install,1.7,61.34.195.185,3E6EF40D-38A4-43AD-A113-F2B81B00EA12,1559185653,2019-05-30 11:07:33,1559185771,2019-05-30 11:09:31,1559185802,P_a7dc30f87f25060a-OTY2Xy0xNDEyMTk0Ny0xNzAwLTE4NzAtMDUzMC0xMDUzMDk2Ni0,http://pb.xyz.duunion.com/conv?tid=P_a7dc30f87f25060a-OTY2Xy0xNDEyMTk0Ny0xNzAwLTE4NzAtMDUzMC0xMDUzMDk2Ni0&adv_sectkn=55dea06a643eb8a2d267a735fe2683bd&adv_name=appier-api&payout=1.7,idfa_3E6EF40D-38A4-43AD-A113-F2B81B00EA12,ko
FocXQn_RTIaeGjGoUxhPeA,doglobal_api,966_10530966,install,1.7,58.74.80.227,177ABBAC-BC87-476F-B5C2-33E9CE370A8D,1559184218,2019-05-30 10:43:38,1559184350,2019-05-30 10:45:50,1559184385,B_9f318d9ab722bc3b-OTY2Xy0xNDEyMTk0Ny0xNzAwLTE4NzAtMDUzMC0xMDUzMDk2Ni0,http://pb.xyz.duunion.com/conv?tid=B_9f318d9ab722bc3b-OTY2Xy0xNDEyMTk0Ny0xNzAwLTE4NzAtMDUzMC0xMDUzMDk2Ni0&adv_sectkn=55dea06a643eb8a2d267a735fe2683bd&adv_name=appier-api&payout=1.7,idfa_177ABBAC-BC87-476F-B5C2-33E9CE370A8D,ko
FocXQn_RTIaeGjGoUxhPeA,doglobal_api,966_10530966,install,1.7,115.93.14.196,B47BE5C8-FFFC-4587-A3EA-8A10AFB45315,1559184158,2019-05-30 10:42:38,1559185286,2019-05-30 11:01:26,1559185316,B_e2163cdeb448c9dc-OTY2Xy0xNDEyMTk0Ny0xNzAwLTE4NzAtMDUzMC0xMDUzMDk2Ni0,http://pb.xyz.duunion.com/conv?tid=B_e2163cdeb448c9dc-OTY2Xy0xNDEyMTk0Ny0xNzAwLTE4NzAtMDUzMC0xMDUzMDk2Ni0&adv_sectkn=55dea06a643eb8a2d267a735fe2683bd&adv_name=appier-api&payout=1.7,idfa_B47BE5C8-FFFC-4587-A3EA-8A10AFB45315,ko
FocXQn_RTIaeGjGoUxhPeA,doglobal_api,966_10530966,install,1.7,61.36.140.132,C4F303CC-AC33-4A98-9023-E686B8568665,1559183550,2019-05-30 10:32:30,1559183658,2019-05-30 10:34:18,1559183690,B_b389d498a76e19bb-OTY2Xy0xNDEyMTk0Ny0xNzAwLTE4NzAtMDUzMC0xMDUzMDk2Ni0,http://pb.xyz.duunion.com/conv?tid=B_b389d498a76e19bb-OTY2Xy0xNDEyMTk0Ny0xNzAwLTE4NzAtMDUzMC0xMDUzMDk2Ni0&adv_sectkn=55dea06a643eb8a2d267a735fe2683bd&adv_name=appier-api&payout=1.7,idfa_C4F303CC-AC33-4A98-9023-E686B8568665,ko
FocXQn_RTIaeGjGoUxhPeA,doglobal_api,966_10530966,install,1.7,121.169.145.1,C87C1046-7E83-4EA5-BF63-59ED35246F5B,1559183230,2019-05-30 10:27:10,1559183332,2019-05-30 10:28:52,1559183368,B_0b6f1d5e6d7325b0-OTY2Xy0xNDEyMTk0Ny0xNzAwLTE4NzAtMDUzMC0xMDUzMDk2Ni0,http://pb.xyz.duunion.com/conv?tid=B_0b6f1d5e6d7325b0-OTY2Xy0xNDEyMTk0Ny0xNzAwLTE4NzAtMDUzMC0xMDUzMDk2Ni0&adv_sectkn=55dea06a643eb8a2d267a735fe2683bd&adv_name=appier-api&payout=1.7,idfa_C87C1046-7E83-4EA5-BF63-59ED35246F5B,ko
FocXQn_RTIaeGjGoUxhPeA,doglobal_api,966_10530966,install,1.7,14.47.180.183,9C072F12-F694-4703-9007-3BC0DF39AF07,1559183522,2019-05-30 10:32:02,1559183660,2019-05-30 10:34:20,1559183690,P_3e67d0cfecce22e6-OTY2Xy0xNDEyMTk0Ny0xNzAwLTE4NzAtMDUzMC0xMDUzMDk2Ni0,http://pb.xyz.duunion.com/conv?tid=P_3e67d0cfecce22e6-OTY2Xy0xNDEyMTk0Ny0xNzAwLTE4NzAtMDUzMC0xMDUzMDk2Ni0&adv_sectkn=55dea06a643eb8a2d267a735fe2683bd&adv_name=appier-api&payout=1.7,idfa_9C072F12-F694-4703-9007-3BC0DF39AF07,ko
FocXQn_RTIaeGjGoUxhPeA,doglobal_api,966_10530966,install,1.7,112.150.224.2,DB2D9B1F-9A32-4754-88BA-3E715A6DEFDE,1559184155,2019-05-30 10:42:35,1559185282,2019-05-30 11:01:22,1559185313,P_8417fa9314096f05-OTY2Xy0xNDEyMTk0Ny0xNzAwLTE4NzAtMDUzMC0xMDUzMDk2Ni0,http://pb.xyz.duunion.com/conv?tid=P_8417fa9314096f05-OTY2Xy0xNDEyMTk0Ny0xNzAwLTE4NzAtMDUzMC0xMDUzMDk2Ni0&adv_sectkn=55dea06a643eb8a2d267a735fe2683bd&adv_name=appier-api&payout=1.7,idfa_DB2D9B1F-9A32-4754-88BA-3E715A6DEFDE,ko
FocXQn_RTIaeGjGoUxhPeA,doglobal_api,966_10530966,install,1.7,106.244.123.216,FED3B067-0F2B-4036-A30F-C2471D58D7EF,1559184111,2019-05-30 10:41:51,1559185281,2019-05-30 11:01:21,1559185350,B_a196717b49c61cdd-OTY2Xy0xNDEyMTk0Ny0xNzAwLTE4NzAtMDUzMC0xMDUzMDk2Ni0,http://pb.xyz.duunion.com/conv?tid=B_a196717b49c61cdd-OTY2Xy0xNDEyMTk0Ny0xNzAwLTE4NzAtMDUzMC0xMDUzMDk2Ni0&adv_sectkn=55dea06a643eb8a2d267a735fe2683bd&adv_name=appier-api&payout=1.7,idfa_FED3B067-0F2B-4036-A30F-C2471D58D7EF,ko
FocXQn_RTIaeGjGoUxhPeA,doglobal_api,966_10530966,install,1.7,118.36.64.9,D26A9C3B-306A-4F09-93DA-408C2D2007A7,1559183144,2019-05-30 10:25:44,1559183258,2019-05-30 10:27:38,1559183288,P_9b3e04224a2f777c-OTY2Xy0xNDEyMTk0Ny0xNzAwLTE4NzAtMDUzMC0xMDUzMDk2Ni0,http://pb.xyz.duunion.com/conv?tid=P_9b3e04224a2f777c-OTY2Xy0xNDEyMTk0Ny0xNzAwLTE4NzAtMDUzMC0xMDUzMDk2Ni0&adv_sectkn=55dea06a643eb8a2d267a735fe2683bd&adv_name=appier-api&payout=1.7,idfa_D26A9C3B-306A-4F09-93DA-408C2D2007A7,ko
FocXQn_RTIaeGjGoUxhPeA,doglobal_api,966_10530966,install,1.7,121.66.103.237,BB5800EC-BCE4-49CC-A25F-6DF13F43460A,1559183032,2019-05-30 10:23:52,1559183173,2019-05-30 10:26:13,1559183203,P_ecf50bdfd5b8b7bc-OTY2Xy0xNDEyMTk0Ny0xNzAwLTE4NzAtMDUzMC0xMDUzMDk2Ni0,http://pb.xyz.duunion.com/conv?tid=P_ecf50bdfd5b8b7bc-OTY2Xy0xNDEyMTk0Ny0xNzAwLTE4NzAtMDUzMC0xMDUzMDk2Ni0&adv_sectkn=55dea06a643eb8a2d267a735fe2683bd&adv_name=appier-api&payout=1.7,idfa_BB5800EC-BCE4-49CC-A25F-6DF13F43460A,ko
FocXQn_RTIaeGjGoUxhPeA,doglobal_api,966_10530966,install,1.7,218.152.14.48,381C569F-9BBF-4339-9C78-935216E4AEDF,1559185935,2019-05-30 11:12:15,1559186047,2019-05-30 11:14:07,1559186077,P_32318361ff65650a-OTY2Xy0xNDEyMTk0Ny0xNzAwLTE4NzAtMDUzMC0xMDUzMDk2Ni0,http://pb.xyz.duunion.com/conv?tid=P_32318361ff65650a-OTY2Xy0xNDEyMTk0Ny0xNzAwLTE4NzAtMDUzMC0xMDUzMDk2Ni0&adv_sectkn=55dea06a643eb8a2d267a735fe2683bd&adv_name=appier-api&payout=1.7,idfa_381C569F-9BBF-4339-9C78-935216E4AEDF,ko
FocXQn_RTIaeGjGoUxhPeA,doglobal_api,966_10530966,install,1.7,121.190.91.13,49C5B6AF-2A53-4829-9B64-FB86C7C55912,1559183134,2019-05-30 10:25:34,1559183254,2019-05-30 10:27:34,1559183285,B_7b424e7a9a903db2-OTY2Xy0xNDEyMTk0Ny0xNzAwLTE4NzAtMDUzMC0xMDUzMDk2Ni0,http://pb.xyz.duunion.com/conv?tid=B_7b424e7a9a903db2-OTY2Xy0xNDEyMTk0Ny0xNzAwLTE4NzAtMDUzMC0xMDUzMDk2Ni0&adv_sectkn=55dea06a643eb8a2d267a735fe2683bd&adv_name=appier-api&payout=1.7,idfa_49C5B6AF-2A53-4829-9B64-FB86C7C55912,ko
FocXQn_RTIaeGjGoUxhPeA,doglobal_api,966_10530966,install,1.7,211.180.27.82,0AE9E85A-2685-4051-97DC-D0A3E5F5A6A6,1559183628,2019-05-30 10:33:48,1559183736,2019-05-30 10:35:36,1559183768,B_2a9421fd97724480-OTY2Xy0xNDEyMTk0Ny0xNzAwLTE4NzAtMDUzMC0xMDUzMDk2Ni0,http://pb.xyz.duunion.com/conv?tid=B_2a9421fd97724480-OTY2Xy0xNDEyMTk0Ny0xNzAwLTE4NzAtMDUzMC0xMDUzMDk2Ni0&adv_sectkn=55dea06a643eb8a2d267a735fe2683bd&adv_name=appier-api&payout=1.7,idfa_0AE9E85A-2685-4051-97DC-D0A3E5F5A6A6,ko
FocXQn_RTIaeGjGoUxhPeA,doglobal_api,966_10530966,install,1.7,1.221.167.227,1F333D65-5687-483E-83D4-5C4E794A5B38,1559185870,2019-05-30 11:11:10,1559185996,2019-05-30 11:13:16,1559186033,P_847c2d3d6ecc0399-OTY2Xy0xNDEyMTk0Ny0xNzAwLTE4NzAtMDUzMC0xMDUzMDk2Ni0,http://pb.xyz.duunion.com/conv?tid=P_847c2d3d6ecc0399-OTY2Xy0xNDEyMTk0Ny0xNzAwLTE4NzAtMDUzMC0xMDUzMDk2Ni0&adv_sectkn=55dea06a643eb8a2d267a735fe2683bd&adv_name=appier-api&payout=1.7,idfa_1F333D65-5687-483E-83D4-5C4E794A5B38,ko
FocXQn_RTIaeGjGoUxhPeA,doglobal_api,966_10530966,install,1.7,115.88.35.82,A7DEA6E2-4347-4361-AEDC-87A6FBD4571C,1559185932,2019-05-30 11:12:12,1559186076,2019-05-30 11:14:36,1559186116,B_470b18e908293d4a-OTY2Xy0xNDEyMTk0Ny0xNzAwLTE4NzAtMDUzMC0xMDUzMDk2Ni0,http://pb.xyz.duunion.com/conv?tid=B_470b18e908293d4a-OTY2Xy0xNDEyMTk0Ny0xNzAwLTE4NzAtMDUzMC0xMDUzMDk2Ni0&adv_sectkn=55dea06a643eb8a2d267a735fe2683bd&adv_name=appier-api&payout=1.7,idfa_A7DEA6E2-4347-4361-AEDC-87A6FBD4571C,ko
FocXQn_RTIaeGjGoUxhPeA,doglobal_api,966_10530966,install,1.7,220.116.44.202,CD92A967-B4A0-4549-9C99-B186021E309B,1559183220,2019-05-30 10:27:00,1559183366,2019-05-30 10:29:26,1559183399,B_6a54d7460f70d6af-OTY2Xy0xNDEyMTk0Ny0xNzAwLTE4NzAtMDUzMC0xMDUzMDk2Ni0,http://pb.xyz.duunion.com/conv?tid=B_6a54d7460f70d6af-OTY2Xy0xNDEyMTk0Ny0xNzAwLTE4NzAtMDUzMC0xMDUzMDk2Ni0&adv_sectkn=55dea06a643eb8a2d267a735fe2683bd&adv_name=appier-api&payout=1.7,idfa_CD92A967-B4A0-4549-9C99-B186021E309B,ko
FocXQn_RTIaeGjGoUxhPeA,doglobal_api,966_10530966,install,1.7,14.32.74.107,2FA7C51D-874A-4C09-9758-C8CDB12304F8,1559184764,2019-05-30 10:52:44,1559185299,2019-05-30 11:01:39,1559185330,B_22fb0ebf0fc25f04-OTY2Xy0xNDEyMTk0Ny0xNzAwLTE4NzAtMDUzMC0xMDUzMDk2Ni0,http://pb.xyz.duunion.com/conv?tid=B_22fb0ebf0fc25f04-OTY2Xy0xNDEyMTk0Ny0xNzAwLTE4NzAtMDUzMC0xMDUzMDk2Ni0&adv_sectkn=55dea06a643eb8a2d267a735fe2683bd&adv_name=appier-api&payout=1.7,idfa_2FA7C51D-874A-4C09-9758-C8CDB12304F8,ko
FocXQn_RTIaeGjGoUxhPeA,doglobal_api,966_10530966,install,1.7,121.190.91.13,8F9C78D8-739C-4FC3-8C50-1AC0CD0D1E65,1559185937,2019-05-30 11:12:17,1559186044,2019-05-30 11:14:04,1559186075,B_e2c79d4edd72854e-OTY2Xy0xNDEyMTk0Ny0xNzAwLTE4NzAtMDUzMC0xMDUzMDk2Ni0,http://pb.xyz.duunion.com/conv?tid=B_e2c79d4edd72854e-OTY2Xy0xNDEyMTk0Ny0xNzAwLTE4NzAtMDUzMC0xMDUzMDk2Ni0&adv_sectkn=55dea06a643eb8a2d267a735fe2683bd&adv_name=appier-api&payout=1.7,idfa_8F9C78D8-739C-4FC3-8C50-1AC0CD0D1E65,ko
FocXQn_RTIaeGjGoUxhPeA,doglobal_api,966_10530966,install,1.7,121.136.198.229,C1287CC9-0B4C-45AC-875C-9DE4E3EE5229,1559185579,2019-05-30 11:06:19,1559185715,2019-05-30 11:08:35,1559185753,P_41acb2b4a7b26f79-OTY2Xy0xNDEyMTk0Ny0xNzAwLTE4NzAtMDUzMC0xMDUzMDk2Ni0,http://pb.xyz.duunion.com/conv?tid=P_41acb2b4a7b26f79-OTY2Xy0xNDEyMTk0Ny0xNzAwLTE4NzAtMDUzMC0xMDUzMDk2Ni0&adv_sectkn=55dea06a643eb8a2d267a735fe2683bd&adv_name=appier-api&payout=1.7,idfa_C1287CC9-0B4C-45AC-875C-9DE4E3EE5229,ko
