cid,partner_id,channel_id,action_id,cpi,ip,idfa,click time,click datetime,install time,install datetime,postback time,click id,postback url,unique user id
LjzTthiSQRSnMDwvZeO_HQ,doglobal_api,936_10522936,install,2.5,36.228.151.251,F6215071-CC8C-4048-9C8F-09D736475F2C,1558459418,2019-05-22 01:23:38,1558459485,2019-05-22 01:24:45,1558459515,P_09e244f8fcc72c9b-OTM2Xy0xMjUzNTI1NC0yNTAwLTMyNTAtMDUyMi0xMDUyMjkzNi0,http://pb.xyz.duunion.com/conv?tid=P_09e244f8fcc72c9b-OTM2Xy0xMjUzNTI1NC0yNTAwLTMyNTAtMDUyMi0xMDUyMjkzNi0&adv_sectkn=55dea06a643eb8a2d267a735fe2683bd&adv_name=appier-api&payout=2.5,idfa_F6215071-CC8C-4048-9C8F-09D736475F2C,zh
LjzTthiSQRSnMDwvZeO_HQ,doglobal_api,936_10522936,install,2.5,118.170.107.232,59143B22-FBA9-4F0E-BACD-C411785CCA72,1558458546,2019-05-22 01:09:06,1558458616,2019-05-22 01:10:16,1558458647,P_a15c53f06ee16df0-OTM2Xy0xMjUzNTI1NC0yNTAwLTMyNTAtMDUyMi0xMDUyMjkzNi0,http://pb.xyz.duunion.com/conv?tid=P_a15c53f06ee16df0-OTM2Xy0xMjUzNTI1NC0yNTAwLTMyNTAtMDUyMi0xMDUyMjkzNi0&adv_sectkn=55dea06a643eb8a2d267a735fe2683bd&adv_name=appier-api&payout=2.5,idfa_59143B22-FBA9-4F0E-BACD-C411785CCA72,zh
LjzTthiSQRSnMDwvZeO_HQ,doglobal_api,936_10522936,install,2.5,61.223.52.167,C98405A6-2997-4913-A41F-437E9E7B29E9,1558459452,2019-05-22 01:24:12,1558459520,2019-05-22 01:25:20,1558459550,P_17121346fb0330da-OTM2Xy0xMjUzNTI1NC0yNTAwLTMyNTAtMDUyMi0xMDUyMjkzNi0,http://pb.xyz.duunion.com/conv?tid=P_17121346fb0330da-OTM2Xy0xMjUzNTI1NC0yNTAwLTMyNTAtMDUyMi0xMDUyMjkzNi0&adv_sectkn=55dea06a643eb8a2d267a735fe2683bd&adv_name=appier-api&payout=2.5,idfa_C98405A6-2997-4913-A41F-437E9E7B29E9,zh
LjzTthiSQRSnMDwvZeO_HQ,doglobal_api,936_10522936,install,2.5,114.40.73.222,CD8D25DA-718C-475B-B333-71F7CF522A62,1558458478,2019-05-22 01:07:58,1558458539,2019-05-22 01:08:59,1558458569,B_652f959eb8628728-OTM2Xy0xMjUzNTI1NC0yNTAwLTMyNTAtMDUyMi0xMDUyMjkzNi0,http://pb.xyz.duunion.com/conv?tid=B_652f959eb8628728-OTM2Xy0xMjUzNTI1NC0yNTAwLTMyNTAtMDUyMi0xMDUyMjkzNi0&adv_sectkn=55dea06a643eb8a2d267a735fe2683bd&adv_name=appier-api&payout=2.5,idfa_CD8D25DA-718C-475B-B333-71F7CF522A62,zh
LjzTthiSQRSnMDwvZeO_HQ,doglobal_api,936_10522936,install,2.5,36.228.32.32,6161FDD8-BED0-4345-A7F5-B246AC7ED441,1558459085,2019-05-22 01:18:05,1558459147,2019-05-22 01:19:07,1558459177,B_e217feb6362b7522-OTM2Xy0xMjUzNTI1NC0yNTAwLTMyNTAtMDUyMi0xMDUyMjkzNi0,http://pb.xyz.duunion.com/conv?tid=B_e217feb6362b7522-OTM2Xy0xMjUzNTI1NC0yNTAwLTMyNTAtMDUyMi0xMDUyMjkzNi0&adv_sectkn=55dea06a643eb8a2d267a735fe2683bd&adv_name=appier-api&payout=2.5,idfa_6161FDD8-BED0-4345-A7F5-B246AC7ED441,zh
LjzTthiSQRSnMDwvZeO_HQ,doglobal_api,936_10522936,install,2.5,114.43.109.28,17F54E4F-9795-46D5-ACF1-1800C88C860A,1558458441,2019-05-22 01:07:21,1558458460,2019-05-22 01:07:40,1558458491,B_cf6036e346abc793-OTM2Xy0xMjUzNTI1NC0yNTAwLTMyNTAtMDUyMi0xMDUyMjkzNi0,http://pb.xyz.duunion.com/conv?tid=B_cf6036e346abc793-OTM2Xy0xMjUzNTI1NC0yNTAwLTMyNTAtMDUyMi0xMDUyMjkzNi0&adv_sectkn=55dea06a643eb8a2d267a735fe2683bd&adv_name=appier-api&payout=2.5,idfa_17F54E4F-9795-46D5-ACF1-1800C88C860A,zh
LjzTthiSQRSnMDwvZeO_HQ,doglobal_api,936_10522936,install,2.5,114.43.85.108,2900E1F4-B543-4EAA-BF78-8FF1C83A0533,1558459030,2019-05-22 01:17:10,1558459095,2019-05-22 01:18:15,1558459125,P_ed4b4e6ba1190f06-OTM2Xy0xMjUzNTI1NC0yNTAwLTMyNTAtMDUyMi0xMDUyMjkzNi0,http://pb.xyz.duunion.com/conv?tid=P_ed4b4e6ba1190f06-OTM2Xy0xMjUzNTI1NC0yNTAwLTMyNTAtMDUyMi0xMDUyMjkzNi0&adv_sectkn=55dea06a643eb8a2d267a735fe2683bd&adv_name=appier-api&payout=2.5,idfa_2900E1F4-B543-4EAA-BF78-8FF1C83A0533,zh
LjzTthiSQRSnMDwvZeO_HQ,doglobal_api,936_10522936,install,2.5,111.240.132.182,FFE86F32-B583-438E-BA0B-81476189C2D6,1558458339,2019-05-22 01:05:39,1558458365,2019-05-22 01:06:05,1558458433,B_8fbda8c955b88cb1-OTM2Xy0xMjUzNTI1NC0yNTAwLTMyNTAtMDUyMi0xMDUyMjkzNi0,http://pb.xyz.duunion.com/conv?tid=B_8fbda8c955b88cb1-OTM2Xy0xMjUzNTI1NC0yNTAwLTMyNTAtMDUyMi0xMDUyMjkzNi0&adv_sectkn=55dea06a643eb8a2d267a735fe2683bd&adv_name=appier-api&payout=2.5,idfa_FFE86F32-B583-438E-BA0B-81476189C2D6,zh
LjzTthiSQRSnMDwvZeO_HQ,doglobal_api,936_10522936,install,2.5,118.161.208.1,F1ECEF11-904D-489D-8C78-54FA59341763,1558458831,2019-05-22 01:13:51,1558458885,2019-05-22 01:14:45,1558458915,B_37dc8dbe4d67f549-OTM2Xy0xMjUzNTI1NC0yNTAwLTMyNTAtMDUyMi0xMDUyMjkzNi0,http://pb.xyz.duunion.com/conv?tid=B_37dc8dbe4d67f549-OTM2Xy0xMjUzNTI1NC0yNTAwLTMyNTAtMDUyMi0xMDUyMjkzNi0&adv_sectkn=55dea06a643eb8a2d267a735fe2683bd&adv_name=appier-api&payout=2.5,idfa_F1ECEF11-904D-489D-8C78-54FA59341763,zh
LjzTthiSQRSnMDwvZeO_HQ,doglobal_api,936_10522936,install,2.5,218.166.248.187,364BB8E9-2341-4ECB-A89D-8B31B74029EF,1558458551,2019-05-22 01:09:11,1558458616,2019-05-22 01:10:16,1558458646,P_9fcd2ef4d24b65a7-OTM2Xy0xMjUzNTI1NC0yNTAwLTMyNTAtMDUyMi0xMDUyMjkzNi0,http://pb.xyz.duunion.com/conv?tid=P_9fcd2ef4d24b65a7-OTM2Xy0xMjUzNTI1NC0yNTAwLTMyNTAtMDUyMi0xMDUyMjkzNi0&adv_sectkn=55dea06a643eb8a2d267a735fe2683bd&adv_name=appier-api&payout=2.5,idfa_364BB8E9-2341-4ECB-A89D-8B31B74029EF,zh
LjzTthiSQRSnMDwvZeO_HQ,doglobal_api,936_10522936,install,2.5,122.121.53.197,3428191E-904A-4249-A54B-6FBA38D8E093,1558459311,2019-05-22 01:21:51,1558459364,2019-05-22 01:22:44,1558459394,P_9f2bc51bcc9010e1-OTM2Xy0xMjUzNTI1NC0yNTAwLTMyNTAtMDUyMi0xMDUyMjkzNi0,http://pb.xyz.duunion.com/conv?tid=P_9f2bc51bcc9010e1-OTM2Xy0xMjUzNTI1NC0yNTAwLTMyNTAtMDUyMi0xMDUyMjkzNi0&adv_sectkn=55dea06a643eb8a2d267a735fe2683bd&adv_name=appier-api&payout=2.5,idfa_3428191E-904A-4249-A54B-6FBA38D8E093,zh
LjzTthiSQRSnMDwvZeO_HQ,doglobal_api,936_10522936,install,2.5,61.224.9.164,FA0276F2-9B81-46C3-A39D-C793AFC2643A,1558458769,2019-05-22 01:12:49,1558458838,2019-05-22 01:13:58,1558458868,P_418f2536079b370a-OTM2Xy0xMjUzNTI1NC0yNTAwLTMyNTAtMDUyMi0xMDUyMjkzNi0,http://pb.xyz.duunion.com/conv?tid=P_418f2536079b370a-OTM2Xy0xMjUzNTI1NC0yNTAwLTMyNTAtMDUyMi0xMDUyMjkzNi0&adv_sectkn=55dea06a643eb8a2d267a735fe2683bd&adv_name=appier-api&payout=2.5,idfa_FA0276F2-9B81-46C3-A39D-C793AFC2643A,zh
LjzTthiSQRSnMDwvZeO_HQ,doglobal_api,936_10522936,install,2.5,118.166.128.188,A992802A-AE0E-45C7-900B-016C21AF610E,1558459153,2019-05-22 01:19:13,1558459216,2019-05-22 01:20:16,1558459246,B_1defd75daecdcb06-OTM2Xy0xMjUzNTI1NC0yNTAwLTMyNTAtMDUyMi0xMDUyMjkzNi0,http://pb.xyz.duunion.com/conv?tid=B_1defd75daecdcb06-OTM2Xy0xMjUzNTI1NC0yNTAwLTMyNTAtMDUyMi0xMDUyMjkzNi0&adv_sectkn=55dea06a643eb8a2d267a735fe2683bd&adv_name=appier-api&payout=2.5,idfa_A992802A-AE0E-45C7-900B-016C21AF610E,zh
LjzTthiSQRSnMDwvZeO_HQ,doglobal_api,936_10522936,install,2.5,114.27.170.77,2CF4AC8B-C971-4581-A372-64472E1680D4,1558459135,2019-05-22 01:18:55,1558459191,2019-05-22 01:19:51,1558459223,P_fb4ca9d748d5db51-OTM2Xy0xMjUzNTI1NC0yNTAwLTMyNTAtMDUyMi0xMDUyMjkzNi0,http://pb.xyz.duunion.com/conv?tid=P_fb4ca9d748d5db51-OTM2Xy0xMjUzNTI1NC0yNTAwLTMyNTAtMDUyMi0xMDUyMjkzNi0&adv_sectkn=55dea06a643eb8a2d267a735fe2683bd&adv_name=appier-api&payout=2.5,idfa_2CF4AC8B-C971-4581-A372-64472E1680D4,zh
LjzTthiSQRSnMDwvZeO_HQ,doglobal_api,936_10522936,install,2.5,111.249.50.15,03F8C9AE-C43B-40B1-88E4-3C2088249DA4,1558459190,2019-05-22 01:19:50,1558459213,2019-05-22 01:20:13,1558459243,P_98fd22c626cc6a1f-OTM2Xy0xMjUzNTI1NC0yNTAwLTMyNTAtMDUyMi0xMDUyMjkzNi0,http://pb.xyz.duunion.com/conv?tid=P_98fd22c626cc6a1f-OTM2Xy0xMjUzNTI1NC0yNTAwLTMyNTAtMDUyMi0xMDUyMjkzNi0&adv_sectkn=55dea06a643eb8a2d267a735fe2683bd&adv_name=appier-api&payout=2.5,idfa_03F8C9AE-C43B-40B1-88E4-3C2088249DA4,zh
LjzTthiSQRSnMDwvZeO_HQ,doglobal_api,936_10522936,install,2.5,118.169.113.99,1E934129-99F9-454B-B704-2CD7E69BA39F,1558458486,2019-05-22 01:08:06,1558458547,2019-05-22 01:09:07,1558458577,P_786bbe3fc45c0a8d-OTM2Xy0xMjUzNTI1NC0yNTAwLTMyNTAtMDUyMi0xMDUyMjkzNi0,http://pb.xyz.duunion.com/conv?tid=P_786bbe3fc45c0a8d-OTM2Xy0xMjUzNTI1NC0yNTAwLTMyNTAtMDUyMi0xMDUyMjkzNi0&adv_sectkn=55dea06a643eb8a2d267a735fe2683bd&adv_name=appier-api&payout=2.5,idfa_1E934129-99F9-454B-B704-2CD7E69BA39F,zh
LjzTthiSQRSnMDwvZeO_HQ,doglobal_api,936_10522936,install,2.5,111.252.99.105,4C8C9FDA-1253-462D-9EFB-2077C1E66488,1558459092,2019-05-22 01:18:12,1558459156,2019-05-22 01:19:16,1558459186,B_2406c9b3f529a439-OTM2Xy0xMjUzNTI1NC0yNTAwLTMyNTAtMDUyMi0xMDUyMjkzNi0,http://pb.xyz.duunion.com/conv?tid=B_2406c9b3f529a439-OTM2Xy0xMjUzNTI1NC0yNTAwLTMyNTAtMDUyMi0xMDUyMjkzNi0&adv_sectkn=55dea06a643eb8a2d267a735fe2683bd&adv_name=appier-api&payout=2.5,idfa_4C8C9FDA-1253-462D-9EFB-2077C1E66488,zh
LjzTthiSQRSnMDwvZeO_HQ,doglobal_api,936_10522936,install,2.5,36.232.66.80,313A6F23-FAD6-4767-AAA5-6FD772EAD04F,1558458544,2019-05-22 01:09:04,1558458610,2019-05-22 01:10:10,1558458640,P_b50ab89c5c4e6bc6-OTM2Xy0xMjUzNTI1NC0yNTAwLTMyNTAtMDUyMi0xMDUyMjkzNi0,http://pb.xyz.duunion.com/conv?tid=P_b50ab89c5c4e6bc6-OTM2Xy0xMjUzNTI1NC0yNTAwLTMyNTAtMDUyMi0xMDUyMjkzNi0&adv_sectkn=55dea06a643eb8a2d267a735fe2683bd&adv_name=appier-api&payout=2.5,idfa_313A6F23-FAD6-4767-AAA5-6FD772EAD04F,zh
LjzTthiSQRSnMDwvZeO_HQ,doglobal_api,936_10522936,install,2.5,61.228.133.71,492FC047-357A-4EBC-804A-FE9D0938FD7D,1558458488,2019-05-22 01:08:08,1558458551,2019-05-22 01:09:11,1558458581,P_3dfdfa5914a675b4-OTM2Xy0xMjUzNTI1NC0yNTAwLTMyNTAtMDUyMi0xMDUyMjkzNi0,http://pb.xyz.duunion.com/conv?tid=P_3dfdfa5914a675b4-OTM2Xy0xMjUzNTI1NC0yNTAwLTMyNTAtMDUyMi0xMDUyMjkzNi0&adv_sectkn=55dea06a643eb8a2d267a735fe2683bd&adv_name=appier-api&payout=2.5,idfa_492FC047-357A-4EBC-804A-FE9D0938FD7D,zh
LjzTthiSQRSnMDwvZeO_HQ,doglobal_api,936_10522936,install,2.5,122.121.237.170,7AA253B2-19C8-4020-AD6B-AE1203EC5A4B,1558458445,2019-05-22 01:07:25,1558458498,2019-05-22 01:08:18,1558458528,B_a9891969ff289b87-OTM2Xy0xMjUzNTI1NC0yNTAwLTMyNTAtMDUyMi0xMDUyMjkzNi0,http://pb.xyz.duunion.com/conv?tid=B_a9891969ff289b87-OTM2Xy0xMjUzNTI1NC0yNTAwLTMyNTAtMDUyMi0xMDUyMjkzNi0&adv_sectkn=55dea06a643eb8a2d267a735fe2683bd&adv_name=appier-api&payout=2.5,idfa_7AA253B2-19C8-4020-AD6B-AE1203EC5A4B,zh
LjzTthiSQRSnMDwvZeO_HQ,doglobal_api,936_10522936,install,2.5,111.246.61.167,56162C44-0607-43F0-AA92-609F0C025752,1558459335,2019-05-22 01:22:15,1558459405,2019-05-22 01:23:25,1558459435,P_e5b3b568b0b0b783-OTM2Xy0xMjUzNTI1NC0yNTAwLTMyNTAtMDUyMi0xMDUyMjkzNi0,http://pb.xyz.duunion.com/conv?tid=P_e5b3b568b0b0b783-OTM2Xy0xMjUzNTI1NC0yNTAwLTMyNTAtMDUyMi0xMDUyMjkzNi0&adv_sectkn=55dea06a643eb8a2d267a735fe2683bd&adv_name=appier-api&payout=2.5,idfa_56162C44-0607-43F0-AA92-609F0C025752,zh
LjzTthiSQRSnMDwvZeO_HQ,doglobal_api,936_10522936,install,2.5,114.37.137.166,404D1C44-1EF7-46D0-BD4A-DA469C223116,1558458779,2019-05-22 01:12:59,1558458850,2019-05-22 01:14:10,1558458880,B_5189d16c992a6eeb-OTM2Xy0xMjUzNTI1NC0yNTAwLTMyNTAtMDUyMi0xMDUyMjkzNi0,http://pb.xyz.duunion.com/conv?tid=B_5189d16c992a6eeb-OTM2Xy0xMjUzNTI1NC0yNTAwLTMyNTAtMDUyMi0xMDUyMjkzNi0&adv_sectkn=55dea06a643eb8a2d267a735fe2683bd&adv_name=appier-api&payout=2.5,idfa_404D1C44-1EF7-46D0-BD4A-DA469C223116,zh
LjzTthiSQRSnMDwvZeO_HQ,doglobal_api,936_10522936,install,2.5,114.41.112.180,77411BE7-CAF7-4360-8C50-070C58D77273,1558459107,2019-05-22 01:18:27,1558459167,2019-05-22 01:19:27,1558459197,B_a9ddeebc89eea4e3-OTM2Xy0xMjUzNTI1NC0yNTAwLTMyNTAtMDUyMi0xMDUyMjkzNi0,http://pb.xyz.duunion.com/conv?tid=B_a9ddeebc89eea4e3-OTM2Xy0xMjUzNTI1NC0yNTAwLTMyNTAtMDUyMi0xMDUyMjkzNi0&adv_sectkn=55dea06a643eb8a2d267a735fe2683bd&adv_name=appier-api&payout=2.5,idfa_77411BE7-CAF7-4360-8C50-070C58D77273,zh
LjzTthiSQRSnMDwvZeO_HQ,doglobal_api,936_10522936,install,2.5,1.172.128.240,628A133F-1465-4DAC-8054-2376C9F1CD6B,1558458833,2019-05-22 01:13:53,1558458885,2019-05-22 01:14:45,1558458915,P_73ef105e22b7b93d-OTM2Xy0xMjUzNTI1NC0yNTAwLTMyNTAtMDUyMi0xMDUyMjkzNi0,http://pb.xyz.duunion.com/conv?tid=P_73ef105e22b7b93d-OTM2Xy0xMjUzNTI1NC0yNTAwLTMyNTAtMDUyMi0xMDUyMjkzNi0&adv_sectkn=55dea06a643eb8a2d267a735fe2683bd&adv_name=appier-api&payout=2.5,idfa_628A133F-1465-4DAC-8054-2376C9F1CD6B,zh
