cid,partner_id,channel_id,action_id,cpi,ip,idfa,click time,click datetime,install time,install datetime,postback time,click id,postback url,unique user id
9hehDG-0Tyenxd4tYsB7BQ,doglobal_api,459_10505459,install,1.2,114.182.88.38,1942e57f-0e8f-4b60-8663-519f61f6d089,1557014994,2019-05-05 08:09:54,1557015122,2019-05-05 08:12:02,1557015156,B_1308b103e1c5cd2c-NDU5Xy0xMzMzNjU3OS0xMjAwLTE0NDAtMDUwNS0xMDUwNTQ1OS0xMDI3Ml8xMjk5NTA2,http://pb.xyz.duunion.com/conv?tid=B_1308b103e1c5cd2c-NDU5Xy0xMzMzNjU3OS0xMjAwLTE0NDAtMDUwNS0xMDUwNTQ1OS0xMDI3Ml8xMjk5NTA2&adv_sectkn=55dea06a643eb8a2d267a735fe2683bd&adv_name=appier-api&payout=1.2,idfa_1942e57f-0e8f-4b60-8663-519f61f6d089,ja
9hehDG-0Tyenxd4tYsB7BQ,doglobal_api,459_10505459,install,1.2,210.142.96.136,57ff5073-173a-4176-bd16-f9183547d718,1557046104,2019-05-05 16:48:24,1557046254,2019-05-05 16:50:54,1557046289,P_9ff2c41d594c8511-NDU5Xy0xMzMzNjU3OS0xMjAwLTE0NDAtMDUwNS0xMDUwNTQ1OS0xMDI3Ml8xMjgyMjM5,http://pb.xyz.duunion.com/conv?tid=P_9ff2c41d594c8511-NDU5Xy0xMzMzNjU3OS0xMjAwLTE0NDAtMDUwNS0xMDUwNTQ1OS0xMDI3Ml8xMjgyMjM5&adv_sectkn=55dea06a643eb8a2d267a735fe2683bd&adv_name=appier-api&payout=1.2,idfa_57ff5073-173a-4176-bd16-f9183547d718,ja
9hehDG-0Tyenxd4tYsB7BQ,doglobal_api,459_10505459,install,1.2,113.153.31.184,aaed06ca-185b-4bba-9465-c43da335a8c2,1557005190,2019-05-05 05:26:30,1557005299,2019-05-05 05:28:19,1557005335,B_7f7d6b18bd55d410-NDU5Xy0xMzMzNjU3OS0xMjAwLTE0NDAtMDUwNS0xMDUwNTQ1OS0xMDI3Ml8xMzIyNzk2,http://pb.xyz.duunion.com/conv?tid=B_7f7d6b18bd55d410-NDU5Xy0xMzMzNjU3OS0xMjAwLTE0NDAtMDUwNS0xMDUwNTQ1OS0xMDI3Ml8xMzIyNzk2&adv_sectkn=55dea06a643eb8a2d267a735fe2683bd&adv_name=appier-api&payout=1.2,idfa_aaed06ca-185b-4bba-9465-c43da335a8c2,ja
9hehDG-0Tyenxd4tYsB7BQ,doglobal_api,459_10505459,install,1.2,211.15.212.193,3657b538-405b-41b1-913a-6e850a643491,1557003400,2019-05-05 04:56:40,1557003515,2019-05-05 04:58:35,1557003551,P_8d9b18e541274fdd-NDU5Xy0xMzMzNjU3OS0xMjAwLTE0NDAtMDUwNS0xMDUwNTQ1OS0xMDI3Ml8xMzczMzc5,http://pb.xyz.duunion.com/conv?tid=P_8d9b18e541274fdd-NDU5Xy0xMzMzNjU3OS0xMjAwLTE0NDAtMDUwNS0xMDUwNTQ1OS0xMDI3Ml8xMzczMzc5&adv_sectkn=55dea06a643eb8a2d267a735fe2683bd&adv_name=appier-api&payout=1.2,idfa_3657b538-405b-41b1-913a-6e850a643491,ja
9hehDG-0Tyenxd4tYsB7BQ,doglobal_api,459_10505459,install,1.2,126.34.39.229,3652aa9d-af30-4767-9999-cef00d7a2bb4,1557041812,2019-05-05 15:36:52,1557046964,2019-05-05 17:02:44,1557046997,B_ab8c52cd4dd4aabe-NDU5Xy0xMzMzNjU3OS0xMjAwLTE0NDAtMDUwNS0xMDUwNTQ1OS0xMDUyNw,http://pb.xyz.duunion.com/conv?tid=B_ab8c52cd4dd4aabe-NDU5Xy0xMzMzNjU3OS0xMjAwLTE0NDAtMDUwNS0xMDUwNTQ1OS0xMDUyNw&adv_sectkn=55dea06a643eb8a2d267a735fe2683bd&adv_name=appier-api&payout=1.2,idfa_3652aa9d-af30-4767-9999-cef00d7a2bb4,ja
9hehDG-0Tyenxd4tYsB7BQ,doglobal_api,459_10505459,install,1.2,153.143.24.60,93700e65-41f0-436d-8493-6f2a31abe8f0,1557014116,2019-05-05 07:55:16,1557014300,2019-05-05 07:58:20,1557014337,B_da9abf1e9803b735-NDU5Xy0xMzMzNjU3OS0xMjAwLTE0NDAtMDUwNS0xMDUwNTQ1OS0xMDI3Ml8xMjgyMjQw,http://pb.xyz.duunion.com/conv?tid=B_da9abf1e9803b735-NDU5Xy0xMzMzNjU3OS0xMjAwLTE0NDAtMDUwNS0xMDUwNTQ1OS0xMDI3Ml8xMjgyMjQw&adv_sectkn=55dea06a643eb8a2d267a735fe2683bd&adv_name=appier-api&payout=1.2,idfa_93700e65-41f0-436d-8493-6f2a31abe8f0,ja
9hehDG-0Tyenxd4tYsB7BQ,doglobal_api,459_10505459,install,1.2,110.2.105.171,c442c90d-009c-4483-9908-5cf969f25fae,1557034564,2019-05-05 13:36:04,1557034676,2019-05-05 13:37:56,1557034711,P_3838c5d38b835530-NDU5Xy0xMzMzNjU3OS0xMjAwLTE0NDAtMDUwNS0xMDUwNTQ1OS0xMDI3Ml8xMzM5NjU2,http://pb.xyz.duunion.com/conv?tid=P_3838c5d38b835530-NDU5Xy0xMzMzNjU3OS0xMjAwLTE0NDAtMDUwNS0xMDUwNTQ1OS0xMDI3Ml8xMzM5NjU2&adv_sectkn=55dea06a643eb8a2d267a735fe2683bd&adv_name=appier-api&payout=1.2,idfa_c442c90d-009c-4483-9908-5cf969f25fae,ja
9hehDG-0Tyenxd4tYsB7BQ,doglobal_api,459_10505459,install,1.2,60.238.165.113,5d6d4ae0-f872-4a7f-bb9f-085b3fb836d4,1556990747,2019-05-05 01:25:47,1556990855,2019-05-05 01:27:35,1556990892,P_b7c55e2133ed1485-NDU5Xy0xMzMzNjU3OS0xMjAwLTE0NDAtMDUwNS0xMDUwNTQ1OS0xMDI3Ml8xMjYzNjEw,http://pb.xyz.duunion.com/conv?tid=P_b7c55e2133ed1485-NDU5Xy0xMzMzNjU3OS0xMjAwLTE0NDAtMDUwNS0xMDUwNTQ1OS0xMDI3Ml8xMjYzNjEw&adv_sectkn=55dea06a643eb8a2d267a735fe2683bd&adv_name=appier-api&payout=1.2,idfa_5d6d4ae0-f872-4a7f-bb9f-085b3fb836d4,ja
9hehDG-0Tyenxd4tYsB7BQ,doglobal_api,459_10505459,install,1.2,14.12.0.64,4895f4fc-0c85-40e2-b454-2b723ad12497,1556998600,2019-05-05 03:36:40,1556998753,2019-05-05 03:39:13,1556998789,B_4e99fd0d82193f04-NDU5Xy0xMzMzNjU3OS0xMjAwLTE0NDAtMDUwNS0xMDUwNTQ1OS0xMDI3Ml8xMjkzNTY1,http://pb.xyz.duunion.com/conv?tid=B_4e99fd0d82193f04-NDU5Xy0xMzMzNjU3OS0xMjAwLTE0NDAtMDUwNS0xMDUwNTQ1OS0xMDI3Ml8xMjkzNTY1&adv_sectkn=55dea06a643eb8a2d267a735fe2683bd&adv_name=appier-api&payout=1.2,idfa_4895f4fc-0c85-40e2-b454-2b723ad12497,ja
9hehDG-0Tyenxd4tYsB7BQ,doglobal_api,459_10505459,install,1.2,49.106.208.241,371a0023-adec-4503-8027-4abd8878f783,1557033508,2019-05-05 13:18:28,1557033535,2019-05-05 13:18:55,1557033566,B_88332755c2342aa4-NDU5Xy0xMzMzNjU3OS0xMjAwLTE0NDAtMDUwNS0xMDUwNTQ1OS0xMDUyNw,http://pb.xyz.duunion.com/conv?tid=B_88332755c2342aa4-NDU5Xy0xMzMzNjU3OS0xMjAwLTE0NDAtMDUwNS0xMDUwNTQ1OS0xMDUyNw&adv_sectkn=55dea06a643eb8a2d267a735fe2683bd&adv_name=appier-api&payout=1.2,idfa_371a0023-adec-4503-8027-4abd8878f783,ja
9hehDG-0Tyenxd4tYsB7BQ,doglobal_api,459_10505459,install,1.2,118.20.222.127,8397eaff-e2f0-4bea-8f60-b225489fe9c4,1557032252,2019-05-05 12:57:32,1557032389,2019-05-05 12:59:49,1557032426,B_404d86003f015f96-NDU5Xy0xMzMzNjU3OS0xMjAwLTE0NDAtMDUwNS0xMDUwNTQ1OS0xMDI3Ml8xMjg5NzIy,http://pb.xyz.duunion.com/conv?tid=B_404d86003f015f96-NDU5Xy0xMzMzNjU3OS0xMjAwLTE0NDAtMDUwNS0xMDUwNTQ1OS0xMDI3Ml8xMjg5NzIy&adv_sectkn=55dea06a643eb8a2d267a735fe2683bd&adv_name=appier-api&payout=1.2,idfa_8397eaff-e2f0-4bea-8f60-b225489fe9c4,ja
9hehDG-0Tyenxd4tYsB7BQ,doglobal_api,459_10505459,install,1.2,14.8.132.0,a8dfdd28-b3db-4c85-9416-f702928c26da,1557039167,2019-05-05 14:52:47,1557039300,2019-05-05 14:55:00,1557039336,P_79f2bdcef47ebb21-NDU5Xy0xMzMzNjU3OS0xMjAwLTE0NDAtMDUwNS0xMDUwNTQ1OS0xMDI3Ml8xMjgxODc3,http://pb.xyz.duunion.com/conv?tid=P_79f2bdcef47ebb21-NDU5Xy0xMzMzNjU3OS0xMjAwLTE0NDAtMDUwNS0xMDUwNTQ1OS0xMDI3Ml8xMjgxODc3&adv_sectkn=55dea06a643eb8a2d267a735fe2683bd&adv_name=appier-api&payout=1.2,idfa_a8dfdd28-b3db-4c85-9416-f702928c26da,ja
9hehDG-0Tyenxd4tYsB7BQ,doglobal_api,459_10505459,install,1.2,119.10.198.25,45f74284-514c-4de5-992a-bd0369c8f9e6,1557025172,2019-05-05 10:59:32,1557025265,2019-05-05 11:01:05,1557025303,B_37154114f13ed464-NDU5Xy0xMzMzNjU3OS0xMjAwLTE0NDAtMDUwNS0xMDUwNTQ1OS0xMDI3Ml8xMjkzNTgx,http://pb.xyz.duunion.com/conv?tid=B_37154114f13ed464-NDU5Xy0xMzMzNjU3OS0xMjAwLTE0NDAtMDUwNS0xMDUwNTQ1OS0xMDI3Ml8xMjkzNTgx&adv_sectkn=55dea06a643eb8a2d267a735fe2683bd&adv_name=appier-api&payout=1.2,idfa_45f74284-514c-4de5-992a-bd0369c8f9e6,ja
9hehDG-0Tyenxd4tYsB7BQ,doglobal_api,459_10505459,install,1.2,122.135.194.57,067423dc-9aad-4a7b-b6ea-edce9934a251,1557042699,2019-05-05 15:51:39,1557042841,2019-05-05 15:54:01,1557042876,B_2279586514572de3-NDU5Xy0xMzMzNjU3OS0xMjAwLTE0NDAtMDUwNS0xMDUwNTQ1OS0xMDI3Ml8xMjgxNzgw,http://pb.xyz.duunion.com/conv?tid=B_2279586514572de3-NDU5Xy0xMzMzNjU3OS0xMjAwLTE0NDAtMDUwNS0xMDUwNTQ1OS0xMDI3Ml8xMjgxNzgw&adv_sectkn=55dea06a643eb8a2d267a735fe2683bd&adv_name=appier-api&payout=1.2,idfa_067423dc-9aad-4a7b-b6ea-edce9934a251,ja
9hehDG-0Tyenxd4tYsB7BQ,doglobal_api,459_10505459,install,1.2,122.129.175.55,a9763fc3-8066-4ee6-b3ab-7fb0ab057e73,1556993231,2019-05-05 02:07:11,1556993405,2019-05-05 02:10:05,1556993441,P_a960815c5ed2d8dc-NDU5Xy0xMzMzNjU3OS0xMjAwLTE0NDAtMDUwNS0xMDUwNTQ1OS0xMDI3Ml8xMzczMzc5,http://pb.xyz.duunion.com/conv?tid=P_a960815c5ed2d8dc-NDU5Xy0xMzMzNjU3OS0xMjAwLTE0NDAtMDUwNS0xMDUwNTQ1OS0xMDI3Ml8xMzczMzc5&adv_sectkn=55dea06a643eb8a2d267a735fe2683bd&adv_name=appier-api&payout=1.2,idfa_a9763fc3-8066-4ee6-b3ab-7fb0ab057e73,ja
9hehDG-0Tyenxd4tYsB7BQ,doglobal_api,459_10505459,install,1.2,133.202.34.150,71e566db-bc87-4ab0-82fd-beddb2fa62d5,1557019965,2019-05-05 09:32:45,1557020070,2019-05-05 09:34:30,1557020108,P_9c27f4dbe1b1032b-NDU5Xy0xMzMzNjU3OS0xMjAwLTE0NDAtMDUwNS0xMDUwNTQ1OS0xMDI3Ml8xMjgxODc3,http://pb.xyz.duunion.com/conv?tid=P_9c27f4dbe1b1032b-NDU5Xy0xMzMzNjU3OS0xMjAwLTE0NDAtMDUwNS0xMDUwNTQ1OS0xMDI3Ml8xMjgxODc3&adv_sectkn=55dea06a643eb8a2d267a735fe2683bd&adv_name=appier-api&payout=1.2,idfa_71e566db-bc87-4ab0-82fd-beddb2fa62d5,ja
9hehDG-0Tyenxd4tYsB7BQ,doglobal_api,459_10505459,install,1.2,101.142.123.3,11e0c37f-9f0b-4355-abf5-390adeddce40,1557026706,2019-05-05 11:25:06,1557026796,2019-05-05 11:26:36,1557026830,P_89d7eaf4a12f076a-NDU5Xy0xMzMzNjU3OS0xMjAwLTE0NDAtMDUwNS0xMDUwNTQ1OS0xMDI3Ml8xMjk5NTA2,http://pb.xyz.duunion.com/conv?tid=P_89d7eaf4a12f076a-NDU5Xy0xMzMzNjU3OS0xMjAwLTE0NDAtMDUwNS0xMDUwNTQ1OS0xMDI3Ml8xMjk5NTA2&adv_sectkn=55dea06a643eb8a2d267a735fe2683bd&adv_name=appier-api&payout=1.2,idfa_11e0c37f-9f0b-4355-abf5-390adeddce40,ja
9hehDG-0Tyenxd4tYsB7BQ,doglobal_api,459_10505459,install,1.2,58.138.62.43,d0b0ade0-35e4-4bb3-86b9-322776e1d06f,1556985831,2019-05-05 00:03:51,1556985966,2019-05-05 00:06:06,1556986002,P_7e7e50cc26ee621d-NDU5Xy0xMzMzNjU3OS0xMjAwLTE0NDAtMDUwNS0xMDUwNTQ1OS0xMDI3Ml8xMzczOTM5,http://pb.xyz.duunion.com/conv?tid=P_7e7e50cc26ee621d-NDU5Xy0xMzMzNjU3OS0xMjAwLTE0NDAtMDUwNS0xMDUwNTQ1OS0xMDI3Ml8xMzczOTM5&adv_sectkn=55dea06a643eb8a2d267a735fe2683bd&adv_name=appier-api&payout=1.2,idfa_d0b0ade0-35e4-4bb3-86b9-322776e1d06f,ja
9hehDG-0Tyenxd4tYsB7BQ,doglobal_api,459_10505459,install,1.2,114.168.155.92,f6ddde08-0f50-48ea-b2e6-22727d886275,1557036963,2019-05-05 14:16:03,1557037557,2019-05-05 14:25:57,1557037589,P_28012554ae8f13a3-NDU5Xy0xMzMzNjU3OS0xMjAwLTE0NDAtMDUwNS0xMDUwNTQ1OS00MDIxOV8xMjk1NDk1,http://pb.xyz.duunion.com/conv?tid=P_28012554ae8f13a3-NDU5Xy0xMzMzNjU3OS0xMjAwLTE0NDAtMDUwNS0xMDUwNTQ1OS00MDIxOV8xMjk1NDk1&adv_sectkn=55dea06a643eb8a2d267a735fe2683bd&adv_name=appier-api&payout=1.2,idfa_f6ddde08-0f50-48ea-b2e6-22727d886275,ja
9hehDG-0Tyenxd4tYsB7BQ,doglobal_api,459_10505459,install,1.2,106.180.36.76,cfb8cdd2-c162-4fe6-a5b7-246a8d6a6e63,1557035856,2019-05-05 13:57:36,1557035883,2019-05-05 13:58:03,1557035915,P_327e48d1787b6d14-NDU5Xy0xMzMzNjU3OS0xMjAwLTE0NDAtMDUwNS0xMDUwNTQ1OS0xMDUyNw,http://pb.xyz.duunion.com/conv?tid=P_327e48d1787b6d14-NDU5Xy0xMzMzNjU3OS0xMjAwLTE0NDAtMDUwNS0xMDUwNTQ1OS0xMDUyNw&adv_sectkn=55dea06a643eb8a2d267a735fe2683bd&adv_name=appier-api&payout=1.2,idfa_cfb8cdd2-c162-4fe6-a5b7-246a8d6a6e63,ja
9hehDG-0Tyenxd4tYsB7BQ,doglobal_api,459_10505459,install,1.2,153.219.85.101,67c2d650-ac5d-4944-805c-abb6081e4768,1557047215,2019-05-05 17:06:55,1557047300,2019-05-05 17:08:20,1557047338,B_cea3a844322564f6-NDU5Xy0xMzMzNjU3OS0xMjAwLTE0NDAtMDUwNS0xMDUwNTQ1OS0xMDI3Ml8xMzg1NTUw,http://pb.xyz.duunion.com/conv?tid=B_cea3a844322564f6-NDU5Xy0xMzMzNjU3OS0xMjAwLTE0NDAtMDUwNS0xMDUwNTQ1OS0xMDI3Ml8xMzg1NTUw&adv_sectkn=55dea06a643eb8a2d267a735fe2683bd&adv_name=appier-api&payout=1.2,idfa_67c2d650-ac5d-4944-805c-abb6081e4768,ja
