cid,partner_id,channel_id,action_id,cpi,ip,idfa,click time,click datetime,install time,install datetime,postback time,click id,postback url,unique user id
1JYr-2NpRyWCwFsg22Fiyw,doglobal_api,450_20150120,Install,0.8,1.242.209.238,9e070ad0-d8e0-4b78-a07e-fd6f5ba8e4c9,1556883922,2019-05-03 19:45:22,1556883940,2019-05-03 19:45:40,1556883970,B_ac4bafa38a3b3c40-NDUwXy0xMzUzODUwMy04MDAtOTYwLTA1MDMtLTIwMTUwMTIw,http://pb.xyz.duunion.com/conv?tid=B_ac4bafa38a3b3c40-NDUwXy0xMzUzODUwMy04MDAtOTYwLTA1MDMtLTIwMTUwMTIw&adv_sectkn=55dea06a643eb8a2d267a735fe2683bd&adv_name=appier-api&payout=0.8,idfa_9e070ad0-d8e0-4b78-a07e-fd6f5ba8e4c9,%ED%95%9C%EA%B5%AD%EC%96%B4
1JYr-2NpRyWCwFsg22Fiyw,doglobal_api,450_20150120,Install,0.8,223.38.8.195,68ff1ae2-ff1a-4aa3-a5b5-b52be322cbb3,1556983095,2019-05-04 23:18:15,1556983165,2019-05-04 23:19:25,1556983195,B_83f47d83fbc172fc-NDUwXy0xMzUzODUwMy04MDAtOTYwLTA1MDQtLTIwMTUwMTIw,http://pb.xyz.duunion.com/conv?tid=B_83f47d83fbc172fc-NDUwXy0xMzUzODUwMy04MDAtOTYwLTA1MDQtLTIwMTUwMTIw&adv_sectkn=55dea06a643eb8a2d267a735fe2683bd&adv_name=appier-api&payout=0.8,idfa_68ff1ae2-ff1a-4aa3-a5b5-b52be322cbb3,%ED%95%9C%EA%B5%AD%EC%96%B4
1JYr-2NpRyWCwFsg22Fiyw,doglobal_api,450_20150120,Install,0.8,1.242.209.238,c97b7523-3c2b-4221-bded-e93fa36ff5b9,1556999397,2019-05-05 03:49:57,1556999424,2019-05-05 03:50:24,1556999454,P_76adf778e7ffe012-NDUwXy0xMzUzODUwMy04MDAtOTYwLTA1MDUtLTIwMTUwMTIw,http://pb.xyz.duunion.com/conv?tid=P_76adf778e7ffe012-NDUwXy0xMzUzODUwMy04MDAtOTYwLTA1MDUtLTIwMTUwMTIw&adv_sectkn=55dea06a643eb8a2d267a735fe2683bd&adv_name=appier-api&payout=0.8,idfa_c97b7523-3c2b-4221-bded-e93fa36ff5b9,%ED%95%9C%EA%B5%AD%EC%96%B4
1JYr-2NpRyWCwFsg22Fiyw,doglobal_api,450_20150120,Install,0.8,223.38.33.155,a6090663-3e32-4ff0-a958-875f8da74036,1556987066,2019-05-05 00:24:26,1556987166,2019-05-05 00:26:06,1556987196,B_56f4f77edfbde3e2-NDUwXy0xMzUzODUwMy04MDAtOTYwLTA1MDUtLTIwMTUwMTIw,http://pb.xyz.duunion.com/conv?tid=B_56f4f77edfbde3e2-NDUwXy0xMzUzODUwMy04MDAtOTYwLTA1MDUtLTIwMTUwMTIw&adv_sectkn=55dea06a643eb8a2d267a735fe2683bd&adv_name=appier-api&payout=0.8,idfa_a6090663-3e32-4ff0-a958-875f8da74036,%ED%95%9C%EA%B5%AD%EC%96%B4
1JYr-2NpRyWCwFsg22Fiyw,doglobal_api,450_20150120,Install,0.8,223.33.160.186,f44514af-c0fc-43cc-a2f4-90448f7c580f,1557098554,2019-05-06 07:22:34,1557098599,2019-05-06 07:23:19,1557098629,B_a41116ac919344b9-NDUwXy0xMzUzODUwMy04MDAtOTYwLTA1MDYtLTIwMTUwMTIw,http://pb.xyz.duunion.com/conv?tid=B_a41116ac919344b9-NDUwXy0xMzUzODUwMy04MDAtOTYwLTA1MDYtLTIwMTUwMTIw&adv_sectkn=55dea06a643eb8a2d267a735fe2683bd&adv_name=appier-api&payout=0.8,idfa_f44514af-c0fc-43cc-a2f4-90448f7c580f,%ED%95%9C%EA%B5%AD%EC%96%B4
1JYr-2NpRyWCwFsg22Fiyw,doglobal_api,450_20150120,Install,0.8,223.38.17.63,30f5acec-d969-45e5-be56-73e59aec7c0c,1557072863,2019-05-06 00:14:23,1557072982,2019-05-06 00:16:22,1557073013,P_fd5983e156905cd9-NDUwXy0xMzUzODUwMy04MDAtOTYwLTA1MDYtLTIwMTUwMTIw,http://pb.xyz.duunion.com/conv?tid=P_fd5983e156905cd9-NDUwXy0xMzUzODUwMy04MDAtOTYwLTA1MDYtLTIwMTUwMTIw&adv_sectkn=55dea06a643eb8a2d267a735fe2683bd&adv_name=appier-api&payout=0.8,idfa_30f5acec-d969-45e5-be56-73e59aec7c0c,%ED%95%9C%EA%B5%AD%EC%96%B4
1JYr-2NpRyWCwFsg22Fiyw,doglobal_api,450_20150120,Install,0.8,223.62.169.215,bc1b34c3-084c-4f86-ad15-487328631b30,1557077353,2019-05-06 01:29:13,1557077369,2019-05-06 01:29:29,1557077400,P_c4e663e959baff66-NDUwXy0xMzUzODUwMy04MDAtOTYwLTA1MDYtLTIwMTUwMTIw,http://pb.xyz.duunion.com/conv?tid=P_c4e663e959baff66-NDUwXy0xMzUzODUwMy04MDAtOTYwLTA1MDYtLTIwMTUwMTIw&adv_sectkn=55dea06a643eb8a2d267a735fe2683bd&adv_name=appier-api&payout=0.8,idfa_bc1b34c3-084c-4f86-ad15-487328631b30,%ED%95%9C%EA%B5%AD%EC%96%B4
1JYr-2NpRyWCwFsg22Fiyw,doglobal_api,450_20150120,Install,0.8,221.161.132.87,2d9857f1-8ec4-4cc8-a9a5-bd3ad521b044,1557031421,2019-05-05 12:43:41,1557031433,2019-05-05 12:43:53,1557031464,P_dcddf9f5f1f6861e-NDUwXy0xMzUzODUwMy04MDAtOTYwLTA1MDUtLTIwMTUwMTIw,http://pb.xyz.duunion.com/conv?tid=P_dcddf9f5f1f6861e-NDUwXy0xMzUzODUwMy04MDAtOTYwLTA1MDUtLTIwMTUwMTIw&adv_sectkn=55dea06a643eb8a2d267a735fe2683bd&adv_name=appier-api&payout=0.8,idfa_2d9857f1-8ec4-4cc8-a9a5-bd3ad521b044,%ED%95%9C%EA%B5%AD%EC%96%B4
1JYr-2NpRyWCwFsg22Fiyw,doglobal_api,450_20150120,Install,0.8,110.70.57.76,6b1c2436-ca50-4537-b9c6-69347b147f0a,1556931072,2019-05-04 08:51:12,1556931099,2019-05-04 08:51:39,1556931130,P_df952e9a76c5c358-NDUwXy0xMzUzODUwMy04MDAtOTYwLTA1MDQtLTIwMTUwMTIw,http://pb.xyz.duunion.com/conv?tid=P_df952e9a76c5c358-NDUwXy0xMzUzODUwMy04MDAtOTYwLTA1MDQtLTIwMTUwMTIw&adv_sectkn=55dea06a643eb8a2d267a735fe2683bd&adv_name=appier-api&payout=0.8,idfa_6b1c2436-ca50-4537-b9c6-69347b147f0a,%ED%95%9C%EA%B5%AD%EC%96%B4
1JYr-2NpRyWCwFsg22Fiyw,doglobal_api,450_20150120,Install,0.8,223.62.175.213,7f61622b-c629-4e76-9296-f2aa99125b65,1556849346,2019-05-03 10:09:06,1556849947,2019-05-03 10:19:07,1556850219,B_8fd2ea9c6bcbdd15-NDUwXy0xMzUzODUwMy04MDAtOTYwLTA1MDMtLTIwMTUwMTIw,http://pb.xyz.duunion.com/conv?tid=B_8fd2ea9c6bcbdd15-NDUwXy0xMzUzODUwMy04MDAtOTYwLTA1MDMtLTIwMTUwMTIw&adv_sectkn=55dea06a643eb8a2d267a735fe2683bd&adv_name=appier-api&payout=0.8,idfa_7f61622b-c629-4e76-9296-f2aa99125b65,%ED%95%9C%EA%B5%AD%EC%96%B4
1JYr-2NpRyWCwFsg22Fiyw,doglobal_api,450_20150120,Install,0.8,175.121.165.52,bdb43672-f9a2-4a8d-b9ce-741913b5aa2a,1557028852,2019-05-05 12:00:52,1557028922,2019-05-05 12:02:02,1557028965,P_1517f57607d0e2f6-NDUwXy0xMzUzODUwMy04MDAtOTYwLTA1MDUtLTIwMTUwMTIw,http://pb.xyz.duunion.com/conv?tid=P_1517f57607d0e2f6-NDUwXy0xMzUzODUwMy04MDAtOTYwLTA1MDUtLTIwMTUwMTIw&adv_sectkn=55dea06a643eb8a2d267a735fe2683bd&adv_name=appier-api&payout=0.8,idfa_bdb43672-f9a2-4a8d-b9ce-741913b5aa2a,%ED%95%9C%EA%B5%AD%EC%96%B4
1JYr-2NpRyWCwFsg22Fiyw,doglobal_api,450_20150120,Install,0.8,223.62.212.32,44c00c15-bbaa-40d7-973a-291cd3a94d4b,1557077753,2019-05-06 01:35:53,1557077919,2019-05-06 01:38:39,1557077950,B_14d6a4370ad3f273-NDUwXy0xMzUzODUwMy04MDAtOTYwLTA1MDYtLTIwMTUwMTIw,http://pb.xyz.duunion.com/conv?tid=B_14d6a4370ad3f273-NDUwXy0xMzUzODUwMy04MDAtOTYwLTA1MDYtLTIwMTUwMTIw&adv_sectkn=55dea06a643eb8a2d267a735fe2683bd&adv_name=appier-api&payout=0.8,idfa_44c00c15-bbaa-40d7-973a-291cd3a94d4b,%ED%95%9C%EA%B5%AD%EC%96%B4
1JYr-2NpRyWCwFsg22Fiyw,doglobal_api,450_20150120,Install,0.8,221.161.132.87,2c258b98-459d-4abf-bf39-261e6b20ea08,1556945538,2019-05-04 12:52:18,1556945585,2019-05-04 12:53:05,1556945615,P_1dc7df46dbd75809-NDUwXy0xMzUzODUwMy04MDAtOTYwLTA1MDQtLTIwMTUwMTIw,http://pb.xyz.duunion.com/conv?tid=P_1dc7df46dbd75809-NDUwXy0xMzUzODUwMy04MDAtOTYwLTA1MDQtLTIwMTUwMTIw&adv_sectkn=55dea06a643eb8a2d267a735fe2683bd&adv_name=appier-api&payout=0.8,idfa_2c258b98-459d-4abf-bf39-261e6b20ea08,%ED%95%9C%EA%B5%AD%EC%96%B4
1JYr-2NpRyWCwFsg22Fiyw,doglobal_api,450_20150120,Install,0.8,182.230.4.209,37ff3c51-4c39-4c2a-bef4-33ec2740d8a6,1556839160,2019-05-03 07:19:20,1556839184,2019-05-03 07:19:44,1556839214,B_00e6ea25f15d7509-NDUwXy0xMzUzODUwMy04MDAtOTYwLTA1MDMtLTIwMTUwMTIw,http://pb.xyz.duunion.com/conv?tid=B_00e6ea25f15d7509-NDUwXy0xMzUzODUwMy04MDAtOTYwLTA1MDMtLTIwMTUwMTIw&adv_sectkn=55dea06a643eb8a2d267a735fe2683bd&adv_name=appier-api&payout=0.8,idfa_37ff3c51-4c39-4c2a-bef4-33ec2740d8a6,%ED%95%9C%EA%B5%AD%EC%96%B4
1JYr-2NpRyWCwFsg22Fiyw,doglobal_api,450_20150120,Install,0.8,223.62.202.5,94ae3255-90cd-462c-b5a0-b8a795539f41,1557072465,2019-05-06 00:07:45,1557072552,2019-05-06 00:09:12,1557072583,B_fe7578490a6fc050-NDUwXy0xMzUzODUwMy04MDAtOTYwLTA1MDYtLTIwMTUwMTIw,http://pb.xyz.duunion.com/conv?tid=B_fe7578490a6fc050-NDUwXy0xMzUzODUwMy04MDAtOTYwLTA1MDYtLTIwMTUwMTIw&adv_sectkn=55dea06a643eb8a2d267a735fe2683bd&adv_name=appier-api&payout=0.8,idfa_94ae3255-90cd-462c-b5a0-b8a795539f41,%ED%95%9C%EA%B5%AD%EC%96%B4
1JYr-2NpRyWCwFsg22Fiyw,doglobal_api,450_20150120,Install,0.8,182.230.4.209,bb26a350-a12f-4c40-96f0-58d6c85b60e2,1556871217,2019-05-03 16:13:37,1556871229,2019-05-03 16:13:49,1556871260,P_88a735e17da51902-NDUwXy0xMzUzODUwMy04MDAtOTYwLTA1MDMtLTIwMTUwMTIw,http://pb.xyz.duunion.com/conv?tid=P_88a735e17da51902-NDUwXy0xMzUzODUwMy04MDAtOTYwLTA1MDMtLTIwMTUwMTIw&adv_sectkn=55dea06a643eb8a2d267a735fe2683bd&adv_name=appier-api&payout=0.8,idfa_bb26a350-a12f-4c40-96f0-58d6c85b60e2,%ED%95%9C%EA%B5%AD%EC%96%B4
1JYr-2NpRyWCwFsg22Fiyw,doglobal_api,450_20150120,Install,0.8,223.62.169.253,b3fb9e2b-61c1-45dd-a39d-cbd195de6ec6,1557075121,2019-05-06 00:52:01,1557075211,2019-05-06 00:53:31,1557075241,P_0176bb5e959b0553-NDUwXy0xMzUzODUwMy04MDAtOTYwLTA1MDYtLTIwMTUwMTIw,http://pb.xyz.duunion.com/conv?tid=P_0176bb5e959b0553-NDUwXy0xMzUzODUwMy04MDAtOTYwLTA1MDYtLTIwMTUwMTIw&adv_sectkn=55dea06a643eb8a2d267a735fe2683bd&adv_name=appier-api&payout=0.8,idfa_b3fb9e2b-61c1-45dd-a39d-cbd195de6ec6,%ED%95%9C%EA%B5%AD%EC%96%B4
1JYr-2NpRyWCwFsg22Fiyw,doglobal_api,450_20150120,Install,0.8,175.223.45.198,2c59c8cb-0cfd-41ce-8811-85b746200e21,1557031502,2019-05-05 12:45:02,1557031518,2019-05-05 12:45:18,1557031548,P_bc94c41249c90114-NDUwXy0xMzUzODUwMy04MDAtOTYwLTA1MDUtLTIwMTUwMTIw,http://pb.xyz.duunion.com/conv?tid=P_bc94c41249c90114-NDUwXy0xMzUzODUwMy04MDAtOTYwLTA1MDUtLTIwMTUwMTIw&adv_sectkn=55dea06a643eb8a2d267a735fe2683bd&adv_name=appier-api&payout=0.8,idfa_2c59c8cb-0cfd-41ce-8811-85b746200e21,%ED%95%9C%EA%B5%AD%EC%96%B4
1JYr-2NpRyWCwFsg22Fiyw,doglobal_api,450_20150120,Install,0.8,223.62.216.72,7ea6bf89-a94c-4ba1-bbc2-390ede650c5f,1557072064,2019-05-06 00:01:04,1557072156,2019-05-06 00:02:36,1557072186,P_4dc4bf0f6ba729f9-NDUwXy0xMzUzODUwMy04MDAtOTYwLTA1MDYtLTIwMTUwMTIw,http://pb.xyz.duunion.com/conv?tid=P_4dc4bf0f6ba729f9-NDUwXy0xMzUzODUwMy04MDAtOTYwLTA1MDYtLTIwMTUwMTIw&adv_sectkn=55dea06a643eb8a2d267a735fe2683bd&adv_name=appier-api&payout=0.8,idfa_7ea6bf89-a94c-4ba1-bbc2-390ede650c5f,%ED%95%9C%EA%B5%AD%EC%96%B4
1JYr-2NpRyWCwFsg22Fiyw,doglobal_api,450_20150120,Install,0.8,223.39.151.97,11fd064e-0ad4-4e76-82ba-cc87c1b74368,1556949984,2019-05-04 14:06:24,1556950083,2019-05-04 14:08:03,1556950148,P_dea0362033607b88-NDUwXy0xMzUzODUwMy04MDAtOTYwLTA1MDQtLTIwMTUwMTIw,http://pb.xyz.duunion.com/conv?tid=P_dea0362033607b88-NDUwXy0xMzUzODUwMy04MDAtOTYwLTA1MDQtLTIwMTUwMTIw&adv_sectkn=55dea06a643eb8a2d267a735fe2683bd&adv_name=appier-api&payout=0.8,idfa_11fd064e-0ad4-4e76-82ba-cc87c1b74368,%ED%95%9C%EA%B5%AD%EC%96%B4
1JYr-2NpRyWCwFsg22Fiyw,doglobal_api,450_20150120,Install,0.8,223.38.29.233,6f5073a8-517b-49dd-bfa3-861fa7b2fb81,1556982306,2019-05-04 23:05:06,1556982440,2019-05-04 23:07:20,1556982471,P_8d12a5a5ff5a9382-NDUwXy0xMzUzODUwMy04MDAtOTYwLTA1MDQtLTIwMTUwMTIw,http://pb.xyz.duunion.com/conv?tid=P_8d12a5a5ff5a9382-NDUwXy0xMzUzODUwMy04MDAtOTYwLTA1MDQtLTIwMTUwMTIw&adv_sectkn=55dea06a643eb8a2d267a735fe2683bd&adv_name=appier-api&payout=0.8,idfa_6f5073a8-517b-49dd-bfa3-861fa7b2fb81,%ED%95%9C%EA%B5%AD%EC%96%B4
1JYr-2NpRyWCwFsg22Fiyw,doglobal_api,450_20150120,Install,0.8,221.161.132.87,41a5e112-b6a1-4ab4-8969-131e77f263da,1557039410,2019-05-05 14:56:50,1557039423,2019-05-05 14:57:03,1557039453,P_b9315edc1542dae4-NDUwXy0xMzUzODUwMy04MDAtOTYwLTA1MDUtLTIwMTUwMTIw,http://pb.xyz.duunion.com/conv?tid=P_b9315edc1542dae4-NDUwXy0xMzUzODUwMy04MDAtOTYwLTA1MDUtLTIwMTUwMTIw&adv_sectkn=55dea06a643eb8a2d267a735fe2683bd&adv_name=appier-api&payout=0.8,idfa_41a5e112-b6a1-4ab4-8969-131e77f263da,%ED%95%9C%EA%B5%AD%EC%96%B4
1JYr-2NpRyWCwFsg22Fiyw,doglobal_api,450_20150120,Install,0.8,221.161.132.87,5b3c221d-22e2-4d15-b5b8-4f7b015363b9,1556883954,2019-05-03 19:45:54,1556883966,2019-05-03 19:46:06,1556883998,B_2b316f7dc323cf14-NDUwXy0xMzUzODUwMy04MDAtOTYwLTA1MDMtLTIwMTUwMTIw,http://pb.xyz.duunion.com/conv?tid=B_2b316f7dc323cf14-NDUwXy0xMzUzODUwMy04MDAtOTYwLTA1MDMtLTIwMTUwMTIw&adv_sectkn=55dea06a643eb8a2d267a735fe2683bd&adv_name=appier-api&payout=0.8,idfa_5b3c221d-22e2-4d15-b5b8-4f7b015363b9,%ED%95%9C%EA%B5%AD%EC%96%B4
1JYr-2NpRyWCwFsg22Fiyw,doglobal_api,450_20150120,Install,0.8,115.40.177.159,cc737511-35cc-4d8f-88b5-0b168841554a,1556893695,2019-05-03 22:28:15,1556894499,2019-05-03 22:41:39,1556894530,B_0253176acd8230dc-NDUwXy0xMzUzODUwMy04MDAtOTYwLTA1MDMtLTIwMTUwMTIw,http://pb.xyz.duunion.com/conv?tid=B_0253176acd8230dc-NDUwXy0xMzUzODUwMy04MDAtOTYwLTA1MDMtLTIwMTUwMTIw&adv_sectkn=55dea06a643eb8a2d267a735fe2683bd&adv_name=appier-api&payout=0.8,idfa_cc737511-35cc-4d8f-88b5-0b168841554a,%ED%95%9C%EA%B5%AD%EC%96%B4
1JYr-2NpRyWCwFsg22Fiyw,doglobal_api,450_20150120,Install,0.8,223.33.184.68,ea3cabdb-8f00-417a-93d2-8bd3d6452189,1556897263,2019-05-03 23:27:43,1556897578,2019-05-03 23:32:58,1556897608,P_7cc61624aa334855-NDUwXy0xMzUzODUwMy04MDAtOTYwLTA1MDMtLTIwMTUwMTIw,http://pb.xyz.duunion.com/conv?tid=P_7cc61624aa334855-NDUwXy0xMzUzODUwMy04MDAtOTYwLTA1MDMtLTIwMTUwMTIw&adv_sectkn=55dea06a643eb8a2d267a735fe2683bd&adv_name=appier-api&payout=0.8,idfa_ea3cabdb-8f00-417a-93d2-8bd3d6452189,%ED%95%9C%EA%B5%AD%EC%96%B4
