cid,partner_id,channel_id,action_id,cpi,ip,idfa,click time,click datetime,install time,install datetime,postback time,click id,postback url,unique user id
_6R1DZPmT3SiXO2cwcdbmQ,doglobal_api,957_14,Install,0.6,115.37.212.154,6D41F178-CD16-4B5B-98C2-2067C84F06B7,1558919071,2019-05-27 09:04:31,1558919262,2019-05-27 09:07:42,1558919262,P_14c14bdaaf63f207-OTU3Xy0xMjk5MTY1MC02MDAtNDgwLTA1MjctLTE0,http://pb.xyz.duunion.com/conv?tid=P_14c14bdaaf63f207-OTU3Xy0xMjk5MTY1MC02MDAtNDgwLTA1MjctLTE0&adv_sectkn=55dea06a643eb8a2d267a735fe2683bd&adv_name=appier-api&payout=0.6,idfa_6D41F178-CD16-4B5B-98C2-2067C84F06B7,ja
_6R1DZPmT3SiXO2cwcdbmQ,doglobal_api,957_14,Install,0.6,118.158.122.172,332909E6-96D8-4BB2-B0F4-C6F5A61D7BBD,1558921106,2019-05-27 09:38:26,1558921252,2019-05-27 09:40:52,1558921252,B_d8d6ac2da83312b8-OTU3Xy0xMjk5MTY1MC02MDAtNDgwLTA1MjctLTE0,http://pb.xyz.duunion.com/conv?tid=B_d8d6ac2da83312b8-OTU3Xy0xMjk5MTY1MC02MDAtNDgwLTA1MjctLTE0&adv_sectkn=55dea06a643eb8a2d267a735fe2683bd&adv_name=appier-api&payout=0.6,idfa_332909E6-96D8-4BB2-B0F4-C6F5A61D7BBD,ja
_6R1DZPmT3SiXO2cwcdbmQ,doglobal_api,957_14,Install,0.6,217.178.24.84,D8C69717-9946-4A89-8E3A-0201B2E5D469,1558921242,2019-05-27 09:40:42,1558921410,2019-05-27 09:43:30,1558921410,B_92a886bb81a50067-OTU3Xy0xMjk5MTY1MC02MDAtNDgwLTA1MjctLTE0,http://pb.xyz.duunion.com/conv?tid=B_92a886bb81a50067-OTU3Xy0xMjk5MTY1MC02MDAtNDgwLTA1MjctLTE0&adv_sectkn=55dea06a643eb8a2d267a735fe2683bd&adv_name=appier-api&payout=0.6,idfa_D8C69717-9946-4A89-8E3A-0201B2E5D469,ja
_6R1DZPmT3SiXO2cwcdbmQ,doglobal_api,957_14,Install,0.6,119.238.49.246,FC05637D-D933-47EA-A387-109BFDD1B1EC,1558925257,2019-05-27 10:47:37,1558925427,2019-05-27 10:50:27,1558925427,P_ebf301cd25d93c80-OTU3Xy0xMjk5MTY1MC02MDAtNDgwLTA1MjctLTE0,http://pb.xyz.duunion.com/conv?tid=P_ebf301cd25d93c80-OTU3Xy0xMjk5MTY1MC02MDAtNDgwLTA1MjctLTE0&adv_sectkn=55dea06a643eb8a2d267a735fe2683bd&adv_name=appier-api&payout=0.6,idfa_FC05637D-D933-47EA-A387-109BFDD1B1EC,ja
_6R1DZPmT3SiXO2cwcdbmQ,doglobal_api,957_14,Install,0.6,126.66.75.145,23C003C2-A5F6-4504-9C5D-F36F8E17A55C,1558921011,2019-05-27 09:36:51,1558921197,2019-05-27 09:39:57,1558921197,B_316ba597ae7b8e66-OTU3Xy0xMjk5MTY1MC02MDAtNDgwLTA1MjctLTE0,http://pb.xyz.duunion.com/conv?tid=B_316ba597ae7b8e66-OTU3Xy0xMjk5MTY1MC02MDAtNDgwLTA1MjctLTE0&adv_sectkn=55dea06a643eb8a2d267a735fe2683bd&adv_name=appier-api&payout=0.6,idfa_23C003C2-A5F6-4504-9C5D-F36F8E17A55C,ja
_6R1DZPmT3SiXO2cwcdbmQ,doglobal_api,957_14,Install,0.6,133.203.172.96,5671894D-374F-4947-8938-FDDFDA83F8EA,1558919549,2019-05-27 09:12:29,1558919747,2019-05-27 09:15:47,1558919747,B_0b83c49fef92e183-OTU3Xy0xMjk5MTY1MC02MDAtNDgwLTA1MjctLTE0,http://pb.xyz.duunion.com/conv?tid=B_0b83c49fef92e183-OTU3Xy0xMjk5MTY1MC02MDAtNDgwLTA1MjctLTE0&adv_sectkn=55dea06a643eb8a2d267a735fe2683bd&adv_name=appier-api&payout=0.6,idfa_5671894D-374F-4947-8938-FDDFDA83F8EA,ja
_6R1DZPmT3SiXO2cwcdbmQ,doglobal_api,957_14,Install,0.6,42.147.36.122,0AD710D6-5056-434F-B3B9-439EB46179FE,1558923615,2019-05-27 10:20:15,1558923819,2019-05-27 10:23:39,1558923819,B_e26081f14ebe039c-OTU3Xy0xMjk5MTY1MC02MDAtNDgwLTA1MjctLTE0,http://pb.xyz.duunion.com/conv?tid=B_e26081f14ebe039c-OTU3Xy0xMjk5MTY1MC02MDAtNDgwLTA1MjctLTE0&adv_sectkn=55dea06a643eb8a2d267a735fe2683bd&adv_name=appier-api&payout=0.6,idfa_0AD710D6-5056-434F-B3B9-439EB46179FE,ja
_6R1DZPmT3SiXO2cwcdbmQ,doglobal_api,957_14,Install,0.6,125.197.53.243,112D11A9-B48A-421B-B6AC-0D035EDC0223,1558925653,2019-05-27 10:54:13,1558925752,2019-05-27 10:55:52,1558925752,P_a3bf491096f26bbf-OTU3Xy0xMjk5MTY1MC02MDAtNDgwLTA1MjctLTE0,http://pb.xyz.duunion.com/conv?tid=P_a3bf491096f26bbf-OTU3Xy0xMjk5MTY1MC02MDAtNDgwLTA1MjctLTE0&adv_sectkn=55dea06a643eb8a2d267a735fe2683bd&adv_name=appier-api&payout=0.6,idfa_112D11A9-B48A-421B-B6AC-0D035EDC0223,ja
_6R1DZPmT3SiXO2cwcdbmQ,doglobal_api,957_14,Install,0.6,60.144.59.238,8120224C-919C-4F3E-8BC7-1573AF0DDB67,1558925078,2019-05-27 10:44:38,1558925232,2019-05-27 10:47:12,1558925232,P_8219fea6e5e2467e-OTU3Xy0xMjk5MTY1MC02MDAtNDgwLTA1MjctLTE0,http://pb.xyz.duunion.com/conv?tid=P_8219fea6e5e2467e-OTU3Xy0xMjk5MTY1MC02MDAtNDgwLTA1MjctLTE0&adv_sectkn=55dea06a643eb8a2d267a735fe2683bd&adv_name=appier-api&payout=0.6,idfa_8120224C-919C-4F3E-8BC7-1573AF0DDB67,ja
_6R1DZPmT3SiXO2cwcdbmQ,doglobal_api,957_14,Install,0.6,121.109.30.203,93158D3B-7FCF-49EA-8954-863F5AD0EF6B,1558922098,2019-05-27 09:54:58,1558922268,2019-05-27 09:57:48,1558922268,P_6cb911eb101fb832-OTU3Xy0xMjk5MTY1MC02MDAtNDgwLTA1MjctLTE0,http://pb.xyz.duunion.com/conv?tid=P_6cb911eb101fb832-OTU3Xy0xMjk5MTY1MC02MDAtNDgwLTA1MjctLTE0&adv_sectkn=55dea06a643eb8a2d267a735fe2683bd&adv_name=appier-api&payout=0.6,idfa_93158D3B-7FCF-49EA-8954-863F5AD0EF6B,ja
_6R1DZPmT3SiXO2cwcdbmQ,doglobal_api,957_14,Install,0.6,60.69.241.180,20D49601-99E4-4837-A6E6-22CF1DF0D6B4,1558919026,2019-05-27 09:03:46,1558919134,2019-05-27 09:05:34,1558919134,P_4c1f050ace785880-OTU3Xy0xMjk5MTY1MC02MDAtNDgwLTA1MjctLTE0,http://pb.xyz.duunion.com/conv?tid=P_4c1f050ace785880-OTU3Xy0xMjk5MTY1MC02MDAtNDgwLTA1MjctLTE0&adv_sectkn=55dea06a643eb8a2d267a735fe2683bd&adv_name=appier-api&payout=0.6,idfa_20D49601-99E4-4837-A6E6-22CF1DF0D6B4,ja
_6R1DZPmT3SiXO2cwcdbmQ,doglobal_api,957_14,Install,0.6,111.106.176.199,AF62F083-E2BB-43E5-901D-303CFCBF8E29,1558919284,2019-05-27 09:08:04,1558919431,2019-05-27 09:10:31,1558919431,P_2fddf77d1f321818-OTU3Xy0xMjk5MTY1MC02MDAtNDgwLTA1MjctLTE0,http://pb.xyz.duunion.com/conv?tid=P_2fddf77d1f321818-OTU3Xy0xMjk5MTY1MC02MDAtNDgwLTA1MjctLTE0&adv_sectkn=55dea06a643eb8a2d267a735fe2683bd&adv_name=appier-api&payout=0.6,idfa_AF62F083-E2BB-43E5-901D-303CFCBF8E29,ja
_6R1DZPmT3SiXO2cwcdbmQ,doglobal_api,957_14,Install,0.6,14.11.9.224,840C07C0-4DF8-47AF-A3D8-B0A800DBEC9C,1558922735,2019-05-27 10:05:35,1558922873,2019-05-27 10:07:53,1558922873,B_0601d043f0baeac5-OTU3Xy0xMjk5MTY1MC02MDAtNDgwLTA1MjctLTE0,http://pb.xyz.duunion.com/conv?tid=B_0601d043f0baeac5-OTU3Xy0xMjk5MTY1MC02MDAtNDgwLTA1MjctLTE0&adv_sectkn=55dea06a643eb8a2d267a735fe2683bd&adv_name=appier-api&payout=0.6,idfa_840C07C0-4DF8-47AF-A3D8-B0A800DBEC9C,ja
_6R1DZPmT3SiXO2cwcdbmQ,doglobal_api,957_14,Install,0.6,133.79.230.12,504C136E-587F-45C4-9BD0-DE5A66FB54FF,1558918799,2019-05-27 08:59:59,1558918944,2019-05-27 09:02:24,1558918944,B_6a6714a62e088d8c-OTU3Xy0xMjk5MTY1MC02MDAtNDgwLTA1MjctLTE0,http://pb.xyz.duunion.com/conv?tid=B_6a6714a62e088d8c-OTU3Xy0xMjk5MTY1MC02MDAtNDgwLTA1MjctLTE0&adv_sectkn=55dea06a643eb8a2d267a735fe2683bd&adv_name=appier-api&payout=0.6,idfa_504C136E-587F-45C4-9BD0-DE5A66FB54FF,ja
_6R1DZPmT3SiXO2cwcdbmQ,doglobal_api,957_14,Install,0.6,126.125.181.30,055D8A3F-F138-44D0-B904-A858C0E4851C,1558925796,2019-05-27 10:56:36,1558925969,2019-05-27 10:59:29,1558925969,B_3cb07108778e0a8d-OTU3Xy0xMjk5MTY1MC02MDAtNDgwLTA1MjctLTE0,http://pb.xyz.duunion.com/conv?tid=B_3cb07108778e0a8d-OTU3Xy0xMjk5MTY1MC02MDAtNDgwLTA1MjctLTE0&adv_sectkn=55dea06a643eb8a2d267a735fe2683bd&adv_name=appier-api&payout=0.6,idfa_055D8A3F-F138-44D0-B904-A858C0E4851C,ja
_6R1DZPmT3SiXO2cwcdbmQ,doglobal_api,957_14,Install,0.6,203.205.112.37,23D62798-36E0-4AE2-BA0B-75353492A2DA,1558923273,2019-05-27 10:14:33,1558923483,2019-05-27 10:18:03,1558923483,B_5b54a1d07e7e5ef9-OTU3Xy0xMjk5MTY1MC02MDAtNDgwLTA1MjctLTE0,http://pb.xyz.duunion.com/conv?tid=B_5b54a1d07e7e5ef9-OTU3Xy0xMjk5MTY1MC02MDAtNDgwLTA1MjctLTE0&adv_sectkn=55dea06a643eb8a2d267a735fe2683bd&adv_name=appier-api&payout=0.6,idfa_23D62798-36E0-4AE2-BA0B-75353492A2DA,ja
_6R1DZPmT3SiXO2cwcdbmQ,doglobal_api,957_14,Install,0.6,153.254.195.22,A2E47022-78C3-43D5-B1DE-328D45E9AD09,1558923765,2019-05-27 10:22:45,1558923921,2019-05-27 10:25:21,1558923921,P_c2d03fcc771116f7-OTU3Xy0xMjk5MTY1MC02MDAtNDgwLTA1MjctLTE0,http://pb.xyz.duunion.com/conv?tid=P_c2d03fcc771116f7-OTU3Xy0xMjk5MTY1MC02MDAtNDgwLTA1MjctLTE0&adv_sectkn=55dea06a643eb8a2d267a735fe2683bd&adv_name=appier-api&payout=0.6,idfa_A2E47022-78C3-43D5-B1DE-328D45E9AD09,ja
_6R1DZPmT3SiXO2cwcdbmQ,doglobal_api,957_14,Install,0.6,123.216.110.98,3FEFCC81-0871-4908-A0FD-4CE64D595157,1558918439,2019-05-27 08:53:59,1558918619,2019-05-27 08:56:59,1558918619,P_581a7f8947910352-OTU3Xy0xMjk5MTY1MC02MDAtNDgwLTA1MjctLTE0,http://pb.xyz.duunion.com/conv?tid=P_581a7f8947910352-OTU3Xy0xMjk5MTY1MC02MDAtNDgwLTA1MjctLTE0&adv_sectkn=55dea06a643eb8a2d267a735fe2683bd&adv_name=appier-api&payout=0.6,idfa_3FEFCC81-0871-4908-A0FD-4CE64D595157,ja
_6R1DZPmT3SiXO2cwcdbmQ,doglobal_api,957_14,Install,0.6,124.103.41.190,8AE1925C-4597-46FB-98BA-08E3143517A0,1558920137,2019-05-27 09:22:17,1558920311,2019-05-27 09:25:11,1558920311,B_dc664993074d288f-OTU3Xy0xMjk5MTY1MC02MDAtNDgwLTA1MjctLTE0,http://pb.xyz.duunion.com/conv?tid=B_dc664993074d288f-OTU3Xy0xMjk5MTY1MC02MDAtNDgwLTA1MjctLTE0&adv_sectkn=55dea06a643eb8a2d267a735fe2683bd&adv_name=appier-api&payout=0.6,idfa_8AE1925C-4597-46FB-98BA-08E3143517A0,ja
_6R1DZPmT3SiXO2cwcdbmQ,doglobal_api,957_14,Install,0.6,122.210.11.36,13371B68-E973-414B-B912-65645CEB5BE9,1558923081,2019-05-27 10:11:21,1558923245,2019-05-27 10:14:05,1558923245,B_fd782b08d51bc7b2-OTU3Xy0xMjk5MTY1MC02MDAtNDgwLTA1MjctLTE0,http://pb.xyz.duunion.com/conv?tid=B_fd782b08d51bc7b2-OTU3Xy0xMjk5MTY1MC02MDAtNDgwLTA1MjctLTE0&adv_sectkn=55dea06a643eb8a2d267a735fe2683bd&adv_name=appier-api&payout=0.6,idfa_13371B68-E973-414B-B912-65645CEB5BE9,ja
_6R1DZPmT3SiXO2cwcdbmQ,doglobal_api,957_14,Install,0.6,219.113.118.150,197550A4-CE19-4090-ADFF-A8C687FCA8F3,1558922568,2019-05-27 10:02:48,1558922729,2019-05-27 10:05:29,1558922729,P_3df215167dbc4605-OTU3Xy0xMjk5MTY1MC02MDAtNDgwLTA1MjctLTE0,http://pb.xyz.duunion.com/conv?tid=P_3df215167dbc4605-OTU3Xy0xMjk5MTY1MC02MDAtNDgwLTA1MjctLTE0&adv_sectkn=55dea06a643eb8a2d267a735fe2683bd&adv_name=appier-api&payout=0.6,idfa_197550A4-CE19-4090-ADFF-A8C687FCA8F3,ja
_6R1DZPmT3SiXO2cwcdbmQ,doglobal_api,957_14,Install,0.6,119.242.102.183,453B2532-EC9A-4756-8CA4-4A75C99C7BF0,1558923933,2019-05-27 10:25:33,1558924109,2019-05-27 10:28:29,1558924109,B_d1574c6b3b743de7-OTU3Xy0xMjk5MTY1MC02MDAtNDgwLTA1MjctLTE0,http://pb.xyz.duunion.com/conv?tid=B_d1574c6b3b743de7-OTU3Xy0xMjk5MTY1MC02MDAtNDgwLTA1MjctLTE0&adv_sectkn=55dea06a643eb8a2d267a735fe2683bd&adv_name=appier-api&payout=0.6,idfa_453B2532-EC9A-4756-8CA4-4A75C99C7BF0,ja
_6R1DZPmT3SiXO2cwcdbmQ,doglobal_api,957_14,Install,0.6,126.28.189.13,9D979113-CF77-4DC4-AD88-00994AE89D1B,1558923250,2019-05-27 10:14:10,1558923415,2019-05-27 10:16:55,1558923415,P_d8a39d790f14f644-OTU3Xy0xMjk5MTY1MC02MDAtNDgwLTA1MjctLTE0,http://pb.xyz.duunion.com/conv?tid=P_d8a39d790f14f644-OTU3Xy0xMjk5MTY1MC02MDAtNDgwLTA1MjctLTE0&adv_sectkn=55dea06a643eb8a2d267a735fe2683bd&adv_name=appier-api&payout=0.6,idfa_9D979113-CF77-4DC4-AD88-00994AE89D1B,ja
_6R1DZPmT3SiXO2cwcdbmQ,doglobal_api,957_14,Install,0.6,180.235.8.71,339B9766-4207-4409-879D-B17ACC4294AF,1558918311,2019-05-27 08:51:51,1558918463,2019-05-27 08:54:23,1558918463,P_5ea9766a1ee57412-OTU3Xy0xMjk5MTY1MC02MDAtNDgwLTA1MjctLTE0,http://pb.xyz.duunion.com/conv?tid=P_5ea9766a1ee57412-OTU3Xy0xMjk5MTY1MC02MDAtNDgwLTA1MjctLTE0&adv_sectkn=55dea06a643eb8a2d267a735fe2683bd&adv_name=appier-api&payout=0.6,idfa_339B9766-4207-4409-879D-B17ACC4294AF,ja
_6R1DZPmT3SiXO2cwcdbmQ,doglobal_api,957_14,Install,0.6,119.47.212.227,6755EE78-5135-4273-AD1A-E3C7AEE7F5B3,1558920674,2019-05-27 09:31:14,1558920858,2019-05-27 09:34:18,1558920858,P_1067591bfd962f46-OTU3Xy0xMjk5MTY1MC02MDAtNDgwLTA1MjctLTE0,http://pb.xyz.duunion.com/conv?tid=P_1067591bfd962f46-OTU3Xy0xMjk5MTY1MC02MDAtNDgwLTA1MjctLTE0&adv_sectkn=55dea06a643eb8a2d267a735fe2683bd&adv_name=appier-api&payout=0.6,idfa_6755EE78-5135-4273-AD1A-E3C7AEE7F5B3,ja
_6R1DZPmT3SiXO2cwcdbmQ,doglobal_api,957_14,Install,0.6,153.165.144.59,05FFE945-1514-48CC-99EB-1DA49BB633EC,1558919882,2019-05-27 09:18:02,1558920017,2019-05-27 09:20:17,1558920017,P_994a4ee184fe8545-OTU3Xy0xMjk5MTY1MC02MDAtNDgwLTA1MjctLTE0,http://pb.xyz.duunion.com/conv?tid=P_994a4ee184fe8545-OTU3Xy0xMjk5MTY1MC02MDAtNDgwLTA1MjctLTE0&adv_sectkn=55dea06a643eb8a2d267a735fe2683bd&adv_name=appier-api&payout=0.6,idfa_05FFE945-1514-48CC-99EB-1DA49BB633EC,ja
_6R1DZPmT3SiXO2cwcdbmQ,doglobal_api,957_14,Install,0.6,126.74.227.148,6C5457A8-6496-404F-AAED-7F09A41E283F,1558920427,2019-05-27 09:27:07,1558920622,2019-05-27 09:30:22,1558920622,B_83816fc51ccd2ae2-OTU3Xy0xMjk5MTY1MC02MDAtNDgwLTA1MjctLTE0,http://pb.xyz.duunion.com/conv?tid=B_83816fc51ccd2ae2-OTU3Xy0xMjk5MTY1MC02MDAtNDgwLTA1MjctLTE0&adv_sectkn=55dea06a643eb8a2d267a735fe2683bd&adv_name=appier-api&payout=0.6,idfa_6C5457A8-6496-404F-AAED-7F09A41E283F,ja
_6R1DZPmT3SiXO2cwcdbmQ,doglobal_api,957_14,Install,0.6,111.97.43.114,0AC9DD7D-6B92-42E8-9A86-05576BD2B215,1558918496,2019-05-27 08:54:56,1558918704,2019-05-27 08:58:24,1558918704,B_4183d061d159bc86-OTU3Xy0xMjk5MTY1MC02MDAtNDgwLTA1MjctLTE0,http://pb.xyz.duunion.com/conv?tid=B_4183d061d159bc86-OTU3Xy0xMjk5MTY1MC02MDAtNDgwLTA1MjctLTE0&adv_sectkn=55dea06a643eb8a2d267a735fe2683bd&adv_name=appier-api&payout=0.6,idfa_0AC9DD7D-6B92-42E8-9A86-05576BD2B215,ja
_6R1DZPmT3SiXO2cwcdbmQ,doglobal_api,957_14,Install,0.6,219.10.63.148,81E48958-541F-4F6F-A8D8-060B7B3EC557,1558919693,2019-05-27 09:14:53,1558919866,2019-05-27 09:17:46,1558919866,P_2bd00a4eb5a226cc-OTU3Xy0xMjk5MTY1MC02MDAtNDgwLTA1MjctLTE0,http://pb.xyz.duunion.com/conv?tid=P_2bd00a4eb5a226cc-OTU3Xy0xMjk5MTY1MC02MDAtNDgwLTA1MjctLTE0&adv_sectkn=55dea06a643eb8a2d267a735fe2683bd&adv_name=appier-api&payout=0.6,idfa_81E48958-541F-4F6F-A8D8-060B7B3EC557,ja
_6R1DZPmT3SiXO2cwcdbmQ,doglobal_api,957_14,Install,0.6,27.0.19.230,3CB661F8-15F5-4CF6-8B0E-D4036B4BAE4F,1558919798,2019-05-27 09:16:38,1558919956,2019-05-27 09:19:16,1558919956,P_153bc8671d61118e-OTU3Xy0xMjk5MTY1MC02MDAtNDgwLTA1MjctLTE0,http://pb.xyz.duunion.com/conv?tid=P_153bc8671d61118e-OTU3Xy0xMjk5MTY1MC02MDAtNDgwLTA1MjctLTE0&adv_sectkn=55dea06a643eb8a2d267a735fe2683bd&adv_name=appier-api&payout=0.6,idfa_3CB661F8-15F5-4CF6-8B0E-D4036B4BAE4F,ja
_6R1DZPmT3SiXO2cwcdbmQ,doglobal_api,957_14,Install,0.6,58.188.114.112,6906BEEB-7723-4F16-A6FE-A997C7114BEA,1558921557,2019-05-27 09:45:57,1558921718,2019-05-27 09:48:38,1558921718,B_2eb67831ba407a73-OTU3Xy0xMjk5MTY1MC02MDAtNDgwLTA1MjctLTE0,http://pb.xyz.duunion.com/conv?tid=B_2eb67831ba407a73-OTU3Xy0xMjk5MTY1MC02MDAtNDgwLTA1MjctLTE0&adv_sectkn=55dea06a643eb8a2d267a735fe2683bd&adv_name=appier-api&payout=0.6,idfa_6906BEEB-7723-4F16-A6FE-A997C7114BEA,ja
_6R1DZPmT3SiXO2cwcdbmQ,doglobal_api,957_14,Install,0.6,218.225.250.38,07C2A80C-AB5F-4188-BC22-DF23C02D83D8,1558921805,2019-05-27 09:50:05,1558921974,2019-05-27 09:52:54,1558921974,P_057d0227acef068b-OTU3Xy0xMjk5MTY1MC02MDAtNDgwLTA1MjctLTE0,http://pb.xyz.duunion.com/conv?tid=P_057d0227acef068b-OTU3Xy0xMjk5MTY1MC02MDAtNDgwLTA1MjctLTE0&adv_sectkn=55dea06a643eb8a2d267a735fe2683bd&adv_name=appier-api&payout=0.6,idfa_07C2A80C-AB5F-4188-BC22-DF23C02D83D8,ja
_6R1DZPmT3SiXO2cwcdbmQ,doglobal_api,957_14,Install,0.6,153.193.66.62,2B6F55B1-2967-4583-8D00-F6AEF9BC86E2,1558925646,2019-05-27 10:54:06,1558925824,2019-05-27 10:57:04,1558925824,P_6802ffa1adcc0b5d-OTU3Xy0xMjk5MTY1MC02MDAtNDgwLTA1MjctLTE0,http://pb.xyz.duunion.com/conv?tid=P_6802ffa1adcc0b5d-OTU3Xy0xMjk5MTY1MC02MDAtNDgwLTA1MjctLTE0&adv_sectkn=55dea06a643eb8a2d267a735fe2683bd&adv_name=appier-api&payout=0.6,idfa_2B6F55B1-2967-4583-8D00-F6AEF9BC86E2,ja
_6R1DZPmT3SiXO2cwcdbmQ,doglobal_api,957_14,Install,0.6,110.132.131.202,39CCE5D7-C10A-4962-87F6-66C1FCE6DF68,1558919536,2019-05-27 09:12:16,1558919641,2019-05-27 09:14:01,1558919641,P_941f82d99b7a1dcd-OTU3Xy0xMjk5MTY1MC02MDAtNDgwLTA1MjctLTE0,http://pb.xyz.duunion.com/conv?tid=P_941f82d99b7a1dcd-OTU3Xy0xMjk5MTY1MC02MDAtNDgwLTA1MjctLTE0&adv_sectkn=55dea06a643eb8a2d267a735fe2683bd&adv_name=appier-api&payout=0.6,idfa_39CCE5D7-C10A-4962-87F6-66C1FCE6DF68,ja
_6R1DZPmT3SiXO2cwcdbmQ,doglobal_api,957_14,Install,0.6,116.193.124.26,8A7C8E96-AE0C-4F4B-9B72-1D20374C80A4,1558925582,2019-05-27 10:53:02,1558925724,2019-05-27 10:55:24,1558925724,B_77611125ce7f3d42-OTU3Xy0xMjk5MTY1MC02MDAtNDgwLTA1MjctLTE0,http://pb.xyz.duunion.com/conv?tid=B_77611125ce7f3d42-OTU3Xy0xMjk5MTY1MC02MDAtNDgwLTA1MjctLTE0&adv_sectkn=55dea06a643eb8a2d267a735fe2683bd&adv_name=appier-api&payout=0.6,idfa_8A7C8E96-AE0C-4F4B-9B72-1D20374C80A4,ja
_6R1DZPmT3SiXO2cwcdbmQ,doglobal_api,957_14,Install,0.6,61.213.184.172,224969CD-EF30-40A3-95C3-AB23D24C8805,1558920569,2019-05-27 09:29:29,1558920726,2019-05-27 09:32:06,1558920726,B_a09319de142cb193-OTU3Xy0xMjk5MTY1MC02MDAtNDgwLTA1MjctLTE0,http://pb.xyz.duunion.com/conv?tid=B_a09319de142cb193-OTU3Xy0xMjk5MTY1MC02MDAtNDgwLTA1MjctLTE0&adv_sectkn=55dea06a643eb8a2d267a735fe2683bd&adv_name=appier-api&payout=0.6,idfa_224969CD-EF30-40A3-95C3-AB23D24C8805,ja
