cid,partner_id,channel_id,action_id,cpi,ip,idfa,click time,click datetime,install time,install datetime,postback time,click id,postback url,unique user id
luAwkgWnTlO0HLhYkWCVag,doglobal_api,784_5121,Of81qbvWSPKfViI7CdMfcw,2.8,,5DBF8419-9A59-4654-91B3-A983479FA892,1558287777,2019-05-20 01:42:57,1558287790,2019-05-20 01:43:10,1558287790,P_7cc6b7ddc8cd5183-Nzg0Xy0xMTg0MTQ0Ny0yODAwLTI4MDAtMDUyMC0tNTEyMQ,http://pb.xyz.duunion.com/conv?tid=P_7cc6b7ddc8cd5183-Nzg0Xy0xMTg0MTQ0Ny0yODAwLTI4MDAtMDUyMC0tNTEyMQ&adv_sectkn=55dea06a643eb8a2d267a735fe2683bd&adv_name=appier-api&payout=2.8,idfa_5DBF8419-9A59-4654-91B3-A983479FA892,ja
luAwkgWnTlO0HLhYkWCVag,doglobal_api,784_5121,Of81qbvWSPKfViI7CdMfcw,2.8,,D161DF83-72EA-4836-BBF1-BAB2579B151B,1558154632,2019-05-18 12:43:52,1558156864,2019-05-18 13:21:04,1558156864,B_134cee7c9c58a00c-Nzg0Xy0xMTg0MTQ0Ny0yODAwLTI4MDAtMDUxOC0tNTEyMQ,http://pb.xyz.duunion.com/conv?tid=B_134cee7c9c58a00c-Nzg0Xy0xMTg0MTQ0Ny0yODAwLTI4MDAtMDUxOC0tNTEyMQ&adv_sectkn=55dea06a643eb8a2d267a735fe2683bd&adv_name=appier-api&payout=2.8,idfa_D161DF83-72EA-4836-BBF1-BAB2579B151B,ja
luAwkgWnTlO0HLhYkWCVag,doglobal_api,784_5121,Of81qbvWSPKfViI7CdMfcw,2.8,,4D4FA573-CE70-4D89-98AA-D7907C95D157,1558254345,2019-05-19 16:25:45,1558266669,2019-05-19 19:51:09,1558266669,P_ff5cb58ccff07997-Nzg0Xy0xMTg0MTQ0Ny0yODAwLTI4MDAtMDUxOS0tNTEyMQ,http://pb.xyz.duunion.com/conv?tid=P_ff5cb58ccff07997-Nzg0Xy0xMTg0MTQ0Ny0yODAwLTI4MDAtMDUxOS0tNTEyMQ&adv_sectkn=55dea06a643eb8a2d267a735fe2683bd&adv_name=appier-api&payout=2.8,idfa_4D4FA573-CE70-4D89-98AA-D7907C95D157,ja
luAwkgWnTlO0HLhYkWCVag,doglobal_api,784_5121,Of81qbvWSPKfViI7CdMfcw,2.8,,BC4A924A-46FA-4DC3-8515-B3646562108E,1558258187,2019-05-19 17:29:47,1558435512,2019-05-21 18:45:12,1558435512,B_3af06f75c8d020f3-Nzg0Xy0xMTg0MTQ0Ny0yODAwLTI4MDAtMDUxOS0tNTEyMQ,http://pb.xyz.duunion.com/conv?tid=B_3af06f75c8d020f3-Nzg0Xy0xMTg0MTQ0Ny0yODAwLTI4MDAtMDUxOS0tNTEyMQ&adv_sectkn=55dea06a643eb8a2d267a735fe2683bd&adv_name=appier-api&payout=2.8,idfa_BC4A924A-46FA-4DC3-8515-B3646562108E,ja
luAwkgWnTlO0HLhYkWCVag,doglobal_api,784_5127,Of81qbvWSPKfViI7CdMfcw,2.8,,50B531B4-F8F9-4822-8665-96BC5471A951,1557576950,2019-05-11 20:15:50,1557646621,2019-05-12 15:37:01,1557646621,P_b60c6fff4b69c50a-Nzg0Xy0xMTg0MTQ0Ny0yODAwLTI4MDAtMDUxMS0tNTEyNw,http://pb.xyz.duunion.com/conv?tid=P_b60c6fff4b69c50a-Nzg0Xy0xMTg0MTQ0Ny0yODAwLTI4MDAtMDUxMS0tNTEyNw&adv_sectkn=55dea06a643eb8a2d267a735fe2683bd&adv_name=appier-api&payout=2.8,idfa_50B531B4-F8F9-4822-8665-96BC5471A951,ja
luAwkgWnTlO0HLhYkWCVag,doglobal_api,784_3641,Of81qbvWSPKfViI7CdMfcw,2.8,,6BE6F926-77DA-4657-BB05-F17B535F3173,1557549138,2019-05-11 12:32:18,1557567168,2019-05-11 17:32:48,1557567168,B_3dd2334bd283f5c0-Nzg0Xy0xMTg0MTQ0Ny0yODAwLTI4MDAtMDUxMS0tMzY0MQ,http://pb.xyz.duunion.com/conv?tid=B_3dd2334bd283f5c0-Nzg0Xy0xMTg0MTQ0Ny0yODAwLTI4MDAtMDUxMS0tMzY0MQ&adv_sectkn=55dea06a643eb8a2d267a735fe2683bd&adv_name=appier-api&payout=2.8,idfa_6BE6F926-77DA-4657-BB05-F17B535F3173,ja
luAwkgWnTlO0HLhYkWCVag,doglobal_api,784_5127,Of81qbvWSPKfViI7CdMfcw,2.8,,BD4DE2E3-2355-41A2-B9C7-080DF113BB07,1557565949,2019-05-11 17:12:29,1557724805,2019-05-13 13:20:05,1557724805,B_8434aa32f6cb34f8-Nzg0Xy0xMTg0MTQ0Ny0yODAwLTI4MDAtMDUxMS0tNTEyNw,http://pb.xyz.duunion.com/conv?tid=B_8434aa32f6cb34f8-Nzg0Xy0xMTg0MTQ0Ny0yODAwLTI4MDAtMDUxMS0tNTEyNw&adv_sectkn=55dea06a643eb8a2d267a735fe2683bd&adv_name=appier-api&payout=2.8,idfa_BD4DE2E3-2355-41A2-B9C7-080DF113BB07,ja
luAwkgWnTlO0HLhYkWCVag,doglobal_api,784_5121,Of81qbvWSPKfViI7CdMfcw,2.8,,5B52FF77-102F-4E8E-ADD5-16AA70B96461,1558284340,2019-05-20 00:45:40,1558420161,2019-05-21 14:29:21,1558420161,B_6b55c18f8a78323c-Nzg0Xy0xMTg0MTQ0Ny0yODAwLTI4MDAtMDUyMC0tNTEyMQ,http://pb.xyz.duunion.com/conv?tid=B_6b55c18f8a78323c-Nzg0Xy0xMTg0MTQ0Ny0yODAwLTI4MDAtMDUyMC0tNTEyMQ&adv_sectkn=55dea06a643eb8a2d267a735fe2683bd&adv_name=appier-api&payout=2.8,idfa_5B52FF77-102F-4E8E-ADD5-16AA70B96461,ja
luAwkgWnTlO0HLhYkWCVag,doglobal_api,784_3641,Of81qbvWSPKfViI7CdMfcw,2.8,,E1CC5C92-5B7C-442D-9EED-A279C2716712,1557545069,2019-05-11 11:24:29,1558002504,2019-05-16 18:28:24,1558002504,P_4b0bfa16d5c8d38c-Nzg0Xy0xMTg0MTQ0Ny0yODAwLTI4MDAtMDUxMS0tMzY0MQ,http://pb.xyz.duunion.com/conv?tid=P_4b0bfa16d5c8d38c-Nzg0Xy0xMTg0MTQ0Ny0yODAwLTI4MDAtMDUxMS0tMzY0MQ&adv_sectkn=55dea06a643eb8a2d267a735fe2683bd&adv_name=appier-api&payout=2.8,idfa_E1CC5C92-5B7C-442D-9EED-A279C2716712,ja
luAwkgWnTlO0HLhYkWCVag,doglobal_api,784_5121,Of81qbvWSPKfViI7CdMfcw,2.8,,F2499521-401D-4A10-9408-080FADCFCDDD,1558155063,2019-05-18 12:51:03,1558155175,2019-05-18 12:52:55,1558155175,P_3525d6090321a658-Nzg0Xy0xMTg0MTQ0Ny0yODAwLTI4MDAtMDUxOC0tNTEyMQ,http://pb.xyz.duunion.com/conv?tid=P_3525d6090321a658-Nzg0Xy0xMTg0MTQ0Ny0yODAwLTI4MDAtMDUxOC0tNTEyMQ&adv_sectkn=55dea06a643eb8a2d267a735fe2683bd&adv_name=appier-api&payout=2.8,idfa_F2499521-401D-4A10-9408-080FADCFCDDD,ja
luAwkgWnTlO0HLhYkWCVag,doglobal_api,784_3641,Of81qbvWSPKfViI7CdMfcw,2.8,,685DDC1A-9861-402B-9C6E-50BFD25843F6,1557551143,2019-05-11 13:05:43,1557632412,2019-05-12 11:40:12,1557632412,P_4d5698043bddefba-Nzg0Xy0xMTg0MTQ0Ny0yODAwLTI4MDAtMDUxMS0tMzY0MQ,http://pb.xyz.duunion.com/conv?tid=P_4d5698043bddefba-Nzg0Xy0xMTg0MTQ0Ny0yODAwLTI4MDAtMDUxMS0tMzY0MQ&adv_sectkn=55dea06a643eb8a2d267a735fe2683bd&adv_name=appier-api&payout=2.8,idfa_685DDC1A-9861-402B-9C6E-50BFD25843F6,ja
luAwkgWnTlO0HLhYkWCVag,doglobal_api,784_5121,Of81qbvWSPKfViI7CdMfcw,2.8,,F2FB599E-8075-4BB9-B5AD-EA657788DC73,1558258573,2019-05-19 17:36:13,1558444474,2019-05-21 21:14:34,1558444474,B_859018eabd45516f-Nzg0Xy0xMTg0MTQ0Ny0yODAwLTI4MDAtMDUxOS0tNTEyMQ,http://pb.xyz.duunion.com/conv?tid=B_859018eabd45516f-Nzg0Xy0xMTg0MTQ0Ny0yODAwLTI4MDAtMDUxOS0tNTEyMQ&adv_sectkn=55dea06a643eb8a2d267a735fe2683bd&adv_name=appier-api&payout=2.8,idfa_F2FB599E-8075-4BB9-B5AD-EA657788DC73,ja
