cid,partner_id,channel_id,action_id,cpi,ip,idfa,click time,click datetime,install time,install datetime,postback time,click id,postback url,unique user id
F6e_b2egTqunNcOqAQH4xg,doglobal,937_gyuhu__guhj0506,install,5.5,150.246.89.122,CE677092-A799-4357-B9EF-0C3AE9C6196D,1557111091,2019-05-06 10:51:31,1557111165,2019-05-06 10:52:45,1557111195,B_a89d66957a0b45dd-OTM3Xy0xMjI2MDI0OC01NTAwLTQ0MDAtMDUwNi1neXVodV9fZ3VoajA1MDYtZ3l1aHVfX2d1aGo,http://pb.xyz.duunion.com/conv?tid=B_a89d66957a0b45dd-OTM3Xy0xMjI2MDI0OC01NTAwLTQ0MDAtMDUwNi1neXVodV9fZ3VoajA1MDYtZ3l1aHVfX2d1aGo&adv_sectkn=6ce7ea3978d9a0a8dbfac07e4a513a0f&adv_name=Appier,idfa_CE677092-A799-4357-B9EF-0C3AE9C6196D,ja
F6e_b2egTqunNcOqAQH4xg,doglobal,937_gyuhu__guhj0506,install,5.5,211.135.221.193,251AA1E1-FC99-4305-B4CE-47312614EEF3,1557122028,2019-05-06 13:53:48,1557122107,2019-05-06 13:55:07,1557122137,P_e4acbf2834874645-OTM3Xy0xMjI2MDI0OC01NTAwLTQ0MDAtMDUwNi1neXVodV9fZ3VoajA1MDYtZ3l1aHVfX2d1aGo,http://pb.xyz.duunion.com/conv?tid=P_e4acbf2834874645-OTM3Xy0xMjI2MDI0OC01NTAwLTQ0MDAtMDUwNi1neXVodV9fZ3VoajA1MDYtZ3l1aHVfX2d1aGo&adv_sectkn=6ce7ea3978d9a0a8dbfac07e4a513a0f&adv_name=Appier,idfa_251AA1E1-FC99-4305-B4CE-47312614EEF3,ja
F6e_b2egTqunNcOqAQH4xg,doglobal,937_gyuhu__guhj0506,install,5.5,14.3.33.221,F233002A-C592-4B17-B9A2-9408DAECBA6A,1557119085,2019-05-06 13:04:45,1557119196,2019-05-06 13:06:36,1557119226,B_49bc6207420917e9-OTM3Xy0xMjI2MDI0OC01NTAwLTQ0MDAtMDUwNi1neXVodV9fZ3VoajA1MDYtZ3l1aHVfX2d1aGo,http://pb.xyz.duunion.com/conv?tid=B_49bc6207420917e9-OTM3Xy0xMjI2MDI0OC01NTAwLTQ0MDAtMDUwNi1neXVodV9fZ3VoajA1MDYtZ3l1aHVfX2d1aGo&adv_sectkn=6ce7ea3978d9a0a8dbfac07e4a513a0f&adv_name=Appier,idfa_F233002A-C592-4B17-B9A2-9408DAECBA6A,ja
F6e_b2egTqunNcOqAQH4xg,doglobal,937_gyuhu__guhj0506,install,5.5,116.65.77.151,66F4E4C9-19FE-4CD1-9EDA-5C166F21F603,1557106005,2019-05-06 09:26:45,1557106144,2019-05-06 09:29:04,1557106174,B_79c7ba53a7e8ab66-OTM3Xy0xMjI2MDI0OC01NTAwLTQ0MDAtMDUwNi1neXVodV9fZ3VoajA1MDYtZ3l1aHVfX2d1aGo,http://pb.xyz.duunion.com/conv?tid=B_79c7ba53a7e8ab66-OTM3Xy0xMjI2MDI0OC01NTAwLTQ0MDAtMDUwNi1neXVodV9fZ3VoajA1MDYtZ3l1aHVfX2d1aGo&adv_sectkn=6ce7ea3978d9a0a8dbfac07e4a513a0f&adv_name=Appier,idfa_66F4E4C9-19FE-4CD1-9EDA-5C166F21F603,ja
F6e_b2egTqunNcOqAQH4xg,doglobal,937_gyuhu__guhj0506,install,5.5,119.104.145.118,7D22E364-CB49-4943-A723-C1513BF1BC69,1557112057,2019-05-06 11:07:37,1557112176,2019-05-06 11:09:36,1557112206,B_e42129ff1f194ea7-OTM3Xy0xMjI2MDI0OC01NTAwLTQ0MDAtMDUwNi1neXVodV9fZ3VoajA1MDYtZ3l1aHVfX2d1aGo,http://pb.xyz.duunion.com/conv?tid=B_e42129ff1f194ea7-OTM3Xy0xMjI2MDI0OC01NTAwLTQ0MDAtMDUwNi1neXVodV9fZ3VoajA1MDYtZ3l1aHVfX2d1aGo&adv_sectkn=6ce7ea3978d9a0a8dbfac07e4a513a0f&adv_name=Appier,idfa_7D22E364-CB49-4943-A723-C1513BF1BC69,ja
F6e_b2egTqunNcOqAQH4xg,doglobal,937_gyuhu__guhj0506,install,5.5,112.139.164.55,A96F8BD7-1F30-4865-ABD9-72CE34A4BA5C,1557116741,2019-05-06 12:25:41,1557116866,2019-05-06 12:27:46,1557116896,P_0c6274cb2e2c96c9-OTM3Xy0xMjI2MDI0OC01NTAwLTQ0MDAtMDUwNi1neXVodV9fZ3VoajA1MDYtZ3l1aHVfX2d1aGo,http://pb.xyz.duunion.com/conv?tid=P_0c6274cb2e2c96c9-OTM3Xy0xMjI2MDI0OC01NTAwLTQ0MDAtMDUwNi1neXVodV9fZ3VoajA1MDYtZ3l1aHVfX2d1aGo&adv_sectkn=6ce7ea3978d9a0a8dbfac07e4a513a0f&adv_name=Appier,idfa_A96F8BD7-1F30-4865-ABD9-72CE34A4BA5C,ja
F6e_b2egTqunNcOqAQH4xg,doglobal,937_gyuhu__guhj0506,install,5.5,49.156.202.95,D0F36524-28B5-4CBB-9B15-46FCD4519870,1557111627,2019-05-06 11:00:27,1557111717,2019-05-06 11:01:57,1557111747,B_421f9de67c540cfa-OTM3Xy0xMjI2MDI0OC01NTAwLTQ0MDAtMDUwNi1neXVodV9fZ3VoajA1MDYtZ3l1aHVfX2d1aGo,http://pb.xyz.duunion.com/conv?tid=B_421f9de67c540cfa-OTM3Xy0xMjI2MDI0OC01NTAwLTQ0MDAtMDUwNi1neXVodV9fZ3VoajA1MDYtZ3l1aHVfX2d1aGo&adv_sectkn=6ce7ea3978d9a0a8dbfac07e4a513a0f&adv_name=Appier,idfa_D0F36524-28B5-4CBB-9B15-46FCD4519870,ja
F6e_b2egTqunNcOqAQH4xg,doglobal,937_gyuhu__guhj0506,install,5.5,118.104.148.213,B003C8C2-48C6-42CF-833E-0204C0AC6560,1557107302,2019-05-06 09:48:22,1557107494,2019-05-06 09:51:34,1557107525,P_8fbc28f6ca667d51-OTM3Xy0xMjI2MDI0OC01NTAwLTQ0MDAtMDUwNi1neXVodV9fZ3VoajA1MDYtZ3l1aHVfX2d1aGo,http://pb.xyz.duunion.com/conv?tid=P_8fbc28f6ca667d51-OTM3Xy0xMjI2MDI0OC01NTAwLTQ0MDAtMDUwNi1neXVodV9fZ3VoajA1MDYtZ3l1aHVfX2d1aGo&adv_sectkn=6ce7ea3978d9a0a8dbfac07e4a513a0f&adv_name=Appier,idfa_B003C8C2-48C6-42CF-833E-0204C0AC6560,ja
F6e_b2egTqunNcOqAQH4xg,doglobal,937_gyuhu__guhj0506,install,5.5,126.227.242.113,69559A1D-3B67-4285-9A2A-981469281E9B,1557115179,2019-05-06 11:59:39,1557115297,2019-05-06 12:01:37,1557115327,P_f49c60a5de840545-OTM3Xy0xMjI2MDI0OC01NTAwLTQ0MDAtMDUwNi1neXVodV9fZ3VoajA1MDYtZ3l1aHVfX2d1aGo,http://pb.xyz.duunion.com/conv?tid=P_f49c60a5de840545-OTM3Xy0xMjI2MDI0OC01NTAwLTQ0MDAtMDUwNi1neXVodV9fZ3VoajA1MDYtZ3l1aHVfX2d1aGo&adv_sectkn=6ce7ea3978d9a0a8dbfac07e4a513a0f&adv_name=Appier,idfa_69559A1D-3B67-4285-9A2A-981469281E9B,ja
F6e_b2egTqunNcOqAQH4xg,doglobal,937_gyuhu__guhj0506,install,5.5,220.97.40.133,E7F52339-E526-4D14-A96B-7914097EE575,1557112727,2019-05-06 11:18:47,1557112810,2019-05-06 11:20:10,1557112840,P_950c11ec8ca14834-OTM3Xy0xMjI2MDI0OC01NTAwLTQ0MDAtMDUwNi1neXVodV9fZ3VoajA1MDYtZ3l1aHVfX2d1aGo,http://pb.xyz.duunion.com/conv?tid=P_950c11ec8ca14834-OTM3Xy0xMjI2MDI0OC01NTAwLTQ0MDAtMDUwNi1neXVodV9fZ3VoajA1MDYtZ3l1aHVfX2d1aGo&adv_sectkn=6ce7ea3978d9a0a8dbfac07e4a513a0f&adv_name=Appier,idfa_E7F52339-E526-4D14-A96B-7914097EE575,ja
F6e_b2egTqunNcOqAQH4xg,doglobal,937_gyuhu__guhj0506,install,5.5,59.136.34.214,D2EFDD23-7F4B-4175-AD76-8041AB6125D3,1557105350,2019-05-06 09:15:50,1557105512,2019-05-06 09:18:32,1557105543,P_336e746887c48dfc-OTM3Xy0xMjI2MDI0OC01NTAwLTQ0MDAtMDUwNi1neXVodV9fZ3VoajA1MDYtZ3l1aHVfX2d1aGo,http://pb.xyz.duunion.com/conv?tid=P_336e746887c48dfc-OTM3Xy0xMjI2MDI0OC01NTAwLTQ0MDAtMDUwNi1neXVodV9fZ3VoajA1MDYtZ3l1aHVfX2d1aGo&adv_sectkn=6ce7ea3978d9a0a8dbfac07e4a513a0f&adv_name=Appier,idfa_D2EFDD23-7F4B-4175-AD76-8041AB6125D3,ja
F6e_b2egTqunNcOqAQH4xg,doglobal,937_gyuhu__guhj0506,install,5.5,180.20.168.168,86A0F5CC-0AC8-468A-ADF9-867164280C74,1557105890,2019-05-06 09:24:50,1557105999,2019-05-06 09:26:39,1557106029,P_4edd99bbbbc0ad3d-OTM3Xy0xMjI2MDI0OC01NTAwLTQ0MDAtMDUwNi1neXVodV9fZ3VoajA1MDYtZ3l1aHVfX2d1aGo,http://pb.xyz.duunion.com/conv?tid=P_4edd99bbbbc0ad3d-OTM3Xy0xMjI2MDI0OC01NTAwLTQ0MDAtMDUwNi1neXVodV9fZ3VoajA1MDYtZ3l1aHVfX2d1aGo&adv_sectkn=6ce7ea3978d9a0a8dbfac07e4a513a0f&adv_name=Appier,idfa_86A0F5CC-0AC8-468A-ADF9-867164280C74,ja
F6e_b2egTqunNcOqAQH4xg,doglobal,937_gyuhu__guhj0506,install,5.5,220.3.253.165,E38E9037-3C8C-4B9A-89E0-D1C1567CB55C,1557110525,2019-05-06 10:42:05,1557110612,2019-05-06 10:43:32,1557110642,P_cc52aea9a1154669-OTM3Xy0xMjI2MDI0OC01NTAwLTQ0MDAtMDUwNi1neXVodV9fZ3VoajA1MDYtZ3l1aHVfX2d1aGo,http://pb.xyz.duunion.com/conv?tid=P_cc52aea9a1154669-OTM3Xy0xMjI2MDI0OC01NTAwLTQ0MDAtMDUwNi1neXVodV9fZ3VoajA1MDYtZ3l1aHVfX2d1aGo&adv_sectkn=6ce7ea3978d9a0a8dbfac07e4a513a0f&adv_name=Appier,idfa_E38E9037-3C8C-4B9A-89E0-D1C1567CB55C,ja
F6e_b2egTqunNcOqAQH4xg,doglobal,937_gyuhu__guhj0506,install,5.5,121.109.22.120,C3DBBCAE-6583-4F5D-8469-1853285B5FDD,1557112167,2019-05-06 11:09:27,1557112259,2019-05-06 11:10:59,1557112289,B_dc708658725b7ce5-OTM3Xy0xMjI2MDI0OC01NTAwLTQ0MDAtMDUwNi1neXVodV9fZ3VoajA1MDYtZ3l1aHVfX2d1aGo,http://pb.xyz.duunion.com/conv?tid=B_dc708658725b7ce5-OTM3Xy0xMjI2MDI0OC01NTAwLTQ0MDAtMDUwNi1neXVodV9fZ3VoajA1MDYtZ3l1aHVfX2d1aGo&adv_sectkn=6ce7ea3978d9a0a8dbfac07e4a513a0f&adv_name=Appier,idfa_C3DBBCAE-6583-4F5D-8469-1853285B5FDD,ja
F6e_b2egTqunNcOqAQH4xg,doglobal,937_gyuhu__guhj0506,install,5.5,60.236.93.96,3C566462-F991-45BD-AA77-6F89B4773C16,1557107788,2019-05-06 09:56:28,1557107873,2019-05-06 09:57:53,1557107903,P_24b89456cb2a4c14-OTM3Xy0xMjI2MDI0OC01NTAwLTQ0MDAtMDUwNi1neXVodV9fZ3VoajA1MDYtZ3l1aHVfX2d1aGo,http://pb.xyz.duunion.com/conv?tid=P_24b89456cb2a4c14-OTM3Xy0xMjI2MDI0OC01NTAwLTQ0MDAtMDUwNi1neXVodV9fZ3VoajA1MDYtZ3l1aHVfX2d1aGo&adv_sectkn=6ce7ea3978d9a0a8dbfac07e4a513a0f&adv_name=Appier,idfa_3C566462-F991-45BD-AA77-6F89B4773C16,ja
F6e_b2egTqunNcOqAQH4xg,doglobal,937_gyuhu__guhj0506,install,5.5,122.249.138.149,04B25F31-7C6D-457E-9F3A-A2038E133C59,1557120654,2019-05-06 13:30:54,1557120767,2019-05-06 13:32:47,1557120797,P_e87a4b47ea84a0ff-OTM3Xy0xMjI2MDI0OC01NTAwLTQ0MDAtMDUwNi1neXVodV9fZ3VoajA1MDYtZ3l1aHVfX2d1aGo,http://pb.xyz.duunion.com/conv?tid=P_e87a4b47ea84a0ff-OTM3Xy0xMjI2MDI0OC01NTAwLTQ0MDAtMDUwNi1neXVodV9fZ3VoajA1MDYtZ3l1aHVfX2d1aGo&adv_sectkn=6ce7ea3978d9a0a8dbfac07e4a513a0f&adv_name=Appier,idfa_04B25F31-7C6D-457E-9F3A-A2038E133C59,ja
F6e_b2egTqunNcOqAQH4xg,doglobal,937_gyuhu__guhj0506,install,5.5,180.29.86.22,13FFF9A2-4168-4C24-9FBA-1105338DF92D,1557103584,2019-05-06 08:46:24,1557103693,2019-05-06 08:48:13,1557103723,P_4cd07f6bbba1f881-OTM3Xy0xMjI2MDI0OC01NTAwLTQ0MDAtMDUwNi1neXVodV9fZ3VoajA1MDYtZ3l1aHVfX2d1aGo,http://pb.xyz.duunion.com/conv?tid=P_4cd07f6bbba1f881-OTM3Xy0xMjI2MDI0OC01NTAwLTQ0MDAtMDUwNi1neXVodV9fZ3VoajA1MDYtZ3l1aHVfX2d1aGo&adv_sectkn=6ce7ea3978d9a0a8dbfac07e4a513a0f&adv_name=Appier,idfa_13FFF9A2-4168-4C24-9FBA-1105338DF92D,ja
F6e_b2egTqunNcOqAQH4xg,doglobal,937_gyuhu__guhj0506,install,5.5,221.113.32.57,22096686-7EA4-48D5-AC1E-5834B82905FC,1557115957,2019-05-06 12:12:37,1557116087,2019-05-06 12:14:47,1557116117,P_2d0eba588fe53f17-OTM3Xy0xMjI2MDI0OC01NTAwLTQ0MDAtMDUwNi1neXVodV9fZ3VoajA1MDYtZ3l1aHVfX2d1aGo,http://pb.xyz.duunion.com/conv?tid=P_2d0eba588fe53f17-OTM3Xy0xMjI2MDI0OC01NTAwLTQ0MDAtMDUwNi1neXVodV9fZ3VoajA1MDYtZ3l1aHVfX2d1aGo&adv_sectkn=6ce7ea3978d9a0a8dbfac07e4a513a0f&adv_name=Appier,idfa_22096686-7EA4-48D5-AC1E-5834B82905FC,ja
F6e_b2egTqunNcOqAQH4xg,doglobal,937_gyuhu__guhj0506,install,5.5,27.0.21.137,F0BA10C2-80AF-416F-9455-817DD12A9AF4,1557121461,2019-05-06 13:44:21,1557121576,2019-05-06 13:46:16,1557121606,P_401cab7b8962620c-OTM3Xy0xMjI2MDI0OC01NTAwLTQ0MDAtMDUwNi1neXVodV9fZ3VoajA1MDYtZ3l1aHVfX2d1aGo,http://pb.xyz.duunion.com/conv?tid=P_401cab7b8962620c-OTM3Xy0xMjI2MDI0OC01NTAwLTQ0MDAtMDUwNi1neXVodV9fZ3VoajA1MDYtZ3l1aHVfX2d1aGo&adv_sectkn=6ce7ea3978d9a0a8dbfac07e4a513a0f&adv_name=Appier,idfa_F0BA10C2-80AF-416F-9455-817DD12A9AF4,ja
F6e_b2egTqunNcOqAQH4xg,doglobal,937_gyuhu__guhj0506,install,5.5,180.24.86.93,FDF7426E-6D12-4E00-9ED0-5D1C848EE1BB,1557107429,2019-05-06 09:50:29,1557107551,2019-05-06 09:52:31,1557107581,B_7dad1064deeb8628-OTM3Xy0xMjI2MDI0OC01NTAwLTQ0MDAtMDUwNi1neXVodV9fZ3VoajA1MDYtZ3l1aHVfX2d1aGo,http://pb.xyz.duunion.com/conv?tid=B_7dad1064deeb8628-OTM3Xy0xMjI2MDI0OC01NTAwLTQ0MDAtMDUwNi1neXVodV9fZ3VoajA1MDYtZ3l1aHVfX2d1aGo&adv_sectkn=6ce7ea3978d9a0a8dbfac07e4a513a0f&adv_name=Appier,idfa_FDF7426E-6D12-4E00-9ED0-5D1C848EE1BB,ja
F6e_b2egTqunNcOqAQH4xg,doglobal,937_gyuhu__guhj0506,install,5.5,180.51.79.240,B6F6166C-229C-4D19-B659-36DA869E9E6C,1557118815,2019-05-06 13:00:15,1557118897,2019-05-06 13:01:37,1557118927,B_c659ebbb31f0ffad-OTM3Xy0xMjI2MDI0OC01NTAwLTQ0MDAtMDUwNi1neXVodV9fZ3VoajA1MDYtZ3l1aHVfX2d1aGo,http://pb.xyz.duunion.com/conv?tid=B_c659ebbb31f0ffad-OTM3Xy0xMjI2MDI0OC01NTAwLTQ0MDAtMDUwNi1neXVodV9fZ3VoajA1MDYtZ3l1aHVfX2d1aGo&adv_sectkn=6ce7ea3978d9a0a8dbfac07e4a513a0f&adv_name=Appier,idfa_B6F6166C-229C-4D19-B659-36DA869E9E6C,ja
F6e_b2egTqunNcOqAQH4xg,doglobal,937_gyuhu__guhj0506,install,5.5,221.117.100.67,807E5E5F-5555-419E-A442-10C2B1502E47,1557110507,2019-05-06 10:41:47,1557110622,2019-05-06 10:43:42,1557110652,B_bb62f0b2a1da3d84-OTM3Xy0xMjI2MDI0OC01NTAwLTQ0MDAtMDUwNi1neXVodV9fZ3VoajA1MDYtZ3l1aHVfX2d1aGo,http://pb.xyz.duunion.com/conv?tid=B_bb62f0b2a1da3d84-OTM3Xy0xMjI2MDI0OC01NTAwLTQ0MDAtMDUwNi1neXVodV9fZ3VoajA1MDYtZ3l1aHVfX2d1aGo&adv_sectkn=6ce7ea3978d9a0a8dbfac07e4a513a0f&adv_name=Appier,idfa_807E5E5F-5555-419E-A442-10C2B1502E47,ja
F6e_b2egTqunNcOqAQH4xg,doglobal,937_gyuhu__guhj0506,install,5.5,221.113.32.57,DE1ED23C-D7DA-4173-9BD1-2EA3E925D86A,1557102892,2019-05-06 08:34:52,1557103029,2019-05-06 08:37:09,1557103059,P_1a216c71b67ac093-OTM3Xy0xMjI2MDI0OC01NTAwLTQ0MDAtMDUwNi1neXVodV9fZ3VoajA1MDYtZ3l1aHVfX2d1aGo,http://pb.xyz.duunion.com/conv?tid=P_1a216c71b67ac093-OTM3Xy0xMjI2MDI0OC01NTAwLTQ0MDAtMDUwNi1neXVodV9fZ3VoajA1MDYtZ3l1aHVfX2d1aGo&adv_sectkn=6ce7ea3978d9a0a8dbfac07e4a513a0f&adv_name=Appier,idfa_DE1ED23C-D7DA-4173-9BD1-2EA3E925D86A,ja
F6e_b2egTqunNcOqAQH4xg,doglobal,937_gyuhu__guhj0506,install,5.5,220.107.5.95,6C3FE527-272D-4983-8DC6-D0097959B191,1557105337,2019-05-06 09:15:37,1557105418,2019-05-06 09:16:58,1557105448,P_ab9c45b97695dc7e-OTM3Xy0xMjI2MDI0OC01NTAwLTQ0MDAtMDUwNi1neXVodV9fZ3VoajA1MDYtZ3l1aHVfX2d1aGo,http://pb.xyz.duunion.com/conv?tid=P_ab9c45b97695dc7e-OTM3Xy0xMjI2MDI0OC01NTAwLTQ0MDAtMDUwNi1neXVodV9fZ3VoajA1MDYtZ3l1aHVfX2d1aGo&adv_sectkn=6ce7ea3978d9a0a8dbfac07e4a513a0f&adv_name=Appier,idfa_6C3FE527-272D-4983-8DC6-D0097959B191,ja
F6e_b2egTqunNcOqAQH4xg,doglobal,937_gyuhu__guhj0506,install,5.5,133.6.28.35,83CDAD07-F1EB-4626-B5CA-4C8C7A2A36EB,1557117533,2019-05-06 12:38:53,1557117654,2019-05-06 12:40:54,1557117684,P_40f45c8104c5b4a7-OTM3Xy0xMjI2MDI0OC01NTAwLTQ0MDAtMDUwNi1neXVodV9fZ3VoajA1MDYtZ3l1aHVfX2d1aGo,http://pb.xyz.duunion.com/conv?tid=P_40f45c8104c5b4a7-OTM3Xy0xMjI2MDI0OC01NTAwLTQ0MDAtMDUwNi1neXVodV9fZ3VoajA1MDYtZ3l1aHVfX2d1aGo&adv_sectkn=6ce7ea3978d9a0a8dbfac07e4a513a0f&adv_name=Appier,idfa_83CDAD07-F1EB-4626-B5CA-4C8C7A2A36EB,ja
F6e_b2egTqunNcOqAQH4xg,doglobal,937_gyuhu__guhj0506,install,5.5,113.144.182.183,46543F80-125C-4345-9485-7E742FBE4627,1557108956,2019-05-06 10:15:56,1557109074,2019-05-06 10:17:54,1557109104,P_3390fc54fe660d68-OTM3Xy0xMjI2MDI0OC01NTAwLTQ0MDAtMDUwNi1neXVodV9fZ3VoajA1MDYtZ3l1aHVfX2d1aGo,http://pb.xyz.duunion.com/conv?tid=P_3390fc54fe660d68-OTM3Xy0xMjI2MDI0OC01NTAwLTQ0MDAtMDUwNi1neXVodV9fZ3VoajA1MDYtZ3l1aHVfX2d1aGo&adv_sectkn=6ce7ea3978d9a0a8dbfac07e4a513a0f&adv_name=Appier,idfa_46543F80-125C-4345-9485-7E742FBE4627,ja
F6e_b2egTqunNcOqAQH4xg,doglobal,937_gyuhu__guhj0506,install,5.5,126.28.189.13,28A06D24-6DA2-4190-9E94-10C83490E4EA,1557117740,2019-05-06 12:42:20,1557117814,2019-05-06 12:43:34,1557117844,B_9ec8d4c0cefd990b-OTM3Xy0xMjI2MDI0OC01NTAwLTQ0MDAtMDUwNi1neXVodV9fZ3VoajA1MDYtZ3l1aHVfX2d1aGo,http://pb.xyz.duunion.com/conv?tid=B_9ec8d4c0cefd990b-OTM3Xy0xMjI2MDI0OC01NTAwLTQ0MDAtMDUwNi1neXVodV9fZ3VoajA1MDYtZ3l1aHVfX2d1aGo&adv_sectkn=6ce7ea3978d9a0a8dbfac07e4a513a0f&adv_name=Appier,idfa_28A06D24-6DA2-4190-9E94-10C83490E4EA,ja
F6e_b2egTqunNcOqAQH4xg,doglobal,937_gyuhu__guhj0506,install,5.5,126.159.198.167,C6E4D1BE-3E78-4D35-ACDE-25507EE2DDDE,1557104208,2019-05-06 08:56:48,1557104283,2019-05-06 08:58:03,1557104313,B_b16608a252b6fdc3-OTM3Xy0xMjI2MDI0OC01NTAwLTQ0MDAtMDUwNi1neXVodV9fZ3VoajA1MDYtZ3l1aHVfX2d1aGo,http://pb.xyz.duunion.com/conv?tid=B_b16608a252b6fdc3-OTM3Xy0xMjI2MDI0OC01NTAwLTQ0MDAtMDUwNi1neXVodV9fZ3VoajA1MDYtZ3l1aHVfX2d1aGo&adv_sectkn=6ce7ea3978d9a0a8dbfac07e4a513a0f&adv_name=Appier,idfa_C6E4D1BE-3E78-4D35-ACDE-25507EE2DDDE,ja
F6e_b2egTqunNcOqAQH4xg,doglobal,937_gyuhu__guhj0506,install,5.5,126.196.52.66,4DA536FC-34A2-4E3F-A68E-4CA00D943762,1557103527,2019-05-06 08:45:27,1557103608,2019-05-06 08:46:48,1557103638,B_de544d107d505f9d-OTM3Xy0xMjI2MDI0OC01NTAwLTQ0MDAtMDUwNi1neXVodV9fZ3VoajA1MDYtZ3l1aHVfX2d1aGo,http://pb.xyz.duunion.com/conv?tid=B_de544d107d505f9d-OTM3Xy0xMjI2MDI0OC01NTAwLTQ0MDAtMDUwNi1neXVodV9fZ3VoajA1MDYtZ3l1aHVfX2d1aGo&adv_sectkn=6ce7ea3978d9a0a8dbfac07e4a513a0f&adv_name=Appier,idfa_4DA536FC-34A2-4E3F-A68E-4CA00D943762,ja
F6e_b2egTqunNcOqAQH4xg,doglobal,937_gyuhu__guhj0506,install,5.5,126.19.60.218,0CCB405D-3E77-4D57-97B2-4184ADD0BE9D,1557104746,2019-05-06 09:05:46,1557104823,2019-05-06 09:07:03,1557104853,P_fa3b847ba36cca23-OTM3Xy0xMjI2MDI0OC01NTAwLTQ0MDAtMDUwNi1neXVodV9fZ3VoajA1MDYtZ3l1aHVfX2d1aGo,http://pb.xyz.duunion.com/conv?tid=P_fa3b847ba36cca23-OTM3Xy0xMjI2MDI0OC01NTAwLTQ0MDAtMDUwNi1neXVodV9fZ3VoajA1MDYtZ3l1aHVfX2d1aGo&adv_sectkn=6ce7ea3978d9a0a8dbfac07e4a513a0f&adv_name=Appier,idfa_0CCB405D-3E77-4D57-97B2-4184ADD0BE9D,ja
F6e_b2egTqunNcOqAQH4xg,doglobal,937_gyuhu__guhj0506,install,5.5,122.223.116.203,5ED30498-8956-4A68-9854-5E05E5CFB2C0,1557111277,2019-05-06 10:54:37,1557111406,2019-05-06 10:56:46,1557111436,P_e4a9d4eca606be01-OTM3Xy0xMjI2MDI0OC01NTAwLTQ0MDAtMDUwNi1neXVodV9fZ3VoajA1MDYtZ3l1aHVfX2d1aGo,http://pb.xyz.duunion.com/conv?tid=P_e4a9d4eca606be01-OTM3Xy0xMjI2MDI0OC01NTAwLTQ0MDAtMDUwNi1neXVodV9fZ3VoajA1MDYtZ3l1aHVfX2d1aGo&adv_sectkn=6ce7ea3978d9a0a8dbfac07e4a513a0f&adv_name=Appier,idfa_5ED30498-8956-4A68-9854-5E05E5CFB2C0,ja
F6e_b2egTqunNcOqAQH4xg,doglobal,937_gyuhu__guhj0506,install,5.5,219.115.209.216,15B47308-3080-4B94-BE20-52E61F7E1F50,1557109474,2019-05-06 10:24:34,1557109552,2019-05-06 10:25:52,1557109582,P_69a10154ed2d2a94-OTM3Xy0xMjI2MDI0OC01NTAwLTQ0MDAtMDUwNi1neXVodV9fZ3VoajA1MDYtZ3l1aHVfX2d1aGo,http://pb.xyz.duunion.com/conv?tid=P_69a10154ed2d2a94-OTM3Xy0xMjI2MDI0OC01NTAwLTQ0MDAtMDUwNi1neXVodV9fZ3VoajA1MDYtZ3l1aHVfX2d1aGo&adv_sectkn=6ce7ea3978d9a0a8dbfac07e4a513a0f&adv_name=Appier,idfa_15B47308-3080-4B94-BE20-52E61F7E1F50,ja
F6e_b2egTqunNcOqAQH4xg,doglobal,937_gyuhu__guhj0506,install,5.5,106.180.9.118,B61D3569-61E2-4315-9425-B514F569C478,1557116665,2019-05-06 12:24:25,1557116744,2019-05-06 12:25:44,1557116774,P_517c3b57a3d83040-OTM3Xy0xMjI2MDI0OC01NTAwLTQ0MDAtMDUwNi1neXVodV9fZ3VoajA1MDYtZ3l1aHVfX2d1aGo,http://pb.xyz.duunion.com/conv?tid=P_517c3b57a3d83040-OTM3Xy0xMjI2MDI0OC01NTAwLTQ0MDAtMDUwNi1neXVodV9fZ3VoajA1MDYtZ3l1aHVfX2d1aGo&adv_sectkn=6ce7ea3978d9a0a8dbfac07e4a513a0f&adv_name=Appier,idfa_B61D3569-61E2-4315-9425-B514F569C478,ja
F6e_b2egTqunNcOqAQH4xg,doglobal,937_gyuhu__guhj0506,install,5.5,106.72.3.65,934820F5-B9F7-4275-99A1-B559A88C0EA1,1557113288,2019-05-06 11:28:08,1557113362,2019-05-06 11:29:22,1557113392,B_3a8b8069e70404ea-OTM3Xy0xMjI2MDI0OC01NTAwLTQ0MDAtMDUwNi1neXVodV9fZ3VoajA1MDYtZ3l1aHVfX2d1aGo,http://pb.xyz.duunion.com/conv?tid=B_3a8b8069e70404ea-OTM3Xy0xMjI2MDI0OC01NTAwLTQ0MDAtMDUwNi1neXVodV9fZ3VoajA1MDYtZ3l1aHVfX2d1aGo&adv_sectkn=6ce7ea3978d9a0a8dbfac07e4a513a0f&adv_name=Appier,idfa_934820F5-B9F7-4275-99A1-B559A88C0EA1,ja
F6e_b2egTqunNcOqAQH4xg,doglobal,937_gyuhu__guhj0506,install,5.5,113.156.66.160,0F1FD039-748C-4D83-8329-1F17218513C9,1557107978,2019-05-06 09:59:38,1557108207,2019-05-06 10:03:27,1557108238,P_680b58eb3ab28b90-OTM3Xy0xMjI2MDI0OC01NTAwLTQ0MDAtMDUwNi1neXVodV9fZ3VoajA1MDYtZ3l1aHVfX2d1aGo,http://pb.xyz.duunion.com/conv?tid=P_680b58eb3ab28b90-OTM3Xy0xMjI2MDI0OC01NTAwLTQ0MDAtMDUwNi1neXVodV9fZ3VoajA1MDYtZ3l1aHVfX2d1aGo&adv_sectkn=6ce7ea3978d9a0a8dbfac07e4a513a0f&adv_name=Appier,idfa_0F1FD039-748C-4D83-8329-1F17218513C9,ja
F6e_b2egTqunNcOqAQH4xg,doglobal,937_gyuhu__guhj0506,install,5.5,60.91.59.147,9948A4C4-9B47-43F4-B9CD-8011D78DD207,1557118305,2019-05-06 12:51:45,1557118425,2019-05-06 12:53:45,1557118455,P_e89d7be6882165cf-OTM3Xy0xMjI2MDI0OC01NTAwLTQ0MDAtMDUwNi1neXVodV9fZ3VoajA1MDYtZ3l1aHVfX2d1aGo,http://pb.xyz.duunion.com/conv?tid=P_e89d7be6882165cf-OTM3Xy0xMjI2MDI0OC01NTAwLTQ0MDAtMDUwNi1neXVodV9fZ3VoajA1MDYtZ3l1aHVfX2d1aGo&adv_sectkn=6ce7ea3978d9a0a8dbfac07e4a513a0f&adv_name=Appier,idfa_9948A4C4-9B47-43F4-B9CD-8011D78DD207,ja
F6e_b2egTqunNcOqAQH4xg,doglobal,937_gyuhu__guhj0506,install,5.5,126.74.69.30,EAA2573C-41FE-4F67-90B5-2980EA253023,1557102786,2019-05-06 08:33:06,1557102917,2019-05-06 08:35:17,1557102947,P_229bbdc8424fb919-OTM3Xy0xMjI2MDI0OC01NTAwLTQ0MDAtMDUwNi1neXVodV9fZ3VoajA1MDYtZ3l1aHVfX2d1aGo,http://pb.xyz.duunion.com/conv?tid=P_229bbdc8424fb919-OTM3Xy0xMjI2MDI0OC01NTAwLTQ0MDAtMDUwNi1neXVodV9fZ3VoajA1MDYtZ3l1aHVfX2d1aGo&adv_sectkn=6ce7ea3978d9a0a8dbfac07e4a513a0f&adv_name=Appier,idfa_EAA2573C-41FE-4F67-90B5-2980EA253023,ja
F6e_b2egTqunNcOqAQH4xg,doglobal,937_gyuhu__guhj0506,install,5.5,121.119.74.239,C72BF141-2552-4D0E-9B1D-9317BBED79F8,1557105938,2019-05-06 09:25:38,1557106017,2019-05-06 09:26:57,1557106047,P_82e2925c11e217d7-OTM3Xy0xMjI2MDI0OC01NTAwLTQ0MDAtMDUwNi1neXVodV9fZ3VoajA1MDYtZ3l1aHVfX2d1aGo,http://pb.xyz.duunion.com/conv?tid=P_82e2925c11e217d7-OTM3Xy0xMjI2MDI0OC01NTAwLTQ0MDAtMDUwNi1neXVodV9fZ3VoajA1MDYtZ3l1aHVfX2d1aGo&adv_sectkn=6ce7ea3978d9a0a8dbfac07e4a513a0f&adv_name=Appier,idfa_C72BF141-2552-4D0E-9B1D-9317BBED79F8,ja
F6e_b2egTqunNcOqAQH4xg,doglobal,937_gyuhu__guhj0506,install,5.5,118.243.236.247,D3BDB10A-707A-4018-8EB6-2FA09453C45F,1557102833,2019-05-06 08:33:53,1557102904,2019-05-06 08:35:04,1557102934,P_95b9ca85ec159da5-OTM3Xy0xMjI2MDI0OC01NTAwLTQ0MDAtMDUwNi1neXVodV9fZ3VoajA1MDYtZ3l1aHVfX2d1aGo,http://pb.xyz.duunion.com/conv?tid=P_95b9ca85ec159da5-OTM3Xy0xMjI2MDI0OC01NTAwLTQ0MDAtMDUwNi1neXVodV9fZ3VoajA1MDYtZ3l1aHVfX2d1aGo&adv_sectkn=6ce7ea3978d9a0a8dbfac07e4a513a0f&adv_name=Appier,idfa_D3BDB10A-707A-4018-8EB6-2FA09453C45F,ja
F6e_b2egTqunNcOqAQH4xg,doglobal,937_gyuhu__guhj0506,install,5.5,218.231.79.8,A890C63B-1733-4670-BE22-7DAF21F78714,1557116090,2019-05-06 12:14:50,1557116168,2019-05-06 12:16:08,1557116198,B_aa4f587e93255923-OTM3Xy0xMjI2MDI0OC01NTAwLTQ0MDAtMDUwNi1neXVodV9fZ3VoajA1MDYtZ3l1aHVfX2d1aGo,http://pb.xyz.duunion.com/conv?tid=B_aa4f587e93255923-OTM3Xy0xMjI2MDI0OC01NTAwLTQ0MDAtMDUwNi1neXVodV9fZ3VoajA1MDYtZ3l1aHVfX2d1aGo&adv_sectkn=6ce7ea3978d9a0a8dbfac07e4a513a0f&adv_name=Appier,idfa_A890C63B-1733-4670-BE22-7DAF21F78714,ja
F6e_b2egTqunNcOqAQH4xg,doglobal,937_gyuhu__guhj0506,install,5.5,60.112.232.217,452D0989-3704-40F0-BEF0-0DFC544D7F05,1557119381,2019-05-06 13:09:41,1557119465,2019-05-06 13:11:05,1557119495,B_dec80a1afd18f0e2-OTM3Xy0xMjI2MDI0OC01NTAwLTQ0MDAtMDUwNi1neXVodV9fZ3VoajA1MDYtZ3l1aHVfX2d1aGo,http://pb.xyz.duunion.com/conv?tid=B_dec80a1afd18f0e2-OTM3Xy0xMjI2MDI0OC01NTAwLTQ0MDAtMDUwNi1neXVodV9fZ3VoajA1MDYtZ3l1aHVfX2d1aGo&adv_sectkn=6ce7ea3978d9a0a8dbfac07e4a513a0f&adv_name=Appier,idfa_452D0989-3704-40F0-BEF0-0DFC544D7F05,ja
F6e_b2egTqunNcOqAQH4xg,doglobal,937_gyuhu__guhj0506,install,5.5,111.239.168.222,E3603D1E-3D1F-4F75-BABD-7926DDE191E0,1557114409,2019-05-06 11:46:49,1557114539,2019-05-06 11:48:59,1557114569,P_4c13c5b52998fb22-OTM3Xy0xMjI2MDI0OC01NTAwLTQ0MDAtMDUwNi1neXVodV9fZ3VoajA1MDYtZ3l1aHVfX2d1aGo,http://pb.xyz.duunion.com/conv?tid=P_4c13c5b52998fb22-OTM3Xy0xMjI2MDI0OC01NTAwLTQ0MDAtMDUwNi1neXVodV9fZ3VoajA1MDYtZ3l1aHVfX2d1aGo&adv_sectkn=6ce7ea3978d9a0a8dbfac07e4a513a0f&adv_name=Appier,idfa_E3603D1E-3D1F-4F75-BABD-7926DDE191E0,ja
F6e_b2egTqunNcOqAQH4xg,doglobal,937_gyuhu__guhj0506,install,5.5,210.147.229.178,EE4427DB-CCC2-43E1-AB71-7C3C29C5DEEA,1557103736,2019-05-06 08:48:56,1557103863,2019-05-06 08:51:03,1557103893,B_ee7d8604e30646c1-OTM3Xy0xMjI2MDI0OC01NTAwLTQ0MDAtMDUwNi1neXVodV9fZ3VoajA1MDYtZ3l1aHVfX2d1aGo,http://pb.xyz.duunion.com/conv?tid=B_ee7d8604e30646c1-OTM3Xy0xMjI2MDI0OC01NTAwLTQ0MDAtMDUwNi1neXVodV9fZ3VoajA1MDYtZ3l1aHVfX2d1aGo&adv_sectkn=6ce7ea3978d9a0a8dbfac07e4a513a0f&adv_name=Appier,idfa_EE4427DB-CCC2-43E1-AB71-7C3C29C5DEEA,ja
F6e_b2egTqunNcOqAQH4xg,doglobal,937_gyuhu__guhj0506,install,5.5,126.123.58.17,7CAE8CAD-6DBC-4809-8770-D2C5BD3F1D29,1557110016,2019-05-06 10:33:36,1557110073,2019-05-06 10:34:33,1557110103,B_7fbcaa1182ae6fa5-OTM3Xy0xMjI2MDI0OC01NTAwLTQ0MDAtMDUwNi1neXVodV9fZ3VoajA1MDYtZ3l1aHVfX2d1aGo,http://pb.xyz.duunion.com/conv?tid=B_7fbcaa1182ae6fa5-OTM3Xy0xMjI2MDI0OC01NTAwLTQ0MDAtMDUwNi1neXVodV9fZ3VoajA1MDYtZ3l1aHVfX2d1aGo&adv_sectkn=6ce7ea3978d9a0a8dbfac07e4a513a0f&adv_name=Appier,idfa_7CAE8CAD-6DBC-4809-8770-D2C5BD3F1D29,ja
F6e_b2egTqunNcOqAQH4xg,doglobal,937_gyuhu__guhj0506,install,5.5,121.111.152.24,FD1C10CA-B82A-43F0-AC70-97D8F62D5726,1557119938,2019-05-06 13:18:58,1557120011,2019-05-06 13:20:11,1557120041,B_249a2fa8a9fbef8a-OTM3Xy0xMjI2MDI0OC01NTAwLTQ0MDAtMDUwNi1neXVodV9fZ3VoajA1MDYtZ3l1aHVfX2d1aGo,http://pb.xyz.duunion.com/conv?tid=B_249a2fa8a9fbef8a-OTM3Xy0xMjI2MDI0OC01NTAwLTQ0MDAtMDUwNi1neXVodV9fZ3VoajA1MDYtZ3l1aHVfX2d1aGo&adv_sectkn=6ce7ea3978d9a0a8dbfac07e4a513a0f&adv_name=Appier,idfa_FD1C10CA-B82A-43F0-AC70-97D8F62D5726,ja
F6e_b2egTqunNcOqAQH4xg,doglobal,937_gyuhu__guhj0506,install,5.5,124.219.145.155,26381703-AB66-44B4-A3E2-770BB2C435F7,1557105115,2019-05-06 09:11:55,1557105233,2019-05-06 09:13:53,1557105263,B_72df5ec4b5bd55aa-OTM3Xy0xMjI2MDI0OC01NTAwLTQ0MDAtMDUwNi1neXVodV9fZ3VoajA1MDYtZ3l1aHVfX2d1aGo,http://pb.xyz.duunion.com/conv?tid=B_72df5ec4b5bd55aa-OTM3Xy0xMjI2MDI0OC01NTAwLTQ0MDAtMDUwNi1neXVodV9fZ3VoajA1MDYtZ3l1aHVfX2d1aGo&adv_sectkn=6ce7ea3978d9a0a8dbfac07e4a513a0f&adv_name=Appier,idfa_26381703-AB66-44B4-A3E2-770BB2C435F7,ja
F6e_b2egTqunNcOqAQH4xg,doglobal,937_gyuhu__guhj0506,install,5.5,124.27.0.83,3417E01B-48A0-4EE6-B38C-05A50B2845F0,1557108904,2019-05-06 10:15:04,1557108981,2019-05-06 10:16:21,1557109011,B_985355eac51b4711-OTM3Xy0xMjI2MDI0OC01NTAwLTQ0MDAtMDUwNi1neXVodV9fZ3VoajA1MDYtZ3l1aHVfX2d1aGo,http://pb.xyz.duunion.com/conv?tid=B_985355eac51b4711-OTM3Xy0xMjI2MDI0OC01NTAwLTQ0MDAtMDUwNi1neXVodV9fZ3VoajA1MDYtZ3l1aHVfX2d1aGo&adv_sectkn=6ce7ea3978d9a0a8dbfac07e4a513a0f&adv_name=Appier,idfa_3417E01B-48A0-4EE6-B38C-05A50B2845F0,ja
F6e_b2egTqunNcOqAQH4xg,doglobal,937_gyuhu__guhj0506,install,5.5,65.99.15.161,6A22820E-064A-4812-B182-443CA933EB40,1557113821,2019-05-06 11:37:01,1557113899,2019-05-06 11:38:19,1557113929,P_59ce555b090e98f5-OTM3Xy0xMjI2MDI0OC01NTAwLTQ0MDAtMDUwNi1neXVodV9fZ3VoajA1MDYtZ3l1aHVfX2d1aGo,http://pb.xyz.duunion.com/conv?tid=P_59ce555b090e98f5-OTM3Xy0xMjI2MDI0OC01NTAwLTQ0MDAtMDUwNi1neXVodV9fZ3VoajA1MDYtZ3l1aHVfX2d1aGo&adv_sectkn=6ce7ea3978d9a0a8dbfac07e4a513a0f&adv_name=Appier,idfa_6A22820E-064A-4812-B182-443CA933EB40,ja
F6e_b2egTqunNcOqAQH4xg,doglobal,937_gyuhu__guhj0506,install,5.5,121.109.22.120,4116E285-9A64-4795-B3E7-44147710B709,1557115501,2019-05-06 12:05:01,1557115576,2019-05-06 12:06:16,1557115606,B_be64f33d692c4289-OTM3Xy0xMjI2MDI0OC01NTAwLTQ0MDAtMDUwNi1neXVodV9fZ3VoajA1MDYtZ3l1aHVfX2d1aGo,http://pb.xyz.duunion.com/conv?tid=B_be64f33d692c4289-OTM3Xy0xMjI2MDI0OC01NTAwLTQ0MDAtMDUwNi1neXVodV9fZ3VoajA1MDYtZ3l1aHVfX2d1aGo&adv_sectkn=6ce7ea3978d9a0a8dbfac07e4a513a0f&adv_name=Appier,idfa_4116E285-9A64-4795-B3E7-44147710B709,ja
F6e_b2egTqunNcOqAQH4xg,doglobal,937_gyuhu__guhj0506,install,5.5,49.243.245.239,7B45CD94-CDC7-4913-9747-055600B09FE5,1557106480,2019-05-06 09:34:40,1557106567,2019-05-06 09:36:07,1557106597,B_5024efb106a6a4d9-OTM3Xy0xMjI2MDI0OC01NTAwLTQ0MDAtMDUwNi1neXVodV9fZ3VoajA1MDYtZ3l1aHVfX2d1aGo,http://pb.xyz.duunion.com/conv?tid=B_5024efb106a6a4d9-OTM3Xy0xMjI2MDI0OC01NTAwLTQ0MDAtMDUwNi1neXVodV9fZ3VoajA1MDYtZ3l1aHVfX2d1aGo&adv_sectkn=6ce7ea3978d9a0a8dbfac07e4a513a0f&adv_name=Appier,idfa_7B45CD94-CDC7-4913-9747-055600B09FE5,ja
F6e_b2egTqunNcOqAQH4xg,doglobal,937_gyuhu__guhj0506,install,5.5,218.221.39.207,0462B8A9-EB48-486D-A531-C710030D0F9C,1557117200,2019-05-06 12:33:20,1557117280,2019-05-06 12:34:40,1557117310,B_fe50bb756779ef4d-OTM3Xy0xMjI2MDI0OC01NTAwLTQ0MDAtMDUwNi1neXVodV9fZ3VoajA1MDYtZ3l1aHVfX2d1aGo,http://pb.xyz.duunion.com/conv?tid=B_fe50bb756779ef4d-OTM3Xy0xMjI2MDI0OC01NTAwLTQ0MDAtMDUwNi1neXVodV9fZ3VoajA1MDYtZ3l1aHVfX2d1aGo&adv_sectkn=6ce7ea3978d9a0a8dbfac07e4a513a0f&adv_name=Appier,idfa_0462B8A9-EB48-486D-A531-C710030D0F9C,ja
F6e_b2egTqunNcOqAQH4xg,doglobal,937_gyuhu__guhj0506,install,5.5,211.135.221.193,EFA49D84-8ACF-4D60-B13F-BC9087034A15,1557123166,2019-05-06 14:12:46,1557123244,2019-05-06 14:14:04,1557123274,P_2aab597e0e971be5-OTM3Xy0xMjI2MDI0OC01NTAwLTQ0MDAtMDUwNi1neXVodV9fZ3VoajA1MDYtZ3l1aHVfX2d1aGo,http://pb.xyz.duunion.com/conv?tid=P_2aab597e0e971be5-OTM3Xy0xMjI2MDI0OC01NTAwLTQ0MDAtMDUwNi1neXVodV9fZ3VoajA1MDYtZ3l1aHVfX2d1aGo&adv_sectkn=6ce7ea3978d9a0a8dbfac07e4a513a0f&adv_name=Appier,idfa_EFA49D84-8ACF-4D60-B13F-BC9087034A15,ja
F6e_b2egTqunNcOqAQH4xg,doglobal,937_gyuhu__guhj0506,install,5.5,220.210.171.176,1DED5511-61CA-4DE0-9110-9FEDA8ECD4C8,1557106654,2019-05-06 09:37:34,1557106771,2019-05-06 09:39:31,1557106801,P_1616ad7f3719668e-OTM3Xy0xMjI2MDI0OC01NTAwLTQ0MDAtMDUwNi1neXVodV9fZ3VoajA1MDYtZ3l1aHVfX2d1aGo,http://pb.xyz.duunion.com/conv?tid=P_1616ad7f3719668e-OTM3Xy0xMjI2MDI0OC01NTAwLTQ0MDAtMDUwNi1neXVodV9fZ3VoajA1MDYtZ3l1aHVfX2d1aGo&adv_sectkn=6ce7ea3978d9a0a8dbfac07e4a513a0f&adv_name=Appier,idfa_1DED5511-61CA-4DE0-9110-9FEDA8ECD4C8,ja
F6e_b2egTqunNcOqAQH4xg,doglobal,937_gyuhu__guhj0506,install,5.5,220.215.253.118,43225367-1BA7-4C1C-90EC-39ED1114B6C9,1557114375,2019-05-06 11:46:15,1557114446,2019-05-06 11:47:26,1557114476,B_eea3def74be44d51-OTM3Xy0xMjI2MDI0OC01NTAwLTQ0MDAtMDUwNi1neXVodV9fZ3VoajA1MDYtZ3l1aHVfX2d1aGo,http://pb.xyz.duunion.com/conv?tid=B_eea3def74be44d51-OTM3Xy0xMjI2MDI0OC01NTAwLTQ0MDAtMDUwNi1neXVodV9fZ3VoajA1MDYtZ3l1aHVfX2d1aGo&adv_sectkn=6ce7ea3978d9a0a8dbfac07e4a513a0f&adv_name=Appier,idfa_43225367-1BA7-4C1C-90EC-39ED1114B6C9,ja
F6e_b2egTqunNcOqAQH4xg,doglobal,937_gyuhu__guhj0506,install,5.5,203.105.94.223,425C13F2-539C-4405-B3B8-B7C66D24FE8C,1557119876,2019-05-06 13:17:56,1557119999,2019-05-06 13:19:59,1557120160,P_3c8445360c005a2f-OTM3Xy0xMjI2MDI0OC01NTAwLTQ0MDAtMDUwNi1neXVodV9fZ3VoajA1MDYtZ3l1aHVfX2d1aGo,http://pb.xyz.duunion.com/conv?tid=P_3c8445360c005a2f-OTM3Xy0xMjI2MDI0OC01NTAwLTQ0MDAtMDUwNi1neXVodV9fZ3VoajA1MDYtZ3l1aHVfX2d1aGo&adv_sectkn=6ce7ea3978d9a0a8dbfac07e4a513a0f&adv_name=Appier,idfa_425C13F2-539C-4405-B3B8-B7C66D24FE8C,ja
F6e_b2egTqunNcOqAQH4xg,doglobal,937_gyuhu__guhj0506,install,5.5,180.42.25.134,595D94A2-6109-4819-8A59-81AEC8DEDFAF,1557108198,2019-05-06 10:03:18,1557108313,2019-05-06 10:05:13,1557108343,B_cf397714dac834ff-OTM3Xy0xMjI2MDI0OC01NTAwLTQ0MDAtMDUwNi1neXVodV9fZ3VoajA1MDYtZ3l1aHVfX2d1aGo,http://pb.xyz.duunion.com/conv?tid=B_cf397714dac834ff-OTM3Xy0xMjI2MDI0OC01NTAwLTQ0MDAtMDUwNi1neXVodV9fZ3VoajA1MDYtZ3l1aHVfX2d1aGo&adv_sectkn=6ce7ea3978d9a0a8dbfac07e4a513a0f&adv_name=Appier,idfa_595D94A2-6109-4819-8A59-81AEC8DEDFAF,ja
F6e_b2egTqunNcOqAQH4xg,doglobal,937_gyuhu__guhj0506,install,5.5,124.102.217.248,22A1E4C0-B445-4CE5-B489-5EDDE9C9549B,1557114907,2019-05-06 11:55:07,1557114979,2019-05-06 11:56:19,1557115009,B_40fdd6fcb17e9d3e-OTM3Xy0xMjI2MDI0OC01NTAwLTQ0MDAtMDUwNi1neXVodV9fZ3VoajA1MDYtZ3l1aHVfX2d1aGo,http://pb.xyz.duunion.com/conv?tid=B_40fdd6fcb17e9d3e-OTM3Xy0xMjI2MDI0OC01NTAwLTQ0MDAtMDUwNi1neXVodV9fZ3VoajA1MDYtZ3l1aHVfX2d1aGo&adv_sectkn=6ce7ea3978d9a0a8dbfac07e4a513a0f&adv_name=Appier,idfa_22A1E4C0-B445-4CE5-B489-5EDDE9C9549B,ja
F6e_b2egTqunNcOqAQH4xg,doglobal,937_gyuhu__guhj0506,install,5.5,106.168.144.196,C692160B-A4C8-4A6A-8C42-DD6F838100B7,1557107035,2019-05-06 09:43:55,1557107119,2019-05-06 09:45:19,1557107149,P_eb5ad3d5e96dc9a7-OTM3Xy0xMjI2MDI0OC01NTAwLTQ0MDAtMDUwNi1neXVodV9fZ3VoajA1MDYtZ3l1aHVfX2d1aGo,http://pb.xyz.duunion.com/conv?tid=P_eb5ad3d5e96dc9a7-OTM3Xy0xMjI2MDI0OC01NTAwLTQ0MDAtMDUwNi1neXVodV9fZ3VoajA1MDYtZ3l1aHVfX2d1aGo&adv_sectkn=6ce7ea3978d9a0a8dbfac07e4a513a0f&adv_name=Appier,idfa_C692160B-A4C8-4A6A-8C42-DD6F838100B7,ja
F6e_b2egTqunNcOqAQH4xg,doglobal,937_gyuhu__guhj0506,install,5.5,106.73.9.161,969F54B6-1305-4490-9757-A5716D960428,1557113596,2019-05-06 11:33:16,1557113742,2019-05-06 11:35:42,1557113772,B_8671f7d5a01dbfa4-OTM3Xy0xMjI2MDI0OC01NTAwLTQ0MDAtMDUwNi1neXVodV9fZ3VoajA1MDYtZ3l1aHVfX2d1aGo,http://pb.xyz.duunion.com/conv?tid=B_8671f7d5a01dbfa4-OTM3Xy0xMjI2MDI0OC01NTAwLTQ0MDAtMDUwNi1neXVodV9fZ3VoajA1MDYtZ3l1aHVfX2d1aGo&adv_sectkn=6ce7ea3978d9a0a8dbfac07e4a513a0f&adv_name=Appier,idfa_969F54B6-1305-4490-9757-A5716D960428,ja
F6e_b2egTqunNcOqAQH4xg,doglobal,937_gyuhu__guhj0506,install,5.5,157.14.180.116,07F2FA32-323C-45FE-B7A2-BB69FCE9B804,1557104328,2019-05-06 08:58:48,1557104476,2019-05-06 09:01:16,1557104506,P_b2ebb78d18ea7ae2-OTM3Xy0xMjI2MDI0OC01NTAwLTQ0MDAtMDUwNi1neXVodV9fZ3VoajA1MDYtZ3l1aHVfX2d1aGo,http://pb.xyz.duunion.com/conv?tid=P_b2ebb78d18ea7ae2-OTM3Xy0xMjI2MDI0OC01NTAwLTQ0MDAtMDUwNi1neXVodV9fZ3VoajA1MDYtZ3l1aHVfX2d1aGo&adv_sectkn=6ce7ea3978d9a0a8dbfac07e4a513a0f&adv_name=Appier,idfa_07F2FA32-323C-45FE-B7A2-BB69FCE9B804,ja
F6e_b2egTqunNcOqAQH4xg,doglobal,937_gyuhu__guhj0506,install,5.5,211.135.221.193,D0399414-D40F-4F41-AD21-EB29EBCDA2DF,1557122582,2019-05-06 14:03:02,1557122671,2019-05-06 14:04:31,1557122702,P_f4acf4f0b1efb42f-OTM3Xy0xMjI2MDI0OC01NTAwLTQ0MDAtMDUwNi1neXVodV9fZ3VoajA1MDYtZ3l1aHVfX2d1aGo,http://pb.xyz.duunion.com/conv?tid=P_f4acf4f0b1efb42f-OTM3Xy0xMjI2MDI0OC01NTAwLTQ0MDAtMDUwNi1neXVodV9fZ3VoajA1MDYtZ3l1aHVfX2d1aGo&adv_sectkn=6ce7ea3978d9a0a8dbfac07e4a513a0f&adv_name=Appier,idfa_D0399414-D40F-4F41-AD21-EB29EBCDA2DF,ja
F6e_b2egTqunNcOqAQH4xg,doglobal,937_gyuhu__guhj0506,install,5.5,220.43.139.5,04E84680-89B9-43CD-8830-D69D7ADA61FC,1557112827,2019-05-06 11:20:27,1557112949,2019-05-06 11:22:29,1557112979,B_e43afc5e0bc7db84-OTM3Xy0xMjI2MDI0OC01NTAwLTQ0MDAtMDUwNi1neXVodV9fZ3VoajA1MDYtZ3l1aHVfX2d1aGo,http://pb.xyz.duunion.com/conv?tid=B_e43afc5e0bc7db84-OTM3Xy0xMjI2MDI0OC01NTAwLTQ0MDAtMDUwNi1neXVodV9fZ3VoajA1MDYtZ3l1aHVfX2d1aGo&adv_sectkn=6ce7ea3978d9a0a8dbfac07e4a513a0f&adv_name=Appier,idfa_04E84680-89B9-43CD-8830-D69D7ADA61FC,ja
F6e_b2egTqunNcOqAQH4xg,doglobal,937_gyuhu__guhj0506,install,5.5,120.51.184.217,F84B4FD1-2426-4FDC-A12F-650CE174C282,1557109742,2019-05-06 10:29:02,1557109861,2019-05-06 10:31:01,1557109891,B_32099aa4e9fdd654-OTM3Xy0xMjI2MDI0OC01NTAwLTQ0MDAtMDUwNi1neXVodV9fZ3VoajA1MDYtZ3l1aHVfX2d1aGo,http://pb.xyz.duunion.com/conv?tid=B_32099aa4e9fdd654-OTM3Xy0xMjI2MDI0OC01NTAwLTQ0MDAtMDUwNi1neXVodV9fZ3VoajA1MDYtZ3l1aHVfX2d1aGo&adv_sectkn=6ce7ea3978d9a0a8dbfac07e4a513a0f&adv_name=Appier,idfa_F84B4FD1-2426-4FDC-A12F-650CE174C282,ja
