cid,partner_id,channel_id,action_id,cpi,ip,idfa,click time,click datetime,install time,install datetime,postback time,click id,postback url,unique user id
F6e_b2egTqunNcOqAQH4xg,doglobal,957_20510,install,5.5,122.223.165.93,E0502457-4EA0-4F61-9FC0-8A65AC085160,1557450422,2019-05-10 09:07:02,1557450505,2019-05-10 09:08:25,1557450535,P_9fdadc9ddff56368-OTU3Xy0xMjI2MDI0OC01NTAwLTQ0MDAtMDUxMC0yMDUxMC0y,http://pb.xyz.duunion.com/conv?tid=P_9fdadc9ddff56368-OTU3Xy0xMjI2MDI0OC01NTAwLTQ0MDAtMDUxMC0yMDUxMC0y&adv_sectkn=6ce7ea3978d9a0a8dbfac07e4a513a0f&adv_name=Appier,idfa_E0502457-4EA0-4F61-9FC0-8A65AC085160,ja
F6e_b2egTqunNcOqAQH4xg,doglobal,957_20510,install,5.5,116.254.60.90,C6A8EA93-EC74-4F4C-9D65-B03F68D1BADC,1557451213,2019-05-10 09:20:13,1557451363,2019-05-10 09:22:43,1557451393,P_fbd083c9fb85adc3-OTU3Xy0xMjI2MDI0OC01NTAwLTQ0MDAtMDUxMC0yMDUxMC0y,http://pb.xyz.duunion.com/conv?tid=P_fbd083c9fb85adc3-OTU3Xy0xMjI2MDI0OC01NTAwLTQ0MDAtMDUxMC0yMDUxMC0y&adv_sectkn=6ce7ea3978d9a0a8dbfac07e4a513a0f&adv_name=Appier,idfa_C6A8EA93-EC74-4F4C-9D65-B03F68D1BADC,ja
F6e_b2egTqunNcOqAQH4xg,doglobal,957_20510,install,5.5,123.225.69.28,3E88E87C-E993-42E4-9E58-2307792816AC,1557452193,2019-05-10 09:36:33,1557452291,2019-05-10 09:38:11,1557452321,P_41c41333c529ed09-OTU3Xy0xMjI2MDI0OC01NTAwLTQ0MDAtMDUxMC0yMDUxMC0y,http://pb.xyz.duunion.com/conv?tid=P_41c41333c529ed09-OTU3Xy0xMjI2MDI0OC01NTAwLTQ0MDAtMDUxMC0yMDUxMC0y&adv_sectkn=6ce7ea3978d9a0a8dbfac07e4a513a0f&adv_name=Appier,idfa_3E88E87C-E993-42E4-9E58-2307792816AC,ja
F6e_b2egTqunNcOqAQH4xg,doglobal,957_20510,install,5.5,124.44.90.52,FA20B41F-F61B-46D7-8B40-B6AE00C15107,1557452057,2019-05-10 09:34:17,1557452144,2019-05-10 09:35:44,1557452174,B_82ef0388c8c05500-OTU3Xy0xMjI2MDI0OC01NTAwLTQ0MDAtMDUxMC0yMDUxMC0y,http://pb.xyz.duunion.com/conv?tid=B_82ef0388c8c05500-OTU3Xy0xMjI2MDI0OC01NTAwLTQ0MDAtMDUxMC0yMDUxMC0y&adv_sectkn=6ce7ea3978d9a0a8dbfac07e4a513a0f&adv_name=Appier,idfa_FA20B41F-F61B-46D7-8B40-B6AE00C15107,ja
F6e_b2egTqunNcOqAQH4xg,doglobal,957_20510,install,5.5,126.161.158.181,E1C0023E-1C3B-46C4-A176-CC860A625235,1557453730,2019-05-10 10:02:10,1557453820,2019-05-10 10:03:40,1557453850,B_b169237a4958658d-OTU3Xy0xMjI2MDI0OC01NTAwLTQ0MDAtMDUxMC0yMDUxMC0y,http://pb.xyz.duunion.com/conv?tid=B_b169237a4958658d-OTU3Xy0xMjI2MDI0OC01NTAwLTQ0MDAtMDUxMC0yMDUxMC0y&adv_sectkn=6ce7ea3978d9a0a8dbfac07e4a513a0f&adv_name=Appier,idfa_E1C0023E-1C3B-46C4-A176-CC860A625235,ja
F6e_b2egTqunNcOqAQH4xg,doglobal,957_20510,install,5.5,60.71.181.153,D4250FFC-977F-4711-AF5E-3F44280E2363,1557454646,2019-05-10 10:17:26,1557454732,2019-05-10 10:18:52,1557454762,P_02e01000127a179e-OTU3Xy0xMjI2MDI0OC01NTAwLTQ0MDAtMDUxMC0yMDUxMC0y,http://pb.xyz.duunion.com/conv?tid=P_02e01000127a179e-OTU3Xy0xMjI2MDI0OC01NTAwLTQ0MDAtMDUxMC0yMDUxMC0y&adv_sectkn=6ce7ea3978d9a0a8dbfac07e4a513a0f&adv_name=Appier,idfa_D4250FFC-977F-4711-AF5E-3F44280E2363,ja
F6e_b2egTqunNcOqAQH4xg,doglobal,957_20510,install,5.5,114.153.41.242,0A2E1483-A0E2-4614-9F80-1BD2809B1F29,1557452624,2019-05-10 09:43:44,1557452708,2019-05-10 09:45:08,1557452738,P_d6af615140940ad9-OTU3Xy0xMjI2MDI0OC01NTAwLTQ0MDAtMDUxMC0yMDUxMC0y,http://pb.xyz.duunion.com/conv?tid=P_d6af615140940ad9-OTU3Xy0xMjI2MDI0OC01NTAwLTQ0MDAtMDUxMC0yMDUxMC0y&adv_sectkn=6ce7ea3978d9a0a8dbfac07e4a513a0f&adv_name=Appier,idfa_0A2E1483-A0E2-4614-9F80-1BD2809B1F29,ja
F6e_b2egTqunNcOqAQH4xg,doglobal,957_20510,install,5.5,61.203.45.194,4AD4EEAD-048E-41C2-B0CA-6F128148A84B,1557452621,2019-05-10 09:43:41,1557452714,2019-05-10 09:45:14,1557452744,B_789a7c9950244530-OTU3Xy0xMjI2MDI0OC01NTAwLTQ0MDAtMDUxMC0yMDUxMC0y,http://pb.xyz.duunion.com/conv?tid=B_789a7c9950244530-OTU3Xy0xMjI2MDI0OC01NTAwLTQ0MDAtMDUxMC0yMDUxMC0y&adv_sectkn=6ce7ea3978d9a0a8dbfac07e4a513a0f&adv_name=Appier,idfa_4AD4EEAD-048E-41C2-B0CA-6F128148A84B,ja
F6e_b2egTqunNcOqAQH4xg,doglobal,957_20510,install,5.5,61.206.21.97,0ED50311-841C-48E7-8D6F-2BA5DA74044F,1557450181,2019-05-10 09:03:01,1557450278,2019-05-10 09:04:38,1557450308,P_3085dd3bf9c95f1e-OTU3Xy0xMjI2MDI0OC01NTAwLTQ0MDAtMDUxMC0yMDUxMC0y,http://pb.xyz.duunion.com/conv?tid=P_3085dd3bf9c95f1e-OTU3Xy0xMjI2MDI0OC01NTAwLTQ0MDAtMDUxMC0yMDUxMC0y&adv_sectkn=6ce7ea3978d9a0a8dbfac07e4a513a0f&adv_name=Appier,idfa_0ED50311-841C-48E7-8D6F-2BA5DA74044F,ja
F6e_b2egTqunNcOqAQH4xg,doglobal,957_20510,install,5.5,106.181.142.133,2CAFC23A-F3B6-489F-A646-9E1EE5934505,1557454285,2019-05-10 10:11:25,1557454383,2019-05-10 10:13:03,1557454413,B_22617fe733ceb883-OTU3Xy0xMjI2MDI0OC01NTAwLTQ0MDAtMDUxMC0yMDUxMC0y,http://pb.xyz.duunion.com/conv?tid=B_22617fe733ceb883-OTU3Xy0xMjI2MDI0OC01NTAwLTQ0MDAtMDUxMC0yMDUxMC0y&adv_sectkn=6ce7ea3978d9a0a8dbfac07e4a513a0f&adv_name=Appier,idfa_2CAFC23A-F3B6-489F-A646-9E1EE5934505,ja
F6e_b2egTqunNcOqAQH4xg,doglobal,957_20510,install,5.5,122.22.197.190,ACE16FE8-5D6E-4781-BAC4-C8D3369615ED,1557451194,2019-05-10 09:19:54,1557451290,2019-05-10 09:21:30,1557451320,B_33cfdbf862734ffc-OTU3Xy0xMjI2MDI0OC01NTAwLTQ0MDAtMDUxMC0yMDUxMC0y,http://pb.xyz.duunion.com/conv?tid=B_33cfdbf862734ffc-OTU3Xy0xMjI2MDI0OC01NTAwLTQ0MDAtMDUxMC0yMDUxMC0y&adv_sectkn=6ce7ea3978d9a0a8dbfac07e4a513a0f&adv_name=Appier,idfa_ACE16FE8-5D6E-4781-BAC4-C8D3369615ED,ja
F6e_b2egTqunNcOqAQH4xg,doglobal,957_20510,install,5.5,60.151.200.76,5A15A7E8-135D-4096-AB8B-411E0B2CA482,1557452420,2019-05-10 09:40:20,1557452509,2019-05-10 09:41:49,1557452539,P_bf7dc37eb938b7b4-OTU3Xy0xMjI2MDI0OC01NTAwLTQ0MDAtMDUxMC0yMDUxMC0y,http://pb.xyz.duunion.com/conv?tid=P_bf7dc37eb938b7b4-OTU3Xy0xMjI2MDI0OC01NTAwLTQ0MDAtMDUxMC0yMDUxMC0y&adv_sectkn=6ce7ea3978d9a0a8dbfac07e4a513a0f&adv_name=Appier,idfa_5A15A7E8-135D-4096-AB8B-411E0B2CA482,ja
F6e_b2egTqunNcOqAQH4xg,doglobal,957_20510,install,5.5,126.99.199.90,3AD843D6-2166-4780-8E1C-3499A8129559,1557450586,2019-05-10 09:09:46,1557450695,2019-05-10 09:11:35,1557450725,P_4418efbf87defc43-OTU3Xy0xMjI2MDI0OC01NTAwLTQ0MDAtMDUxMC0yMDUxMC0y,http://pb.xyz.duunion.com/conv?tid=P_4418efbf87defc43-OTU3Xy0xMjI2MDI0OC01NTAwLTQ0MDAtMDUxMC0yMDUxMC0y&adv_sectkn=6ce7ea3978d9a0a8dbfac07e4a513a0f&adv_name=Appier,idfa_3AD843D6-2166-4780-8E1C-3499A8129559,ja
F6e_b2egTqunNcOqAQH4xg,doglobal,957_20510,install,5.5,153.225.247.25,4E2DFDBC-7FEF-462D-A36C-F2BF5C024B0C,1557451145,2019-05-10 09:19:05,1557451235,2019-05-10 09:20:35,1557451265,P_27a6783f195965cb-OTU3Xy0xMjI2MDI0OC01NTAwLTQ0MDAtMDUxMC0yMDUxMC0y,http://pb.xyz.duunion.com/conv?tid=P_27a6783f195965cb-OTU3Xy0xMjI2MDI0OC01NTAwLTQ0MDAtMDUxMC0yMDUxMC0y&adv_sectkn=6ce7ea3978d9a0a8dbfac07e4a513a0f&adv_name=Appier,idfa_4E2DFDBC-7FEF-462D-A36C-F2BF5C024B0C,ja
F6e_b2egTqunNcOqAQH4xg,doglobal,957_20510,install,5.5,65.99.67.10,A9F65F96-AC20-4DCB-8945-D8EE51EBB1B6,1557451992,2019-05-10 09:33:12,1557452099,2019-05-10 09:34:59,1557452129,P_4a336c897f6ea6be-OTU3Xy0xMjI2MDI0OC01NTAwLTQ0MDAtMDUxMC0yMDUxMC0y,http://pb.xyz.duunion.com/conv?tid=P_4a336c897f6ea6be-OTU3Xy0xMjI2MDI0OC01NTAwLTQ0MDAtMDUxMC0yMDUxMC0y&adv_sectkn=6ce7ea3978d9a0a8dbfac07e4a513a0f&adv_name=Appier,idfa_A9F65F96-AC20-4DCB-8945-D8EE51EBB1B6,ja
F6e_b2egTqunNcOqAQH4xg,doglobal,957_20510,install,5.5,126.113.54.198,BF95EF44-87AF-423A-A474-D3771D900CDB,1557454258,2019-05-10 10:10:58,1557454367,2019-05-10 10:12:47,1557454397,P_b3dc86ab031c71de-OTU3Xy0xMjI2MDI0OC01NTAwLTQ0MDAtMDUxMC0yMDUxMC0y,http://pb.xyz.duunion.com/conv?tid=P_b3dc86ab031c71de-OTU3Xy0xMjI2MDI0OC01NTAwLTQ0MDAtMDUxMC0yMDUxMC0y&adv_sectkn=6ce7ea3978d9a0a8dbfac07e4a513a0f&adv_name=Appier,idfa_BF95EF44-87AF-423A-A474-D3771D900CDB,ja
F6e_b2egTqunNcOqAQH4xg,doglobal,957_20510,install,5.5,36.2.237.166,4CB2A274-08F7-4426-9C44-EF21A19A18A1,1557454221,2019-05-10 10:10:21,1557454311,2019-05-10 10:11:51,1557454341,B_b173fd98fafe7c6e-OTU3Xy0xMjI2MDI0OC01NTAwLTQ0MDAtMDUxMC0yMDUxMC0y,http://pb.xyz.duunion.com/conv?tid=B_b173fd98fafe7c6e-OTU3Xy0xMjI2MDI0OC01NTAwLTQ0MDAtMDUxMC0yMDUxMC0y&adv_sectkn=6ce7ea3978d9a0a8dbfac07e4a513a0f&adv_name=Appier,idfa_4CB2A274-08F7-4426-9C44-EF21A19A18A1,ja
F6e_b2egTqunNcOqAQH4xg,doglobal,957_20510,install,5.5,106.161.105.52,59A2A5CD-D28F-47EE-AB9B-7831B28B0D16,1557451562,2019-05-10 09:26:02,1557451635,2019-05-10 09:27:15,1557451665,P_2e209a007eff0a3d-OTU3Xy0xMjI2MDI0OC01NTAwLTQ0MDAtMDUxMC0yMDUxMC0y,http://pb.xyz.duunion.com/conv?tid=P_2e209a007eff0a3d-OTU3Xy0xMjI2MDI0OC01NTAwLTQ0MDAtMDUxMC0yMDUxMC0y&adv_sectkn=6ce7ea3978d9a0a8dbfac07e4a513a0f&adv_name=Appier,idfa_59A2A5CD-D28F-47EE-AB9B-7831B28B0D16,ja
F6e_b2egTqunNcOqAQH4xg,doglobal,957_20510,install,5.5,221.187.248.117,605D8822-4FA7-4A8A-89C9-CCC24E0FD612,1557451314,2019-05-10 09:21:54,1557451394,2019-05-10 09:23:14,1557451424,P_99e3de909a457347-OTU3Xy0xMjI2MDI0OC01NTAwLTQ0MDAtMDUxMC0yMDUxMC0y,http://pb.xyz.duunion.com/conv?tid=P_99e3de909a457347-OTU3Xy0xMjI2MDI0OC01NTAwLTQ0MDAtMDUxMC0yMDUxMC0y&adv_sectkn=6ce7ea3978d9a0a8dbfac07e4a513a0f&adv_name=Appier,idfa_605D8822-4FA7-4A8A-89C9-CCC24E0FD612,ja
F6e_b2egTqunNcOqAQH4xg,doglobal,957_20510,install,5.5,113.43.137.34,4D743030-0A1D-4563-A213-8AB2003F1BA2,1557451570,2019-05-10 09:26:10,1557451679,2019-05-10 09:27:59,1557451709,B_8ba7cfa37cdcef2f-OTU3Xy0xMjI2MDI0OC01NTAwLTQ0MDAtMDUxMC0yMDUxMC0y,http://pb.xyz.duunion.com/conv?tid=B_8ba7cfa37cdcef2f-OTU3Xy0xMjI2MDI0OC01NTAwLTQ0MDAtMDUxMC0yMDUxMC0y&adv_sectkn=6ce7ea3978d9a0a8dbfac07e4a513a0f&adv_name=Appier,idfa_4D743030-0A1D-4563-A213-8AB2003F1BA2,ja
F6e_b2egTqunNcOqAQH4xg,doglobal,957_20510,install,5.5,122.134.232.63,509C8082-D479-456E-BAAB-39202C407E61,1557451996,2019-05-10 09:33:16,1557452077,2019-05-10 09:34:37,1557452107,P_ec2c75118e7bc752-OTU3Xy0xMjI2MDI0OC01NTAwLTQ0MDAtMDUxMC0yMDUxMC0y,http://pb.xyz.duunion.com/conv?tid=P_ec2c75118e7bc752-OTU3Xy0xMjI2MDI0OC01NTAwLTQ0MDAtMDUxMC0yMDUxMC0y&adv_sectkn=6ce7ea3978d9a0a8dbfac07e4a513a0f&adv_name=Appier,idfa_509C8082-D479-456E-BAAB-39202C407E61,ja
F6e_b2egTqunNcOqAQH4xg,doglobal,957_20510,install,5.5,60.99.27.100,A526539B-046F-49C7-A41A-C363F4989132,1557451939,2019-05-10 09:32:19,1557452060,2019-05-10 09:34:20,1557452090,B_c914ec7887daac01-OTU3Xy0xMjI2MDI0OC01NTAwLTQ0MDAtMDUxMC0yMDUxMC0y,http://pb.xyz.duunion.com/conv?tid=B_c914ec7887daac01-OTU3Xy0xMjI2MDI0OC01NTAwLTQ0MDAtMDUxMC0yMDUxMC0y&adv_sectkn=6ce7ea3978d9a0a8dbfac07e4a513a0f&adv_name=Appier,idfa_A526539B-046F-49C7-A41A-C363F4989132,ja
F6e_b2egTqunNcOqAQH4xg,doglobal,957_20510,install,5.5,60.145.146.42,9047D797-FBF0-437A-8240-2599F7407F14,1557453931,2019-05-10 10:05:31,1557454004,2019-05-10 10:06:44,1557454034,B_df9a05b48a0231f8-OTU3Xy0xMjI2MDI0OC01NTAwLTQ0MDAtMDUxMC0yMDUxMC0y,http://pb.xyz.duunion.com/conv?tid=B_df9a05b48a0231f8-OTU3Xy0xMjI2MDI0OC01NTAwLTQ0MDAtMDUxMC0yMDUxMC0y&adv_sectkn=6ce7ea3978d9a0a8dbfac07e4a513a0f&adv_name=Appier,idfa_9047D797-FBF0-437A-8240-2599F7407F14,ja
F6e_b2egTqunNcOqAQH4xg,doglobal,957_20510,install,5.5,126.94.243.17,8242809F-9061-44C5-A8F4-B7F6C21D69A0,1557452514,2019-05-10 09:41:54,1557452625,2019-05-10 09:43:45,1557452655,B_0c45edf2a182df2d-OTU3Xy0xMjI2MDI0OC01NTAwLTQ0MDAtMDUxMC0yMDUxMC0y,http://pb.xyz.duunion.com/conv?tid=B_0c45edf2a182df2d-OTU3Xy0xMjI2MDI0OC01NTAwLTQ0MDAtMDUxMC0yMDUxMC0y&adv_sectkn=6ce7ea3978d9a0a8dbfac07e4a513a0f&adv_name=Appier,idfa_8242809F-9061-44C5-A8F4-B7F6C21D69A0,ja
F6e_b2egTqunNcOqAQH4xg,doglobal,957_20510,install,5.5,106.180.2.236,59282A97-1482-4FBE-BF3F-B4A2BC043858,1557452428,2019-05-10 09:40:28,1557452550,2019-05-10 09:42:30,1557452581,B_401e42ca72fa867e-OTU3Xy0xMjI2MDI0OC01NTAwLTQ0MDAtMDUxMC0yMDUxMC0y,http://pb.xyz.duunion.com/conv?tid=B_401e42ca72fa867e-OTU3Xy0xMjI2MDI0OC01NTAwLTQ0MDAtMDUxMC0yMDUxMC0y&adv_sectkn=6ce7ea3978d9a0a8dbfac07e4a513a0f&adv_name=Appier,idfa_59282A97-1482-4FBE-BF3F-B4A2BC043858,ja
F6e_b2egTqunNcOqAQH4xg,doglobal,957_20510,install,5.5,124.141.233.125,1F2F052F-4BBD-406B-9AEF-1183CCD7A139,1557450712,2019-05-10 09:11:52,1557450809,2019-05-10 09:13:29,1557450839,B_8838df34b233103c-OTU3Xy0xMjI2MDI0OC01NTAwLTQ0MDAtMDUxMC0yMDUxMC0y,http://pb.xyz.duunion.com/conv?tid=B_8838df34b233103c-OTU3Xy0xMjI2MDI0OC01NTAwLTQ0MDAtMDUxMC0yMDUxMC0y&adv_sectkn=6ce7ea3978d9a0a8dbfac07e4a513a0f&adv_name=Appier,idfa_1F2F052F-4BBD-406B-9AEF-1183CCD7A139,ja
F6e_b2egTqunNcOqAQH4xg,doglobal,957_20510,install,5.5,60.105.142.38,193D0028-D2C1-4BC8-ACAF-605656361D64,1557451712,2019-05-10 09:28:32,1557451791,2019-05-10 09:29:51,1557451821,P_f3bc3da3c9587e01-OTU3Xy0xMjI2MDI0OC01NTAwLTQ0MDAtMDUxMC0yMDUxMC0y,http://pb.xyz.duunion.com/conv?tid=P_f3bc3da3c9587e01-OTU3Xy0xMjI2MDI0OC01NTAwLTQ0MDAtMDUxMC0yMDUxMC0y&adv_sectkn=6ce7ea3978d9a0a8dbfac07e4a513a0f&adv_name=Appier,idfa_193D0028-D2C1-4BC8-ACAF-605656361D64,ja
F6e_b2egTqunNcOqAQH4xg,doglobal,957_20510,install,5.5,114.180.105.49,FA3A0422-EC75-44DD-B48D-2334A6DAAAA5,1557451745,2019-05-10 09:29:05,1557451838,2019-05-10 09:30:38,1557451868,P_a802beb9dab9ac8d-OTU3Xy0xMjI2MDI0OC01NTAwLTQ0MDAtMDUxMC0yMDUxMC0y,http://pb.xyz.duunion.com/conv?tid=P_a802beb9dab9ac8d-OTU3Xy0xMjI2MDI0OC01NTAwLTQ0MDAtMDUxMC0yMDUxMC0y&adv_sectkn=6ce7ea3978d9a0a8dbfac07e4a513a0f&adv_name=Appier,idfa_FA3A0422-EC75-44DD-B48D-2334A6DAAAA5,ja
F6e_b2egTqunNcOqAQH4xg,doglobal,957_20510,install,5.5,118.87.145.136,A9FEB320-F794-471D-AAEA-0CD9DA6D2066,1557453810,2019-05-10 10:03:30,1557453920,2019-05-10 10:05:20,1557453950,P_fa1716e40bb5de30-OTU3Xy0xMjI2MDI0OC01NTAwLTQ0MDAtMDUxMC0yMDUxMC0y,http://pb.xyz.duunion.com/conv?tid=P_fa1716e40bb5de30-OTU3Xy0xMjI2MDI0OC01NTAwLTQ0MDAtMDUxMC0yMDUxMC0y&adv_sectkn=6ce7ea3978d9a0a8dbfac07e4a513a0f&adv_name=Appier,idfa_A9FEB320-F794-471D-AAEA-0CD9DA6D2066,ja
F6e_b2egTqunNcOqAQH4xg,doglobal,957_20510,install,5.5,124.144.97.92,A9BBAA65-386F-41BE-BA8F-42F3D2B7D649,1557454599,2019-05-10 10:16:39,1557454727,2019-05-10 10:18:47,1557454757,P_d3e475f0cdf69321-OTU3Xy0xMjI2MDI0OC01NTAwLTQ0MDAtMDUxMC0yMDUxMC0y,http://pb.xyz.duunion.com/conv?tid=P_d3e475f0cdf69321-OTU3Xy0xMjI2MDI0OC01NTAwLTQ0MDAtMDUxMC0yMDUxMC0y&adv_sectkn=6ce7ea3978d9a0a8dbfac07e4a513a0f&adv_name=Appier,idfa_A9BBAA65-386F-41BE-BA8F-42F3D2B7D649,ja
F6e_b2egTqunNcOqAQH4xg,doglobal,957_20510,install,5.5,157.107.48.232,E14D3058-1892-4888-ADE7-4B31260BE7A9,1557453073,2019-05-10 09:51:13,1557453160,2019-05-10 09:52:40,1557453190,B_792928d70fd72b48-OTU3Xy0xMjI2MDI0OC01NTAwLTQ0MDAtMDUxMC0yMDUxMC0y,http://pb.xyz.duunion.com/conv?tid=B_792928d70fd72b48-OTU3Xy0xMjI2MDI0OC01NTAwLTQ0MDAtMDUxMC0yMDUxMC0y&adv_sectkn=6ce7ea3978d9a0a8dbfac07e4a513a0f&adv_name=Appier,idfa_E14D3058-1892-4888-ADE7-4B31260BE7A9,ja
F6e_b2egTqunNcOqAQH4xg,doglobal,957_20510,install,5.5,124.144.198.145,8348E660-37F0-432D-82DC-CBD6D4E034E7,1557450393,2019-05-10 09:06:33,1557450490,2019-05-10 09:08:10,1557450520,B_7d2f93a5c3d1ace7-OTU3Xy0xMjI2MDI0OC01NTAwLTQ0MDAtMDUxMC0yMDUxMC0y,http://pb.xyz.duunion.com/conv?tid=B_7d2f93a5c3d1ace7-OTU3Xy0xMjI2MDI0OC01NTAwLTQ0MDAtMDUxMC0yMDUxMC0y&adv_sectkn=6ce7ea3978d9a0a8dbfac07e4a513a0f&adv_name=Appier,idfa_8348E660-37F0-432D-82DC-CBD6D4E034E7,ja
F6e_b2egTqunNcOqAQH4xg,doglobal,957_20510,install,5.5,49.96.20.176,E6364D5A-25DD-46EF-9302-06900C831D6D,1557450276,2019-05-10 09:04:36,1557450369,2019-05-10 09:06:09,1557450399,B_39ae3a20534e0390-OTU3Xy0xMjI2MDI0OC01NTAwLTQ0MDAtMDUxMC0yMDUxMC0y,http://pb.xyz.duunion.com/conv?tid=B_39ae3a20534e0390-OTU3Xy0xMjI2MDI0OC01NTAwLTQ0MDAtMDUxMC0yMDUxMC0y&adv_sectkn=6ce7ea3978d9a0a8dbfac07e4a513a0f&adv_name=Appier,idfa_E6364D5A-25DD-46EF-9302-06900C831D6D,ja
F6e_b2egTqunNcOqAQH4xg,doglobal,957_20510,install,5.5,221.22.222.31,BCF8BA38-8213-4086-AC0E-846AB5E2BBCD,1557453084,2019-05-10 09:51:24,1557453177,2019-05-10 09:52:57,1557453207,B_9b362d811299d55c-OTU3Xy0xMjI2MDI0OC01NTAwLTQ0MDAtMDUxMC0yMDUxMC0y,http://pb.xyz.duunion.com/conv?tid=B_9b362d811299d55c-OTU3Xy0xMjI2MDI0OC01NTAwLTQ0MDAtMDUxMC0yMDUxMC0y&adv_sectkn=6ce7ea3978d9a0a8dbfac07e4a513a0f&adv_name=Appier,idfa_BCF8BA38-8213-4086-AC0E-846AB5E2BBCD,ja
F6e_b2egTqunNcOqAQH4xg,doglobal,957_20510,install,5.5,14.9.102.64,E477D9A6-39D2-4331-BB3B-9AC69D7696D3,1557454079,2019-05-10 10:07:59,1557454209,2019-05-10 10:10:09,1557454239,B_cb49dc40e46c832e-OTU3Xy0xMjI2MDI0OC01NTAwLTQ0MDAtMDUxMC0yMDUxMC0y,http://pb.xyz.duunion.com/conv?tid=B_cb49dc40e46c832e-OTU3Xy0xMjI2MDI0OC01NTAwLTQ0MDAtMDUxMC0yMDUxMC0y&adv_sectkn=6ce7ea3978d9a0a8dbfac07e4a513a0f&adv_name=Appier,idfa_E477D9A6-39D2-4331-BB3B-9AC69D7696D3,ja
F6e_b2egTqunNcOqAQH4xg,doglobal,957_20510,install,5.5,120.51.163.26,8FDF94CE-8B5C-4F4A-9B12-D5A76E3F276E,1557453648,2019-05-10 10:00:48,1557453746,2019-05-10 10:02:26,1557453776,P_ca1047d6661dbc10-OTU3Xy0xMjI2MDI0OC01NTAwLTQ0MDAtMDUxMC0yMDUxMC0y,http://pb.xyz.duunion.com/conv?tid=P_ca1047d6661dbc10-OTU3Xy0xMjI2MDI0OC01NTAwLTQ0MDAtMDUxMC0yMDUxMC0y&adv_sectkn=6ce7ea3978d9a0a8dbfac07e4a513a0f&adv_name=Appier,idfa_8FDF94CE-8B5C-4F4A-9B12-D5A76E3F276E,ja
F6e_b2egTqunNcOqAQH4xg,doglobal,957_20510,install,5.5,59.136.121.97,DD7B9A4C-55AA-4537-A496-8930236757CA,1557450819,2019-05-10 09:13:39,1557450899,2019-05-10 09:14:59,1557450929,B_a1f1144a4eb205e3-OTU3Xy0xMjI2MDI0OC01NTAwLTQ0MDAtMDUxMC0yMDUxMC0y,http://pb.xyz.duunion.com/conv?tid=B_a1f1144a4eb205e3-OTU3Xy0xMjI2MDI0OC01NTAwLTQ0MDAtMDUxMC0yMDUxMC0y&adv_sectkn=6ce7ea3978d9a0a8dbfac07e4a513a0f&adv_name=Appier,idfa_DD7B9A4C-55AA-4537-A496-8930236757CA,ja
F6e_b2egTqunNcOqAQH4xg,doglobal,957_20510,install,5.5,59.129.72.201,D1BFF631-851C-4469-ADFA-A5F02FDD0074,1557450669,2019-05-10 09:11:09,1557450810,2019-05-10 09:13:30,1557450840,B_c60ac2d2a9837d0d-OTU3Xy0xMjI2MDI0OC01NTAwLTQ0MDAtMDUxMC0yMDUxMC0y,http://pb.xyz.duunion.com/conv?tid=B_c60ac2d2a9837d0d-OTU3Xy0xMjI2MDI0OC01NTAwLTQ0MDAtMDUxMC0yMDUxMC0y&adv_sectkn=6ce7ea3978d9a0a8dbfac07e4a513a0f&adv_name=Appier,idfa_D1BFF631-851C-4469-ADFA-A5F02FDD0074,ja
F6e_b2egTqunNcOqAQH4xg,doglobal,957_20510,install,5.5,113.43.131.193,EE290783-E1B8-4403-9B02-237B8C19798D,1557450805,2019-05-10 09:13:25,1557450910,2019-05-10 09:15:10,1557450940,P_06b728e80e88b194-OTU3Xy0xMjI2MDI0OC01NTAwLTQ0MDAtMDUxMC0yMDUxMC0y,http://pb.xyz.duunion.com/conv?tid=P_06b728e80e88b194-OTU3Xy0xMjI2MDI0OC01NTAwLTQ0MDAtMDUxMC0yMDUxMC0y&adv_sectkn=6ce7ea3978d9a0a8dbfac07e4a513a0f&adv_name=Appier,idfa_EE290783-E1B8-4403-9B02-237B8C19798D,ja
F6e_b2egTqunNcOqAQH4xg,doglobal,957_20510,install,5.5,124.44.90.52,E6B937B1-E0F4-40B9-BAD3-4A6AE7198D4E,1557453459,2019-05-10 09:57:39,1557453541,2019-05-10 09:59:01,1557453571,P_21c077372f48c8a1-OTU3Xy0xMjI2MDI0OC01NTAwLTQ0MDAtMDUxMC0yMDUxMC0y,http://pb.xyz.duunion.com/conv?tid=P_21c077372f48c8a1-OTU3Xy0xMjI2MDI0OC01NTAwLTQ0MDAtMDUxMC0yMDUxMC0y&adv_sectkn=6ce7ea3978d9a0a8dbfac07e4a513a0f&adv_name=Appier,idfa_E6B937B1-E0F4-40B9-BAD3-4A6AE7198D4E,ja
F6e_b2egTqunNcOqAQH4xg,doglobal,957_20510,install,5.5,126.122.182.23,83EC3981-6E64-4CDD-90E0-4251C7E1744F,1557453051,2019-05-10 09:50:51,1557453149,2019-05-10 09:52:29,1557453180,P_c36feab8d9599966-OTU3Xy0xMjI2MDI0OC01NTAwLTQ0MDAtMDUxMC0yMDUxMC0y,http://pb.xyz.duunion.com/conv?tid=P_c36feab8d9599966-OTU3Xy0xMjI2MDI0OC01NTAwLTQ0MDAtMDUxMC0yMDUxMC0y&adv_sectkn=6ce7ea3978d9a0a8dbfac07e4a513a0f&adv_name=Appier,idfa_83EC3981-6E64-4CDD-90E0-4251C7E1744F,ja
F6e_b2egTqunNcOqAQH4xg,doglobal,957_20510,install,5.5,106.168.247.84,7330D7F4-5377-4F1E-B512-54795E764C65,1557451321,2019-05-10 09:22:01,1557451424,2019-05-10 09:23:44,1557451454,B_9e6e81ccf64a5492-OTU3Xy0xMjI2MDI0OC01NTAwLTQ0MDAtMDUxMC0yMDUxMC0y,http://pb.xyz.duunion.com/conv?tid=B_9e6e81ccf64a5492-OTU3Xy0xMjI2MDI0OC01NTAwLTQ0MDAtMDUxMC0yMDUxMC0y&adv_sectkn=6ce7ea3978d9a0a8dbfac07e4a513a0f&adv_name=Appier,idfa_7330D7F4-5377-4F1E-B512-54795E764C65,ja
F6e_b2egTqunNcOqAQH4xg,doglobal,957_20510,install,5.5,124.40.48.176,F6EA9F04-1152-449E-9988-429BD38B84ED,1557450948,2019-05-10 09:15:48,1557451032,2019-05-10 09:17:12,1557451062,P_dbe07f9b1dbbdc5b-OTU3Xy0xMjI2MDI0OC01NTAwLTQ0MDAtMDUxMC0yMDUxMC0y,http://pb.xyz.duunion.com/conv?tid=P_dbe07f9b1dbbdc5b-OTU3Xy0xMjI2MDI0OC01NTAwLTQ0MDAtMDUxMC0yMDUxMC0y&adv_sectkn=6ce7ea3978d9a0a8dbfac07e4a513a0f&adv_name=Appier,idfa_F6EA9F04-1152-449E-9988-429BD38B84ED,ja
F6e_b2egTqunNcOqAQH4xg,doglobal,957_20510,install,5.5,113.42.148.145,1D5E9F0E-D941-4352-A8F1-93C6D9AC32FA,1557454065,2019-05-10 10:07:45,1557454176,2019-05-10 10:09:36,1557454206,P_81a3f47ae4832c54-OTU3Xy0xMjI2MDI0OC01NTAwLTQ0MDAtMDUxMC0yMDUxMC0y,http://pb.xyz.duunion.com/conv?tid=P_81a3f47ae4832c54-OTU3Xy0xMjI2MDI0OC01NTAwLTQ0MDAtMDUxMC0yMDUxMC0y&adv_sectkn=6ce7ea3978d9a0a8dbfac07e4a513a0f&adv_name=Appier,idfa_1D5E9F0E-D941-4352-A8F1-93C6D9AC32FA,ja
F6e_b2egTqunNcOqAQH4xg,doglobal,957_20510,install,5.5,125.198.74.75,9932A109-BB38-40A8-9A34-957AB6421636,1557453862,2019-05-10 10:04:22,1557453964,2019-05-10 10:06:04,1557453994,P_a1e874b43dab4f62-OTU3Xy0xMjI2MDI0OC01NTAwLTQ0MDAtMDUxMC0yMDUxMC0y,http://pb.xyz.duunion.com/conv?tid=P_a1e874b43dab4f62-OTU3Xy0xMjI2MDI0OC01NTAwLTQ0MDAtMDUxMC0yMDUxMC0y&adv_sectkn=6ce7ea3978d9a0a8dbfac07e4a513a0f&adv_name=Appier,idfa_9932A109-BB38-40A8-9A34-957AB6421636,ja
F6e_b2egTqunNcOqAQH4xg,doglobal,957_20510,install,5.5,60.151.24.170,5831A5DD-5DE2-4040-89F6-2BA0779A5490,1557451485,2019-05-10 09:24:45,1557451570,2019-05-10 09:26:10,1557451600,P_929e323b7988ed90-OTU3Xy0xMjI2MDI0OC01NTAwLTQ0MDAtMDUxMC0yMDUxMC0y,http://pb.xyz.duunion.com/conv?tid=P_929e323b7988ed90-OTU3Xy0xMjI2MDI0OC01NTAwLTQ0MDAtMDUxMC0yMDUxMC0y&adv_sectkn=6ce7ea3978d9a0a8dbfac07e4a513a0f&adv_name=Appier,idfa_5831A5DD-5DE2-4040-89F6-2BA0779A5490,ja
F6e_b2egTqunNcOqAQH4xg,doglobal,957_20510,install,5.5,118.111.13.194,538D8AE4-255E-43D5-B1B5-B22ED8F98E9B,1557454216,2019-05-10 10:10:16,1557454343,2019-05-10 10:12:23,1557454373,P_a135f20c07aa368c-OTU3Xy0xMjI2MDI0OC01NTAwLTQ0MDAtMDUxMC0yMDUxMC0y,http://pb.xyz.duunion.com/conv?tid=P_a135f20c07aa368c-OTU3Xy0xMjI2MDI0OC01NTAwLTQ0MDAtMDUxMC0yMDUxMC0y&adv_sectkn=6ce7ea3978d9a0a8dbfac07e4a513a0f&adv_name=Appier,idfa_538D8AE4-255E-43D5-B1B5-B22ED8F98E9B,ja
F6e_b2egTqunNcOqAQH4xg,doglobal,957_20510,install,5.5,183.86.35.72,19F00FBD-4020-4EBF-BFF3-C5F23341AF78,1557453450,2019-05-10 09:57:30,1557453555,2019-05-10 09:59:15,1557453585,P_3b2c8213f9d27a95-OTU3Xy0xMjI2MDI0OC01NTAwLTQ0MDAtMDUxMC0yMDUxMC0y,http://pb.xyz.duunion.com/conv?tid=P_3b2c8213f9d27a95-OTU3Xy0xMjI2MDI0OC01NTAwLTQ0MDAtMDUxMC0yMDUxMC0y&adv_sectkn=6ce7ea3978d9a0a8dbfac07e4a513a0f&adv_name=Appier,idfa_19F00FBD-4020-4EBF-BFF3-C5F23341AF78,ja
F6e_b2egTqunNcOqAQH4xg,doglobal,957_20510,install,5.5,60.105.142.38,AF772D3E-94B8-4B9E-A240-E7D8A23AE549,1557453066,2019-05-10 09:51:06,1557453183,2019-05-10 09:53:03,1557453213,B_4fea1cc295b7be7e-OTU3Xy0xMjI2MDI0OC01NTAwLTQ0MDAtMDUxMC0yMDUxMC0y,http://pb.xyz.duunion.com/conv?tid=B_4fea1cc295b7be7e-OTU3Xy0xMjI2MDI0OC01NTAwLTQ0MDAtMDUxMC0yMDUxMC0y&adv_sectkn=6ce7ea3978d9a0a8dbfac07e4a513a0f&adv_name=Appier,idfa_AF772D3E-94B8-4B9E-A240-E7D8A23AE549,ja
F6e_b2egTqunNcOqAQH4xg,doglobal,957_20510,install,5.5,106.73.233.128,3983235D-C2FF-4E33-BE81-AF8022D1DE7A,1557452349,2019-05-10 09:39:09,1557452466,2019-05-10 09:41:06,1557452496,B_4cdbf2c230a94d63-OTU3Xy0xMjI2MDI0OC01NTAwLTQ0MDAtMDUxMC0yMDUxMC0y,http://pb.xyz.duunion.com/conv?tid=B_4cdbf2c230a94d63-OTU3Xy0xMjI2MDI0OC01NTAwLTQ0MDAtMDUxMC0yMDUxMC0y&adv_sectkn=6ce7ea3978d9a0a8dbfac07e4a513a0f&adv_name=Appier,idfa_3983235D-C2FF-4E33-BE81-AF8022D1DE7A,ja
F6e_b2egTqunNcOqAQH4xg,doglobal,957_20510,install,5.5,157.147.13.151,BDDF9FDC-DE62-42F9-83DD-74CC5462006D,1557451654,2019-05-10 09:27:34,1557451737,2019-05-10 09:28:57,1557451767,P_581d8204de512597-OTU3Xy0xMjI2MDI0OC01NTAwLTQ0MDAtMDUxMC0yMDUxMC0y,http://pb.xyz.duunion.com/conv?tid=P_581d8204de512597-OTU3Xy0xMjI2MDI0OC01NTAwLTQ0MDAtMDUxMC0yMDUxMC0y&adv_sectkn=6ce7ea3978d9a0a8dbfac07e4a513a0f&adv_name=Appier,idfa_BDDF9FDC-DE62-42F9-83DD-74CC5462006D,ja
F6e_b2egTqunNcOqAQH4xg,doglobal,957_20510,install,5.5,114.149.81.216,4258ADDF-C7E6-46EC-9C62-7DEC345AA0DB,1557454274,2019-05-10 10:11:14,1557454369,2019-05-10 10:12:49,1557454399,B_774fd30a019911dc-OTU3Xy0xMjI2MDI0OC01NTAwLTQ0MDAtMDUxMC0yMDUxMC0y,http://pb.xyz.duunion.com/conv?tid=B_774fd30a019911dc-OTU3Xy0xMjI2MDI0OC01NTAwLTQ0MDAtMDUxMC0yMDUxMC0y&adv_sectkn=6ce7ea3978d9a0a8dbfac07e4a513a0f&adv_name=Appier,idfa_4258ADDF-C7E6-46EC-9C62-7DEC345AA0DB,ja
F6e_b2egTqunNcOqAQH4xg,doglobal,957_20510,install,5.5,153.254.219.216,6828F0DD-AE83-4A58-BB89-9CF086EDC206,1557453034,2019-05-10 09:50:34,1557453150,2019-05-10 09:52:30,1557453180,P_f0f284c57ed25d86-OTU3Xy0xMjI2MDI0OC01NTAwLTQ0MDAtMDUxMC0yMDUxMC0y,http://pb.xyz.duunion.com/conv?tid=P_f0f284c57ed25d86-OTU3Xy0xMjI2MDI0OC01NTAwLTQ0MDAtMDUxMC0yMDUxMC0y&adv_sectkn=6ce7ea3978d9a0a8dbfac07e4a513a0f&adv_name=Appier,idfa_6828F0DD-AE83-4A58-BB89-9CF086EDC206,ja
F6e_b2egTqunNcOqAQH4xg,doglobal,957_20510,install,5.5,180.5.163.142,33B287A8-9DA5-4AD9-ABCD-FE0108B7F411,1557450396,2019-05-10 09:06:36,1557450499,2019-05-10 09:08:19,1557450530,P_6f9cfa4c0fa5dd8f-OTU3Xy0xMjI2MDI0OC01NTAwLTQ0MDAtMDUxMC0yMDUxMC0y,http://pb.xyz.duunion.com/conv?tid=P_6f9cfa4c0fa5dd8f-OTU3Xy0xMjI2MDI0OC01NTAwLTQ0MDAtMDUxMC0yMDUxMC0y&adv_sectkn=6ce7ea3978d9a0a8dbfac07e4a513a0f&adv_name=Appier,idfa_33B287A8-9DA5-4AD9-ABCD-FE0108B7F411,ja
F6e_b2egTqunNcOqAQH4xg,doglobal,957_20510,install,5.5,106.167.176.141,7E54D802-2AF0-462F-A022-4CCB0204D953,1557453468,2019-05-10 09:57:48,1557453580,2019-05-10 09:59:40,1557453610,B_9f980e785d423df0-OTU3Xy0xMjI2MDI0OC01NTAwLTQ0MDAtMDUxMC0yMDUxMC0y,http://pb.xyz.duunion.com/conv?tid=B_9f980e785d423df0-OTU3Xy0xMjI2MDI0OC01NTAwLTQ0MDAtMDUxMC0yMDUxMC0y&adv_sectkn=6ce7ea3978d9a0a8dbfac07e4a513a0f&adv_name=Appier,idfa_7E54D802-2AF0-462F-A022-4CCB0204D953,ja
F6e_b2egTqunNcOqAQH4xg,doglobal,957_20510,install,5.5,110.66.78.205,9EAD6E47-CE6F-478E-B951-6CE615496DB5,1557452025,2019-05-10 09:33:45,1557452130,2019-05-10 09:35:30,1557452160,P_85549102518d5ba4-OTU3Xy0xMjI2MDI0OC01NTAwLTQ0MDAtMDUxMC0yMDUxMC0y,http://pb.xyz.duunion.com/conv?tid=P_85549102518d5ba4-OTU3Xy0xMjI2MDI0OC01NTAwLTQ0MDAtMDUxMC0yMDUxMC0y&adv_sectkn=6ce7ea3978d9a0a8dbfac07e4a513a0f&adv_name=Appier,idfa_9EAD6E47-CE6F-478E-B951-6CE615496DB5,ja
F6e_b2egTqunNcOqAQH4xg,doglobal,957_20510,install,5.5,118.111.154.138,CC03F465-DC18-4252-9B99-CD6C3A513B2E,1557454524,2019-05-10 10:15:24,1557454644,2019-05-10 10:17:24,1557454674,B_f9ede6ab1ed65ea1-OTU3Xy0xMjI2MDI0OC01NTAwLTQ0MDAtMDUxMC0yMDUxMC0y,http://pb.xyz.duunion.com/conv?tid=B_f9ede6ab1ed65ea1-OTU3Xy0xMjI2MDI0OC01NTAwLTQ0MDAtMDUxMC0yMDUxMC0y&adv_sectkn=6ce7ea3978d9a0a8dbfac07e4a513a0f&adv_name=Appier,idfa_CC03F465-DC18-4252-9B99-CD6C3A513B2E,ja
F6e_b2egTqunNcOqAQH4xg,doglobal,957_20510,install,5.5,125.170.168.13,8258A4EE-FA1A-4A64-AED3-9A8C3EFCA1B9,1557454610,2019-05-10 10:16:50,1557454710,2019-05-10 10:18:30,1557454740,P_41467f6b494a362c-OTU3Xy0xMjI2MDI0OC01NTAwLTQ0MDAtMDUxMC0yMDUxMC0y,http://pb.xyz.duunion.com/conv?tid=P_41467f6b494a362c-OTU3Xy0xMjI2MDI0OC01NTAwLTQ0MDAtMDUxMC0yMDUxMC0y&adv_sectkn=6ce7ea3978d9a0a8dbfac07e4a513a0f&adv_name=Appier,idfa_8258A4EE-FA1A-4A64-AED3-9A8C3EFCA1B9,ja
F6e_b2egTqunNcOqAQH4xg,doglobal,957_20510,install,5.5,123.255.129.240,34220BA9-1305-494E-B47D-C4A199C202BB,1557453213,2019-05-10 09:53:33,1557453307,2019-05-10 09:55:07,1557453337,B_5be1c9fe519e2ffe-OTU3Xy0xMjI2MDI0OC01NTAwLTQ0MDAtMDUxMC0yMDUxMC0y,http://pb.xyz.duunion.com/conv?tid=B_5be1c9fe519e2ffe-OTU3Xy0xMjI2MDI0OC01NTAwLTQ0MDAtMDUxMC0yMDUxMC0y&adv_sectkn=6ce7ea3978d9a0a8dbfac07e4a513a0f&adv_name=Appier,idfa_34220BA9-1305-494E-B47D-C4A199C202BB,ja
F6e_b2egTqunNcOqAQH4xg,doglobal,957_20510,install,5.5,126.78.237.222,16FDF023-E328-49D3-A2E5-3AF346367182,1557452104,2019-05-10 09:35:04,1557452236,2019-05-10 09:37:16,1557452266,P_cbb8d8091189902d-OTU3Xy0xMjI2MDI0OC01NTAwLTQ0MDAtMDUxMC0yMDUxMC0y,http://pb.xyz.duunion.com/conv?tid=P_cbb8d8091189902d-OTU3Xy0xMjI2MDI0OC01NTAwLTQ0MDAtMDUxMC0yMDUxMC0y&adv_sectkn=6ce7ea3978d9a0a8dbfac07e4a513a0f&adv_name=Appier,idfa_16FDF023-E328-49D3-A2E5-3AF346367182,ja
F6e_b2egTqunNcOqAQH4xg,doglobal,957_20510,install,5.5,114.184.116.130,6253FA2C-8D6C-41F3-B383-F9060B0A6C41,1557450760,2019-05-10 09:12:40,1557450856,2019-05-10 09:14:16,1557450886,P_23aadbeeb138775b-OTU3Xy0xMjI2MDI0OC01NTAwLTQ0MDAtMDUxMC0yMDUxMC0y,http://pb.xyz.duunion.com/conv?tid=P_23aadbeeb138775b-OTU3Xy0xMjI2MDI0OC01NTAwLTQ0MDAtMDUxMC0yMDUxMC0y&adv_sectkn=6ce7ea3978d9a0a8dbfac07e4a513a0f&adv_name=Appier,idfa_6253FA2C-8D6C-41F3-B383-F9060B0A6C41,ja
F6e_b2egTqunNcOqAQH4xg,doglobal,957_20510,install,5.5,210.139.190.237,31DF8AB8-1FF6-43F4-B949-5D073310A97A,1557452693,2019-05-10 09:44:53,1557452778,2019-05-10 09:46:18,1557452808,B_0bac964739fbfc27-OTU3Xy0xMjI2MDI0OC01NTAwLTQ0MDAtMDUxMC0yMDUxMC0y,http://pb.xyz.duunion.com/conv?tid=B_0bac964739fbfc27-OTU3Xy0xMjI2MDI0OC01NTAwLTQ0MDAtMDUxMC0yMDUxMC0y&adv_sectkn=6ce7ea3978d9a0a8dbfac07e4a513a0f&adv_name=Appier,idfa_31DF8AB8-1FF6-43F4-B949-5D073310A97A,ja
F6e_b2egTqunNcOqAQH4xg,doglobal,957_20510,install,5.5,126.73.98.27,5BB301F0-A967-44E8-B435-0454A9EADD62,1557451971,2019-05-10 09:32:51,1557452061,2019-05-10 09:34:21,1557452091,B_8af1593386ded9c5-OTU3Xy0xMjI2MDI0OC01NTAwLTQ0MDAtMDUxMC0yMDUxMC0y,http://pb.xyz.duunion.com/conv?tid=B_8af1593386ded9c5-OTU3Xy0xMjI2MDI0OC01NTAwLTQ0MDAtMDUxMC0yMDUxMC0y&adv_sectkn=6ce7ea3978d9a0a8dbfac07e4a513a0f&adv_name=Appier,idfa_5BB301F0-A967-44E8-B435-0454A9EADD62,ja
F6e_b2egTqunNcOqAQH4xg,doglobal,957_20510,install,5.5,115.69.233.12,F4D9CAB9-2C13-45A2-B95A-6C3AEC695120,1557452550,2019-05-10 09:42:30,1557452663,2019-05-10 09:44:23,1557452693,B_7e9f0f9017c1b162-OTU3Xy0xMjI2MDI0OC01NTAwLTQ0MDAtMDUxMC0yMDUxMC0y,http://pb.xyz.duunion.com/conv?tid=B_7e9f0f9017c1b162-OTU3Xy0xMjI2MDI0OC01NTAwLTQ0MDAtMDUxMC0yMDUxMC0y&adv_sectkn=6ce7ea3978d9a0a8dbfac07e4a513a0f&adv_name=Appier,idfa_F4D9CAB9-2C13-45A2-B95A-6C3AEC695120,ja
F6e_b2egTqunNcOqAQH4xg,doglobal,957_20510,install,5.5,124.154.70.249,2F33F906-C9C0-4F80-A8F3-10F0351CED87,1557452187,2019-05-10 09:36:27,1557452272,2019-05-10 09:37:52,1557452433,P_77b19a981e5c0607-OTU3Xy0xMjI2MDI0OC01NTAwLTQ0MDAtMDUxMC0yMDUxMC0y,http://pb.xyz.duunion.com/conv?tid=P_77b19a981e5c0607-OTU3Xy0xMjI2MDI0OC01NTAwLTQ0MDAtMDUxMC0yMDUxMC0y&adv_sectkn=6ce7ea3978d9a0a8dbfac07e4a513a0f&adv_name=Appier,idfa_2F33F906-C9C0-4F80-A8F3-10F0351CED87,ja
F6e_b2egTqunNcOqAQH4xg,doglobal,957_20510,install,5.5,101.1.119.65,9CDB9B84-00D8-4D63-A2BF-943C8AF4B224,1557450603,2019-05-10 09:10:03,1557450688,2019-05-10 09:11:28,1557450718,P_47286cbe3c963be7-OTU3Xy0xMjI2MDI0OC01NTAwLTQ0MDAtMDUxMC0yMDUxMC0y,http://pb.xyz.duunion.com/conv?tid=P_47286cbe3c963be7-OTU3Xy0xMjI2MDI0OC01NTAwLTQ0MDAtMDUxMC0yMDUxMC0y&adv_sectkn=6ce7ea3978d9a0a8dbfac07e4a513a0f&adv_name=Appier,idfa_9CDB9B84-00D8-4D63-A2BF-943C8AF4B224,ja
