cid,partner_id,channel_id,action_id,cpi,ip,idfa,click time,click datetime,install time,install datetime,postback time,click id,postback url,unique user id
CfL0tgKrSg-l17w_4sssww,doglobal_api,718_86_N_12s__ab49068d0a7a,Install,2.2,112.152.239.22,79597D98-E083-4776-B7E0-CB0B8035C9CD,1557020620,2019-05-05 09:43:40,1557020786,2019-05-05 09:46:26,1557020816,B_5f56b81179f71b64-NzE4Xy0xMzEzNTM0Ni0yMjAwLTI0MjAtMDUwNS0t,http://pb.xyz.duunion.com/conv?tid=B_5f56b81179f71b64-NzE4Xy0xMzEzNTM0Ni0yMjAwLTI0MjAtMDUwNS0t&adv_sectkn=55dea06a643eb8a2d267a735fe2683bd&adv_name=appier-api&payout=2.2,idfa_79597D98-E083-4776-B7E0-CB0B8035C9CD,ko-KR
CfL0tgKrSg-l17w_4sssww,doglobal_api,718_86_N_9s__5573_3130_,Install,2.2,117.53.227.92,9175E903-670C-4982-8253-B29FF30A6189,1556932938,2019-05-04 09:22:18,1556933012,2019-05-04 09:23:32,1556933043,P_18709947044176d8-NzE4Xy0xMzEzNTM0Ni0yMjAwLTI0MjAtMDUwNC0t,http://pb.xyz.duunion.com/conv?tid=P_18709947044176d8-NzE4Xy0xMzEzNTM0Ni0yMjAwLTI0MjAtMDUwNC0t&adv_sectkn=55dea06a643eb8a2d267a735fe2683bd&adv_name=appier-api&payout=2.2,idfa_9175E903-670C-4982-8253-B29FF30A6189,ko-KR
CfL0tgKrSg-l17w_4sssww,doglobal_api,718_86_N_9s__5573_2857_319,Install,2.2,121.182.166.81,27A828BF-7F49-4C82-BEA8-5D79752B913F,1556761363,2019-05-02 09:42:43,1556761397,2019-05-02 09:43:17,1556761520,P_44207bef7a1a0b83-NzE4Xy0xMzEzNTM0Ni0yMjAwLTI0MjAtMDUwMi0t,http://pb.xyz.duunion.com/conv?tid=P_44207bef7a1a0b83-NzE4Xy0xMzEzNTM0Ni0yMjAwLTI0MjAtMDUwMi0t&adv_sectkn=55dea06a643eb8a2d267a735fe2683bd&adv_name=appier-api&payout=2.2,idfa_27A828BF-7F49-4C82-BEA8-5D79752B913F,ko-KR
CfL0tgKrSg-l17w_4sssww,doglobal_api,718_86_N_12s__475924788d9a,Install,2.2,218.238.146.140,F3293CE5-40CB-422B-A02B-5093E8395A83,1557020681,2019-05-05 09:44:41,1557021341,2019-05-05 09:55:41,1557021372,B_0d4079f77cf86ed9-NzE4Xy0xMzEzNTM0Ni0yMjAwLTI0MjAtMDUwNS0t,http://pb.xyz.duunion.com/conv?tid=B_0d4079f77cf86ed9-NzE4Xy0xMzEzNTM0Ni0yMjAwLTI0MjAtMDUwNS0t&adv_sectkn=55dea06a643eb8a2d267a735fe2683bd&adv_name=appier-api&payout=2.2,idfa_F3293CE5-40CB-422B-A02B-5093E8395A83,ko-KR
CfL0tgKrSg-l17w_4sssww,doglobal_api,718_86_N_12s__32214682e4be,Install,2.2,14.52.187.141,CBA73DE0-1F2F-4F57-A353-6F3087A18B26,1557020658,2019-05-05 09:44:18,1557020787,2019-05-05 09:46:27,1557020818,B_07cf384319ae26f6-NzE4Xy0xMzEzNTM0Ni0yMjAwLTI0MjAtMDUwNS0t,http://pb.xyz.duunion.com/conv?tid=B_07cf384319ae26f6-NzE4Xy0xMzEzNTM0Ni0yMjAwLTI0MjAtMDUwNS0t&adv_sectkn=55dea06a643eb8a2d267a735fe2683bd&adv_name=appier-api&payout=2.2,idfa_CBA73DE0-1F2F-4F57-A353-6F3087A18B26,ko-KR
CfL0tgKrSg-l17w_4sssww,doglobal_api,718_86_N_12s__172ff321c685,Install,2.2,59.4.32.194,DB36190F-78B1-4F88-BAEF-93BFEA5E3BCC,1557020447,2019-05-05 09:40:47,1557021214,2019-05-05 09:53:34,1557021244,P_649f04cce96afb22-NzE4Xy0xMzEzNTM0Ni0yMjAwLTI0MjAtMDUwNS0t,http://pb.xyz.duunion.com/conv?tid=P_649f04cce96afb22-NzE4Xy0xMzEzNTM0Ni0yMjAwLTI0MjAtMDUwNS0t&adv_sectkn=55dea06a643eb8a2d267a735fe2683bd&adv_name=appier-api&payout=2.2,idfa_DB36190F-78B1-4F88-BAEF-93BFEA5E3BCC,ko-KR
CfL0tgKrSg-l17w_4sssww,doglobal_api,718_86_N_12s__bb1c41b92e33,Install,2.2,210.100.231.71,252D0594-6459-4D48-ABC8-CF7625B02836,1557020034,2019-05-05 09:33:54,1557020176,2019-05-05 09:36:16,1557020219,P_c98c52e1f926e5c3-NzE4Xy0xMzEzNTM0Ni0yMjAwLTI0MjAtMDUwNS0t,http://pb.xyz.duunion.com/conv?tid=P_c98c52e1f926e5c3-NzE4Xy0xMzEzNTM0Ni0yMjAwLTI0MjAtMDUwNS0t&adv_sectkn=55dea06a643eb8a2d267a735fe2683bd&adv_name=appier-api&payout=2.2,idfa_252D0594-6459-4D48-ABC8-CF7625B02836,ko-KR
CfL0tgKrSg-l17w_4sssww,doglobal_api,718_86_N_12s__f33fce8d71f6,Install,2.2,110.8.141.98,77D1CB41-3847-43F9-B384-5E4E06B05C0A,1557020480,2019-05-05 09:41:20,1557020809,2019-05-05 09:46:49,1557020839,B_e24729f74f61c72b-NzE4Xy0xMzEzNTM0Ni0yMjAwLTI0MjAtMDUwNS0t,http://pb.xyz.duunion.com/conv?tid=B_e24729f74f61c72b-NzE4Xy0xMzEzNTM0Ni0yMjAwLTI0MjAtMDUwNS0t&adv_sectkn=55dea06a643eb8a2d267a735fe2683bd&adv_name=appier-api&payout=2.2,idfa_77D1CB41-3847-43F9-B384-5E4E06B05C0A,ko-KR
CfL0tgKrSg-l17w_4sssww,doglobal_api,718_86_N_9s__8156_406_12350_129988,Install,2.2,27.116.255.153,137415FC-DD90-40FD-A675-045221A0658C,1556850181,2019-05-03 10:23:01,1556850242,2019-05-03 10:24:02,1556850273,B_ddc013316d14d967-NzE4Xy0xMzEzNTM0Ni0yMjAwLTI0MjAtMDUwMy0t,http://pb.xyz.duunion.com/conv?tid=B_ddc013316d14d967-NzE4Xy0xMzEzNTM0Ni0yMjAwLTI0MjAtMDUwMy0t&adv_sectkn=55dea06a643eb8a2d267a735fe2683bd&adv_name=appier-api&payout=2.2,idfa_137415FC-DD90-40FD-A675-045221A0658C,ko-KR
CfL0tgKrSg-l17w_4sssww,doglobal_api,718_86_N_12s__440f5b5cf0dc,Install,2.2,221.149.36.233,495745F7-27F4-4185-AA68-9BB7975339B9,1557020462,2019-05-05 09:41:02,1557020599,2019-05-05 09:43:19,1557020630,P_264e414f42aad0bc-NzE4Xy0xMzEzNTM0Ni0yMjAwLTI0MjAtMDUwNS0t,http://pb.xyz.duunion.com/conv?tid=P_264e414f42aad0bc-NzE4Xy0xMzEzNTM0Ni0yMjAwLTI0MjAtMDUwNS0t&adv_sectkn=55dea06a643eb8a2d267a735fe2683bd&adv_name=appier-api&payout=2.2,idfa_495745F7-27F4-4185-AA68-9BB7975339B9,ko-KR
CfL0tgKrSg-l17w_4sssww,doglobal_api,718_86_N_9s__5573_2857_319,Install,2.2,222.97.214.195,2853568F-C659-4D10-B896-439A3AA779B5,1556760819,2019-05-02 09:33:39,1556760854,2019-05-02 09:34:14,1556760884,P_b8459afc1a0729c3-NzE4Xy0xMzEzNTM0Ni0yMjAwLTI0MjAtMDUwMi0t,http://pb.xyz.duunion.com/conv?tid=P_b8459afc1a0729c3-NzE4Xy0xMzEzNTM0Ni0yMjAwLTI0MjAtMDUwMi0t&adv_sectkn=55dea06a643eb8a2d267a735fe2683bd&adv_name=appier-api&payout=2.2,idfa_2853568F-C659-4D10-B896-439A3AA779B5,ko-KR
CfL0tgKrSg-l17w_4sssww,doglobal_api,718_86_N_12s__dba1eea78829,Install,2.2,14.55.147.25,C77457C5-374E-4DE0-B3D5-93240F11BDCF,1557020440,2019-05-05 09:40:40,1557020587,2019-05-05 09:43:07,1557020617,B_189d67789f1ed44a-NzE4Xy0xMzEzNTM0Ni0yMjAwLTI0MjAtMDUwNS0t,http://pb.xyz.duunion.com/conv?tid=B_189d67789f1ed44a-NzE4Xy0xMzEzNTM0Ni0yMjAwLTI0MjAtMDUwNS0t&adv_sectkn=55dea06a643eb8a2d267a735fe2683bd&adv_name=appier-api&payout=2.2,idfa_C77457C5-374E-4DE0-B3D5-93240F11BDCF,ko-KR
CfL0tgKrSg-l17w_4sssww,doglobal_api,718_86_N_12s__6460b460fec3,Install,2.2,122.34.114.114,BF8A7BE4-8FF5-4350-BB56-F992C93F57EF,1557020462,2019-05-05 09:41:02,1557020794,2019-05-05 09:46:34,1557020825,B_daafdc5aa766ad3c-NzE4Xy0xMzEzNTM0Ni0yMjAwLTI0MjAtMDUwNS0t,http://pb.xyz.duunion.com/conv?tid=B_daafdc5aa766ad3c-NzE4Xy0xMzEzNTM0Ni0yMjAwLTI0MjAtMDUwNS0t&adv_sectkn=55dea06a643eb8a2d267a735fe2683bd&adv_name=appier-api&payout=2.2,idfa_BF8A7BE4-8FF5-4350-BB56-F992C93F57EF,ko-KR
CfL0tgKrSg-l17w_4sssww,doglobal_api,718_86_N_12s__f33fce8d71f6,Install,2.2,61.253.32.118,11807302-016B-4AE4-9CB5-5019B648F223,1557020070,2019-05-05 09:34:30,1557020292,2019-05-05 09:38:12,1557020323,P_27129c80e2420974-NzE4Xy0xMzEzNTM0Ni0yMjAwLTI0MjAtMDUwNS0t,http://pb.xyz.duunion.com/conv?tid=P_27129c80e2420974-NzE4Xy0xMzEzNTM0Ni0yMjAwLTI0MjAtMDUwNS0t&adv_sectkn=55dea06a643eb8a2d267a735fe2683bd&adv_name=appier-api&payout=2.2,idfa_11807302-016B-4AE4-9CB5-5019B648F223,ko-KR
CfL0tgKrSg-l17w_4sssww,doglobal_api,718_86_N_9s__8156_406_12350_129988,Install,2.2,220.76.203.140,3CA78DB1-C439-42C0-AF52-472F89474968,1556850369,2019-05-03 10:26:09,1556850443,2019-05-03 10:27:23,1556850475,P_673e868e73dcdfa5-NzE4Xy0xMzEzNTM0Ni0yMjAwLTI0MjAtMDUwMy0t,http://pb.xyz.duunion.com/conv?tid=P_673e868e73dcdfa5-NzE4Xy0xMzEzNTM0Ni0yMjAwLTI0MjAtMDUwMy0t&adv_sectkn=55dea06a643eb8a2d267a735fe2683bd&adv_name=appier-api&payout=2.2,idfa_3CA78DB1-C439-42C0-AF52-472F89474968,ko-KR
CfL0tgKrSg-l17w_4sssww,doglobal_api,718_86_N_9s__8156_406_12350_129988,Install,2.2,125.135.252.3,D92A0687-D7CA-417B-80AB-23F4FDA5B10A,1556850150,2019-05-03 10:22:30,1556850213,2019-05-03 10:23:33,1556850243,P_84c2f248c7532c3f-NzE4Xy0xMzEzNTM0Ni0yMjAwLTI0MjAtMDUwMy0t,http://pb.xyz.duunion.com/conv?tid=P_84c2f248c7532c3f-NzE4Xy0xMzEzNTM0Ni0yMjAwLTI0MjAtMDUwMy0t&adv_sectkn=55dea06a643eb8a2d267a735fe2683bd&adv_name=appier-api&payout=2.2,idfa_D92A0687-D7CA-417B-80AB-23F4FDA5B10A,ko-KR
CfL0tgKrSg-l17w_4sssww,doglobal_api,718_86_N_12s__ae81483d0688,Install,2.2,121.191.177.86,C353387D-F7D1-4D8B-BB7F-2AEABEC92F79,1557020733,2019-05-05 09:45:33,1557020859,2019-05-05 09:47:39,1557020889,P_ab9351ce45996c95-NzE4Xy0xMzEzNTM0Ni0yMjAwLTI0MjAtMDUwNS0t,http://pb.xyz.duunion.com/conv?tid=P_ab9351ce45996c95-NzE4Xy0xMzEzNTM0Ni0yMjAwLTI0MjAtMDUwNS0t&adv_sectkn=55dea06a643eb8a2d267a735fe2683bd&adv_name=appier-api&payout=2.2,idfa_C353387D-F7D1-4D8B-BB7F-2AEABEC92F79,ko-KR
CfL0tgKrSg-l17w_4sssww,doglobal_api,718_86_N_9s__8156_406_12350_129988,Install,2.2,115.41.66.216,532B5CB0-8396-495A-A3BE-1F06431DA5B5,1556850500,2019-05-03 10:28:20,1556850565,2019-05-03 10:29:25,1556850728,P_d13253db943cfa0b-NzE4Xy0xMzEzNTM0Ni0yMjAwLTI0MjAtMDUwMy0t,http://pb.xyz.duunion.com/conv?tid=P_d13253db943cfa0b-NzE4Xy0xMzEzNTM0Ni0yMjAwLTI0MjAtMDUwMy0t&adv_sectkn=55dea06a643eb8a2d267a735fe2683bd&adv_name=appier-api&payout=2.2,idfa_532B5CB0-8396-495A-A3BE-1F06431DA5B5,ko-KR
CfL0tgKrSg-l17w_4sssww,doglobal_api,718_86_N_12s__89519870b0e6,Install,2.2,210.179.37.44,CE8C0FFF-3FA0-4D3E-B7B7-2B2FAE50994B,1557020699,2019-05-05 09:44:59,1557020830,2019-05-05 09:47:10,1557020860,P_e197d1ff45277ff1-NzE4Xy0xMzEzNTM0Ni0yMjAwLTI0MjAtMDUwNS0t,http://pb.xyz.duunion.com/conv?tid=P_e197d1ff45277ff1-NzE4Xy0xMzEzNTM0Ni0yMjAwLTI0MjAtMDUwNS0t&adv_sectkn=55dea06a643eb8a2d267a735fe2683bd&adv_name=appier-api&payout=2.2,idfa_CE8C0FFF-3FA0-4D3E-B7B7-2B2FAE50994B,ko-KR
CfL0tgKrSg-l17w_4sssww,doglobal_api,718_86_N_9s__8156_406_12350_129988,Install,2.2,61.40.194.10,79274F94-13BE-4E69-99A8-5321E04DBA63,1556850603,2019-05-03 10:30:03,1556850665,2019-05-03 10:31:05,1556850709,P_41a22d6414497ea4-NzE4Xy0xMzEzNTM0Ni0yMjAwLTI0MjAtMDUwMy0t,http://pb.xyz.duunion.com/conv?tid=P_41a22d6414497ea4-NzE4Xy0xMzEzNTM0Ni0yMjAwLTI0MjAtMDUwMy0t&adv_sectkn=55dea06a643eb8a2d267a735fe2683bd&adv_name=appier-api&payout=2.2,idfa_79274F94-13BE-4E69-99A8-5321E04DBA63,ko-KR
CfL0tgKrSg-l17w_4sssww,doglobal_api,718_86_N_12s__c39e76379571,Install,2.2,58.65.111.80,CDC78C42-25B5-4645-AE5A-BD82F4FDC6D9,1557020931,2019-05-05 09:48:51,1557021066,2019-05-05 09:51:06,1557021097,B_659bf98bad17cfb8-NzE4Xy0xMzEzNTM0Ni0yMjAwLTI0MjAtMDUwNS0t,http://pb.xyz.duunion.com/conv?tid=B_659bf98bad17cfb8-NzE4Xy0xMzEzNTM0Ni0yMjAwLTI0MjAtMDUwNS0t&adv_sectkn=55dea06a643eb8a2d267a735fe2683bd&adv_name=appier-api&payout=2.2,idfa_CDC78C42-25B5-4645-AE5A-BD82F4FDC6D9,ko-KR
CfL0tgKrSg-l17w_4sssww,doglobal_api,718_86_N_12s__36647dff1b51,Install,2.2,222.234.10.101,4A9C2288-5789-469A-AC73-4DC44B08941C,1557020453,2019-05-05 09:40:53,1557020666,2019-05-05 09:44:26,1557020697,B_5ed20fea8cfebe10-NzE4Xy0xMzEzNTM0Ni0yMjAwLTI0MjAtMDUwNS0t,http://pb.xyz.duunion.com/conv?tid=B_5ed20fea8cfebe10-NzE4Xy0xMzEzNTM0Ni0yMjAwLTI0MjAtMDUwNS0t&adv_sectkn=55dea06a643eb8a2d267a735fe2683bd&adv_name=appier-api&payout=2.2,idfa_4A9C2288-5789-469A-AC73-4DC44B08941C,ko-KR
CfL0tgKrSg-l17w_4sssww,doglobal_api,718_86_N_12s__c39e76379571,Install,2.2,221.146.61.72,FFAE203F-E7B0-49D0-8118-BE806E88D45D,1557020642,2019-05-05 09:44:02,1557020785,2019-05-05 09:46:25,1557020815,P_de0ab60b95ff4cd0-NzE4Xy0xMzEzNTM0Ni0yMjAwLTI0MjAtMDUwNS0t,http://pb.xyz.duunion.com/conv?tid=P_de0ab60b95ff4cd0-NzE4Xy0xMzEzNTM0Ni0yMjAwLTI0MjAtMDUwNS0t&adv_sectkn=55dea06a643eb8a2d267a735fe2683bd&adv_name=appier-api&payout=2.2,idfa_FFAE203F-E7B0-49D0-8118-BE806E88D45D,ko-KR
CfL0tgKrSg-l17w_4sssww,doglobal_api,718_86_N_9s__5573_2857_319,Install,2.2,220.66.155.2,6FB4238A-C357-45C8-9F70-F7672F45C499,1556762348,2019-05-02 09:59:08,1556762389,2019-05-02 09:59:49,1556762419,P_07317074a0b1b366-NzE4Xy0xMzEzNTM0Ni0yMjAwLTI0MjAtMDUwMi0t,http://pb.xyz.duunion.com/conv?tid=P_07317074a0b1b366-NzE4Xy0xMzEzNTM0Ni0yMjAwLTI0MjAtMDUwMi0t&adv_sectkn=55dea06a643eb8a2d267a735fe2683bd&adv_name=appier-api&payout=2.2,idfa_6FB4238A-C357-45C8-9F70-F7672F45C499,ko-KR
CfL0tgKrSg-l17w_4sssww,doglobal_api,718_86_N_9s__8156_406_12350_129988,Install,2.2,61.40.194.10,17572A2B-7FF7-4FAA-AFF0-D52538799EEB,1556850507,2019-05-03 10:28:27,1556850568,2019-05-03 10:29:28,1556850598,P_3e3487f76fdf4a61-NzE4Xy0xMzEzNTM0Ni0yMjAwLTI0MjAtMDUwMy0t,http://pb.xyz.duunion.com/conv?tid=P_3e3487f76fdf4a61-NzE4Xy0xMzEzNTM0Ni0yMjAwLTI0MjAtMDUwMy0t&adv_sectkn=55dea06a643eb8a2d267a735fe2683bd&adv_name=appier-api&payout=2.2,idfa_17572A2B-7FF7-4FAA-AFF0-D52538799EEB,ko-KR
CfL0tgKrSg-l17w_4sssww,doglobal_api,718_86_N_12s__36647dff1b51,Install,2.2,211.108.190.138,586A8428-0570-4397-81D1-60A3A20F9A5D,1557020454,2019-05-05 09:40:54,1557020745,2019-05-05 09:45:45,1557020775,P_d8026ea79549950e-NzE4Xy0xMzEzNTM0Ni0yMjAwLTI0MjAtMDUwNS0t,http://pb.xyz.duunion.com/conv?tid=P_d8026ea79549950e-NzE4Xy0xMzEzNTM0Ni0yMjAwLTI0MjAtMDUwNS0t&adv_sectkn=55dea06a643eb8a2d267a735fe2683bd&adv_name=appier-api&payout=2.2,idfa_586A8428-0570-4397-81D1-60A3A20F9A5D,ko-KR
CfL0tgKrSg-l17w_4sssww,doglobal_api,718_86_N_12s__36647dff1b51,Install,2.2,58.65.111.80,9BAC9FF2-CA9F-4285-A4DE-7F18D0933B13,1557020546,2019-05-05 09:42:26,1557021082,2019-05-05 09:51:22,1557021116,P_4a78f8ace641987e-NzE4Xy0xMzEzNTM0Ni0yMjAwLTI0MjAtMDUwNS0t,http://pb.xyz.duunion.com/conv?tid=P_4a78f8ace641987e-NzE4Xy0xMzEzNTM0Ni0yMjAwLTI0MjAtMDUwNS0t&adv_sectkn=55dea06a643eb8a2d267a735fe2683bd&adv_name=appier-api&payout=2.2,idfa_9BAC9FF2-CA9F-4285-A4DE-7F18D0933B13,ko-KR
CfL0tgKrSg-l17w_4sssww,doglobal_api,718_86_N_12s__440f5b5cf0dc,Install,2.2,121.152.123.43,7FB39088-B32B-4ADF-85FF-1B44022C895F,1557020455,2019-05-05 09:40:55,1557020679,2019-05-05 09:44:39,1557020710,P_c7f8ea9d22c6f9a3-NzE4Xy0xMzEzNTM0Ni0yMjAwLTI0MjAtMDUwNS0t,http://pb.xyz.duunion.com/conv?tid=P_c7f8ea9d22c6f9a3-NzE4Xy0xMzEzNTM0Ni0yMjAwLTI0MjAtMDUwNS0t&adv_sectkn=55dea06a643eb8a2d267a735fe2683bd&adv_name=appier-api&payout=2.2,idfa_7FB39088-B32B-4ADF-85FF-1B44022C895F,ko-KR
CfL0tgKrSg-l17w_4sssww,doglobal_api,718_86_N_9s__8156_406_12350_129988,Install,2.2,119.194.7.26,DA8B28CB-8203-446A-BD2A-9D997FB2F5CD,1556850389,2019-05-03 10:26:29,1556850451,2019-05-03 10:27:31,1556850482,P_04f87986db36a7e7-NzE4Xy0xMzEzNTM0Ni0yMjAwLTI0MjAtMDUwMy0t,http://pb.xyz.duunion.com/conv?tid=P_04f87986db36a7e7-NzE4Xy0xMzEzNTM0Ni0yMjAwLTI0MjAtMDUwMy0t&adv_sectkn=55dea06a643eb8a2d267a735fe2683bd&adv_name=appier-api&payout=2.2,idfa_DA8B28CB-8203-446A-BD2A-9D997FB2F5CD,ko-KR
CfL0tgKrSg-l17w_4sssww,doglobal_api,718_86_N_9s__5573_2857_319,Install,2.2,1.214.211.162,DBA8B9B3-58B2-46D5-A0CF-C3D7F57E779A,1556760560,2019-05-02 09:29:20,1556760609,2019-05-02 09:30:09,1556760639,P_645c310274e83a87-NzE4Xy0xMzEzNTM0Ni0yMjAwLTI0MjAtMDUwMi0t,http://pb.xyz.duunion.com/conv?tid=P_645c310274e83a87-NzE4Xy0xMzEzNTM0Ni0yMjAwLTI0MjAtMDUwMi0t&adv_sectkn=55dea06a643eb8a2d267a735fe2683bd&adv_name=appier-api&payout=2.2,idfa_DBA8B9B3-58B2-46D5-A0CF-C3D7F57E779A,ko-KR
CfL0tgKrSg-l17w_4sssww,doglobal_api,718_86_N_12s__f33fce8d71f6,Install,2.2,119.56.162.136,2A5CFD3C-A155-4366-BC3E-038B56A8BD8A,1557019622,2019-05-05 09:27:02,1557019870,2019-05-05 09:31:10,1557019900,B_8cd7ec6654724a0c-NzE4Xy0xMzEzNTM0Ni0yMjAwLTI0MjAtMDUwNS0t,http://pb.xyz.duunion.com/conv?tid=B_8cd7ec6654724a0c-NzE4Xy0xMzEzNTM0Ni0yMjAwLTI0MjAtMDUwNS0t&adv_sectkn=55dea06a643eb8a2d267a735fe2683bd&adv_name=appier-api&payout=2.2,idfa_2A5CFD3C-A155-4366-BC3E-038B56A8BD8A,ko-KR
CfL0tgKrSg-l17w_4sssww,doglobal_api,718_86_N_9s__8156_406_12350_129988,Install,2.2,222.97.214.195,E0DCE4C0-9088-4665-BE6B-3E73E17EF04C,1556850176,2019-05-03 10:22:56,1556850251,2019-05-03 10:24:11,1556850281,P_342df202018211b4-NzE4Xy0xMzEzNTM0Ni0yMjAwLTI0MjAtMDUwMy0t,http://pb.xyz.duunion.com/conv?tid=P_342df202018211b4-NzE4Xy0xMzEzNTM0Ni0yMjAwLTI0MjAtMDUwMy0t&adv_sectkn=55dea06a643eb8a2d267a735fe2683bd&adv_name=appier-api&payout=2.2,idfa_E0DCE4C0-9088-4665-BE6B-3E73E17EF04C,ko-KR
CfL0tgKrSg-l17w_4sssww,doglobal_api,718_86_N_9s__8156_406_12350_129988,Install,2.2,121.126.37.157,E4ABAE46-C86B-4EEB-BDD3-4DA84978D289,1556850154,2019-05-03 10:22:34,1556850215,2019-05-03 10:23:35,1556850253,B_8d52bec11f14faba-NzE4Xy0xMzEzNTM0Ni0yMjAwLTI0MjAtMDUwMy0t,http://pb.xyz.duunion.com/conv?tid=B_8d52bec11f14faba-NzE4Xy0xMzEzNTM0Ni0yMjAwLTI0MjAtMDUwMy0t&adv_sectkn=55dea06a643eb8a2d267a735fe2683bd&adv_name=appier-api&payout=2.2,idfa_E4ABAE46-C86B-4EEB-BDD3-4DA84978D289,ko-KR
CfL0tgKrSg-l17w_4sssww,doglobal_api,718_86_N_12s__f33fce8d71f6,Install,2.2,115.145.147.188,11BA6DA2-80B6-487D-8642-3FE37F64B60F,1557020706,2019-05-05 09:45:06,1557021121,2019-05-05 09:52:01,1557021152,B_6678be734f859cc2-NzE4Xy0xMzEzNTM0Ni0yMjAwLTI0MjAtMDUwNS0t,http://pb.xyz.duunion.com/conv?tid=B_6678be734f859cc2-NzE4Xy0xMzEzNTM0Ni0yMjAwLTI0MjAtMDUwNS0t&adv_sectkn=55dea06a643eb8a2d267a735fe2683bd&adv_name=appier-api&payout=2.2,idfa_11BA6DA2-80B6-487D-8642-3FE37F64B60F,ko-KR
CfL0tgKrSg-l17w_4sssww,doglobal_api,718_86_N_12s__fef58d1a0c43,Install,2.2,1.231.31.253,BFB6BDA8-75C4-4605-A5B0-38CB8267CC5F,1557020454,2019-05-05 09:40:54,1557020718,2019-05-05 09:45:18,1557020749,P_8cfef77a793e6c53-NzE4Xy0xMzEzNTM0Ni0yMjAwLTI0MjAtMDUwNS0t,http://pb.xyz.duunion.com/conv?tid=P_8cfef77a793e6c53-NzE4Xy0xMzEzNTM0Ni0yMjAwLTI0MjAtMDUwNS0t&adv_sectkn=55dea06a643eb8a2d267a735fe2683bd&adv_name=appier-api&payout=2.2,idfa_BFB6BDA8-75C4-4605-A5B0-38CB8267CC5F,ko-KR
CfL0tgKrSg-l17w_4sssww,doglobal_api,718_86_N_12s__36647dff1b51,Install,2.2,113.199.13.67,D46C5FBA-7A70-4B38-A5AC-C61B384FAD08,1557020954,2019-05-05 09:49:14,1557021234,2019-05-05 09:53:54,1557021265,P_46429bb777fe800b-NzE4Xy0xMzEzNTM0Ni0yMjAwLTI0MjAtMDUwNS0t,http://pb.xyz.duunion.com/conv?tid=P_46429bb777fe800b-NzE4Xy0xMzEzNTM0Ni0yMjAwLTI0MjAtMDUwNS0t&adv_sectkn=55dea06a643eb8a2d267a735fe2683bd&adv_name=appier-api&payout=2.2,idfa_D46C5FBA-7A70-4B38-A5AC-C61B384FAD08,ko-KR
CfL0tgKrSg-l17w_4sssww,doglobal_api,718_86_N_9s__5573_2857_319,Install,2.2,121.136.181.58,3840ADF3-F735-4AF0-8D68-0BBE05D2E6D1,1556760407,2019-05-02 09:26:47,1556760439,2019-05-02 09:27:19,1556760470,B_e76f7e2c859430ba-NzE4Xy0xMzEzNTM0Ni0yMjAwLTI0MjAtMDUwMi0t,http://pb.xyz.duunion.com/conv?tid=B_e76f7e2c859430ba-NzE4Xy0xMzEzNTM0Ni0yMjAwLTI0MjAtMDUwMi0t&adv_sectkn=55dea06a643eb8a2d267a735fe2683bd&adv_name=appier-api&payout=2.2,idfa_3840ADF3-F735-4AF0-8D68-0BBE05D2E6D1,ko-KR
CfL0tgKrSg-l17w_4sssww,doglobal_api,718_86_N_12s__475924788d9a,Install,2.2,220.79.78.2,6EC5EE08-6539-4299-8084-CD05C2E92400,1556936043,2019-05-04 10:14:03,1556936208,2019-05-04 10:16:48,1556936239,P_2722de5b6b702cd3-NzE4Xy0xMzEzNTM0Ni0yMjAwLTI0MjAtMDUwNC0t,http://pb.xyz.duunion.com/conv?tid=P_2722de5b6b702cd3-NzE4Xy0xMzEzNTM0Ni0yMjAwLTI0MjAtMDUwNC0t&adv_sectkn=55dea06a643eb8a2d267a735fe2683bd&adv_name=appier-api&payout=2.2,idfa_6EC5EE08-6539-4299-8084-CD05C2E92400,ko-KR
CfL0tgKrSg-l17w_4sssww,doglobal_api,718_86_N_12s__d92aabe75092,Install,2.2,222.104.161.204,BF0E0930-72CD-4A3F-9C4F-92E547EC52E8,1557020935,2019-05-05 09:48:55,1557021182,2019-05-05 09:53:02,1557021212,P_7def46b12e533761-NzE4Xy0xMzEzNTM0Ni0yMjAwLTI0MjAtMDUwNS0t,http://pb.xyz.duunion.com/conv?tid=P_7def46b12e533761-NzE4Xy0xMzEzNTM0Ni0yMjAwLTI0MjAtMDUwNS0t&adv_sectkn=55dea06a643eb8a2d267a735fe2683bd&adv_name=appier-api&payout=2.2,idfa_BF0E0930-72CD-4A3F-9C4F-92E547EC52E8,ko-KR
CfL0tgKrSg-l17w_4sssww,doglobal_api,718_86_N_9s__8156_406_12350_129988,Install,2.2,106.255.253.178,C095D2EA-6BC0-4EA9-B2DD-BAFD13B88213,1556850581,2019-05-03 10:29:41,1556850650,2019-05-03 10:30:50,1556850682,B_bbf687b1ac4613e0-NzE4Xy0xMzEzNTM0Ni0yMjAwLTI0MjAtMDUwMy0t,http://pb.xyz.duunion.com/conv?tid=B_bbf687b1ac4613e0-NzE4Xy0xMzEzNTM0Ni0yMjAwLTI0MjAtMDUwMy0t&adv_sectkn=55dea06a643eb8a2d267a735fe2683bd&adv_name=appier-api&payout=2.2,idfa_C095D2EA-6BC0-4EA9-B2DD-BAFD13B88213,ko-KR
CfL0tgKrSg-l17w_4sssww,doglobal_api,718_86_N_9s__5610_13398_a334b45fc326_30,Install,2.2,125.142.59.247,43EDF456-B74A-4E4E-B88C-C286EBE6EE96,1556943077,2019-05-04 12:11:17,1556943191,2019-05-04 12:13:11,1556943222,P_973e125e54c6e08e-NzE4Xy0xMzEzNTM0Ni0yMjAwLTI0MjAtMDUwNC0t,http://pb.xyz.duunion.com/conv?tid=P_973e125e54c6e08e-NzE4Xy0xMzEzNTM0Ni0yMjAwLTI0MjAtMDUwNC0t&adv_sectkn=55dea06a643eb8a2d267a735fe2683bd&adv_name=appier-api&payout=2.2,idfa_43EDF456-B74A-4E4E-B88C-C286EBE6EE96,ko-KR
CfL0tgKrSg-l17w_4sssww,doglobal_api,718_86_N_12s__6460b460fec3,Install,2.2,121.140.64.103,2B57B1CE-51D6-46BA-82EA-9B537279829F,1556936086,2019-05-04 10:14:46,1556936205,2019-05-04 10:16:45,1556936237,B_dc871943c251c0f5-NzE4Xy0xMzEzNTM0Ni0yMjAwLTI0MjAtMDUwNC0t,http://pb.xyz.duunion.com/conv?tid=B_dc871943c251c0f5-NzE4Xy0xMzEzNTM0Ni0yMjAwLTI0MjAtMDUwNC0t&adv_sectkn=55dea06a643eb8a2d267a735fe2683bd&adv_name=appier-api&payout=2.2,idfa_2B57B1CE-51D6-46BA-82EA-9B537279829F,ko-KR
CfL0tgKrSg-l17w_4sssww,doglobal_api,718_86_N_9s__8156_406_13398_d586c0540da3,Install,2.2,112.144.195.3,8DEAFA77-D78D-42D9-AAAF-A24518B8F1A8,1556944051,2019-05-04 12:27:31,1556944162,2019-05-04 12:29:22,1556944195,B_2a85e8aa2c8deb24-NzE4Xy0xMzEzNTM0Ni0yMjAwLTI0MjAtMDUwNC0t,http://pb.xyz.duunion.com/conv?tid=B_2a85e8aa2c8deb24-NzE4Xy0xMzEzNTM0Ni0yMjAwLTI0MjAtMDUwNC0t&adv_sectkn=55dea06a643eb8a2d267a735fe2683bd&adv_name=appier-api&payout=2.2,idfa_8DEAFA77-D78D-42D9-AAAF-A24518B8F1A8,ko-KR
CfL0tgKrSg-l17w_4sssww,doglobal_api,718_86_N_9s__8156_406_12350_129988,Install,2.2,61.73.222.69,5400DF78-1371-4A8D-AFC8-46D91A8AC5DD,1556850198,2019-05-03 10:23:18,1556850259,2019-05-03 10:24:19,1556850290,P_7229150ae896012a-NzE4Xy0xMzEzNTM0Ni0yMjAwLTI0MjAtMDUwMy0t,http://pb.xyz.duunion.com/conv?tid=P_7229150ae896012a-NzE4Xy0xMzEzNTM0Ni0yMjAwLTI0MjAtMDUwMy0t&adv_sectkn=55dea06a643eb8a2d267a735fe2683bd&adv_name=appier-api&payout=2.2,idfa_5400DF78-1371-4A8D-AFC8-46D91A8AC5DD,ko-KR
CfL0tgKrSg-l17w_4sssww,doglobal_api,718_86_N_12s__475924788d9a,Install,2.2,61.106.83.149,5B3E0CE6-0216-4B24-8B79-D211D17AC61D,1557020054,2019-05-05 09:34:14,1557020286,2019-05-05 09:38:06,1557020317,P_629add2a122d5d84-NzE4Xy0xMzEzNTM0Ni0yMjAwLTI0MjAtMDUwNS0t,http://pb.xyz.duunion.com/conv?tid=P_629add2a122d5d84-NzE4Xy0xMzEzNTM0Ni0yMjAwLTI0MjAtMDUwNS0t&adv_sectkn=55dea06a643eb8a2d267a735fe2683bd&adv_name=appier-api&payout=2.2,idfa_5B3E0CE6-0216-4B24-8B79-D211D17AC61D,ko-KR
CfL0tgKrSg-l17w_4sssww,doglobal_api,718_86_N_12s__d92aabe75092,Install,2.2,220.76.91.23,D8BF9EC6-596C-44F2-8FCD-587E023BA608,1557020722,2019-05-05 09:45:22,1557020870,2019-05-05 09:47:50,1557020900,B_8958b3a2b0e3256f-NzE4Xy0xMzEzNTM0Ni0yMjAwLTI0MjAtMDUwNS0t,http://pb.xyz.duunion.com/conv?tid=B_8958b3a2b0e3256f-NzE4Xy0xMzEzNTM0Ni0yMjAwLTI0MjAtMDUwNS0t&adv_sectkn=55dea06a643eb8a2d267a735fe2683bd&adv_name=appier-api&payout=2.2,idfa_D8BF9EC6-596C-44F2-8FCD-587E023BA608,ko-KR
CfL0tgKrSg-l17w_4sssww,doglobal_api,718_86_N_12s__89519870b0e6,Install,2.2,175.124.136.126,C39B44F3-8795-452E-B11F-38D868157995,1557020756,2019-05-05 09:45:56,1557021137,2019-05-05 09:52:17,1557021175,P_d743067ca4d85bba-NzE4Xy0xMzEzNTM0Ni0yMjAwLTI0MjAtMDUwNS0t,http://pb.xyz.duunion.com/conv?tid=P_d743067ca4d85bba-NzE4Xy0xMzEzNTM0Ni0yMjAwLTI0MjAtMDUwNS0t&adv_sectkn=55dea06a643eb8a2d267a735fe2683bd&adv_name=appier-api&payout=2.2,idfa_C39B44F3-8795-452E-B11F-38D868157995,ko-KR
CfL0tgKrSg-l17w_4sssww,doglobal_api,718_86_N_9s__5573_2857_319,Install,2.2,211.56.229.155,A382CDBC-3CB5-4043-BB14-E3A197BFB648,1556761527,2019-05-02 09:45:27,1556761561,2019-05-02 09:46:01,1556761592,P_8160dd97ca6e17eb-NzE4Xy0xMzEzNTM0Ni0yMjAwLTI0MjAtMDUwMi0t,http://pb.xyz.duunion.com/conv?tid=P_8160dd97ca6e17eb-NzE4Xy0xMzEzNTM0Ni0yMjAwLTI0MjAtMDUwMi0t&adv_sectkn=55dea06a643eb8a2d267a735fe2683bd&adv_name=appier-api&payout=2.2,idfa_A382CDBC-3CB5-4043-BB14-E3A197BFB648,ko-KR
CfL0tgKrSg-l17w_4sssww,doglobal_api,718_86_N_12s__6460b460fec3,Install,2.2,14.42.243.62,9052B7D5-32C9-47F4-B6B7-51618B71D86B,1556937672,2019-05-04 10:41:12,1556937888,2019-05-04 10:44:48,1556937919,B_f872c92b04b3f9cf-NzE4Xy0xMzEzNTM0Ni0yMjAwLTI0MjAtMDUwNC0t,http://pb.xyz.duunion.com/conv?tid=B_f872c92b04b3f9cf-NzE4Xy0xMzEzNTM0Ni0yMjAwLTI0MjAtMDUwNC0t&adv_sectkn=55dea06a643eb8a2d267a735fe2683bd&adv_name=appier-api&payout=2.2,idfa_9052B7D5-32C9-47F4-B6B7-51618B71D86B,ko-KR
CfL0tgKrSg-l17w_4sssww,doglobal_api,718_86_N_12s__dba1eea78829,Install,2.2,1.239.246.233,F5E744E2-6BC7-4E56-B88A-151CDB1BD7E6,1557020455,2019-05-05 09:40:55,1557020728,2019-05-05 09:45:28,1557020758,P_d11e522fc6e78db5-NzE4Xy0xMzEzNTM0Ni0yMjAwLTI0MjAtMDUwNS0t,http://pb.xyz.duunion.com/conv?tid=P_d11e522fc6e78db5-NzE4Xy0xMzEzNTM0Ni0yMjAwLTI0MjAtMDUwNS0t&adv_sectkn=55dea06a643eb8a2d267a735fe2683bd&adv_name=appier-api&payout=2.2,idfa_F5E744E2-6BC7-4E56-B88A-151CDB1BD7E6,ko-KR
CfL0tgKrSg-l17w_4sssww,doglobal_api,718_86_N_9s__8156_406_12350_129988,Install,2.2,110.10.130.19,D591AC67-22DB-4447-82D9-E81C20392F6B,1556850433,2019-05-03 10:27:13,1556850491,2019-05-03 10:28:11,1556850795,P_e289de6c9eff7108-NzE4Xy0xMzEzNTM0Ni0yMjAwLTI0MjAtMDUwMy0t,http://pb.xyz.duunion.com/conv?tid=P_e289de6c9eff7108-NzE4Xy0xMzEzNTM0Ni0yMjAwLTI0MjAtMDUwMy0t&adv_sectkn=55dea06a643eb8a2d267a735fe2683bd&adv_name=appier-api&payout=2.2,idfa_D591AC67-22DB-4447-82D9-E81C20392F6B,ko-KR
CfL0tgKrSg-l17w_4sssww,doglobal_api,718_86_N_12s__89519870b0e6,Install,2.2,183.102.102.176,80A7BFC4-1981-4499-B566-32E0864AA8E8,1557020978,2019-05-05 09:49:38,1557021121,2019-05-05 09:52:01,1557021183,P_1eaa47370f68d168-NzE4Xy0xMzEzNTM0Ni0yMjAwLTI0MjAtMDUwNS0t,http://pb.xyz.duunion.com/conv?tid=P_1eaa47370f68d168-NzE4Xy0xMzEzNTM0Ni0yMjAwLTI0MjAtMDUwNS0t&adv_sectkn=55dea06a643eb8a2d267a735fe2683bd&adv_name=appier-api&payout=2.2,idfa_80A7BFC4-1981-4499-B566-32E0864AA8E8,ko-KR
CfL0tgKrSg-l17w_4sssww,doglobal_api,718_86_N_12s__440f5b5cf0dc,Install,2.2,125.176.190.144,EEB04776-0E82-4E3C-A110-DD8BCDBEE365,1556765340,2019-05-02 10:49:00,1556765477,2019-05-02 10:51:17,1556765507,P_cd0a789e7cb3ffc6-NzE4Xy0xMzEzNTM0Ni0yMjAwLTI0MjAtMDUwMi0t,http://pb.xyz.duunion.com/conv?tid=P_cd0a789e7cb3ffc6-NzE4Xy0xMzEzNTM0Ni0yMjAwLTI0MjAtMDUwMi0t&adv_sectkn=55dea06a643eb8a2d267a735fe2683bd&adv_name=appier-api&payout=2.2,idfa_EEB04776-0E82-4E3C-A110-DD8BCDBEE365,ko-KR
CfL0tgKrSg-l17w_4sssww,doglobal_api,718_86_N_12s__d92aabe75092,Install,2.2,1.234.207.47,F334D973-78AD-4113-9F81-F76B49790945,1557020131,2019-05-05 09:35:31,1557020280,2019-05-05 09:38:00,1557020310,P_4e0ed35e9ffc5270-NzE4Xy0xMzEzNTM0Ni0yMjAwLTI0MjAtMDUwNS0t,http://pb.xyz.duunion.com/conv?tid=P_4e0ed35e9ffc5270-NzE4Xy0xMzEzNTM0Ni0yMjAwLTI0MjAtMDUwNS0t&adv_sectkn=55dea06a643eb8a2d267a735fe2683bd&adv_name=appier-api&payout=2.2,idfa_F334D973-78AD-4113-9F81-F76B49790945,ko-KR
CfL0tgKrSg-l17w_4sssww,doglobal_api,718_86_N_9s__8156_406_12350_129988,Install,2.2,211.182.112.240,42F61944-C44E-49EE-9B5B-EA105B4F7803,1556850181,2019-05-03 10:23:01,1556850257,2019-05-03 10:24:17,1556850373,B_c6e39ee8c8462b5a-NzE4Xy0xMzEzNTM0Ni0yMjAwLTI0MjAtMDUwMy0t,http://pb.xyz.duunion.com/conv?tid=B_c6e39ee8c8462b5a-NzE4Xy0xMzEzNTM0Ni0yMjAwLTI0MjAtMDUwMy0t&adv_sectkn=55dea06a643eb8a2d267a735fe2683bd&adv_name=appier-api&payout=2.2,idfa_42F61944-C44E-49EE-9B5B-EA105B4F7803,ko-KR
CfL0tgKrSg-l17w_4sssww,doglobal_api,718_86_N_12s__bb1c41b92e33,Install,2.2,59.16.96.232,E827B26E-C6CC-4D83-BD05-C2C300686F55,1557020447,2019-05-05 09:40:47,1557020823,2019-05-05 09:47:03,1557020853,B_327dd0ed7a857569-NzE4Xy0xMzEzNTM0Ni0yMjAwLTI0MjAtMDUwNS0t,http://pb.xyz.duunion.com/conv?tid=B_327dd0ed7a857569-NzE4Xy0xMzEzNTM0Ni0yMjAwLTI0MjAtMDUwNS0t&adv_sectkn=55dea06a643eb8a2d267a735fe2683bd&adv_name=appier-api&payout=2.2,idfa_E827B26E-C6CC-4D83-BD05-C2C300686F55,ko-KR
CfL0tgKrSg-l17w_4sssww,doglobal_api,718_86_N_12s__042e81c6947e,Install,2.2,124.194.61.24,C53DACBA-3CF4-4E9D-8743-9960B0867BC9,1557020742,2019-05-05 09:45:42,1557020900,2019-05-05 09:48:20,1557020931,P_6218162fdd87be84-NzE4Xy0xMzEzNTM0Ni0yMjAwLTI0MjAtMDUwNS0t,http://pb.xyz.duunion.com/conv?tid=P_6218162fdd87be84-NzE4Xy0xMzEzNTM0Ni0yMjAwLTI0MjAtMDUwNS0t&adv_sectkn=55dea06a643eb8a2d267a735fe2683bd&adv_name=appier-api&payout=2.2,idfa_C53DACBA-3CF4-4E9D-8743-9960B0867BC9,ko-KR
CfL0tgKrSg-l17w_4sssww,doglobal_api,718_86_N_9s__5573_2857_319,Install,2.2,121.170.232.167,9CDA12BC-9C00-4895-B9CE-A77C0C741025,1556760972,2019-05-02 09:36:12,1556761003,2019-05-02 09:36:43,1556761034,P_737c6a728377622a-NzE4Xy0xMzEzNTM0Ni0yMjAwLTI0MjAtMDUwMi0t,http://pb.xyz.duunion.com/conv?tid=P_737c6a728377622a-NzE4Xy0xMzEzNTM0Ni0yMjAwLTI0MjAtMDUwMi0t&adv_sectkn=55dea06a643eb8a2d267a735fe2683bd&adv_name=appier-api&payout=2.2,idfa_9CDA12BC-9C00-4895-B9CE-A77C0C741025,ko-KR
CfL0tgKrSg-l17w_4sssww,doglobal_api,718_86_N_12s__d92aabe75092,Install,2.2,61.79.122.182,2EB0702F-19B6-4ADC-A524-BEF0C37C1530,1557020450,2019-05-05 09:40:50,1557020799,2019-05-05 09:46:39,1557020830,P_7fcf2174b854f4cd-NzE4Xy0xMzEzNTM0Ni0yMjAwLTI0MjAtMDUwNS0t,http://pb.xyz.duunion.com/conv?tid=P_7fcf2174b854f4cd-NzE4Xy0xMzEzNTM0Ni0yMjAwLTI0MjAtMDUwNS0t&adv_sectkn=55dea06a643eb8a2d267a735fe2683bd&adv_name=appier-api&payout=2.2,idfa_2EB0702F-19B6-4ADC-A524-BEF0C37C1530,ko-KR
CfL0tgKrSg-l17w_4sssww,doglobal_api,718_86_N_9s__8156_406_12350_129988,Install,2.2,220.76.203.140,0BD8B67A-76E1-4B44-9673-8032FA1E9EAB,1556850409,2019-05-03 10:26:49,1556850474,2019-05-03 10:27:54,1556850511,B_5358a78c4733a797-NzE4Xy0xMzEzNTM0Ni0yMjAwLTI0MjAtMDUwMy0t,http://pb.xyz.duunion.com/conv?tid=B_5358a78c4733a797-NzE4Xy0xMzEzNTM0Ni0yMjAwLTI0MjAtMDUwMy0t&adv_sectkn=55dea06a643eb8a2d267a735fe2683bd&adv_name=appier-api&payout=2.2,idfa_0BD8B67A-76E1-4B44-9673-8032FA1E9EAB,ko-KR
CfL0tgKrSg-l17w_4sssww,doglobal_api,718_86_N_9s__5573_3130_,Install,2.2,218.38.136.99,85727686-7CEB-478D-891A-A8BD90BDF15C,1556932718,2019-05-04 09:18:38,1556932786,2019-05-04 09:19:46,1556932816,B_8932fb6082af6643-NzE4Xy0xMzEzNTM0Ni0yMjAwLTI0MjAtMDUwNC0t,http://pb.xyz.duunion.com/conv?tid=B_8932fb6082af6643-NzE4Xy0xMzEzNTM0Ni0yMjAwLTI0MjAtMDUwNC0t&adv_sectkn=55dea06a643eb8a2d267a735fe2683bd&adv_name=appier-api&payout=2.2,idfa_85727686-7CEB-478D-891A-A8BD90BDF15C,ko-KR
CfL0tgKrSg-l17w_4sssww,doglobal_api,718_86_N_12s__440f5b5cf0dc,Install,2.2,175.120.153.63,369A7EE7-A983-4E7A-9019-3BDC9F73AD75,1557020054,2019-05-05 09:34:14,1557020280,2019-05-05 09:38:00,1557020311,B_4f9c99e861acc253-NzE4Xy0xMzEzNTM0Ni0yMjAwLTI0MjAtMDUwNS0t,http://pb.xyz.duunion.com/conv?tid=B_4f9c99e861acc253-NzE4Xy0xMzEzNTM0Ni0yMjAwLTI0MjAtMDUwNS0t&adv_sectkn=55dea06a643eb8a2d267a735fe2683bd&adv_name=appier-api&payout=2.2,idfa_369A7EE7-A983-4E7A-9019-3BDC9F73AD75,ko-KR
CfL0tgKrSg-l17w_4sssww,doglobal_api,718_86_N_9s__5573_2857_319,Install,2.2,14.51.77.244,A8C9E479-A7E1-4C4A-948A-11D5D5737E08,1556760183,2019-05-02 09:23:03,1556760262,2019-05-02 09:24:22,1556760292,B_e405170cbaa2f64a-NzE4Xy0xMzEzNTM0Ni0yMjAwLTI0MjAtMDUwMi0t,http://pb.xyz.duunion.com/conv?tid=B_e405170cbaa2f64a-NzE4Xy0xMzEzNTM0Ni0yMjAwLTI0MjAtMDUwMi0t&adv_sectkn=55dea06a643eb8a2d267a735fe2683bd&adv_name=appier-api&payout=2.2,idfa_A8C9E479-A7E1-4C4A-948A-11D5D5737E08,ko-KR
CfL0tgKrSg-l17w_4sssww,doglobal_api,718_86_N_12s__fef58d1a0c43,Install,2.2,61.36.252.74,B08E7CAF-8C41-456E-A9A8-940451EE2FBD,1557020089,2019-05-05 09:34:49,1557020363,2019-05-05 09:39:23,1557020393,B_ab6d6674c6cf8ecd-NzE4Xy0xMzEzNTM0Ni0yMjAwLTI0MjAtMDUwNS0t,http://pb.xyz.duunion.com/conv?tid=B_ab6d6674c6cf8ecd-NzE4Xy0xMzEzNTM0Ni0yMjAwLTI0MjAtMDUwNS0t&adv_sectkn=55dea06a643eb8a2d267a735fe2683bd&adv_name=appier-api&payout=2.2,idfa_B08E7CAF-8C41-456E-A9A8-940451EE2FBD,ko-KR
CfL0tgKrSg-l17w_4sssww,doglobal_api,718_86_N_12s__dba1eea78829,Install,2.2,123.199.42.137,2D13B67A-37F1-41BD-B603-F411B11C6638,1557020692,2019-05-05 09:44:52,1557021048,2019-05-05 09:50:48,1557021078,B_25e410d8ad9b469c-NzE4Xy0xMzEzNTM0Ni0yMjAwLTI0MjAtMDUwNS0t,http://pb.xyz.duunion.com/conv?tid=B_25e410d8ad9b469c-NzE4Xy0xMzEzNTM0Ni0yMjAwLTI0MjAtMDUwNS0t&adv_sectkn=55dea06a643eb8a2d267a735fe2683bd&adv_name=appier-api&payout=2.2,idfa_2D13B67A-37F1-41BD-B603-F411B11C6638,ko-KR
