cid,partner_id,channel_id,action_id,cpi,ip,idfa,click time,click datetime,install time,install datetime,postback time,click id,postback url,unique user id
vvwQJJJcT_iRte5-ib1wDA,doglobal_api,936_8_1536_1073_10288,Install,3.3,106.180.51.196,6C9C768D-312A-43D2-9B53-10B8F3ED74EB,1556927777,2019-05-04 07:56:17,1556928570,2019-05-04 08:09:30,1556928570,B_280cd39d1b016ff5-OTM2Xy0xMzEzMzg1MS0zMzAwLTQyOTAtMDUwNC0t,http://pb.xyz.duunion.com/conv?tid=B_280cd39d1b016ff5-OTM2Xy0xMzEzMzg1MS0zMzAwLTQyOTAtMDUwNC0t&adv_sectkn=55dea06a643eb8a2d267a735fe2683bd&adv_name=appier-api&payout=3.3,idfa_6C9C768D-312A-43D2-9B53-10B8F3ED74EB,ja
vvwQJJJcT_iRte5-ib1wDA,doglobal_api,936_8_1536_1073_10288,Install,3.3,106.73.34.224,7BB8DB80-6CA7-4C05-A3F9-1EC494C93B47,1556826525,2019-05-03 03:48:45,1556975257,2019-05-04 21:07:37,1556975257,P_8b663b3314f5bfad-OTM2Xy0xMzEzMzg1MS0zMzAwLTQyOTAtMDUwMy0t,http://pb.xyz.duunion.com/conv?tid=P_8b663b3314f5bfad-OTM2Xy0xMzEzMzg1MS0zMzAwLTQyOTAtMDUwMy0t&adv_sectkn=55dea06a643eb8a2d267a735fe2683bd&adv_name=appier-api&payout=3.3,idfa_7BB8DB80-6CA7-4C05-A3F9-1EC494C93B47,ja
vvwQJJJcT_iRte5-ib1wDA,doglobal_api,936_3_16_1095_47,Install,3.3,27.95.212.231,D6781BAB-FA59-A5EC-44C2-D1CB868458FC,1556799391,2019-05-02 20:16:31,1556799414,2019-05-02 20:16:54,1556799414,P_5ccefdd746053ca8-OTM2Xy0xMzEzMzg1MS0zMzAwLTQyOTAtMDUwMi0tM18xNl8xMDk1XzQ3,http://pb.xyz.duunion.com/conv?tid=P_5ccefdd746053ca8-OTM2Xy0xMzEzMzg1MS0zMzAwLTQyOTAtMDUwMi0tM18xNl8xMDk1XzQ3&adv_sectkn=55dea06a643eb8a2d267a735fe2683bd&adv_name=appier-api&payout=3.3,idfa_D6781BAB-FA59-A5EC-44C2-D1CB868458FC,ja
vvwQJJJcT_iRte5-ib1wDA,doglobal_api,936_8_1062_10288,Install,3.3,106.73.71.160,FDE0601D-E4B3-4E3F-9CCC-24F64D36785A,1556830758,2019-05-03 04:59:18,1556860913,2019-05-03 13:21:53,1556860913,B_bfa6b76d4e63e411-OTM2Xy0xMzEzMzg1MS0zMzAwLTQyOTAtMDUwMy0tOF8xMDYyXzEwMjg4,http://pb.xyz.duunion.com/conv?tid=B_bfa6b76d4e63e411-OTM2Xy0xMzEzMzg1MS0zMzAwLTQyOTAtMDUwMy0tOF8xMDYyXzEwMjg4&adv_sectkn=55dea06a643eb8a2d267a735fe2683bd&adv_name=appier-api&payout=3.3,idfa_FDE0601D-E4B3-4E3F-9CCC-24F64D36785A,ja
vvwQJJJcT_iRte5-ib1wDA,doglobal_api,936_8_1062_10288,Install,3.3,126.33.117.11,BED9A16F-59AC-45F0-BBE6-E48173558B86,1556828947,2019-05-03 04:29:07,1556848002,2019-05-03 09:46:42,1556848002,P_72263719ec7beffa-OTM2Xy0xMzEzMzg1MS0zMzAwLTQyOTAtMDUwMy0tOF8xMDYyXzEwMjg4,http://pb.xyz.duunion.com/conv?tid=P_72263719ec7beffa-OTM2Xy0xMzEzMzg1MS0zMzAwLTQyOTAtMDUwMy0tOF8xMDYyXzEwMjg4&adv_sectkn=55dea06a643eb8a2d267a735fe2683bd&adv_name=appier-api&payout=3.3,idfa_BED9A16F-59AC-45F0-BBE6-E48173558B86,ja
vvwQJJJcT_iRte5-ib1wDA,doglobal_api,936_8_1062_10288,Install,3.3,153.210.95.56,2382282F-83A0-4298-A0FC-B396A74CDD29,1556828864,2019-05-03 04:27:44,1556860307,2019-05-03 13:11:47,1556860307,B_206ecf7d3099581a-OTM2Xy0xMzEzMzg1MS0zMzAwLTQyOTAtMDUwMy0tOF8xMDYyXzEwMjg4,http://pb.xyz.duunion.com/conv?tid=B_206ecf7d3099581a-OTM2Xy0xMzEzMzg1MS0zMzAwLTQyOTAtMDUwMy0tOF8xMDYyXzEwMjg4&adv_sectkn=55dea06a643eb8a2d267a735fe2683bd&adv_name=appier-api&payout=3.3,idfa_2382282F-83A0-4298-A0FC-B396A74CDD29,ja
vvwQJJJcT_iRte5-ib1wDA,doglobal_api,936_8_1536_1073_10288,Install,3.3,49.104.13.243,1BFE0830-B144-4096-BB6A-E8C0B51A73C3,1556927258,2019-05-04 07:47:38,1556988476,2019-05-05 00:47:56,1556988476,P_5874328b0a2f5a05-OTM2Xy0xMzEzMzg1MS0zMzAwLTQyOTAtMDUwNC0t,http://pb.xyz.duunion.com/conv?tid=P_5874328b0a2f5a05-OTM2Xy0xMzEzMzg1MS0zMzAwLTQyOTAtMDUwNC0t&adv_sectkn=55dea06a643eb8a2d267a735fe2683bd&adv_name=appier-api&payout=3.3,idfa_1BFE0830-B144-4096-BB6A-E8C0B51A73C3,ja
vvwQJJJcT_iRte5-ib1wDA,doglobal_api,936_8_1536_1073_10288,Install,3.3,126.33.143.81,E2F5ADCF-9ED2-497A-A508-6A638158B958,1556927284,2019-05-04 07:48:04,1557015204,2019-05-05 08:13:24,1557015204,P_d31ced16d5159f2a-OTM2Xy0xMzEzMzg1MS0zMzAwLTQyOTAtMDUwNC0t,http://pb.xyz.duunion.com/conv?tid=P_d31ced16d5159f2a-OTM2Xy0xMzEzMzg1MS0zMzAwLTQyOTAtMDUwNC0t&adv_sectkn=55dea06a643eb8a2d267a735fe2683bd&adv_name=appier-api&payout=3.3,idfa_E2F5ADCF-9ED2-497A-A508-6A638158B958,ja
vvwQJJJcT_iRte5-ib1wDA,doglobal_api,936_8_1062_10288,Install,3.3,111.239.187.33,857E2510-D55A-4D37-B0D3-3873CA6B7ED2,1556829240,2019-05-03 04:34:00,1556926852,2019-05-04 07:40:52,1556926852,P_84d2ad4b18c023d7-OTM2Xy0xMzEzMzg1MS0zMzAwLTQyOTAtMDUwMy0tOF8xMDYyXzEwMjg4,http://pb.xyz.duunion.com/conv?tid=P_84d2ad4b18c023d7-OTM2Xy0xMzEzMzg1MS0zMzAwLTQyOTAtMDUwMy0tOF8xMDYyXzEwMjg4&adv_sectkn=55dea06a643eb8a2d267a735fe2683bd&adv_name=appier-api&payout=3.3,idfa_857E2510-D55A-4D37-B0D3-3873CA6B7ED2,ja
vvwQJJJcT_iRte5-ib1wDA,doglobal_api,936_8_1536_1073_10288,Install,3.3,106.180.51.196,6C9C768D-312A-43D2-9B53-10B8F3ED74EB,1556929215,2019-05-04 08:20:15,1556930031,2019-05-04 08:33:51,1556930031,B_aca37d4466313976-OTM2Xy0xMzEzMzg1MS0zMzAwLTQyOTAtMDUwNC0t,http://pb.xyz.duunion.com/conv?tid=B_aca37d4466313976-OTM2Xy0xMzEzMzg1MS0zMzAwLTQyOTAtMDUwNC0t&adv_sectkn=55dea06a643eb8a2d267a735fe2683bd&adv_name=appier-api&payout=3.3,idfa_6C9C768D-312A-43D2-9B53-10B8F3ED74EB,ja
vvwQJJJcT_iRte5-ib1wDA,doglobal_api,936_3_16_1095_47,Install,3.3,103.5.140.149,6A8690C6-4A9F-42FE-865D-5432CF339252,1556798807,2019-05-02 20:06:47,1556941110,2019-05-04 11:38:30,1556941110,P_bd3953ec3ac45163-OTM2Xy0xMzEzMzg1MS0zMzAwLTQyOTAtMDUwMi0tM18xNl8xMDk1XzQ3,http://pb.xyz.duunion.com/conv?tid=P_bd3953ec3ac45163-OTM2Xy0xMzEzMzg1MS0zMzAwLTQyOTAtMDUwMi0tM18xNl8xMDk1XzQ3&adv_sectkn=55dea06a643eb8a2d267a735fe2683bd&adv_name=appier-api&payout=3.3,idfa_6A8690C6-4A9F-42FE-865D-5432CF339252,ja
vvwQJJJcT_iRte5-ib1wDA,doglobal_api,936_8_1062_10288,Install,3.3,183.74.206.181,396C0D9F-74C9-4471-BA61-FF14DCBBCF5C,1556830524,2019-05-03 04:55:24,1556853880,2019-05-03 11:24:40,1556853880,P_6ed87828cf6a624d-OTM2Xy0xMzEzMzg1MS0zMzAwLTQyOTAtMDUwMy0tOF8xMDYyXzEwMjg4,http://pb.xyz.duunion.com/conv?tid=P_6ed87828cf6a624d-OTM2Xy0xMzEzMzg1MS0zMzAwLTQyOTAtMDUwMy0tOF8xMDYyXzEwMjg4&adv_sectkn=55dea06a643eb8a2d267a735fe2683bd&adv_name=appier-api&payout=3.3,idfa_396C0D9F-74C9-4471-BA61-FF14DCBBCF5C,ja
