cid,partner_id,channel_id,action_id,cpi,ip,idfa,click time,click datetime,install time,install datetime,postback time,click id,postback url,unique user id
RS9iEolHTI2e6lR_JSd80w,doglobal_api,499_p1480,Install,1.2,121.144.31.27,b6f9ec99-fd60-4d87-b8ed-95568c5e85af,1556677912,2019-05-01 10:31:52,1556694670,2019-05-01 15:11:10,1556694701,B_cfd947a2c5e356dc-NDk5Xy0xMjc4Mjk0Ny0xMjAwLTEzMjAtMDUwMS0tcDE0ODA,http://pb.xyz.duunion.com/conv?tid=B_cfd947a2c5e356dc-NDk5Xy0xMjc4Mjk0Ny0xMjAwLTEzMjAtMDUwMS0tcDE0ODA&adv_sectkn=55dea06a643eb8a2d267a735fe2683bd&adv_name=appier-api&payout=1.2,idfa_b6f9ec99-fd60-4d87-b8ed-95568c5e85af,%ED%95%9C%EA%B5%AD%EC%96%B4
RS9iEolHTI2e6lR_JSd80w,doglobal_api,499_p1480,Install,1.2,110.70.58.114,9c9aceda-1db0-4462-ba25-ce44ab05c21e,1556682347,2019-05-01 11:45:47,1556690719,2019-05-01 14:05:19,1556690750,P_4730daea73afadb3-NDk5Xy0xMjc4Mjk0Ny0xMjAwLTEzMjAtMDUwMS0tcDE0ODA,http://pb.xyz.duunion.com/conv?tid=P_4730daea73afadb3-NDk5Xy0xMjc4Mjk0Ny0xMjAwLTEzMjAtMDUwMS0tcDE0ODA&adv_sectkn=55dea06a643eb8a2d267a735fe2683bd&adv_name=appier-api&payout=1.2,idfa_9c9aceda-1db0-4462-ba25-ce44ab05c21e,%ED%95%9C%EA%B5%AD%EC%96%B4
RS9iEolHTI2e6lR_JSd80w,doglobal_api,499_p1480,Install,1.2,211.36.139.41,5b644364-068f-4a53-9808-b8b7bfd39600,1556682365,2019-05-01 11:46:05,1556690671,2019-05-01 14:04:31,1556690702,B_2f9b9f2433d28343-NDk5Xy0xMjc4Mjk0Ny0xMjAwLTEzMjAtMDUwMS0tcDE0ODA,http://pb.xyz.duunion.com/conv?tid=B_2f9b9f2433d28343-NDk5Xy0xMjc4Mjk0Ny0xMjAwLTEzMjAtMDUwMS0tcDE0ODA&adv_sectkn=55dea06a643eb8a2d267a735fe2683bd&adv_name=appier-api&payout=1.2,idfa_5b644364-068f-4a53-9808-b8b7bfd39600,%ED%95%9C%EA%B5%AD%EC%96%B4
RS9iEolHTI2e6lR_JSd80w,doglobal_api,499_p1480,Install,1.2,1.211.42.212,0d2d268f-3f8f-4d25-b4e2-d458373149d7,1556678840,2019-05-01 10:47:20,1556690669,2019-05-01 14:04:29,1556690700,P_cebe634211a5382c-NDk5Xy0xMjc4Mjk0Ny0xMjAwLTEzMjAtMDUwMS0tcDE0ODA,http://pb.xyz.duunion.com/conv?tid=P_cebe634211a5382c-NDk5Xy0xMjc4Mjk0Ny0xMjAwLTEzMjAtMDUwMS0tcDE0ODA&adv_sectkn=55dea06a643eb8a2d267a735fe2683bd&adv_name=appier-api&payout=1.2,idfa_0d2d268f-3f8f-4d25-b4e2-d458373149d7,%ED%95%9C%EA%B5%AD%EC%96%B4
RS9iEolHTI2e6lR_JSd80w,doglobal_api,499_p1480,Install,1.2,39.7.46.83,9763feb4-89ce-4a27-88a4-d5eb1a7c6244,1556685013,2019-05-01 12:30:13,1556694680,2019-05-01 15:11:20,1556694711,P_23e0c77739cec62e-NDk5Xy0xMjc4Mjk0Ny0xMjAwLTEzMjAtMDUwMS0tcDE0ODA,http://pb.xyz.duunion.com/conv?tid=P_23e0c77739cec62e-NDk5Xy0xMjc4Mjk0Ny0xMjAwLTEzMjAtMDUwMS0tcDE0ODA&adv_sectkn=55dea06a643eb8a2d267a735fe2683bd&adv_name=appier-api&payout=1.2,idfa_9763feb4-89ce-4a27-88a4-d5eb1a7c6244,%ED%95%9C%EA%B5%AD%EC%96%B4
RS9iEolHTI2e6lR_JSd80w,doglobal_api,499_p1480,Install,1.2,59.17.215.193,d3fe7c7c-fc22-4654-a1fc-bbe31b9206f2,1556675168,2019-05-01 09:46:08,1556694674,2019-05-01 15:11:14,1556694705,P_c4de1059feb00c6c-NDk5Xy0xMjc4Mjk0Ny0xMjAwLTEzMjAtMDUwMS0tcDE0ODA,http://pb.xyz.duunion.com/conv?tid=P_c4de1059feb00c6c-NDk5Xy0xMjc4Mjk0Ny0xMjAwLTEzMjAtMDUwMS0tcDE0ODA&adv_sectkn=55dea06a643eb8a2d267a735fe2683bd&adv_name=appier-api&payout=1.2,idfa_d3fe7c7c-fc22-4654-a1fc-bbe31b9206f2,%ED%95%9C%EA%B5%AD%EC%96%B4
RS9iEolHTI2e6lR_JSd80w,doglobal_api,499_p1480,Install,1.2,175.223.11.150,abd7932f-fa19-42c4-a6ba-903ef9f1ad84,1556676151,2019-05-01 10:02:31,1556689533,2019-05-01 13:45:33,1556689564,P_778e69a5d188a2af-NDk5Xy0xMjc4Mjk0Ny0xMjAwLTEzMjAtMDUwMS0tcDE0ODA,http://pb.xyz.duunion.com/conv?tid=P_778e69a5d188a2af-NDk5Xy0xMjc4Mjk0Ny0xMjAwLTEzMjAtMDUwMS0tcDE0ODA&adv_sectkn=55dea06a643eb8a2d267a735fe2683bd&adv_name=appier-api&payout=1.2,idfa_abd7932f-fa19-42c4-a6ba-903ef9f1ad84,%ED%95%9C%EA%B5%AD%EC%96%B4
RS9iEolHTI2e6lR_JSd80w,doglobal_api,499_p1480,Install,1.2,182.31.13.44,2d92ac6c-0062-449a-b2b8-757516d24d83,1556675908,2019-05-01 09:58:28,1556689509,2019-05-01 13:45:09,1556689549,P_a8c5569f96566cca-NDk5Xy0xMjc4Mjk0Ny0xMjAwLTEzMjAtMDUwMS0tcDE0ODA,http://pb.xyz.duunion.com/conv?tid=P_a8c5569f96566cca-NDk5Xy0xMjc4Mjk0Ny0xMjAwLTEzMjAtMDUwMS0tcDE0ODA&adv_sectkn=55dea06a643eb8a2d267a735fe2683bd&adv_name=appier-api&payout=1.2,idfa_2d92ac6c-0062-449a-b2b8-757516d24d83,%ED%95%9C%EA%B5%AD%EC%96%B4
RS9iEolHTI2e6lR_JSd80w,doglobal_api,499_p1480,Install,1.2,27.124.199.7,fcfd2fd2-5764-40fb-bce3-2abd1c7324b0,1556592049,2019-04-30 10:40:49,1556664356,2019-05-01 06:45:56,1556664386,P_6dfd0c87795bbb1c-NDk5Xy0xMjc4Mjk0Ny0xMjAwLTEzMjAtMDQzMC0tcDE0ODA,http://pb.xyz.duunion.com/conv?tid=P_6dfd0c87795bbb1c-NDk5Xy0xMjc4Mjk0Ny0xMjAwLTEzMjAtMDQzMC0tcDE0ODA&adv_sectkn=55dea06a643eb8a2d267a735fe2683bd&adv_name=appier-api&payout=1.2,idfa_fcfd2fd2-5764-40fb-bce3-2abd1c7324b0,%ED%95%9C%EA%B5%AD%EC%96%B4
RS9iEolHTI2e6lR_JSd80w,doglobal_api,499_p1480,Install,1.2,223.39.130.53,d6906023-65a5-40aa-87aa-b3ad1dc29ff3,1556676406,2019-05-01 10:06:46,1556689534,2019-05-01 13:45:34,1556689565,B_a8278bfd0a8034af-NDk5Xy0xMjc4Mjk0Ny0xMjAwLTEzMjAtMDUwMS0tcDE0ODA,http://pb.xyz.duunion.com/conv?tid=B_a8278bfd0a8034af-NDk5Xy0xMjc4Mjk0Ny0xMjAwLTEzMjAtMDUwMS0tcDE0ODA&adv_sectkn=55dea06a643eb8a2d267a735fe2683bd&adv_name=appier-api&payout=1.2,idfa_d6906023-65a5-40aa-87aa-b3ad1dc29ff3,%ED%95%9C%EA%B5%AD%EC%96%B4
RS9iEolHTI2e6lR_JSd80w,doglobal_api,499_p1480,Install,1.2,175.223.23.23,c4d02a5e-568e-45dd-833c-bdae89147d46,1556681046,2019-05-01 11:24:06,1556694669,2019-05-01 15:11:09,1556694699,B_a2157628c61ec929-NDk5Xy0xMjc4Mjk0Ny0xMjAwLTEzMjAtMDUwMS0tcDE0ODA,http://pb.xyz.duunion.com/conv?tid=B_a2157628c61ec929-NDk5Xy0xMjc4Mjk0Ny0xMjAwLTEzMjAtMDUwMS0tcDE0ODA&adv_sectkn=55dea06a643eb8a2d267a735fe2683bd&adv_name=appier-api&payout=1.2,idfa_c4d02a5e-568e-45dd-833c-bdae89147d46,%ED%95%9C%EA%B5%AD%EC%96%B4
RS9iEolHTI2e6lR_JSd80w,doglobal_api,499_p1480,Install,1.2,39.7.51.5,151c89a8-1fda-4fd3-aee6-775c09680a8c,1556673323,2019-05-01 09:15:23,1556689445,2019-05-01 13:44:05,1556689475,P_ddb9674d103c8759-NDk5Xy0xMjc4Mjk0Ny0xMjAwLTEzMjAtMDUwMS0tcDE0ODA,http://pb.xyz.duunion.com/conv?tid=P_ddb9674d103c8759-NDk5Xy0xMjc4Mjk0Ny0xMjAwLTEzMjAtMDUwMS0tcDE0ODA&adv_sectkn=55dea06a643eb8a2d267a735fe2683bd&adv_name=appier-api&payout=1.2,idfa_151c89a8-1fda-4fd3-aee6-775c09680a8c,%ED%95%9C%EA%B5%AD%EC%96%B4
RS9iEolHTI2e6lR_JSd80w,doglobal_api,499_p1480,Install,1.2,175.223.33.120,ea9f8b33-3234-4825-945b-1a64327e4fad,1556674617,2019-05-01 09:36:57,1556694696,2019-05-01 15:11:36,1556694727,P_d434431ada138422-NDk5Xy0xMjc4Mjk0Ny0xMjAwLTEzMjAtMDUwMS0tcDE0ODA,http://pb.xyz.duunion.com/conv?tid=P_d434431ada138422-NDk5Xy0xMjc4Mjk0Ny0xMjAwLTEzMjAtMDUwMS0tcDE0ODA&adv_sectkn=55dea06a643eb8a2d267a735fe2683bd&adv_name=appier-api&payout=1.2,idfa_ea9f8b33-3234-4825-945b-1a64327e4fad,%ED%95%9C%EA%B5%AD%EC%96%B4
RS9iEolHTI2e6lR_JSd80w,doglobal_api,499_p1480,Install,1.2,39.7.18.134,c0115dfd-e7a7-41fa-914d-c73633bc4079,1556678991,2019-05-01 10:49:51,1556690957,2019-05-01 14:09:17,1556690987,B_5dd63d046fbd7b6f-NDk5Xy0xMjc4Mjk0Ny0xMjAwLTEzMjAtMDUwMS0tcDE0ODA,http://pb.xyz.duunion.com/conv?tid=B_5dd63d046fbd7b6f-NDk5Xy0xMjc4Mjk0Ny0xMjAwLTEzMjAtMDUwMS0tcDE0ODA&adv_sectkn=55dea06a643eb8a2d267a735fe2683bd&adv_name=appier-api&payout=1.2,idfa_c0115dfd-e7a7-41fa-914d-c73633bc4079,%ED%95%9C%EA%B5%AD%EC%96%B4
RS9iEolHTI2e6lR_JSd80w,doglobal_api,499_p1480,Install,1.2,49.172.111.46,e880e86e-9391-4686-93b7-c5ad9ff3d18c,1556678901,2019-05-01 10:48:21,1556689454,2019-05-01 13:44:14,1556689484,P_86e71f2d1fa5f7ec-NDk5Xy0xMjc4Mjk0Ny0xMjAwLTEzMjAtMDUwMS0tcDE0ODA,http://pb.xyz.duunion.com/conv?tid=P_86e71f2d1fa5f7ec-NDk5Xy0xMjc4Mjk0Ny0xMjAwLTEzMjAtMDUwMS0tcDE0ODA&adv_sectkn=55dea06a643eb8a2d267a735fe2683bd&adv_name=appier-api&payout=1.2,idfa_e880e86e-9391-4686-93b7-c5ad9ff3d18c,%ED%95%9C%EA%B5%AD%EC%96%B4
RS9iEolHTI2e6lR_JSd80w,doglobal_api,499_p1480,Install,1.2,182.221.233.113,dfffc3aa-804c-4ef7-8a2e-eaa87141021a,1556682980,2019-05-01 11:56:20,1556694916,2019-05-01 15:15:16,1556694947,B_7235eb2155ce167d-NDk5Xy0xMjc4Mjk0Ny0xMjAwLTEzMjAtMDUwMS0tcDE0ODA,http://pb.xyz.duunion.com/conv?tid=B_7235eb2155ce167d-NDk5Xy0xMjc4Mjk0Ny0xMjAwLTEzMjAtMDUwMS0tcDE0ODA&adv_sectkn=55dea06a643eb8a2d267a735fe2683bd&adv_name=appier-api&payout=1.2,idfa_dfffc3aa-804c-4ef7-8a2e-eaa87141021a,%ED%95%9C%EA%B5%AD%EC%96%B4
RS9iEolHTI2e6lR_JSd80w,doglobal_api,499_p1480,Install,1.2,14.37.198.84,91f71d50-9654-4f98-9084-8a536bc79597,1556679677,2019-05-01 11:01:17,1556689557,2019-05-01 13:45:57,1556689588,P_e4ec5ef29403fc61-NDk5Xy0xMjc4Mjk0Ny0xMjAwLTEzMjAtMDUwMS0tcDE0ODA,http://pb.xyz.duunion.com/conv?tid=P_e4ec5ef29403fc61-NDk5Xy0xMjc4Mjk0Ny0xMjAwLTEzMjAtMDUwMS0tcDE0ODA&adv_sectkn=55dea06a643eb8a2d267a735fe2683bd&adv_name=appier-api&payout=1.2,idfa_91f71d50-9654-4f98-9084-8a536bc79597,%ED%95%9C%EA%B5%AD%EC%96%B4
RS9iEolHTI2e6lR_JSd80w,doglobal_api,499_p1480,Install,1.2,27.115.189.155,3f72a4fb-132d-4d31-8ac6-e46d1c78cdd6,1556682883,2019-05-01 11:54:43,1556694703,2019-05-01 15:11:43,1556694734,P_85503e0c44de9195-NDk5Xy0xMjc4Mjk0Ny0xMjAwLTEzMjAtMDUwMS0tcDE0ODA,http://pb.xyz.duunion.com/conv?tid=P_85503e0c44de9195-NDk5Xy0xMjc4Mjk0Ny0xMjAwLTEzMjAtMDUwMS0tcDE0ODA&adv_sectkn=55dea06a643eb8a2d267a735fe2683bd&adv_name=appier-api&payout=1.2,idfa_3f72a4fb-132d-4d31-8ac6-e46d1c78cdd6,%ED%95%9C%EA%B5%AD%EC%96%B4
RS9iEolHTI2e6lR_JSd80w,doglobal_api,499_p1480,Install,1.2,112.158.253.98,baaa985d-1287-4dd3-9833-3e6f201ba56f,1556677208,2019-05-01 10:20:08,1556690950,2019-05-01 14:09:10,1556690981,P_03005edd8fe57ce8-NDk5Xy0xMjc4Mjk0Ny0xMjAwLTEzMjAtMDUwMS0tcDE0ODA,http://pb.xyz.duunion.com/conv?tid=P_03005edd8fe57ce8-NDk5Xy0xMjc4Mjk0Ny0xMjAwLTEzMjAtMDUwMS0tcDE0ODA&adv_sectkn=55dea06a643eb8a2d267a735fe2683bd&adv_name=appier-api&payout=1.2,idfa_baaa985d-1287-4dd3-9833-3e6f201ba56f,%ED%95%9C%EA%B5%AD%EC%96%B4
RS9iEolHTI2e6lR_JSd80w,doglobal_api,499_p1480,Install,1.2,182.220.89.35,396f4458-842a-43ac-8911-84c38d8cf074,1556682837,2019-05-01 11:53:57,1556694905,2019-05-01 15:15:05,1556694938,P_1d17797811632c19-NDk5Xy0xMjc4Mjk0Ny0xMjAwLTEzMjAtMDUwMS0tcDE0ODA,http://pb.xyz.duunion.com/conv?tid=P_1d17797811632c19-NDk5Xy0xMjc4Mjk0Ny0xMjAwLTEzMjAtMDUwMS0tcDE0ODA&adv_sectkn=55dea06a643eb8a2d267a735fe2683bd&adv_name=appier-api&payout=1.2,idfa_396f4458-842a-43ac-8911-84c38d8cf074,%ED%95%9C%EA%B5%AD%EC%96%B4
RS9iEolHTI2e6lR_JSd80w,doglobal_api,499_p1480,Install,1.2,218.153.217.157,6b5c5e21-c5d0-476e-bccf-8a59176a5670,1556589732,2019-04-30 10:02:12,1556665625,2019-05-01 07:07:05,1556665656,P_e597c2e47005c7ae-NDk5Xy0xMjc4Mjk0Ny0xMjAwLTEzMjAtMDQzMC0tcDE0ODA,http://pb.xyz.duunion.com/conv?tid=P_e597c2e47005c7ae-NDk5Xy0xMjc4Mjk0Ny0xMjAwLTEzMjAtMDQzMC0tcDE0ODA&adv_sectkn=55dea06a643eb8a2d267a735fe2683bd&adv_name=appier-api&payout=1.2,idfa_6b5c5e21-c5d0-476e-bccf-8a59176a5670,%ED%95%9C%EA%B5%AD%EC%96%B4
RS9iEolHTI2e6lR_JSd80w,doglobal_api,499_p1480,Install,1.2,1.231.162.115,aff6aafa-d07d-4f59-866a-1eb85971a967,1556683927,2019-05-01 12:12:07,1556689546,2019-05-01 13:45:46,1556689577,P_e73f5e503829cb1e-NDk5Xy0xMjc4Mjk0Ny0xMjAwLTEzMjAtMDUwMS0tcDE0ODA,http://pb.xyz.duunion.com/conv?tid=P_e73f5e503829cb1e-NDk5Xy0xMjc4Mjk0Ny0xMjAwLTEzMjAtMDUwMS0tcDE0ODA&adv_sectkn=55dea06a643eb8a2d267a735fe2683bd&adv_name=appier-api&payout=1.2,idfa_aff6aafa-d07d-4f59-866a-1eb85971a967,%ED%95%9C%EA%B5%AD%EC%96%B4
RS9iEolHTI2e6lR_JSd80w,doglobal_api,499_p1480,Install,1.2,121.182.31.75,9a63d58c-8ae3-4a09-bd84-9b9d81fccfd5,1556681852,2019-05-01 11:37:32,1556683555,2019-05-01 12:05:55,1556683586,B_7177d29175a02a9e-NDk5Xy0xMjc4Mjk0Ny0xMjAwLTEzMjAtMDUwMS0tcDE0ODA,http://pb.xyz.duunion.com/conv?tid=B_7177d29175a02a9e-NDk5Xy0xMjc4Mjk0Ny0xMjAwLTEzMjAtMDUwMS0tcDE0ODA&adv_sectkn=55dea06a643eb8a2d267a735fe2683bd&adv_name=appier-api&payout=1.2,idfa_9a63d58c-8ae3-4a09-bd84-9b9d81fccfd5,%ED%95%9C%EA%B5%AD%EC%96%B4
RS9iEolHTI2e6lR_JSd80w,doglobal_api,499_p1480,Install,1.2,223.62.21.102,fea33a62-9356-404b-8f17-ddc327b30e80,1556674274,2019-05-01 09:31:14,1556689526,2019-05-01 13:45:26,1556689556,B_88932f98d42fee0a-NDk5Xy0xMjc4Mjk0Ny0xMjAwLTEzMjAtMDUwMS0tcDE0ODA,http://pb.xyz.duunion.com/conv?tid=B_88932f98d42fee0a-NDk5Xy0xMjc4Mjk0Ny0xMjAwLTEzMjAtMDUwMS0tcDE0ODA&adv_sectkn=55dea06a643eb8a2d267a735fe2683bd&adv_name=appier-api&payout=1.2,idfa_fea33a62-9356-404b-8f17-ddc327b30e80,%ED%95%9C%EA%B5%AD%EC%96%B4
RS9iEolHTI2e6lR_JSd80w,doglobal_api,499_p1480,Install,1.2,116.41.231.161,de53893a-b6da-4dde-874a-231cc156e0d1,1556675284,2019-05-01 09:48:04,1556690968,2019-05-01 14:09:28,1556691000,B_d70694a98644b371-NDk5Xy0xMjc4Mjk0Ny0xMjAwLTEzMjAtMDUwMS0tcDE0ODA,http://pb.xyz.duunion.com/conv?tid=B_d70694a98644b371-NDk5Xy0xMjc4Mjk0Ny0xMjAwLTEzMjAtMDUwMS0tcDE0ODA&adv_sectkn=55dea06a643eb8a2d267a735fe2683bd&adv_name=appier-api&payout=1.2,idfa_de53893a-b6da-4dde-874a-231cc156e0d1,%ED%95%9C%EA%B5%AD%EC%96%B4
