cid,partner_id,channel_id,action_id,cpi,ip,idfa,click time,click datetime,install time,install datetime,postback time,click id,postback url,unique user id
IAWJC7cXQtqKuBqWVzJcAA,doglobal_api,649_10531649,install,2.0,126.124.91.171,CD4159E6-C222-4E07-AA96-671E7155135C,1559270811,2019-05-31 10:46:51,1559270959,2019-05-31 10:49:19,1559270996,P_fd4533a46fd3ab6c-NjQ5Xy0xMjY3MTU1MS0yMDAwLTIyMDAtMDUzMS0xMDUzMTY0OS0zNTg,http://pb.xyz.duunion.com/conv?tid=P_fd4533a46fd3ab6c-NjQ5Xy0xMjY3MTU1MS0yMDAwLTIyMDAtMDUzMS0xMDUzMTY0OS0zNTg&adv_sectkn=55dea06a643eb8a2d267a735fe2683bd&adv_name=appier-api&payout=2.0,idfa_CD4159E6-C222-4E07-AA96-671E7155135C,ja
IAWJC7cXQtqKuBqWVzJcAA,doglobal_api,649_10531649,install,2.0,180.22.111.92,706DF8C8-A2C5-4F8E-A25D-2D7786F09557,1559271433,2019-05-31 10:57:13,1559271568,2019-05-31 10:59:28,1559271607,P_45c7fe2374e48800-NjQ5Xy0xMjY3MTU1MS0yMDAwLTIyMDAtMDUzMS0xMDUzMTY0OS0zNTg,http://pb.xyz.duunion.com/conv?tid=P_45c7fe2374e48800-NjQ5Xy0xMjY3MTU1MS0yMDAwLTIyMDAtMDUzMS0xMDUzMTY0OS0zNTg&adv_sectkn=55dea06a643eb8a2d267a735fe2683bd&adv_name=appier-api&payout=2.0,idfa_706DF8C8-A2C5-4F8E-A25D-2D7786F09557,ja
IAWJC7cXQtqKuBqWVzJcAA,doglobal_api,649_10531649,install,2.0,126.131.58.17,35542DF4-558E-456F-8455-10CDD84DEFCA,1559269842,2019-05-31 10:30:42,1559269992,2019-05-31 10:33:12,1559270024,B_81d2867679d64238-NjQ5Xy0xMjY3MTU1MS0yMDAwLTIyMDAtMDUzMS0xMDUzMTY0OS0zNTg,http://pb.xyz.duunion.com/conv?tid=B_81d2867679d64238-NjQ5Xy0xMjY3MTU1MS0yMDAwLTIyMDAtMDUzMS0xMDUzMTY0OS0zNTg&adv_sectkn=55dea06a643eb8a2d267a735fe2683bd&adv_name=appier-api&payout=2.0,idfa_35542DF4-558E-456F-8455-10CDD84DEFCA,ja
IAWJC7cXQtqKuBqWVzJcAA,doglobal_api,649_10531649,install,2.0,210.132.212.249,5A441B84-07A1-4617-BC81-3C71D0085DED,1559272400,2019-05-31 11:13:20,1559272546,2019-05-31 11:15:46,1559272587,P_87189b879993173f-NjQ5Xy0xMjY3MTU1MS0yMDAwLTIyMDAtMDUzMS0xMDUzMTY0OS0zNTg,http://pb.xyz.duunion.com/conv?tid=P_87189b879993173f-NjQ5Xy0xMjY3MTU1MS0yMDAwLTIyMDAtMDUzMS0xMDUzMTY0OS0zNTg&adv_sectkn=55dea06a643eb8a2d267a735fe2683bd&adv_name=appier-api&payout=2.0,idfa_5A441B84-07A1-4617-BC81-3C71D0085DED,ja
IAWJC7cXQtqKuBqWVzJcAA,doglobal_api,649_10531649,install,2.0,114.153.36.211,7A58B7B8-CE5A-4EF0-B95F-775D9F355DD4,1559270198,2019-05-31 10:36:38,1559270341,2019-05-31 10:39:01,1559270380,P_2b4af5ee7e81022e-NjQ5Xy0xMjY3MTU1MS0yMDAwLTIyMDAtMDUzMS0xMDUzMTY0OS0zNTg,http://pb.xyz.duunion.com/conv?tid=P_2b4af5ee7e81022e-NjQ5Xy0xMjY3MTU1MS0yMDAwLTIyMDAtMDUzMS0xMDUzMTY0OS0zNTg&adv_sectkn=55dea06a643eb8a2d267a735fe2683bd&adv_name=appier-api&payout=2.0,idfa_7A58B7B8-CE5A-4EF0-B95F-775D9F355DD4,ja
IAWJC7cXQtqKuBqWVzJcAA,doglobal_api,649_10531649,install,2.0,58.158.57.66,29CBCE9A-0DB7-41DC-9CD6-0A361679D6C3,1559271758,2019-05-31 11:02:38,1559271929,2019-05-31 11:05:29,1559271969,P_19106ef558a0ea1a-NjQ5Xy0xMjY3MTU1MS0yMDAwLTIyMDAtMDUzMS0xMDUzMTY0OS0zNTg,http://pb.xyz.duunion.com/conv?tid=P_19106ef558a0ea1a-NjQ5Xy0xMjY3MTU1MS0yMDAwLTIyMDAtMDUzMS0xMDUzMTY0OS0zNTg&adv_sectkn=55dea06a643eb8a2d267a735fe2683bd&adv_name=appier-api&payout=2.0,idfa_29CBCE9A-0DB7-41DC-9CD6-0A361679D6C3,ja
IAWJC7cXQtqKuBqWVzJcAA,doglobal_api,649_10531649,install,2.0,180.25.2.49,A8EB63F0-D62F-491D-96B8-120FCD52B142,1559267732,2019-05-31 09:55:32,1559267846,2019-05-31 09:57:26,1559267880,B_c7afc547ea1e8ea6-NjQ5Xy0xMjY3MTU1MS0yMDAwLTIyMDAtMDUzMS0xMDUzMTY0OS0zNTg,http://pb.xyz.duunion.com/conv?tid=B_c7afc547ea1e8ea6-NjQ5Xy0xMjY3MTU1MS0yMDAwLTIyMDAtMDUzMS0xMDUzMTY0OS0zNTg&adv_sectkn=55dea06a643eb8a2d267a735fe2683bd&adv_name=appier-api&payout=2.0,idfa_A8EB63F0-D62F-491D-96B8-120FCD52B142,ja
IAWJC7cXQtqKuBqWVzJcAA,doglobal_api,649_10531649,install,2.0,61.86.152.197,D8A9B6DC-28DD-4EC5-A855-3676555CC0F7,1559271759,2019-05-31 11:02:39,1559271881,2019-05-31 11:04:41,1559271911,B_a924560a4078d58f-NjQ5Xy0xMjY3MTU1MS0yMDAwLTIyMDAtMDUzMS0xMDUzMTY0OS0zNTg,http://pb.xyz.duunion.com/conv?tid=B_a924560a4078d58f-NjQ5Xy0xMjY3MTU1MS0yMDAwLTIyMDAtMDUzMS0xMDUzMTY0OS0zNTg&adv_sectkn=55dea06a643eb8a2d267a735fe2683bd&adv_name=appier-api&payout=2.0,idfa_D8A9B6DC-28DD-4EC5-A855-3676555CC0F7,ja
IAWJC7cXQtqKuBqWVzJcAA,doglobal_api,649_10531649,install,2.0,223.29.32.218,5FD1B958-149D-4010-BBEF-4FFF19946F3D,1559269532,2019-05-31 10:25:32,1559269691,2019-05-31 10:28:11,1559269725,P_1d34c28829e82474-NjQ5Xy0xMjY3MTU1MS0yMDAwLTIyMDAtMDUzMS0xMDUzMTY0OS0zNTg,http://pb.xyz.duunion.com/conv?tid=P_1d34c28829e82474-NjQ5Xy0xMjY3MTU1MS0yMDAwLTIyMDAtMDUzMS0xMDUzMTY0OS0zNTg&adv_sectkn=55dea06a643eb8a2d267a735fe2683bd&adv_name=appier-api&payout=2.0,idfa_5FD1B958-149D-4010-BBEF-4FFF19946F3D,ja
IAWJC7cXQtqKuBqWVzJcAA,doglobal_api,649_10531649,install,2.0,126.108.85.94,8259EC03-1E2C-413B-B683-6F25760098EE,1559270817,2019-05-31 10:46:57,1559270984,2019-05-31 10:49:44,1559271019,B_6cce5e7d4665aa10-NjQ5Xy0xMjY3MTU1MS0yMDAwLTIyMDAtMDUzMS0xMDUzMTY0OS0zNTg,http://pb.xyz.duunion.com/conv?tid=B_6cce5e7d4665aa10-NjQ5Xy0xMjY3MTU1MS0yMDAwLTIyMDAtMDUzMS0xMDUzMTY0OS0zNTg&adv_sectkn=55dea06a643eb8a2d267a735fe2683bd&adv_name=appier-api&payout=2.0,idfa_8259EC03-1E2C-413B-B683-6F25760098EE,ja
IAWJC7cXQtqKuBqWVzJcAA,doglobal_api,649_10531649,install,2.0,219.75.179.217,48967DF2-E9B8-4ACF-9F33-28F4BFF98E0F,1559268037,2019-05-31 10:00:37,1559268211,2019-05-31 10:03:31,1559268248,B_77df05ed3836bae9-NjQ5Xy0xMjY3MTU1MS0yMDAwLTIyMDAtMDUzMS0xMDUzMTY0OS0zNTg,http://pb.xyz.duunion.com/conv?tid=B_77df05ed3836bae9-NjQ5Xy0xMjY3MTU1MS0yMDAwLTIyMDAtMDUzMS0xMDUzMTY0OS0zNTg&adv_sectkn=55dea06a643eb8a2d267a735fe2683bd&adv_name=appier-api&payout=2.0,idfa_48967DF2-E9B8-4ACF-9F33-28F4BFF98E0F,ja
IAWJC7cXQtqKuBqWVzJcAA,doglobal_api,649_10531649,install,2.0,126.77.34.250,1A59CD20-99C3-45BD-AD48-56F6E1C97D7D,1559273740,2019-05-31 11:35:40,1559273879,2019-05-31 11:37:59,1559273917,P_42ee78201e7a86d7-NjQ5Xy0xMjY3MTU1MS0yMDAwLTIyMDAtMDUzMS0xMDUzMTY0OS0zNTg,http://pb.xyz.duunion.com/conv?tid=P_42ee78201e7a86d7-NjQ5Xy0xMjY3MTU1MS0yMDAwLTIyMDAtMDUzMS0xMDUzMTY0OS0zNTg&adv_sectkn=55dea06a643eb8a2d267a735fe2683bd&adv_name=appier-api&payout=2.0,idfa_1A59CD20-99C3-45BD-AD48-56F6E1C97D7D,ja
IAWJC7cXQtqKuBqWVzJcAA,doglobal_api,649_10531649,install,2.0,60.126.21.72,F9A4FF3F-006D-4389-9838-0069ABCBECEF,1559271119,2019-05-31 10:51:59,1559271273,2019-05-31 10:54:33,1559271306,P_55032bc2c56b757f-NjQ5Xy0xMjY3MTU1MS0yMDAwLTIyMDAtMDUzMS0xMDUzMTY0OS0zNTg,http://pb.xyz.duunion.com/conv?tid=P_55032bc2c56b757f-NjQ5Xy0xMjY3MTU1MS0yMDAwLTIyMDAtMDUzMS0xMDUzMTY0OS0zNTg&adv_sectkn=55dea06a643eb8a2d267a735fe2683bd&adv_name=appier-api&payout=2.0,idfa_F9A4FF3F-006D-4389-9838-0069ABCBECEF,ja
IAWJC7cXQtqKuBqWVzJcAA,doglobal_api,649_10531649,install,2.0,126.164.61.94,9AAB7B47-F088-42D8-99D1-62B50F13AF43,1559269885,2019-05-31 10:31:25,1559270001,2019-05-31 10:33:21,1559270040,P_8a06c3b62d879f02-NjQ5Xy0xMjY3MTU1MS0yMDAwLTIyMDAtMDUzMS0xMDUzMTY0OS0zNTg,http://pb.xyz.duunion.com/conv?tid=P_8a06c3b62d879f02-NjQ5Xy0xMjY3MTU1MS0yMDAwLTIyMDAtMDUzMS0xMDUzMTY0OS0zNTg&adv_sectkn=55dea06a643eb8a2d267a735fe2683bd&adv_name=appier-api&payout=2.0,idfa_9AAB7B47-F088-42D8-99D1-62B50F13AF43,ja
IAWJC7cXQtqKuBqWVzJcAA,doglobal_api,649_10531649,install,2.0,126.94.208.51,5188DDAD-B75E-4C0C-BCDC-FC79A794AAD9,1559270199,2019-05-31 10:36:39,1559270362,2019-05-31 10:39:22,1559270401,P_48bac4369883efb8-NjQ5Xy0xMjY3MTU1MS0yMDAwLTIyMDAtMDUzMS0xMDUzMTY0OS0zNTg,http://pb.xyz.duunion.com/conv?tid=P_48bac4369883efb8-NjQ5Xy0xMjY3MTU1MS0yMDAwLTIyMDAtMDUzMS0xMDUzMTY0OS0zNTg&adv_sectkn=55dea06a643eb8a2d267a735fe2683bd&adv_name=appier-api&payout=2.0,idfa_5188DDAD-B75E-4C0C-BCDC-FC79A794AAD9,ja
IAWJC7cXQtqKuBqWVzJcAA,doglobal_api,649_10531649,install,2.0,180.44.57.215,A7C292C7-0716-44D3-816C-C101CF89258B,1559268875,2019-05-31 10:14:35,1559269085,2019-05-31 10:18:05,1559269122,P_9fb55162416d6fd5-NjQ5Xy0xMjY3MTU1MS0yMDAwLTIyMDAtMDUzMS0xMDUzMTY0OS0zNTg,http://pb.xyz.duunion.com/conv?tid=P_9fb55162416d6fd5-NjQ5Xy0xMjY3MTU1MS0yMDAwLTIyMDAtMDUzMS0xMDUzMTY0OS0zNTg&adv_sectkn=55dea06a643eb8a2d267a735fe2683bd&adv_name=appier-api&payout=2.0,idfa_A7C292C7-0716-44D3-816C-C101CF89258B,ja
IAWJC7cXQtqKuBqWVzJcAA,doglobal_api,649_10531649,install,2.0,125.195.101.84,148718E2-BF30-4007-8F3E-CC6BACF0CB2A,1559270513,2019-05-31 10:41:53,1559270694,2019-05-31 10:44:54,1559270730,B_c938ea47476cadcb-NjQ5Xy0xMjY3MTU1MS0yMDAwLTIyMDAtMDUzMS0xMDUzMTY0OS0zNTg,http://pb.xyz.duunion.com/conv?tid=B_c938ea47476cadcb-NjQ5Xy0xMjY3MTU1MS0yMDAwLTIyMDAtMDUzMS0xMDUzMTY0OS0zNTg&adv_sectkn=55dea06a643eb8a2d267a735fe2683bd&adv_name=appier-api&payout=2.0,idfa_148718E2-BF30-4007-8F3E-CC6BACF0CB2A,ja
IAWJC7cXQtqKuBqWVzJcAA,doglobal_api,649_10531649,install,2.0,164.70.139.21,875CD6EB-BFD9-4181-B880-BB3A0085DEB8,1559271118,2019-05-31 10:51:58,1559271264,2019-05-31 10:54:24,1559271300,P_d7ac2914600f97b9-NjQ5Xy0xMjY3MTU1MS0yMDAwLTIyMDAtMDUzMS0xMDUzMTY0OS0zNTg,http://pb.xyz.duunion.com/conv?tid=P_d7ac2914600f97b9-NjQ5Xy0xMjY3MTU1MS0yMDAwLTIyMDAtMDUzMS0xMDUzMTY0OS0zNTg&adv_sectkn=55dea06a643eb8a2d267a735fe2683bd&adv_name=appier-api&payout=2.0,idfa_875CD6EB-BFD9-4181-B880-BB3A0085DEB8,ja
IAWJC7cXQtqKuBqWVzJcAA,doglobal_api,649_10531649,install,2.0,126.34.116.135,F64FC83F-5216-4D57-B8EE-6BF15D1405B9,1559274051,2019-05-31 11:40:51,1559274168,2019-05-31 11:42:48,1559274209,P_fe76bdd467c81442-NjQ5Xy0xMjY3MTU1MS0yMDAwLTIyMDAtMDUzMS0xMDUzMTY0OS0zNTg,http://pb.xyz.duunion.com/conv?tid=P_fe76bdd467c81442-NjQ5Xy0xMjY3MTU1MS0yMDAwLTIyMDAtMDUzMS0xMDUzMTY0OS0zNTg&adv_sectkn=55dea06a643eb8a2d267a735fe2683bd&adv_name=appier-api&payout=2.0,idfa_F64FC83F-5216-4D57-B8EE-6BF15D1405B9,ja
IAWJC7cXQtqKuBqWVzJcAA,doglobal_api,649_10531649,install,2.0,182.166.228.53,200352CB-A266-42E0-9E87-DB259DFA746C,1559272407,2019-05-31 11:13:27,1559272564,2019-05-31 11:16:04,1559272604,P_b6809b043e6bf1b0-NjQ5Xy0xMjY3MTU1MS0yMDAwLTIyMDAtMDUzMS0xMDUzMTY0OS0zNTg,http://pb.xyz.duunion.com/conv?tid=P_b6809b043e6bf1b0-NjQ5Xy0xMjY3MTU1MS0yMDAwLTIyMDAtMDUzMS0xMDUzMTY0OS0zNTg&adv_sectkn=55dea06a643eb8a2d267a735fe2683bd&adv_name=appier-api&payout=2.0,idfa_200352CB-A266-42E0-9E87-DB259DFA746C,ja
IAWJC7cXQtqKuBqWVzJcAA,doglobal_api,649_10531649,install,2.0,158.201.245.201,10DB44C4-2BE3-4908-8980-803C9379B4D5,1559273037,2019-05-31 11:23:57,1559273156,2019-05-31 11:25:56,1559273194,B_1e6382afd5f82c4c-NjQ5Xy0xMjY3MTU1MS0yMDAwLTIyMDAtMDUzMS0xMDUzMTY0OS0zNTg,http://pb.xyz.duunion.com/conv?tid=B_1e6382afd5f82c4c-NjQ5Xy0xMjY3MTU1MS0yMDAwLTIyMDAtMDUzMS0xMDUzMTY0OS0zNTg&adv_sectkn=55dea06a643eb8a2d267a735fe2683bd&adv_name=appier-api&payout=2.0,idfa_10DB44C4-2BE3-4908-8980-803C9379B4D5,ja
IAWJC7cXQtqKuBqWVzJcAA,doglobal_api,649_10531649,install,2.0,126.241.193.167,59367C88-0754-42C5-BC79-90513CC1C4C3,1559269533,2019-05-31 10:25:33,1559269658,2019-05-31 10:27:38,1559269698,P_f9b3be50fab988e2-NjQ5Xy0xMjY3MTU1MS0yMDAwLTIyMDAtMDUzMS0xMDUzMTY0OS0zNTg,http://pb.xyz.duunion.com/conv?tid=P_f9b3be50fab988e2-NjQ5Xy0xMjY3MTU1MS0yMDAwLTIyMDAtMDUzMS0xMDUzMTY0OS0zNTg&adv_sectkn=55dea06a643eb8a2d267a735fe2683bd&adv_name=appier-api&payout=2.0,idfa_59367C88-0754-42C5-BC79-90513CC1C4C3,ja
IAWJC7cXQtqKuBqWVzJcAA,doglobal_api,649_10531649,install,2.0,118.5.220.180,23E68145-606D-467D-8BF7-EB5D28F0813F,1559267730,2019-05-31 09:55:30,1559267877,2019-05-31 09:57:57,1559267916,B_369961c24106147b-NjQ5Xy0xMjY3MTU1MS0yMDAwLTIyMDAtMDUzMS0xMDUzMTY0OS0zNTg,http://pb.xyz.duunion.com/conv?tid=B_369961c24106147b-NjQ5Xy0xMjY3MTU1MS0yMDAwLTIyMDAtMDUzMS0xMDUzMTY0OS0zNTg&adv_sectkn=55dea06a643eb8a2d267a735fe2683bd&adv_name=appier-api&payout=2.0,idfa_23E68145-606D-467D-8BF7-EB5D28F0813F,ja
IAWJC7cXQtqKuBqWVzJcAA,doglobal_api,649_10531649,install,2.0,180.145.227.16,AFA5E672-58FF-48E4-AB3B-4C89FB8156CE,1559270196,2019-05-31 10:36:36,1559270306,2019-05-31 10:38:26,1559270341,P_bdee568cebbb6853-NjQ5Xy0xMjY3MTU1MS0yMDAwLTIyMDAtMDUzMS0xMDUzMTY0OS0zNTg,http://pb.xyz.duunion.com/conv?tid=P_bdee568cebbb6853-NjQ5Xy0xMjY3MTU1MS0yMDAwLTIyMDAtMDUzMS0xMDUzMTY0OS0zNTg&adv_sectkn=55dea06a643eb8a2d267a735fe2683bd&adv_name=appier-api&payout=2.0,idfa_AFA5E672-58FF-48E4-AB3B-4C89FB8156CE,ja
IAWJC7cXQtqKuBqWVzJcAA,doglobal_api,649_10531649,install,2.0,182.167.187.60,34656FB0-63E1-4289-917F-0AB0743C4AE8,1559269204,2019-05-31 10:20:04,1559269328,2019-05-31 10:22:08,1559269368,B_04a470fd041c55ee-NjQ5Xy0xMjY3MTU1MS0yMDAwLTIyMDAtMDUzMS0xMDUzMTY0OS0zNTg,http://pb.xyz.duunion.com/conv?tid=B_04a470fd041c55ee-NjQ5Xy0xMjY3MTU1MS0yMDAwLTIyMDAtMDUzMS0xMDUzMTY0OS0zNTg&adv_sectkn=55dea06a643eb8a2d267a735fe2683bd&adv_name=appier-api&payout=2.0,idfa_34656FB0-63E1-4289-917F-0AB0743C4AE8,ja
IAWJC7cXQtqKuBqWVzJcAA,doglobal_api,649_10531649,install,2.0,113.33.163.137,FE3D6951-BD33-4730-88F7-4E2DD49A68B7,1559271443,2019-05-31 10:57:23,1559271572,2019-05-31 10:59:32,1559271606,B_702561f24d11b83b-NjQ5Xy0xMjY3MTU1MS0yMDAwLTIyMDAtMDUzMS0xMDUzMTY0OS0zNTg,http://pb.xyz.duunion.com/conv?tid=B_702561f24d11b83b-NjQ5Xy0xMjY3MTU1MS0yMDAwLTIyMDAtMDUzMS0xMDUzMTY0OS0zNTg&adv_sectkn=55dea06a643eb8a2d267a735fe2683bd&adv_name=appier-api&payout=2.0,idfa_FE3D6951-BD33-4730-88F7-4E2DD49A68B7,ja
IAWJC7cXQtqKuBqWVzJcAA,doglobal_api,649_10531649,install,2.0,112.71.189.144,0D7F4068-FD75-48F1-822D-0A4F5FAB73E2,1559272086,2019-05-31 11:08:06,1559272268,2019-05-31 11:11:08,1559272302,B_e55b4d4b4c812f54-NjQ5Xy0xMjY3MTU1MS0yMDAwLTIyMDAtMDUzMS0xMDUzMTY0OS0zNTg,http://pb.xyz.duunion.com/conv?tid=B_e55b4d4b4c812f54-NjQ5Xy0xMjY3MTU1MS0yMDAwLTIyMDAtMDUzMS0xMDUzMTY0OS0zNTg&adv_sectkn=55dea06a643eb8a2d267a735fe2683bd&adv_name=appier-api&payout=2.0,idfa_0D7F4068-FD75-48F1-822D-0A4F5FAB73E2,ja
IAWJC7cXQtqKuBqWVzJcAA,doglobal_api,649_10531649,install,2.0,120.88.51.98,787D972A-0118-4374-A40C-3E03B6175150,1559272077,2019-05-31 11:07:57,1559272205,2019-05-31 11:10:05,1559272240,P_5dcc96e2063e17a9-NjQ5Xy0xMjY3MTU1MS0yMDAwLTIyMDAtMDUzMS0xMDUzMTY0OS0zNTg,http://pb.xyz.duunion.com/conv?tid=P_5dcc96e2063e17a9-NjQ5Xy0xMjY3MTU1MS0yMDAwLTIyMDAtMDUzMS0xMDUzMTY0OS0zNTg&adv_sectkn=55dea06a643eb8a2d267a735fe2683bd&adv_name=appier-api&payout=2.0,idfa_787D972A-0118-4374-A40C-3E03B6175150,ja
IAWJC7cXQtqKuBqWVzJcAA,doglobal_api,649_10531649,install,2.0,60.90.206.247,890865F0-7BCE-4948-8310-2D2267901FB6,1559272727,2019-05-31 11:18:47,1559272874,2019-05-31 11:21:14,1559272907,B_4e612fb9732a05eb-NjQ5Xy0xMjY3MTU1MS0yMDAwLTIyMDAtMDUzMS0xMDUzMTY0OS0zNTg,http://pb.xyz.duunion.com/conv?tid=B_4e612fb9732a05eb-NjQ5Xy0xMjY3MTU1MS0yMDAwLTIyMDAtMDUzMS0xMDUzMTY0OS0zNTg&adv_sectkn=55dea06a643eb8a2d267a735fe2683bd&adv_name=appier-api&payout=2.0,idfa_890865F0-7BCE-4948-8310-2D2267901FB6,ja
IAWJC7cXQtqKuBqWVzJcAA,doglobal_api,649_10531649,install,2.0,60.56.155.141,81E3074C-DAA7-4226-BBC6-F846AEDA6A27,1559273373,2019-05-31 11:29:33,1559273468,2019-05-31 11:31:08,1559273507,P_4a95913030578084-NjQ5Xy0xMjY3MTU1MS0yMDAwLTIyMDAtMDUzMS0xMDUzMTY0OS0zNTg,http://pb.xyz.duunion.com/conv?tid=P_4a95913030578084-NjQ5Xy0xMjY3MTU1MS0yMDAwLTIyMDAtMDUzMS0xMDUzMTY0OS0zNTg&adv_sectkn=55dea06a643eb8a2d267a735fe2683bd&adv_name=appier-api&payout=2.0,idfa_81E3074C-DAA7-4226-BBC6-F846AEDA6A27,ja
IAWJC7cXQtqKuBqWVzJcAA,doglobal_api,649_10531649,install,2.0,131.129.78.8,42B3E958-9977-410C-9D7D-CF7E6397C883,1559268876,2019-05-31 10:14:36,1559269024,2019-05-31 10:17:04,1559269061,P_e515b498388d4e9d-NjQ5Xy0xMjY3MTU1MS0yMDAwLTIyMDAtMDUzMS0xMDUzMTY0OS0zNTg,http://pb.xyz.duunion.com/conv?tid=P_e515b498388d4e9d-NjQ5Xy0xMjY3MTU1MS0yMDAwLTIyMDAtMDUzMS0xMDUzMTY0OS0zNTg&adv_sectkn=55dea06a643eb8a2d267a735fe2683bd&adv_name=appier-api&payout=2.0,idfa_42B3E958-9977-410C-9D7D-CF7E6397C883,ja
IAWJC7cXQtqKuBqWVzJcAA,doglobal_api,649_10531649,install,2.0,180.4.61.84,63C3EEBC-97F3-4323-AD05-550CFCF752BE,1559269205,2019-05-31 10:20:05,1559269345,2019-05-31 10:22:25,1559269375,P_d175d9e910da917e-NjQ5Xy0xMjY3MTU1MS0yMDAwLTIyMDAtMDUzMS0xMDUzMTY0OS0zNTg,http://pb.xyz.duunion.com/conv?tid=P_d175d9e910da917e-NjQ5Xy0xMjY3MTU1MS0yMDAwLTIyMDAtMDUzMS0xMDUzMTY0OS0zNTg&adv_sectkn=55dea06a643eb8a2d267a735fe2683bd&adv_name=appier-api&payout=2.0,idfa_63C3EEBC-97F3-4323-AD05-550CFCF752BE,ja
IAWJC7cXQtqKuBqWVzJcAA,doglobal_api,649_10531649,install,2.0,159.28.182.163,ABE7A909-353E-4BD5-BCC0-7C9126FDEA9F,1559273350,2019-05-31 11:29:10,1559273455,2019-05-31 11:30:55,1559273489,B_5346a1495e2ef1f3-NjQ5Xy0xMjY3MTU1MS0yMDAwLTIyMDAtMDUzMS0xMDUzMTY0OS0zNTg,http://pb.xyz.duunion.com/conv?tid=B_5346a1495e2ef1f3-NjQ5Xy0xMjY3MTU1MS0yMDAwLTIyMDAtMDUzMS0xMDUzMTY0OS0zNTg&adv_sectkn=55dea06a643eb8a2d267a735fe2683bd&adv_name=appier-api&payout=2.0,idfa_ABE7A909-353E-4BD5-BCC0-7C9126FDEA9F,ja
IAWJC7cXQtqKuBqWVzJcAA,doglobal_api,649_10531649,install,2.0,114.153.54.60,D740C9A6-A997-45B2-8DCD-832C54C0B2DB,1559270511,2019-05-31 10:41:51,1559270688,2019-05-31 10:44:48,1559270720,B_a7a49e8e49dd519a-NjQ5Xy0xMjY3MTU1MS0yMDAwLTIyMDAtMDUzMS0xMDUzMTY0OS0zNTg,http://pb.xyz.duunion.com/conv?tid=B_a7a49e8e49dd519a-NjQ5Xy0xMjY3MTU1MS0yMDAwLTIyMDAtMDUzMS0xMDUzMTY0OS0zNTg&adv_sectkn=55dea06a643eb8a2d267a735fe2683bd&adv_name=appier-api&payout=2.0,idfa_D740C9A6-A997-45B2-8DCD-832C54C0B2DB,ja
IAWJC7cXQtqKuBqWVzJcAA,doglobal_api,649_10531649,install,2.0,120.51.163.26,D6D599C8-D580-4887-810B-F4DE72B10C12,1559268544,2019-05-31 10:09:04,1559268735,2019-05-31 10:12:15,1559268774,P_b2f4d2f3163ef1a2-NjQ5Xy0xMjY3MTU1MS0yMDAwLTIyMDAtMDUzMS0xMDUzMTY0OS0zNTg,http://pb.xyz.duunion.com/conv?tid=P_b2f4d2f3163ef1a2-NjQ5Xy0xMjY3MTU1MS0yMDAwLTIyMDAtMDUzMS0xMDUzMTY0OS0zNTg&adv_sectkn=55dea06a643eb8a2d267a735fe2683bd&adv_name=appier-api&payout=2.0,idfa_D6D599C8-D580-4887-810B-F4DE72B10C12,ja
IAWJC7cXQtqKuBqWVzJcAA,doglobal_api,649_10531649,install,2.0,58.90.62.49,0F076A54-1622-4440-BFB7-4330CAC85B7E,1559273038,2019-05-31 11:23:58,1559273194,2019-05-31 11:26:34,1559273227,B_868b1c0eb25c6b5e-NjQ5Xy0xMjY3MTU1MS0yMDAwLTIyMDAtMDUzMS0xMDUzMTY0OS0zNTg,http://pb.xyz.duunion.com/conv?tid=B_868b1c0eb25c6b5e-NjQ5Xy0xMjY3MTU1MS0yMDAwLTIyMDAtMDUzMS0xMDUzMTY0OS0zNTg&adv_sectkn=55dea06a643eb8a2d267a735fe2683bd&adv_name=appier-api&payout=2.0,idfa_0F076A54-1622-4440-BFB7-4330CAC85B7E,ja
IAWJC7cXQtqKuBqWVzJcAA,doglobal_api,649_10531649,install,2.0,210.149.155.145,0E37BCBE-AC22-45AD-ADA1-9C5EF055BD86,1559268539,2019-05-31 10:08:59,1559268680,2019-05-31 10:11:20,1559268711,P_7997bb2672cc0a4d-NjQ5Xy0xMjY3MTU1MS0yMDAwLTIyMDAtMDUzMS0xMDUzMTY0OS0zNTg,http://pb.xyz.duunion.com/conv?tid=P_7997bb2672cc0a4d-NjQ5Xy0xMjY3MTU1MS0yMDAwLTIyMDAtMDUzMS0xMDUzMTY0OS0zNTg&adv_sectkn=55dea06a643eb8a2d267a735fe2683bd&adv_name=appier-api&payout=2.0,idfa_0E37BCBE-AC22-45AD-ADA1-9C5EF055BD86,ja
IAWJC7cXQtqKuBqWVzJcAA,doglobal_api,649_10531649,install,2.0,153.136.149.37,F696DC15-5320-4C33-8D16-5519D79DF9F3,1559272715,2019-05-31 11:18:35,1559272872,2019-05-31 11:21:12,1559272911,P_62a9e1b7efd39e70-NjQ5Xy0xMjY3MTU1MS0yMDAwLTIyMDAtMDUzMS0xMDUzMTY0OS0zNTg,http://pb.xyz.duunion.com/conv?tid=P_62a9e1b7efd39e70-NjQ5Xy0xMjY3MTU1MS0yMDAwLTIyMDAtMDUzMS0xMDUzMTY0OS0zNTg&adv_sectkn=55dea06a643eb8a2d267a735fe2683bd&adv_name=appier-api&payout=2.0,idfa_F696DC15-5320-4C33-8D16-5519D79DF9F3,ja
