cid,partner_id,channel_id,action_id,cpi,ip,idfa,click time,click datetime,install time,install datetime,postback time,click id,postback url,unique user id
VOGzLPQfRLOcV9h-lu0grA,doglobal_api,819_10516819,Install,5.0,122.23.175.129,AC962ACF-6C80-4C07-9D3B-F495AB243B62,1557987891,2019-05-16 14:24:51,1557988039,2019-05-16 14:27:19,1557988039,B_774e63c60e0a2a94-ODE5Xy0xNDI3NzY0NC01MDAwLTU1MDAtMDUxNi0xMDUxNjgxOS03MF8xNl9wMTYwNg,http://pb.xyz.duunion.com/conv?tid=B_774e63c60e0a2a94-ODE5Xy0xNDI3NzY0NC01MDAwLTU1MDAtMDUxNi0xMDUxNjgxOS03MF8xNl9wMTYwNg&adv_sectkn=55dea06a643eb8a2d267a735fe2683bd&adv_name=appier-api&payout=5.0,idfa_AC962ACF-6C80-4C07-9D3B-F495AB243B62,ja
VOGzLPQfRLOcV9h-lu0grA,doglobal_api,819_10516819,Install,5.0,114.191.204.74,9AD45827-80C0-453E-A5A4-62C39A22525D,1557988475,2019-05-16 14:34:35,1557988577,2019-05-16 14:36:17,1557988577,P_625502485a25581a-ODE5Xy0xNDI3NzY0NC01MDAwLTU1MDAtMDUxNi0xMDUxNjgxOS03MF8xNl9wMTc2NA,http://pb.xyz.duunion.com/conv?tid=P_625502485a25581a-ODE5Xy0xNDI3NzY0NC01MDAwLTU1MDAtMDUxNi0xMDUxNjgxOS03MF8xNl9wMTc2NA&adv_sectkn=55dea06a643eb8a2d267a735fe2683bd&adv_name=appier-api&payout=5.0,idfa_9AD45827-80C0-453E-A5A4-62C39A22525D,ja
VOGzLPQfRLOcV9h-lu0grA,doglobal_api,819_10516819,Install,5.0,60.105.183.233,7AC5D7D8-AC4E-4688-A217-FD62AA2D3ED4,1557988486,2019-05-16 14:34:46,1557988587,2019-05-16 14:36:27,1557988587,B_231c4c44f866937e-ODE5Xy0xNDI3NzY0NC01MDAwLTU1MDAtMDUxNi0xMDUxNjgxOS03MF8xNl9wMTc2NA,http://pb.xyz.duunion.com/conv?tid=B_231c4c44f866937e-ODE5Xy0xNDI3NzY0NC01MDAwLTU1MDAtMDUxNi0xMDUxNjgxOS03MF8xNl9wMTc2NA&adv_sectkn=55dea06a643eb8a2d267a735fe2683bd&adv_name=appier-api&payout=5.0,idfa_7AC5D7D8-AC4E-4688-A217-FD62AA2D3ED4,ja
VOGzLPQfRLOcV9h-lu0grA,doglobal_api,819_10516819,Install,5.0,60.47.217.102,F8F65B0F-4D0E-46C7-8736-63DA7D190853,1557988422,2019-05-16 14:33:42,1557988526,2019-05-16 14:35:26,1557988526,P_b29debb92e0db85b-ODE5Xy0xNDI3NzY0NC01MDAwLTU1MDAtMDUxNi0xMDUxNjgxOS03MF8xNl9wMTc2NA,http://pb.xyz.duunion.com/conv?tid=P_b29debb92e0db85b-ODE5Xy0xNDI3NzY0NC01MDAwLTU1MDAtMDUxNi0xMDUxNjgxOS03MF8xNl9wMTc2NA&adv_sectkn=55dea06a643eb8a2d267a735fe2683bd&adv_name=appier-api&payout=5.0,idfa_F8F65B0F-4D0E-46C7-8736-63DA7D190853,ja
VOGzLPQfRLOcV9h-lu0grA,doglobal_api,819_10516819,Install,5.0,60.100.200.36,4E69E097-9F42-4E9F-9FC5-345492BF55A0,1557988402,2019-05-16 14:33:22,1557988505,2019-05-16 14:35:05,1557988505,P_164fdafc3cf1232c-ODE5Xy0xNDI3NzY0NC01MDAwLTU1MDAtMDUxNi0xMDUxNjgxOS03MF8xNl9wMTc2NA,http://pb.xyz.duunion.com/conv?tid=P_164fdafc3cf1232c-ODE5Xy0xNDI3NzY0NC01MDAwLTU1MDAtMDUxNi0xMDUxNjgxOS03MF8xNl9wMTc2NA&adv_sectkn=55dea06a643eb8a2d267a735fe2683bd&adv_name=appier-api&payout=5.0,idfa_4E69E097-9F42-4E9F-9FC5-345492BF55A0,ja
VOGzLPQfRLOcV9h-lu0grA,doglobal_api,819_70_28_p1606_994101_187,Install,5.0,116.220.33.131,FFDE65B2-2E1B-4D9C-B5E5-FFB646E87D89,1558144064,2019-05-18 09:47:44,1558144165,2019-05-18 09:49:25,1558144165,P_92faff88fd8086c6-ODE5Xy0xNDI3NzY0NC01MDAwLTU1MDAtMDUxOC0t,http://pb.xyz.duunion.com/conv?tid=P_92faff88fd8086c6-ODE5Xy0xNDI3NzY0NC01MDAwLTU1MDAtMDUxOC0t&adv_sectkn=55dea06a643eb8a2d267a735fe2683bd&adv_name=appier-api&payout=5.0,idfa_FFDE65B2-2E1B-4D9C-B5E5-FFB646E87D89,ja
VOGzLPQfRLOcV9h-lu0grA,doglobal_api,819_10516819,Install,5.0,118.241.125.16,12890982-5009-4EEE-8DB0-3BA475C94FA9,1557988453,2019-05-16 14:34:13,1557988560,2019-05-16 14:36:00,1557988560,B_9c03ba566fd867a9-ODE5Xy0xNDI3NzY0NC01MDAwLTU1MDAtMDUxNi0xMDUxNjgxOS03MF8xNl9wMTc2NA,http://pb.xyz.duunion.com/conv?tid=B_9c03ba566fd867a9-ODE5Xy0xNDI3NzY0NC01MDAwLTU1MDAtMDUxNi0xMDUxNjgxOS03MF8xNl9wMTc2NA&adv_sectkn=55dea06a643eb8a2d267a735fe2683bd&adv_name=appier-api&payout=5.0,idfa_12890982-5009-4EEE-8DB0-3BA475C94FA9,ja
VOGzLPQfRLOcV9h-lu0grA,doglobal_api,819_10516819,Install,5.0,58.92.102.61,EE1C9FB8-A623-4BF0-8FFF-EDC69CF8EFCB,1557984345,2019-05-16 13:25:45,1557984448,2019-05-16 13:27:28,1557984448,P_2d8380af27831f7a-ODE5Xy0xNDI3NzY0NC01MDAwLTU1MDAtMDUxNi0xMDUxNjgxOS03MF8xNl9wMTc2NA,http://pb.xyz.duunion.com/conv?tid=P_2d8380af27831f7a-ODE5Xy0xNDI3NzY0NC01MDAwLTU1MDAtMDUxNi0xMDUxNjgxOS03MF8xNl9wMTc2NA&adv_sectkn=55dea06a643eb8a2d267a735fe2683bd&adv_name=appier-api&payout=5.0,idfa_EE1C9FB8-A623-4BF0-8FFF-EDC69CF8EFCB,ja
VOGzLPQfRLOcV9h-lu0grA,doglobal_api,819_10516819,Install,5.0,219.44.166.22,40B392C8-7B9A-4436-BD52-132137D66843,1557987758,2019-05-16 14:22:38,1557987878,2019-05-16 14:24:38,1557987878,P_067b03992d07cb3f-ODE5Xy0xNDI3NzY0NC01MDAwLTU1MDAtMDUxNi0xMDUxNjgxOS03MF8xNl9wMTc2NA,http://pb.xyz.duunion.com/conv?tid=P_067b03992d07cb3f-ODE5Xy0xNDI3NzY0NC01MDAwLTU1MDAtMDUxNi0xMDUxNjgxOS03MF8xNl9wMTc2NA&adv_sectkn=55dea06a643eb8a2d267a735fe2683bd&adv_name=appier-api&payout=5.0,idfa_40B392C8-7B9A-4436-BD52-132137D66843,ja
VOGzLPQfRLOcV9h-lu0grA,doglobal_api,819_10516819,Install,5.0,221.191.143.131,3D02771E-7469-4C7C-B339-88BD641DCD0F,1557988426,2019-05-16 14:33:46,1557988533,2019-05-16 14:35:33,1557988533,P_35fc9d2b86a11f3f-ODE5Xy0xNDI3NzY0NC01MDAwLTU1MDAtMDUxNi0xMDUxNjgxOS03MF8xNl9wMTc2NA,http://pb.xyz.duunion.com/conv?tid=P_35fc9d2b86a11f3f-ODE5Xy0xNDI3NzY0NC01MDAwLTU1MDAtMDUxNi0xMDUxNjgxOS03MF8xNl9wMTc2NA&adv_sectkn=55dea06a643eb8a2d267a735fe2683bd&adv_name=appier-api&payout=5.0,idfa_3D02771E-7469-4C7C-B339-88BD641DCD0F,ja
VOGzLPQfRLOcV9h-lu0grA,doglobal_api,819_10516819,Install,5.0,42.124.27.79,17DB1E99-136D-475A-AA4D-BBAF67E72F59,1557988376,2019-05-16 14:32:56,1557988477,2019-05-16 14:34:37,1557988477,P_9fcd86b658a93892-ODE5Xy0xNDI3NzY0NC01MDAwLTU1MDAtMDUxNi0xMDUxNjgxOS03MF8xNl9wMTc2NA,http://pb.xyz.duunion.com/conv?tid=P_9fcd86b658a93892-ODE5Xy0xNDI3NzY0NC01MDAwLTU1MDAtMDUxNi0xMDUxNjgxOS03MF8xNl9wMTc2NA&adv_sectkn=55dea06a643eb8a2d267a735fe2683bd&adv_name=appier-api&payout=5.0,idfa_17DB1E99-136D-475A-AA4D-BBAF67E72F59,ja
VOGzLPQfRLOcV9h-lu0grA,doglobal_api,819_10516819,Install,5.0,171.231.131.217,EA12D20A-3DF0-4D1E-A4FD-5AD7BEDE45C1,1557986328,2019-05-16 13:58:48,1557986417,2019-05-16 14:00:17,1557986417,B_e1c021401d7305b3-ODE5Xy0xNDI3NzY0NC01MDAwLTU1MDAtMDUxNi0xMDUxNjgxOS03MF8xNl9wMTYwNg,http://pb.xyz.duunion.com/conv?tid=B_e1c021401d7305b3-ODE5Xy0xNDI3NzY0NC01MDAwLTU1MDAtMDUxNi0xMDUxNjgxOS03MF8xNl9wMTYwNg&adv_sectkn=55dea06a643eb8a2d267a735fe2683bd&adv_name=appier-api&payout=5.0,idfa_EA12D20A-3DF0-4D1E-A4FD-5AD7BEDE45C1,ja
VOGzLPQfRLOcV9h-lu0grA,doglobal_api,819_10516819,Install,5.0,126.121.18.122,3C115425-75F2-4E1E-AE65-A4AF68B47F58,1557988476,2019-05-16 14:34:36,1557988579,2019-05-16 14:36:19,1557988579,B_8fa67c161831c9ad-ODE5Xy0xNDI3NzY0NC01MDAwLTU1MDAtMDUxNi0xMDUxNjgxOS03MF8xNl9wMTc2NA,http://pb.xyz.duunion.com/conv?tid=B_8fa67c161831c9ad-ODE5Xy0xNDI3NzY0NC01MDAwLTU1MDAtMDUxNi0xMDUxNjgxOS03MF8xNl9wMTc2NA&adv_sectkn=55dea06a643eb8a2d267a735fe2683bd&adv_name=appier-api&payout=5.0,idfa_3C115425-75F2-4E1E-AE65-A4AF68B47F58,ja
VOGzLPQfRLOcV9h-lu0grA,doglobal_api,819_10516819,Install,5.0,222.150.69.160,C8980661-0CC1-4FF8-B184-56B69A07B6E6,1557988472,2019-05-16 14:34:32,1557988575,2019-05-16 14:36:15,1557988575,P_5e4df236bfdcc512-ODE5Xy0xNDI3NzY0NC01MDAwLTU1MDAtMDUxNi0xMDUxNjgxOS03MF8xNl9wMTc2NA,http://pb.xyz.duunion.com/conv?tid=P_5e4df236bfdcc512-ODE5Xy0xNDI3NzY0NC01MDAwLTU1MDAtMDUxNi0xMDUxNjgxOS03MF8xNl9wMTc2NA&adv_sectkn=55dea06a643eb8a2d267a735fe2683bd&adv_name=appier-api&payout=5.0,idfa_C8980661-0CC1-4FF8-B184-56B69A07B6E6,ja
VOGzLPQfRLOcV9h-lu0grA,doglobal_api,819_10516819,Install,5.0,218.219.182.245,E9FD2B5F-70F3-488C-989E-96C02D7841CE,1557988379,2019-05-16 14:32:59,1557988481,2019-05-16 14:34:41,1557988481,B_a5ff5f623d9ba4ac-ODE5Xy0xNDI3NzY0NC01MDAwLTU1MDAtMDUxNi0xMDUxNjgxOS03MF8xNl9wMTc2NA,http://pb.xyz.duunion.com/conv?tid=B_a5ff5f623d9ba4ac-ODE5Xy0xNDI3NzY0NC01MDAwLTU1MDAtMDUxNi0xMDUxNjgxOS03MF8xNl9wMTc2NA&adv_sectkn=55dea06a643eb8a2d267a735fe2683bd&adv_name=appier-api&payout=5.0,idfa_E9FD2B5F-70F3-488C-989E-96C02D7841CE,ja
VOGzLPQfRLOcV9h-lu0grA,doglobal_api,819_10516819,Install,5.0,125.203.4.225,9763FD72-833E-4E03-AD27-19F7D5168A3F,1557988479,2019-05-16 14:34:39,1557988583,2019-05-16 14:36:23,1557988583,P_5d1c634be49319fd-ODE5Xy0xNDI3NzY0NC01MDAwLTU1MDAtMDUxNi0xMDUxNjgxOS03MF8xNl9wMTc2NA,http://pb.xyz.duunion.com/conv?tid=P_5d1c634be49319fd-ODE5Xy0xNDI3NzY0NC01MDAwLTU1MDAtMDUxNi0xMDUxNjgxOS03MF8xNl9wMTc2NA&adv_sectkn=55dea06a643eb8a2d267a735fe2683bd&adv_name=appier-api&payout=5.0,idfa_9763FD72-833E-4E03-AD27-19F7D5168A3F,ja
VOGzLPQfRLOcV9h-lu0grA,doglobal_api,819_10516819,Install,5.0,182.167.18.191,6E3FE410-2CAD-4911-B71F-EB9FDB46A385,1557988418,2019-05-16 14:33:38,1557988517,2019-05-16 14:35:17,1557988517,B_652ba92a0348d61a-ODE5Xy0xNDI3NzY0NC01MDAwLTU1MDAtMDUxNi0xMDUxNjgxOS03MF8xNl9wMTc2NA,http://pb.xyz.duunion.com/conv?tid=B_652ba92a0348d61a-ODE5Xy0xNDI3NzY0NC01MDAwLTU1MDAtMDUxNi0xMDUxNjgxOS03MF8xNl9wMTc2NA&adv_sectkn=55dea06a643eb8a2d267a735fe2683bd&adv_name=appier-api&payout=5.0,idfa_6E3FE410-2CAD-4911-B71F-EB9FDB46A385,ja
VOGzLPQfRLOcV9h-lu0grA,doglobal_api,819_10516819,Install,5.0,133.203.135.17,D98F6BA1-8C08-40AD-B1CF-28A8C502A397,1557988493,2019-05-16 14:34:53,1557988619,2019-05-16 14:36:59,1557988619,B_115510105b3e91f2-ODE5Xy0xNDI3NzY0NC01MDAwLTU1MDAtMDUxNi0xMDUxNjgxOS03MF8xNl9wMTc2NA,http://pb.xyz.duunion.com/conv?tid=B_115510105b3e91f2-ODE5Xy0xNDI3NzY0NC01MDAwLTU1MDAtMDUxNi0xMDUxNjgxOS03MF8xNl9wMTc2NA&adv_sectkn=55dea06a643eb8a2d267a735fe2683bd&adv_name=appier-api&payout=5.0,idfa_D98F6BA1-8C08-40AD-B1CF-28A8C502A397,ja
VOGzLPQfRLOcV9h-lu0grA,doglobal_api,819_10516819,Install,5.0,106.165.224.40,042D838F-7B5B-4904-85F3-1B4D3DB3FE81,1557981581,2019-05-16 12:39:41,1557982015,2019-05-16 12:46:55,1557982015,B_e22d05b8ec20af9c-ODE5Xy0xNDI3NzY0NC01MDAwLTU1MDAtMDUxNi0xMDUxNjgxOS03MF8xNl9wMTc2NA,http://pb.xyz.duunion.com/conv?tid=B_e22d05b8ec20af9c-ODE5Xy0xNDI3NzY0NC01MDAwLTU1MDAtMDUxNi0xMDUxNjgxOS03MF8xNl9wMTc2NA&adv_sectkn=55dea06a643eb8a2d267a735fe2683bd&adv_name=appier-api&payout=5.0,idfa_042D838F-7B5B-4904-85F3-1B4D3DB3FE81,ja
VOGzLPQfRLOcV9h-lu0grA,doglobal_api,819_10516819,Install,5.0,60.37.120.114,F3566AD7-1415-471F-A0A1-C7C4133FC71B,1557988481,2019-05-16 14:34:41,1557988589,2019-05-16 14:36:29,1557988589,B_52c721e07cf51bca-ODE5Xy0xNDI3NzY0NC01MDAwLTU1MDAtMDUxNi0xMDUxNjgxOS03MF8xNl9wMTc2NA,http://pb.xyz.duunion.com/conv?tid=B_52c721e07cf51bca-ODE5Xy0xNDI3NzY0NC01MDAwLTU1MDAtMDUxNi0xMDUxNjgxOS03MF8xNl9wMTc2NA&adv_sectkn=55dea06a643eb8a2d267a735fe2683bd&adv_name=appier-api&payout=5.0,idfa_F3566AD7-1415-471F-A0A1-C7C4133FC71B,ja
VOGzLPQfRLOcV9h-lu0grA,doglobal_api,819_10516819,Install,5.0,124.215.128.121,929F656E-93D7-46C0-9639-EFF4DE12FADC,1557988387,2019-05-16 14:33:07,1557988487,2019-05-16 14:34:47,1557988487,P_c36a25eb7a275407-ODE5Xy0xNDI3NzY0NC01MDAwLTU1MDAtMDUxNi0xMDUxNjgxOS03MF8xNl9wMTc2NA,http://pb.xyz.duunion.com/conv?tid=P_c36a25eb7a275407-ODE5Xy0xNDI3NzY0NC01MDAwLTU1MDAtMDUxNi0xMDUxNjgxOS03MF8xNl9wMTc2NA&adv_sectkn=55dea06a643eb8a2d267a735fe2683bd&adv_name=appier-api&payout=5.0,idfa_929F656E-93D7-46C0-9639-EFF4DE12FADC,ja
