cid,partner_id,channel_id,action_id,cpi,ip,idfa,click time,click datetime,install time,install datetime,postback time,click id,postback url,unique user id
EN6-FUTnQ1CGp65FIKYYhQ,doglobal_api,973_10520973,Install,1.0,1.164.92.95,7F6724AD-3938-4A90-86C6-59F0E3A288F8,1558350116,2019-05-20 19:01:56,1558350145,2019-05-20 19:02:25,1558350176,P_d98d7252cdc9bc0b-OTczXy0xMjA4NjA5Ni0xMDAwLTExMDAtMDUyMC0xMDUyMDk3My0,http://pb.xyz.duunion.com/conv?tid=P_d98d7252cdc9bc0b-OTczXy0xMjA4NjA5Ni0xMDAwLTExMDAtMDUyMC0xMDUyMDk3My0&adv_sectkn=55dea06a643eb8a2d267a735fe2683bd&adv_name=appier-api&payout=1.0,idfa_7F6724AD-3938-4A90-86C6-59F0E3A288F8,zh-Hant-TW
EN6-FUTnQ1CGp65FIKYYhQ,doglobal_api,973_10520973,Install,1.0,36.236.228.155,B1917EEE-42A2-44A3-B2CF-54B0A55F87C4,1558360666,2019-05-20 21:57:46,1558360777,2019-05-20 21:59:37,1558360807,B_c6f16ecceadc14d2-OTczXy0xMjA4NjA5Ni0xMDAwLTExMDAtMDUyMC0xMDUyMDk3My0,http://pb.xyz.duunion.com/conv?tid=B_c6f16ecceadc14d2-OTczXy0xMjA4NjA5Ni0xMDAwLTExMDAtMDUyMC0xMDUyMDk3My0&adv_sectkn=55dea06a643eb8a2d267a735fe2683bd&adv_name=appier-api&payout=1.0,idfa_B1917EEE-42A2-44A3-B2CF-54B0A55F87C4,zh-Hant-TW
EN6-FUTnQ1CGp65FIKYYhQ,doglobal_api,973_10520973,Install,1.0,114.40.98.248,11B7BCAA-A7CF-4D78-93AE-8AB492793D2B,1558351735,2019-05-20 19:28:55,1558351773,2019-05-20 19:29:33,1558351804,B_ff1ca4a80f6d0da7-OTczXy0xMjA4NjA5Ni0xMDAwLTExMDAtMDUyMC0xMDUyMDk3My0,http://pb.xyz.duunion.com/conv?tid=B_ff1ca4a80f6d0da7-OTczXy0xMjA4NjA5Ni0xMDAwLTExMDAtMDUyMC0xMDUyMDk3My0&adv_sectkn=55dea06a643eb8a2d267a735fe2683bd&adv_name=appier-api&payout=1.0,idfa_11B7BCAA-A7CF-4D78-93AE-8AB492793D2B,zh-Hant-TW
EN6-FUTnQ1CGp65FIKYYhQ,doglobal_api,973_10520973,Install,1.0,220.136.141.182,B833D0ED-6BCE-4968-AE17-35BA97B558CD,1558351561,2019-05-20 19:26:01,1558351597,2019-05-20 19:26:37,1558351628,P_0c3f8c8d3febe762-OTczXy0xMjA4NjA5Ni0xMDAwLTExMDAtMDUyMC0xMDUyMDk3My0,http://pb.xyz.duunion.com/conv?tid=P_0c3f8c8d3febe762-OTczXy0xMjA4NjA5Ni0xMDAwLTExMDAtMDUyMC0xMDUyMDk3My0&adv_sectkn=55dea06a643eb8a2d267a735fe2683bd&adv_name=appier-api&payout=1.0,idfa_B833D0ED-6BCE-4968-AE17-35BA97B558CD,zh-Hant-TW
EN6-FUTnQ1CGp65FIKYYhQ,doglobal_api,973_10520973,Install,1.0,61.231.131.52,5CD119CF-4223-43AB-815E-4AF8F3C86461,1558350884,2019-05-20 19:14:44,1558350920,2019-05-20 19:15:20,1558350951,P_41fdda352d9edbdd-OTczXy0xMjA4NjA5Ni0xMDAwLTExMDAtMDUyMC0xMDUyMDk3My0,http://pb.xyz.duunion.com/conv?tid=P_41fdda352d9edbdd-OTczXy0xMjA4NjA5Ni0xMDAwLTExMDAtMDUyMC0xMDUyMDk3My0&adv_sectkn=55dea06a643eb8a2d267a735fe2683bd&adv_name=appier-api&payout=1.0,idfa_5CD119CF-4223-43AB-815E-4AF8F3C86461,zh-Hant-TW
EN6-FUTnQ1CGp65FIKYYhQ,doglobal_api,973_10520973,Install,1.0,111.249.179.18,9A0B43F6-7F42-4DE9-BD1D-5A051D4BF5AD,1558351135,2019-05-20 19:18:55,1558351174,2019-05-20 19:19:34,1558351205,P_4fd6f2563fb488e2-OTczXy0xMjA4NjA5Ni0xMDAwLTExMDAtMDUyMC0xMDUyMDk3My0,http://pb.xyz.duunion.com/conv?tid=P_4fd6f2563fb488e2-OTczXy0xMjA4NjA5Ni0xMDAwLTExMDAtMDUyMC0xMDUyMDk3My0&adv_sectkn=55dea06a643eb8a2d267a735fe2683bd&adv_name=appier-api&payout=1.0,idfa_9A0B43F6-7F42-4DE9-BD1D-5A051D4BF5AD,zh-Hant-TW
EN6-FUTnQ1CGp65FIKYYhQ,doglobal_api,973_10520973,Install,1.0,218.173.162.111,BFBE1302-F50C-4DF3-8CB2-FBEA144B5A84,1558360013,2019-05-20 21:46:53,1558360115,2019-05-20 21:48:35,1558360145,B_40476f2daef6a69c-OTczXy0xMjA4NjA5Ni0xMDAwLTExMDAtMDUyMC0xMDUyMDk3My0,http://pb.xyz.duunion.com/conv?tid=B_40476f2daef6a69c-OTczXy0xMjA4NjA5Ni0xMDAwLTExMDAtMDUyMC0xMDUyMDk3My0&adv_sectkn=55dea06a643eb8a2d267a735fe2683bd&adv_name=appier-api&payout=1.0,idfa_BFBE1302-F50C-4DF3-8CB2-FBEA144B5A84,zh-Hant-TW
EN6-FUTnQ1CGp65FIKYYhQ,doglobal_api,973_10520973,Install,1.0,220.143.164.143,90740F99-69D8-4591-9133-6B71B0DBB9A8,1558351148,2019-05-20 19:19:08,1558351180,2019-05-20 19:19:40,1558351211,P_4d03243bc916c64a-OTczXy0xMjA4NjA5Ni0xMDAwLTExMDAtMDUyMC0xMDUyMDk3My0,http://pb.xyz.duunion.com/conv?tid=P_4d03243bc916c64a-OTczXy0xMjA4NjA5Ni0xMDAwLTExMDAtMDUyMC0xMDUyMDk3My0&adv_sectkn=55dea06a643eb8a2d267a735fe2683bd&adv_name=appier-api&payout=1.0,idfa_90740F99-69D8-4591-9133-6B71B0DBB9A8,zh-Hant-TW
EN6-FUTnQ1CGp65FIKYYhQ,doglobal_api,973_10520973,Install,1.0,111.250.102.39,2C59602A-310F-47CF-B987-1B577DFB8A0A,1558350910,2019-05-20 19:15:10,1558350949,2019-05-20 19:15:49,1558350980,P_a9482e9b968243b6-OTczXy0xMjA4NjA5Ni0xMDAwLTExMDAtMDUyMC0xMDUyMDk3My0,http://pb.xyz.duunion.com/conv?tid=P_a9482e9b968243b6-OTczXy0xMjA4NjA5Ni0xMDAwLTExMDAtMDUyMC0xMDUyMDk3My0&adv_sectkn=55dea06a643eb8a2d267a735fe2683bd&adv_name=appier-api&payout=1.0,idfa_2C59602A-310F-47CF-B987-1B577DFB8A0A,zh-Hant-TW
EN6-FUTnQ1CGp65FIKYYhQ,doglobal_api,973_10520973,Install,1.0,114.39.120.124,60BFA085-29CA-4E37-B6D3-70C0BC9CE8E1,1558349873,2019-05-20 18:57:53,1558349918,2019-05-20 18:58:38,1558349949,B_afde7fa23e5f0092-OTczXy0xMjA4NjA5Ni0xMDAwLTExMDAtMDUyMC0xMDUyMDk3My0,http://pb.xyz.duunion.com/conv?tid=B_afde7fa23e5f0092-OTczXy0xMjA4NjA5Ni0xMDAwLTExMDAtMDUyMC0xMDUyMDk3My0&adv_sectkn=55dea06a643eb8a2d267a735fe2683bd&adv_name=appier-api&payout=1.0,idfa_60BFA085-29CA-4E37-B6D3-70C0BC9CE8E1,zh-Hant-TW
EN6-FUTnQ1CGp65FIKYYhQ,doglobal_api,973_10520973,Install,1.0,118.167.9.228,DADCE4C7-FBCE-4D58-923B-EFCA0415ADA6,1558351226,2019-05-20 19:20:26,1558351264,2019-05-20 19:21:04,1558351294,B_c0e588a8e94cab6a-OTczXy0xMjA4NjA5Ni0xMDAwLTExMDAtMDUyMC0xMDUyMDk3My0,http://pb.xyz.duunion.com/conv?tid=B_c0e588a8e94cab6a-OTczXy0xMjA4NjA5Ni0xMDAwLTExMDAtMDUyMC0xMDUyMDk3My0&adv_sectkn=55dea06a643eb8a2d267a735fe2683bd&adv_name=appier-api&payout=1.0,idfa_DADCE4C7-FBCE-4D58-923B-EFCA0415ADA6,zh-Hant-TW
EN6-FUTnQ1CGp65FIKYYhQ,doglobal_api,973_10520973,Install,1.0,36.230.91.91,F3EBF111-CEA5-48F8-B517-D2731876E346,1558351870,2019-05-20 19:31:10,1558351906,2019-05-20 19:31:46,1558351937,B_ae2b79899c2d4192-OTczXy0xMjA4NjA5Ni0xMDAwLTExMDAtMDUyMC0xMDUyMDk3My0,http://pb.xyz.duunion.com/conv?tid=B_ae2b79899c2d4192-OTczXy0xMjA4NjA5Ni0xMDAwLTExMDAtMDUyMC0xMDUyMDk3My0&adv_sectkn=55dea06a643eb8a2d267a735fe2683bd&adv_name=appier-api&payout=1.0,idfa_F3EBF111-CEA5-48F8-B517-D2731876E346,zh-Hant-TW
EN6-FUTnQ1CGp65FIKYYhQ,doglobal_api,973_10520973,Install,1.0,111.252.180.127,85E5167C-B6E1-4F6B-A3BD-CCB774AB79FE,1558346644,2019-05-20 18:04:04,1558346700,2019-05-20 18:05:00,1558346733,B_937e00f3ecc244c8-OTczXy0xMjA4NjA5Ni0xMDAwLTExMDAtMDUyMC0xMDUyMDk3My0,http://pb.xyz.duunion.com/conv?tid=B_937e00f3ecc244c8-OTczXy0xMjA4NjA5Ni0xMDAwLTExMDAtMDUyMC0xMDUyMDk3My0&adv_sectkn=55dea06a643eb8a2d267a735fe2683bd&adv_name=appier-api&payout=1.0,idfa_85E5167C-B6E1-4F6B-A3BD-CCB774AB79FE,zh-Hant-TW
EN6-FUTnQ1CGp65FIKYYhQ,doglobal_api,973_10520973,Install,1.0,114.43.185.123,85C0A859-5B2E-4079-9237-AA0859BE1B12,1558350035,2019-05-20 19:00:35,1558350066,2019-05-20 19:01:06,1558350097,P_6de602bf8e050576-OTczXy0xMjA4NjA5Ni0xMDAwLTExMDAtMDUyMC0xMDUyMDk3My0,http://pb.xyz.duunion.com/conv?tid=P_6de602bf8e050576-OTczXy0xMjA4NjA5Ni0xMDAwLTExMDAtMDUyMC0xMDUyMDk3My0&adv_sectkn=55dea06a643eb8a2d267a735fe2683bd&adv_name=appier-api&payout=1.0,idfa_85C0A859-5B2E-4079-9237-AA0859BE1B12,zh-Hant-TW
EN6-FUTnQ1CGp65FIKYYhQ,doglobal_api,973_10520973,Install,1.0,118.169.142.91,A49E3D85-1226-47B8-8DBC-3357C4A6D7F0,1558359236,2019-05-20 21:33:56,1558359355,2019-05-20 21:35:55,1558359386,P_98feb4d93dab5eb7-OTczXy0xMjA4NjA5Ni0xMDAwLTExMDAtMDUyMC0xMDUyMDk3My0,http://pb.xyz.duunion.com/conv?tid=P_98feb4d93dab5eb7-OTczXy0xMjA4NjA5Ni0xMDAwLTExMDAtMDUyMC0xMDUyMDk3My0&adv_sectkn=55dea06a643eb8a2d267a735fe2683bd&adv_name=appier-api&payout=1.0,idfa_A49E3D85-1226-47B8-8DBC-3357C4A6D7F0,zh-Hant-TW
EN6-FUTnQ1CGp65FIKYYhQ,doglobal_api,973_10520973,Install,1.0,1.168.207.76,1B91111F-728E-45E3-B2C5-B63FA0637EEE,1558351318,2019-05-20 19:21:58,1558351360,2019-05-20 19:22:40,1558351392,P_eac57b0d006f0958-OTczXy0xMjA4NjA5Ni0xMDAwLTExMDAtMDUyMC0xMDUyMDk3My0,http://pb.xyz.duunion.com/conv?tid=P_eac57b0d006f0958-OTczXy0xMjA4NjA5Ni0xMDAwLTExMDAtMDUyMC0xMDUyMDk3My0&adv_sectkn=55dea06a643eb8a2d267a735fe2683bd&adv_name=appier-api&payout=1.0,idfa_1B91111F-728E-45E3-B2C5-B63FA0637EEE,zh-Hant-TW
EN6-FUTnQ1CGp65FIKYYhQ,doglobal_api,973_10520973,Install,1.0,122.121.73.95,584EDB6D-973A-4071-B437-4EA2D083B121,1558349938,2019-05-20 18:58:58,1558349967,2019-05-20 18:59:27,1558349997,P_226537d74812cce7-OTczXy0xMjA4NjA5Ni0xMDAwLTExMDAtMDUyMC0xMDUyMDk3My0,http://pb.xyz.duunion.com/conv?tid=P_226537d74812cce7-OTczXy0xMjA4NjA5Ni0xMDAwLTExMDAtMDUyMC0xMDUyMDk3My0&adv_sectkn=55dea06a643eb8a2d267a735fe2683bd&adv_name=appier-api&payout=1.0,idfa_584EDB6D-973A-4071-B437-4EA2D083B121,zh-Hant-TW
EN6-FUTnQ1CGp65FIKYYhQ,doglobal_api,973_10520973,Install,1.0,36.228.143.211,84C0FC17-BFE6-44D7-93C8-E9D9D4ECBBEC,1558333499,2019-05-20 14:24:59,1558333564,2019-05-20 14:26:04,1558333596,B_ddf7285ff58ed644-OTczXy0xMjA4NjA5Ni0xMDAwLTExMDAtMDUyMC0xMDUyMDk3My0,http://pb.xyz.duunion.com/conv?tid=B_ddf7285ff58ed644-OTczXy0xMjA4NjA5Ni0xMDAwLTExMDAtMDUyMC0xMDUyMDk3My0&adv_sectkn=55dea06a643eb8a2d267a735fe2683bd&adv_name=appier-api&payout=1.0,idfa_84C0FC17-BFE6-44D7-93C8-E9D9D4ECBBEC,zh-Hant-TW
EN6-FUTnQ1CGp65FIKYYhQ,doglobal_api,973_10520973,Install,1.0,36.231.47.28,BF53CFC7-7C2E-4184-9B9B-F7124899418B,1558333667,2019-05-20 14:27:47,1558333711,2019-05-20 14:28:31,1558333742,P_bdad21309994e6f3-OTczXy0xMjA4NjA5Ni0xMDAwLTExMDAtMDUyMC0xMDUyMDk3My0,http://pb.xyz.duunion.com/conv?tid=P_bdad21309994e6f3-OTczXy0xMjA4NjA5Ni0xMDAwLTExMDAtMDUyMC0xMDUyMDk3My0&adv_sectkn=55dea06a643eb8a2d267a735fe2683bd&adv_name=appier-api&payout=1.0,idfa_BF53CFC7-7C2E-4184-9B9B-F7124899418B,zh-Hant-TW
EN6-FUTnQ1CGp65FIKYYhQ,doglobal_api,973_10520973,Install,1.0,114.25.228.155,FCE8D40F-5C85-4716-ABB4-8F23E2E4790C,1558350457,2019-05-20 19:07:37,1558350498,2019-05-20 19:08:18,1558350530,P_9c449bf303e18331-OTczXy0xMjA4NjA5Ni0xMDAwLTExMDAtMDUyMC0xMDUyMDk3My0,http://pb.xyz.duunion.com/conv?tid=P_9c449bf303e18331-OTczXy0xMjA4NjA5Ni0xMDAwLTExMDAtMDUyMC0xMDUyMDk3My0&adv_sectkn=55dea06a643eb8a2d267a735fe2683bd&adv_name=appier-api&payout=1.0,idfa_FCE8D40F-5C85-4716-ABB4-8F23E2E4790C,zh-Hant-TW
EN6-FUTnQ1CGp65FIKYYhQ,doglobal_api,973_10520973,Install,1.0,114.44.245.106,8FAA7CB8-A1DD-40A3-81CC-1C664F6280AF,1558350549,2019-05-20 19:09:09,1558350589,2019-05-20 19:09:49,1558350627,P_0e77abecbf3625bc-OTczXy0xMjA4NjA5Ni0xMDAwLTExMDAtMDUyMC0xMDUyMDk3My0,http://pb.xyz.duunion.com/conv?tid=P_0e77abecbf3625bc-OTczXy0xMjA4NjA5Ni0xMDAwLTExMDAtMDUyMC0xMDUyMDk3My0&adv_sectkn=55dea06a643eb8a2d267a735fe2683bd&adv_name=appier-api&payout=1.0,idfa_8FAA7CB8-A1DD-40A3-81CC-1C664F6280AF,zh-Hant-TW
EN6-FUTnQ1CGp65FIKYYhQ,doglobal_api,973_10520973,Install,1.0,111.248.31.127,D33C3903-E99E-4EC5-B3D6-748DCBF26521,1558350439,2019-05-20 19:07:19,1558350504,2019-05-20 19:08:24,1558350537,B_c26f1cf330bf05c5-OTczXy0xMjA4NjA5Ni0xMDAwLTExMDAtMDUyMC0xMDUyMDk3My0,http://pb.xyz.duunion.com/conv?tid=B_c26f1cf330bf05c5-OTczXy0xMjA4NjA5Ni0xMDAwLTExMDAtMDUyMC0xMDUyMDk3My0&adv_sectkn=55dea06a643eb8a2d267a735fe2683bd&adv_name=appier-api&payout=1.0,idfa_D33C3903-E99E-4EC5-B3D6-748DCBF26521,zh-Hant-TW
EN6-FUTnQ1CGp65FIKYYhQ,doglobal_api,973_10520973,Install,1.0,114.41.81.89,8BF9FF80-6CC3-4702-BC76-560EFD0862C1,1558346357,2019-05-20 17:59:17,1558346408,2019-05-20 18:00:08,1558346439,P_640e46bd9e50ac64-OTczXy0xMjA4NjA5Ni0xMDAwLTExMDAtMDUyMC0xMDUyMDk3My0,http://pb.xyz.duunion.com/conv?tid=P_640e46bd9e50ac64-OTczXy0xMjA4NjA5Ni0xMDAwLTExMDAtMDUyMC0xMDUyMDk3My0&adv_sectkn=55dea06a643eb8a2d267a735fe2683bd&adv_name=appier-api&payout=1.0,idfa_8BF9FF80-6CC3-4702-BC76-560EFD0862C1,zh-Hant-TW
EN6-FUTnQ1CGp65FIKYYhQ,doglobal_api,973_10520973,Install,1.0,111.240.219.90,F221BA59-525E-489C-91CC-884E47F1D88D,1558351981,2019-05-20 19:33:01,1558352025,2019-05-20 19:33:45,1558352056,B_e9b713e56ce68494-OTczXy0xMjA4NjA5Ni0xMDAwLTExMDAtMDUyMC0xMDUyMDk3My0,http://pb.xyz.duunion.com/conv?tid=B_e9b713e56ce68494-OTczXy0xMjA4NjA5Ni0xMDAwLTExMDAtMDUyMC0xMDUyMDk3My0&adv_sectkn=55dea06a643eb8a2d267a735fe2683bd&adv_name=appier-api&payout=1.0,idfa_F221BA59-525E-489C-91CC-884E47F1D88D,zh-Hant-TW
EN6-FUTnQ1CGp65FIKYYhQ,doglobal_api,973_10520973,Install,1.0,36.239.232.147,7CF1C0C8-A0D2-4F11-A282-E849982226D2,1558351897,2019-05-20 19:31:37,1558351942,2019-05-20 19:32:22,1558351977,B_3880ecafa03aa36c-OTczXy0xMjA4NjA5Ni0xMDAwLTExMDAtMDUyMC0xMDUyMDk3My0,http://pb.xyz.duunion.com/conv?tid=B_3880ecafa03aa36c-OTczXy0xMjA4NjA5Ni0xMDAwLTExMDAtMDUyMC0xMDUyMDk3My0&adv_sectkn=55dea06a643eb8a2d267a735fe2683bd&adv_name=appier-api&payout=1.0,idfa_7CF1C0C8-A0D2-4F11-A282-E849982226D2,zh-Hant-TW
EN6-FUTnQ1CGp65FIKYYhQ,doglobal_api,973_10520973,Install,1.0,36.225.159.115,C3817B0B-DD8C-4F73-BF72-79FCCD32B9D0,1558350542,2019-05-20 19:09:02,1558350586,2019-05-20 19:09:46,1558350617,B_77b9287a7c9ac42d-OTczXy0xMjA4NjA5Ni0xMDAwLTExMDAtMDUyMC0xMDUyMDk3My0,http://pb.xyz.duunion.com/conv?tid=B_77b9287a7c9ac42d-OTczXy0xMjA4NjA5Ni0xMDAwLTExMDAtMDUyMC0xMDUyMDk3My0&adv_sectkn=55dea06a643eb8a2d267a735fe2683bd&adv_name=appier-api&payout=1.0,idfa_C3817B0B-DD8C-4F73-BF72-79FCCD32B9D0,zh-Hant-TW
EN6-FUTnQ1CGp65FIKYYhQ,doglobal_api,973_10520973,Install,1.0,118.160.181.10,797C297C-8B60-4D7C-A1AE-5C9F9C6CA347,1558351977,2019-05-20 19:32:57,1558352017,2019-05-20 19:33:37,1558352050,P_3bf5d48b1c40b928-OTczXy0xMjA4NjA5Ni0xMDAwLTExMDAtMDUyMC0xMDUyMDk3My0,http://pb.xyz.duunion.com/conv?tid=P_3bf5d48b1c40b928-OTczXy0xMjA4NjA5Ni0xMDAwLTExMDAtMDUyMC0xMDUyMDk3My0&adv_sectkn=55dea06a643eb8a2d267a735fe2683bd&adv_name=appier-api&payout=1.0,idfa_797C297C-8B60-4D7C-A1AE-5C9F9C6CA347,zh-Hant-TW
EN6-FUTnQ1CGp65FIKYYhQ,doglobal_api,973_10520973,Install,1.0,36.237.28.122,335A6E0B-43DD-4704-99FC-AA27C8719009,1558351479,2019-05-20 19:24:39,1558351536,2019-05-20 19:25:36,1558351567,B_7e3926e21f5ce9b3-OTczXy0xMjA4NjA5Ni0xMDAwLTExMDAtMDUyMC0xMDUyMDk3My0,http://pb.xyz.duunion.com/conv?tid=B_7e3926e21f5ce9b3-OTczXy0xMjA4NjA5Ni0xMDAwLTExMDAtMDUyMC0xMDUyMDk3My0&adv_sectkn=55dea06a643eb8a2d267a735fe2683bd&adv_name=appier-api&payout=1.0,idfa_335A6E0B-43DD-4704-99FC-AA27C8719009,zh-Hant-TW
EN6-FUTnQ1CGp65FIKYYhQ,doglobal_api,973_10520973,Install,1.0,1.164.3.149,DF9FC028-23C3-42A3-9D01-B2C3584544AE,1558333927,2019-05-20 14:32:07,1558333973,2019-05-20 14:32:53,1558334004,B_faf1a7414416b4be-OTczXy0xMjA4NjA5Ni0xMDAwLTExMDAtMDUyMC0xMDUyMDk3My0,http://pb.xyz.duunion.com/conv?tid=B_faf1a7414416b4be-OTczXy0xMjA4NjA5Ni0xMDAwLTExMDAtMDUyMC0xMDUyMDk3My0&adv_sectkn=55dea06a643eb8a2d267a735fe2683bd&adv_name=appier-api&payout=1.0,idfa_DF9FC028-23C3-42A3-9D01-B2C3584544AE,zh-Hant-TW
EN6-FUTnQ1CGp65FIKYYhQ,doglobal_api,973_10520973,Install,1.0,114.43.100.19,E04FD9BE-0651-4AE2-ADCB-27388C6840D5,1558333385,2019-05-20 14:23:05,1558333421,2019-05-20 14:23:41,1558333596,P_195208ae1438f415-OTczXy0xMjA4NjA5Ni0xMDAwLTExMDAtMDUyMC0xMDUyMDk3My0,http://pb.xyz.duunion.com/conv?tid=P_195208ae1438f415-OTczXy0xMjA4NjA5Ni0xMDAwLTExMDAtMDUyMC0xMDUyMDk3My0&adv_sectkn=55dea06a643eb8a2d267a735fe2683bd&adv_name=appier-api&payout=1.0,idfa_E04FD9BE-0651-4AE2-ADCB-27388C6840D5,zh-Hant-TW
EN6-FUTnQ1CGp65FIKYYhQ,doglobal_api,973_10520973,Install,1.0,111.242.53.118,AC9D96F9-EB1C-44B2-B1C9-35C647D0E5E0,1558350306,2019-05-20 19:05:06,1558350344,2019-05-20 19:05:44,1558350375,P_78d377e79abff03f-OTczXy0xMjA4NjA5Ni0xMDAwLTExMDAtMDUyMC0xMDUyMDk3My0,http://pb.xyz.duunion.com/conv?tid=P_78d377e79abff03f-OTczXy0xMjA4NjA5Ni0xMDAwLTExMDAtMDUyMC0xMDUyMDk3My0&adv_sectkn=55dea06a643eb8a2d267a735fe2683bd&adv_name=appier-api&payout=1.0,idfa_AC9D96F9-EB1C-44B2-B1C9-35C647D0E5E0,zh-Hant-TW
EN6-FUTnQ1CGp65FIKYYhQ,doglobal_api,973_10520973,Install,1.0,36.224.13.175,A7B6FB6A-7BCC-4D12-A954-EA0CA0BCC16A,1558351641,2019-05-20 19:27:21,1558351677,2019-05-20 19:27:57,1558351708,B_dd2f142d603cbd3f-OTczXy0xMjA4NjA5Ni0xMDAwLTExMDAtMDUyMC0xMDUyMDk3My0,http://pb.xyz.duunion.com/conv?tid=B_dd2f142d603cbd3f-OTczXy0xMjA4NjA5Ni0xMDAwLTExMDAtMDUyMC0xMDUyMDk3My0&adv_sectkn=55dea06a643eb8a2d267a735fe2683bd&adv_name=appier-api&payout=1.0,idfa_A7B6FB6A-7BCC-4D12-A954-EA0CA0BCC16A,zh-Hant-TW
EN6-FUTnQ1CGp65FIKYYhQ,doglobal_api,973_10520973,Install,1.0,180.218.136.93,23849CE9-C81E-4B51-8243-F3E26AFAAEE0,1558358031,2019-05-20 21:13:51,1558358147,2019-05-20 21:15:47,1558358177,B_a91f23d43493f821-OTczXy0xMjA4NjA5Ni0xMDAwLTExMDAtMDUyMC0xMDUyMDk3My0,http://pb.xyz.duunion.com/conv?tid=B_a91f23d43493f821-OTczXy0xMjA4NjA5Ni0xMDAwLTExMDAtMDUyMC0xMDUyMDk3My0&adv_sectkn=55dea06a643eb8a2d267a735fe2683bd&adv_name=appier-api&payout=1.0,idfa_23849CE9-C81E-4B51-8243-F3E26AFAAEE0,zh-Hant-TW
EN6-FUTnQ1CGp65FIKYYhQ,doglobal_api,973_10520973,Install,1.0,111.255.135.159,AAF8C796-91B7-409C-9B61-A3A2207F0140,1558351655,2019-05-20 19:27:35,1558351688,2019-05-20 19:28:08,1558351718,B_3484dc144bbd686d-OTczXy0xMjA4NjA5Ni0xMDAwLTExMDAtMDUyMC0xMDUyMDk3My0,http://pb.xyz.duunion.com/conv?tid=B_3484dc144bbd686d-OTczXy0xMjA4NjA5Ni0xMDAwLTExMDAtMDUyMC0xMDUyMDk3My0&adv_sectkn=55dea06a643eb8a2d267a735fe2683bd&adv_name=appier-api&payout=1.0,idfa_AAF8C796-91B7-409C-9B61-A3A2207F0140,zh-Hant-TW
EN6-FUTnQ1CGp65FIKYYhQ,doglobal_api,973_10520973,Install,1.0,123.194.189.151,E3962F3F-F4B3-43B3-B2BF-400DE2A8D9A8,1558360011,2019-05-20 21:46:51,1558360115,2019-05-20 21:48:35,1558360146,P_7aa073ed560c6116-OTczXy0xMjA4NjA5Ni0xMDAwLTExMDAtMDUyMC0xMDUyMDk3My0,http://pb.xyz.duunion.com/conv?tid=P_7aa073ed560c6116-OTczXy0xMjA4NjA5Ni0xMDAwLTExMDAtMDUyMC0xMDUyMDk3My0&adv_sectkn=55dea06a643eb8a2d267a735fe2683bd&adv_name=appier-api&payout=1.0,idfa_E3962F3F-F4B3-43B3-B2BF-400DE2A8D9A8,zh-Hant-TW
EN6-FUTnQ1CGp65FIKYYhQ,doglobal_api,973_10520973,Install,1.0,36.224.13.145,D0325380-BF03-49EF-A9E3-3515995B1777,1558351130,2019-05-20 19:18:50,1558351161,2019-05-20 19:19:21,1558351192,P_59f46ba6665bb7eb-OTczXy0xMjA4NjA5Ni0xMDAwLTExMDAtMDUyMC0xMDUyMDk3My0,http://pb.xyz.duunion.com/conv?tid=P_59f46ba6665bb7eb-OTczXy0xMjA4NjA5Ni0xMDAwLTExMDAtMDUyMC0xMDUyMDk3My0&adv_sectkn=55dea06a643eb8a2d267a735fe2683bd&adv_name=appier-api&payout=1.0,idfa_D0325380-BF03-49EF-A9E3-3515995B1777,zh-Hant-TW
EN6-FUTnQ1CGp65FIKYYhQ,doglobal_api,973_10520973,Install,1.0,36.225.32.90,4770A118-F132-4BE4-A054-637CCDF4A943,1558351668,2019-05-20 19:27:48,1558351733,2019-05-20 19:28:53,1558351765,B_6d2e45fc96773605-OTczXy0xMjA4NjA5Ni0xMDAwLTExMDAtMDUyMC0xMDUyMDk3My0,http://pb.xyz.duunion.com/conv?tid=B_6d2e45fc96773605-OTczXy0xMjA4NjA5Ni0xMDAwLTExMDAtMDUyMC0xMDUyMDk3My0&adv_sectkn=55dea06a643eb8a2d267a735fe2683bd&adv_name=appier-api&payout=1.0,idfa_4770A118-F132-4BE4-A054-637CCDF4A943,zh-Hant-TW
EN6-FUTnQ1CGp65FIKYYhQ,doglobal_api,973_10520973,Install,1.0,1.174.38.76,F917F2B7-353D-4438-8297-81B3691BFA37,1558346283,2019-05-20 17:58:03,1558346325,2019-05-20 17:58:45,1558346356,P_84f437417fc89548-OTczXy0xMjA4NjA5Ni0xMDAwLTExMDAtMDUyMC0xMDUyMDk3My0,http://pb.xyz.duunion.com/conv?tid=P_84f437417fc89548-OTczXy0xMjA4NjA5Ni0xMDAwLTExMDAtMDUyMC0xMDUyMDk3My0&adv_sectkn=55dea06a643eb8a2d267a735fe2683bd&adv_name=appier-api&payout=1.0,idfa_F917F2B7-353D-4438-8297-81B3691BFA37,zh-Hant-TW
EN6-FUTnQ1CGp65FIKYYhQ,doglobal_api,973_10520973,Install,1.0,36.234.61.124,48A0EACD-23AC-4506-87BE-0E95A1CBED95,1558351478,2019-05-20 19:24:38,1558351513,2019-05-20 19:25:13,1558351544,P_33eef2d76e9cc016-OTczXy0xMjA4NjA5Ni0xMDAwLTExMDAtMDUyMC0xMDUyMDk3My0,http://pb.xyz.duunion.com/conv?tid=P_33eef2d76e9cc016-OTczXy0xMjA4NjA5Ni0xMDAwLTExMDAtMDUyMC0xMDUyMDk3My0&adv_sectkn=55dea06a643eb8a2d267a735fe2683bd&adv_name=appier-api&payout=1.0,idfa_48A0EACD-23AC-4506-87BE-0E95A1CBED95,zh-Hant-TW
EN6-FUTnQ1CGp65FIKYYhQ,doglobal_api,973_10520973,Install,1.0,61.62.254.185,B692EAE0-B316-4A62-A2F7-9A31A0EE1A1B,1558351239,2019-05-20 19:20:39,1558351273,2019-05-20 19:21:13,1558351304,P_c33ef196f8590c46-OTczXy0xMjA4NjA5Ni0xMDAwLTExMDAtMDUyMC0xMDUyMDk3My0,http://pb.xyz.duunion.com/conv?tid=P_c33ef196f8590c46-OTczXy0xMjA4NjA5Ni0xMDAwLTExMDAtMDUyMC0xMDUyMDk3My0&adv_sectkn=55dea06a643eb8a2d267a735fe2683bd&adv_name=appier-api&payout=1.0,idfa_B692EAE0-B316-4A62-A2F7-9A31A0EE1A1B,zh-Hant-TW
EN6-FUTnQ1CGp65FIKYYhQ,doglobal_api,973_10520973,Install,1.0,203.73.105.213,CD743A65-3C8C-4B64-868F-8C2C25F9A355,1558333518,2019-05-20 14:25:18,1558333554,2019-05-20 14:25:54,1558333587,B_a33c4c3c518a6893-OTczXy0xMjA4NjA5Ni0xMDAwLTExMDAtMDUyMC0xMDUyMDk3My0,http://pb.xyz.duunion.com/conv?tid=B_a33c4c3c518a6893-OTczXy0xMjA4NjA5Ni0xMDAwLTExMDAtMDUyMC0xMDUyMDk3My0&adv_sectkn=55dea06a643eb8a2d267a735fe2683bd&adv_name=appier-api&payout=1.0,idfa_CD743A65-3C8C-4B64-868F-8C2C25F9A355,zh-Hant-TW
EN6-FUTnQ1CGp65FIKYYhQ,doglobal_api,973_10520973,Install,1.0,61.62.92.149,EE5B7030-28D7-43E8-86F1-EEA50E62C1D1,1558351493,2019-05-20 19:24:53,1558351530,2019-05-20 19:25:30,1558351561,B_dbddda2c45a33df2-OTczXy0xMjA4NjA5Ni0xMDAwLTExMDAtMDUyMC0xMDUyMDk3My0,http://pb.xyz.duunion.com/conv?tid=B_dbddda2c45a33df2-OTczXy0xMjA4NjA5Ni0xMDAwLTExMDAtMDUyMC0xMDUyMDk3My0&adv_sectkn=55dea06a643eb8a2d267a735fe2683bd&adv_name=appier-api&payout=1.0,idfa_EE5B7030-28D7-43E8-86F1-EEA50E62C1D1,zh-Hant-TW
EN6-FUTnQ1CGp65FIKYYhQ,doglobal_api,973_10520973,Install,1.0,1.173.180.104,4B25F8EB-AF81-49AF-B985-399130A6B54A,1558357301,2019-05-20 21:01:41,1558357435,2019-05-20 21:03:55,1558357467,P_656b2f7d3a90a506-OTczXy0xMjA4NjA5Ni0xMDAwLTExMDAtMDUyMC0xMDUyMDk3My0,http://pb.xyz.duunion.com/conv?tid=P_656b2f7d3a90a506-OTczXy0xMjA4NjA5Ni0xMDAwLTExMDAtMDUyMC0xMDUyMDk3My0&adv_sectkn=55dea06a643eb8a2d267a735fe2683bd&adv_name=appier-api&payout=1.0,idfa_4B25F8EB-AF81-49AF-B985-399130A6B54A,zh-Hant-TW
EN6-FUTnQ1CGp65FIKYYhQ,doglobal_api,973_10520973,Install,1.0,36.231.221.207,CFFAE739-C0C7-4500-A024-3896BBBEF28D,1558349960,2019-05-20 18:59:20,1558350001,2019-05-20 19:00:01,1558350032,P_774e78a8637d6462-OTczXy0xMjA4NjA5Ni0xMDAwLTExMDAtMDUyMC0xMDUyMDk3My0,http://pb.xyz.duunion.com/conv?tid=P_774e78a8637d6462-OTczXy0xMjA4NjA5Ni0xMDAwLTExMDAtMDUyMC0xMDUyMDk3My0&adv_sectkn=55dea06a643eb8a2d267a735fe2683bd&adv_name=appier-api&payout=1.0,idfa_CFFAE739-C0C7-4500-A024-3896BBBEF28D,zh-Hant-TW
EN6-FUTnQ1CGp65FIKYYhQ,doglobal_api,973_10520973,Install,1.0,111.240.129.123,DA626E37-9167-4F9D-9EAD-EEFB51E8D7F3,1558346601,2019-05-20 18:03:21,1558346652,2019-05-20 18:04:12,1558346682,B_2974a567847d90f6-OTczXy0xMjA4NjA5Ni0xMDAwLTExMDAtMDUyMC0xMDUyMDk3My0,http://pb.xyz.duunion.com/conv?tid=B_2974a567847d90f6-OTczXy0xMjA4NjA5Ni0xMDAwLTExMDAtMDUyMC0xMDUyMDk3My0&adv_sectkn=55dea06a643eb8a2d267a735fe2683bd&adv_name=appier-api&payout=1.0,idfa_DA626E37-9167-4F9D-9EAD-EEFB51E8D7F3,zh-Hant-TW
EN6-FUTnQ1CGp65FIKYYhQ,doglobal_api,973_10520973,Install,1.0,61.227.17.192,A5A015A1-1218-4074-912E-B2AF92C1B153,1558350128,2019-05-20 19:02:08,1558350163,2019-05-20 19:02:43,1558350194,B_604a61c4321b79f8-OTczXy0xMjA4NjA5Ni0xMDAwLTExMDAtMDUyMC0xMDUyMDk3My0,http://pb.xyz.duunion.com/conv?tid=B_604a61c4321b79f8-OTczXy0xMjA4NjA5Ni0xMDAwLTExMDAtMDUyMC0xMDUyMDk3My0&adv_sectkn=55dea06a643eb8a2d267a735fe2683bd&adv_name=appier-api&payout=1.0,idfa_A5A015A1-1218-4074-912E-B2AF92C1B153,zh-Hant-TW
EN6-FUTnQ1CGp65FIKYYhQ,doglobal_api,973_10520973,Install,1.0,111.252.20.45,C6A808A5-4004-4BA1-BFBC-DC809C931B38,1558346437,2019-05-20 18:00:37,1558346475,2019-05-20 18:01:15,1558346506,P_88cff302b8e5a0a3-OTczXy0xMjA4NjA5Ni0xMDAwLTExMDAtMDUyMC0xMDUyMDk3My0,http://pb.xyz.duunion.com/conv?tid=P_88cff302b8e5a0a3-OTczXy0xMjA4NjA5Ni0xMDAwLTExMDAtMDUyMC0xMDUyMDk3My0&adv_sectkn=55dea06a643eb8a2d267a735fe2683bd&adv_name=appier-api&payout=1.0,idfa_C6A808A5-4004-4BA1-BFBC-DC809C931B38,zh-Hant-TW
EN6-FUTnQ1CGp65FIKYYhQ,doglobal_api,973_10520973,Install,1.0,111.71.19.47,9620D6ED-FAFA-42A6-A8FA-0583F96D4402,1558358035,2019-05-20 21:13:55,1558358172,2019-05-20 21:16:12,1558358203,P_7d6c5e6566e03c04-OTczXy0xMjA4NjA5Ni0xMDAwLTExMDAtMDUyMC0xMDUyMDk3My0,http://pb.xyz.duunion.com/conv?tid=P_7d6c5e6566e03c04-OTczXy0xMjA4NjA5Ni0xMDAwLTExMDAtMDUyMC0xMDUyMDk3My0&adv_sectkn=55dea06a643eb8a2d267a735fe2683bd&adv_name=appier-api&payout=1.0,idfa_9620D6ED-FAFA-42A6-A8FA-0583F96D4402,zh-Hant-TW
EN6-FUTnQ1CGp65FIKYYhQ,doglobal_api,973_10520973,Install,1.0,218.173.162.111,617FFAF4-BE3E-465C-99FB-40C771B54CA4,1558360666,2019-05-20 21:57:46,1558360774,2019-05-20 21:59:34,1558360808,P_97f7178ad83dd291-OTczXy0xMjA4NjA5Ni0xMDAwLTExMDAtMDUyMC0xMDUyMDk3My0,http://pb.xyz.duunion.com/conv?tid=P_97f7178ad83dd291-OTczXy0xMjA4NjA5Ni0xMDAwLTExMDAtMDUyMC0xMDUyMDk3My0&adv_sectkn=55dea06a643eb8a2d267a735fe2683bd&adv_name=appier-api&payout=1.0,idfa_617FFAF4-BE3E-465C-99FB-40C771B54CA4,zh-Hant-TW
EN6-FUTnQ1CGp65FIKYYhQ,doglobal_api,973_10520973,Install,1.0,1.161.91.140,F7EF2A45-7F4A-473F-A6B9-93543F4B4B46,1558346510,2019-05-20 18:01:50,1558346556,2019-05-20 18:02:36,1558346586,B_4329db9db6c3c511-OTczXy0xMjA4NjA5Ni0xMDAwLTExMDAtMDUyMC0xMDUyMDk3My0,http://pb.xyz.duunion.com/conv?tid=B_4329db9db6c3c511-OTczXy0xMjA4NjA5Ni0xMDAwLTExMDAtMDUyMC0xMDUyMDk3My0&adv_sectkn=55dea06a643eb8a2d267a735fe2683bd&adv_name=appier-api&payout=1.0,idfa_F7EF2A45-7F4A-473F-A6B9-93543F4B4B46,zh-Hant-TW
EN6-FUTnQ1CGp65FIKYYhQ,doglobal_api,973_10520973,Install,1.0,1.160.141.203,8A847527-9227-4410-B241-E8597AF7BAD0,1558351830,2019-05-20 19:30:30,1558351862,2019-05-20 19:31:02,1558351895,B_3cc7656b31eb849b-OTczXy0xMjA4NjA5Ni0xMDAwLTExMDAtMDUyMC0xMDUyMDk3My0,http://pb.xyz.duunion.com/conv?tid=B_3cc7656b31eb849b-OTczXy0xMjA4NjA5Ni0xMDAwLTExMDAtMDUyMC0xMDUyMDk3My0&adv_sectkn=55dea06a643eb8a2d267a735fe2683bd&adv_name=appier-api&payout=1.0,idfa_8A847527-9227-4410-B241-E8597AF7BAD0,zh-Hant-TW
