cid,partner_id,channel_id,action_id,cpi,ip,idfa,click time,click datetime,install time,install datetime,postback time,click id,postback url,unique user id
H1BSb_yESiaKCo1QCe7zlA,dotc,_27408_32556_589_1002_10289,install,1.5,221.149.178.11,7A371133-039A-48F8-B3B6-093E152B4211,1558142594,2019-05-18 09:23:14,1558142901,2019-05-18 09:28:21,1558142931,bhctxiewx3zs,http://postback.apx.avazutracking.net/postback.php?advid=30296&subid=bhctxiewx3zs,idfa_7A371133-039A-48F8-B3B6-093E152B4211,ko
H1BSb_yESiaKCo1QCe7zlA,dotc,_27408_32556_589_1002_10289,install,1.5,119.204.60.185,480F4FB4-9420-4485-941D-2B90DB7FAEDB,1558144564,2019-05-18 09:56:04,1558144684,2019-05-18 09:58:04,1558144714,bhv4kwaz5612,http://postback.apx.avazutracking.net/postback.php?advid=30296&subid=bhv4kwaz5612,idfa_480F4FB4-9420-4485-941D-2B90DB7FAEDB,ko
H1BSb_yESiaKCo1QCe7zlA,dotc,_27408_32556_589_1002_10289,install,1.5,1.209.187.2,40973103-C396-4C4B-A278-7DB19D949416,1558143885,2019-05-18 09:44:45,1558143989,2019-05-18 09:46:29,1558144019,bhotfw4j8lu1,http://postback.apx.avazutracking.net/postback.php?advid=30296&subid=bhotfw4j8lu1,idfa_40973103-C396-4C4B-A278-7DB19D949416,ko
H1BSb_yESiaKCo1QCe7zlA,dotc,_27408_32556_589_1002_10289,install,1.5,121.167.7.140,ADA00D84-C01D-482D-A3D0-EA11338908F4,1558144795,2019-05-18 09:59:55,1558144869,2019-05-18 10:01:09,1558144900,bhx9p0vxybth,http://postback.apx.avazutracking.net/postback.php?advid=30296&subid=bhx9p0vxybth,idfa_ADA00D84-C01D-482D-A3D0-EA11338908F4,ko
H1BSb_yESiaKCo1QCe7zlA,dotc,_27408_32556_589_1002_10289,install,1.5,175.230.39.122,D434C152-6A6A-460C-A54A-6B3637A02992,1558145875,2019-05-18 10:17:55,1558145983,2019-05-18 10:19:43,1558146013,ch9yz246w1dk,http://postback.apx.avazutracking.net/postback.php?advid=30296&subid=ch9yz246w1dk,idfa_D434C152-6A6A-460C-A54A-6B3637A02992,ko
H1BSb_yESiaKCo1QCe7zlA,dotc,_27408_32556_589_1002_10289,install,1.5,121.173.142.131,2AB485BA-1588-4E39-895F-5A68F2CC96CE,1558141270,2019-05-18 09:01:10,1558141528,2019-05-18 09:05:28,1558141558,bh0kctzibysf,http://postback.apx.avazutracking.net/postback.php?advid=30296&subid=bh0kctzibysf,idfa_2AB485BA-1588-4E39-895F-5A68F2CC96CE,ko
H1BSb_yESiaKCo1QCe7zlA,dotc,_27408_32556_589_1002_10289,install,1.5,210.126.248.35,CFDC7A14-D2F5-4D26-8AD2-96D03BCFBBAC,1558144338,2019-05-18 09:52:18,1558144475,2019-05-18 09:54:35,1558144506,bht10q6ebcin,http://postback.apx.avazutracking.net/postback.php?advid=30296&subid=bht10q6ebcin,idfa_CFDC7A14-D2F5-4D26-8AD2-96D03BCFBBAC,ko
H1BSb_yESiaKCo1QCe7zlA,dotc,_27408_32556_589_1002_10289,install,1.5,115.94.73.2,9F2A2363-8071-4A31-A32F-DC74E0FAECB7,1558142245,2019-05-18 09:17:25,1558142420,2019-05-18 09:20:20,1558142450,bh9m25i9wced,http://postback.apx.avazutracking.net/postback.php?advid=30296&subid=bh9m25i9wced,idfa_9F2A2363-8071-4A31-A32F-DC74E0FAECB7,ko
H1BSb_yESiaKCo1QCe7zlA,dotc,_27408_32556_589_1002_10289,install,1.5,221.158.165.111,5389F69C-1B25-4C55-87D6-78FC905565ED,1558145810,2019-05-18 10:16:50,1558145880,2019-05-18 10:18:00,1558145912,ch9b6bkpeqil,http://postback.apx.avazutracking.net/postback.php?advid=30296&subid=ch9b6bkpeqil,idfa_5389F69C-1B25-4C55-87D6-78FC905565ED,ko
H1BSb_yESiaKCo1QCe7zlA,dotc,_27408_32556_589_1002_10289,install,1.5,125.180.104.39,C416E685-C3F9-4BB7-B15B-9187CEC55D83,1558144216,2019-05-18 09:50:16,1558144444,2019-05-18 09:54:04,1558144475,bhrugpydqnu5,http://postback.apx.avazutracking.net/postback.php?advid=30296&subid=bhrugpydqnu5,idfa_C416E685-C3F9-4BB7-B15B-9187CEC55D83,ko
H1BSb_yESiaKCo1QCe7zlA,dotc,_27408_32556_589_1002_10289,install,1.5,61.74.43.44,7EC68D04-9B23-45D0-B12A-F246700E9416,1558143016,2019-05-18 09:30:16,1558143123,2019-05-18 09:32:03,1558143189,bhgsbyd7y3lh,http://postback.apx.avazutracking.net/postback.php?advid=30296&subid=bhgsbyd7y3lh,idfa_7EC68D04-9B23-45D0-B12A-F246700E9416,ko
H1BSb_yESiaKCo1QCe7zlA,dotc,_27408_32556_589_1002_10289,install,1.5,218.146.86.246,12F95BD3-8429-433B-AB1E-7DE5B08F72FD,1558144418,2019-05-18 09:53:38,1558144503,2019-05-18 09:55:03,1558144533,bhtrvzafq4ic,http://postback.apx.avazutracking.net/postback.php?advid=30296&subid=bhtrvzafq4ic,idfa_12F95BD3-8429-433B-AB1E-7DE5B08F72FD,ko
H1BSb_yESiaKCo1QCe7zlA,dotc,_27408_32556_589_1002_10289,install,1.5,59.12.38.116,93CDBF79-CC97-4960-9683-A5A9BD239BC3,1558142104,2019-05-18 09:15:04,1558142202,2019-05-18 09:16:42,1558142232,bh8cbzlpw4t6,http://postback.apx.avazutracking.net/postback.php?advid=30296&subid=bh8cbzlpw4t6,idfa_93CDBF79-CC97-4960-9683-A5A9BD239BC3,ko
H1BSb_yESiaKCo1QCe7zlA,dotc,_27408_32556_589_1002_10289,install,1.5,210.126.248.35,B9EB5CCD-94FF-4E62-88F5-72CFDEA88BD4,1558145343,2019-05-18 10:09:03,1558145431,2019-05-18 10:10:31,1558145461,ch50frgtmvbo,http://postback.apx.avazutracking.net/postback.php?advid=30296&subid=ch50frgtmvbo,idfa_B9EB5CCD-94FF-4E62-88F5-72CFDEA88BD4,ko
H1BSb_yESiaKCo1QCe7zlA,dotc,_27408_32556_589_1002_10289,install,1.5,125.137.38.230,473360A8-3890-4A37-99BC-46F7485E0DFC,1558144796,2019-05-18 09:59:56,1558144882,2019-05-18 10:01:22,1558144912,bhx9iu00nzql,http://postback.apx.avazutracking.net/postback.php?advid=30296&subid=bhx9iu00nzql,idfa_473360A8-3890-4A37-99BC-46F7485E0DFC,ko
H1BSb_yESiaKCo1QCe7zlA,dotc,_27408_32556_589_1002_10289,install,1.5,210.126.248.35,9E33838A-C61B-41C5-A844-E18F6E4F5297,1558145630,2019-05-18 10:13:50,1558145725,2019-05-18 10:15:25,1558145756,ch7nc8ebvjqi,http://postback.apx.avazutracking.net/postback.php?advid=30296&subid=ch7nc8ebvjqi,idfa_9E33838A-C61B-41C5-A844-E18F6E4F5297,ko
H1BSb_yESiaKCo1QCe7zlA,dotc,_27408_32556_589_1002_10289,install,1.5,125.137.38.230,997C6094-8E64-4494-8261-BB7D5089EB90,1558145216,2019-05-18 10:06:56,1558145328,2019-05-18 10:08:48,1558145358,ch3tr5uem9w6,http://postback.apx.avazutracking.net/postback.php?advid=30296&subid=ch3tr5uem9w6,idfa_997C6094-8E64-4494-8261-BB7D5089EB90,ko
H1BSb_yESiaKCo1QCe7zlA,dotc,_27408_32556_589_1002_10289,install,1.5,112.216.55.178,B951A390-31DE-46A2-8464-FB30FD3A10FE,1558145943,2019-05-18 10:19:03,1558146032,2019-05-18 10:20:32,1558146062,chak1srak6og,http://postback.apx.avazutracking.net/postback.php?advid=30296&subid=chak1srak6og,idfa_B951A390-31DE-46A2-8464-FB30FD3A10FE,ko
H1BSb_yESiaKCo1QCe7zlA,dotc,_27408_32556_589_1002_10289,install,1.5,119.194.154.25,C8F9B994-117E-4FE4-877A-6464765C32FC,1558142618,2019-05-18 09:23:38,1558142709,2019-05-18 09:25:09,1558142739,bhd1d2mijld8,http://postback.apx.avazutracking.net/postback.php?advid=30296&subid=bhd1d2mijld8,idfa_C8F9B994-117E-4FE4-877A-6464765C32FC,ko
H1BSb_yESiaKCo1QCe7zlA,dotc,_27408_32556_589_1002_10289,install,1.5,183.98.233.92,63B7429E-7B9B-4E77-B258-6C2DF2DBCFB9,1558144505,2019-05-18 09:55:05,1558144649,2019-05-18 09:57:29,1558144679,bhuk0tjewsqk,http://postback.apx.avazutracking.net/postback.php?advid=30296&subid=bhuk0tjewsqk,idfa_63B7429E-7B9B-4E77-B258-6C2DF2DBCFB9,ko
H1BSb_yESiaKCo1QCe7zlA,dotc,_27408_32556_589_1002_10289,install,1.5,106.249.135.226,D5801E8D-4748-426F-AC4B-0007732D0C20,1558143754,2019-05-18 09:42:34,1558143862,2019-05-18 09:44:22,1558143893,bhnk7v3y982w,http://postback.apx.avazutracking.net/postback.php?advid=30296&subid=bhnk7v3y982w,idfa_D5801E8D-4748-426F-AC4B-0007732D0C20,ko
H1BSb_yESiaKCo1QCe7zlA,dotc,_27408_32556_589_1002_10289,install,1.5,218.50.84.75,A92E7273-D7FD-40F0-AABC-60872AE20A4B,1558145137,2019-05-18 10:05:37,1558145270,2019-05-18 10:07:50,1558145300,ch33e78qjf09,http://postback.apx.avazutracking.net/postback.php?advid=30296&subid=ch33e78qjf09,idfa_A92E7273-D7FD-40F0-AABC-60872AE20A4B,ko
H1BSb_yESiaKCo1QCe7zlA,dotc,_27408_32556_589_1002_10289,install,1.5,125.137.38.230,20880EB2-7B68-4D54-93A5-D5FDCEB81C10,1558145744,2019-05-18 10:15:44,1558145826,2019-05-18 10:17:06,1558145856,ch8pzthquqc0,http://postback.apx.avazutracking.net/postback.php?advid=30296&subid=ch8pzthquqc0,idfa_20880EB2-7B68-4D54-93A5-D5FDCEB81C10,ko
H1BSb_yESiaKCo1QCe7zlA,dotc,_27408_32556_589_1002_10289,install,1.5,112.220.86.122,43F673DC-9D89-43B0-9926-759845966A98,1558145815,2019-05-18 10:16:55,1558145946,2019-05-18 10:19:06,1558145977,ch9bwo918f47,http://postback.apx.avazutracking.net/postback.php?advid=30296&subid=ch9bwo918f47,idfa_43F673DC-9D89-43B0-9926-759845966A98,ko
