cid,partner_id,channel_id,action_id,cpi,ip,idfa,click time,click datetime,install time,install datetime,postback time,click id,postback url,unique user id
zzNK1YOzS6K13OZAgis3cA,edge226,75068562_2000_508,install,0.8,112.220.22.106,f6909b89-00bd-4af3-81f2-bed1a7a068db,1559216849,2019-05-30 19:47:29,1559216937,2019-05-30 19:48:57,1559216969,2ed8247caa5f40b6a23d8801a8a6041ayZ,http://clk.myiads.com/conv?p=dd58031696e011e780e142010af0001d&c=2ed8247caa5f40b6a23d8801a8a6041ayZ,idfa_f6909b89-00bd-4af3-81f2-bed1a7a068db,ko
zzNK1YOzS6K13OZAgis3cA,edge226,75068562_2000_508,install,0.8,218.233.172.190,924df0a5-e820-4fed-8516-43e61c291c0e,1559215934,2019-05-30 19:32:14,1559216026,2019-05-30 19:33:46,1559216057,33be26948c0a095ddf5e3bbd296c5db3yZ,http://clk.myiads.com/conv?p=dd58031696e011e780e142010af0001d&c=33be26948c0a095ddf5e3bbd296c5db3yZ,idfa_924df0a5-e820-4fed-8516-43e61c291c0e,ko
zzNK1YOzS6K13OZAgis3cA,edge226,75068562_2000_508,install,0.8,118.44.9.61,ba8a7b19-23d5-40bb-bf01-2a208076423a,1559216857,2019-05-30 19:47:37,1559216950,2019-05-30 19:49:10,1559216981,9ec805f0ee7720c6e65cabaa0d6b0876yZ,http://clk.myiads.com/conv?p=dd58031696e011e780e142010af0001d&c=9ec805f0ee7720c6e65cabaa0d6b0876yZ,idfa_ba8a7b19-23d5-40bb-bf01-2a208076423a,ko
zzNK1YOzS6K13OZAgis3cA,edge226,75068562_2000_508,install,0.8,221.166.217.25,19db3612-0b1b-4bf4-a3a4-41c24efe2150,1559216594,2019-05-30 19:43:14,1559216771,2019-05-30 19:46:11,1559216806,a6257dad684cc008fe88ad757fb75346yZ,http://clk.myiads.com/conv?p=dd58031696e011e780e142010af0001d&c=a6257dad684cc008fe88ad757fb75346yZ,idfa_19db3612-0b1b-4bf4-a3a4-41c24efe2150,ko
zzNK1YOzS6K13OZAgis3cA,edge226,75068562_2000_508,install,0.8,27.116.125.146,68ceb9c9-f93e-4a2f-8a01-03a4c6d76b3b,1559217752,2019-05-30 20:02:32,1559217833,2019-05-30 20:03:53,1559217864,50d14c12d1d452f6f07242da68efee31yZ,http://clk.myiads.com/conv?p=dd58031696e011e780e142010af0001d&c=50d14c12d1d452f6f07242da68efee31yZ,idfa_68ceb9c9-f93e-4a2f-8a01-03a4c6d76b3b,ko
zzNK1YOzS6K13OZAgis3cA,edge226,75068562_2000_508,install,0.8,125.143.229.253,edf6ef04-6014-4314-be22-4743fd44f4bc,1559216533,2019-05-30 19:42:13,1559216615,2019-05-30 19:43:35,1559216647,f5c36a48854c6c9a8a5d2296b1933470yZ,http://clk.myiads.com/conv?p=dd58031696e011e780e142010af0001d&c=f5c36a48854c6c9a8a5d2296b1933470yZ,idfa_edf6ef04-6014-4314-be22-4743fd44f4bc,ko
zzNK1YOzS6K13OZAgis3cA,edge226,75068562_2000_508,install,0.8,61.74.153.52,779f38b4-c471-4665-a50b-6e07ef794e14,1559216514,2019-05-30 19:41:54,1559216612,2019-05-30 19:43:32,1559216643,c8ec779a32df3e8edc4ae706cd43082ayZ,http://clk.myiads.com/conv?p=dd58031696e011e780e142010af0001d&c=c8ec779a32df3e8edc4ae706cd43082ayZ,idfa_779f38b4-c471-4665-a50b-6e07ef794e14,ko
zzNK1YOzS6K13OZAgis3cA,edge226,75068562_2000_508,install,0.8,114.30.165.69,13bbe122-1626-4ad3-875a-596f394d30c4,1559213133,2019-05-30 18:45:33,1559213220,2019-05-30 18:47:00,1559213251,9c92ff3bf6aa3f07e7b8a89e37d71b4cyZ,http://clk.myiads.com/conv?p=dd58031696e011e780e142010af0001d&c=9c92ff3bf6aa3f07e7b8a89e37d71b4cyZ,idfa_13bbe122-1626-4ad3-875a-596f394d30c4,ko
zzNK1YOzS6K13OZAgis3cA,edge226,75068562_2000_508,install,0.8,1.234.5.210,24934ce1-d33f-4e1c-8ad2-872e1068e484,1559213756,2019-05-30 18:55:56,1559213847,2019-05-30 18:57:27,1559213880,ca59ec9535a2ef10a9221fad6df4e3b6yZ,http://clk.myiads.com/conv?p=dd58031696e011e780e142010af0001d&c=ca59ec9535a2ef10a9221fad6df4e3b6yZ,idfa_24934ce1-d33f-4e1c-8ad2-872e1068e484,ko
zzNK1YOzS6K13OZAgis3cA,edge226,75068562_2000_508,install,0.8,110.10.147.164,2e51956b-6cd7-493f-a435-6683522cd560,1559216731,2019-05-30 19:45:31,1559216820,2019-05-30 19:47:00,1559216852,c6c2ab956ea1c869d68155220bafc3b4yZ,http://clk.myiads.com/conv?p=dd58031696e011e780e142010af0001d&c=c6c2ab956ea1c869d68155220bafc3b4yZ,idfa_2e51956b-6cd7-493f-a435-6683522cd560,ko
zzNK1YOzS6K13OZAgis3cA,edge226,75068562_2000_508,install,0.8,61.81.115.75,b0bd3576-d8e9-485e-b0c4-09002dd3d3e3,1559217392,2019-05-30 19:56:32,1559217484,2019-05-30 19:58:04,1559217516,f7e53240787a7644f16f9d3511ccf865yZ,http://clk.myiads.com/conv?p=dd58031696e011e780e142010af0001d&c=f7e53240787a7644f16f9d3511ccf865yZ,idfa_b0bd3576-d8e9-485e-b0c4-09002dd3d3e3,ko
zzNK1YOzS6K13OZAgis3cA,edge226,75068562_2000_508,install,0.8,125.136.43.48,07aaffc3-3f2f-4024-8b3d-c09b7eb858d4,1559214852,2019-05-30 19:14:12,1559214938,2019-05-30 19:15:38,1559214970,bbd78402ce8b314d2c110f752e7ea5a6yZ,http://clk.myiads.com/conv?p=dd58031696e011e780e142010af0001d&c=bbd78402ce8b314d2c110f752e7ea5a6yZ,idfa_07aaffc3-3f2f-4024-8b3d-c09b7eb858d4,ko
zzNK1YOzS6K13OZAgis3cA,edge226,75068562_2000_508,install,0.8,119.194.7.26,d4d11781-8f7d-418f-90e2-c3fddbd33945,1559215832,2019-05-30 19:30:32,1559215919,2019-05-30 19:31:59,1559215951,6063f6590af8daa898ddd7b551694600yZ,http://clk.myiads.com/conv?p=dd58031696e011e780e142010af0001d&c=6063f6590af8daa898ddd7b551694600yZ,idfa_d4d11781-8f7d-418f-90e2-c3fddbd33945,ko
zzNK1YOzS6K13OZAgis3cA,edge226,75068562_2000_508,install,0.8,61.77.105.232,0034c773-979c-4a34-88a1-828a5598a884,1559214534,2019-05-30 19:08:54,1559214615,2019-05-30 19:10:15,1559214646,f5991dd98af99609173bbcb1ad3d9e48yZ,http://clk.myiads.com/conv?p=dd58031696e011e780e142010af0001d&c=f5991dd98af99609173bbcb1ad3d9e48yZ,idfa_0034c773-979c-4a34-88a1-828a5598a884,ko
zzNK1YOzS6K13OZAgis3cA,edge226,75068562_2000_508,install,0.8,59.15.185.17,a573b8cb-3db5-4cb7-812d-9167d8efeaf3,1559214195,2019-05-30 19:03:15,1559214290,2019-05-30 19:04:50,1559214324,ab8c467c8134353f90098112ab370588yZ,http://clk.myiads.com/conv?p=dd58031696e011e780e142010af0001d&c=ab8c467c8134353f90098112ab370588yZ,idfa_a573b8cb-3db5-4cb7-812d-9167d8efeaf3,ko
zzNK1YOzS6K13OZAgis3cA,edge226,75068562_2000_508,install,0.8,61.32.22.171,8b63cdfb-dd78-448b-ad7d-80421b262ac3,1559215174,2019-05-30 19:19:34,1559215265,2019-05-30 19:21:05,1559215297,c07abb0ec4a32690383c45df611d9c6byZ,http://clk.myiads.com/conv?p=dd58031696e011e780e142010af0001d&c=c07abb0ec4a32690383c45df611d9c6byZ,idfa_8b63cdfb-dd78-448b-ad7d-80421b262ac3,ko
zzNK1YOzS6K13OZAgis3cA,edge226,75068562_2000_508,install,0.8,183.98.233.92,3a2f378e-6de5-4b4e-9969-5d4ef319940a,1559217719,2019-05-30 20:01:59,1559217798,2019-05-30 20:03:18,1559217829,6c7a56d02b5b440cbc5793ae0556ed89yZ,http://clk.myiads.com/conv?p=dd58031696e011e780e142010af0001d&c=6c7a56d02b5b440cbc5793ae0556ed89yZ,idfa_3a2f378e-6de5-4b4e-9969-5d4ef319940a,ko
zzNK1YOzS6K13OZAgis3cA,edge226,75068562_2000_508,install,0.8,218.151.86.112,36c18120-33b4-4b37-97d4-92a0a28b7850,1559215855,2019-05-30 19:30:55,1559215944,2019-05-30 19:32:24,1559215975,449aaa4c109e587a7da4cf4277db729byZ,http://clk.myiads.com/conv?p=dd58031696e011e780e142010af0001d&c=449aaa4c109e587a7da4cf4277db729byZ,idfa_36c18120-33b4-4b37-97d4-92a0a28b7850,ko
zzNK1YOzS6K13OZAgis3cA,edge226,75068562_2000_508,install,0.8,118.42.115.142,c19bf3e2-9bd1-4ccd-8d2b-b5a3c9554264,1559217068,2019-05-30 19:51:08,1559217155,2019-05-30 19:52:35,1559217187,366798201afba4539a9462f7747bf216yZ,http://clk.myiads.com/conv?p=dd58031696e011e780e142010af0001d&c=366798201afba4539a9462f7747bf216yZ,idfa_c19bf3e2-9bd1-4ccd-8d2b-b5a3c9554264,ko
zzNK1YOzS6K13OZAgis3cA,edge226,75068562_2000_508,install,0.8,222.111.192.52,0f8b4636-b182-4dd9-bc37-fedde7368c94,1559217308,2019-05-30 19:55:08,1559217390,2019-05-30 19:56:30,1559217423,1bfaf913023c9040a131407067aecfefyZ,http://clk.myiads.com/conv?p=dd58031696e011e780e142010af0001d&c=1bfaf913023c9040a131407067aecfefyZ,idfa_0f8b4636-b182-4dd9-bc37-fedde7368c94,ko
zzNK1YOzS6K13OZAgis3cA,edge226,75068562_2000_508,install,0.8,27.116.255.153,4db357d9-2434-447b-983c-b592c153e1a6,1559215884,2019-05-30 19:31:24,1559215971,2019-05-30 19:32:51,1559216003,fc36e524051e90708d3bc954758ab08cyZ,http://clk.myiads.com/conv?p=dd58031696e011e780e142010af0001d&c=fc36e524051e90708d3bc954758ab08cyZ,idfa_4db357d9-2434-447b-983c-b592c153e1a6,ko
zzNK1YOzS6K13OZAgis3cA,edge226,75068562_2000_508,install,0.8,14.55.204.70,62103227-ebf4-42ca-a9cf-5e1902e80abf,1559216657,2019-05-30 19:44:17,1559216740,2019-05-30 19:45:40,1559216772,35a5b966cf420775c4b8046fceef28e1yZ,http://clk.myiads.com/conv?p=dd58031696e011e780e142010af0001d&c=35a5b966cf420775c4b8046fceef28e1yZ,idfa_62103227-ebf4-42ca-a9cf-5e1902e80abf,ko
zzNK1YOzS6K13OZAgis3cA,edge226,75068562_2000_508,install,0.8,182.208.90.83,7c2823f2-03ad-45c9-a359-7faa66ce4860,1559217506,2019-05-30 19:58:26,1559217598,2019-05-30 19:59:58,1559217629,23cfc57a56a70df7ae6459b857c49d09yZ,http://clk.myiads.com/conv?p=dd58031696e011e780e142010af0001d&c=23cfc57a56a70df7ae6459b857c49d09yZ,idfa_7c2823f2-03ad-45c9-a359-7faa66ce4860,ko
zzNK1YOzS6K13OZAgis3cA,edge226,75068562_2000_508,install,0.8,211.202.42.38,c69d962d-5894-4611-a5c8-6253aa2e769d,1559218124,2019-05-30 20:08:44,1559218208,2019-05-30 20:10:08,1559218240,0026b2679eacd7961df36abdbf02eea9yZ,http://clk.myiads.com/conv?p=dd58031696e011e780e142010af0001d&c=0026b2679eacd7961df36abdbf02eea9yZ,idfa_c69d962d-5894-4611-a5c8-6253aa2e769d,ko
zzNK1YOzS6K13OZAgis3cA,edge226,75068562_2000_508,install,0.8,125.139.180.128,c85e4c0b-6e1c-431a-b84a-09e654b2ba17,1559218103,2019-05-30 20:08:23,1559218192,2019-05-30 20:09:52,1559218224,76558ca2d6dcba4106346f38402a7471yZ,http://clk.myiads.com/conv?p=dd58031696e011e780e142010af0001d&c=76558ca2d6dcba4106346f38402a7471yZ,idfa_c85e4c0b-6e1c-431a-b84a-09e654b2ba17,ko
zzNK1YOzS6K13OZAgis3cA,edge226,75068562_2000_508,install,0.8,220.76.251.168,b4f181ff-00b1-44bb-aeb1-58ea560ae409,1559216135,2019-05-30 19:35:35,1559216221,2019-05-30 19:37:01,1559216252,047e0377c354dbb3d1c5d9ecd7f7c9bayZ,http://clk.myiads.com/conv?p=dd58031696e011e780e142010af0001d&c=047e0377c354dbb3d1c5d9ecd7f7c9bayZ,idfa_b4f181ff-00b1-44bb-aeb1-58ea560ae409,ko
zzNK1YOzS6K13OZAgis3cA,edge226,75068562_2000_508,install,0.8,118.63.20.103,04912c3e-5dfe-496d-9848-b4cef1fb79e6,1559216183,2019-05-30 19:36:23,1559216272,2019-05-30 19:37:52,1559216303,69f41fffa6e71842c399a495fa90a252yZ,http://clk.myiads.com/conv?p=dd58031696e011e780e142010af0001d&c=69f41fffa6e71842c399a495fa90a252yZ,idfa_04912c3e-5dfe-496d-9848-b4cef1fb79e6,ko
zzNK1YOzS6K13OZAgis3cA,edge226,75068562_2000_508,install,0.8,1.214.204.50,d04cf67d-b57e-45a7-a704-66211a4a28e1,1559216262,2019-05-30 19:37:42,1559216354,2019-05-30 19:39:14,1559216386,b8a29dbbeb789438e8259c1553a80f6fyZ,http://clk.myiads.com/conv?p=dd58031696e011e780e142010af0001d&c=b8a29dbbeb789438e8259c1553a80f6fyZ,idfa_d04cf67d-b57e-45a7-a704-66211a4a28e1,ko
zzNK1YOzS6K13OZAgis3cA,edge226,75068562_2000_508,install,0.8,115.4.56.37,ed55be10-31a9-4c94-814b-33b8cfbcb7be,1559217806,2019-05-30 20:03:26,1559217898,2019-05-30 20:04:58,1559217929,849c857a49a5768634562a3fb790d706yZ,http://clk.myiads.com/conv?p=dd58031696e011e780e142010af0001d&c=849c857a49a5768634562a3fb790d706yZ,idfa_ed55be10-31a9-4c94-814b-33b8cfbcb7be,ko
zzNK1YOzS6K13OZAgis3cA,edge226,75068562_2000_508,install,0.8,110.13.153.31,1e73eebb-15b8-4bec-bfb4-9a6c4665a0ab,1559215508,2019-05-30 19:25:08,1559215590,2019-05-30 19:26:30,1559215621,f7008c3a1eefd8638e02d4ef9a0f1684yZ,http://clk.myiads.com/conv?p=dd58031696e011e780e142010af0001d&c=f7008c3a1eefd8638e02d4ef9a0f1684yZ,idfa_1e73eebb-15b8-4bec-bfb4-9a6c4665a0ab,ko
zzNK1YOzS6K13OZAgis3cA,edge226,75068562_2000_508,install,0.8,211.216.48.158,719c1cfa-0f38-4cca-a47e-1f8938c71345,1559216410,2019-05-30 19:40:10,1559216497,2019-05-30 19:41:37,1559216530,3ed482171a103fababf15a8c9a8252d6yZ,http://clk.myiads.com/conv?p=dd58031696e011e780e142010af0001d&c=3ed482171a103fababf15a8c9a8252d6yZ,idfa_719c1cfa-0f38-4cca-a47e-1f8938c71345,ko
zzNK1YOzS6K13OZAgis3cA,edge226,75068562_2000_508,install,0.8,121.159.135.131,51aa7a59-9be7-4636-b532-3c7f377ba6b7,1559217174,2019-05-30 19:52:54,1559217266,2019-05-30 19:54:26,1559217298,66a8c11113aa56acf6c0847a144cbeffyZ,http://clk.myiads.com/conv?p=dd58031696e011e780e142010af0001d&c=66a8c11113aa56acf6c0847a144cbeffyZ,idfa_51aa7a59-9be7-4636-b532-3c7f377ba6b7,ko
zzNK1YOzS6K13OZAgis3cA,edge226,75068562_2000_508,install,0.8,222.110.155.108,ffa5860c-4f3c-4e58-b704-c611eabb7ed2,1559217332,2019-05-30 19:55:32,1559217418,2019-05-30 19:56:58,1559217450,be8b7598669c1d594b7311975d5b7706yZ,http://clk.myiads.com/conv?p=dd58031696e011e780e142010af0001d&c=be8b7598669c1d594b7311975d5b7706yZ,idfa_ffa5860c-4f3c-4e58-b704-c611eabb7ed2,ko
zzNK1YOzS6K13OZAgis3cA,edge226,75068562_2000_508,install,0.8,119.199.178.218,7f1425c7-a194-40ec-8086-29a29eaac2be,1559217516,2019-05-30 19:58:36,1559217604,2019-05-30 20:00:04,1559217636,44677d5973f566ef537a002ddb074880yZ,http://clk.myiads.com/conv?p=dd58031696e011e780e142010af0001d&c=44677d5973f566ef537a002ddb074880yZ,idfa_7f1425c7-a194-40ec-8086-29a29eaac2be,ko
zzNK1YOzS6K13OZAgis3cA,edge226,75068562_2000_508,install,0.8,222.97.214.195,33bf64b5-ba62-478d-b31d-734a58f2f9b2,1559216203,2019-05-30 19:36:43,1559216295,2019-05-30 19:38:15,1559216328,9d5df9891b7fad903ed204b73eb6f707yZ,http://clk.myiads.com/conv?p=dd58031696e011e780e142010af0001d&c=9d5df9891b7fad903ed204b73eb6f707yZ,idfa_33bf64b5-ba62-478d-b31d-734a58f2f9b2,ko
zzNK1YOzS6K13OZAgis3cA,edge226,75068562_2000_508,install,0.8,115.89.11.34,f48db95a-9090-4b38-a6d2-6a139b45ad3b,1559216085,2019-05-30 19:34:45,1559216172,2019-05-30 19:36:12,1559216204,6f9df65ca2b70664f9b761d9ca54bcdcyZ,http://clk.myiads.com/conv?p=dd58031696e011e780e142010af0001d&c=6f9df65ca2b70664f9b761d9ca54bcdcyZ,idfa_f48db95a-9090-4b38-a6d2-6a139b45ad3b,ko
zzNK1YOzS6K13OZAgis3cA,edge226,75068562_2000_508,install,0.8,112.216.15.226,f57aedfa-9fbd-4489-80a3-a1494fd2f514,1559217683,2019-05-30 20:01:23,1559217773,2019-05-30 20:02:53,1559217803,7066389828c352c97c9cef0c94aed264yZ,http://clk.myiads.com/conv?p=dd58031696e011e780e142010af0001d&c=7066389828c352c97c9cef0c94aed264yZ,idfa_f57aedfa-9fbd-4489-80a3-a1494fd2f514,ko
zzNK1YOzS6K13OZAgis3cA,edge226,75068562_2000_508,install,0.8,121.182.120.157,8c28fa5e-2e5c-408e-898f-cafe24df012b,1559216838,2019-05-30 19:47:18,1559216921,2019-05-30 19:48:41,1559216953,fe602e1644105fd7e60762c35bfd95beyZ,http://clk.myiads.com/conv?p=dd58031696e011e780e142010af0001d&c=fe602e1644105fd7e60762c35bfd95beyZ,idfa_8c28fa5e-2e5c-408e-898f-cafe24df012b,ko
zzNK1YOzS6K13OZAgis3cA,edge226,75068562_2000_508,install,0.8,112.220.20.170,822c1912-5b7f-46c4-a3ab-83f99fc69acd,1559216991,2019-05-30 19:49:51,1559217075,2019-05-30 19:51:15,1559217106,724970987f381a549f8f3eb91cfd3447yZ,http://clk.myiads.com/conv?p=dd58031696e011e780e142010af0001d&c=724970987f381a549f8f3eb91cfd3447yZ,idfa_822c1912-5b7f-46c4-a3ab-83f99fc69acd,ko
zzNK1YOzS6K13OZAgis3cA,edge226,75068562_2000_508,install,0.8,211.217.99.62,6ca99263-8964-41cd-8c71-a05fdf64b115,1559218033,2019-05-30 20:07:13,1559218110,2019-05-30 20:08:30,1559218143,0360516126098dd0c1dc34c993294dc9yZ,http://clk.myiads.com/conv?p=dd58031696e011e780e142010af0001d&c=0360516126098dd0c1dc34c993294dc9yZ,idfa_6ca99263-8964-41cd-8c71-a05fdf64b115,ko
zzNK1YOzS6K13OZAgis3cA,edge226,75068562_2000_508,install,0.8,101.79.5.184,1df602d8-668e-4c50-b80a-0a983a372ea7,1559218053,2019-05-30 20:07:33,1559218137,2019-05-30 20:08:57,1559218169,44da8cdeb88114b42c9bc2435c2aff1ayZ,http://clk.myiads.com/conv?p=dd58031696e011e780e142010af0001d&c=44da8cdeb88114b42c9bc2435c2aff1ayZ,idfa_1df602d8-668e-4c50-b80a-0a983a372ea7,ko
zzNK1YOzS6K13OZAgis3cA,edge226,75068562_2000_508,install,0.8,14.43.79.140,c66479bb-cc2a-4e5f-a26b-2b41a0c88078,1559216482,2019-05-30 19:41:22,1559216582,2019-05-30 19:43:02,1559216614,d7879ded4b48b49d1a6ddfbdf72a0761yZ,http://clk.myiads.com/conv?p=dd58031696e011e780e142010af0001d&c=d7879ded4b48b49d1a6ddfbdf72a0761yZ,idfa_c66479bb-cc2a-4e5f-a26b-2b41a0c88078,ko
zzNK1YOzS6K13OZAgis3cA,edge226,75068562_2000_508,install,0.8,175.236.156.204,9f116403-a96d-4a74-a904-e246142f0b96,1559217877,2019-05-30 20:04:37,1559217972,2019-05-30 20:06:12,1559218003,648bc9e5dbac0bd8e4bddd570cf419fdyZ,http://clk.myiads.com/conv?p=dd58031696e011e780e142010af0001d&c=648bc9e5dbac0bd8e4bddd570cf419fdyZ,idfa_9f116403-a96d-4a74-a904-e246142f0b96,ko
zzNK1YOzS6K13OZAgis3cA,edge226,75068562_2000_508,install,0.8,211.232.166.245,f1485eac-28c8-4799-81cb-140d1ca6d72b,1559215794,2019-05-30 19:29:54,1559215880,2019-05-30 19:31:20,1559215912,a2e3518397afb8348c56aa3136d7b542yZ,http://clk.myiads.com/conv?p=dd58031696e011e780e142010af0001d&c=a2e3518397afb8348c56aa3136d7b542yZ,idfa_f1485eac-28c8-4799-81cb-140d1ca6d72b,ko
zzNK1YOzS6K13OZAgis3cA,edge226,75068562_2000_508,install,0.8,112.170.215.31,079055a3-c0c9-4439-972d-31eda54462ea,1559217005,2019-05-30 19:50:05,1559217092,2019-05-30 19:51:32,1559217123,ee249bffd0f99a6cd4b03c8123afc3f7yZ,http://clk.myiads.com/conv?p=dd58031696e011e780e142010af0001d&c=ee249bffd0f99a6cd4b03c8123afc3f7yZ,idfa_079055a3-c0c9-4439-972d-31eda54462ea,ko
zzNK1YOzS6K13OZAgis3cA,edge226,75068562_2000_508,install,0.8,211.254.220.237,ce6938cf-4207-4f92-8161-2c1d3af56358,1559215753,2019-05-30 19:29:13,1559215846,2019-05-30 19:30:46,1559215877,de07d1839a004f67a28a6f715908b9bayZ,http://clk.myiads.com/conv?p=dd58031696e011e780e142010af0001d&c=de07d1839a004f67a28a6f715908b9bayZ,idfa_ce6938cf-4207-4f92-8161-2c1d3af56358,ko
zzNK1YOzS6K13OZAgis3cA,edge226,75068562_2000_508,install,0.8,106.254.212.86,24a7eb23-889b-4d67-92f4-65e191f971f5,1559217880,2019-05-30 20:04:40,1559217964,2019-05-30 20:06:04,1559217995,dead2665b7458b3405a9d1f40278f7a0yZ,http://clk.myiads.com/conv?p=dd58031696e011e780e142010af0001d&c=dead2665b7458b3405a9d1f40278f7a0yZ,idfa_24a7eb23-889b-4d67-92f4-65e191f971f5,ko
zzNK1YOzS6K13OZAgis3cA,edge226,75068562_2000_508,install,0.8,14.61.182.195,e2766c04-f9a7-4e5d-b8f2-cff8b64f7585,1559216173,2019-05-30 19:36:13,1559216264,2019-05-30 19:37:44,1559216296,406948dc2b3a89eac9f8bd6607ce39d8yZ,http://clk.myiads.com/conv?p=dd58031696e011e780e142010af0001d&c=406948dc2b3a89eac9f8bd6607ce39d8yZ,idfa_e2766c04-f9a7-4e5d-b8f2-cff8b64f7585,ko
