cid,partner_id,channel_id,action_id,cpi,ip,idfa,click time,click datetime,install time,install datetime,postback time,click id,postback url,unique user id
rsp-F7siQMaqcA3NeV0KZA,edge226,75548055_tony2019,Install,1.0,175.226.157.65,37BAD052-51DB-4CFB-96E9-2EA81E3B5230,1557471043,2019-05-10 14:50:43,1557471099,2019-05-10 14:51:39,1557471130,79c3a42b6adc3eecf5db9b1608202748yh,http://clk.myiads.com/conv?p=dd58031696e011e780e142010af0001d&c=79c3a42b6adc3eecf5db9b1608202748yh,idfa_37BAD052-51DB-4CFB-96E9-2EA81E3B5230,ko-KR
rsp-F7siQMaqcA3NeV0KZA,edge226,75548055_tony2019,Install,1.0,112.166.40.94,6515C71D-9E6A-4E96-8ACD-40BBF67DFDEA,1557473533,2019-05-10 15:32:13,1557473598,2019-05-10 15:33:18,1557473629,74b39b6850f55f30f2ca3ca9d1495122yh,http://clk.myiads.com/conv?p=dd58031696e011e780e142010af0001d&c=74b39b6850f55f30f2ca3ca9d1495122yh,idfa_6515C71D-9E6A-4E96-8ACD-40BBF67DFDEA,ko-KR
rsp-F7siQMaqcA3NeV0KZA,edge226,75548055_tony2019,Install,1.0,112.152.29.153,05873262-610B-414A-BC34-5994BED2B2B3,1557473868,2019-05-10 15:37:48,1557473937,2019-05-10 15:38:57,1557473968,16932aea8951c79f46cd935bb134702fyh,http://clk.myiads.com/conv?p=dd58031696e011e780e142010af0001d&c=16932aea8951c79f46cd935bb134702fyh,idfa_05873262-610B-414A-BC34-5994BED2B2B3,ko-KR
rsp-F7siQMaqcA3NeV0KZA,edge226,75548055_tony2019,Install,1.0,183.98.75.48,4F5BDD46-07A8-4BDC-A126-F53EB31D60FB,1557472132,2019-05-10 15:08:52,1557472186,2019-05-10 15:09:46,1557472217,5e3f3a360aa35dbef14413b7d35e576fyh,http://clk.myiads.com/conv?p=dd58031696e011e780e142010af0001d&c=5e3f3a360aa35dbef14413b7d35e576fyh,idfa_4F5BDD46-07A8-4BDC-A126-F53EB31D60FB,ko-KR
rsp-F7siQMaqcA3NeV0KZA,edge226,75548055_tony2019,Install,1.0,218.157.37.174,1CB19B2C-B888-4F46-84E6-1E3BD0385A23,1557472637,2019-05-10 15:17:17,1557472702,2019-05-10 15:18:22,1557472733,e70e4baae971d5c7cdbd26a316376727yh,http://clk.myiads.com/conv?p=dd58031696e011e780e142010af0001d&c=e70e4baae971d5c7cdbd26a316376727yh,idfa_1CB19B2C-B888-4F46-84E6-1E3BD0385A23,ko-KR
rsp-F7siQMaqcA3NeV0KZA,edge226,75548055_tony2019,Install,1.0,118.176.189.136,3BEBF003-B863-4FBF-B7E9-3E19615F1034,1557471204,2019-05-10 14:53:24,1557471263,2019-05-10 14:54:23,1557471302,f88e576bf04bf55d75eb4a3a3c91f535yh,http://clk.myiads.com/conv?p=dd58031696e011e780e142010af0001d&c=f88e576bf04bf55d75eb4a3a3c91f535yh,idfa_3BEBF003-B863-4FBF-B7E9-3E19615F1034,ko-KR
rsp-F7siQMaqcA3NeV0KZA,edge226,75548055_tony2019,Install,1.0,175.215.84.244,D1130F65-4210-489E-A578-7E9AB09DA295,1557472760,2019-05-10 15:19:20,1557472822,2019-05-10 15:20:22,1557472852,84e3c38d2a57396eb509d0e3ff0710deyh,http://clk.myiads.com/conv?p=dd58031696e011e780e142010af0001d&c=84e3c38d2a57396eb509d0e3ff0710deyh,idfa_D1130F65-4210-489E-A578-7E9AB09DA295,ko-KR
rsp-F7siQMaqcA3NeV0KZA,edge226,75548055_tony2019,Install,1.0,218.149.167.203,55225CC5-598B-48C7-8E35-9C0D43BC63D2,1557471367,2019-05-10 14:56:07,1557471418,2019-05-10 14:56:58,1557471449,d06cf68490927d3fddff99b55d825419yh,http://clk.myiads.com/conv?p=dd58031696e011e780e142010af0001d&c=d06cf68490927d3fddff99b55d825419yh,idfa_55225CC5-598B-48C7-8E35-9C0D43BC63D2,ko-KR
rsp-F7siQMaqcA3NeV0KZA,edge226,75548055_tony2019,Install,1.0,221.162.177.145,2B81B905-E5C4-4C39-98A6-208B32FC3234,1557470307,2019-05-10 14:38:27,1557470362,2019-05-10 14:39:22,1557470392,515b27a69c4407cd47228339587fc818yh,http://clk.myiads.com/conv?p=dd58031696e011e780e142010af0001d&c=515b27a69c4407cd47228339587fc818yh,idfa_2B81B905-E5C4-4C39-98A6-208B32FC3234,ko-KR
rsp-F7siQMaqcA3NeV0KZA,edge226,75548055_tony2019,Install,1.0,121.169.184.163,F7ACDBF9-8724-4557-8B15-7DAEC3E1CBC8,1557470016,2019-05-10 14:33:36,1557470067,2019-05-10 14:34:27,1557470098,4a599f56233119c9574c130dbb7e8721yh,http://clk.myiads.com/conv?p=dd58031696e011e780e142010af0001d&c=4a599f56233119c9574c130dbb7e8721yh,idfa_F7ACDBF9-8724-4557-8B15-7DAEC3E1CBC8,ko-KR
rsp-F7siQMaqcA3NeV0KZA,edge226,75548055_tony2019,Install,1.0,59.10.245.119,349355C9-2C1D-4DD8-806B-56ED71E5D14F,1557470941,2019-05-10 14:49:01,1557471001,2019-05-10 14:50:01,1557471032,d43ae1f85e1985b5fe8923ac10ba24a8yh,http://clk.myiads.com/conv?p=dd58031696e011e780e142010af0001d&c=d43ae1f85e1985b5fe8923ac10ba24a8yh,idfa_349355C9-2C1D-4DD8-806B-56ED71E5D14F,ko-KR
rsp-F7siQMaqcA3NeV0KZA,edge226,75548055_tony2019,Install,1.0,125.139.131.221,A0EBFEF9-5DDA-4896-A3AC-F0C4EA1B0FC6,1557473797,2019-05-10 15:36:37,1557473862,2019-05-10 15:37:42,1557473893,dfd249a82dce98b3ab6890740b4d9a8fyh,http://clk.myiads.com/conv?p=dd58031696e011e780e142010af0001d&c=dfd249a82dce98b3ab6890740b4d9a8fyh,idfa_A0EBFEF9-5DDA-4896-A3AC-F0C4EA1B0FC6,ko-KR
rsp-F7siQMaqcA3NeV0KZA,edge226,75548055_tony2019,Install,1.0,59.6.96.63,D878EB2C-D09F-4981-9CE2-0828AA2AF3B9,1557473449,2019-05-10 15:30:49,1557473517,2019-05-10 15:31:57,1557473549,1b8a16965440838dc29db3775a94c929yh,http://clk.myiads.com/conv?p=dd58031696e011e780e142010af0001d&c=1b8a16965440838dc29db3775a94c929yh,idfa_D878EB2C-D09F-4981-9CE2-0828AA2AF3B9,ko-KR
rsp-F7siQMaqcA3NeV0KZA,edge226,75548055_tony2019,Install,1.0,122.46.71.144,1BC6CBDC-7A73-4DD8-B96F-24DDEE11143B,1557473188,2019-05-10 15:26:28,1557473256,2019-05-10 15:27:36,1557473287,7c9a8165274b95f4993fbac750b4d3acyh,http://clk.myiads.com/conv?p=dd58031696e011e780e142010af0001d&c=7c9a8165274b95f4993fbac750b4d3acyh,idfa_1BC6CBDC-7A73-4DD8-B96F-24DDEE11143B,ko-KR
rsp-F7siQMaqcA3NeV0KZA,edge226,75548055_tony2019,Install,1.0,14.48.200.83,01A916EB-9E85-4E46-9646-70D3BC91503D,1557473190,2019-05-10 15:26:30,1557473241,2019-05-10 15:27:21,1557473272,27f66a75bffd66c36932a1fc9882446eyh,http://clk.myiads.com/conv?p=dd58031696e011e780e142010af0001d&c=27f66a75bffd66c36932a1fc9882446eyh,idfa_01A916EB-9E85-4E46-9646-70D3BC91503D,ko-KR
rsp-F7siQMaqcA3NeV0KZA,edge226,75548055_tony2019,Install,1.0,125.129.241.121,21D21C5C-D827-4933-8F67-23B6AEA27A7D,1557474330,2019-05-10 15:45:30,1557474394,2019-05-10 15:46:34,1557474426,00426232798c16865b3edc83f0a960f1yh,http://clk.myiads.com/conv?p=dd58031696e011e780e142010af0001d&c=00426232798c16865b3edc83f0a960f1yh,idfa_21D21C5C-D827-4933-8F67-23B6AEA27A7D,ko-KR
rsp-F7siQMaqcA3NeV0KZA,edge226,75548055_tony2019,Install,1.0,119.199.153.188,53B2E57E-7461-4651-AD7C-16F1F76A8216,1557472732,2019-05-10 15:18:52,1557472781,2019-05-10 15:19:41,1557472812,d1476c5dd1440e059f45fff47f99f346yh,http://clk.myiads.com/conv?p=dd58031696e011e780e142010af0001d&c=d1476c5dd1440e059f45fff47f99f346yh,idfa_53B2E57E-7461-4651-AD7C-16F1F76A8216,ko-KR
rsp-F7siQMaqcA3NeV0KZA,edge226,75548055_tony2019,Install,1.0,180.182.2.60,024DC53B-2404-4B68-9DB6-F5BF06D8B003,1557473274,2019-05-10 15:27:54,1557473336,2019-05-10 15:28:56,1557473366,2ed79c545e28983929dd6a375c88a17ayh,http://clk.myiads.com/conv?p=dd58031696e011e780e142010af0001d&c=2ed79c545e28983929dd6a375c88a17ayh,idfa_024DC53B-2404-4B68-9DB6-F5BF06D8B003,ko-KR
rsp-F7siQMaqcA3NeV0KZA,edge226,75548055_tony2019,Install,1.0,125.142.205.132,5909D346-2449-4CFB-99A5-7BB63C97593D,1557472506,2019-05-10 15:15:06,1557472564,2019-05-10 15:16:04,1557472596,1778c72942613ca4ebf4339b2765a4ccyh,http://clk.myiads.com/conv?p=dd58031696e011e780e142010af0001d&c=1778c72942613ca4ebf4339b2765a4ccyh,idfa_5909D346-2449-4CFB-99A5-7BB63C97593D,ko-KR
rsp-F7siQMaqcA3NeV0KZA,edge226,75548055_tony2019,Install,1.0,121.131.136.239,027F71FA-9668-443A-91CA-BAA802BD0E26,1557474588,2019-05-10 15:49:48,1557474654,2019-05-10 15:50:54,1557474684,dfc8c86a45d59db67b570e9225440c7cyh,http://clk.myiads.com/conv?p=dd58031696e011e780e142010af0001d&c=dfc8c86a45d59db67b570e9225440c7cyh,idfa_027F71FA-9668-443A-91CA-BAA802BD0E26,ko-KR
rsp-F7siQMaqcA3NeV0KZA,edge226,75548055_tony2019,Install,1.0,222.105.131.51,6552BDCA-93F0-4D73-A031-372E10CE9CC5,1557473807,2019-05-10 15:36:47,1557473856,2019-05-10 15:37:36,1557473887,0e957920f16bc9b40d4fc8c065a80fd4yh,http://clk.myiads.com/conv?p=dd58031696e011e780e142010af0001d&c=0e957920f16bc9b40d4fc8c065a80fd4yh,idfa_6552BDCA-93F0-4D73-A031-372E10CE9CC5,ko-KR
rsp-F7siQMaqcA3NeV0KZA,edge226,75548055_tony2019,Install,1.0,121.173.142.131,8D53C060-3B66-43FF-87A8-9ED2B49FC79E,1557470681,2019-05-10 14:44:41,1557470741,2019-05-10 14:45:41,1557470772,97a868213bd2e2a58fe586863b9907a4yh,http://clk.myiads.com/conv?p=dd58031696e011e780e142010af0001d&c=97a868213bd2e2a58fe586863b9907a4yh,idfa_8D53C060-3B66-43FF-87A8-9ED2B49FC79E,ko-KR
rsp-F7siQMaqcA3NeV0KZA,edge226,75548055_tony2019,Install,1.0,220.117.20.119,C01F81A6-4076-4324-815E-463EB11E61A7,1557470538,2019-05-10 14:42:18,1557470589,2019-05-10 14:43:09,1557470619,6f61d70be70ec199585156977ccb9168yh,http://clk.myiads.com/conv?p=dd58031696e011e780e142010af0001d&c=6f61d70be70ec199585156977ccb9168yh,idfa_C01F81A6-4076-4324-815E-463EB11E61A7,ko-KR
rsp-F7siQMaqcA3NeV0KZA,edge226,75548055_tony2019,Install,1.0,118.176.154.142,6995A892-F72C-451D-B801-5F9EA2F86A81,1557470425,2019-05-10 14:40:25,1557470482,2019-05-10 14:41:22,1557470512,62d88bc97e5f2f8c8d319a88b567342dyh,http://clk.myiads.com/conv?p=dd58031696e011e780e142010af0001d&c=62d88bc97e5f2f8c8d319a88b567342dyh,idfa_6995A892-F72C-451D-B801-5F9EA2F86A81,ko-KR
rsp-F7siQMaqcA3NeV0KZA,edge226,75548055_tony2019,Install,1.0,39.122.43.149,D0237F62-FC51-4562-9F9D-15AE484CC06A,1557471659,2019-05-10 15:00:59,1557471711,2019-05-10 15:01:51,1557471742,a950e2b269780cdbada07bfbfcc5d948yh,http://clk.myiads.com/conv?p=dd58031696e011e780e142010af0001d&c=a950e2b269780cdbada07bfbfcc5d948yh,idfa_D0237F62-FC51-4562-9F9D-15AE484CC06A,ko-KR
rsp-F7siQMaqcA3NeV0KZA,edge226,75548055_tony2019,Install,1.0,121.144.175.189,AEAD31C2-0857-4CEB-B24E-A17B91E14318,1557472100,2019-05-10 15:08:20,1557472165,2019-05-10 15:09:25,1557472196,b30021da132854bc59adc4fc9dee6af6yh,http://clk.myiads.com/conv?p=dd58031696e011e780e142010af0001d&c=b30021da132854bc59adc4fc9dee6af6yh,idfa_AEAD31C2-0857-4CEB-B24E-A17B91E14318,ko-KR
rsp-F7siQMaqcA3NeV0KZA,edge226,75548055_tony2019,Install,1.0,113.199.21.63,A800B087-51F0-4C8A-BF0D-D47B9326C127,1557474071,2019-05-10 15:41:11,1557474134,2019-05-10 15:42:14,1557474165,df45e86da28389b09a4b7c4fe6230444yh,http://clk.myiads.com/conv?p=dd58031696e011e780e142010af0001d&c=df45e86da28389b09a4b7c4fe6230444yh,idfa_A800B087-51F0-4C8A-BF0D-D47B9326C127,ko-KR
rsp-F7siQMaqcA3NeV0KZA,edge226,75548055_tony2019,Install,1.0,106.255.253.178,63980119-C12B-4B86-99D6-5BDE940DCEE4,1557474033,2019-05-10 15:40:33,1557474085,2019-05-10 15:41:25,1557474117,f1a9673018a68065e937f31bc71a3d40yh,http://clk.myiads.com/conv?p=dd58031696e011e780e142010af0001d&c=f1a9673018a68065e937f31bc71a3d40yh,idfa_63980119-C12B-4B86-99D6-5BDE940DCEE4,ko-KR
rsp-F7siQMaqcA3NeV0KZA,edge226,75548055_tony2019,Install,1.0,218.158.238.131,AE258363-D273-481E-B83F-33AC34AD87E7,1557471904,2019-05-10 15:05:04,1557471960,2019-05-10 15:06:00,1557471991,520fe9940bbc1962b8da83ea7fc6eae0yh,http://clk.myiads.com/conv?p=dd58031696e011e780e142010af0001d&c=520fe9940bbc1962b8da83ea7fc6eae0yh,idfa_AE258363-D273-481E-B83F-33AC34AD87E7,ko-KR
rsp-F7siQMaqcA3NeV0KZA,edge226,75548055_tony2019,Install,1.0,211.250.244.82,3BF14FDA-730A-4117-B351-F2549D8F67AF,1557471843,2019-05-10 15:04:03,1557471905,2019-05-10 15:05:05,1557471936,d3b1e8d4125008c3c98d42857f02b732yh,http://clk.myiads.com/conv?p=dd58031696e011e780e142010af0001d&c=d3b1e8d4125008c3c98d42857f02b732yh,idfa_3BF14FDA-730A-4117-B351-F2549D8F67AF,ko-KR
