cid,partner_id,channel_id,action_id,cpi,ip,idfa,click time,click datetime,install time,install datetime,postback time,click id,postback url,unique user id
T68mF5juT4uBfZJEq7iUIQ,edge226,85237781_281541736_12708,Install,1.0,112.220.22.106,fd78575a-0e70-430d-a4f0-0ccbb57a7083,1557631999,2019-05-12 11:33:19,1557632080,2019-05-12 11:34:40,1557632111,9e1279fc6935fb5a2045adff46f6a34ayR,http://clk.myiads.com/conv?p=dd58031696e011e780e142010af0001d&c=9e1279fc6935fb5a2045adff46f6a34ayR,idfa_fd78575a-0e70-430d-a4f0-0ccbb57a7083,%ED%95%9C%EA%B5%AD%EC%96%B4
T68mF5juT4uBfZJEq7iUIQ,edge226,85237781_281541736_12708,Install,1.0,112.72.128.57,149e3d7c-0104-4c6b-9b1f-c38011ffc8a8,1557632509,2019-05-12 11:41:49,1557632623,2019-05-12 11:43:43,1557632653,90a5d108bee246da8355ab7bf011402dyR,http://clk.myiads.com/conv?p=dd58031696e011e780e142010af0001d&c=90a5d108bee246da8355ab7bf011402dyR,idfa_149e3d7c-0104-4c6b-9b1f-c38011ffc8a8,%ED%95%9C%EA%B5%AD%EC%96%B4
T68mF5juT4uBfZJEq7iUIQ,edge226,85237781_281541736_12708,Install,1.0,59.21.169.165,2a889c23-b908-400f-877e-21b1145ede05,1557632503,2019-05-12 11:41:43,1557632689,2019-05-12 11:44:49,1557633747,441cd9075a57c925ef7053a5f9a54f1eyR,http://clk.myiads.com/conv?p=dd58031696e011e780e142010af0001d&c=441cd9075a57c925ef7053a5f9a54f1eyR,idfa_2a889c23-b908-400f-877e-21b1145ede05,%ED%95%9C%EA%B5%AD%EC%96%B4
T68mF5juT4uBfZJEq7iUIQ,edge226,85237781_281541736_12708,Install,1.0,1.234.5.210,015c0b6c-9d45-44b0-9c92-b561e5d7c8d7,1557633716,2019-05-12 12:01:56,1557633795,2019-05-12 12:03:15,1557633826,78c524f6ed1f5af0327760024531a4dayR,http://clk.myiads.com/conv?p=dd58031696e011e780e142010af0001d&c=78c524f6ed1f5af0327760024531a4dayR,idfa_015c0b6c-9d45-44b0-9c92-b561e5d7c8d7,%ED%95%9C%EA%B5%AD%EC%96%B4
T68mF5juT4uBfZJEq7iUIQ,edge226,85237781_281541736_12708,Install,1.0,211.228.181.37,6fc4e4c1-c602-43e4-9292-d24b2525fb5d,1557633435,2019-05-12 11:57:15,1557633517,2019-05-12 11:58:37,1557633548,e31deb0d17978ea5031dbdce57b3b0ecyR,http://clk.myiads.com/conv?p=dd58031696e011e780e142010af0001d&c=e31deb0d17978ea5031dbdce57b3b0ecyR,idfa_6fc4e4c1-c602-43e4-9292-d24b2525fb5d,%ED%95%9C%EA%B5%AD%EC%96%B4
T68mF5juT4uBfZJEq7iUIQ,edge226,85237781_281541736_12708,Install,1.0,118.62.9.2,f73390d8-1a6a-4e53-ad60-fa9a8ed1ca7c,1557632358,2019-05-12 11:39:18,1557632432,2019-05-12 11:40:32,1557632462,05d5feaf4d563babfd5286cb32c9199cyR,http://clk.myiads.com/conv?p=dd58031696e011e780e142010af0001d&c=05d5feaf4d563babfd5286cb32c9199cyR,idfa_f73390d8-1a6a-4e53-ad60-fa9a8ed1ca7c,%ED%95%9C%EA%B5%AD%EC%96%B4
T68mF5juT4uBfZJEq7iUIQ,edge226,85237781_281541736_12708,Install,1.0,59.28.140.15,064f3a36-0993-435f-8613-6255714a7080,1557631458,2019-05-12 11:24:18,1557631535,2019-05-12 11:25:35,1557631566,6283dfa89960c68d98182eac32b30ed6yR,http://clk.myiads.com/conv?p=dd58031696e011e780e142010af0001d&c=6283dfa89960c68d98182eac32b30ed6yR,idfa_064f3a36-0993-435f-8613-6255714a7080,%ED%95%9C%EA%B5%AD%EC%96%B4
T68mF5juT4uBfZJEq7iUIQ,edge226,85237781_281541736_12708,Install,1.0,218.159.49.161,b1fa15c6-2f5e-4850-9475-35925541f282,1557631894,2019-05-12 11:31:34,1557631985,2019-05-12 11:33:05,1557632016,bfe22a515ad25f3f5780da0dbfda2871yR,http://clk.myiads.com/conv?p=dd58031696e011e780e142010af0001d&c=bfe22a515ad25f3f5780da0dbfda2871yR,idfa_b1fa15c6-2f5e-4850-9475-35925541f282,%ED%95%9C%EA%B5%AD%EC%96%B4
T68mF5juT4uBfZJEq7iUIQ,edge226,85237781_281541736_12708,Install,1.0,27.116.125.146,eb038832-aa70-42a6-a7d6-6d2b19327bc3,1557633458,2019-05-12 11:57:38,1557633552,2019-05-12 11:59:12,1557633583,3936ae963c6b67b4c4d88125e8604e00yR,http://clk.myiads.com/conv?p=dd58031696e011e780e142010af0001d&c=3936ae963c6b67b4c4d88125e8604e00yR,idfa_eb038832-aa70-42a6-a7d6-6d2b19327bc3,%ED%95%9C%EA%B5%AD%EC%96%B4
T68mF5juT4uBfZJEq7iUIQ,edge226,85237781_281541736_12708,Install,1.0,222.100.130.21,64822818-c854-4bbe-9d4e-5a12c7895a8b,1557630997,2019-05-12 11:16:37,1557631087,2019-05-12 11:18:07,1557631118,99c05802053f7d7504c56e28302edc51yR,http://clk.myiads.com/conv?p=dd58031696e011e780e142010af0001d&c=99c05802053f7d7504c56e28302edc51yR,idfa_64822818-c854-4bbe-9d4e-5a12c7895a8b,%ED%95%9C%EA%B5%AD%EC%96%B4
T68mF5juT4uBfZJEq7iUIQ,edge226,85237781_281541736_12708,Install,1.0,222.110.155.108,c20c31bd-1cb1-4964-940d-bfc63910f5e3,1557631636,2019-05-12 11:27:16,1557631715,2019-05-12 11:28:35,1557631745,bd760b9cd8657a42feefb21dd8d517bfyR,http://clk.myiads.com/conv?p=dd58031696e011e780e142010af0001d&c=bd760b9cd8657a42feefb21dd8d517bfyR,idfa_c20c31bd-1cb1-4964-940d-bfc63910f5e3,%ED%95%9C%EA%B5%AD%EC%96%B4
T68mF5juT4uBfZJEq7iUIQ,edge226,85237781_281541736_12708,Install,1.0,211.216.48.158,0ad5cbb0-650b-4c9c-80cd-90ad25f2cc93,1557631893,2019-05-12 11:31:33,1557632033,2019-05-12 11:33:53,1557632197,e6dee1e38f2012f5a27a0e216e399099yR,http://clk.myiads.com/conv?p=dd58031696e011e780e142010af0001d&c=e6dee1e38f2012f5a27a0e216e399099yR,idfa_0ad5cbb0-650b-4c9c-80cd-90ad25f2cc93,%ED%95%9C%EA%B5%AD%EC%96%B4
T68mF5juT4uBfZJEq7iUIQ,edge226,85237781_281541736_12708,Install,1.0,112.222.184.51,e794c3f5-344e-4b41-b708-21fd26598734,1557631218,2019-05-12 11:20:18,1557631301,2019-05-12 11:21:41,1557631331,c90b168123be4e6b0c298723163ecdbayR,http://clk.myiads.com/conv?p=dd58031696e011e780e142010af0001d&c=c90b168123be4e6b0c298723163ecdbayR,idfa_e794c3f5-344e-4b41-b708-21fd26598734,%ED%95%9C%EA%B5%AD%EC%96%B4
T68mF5juT4uBfZJEq7iUIQ,edge226,85237781_281541736_12708,Install,1.0,121.140.69.73,412e50db-44ca-4e02-adce-fa0f207d7180,1557633405,2019-05-12 11:56:45,1557633571,2019-05-12 11:59:31,1557633601,9ed0f580288fabba7a6ef9043efdafc8yR,http://clk.myiads.com/conv?p=dd58031696e011e780e142010af0001d&c=9ed0f580288fabba7a6ef9043efdafc8yR,idfa_412e50db-44ca-4e02-adce-fa0f207d7180,%ED%95%9C%EA%B5%AD%EC%96%B4
T68mF5juT4uBfZJEq7iUIQ,edge226,85237781_281541736_12708,Install,1.0,183.112.115.66,34d48665-9c6f-45fd-8c0a-2fbce40981ec,1557631589,2019-05-12 11:26:29,1557631656,2019-05-12 11:27:36,1557631687,6de87d70ee0ebf8b5abacc2b866de5fdyR,http://clk.myiads.com/conv?p=dd58031696e011e780e142010af0001d&c=6de87d70ee0ebf8b5abacc2b866de5fdyR,idfa_34d48665-9c6f-45fd-8c0a-2fbce40981ec,%ED%95%9C%EA%B5%AD%EC%96%B4
T68mF5juT4uBfZJEq7iUIQ,edge226,85237781_281541736_12708,Install,1.0,115.89.218.68,fe4cd29c-c516-4760-b8dd-7d5f79143057,1557633399,2019-05-12 11:56:39,1557633478,2019-05-12 11:57:58,1557633508,6566ee20779dfdb2879992c44df0c4f4yR,http://clk.myiads.com/conv?p=dd58031696e011e780e142010af0001d&c=6566ee20779dfdb2879992c44df0c4f4yR,idfa_fe4cd29c-c516-4760-b8dd-7d5f79143057,%ED%95%9C%EA%B5%AD%EC%96%B4
T68mF5juT4uBfZJEq7iUIQ,edge226,85237781_281541736_12708,Install,1.0,119.204.177.120,78d38bc1-32c3-4664-87d2-33700a080a9e,1557633422,2019-05-12 11:57:02,1557633498,2019-05-12 11:58:18,1557633528,30d98f77ad404f7862050628a3bdb746yR,http://clk.myiads.com/conv?p=dd58031696e011e780e142010af0001d&c=30d98f77ad404f7862050628a3bdb746yR,idfa_78d38bc1-32c3-4664-87d2-33700a080a9e,%ED%95%9C%EA%B5%AD%EC%96%B4
T68mF5juT4uBfZJEq7iUIQ,edge226,85237781_281541736_12708,Install,1.0,183.103.205.76,0e58af44-b345-46e9-aef4-19d3645b6a3b,1557281630,2019-05-08 10:13:50,1557281745,2019-05-08 10:15:45,1557281776,e63c6af1a422b12962c169d63de5cdd1y9,http://clk.myiads.com/conv?p=dd58031696e011e780e142010af0001d&c=e63c6af1a422b12962c169d63de5cdd1y9,idfa_0e58af44-b345-46e9-aef4-19d3645b6a3b,%ED%95%9C%EA%B5%AD%EC%96%B4
T68mF5juT4uBfZJEq7iUIQ,edge226,85237781_281541736_12708,Install,1.0,115.89.218.68,b09fec21-d8e2-4694-83f4-5f637df52c85,1557631932,2019-05-12 11:32:12,1557632010,2019-05-12 11:33:30,1557632041,fe6bb88008514f81f7b8aaed28177322yR,http://clk.myiads.com/conv?p=dd58031696e011e780e142010af0001d&c=fe6bb88008514f81f7b8aaed28177322yR,idfa_b09fec21-d8e2-4694-83f4-5f637df52c85,%ED%95%9C%EA%B5%AD%EC%96%B4
T68mF5juT4uBfZJEq7iUIQ,edge226,85237781_281541736_12708,Install,1.0,114.30.165.111,7beb6b1c-7317-41a9-b75f-56f0f2fc2595,1557632507,2019-05-12 11:41:47,1557632601,2019-05-12 11:43:21,1557632631,6e80821580e32edd017c4d2e12d1f699yR,http://clk.myiads.com/conv?p=dd58031696e011e780e142010af0001d&c=6e80821580e32edd017c4d2e12d1f699yR,idfa_7beb6b1c-7317-41a9-b75f-56f0f2fc2595,%ED%95%9C%EA%B5%AD%EC%96%B4
T68mF5juT4uBfZJEq7iUIQ,edge226,85237781_281541736_12708,Install,1.0,221.138.38.85,54fba7e8-1c32-437c-9f9e-70fd1cb10650,1557631402,2019-05-12 11:23:22,1557631473,2019-05-12 11:24:33,1557631653,f27f50322d4c2ef8c6f88842d3363075yR,http://clk.myiads.com/conv?p=dd58031696e011e780e142010af0001d&c=f27f50322d4c2ef8c6f88842d3363075yR,idfa_54fba7e8-1c32-437c-9f9e-70fd1cb10650,%ED%95%9C%EA%B5%AD%EC%96%B4
T68mF5juT4uBfZJEq7iUIQ,edge226,85237781_281541736_12708,Install,1.0,49.173.178.227,10edd68d-b695-4a88-80b9-d334899e1b46,1557633463,2019-05-12 11:57:43,1557633562,2019-05-12 11:59:22,1557633593,50c1f9a1bf50ddfb50f3e31a4fedc877yR,http://clk.myiads.com/conv?p=dd58031696e011e780e142010af0001d&c=50c1f9a1bf50ddfb50f3e31a4fedc877yR,idfa_10edd68d-b695-4a88-80b9-d334899e1b46,%ED%95%9C%EA%B5%AD%EC%96%B4
T68mF5juT4uBfZJEq7iUIQ,edge226,85237781_281541736_12708,Install,1.0,183.97.106.140,4bf2c286-71eb-45ab-8c07-3f4d55721580,1557632847,2019-05-12 11:47:27,1557632941,2019-05-12 11:49:01,1557632972,4489e6376e378c6bc3cc26606ade3b34yR,http://clk.myiads.com/conv?p=dd58031696e011e780e142010af0001d&c=4489e6376e378c6bc3cc26606ade3b34yR,idfa_4bf2c286-71eb-45ab-8c07-3f4d55721580,%ED%95%9C%EA%B5%AD%EC%96%B4
T68mF5juT4uBfZJEq7iUIQ,edge226,85237781_281541736_12708,Install,1.0,112.220.86.122,0bc96f56-6529-451b-a756-c4b66c439d37,1557631929,2019-05-12 11:32:09,1557632009,2019-05-12 11:33:29,1557632039,e147d20d124863c5c2a879aa0c81d397yR,http://clk.myiads.com/conv?p=dd58031696e011e780e142010af0001d&c=e147d20d124863c5c2a879aa0c81d397yR,idfa_0bc96f56-6529-451b-a756-c4b66c439d37,%ED%95%9C%EA%B5%AD%EC%96%B4
T68mF5juT4uBfZJEq7iUIQ,edge226,85237781_281541736_12708,Install,1.0,112.162.62.41,a3310d7b-8c2d-4ede-8b93-3f5ccb647d49,1557632536,2019-05-12 11:42:16,1557632629,2019-05-12 11:43:49,1557632660,9d7760984ecebf922a4cadccb682bc33yR,http://clk.myiads.com/conv?p=dd58031696e011e780e142010af0001d&c=9d7760984ecebf922a4cadccb682bc33yR,idfa_a3310d7b-8c2d-4ede-8b93-3f5ccb647d49,%ED%95%9C%EA%B5%AD%EC%96%B4
T68mF5juT4uBfZJEq7iUIQ,edge226,85237781_281541736_12708,Install,1.0,211.54.74.50,8c277e46-8b0b-45e6-95f8-65602df7552f,1557632513,2019-05-12 11:41:53,1557632632,2019-05-12 11:43:52,1557632666,e7c061a1a79294a2392ebe5ef3a32950yR,http://clk.myiads.com/conv?p=dd58031696e011e780e142010af0001d&c=e7c061a1a79294a2392ebe5ef3a32950yR,idfa_8c277e46-8b0b-45e6-95f8-65602df7552f,%ED%95%9C%EA%B5%AD%EC%96%B4
T68mF5juT4uBfZJEq7iUIQ,edge226,85237781_281541736_12708,Install,1.0,114.30.165.98,bf7bbc03-51a3-4c16-978c-0ea25cc9f890,1557632781,2019-05-12 11:46:21,1557632852,2019-05-12 11:47:32,1557632883,1acf6723d0aac3c230234d8074ee418ayR,http://clk.myiads.com/conv?p=dd58031696e011e780e142010af0001d&c=1acf6723d0aac3c230234d8074ee418ayR,idfa_bf7bbc03-51a3-4c16-978c-0ea25cc9f890,%ED%95%9C%EA%B5%AD%EC%96%B4
T68mF5juT4uBfZJEq7iUIQ,edge226,85237781_281541736_12708,Install,1.0,106.247.228.50,0c2e595b-c778-48d4-a72f-523bb4cf0e50,1557632336,2019-05-12 11:38:56,1557632408,2019-05-12 11:40:08,1557632463,bd018d69cefd5058aab42a23f3cd5d39yR,http://clk.myiads.com/conv?p=dd58031696e011e780e142010af0001d&c=bd018d69cefd5058aab42a23f3cd5d39yR,idfa_0c2e595b-c778-48d4-a72f-523bb4cf0e50,%ED%95%9C%EA%B5%AD%EC%96%B4
T68mF5juT4uBfZJEq7iUIQ,edge226,85237781_281541736_12708,Install,1.0,114.30.165.96,df0c95a3-ff7a-4acd-a478-49da3bc26423,1557631284,2019-05-12 11:21:24,1557631394,2019-05-12 11:23:14,1557631424,8d739f599ad16aa2e8fa23b01007dc61yR,http://clk.myiads.com/conv?p=dd58031696e011e780e142010af0001d&c=8d739f599ad16aa2e8fa23b01007dc61yR,idfa_df0c95a3-ff7a-4acd-a478-49da3bc26423,%ED%95%9C%EA%B5%AD%EC%96%B4
T68mF5juT4uBfZJEq7iUIQ,edge226,85237781_281541736_12708,Install,1.0,112.222.142.154,a6aab042-fff8-4350-9e55-30fb2a582d07,1557632830,2019-05-12 11:47:10,1557632905,2019-05-12 11:48:25,1557632936,89ae2bf08dde635c87ed0cf135d8f566yR,http://clk.myiads.com/conv?p=dd58031696e011e780e142010af0001d&c=89ae2bf08dde635c87ed0cf135d8f566yR,idfa_a6aab042-fff8-4350-9e55-30fb2a582d07,%ED%95%9C%EA%B5%AD%EC%96%B4
T68mF5juT4uBfZJEq7iUIQ,edge226,85237781_281541736_12708,Install,1.0,61.37.41.130,a85c625f-02a1-4dfe-96ac-958cc0afeafc,1557632900,2019-05-12 11:48:20,1557632968,2019-05-12 11:49:28,1557633001,9029c9cb465ebfc2403043c6a15f7595yR,http://clk.myiads.com/conv?p=dd58031696e011e780e142010af0001d&c=9029c9cb465ebfc2403043c6a15f7595yR,idfa_a85c625f-02a1-4dfe-96ac-958cc0afeafc,%ED%95%9C%EA%B5%AD%EC%96%B4
T68mF5juT4uBfZJEq7iUIQ,edge226,85237781_281541736_12708,Install,1.0,218.38.136.99,4b672cd7-8f50-4cf8-b9b5-9adef70cf93f,1557631660,2019-05-12 11:27:40,1557631752,2019-05-12 11:29:12,1557631845,fb7ae80337823bda49c4e0ba87ff100cyR,http://clk.myiads.com/conv?p=dd58031696e011e780e142010af0001d&c=fb7ae80337823bda49c4e0ba87ff100cyR,idfa_4b672cd7-8f50-4cf8-b9b5-9adef70cf93f,%ED%95%9C%EA%B5%AD%EC%96%B4
T68mF5juT4uBfZJEq7iUIQ,edge226,85237781_281541736_12708,Install,1.0,121.152.137.21,3971a133-9743-4c5b-8d3d-54e54129193a,1557633674,2019-05-12 12:01:14,1557633747,2019-05-12 12:02:27,1557633779,73d3389b683674051510c4a747c0e41dyR,http://clk.myiads.com/conv?p=dd58031696e011e780e142010af0001d&c=73d3389b683674051510c4a747c0e41dyR,idfa_3971a133-9743-4c5b-8d3d-54e54129193a,%ED%95%9C%EA%B5%AD%EC%96%B4
T68mF5juT4uBfZJEq7iUIQ,edge226,85237781_281541736_12708,Install,1.0,119.66.102.7,3aaa3409-340f-440d-b72e-54749040b7d6,1557632954,2019-05-12 11:49:14,1557633024,2019-05-12 11:50:24,1557633054,ca254d18945706136e040bb4f43ca784yR,http://clk.myiads.com/conv?p=dd58031696e011e780e142010af0001d&c=ca254d18945706136e040bb4f43ca784yR,idfa_3aaa3409-340f-440d-b72e-54749040b7d6,%ED%95%9C%EA%B5%AD%EC%96%B4
T68mF5juT4uBfZJEq7iUIQ,edge226,85237781_281541736_12708,Install,1.0,118.220.64.41,87b36cec-5e99-4356-af03-feef749962fa,1557633265,2019-05-12 11:54:25,1557633340,2019-05-12 11:55:40,1557633371,f85cecc63b3c45008524479b777f9048yR,http://clk.myiads.com/conv?p=dd58031696e011e780e142010af0001d&c=f85cecc63b3c45008524479b777f9048yR,idfa_87b36cec-5e99-4356-af03-feef749962fa,%ED%95%9C%EA%B5%AD%EC%96%B4
T68mF5juT4uBfZJEq7iUIQ,edge226,85237781_281541736_12708,Install,1.0,211.216.48.158,5368f797-f563-4ec4-ac13-d991773c878f,1557631317,2019-05-12 11:21:57,1557631403,2019-05-12 11:23:23,1557631433,0626547c64f69dceb9bfe8cba2f95566yR,http://clk.myiads.com/conv?p=dd58031696e011e780e142010af0001d&c=0626547c64f69dceb9bfe8cba2f95566yR,idfa_5368f797-f563-4ec4-ac13-d991773c878f,%ED%95%9C%EA%B5%AD%EC%96%B4
T68mF5juT4uBfZJEq7iUIQ,edge226,85237781_281541736_12708,Install,1.0,218.146.86.246,ab768c2d-930a-4aba-a66e-98ec16569a38,1557633594,2019-05-12 11:59:54,1557633673,2019-05-12 12:01:13,1557633773,b7d183746071700e25fa5abe0747af0eyR,http://clk.myiads.com/conv?p=dd58031696e011e780e142010af0001d&c=b7d183746071700e25fa5abe0747af0eyR,idfa_ab768c2d-930a-4aba-a66e-98ec16569a38,%ED%95%9C%EA%B5%AD%EC%96%B4
T68mF5juT4uBfZJEq7iUIQ,edge226,85237781_281541736_12708,Install,1.0,211.250.42.74,d6ef2bac-c03f-4312-bd6b-635cf32491ec,1557630115,2019-05-12 11:01:55,1557630303,2019-05-12 11:05:03,1557630334,78ccf37435e7b4afbe21bda1f067fbb0yR,http://clk.myiads.com/conv?p=dd58031696e011e780e142010af0001d&c=78ccf37435e7b4afbe21bda1f067fbb0yR,idfa_d6ef2bac-c03f-4312-bd6b-635cf32491ec,%ED%95%9C%EA%B5%AD%EC%96%B4
T68mF5juT4uBfZJEq7iUIQ,edge226,85237781_281541736_12708,Install,1.0,61.81.121.62,d38f1efa-9bdc-4dc6-88dc-20ef34b79038,1557633840,2019-05-12 12:04:00,1557633918,2019-05-12 12:05:18,1557633948,ca9abae58f56d076f99f78c3d94b6097yR,http://clk.myiads.com/conv?p=dd58031696e011e780e142010af0001d&c=ca9abae58f56d076f99f78c3d94b6097yR,idfa_d38f1efa-9bdc-4dc6-88dc-20ef34b79038,%ED%95%9C%EA%B5%AD%EC%96%B4
T68mF5juT4uBfZJEq7iUIQ,edge226,85237781_281541736_12708,Install,1.0,175.230.254.62,90dfe83d-5e82-4db0-81f0-98835bcf50a0,1557633107,2019-05-12 11:51:47,1557633182,2019-05-12 11:53:02,1557633212,bca19d2378acf182dd2ed6af2547ae0byR,http://clk.myiads.com/conv?p=dd58031696e011e780e142010af0001d&c=bca19d2378acf182dd2ed6af2547ae0byR,idfa_90dfe83d-5e82-4db0-81f0-98835bcf50a0,%ED%95%9C%EA%B5%AD%EC%96%B4
