cid,partner_id,channel_id,action_id,cpi,ip,idfa,click time,click datetime,install time,install datetime,postback time,click id,postback url,unique user id
T68mF5juT4uBfZJEq7iUIQ,edge226,85237781_281199103_13418,Install,1.0,125.141.67.74,e20f8205-6c99-48ad-8a33-19295a073be4,1557185552,2019-05-07 07:32:32,1557185747,2019-05-07 07:35:47,1557185778,f51807c446dace9fa48c664af6b8bbebyC,http://clk.myiads.com/conv?p=dd58031696e011e780e142010af0001d&c=f51807c446dace9fa48c664af6b8bbebyC,idfa_e20f8205-6c99-48ad-8a33-19295a073be4,%ED%95%9C%EA%B5%AD%EC%96%B4
T68mF5juT4uBfZJEq7iUIQ,edge226,85237781_281199103_13418,Install,1.0,61.40.194.10,251da0f3-beda-43c1-a2f9-c137cf78afb8,1557188658,2019-05-07 08:24:18,1557188742,2019-05-07 08:25:42,1557188772,2912b2a4b2bb0dd1bf81f6ff09741cd0yB,http://clk.myiads.com/conv?p=dd58031696e011e780e142010af0001d&c=2912b2a4b2bb0dd1bf81f6ff09741cd0yB,idfa_251da0f3-beda-43c1-a2f9-c137cf78afb8,%ED%95%9C%EA%B5%AD%EC%96%B4
T68mF5juT4uBfZJEq7iUIQ,edge226,85237781_281199103_13418,Install,1.0,119.66.102.7,98ad1624-b0a7-40fe-92bd-95a00a483a9b,1557186393,2019-05-07 07:46:33,1557186471,2019-05-07 07:47:51,1557186501,60cb182883d9a661c711325b3262d138yC,http://clk.myiads.com/conv?p=dd58031696e011e780e142010af0001d&c=60cb182883d9a661c711325b3262d138yC,idfa_98ad1624-b0a7-40fe-92bd-95a00a483a9b,%ED%95%9C%EA%B5%AD%EC%96%B4
T68mF5juT4uBfZJEq7iUIQ,edge226,85237781_281199103_13418,Install,1.0,210.94.80.108,3060549e-7bbf-4fa2-ac1e-88970d754c73,1557186068,2019-05-07 07:41:08,1557186213,2019-05-07 07:43:33,1557186243,4c48ef0a77e4f0d40f4146d668ccfe71yC,http://clk.myiads.com/conv?p=dd58031696e011e780e142010af0001d&c=4c48ef0a77e4f0d40f4146d668ccfe71yC,idfa_3060549e-7bbf-4fa2-ac1e-88970d754c73,%ED%95%9C%EA%B5%AD%EC%96%B4
T68mF5juT4uBfZJEq7iUIQ,edge226,85237781_281199103_13418,Install,1.0,210.216.14.29,8f2a94fb-e549-4834-96ce-03c3c6ea708e,1557187450,2019-05-07 08:04:10,1557187561,2019-05-07 08:06:01,1557187591,95f1be408691eb57a8f140959c6c70c7yB,http://clk.myiads.com/conv?p=dd58031696e011e780e142010af0001d&c=95f1be408691eb57a8f140959c6c70c7yB,idfa_8f2a94fb-e549-4834-96ce-03c3c6ea708e,%ED%95%9C%EA%B5%AD%EC%96%B4
T68mF5juT4uBfZJEq7iUIQ,edge226,85237781_281199103_13418,Install,1.0,115.89.11.34,96141aa1-9291-4811-b256-e2b78b3c1e81,1557187027,2019-05-07 07:57:07,1557187127,2019-05-07 07:58:47,1557187158,036ea06cf4c4d5748ca298175f9b735fyC,http://clk.myiads.com/conv?p=dd58031696e011e780e142010af0001d&c=036ea06cf4c4d5748ca298175f9b735fyC,idfa_96141aa1-9291-4811-b256-e2b78b3c1e81,%ED%95%9C%EA%B5%AD%EC%96%B4
T68mF5juT4uBfZJEq7iUIQ,edge226,85237781_281199103_13418,Install,1.0,111.118.20.118,4aa352a6-fa21-4db9-97bd-308805ed4e1b,1557188221,2019-05-07 08:17:01,1557188312,2019-05-07 08:18:32,1557188342,4f413d98c6b86b55ccab0123d121d091yB,http://clk.myiads.com/conv?p=dd58031696e011e780e142010af0001d&c=4f413d98c6b86b55ccab0123d121d091yB,idfa_4aa352a6-fa21-4db9-97bd-308805ed4e1b,%ED%95%9C%EA%B5%AD%EC%96%B4
T68mF5juT4uBfZJEq7iUIQ,edge226,85237781_281199103_13418,Install,1.0,27.116.255.152,0a0056de-1193-46e5-97f3-e88ba220ca61,1557186053,2019-05-07 07:40:53,1557186194,2019-05-07 07:43:14,1557186224,7affaf5edaa7172a8a0e6eea87bfe634yC,http://clk.myiads.com/conv?p=dd58031696e011e780e142010af0001d&c=7affaf5edaa7172a8a0e6eea87bfe634yC,idfa_0a0056de-1193-46e5-97f3-e88ba220ca61,%ED%95%9C%EA%B5%AD%EC%96%B4
T68mF5juT4uBfZJEq7iUIQ,edge226,85237781_281199103_13418,Install,1.0,211.182.112.240,10efa871-32a3-4822-a472-63ced3183e8c,1557185008,2019-05-07 07:23:28,1557185173,2019-05-07 07:26:13,1557185204,0103b58907dd97ab6ca544ab28cebafeyC,http://clk.myiads.com/conv?p=dd58031696e011e780e142010af0001d&c=0103b58907dd97ab6ca544ab28cebafeyC,idfa_10efa871-32a3-4822-a472-63ced3183e8c,%ED%95%9C%EA%B5%AD%EC%96%B4
T68mF5juT4uBfZJEq7iUIQ,edge226,85237781_281199103_13418,Install,1.0,121.145.120.3,e415bf7e-d385-48ae-8f90-830ec3285557,1557187550,2019-05-07 08:05:50,1557187656,2019-05-07 08:07:36,1557187686,6d00580a927b0b20b7acf7bff4c963bayB,http://clk.myiads.com/conv?p=dd58031696e011e780e142010af0001d&c=6d00580a927b0b20b7acf7bff4c963bayB,idfa_e415bf7e-d385-48ae-8f90-830ec3285557,%ED%95%9C%EA%B5%AD%EC%96%B4
T68mF5juT4uBfZJEq7iUIQ,edge226,85237781_281199103_13418,Install,1.0,1.214.204.50,f2ede156-c850-473a-a3b6-a6e578806817,1557185010,2019-05-07 07:23:30,1557185199,2019-05-07 07:26:39,1557185229,6f2eff47e619a52739aa207d8c980880yC,http://clk.myiads.com/conv?p=dd58031696e011e780e142010af0001d&c=6f2eff47e619a52739aa207d8c980880yC,idfa_f2ede156-c850-473a-a3b6-a6e578806817,%ED%95%9C%EA%B5%AD%EC%96%B4
T68mF5juT4uBfZJEq7iUIQ,edge226,85237781_281199103_13418,Install,1.0,61.37.41.130,36234bae-3260-4abd-a6e9-fd209916ede1,1557188729,2019-05-07 08:25:29,1557188831,2019-05-07 08:27:11,1557188861,bdd059e75cebcd35fd953dddd103b773yB,http://clk.myiads.com/conv?p=dd58031696e011e780e142010af0001d&c=bdd059e75cebcd35fd953dddd103b773yB,idfa_36234bae-3260-4abd-a6e9-fd209916ede1,%ED%95%9C%EA%B5%AD%EC%96%B4
T68mF5juT4uBfZJEq7iUIQ,edge226,85237781_281199103_13418,Install,1.0,121.182.166.82,3aa8a13b-4ca4-471d-94ed-143b058633da,1557185536,2019-05-07 07:32:16,1557185716,2019-05-07 07:35:16,1557185747,82b0990b27cda2285c6e07e16f7d2685yC,http://clk.myiads.com/conv?p=dd58031696e011e780e142010af0001d&c=82b0990b27cda2285c6e07e16f7d2685yC,idfa_3aa8a13b-4ca4-471d-94ed-143b058633da,%ED%95%9C%EA%B5%AD%EC%96%B4
T68mF5juT4uBfZJEq7iUIQ,edge226,85237781_281199103_13418,Install,1.0,211.254.220.237,bf9d235c-8022-4813-b938-860ebcdcd21c,1557187782,2019-05-07 08:09:42,1557187871,2019-05-07 08:11:11,1557187901,3ccf21c747c78e1ef7ca52f6f14f1e18yB,http://clk.myiads.com/conv?p=dd58031696e011e780e142010af0001d&c=3ccf21c747c78e1ef7ca52f6f14f1e18yB,idfa_bf9d235c-8022-4813-b938-860ebcdcd21c,%ED%95%9C%EA%B5%AD%EC%96%B4
T68mF5juT4uBfZJEq7iUIQ,edge226,85237781_281199103_13418,Install,1.0,211.54.74.50,d5913197-d875-4cf9-acce-eddecba9f96e,1557185657,2019-05-07 07:34:17,1557185759,2019-05-07 07:35:59,1557185790,e57288184d2e8b5e74405009a4102883yC,http://clk.myiads.com/conv?p=dd58031696e011e780e142010af0001d&c=e57288184d2e8b5e74405009a4102883yC,idfa_d5913197-d875-4cf9-acce-eddecba9f96e,%ED%95%9C%EA%B5%AD%EC%96%B4
T68mF5juT4uBfZJEq7iUIQ,edge226,85237781_281199103_13418,Install,1.0,211.250.42.74,356fa277-8e47-4669-8628-1812ec59b1ba,1557186576,2019-05-07 07:49:36,1557186694,2019-05-07 07:51:34,1557186724,d38021a914fb0f6b8f6da16a949eda05yC,http://clk.myiads.com/conv?p=dd58031696e011e780e142010af0001d&c=d38021a914fb0f6b8f6da16a949eda05yC,idfa_356fa277-8e47-4669-8628-1812ec59b1ba,%ED%95%9C%EA%B5%AD%EC%96%B4
T68mF5juT4uBfZJEq7iUIQ,edge226,85237781_281199103_13418,Install,1.0,112.218.231.43,c604212e-368d-40c3-aad5-396de375dac3,1557187282,2019-05-07 08:01:22,1557187371,2019-05-07 08:02:51,1557187402,5cbdbb9a246af744caf63f4da958a8c4yB,http://clk.myiads.com/conv?p=dd58031696e011e780e142010af0001d&c=5cbdbb9a246af744caf63f4da958a8c4yB,idfa_c604212e-368d-40c3-aad5-396de375dac3,%ED%95%9C%EA%B5%AD%EC%96%B4
T68mF5juT4uBfZJEq7iUIQ,edge226,85237781_281199103_13418,Install,1.0,211.54.74.50,046170a7-6f2b-4713-b538-b7084aa35eb0,1557187278,2019-05-07 08:01:18,1557187414,2019-05-07 08:03:34,1557187444,5ece98eccc258c4606c147686760b3c7yB,http://clk.myiads.com/conv?p=dd58031696e011e780e142010af0001d&c=5ece98eccc258c4606c147686760b3c7yB,idfa_046170a7-6f2b-4713-b538-b7084aa35eb0,%ED%95%9C%EA%B5%AD%EC%96%B4
T68mF5juT4uBfZJEq7iUIQ,edge226,85237781_281199103_13418,Install,1.0,210.223.250.3,91a92834-ef17-42dd-912f-b2d87c4300a5,1557188306,2019-05-07 08:18:26,1557188396,2019-05-07 08:19:56,1557188426,18179c2c472fb8f898ee2d7058f4352fyB,http://clk.myiads.com/conv?p=dd58031696e011e780e142010af0001d&c=18179c2c472fb8f898ee2d7058f4352fyB,idfa_91a92834-ef17-42dd-912f-b2d87c4300a5,%ED%95%9C%EA%B5%AD%EC%96%B4
T68mF5juT4uBfZJEq7iUIQ,edge226,85237781_281199103_13418,Install,1.0,183.97.106.140,4aad69ff-709c-447b-8eb1-d0a1ac5d7b1a,1557185529,2019-05-07 07:32:09,1557185675,2019-05-07 07:34:35,1557185705,2f625631e1f3b2c11486cc1743e5681eyC,http://clk.myiads.com/conv?p=dd58031696e011e780e142010af0001d&c=2f625631e1f3b2c11486cc1743e5681eyC,idfa_4aad69ff-709c-447b-8eb1-d0a1ac5d7b1a,%ED%95%9C%EA%B5%AD%EC%96%B4
T68mF5juT4uBfZJEq7iUIQ,edge226,85237781_281199103_13418,Install,1.0,112.221.173.170,cce71f00-f98c-48fe-b386-ba790b6b7267,1557186555,2019-05-07 07:49:15,1557186709,2019-05-07 07:51:49,1557186739,ab2e8094758d10ec741090b61038b16eyC,http://clk.myiads.com/conv?p=dd58031696e011e780e142010af0001d&c=ab2e8094758d10ec741090b61038b16eyC,idfa_cce71f00-f98c-48fe-b386-ba790b6b7267,%ED%95%9C%EA%B5%AD%EC%96%B4
T68mF5juT4uBfZJEq7iUIQ,edge226,85237781_281199103_13418,Install,1.0,218.38.136.99,f6b24bd2-a29b-4351-b435-142dc34512a0,1557186542,2019-05-07 07:49:02,1557186650,2019-05-07 07:50:50,1557186680,f70017c7f0619fbf7f3d0041c2d11af8yC,http://clk.myiads.com/conv?p=dd58031696e011e780e142010af0001d&c=f70017c7f0619fbf7f3d0041c2d11af8yC,idfa_f6b24bd2-a29b-4351-b435-142dc34512a0,%ED%95%9C%EA%B5%AD%EC%96%B4
