cid,partner_id,channel_id,action_id,cpi,ip,idfa,click time,click datetime,install time,install datetime,postback time,click id,postback url,unique user id
ZW5KGni9SFuNam5ow4XbTA,edge226,85237781_79f19c64720687444a_56f43ba163f09a2efe1d7f20da149cd4,Install,0.7,113.173.223.106,0E880F08-C6D2-41CA-A737-6A2E84F6B0F7,1556761224,2019-05-02 09:40:24,1556761263,2019-05-02 09:41:03,1556761294,21aaf09e33408ebc22d50cfcf228a0e0yk,http://clk.myiads.com/conv?p=dd58031696e011e780e142010af0001d&c=21aaf09e33408ebc22d50cfcf228a0e0yk,idfa_0E880F08-C6D2-41CA-A737-6A2E84F6B0F7,vi-vn
ZW5KGni9SFuNam5ow4XbTA,edge226,85237781_79f19c64720687444a_56f43ba163f09a2efe1d7f20da149cd4,Install,0.7,14.226.229.40,050A8517-5D11-4E9F-A1B8-1CCD7CCD8E0B,1556762666,2019-05-02 10:04:26,1556762704,2019-05-02 10:05:04,1556762735,54b263d4ec824c1a4f59dc1aa2f42e1byk,http://clk.myiads.com/conv?p=dd58031696e011e780e142010af0001d&c=54b263d4ec824c1a4f59dc1aa2f42e1byk,idfa_050A8517-5D11-4E9F-A1B8-1CCD7CCD8E0B,vi-vn
ZW5KGni9SFuNam5ow4XbTA,edge226,85237781_79f19c64720687444a_56f43ba163f09a2efe1d7f20da149cd4,Install,0.7,116.103.203.58,2161AB6D-E9E3-4CF9-9403-E8CFD861032A,1556764445,2019-05-02 10:34:05,1556764490,2019-05-02 10:34:50,1556764520,f9a919899e0f6faf8a055a4691e75d78yk,http://clk.myiads.com/conv?p=dd58031696e011e780e142010af0001d&c=f9a919899e0f6faf8a055a4691e75d78yk,idfa_2161AB6D-E9E3-4CF9-9403-E8CFD861032A,vi-vn
ZW5KGni9SFuNam5ow4XbTA,edge226,85237781_79f19c64720687444a_56f43ba163f09a2efe1d7f20da149cd4,Install,0.7,123.16.134.216,8DBEC90D-439F-4A42-B0D0-65F093884A83,1556763709,2019-05-02 10:21:49,1556763750,2019-05-02 10:22:30,1556763782,9eecffb676466758f5767fafa2fa6ee3yk,http://clk.myiads.com/conv?p=dd58031696e011e780e142010af0001d&c=9eecffb676466758f5767fafa2fa6ee3yk,idfa_8DBEC90D-439F-4A42-B0D0-65F093884A83,vi-vn
ZW5KGni9SFuNam5ow4XbTA,edge226,85237781_79f19c64720687444a_56f43ba163f09a2efe1d7f20da149cd4,Install,0.7,14.226.246.34,1CE286A4-32B3-41E7-9C10-DBB3499C4C7C,1556764640,2019-05-02 10:37:20,1556764682,2019-05-02 10:38:02,1556764712,067f263a4588e079f26e4b8956ca1b61yk,http://clk.myiads.com/conv?p=dd58031696e011e780e142010af0001d&c=067f263a4588e079f26e4b8956ca1b61yk,idfa_1CE286A4-32B3-41E7-9C10-DBB3499C4C7C,vi-vn
ZW5KGni9SFuNam5ow4XbTA,edge226,85237781_79f19c64720687444a_56f43ba163f09a2efe1d7f20da149cd4,Install,0.7,14.169.252.100,CC125B13-0A1F-4B2A-AB88-0B0760FEE15D,1556763329,2019-05-02 10:15:29,1556763373,2019-05-02 10:16:13,1556763403,39d5bfc6a2903f9ce08750f1036c1c3dyk,http://clk.myiads.com/conv?p=dd58031696e011e780e142010af0001d&c=39d5bfc6a2903f9ce08750f1036c1c3dyk,idfa_CC125B13-0A1F-4B2A-AB88-0B0760FEE15D,vi-vn
ZW5KGni9SFuNam5ow4XbTA,edge226,85237781_79f19c64720687444a_56f43ba163f09a2efe1d7f20da149cd4,Install,0.7,171.231.231.209,A91BEFCC-F793-409D-8B90-CB4577D17AE4,1556764068,2019-05-02 10:27:48,1556764111,2019-05-02 10:28:31,1556764141,60ebfb6feb5f04d21b1710ddf0ba7a3dyk,http://clk.myiads.com/conv?p=dd58031696e011e780e142010af0001d&c=60ebfb6feb5f04d21b1710ddf0ba7a3dyk,idfa_A91BEFCC-F793-409D-8B90-CB4577D17AE4,vi-vn
ZW5KGni9SFuNam5ow4XbTA,edge226,85237781_79f19c64720687444a_56f43ba163f09a2efe1d7f20da149cd4,Install,0.7,14.169.207.99,BC50390C-A304-4531-857E-2427BB2E2F66,1556763477,2019-05-02 10:17:57,1556763520,2019-05-02 10:18:40,1556763550,38463e3cd81417e84821983112e59081yk,http://clk.myiads.com/conv?p=dd58031696e011e780e142010af0001d&c=38463e3cd81417e84821983112e59081yk,idfa_BC50390C-A304-4531-857E-2427BB2E2F66,vi-vn
ZW5KGni9SFuNam5ow4XbTA,edge226,85237781_79f19c64720687444a_56f43ba163f09a2efe1d7f20da149cd4,Install,0.7,123.21.160.214,21350075-EB38-4F01-80C8-3566425EF783,1556763985,2019-05-02 10:26:25,1556764026,2019-05-02 10:27:06,1556764057,adb5b98b79f6abf4ba8247bd23902778yk,http://clk.myiads.com/conv?p=dd58031696e011e780e142010af0001d&c=adb5b98b79f6abf4ba8247bd23902778yk,idfa_21350075-EB38-4F01-80C8-3566425EF783,vi-VN
ZW5KGni9SFuNam5ow4XbTA,edge226,85237781_79f19c64720687444a_56f43ba163f09a2efe1d7f20da149cd4,Install,0.7,123.21.111.238,5543171A-E06F-49CC-8652-AE7DA7C739CC,1556763316,2019-05-02 10:15:16,1556763351,2019-05-02 10:15:51,1556763381,5968a1913ce059d3879bb2bad0550f32yk,http://clk.myiads.com/conv?p=dd58031696e011e780e142010af0001d&c=5968a1913ce059d3879bb2bad0550f32yk,idfa_5543171A-E06F-49CC-8652-AE7DA7C739CC,vi-vn
ZW5KGni9SFuNam5ow4XbTA,edge226,85237781_79f19c64720687444a_56f43ba163f09a2efe1d7f20da149cd4,Install,0.7,113.172.200.202,C6A8E7FC-4B37-41B2-AAA3-22EC55FF9913,1556763046,2019-05-02 10:10:46,1556763083,2019-05-02 10:11:23,1556763736,629efe2b3725b1bc80669567880f2887yk,http://clk.myiads.com/conv?p=dd58031696e011e780e142010af0001d&c=629efe2b3725b1bc80669567880f2887yk,idfa_C6A8E7FC-4B37-41B2-AAA3-22EC55FF9913,vi-vn
ZW5KGni9SFuNam5ow4XbTA,edge226,85237781_79f19c64720687444a_56f43ba163f09a2efe1d7f20da149cd4,Install,0.7,123.21.198.141,511462EB-FDF1-49C3-A2B5-9083F87EBFC3,1556763652,2019-05-02 10:20:52,1556763696,2019-05-02 10:21:36,1556763892,2e9f3a489ef813f3db7b187d23db9d1eyk,http://clk.myiads.com/conv?p=dd58031696e011e780e142010af0001d&c=2e9f3a489ef813f3db7b187d23db9d1eyk,idfa_511462EB-FDF1-49C3-A2B5-9083F87EBFC3,vi-vn
ZW5KGni9SFuNam5ow4XbTA,edge226,85237781_79f19c64720687444a_56f43ba163f09a2efe1d7f20da149cd4,Install,0.7,123.20.93.113,439D500E-EFA8-4B70-B643-70B11BE2ECF1,1556761225,2019-05-02 09:40:25,1556761261,2019-05-02 09:41:01,1556761292,f7745865190afcc7d1b1cd2c812c0592yk,http://clk.myiads.com/conv?p=dd58031696e011e780e142010af0001d&c=f7745865190afcc7d1b1cd2c812c0592yk,idfa_439D500E-EFA8-4B70-B643-70B11BE2ECF1,vi-vn
ZW5KGni9SFuNam5ow4XbTA,edge226,85237781_79f19c64720687444a_56f43ba163f09a2efe1d7f20da149cd4,Install,0.7,123.20.32.92,7CD27C7E-F577-46D1-AC9F-570871CA0E9D,1556764391,2019-05-02 10:33:11,1556764430,2019-05-02 10:33:50,1556764460,dab0da94315900656233623288986c1byk,http://clk.myiads.com/conv?p=dd58031696e011e780e142010af0001d&c=dab0da94315900656233623288986c1byk,idfa_7CD27C7E-F577-46D1-AC9F-570871CA0E9D,vi-vn
ZW5KGni9SFuNam5ow4XbTA,edge226,85237781_79f19c64720687444a_56f43ba163f09a2efe1d7f20da149cd4,Install,0.7,27.73.105.112,64E0B3F0-AF85-43BA-9B6E-DBB8B425D8F6,1556761400,2019-05-02 09:43:20,1556761439,2019-05-02 09:43:59,1556761470,b29619e74974df9af4860d731874320eyk,http://clk.myiads.com/conv?p=dd58031696e011e780e142010af0001d&c=b29619e74974df9af4860d731874320eyk,idfa_64E0B3F0-AF85-43BA-9B6E-DBB8B425D8F6,vi-vn
ZW5KGni9SFuNam5ow4XbTA,edge226,85237781_79f19c64720687444a_56f43ba163f09a2efe1d7f20da149cd4,Install,0.7,123.21.82.223,DE38ADFE-5B3E-49B2-8955-5ABAFED5B17A,1556762398,2019-05-02 09:59:58,1556762439,2019-05-02 10:00:39,1556762469,2d1cbb03bc319e4acf7a6ad00b0c2764yk,http://clk.myiads.com/conv?p=dd58031696e011e780e142010af0001d&c=2d1cbb03bc319e4acf7a6ad00b0c2764yk,idfa_DE38ADFE-5B3E-49B2-8955-5ABAFED5B17A,vi-vn
ZW5KGni9SFuNam5ow4XbTA,edge226,85237781_79f19c64720687444a_56f43ba163f09a2efe1d7f20da149cd4,Install,0.7,222.252.45.72,B12F9ABD-0CCF-4301-AF0E-A74E49EEC4FF,1556764301,2019-05-02 10:31:41,1556764339,2019-05-02 10:32:19,1556764370,5430606cdbc0df7d724d2c903c974451yk,http://clk.myiads.com/conv?p=dd58031696e011e780e142010af0001d&c=5430606cdbc0df7d724d2c903c974451yk,idfa_B12F9ABD-0CCF-4301-AF0E-A74E49EEC4FF,vi-vn
ZW5KGni9SFuNam5ow4XbTA,edge226,85237781_79f19c64720687444a_56f43ba163f09a2efe1d7f20da149cd4,Install,0.7,14.188.218.211,DE6C62E4-01D7-4B3C-82B4-E712A707637A,1556763301,2019-05-02 10:15:01,1556763340,2019-05-02 10:15:40,1556763370,2aee1a8bb9a32084a8239a34271ee6ecyk,http://clk.myiads.com/conv?p=dd58031696e011e780e142010af0001d&c=2aee1a8bb9a32084a8239a34271ee6ecyk,idfa_DE6C62E4-01D7-4B3C-82B4-E712A707637A,vi-vn
ZW5KGni9SFuNam5ow4XbTA,edge226,85237781_79f19c64720687444a_56f43ba163f09a2efe1d7f20da149cd4,Install,0.7,123.20.155.237,092B7104-4266-4641-9597-240517123A48,1556764714,2019-05-02 10:38:34,1556764749,2019-05-02 10:39:09,1556764780,68496e6728555abb477277474cf0d55cyk,http://clk.myiads.com/conv?p=dd58031696e011e780e142010af0001d&c=68496e6728555abb477277474cf0d55cyk,idfa_092B7104-4266-4641-9597-240517123A48,vi-vn
ZW5KGni9SFuNam5ow4XbTA,edge226,85237781_79f19c64720687444a_56f43ba163f09a2efe1d7f20da149cd4,Install,0.7,123.21.79.170,B5FEB18D-7171-47A9-9551-67674626DE04,1556762658,2019-05-02 10:04:18,1556762694,2019-05-02 10:04:54,1556762724,bf067daa73e1b57b6e387c411c8c21cayk,http://clk.myiads.com/conv?p=dd58031696e011e780e142010af0001d&c=bf067daa73e1b57b6e387c411c8c21cayk,idfa_B5FEB18D-7171-47A9-9551-67674626DE04,vi-vn
ZW5KGni9SFuNam5ow4XbTA,edge226,85237781_79f19c64720687444a_56f43ba163f09a2efe1d7f20da149cd4,Install,0.7,14.186.61.50,6B494CEA-0716-4175-AB21-6A20D3563D1A,1556763360,2019-05-02 10:16:00,1556763400,2019-05-02 10:16:40,1556763685,1f4b439e65fbdce7f52256f55122786eyk,http://clk.myiads.com/conv?p=dd58031696e011e780e142010af0001d&c=1f4b439e65fbdce7f52256f55122786eyk,idfa_6B494CEA-0716-4175-AB21-6A20D3563D1A,vi-vn
ZW5KGni9SFuNam5ow4XbTA,edge226,85237781_79f19c64720687444a_56f43ba163f09a2efe1d7f20da149cd4,Install,0.7,171.253.49.145,D87D60E6-18B5-410A-A5F8-5BA7DFC78E6F,1556761608,2019-05-02 09:46:48,1556761646,2019-05-02 09:47:26,1556761677,9e8d3a7bcdc4f0fe961e537c38045351yk,http://clk.myiads.com/conv?p=dd58031696e011e780e142010af0001d&c=9e8d3a7bcdc4f0fe961e537c38045351yk,idfa_D87D60E6-18B5-410A-A5F8-5BA7DFC78E6F,vi-vn
ZW5KGni9SFuNam5ow4XbTA,edge226,85237781_79f19c64720687444a_56f43ba163f09a2efe1d7f20da149cd4,Install,0.7,116.96.92.101,9CCE9318-A95F-4C0E-9C00-845597DB8B19,1556761554,2019-05-02 09:45:54,1556761590,2019-05-02 09:46:30,1556761620,42f52a1999558ceab971c668857c77c9yk,http://clk.myiads.com/conv?p=dd58031696e011e780e142010af0001d&c=42f52a1999558ceab971c668857c77c9yk,idfa_9CCE9318-A95F-4C0E-9C00-845597DB8B19,vi-vn
ZW5KGni9SFuNam5ow4XbTA,edge226,85237781_79f19c64720687444a_56f43ba163f09a2efe1d7f20da149cd4,Install,0.7,14.251.161.109,FA92AB50-D3B9-48ED-9FA7-07F69E64356B,1556763141,2019-05-02 10:12:21,1556763179,2019-05-02 10:12:59,1556763209,02415757bed6025dc405a0399174a343yk,http://clk.myiads.com/conv?p=dd58031696e011e780e142010af0001d&c=02415757bed6025dc405a0399174a343yk,idfa_FA92AB50-D3B9-48ED-9FA7-07F69E64356B,vi-vn
ZW5KGni9SFuNam5ow4XbTA,edge226,85237781_79f19c64720687444a_56f43ba163f09a2efe1d7f20da149cd4,Install,0.7,123.17.85.78,A4C0FD69-8C37-4D03-B30D-ED4C85CA1BB2,1556761575,2019-05-02 09:46:15,1556761620,2019-05-02 09:47:00,1556761651,54df3cbc9a5c91b07070328ce6c1d86eyk,http://clk.myiads.com/conv?p=dd58031696e011e780e142010af0001d&c=54df3cbc9a5c91b07070328ce6c1d86eyk,idfa_A4C0FD69-8C37-4D03-B30D-ED4C85CA1BB2,vi-vn
ZW5KGni9SFuNam5ow4XbTA,edge226,85237781_79f19c64720687444a_56f43ba163f09a2efe1d7f20da149cd4,Install,0.7,222.252.57.183,2B77D2D3-31B0-4C85-A785-412DBF94BEC3,1556761247,2019-05-02 09:40:47,1556761292,2019-05-02 09:41:32,1556761323,a8484ad3710025797429989a78e916c4yk,http://clk.myiads.com/conv?p=dd58031696e011e780e142010af0001d&c=a8484ad3710025797429989a78e916c4yk,idfa_2B77D2D3-31B0-4C85-A785-412DBF94BEC3,vi-vn
ZW5KGni9SFuNam5ow4XbTA,edge226,85237781_79f19c64720687444a_56f43ba163f09a2efe1d7f20da149cd4,Install,0.7,117.7.180.46,6EAEBAF8-9D2B-4985-A56A-7D3230339E21,1556762665,2019-05-02 10:04:25,1556762707,2019-05-02 10:05:07,1556762737,e36ada0e7901dbbfb1582063f1331141yk,http://clk.myiads.com/conv?p=dd58031696e011e780e142010af0001d&c=e36ada0e7901dbbfb1582063f1331141yk,idfa_6EAEBAF8-9D2B-4985-A56A-7D3230339E21,vi-vn
ZW5KGni9SFuNam5ow4XbTA,edge226,85237781_79f19c64720687444a_56f43ba163f09a2efe1d7f20da149cd4,Install,0.7,14.162.161.41,4C4678E6-4C17-4570-9BBA-D501DBCD9E88,1556764089,2019-05-02 10:28:09,1556764130,2019-05-02 10:28:50,1556764161,29ba5ac0e36d9bef935a4c43176f0697yk,http://clk.myiads.com/conv?p=dd58031696e011e780e142010af0001d&c=29ba5ac0e36d9bef935a4c43176f0697yk,idfa_4C4678E6-4C17-4570-9BBA-D501DBCD9E88,vi-vn
ZW5KGni9SFuNam5ow4XbTA,edge226,85237781_79f19c64720687444a_56f43ba163f09a2efe1d7f20da149cd4,Install,0.7,123.24.139.192,3A1DD7A6-F8AC-48A5-9A18-9E7CD091E82A,1556764405,2019-05-02 10:33:25,1556764440,2019-05-02 10:34:00,1556764471,46f6039b5ae6e28c1a9affe323a7298dyk,http://clk.myiads.com/conv?p=dd58031696e011e780e142010af0001d&c=46f6039b5ae6e28c1a9affe323a7298dyk,idfa_3A1DD7A6-F8AC-48A5-9A18-9E7CD091E82A,vi-vn
ZW5KGni9SFuNam5ow4XbTA,edge226,85237781_79f19c64720687444a_56f43ba163f09a2efe1d7f20da149cd4,Install,0.7,123.20.152.182,D8AC6FD5-9772-4DBB-AF1E-254807DA1B3F,1556763979,2019-05-02 10:26:19,1556764015,2019-05-02 10:26:55,1556764045,cf1c2098a91b5110adccdf08fcf41d43yk,http://clk.myiads.com/conv?p=dd58031696e011e780e142010af0001d&c=cf1c2098a91b5110adccdf08fcf41d43yk,idfa_D8AC6FD5-9772-4DBB-AF1E-254807DA1B3F,vi-vn
ZW5KGni9SFuNam5ow4XbTA,edge226,85237781_79f19c64720687444a_56f43ba163f09a2efe1d7f20da149cd4,Install,0.7,14.231.14.142,4D34EB34-C16A-4E87-B08C-72B1D7020754,1556763627,2019-05-02 10:20:27,1556763663,2019-05-02 10:21:03,1556763693,add57d7b4b77f8d6d07a1b173277c1bayk,http://clk.myiads.com/conv?p=dd58031696e011e780e142010af0001d&c=add57d7b4b77f8d6d07a1b173277c1bayk,idfa_4D34EB34-C16A-4E87-B08C-72B1D7020754,vi-vn
ZW5KGni9SFuNam5ow4XbTA,edge226,85237781_79f19c64720687444a_56f43ba163f09a2efe1d7f20da149cd4,Install,0.7,123.21.151.194,B90C3CB1-BCE3-48AC-BF64-13DF5CF9556B,1556764305,2019-05-02 10:31:45,1556764347,2019-05-02 10:32:27,1556764377,92794302f13d51480fedd34bc5148e74yk,http://clk.myiads.com/conv?p=dd58031696e011e780e142010af0001d&c=92794302f13d51480fedd34bc5148e74yk,idfa_B90C3CB1-BCE3-48AC-BF64-13DF5CF9556B,vi-vn
ZW5KGni9SFuNam5ow4XbTA,edge226,85237781_79f19c64720687444a_56f43ba163f09a2efe1d7f20da149cd4,Install,0.7,113.172.24.70,A6802452-2A5A-4020-BAA6-DBC90FDAF572,1556762987,2019-05-02 10:09:47,1556763024,2019-05-02 10:10:24,1556763055,d5fdf9610d586b173af542e9880ed6aayk,http://clk.myiads.com/conv?p=dd58031696e011e780e142010af0001d&c=d5fdf9610d586b173af542e9880ed6aayk,idfa_A6802452-2A5A-4020-BAA6-DBC90FDAF572,vi-vn
