cid,partner_id,channel_id,action_id,cpi,ip,idfa,click time,click datetime,install time,install datetime,postback time,click id,postback url,unique user id
F4Xcma56Qxa2XVF_uBUqqg,edge226,85237781_7931419e0588d1b37f_26a10fc6ed7a89b86dcbcbd18ced5cb9,install,1.7,115.91.214.3,2E21A2FD-E930-4204-BD30-CFBE33DD02B8,1559096691,2019-05-29 10:24:51,1559096744,2019-05-29 10:25:44,1559096775,5748fffb9f18dd3b80eef5f590b50b08yH,http://clk.myiads.com/conv?p=dd58031696e011e780e142010af0001d&c=5748fffb9f18dd3b80eef5f590b50b08yH,idfa_2E21A2FD-E930-4204-BD30-CFBE33DD02B8,ko
F4Xcma56Qxa2XVF_uBUqqg,edge226,85237781_7931419e0588d1b37f_26a10fc6ed7a89b86dcbcbd18ced5cb9,install,1.7,211.253.60.18,F7B2906D-75CD-4826-B486-87EF6C2774D8,1559094732,2019-05-29 09:52:12,1559094782,2019-05-29 09:53:02,1559094812,0e26f8c798bcf2e6000a0df947423246yH,http://clk.myiads.com/conv?p=dd58031696e011e780e142010af0001d&c=0e26f8c798bcf2e6000a0df947423246yH,idfa_F7B2906D-75CD-4826-B486-87EF6C2774D8,ko
F4Xcma56Qxa2XVF_uBUqqg,edge226,85237781_7931419e0588d1b37f_26a10fc6ed7a89b86dcbcbd18ced5cb9,install,1.7,182.222.150.232,62D5E2DB-4AFF-40A5-8ED6-B48FAD6A9EDC,1559096373,2019-05-29 10:19:33,1559096422,2019-05-29 10:20:22,1559096453,6cef0bed813819efd568a90bf4f7032eyH,http://clk.myiads.com/conv?p=dd58031696e011e780e142010af0001d&c=6cef0bed813819efd568a90bf4f7032eyH,idfa_62D5E2DB-4AFF-40A5-8ED6-B48FAD6A9EDC,ko
F4Xcma56Qxa2XVF_uBUqqg,edge226,85237781_7931419e0588d1b37f_26a10fc6ed7a89b86dcbcbd18ced5cb9,install,1.7,220.122.199.199,21FA7E6D-8854-49A4-B006-48D933F466BC,1559094257,2019-05-29 09:44:17,1559094308,2019-05-29 09:45:08,1559094339,b6f3d431d5bce4bb3834d474ac4cb711yH,http://clk.myiads.com/conv?p=dd58031696e011e780e142010af0001d&c=b6f3d431d5bce4bb3834d474ac4cb711yH,idfa_21FA7E6D-8854-49A4-B006-48D933F466BC,ko
F4Xcma56Qxa2XVF_uBUqqg,edge226,85237781_7931419e0588d1b37f_26a10fc6ed7a89b86dcbcbd18ced5cb9,install,1.7,59.8.201.6,C61197D9-FF43-4E1C-B1E1-ACC759DC22DA,1559094349,2019-05-29 09:45:49,1559094402,2019-05-29 09:46:42,1559094432,53d8937de5dcd59c88ef690dd11689d6yH,http://clk.myiads.com/conv?p=dd58031696e011e780e142010af0001d&c=53d8937de5dcd59c88ef690dd11689d6yH,idfa_C61197D9-FF43-4E1C-B1E1-ACC759DC22DA,ko
F4Xcma56Qxa2XVF_uBUqqg,edge226,85237781_7931419e0588d1b37f_26a10fc6ed7a89b86dcbcbd18ced5cb9,install,1.7,182.219.121.42,07DB4F0C-D90C-41E5-839D-9EDB2E0D515E,1559095091,2019-05-29 09:58:11,1559095143,2019-05-29 09:59:03,1559095173,3e37e35a960786447e16950982ecdcf2yH,http://clk.myiads.com/conv?p=dd58031696e011e780e142010af0001d&c=3e37e35a960786447e16950982ecdcf2yH,idfa_07DB4F0C-D90C-41E5-839D-9EDB2E0D515E,ko
F4Xcma56Qxa2XVF_uBUqqg,edge226,85237781_7931419e0588d1b37f_26a10fc6ed7a89b86dcbcbd18ced5cb9,install,1.7,182.228.68.118,98C38FAC-837B-4FA5-8C00-85FC0A49DCAF,1559094830,2019-05-29 09:53:50,1559094880,2019-05-29 09:54:40,1559094911,e25ebafb364d776e91189f176ee7fe86yH,http://clk.myiads.com/conv?p=dd58031696e011e780e142010af0001d&c=e25ebafb364d776e91189f176ee7fe86yH,idfa_98C38FAC-837B-4FA5-8C00-85FC0A49DCAF,ko
F4Xcma56Qxa2XVF_uBUqqg,edge226,85237781_7931419e0588d1b37f_26a10fc6ed7a89b86dcbcbd18ced5cb9,install,1.7,58.140.211.238,1F75BDD7-5633-4BF1-82DF-0B3403BF3ADF,1559092671,2019-05-29 09:17:51,1559092721,2019-05-29 09:18:41,1559092752,0ee26674efd6dc531df42a5151fa00dayH,http://clk.myiads.com/conv?p=dd58031696e011e780e142010af0001d&c=0ee26674efd6dc531df42a5151fa00dayH,idfa_1F75BDD7-5633-4BF1-82DF-0B3403BF3ADF,ko
F4Xcma56Qxa2XVF_uBUqqg,edge226,85237781_7931419e0588d1b37f_26a10fc6ed7a89b86dcbcbd18ced5cb9,install,1.7,115.40.55.254,9B6CAA3B-B6DE-4EE8-9D46-9344680D5981,1559097207,2019-05-29 10:33:27,1559097255,2019-05-29 10:34:15,1559097286,1e2af617ba2e4f8bb604c4a4efe4f8b5yH,http://clk.myiads.com/conv?p=dd58031696e011e780e142010af0001d&c=1e2af617ba2e4f8bb604c4a4efe4f8b5yH,idfa_9B6CAA3B-B6DE-4EE8-9D46-9344680D5981,ko
F4Xcma56Qxa2XVF_uBUqqg,edge226,85237781_7931419e0588d1b37f_26a10fc6ed7a89b86dcbcbd18ced5cb9,install,1.7,59.9.74.196,0BF1900B-B3DA-451C-8EB6-2D7A2C0974B0,1559095897,2019-05-29 10:11:37,1559095955,2019-05-29 10:12:35,1559095986,918fdc5bb05b0714d31bbd508f3964efyH,http://clk.myiads.com/conv?p=dd58031696e011e780e142010af0001d&c=918fdc5bb05b0714d31bbd508f3964efyH,idfa_0BF1900B-B3DA-451C-8EB6-2D7A2C0974B0,ko
F4Xcma56Qxa2XVF_uBUqqg,edge226,85237781_7931419e0588d1b37f_26a10fc6ed7a89b86dcbcbd18ced5cb9,install,1.7,121.162.60.187,3DC7C077-53D7-4362-9BB0-9377F2AAEBD6,1559097100,2019-05-29 10:31:40,1559097148,2019-05-29 10:32:28,1559097180,323185eec402fc92f149b9ba5661588fyH,http://clk.myiads.com/conv?p=dd58031696e011e780e142010af0001d&c=323185eec402fc92f149b9ba5661588fyH,idfa_3DC7C077-53D7-4362-9BB0-9377F2AAEBD6,ko
F4Xcma56Qxa2XVF_uBUqqg,edge226,85237781_7931419e0588d1b37f_26a10fc6ed7a89b86dcbcbd18ced5cb9,install,1.7,182.218.184.120,940AD079-B886-471E-AED4-3BA6F7A91500,1559094008,2019-05-29 09:40:08,1559094069,2019-05-29 09:41:09,1559094100,883f1fc97ae452dd3be8744b5ef21f5ayH,http://clk.myiads.com/conv?p=dd58031696e011e780e142010af0001d&c=883f1fc97ae452dd3be8744b5ef21f5ayH,idfa_940AD079-B886-471E-AED4-3BA6F7A91500,ko
F4Xcma56Qxa2XVF_uBUqqg,edge226,85237781_7931419e0588d1b37f_26a10fc6ed7a89b86dcbcbd18ced5cb9,install,1.7,1.229.81.252,76BBB477-2164-44D4-B18D-E66A5326C341,1559093091,2019-05-29 09:24:51,1559093146,2019-05-29 09:25:46,1559093176,eeb5ce10621afc231a6e40364c45b778yH,http://clk.myiads.com/conv?p=dd58031696e011e780e142010af0001d&c=eeb5ce10621afc231a6e40364c45b778yH,idfa_76BBB477-2164-44D4-B18D-E66A5326C341,ko
F4Xcma56Qxa2XVF_uBUqqg,edge226,85237781_7931419e0588d1b37f_26a10fc6ed7a89b86dcbcbd18ced5cb9,install,1.7,180.189.70.33,C682C69B-98F7-4E95-A90F-89F47AAC03CD,1559056429,2019-05-28 23:13:49,1559056475,2019-05-28 23:14:35,1559056506,f335bf22e2402d1b02e0f3472527a9fbyI,http://clk.myiads.com/conv?p=dd58031696e011e780e142010af0001d&c=f335bf22e2402d1b02e0f3472527a9fbyI,idfa_C682C69B-98F7-4E95-A90F-89F47AAC03CD,ko
F4Xcma56Qxa2XVF_uBUqqg,edge226,85237781_7931419e0588d1b37f_26a10fc6ed7a89b86dcbcbd18ced5cb9,install,1.7,118.36.198.188,5B878CFD-E552-4BB6-80AF-FD185410ACC8,1559095500,2019-05-29 10:05:00,1559095552,2019-05-29 10:05:52,1559095582,be0f9da5f76b0b47b7b02d90edba3873yH,http://clk.myiads.com/conv?p=dd58031696e011e780e142010af0001d&c=be0f9da5f76b0b47b7b02d90edba3873yH,idfa_5B878CFD-E552-4BB6-80AF-FD185410ACC8,ko
F4Xcma56Qxa2XVF_uBUqqg,edge226,85237781_7931419e0588d1b37f_26a10fc6ed7a89b86dcbcbd18ced5cb9,install,1.7,14.34.171.175,E4BA2853-3642-4F39-8BBD-486F364DB885,1559092607,2019-05-29 09:16:47,1559092663,2019-05-29 09:17:43,1559092693,749b445062ca6a39ef7e469da6b6f3d7yH,http://clk.myiads.com/conv?p=dd58031696e011e780e142010af0001d&c=749b445062ca6a39ef7e469da6b6f3d7yH,idfa_E4BA2853-3642-4F39-8BBD-486F364DB885,ko
F4Xcma56Qxa2XVF_uBUqqg,edge226,85237781_7931419e0588d1b37f_26a10fc6ed7a89b86dcbcbd18ced5cb9,install,1.7,223.62.172.73,C293C9FE-ADB6-4BFC-8C5A-7BDCE058F39F,1559096332,2019-05-29 10:18:52,1559096389,2019-05-29 10:19:49,1559096419,24450a48dc8eafc40a6fdb1bc3b8118eyH,http://clk.myiads.com/conv?p=dd58031696e011e780e142010af0001d&c=24450a48dc8eafc40a6fdb1bc3b8118eyH,idfa_C293C9FE-ADB6-4BFC-8C5A-7BDCE058F39F,ko
F4Xcma56Qxa2XVF_uBUqqg,edge226,85237781_7931419e0588d1b37f_26a10fc6ed7a89b86dcbcbd18ced5cb9,install,1.7,124.51.10.230,07DC612A-B650-4EA3-BE4D-6CBE9278B209,1559097168,2019-05-29 10:32:48,1559097219,2019-05-29 10:33:39,1559097251,c1da62733be15a8e9b11cd5fe1811d86yH,http://clk.myiads.com/conv?p=dd58031696e011e780e142010af0001d&c=c1da62733be15a8e9b11cd5fe1811d86yH,idfa_07DC612A-B650-4EA3-BE4D-6CBE9278B209,ko
F4Xcma56Qxa2XVF_uBUqqg,edge226,85237781_7931419e0588d1b37f_26a10fc6ed7a89b86dcbcbd18ced5cb9,install,1.7,218.157.168.106,2C3B7A58-21AC-4BB0-BACE-AA85483D5AA5,1559055880,2019-05-28 23:04:40,1559055948,2019-05-28 23:05:48,1559055979,65fec71e5b171ff2f4a4bd91756caa6eyI,http://clk.myiads.com/conv?p=dd58031696e011e780e142010af0001d&c=65fec71e5b171ff2f4a4bd91756caa6eyI,idfa_2C3B7A58-21AC-4BB0-BACE-AA85483D5AA5,ko
F4Xcma56Qxa2XVF_uBUqqg,edge226,85237781_7931419e0588d1b37f_26a10fc6ed7a89b86dcbcbd18ced5cb9,install,1.7,61.78.84.83,1E7BD8FF-D782-4284-BC6C-26EE820E2819,1559097377,2019-05-29 10:36:17,1559097427,2019-05-29 10:37:07,1559097457,c562deb688926fe0cce89780e462e828yH,http://clk.myiads.com/conv?p=dd58031696e011e780e142010af0001d&c=c562deb688926fe0cce89780e462e828yH,idfa_1E7BD8FF-D782-4284-BC6C-26EE820E2819,ko
F4Xcma56Qxa2XVF_uBUqqg,edge226,85237781_7931419e0588d1b37f_26a10fc6ed7a89b86dcbcbd18ced5cb9,install,1.7,183.99.236.198,0F4BC572-330D-4DE9-B0F1-2167A03C3959,1559097647,2019-05-29 10:40:47,1559097698,2019-05-29 10:41:38,1559097728,946d8a68f372bf657c57387d3df51f2ayH,http://clk.myiads.com/conv?p=dd58031696e011e780e142010af0001d&c=946d8a68f372bf657c57387d3df51f2ayH,idfa_0F4BC572-330D-4DE9-B0F1-2167A03C3959,ko
F4Xcma56Qxa2XVF_uBUqqg,edge226,85237781_7931419e0588d1b37f_26a10fc6ed7a89b86dcbcbd18ced5cb9,install,1.7,220.81.48.50,6F044B44-C7C6-4E1D-8558-9BC66EA8AE61,1559093330,2019-05-29 09:28:50,1559093379,2019-05-29 09:29:39,1559093409,a8417e22c99d5a5b39159be539946c15yH,http://clk.myiads.com/conv?p=dd58031696e011e780e142010af0001d&c=a8417e22c99d5a5b39159be539946c15yH,idfa_6F044B44-C7C6-4E1D-8558-9BC66EA8AE61,ko
F4Xcma56Qxa2XVF_uBUqqg,edge226,85237781_7931419e0588d1b37f_26a10fc6ed7a89b86dcbcbd18ced5cb9,install,1.7,58.224.211.254,FED709FC-1AE8-4131-8844-6973F8F7B2BE,1559056098,2019-05-28 23:08:18,1559056145,2019-05-28 23:09:05,1559056176,f2b69eac7fe06bfbca5223bda028e263yI,http://clk.myiads.com/conv?p=dd58031696e011e780e142010af0001d&c=f2b69eac7fe06bfbca5223bda028e263yI,idfa_FED709FC-1AE8-4131-8844-6973F8F7B2BE,ko
F4Xcma56Qxa2XVF_uBUqqg,edge226,85237781_7931419e0588d1b37f_26a10fc6ed7a89b86dcbcbd18ced5cb9,install,1.7,123.109.11.225,7B222282-B5A3-49C5-B1DD-13693D0D91F4,1559094990,2019-05-29 09:56:30,1559095042,2019-05-29 09:57:22,1559095072,7719298e59b46ead7263dcf4e33e3340yH,http://clk.myiads.com/conv?p=dd58031696e011e780e142010af0001d&c=7719298e59b46ead7263dcf4e33e3340yH,idfa_7B222282-B5A3-49C5-B1DD-13693D0D91F4,ko
F4Xcma56Qxa2XVF_uBUqqg,edge226,85237781_7931419e0588d1b37f_26a10fc6ed7a89b86dcbcbd18ced5cb9,install,1.7,222.96.170.75,88AFBEEC-DDEB-4ECC-8819-D2DD4C57EE3C,1559092081,2019-05-29 09:08:01,1559092133,2019-05-29 09:08:53,1559092227,30a8f32758cc81618615acc335827198yH,http://clk.myiads.com/conv?p=dd58031696e011e780e142010af0001d&c=30a8f32758cc81618615acc335827198yH,idfa_88AFBEEC-DDEB-4ECC-8819-D2DD4C57EE3C,ko
F4Xcma56Qxa2XVF_uBUqqg,edge226,85237781_7931419e0588d1b37f_26a10fc6ed7a89b86dcbcbd18ced5cb9,install,1.7,118.128.255.158,261C21F8-44B9-4E66-A38D-48CCB45CF880,1559096853,2019-05-29 10:27:33,1559096900,2019-05-29 10:28:20,1559096931,aae776fa40d0c964d091229f75e229c0yH,http://clk.myiads.com/conv?p=dd58031696e011e780e142010af0001d&c=aae776fa40d0c964d091229f75e229c0yH,idfa_261C21F8-44B9-4E66-A38D-48CCB45CF880,ko
F4Xcma56Qxa2XVF_uBUqqg,edge226,85237781_7931419e0588d1b37f_26a10fc6ed7a89b86dcbcbd18ced5cb9,install,1.7,175.192.106.210,22375DD6-4C82-4C8A-A19F-F3CD8ECC57F1,1559094739,2019-05-29 09:52:19,1559094788,2019-05-29 09:53:08,1559094818,332fadb22b99835718a3b4b81a12d50ayH,http://clk.myiads.com/conv?p=dd58031696e011e780e142010af0001d&c=332fadb22b99835718a3b4b81a12d50ayH,idfa_22375DD6-4C82-4C8A-A19F-F3CD8ECC57F1,ko
F4Xcma56Qxa2XVF_uBUqqg,edge226,85237781_7931419e0588d1b37f_26a10fc6ed7a89b86dcbcbd18ced5cb9,install,1.7,203.249.127.35,5AB7E0E6-99F3-4B9C-873C-414D58EE8C21,1559097240,2019-05-29 10:34:00,1559097294,2019-05-29 10:34:54,1559097324,66854bcd7aad74d0bf0afd29eff76ed6yH,http://clk.myiads.com/conv?p=dd58031696e011e780e142010af0001d&c=66854bcd7aad74d0bf0afd29eff76ed6yH,idfa_5AB7E0E6-99F3-4B9C-873C-414D58EE8C21,ko
F4Xcma56Qxa2XVF_uBUqqg,edge226,85237781_7931419e0588d1b37f_26a10fc6ed7a89b86dcbcbd18ced5cb9,install,1.7,125.143.49.164,0D05DE1E-2237-482B-A2C3-8CF5C471CD12,1559096153,2019-05-29 10:15:53,1559096206,2019-05-29 10:16:46,1559096236,dd48d6a278b983df24bbde242ec1ab11yH,http://clk.myiads.com/conv?p=dd58031696e011e780e142010af0001d&c=dd48d6a278b983df24bbde242ec1ab11yH,idfa_0D05DE1E-2237-482B-A2C3-8CF5C471CD12,ko
F4Xcma56Qxa2XVF_uBUqqg,edge226,85237781_7931419e0588d1b37f_26a10fc6ed7a89b86dcbcbd18ced5cb9,install,1.7,222.118.30.145,2574A01A-F5D8-49F5-981B-10249282E1E6,1559093023,2019-05-29 09:23:43,1559093077,2019-05-29 09:24:37,1559093108,100503cf9ca7426d95f04a4a09ed8d7ayH,http://clk.myiads.com/conv?p=dd58031696e011e780e142010af0001d&c=100503cf9ca7426d95f04a4a09ed8d7ayH,idfa_2574A01A-F5D8-49F5-981B-10249282E1E6,ko
F4Xcma56Qxa2XVF_uBUqqg,edge226,85237781_7931419e0588d1b37f_26a10fc6ed7a89b86dcbcbd18ced5cb9,install,1.7,221.157.47.250,9AE83456-3CE0-4015-89F7-98EF24BB7955,1559097794,2019-05-29 10:43:14,1559097842,2019-05-29 10:44:02,1559097873,6494a2fff443fd66b3a70e0a20d76ab7yH,http://clk.myiads.com/conv?p=dd58031696e011e780e142010af0001d&c=6494a2fff443fd66b3a70e0a20d76ab7yH,idfa_9AE83456-3CE0-4015-89F7-98EF24BB7955,ko
F4Xcma56Qxa2XVF_uBUqqg,edge226,85237781_7931419e0588d1b37f_26a10fc6ed7a89b86dcbcbd18ced5cb9,install,1.7,175.118.37.32,D5D32733-4A66-439F-88CC-2A87FB957168,1559095041,2019-05-29 09:57:21,1559095089,2019-05-29 09:58:09,1559095120,59a4081d86c417a86cdebd8339ae26cayH,http://clk.myiads.com/conv?p=dd58031696e011e780e142010af0001d&c=59a4081d86c417a86cdebd8339ae26cayH,idfa_D5D32733-4A66-439F-88CC-2A87FB957168,ko
F4Xcma56Qxa2XVF_uBUqqg,edge226,85237781_7931419e0588d1b37f_26a10fc6ed7a89b86dcbcbd18ced5cb9,install,1.7,220.89.249.241,A228E09A-3DAC-4C51-938C-15A01462B768,1559095813,2019-05-29 10:10:13,1559095868,2019-05-29 10:11:08,1559095898,4529fa5d7a58893091d18d7e4e0913dcyH,http://clk.myiads.com/conv?p=dd58031696e011e780e142010af0001d&c=4529fa5d7a58893091d18d7e4e0913dcyH,idfa_A228E09A-3DAC-4C51-938C-15A01462B768,ko
F4Xcma56Qxa2XVF_uBUqqg,edge226,85237781_7931419e0588d1b37f_26a10fc6ed7a89b86dcbcbd18ced5cb9,install,1.7,125.176.27.148,0F33E414-516D-4149-A974-63EC31353557,1559095231,2019-05-29 10:00:31,1559095284,2019-05-29 10:01:24,1559095316,73333514de94a918b8ddacab59b7fdbayH,http://clk.myiads.com/conv?p=dd58031696e011e780e142010af0001d&c=73333514de94a918b8ddacab59b7fdbayH,idfa_0F33E414-516D-4149-A974-63EC31353557,ko
F4Xcma56Qxa2XVF_uBUqqg,edge226,85237781_7931419e0588d1b37f_26a10fc6ed7a89b86dcbcbd18ced5cb9,install,1.7,182.224.177.14,62657556-00F2-4B7B-AD1E-3E2AA3577E36,1559094463,2019-05-29 09:47:43,1559094513,2019-05-29 09:48:33,1559094544,61b62aebc89cfccb28c5d1f881a2b083yH,http://clk.myiads.com/conv?p=dd58031696e011e780e142010af0001d&c=61b62aebc89cfccb28c5d1f881a2b083yH,idfa_62657556-00F2-4B7B-AD1E-3E2AA3577E36,ko
F4Xcma56Qxa2XVF_uBUqqg,edge226,85237781_7931419e0588d1b37f_26a10fc6ed7a89b86dcbcbd18ced5cb9,install,1.7,59.5.11.161,DCE4F651-4542-40C4-8736-5F16E5AEFB40,1559097966,2019-05-29 10:46:06,1559098015,2019-05-29 10:46:55,1559098047,92df44c83cb60ab7c3b34c22e5715e18yH,http://clk.myiads.com/conv?p=dd58031696e011e780e142010af0001d&c=92df44c83cb60ab7c3b34c22e5715e18yH,idfa_DCE4F651-4542-40C4-8736-5F16E5AEFB40,ko
F4Xcma56Qxa2XVF_uBUqqg,edge226,85237781_7931419e0588d1b37f_26a10fc6ed7a89b86dcbcbd18ced5cb9,install,1.7,114.30.165.76,CE575027-6C31-4537-965C-126823BBA719,1559092163,2019-05-29 09:09:23,1559092217,2019-05-29 09:10:17,1559092247,1b342d95be7e4dc247109efbc0c2f57cyH,http://clk.myiads.com/conv?p=dd58031696e011e780e142010af0001d&c=1b342d95be7e4dc247109efbc0c2f57cyH,idfa_CE575027-6C31-4537-965C-126823BBA719,ko
F4Xcma56Qxa2XVF_uBUqqg,edge226,85237781_7931419e0588d1b37f_26a10fc6ed7a89b86dcbcbd18ced5cb9,install,1.7,121.169.184.163,1A32A046-524C-4714-BEF8-A9BA44F93975,1559096443,2019-05-29 10:20:43,1559096493,2019-05-29 10:21:33,1559096524,34c344ff617a24cdc060744988afd17eyH,http://clk.myiads.com/conv?p=dd58031696e011e780e142010af0001d&c=34c344ff617a24cdc060744988afd17eyH,idfa_1A32A046-524C-4714-BEF8-A9BA44F93975,ko
