cid,partner_id,channel_id,action_id,cpi,ip,idfa,click time,click datetime,install time,install datetime,postback time,click id,postback url,unique user id
kMPGtiwkStOJpkMrS9IpHw,gameberry,1536_b518fdb5bb272bb94d359e9a7abc24d4_b5b5563862d57cc6501ef512709be06ee7a23e8d,install,1.6,175.215.64.94,a429205d-3513-4c5d-a9c6-a6f4299fc725,1559054603,2019-05-28 22:43:23,1559054615,2019-05-28 22:43:35,1559054646,5ced490a56d6be0001ee7c75,http://admin.junggglex.com/postback?clickid=5ced490a56d6be0001ee7c75&goal=1,idfa_a429205d-3513-4c5d-a9c6-a6f4299fc725,ko
kMPGtiwkStOJpkMrS9IpHw,gameberry,1536_b518fdb5bb272bb94d359e9a7abc24d4_b5b5563862d57cc6501ef512709be06ee7a23e8d,install,1.6,116.124.15.25,2de63db6-ad52-409a-80d7-b7e997c75b7b,1558722735,2019-05-25 02:32:15,1558722801,2019-05-25 02:33:21,1558722832,5ce838ad56d6be0001032a77,http://admin.junggglex.com/postback?clickid=5ce838ad56d6be0001032a77&goal=1,idfa_2de63db6-ad52-409a-80d7-b7e997c75b7b,ko
kMPGtiwkStOJpkMrS9IpHw,gameberry,1536_b518fdb5bb272bb94d359e9a7abc24d4_b5b5563862d57cc6501ef512709be06ee7a23e8d,install,1.6,125.182.75.123,96ecfe3c-6f2d-4028-9e1b-9706118b9ee4,1558704658,2019-05-24 21:30:58,1558867178,2019-05-26 18:39:38,1558867210,5ce7f20f56d6be00011e2d03,http://admin.junggglex.com/postback?clickid=5ce7f20f56d6be00011e2d03&goal=1,idfa_96ecfe3c-6f2d-4028-9e1b-9706118b9ee4,ko
kMPGtiwkStOJpkMrS9IpHw,gameberry,1536_b518fdb5bb272bb94d359e9a7abc24d4_b5b5563862d57cc6501ef512709be06ee7a23e8d,install,1.6,222.116.34.62,0495a408-eb02-4edd-b986-3faf923f27ff,1558716420,2019-05-25 00:47:00,1558716445,2019-05-25 00:47:25,1558716476,5ce8200356d6be0001ebd69b,http://admin.junggglex.com/postback?clickid=5ce8200356d6be0001ebd69b&goal=1,idfa_0495a408-eb02-4edd-b986-3faf923f27ff,ko
kMPGtiwkStOJpkMrS9IpHw,gameberry,1536_b518fdb5bb272bb94d359e9a7abc24d4_b5b5563862d57cc6501ef512709be06ee7a23e8d,install,1.6,125.183.71.42,aac3bc63-c981-473a-8f13-d7cd7ff59a35,1558707651,2019-05-24 22:20:51,1558747017,2019-05-25 09:16:57,1558747049,5ce7fdc256d6be0001ded798,http://admin.junggglex.com/postback?clickid=5ce7fdc256d6be0001ded798&goal=1,idfa_aac3bc63-c981-473a-8f13-d7cd7ff59a35,ko
kMPGtiwkStOJpkMrS9IpHw,gameberry,1536_b518fdb5bb272bb94d359e9a7abc24d4_b5b5563862d57cc6501ef512709be06ee7a23e8d,install,1.6,218.232.238.51,c8144af6-d599-4dc3-a411-c541d04e9dcb,1558716767,2019-05-25 00:52:47,1558716784,2019-05-25 00:53:04,1558716817,5ce8215d56d6be0001fdeb47,http://admin.junggglex.com/postback?clickid=5ce8215d56d6be0001fdeb47&goal=1,idfa_c8144af6-d599-4dc3-a411-c541d04e9dcb,ko
kMPGtiwkStOJpkMrS9IpHw,gameberry,1536_b518fdb5bb272bb94d359e9a7abc24d4_b5b5563862d57cc6501ef512709be06ee7a23e8d,install,1.6,222.105.227.110,f8c5b71a-0364-4000-8b81-5d4b1d622ec0,1558547706,2019-05-23 01:55:06,1558614645,2019-05-23 20:30:45,1558614676,5ce58cf956d6be0001d9c310,http://admin.junggglex.com/postback?clickid=5ce58cf956d6be0001d9c310&goal=1,idfa_f8c5b71a-0364-4000-8b81-5d4b1d622ec0,ko
kMPGtiwkStOJpkMrS9IpHw,gameberry,1536_b518fdb5bb272bb94d359e9a7abc24d4_b5b5563862d57cc6501ef512709be06ee7a23e8d,install,1.6,116.124.218.226,8bf43024-778e-4e9c-9cc1-22adfb435c5d,1558718349,2019-05-25 01:19:09,1558718381,2019-05-25 01:19:41,1558718412,5ce8278b56d6be00014668ce,http://admin.junggglex.com/postback?clickid=5ce8278b56d6be00014668ce&goal=1,idfa_8bf43024-778e-4e9c-9cc1-22adfb435c5d,ko
kMPGtiwkStOJpkMrS9IpHw,gameberry,1536_b518fdb5bb272bb94d359e9a7abc24d4_b5b5563862d57cc6501ef512709be06ee7a23e8d,install,1.6,121.163.82.154,eab35343-8e19-4db2-9e54-a05d6fb74a73,1558714099,2019-05-25 00:08:19,1558714122,2019-05-25 00:08:42,1558714153,5ce816f056d6be00016e2cad,http://admin.junggglex.com/postback?clickid=5ce816f056d6be00016e2cad&goal=1,idfa_eab35343-8e19-4db2-9e54-a05d6fb74a73,ko
kMPGtiwkStOJpkMrS9IpHw,gameberry,1536_b518fdb5bb272bb94d359e9a7abc24d4_b5b5563862d57cc6501ef512709be06ee7a23e8d,install,1.6,218.146.108.37,53690dda-1568-4f45-8994-94f39d8f399a,1558866809,2019-05-26 18:33:29,1558870989,2019-05-26 19:43:09,1558871020,5cea6b7856d6be0001f3c209,http://admin.junggglex.com/postback?clickid=5cea6b7856d6be0001f3c209&goal=1,idfa_53690dda-1568-4f45-8994-94f39d8f399a,ko
kMPGtiwkStOJpkMrS9IpHw,gameberry,1536_b518fdb5bb272bb94d359e9a7abc24d4_b5b5563862d57cc6501ef512709be06ee7a23e8d,install,1.6,211.36.139.236,d5ad4326-d22a-4dff-a66d-98a198b6793e,1558867882,2019-05-26 18:51:22,1558882773,2019-05-26 22:59:33,1558882804,5cea6fa956d6be00013c7fa2,http://admin.junggglex.com/postback?clickid=5cea6fa956d6be00013c7fa2&goal=1,idfa_d5ad4326-d22a-4dff-a66d-98a198b6793e,ko
kMPGtiwkStOJpkMrS9IpHw,gameberry,1536_b518fdb5bb272bb94d359e9a7abc24d4_b5b5563862d57cc6501ef512709be06ee7a23e8d,install,1.6,211.223.174.79,5fcb680c-0276-48a4-a5ea-2d35a8f9df75,1558875203,2019-05-26 20:53:23,1558875249,2019-05-26 20:54:09,1558875281,5cea8c4156d6be000138e22d,http://admin.junggglex.com/postback?clickid=5cea8c4156d6be000138e22d&goal=1,idfa_5fcb680c-0276-48a4-a5ea-2d35a8f9df75,ko
kMPGtiwkStOJpkMrS9IpHw,gameberry,1536_b518fdb5bb272bb94d359e9a7abc24d4_b5b5563862d57cc6501ef512709be06ee7a23e8d,install,1.6,211.52.193.202,ce779598-68d0-4801-8025-5251572b9ced,1558883023,2019-05-26 23:03:43,1558883115,2019-05-26 23:05:15,1558883155,5ceaaacc56d6be0001606935,http://admin.junggglex.com/postback?clickid=5ceaaacc56d6be0001606935&goal=1,idfa_ce779598-68d0-4801-8025-5251572b9ced,ko
kMPGtiwkStOJpkMrS9IpHw,gameberry,1536_b518fdb5bb272bb94d359e9a7abc24d4_b5b5563862d57cc6501ef512709be06ee7a23e8d,install,1.6,39.113.32.161,6d71ad04-7e1e-4cd7-ae0f-a2a238068fce,1558883930,2019-05-26 23:18:50,1558884018,2019-05-26 23:20:18,1558884050,5ceaae5956d6be0001a0ac7a,http://admin.junggglex.com/postback?clickid=5ceaae5956d6be0001a0ac7a&goal=1,idfa_6d71ad04-7e1e-4cd7-ae0f-a2a238068fce,ko
kMPGtiwkStOJpkMrS9IpHw,gameberry,1536_b518fdb5bb272bb94d359e9a7abc24d4_b5b5563862d57cc6501ef512709be06ee7a23e8d,install,1.6,118.42.173.215,e2b6c2e0-92aa-45c6-b823-28e3a1bdf9e2,1558880964,2019-05-26 22:29:24,1558880988,2019-05-26 22:29:48,1558881020,5ceaa2c356d6be0001cc9d29,http://admin.junggglex.com/postback?clickid=5ceaa2c356d6be0001cc9d29&goal=1,idfa_e2b6c2e0-92aa-45c6-b823-28e3a1bdf9e2,ko
kMPGtiwkStOJpkMrS9IpHw,gameberry,1536_b518fdb5bb272bb94d359e9a7abc24d4_b5b5563862d57cc6501ef512709be06ee7a23e8d,install,1.6,121.164.80.118,6e78c0ee-4a2b-4b11-a0af-18fcd4bf0c58,1558716420,2019-05-25 00:47:00,1558716524,2019-05-25 00:48:44,1558716556,5ce8200256d6be0001ebcf44,http://admin.junggglex.com/postback?clickid=5ce8200256d6be0001ebcf44&goal=1,idfa_6e78c0ee-4a2b-4b11-a0af-18fcd4bf0c58,ko
kMPGtiwkStOJpkMrS9IpHw,gameberry,1536_b518fdb5bb272bb94d359e9a7abc24d4_b5b5563862d57cc6501ef512709be06ee7a23e8d,install,1.6,61.99.161.221,2dd7120d-5ed4-4853-b9e2-c6d20163ba78,1558878723,2019-05-26 21:52:03,1558878798,2019-05-26 21:53:18,1558878830,5cea9a0156d6be000133b24d,http://admin.junggglex.com/postback?clickid=5cea9a0156d6be000133b24d&goal=1,idfa_2dd7120d-5ed4-4853-b9e2-c6d20163ba78,ko
kMPGtiwkStOJpkMrS9IpHw,gameberry,1536_b518fdb5bb272bb94d359e9a7abc24d4_b5b5563862d57cc6501ef512709be06ee7a23e8d,install,1.6,118.219.216.38,a6e09477-0bca-490e-b64d-2a87ce74065e,1558947166,2019-05-27 16:52:46,1559045455,2019-05-28 20:10:55,1559045487,5ceba55b56d6be000136c622,http://admin.junggglex.com/postback?clickid=5ceba55b56d6be000136c622&goal=1,idfa_a6e09477-0bca-490e-b64d-2a87ce74065e,ko
kMPGtiwkStOJpkMrS9IpHw,gameberry,1536_b518fdb5bb272bb94d359e9a7abc24d4_b5b5563862d57cc6501ef512709be06ee7a23e8d,install,1.6,122.32.157.247,36840943-0a62-4a61-998f-ae14c108fd38,1558706038,2019-05-24 21:53:58,1558846557,2019-05-26 12:55:57,1558846588,5ce7f77356d6be00017020d1,http://admin.junggglex.com/postback?clickid=5ce7f77356d6be00017020d1&goal=1,idfa_36840943-0a62-4a61-998f-ae14c108fd38,ko
kMPGtiwkStOJpkMrS9IpHw,gameberry,1536_b518fdb5bb272bb94d359e9a7abc24d4_b5b5563862d57cc6501ef512709be06ee7a23e8d,install,1.6,124.146.19.92,8fadd744-856c-4378-9e9a-f591f70e0a64,1558550191,2019-05-23 02:36:31,1558746070,2019-05-25 09:01:10,1558746101,5ce596ad56d6be000143ed11,http://admin.junggglex.com/postback?clickid=5ce596ad56d6be000143ed11&goal=1,idfa_8fadd744-856c-4378-9e9a-f591f70e0a64,ko
kMPGtiwkStOJpkMrS9IpHw,gameberry,1536_b518fdb5bb272bb94d359e9a7abc24d4_b5b5563862d57cc6501ef512709be06ee7a23e8d,install,1.6,112.155.63.52,0e606c26-b769-4a98-97d5-90da38774606,1558698198,2019-05-24 19:43:18,1558698208,2019-05-24 19:43:28,1558698244,5ce7d8d456d6be0001395dec,http://admin.junggglex.com/postback?clickid=5ce7d8d456d6be0001395dec&goal=1,idfa_0e606c26-b769-4a98-97d5-90da38774606,ko
kMPGtiwkStOJpkMrS9IpHw,gameberry,1536_b518fdb5bb272bb94d359e9a7abc24d4_b5b5563862d57cc6501ef512709be06ee7a23e8d,install,1.6,211.211.182.17,52316927-6f39-4dbe-b7f2-480c611e37f0,1558548866,2019-05-23 02:14:26,1559137190,2019-05-29 21:39:50,1559137221,5ce5918056d6be00010c874e,http://admin.junggglex.com/postback?clickid=5ce5918056d6be00010c874e&goal=1,idfa_52316927-6f39-4dbe-b7f2-480c611e37f0,ko
kMPGtiwkStOJpkMrS9IpHw,gameberry,1536_b518fdb5bb272bb94d359e9a7abc24d4_b5b5563862d57cc6501ef512709be06ee7a23e8d,install,1.6,125.188.1.198,94882156-920d-42a6-8fe3-42369495eb4c,1558550486,2019-05-23 02:41:26,1558580065,2019-05-23 10:54:25,1558580096,5ce597d556d6be00015087cc,http://admin.junggglex.com/postback?clickid=5ce597d556d6be00015087cc&goal=1,idfa_94882156-920d-42a6-8fe3-42369495eb4c,ko
kMPGtiwkStOJpkMrS9IpHw,gameberry,1536_b518fdb5bb272bb94d359e9a7abc24d4_b5b5563862d57cc6501ef512709be06ee7a23e8d,install,1.6,221.146.0.72,d9136ffb-a2a5-4d46-8daf-853288a93e53,1558713065,2019-05-24 23:51:05,1558713394,2019-05-24 23:56:34,1558713426,5ce812e756d6be0001351609,http://admin.junggglex.com/postback?clickid=5ce812e756d6be0001351609&goal=1,idfa_d9136ffb-a2a5-4d46-8daf-853288a93e53,ko
kMPGtiwkStOJpkMrS9IpHw,gameberry,1536_b518fdb5bb272bb94d359e9a7abc24d4_b5b5563862d57cc6501ef512709be06ee7a23e8d,install,1.6,125.130.192.64,161cdf9c-f6cf-4eef-af66-a1a25994571f,1559056917,2019-05-28 23:21:57,1559056947,2019-05-28 23:22:27,1559056978,5ced521356d6be0001881025,http://admin.junggglex.com/postback?clickid=5ced521356d6be0001881025&goal=1,idfa_161cdf9c-f6cf-4eef-af66-a1a25994571f,ko
kMPGtiwkStOJpkMrS9IpHw,gameberry,1536_b518fdb5bb272bb94d359e9a7abc24d4_b5b5563862d57cc6501ef512709be06ee7a23e8d,install,1.6,112.219.140.18,ea629f08-7736-41e3-83d6-c3e273ef7dce,1559060735,2019-05-29 00:25:35,1559098371,2019-05-29 10:52:51,1559098403,5ced60fe56d6be00014d6254,http://admin.junggglex.com/postback?clickid=5ced60fe56d6be00014d6254&goal=1,idfa_ea629f08-7736-41e3-83d6-c3e273ef7dce,ko
kMPGtiwkStOJpkMrS9IpHw,gameberry,1536_b518fdb5bb272bb94d359e9a7abc24d4_b5b5563862d57cc6501ef512709be06ee7a23e8d,install,1.6,116.46.29.129,b9fd321f-fbd3-493f-8ee0-66884e5b4085,1558732468,2019-05-25 05:14:28,1558977547,2019-05-28 01:19:07,1558977578,5ce85eb256d6be00019a5a4f,http://admin.junggglex.com/postback?clickid=5ce85eb256d6be00019a5a4f&goal=1,idfa_b9fd321f-fbd3-493f-8ee0-66884e5b4085,ko
kMPGtiwkStOJpkMrS9IpHw,gameberry,1536_b518fdb5bb272bb94d359e9a7abc24d4_b5b5563862d57cc6501ef512709be06ee7a23e8d,install,1.6,211.36.139.78,99f09739-ac76-4a4f-a873-7b5fe9dc296c,1558542714,2019-05-23 00:31:54,1558791992,2019-05-25 21:46:32,1558792112,5ce5797856d6be0001201294,http://admin.junggglex.com/postback?clickid=5ce5797856d6be0001201294&goal=1,idfa_99f09739-ac76-4a4f-a873-7b5fe9dc296c,ko
kMPGtiwkStOJpkMrS9IpHw,gameberry,1536_b518fdb5bb272bb94d359e9a7abc24d4_b5b5563862d57cc6501ef512709be06ee7a23e8d,install,1.6,121.127.125.19,45c7f798-aeca-4cd0-9672-d10d1cf95a54,1558716078,2019-05-25 00:41:18,1558716149,2019-05-25 00:42:29,1558716182,5ce81eac56d6be0001d8eb65,http://admin.junggglex.com/postback?clickid=5ce81eac56d6be0001d8eb65&goal=1,idfa_45c7f798-aeca-4cd0-9672-d10d1cf95a54,ko
kMPGtiwkStOJpkMrS9IpHw,gameberry,1536_b518fdb5bb272bb94d359e9a7abc24d4_b5b5563862d57cc6501ef512709be06ee7a23e8d,install,1.6,124.63.141.224,d1ad8950-a74d-4d87-b205-8250432b40b2,1558883202,2019-05-26 23:06:42,1559119221,2019-05-29 16:40:21,1559119252,5ceaab8056d6be00016d3eb3,http://admin.junggglex.com/postback?clickid=5ceaab8056d6be00016d3eb3&goal=1,idfa_d1ad8950-a74d-4d87-b205-8250432b40b2,ko
kMPGtiwkStOJpkMrS9IpHw,gameberry,1536_b518fdb5bb272bb94d359e9a7abc24d4_b5b5563862d57cc6501ef512709be06ee7a23e8d,install,1.6,110.45.38.51,e8fdbf86-6ff0-47e8-b69d-c493eb5d1c34,1558698173,2019-05-24 19:42:53,1558698442,2019-05-24 19:47:22,1558698473,5ce7d8bb56d6be000137aa38,http://admin.junggglex.com/postback?clickid=5ce7d8bb56d6be000137aa38&goal=1,idfa_e8fdbf86-6ff0-47e8-b69d-c493eb5d1c34,ko
kMPGtiwkStOJpkMrS9IpHw,gameberry,1536_b518fdb5bb272bb94d359e9a7abc24d4_b5b5563862d57cc6501ef512709be06ee7a23e8d,install,1.6,175.223.26.250,b025c9dd-55a4-4df0-adc1-3aa2f76d508b,1559077480,2019-05-29 05:04:40,1559117480,2019-05-29 16:11:20,1559117510,5ceda26756d6be0001cb33eb,http://admin.junggglex.com/postback?clickid=5ceda26756d6be0001cb33eb&goal=1,idfa_b025c9dd-55a4-4df0-adc1-3aa2f76d508b,ko
kMPGtiwkStOJpkMrS9IpHw,gameberry,1536_b518fdb5bb272bb94d359e9a7abc24d4_b5b5563862d57cc6501ef512709be06ee7a23e8d,install,1.6,116.37.112.46,e211f235-af0b-40c0-b136-a711c0909ce3,1558720287,2019-05-25 01:51:27,1558720487,2019-05-25 01:54:47,1558720518,5ce82f1e56d6be00019aaa3c,http://admin.junggglex.com/postback?clickid=5ce82f1e56d6be00019aaa3c&goal=1,idfa_e211f235-af0b-40c0-b136-a711c0909ce3,ko
kMPGtiwkStOJpkMrS9IpHw,gameberry,1536_b518fdb5bb272bb94d359e9a7abc24d4_b5b5563862d57cc6501ef512709be06ee7a23e8d,install,1.6,112.165.124.152,0485ff12-48de-46c0-8a0a-9533c1795715,1558553110,2019-05-23 03:25:10,1558598192,2019-05-23 15:56:32,1558598223,5ce5a21556d6be0001aef01f,http://admin.junggglex.com/postback?clickid=5ce5a21556d6be0001aef01f&goal=1,idfa_0485ff12-48de-46c0-8a0a-9533c1795715,ko
kMPGtiwkStOJpkMrS9IpHw,gameberry,1536_b518fdb5bb272bb94d359e9a7abc24d4_b5b5563862d57cc6501ef512709be06ee7a23e8d,install,1.6,116.125.155.16,6a0a4a8b-1378-4c3b-82b9-dd96784ecab2,1558879086,2019-05-26 21:58:06,1558898236,2019-05-27 03:17:16,1558898267,5cea9b6d56d6be00014b3196,http://admin.junggglex.com/postback?clickid=5cea9b6d56d6be00014b3196&goal=1,idfa_6a0a4a8b-1378-4c3b-82b9-dd96784ecab2,ko
kMPGtiwkStOJpkMrS9IpHw,gameberry,1536_b518fdb5bb272bb94d359e9a7abc24d4_b5b5563862d57cc6501ef512709be06ee7a23e8d,install,1.6,116.42.35.218,9f480a36-cda3-4df0-ad12-06d4f5f86c93,1559143858,2019-05-29 23:30:58,1559144070,2019-05-29 23:34:30,1559144102,5ceea5b056d6be0001b9d23d,http://admin.junggglex.com/postback?clickid=5ceea5b056d6be0001b9d23d&goal=1,idfa_9f480a36-cda3-4df0-ad12-06d4f5f86c93,ko
kMPGtiwkStOJpkMrS9IpHw,gameberry,1536_b518fdb5bb272bb94d359e9a7abc24d4_b5b5563862d57cc6501ef512709be06ee7a23e8d,install,1.6,125.189.57.70,d79c6afd-c38d-4a9f-aec2-ff3f616cf22e,1558525872,2019-05-22 19:51:12,1558525894,2019-05-22 19:51:34,1558525926,5ce537af56d6be000190c828,http://admin.junggglex.com/postback?clickid=5ce537af56d6be000190c828&goal=1,idfa_d79c6afd-c38d-4a9f-aec2-ff3f616cf22e,ko
kMPGtiwkStOJpkMrS9IpHw,gameberry,1536_b518fdb5bb272bb94d359e9a7abc24d4_b5b5563862d57cc6501ef512709be06ee7a23e8d,install,1.6,220.81.10.124,2e1f5594-5309-489f-bda3-02caa1091e5c,1558949657,2019-05-27 17:34:17,1559131575,2019-05-29 20:06:15,1559131607,5cebaf1756d6be0001f69e53,http://admin.junggglex.com/postback?clickid=5cebaf1756d6be0001f69e53&goal=1,idfa_2e1f5594-5309-489f-bda3-02caa1091e5c,ko
kMPGtiwkStOJpkMrS9IpHw,gameberry,1536_b518fdb5bb272bb94d359e9a7abc24d4_b5b5563862d57cc6501ef512709be06ee7a23e8d,install,1.6,112.146.103.244,c96ae56d-60bb-4b74-aeef-9a397752cb7e,1558538897,2019-05-22 23:28:17,1558538996,2019-05-22 23:29:56,1558539027,5ce56a9056d6be00017da616,http://admin.junggglex.com/postback?clickid=5ce56a9056d6be00017da616&goal=1,idfa_c96ae56d-60bb-4b74-aeef-9a397752cb7e,ko
kMPGtiwkStOJpkMrS9IpHw,gameberry,1536_b518fdb5bb272bb94d359e9a7abc24d4_b5b5563862d57cc6501ef512709be06ee7a23e8d,install,1.6,211.228.221.74,40907e62-3f84-44b3-b928-2dd89c309896,1558869586,2019-05-26 19:19:46,1558869614,2019-05-26 19:20:14,1558869654,5cea765056d6be0001ac8e20,http://admin.junggglex.com/postback?clickid=5cea765056d6be0001ac8e20&goal=1,idfa_40907e62-3f84-44b3-b928-2dd89c309896,ko
kMPGtiwkStOJpkMrS9IpHw,gameberry,1536_b518fdb5bb272bb94d359e9a7abc24d4_b5b5563862d57cc6501ef512709be06ee7a23e8d,install,1.6,180.66.51.91,5aed9ba2-1bcb-4cd7-8b60-14b3ff94b7d3,1558707164,2019-05-24 22:12:44,1559153017,2019-05-30 02:03:37,1559153049,5ce7fbdb56d6be0001bb89d4,http://admin.junggglex.com/postback?clickid=5ce7fbdb56d6be0001bb89d4&goal=1,idfa_5aed9ba2-1bcb-4cd7-8b60-14b3ff94b7d3,ko
kMPGtiwkStOJpkMrS9IpHw,gameberry,1536_b518fdb5bb272bb94d359e9a7abc24d4_b5b5563862d57cc6501ef512709be06ee7a23e8d,install,1.6,211.230.242.44,186e755a-fd9d-403b-8439-f46704283892,1558851796,2019-05-26 14:23:16,1558864547,2019-05-26 17:55:47,1558864582,5cea30d356d6be0001b42b6a,http://admin.junggglex.com/postback?clickid=5cea30d356d6be0001b42b6a&goal=1,idfa_186e755a-fd9d-403b-8439-f46704283892,ko
kMPGtiwkStOJpkMrS9IpHw,gameberry,1536_b518fdb5bb272bb94d359e9a7abc24d4_b5b5563862d57cc6501ef512709be06ee7a23e8d,install,1.6,122.34.97.24,508cba4f-bf7a-4b17-a5af-66f342ff5a29,1558562861,2019-05-23 06:07:41,1558995403,2019-05-28 06:16:43,1558995435,5ce5c82a56d6be00015dc748,http://admin.junggglex.com/postback?clickid=5ce5c82a56d6be00015dc748&goal=1,idfa_508cba4f-bf7a-4b17-a5af-66f342ff5a29,ko
kMPGtiwkStOJpkMrS9IpHw,gameberry,1536_b518fdb5bb272bb94d359e9a7abc24d4_b5b5563862d57cc6501ef512709be06ee7a23e8d,install,1.6,223.39.131.104,2f5bff61-29a7-4120-a145-ad180a830e06,1558783812,2019-05-25 19:30:12,1558790923,2019-05-25 21:28:43,1558790955,5ce9274156d6be000106a6a7,http://admin.junggglex.com/postback?clickid=5ce9274156d6be000106a6a7&goal=1,idfa_2f5bff61-29a7-4120-a145-ad180a830e06,ko
kMPGtiwkStOJpkMrS9IpHw,gameberry,1536_b518fdb5bb272bb94d359e9a7abc24d4_b5b5563862d57cc6501ef512709be06ee7a23e8d,install,1.6,118.44.198.30,439e4e30-1002-4b0b-9a6a-e5d9249b6137,1559122648,2019-05-29 17:37:28,1559177189,2019-05-30 08:46:29,1559177220,5cee52d656d6be000114044e,http://admin.junggglex.com/postback?clickid=5cee52d656d6be000114044e&goal=1,idfa_439e4e30-1002-4b0b-9a6a-e5d9249b6137,ko
kMPGtiwkStOJpkMrS9IpHw,gameberry,1536_b518fdb5bb272bb94d359e9a7abc24d4_b5b5563862d57cc6501ef512709be06ee7a23e8d,install,1.6,223.62.202.231,e60cc904-cca0-433c-a487-a58fb9eac8e8,1558552437,2019-05-23 03:13:57,1558718979,2019-05-25 01:29:39,1558719010,5ce59f7356d6be000196e5e8,http://admin.junggglex.com/postback?clickid=5ce59f7356d6be000196e5e8&goal=1,idfa_e60cc904-cca0-433c-a487-a58fb9eac8e8,ko
kMPGtiwkStOJpkMrS9IpHw,gameberry,1536_b518fdb5bb272bb94d359e9a7abc24d4_b5b5563862d57cc6501ef512709be06ee7a23e8d,install,1.6,58.127.154.164,efbbac7b-89a4-48e4-a7c0-a6bd7177c8fd,1558715647,2019-05-25 00:34:07,1559312529,2019-05-31 22:22:09,1559312561,5ce81cfc56d6be0001c27f2e,http://admin.junggglex.com/postback?clickid=5ce81cfc56d6be0001c27f2e&goal=1,idfa_efbbac7b-89a4-48e4-a7c0-a6bd7177c8fd,ko
kMPGtiwkStOJpkMrS9IpHw,gameberry,1536_b518fdb5bb272bb94d359e9a7abc24d4_b5b5563862d57cc6501ef512709be06ee7a23e8d,install,1.6,223.62.172.216,547349f5-51e2-4464-81be-fa8cca727338,1558874735,2019-05-26 20:45:35,1558875029,2019-05-26 20:50:29,1558875063,5cea8a6c56d6be0001142178,http://admin.junggglex.com/postback?clickid=5cea8a6c56d6be0001142178&goal=1,idfa_547349f5-51e2-4464-81be-fa8cca727338,ko
kMPGtiwkStOJpkMrS9IpHw,gameberry,1536_b518fdb5bb272bb94d359e9a7abc24d4_b5b5563862d57cc6501ef512709be06ee7a23e8d,install,1.6,1.251.84.22,2c4b70ce-f3c7-407a-974d-ec75c9ba9ded,1558802057,2019-05-26 00:34:17,1558958284,2019-05-27 19:58:04,1558958315,5ce96e8856d6be0001b5b5c2,http://admin.junggglex.com/postback?clickid=5ce96e8856d6be0001b5b5c2&goal=1,idfa_2c4b70ce-f3c7-407a-974d-ec75c9ba9ded,ko
kMPGtiwkStOJpkMrS9IpHw,gameberry,1536_b518fdb5bb272bb94d359e9a7abc24d4_b5b5563862d57cc6501ef512709be06ee7a23e8d,install,1.6,221.152.135.72,476a73c6-f069-4347-b1d6-cca74a70e997,1558881032,2019-05-26 22:30:32,1558881052,2019-05-26 22:30:52,1558881084,5ceaa30756d6be0001d16d6e,http://admin.junggglex.com/postback?clickid=5ceaa30756d6be0001d16d6e&goal=1,idfa_476a73c6-f069-4347-b1d6-cca74a70e997,ko
kMPGtiwkStOJpkMrS9IpHw,gameberry,1536_b518fdb5bb272bb94d359e9a7abc24d4_b5b5563862d57cc6501ef512709be06ee7a23e8d,install,1.6,123.100.165.158,69bee7fc-87bd-4c55-b3a5-fc004cb44ae8,1558713205,2019-05-24 23:53:25,1558713344,2019-05-24 23:55:44,1558713378,5ce8137356d6be00013cc8ee,http://admin.junggglex.com/postback?clickid=5ce8137356d6be00013cc8ee&goal=1,idfa_69bee7fc-87bd-4c55-b3a5-fc004cb44ae8,ko
kMPGtiwkStOJpkMrS9IpHw,gameberry,1536_b518fdb5bb272bb94d359e9a7abc24d4_b5b5563862d57cc6501ef512709be06ee7a23e8d,install,1.6,123.109.56.133,955ca611-e25c-4e27-8b17-5a60c1edd5c4,1558549550,2019-05-23 02:25:50,1559317270,2019-05-31 23:41:10,1559317302,5ce5942c56d6be00012a31c1,http://admin.junggglex.com/postback?clickid=5ce5942c56d6be00012a31c1&goal=1,idfa_955ca611-e25c-4e27-8b17-5a60c1edd5c4,ko
kMPGtiwkStOJpkMrS9IpHw,gameberry,1536_b518fdb5bb272bb94d359e9a7abc24d4_b5b5563862d57cc6501ef512709be06ee7a23e8d,install,1.6,220.121.180.26,a2356265-8a18-491f-9d1d-ef5fec48d089,1558878151,2019-05-26 21:42:31,1558878172,2019-05-26 21:42:52,1558878204,5cea97c656d6be00010d0ee4,http://admin.junggglex.com/postback?clickid=5cea97c656d6be00010d0ee4&goal=1,idfa_a2356265-8a18-491f-9d1d-ef5fec48d089,ko
