cid,partner_id,channel_id,action_id,cpi,ip,idfa,click time,click datetime,install time,install datetime,postback time,click id,postback url,unique user id
eJXR7Nt6SWirZssOk2LnGQ,gameberry,1035_178,install,1.5,112.162.29.238,BC72D28A-1501-4ABA-8C8A-C9EFC941749D,1559005547,2019-05-28 09:05:47,1559005656,2019-05-28 09:07:36,1559005686,5cec895b56d6be00012cc1ae,http://admin.junggglex.com/postback?clickid=5cec895b56d6be00012cc1ae&goal=1,idfa_BC72D28A-1501-4ABA-8C8A-C9EFC941749D,ko
eJXR7Nt6SWirZssOk2LnGQ,gameberry,1035_178,install,1.5,118.217.227.150,DB3B843B-9580-4309-820F-61F73A46426C,1559007176,2019-05-28 09:32:56,1559007326,2019-05-28 09:35:26,1559007357,5cec8fbc56d6be0001a354b1,http://admin.junggglex.com/postback?clickid=5cec8fbc56d6be0001a354b1&goal=1,idfa_DB3B843B-9580-4309-820F-61F73A46426C,ko
eJXR7Nt6SWirZssOk2LnGQ,gameberry,1035_178,install,1.5,218.235.241.80,885AA0A6-A0F1-439B-AE5B-798F121BECFF,1559005484,2019-05-28 09:04:44,1559005629,2019-05-28 09:07:09,1559005660,5cec891c56d6be00012874f3,http://admin.junggglex.com/postback?clickid=5cec891c56d6be00012874f3&goal=1,idfa_885AA0A6-A0F1-439B-AE5B-798F121BECFF,ko
eJXR7Nt6SWirZssOk2LnGQ,gameberry,1035_178,install,1.5,27.1.78.52,AA225A43-FB80-461B-9032-59F9FCC8F84E,1559006629,2019-05-28 09:23:49,1559006750,2019-05-28 09:25:50,1559006781,5cec8d9856d6be000178cc45,http://admin.junggglex.com/postback?clickid=5cec8d9856d6be000178cc45&goal=1,idfa_AA225A43-FB80-461B-9032-59F9FCC8F84E,ko
eJXR7Nt6SWirZssOk2LnGQ,gameberry,1035_178,install,1.5,203.152.168.2,744FE820-CDCB-409B-ADDC-978B9D06E2D7,1559006260,2019-05-28 09:17:40,1559006402,2019-05-28 09:20:02,1559006432,5cec8c2856d6be00015e4c1d,http://admin.junggglex.com/postback?clickid=5cec8c2856d6be00015e4c1d&goal=1,idfa_744FE820-CDCB-409B-ADDC-978B9D06E2D7,ko
eJXR7Nt6SWirZssOk2LnGQ,gameberry,1035_178,install,1.5,115.41.231.74,C3DC783B-F781-4805-8F0F-75380C21303E,1559006583,2019-05-28 09:23:03,1559006714,2019-05-28 09:25:14,1559006744,5cec8d6956d6be00017530a5,http://admin.junggglex.com/postback?clickid=5cec8d6956d6be00017530a5&goal=1,idfa_C3DC783B-F781-4805-8F0F-75380C21303E,ko
eJXR7Nt6SWirZssOk2LnGQ,gameberry,1035_178,install,1.5,222.101.75.202,08EA750D-6226-4436-AA96-362313E419AE,1559006677,2019-05-28 09:24:37,1559006831,2019-05-28 09:27:11,1559006861,5cec8dc856d6be00017c607b,http://admin.junggglex.com/postback?clickid=5cec8dc856d6be00017c607b&goal=1,idfa_08EA750D-6226-4436-AA96-362313E419AE,ko
eJXR7Nt6SWirZssOk2LnGQ,gameberry,1035_178,install,1.5,61.74.145.57,E5A476B0-C316-4B47-BD82-2A4A662D9F1B,1559006611,2019-05-28 09:23:31,1559006737,2019-05-28 09:25:37,1559006778,5cec8d8656d6be0001776a92,http://admin.junggglex.com/postback?clickid=5cec8d8656d6be0001776a92&goal=1,idfa_E5A476B0-C316-4B47-BD82-2A4A662D9F1B,ko
eJXR7Nt6SWirZssOk2LnGQ,gameberry,1035_178,install,1.5,58.103.3.18,44BCC93C-D853-4A66-8238-91E14AE71322,1559006512,2019-05-28 09:21:52,1559006648,2019-05-28 09:24:08,1559006678,5cec8d2356d6be00016ff7f0,http://admin.junggglex.com/postback?clickid=5cec8d2356d6be00016ff7f0&goal=1,idfa_44BCC93C-D853-4A66-8238-91E14AE71322,ko
eJXR7Nt6SWirZssOk2LnGQ,gameberry,1035_178,install,1.5,106.247.148.138,57CEC6A1-7A20-41FF-99F1-26E19C7EE22C,1559005562,2019-05-28 09:06:02,1559005702,2019-05-28 09:08:22,1559005733,5cec896c56d6be00012df823,http://admin.junggglex.com/postback?clickid=5cec896c56d6be00012df823&goal=1,idfa_57CEC6A1-7A20-41FF-99F1-26E19C7EE22C,ko
eJXR7Nt6SWirZssOk2LnGQ,gameberry,1035_178,install,1.5,222.96.239.15,31C14B60-6444-48E9-95E1-353BB1A5F177,1559007157,2019-05-28 09:32:37,1559007307,2019-05-28 09:35:07,1559007338,5cec8fa856d6be0001a1a279,http://admin.junggglex.com/postback?clickid=5cec8fa856d6be0001a1a279&goal=1,idfa_31C14B60-6444-48E9-95E1-353BB1A5F177,ko
eJXR7Nt6SWirZssOk2LnGQ,gameberry,1035_178,install,1.5,27.35.236.8,8AA2C7EE-D693-4E75-B696-2C116B6AFDD2,1559005374,2019-05-28 09:02:54,1559005529,2019-05-28 09:05:29,1559005560,5cec88b256d6be000120fce0,http://admin.junggglex.com/postback?clickid=5cec88b256d6be000120fce0&goal=1,idfa_8AA2C7EE-D693-4E75-B696-2C116B6AFDD2,ko
eJXR7Nt6SWirZssOk2LnGQ,gameberry,1035_178,install,1.5,211.205.95.28,9FDA51E5-2E54-4159-810E-498C5BC7B258,1559005839,2019-05-28 09:10:39,1559006001,2019-05-28 09:13:21,1559006060,5cec8a8356d6be000141189a,http://admin.junggglex.com/postback?clickid=5cec8a8356d6be000141189a&goal=1,idfa_9FDA51E5-2E54-4159-810E-498C5BC7B258,ko
eJXR7Nt6SWirZssOk2LnGQ,gameberry,1035_178,install,1.5,115.95.117.20,8D4D416E-2662-4341-BECF-EA3AA6EB3123,1559006367,2019-05-28 09:19:27,1559006735,2019-05-28 09:25:35,1559006765,5cec8c9156d6be00016559fd,http://admin.junggglex.com/postback?clickid=5cec8c9156d6be00016559fd&goal=1,idfa_8D4D416E-2662-4341-BECF-EA3AA6EB3123,ko
eJXR7Nt6SWirZssOk2LnGQ,gameberry,1035_178,install,1.5,175.198.80.121,F29456A7-C471-40DA-9C18-BB05FA256701,1559005521,2019-05-28 09:05:21,1559005638,2019-05-28 09:07:18,1559005705,5cec894356d6be00012b2946,http://admin.junggglex.com/postback?clickid=5cec894356d6be00012b2946&goal=1,idfa_F29456A7-C471-40DA-9C18-BB05FA256701,ko
eJXR7Nt6SWirZssOk2LnGQ,gameberry,1035_178,install,1.5,112.170.60.253,31977C1B-FF99-4BC9-A264-E1FCE759FB45,1559006188,2019-05-28 09:16:28,1559006309,2019-05-28 09:18:29,1559006369,5cec8bdf56d6be000159068a,http://admin.junggglex.com/postback?clickid=5cec8bdf56d6be000159068a&goal=1,idfa_31977C1B-FF99-4BC9-A264-E1FCE759FB45,ko
eJXR7Nt6SWirZssOk2LnGQ,gameberry,1035_178,install,1.5,106.250.24.114,7C5103E2-36FB-414F-BBF2-B54D32268027,1559006067,2019-05-28 09:14:27,1559006209,2019-05-28 09:16:49,1559006240,5cec8b6556d6be0001509af1,http://admin.junggglex.com/postback?clickid=5cec8b6556d6be0001509af1&goal=1,idfa_7C5103E2-36FB-414F-BBF2-B54D32268027,ko
eJXR7Nt6SWirZssOk2LnGQ,gameberry,1035_178,install,1.5,220.71.62.37,289073AE-37F8-485F-B59B-52A61B805B57,1559006278,2019-05-28 09:17:58,1559006395,2019-05-28 09:19:55,1559006426,5cec8c3956d6be00015f7ad3,http://admin.junggglex.com/postback?clickid=5cec8c3956d6be00015f7ad3&goal=1,idfa_289073AE-37F8-485F-B59B-52A61B805B57,ko
eJXR7Nt6SWirZssOk2LnGQ,gameberry,1035_178,install,1.5,49.174.251.194,E7F29C24-B858-46A8-93E3-33F3264F8822,1559006259,2019-05-28 09:17:39,1559006385,2019-05-28 09:19:45,1559006415,5cec8c2456d6be00015e0199,http://admin.junggglex.com/postback?clickid=5cec8c2456d6be00015e0199&goal=1,idfa_E7F29C24-B858-46A8-93E3-33F3264F8822,ko
eJXR7Nt6SWirZssOk2LnGQ,gameberry,1035_178,install,1.5,218.238.27.21,25A210A5-3961-44A8-8835-018367946127,1559006752,2019-05-28 09:25:52,1559006854,2019-05-28 09:27:34,1559006884,5cec8e1456d6be0001822102,http://admin.junggglex.com/postback?clickid=5cec8e1456d6be0001822102&goal=1,idfa_25A210A5-3961-44A8-8835-018367946127,ko
eJXR7Nt6SWirZssOk2LnGQ,gameberry,1035_178,install,1.5,14.45.34.198,FB180523-1156-45A6-BC23-531BB97B1EB9,1559007170,2019-05-28 09:32:50,1559007321,2019-05-28 09:35:21,1559007352,5cec8fb556d6be0001a2bbef,http://admin.junggglex.com/postback?clickid=5cec8fb556d6be0001a2bbef&goal=1,idfa_FB180523-1156-45A6-BC23-531BB97B1EB9,ko
eJXR7Nt6SWirZssOk2LnGQ,gameberry,1035_178,install,1.5,110.45.125.13,47FE8479-FFD2-4B9F-9ABF-0A6422F52C17,1559005129,2019-05-28 08:58:49,1559005279,2019-05-28 09:01:19,1559005310,5cec87bb56d6be00010fc632,http://admin.junggglex.com/postback?clickid=5cec87bb56d6be00010fc632&goal=1,idfa_47FE8479-FFD2-4B9F-9ABF-0A6422F52C17,ko
eJXR7Nt6SWirZssOk2LnGQ,gameberry,1035_178,install,1.5,219.248.39.76,611E064F-970C-4389-82C8-C577B990A068,1559005423,2019-05-28 09:03:43,1559005550,2019-05-28 09:05:50,1559005581,5cec88e356d6be0001248020,http://admin.junggglex.com/postback?clickid=5cec88e356d6be0001248020&goal=1,idfa_611E064F-970C-4389-82C8-C577B990A068,ko
eJXR7Nt6SWirZssOk2LnGQ,gameberry,1035_178,install,1.5,222.238.220.177,225139F6-9C21-487E-B6DC-D552729DDE93,1558860115,2019-05-26 16:41:55,1558860203,2019-05-26 16:43:23,1558860234,5cea514556d6be000123cadd,http://admin.junggglex.com/postback?clickid=5cea514556d6be000123cadd&goal=1,idfa_225139F6-9C21-487E-B6DC-D552729DDE93,ko
eJXR7Nt6SWirZssOk2LnGQ,gameberry,1035_178,install,1.5,116.35.80.167,E2F65FF4-EA9F-498D-AFD7-5892AD5BB9BC,1559006480,2019-05-28 09:21:20,1559006624,2019-05-28 09:23:44,1559006656,5cec8d0356d6be00016d926c,http://admin.junggglex.com/postback?clickid=5cec8d0356d6be00016d926c&goal=1,idfa_E2F65FF4-EA9F-498D-AFD7-5892AD5BB9BC,ko
eJXR7Nt6SWirZssOk2LnGQ,gameberry,1035_178,install,1.5,121.173.212.155,3B8FEB8F-5943-4AD9-9A03-FD16893FB586,1559005995,2019-05-28 09:13:15,1559006122,2019-05-28 09:15:22,1559006152,5cec8b1e56d6be00014bb6bb,http://admin.junggglex.com/postback?clickid=5cec8b1e56d6be00014bb6bb&goal=1,idfa_3B8FEB8F-5943-4AD9-9A03-FD16893FB586,ko
eJXR7Nt6SWirZssOk2LnGQ,gameberry,1035_178,install,1.5,106.252.44.117,5063C26B-7E87-48EC-A11F-2309CD774FBB,1559005467,2019-05-28 09:04:27,1559005608,2019-05-28 09:06:48,1559005638,5cec890d56d6be0001276522,http://admin.junggglex.com/postback?clickid=5cec890d56d6be0001276522&goal=1,idfa_5063C26B-7E87-48EC-A11F-2309CD774FBB,ko
eJXR7Nt6SWirZssOk2LnGQ,gameberry,1035_178,install,1.5,121.141.19.142,949B5FD0-E6C4-4D70-BD44-F824182689DF,1559006762,2019-05-28 09:26:02,1559006884,2019-05-28 09:28:04,1559006916,5cec8e1a56d6be000182b173,http://admin.junggglex.com/postback?clickid=5cec8e1a56d6be000182b173&goal=1,idfa_949B5FD0-E6C4-4D70-BD44-F824182689DF,ko
eJXR7Nt6SWirZssOk2LnGQ,gameberry,1035_178,install,1.5,121.165.75.204,719D9F2F-4B15-4EDD-92EC-A60B8E20B195,1559005398,2019-05-28 09:03:18,1559005609,2019-05-28 09:06:49,1559005640,5cec88c956d6be000122a7c0,http://admin.junggglex.com/postback?clickid=5cec88c956d6be000122a7c0&goal=1,idfa_719D9F2F-4B15-4EDD-92EC-A60B8E20B195,ko
eJXR7Nt6SWirZssOk2LnGQ,gameberry,1035_178,install,1.5,118.33.128.158,0D83F914-8696-48B7-8FAD-9624068BAF67,1559007133,2019-05-28 09:32:13,1559007281,2019-05-28 09:34:41,1559007312,5cec8f9056d6be00019fc747,http://admin.junggglex.com/postback?clickid=5cec8f9056d6be00019fc747&goal=1,idfa_0D83F914-8696-48B7-8FAD-9624068BAF67,ko
eJXR7Nt6SWirZssOk2LnGQ,gameberry,1035_178,install,1.5,58.121.154.97,18995B54-393D-4E4C-A69A-C08E286F6427,1559006126,2019-05-28 09:15:26,1559006249,2019-05-28 09:17:29,1559006280,5cec8ba256d6be000154d0b6,http://admin.junggglex.com/postback?clickid=5cec8ba256d6be000154d0b6&goal=1,idfa_18995B54-393D-4E4C-A69A-C08E286F6427,ko
eJXR7Nt6SWirZssOk2LnGQ,gameberry,1035_178,install,1.5,119.194.210.32,090AD012-1454-45FC-96B5-6FB32B35E0DF,1559006654,2019-05-28 09:24:14,1559006927,2019-05-28 09:28:47,1559006959,5cec8db156d6be00017aa92b,http://admin.junggglex.com/postback?clickid=5cec8db156d6be00017aa92b&goal=1,idfa_090AD012-1454-45FC-96B5-6FB32B35E0DF,ko
eJXR7Nt6SWirZssOk2LnGQ,gameberry,1035_178,install,1.5,1.220.85.74,5E42089A-582D-4026-9825-7A3CA8775E8F,1559007182,2019-05-28 09:33:02,1559007315,2019-05-28 09:35:15,1559007345,5cec8fc156d6be0001a3baa5,http://admin.junggglex.com/postback?clickid=5cec8fc156d6be0001a3baa5&goal=1,idfa_5E42089A-582D-4026-9825-7A3CA8775E8F,ko
eJXR7Nt6SWirZssOk2LnGQ,gameberry,1035_178,install,1.5,218.39.96.156,E01552B7-9453-4E5B-9631-28EC45C16CC1,1559006587,2019-05-28 09:23:07,1559006716,2019-05-28 09:25:16,1559006746,5cec8d6e56d6be00017590e4,http://admin.junggglex.com/postback?clickid=5cec8d6e56d6be00017590e4&goal=1,idfa_E01552B7-9453-4E5B-9631-28EC45C16CC1,ko
eJXR7Nt6SWirZssOk2LnGQ,gameberry,1035_178,install,1.5,124.80.239.75,82C15B36-E9C0-444D-BEB7-ADE9EBB94DD2,1559006286,2019-05-28 09:18:06,1559006428,2019-05-28 09:20:28,1559006458,5cec8c4156d6be00016010a5,http://admin.junggglex.com/postback?clickid=5cec8c4156d6be00016010a5&goal=1,idfa_82C15B36-E9C0-444D-BEB7-ADE9EBB94DD2,ko
eJXR7Nt6SWirZssOk2LnGQ,gameberry,1035_178,install,1.5,180.65.219.4,56A713BC-8A2B-40B5-BD63-AC348EB59F72,1559006813,2019-05-28 09:26:53,1559006938,2019-05-28 09:28:58,1559006994,5cec8e5056d6be00018702c5,http://admin.junggglex.com/postback?clickid=5cec8e5056d6be00018702c5&goal=1,idfa_56A713BC-8A2B-40B5-BD63-AC348EB59F72,ko
eJXR7Nt6SWirZssOk2LnGQ,gameberry,1035_178,install,1.5,121.152.32.19,6D569E26-1FA5-48BD-89C9-86AC01722FD5,1558847679,2019-05-26 13:14:39,1558847795,2019-05-26 13:16:35,1558847826,5cea20b356d6be00014b7ccc,http://admin.junggglex.com/postback?clickid=5cea20b356d6be00014b7ccc&goal=1,idfa_6D569E26-1FA5-48BD-89C9-86AC01722FD5,ko
eJXR7Nt6SWirZssOk2LnGQ,gameberry,1035_178,install,1.5,1.237.145.114,2CB66617-BD62-4DA4-A277-90BA47552A7A,1559004817,2019-05-28 08:53:37,1559004962,2019-05-28 08:56:02,1559004993,5cec868556d6be0001f9d7eb,http://admin.junggglex.com/postback?clickid=5cec868556d6be0001f9d7eb&goal=1,idfa_2CB66617-BD62-4DA4-A277-90BA47552A7A,ko
eJXR7Nt6SWirZssOk2LnGQ,gameberry,1035_178,install,1.5,121.147.142.22,1A8746C8-0334-4F13-A641-9AC2420E32C3,1559007182,2019-05-28 09:33:02,1559007308,2019-05-28 09:35:08,1559007339,5cec8fc256d6be0001a3c5a0,http://admin.junggglex.com/postback?clickid=5cec8fc256d6be0001a3c5a0&goal=1,idfa_1A8746C8-0334-4F13-A641-9AC2420E32C3,ko
eJXR7Nt6SWirZssOk2LnGQ,gameberry,1035_178,install,1.5,121.169.148.151,7E7AE674-933A-480B-858B-B642EFB252C6,1559006040,2019-05-28 09:14:00,1559006185,2019-05-28 09:16:25,1559006215,5cec8b4a56d6be00014ed3af,http://admin.junggglex.com/postback?clickid=5cec8b4a56d6be00014ed3af&goal=1,idfa_7E7AE674-933A-480B-858B-B642EFB252C6,ko
eJXR7Nt6SWirZssOk2LnGQ,gameberry,1035_178,install,1.5,117.111.15.199,67DA9EC4-0454-4975-A580-6C70C99D491E,1559006580,2019-05-28 09:23:00,1559006720,2019-05-28 09:25:20,1559006751,5cec8d6656d6be000174e5fd,http://admin.junggglex.com/postback?clickid=5cec8d6656d6be000174e5fd&goal=1,idfa_67DA9EC4-0454-4975-A580-6C70C99D491E,ko
eJXR7Nt6SWirZssOk2LnGQ,gameberry,1035_178,install,1.5,14.40.72.145,6E6A4865-C3D8-4D8C-80DC-D4BEC3C6C068,1559005384,2019-05-28 09:03:04,1559005532,2019-05-28 09:05:32,1559005563,5cec88bb56d6be000121a5de,http://admin.junggglex.com/postback?clickid=5cec88bb56d6be000121a5de&goal=1,idfa_6E6A4865-C3D8-4D8C-80DC-D4BEC3C6C068,ko
eJXR7Nt6SWirZssOk2LnGQ,gameberry,1035_178,install,1.5,175.124.177.45,908C079B-B6B0-43BA-89B4-B86B29654E91,1559005378,2019-05-28 09:02:58,1559005526,2019-05-28 09:05:26,1559005557,5cec88b556d6be0001214291,http://admin.junggglex.com/postback?clickid=5cec88b556d6be0001214291&goal=1,idfa_908C079B-B6B0-43BA-89B4-B86B29654E91,ko
eJXR7Nt6SWirZssOk2LnGQ,gameberry,1035_178,install,1.5,121.183.252.208,8867B2D0-CC00-4152-9A71-2B16BA3E7FB9,1559005380,2019-05-28 09:03:00,1559005500,2019-05-28 09:05:00,1559005531,5cec88b456d6be000121301a,http://admin.junggglex.com/postback?clickid=5cec88b456d6be000121301a&goal=1,idfa_8867B2D0-CC00-4152-9A71-2B16BA3E7FB9,ko
eJXR7Nt6SWirZssOk2LnGQ,gameberry,1035_178,install,1.5,118.35.111.120,7CE397A8-E198-419B-A0A6-1F6A7654F4CB,1559006692,2019-05-28 09:24:52,1559006822,2019-05-28 09:27:02,1559006852,5cec8dd856d6be00017da1da,http://admin.junggglex.com/postback?clickid=5cec8dd856d6be00017da1da&goal=1,idfa_7CE397A8-E198-419B-A0A6-1F6A7654F4CB,ko
eJXR7Nt6SWirZssOk2LnGQ,gameberry,1035_178,install,1.5,125.186.148.36,47082FC5-1C7E-40D9-8226-0BCD087511B0,1559007133,2019-05-28 09:32:13,1559007263,2019-05-28 09:34:23,1559007314,5cec8f9056d6be00019fc1ae,http://admin.junggglex.com/postback?clickid=5cec8f9056d6be00019fc1ae&goal=1,idfa_47082FC5-1C7E-40D9-8226-0BCD087511B0,ko
eJXR7Nt6SWirZssOk2LnGQ,gameberry,1035_178,install,1.5,203.234.136.210,5F6D1AC5-A105-41EB-AC83-3A5DBA806FFB,1559005981,2019-05-28 09:13:01,1559006107,2019-05-28 09:15:07,1559006137,5cec8b1056d6be00014ac08b,http://admin.junggglex.com/postback?clickid=5cec8b1056d6be00014ac08b&goal=1,idfa_5F6D1AC5-A105-41EB-AC83-3A5DBA806FFB,ko
eJXR7Nt6SWirZssOk2LnGQ,gameberry,1035_178,install,1.5,211.168.144.250,FE0B0FB8-91E6-4B08-BCBD-FC25866A9E9C,1559007163,2019-05-28 09:32:43,1559007298,2019-05-28 09:34:58,1559007330,5cec8fae56d6be0001a225da,http://admin.junggglex.com/postback?clickid=5cec8fae56d6be0001a225da&goal=1,idfa_FE0B0FB8-91E6-4B08-BCBD-FC25866A9E9C,ko
eJXR7Nt6SWirZssOk2LnGQ,gameberry,1035_178,install,1.5,203.241.183.7,F290CB85-D7A6-4278-BFCA-5605EBE3E6D0,1559006587,2019-05-28 09:23:07,1559006708,2019-05-28 09:25:08,1559006739,5cec8d6d56d6be0001757949,http://admin.junggglex.com/postback?clickid=5cec8d6d56d6be0001757949&goal=1,idfa_F290CB85-D7A6-4278-BFCA-5605EBE3E6D0,ko
eJXR7Nt6SWirZssOk2LnGQ,gameberry,1035_178,install,1.5,220.125.77.108,E0BFA015-099E-4088-A154-3A45D5BD22F8,1559006053,2019-05-28 09:14:13,1559006205,2019-05-28 09:16:45,1559006236,5cec8b5756d6be00014faddf,http://admin.junggglex.com/postback?clickid=5cec8b5756d6be00014faddf&goal=1,idfa_E0BFA015-099E-4088-A154-3A45D5BD22F8,ko
eJXR7Nt6SWirZssOk2LnGQ,gameberry,1035_178,install,1.5,106.252.44.117,785B4B10-DE62-4017-96A7-D9C77D24C208,1559005322,2019-05-28 09:02:02,1559005456,2019-05-28 09:04:16,1559005487,5cec887256d6be00011c7a61,http://admin.junggglex.com/postback?clickid=5cec887256d6be00011c7a61&goal=1,idfa_785B4B10-DE62-4017-96A7-D9C77D24C208,ko
eJXR7Nt6SWirZssOk2LnGQ,gameberry,1035_178,install,1.5,211.202.241.26,2A8332A7-53AA-4CF4-B243-B1CA690409EE,1559006859,2019-05-28 09:27:39,1559007007,2019-05-28 09:30:07,1559007038,5cec8e7e56d6be00018a978d,http://admin.junggglex.com/postback?clickid=5cec8e7e56d6be00018a978d&goal=1,idfa_2A8332A7-53AA-4CF4-B243-B1CA690409EE,ko
eJXR7Nt6SWirZssOk2LnGQ,gameberry,1035_178,install,1.5,211.252.8.143,BB3EB4D1-2750-4DDB-8CF9-44A390B75CDC,1559005433,2019-05-28 09:03:53,1559005580,2019-05-28 09:06:20,1559005611,5cec88ed56d6be0001252e72,http://admin.junggglex.com/postback?clickid=5cec88ed56d6be0001252e72&goal=1,idfa_BB3EB4D1-2750-4DDB-8CF9-44A390B75CDC,ko
eJXR7Nt6SWirZssOk2LnGQ,gameberry,1035_178,install,1.5,106.254.86.233,A01BA8EF-A459-4E1B-B897-6F067ADFFC81,1559006791,2019-05-28 09:26:31,1559006936,2019-05-28 09:28:56,1559006967,5cec8e3956d6be0001850791,http://admin.junggglex.com/postback?clickid=5cec8e3956d6be0001850791&goal=1,idfa_A01BA8EF-A459-4E1B-B897-6F067ADFFC81,ko
eJXR7Nt6SWirZssOk2LnGQ,gameberry,1035_178,install,1.5,119.195.117.77,9892EFD9-70BF-4151-90CD-C747BC72AFDD,1559006582,2019-05-28 09:23:02,1559006720,2019-05-28 09:25:20,1559006751,5cec8d6856d6be0001751f0c,http://admin.junggglex.com/postback?clickid=5cec8d6856d6be0001751f0c&goal=1,idfa_9892EFD9-70BF-4151-90CD-C747BC72AFDD,ko
eJXR7Nt6SWirZssOk2LnGQ,gameberry,1035_178,install,1.5,222.112.44.92,93A365B6-53D4-4C77-8C56-803AEEAE5526,1559006068,2019-05-28 09:14:28,1559006208,2019-05-28 09:16:48,1559006238,5cec8b6756d6be000150b4fa,http://admin.junggglex.com/postback?clickid=5cec8b6756d6be000150b4fa&goal=1,idfa_93A365B6-53D4-4C77-8C56-803AEEAE5526,ko
eJXR7Nt6SWirZssOk2LnGQ,gameberry,1035_178,install,1.5,218.146.104.15,330DD2E5-369D-4515-95BB-5AA87BCD059B,1559005124,2019-05-28 08:58:44,1559005430,2019-05-28 09:03:50,1559005460,5cec87ac56d6be00010eb90f,http://admin.junggglex.com/postback?clickid=5cec87ac56d6be00010eb90f&goal=1,idfa_330DD2E5-369D-4515-95BB-5AA87BCD059B,ko
eJXR7Nt6SWirZssOk2LnGQ,gameberry,1035_178,install,1.5,123.100.163.18,36C28F72-DA50-4E96-B70C-89BBF9BB14F2,1558950584,2019-05-27 17:49:44,1558950715,2019-05-27 17:51:55,1558950746,5cebb2a956d6be0001372d9d,http://admin.junggglex.com/postback?clickid=5cebb2a956d6be0001372d9d&goal=1,idfa_36C28F72-DA50-4E96-B70C-89BBF9BB14F2,ko
eJXR7Nt6SWirZssOk2LnGQ,gameberry,1035_178,install,1.5,106.102.1.155,64FDBFEB-5B8B-4200-8974-8AA96B1A15B5,1559006900,2019-05-28 09:28:20,1559007015,2019-05-28 09:30:15,1559007047,5cec8ea656d6be00018dc46b,http://admin.junggglex.com/postback?clickid=5cec8ea656d6be00018dc46b&goal=1,idfa_64FDBFEB-5B8B-4200-8974-8AA96B1A15B5,ko
eJXR7Nt6SWirZssOk2LnGQ,gameberry,1035_178,install,1.5,106.250.48.121,C7DE826F-543C-40D0-885A-DCD76BBEBE27,1559007191,2019-05-28 09:33:11,1559007313,2019-05-28 09:35:13,1559007344,5cec8fca56d6be0001a45e7d,http://admin.junggglex.com/postback?clickid=5cec8fca56d6be0001a45e7d&goal=1,idfa_C7DE826F-543C-40D0-885A-DCD76BBEBE27,ko
eJXR7Nt6SWirZssOk2LnGQ,gameberry,1035_178,install,1.5,122.42.4.236,DFB36548-CFEA-4370-BA45-9FCF40F7FF69,1559007164,2019-05-28 09:32:44,1559007306,2019-05-28 09:35:06,1559007336,5cec8fad56d6be0001a205e5,http://admin.junggglex.com/postback?clickid=5cec8fad56d6be0001a205e5&goal=1,idfa_DFB36548-CFEA-4370-BA45-9FCF40F7FF69,ko
eJXR7Nt6SWirZssOk2LnGQ,gameberry,1035_178,install,1.5,175.193.18.155,F0BF04F9-2634-49F5-9823-06F937EBD585,1559006673,2019-05-28 09:24:33,1559006822,2019-05-28 09:27:02,1559006853,5cec8dc356d6be00017c0cc5,http://admin.junggglex.com/postback?clickid=5cec8dc356d6be00017c0cc5&goal=1,idfa_F0BF04F9-2634-49F5-9823-06F937EBD585,ko
eJXR7Nt6SWirZssOk2LnGQ,gameberry,1035_178,install,1.5,218.152.14.48,59603B2C-0BEB-4CFC-84A0-725FEAC1A63B,1559006587,2019-05-28 09:23:07,1559006732,2019-05-28 09:25:32,1559006763,5cec8d6e56d6be0001758987,http://admin.junggglex.com/postback?clickid=5cec8d6e56d6be0001758987&goal=1,idfa_59603B2C-0BEB-4CFC-84A0-725FEAC1A63B,ko
eJXR7Nt6SWirZssOk2LnGQ,gameberry,1035_178,install,1.5,121.129.77.116,FE8AC860-FA54-4179-A5CF-0E96807CDBBD,1559006636,2019-05-28 09:23:56,1559006783,2019-05-28 09:26:23,1559006815,5cec8d9f56d6be0001794da8,http://admin.junggglex.com/postback?clickid=5cec8d9f56d6be0001794da8&goal=1,idfa_FE8AC860-FA54-4179-A5CF-0E96807CDBBD,ko
eJXR7Nt6SWirZssOk2LnGQ,gameberry,1035_178,install,1.5,112.162.105.174,60ADDB37-8031-4F7E-96C2-1C19913E8B28,1559006605,2019-05-28 09:23:25,1559006754,2019-05-28 09:25:54,1559006785,5cec8d8056d6be000176e908,http://admin.junggglex.com/postback?clickid=5cec8d8056d6be000176e908&goal=1,idfa_60ADDB37-8031-4F7E-96C2-1C19913E8B28,ko
eJXR7Nt6SWirZssOk2LnGQ,gameberry,1035_178,install,1.5,218.148.49.96,CCA78166-1DB7-43FB-9A31-6663FFC46C70,1559007184,2019-05-28 09:33:04,1559007330,2019-05-28 09:35:30,1559007361,5cec8fc356d6be0001a3d97d,http://admin.junggglex.com/postback?clickid=5cec8fc356d6be0001a3d97d&goal=1,idfa_CCA78166-1DB7-43FB-9A31-6663FFC46C70,ko
eJXR7Nt6SWirZssOk2LnGQ,gameberry,1035_178,install,1.5,175.213.190.165,A50D9ED0-C8C1-454B-8CE2-1F4B52F6D764,1559006842,2019-05-28 09:27:22,1559006996,2019-05-28 09:29:56,1559007040,5cec8e6d56d6be0001892bb3,http://admin.junggglex.com/postback?clickid=5cec8e6d56d6be0001892bb3&goal=1,idfa_A50D9ED0-C8C1-454B-8CE2-1F4B52F6D764,ko
eJXR7Nt6SWirZssOk2LnGQ,gameberry,1035_178,install,1.5,116.126.76.32,35C7211B-16D3-440A-8987-B8420EED839F,1558847593,2019-05-26 13:13:13,1558847736,2019-05-26 13:15:36,1558847767,5cea205d56d6be000143bd14,http://admin.junggglex.com/postback?clickid=5cea205d56d6be000143bd14&goal=1,idfa_35C7211B-16D3-440A-8987-B8420EED839F,ko
eJXR7Nt6SWirZssOk2LnGQ,gameberry,1035_178,install,1.5,115.126.216.174,3F58572E-7D60-48C8-AB23-7B934FCCBFB7,1559007163,2019-05-28 09:32:43,1559007292,2019-05-28 09:34:52,1559007323,5cec8fae56d6be0001a22983,http://admin.junggglex.com/postback?clickid=5cec8fae56d6be0001a22983&goal=1,idfa_3F58572E-7D60-48C8-AB23-7B934FCCBFB7,ko
eJXR7Nt6SWirZssOk2LnGQ,gameberry,1035_178,install,1.5,211.187.223.210,8D2D0E68-361B-44FB-AB2A-7FF476A8F4CF,1559005211,2019-05-28 09:00:11,1559005372,2019-05-28 09:02:52,1559005403,5cec880f56d6be000115c4f2,http://admin.junggglex.com/postback?clickid=5cec880f56d6be000115c4f2&goal=1,idfa_8D2D0E68-361B-44FB-AB2A-7FF476A8F4CF,ko
eJXR7Nt6SWirZssOk2LnGQ,gameberry,1035_178,install,1.5,1.224.108.234,B83F8FD9-7418-4D34-91DF-DE5C9AB37AEC,1559006062,2019-05-28 09:14:22,1559006200,2019-05-28 09:16:40,1559006231,5cec8b5f56d6be000150360c,http://admin.junggglex.com/postback?clickid=5cec8b5f56d6be000150360c&goal=1,idfa_B83F8FD9-7418-4D34-91DF-DE5C9AB37AEC,ko
eJXR7Nt6SWirZssOk2LnGQ,gameberry,1035_178,install,1.5,121.127.167.83,B0CAF290-4CB1-491D-B61A-56B999BE6E93,1559006137,2019-05-28 09:15:37,1559006280,2019-05-28 09:18:00,1559006311,5cec8bab56d6be0001557a85,http://admin.junggglex.com/postback?clickid=5cec8bab56d6be0001557a85&goal=1,idfa_B0CAF290-4CB1-491D-B61A-56B999BE6E93,ko
eJXR7Nt6SWirZssOk2LnGQ,gameberry,1035_178,install,1.5,125.135.85.133,3E58EAE3-D2AF-449E-A02F-82597D326720,1559005973,2019-05-28 09:12:53,1559006126,2019-05-28 09:15:26,1559006157,5cec8b0856d6be00014a201e,http://admin.junggglex.com/postback?clickid=5cec8b0856d6be00014a201e&goal=1,idfa_3E58EAE3-D2AF-449E-A02F-82597D326720,ko
