cid,partner_id,channel_id,action_id,cpi,ip,idfa,click time,click datetime,install time,install datetime,postback time,click id,postback url,unique user id
U14Q5POpQ2GHolebBCUQWA,gameberry,1821_38,Install,1.9,114.30.165.109,cf4aa9cf-077b-4971-b532-e641133ea921,1557893855,2019-05-15 12:17:35,1557893960,2019-05-15 12:19:20,1557894000,5cdb92dd56d6be0001c09a66,http://admin.junggglex.com/postback?clickid=5cdb92dd56d6be0001c09a66&goal=1,idfa_cf4aa9cf-077b-4971-b532-e641133ea921,%ED%95%9C%EA%B5%AD%EC%96%B4
U14Q5POpQ2GHolebBCUQWA,gameberry,1821_38,Install,1.9,115.41.66.216,36bbcf31-31a4-448b-838e-66b46af5fa0d,1557886077,2019-05-15 10:07:57,1557886147,2019-05-15 10:09:07,1557886177,5cdb73fd56d6be000194832b,http://admin.junggglex.com/postback?clickid=5cdb73fd56d6be000194832b&goal=1,idfa_36bbcf31-31a4-448b-838e-66b46af5fa0d,%ED%95%9C%EA%B5%AD%EC%96%B4
U14Q5POpQ2GHolebBCUQWA,gameberry,1821_38,Install,1.9,14.43.171.84,e5bd0c4b-2c8b-4dc9-bda0-c9243aede28f,1557891641,2019-05-15 11:40:41,1557891782,2019-05-15 11:43:02,1557891819,5cdb8a3656d6be0001324081,http://admin.junggglex.com/postback?clickid=5cdb8a3656d6be0001324081&goal=1,idfa_e5bd0c4b-2c8b-4dc9-bda0-c9243aede28f,%ED%95%9C%EA%B5%AD%EC%96%B4
U14Q5POpQ2GHolebBCUQWA,gameberry,1821_38,Install,1.9,210.91.87.86,4841309f-cbbb-4b1d-9f7d-91d5b1a431d0,1557889398,2019-05-15 11:03:18,1557889564,2019-05-15 11:06:04,1557889594,5cdb817356d6be00018f6a60,http://admin.junggglex.com/postback?clickid=5cdb817356d6be00018f6a60&goal=1,idfa_4841309f-cbbb-4b1d-9f7d-91d5b1a431d0,%ED%95%9C%EA%B5%AD%EC%96%B4
U14Q5POpQ2GHolebBCUQWA,gameberry,1821_38,Install,1.9,110.10.147.111,74bde987-3fab-4281-9862-160ab07549c6,1557883332,2019-05-15 09:22:12,1557883451,2019-05-15 09:24:11,1557883501,5cdb697c56d6be0001f1ec83,http://admin.junggglex.com/postback?clickid=5cdb697c56d6be0001f1ec83&goal=1,idfa_74bde987-3fab-4281-9862-160ab07549c6,%ED%95%9C%EA%B5%AD%EC%96%B4
U14Q5POpQ2GHolebBCUQWA,gameberry,1821_38,Install,1.9,125.131.85.175,1a4632df-4349-4275-9e81-09bda9f804b1,1557890599,2019-05-15 11:23:19,1557890675,2019-05-15 11:24:35,1557890706,5cdb85cb56d6be0001e1a4f3,http://admin.junggglex.com/postback?clickid=5cdb85cb56d6be0001e1a4f3&goal=1,idfa_1a4632df-4349-4275-9e81-09bda9f804b1,%ED%95%9C%EA%B5%AD%EC%96%B4
U14Q5POpQ2GHolebBCUQWA,gameberry,1821_38,Install,1.9,114.30.165.96,c458ac73-2e03-48b3-9003-6eb36bdfdcf6,1557884866,2019-05-15 09:47:46,1557885044,2019-05-15 09:50:44,1557885075,5cdb6fbf56d6be00014ee7fa,http://admin.junggglex.com/postback?clickid=5cdb6fbf56d6be00014ee7fa&goal=1,idfa_c458ac73-2e03-48b3-9003-6eb36bdfdcf6,%ED%95%9C%EA%B5%AD%EC%96%B4
U14Q5POpQ2GHolebBCUQWA,gameberry,1821_38,Install,1.9,121.142.165.111,3c70b2e3-6d44-4946-ada6-0594b6499dbb,1557883432,2019-05-15 09:23:52,1557883545,2019-05-15 09:25:45,1557883585,5cdb69e856d6be0001f86c82,http://admin.junggglex.com/postback?clickid=5cdb69e856d6be0001f86c82&goal=1,idfa_3c70b2e3-6d44-4946-ada6-0594b6499dbb,%ED%95%9C%EA%B5%AD%EC%96%B4
U14Q5POpQ2GHolebBCUQWA,gameberry,1821_38,Install,1.9,218.237.202.97,,1557888443,2019-05-15 10:47:23,1557888648,2019-05-15 10:50:48,1557888679,5cdb7db756d6be000143953b,http://admin.junggglex.com/postback?clickid=5cdb7db756d6be000143953b&goal=1,androidid_1103190c6b2fb6ac,%ED%95%9C%EA%B5%AD%EC%96%B4
U14Q5POpQ2GHolebBCUQWA,gameberry,1821_38,Install,1.9,211.254.220.237,dceb42bb-2ece-4bc8-a524-c6fd11ecccc2,1557882848,2019-05-15 09:14:08,1557882914,2019-05-15 09:15:14,1557882944,5cdb678e56d6be0001d381b6,http://admin.junggglex.com/postback?clickid=5cdb678e56d6be0001d381b6&goal=1,idfa_dceb42bb-2ece-4bc8-a524-c6fd11ecccc2,%ED%95%9C%EA%B5%AD%EC%96%B4
U14Q5POpQ2GHolebBCUQWA,gameberry,1821_38,Install,1.9,121.156.239.171,859499f6-b885-4cd9-b3f5-e9f4254a6ca7,1557891192,2019-05-15 11:33:12,1557891454,2019-05-15 11:37:34,1557891485,5cdb886856d6be00011103bd,http://admin.junggglex.com/postback?clickid=5cdb886856d6be00011103bd&goal=1,idfa_859499f6-b885-4cd9-b3f5-e9f4254a6ca7,%ED%95%9C%EA%B5%AD%EC%96%B4
U14Q5POpQ2GHolebBCUQWA,gameberry,1821_38,Install,1.9,180.70.220.13,9a04b99d-5f2c-4b42-ae99-83ab5030f8e8,1557890481,2019-05-15 11:21:21,1557890541,2019-05-15 11:22:21,1557890571,5cdb853356d6be0001d67344,http://admin.junggglex.com/postback?clickid=5cdb853356d6be0001d67344&goal=1,idfa_9a04b99d-5f2c-4b42-ae99-83ab5030f8e8,%ED%95%9C%EA%B5%AD%EC%96%B4
U14Q5POpQ2GHolebBCUQWA,gameberry,1821_38,Install,1.9,112.220.86.122,570b939c-f227-4552-b954-860a945457f4,1557885595,2019-05-15 09:59:55,1557885790,2019-05-15 10:03:10,1557885820,5cdb729856d6be00017dd64a,http://admin.junggglex.com/postback?clickid=5cdb729856d6be00017dd64a&goal=1,idfa_570b939c-f227-4552-b954-860a945457f4,%ED%95%9C%EA%B5%AD%EC%96%B4
U14Q5POpQ2GHolebBCUQWA,gameberry,1821_38,Install,1.9,218.149.228.136,2676c16e-7e5e-4ca3-bb8c-7856bb7721c8,1557891920,2019-05-15 11:45:20,1557892025,2019-05-15 11:47:05,1557892056,5cdb8b0c56d6be0001416109,http://admin.junggglex.com/postback?clickid=5cdb8b0c56d6be0001416109&goal=1,idfa_2676c16e-7e5e-4ca3-bb8c-7856bb7721c8,%ED%95%9C%EA%B5%AD%EC%96%B4
U14Q5POpQ2GHolebBCUQWA,gameberry,1821_38,Install,1.9,210.126.248.35,0eff2729-483b-4fb9-8a34-b93ecea50554,1557886996,2019-05-15 10:23:16,1557887100,2019-05-15 10:25:00,1557887130,5cdb77ec56d6be0001daa5d5,http://admin.junggglex.com/postback?clickid=5cdb77ec56d6be0001daa5d5&goal=1,idfa_0eff2729-483b-4fb9-8a34-b93ecea50554,%ED%95%9C%EA%B5%AD%EC%96%B4
U14Q5POpQ2GHolebBCUQWA,gameberry,1821_38,Install,1.9,180.64.105.131,612adb40-01fa-4630-86c1-d5f7b4cc7653,1557893666,2019-05-15 12:14:26,1557893798,2019-05-15 12:16:38,1557893828,5cdb921d56d6be0001b5477e,http://admin.junggglex.com/postback?clickid=5cdb921d56d6be0001b5477e&goal=1,idfa_612adb40-01fa-4630-86c1-d5f7b4cc7653,%ED%95%9C%EA%B5%AD%EC%96%B4
U14Q5POpQ2GHolebBCUQWA,gameberry,1821_38,Install,1.9,114.30.165.97,68e13760-23b5-4bf9-a5be-7c488f8ba004,1557891439,2019-05-15 11:37:19,1557891512,2019-05-15 11:38:32,1557891542,5cdb893656d6be00011f872a,http://admin.junggglex.com/postback?clickid=5cdb893656d6be00011f872a&goal=1,idfa_68e13760-23b5-4bf9-a5be-7c488f8ba004,%ED%95%9C%EA%B5%AD%EC%96%B4
U14Q5POpQ2GHolebBCUQWA,gameberry,1821_38,Install,1.9,110.10.147.111,02437434-1861-4922-88fe-4d9af9df0551,1557880746,2019-05-15 08:39:06,1557880944,2019-05-15 08:42:24,1557880984,5cdb5fa456d6be00015c3e5b,http://admin.junggglex.com/postback?clickid=5cdb5fa456d6be00015c3e5b&goal=1,idfa_02437434-1861-4922-88fe-4d9af9df0551,%ED%95%9C%EA%B5%AD%EC%96%B4
U14Q5POpQ2GHolebBCUQWA,gameberry,1821_38,Install,1.9,121.184.241.109,14dd97c4-b253-4bf5-9ed8-93f40004d61c,1557884269,2019-05-15 09:37:49,1557884478,2019-05-15 09:41:18,1557884642,5cdb6d6856d6be00012d0265,http://admin.junggglex.com/postback?clickid=5cdb6d6856d6be00012d0265&goal=1,idfa_14dd97c4-b253-4bf5-9ed8-93f40004d61c,%ED%95%9C%EA%B5%AD%EC%96%B4
U14Q5POpQ2GHolebBCUQWA,gameberry,1821_38,Install,1.9,112.222.215.198,a3384dae-ce29-409d-a07b-0447763898a4,1557888258,2019-05-15 10:44:18,1557888337,2019-05-15 10:45:37,1557888369,5cdb7cff56d6be0001349b2a,http://admin.junggglex.com/postback?clickid=5cdb7cff56d6be0001349b2a&goal=1,idfa_a3384dae-ce29-409d-a07b-0447763898a4,%ED%95%9C%EA%B5%AD%EC%96%B4
U14Q5POpQ2GHolebBCUQWA,gameberry,1821_38,Install,1.9,121.167.7.140,3a0c9f30-5016-43a5-b993-1befd2f4d6df,1557884347,2019-05-15 09:39:07,1557884417,2019-05-15 09:40:17,1557884525,5cdb6db956d6be00013196fd,http://admin.junggglex.com/postback?clickid=5cdb6db956d6be00013196fd&goal=1,idfa_3a0c9f30-5016-43a5-b993-1befd2f4d6df,%ED%95%9C%EA%B5%AD%EC%96%B4
U14Q5POpQ2GHolebBCUQWA,gameberry,1821_38,Install,1.9,175.200.81.33,996bf63a-2979-4aa4-b14d-149df46fb061,1557889092,2019-05-15 10:58:12,1557889213,2019-05-15 11:00:13,1557889244,5cdb804356d6be000177f365,http://admin.junggglex.com/postback?clickid=5cdb804356d6be000177f365&goal=1,idfa_996bf63a-2979-4aa4-b14d-149df46fb061,%ED%95%9C%EA%B5%AD%EC%96%B4
U14Q5POpQ2GHolebBCUQWA,gameberry,1821_38,Install,1.9,59.28.140.15,468b36cc-dedd-4f92-b84a-0bd383be054f,1557885506,2019-05-15 09:58:26,1557885632,2019-05-15 10:00:32,1557885750,5cdb724056d6be00017869b8,http://admin.junggglex.com/postback?clickid=5cdb724056d6be00017869b8&goal=1,idfa_468b36cc-dedd-4f92-b84a-0bd383be054f,%ED%95%9C%EA%B5%AD%EC%96%B4
U14Q5POpQ2GHolebBCUQWA,gameberry,1821_38,Install,1.9,182.216.29.134,9a996fdb-24a3-4d64-8ae0-e011c93b1fcd,1557880920,2019-05-15 08:42:00,1557881070,2019-05-15 08:44:30,1557881100,5cdb605456d6be0001654e43,http://admin.junggglex.com/postback?clickid=5cdb605456d6be0001654e43&goal=1,idfa_9a996fdb-24a3-4d64-8ae0-e011c93b1fcd,%ED%95%9C%EA%B5%AD%EC%96%B4
U14Q5POpQ2GHolebBCUQWA,gameberry,1821_38,Install,1.9,110.13.71.93,dc6b8703-1700-4b3a-89d8-fea393fc7ba8,1557886142,2019-05-15 10:09:02,1557886275,2019-05-15 10:11:15,1557886306,5cdb74bb56d6be0001a20693,http://admin.junggglex.com/postback?clickid=5cdb74bb56d6be0001a20693&goal=1,idfa_dc6b8703-1700-4b3a-89d8-fea393fc7ba8,%ED%95%9C%EA%B5%AD%EC%96%B4
U14Q5POpQ2GHolebBCUQWA,gameberry,1821_38,Install,1.9,218.144.17.223,de9ba681-6c77-4430-9a22-559992ced9d0,1557890002,2019-05-15 11:13:22,1557890089,2019-05-15 11:14:49,1557890123,5cdb835256d6be0001b45894,http://admin.junggglex.com/postback?clickid=5cdb835256d6be0001b45894&goal=1,idfa_de9ba681-6c77-4430-9a22-559992ced9d0,%ED%95%9C%EA%B5%AD%EC%96%B4
U14Q5POpQ2GHolebBCUQWA,gameberry,1821_38,Install,1.9,183.98.233.92,,1557891919,2019-05-15 11:45:19,1557892044,2019-05-15 11:47:24,1557892074,5cdb8b2156d6be000142f190,http://admin.junggglex.com/postback?clickid=5cdb8b2156d6be000142f190&goal=1,androidid_47db1b7a1c7e3400,%ED%95%9C%EA%B5%AD%EC%96%B4
U14Q5POpQ2GHolebBCUQWA,gameberry,1821_38,Install,1.9,112.187.122.213,cb4e7dcf-7c1b-4323-89a3-7d1c6e8397ec,1557887385,2019-05-15 10:29:45,1557887453,2019-05-15 10:30:53,1557887483,5cdb794856d6be0001f0b4e7,http://admin.junggglex.com/postback?clickid=5cdb794856d6be0001f0b4e7&goal=1,idfa_cb4e7dcf-7c1b-4323-89a3-7d1c6e8397ec,%ED%95%9C%EA%B5%AD%EC%96%B4
U14Q5POpQ2GHolebBCUQWA,gameberry,1821_38,Install,1.9,223.171.47.218,9e4a42d9-97c6-4c34-b597-6c0452f1e3ba,1557893076,2019-05-15 12:04:36,1557893419,2019-05-15 12:10:19,1557893449,5cdb8fce56d6be0001942d61,http://admin.junggglex.com/postback?clickid=5cdb8fce56d6be0001942d61&goal=1,idfa_9e4a42d9-97c6-4c34-b597-6c0452f1e3ba,%ED%95%9C%EA%B5%AD%EC%96%B4
U14Q5POpQ2GHolebBCUQWA,gameberry,1821_38,Install,1.9,115.140.87.39,89958aeb-b1fa-499e-8e7c-2f5c72497807,1557881328,2019-05-15 08:48:48,1557881519,2019-05-15 08:51:59,1557881552,5cdb61ed56d6be00017a9ec2,http://admin.junggglex.com/postback?clickid=5cdb61ed56d6be00017a9ec2&goal=1,idfa_89958aeb-b1fa-499e-8e7c-2f5c72497807,%ED%95%9C%EA%B5%AD%EC%96%B4
U14Q5POpQ2GHolebBCUQWA,gameberry,1821_38,Install,1.9,112.220.20.170,a1fdd807-398d-4131-b8a3-54f4ae9d3c71,1557886987,2019-05-15 10:23:07,1557887072,2019-05-15 10:24:32,1557887102,5cdb77c356d6be0001d7fcd2,http://admin.junggglex.com/postback?clickid=5cdb77c356d6be0001d7fcd2&goal=1,idfa_a1fdd807-398d-4131-b8a3-54f4ae9d3c71,%ED%95%9C%EA%B5%AD%EC%96%B4
U14Q5POpQ2GHolebBCUQWA,gameberry,1821_38,Install,1.9,114.30.203.76,eb6de291-05f6-4242-b632-6d08326521bb,1557885001,2019-05-15 09:50:01,1557885077,2019-05-15 09:51:17,1557885365,5cdb704656d6be000157a140,http://admin.junggglex.com/postback?clickid=5cdb704656d6be000157a140&goal=1,idfa_eb6de291-05f6-4242-b632-6d08326521bb,%ED%95%9C%EA%B5%AD%EC%96%B4
U14Q5POpQ2GHolebBCUQWA,gameberry,1821_38,Install,1.9,121.167.7.141,,1557885428,2019-05-15 09:57:08,1557885504,2019-05-15 09:58:24,1557885534,5cdb71c856d6be000170bfa3,http://admin.junggglex.com/postback?clickid=5cdb71c856d6be000170bfa3&goal=1,androidid_838ca08e030d1a10,%ED%95%9C%EA%B5%AD%EC%96%B4
U14Q5POpQ2GHolebBCUQWA,gameberry,1821_38,Install,1.9,114.30.165.112,2494bcd4-3cab-4072-bb8d-123d9f2e0d44,1557888172,2019-05-15 10:42:52,1557888325,2019-05-15 10:45:25,1557888356,5cdb7ca956d6be00012de5cf,http://admin.junggglex.com/postback?clickid=5cdb7ca956d6be00012de5cf&goal=1,idfa_2494bcd4-3cab-4072-bb8d-123d9f2e0d44,%ED%95%9C%EA%B5%AD%EC%96%B4
U14Q5POpQ2GHolebBCUQWA,gameberry,1821_38,Install,1.9,119.199.178.218,b535a706-6ae4-4612-99d3-e958b0f49ea4,1557884472,2019-05-15 09:41:12,1557884607,2019-05-15 09:43:27,1557884743,5cdb6e2f56d6be000138586f,http://admin.junggglex.com/postback?clickid=5cdb6e2f56d6be000138586f&goal=1,idfa_b535a706-6ae4-4612-99d3-e958b0f49ea4,%ED%95%9C%EA%B5%AD%EC%96%B4
