cid,partner_id,channel_id,action_id,cpi,ip,idfa,click time,click datetime,install time,install datetime,postback time,click id,postback url,unique user id
U59-8CxdTKqSnHv_RjRDUg,gameberry,1529_140_2_51.AT7pn7qq9haj048zd3gh6xvbtfy_480153od5b2k,install,1.5,14.10.132.160,A4BFEFE9-AF7A-4B1B-944C-553F09938263,1557200960,2019-05-07 11:49:20,1557201095,2019-05-07 11:51:35,1557201126,5cd1002f56d6be0001f2b6b1,http://admin.junggglex.com/postback?clickid=5cd1002f56d6be0001f2b6b1&goal=1,idfa_A4BFEFE9-AF7A-4B1B-944C-553F09938263,ja
U59-8CxdTKqSnHv_RjRDUg,gameberry,1529_140_2_51.AT9ced8mai1v6kzt0xxgg7dqwiw_2amzagldi8ql,install,1.5,182.163.42.101,C1A402D7-26D6-4724-B543-D2DAF72E506D,1557168275,2019-05-07 02:44:35,1557168429,2019-05-07 02:47:09,1557168460,5cd0808756d6be0001d44db6,http://admin.junggglex.com/postback?clickid=5cd0808756d6be0001d44db6&goal=1,idfa_C1A402D7-26D6-4724-B543-D2DAF72E506D,ja
U59-8CxdTKqSnHv_RjRDUg,gameberry,1529_140_2_51.AT7pn7qq9haj048zd3gh6xvbtfy_480153od5b2k,install,1.5,122.222.2.124,4CD56E7C-DA15-4859-BE98-19A66ECE729F,1557165036,2019-05-07 01:50:36,1557165115,2019-05-07 01:51:55,1557165145,5cd073dc56d6be0001628b1d,http://admin.junggglex.com/postback?clickid=5cd073dc56d6be0001628b1d&goal=1,idfa_4CD56E7C-DA15-4859-BE98-19A66ECE729F,ja
U59-8CxdTKqSnHv_RjRDUg,gameberry,1529_140_2_51.ATb0izc9qo4yhxtrffr9ncvnbkl_ccx1s70mtyfm,install,1.5,163.44.60.210,F1FD7A5A-4F0D-4EF0-A075-B834B926C2E1,1557187062,2019-05-07 07:57:42,1557187128,2019-05-07 07:58:48,1557187158,5cd0c9f456d6be00016809f0,http://admin.junggglex.com/postback?clickid=5cd0c9f456d6be00016809f0&goal=1,idfa_F1FD7A5A-4F0D-4EF0-A075-B834B926C2E1,ja
U59-8CxdTKqSnHv_RjRDUg,gameberry,1529_140_2_51.AT7pn7qq9haj048zd3gh6xvbtfy_480153od5b2k,install,1.5,111.239.157.216,02B46499-30E2-4B2F-B066-6532D36D5476,1557180912,2019-05-07 06:15:12,1557181155,2019-05-07 06:19:15,1557181186,5cd0b1e156d6be0001e6856d,http://admin.junggglex.com/postback?clickid=5cd0b1e156d6be0001e6856d&goal=1,idfa_02B46499-30E2-4B2F-B066-6532D36D5476,ja
U59-8CxdTKqSnHv_RjRDUg,gameberry,1529_140_2_51.AT7pn7qq9haj048zd3gh6xvbtfy_480153od5b2k,install,1.5,121.102.9.133,C3EA9F4E-60F8-445A-9D5A-545A4FAF1155,1557212572,2019-05-07 15:02:52,1557212674,2019-05-07 15:04:34,1557212705,5cd12d9056d6be000153e192,http://admin.junggglex.com/postback?clickid=5cd12d9056d6be000153e192&goal=1,idfa_C3EA9F4E-60F8-445A-9D5A-545A4FAF1155,ja
U59-8CxdTKqSnHv_RjRDUg,gameberry,1529_140_2_51.AT4kq7xx8p220ds1cm3lgs88p1g_dxfukbgvxrdq,install,1.5,153.254.210.44,49AC092F-1BA4-46BD-B72A-ADB5E9A16952,1557103469,2019-05-06 08:44:29,1557103739,2019-05-06 08:48:59,1557103770,5ccf836b56d6be0001fab3bd,http://admin.junggglex.com/postback?clickid=5ccf836b56d6be0001fab3bd&goal=1,idfa_49AC092F-1BA4-46BD-B72A-ADB5E9A16952,ja
U59-8CxdTKqSnHv_RjRDUg,gameberry,1529_140_2_51.AT7pn7qq9haj048zd3gh6xvbtfy_480153od5b2k,install,1.5,111.239.250.71,BAC11A35-32B0-4C2C-88DE-64C162D03F2D,1557200914,2019-05-07 11:48:34,1557201005,2019-05-07 11:50:05,1557201035,5cd1000656d6be0001eeacd6,http://admin.junggglex.com/postback?clickid=5cd1000656d6be0001eeacd6&goal=1,idfa_BAC11A35-32B0-4C2C-88DE-64C162D03F2D,ja
U59-8CxdTKqSnHv_RjRDUg,gameberry,1529_140_2_51.AT7pn7qq9haj048zd3gh6xvbtfy_480153od5b2k,install,1.5,59.169.183.12,779C51A5-CAD2-49A2-BB65-39F6F63DF444,1557204997,2019-05-07 12:56:37,1557205072,2019-05-07 12:57:52,1557205103,5cd10ff656d6be00014369a7,http://admin.junggglex.com/postback?clickid=5cd10ff656d6be00014369a7&goal=1,idfa_779C51A5-CAD2-49A2-BB65-39F6F63DF444,ja
U59-8CxdTKqSnHv_RjRDUg,gameberry,1529_140_2_51.AT7pn7qq9haj048zd3gh6xvbtfy_480153od5b2k,install,1.5,180.44.116.22,14B270DC-096A-4D1E-8512-86A7B0477878,1557185029,2019-05-07 07:23:49,1557185102,2019-05-07 07:25:02,1557185133,5cd0c1f656d6be0001e8545a,http://admin.junggglex.com/postback?clickid=5cd0c1f656d6be0001e8545a&goal=1,idfa_14B270DC-096A-4D1E-8512-86A7B0477878,ja
U59-8CxdTKqSnHv_RjRDUg,gameberry,1529_140_2_51.AT7pn7qq9haj048zd3gh6xvbtfy_480153od5b2k,install,1.5,106.72.171.225,057092AF-B6DD-402D-A766-C8F0E5B9817E,1557200570,2019-05-07 11:42:50,1557200650,2019-05-07 11:44:10,1557200680,5cd0fea356d6be0001cce3f5,http://admin.junggglex.com/postback?clickid=5cd0fea356d6be0001cce3f5&goal=1,idfa_057092AF-B6DD-402D-A766-C8F0E5B9817E,ja
