cid,partner_id,channel_id,action_id,cpi,ip,idfa,click time,click datetime,install time,install datetime,postback time,click id,postback url,unique user id
kMPGtiwkStOJpkMrS9IpHw,gameberry,1326_1374_,install,1.6,220.66.155.2,babf2a40-db95-4720-aeb5-45ffd44680bf,1557631889,2019-05-12 11:31:29,1557631944,2019-05-12 11:32:24,1557631976,5cd7938e56d6be0001707326,http://admin.junggglex.com/postback?clickid=5cd7938e56d6be0001707326&goal=1,idfa_babf2a40-db95-4720-aeb5-45ffd44680bf,ko
kMPGtiwkStOJpkMrS9IpHw,gameberry,1326_1374_,install,1.6,175.195.19.41,c4f495f1-35f2-4605-8aee-617c1acb5bdf,1557489162,2019-05-10 19:52:42,1557489226,2019-05-10 19:53:46,1557489258,5cd5660856d6be0001abae24,http://admin.junggglex.com/postback?clickid=5cd5660856d6be0001abae24&goal=1,idfa_c4f495f1-35f2-4605-8aee-617c1acb5bdf,ko
kMPGtiwkStOJpkMrS9IpHw,gameberry,1326_1374_,install,1.6,175.226.157.65,7cf55cf4-6467-4e03-9c38-16e18b2d91fb,1557633435,2019-05-12 11:57:15,1557633500,2019-05-12 11:58:20,1557633531,5cd7999856d6be0001f61d58,http://admin.junggglex.com/postback?clickid=5cd7999856d6be0001f61d58&goal=1,idfa_7cf55cf4-6467-4e03-9c38-16e18b2d91fb,ko
kMPGtiwkStOJpkMrS9IpHw,gameberry,1326_1374_,install,1.6,59.5.55.190,f26017e6-cfaa-42dd-a52f-2d99d4ea1dee,1557490648,2019-05-10 20:17:28,1557490713,2019-05-10 20:18:33,1557490745,5cd56bd556d6be000107860c,http://admin.junggglex.com/postback?clickid=5cd56bd556d6be000107860c&goal=1,idfa_f26017e6-cfaa-42dd-a52f-2d99d4ea1dee,ko
kMPGtiwkStOJpkMrS9IpHw,gameberry,1326_1374_,install,1.6,211.38.74.103,1fc59a53-eab1-4254-9559-35feacde10b8,1557629453,2019-05-12 10:50:53,1557629520,2019-05-12 10:52:00,1557629551,5cd78a0956d6be0001f733bb,http://admin.junggglex.com/postback?clickid=5cd78a0956d6be0001f733bb&goal=1,idfa_1fc59a53-eab1-4254-9559-35feacde10b8,ko
kMPGtiwkStOJpkMrS9IpHw,gameberry,1326_1374_,install,1.6,1.255.70.123,8c1456e3-6726-4643-adf9-86319a45bf7e,1557483838,2019-05-10 18:23:58,1557483896,2019-05-10 18:24:56,1557483928,5cd5513b56d6be0001b5a4a7,http://admin.junggglex.com/postback?clickid=5cd5513b56d6be0001b5a4a7&goal=1,idfa_8c1456e3-6726-4643-adf9-86319a45bf7e,ko
kMPGtiwkStOJpkMrS9IpHw,gameberry,1326_1374_,install,1.6,222.121.170.21,b4db764a-c700-4ce7-b983-56ad36d4e277,1557632570,2019-05-12 11:42:50,1557632649,2019-05-12 11:44:09,1557632680,5cd7963356d6be0001ac721d,http://admin.junggglex.com/postback?clickid=5cd7963356d6be0001ac721d&goal=1,idfa_b4db764a-c700-4ce7-b983-56ad36d4e277,ko
kMPGtiwkStOJpkMrS9IpHw,gameberry,1326_1374_,install,1.6,222.232.182.118,606e06b9-786f-4540-8736-4c75af46fb6d,1557492035,2019-05-10 20:40:35,1557492099,2019-05-10 20:41:39,1557492130,5cd5714056d6be00015265e4,http://admin.junggglex.com/postback?clickid=5cd5714056d6be00015265e4&goal=1,idfa_606e06b9-786f-4540-8736-4c75af46fb6d,ko
kMPGtiwkStOJpkMrS9IpHw,gameberry,1326_1374_,install,1.6,118.39.37.230,ecad3d9c-e944-483a-8217-27da53d33685,1557490583,2019-05-10 20:16:23,1557490650,2019-05-10 20:17:30,1557490681,5cd56b8d56d6be0001058390,http://admin.junggglex.com/postback?clickid=5cd56b8d56d6be0001058390&goal=1,idfa_ecad3d9c-e944-483a-8217-27da53d33685,ko
kMPGtiwkStOJpkMrS9IpHw,gameberry,1326_1374_,install,1.6,222.110.225.183,b74ea9c2-2199-4b68-aa42-03453e165cba,1557634301,2019-05-12 12:11:41,1557634380,2019-05-12 12:13:00,1557634411,5cd79cf956d6be00011a1003,http://admin.junggglex.com/postback?clickid=5cd79cf956d6be00011a1003&goal=1,idfa_b74ea9c2-2199-4b68-aa42-03453e165cba,ko
kMPGtiwkStOJpkMrS9IpHw,gameberry,1326_1374_,install,1.6,121.182.120.157,2e7d16ff-6094-4c52-a5c9-2c771b6456fc,1557635545,2019-05-12 12:32:25,1557635608,2019-05-12 12:33:28,1557635640,5cd7a1d656d6be00017e274d,http://admin.junggglex.com/postback?clickid=5cd7a1d656d6be00017e274d&goal=1,idfa_2e7d16ff-6094-4c52-a5c9-2c771b6456fc,ko
kMPGtiwkStOJpkMrS9IpHw,gameberry,1326_1374_,install,1.6,118.39.59.121,44567f6b-5588-4b69-8610-239210ded25b,1557629583,2019-05-12 10:53:03,1557629653,2019-05-12 10:54:13,1557629685,5cd78a8c56d6be000102e461,http://admin.junggglex.com/postback?clickid=5cd78a8c56d6be000102e461&goal=1,idfa_44567f6b-5588-4b69-8610-239210ded25b,ko
kMPGtiwkStOJpkMrS9IpHw,gameberry,1326_1374_,install,1.6,110.10.130.19,5bca4d59-08c5-491e-903b-a641ac156c7e,1557634872,2019-05-12 12:21:12,1557634935,2019-05-12 12:22:15,1557634967,5cd79f3556d6be0001445838,http://admin.junggglex.com/postback?clickid=5cd79f3556d6be0001445838&goal=1,idfa_5bca4d59-08c5-491e-903b-a641ac156c7e,ko
kMPGtiwkStOJpkMrS9IpHw,gameberry,1326_1374_,install,1.6,210.102.199.253,c0140a93-1864-4f7a-8256-85f2e021887b,1557634947,2019-05-12 12:22:27,1557635029,2019-05-12 12:23:49,1557635060,5cd79f6f56d6be000148ef25,http://admin.junggglex.com/postback?clickid=5cd79f6f56d6be000148ef25&goal=1,idfa_c0140a93-1864-4f7a-8256-85f2e021887b,ko
kMPGtiwkStOJpkMrS9IpHw,gameberry,1326_1374_,install,1.6,27.116.255.243,32ed6526-6436-41b4-b9a1-85a95b7ff185,1557629706,2019-05-12 10:55:06,1557629770,2019-05-12 10:56:10,1557629801,5cd78b0756d6be0001623dd5,http://admin.junggglex.com/postback?clickid=5cd78b0756d6be0001623dd5&goal=1,idfa_32ed6526-6436-41b4-b9a1-85a95b7ff185,ko
kMPGtiwkStOJpkMrS9IpHw,gameberry,1326_1374_,install,1.6,118.130.176.123,0f40b92c-a7fc-424c-ab73-e2639f9f45c0,1557487371,2019-05-10 19:22:51,1557487431,2019-05-10 19:23:51,1557487463,5cd55f0956d6be0001555653,http://admin.junggglex.com/postback?clickid=5cd55f0956d6be0001555653&goal=1,idfa_0f40b92c-a7fc-424c-ab73-e2639f9f45c0,ko
kMPGtiwkStOJpkMrS9IpHw,gameberry,1326_1374_,install,1.6,182.219.204.105,8be140df-4dd0-4564-b5b8-7f5096777a49,1557494248,2019-05-10 21:17:28,1557494312,2019-05-10 21:18:32,1557494344,5cd579e556d6be0001e14e51,http://admin.junggglex.com/postback?clickid=5cd579e556d6be0001e14e51&goal=1,idfa_8be140df-4dd0-4564-b5b8-7f5096777a49,ko
kMPGtiwkStOJpkMrS9IpHw,gameberry,1326_1374_,install,1.6,203.236.80.40,bb9e5987-45c6-484e-ab1d-66a9954b986f,1557632543,2019-05-12 11:42:23,1557632607,2019-05-12 11:43:27,1557632638,5cd7961c56d6be0001aa6012,http://admin.junggglex.com/postback?clickid=5cd7961c56d6be0001aa6012&goal=1,idfa_bb9e5987-45c6-484e-ab1d-66a9954b986f,ko
kMPGtiwkStOJpkMrS9IpHw,gameberry,1326_1374_,install,1.6,183.112.102.112,28ec7b7d-e434-47c6-a934-892650bc9b54,1557484788,2019-05-10 18:39:48,1557484871,2019-05-10 18:41:11,1557484902,5cd554f256d6be0001e4047a,http://admin.junggglex.com/postback?clickid=5cd554f256d6be0001e4047a&goal=1,idfa_28ec7b7d-e434-47c6-a934-892650bc9b54,ko
kMPGtiwkStOJpkMrS9IpHw,gameberry,1326_1374_,install,1.6,152.149.69.126,7985b8bf-ed3d-4dfd-8f42-6cef04dbcdba,1557635617,2019-05-12 12:33:37,1557635685,2019-05-12 12:34:45,1557635716,5cd7a21e56d6be000184037a,http://admin.junggglex.com/postback?clickid=5cd7a21e56d6be000184037a&goal=1,idfa_7985b8bf-ed3d-4dfd-8f42-6cef04dbcdba,ko
kMPGtiwkStOJpkMrS9IpHw,gameberry,1326_1374_,install,1.6,1.221.192.149,7f3043d2-9fe1-4ecc-88d5-03721e73de10,1557486199,2019-05-10 19:03:19,1557486262,2019-05-10 19:04:22,1557486294,5cd55a7556d6be000122b73e,http://admin.junggglex.com/postback?clickid=5cd55a7556d6be000122b73e&goal=1,idfa_7f3043d2-9fe1-4ecc-88d5-03721e73de10,ko
kMPGtiwkStOJpkMrS9IpHw,gameberry,1326_1374_,install,1.6,59.21.169.153,322a75c4-be29-4c58-a1fc-118c771948bc,1557632060,2019-05-12 11:34:20,1557632132,2019-05-12 11:35:32,1557632163,5cd7943a56d6be00017faf0d,http://admin.junggglex.com/postback?clickid=5cd7943a56d6be00017faf0d&goal=1,idfa_322a75c4-be29-4c58-a1fc-118c771948bc,ko
kMPGtiwkStOJpkMrS9IpHw,gameberry,1326_1374_,install,1.6,220.82.43.92,da7d824c-8622-4205-b371-867223268823,1557630226,2019-05-12 11:03:46,1557630291,2019-05-12 11:04:51,1557630324,5cd78d0a56d6be0001ddcb56,http://admin.junggglex.com/postback?clickid=5cd78d0a56d6be0001ddcb56&goal=1,idfa_da7d824c-8622-4205-b371-867223268823,ko
kMPGtiwkStOJpkMrS9IpHw,gameberry,1326_1374_,install,1.6,61.39.117.6,b77da9b2-39a4-4af4-94b6-26d966cfd69b,1557631588,2019-05-12 11:26:28,1557631654,2019-05-12 11:27:34,1557631686,5cd7925956d6be000156970c,http://admin.junggglex.com/postback?clickid=5cd7925956d6be000156970c&goal=1,idfa_b77da9b2-39a4-4af4-94b6-26d966cfd69b,ko
kMPGtiwkStOJpkMrS9IpHw,gameberry,1326_1374_,install,1.6,183.107.119.140,cfc03cf0-3ae3-4b43-9a1a-233170f89640,1557634611,2019-05-12 12:16:51,1557634672,2019-05-12 12:17:52,1557634704,5cd79e2856d6be00012fc02f,http://admin.junggglex.com/postback?clickid=5cd79e2856d6be00012fc02f&goal=1,idfa_cfc03cf0-3ae3-4b43-9a1a-233170f89640,ko
kMPGtiwkStOJpkMrS9IpHw,gameberry,1326_1374_,install,1.6,211.236.192.234,b6cdc3fb-3cc2-445f-831d-b5f8755c44bd,1557483568,2019-05-10 18:19:28,1557483625,2019-05-10 18:20:25,1557483656,5cd5502d56d6be0001a9bdd2,http://admin.junggglex.com/postback?clickid=5cd5502d56d6be0001a9bdd2&goal=1,idfa_b6cdc3fb-3cc2-445f-831d-b5f8755c44bd,ko
kMPGtiwkStOJpkMrS9IpHw,gameberry,1326_1374_,install,1.6,222.112.82.67,4437d901-4873-40e2-bc39-05c80e895e3e,1557486220,2019-05-10 19:03:40,1557486282,2019-05-10 19:04:42,1557486315,5cd55a8756d6be0001238f1b,http://admin.junggglex.com/postback?clickid=5cd55a8756d6be0001238f1b&goal=1,idfa_4437d901-4873-40e2-bc39-05c80e895e3e,ko
kMPGtiwkStOJpkMrS9IpHw,gameberry,1326_1374_,install,1.6,112.172.63.47,f9a5317d-1850-4eb8-9ac9-a02106fecf46,1557494266,2019-05-10 21:17:46,1557494323,2019-05-10 21:18:43,1557494356,5cd579f856d6be0001e28f2f,http://admin.junggglex.com/postback?clickid=5cd579f856d6be0001e28f2f&goal=1,idfa_f9a5317d-1850-4eb8-9ac9-a02106fecf46,ko
kMPGtiwkStOJpkMrS9IpHw,gameberry,1326_1374_,install,1.6,211.225.28.188,1e65f9ab-d1ab-43d5-8d73-bda3f94b2f65,1557629421,2019-05-12 10:50:21,1557629487,2019-05-12 10:51:27,1557629518,5cd789e856d6be0001f48a42,http://admin.junggglex.com/postback?clickid=5cd789e856d6be0001f48a42&goal=1,idfa_1e65f9ab-d1ab-43d5-8d73-bda3f94b2f65,ko
kMPGtiwkStOJpkMrS9IpHw,gameberry,1326_1374_,install,1.6,122.32.30.177,c7b0007e-7c23-40dc-9e5c-b528586077d2,1557491835,2019-05-10 20:37:15,1557491895,2019-05-10 20:38:15,1557491926,5cd5707856d6be00014648b2,http://admin.junggglex.com/postback?clickid=5cd5707856d6be00014648b2&goal=1,idfa_c7b0007e-7c23-40dc-9e5c-b528586077d2,ko
kMPGtiwkStOJpkMrS9IpHw,gameberry,1326_1374_,install,1.6,125.140.33.198,4838b388-4f41-4058-8d77-33aee4fe81a4,1557633478,2019-05-12 11:57:58,1557633536,2019-05-12 11:58:56,1557633568,5cd799c356d6be0001de0c4a,http://admin.junggglex.com/postback?clickid=5cd799c356d6be0001de0c4a&goal=1,idfa_4838b388-4f41-4058-8d77-33aee4fe81a4,ko
kMPGtiwkStOJpkMrS9IpHw,gameberry,1326_1374_,install,1.6,121.151.86.155,a6d4de1e-4cd0-4b12-912f-32825b87b538,1557634609,2019-05-12 12:16:49,1557634673,2019-05-12 12:17:53,1557634705,5cd79e2e56d6be0001303370,http://admin.junggglex.com/postback?clickid=5cd79e2e56d6be0001303370&goal=1,idfa_a6d4de1e-4cd0-4b12-912f-32825b87b538,ko
kMPGtiwkStOJpkMrS9IpHw,gameberry,1326_1374_,install,1.6,175.201.12.200,28ea7edc-83c7-4073-a9b9-40009f163d01,1557629128,2019-05-12 10:45:28,1557629196,2019-05-12 10:46:36,1557629227,5cd788c356d6be0001e2f382,http://admin.junggglex.com/postback?clickid=5cd788c356d6be0001e2f382&goal=1,idfa_28ea7edc-83c7-4073-a9b9-40009f163d01,ko
kMPGtiwkStOJpkMrS9IpHw,gameberry,1326_1374_,install,1.6,122.129.242.61,8de6a593-fad2-4610-835d-a6589b756ec8,1557629353,2019-05-12 10:49:13,1557629423,2019-05-12 10:50:23,1557629455,5cd789a556d6be0001ef9478,http://admin.junggglex.com/postback?clickid=5cd789a556d6be0001ef9478&goal=1,idfa_8de6a593-fad2-4610-835d-a6589b756ec8,ko
kMPGtiwkStOJpkMrS9IpHw,gameberry,1326_1374_,install,1.6,211.217.99.62,fb415885-c8b4-4e10-85c1-5239ad14d763,1557629641,2019-05-12 10:54:01,1557629709,2019-05-12 10:55:09,1557629740,5cd78ac756d6be000108c2c5,http://admin.junggglex.com/postback?clickid=5cd78ac756d6be000108c2c5&goal=1,idfa_fb415885-c8b4-4e10-85c1-5239ad14d763,ko
kMPGtiwkStOJpkMrS9IpHw,gameberry,1326_1374_,install,1.6,119.56.152.107,c67a2be5-bbf9-4fd5-98c0-3895f8e1e640,1557491555,2019-05-10 20:32:35,1557491617,2019-05-10 20:33:37,1557491648,5cd56f5d56d6be0001346e29,http://admin.junggglex.com/postback?clickid=5cd56f5d56d6be0001346e29&goal=1,idfa_c67a2be5-bbf9-4fd5-98c0-3895f8e1e640,ko
kMPGtiwkStOJpkMrS9IpHw,gameberry,1326_1374_,install,1.6,211.169.209.130,d25e3733-2e45-4721-8748-b9bf44436201,1557634003,2019-05-12 12:06:43,1557634085,2019-05-12 12:08:05,1557634117,5cd79bd056d6be000104dda8,http://admin.junggglex.com/postback?clickid=5cd79bd056d6be000104dda8&goal=1,idfa_d25e3733-2e45-4721-8748-b9bf44436201,ko
kMPGtiwkStOJpkMrS9IpHw,gameberry,1326_1374_,install,1.6,211.189.132.222,4fb12bc4-d407-4c78-95af-8fae8f2f3311,1557492466,2019-05-10 20:47:46,1557492535,2019-05-10 20:48:55,1557492578,5cd572da56d6be00016c5537,http://admin.junggglex.com/postback?clickid=5cd572da56d6be00016c5537&goal=1,idfa_4fb12bc4-d407-4c78-95af-8fae8f2f3311,ko
kMPGtiwkStOJpkMrS9IpHw,gameberry,1326_1374_,install,1.6,175.204.125.198,d237f7d4-3348-4b76-b9c2-f43813671c84,1557635265,2019-05-12 12:27:45,1557635323,2019-05-12 12:28:43,1557635355,5cd7a0be56d6be0001651170,http://admin.junggglex.com/postback?clickid=5cd7a0be56d6be0001651170&goal=1,idfa_d237f7d4-3348-4b76-b9c2-f43813671c84,ko
kMPGtiwkStOJpkMrS9IpHw,gameberry,1326_1374_,install,1.6,124.46.250.76,c39f62e6-daa8-476e-9be1-9bf6d90ec3bd,1557494342,2019-05-10 21:19:02,1557494405,2019-05-10 21:20:05,1557494442,5cd57a4456d6be0001e74071,http://admin.junggglex.com/postback?clickid=5cd57a4456d6be0001e74071&goal=1,idfa_c39f62e6-daa8-476e-9be1-9bf6d90ec3bd,ko
kMPGtiwkStOJpkMrS9IpHw,gameberry,1326_1374_,install,1.6,121.66.93.195,64d1fd2d-1c62-47c4-8f71-93cb323966dd,1557631490,2019-05-12 11:24:50,1557631568,2019-05-12 11:26:08,1557631599,5cd791fe56d6be00014f51d7,http://admin.junggglex.com/postback?clickid=5cd791fe56d6be00014f51d7&goal=1,idfa_64d1fd2d-1c62-47c4-8f71-93cb323966dd,ko
kMPGtiwkStOJpkMrS9IpHw,gameberry,1326_1374_,install,1.6,121.186.96.167,08fd974b-ad50-47d5-a8f4-e7322193a93c,1557633159,2019-05-12 11:52:39,1557633239,2019-05-12 11:53:59,1557633270,5cd7988556d6be0001ded4f9,http://admin.junggglex.com/postback?clickid=5cd7988556d6be0001ded4f9&goal=1,idfa_08fd974b-ad50-47d5-a8f4-e7322193a93c,ko
kMPGtiwkStOJpkMrS9IpHw,gameberry,1326_1374_,install,1.6,1.214.196.154,4e2ad13c-f6ee-40c4-a126-837eda053b8b,1557488906,2019-05-10 19:48:26,1557488969,2019-05-10 19:49:29,1557489001,5cd5650856d6be00019dfd38,http://admin.junggglex.com/postback?clickid=5cd5650856d6be00019dfd38&goal=1,idfa_4e2ad13c-f6ee-40c4-a126-837eda053b8b,ko
kMPGtiwkStOJpkMrS9IpHw,gameberry,1326_1374_,install,1.6,61.81.115.75,9931df13-50e0-4f3e-9e94-b2f272eebb1c,1557629707,2019-05-12 10:55:07,1557629766,2019-05-12 10:56:06,1557629797,5cd78b0856d6be0001625b1b,http://admin.junggglex.com/postback?clickid=5cd78b0856d6be0001625b1b&goal=1,idfa_9931df13-50e0-4f3e-9e94-b2f272eebb1c,ko
kMPGtiwkStOJpkMrS9IpHw,gameberry,1326_1374_,install,1.6,112.216.55.178,d3a4159d-4ea5-4056-b25a-72b29d9beb34,1557634001,2019-05-12 12:06:41,1557634065,2019-05-12 12:07:45,1557634097,5cd79bce56d6be000104b536,http://admin.junggglex.com/postback?clickid=5cd79bce56d6be000104b536&goal=1,idfa_d3a4159d-4ea5-4056-b25a-72b29d9beb34,ko
kMPGtiwkStOJpkMrS9IpHw,gameberry,1326_1374_,install,1.6,61.81.121.62,7998d9f8-ffd2-4b19-92de-fc85b7db65be,1557493970,2019-05-10 21:12:50,1557494036,2019-05-10 21:13:56,1557494067,5cd578cf56d6be0001cf99f3,http://admin.junggglex.com/postback?clickid=5cd578cf56d6be0001cf99f3&goal=1,idfa_7998d9f8-ffd2-4b19-92de-fc85b7db65be,ko
kMPGtiwkStOJpkMrS9IpHw,gameberry,1326_1374_,install,1.6,218.38.136.99,e4f5bdbf-d909-4cec-9bf2-1c7b63d44d6e,1557631785,2019-05-12 11:29:45,1557631852,2019-05-12 11:30:52,1557631883,5cd7932656d6be000167c22b,http://admin.junggglex.com/postback?clickid=5cd7932656d6be000167c22b&goal=1,idfa_e4f5bdbf-d909-4cec-9bf2-1c7b63d44d6e,ko
kMPGtiwkStOJpkMrS9IpHw,gameberry,1326_1374_,install,1.6,183.105.52.126,3f08c3b7-2937-4793-a3a8-cac1afc804ca,1557634293,2019-05-12 12:11:33,1557634355,2019-05-12 12:12:35,1557634387,5cd79ced56d6be00011931be,http://admin.junggglex.com/postback?clickid=5cd79ced56d6be00011931be&goal=1,idfa_3f08c3b7-2937-4793-a3a8-cac1afc804ca,ko
kMPGtiwkStOJpkMrS9IpHw,gameberry,1326_1374_,install,1.6,211.180.176.36,57c05448-0564-47d1-bde5-e9bf299ba469,1557635926,2019-05-12 12:38:46,1557635991,2019-05-12 12:39:51,1557636023,5cd7a35456d6be00019bd45a,http://admin.junggglex.com/postback?clickid=5cd7a35456d6be00019bd45a&goal=1,idfa_57c05448-0564-47d1-bde5-e9bf299ba469,ko
kMPGtiwkStOJpkMrS9IpHw,gameberry,1326_1374_,install,1.6,1.222.80.90,723702f5-f363-4e83-af6c-f556b92d3509,1557631266,2019-05-12 11:21:06,1557631324,2019-05-12 11:22:04,1557631356,5cd7912056d6be00013cd934,http://admin.junggglex.com/postback?clickid=5cd7912056d6be00013cd934&goal=1,idfa_723702f5-f363-4e83-af6c-f556b92d3509,ko
kMPGtiwkStOJpkMrS9IpHw,gameberry,1326_1374_,install,1.6,121.254.234.243,395ff1d5-8abf-4cdb-b451-bdc3ef70af22,1557493514,2019-05-10 21:05:14,1557493573,2019-05-10 21:06:13,1557493607,5cd5770656d6be0001b2847f,http://admin.junggglex.com/postback?clickid=5cd5770656d6be0001b2847f&goal=1,idfa_395ff1d5-8abf-4cdb-b451-bdc3ef70af22,ko
kMPGtiwkStOJpkMrS9IpHw,gameberry,1326_1374_,install,1.6,60.253.12.77,8ac082e7-8f92-4f81-b9d9-222ec690b2c4,1557490990,2019-05-10 20:23:10,1557491052,2019-05-10 20:24:12,1557491090,5cd56d2c56d6be0001149c3e,http://admin.junggglex.com/postback?clickid=5cd56d2c56d6be0001149c3e&goal=1,idfa_8ac082e7-8f92-4f81-b9d9-222ec690b2c4,ko
kMPGtiwkStOJpkMrS9IpHw,gameberry,1326_1374_,install,1.6,121.156.239.171,15fa92d3-453f-4c8c-88e7-a7aef958bd84,1557629908,2019-05-12 10:58:28,1557629976,2019-05-12 10:59:36,1557630015,5cd78bce56d6be00017519f7,http://admin.junggglex.com/postback?clickid=5cd78bce56d6be00017519f7&goal=1,idfa_15fa92d3-453f-4c8c-88e7-a7aef958bd84,ko
kMPGtiwkStOJpkMrS9IpHw,gameberry,1326_1374_,install,1.6,119.56.251.123,529ee66b-d17a-49ce-b80b-a0e01fc45487,1557493056,2019-05-10 20:57:36,1557493119,2019-05-10 20:58:39,1557493150,5cd5753d56d6be00019425fd,http://admin.junggglex.com/postback?clickid=5cd5753d56d6be00019425fd&goal=1,idfa_529ee66b-d17a-49ce-b80b-a0e01fc45487,ko
kMPGtiwkStOJpkMrS9IpHw,gameberry,1326_1374_,install,1.6,222.118.65.198,d6a3a029-d3b8-408a-b72c-5fdde7ad07e7,1557630971,2019-05-12 11:16:11,1557631029,2019-05-12 11:17:09,1557631065,5cd78ff756d6be00012298fd,http://admin.junggglex.com/postback?clickid=5cd78ff756d6be00012298fd&goal=1,idfa_d6a3a029-d3b8-408a-b72c-5fdde7ad07e7,ko
kMPGtiwkStOJpkMrS9IpHw,gameberry,1326_1374_,install,1.6,112.173.225.74,2ca05692-b5e0-4d81-a510-de5ea7796909,1557632286,2019-05-12 11:38:06,1557632349,2019-05-12 11:39:09,1557632381,5cd7951a56d6be0001939a67,http://admin.junggglex.com/postback?clickid=5cd7951a56d6be0001939a67&goal=1,idfa_2ca05692-b5e0-4d81-a510-de5ea7796909,ko
kMPGtiwkStOJpkMrS9IpHw,gameberry,1326_1374_,install,1.6,106.246.250.154,8f7327f8-f344-4a71-ac52-fc4357c83f92,1557633133,2019-05-12 11:52:13,1557633196,2019-05-12 11:53:16,1557633227,5cd7986b56d6be0001dc946f,http://admin.junggglex.com/postback?clickid=5cd7986b56d6be0001dc946f&goal=1,idfa_8f7327f8-f344-4a71-ac52-fc4357c83f92,ko
kMPGtiwkStOJpkMrS9IpHw,gameberry,1326_1374_,install,1.6,175.203.210.130,279dabe8-89a7-4966-a2c8-5a411fc12eab,1557629113,2019-05-12 10:45:13,1557629187,2019-05-12 10:46:27,1557629219,5cd788b556d6be0001e22d69,http://admin.junggglex.com/postback?clickid=5cd788b556d6be0001e22d69&goal=1,idfa_279dabe8-89a7-4966-a2c8-5a411fc12eab,ko
kMPGtiwkStOJpkMrS9IpHw,gameberry,1326_1374_,install,1.6,210.102.195.249,2ce3d34a-e8ea-450a-a562-20eeb42e86d1,1557628711,2019-05-12 10:38:31,1557628774,2019-05-12 10:39:34,1557628805,5cd7871e56d6be0001cafd6a,http://admin.junggglex.com/postback?clickid=5cd7871e56d6be0001cafd6a&goal=1,idfa_2ce3d34a-e8ea-450a-a562-20eeb42e86d1,ko
kMPGtiwkStOJpkMrS9IpHw,gameberry,1326_1374_,install,1.6,182.162.99.154,7a1ad9d3-d7b2-448c-8e9c-7c7c44e22706,1557493577,2019-05-10 21:06:17,1557493640,2019-05-10 21:07:20,1557493673,5cd5774656d6be0001b6727f,http://admin.junggglex.com/postback?clickid=5cd5774656d6be0001b6727f&goal=1,idfa_7a1ad9d3-d7b2-448c-8e9c-7c7c44e22706,ko
kMPGtiwkStOJpkMrS9IpHw,gameberry,1326_1374_,install,1.6,14.72.119.3,8cdc3a71-e04f-4e88-a63c-c52bfd0228ec,1557493102,2019-05-10 20:58:22,1557493164,2019-05-10 20:59:24,1557493195,5cd5756c56d6be0001971698,http://admin.junggglex.com/postback?clickid=5cd5756c56d6be0001971698&goal=1,idfa_8cdc3a71-e04f-4e88-a63c-c52bfd0228ec,ko
kMPGtiwkStOJpkMrS9IpHw,gameberry,1326_1374_,install,1.6,220.117.203.37,854e782f-525f-4b35-9db8-838b298af5d5,1557494062,2019-05-10 21:14:22,1557494124,2019-05-10 21:15:24,1557494156,5cd5792a56d6be0001d55151,http://admin.junggglex.com/postback?clickid=5cd5792a56d6be0001d55151&goal=1,idfa_854e782f-525f-4b35-9db8-838b298af5d5,ko
kMPGtiwkStOJpkMrS9IpHw,gameberry,1326_1374_,install,1.6,101.235.30.186,b7f90d9a-6ac0-4cba-bb32-35cfc7b02276,1557489579,2019-05-10 19:59:39,1557489653,2019-05-10 20:00:53,1557489684,5cd567a256d6be0001c0cfb6,http://admin.junggglex.com/postback?clickid=5cd567a256d6be0001c0cfb6&goal=1,idfa_b7f90d9a-6ac0-4cba-bb32-35cfc7b02276,ko
kMPGtiwkStOJpkMrS9IpHw,gameberry,1326_1374_,install,1.6,114.70.74.5,90f24687-5cbd-4473-8db2-9b343aac8fb7,1557632861,2019-05-12 11:47:41,1557632924,2019-05-12 11:48:44,1557632956,5cd7975756d6be0001c55169,http://admin.junggglex.com/postback?clickid=5cd7975756d6be0001c55169&goal=1,idfa_90f24687-5cbd-4473-8db2-9b343aac8fb7,ko
kMPGtiwkStOJpkMrS9IpHw,gameberry,1326_1374_,install,1.6,175.197.206.182,5cd1d3a6-e349-4219-a0ca-ba4ec3214e8c,1557633729,2019-05-12 12:02:09,1557633794,2019-05-12 12:03:14,1557633825,5cd79abf56d6be0001f1f63f,http://admin.junggglex.com/postback?clickid=5cd79abf56d6be0001f1f63f&goal=1,idfa_5cd1d3a6-e349-4219-a0ca-ba4ec3214e8c,ko
kMPGtiwkStOJpkMrS9IpHw,gameberry,1326_1374_,install,1.6,175.118.69.8,ef160aca-6f87-4fcf-9ac8-a3207f36d116,1557492455,2019-05-10 20:47:35,1557492523,2019-05-10 20:48:43,1557492554,5cd572e456d6be00016cf201,http://admin.junggglex.com/postback?clickid=5cd572e456d6be00016cf201&goal=1,idfa_ef160aca-6f87-4fcf-9ac8-a3207f36d116,ko
kMPGtiwkStOJpkMrS9IpHw,gameberry,1326_1374_,install,1.6,59.30.85.188,594046fa-09e7-4c32-a3ec-9448a442c72e,1557635335,2019-05-12 12:28:55,1557635404,2019-05-12 12:30:04,1557635435,5cd7a10456d6be00016b5cda,http://admin.junggglex.com/postback?clickid=5cd7a10456d6be00016b5cda&goal=1,idfa_594046fa-09e7-4c32-a3ec-9448a442c72e,ko
kMPGtiwkStOJpkMrS9IpHw,gameberry,1326_1374_,install,1.6,175.211.47.251,45b61bdc-b1d6-4b5b-a9e0-25430f6117cf,1557486475,2019-05-10 19:07:55,1557486539,2019-05-10 19:08:59,1557486570,5cd55b8956d6be00012ef175,http://admin.junggglex.com/postback?clickid=5cd55b8956d6be00012ef175&goal=1,idfa_45b61bdc-b1d6-4b5b-a9e0-25430f6117cf,ko
kMPGtiwkStOJpkMrS9IpHw,gameberry,1326_1374_,install,1.6,119.194.7.26,74e3be5c-a910-42fa-a157-0f81398b94fe,1557629406,2019-05-12 10:50:06,1557629475,2019-05-12 10:51:15,1557629507,5cd789da56d6be0001f38324,http://admin.junggglex.com/postback?clickid=5cd789da56d6be0001f38324&goal=1,idfa_74e3be5c-a910-42fa-a157-0f81398b94fe,ko
kMPGtiwkStOJpkMrS9IpHw,gameberry,1326_1374_,install,1.6,112.175.9.49,b4229d2e-4902-4db2-8905-da3e7b6e5ad4,1557628720,2019-05-12 10:38:40,1557628788,2019-05-12 10:39:48,1557628819,5cd7872c56d6be0001cbde1c,http://admin.junggglex.com/postback?clickid=5cd7872c56d6be0001cbde1c&goal=1,idfa_b4229d2e-4902-4db2-8905-da3e7b6e5ad4,ko
kMPGtiwkStOJpkMrS9IpHw,gameberry,1326_1374_,install,1.6,59.28.185.59,64dd8c59-d0f0-462c-a187-44842697c0ef,1557489189,2019-05-10 19:53:09,1557489256,2019-05-10 19:54:16,1557489287,5cd5662256d6be0001ad10d1,http://admin.junggglex.com/postback?clickid=5cd5662256d6be0001ad10d1&goal=1,idfa_64dd8c59-d0f0-462c-a187-44842697c0ef,ko
kMPGtiwkStOJpkMrS9IpHw,gameberry,1326_1374_,install,1.6,218.152.169.2,5a3084a4-0e70-4e6a-8efd-32337fc29592,1557628920,2019-05-12 10:42:00,1557628986,2019-05-12 10:43:06,1557629017,5cd787f456d6be0001d6f55e,http://admin.junggglex.com/postback?clickid=5cd787f456d6be0001d6f55e&goal=1,idfa_5a3084a4-0e70-4e6a-8efd-32337fc29592,ko
kMPGtiwkStOJpkMrS9IpHw,gameberry,1326_1374_,install,1.6,112.162.62.41,81298888-03c1-41a9-bef1-a8b01b7e56fe,1557628826,2019-05-12 10:40:26,1557628888,2019-05-12 10:41:28,1557628919,5cd7879756d6be0001d18e35,http://admin.junggglex.com/postback?clickid=5cd7879756d6be0001d18e35&goal=1,idfa_81298888-03c1-41a9-bef1-a8b01b7e56fe,ko
kMPGtiwkStOJpkMrS9IpHw,gameberry,1326_1374_,install,1.6,121.189.226.81,ef517412-520d-48ac-ae09-bc4c8f820a93,1557630034,2019-05-12 11:00:34,1557630102,2019-05-12 11:01:42,1557630133,5cd78c4f56d6be0001811d2b,http://admin.junggglex.com/postback?clickid=5cd78c4f56d6be0001811d2b&goal=1,idfa_ef517412-520d-48ac-ae09-bc4c8f820a93,ko
