cid,partner_id,channel_id,action_id,cpi,ip,idfa,click time,click datetime,install time,install datetime,postback time,click id,postback url,unique user id
3vtidr1QRvCtCyKL3gcSfQ,gameberry,1298_p1599,install,2.1,115.82.35.187,64b1783a-d61c-4c3a-86cb-9a66d9ed4202,1557341242,2019-05-09 02:47:22,1557341731,2019-05-09 02:55:31,1557341762,5cd3243856d6be00019ec4c4,http://admin.junggglex.com/postback?clickid=5cd3243856d6be00019ec4c4&goal=1,idfa_64b1783a-d61c-4c3a-86cb-9a66d9ed4202,zh
3vtidr1QRvCtCyKL3gcSfQ,gameberry,1298_p1599,install,2.1,220.129.68.196,63f05343-f17c-4be6-9237-7171f10203a3,1557334865,2019-05-09 01:01:05,1557335040,2019-05-09 01:04:00,1557335071,5cd30b5056d6be0001933483,http://admin.junggglex.com/postback?clickid=5cd30b5056d6be0001933483&goal=1,idfa_63f05343-f17c-4be6-9237-7171f10203a3,zh
3vtidr1QRvCtCyKL3gcSfQ,gameberry,1298_p1599,install,2.1,111.83.105.161,a03d7558-c66c-4d6c-abed-64ffaf89848e,1557338400,2019-05-09 02:00:00,1557338574,2019-05-09 02:02:54,1557364294,5cd3191e56d6be00012b34b2,http://admin.junggglex.com/postback?clickid=5cd3191e56d6be00012b34b2&goal=1,idfa_a03d7558-c66c-4d6c-abed-64ffaf89848e,zh
3vtidr1QRvCtCyKL3gcSfQ,gameberry,1298_p1599,install,2.1,27.246.126.116,702f439e-9224-49bb-ac68-3a17bc86671b,1557334684,2019-05-09 00:58:04,1557334865,2019-05-09 01:01:05,1557334896,5cd30a9b56d6be00018ad34a,http://admin.junggglex.com/postback?clickid=5cd30a9b56d6be00018ad34a&goal=1,idfa_702f439e-9224-49bb-ac68-3a17bc86671b,zh
3vtidr1QRvCtCyKL3gcSfQ,gameberry,1298_p1599,install,2.1,36.231.235.78,f591aba5-1a03-434f-bcb5-e9f11f6f8bda,1557335352,2019-05-09 01:09:12,1557337321,2019-05-09 01:42:01,1557337351,5cd30d3756d6be0001a81bb3,http://admin.junggglex.com/postback?clickid=5cd30d3756d6be0001a81bb3&goal=1,idfa_f591aba5-1a03-434f-bcb5-e9f11f6f8bda,zh
3vtidr1QRvCtCyKL3gcSfQ,gameberry,1298_p1599,install,2.1,117.19.176.127,0ee363ce-1a1b-4589-a95d-17ed0e6e618c,1557341537,2019-05-09 02:52:17,1557341850,2019-05-09 02:57:30,1557341881,5cd3256056d6be0001a8722a,http://admin.junggglex.com/postback?clickid=5cd3256056d6be0001a8722a&goal=1,idfa_0ee363ce-1a1b-4589-a95d-17ed0e6e618c,zh
3vtidr1QRvCtCyKL3gcSfQ,gameberry,1298_p1599,install,2.1,180.217.250.75,5336a613-e181-4333-9ecb-08bdb783f79f,1556470305,2019-04-29 00:51:45,1556728652,2019-05-02 00:37:32,1556728683,5cc5da1e56d6be0001f7fe0c,http://admin.junggglex.com/postback?clickid=5cc5da1e56d6be0001f7fe0c&goal=1,idfa_5336a613-e181-4333-9ecb-08bdb783f79f,zh
3vtidr1QRvCtCyKL3gcSfQ,gameberry,1298_p1599,install,2.1,180.217.243.207,08ed5051-af56-4653-8534-fc4e3827884a,1557340082,2019-05-09 02:28:02,1557340242,2019-05-09 02:30:42,1557340274,5cd31fa156d6be000173bae3,http://admin.junggglex.com/postback?clickid=5cd31fa156d6be000173bae3&goal=1,idfa_08ed5051-af56-4653-8534-fc4e3827884a,id
3vtidr1QRvCtCyKL3gcSfQ,gameberry,1298_p1599,install,2.1,101.136.194.128,bba30bab-2996-4267-882e-a1bb04c8eeb8,1557337909,2019-05-09 01:51:49,1557338086,2019-05-09 01:54:46,1557338116,5cd3173456d6be000115b71e,http://admin.junggglex.com/postback?clickid=5cd3173456d6be000115b71e&goal=1,idfa_bba30bab-2996-4267-882e-a1bb04c8eeb8,zh
3vtidr1QRvCtCyKL3gcSfQ,gameberry,1298_p1599,install,2.1,110.28.11.104,bf22e23d-8ebc-49e8-aef6-46538bade1e8,1557334592,2019-05-09 00:56:32,1557335101,2019-05-09 01:05:01,1557335132,5cd30a3f56d6be0001865a70,http://admin.junggglex.com/postback?clickid=5cd30a3f56d6be0001865a70&goal=1,idfa_bf22e23d-8ebc-49e8-aef6-46538bade1e8,zh
3vtidr1QRvCtCyKL3gcSfQ,gameberry,1298_p1599,install,2.1,111.242.40.181,7f408b69-5ea7-412b-9ff6-85176481a6ae,1557343891,2019-05-09 03:31:31,1557346708,2019-05-09 04:18:28,1557346746,5cd32e9156d6be0001f324e6,http://admin.junggglex.com/postback?clickid=5cd32e9156d6be0001f324e6&goal=1,idfa_7f408b69-5ea7-412b-9ff6-85176481a6ae,zh
3vtidr1QRvCtCyKL3gcSfQ,gameberry,1298_p1599,install,2.1,61.227.101.83,47b0593c-412d-4d5a-ad35-2e90a245c077,1557343564,2019-05-09 03:26:04,1557343734,2019-05-09 03:28:54,1557343773,5cd32d4a56d6be0001e85a11,http://admin.junggglex.com/postback?clickid=5cd32d4a56d6be0001e85a11&goal=1,idfa_47b0593c-412d-4d5a-ad35-2e90a245c077,zh
3vtidr1QRvCtCyKL3gcSfQ,gameberry,1298_p1599,install,2.1,111.83.183.246,bb41c1be-2a55-4594-8d85-07232f315967,1557333708,2019-05-09 00:41:48,1557333885,2019-05-09 00:44:45,1557333915,5cd306cb56d6be000159411a,http://admin.junggglex.com/postback?clickid=5cd306cb56d6be000159411a&goal=1,idfa_bb41c1be-2a55-4594-8d85-07232f315967,zh
3vtidr1QRvCtCyKL3gcSfQ,gameberry,1298_p1599,install,2.1,27.242.4.119,b8eb4c59-16df-4d18-b122-4b94ed0c571c,1557337438,2019-05-09 01:43:58,1557340004,2019-05-09 02:26:44,1557340035,5cd3155d56d6be00010144e8,http://admin.junggglex.com/postback?clickid=5cd3155d56d6be00010144e8&goal=1,idfa_b8eb4c59-16df-4d18-b122-4b94ed0c571c,id
3vtidr1QRvCtCyKL3gcSfQ,gameberry,1298_p1599,install,2.1,111.253.46.32,61cd35c9-7f54-4401-9318-b7783370c522,1557337146,2019-05-09 01:39:06,1557337321,2019-05-09 01:42:01,1557337352,5cd3143956d6be0001f46f8a,http://admin.junggglex.com/postback?clickid=5cd3143956d6be0001f46f8a&goal=1,idfa_61cd35c9-7f54-4401-9318-b7783370c522,zh
3vtidr1QRvCtCyKL3gcSfQ,gameberry,1298_p1599,install,2.1,39.10.65.34,cda98673-c626-4cb5-b590-0b2c88bea64e,1557333300,2019-05-09 00:35:00,1557333485,2019-05-09 00:38:05,1557333516,5cd3053356d6be000144aea9,http://admin.junggglex.com/postback?clickid=5cd3053356d6be000144aea9&goal=1,idfa_cda98673-c626-4cb5-b590-0b2c88bea64e,zh
3vtidr1QRvCtCyKL3gcSfQ,gameberry,1298_p1599,install,2.1,110.50.149.149,c6b0911f-a876-48e9-bd65-eaaa1d4aac4a,1557340077,2019-05-09 02:27:57,1557340256,2019-05-09 02:30:56,1557340287,5cd31fac56d6be00017424a4,http://admin.junggglex.com/postback?clickid=5cd31fac56d6be00017424a4&goal=1,idfa_c6b0911f-a876-48e9-bd65-eaaa1d4aac4a,zh
3vtidr1QRvCtCyKL3gcSfQ,gameberry,1298_p1599,install,2.1,180.217.218.149,9026c97a-1d1d-4378-97e8-161740ecbf63,1557342649,2019-05-09 03:10:49,1557342825,2019-05-09 03:13:45,1557342857,5cd329b856d6be0001cbe3a0,http://admin.junggglex.com/postback?clickid=5cd329b856d6be0001cbe3a0&goal=1,idfa_9026c97a-1d1d-4378-97e8-161740ecbf63,id
3vtidr1QRvCtCyKL3gcSfQ,gameberry,1298_p1599,install,2.1,218.161.126.248,0c0b0809-a574-4cf4-a0d9-21b4bab9cb09,1557341072,2019-05-09 02:44:32,1557341249,2019-05-09 02:47:29,1557341280,5cd3238f56d6be0001996f43,http://admin.junggglex.com/postback?clickid=5cd3238f56d6be0001996f43&goal=1,idfa_0c0b0809-a574-4cf4-a0d9-21b4bab9cb09,zh
3vtidr1QRvCtCyKL3gcSfQ,gameberry,1298_p1599,install,2.1,122.116.12.40,529094da-2cdb-4330-ae3c-e76cbe8fe6ef,1557333556,2019-05-09 00:39:16,1557333743,2019-05-09 00:42:23,1557333775,5cd3063356d6be000151d8f0,http://admin.junggglex.com/postback?clickid=5cd3063356d6be000151d8f0&goal=1,idfa_529094da-2cdb-4330-ae3c-e76cbe8fe6ef,zh
3vtidr1QRvCtCyKL3gcSfQ,gameberry,1298_p1599,install,2.1,111.82.62.251,486e95b0-d45b-4154-9642-1999cbe5dc10,1557340011,2019-05-09 02:26:51,1557340675,2019-05-09 02:37:55,1557340706,5cd31f6a56d6be000171a311,http://admin.junggglex.com/postback?clickid=5cd31f6a56d6be000171a311&goal=1,idfa_486e95b0-d45b-4154-9642-1999cbe5dc10,zh
3vtidr1QRvCtCyKL3gcSfQ,gameberry,1298_p1599,install,2.1,49.216.193.246,48965b5e-7374-4d29-9e16-a702495d08c9,1557337505,2019-05-09 01:45:05,1557337676,2019-05-09 01:47:56,1557337709,5cd315a056d6be000104142a,http://admin.junggglex.com/postback?clickid=5cd315a056d6be000104142a&goal=1,idfa_48965b5e-7374-4d29-9e16-a702495d08c9,zh
3vtidr1QRvCtCyKL3gcSfQ,gameberry,1298_p1599,install,2.1,36.226.111.236,53eadbec-1bb6-448f-8b80-d2c69ab14ab6,1557334549,2019-05-09 00:55:49,1557334728,2019-05-09 00:58:48,1557334758,5cd30a1456d6be00018449b9,http://admin.junggglex.com/postback?clickid=5cd30a1456d6be00018449b9&goal=1,idfa_53eadbec-1bb6-448f-8b80-d2c69ab14ab6,zh
3vtidr1QRvCtCyKL3gcSfQ,gameberry,1298_p1599,install,2.1,49.219.65.70,4dcbc044-7fdf-4eb0-8ce2-0e9d7c2c5bfc,1557334521,2019-05-09 00:55:21,1557335421,2019-05-09 01:10:21,1557335459,5cd309de56d6be00018198cd,http://admin.junggglex.com/postback?clickid=5cd309de56d6be00018198cd&goal=1,idfa_4dcbc044-7fdf-4eb0-8ce2-0e9d7c2c5bfc,id
3vtidr1QRvCtCyKL3gcSfQ,gameberry,1298_p1599,install,2.1,180.217.149.145,bfa481a3-aaf7-4817-9b30-9cb80bd15b86,1557340081,2019-05-09 02:28:01,1557340258,2019-05-09 02:30:58,1557340290,5cd31faf56d6be0001744021,http://admin.junggglex.com/postback?clickid=5cd31faf56d6be0001744021&goal=1,idfa_bfa481a3-aaf7-4817-9b30-9cb80bd15b86,zh
3vtidr1QRvCtCyKL3gcSfQ,gameberry,1298_p1599,install,2.1,114.32.127.233,9975f412-9ac9-48cc-882d-cbd1b44f299c,1556427117,2019-04-28 12:51:57,1556942282,2019-05-04 11:58:02,1556942314,5cc5316b56d6be00017bd99c,http://admin.junggglex.com/postback?clickid=5cc5316b56d6be00017bd99c&goal=1,idfa_9975f412-9ac9-48cc-882d-cbd1b44f299c,zh
3vtidr1QRvCtCyKL3gcSfQ,gameberry,1298_p1599,install,2.1,49.219.132.129,9ef12d90-6b08-42e6-9323-535a921452f2,1557343264,2019-05-09 03:21:04,1557343441,2019-05-09 03:24:01,1557343472,5cd32c1f56d6be0001df3136,http://admin.junggglex.com/postback?clickid=5cd32c1f56d6be0001df3136&goal=1,idfa_9ef12d90-6b08-42e6-9323-535a921452f2,id
3vtidr1QRvCtCyKL3gcSfQ,gameberry,1298_p1599,install,2.1,110.26.130.65,2a578385-77b8-4635-a2c9-2ccd4c42e3b3,1557342441,2019-05-09 03:07:21,1557342621,2019-05-09 03:10:21,1557342652,5cd328e856d6be0001c541cb,http://admin.junggglex.com/postback?clickid=5cd328e856d6be0001c541cb&goal=1,idfa_2a578385-77b8-4635-a2c9-2ccd4c42e3b3,id
3vtidr1QRvCtCyKL3gcSfQ,gameberry,1298_p1599,install,2.1,49.216.196.160,43ec2e39-c8fe-47b5-b54e-5c82236a0fa2,1557340010,2019-05-09 02:26:50,1557340185,2019-05-09 02:29:45,1557340217,5cd31f6856d6be0001718e7d,http://admin.junggglex.com/postback?clickid=5cd31f6856d6be0001718e7d&goal=1,idfa_43ec2e39-c8fe-47b5-b54e-5c82236a0fa2,zh
3vtidr1QRvCtCyKL3gcSfQ,gameberry,1298_p1599,install,2.1,110.28.139.94,22ff4924-1483-40f0-918f-5a96842d7bc2,1557340608,2019-05-09 02:36:48,1557340786,2019-05-09 02:39:46,1557340817,5cd321bf56d6be000188ff1b,http://admin.junggglex.com/postback?clickid=5cd321bf56d6be000188ff1b&goal=1,idfa_22ff4924-1483-40f0-918f-5a96842d7bc2,zh
3vtidr1QRvCtCyKL3gcSfQ,gameberry,1298_p1599,install,2.1,1.200.194.125,e3d7ecff-14f1-4d6a-858e-f352ed33fe74,1557337152,2019-05-09 01:39:12,1557337832,2019-05-09 01:50:32,1557337863,5cd3143e56d6be0001f4a7d5,http://admin.junggglex.com/postback?clickid=5cd3143e56d6be0001f4a7d5&goal=1,idfa_e3d7ecff-14f1-4d6a-858e-f352ed33fe74,id
3vtidr1QRvCtCyKL3gcSfQ,gameberry,1298_p1599,install,2.1,180.217.208.28,d7185549-941e-43c2-9508-be3d2cf437c0,1557342341,2019-05-09 03:05:41,1557342532,2019-05-09 03:08:52,1557342563,5cd3288456d6be0001c244e4,http://admin.junggglex.com/postback?clickid=5cd3288456d6be0001c244e4&goal=1,idfa_d7185549-941e-43c2-9508-be3d2cf437c0,zh
3vtidr1QRvCtCyKL3gcSfQ,gameberry,1298_p1599,install,2.1,49.216.14.162,2179854a-08da-46c2-a51f-ebb5dadcca2b,1557338488,2019-05-09 02:01:28,1557338658,2019-05-09 02:04:18,1557338779,5cd3197756d6be00012f067d,http://admin.junggglex.com/postback?clickid=5cd3197756d6be00012f067d&goal=1,idfa_2179854a-08da-46c2-a51f-ebb5dadcca2b,id
3vtidr1QRvCtCyKL3gcSfQ,gameberry,1298_p1599,install,2.1,110.26.235.64,77182035-e97c-47c0-a21a-3c5cc0567b67,1557339960,2019-05-09 02:26:00,1557340136,2019-05-09 02:28:56,1557340167,5cd31f3756d6be00016f9f16,http://admin.junggglex.com/postback?clickid=5cd31f3756d6be00016f9f16&goal=1,idfa_77182035-e97c-47c0-a21a-3c5cc0567b67,zh
3vtidr1QRvCtCyKL3gcSfQ,gameberry,1298_p1599,install,2.1,114.26.64.3,e654b5d9-2e44-461f-8aba-475207c4f071,1557338190,2019-05-09 01:56:30,1557338368,2019-05-09 01:59:28,1557338398,5cd3184d56d6be0001223549,http://admin.junggglex.com/postback?clickid=5cd3184d56d6be0001223549&goal=1,idfa_e654b5d9-2e44-461f-8aba-475207c4f071,zh
3vtidr1QRvCtCyKL3gcSfQ,gameberry,1298_p1599,install,2.1,101.137.117.5,4ce8de1b-d585-4429-9af6-513846e7a573,1557338398,2019-05-09 01:59:58,1557338570,2019-05-09 02:02:50,1557338601,5cd3191d56d6be00012b2591,http://admin.junggglex.com/postback?clickid=5cd3191d56d6be00012b2591&goal=1,idfa_4ce8de1b-d585-4429-9af6-513846e7a573,zh
3vtidr1QRvCtCyKL3gcSfQ,gameberry,1298_p1599,install,2.1,114.36.121.251,2cb6539f-fbda-4f38-b2e8-cdf196a8b89f,1557341071,2019-05-09 02:44:31,1557341247,2019-05-09 02:47:27,1557341278,5cd3238e56d6be0001996790,http://admin.junggglex.com/postback?clickid=5cd3238e56d6be0001996790&goal=1,idfa_2cb6539f-fbda-4f38-b2e8-cdf196a8b89f,zh
3vtidr1QRvCtCyKL3gcSfQ,gameberry,1298_p1599,install,2.1,125.231.73.171,a5f5c81a-c4b4-46f7-a7ab-c561846790ec,1557340071,2019-05-09 02:27:51,1557340244,2019-05-09 02:30:44,1557340274,5cd31fa656d6be000173eeb6,http://admin.junggglex.com/postback?clickid=5cd31fa656d6be000173eeb6&goal=1,idfa_a5f5c81a-c4b4-46f7-a7ab-c561846790ec,zh
3vtidr1QRvCtCyKL3gcSfQ,gameberry,1298_p1599,install,2.1,61.228.22.129,5188436f-0905-40a4-b316-b066cfcd94b7,1557334321,2019-05-09 00:52:01,1557337253,2019-05-09 01:40:53,1557337285,5cd3093056d6be000178af26,http://admin.junggglex.com/postback?clickid=5cd3093056d6be000178af26&goal=1,idfa_5188436f-0905-40a4-b316-b066cfcd94b7,zh
3vtidr1QRvCtCyKL3gcSfQ,gameberry,1298_p1599,install,2.1,110.28.70.9,dcd2d035-9214-48a5-89f8-af309b540732,1557338218,2019-05-09 01:56:58,1557338431,2019-05-09 02:00:31,1557338462,5cd3186956d6be00012378e4,http://admin.junggglex.com/postback?clickid=5cd3186956d6be00012378e4&goal=1,idfa_dcd2d035-9214-48a5-89f8-af309b540732,zh
3vtidr1QRvCtCyKL3gcSfQ,gameberry,1298_p1599,install,2.1,110.50.165.40,52257349-ea24-4411-bfde-e498bdb383f5,1557342442,2019-05-09 03:07:22,1557342619,2019-05-09 03:10:19,1557342653,5cd328e856d6be0001c542aa,http://admin.junggglex.com/postback?clickid=5cd328e856d6be0001c542aa&goal=1,idfa_52257349-ea24-4411-bfde-e498bdb383f5,id
3vtidr1QRvCtCyKL3gcSfQ,gameberry,1298_p1599,install,2.1,42.76.69.137,cf593e06-3429-415c-bc9e-b2912dd68db5,1557337793,2019-05-09 01:49:53,1557337972,2019-05-09 01:52:52,1557338003,5cd316c056d6be000110a8df,http://admin.junggglex.com/postback?clickid=5cd316c056d6be000110a8df&goal=1,idfa_cf593e06-3429-415c-bc9e-b2912dd68db5,id
3vtidr1QRvCtCyKL3gcSfQ,gameberry,1298_p1599,install,2.1,125.227.199.199,82eeac44-c02b-4eda-9a11-eda910c2d20b,1557334588,2019-05-09 00:56:28,1557334883,2019-05-09 01:01:23,1557334914,5cd30a3556d6be000185c5a2,http://admin.junggglex.com/postback?clickid=5cd30a3556d6be000185c5a2&goal=1,idfa_82eeac44-c02b-4eda-9a11-eda910c2d20b,zh
3vtidr1QRvCtCyKL3gcSfQ,gameberry,1298_p1599,install,2.1,1.200.61.241,1e360908-db9e-4b18-8332-9c8a16c4222c,1557337499,2019-05-09 01:44:59,1557337671,2019-05-09 01:47:51,1557337703,5cd3159a56d6be000103cec7,http://admin.junggglex.com/postback?clickid=5cd3159a56d6be000103cec7&goal=1,idfa_1e360908-db9e-4b18-8332-9c8a16c4222c,zh
3vtidr1QRvCtCyKL3gcSfQ,gameberry,1298_p1599,install,2.1,123.0.41.72,dcfe627b-1528-43fc-b668-a18f7aef3392,1557343681,2019-05-09 03:28:01,1557343859,2019-05-09 03:30:59,1557343890,5cd32dc056d6be0001ec3398,http://admin.junggglex.com/postback?clickid=5cd32dc056d6be0001ec3398&goal=1,idfa_dcfe627b-1528-43fc-b668-a18f7aef3392,zh
3vtidr1QRvCtCyKL3gcSfQ,gameberry,1298_p1599,install,2.1,101.136.181.125,f1c1af5d-0191-4470-b1d2-22198058410a,1557337867,2019-05-09 01:51:07,1557338047,2019-05-09 01:54:07,1557338078,5cd3170a56d6be000113e766,http://admin.junggglex.com/postback?clickid=5cd3170a56d6be000113e766&goal=1,idfa_f1c1af5d-0191-4470-b1d2-22198058410a,zh
3vtidr1QRvCtCyKL3gcSfQ,gameberry,1298_p1599,install,2.1,61.57.73.4,fe7e4067-3b25-4720-9f11-45aede99ef05,1557335269,2019-05-09 01:07:49,1557335569,2019-05-09 01:12:49,1557335600,5cd30ce356d6be0001a4a0b7,http://admin.junggglex.com/postback?clickid=5cd30ce356d6be0001a4a0b7&goal=1,idfa_fe7e4067-3b25-4720-9f11-45aede99ef05,ja
3vtidr1QRvCtCyKL3gcSfQ,gameberry,1298_p1599,install,2.1,42.76.121.65,2d83d60b-c7fb-4bf2-bcb2-30848465fd78,1557340073,2019-05-09 02:27:53,1557340289,2019-05-09 02:31:29,1557340320,5cd31fa856d6be000173fb4e,http://admin.junggglex.com/postback?clickid=5cd31fa856d6be000173fb4e&goal=1,idfa_2d83d60b-c7fb-4bf2-bcb2-30848465fd78,zh
3vtidr1QRvCtCyKL3gcSfQ,gameberry,1298_p1599,install,2.1,123.193.139.31,12a51e37-027d-46da-bda6-4164d825370d,1557338104,2019-05-09 01:55:04,1557338446,2019-05-09 02:00:46,1557338477,5cd317f656d6be00011e59bf,http://admin.junggglex.com/postback?clickid=5cd317f656d6be00011e59bf&goal=1,idfa_12a51e37-027d-46da-bda6-4164d825370d,zh
3vtidr1QRvCtCyKL3gcSfQ,gameberry,1298_p1599,install,2.1,42.74.184.210,92b50efe-5f4c-4854-8142-9d9ea7f847d2,1557339838,2019-05-09 02:23:58,1557342899,2019-05-09 03:14:59,1557342931,5cd31eb656d6be00016a93af,http://admin.junggglex.com/postback?clickid=5cd31eb656d6be00016a93af&goal=1,idfa_92b50efe-5f4c-4854-8142-9d9ea7f847d2,zh
