cid,partner_id,channel_id,action_id,cpi,ip,idfa,click time,click datetime,install time,install datetime,postback time,click id,postback url,unique user id
vBmfLu_ATjG2OBPHqmLavA,gameberry,1834_89_62_10593,Install,2.0,111.251.30.24,29623A7B-41D3-4E58-B0ED-8A272011FC8F,1558527805,2019-05-22 20:23:25,1558527839,2019-05-22 20:23:59,1558527871,5ce53f3a56d6be000118f7f2,http://admin.junggglex.com/postback?clickid=5ce53f3a56d6be000118f7f2&goal=1,idfa_29623A7B-41D3-4E58-B0ED-8A272011FC8F,zh-Hant-TW
vBmfLu_ATjG2OBPHqmLavA,gameberry,1834_89_62_10593,Install,2.0,218.187.128.221,49C93FC2-BC3F-4882-955D-4E82010B1001,1558527766,2019-05-22 20:22:46,1558527795,2019-05-22 20:23:15,1558527826,5ce53f1256d6be0001163d69,http://admin.junggglex.com/postback?clickid=5ce53f1256d6be0001163d69&goal=1,idfa_49C93FC2-BC3F-4882-955D-4E82010B1001,zh-Hant-TW
vBmfLu_ATjG2OBPHqmLavA,gameberry,1834_89_62_10593,Install,2.0,114.37.201.123,F8EC2108-3179-4526-946E-88F9C87DFF3A,1558540487,2019-05-22 23:54:47,1558540516,2019-05-22 23:55:16,1558540546,5ce570c456d6be0001c2ff82,http://admin.junggglex.com/postback?clickid=5ce570c456d6be0001c2ff82&goal=1,idfa_F8EC2108-3179-4526-946E-88F9C87DFF3A,en-TW
vBmfLu_ATjG2OBPHqmLavA,gameberry,1834_89_62_10593,Install,2.0,114.36.232.195,34ED8B59-950A-498A-83FA-79F479B5873A,1558540495,2019-05-22 23:54:55,1558540520,2019-05-22 23:55:20,1558540551,5ce570ca56d6be0001c33eef,http://admin.junggglex.com/postback?clickid=5ce570ca56d6be0001c33eef&goal=1,idfa_34ED8B59-950A-498A-83FA-79F479B5873A,en-TW
vBmfLu_ATjG2OBPHqmLavA,gameberry,1834_89_62_10593,Install,2.0,111.251.230.10,A6EF49B7-3D36-48DA-B519-4BCBCC4A1F04,1558540773,2019-05-22 23:59:33,1558540797,2019-05-22 23:59:57,1558540828,5ce571e056d6be0001cdef7d,http://admin.junggglex.com/postback?clickid=5ce571e056d6be0001cdef7d&goal=1,idfa_A6EF49B7-3D36-48DA-B519-4BCBCC4A1F04,en-TW
vBmfLu_ATjG2OBPHqmLavA,gameberry,1834_89_62_10593,Install,2.0,111.250.208.242,9A3FDF6D-E707-4A26-B5C6-75EFE2C4A5BE,1557581179,2019-05-11 21:26:19,1558013804,2019-05-16 21:36:44,1558013834,5cd6cd7956d6be0001a7e71f,http://admin.junggglex.com/postback?clickid=5cd6cd7956d6be0001a7e71f&goal=1,idfa_9A3FDF6D-E707-4A26-B5C6-75EFE2C4A5BE,zh-Hant-US
vBmfLu_ATjG2OBPHqmLavA,gameberry,1834_89_62_10593,Install,2.0,111.250.13.165,F0ECD722-1ACA-4443-974B-447EF4282F5C,1558527796,2019-05-22 20:23:16,1558527837,2019-05-22 20:23:57,1558527868,5ce53f2d56d6be0001181950,http://admin.junggglex.com/postback?clickid=5ce53f2d56d6be0001181950&goal=1,idfa_F0ECD722-1ACA-4443-974B-447EF4282F5C,zh-Hant-TW
vBmfLu_ATjG2OBPHqmLavA,gameberry,1834_89_62_10593,Install,2.0,114.36.233.114,0BCD07CB-697E-4CB0-B6DF-B779BF34CD5A,1558527797,2019-05-22 20:23:17,1558527835,2019-05-22 20:23:55,1558527866,5ce53f3256d6be00011862e3,http://admin.junggglex.com/postback?clickid=5ce53f3256d6be00011862e3&goal=1,idfa_0BCD07CB-697E-4CB0-B6DF-B779BF34CD5A,zh-Hant-TW
vBmfLu_ATjG2OBPHqmLavA,gameberry,1834_89_62_10593,Install,2.0,1.162.110.109,D8E85FEB-6589-41E7-873A-C18E27F3962F,1558539281,2019-05-22 23:34:41,1558539314,2019-05-22 23:35:14,1558539345,5ce56c0d56d6be00018fb186,http://admin.junggglex.com/postback?clickid=5ce56c0d56d6be00018fb186&goal=1,idfa_D8E85FEB-6589-41E7-873A-C18E27F3962F,en-TW
vBmfLu_ATjG2OBPHqmLavA,gameberry,1834_89_62_10593,Install,2.0,218.173.20.209,0AE2D939-D3C4-41ED-88E9-73C24E8C28AD,1558528167,2019-05-22 20:29:27,1558528206,2019-05-22 20:30:06,1558528236,5ce540a456d6be0001307649,http://admin.junggglex.com/postback?clickid=5ce540a456d6be0001307649&goal=1,idfa_0AE2D939-D3C4-41ED-88E9-73C24E8C28AD,zh-Hant-TW
vBmfLu_ATjG2OBPHqmLavA,gameberry,1834_89_62_10593,Install,2.0,111.249.31.109,6B0A7C21-006E-4B01-A71B-03F999C63E42,1558527547,2019-05-22 20:19:07,1558527579,2019-05-22 20:19:39,1558527644,5ce53e3656d6be000107e8d4,http://admin.junggglex.com/postback?clickid=5ce53e3656d6be000107e8d4&goal=1,idfa_6B0A7C21-006E-4B01-A71B-03F999C63E42,zh-Hant-TW
vBmfLu_ATjG2OBPHqmLavA,gameberry,1834_89_62_10593,Install,2.0,61.227.132.9,8658B4B2-8DF2-41D7-87C3-50E203BCAB74,1558527377,2019-05-22 20:16:17,1558527407,2019-05-22 20:16:47,1558527438,5ce53d8d56d6be0001fbc55c,http://admin.junggglex.com/postback?clickid=5ce53d8d56d6be0001fbc55c&goal=1,idfa_8658B4B2-8DF2-41D7-87C3-50E203BCAB74,zh-Hant-TW
vBmfLu_ATjG2OBPHqmLavA,gameberry,1834_89_62_10593,Install,2.0,61.224.104.80,DF5931BD-588A-4621-A4E5-4AEFC859F8BA,1558527553,2019-05-22 20:19:13,1558527597,2019-05-22 20:19:57,1558527634,5ce53e3d56d6be0001085f8f,http://admin.junggglex.com/postback?clickid=5ce53e3d56d6be0001085f8f&goal=1,idfa_DF5931BD-588A-4621-A4E5-4AEFC859F8BA,zh-Hant-TW
vBmfLu_ATjG2OBPHqmLavA,gameberry,1834_89_62_10593,Install,2.0,111.242.154.35,8B46E4A3-8E64-4134-91A6-BC49CC75350E,1558527653,2019-05-22 20:20:53,1558527683,2019-05-22 20:21:23,1558527716,5ce53ea256d6be00010ee1be,http://admin.junggglex.com/postback?clickid=5ce53ea256d6be00010ee1be&goal=1,idfa_8B46E4A3-8E64-4134-91A6-BC49CC75350E,zh-Hant-TW
vBmfLu_ATjG2OBPHqmLavA,gameberry,1834_89_62_10593,Install,2.0,114.43.99.175,FA3A46EB-D298-457B-827D-98F8CC111AB2,1558527495,2019-05-22 20:18:15,1558527530,2019-05-22 20:18:50,1558527561,5ce53e0456d6be00010452e7,http://admin.junggglex.com/postback?clickid=5ce53e0456d6be00010452e7&goal=1,idfa_FA3A46EB-D298-457B-827D-98F8CC111AB2,zh-Hant-TW
vBmfLu_ATjG2OBPHqmLavA,gameberry,1834_89_62_10593,Install,2.0,118.167.41.189,D9E8A20E-9787-4B4B-87E9-69E6FE8BE42E,1558540158,2019-05-22 23:49:18,1558540184,2019-05-22 23:49:44,1558540215,5ce56f7b56d6be0001b692a7,http://admin.junggglex.com/postback?clickid=5ce56f7b56d6be0001b692a7&goal=1,idfa_D9E8A20E-9787-4B4B-87E9-69E6FE8BE42E,en-TW
vBmfLu_ATjG2OBPHqmLavA,gameberry,1834_89_62_10593,Install,2.0,1.161.67.27,EE3D119A-EA3D-4AD4-ABEC-600D28B335FE,1558527221,2019-05-22 20:13:41,1558527260,2019-05-22 20:14:20,1558527291,5ce53cf056d6be0001f08d98,http://admin.junggglex.com/postback?clickid=5ce53cf056d6be0001f08d98&goal=1,idfa_EE3D119A-EA3D-4AD4-ABEC-600D28B335FE,zh-Hant-TW
vBmfLu_ATjG2OBPHqmLavA,gameberry,1834_89_62_10593,Install,2.0,59.105.112.33,A336682A-2162-4573-9ECE-6395BF711FDF,1558527947,2019-05-22 20:25:47,1558527985,2019-05-22 20:26:25,1558528017,5ce53fc456d6be0001224412,http://admin.junggglex.com/postback?clickid=5ce53fc456d6be0001224412&goal=1,idfa_A336682A-2162-4573-9ECE-6395BF711FDF,zh-Hant-TW
vBmfLu_ATjG2OBPHqmLavA,gameberry,1834_89_62_10593,Install,2.0,122.118.35.101,E19C143C-85E8-41E7-B3D9-079EFD7C1EEA,1558540858,2019-05-23 00:00:58,1558540880,2019-05-23 00:01:20,1558540911,5ce5723656d6be0001d181dc,http://admin.junggglex.com/postback?clickid=5ce5723656d6be0001d181dc&goal=1,idfa_E19C143C-85E8-41E7-B3D9-079EFD7C1EEA,en-TW
vBmfLu_ATjG2OBPHqmLavA,gameberry,1834_89_62_10593,Install,2.0,61.230.21.16,792BCBE7-187B-469F-8075-4B02036C23BB,1558527962,2019-05-22 20:26:02,1558528017,2019-05-22 20:26:57,1558528047,5ce53fd356d6be0001233bb4,http://admin.junggglex.com/postback?clickid=5ce53fd356d6be0001233bb4&goal=1,idfa_792BCBE7-187B-469F-8075-4B02036C23BB,zh-Hant-TW
vBmfLu_ATjG2OBPHqmLavA,gameberry,1834_89_62_10593,Install,2.0,111.249.31.109,96F2C6D3-0660-442F-87DB-1FDFC26032C4,1558540256,2019-05-22 23:50:56,1558540279,2019-05-22 23:51:19,1558540309,5ce56fdc56d6be0001ba5092,http://admin.junggglex.com/postback?clickid=5ce56fdc56d6be0001ba5092&goal=1,idfa_96F2C6D3-0660-442F-87DB-1FDFC26032C4,en-TW
vBmfLu_ATjG2OBPHqmLavA,gameberry,1834_89_62_10593,Install,2.0,111.254.116.224,EFA9AC0D-DBE7-4A3A-8D94-67D911505C22,1558527590,2019-05-22 20:19:50,1558527628,2019-05-22 20:20:28,1558527663,5ce53e6256d6be00010accb7,http://admin.junggglex.com/postback?clickid=5ce53e6256d6be00010accb7&goal=1,idfa_EFA9AC0D-DBE7-4A3A-8D94-67D911505C22,zh-Hant-TW
vBmfLu_ATjG2OBPHqmLavA,gameberry,1834_89_62_10593,Install,2.0,36.224.11.68,14B3A45A-29F6-4777-97A9-2EDA69195482,1558541331,2019-05-23 00:08:51,1558541357,2019-05-23 00:09:17,1558541388,5ce5740f56d6be0001e78eb0,http://admin.junggglex.com/postback?clickid=5ce5740f56d6be0001e78eb0&goal=1,idfa_14B3A45A-29F6-4777-97A9-2EDA69195482,en-TW
vBmfLu_ATjG2OBPHqmLavA,gameberry,1834_89_62_10593,Install,2.0,118.167.134.189,F8D4291B-81D4-4922-BDD3-1DD16A31F94D,1558527169,2019-05-22 20:12:49,1558527209,2019-05-22 20:13:29,1558527250,5ce53cbd56d6be0001ec86ce,http://admin.junggglex.com/postback?clickid=5ce53cbd56d6be0001ec86ce&goal=1,idfa_F8D4291B-81D4-4922-BDD3-1DD16A31F94D,zh-Hant-TW
vBmfLu_ATjG2OBPHqmLavA,gameberry,1834_89_62_10593,Install,2.0,36.229.7.227,FF6D10E5-4C2B-4366-8E78-3E0AB217ACE1,1558539083,2019-05-22 23:31:23,1558539110,2019-05-22 23:31:50,1558539141,5ce56b4756d6be0001864086,http://admin.junggglex.com/postback?clickid=5ce56b4756d6be0001864086&goal=1,idfa_FF6D10E5-4C2B-4366-8E78-3E0AB217ACE1,en-TW
vBmfLu_ATjG2OBPHqmLavA,gameberry,1834_89_62_10593,Install,2.0,27.52.40.229,63EFB594-D7AA-45B0-AC71-5BADF9C2FE26,1557579944,2019-05-11 21:05:44,1557718536,2019-05-13 11:35:36,1557718566,5cd6c8a656d6be00015df9a9,http://admin.junggglex.com/postback?clickid=5cd6c8a656d6be00015df9a9&goal=1,idfa_63EFB594-D7AA-45B0-AC71-5BADF9C2FE26,zh-Hant-TW
vBmfLu_ATjG2OBPHqmLavA,gameberry,1834_89_62_10593,Install,2.0,36.236.40.193,6222ED90-DBF2-4219-869A-1DCD0F7ADCCF,1558527585,2019-05-22 20:19:45,1558527629,2019-05-22 20:20:29,1558527701,5ce53e5e56d6be00010a8d8e,http://admin.junggglex.com/postback?clickid=5ce53e5e56d6be00010a8d8e&goal=1,idfa_6222ED90-DBF2-4219-869A-1DCD0F7ADCCF,zh-Hant-TW
vBmfLu_ATjG2OBPHqmLavA,gameberry,1834_89_62_10593,Install,2.0,36.233.7.213,F5580A4A-682B-40D8-922C-CF13A4C911E1,1558527658,2019-05-22 20:20:58,1558527694,2019-05-22 20:21:34,1558527726,5ce53ea556d6be00010f2005,http://admin.junggglex.com/postback?clickid=5ce53ea556d6be00010f2005&goal=1,idfa_F5580A4A-682B-40D8-922C-CF13A4C911E1,zh-Hant-TW
vBmfLu_ATjG2OBPHqmLavA,gameberry,1834_89_62_10593,Install,2.0,118.232.148.242,A6F445A1-1EBE-47FA-A19E-DAA40500FC5E,1558527801,2019-05-22 20:23:21,1558527836,2019-05-22 20:23:56,1558527867,5ce53f3756d6be000118bdb8,http://admin.junggglex.com/postback?clickid=5ce53f3756d6be000118bdb8&goal=1,idfa_A6F445A1-1EBE-47FA-A19E-DAA40500FC5E,zh-Hant-TW
vBmfLu_ATjG2OBPHqmLavA,gameberry,1834_89_62_10593,Install,2.0,220.142.107.120,FB011CCC-2E07-4195-A713-F1B1EBCCDB65,1558527896,2019-05-22 20:24:56,1558527927,2019-05-22 20:25:27,1558527958,5ce53f9456d6be00011f1214,http://admin.junggglex.com/postback?clickid=5ce53f9456d6be00011f1214&goal=1,idfa_FB011CCC-2E07-4195-A713-F1B1EBCCDB65,zh-Hant-TW
vBmfLu_ATjG2OBPHqmLavA,gameberry,1834_89_62_10593,Install,2.0,36.228.25.85,A8AD8A3F-2E4B-48F4-808B-3DBF420BC355,1558540746,2019-05-22 23:59:06,1558540769,2019-05-22 23:59:29,1558540799,5ce571c556d6be0001ccf280,http://admin.junggglex.com/postback?clickid=5ce571c556d6be0001ccf280&goal=1,idfa_A8AD8A3F-2E4B-48F4-808B-3DBF420BC355,en-TW
