cid,partner_id,channel_id,action_id,cpi,ip,idfa,click time,click datetime,install time,install datetime,postback time,click id,postback url,unique user id
yAniMqyWQZ2FYp6rNM8Yrg,hopemobi,155_570212_530741_0369,install,1.7,223.33.164.168,7edb93e2-2757-4b9e-a300-5b7636b3e631,1557828615,2019-05-14 18:10:15,1557828653,2019-05-14 18:10:53,1557828685,153ea49501cc4af7a8899b259f5d3df5-1557828613,http://postback.hopemobi.net/pb/lsr?transaction_id=153ea49501cc4af7a8899b259f5d3df5-1557828613&payout=1.7&sid=179-appier,idfa_7edb93e2-2757-4b9e-a300-5b7636b3e631,ko
yAniMqyWQZ2FYp6rNM8Yrg,hopemobi,155_570212_530741_0369,install,1.7,221.141.96.202,5d5be346-c4cd-418c-bd18-85e4396c5bc4,1557762424,2019-05-13 23:47:04,1557762461,2019-05-13 23:47:41,1557762492,1463f7fa7cfa4f9b809baad7854d0073-1557762422,http://postback.hopemobi.net/pb/lsr?transaction_id=1463f7fa7cfa4f9b809baad7854d0073-1557762422&payout=1.7&sid=179-appier,idfa_5d5be346-c4cd-418c-bd18-85e4396c5bc4,ko
yAniMqyWQZ2FYp6rNM8Yrg,hopemobi,155_570212_530741_0369,install,1.7,210.101.247.125,0c0c2268-2bd1-40d1-9839-ac94b8b3987e,1557886163,2019-05-15 10:09:23,1557886199,2019-05-15 10:09:59,1557886230,d2653e7629184497bae98f1ed8dec904-1557886161,http://postback.hopemobi.net/pb/lsr?transaction_id=d2653e7629184497bae98f1ed8dec904-1557886161&payout=1.7&sid=179-appier,idfa_0c0c2268-2bd1-40d1-9839-ac94b8b3987e,ko
yAniMqyWQZ2FYp6rNM8Yrg,hopemobi,155_570212_530741_0369,install,1.7,124.58.22.129,45afd99d-2e41-43c2-b375-78bf56932bb0,1557824435,2019-05-14 17:00:35,1557824475,2019-05-14 17:01:15,1557824506,9e97d95b4ce74e41934942fe3d77849f-1557824433,http://postback.hopemobi.net/pb/lsr?transaction_id=9e97d95b4ce74e41934942fe3d77849f-1557824433&payout=1.7&sid=179-appier,idfa_45afd99d-2e41-43c2-b375-78bf56932bb0,ko
yAniMqyWQZ2FYp6rNM8Yrg,hopemobi,155_570212_530741_0369,install,1.7,124.61.134.246,725e68b0-3ee3-479b-b597-98c02f3948c9,1557801291,2019-05-14 10:34:51,1557863241,2019-05-15 03:47:21,1557863271,56b1e925fbfd4e99ac2a4eca9b1585d5-1557801237,http://postback.hopemobi.net/pb/lsr?transaction_id=56b1e925fbfd4e99ac2a4eca9b1585d5-1557801237&payout=1.7&sid=179-appier,idfa_725e68b0-3ee3-479b-b597-98c02f3948c9,ko
yAniMqyWQZ2FYp6rNM8Yrg,hopemobi,155_570212_530741_0369,install,1.7,39.7.28.31,27807fdd-2fa7-454d-b79c-e6335d231e41,1557830176,2019-05-14 18:36:16,1557830216,2019-05-14 18:36:56,1557830248,a792f89152064f109200bb85244fcb0b-1557830174,http://postback.hopemobi.net/pb/lsr?transaction_id=a792f89152064f109200bb85244fcb0b-1557830174&payout=1.7&sid=179-appier,idfa_27807fdd-2fa7-454d-b79c-e6335d231e41,ko
yAniMqyWQZ2FYp6rNM8Yrg,hopemobi,155_570212_530741_0369,install,1.7,183.99.143.132,8e29e4c2-ffd1-4b63-9711-6a5581063bd9,1557554159,2019-05-11 13:55:59,1557554200,2019-05-11 13:56:40,1557554231,a4301588b2a24a7780ce645355460722-1557554157,http://postback.hopemobi.net/pb/lsr?transaction_id=a4301588b2a24a7780ce645355460722-1557554157&payout=1.7&sid=179-appier,idfa_8e29e4c2-ffd1-4b63-9711-6a5581063bd9,ko
yAniMqyWQZ2FYp6rNM8Yrg,hopemobi,155_570212_530741_0369,install,1.7,175.112.179.8,5ba88112-60ec-4180-a5af-2a924a615388,1557560085,2019-05-11 15:34:45,1557574252,2019-05-11 19:30:52,1557574288,3f9abf2636ad486aa8bbfde97439ed26-1557560014,http://postback.hopemobi.net/pb/lsr?transaction_id=3f9abf2636ad486aa8bbfde97439ed26-1557560014&payout=1.7&sid=179-appier,idfa_5ba88112-60ec-4180-a5af-2a924a615388,ko
yAniMqyWQZ2FYp6rNM8Yrg,hopemobi,155_570212_530741_0369,install,1.7,222.118.8.21,5bb6d930-e185-441d-b840-63795fce58b4,1557829580,2019-05-14 18:26:20,1557829619,2019-05-14 18:26:59,1557829650,8d78b988aaba45eab181fd209c269270-1557829578,http://postback.hopemobi.net/pb/lsr?transaction_id=8d78b988aaba45eab181fd209c269270-1557829578&payout=1.7&sid=179-appier,idfa_5bb6d930-e185-441d-b840-63795fce58b4,ko
yAniMqyWQZ2FYp6rNM8Yrg,hopemobi,155_570212_530741_0369,install,1.7,211.36.140.186,bbc9ddf0-c05b-4f5f-bd65-fa150e9ebc5b,1557829182,2019-05-14 18:19:42,1557829224,2019-05-14 18:20:24,1557829255,1a7393d9a6144d46b6b018f3355e1243-1557829180,http://postback.hopemobi.net/pb/lsr?transaction_id=1a7393d9a6144d46b6b018f3355e1243-1557829180&payout=1.7&sid=179-appier,idfa_bbc9ddf0-c05b-4f5f-bd65-fa150e9ebc5b,ko
yAniMqyWQZ2FYp6rNM8Yrg,hopemobi,155_570212_530741_0369,install,1.7,58.230.148.43,b1c36124-334f-4299-b730-959f6367f97a,1557577090,2019-05-11 20:18:10,1557741294,2019-05-13 17:54:54,1557741326,8305ecd96586411c9fd2edab38f4ab09-1557577015,http://postback.hopemobi.net/pb/lsr?transaction_id=8305ecd96586411c9fd2edab38f4ab09-1557577015&payout=1.7&sid=179-appier,idfa_b1c36124-334f-4299-b730-959f6367f97a,ko
yAniMqyWQZ2FYp6rNM8Yrg,hopemobi,155_570212_530741_0369,install,1.7,1.247.225.30,f0fabf1c-a5bd-4fb8-920a-99f3ac2a8585,1557817943,2019-05-14 15:12:23,1557817980,2019-05-14 15:13:00,1557818011,1fce4b4a55a14c54902956b59c3585ea-1557817942,http://postback.hopemobi.net/pb/lsr?transaction_id=1fce4b4a55a14c54902956b59c3585ea-1557817942&payout=1.7&sid=179-appier,idfa_f0fabf1c-a5bd-4fb8-920a-99f3ac2a8585,ko
yAniMqyWQZ2FYp6rNM8Yrg,hopemobi,155_570212_530741_0369,install,1.7,1.240.153.129,c2f14929-5bd2-4ea8-a462-6fc269042584,1557653571,2019-05-12 17:32:51,1557653605,2019-05-12 17:33:25,1557653653,335d581fd7694081aa9f23d74f20b49f-1557653566,http://postback.hopemobi.net/pb/lsr?transaction_id=335d581fd7694081aa9f23d74f20b49f-1557653566&payout=1.7&sid=179-appier,idfa_c2f14929-5bd2-4ea8-a462-6fc269042584,ko
yAniMqyWQZ2FYp6rNM8Yrg,hopemobi,155_570212_530741_0369,install,1.7,119.205.139.102,6148182c-9482-4711-8dcf-3a17bbf14c77,1557651673,2019-05-12 17:01:13,1557651714,2019-05-12 17:01:54,1557651745,a23c684567ef4d88ba506183c199a95f-1557651670,http://postback.hopemobi.net/pb/lsr?transaction_id=a23c684567ef4d88ba506183c199a95f-1557651670&payout=1.7&sid=179-appier,idfa_6148182c-9482-4711-8dcf-3a17bbf14c77,ko
yAniMqyWQZ2FYp6rNM8Yrg,hopemobi,155_570212_530741_0369,install,1.7,112.109.59.86,1cd831e0-2a1b-4d5e-be1e-d57eba413d62,1557649591,2019-05-12 16:26:31,1557649661,2019-05-12 16:27:41,1557649693,0e29b78ed2ff4233a491690cc5e33274-1557649589,http://postback.hopemobi.net/pb/lsr?transaction_id=0e29b78ed2ff4233a491690cc5e33274-1557649589&payout=1.7&sid=179-appier,idfa_1cd831e0-2a1b-4d5e-be1e-d57eba413d62,ko
yAniMqyWQZ2FYp6rNM8Yrg,hopemobi,155_570212_530741_0369,install,1.7,175.223.18.72,2628accb-f37b-4261-baa2-e2323a8332f4,1557649949,2019-05-12 16:32:29,1557676245,2019-05-12 23:50:45,1557676277,121da0ff1085409bbaa8868acf64b1bd-1557649876,http://postback.hopemobi.net/pb/lsr?transaction_id=121da0ff1085409bbaa8868acf64b1bd-1557649876&payout=1.7&sid=179-appier,idfa_2628accb-f37b-4261-baa2-e2323a8332f4,ko
yAniMqyWQZ2FYp6rNM8Yrg,hopemobi,155_570212_530741_0369,install,1.7,39.7.46.189,919c13c1-ef14-4f50-b331-4e02435514ec,1557519345,2019-05-11 04:15:45,1557519398,2019-05-11 04:16:38,1557519429,bee743c3d234444bb3a326959b7916e4-1557519343,http://postback.hopemobi.net/pb/lsr?transaction_id=bee743c3d234444bb3a326959b7916e4-1557519343&payout=1.7&sid=179-appier,idfa_919c13c1-ef14-4f50-b331-4e02435514ec,ko
yAniMqyWQZ2FYp6rNM8Yrg,hopemobi,155_570212_530741_0369,install,1.7,121.168.110.76,3e627ad0-ab59-457a-8bf7-697fe450b1ff,1557519599,2019-05-11 04:19:59,1557519709,2019-05-11 04:21:49,1557519740,23f8267dfddb46cbb2df9fdf751a96ee-1557519598,http://postback.hopemobi.net/pb/lsr?transaction_id=23f8267dfddb46cbb2df9fdf751a96ee-1557519598&payout=1.7&sid=179-appier,idfa_3e627ad0-ab59-457a-8bf7-697fe450b1ff,ko
yAniMqyWQZ2FYp6rNM8Yrg,hopemobi,155_570212_530741_0369,install,1.7,218.159.225.160,0322c753-fa34-4b57-b253-c763d528c2c4,1557519032,2019-05-11 04:10:32,1557519070,2019-05-11 04:11:10,1557519100,8581ab891dfd4e4887b1aa4b685d88a5-1557519030,http://postback.hopemobi.net/pb/lsr?transaction_id=8581ab891dfd4e4887b1aa4b685d88a5-1557519030&payout=1.7&sid=179-appier,idfa_0322c753-fa34-4b57-b253-c763d528c2c4,ko
yAniMqyWQZ2FYp6rNM8Yrg,hopemobi,155_570212_530741_0369,install,1.7,122.34.77.162,e8eb39a6-4948-4bc6-bf28-e5df7951745f,1557566587,2019-05-11 17:23:07,1557579441,2019-05-11 20:57:21,1557579472,56066a75ae294b33b560599c5d654422-1557566516,http://postback.hopemobi.net/pb/lsr?transaction_id=56066a75ae294b33b560599c5d654422-1557566516&payout=1.7&sid=179-appier,idfa_e8eb39a6-4948-4bc6-bf28-e5df7951745f,ko
yAniMqyWQZ2FYp6rNM8Yrg,hopemobi,155_570212_530741_0369,install,1.7,175.223.20.248,07e91ff7-3c26-44fc-bfc5-1fc5458bb8ea,1557885756,2019-05-15 10:02:36,1557885795,2019-05-15 10:03:15,1557885827,6abc61a9d13248ba94ab04b73edacaf7-1557885754,http://postback.hopemobi.net/pb/lsr?transaction_id=6abc61a9d13248ba94ab04b73edacaf7-1557885754&payout=1.7&sid=179-appier,idfa_07e91ff7-3c26-44fc-bfc5-1fc5458bb8ea,ko
yAniMqyWQZ2FYp6rNM8Yrg,hopemobi,155_570212_530741_0369,install,1.7,175.214.156.208,a5df9e98-b571-4921-8645-0aa31208e0c0,1557651859,2019-05-12 17:04:19,1557779494,2019-05-14 04:31:34,1557779524,c5946e6ea48d408d897e48d5e11b46de-1557651793,http://postback.hopemobi.net/pb/lsr?transaction_id=c5946e6ea48d408d897e48d5e11b46de-1557651793&payout=1.7&sid=179-appier,idfa_a5df9e98-b571-4921-8645-0aa31208e0c0,ko
yAniMqyWQZ2FYp6rNM8Yrg,hopemobi,155_570212_530741_0369,install,1.7,223.38.17.58,e4fa60cb-b0c5-4037-bb86-4dbea3d3f9fb,1557577012,2019-05-11 20:16:52,1557639805,2019-05-12 13:43:25,1557639837,ebca673076be40cfb8b6b737089773e5-1557576973,http://postback.hopemobi.net/pb/lsr?transaction_id=ebca673076be40cfb8b6b737089773e5-1557576973&payout=1.7&sid=179-appier,idfa_e4fa60cb-b0c5-4037-bb86-4dbea3d3f9fb,ko
yAniMqyWQZ2FYp6rNM8Yrg,hopemobi,155_570212_530741_0369,install,1.7,49.165.184.218,836973c7-7445-4801-964d-2139136f4d95,1557654742,2019-05-12 17:52:22,1557654781,2019-05-12 17:53:01,1557654813,6c09b236316e499bafb56d4d616c0fd3-1557654735,http://postback.hopemobi.net/pb/lsr?transaction_id=6c09b236316e499bafb56d4d616c0fd3-1557654735&payout=1.7&sid=179-appier,idfa_836973c7-7445-4801-964d-2139136f4d95,ko
yAniMqyWQZ2FYp6rNM8Yrg,hopemobi,155_570212_530741_0369,install,1.7,210.205.235.27,962eb469-681f-4730-afea-86edd55c4583,1557545121,2019-05-11 11:25:21,1557631803,2019-05-12 11:30:03,1557631834,d64d2ee15b954679bfa569389dc84140-1557545112,http://postback.hopemobi.net/pb/lsr?transaction_id=d64d2ee15b954679bfa569389dc84140-1557545112&payout=1.7&sid=179-appier,idfa_962eb469-681f-4730-afea-86edd55c4583,ko
yAniMqyWQZ2FYp6rNM8Yrg,hopemobi,155_570212_530741_0369,install,1.7,122.42.4.243,99a8a6ad-1343-4826-9262-fbc0ce170f87,1557518666,2019-05-11 04:04:26,1557518706,2019-05-11 04:05:06,1557518737,7b23da8120b94ab7b87d3089ba149e98-1557518664,http://postback.hopemobi.net/pb/lsr?transaction_id=7b23da8120b94ab7b87d3089ba149e98-1557518664&payout=1.7&sid=179-appier,idfa_99a8a6ad-1343-4826-9262-fbc0ce170f87,ko
yAniMqyWQZ2FYp6rNM8Yrg,hopemobi,155_570212_530741_0369,install,1.7,211.55.111.134,d6e84c0f-2e98-45dc-917d-ca90c66ce184,1557650288,2019-05-12 16:38:08,1557661578,2019-05-12 19:46:18,1557661609,99ce87430f6445eeb267b4ce3645afdb-1557650246,http://postback.hopemobi.net/pb/lsr?transaction_id=99ce87430f6445eeb267b4ce3645afdb-1557650246&payout=1.7&sid=179-appier,idfa_d6e84c0f-2e98-45dc-917d-ca90c66ce184,ko
yAniMqyWQZ2FYp6rNM8Yrg,hopemobi,155_570212_530741_0369,install,1.7,222.99.231.232,05ceda1a-06c6-4240-84b3-27f94f1dc771,1557560096,2019-05-11 15:34:56,1557570223,2019-05-11 18:23:43,1557570254,a56e402a20c14f01abd5185d43356fe4-1557560093,http://postback.hopemobi.net/pb/lsr?transaction_id=a56e402a20c14f01abd5185d43356fe4-1557560093&payout=1.7&sid=179-appier,idfa_05ceda1a-06c6-4240-84b3-27f94f1dc771,ko
yAniMqyWQZ2FYp6rNM8Yrg,hopemobi,155_570212_530741_0369,install,1.7,61.81.94.129,27e187ca-059b-4771-813a-e19a3b6cb400,1557560316,2019-05-11 15:38:36,1557563485,2019-05-11 16:31:25,1557563528,2adf342c5df14cb79e89e9dd5699e8d6-1557560230,http://postback.hopemobi.net/pb/lsr?transaction_id=2adf342c5df14cb79e89e9dd5699e8d6-1557560230&payout=1.7&sid=179-appier,idfa_27e187ca-059b-4771-813a-e19a3b6cb400,ko
yAniMqyWQZ2FYp6rNM8Yrg,hopemobi,155_570212_530741_0369,install,1.7,125.184.30.16,3ae49520-d47b-4493-bdc1-f691f4faadad,1557818629,2019-05-14 15:23:49,1557818665,2019-05-14 15:24:25,1557818696,43f403d195364e02a7ac0c977c7ecd13-1557818627,http://postback.hopemobi.net/pb/lsr?transaction_id=43f403d195364e02a7ac0c977c7ecd13-1557818627&payout=1.7&sid=179-appier,idfa_3ae49520-d47b-4493-bdc1-f691f4faadad,ko
yAniMqyWQZ2FYp6rNM8Yrg,hopemobi,155_570212_530741_0369,install,1.7,115.41.16.81,40e3badc-0f15-4c44-8a97-9661945795fe,1557825527,2019-05-14 17:18:47,1557825568,2019-05-14 17:19:28,1557825600,674c47c4b6a540b084ae9287afc41928-1557825525,http://postback.hopemobi.net/pb/lsr?transaction_id=674c47c4b6a540b084ae9287afc41928-1557825525&payout=1.7&sid=179-appier,idfa_40e3badc-0f15-4c44-8a97-9661945795fe,ko
yAniMqyWQZ2FYp6rNM8Yrg,hopemobi,155_570212_530741_0369,install,1.7,121.147.2.130,689a53e5-12df-48ef-966d-dc21bb55f750,1557566439,2019-05-11 17:20:39,1557566469,2019-05-11 17:21:09,1557570253,c76d6978063a4e8c8e221eca44515b8b-1557566429,http://postback.hopemobi.net/pb/lsr?transaction_id=c76d6978063a4e8c8e221eca44515b8b-1557566429&payout=1.7&sid=179-appier,idfa_689a53e5-12df-48ef-966d-dc21bb55f750,ko
yAniMqyWQZ2FYp6rNM8Yrg,hopemobi,155_570212_530741_0369,install,1.7,175.199.254.56,b9faf9dc-e80b-45a3-ad2b-8e065d0366c0,1557655844,2019-05-12 18:10:44,1557663902,2019-05-12 20:25:02,1557663933,74feab54ff624b00b0affdfc80562d48-1557655791,http://postback.hopemobi.net/pb/lsr?transaction_id=74feab54ff624b00b0affdfc80562d48-1557655791&payout=1.7&sid=179-appier,idfa_b9faf9dc-e80b-45a3-ad2b-8e065d0366c0,ko
yAniMqyWQZ2FYp6rNM8Yrg,hopemobi,155_570212_530741_0369,install,1.7,117.111.20.92,ca0f9591-3395-4784-90eb-c1164ffb8848,1557519320,2019-05-11 04:15:20,1557519359,2019-05-11 04:15:59,1557519389,bb3a07254ca64a3195165b6326affdfa-1557519318,http://postback.hopemobi.net/pb/lsr?transaction_id=bb3a07254ca64a3195165b6326affdfa-1557519318&payout=1.7&sid=179-appier,idfa_ca0f9591-3395-4784-90eb-c1164ffb8848,ko
yAniMqyWQZ2FYp6rNM8Yrg,hopemobi,155_570212_530741_0369,install,1.7,61.78.254.165,692aa80f-c39f-4bfc-b005-1914a11d9aa1,1557651716,2019-05-12 17:01:56,1557651755,2019-05-12 17:02:35,1557651785,19c4e79c50244d738072502dab104f35-1557651714,http://postback.hopemobi.net/pb/lsr?transaction_id=19c4e79c50244d738072502dab104f35-1557651714&payout=1.7&sid=179-appier,idfa_692aa80f-c39f-4bfc-b005-1914a11d9aa1,ko
yAniMqyWQZ2FYp6rNM8Yrg,hopemobi,155_570212_530741_0369,install,1.7,1.253.90.253,3ebd3330-67e7-4400-a36e-fcd60466b461,1557519057,2019-05-11 04:10:57,1557523281,2019-05-11 05:21:21,1557523315,1166f9ef76d9498dab568637fd3a1511-1557519037,http://postback.hopemobi.net/pb/lsr?transaction_id=1166f9ef76d9498dab568637fd3a1511-1557519037&payout=1.7&sid=179-appier,idfa_3ebd3330-67e7-4400-a36e-fcd60466b461,ko
yAniMqyWQZ2FYp6rNM8Yrg,hopemobi,155_570212_530741_0369,install,1.7,115.138.167.25,f2ab8ffd-66ee-4b31-82a0-4b042310da09,1557555609,2019-05-11 14:20:09,1557646548,2019-05-12 15:35:48,1557646579,aa57dfb260c747db9210eb2da07dc2f4-1557555543,http://postback.hopemobi.net/pb/lsr?transaction_id=aa57dfb260c747db9210eb2da07dc2f4-1557555543&payout=1.7&sid=179-appier,idfa_f2ab8ffd-66ee-4b31-82a0-4b042310da09,ko
yAniMqyWQZ2FYp6rNM8Yrg,hopemobi,155_570212_530741_0369,install,1.7,116.124.145.194,4961314f-c36b-4f25-b7c5-3dd8b9603d1a,1557519747,2019-05-11 04:22:27,1557519758,2019-05-11 04:22:38,1557519789,0f12467d3eb448e0b28c66ae5805533e-1557519746,http://postback.hopemobi.net/pb/lsr?transaction_id=0f12467d3eb448e0b28c66ae5805533e-1557519746&payout=1.7&sid=179-appier,idfa_4961314f-c36b-4f25-b7c5-3dd8b9603d1a,ko
yAniMqyWQZ2FYp6rNM8Yrg,hopemobi,155_570212_530741_0369,install,1.7,113.130.249.138,c5dc813a-a8ba-4792-9a8d-a396654add60,1557567053,2019-05-11 17:30:53,1557600855,2019-05-12 02:54:15,1557600886,ce0220d2833d40b9a9aa855305235fe7-1557567040,http://postback.hopemobi.net/pb/lsr?transaction_id=ce0220d2833d40b9a9aa855305235fe7-1557567040&payout=1.7&sid=179-appier,idfa_c5dc813a-a8ba-4792-9a8d-a396654add60,ko
yAniMqyWQZ2FYp6rNM8Yrg,hopemobi,155_570212_530741_0369,install,1.7,110.70.52.22,47f9f349-cb5e-487a-bc36-78d6718b820b,1557567103,2019-05-11 17:31:43,1557576554,2019-05-11 20:09:14,1557576585,3963977af06f463c85e1cf70da0c7af2-1557567091,http://postback.hopemobi.net/pb/lsr?transaction_id=3963977af06f463c85e1cf70da0c7af2-1557567091&payout=1.7&sid=179-appier,idfa_47f9f349-cb5e-487a-bc36-78d6718b820b,ko
yAniMqyWQZ2FYp6rNM8Yrg,hopemobi,155_570212_530741_0369,install,1.7,61.253.169.113,c1a5cfb1-3d72-4529-b266-2a480808f6ed,1557820657,2019-05-14 15:57:37,1557820694,2019-05-14 15:58:14,1557820725,ecfeab6a509446aaa763cc6cc1ca6fa3-1557820655,http://postback.hopemobi.net/pb/lsr?transaction_id=ecfeab6a509446aaa763cc6cc1ca6fa3-1557820655&payout=1.7&sid=179-appier,idfa_c1a5cfb1-3d72-4529-b266-2a480808f6ed,ko
yAniMqyWQZ2FYp6rNM8Yrg,hopemobi,155_570212_530741_0369,install,1.7,124.57.106.152,f9660f45-2b82-4cc4-9558-7bad4fbbfa36,1557567225,2019-05-11 17:33:45,1557579100,2019-05-11 20:51:40,1557579132,5f28aca3efa84d0c8c83c654eec6f052-1557567160,http://postback.hopemobi.net/pb/lsr?transaction_id=5f28aca3efa84d0c8c83c654eec6f052-1557567160&payout=1.7&sid=179-appier,idfa_f9660f45-2b82-4cc4-9558-7bad4fbbfa36,ko
yAniMqyWQZ2FYp6rNM8Yrg,hopemobi,155_570212_530741_0369,install,1.7,116.84.217.118,676a441f-4d7c-4ad2-af63-0a9e688136ef,1557827677,2019-05-14 17:54:37,1557827718,2019-05-14 17:55:18,1557827749,3a4b972a641f4fde8b554924390fa60f-1557827675,http://postback.hopemobi.net/pb/lsr?transaction_id=3a4b972a641f4fde8b554924390fa60f-1557827675&payout=1.7&sid=179-appier,idfa_676a441f-4d7c-4ad2-af63-0a9e688136ef,ko
yAniMqyWQZ2FYp6rNM8Yrg,hopemobi,155_570212_530741_0369,install,1.7,125.188.72.5,4928fbc4-87d9-49b7-9572-ff7589295c8d,1557650329,2019-05-12 16:38:49,1557658910,2019-05-12 19:01:50,1557658942,d75851d5b19541d29348c9fc03dcdcee-1557650263,http://postback.hopemobi.net/pb/lsr?transaction_id=d75851d5b19541d29348c9fc03dcdcee-1557650263&payout=1.7&sid=179-appier,idfa_4928fbc4-87d9-49b7-9572-ff7589295c8d,ko
yAniMqyWQZ2FYp6rNM8Yrg,hopemobi,155_570212_530741_0369,install,1.7,223.33.153.207,9162ca5a-c75e-4ce4-ae63-1f7d28aab9a9,1557556004,2019-05-11 14:26:44,1557789726,2019-05-14 07:22:06,1557789757,bc15dfd5339642e09e80a66d65fe6f91-1557555954,http://postback.hopemobi.net/pb/lsr?transaction_id=bc15dfd5339642e09e80a66d65fe6f91-1557555954&payout=1.7&sid=179-appier,idfa_9162ca5a-c75e-4ce4-ae63-1f7d28aab9a9,ko
yAniMqyWQZ2FYp6rNM8Yrg,hopemobi,155_570212_530741_0369,install,1.7,211.210.229.57,80adb2fc-c27f-475f-9b65-c65aa3f35e5d,1557790292,2019-05-14 07:31:32,1557790331,2019-05-14 07:32:11,1557790361,00789a22b4b0466c977a33b46697c978-1557790291,http://postback.hopemobi.net/pb/lsr?transaction_id=00789a22b4b0466c977a33b46697c978-1557790291&payout=1.7&sid=179-appier,idfa_80adb2fc-c27f-475f-9b65-c65aa3f35e5d,ko
yAniMqyWQZ2FYp6rNM8Yrg,hopemobi,155_570212_530741_0369,install,1.7,14.7.250.40,9c850dac-9ca8-4e79-bf74-b1b8fb93bcc3,1557639061,2019-05-12 13:31:01,1557639101,2019-05-12 13:31:41,1557639133,0e66db9ba8384c67adfd322516368cb4-1557639059,http://postback.hopemobi.net/pb/lsr?transaction_id=0e66db9ba8384c67adfd322516368cb4-1557639059&payout=1.7&sid=179-appier,idfa_9c850dac-9ca8-4e79-bf74-b1b8fb93bcc3,ko
yAniMqyWQZ2FYp6rNM8Yrg,hopemobi,155_570212_530741_0369,install,1.7,121.186.196.25,682ddfca-4d64-49af-b325-b0d026bf8f2d,1557790852,2019-05-14 07:40:52,1557878057,2019-05-15 07:54:17,1557878091,360d9334734f41488f1ac1e9cea37b52-1557790735,http://postback.hopemobi.net/pb/lsr?transaction_id=360d9334734f41488f1ac1e9cea37b52-1557790735&payout=1.7&sid=179-appier,idfa_682ddfca-4d64-49af-b325-b0d026bf8f2d,ko
yAniMqyWQZ2FYp6rNM8Yrg,hopemobi,155_570212_530741_0369,install,1.7,119.196.141.190,d298b524-89eb-4040-af00-583e91acd66a,1557554158,2019-05-11 13:55:58,1557554194,2019-05-11 13:56:34,1557554225,2abcf73c257d434e9fc36410370d4821-1557554156,http://postback.hopemobi.net/pb/lsr?transaction_id=2abcf73c257d434e9fc36410370d4821-1557554156&payout=1.7&sid=179-appier,idfa_d298b524-89eb-4040-af00-583e91acd66a,ko
yAniMqyWQZ2FYp6rNM8Yrg,hopemobi,155_570212_530741_0369,install,1.7,211.184.242.171,93c7ee4d-f44b-4965-afef-d44ec77d4c2b,1557658596,2019-05-12 18:56:36,1557658632,2019-05-12 18:57:12,1557658663,4dd66a53c74548669a31b48262f059ff-1557658594,http://postback.hopemobi.net/pb/lsr?transaction_id=4dd66a53c74548669a31b48262f059ff-1557658594&payout=1.7&sid=179-appier,idfa_93c7ee4d-f44b-4965-afef-d44ec77d4c2b,ko
yAniMqyWQZ2FYp6rNM8Yrg,hopemobi,155_570212_530741_0369,install,1.7,118.37.199.194,ae2e8b0d-3c73-422c-9005-8c978042797b,1557744461,2019-05-13 18:47:41,1557744501,2019-05-13 18:48:21,1557744532,075a300356e14591b2b283022efb9190-1557744459,http://postback.hopemobi.net/pb/lsr?transaction_id=075a300356e14591b2b283022efb9190-1557744459&payout=1.7&sid=179-appier,idfa_ae2e8b0d-3c73-422c-9005-8c978042797b,ko
yAniMqyWQZ2FYp6rNM8Yrg,hopemobi,155_570212_530741_0369,install,1.7,117.111.11.74,92ba5d72-a2f2-4806-99d3-9ec590ae454c,1557651703,2019-05-12 17:01:43,1557651757,2019-05-12 17:02:37,1557651788,5f991f53b41f407c9f7113f678b88376-1557651701,http://postback.hopemobi.net/pb/lsr?transaction_id=5f991f53b41f407c9f7113f678b88376-1557651701&payout=1.7&sid=179-appier,idfa_92ba5d72-a2f2-4806-99d3-9ec590ae454c,ko
yAniMqyWQZ2FYp6rNM8Yrg,hopemobi,155_570212_530741_0369,install,1.7,218.238.105.221,59ae7e39-98a6-47ec-bd67-afacffceb440,1557566593,2019-05-11 17:23:13,1557784990,2019-05-14 06:03:10,1557785021,9d541d24468c4b06b50b318cd613b237-1557566560,http://postback.hopemobi.net/pb/lsr?transaction_id=9d541d24468c4b06b50b318cd613b237-1557566560&payout=1.7&sid=179-appier,idfa_59ae7e39-98a6-47ec-bd67-afacffceb440,ko
yAniMqyWQZ2FYp6rNM8Yrg,hopemobi,155_570212_530741_0369,install,1.7,223.38.17.229,98a1c4ba-4846-4457-b332-c37feb31cfea,1557580770,2019-05-11 21:19:30,1557580805,2019-05-11 21:20:05,1557580836,1ae89c09713a4b4fbd9c2eff8002772a-1557580763,http://postback.hopemobi.net/pb/lsr?transaction_id=1ae89c09713a4b4fbd9c2eff8002772a-1557580763&payout=1.7&sid=179-appier,idfa_98a1c4ba-4846-4457-b332-c37feb31cfea,ko
yAniMqyWQZ2FYp6rNM8Yrg,hopemobi,155_570212_530741_0369,install,1.7,39.7.53.118,b60d4c63-6ad0-4e5e-9539-1754c772c579,1557827676,2019-05-14 17:54:36,1557827716,2019-05-14 17:55:16,1557827747,819cdf4d246f4b5d9c4a060d31252135-1557827674,http://postback.hopemobi.net/pb/lsr?transaction_id=819cdf4d246f4b5d9c4a060d31252135-1557827674&payout=1.7&sid=179-appier,idfa_b60d4c63-6ad0-4e5e-9539-1754c772c579,ko
