cid,partner_id,channel_id,action_id,cpi,ip,idfa,click time,click datetime,install time,install datetime,postback time,click id,postback url,unique user id
MxOQdUs5RzK5F3h-iuPrEg,hopemobi,58_136,Install,2.0,14.49.109.67,8BEDE594-2B6D-42C9-95DB-612508EA5340,1558621525,2019-05-23 22:25:25,1558621590,2019-05-23 22:26:30,1558621624,f1aee150e65e4f18a345a2ab9e4c700d-1558621508,http://postback.hopemobi.net/pb/lsr?transaction_id=f1aee150e65e4f18a345a2ab9e4c700d-1558621508&payout=2.0&sid=179-appier,idfa_8BEDE594-2B6D-42C9-95DB-612508EA5340,en-GB
MxOQdUs5RzK5F3h-iuPrEg,hopemobi,58_136,Install,2.0,58.140.167.139,6FE7B6E9-AF08-4C01-9E4A-D3DB99C5B1A0,1558620788,2019-05-23 22:13:08,1558620844,2019-05-23 22:14:04,1558620874,a93565c9e6c24abb89efed6dafe545ad-1558620772,http://postback.hopemobi.net/pb/lsr?transaction_id=a93565c9e6c24abb89efed6dafe545ad-1558620772&payout=2.0&sid=179-appier,idfa_6FE7B6E9-AF08-4C01-9E4A-D3DB99C5B1A0,en-GB
MxOQdUs5RzK5F3h-iuPrEg,hopemobi,58_136,Install,2.0,125.252.29.78,AF85D885-80A0-4A3A-ACE3-304A1F88EFA7,1558621251,2019-05-23 22:20:51,1558621310,2019-05-23 22:21:50,1558621343,b5e6e57f766f49b6a81a53ec0324b9b1-1558621233,http://postback.hopemobi.net/pb/lsr?transaction_id=b5e6e57f766f49b6a81a53ec0324b9b1-1558621233&payout=2.0&sid=179-appier,idfa_AF85D885-80A0-4A3A-ACE3-304A1F88EFA7,en-GB
MxOQdUs5RzK5F3h-iuPrEg,hopemobi,58_136,Install,2.0,218.239.207.80,0A4F7D1F-CE66-453A-98A4-B6166BF6ACD0,1558619314,2019-05-23 21:48:34,1558619374,2019-05-23 21:49:34,1558619405,b78ea938f6374023a808c0e93e27e8b2-1558619298,http://postback.hopemobi.net/pb/lsr?transaction_id=b78ea938f6374023a808c0e93e27e8b2-1558619298&payout=2.0&sid=179-appier,idfa_0A4F7D1F-CE66-453A-98A4-B6166BF6ACD0,en-GB
MxOQdUs5RzK5F3h-iuPrEg,hopemobi,58_136,Install,2.0,58.140.167.139,E3E4D768-3AF1-413D-997E-5F13E3FEDBB3,1558620842,2019-05-23 22:14:02,1558620894,2019-05-23 22:14:54,1558620925,972e1222f2184e06991df17294617fa7-1558620824,http://postback.hopemobi.net/pb/lsr?transaction_id=972e1222f2184e06991df17294617fa7-1558620824&payout=2.0&sid=179-appier,idfa_E3E4D768-3AF1-413D-997E-5F13E3FEDBB3,en-GB
MxOQdUs5RzK5F3h-iuPrEg,hopemobi,58_136,Install,2.0,121.162.76.163,24D62D83-E40A-4A39-B774-757F5D120B47,1558621695,2019-05-23 22:28:15,1558621750,2019-05-23 22:29:10,1558621781,b63eadba74844e0ebbb62f270c532020-1558621678,http://postback.hopemobi.net/pb/lsr?transaction_id=b63eadba74844e0ebbb62f270c532020-1558621678&payout=2.0&sid=179-appier,idfa_24D62D83-E40A-4A39-B774-757F5D120B47,en-GB
MxOQdUs5RzK5F3h-iuPrEg,hopemobi,58_136,Install,2.0,211.216.40.122,CF4479B3-5785-46CC-927B-0CC48BB2216C,1558621629,2019-05-23 22:27:09,1558621695,2019-05-23 22:28:15,1558621725,d1a6d79c4db346b195ad0a82c261b705-1558621613,http://postback.hopemobi.net/pb/lsr?transaction_id=d1a6d79c4db346b195ad0a82c261b705-1558621613&payout=2.0&sid=179-appier,idfa_CF4479B3-5785-46CC-927B-0CC48BB2216C,en-GB
MxOQdUs5RzK5F3h-iuPrEg,hopemobi,58_136,Install,2.0,61.254.242.131,908D2610-D9A4-4545-A747-A09A3F6B4A76,1558620503,2019-05-23 22:08:23,1558620586,2019-05-23 22:09:46,1558620617,790c168588bb4c91aa0cc2e49a8172e7-1558620476,http://postback.hopemobi.net/pb/lsr?transaction_id=790c168588bb4c91aa0cc2e49a8172e7-1558620476&payout=2.0&sid=179-appier,idfa_908D2610-D9A4-4545-A747-A09A3F6B4A76,en-GB
MxOQdUs5RzK5F3h-iuPrEg,hopemobi,58_136,Install,2.0,118.41.66.153,15A1CE53-FC5B-41FE-8252-39592EB51C3B,1558620666,2019-05-23 22:11:06,1558620731,2019-05-23 22:12:11,1558620761,3cb70441c5ff44748adf7be6f17b7438-1558620649,http://postback.hopemobi.net/pb/lsr?transaction_id=3cb70441c5ff44748adf7be6f17b7438-1558620649&payout=2.0&sid=179-appier,idfa_15A1CE53-FC5B-41FE-8252-39592EB51C3B,en-GB
MxOQdUs5RzK5F3h-iuPrEg,hopemobi,58_136,Install,2.0,121.174.119.84,717DEC58-6CF9-421A-8F3E-50BC3F8D286D,1558621256,2019-05-23 22:20:56,1558621319,2019-05-23 22:21:59,1558621350,6a94fa5a406a4784a49a733b3e8c154b-1558621240,http://postback.hopemobi.net/pb/lsr?transaction_id=6a94fa5a406a4784a49a733b3e8c154b-1558621240&payout=2.0&sid=179-appier,idfa_717DEC58-6CF9-421A-8F3E-50BC3F8D286D,en-GB
MxOQdUs5RzK5F3h-iuPrEg,hopemobi,58_136,Install,2.0,222.110.255.93,0FBB794D-C085-4FAB-AA2F-519A887AF3A5,1558620888,2019-05-23 22:14:48,1558620966,2019-05-23 22:16:06,1558620997,8228773ce2b14183bcc8cdb56fa259ce-1558620872,http://postback.hopemobi.net/pb/lsr?transaction_id=8228773ce2b14183bcc8cdb56fa259ce-1558620872&payout=2.0&sid=179-appier,idfa_0FBB794D-C085-4FAB-AA2F-519A887AF3A5,en-GB
MxOQdUs5RzK5F3h-iuPrEg,hopemobi,58_136,Install,2.0,118.41.66.153,02E670C6-49C2-4212-A2BB-9893261F3041,1558620455,2019-05-23 22:07:35,1558620510,2019-05-23 22:08:30,1558620542,0771debd16cd4893873d6a6e1fd84c8e-1558620438,http://postback.hopemobi.net/pb/lsr?transaction_id=0771debd16cd4893873d6a6e1fd84c8e-1558620438&payout=2.0&sid=179-appier,idfa_02E670C6-49C2-4212-A2BB-9893261F3041,en-GB
MxOQdUs5RzK5F3h-iuPrEg,hopemobi,58_136,Install,2.0,183.100.94.11,51AB86AC-E399-4A19-9DD9-F61965F1EE7C,1558621044,2019-05-23 22:17:24,1558621112,2019-05-23 22:18:32,1558621142,ce9010fce40148e6a88909a47476d49a-1558621027,http://postback.hopemobi.net/pb/lsr?transaction_id=ce9010fce40148e6a88909a47476d49a-1558621027&payout=2.0&sid=179-appier,idfa_51AB86AC-E399-4A19-9DD9-F61965F1EE7C,en-GB
MxOQdUs5RzK5F3h-iuPrEg,hopemobi,58_136,Install,2.0,110.15.215.101,66A72731-9339-4CFB-8E85-F6214D823C15,1558620950,2019-05-23 22:15:50,1558621018,2019-05-23 22:16:58,1558621050,acde550932ef4a32af760b22648e9411-1558620928,http://postback.hopemobi.net/pb/lsr?transaction_id=acde550932ef4a32af760b22648e9411-1558620928&payout=2.0&sid=179-appier,idfa_66A72731-9339-4CFB-8E85-F6214D823C15,en-GB
MxOQdUs5RzK5F3h-iuPrEg,hopemobi,58_136,Install,2.0,121.174.119.84,501E4962-ED73-4679-8D7F-91F82B21723F,1558621080,2019-05-23 22:18:00,1558621146,2019-05-23 22:19:06,1558621176,742520a442fa46d9ada5b8eb43106da6-1558621063,http://postback.hopemobi.net/pb/lsr?transaction_id=742520a442fa46d9ada5b8eb43106da6-1558621063&payout=2.0&sid=179-appier,idfa_501E4962-ED73-4679-8D7F-91F82B21723F,en-GB
MxOQdUs5RzK5F3h-iuPrEg,hopemobi,58_136,Install,2.0,218.155.132.254,B65952F1-EBAF-424F-97B5-D1780F5A026E,1558620432,2019-05-23 22:07:12,1558620486,2019-05-23 22:08:06,1558620517,8425b9e6fc8f4931afdcf470d7b627b1-1558620416,http://postback.hopemobi.net/pb/lsr?transaction_id=8425b9e6fc8f4931afdcf470d7b627b1-1558620416&payout=2.0&sid=179-appier,idfa_B65952F1-EBAF-424F-97B5-D1780F5A026E,en-GB
MxOQdUs5RzK5F3h-iuPrEg,hopemobi,58_136,Install,2.0,112.154.217.55,1D300CE9-E845-4EF2-8256-787045D26487,1558620456,2019-05-23 22:07:36,1558620510,2019-05-23 22:08:30,1558620541,8e1524fbb2e84b678539dd44b7bd391e-1558620438,http://postback.hopemobi.net/pb/lsr?transaction_id=8e1524fbb2e84b678539dd44b7bd391e-1558620438&payout=2.0&sid=179-appier,idfa_1D300CE9-E845-4EF2-8256-787045D26487,en-GB
MxOQdUs5RzK5F3h-iuPrEg,hopemobi,58_136,Install,2.0,182.220.27.135,96CAC1EB-8B4D-469C-8A88-3F337C01A7ED,1558621780,2019-05-23 22:29:40,1558621934,2019-05-23 22:32:14,1558621966,8c0b1b09c5e24d1ea48b0a275a9d2c3f-1558621774,http://postback.hopemobi.net/pb/lsr?transaction_id=8c0b1b09c5e24d1ea48b0a275a9d2c3f-1558621774&payout=2.0&sid=179-appier,idfa_96CAC1EB-8B4D-469C-8A88-3F337C01A7ED,ko-KR
MxOQdUs5RzK5F3h-iuPrEg,hopemobi,58_136,Install,2.0,115.139.80.28,CB23B8ED-B94B-4D9B-81C0-FC084911B366,1558620763,2019-05-23 22:12:43,1558620829,2019-05-23 22:13:49,1558620860,e32b03632dd84cc78e3abf173bc12422-1558620745,http://postback.hopemobi.net/pb/lsr?transaction_id=e32b03632dd84cc78e3abf173bc12422-1558620745&payout=2.0&sid=179-appier,idfa_CB23B8ED-B94B-4D9B-81C0-FC084911B366,en-GB
MxOQdUs5RzK5F3h-iuPrEg,hopemobi,58_136,Install,2.0,175.113.206.54,,1558619958,2019-05-23 21:59:18,1558620029,2019-05-23 22:00:29,1558620059,0c705fe0ac7c439ebca0063255371e19-1558619940,http://postback.hopemobi.net/pb/lsr?transaction_id=0c705fe0ac7c439ebca0063255371e19-1558619940&payout=2.0&sid=179-appier,ip_175.113.206.54,en-GB
MxOQdUs5RzK5F3h-iuPrEg,hopemobi,58_136,Install,2.0,58.140.167.139,16AC1E5E-EC62-4755-A0A7-8D31DCF46D56,1558620665,2019-05-23 22:11:05,1558620735,2019-05-23 22:12:15,1558620766,28a46cfffb2d4c58964c8fdce188f96d-1558620649,http://postback.hopemobi.net/pb/lsr?transaction_id=28a46cfffb2d4c58964c8fdce188f96d-1558620649&payout=2.0&sid=179-appier,idfa_16AC1E5E-EC62-4755-A0A7-8D31DCF46D56,en-GB
MxOQdUs5RzK5F3h-iuPrEg,hopemobi,58_136,Install,2.0,211.216.40.122,4C344802-2367-44E6-A1BA-B79C8A9A0B30,1558621628,2019-05-23 22:27:08,1558621679,2019-05-23 22:27:59,1558621715,32405e33e09d40f3805af2385a6b4e36-1558621611,http://postback.hopemobi.net/pb/lsr?transaction_id=32405e33e09d40f3805af2385a6b4e36-1558621611&payout=2.0&sid=179-appier,idfa_4C344802-2367-44E6-A1BA-B79C8A9A0B30,en-GB
MxOQdUs5RzK5F3h-iuPrEg,hopemobi,58_136,Install,2.0,118.41.66.153,3500C589-70E5-414C-B6F8-456354FCD621,1558620630,2019-05-23 22:10:30,1558620695,2019-05-23 22:11:35,1558620726,da8622e1ef834343badd2a732ece1ef1-1558620613,http://postback.hopemobi.net/pb/lsr?transaction_id=da8622e1ef834343badd2a732ece1ef1-1558620613&payout=2.0&sid=179-appier,idfa_3500C589-70E5-414C-B6F8-456354FCD621,en-GB
MxOQdUs5RzK5F3h-iuPrEg,hopemobi,58_136,Install,2.0,125.191.48.87,4B62A1F1-5EBD-423B-8C94-BA3AD77CB3D1,1558621330,2019-05-23 22:22:10,1558621393,2019-05-23 22:23:13,1558621425,facb748962204c41a16730a067308dd0-1558621314,http://postback.hopemobi.net/pb/lsr?transaction_id=facb748962204c41a16730a067308dd0-1558621314&payout=2.0&sid=179-appier,idfa_4B62A1F1-5EBD-423B-8C94-BA3AD77CB3D1,en-GB
MxOQdUs5RzK5F3h-iuPrEg,hopemobi,58_136,Install,2.0,124.58.5.91,8B42E6C2-DF43-466C-93EB-B78B9E29EDB2,1558621182,2019-05-23 22:19:42,1558621243,2019-05-23 22:20:43,1558621274,8745569010f841a192eea4ecfeeea2a9-1558621166,http://postback.hopemobi.net/pb/lsr?transaction_id=8745569010f841a192eea4ecfeeea2a9-1558621166&payout=2.0&sid=179-appier,idfa_8B42E6C2-DF43-466C-93EB-B78B9E29EDB2,en-GB
MxOQdUs5RzK5F3h-iuPrEg,hopemobi,58_136,Install,2.0,14.49.109.67,7C87EC96-2CC3-40D8-96A5-C6E28C0B05E5,1558621695,2019-05-23 22:28:15,1558621747,2019-05-23 22:29:07,1558621781,a92e99b1910846e7866c7bc67b63dd63-1558621677,http://postback.hopemobi.net/pb/lsr?transaction_id=a92e99b1910846e7866c7bc67b63dd63-1558621677&payout=2.0&sid=179-appier,idfa_7C87EC96-2CC3-40D8-96A5-C6E28C0B05E5,en-GB
MxOQdUs5RzK5F3h-iuPrEg,hopemobi,58_136,Install,2.0,121.130.222.209,57CC6B51-D987-4CF8-9DB8-E8EAE2E93D09,1558620564,2019-05-23 22:09:24,1558620628,2019-05-23 22:10:28,1558620661,ce17dfe803df46a8b6feb72c0c4668bb-1558620545,http://postback.hopemobi.net/pb/lsr?transaction_id=ce17dfe803df46a8b6feb72c0c4668bb-1558620545&payout=2.0&sid=179-appier,idfa_57CC6B51-D987-4CF8-9DB8-E8EAE2E93D09,en-GB
MxOQdUs5RzK5F3h-iuPrEg,hopemobi,58_136,Install,2.0,58.140.167.139,521236AB-1DEF-4EAE-ACC6-BA74580BC5B9,1558620792,2019-05-23 22:13:12,1558620805,2019-05-23 22:13:25,1558620837,734866cc1b9b4e94a04d271943156da3-1558620776,http://postback.hopemobi.net/pb/lsr?transaction_id=734866cc1b9b4e94a04d271943156da3-1558620776&payout=2.0&sid=179-appier,idfa_521236AB-1DEF-4EAE-ACC6-BA74580BC5B9,en-GB
MxOQdUs5RzK5F3h-iuPrEg,hopemobi,58_136,Install,2.0,222.110.255.93,0E351605-262A-4716-8C9E-921C81AF05CC,1558620702,2019-05-23 22:11:42,1558620775,2019-05-23 22:12:55,1558620806,11b706b9b59142149e82dcee9bd2e5ea-1558620681,http://postback.hopemobi.net/pb/lsr?transaction_id=11b706b9b59142149e82dcee9bd2e5ea-1558620681&payout=2.0&sid=179-appier,idfa_0E351605-262A-4716-8C9E-921C81AF05CC,en-GB
MxOQdUs5RzK5F3h-iuPrEg,hopemobi,58_136,Install,2.0,58.140.167.139,2A2BC063-7DB3-43C9-9BCC-2E45EF83A01E,1558620970,2019-05-23 22:16:10,1558621026,2019-05-23 22:17:06,1558621058,79e4c8c3b045433bb7b7f2c2ed2722f9-1558620954,http://postback.hopemobi.net/pb/lsr?transaction_id=79e4c8c3b045433bb7b7f2c2ed2722f9-1558620954&payout=2.0&sid=179-appier,idfa_2A2BC063-7DB3-43C9-9BCC-2E45EF83A01E,en-GB
MxOQdUs5RzK5F3h-iuPrEg,hopemobi,58_136,Install,2.0,210.183.16.52,5FFA36A7-4B37-4346-857F-E65BEFE40076,1558620687,2019-05-23 22:11:27,1558620757,2019-05-23 22:12:37,1558620788,222f1cadbe294eb7bf0197995fb2f335-1558620671,http://postback.hopemobi.net/pb/lsr?transaction_id=222f1cadbe294eb7bf0197995fb2f335-1558620671&payout=2.0&sid=179-appier,idfa_5FFA36A7-4B37-4346-857F-E65BEFE40076,en-GB
MxOQdUs5RzK5F3h-iuPrEg,hopemobi,58_136,Install,2.0,124.58.5.91,67F36527-17BD-4C4B-A379-0F1A32E1D4D0,1558621240,2019-05-23 22:20:40,1558621307,2019-05-23 22:21:47,1558621338,e97ef3fc88774d86a04db31d4f0bd798-1558621224,http://postback.hopemobi.net/pb/lsr?transaction_id=e97ef3fc88774d86a04db31d4f0bd798-1558621224&payout=2.0&sid=179-appier,idfa_67F36527-17BD-4C4B-A379-0F1A32E1D4D0,en-GB
MxOQdUs5RzK5F3h-iuPrEg,hopemobi,58_136,Install,2.0,211.216.40.122,B09794CE-3B5D-4039-9AF6-777C2A2C8400,1558621760,2019-05-23 22:29:20,1558621810,2019-05-23 22:30:10,1558621842,3e759476a64f466cb92998ae3c546d3d-1558621744,http://postback.hopemobi.net/pb/lsr?transaction_id=3e759476a64f466cb92998ae3c546d3d-1558621744&payout=2.0&sid=179-appier,idfa_B09794CE-3B5D-4039-9AF6-777C2A2C8400,en-GB
MxOQdUs5RzK5F3h-iuPrEg,hopemobi,58_136,Install,2.0,125.191.48.87,3611E117-ADFD-48D2-A38B-10DD501C27BB,1558621509,2019-05-23 22:25:09,1558621583,2019-05-23 22:26:23,1558621613,6791cd673bb64398b2037a34d3278d7b-1558621490,http://postback.hopemobi.net/pb/lsr?transaction_id=6791cd673bb64398b2037a34d3278d7b-1558621490&payout=2.0&sid=179-appier,idfa_3611E117-ADFD-48D2-A38B-10DD501C27BB,en-GB
MxOQdUs5RzK5F3h-iuPrEg,hopemobi,58_136,Install,2.0,183.97.215.245,659FE813-88ED-4ECA-82F1-55ED08FF7587,1558619013,2019-05-23 21:43:33,1558619094,2019-05-23 21:44:54,1558619125,457fc78c83504a96977570d31913e4ff-1558618984,http://postback.hopemobi.net/pb/lsr?transaction_id=457fc78c83504a96977570d31913e4ff-1558618984&payout=2.0&sid=179-appier,idfa_659FE813-88ED-4ECA-82F1-55ED08FF7587,en-GB
MxOQdUs5RzK5F3h-iuPrEg,hopemobi,58_136,Install,2.0,58.140.167.139,D7E5F1CE-735D-48DE-B17A-537905538493,1558620956,2019-05-23 22:15:56,1558621018,2019-05-23 22:16:58,1558621049,72c4526aa5504a89954ddeb97516ba4c-1558620940,http://postback.hopemobi.net/pb/lsr?transaction_id=72c4526aa5504a89954ddeb97516ba4c-1558620940&payout=2.0&sid=179-appier,idfa_D7E5F1CE-735D-48DE-B17A-537905538493,en-GB
MxOQdUs5RzK5F3h-iuPrEg,hopemobi,58_136,Install,2.0,14.49.109.67,5715B20C-3362-4EB8-BBFA-DB9AC3A34187,1558621518,2019-05-23 22:25:18,1558621579,2019-05-23 22:26:19,1558621611,4db05dcc8ae54c3fab6b92631bfb0a64-1558621502,http://postback.hopemobi.net/pb/lsr?transaction_id=4db05dcc8ae54c3fab6b92631bfb0a64-1558621502&payout=2.0&sid=179-appier,idfa_5715B20C-3362-4EB8-BBFA-DB9AC3A34187,en-GB
MxOQdUs5RzK5F3h-iuPrEg,hopemobi,58_136,Install,2.0,221.138.193.236,6B8C6D01-0FEA-4D8C-95A3-58355A4DBA2A,1558621390,2019-05-23 22:23:10,1558621519,2019-05-23 22:25:19,1558621549,a05a78f22bd54b58a196ccf6c80c90b8-1558621372,http://postback.hopemobi.net/pb/lsr?transaction_id=a05a78f22bd54b58a196ccf6c80c90b8-1558621372&payout=2.0&sid=179-appier,idfa_6B8C6D01-0FEA-4D8C-95A3-58355A4DBA2A,en-GB
MxOQdUs5RzK5F3h-iuPrEg,hopemobi,58_136,Install,2.0,183.100.94.11,73CDC142-0189-4001-BF5E-C404C0842EA7,1558621213,2019-05-23 22:20:13,1558621282,2019-05-23 22:21:22,1558621322,2440fe79c7b746879c4cbd4bc8cd436a-1558621197,http://postback.hopemobi.net/pb/lsr?transaction_id=2440fe79c7b746879c4cbd4bc8cd436a-1558621197&payout=2.0&sid=179-appier,idfa_73CDC142-0189-4001-BF5E-C404C0842EA7,en-GB
