cid,partner_id,channel_id,action_id,cpi,ip,idfa,click time,click datetime,install time,install datetime,postback time,click id,postback url,unique user id
yAniMqyWQZ2FYp6rNM8Yrg,hopemobi,155_13_1860,install,1.7,110.13.164.53,7a513ed7-3560-4caa-83ab-8fc566c378ae,1557466642,2019-05-10 13:37:22,1557466681,2019-05-10 13:38:01,1557466712,3e3143aeedc74e929d084ab1df30e465-1557466640,http://postback.hopemobi.net/pb/lsr?transaction_id=3e3143aeedc74e929d084ab1df30e465-1557466640&payout=1.7&sid=179-appier,idfa_7a513ed7-3560-4caa-83ab-8fc566c378ae,ko
yAniMqyWQZ2FYp6rNM8Yrg,hopemobi,155_13_1860,install,1.7,110.70.50.230,e49e4b77-5a75-478d-a9f2-fe3ce9cf14f4,1557446484,2019-05-10 08:01:24,1557446525,2019-05-10 08:02:05,1557446556,7ac645400a6b49199a3b8b24fb8ac031-1557446482,http://postback.hopemobi.net/pb/lsr?transaction_id=7ac645400a6b49199a3b8b24fb8ac031-1557446482&payout=1.7&sid=179-appier,idfa_e49e4b77-5a75-478d-a9f2-fe3ce9cf14f4,ko
yAniMqyWQZ2FYp6rNM8Yrg,hopemobi,155_13_1860,install,1.7,39.7.18.210,3800c09f-1673-4b2f-8d2c-1fa18cb1be65,1557378763,2019-05-09 13:12:43,1557378816,2019-05-09 13:13:36,1557378850,ea55537d7fd34f1e9ec159b6bcb1564a-1557378761,http://postback.hopemobi.net/pb/lsr?transaction_id=ea55537d7fd34f1e9ec159b6bcb1564a-1557378761&payout=1.7&sid=179-appier,idfa_3800c09f-1673-4b2f-8d2c-1fa18cb1be65,ko
yAniMqyWQZ2FYp6rNM8Yrg,hopemobi,155_13_1860,install,1.7,125.135.173.124,6cda001a-db70-4faa-901b-81e8d674014b,1557446458,2019-05-10 08:00:58,1557446498,2019-05-10 08:01:38,1557446529,71d7127d74e049559f8000439456aadd-1557446456,http://postback.hopemobi.net/pb/lsr?transaction_id=71d7127d74e049559f8000439456aadd-1557446456&payout=1.7&sid=179-appier,idfa_6cda001a-db70-4faa-901b-81e8d674014b,ko
yAniMqyWQZ2FYp6rNM8Yrg,hopemobi,155_13_1860,install,1.7,110.47.64.124,32cfb15b-7c58-4867-83dc-aa565fb00b1f,1557465313,2019-05-10 13:15:13,1557465350,2019-05-10 13:15:50,1557465381,ed37557346614d53bb15b70ff4af6300-1557465309,http://postback.hopemobi.net/pb/lsr?transaction_id=ed37557346614d53bb15b70ff4af6300-1557465309&payout=1.7&sid=179-appier,idfa_32cfb15b-7c58-4867-83dc-aa565fb00b1f,ko
yAniMqyWQZ2FYp6rNM8Yrg,hopemobi,155_13_1860,install,1.7,112.149.145.71,6c3b2d4c-59cf-49d8-bf35-d5ed726f3bcd,1557465069,2019-05-10 13:11:09,1557465302,2019-05-10 13:15:02,1557465334,ba899a2f915942cf9be762fd78f9df2c-1557465067,http://postback.hopemobi.net/pb/lsr?transaction_id=ba899a2f915942cf9be762fd78f9df2c-1557465067&payout=1.7&sid=179-appier,idfa_6c3b2d4c-59cf-49d8-bf35-d5ed726f3bcd,ko
yAniMqyWQZ2FYp6rNM8Yrg,hopemobi,155_13_1860,install,1.7,219.241.90.16,a6382c00-8cb8-42b4-a993-a64511844c50,1557465090,2019-05-10 13:11:30,1557465131,2019-05-10 13:12:11,1557465162,7e9d603d6265484cbab8eb1d6a2d187c-1557465088,http://postback.hopemobi.net/pb/lsr?transaction_id=7e9d603d6265484cbab8eb1d6a2d187c-1557465088&payout=1.7&sid=179-appier,idfa_a6382c00-8cb8-42b4-a993-a64511844c50,ko
yAniMqyWQZ2FYp6rNM8Yrg,hopemobi,155_13_1860,install,1.7,223.38.8.87,9d0a86a3-8728-4700-a3ce-1d40ecbfb0bf,1557465316,2019-05-10 13:15:16,1557465356,2019-05-10 13:15:56,1557465387,821019f4701d45cb90ebad51b6d675ca-1557465314,http://postback.hopemobi.net/pb/lsr?transaction_id=821019f4701d45cb90ebad51b6d675ca-1557465314&payout=1.7&sid=179-appier,idfa_9d0a86a3-8728-4700-a3ce-1d40ecbfb0bf,ko
yAniMqyWQZ2FYp6rNM8Yrg,hopemobi,155_13_1860,install,1.7,58.103.130.237,b6a1ffee-9af5-440f-82a8-f1a53a897922,1557379448,2019-05-09 13:24:08,1557379476,2019-05-09 13:24:36,1557379507,8cc838132ca34723bbd6d407b4d5b4ff-1557379439,http://postback.hopemobi.net/pb/lsr?transaction_id=8cc838132ca34723bbd6d407b4d5b4ff-1557379439&payout=1.7&sid=179-appier,idfa_b6a1ffee-9af5-440f-82a8-f1a53a897922,ko
yAniMqyWQZ2FYp6rNM8Yrg,hopemobi,155_13_1860,install,1.7,117.111.1.29,b4e0569f-c7c7-4dec-a200-bb097afed2ab,1557377052,2019-05-09 12:44:12,1557377094,2019-05-09 12:44:54,1557377125,c3f97540e7034527ad3addf02bed0465-1557377050,http://postback.hopemobi.net/pb/lsr?transaction_id=c3f97540e7034527ad3addf02bed0465-1557377050&payout=1.7&sid=179-appier,idfa_b4e0569f-c7c7-4dec-a200-bb097afed2ab,ko
yAniMqyWQZ2FYp6rNM8Yrg,hopemobi,155_13_1860,install,1.7,61.37.103.227,cbff3d11-b503-4e9a-8d38-367ebcb16ac4,1557377230,2019-05-09 12:47:10,1557377263,2019-05-09 12:47:43,1557377295,652bf2cb48e649c7a9bf90c5d5cb5665-1557377220,http://postback.hopemobi.net/pb/lsr?transaction_id=652bf2cb48e649c7a9bf90c5d5cb5665-1557377220&payout=1.7&sid=179-appier,idfa_cbff3d11-b503-4e9a-8d38-367ebcb16ac4,ko
yAniMqyWQZ2FYp6rNM8Yrg,hopemobi,155_13_1860,install,1.7,125.180.43.181,9c9ca702-9681-4190-97cb-bea3572d2587,1557446506,2019-05-10 08:01:46,1557446549,2019-05-10 08:02:29,1557446580,a13652b886b0490886d9438dbcf0bc5d-1557446504,http://postback.hopemobi.net/pb/lsr?transaction_id=a13652b886b0490886d9438dbcf0bc5d-1557446504&payout=1.7&sid=179-appier,idfa_9c9ca702-9681-4190-97cb-bea3572d2587,ko
yAniMqyWQZ2FYp6rNM8Yrg,hopemobi,155_13_1860,install,1.7,116.122.223.193,81f28bd5-6de1-4fd2-b35f-be5a55f6cd16,1557446505,2019-05-10 08:01:45,1557446546,2019-05-10 08:02:26,1557446577,4bd9c00820f64d0fbf5487ab2b9e0f6a-1557446504,http://postback.hopemobi.net/pb/lsr?transaction_id=4bd9c00820f64d0fbf5487ab2b9e0f6a-1557446504&payout=1.7&sid=179-appier,idfa_81f28bd5-6de1-4fd2-b35f-be5a55f6cd16,ko
yAniMqyWQZ2FYp6rNM8Yrg,hopemobi,155_13_1860,install,1.7,112.214.166.242,d279a705-a2c1-4a99-9598-ed51b5cfc837,1557380009,2019-05-09 13:33:29,1557380227,2019-05-09 13:37:07,1557380258,805f0e042c774d3b9eed55a8aef7eebf-1557380006,http://postback.hopemobi.net/pb/lsr?transaction_id=805f0e042c774d3b9eed55a8aef7eebf-1557380006&payout=1.7&sid=179-appier,idfa_d279a705-a2c1-4a99-9598-ed51b5cfc837,ko
yAniMqyWQZ2FYp6rNM8Yrg,hopemobi,155_13_1860,install,1.7,222.235.250.159,dd7405bf-d912-4fde-815e-9f3d3cb03be8,1557467498,2019-05-10 13:51:38,1557467532,2019-05-10 13:52:12,1557467563,6627533cc90a4e7c8d776190a295b280-1557467496,http://postback.hopemobi.net/pb/lsr?transaction_id=6627533cc90a4e7c8d776190a295b280-1557467496&payout=1.7&sid=179-appier,idfa_dd7405bf-d912-4fde-815e-9f3d3cb03be8,ko
yAniMqyWQZ2FYp6rNM8Yrg,hopemobi,155_13_1860,install,1.7,175.223.17.155,1119bf66-80de-4a53-9ce4-9cf259ae2289,1557466470,2019-05-10 13:34:30,1557466636,2019-05-10 13:37:16,1557466667,bc4d9a55f45a491ead6ba3c61609179d-1557466468,http://postback.hopemobi.net/pb/lsr?transaction_id=bc4d9a55f45a491ead6ba3c61609179d-1557466468&payout=1.7&sid=179-appier,idfa_1119bf66-80de-4a53-9ce4-9cf259ae2289,ko
yAniMqyWQZ2FYp6rNM8Yrg,hopemobi,155_13_1860,install,1.7,211.36.139.31,bcbfb0cf-c7df-4723-9d1c-1fc6d455c45a,1557446510,2019-05-10 08:01:50,1557446736,2019-05-10 08:05:36,1557446767,284c02bace42474ab304721d956a720c-1557446508,http://postback.hopemobi.net/pb/lsr?transaction_id=284c02bace42474ab304721d956a720c-1557446508&payout=1.7&sid=179-appier,idfa_bcbfb0cf-c7df-4723-9d1c-1fc6d455c45a,ko
yAniMqyWQZ2FYp6rNM8Yrg,hopemobi,155_13_1860,install,1.7,223.62.21.51,c8821df5-3158-4ca4-a837-d3d621454288,1557446457,2019-05-10 08:00:57,1557446501,2019-05-10 08:01:41,1557446532,38515a3714d54f2ea144afb642e9a319-1557446455,http://postback.hopemobi.net/pb/lsr?transaction_id=38515a3714d54f2ea144afb642e9a319-1557446455&payout=1.7&sid=179-appier,idfa_c8821df5-3158-4ca4-a837-d3d621454288,ko
yAniMqyWQZ2FYp6rNM8Yrg,hopemobi,155_13_1860,install,1.7,1.216.132.156,c7d3a166-dc87-4107-97ff-774174b45a2e,1557466522,2019-05-10 13:35:22,1557466584,2019-05-10 13:36:24,1557466616,ddd5c71e4cbb4b6a9f6f593a3e4d70d5-1557466520,http://postback.hopemobi.net/pb/lsr?transaction_id=ddd5c71e4cbb4b6a9f6f593a3e4d70d5-1557466520&payout=1.7&sid=179-appier,idfa_c7d3a166-dc87-4107-97ff-774174b45a2e,ko
yAniMqyWQZ2FYp6rNM8Yrg,hopemobi,155_13_1860,install,1.7,124.194.42.178,618d4fe6-e046-4fd9-89ee-5c0d7f52f82b,1557466218,2019-05-10 13:30:18,1557466260,2019-05-10 13:31:00,1557466291,61a700818bde4b739ff3b18d9ec3b766-1557466217,http://postback.hopemobi.net/pb/lsr?transaction_id=61a700818bde4b739ff3b18d9ec3b766-1557466217&payout=1.7&sid=179-appier,idfa_618d4fe6-e046-4fd9-89ee-5c0d7f52f82b,ko
yAniMqyWQZ2FYp6rNM8Yrg,hopemobi,155_13_1860,install,1.7,223.62.202.75,57895f4a-3b3b-48e0-b4de-4fdbb32f99a9,1557378514,2019-05-09 13:08:34,1557378552,2019-05-09 13:09:12,1557378583,51a6fa8511db4302abf531acb150903a-1557378512,http://postback.hopemobi.net/pb/lsr?transaction_id=51a6fa8511db4302abf531acb150903a-1557378512&payout=1.7&sid=179-appier,idfa_57895f4a-3b3b-48e0-b4de-4fdbb32f99a9,ko
yAniMqyWQZ2FYp6rNM8Yrg,hopemobi,155_13_1860,install,1.7,49.171.253.195,e2b40cfa-9bc8-435e-84be-62f1bf36e9af,1557468957,2019-05-10 14:15:57,1557468999,2019-05-10 14:16:39,1557469030,93373e1f836242878d9f96d2526263b7-1557468955,http://postback.hopemobi.net/pb/lsr?transaction_id=93373e1f836242878d9f96d2526263b7-1557468955&payout=1.7&sid=179-appier,idfa_e2b40cfa-9bc8-435e-84be-62f1bf36e9af,ko
yAniMqyWQZ2FYp6rNM8Yrg,hopemobi,155_13_1860,install,1.7,222.118.72.220,c582622b-123f-4f51-81bc-f15487596272,1557465296,2019-05-10 13:14:56,1557465333,2019-05-10 13:15:33,1557465364,c5df7ec76e1242fb99c55f4099c54946-1557465294,http://postback.hopemobi.net/pb/lsr?transaction_id=c5df7ec76e1242fb99c55f4099c54946-1557465294&payout=1.7&sid=179-appier,idfa_c582622b-123f-4f51-81bc-f15487596272,ko
yAniMqyWQZ2FYp6rNM8Yrg,hopemobi,155_13_1860,install,1.7,118.40.250.178,31f9064f-131e-412a-9e5c-22465021ffae,1557446480,2019-05-10 08:01:20,1557446522,2019-05-10 08:02:02,1557446554,d9e58862a01c4239a3abe6f145664139-1557446479,http://postback.hopemobi.net/pb/lsr?transaction_id=d9e58862a01c4239a3abe6f145664139-1557446479&payout=1.7&sid=179-appier,idfa_31f9064f-131e-412a-9e5c-22465021ffae,ko
yAniMqyWQZ2FYp6rNM8Yrg,hopemobi,155_13_1860,install,1.7,223.62.213.83,47855ea3-c056-4797-99cd-c92976cdeac4,1557465257,2019-05-10 13:14:17,1557465296,2019-05-10 13:14:56,1557465328,522c3099aa06482db4a629f36152b62e-1557465254,http://postback.hopemobi.net/pb/lsr?transaction_id=522c3099aa06482db4a629f36152b62e-1557465254&payout=1.7&sid=179-appier,idfa_47855ea3-c056-4797-99cd-c92976cdeac4,ko
yAniMqyWQZ2FYp6rNM8Yrg,hopemobi,155_13_1860,install,1.5,112.153.212.48,ebb8f649-eaaa-40e8-8137-cdd0743f734d,1557317467,2019-05-08 20:11:07,1557317507,2019-05-08 20:11:47,1557317538,aec9ce3f867643e9a3116763a79f5b86-1557317466,http://postback.hopemobi.net/pb/lsr?transaction_id=aec9ce3f867643e9a3116763a79f5b86-1557317466&payout=1.5&sid=179-appier,idfa_ebb8f649-eaaa-40e8-8137-cdd0743f734d,ko
yAniMqyWQZ2FYp6rNM8Yrg,hopemobi,155_13_1860,install,1.5,14.46.45.14,4470f447-9b4e-47e0-a516-98f7bf7986b7,1557321373,2019-05-08 21:16:13,1557321416,2019-05-08 21:16:56,1557321447,75d6d224e63f49fdbb4e4c1e061d559d-1557321371,http://postback.hopemobi.net/pb/lsr?transaction_id=75d6d224e63f49fdbb4e4c1e061d559d-1557321371&payout=1.5&sid=179-appier,idfa_4470f447-9b4e-47e0-a516-98f7bf7986b7,ko
yAniMqyWQZ2FYp6rNM8Yrg,hopemobi,155_13_1860,install,1.7,122.34.59.70,7351b3eb-0b92-4d60-a71d-7422310e21dc,1557466574,2019-05-10 13:36:14,1557466613,2019-05-10 13:36:53,1557466644,a186c0f8e549457c874c387ee97a7302-1557466572,http://postback.hopemobi.net/pb/lsr?transaction_id=a186c0f8e549457c874c387ee97a7302-1557466572&payout=1.7&sid=179-appier,idfa_7351b3eb-0b92-4d60-a71d-7422310e21dc,ko
yAniMqyWQZ2FYp6rNM8Yrg,hopemobi,155_13_1860,install,1.5,211.36.146.17,84844b8f-e98b-49b4-be8a-0ee351b1e9fd,1557364576,2019-05-09 09:16:16,1557364615,2019-05-09 09:16:55,1557364646,1a6c2f20bcaf40e98185ca904ce8a645-1557364574,http://postback.hopemobi.net/pb/lsr?transaction_id=1a6c2f20bcaf40e98185ca904ce8a645-1557364574&payout=1.5&sid=179-appier,idfa_84844b8f-e98b-49b4-be8a-0ee351b1e9fd,ko
yAniMqyWQZ2FYp6rNM8Yrg,hopemobi,155_13_1860,install,1.5,1.242.224.172,dc0a5e4d-0f83-4d90-9add-875f84595593,1557317470,2019-05-08 20:11:10,1557317538,2019-05-08 20:12:18,1557317806,986e1cc7fc044afbb1b3d0ccb85b90a2-1557317457,http://postback.hopemobi.net/pb/lsr?transaction_id=986e1cc7fc044afbb1b3d0ccb85b90a2-1557317457&payout=1.5&sid=179-appier,idfa_dc0a5e4d-0f83-4d90-9add-875f84595593,ko
yAniMqyWQZ2FYp6rNM8Yrg,hopemobi,155_13_1860,install,1.7,211.244.188.33,ef9dd163-ce0f-4499-b00b-e68efdcd6df8,1557468026,2019-05-10 14:00:26,1557468064,2019-05-10 14:01:04,1557468095,cd069625f212422d826946cea13f212e-1557468024,http://postback.hopemobi.net/pb/lsr?transaction_id=cd069625f212422d826946cea13f212e-1557468024&payout=1.7&sid=179-appier,idfa_ef9dd163-ce0f-4499-b00b-e68efdcd6df8,ko
yAniMqyWQZ2FYp6rNM8Yrg,hopemobi,155_13_1860,install,1.7,27.35.100.42,2ed9942a-85a9-4781-9832-25fd5befc0cc,1557379848,2019-05-09 13:30:48,1557379886,2019-05-09 13:31:26,1557379918,a6d423419c814ceb840685a34cb396ea-1557379840,http://postback.hopemobi.net/pb/lsr?transaction_id=a6d423419c814ceb840685a34cb396ea-1557379840&payout=1.7&sid=179-appier,idfa_2ed9942a-85a9-4781-9832-25fd5befc0cc,ko
yAniMqyWQZ2FYp6rNM8Yrg,hopemobi,155_13_1860,install,1.5,116.122.194.110,2bec03ab-9d94-4b5b-abdc-e9bb3d637c6a,1557317290,2019-05-08 20:08:10,1557317333,2019-05-08 20:08:53,1557317364,610f6ff89e834c31a36147a1aba95800-1557317288,http://postback.hopemobi.net/pb/lsr?transaction_id=610f6ff89e834c31a36147a1aba95800-1557317288&payout=1.5&sid=179-appier,idfa_2bec03ab-9d94-4b5b-abdc-e9bb3d637c6a,ko
yAniMqyWQZ2FYp6rNM8Yrg,hopemobi,155_13_1860,install,1.7,175.200.70.114,08a92e66-6ca3-4b49-9e7b-7289a57fd69b,1557469019,2019-05-10 14:16:59,1557469131,2019-05-10 14:18:51,1557469162,5678c0add631473ebb9ab57d1e72c26e-1557469013,http://postback.hopemobi.net/pb/lsr?transaction_id=5678c0add631473ebb9ab57d1e72c26e-1557469013&payout=1.7&sid=179-appier,idfa_08a92e66-6ca3-4b49-9e7b-7289a57fd69b,ko
yAniMqyWQZ2FYp6rNM8Yrg,hopemobi,155_13_1860,install,1.7,119.206.86.178,69e379af-3106-47fd-9125-1d938b4c0949,1557380869,2019-05-09 13:47:49,1557380911,2019-05-09 13:48:31,1557380942,f6674b93cc2e4d5ea11a48beb4b66c54-1557380867,http://postback.hopemobi.net/pb/lsr?transaction_id=f6674b93cc2e4d5ea11a48beb4b66c54-1557380867&payout=1.7&sid=179-appier,idfa_69e379af-3106-47fd-9125-1d938b4c0949,ko
yAniMqyWQZ2FYp6rNM8Yrg,hopemobi,155_13_1860,install,1.7,58.234.60.118,968f1990-94fa-4b57-a0c5-bac30c84e192,1557377778,2019-05-09 12:56:18,1557377816,2019-05-09 12:56:56,1557377848,751c1df7f7d94a94a973d6f95a8f658e-1557377776,http://postback.hopemobi.net/pb/lsr?transaction_id=751c1df7f7d94a94a973d6f95a8f658e-1557377776&payout=1.7&sid=179-appier,idfa_968f1990-94fa-4b57-a0c5-bac30c84e192,ko
