cid,partner_id,channel_id,action_id,cpi,ip,idfa,click time,click datetime,install time,install datetime,postback time,click id,postback url,unique user id
LHetQVlWRxCp1iomufJvBg,hopemobi,128_16_1509_9527,install,0.8,223.38.35.80,f9af15f3-e5ee-4739-8020-62173338cbc8,1559216862,2019-05-30 19:47:42,1559216933,2019-05-30 19:48:53,1559216964,231d6d03121041d2ae6910cd0071ba10-1559216859,http://postback.hopemobi.net/pb/lsr?transaction_id=231d6d03121041d2ae6910cd0071ba10-1559216859&payout=0.8&sid=179-appier,idfa_f9af15f3-e5ee-4739-8020-62173338cbc8,ko
LHetQVlWRxCp1iomufJvBg,hopemobi,128_16_1509_9527,install,0.8,220.77.89.50,e9f6a106-3124-42ec-a69e-73efa6903878,1559217429,2019-05-30 19:57:09,1559218245,2019-05-30 20:10:45,1559218275,f820727f74cd42db87404bbe557acfbd-1559217427,http://postback.hopemobi.net/pb/lsr?transaction_id=f820727f74cd42db87404bbe557acfbd-1559217427&payout=0.8&sid=179-appier,idfa_e9f6a106-3124-42ec-a69e-73efa6903878,ko
LHetQVlWRxCp1iomufJvBg,hopemobi,128_16_1509_9527,install,0.8,58.238.141.206,13504fef-8c34-4fae-bdc9-104f63593a0e,1559217847,2019-05-30 20:04:07,1559217920,2019-05-30 20:05:20,1559217952,d947a79d8ecf4f89bcf1ea7cec924c26-1559217845,http://postback.hopemobi.net/pb/lsr?transaction_id=d947a79d8ecf4f89bcf1ea7cec924c26-1559217845&payout=0.8&sid=179-appier,idfa_13504fef-8c34-4fae-bdc9-104f63593a0e,ko
LHetQVlWRxCp1iomufJvBg,hopemobi,128_16_1509_9527,install,0.8,117.111.15.21,c3766c26-e78e-455b-9b1b-bada7688e0c2,1559218150,2019-05-30 20:09:10,1559218222,2019-05-30 20:10:22,1559218253,f2a80669c78a42918f34dc873279862e-1559218148,http://postback.hopemobi.net/pb/lsr?transaction_id=f2a80669c78a42918f34dc873279862e-1559218148&payout=0.8&sid=179-appier,idfa_c3766c26-e78e-455b-9b1b-bada7688e0c2,ko
LHetQVlWRxCp1iomufJvBg,hopemobi,128_16_1509_9527,install,0.8,14.47.214.193,4e5cabd9-0343-48d3-ab77-ffcd7eda9543,1559218326,2019-05-30 20:12:06,1559218403,2019-05-30 20:13:23,1559218434,b698e9e6efaf4760bd75d0bf4e4e6030-1559218325,http://postback.hopemobi.net/pb/lsr?transaction_id=b698e9e6efaf4760bd75d0bf4e4e6030-1559218325&payout=0.8&sid=179-appier,idfa_4e5cabd9-0343-48d3-ab77-ffcd7eda9543,ko
LHetQVlWRxCp1iomufJvBg,hopemobi,128_16_1509_9527,install,0.8,222.232.155.69,0542530e-97c6-427e-860a-dc6ee6935386,1559217253,2019-05-30 19:54:13,1559217325,2019-05-30 19:55:25,1559217356,eaad39fb0d3c47c7b32e428bf3c4e6e3-1559217251,http://postback.hopemobi.net/pb/lsr?transaction_id=eaad39fb0d3c47c7b32e428bf3c4e6e3-1559217251&payout=0.8&sid=179-appier,idfa_0542530e-97c6-427e-860a-dc6ee6935386,ko
LHetQVlWRxCp1iomufJvBg,hopemobi,128_16_1509_9527,install,0.8,211.176.163.144,5fd2873b-a87e-45ca-84cd-da6f686c9daf,1559217608,2019-05-30 20:00:08,1559217681,2019-05-30 20:01:21,1559217712,0c07b8f480ac4fa48ec6eddd6e9850ab-1559217607,http://postback.hopemobi.net/pb/lsr?transaction_id=0c07b8f480ac4fa48ec6eddd6e9850ab-1559217607&payout=0.8&sid=179-appier,idfa_5fd2873b-a87e-45ca-84cd-da6f686c9daf,ko
LHetQVlWRxCp1iomufJvBg,hopemobi,128_16_1509_9527,install,0.8,115.138.168.39,c2001db3-69a0-4b25-86aa-433297ee054a,1559218870,2019-05-30 20:21:10,1559218945,2019-05-30 20:22:25,1559218976,3e35a023318745a8809b99318375e3b8-1559218869,http://postback.hopemobi.net/pb/lsr?transaction_id=3e35a023318745a8809b99318375e3b8-1559218869&payout=0.8&sid=179-appier,idfa_c2001db3-69a0-4b25-86aa-433297ee054a,ko
LHetQVlWRxCp1iomufJvBg,hopemobi,128_16_1509_9527,install,0.8,110.9.125.124,0c4bd8f5-3f9d-4052-9a6b-cd93eecb933c,1559218215,2019-05-30 20:10:15,1559218291,2019-05-30 20:11:31,1559218322,00e69071c4e741f9b76cae745a30041c-1559218214,http://postback.hopemobi.net/pb/lsr?transaction_id=00e69071c4e741f9b76cae745a30041c-1559218214&payout=0.8&sid=179-appier,idfa_0c4bd8f5-3f9d-4052-9a6b-cd93eecb933c,ko
LHetQVlWRxCp1iomufJvBg,hopemobi,128_16_1509_9527,install,0.8,59.17.249.147,8c80c300-b9fd-4bae-806f-a4e7f75d78c3,1559217252,2019-05-30 19:54:12,1559217323,2019-05-30 19:55:23,1559217355,3ec2141506ae4a869cb1449e8feba649-1559217249,http://postback.hopemobi.net/pb/lsr?transaction_id=3ec2141506ae4a869cb1449e8feba649-1559217249&payout=0.8&sid=179-appier,idfa_8c80c300-b9fd-4bae-806f-a4e7f75d78c3,ko
LHetQVlWRxCp1iomufJvBg,hopemobi,128_16_1509_9527,install,0.8,218.236.120.9,34b6b4f8-e75a-4d24-89c2-81b0e01857ae,1559219048,2019-05-30 20:24:08,1559219120,2019-05-30 20:25:20,1559219151,9f53cdf5c57a4e7e85a240fcbd8a04a2-1559219045,http://postback.hopemobi.net/pb/lsr?transaction_id=9f53cdf5c57a4e7e85a240fcbd8a04a2-1559219045&payout=0.8&sid=179-appier,idfa_34b6b4f8-e75a-4d24-89c2-81b0e01857ae,ko
LHetQVlWRxCp1iomufJvBg,hopemobi,128_16_1509_9527,install,0.8,116.40.243.10,56b4f827-1ae5-40c6-add7-a8f0625ab097,1559218570,2019-05-30 20:16:10,1559218640,2019-05-30 20:17:20,1559218672,5fbe519e1c7d4bbebce22638ee2e18ae-1559218568,http://postback.hopemobi.net/pb/lsr?transaction_id=5fbe519e1c7d4bbebce22638ee2e18ae-1559218568&payout=0.8&sid=179-appier,idfa_56b4f827-1ae5-40c6-add7-a8f0625ab097,ko
LHetQVlWRxCp1iomufJvBg,hopemobi,128_16_1509_9527,install,0.8,121.132.80.241,a83bf81f-3850-4a89-b6c1-b75ff4dab2b3,1559219292,2019-05-30 20:28:12,1559219361,2019-05-30 20:29:21,1559219392,3d3cc714c78a4be4ad43a71dd4ceb9e0-1559219286,http://postback.hopemobi.net/pb/lsr?transaction_id=3d3cc714c78a4be4ad43a71dd4ceb9e0-1559219286&payout=0.8&sid=179-appier,idfa_a83bf81f-3850-4a89-b6c1-b75ff4dab2b3,ko
LHetQVlWRxCp1iomufJvBg,hopemobi,128_16_1509_9527,install,0.8,118.91.104.171,38b5f9c2-b140-4fef-b5ad-c7d7749a3e27,1559218393,2019-05-30 20:13:13,1559218464,2019-05-30 20:14:24,1559218496,ff7a62c5ea874722a2efcb80253cee1d-1559218391,http://postback.hopemobi.net/pb/lsr?transaction_id=ff7a62c5ea874722a2efcb80253cee1d-1559218391&payout=0.8&sid=179-appier,idfa_38b5f9c2-b140-4fef-b5ad-c7d7749a3e27,ko
LHetQVlWRxCp1iomufJvBg,hopemobi,128_16_1509_9527,install,0.8,223.39.145.22,9ed327a5-2ada-43e8-81ad-33105cb2ea54,1559218510,2019-05-30 20:15:10,1559218584,2019-05-30 20:16:24,1559218615,82bd643241d44a41830d4ddd472c1c39-1559218507,http://postback.hopemobi.net/pb/lsr?transaction_id=82bd643241d44a41830d4ddd472c1c39-1559218507&payout=0.8&sid=179-appier,idfa_9ed327a5-2ada-43e8-81ad-33105cb2ea54,ko
LHetQVlWRxCp1iomufJvBg,hopemobi,128_16_1509_9527,install,0.8,58.125.129.67,30849814-4172-4617-b6d0-862830215a18,1559217972,2019-05-30 20:06:12,1559218047,2019-05-30 20:07:27,1559218078,12e926483959441a8f0711212e8d5a93-1559217970,http://postback.hopemobi.net/pb/lsr?transaction_id=12e926483959441a8f0711212e8d5a93-1559217970&payout=0.8&sid=179-appier,idfa_30849814-4172-4617-b6d0-862830215a18,ko
LHetQVlWRxCp1iomufJvBg,hopemobi,128_16_1509_9527,install,0.8,211.36.142.230,6788a4a1-7c9d-4b40-918f-b093c6fd0e00,1559219409,2019-05-30 20:30:09,1559219488,2019-05-30 20:31:28,1559219616,3df9ddad37a540fca1edaa733446d6f1-1559219408,http://postback.hopemobi.net/pb/lsr?transaction_id=3df9ddad37a540fca1edaa733446d6f1-1559219408&payout=0.8&sid=179-appier,idfa_6788a4a1-7c9d-4b40-918f-b093c6fd0e00,ko
LHetQVlWRxCp1iomufJvBg,hopemobi,128_16_1509_9527,install,0.8,211.36.133.184,79cf9853-0499-4770-9e88-7e067929e722,1559219381,2019-05-30 20:29:41,1559220263,2019-05-30 20:44:23,1559220295,ab056f28cbae4787961b2fd2f6f2807c-1559219352,http://postback.hopemobi.net/pb/lsr?transaction_id=ab056f28cbae4787961b2fd2f6f2807c-1559219352&payout=0.8&sid=179-appier,idfa_79cf9853-0499-4770-9e88-7e067929e722,ko
LHetQVlWRxCp1iomufJvBg,hopemobi,128_16_1509_9527,install,0.8,220.118.22.234,982a510b-5a6f-45e3-bf38-34852d16cc3e,1559218028,2019-05-30 20:07:08,1559218100,2019-05-30 20:08:20,1559218131,5e6e8cb3a7764a76bd4b5e9b45ef2b80-1559218027,http://postback.hopemobi.net/pb/lsr?transaction_id=5e6e8cb3a7764a76bd4b5e9b45ef2b80-1559218027&payout=0.8&sid=179-appier,idfa_982a510b-5a6f-45e3-bf38-34852d16cc3e,ko
LHetQVlWRxCp1iomufJvBg,hopemobi,128_16_1509_9527,install,0.8,175.199.32.194,aab5ea44-f162-4f02-913f-c87e54bfa3a5,1559217989,2019-05-30 20:06:29,1559218140,2019-05-30 20:09:00,1559218171,b670a418228747daa7fd93206b4a96c7-1559217987,http://postback.hopemobi.net/pb/lsr?transaction_id=b670a418228747daa7fd93206b4a96c7-1559217987&payout=0.8&sid=179-appier,idfa_aab5ea44-f162-4f02-913f-c87e54bfa3a5,ko
LHetQVlWRxCp1iomufJvBg,hopemobi,128_16_1509_9527,install,0.8,221.156.54.145,6f2b6084-c43e-49cc-8811-c0d791e33a57,1559218210,2019-05-30 20:10:10,1559218285,2019-05-30 20:11:25,1559218316,4127428d93dc496c90a45000cdb1d32b-1559218208,http://postback.hopemobi.net/pb/lsr?transaction_id=4127428d93dc496c90a45000cdb1d32b-1559218208&payout=0.8&sid=179-appier,idfa_6f2b6084-c43e-49cc-8811-c0d791e33a57,ko
LHetQVlWRxCp1iomufJvBg,hopemobi,128_16_1509_9527,install,0.8,61.101.78.139,0f73f9e1-a86d-49cf-82c4-05eb5010f9ca,1559219348,2019-05-30 20:29:08,1559219427,2019-05-30 20:30:27,1559219458,cb2f1b68f94642ab8dc75cc552b34b6b-1559219346,http://postback.hopemobi.net/pb/lsr?transaction_id=cb2f1b68f94642ab8dc75cc552b34b6b-1559219346&payout=0.8&sid=179-appier,idfa_0f73f9e1-a86d-49cf-82c4-05eb5010f9ca,ko
LHetQVlWRxCp1iomufJvBg,hopemobi,128_16_1509_9527,install,0.8,115.90.178.3,5173c230-b462-4601-b6e9-bb01eed0a8b4,1559218806,2019-05-30 20:20:06,1559218880,2019-05-30 20:21:20,1559218912,ab26b7080bb34ac983d7cadc74763b88-1559218805,http://postback.hopemobi.net/pb/lsr?transaction_id=ab26b7080bb34ac983d7cadc74763b88-1559218805&payout=0.8&sid=179-appier,idfa_5173c230-b462-4601-b6e9-bb01eed0a8b4,ko
LHetQVlWRxCp1iomufJvBg,hopemobi,128_16_1509_9527,install,0.8,39.114.181.237,7d227018-2320-4859-9dc2-c3e754417020,1559217973,2019-05-30 20:06:13,1559218054,2019-05-30 20:07:34,1559218085,965300fd9075498eac11894855207c39-1559217971,http://postback.hopemobi.net/pb/lsr?transaction_id=965300fd9075498eac11894855207c39-1559217971&payout=0.8&sid=179-appier,idfa_7d227018-2320-4859-9dc2-c3e754417020,ko
LHetQVlWRxCp1iomufJvBg,hopemobi,128_16_1509_9527,install,0.8,220.123.174.78,165eb5b2-368d-4138-b8b8-a818d597a313,1559219362,2019-05-30 20:29:22,1559219501,2019-05-30 20:31:41,1559219533,983e53a761634dd49ed99b9d04da07da-1559219360,http://postback.hopemobi.net/pb/lsr?transaction_id=983e53a761634dd49ed99b9d04da07da-1559219360&payout=0.8&sid=179-appier,idfa_165eb5b2-368d-4138-b8b8-a818d597a313,ko
LHetQVlWRxCp1iomufJvBg,hopemobi,128_16_1509_9527,install,0.8,183.105.176.241,9a11003f-fc35-4137-ad28-eed4ad85153b,1559217312,2019-05-30 19:55:12,1559217382,2019-05-30 19:56:22,1559217413,6e0e29dfb01042da901742442d98c4ba-1559217310,http://postback.hopemobi.net/pb/lsr?transaction_id=6e0e29dfb01042da901742442d98c4ba-1559217310&payout=0.8&sid=179-appier,idfa_9a11003f-fc35-4137-ad28-eed4ad85153b,ko
LHetQVlWRxCp1iomufJvBg,hopemobi,128_16_1509_9527,install,0.8,175.125.199.162,cffe0510-abec-4d43-b72c-5f647d993ec5,1559217054,2019-05-30 19:50:54,1559217130,2019-05-30 19:52:10,1559217161,c7cbeb31705340cc91b24c2b8e3491ee-1559217053,http://postback.hopemobi.net/pb/lsr?transaction_id=c7cbeb31705340cc91b24c2b8e3491ee-1559217053&payout=0.8&sid=179-appier,idfa_cffe0510-abec-4d43-b72c-5f647d993ec5,ko
LHetQVlWRxCp1iomufJvBg,hopemobi,128_16_1509_9527,install,0.8,116.45.90.49,eb75ac8d-05c9-4689-a4de-9c41d003ff3f,1559219468,2019-05-30 20:31:08,1559219539,2019-05-30 20:32:19,1559219571,4182fcbbbfe24abb9788892931e704ae-1559219465,http://postback.hopemobi.net/pb/lsr?transaction_id=4182fcbbbfe24abb9788892931e704ae-1559219465&payout=0.8&sid=179-appier,idfa_eb75ac8d-05c9-4689-a4de-9c41d003ff3f,ko
LHetQVlWRxCp1iomufJvBg,hopemobi,128_16_1509_9527,install,0.8,119.192.65.164,3d209cb5-62c0-4576-bf82-eb1c0ba2fb50,1559218166,2019-05-30 20:09:26,1559218230,2019-05-30 20:10:30,1559218262,e855d6266c554fa485d4f0768d2fb764-1559218163,http://postback.hopemobi.net/pb/lsr?transaction_id=e855d6266c554fa485d4f0768d2fb764-1559218163&payout=0.8&sid=179-appier,idfa_3d209cb5-62c0-4576-bf82-eb1c0ba2fb50,ko
LHetQVlWRxCp1iomufJvBg,hopemobi,128_16_1509_9527,install,0.8,175.223.20.239,2d6fb115-5755-42fd-9fee-6294c9482570,1559218150,2019-05-30 20:09:10,1559218222,2019-05-30 20:10:22,1559218252,ecbae81bf212447bb613e2fa00e1b169-1559218147,http://postback.hopemobi.net/pb/lsr?transaction_id=ecbae81bf212447bb613e2fa00e1b169-1559218147&payout=0.8&sid=179-appier,idfa_2d6fb115-5755-42fd-9fee-6294c9482570,ko
LHetQVlWRxCp1iomufJvBg,hopemobi,128_16_1509_9527,install,0.8,211.200.71.65,3afb2d7e-3162-4167-b422-5de43085637f,1559216944,2019-05-30 19:49:04,1559217023,2019-05-30 19:50:23,1559217055,217028c992704feaad355505c289c168-1559216942,http://postback.hopemobi.net/pb/lsr?transaction_id=217028c992704feaad355505c289c168-1559216942&payout=0.8&sid=179-appier,idfa_3afb2d7e-3162-4167-b422-5de43085637f,ko
