cid,partner_id,channel_id,action_id,cpi,ip,idfa,click time,click datetime,install time,install datetime,postback time,click id,postback url,unique user id
H3W_862KREOBrNdK8Y-TkQ,hopemobi,156_0369,install,1.6,153.132.53.225,8d6e9cd1-9b3a-4b6a-ab82-10b043f3e603,1557867775,2019-05-15 05:02:55,1557867811,2019-05-15 05:03:31,1557867841,f375bd01adf9406b84b699409135c45a-1557867772,http://postback.hopemobi.net/pb/lsr?transaction_id=f375bd01adf9406b84b699409135c45a-1557867772&payout=1.6&sid=179-appier,idfa_8d6e9cd1-9b3a-4b6a-ab82-10b043f3e603,ja
H3W_862KREOBrNdK8Y-TkQ,hopemobi,156_0369,install,1.6,180.198.202.105,6eeb4661-b990-45d4-99a0-a5c12639454b,1557828665,2019-05-14 18:11:05,1557828704,2019-05-14 18:11:44,1557828735,ce78167cedad4656893ed27d1d765b1d-1557828663,http://postback.hopemobi.net/pb/lsr?transaction_id=ce78167cedad4656893ed27d1d765b1d-1557828663&payout=1.6&sid=179-appier,idfa_6eeb4661-b990-45d4-99a0-a5c12639454b,ja
H3W_862KREOBrNdK8Y-TkQ,hopemobi,156_0369,install,1.6,1.75.1.132,94b11fb6-1775-42d5-9b8e-550f9d37f88d,1557849171,2019-05-14 23:52:51,1557849208,2019-05-14 23:53:28,1557849239,9fb2f1dc96d842d7bc3812c55915c8c9-1557849169,http://postback.hopemobi.net/pb/lsr?transaction_id=9fb2f1dc96d842d7bc3812c55915c8c9-1557849169&payout=1.6&sid=179-appier,idfa_94b11fb6-1775-42d5-9b8e-550f9d37f88d,ja
H3W_862KREOBrNdK8Y-TkQ,hopemobi,156_0369,install,1.6,175.134.133.207,a5667df7-26dd-43fa-af77-1a5f2722c4dd,1557849249,2019-05-14 23:54:09,1557849287,2019-05-14 23:54:47,1557849318,ea7bb9d9aa8345b69373dfc4cc7195c5-1557849246,http://postback.hopemobi.net/pb/lsr?transaction_id=ea7bb9d9aa8345b69373dfc4cc7195c5-1557849246&payout=1.6&sid=179-appier,idfa_a5667df7-26dd-43fa-af77-1a5f2722c4dd,ja
H3W_862KREOBrNdK8Y-TkQ,hopemobi,156_0369,install,1.6,153.169.89.179,051cbaf7-e361-4bc3-abff-74405d9cbf1f,1557869242,2019-05-15 05:27:22,1557869283,2019-05-15 05:28:03,1557869313,3f1076f8e16b4bf38308820b697a6a39-1557869241,http://postback.hopemobi.net/pb/lsr?transaction_id=3f1076f8e16b4bf38308820b697a6a39-1557869241&payout=1.6&sid=179-appier,idfa_051cbaf7-e361-4bc3-abff-74405d9cbf1f,ja
H3W_862KREOBrNdK8Y-TkQ,hopemobi,156_0369,install,1.6,126.225.75.238,6925c77c-9459-4fed-b816-c3fc69d0c828,1557830473,2019-05-14 18:41:13,1557830556,2019-05-14 18:42:36,1557830588,f0fdea985b2749a7a4ead534460025fc-1557830470,http://postback.hopemobi.net/pb/lsr?transaction_id=f0fdea985b2749a7a4ead534460025fc-1557830470&payout=1.6&sid=179-appier,idfa_6925c77c-9459-4fed-b816-c3fc69d0c828,ja
H3W_862KREOBrNdK8Y-TkQ,hopemobi,156_0369,install,1.6,106.72.142.128,f3470a25-e999-4b8a-9ff8-2dcd837f539e,1557849173,2019-05-14 23:52:53,1557849211,2019-05-14 23:53:31,1557849243,835584ee8176470cbf06c064d511f39d-1557849171,http://postback.hopemobi.net/pb/lsr?transaction_id=835584ee8176470cbf06c064d511f39d-1557849171&payout=1.6&sid=179-appier,idfa_f3470a25-e999-4b8a-9ff8-2dcd837f539e,ja
H3W_862KREOBrNdK8Y-TkQ,hopemobi,156_0369,install,1.6,106.73.231.192,c799cbb9-ea7a-4410-a4d3-e9321747653b,1557868042,2019-05-15 05:07:22,1557868078,2019-05-15 05:07:58,1557868109,12e9fa18b38a4afdae8fd5b9921b4cbb-1557868038,http://postback.hopemobi.net/pb/lsr?transaction_id=12e9fa18b38a4afdae8fd5b9921b4cbb-1557868038&payout=1.6&sid=179-appier,idfa_c799cbb9-ea7a-4410-a4d3-e9321747653b,ja
H3W_862KREOBrNdK8Y-TkQ,hopemobi,156_0369,install,1.6,219.160.112.210,e706e981-a97b-4c50-ba69-e573d011aa6a,1557868458,2019-05-15 05:14:18,1557868501,2019-05-15 05:15:01,1557868532,0ca2dca598274001bee09ab0458fb94e-1557868456,http://postback.hopemobi.net/pb/lsr?transaction_id=0ca2dca598274001bee09ab0458fb94e-1557868456&payout=1.6&sid=179-appier,idfa_e706e981-a97b-4c50-ba69-e573d011aa6a,ja
H3W_862KREOBrNdK8Y-TkQ,hopemobi,156_0369,install,1.6,111.239.236.149,7c9ea193-5f8a-49a8-b911-b53c3f057515,1557830883,2019-05-14 18:48:03,1557830923,2019-05-14 18:48:43,1557830956,0ac3307e40454393ac685ade8d12ba6c-1557830881,http://postback.hopemobi.net/pb/lsr?transaction_id=0ac3307e40454393ac685ade8d12ba6c-1557830881&payout=1.6&sid=179-appier,idfa_7c9ea193-5f8a-49a8-b911-b53c3f057515,ja
H3W_862KREOBrNdK8Y-TkQ,hopemobi,156_0369,install,1.6,111.216.46.173,07d17d9a-7b88-45bc-88d5-bb46608c5b29,1557866550,2019-05-15 04:42:30,1557866589,2019-05-15 04:43:09,1557866620,397f574ea2c2433ea02bb9d0315d697f-1557866549,http://postback.hopemobi.net/pb/lsr?transaction_id=397f574ea2c2433ea02bb9d0315d697f-1557866549&payout=1.6&sid=179-appier,idfa_07d17d9a-7b88-45bc-88d5-bb46608c5b29,ja
H3W_862KREOBrNdK8Y-TkQ,hopemobi,156_0369,install,1.6,111.239.163.55,df00f1e8-ee5f-4dac-99cf-9cda55c62fea,1557866552,2019-05-15 04:42:32,1557866705,2019-05-15 04:45:05,1557866736,680467ebef14444980fa89349bf22c7d-1557866550,http://postback.hopemobi.net/pb/lsr?transaction_id=680467ebef14444980fa89349bf22c7d-1557866550&payout=1.6&sid=179-appier,idfa_df00f1e8-ee5f-4dac-99cf-9cda55c62fea,ja
H3W_862KREOBrNdK8Y-TkQ,hopemobi,156_0369,install,1.6,126.234.123.41,d3a1623a-0546-4a5f-a4a0-05bb3c15b1ce,1557867827,2019-05-15 05:03:47,1557867866,2019-05-15 05:04:26,1557867897,1efc33a9675c40f0a282294888bf7df2-1557867825,http://postback.hopemobi.net/pb/lsr?transaction_id=1efc33a9675c40f0a282294888bf7df2-1557867825&payout=1.6&sid=179-appier,idfa_d3a1623a-0546-4a5f-a4a0-05bb3c15b1ce,ja
H3W_862KREOBrNdK8Y-TkQ,hopemobi,156_0369,install,1.6,14.11.4.32,0a1420e8-ed8f-40bc-948c-fe14f1db923e,1557868831,2019-05-15 05:20:31,1557868872,2019-05-15 05:21:12,1557868903,a7427fea9fda49d880ec4a4e3944ca12-1557868829,http://postback.hopemobi.net/pb/lsr?transaction_id=a7427fea9fda49d880ec4a4e3944ca12-1557868829&payout=1.6&sid=179-appier,idfa_0a1420e8-ed8f-40bc-948c-fe14f1db923e,ja
H3W_862KREOBrNdK8Y-TkQ,hopemobi,156_0369,install,1.6,60.97.131.132,1646c2ae-f1d4-4f49-bc03-04d8c065f06d,1557830137,2019-05-14 18:35:37,1557830180,2019-05-14 18:36:20,1557830211,ada705545ed945e7bc0a5c65307e73e7-1557830135,http://postback.hopemobi.net/pb/lsr?transaction_id=ada705545ed945e7bc0a5c65307e73e7-1557830135&payout=1.6&sid=179-appier,idfa_1646c2ae-f1d4-4f49-bc03-04d8c065f06d,ja
H3W_862KREOBrNdK8Y-TkQ,hopemobi,156_0369,install,1.6,14.12.149.224,1bedc5ee-136e-4ea1-8043-8881c99678a8,1557829763,2019-05-14 18:29:23,1557829800,2019-05-14 18:30:00,1557829830,ff0f379366824925a8ae98b65f3e26c3-1557829761,http://postback.hopemobi.net/pb/lsr?transaction_id=ff0f379366824925a8ae98b65f3e26c3-1557829761&payout=1.6&sid=179-appier,idfa_1bedc5ee-136e-4ea1-8043-8881c99678a8,ja
H3W_862KREOBrNdK8Y-TkQ,hopemobi,156_0369,install,1.6,180.63.137.123,1deffd9c-16b5-4996-bf90-da0bdc2e30dc,1557828763,2019-05-14 18:12:43,1557828803,2019-05-14 18:13:23,1557828837,39fd0a706c1945d4ad9b090bb93c54e5-1557828760,http://postback.hopemobi.net/pb/lsr?transaction_id=39fd0a706c1945d4ad9b090bb93c54e5-1557828760&payout=1.6&sid=179-appier,idfa_1deffd9c-16b5-4996-bf90-da0bdc2e30dc,ja
H3W_862KREOBrNdK8Y-TkQ,hopemobi,156_0369,install,1.6,153.176.226.81,75ea6789-8a09-40ba-bff2-93da91131591,1557867884,2019-05-15 05:04:44,1557867922,2019-05-15 05:05:22,1557867952,1d06cd83e7a74c478ae77ded5cda6342-1557867882,http://postback.hopemobi.net/pb/lsr?transaction_id=1d06cd83e7a74c478ae77ded5cda6342-1557867882&payout=1.6&sid=179-appier,idfa_75ea6789-8a09-40ba-bff2-93da91131591,ja
H3W_862KREOBrNdK8Y-TkQ,hopemobi,156_0369,install,1.6,126.141.200.176,548e4855-20ae-4908-9c86-ac6db26f5c6b,1557867831,2019-05-15 05:03:51,1557867880,2019-05-15 05:04:40,1557867913,cd41dfc247bd463fa68a7cfd559d551e-1557867829,http://postback.hopemobi.net/pb/lsr?transaction_id=cd41dfc247bd463fa68a7cfd559d551e-1557867829&payout=1.6&sid=179-appier,idfa_548e4855-20ae-4908-9c86-ac6db26f5c6b,ja
H3W_862KREOBrNdK8Y-TkQ,hopemobi,156_0369,install,1.6,122.209.233.72,4e9b9368-16a9-4fca-9433-c6d04811123c,1557867828,2019-05-15 05:03:48,1557867868,2019-05-15 05:04:28,1557867899,bf2c56be852f4f159895d843b2399724-1557867826,http://postback.hopemobi.net/pb/lsr?transaction_id=bf2c56be852f4f159895d843b2399724-1557867826&payout=1.6&sid=179-appier,idfa_4e9b9368-16a9-4fca-9433-c6d04811123c,ja
H3W_862KREOBrNdK8Y-TkQ,hopemobi,156_0369,install,1.6,121.115.50.220,57d12ddc-c47e-45ef-8d5d-655c7eabb910,1557868997,2019-05-15 05:23:17,1557869183,2019-05-15 05:26:23,1557869214,55d5442b04e748a8800912c360056c85-1557868996,http://postback.hopemobi.net/pb/lsr?transaction_id=55d5442b04e748a8800912c360056c85-1557868996&payout=1.6&sid=179-appier,idfa_57d12ddc-c47e-45ef-8d5d-655c7eabb910,ja
H3W_862KREOBrNdK8Y-TkQ,hopemobi,156_0369,install,1.6,125.198.213.192,669b06e6-1834-4b52-b0b2-24a114a9a6d8,1557849821,2019-05-15 00:03:41,1557849859,2019-05-15 00:04:19,1557849890,5745e6df177544449fe589d1d44a7e84-1557849820,http://postback.hopemobi.net/pb/lsr?transaction_id=5745e6df177544449fe589d1d44a7e84-1557849820&payout=1.6&sid=179-appier,idfa_669b06e6-1834-4b52-b0b2-24a114a9a6d8,ja
H3W_862KREOBrNdK8Y-TkQ,hopemobi,156_0369,install,1.6,14.9.65.0,58e0bf70-ac63-46e9-8a35-e4c2ddbc6890,1557868156,2019-05-15 05:09:16,1557868203,2019-05-15 05:10:03,1557868234,74b0cc2ed864459da0de8e04bf6365b5-1557868154,http://postback.hopemobi.net/pb/lsr?transaction_id=74b0cc2ed864459da0de8e04bf6365b5-1557868154&payout=1.6&sid=179-appier,idfa_58e0bf70-ac63-46e9-8a35-e4c2ddbc6890,ja
H3W_862KREOBrNdK8Y-TkQ,hopemobi,156_0369,install,1.6,49.250.213.129,e2f4ba9f-8064-4bde-b086-b972afc1ecbc,1557868221,2019-05-15 05:10:21,1557868260,2019-05-15 05:11:00,1557868292,4a8b887755ae4571b9244950347b0398-1557868219,http://postback.hopemobi.net/pb/lsr?transaction_id=4a8b887755ae4571b9244950347b0398-1557868219&payout=1.6&sid=179-appier,idfa_e2f4ba9f-8064-4bde-b086-b972afc1ecbc,ja
H3W_862KREOBrNdK8Y-TkQ,hopemobi,156_0369,install,1.6,120.51.71.240,1277fce2-99c4-413d-833e-2fdb6cbadc09,1557830714,2019-05-14 18:45:14,1557830752,2019-05-14 18:45:52,1557830783,ddc5de54aa1349499b9cd45678d5bf37-1557830711,http://postback.hopemobi.net/pb/lsr?transaction_id=ddc5de54aa1349499b9cd45678d5bf37-1557830711&payout=1.6&sid=179-appier,idfa_1277fce2-99c4-413d-833e-2fdb6cbadc09,ja
