cid,partner_id,channel_id,action_id,cpi,ip,idfa,click time,click datetime,install time,install datetime,postback time,click id,postback url,unique user id
teWv_fqfQEG7fDfGsLi7tw,hopemobi,778938_6,Install,0.8,59.17.79.138,A4349FF5-8416-4240-A441-1F7FB7113D76,1557354760,2019-05-09 06:32:40,1557354849,2019-05-09 06:34:09,1557354880,c626673b861e451f8bc35839d1e82354-1557354742,http://postback.hopemobi.net/pb/lsr?transaction_id=c626673b861e451f8bc35839d1e82354-1557354742&payout=0.8&sid=179-appier,idfa_A4349FF5-8416-4240-A441-1F7FB7113D76,ko-KR
teWv_fqfQEG7fDfGsLi7tw,hopemobi,778938_6,Install,0.8,110.70.55.87,673E1A0A-4B83-4A00-AED7-4FF64220620E,1557355239,2019-05-09 06:40:39,1557355317,2019-05-09 06:41:57,1557355348,ccfd7f7fcb5c43edbafd2dfccb43db23-1557355219,http://postback.hopemobi.net/pb/lsr?transaction_id=ccfd7f7fcb5c43edbafd2dfccb43db23-1557355219&payout=0.8&sid=179-appier,idfa_673E1A0A-4B83-4A00-AED7-4FF64220620E,ko-KR
teWv_fqfQEG7fDfGsLi7tw,hopemobi,778938_6,Install,0.8,58.231.19.178,C4253876-AC92-4CAB-A181-2FE79A56F34E,1557355249,2019-05-09 06:40:49,1557355334,2019-05-09 06:42:14,1557355365,7e4e92388c0a4c608b038d9b9c8cf446-1557355232,http://postback.hopemobi.net/pb/lsr?transaction_id=7e4e92388c0a4c608b038d9b9c8cf446-1557355232&payout=0.8&sid=179-appier,idfa_C4253876-AC92-4CAB-A181-2FE79A56F34E,ko-KR
teWv_fqfQEG7fDfGsLi7tw,hopemobi,778938_6,Install,0.8,14.43.121.28,EA7B74E5-E70C-421B-89C0-E0131433F4F7,1557353929,2019-05-09 06:18:49,1557354017,2019-05-09 06:20:17,1557354048,573c98c8f7da40dc937d112d67557f93-1557353914,http://postback.hopemobi.net/pb/lsr?transaction_id=573c98c8f7da40dc937d112d67557f93-1557353914&payout=0.8&sid=179-appier,idfa_EA7B74E5-E70C-421B-89C0-E0131433F4F7,ko-KR
teWv_fqfQEG7fDfGsLi7tw,hopemobi,778938_6,Install,0.8,143.248.13.89,C0852276-00EF-42FE-AA23-A4AA24255D1B,1557354052,2019-05-09 06:20:52,1557354145,2019-05-09 06:22:25,1557354175,db6591e5f39b4bf284670aa680f94e70-1557354036,http://postback.hopemobi.net/pb/lsr?transaction_id=db6591e5f39b4bf284670aa680f94e70-1557354036&payout=0.8&sid=179-appier,idfa_C0852276-00EF-42FE-AA23-A4AA24255D1B,ko-KR
teWv_fqfQEG7fDfGsLi7tw,hopemobi,778938_6,Install,0.8,210.120.6.174,10ED7AAD-BE8D-4071-B945-F6BFB0FDB3F4,1557355381,2019-05-09 06:43:01,1557355488,2019-05-09 06:44:48,1557355519,5bb935b830b14cbfabe7999d0d1bb4d9-1557355365,http://postback.hopemobi.net/pb/lsr?transaction_id=5bb935b830b14cbfabe7999d0d1bb4d9-1557355365&payout=0.8&sid=179-appier,idfa_10ED7AAD-BE8D-4071-B945-F6BFB0FDB3F4,ko-KR
teWv_fqfQEG7fDfGsLi7tw,hopemobi,778938_6,Install,0.8,211.210.32.92,DD7C963F-EACF-441B-B134-BE4A878BB956,1557355279,2019-05-09 06:41:19,1557355365,2019-05-09 06:42:45,1557355396,83ac8b63098c48929f7058e3047e4319-1557355264,http://postback.hopemobi.net/pb/lsr?transaction_id=83ac8b63098c48929f7058e3047e4319-1557355264&payout=0.8&sid=179-appier,idfa_DD7C963F-EACF-441B-B134-BE4A878BB956,ko-KR
teWv_fqfQEG7fDfGsLi7tw,hopemobi,778938_6,Install,0.8,211.44.55.172,7C25BD36-EC87-4CFF-B7F1-A12AE1FF6A6F,1557354758,2019-05-09 06:32:38,1557354851,2019-05-09 06:34:11,1557354882,6cfaa7f59a144272bdba2285b1cadc8a-1557354742,http://postback.hopemobi.net/pb/lsr?transaction_id=6cfaa7f59a144272bdba2285b1cadc8a-1557354742&payout=0.8&sid=179-appier,idfa_7C25BD36-EC87-4CFF-B7F1-A12AE1FF6A6F,ko-KR
teWv_fqfQEG7fDfGsLi7tw,hopemobi,778938_6,Install,0.8,223.38.28.159,EC3B4BD9-1E33-433F-9B76-F8E54E43536B,1557354401,2019-05-09 06:26:41,1557354493,2019-05-09 06:28:13,1557354524,5ae98682e3ab4e7384af842d83b65b3b-1557354384,http://postback.hopemobi.net/pb/lsr?transaction_id=5ae98682e3ab4e7384af842d83b65b3b-1557354384&payout=0.8&sid=179-appier,idfa_EC3B4BD9-1E33-433F-9B76-F8E54E43536B,ko-KR
teWv_fqfQEG7fDfGsLi7tw,hopemobi,778938_6,Install,0.8,221.155.153.186,879AC711-45BE-46A0-89AC-C702109BB26E,1557354799,2019-05-09 06:33:19,1557354889,2019-05-09 06:34:49,1557354920,d44e8f8af2e44ca192915aa4d162d085-1557354782,http://postback.hopemobi.net/pb/lsr?transaction_id=d44e8f8af2e44ca192915aa4d162d085-1557354782&payout=0.8&sid=179-appier,idfa_879AC711-45BE-46A0-89AC-C702109BB26E,ko-KR
teWv_fqfQEG7fDfGsLi7tw,hopemobi,778938_6,Install,0.8,124.53.127.14,1FACDE9E-868E-4543-8A0A-984FB138E988,1557355292,2019-05-09 06:41:32,1557355387,2019-05-09 06:43:07,1557355418,2e2bd783242a4c1793eeaea4bac6b4d9-1557355278,http://postback.hopemobi.net/pb/lsr?transaction_id=2e2bd783242a4c1793eeaea4bac6b4d9-1557355278&payout=0.8&sid=179-appier,idfa_1FACDE9E-868E-4543-8A0A-984FB138E988,ko-KR
teWv_fqfQEG7fDfGsLi7tw,hopemobi,778938_6,Install,0.8,175.198.91.126,F84B0D18-365C-4E00-8F6E-86F67F1351F9,1557354715,2019-05-09 06:31:55,1557354806,2019-05-09 06:33:26,1557354836,b5a75cfbc0e0433fafab00117691f0ff-1557354697,http://postback.hopemobi.net/pb/lsr?transaction_id=b5a75cfbc0e0433fafab00117691f0ff-1557354697&payout=0.8&sid=179-appier,idfa_F84B0D18-365C-4E00-8F6E-86F67F1351F9,ko-KR
teWv_fqfQEG7fDfGsLi7tw,hopemobi,778938_6,Install,0.8,124.46.250.76,F4844FC6-7C9B-426D-B925-F2A4D997A8FE,1557286851,2019-05-08 11:40:51,1557286906,2019-05-08 11:41:46,1557286936,831c36443ca6418cb794b3523622c65b-1557286847,http://postback.hopemobi.net/pb/lsr?transaction_id=831c36443ca6418cb794b3523622c65b-1557286847&payout=0.8&sid=179-appier,idfa_F4844FC6-7C9B-426D-B925-F2A4D997A8FE,ko-Kore-KR
teWv_fqfQEG7fDfGsLi7tw,hopemobi,778938_6,Install,0.8,218.152.153.196,49A1ED89-8208-4134-A037-D028367FD6DA,1557354377,2019-05-09 06:26:17,1557354499,2019-05-09 06:28:19,1557354530,9a2989eb659540a0b86dbc9294d3d640-1557354361,http://postback.hopemobi.net/pb/lsr?transaction_id=9a2989eb659540a0b86dbc9294d3d640-1557354361&payout=0.8&sid=179-appier,idfa_49A1ED89-8208-4134-A037-D028367FD6DA,ko-KR
teWv_fqfQEG7fDfGsLi7tw,hopemobi,778938_6,Install,0.8,1.221.167.227,E095E236-DDF8-49F1-A59D-4A9008EF2969,1557354862,2019-05-09 06:34:22,1557354957,2019-05-09 06:35:57,1557354988,f95bda44e9764f64aeef9ced2feb5c1c-1557354846,http://postback.hopemobi.net/pb/lsr?transaction_id=f95bda44e9764f64aeef9ced2feb5c1c-1557354846&payout=0.8&sid=179-appier,idfa_E095E236-DDF8-49F1-A59D-4A9008EF2969,ko-KR
teWv_fqfQEG7fDfGsLi7tw,hopemobi,778938_6,Install,0.8,119.70.220.227,EECCE3DA-C348-4347-B328-4D72AEB33436,1557354174,2019-05-09 06:22:54,1557354271,2019-05-09 06:24:31,1557354302,29a7bbeb862b47cf93e960564bbd1726-1557354156,http://postback.hopemobi.net/pb/lsr?transaction_id=29a7bbeb862b47cf93e960564bbd1726-1557354156&payout=0.8&sid=179-appier,idfa_EECCE3DA-C348-4347-B328-4D72AEB33436,ko-KR
teWv_fqfQEG7fDfGsLi7tw,hopemobi,778938_6,Install,0.8,211.246.69.217,48FC03BF-A8AA-4560-8023-0CCA16656E58,1557355266,2019-05-09 06:41:06,1557355364,2019-05-09 06:42:44,1557355394,e66e87febc354b93a89634b573ca68ec-1557355245,http://postback.hopemobi.net/pb/lsr?transaction_id=e66e87febc354b93a89634b573ca68ec-1557355245&payout=0.8&sid=179-appier,idfa_48FC03BF-A8AA-4560-8023-0CCA16656E58,ko-KR
teWv_fqfQEG7fDfGsLi7tw,hopemobi,778938_6,Install,0.8,175.214.115.115,276AEE2A-2583-4435-B9F2-A6BB00EE3467,1557354692,2019-05-09 06:31:32,1557354788,2019-05-09 06:33:08,1557354819,be3cf1e60ca74693b7f10c115f636bec-1557354674,http://postback.hopemobi.net/pb/lsr?transaction_id=be3cf1e60ca74693b7f10c115f636bec-1557354674&payout=0.8&sid=179-appier,idfa_276AEE2A-2583-4435-B9F2-A6BB00EE3467,ko-KR
teWv_fqfQEG7fDfGsLi7tw,hopemobi,778938_6,Install,0.8,222.232.243.37,89AB6500-03ED-4BBF-8026-6EB557A92D59,1557354436,2019-05-09 06:27:16,1557354526,2019-05-09 06:28:46,1557354557,1e7cdfba2bd244fbb2cc6b9a78775ac9-1557354419,http://postback.hopemobi.net/pb/lsr?transaction_id=1e7cdfba2bd244fbb2cc6b9a78775ac9-1557354419&payout=0.8&sid=179-appier,idfa_89AB6500-03ED-4BBF-8026-6EB557A92D59,ko-KR
teWv_fqfQEG7fDfGsLi7tw,hopemobi,778938_6,Install,0.8,121.135.57.14,8A2B4450-BB99-4DCF-8F68-C88DCCA16ED3,1557354947,2019-05-09 06:35:47,1557354992,2019-05-09 06:36:32,1557355022,efd9c275fa1c4c8c9574c0fb306a85f8-1557354931,http://postback.hopemobi.net/pb/lsr?transaction_id=efd9c275fa1c4c8c9574c0fb306a85f8-1557354931&payout=0.8&sid=179-appier,idfa_8A2B4450-BB99-4DCF-8F68-C88DCCA16ED3,ko-KR
teWv_fqfQEG7fDfGsLi7tw,hopemobi,778938_6,Install,0.8,61.106.202.105,4B73580A-21BE-4342-AF18-B5671EC70E21,1557354881,2019-05-09 06:34:41,1557354973,2019-05-09 06:36:13,1557355004,6450e0da4d634919b62f67a7232b5a0c-1557354863,http://postback.hopemobi.net/pb/lsr?transaction_id=6450e0da4d634919b62f67a7232b5a0c-1557354863&payout=0.8&sid=179-appier,idfa_4B73580A-21BE-4342-AF18-B5671EC70E21,ko-KR
teWv_fqfQEG7fDfGsLi7tw,hopemobi,778938_6,Install,0.8,14.37.50.227,BBEE2236-2672-4481-919C-D5D347E789D9,1557354441,2019-05-09 06:27:21,1557354532,2019-05-09 06:28:52,1557354563,73e542335de0484695513d583211d477-1557354425,http://postback.hopemobi.net/pb/lsr?transaction_id=73e542335de0484695513d583211d477-1557354425&payout=0.8&sid=179-appier,idfa_BBEE2236-2672-4481-919C-D5D347E789D9,ko-KR
teWv_fqfQEG7fDfGsLi7tw,hopemobi,778938_6,Install,0.8,222.232.182.118,CEF12522-F007-492F-80DB-B1341F444092,1557286848,2019-05-08 11:40:48,1557286884,2019-05-08 11:41:24,1557286915,0d4ba43057124bc28ecdf32f76480f4f-1557286845,http://postback.hopemobi.net/pb/lsr?transaction_id=0d4ba43057124bc28ecdf32f76480f4f-1557286845&payout=0.8&sid=179-appier,idfa_CEF12522-F007-492F-80DB-B1341F444092,ko-Kore-KR
teWv_fqfQEG7fDfGsLi7tw,hopemobi,778938_6,Install,0.8,183.97.163.153,37EED9BC-E13B-4E82-BE05-4639C05AC7A7,1557354838,2019-05-09 06:33:58,1557354927,2019-05-09 06:35:27,1557354958,7860ce074ca84625b9371d8a43e9f88a-1557354822,http://postback.hopemobi.net/pb/lsr?transaction_id=7860ce074ca84625b9371d8a43e9f88a-1557354822&payout=0.8&sid=179-appier,idfa_37EED9BC-E13B-4E82-BE05-4639C05AC7A7,ko-KR
teWv_fqfQEG7fDfGsLi7tw,hopemobi,778938_6,Install,0.8,218.52.67.31,36087CF9-7808-4FF3-81AD-CAF137B54548,1557355248,2019-05-09 06:40:48,1557355340,2019-05-09 06:42:20,1557355372,fb18854e931942ef84fc98f180da4ef1-1557355232,http://postback.hopemobi.net/pb/lsr?transaction_id=fb18854e931942ef84fc98f180da4ef1-1557355232&payout=0.8&sid=179-appier,idfa_36087CF9-7808-4FF3-81AD-CAF137B54548,ko-KR
teWv_fqfQEG7fDfGsLi7tw,hopemobi,778938_6,Install,0.8,121.171.213.176,BD016963-1D89-4C61-8F8F-F3A0476E7FCF,1557354753,2019-05-09 06:32:33,1557354852,2019-05-09 06:34:12,1557354882,4a8872b0c8104b7a87090560cd25b1bd-1557354736,http://postback.hopemobi.net/pb/lsr?transaction_id=4a8872b0c8104b7a87090560cd25b1bd-1557354736&payout=0.8&sid=179-appier,idfa_BD016963-1D89-4C61-8F8F-F3A0476E7FCF,ko-KR
teWv_fqfQEG7fDfGsLi7tw,hopemobi,778938_6,Install,0.8,118.47.51.45,7F2DCBDF-E96A-4065-B0FE-BB8DEC7D0FFB,1557354879,2019-05-09 06:34:39,1557354969,2019-05-09 06:36:09,1557355000,0d430f8473be4d69b0afb633f7c1c6db-1557354862,http://postback.hopemobi.net/pb/lsr?transaction_id=0d430f8473be4d69b0afb633f7c1c6db-1557354862&payout=0.8&sid=179-appier,idfa_7F2DCBDF-E96A-4065-B0FE-BB8DEC7D0FFB,ko-KR
teWv_fqfQEG7fDfGsLi7tw,hopemobi,778938_6,Install,0.8,122.44.203.143,DC4F6D6F-7F2E-43AD-9BBC-088F54EB0BF5,1557355241,2019-05-09 06:40:41,1557355324,2019-05-09 06:42:04,1557355356,babb3221d27f48069964652652f49d94-1557355224,http://postback.hopemobi.net/pb/lsr?transaction_id=babb3221d27f48069964652652f49d94-1557355224&payout=0.8&sid=179-appier,idfa_DC4F6D6F-7F2E-43AD-9BBC-088F54EB0BF5,ko-KR
teWv_fqfQEG7fDfGsLi7tw,hopemobi,778938_6,Install,0.8,116.37.146.25,29AF3449-13C4-494C-80EB-FDA25F1C1DE2,1557354001,2019-05-09 06:20:01,1557354090,2019-05-09 06:21:30,1557354223,16715e83c9f44f5dbb883f493bd3199a-1557353984,http://postback.hopemobi.net/pb/lsr?transaction_id=16715e83c9f44f5dbb883f493bd3199a-1557353984&payout=0.8&sid=179-appier,idfa_29AF3449-13C4-494C-80EB-FDA25F1C1DE2,ko-KR
teWv_fqfQEG7fDfGsLi7tw,hopemobi,778938_6,Install,0.8,175.113.153.17,E81C064A-B7E7-421E-B37B-4F58EA345EC3,1557355305,2019-05-09 06:41:45,1557355391,2019-05-09 06:43:11,1557355422,4f0cbf6851594371a5eed8b9a2d15932-1557355288,http://postback.hopemobi.net/pb/lsr?transaction_id=4f0cbf6851594371a5eed8b9a2d15932-1557355288&payout=0.8&sid=179-appier,idfa_E81C064A-B7E7-421E-B37B-4F58EA345EC3,ko-KR
teWv_fqfQEG7fDfGsLi7tw,hopemobi,778938_6,Install,0.8,116.33.71.47,1816BFC4-98BC-4444-8C0D-C89D17234521,1557355240,2019-05-09 06:40:40,1557355326,2019-05-09 06:42:06,1557355357,e99bf3f24b7e43019b2c9e8c4aa85a0d-1557355223,http://postback.hopemobi.net/pb/lsr?transaction_id=e99bf3f24b7e43019b2c9e8c4aa85a0d-1557355223&payout=0.8&sid=179-appier,idfa_1816BFC4-98BC-4444-8C0D-C89D17234521,ko-KR
teWv_fqfQEG7fDfGsLi7tw,hopemobi,778938_6,Install,0.8,219.255.237.125,2524DEF1-6DCD-425F-9D40-C587F3A407A1,1557354173,2019-05-09 06:22:53,1557354267,2019-05-09 06:24:27,1557354297,ed941b1bfc484d2faf3229910f93ae47-1557354157,http://postback.hopemobi.net/pb/lsr?transaction_id=ed941b1bfc484d2faf3229910f93ae47-1557354157&payout=0.8&sid=179-appier,idfa_2524DEF1-6DCD-425F-9D40-C587F3A407A1,ko-KR
teWv_fqfQEG7fDfGsLi7tw,hopemobi,778938_6,Install,0.8,14.47.149.68,95307474-5F27-4F9F-8BCF-02F4762A7D5C,1557354440,2019-05-09 06:27:20,1557354534,2019-05-09 06:28:54,1557354565,29e8d526ef9a4a72b29b8d6d55d954f4-1557354426,http://postback.hopemobi.net/pb/lsr?transaction_id=29e8d526ef9a4a72b29b8d6d55d954f4-1557354426&payout=0.8&sid=179-appier,idfa_95307474-5F27-4F9F-8BCF-02F4762A7D5C,ko-KR
teWv_fqfQEG7fDfGsLi7tw,hopemobi,778938_6,Install,0.8,175.194.189.29,44A054A1-C88B-4AE3-B377-560489BBC962,1557354007,2019-05-09 06:20:07,1557354101,2019-05-09 06:21:41,1557354132,1e6d394011fd4983a6260333be230a3e-1557353991,http://postback.hopemobi.net/pb/lsr?transaction_id=1e6d394011fd4983a6260333be230a3e-1557353991&payout=0.8&sid=179-appier,idfa_44A054A1-C88B-4AE3-B377-560489BBC962,ko-KR
teWv_fqfQEG7fDfGsLi7tw,hopemobi,778938_6,Install,0.8,218.234.115.13,6BB62536-39B9-46C3-903E-59F1D138E38C,1557354436,2019-05-09 06:27:16,1557354527,2019-05-09 06:28:47,1557354558,833b50b8cae5402c8fecae69ad922955-1557354419,http://postback.hopemobi.net/pb/lsr?transaction_id=833b50b8cae5402c8fecae69ad922955-1557354419&payout=0.8&sid=179-appier,idfa_6BB62536-39B9-46C3-903E-59F1D138E38C,ko-KR
teWv_fqfQEG7fDfGsLi7tw,hopemobi,778938_6,Install,0.8,183.101.15.98,F2097FF8-1484-4138-BE4C-C8608A4E9506,1557355253,2019-05-09 06:40:53,1557355343,2019-05-09 06:42:23,1557355374,e3dbaa501d7b4eea96559d2c56b347df-1557355236,http://postback.hopemobi.net/pb/lsr?transaction_id=e3dbaa501d7b4eea96559d2c56b347df-1557355236&payout=0.8&sid=179-appier,idfa_F2097FF8-1484-4138-BE4C-C8608A4E9506,ko-KR
teWv_fqfQEG7fDfGsLi7tw,hopemobi,778938_6,Install,0.8,175.118.82.238,BA6B83C0-AFE1-4CAB-BF9C-9AEDAD4C05EE,1557354271,2019-05-09 06:24:31,1557354363,2019-05-09 06:26:03,1557354394,0171d89a154d4692be162baa4cf40c52-1557354253,http://postback.hopemobi.net/pb/lsr?transaction_id=0171d89a154d4692be162baa4cf40c52-1557354253&payout=0.8&sid=179-appier,idfa_BA6B83C0-AFE1-4CAB-BF9C-9AEDAD4C05EE,ko-KR
teWv_fqfQEG7fDfGsLi7tw,hopemobi,778938_6,Install,0.8,119.195.140.117,7C4DA7EA-8B84-4998-B9AA-567DC3F5F1DD,1557354177,2019-05-09 06:22:57,1557354268,2019-05-09 06:24:28,1557354299,6f8e10454660469e81c2826f00bb6239-1557354159,http://postback.hopemobi.net/pb/lsr?transaction_id=6f8e10454660469e81c2826f00bb6239-1557354159&payout=0.8&sid=179-appier,idfa_7C4DA7EA-8B84-4998-B9AA-567DC3F5F1DD,ko-KR
teWv_fqfQEG7fDfGsLi7tw,hopemobi,778938_6,Install,0.8,175.113.206.54,C79A0070-F5E0-4DE8-BF0E-D74BEF8FACDE,1557354758,2019-05-09 06:32:38,1557354852,2019-05-09 06:34:12,1557354883,972f05838aeb467eb7114886dc19702f-1557354742,http://postback.hopemobi.net/pb/lsr?transaction_id=972f05838aeb467eb7114886dc19702f-1557354742&payout=0.8&sid=179-appier,idfa_C79A0070-F5E0-4DE8-BF0E-D74BEF8FACDE,ko-KR
teWv_fqfQEG7fDfGsLi7tw,hopemobi,778938_6,Install,0.8,58.230.121.229,4E03D776-91A1-455B-9577-4585A32AC592,1557354749,2019-05-09 06:32:29,1557354840,2019-05-09 06:34:00,1557354871,2b1d85cb502f49a3ae9146043e1127f8-1557354731,http://postback.hopemobi.net/pb/lsr?transaction_id=2b1d85cb502f49a3ae9146043e1127f8-1557354731&payout=0.8&sid=179-appier,idfa_4E03D776-91A1-455B-9577-4585A32AC592,ko-KR
teWv_fqfQEG7fDfGsLi7tw,hopemobi,778938_6,Install,0.8,211.63.189.8,052D0EB0-2F22-4ED7-B12A-7D09EEE33180,1557355254,2019-05-09 06:40:54,1557355337,2019-05-09 06:42:17,1557355368,01a338043ca7492799509cc77419cab1-1557355236,http://postback.hopemobi.net/pb/lsr?transaction_id=01a338043ca7492799509cc77419cab1-1557355236&payout=0.8&sid=179-appier,idfa_052D0EB0-2F22-4ED7-B12A-7D09EEE33180,ko-KR
teWv_fqfQEG7fDfGsLi7tw,hopemobi,778938_6,Install,0.8,183.99.240.37,D4DDFB9E-52D1-4E78-BA33-F079554B2777,1557354486,2019-05-09 06:28:06,1557354578,2019-05-09 06:29:38,1557354609,94b73cc3fb0642a099a3f538f281d62b-1557354469,http://postback.hopemobi.net/pb/lsr?transaction_id=94b73cc3fb0642a099a3f538f281d62b-1557354469&payout=0.8&sid=179-appier,idfa_D4DDFB9E-52D1-4E78-BA33-F079554B2777,ko-KR
teWv_fqfQEG7fDfGsLi7tw,hopemobi,778938_6,Install,0.8,175.207.44.219,2C580576-41C7-40FC-9FBA-300BBAF57DBA,1557355326,2019-05-09 06:42:06,1557355411,2019-05-09 06:43:31,1557355442,1e8e6c2c02f0408d9f916c3a56565941-1557355308,http://postback.hopemobi.net/pb/lsr?transaction_id=1e8e6c2c02f0408d9f916c3a56565941-1557355308&payout=0.8&sid=179-appier,idfa_2C580576-41C7-40FC-9FBA-300BBAF57DBA,ko-KR
teWv_fqfQEG7fDfGsLi7tw,hopemobi,778938_6,Install,0.8,115.94.179.214,EC954B13-A53C-49ED-AAC6-BF397C855AAC,1557354696,2019-05-09 06:31:36,1557354788,2019-05-09 06:33:08,1557354818,eee719853fed4f948874642b3dbfd076-1557354679,http://postback.hopemobi.net/pb/lsr?transaction_id=eee719853fed4f948874642b3dbfd076-1557354679&payout=0.8&sid=179-appier,idfa_EC954B13-A53C-49ED-AAC6-BF397C855AAC,ko-KR
teWv_fqfQEG7fDfGsLi7tw,hopemobi,778938_6,Install,0.8,222.108.214.80,BE179E66-2389-4D11-85C1-90E75BD5F857,1557354550,2019-05-09 06:29:10,1557354722,2019-05-09 06:32:02,1557354753,6ba59f59ebdd4323ba67bcb4a9f80390-1557354533,http://postback.hopemobi.net/pb/lsr?transaction_id=6ba59f59ebdd4323ba67bcb4a9f80390-1557354533&payout=0.8&sid=179-appier,idfa_BE179E66-2389-4D11-85C1-90E75BD5F857,ko-KR
teWv_fqfQEG7fDfGsLi7tw,hopemobi,778938_6,Install,0.8,182.230.242.17,6DD8D80B-E371-4967-894F-FBD670AC0CEE,1557354045,2019-05-09 06:20:45,1557354164,2019-05-09 06:22:44,1557354195,0870fd1151de40c98e2e995e2317b3a2-1557354027,http://postback.hopemobi.net/pb/lsr?transaction_id=0870fd1151de40c98e2e995e2317b3a2-1557354027&payout=0.8&sid=179-appier,idfa_6DD8D80B-E371-4967-894F-FBD670AC0CEE,ko-KR
teWv_fqfQEG7fDfGsLi7tw,hopemobi,778938_6,Install,0.8,1.236.134.37,53561E90-D8CC-479A-83B4-0DFE8577E0E8,1557354170,2019-05-09 06:22:50,1557354270,2019-05-09 06:24:30,1557354301,089550323da042d1a631546d2d971380-1557354154,http://postback.hopemobi.net/pb/lsr?transaction_id=089550323da042d1a631546d2d971380-1557354154&payout=0.8&sid=179-appier,idfa_53561E90-D8CC-479A-83B4-0DFE8577E0E8,ko-KR
teWv_fqfQEG7fDfGsLi7tw,hopemobi,778938_6,Install,0.8,124.56.208.221,7DDEE66F-2256-43CD-A0FD-8FD8BB2AE2D1,1557354960,2019-05-09 06:36:00,1557355064,2019-05-09 06:37:44,1557355095,d0965764590b4676bb442959be5e1e9e-1557354944,http://postback.hopemobi.net/pb/lsr?transaction_id=d0965764590b4676bb442959be5e1e9e-1557354944&payout=0.8&sid=179-appier,idfa_7DDEE66F-2256-43CD-A0FD-8FD8BB2AE2D1,ko-KR
teWv_fqfQEG7fDfGsLi7tw,hopemobi,778938_6,Install,0.8,222.233.161.232,FCCE775D-56EB-4D20-9602-BB94E0855F31,1557355241,2019-05-09 06:40:41,1557355325,2019-05-09 06:42:05,1557355356,8c97264e5dd741b0b5d405b237fcce98-1557355224,http://postback.hopemobi.net/pb/lsr?transaction_id=8c97264e5dd741b0b5d405b237fcce98-1557355224&payout=0.8&sid=179-appier,idfa_FCCE775D-56EB-4D20-9602-BB94E0855F31,ko-KR
teWv_fqfQEG7fDfGsLi7tw,hopemobi,778938_6,Install,0.8,61.76.132.250,2F1FAFCB-02BD-4F69-983B-283D0F3D4B6D,1557354265,2019-05-09 06:24:25,1557354357,2019-05-09 06:25:57,1557354387,2e165cf2efae4a5790f064e0acdde77f-1557354248,http://postback.hopemobi.net/pb/lsr?transaction_id=2e165cf2efae4a5790f064e0acdde77f-1557354248&payout=0.8&sid=179-appier,idfa_2F1FAFCB-02BD-4F69-983B-283D0F3D4B6D,ko-KR
teWv_fqfQEG7fDfGsLi7tw,hopemobi,778938_6,Install,0.8,221.165.126.138,8C530ED5-5CF3-492D-96D9-DAA3F6B2E963,1557286744,2019-05-08 11:39:04,1557286803,2019-05-08 11:40:03,1557286833,491b5a6565164a7eaff79bd99461b75f-1557286733,http://postback.hopemobi.net/pb/lsr?transaction_id=491b5a6565164a7eaff79bd99461b75f-1557286733&payout=0.8&sid=179-appier,idfa_8C530ED5-5CF3-492D-96D9-DAA3F6B2E963,ko-Kore-KR
teWv_fqfQEG7fDfGsLi7tw,hopemobi,778938_6,Install,0.8,58.126.92.236,8B1FC502-64AE-4551-85F9-F5B12353BE7F,1557355238,2019-05-09 06:40:38,1557355326,2019-05-09 06:42:06,1557355357,2a4941ab5c4f4de98b04f6be806e6ebd-1557355223,http://postback.hopemobi.net/pb/lsr?transaction_id=2a4941ab5c4f4de98b04f6be806e6ebd-1557355223&payout=0.8&sid=179-appier,idfa_8B1FC502-64AE-4551-85F9-F5B12353BE7F,ko-KR
teWv_fqfQEG7fDfGsLi7tw,hopemobi,778938_6,Install,0.8,211.185.79.142,EBBD44A7-AED8-4920-9A6E-E9E8AD6EB1A7,1557353960,2019-05-09 06:19:20,1557354047,2019-05-09 06:20:47,1557354079,3dc245c8da034bd08d86f9dd7b1ace47-1557353943,http://postback.hopemobi.net/pb/lsr?transaction_id=3dc245c8da034bd08d86f9dd7b1ace47-1557353943&payout=0.8&sid=179-appier,idfa_EBBD44A7-AED8-4920-9A6E-E9E8AD6EB1A7,ko-KR
teWv_fqfQEG7fDfGsLi7tw,hopemobi,778938_6,Install,0.8,59.7.141.176,68CDD791-2A73-4B05-B1DC-B865A8F88CC0,1557355301,2019-05-09 06:41:41,1557355387,2019-05-09 06:43:07,1557355418,257ce9235d1d46169cd63b2dd5b232af-1557355284,http://postback.hopemobi.net/pb/lsr?transaction_id=257ce9235d1d46169cd63b2dd5b232af-1557355284&payout=0.8&sid=179-appier,idfa_68CDD791-2A73-4B05-B1DC-B865A8F88CC0,ko-KR
teWv_fqfQEG7fDfGsLi7tw,hopemobi,778938_6,Install,0.8,211.206.196.46,7259EE56-8413-483F-9F5A-7C373CCB08DC,1557355252,2019-05-09 06:40:52,1557355339,2019-05-09 06:42:19,1557355370,082fd86b0a8c4a3f9529e79d225259e1-1557355235,http://postback.hopemobi.net/pb/lsr?transaction_id=082fd86b0a8c4a3f9529e79d225259e1-1557355235&payout=0.8&sid=179-appier,idfa_7259EE56-8413-483F-9F5A-7C373CCB08DC,ko-KR
teWv_fqfQEG7fDfGsLi7tw,hopemobi,778938_6,Install,0.8,27.102.106.59,5F32BDDD-D697-4A6B-B31B-2C61285403E5,1557354695,2019-05-09 06:31:35,1557354784,2019-05-09 06:33:04,1557354815,53ebf7acecfd4b6fbdd5e4a9f816a17e-1557354676,http://postback.hopemobi.net/pb/lsr?transaction_id=53ebf7acecfd4b6fbdd5e4a9f816a17e-1557354676&payout=0.8&sid=179-appier,idfa_5F32BDDD-D697-4A6B-B31B-2C61285403E5,ko-KR
teWv_fqfQEG7fDfGsLi7tw,hopemobi,778938_6,Install,0.8,112.218.76.109,B6437336-CEED-4518-B886-B19AEE55F935,1557354321,2019-05-09 06:25:21,1557354410,2019-05-09 06:26:50,1557354441,b3220f5d2369421da24ca628c13ebc96-1557354303,http://postback.hopemobi.net/pb/lsr?transaction_id=b3220f5d2369421da24ca628c13ebc96-1557354303&payout=0.8&sid=179-appier,idfa_B6437336-CEED-4518-B886-B19AEE55F935,ko-KR
teWv_fqfQEG7fDfGsLi7tw,hopemobi,778938_6,Install,0.8,1.247.147.82,BC1D7FE8-352B-4E5B-80BE-C77ED9D39E2C,1557354202,2019-05-09 06:23:22,1557354293,2019-05-09 06:24:53,1557354324,add5528764974763a93f81f49196341b-1557354185,http://postback.hopemobi.net/pb/lsr?transaction_id=add5528764974763a93f81f49196341b-1557354185&payout=0.8&sid=179-appier,idfa_BC1D7FE8-352B-4E5B-80BE-C77ED9D39E2C,ko-KR
teWv_fqfQEG7fDfGsLi7tw,hopemobi,778938_6,Install,0.8,118.127.194.234,EFBB3462-A99B-427E-A057-232703E6C1A7,1557354874,2019-05-09 06:34:34,1557354966,2019-05-09 06:36:06,1557354997,5c31ee8514254bb6b1c8bd40f6a6cf41-1557354857,http://postback.hopemobi.net/pb/lsr?transaction_id=5c31ee8514254bb6b1c8bd40f6a6cf41-1557354857&payout=0.8&sid=179-appier,idfa_EFBB3462-A99B-427E-A057-232703E6C1A7,ko-KR
teWv_fqfQEG7fDfGsLi7tw,hopemobi,778938_6,Install,0.8,222.118.28.228,EFBB2298-D84E-46CF-8125-7207A10CD5D2,1557353998,2019-05-09 06:19:58,1557354116,2019-05-09 06:21:56,1557354147,2f6b09a8d7454f36a6c41ba17e2e33d5-1557353981,http://postback.hopemobi.net/pb/lsr?transaction_id=2f6b09a8d7454f36a6c41ba17e2e33d5-1557353981&payout=0.8&sid=179-appier,idfa_EFBB2298-D84E-46CF-8125-7207A10CD5D2,ko-KR
teWv_fqfQEG7fDfGsLi7tw,hopemobi,778938_6,Install,0.8,118.47.167.71,D0106E03-1475-4C02-9006-086B25143EF9,1557354459,2019-05-09 06:27:39,1557354554,2019-05-09 06:29:14,1557354586,9036651298fc457da2de55cd9b7f1e68-1557354444,http://postback.hopemobi.net/pb/lsr?transaction_id=9036651298fc457da2de55cd9b7f1e68-1557354444&payout=0.8&sid=179-appier,idfa_D0106E03-1475-4C02-9006-086B25143EF9,ko-KR
teWv_fqfQEG7fDfGsLi7tw,hopemobi,778938_6,Install,0.8,202.30.28.101,29E695F0-65D1-494F-A71F-855B8467AD9D,1557353949,2019-05-09 06:19:09,1557354038,2019-05-09 06:20:38,1557354068,b2c10cc64cc54ac5be00c0a1795a82c8-1557353931,http://postback.hopemobi.net/pb/lsr?transaction_id=b2c10cc64cc54ac5be00c0a1795a82c8-1557353931&payout=0.8&sid=179-appier,idfa_29E695F0-65D1-494F-A71F-855B8467AD9D,ko-KR
teWv_fqfQEG7fDfGsLi7tw,hopemobi,778938_6,Install,0.8,112.186.89.18,5C293BBD-C987-4C6C-8769-4C5EF45663FF,1557354693,2019-05-09 06:31:33,1557354782,2019-05-09 06:33:02,1557354813,f437d33aaacb4b8daf3382573a4cbacd-1557354677,http://postback.hopemobi.net/pb/lsr?transaction_id=f437d33aaacb4b8daf3382573a4cbacd-1557354677&payout=0.8&sid=179-appier,idfa_5C293BBD-C987-4C6C-8769-4C5EF45663FF,ko-KR
teWv_fqfQEG7fDfGsLi7tw,hopemobi,778938_6,Install,0.8,1.228.178.124,9463BAFF-3B0B-422A-B914-D0B9695F4669,1557354901,2019-05-09 06:35:01,1557355010,2019-05-09 06:36:50,1557355040,c6b6f78eab244537a38fd2127a45bf15-1557354886,http://postback.hopemobi.net/pb/lsr?transaction_id=c6b6f78eab244537a38fd2127a45bf15-1557354886&payout=0.8&sid=179-appier,idfa_9463BAFF-3B0B-422A-B914-D0B9695F4669,ko-KR
teWv_fqfQEG7fDfGsLi7tw,hopemobi,778938_6,Install,0.8,182.224.87.91,F5F59B52-6ECC-468E-BA42-2D186AF1AD47,1557355278,2019-05-09 06:41:18,1557355366,2019-05-09 06:42:46,1557355396,528a2c8dbb9a4b829edabb6abc024beb-1557355263,http://postback.hopemobi.net/pb/lsr?transaction_id=528a2c8dbb9a4b829edabb6abc024beb-1557355263&payout=0.8&sid=179-appier,idfa_F5F59B52-6ECC-468E-BA42-2D186AF1AD47,ko-KR
teWv_fqfQEG7fDfGsLi7tw,hopemobi,778938_6,Install,0.8,119.201.142.100,79E29312-AA9A-45E0-90DD-5B5DC6E3774A,1557353497,2019-05-09 06:11:37,1557353582,2019-05-09 06:13:02,1557353612,13ba2dd9acb74763a2212172a3cecfd2-1557353482,http://postback.hopemobi.net/pb/lsr?transaction_id=13ba2dd9acb74763a2212172a3cecfd2-1557353482&payout=0.8&sid=179-appier,idfa_79E29312-AA9A-45E0-90DD-5B5DC6E3774A,ko-KR
teWv_fqfQEG7fDfGsLi7tw,hopemobi,778938_6,Install,0.8,175.212.242.196,77907B62-BD1A-4C38-A841-F56FDBC7FCA1,1557353873,2019-05-09 06:17:53,1557353965,2019-05-09 06:19:25,1557353996,7748b50209224d94a389ebe05ebca9d2-1557353858,http://postback.hopemobi.net/pb/lsr?transaction_id=7748b50209224d94a389ebe05ebca9d2-1557353858&payout=0.8&sid=179-appier,idfa_77907B62-BD1A-4C38-A841-F56FDBC7FCA1,ko-KR
teWv_fqfQEG7fDfGsLi7tw,hopemobi,778938_6,Install,0.8,106.251.183.39,3FC75FAB-74E7-4459-8DAC-BFB8888D8D0B,1557353918,2019-05-09 06:18:38,1557354035,2019-05-09 06:20:35,1557354066,55342b5fa93d478b98768b50504c0e20-1557353902,http://postback.hopemobi.net/pb/lsr?transaction_id=55342b5fa93d478b98768b50504c0e20-1557353902&payout=0.8&sid=179-appier,idfa_3FC75FAB-74E7-4459-8DAC-BFB8888D8D0B,ko-KR
teWv_fqfQEG7fDfGsLi7tw,hopemobi,778938_6,Install,0.8,125.186.110.70,6B569859-E8EC-4567-AD8A-63AD1431CDAB,1557355246,2019-05-09 06:40:46,1557355336,2019-05-09 06:42:16,1557355368,b89c2458782d41639053eaa30cf44f2b-1557355228,http://postback.hopemobi.net/pb/lsr?transaction_id=b89c2458782d41639053eaa30cf44f2b-1557355228&payout=0.8&sid=179-appier,idfa_6B569859-E8EC-4567-AD8A-63AD1431CDAB,ko-KR
teWv_fqfQEG7fDfGsLi7tw,hopemobi,778938_6,Install,0.8,211.216.158.138,73B3D998-A2B4-4264-B861-A89AE26D3050,1557354373,2019-05-09 06:26:13,1557354467,2019-05-09 06:27:47,1557354498,c85b43d4a99344498bc776e72201fac7-1557354357,http://postback.hopemobi.net/pb/lsr?transaction_id=c85b43d4a99344498bc776e72201fac7-1557354357&payout=0.8&sid=179-appier,idfa_73B3D998-A2B4-4264-B861-A89AE26D3050,ko-KR
teWv_fqfQEG7fDfGsLi7tw,hopemobi,778938_6,Install,0.8,49.167.66.216,72B303F2-6588-40AC-A0EE-C61EF88E68FC,1557354519,2019-05-09 06:28:39,1557354612,2019-05-09 06:30:12,1557354643,b93c18f2b76c4663aeb3abafb69fa5e7-1557354501,http://postback.hopemobi.net/pb/lsr?transaction_id=b93c18f2b76c4663aeb3abafb69fa5e7-1557354501&payout=0.8&sid=179-appier,idfa_72B303F2-6588-40AC-A0EE-C61EF88E68FC,ko-KR
teWv_fqfQEG7fDfGsLi7tw,hopemobi,778938_6,Install,0.8,220.74.0.41,0343E289-05D6-4E64-9102-B00749FFEED7,1557353948,2019-05-09 06:19:08,1557354037,2019-05-09 06:20:37,1557354068,035c8744f8874c2bb43cb8d71f5b2558-1557353932,http://postback.hopemobi.net/pb/lsr?transaction_id=035c8744f8874c2bb43cb8d71f5b2558-1557353932&payout=0.8&sid=179-appier,idfa_0343E289-05D6-4E64-9102-B00749FFEED7,ko-KR
