cid,partner_id,channel_id,action_id,cpi,ip,idfa,click time,click datetime,install time,install datetime,postback time,click id,postback url,unique user id
yAniMqyWQZ2FYp6rNM8Yrg,hopemobi,512509_530741_1860,install,1.7,175.223.17.210,dc04d3dd-f32d-418c-9fc7-bd39bccdec30,1557308882,2019-05-08 17:48:02,1557483089,2019-05-10 18:11:29,1557483120,9ff486480b1545d28cf8a79cd63dfe7f-1557308871,http://postback.hopemobi.net/pb/lsr?transaction_id=9ff486480b1545d28cf8a79cd63dfe7f-1557308871&payout=1.7&sid=179-appier,idfa_dc04d3dd-f32d-418c-9fc7-bd39bccdec30,ko
yAniMqyWQZ2FYp6rNM8Yrg,hopemobi,512509_530741_1860,install,1.7,61.40.188.140,443a29e4-5a9c-4b00-bd56-7fac87a20378,1557308742,2019-05-08 17:45:42,1557488428,2019-05-10 19:40:28,1557488460,50cd499d2f0e4ae59164330d65379df8-1557308731,http://postback.hopemobi.net/pb/lsr?transaction_id=50cd499d2f0e4ae59164330d65379df8-1557308731&payout=1.7&sid=179-appier,idfa_443a29e4-5a9c-4b00-bd56-7fac87a20378,ko
yAniMqyWQZ2FYp6rNM8Yrg,hopemobi,512509_530741_1860,install,1.7,203.228.119.136,1be5af55-120d-4a6d-b142-2274c93d257a,1557309523,2019-05-08 17:58:43,1557479794,2019-05-10 17:16:34,1557479827,f265a2c3755c4cc095c5e7dffd257cfd-1557309471,http://postback.hopemobi.net/pb/lsr?transaction_id=f265a2c3755c4cc095c5e7dffd257cfd-1557309471&payout=1.7&sid=179-appier,idfa_1be5af55-120d-4a6d-b142-2274c93d257a,ko
yAniMqyWQZ2FYp6rNM8Yrg,hopemobi,512509_530741_1860,install,1.5,223.32.195.102,00b22ae3-9b36-4ccb-8f3e-fd4175f770ff,1557307599,2019-05-08 17:26:39,1557307639,2019-05-08 17:27:19,1557307670,8bb7d2da0a5b47149b8e732eed02a5f8-1557307597,http://postback.hopemobi.net/pb/lsr?transaction_id=8bb7d2da0a5b47149b8e732eed02a5f8-1557307597&payout=1.5&sid=179-appier,idfa_00b22ae3-9b36-4ccb-8f3e-fd4175f770ff,ko
yAniMqyWQZ2FYp6rNM8Yrg,hopemobi,512509_530741_1860,install,1.7,61.47.236.6,32808ac0-c3a6-486f-9fbe-c7b6a3b24d89,1557308945,2019-05-08 17:49:05,1557412764,2019-05-09 22:39:24,1557412795,164da41787d648c8be56b574f2575f7f-1557308925,http://postback.hopemobi.net/pb/lsr?transaction_id=164da41787d648c8be56b574f2575f7f-1557308925&payout=1.7&sid=179-appier,idfa_32808ac0-c3a6-486f-9fbe-c7b6a3b24d89,ko
yAniMqyWQZ2FYp6rNM8Yrg,hopemobi,512509_530741_1860,install,1.5,175.223.49.210,9ba3918f-4794-4c9d-9ee3-c22026af549e,1557307670,2019-05-08 17:27:50,1557307708,2019-05-08 17:28:28,1557307739,b7c4078853fd495dac9aed7fe7cecac4-1557307668,http://postback.hopemobi.net/pb/lsr?transaction_id=b7c4078853fd495dac9aed7fe7cecac4-1557307668&payout=1.5&sid=179-appier,idfa_9ba3918f-4794-4c9d-9ee3-c22026af549e,ko
yAniMqyWQZ2FYp6rNM8Yrg,hopemobi,512509_530741_1860,install,1.7,124.57.59.26,65b35ee9-c5b8-43d2-bf7c-ad3543949d8f,1557309646,2019-05-08 18:00:46,1557484696,2019-05-10 18:38:16,1557484727,e2295af029ab45df98c0c1ed9166506a-1557309480,http://postback.hopemobi.net/pb/lsr?transaction_id=e2295af029ab45df98c0c1ed9166506a-1557309480&payout=1.7&sid=179-appier,idfa_65b35ee9-c5b8-43d2-bf7c-ad3543949d8f,ko
yAniMqyWQZ2FYp6rNM8Yrg,hopemobi,512509_530741_1860,install,1.7,175.223.14.89,88a544ac-879d-4e6e-947e-f79f05dfbd06,1557308629,2019-05-08 17:43:49,1557411592,2019-05-09 22:19:52,1557411623,6b4baa3540af43c6a1c2ed81f864856a-1557308564,http://postback.hopemobi.net/pb/lsr?transaction_id=6b4baa3540af43c6a1c2ed81f864856a-1557308564&payout=1.7&sid=179-appier,idfa_88a544ac-879d-4e6e-947e-f79f05dfbd06,ko
yAniMqyWQZ2FYp6rNM8Yrg,hopemobi,512509_530741_1860,install,1.7,211.200.218.55,b48a301d-db74-4517-af89-d918c5c57061,1557308519,2019-05-08 17:41:59,1557409252,2019-05-09 21:40:52,1557409284,257834e4b3654588acf2151eb5d34017-1557308476,http://postback.hopemobi.net/pb/lsr?transaction_id=257834e4b3654588acf2151eb5d34017-1557308476&payout=1.7&sid=179-appier,idfa_b48a301d-db74-4517-af89-d918c5c57061,ko
yAniMqyWQZ2FYp6rNM8Yrg,hopemobi,512509_530741_1860,install,1.5,59.2.105.90,e24c7b88-cce4-41ad-88a7-f45e79ba696f,1557309513,2019-05-08 17:58:33,1557309552,2019-05-08 17:59:12,1557309584,6e2835f0313d43f49f1de4e487ec9499-1557309512,http://postback.hopemobi.net/pb/lsr?transaction_id=6e2835f0313d43f49f1de4e487ec9499-1557309512&payout=1.5&sid=179-appier,idfa_e24c7b88-cce4-41ad-88a7-f45e79ba696f,ko
yAniMqyWQZ2FYp6rNM8Yrg,hopemobi,512509_530741_1860,install,1.7,223.62.162.72,d9ade9d2-f7ff-4a1d-8cba-7269703cbde5,1557308853,2019-05-08 17:47:33,1557409817,2019-05-09 21:50:17,1557409848,3ca4a35d88c44c9b8a083f58edda5c6e-1557308833,http://postback.hopemobi.net/pb/lsr?transaction_id=3ca4a35d88c44c9b8a083f58edda5c6e-1557308833&payout=1.7&sid=179-appier,idfa_d9ade9d2-f7ff-4a1d-8cba-7269703cbde5,ko
yAniMqyWQZ2FYp6rNM8Yrg,hopemobi,512509_530741_1860,install,1.5,211.36.139.222,ab55f3e1-1e24-4599-853e-dd17f5969781,1557308757,2019-05-08 17:45:57,1557318680,2019-05-08 20:31:20,1557318711,1e6e559120b64ac2af2d8645b35326d3-1557308744,http://postback.hopemobi.net/pb/lsr?transaction_id=1e6e559120b64ac2af2d8645b35326d3-1557308744&payout=1.5&sid=179-appier,idfa_ab55f3e1-1e24-4599-853e-dd17f5969781,ko
yAniMqyWQZ2FYp6rNM8Yrg,hopemobi,512509_530741_1860,install,1.5,39.7.55.42,ea01ed3b-f5e4-4174-84cc-88e456020a3f,1557306316,2019-05-08 17:05:16,1557306346,2019-05-08 17:05:46,1557306376,79281f69de224f3ab4e3fe98aacf2bb9-1557306314,http://postback.hopemobi.net/pb/lsr?transaction_id=79281f69de224f3ab4e3fe98aacf2bb9-1557306314&payout=1.5&sid=179-appier,idfa_ea01ed3b-f5e4-4174-84cc-88e456020a3f,ko
yAniMqyWQZ2FYp6rNM8Yrg,hopemobi,512509_530741_1860,install,1.5,58.140.208.201,009b6b90-8ac2-4a1b-af0e-1316cb73ed7c,1557306976,2019-05-08 17:16:16,1557307017,2019-05-08 17:16:57,1557307048,fb2a2bbce04c4aa9aa6047649f346ad3-1557306975,http://postback.hopemobi.net/pb/lsr?transaction_id=fb2a2bbce04c4aa9aa6047649f346ad3-1557306975&payout=1.5&sid=179-appier,idfa_009b6b90-8ac2-4a1b-af0e-1316cb73ed7c,ko
yAniMqyWQZ2FYp6rNM8Yrg,hopemobi,512509_530741_1860,install,1.5,183.105.242.64,1bb08318-796b-4649-a13f-5f6758c35f97,1557309574,2019-05-08 17:59:34,1557309808,2019-05-08 18:03:28,1557309839,c057e2088743459f8b1531e27ce22c71-1557309572,http://postback.hopemobi.net/pb/lsr?transaction_id=c057e2088743459f8b1531e27ce22c71-1557309572&payout=1.5&sid=179-appier,idfa_1bb08318-796b-4649-a13f-5f6758c35f97,ko
yAniMqyWQZ2FYp6rNM8Yrg,hopemobi,512509_530741_1860,install,1.5,27.115.251.176,c86a5ee2-3fe8-4bbd-9e62-e5ea09bd9afd,1557308398,2019-05-08 17:39:58,1557308436,2019-05-08 17:40:36,1557308467,90c8b148079a48aeb122c273e6d04f7e-1557308396,http://postback.hopemobi.net/pb/lsr?transaction_id=90c8b148079a48aeb122c273e6d04f7e-1557308396&payout=1.5&sid=179-appier,idfa_c86a5ee2-3fe8-4bbd-9e62-e5ea09bd9afd,ko
yAniMqyWQZ2FYp6rNM8Yrg,hopemobi,512509_530741_1860,install,1.5,61.251.225.109,f70b28ed-c62d-425f-b053-a4cae8742801,1557308269,2019-05-08 17:37:49,1557308940,2019-05-08 17:49:00,1557308972,f06b9eab11454dee9babecb88264cf99-1557308267,http://postback.hopemobi.net/pb/lsr?transaction_id=f06b9eab11454dee9babecb88264cf99-1557308267&payout=1.5&sid=179-appier,idfa_f70b28ed-c62d-425f-b053-a4cae8742801,ko
yAniMqyWQZ2FYp6rNM8Yrg,hopemobi,512509_530741_1860,install,1.7,218.154.231.251,608ebd72-9d5c-4481-933e-a1de22981c14,1557308886,2019-05-08 17:48:06,1557653270,2019-05-12 17:27:50,1557653301,de21fb9d27da4762a5e1fb4ad2dfb837-1557308878,http://postback.hopemobi.net/pb/lsr?transaction_id=de21fb9d27da4762a5e1fb4ad2dfb837-1557308878&payout=1.7&sid=179-appier,idfa_608ebd72-9d5c-4481-933e-a1de22981c14,ko
yAniMqyWQZ2FYp6rNM8Yrg,hopemobi,512509_530741_1860,install,1.7,119.75.66.114,185f06c4-295a-49c4-9a0d-029db4431989,1557308717,2019-05-08 17:45:17,1557405409,2019-05-09 20:36:49,1557405440,d7a84253859b4bb5be4d0e7ce593ee24-1557308698,http://postback.hopemobi.net/pb/lsr?transaction_id=d7a84253859b4bb5be4d0e7ce593ee24-1557308698&payout=1.7&sid=179-appier,idfa_185f06c4-295a-49c4-9a0d-029db4431989,ko
yAniMqyWQZ2FYp6rNM8Yrg,hopemobi,512509_530741_1860,install,1.7,223.62.213.105,c7b80f9c-5b3c-47d1-9162-71bfa4686df5,1557309734,2019-05-08 18:02:14,1557492972,2019-05-10 20:56:12,1557493004,33d693f43a2b41cd84599ea4a84f4860-1557309726,http://postback.hopemobi.net/pb/lsr?transaction_id=33d693f43a2b41cd84599ea4a84f4860-1557309726&payout=1.7&sid=179-appier,idfa_c7b80f9c-5b3c-47d1-9162-71bfa4686df5,ko
yAniMqyWQZ2FYp6rNM8Yrg,hopemobi,512509_530741_1860,install,1.7,175.199.145.13,cd7f43c3-f995-4c93-bbce-53faa9d4f9c8,1557308854,2019-05-08 17:47:34,1557657199,2019-05-12 18:33:19,1557657231,48e0d3086fce4618adf21d0fddc2ac2e-1557308835,http://postback.hopemobi.net/pb/lsr?transaction_id=48e0d3086fce4618adf21d0fddc2ac2e-1557308835&payout=1.7&sid=179-appier,idfa_cd7f43c3-f995-4c93-bbce-53faa9d4f9c8,ko
