cid,partner_id,channel_id,action_id,cpi,ip,idfa,click time,click datetime,install time,install datetime,postback time,click id,postback url,unique user id
rwj8hdgbQq2HaS84j2e9vA,hopemobi,128_36_7_823-157,install,2.5,126.140.224.172,B454C5B4-3492-49E0-AC93-3059B7DC1323,1557970031,2019-05-16 09:27:11,1557970079,2019-05-16 09:27:59,1557970109,5e6be0d508174d4181e5d1642a621fcf-1557970015,http://postback.hopemobi.net/pb/lsr?transaction_id=5e6be0d508174d4181e5d1642a621fcf-1557970015&payout=2.5&sid=179-appier,idfa_B454C5B4-3492-49E0-AC93-3059B7DC1323,ja
rwj8hdgbQq2HaS84j2e9vA,hopemobi,128_36_7_823-157,install,2.5,121.103.177.132,43C89FAD-9EAE-4CC5-BFE8-84059972B5AB,1557893486,2019-05-15 12:11:26,1557893542,2019-05-15 12:12:22,1557893572,04e1dab600ce4e87b182c01541c3c662-1557893463,http://postback.hopemobi.net/pb/lsr?transaction_id=04e1dab600ce4e87b182c01541c3c662-1557893463&payout=2.5&sid=179-appier,idfa_43C89FAD-9EAE-4CC5-BFE8-84059972B5AB,ja
rwj8hdgbQq2HaS84j2e9vA,hopemobi,128_36_7_823-157,install,2.5,175.177.40.45,7D21A17E-FA3D-4FF5-A7D3-3E57285AB4E3,1557973544,2019-05-16 10:25:44,1557973592,2019-05-16 10:26:32,1557973622,e4ee21c294604657aefd740bd5e26eb7-1557973520,http://postback.hopemobi.net/pb/lsr?transaction_id=e4ee21c294604657aefd740bd5e26eb7-1557973520&payout=2.5&sid=179-appier,idfa_7D21A17E-FA3D-4FF5-A7D3-3E57285AB4E3,ja
rwj8hdgbQq2HaS84j2e9vA,hopemobi,128_36_7_823-157,install,2.5,210.136.5.105,EE27C106-3B83-447E-B129-48762ED19828,1557972616,2019-05-16 10:10:16,1557972664,2019-05-16 10:11:04,1557972695,ae41ee8976ef46e3bb97f8ae8f8bed6b-1557972594,http://postback.hopemobi.net/pb/lsr?transaction_id=ae41ee8976ef46e3bb97f8ae8f8bed6b-1557972594&payout=2.5&sid=179-appier,idfa_EE27C106-3B83-447E-B129-48762ED19828,ja
rwj8hdgbQq2HaS84j2e9vA,hopemobi,128_36_7_823-157,install,2.5,114.174.60.150,F0FF5248-19BD-422A-96E8-53DBF67C6D0F,1557972216,2019-05-16 10:03:36,1557972266,2019-05-16 10:04:26,1557972296,373af47592544a529e9a5bbcb6d50ff8-1557972201,http://postback.hopemobi.net/pb/lsr?transaction_id=373af47592544a529e9a5bbcb6d50ff8-1557972201&payout=2.5&sid=179-appier,idfa_F0FF5248-19BD-422A-96E8-53DBF67C6D0F,ja
rwj8hdgbQq2HaS84j2e9vA,hopemobi,128_36_7_823-157,install,2.5,133.5.11.12,488F7D2D-8B15-41DB-BCB6-6087D8438847,1557895593,2019-05-15 12:46:33,1557895646,2019-05-15 12:47:26,1557895676,cd0e17fa458a4454b2ca4510de9fbb07-1557895571,http://postback.hopemobi.net/pb/lsr?transaction_id=cd0e17fa458a4454b2ca4510de9fbb07-1557895571&payout=2.5&sid=179-appier,idfa_488F7D2D-8B15-41DB-BCB6-6087D8438847,ja
rwj8hdgbQq2HaS84j2e9vA,hopemobi,128_36_7_823-157,install,2.5,118.10.244.204,C2F69ECD-9F39-429E-94D9-0DD988A42099,1557972144,2019-05-16 10:02:24,1557972192,2019-05-16 10:03:12,1557972222,dbe0a026413f4d2ba542ead6fb80dc78-1557972128,http://postback.hopemobi.net/pb/lsr?transaction_id=dbe0a026413f4d2ba542ead6fb80dc78-1557972128&payout=2.5&sid=179-appier,idfa_C2F69ECD-9F39-429E-94D9-0DD988A42099,ja
rwj8hdgbQq2HaS84j2e9vA,hopemobi,128_36_7_823-157,install,2.5,121.2.192.48,27D90EC5-3D31-494C-896D-0362A33EA099,1557895308,2019-05-15 12:41:48,1557895354,2019-05-15 12:42:34,1557895384,a3e8d39b850645e0992801fe5bc9e751-1557895294,http://postback.hopemobi.net/pb/lsr?transaction_id=a3e8d39b850645e0992801fe5bc9e751-1557895294&payout=2.5&sid=179-appier,idfa_27D90EC5-3D31-494C-896D-0362A33EA099,ja
rwj8hdgbQq2HaS84j2e9vA,hopemobi,128_36_7_823-157,install,2.5,58.0.227.5,FE8752C7-E7A5-44D2-9295-8572267CCD2F,1557895302,2019-05-15 12:41:42,1557895352,2019-05-15 12:42:32,1557895382,1ecee153fd8b4976b59a4d5286253742-1557895282,http://postback.hopemobi.net/pb/lsr?transaction_id=1ecee153fd8b4976b59a4d5286253742-1557895282&payout=2.5&sid=179-appier,idfa_FE8752C7-E7A5-44D2-9295-8572267CCD2F,ja
rwj8hdgbQq2HaS84j2e9vA,hopemobi,128_36_7_823-157,install,2.5,61.213.119.194,E47C9C7C-FDB6-4B98-9C19-35DD2F75BA8C,1557895771,2019-05-15 12:49:31,1557895811,2019-05-15 12:50:11,1557895841,db5794e9969449daa996ab1ab6bebb00-1557895728,http://postback.hopemobi.net/pb/lsr?transaction_id=db5794e9969449daa996ab1ab6bebb00-1557895728&payout=2.5&sid=179-appier,idfa_E47C9C7C-FDB6-4B98-9C19-35DD2F75BA8C,ja
rwj8hdgbQq2HaS84j2e9vA,hopemobi,128_36_7_823-157,install,2.5,153.167.98.195,1905B695-E485-41EC-B995-C84D9F3F6D6F,1557972586,2019-05-16 10:09:46,1557972637,2019-05-16 10:10:37,1557972667,dfef4e044d65481995fcbdfe396089b9-1557972571,http://postback.hopemobi.net/pb/lsr?transaction_id=dfef4e044d65481995fcbdfe396089b9-1557972571&payout=2.5&sid=179-appier,idfa_1905B695-E485-41EC-B995-C84D9F3F6D6F,ja
rwj8hdgbQq2HaS84j2e9vA,hopemobi,128_36_7_823-157,install,2.5,61.89.161.155,126CC7A4-7183-4301-97B5-D4E51C3EC0CD,1557971969,2019-05-16 09:59:29,1557972014,2019-05-16 10:00:14,1557972044,6a5e16a625784a5baf3d9dcfd877f7ae-1557971955,http://postback.hopemobi.net/pb/lsr?transaction_id=6a5e16a625784a5baf3d9dcfd877f7ae-1557971955&payout=2.5&sid=179-appier,idfa_126CC7A4-7183-4301-97B5-D4E51C3EC0CD,ja
rwj8hdgbQq2HaS84j2e9vA,hopemobi,128_36_7_823-157,install,2.5,60.64.145.49,02D4CDD5-5EBD-452C-91AE-8305B9E114CE,1557973957,2019-05-16 10:32:37,1557974003,2019-05-16 10:33:23,1557974033,14234d654d3d45959da281c39cd82405-1557973942,http://postback.hopemobi.net/pb/lsr?transaction_id=14234d654d3d45959da281c39cd82405-1557973942&payout=2.5&sid=179-appier,idfa_02D4CDD5-5EBD-452C-91AE-8305B9E114CE,ja
rwj8hdgbQq2HaS84j2e9vA,hopemobi,128_36_7_823-157,install,2.5,150.46.200.42,59A4FC46-4416-4AB3-B078-C9408DE90B85,1557969802,2019-05-16 09:23:22,1557969847,2019-05-16 09:24:07,1557969878,2db57d05185c489d8438bf5beca657f5-1557969786,http://postback.hopemobi.net/pb/lsr?transaction_id=2db57d05185c489d8438bf5beca657f5-1557969786&payout=2.5&sid=179-appier,idfa_59A4FC46-4416-4AB3-B078-C9408DE90B85,ja
rwj8hdgbQq2HaS84j2e9vA,hopemobi,128_36_7_823-157,install,2.5,183.76.8.6,67B69B15-D694-446C-A0C6-0F24A05082CF,1557970616,2019-05-16 09:36:56,1557970668,2019-05-16 09:37:48,1557970699,55311b9c0bb8427fb8438ec4ad1a544f-1557970599,http://postback.hopemobi.net/pb/lsr?transaction_id=55311b9c0bb8427fb8438ec4ad1a544f-1557970599&payout=2.5&sid=179-appier,idfa_67B69B15-D694-446C-A0C6-0F24A05082CF,ja
rwj8hdgbQq2HaS84j2e9vA,hopemobi,128_36_7_823-157,install,2.5,118.10.244.204,478A8983-9D07-49A1-961B-3C23ACA3632C,1557972201,2019-05-16 10:03:21,1557972250,2019-05-16 10:04:10,1557972280,97819a19d20d499c92f0731c3bbf6694-1557972176,http://postback.hopemobi.net/pb/lsr?transaction_id=97819a19d20d499c92f0731c3bbf6694-1557972176&payout=2.5&sid=179-appier,idfa_478A8983-9D07-49A1-961B-3C23ACA3632C,ja
rwj8hdgbQq2HaS84j2e9vA,hopemobi,128_36_7_823-157,install,2.5,42.150.136.162,F645E58D-FD6A-4CA7-9FE9-65B85FE3092C,1557971306,2019-05-16 09:48:26,1557971362,2019-05-16 09:49:22,1557971392,689ab68263244302a4248cec5d2b5ed8-1557971279,http://postback.hopemobi.net/pb/lsr?transaction_id=689ab68263244302a4248cec5d2b5ed8-1557971279&payout=2.5&sid=179-appier,idfa_F645E58D-FD6A-4CA7-9FE9-65B85FE3092C,ja
rwj8hdgbQq2HaS84j2e9vA,hopemobi,128_36_7_823-157,install,2.5,59.169.183.12,BF081390-D50D-4B70-A05E-6C396B9ABB03,1557970926,2019-05-16 09:42:06,1557970975,2019-05-16 09:42:55,1557971005,5ad95aecc9b5451e9108c9227702a864-1557970911,http://postback.hopemobi.net/pb/lsr?transaction_id=5ad95aecc9b5451e9108c9227702a864-1557970911&payout=2.5&sid=179-appier,idfa_BF081390-D50D-4B70-A05E-6C396B9ABB03,ja
rwj8hdgbQq2HaS84j2e9vA,hopemobi,128_36_7_823-157,install,2.5,1.21.132.81,9712B2F5-BE61-48D9-90FF-2BFE840DDD00,1557972203,2019-05-16 10:03:23,1557972257,2019-05-16 10:04:17,1557972288,cb5298f0d92b451aa7013791fcf55fe0-1557972167,http://postback.hopemobi.net/pb/lsr?transaction_id=cb5298f0d92b451aa7013791fcf55fe0-1557972167&payout=2.5&sid=179-appier,idfa_9712B2F5-BE61-48D9-90FF-2BFE840DDD00,ja
rwj8hdgbQq2HaS84j2e9vA,hopemobi,128_36_7_823-157,install,2.5,59.169.183.12,B2861CF5-20F2-4130-AAE6-EBEE62FA42CD,1557970960,2019-05-16 09:42:40,1557971009,2019-05-16 09:43:29,1557971040,38d25b102c10439193f5f7aaf84c47c3-1557970937,http://postback.hopemobi.net/pb/lsr?transaction_id=38d25b102c10439193f5f7aaf84c47c3-1557970937&payout=2.5&sid=179-appier,idfa_B2861CF5-20F2-4130-AAE6-EBEE62FA42CD,ja
rwj8hdgbQq2HaS84j2e9vA,hopemobi,128_36_7_823-157,install,2.5,112.69.146.64,CCE82828-E849-4B31-89DF-75FD4F3B551B,1557894088,2019-05-15 12:21:28,1557894134,2019-05-15 12:22:14,1557894164,d4dcbbd471174e5cb18bda6c666ec7a4-1557894072,http://postback.hopemobi.net/pb/lsr?transaction_id=d4dcbbd471174e5cb18bda6c666ec7a4-1557894072&payout=2.5&sid=179-appier,idfa_CCE82828-E849-4B31-89DF-75FD4F3B551B,ja
rwj8hdgbQq2HaS84j2e9vA,hopemobi,128_36_7_823-157,install,2.5,153.201.165.243,64495127-9E01-4FBA-8813-67B68842AD3D,1557894426,2019-05-15 12:27:06,1557894470,2019-05-15 12:27:50,1557894500,83e91cdff6904dbbac5a02c6db634e5a-1557894404,http://postback.hopemobi.net/pb/lsr?transaction_id=83e91cdff6904dbbac5a02c6db634e5a-1557894404&payout=2.5&sid=179-appier,idfa_64495127-9E01-4FBA-8813-67B68842AD3D,ja
rwj8hdgbQq2HaS84j2e9vA,hopemobi,128_36_7_823-157,install,2.5,210.149.159.22,A54CF626-218D-4200-A537-7B0FC9450666,1557894810,2019-05-15 12:33:30,1557894856,2019-05-15 12:34:16,1557894886,2fca6a8e4936437c85a3078a4f2adbe5-1557894798,http://postback.hopemobi.net/pb/lsr?transaction_id=2fca6a8e4936437c85a3078a4f2adbe5-1557894798&payout=2.5&sid=179-appier,idfa_A54CF626-218D-4200-A537-7B0FC9450666,ja
rwj8hdgbQq2HaS84j2e9vA,hopemobi,128_36_7_823-157,install,2.5,182.166.177.102,357087EC-4D98-48B3-9F5D-D398C6B63DB7,1557973484,2019-05-16 10:24:44,1557973528,2019-05-16 10:25:28,1557973559,abf29521f22a49cb88f29161472f2278-1557973449,http://postback.hopemobi.net/pb/lsr?transaction_id=abf29521f22a49cb88f29161472f2278-1557973449&payout=2.5&sid=179-appier,idfa_357087EC-4D98-48B3-9F5D-D398C6B63DB7,ja
rwj8hdgbQq2HaS84j2e9vA,hopemobi,128_36_7_823-157,install,2.5,126.224.179.12,C830919B-ADDF-4811-A1AA-7075C2618D5F,1557972904,2019-05-16 10:15:04,1557972952,2019-05-16 10:15:52,1557972982,02138baac501478fa32d90e99802a20f-1557972880,http://postback.hopemobi.net/pb/lsr?transaction_id=02138baac501478fa32d90e99802a20f-1557972880&payout=2.5&sid=179-appier,idfa_C830919B-ADDF-4811-A1AA-7075C2618D5F,ja
rwj8hdgbQq2HaS84j2e9vA,hopemobi,128_36_7_823-157,install,2.5,49.129.202.6,CC2F367E-C634-4FE8-B5EC-D45213A60FFD,1557972530,2019-05-16 10:08:50,1557972579,2019-05-16 10:09:39,1557972609,621f5f017adc46b0905992af08784dd8-1557972515,http://postback.hopemobi.net/pb/lsr?transaction_id=621f5f017adc46b0905992af08784dd8-1557972515&payout=2.5&sid=179-appier,idfa_CC2F367E-C634-4FE8-B5EC-D45213A60FFD,ja
rwj8hdgbQq2HaS84j2e9vA,hopemobi,128_36_7_823-157,install,2.5,126.58.212.113,58148B53-7A12-4D4F-A96F-95AEC53DCE16,1557971881,2019-05-16 09:58:01,1557971930,2019-05-16 09:58:50,1557971961,3c5d1579c1cb46799975d2c98fb903c5-1557971866,http://postback.hopemobi.net/pb/lsr?transaction_id=3c5d1579c1cb46799975d2c98fb903c5-1557971866&payout=2.5&sid=179-appier,idfa_58148B53-7A12-4D4F-A96F-95AEC53DCE16,ja
rwj8hdgbQq2HaS84j2e9vA,hopemobi,128_36_7_823-157,install,2.5,106.172.131.85,2DFC37ED-A572-4109-9C14-A5591264CEEA,1557973990,2019-05-16 10:33:10,1557974043,2019-05-16 10:34:03,1557974075,a085d3ed195b414cbdc2f202bc929b7a-1557973960,http://postback.hopemobi.net/pb/lsr?transaction_id=a085d3ed195b414cbdc2f202bc929b7a-1557973960&payout=2.5&sid=179-appier,idfa_2DFC37ED-A572-4109-9C14-A5591264CEEA,ja
rwj8hdgbQq2HaS84j2e9vA,hopemobi,128_36_7_823-157,install,2.5,221.26.251.18,5B65A32D-4DBD-4042-A7C5-83F96B813F08,1557971082,2019-05-16 09:44:42,1557971125,2019-05-16 09:45:25,1557971156,f17c06dddc504048aa830ea1666df579-1557971050,http://postback.hopemobi.net/pb/lsr?transaction_id=f17c06dddc504048aa830ea1666df579-1557971050&payout=2.5&sid=179-appier,idfa_5B65A32D-4DBD-4042-A7C5-83F96B813F08,ja
rwj8hdgbQq2HaS84j2e9vA,hopemobi,128_36_7_823-157,install,2.5,49.129.202.6,840B2FFB-E074-4155-995D-0E2B2C356484,1557972730,2019-05-16 10:12:10,1557972774,2019-05-16 10:12:54,1557972805,b553ada42ed64545bce9b6cda1517fe5-1557972702,http://postback.hopemobi.net/pb/lsr?transaction_id=b553ada42ed64545bce9b6cda1517fe5-1557972702&payout=2.5&sid=179-appier,idfa_840B2FFB-E074-4155-995D-0E2B2C356484,ja
rwj8hdgbQq2HaS84j2e9vA,hopemobi,128_36_7_823-157,install,2.5,153.216.134.153,EC358743-ABF9-4AA6-B192-237041A474AF,1557969974,2019-05-16 09:26:14,1557970024,2019-05-16 09:27:04,1557970054,be95b36c2a58460b994191e1e597e2b7-1557969959,http://postback.hopemobi.net/pb/lsr?transaction_id=be95b36c2a58460b994191e1e597e2b7-1557969959&payout=2.5&sid=179-appier,idfa_EC358743-ABF9-4AA6-B192-237041A474AF,ja
rwj8hdgbQq2HaS84j2e9vA,hopemobi,128_36_7_823-157,install,2.5,223.135.146.134,ACA0BBE2-CC0D-4C75-97C1-12DE7D2462E0,1557971748,2019-05-16 09:55:48,1557971794,2019-05-16 09:56:34,1557971824,2f9f83aea8354b38b2b8b36577a37628-1557971732,http://postback.hopemobi.net/pb/lsr?transaction_id=2f9f83aea8354b38b2b8b36577a37628-1557971732&payout=2.5&sid=179-appier,idfa_ACA0BBE2-CC0D-4C75-97C1-12DE7D2462E0,ja
rwj8hdgbQq2HaS84j2e9vA,hopemobi,128_36_7_823-157,install,2.5,153.139.229.120,C9AFD33F-9E53-45D1-ACE0-EBEE1B96F93B,1557894789,2019-05-15 12:33:09,1557894888,2019-05-15 12:34:48,1557894918,0e93001e3a8f4c8890d0e3926a8e750d-1557894764,http://postback.hopemobi.net/pb/lsr?transaction_id=0e93001e3a8f4c8890d0e3926a8e750d-1557894764&payout=2.5&sid=179-appier,idfa_C9AFD33F-9E53-45D1-ACE0-EBEE1B96F93B,ja
rwj8hdgbQq2HaS84j2e9vA,hopemobi,128_36_7_823-157,install,2.5,60.73.197.157,1A4C4D38-15CE-489C-82E6-E8648A567A49,1557971658,2019-05-16 09:54:18,1557971709,2019-05-16 09:55:09,1557971740,fa97ba5c23034ebe9b74d8c81d1b84f0-1557971632,http://postback.hopemobi.net/pb/lsr?transaction_id=fa97ba5c23034ebe9b74d8c81d1b84f0-1557971632&payout=2.5&sid=179-appier,idfa_1A4C4D38-15CE-489C-82E6-E8648A567A49,ja
rwj8hdgbQq2HaS84j2e9vA,hopemobi,128_36_7_823-157,install,2.5,114.174.60.150,B15C4315-789A-495A-B9B9-3C052E815659,1557972200,2019-05-16 10:03:20,1557972242,2019-05-16 10:04:02,1557972272,ca992713f70c46a78d4993a519725b49-1557972171,http://postback.hopemobi.net/pb/lsr?transaction_id=ca992713f70c46a78d4993a519725b49-1557972171&payout=2.5&sid=179-appier,idfa_B15C4315-789A-495A-B9B9-3C052E815659,ja
rwj8hdgbQq2HaS84j2e9vA,hopemobi,128_36_7_823-157,install,2.5,221.26.251.18,570E551C-2924-4787-900F-2872A04F490E,1557970924,2019-05-16 09:42:04,1557970973,2019-05-16 09:42:53,1557971003,bceb64bf5bf64ec394527f87cc975be4-1557970907,http://postback.hopemobi.net/pb/lsr?transaction_id=bceb64bf5bf64ec394527f87cc975be4-1557970907&payout=2.5&sid=179-appier,idfa_570E551C-2924-4787-900F-2872A04F490E,ja
rwj8hdgbQq2HaS84j2e9vA,hopemobi,128_36_7_823-157,install,2.5,112.68.97.77,6E3F3E2F-C793-4E7E-A702-804AB3B3BA39,1557973188,2019-05-16 10:19:48,1557973242,2019-05-16 10:20:42,1557973274,af73da004c924c47952fb0b59f30b1d7-1557973162,http://postback.hopemobi.net/pb/lsr?transaction_id=af73da004c924c47952fb0b59f30b1d7-1557973162&payout=2.5&sid=179-appier,idfa_6E3F3E2F-C793-4E7E-A702-804AB3B3BA39,ja
rwj8hdgbQq2HaS84j2e9vA,hopemobi,128_36_7_823-157,install,2.5,61.194.140.246,0FD38D76-AC56-4872-AF94-93340ACB6F70,1557970324,2019-05-16 09:32:04,1557970376,2019-05-16 09:32:56,1557970406,08c1adeb196848a188870d31c988bb79-1557970303,http://postback.hopemobi.net/pb/lsr?transaction_id=08c1adeb196848a188870d31c988bb79-1557970303&payout=2.5&sid=179-appier,idfa_0FD38D76-AC56-4872-AF94-93340ACB6F70,ja
rwj8hdgbQq2HaS84j2e9vA,hopemobi,128_36_7_823-157,install,2.5,119.106.56.154,CA8CE58D-6B84-4635-8239-A828CE45A498,1557893796,2019-05-15 12:16:36,1557893847,2019-05-15 12:17:27,1557893877,b6cc2ce769c149a6bbffb21bc5913053-1557893781,http://postback.hopemobi.net/pb/lsr?transaction_id=b6cc2ce769c149a6bbffb21bc5913053-1557893781&payout=2.5&sid=179-appier,idfa_CA8CE58D-6B84-4635-8239-A828CE45A498,ja
rwj8hdgbQq2HaS84j2e9vA,hopemobi,128_36_7_823-157,install,2.5,60.93.34.203,9F1221A5-E92D-450F-91BF-A16BFB5ECC66,1557973283,2019-05-16 10:21:23,1557973323,2019-05-16 10:22:03,1557973354,1c852650abd246d2bc19e096f9af31fb-1557973252,http://postback.hopemobi.net/pb/lsr?transaction_id=1c852650abd246d2bc19e096f9af31fb-1557973252&payout=2.5&sid=179-appier,idfa_9F1221A5-E92D-450F-91BF-A16BFB5ECC66,ja
rwj8hdgbQq2HaS84j2e9vA,hopemobi,128_36_7_823-157,install,2.5,126.224.179.12,DF9DF18A-CC50-4D63-B863-77CC9613F36D,1557972883,2019-05-16 10:14:43,1557972933,2019-05-16 10:15:33,1557972965,9f8d6341ae4940f0b0139d250b0027a7-1557972862,http://postback.hopemobi.net/pb/lsr?transaction_id=9f8d6341ae4940f0b0139d250b0027a7-1557972862&payout=2.5&sid=179-appier,idfa_DF9DF18A-CC50-4D63-B863-77CC9613F36D,ja
rwj8hdgbQq2HaS84j2e9vA,hopemobi,128_36_7_823-157,install,2.5,153.167.98.195,29638478-8FE1-4C9B-AB44-F79FE67F6F65,1557972555,2019-05-16 10:09:15,1557972625,2019-05-16 10:10:25,1557972655,25feb53d54da4f08b01fd727d763e6fc-1557972523,http://postback.hopemobi.net/pb/lsr?transaction_id=25feb53d54da4f08b01fd727d763e6fc-1557972523&payout=2.5&sid=179-appier,idfa_29638478-8FE1-4C9B-AB44-F79FE67F6F65,ja
rwj8hdgbQq2HaS84j2e9vA,hopemobi,128_36_7_823-157,install,2.5,210.254.118.81,C9A629E8-9416-43A5-A541-178E6002E478,1557895624,2019-05-15 12:47:04,1557895670,2019-05-15 12:47:50,1557895700,f51ea5fa22064c3eb1525b5e33615853-1557895600,http://postback.hopemobi.net/pb/lsr?transaction_id=f51ea5fa22064c3eb1525b5e33615853-1557895600&payout=2.5&sid=179-appier,idfa_C9A629E8-9416-43A5-A541-178E6002E478,ja
rwj8hdgbQq2HaS84j2e9vA,hopemobi,128_36_7_823-157,install,2.5,58.0.227.5,A9F27AB3-3819-41FB-A5DA-94537C521044,1557970949,2019-05-16 09:42:29,1557970999,2019-05-16 09:43:19,1557971030,e9dfd8b86e7248b8945210d0e8dc7ca2-1557970913,http://postback.hopemobi.net/pb/lsr?transaction_id=e9dfd8b86e7248b8945210d0e8dc7ca2-1557970913&payout=2.5&sid=179-appier,idfa_A9F27AB3-3819-41FB-A5DA-94537C521044,ja
rwj8hdgbQq2HaS84j2e9vA,hopemobi,128_36_7_823-157,install,2.5,153.227.80.153,F0437DAD-2DB5-4142-A1B7-3652ADABC926,1557970281,2019-05-16 09:31:21,1557970327,2019-05-16 09:32:07,1557970357,155b8f2e360b4596b4e388e40274dd26-1557970267,http://postback.hopemobi.net/pb/lsr?transaction_id=155b8f2e360b4596b4e388e40274dd26-1557970267&payout=2.5&sid=179-appier,idfa_F0437DAD-2DB5-4142-A1B7-3652ADABC926,ja
rwj8hdgbQq2HaS84j2e9vA,hopemobi,128_36_7_823-157,install,2.5,106.159.2.17,48B9B797-23BC-4983-B9D4-90F9A06E9363,1557895740,2019-05-15 12:49:00,1557895785,2019-05-15 12:49:45,1557895817,7457ee3f241b463e99fa8fcddb865723-1557895724,http://postback.hopemobi.net/pb/lsr?transaction_id=7457ee3f241b463e99fa8fcddb865723-1557895724&payout=2.5&sid=179-appier,idfa_48B9B797-23BC-4983-B9D4-90F9A06E9363,ja
rwj8hdgbQq2HaS84j2e9vA,hopemobi,128_36_7_823-157,install,2.5,126.224.179.12,ADB6F761-6DD3-4292-99FB-6A6110E21AD6,1557972838,2019-05-16 10:13:58,1557972992,2019-05-16 10:16:32,1557973022,664639f5526143c4870ccfa8691e49bd-1557972793,http://postback.hopemobi.net/pb/lsr?transaction_id=664639f5526143c4870ccfa8691e49bd-1557972793&payout=2.5&sid=179-appier,idfa_ADB6F761-6DD3-4292-99FB-6A6110E21AD6,ja
rwj8hdgbQq2HaS84j2e9vA,hopemobi,128_36_7_823-157,install,2.5,219.98.51.24,E21EE191-735C-4FFB-83B0-0DBF22004515,1557973188,2019-05-16 10:19:48,1557973238,2019-05-16 10:20:38,1557973268,efe07c208c864f5fabd95a73fd0845a8-1557973174,http://postback.hopemobi.net/pb/lsr?transaction_id=efe07c208c864f5fabd95a73fd0845a8-1557973174&payout=2.5&sid=179-appier,idfa_E21EE191-735C-4FFB-83B0-0DBF22004515,ja
rwj8hdgbQq2HaS84j2e9vA,hopemobi,128_36_7_823-157,install,2.5,210.254.118.81,C139C3F2-C92C-46BC-A816-2250DDE817E3,1557895359,2019-05-15 12:42:39,1557895401,2019-05-15 12:43:21,1557895432,a7de7f7afae14e19bbb3bef14cf8edee-1557895339,http://postback.hopemobi.net/pb/lsr?transaction_id=a7de7f7afae14e19bbb3bef14cf8edee-1557895339&payout=2.5&sid=179-appier,idfa_C139C3F2-C92C-46BC-A816-2250DDE817E3,ja
rwj8hdgbQq2HaS84j2e9vA,hopemobi,128_36_7_823-157,install,2.5,175.177.40.45,37C74994-72D8-414D-B2E7-FDE951DE9F42,1557973538,2019-05-16 10:25:38,1557973587,2019-05-16 10:26:27,1557973617,d7eb4459658f4c0b862ba20bfc743cbe-1557973524,http://postback.hopemobi.net/pb/lsr?transaction_id=d7eb4459658f4c0b862ba20bfc743cbe-1557973524&payout=2.5&sid=179-appier,idfa_37C74994-72D8-414D-B2E7-FDE951DE9F42,ja
rwj8hdgbQq2HaS84j2e9vA,hopemobi,128_36_7_823-157,install,2.5,125.52.80.190,7FA74ADA-B54E-4CC8-8532-69105E1BA9BA,1557895012,2019-05-15 12:36:52,1557895059,2019-05-15 12:37:39,1557895090,c0a1348d2915436694d91922b53edcd3-1557894996,http://postback.hopemobi.net/pb/lsr?transaction_id=c0a1348d2915436694d91922b53edcd3-1557894996&payout=2.5&sid=179-appier,idfa_7FA74ADA-B54E-4CC8-8532-69105E1BA9BA,ja
rwj8hdgbQq2HaS84j2e9vA,hopemobi,128_36_7_823-157,install,2.5,153.137.106.243,62B5AB95-6082-4D4B-80E6-45C12E07F066,1557895843,2019-05-15 12:50:43,1557895924,2019-05-15 12:52:04,1557895956,921dafbdc6e844e5ad6e53ebc4befa4c-1557895828,http://postback.hopemobi.net/pb/lsr?transaction_id=921dafbdc6e844e5ad6e53ebc4befa4c-1557895828&payout=2.5&sid=179-appier,idfa_62B5AB95-6082-4D4B-80E6-45C12E07F066,ja
rwj8hdgbQq2HaS84j2e9vA,hopemobi,128_36_7_823-157,install,2.5,106.172.131.85,97B6BBAB-9D2C-41D7-9216-907E3E90DF2A,1557973960,2019-05-16 10:32:40,1557974010,2019-05-16 10:33:30,1557974040,b19ed001eafa431889342850b0fc3e2f-1557973944,http://postback.hopemobi.net/pb/lsr?transaction_id=b19ed001eafa431889342850b0fc3e2f-1557973944&payout=2.5&sid=179-appier,idfa_97B6BBAB-9D2C-41D7-9216-907E3E90DF2A,ja
rwj8hdgbQq2HaS84j2e9vA,hopemobi,128_36_7_823-157,install,2.5,42.150.136.162,27F7C6D6-0974-4394-B57A-2A6ACAE02E69,1557971389,2019-05-16 09:49:49,1557971437,2019-05-16 09:50:37,1557971467,e7279acd25b4437c84990c6523b9de6d-1557971353,http://postback.hopemobi.net/pb/lsr?transaction_id=e7279acd25b4437c84990c6523b9de6d-1557971353&payout=2.5&sid=179-appier,idfa_27F7C6D6-0974-4394-B57A-2A6ACAE02E69,ja
rwj8hdgbQq2HaS84j2e9vA,hopemobi,128_36_7_823-157,install,2.5,60.93.34.203,F2E9E4B8-CE2B-49EA-AC62-260393B9B7F2,1557973228,2019-05-16 10:20:28,1557973327,2019-05-16 10:22:07,1557973358,cefac9e5c747438eb04bb540bf44bc71-1557973212,http://postback.hopemobi.net/pb/lsr?transaction_id=cefac9e5c747438eb04bb540bf44bc71-1557973212&payout=2.5&sid=179-appier,idfa_F2E9E4B8-CE2B-49EA-AC62-260393B9B7F2,ja
rwj8hdgbQq2HaS84j2e9vA,hopemobi,128_36_7_823-157,install,2.5,106.159.2.17,D5E75BC2-4057-40E5-87FD-D52159424069,1557895799,2019-05-15 12:49:59,1557895845,2019-05-15 12:50:45,1557895876,344e3e4a8ab142dfbd851e6344c9bc79-1557895768,http://postback.hopemobi.net/pb/lsr?transaction_id=344e3e4a8ab142dfbd851e6344c9bc79-1557895768&payout=2.5&sid=179-appier,idfa_D5E75BC2-4057-40E5-87FD-D52159424069,ja
rwj8hdgbQq2HaS84j2e9vA,hopemobi,128_36_7_823-157,install,2.5,153.227.80.153,7EF6D1C6-54C8-488A-B1C9-40B44C878740,1557970331,2019-05-16 09:32:11,1557970379,2019-05-16 09:32:59,1557970409,3f33e206baa540eda75c731e95fe0f5c-1557970305,http://postback.hopemobi.net/pb/lsr?transaction_id=3f33e206baa540eda75c731e95fe0f5c-1557970305&payout=2.5&sid=179-appier,idfa_7EF6D1C6-54C8-488A-B1C9-40B44C878740,ja
rwj8hdgbQq2HaS84j2e9vA,hopemobi,128_36_7_823-157,install,2.5,211.124.132.184,9D98E25E-34E0-421D-B6CB-6CCCA0644639,1557895083,2019-05-15 12:38:03,1557895133,2019-05-15 12:38:53,1557895164,795732d175c5465c8052dda928d666f5-1557895066,http://postback.hopemobi.net/pb/lsr?transaction_id=795732d175c5465c8052dda928d666f5-1557895066&payout=2.5&sid=179-appier,idfa_9D98E25E-34E0-421D-B6CB-6CCCA0644639,ja
rwj8hdgbQq2HaS84j2e9vA,hopemobi,128_36_7_823-157,install,2.5,223.135.146.134,14884D49-D239-4B1C-8BB1-5318A815D7AE,1557971653,2019-05-16 09:54:13,1557971691,2019-05-16 09:54:51,1557971723,b5cd7fe9d5564dd2b5e2dd731e5fac23-1557971631,http://postback.hopemobi.net/pb/lsr?transaction_id=b5cd7fe9d5564dd2b5e2dd731e5fac23-1557971631&payout=2.5&sid=179-appier,idfa_14884D49-D239-4B1C-8BB1-5318A815D7AE,ja
rwj8hdgbQq2HaS84j2e9vA,hopemobi,128_36_7_823-157,install,2.5,153.227.80.153,2EA2D87E-4492-4A0E-8F19-335568D6E450,1557972881,2019-05-16 10:14:41,1557972926,2019-05-16 10:15:26,1557972957,6ba55a58e98942ffa7386d1614c8aa9d-1557972867,http://postback.hopemobi.net/pb/lsr?transaction_id=6ba55a58e98942ffa7386d1614c8aa9d-1557972867&payout=2.5&sid=179-appier,idfa_2EA2D87E-4492-4A0E-8F19-335568D6E450,ja
rwj8hdgbQq2HaS84j2e9vA,hopemobi,128_36_7_823-157,install,2.5,59.169.183.12,13755E39-F0C7-42DA-BA7E-9471E15ADD32,1557971101,2019-05-16 09:45:01,1557971150,2019-05-16 09:45:50,1557971180,5b413a93f13640ff92a6eb6fe46dd7dd-1557971063,http://postback.hopemobi.net/pb/lsr?transaction_id=5b413a93f13640ff92a6eb6fe46dd7dd-1557971063&payout=2.5&sid=179-appier,idfa_13755E39-F0C7-42DA-BA7E-9471E15ADD32,ja
rwj8hdgbQq2HaS84j2e9vA,hopemobi,128_36_7_823-157,install,2.5,153.227.80.153,8EB93A29-E699-41F3-87B1-C3409CE48AF2,1557973006,2019-05-16 10:16:46,1557973047,2019-05-16 10:17:27,1557973078,18cc655cb8c7478d878e11c7df4bcc23-1557972979,http://postback.hopemobi.net/pb/lsr?transaction_id=18cc655cb8c7478d878e11c7df4bcc23-1557972979&payout=2.5&sid=179-appier,idfa_8EB93A29-E699-41F3-87B1-C3409CE48AF2,ja
rwj8hdgbQq2HaS84j2e9vA,hopemobi,128_36_7_823-157,install,2.5,183.76.8.6,DE4C54C8-D7F3-4FE8-8476-D4B4419025DB,1557970709,2019-05-16 09:38:29,1557970754,2019-05-16 09:39:14,1557970785,6da695768e36473e97055037dc5a7d00-1557970676,http://postback.hopemobi.net/pb/lsr?transaction_id=6da695768e36473e97055037dc5a7d00-1557970676&payout=2.5&sid=179-appier,idfa_DE4C54C8-D7F3-4FE8-8476-D4B4419025DB,ja
rwj8hdgbQq2HaS84j2e9vA,hopemobi,128_36_7_823-157,install,2.5,58.0.227.5,E4A04702-5DFD-47D9-A83E-06F2C9C2E725,1557895222,2019-05-15 12:40:22,1557895269,2019-05-15 12:41:09,1557895299,40e36337e0844dd89a4909392d90f7ac-1557895194,http://postback.hopemobi.net/pb/lsr?transaction_id=40e36337e0844dd89a4909392d90f7ac-1557895194&payout=2.5&sid=179-appier,idfa_E4A04702-5DFD-47D9-A83E-06F2C9C2E725,ja
rwj8hdgbQq2HaS84j2e9vA,hopemobi,128_36_7_823-157,install,2.5,122.24.188.153,34F34ED1-E77A-4F88-A261-A294AB706810,1557895678,2019-05-15 12:47:58,1557895723,2019-05-15 12:48:43,1557895754,e45a161902ce4395997cd2b395ae053b-1557895654,http://postback.hopemobi.net/pb/lsr?transaction_id=e45a161902ce4395997cd2b395ae053b-1557895654&payout=2.5&sid=179-appier,idfa_34F34ED1-E77A-4F88-A261-A294AB706810,ja
rwj8hdgbQq2HaS84j2e9vA,hopemobi,128_36_7_823-157,install,2.5,210.254.118.81,CFC5539C-C7F7-4FD9-AA27-E37E345F6B13,1557895375,2019-05-15 12:42:55,1557895408,2019-05-15 12:43:28,1557895439,4055d9b56ff64f8689b5ae243e5a4de7-1557895359,http://postback.hopemobi.net/pb/lsr?transaction_id=4055d9b56ff64f8689b5ae243e5a4de7-1557895359&payout=2.5&sid=179-appier,idfa_CFC5539C-C7F7-4FD9-AA27-E37E345F6B13,ja
rwj8hdgbQq2HaS84j2e9vA,hopemobi,128_36_7_823-157,install,2.5,153.194.68.76,1BFD3C18-A8B9-4E12-B11F-834A8CB6B72A,1557894458,2019-05-15 12:27:38,1557894508,2019-05-15 12:28:28,1557894538,6b8397441afb4b0291c16607ac5b77b1-1557894431,http://postback.hopemobi.net/pb/lsr?transaction_id=6b8397441afb4b0291c16607ac5b77b1-1557894431&payout=2.5&sid=179-appier,idfa_1BFD3C18-A8B9-4E12-B11F-834A8CB6B72A,ja
rwj8hdgbQq2HaS84j2e9vA,hopemobi,128_36_7_823-157,install,2.5,219.98.51.24,53776005-B2CF-43F1-82D0-43642D91B768,1557973314,2019-05-16 10:21:54,1557973362,2019-05-16 10:22:42,1557973392,a8b75c80c8a04c41a466b5162857a752-1557973281,http://postback.hopemobi.net/pb/lsr?transaction_id=a8b75c80c8a04c41a466b5162857a752-1557973281&payout=2.5&sid=179-appier,idfa_53776005-B2CF-43F1-82D0-43642D91B768,ja
rwj8hdgbQq2HaS84j2e9vA,hopemobi,128_36_7_823-157,install,2.5,122.24.188.153,4DD2D9C3-2268-4A2F-88C9-2D2555027342,1557895621,2019-05-15 12:47:01,1557895663,2019-05-15 12:47:43,1557895693,3ea25cc945bd430f838d000eedfaad72-1557895607,http://postback.hopemobi.net/pb/lsr?transaction_id=3ea25cc945bd430f838d000eedfaad72-1557895607&payout=2.5&sid=179-appier,idfa_4DD2D9C3-2268-4A2F-88C9-2D2555027342,ja
rwj8hdgbQq2HaS84j2e9vA,hopemobi,128_36_7_823-157,install,2.5,182.166.177.102,BF1A495C-E3BF-4D7F-AB38-2793A5E05A1B,1557973730,2019-05-16 10:28:50,1557973784,2019-05-16 10:29:44,1557973815,a2940f6281f84d889f97309947a84dfc-1557973703,http://postback.hopemobi.net/pb/lsr?transaction_id=a2940f6281f84d889f97309947a84dfc-1557973703&payout=2.5&sid=179-appier,idfa_BF1A495C-E3BF-4D7F-AB38-2793A5E05A1B,ja
rwj8hdgbQq2HaS84j2e9vA,hopemobi,128_36_7_823-157,install,2.5,180.198.232.209,5E4FE55C-9AD6-4CA2-8663-026375973B48,1557971247,2019-05-16 09:47:27,1557971297,2019-05-16 09:48:17,1557971328,36591c4d50d249b2b270d34e2a79a256-1557971232,http://postback.hopemobi.net/pb/lsr?transaction_id=36591c4d50d249b2b270d34e2a79a256-1557971232&payout=2.5&sid=179-appier,idfa_5E4FE55C-9AD6-4CA2-8663-026375973B48,ja
rwj8hdgbQq2HaS84j2e9vA,hopemobi,128_36_7_823-157,install,2.5,150.46.200.42,9803193B-6934-4838-9761-F9B3E892A016,1557969659,2019-05-16 09:20:59,1557969707,2019-05-16 09:21:47,1557969737,cd19d71dc36c47f4b0c9000b3451ebd3-1557969642,http://postback.hopemobi.net/pb/lsr?transaction_id=cd19d71dc36c47f4b0c9000b3451ebd3-1557969642&payout=2.5&sid=179-appier,idfa_9803193B-6934-4838-9761-F9B3E892A016,ja
rwj8hdgbQq2HaS84j2e9vA,hopemobi,128_36_7_823-157,install,2.5,118.10.244.204,B4ACB19C-21FD-4AA6-A1F7-53AA9463429D,1557972281,2019-05-16 10:04:41,1557972329,2019-05-16 10:05:29,1557972359,42e0f01242aa47f99e358c69a81563d8-1557972253,http://postback.hopemobi.net/pb/lsr?transaction_id=42e0f01242aa47f99e358c69a81563d8-1557972253&payout=2.5&sid=179-appier,idfa_B4ACB19C-21FD-4AA6-A1F7-53AA9463429D,ja
rwj8hdgbQq2HaS84j2e9vA,hopemobi,128_36_7_823-157,install,2.5,182.166.177.102,D3DA6207-F3DA-49DB-BA78-84D6DA883B89,1557973527,2019-05-16 10:25:27,1557973576,2019-05-16 10:26:16,1557973606,3629d674adc842b4a141652cf099bd9e-1557973512,http://postback.hopemobi.net/pb/lsr?transaction_id=3629d674adc842b4a141652cf099bd9e-1557973512&payout=2.5&sid=179-appier,idfa_D3DA6207-F3DA-49DB-BA78-84D6DA883B89,ja
rwj8hdgbQq2HaS84j2e9vA,hopemobi,128_36_7_823-157,install,2.5,61.213.119.194,7BC42141-A8F2-422A-ABD7-4889FD9B8658,1557895824,2019-05-15 12:50:24,1557895877,2019-05-15 12:51:17,1557895907,5ceaa49795f5486e87731eb83db6ce1c-1557895810,http://postback.hopemobi.net/pb/lsr?transaction_id=5ceaa49795f5486e87731eb83db6ce1c-1557895810&payout=2.5&sid=179-appier,idfa_7BC42141-A8F2-422A-ABD7-4889FD9B8658,ja
rwj8hdgbQq2HaS84j2e9vA,hopemobi,128_36_7_823-157,install,2.5,36.3.207.145,D77C3053-C73B-4DE6-8362-3D9E9ECD5782,1557972901,2019-05-16 10:15:01,1557972955,2019-05-16 10:15:55,1557972986,ea46f8eb9c73462681aff7a2b873f3c6-1557972862,http://postback.hopemobi.net/pb/lsr?transaction_id=ea46f8eb9c73462681aff7a2b873f3c6-1557972862&payout=2.5&sid=179-appier,idfa_D77C3053-C73B-4DE6-8362-3D9E9ECD5782,ja
rwj8hdgbQq2HaS84j2e9vA,hopemobi,128_36_7_823-157,install,2.5,1.33.87.112,1EE1D064-685D-45D3-B140-B494B6F9412A,1557971934,2019-05-16 09:58:54,1557971981,2019-05-16 09:59:41,1557972012,4cd9800c3c724f0a93e56418fc9f7633-1557971909,http://postback.hopemobi.net/pb/lsr?transaction_id=4cd9800c3c724f0a93e56418fc9f7633-1557971909&payout=2.5&sid=179-appier,idfa_1EE1D064-685D-45D3-B140-B494B6F9412A,ja
rwj8hdgbQq2HaS84j2e9vA,hopemobi,128_36_7_823-157,install,2.5,58.0.227.5,28CB7A55-F3EB-4DC3-A3B3-8B7C57A5DAF0,1557895181,2019-05-15 12:39:41,1557895223,2019-05-15 12:40:23,1557895253,31adf2efee6c41aeb199822fff4916ae-1557895152,http://postback.hopemobi.net/pb/lsr?transaction_id=31adf2efee6c41aeb199822fff4916ae-1557895152&payout=2.5&sid=179-appier,idfa_28CB7A55-F3EB-4DC3-A3B3-8B7C57A5DAF0,ja
rwj8hdgbQq2HaS84j2e9vA,hopemobi,128_36_7_823-157,install,2.5,219.98.51.24,2581ADDC-51D9-48FB-8721-56D95506424D,1557973227,2019-05-16 10:20:27,1557973274,2019-05-16 10:21:14,1557973305,0c0f03efcb344f61b1950e1d6f5ae1a3-1557973202,http://postback.hopemobi.net/pb/lsr?transaction_id=0c0f03efcb344f61b1950e1d6f5ae1a3-1557973202&payout=2.5&sid=179-appier,idfa_2581ADDC-51D9-48FB-8721-56D95506424D,ja
rwj8hdgbQq2HaS84j2e9vA,hopemobi,128_36_7_823-157,install,2.5,125.52.80.190,2C037A80-5A36-4302-978E-80C089C0639B,1557894984,2019-05-15 12:36:24,1557895034,2019-05-15 12:37:14,1557895064,4bc498c20ff94c5d8e3139f20b753ebb-1557894942,http://postback.hopemobi.net/pb/lsr?transaction_id=4bc498c20ff94c5d8e3139f20b753ebb-1557894942&payout=2.5&sid=179-appier,idfa_2C037A80-5A36-4302-978E-80C089C0639B,ja
rwj8hdgbQq2HaS84j2e9vA,hopemobi,128_36_7_823-157,install,2.5,126.72.189.147,7C47ACEE-0CBD-4344-A619-4BE0C013DF30,1557895111,2019-05-15 12:38:31,1557895188,2019-05-15 12:39:48,1557895219,687b02f9ba1b4b70adcec93598374b49-1557895072,http://postback.hopemobi.net/pb/lsr?transaction_id=687b02f9ba1b4b70adcec93598374b49-1557895072&payout=2.5&sid=179-appier,idfa_7C47ACEE-0CBD-4344-A619-4BE0C013DF30,ja
rwj8hdgbQq2HaS84j2e9vA,hopemobi,128_36_7_823-157,install,2.5,60.148.194.7,4061B6B0-43A6-4340-986C-1735FDB8C94E,1557970720,2019-05-16 09:38:40,1557970767,2019-05-16 09:39:27,1557970797,84d90674ad0d499181590a786b8c644d-1557970695,http://postback.hopemobi.net/pb/lsr?transaction_id=84d90674ad0d499181590a786b8c644d-1557970695&payout=2.5&sid=179-appier,idfa_4061B6B0-43A6-4340-986C-1735FDB8C94E,ja
rwj8hdgbQq2HaS84j2e9vA,hopemobi,128_36_7_823-157,install,2.5,126.209.218.189,4F5CE36A-E52A-4459-BC5C-A8231745E36E,1557894542,2019-05-15 12:29:02,1557894586,2019-05-15 12:29:46,1557894618,250fd5f4806f4df7b4fedc607b99a6a2-1557894526,http://postback.hopemobi.net/pb/lsr?transaction_id=250fd5f4806f4df7b4fedc607b99a6a2-1557894526&payout=2.5&sid=179-appier,idfa_4F5CE36A-E52A-4459-BC5C-A8231745E36E,ja
rwj8hdgbQq2HaS84j2e9vA,hopemobi,128_36_7_823-157,install,2.5,183.86.185.135,2DC2F260-A8A8-45F8-90D3-8D9A33D33A35,1557893738,2019-05-15 12:15:38,1557893788,2019-05-15 12:16:28,1557893819,6e5540d7930840f39845b1ae8775835b-1557893723,http://postback.hopemobi.net/pb/lsr?transaction_id=6e5540d7930840f39845b1ae8775835b-1557893723&payout=2.5&sid=179-appier,idfa_2DC2F260-A8A8-45F8-90D3-8D9A33D33A35,ja
rwj8hdgbQq2HaS84j2e9vA,hopemobi,128_36_7_823-157,install,2.5,182.166.177.102,CF420F40-01A6-444F-8AA5-338648655330,1557973586,2019-05-16 10:26:26,1557973633,2019-05-16 10:27:13,1557973664,271ee9e63b3b4ce3b637c0ce5e0c7283-1557973559,http://postback.hopemobi.net/pb/lsr?transaction_id=271ee9e63b3b4ce3b637c0ce5e0c7283-1557973559&payout=2.5&sid=179-appier,idfa_CF420F40-01A6-444F-8AA5-338648655330,ja
rwj8hdgbQq2HaS84j2e9vA,hopemobi,128_36_7_823-157,install,2.5,61.89.161.155,2F4632DA-6E66-47A2-BDE1-2AED323F6F1E,1557971911,2019-05-16 09:58:31,1557971961,2019-05-16 09:59:21,1557971992,79423b585c59492995dfad4e817415de-1557971889,http://postback.hopemobi.net/pb/lsr?transaction_id=79423b585c59492995dfad4e817415de-1557971889&payout=2.5&sid=179-appier,idfa_2F4632DA-6E66-47A2-BDE1-2AED323F6F1E,ja
rwj8hdgbQq2HaS84j2e9vA,hopemobi,128_36_7_823-157,install,2.5,211.124.132.184,E9108BA0-FB7A-425B-8C99-3024CD6124E6,1557895107,2019-05-15 12:38:27,1557895148,2019-05-15 12:39:08,1557895179,1f3fb852cfac42f7ac6ad581df985846-1557895080,http://postback.hopemobi.net/pb/lsr?transaction_id=1f3fb852cfac42f7ac6ad581df985846-1557895080&payout=2.5&sid=179-appier,idfa_E9108BA0-FB7A-425B-8C99-3024CD6124E6,ja
rwj8hdgbQq2HaS84j2e9vA,hopemobi,128_36_7_823-157,install,2.5,60.148.194.7,E2B7B6F7-14FF-4F4D-A4B6-B0EB695F4439,1557970596,2019-05-16 09:36:36,1557970646,2019-05-16 09:37:26,1557970676,d87d367a11824b46a61b6a7b4f37be63-1557970582,http://postback.hopemobi.net/pb/lsr?transaction_id=d87d367a11824b46a61b6a7b4f37be63-1557970582&payout=2.5&sid=179-appier,idfa_E2B7B6F7-14FF-4F4D-A4B6-B0EB695F4439,ja
rwj8hdgbQq2HaS84j2e9vA,hopemobi,128_36_7_823-157,install,2.5,153.137.106.243,7C056A93-1979-4667-89F1-0709D47D1D87,1557895881,2019-05-15 12:51:21,1557895893,2019-05-15 12:51:33,1557895923,bea26c370d134e93ba7b8c9627461c8a-1557895863,http://postback.hopemobi.net/pb/lsr?transaction_id=bea26c370d134e93ba7b8c9627461c8a-1557895863&payout=2.5&sid=179-appier,idfa_7C056A93-1979-4667-89F1-0709D47D1D87,ja
rwj8hdgbQq2HaS84j2e9vA,hopemobi,128_36_7_823-157,install,2.5,126.58.212.113,2601A66A-6C9F-44B6-A1D1-3311EA95C771,1557971892,2019-05-16 09:58:12,1557971941,2019-05-16 09:59:01,1557971971,433b08823fd744b9b2e7ea651a0d61ad-1557971861,http://postback.hopemobi.net/pb/lsr?transaction_id=433b08823fd744b9b2e7ea651a0d61ad-1557971861&payout=2.5&sid=179-appier,idfa_2601A66A-6C9F-44B6-A1D1-3311EA95C771,ja
rwj8hdgbQq2HaS84j2e9vA,hopemobi,128_36_7_823-157,install,2.5,126.23.172.107,F282DDBE-A4D9-42F5-9D2C-BAAF20662B5C,1557974067,2019-05-16 10:34:27,1557974118,2019-05-16 10:35:18,1557974149,2a194304e9384a50aa3d4f4a3f6db95e-1557974028,http://postback.hopemobi.net/pb/lsr?transaction_id=2a194304e9384a50aa3d4f4a3f6db95e-1557974028&payout=2.5&sid=179-appier,idfa_F282DDBE-A4D9-42F5-9D2C-BAAF20662B5C,ja
rwj8hdgbQq2HaS84j2e9vA,hopemobi,128_36_7_823-157,install,2.5,180.198.232.209,8A8CBD7A-6209-4DFE-A272-B5D78C86EE40,1557971230,2019-05-16 09:47:10,1557971282,2019-05-16 09:48:02,1557971312,edf5b1dbb58d493b88cf2b78cbb2f4c9-1557971198,http://postback.hopemobi.net/pb/lsr?transaction_id=edf5b1dbb58d493b88cf2b78cbb2f4c9-1557971198&payout=2.5&sid=179-appier,idfa_8A8CBD7A-6209-4DFE-A272-B5D78C86EE40,ja
rwj8hdgbQq2HaS84j2e9vA,hopemobi,128_36_7_823-157,install,2.5,126.126.234.12,0E86E0C6-3274-448E-9377-34299D05CF6C,1557894737,2019-05-15 12:32:17,1557894781,2019-05-15 12:33:01,1557894811,11eb6530bfc04ab9b3f7c5b495e2a418-1557894722,http://postback.hopemobi.net/pb/lsr?transaction_id=11eb6530bfc04ab9b3f7c5b495e2a418-1557894722&payout=2.5&sid=179-appier,idfa_0E86E0C6-3274-448E-9377-34299D05CF6C,ja
rwj8hdgbQq2HaS84j2e9vA,hopemobi,128_36_7_823-157,install,2.5,180.60.168.128,827CB059-011C-4D65-960C-07800DAD4730,1557894145,2019-05-15 12:22:25,1557894196,2019-05-15 12:23:16,1557894226,74055a926baf4188bc66a2d958883eef-1557894127,http://postback.hopemobi.net/pb/lsr?transaction_id=74055a926baf4188bc66a2d958883eef-1557894127&payout=2.5&sid=179-appier,idfa_827CB059-011C-4D65-960C-07800DAD4730,ja
rwj8hdgbQq2HaS84j2e9vA,hopemobi,128_36_7_823-157,install,2.5,58.3.28.11,EECD3A57-74B5-4C19-8B87-CEFC0506820D,1557973750,2019-05-16 10:29:10,1557973795,2019-05-16 10:29:55,1557973826,3ffcedabb7dc4445ad7f8876f8e1db02-1557973716,http://postback.hopemobi.net/pb/lsr?transaction_id=3ffcedabb7dc4445ad7f8876f8e1db02-1557973716&payout=2.5&sid=179-appier,idfa_EECD3A57-74B5-4C19-8B87-CEFC0506820D,ja
rwj8hdgbQq2HaS84j2e9vA,hopemobi,128_36_7_823-157,install,2.5,122.29.149.123,A18CA9D2-F073-4B1C-A661-1CC752789790,1557970652,2019-05-16 09:37:32,1557970693,2019-05-16 09:38:13,1557970724,43c3ff02683041249e65c48e84ba09c1-1557970612,http://postback.hopemobi.net/pb/lsr?transaction_id=43c3ff02683041249e65c48e84ba09c1-1557970612&payout=2.5&sid=179-appier,idfa_A18CA9D2-F073-4B1C-A661-1CC752789790,ja
rwj8hdgbQq2HaS84j2e9vA,hopemobi,128_36_7_823-157,install,2.5,183.76.8.6,3B7208EC-54FB-4E43-8E33-B14D1C231D36,1557970751,2019-05-16 09:39:11,1557970791,2019-05-16 09:39:51,1557970821,8d6f0f9460d246299061d184a081bdd1-1557970715,http://postback.hopemobi.net/pb/lsr?transaction_id=8d6f0f9460d246299061d184a081bdd1-1557970715&payout=2.5&sid=179-appier,idfa_3B7208EC-54FB-4E43-8E33-B14D1C231D36,ja
rwj8hdgbQq2HaS84j2e9vA,hopemobi,128_36_7_823-157,install,2.5,153.167.98.195,D7C00A02-D72F-49A6-9E0F-4AB9076D5674,1557972600,2019-05-16 10:10:00,1557972642,2019-05-16 10:10:42,1557972673,6258f1dd9cfd4d8eb889bde1c804f523-1557972582,http://postback.hopemobi.net/pb/lsr?transaction_id=6258f1dd9cfd4d8eb889bde1c804f523-1557972582&payout=2.5&sid=179-appier,idfa_D7C00A02-D72F-49A6-9E0F-4AB9076D5674,ja
rwj8hdgbQq2HaS84j2e9vA,hopemobi,128_36_7_823-157,install,2.5,60.148.194.7,BB200BDC-88A6-4DDF-BBEF-85C68A8CEE9E,1557970778,2019-05-16 09:39:38,1557970830,2019-05-16 09:40:30,1557970860,9ecf8670ff8c431183c1f09649e71714-1557970753,http://postback.hopemobi.net/pb/lsr?transaction_id=9ecf8670ff8c431183c1f09649e71714-1557970753&payout=2.5&sid=179-appier,idfa_BB200BDC-88A6-4DDF-BBEF-85C68A8CEE9E,ja
