cid,partner_id,channel_id,action_id,cpi,ip,idfa,click time,click datetime,install time,install datetime,postback time,click id,postback url,unique user id
skhG2KUTQFaVaIWPzwKMNQ,inmobi,5_p1599,install,3.0,150.66.95.211,b8f1b520-73d9-4e94-9e9f-71ce6abdfa79,1559267473,2019-05-31 09:51:13,1559267675,2019-05-31 09:54:35,1559267706,0b957120-016b-1000-c4ba-0734129e00c1,https://advertiser.inmobiapis.com/tpce/v1/events/download?trackingPartner=Appier&propertyId={InMobi_GPMID}&impId=0b957120-016b-1000-c4ba-0734129e00c1&country={2chararcer_alphecountry_code},idfa_b8f1b520-73d9-4e94-9e9f-71ce6abdfa79,ja
skhG2KUTQFaVaIWPzwKMNQ,inmobi,5_p1599,install,3.0,126.200.118.34,83d483e6-1e2c-4c5d-a31c-3fc87b706b78,1559267348,2019-05-31 09:49:08,1559267505,2019-05-31 09:51:45,1559267536,0b938864-016b-1000-d8ba-0736129e00c4,https://advertiser.inmobiapis.com/tpce/v1/events/download?trackingPartner=Appier&propertyId={InMobi_GPMID}&impId=0b938864-016b-1000-d8ba-0736129e00c4&country={2chararcer_alphecountry_code},idfa_83d483e6-1e2c-4c5d-a31c-3fc87b706b78,vi
skhG2KUTQFaVaIWPzwKMNQ,inmobi,5_p1599,install,3.0,49.97.109.105,9665a536-aeed-4a44-9691-0ec830af3e41,1559267140,2019-05-31 09:45:40,1559267281,2019-05-31 09:48:01,1559267312,0b905d03-016b-1000-dfba-073e129e00c5,https://advertiser.inmobiapis.com/tpce/v1/events/download?trackingPartner=Appier&propertyId={InMobi_GPMID}&impId=0b905d03-016b-1000-dfba-073e129e00c5&country={2chararcer_alphecountry_code},idfa_9665a536-aeed-4a44-9691-0ec830af3e41,ja
skhG2KUTQFaVaIWPzwKMNQ,inmobi,5_p1599,install,3.0,36.11.225.107,a4492faa-fa6e-4e78-893f-285c486e954c,1559267528,2019-05-31 09:52:08,1559267787,2019-05-31 09:56:27,1559267821,0b964718-016b-1000-e4ba-073e129e00c1,https://advertiser.inmobiapis.com/tpce/v1/events/download?trackingPartner=Appier&propertyId={InMobi_GPMID}&impId=0b964718-016b-1000-e4ba-073e129e00c1&country={2chararcer_alphecountry_code},idfa_a4492faa-fa6e-4e78-893f-285c486e954c,ja
skhG2KUTQFaVaIWPzwKMNQ,inmobi,5_p1599,install,3.0,111.239.34.141,1efd438a-302c-403c-a646-e27094482cec,1559266895,2019-05-31 09:41:35,1559267042,2019-05-31 09:44:02,1559267073,0b8c9f88-016b-1000-e4ba-0733129e00c5,https://advertiser.inmobiapis.com/tpce/v1/events/download?trackingPartner=Appier&propertyId={InMobi_GPMID}&impId=0b8c9f88-016b-1000-e4ba-0733129e00c5&country={2chararcer_alphecountry_code},idfa_1efd438a-302c-403c-a646-e27094482cec,ja
skhG2KUTQFaVaIWPzwKMNQ,inmobi,5_p1599,install,3.0,210.148.125.159,9ae7a2d6-b63b-46e3-9192-1152c3eba58b,1559266886,2019-05-31 09:41:26,1559267063,2019-05-31 09:44:23,1559267094,0b8c7f72-016b-1000-c7ba-0730129e00c5,https://advertiser.inmobiapis.com/tpce/v1/events/download?trackingPartner=Appier&propertyId={InMobi_GPMID}&impId=0b8c7f72-016b-1000-c7ba-0730129e00c5&country={2chararcer_alphecountry_code},idfa_9ae7a2d6-b63b-46e3-9192-1152c3eba58b,zh
skhG2KUTQFaVaIWPzwKMNQ,inmobi,5_p1599,install,3.0,163.49.206.252,4fad3130-19c7-4630-83a8-07a674ae395c,1559266626,2019-05-31 09:37:06,1559266779,2019-05-31 09:39:39,1559266809,0b8887c1-016b-1000-edba-0736129e00c1,https://advertiser.inmobiapis.com/tpce/v1/events/download?trackingPartner=Appier&propertyId={InMobi_GPMID}&impId=0b8887c1-016b-1000-edba-0736129e00c1&country={2chararcer_alphecountry_code},idfa_4fad3130-19c7-4630-83a8-07a674ae395c,ja
skhG2KUTQFaVaIWPzwKMNQ,inmobi,5_p1599,install,3.0,126.200.9.136,e618896d-7224-4a6f-88a3-219168619483,1559266363,2019-05-31 09:32:43,1559266510,2019-05-31 09:35:10,1559266542,0b8480b0-016b-1000-f8ba-0732129e00c4,https://advertiser.inmobiapis.com/tpce/v1/events/download?trackingPartner=Appier&propertyId={InMobi_GPMID}&impId=0b8480b0-016b-1000-f8ba-0732129e00c4&country={2chararcer_alphecountry_code},idfa_e618896d-7224-4a6f-88a3-219168619483,ja
skhG2KUTQFaVaIWPzwKMNQ,inmobi,5_p1599,install,3.0,183.74.204.180,f27ff046-6f01-4a93-8d7d-3feb20d73379,1559265308,2019-05-31 09:15:08,1559265817,2019-05-31 09:23:37,1559265849,0b746804-016b-1000-f0ba-0735129e00c1,https://advertiser.inmobiapis.com/tpce/v1/events/download?trackingPartner=Appier&propertyId={InMobi_GPMID}&impId=0b746804-016b-1000-f0ba-0735129e00c1&country={2chararcer_alphecountry_code},idfa_f27ff046-6f01-4a93-8d7d-3feb20d73379,ja
skhG2KUTQFaVaIWPzwKMNQ,inmobi,5_p1599,install,3.0,49.97.92.165,58831780-a540-49cd-a5b2-f17881194042,1559267412,2019-05-31 09:50:12,1559267863,2019-05-31 09:57:43,1559267895,0b948149-016b-1000-d3ba-073f129e00c5,https://advertiser.inmobiapis.com/tpce/v1/events/download?trackingPartner=Appier&propertyId={InMobi_GPMID}&impId=0b948149-016b-1000-d3ba-073f129e00c5&country={2chararcer_alphecountry_code},idfa_58831780-a540-49cd-a5b2-f17881194042,ja
skhG2KUTQFaVaIWPzwKMNQ,inmobi,5_p1599,install,3.0,36.11.225.186,bf99eb6e-0b74-497f-9f58-3d2db8180ffa,1559266689,2019-05-31 09:38:09,1559267494,2019-05-31 09:51:34,1559267526,0b897a97-016b-1000-fdba-0732129e00c1,https://advertiser.inmobiapis.com/tpce/v1/events/download?trackingPartner=Appier&propertyId={InMobi_GPMID}&impId=0b897a97-016b-1000-fdba-0732129e00c1&country={2chararcer_alphecountry_code},idfa_bf99eb6e-0b74-497f-9f58-3d2db8180ffa,ja
skhG2KUTQFaVaIWPzwKMNQ,inmobi,5_p1599,install,3.0,110.165.210.75,411dbc6d-b5c1-4d7c-b995-ebf8d88dcdda,1559267408,2019-05-31 09:50:08,1559267559,2019-05-31 09:52:39,1559267590,0b9475ed-016b-1000-f9ba-073c129e00c0,https://advertiser.inmobiapis.com/tpce/v1/events/download?trackingPartner=Appier&propertyId={InMobi_GPMID}&impId=0b9475ed-016b-1000-f9ba-073c129e00c0&country={2chararcer_alphecountry_code},idfa_411dbc6d-b5c1-4d7c-b995-ebf8d88dcdda,ja
skhG2KUTQFaVaIWPzwKMNQ,inmobi,5_p1599,install,3.0,126.225.64.115,16ce2c2c-8bce-4c36-9363-a448781e8953,1559267291,2019-05-31 09:48:11,1559267435,2019-05-31 09:50:35,1559267467,0b92a7eb-016b-1000-c8ba-0730129e00c4,https://advertiser.inmobiapis.com/tpce/v1/events/download?trackingPartner=Appier&propertyId={InMobi_GPMID}&impId=0b92a7eb-016b-1000-c8ba-0730129e00c4&country={2chararcer_alphecountry_code},idfa_16ce2c2c-8bce-4c36-9363-a448781e8953,ja
skhG2KUTQFaVaIWPzwKMNQ,inmobi,5_p1599,install,3.0,153.237.66.221,b7c89299-62d6-4966-98ea-3f286a2a04e7,1559267070,2019-05-31 09:44:30,1559267593,2019-05-31 09:53:13,1559267624,0b8f4bc8-016b-1000-e6ba-0733129e00c6,https://advertiser.inmobiapis.com/tpce/v1/events/download?trackingPartner=Appier&propertyId={InMobi_GPMID}&impId=0b8f4bc8-016b-1000-e6ba-0733129e00c6&country={2chararcer_alphecountry_code},idfa_b7c89299-62d6-4966-98ea-3f286a2a04e7,ko
skhG2KUTQFaVaIWPzwKMNQ,inmobi,5_p1599,install,3.0,106.130.57.39,458c7e5f-62ef-4999-8299-0bf363bbd311,1559265184,2019-05-31 09:13:04,1559265880,2019-05-31 09:24:40,1559265911,0b728392-016b-1000-c2ba-0738129e00c7,https://advertiser.inmobiapis.com/tpce/v1/events/download?trackingPartner=Appier&propertyId={InMobi_GPMID}&impId=0b728392-016b-1000-c2ba-0738129e00c7&country={2chararcer_alphecountry_code},idfa_458c7e5f-62ef-4999-8299-0bf363bbd311,ja
skhG2KUTQFaVaIWPzwKMNQ,inmobi,5_p1599,install,3.0,180.4.0.229,83686406-ae73-4286-b679-414422f0f330,1559266836,2019-05-31 09:40:36,1559266984,2019-05-31 09:43:04,1559267014,0b8bba39-016b-1000-dbba-073d129e00c5,https://advertiser.inmobiapis.com/tpce/v1/events/download?trackingPartner=Appier&propertyId={InMobi_GPMID}&impId=0b8bba39-016b-1000-dbba-073d129e00c5&country={2chararcer_alphecountry_code},idfa_83686406-ae73-4286-b679-414422f0f330,ja
skhG2KUTQFaVaIWPzwKMNQ,inmobi,5_p1599,install,3.0,106.130.123.224,ea50dec6-b6cc-4d5b-b932-d546681a6429,1559266361,2019-05-31 09:32:41,1559266509,2019-05-31 09:35:09,1559266541,0b847c9f-016b-1000-fbba-0734129e00c3,https://advertiser.inmobiapis.com/tpce/v1/events/download?trackingPartner=Appier&propertyId={InMobi_GPMID}&impId=0b847c9f-016b-1000-fbba-0734129e00c3&country={2chararcer_alphecountry_code},idfa_ea50dec6-b6cc-4d5b-b932-d546681a6429,ja
skhG2KUTQFaVaIWPzwKMNQ,inmobi,5_p1599,install,3.0,110.163.12.85,69004cf8-3535-4316-acaa-12d0de26181d,1559267189,2019-05-31 09:46:29,1559267401,2019-05-31 09:50:01,1559267432,0b911d22-016b-1000-dcba-073e129e00c5,https://advertiser.inmobiapis.com/tpce/v1/events/download?trackingPartner=Appier&propertyId={InMobi_GPMID}&impId=0b911d22-016b-1000-dcba-073e129e00c5&country={2chararcer_alphecountry_code},idfa_69004cf8-3535-4316-acaa-12d0de26181d,ja
skhG2KUTQFaVaIWPzwKMNQ,inmobi,5_p1599,install,3.0,163.44.48.231,2b0eace2-bf50-4641-8642-267a68095a1a,1559267470,2019-05-31 09:51:10,1559267618,2019-05-31 09:53:38,1559267649,0b9567e9-016b-1000-d3ba-0736129e00c6,https://advertiser.inmobiapis.com/tpce/v1/events/download?trackingPartner=Appier&propertyId={InMobi_GPMID}&impId=0b9567e9-016b-1000-d3ba-0736129e00c6&country={2chararcer_alphecountry_code},idfa_2b0eace2-bf50-4641-8642-267a68095a1a,ja
skhG2KUTQFaVaIWPzwKMNQ,inmobi,5_p1599,install,3.0,1.75.3.223,447961f8-080c-4dab-ae3b-321f52e1b8ff,1559266688,2019-05-31 09:38:08,1559267526,2019-05-31 09:52:06,1559267557,0b8975dd-016b-1000-c0ba-073d129e00c1,https://advertiser.inmobiapis.com/tpce/v1/events/download?trackingPartner=Appier&propertyId={InMobi_GPMID}&impId=0b8975dd-016b-1000-c0ba-073d129e00c1&country={2chararcer_alphecountry_code},idfa_447961f8-080c-4dab-ae3b-321f52e1b8ff,ja
skhG2KUTQFaVaIWPzwKMNQ,inmobi,5_p1599,install,3.0,106.133.40.31,52e8ef26-88b6-4c53-a755-c02700c363f4,1559267347,2019-05-31 09:49:07,1559267771,2019-05-31 09:56:11,1559267803,0b938541-016b-1000-dbba-073e129e00c3,https://advertiser.inmobiapis.com/tpce/v1/events/download?trackingPartner=Appier&propertyId={InMobi_GPMID}&impId=0b938541-016b-1000-dbba-073e129e00c3&country={2chararcer_alphecountry_code},idfa_52e8ef26-88b6-4c53-a755-c02700c363f4,ja
skhG2KUTQFaVaIWPzwKMNQ,inmobi,5_p1599,install,3.0,49.97.106.98,32645591-6043-4f81-8f73-a29037ca7e42,1559266751,2019-05-31 09:39:11,1559266937,2019-05-31 09:42:17,1559266968,0b8a6ca6-016b-1000-f7ba-073c129e00c2,https://advertiser.inmobiapis.com/tpce/v1/events/download?trackingPartner=Appier&propertyId={InMobi_GPMID}&impId=0b8a6ca6-016b-1000-f7ba-073c129e00c2&country={2chararcer_alphecountry_code},idfa_32645591-6043-4f81-8f73-a29037ca7e42,ja
skhG2KUTQFaVaIWPzwKMNQ,inmobi,5_p1599,install,3.0,182.251.194.90,b85ad4ae-f1ab-4ed5-8a5c-53acced8ef23,1559267296,2019-05-31 09:48:16,1559267439,2019-05-31 09:50:39,1559267470,0b92be8e-016b-1000-cfba-0731129e00c5,https://advertiser.inmobiapis.com/tpce/v1/events/download?trackingPartner=Appier&propertyId={InMobi_GPMID}&impId=0b92be8e-016b-1000-cfba-0731129e00c5&country={2chararcer_alphecountry_code},idfa_b85ad4ae-f1ab-4ed5-8a5c-53acced8ef23,ja
skhG2KUTQFaVaIWPzwKMNQ,inmobi,5_p1599,install,3.0,182.251.181.106,3b31b935-28cc-44c5-b5bc-ac241f4381f4,1559266507,2019-05-31 09:35:07,1559266675,2019-05-31 09:37:55,1559266706,0b86b28d-016b-1000-e3ba-0739129e00c6,https://advertiser.inmobiapis.com/tpce/v1/events/download?trackingPartner=Appier&propertyId={InMobi_GPMID}&impId=0b86b28d-016b-1000-e3ba-0739129e00c6&country={2chararcer_alphecountry_code},idfa_3b31b935-28cc-44c5-b5bc-ac241f4381f4,ja
skhG2KUTQFaVaIWPzwKMNQ,inmobi,5_p1599,install,3.0,133.205.87.23,8d9c4acf-de3b-4b3d-942d-69a2e078f93d,1559266574,2019-05-31 09:36:14,1559266715,2019-05-31 09:38:35,1559266745,0b87a90a-016b-1000-f0ba-0731129e00c6,https://advertiser.inmobiapis.com/tpce/v1/events/download?trackingPartner=Appier&propertyId={InMobi_GPMID}&impId=0b87a90a-016b-1000-f0ba-0731129e00c6&country={2chararcer_alphecountry_code},idfa_8d9c4acf-de3b-4b3d-942d-69a2e078f93d,ja
skhG2KUTQFaVaIWPzwKMNQ,inmobi,5_p1599,install,3.0,153.235.239.47,e3024996-40e5-456d-86ee-a260583305a2,1559266572,2019-05-31 09:36:12,1559266724,2019-05-31 09:38:44,1559266755,0b87b170-016b-1000-faba-0730129e00c7,https://advertiser.inmobiapis.com/tpce/v1/events/download?trackingPartner=Appier&propertyId={InMobi_GPMID}&impId=0b87b170-016b-1000-faba-0730129e00c7&country={2chararcer_alphecountry_code},idfa_e3024996-40e5-456d-86ee-a260583305a2,ja
skhG2KUTQFaVaIWPzwKMNQ,inmobi,5_p1599,install,3.0,106.130.45.140,8d48389d-0123-45ce-bdd3-063190051b9c,1559266747,2019-05-31 09:39:07,1559267113,2019-05-31 09:45:13,1559267145,0b8a5f38-016b-1000-c2ba-0731129e00c1,https://advertiser.inmobiapis.com/tpce/v1/events/download?trackingPartner=Appier&propertyId={InMobi_GPMID}&impId=0b8a5f38-016b-1000-c2ba-0731129e00c1&country={2chararcer_alphecountry_code},idfa_8d48389d-0123-45ce-bdd3-063190051b9c,ja
skhG2KUTQFaVaIWPzwKMNQ,inmobi,5_p1599,install,3.0,182.251.191.127,f32c12d5-5391-47ae-9c0c-843eabb2b4ae,1559266750,2019-05-31 09:39:10,1559266900,2019-05-31 09:41:40,1559266932,0b8a6a03-016b-1000-d6ba-0734129e00c5,https://advertiser.inmobiapis.com/tpce/v1/events/download?trackingPartner=Appier&propertyId={InMobi_GPMID}&impId=0b8a6a03-016b-1000-d6ba-0734129e00c5&country={2chararcer_alphecountry_code},idfa_f32c12d5-5391-47ae-9c0c-843eabb2b4ae,ja
skhG2KUTQFaVaIWPzwKMNQ,inmobi,5_p1599,install,3.0,124.18.74.227,c37e4683-d09a-4c3d-8eac-1435982402df,1559267008,2019-05-31 09:43:28,1559267606,2019-05-31 09:53:26,1559267638,0b8e59f7-016b-1000-c9ba-073a129e00c2,https://advertiser.inmobiapis.com/tpce/v1/events/download?trackingPartner=Appier&propertyId={InMobi_GPMID}&impId=0b8e59f7-016b-1000-c9ba-073a129e00c2&country={2chararcer_alphecountry_code},idfa_c37e4683-d09a-4c3d-8eac-1435982402df,ja
skhG2KUTQFaVaIWPzwKMNQ,inmobi,5_p1599,install,3.0,126.218.19.164,97afe3d2-26d2-40e1-b3fb-027cf69533f7,1559267208,2019-05-31 09:46:48,1559267363,2019-05-31 09:49:23,1559267397,0b915add-016b-1000-d5ba-073d129e00c6,https://advertiser.inmobiapis.com/tpce/v1/events/download?trackingPartner=Appier&propertyId={InMobi_GPMID}&impId=0b915add-016b-1000-d5ba-073d129e00c6&country={2chararcer_alphecountry_code},idfa_97afe3d2-26d2-40e1-b3fb-027cf69533f7,id
skhG2KUTQFaVaIWPzwKMNQ,inmobi,5_p1599,install,3.0,106.130.50.250,31eaaae5-1383-4255-adac-fce9665085aa,1559265305,2019-05-31 09:15:05,1559265452,2019-05-31 09:17:32,1559265483,0b745b1f-016b-1000-efba-073c129e00c2,https://advertiser.inmobiapis.com/tpce/v1/events/download?trackingPartner=Appier&propertyId={InMobi_GPMID}&impId=0b745b1f-016b-1000-efba-073c129e00c2&country={2chararcer_alphecountry_code},idfa_31eaaae5-1383-4255-adac-fce9665085aa,ja
skhG2KUTQFaVaIWPzwKMNQ,inmobi,5_p1599,install,3.0,112.68.63.29,216a7bef-eec6-4e0f-91c3-f49bca0691ff,1559265183,2019-05-31 09:13:03,1559265335,2019-05-31 09:15:35,1559265366,0b7280ba-016b-1000-e7ba-0736129e00c1,https://advertiser.inmobiapis.com/tpce/v1/events/download?trackingPartner=Appier&propertyId={InMobi_GPMID}&impId=0b7280ba-016b-1000-e7ba-0736129e00c1&country={2chararcer_alphecountry_code},idfa_216a7bef-eec6-4e0f-91c3-f49bca0691ff,ja
skhG2KUTQFaVaIWPzwKMNQ,inmobi,5_p1599,install,3.0,1.79.86.134,e6abf303-39a0-4c77-bc47-e6719ff31fc5,1559266951,2019-05-31 09:42:31,1559267096,2019-05-31 09:44:56,1559267127,0b8d7b99-016b-1000-f0ba-0731129e00c0,https://advertiser.inmobiapis.com/tpce/v1/events/download?trackingPartner=Appier&propertyId={InMobi_GPMID}&impId=0b8d7b99-016b-1000-f0ba-0731129e00c0&country={2chararcer_alphecountry_code},idfa_e6abf303-39a0-4c77-bc47-e6719ff31fc5,ja
skhG2KUTQFaVaIWPzwKMNQ,inmobi,5_p1599,install,3.0,122.17.157.87,cf176987-6327-42d1-b9c3-a462390d77a0,1559266569,2019-05-31 09:36:09,1559266763,2019-05-31 09:39:23,1559266793,0b87a9da-016b-1000-d2ba-073d129e00c6,https://advertiser.inmobiapis.com/tpce/v1/events/download?trackingPartner=Appier&propertyId={InMobi_GPMID}&impId=0b87a9da-016b-1000-d2ba-073d129e00c6&country={2chararcer_alphecountry_code},idfa_cf176987-6327-42d1-b9c3-a462390d77a0,ja
skhG2KUTQFaVaIWPzwKMNQ,inmobi,5_p1599,install,3.0,220.2.143.176,9e8a5e6e-cc22-4c44-9dd8-7945a7455780,1559266391,2019-05-31 09:33:11,1559266539,2019-05-31 09:35:39,1559266570,0b84edfc-016b-1000-fdba-073f129e00c3,https://advertiser.inmobiapis.com/tpce/v1/events/download?trackingPartner=Appier&propertyId={InMobi_GPMID}&impId=0b84edfc-016b-1000-fdba-073f129e00c3&country={2chararcer_alphecountry_code},idfa_9e8a5e6e-cc22-4c44-9dd8-7945a7455780,ja
skhG2KUTQFaVaIWPzwKMNQ,inmobi,5_p1599,install,3.0,49.104.3.104,5c898535-5840-411f-8351-349767cba12e,1559267213,2019-05-31 09:46:53,1559267344,2019-05-31 09:49:04,1559267374,0b917a6b-016b-1000-e3ba-0739129e00c0,https://advertiser.inmobiapis.com/tpce/v1/events/download?trackingPartner=Appier&propertyId={InMobi_GPMID}&impId=0b917a6b-016b-1000-e3ba-0739129e00c0&country={2chararcer_alphecountry_code},idfa_5c898535-5840-411f-8351-349767cba12e,ja
skhG2KUTQFaVaIWPzwKMNQ,inmobi,5_p1599,install,3.0,126.179.56.29,8c9ed315-341f-4466-9aec-7741b578345d,1559266848,2019-05-31 09:40:48,1559266989,2019-05-31 09:43:09,1559267022,0b8bcf97-016b-1000-e4ba-0739129e00c4,https://advertiser.inmobiapis.com/tpce/v1/events/download?trackingPartner=Appier&propertyId={InMobi_GPMID}&impId=0b8bcf97-016b-1000-e4ba-0739129e00c4&country={2chararcer_alphecountry_code},idfa_8c9ed315-341f-4466-9aec-7741b578345d,ja
skhG2KUTQFaVaIWPzwKMNQ,inmobi,5_p1599,install,3.0,126.193.134.45,342ab9f4-1df8-4895-aac2-ab61a28357e0,1559266630,2019-05-31 09:37:10,1559266778,2019-05-31 09:39:38,1559266809,0b889358-016b-1000-d0ba-0735129e00c1,https://advertiser.inmobiapis.com/tpce/v1/events/download?trackingPartner=Appier&propertyId={InMobi_GPMID}&impId=0b889358-016b-1000-d0ba-0735129e00c1&country={2chararcer_alphecountry_code},idfa_342ab9f4-1df8-4895-aac2-ab61a28357e0,ja
skhG2KUTQFaVaIWPzwKMNQ,inmobi,5_p1599,install,3.0,49.98.172.29,f7eca487-b771-4d7d-a54f-19cb87861b59,1559267533,2019-05-31 09:52:13,1559267682,2019-05-31 09:54:42,1559267712,0b965bd1-016b-1000-c1ba-0732129e00c1,https://advertiser.inmobiapis.com/tpce/v1/events/download?trackingPartner=Appier&propertyId={InMobi_GPMID}&impId=0b965bd1-016b-1000-c1ba-0732129e00c1&country={2chararcer_alphecountry_code},idfa_f7eca487-b771-4d7d-a54f-19cb87861b59,ja
skhG2KUTQFaVaIWPzwKMNQ,inmobi,5_p1599,install,3.0,182.251.22.163,c0fc4d22-8af3-49e0-bbe2-60a24c3b3fec,1559267287,2019-05-31 09:48:07,1559267451,2019-05-31 09:50:51,1559267483,0b929a14-016b-1000-e5ba-0734129e00c4,https://advertiser.inmobiapis.com/tpce/v1/events/download?trackingPartner=Appier&propertyId={InMobi_GPMID}&impId=0b929a14-016b-1000-e5ba-0734129e00c4&country={2chararcer_alphecountry_code},idfa_c0fc4d22-8af3-49e0-bbe2-60a24c3b3fec,ja
skhG2KUTQFaVaIWPzwKMNQ,inmobi,5_p1599,install,3.0,106.132.217.251,54e4c177-c36d-482e-a5ef-c2561358d182,1559266629,2019-05-31 09:37:09,1559266777,2019-05-31 09:39:37,1559266809,0b888d9b-016b-1000-f6ba-073a129e00c4,https://advertiser.inmobiapis.com/tpce/v1/events/download?trackingPartner=Appier&propertyId={InMobi_GPMID}&impId=0b888d9b-016b-1000-f6ba-073a129e00c4&country={2chararcer_alphecountry_code},idfa_54e4c177-c36d-482e-a5ef-c2561358d182,ja
skhG2KUTQFaVaIWPzwKMNQ,inmobi,5_p1599,install,3.0,49.98.140.119,daaa6bed-da9f-4034-8b21-95a6a48369e1,1559267008,2019-05-31 09:43:28,1559267160,2019-05-31 09:46:00,1559267191,0b8e5d22-016b-1000-c1ba-073f129e00c4,https://advertiser.inmobiapis.com/tpce/v1/events/download?trackingPartner=Appier&propertyId={InMobi_GPMID}&impId=0b8e5d22-016b-1000-c1ba-073f129e00c4&country={2chararcer_alphecountry_code},idfa_daaa6bed-da9f-4034-8b21-95a6a48369e1,ja
skhG2KUTQFaVaIWPzwKMNQ,inmobi,5_p1599,install,3.0,49.98.44.39,371e9885-2f4e-4865-884f-36fef0368391,1559266946,2019-05-31 09:42:26,1559267099,2019-05-31 09:44:59,1559267130,0b8d6961-016b-1000-c7ba-0735129e00c4,https://advertiser.inmobiapis.com/tpce/v1/events/download?trackingPartner=Appier&propertyId={InMobi_GPMID}&impId=0b8d6961-016b-1000-c7ba-0735129e00c4&country={2chararcer_alphecountry_code},idfa_371e9885-2f4e-4865-884f-36fef0368391,ja
skhG2KUTQFaVaIWPzwKMNQ,inmobi,5_p1599,install,3.0,49.104.27.246,633b6bc2-4c53-4dcc-aaf6-5cbf16e9b31c,1559265365,2019-05-31 09:16:05,1559265513,2019-05-31 09:18:33,1559265544,0b7548a1-016b-1000-e5ba-0738129e00c5,https://advertiser.inmobiapis.com/tpce/v1/events/download?trackingPartner=Appier&propertyId={InMobi_GPMID}&impId=0b7548a1-016b-1000-e5ba-0738129e00c5&country={2chararcer_alphecountry_code},idfa_633b6bc2-4c53-4dcc-aaf6-5cbf16e9b31c,ja
skhG2KUTQFaVaIWPzwKMNQ,inmobi,5_p1599,install,3.0,126.189.6.133,c7d018b6-f711-4bc4-b6a6-24a4e17d4cc1,1559266634,2019-05-31 09:37:14,1559266784,2019-05-31 09:39:44,1559266817,0b88a171-016b-1000-eaba-0732129e00c4,https://advertiser.inmobiapis.com/tpce/v1/events/download?trackingPartner=Appier&propertyId={InMobi_GPMID}&impId=0b88a171-016b-1000-eaba-0732129e00c4&country={2chararcer_alphecountry_code},idfa_c7d018b6-f711-4bc4-b6a6-24a4e17d4cc1,es
skhG2KUTQFaVaIWPzwKMNQ,inmobi,5_p1599,install,3.0,106.132.207.99,5493f91c-707c-46a8-a795-ab0df3171464,1559267072,2019-05-31 09:44:32,1559267219,2019-05-31 09:46:59,1559267253,0b8f502c-016b-1000-f4ba-0738129e00c4,https://advertiser.inmobiapis.com/tpce/v1/events/download?trackingPartner=Appier&propertyId={InMobi_GPMID}&impId=0b8f502c-016b-1000-f4ba-0738129e00c4&country={2chararcer_alphecountry_code},idfa_5493f91c-707c-46a8-a795-ab0df3171464,ja
skhG2KUTQFaVaIWPzwKMNQ,inmobi,5_p1599,install,3.0,182.251.42.243,928614bb-5993-4a29-b3ff-e95412eb32eb,1559266948,2019-05-31 09:42:28,1559267404,2019-05-31 09:50:04,1559267435,0b8d6f7f-016b-1000-c4ba-0739129e00c6,https://advertiser.inmobiapis.com/tpce/v1/events/download?trackingPartner=Appier&propertyId={InMobi_GPMID}&impId=0b8d6f7f-016b-1000-c4ba-0739129e00c6&country={2chararcer_alphecountry_code},idfa_928614bb-5993-4a29-b3ff-e95412eb32eb,ja
skhG2KUTQFaVaIWPzwKMNQ,inmobi,5_p1599,install,3.0,180.11.59.124,5d1f738d-8115-4ce6-bd96-99618f263978,1559266454,2019-05-31 09:34:14,1559266601,2019-05-31 09:36:41,1559266631,0b85de17-016b-1000-f6ba-0736129e00c3,https://advertiser.inmobiapis.com/tpce/v1/events/download?trackingPartner=Appier&propertyId={InMobi_GPMID}&impId=0b85de17-016b-1000-f6ba-0736129e00c3&country={2chararcer_alphecountry_code},idfa_5d1f738d-8115-4ce6-bd96-99618f263978,ja
skhG2KUTQFaVaIWPzwKMNQ,inmobi,5_p1599,install,3.0,14.9.224.96,ba147b08-6a88-42dc-b742-bd6a578fa8a7,1559266948,2019-05-31 09:42:28,1559267101,2019-05-31 09:45:01,1559267135,0b8d70ec-016b-1000-dfba-073b129e00c3,https://advertiser.inmobiapis.com/tpce/v1/events/download?trackingPartner=Appier&propertyId={InMobi_GPMID}&impId=0b8d70ec-016b-1000-dfba-073b129e00c3&country={2chararcer_alphecountry_code},idfa_ba147b08-6a88-42dc-b742-bd6a578fa8a7,ja
skhG2KUTQFaVaIWPzwKMNQ,inmobi,5_p1599,install,3.0,14.11.34.161,e9345cfe-42c4-498c-bd34-381acbfde8a5,1559266746,2019-05-31 09:39:06,1559266899,2019-05-31 09:41:39,1559266930,0b8a5b68-016b-1000-c5ba-0733129e00c0,https://advertiser.inmobiapis.com/tpce/v1/events/download?trackingPartner=Appier&propertyId={InMobi_GPMID}&impId=0b8a5b68-016b-1000-c5ba-0733129e00c0&country={2chararcer_alphecountry_code},idfa_e9345cfe-42c4-498c-bd34-381acbfde8a5,ja
skhG2KUTQFaVaIWPzwKMNQ,inmobi,5_p1599,install,3.0,126.145.28.199,ef076f9a-503e-410a-840b-67f02e00c314,1559267130,2019-05-31 09:45:30,1559267560,2019-05-31 09:52:40,1559267591,0b90352b-016b-1000-d6ba-0730129e00c4,https://advertiser.inmobiapis.com/tpce/v1/events/download?trackingPartner=Appier&propertyId={InMobi_GPMID}&impId=0b90352b-016b-1000-d6ba-0730129e00c4&country={2chararcer_alphecountry_code},idfa_ef076f9a-503e-410a-840b-67f02e00c314,ja
skhG2KUTQFaVaIWPzwKMNQ,inmobi,5_p1599,install,3.0,126.211.126.209,1ce9a399-a247-4860-9a42-11b1448f93c8,1559267597,2019-05-31 09:53:17,1559267740,2019-05-31 09:55:40,1559267772,0b9752d7-016b-1000-c8ba-073f129e00c2,https://advertiser.inmobiapis.com/tpce/v1/events/download?trackingPartner=Appier&propertyId={InMobi_GPMID}&impId=0b9752d7-016b-1000-c8ba-073f129e00c2&country={2chararcer_alphecountry_code},idfa_1ce9a399-a247-4860-9a42-11b1448f93c8,ja
skhG2KUTQFaVaIWPzwKMNQ,inmobi,5_p1599,install,3.0,126.179.52.246,b61d4bdb-ea4f-47c9-9c15-185ff9371227,1559267070,2019-05-31 09:44:30,1559267218,2019-05-31 09:46:58,1559267249,0b8f4ae7-016b-1000-e1ba-073e129e00c7,https://advertiser.inmobiapis.com/tpce/v1/events/download?trackingPartner=Appier&propertyId={InMobi_GPMID}&impId=0b8f4ae7-016b-1000-e1ba-073e129e00c7&country={2chararcer_alphecountry_code},idfa_b61d4bdb-ea4f-47c9-9c15-185ff9371227,ja
skhG2KUTQFaVaIWPzwKMNQ,inmobi,5_p1599,install,3.0,116.94.30.214,c8d8417a-cfed-4369-ae0b-9038486072fe,1559266692,2019-05-31 09:38:12,1559266894,2019-05-31 09:41:34,1559266926,0b898751-016b-1000-d2ba-0737129e00c4,https://advertiser.inmobiapis.com/tpce/v1/events/download?trackingPartner=Appier&propertyId={InMobi_GPMID}&impId=0b898751-016b-1000-d2ba-0737129e00c4&country={2chararcer_alphecountry_code},idfa_c8d8417a-cfed-4369-ae0b-9038486072fe,ja
skhG2KUTQFaVaIWPzwKMNQ,inmobi,5_p1599,install,3.0,221.84.252.12,18db2f20-8f5b-469c-8eee-df7805c4eeb3,1559266507,2019-05-31 09:35:07,1559266701,2019-05-31 09:38:21,1559266732,0b86b70c-016b-1000-eaba-073e129e00c3,https://advertiser.inmobiapis.com/tpce/v1/events/download?trackingPartner=Appier&propertyId={InMobi_GPMID}&impId=0b86b70c-016b-1000-eaba-073e129e00c3&country={2chararcer_alphecountry_code},idfa_18db2f20-8f5b-469c-8eee-df7805c4eeb3,ja
skhG2KUTQFaVaIWPzwKMNQ,inmobi,5_p1599,install,3.0,126.193.148.68,4e636259-ae2c-4d30-8fa3-b7c55babe224,1559266886,2019-05-31 09:41:26,1559267123,2019-05-31 09:45:23,1559267155,0b8c7db7-016b-1000-c4ba-0737129e00c7,https://advertiser.inmobiapis.com/tpce/v1/events/download?trackingPartner=Appier&propertyId={InMobi_GPMID}&impId=0b8c7db7-016b-1000-c4ba-0737129e00c7&country={2chararcer_alphecountry_code},idfa_4e636259-ae2c-4d30-8fa3-b7c55babe224,ja
skhG2KUTQFaVaIWPzwKMNQ,inmobi,5_p1599,install,3.0,150.66.93.66,1fcaecc0-2eb3-4c7a-a237-5939697b0a4a,1559266448,2019-05-31 09:34:08,1559266600,2019-05-31 09:36:40,1559266631,0b85cd82-016b-1000-e4ba-073d129e00c6,https://advertiser.inmobiapis.com/tpce/v1/events/download?trackingPartner=Appier&propertyId={InMobi_GPMID}&impId=0b85cd82-016b-1000-e4ba-073d129e00c6&country={2chararcer_alphecountry_code},idfa_1fcaecc0-2eb3-4c7a-a237-5939697b0a4a,ja
skhG2KUTQFaVaIWPzwKMNQ,inmobi,5_p1599,install,3.0,1.79.82.19,5725a354-b454-49da-afc4-c8c2b2bf9aba,1559266571,2019-05-31 09:36:11,1559266716,2019-05-31 09:38:36,1559266751,0b87a76e-016b-1000-e3ba-0734129e00c1,https://advertiser.inmobiapis.com/tpce/v1/events/download?trackingPartner=Appier&propertyId={InMobi_GPMID}&impId=0b87a76e-016b-1000-e3ba-0734129e00c1&country={2chararcer_alphecountry_code},idfa_5725a354-b454-49da-afc4-c8c2b2bf9aba,ja
