cid,partner_id,channel_id,action_id,cpi,ip,idfa,click time,click datetime,install time,install datetime,postback time,click id,postback url,unique user id
YIHHkJpJQlqM0bMTZ1ijcw,inmobi,80_20922_415_7_546-538732942,INSTALL,1.0,203.135.215.142,F9BEFAB0-228A-4AC7-9F49-42CEE9344D0E,1557853306,2019-05-15 01:01:46,1557853434,2019-05-15 01:03:54,1557853444,b74ac381-016a-1000-dd8d-0734115300c6,https://advertiser.inmobiapis.com/tpce/v1/events/download?trackingPartner=Appier&propertyId={InMobi_GPMID}&impId=b74ac381-016a-1000-dd8d-0734115300c6&country={2chararcer_alphecountry_code},idfa_F9BEFAB0-228A-4AC7-9F49-42CEE9344D0E,
YIHHkJpJQlqM0bMTZ1ijcw,inmobi,80_20922_415_7_546-538732942,INSTALL,1.0,182.169.108.176,C7542242-53C5-4C41-8681-B83E2BE03032,1557951822,2019-05-16 04:23:42,1557951940,2019-05-16 04:25:40,1557951962,bd29ecba-016a-1000-d88d-0735115300c4,https://advertiser.inmobiapis.com/tpce/v1/events/download?trackingPartner=Appier&propertyId={InMobi_GPMID}&impId=bd29ecba-016a-1000-d88d-0735115300c4&country={2chararcer_alphecountry_code},idfa_C7542242-53C5-4C41-8681-B83E2BE03032,
YIHHkJpJQlqM0bMTZ1ijcw,inmobi,80_20922_415_7_546-538732942,INSTALL,1.0,222.151.137.72,609893A4-80E4-42A6-808A-23F9CEF36848,1557960921,2019-05-16 06:55:21,1557961048,2019-05-16 06:57:28,1557961055,bdb4d7e9-016a-1000-e88d-0735115300c3,https://advertiser.inmobiapis.com/tpce/v1/events/download?trackingPartner=Appier&propertyId={InMobi_GPMID}&impId=bdb4d7e9-016a-1000-e88d-0735115300c3&country={2chararcer_alphecountry_code},idfa_609893A4-80E4-42A6-808A-23F9CEF36848,
YIHHkJpJQlqM0bMTZ1ijcw,inmobi,80_20922_415_7_546-538732942,INSTALL,1.0,124.85.215.1,C3D55323-BB91-4CC4-82B9-43C74CD46D84,1557853299,2019-05-15 01:01:39,1557853444,2019-05-15 01:04:04,1557853472,b74ab5f0-016a-1000-ef8d-073c115300c0,https://advertiser.inmobiapis.com/tpce/v1/events/download?trackingPartner=Appier&propertyId={InMobi_GPMID}&impId=b74ab5f0-016a-1000-ef8d-073c115300c0&country={2chararcer_alphecountry_code},idfa_C3D55323-BB91-4CC4-82B9-43C74CD46D84,
YIHHkJpJQlqM0bMTZ1ijcw,inmobi,80_20922_415_7_546-538732942,INSTALL,1.0,180.199.210.70,C3BF2149-B874-4121-BE27-246D67117227,1557853300,2019-05-15 01:01:40,1557853437,2019-05-15 01:03:57,1557853446,b74aba26-016a-1000-f88d-073a115300c5,https://advertiser.inmobiapis.com/tpce/v1/events/download?trackingPartner=Appier&propertyId={InMobi_GPMID}&impId=b74aba26-016a-1000-f88d-073a115300c5&country={2chararcer_alphecountry_code},idfa_C3BF2149-B874-4121-BE27-246D67117227,
YIHHkJpJQlqM0bMTZ1ijcw,inmobi,80_20922_415_7_546-538732942,INSTALL,1.0,219.100.40.52,0077D1EB-996A-4368-995B-EAF0C2BD29F9,1557853389,2019-05-15 01:03:09,1557853527,2019-05-15 01:05:27,1557853567,b74c1652-016a-1000-cc8d-0734115300c2,https://advertiser.inmobiapis.com/tpce/v1/events/download?trackingPartner=Appier&propertyId={InMobi_GPMID}&impId=b74c1652-016a-1000-cc8d-0734115300c2&country={2chararcer_alphecountry_code},idfa_0077D1EB-996A-4368-995B-EAF0C2BD29F9,
YIHHkJpJQlqM0bMTZ1ijcw,inmobi,80_20922_415_7_546-538732942,INSTALL,1.0,126.111.235.185,A130B061-2E06-4397-B545-72FA70293FB9,1557853295,2019-05-15 01:01:35,1557853431,2019-05-15 01:03:51,1557853445,b74aa8fc-016a-1000-f58d-0735115300c5,https://advertiser.inmobiapis.com/tpce/v1/events/download?trackingPartner=Appier&propertyId={InMobi_GPMID}&impId=b74aa8fc-016a-1000-f58d-0735115300c5&country={2chararcer_alphecountry_code},idfa_A130B061-2E06-4397-B545-72FA70293FB9,
YIHHkJpJQlqM0bMTZ1ijcw,inmobi,80_20922_415_7_546-538732942,INSTALL,1.0,153.194.134.216,622344A6-C764-46F8-A976-7DACE2FBED75,1557853301,2019-05-15 01:01:41,1557853436,2019-05-15 01:03:56,1557853448,b74abb0b-016a-1000-dd8d-0737115300c1,https://advertiser.inmobiapis.com/tpce/v1/events/download?trackingPartner=Appier&propertyId={InMobi_GPMID}&impId=b74abb0b-016a-1000-dd8d-0737115300c1&country={2chararcer_alphecountry_code},idfa_622344A6-C764-46F8-A976-7DACE2FBED75,
YIHHkJpJQlqM0bMTZ1ijcw,inmobi,80_20922_415_7_546-538732942,INSTALL,1.0,106.180.1.10,0E55EB18-FB35-4151-802A-6FCA00B3401F,1557853343,2019-05-15 01:02:23,1557853436,2019-05-15 01:03:56,1557853446,b74b1f90-016a-1000-f48d-073e115300c7,https://advertiser.inmobiapis.com/tpce/v1/events/download?trackingPartner=Appier&propertyId={InMobi_GPMID}&impId=b74b1f90-016a-1000-f48d-073e115300c7&country={2chararcer_alphecountry_code},idfa_0E55EB18-FB35-4151-802A-6FCA00B3401F,
YIHHkJpJQlqM0bMTZ1ijcw,inmobi,80_20922_415_7_546-538732942,INSTALL,1.0,153.198.54.163,7027D783-83D3-4F0F-AA23-19622219D1DB,1557958680,2019-05-16 06:18:00,1557958836,2019-05-16 06:20:36,1557958863,bd92ae4d-016a-1000-ea8d-0739115300c2,https://advertiser.inmobiapis.com/tpce/v1/events/download?trackingPartner=Appier&propertyId={InMobi_GPMID}&impId=bd92ae4d-016a-1000-ea8d-0739115300c2&country={2chararcer_alphecountry_code},idfa_7027D783-83D3-4F0F-AA23-19622219D1DB,
YIHHkJpJQlqM0bMTZ1ijcw,inmobi,80_20922_415_7_546-538732942,INSTALL,1.0,39.111.46.158,1B89A7B6-6A92-42BB-830A-8EB368DEC7AD,1557853410,2019-05-15 01:03:30,1557853548,2019-05-15 01:05:48,1557853563,b74c6bc9-016a-1000-f38d-0738115300c2,https://advertiser.inmobiapis.com/tpce/v1/events/download?trackingPartner=Appier&propertyId={InMobi_GPMID}&impId=b74c6bc9-016a-1000-f38d-0738115300c2&country={2chararcer_alphecountry_code},idfa_1B89A7B6-6A92-42BB-830A-8EB368DEC7AD,
YIHHkJpJQlqM0bMTZ1ijcw,inmobi,80_20922_415_7_546-538732942,INSTALL,1.0,219.114.23.179,4F809000-8673-46C5-86E6-6180E15E6FBE,1557853295,2019-05-15 01:01:35,1557853424,2019-05-15 01:03:44,1557853443,b74aa182-016a-1000-de8d-073f115300c6,https://advertiser.inmobiapis.com/tpce/v1/events/download?trackingPartner=Appier&propertyId={InMobi_GPMID}&impId=b74aa182-016a-1000-de8d-073f115300c6&country={2chararcer_alphecountry_code},idfa_4F809000-8673-46C5-86E6-6180E15E6FBE,
YIHHkJpJQlqM0bMTZ1ijcw,inmobi,80_20922_415_7_546-538732942,INSTALL,1.0,220.211.69.84,FE6CE6E9-6806-467B-85AD-DA6FD5AA409E,1557853296,2019-05-15 01:01:36,1557853443,2019-05-15 01:04:03,1557853472,b74ab0cb-016a-1000-f78d-0735115300c1,https://advertiser.inmobiapis.com/tpce/v1/events/download?trackingPartner=Appier&propertyId={InMobi_GPMID}&impId=b74ab0cb-016a-1000-f78d-0735115300c1&country={2chararcer_alphecountry_code},idfa_FE6CE6E9-6806-467B-85AD-DA6FD5AA409E,
YIHHkJpJQlqM0bMTZ1ijcw,inmobi,80_20922_415_7_546-538732942,INSTALL,1.0,106.172.200.21,AEB08A58-DD76-47E0-9473-57C33420814A,1557853302,2019-05-15 01:01:42,1557853431,2019-05-15 01:03:51,1557853450,b74ac4cd-016a-1000-e98d-0730115300c6,https://advertiser.inmobiapis.com/tpce/v1/events/download?trackingPartner=Appier&propertyId={InMobi_GPMID}&impId=b74ac4cd-016a-1000-e98d-0730115300c6&country={2chararcer_alphecountry_code},idfa_AEB08A58-DD76-47E0-9473-57C33420814A,
YIHHkJpJQlqM0bMTZ1ijcw,inmobi,80_20922_415_7_546-538732942,INSTALL,1.0,153.232.8.86,3E5F03C7-BFCC-4C65-B719-056848728B46,1557853202,2019-05-15 01:00:02,1557853346,2019-05-15 01:02:26,1557853352,b749391a-016a-1000-ef8d-0735115300c4,https://advertiser.inmobiapis.com/tpce/v1/events/download?trackingPartner=Appier&propertyId={InMobi_GPMID}&impId=b749391a-016a-1000-ef8d-0735115300c4&country={2chararcer_alphecountry_code},idfa_3E5F03C7-BFCC-4C65-B719-056848728B46,
YIHHkJpJQlqM0bMTZ1ijcw,inmobi,80_20922_415_7_546-538732942,INSTALL,1.0,118.7.147.101,6559D82D-69F4-4C4E-919A-65EFB29868D5,1557853300,2019-05-15 01:01:40,1557853424,2019-05-15 01:03:44,1557853450,b74abd60-016a-1000-e68d-0734115300c2,https://advertiser.inmobiapis.com/tpce/v1/events/download?trackingPartner=Appier&propertyId={InMobi_GPMID}&impId=b74abd60-016a-1000-e68d-0734115300c2&country={2chararcer_alphecountry_code},idfa_6559D82D-69F4-4C4E-919A-65EFB29868D5,
YIHHkJpJQlqM0bMTZ1ijcw,inmobi,80_20922_415_7_546-538732942,INSTALL,1.0,222.148.205.147,9CE39B55-A3E4-46FA-B756-C60553A6FC32,1557772330,2019-05-14 02:32:10,1557772488,2019-05-14 02:34:48,1557772508,b2773a1d-016a-1000-f38d-0730115300c7,https://advertiser.inmobiapis.com/tpce/v1/events/download?trackingPartner=Appier&propertyId={InMobi_GPMID}&impId=b2773a1d-016a-1000-f38d-0730115300c7&country={2chararcer_alphecountry_code},idfa_9CE39B55-A3E4-46FA-B756-C60553A6FC32,
YIHHkJpJQlqM0bMTZ1ijcw,inmobi,80_20922_415_7_546-538732942,INSTALL,1.0,121.82.180.165,64F28558-A45B-4E31-9C95-4968EABCE5ED,1557853503,2019-05-15 01:05:03,1557853634,2019-05-15 01:07:14,1557853659,b74dd6ac-016a-1000-d98d-0738115300c5,https://advertiser.inmobiapis.com/tpce/v1/events/download?trackingPartner=Appier&propertyId={InMobi_GPMID}&impId=b74dd6ac-016a-1000-d98d-0738115300c5&country={2chararcer_alphecountry_code},idfa_64F28558-A45B-4E31-9C95-4968EABCE5ED,
YIHHkJpJQlqM0bMTZ1ijcw,inmobi,80_20922_415_7_546-538732942,INSTALL,1.0,116.70.187.37,D9A386BC-E91A-4998-AF08-4D21FF932A5E,1557853385,2019-05-15 01:03:05,1557853506,2019-05-15 01:05:06,1557853532,b74c0804-016a-1000-e88d-073e115300c2,https://advertiser.inmobiapis.com/tpce/v1/events/download?trackingPartner=Appier&propertyId={InMobi_GPMID}&impId=b74c0804-016a-1000-e88d-073e115300c2&country={2chararcer_alphecountry_code},idfa_D9A386BC-E91A-4998-AF08-4D21FF932A5E,
YIHHkJpJQlqM0bMTZ1ijcw,inmobi,80_20922_415_7_546-538732942,INSTALL,1.0,122.131.250.213,D2ECAC04-590C-4B43-9ECD-F87F030B8BE3,1557853382,2019-05-15 01:03:02,1557853536,2019-05-15 01:05:36,1557853565,b74bfc29-016a-1000-cd8d-073c115300c0,https://advertiser.inmobiapis.com/tpce/v1/events/download?trackingPartner=Appier&propertyId={InMobi_GPMID}&impId=b74bfc29-016a-1000-cd8d-073c115300c0&country={2chararcer_alphecountry_code},idfa_D2ECAC04-590C-4B43-9ECD-F87F030B8BE3,
YIHHkJpJQlqM0bMTZ1ijcw,inmobi,80_20922_415_7_546-538732942,INSTALL,1.0,131.147.166.21,C3B358F3-1BD3-4A02-B9D1-DC1797EA22C4,1557951993,2019-05-16 04:26:33,1557952135,2019-05-16 04:28:55,1557952143,bd2c9ac3-016a-1000-ef8d-073b115300c5,https://advertiser.inmobiapis.com/tpce/v1/events/download?trackingPartner=Appier&propertyId={InMobi_GPMID}&impId=bd2c9ac3-016a-1000-ef8d-073b115300c5&country={2chararcer_alphecountry_code},idfa_C3B358F3-1BD3-4A02-B9D1-DC1797EA22C4,
YIHHkJpJQlqM0bMTZ1ijcw,inmobi,80_20922_415_7_546-538732942,INSTALL,1.0,131.129.217.185,C66D3198-0B9C-4A51-BC3B-081ACA2FF83F,1557853395,2019-05-15 01:03:15,1557853522,2019-05-15 01:05:22,1557853538,b74c2d3a-016a-1000-e68d-073d115300c7,https://advertiser.inmobiapis.com/tpce/v1/events/download?trackingPartner=Appier&propertyId={InMobi_GPMID}&impId=b74c2d3a-016a-1000-e68d-073d115300c7&country={2chararcer_alphecountry_code},idfa_C66D3198-0B9C-4A51-BC3B-081ACA2FF83F,
YIHHkJpJQlqM0bMTZ1ijcw,inmobi,80_20922_415_7_546-538732942,INSTALL,1.0,61.120.54.160,7A0B1419-5E1D-400C-A569-CEA785A203B3,1557853065,2019-05-15 00:57:45,1557853180,2019-05-15 00:59:40,1557853203,b74724c5-016a-1000-f68d-0731115300c3,https://advertiser.inmobiapis.com/tpce/v1/events/download?trackingPartner=Appier&propertyId={InMobi_GPMID}&impId=b74724c5-016a-1000-f68d-0731115300c3&country={2chararcer_alphecountry_code},idfa_7A0B1419-5E1D-400C-A569-CEA785A203B3,
YIHHkJpJQlqM0bMTZ1ijcw,inmobi,80_20922_415_7_546-538732942,INSTALL,1.0,124.140.91.182,0659AD7A-24E2-4278-B9BA-2B8EBB05A241,1557853302,2019-05-15 01:01:42,1557853450,2019-05-15 01:04:10,1557853477,b74ac3ce-016a-1000-fb8d-073c115300c3,https://advertiser.inmobiapis.com/tpce/v1/events/download?trackingPartner=Appier&propertyId={InMobi_GPMID}&impId=b74ac3ce-016a-1000-fb8d-073c115300c3&country={2chararcer_alphecountry_code},idfa_0659AD7A-24E2-4278-B9BA-2B8EBB05A241,
YIHHkJpJQlqM0bMTZ1ijcw,inmobi,80_20922_415_7_546-538732942,INSTALL,1.0,131.129.243.254,C699FE63-F07C-4B30-84DA-953CD62DE261,1557853402,2019-05-15 01:03:22,1557853555,2019-05-15 01:05:55,1557853562,b74c4ef1-016a-1000-fc8d-073f115300c6,https://advertiser.inmobiapis.com/tpce/v1/events/download?trackingPartner=Appier&propertyId={InMobi_GPMID}&impId=b74c4ef1-016a-1000-fc8d-073f115300c6&country={2chararcer_alphecountry_code},idfa_C699FE63-F07C-4B30-84DA-953CD62DE261,
YIHHkJpJQlqM0bMTZ1ijcw,inmobi,80_20922_415_7_546-538732942,INSTALL,1.0,59.129.142.116,63926644-DB48-4295-A6B2-FBBFFE0CCAFE,1557853415,2019-05-15 01:03:35,1557853567,2019-05-15 01:06:07,1557853596,b74c79c4-016a-1000-eb8d-0734115300c7,https://advertiser.inmobiapis.com/tpce/v1/events/download?trackingPartner=Appier&propertyId={InMobi_GPMID}&impId=b74c79c4-016a-1000-eb8d-0734115300c7&country={2chararcer_alphecountry_code},idfa_63926644-DB48-4295-A6B2-FBBFFE0CCAFE,
YIHHkJpJQlqM0bMTZ1ijcw,inmobi,80_20922_415_7_546-538732942,INSTALL,1.0,203.133.247.173,93F57917-E16A-4FC2-9A81-CC1003C8A9A1,1557853371,2019-05-15 01:02:51,1557853510,2019-05-15 01:05:10,1557853532,b74bd6d3-016a-1000-d48d-0734115300c1,https://advertiser.inmobiapis.com/tpce/v1/events/download?trackingPartner=Appier&propertyId={InMobi_GPMID}&impId=b74bd6d3-016a-1000-d48d-0734115300c1&country={2chararcer_alphecountry_code},idfa_93F57917-E16A-4FC2-9A81-CC1003C8A9A1,
YIHHkJpJQlqM0bMTZ1ijcw,inmobi,80_20922_415_7_546-538732942,INSTALL,1.0,110.54.61.3,06BE9DBE-4544-478F-9177-BBFEAB98DF0C,1557853302,2019-05-15 01:01:42,1557853445,2019-05-15 01:04:05,1557853476,b74ab680-016a-1000-d68d-073e115300c7,https://advertiser.inmobiapis.com/tpce/v1/events/download?trackingPartner=Appier&propertyId={InMobi_GPMID}&impId=b74ab680-016a-1000-d68d-073e115300c7&country={2chararcer_alphecountry_code},idfa_06BE9DBE-4544-478F-9177-BBFEAB98DF0C,
YIHHkJpJQlqM0bMTZ1ijcw,inmobi,80_20922_415_7_546-538732942,INSTALL,1.0,153.179.202.45,7ED3C451-4D27-42B9-B793-3315E5A4F139,1557853300,2019-05-15 01:01:40,1557853426,2019-05-15 01:03:46,1557853448,b74abb71-016a-1000-d28d-0733115300c1,https://advertiser.inmobiapis.com/tpce/v1/events/download?trackingPartner=Appier&propertyId={InMobi_GPMID}&impId=b74abb71-016a-1000-d28d-0733115300c1&country={2chararcer_alphecountry_code},idfa_7ED3C451-4D27-42B9-B793-3315E5A4F139,
