cid,partner_id,channel_id,action_id,cpi,ip,idfa,click time,click datetime,install time,install datetime,postback time,click id,postback url,unique user id
VHJH2m2fSteoaj8i0-Xr-w,iwoop,3911_73__204,install,2.8,147.192.24.166,7BE196BA-60A8-4227-8CB6-ED3EBEEB90EC,1558739162,2019-05-25 07:06:02,1558739259,2019-05-25 07:07:39,1558739291,ad344a8617df39237eeadd6493eb04c1,http://postback.iwoop.com/?token=9PEPQbLgKYqp8avu3Ve2vcfFz4vvWIKk&transaction_id=ad344a8617df39237eeadd6493eb04c1,idfa_7BE196BA-60A8-4227-8CB6-ED3EBEEB90EC,ja
VHJH2m2fSteoaj8i0-Xr-w,iwoop,3911_73__204,install,2.8,116.220.153.120,F62D5AFC-7309-4085-8E88-9A96CA030249,1558737956,2019-05-25 06:45:56,1558738075,2019-05-25 06:47:55,1558738109,c9eab541d5f630b3636d64d5fdaf6df1,http://postback.iwoop.com/?token=9PEPQbLgKYqp8avu3Ve2vcfFz4vvWIKk&transaction_id=c9eab541d5f630b3636d64d5fdaf6df1,idfa_F62D5AFC-7309-4085-8E88-9A96CA030249,ja
VHJH2m2fSteoaj8i0-Xr-w,iwoop,3911_73__204,install,2.8,125.3.210.29,B8991AA5-BD5F-4B04-9627-A7E33BDCE316,1558738133,2019-05-25 06:48:53,1558738311,2019-05-25 06:51:51,1558738351,bd9471cf09f50d03da010498de29917d,http://postback.iwoop.com/?token=9PEPQbLgKYqp8avu3Ve2vcfFz4vvWIKk&transaction_id=bd9471cf09f50d03da010498de29917d,idfa_B8991AA5-BD5F-4B04-9627-A7E33BDCE316,ja
VHJH2m2fSteoaj8i0-Xr-w,iwoop,3911_73__204,install,2.8,126.42.115.231,C51974B7-4486-4D15-B17B-465E4244FCED,1558739132,2019-05-25 07:05:32,1558739228,2019-05-25 07:07:08,1558739259,2a368f990ae229a24cbe04a1c5b92fbc,http://postback.iwoop.com/?token=9PEPQbLgKYqp8avu3Ve2vcfFz4vvWIKk&transaction_id=2a368f990ae229a24cbe04a1c5b92fbc,idfa_C51974B7-4486-4D15-B17B-465E4244FCED,ja
VHJH2m2fSteoaj8i0-Xr-w,iwoop,3911_73__204,install,2.8,106.176.224.68,ED06B7BE-BD99-4C25-8FAF-C0CBCAD36602,1558739644,2019-05-25 07:14:04,1558739745,2019-05-25 07:15:45,1558739776,c17a61cec95ca429a5d066bb8c0680b4,http://postback.iwoop.com/?token=9PEPQbLgKYqp8avu3Ve2vcfFz4vvWIKk&transaction_id=c17a61cec95ca429a5d066bb8c0680b4,idfa_ED06B7BE-BD99-4C25-8FAF-C0CBCAD36602,ja
VHJH2m2fSteoaj8i0-Xr-w,iwoop,3911_73__204,install,2.8,124.45.156.2,9B7C1742-9A27-482E-9E58-AA028AB4E88E,1558737978,2019-05-25 06:46:18,1558738203,2019-05-25 06:50:03,1558738234,9c4ad28ce512b77993b0b37130774819,http://postback.iwoop.com/?token=9PEPQbLgKYqp8avu3Ve2vcfFz4vvWIKk&transaction_id=9c4ad28ce512b77993b0b37130774819,idfa_9B7C1742-9A27-482E-9E58-AA028AB4E88E,ja
VHJH2m2fSteoaj8i0-Xr-w,iwoop,3911_73__204,install,2.8,160.86.179.100,040EC2E6-D711-491D-9B00-AF3E53E4A6BB,1558738874,2019-05-25 07:01:14,1558738966,2019-05-25 07:02:46,1558738997,0b96dbf85d73586e0c5e747b3393b366,http://postback.iwoop.com/?token=9PEPQbLgKYqp8avu3Ve2vcfFz4vvWIKk&transaction_id=0b96dbf85d73586e0c5e747b3393b366,idfa_040EC2E6-D711-491D-9B00-AF3E53E4A6BB,ja
VHJH2m2fSteoaj8i0-Xr-w,iwoop,3911_73__204,install,2.8,159.28.137.155,4B44F049-3124-41E5-8653-9C4F25C29567,1558739707,2019-05-25 07:15:07,1558739792,2019-05-25 07:16:32,1558739822,89fabfc14f43b44fe8e06fab5ee879a7,http://postback.iwoop.com/?token=9PEPQbLgKYqp8avu3Ve2vcfFz4vvWIKk&transaction_id=89fabfc14f43b44fe8e06fab5ee879a7,idfa_4B44F049-3124-41E5-8653-9C4F25C29567,ja
VHJH2m2fSteoaj8i0-Xr-w,iwoop,3911_73__204,install,2.8,119.104.150.16,6AD751AC-A8D4-4556-8073-F6BF6D1094BE,1558739184,2019-05-25 07:06:24,1558739284,2019-05-25 07:08:04,1558739315,aecc31d17a9519ddbd46678fba64905d,http://postback.iwoop.com/?token=9PEPQbLgKYqp8avu3Ve2vcfFz4vvWIKk&transaction_id=aecc31d17a9519ddbd46678fba64905d,idfa_6AD751AC-A8D4-4556-8073-F6BF6D1094BE,ja
VHJH2m2fSteoaj8i0-Xr-w,iwoop,3911_73__204,install,2.8,61.207.241.185,C00D9251-0AFA-41AF-B592-F4D18C217F12,1558740427,2019-05-25 07:27:07,1558740508,2019-05-25 07:28:28,1558740539,bb884a61610ddd09f443f2f6749bad78,http://postback.iwoop.com/?token=9PEPQbLgKYqp8avu3Ve2vcfFz4vvWIKk&transaction_id=bb884a61610ddd09f443f2f6749bad78,idfa_C00D9251-0AFA-41AF-B592-F4D18C217F12,ja
VHJH2m2fSteoaj8i0-Xr-w,iwoop,3911_73__204,install,2.8,218.220.130.119,D9DCB0B7-2938-4DE3-B787-75B43FE18A96,1558738603,2019-05-25 06:56:43,1558738757,2019-05-25 06:59:17,1558738788,f2b399a97c9f94ba5c0d95faaf434416,http://postback.iwoop.com/?token=9PEPQbLgKYqp8avu3Ve2vcfFz4vvWIKk&transaction_id=f2b399a97c9f94ba5c0d95faaf434416,idfa_D9DCB0B7-2938-4DE3-B787-75B43FE18A96,ja
VHJH2m2fSteoaj8i0-Xr-w,iwoop,3911_73__204,install,2.8,152.165.75.64,A42AC652-0C77-4A0A-BBC9-BADA3DED5B97,1558738557,2019-05-25 06:55:57,1558738673,2019-05-25 06:57:53,1558738703,6e95683fa54d4cbb70247068f7167d21,http://postback.iwoop.com/?token=9PEPQbLgKYqp8avu3Ve2vcfFz4vvWIKk&transaction_id=6e95683fa54d4cbb70247068f7167d21,idfa_A42AC652-0C77-4A0A-BBC9-BADA3DED5B97,ja
VHJH2m2fSteoaj8i0-Xr-w,iwoop,3911_73__204,install,2.8,45.75.10.164,DFC2B86C-B49A-4636-8A7C-9263A4A8474E,1558739953,2019-05-25 07:19:13,1558740033,2019-05-25 07:20:33,1558740064,89a97175005f6ec04f6e73003acc0d64,http://postback.iwoop.com/?token=9PEPQbLgKYqp8avu3Ve2vcfFz4vvWIKk&transaction_id=89a97175005f6ec04f6e73003acc0d64,idfa_DFC2B86C-B49A-4636-8A7C-9263A4A8474E,ja
VHJH2m2fSteoaj8i0-Xr-w,iwoop,3911_73__204,install,2.8,126.80.65.188,E4A4EAC5-8DFC-4D0C-9593-AD85CB46C9F2,1558739086,2019-05-25 07:04:46,1558739154,2019-05-25 07:05:54,1558739186,4271f98176a3eadba119f82dca7443e7,http://postback.iwoop.com/?token=9PEPQbLgKYqp8avu3Ve2vcfFz4vvWIKk&transaction_id=4271f98176a3eadba119f82dca7443e7,idfa_E4A4EAC5-8DFC-4D0C-9593-AD85CB46C9F2,ja
VHJH2m2fSteoaj8i0-Xr-w,iwoop,3911_73__204,install,2.8,180.36.62.10,111D4F8B-4F85-4AAE-81D2-1D4B199D65E7,1558738547,2019-05-25 06:55:47,1558738690,2019-05-25 06:58:10,1558738721,0a00e0c6112ab13dfee21c0f4907ac4b,http://postback.iwoop.com/?token=9PEPQbLgKYqp8avu3Ve2vcfFz4vvWIKk&transaction_id=0a00e0c6112ab13dfee21c0f4907ac4b,idfa_111D4F8B-4F85-4AAE-81D2-1D4B199D65E7,ja
VHJH2m2fSteoaj8i0-Xr-w,iwoop,3911_73__204,install,2.8,121.2.244.222,52F7AD70-E371-4C9B-A467-BD2CBC680386,1558739857,2019-05-25 07:17:37,1558739934,2019-05-25 07:18:54,1558739965,37359c3bb2ba2c9d033522aefe72d559,http://postback.iwoop.com/?token=9PEPQbLgKYqp8avu3Ve2vcfFz4vvWIKk&transaction_id=37359c3bb2ba2c9d033522aefe72d559,idfa_52F7AD70-E371-4C9B-A467-BD2CBC680386,ja
VHJH2m2fSteoaj8i0-Xr-w,iwoop,3911_73__204,install,2.8,160.86.118.173,B570984F-B4F7-4EEC-9C14-AE6B0A1189C3,1558739314,2019-05-25 07:08:34,1558739410,2019-05-25 07:10:10,1558739441,9c1240be451e454411e7d81fbe3fce4a,http://postback.iwoop.com/?token=9PEPQbLgKYqp8avu3Ve2vcfFz4vvWIKk&transaction_id=9c1240be451e454411e7d81fbe3fce4a,idfa_B570984F-B4F7-4EEC-9C14-AE6B0A1189C3,ja
VHJH2m2fSteoaj8i0-Xr-w,iwoop,3911_73__204,install,2.8,153.142.120.116,BB112DFE-356E-4FE1-A0AC-08DD582D45BD,1558739576,2019-05-25 07:12:56,1558739664,2019-05-25 07:14:24,1558739695,d798bf3954355c0689f84bd33969f0e6,http://postback.iwoop.com/?token=9PEPQbLgKYqp8avu3Ve2vcfFz4vvWIKk&transaction_id=d798bf3954355c0689f84bd33969f0e6,idfa_BB112DFE-356E-4FE1-A0AC-08DD582D45BD,ja
VHJH2m2fSteoaj8i0-Xr-w,iwoop,3911_73__204,install,2.8,122.134.17.144,809C1A12-C86F-4291-A78F-E5575C4FFB31,1558740095,2019-05-25 07:21:35,1558740159,2019-05-25 07:22:39,1558740190,a34b18c17e89132358c579124bbbfcf7,http://postback.iwoop.com/?token=9PEPQbLgKYqp8avu3Ve2vcfFz4vvWIKk&transaction_id=a34b18c17e89132358c579124bbbfcf7,idfa_809C1A12-C86F-4291-A78F-E5575C4FFB31,ja
VHJH2m2fSteoaj8i0-Xr-w,iwoop,3911_73__204,install,2.8,111.100.243.166,25C004FF-C0B7-48B4-BF6D-A70971FC934A,1558738259,2019-05-25 06:50:59,1558738379,2019-05-25 06:52:59,1558738410,a6ad214756c76c607b8ca5731b0a2d51,http://postback.iwoop.com/?token=9PEPQbLgKYqp8avu3Ve2vcfFz4vvWIKk&transaction_id=a6ad214756c76c607b8ca5731b0a2d51,idfa_25C004FF-C0B7-48B4-BF6D-A70971FC934A,ja
VHJH2m2fSteoaj8i0-Xr-w,iwoop,3911_73__204,install,2.8,159.28.182.177,A15219B4-4CC6-4C8D-B6B2-283FD3458006,1558738369,2019-05-25 06:52:49,1558738458,2019-05-25 06:54:18,1558738489,6a8923df29471318f131bcbf8cb0eca0,http://postback.iwoop.com/?token=9PEPQbLgKYqp8avu3Ve2vcfFz4vvWIKk&transaction_id=6a8923df29471318f131bcbf8cb0eca0,idfa_A15219B4-4CC6-4C8D-B6B2-283FD3458006,ja
VHJH2m2fSteoaj8i0-Xr-w,iwoop,3911_73__204,install,2.8,160.86.139.225,0762C073-D390-49B9-82B1-5F3A1EE72E78,1558739389,2019-05-25 07:09:49,1558739474,2019-05-25 07:11:14,1558739506,8af69bf8e8d13b715b6f21b33332b71f,http://postback.iwoop.com/?token=9PEPQbLgKYqp8avu3Ve2vcfFz4vvWIKk&transaction_id=8af69bf8e8d13b715b6f21b33332b71f,idfa_0762C073-D390-49B9-82B1-5F3A1EE72E78,ja
VHJH2m2fSteoaj8i0-Xr-w,iwoop,3911_73__204,install,2.8,121.92.217.68,38B6EB9E-DFBE-4379-B0BA-B6B6445EE458,1558740377,2019-05-25 07:26:17,1558740453,2019-05-25 07:27:33,1558740485,082725a55633dadfb80afa22a0693721,http://postback.iwoop.com/?token=9PEPQbLgKYqp8avu3Ve2vcfFz4vvWIKk&transaction_id=082725a55633dadfb80afa22a0693721,idfa_38B6EB9E-DFBE-4379-B0BA-B6B6445EE458,ja
VHJH2m2fSteoaj8i0-Xr-w,iwoop,3911_73__204,install,2.8,152.165.67.17,648F90E5-DDD1-4B52-8818-0EB8332041BB,1558740312,2019-05-25 07:25:12,1558740386,2019-05-25 07:26:26,1558740417,ba630d2f08ce3531fa2d83b3fe0e103f,http://postback.iwoop.com/?token=9PEPQbLgKYqp8avu3Ve2vcfFz4vvWIKk&transaction_id=ba630d2f08ce3531fa2d83b3fe0e103f,idfa_648F90E5-DDD1-4B52-8818-0EB8332041BB,ja
VHJH2m2fSteoaj8i0-Xr-w,iwoop,3911_73__204,install,2.8,159.28.166.99,C844C8AE-86B2-4EFB-A50D-339DADBEC05B,1558740099,2019-05-25 07:21:39,1558740179,2019-05-25 07:22:59,1558740211,d0910b2e2d4f708a1c0dea9aa87bbaa5,http://postback.iwoop.com/?token=9PEPQbLgKYqp8avu3Ve2vcfFz4vvWIKk&transaction_id=d0910b2e2d4f708a1c0dea9aa87bbaa5,idfa_C844C8AE-86B2-4EFB-A50D-339DADBEC05B,ja
VHJH2m2fSteoaj8i0-Xr-w,iwoop,3911_73__204,install,2.8,14.13.164.33,1CE64FA7-FE5E-406D-B499-A1BBF3F5FFF4,1558738865,2019-05-25 07:01:05,1558738961,2019-05-25 07:02:41,1558738993,f38aed35a47203d325a5d7268c864678,http://postback.iwoop.com/?token=9PEPQbLgKYqp8avu3Ve2vcfFz4vvWIKk&transaction_id=f38aed35a47203d325a5d7268c864678,idfa_1CE64FA7-FE5E-406D-B499-A1BBF3F5FFF4,ja
VHJH2m2fSteoaj8i0-Xr-w,iwoop,3911_73__204,install,2.8,220.105.191.155,64B37372-15E5-471B-BD9D-35108F5A08A8,1558740336,2019-05-25 07:25:36,1558740417,2019-05-25 07:26:57,1558740448,56edbac15312a511cb6c189f0991e41f,http://postback.iwoop.com/?token=9PEPQbLgKYqp8avu3Ve2vcfFz4vvWIKk&transaction_id=56edbac15312a511cb6c189f0991e41f,idfa_64B37372-15E5-471B-BD9D-35108F5A08A8,ja
VHJH2m2fSteoaj8i0-Xr-w,iwoop,3911_73__204,install,2.8,157.107.11.109,3DD6D512-596D-4DB1-AC4F-6C1128841062,1558740063,2019-05-25 07:21:03,1558740157,2019-05-25 07:22:37,1558740188,9fcfc611af26bea1d5b54dc67ceec8ad,http://postback.iwoop.com/?token=9PEPQbLgKYqp8avu3Ve2vcfFz4vvWIKk&transaction_id=9fcfc611af26bea1d5b54dc67ceec8ad,idfa_3DD6D512-596D-4DB1-AC4F-6C1128841062,ja
