cid,partner_id,channel_id,action_id,cpi,ip,idfa,click time,click datetime,install time,install datetime,postback time,click id,postback url,unique user id
IDzDXEUpR0uqs2F8UjfiXg,iwoop,3017_142,install,2.5,111.246.160.218,94FAB3AF-7C06-44B3-A7D0-C0A920320DBC,1557970390,2019-05-16 09:33:10,1557970527,2019-05-16 09:35:27,1557970557,5ca299a4c07a51e1646a4b83ad171541,http://postback.iwoop.com/?token=9PEPQbLgKYqp8avu3Ve2vcfFz4vvWIKk&transaction_id=5ca299a4c07a51e1646a4b83ad171541,idfa_94FAB3AF-7C06-44B3-A7D0-C0A920320DBC,zh
IDzDXEUpR0uqs2F8UjfiXg,iwoop,3017_142,install,2.5,114.45.15.50,4E3AC080-430B-40BF-A47F-3E98631104B3,1557972887,2019-05-16 10:14:47,1557973198,2019-05-16 10:19:58,1557973228,35638afd630d39caa95736c64ab825c0,http://postback.iwoop.com/?token=9PEPQbLgKYqp8avu3Ve2vcfFz4vvWIKk&transaction_id=35638afd630d39caa95736c64ab825c0,idfa_4E3AC080-430B-40BF-A47F-3E98631104B3,zh
IDzDXEUpR0uqs2F8UjfiXg,iwoop,3017_142,install,2.5,114.36.128.136,80286D15-AF6B-429D-8D3C-AD0263E29679,1557972379,2019-05-16 10:06:19,1557972862,2019-05-16 10:14:22,1557972893,4ee9df7b6215b995a8d663b72e316563,http://postback.iwoop.com/?token=9PEPQbLgKYqp8avu3Ve2vcfFz4vvWIKk&transaction_id=4ee9df7b6215b995a8d663b72e316563,idfa_80286D15-AF6B-429D-8D3C-AD0263E29679,zh
IDzDXEUpR0uqs2F8UjfiXg,iwoop,3017_142,install,2.5,118.161.213.237,9213CA13-BE3A-4394-9761-5725F695377A,1557974156,2019-05-16 10:35:56,1557974617,2019-05-16 10:43:37,1557974647,febdb05b62fd37722d2d6eb9f2925a2b,http://postback.iwoop.com/?token=9PEPQbLgKYqp8avu3Ve2vcfFz4vvWIKk&transaction_id=febdb05b62fd37722d2d6eb9f2925a2b,idfa_9213CA13-BE3A-4394-9761-5725F695377A,zh
IDzDXEUpR0uqs2F8UjfiXg,iwoop,3017_142,install,2.5,1.162.135.172,FF2D4BBB-E3CB-494C-9A94-38B0626AA3F1,1557974018,2019-05-16 10:33:38,1557974676,2019-05-16 10:44:36,1557974706,17122a7d34417fa05751426c38127e4d,http://postback.iwoop.com/?token=9PEPQbLgKYqp8avu3Ve2vcfFz4vvWIKk&transaction_id=17122a7d34417fa05751426c38127e4d,idfa_FF2D4BBB-E3CB-494C-9A94-38B0626AA3F1,zh
IDzDXEUpR0uqs2F8UjfiXg,iwoop,3017_142,install,2.5,118.169.114.36,22D36EF0-C9CC-42A6-A44D-6BCCA3809DC4,1557972287,2019-05-16 10:04:47,1557972653,2019-05-16 10:10:53,1557972683,0817fb8be018140e16d0bc2f5beb864c,http://postback.iwoop.com/?token=9PEPQbLgKYqp8avu3Ve2vcfFz4vvWIKk&transaction_id=0817fb8be018140e16d0bc2f5beb864c,idfa_22D36EF0-C9CC-42A6-A44D-6BCCA3809DC4,zh
IDzDXEUpR0uqs2F8UjfiXg,iwoop,3017_142,install,2.5,59.115.244.140,3CFE1B58-0D35-4B15-9CC0-A1EA5524DC3E,1557972406,2019-05-16 10:06:46,1557972951,2019-05-16 10:15:51,1557972981,d17b6f893083a397d1b8d450f817f882,http://postback.iwoop.com/?token=9PEPQbLgKYqp8avu3Ve2vcfFz4vvWIKk&transaction_id=d17b6f893083a397d1b8d450f817f882,idfa_3CFE1B58-0D35-4B15-9CC0-A1EA5524DC3E,zh
IDzDXEUpR0uqs2F8UjfiXg,iwoop,3017_142,install,2.5,111.243.222.61,5E27DFD2-AE9C-448F-8AC9-07ED8F7377E0,1557971395,2019-05-16 09:49:55,1557971785,2019-05-16 09:56:25,1557971816,f4897deb06b83f445f357992cbd687f4,http://postback.iwoop.com/?token=9PEPQbLgKYqp8avu3Ve2vcfFz4vvWIKk&transaction_id=f4897deb06b83f445f357992cbd687f4,idfa_5E27DFD2-AE9C-448F-8AC9-07ED8F7377E0,zh
IDzDXEUpR0uqs2F8UjfiXg,iwoop,3017_142,install,2.5,61.228.250.44,92B02A08-3F17-4060-87E8-68AF16088A12,1557971802,2019-05-16 09:56:42,1557972163,2019-05-16 10:02:43,1557972193,a32f1a7be6e332089c11c7f14f9d01ac,http://postback.iwoop.com/?token=9PEPQbLgKYqp8avu3Ve2vcfFz4vvWIKk&transaction_id=a32f1a7be6e332089c11c7f14f9d01ac,idfa_92B02A08-3F17-4060-87E8-68AF16088A12,zh
IDzDXEUpR0uqs2F8UjfiXg,iwoop,3017_142,install,2.5,118.168.68.119,523926CE-C035-45F9-9D11-834E83DD6EE2,1557973828,2019-05-16 10:30:28,1557974211,2019-05-16 10:36:51,1557974241,f9d49434eea619a71aa51729bf19b2dd,http://postback.iwoop.com/?token=9PEPQbLgKYqp8avu3Ve2vcfFz4vvWIKk&transaction_id=f9d49434eea619a71aa51729bf19b2dd,idfa_523926CE-C035-45F9-9D11-834E83DD6EE2,zh
IDzDXEUpR0uqs2F8UjfiXg,iwoop,3017_142,install,2.5,36.236.57.243,8CA38189-EB1C-47C7-9193-E8BAA46FBB15,1557974009,2019-05-16 10:33:29,1557974536,2019-05-16 10:42:16,1557974566,0eb644c7ecb62f7329e01707c8d484a7,http://postback.iwoop.com/?token=9PEPQbLgKYqp8avu3Ve2vcfFz4vvWIKk&transaction_id=0eb644c7ecb62f7329e01707c8d484a7,idfa_8CA38189-EB1C-47C7-9193-E8BAA46FBB15,zh
IDzDXEUpR0uqs2F8UjfiXg,iwoop,3017_142,install,2.5,220.143.17.167,EE571AC9-D0A6-4D7C-913D-E3D8617D75D1,1557973795,2019-05-16 10:29:55,1557974155,2019-05-16 10:35:55,1557974185,401dc9068807c852a473742479b7b9d4,http://postback.iwoop.com/?token=9PEPQbLgKYqp8avu3Ve2vcfFz4vvWIKk&transaction_id=401dc9068807c852a473742479b7b9d4,idfa_EE571AC9-D0A6-4D7C-913D-E3D8617D75D1,zh
IDzDXEUpR0uqs2F8UjfiXg,iwoop,3017_142,install,2.5,114.36.241.210,41EB64AC-8BEA-4695-BC3C-9E839629D196,1557971412,2019-05-16 09:50:12,1557971689,2019-05-16 09:54:49,1557971719,b5c719b036e83ea4cd5ee38bd7bb83e2,http://postback.iwoop.com/?token=9PEPQbLgKYqp8avu3Ve2vcfFz4vvWIKk&transaction_id=b5c719b036e83ea4cd5ee38bd7bb83e2,idfa_41EB64AC-8BEA-4695-BC3C-9E839629D196,zh
IDzDXEUpR0uqs2F8UjfiXg,iwoop,3017_142,install,2.5,114.47.123.105,541FE0BF-731B-4F06-8380-68FDFA5D32E3,1557970413,2019-05-16 09:33:33,1557970536,2019-05-16 09:35:36,1557970566,771eec70cc56694b35f1234970b40770,http://postback.iwoop.com/?token=9PEPQbLgKYqp8avu3Ve2vcfFz4vvWIKk&transaction_id=771eec70cc56694b35f1234970b40770,idfa_541FE0BF-731B-4F06-8380-68FDFA5D32E3,zh
IDzDXEUpR0uqs2F8UjfiXg,iwoop,3017_142,install,2.5,111.255.68.23,8F160D42-034F-4319-BC2D-5A5F63E925BA,1557972207,2019-05-16 10:03:27,1557972536,2019-05-16 10:08:56,1557972567,238ca3fbcec5b5ae4ce8e5f3d4ed2e93,http://postback.iwoop.com/?token=9PEPQbLgKYqp8avu3Ve2vcfFz4vvWIKk&transaction_id=238ca3fbcec5b5ae4ce8e5f3d4ed2e93,idfa_8F160D42-034F-4319-BC2D-5A5F63E925BA,zh
IDzDXEUpR0uqs2F8UjfiXg,iwoop,3017_142,install,2.5,111.250.96.98,75209B0A-1D20-4C55-B2D3-3DDD89454894,1557972478,2019-05-16 10:07:58,1557972834,2019-05-16 10:13:54,1557972864,a27bbcf1f95f392a946ea6d611ce21ee,http://postback.iwoop.com/?token=9PEPQbLgKYqp8avu3Ve2vcfFz4vvWIKk&transaction_id=a27bbcf1f95f392a946ea6d611ce21ee,idfa_75209B0A-1D20-4C55-B2D3-3DDD89454894,zh
IDzDXEUpR0uqs2F8UjfiXg,iwoop,3017_142,install,2.5,36.224.111.183,6D0FFE1A-1A53-45AA-9C09-4B2A92800C47,1557973327,2019-05-16 10:22:07,1557973770,2019-05-16 10:29:30,1557973800,c8eaffa765d720e0a739a10120cb4d91,http://postback.iwoop.com/?token=9PEPQbLgKYqp8avu3Ve2vcfFz4vvWIKk&transaction_id=c8eaffa765d720e0a739a10120cb4d91,idfa_6D0FFE1A-1A53-45AA-9C09-4B2A92800C47,zh
IDzDXEUpR0uqs2F8UjfiXg,iwoop,3017_142,install,2.5,111.251.71.245,52FBB09E-9A65-4D85-8329-E2E4698C742A,1557972205,2019-05-16 10:03:25,1557972692,2019-05-16 10:11:32,1557972722,3e57ea8601cdc9f7f91ef6f189066876,http://postback.iwoop.com/?token=9PEPQbLgKYqp8avu3Ve2vcfFz4vvWIKk&transaction_id=3e57ea8601cdc9f7f91ef6f189066876,idfa_52FBB09E-9A65-4D85-8329-E2E4698C742A,zh
IDzDXEUpR0uqs2F8UjfiXg,iwoop,3017_142,install,2.5,111.240.224.94,F1CD753F-E337-4781-9E81-ABD4C8EAE7BC,1557973194,2019-05-16 10:19:54,1557973549,2019-05-16 10:25:49,1557973579,1efb6653b6ddbf9319fb038dec9f32f1,http://postback.iwoop.com/?token=9PEPQbLgKYqp8avu3Ve2vcfFz4vvWIKk&transaction_id=1efb6653b6ddbf9319fb038dec9f32f1,idfa_F1CD753F-E337-4781-9E81-ABD4C8EAE7BC,zh
IDzDXEUpR0uqs2F8UjfiXg,iwoop,3017_142,install,2.5,118.171.24.90,28B30EB9-E60B-4564-A25E-EEDE5D883652,1557973744,2019-05-16 10:29:04,1557974123,2019-05-16 10:35:23,1557974153,6af1b3bee9fdf0eca4bcf9da3dbaf1e5,http://postback.iwoop.com/?token=9PEPQbLgKYqp8avu3Ve2vcfFz4vvWIKk&transaction_id=6af1b3bee9fdf0eca4bcf9da3dbaf1e5,idfa_28B30EB9-E60B-4564-A25E-EEDE5D883652,zh
IDzDXEUpR0uqs2F8UjfiXg,iwoop,3017_142,install,2.5,1.165.49.44,82D2FAA4-AD02-4B4C-B676-8711AC3649D8,1557973567,2019-05-16 10:26:07,1557974019,2019-05-16 10:33:39,1557974049,714a1ea7c49eabf430f7eb62d8bb8cbd,http://postback.iwoop.com/?token=9PEPQbLgKYqp8avu3Ve2vcfFz4vvWIKk&transaction_id=714a1ea7c49eabf430f7eb62d8bb8cbd,idfa_82D2FAA4-AD02-4B4C-B676-8711AC3649D8,zh
