cid,partner_id,channel_id,action_id,cpi,ip,idfa,click time,click datetime,install time,install datetime,postback time,click id,postback url,unique user id
WdH4YJY_Ttm1ZFH4O3A20A,iwoop,384_adgroup@gs,Install,2.5,219.254.26.142,c6a5cefe-b40e-42e2-b2cc-0b927cc77dad,1559061356,2019-05-29 00:35:56,1559061434,2019-05-29 00:37:14,1559061464,bc7aabfad9cfcd9eec8745d05ac31e62,http://postback.iwoop.com/?token=9PEPQbLgKYqp8avu3Ve2vcfFz4vvWIKk&transaction_id=bc7aabfad9cfcd9eec8745d05ac31e62,idfa_c6a5cefe-b40e-42e2-b2cc-0b927cc77dad,Korean
WdH4YJY_Ttm1ZFH4O3A20A,iwoop,384_adgroup@gs,Install,2.5,123.213.242.71,1979d2e1-a05c-4f8e-b42c-c82409bf0045,1559085893,2019-05-29 07:24:53,1559086333,2019-05-29 07:32:13,1559086363,259717eac9f29866efca431b5296bb84,http://postback.iwoop.com/?token=9PEPQbLgKYqp8avu3Ve2vcfFz4vvWIKk&transaction_id=259717eac9f29866efca431b5296bb84,idfa_1979d2e1-a05c-4f8e-b42c-c82409bf0045,Korean
WdH4YJY_Ttm1ZFH4O3A20A,iwoop,384_adgroup@gs,Install,2.5,114.206.92.127,e06340c6-ef3c-4f2b-b6de-32d503718cc6,1559054337,2019-05-28 22:38:57,1559054441,2019-05-28 22:40:41,1559054471,849f1342ce4a4e368c50ff1a936003e6,http://postback.iwoop.com/?token=9PEPQbLgKYqp8avu3Ve2vcfFz4vvWIKk&transaction_id=849f1342ce4a4e368c50ff1a936003e6,idfa_e06340c6-ef3c-4f2b-b6de-32d503718cc6,Korean
WdH4YJY_Ttm1ZFH4O3A20A,iwoop,384_adgroup@gs,Install,2.5,61.74.115.68,340c30fb-849f-4779-9984-9ca4708ee295,1559070229,2019-05-29 03:03:49,1559070392,2019-05-29 03:06:32,1559070423,7f79ad334c60cbfaf36aedc2cbf0b738,http://postback.iwoop.com/?token=9PEPQbLgKYqp8avu3Ve2vcfFz4vvWIKk&transaction_id=7f79ad334c60cbfaf36aedc2cbf0b738,idfa_340c30fb-849f-4779-9984-9ca4708ee295,Korean
WdH4YJY_Ttm1ZFH4O3A20A,iwoop,384_adgroup@gs,Install,2.5,218.50.84.9,ed579d2c-aeab-4726-b82b-dc8d44e5cd89,1559059275,2019-05-29 00:01:15,1559059395,2019-05-29 00:03:15,1559059426,2bca5d23b397c6c8e53da69b0eb6a66c,http://postback.iwoop.com/?token=9PEPQbLgKYqp8avu3Ve2vcfFz4vvWIKk&transaction_id=2bca5d23b397c6c8e53da69b0eb6a66c,idfa_ed579d2c-aeab-4726-b82b-dc8d44e5cd89,Korean
WdH4YJY_Ttm1ZFH4O3A20A,iwoop,384_adgroup@gs,Install,2.5,211.34.45.96,bf666f78-ad86-4c62-b45c-f6cdc7be79d4,1559091587,2019-05-29 08:59:47,1559091695,2019-05-29 09:01:35,1559091725,8142b49e51c942bf96d4868f656129f0,http://postback.iwoop.com/?token=9PEPQbLgKYqp8avu3Ve2vcfFz4vvWIKk&transaction_id=8142b49e51c942bf96d4868f656129f0,idfa_bf666f78-ad86-4c62-b45c-f6cdc7be79d4,Korean
WdH4YJY_Ttm1ZFH4O3A20A,iwoop,384_adgroup@gs,Install,2.5,122.199.77.41,2ff4c23a-133b-4454-8d75-ad5447235b2c,1559094276,2019-05-29 09:44:36,1559094401,2019-05-29 09:46:41,1559094435,8ea28b2fbd17e98c3ab7148dfb86f7ae,http://postback.iwoop.com/?token=9PEPQbLgKYqp8avu3Ve2vcfFz4vvWIKk&transaction_id=8ea28b2fbd17e98c3ab7148dfb86f7ae,idfa_2ff4c23a-133b-4454-8d75-ad5447235b2c,Korean
WdH4YJY_Ttm1ZFH4O3A20A,iwoop,384_adgroup@gs,Install,2.5,175.203.39.82,4d6a524b-d2e7-4e80-be8d-58d485d9aa60,1559065564,2019-05-29 01:46:04,1559065776,2019-05-29 01:49:36,1559065807,baf6598ebb26dbd6b3b59e0b7cda036c,http://postback.iwoop.com/?token=9PEPQbLgKYqp8avu3Ve2vcfFz4vvWIKk&transaction_id=baf6598ebb26dbd6b3b59e0b7cda036c,idfa_4d6a524b-d2e7-4e80-be8d-58d485d9aa60,Korean
WdH4YJY_Ttm1ZFH4O3A20A,iwoop,384_adgroup@gs,Install,2.5,61.75.180.88,4102f7d2-ac96-4aa9-b65d-8adf57228800,1559082459,2019-05-29 06:27:39,1559082773,2019-05-29 06:32:53,1559082804,7be7bee24885bd5411e22fd0b70083db,http://postback.iwoop.com/?token=9PEPQbLgKYqp8avu3Ve2vcfFz4vvWIKk&transaction_id=7be7bee24885bd5411e22fd0b70083db,idfa_4102f7d2-ac96-4aa9-b65d-8adf57228800,Korean
WdH4YJY_Ttm1ZFH4O3A20A,iwoop,384_adgroup@gs,Install,2.5,125.178.232.104,61d61c2d-af41-47f1-89bc-74640542c82c,1559057668,2019-05-28 23:34:28,1559057796,2019-05-28 23:36:36,1559057826,dfe7a722561a68a2e15c5d9c0923a599,http://postback.iwoop.com/?token=9PEPQbLgKYqp8avu3Ve2vcfFz4vvWIKk&transaction_id=dfe7a722561a68a2e15c5d9c0923a599,idfa_61d61c2d-af41-47f1-89bc-74640542c82c,Korean
WdH4YJY_Ttm1ZFH4O3A20A,iwoop,384_adgroup@gs,Install,2.5,1.239.175.231,1242bcfe-ae47-49f0-a5dc-1704456d601f,1559074458,2019-05-29 04:14:18,1559074525,2019-05-29 04:15:25,1559074556,752218a39fb9c97f7abde67ecea88a50,http://postback.iwoop.com/?token=9PEPQbLgKYqp8avu3Ve2vcfFz4vvWIKk&transaction_id=752218a39fb9c97f7abde67ecea88a50,idfa_1242bcfe-ae47-49f0-a5dc-1704456d601f,Korean
WdH4YJY_Ttm1ZFH4O3A20A,iwoop,384_adgroup@gs,Install,2.5,125.130.255.240,88de3958-2995-4e1b-a704-353bed236146,1559072592,2019-05-29 03:43:12,1559072706,2019-05-29 03:45:06,1559072736,cc67563a89f4b60c8fe2f9b953d2835c,http://postback.iwoop.com/?token=9PEPQbLgKYqp8avu3Ve2vcfFz4vvWIKk&transaction_id=cc67563a89f4b60c8fe2f9b953d2835c,idfa_88de3958-2995-4e1b-a704-353bed236146,Korean
WdH4YJY_Ttm1ZFH4O3A20A,iwoop,384_adgroup@gs,Install,2.5,211.250.5.219,6fcb6091-e795-416b-91e5-41a1bbaf1fbc,1559071264,2019-05-29 03:21:04,1559071564,2019-05-29 03:26:04,1559071594,8954fdaa9ba78cd44289bc70f51a081d,http://postback.iwoop.com/?token=9PEPQbLgKYqp8avu3Ve2vcfFz4vvWIKk&transaction_id=8954fdaa9ba78cd44289bc70f51a081d,idfa_6fcb6091-e795-416b-91e5-41a1bbaf1fbc,Korean
WdH4YJY_Ttm1ZFH4O3A20A,iwoop,384_adgroup@gs,Install,2.5,1.231.68.84,fa178574-8192-48fd-bc4c-bbb6cb16e391,1559063282,2019-05-29 01:08:02,1559063630,2019-05-29 01:13:50,1559063661,3281116dcb987aeefc35e02c2f03d592,http://postback.iwoop.com/?token=9PEPQbLgKYqp8avu3Ve2vcfFz4vvWIKk&transaction_id=3281116dcb987aeefc35e02c2f03d592,idfa_fa178574-8192-48fd-bc4c-bbb6cb16e391,Korean
WdH4YJY_Ttm1ZFH4O3A20A,iwoop,384_adgroup@gs,Install,2.5,112.187.152.212,83dffbc4-c50e-49db-ab86-68c0da55fa5f,1559077516,2019-05-29 05:05:16,1559077631,2019-05-29 05:07:11,1559077662,188eddc9ebc89c6d5acdcbd722d75cbf,http://postback.iwoop.com/?token=9PEPQbLgKYqp8avu3Ve2vcfFz4vvWIKk&transaction_id=188eddc9ebc89c6d5acdcbd722d75cbf,idfa_83dffbc4-c50e-49db-ab86-68c0da55fa5f,Korean
WdH4YJY_Ttm1ZFH4O3A20A,iwoop,384_adgroup@gs,Install,2.5,14.42.93.247,16acaedd-24a7-4325-b88e-bcbf54f46f6c,1559080949,2019-05-29 06:02:29,1559081062,2019-05-29 06:04:22,1559081093,881ef937f6fbdf293a8c57cd4a3d5a18,http://postback.iwoop.com/?token=9PEPQbLgKYqp8avu3Ve2vcfFz4vvWIKk&transaction_id=881ef937f6fbdf293a8c57cd4a3d5a18,idfa_16acaedd-24a7-4325-b88e-bcbf54f46f6c,Korean
WdH4YJY_Ttm1ZFH4O3A20A,iwoop,384_adgroup@gs,Install,2.5,211.181.151.150,c82025e1-38e9-4474-8b4c-46be134648d7,1559067044,2019-05-29 02:10:44,1559067160,2019-05-29 02:12:40,1559067190,61262bc34155db7f2704f5502f3edd5d,http://postback.iwoop.com/?token=9PEPQbLgKYqp8avu3Ve2vcfFz4vvWIKk&transaction_id=61262bc34155db7f2704f5502f3edd5d,idfa_c82025e1-38e9-4474-8b4c-46be134648d7,Korean
WdH4YJY_Ttm1ZFH4O3A20A,iwoop,384_adgroup@gs,Install,2.5,14.46.247.87,875a2cb9-97d6-4b13-a984-51dc6171590d,1559087900,2019-05-29 07:58:20,1559088045,2019-05-29 08:00:45,1559088076,6a7d1e80a9712a32936395bf43450abd,http://postback.iwoop.com/?token=9PEPQbLgKYqp8avu3Ve2vcfFz4vvWIKk&transaction_id=6a7d1e80a9712a32936395bf43450abd,idfa_875a2cb9-97d6-4b13-a984-51dc6171590d,Korean
WdH4YJY_Ttm1ZFH4O3A20A,iwoop,384_adgroup@gs,Install,2.5,1.245.65.113,c01f953e-e5ce-4b2e-8630-91642cb48c10,1559095536,2019-05-29 10:05:36,1559095593,2019-05-29 10:06:33,1559095982,a4f81d616e286d1e992f7da1b7e8a715,http://postback.iwoop.com/?token=9PEPQbLgKYqp8avu3Ve2vcfFz4vvWIKk&transaction_id=a4f81d616e286d1e992f7da1b7e8a715,idfa_c01f953e-e5ce-4b2e-8630-91642cb48c10,Korean
WdH4YJY_Ttm1ZFH4O3A20A,iwoop,384_adgroup@gs,Install,2.5,49.170.174.41,423fbf0d-d1d4-492b-a47d-67aeb4c251ee,1559056653,2019-05-28 23:17:33,1559056813,2019-05-28 23:20:13,1559056844,319f6e122a95e19153774880ec578792,http://postback.iwoop.com/?token=9PEPQbLgKYqp8avu3Ve2vcfFz4vvWIKk&transaction_id=319f6e122a95e19153774880ec578792,idfa_423fbf0d-d1d4-492b-a47d-67aeb4c251ee,Korean
WdH4YJY_Ttm1ZFH4O3A20A,iwoop,384_adgroup@gs,Install,2.5,211.114.95.169,1f0935e1-5b02-4590-8897-c6e2fdfb86d0,1559084053,2019-05-29 06:54:13,1559084209,2019-05-29 06:56:49,1559084240,d7a67ed56e9bbf935bff14ce1a2b1083,http://postback.iwoop.com/?token=9PEPQbLgKYqp8avu3Ve2vcfFz4vvWIKk&transaction_id=d7a67ed56e9bbf935bff14ce1a2b1083,idfa_1f0935e1-5b02-4590-8897-c6e2fdfb86d0,Korean
WdH4YJY_Ttm1ZFH4O3A20A,iwoop,384_adgroup@gs,Install,2.5,118.128.253.96,ce17590f-661f-4155-bfd1-c5fa331b1089,1559075630,2019-05-29 04:33:50,1559076066,2019-05-29 04:41:06,1559076097,c7fc7b61fef4f6c2cd0a4ef84a9db699,http://postback.iwoop.com/?token=9PEPQbLgKYqp8avu3Ve2vcfFz4vvWIKk&transaction_id=c7fc7b61fef4f6c2cd0a4ef84a9db699,idfa_ce17590f-661f-4155-bfd1-c5fa331b1089,Korean
WdH4YJY_Ttm1ZFH4O3A20A,iwoop,384_adgroup@gs,Install,2.5,182.237.204.27,1142ea59-b9f0-4fb5-a3e1-a695413a827b,1559096963,2019-05-29 10:29:23,1559097084,2019-05-29 10:31:24,1559097115,24b09ba5b8d8a353792e846cc8793f0e,http://postback.iwoop.com/?token=9PEPQbLgKYqp8avu3Ve2vcfFz4vvWIKk&transaction_id=24b09ba5b8d8a353792e846cc8793f0e,idfa_1142ea59-b9f0-4fb5-a3e1-a695413a827b,Korean
