cid,partner_id,channel_id,action_id,cpi,ip,idfa,click time,click datetime,install time,install datetime,postback time,click id,postback url,unique user id
VHJH2m2fSteoaj8i0-Xr-w,iwoop,1845_726_fef58d1a0c43,install,2.7,121.117.138.176,31C66781-BFD6-419C-BBE2-16672F4A60C5,1557179363,2019-05-07 05:49:23,1557179578,2019-05-07 05:52:58,1557179782,08664af7961ff934c5e7d06647bc3bab,http://postback.iwoop.com/?token=9PEPQbLgKYqp8avu3Ve2vcfFz4vvWIKk&transaction_id=08664af7961ff934c5e7d06647bc3bab,idfa_31C66781-BFD6-419C-BBE2-16672F4A60C5,ja
VHJH2m2fSteoaj8i0-Xr-w,iwoop,1845_726_fef58d1a0c43,install,2.7,124.246.209.226,323469ED-1843-4A0E-AAD2-F6C351249DBC,1557008936,2019-05-05 06:28:56,1557009154,2019-05-05 06:32:34,1557009206,b035fd85932e58ca1b7e2529480ce421,http://postback.iwoop.com/?token=9PEPQbLgKYqp8avu3Ve2vcfFz4vvWIKk&transaction_id=b035fd85932e58ca1b7e2529480ce421,idfa_323469ED-1843-4A0E-AAD2-F6C351249DBC,ja
VHJH2m2fSteoaj8i0-Xr-w,iwoop,1845_726_fef58d1a0c43,install,2.8,121.83.100.113,A240DAF0-32A5-4232-BF0E-EC77AF30F364,1557445764,2019-05-10 07:49:24,1557445897,2019-05-10 07:51:37,1557445946,66364894efbf69c8e9825665ce8600b5,http://postback.iwoop.com/?token=9PEPQbLgKYqp8avu3Ve2vcfFz4vvWIKk&transaction_id=66364894efbf69c8e9825665ce8600b5,idfa_A240DAF0-32A5-4232-BF0E-EC77AF30F364,ja
VHJH2m2fSteoaj8i0-Xr-w,iwoop,1845_726_fef58d1a0c43,install,2.8,153.130.71.37,D7C3E439-409D-4DB9-86EF-E4E7E5A65EC9,1557446240,2019-05-10 07:57:20,1557446375,2019-05-10 07:59:35,1557446405,380e6ed5518fd90c167a6ccc3199cd26,http://postback.iwoop.com/?token=9PEPQbLgKYqp8avu3Ve2vcfFz4vvWIKk&transaction_id=380e6ed5518fd90c167a6ccc3199cd26,idfa_D7C3E439-409D-4DB9-86EF-E4E7E5A65EC9,ja
VHJH2m2fSteoaj8i0-Xr-w,iwoop,1845_726_fef58d1a0c43,install,2.7,27.136.45.190,C378EF92-679D-4FE3-9AB9-EB41740254A3,1557093935,2019-05-06 06:05:35,1557094115,2019-05-06 06:08:35,1557094179,fbb9a9cf419e6f36e8ee78b5ee7c6c72,http://postback.iwoop.com/?token=9PEPQbLgKYqp8avu3Ve2vcfFz4vvWIKk&transaction_id=fbb9a9cf419e6f36e8ee78b5ee7c6c72,idfa_C378EF92-679D-4FE3-9AB9-EB41740254A3,ja
VHJH2m2fSteoaj8i0-Xr-w,iwoop,1845_726_fef58d1a0c43,install,2.8,121.109.190.32,7CD35E38-A64B-4AB7-AB00-F864FD24E1D5,1557446319,2019-05-10 07:58:39,1557446462,2019-05-10 08:01:02,1557446492,f4c95130b1c83255b42839e5de0dc9fe,http://postback.iwoop.com/?token=9PEPQbLgKYqp8avu3Ve2vcfFz4vvWIKk&transaction_id=f4c95130b1c83255b42839e5de0dc9fe,idfa_7CD35E38-A64B-4AB7-AB00-F864FD24E1D5,ja
VHJH2m2fSteoaj8i0-Xr-w,iwoop,1845_726_fef58d1a0c43,install,2.8,126.243.95.25,4A94682E-3E17-4FC1-89A4-4BC107CA711C,1557445768,2019-05-10 07:49:28,1557445950,2019-05-10 07:52:30,1557445987,259c7bd1b4e3cf7ff05fe0b906a69de5,http://postback.iwoop.com/?token=9PEPQbLgKYqp8avu3Ve2vcfFz4vvWIKk&transaction_id=259c7bd1b4e3cf7ff05fe0b906a69de5,idfa_4A94682E-3E17-4FC1-89A4-4BC107CA711C,ja
VHJH2m2fSteoaj8i0-Xr-w,iwoop,1845_726_fef58d1a0c43,install,2.8,118.108.66.178,985536AB-8907-426C-8C82-CAB34D7A8F63,1557446275,2019-05-10 07:57:55,1557446391,2019-05-10 07:59:51,1557446425,af126ad7d599623d381ace409b283415,http://postback.iwoop.com/?token=9PEPQbLgKYqp8avu3Ve2vcfFz4vvWIKk&transaction_id=af126ad7d599623d381ace409b283415,idfa_985536AB-8907-426C-8C82-CAB34D7A8F63,ja
VHJH2m2fSteoaj8i0-Xr-w,iwoop,1845_726_fef58d1a0c43,install,2.7,126.4.242.24,5584A49E-0CBC-4561-B218-6AD1F106A0D6,1557179945,2019-05-07 05:59:05,1557180059,2019-05-07 06:00:59,1557180115,14acf02ef9c6ce3cfd6217907ce397ab,http://postback.iwoop.com/?token=9PEPQbLgKYqp8avu3Ve2vcfFz4vvWIKk&transaction_id=14acf02ef9c6ce3cfd6217907ce397ab,idfa_5584A49E-0CBC-4561-B218-6AD1F106A0D6,ja
VHJH2m2fSteoaj8i0-Xr-w,iwoop,1845_726_fef58d1a0c43,install,2.7,14.12.81.96,E23EC5A0-A220-4F39-BA7D-4EA404DF5CC1,1557178374,2019-05-07 05:32:54,1557178479,2019-05-07 05:34:39,1557178510,3280d2c55370c41cf3a25fdbb5e4e3b0,http://postback.iwoop.com/?token=9PEPQbLgKYqp8avu3Ve2vcfFz4vvWIKk&transaction_id=3280d2c55370c41cf3a25fdbb5e4e3b0,idfa_E23EC5A0-A220-4F39-BA7D-4EA404DF5CC1,ja
VHJH2m2fSteoaj8i0-Xr-w,iwoop,1845_726_fef58d1a0c43,install,2.8,218.47.130.63,EA739192-5BD5-4EAD-BDD8-DCA1B609D72C,1557445789,2019-05-10 07:49:49,1557445912,2019-05-10 07:51:52,1557445978,cbc602cbc7ea0d217eab22a3318ba899,http://postback.iwoop.com/?token=9PEPQbLgKYqp8avu3Ve2vcfFz4vvWIKk&transaction_id=cbc602cbc7ea0d217eab22a3318ba899,idfa_EA739192-5BD5-4EAD-BDD8-DCA1B609D72C,ja
VHJH2m2fSteoaj8i0-Xr-w,iwoop,1845_726_fef58d1a0c43,install,2.7,157.107.72.215,E5120243-F709-4E7F-A6BD-41C50BD265EF,1557177892,2019-05-07 05:24:52,1557177998,2019-05-07 05:26:38,1557178028,6728d995cc116d421ad1a5f943bea102,http://postback.iwoop.com/?token=9PEPQbLgKYqp8avu3Ve2vcfFz4vvWIKk&transaction_id=6728d995cc116d421ad1a5f943bea102,idfa_E5120243-F709-4E7F-A6BD-41C50BD265EF,ja
VHJH2m2fSteoaj8i0-Xr-w,iwoop,1845_726_fef58d1a0c43,install,2.9,126.163.186.36,A3C76888-1EAC-4723-88B6-C44D151A695F,1558134327,2019-05-18 07:05:27,1558134477,2019-05-18 07:07:57,1558134529,088d3332e186c0d095eae3148ccaae1b,http://postback.iwoop.com/?token=9PEPQbLgKYqp8avu3Ve2vcfFz4vvWIKk&transaction_id=088d3332e186c0d095eae3148ccaae1b,idfa_A3C76888-1EAC-4723-88B6-C44D151A695F,ja
VHJH2m2fSteoaj8i0-Xr-w,iwoop,1845_726_fef58d1a0c43,install,2.7,119.25.157.254,33C3F8AA-9751-4F71-A4FF-38100189B890,1557009748,2019-05-05 06:42:28,1557009962,2019-05-05 06:46:02,1557010008,a5015af8827d5279485b9fec68ce7f81,http://postback.iwoop.com/?token=9PEPQbLgKYqp8avu3Ve2vcfFz4vvWIKk&transaction_id=a5015af8827d5279485b9fec68ce7f81,idfa_33C3F8AA-9751-4F71-A4FF-38100189B890,ja
VHJH2m2fSteoaj8i0-Xr-w,iwoop,1845_726_fef58d1a0c43,install,2.7,106.157.248.86,1B808A12-838B-4E73-ADE1-27FBEAB4AAF2,1557009643,2019-05-05 06:40:43,1557009762,2019-05-05 06:42:42,1557009795,fbfd551270d1e49316d12a850907660a,http://postback.iwoop.com/?token=9PEPQbLgKYqp8avu3Ve2vcfFz4vvWIKk&transaction_id=fbfd551270d1e49316d12a850907660a,idfa_1B808A12-838B-4E73-ADE1-27FBEAB4AAF2,ja
VHJH2m2fSteoaj8i0-Xr-w,iwoop,1845_726_fef58d1a0c43,install,2.7,210.194.49.8,A72D6AFD-E80A-4540-9995-FA721133A29C,1557178365,2019-05-07 05:32:45,1557178482,2019-05-07 05:34:42,1557178704,4dd81da0e2b9145af0e1a50651455cdd,http://postback.iwoop.com/?token=9PEPQbLgKYqp8avu3Ve2vcfFz4vvWIKk&transaction_id=4dd81da0e2b9145af0e1a50651455cdd,idfa_A72D6AFD-E80A-4540-9995-FA721133A29C,ja
VHJH2m2fSteoaj8i0-Xr-w,iwoop,1845_726_fef58d1a0c43,install,2.7,113.150.104.80,F26F0525-A3CE-4789-89C7-BEA95AF79535,1557093925,2019-05-06 06:05:25,1557094275,2019-05-06 06:11:15,1557094307,e18157ef4785ac797bf2d93f5e368840,http://postback.iwoop.com/?token=9PEPQbLgKYqp8avu3Ve2vcfFz4vvWIKk&transaction_id=e18157ef4785ac797bf2d93f5e368840,idfa_F26F0525-A3CE-4789-89C7-BEA95AF79535,ja
VHJH2m2fSteoaj8i0-Xr-w,iwoop,1845_726_fef58d1a0c43,install,2.7,133.175.98.201,A6C737DA-AEBB-4EFF-BA1D-E2D9BC4943B4,1557009135,2019-05-05 06:32:15,1557009451,2019-05-05 06:37:31,1557009481,6cb0e49fc569bafae8b5d5069912c80c,http://postback.iwoop.com/?token=9PEPQbLgKYqp8avu3Ve2vcfFz4vvWIKk&transaction_id=6cb0e49fc569bafae8b5d5069912c80c,idfa_A6C737DA-AEBB-4EFF-BA1D-E2D9BC4943B4,ja
VHJH2m2fSteoaj8i0-Xr-w,iwoop,1845_726_fef58d1a0c43,install,2.7,106.154.99.129,75ACEE3B-F132-4EB4-BA7F-C9B0B51DA231,1557094935,2019-05-06 06:22:15,1557095249,2019-05-06 06:27:29,1557095290,94eb5679cc6564e32a90d57584eea2e3,http://postback.iwoop.com/?token=9PEPQbLgKYqp8avu3Ve2vcfFz4vvWIKk&transaction_id=94eb5679cc6564e32a90d57584eea2e3,idfa_75ACEE3B-F132-4EB4-BA7F-C9B0B51DA231,ja
VHJH2m2fSteoaj8i0-Xr-w,iwoop,1845_726_fef58d1a0c43,install,2.9,180.29.93.249,3A8E47BB-3B15-406B-957D-3EAE502F4089,1558132848,2019-05-18 06:40:48,1558132964,2019-05-18 06:42:44,1558133050,ba3d9904282ce30ffad64f23110edaf7,http://postback.iwoop.com/?token=9PEPQbLgKYqp8avu3Ve2vcfFz4vvWIKk&transaction_id=ba3d9904282ce30ffad64f23110edaf7,idfa_3A8E47BB-3B15-406B-957D-3EAE502F4089,ja
VHJH2m2fSteoaj8i0-Xr-w,iwoop,1845_726_fef58d1a0c43,install,2.7,61.115.113.8,454FF6FA-CF16-4560-A510-3C31AD726953,1557005233,2019-05-05 05:27:13,1557005371,2019-05-05 05:29:31,1557005413,aa690cb973ce8d3d9c20464f086c77f2,http://postback.iwoop.com/?token=9PEPQbLgKYqp8avu3Ve2vcfFz4vvWIKk&transaction_id=aa690cb973ce8d3d9c20464f086c77f2,idfa_454FF6FA-CF16-4560-A510-3C31AD726953,ja
VHJH2m2fSteoaj8i0-Xr-w,iwoop,1845_726_fef58d1a0c43,install,2.9,60.56.216.210,3153825C-E6D8-4C5E-97BC-21DBF243AFAC,1558132373,2019-05-18 06:32:53,1558132485,2019-05-18 06:34:45,1558132519,5699a48fd39615b2f6ae8f3693d98001,http://postback.iwoop.com/?token=9PEPQbLgKYqp8avu3Ve2vcfFz4vvWIKk&transaction_id=5699a48fd39615b2f6ae8f3693d98001,idfa_3153825C-E6D8-4C5E-97BC-21DBF243AFAC,ja
VHJH2m2fSteoaj8i0-Xr-w,iwoop,1845_726_fef58d1a0c43,install,2.7,223.216.78.42,FA856746-C7F2-457D-9AF1-225E9EF80695,1557094133,2019-05-06 06:08:53,1557094320,2019-05-06 06:12:00,1557094354,17ee8f411acaa10b92ebb5d1e0993414,http://postback.iwoop.com/?token=9PEPQbLgKYqp8avu3Ve2vcfFz4vvWIKk&transaction_id=17ee8f411acaa10b92ebb5d1e0993414,idfa_FA856746-C7F2-457D-9AF1-225E9EF80695,ja
VHJH2m2fSteoaj8i0-Xr-w,iwoop,1845_726_fef58d1a0c43,install,2.9,122.223.0.246,53697B9F-50AF-48C0-8D61-764C1008B58A,1558133604,2019-05-18 06:53:24,1558133720,2019-05-18 06:55:20,1558133750,3bc1e23c1b745c70e58f4a4b8b26ddbc,http://postback.iwoop.com/?token=9PEPQbLgKYqp8avu3Ve2vcfFz4vvWIKk&transaction_id=3bc1e23c1b745c70e58f4a4b8b26ddbc,idfa_53697B9F-50AF-48C0-8D61-764C1008B58A,ja
VHJH2m2fSteoaj8i0-Xr-w,iwoop,1845_726_fef58d1a0c43,install,2.8,106.156.208.122,8D1121F9-35DE-46B8-AABA-3CAD7C1BA283,1557445768,2019-05-10 07:49:28,1557445962,2019-05-10 07:52:42,1557446024,ab7864549b92cb980c86af6ee1fb7545,http://postback.iwoop.com/?token=9PEPQbLgKYqp8avu3Ve2vcfFz4vvWIKk&transaction_id=ab7864549b92cb980c86af6ee1fb7545,idfa_8D1121F9-35DE-46B8-AABA-3CAD7C1BA283,ja
VHJH2m2fSteoaj8i0-Xr-w,iwoop,1845_726_fef58d1a0c43,install,2.9,219.172.148.198,4DFB0AC5-3BA1-4DC6-8DA0-E34D353BE8ED,1558132315,2019-05-18 06:31:55,1558132433,2019-05-18 06:33:53,1558132463,dac033317ac18f0a0928e68afb4f04d7,http://postback.iwoop.com/?token=9PEPQbLgKYqp8avu3Ve2vcfFz4vvWIKk&transaction_id=dac033317ac18f0a0928e68afb4f04d7,idfa_4DFB0AC5-3BA1-4DC6-8DA0-E34D353BE8ED,ja
VHJH2m2fSteoaj8i0-Xr-w,iwoop,1845_726_fef58d1a0c43,install,2.8,114.159.201.27,093C6FF5-BD06-4081-B3E7-239EC70B7584,1557445806,2019-05-10 07:50:06,1557445923,2019-05-10 07:52:03,1557445953,2cca3d7dd8180e73f7942ada3d7cd6a0,http://postback.iwoop.com/?token=9PEPQbLgKYqp8avu3Ve2vcfFz4vvWIKk&transaction_id=2cca3d7dd8180e73f7942ada3d7cd6a0,idfa_093C6FF5-BD06-4081-B3E7-239EC70B7584,ja
VHJH2m2fSteoaj8i0-Xr-w,iwoop,1845_726_fef58d1a0c43,install,2.8,106.161.204.96,1739964F-608D-4AD3-9D9A-FE0D1A941F28,1557481795,2019-05-10 17:49:55,1557481971,2019-05-10 17:52:51,1557482023,a7da324be0df0cd5a94cc4bb5255fdde,http://postback.iwoop.com/?token=9PEPQbLgKYqp8avu3Ve2vcfFz4vvWIKk&transaction_id=a7da324be0df0cd5a94cc4bb5255fdde,idfa_1739964F-608D-4AD3-9D9A-FE0D1A941F28,ja
VHJH2m2fSteoaj8i0-Xr-w,iwoop,1845_726_fef58d1a0c43,install,2.7,128.28.146.31,A6999389-6C1D-4B62-8CE0-F74E3D73B03E,1557008803,2019-05-05 06:26:43,1557009071,2019-05-05 06:31:11,1557009101,2cbb6e129225a6fc1224676cf068ba3a,http://postback.iwoop.com/?token=9PEPQbLgKYqp8avu3Ve2vcfFz4vvWIKk&transaction_id=2cbb6e129225a6fc1224676cf068ba3a,idfa_A6999389-6C1D-4B62-8CE0-F74E3D73B03E,ja
VHJH2m2fSteoaj8i0-Xr-w,iwoop,1845_726_fef58d1a0c43,install,2.7,36.3.207.145,246FF9A5-C209-42DA-BCBC-5D1A25F48A40,1557009181,2019-05-05 06:33:01,1557009300,2019-05-05 06:35:00,1557009341,4104f80c4b903dd1350af867362468a7,http://postback.iwoop.com/?token=9PEPQbLgKYqp8avu3Ve2vcfFz4vvWIKk&transaction_id=4104f80c4b903dd1350af867362468a7,idfa_246FF9A5-C209-42DA-BCBC-5D1A25F48A40,ja
VHJH2m2fSteoaj8i0-Xr-w,iwoop,1845_726_fef58d1a0c43,install,2.7,219.204.102.82,55A22791-F4D5-49C6-BC3D-931F871DCDBA,1557179445,2019-05-07 05:50:45,1557179553,2019-05-07 05:52:33,1557179758,2923b07d8d08b799b09cb58ee3245c2b,http://postback.iwoop.com/?token=9PEPQbLgKYqp8avu3Ve2vcfFz4vvWIKk&transaction_id=2923b07d8d08b799b09cb58ee3245c2b,idfa_55A22791-F4D5-49C6-BC3D-931F871DCDBA,ja
