cid,partner_id,channel_id,action_id,cpi,ip,idfa,click time,click datetime,install time,install datetime,postback time,click id,postback url,unique user id
VHJH2m2fSteoaj8i0-Xr-w,iwoop,1845_726_d92aabe75092,install,2.7,219.126.113.40,83EAE912-F6D3-488A-A5AC-3F10CBFF0411,1557009629,2019-05-05 06:40:29,1557009888,2019-05-05 06:44:48,1557009922,25f4fa71dd36906db3ee70f50d5ae17b,http://postback.iwoop.com/?token=9PEPQbLgKYqp8avu3Ve2vcfFz4vvWIKk&transaction_id=25f4fa71dd36906db3ee70f50d5ae17b,idfa_83EAE912-F6D3-488A-A5AC-3F10CBFF0411,ja
VHJH2m2fSteoaj8i0-Xr-w,iwoop,1845_726_d92aabe75092,install,2.8,153.232.229.183,84B8224E-B991-4EF2-85A5-42517F9E7B38,1557446246,2019-05-10 07:57:26,1557446361,2019-05-10 07:59:21,1557446429,a7d6a6d067472d5ab310bf3f5f14e3ff,http://postback.iwoop.com/?token=9PEPQbLgKYqp8avu3Ve2vcfFz4vvWIKk&transaction_id=a7d6a6d067472d5ab310bf3f5f14e3ff,idfa_84B8224E-B991-4EF2-85A5-42517F9E7B38,ja
VHJH2m2fSteoaj8i0-Xr-w,iwoop,1845_726_d92aabe75092,install,2.7,153.142.230.140,A36652C1-9B42-4CED-8979-6752146303D9,1557094957,2019-05-06 06:22:37,1557095154,2019-05-06 06:25:54,1557095200,38d432f3b7d270d51f6344b3e5038c50,http://postback.iwoop.com/?token=9PEPQbLgKYqp8avu3Ve2vcfFz4vvWIKk&transaction_id=38d432f3b7d270d51f6344b3e5038c50,idfa_A36652C1-9B42-4CED-8979-6752146303D9,ja
VHJH2m2fSteoaj8i0-Xr-w,iwoop,1845_726_d92aabe75092,install,2.7,126.224.110.156,5F9F9F9C-88E8-4DE4-9DC2-738831D1996B,1557178437,2019-05-07 05:33:57,1557178591,2019-05-07 05:36:31,1557178642,39e31fb59f15af5bd4e676ea8341603f,http://postback.iwoop.com/?token=9PEPQbLgKYqp8avu3Ve2vcfFz4vvWIKk&transaction_id=39e31fb59f15af5bd4e676ea8341603f,idfa_5F9F9F9C-88E8-4DE4-9DC2-738831D1996B,ja
VHJH2m2fSteoaj8i0-Xr-w,iwoop,1845_726_d92aabe75092,install,2.8,122.103.233.246,1FC007ED-ED80-4749-8492-EB14A2185771,1557446209,2019-05-10 07:56:49,1557446320,2019-05-10 07:58:40,1557446350,1133b3b645e09c22de26bd5523a1d8fd,http://postback.iwoop.com/?token=9PEPQbLgKYqp8avu3Ve2vcfFz4vvWIKk&transaction_id=1133b3b645e09c22de26bd5523a1d8fd,idfa_1FC007ED-ED80-4749-8492-EB14A2185771,ja
VHJH2m2fSteoaj8i0-Xr-w,iwoop,1845_726_d92aabe75092,install,2.7,219.121.138.117,DF8E7FCA-EE0B-46D3-B9C8-41DD9940B33A,1557008766,2019-05-05 06:26:06,1557008866,2019-05-05 06:27:46,1557008940,89217cb0f4a3c07b0611a19e27e6ecb8,http://postback.iwoop.com/?token=9PEPQbLgKYqp8avu3Ve2vcfFz4vvWIKk&transaction_id=89217cb0f4a3c07b0611a19e27e6ecb8,idfa_DF8E7FCA-EE0B-46D3-B9C8-41DD9940B33A,ja
VHJH2m2fSteoaj8i0-Xr-w,iwoop,1845_726_d92aabe75092,install,2.7,60.93.6.71,9CE9522D-F123-4C40-8159-BDF05AAC0348,1557178684,2019-05-07 05:38:04,1557178808,2019-05-07 05:40:08,1557178874,d462fcf292845b3c5975580bc8860ae6,http://postback.iwoop.com/?token=9PEPQbLgKYqp8avu3Ve2vcfFz4vvWIKk&transaction_id=d462fcf292845b3c5975580bc8860ae6,idfa_9CE9522D-F123-4C40-8159-BDF05AAC0348,ja
VHJH2m2fSteoaj8i0-Xr-w,iwoop,1845_726_d92aabe75092,install,2.8,180.199.210.70,AF3C49AE-C6CF-423F-8312-45BBB592A0E6,1557446350,2019-05-10 07:59:10,1557446514,2019-05-10 08:01:54,1557446556,1d4fdb459730e63c63b9a533d9b34ebe,http://postback.iwoop.com/?token=9PEPQbLgKYqp8avu3Ve2vcfFz4vvWIKk&transaction_id=1d4fdb459730e63c63b9a533d9b34ebe,idfa_AF3C49AE-C6CF-423F-8312-45BBB592A0E6,ja
VHJH2m2fSteoaj8i0-Xr-w,iwoop,1845_726_d92aabe75092,install,2.7,111.239.163.175,9AF4C6CD-B3D6-4264-B88A-4894DAD3D57D,1557177688,2019-05-07 05:21:28,1557177873,2019-05-07 05:24:33,1557177929,8e17675d1c4eab4e185eb2f4ae593e07,http://postback.iwoop.com/?token=9PEPQbLgKYqp8avu3Ve2vcfFz4vvWIKk&transaction_id=8e17675d1c4eab4e185eb2f4ae593e07,idfa_9AF4C6CD-B3D6-4264-B88A-4894DAD3D57D,ja
VHJH2m2fSteoaj8i0-Xr-w,iwoop,1845_726_d92aabe75092,install,2.8,125.202.70.54,120CAD35-BB31-482C-B098-85B76D88392F,1557360309,2019-05-09 08:05:09,1557360431,2019-05-09 08:07:11,1557360522,7c908c22c5456b1a7cc9b8ae19e1e430,http://postback.iwoop.com/?token=9PEPQbLgKYqp8avu3Ve2vcfFz4vvWIKk&transaction_id=7c908c22c5456b1a7cc9b8ae19e1e430,idfa_120CAD35-BB31-482C-B098-85B76D88392F,ja
VHJH2m2fSteoaj8i0-Xr-w,iwoop,1845_726_d92aabe75092,install,2.7,118.154.52.193,D2279543-C9AB-4A66-85D1-FD42F7DF22BC,1557177644,2019-05-07 05:20:44,1557177746,2019-05-07 05:22:26,1557177798,aaa1e03a4e9a20c91e11283a59ba117d,http://postback.iwoop.com/?token=9PEPQbLgKYqp8avu3Ve2vcfFz4vvWIKk&transaction_id=aaa1e03a4e9a20c91e11283a59ba117d,idfa_D2279543-C9AB-4A66-85D1-FD42F7DF22BC,ja
VHJH2m2fSteoaj8i0-Xr-w,iwoop,1845_726_d92aabe75092,install,2.8,180.39.12.34,19626667-5021-45DF-81D8-08AD303ED6B8,1557360816,2019-05-09 08:13:36,1557360927,2019-05-09 08:15:27,1557360968,c34374232440f6843d6eaf57fcc0ef79,http://postback.iwoop.com/?token=9PEPQbLgKYqp8avu3Ve2vcfFz4vvWIKk&transaction_id=c34374232440f6843d6eaf57fcc0ef79,idfa_19626667-5021-45DF-81D8-08AD303ED6B8,ja
VHJH2m2fSteoaj8i0-Xr-w,iwoop,1845_726_d92aabe75092,install,2.7,106.180.10.179,CB20C3B9-11FC-476D-A663-EF13476B571F,1557009636,2019-05-05 06:40:36,1557009969,2019-05-05 06:46:09,1557010015,8187c6a7ff0d1a5e5733605c7cc96505,http://postback.iwoop.com/?token=9PEPQbLgKYqp8avu3Ve2vcfFz4vvWIKk&transaction_id=8187c6a7ff0d1a5e5733605c7cc96505,idfa_CB20C3B9-11FC-476D-A663-EF13476B571F,ja
VHJH2m2fSteoaj8i0-Xr-w,iwoop,1845_726_d92aabe75092,install,2.8,202.86.127.114,D246BD9C-227C-4878-A2C2-98DAE7E1EA70,1557470951,2019-05-10 14:49:11,1557471083,2019-05-10 14:51:23,1557471113,fc0b5a4a4e81a98c8289fdd11862d6e7,http://postback.iwoop.com/?token=9PEPQbLgKYqp8avu3Ve2vcfFz4vvWIKk&transaction_id=fc0b5a4a4e81a98c8289fdd11862d6e7,idfa_D246BD9C-227C-4878-A2C2-98DAE7E1EA70,ja
VHJH2m2fSteoaj8i0-Xr-w,iwoop,1845_726_d92aabe75092,install,2.7,114.183.98.215,BE010453-8B3E-443E-A477-33734D2DF573,1557094421,2019-05-06 06:13:41,1557094523,2019-05-06 06:15:23,1557094571,71b6095205050de43e91528f09b8bbaa,http://postback.iwoop.com/?token=9PEPQbLgKYqp8avu3Ve2vcfFz4vvWIKk&transaction_id=71b6095205050de43e91528f09b8bbaa,idfa_BE010453-8B3E-443E-A477-33734D2DF573,ja
VHJH2m2fSteoaj8i0-Xr-w,iwoop,1845_726_d92aabe75092,install,2.7,60.90.23.79,E52406F8-7078-4E31-8ADD-2B133C91F1E6,1557299999,2019-05-08 15:19:59,1557300117,2019-05-08 15:21:57,1557300177,f2bc11d0bee07585a54b7b95a7751e85,http://postback.iwoop.com/?token=9PEPQbLgKYqp8avu3Ve2vcfFz4vvWIKk&transaction_id=f2bc11d0bee07585a54b7b95a7751e85,idfa_E52406F8-7078-4E31-8ADD-2B133C91F1E6,ja
VHJH2m2fSteoaj8i0-Xr-w,iwoop,1845_726_d92aabe75092,install,2.9,110.3.230.179,2D562E00-5910-4392-92BB-859606A09A3A,1558132338,2019-05-18 06:32:18,1558132561,2019-05-18 06:36:01,1558132610,38a7aefde33e11f213cfaab14495617b,http://postback.iwoop.com/?token=9PEPQbLgKYqp8avu3Ve2vcfFz4vvWIKk&transaction_id=38a7aefde33e11f213cfaab14495617b,idfa_2D562E00-5910-4392-92BB-859606A09A3A,ja
VHJH2m2fSteoaj8i0-Xr-w,iwoop,1845_726_d92aabe75092,install,2.8,42.125.162.225,0982CFFE-5985-43C0-BBC0-4E21B1AA9C10,1557445766,2019-05-10 07:49:26,1557445893,2019-05-10 07:51:33,1557445934,fd285a361eb8d90e6b0371fc9763ddb0,http://postback.iwoop.com/?token=9PEPQbLgKYqp8avu3Ve2vcfFz4vvWIKk&transaction_id=fd285a361eb8d90e6b0371fc9763ddb0,idfa_0982CFFE-5985-43C0-BBC0-4E21B1AA9C10,ja
VHJH2m2fSteoaj8i0-Xr-w,iwoop,1845_726_d92aabe75092,install,2.8,101.111.32.104,A2181AB8-133C-4BFD-9392-77580CB56A60,1557446302,2019-05-10 07:58:22,1557446425,2019-05-10 08:00:25,1557446465,6389707c1807110a45055966f9a49cf9,http://postback.iwoop.com/?token=9PEPQbLgKYqp8avu3Ve2vcfFz4vvWIKk&transaction_id=6389707c1807110a45055966f9a49cf9,idfa_A2181AB8-133C-4BFD-9392-77580CB56A60,ja
VHJH2m2fSteoaj8i0-Xr-w,iwoop,1845_726_d92aabe75092,install,2.7,60.132.116.137,FE9E32B2-ADC3-4A43-973E-C66F56D5978C,1557009225,2019-05-05 06:33:45,1557009333,2019-05-05 06:35:33,1557009364,05e7de509f12e2ba7243e3f3191cc76e,http://postback.iwoop.com/?token=9PEPQbLgKYqp8avu3Ve2vcfFz4vvWIKk&transaction_id=05e7de509f12e2ba7243e3f3191cc76e,idfa_FE9E32B2-ADC3-4A43-973E-C66F56D5978C,ja
VHJH2m2fSteoaj8i0-Xr-w,iwoop,1845_726_d92aabe75092,install,2.7,180.63.110.228,F077A850-DA4D-4904-84CD-5CAFCAAC31A1,1557094169,2019-05-06 06:09:29,1557094352,2019-05-06 06:12:32,1557094402,1d55263f4de641d06fe37a8338928c36,http://postback.iwoop.com/?token=9PEPQbLgKYqp8avu3Ve2vcfFz4vvWIKk&transaction_id=1d55263f4de641d06fe37a8338928c36,idfa_F077A850-DA4D-4904-84CD-5CAFCAAC31A1,ja
VHJH2m2fSteoaj8i0-Xr-w,iwoop,1845_726_d92aabe75092,install,2.8,180.49.194.236,6116F782-ED66-483B-85AE-B60605578BBB,1557445757,2019-05-10 07:49:17,1557445885,2019-05-10 07:51:25,1557445933,e42f7009ab1c405011de4a790af697c9,http://postback.iwoop.com/?token=9PEPQbLgKYqp8avu3Ve2vcfFz4vvWIKk&transaction_id=e42f7009ab1c405011de4a790af697c9,idfa_6116F782-ED66-483B-85AE-B60605578BBB,ja
VHJH2m2fSteoaj8i0-Xr-w,iwoop,1845_726_d92aabe75092,install,2.7,153.167.248.151,B4C3EF4B-2A34-48CD-AB0D-0270EEC2FAD0,1557177633,2019-05-07 05:20:33,1557177746,2019-05-07 05:22:26,1557177801,68a5b34a14367b6d9770bb9b99050ad3,http://postback.iwoop.com/?token=9PEPQbLgKYqp8avu3Ve2vcfFz4vvWIKk&transaction_id=68a5b34a14367b6d9770bb9b99050ad3,idfa_B4C3EF4B-2A34-48CD-AB0D-0270EEC2FAD0,ja
VHJH2m2fSteoaj8i0-Xr-w,iwoop,1845_726_d92aabe75092,install,2.7,126.5.123.75,366BA414-C5B0-474F-AE89-E6D4C8236EA0,1557301338,2019-05-08 15:42:18,1557301450,2019-05-08 15:44:10,1557301482,a5dda6a24489314f0693441cfb1042b9,http://postback.iwoop.com/?token=9PEPQbLgKYqp8avu3Ve2vcfFz4vvWIKk&transaction_id=a5dda6a24489314f0693441cfb1042b9,idfa_366BA414-C5B0-474F-AE89-E6D4C8236EA0,ja
VHJH2m2fSteoaj8i0-Xr-w,iwoop,1845_726_d92aabe75092,install,2.7,119.63.155.63,4B12FCA1-D1C3-4FCC-86C8-0B8B18EFA2A3,1557008741,2019-05-05 06:25:41,1557008855,2019-05-05 06:27:35,1557008895,f7d9744af8ae5fdddf74f1bd59a4cfaa,http://postback.iwoop.com/?token=9PEPQbLgKYqp8avu3Ve2vcfFz4vvWIKk&transaction_id=f7d9744af8ae5fdddf74f1bd59a4cfaa,idfa_4B12FCA1-D1C3-4FCC-86C8-0B8B18EFA2A3,ja
VHJH2m2fSteoaj8i0-Xr-w,iwoop,1845_726_d92aabe75092,install,2.7,220.102.235.208,E78551B6-CA2C-44D0-BF77-F510B3230F92,1557008714,2019-05-05 06:25:14,1557008938,2019-05-05 06:28:58,1557008968,9325c2cf200fb0b56f19bf471727d1c5,http://postback.iwoop.com/?token=9PEPQbLgKYqp8avu3Ve2vcfFz4vvWIKk&transaction_id=9325c2cf200fb0b56f19bf471727d1c5,idfa_E78551B6-CA2C-44D0-BF77-F510B3230F92,ja
VHJH2m2fSteoaj8i0-Xr-w,iwoop,1845_726_d92aabe75092,install,2.8,106.73.128.224,410E9CD2-75DA-4D9B-B420-B74D56962EC4,1557360848,2019-05-09 08:14:08,1557360957,2019-05-09 08:15:57,1557360987,2e71b58aea328c67ae740eea70c3ac06,http://postback.iwoop.com/?token=9PEPQbLgKYqp8avu3Ve2vcfFz4vvWIKk&transaction_id=2e71b58aea328c67ae740eea70c3ac06,idfa_410E9CD2-75DA-4D9B-B420-B74D56962EC4,ja
VHJH2m2fSteoaj8i0-Xr-w,iwoop,1845_726_d92aabe75092,install,2.8,101.1.113.136,81DBD3A6-C753-45AC-A16B-00D24ADB3C69,1557360818,2019-05-09 08:13:38,1557360922,2019-05-09 08:15:22,1557360969,2e0acad98739912bf27ba613e7d35596,http://postback.iwoop.com/?token=9PEPQbLgKYqp8avu3Ve2vcfFz4vvWIKk&transaction_id=2e0acad98739912bf27ba613e7d35596,idfa_81DBD3A6-C753-45AC-A16B-00D24ADB3C69,ja
VHJH2m2fSteoaj8i0-Xr-w,iwoop,1845_726_d92aabe75092,install,2.9,220.100.33.108,63DAFD05-0A89-433B-868C-0CE06EE4F114,1558131908,2019-05-18 06:25:08,1558132048,2019-05-18 06:27:28,1558132113,573b36fcb87aba994d7f21d8514893b3,http://postback.iwoop.com/?token=9PEPQbLgKYqp8avu3Ve2vcfFz4vvWIKk&transaction_id=573b36fcb87aba994d7f21d8514893b3,idfa_63DAFD05-0A89-433B-868C-0CE06EE4F114,ja
VHJH2m2fSteoaj8i0-Xr-w,iwoop,1845_726_d92aabe75092,install,2.9,118.105.30.225,AD48C9F1-5990-4E68-B86E-C929BA4E9512,1558133836,2019-05-18 06:57:16,1558133949,2019-05-18 06:59:09,1558133979,616d006a971693c74a01e0cda82894a8,http://postback.iwoop.com/?token=9PEPQbLgKYqp8avu3Ve2vcfFz4vvWIKk&transaction_id=616d006a971693c74a01e0cda82894a8,idfa_AD48C9F1-5990-4E68-B86E-C929BA4E9512,ja
VHJH2m2fSteoaj8i0-Xr-w,iwoop,1845_726_d92aabe75092,install,2.7,14.13.145.32,35D79165-50F3-4BE5-AEE8-619BBAC6BFF2,1557179859,2019-05-07 05:57:39,1557179957,2019-05-07 05:59:17,1557180024,90c8ca6847e394975ad139bfbd18ee7f,http://postback.iwoop.com/?token=9PEPQbLgKYqp8avu3Ve2vcfFz4vvWIKk&transaction_id=90c8ca6847e394975ad139bfbd18ee7f,idfa_35D79165-50F3-4BE5-AEE8-619BBAC6BFF2,ja
VHJH2m2fSteoaj8i0-Xr-w,iwoop,1845_726_d92aabe75092,install,2.7,221.79.36.207,E31AB199-B1AB-477B-9F53-7B388DDADD75,1557094959,2019-05-06 06:22:39,1557095175,2019-05-06 06:26:15,1557095288,05956ab2ceba0886a39f522f7d46a00c,http://postback.iwoop.com/?token=9PEPQbLgKYqp8avu3Ve2vcfFz4vvWIKk&transaction_id=05956ab2ceba0886a39f522f7d46a00c,idfa_E31AB199-B1AB-477B-9F53-7B388DDADD75,ja
VHJH2m2fSteoaj8i0-Xr-w,iwoop,1845_726_d92aabe75092,install,2.7,153.142.31.159,D92D0E80-A020-4A58-A3BD-8059728DF5DA,1557178678,2019-05-07 05:37:58,1557178876,2019-05-07 05:41:16,1557178908,c2e12763d1071db589884eb5df9af34a,http://postback.iwoop.com/?token=9PEPQbLgKYqp8avu3Ve2vcfFz4vvWIKk&transaction_id=c2e12763d1071db589884eb5df9af34a,idfa_D92D0E80-A020-4A58-A3BD-8059728DF5DA,ja
VHJH2m2fSteoaj8i0-Xr-w,iwoop,1845_726_d92aabe75092,install,2.8,59.156.75.126,6CA4DD1F-6033-422A-BE93-E74B827B61B4,1557360303,2019-05-09 08:05:03,1557360424,2019-05-09 08:07:04,1557360481,9124f0a98d289275fdc7c5742e0011f8,http://postback.iwoop.com/?token=9PEPQbLgKYqp8avu3Ve2vcfFz4vvWIKk&transaction_id=9124f0a98d289275fdc7c5742e0011f8,idfa_6CA4DD1F-6033-422A-BE93-E74B827B61B4,ja
VHJH2m2fSteoaj8i0-Xr-w,iwoop,1845_726_d92aabe75092,install,2.8,116.58.161.42,4819E732-6BB5-42A3-8E04-4096E21D1413,1557446231,2019-05-10 07:57:11,1557446342,2019-05-10 07:59:02,1557446373,f48fe5481eee29621986635a9258de56,http://postback.iwoop.com/?token=9PEPQbLgKYqp8avu3Ve2vcfFz4vvWIKk&transaction_id=f48fe5481eee29621986635a9258de56,idfa_4819E732-6BB5-42A3-8E04-4096E21D1413,ja
VHJH2m2fSteoaj8i0-Xr-w,iwoop,1845_726_d92aabe75092,install,2.7,59.157.98.133,D74DC5CD-6C2A-4B16-A882-C673E4822456,1557093929,2019-05-06 06:05:29,1557094101,2019-05-06 06:08:21,1557094134,9d089a105917a1d0129762a64c5f8e03,http://postback.iwoop.com/?token=9PEPQbLgKYqp8avu3Ve2vcfFz4vvWIKk&transaction_id=9d089a105917a1d0129762a64c5f8e03,idfa_D74DC5CD-6C2A-4B16-A882-C673E4822456,ja
VHJH2m2fSteoaj8i0-Xr-w,iwoop,1845_726_d92aabe75092,install,2.8,61.211.13.204,5DCC63E2-A42F-46FA-B16D-4B0B4275FE40,1557481702,2019-05-10 17:48:22,1557481814,2019-05-10 17:50:14,1557481846,ee4a89dfc7e673790490b80cc56a681f,http://postback.iwoop.com/?token=9PEPQbLgKYqp8avu3Ve2vcfFz4vvWIKk&transaction_id=ee4a89dfc7e673790490b80cc56a681f,idfa_5DCC63E2-A42F-46FA-B16D-4B0B4275FE40,ja
VHJH2m2fSteoaj8i0-Xr-w,iwoop,1845_726_d92aabe75092,install,2.8,222.8.170.98,0322314C-0C97-4218-9B93-4A79C196F540,1557470949,2019-05-10 14:49:09,1557471060,2019-05-10 14:51:00,1557471090,60f720dda8741f1c9186e5c905340e6a,http://postback.iwoop.com/?token=9PEPQbLgKYqp8avu3Ve2vcfFz4vvWIKk&transaction_id=60f720dda8741f1c9186e5c905340e6a,idfa_0322314C-0C97-4218-9B93-4A79C196F540,ja
VHJH2m2fSteoaj8i0-Xr-w,iwoop,1845_726_d92aabe75092,install,2.8,114.176.233.21,2E840E3E-4E5A-4FD8-A358-BFD44A651F7D,1557470934,2019-05-10 14:48:54,1557471056,2019-05-10 14:50:56,1557471089,a8d1b80981f02872f796b0e26cf317ab,http://postback.iwoop.com/?token=9PEPQbLgKYqp8avu3Ve2vcfFz4vvWIKk&transaction_id=a8d1b80981f02872f796b0e26cf317ab,idfa_2E840E3E-4E5A-4FD8-A358-BFD44A651F7D,ja
VHJH2m2fSteoaj8i0-Xr-w,iwoop,1845_726_d92aabe75092,install,2.7,61.24.126.151,ABBA614D-8662-48AE-BCE1-3A495DF6C5A1,1557009607,2019-05-05 06:40:07,1557009715,2019-05-05 06:41:55,1557009747,68cf69e1eaa27430a76a7e67f949a28f,http://postback.iwoop.com/?token=9PEPQbLgKYqp8avu3Ve2vcfFz4vvWIKk&transaction_id=68cf69e1eaa27430a76a7e67f949a28f,idfa_ABBA614D-8662-48AE-BCE1-3A495DF6C5A1,ja
VHJH2m2fSteoaj8i0-Xr-w,iwoop,1845_726_d92aabe75092,install,2.7,110.93.106.102,89027815-9D0E-4C5C-851A-EBB2D493B55A,1557177689,2019-05-07 05:21:29,1557177972,2019-05-07 05:26:12,1557178019,15bbaa3a756911f2cc411619080b3024,http://postback.iwoop.com/?token=9PEPQbLgKYqp8avu3Ve2vcfFz4vvWIKk&transaction_id=15bbaa3a756911f2cc411619080b3024,idfa_89027815-9D0E-4C5C-851A-EBB2D493B55A,ja
VHJH2m2fSteoaj8i0-Xr-w,iwoop,1845_726_d92aabe75092,install,2.8,119.242.11.187,057D9AEA-5B06-4227-9F36-4C4D3CA239CC,1557445302,2019-05-10 07:41:42,1557445414,2019-05-10 07:43:34,1557445444,0326b0c5c7e53f7237a666d0482931de,http://postback.iwoop.com/?token=9PEPQbLgKYqp8avu3Ve2vcfFz4vvWIKk&transaction_id=0326b0c5c7e53f7237a666d0482931de,idfa_057D9AEA-5B06-4227-9F36-4C4D3CA239CC,ja
VHJH2m2fSteoaj8i0-Xr-w,iwoop,1845_726_d92aabe75092,install,2.9,180.60.168.128,34B4AACD-B177-424D-B9F6-C3AC930D9E55,1558134382,2019-05-18 07:06:22,1558134531,2019-05-18 07:08:51,1558134565,2ea5c10180a3d953a8cf6fe5641055df,http://postback.iwoop.com/?token=9PEPQbLgKYqp8avu3Ve2vcfFz4vvWIKk&transaction_id=2ea5c10180a3d953a8cf6fe5641055df,idfa_34B4AACD-B177-424D-B9F6-C3AC930D9E55,ja
VHJH2m2fSteoaj8i0-Xr-w,iwoop,1845_726_d92aabe75092,install,2.9,60.56.175.221,190FF067-D980-419A-99D9-0231BF673B29,1558134297,2019-05-18 07:04:57,1558134419,2019-05-18 07:06:59,1558134481,c847f5ce5bebcf09095aa4a7f9c3a4d7,http://postback.iwoop.com/?token=9PEPQbLgKYqp8avu3Ve2vcfFz4vvWIKk&transaction_id=c847f5ce5bebcf09095aa4a7f9c3a4d7,idfa_190FF067-D980-419A-99D9-0231BF673B29,ja
VHJH2m2fSteoaj8i0-Xr-w,iwoop,1845_726_d92aabe75092,install,2.7,111.239.164.233,3CF2E550-85F4-42DF-9C37-02ED777B8009,1557178780,2019-05-07 05:39:40,1557179054,2019-05-07 05:44:14,1557179085,fa299a1a9476980a62fea81df2368830,http://postback.iwoop.com/?token=9PEPQbLgKYqp8avu3Ve2vcfFz4vvWIKk&transaction_id=fa299a1a9476980a62fea81df2368830,idfa_3CF2E550-85F4-42DF-9C37-02ED777B8009,ja
VHJH2m2fSteoaj8i0-Xr-w,iwoop,1845_726_d92aabe75092,install,2.8,210.149.159.174,DAC0D0A5-5CE3-445D-AFD1-100F99B55E14,1557445763,2019-05-10 07:49:23,1557445959,2019-05-10 07:52:39,1557446024,f6f53be703f34cb4cff79ce76465a98e,http://postback.iwoop.com/?token=9PEPQbLgKYqp8avu3Ve2vcfFz4vvWIKk&transaction_id=f6f53be703f34cb4cff79ce76465a98e,idfa_DAC0D0A5-5CE3-445D-AFD1-100F99B55E14,ja
VHJH2m2fSteoaj8i0-Xr-w,iwoop,1845_726_d92aabe75092,install,2.9,153.183.23.83,0707BC69-DBE0-4B41-8C7E-5654AEE7AE26,1558132355,2019-05-18 06:32:35,1558132472,2019-05-18 06:34:32,1558132504,e9090c1bda49c77074e5a0d3395dafba,http://postback.iwoop.com/?token=9PEPQbLgKYqp8avu3Ve2vcfFz4vvWIKk&transaction_id=e9090c1bda49c77074e5a0d3395dafba,idfa_0707BC69-DBE0-4B41-8C7E-5654AEE7AE26,ja
