cid,partner_id,channel_id,action_id,cpi,ip,idfa,click time,click datetime,install time,install datetime,postback time,click id,postback url,unique user id
EFNo3SM4QKei4No604le_Q,iwoop,2710_ca7db7ccb8d141daa735f0a8,INSTALL,0.4,49.230.9.12,95563751-9E5D-480A-BD45-D461413C42DA,1557408471,2019-05-09 21:27:51,1557412685,2019-05-09 22:38:05,1557412711,a148bd555871f4168bee7b4321a27709,http://postback.iwoop.com/?token=9PEPQbLgKYqp8avu3Ve2vcfFz4vvWIKk&transaction_id=a148bd555871f4168bee7b4321a27709,gidfa_95563751-9E5D-480A-BD45-D461413C42DA,TH
EFNo3SM4QKei4No604le_Q,iwoop,2710_52dd0e6064894326a6138e71,INSTALL,0.4,1.47.64.31,AC82045A-468E-46B0-9D19-78709594E336,1557279700,2019-05-08 09:41:40,1557280107,2019-05-08 09:48:27,1557280112,166446f80a9e4ffaef4fd2334a335439,http://postback.iwoop.com/?token=9PEPQbLgKYqp8avu3Ve2vcfFz4vvWIKk&transaction_id=166446f80a9e4ffaef4fd2334a335439,gidfa_AC82045A-468E-46B0-9D19-78709594E336,TH
EFNo3SM4QKei4No604le_Q,iwoop,2710_52dd0e6064894326a6138e71,INSTALL,0.4,223.24.163.92,FFE41838-7F4A-4673-B8E0-6D659B09FB81,1557394837,2019-05-09 17:40:37,1557401571,2019-05-09 19:32:51,1557401592,d3995e7e3ad8c13143d6bb6a49a28a15,http://postback.iwoop.com/?token=9PEPQbLgKYqp8avu3Ve2vcfFz4vvWIKk&transaction_id=d3995e7e3ad8c13143d6bb6a49a28a15,gidfa_FFE41838-7F4A-4673-B8E0-6D659B09FB81,TH
EFNo3SM4QKei4No604le_Q,iwoop,2710_8887bf832ec34593bf9a13a3,INSTALL,0.4,223.24.162.121,0B9CB02F-2CAA-442E-B2E7-866F6D09B0E9,1557414423,2019-05-09 23:07:03,1557418905,2019-05-10 00:21:45,1557419112,ec2e26c5e05961a0759e28d25d85c622,http://postback.iwoop.com/?token=9PEPQbLgKYqp8avu3Ve2vcfFz4vvWIKk&transaction_id=ec2e26c5e05961a0759e28d25d85c622,gidfa_0B9CB02F-2CAA-442E-B2E7-866F6D09B0E9,TH
EFNo3SM4QKei4No604le_Q,iwoop,2710_52dd0e6064894326a6138e71,INSTALL,0.4,223.24.188.182,,1557229583,2019-05-07 19:46:23,1557234987,2019-05-07 21:16:27,1557235034,93d4d356446ad902f46fbde7dc02dab0,http://postback.iwoop.com/?token=9PEPQbLgKYqp8avu3Ve2vcfFz4vvWIKk&transaction_id=93d4d356446ad902f46fbde7dc02dab0,ip_223.24.188.182,TH
EFNo3SM4QKei4No604le_Q,iwoop,2710_52dd0e6064894326a6138e71,INSTALL,0.4,223.24.62.126,46E60221-917B-4F05-95F2-6DFBB606672C,1556714747,2019-05-01 20:45:47,1556716256,2019-05-01 21:10:56,1556716464,815f20793db4c34ff716ddc2e021054b,http://postback.iwoop.com/?token=9PEPQbLgKYqp8avu3Ve2vcfFz4vvWIKk&transaction_id=815f20793db4c34ff716ddc2e021054b,gidfa_46E60221-917B-4F05-95F2-6DFBB606672C,TH
EFNo3SM4QKei4No604le_Q,iwoop,2710_a663ac7ad2024fb08f20b2ac,INSTALL,0.4,223.24.94.97,729B0173-A1C0-4CD1-80A8-B3744733B35B,1557231241,2019-05-07 20:14:01,1557231269,2019-05-07 20:14:29,1557231328,56e4d36c65013e2c31028e65c49094be,http://postback.iwoop.com/?token=9PEPQbLgKYqp8avu3Ve2vcfFz4vvWIKk&transaction_id=56e4d36c65013e2c31028e65c49094be,gidfa_729B0173-A1C0-4CD1-80A8-B3744733B35B,TH
EFNo3SM4QKei4No604le_Q,iwoop,2710_ca7db7ccb8d141daa735f0a8,INSTALL,0.4,223.24.153.27,270799DB-9BE6-43CB-A832-9F35DA8A8A54,1557464705,2019-05-10 13:05:05,1557468298,2019-05-10 14:04:58,1557468340,1ac8bf63d549b455ca5b7495f55922cc,http://postback.iwoop.com/?token=9PEPQbLgKYqp8avu3Ve2vcfFz4vvWIKk&transaction_id=1ac8bf63d549b455ca5b7495f55922cc,gidfa_270799DB-9BE6-43CB-A832-9F35DA8A8A54,TH
EFNo3SM4QKei4No604le_Q,iwoop,2710_8887bf832ec34593bf9a13a3,INSTALL,0.4,223.24.168.107,D2C2F91F-B945-4F76-AB61-69E817A36959,1557109705,2019-05-06 10:28:25,1557114311,2019-05-06 11:45:11,1557114536,9fbea4e70a65d8d5885cdf056141e0ac,http://postback.iwoop.com/?token=9PEPQbLgKYqp8avu3Ve2vcfFz4vvWIKk&transaction_id=9fbea4e70a65d8d5885cdf056141e0ac,gidfa_D2C2F91F-B945-4F76-AB61-69E817A36959,TH
EFNo3SM4QKei4No604le_Q,iwoop,2710_52dd0e6064894326a6138e71,INSTALL,0.4,182.232.173.208,,1557233236,2019-05-07 20:47:16,1557234657,2019-05-07 21:10:57,1557234699,9f48fa96b3fbe891e202be0cc175f556,http://postback.iwoop.com/?token=9PEPQbLgKYqp8avu3Ve2vcfFz4vvWIKk&transaction_id=9f48fa96b3fbe891e202be0cc175f556,ip_182.232.173.208,TH
EFNo3SM4QKei4No604le_Q,iwoop,2710_ca7db7ccb8d141daa735f0a8,INSTALL,0.4,223.24.174.207,A0D75951-F7EA-43A2-928C-953043A0D707,1557109922,2019-05-06 10:32:02,1557475778,2019-05-10 16:09:38,1557475803,d28b251d88a43e0d225ca52a184cadc8,http://postback.iwoop.com/?token=9PEPQbLgKYqp8avu3Ve2vcfFz4vvWIKk&transaction_id=d28b251d88a43e0d225ca52a184cadc8,gidfa_A0D75951-F7EA-43A2-928C-953043A0D707,TH
EFNo3SM4QKei4No604le_Q,iwoop,2710_52dd0e6064894326a6138e71,INSTALL,0.4,182.232.186.138,C1D34379-3A44-4FAB-9695-EDC3EB57CA22,1556989535,2019-05-05 01:05:35,1556991258,2019-05-05 01:34:18,1556991572,6211f882c0aad7ae12c4bd95af40bf1f,http://postback.iwoop.com/?token=9PEPQbLgKYqp8avu3Ve2vcfFz4vvWIKk&transaction_id=6211f882c0aad7ae12c4bd95af40bf1f,gidfa_C1D34379-3A44-4FAB-9695-EDC3EB57CA22,TH
EFNo3SM4QKei4No604le_Q,iwoop,2710_e0c0303e5beb40e3a507d6fe,INSTALL,0.4,49.230.11.249,E69D454B-B1E9-4E3D-88FE-DCFE4A9773DA,1557395096,2019-05-09 17:44:56,1557395150,2019-05-09 17:45:50,1557395178,08bf1435d9cbdb938f998323f1e4aa7d,http://postback.iwoop.com/?token=9PEPQbLgKYqp8avu3Ve2vcfFz4vvWIKk&transaction_id=08bf1435d9cbdb938f998323f1e4aa7d,gidfa_E69D454B-B1E9-4E3D-88FE-DCFE4A9773DA,TH
EFNo3SM4QKei4No604le_Q,iwoop,2710_e0c0303e5beb40e3a507d6fe,INSTALL,0.4,223.207.179.58,DF124344-1BE8-4189-8CE6-78333E2F4502,1556967971,2019-05-04 19:06:11,1557247692,2019-05-08 00:48:12,1557247711,acf5e9054cb39fb7d30fc53df2d56dc0,http://postback.iwoop.com/?token=9PEPQbLgKYqp8avu3Ve2vcfFz4vvWIKk&transaction_id=acf5e9054cb39fb7d30fc53df2d56dc0,gidfa_DF124344-1BE8-4189-8CE6-78333E2F4502,TH
EFNo3SM4QKei4No604le_Q,iwoop,2710_1f2a5bfbc9d6417da76bad70,INSTALL,0.4,49.230.85.246,5048CA8D-4B1B-420D-B394-79A1DF83DA83,1557233050,2019-05-07 20:44:10,1557269641,2019-05-08 06:54:01,1557269739,199e330fd0c9d7402b5ded16e01c4aa6,http://postback.iwoop.com/?token=9PEPQbLgKYqp8avu3Ve2vcfFz4vvWIKk&transaction_id=199e330fd0c9d7402b5ded16e01c4aa6,gidfa_5048CA8D-4B1B-420D-B394-79A1DF83DA83,TH
EFNo3SM4QKei4No604le_Q,iwoop,2710_8887bf832ec34593bf9a13a3,INSTALL,0.4,1.46.228.124,9FE6F1E1-D105-4F4B-A4AF-27D1FC8BD8B4,1557231524,2019-05-07 20:18:44,1557233083,2019-05-07 20:44:43,1557233105,752355e4396698e8b92b4609b517ec73,http://postback.iwoop.com/?token=9PEPQbLgKYqp8avu3Ve2vcfFz4vvWIKk&transaction_id=752355e4396698e8b92b4609b517ec73,gidfa_9FE6F1E1-D105-4F4B-A4AF-27D1FC8BD8B4,TH
EFNo3SM4QKei4No604le_Q,iwoop,2710_a663ac7ad2024fb08f20b2ac,INSTALL,0.4,223.24.189.186,4168855E-3C76-421F-8663-DE46348E290A,1557456739,2019-05-10 10:52:19,1557463423,2019-05-10 12:43:43,1557463443,4dc89ffe61ec46f7617cfe9495705d2f,http://postback.iwoop.com/?token=9PEPQbLgKYqp8avu3Ve2vcfFz4vvWIKk&transaction_id=4dc89ffe61ec46f7617cfe9495705d2f,gidfa_4168855E-3C76-421F-8663-DE46348E290A,TH
EFNo3SM4QKei4No604le_Q,iwoop,2710_1f2a5bfbc9d6417da76bad70,INSTALL,0.4,223.24.186.226,7822A24C-1D7F-4329-BC82-1408140E1A5A,1557463476,2019-05-10 12:44:36,1557463984,2019-05-10 12:53:04,1557464011,b9b1e14aee74eb0acb9426c5f153853b,http://postback.iwoop.com/?token=9PEPQbLgKYqp8avu3Ve2vcfFz4vvWIKk&transaction_id=b9b1e14aee74eb0acb9426c5f153853b,gidfa_7822A24C-1D7F-4329-BC82-1408140E1A5A,TH
EFNo3SM4QKei4No604le_Q,iwoop,2710_a663ac7ad2024fb08f20b2ac,INSTALL,0.4,223.24.165.80,5592CBE3-A50C-4E1E-8A11-0CB000F348C6,1556779843,2019-05-02 14:50:43,1556784850,2019-05-02 16:14:10,1556785090,d000a5049b90dab08fdc1f906c08e38e,http://postback.iwoop.com/?token=9PEPQbLgKYqp8avu3Ve2vcfFz4vvWIKk&transaction_id=d000a5049b90dab08fdc1f906c08e38e,gidfa_5592CBE3-A50C-4E1E-8A11-0CB000F348C6,TH
EFNo3SM4QKei4No604le_Q,iwoop,2710_ca7db7ccb8d141daa735f0a8,INSTALL,0.4,223.206.20.26,018D7BC9-2C90-489A-9748-A29874AD54B5,1557224583,2019-05-07 18:23:03,1557224789,2019-05-07 18:26:29,1557228478,adcb42b9c0f0993c6633ff20c26811c7,http://postback.iwoop.com/?token=9PEPQbLgKYqp8avu3Ve2vcfFz4vvWIKk&transaction_id=adcb42b9c0f0993c6633ff20c26811c7,gidfa_018D7BC9-2C90-489A-9748-A29874AD54B5,TH
EFNo3SM4QKei4No604le_Q,iwoop,2710_e0c0303e5beb40e3a507d6fe,INSTALL,0.4,223.24.189.67,1394CB51-6A43-42B5-9FFE-A06F35ADAEA8,1557077809,2019-05-06 01:36:49,1557083154,2019-05-06 03:05:54,1557083349,fed0079b4798c4a49635d2db0e78d6c5,http://postback.iwoop.com/?token=9PEPQbLgKYqp8avu3Ve2vcfFz4vvWIKk&transaction_id=fed0079b4798c4a49635d2db0e78d6c5,gidfa_1394CB51-6A43-42B5-9FFE-A06F35ADAEA8,TH
EFNo3SM4QKei4No604le_Q,iwoop,2710_ca7db7ccb8d141daa735f0a8,INSTALL,0.4,223.24.60.214,DD788BE1-7DE0-4554-8C75-FDFBDAE48A21,1556966394,2019-05-04 18:39:54,1557129574,2019-05-06 15:59:34,1557129719,a5b8a4c2013876f62bf7231e3d2a22cf,http://postback.iwoop.com/?token=9PEPQbLgKYqp8avu3Ve2vcfFz4vvWIKk&transaction_id=a5b8a4c2013876f62bf7231e3d2a22cf,gidfa_DD788BE1-7DE0-4554-8C75-FDFBDAE48A21,TH
EFNo3SM4QKei4No604le_Q,iwoop,2710_e0c0303e5beb40e3a507d6fe,INSTALL,0.4,223.24.63.5,1FD2EE4F-D7E9-4159-8BA0-8B2EC8DB4036,1557410506,2019-05-09 22:01:46,1557412349,2019-05-09 22:32:29,1557412381,78dbd8a415264b5aecad71e2f20e6fd5,http://postback.iwoop.com/?token=9PEPQbLgKYqp8avu3Ve2vcfFz4vvWIKk&transaction_id=78dbd8a415264b5aecad71e2f20e6fd5,gidfa_1FD2EE4F-D7E9-4159-8BA0-8B2EC8DB4036,TH
EFNo3SM4QKei4No604le_Q,iwoop,2710_a663ac7ad2024fb08f20b2ac,INSTALL,0.4,49.230.0.132,E45EADFA-13A9-4149-BCCF-BA0963D35A1E,1556748848,2019-05-02 06:14:08,1556752823,2019-05-02 07:20:23,1556754400,eef4eabefb52aca1bbc4cbca7bc86cc2,http://postback.iwoop.com/?token=9PEPQbLgKYqp8avu3Ve2vcfFz4vvWIKk&transaction_id=eef4eabefb52aca1bbc4cbca7bc86cc2,gidfa_E45EADFA-13A9-4149-BCCF-BA0963D35A1E,TH
EFNo3SM4QKei4No604le_Q,iwoop,2710_8887bf832ec34593bf9a13a3,INSTALL,0.4,223.24.153.176,C795B7AA-A3E9-4538-979F-46ACFEC0C9BF,1557223877,2019-05-07 18:11:17,1557223905,2019-05-07 18:11:45,1557223932,bc45cba491d747a8ab132a93ab2a53b9,http://postback.iwoop.com/?token=9PEPQbLgKYqp8avu3Ve2vcfFz4vvWIKk&transaction_id=bc45cba491d747a8ab132a93ab2a53b9,gidfa_C795B7AA-A3E9-4538-979F-46ACFEC0C9BF,TH
EFNo3SM4QKei4No604le_Q,iwoop,2710_52dd0e6064894326a6138e71,INSTALL,0.4,223.24.188.219,9319018B-AAEF-44F6-9B7D-B6B0B087A9A7,1557108569,2019-05-06 10:09:29,1557114388,2019-05-06 11:46:28,1557114528,d141a048d4a80586bcb685e63177c4c7,http://postback.iwoop.com/?token=9PEPQbLgKYqp8avu3Ve2vcfFz4vvWIKk&transaction_id=d141a048d4a80586bcb685e63177c4c7,gidfa_9319018B-AAEF-44F6-9B7D-B6B0B087A9A7,TH
EFNo3SM4QKei4No604le_Q,iwoop,2710_e0c0303e5beb40e3a507d6fe,INSTALL,0.4,223.24.164.206,5C01EFCC-7D73-4A07-A32C-76CD45C0970A,1557412996,2019-05-09 22:43:16,1557419485,2019-05-10 00:31:25,1557419496,c74a4b50f134e8478e390d703f70f129,http://postback.iwoop.com/?token=9PEPQbLgKYqp8avu3Ve2vcfFz4vvWIKk&transaction_id=c74a4b50f134e8478e390d703f70f129,gidfa_5C01EFCC-7D73-4A07-A32C-76CD45C0970A,TH
EFNo3SM4QKei4No604le_Q,iwoop,2710_52dd0e6064894326a6138e71,INSTALL,0.4,223.24.165.90,F8B7D73E-5ED6-4D43-AB10-43E9D5623A18,1556988694,2019-05-05 00:51:34,1556993987,2019-05-05 02:19:47,1556994096,d3159b39e02a89ed993513652ab5be6f,http://postback.iwoop.com/?token=9PEPQbLgKYqp8avu3Ve2vcfFz4vvWIKk&transaction_id=d3159b39e02a89ed993513652ab5be6f,gidfa_F8B7D73E-5ED6-4D43-AB10-43E9D5623A18,TH
EFNo3SM4QKei4No604le_Q,iwoop,2710_8887bf832ec34593bf9a13a3,INSTALL,0.4,223.24.168.175,CC04255E-C1B2-41EB-9B96-CF8E56B70597,1557410040,2019-05-09 21:54:00,1557415031,2019-05-09 23:17:11,1557415056,611fe63f2cf1e1e9decd8ec61223493b,http://postback.iwoop.com/?token=9PEPQbLgKYqp8avu3Ve2vcfFz4vvWIKk&transaction_id=611fe63f2cf1e1e9decd8ec61223493b,gidfa_CC04255E-C1B2-41EB-9B96-CF8E56B70597,TH
EFNo3SM4QKei4No604le_Q,iwoop,2710_a663ac7ad2024fb08f20b2ac,INSTALL,0.4,182.232.24.11,867E13D2-D16E-41D6-9064-9A7F9EEE81F2,1557404071,2019-05-09 20:14:31,1557408765,2019-05-09 21:32:45,1557408789,be15b8fbbb49de9c347b13ac8ec7c321,http://postback.iwoop.com/?token=9PEPQbLgKYqp8avu3Ve2vcfFz4vvWIKk&transaction_id=be15b8fbbb49de9c347b13ac8ec7c321,gidfa_867E13D2-D16E-41D6-9064-9A7F9EEE81F2,TH
EFNo3SM4QKei4No604le_Q,iwoop,2710_1f2a5bfbc9d6417da76bad70,INSTALL,0.4,223.24.150.189,79823F0A-E221-4288-A62B-E01DDE3DD798,1556713874,2019-05-01 20:31:14,1556716055,2019-05-01 21:07:35,1556716114,2bc8de0f30304c23ccdaa033f55a1137,http://postback.iwoop.com/?token=9PEPQbLgKYqp8avu3Ve2vcfFz4vvWIKk&transaction_id=2bc8de0f30304c23ccdaa033f55a1137,gidfa_79823F0A-E221-4288-A62B-E01DDE3DD798,TH
EFNo3SM4QKei4No604le_Q,iwoop,2710_e0c0303e5beb40e3a507d6fe,INSTALL,0.4,223.24.166.194,0F44844C-FBAD-486D-A1F1-AE3FBAAA05A7,1557454117,2019-05-10 10:08:37,1557456009,2019-05-10 10:40:09,1557456032,282fb1d345c3c1ced75ca97f7065bcd9,http://postback.iwoop.com/?token=9PEPQbLgKYqp8avu3Ve2vcfFz4vvWIKk&transaction_id=282fb1d345c3c1ced75ca97f7065bcd9,gidfa_0F44844C-FBAD-486D-A1F1-AE3FBAAA05A7,TH
EFNo3SM4QKei4No604le_Q,iwoop,2710_a663ac7ad2024fb08f20b2ac,INSTALL,0.4,223.24.168.208,6FC82642-C583-4C11-AE72-A8B4EDCEDFFB,1557396545,2019-05-09 18:09:05,1557397981,2019-05-09 18:33:01,1557398011,71d4eed559b38c7af80856f8a822426f,http://postback.iwoop.com/?token=9PEPQbLgKYqp8avu3Ve2vcfFz4vvWIKk&transaction_id=71d4eed559b38c7af80856f8a822426f,gidfa_6FC82642-C583-4C11-AE72-A8B4EDCEDFFB,TH
EFNo3SM4QKei4No604le_Q,iwoop,2710_1f2a5bfbc9d6417da76bad70,INSTALL,0.4,223.24.63.84,B86E1735-404E-419B-ACE3-2061E79248D8,1556965378,2019-05-04 18:22:58,1556971773,2019-05-04 20:09:33,1556971962,d4096d1721a80811e66fded70bb3bb15,http://postback.iwoop.com/?token=9PEPQbLgKYqp8avu3Ve2vcfFz4vvWIKk&transaction_id=d4096d1721a80811e66fded70bb3bb15,gidfa_B86E1735-404E-419B-ACE3-2061E79248D8,TH
EFNo3SM4QKei4No604le_Q,iwoop,2710_e0c0303e5beb40e3a507d6fe,INSTALL,0.4,223.24.172.26,986FEB4F-FE53-41C1-89FE-E4A2093DC8D6,1556725583,2019-05-01 23:46:23,1556726434,2019-05-02 00:00:34,1556726755,0a32672697ce9b0120b54f53c7cb1163,http://postback.iwoop.com/?token=9PEPQbLgKYqp8avu3Ve2vcfFz4vvWIKk&transaction_id=0a32672697ce9b0120b54f53c7cb1163,gidfa_986FEB4F-FE53-41C1-89FE-E4A2093DC8D6,TH
EFNo3SM4QKei4No604le_Q,iwoop,2710_1f2a5bfbc9d6417da76bad70,INSTALL,0.4,223.24.184.155,E99FB140-27C5-4935-AFE6-CAB18F8921AE,1557407041,2019-05-09 21:04:01,1557408339,2019-05-09 21:25:39,1557408365,5cf16a8b63dd67c48426d7bee816ee5a,http://postback.iwoop.com/?token=9PEPQbLgKYqp8avu3Ve2vcfFz4vvWIKk&transaction_id=5cf16a8b63dd67c48426d7bee816ee5a,gidfa_E99FB140-27C5-4935-AFE6-CAB18F8921AE,TH
EFNo3SM4QKei4No604le_Q,iwoop,2710_1f2a5bfbc9d6417da76bad70,INSTALL,0.4,182.232.142.34,B9E8AF05-50E4-45A5-AC93-B01430F0414C,1556714823,2019-05-01 20:47:03,1556721504,2019-05-01 22:38:24,1556722063,f14370350242bd6c166e583c59aab708,http://postback.iwoop.com/?token=9PEPQbLgKYqp8avu3Ve2vcfFz4vvWIKk&transaction_id=f14370350242bd6c166e583c59aab708,gidfa_B9E8AF05-50E4-45A5-AC93-B01430F0414C,TH
EFNo3SM4QKei4No604le_Q,iwoop,2710_ca7db7ccb8d141daa735f0a8,INSTALL,0.4,223.24.61.91,F04DE753-0EE2-4E17-B396-AC0E7839D9BD,1557226268,2019-05-07 18:51:08,1557226744,2019-05-07 18:59:04,1557226774,5c8d876462a6bca952351ba73d0f1516,http://postback.iwoop.com/?token=9PEPQbLgKYqp8avu3Ve2vcfFz4vvWIKk&transaction_id=5c8d876462a6bca952351ba73d0f1516,gidfa_F04DE753-0EE2-4E17-B396-AC0E7839D9BD,TH
EFNo3SM4QKei4No604le_Q,iwoop,2710_ca7db7ccb8d141daa735f0a8,INSTALL,0.4,1.46.66.17,AB24B68F-40DD-41F8-A322-C576EF10CD86,1557238779,2019-05-07 22:19:39,1557244388,2019-05-07 23:53:08,1557244453,db536284b02e7b4fb1e08eb65b07cada,http://postback.iwoop.com/?token=9PEPQbLgKYqp8avu3Ve2vcfFz4vvWIKk&transaction_id=db536284b02e7b4fb1e08eb65b07cada,gidfa_AB24B68F-40DD-41F8-A322-C576EF10CD86,TH
EFNo3SM4QKei4No604le_Q,iwoop,2710_a663ac7ad2024fb08f20b2ac,INSTALL,0.4,182.232.9.219,5629110E-370E-44D9-9A8B-A7C6DE490309,1556714184,2019-05-01 20:36:24,1556721319,2019-05-01 22:35:19,1556721520,3cabfad6853893e78331267229da582e,http://postback.iwoop.com/?token=9PEPQbLgKYqp8avu3Ve2vcfFz4vvWIKk&transaction_id=3cabfad6853893e78331267229da582e,gidfa_5629110E-370E-44D9-9A8B-A7C6DE490309,TH
EFNo3SM4QKei4No604le_Q,iwoop,2710_8887bf832ec34593bf9a13a3,INSTALL,0.4,223.24.93.190,728A8F26-6419-4F4E-9D2F-3E7338A3329E,1556784083,2019-05-02 16:01:23,1556784982,2019-05-02 16:16:22,1556785226,30ff42586ed6c7e2166b1b78e158f3fd,http://postback.iwoop.com/?token=9PEPQbLgKYqp8avu3Ve2vcfFz4vvWIKk&transaction_id=30ff42586ed6c7e2166b1b78e158f3fd,gidfa_728A8F26-6419-4F4E-9D2F-3E7338A3329E,TH
EFNo3SM4QKei4No604le_Q,iwoop,2710_1f2a5bfbc9d6417da76bad70,INSTALL,0.4,49.230.74.178,2D496FAE-3A84-4A87-8C50-C79FE59866F3,1557229877,2019-05-07 19:51:17,1557476992,2019-05-10 16:29:52,1557477009,bcc33147a961341c219b67a7970504d0,http://postback.iwoop.com/?token=9PEPQbLgKYqp8avu3Ve2vcfFz4vvWIKk&transaction_id=bcc33147a961341c219b67a7970504d0,gidfa_2D496FAE-3A84-4A87-8C50-C79FE59866F3,TH
EFNo3SM4QKei4No604le_Q,iwoop,2710_e0c0303e5beb40e3a507d6fe,INSTALL,0.4,223.24.191.34,B66E5079-0D9E-4CF8-AC39-7EE9CA5DC088,1556721640,2019-05-01 22:40:40,1556725381,2019-05-01 23:43:01,1556726289,e5dedd97df3a4a0c99f9e051c37e22b6,http://postback.iwoop.com/?token=9PEPQbLgKYqp8avu3Ve2vcfFz4vvWIKk&transaction_id=e5dedd97df3a4a0c99f9e051c37e22b6,gidfa_B66E5079-0D9E-4CF8-AC39-7EE9CA5DC088,TH
EFNo3SM4QKei4No604le_Q,iwoop,2710_ca7db7ccb8d141daa735f0a8,INSTALL,0.4,223.24.165.181,DE33091A-92E7-467F-B8C4-905E9C6A04B5,1557105918,2019-05-06 09:25:18,1557108444,2019-05-06 10:07:24,1557110788,63c5c53aca83b5034dccb90f3a4f3624,http://postback.iwoop.com/?token=9PEPQbLgKYqp8avu3Ve2vcfFz4vvWIKk&transaction_id=63c5c53aca83b5034dccb90f3a4f3624,gidfa_DE33091A-92E7-467F-B8C4-905E9C6A04B5,TH
EFNo3SM4QKei4No604le_Q,iwoop,2710_1f2a5bfbc9d6417da76bad70,INSTALL,0.4,223.24.92.215,022DCC96-5F34-4DA1-B491-70110542649D,1557107209,2019-05-06 09:46:49,1557111028,2019-05-06 10:50:28,1557111199,b893f69fc6be1a653f76d6231ad37525,http://postback.iwoop.com/?token=9PEPQbLgKYqp8avu3Ve2vcfFz4vvWIKk&transaction_id=b893f69fc6be1a653f76d6231ad37525,gidfa_022DCC96-5F34-4DA1-B491-70110542649D,TH
EFNo3SM4QKei4No604le_Q,iwoop,2710_a663ac7ad2024fb08f20b2ac,INSTALL,0.4,49.230.56.16,4E4D0349-468A-43D5-8001-B76B975DC867,1556985102,2019-05-04 23:51:42,1556987487,2019-05-05 00:31:27,1556987607,e5d2e0119f894cdbf7fac66d762e7bc3,http://postback.iwoop.com/?token=9PEPQbLgKYqp8avu3Ve2vcfFz4vvWIKk&transaction_id=e5d2e0119f894cdbf7fac66d762e7bc3,gidfa_4E4D0349-468A-43D5-8001-B76B975DC867,TH
EFNo3SM4QKei4No604le_Q,iwoop,2710_a663ac7ad2024fb08f20b2ac,INSTALL,0.4,223.24.63.129,E431CAD2-1446-46F7-BF55-AFD8FBE94908,1556982399,2019-05-04 23:06:39,1556988739,2019-05-05 00:52:19,1556989002,6839914324bec68686eaf2675deeacc3,http://postback.iwoop.com/?token=9PEPQbLgKYqp8avu3Ve2vcfFz4vvWIKk&transaction_id=6839914324bec68686eaf2675deeacc3,gidfa_E431CAD2-1446-46F7-BF55-AFD8FBE94908,TH
EFNo3SM4QKei4No604le_Q,iwoop,2710_ca7db7ccb8d141daa735f0a8,INSTALL,0.4,223.24.188.21,,1556988808,2019-05-05 00:53:28,1556991606,2019-05-05 01:40:06,1556992018,ad1547d635cebae4e43ce2d5b93b1764,http://postback.iwoop.com/?token=9PEPQbLgKYqp8avu3Ve2vcfFz4vvWIKk&transaction_id=ad1547d635cebae4e43ce2d5b93b1764,ip_223.24.188.21,TH
EFNo3SM4QKei4No604le_Q,iwoop,2710_ca7db7ccb8d141daa735f0a8,INSTALL,0.4,223.24.165.89,EFA0D559-A739-42DB-A91D-8CB277191FB6,1557228256,2019-05-07 19:24:16,1557233800,2019-05-07 20:56:40,1557233828,365b9a86ed1d9952d2b6e8c42fc98c12,http://postback.iwoop.com/?token=9PEPQbLgKYqp8avu3Ve2vcfFz4vvWIKk&transaction_id=365b9a86ed1d9952d2b6e8c42fc98c12,gidfa_EFA0D559-A739-42DB-A91D-8CB277191FB6,TH
EFNo3SM4QKei4No604le_Q,iwoop,2710_a663ac7ad2024fb08f20b2ac,INSTALL,0.4,223.24.160.77,557D2475-4529-4193-BCA7-D775965DBE65,1557099824,2019-05-06 07:43:44,1557104143,2019-05-06 08:55:43,1557104267,eb9b3cacf6bc1bd0084ee05be449180b,http://postback.iwoop.com/?token=9PEPQbLgKYqp8avu3Ve2vcfFz4vvWIKk&transaction_id=eb9b3cacf6bc1bd0084ee05be449180b,gidfa_557D2475-4529-4193-BCA7-D775965DBE65,TH
EFNo3SM4QKei4No604le_Q,iwoop,2710_a663ac7ad2024fb08f20b2ac,INSTALL,0.4,223.24.170.143,691D81BB-58DE-4758-9DA5-CCB553C37090,1557396606,2019-05-09 18:10:06,1557398482,2019-05-09 18:41:22,1557398506,8febcc907942623a32b4e0ac7770382f,http://postback.iwoop.com/?token=9PEPQbLgKYqp8avu3Ve2vcfFz4vvWIKk&transaction_id=8febcc907942623a32b4e0ac7770382f,gidfa_691D81BB-58DE-4758-9DA5-CCB553C37090,TH
EFNo3SM4QKei4No604le_Q,iwoop,2710_a663ac7ad2024fb08f20b2ac,INSTALL,0.4,223.24.170.173,BC79463A-42E4-4517-AB3C-FF774782A6CB,1557460221,2019-05-10 11:50:21,1557467328,2019-05-10 13:48:48,1557467351,9a07988c4b49eb65f2d124520845fc1f,http://postback.iwoop.com/?token=9PEPQbLgKYqp8avu3Ve2vcfFz4vvWIKk&transaction_id=9a07988c4b49eb65f2d124520845fc1f,gidfa_BC79463A-42E4-4517-AB3C-FF774782A6CB,TH
EFNo3SM4QKei4No604le_Q,iwoop,2710_e0c0303e5beb40e3a507d6fe,INSTALL,0.4,182.232.2.200,EF306AD9-6784-497F-BB2B-261189432FDC,1556983314,2019-05-04 23:21:54,1557403557,2019-05-09 20:05:57,1557404120,c5c03c6620ede07583669df9356b92e9,http://postback.iwoop.com/?token=9PEPQbLgKYqp8avu3Ve2vcfFz4vvWIKk&transaction_id=c5c03c6620ede07583669df9356b92e9,gidfa_EF306AD9-6784-497F-BB2B-261189432FDC,TH
EFNo3SM4QKei4No604le_Q,iwoop,2710_a663ac7ad2024fb08f20b2ac,INSTALL,0.4,223.24.146.223,67C41903-A050-48BC-BF12-B04D6A576535,1556963213,2019-05-04 17:46:53,1556966480,2019-05-04 18:41:20,1556966647,8e022f21867b89a99050483864b556ba,http://postback.iwoop.com/?token=9PEPQbLgKYqp8avu3Ve2vcfFz4vvWIKk&transaction_id=8e022f21867b89a99050483864b556ba,gidfa_67C41903-A050-48BC-BF12-B04D6A576535,TH
EFNo3SM4QKei4No604le_Q,iwoop,2710_1f2a5bfbc9d6417da76bad70,INSTALL,0.4,223.24.160.252,,1556730530,2019-05-02 01:08:50,1556735333,2019-05-02 02:28:53,1556735555,2c97d1c01b48cab23e0a79acf8d1741d,http://postback.iwoop.com/?token=9PEPQbLgKYqp8avu3Ve2vcfFz4vvWIKk&transaction_id=2c97d1c01b48cab23e0a79acf8d1741d,ip_223.24.160.252,TH
EFNo3SM4QKei4No604le_Q,iwoop,2710_a663ac7ad2024fb08f20b2ac,INSTALL,0.4,223.24.189.1,35381984-7F1D-4AEE-B395-F87025CC0D02,1557242187,2019-05-07 23:16:27,1557248078,2019-05-08 00:54:38,1557248107,b153d35a1c418828cbac023ef7282192,http://postback.iwoop.com/?token=9PEPQbLgKYqp8avu3Ve2vcfFz4vvWIKk&transaction_id=b153d35a1c418828cbac023ef7282192,gidfa_35381984-7F1D-4AEE-B395-F87025CC0D02,TH
EFNo3SM4QKei4No604le_Q,iwoop,2710_1f2a5bfbc9d6417da76bad70,INSTALL,0.4,49.230.4.133,2524DD87-D600-4FFC-BE48-0F6AD7EFBECA,1556715417,2019-05-01 20:56:57,1556716562,2019-05-01 21:16:02,1556716885,3b119abde8188f027021af8afb6dbfec,http://postback.iwoop.com/?token=9PEPQbLgKYqp8avu3Ve2vcfFz4vvWIKk&transaction_id=3b119abde8188f027021af8afb6dbfec,gidfa_2524DD87-D600-4FFC-BE48-0F6AD7EFBECA,TH
EFNo3SM4QKei4No604le_Q,iwoop,2710_e0c0303e5beb40e3a507d6fe,INSTALL,0.4,118.175.156.196,FCBC9DEC-B83F-4925-A6B0-8395DC5243BC,1556732803,2019-05-02 01:46:43,1556732961,2019-05-02 01:49:21,1556733144,8ad2d419d2d569c9624b68c65fe6f050,http://postback.iwoop.com/?token=9PEPQbLgKYqp8avu3Ve2vcfFz4vvWIKk&transaction_id=8ad2d419d2d569c9624b68c65fe6f050,gidfa_FCBC9DEC-B83F-4925-A6B0-8395DC5243BC,TH
EFNo3SM4QKei4No604le_Q,iwoop,2710_1f2a5bfbc9d6417da76bad70,INSTALL,0.4,223.24.152.87,7893D8E1-0615-456E-8752-F1EDC9A9AC90,1557396117,2019-05-09 18:01:57,1557398496,2019-05-09 18:41:36,1557398521,0f700ae0d24efe6d2d8f4ca8e08ba42c,http://postback.iwoop.com/?token=9PEPQbLgKYqp8avu3Ve2vcfFz4vvWIKk&transaction_id=0f700ae0d24efe6d2d8f4ca8e08ba42c,gidfa_7893D8E1-0615-456E-8752-F1EDC9A9AC90,TH
EFNo3SM4QKei4No604le_Q,iwoop,2710_52dd0e6064894326a6138e71,INSTALL,0.4,223.207.249.201,F7B03186-97B8-4EE6-805D-3FAF7CFEB758,1557237658,2019-05-07 22:00:58,1557468718,2019-05-10 14:11:58,1557468760,064f55703a3e2940225785fbfcb2cb5e,http://postback.iwoop.com/?token=9PEPQbLgKYqp8avu3Ve2vcfFz4vvWIKk&transaction_id=064f55703a3e2940225785fbfcb2cb5e,gidfa_F7B03186-97B8-4EE6-805D-3FAF7CFEB758,TH
EFNo3SM4QKei4No604le_Q,iwoop,2710_a663ac7ad2024fb08f20b2ac,INSTALL,0.4,223.24.184.195,C94C6FE2-D886-4544-B0CB-1C078CA6E4F6,1557072424,2019-05-06 00:07:04,1557073477,2019-05-06 00:24:37,1557073705,6c4c7046f8afd651a8737593a928e00d,http://postback.iwoop.com/?token=9PEPQbLgKYqp8avu3Ve2vcfFz4vvWIKk&transaction_id=6c4c7046f8afd651a8737593a928e00d,gidfa_C94C6FE2-D886-4544-B0CB-1C078CA6E4F6,TH
EFNo3SM4QKei4No604le_Q,iwoop,2710_1f2a5bfbc9d6417da76bad70,INSTALL,0.4,182.232.131.103,E7A35500-DA17-4D55-83B0-5FE4E519873C,1556964639,2019-05-04 18:10:39,1556968786,2019-05-04 19:19:46,1556968930,05c2d36477fad3b7876726899cd6a502,http://postback.iwoop.com/?token=9PEPQbLgKYqp8avu3Ve2vcfFz4vvWIKk&transaction_id=05c2d36477fad3b7876726899cd6a502,gidfa_E7A35500-DA17-4D55-83B0-5FE4E519873C,TH
EFNo3SM4QKei4No604le_Q,iwoop,2710_8887bf832ec34593bf9a13a3,INSTALL,0.4,223.24.188.99,7418D7B7-3962-45D7-9FC6-119C669FEA0D,1557461037,2019-05-10 12:03:57,1557464048,2019-05-10 12:54:08,1557464077,aac2e76dd0191b5259a198a0911d5a58,http://postback.iwoop.com/?token=9PEPQbLgKYqp8avu3Ve2vcfFz4vvWIKk&transaction_id=aac2e76dd0191b5259a198a0911d5a58,gidfa_7418D7B7-3962-45D7-9FC6-119C669FEA0D,TH
EFNo3SM4QKei4No604le_Q,iwoop,2710_a663ac7ad2024fb08f20b2ac,INSTALL,0.4,223.24.172.155,CBF45400-0262-47BA-8DBC-FDFB942E6462,1557412618,2019-05-09 22:36:58,1557415679,2019-05-09 23:27:59,1557415713,8685a9d0e6be5817accca2ec3ac36e1e,http://postback.iwoop.com/?token=9PEPQbLgKYqp8avu3Ve2vcfFz4vvWIKk&transaction_id=8685a9d0e6be5817accca2ec3ac36e1e,gidfa_CBF45400-0262-47BA-8DBC-FDFB942E6462,TH
EFNo3SM4QKei4No604le_Q,iwoop,2710_ca7db7ccb8d141daa735f0a8,INSTALL,0.4,182.232.15.189,4A98D709-DF9D-42BA-934E-F33BAA4AF2A3,1556718279,2019-05-01 21:44:39,1556720885,2019-05-01 22:28:05,1556721154,09ea78ddd2bf19bb97767abf93ae87da,http://postback.iwoop.com/?token=9PEPQbLgKYqp8avu3Ve2vcfFz4vvWIKk&transaction_id=09ea78ddd2bf19bb97767abf93ae87da,gidfa_4A98D709-DF9D-42BA-934E-F33BAA4AF2A3,TH
EFNo3SM4QKei4No604le_Q,iwoop,2710_e0c0303e5beb40e3a507d6fe,INSTALL,0.4,49.230.21.14,806BE5E3-C78D-4B2A-8936-398CB1B2918F,1556977476,2019-05-04 21:44:36,1556979761,2019-05-04 22:22:41,1556979928,1c4d9d4b7bc9f3d6ad3af550a3f3380c,http://postback.iwoop.com/?token=9PEPQbLgKYqp8avu3Ve2vcfFz4vvWIKk&transaction_id=1c4d9d4b7bc9f3d6ad3af550a3f3380c,gidfa_806BE5E3-C78D-4B2A-8936-398CB1B2918F,TH
EFNo3SM4QKei4No604le_Q,iwoop,2710_52dd0e6064894326a6138e71,INSTALL,0.4,223.24.168.58,BE3B863C-9F00-45D2-9C09-80F6CD85BC89,1557458807,2019-05-10 11:26:47,1557463364,2019-05-10 12:42:44,1557463389,38b9e12f57ab43e61c9d9d0613af8736,http://postback.iwoop.com/?token=9PEPQbLgKYqp8avu3Ve2vcfFz4vvWIKk&transaction_id=38b9e12f57ab43e61c9d9d0613af8736,gidfa_BE3B863C-9F00-45D2-9C09-80F6CD85BC89,TH
EFNo3SM4QKei4No604le_Q,iwoop,2710_1f2a5bfbc9d6417da76bad70,INSTALL,0.4,223.24.164.250,58399ABD-E900-429B-88B0-BC8BAD23D99C,1557232534,2019-05-07 20:35:34,1557237881,2019-05-07 22:04:41,1557238285,21640ed09262f22206238f45a8ddf1a4,http://postback.iwoop.com/?token=9PEPQbLgKYqp8avu3Ve2vcfFz4vvWIKk&transaction_id=21640ed09262f22206238f45a8ddf1a4,gidfa_58399ABD-E900-429B-88B0-BC8BAD23D99C,EN
EFNo3SM4QKei4No604le_Q,iwoop,2710_52dd0e6064894326a6138e71,INSTALL,0.4,223.24.167.9,208D8470-05EA-4FD1-A61F-94774FB29824,1557402189,2019-05-09 19:43:09,1557404358,2019-05-09 20:19:18,1557404668,605fa07c1bb0600b1c208cf33e62d29e,http://postback.iwoop.com/?token=9PEPQbLgKYqp8avu3Ve2vcfFz4vvWIKk&transaction_id=605fa07c1bb0600b1c208cf33e62d29e,gidfa_208D8470-05EA-4FD1-A61F-94774FB29824,TH
EFNo3SM4QKei4No604le_Q,iwoop,2710_a663ac7ad2024fb08f20b2ac,INSTALL,0.4,223.24.93.9,5D4F4784-C271-4460-89E9-ECEE47F3AFD9,1557458381,2019-05-10 11:19:41,1557462433,2019-05-10 12:27:13,1557462460,8dc1da3223ec84ea22470d74a13e889b,http://postback.iwoop.com/?token=9PEPQbLgKYqp8avu3Ve2vcfFz4vvWIKk&transaction_id=8dc1da3223ec84ea22470d74a13e889b,gidfa_5D4F4784-C271-4460-89E9-ECEE47F3AFD9,TH
