cid,partner_id,channel_id,action_id,cpi,ip,idfa,click time,click datetime,install time,install datetime,postback time,click id,postback url,unique user id
tAjVzGzSSOK9SQ6YUVDS3Q,iwoop,3911_73__204,install,0.8,183.104.192.162,ab1015be-50d6-4998-80aa-6389977ef723,1559273091,2019-05-31 11:24:51,1559273205,2019-05-31 11:26:45,1559273235,cbfc2751ed4b916c83f6bc25d894be0a,http://postback.iwoop.com/?token=9PEPQbLgKYqp8avu3Ve2vcfFz4vvWIKk&transaction_id=cbfc2751ed4b916c83f6bc25d894be0a,idfa_ab1015be-50d6-4998-80aa-6389977ef723,ko
tAjVzGzSSOK9SQ6YUVDS3Q,iwoop,3911_73__204,install,0.8,220.86.128.100,948faee1-00be-43fb-8c33-b096ba279a61,1559272182,2019-05-31 11:09:42,1559272266,2019-05-31 11:11:06,1559272297,2740ce44ee8c85beae3e136c5a43aedf,http://postback.iwoop.com/?token=9PEPQbLgKYqp8avu3Ve2vcfFz4vvWIKk&transaction_id=2740ce44ee8c85beae3e136c5a43aedf,idfa_948faee1-00be-43fb-8c33-b096ba279a61,ko
tAjVzGzSSOK9SQ6YUVDS3Q,iwoop,3911_73__204,install,0.8,118.36.97.181,87103218-130a-458d-b4a3-dcad02defe52,1559273696,2019-05-31 11:34:56,1559273850,2019-05-31 11:37:30,1559273880,270a6217ec6e8bde0cabe1ee9ea1066c,http://postback.iwoop.com/?token=9PEPQbLgKYqp8avu3Ve2vcfFz4vvWIKk&transaction_id=270a6217ec6e8bde0cabe1ee9ea1066c,idfa_87103218-130a-458d-b4a3-dcad02defe52,ko
tAjVzGzSSOK9SQ6YUVDS3Q,iwoop,3911_73__204,install,0.8,113.198.1.118,8a4de919-5bd3-4333-a062-1e553b889c00,1559271869,2019-05-31 11:04:29,1559271958,2019-05-31 11:05:58,1559271990,4457eb9cd4a07304c3f6da18dd075e5b,http://postback.iwoop.com/?token=9PEPQbLgKYqp8avu3Ve2vcfFz4vvWIKk&transaction_id=4457eb9cd4a07304c3f6da18dd075e5b,idfa_8a4de919-5bd3-4333-a062-1e553b889c00,ko
tAjVzGzSSOK9SQ6YUVDS3Q,iwoop,3911_73__204,install,0.8,59.7.65.168,bcdb1b82-4cd9-42c2-818a-e6dc5fe894bb,1559273966,2019-05-31 11:39:26,1559274063,2019-05-31 11:41:03,1559274094,6cc4876c2887e536531dab635559aee2,http://postback.iwoop.com/?token=9PEPQbLgKYqp8avu3Ve2vcfFz4vvWIKk&transaction_id=6cc4876c2887e536531dab635559aee2,idfa_bcdb1b82-4cd9-42c2-818a-e6dc5fe894bb,ko
tAjVzGzSSOK9SQ6YUVDS3Q,iwoop,3911_73__204,install,0.8,183.112.102.112,80e5cfbc-4211-4e4c-934a-dcfdf1961704,1559274014,2019-05-31 11:40:14,1559274101,2019-05-31 11:41:41,1559274132,ca2faafbb39294f2fe8b4f3fa5c8a4e3,http://postback.iwoop.com/?token=9PEPQbLgKYqp8avu3Ve2vcfFz4vvWIKk&transaction_id=ca2faafbb39294f2fe8b4f3fa5c8a4e3,idfa_80e5cfbc-4211-4e4c-934a-dcfdf1961704,ko
tAjVzGzSSOK9SQ6YUVDS3Q,iwoop,3911_73__204,install,0.8,121.159.135.131,7f6f0e1a-7cc8-4254-b2f5-c95974cc190c,1559273308,2019-05-31 11:28:28,1559273387,2019-05-31 11:29:47,1559273418,aae68c55932998def3c534c571e3bb4f,http://postback.iwoop.com/?token=9PEPQbLgKYqp8avu3Ve2vcfFz4vvWIKk&transaction_id=aae68c55932998def3c534c571e3bb4f,idfa_7f6f0e1a-7cc8-4254-b2f5-c95974cc190c,ko
tAjVzGzSSOK9SQ6YUVDS3Q,iwoop,3911_73__204,install,0.8,112.220.20.170,fa20d3a4-4f47-492b-9fb7-bcc517cb8750,1559272162,2019-05-31 11:09:22,1559272247,2019-05-31 11:10:47,1559272278,f11bde8aaeafd291f0f9c2ecb41a10ca,http://postback.iwoop.com/?token=9PEPQbLgKYqp8avu3Ve2vcfFz4vvWIKk&transaction_id=f11bde8aaeafd291f0f9c2ecb41a10ca,idfa_fa20d3a4-4f47-492b-9fb7-bcc517cb8750,ko
tAjVzGzSSOK9SQ6YUVDS3Q,iwoop,3911_73__204,install,0.8,1.255.147.86,aed02156-f731-4385-8cf4-1daeae7be234,1559272751,2019-05-31 11:19:11,1559272840,2019-05-31 11:20:40,1559272874,88d65366d313c8f12d39b9c002ffaee0,http://postback.iwoop.com/?token=9PEPQbLgKYqp8avu3Ve2vcfFz4vvWIKk&transaction_id=88d65366d313c8f12d39b9c002ffaee0,idfa_aed02156-f731-4385-8cf4-1daeae7be234,ko
tAjVzGzSSOK9SQ6YUVDS3Q,iwoop,3911_73__204,install,0.8,121.147.78.119,e5258e07-b2b0-411f-86ef-2fb0fbe0ee91,1559272376,2019-05-31 11:12:56,1559272495,2019-05-31 11:14:55,1559272527,dd25da3c1bda4d8d3e5e38b77695d709,http://postback.iwoop.com/?token=9PEPQbLgKYqp8avu3Ve2vcfFz4vvWIKk&transaction_id=dd25da3c1bda4d8d3e5e38b77695d709,idfa_e5258e07-b2b0-411f-86ef-2fb0fbe0ee91,ko
tAjVzGzSSOK9SQ6YUVDS3Q,iwoop,3911_73__204,install,0.8,119.196.178.165,de6b0c08-b791-4c72-8b4d-30118ec5e213,1559274045,2019-05-31 11:40:45,1559274136,2019-05-31 11:42:16,1559274168,3eea8cca50c76e355c34e621ae13bde0,http://postback.iwoop.com/?token=9PEPQbLgKYqp8avu3Ve2vcfFz4vvWIKk&transaction_id=3eea8cca50c76e355c34e621ae13bde0,idfa_de6b0c08-b791-4c72-8b4d-30118ec5e213,ko
tAjVzGzSSOK9SQ6YUVDS3Q,iwoop,3911_73__204,install,0.8,203.228.17.2,14f2847c-27ef-4c4c-a5a4-78456fd6d1c0,1559272448,2019-05-31 11:14:08,1559272550,2019-05-31 11:15:50,1559272581,19c8fcdbf5393b1c9d6094005e3f48ac,http://postback.iwoop.com/?token=9PEPQbLgKYqp8avu3Ve2vcfFz4vvWIKk&transaction_id=19c8fcdbf5393b1c9d6094005e3f48ac,idfa_14f2847c-27ef-4c4c-a5a4-78456fd6d1c0,ko
tAjVzGzSSOK9SQ6YUVDS3Q,iwoop,3911_73__204,install,0.8,220.126.189.241,175284ba-9a9b-4614-b1de-ed711afa2424,1559272539,2019-05-31 11:15:39,1559272631,2019-05-31 11:17:11,1559272663,2ff3da35a1cb3e82b50f2da09b79386e,http://postback.iwoop.com/?token=9PEPQbLgKYqp8avu3Ve2vcfFz4vvWIKk&transaction_id=2ff3da35a1cb3e82b50f2da09b79386e,idfa_175284ba-9a9b-4614-b1de-ed711afa2424,ko
tAjVzGzSSOK9SQ6YUVDS3Q,iwoop,3911_73__204,install,0.8,121.178.215.5,30cde6b5-061e-4f79-967e-70b374e87599,1559272062,2019-05-31 11:07:42,1559272161,2019-05-31 11:09:21,1559272193,e96343dc93d2c902b8cb678fc5c26bfd,http://postback.iwoop.com/?token=9PEPQbLgKYqp8avu3Ve2vcfFz4vvWIKk&transaction_id=e96343dc93d2c902b8cb678fc5c26bfd,idfa_30cde6b5-061e-4f79-967e-70b374e87599,ko
tAjVzGzSSOK9SQ6YUVDS3Q,iwoop,3911_73__204,install,0.8,14.43.171.84,cc38b6f9-ff67-4823-a864-34e41e0f4f80,1559273670,2019-05-31 11:34:30,1559273791,2019-05-31 11:36:31,1559273824,b342808402ecdeb2d9494cc1f76f89d2,http://postback.iwoop.com/?token=9PEPQbLgKYqp8avu3Ve2vcfFz4vvWIKk&transaction_id=b342808402ecdeb2d9494cc1f76f89d2,idfa_cc38b6f9-ff67-4823-a864-34e41e0f4f80,ko
tAjVzGzSSOK9SQ6YUVDS3Q,iwoop,3911_73__204,install,0.8,121.126.37.157,a36e832a-50fb-4668-9ea2-dac2959266ed,1559272849,2019-05-31 11:20:49,1559272946,2019-05-31 11:22:26,1559272978,57278c2c2e63b9b320f48d5b6f8639b2,http://postback.iwoop.com/?token=9PEPQbLgKYqp8avu3Ve2vcfFz4vvWIKk&transaction_id=57278c2c2e63b9b320f48d5b6f8639b2,idfa_a36e832a-50fb-4668-9ea2-dac2959266ed,ko
tAjVzGzSSOK9SQ6YUVDS3Q,iwoop,3911_73__204,install,0.8,106.244.232.198,0c81917e-dfc2-486a-bd36-d523f6ceee01,1559273378,2019-05-31 11:29:38,1559273475,2019-05-31 11:31:15,1559273506,b9582d81015c03de4836907f52611bdf,http://postback.iwoop.com/?token=9PEPQbLgKYqp8avu3Ve2vcfFz4vvWIKk&transaction_id=b9582d81015c03de4836907f52611bdf,idfa_0c81917e-dfc2-486a-bd36-d523f6ceee01,ko
tAjVzGzSSOK9SQ6YUVDS3Q,iwoop,3911_73__204,install,0.8,119.199.178.218,466a77ee-5c13-4bbb-8bae-6e01f92f00ed,1559272390,2019-05-31 11:13:10,1559272524,2019-05-31 11:15:24,1559272555,8aed1bd67da559145dfe20daf9b58610,http://postback.iwoop.com/?token=9PEPQbLgKYqp8avu3Ve2vcfFz4vvWIKk&transaction_id=8aed1bd67da559145dfe20daf9b58610,idfa_466a77ee-5c13-4bbb-8bae-6e01f92f00ed,ko
tAjVzGzSSOK9SQ6YUVDS3Q,iwoop,3911_73__204,install,0.8,1.255.147.114,3f4d35f1-f485-458b-be19-84af298ad866,1559273068,2019-05-31 11:24:28,1559273198,2019-05-31 11:26:38,1559273229,5e2e249095965d05bca3a54f2a711d18,http://postback.iwoop.com/?token=9PEPQbLgKYqp8avu3Ve2vcfFz4vvWIKk&transaction_id=5e2e249095965d05bca3a54f2a711d18,idfa_3f4d35f1-f485-458b-be19-84af298ad866,ko
tAjVzGzSSOK9SQ6YUVDS3Q,iwoop,3911_73__204,install,0.8,222.117.211.193,1f74f5d7-e942-4809-bde2-bc3cb74b3169,1559271598,2019-05-31 10:59:58,1559271667,2019-05-31 11:01:07,1559271698,f158f8d8b14f16196b6bc1a7e1dff43c,http://postback.iwoop.com/?token=9PEPQbLgKYqp8avu3Ve2vcfFz4vvWIKk&transaction_id=f158f8d8b14f16196b6bc1a7e1dff43c,idfa_1f74f5d7-e942-4809-bde2-bc3cb74b3169,ko
tAjVzGzSSOK9SQ6YUVDS3Q,iwoop,3911_73__204,install,0.8,121.131.169.245,71aea221-7b00-4988-8fa6-9f42745859a0,1559273670,2019-05-31 11:34:30,1559273829,2019-05-31 11:37:09,1559273861,375bea26c62fde293a9bd15bc30ba18f,http://postback.iwoop.com/?token=9PEPQbLgKYqp8avu3Ve2vcfFz4vvWIKk&transaction_id=375bea26c62fde293a9bd15bc30ba18f,idfa_71aea221-7b00-4988-8fa6-9f42745859a0,ko
tAjVzGzSSOK9SQ6YUVDS3Q,iwoop,3911_73__204,install,0.8,106.246.250.154,6dab65e8-1331-4ce5-b1d1-0e6ab4d4a37c,1559273996,2019-05-31 11:39:56,1559274078,2019-05-31 11:41:18,1559274110,69fb88166ef8dedeebe69dfb776c8771,http://postback.iwoop.com/?token=9PEPQbLgKYqp8avu3Ve2vcfFz4vvWIKk&transaction_id=69fb88166ef8dedeebe69dfb776c8771,idfa_6dab65e8-1331-4ce5-b1d1-0e6ab4d4a37c,ko
tAjVzGzSSOK9SQ6YUVDS3Q,iwoop,3911_73__204,install,0.8,175.197.206.182,609c0f50-cb7c-4be9-afba-f30554ddf60d,1559272066,2019-05-31 11:07:46,1559272156,2019-05-31 11:09:16,1559272188,1bd9702636574733645a02838e1b0260,http://postback.iwoop.com/?token=9PEPQbLgKYqp8avu3Ve2vcfFz4vvWIKk&transaction_id=1bd9702636574733645a02838e1b0260,idfa_609c0f50-cb7c-4be9-afba-f30554ddf60d,ko
tAjVzGzSSOK9SQ6YUVDS3Q,iwoop,3911_73__204,install,0.8,183.103.205.76,823e6580-8911-4a1f-ac34-4f4134ba1db1,1559271857,2019-05-31 11:04:17,1559271941,2019-05-31 11:05:41,1559271973,2ec3d7eb934afb24bbb81e57495c5d8b,http://postback.iwoop.com/?token=9PEPQbLgKYqp8avu3Ve2vcfFz4vvWIKk&transaction_id=2ec3d7eb934afb24bbb81e57495c5d8b,idfa_823e6580-8911-4a1f-ac34-4f4134ba1db1,ko
tAjVzGzSSOK9SQ6YUVDS3Q,iwoop,3911_73__204,install,0.8,183.123.140.105,f6224cf4-aef5-4f64-880a-0ca641ce167c,1559273662,2019-05-31 11:34:22,1559273826,2019-05-31 11:37:06,1559273856,2aad328fa615613fb88f5ff9e8e916bd,http://postback.iwoop.com/?token=9PEPQbLgKYqp8avu3Ve2vcfFz4vvWIKk&transaction_id=2aad328fa615613fb88f5ff9e8e916bd,idfa_f6224cf4-aef5-4f64-880a-0ca641ce167c,ko
tAjVzGzSSOK9SQ6YUVDS3Q,iwoop,3911_73__204,install,0.8,218.159.49.163,7e3fc50e-046b-4072-8b7c-43f0daeb4b75,1559271774,2019-05-31 11:02:54,1559271852,2019-05-31 11:04:12,1559271885,c16fe496fa508567445b07c326a56217,http://postback.iwoop.com/?token=9PEPQbLgKYqp8avu3Ve2vcfFz4vvWIKk&transaction_id=c16fe496fa508567445b07c326a56217,idfa_7e3fc50e-046b-4072-8b7c-43f0daeb4b75,ko
tAjVzGzSSOK9SQ6YUVDS3Q,iwoop,3911_73__204,install,0.8,1.209.187.2,3af25b01-6015-4fcf-8970-75ed45ec9742,1559271318,2019-05-31 10:55:18,1559271388,2019-05-31 10:56:28,1559271420,fb6b0b661c8f3695cc7a5ed0a398ee58,http://postback.iwoop.com/?token=9PEPQbLgKYqp8avu3Ve2vcfFz4vvWIKk&transaction_id=fb6b0b661c8f3695cc7a5ed0a398ee58,idfa_3af25b01-6015-4fcf-8970-75ed45ec9742,ko
tAjVzGzSSOK9SQ6YUVDS3Q,iwoop,3911_73__204,install,0.8,112.216.55.178,6ddf315f-ea86-4dfd-b576-bd6dcf83f827,1559272725,2019-05-31 11:18:45,1559272821,2019-05-31 11:20:21,1559272852,66e5297cdd96090495d922f53b092ffc,http://postback.iwoop.com/?token=9PEPQbLgKYqp8avu3Ve2vcfFz4vvWIKk&transaction_id=66e5297cdd96090495d922f53b092ffc,idfa_6ddf315f-ea86-4dfd-b576-bd6dcf83f827,ko
tAjVzGzSSOK9SQ6YUVDS3Q,iwoop,3911_73__204,install,0.8,221.158.88.250,3d3047de-0042-4fe0-89c9-841fad247162,1559271267,2019-05-31 10:54:27,1559271337,2019-05-31 10:55:37,1559271368,8d58f1141209ab9e30dea7dd964e7fa3,http://postback.iwoop.com/?token=9PEPQbLgKYqp8avu3Ve2vcfFz4vvWIKk&transaction_id=8d58f1141209ab9e30dea7dd964e7fa3,idfa_3d3047de-0042-4fe0-89c9-841fad247162,ko
tAjVzGzSSOK9SQ6YUVDS3Q,iwoop,3911_73__204,install,0.8,112.218.155.92,07191e05-1821-4dcb-8bc4-699b5bfc4565,1559273380,2019-05-31 11:29:40,1559273479,2019-05-31 11:31:19,1559273511,ac1f9a7e8548ed370f377943d8ae95c0,http://postback.iwoop.com/?token=9PEPQbLgKYqp8avu3Ve2vcfFz4vvWIKk&transaction_id=ac1f9a7e8548ed370f377943d8ae95c0,idfa_07191e05-1821-4dcb-8bc4-699b5bfc4565,ko
