cid,partner_id,channel_id,action_id,cpi,ip,idfa,click time,click datetime,install time,install datetime,postback time,click id,postback url,unique user id
VHJH2m2fSteoaj8i0-Xr-w,iwoop,1845_2776_684,install,2.8,180.0.42.51,7733428D-15AB-43E6-9066-AC3D118AB5A4,1558660758,2019-05-24 09:19:18,1558660870,2019-05-24 09:21:10,1558660900,3a1d465bc45c7d34aebd78aa6d4affcf,http://postback.iwoop.com/?token=9PEPQbLgKYqp8avu3Ve2vcfFz4vvWIKk&transaction_id=3a1d465bc45c7d34aebd78aa6d4affcf,idfa_7733428D-15AB-43E6-9066-AC3D118AB5A4,ja
VHJH2m2fSteoaj8i0-Xr-w,iwoop,1845_2776_684,install,2.8,58.91.48.117,0E2C81B7-A554-480C-A200-ADC522AFA59A,1558653696,2019-05-24 07:21:36,1558653806,2019-05-24 07:23:26,1558653836,34840612e2cf1e6273a714cdba01a4b9,http://postback.iwoop.com/?token=9PEPQbLgKYqp8avu3Ve2vcfFz4vvWIKk&transaction_id=34840612e2cf1e6273a714cdba01a4b9,idfa_0E2C81B7-A554-480C-A200-ADC522AFA59A,ja
VHJH2m2fSteoaj8i0-Xr-w,iwoop,1845_2776_684,install,2.8,1.33.141.11,9FF5E434-E774-4A88-AB6E-F51050AA31DC,1558905718,2019-05-27 05:21:58,1558905825,2019-05-27 05:23:45,1558905855,79bd315e7c8085dfb1114394d58b8a4d,http://postback.iwoop.com/?token=9PEPQbLgKYqp8avu3Ve2vcfFz4vvWIKk&transaction_id=79bd315e7c8085dfb1114394d58b8a4d,idfa_9FF5E434-E774-4A88-AB6E-F51050AA31DC,ja
VHJH2m2fSteoaj8i0-Xr-w,iwoop,1845_2776_684,install,2.8,114.153.49.183,C00EB182-329C-4DC8-8B2C-40F3F28B492E,1558562650,2019-05-23 06:04:10,1558562767,2019-05-23 06:06:07,1558562797,d88d3a3d3ea37869e2630cfa71dc8d61,http://postback.iwoop.com/?token=9PEPQbLgKYqp8avu3Ve2vcfFz4vvWIKk&transaction_id=d88d3a3d3ea37869e2630cfa71dc8d61,idfa_C00EB182-329C-4DC8-8B2C-40F3F28B492E,ja
VHJH2m2fSteoaj8i0-Xr-w,iwoop,1845_2776_684,install,2.9,153.200.66.124,D2EDE627-C306-4DB8-A269-E7783227F845,1558095662,2019-05-17 20:21:02,1558095768,2019-05-17 20:22:48,1558095798,54071d355dfc79c04ed898e67c1e39d7,http://postback.iwoop.com/?token=9PEPQbLgKYqp8avu3Ve2vcfFz4vvWIKk&transaction_id=54071d355dfc79c04ed898e67c1e39d7,idfa_D2EDE627-C306-4DB8-A269-E7783227F845,ja
VHJH2m2fSteoaj8i0-Xr-w,iwoop,1845_2776_684,install,2.8,60.143.121.59,A51D0E9F-B4EE-4762-A5D3-FD5977F983BB,1558652990,2019-05-24 07:09:50,1558653097,2019-05-24 07:11:37,1558653127,ae7bb36e3d1769baad75878b1c9e62c4,http://postback.iwoop.com/?token=9PEPQbLgKYqp8avu3Ve2vcfFz4vvWIKk&transaction_id=ae7bb36e3d1769baad75878b1c9e62c4,idfa_A51D0E9F-B4EE-4762-A5D3-FD5977F983BB,ja
VHJH2m2fSteoaj8i0-Xr-w,iwoop,1845_2776_684,install,2.8,111.87.58.130,FFC8D8EE-CB5F-4246-972B-A44630F3F90F,1558993135,2019-05-28 05:38:55,1558993174,2019-05-28 05:39:34,1558993204,8a1b23e092404a31d167d6ef4c5ccdee,http://postback.iwoop.com/?token=9PEPQbLgKYqp8avu3Ve2vcfFz4vvWIKk&transaction_id=8a1b23e092404a31d167d6ef4c5ccdee,idfa_FFC8D8EE-CB5F-4246-972B-A44630F3F90F,ja
VHJH2m2fSteoaj8i0-Xr-w,iwoop,1845_2776_684,install,2.8,131.147.95.25,415D652F-327F-456F-B814-D26DEBCDF71D,1558996818,2019-05-28 06:40:18,1558996935,2019-05-28 06:42:15,1558996965,4888c7d34eda663729b4e7771b83a72f,http://postback.iwoop.com/?token=9PEPQbLgKYqp8avu3Ve2vcfFz4vvWIKk&transaction_id=4888c7d34eda663729b4e7771b83a72f,idfa_415D652F-327F-456F-B814-D26DEBCDF71D,ja
VHJH2m2fSteoaj8i0-Xr-w,iwoop,1845_2776_684,install,2.8,59.168.68.185,1751FD29-703C-4C74-A749-DDDB070CD048,1558908767,2019-05-27 06:12:47,1558908883,2019-05-27 06:14:43,1558908913,074212847f6668fe7ac2e75da6b85b8f,http://postback.iwoop.com/?token=9PEPQbLgKYqp8avu3Ve2vcfFz4vvWIKk&transaction_id=074212847f6668fe7ac2e75da6b85b8f,idfa_1751FD29-703C-4C74-A749-DDDB070CD048,ja
VHJH2m2fSteoaj8i0-Xr-w,iwoop,1845_2776_684,install,2.8,210.139.168.28,719DB144-2D81-4BB0-83A5-107DD5DDA256,1558911027,2019-05-27 06:50:27,1558911140,2019-05-27 06:52:20,1558911170,a1a68c34abd5c8ec70717f28fb8826ab,http://postback.iwoop.com/?token=9PEPQbLgKYqp8avu3Ve2vcfFz4vvWIKk&transaction_id=a1a68c34abd5c8ec70717f28fb8826ab,idfa_719DB144-2D81-4BB0-83A5-107DD5DDA256,ja
VHJH2m2fSteoaj8i0-Xr-w,iwoop,1845_2776_684,install,2.8,180.56.210.46,399BBE09-94E0-458B-B472-170B34BC5729,1558907990,2019-05-27 05:59:50,1558908107,2019-05-27 06:01:47,1558908137,bdb023b51d54ce1d6e67cdf4eb73ab2e,http://postback.iwoop.com/?token=9PEPQbLgKYqp8avu3Ve2vcfFz4vvWIKk&transaction_id=bdb023b51d54ce1d6e67cdf4eb73ab2e,idfa_399BBE09-94E0-458B-B472-170B34BC5729,ja
VHJH2m2fSteoaj8i0-Xr-w,iwoop,1845_2776_684,install,2.8,126.3.234.32,D7A08B8A-0E41-4DA5-AD7C-BFF9B6FE9869,1558658621,2019-05-24 08:43:41,1558658739,2019-05-24 08:45:39,1558658769,5dcd81eb3f94defef6fa018631674d72,http://postback.iwoop.com/?token=9PEPQbLgKYqp8avu3Ve2vcfFz4vvWIKk&transaction_id=5dcd81eb3f94defef6fa018631674d72,idfa_D7A08B8A-0E41-4DA5-AD7C-BFF9B6FE9869,ja
VHJH2m2fSteoaj8i0-Xr-w,iwoop,1845_2776_684,install,2.8,119.31.142.251,9018C3AB-5FC8-47B1-84D5-6C3AAFF15FF5,1558566311,2019-05-23 07:05:11,1558566425,2019-05-23 07:07:05,1558566455,371f8f390712fb8a57a3baf210acd1dd,http://postback.iwoop.com/?token=9PEPQbLgKYqp8avu3Ve2vcfFz4vvWIKk&transaction_id=371f8f390712fb8a57a3baf210acd1dd,idfa_9018C3AB-5FC8-47B1-84D5-6C3AAFF15FF5,ja
VHJH2m2fSteoaj8i0-Xr-w,iwoop,1845_2776_684,install,2.8,101.142.166.10,7824FAC7-5AC6-486D-B41A-0D75D7D5E0B8,1558659904,2019-05-24 09:05:04,1558660019,2019-05-24 09:06:59,1558660049,ee8c79ae8bd219ca8cad01a901655b97,http://postback.iwoop.com/?token=9PEPQbLgKYqp8avu3Ve2vcfFz4vvWIKk&transaction_id=ee8c79ae8bd219ca8cad01a901655b97,idfa_7824FAC7-5AC6-486D-B41A-0D75D7D5E0B8,ja
VHJH2m2fSteoaj8i0-Xr-w,iwoop,1845_2776_684,install,2.8,118.108.208.205,AADABA61-107D-4E46-8604-6DC2417BC97B,1558909413,2019-05-27 06:23:33,1558909524,2019-05-27 06:25:24,1558909555,9cb49e1cf5700e61602a580d8ea21d38,http://postback.iwoop.com/?token=9PEPQbLgKYqp8avu3Ve2vcfFz4vvWIKk&transaction_id=9cb49e1cf5700e61602a580d8ea21d38,idfa_AADABA61-107D-4E46-8604-6DC2417BC97B,ja
VHJH2m2fSteoaj8i0-Xr-w,iwoop,1845_2776_684,install,2.8,115.177.49.120,BBC5594B-0042-483B-8555-B236B3801D21,1558994106,2019-05-28 05:55:06,1558994217,2019-05-28 05:56:57,1558994247,b5ac545e87503d219604520f62d8666c,http://postback.iwoop.com/?token=9PEPQbLgKYqp8avu3Ve2vcfFz4vvWIKk&transaction_id=b5ac545e87503d219604520f62d8666c,idfa_BBC5594B-0042-483B-8555-B236B3801D21,ja
VHJH2m2fSteoaj8i0-Xr-w,iwoop,1845_2776_684,install,2.8,114.19.141.251,10E060DF-67B7-43FB-82E4-7C8AF520845A,1558906011,2019-05-27 05:26:51,1558906131,2019-05-27 05:28:51,1558906161,9ed5fb8e6d196e813ba5d45c9173a505,http://postback.iwoop.com/?token=9PEPQbLgKYqp8avu3Ve2vcfFz4vvWIKk&transaction_id=9ed5fb8e6d196e813ba5d45c9173a505,idfa_10E060DF-67B7-43FB-82E4-7C8AF520845A,ja
VHJH2m2fSteoaj8i0-Xr-w,iwoop,1845_2776_684,install,2.8,125.204.223.107,3E20691E-E753-4921-81D0-A4647E823E3E,1558819949,2019-05-26 05:32:29,1558820115,2019-05-26 05:35:15,1558820145,721c8ade08855bb01d765e5fbd2fa15d,http://postback.iwoop.com/?token=9PEPQbLgKYqp8avu3Ve2vcfFz4vvWIKk&transaction_id=721c8ade08855bb01d765e5fbd2fa15d,idfa_3E20691E-E753-4921-81D0-A4647E823E3E,ja
VHJH2m2fSteoaj8i0-Xr-w,iwoop,1845_2776_684,install,2.8,221.190.155.54,4E5F4F6A-B9D7-47D1-A53E-6EA80012A0AA,1557822465,2019-05-14 16:27:45,1557822539,2019-05-14 16:28:59,1557822569,9808ef1b626fca5f44bf95d2b600919d,http://postback.iwoop.com/?token=9PEPQbLgKYqp8avu3Ve2vcfFz4vvWIKk&transaction_id=9808ef1b626fca5f44bf95d2b600919d,idfa_4E5F4F6A-B9D7-47D1-A53E-6EA80012A0AA,ja
VHJH2m2fSteoaj8i0-Xr-w,iwoop,1845_2776_684,install,2.8,27.143.10.195,C3B1A4B7-DFE4-468D-9646-818E234DF4AF,1557826823,2019-05-14 17:40:23,1557826897,2019-05-14 17:41:37,1557826928,7994c52e744cde0bef0499b069ca7a39,http://postback.iwoop.com/?token=9PEPQbLgKYqp8avu3Ve2vcfFz4vvWIKk&transaction_id=7994c52e744cde0bef0499b069ca7a39,idfa_C3B1A4B7-DFE4-468D-9646-818E234DF4AF,ja
VHJH2m2fSteoaj8i0-Xr-w,iwoop,1845_2776_684,install,2.8,175.131.191.112,6C624FDE-8196-4A2E-AE71-A9CE0D11E07A,1558820866,2019-05-26 05:47:46,1558820935,2019-05-26 05:48:55,1558820967,65481c9964c0f155a7bdc42eb51a59bb,http://postback.iwoop.com/?token=9PEPQbLgKYqp8avu3Ve2vcfFz4vvWIKk&transaction_id=65481c9964c0f155a7bdc42eb51a59bb,idfa_6C624FDE-8196-4A2E-AE71-A9CE0D11E07A,ja
VHJH2m2fSteoaj8i0-Xr-w,iwoop,1845_2776_684,install,2.8,219.123.12.241,986F9323-CFA1-4AB4-A2B9-04203E301A9F,1558564165,2019-05-23 06:29:25,1558564237,2019-05-23 06:30:37,1558564334,689658f210d5e24726dc9edc07b4cc71,http://postback.iwoop.com/?token=9PEPQbLgKYqp8avu3Ve2vcfFz4vvWIKk&transaction_id=689658f210d5e24726dc9edc07b4cc71,idfa_986F9323-CFA1-4AB4-A2B9-04203E301A9F,ja
VHJH2m2fSteoaj8i0-Xr-w,iwoop,1845_2776_684,install,2.8,180.0.177.25,A9324BB1-2D6B-4368-9384-B239AC6595D5,1558660589,2019-05-24 09:16:29,1558660703,2019-05-24 09:18:23,1558660733,2737f98d37d5eaaa208493b74c69463c,http://postback.iwoop.com/?token=9PEPQbLgKYqp8avu3Ve2vcfFz4vvWIKk&transaction_id=2737f98d37d5eaaa208493b74c69463c,idfa_A9324BB1-2D6B-4368-9384-B239AC6595D5,ja
VHJH2m2fSteoaj8i0-Xr-w,iwoop,1845_2776_684,install,2.8,126.225.68.70,B3190499-96D9-459E-9E82-F475CB602782,1558739436,2019-05-25 07:10:36,1558739549,2019-05-25 07:12:29,1558739580,a3e969d3b863ea3dac2537ad5fbc8963,http://postback.iwoop.com/?token=9PEPQbLgKYqp8avu3Ve2vcfFz4vvWIKk&transaction_id=a3e969d3b863ea3dac2537ad5fbc8963,idfa_B3190499-96D9-459E-9E82-F475CB602782,ja
VHJH2m2fSteoaj8i0-Xr-w,iwoop,1845_2776_684,install,2.8,182.20.95.186,E996668A-1509-485F-BC8F-008325222C0A,1558655119,2019-05-24 07:45:19,1558655253,2019-05-24 07:47:33,1558655283,e7ad176683076947ece91ca333844fc2,http://postback.iwoop.com/?token=9PEPQbLgKYqp8avu3Ve2vcfFz4vvWIKk&transaction_id=e7ad176683076947ece91ca333844fc2,idfa_E996668A-1509-485F-BC8F-008325222C0A,ja
VHJH2m2fSteoaj8i0-Xr-w,iwoop,1845_2776_684,install,2.8,126.33.203.53,596316AA-4939-48F4-81F5-65E9CC10F85C,1558653584,2019-05-24 07:19:44,1558653698,2019-05-24 07:21:38,1558653728,fee01268da2a0773e5451a1eda0b49a5,http://postback.iwoop.com/?token=9PEPQbLgKYqp8avu3Ve2vcfFz4vvWIKk&transaction_id=fee01268da2a0773e5451a1eda0b49a5,idfa_596316AA-4939-48F4-81F5-65E9CC10F85C,ja
VHJH2m2fSteoaj8i0-Xr-w,iwoop,1845_2776_684,install,2.8,202.137.41.189,C6F1C0C5-A0BF-4E59-BAE3-396DADFFB47D,1558565337,2019-05-23 06:48:57,1558565427,2019-05-23 06:50:27,1558565457,9e236e0c450db5e69eb0996dd84f8870,http://postback.iwoop.com/?token=9PEPQbLgKYqp8avu3Ve2vcfFz4vvWIKk&transaction_id=9e236e0c450db5e69eb0996dd84f8870,idfa_C6F1C0C5-A0BF-4E59-BAE3-396DADFFB47D,ja
VHJH2m2fSteoaj8i0-Xr-w,iwoop,1845_2776_684,install,2.8,126.161.157.96,62E35D9E-13E8-487D-A893-EBA6831C8FB0,1558999642,2019-05-28 07:27:22,1558999754,2019-05-28 07:29:14,1558999786,faeb221a67efd2f8e92a1ffa65b00aeb,http://postback.iwoop.com/?token=9PEPQbLgKYqp8avu3Ve2vcfFz4vvWIKk&transaction_id=faeb221a67efd2f8e92a1ffa65b00aeb,idfa_62E35D9E-13E8-487D-A893-EBA6831C8FB0,ja
VHJH2m2fSteoaj8i0-Xr-w,iwoop,1845_2776_684,install,2.8,124.98.171.141,AE1B893F-25DC-4925-8E98-6E6C996CAB60,1558738624,2019-05-25 06:57:04,1558738740,2019-05-25 06:59:00,1558738770,0b1b4d9af00f8c80cf3e8c58a69522b5,http://postback.iwoop.com/?token=9PEPQbLgKYqp8avu3Ve2vcfFz4vvWIKk&transaction_id=0b1b4d9af00f8c80cf3e8c58a69522b5,idfa_AE1B893F-25DC-4925-8E98-6E6C996CAB60,ja
VHJH2m2fSteoaj8i0-Xr-w,iwoop,1845_2776_684,install,2.8,14.12.136.64,1B74E0B7-2089-4906-B6D2-B83627F9D998,1558914102,2019-05-27 07:41:42,1558914208,2019-05-27 07:43:28,1558914238,ca339929c344b7c06990f802a40265fb,http://postback.iwoop.com/?token=9PEPQbLgKYqp8avu3Ve2vcfFz4vvWIKk&transaction_id=ca339929c344b7c06990f802a40265fb,idfa_1B74E0B7-2089-4906-B6D2-B83627F9D998,ja
VHJH2m2fSteoaj8i0-Xr-w,iwoop,1845_2776_684,install,2.8,125.193.94.17,FA3ED9A8-864A-4047-9D02-A6348B4484CB,1558906648,2019-05-27 05:37:28,1558906756,2019-05-27 05:39:16,1558906787,eea06c37f0e911aeb1ec98759f9a7924,http://postback.iwoop.com/?token=9PEPQbLgKYqp8avu3Ve2vcfFz4vvWIKk&transaction_id=eea06c37f0e911aeb1ec98759f9a7924,idfa_FA3ED9A8-864A-4047-9D02-A6348B4484CB,ja
VHJH2m2fSteoaj8i0-Xr-w,iwoop,1845_2776_684,install,2.8,60.46.235.232,9FCAAC9B-CB94-4609-B641-DD8A4C1C796C,1557823431,2019-05-14 16:43:51,1557823493,2019-05-14 16:44:53,1557823523,204b95299087f80d47d4eda189d7523a,http://postback.iwoop.com/?token=9PEPQbLgKYqp8avu3Ve2vcfFz4vvWIKk&transaction_id=204b95299087f80d47d4eda189d7523a,idfa_9FCAAC9B-CB94-4609-B641-DD8A4C1C796C,ja
VHJH2m2fSteoaj8i0-Xr-w,iwoop,1845_2776_684,install,2.8,119.242.208.134,4D613566-A778-4454-ABAA-038A05204085,1558995147,2019-05-28 06:12:27,1558995265,2019-05-28 06:14:25,1558995295,0baf56e82ef3f73f39e1bfe3a7e20d1e,http://postback.iwoop.com/?token=9PEPQbLgKYqp8avu3Ve2vcfFz4vvWIKk&transaction_id=0baf56e82ef3f73f39e1bfe3a7e20d1e,idfa_4D613566-A778-4454-ABAA-038A05204085,ja
VHJH2m2fSteoaj8i0-Xr-w,iwoop,1845_2776_684,install,2.8,101.142.166.10,FF927E87-35FE-4F54-8FC9-2E51EC31D64C,1558659643,2019-05-24 09:00:43,1558659752,2019-05-24 09:02:32,1558659782,1b8a8854b6d39897ffb5de4c9aa06de3,http://postback.iwoop.com/?token=9PEPQbLgKYqp8avu3Ve2vcfFz4vvWIKk&transaction_id=1b8a8854b6d39897ffb5de4c9aa06de3,idfa_FF927E87-35FE-4F54-8FC9-2E51EC31D64C,ja
VHJH2m2fSteoaj8i0-Xr-w,iwoop,1845_2776_684,install,2.8,183.86.50.186,FC45873C-13AF-4DF8-8ACB-A41265324192,1558825682,2019-05-26 07:08:02,1558825783,2019-05-26 07:09:43,1558825813,9ecd271ba24e48dbb563c4b502637ab8,http://postback.iwoop.com/?token=9PEPQbLgKYqp8avu3Ve2vcfFz4vvWIKk&transaction_id=9ecd271ba24e48dbb563c4b502637ab8,idfa_FC45873C-13AF-4DF8-8ACB-A41265324192,ja
VHJH2m2fSteoaj8i0-Xr-w,iwoop,1845_2776_684,install,2.8,115.177.51.197,E4CF7027-A945-4739-946B-169D0A5F5F85,1558660494,2019-05-24 09:14:54,1558660606,2019-05-24 09:16:46,1558660636,d8f4c3d447dbdee76d480f60c915291a,http://postback.iwoop.com/?token=9PEPQbLgKYqp8avu3Ve2vcfFz4vvWIKk&transaction_id=d8f4c3d447dbdee76d480f60c915291a,idfa_E4CF7027-A945-4739-946B-169D0A5F5F85,ja
VHJH2m2fSteoaj8i0-Xr-w,iwoop,1845_2776_684,install,2.8,157.107.83.97,E4F8C2B5-59D2-44A7-BCDB-64A398CA7745,1558661690,2019-05-24 09:34:50,1558661803,2019-05-24 09:36:43,1558661833,ebd60bc6d76ce7194444b3d93e02e3d6,http://postback.iwoop.com/?token=9PEPQbLgKYqp8avu3Ve2vcfFz4vvWIKk&transaction_id=ebd60bc6d76ce7194444b3d93e02e3d6,idfa_E4F8C2B5-59D2-44A7-BCDB-64A398CA7745,ja
VHJH2m2fSteoaj8i0-Xr-w,iwoop,1845_2776_684,install,2.8,180.14.171.115,96A306C7-6C2E-4BCE-B60D-307092D54472,1557826080,2019-05-14 17:28:00,1557826148,2019-05-14 17:29:08,1557826178,c50fc5244a314e8f6d3941886302e2ed,http://postback.iwoop.com/?token=9PEPQbLgKYqp8avu3Ve2vcfFz4vvWIKk&transaction_id=c50fc5244a314e8f6d3941886302e2ed,idfa_96A306C7-6C2E-4BCE-B60D-307092D54472,ja
VHJH2m2fSteoaj8i0-Xr-w,iwoop,1845_2776_684,install,2.8,220.208.11.131,F80D944F-A1F4-407A-9B77-2399660614E5,1558826940,2019-05-26 07:29:00,1558827015,2019-05-26 07:30:15,1558827046,8996a3763e8c4aadd054c59b708b7466,http://postback.iwoop.com/?token=9PEPQbLgKYqp8avu3Ve2vcfFz4vvWIKk&transaction_id=8996a3763e8c4aadd054c59b708b7466,idfa_F80D944F-A1F4-407A-9B77-2399660614E5,ja
VHJH2m2fSteoaj8i0-Xr-w,iwoop,1845_2776_684,install,2.8,221.12.228.130,38FBB35F-4798-4D95-BFC5-1467980C4B42,1559093246,2019-05-29 09:27:26,1559093366,2019-05-29 09:29:26,1559093396,fc41e0ca185af1217ffbf5aea049d259,http://postback.iwoop.com/?token=9PEPQbLgKYqp8avu3Ve2vcfFz4vvWIKk&transaction_id=fc41e0ca185af1217ffbf5aea049d259,idfa_38FBB35F-4798-4D95-BFC5-1467980C4B42,ja
VHJH2m2fSteoaj8i0-Xr-w,iwoop,1845_2776_684,install,2.8,59.190.118.85,9C00641F-585B-42F8-BB7F-1EE442B8B046,1558738808,2019-05-25 07:00:08,1558738931,2019-05-25 07:02:11,1558738961,881d69674a433e757eaac23c60d9e127,http://postback.iwoop.com/?token=9PEPQbLgKYqp8avu3Ve2vcfFz4vvWIKk&transaction_id=881d69674a433e757eaac23c60d9e127,idfa_9C00641F-585B-42F8-BB7F-1EE442B8B046,ja
VHJH2m2fSteoaj8i0-Xr-w,iwoop,1845_2776_684,install,2.8,61.214.197.188,113C17DD-293A-4A75-850B-070C6889141A,1558915200,2019-05-27 08:00:00,1558915315,2019-05-27 08:01:55,1558915346,a9e37c953be7015aba7b3089c90dc533,http://postback.iwoop.com/?token=9PEPQbLgKYqp8avu3Ve2vcfFz4vvWIKk&transaction_id=a9e37c953be7015aba7b3089c90dc533,idfa_113C17DD-293A-4A75-850B-070C6889141A,ja
VHJH2m2fSteoaj8i0-Xr-w,iwoop,1845_2776_684,install,2.8,119.106.103.193,3EE813BD-ADA4-4854-8818-62C28EBE86A4,1558740972,2019-05-25 07:36:12,1558741008,2019-05-25 07:36:48,1558741038,aad5c9904c442615f4308bc2ec54b3cf,http://postback.iwoop.com/?token=9PEPQbLgKYqp8avu3Ve2vcfFz4vvWIKk&transaction_id=aad5c9904c442615f4308bc2ec54b3cf,idfa_3EE813BD-ADA4-4854-8818-62C28EBE86A4,ja
VHJH2m2fSteoaj8i0-Xr-w,iwoop,1845_2776_684,install,2.8,126.80.65.188,D3821839-9CC9-4D68-88EF-A0BB95485335,1558659300,2019-05-24 08:55:00,1558659322,2019-05-24 08:55:22,1558659352,d3cea807707ca05b952b05d4c078f9ae,http://postback.iwoop.com/?token=9PEPQbLgKYqp8avu3Ve2vcfFz4vvWIKk&transaction_id=d3cea807707ca05b952b05d4c078f9ae,idfa_D3821839-9CC9-4D68-88EF-A0BB95485335,ja
VHJH2m2fSteoaj8i0-Xr-w,iwoop,1845_2776_684,install,2.8,106.170.181.200,49303978-C7B1-4A6E-99E9-20D5834CA530,1558562991,2019-05-23 06:09:51,1558563098,2019-05-23 06:11:38,1558563129,9c61794bcf05eb8ab4588c1421eb2de3,http://postback.iwoop.com/?token=9PEPQbLgKYqp8avu3Ve2vcfFz4vvWIKk&transaction_id=9c61794bcf05eb8ab4588c1421eb2de3,idfa_49303978-C7B1-4A6E-99E9-20D5834CA530,ja
VHJH2m2fSteoaj8i0-Xr-w,iwoop,1845_2776_684,install,2.8,114.188.17.91,B75B3BC3-6C24-47DD-98DB-96EC98B8BE66,1558742320,2019-05-25 07:58:40,1558742377,2019-05-25 07:59:37,1558742407,7d6223bcb42e8498dcf2b7b6cf5c9470,http://postback.iwoop.com/?token=9PEPQbLgKYqp8avu3Ve2vcfFz4vvWIKk&transaction_id=7d6223bcb42e8498dcf2b7b6cf5c9470,idfa_B75B3BC3-6C24-47DD-98DB-96EC98B8BE66,ja
VHJH2m2fSteoaj8i0-Xr-w,iwoop,1845_2776_684,install,2.8,118.17.137.52,00522BAE-D50D-42A3-991A-4C58A502D983,1558993357,2019-05-28 05:42:37,1558993470,2019-05-28 05:44:30,1558993500,88952301a27729ac441570e38fa8fd29,http://postback.iwoop.com/?token=9PEPQbLgKYqp8avu3Ve2vcfFz4vvWIKk&transaction_id=88952301a27729ac441570e38fa8fd29,idfa_00522BAE-D50D-42A3-991A-4C58A502D983,ja
VHJH2m2fSteoaj8i0-Xr-w,iwoop,1845_2776_684,install,2.8,126.151.33.218,484ABF63-05F4-4CB7-9C0A-BF0CD0C1E60F,1558910989,2019-05-27 06:49:49,1558911101,2019-05-27 06:51:41,1558911131,17722a72ad80cc6cb964fac5ced29fee,http://postback.iwoop.com/?token=9PEPQbLgKYqp8avu3Ve2vcfFz4vvWIKk&transaction_id=17722a72ad80cc6cb964fac5ced29fee,idfa_484ABF63-05F4-4CB7-9C0A-BF0CD0C1E60F,ja
VHJH2m2fSteoaj8i0-Xr-w,iwoop,1845_2776_684,install,2.8,114.149.168.81,A63470DF-A743-4AFC-BB75-FF1B07FDC6DF,1559000313,2019-05-28 07:38:33,1559000433,2019-05-28 07:40:33,1559000463,6a9a6d9fa29b1575e1553c0e31c57e7d,http://postback.iwoop.com/?token=9PEPQbLgKYqp8avu3Ve2vcfFz4vvWIKk&transaction_id=6a9a6d9fa29b1575e1553c0e31c57e7d,idfa_A63470DF-A743-4AFC-BB75-FF1B07FDC6DF,ja
VHJH2m2fSteoaj8i0-Xr-w,iwoop,1845_2776_684,install,2.8,60.238.144.241,36D800FB-907B-4BB5-B947-F355CA9F6DEB,1558992434,2019-05-28 05:27:14,1558992553,2019-05-28 05:29:13,1558992583,e53c7b771c84b9641f6e4c78a9c47273,http://postback.iwoop.com/?token=9PEPQbLgKYqp8avu3Ve2vcfFz4vvWIKk&transaction_id=e53c7b771c84b9641f6e4c78a9c47273,idfa_36D800FB-907B-4BB5-B947-F355CA9F6DEB,ja
VHJH2m2fSteoaj8i0-Xr-w,iwoop,1845_2776_684,install,2.8,125.1.42.43,815E3610-DDDA-47EA-95AE-F81B6BAC12A2,1557823564,2019-05-14 16:46:04,1557823697,2019-05-14 16:48:17,1557823728,f7e23244be0b8e9f4f54a38c3eccf5d0,http://postback.iwoop.com/?token=9PEPQbLgKYqp8avu3Ve2vcfFz4vvWIKk&transaction_id=f7e23244be0b8e9f4f54a38c3eccf5d0,idfa_815E3610-DDDA-47EA-95AE-F81B6BAC12A2,ja
VHJH2m2fSteoaj8i0-Xr-w,iwoop,1845_2776_684,install,2.8,182.21.69.202,7BFDE042-2A4C-4635-A13A-108E493DC4F1,1558742578,2019-05-25 08:02:58,1558742693,2019-05-25 08:04:53,1558742723,51f738ce60288c13440b3546ccfd4bb6,http://postback.iwoop.com/?token=9PEPQbLgKYqp8avu3Ve2vcfFz4vvWIKk&transaction_id=51f738ce60288c13440b3546ccfd4bb6,idfa_7BFDE042-2A4C-4635-A13A-108E493DC4F1,ja
VHJH2m2fSteoaj8i0-Xr-w,iwoop,1845_2776_684,install,2.8,221.82.241.125,98968E38-3D9E-48E1-BA08-A75101BAB6D9,1558821050,2019-05-26 05:50:50,1558821160,2019-05-26 05:52:40,1558821191,caa9468bb339d2f0da6905903905dcbb,http://postback.iwoop.com/?token=9PEPQbLgKYqp8avu3Ve2vcfFz4vvWIKk&transaction_id=caa9468bb339d2f0da6905903905dcbb,idfa_98968E38-3D9E-48E1-BA08-A75101BAB6D9,ja
VHJH2m2fSteoaj8i0-Xr-w,iwoop,1845_2776_684,install,2.8,111.96.3.97,3D30A1E8-4B90-45B7-8FEF-B62ECF263A96,1558736538,2019-05-25 06:22:18,1558736648,2019-05-25 06:24:08,1558736678,ed0236cc7538130181736c63dd3ee596,http://postback.iwoop.com/?token=9PEPQbLgKYqp8avu3Ve2vcfFz4vvWIKk&transaction_id=ed0236cc7538130181736c63dd3ee596,idfa_3D30A1E8-4B90-45B7-8FEF-B62ECF263A96,ja
VHJH2m2fSteoaj8i0-Xr-w,iwoop,1845_2776_684,install,2.8,126.207.29.183,CC8576C1-6F50-4E4D-97C2-E8ACE30522ED,1559093319,2019-05-29 09:28:39,1559093436,2019-05-29 09:30:36,1559093466,cdd94942c4d76e6f49f9a073ab4ac93f,http://postback.iwoop.com/?token=9PEPQbLgKYqp8avu3Ve2vcfFz4vvWIKk&transaction_id=cdd94942c4d76e6f49f9a073ab4ac93f,idfa_CC8576C1-6F50-4E4D-97C2-E8ACE30522ED,ja
VHJH2m2fSteoaj8i0-Xr-w,iwoop,1845_2776_684,install,2.8,115.31.21.63,6727791E-AB0B-4F49-AB56-8AE0AF1066A6,1558994673,2019-05-28 06:04:33,1558994785,2019-05-28 06:06:25,1558994815,1f976ebb7e1fe0d020855ffae9cf475b,http://postback.iwoop.com/?token=9PEPQbLgKYqp8avu3Ve2vcfFz4vvWIKk&transaction_id=1f976ebb7e1fe0d020855ffae9cf475b,idfa_6727791E-AB0B-4F49-AB56-8AE0AF1066A6,ja
VHJH2m2fSteoaj8i0-Xr-w,iwoop,1845_2776_684,install,2.8,106.186.235.30,58D2FCBD-7570-4CE1-956B-D3C3ACF85D83,1558822652,2019-05-26 06:17:32,1558822741,2019-05-26 06:19:01,1558822771,cc8d1dcfbf03a131b51520ca6f48f80b,http://postback.iwoop.com/?token=9PEPQbLgKYqp8avu3Ve2vcfFz4vvWIKk&transaction_id=cc8d1dcfbf03a131b51520ca6f48f80b,idfa_58D2FCBD-7570-4CE1-956B-D3C3ACF85D83,ja
VHJH2m2fSteoaj8i0-Xr-w,iwoop,1845_2776_684,install,2.8,124.214.38.234,0A4827D4-81C3-403C-847F-8634C90D11ED,1558911933,2019-05-27 07:05:33,1558912052,2019-05-27 07:07:32,1558912082,26e44432d0b4cb823a3366a653173a67,http://postback.iwoop.com/?token=9PEPQbLgKYqp8avu3Ve2vcfFz4vvWIKk&transaction_id=26e44432d0b4cb823a3366a653173a67,idfa_0A4827D4-81C3-403C-847F-8634C90D11ED,ja
VHJH2m2fSteoaj8i0-Xr-w,iwoop,1845_2776_684,install,2.8,153.186.40.23,34502A2C-D379-465C-806E-D7CDA4F57345,1558563993,2019-05-23 06:26:33,1558564070,2019-05-23 06:27:50,1558564100,032027b44c1ab527d262b2aeb06eb7a3,http://postback.iwoop.com/?token=9PEPQbLgKYqp8avu3Ve2vcfFz4vvWIKk&transaction_id=032027b44c1ab527d262b2aeb06eb7a3,idfa_34502A2C-D379-465C-806E-D7CDA4F57345,ja
VHJH2m2fSteoaj8i0-Xr-w,iwoop,1845_2776_684,install,2.8,180.56.71.229,5CB90DA2-515C-445E-90E1-C0B69D78A517,1558907699,2019-05-27 05:54:59,1558907818,2019-05-27 05:56:58,1558907848,7611bf504c89d8b289e8139df7fbb9b8,http://postback.iwoop.com/?token=9PEPQbLgKYqp8avu3Ve2vcfFz4vvWIKk&transaction_id=7611bf504c89d8b289e8139df7fbb9b8,idfa_5CB90DA2-515C-445E-90E1-C0B69D78A517,ja
VHJH2m2fSteoaj8i0-Xr-w,iwoop,1845_2776_684,install,2.8,60.92.121.142,87356BD6-29B7-4533-AC8A-4590747951A1,1558736330,2019-05-25 06:18:50,1558736436,2019-05-25 06:20:36,1558736466,6890c092d186034c902d5d3a91dbf6cf,http://postback.iwoop.com/?token=9PEPQbLgKYqp8avu3Ve2vcfFz4vvWIKk&transaction_id=6890c092d186034c902d5d3a91dbf6cf,idfa_87356BD6-29B7-4533-AC8A-4590747951A1,ja
VHJH2m2fSteoaj8i0-Xr-w,iwoop,1845_2776_684,install,2.8,119.173.88.121,2F393464-94B6-4922-8035-3891E2A3DB16,1558910317,2019-05-27 06:38:37,1558910435,2019-05-27 06:40:35,1558910465,3734aeb60c5fd1924118fdb5dda98f53,http://postback.iwoop.com/?token=9PEPQbLgKYqp8avu3Ve2vcfFz4vvWIKk&transaction_id=3734aeb60c5fd1924118fdb5dda98f53,idfa_2F393464-94B6-4922-8035-3891E2A3DB16,ja
VHJH2m2fSteoaj8i0-Xr-w,iwoop,1845_2776_684,install,2.8,59.191.156.81,292BB38A-CA66-44A9-993A-E6C4722A9749,1558734066,2019-05-25 05:41:06,1558734174,2019-05-25 05:42:54,1558734205,3d4775ff6adbdfb948bb77ea6eea7880,http://postback.iwoop.com/?token=9PEPQbLgKYqp8avu3Ve2vcfFz4vvWIKk&transaction_id=3d4775ff6adbdfb948bb77ea6eea7880,idfa_292BB38A-CA66-44A9-993A-E6C4722A9749,ja
VHJH2m2fSteoaj8i0-Xr-w,iwoop,1845_2776_684,install,2.8,112.71.215.62,42C8E363-1C1C-4AAF-9104-2544607D748B,1558914770,2019-05-27 07:52:50,1558914872,2019-05-27 07:54:32,1558914903,0700edae403411a4479f4ff3fdd10304,http://postback.iwoop.com/?token=9PEPQbLgKYqp8avu3Ve2vcfFz4vvWIKk&transaction_id=0700edae403411a4479f4ff3fdd10304,idfa_42C8E363-1C1C-4AAF-9104-2544607D748B,ja
VHJH2m2fSteoaj8i0-Xr-w,iwoop,1845_2776_684,install,2.8,126.94.219.117,D5DACEDE-49B6-49BB-9B2B-B39ABE1C20B5,1558915190,2019-05-27 07:59:50,1558915297,2019-05-27 08:01:37,1558915327,046994d8272600f3ededd327d1ed4814,http://postback.iwoop.com/?token=9PEPQbLgKYqp8avu3Ve2vcfFz4vvWIKk&transaction_id=046994d8272600f3ededd327d1ed4814,idfa_D5DACEDE-49B6-49BB-9B2B-B39ABE1C20B5,ja
VHJH2m2fSteoaj8i0-Xr-w,iwoop,1845_2776_684,install,2.8,14.133.131.100,2A540ECE-6F17-4543-B969-BE0A642546EA,1558657719,2019-05-24 08:28:39,1558657831,2019-05-24 08:30:31,1558657861,2cb6a5a1e2b3d9c68a63688fae042a7c,http://postback.iwoop.com/?token=9PEPQbLgKYqp8avu3Ve2vcfFz4vvWIKk&transaction_id=2cb6a5a1e2b3d9c68a63688fae042a7c,idfa_2A540ECE-6F17-4543-B969-BE0A642546EA,ja
VHJH2m2fSteoaj8i0-Xr-w,iwoop,1845_2776_684,install,2.8,111.89.69.58,AEEDD970-B8AC-4099-BDA0-3FD93BA80BFF,1558992578,2019-05-28 05:29:38,1558992697,2019-05-28 05:31:37,1558992727,29ba25c48b0e4cfc6b3994432044d674,http://postback.iwoop.com/?token=9PEPQbLgKYqp8avu3Ve2vcfFz4vvWIKk&transaction_id=29ba25c48b0e4cfc6b3994432044d674,idfa_AEEDD970-B8AC-4099-BDA0-3FD93BA80BFF,ja
VHJH2m2fSteoaj8i0-Xr-w,iwoop,1845_2776_684,install,2.8,124.18.214.113,356B114A-55D3-499D-9028-586CC914303E,1558656055,2019-05-24 08:00:55,1558656173,2019-05-24 08:02:53,1558656203,1ca8d2b5ed263afbd95b8a8a63aeca30,http://postback.iwoop.com/?token=9PEPQbLgKYqp8avu3Ve2vcfFz4vvWIKk&transaction_id=1ca8d2b5ed263afbd95b8a8a63aeca30,idfa_356B114A-55D3-499D-9028-586CC914303E,ja
VHJH2m2fSteoaj8i0-Xr-w,iwoop,1845_2776_684,install,2.8,114.142.59.243,2F0A822D-038B-4FCC-A19F-BD9EAF6F453B,1558656764,2019-05-24 08:12:44,1558656871,2019-05-24 08:14:31,1558656901,ce08d88e4141c0244f0e956d7eff644b,http://postback.iwoop.com/?token=9PEPQbLgKYqp8avu3Ve2vcfFz4vvWIKk&transaction_id=ce08d88e4141c0244f0e956d7eff644b,idfa_2F0A822D-038B-4FCC-A19F-BD9EAF6F453B,ja
VHJH2m2fSteoaj8i0-Xr-w,iwoop,1845_2776_684,install,2.8,112.137.240.54,A9F0D882-4594-407F-85F6-698E904CC8CD,1558733826,2019-05-25 05:37:06,1558733934,2019-05-25 05:38:54,1558733965,a7dd2d7fb01171390f881c5268db67ee,http://postback.iwoop.com/?token=9PEPQbLgKYqp8avu3Ve2vcfFz4vvWIKk&transaction_id=a7dd2d7fb01171390f881c5268db67ee,idfa_A9F0D882-4594-407F-85F6-698E904CC8CD,ja
VHJH2m2fSteoaj8i0-Xr-w,iwoop,1845_2776_684,install,2.8,114.188.115.98,480D044E-CE38-400D-8A94-FEF253F9A539,1559093958,2019-05-29 09:39:18,1559094069,2019-05-29 09:41:09,1559094099,c13fc49a9f670fc330729b9b18b5f0f6,http://postback.iwoop.com/?token=9PEPQbLgKYqp8avu3Ve2vcfFz4vvWIKk&transaction_id=c13fc49a9f670fc330729b9b18b5f0f6,idfa_480D044E-CE38-400D-8A94-FEF253F9A539,ja
VHJH2m2fSteoaj8i0-Xr-w,iwoop,1845_2776_684,install,2.8,121.111.26.69,B6020AE6-0B27-4A51-B16C-F863081A5494,1558735482,2019-05-25 06:04:42,1558735518,2019-05-25 06:05:18,1558735548,ff5ab7c8b0997ff5a075a83475fe8fce,http://postback.iwoop.com/?token=9PEPQbLgKYqp8avu3Ve2vcfFz4vvWIKk&transaction_id=ff5ab7c8b0997ff5a075a83475fe8fce,idfa_B6020AE6-0B27-4A51-B16C-F863081A5494,ja
VHJH2m2fSteoaj8i0-Xr-w,iwoop,1845_2776_684,install,2.8,118.104.21.158,1C1E55EB-6492-4DD4-8850-DE0DFEF20D6E,1557826299,2019-05-14 17:31:39,1557826362,2019-05-14 17:32:42,1557826392,448187972ba7d9ebe66b75520e15d329,http://postback.iwoop.com/?token=9PEPQbLgKYqp8avu3Ve2vcfFz4vvWIKk&transaction_id=448187972ba7d9ebe66b75520e15d329,idfa_1C1E55EB-6492-4DD4-8850-DE0DFEF20D6E,ja
VHJH2m2fSteoaj8i0-Xr-w,iwoop,1845_2776_684,install,2.8,202.229.136.117,F96459DC-8E48-4039-8B9F-559912C7FFB9,1557723300,2019-05-13 12:55:00,1557723370,2019-05-13 12:56:10,1557723400,11d7f3250330f9d09502380cf8bd1ae3,http://postback.iwoop.com/?token=9PEPQbLgKYqp8avu3Ve2vcfFz4vvWIKk&transaction_id=11d7f3250330f9d09502380cf8bd1ae3,idfa_F96459DC-8E48-4039-8B9F-559912C7FFB9,ja
VHJH2m2fSteoaj8i0-Xr-w,iwoop,1845_2776_684,install,2.8,223.217.169.68,B15F68F5-1802-4E8D-B2C2-12A030C02248,1557722398,2019-05-13 12:39:58,1557722446,2019-05-13 12:40:46,1557722476,ca27c7f5c091650466cdf186b0566782,http://postback.iwoop.com/?token=9PEPQbLgKYqp8avu3Ve2vcfFz4vvWIKk&transaction_id=ca27c7f5c091650466cdf186b0566782,idfa_B15F68F5-1802-4E8D-B2C2-12A030C02248,ja
VHJH2m2fSteoaj8i0-Xr-w,iwoop,1845_2776_684,install,2.8,153.227.98.95,C7BB3E42-5A05-4FF5-97B8-09C76FD9A9CC,1557722882,2019-05-13 12:48:02,1557722957,2019-05-13 12:49:17,1557722987,c446ec78bdcab67ab25c2b765247d4a2,http://postback.iwoop.com/?token=9PEPQbLgKYqp8avu3Ve2vcfFz4vvWIKk&transaction_id=c446ec78bdcab67ab25c2b765247d4a2,idfa_C7BB3E42-5A05-4FF5-97B8-09C76FD9A9CC,ja
VHJH2m2fSteoaj8i0-Xr-w,iwoop,1845_2776_684,install,2.8,153.232.168.135,76683B4F-BF7F-4D76-A775-C4D18DA2ADC6,1558822057,2019-05-26 06:07:37,1558822174,2019-05-26 06:09:34,1558822204,8ea4183f8578850ab2e987b87d1b573e,http://postback.iwoop.com/?token=9PEPQbLgKYqp8avu3Ve2vcfFz4vvWIKk&transaction_id=8ea4183f8578850ab2e987b87d1b573e,idfa_76683B4F-BF7F-4D76-A775-C4D18DA2ADC6,ja
VHJH2m2fSteoaj8i0-Xr-w,iwoop,1845_2776_684,install,2.8,60.76.67.111,0D716A08-62C9-46D9-A1D1-6F7FBC648ABB,1558661085,2019-05-24 09:24:45,1558661197,2019-05-24 09:26:37,1558661227,b2f4558b2d9abb08463492953c3eb128,http://postback.iwoop.com/?token=9PEPQbLgKYqp8avu3Ve2vcfFz4vvWIKk&transaction_id=b2f4558b2d9abb08463492953c3eb128,idfa_0D716A08-62C9-46D9-A1D1-6F7FBC648ABB,ja
VHJH2m2fSteoaj8i0-Xr-w,iwoop,1845_2776_684,install,2.8,153.186.40.23,EA36EE35-D509-447F-A4DC-3401CE9EF154,1558566022,2019-05-23 07:00:22,1558566136,2019-05-23 07:02:16,1558566166,d884b13432901f5705f1614c08661362,http://postback.iwoop.com/?token=9PEPQbLgKYqp8avu3Ve2vcfFz4vvWIKk&transaction_id=d884b13432901f5705f1614c08661362,idfa_EA36EE35-D509-447F-A4DC-3401CE9EF154,ja
VHJH2m2fSteoaj8i0-Xr-w,iwoop,1845_2776_684,install,2.8,131.147.214.183,07E61459-1959-4B2D-BF8F-FD2A827E2EF1,1558908570,2019-05-27 06:09:30,1558908682,2019-05-27 06:11:22,1558908712,8888b6cbcad9700cc6ea0823e46073a1,http://postback.iwoop.com/?token=9PEPQbLgKYqp8avu3Ve2vcfFz4vvWIKk&transaction_id=8888b6cbcad9700cc6ea0823e46073a1,idfa_07E61459-1959-4B2D-BF8F-FD2A827E2EF1,ja
VHJH2m2fSteoaj8i0-Xr-w,iwoop,1845_2776_684,install,2.8,221.12.228.130,754578EF-06CE-4936-B27A-DA9CB4CC3654,1559093202,2019-05-29 09:26:42,1559093308,2019-05-29 09:28:28,1559093338,870aea7df8de8ac7951b01f06675ec5b,http://postback.iwoop.com/?token=9PEPQbLgKYqp8avu3Ve2vcfFz4vvWIKk&transaction_id=870aea7df8de8ac7951b01f06675ec5b,idfa_754578EF-06CE-4936-B27A-DA9CB4CC3654,ja
VHJH2m2fSteoaj8i0-Xr-w,iwoop,1845_2776_684,install,2.8,121.81.22.244,456097E5-A342-41D6-B2AA-BFB1F6015B01,1558736921,2019-05-25 06:28:41,1558737035,2019-05-25 06:30:35,1558737065,413b48ed6d2668c4ad5878a35dd0c94e,http://postback.iwoop.com/?token=9PEPQbLgKYqp8avu3Ve2vcfFz4vvWIKk&transaction_id=413b48ed6d2668c4ad5878a35dd0c94e,idfa_456097E5-A342-41D6-B2AA-BFB1F6015B01,ja
VHJH2m2fSteoaj8i0-Xr-w,iwoop,1845_2776_684,install,2.8,14.8.136.128,FD2ED940-F411-4185-8733-DA7573B4A76A,1558914711,2019-05-27 07:51:51,1558914816,2019-05-27 07:53:36,1558914846,bb7a167845c2b8c36964c9b924fbc35d,http://postback.iwoop.com/?token=9PEPQbLgKYqp8avu3Ve2vcfFz4vvWIKk&transaction_id=bb7a167845c2b8c36964c9b924fbc35d,idfa_FD2ED940-F411-4185-8733-DA7573B4A76A,ja
VHJH2m2fSteoaj8i0-Xr-w,iwoop,1845_2776_684,install,2.8,153.174.214.135,812545FD-98F4-4045-AEFE-DDF53E69C6FD,1558824518,2019-05-26 06:48:38,1558824637,2019-05-26 06:50:37,1558824667,e87cfa407917f36af33ae661556c474d,http://postback.iwoop.com/?token=9PEPQbLgKYqp8avu3Ve2vcfFz4vvWIKk&transaction_id=e87cfa407917f36af33ae661556c474d,idfa_812545FD-98F4-4045-AEFE-DDF53E69C6FD,ja
VHJH2m2fSteoaj8i0-Xr-w,iwoop,1845_2776_684,install,2.8,59.168.188.29,8B406D79-E6FE-476D-9467-928CBF3FFC6B,1558820485,2019-05-26 05:41:25,1558820595,2019-05-26 05:43:15,1558820626,f327a02e1ed42a6388930a1214028066,http://postback.iwoop.com/?token=9PEPQbLgKYqp8avu3Ve2vcfFz4vvWIKk&transaction_id=f327a02e1ed42a6388930a1214028066,idfa_8B406D79-E6FE-476D-9467-928CBF3FFC6B,ja
VHJH2m2fSteoaj8i0-Xr-w,iwoop,1845_2776_684,install,2.8,111.168.192.50,3209059B-53DD-4433-8049-3F88F88EEEAC,1558660329,2019-05-24 09:12:09,1558660451,2019-05-24 09:14:11,1558660481,9cf17aa3732a9d5d0f424b236e264866,http://postback.iwoop.com/?token=9PEPQbLgKYqp8avu3Ve2vcfFz4vvWIKk&transaction_id=9cf17aa3732a9d5d0f424b236e264866,idfa_3209059B-53DD-4433-8049-3F88F88EEEAC,ja
VHJH2m2fSteoaj8i0-Xr-w,iwoop,1845_2776_684,install,2.8,61.126.181.231,022ABC50-B777-4BBA-8063-982440EA13A9,1558995330,2019-05-28 06:15:30,1558995430,2019-05-28 06:17:10,1558995460,5a81f4bfe66f748f0bb8295e9aa2aa73,http://postback.iwoop.com/?token=9PEPQbLgKYqp8avu3Ve2vcfFz4vvWIKk&transaction_id=5a81f4bfe66f748f0bb8295e9aa2aa73,idfa_022ABC50-B777-4BBA-8063-982440EA13A9,ja
VHJH2m2fSteoaj8i0-Xr-w,iwoop,1845_2776_684,install,2.8,126.218.223.185,9C1E4B64-E896-4459-8010-A4D9552708E7,1558739204,2019-05-25 07:06:44,1558739327,2019-05-25 07:08:47,1558739357,f7925253eb9328ce9a61775c2c3799c9,http://postback.iwoop.com/?token=9PEPQbLgKYqp8avu3Ve2vcfFz4vvWIKk&transaction_id=f7925253eb9328ce9a61775c2c3799c9,idfa_9C1E4B64-E896-4459-8010-A4D9552708E7,ja
VHJH2m2fSteoaj8i0-Xr-w,iwoop,1845_2776_684,install,2.8,219.102.63.180,FC330D8B-879A-4577-8467-72B671A9597B,1558999093,2019-05-28 07:18:13,1558999197,2019-05-28 07:19:57,1558999228,7f009cf68ce34bbc45fbad11fb0ff7a8,http://postback.iwoop.com/?token=9PEPQbLgKYqp8avu3Ve2vcfFz4vvWIKk&transaction_id=7f009cf68ce34bbc45fbad11fb0ff7a8,idfa_FC330D8B-879A-4577-8467-72B671A9597B,ja
VHJH2m2fSteoaj8i0-Xr-w,iwoop,1845_2776_684,install,2.8,125.3.233.191,7AB70653-1409-49C9-AFBA-3F3D50D32200,1558656920,2019-05-24 08:15:20,1558657021,2019-05-24 08:17:01,1558657051,057528d883f31c67827eeb8c1a4f2e7d,http://postback.iwoop.com/?token=9PEPQbLgKYqp8avu3Ve2vcfFz4vvWIKk&transaction_id=057528d883f31c67827eeb8c1a4f2e7d,idfa_7AB70653-1409-49C9-AFBA-3F3D50D32200,ja
VHJH2m2fSteoaj8i0-Xr-w,iwoop,1845_2776_684,install,2.8,124.45.94.207,EE8664EF-82FB-4A84-AA1B-8B70ADC63214,1557642047,2019-05-12 14:20:47,1557642085,2019-05-12 14:21:25,1557642115,52e228ed1883ba30876f08a54be6d106,http://postback.iwoop.com/?token=9PEPQbLgKYqp8avu3Ve2vcfFz4vvWIKk&transaction_id=52e228ed1883ba30876f08a54be6d106,idfa_EE8664EF-82FB-4A84-AA1B-8B70ADC63214,ja
VHJH2m2fSteoaj8i0-Xr-w,iwoop,1845_2776_684,install,2.8,113.158.199.56,B0E9B1A1-3249-49C3-9C93-FA0056959CB3,1558737406,2019-05-25 06:36:46,1558737549,2019-05-25 06:39:09,1558737580,0d048979527cc326e33e2d2e3ef68f87,http://postback.iwoop.com/?token=9PEPQbLgKYqp8avu3Ve2vcfFz4vvWIKk&transaction_id=0d048979527cc326e33e2d2e3ef68f87,idfa_B0E9B1A1-3249-49C3-9C93-FA0056959CB3,ja
VHJH2m2fSteoaj8i0-Xr-w,iwoop,1845_2776_684,install,2.8,122.103.163.61,7BF93C31-337D-4977-BE53-D15CE71B94EC,1558913768,2019-05-27 07:36:08,1558913793,2019-05-27 07:36:33,1558913824,938ee452c4853a32c528641c322564d6,http://postback.iwoop.com/?token=9PEPQbLgKYqp8avu3Ve2vcfFz4vvWIKk&transaction_id=938ee452c4853a32c528641c322564d6,idfa_7BF93C31-337D-4977-BE53-D15CE71B94EC,ja
VHJH2m2fSteoaj8i0-Xr-w,iwoop,1845_2776_684,install,2.8,182.166.167.198,DF8C1B03-21FE-433E-B459-468B52D4DA64,1558825356,2019-05-26 07:02:36,1558825431,2019-05-26 07:03:51,1558825461,ac84edff5ba8a7b1623f99f16d887b8b,http://postback.iwoop.com/?token=9PEPQbLgKYqp8avu3Ve2vcfFz4vvWIKk&transaction_id=ac84edff5ba8a7b1623f99f16d887b8b,idfa_DF8C1B03-21FE-433E-B459-468B52D4DA64,ja
VHJH2m2fSteoaj8i0-Xr-w,iwoop,1845_2776_684,install,2.8,111.239.252.114,5AC6D322-DA9A-40D6-9A00-8BCF77C48F18,1558736272,2019-05-25 06:17:52,1558736393,2019-05-25 06:19:53,1558736423,2c360bd14cc00d16a16ca699e5aee26b,http://postback.iwoop.com/?token=9PEPQbLgKYqp8avu3Ve2vcfFz4vvWIKk&transaction_id=2c360bd14cc00d16a16ca699e5aee26b,idfa_5AC6D322-DA9A-40D6-9A00-8BCF77C48F18,ja
VHJH2m2fSteoaj8i0-Xr-w,iwoop,1845_2776_684,install,2.8,114.176.34.191,83D53EAB-4771-4C7E-A0AA-F7793AD71BEC,1558915732,2019-05-27 08:08:52,1558915848,2019-05-27 08:10:48,1558915878,113b87f1d80d0eff5441f890590e04ec,http://postback.iwoop.com/?token=9PEPQbLgKYqp8avu3Ve2vcfFz4vvWIKk&transaction_id=113b87f1d80d0eff5441f890590e04ec,idfa_83D53EAB-4771-4C7E-A0AA-F7793AD71BEC,ja
VHJH2m2fSteoaj8i0-Xr-w,iwoop,1845_2776_684,install,2.8,202.225.71.122,C67ACCBF-C51E-4CF6-9BC0-90EB481723B2,1557829063,2019-05-14 18:17:43,1557829139,2019-05-14 18:18:59,1557829169,20759770ab8593f36339bd8e29eb8ffe,http://postback.iwoop.com/?token=9PEPQbLgKYqp8avu3Ve2vcfFz4vvWIKk&transaction_id=20759770ab8593f36339bd8e29eb8ffe,idfa_C67ACCBF-C51E-4CF6-9BC0-90EB481723B2,ja
VHJH2m2fSteoaj8i0-Xr-w,iwoop,1845_2776_684,install,2.8,118.2.200.184,4AD0B4F5-E841-4B80-998E-4BEA3813972C,1558661113,2019-05-24 09:25:13,1558661223,2019-05-24 09:27:03,1558661253,cdce7aca7fc532cc6bc04e21566beb38,http://postback.iwoop.com/?token=9PEPQbLgKYqp8avu3Ve2vcfFz4vvWIKk&transaction_id=cdce7aca7fc532cc6bc04e21566beb38,idfa_4AD0B4F5-E841-4B80-998E-4BEA3813972C,ja
VHJH2m2fSteoaj8i0-Xr-w,iwoop,1845_2776_684,install,2.8,106.159.2.17,02DDD015-5D59-4DF7-9B42-48C771D92ECF,1559001589,2019-05-28 07:59:49,1559001692,2019-05-28 08:01:32,1559001722,36da667d0f653718908fcdd836400a83,http://postback.iwoop.com/?token=9PEPQbLgKYqp8avu3Ve2vcfFz4vvWIKk&transaction_id=36da667d0f653718908fcdd836400a83,idfa_02DDD015-5D59-4DF7-9B42-48C771D92ECF,ja
VHJH2m2fSteoaj8i0-Xr-w,iwoop,1845_2776_684,install,2.8,59.169.248.125,84C1C709-29BF-49B4-AB78-BBC4873FCC24,1558992944,2019-05-28 05:35:44,1558993064,2019-05-28 05:37:44,1558993094,b8caa09b43ab9d3492e0eb05134ffa8e,http://postback.iwoop.com/?token=9PEPQbLgKYqp8avu3Ve2vcfFz4vvWIKk&transaction_id=b8caa09b43ab9d3492e0eb05134ffa8e,idfa_84C1C709-29BF-49B4-AB78-BBC4873FCC24,ja
VHJH2m2fSteoaj8i0-Xr-w,iwoop,1845_2776_684,install,2.8,153.125.74.124,98859D5A-C2AC-419F-BA87-1ED2F72D77AA,1558654328,2019-05-24 07:32:08,1558654443,2019-05-24 07:34:03,1558654473,5537f0e964fd5eeaae7e968e8f23947d,http://postback.iwoop.com/?token=9PEPQbLgKYqp8avu3Ve2vcfFz4vvWIKk&transaction_id=5537f0e964fd5eeaae7e968e8f23947d,idfa_98859D5A-C2AC-419F-BA87-1ED2F72D77AA,ja
VHJH2m2fSteoaj8i0-Xr-w,iwoop,1845_2776_684,install,2.8,116.199.244.138,20A0BEE9-F249-4270-8072-DE8581962B54,1558911318,2019-05-27 06:55:18,1558911425,2019-05-27 06:57:05,1558911455,c2fe1f34309a2be0207c21cd84fa99c6,http://postback.iwoop.com/?token=9PEPQbLgKYqp8avu3Ve2vcfFz4vvWIKk&transaction_id=c2fe1f34309a2be0207c21cd84fa99c6,idfa_20A0BEE9-F249-4270-8072-DE8581962B54,ja
VHJH2m2fSteoaj8i0-Xr-w,iwoop,1845_2776_684,install,2.8,221.189.20.141,E90420A1-92E7-4878-833F-8C1AE2D1359D,1558913352,2019-05-27 07:29:12,1558913469,2019-05-27 07:31:09,1558913499,b1811e762f135690b61070f8ca824ef4,http://postback.iwoop.com/?token=9PEPQbLgKYqp8avu3Ve2vcfFz4vvWIKk&transaction_id=b1811e762f135690b61070f8ca824ef4,idfa_E90420A1-92E7-4878-833F-8C1AE2D1359D,ja
VHJH2m2fSteoaj8i0-Xr-w,iwoop,1845_2776_684,install,2.8,114.19.17.48,28D16D1C-0D5C-4B76-90A8-3C166A043D65,1558825629,2019-05-26 07:07:09,1558825733,2019-05-26 07:08:53,1558825763,48fbf21719b9775378458f72a2b91f8c,http://postback.iwoop.com/?token=9PEPQbLgKYqp8avu3Ve2vcfFz4vvWIKk&transaction_id=48fbf21719b9775378458f72a2b91f8c,idfa_28D16D1C-0D5C-4B76-90A8-3C166A043D65,ja
VHJH2m2fSteoaj8i0-Xr-w,iwoop,1845_2776_684,install,2.8,182.168.233.30,5BA557DF-17AB-41EB-8B7A-86EBEDB9C905,1558660108,2019-05-24 09:08:28,1558660214,2019-05-24 09:10:14,1558660244,a3de9a3cf86fa4ea96ce709cdcb9aa74,http://postback.iwoop.com/?token=9PEPQbLgKYqp8avu3Ve2vcfFz4vvWIKk&transaction_id=a3de9a3cf86fa4ea96ce709cdcb9aa74,idfa_5BA557DF-17AB-41EB-8B7A-86EBEDB9C905,ja
VHJH2m2fSteoaj8i0-Xr-w,iwoop,1845_2776_684,install,2.8,125.205.165.40,D92C5E4F-8866-4A49-A431-CDDA2DE0A7D3,1557824293,2019-05-14 16:58:13,1557824369,2019-05-14 16:59:29,1557824399,cd0c54f023d1ca3a7681b76d039f3f5d,http://postback.iwoop.com/?token=9PEPQbLgKYqp8avu3Ve2vcfFz4vvWIKk&transaction_id=cd0c54f023d1ca3a7681b76d039f3f5d,idfa_D92C5E4F-8866-4A49-A431-CDDA2DE0A7D3,ja
VHJH2m2fSteoaj8i0-Xr-w,iwoop,1845_2776_684,install,2.8,60.157.75.66,05F98C8A-4450-4DDC-B1F4-D378F5D7FE2F,1558660707,2019-05-24 09:18:27,1558660823,2019-05-24 09:20:23,1558660853,7014a97d827f78a2a1f798eb4601d4fb,http://postback.iwoop.com/?token=9PEPQbLgKYqp8avu3Ve2vcfFz4vvWIKk&transaction_id=7014a97d827f78a2a1f798eb4601d4fb,idfa_05F98C8A-4450-4DDC-B1F4-D378F5D7FE2F,ja
VHJH2m2fSteoaj8i0-Xr-w,iwoop,1845_2776_684,install,2.8,58.13.128.90,8D18DC04-71D6-4492-BE0E-638125AE4E96,1559094211,2019-05-29 09:43:31,1559094317,2019-05-29 09:45:17,1559094347,ce247dbffe7065f9a24ed870d6f27c55,http://postback.iwoop.com/?token=9PEPQbLgKYqp8avu3Ve2vcfFz4vvWIKk&transaction_id=ce247dbffe7065f9a24ed870d6f27c55,idfa_8D18DC04-71D6-4492-BE0E-638125AE4E96,ja
VHJH2m2fSteoaj8i0-Xr-w,iwoop,1845_2776_684,install,2.8,60.125.248.209,6D7B37E5-55F2-46EB-9584-50547850828C,1558993803,2019-05-28 05:50:03,1558993918,2019-05-28 05:51:58,1558993948,a48746a1460aa3727c825b648fa68e8d,http://postback.iwoop.com/?token=9PEPQbLgKYqp8avu3Ve2vcfFz4vvWIKk&transaction_id=a48746a1460aa3727c825b648fa68e8d,idfa_6D7B37E5-55F2-46EB-9584-50547850828C,ja
VHJH2m2fSteoaj8i0-Xr-w,iwoop,1845_2776_684,install,2.8,126.83.109.203,7378ADD5-7ABF-4808-9D4E-3CE8F4766110,1559092897,2019-05-29 09:21:37,1559093019,2019-05-29 09:23:39,1559093049,23fcbf51c2890a5af5c33cc6b0533215,http://postback.iwoop.com/?token=9PEPQbLgKYqp8avu3Ve2vcfFz4vvWIKk&transaction_id=23fcbf51c2890a5af5c33cc6b0533215,idfa_7378ADD5-7ABF-4808-9D4E-3CE8F4766110,ja
VHJH2m2fSteoaj8i0-Xr-w,iwoop,1845_2776_684,install,2.8,159.28.137.155,2702C01E-599A-406A-807B-C58CCAF73958,1558826289,2019-05-26 07:18:09,1558826333,2019-05-26 07:18:53,1558826363,20d44cd589b26c3c62eedd4d7516eda2,http://postback.iwoop.com/?token=9PEPQbLgKYqp8avu3Ve2vcfFz4vvWIKk&transaction_id=20d44cd589b26c3c62eedd4d7516eda2,idfa_2702C01E-599A-406A-807B-C58CCAF73958,ja
VHJH2m2fSteoaj8i0-Xr-w,iwoop,1845_2776_684,install,2.8,106.72.141.32,6F985E28-F620-4AE9-A48D-00978D93B92A,1558912477,2019-05-27 07:14:37,1558912582,2019-05-27 07:16:22,1558912712,0015cb3b2887a58496611ce137a544d7,http://postback.iwoop.com/?token=9PEPQbLgKYqp8avu3Ve2vcfFz4vvWIKk&transaction_id=0015cb3b2887a58496611ce137a544d7,idfa_6F985E28-F620-4AE9-A48D-00978D93B92A,ja
VHJH2m2fSteoaj8i0-Xr-w,iwoop,1845_2776_684,install,2.8,36.3.226.206,F198A459-7B27-46D0-9FC4-901D738BF258,1558907364,2019-05-27 05:49:24,1558907478,2019-05-27 05:51:18,1558907508,5ccdfb8f3b92e4adf40db88cf8bd9eb2,http://postback.iwoop.com/?token=9PEPQbLgKYqp8avu3Ve2vcfFz4vvWIKk&transaction_id=5ccdfb8f3b92e4adf40db88cf8bd9eb2,idfa_F198A459-7B27-46D0-9FC4-901D738BF258,ja
VHJH2m2fSteoaj8i0-Xr-w,iwoop,1845_2776_684,install,2.8,60.41.222.245,D0587F93-7A93-4B55-96BC-5C043BAD870E,1558733683,2019-05-25 05:34:43,1558733798,2019-05-25 05:36:38,1558733829,82606bf6a1673e580472f02539ab41aa,http://postback.iwoop.com/?token=9PEPQbLgKYqp8avu3Ve2vcfFz4vvWIKk&transaction_id=82606bf6a1673e580472f02539ab41aa,idfa_D0587F93-7A93-4B55-96BC-5C043BAD870E,ja
VHJH2m2fSteoaj8i0-Xr-w,iwoop,1845_2776_684,install,2.8,119.230.154.222,4C5BE5A4-FECF-458B-B547-2871F67D28DC,1558741570,2019-05-25 07:46:10,1558741682,2019-05-25 07:48:02,1558741712,e98982fcf633aa717ce7c2f6b46867df,http://postback.iwoop.com/?token=9PEPQbLgKYqp8avu3Ve2vcfFz4vvWIKk&transaction_id=e98982fcf633aa717ce7c2f6b46867df,idfa_4C5BE5A4-FECF-458B-B547-2871F67D28DC,ja
VHJH2m2fSteoaj8i0-Xr-w,iwoop,1845_2776_684,install,2.8,106.72.47.129,C9B61E40-3485-4D59-AA85-4C48D5FBFD16,1558734692,2019-05-25 05:51:32,1558734809,2019-05-25 05:53:29,1558734839,4c614bab7e2f5e7d1a37231fdae0154f,http://postback.iwoop.com/?token=9PEPQbLgKYqp8avu3Ve2vcfFz4vvWIKk&transaction_id=4c614bab7e2f5e7d1a37231fdae0154f,idfa_C9B61E40-3485-4D59-AA85-4C48D5FBFD16,ja
VHJH2m2fSteoaj8i0-Xr-w,iwoop,1845_2776_684,install,2.8,153.229.110.247,1CD0E2FA-6D90-4BA4-BEE4-7708C234A9AB,1557825520,2019-05-14 17:18:40,1557825598,2019-05-14 17:19:58,1557825628,4b6b4f72c210fffb2d5b0a4cda1c8d35,http://postback.iwoop.com/?token=9PEPQbLgKYqp8avu3Ve2vcfFz4vvWIKk&transaction_id=4b6b4f72c210fffb2d5b0a4cda1c8d35,idfa_1CD0E2FA-6D90-4BA4-BEE4-7708C234A9AB,ja
VHJH2m2fSteoaj8i0-Xr-w,iwoop,1845_2776_684,install,2.8,42.150.143.17,8C50BC3D-91FE-4CD4-BEA8-0F0B4AC79998,1558734197,2019-05-25 05:43:17,1558734306,2019-05-25 05:45:06,1558734336,3e3459f6bac1b6b96e11e9a09b3f7be3,http://postback.iwoop.com/?token=9PEPQbLgKYqp8avu3Ve2vcfFz4vvWIKk&transaction_id=3e3459f6bac1b6b96e11e9a09b3f7be3,idfa_8C50BC3D-91FE-4CD4-BEA8-0F0B4AC79998,ja
VHJH2m2fSteoaj8i0-Xr-w,iwoop,1845_2776_684,install,2.8,153.182.48.13,31EE9926-D20F-4E31-888A-D0A76277D3BD,1558562063,2019-05-23 05:54:23,1558562169,2019-05-23 05:56:09,1558562199,3c29e4d78bd32dde0f88599da7b4fd51,http://postback.iwoop.com/?token=9PEPQbLgKYqp8avu3Ve2vcfFz4vvWIKk&transaction_id=3c29e4d78bd32dde0f88599da7b4fd51,idfa_31EE9926-D20F-4E31-888A-D0A76277D3BD,ja
VHJH2m2fSteoaj8i0-Xr-w,iwoop,1845_2776_684,install,2.8,42.127.194.55,E8DA0831-DD22-4A57-9011-4D124B17F4FD,1559093576,2019-05-29 09:32:56,1559093686,2019-05-29 09:34:46,1559093717,f415464eb3b5e9bded45e6e602970e3e,http://postback.iwoop.com/?token=9PEPQbLgKYqp8avu3Ve2vcfFz4vvWIKk&transaction_id=f415464eb3b5e9bded45e6e602970e3e,idfa_E8DA0831-DD22-4A57-9011-4D124B17F4FD,ja
VHJH2m2fSteoaj8i0-Xr-w,iwoop,1845_2776_684,install,2.8,14.13.55.192,669D5E87-DAA0-4DC5-926B-2195C43A0FC1,1558826472,2019-05-26 07:21:12,1558826585,2019-05-26 07:23:05,1558826615,eaec81a068e35fabc8a6a92426abf3be,http://postback.iwoop.com/?token=9PEPQbLgKYqp8avu3Ve2vcfFz4vvWIKk&transaction_id=eaec81a068e35fabc8a6a92426abf3be,idfa_669D5E87-DAA0-4DC5-926B-2195C43A0FC1,ja
VHJH2m2fSteoaj8i0-Xr-w,iwoop,1845_2776_684,install,2.8,39.111.246.9,5B1C4363-29CB-473C-8BB9-EDDDE4A8E777,1558740139,2019-05-25 07:22:19,1558740251,2019-05-25 07:24:11,1558740281,42e1db55cbb3abf31557882c32311f9a,http://postback.iwoop.com/?token=9PEPQbLgKYqp8avu3Ve2vcfFz4vvWIKk&transaction_id=42e1db55cbb3abf31557882c32311f9a,idfa_5B1C4363-29CB-473C-8BB9-EDDDE4A8E777,ja
VHJH2m2fSteoaj8i0-Xr-w,iwoop,1845_2776_684,install,2.8,101.128.215.171,C2DC8C8F-0015-40ED-A15E-A146BBDF9027,1558655411,2019-05-24 07:50:11,1558655522,2019-05-24 07:52:02,1558655552,28a65536238bc8f13972648c93467941,http://postback.iwoop.com/?token=9PEPQbLgKYqp8avu3Ve2vcfFz4vvWIKk&transaction_id=28a65536238bc8f13972648c93467941,idfa_C2DC8C8F-0015-40ED-A15E-A146BBDF9027,ja
VHJH2m2fSteoaj8i0-Xr-w,iwoop,1845_2776_684,install,2.9,126.200.123.104,55D535C5-C707-46A0-8A25-FA517F0BDCDA,1558095762,2019-05-17 20:22:42,1558095879,2019-05-17 20:24:39,1558095910,0cdf274f0b1476eed08701fb07fd228d,http://postback.iwoop.com/?token=9PEPQbLgKYqp8avu3Ve2vcfFz4vvWIKk&transaction_id=0cdf274f0b1476eed08701fb07fd228d,idfa_55D535C5-C707-46A0-8A25-FA517F0BDCDA,ja
VHJH2m2fSteoaj8i0-Xr-w,iwoop,1845_2776_684,install,2.8,123.219.250.201,4CA40CB7-D0D9-432E-B682-C6D2DB740FD1,1558906072,2019-05-27 05:27:52,1558906174,2019-05-27 05:29:34,1558906204,2de58e27e35a08b58d74d4d1a3f983a0,http://postback.iwoop.com/?token=9PEPQbLgKYqp8avu3Ve2vcfFz4vvWIKk&transaction_id=2de58e27e35a08b58d74d4d1a3f983a0,idfa_4CA40CB7-D0D9-432E-B682-C6D2DB740FD1,ja
VHJH2m2fSteoaj8i0-Xr-w,iwoop,1845_2776_684,install,2.8,61.120.54.160,0E32F165-3212-4410-B3F5-0B534EFDB081,1558997791,2019-05-28 06:56:31,1558997906,2019-05-28 06:58:26,1558997936,cfcffe372ac62cdd3dded0a9b46dd9ff,http://postback.iwoop.com/?token=9PEPQbLgKYqp8avu3Ve2vcfFz4vvWIKk&transaction_id=cfcffe372ac62cdd3dded0a9b46dd9ff,idfa_0E32F165-3212-4410-B3F5-0B534EFDB081,ja
VHJH2m2fSteoaj8i0-Xr-w,iwoop,1845_2776_684,install,2.8,124.146.227.8,B5DC3DFC-89FF-4E91-8F2C-B55C07C158C1,1558565159,2019-05-23 06:45:59,1558565266,2019-05-23 06:47:46,1558565297,54d2f0c9e5f3b182b7dfd2f9afd4a300,http://postback.iwoop.com/?token=9PEPQbLgKYqp8avu3Ve2vcfFz4vvWIKk&transaction_id=54d2f0c9e5f3b182b7dfd2f9afd4a300,idfa_B5DC3DFC-89FF-4E91-8F2C-B55C07C158C1,ja
VHJH2m2fSteoaj8i0-Xr-w,iwoop,1845_2776_684,install,2.8,121.103.113.118,9F47B2AF-DC91-47F0-A6CE-4DA7E19072CE,1558992781,2019-05-28 05:33:01,1558992904,2019-05-28 05:35:04,1558992934,7159aa9f7e0754548256400ba7d2fd7a,http://postback.iwoop.com/?token=9PEPQbLgKYqp8avu3Ve2vcfFz4vvWIKk&transaction_id=7159aa9f7e0754548256400ba7d2fd7a,idfa_9F47B2AF-DC91-47F0-A6CE-4DA7E19072CE,ja
VHJH2m2fSteoaj8i0-Xr-w,iwoop,1845_2776_684,install,2.8,124.142.135.201,921030CB-7EC2-405D-A119-665938493B51,1558736706,2019-05-25 06:25:06,1558736811,2019-05-25 06:26:51,1558736841,971909bcf97c50f7711ddceac41f0206,http://postback.iwoop.com/?token=9PEPQbLgKYqp8avu3Ve2vcfFz4vvWIKk&transaction_id=971909bcf97c50f7711ddceac41f0206,idfa_921030CB-7EC2-405D-A119-665938493B51,ja
VHJH2m2fSteoaj8i0-Xr-w,iwoop,1845_2776_684,install,2.8,210.194.13.193,37758072-F251-4109-98E8-E8B349DC92BA,1558736834,2019-05-25 06:27:14,1558736937,2019-05-25 06:28:57,1558736967,10d67afa74f0fc2ea2eead0fe337a080,http://postback.iwoop.com/?token=9PEPQbLgKYqp8avu3Ve2vcfFz4vvWIKk&transaction_id=10d67afa74f0fc2ea2eead0fe337a080,idfa_37758072-F251-4109-98E8-E8B349DC92BA,ja
VHJH2m2fSteoaj8i0-Xr-w,iwoop,1845_2776_684,install,2.8,149.54.239.6,387D680B-C068-4238-8676-64351FC50F82,1558991958,2019-05-28 05:19:18,1558992072,2019-05-28 05:21:12,1558992102,2a36b8fe4bcdb85353ee9bd2bc8cc0f3,http://postback.iwoop.com/?token=9PEPQbLgKYqp8avu3Ve2vcfFz4vvWIKk&transaction_id=2a36b8fe4bcdb85353ee9bd2bc8cc0f3,idfa_387D680B-C068-4238-8676-64351FC50F82,ja
VHJH2m2fSteoaj8i0-Xr-w,iwoop,1845_2776_684,install,2.8,153.181.76.7,4923F987-939D-4D8B-855F-C2BAE547FF27,1558905771,2019-05-27 05:22:51,1558905877,2019-05-27 05:24:37,1558905907,caec7ee1e3a5c8fd68bcb5f4b0ffa9aa,http://postback.iwoop.com/?token=9PEPQbLgKYqp8avu3Ve2vcfFz4vvWIKk&transaction_id=caec7ee1e3a5c8fd68bcb5f4b0ffa9aa,idfa_4923F987-939D-4D8B-855F-C2BAE547FF27,ja
VHJH2m2fSteoaj8i0-Xr-w,iwoop,1845_2776_684,install,2.8,175.131.191.112,738B1014-2484-469C-966B-BDE75BD3C502,1557826896,2019-05-14 17:41:36,1557826961,2019-05-14 17:42:41,1557826991,d94bf422a12c2766548b452d82c396a3,http://postback.iwoop.com/?token=9PEPQbLgKYqp8avu3Ve2vcfFz4vvWIKk&transaction_id=d94bf422a12c2766548b452d82c396a3,idfa_738B1014-2484-469C-966B-BDE75BD3C502,ja
VHJH2m2fSteoaj8i0-Xr-w,iwoop,1845_2776_684,install,2.8,180.63.138.172,19526964-A359-46CE-9370-546290BB449F,1558735651,2019-05-25 06:07:31,1558735801,2019-05-25 06:10:01,1558735832,e142f33f09be766f43c8c5cca0546eb2,http://postback.iwoop.com/?token=9PEPQbLgKYqp8avu3Ve2vcfFz4vvWIKk&transaction_id=e142f33f09be766f43c8c5cca0546eb2,idfa_19526964-A359-46CE-9370-546290BB449F,ja
