cid,partner_id,channel_id,action_id,cpi,ip,idfa,click time,click datetime,install time,install datetime,postback time,click id,postback url,unique user id
ltUyARU6ReuOjuOVxtuYdA,leadbolt_api,A387217_,Install,1.0,221.146.28.219,D4ABE6F1-4FA3-4845-B804-6E9B6B1DF25A,1558634279,2019-05-24 01:57:59,1558634328,2019-05-24 01:58:48,1558634359,1638-152332422_1145929,http://ad.leadbolt.net/conv/?track_id=1145929&clk_id=1638-152332422&key=b50a7f9566a5aa4d,idfa_D4ABE6F1-4FA3-4845-B804-6E9B6B1DF25A,ko-KR
ltUyARU6ReuOjuOVxtuYdA,leadbolt_api,A387217_,Install,1.0,222.108.143.193,7B92BA85-B717-439E-BFDE-D0F6DA9F21C3,1558635508,2019-05-24 02:18:28,1558635592,2019-05-24 02:19:52,1558635623,1657-120589529_1145929,http://ad.leadbolt.net/conv/?track_id=1145929&clk_id=1657-120589529&key=b50a7f9566a5aa4d,idfa_7B92BA85-B717-439E-BFDE-D0F6DA9F21C3,ko-KR
ltUyARU6ReuOjuOVxtuYdA,leadbolt_api,A387217_,Install,1.0,182.208.90.83,BF846C43-8F3F-4244-95F4-47CFCAB22A5A,1558635091,2019-05-24 02:11:31,1558635181,2019-05-24 02:13:01,1558635211,1659-114469630_1145929,http://ad.leadbolt.net/conv/?track_id=1145929&clk_id=1659-114469630&key=b50a7f9566a5aa4d,idfa_BF846C43-8F3F-4244-95F4-47CFCAB22A5A,ko-KR
ltUyARU6ReuOjuOVxtuYdA,leadbolt_api,A387217_,Install,1.0,211.48.9.120,767158DB-976D-406F-9377-4C59F05AB293,1558633512,2019-05-24 01:45:12,1558633584,2019-05-24 01:46:24,1558633615,1650-139898401_1145929,http://ad.leadbolt.net/conv/?track_id=1145929&clk_id=1650-139898401&key=b50a7f9566a5aa4d,idfa_767158DB-976D-406F-9377-4C59F05AB293,ko-KR
ltUyARU6ReuOjuOVxtuYdA,leadbolt_api,A387217_,Install,1.0,211.250.42.74,8BBF52D6-56CB-4141-A1F7-6CA84C6FB5C8,1558633502,2019-05-24 01:45:02,1558633584,2019-05-24 01:46:24,1558633614,1654-140375963_1145929,http://ad.leadbolt.net/conv/?track_id=1145929&clk_id=1654-140375963&key=b50a7f9566a5aa4d,idfa_8BBF52D6-56CB-4141-A1F7-6CA84C6FB5C8,ko-KR
ltUyARU6ReuOjuOVxtuYdA,leadbolt_api,A387217_,Install,1.0,118.42.115.142,CBBF93FB-C4A9-40D6-A83B-860A31C73FF9,1558635515,2019-05-24 02:18:35,1558635593,2019-05-24 02:19:53,1558635624,1640-165528356_1145929,http://ad.leadbolt.net/conv/?track_id=1145929&clk_id=1640-165528356&key=b50a7f9566a5aa4d,idfa_CBBF93FB-C4A9-40D6-A83B-860A31C73FF9,ko-KR
ltUyARU6ReuOjuOVxtuYdA,leadbolt_api,A387217_,Install,1.0,211.221.155.6,AF1B2666-0BCD-40BB-BE9B-A97441DDF3B5,1558635076,2019-05-24 02:11:16,1558635157,2019-05-24 02:12:37,1558635188,1661-17908717_1145929,http://ad.leadbolt.net/conv/?track_id=1145929&clk_id=1661-17908717&key=b50a7f9566a5aa4d,idfa_AF1B2666-0BCD-40BB-BE9B-A97441DDF3B5,ko-KR
ltUyARU6ReuOjuOVxtuYdA,leadbolt_api,A387217_,Install,1.0,211.169.209.130,996A2808-F8C1-416F-BBE6-57AB853105AB,1558634693,2019-05-24 02:04:53,1558634766,2019-05-24 02:06:06,1558634796,1654-140391250_1145929,http://ad.leadbolt.net/conv/?track_id=1145929&clk_id=1654-140391250&key=b50a7f9566a5aa4d,idfa_996A2808-F8C1-416F-BBE6-57AB853105AB,ko-KR
ltUyARU6ReuOjuOVxtuYdA,leadbolt_api,A387217_,Install,1.0,203.228.17.2,D37019CA-8C8A-4C06-AB05-6D3D79149250,1558633905,2019-05-24 01:51:45,1558633979,2019-05-24 01:52:59,1558634010,1639-165961975_1145929,http://ad.leadbolt.net/conv/?track_id=1145929&clk_id=1639-165961975&key=b50a7f9566a5aa4d,idfa_D37019CA-8C8A-4C06-AB05-6D3D79149250,ko-KR
ltUyARU6ReuOjuOVxtuYdA,leadbolt_api,A387217_,Install,1.0,114.30.203.253,C564D1AC-25A6-477F-9762-074BE8881927,1558633927,2019-05-24 01:52:07,1558634000,2019-05-24 01:53:20,1558634030,1647-144300039_1145929,http://ad.leadbolt.net/conv/?track_id=1145929&clk_id=1647-144300039&key=b50a7f9566a5aa4d,idfa_C564D1AC-25A6-477F-9762-074BE8881927,ko-KR
ltUyARU6ReuOjuOVxtuYdA,leadbolt_api,A387217_,Install,1.0,183.109.79.6,E000686E-FE82-48AB-9014-38EFC9F88326,1558635107,2019-05-24 02:11:47,1558635178,2019-05-24 02:12:58,1558635209,1661-17909286_1145929,http://ad.leadbolt.net/conv/?track_id=1145929&clk_id=1661-17909286&key=b50a7f9566a5aa4d,idfa_E000686E-FE82-48AB-9014-38EFC9F88326,ko-KR
ltUyARU6ReuOjuOVxtuYdA,leadbolt_api,A387217_,Install,1.0,220.127.126.139,849549F8-11BB-47E0-9C1E-2D191B1F0090,1558634797,2019-05-24 02:06:37,1558634887,2019-05-24 02:08:07,1558634918,1657-120578990_1145929,http://ad.leadbolt.net/conv/?track_id=1145929&clk_id=1657-120578990&key=b50a7f9566a5aa4d,idfa_849549F8-11BB-47E0-9C1E-2D191B1F0090,ko-KR
ltUyARU6ReuOjuOVxtuYdA,leadbolt_api,A387217_,Install,1.0,61.37.41.130,B7F583A8-DEEA-416F-B316-2B77E6794EBF,1558635588,2019-05-24 02:19:48,1558635672,2019-05-24 02:21:12,1558635703,1637-167868353_1145929,http://ad.leadbolt.net/conv/?track_id=1145929&clk_id=1637-167868353&key=b50a7f9566a5aa4d,idfa_B7F583A8-DEEA-416F-B316-2B77E6794EBF,ko-KR
ltUyARU6ReuOjuOVxtuYdA,leadbolt_api,A387217_,Install,1.0,210.216.14.11,9B4FDE81-C111-4B2F-B532-B9CBC209AA35,1558633378,2019-05-24 01:42:58,1558633470,2019-05-24 01:44:30,1558633500,1653-126557227_1145929,http://ad.leadbolt.net/conv/?track_id=1145929&clk_id=1653-126557227&key=b50a7f9566a5aa4d,idfa_9B4FDE81-C111-4B2F-B532-B9CBC209AA35,ko-KR
ltUyARU6ReuOjuOVxtuYdA,leadbolt_api,A387217_,Install,1.0,61.32.61.197,EB92E39F-8F20-42B9-AF89-B1DD37F1E429,1558633372,2019-05-24 01:42:52,1558633446,2019-05-24 01:44:06,1558633477,1647-144292781_1145929,http://ad.leadbolt.net/conv/?track_id=1145929&clk_id=1647-144292781&key=b50a7f9566a5aa4d,idfa_EB92E39F-8F20-42B9-AF89-B1DD37F1E429,ko-KR
ltUyARU6ReuOjuOVxtuYdA,leadbolt_api,A387217_,Install,1.0,121.152.137.21,AACCE102-6861-4246-8297-AD88A34EE0B7,1558634381,2019-05-24 01:59:41,1558634469,2019-05-24 02:01:09,1558634500,1658-100660287_1145929,http://ad.leadbolt.net/conv/?track_id=1145929&clk_id=1658-100660287&key=b50a7f9566a5aa4d,idfa_AACCE102-6861-4246-8297-AD88A34EE0B7,ko-KR
ltUyARU6ReuOjuOVxtuYdA,leadbolt_api,A387217_,Install,1.0,59.28.140.15,0F62956A-F249-4699-87A9-70545BF07501,1558632987,2019-05-24 01:36:27,1558633050,2019-05-24 01:37:30,1558633081,1643-152095044_1145929,http://ad.leadbolt.net/conv/?track_id=1145929&clk_id=1643-152095044&key=b50a7f9566a5aa4d,idfa_0F62956A-F249-4699-87A9-70545BF07501,ko-KR
ltUyARU6ReuOjuOVxtuYdA,leadbolt_api,A387217_,Install,1.0,222.114.183.131,7FD3684F-6BAA-40C8-B9F4-990393FC22F9,1558634279,2019-05-24 01:57:59,1558634323,2019-05-24 01:58:43,1558634355,1658-100659170_1145929,http://ad.leadbolt.net/conv/?track_id=1145929&clk_id=1658-100659170&key=b50a7f9566a5aa4d,idfa_7FD3684F-6BAA-40C8-B9F4-990393FC22F9,ko-KR
ltUyARU6ReuOjuOVxtuYdA,leadbolt_api,A387217_,Install,1.0,112.221.173.170,02963FA4-DC13-4E28-B3C4-3939F2939663,1558633502,2019-05-24 01:45:02,1558633575,2019-05-24 01:46:15,1558633606,1647-144294621_1145929,http://ad.leadbolt.net/conv/?track_id=1145929&clk_id=1647-144294621&key=b50a7f9566a5aa4d,idfa_02963FA4-DC13-4E28-B3C4-3939F2939663,ko-KR
ltUyARU6ReuOjuOVxtuYdA,leadbolt_api,A387217_,Install,1.0,115.41.66.234,E8BEC04B-ED18-4597-B1D9-DE6B5C2E6C7A,1558633920,2019-05-24 01:52:00,1558633994,2019-05-24 01:53:14,1558634024,1657-120567931_1145929,http://ad.leadbolt.net/conv/?track_id=1145929&clk_id=1657-120567931&key=b50a7f9566a5aa4d,idfa_E8BEC04B-ED18-4597-B1D9-DE6B5C2E6C7A,ko-KR
ltUyARU6ReuOjuOVxtuYdA,leadbolt_api,A387217_,Install,1.0,203.255.32.133,E2F8922E-D4A1-4D5F-B0D5-7675E88E41AD,1558632951,2019-05-24 01:35:51,1558633046,2019-05-24 01:37:26,1558633076,1660-49180443_1145929,http://ad.leadbolt.net/conv/?track_id=1145929&clk_id=1660-49180443&key=b50a7f9566a5aa4d,idfa_E2F8922E-D4A1-4D5F-B0D5-7675E88E41AD,ko-KR
ltUyARU6ReuOjuOVxtuYdA,leadbolt_api,A387217_,Install,1.0,183.98.75.48,5F95CF2C-7AF0-44EC-89F7-9EA2EED5E21C,1558633503,2019-05-24 01:45:03,1558633579,2019-05-24 01:46:19,1558633610,1653-126558776_1145929,http://ad.leadbolt.net/conv/?track_id=1145929&clk_id=1653-126558776&key=b50a7f9566a5aa4d,idfa_5F95CF2C-7AF0-44EC-89F7-9EA2EED5E21C,ko-KR
ltUyARU6ReuOjuOVxtuYdA,leadbolt_api,A387217_,Install,1.0,59.24.91.168,0F1B1BD5-44E3-4A48-943F-8D3F930F99F3,1558634685,2019-05-24 02:04:45,1558634772,2019-05-24 02:06:12,1558634803,1638-152336852_1145929,http://ad.leadbolt.net/conv/?track_id=1145929&clk_id=1638-152336852&key=b50a7f9566a5aa4d,idfa_0F1B1BD5-44E3-4A48-943F-8D3F930F99F3,ko-KR
ltUyARU6ReuOjuOVxtuYdA,leadbolt_api,A387217_,Install,1.0,119.66.102.7,B3D548A3-DB67-4B57-A0C1-19C9EEB75CE9,1558633913,2019-05-24 01:51:53,1558634001,2019-05-24 01:53:21,1558634031,1659-114453824_1145929,http://ad.leadbolt.net/conv/?track_id=1145929&clk_id=1659-114453824&key=b50a7f9566a5aa4d,idfa_B3D548A3-DB67-4B57-A0C1-19C9EEB75CE9,ko-KR
ltUyARU6ReuOjuOVxtuYdA,leadbolt_api,A387217_,Install,1.0,210.216.14.25,10C600C4-6283-442B-9141-F822056E362D,1558635530,2019-05-24 02:18:50,1558635614,2019-05-24 02:20:14,1558635645,1652-140273734_1145929,http://ad.leadbolt.net/conv/?track_id=1145929&clk_id=1652-140273734&key=b50a7f9566a5aa4d,idfa_10C600C4-6283-442B-9141-F822056E362D,ko-KR
ltUyARU6ReuOjuOVxtuYdA,leadbolt_api,A387217_,Install,1.0,118.41.9.209,DB173C7E-2760-4EE8-BCE9-26D5E3202507,1558633370,2019-05-24 01:42:50,1558633458,2019-05-24 01:44:18,1558633489,1637-167838664_1145929,http://ad.leadbolt.net/conv/?track_id=1145929&clk_id=1637-167838664&key=b50a7f9566a5aa4d,idfa_DB173C7E-2760-4EE8-BCE9-26D5E3202507,ko-KR
ltUyARU6ReuOjuOVxtuYdA,leadbolt_api,A387217_,Install,1.0,114.30.165.97,9FF76684-B94C-4D6E-A68F-DCF7F018084E,1558634297,2019-05-24 01:58:17,1558634323,2019-05-24 01:58:43,1558634354,1636-167670898_1145929,http://ad.leadbolt.net/conv/?track_id=1145929&clk_id=1636-167670898&key=b50a7f9566a5aa4d,idfa_9FF76684-B94C-4D6E-A68F-DCF7F018084E,ko-KR
ltUyARU6ReuOjuOVxtuYdA,leadbolt_api,A387217_,Install,1.0,112.220.210.10,62BD01A5-E7ED-4960-909E-3332222F3C93,1558634704,2019-05-24 02:05:04,1558634788,2019-05-24 02:06:28,1558634819,1637-167855769_1145929,http://ad.leadbolt.net/conv/?track_id=1145929&clk_id=1637-167855769&key=b50a7f9566a5aa4d,idfa_62BD01A5-E7ED-4960-909E-3332222F3C93,ko-KR
ltUyARU6ReuOjuOVxtuYdA,leadbolt_api,A387217_,Install,1.0,118.63.20.103,40CACC02-B8C5-40BC-BB82-C6BBDD734698,1558634675,2019-05-24 02:04:35,1558634749,2019-05-24 02:05:49,1558634780,1638-152336772_1145929,http://ad.leadbolt.net/conv/?track_id=1145929&clk_id=1638-152336772&key=b50a7f9566a5aa4d,idfa_40CACC02-B8C5-40BC-BB82-C6BBDD734698,ko-KR
ltUyARU6ReuOjuOVxtuYdA,leadbolt_api,A387217_,Install,1.0,114.30.165.104,8E308D79-8691-41B1-8465-62358B79683B,1558634697,2019-05-24 02:04:57,1558634779,2019-05-24 02:06:19,1558634809,1648-130546196_1145929,http://ad.leadbolt.net/conv/?track_id=1145929&clk_id=1648-130546196&key=b50a7f9566a5aa4d,idfa_8E308D79-8691-41B1-8465-62358B79683B,ko-KR
ltUyARU6ReuOjuOVxtuYdA,leadbolt_api,A387217_,Install,1.0,221.166.217.25,FD771429-464B-4D77-9948-E633DE429511,1558634714,2019-05-24 02:05:14,1558634794,2019-05-24 02:06:34,1558634825,1637-167855858_1145929,http://ad.leadbolt.net/conv/?track_id=1145929&clk_id=1637-167855858&key=b50a7f9566a5aa4d,idfa_FD771429-464B-4D77-9948-E633DE429511,ko-KR
ltUyARU6ReuOjuOVxtuYdA,leadbolt_api,A387217_,Install,1.0,210.223.250.3,A9DEF9D9-6C78-47CD-A174-D79AB1D6E8A0,1558633501,2019-05-24 01:45:01,1558633585,2019-05-24 01:46:25,1558633616,1660-49188529_1145929,http://ad.leadbolt.net/conv/?track_id=1145929&clk_id=1660-49188529&key=b50a7f9566a5aa4d,idfa_A9DEF9D9-6C78-47CD-A174-D79AB1D6E8A0,ko-KR
