cid,partner_id,channel_id,action_id,cpi,ip,idfa,click time,click datetime,install time,install datetime,postback time,click id,postback url,unique user id
QCJ9YSatQLG9KtzTvbCOXQ,leadbolt_api,A214071_,Install,0.4,,ad522a23-7ed8-4591-b0d1-ec8d8fecc802,1557878622,2019-05-15 08:03:42,1557878653,2019-05-15 08:04:13,1557878684,1637-157040653_1144672,http://ad.leadbolt.net/conv/?track_id=1144672&clk_id=1637-157040653&key=b50a7f9566a5aa4d,idfa_ad522a23-7ed8-4591-b0d1-ec8d8fecc802,Bahasa%20Indonesia
QCJ9YSatQLG9KtzTvbCOXQ,leadbolt_api,A214071_,Install,0.4,,57804267-798a-48c8-b542-283efa2d4cfa,1557879711,2019-05-15 08:21:51,1557879763,2019-05-15 08:22:43,1557879794,1655-128991960_1144672,http://ad.leadbolt.net/conv/?track_id=1144672&clk_id=1655-128991960&key=b50a7f9566a5aa4d,idfa_57804267-798a-48c8-b542-283efa2d4cfa,Indonesia
QCJ9YSatQLG9KtzTvbCOXQ,leadbolt_api,A214071_,Install,0.4,,da308b7c-6934-46dd-8c09-27cc9be5a111,1557878856,2019-05-15 08:07:36,1557878895,2019-05-15 08:08:15,1557878926,1641-154708943_1144672,http://ad.leadbolt.net/conv/?track_id=1144672&clk_id=1641-154708943&key=b50a7f9566a5aa4d,idfa_da308b7c-6934-46dd-8c09-27cc9be5a111,Indonesia
QCJ9YSatQLG9KtzTvbCOXQ,leadbolt_api,A214071_,Install,0.4,,01a931f4-7650-4a53-9b0b-d222bf65e543,1557878851,2019-05-15 08:07:31,1557878889,2019-05-15 08:08:09,1557878920,1645-154609029_1144672,http://ad.leadbolt.net/conv/?track_id=1144672&clk_id=1645-154609029&key=b50a7f9566a5aa4d,idfa_01a931f4-7650-4a53-9b0b-d222bf65e543,Bahasa%20Indonesia
QCJ9YSatQLG9KtzTvbCOXQ,leadbolt_api,A214071_,Install,0.4,,1fbc02c4-b370-457c-9f4d-ff933ca12418,1557880610,2019-05-15 08:36:50,1557880659,2019-05-15 08:37:39,1557880691,1647-133516555_1144672,http://ad.leadbolt.net/conv/?track_id=1144672&clk_id=1647-133516555&key=b50a7f9566a5aa4d,idfa_1fbc02c4-b370-457c-9f4d-ff933ca12418,Bahasa%20Indonesia
QCJ9YSatQLG9KtzTvbCOXQ,leadbolt_api,A214071_,Install,0.4,,ad5882c1-6e0f-4dc5-b865-e736a2e67fb4,1557856807,2019-05-15 02:00:07,1557856848,2019-05-15 02:00:48,1557856879,1640-154425269_1144672,http://ad.leadbolt.net/conv/?track_id=1144672&clk_id=1640-154425269&key=b50a7f9566a5aa4d,idfa_ad5882c1-6e0f-4dc5-b865-e736a2e67fb4,Indonesia
QCJ9YSatQLG9KtzTvbCOXQ,leadbolt_api,A214071_,Install,0.4,,98788caa-6237-4108-a679-cdcb45657608,1557880667,2019-05-15 08:37:47,1557880877,2019-05-15 08:41:17,1557880909,1652-129466984_1144672,http://ad.leadbolt.net/conv/?track_id=1144672&clk_id=1652-129466984&key=b50a7f9566a5aa4d,idfa_98788caa-6237-4108-a679-cdcb45657608,Bahasa%20Indonesia
QCJ9YSatQLG9KtzTvbCOXQ,leadbolt_api,A214071_,Install,0.4,,03305cf8-11db-4c81-8ab9-5b03ad605b7c,1557880610,2019-05-15 08:36:50,1557880656,2019-05-15 08:37:36,1557880687,1647-133516557_1144672,http://ad.leadbolt.net/conv/?track_id=1144672&clk_id=1647-133516557&key=b50a7f9566a5aa4d,idfa_03305cf8-11db-4c81-8ab9-5b03ad605b7c,Indonesia
QCJ9YSatQLG9KtzTvbCOXQ,leadbolt_api,A214071_,Install,0.4,,76f6e650-9c9a-46db-a26a-e8de520be56c,1557880669,2019-05-15 08:37:49,1557880713,2019-05-15 08:38:33,1557880743,1641-154739382_1144672,http://ad.leadbolt.net/conv/?track_id=1144672&clk_id=1641-154739382&key=b50a7f9566a5aa4d,idfa_76f6e650-9c9a-46db-a26a-e8de520be56c,Bahasa%20Indonesia
QCJ9YSatQLG9KtzTvbCOXQ,leadbolt_api,A214071_,Install,0.4,,897a1bc4-8c08-49e5-9956-d27d4d9a45fb,1557880611,2019-05-15 08:36:51,1557880644,2019-05-15 08:37:24,1557880676,1643-142596856_1144672,http://ad.leadbolt.net/conv/?track_id=1144672&clk_id=1643-142596856&key=b50a7f9566a5aa4d,idfa_897a1bc4-8c08-49e5-9956-d27d4d9a45fb,Indonesia
QCJ9YSatQLG9KtzTvbCOXQ,leadbolt_api,A214071_,Install,0.4,,3a604a87-9786-4a1e-b082-f9ddf1b9bc5d,1557881206,2019-05-15 08:46:46,1557881243,2019-05-15 08:47:23,1557881275,1659-103670711_1144672,http://ad.leadbolt.net/conv/?track_id=1144672&clk_id=1659-103670711&key=b50a7f9566a5aa4d,idfa_3a604a87-9786-4a1e-b082-f9ddf1b9bc5d,Indonesia
QCJ9YSatQLG9KtzTvbCOXQ,leadbolt_api,A214071_,Install,0.4,,06df6965-92f7-47f5-ab3f-3ecf633a369c,1557880666,2019-05-15 08:37:46,1557880899,2019-05-15 08:41:39,1557880930,1658-91144653_1144672,http://ad.leadbolt.net/conv/?track_id=1144672&clk_id=1658-91144653&key=b50a7f9566a5aa4d,idfa_06df6965-92f7-47f5-ab3f-3ecf633a369c,Indonesia
QCJ9YSatQLG9KtzTvbCOXQ,leadbolt_api,A214071_,Install,0.4,,a5446730-0761-4530-8734-df195460a51f,1557878677,2019-05-15 08:04:37,1557878713,2019-05-15 08:05:13,1557878745,1639-155139675_1144672,http://ad.leadbolt.net/conv/?track_id=1144672&clk_id=1639-155139675&key=b50a7f9566a5aa4d,idfa_a5446730-0761-4530-8734-df195460a51f,Bahasa%20Indonesia
QCJ9YSatQLG9KtzTvbCOXQ,leadbolt_api,A214071_,Install,0.4,,badb53e3-b9ee-4f2a-8a72-cdeb66597722,1557809287,2019-05-14 12:48:07,1557809348,2019-05-14 12:49:08,1557809379,1645-153510938_1144672,http://ad.leadbolt.net/conv/?track_id=1144672&clk_id=1645-153510938&key=b50a7f9566a5aa4d,idfa_badb53e3-b9ee-4f2a-8a72-cdeb66597722,Indonesia
QCJ9YSatQLG9KtzTvbCOXQ,leadbolt_api,A214071_,Install,0.4,,633b67a3-e9ec-4a3e-b37f-cb13af4cc555,1557880551,2019-05-15 08:35:51,1557880587,2019-05-15 08:36:27,1557880617,1655-129006038_1144672,http://ad.leadbolt.net/conv/?track_id=1144672&clk_id=1655-129006038&key=b50a7f9566a5aa4d,idfa_633b67a3-e9ec-4a3e-b37f-cb13af4cc555,Indonesia
QCJ9YSatQLG9KtzTvbCOXQ,leadbolt_api,A214071_,Install,0.4,,33ad8d06-d8d7-44fa-9a1b-fd4bd691e796,1557880379,2019-05-15 08:32:59,1557881073,2019-05-15 08:44:33,1557881104,1639-155168140_1144672,http://ad.leadbolt.net/conv/?track_id=1144672&clk_id=1639-155168140&key=b50a7f9566a5aa4d,idfa_33ad8d06-d8d7-44fa-9a1b-fd4bd691e796,Indonesia
QCJ9YSatQLG9KtzTvbCOXQ,leadbolt_api,A214071_,Install,0.4,,aaabbc24-ff8f-440b-a850-4ff1944097c5,1557814595,2019-05-14 14:16:35,1557814639,2019-05-14 14:17:19,1557814670,1639-154126004_1144672,http://ad.leadbolt.net/conv/?track_id=1144672&clk_id=1639-154126004&key=b50a7f9566a5aa4d,idfa_aaabbc24-ff8f-440b-a850-4ff1944097c5,Bahasa%20Indonesia
QCJ9YSatQLG9KtzTvbCOXQ,leadbolt_api,A214071_,Install,0.4,,a1d2e241-5bb1-4bc9-bc5d-3be2cf53be5c,1557879674,2019-05-15 08:21:14,1557879732,2019-05-15 08:22:12,1557879763,1652-129450115_1144672,http://ad.leadbolt.net/conv/?track_id=1144672&clk_id=1652-129450115&key=b50a7f9566a5aa4d,idfa_a1d2e241-5bb1-4bc9-bc5d-3be2cf53be5c,Bahasa%20Indonesia
QCJ9YSatQLG9KtzTvbCOXQ,leadbolt_api,A214071_,Install,0.4,,d60efacc-b633-4c54-a450-2fb524e98a76,1557879392,2019-05-15 08:16:32,1557879617,2019-05-15 08:20:17,1557879649,1651-129222981_1144672,http://ad.leadbolt.net/conv/?track_id=1144672&clk_id=1651-129222981&key=b50a7f9566a5aa4d,idfa_d60efacc-b633-4c54-a450-2fb524e98a76,Bahasa%20Indonesia
QCJ9YSatQLG9KtzTvbCOXQ,leadbolt_api,A214071_,Install,0.4,,f52086c8-498e-490e-88d8-e9d22a85db99,1557878798,2019-05-15 08:06:38,1557878833,2019-05-15 08:07:13,1557878863,1647-133486105_1144672,http://ad.leadbolt.net/conv/?track_id=1144672&clk_id=1647-133486105&key=b50a7f9566a5aa4d,idfa_f52086c8-498e-490e-88d8-e9d22a85db99,Bahasa%20Indonesia
QCJ9YSatQLG9KtzTvbCOXQ,leadbolt_api,A214071_,Install,0.4,,b3be6ddb-a2e7-4657-92bd-9937dee25976,1557880372,2019-05-15 08:32:52,1557880409,2019-05-15 08:33:29,1557880440,1658-91140198_1144672,http://ad.leadbolt.net/conv/?track_id=1144672&clk_id=1658-91140198&key=b50a7f9566a5aa4d,idfa_b3be6ddb-a2e7-4657-92bd-9937dee25976,Indonesia
QCJ9YSatQLG9KtzTvbCOXQ,leadbolt_api,A214071_,Install,0.4,,e7b7f43b-43a3-4c44-b650-53645b54423a,1557878432,2019-05-15 08:00:32,1557878485,2019-05-15 08:01:25,1557878516,1657-109739073_1144672,http://ad.leadbolt.net/conv/?track_id=1144672&clk_id=1657-109739073&key=b50a7f9566a5aa4d,idfa_e7b7f43b-43a3-4c44-b650-53645b54423a,Bahasa%20Indonesia
QCJ9YSatQLG9KtzTvbCOXQ,leadbolt_api,A214071_,Install,0.4,,eb2fb0e6-69b9-4471-a65c-2fd76b233951,1557879549,2019-05-15 08:19:09,1557879588,2019-05-15 08:19:48,1557879621,1648-121008043_1144672,http://ad.leadbolt.net/conv/?track_id=1144672&clk_id=1648-121008043&key=b50a7f9566a5aa4d,idfa_eb2fb0e6-69b9-4471-a65c-2fd76b233951,Indonesia
QCJ9YSatQLG9KtzTvbCOXQ,leadbolt_api,A214071_,Install,0.4,,0d4f0d1d-2a80-451e-901e-88aff95ae036,1557880246,2019-05-15 08:30:46,1557880284,2019-05-15 08:31:24,1557880315,1652-129459726_1144672,http://ad.leadbolt.net/conv/?track_id=1144672&clk_id=1652-129459726&key=b50a7f9566a5aa4d,idfa_0d4f0d1d-2a80-451e-901e-88aff95ae036,English
QCJ9YSatQLG9KtzTvbCOXQ,leadbolt_api,A214071_,Install,0.4,,118150b6-8520-4f68-99e0-9c9fbda51f74,1557880672,2019-05-15 08:37:52,1557880709,2019-05-15 08:38:29,1557880740,1653-117042513_1144672,http://ad.leadbolt.net/conv/?track_id=1144672&clk_id=1653-117042513&key=b50a7f9566a5aa4d,idfa_118150b6-8520-4f68-99e0-9c9fbda51f74,Indonesia
QCJ9YSatQLG9KtzTvbCOXQ,leadbolt_api,A214071_,Install,0.4,,2877f7d9-544b-4965-bb39-8118e9807aff,1557856920,2019-05-15 02:02:00,1557856971,2019-05-15 02:02:51,1557857001,1653-116762378_1144672,http://ad.leadbolt.net/conv/?track_id=1144672&clk_id=1653-116762378&key=b50a7f9566a5aa4d,idfa_2877f7d9-544b-4965-bb39-8118e9807aff,Bahasa%20Indonesia
QCJ9YSatQLG9KtzTvbCOXQ,leadbolt_api,A214071_,Install,0.4,,bbb6ef7e-9617-4449-8a51-46749883bea0,1557879714,2019-05-15 08:21:54,1557879749,2019-05-15 08:22:29,1557879779,1661-7104358_1144672,http://ad.leadbolt.net/conv/?track_id=1144672&clk_id=1661-7104358&key=b50a7f9566a5aa4d,idfa_bbb6ef7e-9617-4449-8a51-46749883bea0,Indonesia
QCJ9YSatQLG9KtzTvbCOXQ,leadbolt_api,A214071_,Install,0.4,,54242dc8-e837-4026-963e-172e80db6620,1557880307,2019-05-15 08:31:47,1557880347,2019-05-15 08:32:27,1557880378,1639-155166913_1144672,http://ad.leadbolt.net/conv/?track_id=1144672&clk_id=1639-155166913&key=b50a7f9566a5aa4d,idfa_54242dc8-e837-4026-963e-172e80db6620,Bahasa%20Indonesia
QCJ9YSatQLG9KtzTvbCOXQ,leadbolt_api,A214071_,Install,0.4,,68f29d18-bd6f-4058-88a5-2ffd89d57533,1557878976,2019-05-15 08:09:36,1557879013,2019-05-15 08:10:13,1557879044,1648-120999791_1144672,http://ad.leadbolt.net/conv/?track_id=1144672&clk_id=1648-120999791&key=b50a7f9566a5aa4d,idfa_68f29d18-bd6f-4058-88a5-2ffd89d57533,Indonesia
QCJ9YSatQLG9KtzTvbCOXQ,leadbolt_api,A214071_,Install,0.4,,7be8c0bf-1e2b-4aa6-ba87-552a398451eb,1557881145,2019-05-15 08:45:45,1557881186,2019-05-15 08:46:26,1557881217,1649-129727257_1144672,http://ad.leadbolt.net/conv/?track_id=1144672&clk_id=1649-129727257&key=b50a7f9566a5aa4d,idfa_7be8c0bf-1e2b-4aa6-ba87-552a398451eb,English
QCJ9YSatQLG9KtzTvbCOXQ,leadbolt_api,A214071_,Install,0.4,,b1f53c7b-4373-44bc-8527-016f747f6a53,1557813693,2019-05-14 14:01:33,1557813732,2019-05-14 14:02:12,1557813762,1644-154044712_1144672,http://ad.leadbolt.net/conv/?track_id=1144672&clk_id=1644-154044712&key=b50a7f9566a5aa4d,idfa_b1f53c7b-4373-44bc-8527-016f747f6a53,Indonesia
QCJ9YSatQLG9KtzTvbCOXQ,leadbolt_api,A214071_,Install,0.4,,507a85cf-15ed-405d-8a2c-532e55ea8683,1557878554,2019-05-15 08:02:34,1557878591,2019-05-15 08:03:11,1557878622,1638-142768842_1144672,http://ad.leadbolt.net/conv/?track_id=1144672&clk_id=1638-142768842&key=b50a7f9566a5aa4d,idfa_507a85cf-15ed-405d-8a2c-532e55ea8683,Indonesia
