cid,partner_id,channel_id,action_id,cpi,ip,idfa,click time,click datetime,install time,install datetime,postback time,click id,postback url,unique user id
ftVA2QOJTgulE0c77Scukw,leadbolt_api,A961043_,Install,2.4,220.147.24.34,0B8E58D5-3765-4B28-A11E-AFEA9A0558A6,1558544705,2019-05-23 01:05:05,1558545078,2019-05-23 01:11:18,1558545108,1660-48007690_1157015,http://ad.leadbolt.net/conv/?track_id=1157015&clk_id=1660-48007690&key=b50a7f9566a5aa4d,idfa_0B8E58D5-3765-4B28-A11E-AFEA9A0558A6,ja
ftVA2QOJTgulE0c77Scukw,leadbolt_api,A961043_,Install,2.4,126.235.108.11,565B0D97-2A90-44D9-A8DA-79A956911F3F,1559030044,2019-05-28 15:54:04,1559030082,2019-05-28 15:54:42,1559030112,1638-157516409_1157015,http://ad.leadbolt.net/conv/?track_id=1157015&clk_id=1638-157516409&key=b50a7f9566a5aa4d,idfa_565B0D97-2A90-44D9-A8DA-79A956911F3F,ja
ftVA2QOJTgulE0c77Scukw,leadbolt_api,A961043_,Install,2.4,220.208.11.131,031B76AF-5BC1-4A04-A55F-A6132BBB34C6,1559029699,2019-05-28 15:48:19,1559029744,2019-05-28 15:49:04,1559029775,1656-145550960_1157015,http://ad.leadbolt.net/conv/?track_id=1157015&clk_id=1656-145550960&key=b50a7f9566a5aa4d,idfa_031B76AF-5BC1-4A04-A55F-A6132BBB34C6,ja
ftVA2QOJTgulE0c77Scukw,leadbolt_api,A961043_,Install,2.4,126.110.51.153,2382DC09-D990-4D7B-88BD-0495FEB5B7AD,1559029368,2019-05-28 15:42:48,1559029409,2019-05-28 15:43:29,1559029441,1636-173408783_1157015,http://ad.leadbolt.net/conv/?track_id=1157015&clk_id=1636-173408783&key=b50a7f9566a5aa4d,idfa_2382DC09-D990-4D7B-88BD-0495FEB5B7AD,ja
ftVA2QOJTgulE0c77Scukw,leadbolt_api,A961043_,Install,2.4,153.136.192.42,DEA6387C-F02D-4A4E-B0DF-FDDC487F5120,1559030618,2019-05-28 16:03:38,1559030657,2019-05-28 16:04:17,1559030687,1643-157295720_1157015,http://ad.leadbolt.net/conv/?track_id=1157015&clk_id=1643-157295720&key=b50a7f9566a5aa4d,idfa_DEA6387C-F02D-4A4E-B0DF-FDDC487F5120,ja
ftVA2QOJTgulE0c77Scukw,leadbolt_api,A961043_,Install,2.4,116.65.137.134,B57B8CF8-AD97-4561-856C-99D0C84F6B34,1559030555,2019-05-28 16:02:35,1559030598,2019-05-28 16:03:18,1559030630,1650-145670189_1157015,http://ad.leadbolt.net/conv/?track_id=1157015&clk_id=1650-145670189&key=b50a7f9566a5aa4d,idfa_B57B8CF8-AD97-4561-856C-99D0C84F6B34,ja
ftVA2QOJTgulE0c77Scukw,leadbolt_api,A961043_,Install,2.4,150.246.178.235,4448F5E0-6A42-45A9-AD13-798A1EBA5AD0,1559029807,2019-05-28 15:50:07,1559029853,2019-05-28 15:50:53,1559029884,1644-171669235_1157015,http://ad.leadbolt.net/conv/?track_id=1157015&clk_id=1644-171669235&key=b50a7f9566a5aa4d,idfa_4448F5E0-6A42-45A9-AD13-798A1EBA5AD0,ja
ftVA2QOJTgulE0c77Scukw,leadbolt_api,A961043_,Install,2.4,149.54.227.185,FEDF507C-A613-4857-8177-C86C0821B741,1559030065,2019-05-28 15:54:25,1559030105,2019-05-28 15:55:05,1559030135,1636-173419976_1157015,http://ad.leadbolt.net/conv/?track_id=1157015&clk_id=1636-173419976&key=b50a7f9566a5aa4d,idfa_FEDF507C-A613-4857-8177-C86C0821B741,ja
ftVA2QOJTgulE0c77Scukw,leadbolt_api,A961043_,Install,2.4,119.170.34.2,875D0CF5-04A9-45CD-8D2A-0E475E5EDBA5,1559028917,2019-05-28 15:35:17,1559028957,2019-05-28 15:35:57,1559028988,1661-23640648_1157015,http://ad.leadbolt.net/conv/?track_id=1157015&clk_id=1661-23640648&key=b50a7f9566a5aa4d,idfa_875D0CF5-04A9-45CD-8D2A-0E475E5EDBA5,ja
ftVA2QOJTgulE0c77Scukw,leadbolt_api,A961043_,Install,2.4,220.247.11.107,9DCEC30A-E53C-447C-8362-30B039FC178D,1559029119,2019-05-28 15:38:39,1559029164,2019-05-28 15:39:24,1559029196,1655-145489012_1157015,http://ad.leadbolt.net/conv/?track_id=1157015&clk_id=1655-145489012&key=b50a7f9566a5aa4d,idfa_9DCEC30A-E53C-447C-8362-30B039FC178D,ja
ftVA2QOJTgulE0c77Scukw,leadbolt_api,A961043_,Install,2.4,210.146.112.135,AE9FB8E1-7428-4DCE-9BCA-FE2567DB94B3,1559028995,2019-05-28 15:36:35,1559029042,2019-05-28 15:37:22,1559029073,1651-145771574_1157015,http://ad.leadbolt.net/conv/?track_id=1157015&clk_id=1651-145771574&key=b50a7f9566a5aa4d,idfa_AE9FB8E1-7428-4DCE-9BCA-FE2567DB94B3,ja
ftVA2QOJTgulE0c77Scukw,leadbolt_api,A961043_,Install,2.4,27.143.10.195,331733D3-6437-425E-B8CD-D4E9C458CCCF,1559028757,2019-05-28 15:32:37,1559028810,2019-05-28 15:33:30,1559028841,1641-171245238_1157015,http://ad.leadbolt.net/conv/?track_id=1157015&clk_id=1641-171245238&key=b50a7f9566a5aa4d,idfa_331733D3-6437-425E-B8CD-D4E9C458CCCF,ja
ftVA2QOJTgulE0c77Scukw,leadbolt_api,A961043_,Install,2.4,157.14.175.145,D1A43169-2826-4F9D-96CB-E81811724DA4,1559029157,2019-05-28 15:39:17,1559029198,2019-05-28 15:39:58,1559029228,1637-173596264_1157015,http://ad.leadbolt.net/conv/?track_id=1157015&clk_id=1637-173596264&key=b50a7f9566a5aa4d,idfa_D1A43169-2826-4F9D-96CB-E81811724DA4,ja
ftVA2QOJTgulE0c77Scukw,leadbolt_api,A961043_,Install,2.4,157.147.59.121,442B5F14-1010-444B-ACE7-DD0D0E1C4AC2,1559029163,2019-05-28 15:39:23,1559029204,2019-05-28 15:40:04,1559029234,1641-171251093_1157015,http://ad.leadbolt.net/conv/?track_id=1157015&clk_id=1641-171251093&key=b50a7f9566a5aa4d,idfa_442B5F14-1010-444B-ACE7-DD0D0E1C4AC2,ja
ftVA2QOJTgulE0c77Scukw,leadbolt_api,A961043_,Install,2.4,153.210.169.119,2F723884-81A3-4717-B72D-A9A3031A1648,1559029937,2019-05-28 15:52:17,1559029975,2019-05-28 15:52:55,1559030005,1644-171671198_1157015,http://ad.leadbolt.net/conv/?track_id=1157015&clk_id=1644-171671198&key=b50a7f9566a5aa4d,idfa_2F723884-81A3-4717-B72D-A9A3031A1648,ja
ftVA2QOJTgulE0c77Scukw,leadbolt_api,A961043_,Install,2.4,14.13.164.33,06CB5B6C-996C-408B-832B-F65871D5FE0C,1559030262,2019-05-28 15:57:42,1559030300,2019-05-28 15:58:20,1559030331,1654-146166476_1157015,http://ad.leadbolt.net/conv/?track_id=1157015&clk_id=1654-146166476&key=b50a7f9566a5aa4d,idfa_06CB5B6C-996C-408B-832B-F65871D5FE0C,ja
ftVA2QOJTgulE0c77Scukw,leadbolt_api,A961043_,Install,2.4,202.229.136.117,47EE7F59-81EA-4521-B4A2-AD2827E47828,1559030502,2019-05-28 16:01:42,1559030543,2019-05-28 16:02:23,1559030574,1656-145563508_1157015,http://ad.leadbolt.net/conv/?track_id=1157015&clk_id=1656-145563508&key=b50a7f9566a5aa4d,idfa_47EE7F59-81EA-4521-B4A2-AD2827E47828,ja
ftVA2QOJTgulE0c77Scukw,leadbolt_api,A961043_,Install,2.4,150.246.163.21,62805BEB-26A7-45B1-A9B3-F8864B7CBF06,1559029929,2019-05-28 15:52:09,1559029971,2019-05-28 15:52:51,1559030002,1648-135713119_1157015,http://ad.leadbolt.net/conv/?track_id=1157015&clk_id=1648-135713119&key=b50a7f9566a5aa4d,idfa_62805BEB-26A7-45B1-A9B3-F8864B7CBF06,ja
ftVA2QOJTgulE0c77Scukw,leadbolt_api,A961043_,Install,2.4,14.101.216.169,9E054A7B-CCC7-4675-AF76-7E1A13AC518E,1559029565,2019-05-28 15:46:05,1559029604,2019-05-28 15:46:44,1559029635,1640-171255484_1157015,http://ad.leadbolt.net/conv/?track_id=1157015&clk_id=1640-171255484&key=b50a7f9566a5aa4d,idfa_9E054A7B-CCC7-4675-AF76-7E1A13AC518E,ja
ftVA2QOJTgulE0c77Scukw,leadbolt_api,A961043_,Install,2.4,123.48.53.94,04F27BDB-8FAE-4882-9E7C-FCDDAEBF965F,1558547802,2019-05-23 01:56:42,1558547935,2019-05-23 01:58:55,1558547966,1648-129510044_1157015,http://ad.leadbolt.net/conv/?track_id=1157015&clk_id=1648-129510044&key=b50a7f9566a5aa4d,idfa_04F27BDB-8FAE-4882-9E7C-FCDDAEBF965F,ja
ftVA2QOJTgulE0c77Scukw,leadbolt_api,A961043_,Install,2.4,222.12.33.15,73E2B391-FAEC-4840-928C-58F6C155910A,1559030744,2019-05-28 16:05:44,1559030781,2019-05-28 16:06:21,1559030812,1644-171685909_1157015,http://ad.leadbolt.net/conv/?track_id=1157015&clk_id=1644-171685909&key=b50a7f9566a5aa4d,idfa_73E2B391-FAEC-4840-928C-58F6C155910A,ja
ftVA2QOJTgulE0c77Scukw,leadbolt_api,A961043_,Install,2.4,221.254.209.28,D6EE0F0B-36D4-4A79-8DB4-34B21B04EBCE,1559030436,2019-05-28 16:00:36,1559030483,2019-05-28 16:01:23,1559030514,1645-171148306_1157015,http://ad.leadbolt.net/conv/?track_id=1157015&clk_id=1645-171148306&key=b50a7f9566a5aa4d,idfa_D6EE0F0B-36D4-4A79-8DB4-34B21B04EBCE,ja
ftVA2QOJTgulE0c77Scukw,leadbolt_api,A961043_,Install,2.4,126.68.232.27,FF4E3BD5-91C2-4703-BB92-88CB95F0187C,1559028689,2019-05-28 15:31:29,1559028735,2019-05-28 15:32:15,1559028765,1655-145482855_1157015,http://ad.leadbolt.net/conv/?track_id=1157015&clk_id=1655-145482855&key=b50a7f9566a5aa4d,idfa_FF4E3BD5-91C2-4703-BB92-88CB95F0187C,ja
ftVA2QOJTgulE0c77Scukw,leadbolt_api,A961043_,Install,2.4,60.43.4.196,40398D1A-6ED3-4134-928E-E123A4BD9A1D,1558545325,2019-05-23 01:15:25,1558545457,2019-05-23 01:17:37,1558545488,1657-119387208_1157015,http://ad.leadbolt.net/conv/?track_id=1157015&clk_id=1657-119387208&key=b50a7f9566a5aa4d,idfa_40398D1A-6ED3-4134-928E-E123A4BD9A1D,ja
ftVA2QOJTgulE0c77Scukw,leadbolt_api,A961043_,Install,2.4,128.53.217.175,52294EB7-675D-4917-9652-B754A614CC63,1559029307,2019-05-28 15:41:47,1559029349,2019-05-28 15:42:29,1559029379,1638-157505495_1157015,http://ad.leadbolt.net/conv/?track_id=1157015&clk_id=1638-157505495&key=b50a7f9566a5aa4d,idfa_52294EB7-675D-4917-9652-B754A614CC63,ja
ftVA2QOJTgulE0c77Scukw,leadbolt_api,A961043_,Install,2.4,175.158.122.243,05A77574-823D-4532-9767-F6671FEB3B17,1559030261,2019-05-28 15:57:41,1559030310,2019-05-28 15:58:30,1559030341,1639-171744466_1157015,http://ad.leadbolt.net/conv/?track_id=1157015&clk_id=1639-171744466&key=b50a7f9566a5aa4d,idfa_05A77574-823D-4532-9767-F6671FEB3B17,ja
ftVA2QOJTgulE0c77Scukw,leadbolt_api,A961043_,Install,2.4,160.86.209.112,5C2950F0-B61B-4AF9-8CFD-6FFD7398DA98,1559030732,2019-05-28 16:05:32,1559030770,2019-05-28 16:06:10,1559030801,1648-135726602_1157015,http://ad.leadbolt.net/conv/?track_id=1157015&clk_id=1648-135726602&key=b50a7f9566a5aa4d,idfa_5C2950F0-B61B-4AF9-8CFD-6FFD7398DA98,ja
ftVA2QOJTgulE0c77Scukw,leadbolt_api,A961043_,Install,2.4,121.92.199.122,D49FDD5E-FE5D-4C23-A507-09B4AD1F0025,1559029424,2019-05-28 15:43:44,1559029462,2019-05-28 15:44:22,1559029492,1641-171255221_1157015,http://ad.leadbolt.net/conv/?track_id=1157015&clk_id=1641-171255221&key=b50a7f9566a5aa4d,idfa_D49FDD5E-FE5D-4C23-A507-09B4AD1F0025,ja
ftVA2QOJTgulE0c77Scukw,leadbolt_api,A961043_,Install,2.4,126.114.251.78,E0589CE1-7FAB-4748-9D68-D7199BC4D061,1559028928,2019-05-28 15:35:28,1559028965,2019-05-28 15:36:05,1559028996,1652-146007287_1157015,http://ad.leadbolt.net/conv/?track_id=1157015&clk_id=1652-146007287&key=b50a7f9566a5aa4d,idfa_E0589CE1-7FAB-4748-9D68-D7199BC4D061,ja
ftVA2QOJTgulE0c77Scukw,leadbolt_api,A961043_,Install,2.4,114.161.97.118,FCB7479A-DC96-476F-ADE2-CF401D1A57FE,1559029825,2019-05-28 15:50:25,1559029863,2019-05-28 15:51:03,1559029894,1651-145784411_1157015,http://ad.leadbolt.net/conv/?track_id=1157015&clk_id=1651-145784411&key=b50a7f9566a5aa4d,idfa_FCB7479A-DC96-476F-ADE2-CF401D1A57FE,ja
ftVA2QOJTgulE0c77Scukw,leadbolt_api,A961043_,Install,2.4,60.42.64.133,6BD0E997-8606-436C-BBB3-2791A4EF64F1,1559028728,2019-05-28 15:32:08,1559028771,2019-05-28 15:32:51,1559028801,1639-171720665_1157015,http://ad.leadbolt.net/conv/?track_id=1157015&clk_id=1639-171720665&key=b50a7f9566a5aa4d,idfa_6BD0E997-8606-436C-BBB3-2791A4EF64F1,ja
ftVA2QOJTgulE0c77Scukw,leadbolt_api,A961043_,Install,2.4,219.162.168.12,E22659E6-0E11-41C7-93AA-9332BAE7E05E,1559030504,2019-05-28 16:01:44,1559030546,2019-05-28 16:02:26,1559030576,1636-173427264_1157015,http://ad.leadbolt.net/conv/?track_id=1157015&clk_id=1636-173427264&key=b50a7f9566a5aa4d,idfa_E22659E6-0E11-41C7-93AA-9332BAE7E05E,ja
ftVA2QOJTgulE0c77Scukw,leadbolt_api,A961043_,Install,2.4,222.12.33.15,9DA20492-63B1-4B19-90A1-EAD65647C3A3,1559030276,2019-05-28 15:57:56,1559030315,2019-05-28 15:58:35,1559030346,1650-145665132_1157015,http://ad.leadbolt.net/conv/?track_id=1157015&clk_id=1650-145665132&key=b50a7f9566a5aa4d,idfa_9DA20492-63B1-4B19-90A1-EAD65647C3A3,ja
ftVA2QOJTgulE0c77Scukw,leadbolt_api,A961043_,Install,2.4,152.165.75.64,8053CFFB-D4E4-4F55-B331-74B69DAD89B7,1559029691,2019-05-28 15:48:11,1559029733,2019-05-28 15:48:53,1559029764,1637-173604888_1157015,http://ad.leadbolt.net/conv/?track_id=1157015&clk_id=1637-173604888&key=b50a7f9566a5aa4d,idfa_8053CFFB-D4E4-4F55-B331-74B69DAD89B7,ja
ftVA2QOJTgulE0c77Scukw,leadbolt_api,A961043_,Install,2.4,180.16.240.252,25D6D5ED-AFA5-4890-B21B-CE1F4A9B3B27,1559030095,2019-05-28 15:54:55,1559030134,2019-05-28 15:55:34,1559030165,1661-23658833_1157015,http://ad.leadbolt.net/conv/?track_id=1157015&clk_id=1661-23658833&key=b50a7f9566a5aa4d,idfa_25D6D5ED-AFA5-4890-B21B-CE1F4A9B3B27,ja
ftVA2QOJTgulE0c77Scukw,leadbolt_api,A961043_,Install,2.4,153.214.179.57,B1F7BED4-346B-4818-8021-9FC3686ECC6B,1559029551,2019-05-28 15:45:51,1559029599,2019-05-28 15:46:39,1559029630,1650-145653853_1157015,http://ad.leadbolt.net/conv/?track_id=1157015&clk_id=1650-145653853&key=b50a7f9566a5aa4d,idfa_B1F7BED4-346B-4818-8021-9FC3686ECC6B,ja
ftVA2QOJTgulE0c77Scukw,leadbolt_api,A961043_,Install,2.4,118.13.57.249,31F04608-1212-4947-963B-E81E689708CC,1559029678,2019-05-28 15:47:58,1559029722,2019-05-28 15:48:42,1559029753,1659-120224210_1157015,http://ad.leadbolt.net/conv/?track_id=1157015&clk_id=1659-120224210&key=b50a7f9566a5aa4d,idfa_31F04608-1212-4947-963B-E81E689708CC,ja
ftVA2QOJTgulE0c77Scukw,leadbolt_api,A961043_,Install,2.4,180.196.36.115,82CE0466-BEBA-4EEE-B090-18647172BA93,1558544259,2019-05-23 00:57:39,1558544514,2019-05-23 01:01:54,1558544544,1645-164202732_1157015,http://ad.leadbolt.net/conv/?track_id=1157015&clk_id=1645-164202732&key=b50a7f9566a5aa4d,idfa_82CE0466-BEBA-4EEE-B090-18647172BA93,ja
ftVA2QOJTgulE0c77Scukw,leadbolt_api,A961043_,Install,2.4,153.180.71.226,290F019D-12F1-4011-8E67-39EFFD300B3B,1559028953,2019-05-28 15:35:53,1559028990,2019-05-28 15:36:30,1559029021,1660-54937418_1157015,http://ad.leadbolt.net/conv/?track_id=1157015&clk_id=1660-54937418&key=b50a7f9566a5aa4d,idfa_290F019D-12F1-4011-8E67-39EFFD300B3B,ja
ftVA2QOJTgulE0c77Scukw,leadbolt_api,A961043_,Install,2.4,119.26.20.153,5BBB14D4-DC97-44B3-A44B-7F3739655C96,1559030153,2019-05-28 15:55:53,1559030191,2019-05-28 15:56:31,1559030221,1661-23659720_1157015,http://ad.leadbolt.net/conv/?track_id=1157015&clk_id=1661-23659720&key=b50a7f9566a5aa4d,idfa_5BBB14D4-DC97-44B3-A44B-7F3739655C96,ja
ftVA2QOJTgulE0c77Scukw,leadbolt_api,A961043_,Install,2.4,126.145.241.182,D6DE4A22-E706-460C-BE44-E4E4C86B88FB,1559028804,2019-05-28 15:33:24,1559028844,2019-05-28 15:34:04,1559028875,1637-173591134_1157015,http://ad.leadbolt.net/conv/?track_id=1157015&clk_id=1637-173591134&key=b50a7f9566a5aa4d,idfa_D6DE4A22-E706-460C-BE44-E4E4C86B88FB,ja
ftVA2QOJTgulE0c77Scukw,leadbolt_api,A961043_,Install,2.4,160.86.141.240,09C855A8-1CCD-42C9-9875-60DB13A44DEF,1559029398,2019-05-28 15:43:18,1559029437,2019-05-28 15:43:57,1559029467,1643-157276936_1157015,http://ad.leadbolt.net/conv/?track_id=1157015&clk_id=1643-157276936&key=b50a7f9566a5aa4d,idfa_09C855A8-1CCD-42C9-9875-60DB13A44DEF,ja
ftVA2QOJTgulE0c77Scukw,leadbolt_api,A961043_,Install,2.4,114.183.228.73,80F26520-0451-4614-907F-60D569A032A0,1559029041,2019-05-28 15:37:21,1559029080,2019-05-28 15:38:00,1559029111,1661-23642553_1157015,http://ad.leadbolt.net/conv/?track_id=1157015&clk_id=1661-23642553&key=b50a7f9566a5aa4d,idfa_80F26520-0451-4614-907F-60D569A032A0,ja
ftVA2QOJTgulE0c77Scukw,leadbolt_api,A961043_,Install,2.4,153.136.192.42,D0C1451D-D369-48DA-887E-45199C17C231,1559029072,2019-05-28 15:37:52,1559029109,2019-05-28 15:38:29,1559029140,1648-135700605_1157015,http://ad.leadbolt.net/conv/?track_id=1157015&clk_id=1648-135700605&key=b50a7f9566a5aa4d,idfa_D0C1451D-D369-48DA-887E-45199C17C231,ja
ftVA2QOJTgulE0c77Scukw,leadbolt_api,A961043_,Install,2.4,65.99.85.105,9676B2BE-F196-471B-8F39-94428367BC9B,1559030267,2019-05-28 15:57:47,1559030309,2019-05-28 15:58:29,1559030339,1650-145665017_1157015,http://ad.leadbolt.net/conv/?track_id=1157015&clk_id=1650-145665017&key=b50a7f9566a5aa4d,idfa_9676B2BE-F196-471B-8F39-94428367BC9B,ja
ftVA2QOJTgulE0c77Scukw,leadbolt_api,A961043_,Install,2.4,221.113.157.197,6B440A75-4262-461A-9621-151857551037,1559029878,2019-05-28 15:51:18,1559029919,2019-05-28 15:51:59,1559029950,1641-171262529_1157015,http://ad.leadbolt.net/conv/?track_id=1157015&clk_id=1641-171262529&key=b50a7f9566a5aa4d,idfa_6B440A75-4262-461A-9621-151857551037,ja
ftVA2QOJTgulE0c77Scukw,leadbolt_api,A961043_,Install,2.4,219.165.186.58,0F2794EA-7456-47B7-9929-448F0A0CADAB,1559029190,2019-05-28 15:39:50,1559029232,2019-05-28 15:40:32,1559029262,1640-171249392_1157015,http://ad.leadbolt.net/conv/?track_id=1157015&clk_id=1640-171249392&key=b50a7f9566a5aa4d,idfa_0F2794EA-7456-47B7-9929-448F0A0CADAB,ja
ftVA2QOJTgulE0c77Scukw,leadbolt_api,A961043_,Install,2.4,112.70.250.94,2A295088-F6E4-4E6F-A293-2B579DD589D0,1559029928,2019-05-28 15:52:08,1559029976,2019-05-28 15:52:56,1559030007,1636-173417761_1157015,http://ad.leadbolt.net/conv/?track_id=1157015&clk_id=1636-173417761&key=b50a7f9566a5aa4d,idfa_2A295088-F6E4-4E6F-A293-2B579DD589D0,ja
ftVA2QOJTgulE0c77Scukw,leadbolt_api,A961043_,Install,2.4,119.245.195.104,4818CBEC-71D5-4F30-B06E-E89D5C085E40,1559029277,2019-05-28 15:41:17,1559029315,2019-05-28 15:41:55,1559029345,1660-54942097_1157015,http://ad.leadbolt.net/conv/?track_id=1157015&clk_id=1660-54942097&key=b50a7f9566a5aa4d,idfa_4818CBEC-71D5-4F30-B06E-E89D5C085E40,ja
ftVA2QOJTgulE0c77Scukw,leadbolt_api,A961043_,Install,2.4,114.162.95.117,2ED50164-FABF-45FC-8AFB-2007C51A235C,1559029692,2019-05-28 15:48:12,1559029733,2019-05-28 15:48:53,1559029763,1638-157511517_1157015,http://ad.leadbolt.net/conv/?track_id=1157015&clk_id=1638-157511517&key=b50a7f9566a5aa4d,idfa_2ED50164-FABF-45FC-8AFB-2007C51A235C,ja
ftVA2QOJTgulE0c77Scukw,leadbolt_api,A961043_,Install,2.4,27.141.120.25,91866792-3389-40FA-9BAE-FAEE6C82F048,1559028693,2019-05-28 15:31:33,1559028739,2019-05-28 15:32:19,1559028770,1637-173589385_1157015,http://ad.leadbolt.net/conv/?track_id=1157015&clk_id=1637-173589385&key=b50a7f9566a5aa4d,idfa_91866792-3389-40FA-9BAE-FAEE6C82F048,ja
ftVA2QOJTgulE0c77Scukw,leadbolt_api,A961043_,Install,2.4,110.163.146.152,760423BB-51D1-4617-8CC9-37827427F2EC,1558543874,2019-05-23 00:51:14,1558544001,2019-05-23 00:53:21,1558544031,1652-139054160_1157015,http://ad.leadbolt.net/conv/?track_id=1157015&clk_id=1652-139054160&key=b50a7f9566a5aa4d,idfa_760423BB-51D1-4617-8CC9-37827427F2EC,ja
ftVA2QOJTgulE0c77Scukw,leadbolt_api,A961043_,Install,2.4,157.107.58.241,A2B4C7CA-8DCD-486C-BE7F-DC87DEA61655,1559030385,2019-05-28 15:59:45,1559030423,2019-05-28 16:00:23,1559030453,1648-135719511_1157015,http://ad.leadbolt.net/conv/?track_id=1157015&clk_id=1648-135719511&key=b50a7f9566a5aa4d,idfa_A2B4C7CA-8DCD-486C-BE7F-DC87DEA61655,ja
ftVA2QOJTgulE0c77Scukw,leadbolt_api,A961043_,Install,2.4,160.86.118.173,B16A60E6-A725-4D07-BFB1-C2E7AA70EC06,1559028873,2019-05-28 15:34:33,1559028919,2019-05-28 15:35:19,1559028950,1658-105817882_1157015,http://ad.leadbolt.net/conv/?track_id=1157015&clk_id=1658-105817882&key=b50a7f9566a5aa4d,idfa_B16A60E6-A725-4D07-BFB1-C2E7AA70EC06,ja
ftVA2QOJTgulE0c77Scukw,leadbolt_api,A961043_,Install,2.4,115.163.175.180,24683A21-C1B1-4AE0-8505-66885223C901,1559029510,2019-05-28 15:45:10,1559029550,2019-05-28 15:45:50,1559029581,1659-120221443_1157015,http://ad.leadbolt.net/conv/?track_id=1157015&clk_id=1659-120221443&key=b50a7f9566a5aa4d,idfa_24683A21-C1B1-4AE0-8505-66885223C901,ja
ftVA2QOJTgulE0c77Scukw,leadbolt_api,A961043_,Install,2.4,159.28.182.177,126F7145-5253-4A7F-AD26-ED4E4750C4A9,1559030389,2019-05-28 15:59:49,1559030432,2019-05-28 16:00:32,1559030463,1652-146029654_1157015,http://ad.leadbolt.net/conv/?track_id=1157015&clk_id=1652-146029654&key=b50a7f9566a5aa4d,idfa_126F7145-5253-4A7F-AD26-ED4E4750C4A9,ja
ftVA2QOJTgulE0c77Scukw,leadbolt_api,A961043_,Install,2.4,160.86.154.142,AA7DBBBF-4EC5-4572-B7AB-19EE7B12A868,1559030631,2019-05-28 16:03:51,1559030670,2019-05-28 16:04:30,1559030700,1649-146318538_1157015,http://ad.leadbolt.net/conv/?track_id=1157015&clk_id=1649-146318538&key=b50a7f9566a5aa4d,idfa_AA7DBBBF-4EC5-4572-B7AB-19EE7B12A868,ja
ftVA2QOJTgulE0c77Scukw,leadbolt_api,A961043_,Install,2.4,220.208.11.131,5C571940-289C-4E09-8ABC-87D262892BD8,1559030618,2019-05-28 16:03:38,1559030658,2019-05-28 16:04:18,1559030689,1653-131751430_1157015,http://ad.leadbolt.net/conv/?track_id=1157015&clk_id=1653-131751430&key=b50a7f9566a5aa4d,idfa_5C571940-289C-4E09-8ABC-87D262892BD8,ja
ftVA2QOJTgulE0c77Scukw,leadbolt_api,A961043_,Install,2.4,58.91.69.218,6341E3EE-8E63-4AC4-A414-501651D4F73B,1559028810,2019-05-28 15:33:30,1559028852,2019-05-28 15:34:12,1559028882,1636-173400654_1157015,http://ad.leadbolt.net/conv/?track_id=1157015&clk_id=1636-173400654&key=b50a7f9566a5aa4d,idfa_6341E3EE-8E63-4AC4-A414-501651D4F73B,ja
ftVA2QOJTgulE0c77Scukw,leadbolt_api,A961043_,Install,2.4,124.154.118.211,E85FCB33-0C0D-4414-BC16-2905B3175C4C,1559030676,2019-05-28 16:04:36,1559030724,2019-05-28 16:05:24,1559030756,1650-145672806_1157015,http://ad.leadbolt.net/conv/?track_id=1157015&clk_id=1650-145672806&key=b50a7f9566a5aa4d,idfa_E85FCB33-0C0D-4414-BC16-2905B3175C4C,ja
