cid,partner_id,channel_id,action_id,cpi,ip,idfa,click time,click datetime,install time,install datetime,postback time,click id,postback url,unique user id
IMLRJvySSsSCM-BdHeU0cQ,leadbolt_api,A161469_,install,1.7,121.124.160.100,22AF81BD-881C-44EE-BC5B-C5EBABF4103C,1558558911,2019-05-23 05:01:51,1558559760,2019-05-23 05:16:00,1558559792,1638-151395280_1140670,http://ad.leadbolt.net/conv/?track_id=1140670&clk_id=1638-151395280&key=b50a7f9566a5aa4d,idfa_22AF81BD-881C-44EE-BC5B-C5EBABF4103C,ko
IMLRJvySSsSCM-BdHeU0cQ,leadbolt_api,A161469_,install,1.7,123.213.79.118,A4157BD1-6B98-47E1-B2AA-77AABC87B6FA,1558556793,2019-05-23 04:26:33,1558556944,2019-05-23 04:29:04,1558556978,1654-139309197_1140670,http://ad.leadbolt.net/conv/?track_id=1140670&clk_id=1654-139309197&key=b50a7f9566a5aa4d,idfa_A4157BD1-6B98-47E1-B2AA-77AABC87B6FA,ko
IMLRJvySSsSCM-BdHeU0cQ,leadbolt_api,A161469_,install,1.7,106.245.192.2,907959B4-E61C-4C5A-BEB5-87F8E9AEC094,1558557140,2019-05-23 04:32:20,1558557321,2019-05-23 04:35:21,1558557352,1656-138739253_1140670,http://ad.leadbolt.net/conv/?track_id=1140670&clk_id=1656-138739253&key=b50a7f9566a5aa4d,idfa_907959B4-E61C-4C5A-BEB5-87F8E9AEC094,ko
IMLRJvySSsSCM-BdHeU0cQ,leadbolt_api,A161469_,install,1.7,119.71.113.152,BFBE8A4A-57FC-440E-A7CD-E47B64847C99,1558558955,2019-05-23 05:02:35,1558559073,2019-05-23 05:04:33,1558559103,1650-138853015_1140670,http://ad.leadbolt.net/conv/?track_id=1140670&clk_id=1650-138853015&key=b50a7f9566a5aa4d,idfa_BFBE8A4A-57FC-440E-A7CD-E47B64847C99,ko
IMLRJvySSsSCM-BdHeU0cQ,leadbolt_api,A161469_,install,1.7,58.76.163.162,5047C3EB-0132-4FFD-8232-B236AAF7CA49,1558558996,2019-05-23 05:03:16,1558559144,2019-05-23 05:05:44,1558559174,1638-151395964_1140670,http://ad.leadbolt.net/conv/?track_id=1140670&clk_id=1638-151395964&key=b50a7f9566a5aa4d,idfa_5047C3EB-0132-4FFD-8232-B236AAF7CA49,ko
IMLRJvySSsSCM-BdHeU0cQ,leadbolt_api,A161469_,install,1.7,220.125.207.147,6E033FCA-EF0A-4111-BAAE-BF008CCF032B,1558558943,2019-05-23 05:02:23,1558559076,2019-05-23 05:04:36,1558559106,1655-138707258_1140670,http://ad.leadbolt.net/conv/?track_id=1140670&clk_id=1655-138707258&key=b50a7f9566a5aa4d,idfa_6E033FCA-EF0A-4111-BAAE-BF008CCF032B,ko
IMLRJvySSsSCM-BdHeU0cQ,leadbolt_api,A161469_,install,1.7,175.198.95.172,7145DFA7-CDDF-4E75-8832-DFC1E468C564,1558557142,2019-05-23 04:32:22,1558557275,2019-05-23 04:34:35,1558557305,1644-164833528_1140670,http://ad.leadbolt.net/conv/?track_id=1140670&clk_id=1644-164833528&key=b50a7f9566a5aa4d,idfa_7145DFA7-CDDF-4E75-8832-DFC1E468C564,ko
IMLRJvySSsSCM-BdHeU0cQ,leadbolt_api,A161469_,install,1.7,111.65.152.219,A089D8EA-025E-4111-9A46-CB1CAF7FBC25,1558558336,2019-05-23 04:52:16,1558558458,2019-05-23 04:54:18,1558558488,1644-164843175_1140670,http://ad.leadbolt.net/conv/?track_id=1140670&clk_id=1644-164843175&key=b50a7f9566a5aa4d,idfa_A089D8EA-025E-4111-9A46-CB1CAF7FBC25,ko
IMLRJvySSsSCM-BdHeU0cQ,leadbolt_api,A161469_,install,1.7,211.230.109.111,800D5193-A074-4ED5-B564-EB0BB2057BBC,1558556017,2019-05-23 04:13:37,1558556181,2019-05-23 04:16:21,1558556212,1648-129584532_1140670,http://ad.leadbolt.net/conv/?track_id=1140670&clk_id=1648-129584532&key=b50a7f9566a5aa4d,idfa_800D5193-A074-4ED5-B564-EB0BB2057BBC,ko
IMLRJvySSsSCM-BdHeU0cQ,leadbolt_api,A161469_,install,1.7,125.191.197.113,A2011026-6BCB-4A91-A3F8-7BD676E1CC5F,1558558269,2019-05-23 04:51:09,1558558416,2019-05-23 04:53:36,1558558453,1658-99719584_1140670,http://ad.leadbolt.net/conv/?track_id=1140670&clk_id=1658-99719584&key=b50a7f9566a5aa4d,idfa_A2011026-6BCB-4A91-A3F8-7BD676E1CC5F,ko
IMLRJvySSsSCM-BdHeU0cQ,leadbolt_api,A161469_,install,1.7,1.243.175.144,946FE0AF-1B43-46D2-97CC-AB7E1C864602,1558558458,2019-05-23 04:54:18,1558558621,2019-05-23 04:57:01,1558558652,1639-164905014_1140670,http://ad.leadbolt.net/conv/?track_id=1140670&clk_id=1639-164905014&key=b50a7f9566a5aa4d,idfa_946FE0AF-1B43-46D2-97CC-AB7E1C864602,ko
IMLRJvySSsSCM-BdHeU0cQ,leadbolt_api,A161469_,install,1.7,14.138.109.139,E62D1065-BC0F-42DF-8CDD-460B83EC053A,1558557920,2019-05-23 04:45:20,1558558066,2019-05-23 04:47:46,1558558099,1655-138699214_1140670,http://ad.leadbolt.net/conv/?track_id=1140670&clk_id=1655-138699214&key=b50a7f9566a5aa4d,idfa_E62D1065-BC0F-42DF-8CDD-460B83EC053A,ko
IMLRJvySSsSCM-BdHeU0cQ,leadbolt_api,A161469_,install,1.7,115.95.15.188,6A31CAF4-7C50-423D-938B-13EF0B03A630,1558557216,2019-05-23 04:33:36,1558557354,2019-05-23 04:35:54,1558557384,1636-166601014_1140670,http://ad.leadbolt.net/conv/?track_id=1140670&clk_id=1636-166601014&key=b50a7f9566a5aa4d,idfa_6A31CAF4-7C50-423D-938B-13EF0B03A630,ko
IMLRJvySSsSCM-BdHeU0cQ,leadbolt_api,A161469_,install,1.7,210.119.21.89,086466FB-A71B-419A-AF64-819E70C48FAC,1558557166,2019-05-23 04:32:46,1558557281,2019-05-23 04:34:41,1558557312,1649-139457386_1140670,http://ad.leadbolt.net/conv/?track_id=1140670&clk_id=1649-139457386&key=b50a7f9566a5aa4d,idfa_086466FB-A71B-419A-AF64-819E70C48FAC,ko
IMLRJvySSsSCM-BdHeU0cQ,leadbolt_api,A161469_,install,1.7,115.95.60.195,9D1E4201-4014-40D7-A432-6A0DBC2F2606,1558557147,2019-05-23 04:32:27,1558557291,2019-05-23 04:34:51,1558557321,1660-48127974_1140670,http://ad.leadbolt.net/conv/?track_id=1140670&clk_id=1660-48127974&key=b50a7f9566a5aa4d,idfa_9D1E4201-4014-40D7-A432-6A0DBC2F2606,ko
IMLRJvySSsSCM-BdHeU0cQ,leadbolt_api,A161469_,install,1.7,220.88.191.48,20959C76-BB51-46E6-B854-D828E6B9F01C,1558558557,2019-05-23 04:55:57,1558558697,2019-05-23 04:58:17,1558558728,1637-166791116_1140670,http://ad.leadbolt.net/conv/?track_id=1140670&clk_id=1637-166791116&key=b50a7f9566a5aa4d,idfa_20959C76-BB51-46E6-B854-D828E6B9F01C,ko
IMLRJvySSsSCM-BdHeU0cQ,leadbolt_api,A161469_,install,1.7,1.254.73.70,4FFA3D03-AE8C-4A7A-9930-1AC71197F8DC,1558558281,2019-05-23 04:51:21,1558558436,2019-05-23 04:53:56,1558558466,1660-48137111_1140670,http://ad.leadbolt.net/conv/?track_id=1140670&clk_id=1660-48137111&key=b50a7f9566a5aa4d,idfa_4FFA3D03-AE8C-4A7A-9930-1AC71197F8DC,ko
IMLRJvySSsSCM-BdHeU0cQ,leadbolt_api,A161469_,install,1.7,221.150.183.130,BD288206-66FB-4B55-99B0-02D7B5C94E9A,1558543010,2019-05-23 00:36:50,1558543129,2019-05-23 00:38:49,1558543162,1657-119359289_1140670,http://ad.leadbolt.net/conv/?track_id=1140670&clk_id=1657-119359289&key=b50a7f9566a5aa4d,idfa_BD288206-66FB-4B55-99B0-02D7B5C94E9A,ko
IMLRJvySSsSCM-BdHeU0cQ,leadbolt_api,A161469_,install,1.7,124.146.20.188,EFC1704A-90E1-40D9-A563-9D45FD910A38,1558557844,2019-05-23 04:44:04,1558557983,2019-05-23 04:46:23,1558558014,1640-164448256_1140670,http://ad.leadbolt.net/conv/?track_id=1140670&clk_id=1640-164448256&key=b50a7f9566a5aa4d,idfa_EFC1704A-90E1-40D9-A563-9D45FD910A38,ko
IMLRJvySSsSCM-BdHeU0cQ,leadbolt_api,A161469_,install,1.7,121.170.27.47,BEB31E65-5407-44D6-BE58-506CDA5DEDE0,1558557698,2019-05-23 04:41:38,1558557829,2019-05-23 04:43:49,1558557863,1660-48132766_1140670,http://ad.leadbolt.net/conv/?track_id=1140670&clk_id=1660-48132766&key=b50a7f9566a5aa4d,idfa_BEB31E65-5407-44D6-BE58-506CDA5DEDE0,ko
IMLRJvySSsSCM-BdHeU0cQ,leadbolt_api,A161469_,install,1.7,211.44.193.149,FFAF5C53-64F1-4CE1-BB2B-29579C6A0448,1558558454,2019-05-23 04:54:14,1558558561,2019-05-23 04:56:01,1558558591,1637-166790351_1140670,http://ad.leadbolt.net/conv/?track_id=1140670&clk_id=1637-166790351&key=b50a7f9566a5aa4d,idfa_FFAF5C53-64F1-4CE1-BB2B-29579C6A0448,ko
IMLRJvySSsSCM-BdHeU0cQ,leadbolt_api,A161469_,install,1.7,39.7.50.175,E1D2DCFA-419F-4369-B7E0-42EFE3575168,1558557147,2019-05-23 04:32:27,1558557317,2019-05-23 04:35:17,1558557347,1653-125617171_1140670,http://ad.leadbolt.net/conv/?track_id=1140670&clk_id=1653-125617171&key=b50a7f9566a5aa4d,idfa_E1D2DCFA-419F-4369-B7E0-42EFE3575168,ko
IMLRJvySSsSCM-BdHeU0cQ,leadbolt_api,A161469_,install,1.7,218.153.89.96,592D1DD4-E97D-4C6B-A6C8-625E7A494A11,1558558365,2019-05-23 04:52:45,1558558621,2019-05-23 04:57:01,1558558654,1650-138848389_1140670,http://ad.leadbolt.net/conv/?track_id=1140670&clk_id=1650-138848389&key=b50a7f9566a5aa4d,idfa_592D1DD4-E97D-4C6B-A6C8-625E7A494A11,ko
IMLRJvySSsSCM-BdHeU0cQ,leadbolt_api,A161469_,install,1.7,121.163.207.84,E0E24F4D-1F67-4CB4-A3E3-31F2474E0160,1558557413,2019-05-23 04:36:53,1558557683,2019-05-23 04:41:23,1558557714,1655-138695088_1140670,http://ad.leadbolt.net/conv/?track_id=1140670&clk_id=1655-138695088&key=b50a7f9566a5aa4d,idfa_E0E24F4D-1F67-4CB4-A3E3-31F2474E0160,ko
IMLRJvySSsSCM-BdHeU0cQ,leadbolt_api,A161469_,install,1.7,211.197.70.95,564DDA95-CA6A-4F80-B06B-4CB2E4132D87,1558557505,2019-05-23 04:38:25,1558557657,2019-05-23 04:40:57,1558557688,1661-16829782_1140670,http://ad.leadbolt.net/conv/?track_id=1140670&clk_id=1661-16829782&key=b50a7f9566a5aa4d,idfa_564DDA95-CA6A-4F80-B06B-4CB2E4132D87,ko
IMLRJvySSsSCM-BdHeU0cQ,leadbolt_api,A161469_,install,1.7,117.111.26.170,A395C804-DC5A-4BD7-B651-A4FD6C6D429D,1558558273,2019-05-23 04:51:13,1558558379,2019-05-23 04:52:59,1558558410,1638-151390542_1140670,http://ad.leadbolt.net/conv/?track_id=1140670&clk_id=1638-151390542&key=b50a7f9566a5aa4d,idfa_A395C804-DC5A-4BD7-B651-A4FD6C6D429D,ko
IMLRJvySSsSCM-BdHeU0cQ,leadbolt_api,A161469_,install,1.7,220.121.134.38,BF3CBE17-A937-41BB-9E35-9D66A32E6FE2,1558557840,2019-05-23 04:44:00,1558557982,2019-05-23 04:46:22,1558558048,1661-16832538_1140670,http://ad.leadbolt.net/conv/?track_id=1140670&clk_id=1661-16832538&key=b50a7f9566a5aa4d,idfa_BF3CBE17-A937-41BB-9E35-9D66A32E6FE2,ko
IMLRJvySSsSCM-BdHeU0cQ,leadbolt_api,A161469_,install,1.7,221.146.63.243,5B750818-869D-4F80-BAB6-685A18411200,1558557836,2019-05-23 04:43:56,1558557972,2019-05-23 04:46:12,1558558003,1654-139318357_1140670,http://ad.leadbolt.net/conv/?track_id=1140670&clk_id=1654-139318357&key=b50a7f9566a5aa4d,idfa_5B750818-869D-4F80-BAB6-685A18411200,ko
IMLRJvySSsSCM-BdHeU0cQ,leadbolt_api,A161469_,install,1.7,14.52.73.122,2F102912-6365-4547-9107-0BC7DF42657C,1558558948,2019-05-23 05:02:28,1558559061,2019-05-23 05:04:21,1558559092,1659-113402706_1140670,http://ad.leadbolt.net/conv/?track_id=1140670&clk_id=1659-113402706&key=b50a7f9566a5aa4d,idfa_2F102912-6365-4547-9107-0BC7DF42657C,ko
IMLRJvySSsSCM-BdHeU0cQ,leadbolt_api,A161469_,install,1.7,220.93.107.243,43721E2F-5536-45A9-9D0E-FB328FC3D38D,1558558519,2019-05-23 04:55:19,1558558682,2019-05-23 04:58:02,1558558712,1657-119512272_1140670,http://ad.leadbolt.net/conv/?track_id=1140670&clk_id=1657-119512272&key=b50a7f9566a5aa4d,idfa_43721E2F-5536-45A9-9D0E-FB328FC3D38D,ko
IMLRJvySSsSCM-BdHeU0cQ,leadbolt_api,A161469_,install,1.7,112.172.221.83,3F05D278-08D0-4794-A165-A3CC800A7879,1558550796,2019-05-23 02:46:36,1558551024,2019-05-23 02:50:24,1558551057,1652-139127378_1140670,http://ad.leadbolt.net/conv/?track_id=1140670&clk_id=1652-139127378&key=b50a7f9566a5aa4d,idfa_3F05D278-08D0-4794-A165-A3CC800A7879,ko
IMLRJvySSsSCM-BdHeU0cQ,leadbolt_api,A161469_,install,1.7,180.71.203.194,A77FF300-D776-458E-9575-1EF6A6043816,1558557709,2019-05-23 04:41:49,1558557857,2019-05-23 04:44:17,1558557887,1653-125621751_1140670,http://ad.leadbolt.net/conv/?track_id=1140670&clk_id=1653-125621751&key=b50a7f9566a5aa4d,idfa_A77FF300-D776-458E-9575-1EF6A6043816,ko
IMLRJvySSsSCM-BdHeU0cQ,leadbolt_api,A161469_,install,1.7,220.89.95.209,747CF46B-6C26-4DED-B424-51AA30FED2A0,1558556597,2019-05-23 04:23:17,1558556741,2019-05-23 04:25:41,1558556772,1639-164889507_1140670,http://ad.leadbolt.net/conv/?track_id=1140670&clk_id=1639-164889507&key=b50a7f9566a5aa4d,idfa_747CF46B-6C26-4DED-B424-51AA30FED2A0,ko
IMLRJvySSsSCM-BdHeU0cQ,leadbolt_api,A161469_,install,1.7,211.117.207.192,FDD3CE1C-E7C6-4D38-BCDC-6F9EB22DCC7B,1558558956,2019-05-23 05:02:36,1558559083,2019-05-23 05:04:43,1558559114,1637-166794591_1140670,http://ad.leadbolt.net/conv/?track_id=1140670&clk_id=1637-166794591&key=b50a7f9566a5aa4d,idfa_FDD3CE1C-E7C6-4D38-BCDC-6F9EB22DCC7B,ko
IMLRJvySSsSCM-BdHeU0cQ,leadbolt_api,A161469_,install,1.7,116.121.234.142,22951FEA-7EFA-41FB-9B4C-18B23DFF36AF,1558556603,2019-05-23 04:23:23,1558556766,2019-05-23 04:26:06,1558556796,1653-125612822_1140670,http://ad.leadbolt.net/conv/?track_id=1140670&clk_id=1653-125612822&key=b50a7f9566a5aa4d,idfa_22951FEA-7EFA-41FB-9B4C-18B23DFF36AF,ko
IMLRJvySSsSCM-BdHeU0cQ,leadbolt_api,A161469_,install,1.7,112.173.80.60,5260E6C2-AB77-418B-AA72-59C2BC065A1B,1558557918,2019-05-23 04:45:18,1558558074,2019-05-23 04:47:54,1558558105,1659-113394550_1140670,http://ad.leadbolt.net/conv/?track_id=1140670&clk_id=1659-113394550&key=b50a7f9566a5aa4d,idfa_5260E6C2-AB77-418B-AA72-59C2BC065A1B,ko
IMLRJvySSsSCM-BdHeU0cQ,leadbolt_api,A161469_,install,1.7,218.157.21.141,55F61A7A-7C3A-4169-9E5C-3979DEBE0C62,1558558083,2019-05-23 04:48:03,1558558251,2019-05-23 04:50:51,1558558282,1644-164841270_1140670,http://ad.leadbolt.net/conv/?track_id=1140670&clk_id=1644-164841270&key=b50a7f9566a5aa4d,idfa_55F61A7A-7C3A-4169-9E5C-3979DEBE0C62,ko
IMLRJvySSsSCM-BdHeU0cQ,leadbolt_api,A161469_,install,1.7,106.254.236.106,C0D1F465-F3E3-48EC-BA94-522F64C4040D,1558556591,2019-05-23 04:23:11,1558556708,2019-05-23 04:25:08,1558556739,1660-48123229_1140670,http://ad.leadbolt.net/conv/?track_id=1140670&clk_id=1660-48123229&key=b50a7f9566a5aa4d,idfa_C0D1F465-F3E3-48EC-BA94-522F64C4040D,ko
IMLRJvySSsSCM-BdHeU0cQ,leadbolt_api,A161469_,install,1.7,121.146.47.197,5FB51F4E-1708-4A06-978B-67AE6080212B,1558557845,2019-05-23 04:44:05,1558558009,2019-05-23 04:46:49,1558558039,1655-138698619_1140670,http://ad.leadbolt.net/conv/?track_id=1140670&clk_id=1655-138698619&key=b50a7f9566a5aa4d,idfa_5FB51F4E-1708-4A06-978B-67AE6080212B,ko
IMLRJvySSsSCM-BdHeU0cQ,leadbolt_api,A161469_,install,1.7,106.245.142.82,C077993C-9F14-4329-BF22-3E344F3A47D6,1558556411,2019-05-23 04:20:11,1558556569,2019-05-23 04:22:49,1558556600,1653-125611444_1140670,http://ad.leadbolt.net/conv/?track_id=1140670&clk_id=1653-125611444&key=b50a7f9566a5aa4d,idfa_C077993C-9F14-4329-BF22-3E344F3A47D6,ko
IMLRJvySSsSCM-BdHeU0cQ,leadbolt_api,A161469_,install,1.7,183.100.158.54,13B927C7-B6F7-432B-931E-7B071CAA8BE8,1558556263,2019-05-23 04:17:43,1558556426,2019-05-23 04:20:26,1558556457,1649-139449730_1140670,http://ad.leadbolt.net/conv/?track_id=1140670&clk_id=1649-139449730&key=b50a7f9566a5aa4d,idfa_13B927C7-B6F7-432B-931E-7B071CAA8BE8,ko
IMLRJvySSsSCM-BdHeU0cQ,leadbolt_api,A161469_,install,1.7,112.223.109.92,A07B94B5-0BF6-4153-90F8-B2685241192E,1558556560,2019-05-23 04:22:40,1558556718,2019-05-23 04:25:18,1558556749,1647-143227419_1140670,http://ad.leadbolt.net/conv/?track_id=1140670&clk_id=1647-143227419&key=b50a7f9566a5aa4d,idfa_A07B94B5-0BF6-4153-90F8-B2685241192E,ko
IMLRJvySSsSCM-BdHeU0cQ,leadbolt_api,A161469_,install,1.7,221.146.70.214,AD8BABF5-3FF6-4073-B2E2-B1EE294F5E38,1558558868,2019-05-23 05:01:08,1558559026,2019-05-23 05:03:46,1558559056,1639-164908175_1140670,http://ad.leadbolt.net/conv/?track_id=1140670&clk_id=1639-164908175&key=b50a7f9566a5aa4d,idfa_AD8BABF5-3FF6-4073-B2E2-B1EE294F5E38,ko
IMLRJvySSsSCM-BdHeU0cQ,leadbolt_api,A161469_,install,1.7,121.178.54.82,EC68F596-1B04-467E-8996-6FE0DC827680,1558557158,2019-05-23 04:32:38,1558557292,2019-05-23 04:34:52,1558557327,1658-99711171_1140670,http://ad.leadbolt.net/conv/?track_id=1140670&clk_id=1658-99711171&key=b50a7f9566a5aa4d,idfa_EC68F596-1B04-467E-8996-6FE0DC827680,ko
IMLRJvySSsSCM-BdHeU0cQ,leadbolt_api,A161469_,install,1.7,59.12.229.238,21E9D85D-E720-47C5-9E82-03A7316A8924,1558558026,2019-05-23 04:47:06,1558558162,2019-05-23 04:49:22,1558558192,1638-151388846_1140670,http://ad.leadbolt.net/conv/?track_id=1140670&clk_id=1638-151388846&key=b50a7f9566a5aa4d,idfa_21E9D85D-E720-47C5-9E82-03A7316A8924,ko
IMLRJvySSsSCM-BdHeU0cQ,leadbolt_api,A161469_,install,1.7,124.50.90.176,86856A06-8A6E-456C-85F1-0F32634BC1AF,1558558957,2019-05-23 05:02:37,1558559082,2019-05-23 05:04:42,1558559117,1637-166794508_1140670,http://ad.leadbolt.net/conv/?track_id=1140670&clk_id=1637-166794508&key=b50a7f9566a5aa4d,idfa_86856A06-8A6E-456C-85F1-0F32634BC1AF,ko
IMLRJvySSsSCM-BdHeU0cQ,leadbolt_api,A161469_,install,1.7,175.194.94.147,FCC8E43D-C9A2-43BB-9A94-1316B46D6060,1558558954,2019-05-23 05:02:34,1558559098,2019-05-23 05:04:58,1558559129,1648-129606972_1140670,http://ad.leadbolt.net/conv/?track_id=1140670&clk_id=1648-129606972&key=b50a7f9566a5aa4d,idfa_FCC8E43D-C9A2-43BB-9A94-1316B46D6060,ko
IMLRJvySSsSCM-BdHeU0cQ,leadbolt_api,A161469_,install,1.7,14.33.7.120,9264B9DB-C02A-4111-A1A5-079E63CE7AEC,1558559002,2019-05-23 05:03:22,1558559119,2019-05-23 05:05:19,1558559150,1643-151176883_1140670,http://ad.leadbolt.net/conv/?track_id=1140670&clk_id=1643-151176883&key=b50a7f9566a5aa4d,idfa_9264B9DB-C02A-4111-A1A5-079E63CE7AEC,ko
IMLRJvySSsSCM-BdHeU0cQ,leadbolt_api,A161469_,install,1.7,59.21.102.113,62F37F6F-BD5A-4297-884A-A687014A40A7,1558551945,2019-05-23 03:05:45,1558552124,2019-05-23 03:08:44,1558552157,1653-125573003_1140670,http://ad.leadbolt.net/conv/?track_id=1140670&clk_id=1653-125573003&key=b50a7f9566a5aa4d,idfa_62F37F6F-BD5A-4297-884A-A687014A40A7,ko
IMLRJvySSsSCM-BdHeU0cQ,leadbolt_api,A161469_,install,1.7,202.30.20.48,3B9F0B7B-7681-41A7-AF40-0EA8D69D1172,1558557699,2019-05-23 04:41:39,1558557817,2019-05-23 04:43:37,1558557848,1660-48132779_1140670,http://ad.leadbolt.net/conv/?track_id=1140670&clk_id=1660-48132779&key=b50a7f9566a5aa4d,idfa_3B9F0B7B-7681-41A7-AF40-0EA8D69D1172,ko
IMLRJvySSsSCM-BdHeU0cQ,leadbolt_api,A161469_,install,1.7,211.187.208.137,6A3D5ABE-7F48-4D05-B2DB-C9C9965FA751,1558558861,2019-05-23 05:01:01,1558558997,2019-05-23 05:03:17,1558559028,1651-138966686_1140670,http://ad.leadbolt.net/conv/?track_id=1140670&clk_id=1651-138966686&key=b50a7f9566a5aa4d,idfa_6A3D5ABE-7F48-4D05-B2DB-C9C9965FA751,ko
