cid,partner_id,channel_id,action_id,cpi,ip,idfa,click time,click datetime,install time,install datetime,postback time,click id,postback url,unique user id
2_d-TGHITX2TBya32EsSIA,leadbolt_api,A105146_,Install,1.0,211.206.123.161,8425cb3c-9b30-484e-9860-5fe65ed00c69,1558666709,2019-05-24 10:58:29,1558666965,2019-05-24 11:02:45,1558666971,1652-140679315_1158660,http://ad.leadbolt.net/conv/?track_id=1158660&clk_id=1652-140679315&key=b50a7f9566a5aa4d,idfa_8425cb3c-9b30-484e-9860-5fe65ed00c69,ko
2_d-TGHITX2TBya32EsSIA,leadbolt_api,A105146_,Install,1.0,121.142.146.167,c6cc15f9-5ee1-4152-9cc3-b138cfee38d2,1558669077,2019-05-24 11:37:57,1558669367,2019-05-24 11:42:47,1558669376,1649-140988211_1158660,http://ad.leadbolt.net/conv/?track_id=1158660&clk_id=1649-140988211&key=b50a7f9566a5aa4d,idfa_c6cc15f9-5ee1-4152-9cc3-b138cfee38d2,ko
2_d-TGHITX2TBya32EsSIA,leadbolt_api,A105146_,Install,1.0,211.171.108.130,a7b24bfa-e673-4594-9975-e5126bc0019e,1558669936,2019-05-24 11:52:16,1558670271,2019-05-24 11:57:51,1558670278,1659-114927845_1158660,http://ad.leadbolt.net/conv/?track_id=1158660&clk_id=1659-114927845&key=b50a7f9566a5aa4d,idfa_a7b24bfa-e673-4594-9975-e5126bc0019e,ko
2_d-TGHITX2TBya32EsSIA,leadbolt_api,A105146_,Install,1.0,180.70.220.13,e247fdfa-4582-4635-8efb-92c54b797ea2,1558668781,2019-05-24 11:33:01,1558669037,2019-05-24 11:37:17,1558669045,1636-168121958_1158660,http://ad.leadbolt.net/conv/?track_id=1158660&clk_id=1636-168121958&key=b50a7f9566a5aa4d,idfa_e247fdfa-4582-4635-8efb-92c54b797ea2,ko
2_d-TGHITX2TBya32EsSIA,leadbolt_api,A105146_,Install,1.0,220.95.83.220,6ad8de41-3199-4e54-9859-64e9ab53e396,1558669653,2019-05-24 11:47:33,1558669885,2019-05-24 11:51:25,1558669891,1639-166432739_1158660,http://ad.leadbolt.net/conv/?track_id=1158660&clk_id=1639-166432739&key=b50a7f9566a5aa4d,idfa_6ad8de41-3199-4e54-9859-64e9ab53e396,ko
2_d-TGHITX2TBya32EsSIA,leadbolt_api,A105146_,Install,1.0,116.120.58.199,d0d53af9-ab2d-4f31-ba67-8c4b2bc87691,1558667217,2019-05-24 11:06:57,1558667531,2019-05-24 11:12:11,1558667538,1643-152492199_1158660,http://ad.leadbolt.net/conv/?track_id=1158660&clk_id=1643-152492199&key=b50a7f9566a5aa4d,idfa_d0d53af9-ab2d-4f31-ba67-8c4b2bc87691,ko
2_d-TGHITX2TBya32EsSIA,leadbolt_api,A105146_,Install,1.0,60.253.12.90,fdb48581-cf8b-4f5d-aa36-c18be7e68ef4,1558668009,2019-05-24 11:20:09,1558668266,2019-05-24 11:24:26,1558668274,1655-140201734_1158660,http://ad.leadbolt.net/conv/?track_id=1158660&clk_id=1655-140201734&key=b50a7f9566a5aa4d,idfa_fdb48581-cf8b-4f5d-aa36-c18be7e68ef4,ko
2_d-TGHITX2TBya32EsSIA,leadbolt_api,A105146_,Install,1.0,14.43.79.140,f8d577e3-3ffb-4c2c-be51-2ff33340b714,1558668797,2019-05-24 11:33:17,1558669055,2019-05-24 11:37:35,1558669064,1651-140477327_1158660,http://ad.leadbolt.net/conv/?track_id=1158660&clk_id=1651-140477327&key=b50a7f9566a5aa4d,idfa_f8d577e3-3ffb-4c2c-be51-2ff33340b714,ko
2_d-TGHITX2TBya32EsSIA,leadbolt_api,A105146_,Install,1.0,61.40.77.125,c32b8c63-3222-460c-a72f-aeaedb371cdf,1558667800,2019-05-24 11:16:40,1558668065,2019-05-24 11:21:05,1558668073,1660-49638678_1158660,http://ad.leadbolt.net/conv/?track_id=1158660&clk_id=1660-49638678&key=b50a7f9566a5aa4d,idfa_c32b8c63-3222-460c-a72f-aeaedb371cdf,ko
2_d-TGHITX2TBya32EsSIA,leadbolt_api,A105146_,Install,1.0,121.150.105.136,afaf733c-9ca7-4305-9414-461f39a78dec,1558668652,2019-05-24 11:30:52,1558668876,2019-05-24 11:34:36,1558668883,1659-114909310_1158660,http://ad.leadbolt.net/conv/?track_id=1158660&clk_id=1659-114909310&key=b50a7f9566a5aa4d,idfa_afaf733c-9ca7-4305-9414-461f39a78dec,ko
2_d-TGHITX2TBya32EsSIA,leadbolt_api,A105146_,Install,1.0,218.152.169.2,66bffe9c-78ac-43d3-b088-9037dd286420,1558668908,2019-05-24 11:35:08,1558671354,2019-05-24 12:15:54,1558671362,1647-144758696_1158660,http://ad.leadbolt.net/conv/?track_id=1158660&clk_id=1647-144758696&key=b50a7f9566a5aa4d,idfa_66bffe9c-78ac-43d3-b088-9037dd286420,ko
2_d-TGHITX2TBya32EsSIA,leadbolt_api,A105146_,Install,1.0,203.255.181.201,fc67d394-73aa-4b3b-8f5e-264c30925bb6,1558667575,2019-05-24 11:12:55,1558667830,2019-05-24 11:17:10,1558667838,1649-140966844_1158660,http://ad.leadbolt.net/conv/?track_id=1158660&clk_id=1649-140966844&key=b50a7f9566a5aa4d,idfa_fc67d394-73aa-4b3b-8f5e-264c30925bb6,ko
2_d-TGHITX2TBya32EsSIA,leadbolt_api,A105146_,Install,1.0,1.221.192.149,d31e0bdc-4245-4c3f-9dd5-0aaaf4d2cb1f,1558666568,2019-05-24 10:56:08,1558666837,2019-05-24 11:00:37,1558666847,1660-49621077_1158660,http://ad.leadbolt.net/conv/?track_id=1158660&clk_id=1660-49621077&key=b50a7f9566a5aa4d,idfa_d31e0bdc-4245-4c3f-9dd5-0aaaf4d2cb1f,ko
2_d-TGHITX2TBya32EsSIA,leadbolt_api,A105146_,Install,1.0,183.101.51.180,e36c789d-b87e-42e9-8d45-5e4021c7e87a,1558668266,2019-05-24 11:24:26,1558668526,2019-05-24 11:28:46,1558668532,1637-168296649_1158660,http://ad.leadbolt.net/conv/?track_id=1158660&clk_id=1637-168296649&key=b50a7f9566a5aa4d,idfa_e36c789d-b87e-42e9-8d45-5e4021c7e87a,ko
2_d-TGHITX2TBya32EsSIA,leadbolt_api,A105146_,Install,1.0,59.31.208.72,bc25e1fe-67e1-42b4-8e8b-a8de962421af,1558666724,2019-05-24 10:58:44,1558666937,2019-05-24 11:02:17,1558666944,1655-140183162_1158660,http://ad.leadbolt.net/conv/?track_id=1158660&clk_id=1655-140183162&key=b50a7f9566a5aa4d,idfa_bc25e1fe-67e1-42b4-8e8b-a8de962421af,ko
2_d-TGHITX2TBya32EsSIA,leadbolt_api,A105146_,Install,1.0,175.204.125.198,9671ab20-4054-4d60-a8dc-aa152062bc28,1558669044,2019-05-24 11:37:24,1558669256,2019-05-24 11:40:56,1558669264,1650-140362861_1158660,http://ad.leadbolt.net/conv/?track_id=1158660&clk_id=1650-140362861&key=b50a7f9566a5aa4d,idfa_9671ab20-4054-4d60-a8dc-aa152062bc28,ko
2_d-TGHITX2TBya32EsSIA,leadbolt_api,A105146_,Install,1.0,117.110.149.76,e25b2a51-9102-4edc-bc81-5825f4de37d6,1558666757,2019-05-24 10:59:17,1558666961,2019-05-24 11:02:41,1558666968,1655-140182873_1158660,http://ad.leadbolt.net/conv/?track_id=1158660&clk_id=1655-140182873&key=b50a7f9566a5aa4d,idfa_e25b2a51-9102-4edc-bc81-5825f4de37d6,ko
2_d-TGHITX2TBya32EsSIA,leadbolt_api,A105146_,Install,1.0,220.126.189.241,1d453582-d5ea-4916-b46e-525aa216d23b,1558667776,2019-05-24 11:16:16,1558668098,2019-05-24 11:21:38,1558668107,1648-130930836_1158660,http://ad.leadbolt.net/conv/?track_id=1158660&clk_id=1648-130930836&key=b50a7f9566a5aa4d,idfa_1d453582-d5ea-4916-b46e-525aa216d23b,ko
2_d-TGHITX2TBya32EsSIA,leadbolt_api,A105146_,Install,1.0,221.165.126.138,83c92208-b1b4-4b00-bcbc-8abba2f4dd8c,1558668274,2019-05-24 11:24:34,1558668570,2019-05-24 11:29:30,1558668577,1641-165953934_1158660,http://ad.leadbolt.net/conv/?track_id=1158660&clk_id=1641-165953934&key=b50a7f9566a5aa4d,idfa_83c92208-b1b4-4b00-bcbc-8abba2f4dd8c,ko
2_d-TGHITX2TBya32EsSIA,leadbolt_api,A105146_,Install,1.0,221.158.165.111,fc84ccd2-8f62-4bb2-929c-59b813e7eb0e,1558667696,2019-05-24 11:14:56,1558667917,2019-05-24 11:18:37,1558667925,1654-140824477_1158660,http://ad.leadbolt.net/conv/?track_id=1158660&clk_id=1654-140824477&key=b50a7f9566a5aa4d,idfa_fc84ccd2-8f62-4bb2-929c-59b813e7eb0e,ko
2_d-TGHITX2TBya32EsSIA,leadbolt_api,A105146_,Install,1.0,106.244.232.198,dd80c6cb-244e-4503-9322-d48cc762a341,1558667689,2019-05-24 11:14:49,1558667989,2019-05-24 11:19:49,1558667996,1645-165833443_1158660,http://ad.leadbolt.net/conv/?track_id=1158660&clk_id=1645-165833443&key=b50a7f9566a5aa4d,idfa_dd80c6cb-244e-4503-9322-d48cc762a341,ko
2_d-TGHITX2TBya32EsSIA,leadbolt_api,A105146_,Install,1.0,121.176.4.249,3c4f9c7e-f01c-4aba-bcf1-538aaaa2eec5,1558668582,2019-05-24 11:29:42,1558668887,2019-05-24 11:34:47,1558668896,1650-140356200_1158660,http://ad.leadbolt.net/conv/?track_id=1158660&clk_id=1650-140356200&key=b50a7f9566a5aa4d,idfa_3c4f9c7e-f01c-4aba-bcf1-538aaaa2eec5,ko
2_d-TGHITX2TBya32EsSIA,leadbolt_api,A105146_,Install,1.0,203.152.176.245,5205c9c3-733f-4025-a99f-7bdb2a353693,1558669635,2019-05-24 11:47:15,1558669975,2019-05-24 11:52:55,1558669981,1654-140852313_1158660,http://ad.leadbolt.net/conv/?track_id=1158660&clk_id=1654-140852313&key=b50a7f9566a5aa4d,idfa_5205c9c3-733f-4025-a99f-7bdb2a353693,ko
