cid,partner_id,channel_id,action_id,cpi,ip,idfa,click time,click datetime,install time,install datetime,postback time,click id,postback url,unique user id
rY0VC51wTHaK2Mg0pyms8g,leadbolt_api,A723790_,Install,0.7,180.1.130.222,e14cdca5-2ebd-4ff3-a4a8-6b78ee628c29,1557698503,2019-05-13 06:01:43,1557698594,2019-05-13 06:03:14,1557698594,1653-114547429_1089964,http://ad.leadbolt.net/conv/?track_id=1089964&clk_id=1653-114547429&key=b50a7f9566a5aa4d,idfa_e14cdca5-2ebd-4ff3-a4a8-6b78ee628c29,ja
rY0VC51wTHaK2Mg0pyms8g,leadbolt_api,A723790_,Install,0.7,124.155.3.25,9ee2cf73-063b-49ca-b16a-25b79f388a1a,1558308303,2019-05-20 07:25:03,1558308400,2019-05-20 07:26:40,1558308400,1655-135304274_1089964,http://ad.leadbolt.net/conv/?track_id=1089964&clk_id=1655-135304274&key=b50a7f9566a5aa4d,idfa_9ee2cf73-063b-49ca-b16a-25b79f388a1a,ja
rY0VC51wTHaK2Mg0pyms8g,leadbolt_api,A723790_,Install,0.7,125.15.226.90,805bf035-2329-415a-af23-5a921fbc87d5,1558307764,2019-05-20 07:16:04,1558307851,2019-05-20 07:17:31,1558307851,1657-116091146_1089964,http://ad.leadbolt.net/conv/?track_id=1089964&clk_id=1657-116091146&key=b50a7f9566a5aa4d,idfa_805bf035-2329-415a-af23-5a921fbc87d5,ja
rY0VC51wTHaK2Mg0pyms8g,leadbolt_api,A723790_,Install,0.7,180.196.55.112,4cd722c9-3249-47eb-ba2c-f6a23f90708d,1558264944,2019-05-19 19:22:24,1558265036,2019-05-19 19:23:56,1558265036,1650-134903694_1089964,http://ad.leadbolt.net/conv/?track_id=1089964&clk_id=1650-134903694&key=b50a7f9566a5aa4d,idfa_4cd722c9-3249-47eb-ba2c-f6a23f90708d,ja
rY0VC51wTHaK2Mg0pyms8g,leadbolt_api,A723790_,Install,0.7,123.198.67.212,59bd0999-bf0f-4096-b5e1-d55aa731161e,1558260796,2019-05-19 18:13:16,1558260889,2019-05-19 18:14:49,1558260889,1643-147585316_1089964,http://ad.leadbolt.net/conv/?track_id=1089964&clk_id=1643-147585316&key=b50a7f9566a5aa4d,idfa_59bd0999-bf0f-4096-b5e1-d55aa731161e,ja
rY0VC51wTHaK2Mg0pyms8g,leadbolt_api,A723790_,Install,0.7,126.65.223.169,c4f6364b-cb1c-4137-aef1-40c61d976106,1558261299,2019-05-19 18:21:39,1558261390,2019-05-19 18:23:10,1558261390,1653-122041323_1089964,http://ad.leadbolt.net/conv/?track_id=1089964&clk_id=1653-122041323&key=b50a7f9566a5aa4d,idfa_c4f6364b-cb1c-4137-aef1-40c61d976106,ja
rY0VC51wTHaK2Mg0pyms8g,leadbolt_api,A723790_,Install,0.7,111.239.184.94,57ead9ab-2404-43bf-8c55-ff7e2632b099,1557685018,2019-05-13 02:16:58,1557685113,2019-05-13 02:18:33,1557685113,1653-114394447_1089964,http://ad.leadbolt.net/conv/?track_id=1089964&clk_id=1653-114394447&key=b50a7f9566a5aa4d,idfa_57ead9ab-2404-43bf-8c55-ff7e2632b099,ja
rY0VC51wTHaK2Mg0pyms8g,leadbolt_api,A723790_,Install,0.7,180.146.57.19,fda65686-5bf5-44d9-a427-35960426d6f8,1558320397,2019-05-20 10:46:37,1558320488,2019-05-20 10:48:08,1558320488,1655-135492143_1089964,http://ad.leadbolt.net/conv/?track_id=1089964&clk_id=1655-135492143&key=b50a7f9566a5aa4d,idfa_fda65686-5bf5-44d9-a427-35960426d6f8,ja
rY0VC51wTHaK2Mg0pyms8g,leadbolt_api,A723790_,Install,0.7,211.121.46.28,ed1e75f1-adfc-47b1-aabf-f340bf64a28c,1558281652,2019-05-20 00:00:52,1558281743,2019-05-20 00:02:23,1558281743,1638-148099725_1089964,http://ad.leadbolt.net/conv/?track_id=1089964&clk_id=1638-148099725&key=b50a7f9566a5aa4d,idfa_ed1e75f1-adfc-47b1-aabf-f340bf64a28c,ja
rY0VC51wTHaK2Mg0pyms8g,leadbolt_api,A723790_,Install,0.7,126.77.95.6,5609ce09-0f58-49b0-8682-b961e28cfa79,1558212015,2019-05-19 04:40:15,1558212111,2019-05-19 04:41:51,1558212111,1660-43346321_1089964,http://ad.leadbolt.net/conv/?track_id=1089964&clk_id=1660-43346321&key=b50a7f9566a5aa4d,idfa_5609ce09-0f58-49b0-8682-b961e28cfa79,ja
rY0VC51wTHaK2Mg0pyms8g,leadbolt_api,A723790_,Install,0.7,14.101.160.234,f1083be3-471c-4558-afae-e9f1925e4780,1558260485,2019-05-19 18:08:05,1558260585,2019-05-19 18:09:45,1558260585,1650-134827440_1089964,http://ad.leadbolt.net/conv/?track_id=1089964&clk_id=1650-134827440&key=b50a7f9566a5aa4d,idfa_f1083be3-471c-4558-afae-e9f1925e4780,ja
rY0VC51wTHaK2Mg0pyms8g,leadbolt_api,A723790_,Install,0.7,14.13.241.0,7e56f42a-cedb-4658-9c18-39b2ae5119a7,1558321507,2019-05-20 11:05:07,1558321600,2019-05-20 11:06:40,1558321600,1643-148299317_1089964,http://ad.leadbolt.net/conv/?track_id=1089964&clk_id=1643-148299317&key=b50a7f9566a5aa4d,idfa_7e56f42a-cedb-4658-9c18-39b2ae5119a7,ja
rY0VC51wTHaK2Mg0pyms8g,leadbolt_api,A723790_,Install,0.7,60.144.37.66,cee02a53-9f80-401b-b87a-6cf6ff424d7c,1558281569,2019-05-19 23:59:29,1558281662,2019-05-20 00:01:02,1558281662,1658-96434439_1089964,http://ad.leadbolt.net/conv/?track_id=1089964&clk_id=1658-96434439&key=b50a7f9566a5aa4d,idfa_cee02a53-9f80-401b-b87a-6cf6ff424d7c,ja
rY0VC51wTHaK2Mg0pyms8g,leadbolt_api,A723790_,Install,0.7,220.58.50.11,dca757d4-4b91-46b2-9ce8-c100224dc4f5,1558267816,2019-05-19 20:10:16,1558267910,2019-05-19 20:11:50,1558267910,1649-135551561_1089964,http://ad.leadbolt.net/conv/?track_id=1089964&clk_id=1649-135551561&key=b50a7f9566a5aa4d,idfa_dca757d4-4b91-46b2-9ce8-c100224dc4f5,ja
rY0VC51wTHaK2Mg0pyms8g,leadbolt_api,A723790_,Install,0.7,114.18.227.252,90b86616-9999-4a5b-8ec3-fcb05249d7be,1558258611,2019-05-19 17:36:51,1558258702,2019-05-19 17:38:22,1558258702,1639-160841425_1089964,http://ad.leadbolt.net/conv/?track_id=1089964&clk_id=1639-160841425&key=b50a7f9566a5aa4d,idfa_90b86616-9999-4a5b-8ec3-fcb05249d7be,ja
rY0VC51wTHaK2Mg0pyms8g,leadbolt_api,A723790_,Install,0.7,126.2.186.4,0d658c04-c5b7-4d8d-aa5e-d05480d6a8bc,1558266066,2019-05-19 19:41:06,1558266216,2019-05-19 19:43:36,1558266216,1647-139304640_1089964,http://ad.leadbolt.net/conv/?track_id=1089964&clk_id=1647-139304640&key=b50a7f9566a5aa4d,idfa_0d658c04-c5b7-4d8d-aa5e-d05480d6a8bc,ja
rY0VC51wTHaK2Mg0pyms8g,leadbolt_api,A723790_,Install,0.7,153.196.165.157,8cafcdad-bbb4-4c87-988d-8c975ae62152,1558321502,2019-05-20 11:05:02,1558321599,2019-05-20 11:06:39,1558321599,1655-135513291_1089964,http://ad.leadbolt.net/conv/?track_id=1089964&clk_id=1655-135513291&key=b50a7f9566a5aa4d,idfa_8cafcdad-bbb4-4c87-988d-8c975ae62152,ja
rY0VC51wTHaK2Mg0pyms8g,leadbolt_api,A723790_,Install,0.7,14.8.10.224,028df1a1-d37e-4fc5-9bb0-7c4224bd55c9,1558258117,2019-05-19 17:28:37,1558258209,2019-05-19 17:30:09,1558258209,1640-160396111_1089964,http://ad.leadbolt.net/conv/?track_id=1089964&clk_id=1640-160396111&key=b50a7f9566a5aa4d,idfa_028df1a1-d37e-4fc5-9bb0-7c4224bd55c9,ja
rY0VC51wTHaK2Mg0pyms8g,leadbolt_api,A723790_,Install,0.7,180.56.92.201,736c92fa-ed2a-4155-b559-c025e7d751c8,1558287532,2019-05-20 01:38:52,1558287630,2019-05-20 01:40:30,1558287630,1636-163013843_1089964,http://ad.leadbolt.net/conv/?track_id=1089964&clk_id=1636-163013843&key=b50a7f9566a5aa4d,idfa_736c92fa-ed2a-4155-b559-c025e7d751c8,ja
rY0VC51wTHaK2Mg0pyms8g,leadbolt_api,A723790_,Install,0.7,218.218.73.243,ccff9ed6-a40a-4737-bffa-2e1ad4d46ae8,1558264679,2019-05-19 19:17:59,1558264779,2019-05-19 19:19:39,1558264779,1661-12881073_1089964,http://ad.leadbolt.net/conv/?track_id=1089964&clk_id=1661-12881073&key=b50a7f9566a5aa4d,idfa_ccff9ed6-a40a-4737-bffa-2e1ad4d46ae8,ja
rY0VC51wTHaK2Mg0pyms8g,leadbolt_api,A723790_,Install,0.7,119.242.189.27,8a537599-ad16-4e3e-9055-81eb7178d8e6,1558320080,2019-05-20 10:41:20,1558320178,2019-05-20 10:42:58,1558320178,1656-135529212_1089964,http://ad.leadbolt.net/conv/?track_id=1089964&clk_id=1656-135529212&key=b50a7f9566a5aa4d,idfa_8a537599-ad16-4e3e-9055-81eb7178d8e6,ja
rY0VC51wTHaK2Mg0pyms8g,leadbolt_api,A723790_,Install,0.7,113.37.56.186,a2a37b33-2588-47f4-beb5-cb9b9b13c16d,1558320334,2019-05-20 10:45:34,1558320429,2019-05-20 10:47:09,1558320429,1659-110170911_1089964,http://ad.leadbolt.net/conv/?track_id=1089964&clk_id=1659-110170911&key=b50a7f9566a5aa4d,idfa_a2a37b33-2588-47f4-beb5-cb9b9b13c16d,ja
rY0VC51wTHaK2Mg0pyms8g,leadbolt_api,A723790_,Install,0.7,113.156.65.68,d3c9c25e-a6ac-4d52-b8ab-f26031e01025,1558261275,2019-05-19 18:21:15,1558261367,2019-05-19 18:22:47,1558261367,1660-44125631_1089964,http://ad.leadbolt.net/conv/?track_id=1089964&clk_id=1660-44125631&key=b50a7f9566a5aa4d,idfa_d3c9c25e-a6ac-4d52-b8ab-f26031e01025,ja
rY0VC51wTHaK2Mg0pyms8g,leadbolt_api,A723790_,Install,0.7,61.200.111.12,8bbbd3e9-d0f3-4c8f-b7b3-abcc74538d06,1558260144,2019-05-19 18:02:24,1558260236,2019-05-19 18:03:56,1558260236,1650-134822287_1089964,http://ad.leadbolt.net/conv/?track_id=1089964&clk_id=1650-134822287&key=b50a7f9566a5aa4d,idfa_8bbbd3e9-d0f3-4c8f-b7b3-abcc74538d06,ja
