cid,partner_id,channel_id,action_id,cpi,ip,idfa,click time,click datetime,install time,install datetime,postback time,click id,postback url,unique user id
v3219lD5QRGjWk8TzDxyhw,mobpeas,211_211s__05967-0572_mobc7a98d457e37eacd,Install,0.8,117.5.42.211,A312DF81-8B4F-4244-A098-B31C49A05D6E,1558948304,2019-05-27 17:11:44,1558948346,2019-05-27 17:12:26,1558948377,aazz100011cdv20108052709114c9fae29b024a975f170bae5,http://conv.mobpeas.com/notify/110113/?click_id=aazz100011cdv20108052709114c9fae29b024a975f170bae5,idfa_A312DF81-8B4F-4244-A098-B31C49A05D6E,vi-VN
v3219lD5QRGjWk8TzDxyhw,mobpeas,211_211s__05967-0572_mobc7a98d457e37eacd,Install,0.8,14.162.147.86,30E5596F-FAD3-473B-8634-E8CCBFF0B179,1558947999,2019-05-27 17:06:39,1558948036,2019-05-27 17:07:16,1558948067,aazz100011cdv201080527090643bc884b361e43200f1936d3,http://conv.mobpeas.com/notify/110113/?click_id=aazz100011cdv201080527090643bc884b361e43200f1936d3,idfa_30E5596F-FAD3-473B-8634-E8CCBFF0B179,vi-VN
v3219lD5QRGjWk8TzDxyhw,mobpeas,211_211s__05967-0572_mobc7a98d457e37eacd,Install,0.8,123.20.233.144,673855AB-94E2-47E3-A589-7A259EDD98FF,1558947632,2019-05-27 17:00:32,1558947665,2019-05-27 17:01:05,1558947695,aazz100011cdv2010805270900440388176a2ea9d8105d7f4d,http://conv.mobpeas.com/notify/110113/?click_id=aazz100011cdv2010805270900440388176a2ea9d8105d7f4d,idfa_673855AB-94E2-47E3-A589-7A259EDD98FF,vi-VN
v3219lD5QRGjWk8TzDxyhw,mobpeas,211_211s__05967-0572_mobc7a98d457e37eacd,Install,0.8,222.252.46.218,D3D1FE4E-4AC3-4585-8917-B8FEAD7D76F3,1558946723,2019-05-27 16:45:23,1558946785,2019-05-27 16:46:25,1558946815,aazz100011cdv201080527084540649f599427ce2a9f0a190f,http://conv.mobpeas.com/notify/110113/?click_id=aazz100011cdv201080527084540649f599427ce2a9f0a190f,idfa_D3D1FE4E-4AC3-4585-8917-B8FEAD7D76F3,vi-VN
v3219lD5QRGjWk8TzDxyhw,mobpeas,211_211s__05967-0572_mobc7a98d457e37eacd,Install,0.8,14.231.186.170,43ED5D87-F42A-4439-ABEB-0472C5C8FC8F,1558948070,2019-05-27 17:07:50,1558948110,2019-05-27 17:08:30,1558948141,aazz100011cdv20108052709074f3892df901397ede9eb9ba3,http://conv.mobpeas.com/notify/110113/?click_id=aazz100011cdv20108052709074f3892df901397ede9eb9ba3,idfa_43ED5D87-F42A-4439-ABEB-0472C5C8FC8F,vi-VN
v3219lD5QRGjWk8TzDxyhw,mobpeas,211_211s__05967-0572_mobc7a98d457e37eacd,Install,0.8,171.224.39.14,866F81E9-B6F5-49BB-B85F-9478F485FB4D,1558948075,2019-05-27 17:07:55,1558948112,2019-05-27 17:08:32,1558948143,aazz100011cdv201080527090748f5a1032dff735ee089163f,http://conv.mobpeas.com/notify/110113/?click_id=aazz100011cdv201080527090748f5a1032dff735ee089163f,idfa_866F81E9-B6F5-49BB-B85F-9478F485FB4D,vi-VN
v3219lD5QRGjWk8TzDxyhw,mobpeas,211_211s__05967-0572_mobc7a98d457e37eacd,Install,0.8,113.173.39.88,C121D7E9-2693-445A-A9A5-A0AB170EC853,1558948218,2019-05-27 17:10:18,1558948254,2019-05-27 17:10:54,1558948285,aazz100011cdv20108052709104484a0a8f42679200528dbc9,http://conv.mobpeas.com/notify/110113/?click_id=aazz100011cdv20108052709104484a0a8f42679200528dbc9,idfa_C121D7E9-2693-445A-A9A5-A0AB170EC853,vi-VN
v3219lD5QRGjWk8TzDxyhw,mobpeas,211_211s__05967-0572_mobc7a98d457e37eacd,Install,0.8,123.21.139.220,7903D1FB-11B8-40FA-BAE1-DDEA2A6E16A5,1558948289,2019-05-27 17:11:29,1558948320,2019-05-27 17:12:00,1558948350,aazz100011cdv201080527091144fd99a685910c0304676af5,http://conv.mobpeas.com/notify/110113/?click_id=aazz100011cdv201080527091144fd99a685910c0304676af5,idfa_7903D1FB-11B8-40FA-BAE1-DDEA2A6E16A5,vi-VN
v3219lD5QRGjWk8TzDxyhw,mobpeas,211_211s__05967-0572_mobc7a98d457e37eacd,Install,0.8,113.162.159.212,31569446-E23B-4FE5-9F54-C0FCA0FCACB2,1558947946,2019-05-27 17:05:46,1558948007,2019-05-27 17:06:47,1558948038,aazz100011cdv2010805270905496e92d6e5de6aa7ed1d997b,http://conv.mobpeas.com/notify/110113/?click_id=aazz100011cdv2010805270905496e92d6e5de6aa7ed1d997b,idfa_31569446-E23B-4FE5-9F54-C0FCA0FCACB2,vi-VN
v3219lD5QRGjWk8TzDxyhw,mobpeas,211_211s__05967-0572_mobc7a98d457e37eacd,Install,0.8,14.186.249.170,5A2C98DD-1511-463D-AE37-82617DBBF3B5,1558948098,2019-05-27 17:08:18,1558948139,2019-05-27 17:08:59,1558948171,aazz100011cdv20108052709084df3809163b4a06c5811b154,http://conv.mobpeas.com/notify/110113/?click_id=aazz100011cdv20108052709084df3809163b4a06c5811b154,idfa_5A2C98DD-1511-463D-AE37-82617DBBF3B5,vi-VN
v3219lD5QRGjWk8TzDxyhw,mobpeas,211_211s__05967-0572_mobc7a98d457e37eacd,Install,0.8,14.175.61.32,43EEF1EF-C699-4E7B-B7E2-4BB046E54B45,1558947857,2019-05-27 17:04:17,1558947895,2019-05-27 17:04:55,1558947925,aazz100011cdv201080527090440bbbfb1587a2e153c8fb54d,http://conv.mobpeas.com/notify/110113/?click_id=aazz100011cdv201080527090440bbbfb1587a2e153c8fb54d,idfa_43EEF1EF-C699-4E7B-B7E2-4BB046E54B45,vi-VN
v3219lD5QRGjWk8TzDxyhw,mobpeas,211_211s__05967-0572_mobc7a98d457e37eacd,Install,0.8,113.190.232.97,67C3196C-56E6-4F73-B4A1-1183FF7990B5,1558947513,2019-05-27 16:58:33,1558947550,2019-05-27 16:59:10,1558947581,aazz100011cdv20108052708584ffa8c7d4a85576c12c42bfb,http://conv.mobpeas.com/notify/110113/?click_id=aazz100011cdv20108052708584ffa8c7d4a85576c12c42bfb,idfa_67C3196C-56E6-4F73-B4A1-1183FF7990B5,vi-VN
v3219lD5QRGjWk8TzDxyhw,mobpeas,211_211s__05967-0572_mobc7a98d457e37eacd,Install,0.8,14.186.152.214,C695C736-C515-4A2B-8E36-3BB5CE20DAA6,1558948197,2019-05-27 17:09:57,1558948248,2019-05-27 17:10:48,1558948279,aazz100011cdv20108052709094a73bd906ac82385400411ff,http://conv.mobpeas.com/notify/110113/?click_id=aazz100011cdv20108052709094a73bd906ac82385400411ff,idfa_C695C736-C515-4A2B-8E36-3BB5CE20DAA6,vi-VN
v3219lD5QRGjWk8TzDxyhw,mobpeas,211_211s__05967-0572_mobc7a98d457e37eacd,Install,0.8,113.173.97.55,945D3C24-F756-4287-8CEA-6E34305A8A6C,1558596199,2019-05-23 15:23:19,1558596297,2019-05-23 15:24:57,1558596328,aazz100011cdv201070523072343e59b120fc93996618e9caf,http://conv.mobpeas.com/notify/110113/?click_id=aazz100011cdv201070523072343e59b120fc93996618e9caf,idfa_945D3C24-F756-4287-8CEA-6E34305A8A6C,vi-VN
v3219lD5QRGjWk8TzDxyhw,mobpeas,211_211s__05967-0572_mobc7a98d457e37eacd,Install,0.8,123.21.204.45,D8C390A7-EE66-4AB9-A0B2-624E41950525,1558596837,2019-05-23 15:33:57,1558596957,2019-05-23 15:35:57,1558596988,aazz100011cdv201070523073349e6b83326a63595fafc9b76,http://conv.mobpeas.com/notify/110113/?click_id=aazz100011cdv201070523073349e6b83326a63595fafc9b76,idfa_D8C390A7-EE66-4AB9-A0B2-624E41950525,vi-VN
v3219lD5QRGjWk8TzDxyhw,mobpeas,211_211s__05967-0572_mobc7a98d457e37eacd,Install,0.8,123.21.137.191,1B62E4B6-1456-4F7E-9D0C-A59851768578,1558947520,2019-05-27 16:58:40,1558947551,2019-05-27 16:59:11,1558947583,aazz100011cdv20108052708584385b704170f092394fecd9b,http://conv.mobpeas.com/notify/110113/?click_id=aazz100011cdv20108052708584385b704170f092394fecd9b,idfa_1B62E4B6-1456-4F7E-9D0C-A59851768578,vi-VN
v3219lD5QRGjWk8TzDxyhw,mobpeas,211_211s__05967-0572_mobc7a98d457e37eacd,Install,0.8,14.169.204.199,CACC3B13-3D58-4D0D-B479-AD09E20B0307,1558947839,2019-05-27 17:03:59,1558947871,2019-05-27 17:04:31,1558947902,aazz100011cdv2010805270903443095bcae09054124b178ec,http://conv.mobpeas.com/notify/110113/?click_id=aazz100011cdv2010805270903443095bcae09054124b178ec,idfa_CACC3B13-3D58-4D0D-B479-AD09E20B0307,vi-VN
v3219lD5QRGjWk8TzDxyhw,mobpeas,211_211s__05967-0572_mobc7a98d457e37eacd,Install,0.8,123.21.1.160,D4A8B646-95CE-4EEF-9DCF-982CAADE02FB,1558947934,2019-05-27 17:05:34,1558947971,2019-05-27 17:06:11,1558948001,aazz100011cdv20108052709054f1f8d9a1540fe2039a9a11d,http://conv.mobpeas.com/notify/110113/?click_id=aazz100011cdv20108052709054f1f8d9a1540fe2039a9a11d,idfa_D4A8B646-95CE-4EEF-9DCF-982CAADE02FB,vi-VN
v3219lD5QRGjWk8TzDxyhw,mobpeas,211_211s__05967-0572_mobc7a98d457e37eacd,Install,0.8,113.172.48.223,D22FCE6B-7277-4ECF-8E14-B934FF1591AE,1558948042,2019-05-27 17:07:22,1558948075,2019-05-27 17:07:55,1558948106,aazz100011cdv201080527090747f19031352cba8bc7bcdf6a,http://conv.mobpeas.com/notify/110113/?click_id=aazz100011cdv201080527090747f19031352cba8bc7bcdf6a,idfa_D22FCE6B-7277-4ECF-8E14-B934FF1591AE,vi-VN
v3219lD5QRGjWk8TzDxyhw,mobpeas,211_211s__05967-0572_mobc7a98d457e37eacd,Install,0.8,116.111.28.246,E7B431B0-8060-4738-AD72-700D1076D2D0,1558595536,2019-05-23 15:12:16,1558595649,2019-05-23 15:14:09,1558595680,aazz100011cdv201070523071248e5a7d4ab2b95190371d3ee,http://conv.mobpeas.com/notify/110113/?click_id=aazz100011cdv201070523071248e5a7d4ab2b95190371d3ee,idfa_E7B431B0-8060-4738-AD72-700D1076D2D0,vi-VN
v3219lD5QRGjWk8TzDxyhw,mobpeas,211_211s__05967-0572_mobc7a98d457e37eacd,Install,0.8,14.162.167.81,3CC833EF-7800-4204-A8D1-B80B72F02E57,1558948106,2019-05-27 17:08:26,1558948139,2019-05-27 17:08:59,1558948170,aazz100011cdv201080527090842299c7f77b3f0c3f4cafcdf,http://conv.mobpeas.com/notify/110113/?click_id=aazz100011cdv201080527090842299c7f77b3f0c3f4cafcdf,idfa_3CC833EF-7800-4204-A8D1-B80B72F02E57,vi-VN
v3219lD5QRGjWk8TzDxyhw,mobpeas,211_211s__05967-0572_mobc7a98d457e37eacd,Install,0.8,113.162.178.58,289B2B69-DFB4-4C7D-A78F-BB624E9577FB,1558947334,2019-05-27 16:55:34,1558947367,2019-05-27 16:56:07,1558947397,aazz100011cdv201080527085549d2b3ed98fab194ca04c722,http://conv.mobpeas.com/notify/110113/?click_id=aazz100011cdv201080527085549d2b3ed98fab194ca04c722,idfa_289B2B69-DFB4-4C7D-A78F-BB624E9577FB,vi-VN
v3219lD5QRGjWk8TzDxyhw,mobpeas,211_211s__05967-0572_mobc7a98d457e37eacd,Install,0.8,113.172.202.152,98040E31-BC5C-4AD8-8574-0175052AC522,1558947913,2019-05-27 17:05:13,1558947948,2019-05-27 17:05:48,1558947979,aazz100011cdv20108052709054878a4c74e61f3334a2b3084,http://conv.mobpeas.com/notify/110113/?click_id=aazz100011cdv20108052709054878a4c74e61f3334a2b3084,idfa_98040E31-BC5C-4AD8-8574-0175052AC522,vi-VN
