cid,partner_id,channel_id,action_id,cpi,ip,idfa,click time,click datetime,install time,install datetime,postback time,click id,postback url,unique user id
Tu9IXv95SrqfEM6pP3px0Q,mobpeas,237_237s__5322_9e87b2c8939e,install,3.5,60.101.188.112,96013782-6914-4505-9A97-B9E693E41CB3,1557887983,2019-05-15 10:39:43,1557888131,2019-05-15 10:42:11,1557888161,aazz100011cdv2010505150239486d9c82bc433dd5f54b97b2,http://conv.mobpeas.com/notify/110113/?click_id=aazz100011cdv2010505150239486d9c82bc433dd5f54b97b2,idfa_96013782-6914-4505-9A97-B9E693E41CB3,ja
Tu9IXv95SrqfEM6pP3px0Q,mobpeas,237_237s__5322_2f3ffc1831d0,install,3.5,133.218.147.36,8EBF4505-98DB-49AA-8974-3ACB22908267,1557888409,2019-05-15 10:46:49,1557888550,2019-05-15 10:49:10,1557888580,aazz100011cdv20105051502464ae68e96f8f5b0b0a0121589,http://conv.mobpeas.com/notify/110113/?click_id=aazz100011cdv20105051502464ae68e96f8f5b0b0a0121589,idfa_8EBF4505-98DB-49AA-8974-3ACB22908267,ja
Tu9IXv95SrqfEM6pP3px0Q,mobpeas,237_237s__5322_2f3ffc1831d0,install,3.5,143.189.148.241,A0DEA5CA-7F13-4719-8815-A6CD62CD18D2,1557888409,2019-05-15 10:46:49,1557888547,2019-05-15 10:49:07,1557888577,aazz100011cdv201050515024649fdbbdbe63def2871039af5,http://conv.mobpeas.com/notify/110113/?click_id=aazz100011cdv201050515024649fdbbdbe63def2871039af5,idfa_A0DEA5CA-7F13-4719-8815-A6CD62CD18D2,ja
Tu9IXv95SrqfEM6pP3px0Q,mobpeas,237_237s__5322_82de566ba670,install,3.5,114.180.105.49,36ACD711-7BD2-4AA5-A07E-B50A2BD0A056,1557888434,2019-05-15 10:47:14,1557973773,2019-05-16 10:29:33,1557973803,aazz100011cdv201050515024742fa82dbca9c1c2dade380a3,http://conv.mobpeas.com/notify/110113/?click_id=aazz100011cdv201050515024742fa82dbca9c1c2dade380a3,idfa_36ACD711-7BD2-4AA5-A07E-B50A2BD0A056,ja
Tu9IXv95SrqfEM6pP3px0Q,mobpeas,237_237s__5322_82de566ba670,install,3.5,182.20.95.186,930A437B-B94D-4553-AD40-94E0F0D5A959,1557888409,2019-05-15 10:46:49,1557888551,2019-05-15 10:49:11,1557888582,aazz100011cdv20105051502464f1c83646c3cb5e5d53d2ff5,http://conv.mobpeas.com/notify/110113/?click_id=aazz100011cdv20105051502464f1c83646c3cb5e5d53d2ff5,idfa_930A437B-B94D-4553-AD40-94E0F0D5A959,ja
Tu9IXv95SrqfEM6pP3px0Q,mobpeas,237_237s__5322_d68bad240fc6,install,3.5,61.206.69.221,997703C7-A497-434F-84A2-FB327A0E6501,1557887902,2019-05-15 10:38:22,1557890411,2019-05-15 11:20:11,1557890441,aazz100011cdv201050515023849e2a7e561b2e6adddf8e50f,http://conv.mobpeas.com/notify/110113/?click_id=aazz100011cdv201050515023849e2a7e561b2e6adddf8e50f,idfa_997703C7-A497-434F-84A2-FB327A0E6501,ja
Tu9IXv95SrqfEM6pP3px0Q,mobpeas,237_237s__5322_050f3c094e15,install,3.5,221.171.94.72,D47A2054-9655-4B7D-A9A5-92F3472E0CC4,1557887976,2019-05-15 10:39:36,1557888109,2019-05-15 10:41:49,1557888140,aazz100011cdv201050515023946048cecbd2d45066b86bdf8,http://conv.mobpeas.com/notify/110113/?click_id=aazz100011cdv201050515023946048cecbd2d45066b86bdf8,idfa_D47A2054-9655-4B7D-A9A5-92F3472E0CC4,ja
Tu9IXv95SrqfEM6pP3px0Q,mobpeas,237_237s__5322_8901fa10f392,install,3.5,121.2.192.48,82400826-57EE-4CC0-8236-552021AE099B,1557888410,2019-05-15 10:46:50,1557888553,2019-05-15 10:49:13,1557888583,aazz100011cdv20105051502464456aa3a115ad6515fc9d662,http://conv.mobpeas.com/notify/110113/?click_id=aazz100011cdv20105051502464456aa3a115ad6515fc9d662,idfa_82400826-57EE-4CC0-8236-552021AE099B,ja
Tu9IXv95SrqfEM6pP3px0Q,mobpeas,237_237s__5322_8901fa10f392,install,3.5,220.108.181.224,CB23E218-800E-48AD-87B7-C74912B8CFD1,1557888406,2019-05-15 10:46:46,1557888546,2019-05-15 10:49:06,1557888576,aazz100011cdv20105051502464099b8bc825bd23ced3fb47b,http://conv.mobpeas.com/notify/110113/?click_id=aazz100011cdv20105051502464099b8bc825bd23ced3fb47b,idfa_CB23E218-800E-48AD-87B7-C74912B8CFD1,ja
Tu9IXv95SrqfEM6pP3px0Q,mobpeas,237_237s__5322_2f3ffc1831d0,install,3.5,180.148.144.11,E659988B-E9FA-48AC-8EE7-0D96DABB2302,1557887474,2019-05-15 10:31:14,1557887617,2019-05-15 10:33:37,1557887647,aazz100011cdv20105051502304049916d90996d89c3b352e4,http://conv.mobpeas.com/notify/110113/?click_id=aazz100011cdv20105051502304049916d90996d89c3b352e4,idfa_E659988B-E9FA-48AC-8EE7-0D96DABB2302,ja
Tu9IXv95SrqfEM6pP3px0Q,mobpeas,237_237s__5322_39b9834d2536,install,3.5,106.158.107.179,614B707F-3764-4470-A572-345BBE96EA1C,1557888405,2019-05-15 10:46:45,1557888541,2019-05-15 10:49:01,1557888571,aazz100011cdv20105051502464de0a860ffc085fe09b76548,http://conv.mobpeas.com/notify/110113/?click_id=aazz100011cdv20105051502464de0a860ffc085fe09b76548,idfa_614B707F-3764-4470-A572-345BBE96EA1C,ja
Tu9IXv95SrqfEM6pP3px0Q,mobpeas,237_237s__5322_b12d7b6e5aa1,install,3.5,106.158.38.35,DBCE8756-04FA-4C97-9C61-C84F4EE2C357,1557888402,2019-05-15 10:46:42,1557888546,2019-05-15 10:49:06,1557888576,aazz100011cdv201050515024642638b01822afc82ca9d564c,http://conv.mobpeas.com/notify/110113/?click_id=aazz100011cdv201050515024642638b01822afc82ca9d564c,idfa_DBCE8756-04FA-4C97-9C61-C84F4EE2C357,ja
Tu9IXv95SrqfEM6pP3px0Q,mobpeas,237_237s__5322_041d813cb0d8,install,3.5,150.249.195.252,A8F01A5F-42F6-4796-975F-6796500DD3B6,1557887975,2019-05-15 10:39:35,1557888133,2019-05-15 10:42:13,1557888164,aazz100011cdv2010505150239425ca92f03124508a71d50bb,http://conv.mobpeas.com/notify/110113/?click_id=aazz100011cdv2010505150239425ca92f03124508a71d50bb,idfa_A8F01A5F-42F6-4796-975F-6796500DD3B6,ja
Tu9IXv95SrqfEM6pP3px0Q,mobpeas,237_237s__5322_82de566ba670,install,3.5,116.58.161.42,B3B6D749-4E1E-4464-8F06-DE9736F73EF6,1557888386,2019-05-15 10:46:26,1557888526,2019-05-15 10:48:46,1557888556,aazz100011cdv20105051502464763986507456bb5674776ed,http://conv.mobpeas.com/notify/110113/?click_id=aazz100011cdv20105051502464763986507456bb5674776ed,idfa_B3B6D749-4E1E-4464-8F06-DE9736F73EF6,ja
Tu9IXv95SrqfEM6pP3px0Q,mobpeas,237_237s__5322_82de566ba670,install,3.5,114.134.127.63,F66C8921-5D73-4917-8E45-404D7DFD89E4,1557887965,2019-05-15 10:39:25,1557888128,2019-05-15 10:42:08,1557888158,aazz100011cdv20105051502394c6eb50dc96e917794d4abd3,http://conv.mobpeas.com/notify/110113/?click_id=aazz100011cdv20105051502394c6eb50dc96e917794d4abd3,idfa_F66C8921-5D73-4917-8E45-404D7DFD89E4,ja
Tu9IXv95SrqfEM6pP3px0Q,mobpeas,237_237s__5322_d68bad240fc6,install,3.5,153.194.140.46,AD9A0AAE-2349-43CF-99C5-0B2D3D7E0225,1557888548,2019-05-15 10:49:08,1557897693,2019-05-15 13:21:33,1557897723,aazz100011cdv2010505150248498cbed7fd9a10f6c272ab12,http://conv.mobpeas.com/notify/110113/?click_id=aazz100011cdv2010505150248498cbed7fd9a10f6c272ab12,idfa_AD9A0AAE-2349-43CF-99C5-0B2D3D7E0225,ja
Tu9IXv95SrqfEM6pP3px0Q,mobpeas,237_237s__5322_9e87b2c8939e,install,3.5,14.10.128.160,D4B3B6F4-8D8E-40B2-90DA-FE38F27E5BA5,1557888410,2019-05-15 10:46:50,1557888553,2019-05-15 10:49:13,1557888583,aazz100011cdv2010505150246472aa5b099bce231518fa2b9,http://conv.mobpeas.com/notify/110113/?click_id=aazz100011cdv2010505150246472aa5b099bce231518fa2b9,idfa_D4B3B6F4-8D8E-40B2-90DA-FE38F27E5BA5,ja
Tu9IXv95SrqfEM6pP3px0Q,mobpeas,237_237s__5322_d613d574d0cb,install,3.5,121.117.164.150,E72ED574-5C12-41CA-BA70-5EC194EAF4DF,1557885945,2019-05-15 10:05:45,1557969948,2019-05-16 09:25:48,1557969978,aazz100011cdv20105051502054537995eeac5bad2bc70646d,http://conv.mobpeas.com/notify/110113/?click_id=aazz100011cdv20105051502054537995eeac5bad2bc70646d,idfa_E72ED574-5C12-41CA-BA70-5EC194EAF4DF,ja
Tu9IXv95SrqfEM6pP3px0Q,mobpeas,237_237s__5322_b12d7b6e5aa1,install,3.5,211.125.254.14,7F104D1E-EFC8-476B-930D-295BE41BFC62,1557888537,2019-05-15 10:48:57,1557888643,2019-05-15 10:50:43,1557888673,aazz100011cdv201050515024846099017c27432497a84c843,http://conv.mobpeas.com/notify/110113/?click_id=aazz100011cdv201050515024846099017c27432497a84c843,idfa_7F104D1E-EFC8-476B-930D-295BE41BFC62,ja
Tu9IXv95SrqfEM6pP3px0Q,mobpeas,237_237s__5322_8901fa10f392,install,3.5,210.128.19.45,48A707A4-5681-4B2D-A8C2-FF308C3950F0,1557888401,2019-05-15 10:46:41,1557888557,2019-05-15 10:49:17,1557888587,aazz100011cdv20105051502464614a8a79f2543ac0c9eb0d3,http://conv.mobpeas.com/notify/110113/?click_id=aazz100011cdv20105051502464614a8a79f2543ac0c9eb0d3,idfa_48A707A4-5681-4B2D-A8C2-FF308C3950F0,ja
Tu9IXv95SrqfEM6pP3px0Q,mobpeas,237_237s__5322_2f3ffc1831d0,install,3.5,112.138.137.250,B0445B90-D430-4295-B14C-DF76CCD1FE16,1557888402,2019-05-15 10:46:42,1557888555,2019-05-15 10:49:15,1557888585,aazz100011cdv20105051502464ff08d71b19616e267eb0549,http://conv.mobpeas.com/notify/110113/?click_id=aazz100011cdv20105051502464ff08d71b19616e267eb0549,idfa_B0445B90-D430-4295-B14C-DF76CCD1FE16,ja
Tu9IXv95SrqfEM6pP3px0Q,mobpeas,237_237s__5322_8901fa10f392,install,3.5,153.214.69.127,30CE6172-7091-449A-BE14-99331C1644A1,1557887540,2019-05-15 10:32:20,1557887677,2019-05-15 10:34:37,1557887707,aazz100011cdv20105051502324fbfaee41e238d85a97313f3,http://conv.mobpeas.com/notify/110113/?click_id=aazz100011cdv20105051502324fbfaee41e238d85a97313f3,idfa_30CE6172-7091-449A-BE14-99331C1644A1,ja
Tu9IXv95SrqfEM6pP3px0Q,mobpeas,237_237s__5322_8047d03b81fc,install,3.5,118.156.20.174,5EF973E8-F9B6-4FA1-B044-B226860B0601,1557887971,2019-05-15 10:39:31,1557888112,2019-05-15 10:41:52,1557888142,aazz100011cdv201050515023944a0ae1b69fefa89c5d710fe,http://conv.mobpeas.com/notify/110113/?click_id=aazz100011cdv201050515023944a0ae1b69fefa89c5d710fe,idfa_5EF973E8-F9B6-4FA1-B044-B226860B0601,ja
Tu9IXv95SrqfEM6pP3px0Q,mobpeas,237_237s__5322_8901fa10f392,install,3.5,106.185.162.16,87082571-8D56-4E4C-9AEB-C9804BBF41BA,1557888622,2019-05-15 10:50:22,1557931615,2019-05-15 22:46:55,1557931645,aazz100011cdv20105051502504395809362f21e31a65fcfa6,http://conv.mobpeas.com/notify/110113/?click_id=aazz100011cdv20105051502504395809362f21e31a65fcfa6,idfa_87082571-8D56-4E4C-9AEB-C9804BBF41BA,ja
Tu9IXv95SrqfEM6pP3px0Q,mobpeas,237_237s__5322_d68bad240fc6,install,3.5,220.220.8.118,9A4DA13B-6222-46AD-97A0-89FD91B6D4E9,1557887481,2019-05-15 10:31:21,1557887594,2019-05-15 10:33:14,1557887624,aazz100011cdv20105051502314d51963a31d0d159c33db90e,http://conv.mobpeas.com/notify/110113/?click_id=aazz100011cdv20105051502314d51963a31d0d159c33db90e,idfa_9A4DA13B-6222-46AD-97A0-89FD91B6D4E9,ja
Tu9IXv95SrqfEM6pP3px0Q,mobpeas,237_237s__5322_1decb2397038,install,3.5,49.129.202.6,53A1F4F5-201F-4FD9-A15F-B8C9B91A2659,1557887971,2019-05-15 10:39:31,1557888111,2019-05-15 10:41:51,1557888141,aazz100011cdv20105051502394dba873cb1072bf85a72cbc9,http://conv.mobpeas.com/notify/110113/?click_id=aazz100011cdv20105051502394dba873cb1072bf85a72cbc9,idfa_53A1F4F5-201F-4FD9-A15F-B8C9B91A2659,ja
Tu9IXv95SrqfEM6pP3px0Q,mobpeas,237_237s__5322_8901fa10f392,install,3.5,60.236.125.182,BC9E2D82-9AF3-4041-A182-0778E833808E,1557887979,2019-05-15 10:39:39,1557888109,2019-05-15 10:41:49,1557888139,aazz100011cdv20105051502394414ad2144de5f7337d3fae5,http://conv.mobpeas.com/notify/110113/?click_id=aazz100011cdv20105051502394414ad2144de5f7337d3fae5,idfa_BC9E2D82-9AF3-4041-A182-0778E833808E,ja
Tu9IXv95SrqfEM6pP3px0Q,mobpeas,237_237s__5322_8047d03b81fc,install,3.5,150.31.154.95,6D3E027E-5A0C-4DCC-88AD-69ABCF859FBE,1557887974,2019-05-15 10:39:34,1557888119,2019-05-15 10:41:59,1557888149,aazz100011cdv20105051502394b698b4d4819196c87a0f8bf,http://conv.mobpeas.com/notify/110113/?click_id=aazz100011cdv20105051502394b698b4d4819196c87a0f8bf,idfa_6D3E027E-5A0C-4DCC-88AD-69ABCF859FBE,ja
Tu9IXv95SrqfEM6pP3px0Q,mobpeas,237_237s__5322_d68bad240fc6,install,3.5,61.125.253.33,E54659C3-0EE8-4D9E-A010-88B10365CE47,1557888584,2019-05-15 10:49:44,1557917856,2019-05-15 18:57:36,1557917886,aazz100011cdv20105051502494aef85b017e38c24ea4d62c2,http://conv.mobpeas.com/notify/110113/?click_id=aazz100011cdv20105051502494aef85b017e38c24ea4d62c2,idfa_E54659C3-0EE8-4D9E-A010-88B10365CE47,ja
Tu9IXv95SrqfEM6pP3px0Q,mobpeas,237_237s__5322_d68bad240fc6,install,3.5,42.150.100.96,44753046-707D-4F89-9BA0-337F981EFE15,1557888514,2019-05-15 10:48:34,1557908301,2019-05-15 16:18:21,1557908331,aazz100011cdv20105051502484ee28442781d1082090b2fa6,http://conv.mobpeas.com/notify/110113/?click_id=aazz100011cdv20105051502484ee28442781d1082090b2fa6,idfa_44753046-707D-4F89-9BA0-337F981EFE15,ja
Tu9IXv95SrqfEM6pP3px0Q,mobpeas,237_237s__5322_1decb2397038,install,3.5,111.239.175.146,4776D528-8D84-445D-86A1-172AB2FA4218,1557887965,2019-05-15 10:39:25,1557888107,2019-05-15 10:41:47,1557888137,aazz100011cdv201050515023949a1b9ab9cfbd1d6bba4e6c5,http://conv.mobpeas.com/notify/110113/?click_id=aazz100011cdv201050515023949a1b9ab9cfbd1d6bba4e6c5,idfa_4776D528-8D84-445D-86A1-172AB2FA4218,ja
Tu9IXv95SrqfEM6pP3px0Q,mobpeas,237_237s__5322_8901fa10f392,install,3.5,58.5.51.210,AF8AC6B4-D5F3-4CA6-8901-D2119D6B3261,1557887988,2019-05-15 10:39:48,1557888135,2019-05-15 10:42:15,1557888165,aazz100011cdv201050515023944f2befb5432530ff4d31d83,http://conv.mobpeas.com/notify/110113/?click_id=aazz100011cdv201050515023944f2befb5432530ff4d31d83,idfa_AF8AC6B4-D5F3-4CA6-8901-D2119D6B3261,ja
Tu9IXv95SrqfEM6pP3px0Q,mobpeas,237_237s__5322_2f3ffc1831d0,install,3.5,119.244.228.85,7EDCF095-019B-4F64-9551-DE1E48465679,1557887975,2019-05-15 10:39:35,1557888119,2019-05-15 10:41:59,1557888149,aazz100011cdv20105051502394b0581359280a703369b89b6,http://conv.mobpeas.com/notify/110113/?click_id=aazz100011cdv20105051502394b0581359280a703369b89b6,idfa_7EDCF095-019B-4F64-9551-DE1E48465679,ja
Tu9IXv95SrqfEM6pP3px0Q,mobpeas,237_237s__5322_d613d574d0cb,install,3.5,122.223.8.135,9C45A5F8-CBFE-4ABB-B438-B0D76560F15A,1557885724,2019-05-15 10:02:04,1557885856,2019-05-15 10:04:16,1557885886,aazz100011cdv201050515020143cf93360dc41b1b2a8f31ab,http://conv.mobpeas.com/notify/110113/?click_id=aazz100011cdv201050515020143cf93360dc41b1b2a8f31ab,idfa_9C45A5F8-CBFE-4ABB-B438-B0D76560F15A,ja
Tu9IXv95SrqfEM6pP3px0Q,mobpeas,237_237s__5322_041d813cb0d8,install,3.5,202.137.186.70,CDC9AA4B-2CFE-4FFC-B62C-7495440594A2,1557888391,2019-05-15 10:46:31,1557888542,2019-05-15 10:49:02,1557888572,aazz100011cdv20105051502464255a4604d0330045b4a724c,http://conv.mobpeas.com/notify/110113/?click_id=aazz100011cdv20105051502464255a4604d0330045b4a724c,idfa_CDC9AA4B-2CFE-4FFC-B62C-7495440594A2,ja
Tu9IXv95SrqfEM6pP3px0Q,mobpeas,237_237s__5322_8047d03b81fc,install,3.5,60.111.16.171,1EA38081-2E51-4831-8689-6BE33B25DFE7,1557888017,2019-05-15 10:40:17,1557970266,2019-05-16 09:31:06,1557970296,aazz100011cdv201050515024049bd8d8b2d9854ec8805247c,http://conv.mobpeas.com/notify/110113/?click_id=aazz100011cdv201050515024049bd8d8b2d9854ec8805247c,idfa_1EA38081-2E51-4831-8689-6BE33B25DFE7,ja
Tu9IXv95SrqfEM6pP3px0Q,mobpeas,237_237s__5322_39b9834d2536,install,3.5,153.195.168.147,8C4A35FF-B5BF-445A-888A-FD6217CD6FC6,1557888272,2019-05-15 10:44:32,1557888427,2019-05-15 10:47:07,1557888457,aazz100011cdv2010505150244458eabd8000957c9c68d4012,http://conv.mobpeas.com/notify/110113/?click_id=aazz100011cdv2010505150244458eabd8000957c9c68d4012,idfa_8C4A35FF-B5BF-445A-888A-FD6217CD6FC6,ja
Tu9IXv95SrqfEM6pP3px0Q,mobpeas,237_237s__5322_b12d7b6e5aa1,install,3.5,150.246.95.13,D23D6C39-9929-44F0-A59F-E4A5DD885D6B,1557888406,2019-05-15 10:46:46,1557888547,2019-05-15 10:49:07,1557888577,aazz100011cdv2010505150246422093664e7f4b0223c680d5,http://conv.mobpeas.com/notify/110113/?click_id=aazz100011cdv2010505150246422093664e7f4b0223c680d5,idfa_D23D6C39-9929-44F0-A59F-E4A5DD885D6B,ja
Tu9IXv95SrqfEM6pP3px0Q,mobpeas,237_237s__5322_1decb2397038,install,3.5,180.3.133.241,DC591ADA-D573-4BC5-896E-F26140F1DA0A,1557887960,2019-05-15 10:39:20,1557888104,2019-05-15 10:41:44,1557888134,aazz100011cdv201050515023946b9b4d3d71dd7bac5253326,http://conv.mobpeas.com/notify/110113/?click_id=aazz100011cdv201050515023946b9b4d3d71dd7bac5253326,idfa_DC591ADA-D573-4BC5-896E-F26140F1DA0A,ja
Tu9IXv95SrqfEM6pP3px0Q,mobpeas,237_237s__5322_d68bad240fc6,install,3.5,111.239.174.42,7899B9C5-B284-4AD7-96A6-681B25F77A70,1557887977,2019-05-15 10:39:37,1557888117,2019-05-15 10:41:57,1557888147,aazz100011cdv201050515023940d091253d989dfa350976ec,http://conv.mobpeas.com/notify/110113/?click_id=aazz100011cdv201050515023940d091253d989dfa350976ec,idfa_7899B9C5-B284-4AD7-96A6-681B25F77A70,ja
Tu9IXv95SrqfEM6pP3px0Q,mobpeas,237_237s__5322_8901fa10f392,install,3.5,153.188.114.153,C0F0D2DC-97F5-426A-B053-B89B09BAF6ED,1557888186,2019-05-15 10:43:06,1557915828,2019-05-15 18:23:48,1557915858,aazz100011cdv20105051502424c81b7d503746ccedae1e544,http://conv.mobpeas.com/notify/110113/?click_id=aazz100011cdv20105051502424c81b7d503746ccedae1e544,idfa_C0F0D2DC-97F5-426A-B053-B89B09BAF6ED,ja
Tu9IXv95SrqfEM6pP3px0Q,mobpeas,237_237s__5322_82de566ba670,install,3.5,218.42.200.187,2009CE28-F061-45C1-8651-C4C69F25D7F8,1557887968,2019-05-15 10:39:28,1557888110,2019-05-15 10:41:50,1557888140,aazz100011cdv201050515023945a292cef91d6bf91219230f,http://conv.mobpeas.com/notify/110113/?click_id=aazz100011cdv201050515023945a292cef91d6bf91219230f,idfa_2009CE28-F061-45C1-8651-C4C69F25D7F8,ja
Tu9IXv95SrqfEM6pP3px0Q,mobpeas,237_237s__5322_d68bad240fc6,install,3.5,60.120.152.251,3421F1DF-3C46-4B9B-832E-5C2F65E2F6D8,1557888389,2019-05-15 10:46:29,1557908151,2019-05-15 16:15:51,1557908181,aazz100011cdv2010505150246482e8241e6e0bf2fcbb086d5,http://conv.mobpeas.com/notify/110113/?click_id=aazz100011cdv2010505150246482e8241e6e0bf2fcbb086d5,idfa_3421F1DF-3C46-4B9B-832E-5C2F65E2F6D8,ja
Tu9IXv95SrqfEM6pP3px0Q,mobpeas,237_237s__5322_2f3ffc1831d0,install,3.5,61.125.253.33,CFA0A0F1-5771-4BF1-93C9-75158DBE1E0B,1557887952,2019-05-15 10:39:12,1557969060,2019-05-16 09:11:00,1557969091,aazz100011cdv201050515023940cc8196f1b78259689d1b6e,http://conv.mobpeas.com/notify/110113/?click_id=aazz100011cdv201050515023940cc8196f1b78259689d1b6e,idfa_CFA0A0F1-5771-4BF1-93C9-75158DBE1E0B,ja
Tu9IXv95SrqfEM6pP3px0Q,mobpeas,237_237s__5322_8047d03b81fc,install,3.5,202.223.21.247,9BDA36E7-74E4-4B46-AFF5-D1B526BFC6DA,1557888390,2019-05-15 10:46:30,1557888522,2019-05-15 10:48:42,1557888552,aazz100011cdv201050515024640b1ac71886006647e54e316,http://conv.mobpeas.com/notify/110113/?click_id=aazz100011cdv201050515024640b1ac71886006647e54e316,idfa_9BDA36E7-74E4-4B46-AFF5-D1B526BFC6DA,ja
Tu9IXv95SrqfEM6pP3px0Q,mobpeas,237_237s__5322_1decb2397038,install,3.5,114.152.253.233,A1303C93-BE21-47A0-9CF0-787A7FCF3E29,1557888442,2019-05-15 10:47:22,1557888588,2019-05-15 10:49:48,1557888618,aazz100011cdv20105051502464f888ad249ed37f89a108ef4,http://conv.mobpeas.com/notify/110113/?click_id=aazz100011cdv20105051502464f888ad249ed37f89a108ef4,idfa_A1303C93-BE21-47A0-9CF0-787A7FCF3E29,ja
Tu9IXv95SrqfEM6pP3px0Q,mobpeas,237_237s__5322_39b9834d2536,install,3.5,218.222.192.102,9321041D-AB62-4463-B555-143C9EC7656D,1557888418,2019-05-15 10:46:58,1557888565,2019-05-15 10:49:25,1557888595,aazz100011cdv20105051502464769ba9ca6e718900d506b98,http://conv.mobpeas.com/notify/110113/?click_id=aazz100011cdv20105051502464769ba9ca6e718900d506b98,idfa_9321041D-AB62-4463-B555-143C9EC7656D,ja
Tu9IXv95SrqfEM6pP3px0Q,mobpeas,237_237s__5322_050f3c094e15,install,3.5,60.115.85.18,7A3BE06B-DB91-4FF9-BEED-A3DEE307BA52,1557887981,2019-05-15 10:39:41,1557888098,2019-05-15 10:41:38,1557888128,aazz100011cdv20105051502394c669a57d8664d9787966503,http://conv.mobpeas.com/notify/110113/?click_id=aazz100011cdv20105051502394c669a57d8664d9787966503,idfa_7A3BE06B-DB91-4FF9-BEED-A3DEE307BA52,ja
Tu9IXv95SrqfEM6pP3px0Q,mobpeas,237_237s__5322_d68bad240fc6,install,3.5,61.24.71.70,F87668DA-4E5A-4151-909D-3043080AD11A,1557887918,2019-05-15 10:38:38,1557969125,2019-05-16 09:12:05,1557969155,aazz100011cdv20105051502384aacb9d62224d92c403dde9b,http://conv.mobpeas.com/notify/110113/?click_id=aazz100011cdv20105051502384aacb9d62224d92c403dde9b,idfa_F87668DA-4E5A-4151-909D-3043080AD11A,ja
Tu9IXv95SrqfEM6pP3px0Q,mobpeas,237_237s__5322_9e87b2c8939e,install,3.5,122.222.110.95,E5024332-00D7-4296-8840-2C18455262E6,1557887963,2019-05-15 10:39:23,1557888103,2019-05-15 10:41:43,1557888134,aazz100011cdv20105051502394ccd973a709c97ade02db269,http://conv.mobpeas.com/notify/110113/?click_id=aazz100011cdv20105051502394ccd973a709c97ade02db269,idfa_E5024332-00D7-4296-8840-2C18455262E6,ja
Tu9IXv95SrqfEM6pP3px0Q,mobpeas,237_237s__5322_82de566ba670,install,3.5,118.21.103.39,43908A54-05E7-4012-BC3C-E88BA5E81AB9,1557887555,2019-05-15 10:32:35,1557887666,2019-05-15 10:34:26,1557887696,aazz100011cdv20105051502324781b4b7f0bfaf0d5b5e5afc,http://conv.mobpeas.com/notify/110113/?click_id=aazz100011cdv20105051502324781b4b7f0bfaf0d5b5e5afc,idfa_43908A54-05E7-4012-BC3C-E88BA5E81AB9,ja
Tu9IXv95SrqfEM6pP3px0Q,mobpeas,237_237s__5322_b12d7b6e5aa1,install,3.5,122.215.62.209,63993CD3-7066-423E-8616-F7CECF23624B,1557887590,2019-05-15 10:33:10,1557887727,2019-05-15 10:35:27,1557887757,aazz100011cdv201050515023247faa11ea5a543d9dc348b05,http://conv.mobpeas.com/notify/110113/?click_id=aazz100011cdv201050515023247faa11ea5a543d9dc348b05,idfa_63993CD3-7066-423E-8616-F7CECF23624B,ja
Tu9IXv95SrqfEM6pP3px0Q,mobpeas,237_237s__5322_b12d7b6e5aa1,install,3.5,60.239.219.172,FC546308-A9C8-4D67-9C05-5D91A352CFB2,1557887969,2019-05-15 10:39:29,1557888121,2019-05-15 10:42:01,1557888151,aazz100011cdv2010505150239469b85c4ea0cd8b57354445f,http://conv.mobpeas.com/notify/110113/?click_id=aazz100011cdv2010505150239469b85c4ea0cd8b57354445f,idfa_FC546308-A9C8-4D67-9C05-5D91A352CFB2,ja
Tu9IXv95SrqfEM6pP3px0Q,mobpeas,237_237s__5322_041d813cb0d8,install,3.5,121.103.113.118,51C2B91F-8ECD-47C7-8AE6-B5DB37842487,1557887979,2019-05-15 10:39:39,1557888128,2019-05-15 10:42:08,1557888158,aazz100011cdv201050515023942db9c2f2be7962c0ee13f04,http://conv.mobpeas.com/notify/110113/?click_id=aazz100011cdv201050515023942db9c2f2be7962c0ee13f04,idfa_51C2B91F-8ECD-47C7-8AE6-B5DB37842487,ja
Tu9IXv95SrqfEM6pP3px0Q,mobpeas,237_237s__5322_39b9834d2536,install,3.5,36.8.122.95,4D7DA1B6-C23D-40C8-92FF-07A31FC5D951,1557887975,2019-05-15 10:39:35,1557888123,2019-05-15 10:42:03,1557888154,aazz100011cdv2010505150239416095c4462f9acb1d0596df,http://conv.mobpeas.com/notify/110113/?click_id=aazz100011cdv2010505150239416095c4462f9acb1d0596df,idfa_4D7DA1B6-C23D-40C8-92FF-07A31FC5D951,ja
Tu9IXv95SrqfEM6pP3px0Q,mobpeas,237_237s__5322_050f3c094e15,install,3.5,113.156.121.119,E3B79C75-7A31-449B-81C9-2B15495B2561,1557887983,2019-05-15 10:39:43,1557888128,2019-05-15 10:42:08,1557888158,aazz100011cdv20105051502394d0f9297a8cce1ffa9685b75,http://conv.mobpeas.com/notify/110113/?click_id=aazz100011cdv20105051502394d0f9297a8cce1ffa9685b75,idfa_E3B79C75-7A31-449B-81C9-2B15495B2561,ja
Tu9IXv95SrqfEM6pP3px0Q,mobpeas,237_237s__5322_82de566ba670,install,3.5,112.68.120.102,E839625C-5DF0-4D79-994E-E857006B1B1C,1557888472,2019-05-15 10:47:52,1557920875,2019-05-15 19:47:55,1557920905,aazz100011cdv201050515024749a1868c7a0393d4673316a4,http://conv.mobpeas.com/notify/110113/?click_id=aazz100011cdv201050515024749a1868c7a0393d4673316a4,idfa_E839625C-5DF0-4D79-994E-E857006B1B1C,ja
Tu9IXv95SrqfEM6pP3px0Q,mobpeas,237_237s__5322_d68bad240fc6,install,3.5,14.13.145.32,14F4582B-C8A0-4378-81D0-8D3CBF35C66D,1557887470,2019-05-15 10:31:10,1557887607,2019-05-15 10:33:27,1557887637,aazz100011cdv20105051502304c5e9e52583e4dc8f4ffc7e1,http://conv.mobpeas.com/notify/110113/?click_id=aazz100011cdv20105051502304c5e9e52583e4dc8f4ffc7e1,idfa_14F4582B-C8A0-4378-81D0-8D3CBF35C66D,ja
Tu9IXv95SrqfEM6pP3px0Q,mobpeas,237_237s__5322_8047d03b81fc,install,3.5,118.152.156.233,B5F09E9C-DA20-4814-B535-F4F9552F63A3,1557887982,2019-05-15 10:39:42,1557888091,2019-05-15 10:41:31,1557888121,aazz100011cdv201050515023943a69da90b498297ed35d2f8,http://conv.mobpeas.com/notify/110113/?click_id=aazz100011cdv201050515023943a69da90b498297ed35d2f8,idfa_B5F09E9C-DA20-4814-B535-F4F9552F63A3,ja
Tu9IXv95SrqfEM6pP3px0Q,mobpeas,237_237s__5322_16248623f28b,install,3.5,126.60.125.251,388B93EE-761D-4F9E-9C6C-EED9722A967E,1557887576,2019-05-15 10:32:56,1557888537,2019-05-15 10:48:57,1557888568,aazz100011cdv2010505150232400cb27745072f491988c6f0,http://conv.mobpeas.com/notify/110113/?click_id=aazz100011cdv2010505150232400cb27745072f491988c6f0,idfa_388B93EE-761D-4F9E-9C6C-EED9722A967E,ja
Tu9IXv95SrqfEM6pP3px0Q,mobpeas,237_237s__5322_82de566ba670,install,3.5,60.132.95.34,946662EA-D445-456C-89E9-C892EEA2A091,1557887840,2019-05-15 10:37:20,1557887950,2019-05-15 10:39:10,1557887981,aazz100011cdv201050515023749aa969285f774160eab0d57,http://conv.mobpeas.com/notify/110113/?click_id=aazz100011cdv201050515023749aa969285f774160eab0d57,idfa_946662EA-D445-456C-89E9-C892EEA2A091,ja
Tu9IXv95SrqfEM6pP3px0Q,mobpeas,237_237s__5322_9e87b2c8939e,install,3.5,60.47.226.141,911F1D2C-D3E4-4AA2-9B08-D828CE744082,1557888420,2019-05-15 10:47:00,1557888557,2019-05-15 10:49:17,1557888588,aazz100011cdv2010505150246418e8cffbad9524890ef4da5,http://conv.mobpeas.com/notify/110113/?click_id=aazz100011cdv2010505150246418e8cffbad9524890ef4da5,idfa_911F1D2C-D3E4-4AA2-9B08-D828CE744082,ja
Tu9IXv95SrqfEM6pP3px0Q,mobpeas,237_237s__5322_9e87b2c8939e,install,3.5,221.186.91.251,512F2E42-E561-4A4E-A6D5-9F56507E03A5,1557888393,2019-05-15 10:46:33,1557888535,2019-05-15 10:48:55,1557888565,aazz100011cdv20105051502464e728dc91af404ea9fc6bf5e,http://conv.mobpeas.com/notify/110113/?click_id=aazz100011cdv20105051502464e728dc91af404ea9fc6bf5e,idfa_512F2E42-E561-4A4E-A6D5-9F56507E03A5,ja
Tu9IXv95SrqfEM6pP3px0Q,mobpeas,237_237s__5322_2f3ffc1831d0,install,3.5,118.2.204.146,690B9559-0878-4530-963F-4418C1A39228,1557888390,2019-05-15 10:46:30,1557888528,2019-05-15 10:48:48,1557888558,aazz100011cdv20105051502464d43bde4823880b07ca967c9,http://conv.mobpeas.com/notify/110113/?click_id=aazz100011cdv20105051502464d43bde4823880b07ca967c9,idfa_690B9559-0878-4530-963F-4418C1A39228,ja
Tu9IXv95SrqfEM6pP3px0Q,mobpeas,237_237s__5322_82de566ba670,install,3.5,153.142.39.25,434B5672-DB48-4471-8EE7-7D793FF43A78,1557888050,2019-05-15 10:40:50,1557888188,2019-05-15 10:43:08,1557888218,aazz100011cdv2010505150240446986c077c8925a55269456,http://conv.mobpeas.com/notify/110113/?click_id=aazz100011cdv2010505150240446986c077c8925a55269456,idfa_434B5672-DB48-4471-8EE7-7D793FF43A78,ja
Tu9IXv95SrqfEM6pP3px0Q,mobpeas,237_237s__5322_8047d03b81fc,install,3.5,14.9.87.0,2D655123-6E80-4BF7-91D6-00EB6A712A92,1557887994,2019-05-15 10:39:54,1557936363,2019-05-16 00:06:03,1557936393,aazz100011cdv20105051502394702959bf623436f4cecb851,http://conv.mobpeas.com/notify/110113/?click_id=aazz100011cdv20105051502394702959bf623436f4cecb851,idfa_2D655123-6E80-4BF7-91D6-00EB6A712A92,ja
Tu9IXv95SrqfEM6pP3px0Q,mobpeas,237_237s__5322_d613d574d0cb,install,3.5,222.10.206.94,FDE4B969-3C57-49A7-80C9-215B515955A2,1557885978,2019-05-15 10:06:18,1557899352,2019-05-15 13:49:12,1557899382,aazz100011cdv20105051502064d80985ff3732213438b0330,http://conv.mobpeas.com/notify/110113/?click_id=aazz100011cdv20105051502064d80985ff3732213438b0330,idfa_FDE4B969-3C57-49A7-80C9-215B515955A2,ja
Tu9IXv95SrqfEM6pP3px0Q,mobpeas,237_237s__5322_39b9834d2536,install,3.5,126.113.39.110,FC6F4E9B-40F3-42F2-9B35-5AECBABCADAE,1557888409,2019-05-15 10:46:49,1557888534,2019-05-15 10:48:54,1557888564,aazz100011cdv20105051502464ba298bc9d082a1446bc10e0,http://conv.mobpeas.com/notify/110113/?click_id=aazz100011cdv20105051502464ba298bc9d082a1446bc10e0,idfa_FC6F4E9B-40F3-42F2-9B35-5AECBABCADAE,ja
Tu9IXv95SrqfEM6pP3px0Q,mobpeas,237_237s__5322_82de566ba670,install,3.5,61.206.69.221,53EBF49D-A397-4471-B4AB-0354FB6EDC98,1557888117,2019-05-15 10:41:57,1557890861,2019-05-15 11:27:41,1557909343,aazz100011cdv201050515024143c7b5e52d7fa282571d31e8,http://conv.mobpeas.com/notify/110113/?click_id=aazz100011cdv201050515024143c7b5e52d7fa282571d31e8,idfa_53EBF49D-A397-4471-B4AB-0354FB6EDC98,ja
Tu9IXv95SrqfEM6pP3px0Q,mobpeas,237_237s__5322_16248623f28b,install,3.5,60.121.152.87,E1DE3B01-5BD2-4F0E-BF2E-AD496220AE40,1557887046,2019-05-15 10:24:06,1557887193,2019-05-15 10:26:33,1557887223,aazz100011cdv201050515022349d49fda29f7ae67d108cfe3,http://conv.mobpeas.com/notify/110113/?click_id=aazz100011cdv201050515022349d49fda29f7ae67d108cfe3,idfa_E1DE3B01-5BD2-4F0E-BF2E-AD496220AE40,ja
Tu9IXv95SrqfEM6pP3px0Q,mobpeas,237_237s__5322_1decb2397038,install,3.5,221.26.251.18,C90599F7-E1DD-4F47-B7E7-57DD0A5F2D59,1557888389,2019-05-15 10:46:29,1557888535,2019-05-15 10:48:55,1557888565,aazz100011cdv201050515024645a7b6b881c29a92e30a8b74,http://conv.mobpeas.com/notify/110113/?click_id=aazz100011cdv201050515024645a7b6b881c29a92e30a8b74,idfa_C90599F7-E1DD-4F47-B7E7-57DD0A5F2D59,ja
Tu9IXv95SrqfEM6pP3px0Q,mobpeas,237_237s__5322_8901fa10f392,install,3.5,111.239.42.253,49A6275E-4CFE-4DAE-B480-7360D9B8CDD7,1557887394,2019-05-15 10:29:54,1557887522,2019-05-15 10:32:02,1557887552,aazz100011cdv20105051502294892b8445bad1f6ece78e6e4,http://conv.mobpeas.com/notify/110113/?click_id=aazz100011cdv20105051502294892b8445bad1f6ece78e6e4,idfa_49A6275E-4CFE-4DAE-B480-7360D9B8CDD7,ja
Tu9IXv95SrqfEM6pP3px0Q,mobpeas,237_237s__5322_d68bad240fc6,install,3.5,180.43.108.116,BB6B0EC4-2064-429E-B3AA-425D194B65A7,1557887971,2019-05-15 10:39:31,1557888084,2019-05-15 10:41:24,1557888114,aazz100011cdv201050515023945628623ad3d1ef8419ffdff,http://conv.mobpeas.com/notify/110113/?click_id=aazz100011cdv201050515023945628623ad3d1ef8419ffdff,idfa_BB6B0EC4-2064-429E-B3AA-425D194B65A7,ja
Tu9IXv95SrqfEM6pP3px0Q,mobpeas,237_237s__5322_39b9834d2536,install,3.5,180.47.62.117,3E563098-B14B-4818-A74C-E3874BA870AB,1557887500,2019-05-15 10:31:40,1557887645,2019-05-15 10:34:05,1557887675,aazz100011cdv2010505150231473facb8ff6b9ecdbb014839,http://conv.mobpeas.com/notify/110113/?click_id=aazz100011cdv2010505150231473facb8ff6b9ecdbb014839,idfa_3E563098-B14B-4818-A74C-E3874BA870AB,ja
Tu9IXv95SrqfEM6pP3px0Q,mobpeas,237_237s__5322_82de566ba670,install,3.5,175.177.40.45,A3863A59-56B2-4D20-9B13-531CB9D0B0EB,1557888440,2019-05-15 10:47:20,1557888592,2019-05-15 10:49:52,1557888622,aazz100011cdv20105051502474e28acd15e9a20a4ed5ed209,http://conv.mobpeas.com/notify/110113/?click_id=aazz100011cdv20105051502474e28acd15e9a20a4ed5ed209,idfa_A3863A59-56B2-4D20-9B13-531CB9D0B0EB,ja
Tu9IXv95SrqfEM6pP3px0Q,mobpeas,237_237s__5322_d68bad240fc6,install,3.5,153.183.1.25,40E4DEE9-3D59-4AB3-AECC-C127F0BF9414,1557887973,2019-05-15 10:39:33,1557888124,2019-05-15 10:42:04,1557888154,aazz100011cdv20105051502394efc8f6407d02c770bd82976,http://conv.mobpeas.com/notify/110113/?click_id=aazz100011cdv20105051502394efc8f6407d02c770bd82976,idfa_40E4DEE9-3D59-4AB3-AECC-C127F0BF9414,ja
Tu9IXv95SrqfEM6pP3px0Q,mobpeas,237_237s__5322_9e87b2c8939e,install,3.5,124.213.104.237,0D2E6475-DB3A-4282-82B8-74263AF0D033,1557887964,2019-05-15 10:39:24,1557888104,2019-05-15 10:41:44,1557888134,aazz100011cdv20105051502394f7e85013c6f4549803899e9,http://conv.mobpeas.com/notify/110113/?click_id=aazz100011cdv20105051502394f7e85013c6f4549803899e9,idfa_0D2E6475-DB3A-4282-82B8-74263AF0D033,ja
Tu9IXv95SrqfEM6pP3px0Q,mobpeas,237_237s__5322_8047d03b81fc,install,3.5,180.18.246.161,8FDD2BE3-8752-4908-9BD2-502FB97E4FD1,1557887970,2019-05-15 10:39:30,1557888131,2019-05-15 10:42:11,1557888161,aazz100011cdv201050515023946fda8510f8ee1c459c59ba4,http://conv.mobpeas.com/notify/110113/?click_id=aazz100011cdv201050515023946fda8510f8ee1c459c59ba4,idfa_8FDD2BE3-8752-4908-9BD2-502FB97E4FD1,ja
Tu9IXv95SrqfEM6pP3px0Q,mobpeas,237_237s__5322_2f3ffc1831d0,install,3.5,211.15.206.129,DC097AB6-74D5-4E42-B783-2A4574E17417,1557887960,2019-05-15 10:39:20,1557888132,2019-05-15 10:42:12,1557888162,aazz100011cdv201050515023947d2a491aad7a345f6b3f9e5,http://conv.mobpeas.com/notify/110113/?click_id=aazz100011cdv201050515023947d2a491aad7a345f6b3f9e5,idfa_DC097AB6-74D5-4E42-B783-2A4574E17417,ja
Tu9IXv95SrqfEM6pP3px0Q,mobpeas,237_237s__5322_2f3ffc1831d0,install,3.5,118.7.147.101,69551EF1-6434-4442-BC59-6EF0219BB158,1557887459,2019-05-15 10:30:59,1557887567,2019-05-15 10:32:47,1557887597,aazz100011cdv2010505150230468a90072264013cc48c95dd,http://conv.mobpeas.com/notify/110113/?click_id=aazz100011cdv2010505150230468a90072264013cc48c95dd,idfa_69551EF1-6434-4442-BC59-6EF0219BB158,ja
Tu9IXv95SrqfEM6pP3px0Q,mobpeas,237_237s__5322_39b9834d2536,install,3.5,126.110.88.66,D0A7A717-8748-428D-B3F1-3FDC6D171F20,1557887979,2019-05-15 10:39:39,1557888127,2019-05-15 10:42:07,1557888157,aazz100011cdv201050515023944789314166a69bc9e4d7ab5,http://conv.mobpeas.com/notify/110113/?click_id=aazz100011cdv201050515023944789314166a69bc9e4d7ab5,idfa_D0A7A717-8748-428D-B3F1-3FDC6D171F20,ja
Tu9IXv95SrqfEM6pP3px0Q,mobpeas,237_237s__5322_041d813cb0d8,install,3.5,153.228.242.56,CF628DAE-F4E1-4E8E-BEA2-F4269A67DDD9,1557887963,2019-05-15 10:39:23,1557888140,2019-05-15 10:42:20,1557888170,aazz100011cdv2010505150239411b87836ca41d48604f1e2a,http://conv.mobpeas.com/notify/110113/?click_id=aazz100011cdv2010505150239411b87836ca41d48604f1e2a,idfa_CF628DAE-F4E1-4E8E-BEA2-F4269A67DDD9,ja
Tu9IXv95SrqfEM6pP3px0Q,mobpeas,237_237s__5322_39b9834d2536,install,3.5,221.191.161.47,918F9791-0549-4189-867C-8AF99B308EBF,1557887399,2019-05-15 10:29:59,1557887502,2019-05-15 10:31:42,1557887532,aazz100011cdv201050515022940d6a5d719d96a6d2618727d,http://conv.mobpeas.com/notify/110113/?click_id=aazz100011cdv201050515022940d6a5d719d96a6d2618727d,idfa_918F9791-0549-4189-867C-8AF99B308EBF,ja
Tu9IXv95SrqfEM6pP3px0Q,mobpeas,237_237s__5322_041d813cb0d8,install,3.5,153.194.134.216,2C26AB1C-58AE-4033-8976-3E608F276042,1557888409,2019-05-15 10:46:49,1557888541,2019-05-15 10:49:01,1557888571,aazz100011cdv20105051502464e61990448e9671f44f375cf,http://conv.mobpeas.com/notify/110113/?click_id=aazz100011cdv20105051502464e61990448e9671f44f375cf,idfa_2C26AB1C-58AE-4033-8976-3E608F276042,ja
Tu9IXv95SrqfEM6pP3px0Q,mobpeas,237_237s__5322_82de566ba670,install,3.5,61.213.184.175,E7280EBB-BC08-400E-B590-755735B5ED44,1557888443,2019-05-15 10:47:23,1557974824,2019-05-16 10:47:04,1557974854,aazz100011cdv20105051502474715bf8b321662f1311ed072,http://conv.mobpeas.com/notify/110113/?click_id=aazz100011cdv20105051502474715bf8b321662f1311ed072,idfa_E7280EBB-BC08-400E-B590-755735B5ED44,ja
Tu9IXv95SrqfEM6pP3px0Q,mobpeas,237_237s__5322_2f3ffc1831d0,install,3.5,126.153.81.36,0FFD2E37-83FD-41BD-9CA0-E6BFD7B4FAFB,1557888394,2019-05-15 10:46:34,1557888535,2019-05-15 10:48:55,1557888565,aazz100011cdv2010505150246429699376700b07a8d17f367,http://conv.mobpeas.com/notify/110113/?click_id=aazz100011cdv2010505150246429699376700b07a8d17f367,idfa_0FFD2E37-83FD-41BD-9CA0-E6BFD7B4FAFB,ja
Tu9IXv95SrqfEM6pP3px0Q,mobpeas,237_237s__5322_1decb2397038,install,3.5,183.77.249.226,F420DD5B-29F5-441A-A224-22914378C6A2,1557888419,2019-05-15 10:46:59,1557888565,2019-05-15 10:49:25,1557888596,aazz100011cdv2010505150246462894b6f907747be2dc9ac3,http://conv.mobpeas.com/notify/110113/?click_id=aazz100011cdv2010505150246462894b6f907747be2dc9ac3,idfa_F420DD5B-29F5-441A-A224-22914378C6A2,ja
Tu9IXv95SrqfEM6pP3px0Q,mobpeas,237_237s__5322_39b9834d2536,install,3.5,101.1.254.46,5B77DE78-507C-4513-A26F-D62F4C80DDF6,1557888463,2019-05-15 10:47:43,1557888585,2019-05-15 10:49:45,1557888615,aazz100011cdv201050515024746dcbcd04281602e97c8abdf,http://conv.mobpeas.com/notify/110113/?click_id=aazz100011cdv201050515024746dcbcd04281602e97c8abdf,idfa_5B77DE78-507C-4513-A26F-D62F4C80DDF6,ja
Tu9IXv95SrqfEM6pP3px0Q,mobpeas,237_237s__5322_1decb2397038,install,3.5,39.111.45.62,8C882749-DBEC-4B50-8364-83D03FE5D68C,1557888407,2019-05-15 10:46:47,1557888549,2019-05-15 10:49:09,1557888579,aazz100011cdv201050515024648dbb91c910ea5251740c3ed,http://conv.mobpeas.com/notify/110113/?click_id=aazz100011cdv201050515024648dbb91c910ea5251740c3ed,idfa_8C882749-DBEC-4B50-8364-83D03FE5D68C,ja
Tu9IXv95SrqfEM6pP3px0Q,mobpeas,237_237s__5322_d68bad240fc6,install,3.5,59.129.198.196,A15168DB-DB30-4B32-8D0C-3E8B9D26935D,1557888631,2019-05-15 10:50:31,1557888768,2019-05-15 10:52:48,1557888798,aazz100011cdv20105051502504b82a96ebe9aac7301c10e31,http://conv.mobpeas.com/notify/110113/?click_id=aazz100011cdv20105051502504b82a96ebe9aac7301c10e31,idfa_A15168DB-DB30-4B32-8D0C-3E8B9D26935D,ja
Tu9IXv95SrqfEM6pP3px0Q,mobpeas,237_237s__5322_82de566ba670,install,3.5,220.108.155.248,BA3926B8-C4D2-4765-B10E-12F15E6C6FDE,1557887983,2019-05-15 10:39:43,1557888131,2019-05-15 10:42:11,1557888161,aazz100011cdv20105051502394f9bad687e794f9e34476e6c,http://conv.mobpeas.com/notify/110113/?click_id=aazz100011cdv20105051502394f9bad687e794f9e34476e6c,idfa_BA3926B8-C4D2-4765-B10E-12F15E6C6FDE,ja
Tu9IXv95SrqfEM6pP3px0Q,mobpeas,237_237s__5322_8047d03b81fc,install,3.5,122.103.233.246,65EEB90D-E567-4BD9-97FE-0C1924EAD9AB,1557887486,2019-05-15 10:31:26,1557887645,2019-05-15 10:34:05,1557887675,aazz100011cdv20105051502314d74950e7496490fa2dab757,http://conv.mobpeas.com/notify/110113/?click_id=aazz100011cdv20105051502314d74950e7496490fa2dab757,idfa_65EEB90D-E567-4BD9-97FE-0C1924EAD9AB,ja
Tu9IXv95SrqfEM6pP3px0Q,mobpeas,237_237s__5322_39b9834d2536,install,3.5,124.144.212.237,3AD643FE-A5F8-4CDE-A349-93A6C06EC149,1557888319,2019-05-15 10:45:19,1557889384,2019-05-15 11:03:04,1557889414,aazz100011cdv20105051502454da99194eec606bbb08d563e,http://conv.mobpeas.com/notify/110113/?click_id=aazz100011cdv20105051502454da99194eec606bbb08d563e,idfa_3AD643FE-A5F8-4CDE-A349-93A6C06EC149,ja
Tu9IXv95SrqfEM6pP3px0Q,mobpeas,237_237s__5322_9e87b2c8939e,install,3.5,126.224.167.107,4098000D-A95D-4FBF-893E-DB266E95F56F,1557887989,2019-05-15 10:39:49,1557888113,2019-05-15 10:41:53,1557888143,aazz100011cdv20105051502394e49a2ce6d37f3343750f5b8,http://conv.mobpeas.com/notify/110113/?click_id=aazz100011cdv20105051502394e49a2ce6d37f3343750f5b8,idfa_4098000D-A95D-4FBF-893E-DB266E95F56F,ja
Tu9IXv95SrqfEM6pP3px0Q,mobpeas,237_237s__5322_39b9834d2536,install,3.5,153.254.156.175,67C61F54-C1DF-443D-8F9F-5644962EED35,1557888090,2019-05-15 10:41:30,1557966929,2019-05-16 08:35:29,1557966959,aazz100011cdv201050515024142a28fc687a8ba87329e76cb,http://conv.mobpeas.com/notify/110113/?click_id=aazz100011cdv201050515024142a28fc687a8ba87329e76cb,idfa_67C61F54-C1DF-443D-8F9F-5644962EED35,ja
Tu9IXv95SrqfEM6pP3px0Q,mobpeas,237_237s__5322_041d813cb0d8,install,3.5,61.198.88.166,1551354D-8CE1-4685-A2C5-F271569989C8,1557887985,2019-05-15 10:39:45,1557888111,2019-05-15 10:41:51,1557888141,aazz100011cdv2010505150239476e844c1c6781a95b060779,http://conv.mobpeas.com/notify/110113/?click_id=aazz100011cdv2010505150239476e844c1c6781a95b060779,idfa_1551354D-8CE1-4685-A2C5-F271569989C8,ja
Tu9IXv95SrqfEM6pP3px0Q,mobpeas,237_237s__5322_b12d7b6e5aa1,install,3.5,42.147.250.190,6632FF66-C703-48EE-BC1E-D05D6E821E0C,1557888385,2019-05-15 10:46:25,1557930275,2019-05-15 22:24:35,1557930305,aazz100011cdv201050515024546b3b39145ccf82be68cd689,http://conv.mobpeas.com/notify/110113/?click_id=aazz100011cdv201050515024546b3b39145ccf82be68cd689,idfa_6632FF66-C703-48EE-BC1E-D05D6E821E0C,vi
Tu9IXv95SrqfEM6pP3px0Q,mobpeas,237_237s__5322_39b9834d2536,install,3.5,222.12.2.68,6F1113AA-8353-44BB-96D4-C2C9AF51A5F5,1557887982,2019-05-15 10:39:42,1557888116,2019-05-15 10:41:56,1557888146,aazz100011cdv201050515023942cbbadb40057aed061afd78,http://conv.mobpeas.com/notify/110113/?click_id=aazz100011cdv201050515023942cbbadb40057aed061afd78,idfa_6F1113AA-8353-44BB-96D4-C2C9AF51A5F5,ja
Tu9IXv95SrqfEM6pP3px0Q,mobpeas,237_237s__5322_9e87b2c8939e,install,3.5,101.110.42.158,710DE525-776E-412A-B283-E79DB045C220,1557887974,2019-05-15 10:39:34,1557888121,2019-05-15 10:42:01,1557888151,aazz100011cdv201050515023944acb48c80c6f1809b6ce8b0,http://conv.mobpeas.com/notify/110113/?click_id=aazz100011cdv201050515023944acb48c80c6f1809b6ce8b0,idfa_710DE525-776E-412A-B283-E79DB045C220,ja
Tu9IXv95SrqfEM6pP3px0Q,mobpeas,237_237s__5322_050f3c094e15,install,3.5,180.198.71.238,BB4B0DA5-AE52-4FD3-A0ED-F56170BACAA9,1557887964,2019-05-15 10:39:24,1557888096,2019-05-15 10:41:36,1557888126,aazz100011cdv20105051502394056bb0d25f3342085b9e0a1,http://conv.mobpeas.com/notify/110113/?click_id=aazz100011cdv20105051502394056bb0d25f3342085b9e0a1,idfa_BB4B0DA5-AE52-4FD3-A0ED-F56170BACAA9,ja
Tu9IXv95SrqfEM6pP3px0Q,mobpeas,237_237s__5322_8047d03b81fc,install,3.5,222.14.255.198,3DB7C6B3-4AB4-4F27-8127-CA5A87194B2E,1557887982,2019-05-15 10:39:42,1557888115,2019-05-15 10:41:55,1557888145,aazz100011cdv2010505150239460f8593bccfe0b5b433c523,http://conv.mobpeas.com/notify/110113/?click_id=aazz100011cdv2010505150239460f8593bccfe0b5b433c523,idfa_3DB7C6B3-4AB4-4F27-8127-CA5A87194B2E,ja
Tu9IXv95SrqfEM6pP3px0Q,mobpeas,237_237s__5322_9e87b2c8939e,install,3.5,58.70.165.67,55D0AF75-6C69-4D35-9AF9-4741E9B9AC44,1557887988,2019-05-15 10:39:48,1557888124,2019-05-15 10:42:04,1557888154,aazz100011cdv201050515023947b0820220269516a5ba5954,http://conv.mobpeas.com/notify/110113/?click_id=aazz100011cdv201050515023947b0820220269516a5ba5954,idfa_55D0AF75-6C69-4D35-9AF9-4741E9B9AC44,ja
Tu9IXv95SrqfEM6pP3px0Q,mobpeas,237_237s__5322_1decb2397038,install,3.5,111.168.110.152,014CED79-17C8-462F-9F9C-0953DF5D941D,1557888417,2019-05-15 10:46:57,1557888572,2019-05-15 10:49:32,1557888603,aazz100011cdv2010505150246419e802da02d1335495ffd99,http://conv.mobpeas.com/notify/110113/?click_id=aazz100011cdv2010505150246419e802da02d1335495ffd99,idfa_014CED79-17C8-462F-9F9C-0953DF5D941D,ja
Tu9IXv95SrqfEM6pP3px0Q,mobpeas,237_237s__5322_16248623f28b,install,3.5,126.15.148.66,ACB53B1D-ED25-4315-8AD7-2D10CC451834,1557887452,2019-05-15 10:30:52,1557973560,2019-05-16 10:26:00,1557973590,aazz100011cdv20105051502304674bed1a9d1f442daa1c951,http://conv.mobpeas.com/notify/110113/?click_id=aazz100011cdv20105051502304674bed1a9d1f442daa1c951,idfa_ACB53B1D-ED25-4315-8AD7-2D10CC451834,ja
Tu9IXv95SrqfEM6pP3px0Q,mobpeas,237_237s__5322_8901fa10f392,install,3.5,183.76.16.44,6DFBE334-6363-4781-A0DA-1FEC4EB925E9,1557887975,2019-05-15 10:39:35,1557888126,2019-05-15 10:42:06,1557888156,aazz100011cdv201050515023940d49ca526520103aaaf89fb,http://conv.mobpeas.com/notify/110113/?click_id=aazz100011cdv201050515023940d49ca526520103aaaf89fb,idfa_6DFBE334-6363-4781-A0DA-1FEC4EB925E9,ja
Tu9IXv95SrqfEM6pP3px0Q,mobpeas,237_237s__5322_8047d03b81fc,install,3.5,133.137.214.157,B61DCAAC-B805-4F24-9995-E26957DF2454,1557888397,2019-05-15 10:46:37,1557888537,2019-05-15 10:48:57,1557888567,aazz100011cdv20105051502464119b6715bfce6d1569d9a74,http://conv.mobpeas.com/notify/110113/?click_id=aazz100011cdv20105051502464119b6715bfce6d1569d9a74,idfa_B61DCAAC-B805-4F24-9995-E26957DF2454,ja
Tu9IXv95SrqfEM6pP3px0Q,mobpeas,237_237s__5322_8901fa10f392,install,3.5,122.103.163.61,F57F886F-955D-4BD7-916B-796A3A28D9F4,1557888418,2019-05-15 10:46:58,1557888561,2019-05-15 10:49:21,1557888592,aazz100011cdv201050515024649eab3c8373c5fd46cd1f56f,http://conv.mobpeas.com/notify/110113/?click_id=aazz100011cdv201050515024649eab3c8373c5fd46cd1f56f,idfa_F57F886F-955D-4BD7-916B-796A3A28D9F4,ja
Tu9IXv95SrqfEM6pP3px0Q,mobpeas,237_237s__5322_2f3ffc1831d0,install,3.5,180.63.106.13,CE086A82-4BE3-4573-B1BC-AFCD1B083F46,1557888388,2019-05-15 10:46:28,1557888543,2019-05-15 10:49:03,1557888573,aazz100011cdv20105051502464b36a556ea72d4098b08b206,http://conv.mobpeas.com/notify/110113/?click_id=aazz100011cdv20105051502464b36a556ea72d4098b08b206,idfa_CE086A82-4BE3-4573-B1BC-AFCD1B083F46,ja
Tu9IXv95SrqfEM6pP3px0Q,mobpeas,237_237s__5322_39b9834d2536,install,3.5,106.154.96.182,4A9B6437-B232-4514-876E-85FDFFDC2760,1557887537,2019-05-15 10:32:17,1557887684,2019-05-15 10:34:44,1557887714,aazz100011cdv201050515023140728c6cea9e3b31aad614e4,http://conv.mobpeas.com/notify/110113/?click_id=aazz100011cdv201050515023140728c6cea9e3b31aad614e4,idfa_4A9B6437-B232-4514-876E-85FDFFDC2760,ja
Tu9IXv95SrqfEM6pP3px0Q,mobpeas,237_237s__5322_9e87b2c8939e,install,3.5,114.171.33.227,2159206D-B712-4AD3-BDE3-A8A5F03237E3,1557888409,2019-05-15 10:46:49,1557888554,2019-05-15 10:49:14,1557888584,aazz100011cdv20105051502464944bf1081fe9b012b7116a5,http://conv.mobpeas.com/notify/110113/?click_id=aazz100011cdv20105051502464944bf1081fe9b012b7116a5,idfa_2159206D-B712-4AD3-BDE3-A8A5F03237E3,ja
