cid,partner_id,channel_id,action_id,cpi,ip,idfa,click time,click datetime,install time,install datetime,postback time,click id,postback url,unique user id
C2j9DDxfROWqiZlfHFZQPg,mobpeas,114_114s__44s__10160_238,Install,0.15,,0eb1c9e6-ee74-44d1-a041-94787f735d32,1558480777,2019-05-22 07:19:37,1558480887,2019-05-22 07:21:27,1558480918,aazz100011cdv20107052123194c3f9d17725d734f533fc35c,http://conv.mobpeas.com/notify/110113/?click_id=aazz100011cdv20107052123194c3f9d17725d734f533fc35c,idfa_0eb1c9e6-ee74-44d1-a041-94787f735d32,%E1%80%97%E1%80%99%E1%80%AC
C2j9DDxfROWqiZlfHFZQPg,mobpeas,114_114s__44s__10160_238,Install,0.15,,8d8fa2ad-5da5-4c6f-bd7a-93c2bb153a66,1558478805,2019-05-22 06:46:45,1558478966,2019-05-22 06:49:26,1558478997,aazz100011cdv201060521224646d4a02a32b1a0d25f4f3e50,http://conv.mobpeas.com/notify/110113/?click_id=aazz100011cdv201060521224646d4a02a32b1a0d25f4f3e50,idfa_8d8fa2ad-5da5-4c6f-bd7a-93c2bb153a66,%E1%80%97%E1%80%99%E1%80%AC
C2j9DDxfROWqiZlfHFZQPg,mobpeas,114_114s__44s__10160_238,Install,0.15,,80a03831-e87e-401b-a484-d458f5057343,1558479655,2019-05-22 07:00:55,1558479762,2019-05-22 07:02:42,1558479793,aazz100011cdv20106052123004a8394452b6c39463fcb1163,http://conv.mobpeas.com/notify/110113/?click_id=aazz100011cdv20106052123004a8394452b6c39463fcb1163,idfa_80a03831-e87e-401b-a484-d458f5057343,%E1%80%97%E1%80%99%E1%80%AC
C2j9DDxfROWqiZlfHFZQPg,mobpeas,114_114s__44s__10160_238,Install,0.15,,16a80caa-3faf-4718-a269-76ccf6220923,1558476132,2019-05-22 06:02:12,1558476235,2019-05-22 06:03:55,1558476267,aazz100011cdv20106052122014789a8daf2bef3006fe3ac06,http://conv.mobpeas.com/notify/110113/?click_id=aazz100011cdv20106052122014789a8daf2bef3006fe3ac06,idfa_16a80caa-3faf-4718-a269-76ccf6220923,%E1%80%97%E1%80%99%E1%80%AC
C2j9DDxfROWqiZlfHFZQPg,mobpeas,114_114s__44s__10160_238,Install,0.15,,308ea993-169d-418b-b56d-6dcf18c1d91d,1558480589,2019-05-22 07:16:29,1558480687,2019-05-22 07:18:07,1558480718,aazz100011cdv2010705212316446abcc8bc08e3f443db2086,http://conv.mobpeas.com/notify/110113/?click_id=aazz100011cdv2010705212316446abcc8bc08e3f443db2086,idfa_308ea993-169d-418b-b56d-6dcf18c1d91d,%E1%80%97%E1%80%99%E1%80%AC
C2j9DDxfROWqiZlfHFZQPg,mobpeas,114_114s__44s__10160_238,Install,0.15,,1b75af3e-6376-4753-a6b3-7172f25360dd,1558385382,2019-05-21 04:49:42,1558385468,2019-05-21 04:51:08,1558385499,aazz100011cdv201060520204946e08706dc41fa5518e720ca,http://conv.mobpeas.com/notify/110113/?click_id=aazz100011cdv201060520204946e08706dc41fa5518e720ca,idfa_1b75af3e-6376-4753-a6b3-7172f25360dd,%E1%80%97%E1%80%99%E1%80%AC
C2j9DDxfROWqiZlfHFZQPg,mobpeas,114_114s__44s__10160_238,Install,0.15,,1c6ce0c2-e423-4671-8c83-f63551fda718,1558474504,2019-05-22 05:35:04,1558474619,2019-05-22 05:36:59,1558474649,aazz100011cdv20106052121344fa8a365cb6390c9aa86e675,http://conv.mobpeas.com/notify/110113/?click_id=aazz100011cdv20106052121344fa8a365cb6390c9aa86e675,idfa_1c6ce0c2-e423-4671-8c83-f63551fda718,%E1%80%97%E1%80%99%E1%80%AC
C2j9DDxfROWqiZlfHFZQPg,mobpeas,114_114s__44s__10160_238,Install,0.15,,c7d3fce5-dc21-4ac2-b0ad-e7d09a3acd28,1558476111,2019-05-22 06:01:51,1558476209,2019-05-22 06:03:29,1558476239,aazz100011cdv20106052122014d7f8c3a821d5d2be2851df0,http://conv.mobpeas.com/notify/110113/?click_id=aazz100011cdv20106052122014d7f8c3a821d5d2be2851df0,idfa_c7d3fce5-dc21-4ac2-b0ad-e7d09a3acd28,%E1%80%97%E1%80%99%E1%80%AC
C2j9DDxfROWqiZlfHFZQPg,mobpeas,114_114s__44s__10160_238,Install,0.15,,c76d4e1e-e9e0-41e3-841b-79646a827203,1558392139,2019-05-21 06:42:19,1558392240,2019-05-21 06:44:00,1558392271,aazz100011cdv20106052022424d428713751cef2dd430d331,http://conv.mobpeas.com/notify/110113/?click_id=aazz100011cdv20106052022424d428713751cef2dd430d331,idfa_c76d4e1e-e9e0-41e3-841b-79646a827203,%E1%80%97%E1%80%99%E1%80%AC
C2j9DDxfROWqiZlfHFZQPg,mobpeas,114_114s__44s__10160_238,Install,0.15,,5ba2db19-48e5-4488-a76a-0a681a0bb766,1558469164,2019-05-22 04:06:04,1558469314,2019-05-22 04:08:34,1558469345,aazz100011cdv201060521200544ed939fa08b0763831bd09a,http://conv.mobpeas.com/notify/110113/?click_id=aazz100011cdv201060521200544ed939fa08b0763831bd09a,idfa_5ba2db19-48e5-4488-a76a-0a681a0bb766,%E1%80%97%E1%80%99%E1%80%AC
C2j9DDxfROWqiZlfHFZQPg,mobpeas,114_114s__44s__10160_238,Install,0.15,,7ee24dba-dee9-41ba-8c86-739225de5bc8,1558479398,2019-05-22 06:56:38,1558479493,2019-05-22 06:58:13,1558479524,aazz100011cdv20106052122564b53ac4f5ea6f7a87d000128,http://conv.mobpeas.com/notify/110113/?click_id=aazz100011cdv20106052122564b53ac4f5ea6f7a87d000128,idfa_7ee24dba-dee9-41ba-8c86-739225de5bc8,%E1%80%97%E1%80%99%E1%80%AC
C2j9DDxfROWqiZlfHFZQPg,mobpeas,114_114s__44s__10160_238,Install,0.15,,7c71841d-4c29-4dd1-8035-680530121afa,1558472729,2019-05-22 05:05:29,1558472842,2019-05-22 05:07:22,1558472873,aazz100011cdv2010605212105498bbc588507cf30f9604526,http://conv.mobpeas.com/notify/110113/?click_id=aazz100011cdv2010605212105498bbc588507cf30f9604526,idfa_7c71841d-4c29-4dd1-8035-680530121afa,%E1%80%97%E1%80%99%E1%80%AC
C2j9DDxfROWqiZlfHFZQPg,mobpeas,114_114s__44s__10160_238,Install,0.15,,cbc4f533-d551-4594-beda-14167a1a1343,1558478475,2019-05-22 06:41:15,1558478788,2019-05-22 06:46:28,1558478819,aazz100011cdv201060521224144d48869760833fb692e15cb,http://conv.mobpeas.com/notify/110113/?click_id=aazz100011cdv201060521224144d48869760833fb692e15cb,idfa_cbc4f533-d551-4594-beda-14167a1a1343,%E1%80%97%E1%80%99%E1%80%AC
C2j9DDxfROWqiZlfHFZQPg,mobpeas,114_114s__44s__10160_238,Install,0.15,,7efd5372-3498-4e65-9547-aafe071f8b0c,1558475149,2019-05-22 05:45:49,1558475256,2019-05-22 05:47:36,1558475286,aazz100011cdv20106052121454e2cbe646c0a85c10543d5cf,http://conv.mobpeas.com/notify/110113/?click_id=aazz100011cdv20106052121454e2cbe646c0a85c10543d5cf,idfa_7efd5372-3498-4e65-9547-aafe071f8b0c,%E1%80%97%E1%80%99%E1%80%AC
C2j9DDxfROWqiZlfHFZQPg,mobpeas,114_114s__44s__10160_238,Install,0.15,,716806cf-03d6-4808-93c5-6000ce3c5e52,1558475035,2019-05-22 05:43:55,1558475195,2019-05-22 05:46:35,1558475226,aazz100011cdv20106052121434e4da2308448b3b624cf528c,http://conv.mobpeas.com/notify/110113/?click_id=aazz100011cdv20106052121434e4da2308448b3b624cf528c,idfa_716806cf-03d6-4808-93c5-6000ce3c5e52,%E1%80%97%E1%80%99%E1%80%AC
C2j9DDxfROWqiZlfHFZQPg,mobpeas,114_114s__44s__10160_238,Install,0.15,,c2a01c38-2d7d-41ef-a08d-749578e488db,1558471272,2019-05-22 04:41:12,1558471361,2019-05-22 04:42:41,1558471393,aazz100011cdv201060521204144559cd08faf1c6f546248e9,http://conv.mobpeas.com/notify/110113/?click_id=aazz100011cdv201060521204144559cd08faf1c6f546248e9,idfa_c2a01c38-2d7d-41ef-a08d-749578e488db,%E1%80%97%E1%80%99%E1%80%AC
C2j9DDxfROWqiZlfHFZQPg,mobpeas,114_114s__44s__10160_238,Install,0.15,,7727cfff-d86a-4082-8b08-8a39a83b939e,1558475223,2019-05-22 05:47:03,1558475467,2019-05-22 05:51:07,1558475497,aazz100011cdv20106052121464bd18f86c81ef294c65d4272,http://conv.mobpeas.com/notify/110113/?click_id=aazz100011cdv20106052121464bd18f86c81ef294c65d4272,idfa_7727cfff-d86a-4082-8b08-8a39a83b939e,%E1%80%97%E1%80%99%E1%80%AC
C2j9DDxfROWqiZlfHFZQPg,mobpeas,114_114s__44s__10160_238,Install,0.15,,ce47c0e2-0941-4944-9b88-50464b7d3f48,1558479549,2019-05-22 06:59:09,1558479659,2019-05-22 07:00:59,1558479690,aazz100011cdv2010605212259436c911b56ecce46e28182ab,http://conv.mobpeas.com/notify/110113/?click_id=aazz100011cdv2010605212259436c911b56ecce46e28182ab,idfa_ce47c0e2-0941-4944-9b88-50464b7d3f48,%E1%80%97%E1%80%99%E1%80%AC
C2j9DDxfROWqiZlfHFZQPg,mobpeas,114_114s__44s__10160_238,Install,0.15,,c1c653dc-e453-4887-a099-f651f265f0dd,1558479549,2019-05-22 06:59:09,1558479666,2019-05-22 07:01:06,1558479697,aazz100011cdv20106052122584e31bbf05877bf277c7a7bee,http://conv.mobpeas.com/notify/110113/?click_id=aazz100011cdv20106052122584e31bbf05877bf277c7a7bee,idfa_c1c653dc-e453-4887-a099-f651f265f0dd,%E1%80%97%E1%80%99%E1%80%AC
C2j9DDxfROWqiZlfHFZQPg,mobpeas,114_114s__44s__10160_238,Install,0.15,,7a710d70-f313-4c10-b2a3-33f3ded06de9,1558475404,2019-05-22 05:50:04,1558475532,2019-05-22 05:52:12,1558475563,aazz100011cdv2010605212150444d8975b4f252823bde7807,http://conv.mobpeas.com/notify/110113/?click_id=aazz100011cdv2010605212150444d8975b4f252823bde7807,idfa_7a710d70-f313-4c10-b2a3-33f3ded06de9,%E1%80%97%E1%80%99%E1%80%AC
C2j9DDxfROWqiZlfHFZQPg,mobpeas,114_114s__44s__10160_238,Install,0.15,,0c2d0be0-bacd-4b3b-8ad6-5381759918e9,1558473085,2019-05-22 05:11:25,1558473195,2019-05-22 05:13:15,1558473226,aazz100011cdv20106052121114fcda3a13e1b2590fd2d12ca,http://conv.mobpeas.com/notify/110113/?click_id=aazz100011cdv20106052121114fcda3a13e1b2590fd2d12ca,idfa_0c2d0be0-bacd-4b3b-8ad6-5381759918e9,%E1%80%97%E1%80%99%E1%80%AC
C2j9DDxfROWqiZlfHFZQPg,mobpeas,114_114s__44s__10160_238,Install,0.15,,06b35f5e-9927-4ea1-b470-00c101629e19,1558480044,2019-05-22 07:07:24,1558480137,2019-05-22 07:08:57,1558480167,aazz100011cdv20107052123074eeaba259459dd94c3aafd87,http://conv.mobpeas.com/notify/110113/?click_id=aazz100011cdv20107052123074eeaba259459dd94c3aafd87,idfa_06b35f5e-9927-4ea1-b470-00c101629e19,%E1%80%97%E1%80%99%E1%80%AC
C2j9DDxfROWqiZlfHFZQPg,mobpeas,114_114s__44s__10160_238,Install,0.15,,f0112acd-729a-464b-9b09-f065cdf431a1,1558391970,2019-05-21 06:39:30,1558392079,2019-05-21 06:41:19,1558392110,aazz100011cdv201060520223940ca9e719ed4f6a0a85ae0e0,http://conv.mobpeas.com/notify/110113/?click_id=aazz100011cdv201060520223940ca9e719ed4f6a0a85ae0e0,idfa_f0112acd-729a-464b-9b09-f065cdf431a1,%E1%80%97%E1%80%99%E1%80%AC
C2j9DDxfROWqiZlfHFZQPg,mobpeas,114_114s__44s__10160_238,Install,0.15,,848c9377-88a7-41cc-89cd-cc284a4555f0,1558471787,2019-05-22 04:49:47,1558471883,2019-05-22 04:51:23,1558471916,aazz100011cdv20106052120494bd5bfc9416b6f052b22cfe0,http://conv.mobpeas.com/notify/110113/?click_id=aazz100011cdv20106052120494bd5bfc9416b6f052b22cfe0,idfa_848c9377-88a7-41cc-89cd-cc284a4555f0,%E1%80%97%E1%80%99%E1%80%AC
C2j9DDxfROWqiZlfHFZQPg,mobpeas,114_114s__44s__10160_238,Install,0.15,,71629c64-fc18-4b67-be1b-33af8177c81b,1558474156,2019-05-22 05:29:16,1558474231,2019-05-22 05:30:31,1558474262,aazz100011cdv2010605212129468f8c799218ec52bfbc3da1,http://conv.mobpeas.com/notify/110113/?click_id=aazz100011cdv2010605212129468f8c799218ec52bfbc3da1,idfa_71629c64-fc18-4b67-be1b-33af8177c81b,%E1%80%97%E1%80%99%E1%80%AC
C2j9DDxfROWqiZlfHFZQPg,mobpeas,114_114s__44s__10160_238,Install,0.15,,f1c16368-fa8d-4670-b556-e4ee3e624922,1558476128,2019-05-22 06:02:08,1558476251,2019-05-22 06:04:11,1558476282,aazz100011cdv201060521220244908719fc98c814b35fcb79,http://conv.mobpeas.com/notify/110113/?click_id=aazz100011cdv201060521220244908719fc98c814b35fcb79,idfa_f1c16368-fa8d-4670-b556-e4ee3e624922,%E1%80%97%E1%80%99%E1%80%AC
C2j9DDxfROWqiZlfHFZQPg,mobpeas,114_114s__44s__10160_238,Install,0.15,,d12a14dd-8bb0-4695-9739-7dd2123f3ba5,1558479516,2019-05-22 06:58:36,1558480024,2019-05-22 07:07:04,1558480055,aazz100011cdv20106052122584a83a24e95d1ce04bfb3063f,http://conv.mobpeas.com/notify/110113/?click_id=aazz100011cdv20106052122584a83a24e95d1ce04bfb3063f,idfa_d12a14dd-8bb0-4695-9739-7dd2123f3ba5,%E1%80%97%E1%80%99%E1%80%AC
C2j9DDxfROWqiZlfHFZQPg,mobpeas,114_114s__44s__10160_238,Install,0.15,,d4e1ca9d-f256-478f-8af7-09e8e396413a,1558480613,2019-05-22 07:16:53,1558481024,2019-05-22 07:23:44,1558481056,aazz100011cdv2010705212316470a8c2e60eb7a93fccfb299,http://conv.mobpeas.com/notify/110113/?click_id=aazz100011cdv2010705212316470a8c2e60eb7a93fccfb299,idfa_d4e1ca9d-f256-478f-8af7-09e8e396413a,%E1%80%97%E1%80%99%E1%80%AC
C2j9DDxfROWqiZlfHFZQPg,mobpeas,114_114s__44s__10160_238,Install,0.15,,16fd6ec4-741c-4d94-9b28-09a8eebfee0e,1558479548,2019-05-22 06:59:08,1558480005,2019-05-22 07:06:45,1558480035,aazz100011cdv20106052122594a068d3ee4994ce046afb58d,http://conv.mobpeas.com/notify/110113/?click_id=aazz100011cdv20106052122594a068d3ee4994ce046afb58d,idfa_16fd6ec4-741c-4d94-9b28-09a8eebfee0e,%E1%80%97%E1%80%99%E1%80%AC
C2j9DDxfROWqiZlfHFZQPg,mobpeas,114_114s__44s__10160_238,Install,0.15,,8448bef7-f970-41fd-96f8-333e0601821d,1558475887,2019-05-22 05:58:07,1558475993,2019-05-22 05:59:53,1558476024,aazz100011cdv201060521215747e586799793e4e604a47686,http://conv.mobpeas.com/notify/110113/?click_id=aazz100011cdv201060521215747e586799793e4e604a47686,idfa_8448bef7-f970-41fd-96f8-333e0601821d,%E1%80%97%E1%80%99%E1%80%AC
C2j9DDxfROWqiZlfHFZQPg,mobpeas,114_114s__44s__10160_238,Install,0.15,,9d8da564-16ac-4e2a-86f9-4f2157ee636e,1558478958,2019-05-22 06:49:18,1558479062,2019-05-22 06:51:02,1558479092,aazz100011cdv20106052122494ace895e0f924a0a07e99984,http://conv.mobpeas.com/notify/110113/?click_id=aazz100011cdv20106052122494ace895e0f924a0a07e99984,idfa_9d8da564-16ac-4e2a-86f9-4f2157ee636e,%E1%80%97%E1%80%99%E1%80%AC
C2j9DDxfROWqiZlfHFZQPg,mobpeas,114_114s__44s__10160_238,Install,0.15,,247ed951-e1e7-4d88-90c8-7113f24ce019,1558478529,2019-05-22 06:42:09,1558478643,2019-05-22 06:44:03,1558478674,aazz100011cdv201060521224248b5a9650c71c0c75e75bbbf,http://conv.mobpeas.com/notify/110113/?click_id=aazz100011cdv201060521224248b5a9650c71c0c75e75bbbf,idfa_247ed951-e1e7-4d88-90c8-7113f24ce019,%E1%80%97%E1%80%99%E1%80%AC
C2j9DDxfROWqiZlfHFZQPg,mobpeas,114_114s__44s__10160_238,Install,0.15,,ac20fec0-e712-4725-98f4-aa9bf93239ee,1558452180,2019-05-21 23:23:00,1558452508,2019-05-21 23:28:28,1558452539,aazz100011cdv201060521152249898370b02f1bd39c9dbded,http://conv.mobpeas.com/notify/110113/?click_id=aazz100011cdv201060521152249898370b02f1bd39c9dbded,idfa_ac20fec0-e712-4725-98f4-aa9bf93239ee,%E1%80%97%E1%80%99%E1%80%AC
C2j9DDxfROWqiZlfHFZQPg,mobpeas,114_114s__44s__10160_238,Install,0.15,,9f563035-a4f0-4bb7-b51c-a024110d93cf,1558477210,2019-05-22 06:20:10,1558477900,2019-05-22 06:31:40,1558477931,aazz100011cdv20106052122204c8ab849ddad474f21d61d28,http://conv.mobpeas.com/notify/110113/?click_id=aazz100011cdv20106052122204c8ab849ddad474f21d61d28,idfa_9f563035-a4f0-4bb7-b51c-a024110d93cf,%E1%80%97%E1%80%99%E1%80%AC
C2j9DDxfROWqiZlfHFZQPg,mobpeas,114_114s__44s__10160_238,Install,0.15,,39f6eeca-52d1-4512-a69e-2f23a3eacf23,1558476609,2019-05-22 06:10:09,1558476712,2019-05-22 06:11:52,1558476743,aazz100011cdv201060521221045c0882e5f1d53ddcca299d0,http://conv.mobpeas.com/notify/110113/?click_id=aazz100011cdv201060521221045c0882e5f1d53ddcca299d0,idfa_39f6eeca-52d1-4512-a69e-2f23a3eacf23,%E1%80%97%E1%80%99%E1%80%AC
C2j9DDxfROWqiZlfHFZQPg,mobpeas,114_114s__44s__10160_238,Install,0.15,,a2c22ff3-4990-4373-89ff-8b16c0f4c303,1558384699,2019-05-21 04:38:19,1558384809,2019-05-21 04:40:09,1558384841,aazz100011cdv2010605202038488481d18f27205d651723a4,http://conv.mobpeas.com/notify/110113/?click_id=aazz100011cdv2010605202038488481d18f27205d651723a4,idfa_a2c22ff3-4990-4373-89ff-8b16c0f4c303,%E1%80%97%E1%80%99%E1%80%AC
C2j9DDxfROWqiZlfHFZQPg,mobpeas,114_114s__44s__10160_238,Install,0.15,,032e3f2b-a1d1-45e3-8a75-c9e614419a5c,1558480079,2019-05-22 07:07:59,1558480204,2019-05-22 07:10:04,1558480234,aazz100011cdv20106052123074203bbfa1732a0f9d67dc009,http://conv.mobpeas.com/notify/110113/?click_id=aazz100011cdv20106052123074203bbfa1732a0f9d67dc009,idfa_032e3f2b-a1d1-45e3-8a75-c9e614419a5c,%E1%80%97%E1%80%99%E1%80%AC
C2j9DDxfROWqiZlfHFZQPg,mobpeas,114_114s__44s__10160_238,Install,0.15,,568bb90c-5feb-485a-a85e-412e0988532c,1558479708,2019-05-22 07:01:48,1558479892,2019-05-22 07:04:52,1558479923,aazz100011cdv201060521230143a4a8178b0ec54031676d13,http://conv.mobpeas.com/notify/110113/?click_id=aazz100011cdv201060521230143a4a8178b0ec54031676d13,idfa_568bb90c-5feb-485a-a85e-412e0988532c,%E1%80%97%E1%80%99%E1%80%AC
C2j9DDxfROWqiZlfHFZQPg,mobpeas,114_114s__44s__10160_238,Install,0.15,,63d288d4-2dcc-40af-b2dc-30220895bd31,1558470812,2019-05-22 04:33:32,1558470933,2019-05-22 04:35:33,1558470963,aazz100011cdv20106052120334c8baa83bf9e7d5cdc1805d2,http://conv.mobpeas.com/notify/110113/?click_id=aazz100011cdv20106052120334c8baa83bf9e7d5cdc1805d2,idfa_63d288d4-2dcc-40af-b2dc-30220895bd31,%E1%80%97%E1%80%99%E1%80%AC
C2j9DDxfROWqiZlfHFZQPg,mobpeas,114_114s__44s__10160_238,Install,0.15,,415a5af9-bbf1-4717-bd02-4b04cdc846c7,1558470629,2019-05-22 04:30:29,1558470724,2019-05-22 04:32:04,1558470755,aazz100011cdv201060521203040c1914b50ff76b2c52e83e6,http://conv.mobpeas.com/notify/110113/?click_id=aazz100011cdv201060521203040c1914b50ff76b2c52e83e6,idfa_415a5af9-bbf1-4717-bd02-4b04cdc846c7,%E1%80%97%E1%80%99%E1%80%AC
C2j9DDxfROWqiZlfHFZQPg,mobpeas,114_114s__44s__10160_238,Install,0.15,,a31a5873-f536-409f-b2f4-24cd9618d11b,1558475208,2019-05-22 05:46:48,1558475318,2019-05-22 05:48:38,1558475349,aazz100011cdv2010605212146498db4e341275325b69c0934,http://conv.mobpeas.com/notify/110113/?click_id=aazz100011cdv2010605212146498db4e341275325b69c0934,idfa_a31a5873-f536-409f-b2f4-24cd9618d11b,%E1%80%97%E1%80%99%E1%80%AC
C2j9DDxfROWqiZlfHFZQPg,mobpeas,114_114s__44s__10160_238,Install,0.15,,bb54f37a-36ee-4c9d-8cd8-b437b1004091,1558480067,2019-05-22 07:07:47,1558480162,2019-05-22 07:09:22,1558480193,aazz100011cdv2010605212307468ab08594d36d604ceeb484,http://conv.mobpeas.com/notify/110113/?click_id=aazz100011cdv2010605212307468ab08594d36d604ceeb484,idfa_bb54f37a-36ee-4c9d-8cd8-b437b1004091,%E1%80%97%E1%80%99%E1%80%AC
C2j9DDxfROWqiZlfHFZQPg,mobpeas,114_114s__44s__10160_238,Install,0.15,,f0aa7539-ec51-47ef-a564-4dfd195f46ca,1558475958,2019-05-22 05:59:18,1558476062,2019-05-22 06:01:02,1558476093,aazz100011cdv201060521215944ccbcc75b351c18e4c7392e,http://conv.mobpeas.com/notify/110113/?click_id=aazz100011cdv201060521215944ccbcc75b351c18e4c7392e,idfa_f0aa7539-ec51-47ef-a564-4dfd195f46ca,%E1%80%97%E1%80%99%E1%80%AC
C2j9DDxfROWqiZlfHFZQPg,mobpeas,114_114s__44s__10160_238,Install,0.15,,6419af9d-b9bf-4d8c-9a89-3181a72cb208,1558471679,2019-05-22 04:47:59,1558471789,2019-05-22 04:49:49,1558471820,aazz100011cdv20106052120474e749e278c56f404ab961884,http://conv.mobpeas.com/notify/110113/?click_id=aazz100011cdv20106052120474e749e278c56f404ab961884,idfa_6419af9d-b9bf-4d8c-9a89-3181a72cb208,%E1%80%97%E1%80%99%E1%80%AC
C2j9DDxfROWqiZlfHFZQPg,mobpeas,114_114s__44s__10160_238,Install,0.15,,6614a6a5-f26b-41af-a9d4-34a74c4d72e2,1558466719,2019-05-22 03:25:19,1558466827,2019-05-22 03:27:07,1558466858,aazz100011cdv20106052119254fa7848402ba8eb0f9e70872,http://conv.mobpeas.com/notify/110113/?click_id=aazz100011cdv20106052119254fa7848402ba8eb0f9e70872,idfa_6614a6a5-f26b-41af-a9d4-34a74c4d72e2,%E1%80%97%E1%80%99%E1%80%AC
C2j9DDxfROWqiZlfHFZQPg,mobpeas,114_114s__44s__10160_238,Install,0.15,,ce50f1c9-d700-4627-82ef-88a366fe9fba,1558475216,2019-05-22 05:46:56,1558475303,2019-05-22 05:48:23,1558475334,aazz100011cdv2010605212146487fa2c1afcabf781f988de2,http://conv.mobpeas.com/notify/110113/?click_id=aazz100011cdv2010605212146487fa2c1afcabf781f988de2,idfa_ce50f1c9-d700-4627-82ef-88a366fe9fba,%E1%80%97%E1%80%99%E1%80%AC
C2j9DDxfROWqiZlfHFZQPg,mobpeas,114_114s__44s__10160_238,Install,0.15,,d71b7a9e-2e92-4459-b183-fb1ac86f4139,1558475761,2019-05-22 05:56:01,1558476021,2019-05-22 06:00:21,1558476051,aazz100011cdv20106052121554eefa317a10b913bc68fff35,http://conv.mobpeas.com/notify/110113/?click_id=aazz100011cdv20106052121554eefa317a10b913bc68fff35,idfa_d71b7a9e-2e92-4459-b183-fb1ac86f4139,%E1%80%97%E1%80%99%E1%80%AC
C2j9DDxfROWqiZlfHFZQPg,mobpeas,114_114s__44s__10160_238,Install,0.15,,c672707b-69cc-4dfb-89ac-a8bc76871c2c,1558473397,2019-05-22 05:16:37,1558473511,2019-05-22 05:18:31,1558473542,aazz100011cdv20106052121164bcfb1de2da057368cb23aa8,http://conv.mobpeas.com/notify/110113/?click_id=aazz100011cdv20106052121164bcfb1de2da057368cb23aa8,idfa_c672707b-69cc-4dfb-89ac-a8bc76871c2c,%E1%80%97%E1%80%99%E1%80%AC
C2j9DDxfROWqiZlfHFZQPg,mobpeas,114_114s__44s__10160_238,Install,0.15,,124acc50-9446-491f-950e-f2770609afca,1558478630,2019-05-22 06:43:50,1558478735,2019-05-22 06:45:35,1558478766,aazz100011cdv20106052122434b95893855877f8cce903002,http://conv.mobpeas.com/notify/110113/?click_id=aazz100011cdv20106052122434b95893855877f8cce903002,idfa_124acc50-9446-491f-950e-f2770609afca,%E1%80%97%E1%80%99%E1%80%AC
C2j9DDxfROWqiZlfHFZQPg,mobpeas,114_114s__44s__10160_238,Install,0.15,,b5f40506-1900-404c-af1e-3d939f75e319,1558474817,2019-05-22 05:40:17,1558475124,2019-05-22 05:45:24,1558475154,aazz100011cdv20106052121404525b0992a878c11622e4a83,http://conv.mobpeas.com/notify/110113/?click_id=aazz100011cdv20106052121404525b0992a878c11622e4a83,idfa_b5f40506-1900-404c-af1e-3d939f75e319,%E1%80%97%E1%80%99%E1%80%AC
C2j9DDxfROWqiZlfHFZQPg,mobpeas,114_114s__44s__10160_238,Install,0.15,,58632462-893e-482e-9eca-e4f7140a4916,1558399916,2019-05-21 08:51:56,1558400061,2019-05-21 08:54:21,1558400092,aazz100011cdv20106052100514a6e9e7228d1955f3fb1a96f,http://conv.mobpeas.com/notify/110113/?click_id=aazz100011cdv20106052100514a6e9e7228d1955f3fb1a96f,idfa_58632462-893e-482e-9eca-e4f7140a4916,%E1%80%97%E1%80%99%E1%80%AC
C2j9DDxfROWqiZlfHFZQPg,mobpeas,114_114s__44s__10160_238,Install,0.15,,a04f9477-c56a-466f-bb3a-372b9d7dd482,1558473452,2019-05-22 05:17:32,1558473554,2019-05-22 05:19:14,1558473584,aazz100011cdv20106052121174ef1b56fdd5a9c060182acee,http://conv.mobpeas.com/notify/110113/?click_id=aazz100011cdv20106052121174ef1b56fdd5a9c060182acee,idfa_a04f9477-c56a-466f-bb3a-372b9d7dd482,%E1%80%97%E1%80%99%E1%80%AC
C2j9DDxfROWqiZlfHFZQPg,mobpeas,114_114s__44s__10160_238,Install,0.15,,301de392-30a6-4960-867f-589911e2e549,1558476732,2019-05-22 06:12:12,1558476838,2019-05-22 06:13:58,1558476870,aazz100011cdv20106052122114089bde6795fa9b05a32b07e,http://conv.mobpeas.com/notify/110113/?click_id=aazz100011cdv20106052122114089bde6795fa9b05a32b07e,idfa_301de392-30a6-4960-867f-589911e2e549,%E1%80%97%E1%80%99%E1%80%AC
C2j9DDxfROWqiZlfHFZQPg,mobpeas,114_114s__44s__10160_238,Install,0.15,,fdb38d39-5158-4487-9dfb-3282fa839c1f,1558476176,2019-05-22 06:02:56,1558476295,2019-05-22 06:04:55,1558476326,aazz100011cdv20106052122024e86b09e1c95134567e70c25,http://conv.mobpeas.com/notify/110113/?click_id=aazz100011cdv20106052122024e86b09e1c95134567e70c25,idfa_fdb38d39-5158-4487-9dfb-3282fa839c1f,%E1%80%97%E1%80%99%E1%80%AC
C2j9DDxfROWqiZlfHFZQPg,mobpeas,114_114s__44s__10160_238,Install,0.15,,60deef9b-d026-44ab-91c2-3e02630b669f,1558479586,2019-05-22 06:59:46,1558479689,2019-05-22 07:01:29,1558479719,aazz100011cdv201060521225942a0bf1740ad1730555002f8,http://conv.mobpeas.com/notify/110113/?click_id=aazz100011cdv201060521225942a0bf1740ad1730555002f8,idfa_60deef9b-d026-44ab-91c2-3e02630b669f,%E1%80%97%E1%80%99%E1%80%AC
C2j9DDxfROWqiZlfHFZQPg,mobpeas,114_114s__44s__10160_238,Install,0.15,,952ea12a-e806-466a-b0d5-c182101e6b38,1558471567,2019-05-22 04:46:07,1558471667,2019-05-22 04:47:47,1558471698,aazz100011cdv20106052120464fabaf662a2c252820fd665c,http://conv.mobpeas.com/notify/110113/?click_id=aazz100011cdv20106052120464fabaf662a2c252820fd665c,idfa_952ea12a-e806-466a-b0d5-c182101e6b38,%E1%80%97%E1%80%99%E1%80%AC
C2j9DDxfROWqiZlfHFZQPg,mobpeas,114_114s__44s__10160_238,Install,0.15,,2f6f98dc-a98a-4bb8-bc63-58de2e1097ba,1558478825,2019-05-22 06:47:05,1558478920,2019-05-22 06:48:40,1558478950,aazz100011cdv201060521224747fcb31710bc8b1d08b73cbe,http://conv.mobpeas.com/notify/110113/?click_id=aazz100011cdv201060521224747fcb31710bc8b1d08b73cbe,idfa_2f6f98dc-a98a-4bb8-bc63-58de2e1097ba,%E1%80%97%E1%80%99%E1%80%AC
C2j9DDxfROWqiZlfHFZQPg,mobpeas,114_114s__44s__10160_238,Install,0.15,,e477e1de-2b53-4927-8ec1-b6ab8921e202,1558477084,2019-05-22 06:18:04,1558477184,2019-05-22 06:19:44,1558477215,aazz100011cdv20106052122184b779f23ba0e5aad63e231e8,http://conv.mobpeas.com/notify/110113/?click_id=aazz100011cdv20106052122184b779f23ba0e5aad63e231e8,idfa_e477e1de-2b53-4927-8ec1-b6ab8921e202,%E1%80%97%E1%80%99%E1%80%AC
C2j9DDxfROWqiZlfHFZQPg,mobpeas,114_114s__44s__10160_238,Install,0.15,,7b1feeca-a320-48ed-9f50-77bf063b3f95,1558479867,2019-05-22 07:04:27,1558479972,2019-05-22 07:06:12,1558480004,aazz100011cdv20107052123044bcda2ba8a37653bdc406586,http://conv.mobpeas.com/notify/110113/?click_id=aazz100011cdv20107052123044bcda2ba8a37653bdc406586,idfa_7b1feeca-a320-48ed-9f50-77bf063b3f95,%E1%80%97%E1%80%99%E1%80%AC
C2j9DDxfROWqiZlfHFZQPg,mobpeas,114_114s__44s__10160_238,Install,0.15,,7272661d-2c6b-4a33-9514-280dd3aed552,1558391289,2019-05-21 06:28:09,1558391415,2019-05-21 06:30:15,1558391446,aazz100011cdv20106052022284440856e918ff65ae29840f0,http://conv.mobpeas.com/notify/110113/?click_id=aazz100011cdv20106052022284440856e918ff65ae29840f0,idfa_7272661d-2c6b-4a33-9514-280dd3aed552,%E1%80%97%E1%80%99%E1%80%AC
C2j9DDxfROWqiZlfHFZQPg,mobpeas,114_114s__44s__10160_238,Install,0.15,,e745df9e-cd4e-488f-8097-281655961633,1558480001,2019-05-22 07:06:41,1558480096,2019-05-22 07:08:16,1558480127,aazz100011cdv20107052123064afa8813a649f3ac58eae62d,http://conv.mobpeas.com/notify/110113/?click_id=aazz100011cdv20107052123064afa8813a649f3ac58eae62d,idfa_e745df9e-cd4e-488f-8097-281655961633,%E1%80%97%E1%80%99%E1%80%AC
C2j9DDxfROWqiZlfHFZQPg,mobpeas,114_114s__44s__10160_238,Install,0.15,,7842ee9d-a7f3-44d2-b1c7-ff7dabd5eb97,1558468386,2019-05-22 03:53:06,1558468492,2019-05-22 03:54:52,1558468523,aazz100011cdv201060521195344d88e5848921cd7ccf4e3ab,http://conv.mobpeas.com/notify/110113/?click_id=aazz100011cdv201060521195344d88e5848921cd7ccf4e3ab,idfa_7842ee9d-a7f3-44d2-b1c7-ff7dabd5eb97,%E1%80%97%E1%80%99%E1%80%AC
C2j9DDxfROWqiZlfHFZQPg,mobpeas,114_114s__44s__10160_238,Install,0.15,,5f3be774-1015-4fd1-805e-ef8d6e0a2ebc,1558477959,2019-05-22 06:32:39,1558478068,2019-05-22 06:34:28,1558478098,aazz100011cdv20106052122324c2c9c43903bb8e68dfdae4d,http://conv.mobpeas.com/notify/110113/?click_id=aazz100011cdv20106052122324c2c9c43903bb8e68dfdae4d,idfa_5f3be774-1015-4fd1-805e-ef8d6e0a2ebc,%E1%80%97%E1%80%99%E1%80%AC
C2j9DDxfROWqiZlfHFZQPg,mobpeas,114_114s__44s__10160_238,Install,0.15,,b51073d8-c3e9-48de-8d5b-60d5249c9f1c,1558476110,2019-05-22 06:01:50,1558476211,2019-05-22 06:03:31,1558476241,aazz100011cdv2010605212201489fb3995a7bc8662370fe41,http://conv.mobpeas.com/notify/110113/?click_id=aazz100011cdv2010605212201489fb3995a7bc8662370fe41,idfa_b51073d8-c3e9-48de-8d5b-60d5249c9f1c,%E1%80%97%E1%80%99%E1%80%AC
C2j9DDxfROWqiZlfHFZQPg,mobpeas,114_114s__44s__10160_238,Install,0.15,,c37acf59-f961-455f-ab1a-d7aed729584b,1558480571,2019-05-22 07:16:11,1558480671,2019-05-22 07:17:51,1558480702,aazz100011cdv201070521231642ac9de9e3d9cac6509bd822,http://conv.mobpeas.com/notify/110113/?click_id=aazz100011cdv201070521231642ac9de9e3d9cac6509bd822,idfa_c37acf59-f961-455f-ab1a-d7aed729584b,%E1%80%97%E1%80%99%E1%80%AC
C2j9DDxfROWqiZlfHFZQPg,mobpeas,114_114s__44s__10160_238,Install,0.15,,363e844c-2785-41d9-b92f-fbb3f7511a0c,1558468129,2019-05-22 03:48:49,1558468227,2019-05-22 03:50:27,1558468258,aazz100011cdv20106052119484652a27a14b90dacbf2133dd,http://conv.mobpeas.com/notify/110113/?click_id=aazz100011cdv20106052119484652a27a14b90dacbf2133dd,idfa_363e844c-2785-41d9-b92f-fbb3f7511a0c,%E1%80%97%E1%80%99%E1%80%AC
C2j9DDxfROWqiZlfHFZQPg,mobpeas,114_114s__44s__10160_238,Install,0.15,,96783774-dc95-4328-9493-ff6073fe6472,1558477977,2019-05-22 06:32:57,1558478057,2019-05-22 06:34:17,1558478088,aazz100011cdv2010605212232458c8f121f21ab0368994613,http://conv.mobpeas.com/notify/110113/?click_id=aazz100011cdv2010605212232458c8f121f21ab0368994613,idfa_96783774-dc95-4328-9493-ff6073fe6472,%E1%80%97%E1%80%99%E1%80%AC
C2j9DDxfROWqiZlfHFZQPg,mobpeas,114_114s__44s__10160_238,Install,0.15,,f2385007-8ff1-4c01-a42e-c9fa9e31ef80,1558479176,2019-05-22 06:52:56,1558479284,2019-05-22 06:54:44,1558479314,aazz100011cdv20106052122524532a738331440e9f8f1ca25,http://conv.mobpeas.com/notify/110113/?click_id=aazz100011cdv20106052122524532a738331440e9f8f1ca25,idfa_f2385007-8ff1-4c01-a42e-c9fa9e31ef80,%E1%80%97%E1%80%99%E1%80%AC
C2j9DDxfROWqiZlfHFZQPg,mobpeas,114_114s__44s__10160_238,Install,0.15,,c56f220d-72d6-4f40-b1fd-5bc9be75acac,1558480371,2019-05-22 07:12:51,1558480471,2019-05-22 07:14:31,1558480502,aazz100011cdv20107052123124ec98fff698a81b483c2f4f5,http://conv.mobpeas.com/notify/110113/?click_id=aazz100011cdv20107052123124ec98fff698a81b483c2f4f5,idfa_c56f220d-72d6-4f40-b1fd-5bc9be75acac,%E1%80%97%E1%80%99%E1%80%AC
C2j9DDxfROWqiZlfHFZQPg,mobpeas,114_114s__44s__10160_238,Install,0.15,,8c999f4d-91b9-4320-8c06-de2e7a9c2b13,1558476377,2019-05-22 06:06:17,1558476484,2019-05-22 06:08:04,1558476514,aazz100011cdv201060521220642ccae0d1f9c082384e4df0a,http://conv.mobpeas.com/notify/110113/?click_id=aazz100011cdv201060521220642ccae0d1f9c082384e4df0a,idfa_8c999f4d-91b9-4320-8c06-de2e7a9c2b13,%E1%80%97%E1%80%99%E1%80%AC
C2j9DDxfROWqiZlfHFZQPg,mobpeas,114_114s__44s__10160_238,Install,0.15,,41b3a528-6f2b-4ef6-8d2b-bab507ddca47,1558480991,2019-05-22 07:23:11,1558481095,2019-05-22 07:24:55,1558481126,aazz100011cdv20107052123234ff5a025219300013aaa8678,http://conv.mobpeas.com/notify/110113/?click_id=aazz100011cdv20107052123234ff5a025219300013aaa8678,idfa_41b3a528-6f2b-4ef6-8d2b-bab507ddca47,%E1%80%97%E1%80%99%E1%80%AC
C2j9DDxfROWqiZlfHFZQPg,mobpeas,114_114s__44s__10160_238,Install,0.15,,3d2587f9-e92a-421b-9843-dab57613fbcb,1558471090,2019-05-22 04:38:10,1558471192,2019-05-22 04:39:52,1558471222,aazz100011cdv20106052120374a09a5790b619e88c05723a0,http://conv.mobpeas.com/notify/110113/?click_id=aazz100011cdv20106052120374a09a5790b619e88c05723a0,idfa_3d2587f9-e92a-421b-9843-dab57613fbcb,%E1%80%97%E1%80%99%E1%80%AC
C2j9DDxfROWqiZlfHFZQPg,mobpeas,114_114s__44s__10160_238,Install,0.15,,31ca706f-103e-412a-9202-f7e538a4ea86,1558475168,2019-05-22 05:46:08,1558475264,2019-05-22 05:47:44,1558475295,aazz100011cdv2010605212145476ca5206d456605405d84f3,http://conv.mobpeas.com/notify/110113/?click_id=aazz100011cdv2010605212145476ca5206d456605405d84f3,idfa_31ca706f-103e-412a-9202-f7e538a4ea86,%E1%80%97%E1%80%99%E1%80%AC
C2j9DDxfROWqiZlfHFZQPg,mobpeas,114_114s__44s__10160_238,Install,0.15,,730d4978-f3e1-45ca-9212-a7bd5e66554f,1558468596,2019-05-22 03:56:36,1558468681,2019-05-22 03:58:01,1558468712,aazz100011cdv20106052119564d6f99766d980ec2f6847758,http://conv.mobpeas.com/notify/110113/?click_id=aazz100011cdv20106052119564d6f99766d980ec2f6847758,idfa_730d4978-f3e1-45ca-9212-a7bd5e66554f,%E1%80%97%E1%80%99%E1%80%AC
C2j9DDxfROWqiZlfHFZQPg,mobpeas,114_114s__44s__10160_238,Install,0.15,,4f0eb6ab-9f35-4cfb-9bbd-9722733c8a54,1558480020,2019-05-22 07:07:00,1558480119,2019-05-22 07:08:39,1558480150,aazz100011cdv20107052123064b62a779549e90e9fee6e602,http://conv.mobpeas.com/notify/110113/?click_id=aazz100011cdv20107052123064b62a779549e90e9fee6e602,idfa_4f0eb6ab-9f35-4cfb-9bbd-9722733c8a54,%E1%80%97%E1%80%99%E1%80%AC
C2j9DDxfROWqiZlfHFZQPg,mobpeas,114_114s__44s__10160_238,Install,0.15,,c0091e67-4179-4857-8550-1f61533db9c9,1558479898,2019-05-22 07:04:58,1558480419,2019-05-22 07:13:39,1558480450,aazz100011cdv2010605212304496a810e4b19d677e7fd2057,http://conv.mobpeas.com/notify/110113/?click_id=aazz100011cdv2010605212304496a810e4b19d677e7fd2057,idfa_c0091e67-4179-4857-8550-1f61533db9c9,%E1%80%97%E1%80%99%E1%80%AC
C2j9DDxfROWqiZlfHFZQPg,mobpeas,114_114s__44s__10160_238,Install,0.15,,79ce2741-9efd-4763-bf64-469c3d1af189,1558473607,2019-05-22 05:20:07,1558473908,2019-05-22 05:25:08,1558473938,aazz100011cdv2010605212120471fab0fb58f3cc35bc60527,http://conv.mobpeas.com/notify/110113/?click_id=aazz100011cdv2010605212120471fab0fb58f3cc35bc60527,idfa_79ce2741-9efd-4763-bf64-469c3d1af189,%E1%80%97%E1%80%99%E1%80%AC
C2j9DDxfROWqiZlfHFZQPg,mobpeas,114_114s__44s__10160_238,Install,0.15,,9c15cc91-bced-4997-b40d-a0045baa3ffd,1558478614,2019-05-22 06:43:34,1558478714,2019-05-22 06:45:14,1558478745,aazz100011cdv2010605212243418a8db5363a39b25115e93e,http://conv.mobpeas.com/notify/110113/?click_id=aazz100011cdv2010605212243418a8db5363a39b25115e93e,idfa_9c15cc91-bced-4997-b40d-a0045baa3ffd,%E1%80%97%E1%80%99%E1%80%AC
C2j9DDxfROWqiZlfHFZQPg,mobpeas,114_114s__44s__10160_238,Install,0.15,,4d97b352-4e95-4e50-8109-cf9c8d419155,1558478783,2019-05-22 06:46:23,1558478903,2019-05-22 06:48:23,1558478934,aazz100011cdv20106052122464ba68d8c3a322cf3b5db6678,http://conv.mobpeas.com/notify/110113/?click_id=aazz100011cdv20106052122464ba68d8c3a322cf3b5db6678,idfa_4d97b352-4e95-4e50-8109-cf9c8d419155,%E1%80%97%E1%80%99%E1%80%AC
C2j9DDxfROWqiZlfHFZQPg,mobpeas,114_114s__44s__10160_238,Install,0.15,,fcbc0db6-9f83-4aa8-b8ba-9115b4068601,1558478924,2019-05-22 06:48:44,1558479041,2019-05-22 06:50:41,1558479072,aazz100011cdv2010605212248411e84b0bcf47b0becd446bf,http://conv.mobpeas.com/notify/110113/?click_id=aazz100011cdv2010605212248411e84b0bcf47b0becd446bf,idfa_fcbc0db6-9f83-4aa8-b8ba-9115b4068601,%E1%80%97%E1%80%99%E1%80%AC
C2j9DDxfROWqiZlfHFZQPg,mobpeas,114_114s__44s__10160_238,Install,0.15,,81d7fa01-189f-410d-8a0a-5f13e12e2147,1558475391,2019-05-22 05:49:51,1558475479,2019-05-22 05:51:19,1558475509,aazz100011cdv2010605212149402d99df9969569338429f78,http://conv.mobpeas.com/notify/110113/?click_id=aazz100011cdv2010605212149402d99df9969569338429f78,idfa_81d7fa01-189f-410d-8a0a-5f13e12e2147,%E1%80%97%E1%80%99%E1%80%AC
C2j9DDxfROWqiZlfHFZQPg,mobpeas,114_114s__44s__10160_238,Install,0.15,,096c8015-437d-47d6-af2c-e183a1bc0209,1558471428,2019-05-22 04:43:48,1558471861,2019-05-22 04:51:01,1558471894,aazz100011cdv20106052120434f89aaa429d4be60aa744af4,http://conv.mobpeas.com/notify/110113/?click_id=aazz100011cdv20106052120434f89aaa429d4be60aa744af4,idfa_096c8015-437d-47d6-af2c-e183a1bc0209,%E1%80%97%E1%80%99%E1%80%AC
C2j9DDxfROWqiZlfHFZQPg,mobpeas,114_114s__44s__10160_238,Install,0.15,,9e8c1950-a175-4bcf-8c3c-7f1e50e55aef,1558476443,2019-05-22 06:07:23,1558476568,2019-05-22 06:09:28,1558476599,aazz100011cdv2010605212207467686cbf2cb6dd792ce8df5,http://conv.mobpeas.com/notify/110113/?click_id=aazz100011cdv2010605212207467686cbf2cb6dd792ce8df5,idfa_9e8c1950-a175-4bcf-8c3c-7f1e50e55aef,%E1%80%97%E1%80%99%E1%80%AC
C2j9DDxfROWqiZlfHFZQPg,mobpeas,114_114s__44s__10160_238,Install,0.15,,4385e896-1f9d-4782-ac0a-c757d73fe71a,1558473391,2019-05-22 05:16:31,1558473468,2019-05-22 05:17:48,1558473500,aazz100011cdv20106052121164b34a91683397e03acd9125b,http://conv.mobpeas.com/notify/110113/?click_id=aazz100011cdv20106052121164b34a91683397e03acd9125b,idfa_4385e896-1f9d-4782-ac0a-c757d73fe71a,%E1%80%97%E1%80%99%E1%80%AC
C2j9DDxfROWqiZlfHFZQPg,mobpeas,114_114s__44s__10160_238,Install,0.15,,33793ad6-c98f-43b9-bfd8-100fcc6bfa58,1558467774,2019-05-22 03:42:54,1558467865,2019-05-22 03:44:25,1558467896,aazz100011cdv201060521194240e485bac60a98b869663c9e,http://conv.mobpeas.com/notify/110113/?click_id=aazz100011cdv201060521194240e485bac60a98b869663c9e,idfa_33793ad6-c98f-43b9-bfd8-100fcc6bfa58,%E1%80%97%E1%80%99%E1%80%AC
C2j9DDxfROWqiZlfHFZQPg,mobpeas,114_114s__44s__10160_238,Install,0.15,,3af969b1-1a4c-4f9b-a1b6-6916e094ffc1,1558472661,2019-05-22 05:04:21,1558472796,2019-05-22 05:06:36,1558472827,aazz100011cdv201060521210441e89e38cd44834085a549b4,http://conv.mobpeas.com/notify/110113/?click_id=aazz100011cdv201060521210441e89e38cd44834085a549b4,idfa_3af969b1-1a4c-4f9b-a1b6-6916e094ffc1,%E1%80%97%E1%80%99%E1%80%AC
C2j9DDxfROWqiZlfHFZQPg,mobpeas,114_114s__44s__10160_238,Install,0.15,,40952a7e-2669-4c79-a75a-c1c2e19bdf67,1558480940,2019-05-22 07:22:20,1558481039,2019-05-22 07:23:59,1558481069,aazz100011cdv20107052123224c19b4c2e5e1218d33e1ea45,http://conv.mobpeas.com/notify/110113/?click_id=aazz100011cdv20107052123224c19b4c2e5e1218d33e1ea45,idfa_40952a7e-2669-4c79-a75a-c1c2e19bdf67,%E1%80%97%E1%80%99%E1%80%AC
C2j9DDxfROWqiZlfHFZQPg,mobpeas,114_114s__44s__10160_238,Install,0.15,,5a478561-f062-407d-b34e-f0c6a13d2950,1558474408,2019-05-22 05:33:28,1558474521,2019-05-22 05:35:21,1558474551,aazz100011cdv201060521213345848515496f48f072e8906d,http://conv.mobpeas.com/notify/110113/?click_id=aazz100011cdv201060521213345848515496f48f072e8906d,idfa_5a478561-f062-407d-b34e-f0c6a13d2950,%E1%80%97%E1%80%99%E1%80%AC
C2j9DDxfROWqiZlfHFZQPg,mobpeas,114_114s__44s__10160_238,Install,0.15,,0bbcf539-0d74-4fe8-b6a1-6d5a9c3eed9e,1558476825,2019-05-22 06:13:45,1558476932,2019-05-22 06:15:32,1558476962,aazz100011cdv2010605212213474fa7f5e31e313fcc8d587e,http://conv.mobpeas.com/notify/110113/?click_id=aazz100011cdv2010605212213474fa7f5e31e313fcc8d587e,idfa_0bbcf539-0d74-4fe8-b6a1-6d5a9c3eed9e,%E1%80%97%E1%80%99%E1%80%AC
C2j9DDxfROWqiZlfHFZQPg,mobpeas,114_114s__44s__10160_238,Install,0.15,,1c263c75-0d3e-4382-98ad-cef2e5879f7a,1558390326,2019-05-21 06:12:06,1558390428,2019-05-21 06:13:48,1558390461,aazz100011cdv2010605202212445dac1187f9252c10d28ff1,http://conv.mobpeas.com/notify/110113/?click_id=aazz100011cdv2010605202212445dac1187f9252c10d28ff1,idfa_1c263c75-0d3e-4382-98ad-cef2e5879f7a,%E1%80%97%E1%80%99%E1%80%AC
C2j9DDxfROWqiZlfHFZQPg,mobpeas,114_114s__44s__10160_238,Install,0.15,,e00d613d-a16c-4dc5-aff8-4265f57c7477,1558474831,2019-05-22 05:40:31,1558474946,2019-05-22 05:42:26,1558474977,aazz100011cdv20106052121404fae9815df7c01cf0d361568,http://conv.mobpeas.com/notify/110113/?click_id=aazz100011cdv20106052121404fae9815df7c01cf0d361568,idfa_e00d613d-a16c-4dc5-aff8-4265f57c7477,%E1%80%97%E1%80%99%E1%80%AC
C2j9DDxfROWqiZlfHFZQPg,mobpeas,114_114s__44s__10160_238,Install,0.15,,44049a06-6489-4565-a1b0-65d0ecd01c0f,1558476663,2019-05-22 06:11:03,1558476766,2019-05-22 06:12:46,1558476796,aazz100011cdv20106052122104fd292382978f02bdffe1d4d,http://conv.mobpeas.com/notify/110113/?click_id=aazz100011cdv20106052122104fd292382978f02bdffe1d4d,idfa_44049a06-6489-4565-a1b0-65d0ecd01c0f,%E1%80%97%E1%80%99%E1%80%AC
C2j9DDxfROWqiZlfHFZQPg,mobpeas,114_114s__44s__10160_238,Install,0.15,,40684f75-1875-4ad2-a461-36a1a866af0c,1558475486,2019-05-22 05:51:26,1558475595,2019-05-22 05:53:15,1558475626,aazz100011cdv20106052121514a45a5e5fd1e522a3cf5135b,http://conv.mobpeas.com/notify/110113/?click_id=aazz100011cdv20106052121514a45a5e5fd1e522a3cf5135b,idfa_40684f75-1875-4ad2-a461-36a1a866af0c,%E1%80%97%E1%80%99%E1%80%AC
C2j9DDxfROWqiZlfHFZQPg,mobpeas,114_114s__44s__10160_238,Install,0.15,,647d0fa4-ab7c-470e-89ae-99b0ad11be43,1558468234,2019-05-22 03:50:34,1558468331,2019-05-22 03:52:11,1558468363,aazz100011cdv201060521195047d0906bc154737d12de95fd,http://conv.mobpeas.com/notify/110113/?click_id=aazz100011cdv201060521195047d0906bc154737d12de95fd,idfa_647d0fa4-ab7c-470e-89ae-99b0ad11be43,%E1%80%97%E1%80%99%E1%80%AC
C2j9DDxfROWqiZlfHFZQPg,mobpeas,114_114s__44s__10160_238,Install,0.15,,20733b03-4d09-4509-a06c-3e1ef1c0fa9f,1558480560,2019-05-22 07:16:00,1558480667,2019-05-22 07:17:47,1558480697,aazz100011cdv20107052123154e25b53dde5a9522afa246bc,http://conv.mobpeas.com/notify/110113/?click_id=aazz100011cdv20107052123154e25b53dde5a9522afa246bc,idfa_20733b03-4d09-4509-a06c-3e1ef1c0fa9f,%E1%80%97%E1%80%99%E1%80%AC
C2j9DDxfROWqiZlfHFZQPg,mobpeas,114_114s__44s__10160_238,Install,0.15,,d816b6c1-1d55-4e4b-ab00-77f32bc0503e,1558467321,2019-05-22 03:35:21,1558467878,2019-05-22 03:44:38,1558467909,aazz100011cdv20106052119354dc4bc9e8ee5861eb878adaa,http://conv.mobpeas.com/notify/110113/?click_id=aazz100011cdv20106052119354dc4bc9e8ee5861eb878adaa,idfa_d816b6c1-1d55-4e4b-ab00-77f32bc0503e,%E1%80%97%E1%80%99%E1%80%AC
C2j9DDxfROWqiZlfHFZQPg,mobpeas,114_114s__44s__10160_238,Install,0.15,,0e5c04ab-7549-4a27-b03e-ece159aaac2c,1558466945,2019-05-22 03:29:05,1558467389,2019-05-22 03:36:29,1558467420,aazz100011cdv20106052119284307859344a6c58479947b22,http://conv.mobpeas.com/notify/110113/?click_id=aazz100011cdv20106052119284307859344a6c58479947b22,idfa_0e5c04ab-7549-4a27-b03e-ece159aaac2c,%E1%80%97%E1%80%99%E1%80%AC
C2j9DDxfROWqiZlfHFZQPg,mobpeas,114_114s__44s__10160_238,Install,0.15,,ef65d6f8-65d3-4f52-aefe-100fd009c0eb,1558474700,2019-05-22 05:38:20,1558474814,2019-05-22 05:40:14,1558474844,aazz100011cdv2010605212138400ab7d4ef93567e435e71a0,http://conv.mobpeas.com/notify/110113/?click_id=aazz100011cdv2010605212138400ab7d4ef93567e435e71a0,idfa_ef65d6f8-65d3-4f52-aefe-100fd009c0eb,%E1%80%97%E1%80%99%E1%80%AC
C2j9DDxfROWqiZlfHFZQPg,mobpeas,114_114s__44s__10160_238,Install,0.15,,315093b9-8257-4a80-8bc9-0eae78e49969,1558478110,2019-05-22 06:35:10,1558478489,2019-05-22 06:41:29,1558478519,aazz100011cdv2010605212235416ea8b0ff3370c296cc9edd,http://conv.mobpeas.com/notify/110113/?click_id=aazz100011cdv2010605212235416ea8b0ff3370c296cc9edd,idfa_315093b9-8257-4a80-8bc9-0eae78e49969,%E1%80%97%E1%80%99%E1%80%AC
C2j9DDxfROWqiZlfHFZQPg,mobpeas,114_114s__44s__10160_238,Install,0.15,,8500a92c-061a-4365-b471-bcf007680440,1558473681,2019-05-22 05:21:21,1558473796,2019-05-22 05:23:16,1558473827,aazz100011cdv20106052121214ecdb84ebb787ed4f7eedd25,http://conv.mobpeas.com/notify/110113/?click_id=aazz100011cdv20106052121214ecdb84ebb787ed4f7eedd25,idfa_8500a92c-061a-4365-b471-bcf007680440,%E1%80%97%E1%80%99%E1%80%AC
C2j9DDxfROWqiZlfHFZQPg,mobpeas,114_114s__44s__10160_238,Install,0.15,,6485360f-852e-4ee6-8ff5-bba9e6714600,1558479758,2019-05-22 07:02:38,1558479847,2019-05-22 07:04:07,1558479882,aazz100011cdv20107052123024f789e6aa5af2f4f7829cd54,http://conv.mobpeas.com/notify/110113/?click_id=aazz100011cdv20107052123024f789e6aa5af2f4f7829cd54,idfa_6485360f-852e-4ee6-8ff5-bba9e6714600,%E1%80%97%E1%80%99%E1%80%AC
C2j9DDxfROWqiZlfHFZQPg,mobpeas,114_114s__44s__10160_238,Install,0.15,,da469c21-0d6b-4a24-a847-f00ed04b50c5,1558390644,2019-05-21 06:17:24,1558390739,2019-05-21 06:18:59,1558390769,aazz100011cdv20106052022174bcc81364cb936b4c9385568,http://conv.mobpeas.com/notify/110113/?click_id=aazz100011cdv20106052022174bcc81364cb936b4c9385568,idfa_da469c21-0d6b-4a24-a847-f00ed04b50c5,%E1%80%97%E1%80%99%E1%80%AC
C2j9DDxfROWqiZlfHFZQPg,mobpeas,114_114s__44s__10160_238,Install,0.15,,96bf62a8-773e-4aad-8055-a357d2ab0828,1558469994,2019-05-22 04:19:54,1558470162,2019-05-22 04:22:42,1558470193,aazz100011cdv201060521201947cb9f10a5b3108fb511e80b,http://conv.mobpeas.com/notify/110113/?click_id=aazz100011cdv201060521201947cb9f10a5b3108fb511e80b,idfa_96bf62a8-773e-4aad-8055-a357d2ab0828,%E1%80%97%E1%80%99%E1%80%AC
C2j9DDxfROWqiZlfHFZQPg,mobpeas,114_114s__44s__10160_238,Install,0.15,,1dcba9b8-390d-4629-81ec-76479c0c295e,1558388024,2019-05-21 05:33:44,1558388128,2019-05-21 05:35:28,1558388159,aazz100011cdv201060520213341829da2142ea219519e1153,http://conv.mobpeas.com/notify/110113/?click_id=aazz100011cdv201060520213341829da2142ea219519e1153,idfa_1dcba9b8-390d-4629-81ec-76479c0c295e,%E1%80%97%E1%80%99%E1%80%AC
C2j9DDxfROWqiZlfHFZQPg,mobpeas,114_114s__44s__10160_238,Install,0.15,,49868a22-e4f5-45f6-a1cf-7e3d5f578040,1558479873,2019-05-22 07:04:33,1558479967,2019-05-22 07:06:07,1558479998,aazz100011cdv20107052123044899bf868e71b4cb9973346b,http://conv.mobpeas.com/notify/110113/?click_id=aazz100011cdv20107052123044899bf868e71b4cb9973346b,idfa_49868a22-e4f5-45f6-a1cf-7e3d5f578040,%E1%80%97%E1%80%99%E1%80%AC
C2j9DDxfROWqiZlfHFZQPg,mobpeas,114_114s__44s__10160_238,Install,0.15,,f9835db6-2b47-4e70-ba5f-1b67eab60164,1558467204,2019-05-22 03:33:24,1558467344,2019-05-22 03:35:44,1558467377,aazz100011cdv20106052119334de496698e42186f6d2b5e76,http://conv.mobpeas.com/notify/110113/?click_id=aazz100011cdv20106052119334de496698e42186f6d2b5e76,idfa_f9835db6-2b47-4e70-ba5f-1b67eab60164,%E1%80%97%E1%80%99%E1%80%AC
C2j9DDxfROWqiZlfHFZQPg,mobpeas,114_114s__44s__10160_238,Install,0.15,,2eacb09e-3911-47b3-a3f0-62379cb86a86,1558475748,2019-05-22 05:55:48,1558475841,2019-05-22 05:57:21,1558475872,aazz100011cdv201060521215543aebf4b2a175e67d3ed265f,http://conv.mobpeas.com/notify/110113/?click_id=aazz100011cdv201060521215543aebf4b2a175e67d3ed265f,idfa_2eacb09e-3911-47b3-a3f0-62379cb86a86,%E1%80%97%E1%80%99%E1%80%AC
C2j9DDxfROWqiZlfHFZQPg,mobpeas,114_114s__44s__10160_238,Install,0.15,,f09ee575-d456-4839-91b9-2cf827fab881,1558475354,2019-05-22 05:49:14,1558475457,2019-05-22 05:50:57,1558475488,aazz100011cdv20106052121494cab8ae02b59f00a875476ed,http://conv.mobpeas.com/notify/110113/?click_id=aazz100011cdv20106052121494cab8ae02b59f00a875476ed,idfa_f09ee575-d456-4839-91b9-2cf827fab881,%E1%80%97%E1%80%99%E1%80%AC
C2j9DDxfROWqiZlfHFZQPg,mobpeas,114_114s__44s__10160_238,Install,0.15,,eb81395a-817f-43f5-aad0-0089c6d6b4a9,1558480568,2019-05-22 07:16:08,1558480679,2019-05-22 07:17:59,1558480710,aazz100011cdv20107052123154eb9b6844be972c89c3a66e2,http://conv.mobpeas.com/notify/110113/?click_id=aazz100011cdv20107052123154eb9b6844be972c89c3a66e2,idfa_eb81395a-817f-43f5-aad0-0089c6d6b4a9,%E1%80%97%E1%80%99%E1%80%AC
C2j9DDxfROWqiZlfHFZQPg,mobpeas,114_114s__44s__10160_238,Install,0.15,,56ecd78d-9871-4565-b4ec-6a25410bd0e2,1558478762,2019-05-22 06:46:02,1558478844,2019-05-22 06:47:24,1558478875,aazz100011cdv20106052122454b39bf752f5beab74e913718,http://conv.mobpeas.com/notify/110113/?click_id=aazz100011cdv20106052122454b39bf752f5beab74e913718,idfa_56ecd78d-9871-4565-b4ec-6a25410bd0e2,%E1%80%97%E1%80%99%E1%80%AC
C2j9DDxfROWqiZlfHFZQPg,mobpeas,114_114s__44s__10160_238,Install,0.15,,e56e4d52-9ff2-4972-8fad-2fe3587a536b,1558479684,2019-05-22 07:01:24,1558479781,2019-05-22 07:03:01,1558479812,aazz100011cdv20106052123014b0da5e59e4d85e8657b03ff,http://conv.mobpeas.com/notify/110113/?click_id=aazz100011cdv20106052123014b0da5e59e4d85e8657b03ff,idfa_e56e4d52-9ff2-4972-8fad-2fe3587a536b,%E1%80%97%E1%80%99%E1%80%AC
C2j9DDxfROWqiZlfHFZQPg,mobpeas,114_114s__44s__10160_238,Install,0.15,,d752e77f-aa98-4ef9-b4dc-421907ddf3ed,1558476140,2019-05-22 06:02:20,1558476220,2019-05-22 06:03:40,1558476251,aazz100011cdv2010605212202431c99f651cce00a4baea0ea,http://conv.mobpeas.com/notify/110113/?click_id=aazz100011cdv2010605212202431c99f651cce00a4baea0ea,idfa_d752e77f-aa98-4ef9-b4dc-421907ddf3ed,%E1%80%97%E1%80%99%E1%80%AC
C2j9DDxfROWqiZlfHFZQPg,mobpeas,114_114s__44s__10160_238,Install,0.15,,df5767e0-cb23-4044-a1ab-3bb014fc904e,1558475033,2019-05-22 05:43:53,1558475111,2019-05-22 05:45:11,1558475142,aazz100011cdv201060521214349aeaf762ae6bfc48a413028,http://conv.mobpeas.com/notify/110113/?click_id=aazz100011cdv201060521214349aeaf762ae6bfc48a413028,idfa_df5767e0-cb23-4044-a1ab-3bb014fc904e,%E1%80%97%E1%80%99%E1%80%AC
C2j9DDxfROWqiZlfHFZQPg,mobpeas,114_114s__44s__10160_238,Install,0.15,,cb13afaf-ee57-44a2-84aa-0e8f05330c1f,1558480455,2019-05-22 07:14:15,1558480554,2019-05-22 07:15:54,1558480586,aazz100011cdv20107052123134742bc6fb691c578dd2573d6,http://conv.mobpeas.com/notify/110113/?click_id=aazz100011cdv20107052123134742bc6fb691c578dd2573d6,idfa_cb13afaf-ee57-44a2-84aa-0e8f05330c1f,%E1%80%97%E1%80%99%E1%80%AC
C2j9DDxfROWqiZlfHFZQPg,mobpeas,114_114s__44s__10160_238,Install,0.15,,d47a2062-8aaa-4aac-9c6a-2a3123810ff3,1558476457,2019-05-22 06:07:37,1558476575,2019-05-22 06:09:35,1558476605,aazz100011cdv201060521220744ffaecfe3b9f284a53109ad,http://conv.mobpeas.com/notify/110113/?click_id=aazz100011cdv201060521220744ffaecfe3b9f284a53109ad,idfa_d47a2062-8aaa-4aac-9c6a-2a3123810ff3,%E1%80%97%E1%80%99%E1%80%AC
C2j9DDxfROWqiZlfHFZQPg,mobpeas,114_114s__44s__10160_238,Install,0.15,,beaa64f7-d4a2-4f9d-a9e0-3106f0540433,1558479031,2019-05-22 06:50:31,1558479172,2019-05-22 06:52:52,1558479203,aazz100011cdv2010605212250462d9aebb3c92b2c2c244b4b,http://conv.mobpeas.com/notify/110113/?click_id=aazz100011cdv2010605212250462d9aebb3c92b2c2c244b4b,idfa_beaa64f7-d4a2-4f9d-a9e0-3106f0540433,%E1%80%97%E1%80%99%E1%80%AC
C2j9DDxfROWqiZlfHFZQPg,mobpeas,114_114s__44s__10160_238,Install,0.15,,99e6cb1d-4851-4a27-8b61-2d70e7bfe4a3,1558389020,2019-05-21 05:50:20,1558389104,2019-05-21 05:51:44,1558389134,aazz100011cdv20106052021504d20a4fbc93fc441022f9625,http://conv.mobpeas.com/notify/110113/?click_id=aazz100011cdv20106052021504d20a4fbc93fc441022f9625,idfa_99e6cb1d-4851-4a27-8b61-2d70e7bfe4a3,%E1%80%97%E1%80%99%E1%80%AC
C2j9DDxfROWqiZlfHFZQPg,mobpeas,114_114s__44s__10160_238,Install,0.15,,30d09916-a57b-4d9d-b2a6-35846e671a73,1558478677,2019-05-22 06:44:37,1558478804,2019-05-22 06:46:44,1558478835,aazz100011cdv20106052122444bdfb7bea50a5857f12ed5d1,http://conv.mobpeas.com/notify/110113/?click_id=aazz100011cdv20106052122444bdfb7bea50a5857f12ed5d1,idfa_30d09916-a57b-4d9d-b2a6-35846e671a73,%E1%80%97%E1%80%99%E1%80%AC
C2j9DDxfROWqiZlfHFZQPg,mobpeas,114_114s__44s__10160_238,Install,0.15,,1029c351-05a9-4345-ad57-d86d78355b27,1558480411,2019-05-22 07:13:31,1558480795,2019-05-22 07:19:55,1558480826,aazz100011cdv201070521231344229adfb7e56ccf60881207,http://conv.mobpeas.com/notify/110113/?click_id=aazz100011cdv201070521231344229adfb7e56ccf60881207,idfa_1029c351-05a9-4345-ad57-d86d78355b27,%E1%80%97%E1%80%99%E1%80%AC
C2j9DDxfROWqiZlfHFZQPg,mobpeas,114_114s__44s__10160_238,Install,0.15,,50c2a534-b868-4ef2-8c03-ac5b78c15b41,1558478465,2019-05-22 06:41:05,1558478932,2019-05-22 06:48:52,1558478962,aazz100011cdv201060521224046e491674b5d288e24e39d52,http://conv.mobpeas.com/notify/110113/?click_id=aazz100011cdv201060521224046e491674b5d288e24e39d52,idfa_50c2a534-b868-4ef2-8c03-ac5b78c15b41,%E1%80%97%E1%80%99%E1%80%AC
C2j9DDxfROWqiZlfHFZQPg,mobpeas,114_114s__44s__10160_238,Install,0.15,,64087c3c-91d6-4a31-a750-ee7c952f7d8e,1558468676,2019-05-22 03:57:56,1558468778,2019-05-22 03:59:38,1558468809,aazz100011cdv20106052119574766b8e8c3503666f92ad2d8,http://conv.mobpeas.com/notify/110113/?click_id=aazz100011cdv20106052119574766b8e8c3503666f92ad2d8,idfa_64087c3c-91d6-4a31-a750-ee7c952f7d8e,%E1%80%97%E1%80%99%E1%80%AC
C2j9DDxfROWqiZlfHFZQPg,mobpeas,114_114s__44s__10160_238,Install,0.15,,d890f461-2a6e-4a84-a5c4-3c98b8208e7a,1558473647,2019-05-22 05:20:47,1558473775,2019-05-22 05:22:55,1558473806,aazz100011cdv20106052121204691b5e360046154b1a75106,http://conv.mobpeas.com/notify/110113/?click_id=aazz100011cdv20106052121204691b5e360046154b1a75106,idfa_d890f461-2a6e-4a84-a5c4-3c98b8208e7a,%E1%80%97%E1%80%99%E1%80%AC
C2j9DDxfROWqiZlfHFZQPg,mobpeas,114_114s__44s__10160_238,Install,0.15,,7afe7520-9985-4f21-b196-13e7b23f54c5,1558479793,2019-05-22 07:03:13,1558479903,2019-05-22 07:05:03,1558479933,aazz100011cdv20106052123024e2995a210006b8a94b072c6,http://conv.mobpeas.com/notify/110113/?click_id=aazz100011cdv20106052123024e2995a210006b8a94b072c6,idfa_7afe7520-9985-4f21-b196-13e7b23f54c5,%E1%80%97%E1%80%99%E1%80%AC
C2j9DDxfROWqiZlfHFZQPg,mobpeas,114_114s__44s__10160_238,Install,0.15,,fdb10bd9-93c5-40d7-a29a-0c06216877ca,1558478091,2019-05-22 06:34:51,1558478341,2019-05-22 06:39:01,1558478371,aazz100011cdv201060521223447998dc4966d55f77317814e,http://conv.mobpeas.com/notify/110113/?click_id=aazz100011cdv201060521223447998dc4966d55f77317814e,idfa_fdb10bd9-93c5-40d7-a29a-0c06216877ca,%E1%80%97%E1%80%99%E1%80%AC
C2j9DDxfROWqiZlfHFZQPg,mobpeas,114_114s__44s__10160_238,Install,0.15,,95963cda-7b16-4d14-9042-8fa0394dd38e,1558479401,2019-05-22 06:56:41,1558479502,2019-05-22 06:58:22,1558479533,aazz100011cdv201060521225648aca9e6dd3eb5ad64f99d49,http://conv.mobpeas.com/notify/110113/?click_id=aazz100011cdv201060521225648aca9e6dd3eb5ad64f99d49,idfa_95963cda-7b16-4d14-9042-8fa0394dd38e,%E1%80%97%E1%80%99%E1%80%AC
C2j9DDxfROWqiZlfHFZQPg,mobpeas,114_114s__44s__10160_238,Install,0.15,,cff11755-a394-4874-860c-5cee86e9efb7,1558476391,2019-05-22 06:06:31,1558476503,2019-05-22 06:08:23,1558476535,aazz100011cdv201060521220648f88a18be3f4c8d4c09022a,http://conv.mobpeas.com/notify/110113/?click_id=aazz100011cdv201060521220648f88a18be3f4c8d4c09022a,idfa_cff11755-a394-4874-860c-5cee86e9efb7,%E1%80%97%E1%80%99%E1%80%AC
C2j9DDxfROWqiZlfHFZQPg,mobpeas,114_114s__44s__10160_238,Install,0.15,,4a24471c-000b-484b-8065-3ffbbdfd3a88,1558459559,2019-05-22 01:25:59,1558459886,2019-05-22 01:31:26,1558459916,aazz100011cdv20106052117254a4dbdd6317c7726fe3d9d73,http://conv.mobpeas.com/notify/110113/?click_id=aazz100011cdv20106052117254a4dbdd6317c7726fe3d9d73,idfa_4a24471c-000b-484b-8065-3ffbbdfd3a88,%E1%80%97%E1%80%99%E1%80%AC
C2j9DDxfROWqiZlfHFZQPg,mobpeas,114_114s__44s__10160_238,Install,0.15,,3b7aab37-e44c-4955-88fc-b5818656d4ce,1558473609,2019-05-22 05:20:09,1558473722,2019-05-22 05:22:02,1558473753,aazz100011cdv201060521212045fdbc6db28bb64a6686c44f,http://conv.mobpeas.com/notify/110113/?click_id=aazz100011cdv201060521212045fdbc6db28bb64a6686c44f,idfa_3b7aab37-e44c-4955-88fc-b5818656d4ce,%E1%80%97%E1%80%99%E1%80%AC
C2j9DDxfROWqiZlfHFZQPg,mobpeas,114_114s__44s__10160_238,Install,0.15,,4ca15346-5944-45e9-86ac-ca103edb9655,1558475057,2019-05-22 05:44:17,1558475179,2019-05-22 05:46:19,1558475210,aazz100011cdv201060521214445249300c28826eaed1d3434,http://conv.mobpeas.com/notify/110113/?click_id=aazz100011cdv201060521214445249300c28826eaed1d3434,idfa_4ca15346-5944-45e9-86ac-ca103edb9655,%E1%80%97%E1%80%99%E1%80%AC
C2j9DDxfROWqiZlfHFZQPg,mobpeas,114_114s__44s__10160_238,Install,0.15,,07be8df4-8b13-4a00-b037-d1f974e51766,1558477299,2019-05-22 06:21:39,1558477396,2019-05-22 06:23:16,1558477427,aazz100011cdv201060521222144a4afcbfd31e2cac6015746,http://conv.mobpeas.com/notify/110113/?click_id=aazz100011cdv201060521222144a4afcbfd31e2cac6015746,idfa_07be8df4-8b13-4a00-b037-d1f974e51766,%E1%80%97%E1%80%99%E1%80%AC
C2j9DDxfROWqiZlfHFZQPg,mobpeas,114_114s__44s__10160_238,Install,0.15,,fb015d9f-836a-47cd-82a7-eb14f031d06d,1558477191,2019-05-22 06:19:51,1558477301,2019-05-22 06:21:41,1558477333,aazz100011cdv201060521221946c5b8c29bcecb321ba1e85c,http://conv.mobpeas.com/notify/110113/?click_id=aazz100011cdv201060521221946c5b8c29bcecb321ba1e85c,idfa_fb015d9f-836a-47cd-82a7-eb14f031d06d,%E1%80%97%E1%80%99%E1%80%AC
C2j9DDxfROWqiZlfHFZQPg,mobpeas,114_114s__44s__10160_238,Install,0.15,,4e5a1dee-1263-458e-9417-589c1e246bfb,1558476809,2019-05-22 06:13:29,1558476895,2019-05-22 06:14:55,1558476925,aazz100011cdv2010605212213423ba1d04e1074a42013738d,http://conv.mobpeas.com/notify/110113/?click_id=aazz100011cdv2010605212213423ba1d04e1074a42013738d,idfa_4e5a1dee-1263-458e-9417-589c1e246bfb,%E1%80%97%E1%80%99%E1%80%AC
C2j9DDxfROWqiZlfHFZQPg,mobpeas,114_114s__44s__10160_238,Install,0.15,,677b0521-d904-4652-a3c0-12d701b07aae,1558474692,2019-05-22 05:38:12,1558474932,2019-05-22 05:42:12,1558474963,aazz100011cdv201060521213844729794f77787d8f120fc4c,http://conv.mobpeas.com/notify/110113/?click_id=aazz100011cdv201060521213844729794f77787d8f120fc4c,idfa_677b0521-d904-4652-a3c0-12d701b07aae,%E1%80%97%E1%80%99%E1%80%AC
C2j9DDxfROWqiZlfHFZQPg,mobpeas,114_114s__44s__10160_238,Install,0.15,,d85dbedc-bd24-4270-ab6c-03e1aefdd459,1558476845,2019-05-22 06:14:05,1558476948,2019-05-22 06:15:48,1558476979,aazz100011cdv20106052122144f06a627dad5747eaa06348a,http://conv.mobpeas.com/notify/110113/?click_id=aazz100011cdv20106052122144f06a627dad5747eaa06348a,idfa_d85dbedc-bd24-4270-ab6c-03e1aefdd459,%E1%80%97%E1%80%99%E1%80%AC
C2j9DDxfROWqiZlfHFZQPg,mobpeas,114_114s__44s__10160_238,Install,0.15,,896b7aad-64de-4438-b9b3-d1aa5b26fd17,1558480593,2019-05-22 07:16:33,1558480716,2019-05-22 07:18:36,1558480746,aazz100011cdv20107052123164e5e905aef019b99e86b00bc,http://conv.mobpeas.com/notify/110113/?click_id=aazz100011cdv20107052123164e5e905aef019b99e86b00bc,idfa_896b7aad-64de-4438-b9b3-d1aa5b26fd17,%E1%80%97%E1%80%99%E1%80%AC
C2j9DDxfROWqiZlfHFZQPg,mobpeas,114_114s__44s__10160_238,Install,0.15,,370a70ba-ebd2-4e97-978a-d62082ebc161,1558478030,2019-05-22 06:33:50,1558478119,2019-05-22 06:35:19,1558478150,aazz100011cdv20106052122334768893039adc43a505141af,http://conv.mobpeas.com/notify/110113/?click_id=aazz100011cdv20106052122334768893039adc43a505141af,idfa_370a70ba-ebd2-4e97-978a-d62082ebc161,%E1%80%97%E1%80%99%E1%80%AC
C2j9DDxfROWqiZlfHFZQPg,mobpeas,114_114s__44s__10160_238,Install,0.15,,6c5ed573-ad41-4907-a534-a4dcc45d90e7,1558475964,2019-05-22 05:59:24,1558476044,2019-05-22 06:00:44,1558476075,aazz100011cdv20106052121594b6e81c314144878866a80fe,http://conv.mobpeas.com/notify/110113/?click_id=aazz100011cdv20106052121594b6e81c314144878866a80fe,idfa_6c5ed573-ad41-4907-a534-a4dcc45d90e7,%E1%80%97%E1%80%99%E1%80%AC
C2j9DDxfROWqiZlfHFZQPg,mobpeas,114_114s__44s__10160_238,Install,0.15,,d262cb64-64f8-4509-973f-dac49f35954b,1558476797,2019-05-22 06:13:17,1558476909,2019-05-22 06:15:09,1558476939,aazz100011cdv20106052122124efab4bae61ea99e6b875a97,http://conv.mobpeas.com/notify/110113/?click_id=aazz100011cdv20106052122124efab4bae61ea99e6b875a97,idfa_d262cb64-64f8-4509-973f-dac49f35954b,%E1%80%97%E1%80%99%E1%80%AC
C2j9DDxfROWqiZlfHFZQPg,mobpeas,114_114s__44s__10160_238,Install,0.15,,66f0a78e-4c12-415d-a7c1-f2435bf547df,1558477189,2019-05-22 06:19:49,1558477288,2019-05-22 06:21:28,1558477319,aazz100011cdv201060521221940e9a3b8867291de4c70672c,http://conv.mobpeas.com/notify/110113/?click_id=aazz100011cdv201060521221940e9a3b8867291de4c70672c,idfa_66f0a78e-4c12-415d-a7c1-f2435bf547df,%E1%80%97%E1%80%99%E1%80%AC
C2j9DDxfROWqiZlfHFZQPg,mobpeas,114_114s__44s__10160_238,Install,0.15,,53efc3e3-ddff-474b-88cd-ec5f40c4bc70,1558479720,2019-05-22 07:02:00,1558479946,2019-05-22 07:05:46,1558479976,aazz100011cdv20106052123014a49a2b4150df164cc32cd9f,http://conv.mobpeas.com/notify/110113/?click_id=aazz100011cdv20106052123014a49a2b4150df164cc32cd9f,idfa_53efc3e3-ddff-474b-88cd-ec5f40c4bc70,%E1%80%97%E1%80%99%E1%80%AC
C2j9DDxfROWqiZlfHFZQPg,mobpeas,114_114s__44s__10160_238,Install,0.15,,85b2ece7-7034-48c8-8ad8-b5486e2ff005,1558473887,2019-05-22 05:24:47,1558474010,2019-05-22 05:26:50,1558474041,aazz100011cdv20106052121244fbe8c49dce1c52f60861d45,http://conv.mobpeas.com/notify/110113/?click_id=aazz100011cdv20106052121244fbe8c49dce1c52f60861d45,idfa_85b2ece7-7034-48c8-8ad8-b5486e2ff005,%E1%80%97%E1%80%99%E1%80%AC
C2j9DDxfROWqiZlfHFZQPg,mobpeas,114_114s__44s__10160_238,Install,0.15,,a49583e6-3c1d-43c5-bf2a-bb175f756ac7,1558475986,2019-05-22 05:59:46,1558476112,2019-05-22 06:01:52,1558476143,aazz100011cdv20106052121594010a9882a50c08200fdc6e9,http://conv.mobpeas.com/notify/110113/?click_id=aazz100011cdv20106052121594010a9882a50c08200fdc6e9,idfa_a49583e6-3c1d-43c5-bf2a-bb175f756ac7,%E1%80%97%E1%80%99%E1%80%AC
C2j9DDxfROWqiZlfHFZQPg,mobpeas,114_114s__44s__10160_238,Install,0.15,,d5dd4232-02f8-4ab9-8ac6-fe8c69e0200b,1558474498,2019-05-22 05:34:58,1558474594,2019-05-22 05:36:34,1558474625,aazz100011cdv2010605212134466c8e4cf9c005bf837b2c7c,http://conv.mobpeas.com/notify/110113/?click_id=aazz100011cdv2010605212134466c8e4cf9c005bf837b2c7c,idfa_d5dd4232-02f8-4ab9-8ac6-fe8c69e0200b,%E1%80%97%E1%80%99%E1%80%AC
C2j9DDxfROWqiZlfHFZQPg,mobpeas,114_114s__44s__10160_238,Install,0.15,,008b1536-23c5-4d55-9b7c-a9e1ae26922e,1558478807,2019-05-22 06:46:47,1558478896,2019-05-22 06:48:16,1558478927,aazz100011cdv2010605212246439e9e7de52dbd35363e1d54,http://conv.mobpeas.com/notify/110113/?click_id=aazz100011cdv2010605212246439e9e7de52dbd35363e1d54,idfa_008b1536-23c5-4d55-9b7c-a9e1ae26922e,%E1%80%97%E1%80%99%E1%80%AC
C2j9DDxfROWqiZlfHFZQPg,mobpeas,114_114s__44s__10160_238,Install,0.15,,6f24904c-d48a-4d1d-8344-54d199350d38,1558475905,2019-05-22 05:58:25,1558476155,2019-05-22 06:02:35,1558476186,aazz100011cdv20106052121584d72bfabc580991c4bfbc118,http://conv.mobpeas.com/notify/110113/?click_id=aazz100011cdv20106052121584d72bfabc580991c4bfbc118,idfa_6f24904c-d48a-4d1d-8344-54d199350d38,%E1%80%97%E1%80%99%E1%80%AC
C2j9DDxfROWqiZlfHFZQPg,mobpeas,114_114s__44s__10160_238,Install,0.15,,00022c69-e661-4a20-81d7-249445d47df1,1558479167,2019-05-22 06:52:47,1558479265,2019-05-22 06:54:25,1558479296,aazz100011cdv201060521225243fdb1e0cce584389b38ff64,http://conv.mobpeas.com/notify/110113/?click_id=aazz100011cdv201060521225243fdb1e0cce584389b38ff64,idfa_00022c69-e661-4a20-81d7-249445d47df1,%E1%80%97%E1%80%99%E1%80%AC
C2j9DDxfROWqiZlfHFZQPg,mobpeas,114_114s__44s__10160_238,Install,0.15,,191e73eb-3d92-4d81-8e55-fc0e41ff3293,1558480213,2019-05-22 07:10:13,1558480323,2019-05-22 07:12:03,1558480354,aazz100011cdv201070521231047e6b4dc9668e3a6343bb644,http://conv.mobpeas.com/notify/110113/?click_id=aazz100011cdv201070521231047e6b4dc9668e3a6343bb644,idfa_191e73eb-3d92-4d81-8e55-fc0e41ff3293,%E1%80%97%E1%80%99%E1%80%AC
C2j9DDxfROWqiZlfHFZQPg,mobpeas,114_114s__44s__10160_238,Install,0.15,,3e47c613-2999-4804-bb9b-f1b6560c2e88,1558470874,2019-05-22 04:34:34,1558471138,2019-05-22 04:38:58,1558471169,aazz100011cdv201060521203444c1a81a123fedc1a838ff41,http://conv.mobpeas.com/notify/110113/?click_id=aazz100011cdv201060521203444c1a81a123fedc1a838ff41,idfa_3e47c613-2999-4804-bb9b-f1b6560c2e88,%E1%80%97%E1%80%99%E1%80%AC
C2j9DDxfROWqiZlfHFZQPg,mobpeas,114_114s__44s__10160_238,Install,0.15,,6acbc5e9-abf3-47bb-9087-bc97f7e221f2,1558399506,2019-05-21 08:45:06,1558399598,2019-05-21 08:46:38,1558399630,aazz100011cdv20106052100454dae88e5d3fc898a68a2c815,http://conv.mobpeas.com/notify/110113/?click_id=aazz100011cdv20106052100454dae88e5d3fc898a68a2c815,idfa_6acbc5e9-abf3-47bb-9087-bc97f7e221f2,%E1%80%97%E1%80%99%E1%80%AC
C2j9DDxfROWqiZlfHFZQPg,mobpeas,114_114s__44s__10160_238,Install,0.15,,2d190438-b5fc-4894-8985-6451f8d5cfb4,1558479490,2019-05-22 06:58:10,1558479594,2019-05-22 06:59:54,1558479625,aazz100011cdv201060521225745ebbc4845bb27f96f803856,http://conv.mobpeas.com/notify/110113/?click_id=aazz100011cdv201060521225745ebbc4845bb27f96f803856,idfa_2d190438-b5fc-4894-8985-6451f8d5cfb4,%E1%80%97%E1%80%99%E1%80%AC
C2j9DDxfROWqiZlfHFZQPg,mobpeas,114_114s__44s__10160_238,Install,0.15,,96a72d90-0b32-4847-831b-5e57e5384986,1558477081,2019-05-22 06:18:01,1558477167,2019-05-22 06:19:27,1558477198,aazz100011cdv2010605212217452f8340a54f691450df3a80,http://conv.mobpeas.com/notify/110113/?click_id=aazz100011cdv2010605212217452f8340a54f691450df3a80,idfa_96a72d90-0b32-4847-831b-5e57e5384986,%E1%80%97%E1%80%99%E1%80%AC
C2j9DDxfROWqiZlfHFZQPg,mobpeas,114_114s__44s__10160_238,Install,0.15,,58e524ab-a592-4adc-8da8-3bc2745d212b,1558476900,2019-05-22 06:15:00,1558476994,2019-05-22 06:16:34,1558477025,aazz100011cdv2010605212214419e84c23d5cdc843427905c,http://conv.mobpeas.com/notify/110113/?click_id=aazz100011cdv2010605212214419e84c23d5cdc843427905c,idfa_58e524ab-a592-4adc-8da8-3bc2745d212b,%E1%80%97%E1%80%99%E1%80%AC
C2j9DDxfROWqiZlfHFZQPg,mobpeas,114_114s__44s__10160_238,Install,0.15,,66be1ff0-e5a2-4973-ad43-23b4ea1de6b5,1558459215,2019-05-22 01:20:15,1558459664,2019-05-22 01:27:44,1558459696,aazz100011cdv201060521172048ca9d9f570b7bcd8c63a218,http://conv.mobpeas.com/notify/110113/?click_id=aazz100011cdv201060521172048ca9d9f570b7bcd8c63a218,idfa_66be1ff0-e5a2-4973-ad43-23b4ea1de6b5,%E1%80%97%E1%80%99%E1%80%AC
C2j9DDxfROWqiZlfHFZQPg,mobpeas,114_114s__44s__10160_238,Install,0.15,,c28c6ffe-0a14-48d4-a07e-aa5a7f1387f9,1558480756,2019-05-22 07:19:16,1558480842,2019-05-22 07:20:42,1558480873,aazz100011cdv20107052123194ad6870f28f30cd3e9218c98,http://conv.mobpeas.com/notify/110113/?click_id=aazz100011cdv20107052123194ad6870f28f30cd3e9218c98,idfa_c28c6ffe-0a14-48d4-a07e-aa5a7f1387f9,%E1%80%97%E1%80%99%E1%80%AC
C2j9DDxfROWqiZlfHFZQPg,mobpeas,114_114s__44s__10160_238,Install,0.15,,2dbef343-daa7-4c07-bbf7-ead26e54fe53,1558468371,2019-05-22 03:52:51,1558468462,2019-05-22 03:54:22,1558468493,aazz100011cdv2010605211952483c808e0d2b35ff14a3759f,http://conv.mobpeas.com/notify/110113/?click_id=aazz100011cdv2010605211952483c808e0d2b35ff14a3759f,idfa_2dbef343-daa7-4c07-bbf7-ead26e54fe53,%E1%80%97%E1%80%99%E1%80%AC
C2j9DDxfROWqiZlfHFZQPg,mobpeas,114_114s__44s__10160_238,Install,0.15,,56b927b0-6e50-45b1-9638-477f2535664c,1558478628,2019-05-22 06:43:48,1558478738,2019-05-22 06:45:38,1558478769,aazz100011cdv20106052122434666b3741ab348f326d76815,http://conv.mobpeas.com/notify/110113/?click_id=aazz100011cdv20106052122434666b3741ab348f326d76815,idfa_56b927b0-6e50-45b1-9638-477f2535664c,%E1%80%97%E1%80%99%E1%80%AC
C2j9DDxfROWqiZlfHFZQPg,mobpeas,114_114s__44s__10160_238,Install,0.15,,4f424d82-9cbe-42e6-8310-c202165ca226,1558480958,2019-05-22 07:22:38,1558481052,2019-05-22 07:24:12,1558481083,aazz100011cdv2010705212322491a8ebb359f5c70892a0699,http://conv.mobpeas.com/notify/110113/?click_id=aazz100011cdv2010705212322491a8ebb359f5c70892a0699,idfa_4f424d82-9cbe-42e6-8310-c202165ca226,%E1%80%97%E1%80%99%E1%80%AC
C2j9DDxfROWqiZlfHFZQPg,mobpeas,114_114s__44s__10160_238,Install,0.15,,b1250b58-30c8-48f5-9194-e739c354f5a5,1558475030,2019-05-22 05:43:50,1558475160,2019-05-22 05:46:00,1558475191,aazz100011cdv20106052121434b0a930ec5c5559882046589,http://conv.mobpeas.com/notify/110113/?click_id=aazz100011cdv20106052121434b0a930ec5c5559882046589,idfa_b1250b58-30c8-48f5-9194-e739c354f5a5,%E1%80%97%E1%80%99%E1%80%AC
C2j9DDxfROWqiZlfHFZQPg,mobpeas,114_114s__44s__10160_238,Install,0.15,,7209a671-7cb4-41b2-aacd-d266202199d8,1558468197,2019-05-22 03:49:57,1558468288,2019-05-22 03:51:28,1558468319,aazz100011cdv201060521194947af9f31276636ca0afb2843,http://conv.mobpeas.com/notify/110113/?click_id=aazz100011cdv201060521194947af9f31276636ca0afb2843,idfa_7209a671-7cb4-41b2-aacd-d266202199d8,%E1%80%97%E1%80%99%E1%80%AC
C2j9DDxfROWqiZlfHFZQPg,mobpeas,114_114s__44s__10160_238,Install,0.15,,996dbbe7-8c5d-4bfb-9e03-75fd9ee93381,1558479890,2019-05-22 07:04:50,1558480024,2019-05-22 07:07:04,1558480054,aazz100011cdv20107052123044ede9f235a6e2325ec921306,http://conv.mobpeas.com/notify/110113/?click_id=aazz100011cdv20107052123044ede9f235a6e2325ec921306,idfa_996dbbe7-8c5d-4bfb-9e03-75fd9ee93381,%E1%80%97%E1%80%99%E1%80%AC
C2j9DDxfROWqiZlfHFZQPg,mobpeas,114_114s__44s__10160_238,Install,0.15,,c8455c97-eec8-49c9-97e3-1985efafccb8,1558386460,2019-05-21 05:07:40,1558386557,2019-05-21 05:09:17,1558386588,aazz100011cdv2010605202107470fb7790828d2a4612838cf,http://conv.mobpeas.com/notify/110113/?click_id=aazz100011cdv2010605202107470fb7790828d2a4612838cf,idfa_c8455c97-eec8-49c9-97e3-1985efafccb8,%E1%80%97%E1%80%99%E1%80%AC
C2j9DDxfROWqiZlfHFZQPg,mobpeas,114_114s__44s__10160_238,Install,0.15,,87a85f31-6699-4fab-a3ac-73592f8853f4,1558476845,2019-05-22 06:14:05,1558476938,2019-05-22 06:15:38,1558476969,aazz100011cdv20106052122134df09cc1f675290cd517c992,http://conv.mobpeas.com/notify/110113/?click_id=aazz100011cdv20106052122134df09cc1f675290cd517c992,idfa_87a85f31-6699-4fab-a3ac-73592f8853f4,%E1%80%97%E1%80%99%E1%80%AC
C2j9DDxfROWqiZlfHFZQPg,mobpeas,114_114s__44s__10160_238,Install,0.15,,702fe6b6-2ab8-4d64-8672-7248376c81db,1558470203,2019-05-22 04:23:23,1558470308,2019-05-22 04:25:08,1558470339,aazz100011cdv2010605212023451eb3c26ab111b8cf041c61,http://conv.mobpeas.com/notify/110113/?click_id=aazz100011cdv2010605212023451eb3c26ab111b8cf041c61,idfa_702fe6b6-2ab8-4d64-8672-7248376c81db,%E1%80%97%E1%80%99%E1%80%AC
C2j9DDxfROWqiZlfHFZQPg,mobpeas,114_114s__44s__10160_238,Install,0.15,,d9f76bd9-59a5-498d-971e-c20c3e2baa7e,1558478989,2019-05-22 06:49:49,1558479212,2019-05-22 06:53:32,1558479242,aazz100011cdv201060521224948a7816d22caa2e4883ba814,http://conv.mobpeas.com/notify/110113/?click_id=aazz100011cdv201060521224948a7816d22caa2e4883ba814,idfa_d9f76bd9-59a5-498d-971e-c20c3e2baa7e,%E1%80%97%E1%80%99%E1%80%AC
C2j9DDxfROWqiZlfHFZQPg,mobpeas,114_114s__44s__10160_238,Install,0.15,,cbedf55b-a146-4db5-ad63-ba40072d3ccf,1558478736,2019-05-22 06:45:36,1558478831,2019-05-22 06:47:11,1558478862,aazz100011cdv20106052122454f75b6dbf4f3963b16432cec,http://conv.mobpeas.com/notify/110113/?click_id=aazz100011cdv20106052122454f75b6dbf4f3963b16432cec,idfa_cbedf55b-a146-4db5-ad63-ba40072d3ccf,%E1%80%97%E1%80%99%E1%80%AC
C2j9DDxfROWqiZlfHFZQPg,mobpeas,114_114s__44s__10160_238,Install,0.15,,05113d18-6a94-4c17-82c0-07d921aaa056,1558468549,2019-05-22 03:55:49,1558469198,2019-05-22 04:06:38,1558469229,aazz100011cdv20106052119554b81a4c3707f74f917edad5e,http://conv.mobpeas.com/notify/110113/?click_id=aazz100011cdv20106052119554b81a4c3707f74f917edad5e,idfa_05113d18-6a94-4c17-82c0-07d921aaa056,%E1%80%97%E1%80%99%E1%80%AC
C2j9DDxfROWqiZlfHFZQPg,mobpeas,114_114s__44s__10160_238,Install,0.15,,c0b4c2ca-e6c6-44c0-be77-333edd20b3a9,1558476608,2019-05-22 06:10:08,1558476881,2019-05-22 06:14:41,1558476911,aazz100011cdv2010605212210498282bd8ef52fd11b28b115,http://conv.mobpeas.com/notify/110113/?click_id=aazz100011cdv2010605212210498282bd8ef52fd11b28b115,idfa_c0b4c2ca-e6c6-44c0-be77-333edd20b3a9,%E1%80%97%E1%80%99%E1%80%AC
C2j9DDxfROWqiZlfHFZQPg,mobpeas,114_114s__44s__10160_238,Install,0.15,,ec2d8140-a6da-4583-a8fa-074b7b9a4d7a,1558391440,2019-05-21 06:30:40,1558391528,2019-05-21 06:32:08,1558391559,aazz100011cdv20106052022304ff8bbc9766b9be3913de881,http://conv.mobpeas.com/notify/110113/?click_id=aazz100011cdv20106052022304ff8bbc9766b9be3913de881,idfa_ec2d8140-a6da-4583-a8fa-074b7b9a4d7a,%E1%80%97%E1%80%99%E1%80%AC
C2j9DDxfROWqiZlfHFZQPg,mobpeas,114_114s__44s__10160_238,Install,0.15,,91b7c5eb-4ba3-4563-b2e5-dfdf2cfadbcd,1558469420,2019-05-22 04:10:20,1558469516,2019-05-22 04:11:56,1558469547,aazz100011cdv2010605212010474b859393362ac444df181c,http://conv.mobpeas.com/notify/110113/?click_id=aazz100011cdv2010605212010474b859393362ac444df181c,idfa_91b7c5eb-4ba3-4563-b2e5-dfdf2cfadbcd,%E1%80%97%E1%80%99%E1%80%AC
C2j9DDxfROWqiZlfHFZQPg,mobpeas,114_114s__44s__10160_238,Install,0.15,,0c991753-7862-4efe-865a-80a8c2b9a1ff,1558479694,2019-05-22 07:01:34,1558479796,2019-05-22 07:03:16,1558479827,aazz100011cdv201060521230143d095549ebd0f243539c580,http://conv.mobpeas.com/notify/110113/?click_id=aazz100011cdv201060521230143d095549ebd0f243539c580,idfa_0c991753-7862-4efe-865a-80a8c2b9a1ff,%E1%80%97%E1%80%99%E1%80%AC
C2j9DDxfROWqiZlfHFZQPg,mobpeas,114_114s__44s__10160_238,Install,0.15,,82e2b022-27e7-40e3-834b-2833abb7fb6c,1558471885,2019-05-22 04:51:25,1558471988,2019-05-22 04:53:08,1558472020,aazz100011cdv20106052120514534b8eabf7a3f78b3da5466,http://conv.mobpeas.com/notify/110113/?click_id=aazz100011cdv20106052120514534b8eabf7a3f78b3da5466,idfa_82e2b022-27e7-40e3-834b-2833abb7fb6c,%E1%80%97%E1%80%99%E1%80%AC
C2j9DDxfROWqiZlfHFZQPg,mobpeas,114_114s__44s__10160_238,Install,0.15,,39e57af4-d1b8-4b71-93c1-65372e0b40cb,1558470213,2019-05-22 04:23:33,1558470311,2019-05-22 04:25:11,1558470343,aazz100011cdv2010605212023407ab261c09849f96bd5d180,http://conv.mobpeas.com/notify/110113/?click_id=aazz100011cdv2010605212023407ab261c09849f96bd5d180,idfa_39e57af4-d1b8-4b71-93c1-65372e0b40cb,%E1%80%97%E1%80%99%E1%80%AC
C2j9DDxfROWqiZlfHFZQPg,mobpeas,114_114s__44s__10160_238,Install,0.15,,3fa59951-e035-408b-99c7-2097b9d4bb46,1558476000,2019-05-22 06:00:00,1558476094,2019-05-22 06:01:34,1558476125,aazz100011cdv20106052121594d118865517e4494839e2ac6,http://conv.mobpeas.com/notify/110113/?click_id=aazz100011cdv20106052121594d118865517e4494839e2ac6,idfa_3fa59951-e035-408b-99c7-2097b9d4bb46,%E1%80%97%E1%80%99%E1%80%AC
C2j9DDxfROWqiZlfHFZQPg,mobpeas,114_114s__44s__10160_238,Install,0.15,,5fc73462-de84-473f-ac19-c485be06f485,1558479918,2019-05-22 07:05:18,1558480038,2019-05-22 07:07:18,1558480070,aazz100011cdv20107052123054e189402f3a90f16c13a817b,http://conv.mobpeas.com/notify/110113/?click_id=aazz100011cdv20107052123054e189402f3a90f16c13a817b,idfa_5fc73462-de84-473f-ac19-c485be06f485,%E1%80%97%E1%80%99%E1%80%AC
C2j9DDxfROWqiZlfHFZQPg,mobpeas,114_114s__44s__10160_238,Install,0.15,,51a8fcf0-215d-4378-a021-065a0899cd6b,1558475892,2019-05-22 05:58:12,1558476003,2019-05-22 06:00:03,1558476035,aazz100011cdv201060521215842d7ad72a4033918252e1c98,http://conv.mobpeas.com/notify/110113/?click_id=aazz100011cdv201060521215842d7ad72a4033918252e1c98,idfa_51a8fcf0-215d-4378-a021-065a0899cd6b,%E1%80%97%E1%80%99%E1%80%AC
C2j9DDxfROWqiZlfHFZQPg,mobpeas,114_114s__44s__10160_238,Install,0.15,,a7e1469a-f1cf-435f-93dc-272cf033bc57,1558480262,2019-05-22 07:11:02,1558480374,2019-05-22 07:12:54,1558480406,aazz100011cdv201070521231048ed9918e0c772b0a3f32174,http://conv.mobpeas.com/notify/110113/?click_id=aazz100011cdv201070521231048ed9918e0c772b0a3f32174,idfa_a7e1469a-f1cf-435f-93dc-272cf033bc57,%E1%80%97%E1%80%99%E1%80%AC
C2j9DDxfROWqiZlfHFZQPg,mobpeas,114_114s__44s__10160_238,Install,0.15,,ecb4bb8f-8487-4970-9389-dee8538fff85,1558478476,2019-05-22 06:41:16,1558478638,2019-05-22 06:43:58,1558478668,aazz100011cdv201060521224141ce8f33abd1e0a8b531fd1f,http://conv.mobpeas.com/notify/110113/?click_id=aazz100011cdv201060521224141ce8f33abd1e0a8b531fd1f,idfa_ecb4bb8f-8487-4970-9389-dee8538fff85,%E1%80%97%E1%80%99%E1%80%AC
C2j9DDxfROWqiZlfHFZQPg,mobpeas,114_114s__44s__10160_238,Install,0.15,,e48e97d1-45d1-4732-bcbc-458b59f949b1,1558393487,2019-05-21 07:04:47,1558393584,2019-05-21 07:06:24,1558393614,aazz100011cdv2010605202304428c945ac21f7238bfe43b63,http://conv.mobpeas.com/notify/110113/?click_id=aazz100011cdv2010605202304428c945ac21f7238bfe43b63,idfa_e48e97d1-45d1-4732-bcbc-458b59f949b1,%E1%80%97%E1%80%99%E1%80%AC
C2j9DDxfROWqiZlfHFZQPg,mobpeas,114_114s__44s__10160_238,Install,0.15,,f9dc915d-79c3-4157-a81a-e263963c21b4,1558475859,2019-05-22 05:57:39,1558475943,2019-05-22 05:59:03,1558475977,aazz100011cdv2010605212157443c984d32c186c9d6cb46e9,http://conv.mobpeas.com/notify/110113/?click_id=aazz100011cdv2010605212157443c984d32c186c9d6cb46e9,idfa_f9dc915d-79c3-4157-a81a-e263963c21b4,%E1%80%97%E1%80%99%E1%80%AC
C2j9DDxfROWqiZlfHFZQPg,mobpeas,114_114s__44s__10160_238,Install,0.15,,a9ed0fe5-3bba-4e03-8e3e-11c7f492192b,1558476416,2019-05-22 06:06:56,1558476503,2019-05-22 06:08:23,1558476534,aazz100011cdv201060521220640a88ba435c32f9aa6438388,http://conv.mobpeas.com/notify/110113/?click_id=aazz100011cdv201060521220640a88ba435c32f9aa6438388,idfa_a9ed0fe5-3bba-4e03-8e3e-11c7f492192b,%E1%80%97%E1%80%99%E1%80%AC
C2j9DDxfROWqiZlfHFZQPg,mobpeas,114_114s__44s__10160_238,Install,0.15,,c292b626-1a61-4ea0-8127-11aa73fb6d2d,1558475399,2019-05-22 05:49:59,1558475731,2019-05-22 05:55:31,1558475761,aazz100011cdv201060521214943fdb096cc83fa07b40f89f3,http://conv.mobpeas.com/notify/110113/?click_id=aazz100011cdv201060521214943fdb096cc83fa07b40f89f3,idfa_c292b626-1a61-4ea0-8127-11aa73fb6d2d,%E1%80%97%E1%80%99%E1%80%AC
C2j9DDxfROWqiZlfHFZQPg,mobpeas,114_114s__44s__10160_238,Install,0.15,,17afbc2c-e075-44ad-a312-fbf35d9358e8,1558479847,2019-05-22 07:04:07,1558479948,2019-05-22 07:05:48,1558479980,aazz100011cdv20107052123034792bf149ecd1d8015750c61,http://conv.mobpeas.com/notify/110113/?click_id=aazz100011cdv20107052123034792bf149ecd1d8015750c61,idfa_17afbc2c-e075-44ad-a312-fbf35d9358e8,%E1%80%97%E1%80%99%E1%80%AC
C2j9DDxfROWqiZlfHFZQPg,mobpeas,114_114s__44s__10160_238,Install,0.15,,376be8de-f59b-4a19-a899-5745695d639d,1558386902,2019-05-21 05:15:02,1558387001,2019-05-21 05:16:41,1558387032,aazz100011cdv2010605202114439ca4311cbb39af97c56b0a,http://conv.mobpeas.com/notify/110113/?click_id=aazz100011cdv2010605202114439ca4311cbb39af97c56b0a,idfa_376be8de-f59b-4a19-a899-5745695d639d,%E1%80%97%E1%80%99%E1%80%AC
C2j9DDxfROWqiZlfHFZQPg,mobpeas,114_114s__44s__10160_238,Install,0.15,,10bce335-1e5e-4bda-87e0-88a042fc6f36,1558477177,2019-05-22 06:19:37,1558477271,2019-05-22 06:21:11,1558477303,aazz100011cdv20106052122194fcd9eab2bc59147297130b4,http://conv.mobpeas.com/notify/110113/?click_id=aazz100011cdv20106052122194fcd9eab2bc59147297130b4,idfa_10bce335-1e5e-4bda-87e0-88a042fc6f36,%E1%80%97%E1%80%99%E1%80%AC
C2j9DDxfROWqiZlfHFZQPg,mobpeas,114_114s__44s__10160_238,Install,0.15,,ea6626f2-6443-43a4-9ee4-f8f1727049f0,1558481151,2019-05-22 07:25:51,1558481264,2019-05-22 07:27:44,1558481295,aazz100011cdv201070521232541c783faa767854162edf0a4,http://conv.mobpeas.com/notify/110113/?click_id=aazz100011cdv201070521232541c783faa767854162edf0a4,idfa_ea6626f2-6443-43a4-9ee4-f8f1727049f0,%E1%80%97%E1%80%99%E1%80%AC
C2j9DDxfROWqiZlfHFZQPg,mobpeas,114_114s__44s__10160_238,Install,0.15,,f0119150-2b14-4f35-9ade-5872d366c35b,1558389458,2019-05-21 05:57:38,1558389549,2019-05-21 05:59:09,1558389580,aazz100011cdv20106052021574c01acaf28356e3d7ade20f5,http://conv.mobpeas.com/notify/110113/?click_id=aazz100011cdv20106052021574c01acaf28356e3d7ade20f5,idfa_f0119150-2b14-4f35-9ade-5872d366c35b,%E1%80%97%E1%80%99%E1%80%AC
C2j9DDxfROWqiZlfHFZQPg,mobpeas,114_114s__44s__10160_238,Install,0.15,,2f3fcd3e-97e8-4e7b-b70e-d08186846aed,1558390869,2019-05-21 06:21:09,1558390995,2019-05-21 06:23:15,1558391025,aazz100011cdv20106052022214ac19eab193a6e427298da03,http://conv.mobpeas.com/notify/110113/?click_id=aazz100011cdv20106052022214ac19eab193a6e427298da03,idfa_2f3fcd3e-97e8-4e7b-b70e-d08186846aed,%E1%80%97%E1%80%99%E1%80%AC
C2j9DDxfROWqiZlfHFZQPg,mobpeas,114_114s__44s__10160_238,Install,0.15,,8282b80d-7733-480c-9562-04c7dc20de1f,1558481142,2019-05-22 07:25:42,1558481254,2019-05-22 07:27:34,1558481285,aazz100011cdv201070521232549b6b440b1f54eaff57d8594,http://conv.mobpeas.com/notify/110113/?click_id=aazz100011cdv201070521232549b6b440b1f54eaff57d8594,idfa_8282b80d-7733-480c-9562-04c7dc20de1f,%E1%80%97%E1%80%99%E1%80%AC
C2j9DDxfROWqiZlfHFZQPg,mobpeas,114_114s__44s__10160_238,Install,0.15,,d01e7269-ba22-4fd9-a3cb-a658527d4da6,1558468743,2019-05-22 03:59:03,1558468840,2019-05-22 04:00:40,1558468871,aazz100011cdv20106052119584919a589c2f203871c1cefe9,http://conv.mobpeas.com/notify/110113/?click_id=aazz100011cdv20106052119584919a589c2f203871c1cefe9,idfa_d01e7269-ba22-4fd9-a3cb-a658527d4da6,%E1%80%97%E1%80%99%E1%80%AC
C2j9DDxfROWqiZlfHFZQPg,mobpeas,114_114s__44s__10160_238,Install,0.15,,86be9cd2-85c4-4551-9535-f420a9fbad3b,1558474320,2019-05-22 05:32:00,1558474735,2019-05-22 05:38:55,1558474766,aazz100011cdv20106052121314e57b880b30c3aea6e6aa229,http://conv.mobpeas.com/notify/110113/?click_id=aazz100011cdv20106052121314e57b880b30c3aea6e6aa229,idfa_86be9cd2-85c4-4551-9535-f420a9fbad3b,%E1%80%97%E1%80%99%E1%80%AC
C2j9DDxfROWqiZlfHFZQPg,mobpeas,114_114s__44s__10160_238,Install,0.15,,b6c7dbc4-cb2a-4fe8-81cc-f71a971bb454,1558479910,2019-05-22 07:05:10,1558480032,2019-05-22 07:07:12,1558480063,aazz100011cdv20107052123044fd89aba8b9b2d6f9ef51985,http://conv.mobpeas.com/notify/110113/?click_id=aazz100011cdv20107052123044fd89aba8b9b2d6f9ef51985,idfa_b6c7dbc4-cb2a-4fe8-81cc-f71a971bb454,%E1%80%97%E1%80%99%E1%80%AC
C2j9DDxfROWqiZlfHFZQPg,mobpeas,114_114s__44s__10160_238,Install,0.15,,fdcfb29f-7eae-48a6-88bf-ee33a4013313,1558471017,2019-05-22 04:36:57,1558471116,2019-05-22 04:38:36,1558471146,aazz100011cdv201060521203641a88e2d89e1f2180ff14c02,http://conv.mobpeas.com/notify/110113/?click_id=aazz100011cdv201060521203641a88e2d89e1f2180ff14c02,idfa_fdcfb29f-7eae-48a6-88bf-ee33a4013313,%E1%80%97%E1%80%99%E1%80%AC
C2j9DDxfROWqiZlfHFZQPg,mobpeas,114_114s__44s__10160_238,Install,0.15,,125b90ff-ae5f-4bda-b950-26096f4085cd,1558480307,2019-05-22 07:11:47,1558480407,2019-05-22 07:13:27,1558480438,aazz100011cdv201070521231140d38d569513e753833ef1cc,http://conv.mobpeas.com/notify/110113/?click_id=aazz100011cdv201070521231140d38d569513e753833ef1cc,idfa_125b90ff-ae5f-4bda-b950-26096f4085cd,%E1%80%97%E1%80%99%E1%80%AC
C2j9DDxfROWqiZlfHFZQPg,mobpeas,114_114s__44s__10160_238,Install,0.15,,6d8cef01-8913-4a6e-855a-fa73a8b0d1b3,1558469134,2019-05-22 04:05:34,1558469219,2019-05-22 04:06:59,1558469250,aazz100011cdv2010605212005478ab4319c5f79fcc56a1375,http://conv.mobpeas.com/notify/110113/?click_id=aazz100011cdv2010605212005478ab4319c5f79fcc56a1375,idfa_6d8cef01-8913-4a6e-855a-fa73a8b0d1b3,%E1%80%97%E1%80%99%E1%80%AC
C2j9DDxfROWqiZlfHFZQPg,mobpeas,114_114s__44s__10160_238,Install,0.15,,98f74a98-348d-4a4b-8b18-1e64d8f7983a,1558388548,2019-05-21 05:42:28,1558388663,2019-05-21 05:44:23,1558388693,aazz100011cdv201060520214247b0b08b94b06bb3537733fb,http://conv.mobpeas.com/notify/110113/?click_id=aazz100011cdv201060520214247b0b08b94b06bb3537733fb,idfa_98f74a98-348d-4a4b-8b18-1e64d8f7983a,%E1%80%97%E1%80%99%E1%80%AC
C2j9DDxfROWqiZlfHFZQPg,mobpeas,114_114s__44s__10160_238,Install,0.15,,916fd48a-affe-4b87-961d-6ae5c1ea8819,1558480377,2019-05-22 07:12:57,1558480460,2019-05-22 07:14:20,1558480491,aazz100011cdv20107052123124fb4a0a775beeec4134d68bd,http://conv.mobpeas.com/notify/110113/?click_id=aazz100011cdv20107052123124fb4a0a775beeec4134d68bd,idfa_916fd48a-affe-4b87-961d-6ae5c1ea8819,%E1%80%97%E1%80%99%E1%80%AC
C2j9DDxfROWqiZlfHFZQPg,mobpeas,114_114s__44s__10160_238,Install,0.15,,0bd817d7-7b21-487c-92e6-e90686333635,1558471235,2019-05-22 04:40:35,1558471341,2019-05-22 04:42:21,1558471372,aazz100011cdv201060521204044d88a92096a5b700ecf775f,http://conv.mobpeas.com/notify/110113/?click_id=aazz100011cdv201060521204044d88a92096a5b700ecf775f,idfa_0bd817d7-7b21-487c-92e6-e90686333635,%E1%80%97%E1%80%99%E1%80%AC
C2j9DDxfROWqiZlfHFZQPg,mobpeas,114_114s__44s__10160_238,Install,0.15,,759a8100-62e3-4353-88dd-6495227a9c21,1558470648,2019-05-22 04:30:48,1558470754,2019-05-22 04:32:34,1558470785,aazz100011cdv201060521203040d3a02a9301c3adca78277a,http://conv.mobpeas.com/notify/110113/?click_id=aazz100011cdv201060521203040d3a02a9301c3adca78277a,idfa_759a8100-62e3-4353-88dd-6495227a9c21,%E1%80%97%E1%80%99%E1%80%AC
C2j9DDxfROWqiZlfHFZQPg,mobpeas,114_114s__44s__10160_238,Install,0.15,,686c7561-f3a3-4c2a-ab99-5fc8def2fcaa,1558478276,2019-05-22 06:37:56,1558478866,2019-05-22 06:47:46,1558478897,aazz100011cdv20106052122374b6db807064c2b1fe4d6adb4,http://conv.mobpeas.com/notify/110113/?click_id=aazz100011cdv20106052122374b6db807064c2b1fe4d6adb4,idfa_686c7561-f3a3-4c2a-ab99-5fc8def2fcaa,%E1%80%97%E1%80%99%E1%80%AC
C2j9DDxfROWqiZlfHFZQPg,mobpeas,114_114s__44s__10160_238,Install,0.15,,199670a7-9daa-45d2-a1d0-24c7d05d41a5,1558479078,2019-05-22 06:51:18,1558479189,2019-05-22 06:53:09,1558479220,aazz100011cdv20106052122514230ac6ba6b6399a3c959c76,http://conv.mobpeas.com/notify/110113/?click_id=aazz100011cdv20106052122514230ac6ba6b6399a3c959c76,idfa_199670a7-9daa-45d2-a1d0-24c7d05d41a5,%E1%80%97%E1%80%99%E1%80%AC
C2j9DDxfROWqiZlfHFZQPg,mobpeas,114_114s__44s__10160_238,Install,0.15,,2e25aba7-61d2-4fcc-a33f-56578460ed17,1558476641,2019-05-22 06:10:41,1558476723,2019-05-22 06:12:03,1558476754,aazz100011cdv20106052122104f49a287764aa860056b1f74,http://conv.mobpeas.com/notify/110113/?click_id=aazz100011cdv20106052122104f49a287764aa860056b1f74,idfa_2e25aba7-61d2-4fcc-a33f-56578460ed17,%E1%80%97%E1%80%99%E1%80%AC
C2j9DDxfROWqiZlfHFZQPg,mobpeas,114_114s__44s__10160_238,Install,0.15,,6be346a7-0654-447a-adcf-f1c859da75b1,1558478644,2019-05-22 06:44:04,1558478725,2019-05-22 06:45:25,1558478756,aazz100011cdv2010605212244429aa3a42099c355dc8af657,http://conv.mobpeas.com/notify/110113/?click_id=aazz100011cdv2010605212244429aa3a42099c355dc8af657,idfa_6be346a7-0654-447a-adcf-f1c859da75b1,%E1%80%97%E1%80%99%E1%80%AC
C2j9DDxfROWqiZlfHFZQPg,mobpeas,114_114s__44s__10160_238,Install,0.15,,44c926df-efde-4c51-b54f-7d4bffb7f5c5,1558458867,2019-05-22 01:14:27,1558459152,2019-05-22 01:19:12,1558459183,aazz100011cdv20106052117144af9b119f9070ed1d6ca10a6,http://conv.mobpeas.com/notify/110113/?click_id=aazz100011cdv20106052117144af9b119f9070ed1d6ca10a6,idfa_44c926df-efde-4c51-b54f-7d4bffb7f5c5,%E1%80%97%E1%80%99%E1%80%AC
C2j9DDxfROWqiZlfHFZQPg,mobpeas,114_114s__44s__10160_238,Install,0.15,,2255778c-cf65-4c01-b358-46ebde38aac6,1558475999,2019-05-22 05:59:59,1558476108,2019-05-22 06:01:48,1558476139,aazz100011cdv20106052121594337bca74ec4ec039354bbd2,http://conv.mobpeas.com/notify/110113/?click_id=aazz100011cdv20106052121594337bca74ec4ec039354bbd2,idfa_2255778c-cf65-4c01-b358-46ebde38aac6,%E1%80%97%E1%80%99%E1%80%AC
C2j9DDxfROWqiZlfHFZQPg,mobpeas,114_114s__44s__10160_238,Install,0.15,,4e4b83b8-a420-4729-b7db-841a8e6d25e5,1558473972,2019-05-22 05:26:12,1558474455,2019-05-22 05:34:15,1558474485,aazz100011cdv20106052121264462a4c3b3d130fa64791fa2,http://conv.mobpeas.com/notify/110113/?click_id=aazz100011cdv20106052121264462a4c3b3d130fa64791fa2,idfa_4e4b83b8-a420-4729-b7db-841a8e6d25e5,%E1%80%97%E1%80%99%E1%80%AC
C2j9DDxfROWqiZlfHFZQPg,mobpeas,114_114s__44s__10160_238,Install,0.15,,bb5b1677-60c2-4af4-9509-6e52fe51f72c,1558479393,2019-05-22 06:56:33,1558479503,2019-05-22 06:58:23,1558479534,aazz100011cdv2010605212256473e91c6f15d578a1ecb27c8,http://conv.mobpeas.com/notify/110113/?click_id=aazz100011cdv2010605212256473e91c6f15d578a1ecb27c8,idfa_bb5b1677-60c2-4af4-9509-6e52fe51f72c,%E1%80%97%E1%80%99%E1%80%AC
C2j9DDxfROWqiZlfHFZQPg,mobpeas,114_114s__44s__10160_238,Install,0.15,,fb2023e0-f19f-421a-b61e-084852e6ade7,1558479502,2019-05-22 06:58:22,1558479616,2019-05-22 07:00:16,1558479647,aazz100011cdv20106052122584b5c9be01042fc1ed7030ebe,http://conv.mobpeas.com/notify/110113/?click_id=aazz100011cdv20106052122584b5c9be01042fc1ed7030ebe,idfa_fb2023e0-f19f-421a-b61e-084852e6ade7,%E1%80%97%E1%80%99%E1%80%AC
C2j9DDxfROWqiZlfHFZQPg,mobpeas,114_114s__44s__10160_238,Install,0.15,,6a5aab39-6e3e-49ed-8490-7b8cd5a7c099,1558391676,2019-05-21 06:34:36,1558391774,2019-05-21 06:36:14,1558391805,aazz100011cdv2010605202234431990602a237574ad7c680f,http://conv.mobpeas.com/notify/110113/?click_id=aazz100011cdv2010605202234431990602a237574ad7c680f,idfa_6a5aab39-6e3e-49ed-8490-7b8cd5a7c099,%E1%80%97%E1%80%99%E1%80%AC
C2j9DDxfROWqiZlfHFZQPg,mobpeas,114_114s__44s__10160_238,Install,0.15,,b2c2af76-90d6-4df2-9eb4-df8a29bbb125,1558477173,2019-05-22 06:19:33,1558477321,2019-05-22 06:22:01,1558477352,aazz100011cdv2010605212219455f85eae5a07428783da27f,http://conv.mobpeas.com/notify/110113/?click_id=aazz100011cdv2010605212219455f85eae5a07428783da27f,idfa_b2c2af76-90d6-4df2-9eb4-df8a29bbb125,%E1%80%97%E1%80%99%E1%80%AC
C2j9DDxfROWqiZlfHFZQPg,mobpeas,114_114s__44s__10160_238,Install,0.15,,bd037db1-6074-4a94-84cc-2de56c2d63ce,1558478865,2019-05-22 06:47:45,1558478954,2019-05-22 06:49:14,1558478984,aazz100011cdv20106052122474894ae2c456f57dd1ef6ffd9,http://conv.mobpeas.com/notify/110113/?click_id=aazz100011cdv20106052122474894ae2c456f57dd1ef6ffd9,idfa_bd037db1-6074-4a94-84cc-2de56c2d63ce,%E1%80%97%E1%80%99%E1%80%AC
C2j9DDxfROWqiZlfHFZQPg,mobpeas,114_114s__44s__10160_238,Install,0.15,,832d71bc-d647-4ba8-a6c9-453ebb7c7166,1558466492,2019-05-22 03:21:32,1558466587,2019-05-22 03:23:07,1558466618,aazz100011cdv2010605211921406194c1ecc894d5b373f82f,http://conv.mobpeas.com/notify/110113/?click_id=aazz100011cdv2010605211921406194c1ecc894d5b373f82f,idfa_832d71bc-d647-4ba8-a6c9-453ebb7c7166,%E1%80%97%E1%80%99%E1%80%AC
C2j9DDxfROWqiZlfHFZQPg,mobpeas,114_114s__44s__10160_238,Install,0.15,,d8798b1d-3d7e-45e2-8694-da8520da16ff,1558480068,2019-05-22 07:07:48,1558480451,2019-05-22 07:14:11,1558480482,aazz100011cdv201070521230741748ced9674f28cf29a82c1,http://conv.mobpeas.com/notify/110113/?click_id=aazz100011cdv201070521230741748ced9674f28cf29a82c1,idfa_d8798b1d-3d7e-45e2-8694-da8520da16ff,%E1%80%97%E1%80%99%E1%80%AC
C2j9DDxfROWqiZlfHFZQPg,mobpeas,114_114s__44s__10160_238,Install,0.15,,00c970bb-5e07-4db7-9eca-3c0a578dfb77,1558480912,2019-05-22 07:21:52,1558481001,2019-05-22 07:23:21,1558481032,aazz100011cdv201070521232146a187888566e1f2009c1f44,http://conv.mobpeas.com/notify/110113/?click_id=aazz100011cdv201070521232146a187888566e1f2009c1f44,idfa_00c970bb-5e07-4db7-9eca-3c0a578dfb77,%E1%80%97%E1%80%99%E1%80%AC
C2j9DDxfROWqiZlfHFZQPg,mobpeas,114_114s__44s__10160_238,Install,0.15,,0f53fb0e-0dd8-4f4e-ae5b-dc91f085d0b7,1558480067,2019-05-22 07:07:47,1558480163,2019-05-22 07:09:23,1558480194,aazz100011cdv201070521230747bf930d9482dd39121d27ca,http://conv.mobpeas.com/notify/110113/?click_id=aazz100011cdv201070521230747bf930d9482dd39121d27ca,idfa_0f53fb0e-0dd8-4f4e-ae5b-dc91f085d0b7,%E1%80%97%E1%80%99%E1%80%AC
C2j9DDxfROWqiZlfHFZQPg,mobpeas,114_114s__44s__10160_238,Install,0.15,,2fad6427-9226-46f2-82d0-d872d3b62571,1558473970,2019-05-22 05:26:10,1558474063,2019-05-22 05:27:43,1558474094,aazz100011cdv201060521212644f5a7e70b6a306487e0e8fd,http://conv.mobpeas.com/notify/110113/?click_id=aazz100011cdv201060521212644f5a7e70b6a306487e0e8fd,idfa_2fad6427-9226-46f2-82d0-d872d3b62571,%E1%80%97%E1%80%99%E1%80%AC
C2j9DDxfROWqiZlfHFZQPg,mobpeas,114_114s__44s__10160_238,Install,0.15,,673a3e41-c1cc-4cae-a4fc-0eb984c5a807,1558478113,2019-05-22 06:35:13,1558478190,2019-05-22 06:36:30,1558478221,aazz100011cdv20106052122354aa1aaf4487d9e09b8dc99e5,http://conv.mobpeas.com/notify/110113/?click_id=aazz100011cdv20106052122354aa1aaf4487d9e09b8dc99e5,idfa_673a3e41-c1cc-4cae-a4fc-0eb984c5a807,%E1%80%97%E1%80%99%E1%80%AC
C2j9DDxfROWqiZlfHFZQPg,mobpeas,114_114s__44s__10160_238,Install,0.15,,381bc595-fa2d-421d-b87a-8eacb5c38be9,1558473428,2019-05-22 05:17:08,1558473623,2019-05-22 05:20:23,1558473655,aazz100011cdv201060521211742bcb6a7eb8ca7120537c7e0,http://conv.mobpeas.com/notify/110113/?click_id=aazz100011cdv201060521211742bcb6a7eb8ca7120537c7e0,idfa_381bc595-fa2d-421d-b87a-8eacb5c38be9,%E1%80%97%E1%80%99%E1%80%AC
C2j9DDxfROWqiZlfHFZQPg,mobpeas,114_114s__44s__10160_238,Install,0.15,,a0b0f4ac-6949-456a-b67d-a42ca13a05f9,1558480099,2019-05-22 07:08:19,1558480185,2019-05-22 07:09:45,1558480216,aazz100011cdv2010605212308460d98245570d84ebca68454,http://conv.mobpeas.com/notify/110113/?click_id=aazz100011cdv2010605212308460d98245570d84ebca68454,idfa_a0b0f4ac-6949-456a-b67d-a42ca13a05f9,%E1%80%97%E1%80%99%E1%80%AC
C2j9DDxfROWqiZlfHFZQPg,mobpeas,114_114s__44s__10160_238,Install,0.15,,e0d4376c-be43-4eaf-a0e0-3bfad051d5d8,1558476261,2019-05-22 06:04:21,1558476365,2019-05-22 06:06:05,1558476396,aazz100011cdv201060521220442c9964f571513c0d80db09a,http://conv.mobpeas.com/notify/110113/?click_id=aazz100011cdv201060521220442c9964f571513c0d80db09a,idfa_e0d4376c-be43-4eaf-a0e0-3bfad051d5d8,%E1%80%97%E1%80%99%E1%80%AC
C2j9DDxfROWqiZlfHFZQPg,mobpeas,114_114s__44s__10160_238,Install,0.15,,ec69586a-3921-4832-9e89-864dd5ff3011,1558466892,2019-05-22 03:28:12,1558467005,2019-05-22 03:30:05,1558467036,aazz100011cdv20106052119284146bb559d228a5229df0631,http://conv.mobpeas.com/notify/110113/?click_id=aazz100011cdv20106052119284146bb559d228a5229df0631,idfa_ec69586a-3921-4832-9e89-864dd5ff3011,%E1%80%97%E1%80%99%E1%80%AC
C2j9DDxfROWqiZlfHFZQPg,mobpeas,114_114s__44s__10160_238,Install,0.15,,78a43d23-0322-42cc-ab60-f084fb0f1c0c,1558472906,2019-05-22 05:08:26,1558473167,2019-05-22 05:12:47,1558473198,aazz100011cdv201060521210847129f45e428c64ce2ac222b,http://conv.mobpeas.com/notify/110113/?click_id=aazz100011cdv201060521210847129f45e428c64ce2ac222b,idfa_78a43d23-0322-42cc-ab60-f084fb0f1c0c,%E1%80%97%E1%80%99%E1%80%AC
C2j9DDxfROWqiZlfHFZQPg,mobpeas,114_114s__44s__10160_238,Install,0.15,,e3d62b4b-e1e3-43d8-9ffc-316ae5c4805a,1558479360,2019-05-22 06:56:00,1558479772,2019-05-22 07:02:52,1558479803,aazz100011cdv201060521225546919abe0e7849eff22cc047,http://conv.mobpeas.com/notify/110113/?click_id=aazz100011cdv201060521225546919abe0e7849eff22cc047,idfa_e3d62b4b-e1e3-43d8-9ffc-316ae5c4805a,%E1%80%97%E1%80%99%E1%80%AC
C2j9DDxfROWqiZlfHFZQPg,mobpeas,114_114s__44s__10160_238,Install,0.15,,ea12be09-952d-45ee-be1f-e44e57eee00b,1558476611,2019-05-22 06:10:11,1558476705,2019-05-22 06:11:45,1558476736,aazz100011cdv201060521221041fcb351787a34ba297931b9,http://conv.mobpeas.com/notify/110113/?click_id=aazz100011cdv201060521221041fcb351787a34ba297931b9,idfa_ea12be09-952d-45ee-be1f-e44e57eee00b,%E1%80%97%E1%80%99%E1%80%AC
C2j9DDxfROWqiZlfHFZQPg,mobpeas,114_114s__44s__10160_238,Install,0.15,,ebcd463d-7475-4044-95e5-32603dffc1f3,1558473406,2019-05-22 05:16:46,1558473970,2019-05-22 05:26:10,1558474004,aazz100011cdv20106052121164134bc724bc0bd8363e3aa10,http://conv.mobpeas.com/notify/110113/?click_id=aazz100011cdv20106052121164134bc724bc0bd8363e3aa10,idfa_ebcd463d-7475-4044-95e5-32603dffc1f3,%E1%80%97%E1%80%99%E1%80%AC
C2j9DDxfROWqiZlfHFZQPg,mobpeas,114_114s__44s__10160_238,Install,0.15,,6e0e244b-2651-4c65-84aa-818aea39f4aa,1558480605,2019-05-22 07:16:45,1558480682,2019-05-22 07:18:02,1558480713,aazz100011cdv201070521231640a7883e2ea6fccd934a6873,http://conv.mobpeas.com/notify/110113/?click_id=aazz100011cdv201070521231640a7883e2ea6fccd934a6873,idfa_6e0e244b-2651-4c65-84aa-818aea39f4aa,%E1%80%97%E1%80%99%E1%80%AC
C2j9DDxfROWqiZlfHFZQPg,mobpeas,114_114s__44s__10160_238,Install,0.15,,d21a5b04-88a6-4578-a3bc-9d6d1c936e01,1558476113,2019-05-22 06:01:53,1558476711,2019-05-22 06:11:51,1558476741,aazz100011cdv201060521220145fd9e98ddf9d19e13aa0f17,http://conv.mobpeas.com/notify/110113/?click_id=aazz100011cdv201060521220145fd9e98ddf9d19e13aa0f17,idfa_d21a5b04-88a6-4578-a3bc-9d6d1c936e01,%E1%80%97%E1%80%99%E1%80%AC
C2j9DDxfROWqiZlfHFZQPg,mobpeas,114_114s__44s__10160_238,Install,0.15,,ca684db8-e529-4f77-b4a4-3b9207acb21c,1558478539,2019-05-22 06:42:19,1558478652,2019-05-22 06:44:12,1558478684,aazz100011cdv2010605212242497cb7aee9f5d4591b7d9123,http://conv.mobpeas.com/notify/110113/?click_id=aazz100011cdv2010605212242497cb7aee9f5d4591b7d9123,idfa_ca684db8-e529-4f77-b4a4-3b9207acb21c,%E1%80%97%E1%80%99%E1%80%AC
C2j9DDxfROWqiZlfHFZQPg,mobpeas,114_114s__44s__10160_238,Install,0.15,,d846899d-59ec-4877-a050-22a50c19cdfb,1558479530,2019-05-22 06:58:50,1558479627,2019-05-22 07:00:27,1558479658,aazz100011cdv201060521225847f49bd635caf5860418e212,http://conv.mobpeas.com/notify/110113/?click_id=aazz100011cdv201060521225847f49bd635caf5860418e212,idfa_d846899d-59ec-4877-a050-22a50c19cdfb,%E1%80%97%E1%80%99%E1%80%AC
C2j9DDxfROWqiZlfHFZQPg,mobpeas,114_114s__44s__10160_238,Install,0.15,,9e3f7cc4-04b4-4ba9-9b76-1b7fe470103b,1558476259,2019-05-22 06:04:19,1558476364,2019-05-22 06:06:04,1558476395,aazz100011cdv201060521220448d19c81599fdfca3448642a,http://conv.mobpeas.com/notify/110113/?click_id=aazz100011cdv201060521220448d19c81599fdfca3448642a,idfa_9e3f7cc4-04b4-4ba9-9b76-1b7fe470103b,%E1%80%97%E1%80%99%E1%80%AC
C2j9DDxfROWqiZlfHFZQPg,mobpeas,114_114s__44s__10160_238,Install,0.15,,159e5f31-1242-4085-affe-d002c7ed8e29,1558467644,2019-05-22 03:40:44,1558468142,2019-05-22 03:49:02,1558468173,aazz100011cdv20106052119404a10bb57c3510d023d34d2cb,http://conv.mobpeas.com/notify/110113/?click_id=aazz100011cdv20106052119404a10bb57c3510d023d34d2cb,idfa_159e5f31-1242-4085-affe-d002c7ed8e29,%E1%80%97%E1%80%99%E1%80%AC
C2j9DDxfROWqiZlfHFZQPg,mobpeas,114_114s__44s__10160_238,Install,0.15,,86ca0863-0f37-49bb-ab44-3bf38d56297c,1558371126,2019-05-21 00:52:06,1558371205,2019-05-21 00:53:25,1558371235,aazz100011cdv20106052016524df68cd6bdfa6162baad0be6,http://conv.mobpeas.com/notify/110113/?click_id=aazz100011cdv20106052016524df68cd6bdfa6162baad0be6,idfa_86ca0863-0f37-49bb-ab44-3bf38d56297c,%E1%80%97%E1%80%99%E1%80%AC
C2j9DDxfROWqiZlfHFZQPg,mobpeas,114_114s__44s__10160_238,Install,0.15,,5100bb90-2d3c-49fe-a649-57e7476a93e5,1558473399,2019-05-22 05:16:39,1558473497,2019-05-22 05:18:17,1558473528,aazz100011cdv201060521211640fabfd86d968305236ea8fe,http://conv.mobpeas.com/notify/110113/?click_id=aazz100011cdv201060521211640fabfd86d968305236ea8fe,idfa_5100bb90-2d3c-49fe-a649-57e7476a93e5,%E1%80%97%E1%80%99%E1%80%AC
C2j9DDxfROWqiZlfHFZQPg,mobpeas,114_114s__44s__10160_238,Install,0.15,,8efcd610-a089-4707-ad06-c7a7291e71ba,1558476285,2019-05-22 06:04:45,1558476421,2019-05-22 06:07:01,1558476452,aazz100011cdv2010605212204477a9668c9a4508c8c7ceb65,http://conv.mobpeas.com/notify/110113/?click_id=aazz100011cdv2010605212204477a9668c9a4508c8c7ceb65,idfa_8efcd610-a089-4707-ad06-c7a7291e71ba,%E1%80%97%E1%80%99%E1%80%AC
C2j9DDxfROWqiZlfHFZQPg,mobpeas,114_114s__44s__10160_238,Install,0.15,,61c644d8-910a-4d8c-833b-840023c6443a,1558475199,2019-05-22 05:46:39,1558475292,2019-05-22 05:48:12,1558475323,aazz100011cdv2010605212146487085326d84648d89d44b77,http://conv.mobpeas.com/notify/110113/?click_id=aazz100011cdv2010605212146487085326d84648d89d44b77,idfa_61c644d8-910a-4d8c-833b-840023c6443a,%E1%80%97%E1%80%99%E1%80%AC
C2j9DDxfROWqiZlfHFZQPg,mobpeas,114_114s__44s__10160_238,Install,0.15,,6c369952-3b94-4d93-bafe-0e9c22e2a288,1558471304,2019-05-22 04:41:44,1558471388,2019-05-22 04:43:08,1558471419,aazz100011cdv20106052120414def9106b6c603c513996fc2,http://conv.mobpeas.com/notify/110113/?click_id=aazz100011cdv20106052120414def9106b6c603c513996fc2,idfa_6c369952-3b94-4d93-bafe-0e9c22e2a288,%E1%80%97%E1%80%99%E1%80%AC
C2j9DDxfROWqiZlfHFZQPg,mobpeas,114_114s__44s__10160_238,Install,0.15,,538d03ab-46a9-40bc-8ce5-4c7c17eadbbb,1558470180,2019-05-22 04:23:00,1558470317,2019-05-22 04:25:17,1558470348,aazz100011cdv201060521202245f683bfdeb90bb73e2d36f7,http://conv.mobpeas.com/notify/110113/?click_id=aazz100011cdv201060521202245f683bfdeb90bb73e2d36f7,idfa_538d03ab-46a9-40bc-8ce5-4c7c17eadbbb,%E1%80%97%E1%80%99%E1%80%AC
C2j9DDxfROWqiZlfHFZQPg,mobpeas,114_114s__44s__10160_238,Install,0.15,,50c36891-999e-43de-9f53-e5657da08000,1558474364,2019-05-22 05:32:44,1558474449,2019-05-22 05:34:09,1558474479,aazz100011cdv201060521213244c1bd1d9f15199a2c991b3f,http://conv.mobpeas.com/notify/110113/?click_id=aazz100011cdv201060521213244c1bd1d9f15199a2c991b3f,idfa_50c36891-999e-43de-9f53-e5657da08000,%E1%80%97%E1%80%99%E1%80%AC
