cid,partner_id,channel_id,action_id,cpi,ip,idfa,click time,click datetime,install time,install datetime,postback time,click id,postback url,unique user id
pkYDZBvSSkeDJhZ2u0rvqw,mobrand,Wogj-z5IQguvDVsVbckaaw_pRfMXmhqXvs,Install,0.8,49.169.95.152,c796e52e-3d9f-4cde-bcde-5110f05c6eb5,1557022250,2019-05-05 10:10:50,1557022261,2019-05-05 10:11:01,1557022292,M_07dL0lbaYoHP0ml77S0LboZmw_M,http://api.mobrand.net/conversion/dNTzeDhPRAy2VZ02oRujJA?h=M_07dL0lbaYoHP0ml77S0LboZmw_M,idfa_c796e52e-3d9f-4cde-bcde-5110f05c6eb5,%ED%95%9C%EA%B5%AD%EC%96%B4
pkYDZBvSSkeDJhZ2u0rvqw,mobrand,Wogj-z5IQguvDVsVbckaaw_pRfMXmhqXvs,Install,0.8,110.70.15.143,7ee707ba-2c49-4e71-8df4-934767a57b4b,1557009233,2019-05-05 06:33:53,1557009419,2019-05-05 06:36:59,1557009450,M_07cgcleS6uQMHWDVBzTGenkzQ_M,http://api.mobrand.net/conversion/dNTzeDhPRAy2VZ02oRujJA?h=M_07cgcleS6uQMHWDVBzTGenkzQ_M,idfa_7ee707ba-2c49-4e71-8df4-934767a57b4b,%ED%95%9C%EA%B5%AD%EC%96%B4
pkYDZBvSSkeDJhZ2u0rvqw,mobrand,Wogj-z5IQguvDVsVbckaaw_pRfMXmhqXvs,Install,0.8,220.90.229.68,a0213394-5ad8-4876-af39-91745cb934d2,1557021339,2019-05-05 09:55:39,1557021550,2019-05-05 09:59:10,1557021581,M_07dxckdRgoENCCmqcm2uwHM3w_M,http://api.mobrand.net/conversion/dNTzeDhPRAy2VZ02oRujJA?h=M_07dxckdRgoENCCmqcm2uwHM3w_M,idfa_a0213394-5ad8-4876-af39-91745cb934d2,%ED%95%9C%EA%B5%AD%EC%96%B4
pkYDZBvSSkeDJhZ2u0rvqw,mobrand,Wogj-z5IQguvDVsVbckaaw_pRfMXmhqXvs,Install,0.8,119.66.208.237,24d0b479-278c-4038-a129-956dc2db7b33,1557026572,2019-05-05 11:22:52,1557026599,2019-05-05 11:23:19,1557026630,M_07dKpVPkb-sMcWiu6owaqi4xg_M,http://api.mobrand.net/conversion/dNTzeDhPRAy2VZ02oRujJA?h=M_07dKpVPkb-sMcWiu6owaqi4xg_M,idfa_24d0b479-278c-4038-a129-956dc2db7b33,%ED%95%9C%EA%B5%AD%EC%96%B4
pkYDZBvSSkeDJhZ2u0rvqw,mobrand,Wogj-z5IQguvDVsVbckaaw_pRfMXmhqXvs,Install,0.8,112.165.238.104,9e2c638c-95af-4819-bfe1-6ff49d7cc883,1557013170,2019-05-05 07:39:30,1557013183,2019-05-05 07:39:43,1557013214,M_07c2AwVNgTPPhWDeyw_E6gMiw_M,http://api.mobrand.net/conversion/dNTzeDhPRAy2VZ02oRujJA?h=M_07c2AwVNgTPPhWDeyw_E6gMiw_M,idfa_9e2c638c-95af-4819-bfe1-6ff49d7cc883,%ED%95%9C%EA%B5%AD%EC%96%B4
pkYDZBvSSkeDJhZ2u0rvqw,mobrand,Wogj-z5IQguvDVsVbckaaw_pRfMXmhqXvs,Install,0.8,121.178.32.245,bc8c529c-9628-425c-8902-5523de0e8f7e,1557023716,2019-05-05 10:35:16,1557023998,2019-05-05 10:39:58,1557024029,M_07dqOa7GazoONmTZTgDz4U2Tg_M,http://api.mobrand.net/conversion/dNTzeDhPRAy2VZ02oRujJA?h=M_07dqOa7GazoONmTZTgDz4U2Tg_M,idfa_bc8c529c-9628-425c-8902-5523de0e8f7e,%ED%95%9C%EA%B5%AD%EC%96%B4
pkYDZBvSSkeDJhZ2u0rvqw,mobrand,Wogj-z5IQguvDVsVbckaaw_pRfMXmhqXvs,Install,0.8,218.158.179.161,a711b556-11ba-4291-8fe9-48f54cb7893c,1557014900,2019-05-05 08:08:20,1557014946,2019-05-05 08:09:06,1557014976,M_07d7Z7EfBxKP5uqXDu6Tq1sLw_M,http://api.mobrand.net/conversion/dNTzeDhPRAy2VZ02oRujJA?h=M_07d7Z7EfBxKP5uqXDu6Tq1sLw_M,idfa_a711b556-11ba-4291-8fe9-48f54cb7893c,%ED%95%9C%EA%B5%AD%EC%96%B4
pkYDZBvSSkeDJhZ2u0rvqw,mobrand,Wogj-z5IQguvDVsVbckaaw_pRfMXmhqXvs,Install,0.8,116.42.133.186,01506ffa-211a-4f61-b008-af23b9302e4f,1556986693,2019-05-05 00:18:13,1556986730,2019-05-05 00:18:50,1556986761,M_07cyfYxioEKM16VWNoz-8vs0w_M,http://api.mobrand.net/conversion/dNTzeDhPRAy2VZ02oRujJA?h=M_07cyfYxioEKM16VWNoz-8vs0w_M,idfa_01506ffa-211a-4f61-b008-af23b9302e4f,%ED%95%9C%EA%B5%AD%EC%96%B4
pkYDZBvSSkeDJhZ2u0rvqw,mobrand,Wogj-z5IQguvDVsVbckaaw_pRfMXmhqXvs,Install,0.8,223.62.175.214,10ca60ef-886a-4f56-a27d-3121ece4f6db,1557005902,2019-05-05 05:38:22,1557005935,2019-05-05 05:38:55,1557005965,M_07cKc-TPPR7OX-retc4shdxkQ_M,http://api.mobrand.net/conversion/dNTzeDhPRAy2VZ02oRujJA?h=M_07cKc-TPPR7OX-retc4shdxkQ_M,idfa_10ca60ef-886a-4f56-a27d-3121ece4f6db,%ED%95%9C%EA%B5%AD%EC%96%B4
pkYDZBvSSkeDJhZ2u0rvqw,mobrand,Wogj-z5IQguvDVsVbckaaw_pRfMXmhqXvs,Install,0.8,1.247.102.100,b4c4d4a8-2f8b-4ff9-9391-c10a877bbd5f,1556991338,2019-05-05 01:35:38,1556991338,2019-05-05 01:35:38,1556991369,M_07crhVKrTBDMOeavjwvR0FVow_M,http://api.mobrand.net/conversion/dNTzeDhPRAy2VZ02oRujJA?h=M_07crhVKrTBDMOeavjwvR0FVow_M,idfa_b4c4d4a8-2f8b-4ff9-9391-c10a877bbd5f,%ED%95%9C%EA%B5%AD%EC%96%B4
pkYDZBvSSkeDJhZ2u0rvqw,mobrand,Wogj-z5IQguvDVsVbckaaw_pRfMXmhqXvs,Install,0.8,118.39.136.89,a122c97c-cbb0-45bd-8b0a-360040076e49,1556985898,2019-05-05 00:04:58,1556985936,2019-05-05 00:05:36,1556985968,M_07cnvK_bC3UNqKwLc5yvTNM9A_M,http://api.mobrand.net/conversion/dNTzeDhPRAy2VZ02oRujJA?h=M_07cnvK_bC3UNqKwLc5yvTNM9A_M,idfa_a122c97c-cbb0-45bd-8b0a-360040076e49,%ED%95%9C%EA%B5%AD%EC%96%B4
pkYDZBvSSkeDJhZ2u0rvqw,mobrand,Wogj-z5IQguvDVsVbckaaw_pRfMXmhqXvs,Install,0.8,58.78.145.208,b5c14f25-8d76-47e3-ae11-a5cf0f3ed2c1,1556986987,2019-05-05 00:23:07,1556986987,2019-05-05 00:23:07,1556987017,M_07cnv1j5sQMObeprMKgnZpW2A_M,http://api.mobrand.net/conversion/dNTzeDhPRAy2VZ02oRujJA?h=M_07cnv1j5sQMObeprMKgnZpW2A_M,idfa_b5c14f25-8d76-47e3-ae11-a5cf0f3ed2c1,%ED%95%9C%EA%B5%AD%EC%96%B4
pkYDZBvSSkeDJhZ2u0rvqw,mobrand,Wogj-z5IQguvDVsVbckaaw_pRfMXmhqXvs,Install,0.8,119.197.9.100,9a22bf3f-5388-4478-929f-dc6df9d54e5f,1557024246,2019-05-05 10:44:06,1557024378,2019-05-05 10:46:18,1557024409,M_07dBRpu0jXvNQiRPmvoTDiokQ_M,http://api.mobrand.net/conversion/dNTzeDhPRAy2VZ02oRujJA?h=M_07dBRpu0jXvNQiRPmvoTDiokQ_M,idfa_9a22bf3f-5388-4478-929f-dc6df9d54e5f,%ED%95%9C%EA%B5%AD%EC%96%B4
pkYDZBvSSkeDJhZ2u0rvqw,mobrand,Wogj-z5IQguvDVsVbckaaw_pRfMXmhqXvs,Install,0.8,121.127.92.50,3973c436-5486-437e-9247-ec1fb30dae9a,1557021116,2019-05-05 09:51:56,1557021116,2019-05-05 09:51:56,1557021149,M_07dy6GvxNyONwG8RBcjAeJybA_M,http://api.mobrand.net/conversion/dNTzeDhPRAy2VZ02oRujJA?h=M_07dy6GvxNyONwG8RBcjAeJybA_M,idfa_3973c436-5486-437e-9247-ec1fb30dae9a,%ED%95%9C%EA%B5%AD%EC%96%B4
pkYDZBvSSkeDJhZ2u0rvqw,mobrand,Wogj-z5IQguvDVsVbckaaw_pRfMXmhqXvs,Install,0.8,125.180.3.113,857ab359-da96-49e9-b0a9-41a778eaf6e0,1557016189,2019-05-05 08:29:49,1557016203,2019-05-05 08:30:03,1557016234,M_07dBH25VfWBM5OopX2uVLIm6A_M,http://api.mobrand.net/conversion/dNTzeDhPRAy2VZ02oRujJA?h=M_07dBH25VfWBM5OopX2uVLIm6A_M,idfa_857ab359-da96-49e9-b0a9-41a778eaf6e0,%ED%95%9C%EA%B5%AD%EC%96%B4
pkYDZBvSSkeDJhZ2u0rvqw,mobrand,Wogj-z5IQguvDVsVbckaaw_pRfMXmhqXvs,Install,0.8,39.118.153.29,53637b2f-3377-402f-bc1d-92df68bf9cf8,1557026540,2019-05-05 11:22:20,1557026987,2019-05-05 11:29:47,1557027018,M_07dVdKZqTK8NpyuoYvaZSlBPg_M,http://api.mobrand.net/conversion/dNTzeDhPRAy2VZ02oRujJA?h=M_07dVdKZqTK8NpyuoYvaZSlBPg_M,idfa_53637b2f-3377-402f-bc1d-92df68bf9cf8,%ED%95%9C%EA%B5%AD%EC%96%B4
pkYDZBvSSkeDJhZ2u0rvqw,mobrand,Wogj-z5IQguvDVsVbckaaw_pRfMXmhqXvs,Install,0.8,211.231.45.20,1b67198f-464d-420d-a283-e8477bc56e21,1557023942,2019-05-05 10:39:02,1557024023,2019-05-05 10:40:23,1557024054,M_07dLzLewEKnPTyjCxY2-r7bjw_M,http://api.mobrand.net/conversion/dNTzeDhPRAy2VZ02oRujJA?h=M_07dLzLewEKnPTyjCxY2-r7bjw_M,idfa_1b67198f-464d-420d-a283-e8477bc56e21,%ED%95%9C%EA%B5%AD%EC%96%B4
pkYDZBvSSkeDJhZ2u0rvqw,mobrand,Wogj-z5IQguvDVsVbckaaw_pRfMXmhqXvs,Install,0.8,223.62.162.27,c9fd204d-fae9-4cbe-a7cb-6b7e1dc62608,1557023421,2019-05-05 10:30:21,1557023466,2019-05-05 10:31:06,1557023498,M_07dIYU5BFivO46rU6yhuYZX6Q_M,http://api.mobrand.net/conversion/dNTzeDhPRAy2VZ02oRujJA?h=M_07dIYU5BFivO46rU6yhuYZX6Q_M,idfa_c9fd204d-fae9-4cbe-a7cb-6b7e1dc62608,%ED%95%9C%EA%B5%AD%EC%96%B4
pkYDZBvSSkeDJhZ2u0rvqw,mobrand,Wogj-z5IQguvDVsVbckaaw_pRfMXmhqXvs,Install,0.8,121.130.14.194,70f471cd-cee8-4bca-a4a2-7e7eaf40a188,1557024970,2019-05-05 10:56:10,1557024989,2019-05-05 10:56:29,1557025020,M_07dMbL-KWqIMKyCyywi3X1KxA_M,http://api.mobrand.net/conversion/dNTzeDhPRAy2VZ02oRujJA?h=M_07dMbL-KWqIMKyCyywi3X1KxA_M,idfa_70f471cd-cee8-4bca-a4a2-7e7eaf40a188,%ED%95%9C%EA%B5%AD%EC%96%B4
pkYDZBvSSkeDJhZ2u0rvqw,mobrand,Wogj-z5IQguvDVsVbckaaw_pRfMXmhqXvs,Install,0.8,180.229.70.187,66c54d92-d18b-44fb-9ee7-c22d6da308ee,1557020874,2019-05-05 09:47:54,1557020917,2019-05-05 09:48:37,1557020948,M_07dKgvck9UWMlKieCAgrg4Q-w_M,http://api.mobrand.net/conversion/dNTzeDhPRAy2VZ02oRujJA?h=M_07dKgvck9UWMlKieCAgrg4Q-w_M,idfa_66c54d92-d18b-44fb-9ee7-c22d6da308ee,%ED%95%9C%EA%B5%AD%EC%96%B4
pkYDZBvSSkeDJhZ2u0rvqw,mobrand,Wogj-z5IQguvDVsVbckaaw_pRfMXmhqXvs,Install,0.8,117.111.20.10,3ffe1478-2d5d-4ea1-bb58-bad3f4fe84bb,1557011658,2019-05-05 07:14:18,1557011677,2019-05-05 07:14:37,1557011709,M_07crkoUFMllOmutozauOxOS7Q_M,http://api.mobrand.net/conversion/dNTzeDhPRAy2VZ02oRujJA?h=M_07crkoUFMllOmutozauOxOS7Q_M,idfa_3ffe1478-2d5d-4ea1-bb58-bad3f4fe84bb,%ED%95%9C%EA%B5%AD%EC%96%B4
pkYDZBvSSkeDJhZ2u0rvqw,mobrand,Wogj-z5IQguvDVsVbckaaw_pRfMXmhqXvs,Install,0.8,124.56.116.116,5328852b-1e56-43ae-b5a2-e809c2c37633,1556995803,2019-05-05 02:50:03,1556996553,2019-05-05 03:02:33,1556996584,M_07co4DmCLOSOR6IjlU44avNrQ_M,http://api.mobrand.net/conversion/dNTzeDhPRAy2VZ02oRujJA?h=M_07co4DmCLOSOR6IjlU44avNrQ_M,idfa_5328852b-1e56-43ae-b5a2-e809c2c37633,%ED%95%9C%EA%B5%AD%EC%96%B4
pkYDZBvSSkeDJhZ2u0rvqw,mobrand,Wogj-z5IQguvDVsVbckaaw_pRfMXmhqXvs,Install,0.8,211.36.140.78,be38ae6a-1a59-4b87-a6bf-cb7adf296f28,1557019940,2019-05-05 09:32:20,1557020036,2019-05-05 09:33:56,1557020067,M_07dBffhviDZP3-DfJ1SJ1R5lQ_M,http://api.mobrand.net/conversion/dNTzeDhPRAy2VZ02oRujJA?h=M_07dBffhviDZP3-DfJ1SJ1R5lQ_M,idfa_be38ae6a-1a59-4b87-a6bf-cb7adf296f28,%ED%95%9C%EA%B5%AD%EC%96%B4
pkYDZBvSSkeDJhZ2u0rvqw,mobrand,Wogj-z5IQguvDVsVbckaaw_pRfMXmhqXvs,Install,0.8,211.59.80.239,61c3aa2a-99b8-4da5-8707-31479a9bcedb,1556999140,2019-05-05 03:45:40,1556999154,2019-05-05 03:45:54,1556999185,M_07cUSucabscMfOl87wl6IA4Gw_M,http://api.mobrand.net/conversion/dNTzeDhPRAy2VZ02oRujJA?h=M_07cUSucabscMfOl87wl6IA4Gw_M,idfa_61c3aa2a-99b8-4da5-8707-31479a9bcedb,%ED%95%9C%EA%B5%AD%EC%96%B4
pkYDZBvSSkeDJhZ2u0rvqw,mobrand,Wogj-z5IQguvDVsVbckaaw_pRfMXmhqXvs,Install,0.8,220.127.128.139,5b7d8670-be39-4a6f-9d74-92da74691ee3,1557021867,2019-05-05 10:04:27,1557021882,2019-05-05 10:04:42,1557021913,M_07dXEGtijeqMLeK6Sm0yJefSg_M,http://api.mobrand.net/conversion/dNTzeDhPRAy2VZ02oRujJA?h=M_07dXEGtijeqMLeK6Sm0yJefSg_M,idfa_5b7d8670-be39-4a6f-9d74-92da74691ee3,%ED%95%9C%EA%B5%AD%EC%96%B4
pkYDZBvSSkeDJhZ2u0rvqw,mobrand,Wogj-z5IQguvDVsVbckaaw_pRfMXmhqXvs,Install,0.8,223.38.29.225,d03dd106-f07b-4678-9736-4f5b7253108d,1557020716,2019-05-05 09:45:16,1557020814,2019-05-05 09:46:54,1557020845,M_07dUNhDXTlEM5upMSWJuWa_6A_M,http://api.mobrand.net/conversion/dNTzeDhPRAy2VZ02oRujJA?h=M_07dUNhDXTlEM5upMSWJuWa_6A_M,idfa_d03dd106-f07b-4678-9736-4f5b7253108d,%ED%95%9C%EA%B5%AD%EC%96%B4
pkYDZBvSSkeDJhZ2u0rvqw,mobrand,Wogj-z5IQguvDVsVbckaaw_pRfMXmhqXvs,Install,0.8,118.44.236.96,b2b1547b-cce6-4aa5-9452-ea7e17b56f7c,1557019981,2019-05-05 09:33:01,1557020067,2019-05-05 09:34:27,1557020098,M_07dYkB79NDfMYmmfW-UCLXEKQ_M,http://api.mobrand.net/conversion/dNTzeDhPRAy2VZ02oRujJA?h=M_07dYkB79NDfMYmmfW-UCLXEKQ_M,idfa_b2b1547b-cce6-4aa5-9452-ea7e17b56f7c,%ED%95%9C%EA%B5%AD%EC%96%B4
pkYDZBvSSkeDJhZ2u0rvqw,mobrand,Wogj-z5IQguvDVsVbckaaw_pRfMXmhqXvs,Install,0.8,27.117.232.78,41989332-1366-464c-8ec0-fd39295a02de,1556988777,2019-05-05 00:52:57,1556989058,2019-05-05 00:57:38,1556989089,M_07clJk8YQquMZC5gFNBPy0C5A_M,http://api.mobrand.net/conversion/dNTzeDhPRAy2VZ02oRujJA?h=M_07clJk8YQquMZC5gFNBPy0C5A_M,idfa_41989332-1366-464c-8ec0-fd39295a02de,%ED%95%9C%EA%B5%AD%EC%96%B4
