cid,partner_id,channel_id,action_id,cpi,ip,idfa,click time,click datetime,install time,install datetime,postback time,click id,postback url,unique user id
I9WxnAjvTTGzsjH5IdhKqQ,mobrand,qj-MEZbkRdS2VALzHbfAdw_vghf6uYLzJ8,Install,3.3,117.18.186.155,5AD311F3-DF8F-4312-B115-25DB77CFF491,1557799229,2019-05-14 10:00:29,1557799315,2019-05-14 10:01:55,1557799315,M_086iiuJvgcaNci4GnXOfGRgtQ_M,http://api.mobrand.net/conversion/dNTzeDhPRAy2VZ02oRujJA?h=M_086iiuJvgcaNci4GnXOfGRgtQ_M,idfa_5AD311F3-DF8F-4312-B115-25DB77CFF491,
I9WxnAjvTTGzsjH5IdhKqQ,mobrand,qj-MEZbkRdS2VALzHbfAdw_vghf6uYLzJ8,Install,3.3,153.227.236.191,F64B7549-499C-4964-A954-FA0E42B965DC,1557886725,2019-05-15 10:18:45,1557886824,2019-05-15 10:20:24,1557886824,M_087bN68Ujm5M5eCUkgwOPPAvw_M,http://api.mobrand.net/conversion/dNTzeDhPRAy2VZ02oRujJA?h=M_087bN68Ujm5M5eCUkgwOPPAvw_M,idfa_F64B7549-499C-4964-A954-FA0E42B965DC,
I9WxnAjvTTGzsjH5IdhKqQ,mobrand,qj-MEZbkRdS2VALzHbfAdw_vghf6uYLzJ8,Install,3.5,118.17.69.68,351B250C-F237-46EF-8326-B1AF80C558EE,1556998310,2019-05-05 03:31:50,1557014248,2019-05-05 07:57:28,1557014248,M_07cHfvLGufGOPqtZB_GXw-DFg_M,http://api.mobrand.net/conversion/dNTzeDhPRAy2VZ02oRujJA?h=M_07cHfvLGufGOPqtZB_GXw-DFg_M,idfa_351B250C-F237-46EF-8326-B1AF80C558EE,ja
I9WxnAjvTTGzsjH5IdhKqQ,mobrand,qj-MEZbkRdS2VALzHbfAdw_vghf6uYLzJ8,Install,3.3,125.195.167.241,0C7A5C74-68D0-487B-8EF2-03DAAA599F01,1557886110,2019-05-15 10:08:30,1557886387,2019-05-15 10:13:07,1557886387,M_087d8gFaV1fM_ixhfRlID4njA_M,http://api.mobrand.net/conversion/dNTzeDhPRAy2VZ02oRujJA?h=M_087d8gFaV1fM_ixhfRlID4njA_M,idfa_0C7A5C74-68D0-487B-8EF2-03DAAA599F01,ja
I9WxnAjvTTGzsjH5IdhKqQ,mobrand,qj-MEZbkRdS2VALzHbfAdw_vghf6uYLzJ8,Install,2.8,58.138.31.97,90A79032-1567-4389-BCE4-703747EE800F,1558321799,2019-05-20 11:09:59,1558321966,2019-05-20 11:12:46,1558321966,M_08cyz3bslc6NqW9kfcYUIKbdg_M,http://api.mobrand.net/conversion/dNTzeDhPRAy2VZ02oRujJA?h=M_08cyz3bslc6NqW9kfcYUIKbdg_M,idfa_90A79032-1567-4389-BCE4-703747EE800F,ja
I9WxnAjvTTGzsjH5IdhKqQ,mobrand,qj-MEZbkRdS2VALzHbfAdw_vghf6uYLzJ8,Install,3.3,110.3.230.179,D97B1A67-74CA-4A36-94F0-3E860D09137B,1557886225,2019-05-15 10:10:25,1557886315,2019-05-15 10:11:55,1557886315,M_087uUB82h8XMW-26nQ3SCnKNg_M,http://api.mobrand.net/conversion/dNTzeDhPRAy2VZ02oRujJA?h=M_087uUB82h8XMW-26nQ3SCnKNg_M,idfa_D97B1A67-74CA-4A36-94F0-3E860D09137B,
I9WxnAjvTTGzsjH5IdhKqQ,mobrand,qj-MEZbkRdS2VALzHbfAdw_vghf6uYLzJ8,Install,3.3,114.182.35.24,19A7C35D-CF42-493F-8381-21F4F4F68E73,1557799086,2019-05-14 09:58:06,1557799166,2019-05-14 09:59:26,1557799166,M_086qKgQ1K6NP_qYNPnfBhlrjw_M,http://api.mobrand.net/conversion/dNTzeDhPRAy2VZ02oRujJA?h=M_086qKgQ1K6NP_qYNPnfBhlrjw_M,idfa_19A7C35D-CF42-493F-8381-21F4F4F68E73,
I9WxnAjvTTGzsjH5IdhKqQ,mobrand,qj-MEZbkRdS2VALzHbfAdw_vghf6uYLzJ8,Install,3.3,219.98.249.18,89A10C35-E09E-496B-95E3-23B30905CE05,1557800669,2019-05-14 10:24:29,1557800889,2019-05-14 10:28:09,1557800889,M_086XTI4k6I1MFqnCQra-uGcbg_M,http://api.mobrand.net/conversion/dNTzeDhPRAy2VZ02oRujJA?h=M_086XTI4k6I1MFqnCQra-uGcbg_M,idfa_89A10C35-E09E-496B-95E3-23B30905CE05,ja
I9WxnAjvTTGzsjH5IdhKqQ,mobrand,qj-MEZbkRdS2VALzHbfAdw_vghf6uYLzJ8,Install,3.3,220.111.49.72,EAB43BBE-4F09-4B30-91BC-6880F8E57A0A,1557800674,2019-05-14 10:24:34,1557800837,2019-05-14 10:27:17,1557800837,M_0867Lu25qheOMS3Z5ryw4DHUw_M,http://api.mobrand.net/conversion/dNTzeDhPRAy2VZ02oRujJA?h=M_0867Lu25qheOMS3Z5ryw4DHUw_M,idfa_EAB43BBE-4F09-4B30-91BC-6880F8E57A0A,ja
I9WxnAjvTTGzsjH5IdhKqQ,mobrand,qj-MEZbkRdS2VALzHbfAdw_vghf6uYLzJ8,Install,3.3,58.89.62.131,141C703B-B0E9-4506-ADB5-F0C7BA0A21A7,1557799068,2019-05-14 09:57:48,1557799151,2019-05-14 09:59:11,1557799151,M_086QKHp9DIcNPW18MGq_yHEDQ_M,http://api.mobrand.net/conversion/dNTzeDhPRAy2VZ02oRujJA?h=M_086QKHp9DIcNPW18MGq_yHEDQ_M,idfa_141C703B-B0E9-4506-ADB5-F0C7BA0A21A7,
I9WxnAjvTTGzsjH5IdhKqQ,mobrand,qj-MEZbkRdS2VALzHbfAdw_vghf6uYLzJ8,Install,3.3,180.198.232.209,A2509B01-E642-403A-B609-7FB310310634,1557887827,2019-05-15 10:37:07,1557887907,2019-05-15 10:38:27,1557887907,M_087fiM2Vy4OMmyu49sGiFvSkQ_M,http://api.mobrand.net/conversion/dNTzeDhPRAy2VZ02oRujJA?h=M_087fiM2Vy4OMmyu49sGiFvSkQ_M,idfa_A2509B01-E642-403A-B609-7FB310310634,
I9WxnAjvTTGzsjH5IdhKqQ,mobrand,qj-MEZbkRdS2VALzHbfAdw_vghf6uYLzJ8,Install,3.3,60.141.153.247,D0862685-6A17-40BA-9050-0246C61D45E6,1557888477,2019-05-15 10:47:57,1557888549,2019-05-15 10:49:09,1557888549,M_087B3PUhYtvOH6p1gAUERwHGA_M,http://api.mobrand.net/conversion/dNTzeDhPRAy2VZ02oRujJA?h=M_087B3PUhYtvOH6p1gAUERwHGA_M,idfa_D0862685-6A17-40BA-9050-0246C61D45E6,
I9WxnAjvTTGzsjH5IdhKqQ,mobrand,qj-MEZbkRdS2VALzHbfAdw_vghf6uYLzJ8,Install,3.3,60.125.204.84,F7601055-6297-46D6-BB92-F3C57C4CD2EE,1557889150,2019-05-15 10:59:10,1557889438,2019-05-15 11:03:58,1557889438,M_087Z0MH0RIJPa2E2p7fIU4Qcg_M,http://api.mobrand.net/conversion/dNTzeDhPRAy2VZ02oRujJA?h=M_087Z0MH0RIJPa2E2p7fIU4Qcg_M,idfa_F7601055-6297-46D6-BB92-F3C57C4CD2EE,ja
I9WxnAjvTTGzsjH5IdhKqQ,mobrand,qj-MEZbkRdS2VALzHbfAdw_vghf6uYLzJ8,Install,3.3,222.229.112.168,F3DC0B2A-ED73-4A46-93D8-988773F3119F,1557889250,2019-05-15 11:00:50,1557889331,2019-05-15 11:02:11,1557889331,M_08717oWpZAMP1OcxDsv36ZhBw_M,http://api.mobrand.net/conversion/dNTzeDhPRAy2VZ02oRujJA?h=M_08717oWpZAMP1OcxDsv36ZhBw_M,idfa_F3DC0B2A-ED73-4A46-93D8-988773F3119F,ja
I9WxnAjvTTGzsjH5IdhKqQ,mobrand,qj-MEZbkRdS2VALzHbfAdw_vghf6uYLzJ8,Install,3.3,118.241.246.56,2B832740-CB0A-4FC1-9F4D-70772FA4ACA2,1557886475,2019-05-15 10:14:35,1557886560,2019-05-15 10:16:00,1557886560,M_087cT2bHMPRPy23lfYmr8ndhA_M,http://api.mobrand.net/conversion/dNTzeDhPRAy2VZ02oRujJA?h=M_087cT2bHMPRPy23lfYmr8ndhA_M,idfa_2B832740-CB0A-4FC1-9F4D-70772FA4ACA2,
I9WxnAjvTTGzsjH5IdhKqQ,mobrand,qj-MEZbkRdS2VALzHbfAdw_vghf6uYLzJ8,Install,3.3,150.147.215.187,E1CA9B78-0037-497E-84BE-3DCC0B95C9A1,1557889195,2019-05-15 10:59:55,1557889279,2019-05-15 11:01:19,1557889279,M_087KyuVT-nKOxqvNUX-NYDsWg_M,http://api.mobrand.net/conversion/dNTzeDhPRAy2VZ02oRujJA?h=M_087KyuVT-nKOxqvNUX-NYDsWg_M,idfa_E1CA9B78-0037-497E-84BE-3DCC0B95C9A1,ja
I9WxnAjvTTGzsjH5IdhKqQ,mobrand,qj-MEZbkRdS2VALzHbfAdw_vghf6uYLzJ8,Install,3.5,202.225.71.122,E4F4FCB9-11FA-4E19-8758-37BC4A82806B,1556953463,2019-05-04 15:04:23,1556953534,2019-05-04 15:05:34,1556953534,M_07cyTdu3SaYMkyhcpGMREW6kQ_M,http://api.mobrand.net/conversion/dNTzeDhPRAy2VZ02oRujJA?h=M_07cyTdu3SaYMkyhcpGMREW6kQ_M,idfa_E4F4FCB9-11FA-4E19-8758-37BC4A82806B,
I9WxnAjvTTGzsjH5IdhKqQ,mobrand,qj-MEZbkRdS2VALzHbfAdw_vghf6uYLzJ8,Install,3.5,116.70.215.95,452B597B-C23D-4BC7-BEEE-070CD5AB4E9E,1556951053,2019-05-04 14:24:13,1556951144,2019-05-04 14:25:44,1556951144,M_07c32CTtmruNDW-Eiro_vugoQ_M,http://api.mobrand.net/conversion/dNTzeDhPRAy2VZ02oRujJA?h=M_07c32CTtmruNDW-Eiro_vugoQ_M,idfa_452B597B-C23D-4BC7-BEEE-070CD5AB4E9E,
I9WxnAjvTTGzsjH5IdhKqQ,mobrand,qj-MEZbkRdS2VALzHbfAdw_vghf6uYLzJ8,Install,3.3,123.198.84.25,D0685E69-6FBD-4CCB-9D7D-9C54989C4263,1557800029,2019-05-14 10:13:49,1557800136,2019-05-14 10:15:36,1557800136,M_086GRrPOwKAP9uhAOSJFS9Afg_M,http://api.mobrand.net/conversion/dNTzeDhPRAy2VZ02oRujJA?h=M_086GRrPOwKAP9uhAOSJFS9Afg_M,idfa_D0685E69-6FBD-4CCB-9D7D-9C54989C4263,
I9WxnAjvTTGzsjH5IdhKqQ,mobrand,qj-MEZbkRdS2VALzHbfAdw_vghf6uYLzJ8,Install,3.3,133.207.160.160,E4E8669D-D790-4ACF-9A52-F975451769F1,1557887617,2019-05-15 10:33:37,1557887693,2019-05-15 10:34:53,1557887693,M_087Vt1_OiNcMxGzWdjPkTZCjQ_M,http://api.mobrand.net/conversion/dNTzeDhPRAy2VZ02oRujJA?h=M_087Vt1_OiNcMxGzWdjPkTZCjQ_M,idfa_E4E8669D-D790-4ACF-9A52-F975451769F1,
I9WxnAjvTTGzsjH5IdhKqQ,mobrand,qj-MEZbkRdS2VALzHbfAdw_vghf6uYLzJ8,Install,3.3,60.113.49.119,55CF7999-C2B2-4C9F-B275-90CB17D2032D,1557800367,2019-05-14 10:19:27,1557800569,2019-05-14 10:22:49,1557800569,M_086DUs6amNzN02sZ6q7SKiLbw_M,http://api.mobrand.net/conversion/dNTzeDhPRAy2VZ02oRujJA?h=M_086DUs6amNzN02sZ6q7SKiLbw_M,idfa_55CF7999-C2B2-4C9F-B275-90CB17D2032D,ja
I9WxnAjvTTGzsjH5IdhKqQ,mobrand,qj-MEZbkRdS2VALzHbfAdw_vghf6uYLzJ8,Install,3.3,223.217.149.10,5A3862F6-4056-4B47-BB20-FB0D79ED6B16,1557886116,2019-05-15 10:08:36,1557886391,2019-05-15 10:13:11,1557886391,M_087TQnMrCiPOg2JdQLx09IUPQ_M,http://api.mobrand.net/conversion/dNTzeDhPRAy2VZ02oRujJA?h=M_087TQnMrCiPOg2JdQLx09IUPQ_M,idfa_5A3862F6-4056-4B47-BB20-FB0D79ED6B16,ja
