cid,partner_id,channel_id,action_id,cpi,ip,idfa,click time,click datetime,install time,install datetime,postback time,click id,postback url,unique user id
I9WxnAjvTTGzsjH5IdhKqQ,mobrand,qj-MEZbkRdS2VALzHbfAdw_nh44idUSTgk,Install,3.5,126.73.15.205,28858D86-01F4-447C-9317-8665C41953F5,1557035265,2019-05-05 13:47:45,1557035399,2019-05-05 13:49:59,1557035399,M_07dX91K2hXCPUOEvWrw00o8KQ_M,http://api.mobrand.net/conversion/dNTzeDhPRAy2VZ02oRujJA?h=M_07dX91K2hXCPUOEvWrw00o8KQ_M,idfa_28858D86-01F4-447C-9317-8665C41953F5,ja
I9WxnAjvTTGzsjH5IdhKqQ,mobrand,qj-MEZbkRdS2VALzHbfAdw_nh44idUSTgk,Install,3.5,183.176.149.21,12CE9EA8-0C42-496E-A145-90E518AC8506,1556653275,2019-05-01 03:41:15,1556653634,2019-05-01 03:47:14,1556653634,M_078KfhQDPk9MN2pf2ekZYbdVw_M,http://api.mobrand.net/conversion/dNTzeDhPRAy2VZ02oRujJA?h=M_078KfhQDPk9MN2pf2ekZYbdVw_M,idfa_12CE9EA8-0C42-496E-A145-90E518AC8506,ja
I9WxnAjvTTGzsjH5IdhKqQ,mobrand,qj-MEZbkRdS2VALzHbfAdw_nh44idUSTgk,Install,3.3,126.121.14.44,031E1D8C-5DAB-4C39-AA6B-B6B45221C873,1557367416,2019-05-09 10:03:36,1557367492,2019-05-09 10:04:52,1557367492,M_081EsWdFbgQOFWB1CitHiS9wA_M,http://api.mobrand.net/conversion/dNTzeDhPRAy2VZ02oRujJA?h=M_081EsWdFbgQOFWB1CitHiS9wA_M,idfa_031E1D8C-5DAB-4C39-AA6B-B6B45221C873,
I9WxnAjvTTGzsjH5IdhKqQ,mobrand,qj-MEZbkRdS2VALzHbfAdw_nh44idUSTgk,Install,3.5,106.154.122.247,14EC62C3-E92C-4597-9D67-1273A3736FE3,1556645129,2019-05-01 01:25:29,1556645314,2019-05-01 01:28:34,1556645314,M_078mY0VDB0BNFKS0eztPzzQjw_M,http://api.mobrand.net/conversion/dNTzeDhPRAy2VZ02oRujJA?h=M_078mY0VDB0BNFKS0eztPzzQjw_M,idfa_14EC62C3-E92C-4597-9D67-1273A3736FE3,ja
I9WxnAjvTTGzsjH5IdhKqQ,mobrand,qj-MEZbkRdS2VALzHbfAdw_nh44idUSTgk,Install,3.5,124.100.101.65,7A1D0F5F-B055-4153-A82B-F08CDC3F671F,1557278345,2019-05-08 09:19:05,1557278430,2019-05-08 09:20:30,1557278430,M_080z-g7Wk57NAaHx51xYo8dvQ_M,http://api.mobrand.net/conversion/dNTzeDhPRAy2VZ02oRujJA?h=M_080z-g7Wk57NAaHx51xYo8dvQ_M,idfa_7A1D0F5F-B055-4153-A82B-F08CDC3F671F,
I9WxnAjvTTGzsjH5IdhKqQ,mobrand,qj-MEZbkRdS2VALzHbfAdw_nh44idUSTgk,Install,3.3,106.165.70.93,1F7CD31E-2E86-4FB0-8486-033FBB74843F,1557368601,2019-05-09 10:23:21,1557368716,2019-05-09 10:25:16,1557368716,M_0813gOcCqriMi-CAmbQ-8xTLQ_M,http://api.mobrand.net/conversion/dNTzeDhPRAy2VZ02oRujJA?h=M_0813gOcCqriMi-CAmbQ-8xTLQ_M,idfa_1F7CD31E-2E86-4FB0-8486-033FBB74843F,
I9WxnAjvTTGzsjH5IdhKqQ,mobrand,qj-MEZbkRdS2VALzHbfAdw_nh44idUSTgk,Install,3.3,106.73.233.224,E6669A60-0677-4064-8D23-873AAFFE740F,1557365525,2019-05-09 09:32:05,1557365610,2019-05-09 09:33:30,1557365610,M_081RegrNHybMnm1MijtyGkKwA_M,http://api.mobrand.net/conversion/dNTzeDhPRAy2VZ02oRujJA?h=M_081RegrNHybMnm1MijtyGkKwA_M,idfa_E6669A60-0677-4064-8D23-873AAFFE740F,
I9WxnAjvTTGzsjH5IdhKqQ,mobrand,qj-MEZbkRdS2VALzHbfAdw_nh44idUSTgk,Install,3.3,222.224.161.165,DED779E5-E37B-4AB5-803B-116A0F20ABAE,1557365831,2019-05-09 09:37:11,1557365908,2019-05-09 09:38:28,1557365908,M_081GM-T0ok7P3-jz1WiP1GI9A_M,http://api.mobrand.net/conversion/dNTzeDhPRAy2VZ02oRujJA?h=M_081GM-T0ok7P3-jz1WiP1GI9A_M,idfa_DED779E5-E37B-4AB5-803B-116A0F20ABAE,
I9WxnAjvTTGzsjH5IdhKqQ,mobrand,qj-MEZbkRdS2VALzHbfAdw_nh44idUSTgk,Install,3.3,218.224.157.2,B262D9CE-CA38-4D45-BDB8-12912E2D6436,1557367555,2019-05-09 10:05:55,1557367634,2019-05-09 10:07:14,1557367634,M_081GtTJqxIZMQKlhnPSzou5uw_M,http://api.mobrand.net/conversion/dNTzeDhPRAy2VZ02oRujJA?h=M_081GtTJqxIZMQKlhnPSzou5uw_M,idfa_B262D9CE-CA38-4D45-BDB8-12912E2D6436,
I9WxnAjvTTGzsjH5IdhKqQ,mobrand,qj-MEZbkRdS2VALzHbfAdw_nh44idUSTgk,Install,3.3,60.39.63.239,B300B6B7-526B-4720-BC2F-75E2A945C115,1557368552,2019-05-09 10:22:32,1557368634,2019-05-09 10:23:54,1557368634,M_081hOBlBTftNOmNFjncGn0lNw_M,http://api.mobrand.net/conversion/dNTzeDhPRAy2VZ02oRujJA?h=M_081hOBlBTftNOmNFjncGn0lNw_M,idfa_B300B6B7-526B-4720-BC2F-75E2A945C115,
I9WxnAjvTTGzsjH5IdhKqQ,mobrand,qj-MEZbkRdS2VALzHbfAdw_nh44idUSTgk,Install,3.3,122.134.156.248,D034647F-C87A-4F92-998D-6EAC50D70F78,1557366788,2019-05-09 09:53:08,1557366870,2019-05-09 09:54:30,1557366870,M_0811ZlO0BQyN3au2ewWP3Fr3g_M,http://api.mobrand.net/conversion/dNTzeDhPRAy2VZ02oRujJA?h=M_0811ZlO0BQyN3au2ewWP3Fr3g_M,idfa_D034647F-C87A-4F92-998D-6EAC50D70F78,ja
I9WxnAjvTTGzsjH5IdhKqQ,mobrand,qj-MEZbkRdS2VALzHbfAdw_nh44idUSTgk,Install,3.3,126.124.92.222,FBB575E9-22C1-4659-BEE9-E1B5B6E78DF5,1557365529,2019-05-09 09:32:09,1557365600,2019-05-09 09:33:20,1557365600,M_081Tqdrkv2qMimVqZtqkP8GQQ_M,http://api.mobrand.net/conversion/dNTzeDhPRAy2VZ02oRujJA?h=M_081Tqdrkv2qMimVqZtqkP8GQQ_M,idfa_FBB575E9-22C1-4659-BEE9-E1B5B6E78DF5,
I9WxnAjvTTGzsjH5IdhKqQ,mobrand,qj-MEZbkRdS2VALzHbfAdw_nh44idUSTgk,Install,3.3,114.152.157.31,50AE7EB9-E4A2-4964-86AF-B274266A2DC3,1557367747,2019-05-09 10:09:07,1557367831,2019-05-09 10:10:31,1557367831,M_081wN8UFb3kMoeJnte3c_arAQ_M,http://api.mobrand.net/conversion/dNTzeDhPRAy2VZ02oRujJA?h=M_081wN8UFb3kMoeJnte3c_arAQ_M,idfa_50AE7EB9-E4A2-4964-86AF-B274266A2DC3,
I9WxnAjvTTGzsjH5IdhKqQ,mobrand,qj-MEZbkRdS2VALzHbfAdw_nh44idUSTgk,Install,3.3,153.122.52.22,877BEA0E-EA1E-4856-A91C-CB25AB6C9AED,1557368490,2019-05-09 10:21:30,1557368574,2019-05-09 10:22:54,1557368574,M_081KEV0LcE9NnyP9GWzPYSWRQ_M,http://api.mobrand.net/conversion/dNTzeDhPRAy2VZ02oRujJA?h=M_081KEV0LcE9NnyP9GWzPYSWRQ_M,idfa_877BEA0E-EA1E-4856-A91C-CB25AB6C9AED,ja
I9WxnAjvTTGzsjH5IdhKqQ,mobrand,qj-MEZbkRdS2VALzHbfAdw_nh44idUSTgk,Install,3.3,202.225.71.122,0B4B99CE-94DD-4760-B0FF-1FB3B1657D1A,1557368499,2019-05-09 10:21:39,1557368577,2019-05-09 10:22:57,1557368577,M_08187m2tn_SOjuDxz5nsrQrdQ_M,http://api.mobrand.net/conversion/dNTzeDhPRAy2VZ02oRujJA?h=M_08187m2tn_SOjuDxz5nsrQrdQ_M,idfa_0B4B99CE-94DD-4760-B0FF-1FB3B1657D1A,ja
I9WxnAjvTTGzsjH5IdhKqQ,mobrand,qj-MEZbkRdS2VALzHbfAdw_nh44idUSTgk,Install,3.5,153.177.1.2,6B7531AE-FEF1-475F-840A-D35EAC26503B,1557035640,2019-05-05 13:54:00,1557035725,2019-05-05 13:55:25,1557035725,M_07dtj9sGy11PSy_baqKfbtnyQ_M,http://api.mobrand.net/conversion/dNTzeDhPRAy2VZ02oRujJA?h=M_07dtj9sGy11PSy_baqKfbtnyQ_M,idfa_6B7531AE-FEF1-475F-840A-D35EAC26503B,
I9WxnAjvTTGzsjH5IdhKqQ,mobrand,qj-MEZbkRdS2VALzHbfAdw_nh44idUSTgk,Install,3.3,222.229.112.168,4BCB06CE-D92D-4552-B11B-A598BB0327FA,1557365586,2019-05-09 09:33:06,1557365645,2019-05-09 09:34:05,1557365645,M_081RZtpbrA9NpCmBm3Xp_5CHA_M,http://api.mobrand.net/conversion/dNTzeDhPRAy2VZ02oRujJA?h=M_081RZtpbrA9NpCmBm3Xp_5CHA_M,idfa_4BCB06CE-D92D-4552-B11B-A598BB0327FA,
I9WxnAjvTTGzsjH5IdhKqQ,mobrand,qj-MEZbkRdS2VALzHbfAdw_nh44idUSTgk,Install,3.5,60.127.54.51,192C1DCB-D347-472A-9336-9B75F09AE199,1557279136,2019-05-08 09:32:16,1557279309,2019-05-08 09:35:09,1557279309,M_080fBGCji1KM4e-oE_JVW1D5A_M,http://api.mobrand.net/conversion/dNTzeDhPRAy2VZ02oRujJA?h=M_080fBGCji1KM4e-oE_JVW1D5A_M,idfa_192C1DCB-D347-472A-9336-9B75F09AE199,ja
I9WxnAjvTTGzsjH5IdhKqQ,mobrand,qj-MEZbkRdS2VALzHbfAdw_nh44idUSTgk,Install,3.5,60.139.71.205,5B432912-2978-43BF-829A-DF0E06DB1C87,1557035339,2019-05-05 13:48:59,1557035474,2019-05-05 13:51:14,1557035474,M_07dy0OYoftFNT-G9SAUmWlQkQ_M,http://api.mobrand.net/conversion/dNTzeDhPRAy2VZ02oRujJA?h=M_07dy0OYoftFNT-G9SAUmWlQkQ_M,idfa_5B432912-2978-43BF-829A-DF0E06DB1C87,ja
I9WxnAjvTTGzsjH5IdhKqQ,mobrand,qj-MEZbkRdS2VALzHbfAdw_nh44idUSTgk,Install,3.3,110.93.106.102,9062241D-1319-46FD-AD11-A6176EFC831F,1557366145,2019-05-09 09:42:25,1557366219,2019-05-09 09:43:39,1557366219,M_081OjI3DHRpOh6JOQ1Pcokopw_M,http://api.mobrand.net/conversion/dNTzeDhPRAy2VZ02oRujJA?h=M_081OjI3DHRpOh6JOQ1Pcokopw_M,idfa_9062241D-1319-46FD-AD11-A6176EFC831F,
I9WxnAjvTTGzsjH5IdhKqQ,mobrand,qj-MEZbkRdS2VALzHbfAdw_nh44idUSTgk,Install,3.5,124.159.15.119,86989643-CD1B-4559-A9BA-4324BCD150A0,1557033940,2019-05-05 13:25:40,1557034078,2019-05-05 13:27:58,1557034078,M_07dlAOmLEGoOg6QJt57dfFOMQ_M,http://api.mobrand.net/conversion/dNTzeDhPRAy2VZ02oRujJA?h=M_07dlAOmLEGoOg6QJt57dfFOMQ_M,idfa_86989643-CD1B-4559-A9BA-4324BCD150A0,ja
I9WxnAjvTTGzsjH5IdhKqQ,mobrand,qj-MEZbkRdS2VALzHbfAdw_nh44idUSTgk,Install,3.5,106.160.56.195,D70288CB-7B23-4CA5-BB10-16341447AB7D,1557036825,2019-05-05 14:13:45,1557036936,2019-05-05 14:15:36,1557036936,M_07dgTNG_e5mN6Sauhsu6aTKjg_M,http://api.mobrand.net/conversion/dNTzeDhPRAy2VZ02oRujJA?h=M_07dgTNG_e5mN6Sauhsu6aTKjg_M,idfa_D70288CB-7B23-4CA5-BB10-16341447AB7D,ja
I9WxnAjvTTGzsjH5IdhKqQ,mobrand,qj-MEZbkRdS2VALzHbfAdw_nh44idUSTgk,Install,3.3,163.44.60.210,A9A8AB32-6D18-4FB4-8DD2-6EBAEE0A0E31,1557368288,2019-05-09 10:18:08,1557368417,2019-05-09 10:20:17,1557368417,M_081RdysyW72MUep1NTj5j90iA_M,http://api.mobrand.net/conversion/dNTzeDhPRAy2VZ02oRujJA?h=M_081RdysyW72MUep1NTj5j90iA_M,idfa_A9A8AB32-6D18-4FB4-8DD2-6EBAEE0A0E31,ja
I9WxnAjvTTGzsjH5IdhKqQ,mobrand,qj-MEZbkRdS2VALzHbfAdw_nh44idUSTgk,Install,3.5,211.1.206.34,05CD078F-F2A0-42B8-A674-981A69154D3C,1557280451,2019-05-08 09:54:11,1557280534,2019-05-08 09:55:34,1557280534,M_080-R-VqJaFO06040wX-V6DbA_M,http://api.mobrand.net/conversion/dNTzeDhPRAy2VZ02oRujJA?h=M_080-R-VqJaFO06040wX-V6DbA_M,idfa_05CD078F-F2A0-42B8-A674-981A69154D3C,
I9WxnAjvTTGzsjH5IdhKqQ,mobrand,qj-MEZbkRdS2VALzHbfAdw_nh44idUSTgk,Install,3.5,219.98.123.244,2A4B4C51-95E5-489D-9FC7-4EB3C6759345,1557036115,2019-05-05 14:01:55,1557036256,2019-05-05 14:04:16,1557036256,M_07dJoEyADsEPLSn9OJukTTWRA_M,http://api.mobrand.net/conversion/dNTzeDhPRAy2VZ02oRujJA?h=M_07dJoEyADsEPLSn9OJukTTWRA_M,idfa_2A4B4C51-95E5-489D-9FC7-4EB3C6759345,ja
I9WxnAjvTTGzsjH5IdhKqQ,mobrand,qj-MEZbkRdS2VALzHbfAdw_nh44idUSTgk,Install,3.3,118.236.172.92,3B664DF1-07D9-40D8-AD05-4BD957893589,1557367442,2019-05-09 10:04:02,1557367522,2019-05-09 10:05:22,1557367522,M_081ybaHhQJiMayLp4m11OxWnw_M,http://api.mobrand.net/conversion/dNTzeDhPRAy2VZ02oRujJA?h=M_081ybaHhQJiMayLp4m11OxWnw_M,idfa_3B664DF1-07D9-40D8-AD05-4BD957893589,
I9WxnAjvTTGzsjH5IdhKqQ,mobrand,qj-MEZbkRdS2VALzHbfAdw_nh44idUSTgk,Install,3.5,218.221.178.70,20800242-0887-44C0-B25D-CCA8152EDFBB,1556651745,2019-05-01 03:15:45,1556651930,2019-05-01 03:18:50,1556651930,M_078cWPlyQGAPoyoVHmYODpDRQ_M,http://api.mobrand.net/conversion/dNTzeDhPRAy2VZ02oRujJA?h=M_078cWPlyQGAPoyoVHmYODpDRQ_M,idfa_20800242-0887-44C0-B25D-CCA8152EDFBB,ja
I9WxnAjvTTGzsjH5IdhKqQ,mobrand,qj-MEZbkRdS2VALzHbfAdw_nh44idUSTgk,Install,3.5,124.40.75.166,7E57C157-5B11-40D6-BC67-27D14280EF5F,1557035600,2019-05-05 13:53:20,1557035686,2019-05-05 13:54:46,1557035686,M_07dpf1SD5a7MxC4D5ROSURY5g_M,http://api.mobrand.net/conversion/dNTzeDhPRAy2VZ02oRujJA?h=M_07dpf1SD5a7MxC4D5ROSURY5g_M,idfa_7E57C157-5B11-40D6-BC67-27D14280EF5F,
I9WxnAjvTTGzsjH5IdhKqQ,mobrand,qj-MEZbkRdS2VALzHbfAdw_nh44idUSTgk,Install,3.3,60.39.63.239,25B404CE-C600-4FA6-896F-22978B13A84F,1557368541,2019-05-09 10:22:21,1557368612,2019-05-09 10:23:32,1557368612,M_08147soZeWcMTuAQqZrqvtphw_M,http://api.mobrand.net/conversion/dNTzeDhPRAy2VZ02oRujJA?h=M_08147soZeWcMTuAQqZrqvtphw_M,idfa_25B404CE-C600-4FA6-896F-22978B13A84F,
