cid,partner_id,channel_id,action_id,cpi,ip,idfa,click time,click datetime,install time,install datetime,postback time,click id,postback url,unique user id
I9WxnAjvTTGzsjH5IdhKqQ,mobrand,qj-MEZbkRdS2VALzHbfAdw_sqcDcCyNQAw,Install,3.5,113.156.18.203,81876C6B-2718-408B-9CA5-A3B3FDA9B7F7,1556952114,2019-05-04 14:41:54,1556952186,2019-05-04 14:43:06,1556952186,M_07cbfeGY13WPumGtJWyY7K95w_M,http://api.mobrand.net/conversion/dNTzeDhPRAy2VZ02oRujJA?h=M_07cbfeGY13WPumGtJWyY7K95w_M,idfa_81876C6B-2718-408B-9CA5-A3B3FDA9B7F7,
I9WxnAjvTTGzsjH5IdhKqQ,mobrand,qj-MEZbkRdS2VALzHbfAdw_sqcDcCyNQAw,Install,3.3,111.239.58.8,D47FEF0F-12E8-4C4F-A3A3-6334965B15D6,1557800681,2019-05-14 10:24:41,1557800889,2019-05-14 10:28:09,1557800889,M_086GVi1VIzuMd636l04U0ggRg_M,http://api.mobrand.net/conversion/dNTzeDhPRAy2VZ02oRujJA?h=M_086GVi1VIzuMd636l04U0ggRg_M,idfa_D47FEF0F-12E8-4C4F-A3A3-6334965B15D6,ja
I9WxnAjvTTGzsjH5IdhKqQ,mobrand,qj-MEZbkRdS2VALzHbfAdw_sqcDcCyNQAw,Install,3.3,60.238.243.35,276D3FDB-FC74-4BB6-A941-B12CF6D080AD,1557797222,2019-05-14 09:27:02,1557797337,2019-05-14 09:28:57,1557797337,M_086GuvalOE6MCaLIKVOud1p6Q_M,http://api.mobrand.net/conversion/dNTzeDhPRAy2VZ02oRujJA?h=M_086GuvalOE6MCaLIKVOud1p6Q_M,idfa_276D3FDB-FC74-4BB6-A941-B12CF6D080AD,
I9WxnAjvTTGzsjH5IdhKqQ,mobrand,qj-MEZbkRdS2VALzHbfAdw_sqcDcCyNQAw,Install,3.3,113.156.121.119,5E590BA7-2716-4951-B22E-988CD097E1F6,1557712109,2019-05-13 09:48:29,1557712185,2019-05-13 09:49:45,1557712185,M_085KrlX4s8FMryEkdsuK-5B6g_M,http://api.mobrand.net/conversion/dNTzeDhPRAy2VZ02oRujJA?h=M_085KrlX4s8FMryEkdsuK-5B6g_M,idfa_5E590BA7-2716-4951-B22E-988CD097E1F6,
I9WxnAjvTTGzsjH5IdhKqQ,mobrand,qj-MEZbkRdS2VALzHbfAdw_sqcDcCyNQAw,Install,3.3,101.141.146.145,A0C4244C-0E35-410E-AD40-CCC026728416,1557711467,2019-05-13 09:37:47,1557711553,2019-05-13 09:39:13,1557711553,M_085gNI2aB8sPB6prKuocfHl1g_M,http://api.mobrand.net/conversion/dNTzeDhPRAy2VZ02oRujJA?h=M_085gNI2aB8sPB6prKuocfHl1g_M,idfa_A0C4244C-0E35-410E-AD40-CCC026728416,
I9WxnAjvTTGzsjH5IdhKqQ,mobrand,qj-MEZbkRdS2VALzHbfAdw_sqcDcCyNQAw,Install,3.3,14.9.113.65,B9B6E1E0-C02E-4E53-8A5B-4CFB8C82453C,1557711158,2019-05-13 09:32:38,1557711396,2019-05-13 09:36:36,1557711396,M_085TlnZGOrbO6eW5OzuCOhkRA_M,http://api.mobrand.net/conversion/dNTzeDhPRAy2VZ02oRujJA?h=M_085TlnZGOrbO6eW5OzuCOhkRA_M,idfa_B9B6E1E0-C02E-4E53-8A5B-4CFB8C82453C,ja
I9WxnAjvTTGzsjH5IdhKqQ,mobrand,qj-MEZbkRdS2VALzHbfAdw_sqcDcCyNQAw,Install,3.5,122.103.89.89,E95C0EC9-19E4-48A9-BA31-DCFF20D36378,1557029592,2019-05-05 12:13:12,1557029701,2019-05-05 12:15:01,1557029701,M_07dhv31MxYcPuiHZa4r54_kqA_M,http://api.mobrand.net/conversion/dNTzeDhPRAy2VZ02oRujJA?h=M_07dhv31MxYcPuiHZa4r54_kqA_M,idfa_E95C0EC9-19E4-48A9-BA31-DCFF20D36378,ja
I9WxnAjvTTGzsjH5IdhKqQ,mobrand,qj-MEZbkRdS2VALzHbfAdw_sqcDcCyNQAw,Install,3.5,123.224.126.96,9F8B3C6F-FD7B-42F6-B2A6-0D069719AD6E,1557016339,2019-05-05 08:32:19,1557016499,2019-05-05 08:34:59,1557016499,M_07dxNcN9_HvPWa-cfj5gXEEtQ_M,http://api.mobrand.net/conversion/dNTzeDhPRAy2VZ02oRujJA?h=M_07dxNcN9_HvPWa-cfj5gXEEtQ_M,idfa_9F8B3C6F-FD7B-42F6-B2A6-0D069719AD6E,ja
I9WxnAjvTTGzsjH5IdhKqQ,mobrand,qj-MEZbkRdS2VALzHbfAdw_sqcDcCyNQAw,Install,3.3,14.9.102.96,DECCD103-A0D9-4353-ABFC-6EBBE85CD806,1557712694,2019-05-13 09:58:14,1557712785,2019-05-13 09:59:45,1557712785,M_085jum_49xfMYau2K0aQ2uo5w_M,http://api.mobrand.net/conversion/dNTzeDhPRAy2VZ02oRujJA?h=M_085jum_49xfMYau2K0aQ2uo5w_M,idfa_DECCD103-A0D9-4353-ABFC-6EBBE85CD806,
I9WxnAjvTTGzsjH5IdhKqQ,mobrand,qj-MEZbkRdS2VALzHbfAdw_sqcDcCyNQAw,Install,3.3,157.192.187.21,C680D485-2478-4D02-A456-A44D509B2A0A,1557712427,2019-05-13 09:53:47,1557712502,2019-05-13 09:55:02,1557712502,M_085bGqFfKcpPcS0LOQnkZrfLQ_M,http://api.mobrand.net/conversion/dNTzeDhPRAy2VZ02oRujJA?h=M_085bGqFfKcpPcS0LOQnkZrfLQ_M,idfa_C680D485-2478-4D02-A456-A44D509B2A0A,
I9WxnAjvTTGzsjH5IdhKqQ,mobrand,qj-MEZbkRdS2VALzHbfAdw_sqcDcCyNQAw,Install,3.3,160.86.139.225,F07A0852-5E60-4326-BA3C-11F1190A5846,1557712377,2019-05-13 09:52:57,1557712450,2019-05-13 09:54:10,1557712450,M_085M6Z07IylPnKnwmHYpRLxjA_M,http://api.mobrand.net/conversion/dNTzeDhPRAy2VZ02oRujJA?h=M_085M6Z07IylPnKnwmHYpRLxjA_M,idfa_F07A0852-5E60-4326-BA3C-11F1190A5846,
I9WxnAjvTTGzsjH5IdhKqQ,mobrand,qj-MEZbkRdS2VALzHbfAdw_sqcDcCyNQAw,Install,3.3,60.122.161.100,F59B92B1-EC0F-40C2-A304-05DEDD65DE3E,1557797247,2019-05-14 09:27:27,1557797331,2019-05-14 09:28:51,1557797331,M_086XBqvEealOPa8_J0l2EOmhA_M,http://api.mobrand.net/conversion/dNTzeDhPRAy2VZ02oRujJA?h=M_086XBqvEealOPa8_J0l2EOmhA_M,idfa_F59B92B1-EC0F-40C2-A304-05DEDD65DE3E,
I9WxnAjvTTGzsjH5IdhKqQ,mobrand,qj-MEZbkRdS2VALzHbfAdw_sqcDcCyNQAw,Install,3.3,126.88.208.96,2B6078A9-8515-4CCA-AF0C-EC8F17BFE787,1557797510,2019-05-14 09:31:50,1557797585,2019-05-14 09:33:05,1557797585,M_086p2eXTxzXPTmME43hQcjdog_M,http://api.mobrand.net/conversion/dNTzeDhPRAy2VZ02oRujJA?h=M_086p2eXTxzXPTmME43hQcjdog_M,idfa_2B6078A9-8515-4CCA-AF0C-EC8F17BFE787,
I9WxnAjvTTGzsjH5IdhKqQ,mobrand,qj-MEZbkRdS2VALzHbfAdw_sqcDcCyNQAw,Install,3.5,118.110.18.4,F991A9A8-F8E7-4E68-885C-0F8421E90986,1556950398,2019-05-04 14:13:18,1556950491,2019-05-04 14:14:51,1556950491,M_07cFy7B5tdYOBuutvmmwDtDvw_M,http://api.mobrand.net/conversion/dNTzeDhPRAy2VZ02oRujJA?h=M_07cFy7B5tdYOBuutvmmwDtDvw_M,idfa_F991A9A8-F8E7-4E68-885C-0F8421E90986,
I9WxnAjvTTGzsjH5IdhKqQ,mobrand,qj-MEZbkRdS2VALzHbfAdw_sqcDcCyNQAw,Install,3.3,182.167.81.42,4A4F5A29-FCA3-4CA3-A8A8-3C22EBDB8A5B,1557796736,2019-05-14 09:18:56,1557796823,2019-05-14 09:20:23,1557796823,M_086vd9FKlatNheyshiEU_AQ9g_M,http://api.mobrand.net/conversion/dNTzeDhPRAy2VZ02oRujJA?h=M_086vd9FKlatNheyshiEU_AQ9g_M,idfa_4A4F5A29-FCA3-4CA3-A8A8-3C22EBDB8A5B,
I9WxnAjvTTGzsjH5IdhKqQ,mobrand,qj-MEZbkRdS2VALzHbfAdw_sqcDcCyNQAw,Install,3.3,150.147.215.187,15DCF875-35D5-42CD-B7E3-2049CEB4244E,1557712554,2019-05-13 09:55:54,1557712624,2019-05-13 09:57:04,1557712624,M_085f_eHZFCZN2WxeggsK-FIoQ_M,http://api.mobrand.net/conversion/dNTzeDhPRAy2VZ02oRujJA?h=M_085f_eHZFCZN2WxeggsK-FIoQ_M,idfa_15DCF875-35D5-42CD-B7E3-2049CEB4244E,
I9WxnAjvTTGzsjH5IdhKqQ,mobrand,qj-MEZbkRdS2VALzHbfAdw_sqcDcCyNQAw,Install,3.5,126.233.174.50,C596967F-9140-4D86-9286-BE8C44DF5185,1556782394,2019-05-02 15:33:14,1556782774,2019-05-02 15:39:34,1556782774,M_07a7NaDPZiCNmKpikoNKUqttQ_M,http://api.mobrand.net/conversion/dNTzeDhPRAy2VZ02oRujJA?h=M_07a7NaDPZiCNmKpikoNKUqttQ_M,idfa_C596967F-9140-4D86-9286-BE8C44DF5185,ja
I9WxnAjvTTGzsjH5IdhKqQ,mobrand,qj-MEZbkRdS2VALzHbfAdw_sqcDcCyNQAw,Install,3.3,126.27.43.84,449BC528-204B-4C97-982A-95381AA3AE46,1557711466,2019-05-13 09:37:46,1557711605,2019-05-13 09:40:05,1557711605,M_08506VkyyiOP1WAnC9ivtXKqw_M,http://api.mobrand.net/conversion/dNTzeDhPRAy2VZ02oRujJA?h=M_08506VkyyiOP1WAnC9ivtXKqw_M,idfa_449BC528-204B-4C97-982A-95381AA3AE46,
I9WxnAjvTTGzsjH5IdhKqQ,mobrand,qj-MEZbkRdS2VALzHbfAdw_sqcDcCyNQAw,Install,3.3,150.147.215.187,A9068272-D4A3-476B-8331-F6042812A3F8,1557797636,2019-05-14 09:33:56,1557797697,2019-05-14 09:34:57,1557797697,M_086kT6T4-vkO-GvoSqYgB2x2Q_M,http://api.mobrand.net/conversion/dNTzeDhPRAy2VZ02oRujJA?h=M_086kT6T4-vkO-GvoSqYgB2x2Q_M,idfa_A9068272-D4A3-476B-8331-F6042812A3F8,
I9WxnAjvTTGzsjH5IdhKqQ,mobrand,qj-MEZbkRdS2VALzHbfAdw_sqcDcCyNQAw,Install,3.3,113.156.121.119,8126C307-AF8A-4684-913D-B45782EF452E,1557712105,2019-05-13 09:48:25,1557712185,2019-05-13 09:49:45,1557712185,M_085YeBXrmU_PgmumgsSNV7ruQ_M,http://api.mobrand.net/conversion/dNTzeDhPRAy2VZ02oRujJA?h=M_085YeBXrmU_PgmumgsSNV7ruQ_M,idfa_8126C307-AF8A-4684-913D-B45782EF452E,
I9WxnAjvTTGzsjH5IdhKqQ,mobrand,qj-MEZbkRdS2VALzHbfAdw_sqcDcCyNQAw,Install,3.3,219.107.88.234,082DEB4D-FB9B-4C47-95C6-8FEDB42986BE,1557796747,2019-05-14 09:19:07,1557796835,2019-05-14 09:20:35,1557796835,M_0862eg_Wm7EPW6hZtgy7JTAnA_M,http://api.mobrand.net/conversion/dNTzeDhPRAy2VZ02oRujJA?h=M_0862eg_Wm7EPW6hZtgy7JTAnA_M,idfa_082DEB4D-FB9B-4C47-95C6-8FEDB42986BE,
I9WxnAjvTTGzsjH5IdhKqQ,mobrand,qj-MEZbkRdS2VALzHbfAdw_sqcDcCyNQAw,Install,3.5,133.200.38.96,80AD295A-545F-4A71-A574-C7DAA060131E,1556951844,2019-05-04 14:37:24,1556951931,2019-05-04 14:38:51,1556951931,M_07cspXAN7TcOGycr_4MUjoW1A_M,http://api.mobrand.net/conversion/dNTzeDhPRAy2VZ02oRujJA?h=M_07cspXAN7TcOGycr_4MUjoW1A_M,idfa_80AD295A-545F-4A71-A574-C7DAA060131E,
I9WxnAjvTTGzsjH5IdhKqQ,mobrand,qj-MEZbkRdS2VALzHbfAdw_sqcDcCyNQAw,Install,3.3,106.73.233.224,07BBE931-1DCF-4DB2-B93B-8EAB8CE061D1,1557712060,2019-05-13 09:47:40,1557712146,2019-05-13 09:49:06,1557712146,M_0850-29v2EsNqus_6Dg71N25g_M,http://api.mobrand.net/conversion/dNTzeDhPRAy2VZ02oRujJA?h=M_0850-29v2EsNqus_6Dg71N25g_M,idfa_07BBE931-1DCF-4DB2-B93B-8EAB8CE061D1,
I9WxnAjvTTGzsjH5IdhKqQ,mobrand,qj-MEZbkRdS2VALzHbfAdw_sqcDcCyNQAw,Install,3.3,126.224.69.144,38893C6D-8A85-47AA-8917-4CB1A8781D2D,1557800673,2019-05-14 10:24:33,1557800850,2019-05-14 10:27:30,1557800850,M_086efUMY3JyP1axofGjY4noUQ_M,http://api.mobrand.net/conversion/dNTzeDhPRAy2VZ02oRujJA?h=M_086efUMY3JyP1axofGjY4noUQ_M,idfa_38893C6D-8A85-47AA-8917-4CB1A8781D2D,ja
I9WxnAjvTTGzsjH5IdhKqQ,mobrand,qj-MEZbkRdS2VALzHbfAdw_sqcDcCyNQAw,Install,3.3,118.243.66.198,3B3B5C1D-D01B-4081-A73F-B401C0D955DF,1557800663,2019-05-14 10:24:23,1557800889,2019-05-14 10:28:09,1557800889,M_086BaK74iTGObyLlCsnuzgNXQ_M,http://api.mobrand.net/conversion/dNTzeDhPRAy2VZ02oRujJA?h=M_086BaK74iTGObyLlCsnuzgNXQ_M,idfa_3B3B5C1D-D01B-4081-A73F-B401C0D955DF,ja
I9WxnAjvTTGzsjH5IdhKqQ,mobrand,qj-MEZbkRdS2VALzHbfAdw_sqcDcCyNQAw,Install,3.3,175.132.23.138,3EE4A684-5197-4AB8-BEA4-1CAE1F1C9720,1557800711,2019-05-14 10:25:11,1557800891,2019-05-14 10:28:11,1557800891,M_0866nhlvjZ2Mvy6ry_1RJ_n6g_M,http://api.mobrand.net/conversion/dNTzeDhPRAy2VZ02oRujJA?h=M_0866nhlvjZ2Mvy6ry_1RJ_n6g_M,idfa_3EE4A684-5197-4AB8-BEA4-1CAE1F1C9720,ja
