cid,partner_id,channel_id,action_id,cpi,ip,idfa,click time,click datetime,install time,install datetime,postback time,click id,postback url,unique user id
jr39D3zASW-KwzCiDA86tw,newborntown,p1846_2130_22215818,Install,1.0,1.72.6.172,7D16D2F7-E248-4059-AA39-BEA1800A5A28,1557454088,2019-05-10 10:08:08,1557458837,2019-05-10 11:27:17,1557458837,2345ac17-f7b1-4ad5-b2ac-53d9f6de218a__pspm,http://pspm.pingstart.com/api/v4/postback?from=1706&clickid=2345ac17-f7b1-4ad5-b2ac-53d9f6de218a__pspm,idfa_7D16D2F7-E248-4059-AA39-BEA1800A5A28,ja
jr39D3zASW-KwzCiDA86tw,newborntown,p1846_2130_22215818,Install,1.0,49.98.156.7,7140EF04-3B8A-484C-B5AC-387293D4C85D,1557368053,2019-05-09 10:14:13,1557422381,2019-05-10 01:19:41,1557422381,69ec7a92-3627-434d-a91b-d9ceba4e6e9f__pspm,http://pspm.pingstart.com/api/v4/postback?from=1706&clickid=69ec7a92-3627-434d-a91b-d9ceba4e6e9f__pspm,idfa_7140EF04-3B8A-484C-B5AC-387293D4C85D,ja
jr39D3zASW-KwzCiDA86tw,newborntown,p1846_2130_22215818,Install,1.0,106.180.48.58,75ABD98B-AEC6-4820-8561-AF2B657941E3,1557367798,2019-05-09 10:09:58,1557408987,2019-05-09 21:36:27,1557408987,cd1dd9ff-c97f-4ac8-aab6-db3e52f8d2a9__pspm,http://pspm.pingstart.com/api/v4/postback?from=1706&clickid=cd1dd9ff-c97f-4ac8-aab6-db3e52f8d2a9__pspm,idfa_75ABD98B-AEC6-4820-8561-AF2B657941E3,ja
jr39D3zASW-KwzCiDA86tw,newborntown,p1846_2130_22215818,Install,1.0,126.35.15.73,CE4AE19D-1042-47C1-B23B-910D4AAADD62,1557367899,2019-05-09 10:11:39,1557398287,2019-05-09 18:38:07,1557398287,b4044887-aebd-4bc4-b43a-9c92f58fed95__pspm,http://pspm.pingstart.com/api/v4/postback?from=1706&clickid=b4044887-aebd-4bc4-b43a-9c92f58fed95__pspm,idfa_CE4AE19D-1042-47C1-B23B-910D4AAADD62,ja
jr39D3zASW-KwzCiDA86tw,newborntown,p1846_2130_22215818,Install,1.0,111.239.160.6,66F1F031-E9C5-4F68-BDAD-D2C4A175A632,1557368397,2019-05-09 10:19:57,1557376200,2019-05-09 12:30:00,1557376200,9d31d8e3-dcbf-40b0-b47f-4d3e785a98c1__pspm,http://pspm.pingstart.com/api/v4/postback?from=1706&clickid=9d31d8e3-dcbf-40b0-b47f-4d3e785a98c1__pspm,idfa_66F1F031-E9C5-4F68-BDAD-D2C4A175A632,ja
jr39D3zASW-KwzCiDA86tw,newborntown,p1846_2130_22215818,Install,1.0,106.180.50.124,59AB865F-4572-4E94-A903-98AEA05236B4,1557454729,2019-05-10 10:18:49,1557458118,2019-05-10 11:15:18,1557458118,ff68f77b-0301-47ed-9708-37c3a17c9ebe__pspm,http://pspm.pingstart.com/api/v4/postback?from=1706&clickid=ff68f77b-0301-47ed-9708-37c3a17c9ebe__pspm,idfa_59AB865F-4572-4E94-A903-98AEA05236B4,ja
jr39D3zASW-KwzCiDA86tw,newborntown,p1846_2130_22215818,Install,1.0,113.36.116.193,F42A57C4-287E-4E70-8ACE-B60F3D0AB838,1557449493,2019-05-10 08:51:33,1557449824,2019-05-10 08:57:04,1557449824,e679f658-c343-4e42-afbd-4558da486b6a__pspm,http://pspm.pingstart.com/api/v4/postback?from=1706&clickid=e679f658-c343-4e42-afbd-4558da486b6a__pspm,idfa_F42A57C4-287E-4E70-8ACE-B60F3D0AB838,ja
jr39D3zASW-KwzCiDA86tw,newborntown,p1846_2130_22215818,Install,1.0,106.130.47.79,F221010C-4324-4992-A428-6D52CA15EB35,1557448421,2019-05-10 08:33:41,1557452201,2019-05-10 09:36:41,1557452201,4d919f77-4df9-4990-b42e-14c41f1720d6__pspm,http://pspm.pingstart.com/api/v4/postback?from=1706&clickid=4d919f77-4df9-4990-b42e-14c41f1720d6__pspm,idfa_F221010C-4324-4992-A428-6D52CA15EB35,ja
jr39D3zASW-KwzCiDA86tw,newborntown,p1846_2130_22215818,Install,1.0,49.104.17.131,AB64CFD9-AC28-426A-A16E-BD88C6B4346F,1557454499,2019-05-10 10:14:59,1557456845,2019-05-10 10:54:05,1557456845,9c53a4b2-4457-44b8-950b-36b5fe7cc350__pspm,http://pspm.pingstart.com/api/v4/postback?from=1706&clickid=9c53a4b2-4457-44b8-950b-36b5fe7cc350__pspm,idfa_AB64CFD9-AC28-426A-A16E-BD88C6B4346F,ja
jr39D3zASW-KwzCiDA86tw,newborntown,p1846_2130_22215818,Install,1.0,106.180.23.222,CF185846-CC12-456B-83C5-59C812111D04,1557368832,2019-05-09 10:27:12,1557417750,2019-05-10 00:02:30,1557417750,22e7e38c-6134-4f09-83fd-ec680b9a89c2__pspm,http://pspm.pingstart.com/api/v4/postback?from=1706&clickid=22e7e38c-6134-4f09-83fd-ec680b9a89c2__pspm,idfa_CF185846-CC12-456B-83C5-59C812111D04,ja
jr39D3zASW-KwzCiDA86tw,newborntown,p1846_2130_22215818,Install,1.0,49.98.208.4,ED55AB52-922B-4FCE-8973-E7CF1B26FFF2,1557367752,2019-05-09 10:09:12,1557381372,2019-05-09 13:56:12,1557381372,cd6c4b9c-bd48-427b-9fab-38a61b2bc941__pspm,http://pspm.pingstart.com/api/v4/postback?from=1706&clickid=cd6c4b9c-bd48-427b-9fab-38a61b2bc941__pspm,idfa_ED55AB52-922B-4FCE-8973-E7CF1B26FFF2,ja
jr39D3zASW-KwzCiDA86tw,newborntown,p1846_2130_22215818,Install,1.0,49.98.152.240,42399A01-A1E2-411B-8723-0D3245B86C32,1557367733,2019-05-09 10:08:53,1557393601,2019-05-09 17:20:01,1557393601,79cf5f09-3e3e-48e6-8a1f-b06458e6d868__pspm,http://pspm.pingstart.com/api/v4/postback?from=1706&clickid=79cf5f09-3e3e-48e6-8a1f-b06458e6d868__pspm,idfa_42399A01-A1E2-411B-8723-0D3245B86C32,ja
jr39D3zASW-KwzCiDA86tw,newborntown,p1846_2130_22215818,Install,1.0,221.112.38.242,58AEC574-049C-4403-8438-8D1F7CEE5359,1557453155,2019-05-10 09:52:35,1557454241,2019-05-10 10:10:41,1557454241,6f1359e6-900a-4d86-96bb-929063fb5adc__pspm,http://pspm.pingstart.com/api/v4/postback?from=1706&clickid=6f1359e6-900a-4d86-96bb-929063fb5adc__pspm,idfa_58AEC574-049C-4403-8438-8D1F7CEE5359,ja
jr39D3zASW-KwzCiDA86tw,newborntown,p1846_2130_22215818,Install,1.0,126.247.67.161,09633337-EF91-4949-93BC-484D449AD3E8,1557448180,2019-05-10 08:29:40,1557448387,2019-05-10 08:33:07,1557448387,22c71c4c-c89e-4a53-802e-0c1123d9a5ee__pspm,http://pspm.pingstart.com/api/v4/postback?from=1706&clickid=22c71c4c-c89e-4a53-802e-0c1123d9a5ee__pspm,idfa_09633337-EF91-4949-93BC-484D449AD3E8,ja
jr39D3zASW-KwzCiDA86tw,newborntown,p1846_2130_22215818,Install,1.0,126.245.1.163,1081DAC6-4E71-421D-99CF-C46D8F677A21,1557368008,2019-05-09 10:13:28,1557386125,2019-05-09 15:15:25,1557386125,25a8282b-5112-4603-8c7e-9537155a4fbf__pspm,http://pspm.pingstart.com/api/v4/postback?from=1706&clickid=25a8282b-5112-4603-8c7e-9537155a4fbf__pspm,idfa_1081DAC6-4E71-421D-99CF-C46D8F677A21,ja
jr39D3zASW-KwzCiDA86tw,newborntown,p1846_2130_22215818,Install,1.0,126.247.1.218,38C4B2F1-4E54-4BCC-9C10-CAA69CC12A9E,1557448578,2019-05-10 08:36:18,1557459566,2019-05-10 11:39:26,1557459566,bf5f300e-d903-41b3-abf6-0d1612b31ba9__pspm,http://pspm.pingstart.com/api/v4/postback?from=1706&clickid=bf5f300e-d903-41b3-abf6-0d1612b31ba9__pspm,idfa_38C4B2F1-4E54-4BCC-9C10-CAA69CC12A9E,ja
jr39D3zASW-KwzCiDA86tw,newborntown,p1846_2130_22215818,Install,1.0,157.14.167.240,663582D4-1030-4B91-A929-026612C4E1F2,1557368250,2019-05-09 10:17:30,1557459935,2019-05-10 11:45:35,1557459935,620a4865-3af0-4823-9a27-4a53f6530ee1__pspm,http://pspm.pingstart.com/api/v4/postback?from=1706&clickid=620a4865-3af0-4823-9a27-4a53f6530ee1__pspm,idfa_663582D4-1030-4B91-A929-026612C4E1F2,ja
jr39D3zASW-KwzCiDA86tw,newborntown,p1846_2130_22215818,Install,1.0,133.163.14.167,CD0E0A88-101D-4D18-977F-52BD8AE743AD,1557448631,2019-05-10 08:37:11,1557449905,2019-05-10 08:58:25,1557449905,2ce8b3af-1fe2-4135-a884-fc9ce2f02d9a__pspm,http://pspm.pingstart.com/api/v4/postback?from=1706&clickid=2ce8b3af-1fe2-4135-a884-fc9ce2f02d9a__pspm,idfa_CD0E0A88-101D-4D18-977F-52BD8AE743AD,ja
jr39D3zASW-KwzCiDA86tw,newborntown,p1846_2130_22215818,Install,1.0,49.96.34.246,C78781D7-4396-4F7D-9603-7BDE43D5F571,1557368760,2019-05-09 10:26:00,1557386849,2019-05-09 15:27:29,1557386849,c51c27e1-11fc-4126-ad3a-8d5e7bbf2f4d__pspm,http://pspm.pingstart.com/api/v4/postback?from=1706&clickid=c51c27e1-11fc-4126-ad3a-8d5e7bbf2f4d__pspm,idfa_C78781D7-4396-4F7D-9603-7BDE43D5F571,ja
jr39D3zASW-KwzCiDA86tw,newborntown,p1846_2130_22215818,Install,1.0,182.251.117.144,A7F883C9-7A5D-47A4-A2F5-A40A87382135,1557367513,2019-05-09 10:05:13,1557402091,2019-05-09 19:41:31,1557402091,66595a1d-5150-46c2-871c-d3b61289c967__pspm,http://pspm.pingstart.com/api/v4/postback?from=1706&clickid=66595a1d-5150-46c2-871c-d3b61289c967__pspm,idfa_A7F883C9-7A5D-47A4-A2F5-A40A87382135,ja
jr39D3zASW-KwzCiDA86tw,newborntown,p1846_2130_22215818,Install,1.0,133.83.2.122,803E89A8-70D0-48CE-920E-65260B79305A,1557452758,2019-05-10 09:45:58,1557452849,2019-05-10 09:47:29,1557452849,5161d6dc-f084-42dc-9469-0541169616c2__pspm,http://pspm.pingstart.com/api/v4/postback?from=1706&clickid=5161d6dc-f084-42dc-9469-0541169616c2__pspm,idfa_803E89A8-70D0-48CE-920E-65260B79305A,ja
jr39D3zASW-KwzCiDA86tw,newborntown,p1846_2130_22215818,Install,1.0,202.241.99.94,54036E31-C592-4AD7-9B16-4F8750A72932,1557452682,2019-05-10 09:44:42,1557454083,2019-05-10 10:08:03,1557454083,a3c35fe8-6742-4fb2-980a-603d742134e9__pspm,http://pspm.pingstart.com/api/v4/postback?from=1706&clickid=a3c35fe8-6742-4fb2-980a-603d742134e9__pspm,idfa_54036E31-C592-4AD7-9B16-4F8750A72932,ja
jr39D3zASW-KwzCiDA86tw,newborntown,p1846_2130_22215818,Install,1.0,131.129.252.206,8834D9A2-4A95-4BEA-8EA0-4439B8207420,1557368661,2019-05-09 10:24:21,1557384838,2019-05-09 14:53:58,1557384838,35846c40-ad0d-4efb-81b9-bd44b4a465d5__pspm,http://pspm.pingstart.com/api/v4/postback?from=1706&clickid=35846c40-ad0d-4efb-81b9-bd44b4a465d5__pspm,idfa_8834D9A2-4A95-4BEA-8EA0-4439B8207420,ja
jr39D3zASW-KwzCiDA86tw,newborntown,p1846_2130_22215818,Install,1.0,126.199.70.20,DF536247-0BBC-41DC-BE31-11A72C037E08,1557450806,2019-05-10 09:13:26,1557456474,2019-05-10 10:47:54,1557456474,ff00a6d1-bf5e-42ec-a966-cd340da23ed9__pspm,http://pspm.pingstart.com/api/v4/postback?from=1706&clickid=ff00a6d1-bf5e-42ec-a966-cd340da23ed9__pspm,idfa_DF536247-0BBC-41DC-BE31-11A72C037E08,ja
jr39D3zASW-KwzCiDA86tw,newborntown,p1846_2130_22215818,Install,1.0,49.106.188.73,7F55EA18-B523-42F2-A366-DDF4B8517547,1557452131,2019-05-10 09:35:31,1557452340,2019-05-10 09:39:00,1557452340,2872ee83-b7c9-4b21-acaa-e1d235a2634d__pspm,http://pspm.pingstart.com/api/v4/postback?from=1706&clickid=2872ee83-b7c9-4b21-acaa-e1d235a2634d__pspm,idfa_7F55EA18-B523-42F2-A366-DDF4B8517547,ja
jr39D3zASW-KwzCiDA86tw,newborntown,p1846_2130_22215818,Install,1.0,202.35.227.241,5512AC32-7BCA-442B-93DA-B6916BECF658,1557449694,2019-05-10 08:54:54,1557454628,2019-05-10 10:17:08,1557454628,f3e15731-347a-4695-84e7-e3c3235e6250__pspm,http://pspm.pingstart.com/api/v4/postback?from=1706&clickid=f3e15731-347a-4695-84e7-e3c3235e6250__pspm,idfa_5512AC32-7BCA-442B-93DA-B6916BECF658,ja
jr39D3zASW-KwzCiDA86tw,newborntown,p1846_2130_22215818,Install,1.0,49.96.42.189,80092746-7D4C-490A-ABB9-D90CDA5F6D9B,1557448651,2019-05-10 08:37:31,1557451119,2019-05-10 09:18:39,1557451119,08ee0905-03ef-49a7-ae30-570e236e8bd8__pspm,http://pspm.pingstart.com/api/v4/postback?from=1706&clickid=08ee0905-03ef-49a7-ae30-570e236e8bd8__pspm,idfa_80092746-7D4C-490A-ABB9-D90CDA5F6D9B,ja
jr39D3zASW-KwzCiDA86tw,newborntown,p1846_2130_22215818,Install,1.0,126.35.28.162,431D401D-D41B-45F2-BD9D-BAA8C0A0587A,1557367885,2019-05-09 10:11:25,1557450218,2019-05-10 09:03:38,1557450218,01846466-a4ca-46ed-ab16-54ed751ebf76__pspm,http://pspm.pingstart.com/api/v4/postback?from=1706&clickid=01846466-a4ca-46ed-ab16-54ed751ebf76__pspm,idfa_431D401D-D41B-45F2-BD9D-BAA8C0A0587A,ja
jr39D3zASW-KwzCiDA86tw,newborntown,p1846_2130_22215818,Install,1.0,182.251.59.141,D01131C8-85AB-4760-B719-0540F4317444,1557368102,2019-05-09 10:15:02,1557389415,2019-05-09 16:10:15,1557389415,47500e9d-06ff-4456-bb09-e993123fd3df__pspm,http://pspm.pingstart.com/api/v4/postback?from=1706&clickid=47500e9d-06ff-4456-bb09-e993123fd3df__pspm,idfa_D01131C8-85AB-4760-B719-0540F4317444,ja
jr39D3zASW-KwzCiDA86tw,newborntown,p1846_2130_22215818,Install,1.0,182.251.110.134,481D3002-D700-4B76-8495-4A8264298AF9,1557448520,2019-05-10 08:35:20,1557459147,2019-05-10 11:32:27,1557459147,761a28f6-fe9b-434b-9506-b2529984b562__pspm,http://pspm.pingstart.com/api/v4/postback?from=1706&clickid=761a28f6-fe9b-434b-9506-b2529984b562__pspm,idfa_481D3002-D700-4B76-8495-4A8264298AF9,ja
jr39D3zASW-KwzCiDA86tw,newborntown,p1846_2130_22215818,Install,1.0,106.133.179.84,A5DC1690-6CA6-4768-89F0-EA62E9A0FD56,1557451428,2019-05-10 09:23:48,1557454919,2019-05-10 10:21:59,1557454919,c5954b91-d303-419e-b354-1014f56153a7__pspm,http://pspm.pingstart.com/api/v4/postback?from=1706&clickid=c5954b91-d303-419e-b354-1014f56153a7__pspm,idfa_A5DC1690-6CA6-4768-89F0-EA62E9A0FD56,ja
jr39D3zASW-KwzCiDA86tw,newborntown,p1846_2130_22215818,Install,1.0,49.96.39.119,C278A401-26D7-488D-9239-3A26CCB14C34,1557369011,2019-05-09 10:30:11,1557456949,2019-05-10 10:55:49,1557456949,9c1789d9-3d96-4090-929f-ffddbcf8c757__pspm,http://pspm.pingstart.com/api/v4/postback?from=1706&clickid=9c1789d9-3d96-4090-929f-ffddbcf8c757__pspm,idfa_C278A401-26D7-488D-9239-3A26CCB14C34,ja
jr39D3zASW-KwzCiDA86tw,newborntown,p1846_2130_22215818,Install,1.0,182.251.37.15,872C3240-2718-4581-B831-E132F21EB55E,1557367982,2019-05-09 10:13:02,1557401360,2019-05-09 19:29:20,1557401360,d46ae5b9-8bb7-46ac-9502-c54bcbd7ec5d__pspm,http://pspm.pingstart.com/api/v4/postback?from=1706&clickid=d46ae5b9-8bb7-46ac-9502-c54bcbd7ec5d__pspm,idfa_872C3240-2718-4581-B831-E132F21EB55E,ja
