cid,partner_id,channel_id,action_id,cpi,ip,idfa,click time,click datetime,install time,install datetime,postback time,click id,postback url,unique user id
eKO-Q_QYSdi_WNLdQtSxhw,newborntown,p1789_966-10526966,Of81qbvWSPKfViI7CdMfcw,2.5,,600C4D7E-6674-4B8A-81DE-EC8E1CE77050,1558838945,2019-05-26 10:49:05,1558839057,2019-05-26 10:50:57,1558839057,f0bbf460-f515-4431-885e-0db08f872ecd__pspm,http://pspm.pingstart.com/api/v4/postback?from=1706&clickid=f0bbf460-f515-4431-885e-0db08f872ecd__pspm,idfa_600C4D7E-6674-4B8A-81DE-EC8E1CE77050,ja
eKO-Q_QYSdi_WNLdQtSxhw,newborntown,p1789_966-10526966,Of81qbvWSPKfViI7CdMfcw,2.5,,B8D1F4D9-530C-460E-9C8F-7A360EEE3832,1558839011,2019-05-26 10:50:11,1558839149,2019-05-26 10:52:29,1558839149,66f80ab1-b867-4736-987d-3779f76470c5__pspm,http://pspm.pingstart.com/api/v4/postback?from=1706&clickid=66f80ab1-b867-4736-987d-3779f76470c5__pspm,idfa_B8D1F4D9-530C-460E-9C8F-7A360EEE3832,ja
eKO-Q_QYSdi_WNLdQtSxhw,newborntown,p1789_966-10526966,Of81qbvWSPKfViI7CdMfcw,2.5,,92F246EE-4DF3-4843-9CAE-DF0ED93C2637,1558839036,2019-05-26 10:50:36,1558839175,2019-05-26 10:52:55,1558839175,9f71df98-2999-4fd7-a00e-35bab9ecf50c__pspm,http://pspm.pingstart.com/api/v4/postback?from=1706&clickid=9f71df98-2999-4fd7-a00e-35bab9ecf50c__pspm,idfa_92F246EE-4DF3-4843-9CAE-DF0ED93C2637,ja
eKO-Q_QYSdi_WNLdQtSxhw,newborntown,p1789_966-10526966,Of81qbvWSPKfViI7CdMfcw,2.5,,5D95FC28-FFC9-4108-9939-039A2C7CA2C3,1558838951,2019-05-26 10:49:11,1558839070,2019-05-26 10:51:10,1558839070,b476bc29-d124-4482-93cc-1419843d7764__pspm,http://pspm.pingstart.com/api/v4/postback?from=1706&clickid=b476bc29-d124-4482-93cc-1419843d7764__pspm,idfa_5D95FC28-FFC9-4108-9939-039A2C7CA2C3,ja
eKO-Q_QYSdi_WNLdQtSxhw,newborntown,p1789_966-10526966,Of81qbvWSPKfViI7CdMfcw,2.5,,DADA2493-F0CD-4472-99AD-6FCDB3D8B4A0,1558838555,2019-05-26 10:42:35,1558838701,2019-05-26 10:45:01,1558838701,a6313964-e0e0-48a6-9e00-839a8fd9a364__pspm,http://pspm.pingstart.com/api/v4/postback?from=1706&clickid=a6313964-e0e0-48a6-9e00-839a8fd9a364__pspm,idfa_DADA2493-F0CD-4472-99AD-6FCDB3D8B4A0,ja
eKO-Q_QYSdi_WNLdQtSxhw,newborntown,p1789_966-10526966,Of81qbvWSPKfViI7CdMfcw,2.5,,415C82F9-812B-4474-861C-CECD92CCC48F,1558838936,2019-05-26 10:48:56,1558839051,2019-05-26 10:50:51,1558839051,66676b2a-bc41-4aaf-b9f2-c2a19cc91ff5__pspm,http://pspm.pingstart.com/api/v4/postback?from=1706&clickid=66676b2a-bc41-4aaf-b9f2-c2a19cc91ff5__pspm,idfa_415C82F9-812B-4474-861C-CECD92CCC48F,ja
eKO-Q_QYSdi_WNLdQtSxhw,newborntown,p1789_966-10526966,Of81qbvWSPKfViI7CdMfcw,2.5,,794437F2-771C-4746-89F8-745FFB3A938C,1558839015,2019-05-26 10:50:15,1558839149,2019-05-26 10:52:29,1558839149,4993ee6d-441f-467a-b9ab-3f8e20b04047__pspm,http://pspm.pingstart.com/api/v4/postback?from=1706&clickid=4993ee6d-441f-467a-b9ab-3f8e20b04047__pspm,idfa_794437F2-771C-4746-89F8-745FFB3A938C,ja
eKO-Q_QYSdi_WNLdQtSxhw,newborntown,p1789_966-10526966,Of81qbvWSPKfViI7CdMfcw,2.5,,457D8D2C-B5EE-472F-ADC8-7E2A078A2EF6,1558838933,2019-05-26 10:48:53,1558839065,2019-05-26 10:51:05,1558839065,df588652-9a8d-49ef-8ae8-b0e75d0434dd__pspm,http://pspm.pingstart.com/api/v4/postback?from=1706&clickid=df588652-9a8d-49ef-8ae8-b0e75d0434dd__pspm,idfa_457D8D2C-B5EE-472F-ADC8-7E2A078A2EF6,ja
eKO-Q_QYSdi_WNLdQtSxhw,newborntown,p1789_966-10526966,Of81qbvWSPKfViI7CdMfcw,2.5,,64C4B61D-5CFE-46EB-8A83-628D90AB6BFB,1558838549,2019-05-26 10:42:29,1558838704,2019-05-26 10:45:04,1558838704,af73c09c-7ce7-428e-868b-076bca25d398__pspm,http://pspm.pingstart.com/api/v4/postback?from=1706&clickid=af73c09c-7ce7-428e-868b-076bca25d398__pspm,idfa_64C4B61D-5CFE-46EB-8A83-628D90AB6BFB,ja
eKO-Q_QYSdi_WNLdQtSxhw,newborntown,p1789_966-10526966,Of81qbvWSPKfViI7CdMfcw,2.5,,B32C135C-0E02-4BFA-BB57-7BD28CD55747,1558801444,2019-05-26 00:24:04,1558801558,2019-05-26 00:25:58,1558801558,3a322a84-5b7c-4ddb-88e3-2b1696d37516__pspm,http://pspm.pingstart.com/api/v4/postback?from=1706&clickid=3a322a84-5b7c-4ddb-88e3-2b1696d37516__pspm,idfa_B32C135C-0E02-4BFA-BB57-7BD28CD55747,ja
eKO-Q_QYSdi_WNLdQtSxhw,newborntown,p1789_966-10526966,Of81qbvWSPKfViI7CdMfcw,2.5,,329101E6-3CB5-4B9E-A064-2CA69762F843,1558839067,2019-05-26 10:51:07,1558839195,2019-05-26 10:53:15,1558839195,e5d24a2f-8ebe-40f5-aab7-bc251ed92a7f__pspm,http://pspm.pingstart.com/api/v4/postback?from=1706&clickid=e5d24a2f-8ebe-40f5-aab7-bc251ed92a7f__pspm,idfa_329101E6-3CB5-4B9E-A064-2CA69762F843,ja
eKO-Q_QYSdi_WNLdQtSxhw,newborntown,p1789_966-10526966,Of81qbvWSPKfViI7CdMfcw,2.5,,1AAC27D7-A1E3-4B0B-9A6E-CB982960F7C5,1558838937,2019-05-26 10:48:57,1558839073,2019-05-26 10:51:13,1558839073,e5040c53-8a29-44e9-96fd-5665dace4500__pspm,http://pspm.pingstart.com/api/v4/postback?from=1706&clickid=e5040c53-8a29-44e9-96fd-5665dace4500__pspm,idfa_1AAC27D7-A1E3-4B0B-9A6E-CB982960F7C5,ja
eKO-Q_QYSdi_WNLdQtSxhw,newborntown,p1789_966-10526966,Of81qbvWSPKfViI7CdMfcw,2.5,,D3F2920E-0D85-45D1-904B-6C658ABD83A9,1558838943,2019-05-26 10:49:03,1558839058,2019-05-26 10:50:58,1558839058,7e070b49-b69e-4f6f-b505-c5b2d72c59bc__pspm,http://pspm.pingstart.com/api/v4/postback?from=1706&clickid=7e070b49-b69e-4f6f-b505-c5b2d72c59bc__pspm,idfa_D3F2920E-0D85-45D1-904B-6C658ABD83A9,ja
eKO-Q_QYSdi_WNLdQtSxhw,newborntown,p1789_966-10526966,Of81qbvWSPKfViI7CdMfcw,2.5,,7636BCCF-BEF6-476A-98D9-687E868B1E3C,1558838948,2019-05-26 10:49:08,1558839075,2019-05-26 10:51:15,1558839075,e036ea0c-2eaa-4379-9440-11823f15eed3__pspm,http://pspm.pingstart.com/api/v4/postback?from=1706&clickid=e036ea0c-2eaa-4379-9440-11823f15eed3__pspm,idfa_7636BCCF-BEF6-476A-98D9-687E868B1E3C,ja
eKO-Q_QYSdi_WNLdQtSxhw,newborntown,p1789_966-10526966,Of81qbvWSPKfViI7CdMfcw,2.5,,3DDFE8F2-C267-4493-8A1A-CE6C6F4FD730,1558838963,2019-05-26 10:49:23,1558839083,2019-05-26 10:51:23,1558839083,dd1e61a2-85ac-491a-8391-ad641d7c56ca__pspm,http://pspm.pingstart.com/api/v4/postback?from=1706&clickid=dd1e61a2-85ac-491a-8391-ad641d7c56ca__pspm,idfa_3DDFE8F2-C267-4493-8A1A-CE6C6F4FD730,ja
eKO-Q_QYSdi_WNLdQtSxhw,newborntown,p1789_966-10526966,Of81qbvWSPKfViI7CdMfcw,2.5,,610328D9-62FF-4B03-9F57-D7140F495001,1558838956,2019-05-26 10:49:16,1558839069,2019-05-26 10:51:09,1558839069,1cea150d-fd77-4959-8a1b-5b210781a592__pspm,http://pspm.pingstart.com/api/v4/postback?from=1706&clickid=1cea150d-fd77-4959-8a1b-5b210781a592__pspm,idfa_610328D9-62FF-4B03-9F57-D7140F495001,ja
eKO-Q_QYSdi_WNLdQtSxhw,newborntown,p1789_966-10526966,Of81qbvWSPKfViI7CdMfcw,2.5,,1C22CB84-58B3-4AA6-A7F6-382A11DE7C76,1558838968,2019-05-26 10:49:28,1558839081,2019-05-26 10:51:21,1558839081,3829b46e-8297-456c-9df6-94fe7f711223__pspm,http://pspm.pingstart.com/api/v4/postback?from=1706&clickid=3829b46e-8297-456c-9df6-94fe7f711223__pspm,idfa_1C22CB84-58B3-4AA6-A7F6-382A11DE7C76,ja
eKO-Q_QYSdi_WNLdQtSxhw,newborntown,p1789_966-10526966,Of81qbvWSPKfViI7CdMfcw,2.5,,12A704D0-B3B2-49FB-900E-B87D4980D646,1558838968,2019-05-26 10:49:28,1558839085,2019-05-26 10:51:25,1558839085,c40f5697-903e-4515-9dc8-0baf27e3cee8__pspm,http://pspm.pingstart.com/api/v4/postback?from=1706&clickid=c40f5697-903e-4515-9dc8-0baf27e3cee8__pspm,idfa_12A704D0-B3B2-49FB-900E-B87D4980D646,ja
eKO-Q_QYSdi_WNLdQtSxhw,newborntown,p1789_966-10526966,Of81qbvWSPKfViI7CdMfcw,2.5,,A86D6603-C99E-49F9-8777-F1D4BC69C91E,1558837917,2019-05-26 10:31:57,1558838031,2019-05-26 10:33:51,1558838031,7fa67645-71b2-49a7-a579-4d0d053989ad__pspm,http://pspm.pingstart.com/api/v4/postback?from=1706&clickid=7fa67645-71b2-49a7-a579-4d0d053989ad__pspm,idfa_A86D6603-C99E-49F9-8777-F1D4BC69C91E,ja
eKO-Q_QYSdi_WNLdQtSxhw,newborntown,p1789_966-10526966,Of81qbvWSPKfViI7CdMfcw,2.5,,30CF0AAE-4015-44B9-AAAB-DE15A3CF4AC3,1558839041,2019-05-26 10:50:41,1558839155,2019-05-26 10:52:35,1558839155,a980d4b6-c0c6-4ded-b732-e4316746c542__pspm,http://pspm.pingstart.com/api/v4/postback?from=1706&clickid=a980d4b6-c0c6-4ded-b732-e4316746c542__pspm,idfa_30CF0AAE-4015-44B9-AAAB-DE15A3CF4AC3,ja
eKO-Q_QYSdi_WNLdQtSxhw,newborntown,p1789_966-10526966,Of81qbvWSPKfViI7CdMfcw,2.5,,32948EEF-8A19-4E55-89DB-FF993F55D694,1558838717,2019-05-26 10:45:17,1558838848,2019-05-26 10:47:28,1558838848,603f57da-2e78-4be0-9234-e31de5b9eaa2__pspm,http://pspm.pingstart.com/api/v4/postback?from=1706&clickid=603f57da-2e78-4be0-9234-e31de5b9eaa2__pspm,idfa_32948EEF-8A19-4E55-89DB-FF993F55D694,ja
eKO-Q_QYSdi_WNLdQtSxhw,newborntown,p1789_966-10526966,Of81qbvWSPKfViI7CdMfcw,2.5,,65693541-5D14-4BDF-B081-1F12BE89C213,1558839074,2019-05-26 10:51:14,1558839190,2019-05-26 10:53:10,1558839190,2c5738a3-0218-429b-889e-1225ae1a6dc2__pspm,http://pspm.pingstart.com/api/v4/postback?from=1706&clickid=2c5738a3-0218-429b-889e-1225ae1a6dc2__pspm,idfa_65693541-5D14-4BDF-B081-1F12BE89C213,ja
eKO-Q_QYSdi_WNLdQtSxhw,newborntown,p1789_966-10526966,Of81qbvWSPKfViI7CdMfcw,2.5,,FCCB6A19-E9E3-44DF-B5E3-3C36F28D3813,1558838946,2019-05-26 10:49:06,1558839070,2019-05-26 10:51:10,1558839070,0daa4ed3-51bb-475b-9589-ddfaa759aa4a__pspm,http://pspm.pingstart.com/api/v4/postback?from=1706&clickid=0daa4ed3-51bb-475b-9589-ddfaa759aa4a__pspm,idfa_FCCB6A19-E9E3-44DF-B5E3-3C36F28D3813,ja
eKO-Q_QYSdi_WNLdQtSxhw,newborntown,p1789_966-10526966,Of81qbvWSPKfViI7CdMfcw,2.5,,509788E2-5EFC-4396-9B97-97CC1832E8FD,1558838581,2019-05-26 10:43:01,1558838707,2019-05-26 10:45:07,1558838707,994de34d-8237-42c5-8afe-1b42fc9550f6__pspm,http://pspm.pingstart.com/api/v4/postback?from=1706&clickid=994de34d-8237-42c5-8afe-1b42fc9550f6__pspm,idfa_509788E2-5EFC-4396-9B97-97CC1832E8FD,ja
eKO-Q_QYSdi_WNLdQtSxhw,newborntown,p1789_966-10526966,Of81qbvWSPKfViI7CdMfcw,2.5,,4FF764DD-4D1E-4546-BD55-13B056D7398C,1558839028,2019-05-26 10:50:28,1558839151,2019-05-26 10:52:31,1558839151,2bb57cf1-7541-49cb-8339-97c1fb6ee5ac__pspm,http://pspm.pingstart.com/api/v4/postback?from=1706&clickid=2bb57cf1-7541-49cb-8339-97c1fb6ee5ac__pspm,idfa_4FF764DD-4D1E-4546-BD55-13B056D7398C,ja
eKO-Q_QYSdi_WNLdQtSxhw,newborntown,p1789_966-10526966,Of81qbvWSPKfViI7CdMfcw,2.5,,04F1E13D-FBE8-49A0-9A51-E3D9BD030A60,1558839038,2019-05-26 10:50:38,1558839177,2019-05-26 10:52:57,1558839177,f718081a-7cf2-4769-a727-ff69e7ea6609__pspm,http://pspm.pingstart.com/api/v4/postback?from=1706&clickid=f718081a-7cf2-4769-a727-ff69e7ea6609__pspm,idfa_04F1E13D-FBE8-49A0-9A51-E3D9BD030A60,ja
eKO-Q_QYSdi_WNLdQtSxhw,newborntown,p1789_966-10526966,Of81qbvWSPKfViI7CdMfcw,2.5,,3A18E655-C75C-4F82-90BF-8065450B6A5D,1558838906,2019-05-26 10:48:26,1558839023,2019-05-26 10:50:23,1558839023,0778b9d9-c447-4e86-87b4-ff55daaf7398__pspm,http://pspm.pingstart.com/api/v4/postback?from=1706&clickid=0778b9d9-c447-4e86-87b4-ff55daaf7398__pspm,idfa_3A18E655-C75C-4F82-90BF-8065450B6A5D,ja
