cid,partner_id,channel_id,action_id,cpi,ip,idfa,click time,click datetime,install time,install datetime,postback time,click id,postback url,unique user id
_je9kW_ER8u_fJ0NElhvHw,newborntown,p1789_451-40176,Install,2.7,114.42.40.192,3d5aa645-67b4-4131-a296-05f42c3a9a61,1558612062,2019-05-23 19:47:42,1558612250,2019-05-23 19:50:50,1558612315,d7fbd537-ac14-4f31-9f44-f5608623c008__pspm,http://pspm.pingstart.com/api/v4/postback?from=1706&clickid=d7fbd537-ac14-4f31-9f44-f5608623c008__pspm,idfa_3d5aa645-67b4-4131-a296-05f42c3a9a61,%E4%B8%AD%E6%96%87
_je9kW_ER8u_fJ0NElhvHw,newborntown,p1789_451-40176,Install,2.7,180.217.139.254,f0b81550-689d-41d4-986a-f6b5dff40cce,1558611140,2019-05-23 19:32:20,1558611323,2019-05-23 19:35:23,1558611355,926274b4-03ab-4132-9091-b6944b5a3cc4__pspm,http://pspm.pingstart.com/api/v4/postback?from=1706&clickid=926274b4-03ab-4132-9091-b6944b5a3cc4__pspm,idfa_f0b81550-689d-41d4-986a-f6b5dff40cce,%E4%B8%AD%E6%96%87
_je9kW_ER8u_fJ0NElhvHw,newborntown,p1789_451-40176,Install,2.7,101.12.19.64,b951e8b4-ee0f-4006-8791-c4cba22251c6,1558611929,2019-05-23 19:45:29,1558612114,2019-05-23 19:48:34,1558612192,e42bd14c-625b-4633-b780-c2158c55aa6b__pspm,http://pspm.pingstart.com/api/v4/postback?from=1706&clickid=e42bd14c-625b-4633-b780-c2158c55aa6b__pspm,idfa_b951e8b4-ee0f-4006-8791-c4cba22251c6,%E4%B8%AD%E6%96%87
_je9kW_ER8u_fJ0NElhvHw,newborntown,p1789_451-40176,Install,2.7,101.15.229.167,3791e98e-4aae-4735-bca7-b7c4465104b1,1558611692,2019-05-23 19:41:32,1558611871,2019-05-23 19:44:31,1558612208,60418761-0a76-42c4-a32b-ed1a93196cd9__pspm,http://pspm.pingstart.com/api/v4/postback?from=1706&clickid=60418761-0a76-42c4-a32b-ed1a93196cd9__pspm,idfa_3791e98e-4aae-4735-bca7-b7c4465104b1,%E4%B8%AD%E6%96%87
_je9kW_ER8u_fJ0NElhvHw,newborntown,p1789_451-40176,Install,2.7,39.12.34.210,d0f4eed2-0d9b-4a5a-aacd-065ec48753b1,1558611818,2019-05-23 19:43:38,1558612037,2019-05-23 19:47:17,1558612107,a6c63cec-20cf-494b-9c2d-ac9dab70d5e5__pspm,http://pspm.pingstart.com/api/v4/postback?from=1706&clickid=a6c63cec-20cf-494b-9c2d-ac9dab70d5e5__pspm,idfa_d0f4eed2-0d9b-4a5a-aacd-065ec48753b1,%E4%B8%AD%E6%96%87
_je9kW_ER8u_fJ0NElhvHw,newborntown,p1789_451-40176,Install,2.7,182.235.146.122,8f7d8913-f42e-44ae-97c7-30b965f1ac86,1558611962,2019-05-23 19:46:02,1558612148,2019-05-23 19:49:08,1558612259,b124051a-223b-4e63-83ff-54e7f0be9b61__pspm,http://pspm.pingstart.com/api/v4/postback?from=1706&clickid=b124051a-223b-4e63-83ff-54e7f0be9b61__pspm,idfa_8f7d8913-f42e-44ae-97c7-30b965f1ac86,%E4%B8%AD%E6%96%87
_je9kW_ER8u_fJ0NElhvHw,newborntown,p1789_451-40176,Install,2.7,116.241.198.218,fcf9cebc-1863-4d11-bf5c-cfe81698d2a1,1558611874,2019-05-23 19:44:34,1558612098,2019-05-23 19:48:18,1558612129,f766303d-5331-4161-a83a-96fc095018f5__pspm,http://pspm.pingstart.com/api/v4/postback?from=1706&clickid=f766303d-5331-4161-a83a-96fc095018f5__pspm,idfa_fcf9cebc-1863-4d11-bf5c-cfe81698d2a1,%E4%B8%AD%E6%96%87
_je9kW_ER8u_fJ0NElhvHw,newborntown,p1789_451-40176,Install,2.7,123.194.19.5,72c18fe0-d2d5-4090-b6ef-4f0ad35eeb0c,1558612071,2019-05-23 19:47:51,1558612253,2019-05-23 19:50:53,1558612290,96d4453a-e516-484a-bc49-a94fdbbe6c11__pspm,http://pspm.pingstart.com/api/v4/postback?from=1706&clickid=96d4453a-e516-484a-bc49-a94fdbbe6c11__pspm,idfa_72c18fe0-d2d5-4090-b6ef-4f0ad35eeb0c,%E4%B8%AD%E6%96%87
_je9kW_ER8u_fJ0NElhvHw,newborntown,p1789_451-40176,Install,2.7,175.97.34.71,0bb7428d-3919-4568-a8f9-2889f219d51e,1558611763,2019-05-23 19:42:43,1558611941,2019-05-23 19:45:41,1558611973,bcd79fdf-5823-4f2f-9e49-8c5d3145a35b__pspm,http://pspm.pingstart.com/api/v4/postback?from=1706&clickid=bcd79fdf-5823-4f2f-9e49-8c5d3145a35b__pspm,idfa_0bb7428d-3919-4568-a8f9-2889f219d51e,%E4%B8%AD%E6%96%87
_je9kW_ER8u_fJ0NElhvHw,newborntown,p1789_451-40176,Install,2.7,110.26.199.233,5dd2e8f2-8a7d-4ee6-9253-82e92029a28c,1558609438,2019-05-23 19:03:58,1558609622,2019-05-23 19:07:02,1558609670,fba0f0c7-0d1e-4549-9d80-cd2d85a5f3b3__pspm,http://pspm.pingstart.com/api/v4/postback?from=1706&clickid=fba0f0c7-0d1e-4549-9d80-cd2d85a5f3b3__pspm,idfa_5dd2e8f2-8a7d-4ee6-9253-82e92029a28c,%E4%B8%AD%E6%96%87
_je9kW_ER8u_fJ0NElhvHw,newborntown,p1789_451-40176,Install,2.7,101.14.210.65,489c2635-2898-4cbd-80f8-34aed0af07e4,1558611201,2019-05-23 19:33:21,1558611388,2019-05-23 19:36:28,1558611420,856f5cbb-16a9-4c96-9786-6bf2deb435e9__pspm,http://pspm.pingstart.com/api/v4/postback?from=1706&clickid=856f5cbb-16a9-4c96-9786-6bf2deb435e9__pspm,idfa_489c2635-2898-4cbd-80f8-34aed0af07e4,%E4%B8%AD%E6%96%87
_je9kW_ER8u_fJ0NElhvHw,newborntown,p1789_451-40176,Install,2.7,27.247.13.120,0e7e0430-df81-40b2-a058-76764ca36442,1558611136,2019-05-23 19:32:16,1558611614,2019-05-23 19:40:14,1558611645,9cc04255-183f-4154-b5f1-8accb894beef__pspm,http://pspm.pingstart.com/api/v4/postback?from=1706&clickid=9cc04255-183f-4154-b5f1-8accb894beef__pspm,idfa_0e7e0430-df81-40b2-a058-76764ca36442,%E4%B8%AD%E6%96%87
_je9kW_ER8u_fJ0NElhvHw,newborntown,p1789_451-40176,Install,2.7,101.13.191.53,c377d59e-8840-4858-8bf1-481498881dd0,1558611446,2019-05-23 19:37:26,1558611632,2019-05-23 19:40:32,1558611663,c40bbd8f-1b72-4731-8799-53d27739dcc1__pspm,http://pspm.pingstart.com/api/v4/postback?from=1706&clickid=c40bbd8f-1b72-4731-8799-53d27739dcc1__pspm,idfa_c377d59e-8840-4858-8bf1-481498881dd0,%E4%B8%AD%E6%96%87
_je9kW_ER8u_fJ0NElhvHw,newborntown,p1789_451-40176,Install,2.7,223.138.171.92,08b2324c-8ccc-43a1-a1b4-25da3d8382ae,1558612154,2019-05-23 19:49:14,1558612303,2019-05-23 19:51:43,1558612335,1635c21b-d91e-488f-9e3c-fca4e16aeabf__pspm,http://pspm.pingstart.com/api/v4/postback?from=1706&clickid=1635c21b-d91e-488f-9e3c-fca4e16aeabf__pspm,idfa_08b2324c-8ccc-43a1-a1b4-25da3d8382ae,%E4%B8%AD%E6%96%87
_je9kW_ER8u_fJ0NElhvHw,newborntown,p1789_451-40176,Install,2.7,180.217.150.113,2dc40a86-cf8f-4c7b-8196-17f456615d57,1558611253,2019-05-23 19:34:13,1558611436,2019-05-23 19:37:16,1558611467,87eb5012-7460-43fc-a1f8-397581b433e2__pspm,http://pspm.pingstart.com/api/v4/postback?from=1706&clickid=87eb5012-7460-43fc-a1f8-397581b433e2__pspm,idfa_2dc40a86-cf8f-4c7b-8196-17f456615d57,%E4%B8%AD%E6%96%87
_je9kW_ER8u_fJ0NElhvHw,newborntown,p1789_451-40176,Install,2.7,58.115.133.200,a96d45e4-912e-44b6-a0c2-9de4b6d7075c,1558611888,2019-05-23 19:44:48,1558612062,2019-05-23 19:47:42,1558612093,110dbb3d-542a-4406-84ec-fc089cf5329f__pspm,http://pspm.pingstart.com/api/v4/postback?from=1706&clickid=110dbb3d-542a-4406-84ec-fc089cf5329f__pspm,idfa_a96d45e4-912e-44b6-a0c2-9de4b6d7075c,%E4%B8%AD%E6%96%87
_je9kW_ER8u_fJ0NElhvHw,newborntown,p1789_451-40176,Install,2.7,27.246.193.0,3ebb4317-7da3-4469-9401-57e8ec64933e,1558611810,2019-05-23 19:43:30,1558611991,2019-05-23 19:46:31,1558612022,65803deb-221f-4e6b-96fa-922dddd41d2d__pspm,http://pspm.pingstart.com/api/v4/postback?from=1706&clickid=65803deb-221f-4e6b-96fa-922dddd41d2d__pspm,idfa_3ebb4317-7da3-4469-9401-57e8ec64933e,%E4%B8%AD%E6%96%87
_je9kW_ER8u_fJ0NElhvHw,newborntown,p1789_451-40176,Install,2.7,39.12.98.18,4a28cae2-67ef-4df3-86a9-fd925933a5f3,1558611687,2019-05-23 19:41:27,1558611869,2019-05-23 19:44:29,1558611900,85e47448-4aad-4220-b285-79cdbcf97b2f__pspm,http://pspm.pingstart.com/api/v4/postback?from=1706&clickid=85e47448-4aad-4220-b285-79cdbcf97b2f__pspm,idfa_4a28cae2-67ef-4df3-86a9-fd925933a5f3,%E4%B8%AD%E6%96%87
_je9kW_ER8u_fJ0NElhvHw,newborntown,p1789_451-40176,Install,2.7,223.141.52.248,c98c7a00-42e9-4fe0-b633-d52b4b3876b9,1558611447,2019-05-23 19:37:27,1558611637,2019-05-23 19:40:37,1558611668,fd1c4f87-0c93-4fe6-a508-41fdeb31566d__pspm,http://pspm.pingstart.com/api/v4/postback?from=1706&clickid=fd1c4f87-0c93-4fe6-a508-41fdeb31566d__pspm,idfa_c98c7a00-42e9-4fe0-b633-d52b4b3876b9,%E4%B8%AD%E6%96%87
_je9kW_ER8u_fJ0NElhvHw,newborntown,p1789_451-40176,Install,2.7,111.82.150.45,0b8cacd8-6bea-40f3-b056-862cba6e7d9b,1558612069,2019-05-23 19:47:49,1558612254,2019-05-23 19:50:54,1558612285,0a1a97da-7862-476d-851d-38c23ae34609__pspm,http://pspm.pingstart.com/api/v4/postback?from=1706&clickid=0a1a97da-7862-476d-851d-38c23ae34609__pspm,idfa_0b8cacd8-6bea-40f3-b056-862cba6e7d9b,%E4%B8%AD%E6%96%87
_je9kW_ER8u_fJ0NElhvHw,newborntown,p1789_451-40176,Install,2.7,27.246.129.88,c0da0b0d-06ac-4bb2-851f-26188a97107e,1558611137,2019-05-23 19:32:17,1558611320,2019-05-23 19:35:20,1558611351,1fe84c77-ecb5-4686-8744-4e36c384f725__pspm,http://pspm.pingstart.com/api/v4/postback?from=1706&clickid=1fe84c77-ecb5-4686-8744-4e36c384f725__pspm,idfa_c0da0b0d-06ac-4bb2-851f-26188a97107e,%E4%B8%AD%E6%96%87
_je9kW_ER8u_fJ0NElhvHw,newborntown,p1789_451-40176,Install,2.7,220.142.192.237,392243d1-b110-4fb6-b8cd-1335e3f16651,1558611805,2019-05-23 19:43:25,1558611988,2019-05-23 19:46:28,1558612019,4a5ddf3b-0142-4228-bf4b-c9926bb8969b__pspm,http://pspm.pingstart.com/api/v4/postback?from=1706&clickid=4a5ddf3b-0142-4228-bf4b-c9926bb8969b__pspm,idfa_392243d1-b110-4fb6-b8cd-1335e3f16651,%E4%B8%AD%E6%96%87
_je9kW_ER8u_fJ0NElhvHw,newborntown,p1789_451-40176,Install,2.7,61.223.102.77,78196d2a-f5ec-483b-9e52-c0515b0390b6,1558611966,2019-05-23 19:46:06,1558612171,2019-05-23 19:49:31,1558612202,a3223f13-8c24-4a27-ace7-e64dd3e4719e__pspm,http://pspm.pingstart.com/api/v4/postback?from=1706&clickid=a3223f13-8c24-4a27-ace7-e64dd3e4719e__pspm,idfa_78196d2a-f5ec-483b-9e52-c0515b0390b6,%E4%B8%AD%E6%96%87
_je9kW_ER8u_fJ0NElhvHw,newborntown,p1789_451-40176,Install,2.7,114.44.8.159,f815cd8a-b304-4c39-864d-46f9ee8cc8c5,1558611633,2019-05-23 19:40:33,1558611824,2019-05-23 19:43:44,1558611855,21674149-1ea3-490e-bb0e-90d1b66a8d30__pspm,http://pspm.pingstart.com/api/v4/postback?from=1706&clickid=21674149-1ea3-490e-bb0e-90d1b66a8d30__pspm,idfa_f815cd8a-b304-4c39-864d-46f9ee8cc8c5,%E4%B8%AD%E6%96%87
_je9kW_ER8u_fJ0NElhvHw,newborntown,p1789_451-40176,Install,2.7,39.12.225.172,b4c2ac8f-3de4-4807-be8e-89afd99827f4,1558611194,2019-05-23 19:33:14,1558611376,2019-05-23 19:36:16,1558611414,573c7b4b-fa7d-4116-b932-4827b4eb0ab3__pspm,http://pspm.pingstart.com/api/v4/postback?from=1706&clickid=573c7b4b-fa7d-4116-b932-4827b4eb0ab3__pspm,idfa_b4c2ac8f-3de4-4807-be8e-89afd99827f4,%E4%B8%AD%E6%96%87
_je9kW_ER8u_fJ0NElhvHw,newborntown,p1789_451-40176,Install,2.7,27.247.163.166,d2e16b23-6b4b-4876-9c15-c344e8f90148,1558612058,2019-05-23 19:47:38,1558612243,2019-05-23 19:50:43,1558612330,f60354ea-aee3-400f-8ad0-0b943ae939fa__pspm,http://pspm.pingstart.com/api/v4/postback?from=1706&clickid=f60354ea-aee3-400f-8ad0-0b943ae939fa__pspm,idfa_d2e16b23-6b4b-4876-9c15-c344e8f90148,%E4%B8%AD%E6%96%87
_je9kW_ER8u_fJ0NElhvHw,newborntown,p1789_451-40176,Install,2.7,110.50.181.54,a78c362c-e453-4026-a27c-0d458b6eadce,1558611994,2019-05-23 19:46:34,1558612277,2019-05-23 19:51:17,1558612307,07d88b60-4edb-46cb-a4a0-d74c3d36b2ce__pspm,http://pspm.pingstart.com/api/v4/postback?from=1706&clickid=07d88b60-4edb-46cb-a4a0-d74c3d36b2ce__pspm,idfa_a78c362c-e453-4026-a27c-0d458b6eadce,%E4%B8%AD%E6%96%87
_je9kW_ER8u_fJ0NElhvHw,newborntown,p1789_451-40176,Install,2.7,39.12.5.224,10d57cca-b70f-47a7-90c5-7637bc686e31,1558609437,2019-05-23 19:03:57,1558609621,2019-05-23 19:07:01,1558609652,df1747c7-01a7-44b6-bb79-2d89b9360a5a__pspm,http://pspm.pingstart.com/api/v4/postback?from=1706&clickid=df1747c7-01a7-44b6-bb79-2d89b9360a5a__pspm,idfa_10d57cca-b70f-47a7-90c5-7637bc686e31,%E4%B8%AD%E6%96%87
_je9kW_ER8u_fJ0NElhvHw,newborntown,p1789_451-40176,Install,2.7,180.217.222.18,062fe669-4394-4388-a68f-da1b7cd62b0c,1558611326,2019-05-23 19:35:26,1558611513,2019-05-23 19:38:33,1558611545,e9d6a6c6-2089-4c09-8495-453ea3c66597__pspm,http://pspm.pingstart.com/api/v4/postback?from=1706&clickid=e9d6a6c6-2089-4c09-8495-453ea3c66597__pspm,idfa_062fe669-4394-4388-a68f-da1b7cd62b0c,%E4%B8%AD%E6%96%87
_je9kW_ER8u_fJ0NElhvHw,newborntown,p1789_451-40176,Install,2.7,42.73.107.3,ae1c8f61-b7ec-45b4-bba2-be90bfba2ebc,1558612062,2019-05-23 19:47:42,1558612249,2019-05-23 19:50:49,1558612280,c22a47bb-1c80-4f66-bcd7-53c51896814c__pspm,http://pspm.pingstart.com/api/v4/postback?from=1706&clickid=c22a47bb-1c80-4f66-bcd7-53c51896814c__pspm,idfa_ae1c8f61-b7ec-45b4-bba2-be90bfba2ebc,%E4%B8%AD%E6%96%87
_je9kW_ER8u_fJ0NElhvHw,newborntown,p1789_451-40176,Install,2.7,49.216.0.76,58d030fa-8cbe-467e-9a5f-1e116ab3d4a0,1558611388,2019-05-23 19:36:28,1558611574,2019-05-23 19:39:34,1558611605,df288fae-1af2-4082-a34a-a32d1bd92d60__pspm,http://pspm.pingstart.com/api/v4/postback?from=1706&clickid=df288fae-1af2-4082-a34a-a32d1bd92d60__pspm,idfa_58d030fa-8cbe-467e-9a5f-1e116ab3d4a0,%E4%B8%AD%E6%96%87
_je9kW_ER8u_fJ0NElhvHw,newborntown,p1789_451-40176,Install,2.7,110.50.159.142,bbc29780-840b-4399-94c4-a1833c9386b9,1558611756,2019-05-23 19:42:36,1558612063,2019-05-23 19:47:43,1558612122,8e62a183-708a-4b8c-a92b-2212f389a8db__pspm,http://pspm.pingstart.com/api/v4/postback?from=1706&clickid=8e62a183-708a-4b8c-a92b-2212f389a8db__pspm,idfa_bbc29780-840b-4399-94c4-a1833c9386b9,%E4%B8%AD%E6%96%87
_je9kW_ER8u_fJ0NElhvHw,newborntown,p1789_451-40176,Install,2.7,180.217.230.132,2f9a2038-a05b-4140-9883-ae465ad22925,1558611878,2019-05-23 19:44:38,1558612065,2019-05-23 19:47:45,1558612096,64db4214-bb61-4d26-9891-e9ee3466e75d__pspm,http://pspm.pingstart.com/api/v4/postback?from=1706&clickid=64db4214-bb61-4d26-9891-e9ee3466e75d__pspm,idfa_2f9a2038-a05b-4140-9883-ae465ad22925,%E4%B8%AD%E6%96%87
_je9kW_ER8u_fJ0NElhvHw,newborntown,p1789_451-40176,Install,2.7,111.82.222.227,cc0d5cfb-84c9-4a6c-82cc-f3aec2e518d1,1558611643,2019-05-23 19:40:43,1558611814,2019-05-23 19:43:34,1558611896,6511e6e7-8c38-4181-b6f2-1b71409a9fef__pspm,http://pspm.pingstart.com/api/v4/postback?from=1706&clickid=6511e6e7-8c38-4181-b6f2-1b71409a9fef__pspm,idfa_cc0d5cfb-84c9-4a6c-82cc-f3aec2e518d1,%E4%B8%AD%E6%96%87
_je9kW_ER8u_fJ0NElhvHw,newborntown,p1789_451-40176,Install,2.7,39.8.1.152,e289c2a4-a5ae-43c6-9357-746c43432c0a,1558611879,2019-05-23 19:44:39,1558612060,2019-05-23 19:47:40,1558612092,6d8662ce-9d28-4415-a9f8-91bb8027514e__pspm,http://pspm.pingstart.com/api/v4/postback?from=1706&clickid=6d8662ce-9d28-4415-a9f8-91bb8027514e__pspm,idfa_e289c2a4-a5ae-43c6-9357-746c43432c0a,%E4%B8%AD%E6%96%87
_je9kW_ER8u_fJ0NElhvHw,newborntown,p1789_451-40176,Install,2.7,115.82.12.17,96f81809-7f42-4d5b-9ad9-884ea7a8a2af,1558611330,2019-05-23 19:35:30,1558611506,2019-05-23 19:38:26,1558611551,11baa04d-dda6-409d-9937-443182b65534__pspm,http://pspm.pingstart.com/api/v4/postback?from=1706&clickid=11baa04d-dda6-409d-9937-443182b65534__pspm,idfa_96f81809-7f42-4d5b-9ad9-884ea7a8a2af,%E4%B8%AD%E6%96%87
_je9kW_ER8u_fJ0NElhvHw,newborntown,p1789_451-40176,Install,2.7,223.138.177.95,192c39c2-ba37-4de8-93c4-7522e9f26a1f,1558611685,2019-05-23 19:41:25,1558611866,2019-05-23 19:44:26,1558611898,dfa7cb0a-fdb9-4adc-9b84-e9ba5756e5c7__pspm,http://pspm.pingstart.com/api/v4/postback?from=1706&clickid=dfa7cb0a-fdb9-4adc-9b84-e9ba5756e5c7__pspm,idfa_192c39c2-ba37-4de8-93c4-7522e9f26a1f,%E4%B8%AD%E6%96%87
_je9kW_ER8u_fJ0NElhvHw,newborntown,p1789_451-40176,Install,2.7,223.141.29.194,ee1ac11b-1d35-40ae-9d80-62a98d4daf01,1558611586,2019-05-23 19:39:46,1558611894,2019-05-23 19:44:54,1558611927,3af344fa-cccd-4b7c-bb90-a0e5b9ec56b8__pspm,http://pspm.pingstart.com/api/v4/postback?from=1706&clickid=3af344fa-cccd-4b7c-bb90-a0e5b9ec56b8__pspm,idfa_ee1ac11b-1d35-40ae-9d80-62a98d4daf01,%E4%B8%AD%E6%96%87
_je9kW_ER8u_fJ0NElhvHw,newborntown,p1789_451-40176,Install,2.7,223.139.23.23,47d1150f-04b0-489c-9c80-7e50b7f62fd0,1558611703,2019-05-23 19:41:43,1558611886,2019-05-23 19:44:46,1558611916,394e4c18-9df2-4213-9c71-bf42bc503cfc__pspm,http://pspm.pingstart.com/api/v4/postback?from=1706&clickid=394e4c18-9df2-4213-9c71-bf42bc503cfc__pspm,idfa_47d1150f-04b0-489c-9c80-7e50b7f62fd0,%E4%B8%AD%E6%96%87
_je9kW_ER8u_fJ0NElhvHw,newborntown,p1789_451-40176,Install,2.7,218.173.132.186,26769f97-2164-4428-8d60-d014cd88f58c,1558611882,2019-05-23 19:44:42,1558612064,2019-05-23 19:47:44,1558612096,b0efbe7c-d853-4bd2-ba46-6f43494a6aaf__pspm,http://pspm.pingstart.com/api/v4/postback?from=1706&clickid=b0efbe7c-d853-4bd2-ba46-6f43494a6aaf__pspm,idfa_26769f97-2164-4428-8d60-d014cd88f58c,%E4%B8%AD%E6%96%87
_je9kW_ER8u_fJ0NElhvHw,newborntown,p1789_451-40176,Install,2.7,203.77.42.195,4a7f78a2-5ad7-4297-b24a-e27ccfd20d27,1558612081,2019-05-23 19:48:01,1558612296,2019-05-23 19:51:36,1558612327,3d5278a1-1e11-464a-871c-c30d54c7ee40__pspm,http://pspm.pingstart.com/api/v4/postback?from=1706&clickid=3d5278a1-1e11-464a-871c-c30d54c7ee40__pspm,idfa_4a7f78a2-5ad7-4297-b24a-e27ccfd20d27,%E4%B8%AD%E6%96%87
_je9kW_ER8u_fJ0NElhvHw,newborntown,p1789_451-40176,Install,2.7,39.9.62.63,ab983f70-75c2-47ad-815a-e5cbd3c6223c,1558611874,2019-05-23 19:44:34,1558612064,2019-05-23 19:47:44,1558612095,864c1e7f-2d3b-42d0-b3ff-544a60fa4f81__pspm,http://pspm.pingstart.com/api/v4/postback?from=1706&clickid=864c1e7f-2d3b-42d0-b3ff-544a60fa4f81__pspm,idfa_ab983f70-75c2-47ad-815a-e5cbd3c6223c,%E4%B8%AD%E6%96%87
_je9kW_ER8u_fJ0NElhvHw,newborntown,p1789_451-40176,Install,2.7,39.8.11.171,2c597950-4184-4fa0-bef4-87aa5535a69e,1558611199,2019-05-23 19:33:19,1558611379,2019-05-23 19:36:19,1558611410,44ab8cf5-8a5b-4231-bdb2-234e9039d8da__pspm,http://pspm.pingstart.com/api/v4/postback?from=1706&clickid=44ab8cf5-8a5b-4231-bdb2-234e9039d8da__pspm,idfa_2c597950-4184-4fa0-bef4-87aa5535a69e,%E4%B8%AD%E6%96%87
_je9kW_ER8u_fJ0NElhvHw,newborntown,p1789_451-40176,Install,2.7,1.170.143.127,7eeb5dcf-46a3-4d45-9a91-52233da945bb,1558611587,2019-05-23 19:39:47,1558611776,2019-05-23 19:42:56,1558611878,5c072b74-ac33-4d98-900d-22242b0246b4__pspm,http://pspm.pingstart.com/api/v4/postback?from=1706&clickid=5c072b74-ac33-4d98-900d-22242b0246b4__pspm,idfa_7eeb5dcf-46a3-4d45-9a91-52233da945bb,%E4%B8%AD%E6%96%87
_je9kW_ER8u_fJ0NElhvHw,newborntown,p1789_451-40176,Install,2.7,36.224.193.167,705c37d4-dd4a-44f0-8d0c-061c4ce3cf3e,1558611255,2019-05-23 19:34:15,1558611462,2019-05-23 19:37:42,1558611529,ef76b27a-bcd3-4d59-9670-eaffd4a101fc__pspm,http://pspm.pingstart.com/api/v4/postback?from=1706&clickid=ef76b27a-bcd3-4d59-9670-eaffd4a101fc__pspm,idfa_705c37d4-dd4a-44f0-8d0c-061c4ce3cf3e,%E4%B8%AD%E6%96%87
_je9kW_ER8u_fJ0NElhvHw,newborntown,p1789_451-40176,Install,2.7,180.217.91.198,2bcb21cd-724d-4937-865e-9bc6c4d942c5,1558611439,2019-05-23 19:37:19,1558611975,2019-05-23 19:46:15,1558612006,737dab72-70a0-4f86-bbaa-4d51829f9afa__pspm,http://pspm.pingstart.com/api/v4/postback?from=1706&clickid=737dab72-70a0-4f86-bbaa-4d51829f9afa__pspm,idfa_2bcb21cd-724d-4937-865e-9bc6c4d942c5,%E4%B8%AD%E6%96%87
_je9kW_ER8u_fJ0NElhvHw,newborntown,p1789_451-40176,Install,2.7,101.13.40.102,67fa5b56-56b5-4152-bc13-8655fe63d77c,1558611520,2019-05-23 19:38:40,1558611701,2019-05-23 19:41:41,1558611733,cb787039-26dd-47d3-94c3-2c60ed3bc3b4__pspm,http://pspm.pingstart.com/api/v4/postback?from=1706&clickid=cb787039-26dd-47d3-94c3-2c60ed3bc3b4__pspm,idfa_67fa5b56-56b5-4152-bc13-8655fe63d77c,%E4%B8%AD%E6%96%87
_je9kW_ER8u_fJ0NElhvHw,newborntown,p1789_451-40176,Install,2.7,42.77.105.63,95421e71-f41e-4c8a-b1b4-f29527e26ed5,1558611255,2019-05-23 19:34:15,1558611741,2019-05-23 19:42:21,1558611774,5106859d-0413-43d1-bcca-45b454d80cda__pspm,http://pspm.pingstart.com/api/v4/postback?from=1706&clickid=5106859d-0413-43d1-bcca-45b454d80cda__pspm,idfa_95421e71-f41e-4c8a-b1b4-f29527e26ed5,%E4%B8%AD%E6%96%87
_je9kW_ER8u_fJ0NElhvHw,newborntown,p1789_451-40176,Install,2.7,115.82.17.213,cce6fcab-fa3c-41c9-954a-90daa936b9e2,1558611377,2019-05-23 19:36:17,1558612029,2019-05-23 19:47:09,1558612081,e00bccc7-298a-4a4b-960e-9d40ed598656__pspm,http://pspm.pingstart.com/api/v4/postback?from=1706&clickid=e00bccc7-298a-4a4b-960e-9d40ed598656__pspm,idfa_cce6fcab-fa3c-41c9-954a-90daa936b9e2,%E4%B8%AD%E6%96%87
_je9kW_ER8u_fJ0NElhvHw,newborntown,p1789_451-40176,Install,2.7,180.218.26.12,c064404d-7278-44a6-9ad8-09386f068060,1558611510,2019-05-23 19:38:30,1558611699,2019-05-23 19:41:39,1558611730,dedc05cc-1b6d-49ef-8cf5-e5448f006f5a__pspm,http://pspm.pingstart.com/api/v4/postback?from=1706&clickid=dedc05cc-1b6d-49ef-8cf5-e5448f006f5a__pspm,idfa_c064404d-7278-44a6-9ad8-09386f068060,%E4%B8%AD%E6%96%87
_je9kW_ER8u_fJ0NElhvHw,newborntown,p1789_451-40176,Install,2.7,39.14.0.111,92d5d138-9bb6-4549-bb4a-c4f51f97eab3,1558612014,2019-05-23 19:46:54,1558612194,2019-05-23 19:49:54,1558612225,afb4533a-6b82-42ba-9deb-077fa4bbfd78__pspm,http://pspm.pingstart.com/api/v4/postback?from=1706&clickid=afb4533a-6b82-42ba-9deb-077fa4bbfd78__pspm,idfa_92d5d138-9bb6-4549-bb4a-c4f51f97eab3,%E4%B8%AD%E6%96%87
_je9kW_ER8u_fJ0NElhvHw,newborntown,p1789_451-40176,Install,2.7,114.38.39.253,10300963-38bb-4503-8135-bac040949795,1558609866,2019-05-23 19:11:06,1558610057,2019-05-23 19:14:17,1558610091,a0e50c1f-670c-4bb7-90d2-e53767c6dfa8__pspm,http://pspm.pingstart.com/api/v4/postback?from=1706&clickid=a0e50c1f-670c-4bb7-90d2-e53767c6dfa8__pspm,idfa_10300963-38bb-4503-8135-bac040949795,%E4%B8%AD%E6%96%87
_je9kW_ER8u_fJ0NElhvHw,newborntown,p1789_451-40176,Install,2.7,58.114.103.241,9ab73988-a9a5-426d-9e09-6a52a41a19a7,1558611376,2019-05-23 19:36:16,1558611591,2019-05-23 19:39:51,1558611623,d2052dc1-5df3-4b1f-b8a4-fb3d38781c29__pspm,http://pspm.pingstart.com/api/v4/postback?from=1706&clickid=d2052dc1-5df3-4b1f-b8a4-fb3d38781c29__pspm,idfa_9ab73988-a9a5-426d-9e09-6a52a41a19a7,%E4%B8%AD%E6%96%87
_je9kW_ER8u_fJ0NElhvHw,newborntown,p1789_451-40176,Install,2.7,218.187.114.98,b50ea5d2-3128-4214-8649-64dce82480a8,1558612023,2019-05-23 19:47:03,1558612313,2019-05-23 19:51:53,1558612344,a5b1317d-e0dd-429a-81d6-d6b12dee8c81__pspm,http://pspm.pingstart.com/api/v4/postback?from=1706&clickid=a5b1317d-e0dd-429a-81d6-d6b12dee8c81__pspm,idfa_b50ea5d2-3128-4214-8649-64dce82480a8,%E4%B8%AD%E6%96%87
_je9kW_ER8u_fJ0NElhvHw,newborntown,p1789_451-40176,Install,2.7,42.73.254.153,72432c4c-46ef-4587-9125-62b692c0dd0d,1558611869,2019-05-23 19:44:29,1558612051,2019-05-23 19:47:31,1558612082,73dbdc4d-a522-4c8c-9bda-b71a8fcce987__pspm,http://pspm.pingstart.com/api/v4/postback?from=1706&clickid=73dbdc4d-a522-4c8c-9bda-b71a8fcce987__pspm,idfa_72432c4c-46ef-4587-9125-62b692c0dd0d,%E4%B8%AD%E6%96%87
