cid,partner_id,channel_id,action_id,cpi,ip,idfa,click time,click datetime,install time,install datetime,postback time,click id,postback url,unique user id
79XFzRSzSYW-W9Jz_YADKA,newborntown,p1855_23_759623_547-10512547,install,3.2,153.161.234.53,b666963f-30bf-4e6e-b2a0-67cc2ffb21de,1557666508,2019-05-12 21:08:28,1557666660,2019-05-12 21:11:00,1557666693,8c32aefa-1b29-4526-bb7c-2f1a2f8ad5d5__pspm,http://pspm.pingstart.com/api/v4/postback?from=1706&clickid=8c32aefa-1b29-4526-bb7c-2f1a2f8ad5d5__pspm,idfa_b666963f-30bf-4e6e-b2a0-67cc2ffb21de,en
79XFzRSzSYW-W9Jz_YADKA,newborntown,p1855_23_759623_547-10510547,install,3.2,60.68.133.126,2863b593-d223-4519-ba37-7d1fe6c97c38,1557501050,2019-05-10 23:10:50,1557501223,2019-05-10 23:13:43,1557501256,cc5c16a7-f8a6-4000-923c-6cd95bdc47a1__pspm,http://pspm.pingstart.com/api/v4/postback?from=1706&clickid=cc5c16a7-f8a6-4000-923c-6cd95bdc47a1__pspm,idfa_2863b593-d223-4519-ba37-7d1fe6c97c38,en
79XFzRSzSYW-W9Jz_YADKA,newborntown,p1855_23_759623_640-137_47,install,3.2,126.3.31.40,acfa07f9-5ec2-4737-9c5c-cb29fc1479c2,1557664687,2019-05-12 20:38:07,1557664858,2019-05-12 20:40:58,1557664889,19632937-8253-4244-9f66-df0414b2e4da__pspm,http://pspm.pingstart.com/api/v4/postback?from=1706&clickid=19632937-8253-4244-9f66-df0414b2e4da__pspm,idfa_acfa07f9-5ec2-4737-9c5c-cb29fc1479c2,ja
79XFzRSzSYW-W9Jz_YADKA,newborntown,p1855_23_759623_547-10504547,install,3.2,122.24.188.153,5eaa35b5-4ad7-43f1-ae9e-396166991c06,1556940953,2019-05-04 11:35:53,1556941138,2019-05-04 11:38:58,1556941174,7f483a0b-70b1-4292-8509-f2f4b8becce9__pspm,http://pspm.pingstart.com/api/v4/postback?from=1706&clickid=7f483a0b-70b1-4292-8509-f2f4b8becce9__pspm,idfa_5eaa35b5-4ad7-43f1-ae9e-396166991c06,en
79XFzRSzSYW-W9Jz_YADKA,newborntown,p1855_23_759623_547-10511547,install,3.2,183.86.50.186,d51c937c-d64f-4f43-98e2-999600c20f7a,1557548263,2019-05-11 12:17:43,1557548420,2019-05-11 12:20:20,1557548452,153d37e0-ccec-4f55-85ae-aea5daa08510__pspm,http://pspm.pingstart.com/api/v4/postback?from=1706&clickid=153d37e0-ccec-4f55-85ae-aea5daa08510__pspm,idfa_d51c937c-d64f-4f43-98e2-999600c20f7a,en
79XFzRSzSYW-W9Jz_YADKA,newborntown,p1855_23_759623_547-10510547,install,3.2,153.222.63.190,15f73fda-a4d3-4886-b609-89f7db4a18d9,1557488851,2019-05-10 19:47:31,1557489033,2019-05-10 19:50:33,1557489067,72053188-7b89-42b5-a0ca-6325c97c6eec__pspm,http://pspm.pingstart.com/api/v4/postback?from=1706&clickid=72053188-7b89-42b5-a0ca-6325c97c6eec__pspm,idfa_15f73fda-a4d3-4886-b609-89f7db4a18d9,en
79XFzRSzSYW-W9Jz_YADKA,newborntown,p1855_23_759623_547-10511547,install,3.2,163.58.185.224,2be0f013-8477-467f-bfe2-ff5fdcfbc129,1557573492,2019-05-11 19:18:12,1557573663,2019-05-11 19:21:03,1557573695,016d62de-5087-4fe9-a2d5-e4f83f350704__pspm,http://pspm.pingstart.com/api/v4/postback?from=1706&clickid=016d62de-5087-4fe9-a2d5-e4f83f350704__pspm,idfa_2be0f013-8477-467f-bfe2-ff5fdcfbc129,en
79XFzRSzSYW-W9Jz_YADKA,newborntown,p1855_23_759623_547-10511547,install,3.2,128.27.64.10,f8bd7608-2483-467e-8f66-10bb120c64b6,1557554006,2019-05-11 13:53:26,1557554114,2019-05-11 13:55:14,1557554148,e9efd4ab-7f58-40f8-9037-2b0995d5ceee__pspm,http://pspm.pingstart.com/api/v4/postback?from=1706&clickid=e9efd4ab-7f58-40f8-9037-2b0995d5ceee__pspm,idfa_f8bd7608-2483-467e-8f66-10bb120c64b6,en
79XFzRSzSYW-W9Jz_YADKA,newborntown,p1855_23_759623_547-10509547,install,3.2,124.45.177.195,24b596e7-3281-4e5a-a803-c844a5bad449,1557394503,2019-05-09 17:35:03,1557394686,2019-05-09 17:38:06,1557394719,719d17b1-3ebf-4fa0-8865-94b4b238c4cb__pspm,http://pspm.pingstart.com/api/v4/postback?from=1706&clickid=719d17b1-3ebf-4fa0-8865-94b4b238c4cb__pspm,idfa_24b596e7-3281-4e5a-a803-c844a5bad449,en
79XFzRSzSYW-W9Jz_YADKA,newborntown,p1855_23_759623_547-10511547,install,3.2,114.171.33.227,fe5a1983-a3e8-482b-8e6d-843fc675df7e,1557579144,2019-05-11 20:52:24,1557579354,2019-05-11 20:55:54,1557579387,31545ed5-7b6b-4863-a3c8-946c7ec03f43__pspm,http://pspm.pingstart.com/api/v4/postback?from=1706&clickid=31545ed5-7b6b-4863-a3c8-946c7ec03f43__pspm,idfa_fe5a1983-a3e8-482b-8e6d-843fc675df7e,en
79XFzRSzSYW-W9Jz_YADKA,newborntown,p1855_23_759623_547-10509547,install,3.2,121.80.209.94,72bc1fda-2b0c-4581-a567-c101c96ab6ea,1557399292,2019-05-09 18:54:52,1557399474,2019-05-09 18:57:54,1557399507,1cd4b934-7b3a-4321-984b-1fc7985ff33f__pspm,http://pspm.pingstart.com/api/v4/postback?from=1706&clickid=1cd4b934-7b3a-4321-984b-1fc7985ff33f__pspm,idfa_72bc1fda-2b0c-4581-a567-c101c96ab6ea,en
79XFzRSzSYW-W9Jz_YADKA,newborntown,p1855_23_759623_547-10511547,install,3.2,114.165.221.46,2ef52bdb-ebc8-4aa1-b4f0-2c25065234a8,1557537795,2019-05-11 09:23:15,1557537950,2019-05-11 09:25:50,1557537982,a85c9130-232d-4c7c-a9c2-0943b83c222b__pspm,http://pspm.pingstart.com/api/v4/postback?from=1706&clickid=a85c9130-232d-4c7c-a9c2-0943b83c222b__pspm,idfa_2ef52bdb-ebc8-4aa1-b4f0-2c25065234a8,en
79XFzRSzSYW-W9Jz_YADKA,newborntown,p1855_23_759623_547-10511547,install,3.2,14.11.160.128,7e015d4b-6d0e-41a3-9a6c-dbaf64ce8fef,1557578370,2019-05-11 20:39:30,1557578546,2019-05-11 20:42:26,1557578591,963250fd-ca49-4f72-9468-acc50e5b286c__pspm,http://pspm.pingstart.com/api/v4/postback?from=1706&clickid=963250fd-ca49-4f72-9468-acc50e5b286c__pspm,idfa_7e015d4b-6d0e-41a3-9a6c-dbaf64ce8fef,en
79XFzRSzSYW-W9Jz_YADKA,newborntown,p1855_23_759623_547-10512547,install,3.2,111.100.19.12,13f88b3c-5c71-4584-9941-fc1b1ae06627,1557653173,2019-05-12 17:26:13,1557653349,2019-05-12 17:29:09,1557653383,ee66376a-38c3-4057-9a55-37a343f50593__pspm,http://pspm.pingstart.com/api/v4/postback?from=1706&clickid=ee66376a-38c3-4057-9a55-37a343f50593__pspm,idfa_13f88b3c-5c71-4584-9941-fc1b1ae06627,en
79XFzRSzSYW-W9Jz_YADKA,newborntown,p1855_23_759623_547-10512547,install,3.2,153.186.36.184,50047b69-06e7-46dc-b407-706ed1a916a7,1557650086,2019-05-12 16:34:46,1557650261,2019-05-12 16:37:41,1557650295,e1e4bc3f-46a3-4f07-91d1-531565d65655__pspm,http://pspm.pingstart.com/api/v4/postback?from=1706&clickid=e1e4bc3f-46a3-4f07-91d1-531565d65655__pspm,idfa_50047b69-06e7-46dc-b407-706ed1a916a7,en
79XFzRSzSYW-W9Jz_YADKA,newborntown,p1855_23_759623_547-10511547,install,3.2,27.83.43.145,54ee9b96-f750-4ef3-ba50-9328f17bafa5,1557539364,2019-05-11 09:49:24,1557539535,2019-05-11 09:52:15,1557539568,d5e5484d-3f2c-4e10-b106-10b856628077__pspm,http://pspm.pingstart.com/api/v4/postback?from=1706&clickid=d5e5484d-3f2c-4e10-b106-10b856628077__pspm,idfa_54ee9b96-f750-4ef3-ba50-9328f17bafa5,en
79XFzRSzSYW-W9Jz_YADKA,newborntown,p1855_23_759623_772-10512772,install,3.2,114.167.166.235,6a17af53-3724-4c08-be2c-7f3900cc1dfe,1557664931,2019-05-12 20:42:11,1557673567,2019-05-12 23:06:07,1557673598,df24e666-c30a-4fea-ad77-d2a4fbc1f55b__pspm,http://pspm.pingstart.com/api/v4/postback?from=1706&clickid=df24e666-c30a-4fea-ad77-d2a4fbc1f55b__pspm,idfa_6a17af53-3724-4c08-be2c-7f3900cc1dfe,ja
79XFzRSzSYW-W9Jz_YADKA,newborntown,p1855_23_759623_547-10509547,install,3.2,121.117.138.176,5b390067-aeb3-4f32-afd4-01cdc294031d,1557403654,2019-05-09 20:07:34,1557403838,2019-05-09 20:10:38,1557403872,e6b0f0ab-6ca7-4788-899f-44b4d9404c31__pspm,http://pspm.pingstart.com/api/v4/postback?from=1706&clickid=e6b0f0ab-6ca7-4788-899f-44b4d9404c31__pspm,idfa_5b390067-aeb3-4f32-afd4-01cdc294031d,en
79XFzRSzSYW-W9Jz_YADKA,newborntown,p1855_23_759623_547-10503547,install,3.2,114.142.2.93,690741d5-e891-441e-87e8-fb9eef02fb69,1556884985,2019-05-03 20:03:05,1556885168,2019-05-03 20:06:08,1556885203,e61dda4f-624c-4e0e-a428-d0c504fb9a2f__pspm,http://pspm.pingstart.com/api/v4/postback?from=1706&clickid=e61dda4f-624c-4e0e-a428-d0c504fb9a2f__pspm,idfa_690741d5-e891-441e-87e8-fb9eef02fb69,en
79XFzRSzSYW-W9Jz_YADKA,newborntown,p1855_23_759623_547-10511547,install,3.2,133.218.57.83,3abc9a1b-65cd-4023-ae54-f0b7d695c0a0,1557549174,2019-05-11 12:32:54,1557549325,2019-05-11 12:35:25,1557549358,31e77706-f0ba-43d6-9780-55a326852e9c__pspm,http://pspm.pingstart.com/api/v4/postback?from=1706&clickid=31e77706-f0ba-43d6-9780-55a326852e9c__pspm,idfa_3abc9a1b-65cd-4023-ae54-f0b7d695c0a0,en
79XFzRSzSYW-W9Jz_YADKA,newborntown,p1855_23_759623_547-10510547,install,3.2,118.105.100.164,0c128899-d515-48f7-b02c-fde885eecdda,1557497057,2019-05-10 22:04:17,1557497245,2019-05-10 22:07:25,1557497278,f5b45dfc-607b-4849-b0d2-8e8182699794__pspm,http://pspm.pingstart.com/api/v4/postback?from=1706&clickid=f5b45dfc-607b-4849-b0d2-8e8182699794__pspm,idfa_0c128899-d515-48f7-b02c-fde885eecdda,en
79XFzRSzSYW-W9Jz_YADKA,newborntown,p1855_23_759623_547-10511547,install,3.2,133.175.191.24,95388e02-23f9-46b0-9433-ffba1bc46ca6,1557564290,2019-05-11 16:44:50,1557564416,2019-05-11 16:46:56,1557564449,f96fd8d9-a672-4eaf-b61e-2303592a0be6__pspm,http://pspm.pingstart.com/api/v4/postback?from=1706&clickid=f96fd8d9-a672-4eaf-b61e-2303592a0be6__pspm,idfa_95388e02-23f9-46b0-9433-ffba1bc46ca6,en
79XFzRSzSYW-W9Jz_YADKA,newborntown,p1855_23_759623_547-10512547,install,3.2,153.227.66.21,f5b710b3-54ba-4e94-a80c-1318ff3f684d,1557661448,2019-05-12 19:44:08,1557661630,2019-05-12 19:47:10,1557661662,9d94d19a-7881-430e-b95e-27db5a143172__pspm,http://pspm.pingstart.com/api/v4/postback?from=1706&clickid=9d94d19a-7881-430e-b95e-27db5a143172__pspm,idfa_f5b710b3-54ba-4e94-a80c-1318ff3f684d,en
79XFzRSzSYW-W9Jz_YADKA,newborntown,p1855_23_759623_547-10510547,install,3.2,123.254.28.85,198b8a8b-23e1-4865-835a-1f4878f47ee9,1557480748,2019-05-10 17:32:28,1557480903,2019-05-10 17:35:03,1557480937,db1f3d9f-95fa-40c5-9f24-3f710a9735a5__pspm,http://pspm.pingstart.com/api/v4/postback?from=1706&clickid=db1f3d9f-95fa-40c5-9f24-3f710a9735a5__pspm,idfa_198b8a8b-23e1-4865-835a-1f4878f47ee9,en
79XFzRSzSYW-W9Jz_YADKA,newborntown,p1855_23_759623_547-10511547,install,3.2,61.199.11.172,580ea0e5-989a-466d-8d0a-2b86fc7d46d4,1557545116,2019-05-11 11:25:16,1557545269,2019-05-11 11:27:49,1557545302,befe9a08-92cf-4fd9-a016-ba2d2527aeac__pspm,http://pspm.pingstart.com/api/v4/postback?from=1706&clickid=befe9a08-92cf-4fd9-a016-ba2d2527aeac__pspm,idfa_580ea0e5-989a-466d-8d0a-2b86fc7d46d4,en
79XFzRSzSYW-W9Jz_YADKA,newborntown,p1855_23_759623_547-10510547,install,3.2,101.140.157.141,a7774805-443e-40cb-9c01-99c1201cc08d,1557472250,2019-05-10 15:10:50,1557472396,2019-05-10 15:13:16,1557472431,89cbbd2d-0f35-4b8d-8712-c2efa8ba3403__pspm,http://pspm.pingstart.com/api/v4/postback?from=1706&clickid=89cbbd2d-0f35-4b8d-8712-c2efa8ba3403__pspm,idfa_a7774805-443e-40cb-9c01-99c1201cc08d,en
79XFzRSzSYW-W9Jz_YADKA,newborntown,p1855_23_759623_547-10511547,install,3.2,123.222.142.136,12d9fa6c-4cfa-4765-8466-9af632cb4ebb,1557565702,2019-05-11 17:08:22,1557565879,2019-05-11 17:11:19,1557565912,1265b982-562c-4e1a-b3b5-15c0bb691ddf__pspm,http://pspm.pingstart.com/api/v4/postback?from=1706&clickid=1265b982-562c-4e1a-b3b5-15c0bb691ddf__pspm,idfa_12d9fa6c-4cfa-4765-8466-9af632cb4ebb,en
79XFzRSzSYW-W9Jz_YADKA,newborntown,p1855_23_6_50_N_30830_13505_10349,install,3.2,14.9.35.160,982a42ed-86e5-4f50-8fae-d5d396c58a94,1556794352,2019-05-02 18:52:32,1557319672,2019-05-08 20:47:52,1557319703,cb34f8c2-60a4-4591-988c-f6c0a35bcb1d__pspm,http://pspm.pingstart.com/api/v4/postback?from=1706&clickid=cb34f8c2-60a4-4591-988c-f6c0a35bcb1d__pspm,idfa_982a42ed-86e5-4f50-8fae-d5d396c58a94,ja
79XFzRSzSYW-W9Jz_YADKA,newborntown,p1855_23_759623_547-10512547,install,3.2,153.161.234.53,3f4be740-bb7a-4152-8ae8-aa1884da7dec,1557652185,2019-05-12 17:09:45,1557652349,2019-05-12 17:12:29,1557652383,acfe6ba6-0f4f-4697-b1d8-40eea54492a2__pspm,http://pspm.pingstart.com/api/v4/postback?from=1706&clickid=acfe6ba6-0f4f-4697-b1d8-40eea54492a2__pspm,idfa_3f4be740-bb7a-4152-8ae8-aa1884da7dec,en
79XFzRSzSYW-W9Jz_YADKA,newborntown,p1855_23_759623_547-10512547,install,3.2,150.249.47.207,ee6d22ae-fe0c-4ce2-ad7a-0731185a67e7,1557669771,2019-05-12 22:02:51,1557669932,2019-05-12 22:05:32,1557669965,f43a917d-9186-4008-824b-c568e988e1ac__pspm,http://pspm.pingstart.com/api/v4/postback?from=1706&clickid=f43a917d-9186-4008-824b-c568e988e1ac__pspm,idfa_ee6d22ae-fe0c-4ce2-ad7a-0731185a67e7,en
79XFzRSzSYW-W9Jz_YADKA,newborntown,p1855_23_759623_547-10512547,install,3.2,218.110.150.222,ec65c696-1e74-4bc8-b37e-8c5c93bd3fbb,1557675186,2019-05-12 23:33:06,1557675342,2019-05-12 23:35:42,1557675374,c09a3080-9d90-4583-9ef3-b28e7c5746c4__pspm,http://pspm.pingstart.com/api/v4/postback?from=1706&clickid=c09a3080-9d90-4583-9ef3-b28e7c5746c4__pspm,idfa_ec65c696-1e74-4bc8-b37e-8c5c93bd3fbb,en
79XFzRSzSYW-W9Jz_YADKA,newborntown,p1855_23_759623_547-10510547,install,3.2,111.169.198.157,74ab4f61-8706-408d-b31d-8c0bdc73747d,1557489810,2019-05-10 20:03:30,1557489990,2019-05-10 20:06:30,1557490024,1ed8a23a-a52f-4a8a-99d7-0b9dd59f4b41__pspm,http://pspm.pingstart.com/api/v4/postback?from=1706&clickid=1ed8a23a-a52f-4a8a-99d7-0b9dd59f4b41__pspm,idfa_74ab4f61-8706-408d-b31d-8c0bdc73747d,en
79XFzRSzSYW-W9Jz_YADKA,newborntown,p1855_23_759623_547-10511547,install,3.2,219.116.201.162,44ede5dd-9dc2-4865-897f-9db0409b0b01,1557555542,2019-05-11 14:19:02,1557555705,2019-05-11 14:21:45,1557555739,f17d9100-c51c-463e-9faf-fc2a3433dad6__pspm,http://pspm.pingstart.com/api/v4/postback?from=1706&clickid=f17d9100-c51c-463e-9faf-fc2a3433dad6__pspm,idfa_44ede5dd-9dc2-4865-897f-9db0409b0b01,en
79XFzRSzSYW-W9Jz_YADKA,newborntown,p1855_23_759623_547-10513547,install,3.2,153.226.18.76,ab5a17f0-3250-4445-acae-c0a13a36bb45,1557717035,2019-05-13 11:10:35,1557717228,2019-05-13 11:13:48,1557717261,829940ae-8d10-491c-9b0e-35ca8cb5feb3__pspm,http://pspm.pingstart.com/api/v4/postback?from=1706&clickid=829940ae-8d10-491c-9b0e-35ca8cb5feb3__pspm,idfa_ab5a17f0-3250-4445-acae-c0a13a36bb45,en
79XFzRSzSYW-W9Jz_YADKA,newborntown,p1855_23_759623_547-10509547,install,3.2,126.121.18.122,a4480c58-631d-41b3-9598-c6efed7f63ca,1557397354,2019-05-09 18:22:34,1557397545,2019-05-09 18:25:45,1557397578,6f385718-0e34-4cc5-851c-686d474ca1b0__pspm,http://pspm.pingstart.com/api/v4/postback?from=1706&clickid=6f385718-0e34-4cc5-851c-686d474ca1b0__pspm,idfa_a4480c58-631d-41b3-9598-c6efed7f63ca,en
79XFzRSzSYW-W9Jz_YADKA,newborntown,p1855_23_759623_547-10511547,install,3.2,61.210.130.220,1070d638-bac3-4568-ae58-2fddf47d8d2b,1557584202,2019-05-11 22:16:42,1557584351,2019-05-11 22:19:11,1557584385,470d2784-188a-44d8-80cb-e84e9c769c41__pspm,http://pspm.pingstart.com/api/v4/postback?from=1706&clickid=470d2784-188a-44d8-80cb-e84e9c769c41__pspm,idfa_1070d638-bac3-4568-ae58-2fddf47d8d2b,en
79XFzRSzSYW-W9Jz_YADKA,newborntown,p1855_23_759623_547-10511547,install,3.2,42.126.74.36,98ab3423-7a1b-407c-bc27-6b7c1952f6a0,1557556563,2019-05-11 14:36:03,1557556729,2019-05-11 14:38:49,1557556763,6bd37c31-e573-472c-9a1f-02461b680b05__pspm,http://pspm.pingstart.com/api/v4/postback?from=1706&clickid=6bd37c31-e573-472c-9a1f-02461b680b05__pspm,idfa_98ab3423-7a1b-407c-bc27-6b7c1952f6a0,en
79XFzRSzSYW-W9Jz_YADKA,newborntown,p1855_23_759623_547-10511547,install,3.2,125.194.87.133,732b01f7-b685-4a71-84c4-5d57ed9b79df,1557589432,2019-05-11 23:43:52,1557589631,2019-05-11 23:47:11,1557589668,62880538-c082-4c4a-95b7-4855611c2cec__pspm,http://pspm.pingstart.com/api/v4/postback?from=1706&clickid=62880538-c082-4c4a-95b7-4855611c2cec__pspm,idfa_732b01f7-b685-4a71-84c4-5d57ed9b79df,en
79XFzRSzSYW-W9Jz_YADKA,newborntown,p1855_23_759623_547-10504547,install,3.2,218.231.232.247,7023eb74-94e9-4f04-8fd7-736b7e785ebd,1556947810,2019-05-04 13:30:10,1556947955,2019-05-04 13:32:35,1556947988,1e855fbe-2b53-4f41-8b94-293a718534c6__pspm,http://pspm.pingstart.com/api/v4/postback?from=1706&clickid=1e855fbe-2b53-4f41-8b94-293a718534c6__pspm,idfa_7023eb74-94e9-4f04-8fd7-736b7e785ebd,en
79XFzRSzSYW-W9Jz_YADKA,newborntown,p1855_23_759623_547-10511547,install,3.2,14.11.37.224,ece12b10-f3f8-4c65-8ca1-2887864a38e7,1557586460,2019-05-11 22:54:20,1557586643,2019-05-11 22:57:23,1557586676,db8a1576-14ab-47c7-9693-1f5b9835e309__pspm,http://pspm.pingstart.com/api/v4/postback?from=1706&clickid=db8a1576-14ab-47c7-9693-1f5b9835e309__pspm,idfa_ece12b10-f3f8-4c65-8ca1-2887864a38e7,en
79XFzRSzSYW-W9Jz_YADKA,newborntown,p1855_23_759623_547-10504547,install,3.2,153.168.214.204,a44d2a1b-0b89-41b2-bb82-eb04d6739a62,1556961642,2019-05-04 17:20:42,1556961788,2019-05-04 17:23:08,1556961821,c5fb62bf-1a5d-4210-8d74-3aba310c372c__pspm,http://pspm.pingstart.com/api/v4/postback?from=1706&clickid=c5fb62bf-1a5d-4210-8d74-3aba310c372c__pspm,idfa_a44d2a1b-0b89-41b2-bb82-eb04d6739a62,en
