cid,partner_id,channel_id,action_id,cpi,ip,idfa,click time,click datetime,install time,install datetime,postback time,click id,postback url,unique user id
_fYj9_-lRUaaLCL4RAK81Q,newborntown,p169_,install,1.4,110.10.227.15,c3189a6b-cbfe-4279-bc0c-0bf76ab12986,1559183350,2019-05-30 10:29:10,1559183484,2019-05-30 10:31:24,1559183515,9859318d-8699-406b-acf0-2530350a415c__pspm,http://pspm.pingstart.com/api/v4/postback?from=1706&clickid=9859318d-8699-406b-acf0-2530350a415c__pspm,idfa_c3189a6b-cbfe-4279-bc0c-0bf76ab12986,ko
_fYj9_-lRUaaLCL4RAK81Q,newborntown,p169_,install,1.4,1.216.173.139,23a8875b-ecbe-43ee-b85a-440fc0b4767c,1559183351,2019-05-30 10:29:11,1559183453,2019-05-30 10:30:53,1559183485,5acce8be-aea8-4612-9d19-2ba95de5a00c__pspm,http://pspm.pingstart.com/api/v4/postback?from=1706&clickid=5acce8be-aea8-4612-9d19-2ba95de5a00c__pspm,idfa_23a8875b-ecbe-43ee-b85a-440fc0b4767c,ko
_fYj9_-lRUaaLCL4RAK81Q,newborntown,p169_,install,1.4,182.212.113.40,b5871c69-cfc8-4602-9834-88a0f6afe2e2,1559183650,2019-05-30 10:34:10,1559183755,2019-05-30 10:35:55,1559183786,4177c8fb-66a9-4b38-ab23-468f7d59cae2__pspm,http://pspm.pingstart.com/api/v4/postback?from=1706&clickid=4177c8fb-66a9-4b38-ab23-468f7d59cae2__pspm,idfa_b5871c69-cfc8-4602-9834-88a0f6afe2e2,ko
_fYj9_-lRUaaLCL4RAK81Q,newborntown,p169_,install,1.4,175.119.136.235,fdcad83d-0de6-4976-98b7-9cc333c6c288,1559123689,2019-05-29 17:54:49,1559123792,2019-05-29 17:56:32,1559123824,f863320f-fd86-43ce-aab4-79f49e5eaec7__pspm,http://pspm.pingstart.com/api/v4/postback?from=1706&clickid=f863320f-fd86-43ce-aab4-79f49e5eaec7__pspm,idfa_fdcad83d-0de6-4976-98b7-9cc333c6c288,ko
_fYj9_-lRUaaLCL4RAK81Q,newborntown,p169_,install,1.5,121.175.132.190,185cf1d0-7f16-4f21-9607-b5bf0250b04c,1558834038,2019-05-26 09:27:18,1558834151,2019-05-26 09:29:11,1558834193,dbe4dd08-e502-4c89-a8b7-f953cb57b140__pspm,http://pspm.pingstart.com/api/v4/postback?from=1706&clickid=dbe4dd08-e502-4c89-a8b7-f953cb57b140__pspm,idfa_185cf1d0-7f16-4f21-9607-b5bf0250b04c,ko
_fYj9_-lRUaaLCL4RAK81Q,newborntown,p169_,install,1.4,223.62.203.24,c56cb761-e011-4b80-9f30-3925e15f92b0,1559183410,2019-05-30 10:30:10,1559183511,2019-05-30 10:31:51,1559183542,3755031d-75d7-46f4-96fc-0e5f913a05c5__pspm,http://pspm.pingstart.com/api/v4/postback?from=1706&clickid=3755031d-75d7-46f4-96fc-0e5f913a05c5__pspm,idfa_c56cb761-e011-4b80-9f30-3925e15f92b0,ko
_fYj9_-lRUaaLCL4RAK81Q,newborntown,p169_,install,1.5,211.216.122.173,edeeb81a-a963-443f-95b3-91647eaffab5,1558867053,2019-05-26 18:37:33,1558867071,2019-05-26 18:37:51,1558867157,b48e9729-1f25-4f38-8848-982469cce9f4__pspm,http://pspm.pingstart.com/api/v4/postback?from=1706&clickid=b48e9729-1f25-4f38-8848-982469cce9f4__pspm,idfa_edeeb81a-a963-443f-95b3-91647eaffab5,en
_fYj9_-lRUaaLCL4RAK81Q,newborntown,p169_,install,1.4,39.125.22.187,553e12d3-9f4b-4778-a9fa-d097d0d817df,1559182991,2019-05-30 10:23:11,1559183097,2019-05-30 10:24:57,1559183128,3922eef3-ce35-44d2-8e4d-f768fff22edc__pspm,http://pspm.pingstart.com/api/v4/postback?from=1706&clickid=3922eef3-ce35-44d2-8e4d-f768fff22edc__pspm,idfa_553e12d3-9f4b-4778-a9fa-d097d0d817df,ko
_fYj9_-lRUaaLCL4RAK81Q,newborntown,p169_,install,1.4,112.164.49.6,e489d22c-b2d8-4a6c-99ba-c5117aa83134,1559123397,2019-05-29 17:49:57,1559123500,2019-05-29 17:51:40,1559123530,34f93d64-da77-430a-8a09-793c6fc61d59__pspm,http://pspm.pingstart.com/api/v4/postback?from=1706&clickid=34f93d64-da77-430a-8a09-793c6fc61d59__pspm,idfa_e489d22c-b2d8-4a6c-99ba-c5117aa83134,ko
_fYj9_-lRUaaLCL4RAK81Q,newborntown,p169_,install,1.5,211.44.246.38,8a4fd3c2-5b31-44e6-94d9-f6c010cb95b4,1558867392,2019-05-26 18:43:12,1558867413,2019-05-26 18:43:33,1558867494,61697b07-9d37-42a8-9c03-2b09ed338299__pspm,http://pspm.pingstart.com/api/v4/postback?from=1706&clickid=61697b07-9d37-42a8-9c03-2b09ed338299__pspm,idfa_8a4fd3c2-5b31-44e6-94d9-f6c010cb95b4,en
_fYj9_-lRUaaLCL4RAK81Q,newborntown,p169_,install,1.4,222.107.214.58,255926ae-887f-41dd-8ff4-2011fa1ed69c,1559183709,2019-05-30 10:35:09,1559183815,2019-05-30 10:36:55,1559183846,b6fcebc0-a252-4866-acfc-a915fbf59556__pspm,http://pspm.pingstart.com/api/v4/postback?from=1706&clickid=b6fcebc0-a252-4866-acfc-a915fbf59556__pspm,idfa_255926ae-887f-41dd-8ff4-2011fa1ed69c,ko
_fYj9_-lRUaaLCL4RAK81Q,newborntown,p169_,install,1.4,36.39.245.226,e197ad40-151b-475e-9ff3-adce2788e848,1559182651,2019-05-30 10:17:31,1559183169,2019-05-30 10:26:09,1559183200,441a5102-746d-4091-a8f3-598059d87ab0__pspm,http://pspm.pingstart.com/api/v4/postback?from=1706&clickid=441a5102-746d-4091-a8f3-598059d87ab0__pspm,idfa_e197ad40-151b-475e-9ff3-adce2788e848,ko
_fYj9_-lRUaaLCL4RAK81Q,newborntown,p169_,install,1.4,106.102.128.229,21312ff1-9555-4778-9217-9a944b93cdb0,1559183652,2019-05-30 10:34:12,1559183970,2019-05-30 10:39:30,1559184000,b28660b5-0123-460e-b9f8-aa6e5387b3c5__pspm,http://pspm.pingstart.com/api/v4/postback?from=1706&clickid=b28660b5-0123-460e-b9f8-aa6e5387b3c5__pspm,idfa_21312ff1-9555-4778-9217-9a944b93cdb0,ko
_fYj9_-lRUaaLCL4RAK81Q,newborntown,p169_,install,1.4,211.185.251.61,8bf89898-2459-4c0a-ab75-ac3871284d09,1559123804,2019-05-29 17:56:44,1559123910,2019-05-29 17:58:30,1559123940,9b5377c9-2086-49d9-a4f4-f702533a044d__pspm,http://pspm.pingstart.com/api/v4/postback?from=1706&clickid=9b5377c9-2086-49d9-a4f4-f702533a044d__pspm,idfa_8bf89898-2459-4c0a-ab75-ac3871284d09,ko
_fYj9_-lRUaaLCL4RAK81Q,newborntown,p169_,install,1.4,175.193.251.220,0bf41d53-94b5-4c76-9d88-330c07250707,1559184074,2019-05-30 10:41:14,1559184172,2019-05-30 10:42:52,1559184203,b1c52195-b849-4442-b891-87d0d6d6e69b__pspm,http://pspm.pingstart.com/api/v4/postback?from=1706&clickid=b1c52195-b849-4442-b891-87d0d6d6e69b__pspm,idfa_0bf41d53-94b5-4c76-9d88-330c07250707,ko
_fYj9_-lRUaaLCL4RAK81Q,newborntown,p169_,install,1.4,221.139.112.63,c3e0f7f3-3ab5-4882-a67a-95bf1c26b35e,1559183232,2019-05-30 10:27:12,1559183596,2019-05-30 10:33:16,1559183719,1bcd4d70-8f8d-450d-bd3a-49cca1df7597__pspm,http://pspm.pingstart.com/api/v4/postback?from=1706&clickid=1bcd4d70-8f8d-450d-bd3a-49cca1df7597__pspm,idfa_c3e0f7f3-3ab5-4882-a67a-95bf1c26b35e,ko
_fYj9_-lRUaaLCL4RAK81Q,newborntown,p169_,install,1.5,112.171.177.213,2bca35f1-227d-4e06-b0c8-3f2743be7239,1558399299,2019-05-21 08:41:39,1558399318,2019-05-21 08:41:58,1558399405,8955898b-5b91-474c-bea0-00362dc46e16__pspm,http://pspm.pingstart.com/api/v4/postback?from=1706&clickid=8955898b-5b91-474c-bea0-00362dc46e16__pspm,idfa_2bca35f1-227d-4e06-b0c8-3f2743be7239,en
_fYj9_-lRUaaLCL4RAK81Q,newborntown,p169_,install,1.4,180.231.177.113,58e3d54c-ead1-4bf9-a77f-7b348ad7d380,1559183408,2019-05-30 10:30:08,1559183701,2019-05-30 10:35:01,1559183733,9dcbbc07-0c70-4861-9f68-74837f582851__pspm,http://pspm.pingstart.com/api/v4/postback?from=1706&clickid=9dcbbc07-0c70-4861-9f68-74837f582851__pspm,idfa_58e3d54c-ead1-4bf9-a77f-7b348ad7d380,ko
_fYj9_-lRUaaLCL4RAK81Q,newborntown,p169_,install,1.5,183.104.36.153,619bd0e8-e47c-4750-9baf-660b53594f14,1558867757,2019-05-26 18:49:17,1558867812,2019-05-26 18:50:12,1558867898,9a4a248d-42f0-4bee-b626-732a839d847b__pspm,http://pspm.pingstart.com/api/v4/postback?from=1706&clickid=9a4a248d-42f0-4bee-b626-732a839d847b__pspm,idfa_619bd0e8-e47c-4750-9baf-660b53594f14,en
_fYj9_-lRUaaLCL4RAK81Q,newborntown,p169_,install,1.4,118.130.169.175,16845194-887f-471f-8a0d-b509d8198dfb,1559123986,2019-05-29 17:59:46,1559124088,2019-05-29 18:01:28,1559124118,1751a508-6807-4de2-9eff-9f548b6af788__pspm,http://pspm.pingstart.com/api/v4/postback?from=1706&clickid=1751a508-6807-4de2-9eff-9f548b6af788__pspm,idfa_16845194-887f-471f-8a0d-b509d8198dfb,ko
_fYj9_-lRUaaLCL4RAK81Q,newborntown,p169_,install,1.4,125.62.222.212,e7048b83-b175-452a-a898-2d70c942f050,1559182927,2019-05-30 10:22:07,1559183027,2019-05-30 10:23:47,1559183059,76836dc5-14f8-4ebe-9e53-6ea50dd8b29c__pspm,http://pspm.pingstart.com/api/v4/postback?from=1706&clickid=76836dc5-14f8-4ebe-9e53-6ea50dd8b29c__pspm,idfa_e7048b83-b175-452a-a898-2d70c942f050,ru
_fYj9_-lRUaaLCL4RAK81Q,newborntown,p169_,install,1.4,219.255.158.173,5bda4768-4a87-4358-bcdd-bf19816627d6,1559183946,2019-05-30 10:39:06,1559184050,2019-05-30 10:40:50,1559184081,1cfdad23-a74a-485b-a1d4-0e06c770ba00__pspm,http://pspm.pingstart.com/api/v4/postback?from=1706&clickid=1cfdad23-a74a-485b-a1d4-0e06c770ba00__pspm,idfa_5bda4768-4a87-4358-bcdd-bf19816627d6,ko
_fYj9_-lRUaaLCL4RAK81Q,newborntown,p169_,install,1.4,39.114.126.141,596f8d98-bc0d-4d47-bba8-228fc363c576,1559123397,2019-05-29 17:49:57,1559123503,2019-05-29 17:51:43,1559123533,06ef27d4-0433-40d0-ab2d-cbcb861f6114__pspm,http://pspm.pingstart.com/api/v4/postback?from=1706&clickid=06ef27d4-0433-40d0-ab2d-cbcb861f6114__pspm,idfa_596f8d98-bc0d-4d47-bba8-228fc363c576,ko
_fYj9_-lRUaaLCL4RAK81Q,newborntown,p169_,install,1.4,106.242.176.38,ee6af75c-1dc8-45e0-b090-b752da013b04,1559123627,2019-05-29 17:53:47,1559123732,2019-05-29 17:55:32,1559123763,91496778-eb55-4fea-95a4-564b4c85985a__pspm,http://pspm.pingstart.com/api/v4/postback?from=1706&clickid=91496778-eb55-4fea-95a4-564b4c85985a__pspm,idfa_ee6af75c-1dc8-45e0-b090-b752da013b04,ko
_fYj9_-lRUaaLCL4RAK81Q,newborntown,p169_,install,1.5,211.109.41.20,7c35d3bd-9f29-4156-b0e8-fcdb73ce2b5b,1558849187,2019-05-26 13:39:47,1558849307,2019-05-26 13:41:47,1558849342,5b73828b-8fc3-4df9-ad14-951c2e435a90__pspm,http://pspm.pingstart.com/api/v4/postback?from=1706&clickid=5b73828b-8fc3-4df9-ad14-951c2e435a90__pspm,idfa_7c35d3bd-9f29-4156-b0e8-fcdb73ce2b5b,ko
_fYj9_-lRUaaLCL4RAK81Q,newborntown,p169_,install,1.4,175.223.22.213,9fd15e8b-e796-4aa3-a3b1-6174c72b5e5a,1559183590,2019-05-30 10:33:10,1559183692,2019-05-30 10:34:52,1559183723,59cdcd60-e257-4243-9486-2bff47e5bf01__pspm,http://pspm.pingstart.com/api/v4/postback?from=1706&clickid=59cdcd60-e257-4243-9486-2bff47e5bf01__pspm,idfa_9fd15e8b-e796-4aa3-a3b1-6174c72b5e5a,ko
_fYj9_-lRUaaLCL4RAK81Q,newborntown,p169_,install,1.5,211.218.245.167,23a1c4e2-b378-4512-8a31-bd86ccb05f9c,1558868874,2019-05-26 19:07:54,1558868896,2019-05-26 19:08:16,1558868982,e013be3d-a314-46d2-9de3-0f6b191cb282__pspm,http://pspm.pingstart.com/api/v4/postback?from=1706&clickid=e013be3d-a314-46d2-9de3-0f6b191cb282__pspm,idfa_23a1c4e2-b378-4512-8a31-bd86ccb05f9c,en
_fYj9_-lRUaaLCL4RAK81Q,newborntown,p169_,install,1.5,59.25.220.206,0dc3049c-92a7-4b9d-8847-57ee2b774cd5,1558866351,2019-05-26 18:25:51,1558866371,2019-05-26 18:26:11,1558866458,e7ca89e3-8332-43c0-a47c-2888fbeb330a__pspm,http://pspm.pingstart.com/api/v4/postback?from=1706&clickid=e7ca89e3-8332-43c0-a47c-2888fbeb330a__pspm,idfa_0dc3049c-92a7-4b9d-8847-57ee2b774cd5,en
_fYj9_-lRUaaLCL4RAK81Q,newborntown,p169_,install,1.4,116.45.83.127,fbfc7538-bb7d-438d-b9a9-b507ed60b4a3,1559182927,2019-05-30 10:22:07,1559183157,2019-05-30 10:25:57,1559183187,dfb7fba8-60a0-497e-aa7d-bb663176eaee__pspm,http://pspm.pingstart.com/api/v4/postback?from=1706&clickid=dfb7fba8-60a0-497e-aa7d-bb663176eaee__pspm,idfa_fbfc7538-bb7d-438d-b9a9-b507ed60b4a3,ko
_fYj9_-lRUaaLCL4RAK81Q,newborntown,p169_,install,1.4,117.111.27.35,d4c72f55-2f11-4bc2-a7c4-db4adadb97ea,1559123805,2019-05-29 17:56:45,1559124397,2019-05-29 18:06:37,1559124428,94d2c7ae-974f-4c1b-b51e-c2acf4531ee8__pspm,http://pspm.pingstart.com/api/v4/postback?from=1706&clickid=94d2c7ae-974f-4c1b-b51e-c2acf4531ee8__pspm,idfa_d4c72f55-2f11-4bc2-a7c4-db4adadb97ea,ko
_fYj9_-lRUaaLCL4RAK81Q,newborntown,p169_,install,1.5,220.116.152.101,0dd65393-a3dc-48e9-9c14-4e4ebdf41ccb,1558868135,2019-05-26 18:55:35,1558868160,2019-05-26 18:56:00,1558868236,943adee6-33b3-44f1-a908-0d368ed9fb4b__pspm,http://pspm.pingstart.com/api/v4/postback?from=1706&clickid=943adee6-33b3-44f1-a908-0d368ed9fb4b__pspm,idfa_0dd65393-a3dc-48e9-9c14-4e4ebdf41ccb,en
_fYj9_-lRUaaLCL4RAK81Q,newborntown,p169_,install,1.4,125.131.20.177,a3a43230-d17c-4c92-aa1b-c6b00811bd4e,1559183710,2019-05-30 10:35:10,1559183830,2019-05-30 10:37:10,1559183860,1ea9cb5c-aeff-4f5c-a743-22c7bb44e942__pspm,http://pspm.pingstart.com/api/v4/postback?from=1706&clickid=1ea9cb5c-aeff-4f5c-a743-22c7bb44e942__pspm,idfa_a3a43230-d17c-4c92-aa1b-c6b00811bd4e,ko
_fYj9_-lRUaaLCL4RAK81Q,newborntown,p169_,install,1.4,211.36.141.170,a14cd28e-b326-46f6-b4fa-b68a3479c929,1559182990,2019-05-30 10:23:10,1559183095,2019-05-30 10:24:55,1559183125,d6c7f851-4a01-4dda-9c46-30bdbfa0f829__pspm,http://pspm.pingstart.com/api/v4/postback?from=1706&clickid=d6c7f851-4a01-4dda-9c46-30bdbfa0f829__pspm,idfa_a14cd28e-b326-46f6-b4fa-b68a3479c929,ko
_fYj9_-lRUaaLCL4RAK81Q,newborntown,p169_,install,1.4,58.234.92.86,fda9e452-5985-4382-9ed2-dbdce9a66e46,1559183233,2019-05-30 10:27:13,1559183335,2019-05-30 10:28:55,1559183365,a6d32ccf-7bd7-441e-9e1a-ccba306e799a__pspm,http://pspm.pingstart.com/api/v4/postback?from=1706&clickid=a6d32ccf-7bd7-441e-9e1a-ccba306e799a__pspm,idfa_fda9e452-5985-4382-9ed2-dbdce9a66e46,ko
_fYj9_-lRUaaLCL4RAK81Q,newborntown,p169_,install,1.4,59.28.174.49,d444ad46-0feb-4b68-a19e-4d4053051d26,1559123447,2019-05-29 17:50:47,1559123549,2019-05-29 17:52:29,1559123579,2290a0f8-702a-48fe-8f80-42e4e455a459__pspm,http://pspm.pingstart.com/api/v4/postback?from=1706&clickid=2290a0f8-702a-48fe-8f80-42e4e455a459__pspm,idfa_d444ad46-0feb-4b68-a19e-4d4053051d26,ko
_fYj9_-lRUaaLCL4RAK81Q,newborntown,p169_,install,1.4,106.243.137.70,22cf549d-7f12-445d-82be-f9c354342dfe,1559183108,2019-05-30 10:25:08,1559183211,2019-05-30 10:26:51,1559183242,35da1e0f-c5a2-4be8-8eb4-cad0bc88ea8d__pspm,http://pspm.pingstart.com/api/v4/postback?from=1706&clickid=35da1e0f-c5a2-4be8-8eb4-cad0bc88ea8d__pspm,idfa_22cf549d-7f12-445d-82be-f9c354342dfe,ko
_fYj9_-lRUaaLCL4RAK81Q,newborntown,p169_,install,1.5,119.194.24.183,1ad408e3-4a79-466b-88e0-c3c088acb77f,1558870387,2019-05-26 19:33:07,1558870660,2019-05-26 19:37:40,1558870691,d55aa471-c297-4429-82f3-827fbb1e94a2__pspm,http://pspm.pingstart.com/api/v4/postback?from=1706&clickid=d55aa471-c297-4429-82f3-827fbb1e94a2__pspm,idfa_1ad408e3-4a79-466b-88e0-c3c088acb77f,ko
_fYj9_-lRUaaLCL4RAK81Q,newborntown,p169_,install,1.4,182.230.200.38,008da99d-42e2-4e6c-9309-a2fa9e1bdac0,1559183890,2019-05-30 10:38:10,1559183989,2019-05-30 10:39:49,1559184020,8974a292-9744-48c5-98ae-1b62087d6df5__pspm,http://pspm.pingstart.com/api/v4/postback?from=1706&clickid=8974a292-9744-48c5-98ae-1b62087d6df5__pspm,idfa_008da99d-42e2-4e6c-9309-a2fa9e1bdac0,ko
_fYj9_-lRUaaLCL4RAK81Q,newborntown,p169_,install,1.4,59.1.218.58,2f7eb3d2-7fee-4621-9c8d-d4b99059770c,1559183173,2019-05-30 10:26:13,1559183826,2019-05-30 10:37:06,1559183856,5aecd30d-cc71-4931-af1e-7f720208e6bf__pspm,http://pspm.pingstart.com/api/v4/postback?from=1706&clickid=5aecd30d-cc71-4931-af1e-7f720208e6bf__pspm,idfa_2f7eb3d2-7fee-4621-9c8d-d4b99059770c,ko
_fYj9_-lRUaaLCL4RAK81Q,newborntown,p169_,install,1.4,175.223.44.137,a3d83558-633b-4cb6-b6be-2800d8d9fb02,1559183950,2019-05-30 10:39:10,1559184057,2019-05-30 10:40:57,1559184087,b74c7552-6589-4679-8d8a-b47701027f69__pspm,http://pspm.pingstart.com/api/v4/postback?from=1706&clickid=b74c7552-6589-4679-8d8a-b47701027f69__pspm,idfa_a3d83558-633b-4cb6-b6be-2800d8d9fb02,ko
_fYj9_-lRUaaLCL4RAK81Q,newborntown,p169_,install,1.4,61.97.222.207,2bddfabd-b28b-4f99-a690-dd47a1a59e97,1559183767,2019-05-30 10:36:07,1559183876,2019-05-30 10:37:56,1559183907,0c6945a0-e353-4628-b1a9-6b638cccbc6e__pspm,http://pspm.pingstart.com/api/v4/postback?from=1706&clickid=0c6945a0-e353-4628-b1a9-6b638cccbc6e__pspm,idfa_2bddfabd-b28b-4f99-a690-dd47a1a59e97,ru
_fYj9_-lRUaaLCL4RAK81Q,newborntown,p169_,install,1.4,112.167.187.245,d9ed2788-ed0f-4e26-8db6-2bf3f57a5ce3,1559184011,2019-05-30 10:40:11,1559184112,2019-05-30 10:41:52,1559184142,9b896ae9-2e22-46c7-a06b-848a45f2eed3__pspm,http://pspm.pingstart.com/api/v4/postback?from=1706&clickid=9b896ae9-2e22-46c7-a06b-848a45f2eed3__pspm,idfa_d9ed2788-ed0f-4e26-8db6-2bf3f57a5ce3,ko
_fYj9_-lRUaaLCL4RAK81Q,newborntown,p169_,install,1.4,125.186.8.77,964da3a8-b084-43ef-9844-f2d40d622c8f,1559123740,2019-05-29 17:55:40,1559123845,2019-05-29 17:57:25,1559123876,b3072cdf-d79b-4fb2-a18b-31fe505ff44a__pspm,http://pspm.pingstart.com/api/v4/postback?from=1706&clickid=b3072cdf-d79b-4fb2-a18b-31fe505ff44a__pspm,idfa_964da3a8-b084-43ef-9844-f2d40d622c8f,ko
_fYj9_-lRUaaLCL4RAK81Q,newborntown,p169_,install,1.4,218.52.67.240,e8185a93-98e1-43e9-8cbb-0e31736d51fd,1559183652,2019-05-30 10:34:12,1559183764,2019-05-30 10:36:04,1559183797,4d9206ab-8e53-4317-ab78-17d8a53354e2__pspm,http://pspm.pingstart.com/api/v4/postback?from=1706&clickid=4d9206ab-8e53-4317-ab78-17d8a53354e2__pspm,idfa_e8185a93-98e1-43e9-8cbb-0e31736d51fd,ko
_fYj9_-lRUaaLCL4RAK81Q,newborntown,p169_,install,1.4,223.62.178.46,3f6d0d9c-c368-43d4-9f3a-c5e2bd41c243,1559183051,2019-05-30 10:24:11,1559183151,2019-05-30 10:25:51,1559183182,0e983569-c31f-4f3b-acb5-2c396bf22f82__pspm,http://pspm.pingstart.com/api/v4/postback?from=1706&clickid=0e983569-c31f-4f3b-acb5-2c396bf22f82__pspm,idfa_3f6d0d9c-c368-43d4-9f3a-c5e2bd41c243,ko
_fYj9_-lRUaaLCL4RAK81Q,newborntown,p169_,install,1.4,211.36.150.92,ab460a5a-f7c2-4244-9d47-9993088804c5,1559123562,2019-05-29 17:52:42,1559123702,2019-05-29 17:55:02,1559123733,4a86dddd-e2ab-469f-ac35-9dd77c19e2bb__pspm,http://pspm.pingstart.com/api/v4/postback?from=1706&clickid=4a86dddd-e2ab-469f-ac35-9dd77c19e2bb__pspm,idfa_ab460a5a-f7c2-4244-9d47-9993088804c5,ko
_fYj9_-lRUaaLCL4RAK81Q,newborntown,p169_,install,1.4,118.222.170.222,a27055fc-5662-4f6c-ad95-d8ae1ebe6b03,1559183646,2019-05-30 10:34:06,1559183747,2019-05-30 10:35:47,1559183779,9be0cf3f-637a-4c8c-a2a5-ad2cfdcaeb21__pspm,http://pspm.pingstart.com/api/v4/postback?from=1706&clickid=9be0cf3f-637a-4c8c-a2a5-ad2cfdcaeb21__pspm,idfa_a27055fc-5662-4f6c-ad95-d8ae1ebe6b03,ko
_fYj9_-lRUaaLCL4RAK81Q,newborntown,p169_,install,1.5,119.75.66.225,ee658c5c-39db-4f04-b332-8ebb73e2efc0,1558866378,2019-05-26 18:26:18,1558866398,2019-05-26 18:26:38,1558866476,c23e3906-5d17-4e7d-afe1-172a6f2642ae__pspm,http://pspm.pingstart.com/api/v4/postback?from=1706&clickid=c23e3906-5d17-4e7d-afe1-172a6f2642ae__pspm,idfa_ee658c5c-39db-4f04-b332-8ebb73e2efc0,en
_fYj9_-lRUaaLCL4RAK81Q,newborntown,p169_,install,1.5,114.199.10.82,2b47f1c7-df83-459c-a0df-46eafda6a501,1558870396,2019-05-26 19:33:16,1558870486,2019-05-26 19:34:46,1558870517,3a77503d-dd4f-4b86-9ba3-1555982f5dc9__pspm,http://pspm.pingstart.com/api/v4/postback?from=1706&clickid=3a77503d-dd4f-4b86-9ba3-1555982f5dc9__pspm,idfa_2b47f1c7-df83-459c-a0df-46eafda6a501,ko
_fYj9_-lRUaaLCL4RAK81Q,newborntown,p169_,install,1.4,124.54.97.237,ed8b33eb-cad0-44c5-bbd7-b2a14558cc2e,1559183954,2019-05-30 10:39:14,1559184049,2019-05-30 10:40:49,1559184081,1e7ab8db-4bc3-4716-832b-52295748ac09__pspm,http://pspm.pingstart.com/api/v4/postback?from=1706&clickid=1e7ab8db-4bc3-4716-832b-52295748ac09__pspm,idfa_ed8b33eb-cad0-44c5-bbd7-b2a14558cc2e,ko
_fYj9_-lRUaaLCL4RAK81Q,newborntown,p169_,install,1.5,220.124.98.170,b3ffbb91-badc-4882-8c38-983554b63e1a,1558867483,2019-05-26 18:44:43,1558867505,2019-05-26 18:45:05,1558867587,3727df74-ceee-4899-af60-5344d0cafa5f__pspm,http://pspm.pingstart.com/api/v4/postback?from=1706&clickid=3727df74-ceee-4899-af60-5344d0cafa5f__pspm,idfa_b3ffbb91-badc-4882-8c38-983554b63e1a,en
_fYj9_-lRUaaLCL4RAK81Q,newborntown,p169_,install,1.4,122.37.125.208,27b15d72-bccf-461c-8723-d8a9b6957e78,1559123929,2019-05-29 17:58:49,1559124033,2019-05-29 18:00:33,1559124064,090615e4-f9b4-4514-96f0-9e9301d4b943__pspm,http://pspm.pingstart.com/api/v4/postback?from=1706&clickid=090615e4-f9b4-4514-96f0-9e9301d4b943__pspm,idfa_27b15d72-bccf-461c-8723-d8a9b6957e78,ko
_fYj9_-lRUaaLCL4RAK81Q,newborntown,p169_,install,1.4,211.36.146.95,0fb36811-e161-4846-8bf9-92c0d95c838f,1559181769,2019-05-30 10:02:49,1559182035,2019-05-30 10:07:15,1559182069,7604cd88-86e7-4954-869f-4cbbcbc8e368__pspm,http://pspm.pingstart.com/api/v4/postback?from=1706&clickid=7604cd88-86e7-4954-869f-4cbbcbc8e368__pspm,idfa_0fb36811-e161-4846-8bf9-92c0d95c838f,ko
_fYj9_-lRUaaLCL4RAK81Q,newborntown,p169_,install,1.5,125.137.234.47,95196fd4-aaf0-44ee-9bca-ec8666048fa0,1558867711,2019-05-26 18:48:31,1558867728,2019-05-26 18:48:48,1558867815,53496fc0-34da-4bfb-b395-78c72b8c37e0__pspm,http://pspm.pingstart.com/api/v4/postback?from=1706&clickid=53496fc0-34da-4bfb-b395-78c72b8c37e0__pspm,idfa_95196fd4-aaf0-44ee-9bca-ec8666048fa0,en
_fYj9_-lRUaaLCL4RAK81Q,newborntown,p169_,install,1.5,122.36.86.37,9a2246bb-0c8a-4b3f-97c3-cacbfe1f102e,1558870471,2019-05-26 19:34:31,1558870573,2019-05-26 19:36:13,1558870604,b8119fbe-6de3-4117-a9b6-07fdd56cbcb7__pspm,http://pspm.pingstart.com/api/v4/postback?from=1706&clickid=b8119fbe-6de3-4117-a9b6-07fdd56cbcb7__pspm,idfa_9a2246bb-0c8a-4b3f-97c3-cacbfe1f102e,ko
_fYj9_-lRUaaLCL4RAK81Q,newborntown,p169_,install,1.4,175.223.34.193,7dc778c2-e45c-4974-9ba4-c31508dab8c7,1559183171,2019-05-30 10:26:11,1559183273,2019-05-30 10:27:53,1559183304,d9431550-fb20-420a-bbc5-a4f4c46e73b6__pspm,http://pspm.pingstart.com/api/v4/postback?from=1706&clickid=d9431550-fb20-420a-bbc5-a4f4c46e73b6__pspm,idfa_7dc778c2-e45c-4974-9ba4-c31508dab8c7,ko
_fYj9_-lRUaaLCL4RAK81Q,newborntown,p169_,install,1.5,210.204.142.114,25ed1fa5-c379-4588-9e6d-a76ad8e2e92b,1558868162,2019-05-26 18:56:02,1558868188,2019-05-26 18:56:28,1558868264,25a13dbb-f1bb-4d64-9702-0d6e35af67a6__pspm,http://pspm.pingstart.com/api/v4/postback?from=1706&clickid=25a13dbb-f1bb-4d64-9702-0d6e35af67a6__pspm,idfa_25ed1fa5-c379-4588-9e6d-a76ad8e2e92b,en
_fYj9_-lRUaaLCL4RAK81Q,newborntown,p169_,install,1.4,211.36.141.164,9e178f14-9512-49af-b9cf-43e9e540d967,1559123742,2019-05-29 17:55:42,1559123842,2019-05-29 17:57:22,1559123873,a3c8fc33-c273-47c1-97c3-668a0635e5f8__pspm,http://pspm.pingstart.com/api/v4/postback?from=1706&clickid=a3c8fc33-c273-47c1-97c3-668a0635e5f8__pspm,idfa_9e178f14-9512-49af-b9cf-43e9e540d967,ko
_fYj9_-lRUaaLCL4RAK81Q,newborntown,p169_,install,1.4,1.226.94.59,dbd0ec44-716c-42be-9288-0f71ecfe231c,1559183709,2019-05-30 10:35:09,1559183815,2019-05-30 10:36:55,1559183846,6dae6f26-2c4a-484c-9c24-685861ac79d3__pspm,http://pspm.pingstart.com/api/v4/postback?from=1706&clickid=6dae6f26-2c4a-484c-9c24-685861ac79d3__pspm,idfa_dbd0ec44-716c-42be-9288-0f71ecfe231c,ko
_fYj9_-lRUaaLCL4RAK81Q,newborntown,p169_,install,1.4,223.62.213.22,bc7e265e-3ee1-4ccc-a27f-6697569c1035,1559183290,2019-05-30 10:28:10,1559183390,2019-05-30 10:29:50,1559183421,ea45ef45-4b95-46ea-9f16-285763f86b3e__pspm,http://pspm.pingstart.com/api/v4/postback?from=1706&clickid=ea45ef45-4b95-46ea-9f16-285763f86b3e__pspm,idfa_bc7e265e-3ee1-4ccc-a27f-6697569c1035,ko
_fYj9_-lRUaaLCL4RAK81Q,newborntown,p169_,install,1.4,220.86.44.29,f5d8969a-1e68-4497-a513-40c236e3e364,1559182749,2019-05-30 10:19:09,1559182859,2019-05-30 10:20:59,1559182889,634e97db-a5f0-4348-9ed3-2d2c970980be__pspm,http://pspm.pingstart.com/api/v4/postback?from=1706&clickid=634e97db-a5f0-4348-9ed3-2d2c970980be__pspm,idfa_f5d8969a-1e68-4497-a513-40c236e3e364,ko
_fYj9_-lRUaaLCL4RAK81Q,newborntown,p169_,install,1.4,39.7.53.230,fddb8429-b3b5-455f-96fb-f9d026e2690b,1559183892,2019-05-30 10:38:12,1559184053,2019-05-30 10:40:53,1559184083,bfd62ceb-a581-461e-81b1-374de02a9976__pspm,http://pspm.pingstart.com/api/v4/postback?from=1706&clickid=bfd62ceb-a581-461e-81b1-374de02a9976__pspm,idfa_fddb8429-b3b5-455f-96fb-f9d026e2690b,ko
_fYj9_-lRUaaLCL4RAK81Q,newborntown,p169_,install,1.4,121.148.176.22,2fc9e470-fe60-4977-acbf-288e026c25d5,1559182652,2019-05-30 10:17:32,1559182756,2019-05-30 10:19:16,1559182788,3dc0401c-4026-4060-bd38-b618e5526e76__pspm,http://pspm.pingstart.com/api/v4/postback?from=1706&clickid=3dc0401c-4026-4060-bd38-b618e5526e76__pspm,idfa_2fc9e470-fe60-4977-acbf-288e026c25d5,ko
_fYj9_-lRUaaLCL4RAK81Q,newborntown,p169_,install,1.4,39.7.28.28,a2a64c5f-0615-4f6f-8b16-f9618ec463b7,1559183773,2019-05-30 10:36:13,1559184016,2019-05-30 10:40:16,1559184047,a4c96a6e-949c-4f2d-8e4c-782f7c238f7f__pspm,http://pspm.pingstart.com/api/v4/postback?from=1706&clickid=a4c96a6e-949c-4f2d-8e4c-782f7c238f7f__pspm,idfa_a2a64c5f-0615-4f6f-8b16-f9618ec463b7,ko
_fYj9_-lRUaaLCL4RAK81Q,newborntown,p169_,install,1.5,124.146.32.23,f8bb052b-eaf1-4d62-afe9-9e8b9275545d,1559182677,2019-05-30 10:17:57,1559230363,2019-05-30 23:32:43,1559230397,e7caa26b-fc39-4506-a76e-c64aa4b5bb69__pspm,http://pspm.pingstart.com/api/v4/postback?from=1706&clickid=e7caa26b-fc39-4506-a76e-c64aa4b5bb69__pspm,idfa_f8bb052b-eaf1-4d62-afe9-9e8b9275545d,ko
_fYj9_-lRUaaLCL4RAK81Q,newborntown,p169_,install,1.4,112.220.252.254,3409b0dc-b560-4c24-ab41-04c6e2ee96f7,1559183060,2019-05-30 10:24:20,1559183160,2019-05-30 10:26:00,1559183191,39ad6b9b-cbc6-477d-b527-d5e7d1a5caa7__pspm,http://pspm.pingstart.com/api/v4/postback?from=1706&clickid=39ad6b9b-cbc6-477d-b527-d5e7d1a5caa7__pspm,idfa_3409b0dc-b560-4c24-ab41-04c6e2ee96f7,ko
_fYj9_-lRUaaLCL4RAK81Q,newborntown,p169_,install,1.4,223.62.203.156,6bf1bbc0-cc6e-4c53-9f88-53cbeafef040,1559123982,2019-05-29 17:59:42,1559124081,2019-05-29 18:01:21,1559124112,e0ceecdc-0753-48ef-a957-dbad22d04495__pspm,http://pspm.pingstart.com/api/v4/postback?from=1706&clickid=e0ceecdc-0753-48ef-a957-dbad22d04495__pspm,idfa_6bf1bbc0-cc6e-4c53-9f88-53cbeafef040,ko
_fYj9_-lRUaaLCL4RAK81Q,newborntown,p169_,install,1.5,182.209.153.210,465b158b-a25a-4467-8b4f-1bcff1e3f615,1558870469,2019-05-26 19:34:29,1558870573,2019-05-26 19:36:13,1558870604,9c465aba-e6d6-4918-a025-8db5da8d86a7__pspm,http://pspm.pingstart.com/api/v4/postback?from=1706&clickid=9c465aba-e6d6-4918-a025-8db5da8d86a7__pspm,idfa_465b158b-a25a-4467-8b4f-1bcff1e3f615,ko
_fYj9_-lRUaaLCL4RAK81Q,newborntown,p169_,install,1.4,211.210.174.67,c21e1f9e-c32a-453f-b85e-6f8a23547981,1559123559,2019-05-29 17:52:39,1559123664,2019-05-29 17:54:24,1559123695,dd72db37-636a-40ad-82e3-eb3cc21fcc61__pspm,http://pspm.pingstart.com/api/v4/postback?from=1706&clickid=dd72db37-636a-40ad-82e3-eb3cc21fcc61__pspm,idfa_c21e1f9e-c32a-453f-b85e-6f8a23547981,ko
_fYj9_-lRUaaLCL4RAK81Q,newborntown,p169_,install,1.4,175.223.15.47,85a75217-70dc-4e49-9834-194058ddb209,1559123688,2019-05-29 17:54:48,1559123792,2019-05-29 17:56:32,1559123824,452f6f67-53d3-4402-aaee-ac7fb51e70cf__pspm,http://pspm.pingstart.com/api/v4/postback?from=1706&clickid=452f6f67-53d3-4402-aaee-ac7fb51e70cf__pspm,idfa_85a75217-70dc-4e49-9834-194058ddb209,ko
_fYj9_-lRUaaLCL4RAK81Q,newborntown,p169_,install,1.4,110.70.47.52,17ee97ca-6f93-488d-9473-1ab2a3b48007,1559183592,2019-05-30 10:33:12,1559183691,2019-05-30 10:34:51,1559183721,847a3898-d390-4e6b-91b1-853ba091b139__pspm,http://pspm.pingstart.com/api/v4/postback?from=1706&clickid=847a3898-d390-4e6b-91b1-853ba091b139__pspm,idfa_17ee97ca-6f93-488d-9473-1ab2a3b48007,ko
_fYj9_-lRUaaLCL4RAK81Q,newborntown,p169_,install,1.4,211.210.162.178,3355c038-d85e-4caf-96f6-f36d6d26c660,1559183108,2019-05-30 10:25:08,1559183209,2019-05-30 10:26:49,1559183241,f66fc211-ee8a-4b64-a53b-767c035f32e6__pspm,http://pspm.pingstart.com/api/v4/postback?from=1706&clickid=f66fc211-ee8a-4b64-a53b-767c035f32e6__pspm,idfa_3355c038-d85e-4caf-96f6-f36d6d26c660,ko
_fYj9_-lRUaaLCL4RAK81Q,newborntown,p169_,install,1.4,211.36.157.77,a2a7e603-58a8-4859-b0b0-d3a5074c2cbd,1559123691,2019-05-29 17:54:51,1559123788,2019-05-29 17:56:28,1559123819,0836a3f1-e165-4a84-9ef1-9a0caf27cc70__pspm,http://pspm.pingstart.com/api/v4/postback?from=1706&clickid=0836a3f1-e165-4a84-9ef1-9a0caf27cc70__pspm,idfa_a2a7e603-58a8-4859-b0b0-d3a5074c2cbd,en
_fYj9_-lRUaaLCL4RAK81Q,newborntown,p169_,install,1.4,121.174.143.68,a6c7a00f-e635-414e-a9fd-553c79597ae8,1559184008,2019-05-30 10:40:08,1559184109,2019-05-30 10:41:49,1559184141,93949cff-feb3-464b-b0c6-041c48a10a78__pspm,http://pspm.pingstart.com/api/v4/postback?from=1706&clickid=93949cff-feb3-464b-b0c6-041c48a10a78__pspm,idfa_a6c7a00f-e635-414e-a9fd-553c79597ae8,ko
_fYj9_-lRUaaLCL4RAK81Q,newborntown,p169_,install,1.4,110.70.51.228,64555961-4a36-44d1-bc33-412f7f9045dc,1559183291,2019-05-30 10:28:11,1559183391,2019-05-30 10:29:51,1559183422,a03a3fd7-0157-449b-b3fe-8bf347f6afe7__pspm,http://pspm.pingstart.com/api/v4/postback?from=1706&clickid=a03a3fd7-0157-449b-b3fe-8bf347f6afe7__pspm,idfa_64555961-4a36-44d1-bc33-412f7f9045dc,ko
_fYj9_-lRUaaLCL4RAK81Q,newborntown,p169_,install,1.4,223.62.213.229,4cd930de-0880-4155-b158-ab0cf4c6a27a,1559184012,2019-05-30 10:40:12,1559184112,2019-05-30 10:41:52,1559184143,68db3177-7c6c-4b78-bf8a-5d857626bd06__pspm,http://pspm.pingstart.com/api/v4/postback?from=1706&clickid=68db3177-7c6c-4b78-bf8a-5d857626bd06__pspm,idfa_4cd930de-0880-4155-b158-ab0cf4c6a27a,ko
_fYj9_-lRUaaLCL4RAK81Q,newborntown,p169_,install,1.4,121.170.29.76,39e3b2c3-863c-4b2a-9196-baa53b8be8a7,1559123335,2019-05-29 17:48:55,1559123513,2019-05-29 17:51:53,1559130734,df2e57ec-9a0a-42e5-ad80-6535163df92a__pspm,http://pspm.pingstart.com/api/v4/postback?from=1706&clickid=df2e57ec-9a0a-42e5-ad80-6535163df92a__pspm,idfa_39e3b2c3-863c-4b2a-9196-baa53b8be8a7,en
_fYj9_-lRUaaLCL4RAK81Q,newborntown,p169_,install,1.4,210.217.20.66,ef35acb2-d3b1-4110-96da-574cbca6eeda,1559183288,2019-05-30 10:28:08,1559183393,2019-05-30 10:29:53,1559183423,5da4991c-fffd-40df-82dc-3b1edc939846__pspm,http://pspm.pingstart.com/api/v4/postback?from=1706&clickid=5da4991c-fffd-40df-82dc-3b1edc939846__pspm,idfa_ef35acb2-d3b1-4110-96da-574cbca6eeda,ko
_fYj9_-lRUaaLCL4RAK81Q,newborntown,p169_,install,1.5,112.146.79.117,fee985fd-5720-4d22-93c0-29957b768966,1558867730,2019-05-26 18:48:50,1558867759,2019-05-26 18:49:19,1558867842,63a69b93-dfd9-4f16-8575-7de765050c1f__pspm,http://pspm.pingstart.com/api/v4/postback?from=1706&clickid=63a69b93-dfd9-4f16-8575-7de765050c1f__pspm,idfa_fee985fd-5720-4d22-93c0-29957b768966,en
_fYj9_-lRUaaLCL4RAK81Q,newborntown,p169_,install,1.5,118.32.44.99,6a87bc81-9d43-407f-baee-278f272b4d8f,1558867661,2019-05-26 18:47:41,1558867695,2019-05-26 18:48:15,1558867776,ad154c70-c7b8-4b3c-8282-b36568f5a3d1__pspm,http://pspm.pingstart.com/api/v4/postback?from=1706&clickid=ad154c70-c7b8-4b3c-8282-b36568f5a3d1__pspm,idfa_6a87bc81-9d43-407f-baee-278f272b4d8f,en
_fYj9_-lRUaaLCL4RAK81Q,newborntown,p169_,install,1.4,124.62.57.79,6acb7c3d-8a08-41a2-9101-e5ed9639eccd,1559123562,2019-05-29 17:52:42,1559123667,2019-05-29 17:54:27,1559123698,c51aa1a6-e28b-43e6-a401-b67995020c47__pspm,http://pspm.pingstart.com/api/v4/postback?from=1706&clickid=c51aa1a6-e28b-43e6-a401-b67995020c47__pspm,idfa_6acb7c3d-8a08-41a2-9101-e5ed9639eccd,ko
_fYj9_-lRUaaLCL4RAK81Q,newborntown,p169_,install,1.5,14.34.211.155,492f9b0d-00b9-4c14-beeb-f56a190a7347,1558867289,2019-05-26 18:41:29,1558867309,2019-05-26 18:41:49,1558867396,38485e77-42d1-4a98-b887-139288aff0ab__pspm,http://pspm.pingstart.com/api/v4/postback?from=1706&clickid=38485e77-42d1-4a98-b887-139288aff0ab__pspm,idfa_492f9b0d-00b9-4c14-beeb-f56a190a7347,en
_fYj9_-lRUaaLCL4RAK81Q,newborntown,p169_,install,1.4,110.12.127.102,8c0be7c1-bcb3-4993-a1b5-7ab2960c91a7,1559183412,2019-05-30 10:30:12,1559183513,2019-05-30 10:31:53,1559183544,3f41bc90-9204-4cdd-b741-f2a9a6fc369e__pspm,http://pspm.pingstart.com/api/v4/postback?from=1706&clickid=3f41bc90-9204-4cdd-b741-f2a9a6fc369e__pspm,idfa_8c0be7c1-bcb3-4993-a1b5-7ab2960c91a7,ko
_fYj9_-lRUaaLCL4RAK81Q,newborntown,p169_,install,1.4,121.181.102.150,941e92bd-0c01-475a-a586-326bc16fcd32,1559183827,2019-05-30 10:37:07,1559183954,2019-05-30 10:39:14,1559183985,5592325e-3672-4eda-8368-03520cdd482f__pspm,http://pspm.pingstart.com/api/v4/postback?from=1706&clickid=5592325e-3672-4eda-8368-03520cdd482f__pspm,idfa_941e92bd-0c01-475a-a586-326bc16fcd32,ko
_fYj9_-lRUaaLCL4RAK81Q,newborntown,p169_,install,1.4,115.22.104.38,7a8b9c20-0c3e-4738-a4aa-fd7f1e8d474a,1559123515,2019-05-29 17:51:55,1559123618,2019-05-29 17:53:38,1559123648,6372479d-972b-430c-9ad2-07dba105840d__pspm,http://pspm.pingstart.com/api/v4/postback?from=1706&clickid=6372479d-972b-430c-9ad2-07dba105840d__pspm,idfa_7a8b9c20-0c3e-4738-a4aa-fd7f1e8d474a,ko
_fYj9_-lRUaaLCL4RAK81Q,newborntown,p169_,install,1.4,211.36.132.34,bda93444-1fe6-42b0-80f5-34943aa936c0,1559184072,2019-05-30 10:41:12,1559184210,2019-05-30 10:43:30,1559184241,161db48c-1837-4471-ad18-5ed381beee95__pspm,http://pspm.pingstart.com/api/v4/postback?from=1706&clickid=161db48c-1837-4471-ad18-5ed381beee95__pspm,idfa_bda93444-1fe6-42b0-80f5-34943aa936c0,ko
_fYj9_-lRUaaLCL4RAK81Q,newborntown,p169_,install,1.4,220.70.218.77,c30aa3ff-8ea3-42f5-a367-98a3494ebb2c,1559183353,2019-05-30 10:29:13,1559183466,2019-05-30 10:31:06,1559183497,b66a7668-4c13-47bc-a109-a9cd9112daf3__pspm,http://pspm.pingstart.com/api/v4/postback?from=1706&clickid=b66a7668-4c13-47bc-a109-a9cd9112daf3__pspm,idfa_c30aa3ff-8ea3-42f5-a367-98a3494ebb2c,en
_fYj9_-lRUaaLCL4RAK81Q,newborntown,p169_,install,1.4,223.38.33.7,81565f70-ce5e-482e-9d7f-3bcd21141b67,1559123449,2019-05-29 17:50:49,1559123552,2019-05-29 17:52:32,1559123583,4feb437a-6a40-4777-9ca3-a0f3c3f40216__pspm,http://pspm.pingstart.com/api/v4/postback?from=1706&clickid=4feb437a-6a40-4777-9ca3-a0f3c3f40216__pspm,idfa_81565f70-ce5e-482e-9d7f-3bcd21141b67,ko
_fYj9_-lRUaaLCL4RAK81Q,newborntown,p169_,install,1.5,218.39.237.48,d2935a0e-3782-403c-8b15-1af8505c9e3f,1558867918,2019-05-26 18:51:58,1558867942,2019-05-26 18:52:22,1558868028,1c9dafbd-da18-4e20-a205-7b106de34a05__pspm,http://pspm.pingstart.com/api/v4/postback?from=1706&clickid=1c9dafbd-da18-4e20-a205-7b106de34a05__pspm,idfa_d2935a0e-3782-403c-8b15-1af8505c9e3f,en
_fYj9_-lRUaaLCL4RAK81Q,newborntown,p169_,install,1.5,121.131.88.185,b079b279-b7c1-4977-8469-767396128237,1558868798,2019-05-26 19:06:38,1558868829,2019-05-26 19:07:09,1558868916,2da19850-f85a-472f-8e06-56ddb46b35eb__pspm,http://pspm.pingstart.com/api/v4/postback?from=1706&clickid=2da19850-f85a-472f-8e06-56ddb46b35eb__pspm,idfa_b079b279-b7c1-4977-8469-767396128237,en
_fYj9_-lRUaaLCL4RAK81Q,newborntown,p169_,install,1.4,175.124.144.4,03b742d2-7249-4291-ada7-b045e6536e30,1559183767,2019-05-30 10:36:07,1559183867,2019-05-30 10:37:47,1559183898,f9fa72ce-6dd2-4005-a3ff-2638ec9677e2__pspm,http://pspm.pingstart.com/api/v4/postback?from=1706&clickid=f9fa72ce-6dd2-4005-a3ff-2638ec9677e2__pspm,idfa_03b742d2-7249-4291-ada7-b045e6536e30,ko
_fYj9_-lRUaaLCL4RAK81Q,newborntown,p169_,install,1.4,223.62.21.232,76dbb6fb-3aa3-499d-9265-a268be1ab3b0,1559183168,2019-05-30 10:26:08,1559183271,2019-05-30 10:27:51,1559183302,7d3be6ea-554b-4833-8099-82f067bf2e0a__pspm,http://pspm.pingstart.com/api/v4/postback?from=1706&clickid=7d3be6ea-554b-4833-8099-82f067bf2e0a__pspm,idfa_76dbb6fb-3aa3-499d-9265-a268be1ab3b0,en
_fYj9_-lRUaaLCL4RAK81Q,newborntown,p169_,install,1.4,223.62.222.153,08b73397-15ba-4d21-af99-c41bfa39e21b,1559182807,2019-05-30 10:20:07,1559183033,2019-05-30 10:23:53,1559183065,95a1f9c3-b9a1-451b-b5ed-72ff94f1894f__pspm,http://pspm.pingstart.com/api/v4/postback?from=1706&clickid=95a1f9c3-b9a1-451b-b5ed-72ff94f1894f__pspm,idfa_08b73397-15ba-4d21-af99-c41bfa39e21b,ko
_fYj9_-lRUaaLCL4RAK81Q,newborntown,p169_,install,1.4,119.199.160.15,9b0e93fc-af1f-49b3-b2c3-a488c658c9a4,1559184013,2019-05-30 10:40:13,1559184115,2019-05-30 10:41:55,1559184145,3a9ed4bd-3de8-40d5-b71a-1facdce47784__pspm,http://pspm.pingstart.com/api/v4/postback?from=1706&clickid=3a9ed4bd-3de8-40d5-b71a-1facdce47784__pspm,idfa_9b0e93fc-af1f-49b3-b2c3-a488c658c9a4,ko
_fYj9_-lRUaaLCL4RAK81Q,newborntown,p169_,install,1.4,223.28.185.114,e5b68945-0d30-4e84-bc99-c7765c4c71da,1559182867,2019-05-30 10:21:07,1559182972,2019-05-30 10:22:52,1559183002,243eb4ff-9748-4be9-8c9b-4a6f4b302a3b__pspm,http://pspm.pingstart.com/api/v4/postback?from=1706&clickid=243eb4ff-9748-4be9-8c9b-4a6f4b302a3b__pspm,idfa_e5b68945-0d30-4e84-bc99-c7765c4c71da,ko
_fYj9_-lRUaaLCL4RAK81Q,newborntown,p169_,install,1.4,112.156.202.187,42b4df0e-4ca3-4a8c-8185-c7e8a556f6e3,1559183235,2019-05-30 10:27:15,1559183347,2019-05-30 10:29:07,1559183380,ada9e55a-7dc6-4b39-afe4-0c5832bcf126__pspm,http://pspm.pingstart.com/api/v4/postback?from=1706&clickid=ada9e55a-7dc6-4b39-afe4-0c5832bcf126__pspm,idfa_42b4df0e-4ca3-4a8c-8185-c7e8a556f6e3,ko
_fYj9_-lRUaaLCL4RAK81Q,newborntown,p169_,install,1.5,58.238.132.10,56c9cade-c3a2-425e-aa65-cc434b3f5fbe,1558847678,2019-05-26 13:14:38,1558847804,2019-05-26 13:16:44,1558847841,f27d28f9-eb99-4b77-ad28-974293933877__pspm,http://pspm.pingstart.com/api/v4/postback?from=1706&clickid=f27d28f9-eb99-4b77-ad28-974293933877__pspm,idfa_56c9cade-c3a2-425e-aa65-cc434b3f5fbe,ko
_fYj9_-lRUaaLCL4RAK81Q,newborntown,p169_,install,1.4,223.62.173.50,5ea2cd91-c8d5-4c56-bbbb-431bd003d022,1559183828,2019-05-30 10:37:08,1559183930,2019-05-30 10:38:50,1559183962,27ba8853-5d6c-43e5-9ddb-f5cb70aa90d7__pspm,http://pspm.pingstart.com/api/v4/postback?from=1706&clickid=27ba8853-5d6c-43e5-9ddb-f5cb70aa90d7__pspm,idfa_5ea2cd91-c8d5-4c56-bbbb-431bd003d022,ko
_fYj9_-lRUaaLCL4RAK81Q,newborntown,p169_,install,1.4,121.164.242.17,ee4c68d2-f70f-4606-9b7c-076843207554,1559183889,2019-05-30 10:38:09,1559183992,2019-05-30 10:39:52,1559184023,3b236d3c-0e8b-45f0-a448-79272b6e3786__pspm,http://pspm.pingstart.com/api/v4/postback?from=1706&clickid=3b236d3c-0e8b-45f0-a448-79272b6e3786__pspm,idfa_ee4c68d2-f70f-4606-9b7c-076843207554,ko
_fYj9_-lRUaaLCL4RAK81Q,newborntown,p169_,install,1.4,123.212.51.161,36129aa6-7814-49ec-9590-88868c6c1f57,1559123876,2019-05-29 17:57:56,1559124120,2019-05-29 18:02:00,1559124151,f779ab8e-bb0f-4331-b871-66656da52a4e__pspm,http://pspm.pingstart.com/api/v4/postback?from=1706&clickid=f779ab8e-bb0f-4331-b871-66656da52a4e__pspm,idfa_36129aa6-7814-49ec-9590-88868c6c1f57,ko
_fYj9_-lRUaaLCL4RAK81Q,newborntown,p169_,install,1.4,175.223.38.192,8f01ab2b-b4ed-4a48-af47-a3b67b0c8da8,1559183107,2019-05-30 10:25:07,1559183209,2019-05-30 10:26:49,1559183240,e7a6ef33-e6ac-4574-a1bc-8751fadbf75f__pspm,http://pspm.pingstart.com/api/v4/postback?from=1706&clickid=e7a6ef33-e6ac-4574-a1bc-8751fadbf75f__pspm,idfa_8f01ab2b-b4ed-4a48-af47-a3b67b0c8da8,ko
_fYj9_-lRUaaLCL4RAK81Q,newborntown,p169_,install,1.4,182.222.128.130,6399f82d-1af4-4f3a-9333-896603be65b0,1559123872,2019-05-29 17:57:52,1559123984,2019-05-29 17:59:44,1559124015,50718a9e-f196-453e-a822-2c1f9b537ead__pspm,http://pspm.pingstart.com/api/v4/postback?from=1706&clickid=50718a9e-f196-453e-a822-2c1f9b537ead__pspm,idfa_6399f82d-1af4-4f3a-9333-896603be65b0,ko
_fYj9_-lRUaaLCL4RAK81Q,newborntown,p169_,install,1.4,211.36.142.242,2162215a-7204-40e4-b2b6-8c91ad316f6f,1559183047,2019-05-30 10:24:07,1559183156,2019-05-30 10:25:56,1559183188,b8e9b9bf-123e-4e63-9fa7-f70c45c3ccad__pspm,http://pspm.pingstart.com/api/v4/postback?from=1706&clickid=b8e9b9bf-123e-4e63-9fa7-f70c45c3ccad__pspm,idfa_2162215a-7204-40e4-b2b6-8c91ad316f6f,ko
_fYj9_-lRUaaLCL4RAK81Q,newborntown,p169_,install,1.5,121.131.44.68,d5ad1f13-9f0c-4fe9-ae13-0945ebc65e80,1558867927,2019-05-26 18:52:07,1558867944,2019-05-26 18:52:24,1558868028,822120d6-d5a3-4cfd-b037-27c1e00af947__pspm,http://pspm.pingstart.com/api/v4/postback?from=1706&clickid=822120d6-d5a3-4cfd-b037-27c1e00af947__pspm,idfa_d5ad1f13-9f0c-4fe9-ae13-0945ebc65e80,en
_fYj9_-lRUaaLCL4RAK81Q,newborntown,p169_,install,1.4,223.39.156.109,e921a9df-4f46-47ba-800d-6ca952f203d3,1559184072,2019-05-30 10:41:12,1559184173,2019-05-30 10:42:53,1559184204,9abf3450-0fbe-4640-9d28-7456db593eee__pspm,http://pspm.pingstart.com/api/v4/postback?from=1706&clickid=9abf3450-0fbe-4640-9d28-7456db593eee__pspm,idfa_e921a9df-4f46-47ba-800d-6ca952f203d3,ko
_fYj9_-lRUaaLCL4RAK81Q,newborntown,p169_,install,1.4,182.220.48.160,941ef335-97cb-4bc9-a148-3032d27ad739,1559123933,2019-05-29 17:58:53,1559124039,2019-05-29 18:00:39,1559124070,6343e8bc-342d-496d-94a8-349459785000__pspm,http://pspm.pingstart.com/api/v4/postback?from=1706&clickid=6343e8bc-342d-496d-94a8-349459785000__pspm,idfa_941ef335-97cb-4bc9-a148-3032d27ad739,ko
_fYj9_-lRUaaLCL4RAK81Q,newborntown,p169_,install,1.4,223.62.202.251,4b42aaea-6da5-4df7-b9d1-a9fce9398152,1559182991,2019-05-30 10:23:11,1559183161,2019-05-30 10:26:01,1559183192,dcbb47df-864d-4bd5-b777-28168279debd__pspm,http://pspm.pingstart.com/api/v4/postback?from=1706&clickid=dcbb47df-864d-4bd5-b777-28168279debd__pspm,idfa_4b42aaea-6da5-4df7-b9d1-a9fce9398152,ko
_fYj9_-lRUaaLCL4RAK81Q,newborntown,p169_,install,1.4,220.70.100.10,322c04da-ff11-4745-93bc-7bd59c3a7d31,1559183590,2019-05-30 10:33:10,1559183694,2019-05-30 10:34:54,1559183724,9bd19860-f418-4f74-94f3-c5d1db511b0e__pspm,http://pspm.pingstart.com/api/v4/postback?from=1706&clickid=9bd19860-f418-4f74-94f3-c5d1db511b0e__pspm,idfa_322c04da-ff11-4745-93bc-7bd59c3a7d31,ko
_fYj9_-lRUaaLCL4RAK81Q,newborntown,p169_,install,1.5,211.250.43.235,3af4dfea-1e3d-4201-b9fc-6fb25f7b07fe,1558870174,2019-05-26 19:29:34,1558870197,2019-05-26 19:29:57,1558870280,e17589df-513f-405d-b751-e06a56cea474__pspm,http://pspm.pingstart.com/api/v4/postback?from=1706&clickid=e17589df-513f-405d-b751-e06a56cea474__pspm,idfa_3af4dfea-1e3d-4201-b9fc-6fb25f7b07fe,en
_fYj9_-lRUaaLCL4RAK81Q,newborntown,p169_,install,1.4,110.70.54.214,2d79f58d-e90a-4977-b565-108a29e96837,1559183892,2019-05-30 10:38:12,1559184010,2019-05-30 10:40:10,1559184040,eb92175c-3fe7-4f54-8f0f-35d5c1c48b6a__pspm,http://pspm.pingstart.com/api/v4/postback?from=1706&clickid=eb92175c-3fe7-4f54-8f0f-35d5c1c48b6a__pspm,idfa_2d79f58d-e90a-4977-b565-108a29e96837,ko
_fYj9_-lRUaaLCL4RAK81Q,newborntown,p169_,install,1.4,58.121.179.230,cf8f22af-50fb-4603-9545-527503da5002,1559182986,2019-05-30 10:23:06,1559183379,2019-05-30 10:29:39,1559183410,7765dd7a-9430-4964-bea3-c77aa4cb8638__pspm,http://pspm.pingstart.com/api/v4/postback?from=1706&clickid=7765dd7a-9430-4964-bea3-c77aa4cb8638__pspm,idfa_cf8f22af-50fb-4603-9545-527503da5002,ko
_fYj9_-lRUaaLCL4RAK81Q,newborntown,p169_,install,1.4,221.147.123.114,a4e70d78-f5d2-47a1-a415-018982bd6670,1559183767,2019-05-30 10:36:07,1559183872,2019-05-30 10:37:52,1559183904,d3cf2a7b-756c-4ad6-ab8c-73ff1dd9db25__pspm,http://pspm.pingstart.com/api/v4/postback?from=1706&clickid=d3cf2a7b-756c-4ad6-ab8c-73ff1dd9db25__pspm,idfa_a4e70d78-f5d2-47a1-a415-018982bd6670,ko
_fYj9_-lRUaaLCL4RAK81Q,newborntown,p169_,install,1.4,123.248.195.21,3e08e868-fd86-4d32-b560-980dad309ff9,1559123334,2019-05-29 17:48:54,1559123436,2019-05-29 17:50:36,1559123467,5f4de21c-e7c3-42a9-a1d7-9eb059b401b8__pspm,http://pspm.pingstart.com/api/v4/postback?from=1706&clickid=5f4de21c-e7c3-42a9-a1d7-9eb059b401b8__pspm,idfa_3e08e868-fd86-4d32-b560-980dad309ff9,ru
_fYj9_-lRUaaLCL4RAK81Q,newborntown,p169_,install,1.4,121.146.94.151,7baa3244-9663-4b7d-9bc1-976cae00da43,1559183167,2019-05-30 10:26:07,1559183272,2019-05-30 10:27:52,1559183303,0c54b9d1-bbeb-43a2-aef6-bd9d7a57af5d__pspm,http://pspm.pingstart.com/api/v4/postback?from=1706&clickid=0c54b9d1-bbeb-43a2-aef6-bd9d7a57af5d__pspm,idfa_7baa3244-9663-4b7d-9bc1-976cae00da43,ko
_fYj9_-lRUaaLCL4RAK81Q,newborntown,p169_,install,1.4,223.62.162.2,098bcc11-ca82-4864-b3fa-31b74af48836,1559183472,2019-05-30 10:31:12,1559183609,2019-05-30 10:33:29,1559183640,7c564911-1dd0-4a70-9edb-e965ee827f0f__pspm,http://pspm.pingstart.com/api/v4/postback?from=1706&clickid=7c564911-1dd0-4a70-9edb-e965ee827f0f__pspm,idfa_098bcc11-ca82-4864-b3fa-31b74af48836,ko
_fYj9_-lRUaaLCL4RAK81Q,newborntown,p169_,install,1.4,58.226.151.122,664b60cb-9ec7-4586-9bb1-33e70f6b000d,1559123334,2019-05-29 17:48:54,1559123438,2019-05-29 17:50:38,1559123469,06eefb19-beb0-4acc-9b38-45c104e4453a__pspm,http://pspm.pingstart.com/api/v4/postback?from=1706&clickid=06eefb19-beb0-4acc-9b38-45c104e4453a__pspm,idfa_664b60cb-9ec7-4586-9bb1-33e70f6b000d,ko
_fYj9_-lRUaaLCL4RAK81Q,newborntown,p169_,install,1.4,116.126.58.111,a57c546c-e91e-471c-998f-87aa40ebdadb,1559123742,2019-05-29 17:55:42,1559123844,2019-05-29 17:57:24,1559123875,f74e52ae-5390-41c8-a91a-2efecfbf40ec__pspm,http://pspm.pingstart.com/api/v4/postback?from=1706&clickid=f74e52ae-5390-41c8-a91a-2efecfbf40ec__pspm,idfa_a57c546c-e91e-471c-998f-87aa40ebdadb,ko
_fYj9_-lRUaaLCL4RAK81Q,newborntown,p169_,install,1.4,211.36.159.102,55c0af45-291c-4193-a97f-1863467cadfa,1559184186,2019-05-30 10:43:06,1559184236,2019-05-30 10:43:56,1559184267,c3eee888-4a6f-4821-b97a-aa957245b991__pspm,http://pspm.pingstart.com/api/v4/postback?from=1706&clickid=c3eee888-4a6f-4821-b97a-aa957245b991__pspm,idfa_55c0af45-291c-4193-a97f-1863467cadfa,zh
_fYj9_-lRUaaLCL4RAK81Q,newborntown,p169_,install,1.4,211.222.74.50,7761d961-9007-4a5f-8bb8-7ffb446cf164,1559183829,2019-05-30 10:37:09,1559183933,2019-05-30 10:38:53,1559183965,40e80b0e-9181-4885-bbcc-56a47db7b7af__pspm,http://pspm.pingstart.com/api/v4/postback?from=1706&clickid=40e80b0e-9181-4885-bbcc-56a47db7b7af__pspm,idfa_7761d961-9007-4a5f-8bb8-7ffb446cf164,ko
_fYj9_-lRUaaLCL4RAK81Q,newborntown,p169_,install,1.5,106.102.1.188,9821ac4e-3650-4d9e-a468-7691299f3601,1558870471,2019-05-26 19:34:31,1558870574,2019-05-26 19:36:14,1558870608,f304f874-776a-410d-9bb3-a2c68332d61e__pspm,http://pspm.pingstart.com/api/v4/postback?from=1706&clickid=f304f874-776a-410d-9bb3-a2c68332d61e__pspm,idfa_9821ac4e-3650-4d9e-a468-7691299f3601,ko
_fYj9_-lRUaaLCL4RAK81Q,newborntown,p169_,install,1.4,117.111.26.248,13ecf012-24a1-477a-9364-845407fa4ad7,1559183591,2019-05-30 10:33:11,1559183692,2019-05-30 10:34:52,1559183724,64903ebb-4ca3-48e9-b2ab-150f7d29a076__pspm,http://pspm.pingstart.com/api/v4/postback?from=1706&clickid=64903ebb-4ca3-48e9-b2ab-150f7d29a076__pspm,idfa_13ecf012-24a1-477a-9364-845407fa4ad7,ko
_fYj9_-lRUaaLCL4RAK81Q,newborntown,p169_,install,1.4,58.121.176.71,f682a4b9-c046-44af-ae3c-1415be84c64c,1559184065,2019-05-30 10:41:05,1559184166,2019-05-30 10:42:46,1559184198,d8b873b7-7706-4317-8418-e7a0c0a13360__pspm,http://pspm.pingstart.com/api/v4/postback?from=1706&clickid=d8b873b7-7706-4317-8418-e7a0c0a13360__pspm,idfa_f682a4b9-c046-44af-ae3c-1415be84c64c,ko
_fYj9_-lRUaaLCL4RAK81Q,newborntown,p169_,install,1.4,211.36.132.64,539f6be3-6206-4c88-a8ab-d27e9db8f12f,1559183113,2019-05-30 10:25:13,1559183213,2019-05-30 10:26:53,1559183244,188f62e3-793b-4aad-a37d-ec8bad0eb295__pspm,http://pspm.pingstart.com/api/v4/postback?from=1706&clickid=188f62e3-793b-4aad-a37d-ec8bad0eb295__pspm,idfa_539f6be3-6206-4c88-a8ab-d27e9db8f12f,ru
_fYj9_-lRUaaLCL4RAK81Q,newborntown,p169_,install,1.4,106.102.142.194,e2bb0e73-49cd-4a91-9e1f-e42462e9dcfa,1559182652,2019-05-30 10:17:32,1559182758,2019-05-30 10:19:18,1559182789,75c2a668-b61b-4230-aacd-ccba0ecf4ff7__pspm,http://pspm.pingstart.com/api/v4/postback?from=1706&clickid=75c2a668-b61b-4230-aacd-ccba0ecf4ff7__pspm,idfa_e2bb0e73-49cd-4a91-9e1f-e42462e9dcfa,en
_fYj9_-lRUaaLCL4RAK81Q,newborntown,p169_,install,1.5,58.148.108.205,2726f0a4-dcb6-48de-bd4a-9863da07a420,1558865695,2019-05-26 18:14:55,1558865718,2019-05-26 18:15:18,1558865764,0454f436-60d8-4d82-93cb-141841355e81__pspm,http://pspm.pingstart.com/api/v4/postback?from=1706&clickid=0454f436-60d8-4d82-93cb-141841355e81__pspm,idfa_2726f0a4-dcb6-48de-bd4a-9863da07a420,ko
_fYj9_-lRUaaLCL4RAK81Q,newborntown,p169_,install,1.4,175.203.115.215,4818b0ad-34d6-40b5-9bba-02efc90d899f,1559184128,2019-05-30 10:42:08,1559184231,2019-05-30 10:43:51,1559184262,62b81bc1-df55-40c8-8d40-45b5d4b3ab49__pspm,http://pspm.pingstart.com/api/v4/postback?from=1706&clickid=62b81bc1-df55-40c8-8d40-45b5d4b3ab49__pspm,idfa_4818b0ad-34d6-40b5-9bba-02efc90d899f,ko
_fYj9_-lRUaaLCL4RAK81Q,newborntown,p169_,install,1.4,117.111.5.178,53e9cfd6-c3f0-480b-b4aa-592386822a12,1559183652,2019-05-30 10:34:12,1559183755,2019-05-30 10:35:55,1559183786,6eeb9a52-b751-4ff5-a81b-92d9dac2a632__pspm,http://pspm.pingstart.com/api/v4/postback?from=1706&clickid=6eeb9a52-b751-4ff5-a81b-92d9dac2a632__pspm,idfa_53e9cfd6-c3f0-480b-b4aa-592386822a12,ko
_fYj9_-lRUaaLCL4RAK81Q,newborntown,p169_,install,1.4,223.38.34.83,7d15db06-634f-4b84-aebb-89be0dfc9065,1559183416,2019-05-30 10:30:16,1559183514,2019-05-30 10:31:54,1559183546,073995af-07d7-4ca0-a72d-16a9aa1cf6a7__pspm,http://pspm.pingstart.com/api/v4/postback?from=1706&clickid=073995af-07d7-4ca0-a72d-16a9aa1cf6a7__pspm,idfa_7d15db06-634f-4b84-aebb-89be0dfc9065,ko
