cid,partner_id,channel_id,action_id,cpi,ip,idfa,click time,click datetime,install time,install datetime,postback time,click id,postback url,unique user id
5nYirJEAQDO2GkqxTts9Fg,newborntown,p1789_721-10507721,Install,1.5,121.117.31.54,7F7B0812-63C1-4F3D-B4A3-C0C9441C69BC,1557171659,2019-05-07 03:40:59,1557171939,2019-05-07 03:45:39,1557171969,8df469b3-7c12-498b-b7df-acbe59772d9d__pspm,http://pspm.pingstart.com/api/v4/postback?from=1706&clickid=8df469b3-7c12-498b-b7df-acbe59772d9d__pspm,idfa_7F7B0812-63C1-4F3D-B4A3-C0C9441C69BC,ja-JP
5nYirJEAQDO2GkqxTts9Fg,newborntown,p1789_721-10507721,Install,1.5,153.137.120.120,2FE64E91-5480-48FC-8C79-28585DC3D871,1557176606,2019-05-07 05:03:26,1557176749,2019-05-07 05:05:49,1557176779,4e9e2306-1402-4fe9-ac64-fd1e6327e505__pspm,http://pspm.pingstart.com/api/v4/postback?from=1706&clickid=4e9e2306-1402-4fe9-ac64-fd1e6327e505__pspm,idfa_2FE64E91-5480-48FC-8C79-28585DC3D871,ja-JP
5nYirJEAQDO2GkqxTts9Fg,newborntown,p1789_721-10507721,Install,1.5,118.17.8.108,17451297-D253-4D96-BABF-C1C7CABB1DDC,1557171671,2019-05-07 03:41:11,1557171863,2019-05-07 03:44:23,1557171893,7bffd0b5-91cb-4ff3-b3e0-1ebdc7b88273__pspm,http://pspm.pingstart.com/api/v4/postback?from=1706&clickid=7bffd0b5-91cb-4ff3-b3e0-1ebdc7b88273__pspm,idfa_17451297-D253-4D96-BABF-C1C7CABB1DDC,ja-JP
5nYirJEAQDO2GkqxTts9Fg,newborntown,p1789_721-10507721,Install,1.5,59.139.213.213,7637EF37-3DD1-4BF4-BB5D-4433FF4DDB05,1557171668,2019-05-07 03:41:08,1557171946,2019-05-07 03:45:46,1557171976,8f41d29f-1dbc-418a-b8f8-b5ab5a7c69c6__pspm,http://pspm.pingstart.com/api/v4/postback?from=1706&clickid=8f41d29f-1dbc-418a-b8f8-b5ab5a7c69c6__pspm,idfa_7637EF37-3DD1-4BF4-BB5D-4433FF4DDB05,ja-JP
5nYirJEAQDO2GkqxTts9Fg,newborntown,p1789_721-10507721,Install,1.5,153.203.25.185,7BC0C91E-098C-4B95-A1A5-E884832DB8C9,1557171704,2019-05-07 03:41:44,1557171905,2019-05-07 03:45:05,1557171936,7c4a2d32-4ed6-40bf-95aa-67fce7b59ae1__pspm,http://pspm.pingstart.com/api/v4/postback?from=1706&clickid=7c4a2d32-4ed6-40bf-95aa-67fce7b59ae1__pspm,idfa_7BC0C91E-098C-4B95-A1A5-E884832DB8C9,ja-JP
5nYirJEAQDO2GkqxTts9Fg,newborntown,p1789_721-10507721,Install,1.5,153.232.8.86,5BC2A09B-5497-4AB3-B8C2-E0D5D39B48A3,1557181474,2019-05-07 06:24:34,1557181608,2019-05-07 06:26:48,1557181638,4dc776ab-13d3-4cde-92ae-07acf6ecd627__pspm,http://pspm.pingstart.com/api/v4/postback?from=1706&clickid=4dc776ab-13d3-4cde-92ae-07acf6ecd627__pspm,idfa_5BC2A09B-5497-4AB3-B8C2-E0D5D39B48A3,ja-JP
5nYirJEAQDO2GkqxTts9Fg,newborntown,p1789_721-10507721,Install,1.5,131.129.229.54,71C4DE20-97B4-44BE-9F2E-DB09E8774B51,1557176994,2019-05-07 05:09:54,1557177112,2019-05-07 05:11:52,1557177143,8a379c79-0530-40e0-ada9-1baf84c4a05c__pspm,http://pspm.pingstart.com/api/v4/postback?from=1706&clickid=8a379c79-0530-40e0-ada9-1baf84c4a05c__pspm,idfa_71C4DE20-97B4-44BE-9F2E-DB09E8774B51,ja-JP
5nYirJEAQDO2GkqxTts9Fg,newborntown,p1789_721-10507721,Install,1.5,157.250.240.188,B85DD9E8-D0DB-4ED5-A70A-808CDB93CB8C,1557171663,2019-05-07 03:41:03,1557171922,2019-05-07 03:45:22,1557171952,b7c8395e-8109-477e-ad49-89076fb0114e__pspm,http://pspm.pingstart.com/api/v4/postback?from=1706&clickid=b7c8395e-8109-477e-ad49-89076fb0114e__pspm,idfa_B85DD9E8-D0DB-4ED5-A70A-808CDB93CB8C,ja-JP
5nYirJEAQDO2GkqxTts9Fg,newborntown,p1789_721-10507721,Install,1.5,126.10.73.51,3EC4033F-49EA-42C0-A240-58B1AEC3B4FB,1557171663,2019-05-07 03:41:03,1557172494,2019-05-07 03:54:54,1557172524,c0fb4494-cb68-4cc3-b964-0bfb70416bf0__pspm,http://pspm.pingstart.com/api/v4/postback?from=1706&clickid=c0fb4494-cb68-4cc3-b964-0bfb70416bf0__pspm,idfa_3EC4033F-49EA-42C0-A240-58B1AEC3B4FB,ja-JP
5nYirJEAQDO2GkqxTts9Fg,newborntown,p1789_721-10507721,Install,1.5,163.131.3.186,7B9967D2-8453-41FD-B8D7-E335C7503447,1557172269,2019-05-07 03:51:09,1557172394,2019-05-07 03:53:14,1557172425,e6330c4b-a89c-4250-bf01-e9d243cfbb94__pspm,http://pspm.pingstart.com/api/v4/postback?from=1706&clickid=e6330c4b-a89c-4250-bf01-e9d243cfbb94__pspm,idfa_7B9967D2-8453-41FD-B8D7-E335C7503447,ja-JP
5nYirJEAQDO2GkqxTts9Fg,newborntown,p1789_721-10507721,Install,1.5,112.138.124.59,5E618D07-C75D-4137-AE16-A05517BBEF0F,1557181908,2019-05-07 06:31:48,1557182040,2019-05-07 06:34:00,1557182070,a7eb3218-fb4c-45e2-8aba-f93340c73555__pspm,http://pspm.pingstart.com/api/v4/postback?from=1706&clickid=a7eb3218-fb4c-45e2-8aba-f93340c73555__pspm,idfa_5E618D07-C75D-4137-AE16-A05517BBEF0F,ja-JP
5nYirJEAQDO2GkqxTts9Fg,newborntown,p1789_721-10507721,Install,1.5,133.203.169.160,3EC20D5A-469C-422D-A93E-360A2DB2E014,1557181020,2019-05-07 06:17:00,1557181148,2019-05-07 06:19:08,1557181178,26000b31-7168-4b05-940b-cd848f0329be__pspm,http://pspm.pingstart.com/api/v4/postback?from=1706&clickid=26000b31-7168-4b05-940b-cd848f0329be__pspm,idfa_3EC20D5A-469C-422D-A93E-360A2DB2E014,ja-JP
5nYirJEAQDO2GkqxTts9Fg,newborntown,p1789_721-10507721,Install,1.5,114.176.132.85,6DFC9F75-363B-4360-86C2-2F3D0FF88E42,1557171711,2019-05-07 03:41:51,1557172032,2019-05-07 03:47:12,1557172062,5b2cb604-12fc-43f4-908d-76db0cce7a4d__pspm,http://pspm.pingstart.com/api/v4/postback?from=1706&clickid=5b2cb604-12fc-43f4-908d-76db0cce7a4d__pspm,idfa_6DFC9F75-363B-4360-86C2-2F3D0FF88E42,ja-JP
5nYirJEAQDO2GkqxTts9Fg,newborntown,p1789_721-10507721,Install,1.5,153.229.189.225,D9DC147F-C3A3-4EF8-9AD1-12F17FCA1CD4,1557171683,2019-05-07 03:41:23,1557171940,2019-05-07 03:45:40,1557171970,1ccbebbf-534b-454a-be30-b1fff5ef3ee5__pspm,http://pspm.pingstart.com/api/v4/postback?from=1706&clickid=1ccbebbf-534b-454a-be30-b1fff5ef3ee5__pspm,idfa_D9DC147F-C3A3-4EF8-9AD1-12F17FCA1CD4,ja-JP
5nYirJEAQDO2GkqxTts9Fg,newborntown,p1789_721-10507721,Install,1.5,149.54.239.6,00D6C460-2EB4-42CB-A829-BB3084F9E00C,1557171717,2019-05-07 03:41:57,1557171903,2019-05-07 03:45:03,1557171933,f28d672b-e57f-4384-b5d3-d8dfcbec186a__pspm,http://pspm.pingstart.com/api/v4/postback?from=1706&clickid=f28d672b-e57f-4384-b5d3-d8dfcbec186a__pspm,idfa_00D6C460-2EB4-42CB-A829-BB3084F9E00C,ja-JP
5nYirJEAQDO2GkqxTts9Fg,newborntown,p1789_721-10507721,Install,1.5,106.73.197.0,95D18DF8-DF6F-41B4-9DAB-523850C274B0,1557171701,2019-05-07 03:41:41,1557172092,2019-05-07 03:48:12,1557172122,531b0731-0cb6-421f-bf06-3ec6d333a02e__pspm,http://pspm.pingstart.com/api/v4/postback?from=1706&clickid=531b0731-0cb6-421f-bf06-3ec6d333a02e__pspm,idfa_95D18DF8-DF6F-41B4-9DAB-523850C274B0,ja-JP
5nYirJEAQDO2GkqxTts9Fg,newborntown,p1789_721-10507721,Install,1.5,106.167.40.92,9285765D-0749-40E8-B7FD-8AD6A4F6764C,1557181921,2019-05-07 06:32:01,1557182056,2019-05-07 06:34:16,1557182086,c2715f39-83f6-48af-975e-ed1f12b69fc8__pspm,http://pspm.pingstart.com/api/v4/postback?from=1706&clickid=c2715f39-83f6-48af-975e-ed1f12b69fc8__pspm,idfa_9285765D-0749-40E8-B7FD-8AD6A4F6764C,ja-JP
5nYirJEAQDO2GkqxTts9Fg,newborntown,p1789_721-10507721,Install,1.5,223.134.174.157,071090FD-9086-46F1-96FB-A273D90325AF,1557171672,2019-05-07 03:41:12,1557171791,2019-05-07 03:43:11,1557171822,58b1f430-267c-46f6-ac04-005d182e936c__pspm,http://pspm.pingstart.com/api/v4/postback?from=1706&clickid=58b1f430-267c-46f6-ac04-005d182e936c__pspm,idfa_071090FD-9086-46F1-96FB-A273D90325AF,ja-JP
5nYirJEAQDO2GkqxTts9Fg,newborntown,p1789_721-10507721,Install,1.5,211.19.195.103,5411AAB6-43E1-441E-97C3-30B75E393363,1557171704,2019-05-07 03:41:44,1557172183,2019-05-07 03:49:43,1557172214,3f1857eb-d8f4-4c09-935c-f50d320e403b__pspm,http://pspm.pingstart.com/api/v4/postback?from=1706&clickid=3f1857eb-d8f4-4c09-935c-f50d320e403b__pspm,idfa_5411AAB6-43E1-441E-97C3-30B75E393363,ja-JP
5nYirJEAQDO2GkqxTts9Fg,newborntown,p1789_721-10507721,Install,1.5,222.224.161.165,022E2821-6DE8-4F2E-ADF0-10B27B9607C0,1557179225,2019-05-07 05:47:05,1557179359,2019-05-07 05:49:19,1557179389,58fabd3a-c34d-4af3-9a77-fae2f9a55d11__pspm,http://pspm.pingstart.com/api/v4/postback?from=1706&clickid=58fabd3a-c34d-4af3-9a77-fae2f9a55d11__pspm,idfa_022E2821-6DE8-4F2E-ADF0-10B27B9607C0,ja-JP
5nYirJEAQDO2GkqxTts9Fg,newborntown,p1789_721-10507721,Install,1.5,118.10.201.62,EDF6DDA7-D14B-48F9-B9D3-C18BFA4878A7,1557171665,2019-05-07 03:41:05,1557171893,2019-05-07 03:44:53,1557171924,2d042091-7c9d-4170-b30c-7563ab84235b__pspm,http://pspm.pingstart.com/api/v4/postback?from=1706&clickid=2d042091-7c9d-4170-b30c-7563ab84235b__pspm,idfa_EDF6DDA7-D14B-48F9-B9D3-C18BFA4878A7,ja-JP
5nYirJEAQDO2GkqxTts9Fg,newborntown,p1789_721-10507721,Install,1.5,106.160.83.133,690218A9-E8BE-4B6F-99C6-D1F266EE3C64,1557174686,2019-05-07 04:31:26,1557174816,2019-05-07 04:33:36,1557174846,7994fc95-b5a2-4c6e-bf35-316bfbda5cbe__pspm,http://pspm.pingstart.com/api/v4/postback?from=1706&clickid=7994fc95-b5a2-4c6e-bf35-316bfbda5cbe__pspm,idfa_690218A9-E8BE-4B6F-99C6-D1F266EE3C64,ja-JP
