cid,partner_id,channel_id,action_id,cpi,ip,idfa,click time,click datetime,install time,install datetime,postback time,click id,postback url,unique user id
oKuM9kYPQ2CVogU6spOKBQ,newborntown,p1865_8s__gp547xurn66ucndqf4sr,Install,2.0,61.102.174.140,f2e41390-b680-dd49-ca07-8ec4aa4c57c8,1558888548,2019-05-27 00:35:48,1558888720,2019-05-27 00:38:40,1558888750,eb04530c-0086-4101-99a7-6fa92e6949a7__pspm,http://pspm.pingstart.com/api/v4/postback?from=1706&clickid=eb04530c-0086-4101-99a7-6fa92e6949a7__pspm,idfa_f2e41390-b680-dd49-ca07-8ec4aa4c57c8,%ED%95%9C%EA%B5%AD%EC%96%B4
oKuM9kYPQ2CVogU6spOKBQ,newborntown,p1865_8s__gp547xurn66ucndqf4sr,Install,2.0,121.152.85.226,211df53b-ea85-4de5-b12e-19ff8bc8413f,1558889756,2019-05-27 00:55:56,1558889890,2019-05-27 00:58:10,1558889921,f43d19b8-2e4b-418f-8cd4-f029398eab5a__pspm,http://pspm.pingstart.com/api/v4/postback?from=1706&clickid=f43d19b8-2e4b-418f-8cd4-f029398eab5a__pspm,idfa_211df53b-ea85-4de5-b12e-19ff8bc8413f,%ED%95%9C%EA%B5%AD%EC%96%B4
oKuM9kYPQ2CVogU6spOKBQ,newborntown,p1865_8s__gp547xurn66ucndqf4sr,Install,2.0,183.103.90.21,ff54dc8a-af9a-8cb7-eb67-a51ed74a3eab,1558889155,2019-05-27 00:45:55,1558889270,2019-05-27 00:47:50,1558889300,ecaee990-2afa-42a3-adc1-f0e9436c41f6__pspm,http://pspm.pingstart.com/api/v4/postback?from=1706&clickid=ecaee990-2afa-42a3-adc1-f0e9436c41f6__pspm,idfa_ff54dc8a-af9a-8cb7-eb67-a51ed74a3eab,%ED%95%9C%EA%B5%AD%EC%96%B4
oKuM9kYPQ2CVogU6spOKBQ,newborntown,p1865_8s__gp547xurn66ucndqf4sr,Install,2.0,59.8.243.18,74734c1e-a387-49d4-a2be-826948906401,1558888901,2019-05-27 00:41:41,1558889022,2019-05-27 00:43:42,1558889054,96ffefb1-2178-4612-bec2-4ed3df2c62c0__pspm,http://pspm.pingstart.com/api/v4/postback?from=1706&clickid=96ffefb1-2178-4612-bec2-4ed3df2c62c0__pspm,idfa_74734c1e-a387-49d4-a2be-826948906401,%ED%95%9C%EA%B5%AD%EC%96%B4
oKuM9kYPQ2CVogU6spOKBQ,newborntown,p1865_8s__gp547xurn66ucndqf4sr,Install,2.0,14.37.220.127,3850cf1e-2a94-4d38-bc3d-33d5938ac212,1558888887,2019-05-27 00:41:27,1558889054,2019-05-27 00:44:14,1558889085,d3abc3aa-8fa1-41c3-8bda-591cbe175487__pspm,http://pspm.pingstart.com/api/v4/postback?from=1706&clickid=d3abc3aa-8fa1-41c3-8bda-591cbe175487__pspm,idfa_3850cf1e-2a94-4d38-bc3d-33d5938ac212,%ED%95%9C%EA%B5%AD%EC%96%B4
oKuM9kYPQ2CVogU6spOKBQ,newborntown,p1865_8s__gp547xurn66ucndqf4sr,Install,2.0,124.50.71.135,73f98762-624e-448f-a251-ae0bddceaa06,1558889157,2019-05-27 00:45:57,1558889311,2019-05-27 00:48:31,1558889342,07b06c5f-9404-4672-ad5f-8171aa419326__pspm,http://pspm.pingstart.com/api/v4/postback?from=1706&clickid=07b06c5f-9404-4672-ad5f-8171aa419326__pspm,idfa_73f98762-624e-448f-a251-ae0bddceaa06,%ED%95%9C%EA%B5%AD%EC%96%B4
oKuM9kYPQ2CVogU6spOKBQ,newborntown,p1865_8s__gp547xurn66ucndqf4sr,Install,2.0,221.150.80.228,2db7ad53-191f-4447-a27d-3a9df21cc022,1558890536,2019-05-27 01:08:56,1558890742,2019-05-27 01:12:22,1558890773,601edc8e-1a94-4f54-a61e-cb7baab451b8__pspm,http://pspm.pingstart.com/api/v4/postback?from=1706&clickid=601edc8e-1a94-4f54-a61e-cb7baab451b8__pspm,idfa_2db7ad53-191f-4447-a27d-3a9df21cc022,%ED%95%9C%EA%B5%AD%EC%96%B4
oKuM9kYPQ2CVogU6spOKBQ,newborntown,p1865_8s__gp547xurn66ucndqf4sr,Install,2.0,175.122.10.36,86144c94-aa2d-4de4-b993-96fb7f0c5391,1558890090,2019-05-27 01:01:30,1558890211,2019-05-27 01:03:31,1558890241,b3db16fb-80ce-42dc-a729-7880ba3a6512__pspm,http://pspm.pingstart.com/api/v4/postback?from=1706&clickid=b3db16fb-80ce-42dc-a729-7880ba3a6512__pspm,idfa_86144c94-aa2d-4de4-b993-96fb7f0c5391,%ED%95%9C%EA%B5%AD%EC%96%B4
oKuM9kYPQ2CVogU6spOKBQ,newborntown,p1865_8s__gp547xurn66ucndqf4sr,Install,2.0,61.79.127.244,adf818b6-fc45-403f-983b-2828aa989f0e,1558890179,2019-05-27 01:02:59,1558890514,2019-05-27 01:08:34,1558890544,39f09756-9069-4a44-8c72-53b0aaa013fd__pspm,http://pspm.pingstart.com/api/v4/postback?from=1706&clickid=39f09756-9069-4a44-8c72-53b0aaa013fd__pspm,idfa_adf818b6-fc45-403f-983b-2828aa989f0e,%ED%95%9C%EA%B5%AD%EC%96%B4
oKuM9kYPQ2CVogU6spOKBQ,newborntown,p1865_8s__gp547xurn66ucndqf4sr,Install,2.0,221.158.81.61,c5783be9-cba0-4d2a-b472-f5715f9caf0c,1558888275,2019-05-27 00:31:15,1558888423,2019-05-27 00:33:43,1558888453,20dcd232-b826-4ee4-b09e-6cb3462785c3__pspm,http://pspm.pingstart.com/api/v4/postback?from=1706&clickid=20dcd232-b826-4ee4-b09e-6cb3462785c3__pspm,idfa_c5783be9-cba0-4d2a-b472-f5715f9caf0c,%ED%95%9C%EA%B5%AD%EC%96%B4
oKuM9kYPQ2CVogU6spOKBQ,newborntown,p1865_8s__gp547xurn66ucndqf4sr,Install,2.0,125.128.137.183,ccb94254-f639-4f7b-922a-f6549a449f67,1558888900,2019-05-27 00:41:40,1558889063,2019-05-27 00:44:23,1558889094,d5920930-3680-42b4-b390-bcccee187e98__pspm,http://pspm.pingstart.com/api/v4/postback?from=1706&clickid=d5920930-3680-42b4-b390-bcccee187e98__pspm,idfa_ccb94254-f639-4f7b-922a-f6549a449f67,%ED%95%9C%EA%B5%AD%EC%96%B4
oKuM9kYPQ2CVogU6spOKBQ,newborntown,p1865_8s__gp547xurn66ucndqf4sr,Install,2.0,182.222.156.50,49120b34-cce6-49fd-9d0b-5a4b9f279605,1558888476,2019-05-27 00:34:36,1558888628,2019-05-27 00:37:08,1558888658,77be2c15-0fe4-4643-bb0d-b9c71da15f36__pspm,http://pspm.pingstart.com/api/v4/postback?from=1706&clickid=77be2c15-0fe4-4643-bb0d-b9c71da15f36__pspm,idfa_49120b34-cce6-49fd-9d0b-5a4b9f279605,%ED%95%9C%EA%B5%AD%EC%96%B4
oKuM9kYPQ2CVogU6spOKBQ,newborntown,p1865_8s__gp547xurn66ucndqf4sr,Install,2.0,221.148.61.230,b70964ab-1ffa-4c90-ace0-ebd0ec902fb9,1558889574,2019-05-27 00:52:54,1558889689,2019-05-27 00:54:49,1558889719,a45731fb-5ef7-4883-abd0-7aec10de6ce5__pspm,http://pspm.pingstart.com/api/v4/postback?from=1706&clickid=a45731fb-5ef7-4883-abd0-7aec10de6ce5__pspm,idfa_b70964ab-1ffa-4c90-ace0-ebd0ec902fb9,%ED%95%9C%EA%B5%AD%EC%96%B4
oKuM9kYPQ2CVogU6spOKBQ,newborntown,p1865_8s__gp547xurn66ucndqf4sr,Install,2.0,58.231.166.196,6730702a-9826-4cc3-8327-31f018190bff,1558889426,2019-05-27 00:50:26,1558889581,2019-05-27 00:53:01,1558889611,bf5bc484-c0fc-4a55-aaee-6601d0cfb70c__pspm,http://pspm.pingstart.com/api/v4/postback?from=1706&clickid=bf5bc484-c0fc-4a55-aaee-6601d0cfb70c__pspm,idfa_6730702a-9826-4cc3-8327-31f018190bff,%ED%95%9C%EA%B5%AD%EC%96%B4
oKuM9kYPQ2CVogU6spOKBQ,newborntown,p1865_8s__gp547xurn66ucndqf4sr,Install,2.0,14.39.222.29,d7263c38-bfcf-44f6-a917-1b15873b855a,1558888894,2019-05-27 00:41:34,1558889063,2019-05-27 00:44:23,1558889093,767ae53f-eeb1-4802-bda9-40a48d590128__pspm,http://pspm.pingstart.com/api/v4/postback?from=1706&clickid=767ae53f-eeb1-4802-bda9-40a48d590128__pspm,idfa_d7263c38-bfcf-44f6-a917-1b15873b855a,%ED%95%9C%EA%B5%AD%EC%96%B4
oKuM9kYPQ2CVogU6spOKBQ,newborntown,p1865_8s__gp547xurn66ucndqf4sr,Install,2.0,49.1.72.98,70a0701c-9946-4f53-93d6-1d9963b3133a,1558889237,2019-05-27 00:47:17,1558889394,2019-05-27 00:49:54,1558889425,df67f49b-12de-4a51-a454-9a2326bf43a2__pspm,http://pspm.pingstart.com/api/v4/postback?from=1706&clickid=df67f49b-12de-4a51-a454-9a2326bf43a2__pspm,idfa_70a0701c-9946-4f53-93d6-1d9963b3133a,%ED%95%9C%EA%B5%AD%EC%96%B4
oKuM9kYPQ2CVogU6spOKBQ,newborntown,p1865_8s__gp547xurn66ucndqf4sr,Install,2.0,222.116.100.206,177d4406-0277-40b8-bc7c-785070e29185,1558889390,2019-05-27 00:49:50,1558889585,2019-05-27 00:53:05,1558889615,240d88e4-a850-455a-bcde-30d2a90f23cb__pspm,http://pspm.pingstart.com/api/v4/postback?from=1706&clickid=240d88e4-a850-455a-bcde-30d2a90f23cb__pspm,idfa_177d4406-0277-40b8-bc7c-785070e29185,%ED%95%9C%EA%B5%AD%EC%96%B4
oKuM9kYPQ2CVogU6spOKBQ,newborntown,p1865_8s__gp547xurn66ucndqf4sr,Install,2.0,118.36.198.188,fcd4d4a2-0aad-43b3-8101-021384e314f4,1558889339,2019-05-27 00:48:59,1558889462,2019-05-27 00:51:02,1558889493,b81ce67c-a7d4-4815-a663-b1d460d0b837__pspm,http://pspm.pingstart.com/api/v4/postback?from=1706&clickid=b81ce67c-a7d4-4815-a663-b1d460d0b837__pspm,idfa_fcd4d4a2-0aad-43b3-8101-021384e314f4,%ED%95%9C%EA%B5%AD%EC%96%B4
oKuM9kYPQ2CVogU6spOKBQ,newborntown,p1865_8s__gp547xurn66ucndqf4sr,Install,2.0,121.136.98.126,eb3d8a9b-98df-4419-88dc-55fa810370be,1558890155,2019-05-27 01:02:35,1558890514,2019-05-27 01:08:34,1558890545,fd068726-6f14-46a6-b148-5962768a7bdf__pspm,http://pspm.pingstart.com/api/v4/postback?from=1706&clickid=fd068726-6f14-46a6-b148-5962768a7bdf__pspm,idfa_eb3d8a9b-98df-4419-88dc-55fa810370be,%ED%95%9C%EA%B5%AD%EC%96%B4
oKuM9kYPQ2CVogU6spOKBQ,newborntown,p1865_8s__gp547xurn66ucndqf4sr,Install,2.0,222.110.190.17,6b65a711-4740-4d42-930c-f817f7d0d472,1558888224,2019-05-27 00:30:24,1558888371,2019-05-27 00:32:51,1558888402,065df2c9-ed4e-4852-a8f9-6922d390de2d__pspm,http://pspm.pingstart.com/api/v4/postback?from=1706&clickid=065df2c9-ed4e-4852-a8f9-6922d390de2d__pspm,idfa_6b65a711-4740-4d42-930c-f817f7d0d472,%ED%95%9C%EA%B5%AD%EC%96%B4
oKuM9kYPQ2CVogU6spOKBQ,newborntown,p1865_8s__gp547xurn66ucndqf4sr,Install,2.0,121.182.194.251,69151308-3709-4315-9605-fa39c581a665,1558888684,2019-05-27 00:38:04,1558888827,2019-05-27 00:40:27,1558888857,af8b455a-328b-459a-9643-730cf57a4891__pspm,http://pspm.pingstart.com/api/v4/postback?from=1706&clickid=af8b455a-328b-459a-9643-730cf57a4891__pspm,idfa_69151308-3709-4315-9605-fa39c581a665,%ED%95%9C%EA%B5%AD%EC%96%B4
oKuM9kYPQ2CVogU6spOKBQ,newborntown,p1865_8s__gp547xurn66ucndqf4sr,Install,2.0,175.127.83.96,9a10dc6a-cb69-4be1-837b-48a9c3b7e288,1558888886,2019-05-27 00:41:26,1558889017,2019-05-27 00:43:37,1558889047,2bc4b6de-9a61-47dc-9a80-6ab751ec599b__pspm,http://pspm.pingstart.com/api/v4/postback?from=1706&clickid=2bc4b6de-9a61-47dc-9a80-6ab751ec599b__pspm,idfa_9a10dc6a-cb69-4be1-837b-48a9c3b7e288,%ED%95%9C%EA%B5%AD%EC%96%B4
oKuM9kYPQ2CVogU6spOKBQ,newborntown,p1865_8s__gp547xurn66ucndqf4sr,Install,2.0,175.127.83.96,3f2def7e-2518-402c-9832-d7899ab7387a,1558889034,2019-05-27 00:43:54,1558889180,2019-05-27 00:46:20,1558889210,841628ff-44cf-4785-96db-94ec62b6ee3c__pspm,http://pspm.pingstart.com/api/v4/postback?from=1706&clickid=841628ff-44cf-4785-96db-94ec62b6ee3c__pspm,idfa_3f2def7e-2518-402c-9832-d7899ab7387a,%ED%95%9C%EA%B5%AD%EC%96%B4
oKuM9kYPQ2CVogU6spOKBQ,newborntown,p1865_8s__gp547xurn66ucndqf4sr,Install,2.0,218.237.26.158,e29af271-66eb-43ec-9757-3e10b3df1fde,1558888883,2019-05-27 00:41:23,1558889043,2019-05-27 00:44:03,1558889074,ba27e3cd-1d26-4951-a765-9a6a14ed6dea__pspm,http://pspm.pingstart.com/api/v4/postback?from=1706&clickid=ba27e3cd-1d26-4951-a765-9a6a14ed6dea__pspm,idfa_e29af271-66eb-43ec-9757-3e10b3df1fde,%ED%95%9C%EA%B5%AD%EC%96%B4
oKuM9kYPQ2CVogU6spOKBQ,newborntown,p1865_8s__gp547xurn66ucndqf4sr,Install,2.0,175.200.222.210,f209771a-6211-46cc-a5c6-bcf77e0c1123,1558889538,2019-05-27 00:52:18,1558889677,2019-05-27 00:54:37,1558889708,8777e4b0-207b-4cf0-b62a-09032cf20221__pspm,http://pspm.pingstart.com/api/v4/postback?from=1706&clickid=8777e4b0-207b-4cf0-b62a-09032cf20221__pspm,idfa_f209771a-6211-46cc-a5c6-bcf77e0c1123,%ED%95%9C%EA%B5%AD%EC%96%B4
oKuM9kYPQ2CVogU6spOKBQ,newborntown,p1865_8s__gp547xurn66ucndqf4sr,Install,2.0,125.190.151.172,ac1d6a04-d19a-430b-a473-75a42cc38300,1558888485,2019-05-27 00:34:45,1558888593,2019-05-27 00:36:33,1558888624,86c5b448-1bd0-49cb-ae32-e93842072ad5__pspm,http://pspm.pingstart.com/api/v4/postback?from=1706&clickid=86c5b448-1bd0-49cb-ae32-e93842072ad5__pspm,idfa_ac1d6a04-d19a-430b-a473-75a42cc38300,%ED%95%9C%EA%B5%AD%EC%96%B4
oKuM9kYPQ2CVogU6spOKBQ,newborntown,p1865_8s__gp547xurn66ucndqf4sr,Install,2.0,112.170.46.66,267c1699-9dbd-4463-bf40-79f0cc6ec9d9,1558888549,2019-05-27 00:35:49,1558888708,2019-05-27 00:38:28,1558888739,b58f7189-8292-475c-b651-b8ea875d7e55__pspm,http://pspm.pingstart.com/api/v4/postback?from=1706&clickid=b58f7189-8292-475c-b651-b8ea875d7e55__pspm,idfa_267c1699-9dbd-4463-bf40-79f0cc6ec9d9,%ED%95%9C%EA%B5%AD%EC%96%B4
oKuM9kYPQ2CVogU6spOKBQ,newborntown,p1865_8s__gp547xurn66ucndqf4sr,Install,2.0,219.248.167.187,25bc3bfa-f57e-da27-42eb-c89525bcaffa,1558888218,2019-05-27 00:30:18,1558888351,2019-05-27 00:32:31,1558888381,59af9b24-2c11-421b-af83-e4467148ea2b__pspm,http://pspm.pingstart.com/api/v4/postback?from=1706&clickid=59af9b24-2c11-421b-af83-e4467148ea2b__pspm,idfa_25bc3bfa-f57e-da27-42eb-c89525bcaffa,%ED%95%9C%EA%B5%AD%EC%96%B4
oKuM9kYPQ2CVogU6spOKBQ,newborntown,p1865_8s__gp547xurn66ucndqf4sr,Install,2.0,114.207.74.162,b84f0697-85e6-40cd-b895-5db26724f8fe,1558889627,2019-05-27 00:53:47,1558889753,2019-05-27 00:55:53,1558889783,26cab679-0e1d-4a1f-a172-aca35949616e__pspm,http://pspm.pingstart.com/api/v4/postback?from=1706&clickid=26cab679-0e1d-4a1f-a172-aca35949616e__pspm,idfa_b84f0697-85e6-40cd-b895-5db26724f8fe,%ED%95%9C%EA%B5%AD%EC%96%B4
oKuM9kYPQ2CVogU6spOKBQ,newborntown,p1865_8s__gp547xurn66ucndqf4sr,Install,2.0,58.126.22.201,f1d3ad7c-a3bb-4264-903a-951482f46eaf,1558888221,2019-05-27 00:30:21,1558888361,2019-05-27 00:32:41,1558888391,19faffb0-0fc0-42b4-a6c9-b3c555cbc2a9__pspm,http://pspm.pingstart.com/api/v4/postback?from=1706&clickid=19faffb0-0fc0-42b4-a6c9-b3c555cbc2a9__pspm,idfa_f1d3ad7c-a3bb-4264-903a-951482f46eaf,%ED%95%9C%EA%B5%AD%EC%96%B4
oKuM9kYPQ2CVogU6spOKBQ,newborntown,p1865_8s__gp547xurn66ucndqf4sr,Install,2.0,14.38.188.185,c422ee1b-cfe8-bcc8-39b2-473e6aab438d,1558889890,2019-05-27 00:58:10,1558890039,2019-05-27 01:00:39,1558890069,6795bd2f-2c5d-4f5f-b6be-be923b2c99cf__pspm,http://pspm.pingstart.com/api/v4/postback?from=1706&clickid=6795bd2f-2c5d-4f5f-b6be-be923b2c99cf__pspm,idfa_c422ee1b-cfe8-bcc8-39b2-473e6aab438d,%ED%95%9C%EA%B5%AD%EC%96%B4
