cid,partner_id,channel_id,action_id,cpi,ip,idfa,click time,click datetime,install time,install datetime,postback time,click id,postback url,unique user id
_fYj9_-lRUaaLCL4RAK81Q,newborntown,p1599_1509_1860,install,1.5,223.39.155.24,42837f6b-c2b0-4fed-8c01-167cc9324839,1558510952,2019-05-22 15:42:32,1558511048,2019-05-22 15:44:08,1558511079,41d4a02b-5914-471b-9685-b92b1b7c897d__pspm,http://pspm.pingstart.com/api/v4/postback?from=1706&clickid=41d4a02b-5914-471b-9685-b92b1b7c897d__pspm,idfa_42837f6b-c2b0-4fed-8c01-167cc9324839,ko
_fYj9_-lRUaaLCL4RAK81Q,newborntown,p1599_1509_1860,install,1.5,110.9.74.42,18208b5a-6bfd-421f-8627-f2ddbc17188e,1559289010,2019-05-31 15:50:10,1559289110,2019-05-31 15:51:50,1559289141,98c40647-99e6-4cfd-97fd-00c839c9f2ba__pspm,http://pspm.pingstart.com/api/v4/postback?from=1706&clickid=98c40647-99e6-4cfd-97fd-00c839c9f2ba__pspm,idfa_18208b5a-6bfd-421f-8627-f2ddbc17188e,ko
_fYj9_-lRUaaLCL4RAK81Q,newborntown,p1599_1509_1860,install,1.5,110.34.75.47,784fe378-bfcd-4210-b5a3-975771310ec8,1559290208,2019-05-31 16:10:08,1559290312,2019-05-31 16:11:52,1559290343,2459769e-8173-42be-9885-2ee7e5fb973c__pspm,http://pspm.pingstart.com/api/v4/postback?from=1706&clickid=2459769e-8173-42be-9885-2ee7e5fb973c__pspm,idfa_784fe378-bfcd-4210-b5a3-975771310ec8,vi
_fYj9_-lRUaaLCL4RAK81Q,newborntown,p1599_1509_1860,install,1.5,223.38.8.56,dbf4768f-6aee-4251-8d9e-dc90384e85c1,1558511133,2019-05-22 15:45:33,1558511235,2019-05-22 15:47:15,1558511266,53f55d4e-5f77-4cc7-b1e2-21dc0dec5946__pspm,http://pspm.pingstart.com/api/v4/postback?from=1706&clickid=53f55d4e-5f77-4cc7-b1e2-21dc0dec5946__pspm,idfa_dbf4768f-6aee-4251-8d9e-dc90384e85c1,ko
_fYj9_-lRUaaLCL4RAK81Q,newborntown,p1599_1509_1860,install,1.5,223.32.14.68,1375ae51-84d2-4873-bfd8-6a422aa4e837,1558510837,2019-05-22 15:40:37,1558510916,2019-05-22 15:41:56,1558510947,6154bd4d-582b-4c6e-85c9-d8861f75ebf3__pspm,http://pspm.pingstart.com/api/v4/postback?from=1706&clickid=6154bd4d-582b-4c6e-85c9-d8861f75ebf3__pspm,idfa_1375ae51-84d2-4873-bfd8-6a422aa4e837,ko
_fYj9_-lRUaaLCL4RAK81Q,newborntown,p1599_1509_1860,install,1.5,119.204.145.92,c921a41e-3c0f-4903-892f-29fe4a6eb395,1558511069,2019-05-22 15:44:29,1558511173,2019-05-22 15:46:13,1558511204,b67a3fb6-ad65-4178-bf65-82e4377807a6__pspm,http://pspm.pingstart.com/api/v4/postback?from=1706&clickid=b67a3fb6-ad65-4178-bf65-82e4377807a6__pspm,idfa_c921a41e-3c0f-4903-892f-29fe4a6eb395,ko
_fYj9_-lRUaaLCL4RAK81Q,newborntown,p1599_1509_1860,install,1.5,175.223.39.99,b891a487-6dcf-4f0f-bdfa-afb6e04b0930,1559287986,2019-05-31 15:33:06,1559288086,2019-05-31 15:34:46,1559288119,90c1890b-00f8-4259-89be-40ac89f4c888__pspm,http://pspm.pingstart.com/api/v4/postback?from=1706&clickid=90c1890b-00f8-4259-89be-40ac89f4c888__pspm,idfa_b891a487-6dcf-4f0f-bdfa-afb6e04b0930,ko
_fYj9_-lRUaaLCL4RAK81Q,newborntown,p1599_1509_1860,install,1.5,182.226.155.148,7adb5474-3337-4fb3-89c5-481c073cef6d,1558510576,2019-05-22 15:36:16,1558510970,2019-05-22 15:42:50,1558511000,2adaf614-ec24-4bc6-b2b6-b31bb2baf942__pspm,http://pspm.pingstart.com/api/v4/postback?from=1706&clickid=2adaf614-ec24-4bc6-b2b6-b31bb2baf942__pspm,idfa_7adb5474-3337-4fb3-89c5-481c073cef6d,ko
_fYj9_-lRUaaLCL4RAK81Q,newborntown,p1599_1509_1860,install,1.5,223.32.12.98,d69f46f9-b012-4076-b744-f4147ec5fc78,1558511132,2019-05-22 15:45:32,1558511237,2019-05-22 15:47:17,1558511268,a8146b90-8e6d-4600-9a94-5e8e40bbe506__pspm,http://pspm.pingstart.com/api/v4/postback?from=1706&clickid=a8146b90-8e6d-4600-9a94-5e8e40bbe506__pspm,idfa_d69f46f9-b012-4076-b744-f4147ec5fc78,ko
_fYj9_-lRUaaLCL4RAK81Q,newborntown,p1599_1509_1860,install,1.5,114.200.192.27,edd66284-64c3-445c-b993-3a9718c53ad3,1559289367,2019-05-31 15:56:07,1559289471,2019-05-31 15:57:51,1559289503,c3fd7e16-76ba-4422-978e-cc6a43bcd130__pspm,http://pspm.pingstart.com/api/v4/postback?from=1706&clickid=c3fd7e16-76ba-4422-978e-cc6a43bcd130__pspm,idfa_edd66284-64c3-445c-b993-3a9718c53ad3,ko
_fYj9_-lRUaaLCL4RAK81Q,newborntown,p1599_1509_1860,install,1.5,218.146.233.154,435c192c-3b6e-4e0a-b1ff-b5e76d16224f,1558510886,2019-05-22 15:41:26,1558510985,2019-05-22 15:43:05,1558511016,6fa6a268-79bd-4a5e-aefb-c6e368194f67__pspm,http://pspm.pingstart.com/api/v4/postback?from=1706&clickid=6fa6a268-79bd-4a5e-aefb-c6e368194f67__pspm,idfa_435c192c-3b6e-4e0a-b1ff-b5e76d16224f,ko
_fYj9_-lRUaaLCL4RAK81Q,newborntown,p1599_1509_1860,install,1.5,218.147.186.101,81616769-49e3-49a6-8ec3-19ecfa43f638,1558510945,2019-05-22 15:42:25,1558511297,2019-05-22 15:48:17,1558511327,ec35eb24-a994-4009-b771-4c59007afd41__pspm,http://pspm.pingstart.com/api/v4/postback?from=1706&clickid=ec35eb24-a994-4009-b771-4c59007afd41__pspm,idfa_81616769-49e3-49a6-8ec3-19ecfa43f638,ko
_fYj9_-lRUaaLCL4RAK81Q,newborntown,p1599_1509_1860,install,1.5,223.62.202.41,a5b47e4c-0d88-45bd-9284-0e89af0220f5,1559289847,2019-05-31 16:04:07,1559289953,2019-05-31 16:05:53,1559289984,abd7eaed-2f36-4d4a-9a70-946575ef6874__pspm,http://pspm.pingstart.com/api/v4/postback?from=1706&clickid=abd7eaed-2f36-4d4a-9a70-946575ef6874__pspm,idfa_a5b47e4c-0d88-45bd-9284-0e89af0220f5,ko
_fYj9_-lRUaaLCL4RAK81Q,newborntown,p1599_1509_1860,install,1.5,223.39.152.112,dc8d0989-7099-44f6-9461-d4a943d46dff,1559289437,2019-05-31 15:57:17,1559289530,2019-05-31 15:58:50,1559289563,b88c8634-2120-4366-b6e5-c5ce808e7e24__pspm,http://pspm.pingstart.com/api/v4/postback?from=1706&clickid=b88c8634-2120-4366-b6e5-c5ce808e7e24__pspm,idfa_dc8d0989-7099-44f6-9461-d4a943d46dff,ko
_fYj9_-lRUaaLCL4RAK81Q,newborntown,p1599_1509_1860,install,1.5,211.36.143.51,accc2907-2db2-4176-8e19-7eb987cd5a57,1558510630,2019-05-22 15:37:10,1558510733,2019-05-22 15:38:53,1558510764,f74b73d6-cf97-4648-b5b4-79ec253b6c6d__pspm,http://pspm.pingstart.com/api/v4/postback?from=1706&clickid=f74b73d6-cf97-4648-b5b4-79ec253b6c6d__pspm,idfa_accc2907-2db2-4176-8e19-7eb987cd5a57,ko
_fYj9_-lRUaaLCL4RAK81Q,newborntown,p1599_1509_1860,install,1.5,175.223.10.102,5a3e4839-acba-4e23-a773-9f26dc4cd246,1559289369,2019-05-31 15:56:09,1559289474,2019-05-31 15:57:54,1559289504,f952cd61-8687-4d56-9ebc-003ff839c825__pspm,http://pspm.pingstart.com/api/v4/postback?from=1706&clickid=f952cd61-8687-4d56-9ebc-003ff839c825__pspm,idfa_5a3e4839-acba-4e23-a773-9f26dc4cd246,ko
_fYj9_-lRUaaLCL4RAK81Q,newborntown,p1599_1509_1860,install,1.5,122.37.247.61,7f7defad-6af6-49e1-a32a-d277efd8b7f4,1559289609,2019-05-31 16:00:09,1559289763,2019-05-31 16:02:43,1559289794,38f28d07-901f-4bef-bdff-f6c480807b2d__pspm,http://pspm.pingstart.com/api/v4/postback?from=1706&clickid=38f28d07-901f-4bef-bdff-f6c480807b2d__pspm,idfa_7f7defad-6af6-49e1-a32a-d277efd8b7f4,ko
_fYj9_-lRUaaLCL4RAK81Q,newborntown,p1599_1509_1860,install,1.5,117.111.15.204,d03fc010-3ff2-444f-b7ee-5e2d041df2b7,1559289846,2019-05-31 16:04:06,1559289949,2019-05-31 16:05:49,1559289980,c8d8e660-2904-40c4-80a0-f25c16505b8f__pspm,http://pspm.pingstart.com/api/v4/postback?from=1706&clickid=c8d8e660-2904-40c4-80a0-f25c16505b8f__pspm,idfa_d03fc010-3ff2-444f-b7ee-5e2d041df2b7,ko
_fYj9_-lRUaaLCL4RAK81Q,newborntown,p1599_1509_1860,install,1.5,175.123.44.83,58ce6204-6f8d-4863-9a22-d5e917216cf5,1558511120,2019-05-22 15:45:20,1558511301,2019-05-22 15:48:21,1558511331,b7ae8f10-24dc-4b79-bf8d-8e4948d37fa0__pspm,http://pspm.pingstart.com/api/v4/postback?from=1706&clickid=b7ae8f10-24dc-4b79-bf8d-8e4948d37fa0__pspm,idfa_58ce6204-6f8d-4863-9a22-d5e917216cf5,ko
_fYj9_-lRUaaLCL4RAK81Q,newborntown,p1599_1509_1860,install,1.5,175.223.48.106,1f109f82-f3e5-4a46-acdc-0cbddf63b083,1558510815,2019-05-22 15:40:15,1558510933,2019-05-22 15:42:13,1558510964,2717b7f7-959e-4198-a782-f15b3f9cc286__pspm,http://pspm.pingstart.com/api/v4/postback?from=1706&clickid=2717b7f7-959e-4198-a782-f15b3f9cc286__pspm,idfa_1f109f82-f3e5-4a46-acdc-0cbddf63b083,ko
_fYj9_-lRUaaLCL4RAK81Q,newborntown,p1599_1509_1860,install,1.5,14.54.184.119,b0765660-31e5-4686-9339-8c530e1d62ee,1559290026,2019-05-31 16:07:06,1559290134,2019-05-31 16:08:54,1559290165,127490ec-6161-4a0b-baa0-1e5252e5c3d9__pspm,http://pspm.pingstart.com/api/v4/postback?from=1706&clickid=127490ec-6161-4a0b-baa0-1e5252e5c3d9__pspm,idfa_b0765660-31e5-4686-9339-8c530e1d62ee,th
_fYj9_-lRUaaLCL4RAK81Q,newborntown,p1599_1509_1860,install,1.5,223.33.184.1,80b7247a-2440-4e69-ad19-785c76f0ca35,1558510634,2019-05-22 15:37:14,1558510735,2019-05-22 15:38:55,1558510766,317061fe-0e38-4113-b5e1-f6e354cebefd__pspm,http://pspm.pingstart.com/api/v4/postback?from=1706&clickid=317061fe-0e38-4113-b5e1-f6e354cebefd__pspm,idfa_80b7247a-2440-4e69-ad19-785c76f0ca35,ko
_fYj9_-lRUaaLCL4RAK81Q,newborntown,p1599_1509_1860,install,1.5,211.206.46.64,5ff77c62-c437-42f3-b6c9-a4d18f84876f,1558510882,2019-05-22 15:41:22,1558510973,2019-05-22 15:42:53,1558511004,cd8786ab-644a-4ee8-ba4f-cadc646680be__pspm,http://pspm.pingstart.com/api/v4/postback?from=1706&clickid=cd8786ab-644a-4ee8-ba4f-cadc646680be__pspm,idfa_5ff77c62-c437-42f3-b6c9-a4d18f84876f,ko
_fYj9_-lRUaaLCL4RAK81Q,newborntown,p1599_1509_1860,install,1.5,211.36.139.227,53670bbd-52dd-46b3-827a-0455ef2b2194,1558510641,2019-05-22 15:37:21,1558510743,2019-05-22 15:39:03,1558510774,5f7f397e-6308-430e-9f62-7efb4c2a7c44__pspm,http://pspm.pingstart.com/api/v4/postback?from=1706&clickid=5f7f397e-6308-430e-9f62-7efb4c2a7c44__pspm,idfa_53670bbd-52dd-46b3-827a-0455ef2b2194,ko
_fYj9_-lRUaaLCL4RAK81Q,newborntown,p1599_1509_1860,install,1.5,223.33.165.178,f2a34160-e2ba-4e3c-8085-d6f5d8ea35b2,1558510811,2019-05-22 15:40:11,1558510975,2019-05-22 15:42:55,1558511006,6d55ad10-7d77-4df5-b917-ca34a87e10ab__pspm,http://pspm.pingstart.com/api/v4/postback?from=1706&clickid=6d55ad10-7d77-4df5-b917-ca34a87e10ab__pspm,idfa_f2a34160-e2ba-4e3c-8085-d6f5d8ea35b2,ko
_fYj9_-lRUaaLCL4RAK81Q,newborntown,p1599_1509_1860,install,1.5,223.39.146.182,acce3437-74d9-41a5-8e6e-15c09492def8,1558510940,2019-05-22 15:42:20,1558511042,2019-05-22 15:44:02,1558511073,0985242a-082b-45d3-a07a-65793bec4d7e__pspm,http://pspm.pingstart.com/api/v4/postback?from=1706&clickid=0985242a-082b-45d3-a07a-65793bec4d7e__pspm,idfa_acce3437-74d9-41a5-8e6e-15c09492def8,ko
_fYj9_-lRUaaLCL4RAK81Q,newborntown,p1599_1509_1860,install,1.5,115.90.23.76,2be852d3-3729-45d0-ae9c-ba3b7753f569,1558510878,2019-05-22 15:41:18,1558510974,2019-05-22 15:42:54,1558511006,dd4695f1-b87c-4dbb-ba77-5f8f615baac5__pspm,http://pspm.pingstart.com/api/v4/postback?from=1706&clickid=dd4695f1-b87c-4dbb-ba77-5f8f615baac5__pspm,idfa_2be852d3-3729-45d0-ae9c-ba3b7753f569,ko
_fYj9_-lRUaaLCL4RAK81Q,newborntown,p1599_1509_1860,install,1.5,223.38.21.90,9591735a-005e-4385-848d-5e5c24b3f68e,1558509417,2019-05-22 15:16:57,1558509517,2019-05-22 15:18:37,1558509548,b5c2259b-1d05-4e3d-bc55-0868bea6f845__pspm,http://pspm.pingstart.com/api/v4/postback?from=1706&clickid=b5c2259b-1d05-4e3d-bc55-0868bea6f845__pspm,idfa_9591735a-005e-4385-848d-5e5c24b3f68e,ko
_fYj9_-lRUaaLCL4RAK81Q,newborntown,p1599_1509_1860,install,1.5,1.217.49.187,22c02fbb-dc2a-4190-afdb-3334b5b797c5,1558511017,2019-05-22 15:43:37,1558511114,2019-05-22 15:45:14,1558511145,0c97fe80-9391-491d-8a76-105a4d453243__pspm,http://pspm.pingstart.com/api/v4/postback?from=1706&clickid=0c97fe80-9391-491d-8a76-105a4d453243__pspm,idfa_22c02fbb-dc2a-4190-afdb-3334b5b797c5,ko
_fYj9_-lRUaaLCL4RAK81Q,newborntown,p1599_1509_1860,install,1.5,175.223.3.184,0d79673a-c5e6-4352-b549-4dad5ecca493,1558511012,2019-05-22 15:43:32,1558511115,2019-05-22 15:45:15,1558511146,94ab03f2-7faa-42a2-8738-866ef337cba3__pspm,http://pspm.pingstart.com/api/v4/postback?from=1706&clickid=94ab03f2-7faa-42a2-8738-866ef337cba3__pspm,idfa_0d79673a-c5e6-4352-b549-4dad5ecca493,ko
_fYj9_-lRUaaLCL4RAK81Q,newborntown,p1599_1509_1860,install,1.5,223.39.151.23,2ef45666-d6a0-4f86-9240-708d6fcfad1d,1558510817,2019-05-22 15:40:17,1558510997,2019-05-22 15:43:17,1558511030,1689f8de-ea01-4a15-b581-9c72b51e57a8__pspm,http://pspm.pingstart.com/api/v4/postback?from=1706&clickid=1689f8de-ea01-4a15-b581-9c72b51e57a8__pspm,idfa_2ef45666-d6a0-4f86-9240-708d6fcfad1d,ko
_fYj9_-lRUaaLCL4RAK81Q,newborntown,p1599_1509_1860,install,1.5,121.151.212.121,8f1c9f18-4e0a-4e72-bf91-82c7c52ef6dd,1558511057,2019-05-22 15:44:17,1558511164,2019-05-22 15:46:04,1558511194,9f23d3cf-c016-4a1e-9189-420e94a12925__pspm,http://pspm.pingstart.com/api/v4/postback?from=1706&clickid=9f23d3cf-c016-4a1e-9189-420e94a12925__pspm,idfa_8f1c9f18-4e0a-4e72-bf91-82c7c52ef6dd,ko
_fYj9_-lRUaaLCL4RAK81Q,newborntown,p1599_1509_1860,install,1.5,59.17.91.211,e4814328-985b-478c-a09c-7e3381b7417f,1558511069,2019-05-22 15:44:29,1558511411,2019-05-22 15:50:11,1558511443,32960b0a-fc3a-4157-ab48-3c6f633e62d0__pspm,http://pspm.pingstart.com/api/v4/postback?from=1706&clickid=32960b0a-fc3a-4157-ab48-3c6f633e62d0__pspm,idfa_e4814328-985b-478c-a09c-7e3381b7417f,ko
_fYj9_-lRUaaLCL4RAK81Q,newborntown,p1599_1509_1860,install,1.5,211.222.132.47,c9243868-7ff2-40f3-93ed-dc5cfe345381,1558510757,2019-05-22 15:39:17,1558510974,2019-05-22 15:42:54,1558511005,8bd7068c-bce9-42c9-96d8-67885d61c14f__pspm,http://pspm.pingstart.com/api/v4/postback?from=1706&clickid=8bd7068c-bce9-42c9-96d8-67885d61c14f__pspm,idfa_c9243868-7ff2-40f3-93ed-dc5cfe345381,ko
_fYj9_-lRUaaLCL4RAK81Q,newborntown,p1599_1509_1860,install,1.5,175.206.27.253,9f43760b-6874-438b-a829-40acaaa6f67e,1559289815,2019-05-31 16:03:35,1559289890,2019-05-31 16:04:50,1559289921,b9224a1d-d5dc-44c4-b2a8-f712a5e36192__pspm,http://pspm.pingstart.com/api/v4/postback?from=1706&clickid=b9224a1d-d5dc-44c4-b2a8-f712a5e36192__pspm,idfa_9f43760b-6874-438b-a829-40acaaa6f67e,ko
_fYj9_-lRUaaLCL4RAK81Q,newborntown,p1599_1509_1860,install,1.5,211.36.140.109,cfcbc4a5-1102-4ea2-8120-56918db29583,1558511063,2019-05-22 15:44:23,1558511165,2019-05-22 15:46:05,1558511196,9bf0f14f-1b3a-4a7e-ad06-a35ec1623fd1__pspm,http://pspm.pingstart.com/api/v4/postback?from=1706&clickid=9bf0f14f-1b3a-4a7e-ad06-a35ec1623fd1__pspm,idfa_cfcbc4a5-1102-4ea2-8120-56918db29583,ko
_fYj9_-lRUaaLCL4RAK81Q,newborntown,p1599_1509_1860,install,1.5,223.39.130.137,e6d9dd58-df97-4796-92d7-9de6aff83a89,1558510812,2019-05-22 15:40:12,1558510916,2019-05-22 15:41:56,1558510947,472ff91a-5826-42b2-9f92-5b8224aa28cc__pspm,http://pspm.pingstart.com/api/v4/postback?from=1706&clickid=472ff91a-5826-42b2-9f92-5b8224aa28cc__pspm,idfa_e6d9dd58-df97-4796-92d7-9de6aff83a89,ko
_fYj9_-lRUaaLCL4RAK81Q,newborntown,p1599_1509_1860,install,1.5,211.54.73.194,67e381a4-6449-45a4-8e41-8db8a8d003ee,1558510885,2019-05-22 15:41:25,1558511173,2019-05-22 15:46:13,1558511204,96208dde-a7fc-4aa2-aa75-fb0331febb84__pspm,http://pspm.pingstart.com/api/v4/postback?from=1706&clickid=96208dde-a7fc-4aa2-aa75-fb0331febb84__pspm,idfa_67e381a4-6449-45a4-8e41-8db8a8d003ee,ko
_fYj9_-lRUaaLCL4RAK81Q,newborntown,p1599_1509_1860,install,1.5,14.53.84.108,9654462e-55da-4331-948a-8b978a11816e,1558511012,2019-05-22 15:43:32,1558511115,2019-05-22 15:45:15,1558511146,a03357cb-6a90-4dfe-a845-0e2ebd1a437a__pspm,http://pspm.pingstart.com/api/v4/postback?from=1706&clickid=a03357cb-6a90-4dfe-a845-0e2ebd1a437a__pspm,idfa_9654462e-55da-4331-948a-8b978a11816e,ko
_fYj9_-lRUaaLCL4RAK81Q,newborntown,p1599_1509_1860,install,1.5,14.6.174.69,da012bb4-73bd-4486-8cd6-fd145a1a9484,1559290267,2019-05-31 16:11:07,1559290590,2019-05-31 16:16:30,1559290621,1ffcf0d5-8d03-4654-b895-b04ee8540e19__pspm,http://pspm.pingstart.com/api/v4/postback?from=1706&clickid=1ffcf0d5-8d03-4654-b895-b04ee8540e19__pspm,idfa_da012bb4-73bd-4486-8cd6-fd145a1a9484,ko
_fYj9_-lRUaaLCL4RAK81Q,newborntown,p1599_1509_1860,install,1.5,61.84.172.178,e06dde59-ab2e-4926-aad2-1790261872c3,1559289427,2019-05-31 15:57:07,1559289531,2019-05-31 15:58:51,1559289562,7cd9ad5d-5903-419e-9ae1-2bc2fe0f740a__pspm,http://pspm.pingstart.com/api/v4/postback?from=1706&clickid=7cd9ad5d-5903-419e-9ae1-2bc2fe0f740a__pspm,idfa_e06dde59-ab2e-4926-aad2-1790261872c3,ko
_fYj9_-lRUaaLCL4RAK81Q,newborntown,p1599_1509_1860,install,1.5,223.62.8.148,bffb67d4-bf51-4a04-a783-a0b661bf4a60,1558511015,2019-05-22 15:43:35,1558511117,2019-05-22 15:45:17,1558511148,400d0a1d-e1b5-40fc-b17d-620b7f85134f__pspm,http://pspm.pingstart.com/api/v4/postback?from=1706&clickid=400d0a1d-e1b5-40fc-b17d-620b7f85134f__pspm,idfa_bffb67d4-bf51-4a04-a783-a0b661bf4a60,ko
_fYj9_-lRUaaLCL4RAK81Q,newborntown,p1599_1509_1860,install,1.5,106.102.11.149,64a53658-36e1-42c8-ba64-e7dce025c96a,1558510389,2019-05-22 15:33:09,1558510488,2019-05-22 15:34:48,1558510519,ee95a477-33be-40d8-a715-ea5845f3f9eb__pspm,http://pspm.pingstart.com/api/v4/postback?from=1706&clickid=ee95a477-33be-40d8-a715-ea5845f3f9eb__pspm,idfa_64a53658-36e1-42c8-ba64-e7dce025c96a,ko
_fYj9_-lRUaaLCL4RAK81Q,newborntown,p1599_1509_1860,install,1.5,122.47.183.221,b6360465-5ba1-4436-9ae4-330d1697a913,1558511017,2019-05-22 15:43:37,1558511174,2019-05-22 15:46:14,1558511204,e48b7c31-1f43-43e1-b7b8-a032c896798f__pspm,http://pspm.pingstart.com/api/v4/postback?from=1706&clickid=e48b7c31-1f43-43e1-b7b8-a032c896798f__pspm,idfa_b6360465-5ba1-4436-9ae4-330d1697a913,ko
_fYj9_-lRUaaLCL4RAK81Q,newborntown,p1599_1509_1860,install,1.5,121.180.231.116,73bc19ae-7719-469e-a2cf-7dad8fd1a7a8,1558510569,2019-05-22 15:36:09,1558510670,2019-05-22 15:37:50,1558510701,a52f8e14-429a-447c-82bd-55404c1e3dca__pspm,http://pspm.pingstart.com/api/v4/postback?from=1706&clickid=a52f8e14-429a-447c-82bd-55404c1e3dca__pspm,idfa_73bc19ae-7719-469e-a2cf-7dad8fd1a7a8,ko
_fYj9_-lRUaaLCL4RAK81Q,newborntown,p1599_1509_1860,install,1.5,118.223.198.28,e1630dc5-379b-4d01-b718-bb50f0af75f1,1559289252,2019-05-31 15:54:12,1559289353,2019-05-31 15:55:53,1559289384,ffa6c04d-47d9-4315-9170-0ef162f4476f__pspm,http://pspm.pingstart.com/api/v4/postback?from=1706&clickid=ffa6c04d-47d9-4315-9170-0ef162f4476f__pspm,idfa_e1630dc5-379b-4d01-b718-bb50f0af75f1,ko
_fYj9_-lRUaaLCL4RAK81Q,newborntown,p1599_1509_1860,install,1.5,210.220.89.98,34b6b4f8-e75a-4d24-89c2-81b0e01857ae,1558511008,2019-05-22 15:43:28,1558511108,2019-05-22 15:45:08,1558511139,873791be-2387-4349-a98c-313c4f260566__pspm,http://pspm.pingstart.com/api/v4/postback?from=1706&clickid=873791be-2387-4349-a98c-313c4f260566__pspm,idfa_34b6b4f8-e75a-4d24-89c2-81b0e01857ae,ko
_fYj9_-lRUaaLCL4RAK81Q,newborntown,p1599_1509_1860,install,1.5,1.230.177.93,ae1a4b8c-eb4e-4b45-b744-0e178002ea70,1559289430,2019-05-31 15:57:10,1559289533,2019-05-31 15:58:53,1559289563,da106a02-eae2-46a2-94c6-f525fb78e6d5__pspm,http://pspm.pingstart.com/api/v4/postback?from=1706&clickid=da106a02-eae2-46a2-94c6-f525fb78e6d5__pspm,idfa_ae1a4b8c-eb4e-4b45-b744-0e178002ea70,ko
_fYj9_-lRUaaLCL4RAK81Q,newborntown,p1599_1509_1860,install,1.5,114.129.203.47,61be1290-4a15-4ba5-80ec-993adde164c8,1558510888,2019-05-22 15:41:28,1558511118,2019-05-22 15:45:18,1558511150,3498c462-cff2-499a-9782-57606e1505cd__pspm,http://pspm.pingstart.com/api/v4/postback?from=1706&clickid=3498c462-cff2-499a-9782-57606e1505cd__pspm,idfa_61be1290-4a15-4ba5-80ec-993adde164c8,ko
_fYj9_-lRUaaLCL4RAK81Q,newborntown,p1599_1509_1860,install,1.5,211.36.143.2,96ebc5d8-fa13-463b-b1b1-e2c24edab7ef,1558511135,2019-05-22 15:45:35,1558511240,2019-05-22 15:47:20,1558511271,9092e663-8ec7-4c7b-be67-5798ac6c88f2__pspm,http://pspm.pingstart.com/api/v4/postback?from=1706&clickid=9092e663-8ec7-4c7b-be67-5798ac6c88f2__pspm,idfa_96ebc5d8-fa13-463b-b1b1-e2c24edab7ef,ko
_fYj9_-lRUaaLCL4RAK81Q,newborntown,p1599_1509_1860,install,1.5,222.102.103.230,c2525b78-a87c-4f78-b3d6-d2fa2f2efe97,1559289488,2019-05-31 15:58:08,1559289750,2019-05-31 16:02:30,1559289781,66f68fc6-c0aa-4a7f-b478-a9af7b1d3bfe__pspm,http://pspm.pingstart.com/api/v4/postback?from=1706&clickid=66f68fc6-c0aa-4a7f-b478-a9af7b1d3bfe__pspm,idfa_c2525b78-a87c-4f78-b3d6-d2fa2f2efe97,ko
_fYj9_-lRUaaLCL4RAK81Q,newborntown,p1599_1509_1860,install,1.5,112.172.172.13,2ebe47f2-87ad-4959-8212-a00c09f39c2f,1558511132,2019-05-22 15:45:32,1558511237,2019-05-22 15:47:17,1558511268,4d14727b-c9cf-4e9a-9d5c-95325037fa46__pspm,http://pspm.pingstart.com/api/v4/postback?from=1706&clickid=4d14727b-c9cf-4e9a-9d5c-95325037fa46__pspm,idfa_2ebe47f2-87ad-4959-8212-a00c09f39c2f,ko
_fYj9_-lRUaaLCL4RAK81Q,newborntown,p1599_1509_1860,install,1.5,223.38.17.200,113fe187-178f-4f53-b54e-38eaaf84905c,1559289008,2019-05-31 15:50:08,1559289119,2019-05-31 15:51:59,1559289149,10a2620d-c0d9-4a6b-ae41-cf154755f22c__pspm,http://pspm.pingstart.com/api/v4/postback?from=1706&clickid=10a2620d-c0d9-4a6b-ae41-cf154755f22c__pspm,idfa_113fe187-178f-4f53-b54e-38eaaf84905c,ko
_fYj9_-lRUaaLCL4RAK81Q,newborntown,p1599_1509_1860,install,1.5,58.233.105.15,5375c6e8-875d-4f8a-a4d5-2248d65d9b3b,1558510758,2019-05-22 15:39:18,1558510861,2019-05-22 15:41:01,1558510893,2480a19c-3591-419d-af0b-635f5eb3e2b0__pspm,http://pspm.pingstart.com/api/v4/postback?from=1706&clickid=2480a19c-3591-419d-af0b-635f5eb3e2b0__pspm,idfa_5375c6e8-875d-4f8a-a4d5-2248d65d9b3b,ko
_fYj9_-lRUaaLCL4RAK81Q,newborntown,p1599_1509_1860,install,1.5,221.143.92.134,dc93ed08-2491-453e-9ce3-0ac0df76ae08,1558511136,2019-05-22 15:45:36,1558511235,2019-05-22 15:47:15,1558511268,4e1ac6e5-678e-4142-a7c5-e5619acb59fa__pspm,http://pspm.pingstart.com/api/v4/postback?from=1706&clickid=4e1ac6e5-678e-4142-a7c5-e5619acb59fa__pspm,idfa_dc93ed08-2491-453e-9ce3-0ac0df76ae08,ko
_fYj9_-lRUaaLCL4RAK81Q,newborntown,p1599_1509_1860,install,1.5,110.70.52.145,d4b28e32-0063-45d4-ac46-1b62841ea538,1558511072,2019-05-22 15:44:32,1558511175,2019-05-22 15:46:15,1558511206,ce6c0c5e-61dd-4e31-bd1f-450336dfcd35__pspm,http://pspm.pingstart.com/api/v4/postback?from=1706&clickid=ce6c0c5e-61dd-4e31-bd1f-450336dfcd35__pspm,idfa_d4b28e32-0063-45d4-ac46-1b62841ea538,ko
_fYj9_-lRUaaLCL4RAK81Q,newborntown,p1599_1509_1860,install,1.5,112.150.52.212,567ae392-00f5-4011-b4a7-456040eb6d37,1558510883,2019-05-22 15:41:23,1558510984,2019-05-22 15:43:04,1558511014,d23c94f4-954b-45db-a0ec-26b43f1401be__pspm,http://pspm.pingstart.com/api/v4/postback?from=1706&clickid=d23c94f4-954b-45db-a0ec-26b43f1401be__pspm,idfa_567ae392-00f5-4011-b4a7-456040eb6d37,ko
_fYj9_-lRUaaLCL4RAK81Q,newborntown,p1599_1509_1860,install,1.5,223.38.36.161,1cf2be81-1b9c-4d92-8a16-799f093d813d,1558510700,2019-05-22 15:38:20,1558510799,2019-05-22 15:39:59,1558510830,9f32d033-bfdd-473b-8879-fc514f0082d8__pspm,http://pspm.pingstart.com/api/v4/postback?from=1706&clickid=9f32d033-bfdd-473b-8879-fc514f0082d8__pspm,idfa_1cf2be81-1b9c-4d92-8a16-799f093d813d,ko
_fYj9_-lRUaaLCL4RAK81Q,newborntown,p1599_1509_1860,install,1.5,221.138.111.157,aadeb3b6-95e0-40c6-b449-b08f2b1af2af,1559289128,2019-05-31 15:52:08,1559289404,2019-05-31 15:56:44,1559289435,969f7e14-6502-4288-b374-5883abb2fd49__pspm,http://pspm.pingstart.com/api/v4/postback?from=1706&clickid=969f7e14-6502-4288-b374-5883abb2fd49__pspm,idfa_aadeb3b6-95e0-40c6-b449-b08f2b1af2af,ko
_fYj9_-lRUaaLCL4RAK81Q,newborntown,p1599_1509_1860,install,1.5,121.162.205.77,86f3c53a-f0a3-44a9-ae55-77bc54edcf15,1558510691,2019-05-22 15:38:11,1558510796,2019-05-22 15:39:56,1558510827,7849aeb6-4ad2-40d8-86b4-443041615aef__pspm,http://pspm.pingstart.com/api/v4/postback?from=1706&clickid=7849aeb6-4ad2-40d8-86b4-443041615aef__pspm,idfa_86f3c53a-f0a3-44a9-ae55-77bc54edcf15,ko
_fYj9_-lRUaaLCL4RAK81Q,newborntown,p1599_1509_1860,install,1.5,14.34.91.192,44493620-2a06-4fa1-ae9e-79f545a53801,1558510572,2019-05-22 15:36:12,1558510680,2019-05-22 15:38:00,1558510711,dfff1dc1-a5bf-4180-ac42-69b929552be9__pspm,http://pspm.pingstart.com/api/v4/postback?from=1706&clickid=dfff1dc1-a5bf-4180-ac42-69b929552be9__pspm,idfa_44493620-2a06-4fa1-ae9e-79f545a53801,ko
_fYj9_-lRUaaLCL4RAK81Q,newborntown,p1599_1509_1860,install,1.5,117.111.13.172,08660fce-05b2-44eb-a3aa-24d56f3cc672,1558511015,2019-05-22 15:43:35,1558511309,2019-05-22 15:48:29,1558511340,1888fe6c-b696-422b-b562-71e20f7052f8__pspm,http://pspm.pingstart.com/api/v4/postback?from=1706&clickid=1888fe6c-b696-422b-b562-71e20f7052f8__pspm,idfa_08660fce-05b2-44eb-a3aa-24d56f3cc672,ko
_fYj9_-lRUaaLCL4RAK81Q,newborntown,p1599_1509_1860,install,1.5,61.109.153.29,d005af67-a74d-4b56-b776-c9e017c1b77d,1558510932,2019-05-22 15:42:12,1558511036,2019-05-22 15:43:56,1558511067,5c2a45b4-b6df-4cce-932e-47c8e92c028e__pspm,http://pspm.pingstart.com/api/v4/postback?from=1706&clickid=5c2a45b4-b6df-4cce-932e-47c8e92c028e__pspm,idfa_d005af67-a74d-4b56-b776-c9e017c1b77d,ru
_fYj9_-lRUaaLCL4RAK81Q,newborntown,p1599_1509_1860,install,1.5,175.223.39.238,d65391dd-c710-4d24-a32b-3dbf04ecb0a8,1559289312,2019-05-31 15:55:12,1559289415,2019-05-31 15:56:55,1559289446,20dc913a-773e-43de-b20d-067bbac77cc5__pspm,http://pspm.pingstart.com/api/v4/postback?from=1706&clickid=20dc913a-773e-43de-b20d-067bbac77cc5__pspm,idfa_d65391dd-c710-4d24-a32b-3dbf04ecb0a8,ko
_fYj9_-lRUaaLCL4RAK81Q,newborntown,p1599_1509_1860,install,1.5,112.145.10.228,ac9a95dd-e7ab-4693-8c4b-2ca0ef1fba7f,1558510998,2019-05-22 15:43:18,1558511103,2019-05-22 15:45:03,1558511134,3f75ae2d-877d-4a5f-9b4d-38aa081e09be__pspm,http://pspm.pingstart.com/api/v4/postback?from=1706&clickid=3f75ae2d-877d-4a5f-9b4d-38aa081e09be__pspm,idfa_ac9a95dd-e7ab-4693-8c4b-2ca0ef1fba7f,ko
_fYj9_-lRUaaLCL4RAK81Q,newborntown,p1599_1509_1860,install,1.5,58.234.139.170,4931a72c-4e1b-40e9-8367-0c8d54e5d882,1559290147,2019-05-31 16:09:07,1559290250,2019-05-31 16:10:50,1559290281,4e7c4f5c-44bc-49a6-83f4-b4ae9bc5d97a__pspm,http://pspm.pingstart.com/api/v4/postback?from=1706&clickid=4e7c4f5c-44bc-49a6-83f4-b4ae9bc5d97a__pspm,idfa_4931a72c-4e1b-40e9-8367-0c8d54e5d882,th
_fYj9_-lRUaaLCL4RAK81Q,newborntown,p1599_1509_1860,install,1.5,222.110.179.101,8337b76b-a4c2-4fc5-aae1-c46c1561631e,1559289709,2019-05-31 16:01:49,1559290011,2019-05-31 16:06:51,1559290042,4131cb05-7350-4b43-8d00-8280b29e21fe__pspm,http://pspm.pingstart.com/api/v4/postback?from=1706&clickid=4131cb05-7350-4b43-8d00-8280b29e21fe__pspm,idfa_8337b76b-a4c2-4fc5-aae1-c46c1561631e,ko
_fYj9_-lRUaaLCL4RAK81Q,newborntown,p1599_1509_1860,install,1.5,106.102.11.103,badd6e50-a4e2-4106-a83f-db32e514e3c0,1558511059,2019-05-22 15:44:19,1558511155,2019-05-22 15:45:55,1558511186,4cfe8ff7-2f9c-4af2-afbc-5b03033eb685__pspm,http://pspm.pingstart.com/api/v4/postback?from=1706&clickid=4cfe8ff7-2f9c-4af2-afbc-5b03033eb685__pspm,idfa_badd6e50-a4e2-4106-a83f-db32e514e3c0,ko
_fYj9_-lRUaaLCL4RAK81Q,newborntown,p1599_1509_1860,install,1.5,223.39.141.93,b8dd77ac-891b-49c6-938e-6d7aa0dfbb5e,1558510940,2019-05-22 15:42:20,1558511042,2019-05-22 15:44:02,1558511073,894f9feb-c060-4a7b-b9ac-f1504a8bc4ad__pspm,http://pspm.pingstart.com/api/v4/postback?from=1706&clickid=894f9feb-c060-4a7b-b9ac-f1504a8bc4ad__pspm,idfa_b8dd77ac-891b-49c6-938e-6d7aa0dfbb5e,ko
_fYj9_-lRUaaLCL4RAK81Q,newborntown,p1599_1509_1860,install,1.5,175.223.34.209,f73ff88b-26ed-41af-a1a8-c14ee7f00f99,1558511135,2019-05-22 15:45:35,1558511391,2019-05-22 15:49:51,1558511422,f86b924f-85cb-4998-aca8-738bd461d757__pspm,http://pspm.pingstart.com/api/v4/postback?from=1706&clickid=f86b924f-85cb-4998-aca8-738bd461d757__pspm,idfa_f73ff88b-26ed-41af-a1a8-c14ee7f00f99,ko
_fYj9_-lRUaaLCL4RAK81Q,newborntown,p1599_1509_1860,install,1.5,124.28.110.144,d9a096c3-07c8-4dac-957a-08e387dd51fc,1558510328,2019-05-22 15:32:08,1558510458,2019-05-22 15:34:18,1558510489,a5ddc360-a1d0-4ab6-b9fe-7564b70c9a48__pspm,http://pspm.pingstart.com/api/v4/postback?from=1706&clickid=a5ddc360-a1d0-4ab6-b9fe-7564b70c9a48__pspm,idfa_d9a096c3-07c8-4dac-957a-08e387dd51fc,ko
_fYj9_-lRUaaLCL4RAK81Q,newborntown,p1599_1509_1860,install,1.5,211.36.140.221,5f989729-4aaa-499d-a99d-ff9565fa7c8a,1558511144,2019-05-22 15:45:44,1558511235,2019-05-22 15:47:15,1558511265,1a9e4ef3-5932-4431-ad16-bcea2b43fe75__pspm,http://pspm.pingstart.com/api/v4/postback?from=1706&clickid=1a9e4ef3-5932-4431-ad16-bcea2b43fe75__pspm,idfa_5f989729-4aaa-499d-a99d-ff9565fa7c8a,ko
_fYj9_-lRUaaLCL4RAK81Q,newborntown,p1599_1509_1860,install,1.5,223.39.139.106,e3b42bca-0f43-4550-b5f9-849db3ab09ca,1558510952,2019-05-22 15:42:32,1558511054,2019-05-22 15:44:14,1558511085,806c4c9e-4f32-4686-ba0d-164e143c25bd__pspm,http://pspm.pingstart.com/api/v4/postback?from=1706&clickid=806c4c9e-4f32-4686-ba0d-164e143c25bd__pspm,idfa_e3b42bca-0f43-4550-b5f9-849db3ab09ca,ko
_fYj9_-lRUaaLCL4RAK81Q,newborntown,p1599_1509_1860,install,1.5,211.213.223.209,1116211f-460f-4108-819f-b91f15968233,1559289458,2019-05-31 15:57:38,1559290073,2019-05-31 16:07:53,1559290105,c29a3183-7e44-491e-80b2-8e58653b9523__pspm,http://pspm.pingstart.com/api/v4/postback?from=1706&clickid=c29a3183-7e44-491e-80b2-8e58653b9523__pspm,idfa_1116211f-460f-4108-819f-b91f15968233,ko
_fYj9_-lRUaaLCL4RAK81Q,newborntown,p1599_1509_1860,install,1.5,223.39.145.174,4b6c204d-6c64-4fc5-bd94-4135c9738d14,1558510392,2019-05-22 15:33:12,1558510490,2019-05-22 15:34:50,1558510521,71d366f1-7b4d-4e15-a987-20e6268ad041__pspm,http://pspm.pingstart.com/api/v4/postback?from=1706&clickid=71d366f1-7b4d-4e15-a987-20e6268ad041__pspm,idfa_4b6c204d-6c64-4fc5-bd94-4135c9738d14,ko
_fYj9_-lRUaaLCL4RAK81Q,newborntown,p1599_1509_1860,install,1.5,117.111.5.220,49d11508-a11a-40df-af27-4f9ebf5f3e46,1558510874,2019-05-22 15:41:14,1558510981,2019-05-22 15:43:01,1558511011,1d223290-d4d3-453a-af9d-8916385d6e1a__pspm,http://pspm.pingstart.com/api/v4/postback?from=1706&clickid=1d223290-d4d3-453a-af9d-8916385d6e1a__pspm,idfa_49d11508-a11a-40df-af27-4f9ebf5f3e46,ko
_fYj9_-lRUaaLCL4RAK81Q,newborntown,p1599_1509_1860,install,1.5,223.62.162.129,bd9957a9-6489-4a8c-aabf-bc2d86e3fe14,1558510879,2019-05-22 15:41:19,1558510985,2019-05-22 15:43:05,1558511016,64150e1f-c283-46ce-a6ba-9d34d8e4d521__pspm,http://pspm.pingstart.com/api/v4/postback?from=1706&clickid=64150e1f-c283-46ce-a6ba-9d34d8e4d521__pspm,idfa_bd9957a9-6489-4a8c-aabf-bc2d86e3fe14,ko
