cid,partner_id,channel_id,action_id,cpi,ip,idfa,click time,click datetime,install time,install datetime,postback time,click id,postback url,unique user id
ZcR52VwISG-A2GmMOYx34Q,newborntown,p1599_1018_103107_2148,Install,0.9,45.64.241.184,65EB3749-EFF5-4EE3-8834-8C90D528D9A2,1557234796,2019-05-07 21:13:16,1557278442,2019-05-08 09:20:42,1557278472,a0badfa9-6e18-464b-b440-885603788bcc__pspm,http://pspm.pingstart.com/api/v4/postback?from=1706&clickid=a0badfa9-6e18-464b-b440-885603788bcc__pspm,idfa_65EB3749-EFF5-4EE3-8834-8C90D528D9A2,zh
ZcR52VwISG-A2GmMOYx34Q,newborntown,p1599_1018_103107_3679,Install,0.9,183.179.132.148,2E29E81F-8A45-47B3-B15A-1780BDED632F,1557804343,2019-05-14 11:25:43,1557850920,2019-05-15 00:22:00,1557850950,f358f6c2-86cb-4db8-a33b-ceeda01ce686__pspm,http://pspm.pingstart.com/api/v4/postback?from=1706&clickid=f358f6c2-86cb-4db8-a33b-ceeda01ce686__pspm,idfa_2E29E81F-8A45-47B3-B15A-1780BDED632F,zh
ZcR52VwISG-A2GmMOYx34Q,newborntown,p1599_1018_103107_12266452,Install,0.9,14.198.29.228,1AF35D4F-F568-4F8C-9FD8-761E640B6D91,1557364382,2019-05-09 09:13:02,1557705482,2019-05-13 07:58:02,1557705512,ff361a47-8004-4d38-b07a-d06a01d95500__pspm,http://pspm.pingstart.com/api/v4/postback?from=1706&clickid=ff361a47-8004-4d38-b07a-d06a01d95500__pspm,idfa_1AF35D4F-F568-4F8C-9FD8-761E640B6D91,zh
