cid,partner_id,channel_id,action_id,cpi,ip,idfa,click time,click datetime,install time,install datetime,postback time,click id,postback url,unique user id
HZ_2jLVATgWioAQNYUiXdw,newborntown,p1789}_870-10526870,Install,0.8,14.5.161.57,eca40835-e5b4-4d52-97c8-74b97d3d76d5,1558845665,2019-05-26 12:41:05,1558845786,2019-05-26 12:43:06,1558845818,51e6abfb-52be-494b-b558-2bc09dd76b2a__pspm,http://pspm.pingstart.com/api/v4/postback?from=1706&clickid=51e6abfb-52be-494b-b558-2bc09dd76b2a__pspm,idfa_eca40835-e5b4-4d52-97c8-74b97d3d76d5,%ED%95%9C%EA%B5%AD%EC%96%B4
HZ_2jLVATgWioAQNYUiXdw,newborntown,p1789}_870-10526870,Install,0.8,58.140.225.63,a79aea46-95ec-4486-a517-d5c6f644bd59,1558845664,2019-05-26 12:41:04,1558845849,2019-05-26 12:44:09,1558845879,5b876d9f-e2b2-447e-903d-e69e01288ed1__pspm,http://pspm.pingstart.com/api/v4/postback?from=1706&clickid=5b876d9f-e2b2-447e-903d-e69e01288ed1__pspm,idfa_a79aea46-95ec-4486-a517-d5c6f644bd59,%ED%95%9C%EA%B5%AD%EC%96%B4
HZ_2jLVATgWioAQNYUiXdw,newborntown,p1789}_870-10526870,Install,0.8,39.7.59.198,4c8c57fb-3e99-49b6-b4a4-38366690ea80,1558845721,2019-05-26 12:42:01,1558845837,2019-05-26 12:43:57,1558845869,2f80c912-0d60-4424-a020-8a3a5f9f0605__pspm,http://pspm.pingstart.com/api/v4/postback?from=1706&clickid=2f80c912-0d60-4424-a020-8a3a5f9f0605__pspm,idfa_4c8c57fb-3e99-49b6-b4a4-38366690ea80,%ED%95%9C%EA%B5%AD%EC%96%B4
HZ_2jLVATgWioAQNYUiXdw,newborntown,p1789}_870-10526870,Install,0.8,211.36.146.81,65af45fa-a671-4f8d-aeb1-81d93751e721,1558845903,2019-05-26 12:45:03,1558846147,2019-05-26 12:49:07,1558846180,f7bc287f-0eeb-4e8e-9b5e-0655f13a9166__pspm,http://pspm.pingstart.com/api/v4/postback?from=1706&clickid=f7bc287f-0eeb-4e8e-9b5e-0655f13a9166__pspm,idfa_65af45fa-a671-4f8d-aeb1-81d93751e721,%ED%95%9C%EA%B5%AD%EC%96%B4
HZ_2jLVATgWioAQNYUiXdw,newborntown,p1789}_870-10526870,Install,0.8,175.223.37.15,4260511e-f387-4187-a315-71e0b6e72709,1558845536,2019-05-26 12:38:56,1558845651,2019-05-26 12:40:51,1558845682,84aa5229-53f0-4c0e-b739-00275a82658c__pspm,http://pspm.pingstart.com/api/v4/postback?from=1706&clickid=84aa5229-53f0-4c0e-b739-00275a82658c__pspm,idfa_4260511e-f387-4187-a315-71e0b6e72709,%ED%95%9C%EA%B5%AD%EC%96%B4
HZ_2jLVATgWioAQNYUiXdw,newborntown,p1789}_870-10526870,Install,0.8,122.34.13.155,cc08411f-1b42-4d54-bc5d-5efd07857d84,1558845543,2019-05-26 12:39:03,1558845701,2019-05-26 12:41:41,1558845732,e78a4d0f-7345-4484-a65b-1cb095c79798__pspm,http://pspm.pingstart.com/api/v4/postback?from=1706&clickid=e78a4d0f-7345-4484-a65b-1cb095c79798__pspm,idfa_cc08411f-1b42-4d54-bc5d-5efd07857d84,%ED%95%9C%EA%B5%AD%EC%96%B4
HZ_2jLVATgWioAQNYUiXdw,newborntown,p1789}_870-10526870,Install,0.8,211.205.241.195,0428461b-bff7-496d-ba67-79dff2d39254,1558845784,2019-05-26 12:43:04,1558845898,2019-05-26 12:44:58,1558845929,d4e406a9-cb88-4977-8927-252c9d9cd1d3__pspm,http://pspm.pingstart.com/api/v4/postback?from=1706&clickid=d4e406a9-cb88-4977-8927-252c9d9cd1d3__pspm,idfa_0428461b-bff7-496d-ba67-79dff2d39254,%ED%95%9C%EA%B5%AD%EC%96%B4
HZ_2jLVATgWioAQNYUiXdw,newborntown,p1789}_870-10526870,Install,0.8,1.243.118.65,a466a3c8-cd3e-4c47-b128-69b54ef143d9,1558842355,2019-05-26 11:45:55,1558842469,2019-05-26 11:47:49,1558842501,cbed29fb-624a-40c3-afdc-5148755fb23f__pspm,http://pspm.pingstart.com/api/v4/postback?from=1706&clickid=cbed29fb-624a-40c3-afdc-5148755fb23f__pspm,idfa_a466a3c8-cd3e-4c47-b128-69b54ef143d9,%ED%95%9C%EA%B5%AD%EC%96%B4
HZ_2jLVATgWioAQNYUiXdw,newborntown,p1789}_870-10526870,Install,0.8,122.42.94.22,db8fd1ae-d861-4c6b-96cb-1991a7b8de0d,1558845607,2019-05-26 12:40:07,1558845725,2019-05-26 12:42:05,1558845755,e8e4ccc6-6a76-4502-86c2-716857f9484f__pspm,http://pspm.pingstart.com/api/v4/postback?from=1706&clickid=e8e4ccc6-6a76-4502-86c2-716857f9484f__pspm,idfa_db8fd1ae-d861-4c6b-96cb-1991a7b8de0d,%ED%95%9C%EA%B5%AD%EC%96%B4
HZ_2jLVATgWioAQNYUiXdw,newborntown,p1789}_870-10526870,Install,0.8,117.20.85.27,7f148a61-54cf-4dcc-ba87-1a2ed0ecfe54,1558845907,2019-05-26 12:45:07,1558846024,2019-05-26 12:47:04,1558846055,2baf3a8a-f652-453d-9fb5-405f7831cb7e__pspm,http://pspm.pingstart.com/api/v4/postback?from=1706&clickid=2baf3a8a-f652-453d-9fb5-405f7831cb7e__pspm,idfa_7f148a61-54cf-4dcc-ba87-1a2ed0ecfe54,%ED%95%9C%EA%B5%AD%EC%96%B4
HZ_2jLVATgWioAQNYUiXdw,newborntown,p1789}_870-10526870,Install,0.8,124.199.225.128,2100c4c0-8286-46c6-80fe-c68b1970a24d,1558845956,2019-05-26 12:45:56,1558846189,2019-05-26 12:49:49,1558846220,b91e8659-dc0a-4b62-9cdc-2f9754cb4208__pspm,http://pspm.pingstart.com/api/v4/postback?from=1706&clickid=b91e8659-dc0a-4b62-9cdc-2f9754cb4208__pspm,idfa_2100c4c0-8286-46c6-80fe-c68b1970a24d,%ED%95%9C%EA%B5%AD%EC%96%B4
HZ_2jLVATgWioAQNYUiXdw,newborntown,p1789}_870-10526870,Install,0.8,116.126.16.223,24d198ee-7a9f-4726-a067-d63ebf80b5f2,1558845538,2019-05-26 12:38:58,1558845655,2019-05-26 12:40:55,1558845686,11c0000d-cd8f-437e-9776-ab0cf1576cb6__pspm,http://pspm.pingstart.com/api/v4/postback?from=1706&clickid=11c0000d-cd8f-437e-9776-ab0cf1576cb6__pspm,idfa_24d198ee-7a9f-4726-a067-d63ebf80b5f2,%ED%95%9C%EA%B5%AD%EC%96%B4
HZ_2jLVATgWioAQNYUiXdw,newborntown,p1789}_870-10526870,Install,0.8,223.62.213.185,511c9bf9-2197-4dd5-a15d-0ea59fcc2127,1558845654,2019-05-26 12:40:54,1558845773,2019-05-26 12:42:53,1558845804,9c7eb1d8-afb0-4d12-9d74-0353f3d9ab9f__pspm,http://pspm.pingstart.com/api/v4/postback?from=1706&clickid=9c7eb1d8-afb0-4d12-9d74-0353f3d9ab9f__pspm,idfa_511c9bf9-2197-4dd5-a15d-0ea59fcc2127,%ED%95%9C%EA%B5%AD%EC%96%B4
HZ_2jLVATgWioAQNYUiXdw,newborntown,p1789}_870-10526870,Install,0.8,113.199.110.16,03a2b405-7368-40f9-88d1-5797c5c36a4d,1558845855,2019-05-26 12:44:15,1558846246,2019-05-26 12:50:46,1558846278,3a9e476c-ec3e-4be0-8ca0-3992cacd44ee__pspm,http://pspm.pingstart.com/api/v4/postback?from=1706&clickid=3a9e476c-ec3e-4be0-8ca0-3992cacd44ee__pspm,idfa_03a2b405-7368-40f9-88d1-5797c5c36a4d,%ED%95%9C%EA%B5%AD%EC%96%B4
HZ_2jLVATgWioAQNYUiXdw,newborntown,p1789}_870-10526870,Install,0.8,59.13.147.155,abf8562f-cd88-48b4-b048-849b2884fdb3,1558845532,2019-05-26 12:38:52,1558845647,2019-05-26 12:40:47,1558845677,c734f438-bb9f-4e31-a0ef-0f7e8297cfc7__pspm,http://pspm.pingstart.com/api/v4/postback?from=1706&clickid=c734f438-bb9f-4e31-a0ef-0f7e8297cfc7__pspm,idfa_abf8562f-cd88-48b4-b048-849b2884fdb3,%ED%95%9C%EA%B5%AD%EC%96%B4
HZ_2jLVATgWioAQNYUiXdw,newborntown,p1789}_870-10526870,Install,0.8,175.223.39.107,7a2e561d-e351-4f1e-a01e-eeddcb804ce0,1558845485,2019-05-26 12:38:05,1558845601,2019-05-26 12:40:01,1558845632,5b798cd3-26a8-4de0-84da-f753360f8e0f__pspm,http://pspm.pingstart.com/api/v4/postback?from=1706&clickid=5b798cd3-26a8-4de0-84da-f753360f8e0f__pspm,idfa_7a2e561d-e351-4f1e-a01e-eeddcb804ce0,%ED%95%9C%EA%B5%AD%EC%96%B4
HZ_2jLVATgWioAQNYUiXdw,newborntown,p1789}_870-10526870,Install,0.8,117.111.2.246,5f31212c-3fff-4460-a74f-3ea525a62dfc,1558845663,2019-05-26 12:41:03,1558845782,2019-05-26 12:43:02,1558845813,b90ef8bf-beac-4ffa-91f8-7cd05855d81b__pspm,http://pspm.pingstart.com/api/v4/postback?from=1706&clickid=b90ef8bf-beac-4ffa-91f8-7cd05855d81b__pspm,idfa_5f31212c-3fff-4460-a74f-3ea525a62dfc,%ED%95%9C%EA%B5%AD%EC%96%B4
HZ_2jLVATgWioAQNYUiXdw,newborntown,p1789}_870-10526870,Install,0.8,121.143.22.107,bc76baac-6963-432c-9163-f21b41a2ef2c,1558842832,2019-05-26 11:53:52,1558842944,2019-05-26 11:55:44,1558842976,04bf1503-ead7-4d18-a87e-791ed275218e__pspm,http://pspm.pingstart.com/api/v4/postback?from=1706&clickid=04bf1503-ead7-4d18-a87e-791ed275218e__pspm,idfa_bc76baac-6963-432c-9163-f21b41a2ef2c,%ED%95%9C%EA%B5%AD%EC%96%B4
HZ_2jLVATgWioAQNYUiXdw,newborntown,p1789}_870-10526870,Install,0.8,175.118.105.241,c0db708f-e71c-4a89-ab61-03f00d872fee,1558841819,2019-05-26 11:36:59,1558841950,2019-05-26 11:39:10,1558841981,12a229be-ce7d-4b78-88c6-b0993a1654fa__pspm,http://pspm.pingstart.com/api/v4/postback?from=1706&clickid=12a229be-ce7d-4b78-88c6-b0993a1654fa__pspm,idfa_c0db708f-e71c-4a89-ab61-03f00d872fee,%ED%95%9C%EA%B5%AD%EC%96%B4
HZ_2jLVATgWioAQNYUiXdw,newborntown,p1789}_870-10526870,Install,0.8,223.62.188.214,2099e896-3ecc-4811-a7e0-aff00185215c,1558845891,2019-05-26 12:44:51,1558846079,2019-05-26 12:47:59,1558846110,48f04c95-c7ee-4b73-b8f1-235b05d71621__pspm,http://pspm.pingstart.com/api/v4/postback?from=1706&clickid=48f04c95-c7ee-4b73-b8f1-235b05d71621__pspm,idfa_2099e896-3ecc-4811-a7e0-aff00185215c,%ED%95%9C%EA%B5%AD%EC%96%B4
HZ_2jLVATgWioAQNYUiXdw,newborntown,p1789}_870-10526870,Install,0.8,182.214.201.187,8b78d429-7a3e-4882-921e-7c5e7bb6ffba,1558845722,2019-05-26 12:42:02,1558845839,2019-05-26 12:43:59,1558845870,15178d18-c0e7-4fe5-94ba-f1a9efb1c288__pspm,http://pspm.pingstart.com/api/v4/postback?from=1706&clickid=15178d18-c0e7-4fe5-94ba-f1a9efb1c288__pspm,idfa_8b78d429-7a3e-4882-921e-7c5e7bb6ffba,%ED%95%9C%EA%B5%AD%EC%96%B4
HZ_2jLVATgWioAQNYUiXdw,newborntown,p1789}_870-10526870,Install,0.8,121.149.145.205,b82bde04-6b19-4370-9746-4ea13421711f,1558845177,2019-05-26 12:32:57,1558845290,2019-05-26 12:34:50,1558845321,60a2d14a-6808-4895-9957-5aebef32b83b__pspm,http://pspm.pingstart.com/api/v4/postback?from=1706&clickid=60a2d14a-6808-4895-9957-5aebef32b83b__pspm,idfa_b82bde04-6b19-4370-9746-4ea13421711f,%ED%95%9C%EA%B5%AD%EC%96%B4
HZ_2jLVATgWioAQNYUiXdw,newborntown,p1789}_870-10526870,Install,0.8,115.137.123.56,401dcb7d-fac6-415e-b4a3-9781c31eb235,1558843298,2019-05-26 12:01:38,1558843417,2019-05-26 12:03:37,1558843448,26f7c53c-5ccd-4188-bba6-b38c29468ee0__pspm,http://pspm.pingstart.com/api/v4/postback?from=1706&clickid=26f7c53c-5ccd-4188-bba6-b38c29468ee0__pspm,idfa_401dcb7d-fac6-415e-b4a3-9781c31eb235,%ED%95%9C%EA%B5%AD%EC%96%B4
HZ_2jLVATgWioAQNYUiXdw,newborntown,p1789}_870-10526870,Install,0.8,223.38.35.237,e9d11b9d-006e-435c-8608-175abac4626f,1558845898,2019-05-26 12:44:58,1558846009,2019-05-26 12:46:49,1558846041,e1ade07a-c7bc-45fe-a214-e8bd99cb7c36__pspm,http://pspm.pingstart.com/api/v4/postback?from=1706&clickid=e1ade07a-c7bc-45fe-a214-e8bd99cb7c36__pspm,idfa_e9d11b9d-006e-435c-8608-175abac4626f,%ED%95%9C%EA%B5%AD%EC%96%B4
HZ_2jLVATgWioAQNYUiXdw,newborntown,p1789}_870-10526870,Install,0.8,218.144.153.244,fdeed3e2-aba3-4dfa-9e9f-eb1a2369389e,1558845728,2019-05-26 12:42:08,1558845848,2019-05-26 12:44:08,1558845879,d6fb9dd9-27c5-4b47-8bd8-b4d31c776d86__pspm,http://pspm.pingstart.com/api/v4/postback?from=1706&clickid=d6fb9dd9-27c5-4b47-8bd8-b4d31c776d86__pspm,idfa_fdeed3e2-aba3-4dfa-9e9f-eb1a2369389e,%ED%95%9C%EA%B5%AD%EC%96%B4
HZ_2jLVATgWioAQNYUiXdw,newborntown,p1789}_870-10526870,Install,0.8,175.223.22.234,a1e19998-08e7-4e70-8a5b-686221c3db4c,1558845427,2019-05-26 12:37:07,1558845543,2019-05-26 12:39:03,1558845574,d330d1ee-c742-4191-b30d-a6104c6ad07e__pspm,http://pspm.pingstart.com/api/v4/postback?from=1706&clickid=d330d1ee-c742-4191-b30d-a6104c6ad07e__pspm,idfa_a1e19998-08e7-4e70-8a5b-686221c3db4c,%ED%95%9C%EA%B5%AD%EC%96%B4
HZ_2jLVATgWioAQNYUiXdw,newborntown,p1789}_870-10526870,Install,0.8,115.138.2.97,40b88c60-2036-461e-9cc5-6b6d933c5c4c,1558845779,2019-05-26 12:42:59,1558845900,2019-05-26 12:45:00,1558845933,373f0fb8-43b4-4d75-ac6e-51149a87ac13__pspm,http://pspm.pingstart.com/api/v4/postback?from=1706&clickid=373f0fb8-43b4-4d75-ac6e-51149a87ac13__pspm,idfa_40b88c60-2036-461e-9cc5-6b6d933c5c4c,%ED%95%9C%EA%B5%AD%EC%96%B4
HZ_2jLVATgWioAQNYUiXdw,newborntown,p1789}_870-10526870,Install,0.8,1.241.129.228,ad5ef7aa-34d5-4ee3-9891-6433641254ad,1558845650,2019-05-26 12:40:50,1558845765,2019-05-26 12:42:45,1558845796,44ec1071-0aa9-40ba-a221-51044ffc3176__pspm,http://pspm.pingstart.com/api/v4/postback?from=1706&clickid=44ec1071-0aa9-40ba-a221-51044ffc3176__pspm,idfa_ad5ef7aa-34d5-4ee3-9891-6433641254ad,%ED%95%9C%EA%B5%AD%EC%96%B4
HZ_2jLVATgWioAQNYUiXdw,newborntown,p1789}_870-10526870,Install,0.8,218.147.198.105,0cca46bc-68a1-47f6-94f9-0306971b46fb,1558845775,2019-05-26 12:42:55,1558846039,2019-05-26 12:47:19,1558846071,5302078e-6382-4602-9c7e-79ef8183b874__pspm,http://pspm.pingstart.com/api/v4/postback?from=1706&clickid=5302078e-6382-4602-9c7e-79ef8183b874__pspm,idfa_0cca46bc-68a1-47f6-94f9-0306971b46fb,%ED%95%9C%EA%B5%AD%EC%96%B4
HZ_2jLVATgWioAQNYUiXdw,newborntown,p1789}_870-10526870,Install,0.8,223.38.10.138,bf2b69ae-03cc-4616-b7e0-3996abb2fb76,1558843132,2019-05-26 11:58:52,1558843251,2019-05-26 12:00:51,1558843283,bfc40805-e6ac-4880-9119-3803774edeb4__pspm,http://pspm.pingstart.com/api/v4/postback?from=1706&clickid=bfc40805-e6ac-4880-9119-3803774edeb4__pspm,idfa_bf2b69ae-03cc-4616-b7e0-3996abb2fb76,%ED%95%9C%EA%B5%AD%EC%96%B4
HZ_2jLVATgWioAQNYUiXdw,newborntown,p1789}_870-10526870,Install,0.8,219.249.50.10,6e66858e-8ae8-4e3e-952a-bd783e45e768,1558846148,2019-05-26 12:49:08,1558846265,2019-05-26 12:51:05,1558846296,268711c2-441b-470f-bc75-a308d275b476__pspm,http://pspm.pingstart.com/api/v4/postback?from=1706&clickid=268711c2-441b-470f-bc75-a308d275b476__pspm,idfa_6e66858e-8ae8-4e3e-952a-bd783e45e768,%ED%95%9C%EA%B5%AD%EC%96%B4
HZ_2jLVATgWioAQNYUiXdw,newborntown,p1789}_870-10526870,Install,0.8,39.7.28.28,5aafd0a8-fb74-4349-a269-a517911b11af,1558845790,2019-05-26 12:43:10,1558845917,2019-05-26 12:45:17,1558845948,dc35e18b-cb5a-41b8-aadb-34492a6d2dd9__pspm,http://pspm.pingstart.com/api/v4/postback?from=1706&clickid=dc35e18b-cb5a-41b8-aadb-34492a6d2dd9__pspm,idfa_5aafd0a8-fb74-4349-a269-a517911b11af,%ED%95%9C%EA%B5%AD%EC%96%B4
HZ_2jLVATgWioAQNYUiXdw,newborntown,p1789}_870-10526870,Install,0.8,121.53.54.199,15b86efa-74c1-4613-986a-93f0213314b8,1558845778,2019-05-26 12:42:58,1558845891,2019-05-26 12:44:51,1558845924,97640538-00e8-4591-bf4a-ce739243173a__pspm,http://pspm.pingstart.com/api/v4/postback?from=1706&clickid=97640538-00e8-4591-bf4a-ce739243173a__pspm,idfa_15b86efa-74c1-4613-986a-93f0213314b8,%ED%95%9C%EA%B5%AD%EC%96%B4
HZ_2jLVATgWioAQNYUiXdw,newborntown,p1789}_870-10526870,Install,0.8,49.175.123.195,95562164-d4d7-4af2-a929-9b2467ed9552,1558845958,2019-05-26 12:45:58,1558846080,2019-05-26 12:48:00,1558846111,247db0f0-8429-4d0b-a892-2d51e3e81442__pspm,http://pspm.pingstart.com/api/v4/postback?from=1706&clickid=247db0f0-8429-4d0b-a892-2d51e3e81442__pspm,idfa_95562164-d4d7-4af2-a929-9b2467ed9552,%ED%95%9C%EA%B5%AD%EC%96%B4
HZ_2jLVATgWioAQNYUiXdw,newborntown,p1789}_870-10526870,Install,0.8,220.90.1.112,9379651d-16db-42bd-b4b0-d2cd2ec542e1,1558845904,2019-05-26 12:45:04,1558846024,2019-05-26 12:47:04,1558846055,6e793298-085d-47ad-8824-570dadff1bf2__pspm,http://pspm.pingstart.com/api/v4/postback?from=1706&clickid=6e793298-085d-47ad-8824-570dadff1bf2__pspm,idfa_9379651d-16db-42bd-b4b0-d2cd2ec542e1,%ED%95%9C%EA%B5%AD%EC%96%B4
HZ_2jLVATgWioAQNYUiXdw,newborntown,p1789}_870-10526870,Install,0.8,121.168.28.236,6b0b1983-8217-43b5-9e83-2fdf4d117fb1,1558845233,2019-05-26 12:33:53,1558845349,2019-05-26 12:35:49,1558845380,858de8c8-f9a6-48f8-9788-75d6ed2b8511__pspm,http://pspm.pingstart.com/api/v4/postback?from=1706&clickid=858de8c8-f9a6-48f8-9788-75d6ed2b8511__pspm,idfa_6b0b1983-8217-43b5-9e83-2fdf4d117fb1,%ED%95%9C%EA%B5%AD%EC%96%B4
HZ_2jLVATgWioAQNYUiXdw,newborntown,p1789}_870-10526870,Install,0.8,121.134.32.99,2b277360-eabb-4a96-ad22-d8f79a577e0c,1558845599,2019-05-26 12:39:59,1558845729,2019-05-26 12:42:09,1558845760,66153ee0-38a7-4ec0-a135-c5eface89bcb__pspm,http://pspm.pingstart.com/api/v4/postback?from=1706&clickid=66153ee0-38a7-4ec0-a135-c5eface89bcb__pspm,idfa_2b277360-eabb-4a96-ad22-d8f79a577e0c,%ED%95%9C%EA%B5%AD%EC%96%B4
HZ_2jLVATgWioAQNYUiXdw,newborntown,p1789}_870-10526870,Install,0.8,121.180.80.122,87fe9ec5-15c6-4949-b962-de3736064bfc,1558845424,2019-05-26 12:37:04,1558845549,2019-05-26 12:39:09,1558845581,7f395705-0f31-4e8d-b6fe-bffc3e34daf5__pspm,http://pspm.pingstart.com/api/v4/postback?from=1706&clickid=7f395705-0f31-4e8d-b6fe-bffc3e34daf5__pspm,idfa_87fe9ec5-15c6-4949-b962-de3736064bfc,%ED%95%9C%EA%B5%AD%EC%96%B4
HZ_2jLVATgWioAQNYUiXdw,newborntown,p1789}_870-10526870,Install,0.8,123.109.112.119,63d2fada-4650-4145-b78d-5fd9833e2e75,1558845842,2019-05-26 12:44:02,1558845954,2019-05-26 12:45:54,1558845986,b6fc8a7c-78c9-4946-a3a7-8d4d8c2c36b6__pspm,http://pspm.pingstart.com/api/v4/postback?from=1706&clickid=b6fc8a7c-78c9-4946-a3a7-8d4d8c2c36b6__pspm,idfa_63d2fada-4650-4145-b78d-5fd9833e2e75,%ED%95%9C%EA%B5%AD%EC%96%B4
HZ_2jLVATgWioAQNYUiXdw,newborntown,p1789}_870-10526870,Install,0.8,1.224.7.173,ff64b208-e2d5-4259-be76-8a1ef56fd9e8,1558845908,2019-05-26 12:45:08,1558846029,2019-05-26 12:47:09,1558846059,2ce2e97b-6c4c-4886-a255-b1c9ed5a6f54__pspm,http://pspm.pingstart.com/api/v4/postback?from=1706&clickid=2ce2e97b-6c4c-4886-a255-b1c9ed5a6f54__pspm,idfa_ff64b208-e2d5-4259-be76-8a1ef56fd9e8,%ED%95%9C%EA%B5%AD%EC%96%B4
HZ_2jLVATgWioAQNYUiXdw,newborntown,p1789}_870-10526870,Install,0.8,123.200.98.191,76e7e87d-f49f-4b37-9cf6-fda1f0cb9941,1558845727,2019-05-26 12:42:07,1558845844,2019-05-26 12:44:04,1558845877,41494581-f262-4752-837e-088f3ed3d1ad__pspm,http://pspm.pingstart.com/api/v4/postback?from=1706&clickid=41494581-f262-4752-837e-088f3ed3d1ad__pspm,idfa_76e7e87d-f49f-4b37-9cf6-fda1f0cb9941,%ED%95%9C%EA%B5%AD%EC%96%B4
HZ_2jLVATgWioAQNYUiXdw,newborntown,p1789}_870-10526870,Install,0.8,223.62.212.56,f3bbc59b-e52e-4b8a-b996-d062b47e7738,1558845909,2019-05-26 12:45:09,1558846026,2019-05-26 12:47:06,1558846057,5ecdaea0-c4dc-457d-b6cc-658f027e352d__pspm,http://pspm.pingstart.com/api/v4/postback?from=1706&clickid=5ecdaea0-c4dc-457d-b6cc-658f027e352d__pspm,idfa_f3bbc59b-e52e-4b8a-b996-d062b47e7738,%ED%95%9C%EA%B5%AD%EC%96%B4
HZ_2jLVATgWioAQNYUiXdw,newborntown,p1789}_870-10526870,Install,0.8,223.62.222.85,d5766598-1db8-4691-bbbb-b77327190f92,1558845790,2019-05-26 12:43:10,1558845904,2019-05-26 12:45:04,1558845935,df4da263-c5ec-4201-b0c8-b0466311653e__pspm,http://pspm.pingstart.com/api/v4/postback?from=1706&clickid=df4da263-c5ec-4201-b0c8-b0466311653e__pspm,idfa_d5766598-1db8-4691-bbbb-b77327190f92,%ED%95%9C%EA%B5%AD%EC%96%B4
HZ_2jLVATgWioAQNYUiXdw,newborntown,p1789}_870-10526870,Install,0.8,121.177.97.146,cf633a71-4bdf-4b46-9b74-37425fd6ebaf,1558844697,2019-05-26 12:24:57,1558844816,2019-05-26 12:26:56,1558844846,d7bb4389-0526-4993-951a-7d8737f6e235__pspm,http://pspm.pingstart.com/api/v4/postback?from=1706&clickid=d7bb4389-0526-4993-951a-7d8737f6e235__pspm,idfa_cf633a71-4bdf-4b46-9b74-37425fd6ebaf,%ED%95%9C%EA%B5%AD%EC%96%B4
HZ_2jLVATgWioAQNYUiXdw,newborntown,p1789}_870-10526870,Install,0.8,175.203.117.237,7cf6d226-de60-4dbb-950a-ab04c57ca1f8,1558845964,2019-05-26 12:46:04,1558846083,2019-05-26 12:48:03,1558846115,fb779014-fc63-4443-848f-a22bcbef1706__pspm,http://pspm.pingstart.com/api/v4/postback?from=1706&clickid=fb779014-fc63-4443-848f-a22bcbef1706__pspm,idfa_7cf6d226-de60-4dbb-950a-ab04c57ca1f8,%ED%95%9C%EA%B5%AD%EC%96%B4
HZ_2jLVATgWioAQNYUiXdw,newborntown,p1789}_870-10526870,Install,0.8,121.175.36.240,bf99250b-8017-45c7-bf51-3a9f75364b02,1558845828,2019-05-26 12:43:48,1558846028,2019-05-26 12:47:08,1558846058,b25d40ef-ed52-47e6-8e05-974b7fb29242__pspm,http://pspm.pingstart.com/api/v4/postback?from=1706&clickid=b25d40ef-ed52-47e6-8e05-974b7fb29242__pspm,idfa_bf99250b-8017-45c7-bf51-3a9f75364b02,%ED%95%9C%EA%B5%AD%EC%96%B4
HZ_2jLVATgWioAQNYUiXdw,newborntown,p1789}_870-10526870,Install,0.8,121.152.194.87,d8c6f831-8b9b-4ff2-9289-8dd46f29dc88,1558845474,2019-05-26 12:37:54,1558845589,2019-05-26 12:39:49,1558845620,10a22a51-87ee-4f2d-a117-273ae4cfaff8__pspm,http://pspm.pingstart.com/api/v4/postback?from=1706&clickid=10a22a51-87ee-4f2d-a117-273ae4cfaff8__pspm,idfa_d8c6f831-8b9b-4ff2-9289-8dd46f29dc88,%ED%95%9C%EA%B5%AD%EC%96%B4
HZ_2jLVATgWioAQNYUiXdw,newborntown,p1789}_870-10526870,Install,0.8,1.218.167.83,166def6c-106e-44c9-a5e3-5a6d7468ff5b,1558845484,2019-05-26 12:38:04,1558845603,2019-05-26 12:40:03,1558845635,6cfba983-6cc8-4ede-a6f7-e10ccbd40f5b__pspm,http://pspm.pingstart.com/api/v4/postback?from=1706&clickid=6cfba983-6cc8-4ede-a6f7-e10ccbd40f5b__pspm,idfa_166def6c-106e-44c9-a5e3-5a6d7468ff5b,%ED%95%9C%EA%B5%AD%EC%96%B4
HZ_2jLVATgWioAQNYUiXdw,newborntown,p1789}_870-10526870,Install,0.8,106.251.141.195,9bef8a69-e9d0-49bb-80d9-a1efe164352a,1558845783,2019-05-26 12:43:03,1558846050,2019-05-26 12:47:30,1558846081,f91a8811-610c-45f3-96de-df5c80bc2d07__pspm,http://pspm.pingstart.com/api/v4/postback?from=1706&clickid=f91a8811-610c-45f3-96de-df5c80bc2d07__pspm,idfa_9bef8a69-e9d0-49bb-80d9-a1efe164352a,%ED%95%9C%EA%B5%AD%EC%96%B4
HZ_2jLVATgWioAQNYUiXdw,newborntown,p1789}_870-10526870,Install,0.8,211.203.12.246,188738aa-75eb-4bfb-a393-9f5a5a26a454,1558844079,2019-05-26 12:14:39,1558844372,2019-05-26 12:19:32,1558844403,1bd42df9-9667-4fa7-ab51-1592f197ee06__pspm,http://pspm.pingstart.com/api/v4/postback?from=1706&clickid=1bd42df9-9667-4fa7-ab51-1592f197ee06__pspm,idfa_188738aa-75eb-4bfb-a393-9f5a5a26a454,%ED%95%9C%EA%B5%AD%EC%96%B4
