cid,partner_id,channel_id,action_id,cpi,ip,idfa,click time,click datetime,install time,install datetime,postback time,click id,postback url,unique user id
fFyIZUR_Sl6dJIb48QkOAA,newborntown,p1599_1085_179_54330571,Install,2.5,114.41.242.164,D6395B6E-27AC-4AB4-B79C-63D7966B68BC,1557222438,2019-05-07 17:47:18,1557222484,2019-05-07 17:48:04,1557222515,c3d72a0c-1245-4c31-b330-55f5623f4a83__pspm,http://pspm.pingstart.com/api/v4/postback?from=1706&clickid=c3d72a0c-1245-4c31-b330-55f5623f4a83__pspm,idfa_D6395B6E-27AC-4AB4-B79C-63D7966B68BC,zh-Hant-TW
fFyIZUR_Sl6dJIb48QkOAA,newborntown,p1599_1085_179_54330571,Install,2.5,61.62.73.12,B7A99163-9FCC-46C0-B853-F8010EC67BD3,1557223428,2019-05-07 18:03:48,1557223461,2019-05-07 18:04:21,1557223493,dff51785-97e9-43f5-b52f-2a1502f71a1d__pspm,http://pspm.pingstart.com/api/v4/postback?from=1706&clickid=dff51785-97e9-43f5-b52f-2a1502f71a1d__pspm,idfa_B7A99163-9FCC-46C0-B853-F8010EC67BD3,zh-Hant-TW
fFyIZUR_Sl6dJIb48QkOAA,newborntown,p1599_1085_179_54330571,Install,2.5,111.243.218.104,64FBE630-B22D-4B68-8CFA-69EF875782E2,1557224091,2019-05-07 18:14:51,1557224124,2019-05-07 18:15:24,1557224154,806c2327-cdc3-491a-9a21-9174ca8cb1df__pspm,http://pspm.pingstart.com/api/v4/postback?from=1706&clickid=806c2327-cdc3-491a-9a21-9174ca8cb1df__pspm,idfa_64FBE630-B22D-4B68-8CFA-69EF875782E2,zh-Hant-TW
fFyIZUR_Sl6dJIb48QkOAA,newborntown,p1599_1085_179_54330571,Install,2.5,114.40.237.122,4425647A-C013-4CFA-8E0B-412365BECFBE,1557223654,2019-05-07 18:07:34,1557223691,2019-05-07 18:08:11,1557223721,8a267009-9648-4526-b9f5-a7d48da9af7f__pspm,http://pspm.pingstart.com/api/v4/postback?from=1706&clickid=8a267009-9648-4526-b9f5-a7d48da9af7f__pspm,idfa_4425647A-C013-4CFA-8E0B-412365BECFBE,zh-Hant-TW
fFyIZUR_Sl6dJIb48QkOAA,newborntown,p1599_1085_179_54330571,Install,2.5,118.165.113.242,759AA832-19B2-43BA-92F0-E75EBE9CCCF1,1557224104,2019-05-07 18:15:04,1557224139,2019-05-07 18:15:39,1557224174,b2fe48dc-a868-424c-8728-a26aaa8dac85__pspm,http://pspm.pingstart.com/api/v4/postback?from=1706&clickid=b2fe48dc-a868-424c-8728-a26aaa8dac85__pspm,idfa_759AA832-19B2-43BA-92F0-E75EBE9CCCF1,zh-Hant-TW
fFyIZUR_Sl6dJIb48QkOAA,newborntown,p1599_1085_179_54330571,Install,2.5,114.39.192.190,8ADBF274-918E-4894-8898-6946BCB004C9,1557223512,2019-05-07 18:05:12,1557223544,2019-05-07 18:05:44,1557223582,da8f7d71-960f-42ab-ba7f-a3c3c880fc5a__pspm,http://pspm.pingstart.com/api/v4/postback?from=1706&clickid=da8f7d71-960f-42ab-ba7f-a3c3c880fc5a__pspm,idfa_8ADBF274-918E-4894-8898-6946BCB004C9,zh-Hant-TW
fFyIZUR_Sl6dJIb48QkOAA,newborntown,p1599_1085_179_54330571,Install,2.5,111.241.72.50,D600C694-AE15-488C-8B5C-DBEC712EF76F,1557223322,2019-05-07 18:02:02,1557223355,2019-05-07 18:02:35,1557223385,e13fbe8c-1922-4d16-b86e-cfbc10bb4360__pspm,http://pspm.pingstart.com/api/v4/postback?from=1706&clickid=e13fbe8c-1922-4d16-b86e-cfbc10bb4360__pspm,idfa_D600C694-AE15-488C-8B5C-DBEC712EF76F,zh-Hant-TW
fFyIZUR_Sl6dJIb48QkOAA,newborntown,p1599_1085_179_54330571,Install,2.5,111.251.77.128,0EEEAAE7-6A74-4BC9-B268-49B800953E12,1557222998,2019-05-07 17:56:38,1557223036,2019-05-07 17:57:16,1557223090,f28f22cb-fb3d-41ee-b9c5-1bda6e963ec3__pspm,http://pspm.pingstart.com/api/v4/postback?from=1706&clickid=f28f22cb-fb3d-41ee-b9c5-1bda6e963ec3__pspm,idfa_0EEEAAE7-6A74-4BC9-B268-49B800953E12,zh-Hant-TW
fFyIZUR_Sl6dJIb48QkOAA,newborntown,p1599_1085_179_54330571,Install,2.5,114.25.112.47,6068B386-AB3B-4650-8E0F-45DA840EE0A5,1557222557,2019-05-07 17:49:17,1557222593,2019-05-07 17:49:53,1557222623,333e134b-c20e-4880-a71d-1e87b8b72dac__pspm,http://pspm.pingstart.com/api/v4/postback?from=1706&clickid=333e134b-c20e-4880-a71d-1e87b8b72dac__pspm,idfa_6068B386-AB3B-4650-8E0F-45DA840EE0A5,zh-Hant-TW
fFyIZUR_Sl6dJIb48QkOAA,newborntown,p1599_1085_179_54330571,Install,2.5,114.43.230.150,996E7E84-750B-41EB-A15E-81CB43A703EF,1557223154,2019-05-07 17:59:14,1557223188,2019-05-07 17:59:48,1557223218,ab85293d-8ae1-4871-af90-28d9811fd379__pspm,http://pspm.pingstart.com/api/v4/postback?from=1706&clickid=ab85293d-8ae1-4871-af90-28d9811fd379__pspm,idfa_996E7E84-750B-41EB-A15E-81CB43A703EF,zh-Hant-TW
fFyIZUR_Sl6dJIb48QkOAA,newborntown,p1599_1085_179_54330571,Install,2.5,111.250.5.89,667DA470-D1C9-40C9-85AA-BA2507EF9228,1557223620,2019-05-07 18:07:00,1557223658,2019-05-07 18:07:38,1557223688,b71eefcb-c87b-41f0-a16f-ebeeb91636b7__pspm,http://pspm.pingstart.com/api/v4/postback?from=1706&clickid=b71eefcb-c87b-41f0-a16f-ebeeb91636b7__pspm,idfa_667DA470-D1C9-40C9-85AA-BA2507EF9228,zh-Hant-TW
fFyIZUR_Sl6dJIb48QkOAA,newborntown,p1599_1085_179_54330571,Install,2.5,61.224.52.72,54F6DBB1-FCFC-4238-A358-1C91529BBC98,1557222471,2019-05-07 17:47:51,1557222504,2019-05-07 17:48:24,1557222536,51f88445-4a85-446f-ac40-6e9e16e55653__pspm,http://pspm.pingstart.com/api/v4/postback?from=1706&clickid=51f88445-4a85-446f-ac40-6e9e16e55653__pspm,idfa_54F6DBB1-FCFC-4238-A358-1C91529BBC98,zh-Hant-TW
fFyIZUR_Sl6dJIb48QkOAA,newborntown,p1599_1085_179_54330571,Install,2.5,61.62.184.58,75C3ED87-9BF5-4F72-ADDA-FFDEEF39A924,1557222798,2019-05-07 17:53:18,1557222843,2019-05-07 17:54:03,1557222874,be121c49-601a-43a6-8d77-72ee06d98c85__pspm,http://pspm.pingstart.com/api/v4/postback?from=1706&clickid=be121c49-601a-43a6-8d77-72ee06d98c85__pspm,idfa_75C3ED87-9BF5-4F72-ADDA-FFDEEF39A924,zh-Hant-TW
fFyIZUR_Sl6dJIb48QkOAA,newborntown,p1599_1085_179_54330571,Install,2.5,61.31.164.49,6C554769-C6B3-4511-9E05-0F7BC38028CD,1557222881,2019-05-07 17:54:41,1557222925,2019-05-07 17:55:25,1557222957,64db5e55-7a92-407d-a069-6d9865f84828__pspm,http://pspm.pingstart.com/api/v4/postback?from=1706&clickid=64db5e55-7a92-407d-a069-6d9865f84828__pspm,idfa_6C554769-C6B3-4511-9E05-0F7BC38028CD,zh-Hant-TW
fFyIZUR_Sl6dJIb48QkOAA,newborntown,p1599_1085_179_54330571,Install,2.5,218.166.248.58,E6F565C2-32DD-4489-99C0-452396E8AAC4,1557223768,2019-05-07 18:09:28,1557223799,2019-05-07 18:09:59,1557223829,6b24ef25-9ed6-466a-85e7-b77100006df3__pspm,http://pspm.pingstart.com/api/v4/postback?from=1706&clickid=6b24ef25-9ed6-466a-85e7-b77100006df3__pspm,idfa_E6F565C2-32DD-4489-99C0-452396E8AAC4,zh-Hant-TW
fFyIZUR_Sl6dJIb48QkOAA,newborntown,p1599_1085_179_54330571,Install,2.5,111.253.156.66,6ED72961-CDEE-41CF-9F88-4E41CE767754,1557223342,2019-05-07 18:02:22,1557223387,2019-05-07 18:03:07,1557223418,41b2ce26-2ccd-4dea-854c-bd2438f83c69__pspm,http://pspm.pingstart.com/api/v4/postback?from=1706&clickid=41b2ce26-2ccd-4dea-854c-bd2438f83c69__pspm,idfa_6ED72961-CDEE-41CF-9F88-4E41CE767754,zh-Hant-TW
fFyIZUR_Sl6dJIb48QkOAA,newborntown,p1599_1085_179_54330571,Install,2.5,36.232.227.111,261493F3-CB4E-4BEA-8586-7C32D5E71194,1557222761,2019-05-07 17:52:41,1557222797,2019-05-07 17:53:17,1557222828,2a443c7c-1ec4-4433-96ec-b7e4b1da5578__pspm,http://pspm.pingstart.com/api/v4/postback?from=1706&clickid=2a443c7c-1ec4-4433-96ec-b7e4b1da5578__pspm,idfa_261493F3-CB4E-4BEA-8586-7C32D5E71194,zh-Hant-TW
fFyIZUR_Sl6dJIb48QkOAA,newborntown,p1599_1085_179_54330571,Install,2.5,220.142.137.159,C9C91B71-26EE-4A54-B7C6-22C3C240B392,1557222474,2019-05-07 17:47:54,1557222522,2019-05-07 17:48:42,1557222553,393aef0a-8857-4693-8020-809f2424f971__pspm,http://pspm.pingstart.com/api/v4/postback?from=1706&clickid=393aef0a-8857-4693-8020-809f2424f971__pspm,idfa_C9C91B71-26EE-4A54-B7C6-22C3C240B392,zh-Hant-TW
fFyIZUR_Sl6dJIb48QkOAA,newborntown,p1599_1085_179_54330571,Install,2.5,114.43.186.200,8B393E88-A5E8-46FA-BFEA-32BD10F69459,1557223034,2019-05-07 17:57:14,1557223072,2019-05-07 17:57:52,1557223122,0e6f56d8-aad2-4fde-b870-4195ed1f8825__pspm,http://pspm.pingstart.com/api/v4/postback?from=1706&clickid=0e6f56d8-aad2-4fde-b870-4195ed1f8825__pspm,idfa_8B393E88-A5E8-46FA-BFEA-32BD10F69459,zh-Hant-TW
fFyIZUR_Sl6dJIb48QkOAA,newborntown,p1599_1085_179_54330571,Install,2.5,114.37.210.178,828CEE65-7205-44E8-858F-4F4728694CCF,1557224021,2019-05-07 18:13:41,1557224065,2019-05-07 18:14:25,1557224095,4ff092a5-1a1c-4d27-a9e6-ca97c4a602f1__pspm,http://pspm.pingstart.com/api/v4/postback?from=1706&clickid=4ff092a5-1a1c-4d27-a9e6-ca97c4a602f1__pspm,idfa_828CEE65-7205-44E8-858F-4F4728694CCF,zh-Hant-TW
fFyIZUR_Sl6dJIb48QkOAA,newborntown,p1599_1085_179_54330571,Install,2.5,1.174.35.170,373A5D5A-D3DA-488C-AAD4-E36E743F3F0A,1557222892,2019-05-07 17:54:52,1557222926,2019-05-07 17:55:26,1557222958,ff738a82-a365-41a0-bfe6-81aef047755e__pspm,http://pspm.pingstart.com/api/v4/postback?from=1706&clickid=ff738a82-a365-41a0-bfe6-81aef047755e__pspm,idfa_373A5D5A-D3DA-488C-AAD4-E36E743F3F0A,zh-Hant-TW
fFyIZUR_Sl6dJIb48QkOAA,newborntown,p1599_1085_179_54330571,Install,2.5,1.173.133.222,2F67F568-BEB8-4918-B225-29EA592A8154,1557223060,2019-05-07 17:57:40,1557223110,2019-05-07 17:58:30,1557223151,ce8b2c15-7659-4b3b-bbff-42ad7edcc7ab__pspm,http://pspm.pingstart.com/api/v4/postback?from=1706&clickid=ce8b2c15-7659-4b3b-bbff-42ad7edcc7ab__pspm,idfa_2F67F568-BEB8-4918-B225-29EA592A8154,zh-Hant-TW
fFyIZUR_Sl6dJIb48QkOAA,newborntown,p1599_1085_179_54330571,Install,2.5,122.121.138.127,15C00271-671B-4862-A1ED-FA233CB7E69C,1557223288,2019-05-07 18:01:28,1557223323,2019-05-07 18:02:03,1557223353,9ebfda7f-1025-49fb-b864-e2dd6c5d6574__pspm,http://pspm.pingstart.com/api/v4/postback?from=1706&clickid=9ebfda7f-1025-49fb-b864-e2dd6c5d6574__pspm,idfa_15C00271-671B-4862-A1ED-FA233CB7E69C,zh-Hant-TW
fFyIZUR_Sl6dJIb48QkOAA,newborntown,p1599_1085_179_54330571,Install,2.5,114.41.111.40,4373E217-4413-420E-A3CB-A1884AFCD366,1557223029,2019-05-07 17:57:09,1557223067,2019-05-07 17:57:47,1557223106,dea61552-4c7e-4ada-b723-66606b07997a__pspm,http://pspm.pingstart.com/api/v4/postback?from=1706&clickid=dea61552-4c7e-4ada-b723-66606b07997a__pspm,idfa_4373E217-4413-420E-A3CB-A1884AFCD366,zh-Hant-TW
fFyIZUR_Sl6dJIb48QkOAA,newborntown,p1599_1085_179_54330571,Install,2.5,61.224.53.101,4ADB846B-C41F-465B-B762-E5380C751397,1557222719,2019-05-07 17:51:59,1557222755,2019-05-07 17:52:35,1557222841,4e0349bd-79f8-478f-9cc3-d8ce5dd3e415__pspm,http://pspm.pingstart.com/api/v4/postback?from=1706&clickid=4e0349bd-79f8-478f-9cc3-d8ce5dd3e415__pspm,idfa_4ADB846B-C41F-465B-B762-E5380C751397,zh-Hant-TW
fFyIZUR_Sl6dJIb48QkOAA,newborntown,p1599_1085_179_54330571,Install,2.5,1.168.123.240,76EBE14A-3137-4987-86F8-6987A02FAD39,1557223213,2019-05-07 18:00:13,1557223250,2019-05-07 18:00:50,1557223280,d1d95ef6-53db-4c66-994e-72ed79ea60cb__pspm,http://pspm.pingstart.com/api/v4/postback?from=1706&clickid=d1d95ef6-53db-4c66-994e-72ed79ea60cb__pspm,idfa_76EBE14A-3137-4987-86F8-6987A02FAD39,zh-Hant-TW
fFyIZUR_Sl6dJIb48QkOAA,newborntown,p1599_1085_179_54330571,Install,2.5,114.43.96.124,95E11EF1-6387-45AD-B39A-7A4D90069AE2,1557222951,2019-05-07 17:55:51,1557222984,2019-05-07 17:56:24,1557223014,77431b91-074e-4557-bdc7-dcf1a83eba04__pspm,http://pspm.pingstart.com/api/v4/postback?from=1706&clickid=77431b91-074e-4557-bdc7-dcf1a83eba04__pspm,idfa_95E11EF1-6387-45AD-B39A-7A4D90069AE2,zh-Hant-TW
fFyIZUR_Sl6dJIb48QkOAA,newborntown,p1599_1085_179_54330571,Install,2.5,1.161.101.199,E21A6DB1-F122-485D-8C8C-6BD2E0228F9D,1557222866,2019-05-07 17:54:26,1557222916,2019-05-07 17:55:16,1557222947,a2c1f41e-b2f1-4698-a092-3a8e222cbcf9__pspm,http://pspm.pingstart.com/api/v4/postback?from=1706&clickid=a2c1f41e-b2f1-4698-a092-3a8e222cbcf9__pspm,idfa_E21A6DB1-F122-485D-8C8C-6BD2E0228F9D,zh-Hant-TW
fFyIZUR_Sl6dJIb48QkOAA,newborntown,p1599_1085_179_54330571,Install,2.5,111.251.59.53,7E37DF70-09B9-4FBE-9E29-87DD5E95F0F0,1557223053,2019-05-07 17:57:33,1557223093,2019-05-07 17:58:13,1557223123,8f081b1c-3d4b-458b-93b4-6c211154c7d2__pspm,http://pspm.pingstart.com/api/v4/postback?from=1706&clickid=8f081b1c-3d4b-458b-93b4-6c211154c7d2__pspm,idfa_7E37DF70-09B9-4FBE-9E29-87DD5E95F0F0,zh-Hant-TW
fFyIZUR_Sl6dJIb48QkOAA,newborntown,p1599_1085_179_54330571,Install,2.5,122.121.192.241,94305DE3-33D2-463D-88E8-A31AB9DBAB8F,1557222575,2019-05-07 17:49:35,1557222606,2019-05-07 17:50:06,1557222637,9ec0b361-bbf6-4c04-88a3-df12cab482c2__pspm,http://pspm.pingstart.com/api/v4/postback?from=1706&clickid=9ec0b361-bbf6-4c04-88a3-df12cab482c2__pspm,idfa_94305DE3-33D2-463D-88E8-A31AB9DBAB8F,zh-Hant-TW
fFyIZUR_Sl6dJIb48QkOAA,newborntown,p1599_1085_179_54330571,Install,2.5,218.164.125.98,F42AF600-91EA-4480-91F0-D2FDDF4FCE92,1557224080,2019-05-07 18:14:40,1557224116,2019-05-07 18:15:16,1557224146,1ed4c66e-e647-4d09-a552-ef898268e197__pspm,http://pspm.pingstart.com/api/v4/postback?from=1706&clickid=1ed4c66e-e647-4d09-a552-ef898268e197__pspm,idfa_F42AF600-91EA-4480-91F0-D2FDDF4FCE92,zh-Hant-TW
fFyIZUR_Sl6dJIb48QkOAA,newborntown,p1599_1085_179_54330571,Install,2.5,1.163.141.250,E684B07D-0688-44CA-8C71-CF15E7768E38,1557223486,2019-05-07 18:04:46,1557223519,2019-05-07 18:05:19,1557223553,3e9553be-ba43-457b-b51d-91e81a023b64__pspm,http://pspm.pingstart.com/api/v4/postback?from=1706&clickid=3e9553be-ba43-457b-b51d-91e81a023b64__pspm,idfa_E684B07D-0688-44CA-8C71-CF15E7768E38,zh-Hant-TW
fFyIZUR_Sl6dJIb48QkOAA,newborntown,p1599_1085_179_54330571,Install,2.5,203.67.211.233,5274A6BD-C160-45CE-89F2-7F16F9A98BEF,1557223390,2019-05-07 18:03:10,1557223433,2019-05-07 18:03:53,1557223464,4bde9e93-83e8-4618-ac42-33e2ac1eb107__pspm,http://pspm.pingstart.com/api/v4/postback?from=1706&clickid=4bde9e93-83e8-4618-ac42-33e2ac1eb107__pspm,idfa_5274A6BD-C160-45CE-89F2-7F16F9A98BEF,zh-Hant-TW
fFyIZUR_Sl6dJIb48QkOAA,newborntown,p1599_1085_179_54330571,Install,2.5,36.227.58.195,647DED23-CDD2-4323-813A-A8C301657604,1557223337,2019-05-07 18:02:17,1557223377,2019-05-07 18:02:57,1557223408,71d66d09-fc27-4138-95b6-cb5c092475a4__pspm,http://pspm.pingstart.com/api/v4/postback?from=1706&clickid=71d66d09-fc27-4138-95b6-cb5c092475a4__pspm,idfa_647DED23-CDD2-4323-813A-A8C301657604,zh-Hant-TW
fFyIZUR_Sl6dJIb48QkOAA,newborntown,p1599_1085_179_54330571,Install,2.5,118.167.140.144,0056FC07-A609-4AA0-8EF8-D8E010F7B0ED,1557222564,2019-05-07 17:49:24,1557222601,2019-05-07 17:50:01,1557222631,cd15e054-ab9d-46c3-aec2-76b46fdcbc07__pspm,http://pspm.pingstart.com/api/v4/postback?from=1706&clickid=cd15e054-ab9d-46c3-aec2-76b46fdcbc07__pspm,idfa_0056FC07-A609-4AA0-8EF8-D8E010F7B0ED,zh-Hant-TW
fFyIZUR_Sl6dJIb48QkOAA,newborntown,p1599_1085_179_54330571,Install,2.5,36.225.223.48,1B2DE012-3F86-4F0A-BCA0-292420427917,1557222632,2019-05-07 17:50:32,1557222669,2019-05-07 17:51:09,1557222868,c13fb3e6-1a22-46a5-9225-783be7d10d30__pspm,http://pspm.pingstart.com/api/v4/postback?from=1706&clickid=c13fb3e6-1a22-46a5-9225-783be7d10d30__pspm,idfa_1B2DE012-3F86-4F0A-BCA0-292420427917,zh-Hant-TW
fFyIZUR_Sl6dJIb48QkOAA,newborntown,p1599_1085_179_54330571,Install,2.5,114.26.72.210,7544382A-111E-41D7-B1BB-529B4DDA983F,1557223963,2019-05-07 18:12:43,1557224018,2019-05-07 18:13:38,1557224052,191ea233-81f3-4fd6-9972-e3861b25a26d__pspm,http://pspm.pingstart.com/api/v4/postback?from=1706&clickid=191ea233-81f3-4fd6-9972-e3861b25a26d__pspm,idfa_7544382A-111E-41D7-B1BB-529B4DDA983F,zh-Hant-TW
fFyIZUR_Sl6dJIb48QkOAA,newborntown,p1599_1085_179_54330571,Install,2.5,61.224.4.24,7421087D-EE39-4A58-85D9-141E371AA063,1557223455,2019-05-07 18:04:15,1557223495,2019-05-07 18:04:55,1557223526,0790abd9-f319-4aa2-b423-6744f34c4388__pspm,http://pspm.pingstart.com/api/v4/postback?from=1706&clickid=0790abd9-f319-4aa2-b423-6744f34c4388__pspm,idfa_7421087D-EE39-4A58-85D9-141E371AA063,zh-Hant-TW
fFyIZUR_Sl6dJIb48QkOAA,newborntown,p1599_1085_179_54330571,Install,2.5,114.47.46.1,725A4EC8-E61D-4F14-8A20-805F4E7A3F4E,1557224126,2019-05-07 18:15:26,1557224158,2019-05-07 18:15:58,1557224189,e7a4e20c-9f95-426c-bce8-45f7c2fdf116__pspm,http://pspm.pingstart.com/api/v4/postback?from=1706&clickid=e7a4e20c-9f95-426c-bce8-45f7c2fdf116__pspm,idfa_725A4EC8-E61D-4F14-8A20-805F4E7A3F4E,zh-Hant-TW
fFyIZUR_Sl6dJIb48QkOAA,newborntown,p1599_1085_179_54330571,Install,2.5,219.85.43.148,3BCAF243-A0E7-4F38-903A-3CD7B40AA6B4,1557223786,2019-05-07 18:09:46,1557223824,2019-05-07 18:10:24,1557223855,7abad940-3464-41a9-bc42-c7aae94a3fe6__pspm,http://pspm.pingstart.com/api/v4/postback?from=1706&clickid=7abad940-3464-41a9-bc42-c7aae94a3fe6__pspm,idfa_3BCAF243-A0E7-4F38-903A-3CD7B40AA6B4,zh-Hant-TW
fFyIZUR_Sl6dJIb48QkOAA,newborntown,p1599_1085_179_54330571,Install,2.5,1.171.18.251,C48AA266-FAA0-4CDC-9FBF-27F2FC41C7BE,1557223981,2019-05-07 18:13:01,1557224021,2019-05-07 18:13:41,1557224057,b6e41d94-f9a9-4ca3-8210-33a31d8f28bd__pspm,http://pspm.pingstart.com/api/v4/postback?from=1706&clickid=b6e41d94-f9a9-4ca3-8210-33a31d8f28bd__pspm,idfa_C48AA266-FAA0-4CDC-9FBF-27F2FC41C7BE,zh-Hant-TW
fFyIZUR_Sl6dJIb48QkOAA,newborntown,p1599_1085_179_54330571,Install,2.5,111.250.209.4,A374396B-A794-4CC4-8752-49EB53F33DC5,1557223084,2019-05-07 17:58:04,1557223115,2019-05-07 17:58:35,1557223169,fd399956-c011-4d7a-ac86-52b24b7321e6__pspm,http://pspm.pingstart.com/api/v4/postback?from=1706&clickid=fd399956-c011-4d7a-ac86-52b24b7321e6__pspm,idfa_A374396B-A794-4CC4-8752-49EB53F33DC5,zh-Hant-TW
fFyIZUR_Sl6dJIb48QkOAA,newborntown,p1599_1085_179_54330571,Install,2.5,36.235.147.29,4C773860-0EA2-484E-89B5-D51B1087C11C,1557223196,2019-05-07 17:59:56,1557223230,2019-05-07 18:00:30,1557223260,4c5c0721-7196-456e-874a-9a34414c6b14__pspm,http://pspm.pingstart.com/api/v4/postback?from=1706&clickid=4c5c0721-7196-456e-874a-9a34414c6b14__pspm,idfa_4C773860-0EA2-484E-89B5-D51B1087C11C,zh-Hant-TW
fFyIZUR_Sl6dJIb48QkOAA,newborntown,p1599_1085_179_54330571,Install,2.5,1.168.208.209,D471D7D3-3B3D-4CD8-AA1D-81C040BFADA5,1557223747,2019-05-07 18:09:07,1557223779,2019-05-07 18:09:39,1557223948,7a45a1f1-44cf-44a5-b598-f945544dee5e__pspm,http://pspm.pingstart.com/api/v4/postback?from=1706&clickid=7a45a1f1-44cf-44a5-b598-f945544dee5e__pspm,idfa_D471D7D3-3B3D-4CD8-AA1D-81C040BFADA5,zh-Hant-TW
fFyIZUR_Sl6dJIb48QkOAA,newborntown,p1599_1085_179_54330571,Install,2.5,122.121.62.32,9AC7FF31-30C1-417E-B292-0123920BE5EF,1557223996,2019-05-07 18:13:16,1557224034,2019-05-07 18:13:54,1557224066,f0c93571-351d-4130-ad1c-15ce94316bef__pspm,http://pspm.pingstart.com/api/v4/postback?from=1706&clickid=f0c93571-351d-4130-ad1c-15ce94316bef__pspm,idfa_9AC7FF31-30C1-417E-B292-0123920BE5EF,zh-Hant-TW
fFyIZUR_Sl6dJIb48QkOAA,newborntown,p1599_1085_179_54330571,Install,2.5,114.25.195.174,370BE971-1289-4110-9E8F-9D223326021D,1557223454,2019-05-07 18:04:14,1557223485,2019-05-07 18:04:45,1557223558,9915b6cb-54ce-4b19-9dba-4f2b7e36ad78__pspm,http://pspm.pingstart.com/api/v4/postback?from=1706&clickid=9915b6cb-54ce-4b19-9dba-4f2b7e36ad78__pspm,idfa_370BE971-1289-4110-9E8F-9D223326021D,zh-Hant-TW
fFyIZUR_Sl6dJIb48QkOAA,newborntown,p1599_1085_179_54330571,Install,2.5,61.230.249.76,6E9C3B01-85A5-4DB3-A167-E911807A6BFB,1557222446,2019-05-07 17:47:26,1557222492,2019-05-07 17:48:12,1557222571,3b3bae61-76d3-4009-950d-b18d32c380da__pspm,http://pspm.pingstart.com/api/v4/postback?from=1706&clickid=3b3bae61-76d3-4009-950d-b18d32c380da__pspm,idfa_6E9C3B01-85A5-4DB3-A167-E911807A6BFB,zh-Hant-TW
fFyIZUR_Sl6dJIb48QkOAA,newborntown,p1599_1085_179_54330571,Install,2.5,36.233.179.189,4EF25192-9287-41BF-8382-230D5157F12A,1557223319,2019-05-07 18:01:59,1557223358,2019-05-07 18:02:38,1557223389,50fec7a2-efdd-4b6f-830a-cff999f49021__pspm,http://pspm.pingstart.com/api/v4/postback?from=1706&clickid=50fec7a2-efdd-4b6f-830a-cff999f49021__pspm,idfa_4EF25192-9287-41BF-8382-230D5157F12A,zh-Hant-TW
fFyIZUR_Sl6dJIb48QkOAA,newborntown,p1599_1085_179_54330571,Install,2.5,111.248.163.2,C2BD0162-6771-4472-A088-2A81FFCD3184,1557223796,2019-05-07 18:09:56,1557223844,2019-05-07 18:10:44,1557223875,9e57c5b6-19f0-4bb7-bd95-cdc923d04f9e__pspm,http://pspm.pingstart.com/api/v4/postback?from=1706&clickid=9e57c5b6-19f0-4bb7-bd95-cdc923d04f9e__pspm,idfa_C2BD0162-6771-4472-A088-2A81FFCD3184,zh-Hant-TW
fFyIZUR_Sl6dJIb48QkOAA,newborntown,p1599_1085_179_54330571,Install,2.5,218.187.102.152,C120B8BC-5E31-4631-AE6F-27A165D7B405,1557223942,2019-05-07 18:12:22,1557223983,2019-05-07 18:13:03,1557224017,a7e529c8-5443-40d8-aa32-fa26dd93ad4c__pspm,http://pspm.pingstart.com/api/v4/postback?from=1706&clickid=a7e529c8-5443-40d8-aa32-fa26dd93ad4c__pspm,idfa_C120B8BC-5E31-4631-AE6F-27A165D7B405,zh-Hant-TW
fFyIZUR_Sl6dJIb48QkOAA,newborntown,p1599_1085_179_54330571,Install,2.5,118.169.173.81,BEE38CA5-E262-4063-9E2C-7F5EC9965ED3,1557223705,2019-05-07 18:08:25,1557223752,2019-05-07 18:09:12,1557223783,0e277847-b79f-421f-8bcb-7891db4ae778__pspm,http://pspm.pingstart.com/api/v4/postback?from=1706&clickid=0e277847-b79f-421f-8bcb-7891db4ae778__pspm,idfa_BEE38CA5-E262-4063-9E2C-7F5EC9965ED3,zh-Hant-TW
fFyIZUR_Sl6dJIb48QkOAA,newborntown,p1599_1085_179_54330571,Install,2.5,1.174.35.84,DD11DC4B-030B-41ED-8EF0-FD1B491444A5,1557223530,2019-05-07 18:05:30,1557223568,2019-05-07 18:06:08,1557223598,0597cce6-3688-4f63-9370-757af6bbecda__pspm,http://pspm.pingstart.com/api/v4/postback?from=1706&clickid=0597cce6-3688-4f63-9370-757af6bbecda__pspm,idfa_DD11DC4B-030B-41ED-8EF0-FD1B491444A5,zh-Hant-TW
