cid,partner_id,channel_id,action_id,cpi,ip,idfa,click time,click datetime,install time,install datetime,postback time,click id,postback url,unique user id
kn3qPZKDQ_2dyPKb1avAAQ,newborntown,p1846_2166_22254652,Install,3.0,218.189.15.187,F02830CD-5AF9-49C9-8427-758EF23D33DC,1557504878,2019-05-11 00:14:38,1557504920,2019-05-11 00:15:20,1557504951,f3669fee-eeb6-417a-a5c4-7cda2eb4616d__pspm,http://pspm.pingstart.com/api/v4/postback?from=1706&clickid=f3669fee-eeb6-417a-a5c4-7cda2eb4616d__pspm,idfa_F02830CD-5AF9-49C9-8427-758EF23D33DC,zh-HK-hk
kn3qPZKDQ_2dyPKb1avAAQ,newborntown,p1846_2166_22254652,Install,3.0,223.197.202.104,5869C60C-8E77-4D47-BA5E-61D2F475278A,1557505629,2019-05-11 00:27:09,1557505654,2019-05-11 00:27:34,1557505685,e6e2c173-1860-439d-b924-d50b07c6b6c2__pspm,http://pspm.pingstart.com/api/v4/postback?from=1706&clickid=e6e2c173-1860-439d-b924-d50b07c6b6c2__pspm,idfa_5869C60C-8E77-4D47-BA5E-61D2F475278A,zh-HK
kn3qPZKDQ_2dyPKb1avAAQ,newborntown,p1846_2166_22254652,Install,3.0,223.197.133.27,742F6EA5-2C16-4A10-85C0-27C75EDCF6B8,1557505946,2019-05-11 00:32:26,1557505976,2019-05-11 00:32:56,1557506006,4ff091b1-17c9-47de-b6c1-36c9d4c69541__pspm,http://pspm.pingstart.com/api/v4/postback?from=1706&clickid=4ff091b1-17c9-47de-b6c1-36c9d4c69541__pspm,idfa_742F6EA5-2C16-4A10-85C0-27C75EDCF6B8,zh-HK
kn3qPZKDQ_2dyPKb1avAAQ,newborntown,p1846_2166_22254652,Install,3.0,218.189.15.187,96C2CA17-28FE-4211-ADFE-205647651BCC,1557505431,2019-05-11 00:23:51,1557505468,2019-05-11 00:24:28,1557505505,cf3f6e36-a22d-464c-9ee3-62b1aeb73034__pspm,http://pspm.pingstart.com/api/v4/postback?from=1706&clickid=cf3f6e36-a22d-464c-9ee3-62b1aeb73034__pspm,idfa_96C2CA17-28FE-4211-ADFE-205647651BCC,zh-HK
kn3qPZKDQ_2dyPKb1avAAQ,newborntown,p1846_2166_22254652,Install,3.0,175.45.35.182,4667FC19-6E8E-4E98-98B2-E67B4B6D3587,1557505196,2019-05-11 00:19:56,1557505241,2019-05-11 00:20:41,1557505272,5c1ad946-3362-495f-9464-c1c802b73a96__pspm,http://pspm.pingstart.com/api/v4/postback?from=1706&clickid=5c1ad946-3362-495f-9464-c1c802b73a96__pspm,idfa_4667FC19-6E8E-4E98-98B2-E67B4B6D3587,zh-HK
kn3qPZKDQ_2dyPKb1avAAQ,newborntown,p1846_2166_22254652,Install,3.0,223.197.167.43,CAC33DCE-2364-4807-8F3C-EDEDCD2BA6C3,1557505332,2019-05-11 00:22:12,1557505361,2019-05-11 00:22:41,1557505392,eb921d5f-e625-411e-a1ba-45422891d3e1__pspm,http://pspm.pingstart.com/api/v4/postback?from=1706&clickid=eb921d5f-e625-411e-a1ba-45422891d3e1__pspm,idfa_CAC33DCE-2364-4807-8F3C-EDEDCD2BA6C3,zh-HK-hk
kn3qPZKDQ_2dyPKb1avAAQ,newborntown,p1846_2166_22254652,Install,3.0,223.197.162.15,BAC9ADBA-636B-4628-BE1A-93E27FE9F938,1557504852,2019-05-11 00:14:12,1557504889,2019-05-11 00:14:49,1557504919,b4657f49-6c79-49b2-bc60-221483ecb0c0__pspm,http://pspm.pingstart.com/api/v4/postback?from=1706&clickid=b4657f49-6c79-49b2-bc60-221483ecb0c0__pspm,idfa_BAC9ADBA-636B-4628-BE1A-93E27FE9F938,zh-HK
kn3qPZKDQ_2dyPKb1avAAQ,newborntown,p1846_2166_22254652,Install,3.0,42.98.253.48,E134BC9E-F3FE-4EFC-B5FF-6E6751A1C302,1557505796,2019-05-11 00:29:56,1557505849,2019-05-11 00:30:49,1557505879,bcd9b578-f7a4-45f1-a9c8-60c4d531d78b__pspm,http://pspm.pingstart.com/api/v4/postback?from=1706&clickid=bcd9b578-f7a4-45f1-a9c8-60c4d531d78b__pspm,idfa_E134BC9E-F3FE-4EFC-B5FF-6E6751A1C302,zh-HK-hk
kn3qPZKDQ_2dyPKb1avAAQ,newborntown,p1846_2166_22254652,Install,3.0,218.255.108.202,822F911B-CAC9-4EBC-B645-43923749088E,1557505575,2019-05-11 00:26:15,1557505610,2019-05-11 00:26:50,1557505641,525ee4d8-1f13-4637-b4c1-99a28aeaba45__pspm,http://pspm.pingstart.com/api/v4/postback?from=1706&clickid=525ee4d8-1f13-4637-b4c1-99a28aeaba45__pspm,idfa_822F911B-CAC9-4EBC-B645-43923749088E,zh-HK-hk
kn3qPZKDQ_2dyPKb1avAAQ,newborntown,p1846_2166_22254652,Install,3.0,203.198.131.238,C8C9D1DA-2FFF-43D6-A59C-DC3EF71BFBF8,1557506041,2019-05-11 00:34:01,1557506067,2019-05-11 00:34:27,1557506098,22cfbbca-842e-42e9-98b2-45d112d9e530__pspm,http://pspm.pingstart.com/api/v4/postback?from=1706&clickid=22cfbbca-842e-42e9-98b2-45d112d9e530__pspm,idfa_C8C9D1DA-2FFF-43D6-A59C-DC3EF71BFBF8,zh-HK-hk
kn3qPZKDQ_2dyPKb1avAAQ,newborntown,p1846_2166_22254652,Install,3.0,112.120.82.175,6C5D6612-D4E4-4726-AC44-EF28ADA7EA74,1557505583,2019-05-11 00:26:23,1557505610,2019-05-11 00:26:50,1557505641,19a69f8a-210d-4f54-9a62-36fa25dd1917__pspm,http://pspm.pingstart.com/api/v4/postback?from=1706&clickid=19a69f8a-210d-4f54-9a62-36fa25dd1917__pspm,idfa_6C5D6612-D4E4-4726-AC44-EF28ADA7EA74,zh-HK-hk
kn3qPZKDQ_2dyPKb1avAAQ,newborntown,p1846_2166_22254652,Install,3.0,45.120.30.241,DF059277-1FC6-46C2-A473-FA095983939B,1557504711,2019-05-11 00:11:51,1557504747,2019-05-11 00:12:27,1557504778,72ea57eb-c587-4b85-a9aa-9e498ff8d079__pspm,http://pspm.pingstart.com/api/v4/postback?from=1706&clickid=72ea57eb-c587-4b85-a9aa-9e498ff8d079__pspm,idfa_DF059277-1FC6-46C2-A473-FA095983939B,zh-HK-tw
kn3qPZKDQ_2dyPKb1avAAQ,newborntown,p1846_2166_22254652,Install,3.0,223.197.163.246,5C4A1866-2D59-4D4D-9F1F-107C1DEEB1F1,1557504978,2019-05-11 00:16:18,1557505004,2019-05-11 00:16:44,1557505035,a269c4b0-1a72-49df-807d-bc4f77e33a90__pspm,http://pspm.pingstart.com/api/v4/postback?from=1706&clickid=a269c4b0-1a72-49df-807d-bc4f77e33a90__pspm,idfa_5C4A1866-2D59-4D4D-9F1F-107C1DEEB1F1,zh-HK
kn3qPZKDQ_2dyPKb1avAAQ,newborntown,p1846_2166_22254652,Install,3.0,42.200.215.190,62D74D3A-B984-4D1E-AB00-B441DFC2CC85,1557505828,2019-05-11 00:30:28,1557505854,2019-05-11 00:30:54,1557505885,856f14dc-2555-4e98-bb84-000b09881ce3__pspm,http://pspm.pingstart.com/api/v4/postback?from=1706&clickid=856f14dc-2555-4e98-bb84-000b09881ce3__pspm,idfa_62D74D3A-B984-4D1E-AB00-B441DFC2CC85,zh-HK-hk
kn3qPZKDQ_2dyPKb1avAAQ,newborntown,p1846_2166_22254652,Install,3.0,210.3.173.34,B9EF279F-A24D-4682-AA7C-7EB35EA8BFD6,1557505466,2019-05-11 00:24:26,1557505492,2019-05-11 00:24:52,1557505523,6407f210-be8d-4d0b-8b9a-c28c4f11c978__pspm,http://pspm.pingstart.com/api/v4/postback?from=1706&clickid=6407f210-be8d-4d0b-8b9a-c28c4f11c978__pspm,idfa_B9EF279F-A24D-4682-AA7C-7EB35EA8BFD6,zh-HK
kn3qPZKDQ_2dyPKb1avAAQ,newborntown,p1846_2166_22254652,Install,3.0,210.176.61.250,644A0394-AA8E-4130-9370-85B2F4383F33,1557505927,2019-05-11 00:32:07,1557505973,2019-05-11 00:32:53,1557506004,5946768b-961f-4a09-88cc-2e4c12b70cf3__pspm,http://pspm.pingstart.com/api/v4/postback?from=1706&clickid=5946768b-961f-4a09-88cc-2e4c12b70cf3__pspm,idfa_644A0394-AA8E-4130-9370-85B2F4383F33,zh-HK
kn3qPZKDQ_2dyPKb1avAAQ,newborntown,p1846_2166_22254652,Install,3.0,202.82.133.61,61C1961D-FDA9-4DE7-896A-7EAF3189C47A,1557505703,2019-05-11 00:28:23,1557505732,2019-05-11 00:28:52,1557505763,232e92eb-8ce6-4869-923f-2a56663aa7e5__pspm,http://pspm.pingstart.com/api/v4/postback?from=1706&clickid=232e92eb-8ce6-4869-923f-2a56663aa7e5__pspm,idfa_61C1961D-FDA9-4DE7-896A-7EAF3189C47A,zh-HK
kn3qPZKDQ_2dyPKb1avAAQ,newborntown,p1846_2166_22254652,Install,3.0,210.56.56.213,928887A3-0336-4C28-BCF4-88D5A912F95C,1557505088,2019-05-11 00:18:08,1557505112,2019-05-11 00:18:32,1557505143,86d8b3b3-526e-40f8-a619-5f923ebc6365__pspm,http://pspm.pingstart.com/api/v4/postback?from=1706&clickid=86d8b3b3-526e-40f8-a619-5f923ebc6365__pspm,idfa_928887A3-0336-4C28-BCF4-88D5A912F95C,zh-HK-hk
kn3qPZKDQ_2dyPKb1avAAQ,newborntown,p1846_2166_22254652,Install,3.0,223.197.223.219,D3532C44-8A32-454E-9EEB-403AF66EC8DA,1557505417,2019-05-11 00:23:37,1557505443,2019-05-11 00:24:03,1557505473,cd6d0525-b7ce-44df-8043-ff543e66eaa5__pspm,http://pspm.pingstart.com/api/v4/postback?from=1706&clickid=cd6d0525-b7ce-44df-8043-ff543e66eaa5__pspm,idfa_D3532C44-8A32-454E-9EEB-403AF66EC8DA,zh-HK
kn3qPZKDQ_2dyPKb1avAAQ,newborntown,p1846_2166_22254652,Install,3.0,203.198.149.164,E832B25E-691E-4E7E-B264-CC1926AC0200,1557505286,2019-05-11 00:21:26,1557505322,2019-05-11 00:22:02,1557505353,f0b5dfeb-76ca-4fd1-ad7c-fd6ac3d39642__pspm,http://pspm.pingstart.com/api/v4/postback?from=1706&clickid=f0b5dfeb-76ca-4fd1-ad7c-fd6ac3d39642__pspm,idfa_E832B25E-691E-4E7E-B264-CC1926AC0200,zh-HK-hk
kn3qPZKDQ_2dyPKb1avAAQ,newborntown,p1846_2166_22254652,Install,3.0,103.254.210.60,153F0857-6CDC-4DB4-8EBB-2087531C8F32,1557505307,2019-05-11 00:21:47,1557505332,2019-05-11 00:22:12,1557505363,6a7209aa-5a44-48df-b176-a785328bb540__pspm,http://pspm.pingstart.com/api/v4/postback?from=1706&clickid=6a7209aa-5a44-48df-b176-a785328bb540__pspm,idfa_153F0857-6CDC-4DB4-8EBB-2087531C8F32,zh-HK-hk
kn3qPZKDQ_2dyPKb1avAAQ,newborntown,p1846_2166_22254652,Install,3.0,202.82.230.225,6FAEC099-9402-4A10-8288-854AFDBE9476,1557505058,2019-05-11 00:17:38,1557505085,2019-05-11 00:18:05,1557505118,90b10260-6487-48ff-86d7-3672be7aec5e__pspm,http://pspm.pingstart.com/api/v4/postback?from=1706&clickid=90b10260-6487-48ff-86d7-3672be7aec5e__pspm,idfa_6FAEC099-9402-4A10-8288-854AFDBE9476,zh-HK-cn
kn3qPZKDQ_2dyPKb1avAAQ,newborntown,p1846_2166_22254652,Install,3.0,113.28.9.22,F94368FC-C35C-4EB1-9509-37549D3362AE,1557505134,2019-05-11 00:18:54,1557505171,2019-05-11 00:19:31,1557505202,f4491009-5131-4961-89ef-2acc7b999527__pspm,http://pspm.pingstart.com/api/v4/postback?from=1706&clickid=f4491009-5131-4961-89ef-2acc7b999527__pspm,idfa_F94368FC-C35C-4EB1-9509-37549D3362AE,zh-HK
kn3qPZKDQ_2dyPKb1avAAQ,newborntown,p1846_2166_22254652,Install,3.0,203.198.148.196,5FBF6778-93EE-4964-99EC-B177F3E71963,1557506154,2019-05-11 00:35:54,1557506179,2019-05-11 00:36:19,1557506209,f19f80c3-fc9c-486c-8c06-29bb5fb5abc3__pspm,http://pspm.pingstart.com/api/v4/postback?from=1706&clickid=f19f80c3-fc9c-486c-8c06-29bb5fb5abc3__pspm,idfa_5FBF6778-93EE-4964-99EC-B177F3E71963,zh-HK
kn3qPZKDQ_2dyPKb1avAAQ,newborntown,p1846_2166_22254652,Install,3.0,42.200.215.190,DF554369-203B-4E4C-8DAF-8D766E60D184,1557504991,2019-05-11 00:16:31,1557505028,2019-05-11 00:17:08,1557505058,4547cac8-1bbf-41b5-bc5e-8add873d5bf6__pspm,http://pspm.pingstart.com/api/v4/postback?from=1706&clickid=4547cac8-1bbf-41b5-bc5e-8add873d5bf6__pspm,idfa_DF554369-203B-4E4C-8DAF-8D766E60D184,zh-HK-hk
kn3qPZKDQ_2dyPKb1avAAQ,newborntown,p1846_2166_22254652,Install,3.0,223.197.142.122,5034C10B-87BB-4CD8-BAD3-8289731F2706,1557506070,2019-05-11 00:34:30,1557506101,2019-05-11 00:35:01,1557506132,60894a9d-105c-4c4c-809e-53627df05a6e__pspm,http://pspm.pingstart.com/api/v4/postback?from=1706&clickid=60894a9d-105c-4c4c-809e-53627df05a6e__pspm,idfa_5034C10B-87BB-4CD8-BAD3-8289731F2706,zh-HK-hk
kn3qPZKDQ_2dyPKb1avAAQ,newborntown,p1846_2166_22254652,Install,3.0,223.197.162.15,27AB22E2-AD1D-4759-A3EF-375D55C83934,1557505206,2019-05-11 00:20:06,1557505230,2019-05-11 00:20:30,1557505261,dfe93ea0-5d6c-4484-8392-45d7122993f1__pspm,http://pspm.pingstart.com/api/v4/postback?from=1706&clickid=dfe93ea0-5d6c-4484-8392-45d7122993f1__pspm,idfa_27AB22E2-AD1D-4759-A3EF-375D55C83934,zh-HK
kn3qPZKDQ_2dyPKb1avAAQ,newborntown,p1846_2166_22254652,Install,3.0,223.197.250.232,DB32FFC2-53A1-4F8F-B80E-D6223C2E0A8C,1557505524,2019-05-11 00:25:24,1557505548,2019-05-11 00:25:48,1557505579,b5f7723f-5b4d-417a-8b2d-be360fb7deb1__pspm,http://pspm.pingstart.com/api/v4/postback?from=1706&clickid=b5f7723f-5b4d-417a-8b2d-be360fb7deb1__pspm,idfa_DB32FFC2-53A1-4F8F-B80E-D6223C2E0A8C,zh-HK-hk
kn3qPZKDQ_2dyPKb1avAAQ,newborntown,p1846_2166_22254652,Install,3.0,182.239.58.166,93BE1FE0-B4AB-4C6D-9AB1-8A7FE6ECC1CE,1557504739,2019-05-11 00:12:19,1557504827,2019-05-11 00:13:47,1557504858,270cf3ca-0163-4968-92ad-aea08c953338__pspm,http://pspm.pingstart.com/api/v4/postback?from=1706&clickid=270cf3ca-0163-4968-92ad-aea08c953338__pspm,idfa_93BE1FE0-B4AB-4C6D-9AB1-8A7FE6ECC1CE,zh-HK
