cid,partner_id,channel_id,action_id,cpi,ip,idfa,click time,click datetime,install time,install datetime,postback time,click id,postback url,unique user id
HZ_2jLVATgWioAQNYUiXdw,newborntown,p1789}_509-817648,Install,0.8,223.33.165.100,9fe5149b-7934-4f7c-95b0-f1db03ed3754,1558150111,2019-05-18 11:28:31,1558150233,2019-05-18 11:30:33,1558150267,96438bba-6c77-4434-aed1-f9ea6f301ff5__pspm,http://pspm.pingstart.com/api/v4/postback?from=1706&clickid=96438bba-6c77-4434-aed1-f9ea6f301ff5__pspm,idfa_9fe5149b-7934-4f7c-95b0-f1db03ed3754,%ED%95%9C%EA%B5%AD%EC%96%B4
HZ_2jLVATgWioAQNYUiXdw,newborntown,p1789}_509-817648,Install,0.8,182.219.216.117,e45bc70d-6499-4fc1-9035-59b2eef68496,1558147668,2019-05-18 10:47:48,1558147788,2019-05-18 10:49:48,1558147872,a81d04e1-ebac-435d-8a17-6da60ae999e2__pspm,http://pspm.pingstart.com/api/v4/postback?from=1706&clickid=a81d04e1-ebac-435d-8a17-6da60ae999e2__pspm,idfa_e45bc70d-6499-4fc1-9035-59b2eef68496,%ED%95%9C%EA%B5%AD%EC%96%B4
HZ_2jLVATgWioAQNYUiXdw,newborntown,p1789}_509-817648,Install,0.8,117.111.24.105,df58bfd6-27d2-4b94-87e3-a83903b58c3a,1558149693,2019-05-18 11:21:33,1558149821,2019-05-18 11:23:41,1558149852,19e5b6de-834c-4580-ab8c-445a4680e1f1__pspm,http://pspm.pingstart.com/api/v4/postback?from=1706&clickid=19e5b6de-834c-4580-ab8c-445a4680e1f1__pspm,idfa_df58bfd6-27d2-4b94-87e3-a83903b58c3a,%ED%95%9C%EA%B5%AD%EC%96%B4
HZ_2jLVATgWioAQNYUiXdw,newborntown,p1789}_509-817648,Install,0.8,117.111.28.230,a26df71b-5a3b-4078-b41a-ff41f5287373,1558148601,2019-05-18 11:03:21,1558148977,2019-05-18 11:09:37,1558149009,0613cdf5-d673-4986-8580-1b83b0587a12__pspm,http://pspm.pingstart.com/api/v4/postback?from=1706&clickid=0613cdf5-d673-4986-8580-1b83b0587a12__pspm,idfa_a26df71b-5a3b-4078-b41a-ff41f5287373,%ED%95%9C%EA%B5%AD%EC%96%B4
HZ_2jLVATgWioAQNYUiXdw,newborntown,p1789}_509-817648,Install,0.8,223.33.127.108,be53fb1a-9c79-4f54-8194-c74db166d791,1558150606,2019-05-18 11:36:46,1558150720,2019-05-18 11:38:40,1558150752,69a16641-0912-4157-9bb2-b7fd6cc973c8__pspm,http://pspm.pingstart.com/api/v4/postback?from=1706&clickid=69a16641-0912-4157-9bb2-b7fd6cc973c8__pspm,idfa_be53fb1a-9c79-4f54-8194-c74db166d791,%ED%95%9C%EA%B5%AD%EC%96%B4
HZ_2jLVATgWioAQNYUiXdw,newborntown,p1789}_509-817648,Install,0.8,49.164.43.82,fb0ad7d8-46e1-4e9d-864c-ac13bf963bb4,1558150997,2019-05-18 11:43:17,1558151155,2019-05-18 11:45:55,1558151186,81196589-fb31-449b-9ef5-f375b77322c3__pspm,http://pspm.pingstart.com/api/v4/postback?from=1706&clickid=81196589-fb31-449b-9ef5-f375b77322c3__pspm,idfa_fb0ad7d8-46e1-4e9d-864c-ac13bf963bb4,%ED%95%9C%EA%B5%AD%EC%96%B4
HZ_2jLVATgWioAQNYUiXdw,newborntown,p1789}_509-817648,Install,0.8,211.36.139.142,2bb13dbe-a703-4e88-9834-31013193753c,1558155618,2019-05-18 13:00:18,1558155738,2019-05-18 13:02:18,1558155768,3f067171-9861-4d2e-bb96-d6735e37ce8e__pspm,http://pspm.pingstart.com/api/v4/postback?from=1706&clickid=3f067171-9861-4d2e-bb96-d6735e37ce8e__pspm,idfa_2bb13dbe-a703-4e88-9834-31013193753c,%ED%95%9C%EA%B5%AD%EC%96%B4
HZ_2jLVATgWioAQNYUiXdw,newborntown,p1789}_509-817648,Install,0.8,1.241.10.143,ffb18434-a6b9-4dbe-8eaf-90f5a0d2b418,1558157056,2019-05-18 13:24:16,1558157177,2019-05-18 13:26:17,1558157211,f589aaf3-b1c6-4daf-939d-17b6a5c240ff__pspm,http://pspm.pingstart.com/api/v4/postback?from=1706&clickid=f589aaf3-b1c6-4daf-939d-17b6a5c240ff__pspm,idfa_ffb18434-a6b9-4dbe-8eaf-90f5a0d2b418,%ED%95%9C%EA%B5%AD%EC%96%B4
HZ_2jLVATgWioAQNYUiXdw,newborntown,p1789}_509-817648,Install,0.8,114.207.147.22,9fbf6f21-e15f-4fc3-9beb-0c00727a1d7b,1558150698,2019-05-18 11:38:18,1558150826,2019-05-18 11:40:26,1558150857,3305f569-f20a-4f70-9b60-4332b73a22da__pspm,http://pspm.pingstart.com/api/v4/postback?from=1706&clickid=3305f569-f20a-4f70-9b60-4332b73a22da__pspm,idfa_9fbf6f21-e15f-4fc3-9beb-0c00727a1d7b,%ED%95%9C%EA%B5%AD%EC%96%B4
HZ_2jLVATgWioAQNYUiXdw,newborntown,p1789}_509-817648,Install,0.8,39.119.5.124,e025a210-04c9-4bda-89e0-c7bbdb7c1ed3,1558150940,2019-05-18 11:42:20,1558151065,2019-05-18 11:44:25,1558151095,f39163df-e653-41e9-b63f-48741630ebfd__pspm,http://pspm.pingstart.com/api/v4/postback?from=1706&clickid=f39163df-e653-41e9-b63f-48741630ebfd__pspm,idfa_e025a210-04c9-4bda-89e0-c7bbdb7c1ed3,%ED%95%9C%EA%B5%AD%EC%96%B4
HZ_2jLVATgWioAQNYUiXdw,newborntown,p1789}_509-817648,Install,0.8,182.215.241.207,9529f93f-5622-40c1-8dfb-82366789d947,1558150178,2019-05-18 11:29:38,1558150331,2019-05-18 11:32:11,1558150362,ddca681f-d579-4d30-b586-09f1df050576__pspm,http://pspm.pingstart.com/api/v4/postback?from=1706&clickid=ddca681f-d579-4d30-b586-09f1df050576__pspm,idfa_9529f93f-5622-40c1-8dfb-82366789d947,%ED%95%9C%EA%B5%AD%EC%96%B4
HZ_2jLVATgWioAQNYUiXdw,newborntown,p1789}_509-817648,Install,0.8,218.54.163.73,12781564-71d2-4c87-abb5-c6847ad1f386,1558157410,2019-05-18 13:30:10,1558157536,2019-05-18 13:32:16,1558157569,1cf9a360-b09a-4d61-968c-28d0a28e5d70__pspm,http://pspm.pingstart.com/api/v4/postback?from=1706&clickid=1cf9a360-b09a-4d61-968c-28d0a28e5d70__pspm,idfa_12781564-71d2-4c87-abb5-c6847ad1f386,%ED%95%9C%EA%B5%AD%EC%96%B4
HZ_2jLVATgWioAQNYUiXdw,newborntown,p1789}_509-817648,Install,0.8,1.250.99.83,a5b6c32f-0618-4606-9612-4bce4364a4a0,1558157532,2019-05-18 13:32:12,1558160982,2019-05-18 14:29:42,1558161013,8104dcf9-7456-4bf9-a9d5-3d8c36cc6a86__pspm,http://pspm.pingstart.com/api/v4/postback?from=1706&clickid=8104dcf9-7456-4bf9-a9d5-3d8c36cc6a86__pspm,idfa_a5b6c32f-0618-4606-9612-4bce4364a4a0,%ED%95%9C%EA%B5%AD%EC%96%B4
HZ_2jLVATgWioAQNYUiXdw,newborntown,p1789}_509-817648,Install,0.8,175.223.27.61,c130ff38-df07-4465-a497-e54b8868cd07,1558157356,2019-05-18 13:29:16,1558157489,2019-05-18 13:31:29,1558157522,ded4a873-9e5a-4791-b6c8-bee72aea5a83__pspm,http://pspm.pingstart.com/api/v4/postback?from=1706&clickid=ded4a873-9e5a-4791-b6c8-bee72aea5a83__pspm,idfa_c130ff38-df07-4465-a497-e54b8868cd07,%ED%95%9C%EA%B5%AD%EC%96%B4
HZ_2jLVATgWioAQNYUiXdw,newborntown,p1789}_509-817648,Install,0.8,121.145.28.205,4df39ae5-99c2-41c1-aee2-22c860d5a64a,1558149937,2019-05-18 11:25:37,1558150057,2019-05-18 11:27:37,1558150088,d70766e1-2f71-459e-8ccf-97e92ab8e795__pspm,http://pspm.pingstart.com/api/v4/postback?from=1706&clickid=d70766e1-2f71-459e-8ccf-97e92ab8e795__pspm,idfa_4df39ae5-99c2-41c1-aee2-22c860d5a64a,%ED%95%9C%EA%B5%AD%EC%96%B4
HZ_2jLVATgWioAQNYUiXdw,newborntown,p1789}_509-817648,Install,0.8,223.38.17.188,8bbc8feb-10ac-40b6-84af-54a2b1cb58bb,1558151059,2019-05-18 11:44:19,1558151175,2019-05-18 11:46:15,1558151206,76a4193b-2928-478e-9c04-d8dd2a604883__pspm,http://pspm.pingstart.com/api/v4/postback?from=1706&clickid=76a4193b-2928-478e-9c04-d8dd2a604883__pspm,idfa_8bbc8feb-10ac-40b6-84af-54a2b1cb58bb,%ED%95%9C%EA%B5%AD%EC%96%B4
HZ_2jLVATgWioAQNYUiXdw,newborntown,p1789}_509-817648,Install,0.8,121.150.113.115,826d7032-258b-4945-89a4-f8d7d144e6f5,1558157499,2019-05-18 13:31:39,1558157619,2019-05-18 13:33:39,1558157651,079e685a-94d8-4185-826e-4e10e9079bd8__pspm,http://pspm.pingstart.com/api/v4/postback?from=1706&clickid=079e685a-94d8-4185-826e-4e10e9079bd8__pspm,idfa_826d7032-258b-4945-89a4-f8d7d144e6f5,%ED%95%9C%EA%B5%AD%EC%96%B4
HZ_2jLVATgWioAQNYUiXdw,newborntown,p1789}_509-817648,Install,0.8,61.102.113.78,22ab9137-f8bb-423a-8c0d-96d115f77ca7,1558154052,2019-05-18 12:34:12,1558154908,2019-05-18 12:48:28,1558154938,73d57e93-2bb5-49a6-a685-805a7ebfc0ac__pspm,http://pspm.pingstart.com/api/v4/postback?from=1706&clickid=73d57e93-2bb5-49a6-a685-805a7ebfc0ac__pspm,idfa_22ab9137-f8bb-423a-8c0d-96d115f77ca7,%ED%95%9C%EA%B5%AD%EC%96%B4
HZ_2jLVATgWioAQNYUiXdw,newborntown,p1789}_509-817648,Install,0.8,116.45.102.246,e05ad275-7f3f-4e29-8ee6-8cc31d5a9f0c,1558153932,2019-05-18 12:32:12,1558154053,2019-05-18 12:34:13,1558154084,be95bccd-8551-4e15-8476-ffcb3c29b810__pspm,http://pspm.pingstart.com/api/v4/postback?from=1706&clickid=be95bccd-8551-4e15-8476-ffcb3c29b810__pspm,idfa_e05ad275-7f3f-4e29-8ee6-8cc31d5a9f0c,%ED%95%9C%EA%B5%AD%EC%96%B4
HZ_2jLVATgWioAQNYUiXdw,newborntown,p1789}_509-817648,Install,0.8,39.7.15.253,867df3bf-e840-4d6f-b6de-a8393cd92164,1558157474,2019-05-18 13:31:14,1558157781,2019-05-18 13:36:21,1558157814,09e68bb2-8dd2-46f5-8065-3edf3cb22180__pspm,http://pspm.pingstart.com/api/v4/postback?from=1706&clickid=09e68bb2-8dd2-46f5-8065-3edf3cb22180__pspm,idfa_867df3bf-e840-4d6f-b6de-a8393cd92164,%ED%95%9C%EA%B5%AD%EC%96%B4
HZ_2jLVATgWioAQNYUiXdw,newborntown,p1789}_509-817648,Install,0.8,58.236.95.167,f88d794f-d13c-4e88-9621-1328478fb20d,1558157232,2019-05-18 13:27:12,1558157367,2019-05-18 13:29:27,1558157398,c163c20c-1099-4384-b5b9-ef71f1d50ed8__pspm,http://pspm.pingstart.com/api/v4/postback?from=1706&clickid=c163c20c-1099-4384-b5b9-ef71f1d50ed8__pspm,idfa_f88d794f-d13c-4e88-9621-1328478fb20d,%ED%95%9C%EA%B5%AD%EC%96%B4
HZ_2jLVATgWioAQNYUiXdw,newborntown,p1789}_509-817648,Install,0.8,223.39.149.187,daf7093d-27f9-4251-9cac-3f00f1aaf4c6,1558154535,2019-05-18 12:42:15,1558154652,2019-05-18 12:44:12,1558154682,6a912676-4362-438e-9960-08cb082a3b25__pspm,http://pspm.pingstart.com/api/v4/postback?from=1706&clickid=6a912676-4362-438e-9960-08cb082a3b25__pspm,idfa_daf7093d-27f9-4251-9cac-3f00f1aaf4c6,%ED%95%9C%EA%B5%AD%EC%96%B4
HZ_2jLVATgWioAQNYUiXdw,newborntown,p1789}_509-817648,Install,0.8,223.38.8.60,2a6a5e87-4c19-4662-9646-9b39695acb3a,1558156631,2019-05-18 13:17:11,1558157290,2019-05-18 13:28:10,1558157321,5e1b5adb-a070-4c04-8459-c161f252d506__pspm,http://pspm.pingstart.com/api/v4/postback?from=1706&clickid=5e1b5adb-a070-4c04-8459-c161f252d506__pspm,idfa_2a6a5e87-4c19-4662-9646-9b39695acb3a,%ED%95%9C%EA%B5%AD%EC%96%B4
HZ_2jLVATgWioAQNYUiXdw,newborntown,p1789}_509-817648,Install,0.8,223.33.28.121,2165a17d-ebce-4fa7-9785-7723b7cdcac1,1558150535,2019-05-18 11:35:35,1558150656,2019-05-18 11:37:36,1558150686,36f25891-0fc6-4fab-9ae7-81e60b44c79f__pspm,http://pspm.pingstart.com/api/v4/postback?from=1706&clickid=36f25891-0fc6-4fab-9ae7-81e60b44c79f__pspm,idfa_2165a17d-ebce-4fa7-9785-7723b7cdcac1,%ED%95%9C%EA%B5%AD%EC%96%B4
HZ_2jLVATgWioAQNYUiXdw,newborntown,p1789}_509-817648,Install,0.8,122.37.242.46,a8b47bac-fd47-412f-bf60-0e72000bfe76,1558155498,2019-05-18 12:58:18,1558155614,2019-05-18 13:00:14,1558155648,bc056758-3e12-42b8-ba58-2e189003c418__pspm,http://pspm.pingstart.com/api/v4/postback?from=1706&clickid=bc056758-3e12-42b8-ba58-2e189003c418__pspm,idfa_a8b47bac-fd47-412f-bf60-0e72000bfe76,%ED%95%9C%EA%B5%AD%EC%96%B4
HZ_2jLVATgWioAQNYUiXdw,newborntown,p1789}_509-817648,Install,0.8,118.47.64.216,f7971c20-94e1-490b-bcfc-c2d855dc6fdd,1558150821,2019-05-18 11:40:21,1558151030,2019-05-18 11:43:50,1558151068,808b1402-57c7-45c1-baaf-b492686e1b54__pspm,http://pspm.pingstart.com/api/v4/postback?from=1706&clickid=808b1402-57c7-45c1-baaf-b492686e1b54__pspm,idfa_f7971c20-94e1-490b-bcfc-c2d855dc6fdd,%ED%95%9C%EA%B5%AD%EC%96%B4
HZ_2jLVATgWioAQNYUiXdw,newborntown,p1789}_509-817648,Install,0.8,218.51.134.91,a78b2dda-05eb-4ee1-bd39-f626aa8d2727,1558149628,2019-05-18 11:20:28,1558149755,2019-05-18 11:22:35,1558149786,54a9c6e0-b1b0-4a67-b110-b0a076d162dd__pspm,http://pspm.pingstart.com/api/v4/postback?from=1706&clickid=54a9c6e0-b1b0-4a67-b110-b0a076d162dd__pspm,idfa_a78b2dda-05eb-4ee1-bd39-f626aa8d2727,%ED%95%9C%EA%B5%AD%EC%96%B4
HZ_2jLVATgWioAQNYUiXdw,newborntown,p1789}_509-817648,Install,0.8,211.178.205.157,f86ecd28-c6e8-4596-87b1-30048ae2589e,1558148666,2019-05-18 11:04:26,1558148837,2019-05-18 11:07:17,1558148868,3488bea1-5d92-4979-b7cd-9f11c1210375__pspm,http://pspm.pingstart.com/api/v4/postback?from=1706&clickid=3488bea1-5d92-4979-b7cd-9f11c1210375__pspm,idfa_f86ecd28-c6e8-4596-87b1-30048ae2589e,%ED%95%9C%EA%B5%AD%EC%96%B4
HZ_2jLVATgWioAQNYUiXdw,newborntown,p1789}_509-817648,Install,0.8,123.215.49.124,f35353b5-471b-4d07-b65c-17e0835d9709,1558148786,2019-05-18 11:06:26,1558148976,2019-05-18 11:09:36,1558149007,5825e872-9ec9-48b4-9d1c-77b08e81baf5__pspm,http://pspm.pingstart.com/api/v4/postback?from=1706&clickid=5825e872-9ec9-48b4-9d1c-77b08e81baf5__pspm,idfa_f35353b5-471b-4d07-b65c-17e0835d9709,%ED%95%9C%EA%B5%AD%EC%96%B4
HZ_2jLVATgWioAQNYUiXdw,newborntown,p1789}_509-817648,Install,0.8,202.14.90.176,8924057e-76df-4aa2-8452-6ed95ef1ad7f,1558154744,2019-05-18 12:45:44,1558154835,2019-05-18 12:47:15,1558154866,18dbddf4-652c-4843-ab39-9bc4f14639f9__pspm,http://pspm.pingstart.com/api/v4/postback?from=1706&clickid=18dbddf4-652c-4843-ab39-9bc4f14639f9__pspm,idfa_8924057e-76df-4aa2-8452-6ed95ef1ad7f,%ED%95%9C%EA%B5%AD%EC%96%B4
HZ_2jLVATgWioAQNYUiXdw,newborntown,p1789}_509-817648,Install,0.8,180.228.50.148,d69531e4-9bc4-4b9f-a1be-0449d7b92ff3,1558150422,2019-05-18 11:33:42,1558150668,2019-05-18 11:37:48,1558150700,d9ade0d9-9bba-4619-b24f-ced4d3a3f790__pspm,http://pspm.pingstart.com/api/v4/postback?from=1706&clickid=d9ade0d9-9bba-4619-b24f-ced4d3a3f790__pspm,idfa_d69531e4-9bc4-4b9f-a1be-0449d7b92ff3,%ED%95%9C%EA%B5%AD%EC%96%B4
HZ_2jLVATgWioAQNYUiXdw,newborntown,p1789}_509-817648,Install,0.8,175.195.181.210,9890ea0c-7101-4cbc-8158-6763e7262b21,1558149993,2019-05-18 11:26:33,1558150110,2019-05-18 11:28:30,1558150141,d8952e36-1fff-46aa-8fec-f1ea07e8c9a8__pspm,http://pspm.pingstart.com/api/v4/postback?from=1706&clickid=d8952e36-1fff-46aa-8fec-f1ea07e8c9a8__pspm,idfa_9890ea0c-7101-4cbc-8158-6763e7262b21,%ED%95%9C%EA%B5%AD%EC%96%B4
HZ_2jLVATgWioAQNYUiXdw,newborntown,p1789}_509-817648,Install,0.8,125.190.37.90,fb755969-a814-4c44-b179-7c2a19da1258,1558156941,2019-05-18 13:22:21,1558157086,2019-05-18 13:24:46,1558157127,db594f78-29d0-4555-a78b-7957382d2f21__pspm,http://pspm.pingstart.com/api/v4/postback?from=1706&clickid=db594f78-29d0-4555-a78b-7957382d2f21__pspm,idfa_fb755969-a814-4c44-b179-7c2a19da1258,%ED%95%9C%EA%B5%AD%EC%96%B4
HZ_2jLVATgWioAQNYUiXdw,newborntown,p1789}_509-817648,Install,0.8,39.7.55.177,4a741dc6-e56f-4820-ad68-0175dcd2bb63,1558150355,2019-05-18 11:32:35,1558150546,2019-05-18 11:35:46,1558150577,9c42eda7-ac93-4c98-92c9-bfcec3a5e5d8__pspm,http://pspm.pingstart.com/api/v4/postback?from=1706&clickid=9c42eda7-ac93-4c98-92c9-bfcec3a5e5d8__pspm,idfa_4a741dc6-e56f-4820-ad68-0175dcd2bb63,%ED%95%9C%EA%B5%AD%EC%96%B4
HZ_2jLVATgWioAQNYUiXdw,newborntown,p1789}_509-817648,Install,0.8,125.129.112.49,d43b9322-00db-41c1-b93d-cea6eebf0cc7,1558156694,2019-05-18 13:18:14,1558156830,2019-05-18 13:20:30,1558156862,266f23e1-75eb-4e78-9683-d4322dfc81ee__pspm,http://pspm.pingstart.com/api/v4/postback?from=1706&clickid=266f23e1-75eb-4e78-9683-d4322dfc81ee__pspm,idfa_d43b9322-00db-41c1-b93d-cea6eebf0cc7,%ED%95%9C%EA%B5%AD%EC%96%B4
HZ_2jLVATgWioAQNYUiXdw,newborntown,p1789}_509-817648,Install,0.8,211.208.139.44,c20ba778-bdba-4b9f-be23-023f31b6c57e,1558156452,2019-05-18 13:14:12,1558156573,2019-05-18 13:16:13,1558156604,ed668acd-24f8-45c7-98d7-a5659a202faf__pspm,http://pspm.pingstart.com/api/v4/postback?from=1706&clickid=ed668acd-24f8-45c7-98d7-a5659a202faf__pspm,idfa_c20ba778-bdba-4b9f-be23-023f31b6c57e,%ED%95%9C%EA%B5%AD%EC%96%B4
HZ_2jLVATgWioAQNYUiXdw,newborntown,p1789}_509-817648,Install,0.8,222.114.190.111,a6d3d20f-307f-49fb-869f-1abef2a778c1,1558155740,2019-05-18 13:02:20,1558155865,2019-05-18 13:04:25,1558155896,1cbd772c-17d6-45eb-94f5-7c3219c1b887__pspm,http://pspm.pingstart.com/api/v4/postback?from=1706&clickid=1cbd772c-17d6-45eb-94f5-7c3219c1b887__pspm,idfa_a6d3d20f-307f-49fb-869f-1abef2a778c1,%ED%95%9C%EA%B5%AD%EC%96%B4
HZ_2jLVATgWioAQNYUiXdw,newborntown,p1789}_509-817648,Install,0.8,112.214.26.135,8e4ed5b4-975c-4227-8c2c-a29b0923b8e5,1558150291,2019-05-18 11:31:31,1558150450,2019-05-18 11:34:10,1558150480,f1b3d925-f0d3-4e55-af19-8dfa452d7458__pspm,http://pspm.pingstart.com/api/v4/postback?from=1706&clickid=f1b3d925-f0d3-4e55-af19-8dfa452d7458__pspm,idfa_8e4ed5b4-975c-4227-8c2c-a29b0923b8e5,%ED%95%9C%EA%B5%AD%EC%96%B4
