cid,partner_id,channel_id,action_id,cpi,ip,idfa,click time,click datetime,install time,install datetime,postback time,click id,postback url,unique user id
6Uo10DO4QziBAFCGtpcLJQ,newborntown,p1776_49_1020_106461,Install,0.62,114.5.144.96,99acab97-4128-4b72-a07c-068cf1640373,1557821464,2019-05-14 16:11:04,1557821542,2019-05-14 16:12:22,1557821573,07282be7-ef20-4a14-89ba-51fa29ac523a__pspm,http://pspm.pingstart.com/api/v4/postback?from=1706&clickid=07282be7-ef20-4a14-89ba-51fa29ac523a__pspm,idfa_99acab97-4128-4b72-a07c-068cf1640373,Indonesia
6Uo10DO4QziBAFCGtpcLJQ,newborntown,p1776_49_1020_106461,Install,0.62,182.1.29.175,16a5604d-bf15-40e0-9af6-a9f2b94df369,1557822782,2019-05-14 16:33:02,1557822851,2019-05-14 16:34:11,1557822882,7826a451-2300-4f1a-a48e-b64fe97cd292__pspm,http://pspm.pingstart.com/api/v4/postback?from=1706&clickid=7826a451-2300-4f1a-a48e-b64fe97cd292__pspm,idfa_16a5604d-bf15-40e0-9af6-a9f2b94df369,Indonesia
6Uo10DO4QziBAFCGtpcLJQ,newborntown,p1776_49_1020_106461,Install,0.62,121.101.132.192,8b78f8a8-4eb2-48d2-bddc-a024ead5e57e,1557822193,2019-05-14 16:23:13,1557822272,2019-05-14 16:24:32,1557822304,b9de8a5c-50a8-45c3-b50e-9277c5d3217a__pspm,http://pspm.pingstart.com/api/v4/postback?from=1706&clickid=b9de8a5c-50a8-45c3-b50e-9277c5d3217a__pspm,idfa_8b78f8a8-4eb2-48d2-bddc-a024ead5e57e,Indonesia
6Uo10DO4QziBAFCGtpcLJQ,newborntown,p1776_49_1020_106461,Install,0.62,140.213.32.122,af1d231a-98a5-4714-a1b7-b2791fcddb08,1557822074,2019-05-14 16:21:14,1557822157,2019-05-14 16:22:37,1557822241,e88f3c8a-6c8f-445d-91fb-1829142db7de__pspm,http://pspm.pingstart.com/api/v4/postback?from=1706&clickid=e88f3c8a-6c8f-445d-91fb-1829142db7de__pspm,idfa_af1d231a-98a5-4714-a1b7-b2791fcddb08,Bahasa%20Indonesia
6Uo10DO4QziBAFCGtpcLJQ,newborntown,p1776_49_1020_106461,Install,0.62,116.206.14.13,83d96f53-3f8b-4cc3-91d8-5da23932617c,1557822555,2019-05-14 16:29:15,1557822648,2019-05-14 16:30:48,1557822679,b30a67dc-df66-4de2-9888-d9cd2e09c33c__pspm,http://pspm.pingstart.com/api/v4/postback?from=1706&clickid=b30a67dc-df66-4de2-9888-d9cd2e09c33c__pspm,idfa_83d96f53-3f8b-4cc3-91d8-5da23932617c,Bahasa%20Indonesia
6Uo10DO4QziBAFCGtpcLJQ,newborntown,p1776_49_1020_106461,Install,0.62,114.124.137.23,f61040d8-7d84-4ffd-81a8-7ba098ce5242,1557823033,2019-05-14 16:37:13,1557823156,2019-05-14 16:39:16,1557823193,4563363c-3411-4165-aee8-9f2b9afc5f8b__pspm,http://pspm.pingstart.com/api/v4/postback?from=1706&clickid=4563363c-3411-4165-aee8-9f2b9afc5f8b__pspm,idfa_f61040d8-7d84-4ffd-81a8-7ba098ce5242,Indonesia
6Uo10DO4QziBAFCGtpcLJQ,newborntown,p1776_49_1020_106461,Install,0.62,115.178.236.210,56b3081b-4e7f-4f5b-a898-f86b8242203e,1557822081,2019-05-14 16:21:21,1557822150,2019-05-14 16:22:30,1557822183,105d7b82-19f1-408c-ab1a-7900f9b72d53__pspm,http://pspm.pingstart.com/api/v4/postback?from=1706&clickid=105d7b82-19f1-408c-ab1a-7900f9b72d53__pspm,idfa_56b3081b-4e7f-4f5b-a898-f86b8242203e,Indonesia
6Uo10DO4QziBAFCGtpcLJQ,newborntown,p1776_49_1020_106461,Install,0.62,182.1.41.49,40db33a9-c07e-4e1a-8ad0-d45ac128e10d,1557822376,2019-05-14 16:26:16,1557822456,2019-05-14 16:27:36,1557822487,3d0c2c3c-c049-40e2-8afc-4e49236c965d__pspm,http://pspm.pingstart.com/api/v4/postback?from=1706&clickid=3d0c2c3c-c049-40e2-8afc-4e49236c965d__pspm,idfa_40db33a9-c07e-4e1a-8ad0-d45ac128e10d,Indonesia
6Uo10DO4QziBAFCGtpcLJQ,newborntown,p1776_49_1020_106461,Install,0.62,114.125.78.19,14f8e75b-2a62-4305-a89a-16b41d29d7ea,1557822439,2019-05-14 16:27:19,1557822526,2019-05-14 16:28:46,1557822556,687a075b-5e8a-4a11-9bbe-024257647aa7__pspm,http://pspm.pingstart.com/api/v4/postback?from=1706&clickid=687a075b-5e8a-4a11-9bbe-024257647aa7__pspm,idfa_14f8e75b-2a62-4305-a89a-16b41d29d7ea,Indonesia
6Uo10DO4QziBAFCGtpcLJQ,newborntown,p1776_49_1020_106461,Install,0.62,182.1.185.168,9382aee1-8330-435a-8fd9-98cf68031abd,1557822375,2019-05-14 16:26:15,1557822457,2019-05-14 16:27:37,1557822754,09020bda-7e4b-4e15-aa45-f89a798b46c9__pspm,http://pspm.pingstart.com/api/v4/postback?from=1706&clickid=09020bda-7e4b-4e15-aa45-f89a798b46c9__pspm,idfa_9382aee1-8330-435a-8fd9-98cf68031abd,Indonesia
6Uo10DO4QziBAFCGtpcLJQ,newborntown,p1776_49_1020_106461,Install,0.62,120.188.94.115,725d49d7-6498-443a-99fa-108b767c5c3e,1557822073,2019-05-14 16:21:13,1557822160,2019-05-14 16:22:40,1557822190,ab72db43-1740-4070-9adf-f524c6b26513__pspm,http://pspm.pingstart.com/api/v4/postback?from=1706&clickid=ab72db43-1740-4070-9adf-f524c6b26513__pspm,idfa_725d49d7-6498-443a-99fa-108b767c5c3e,Bahasa%20Indonesia
6Uo10DO4QziBAFCGtpcLJQ,newborntown,p1776_49_1020_106461,Install,0.62,202.67.46.29,5dc3fe11-a9c3-4105-b14f-fe9580ce3fb7,1557821886,2019-05-14 16:18:06,1557822145,2019-05-14 16:22:25,1557822177,6cba59f7-d9a2-45d9-825f-c029b142bc5e__pspm,http://pspm.pingstart.com/api/v4/postback?from=1706&clickid=6cba59f7-d9a2-45d9-825f-c029b142bc5e__pspm,idfa_5dc3fe11-a9c3-4105-b14f-fe9580ce3fb7,Bahasa%20Indonesia
6Uo10DO4QziBAFCGtpcLJQ,newborntown,p1776_49_1020_106461,Install,0.62,114.125.92.209,67c5240c-eb0c-4476-b18e-19db30cac231,1557822375,2019-05-14 16:26:15,1557822615,2019-05-14 16:30:15,1557822646,cbeb1401-bc02-47a5-a687-1046fec49232__pspm,http://pspm.pingstart.com/api/v4/postback?from=1706&clickid=cbeb1401-bc02-47a5-a687-1046fec49232__pspm,idfa_67c5240c-eb0c-4476-b18e-19db30cac231,Indonesia
6Uo10DO4QziBAFCGtpcLJQ,newborntown,p1776_49_1020_106461,Install,0.62,125.164.178.168,084ed33a-2844-476d-b9d9-c64be3943b3a,1557822860,2019-05-14 16:34:20,1557825866,2019-05-14 17:24:26,1557825897,45b00c3e-0986-42c8-ba29-728644302ffc__pspm,http://pspm.pingstart.com/api/v4/postback?from=1706&clickid=45b00c3e-0986-42c8-ba29-728644302ffc__pspm,idfa_084ed33a-2844-476d-b9d9-c64be3943b3a,Indonesia
6Uo10DO4QziBAFCGtpcLJQ,newborntown,p1776_49_1020_106461,Install,0.62,36.82.97.57,eb945d4b-9a75-4dc9-9fe0-4919f05228e8,1557822555,2019-05-14 16:29:15,1557822640,2019-05-14 16:30:40,1557822671,5add154f-3c14-4017-9e47-8b58ee1e4f83__pspm,http://pspm.pingstart.com/api/v4/postback?from=1706&clickid=5add154f-3c14-4017-9e47-8b58ee1e4f83__pspm,idfa_eb945d4b-9a75-4dc9-9fe0-4919f05228e8,Bahasa%20Indonesia
6Uo10DO4QziBAFCGtpcLJQ,newborntown,p1776_49_1020_106461,Install,0.62,118.96.125.28,0436490b-7ce5-4ddc-9756-602927ce77dd,1557823096,2019-05-14 16:38:16,1557823181,2019-05-14 16:39:41,1557823211,1baddb79-2302-4925-8046-b3ac7c98b0b2__pspm,http://pspm.pingstart.com/api/v4/postback?from=1706&clickid=1baddb79-2302-4925-8046-b3ac7c98b0b2__pspm,idfa_0436490b-7ce5-4ddc-9756-602927ce77dd,Indonesia
6Uo10DO4QziBAFCGtpcLJQ,newborntown,p1776_49_1020_106461,Install,0.62,182.0.210.3,3c07e5b6-9ca7-4e5b-9dbc-a0db806b36d6,1557822435,2019-05-14 16:27:15,1557822509,2019-05-14 16:28:29,1557822540,84b0faef-fa5a-49e5-8f1e-1ceca1c169f0__pspm,http://pspm.pingstart.com/api/v4/postback?from=1706&clickid=84b0faef-fa5a-49e5-8f1e-1ceca1c169f0__pspm,idfa_3c07e5b6-9ca7-4e5b-9dbc-a0db806b36d6,Bahasa%20Indonesia
6Uo10DO4QziBAFCGtpcLJQ,newborntown,p1776_49_1020_106461,Install,0.62,114.142.169.59,92a53769-7d28-4c7e-862b-8b40eba851b6,1557822197,2019-05-14 16:23:17,1557822273,2019-05-14 16:24:33,1557822305,11951b2e-d1d6-4c0f-9ec7-1b24e15ab091__pspm,http://pspm.pingstart.com/api/v4/postback?from=1706&clickid=11951b2e-d1d6-4c0f-9ec7-1b24e15ab091__pspm,idfa_92a53769-7d28-4c7e-862b-8b40eba851b6,English
6Uo10DO4QziBAFCGtpcLJQ,newborntown,p1776_49_1020_106461,Install,0.62,114.124.239.129,3fc7fba4-7376-4572-97fc-78a152bac049,1557822673,2019-05-14 16:31:13,1557822756,2019-05-14 16:32:36,1557822787,ec8492ef-2638-4c5e-891b-91ba3fc74c2e__pspm,http://pspm.pingstart.com/api/v4/postback?from=1706&clickid=ec8492ef-2638-4c5e-891b-91ba3fc74c2e__pspm,idfa_3fc7fba4-7376-4572-97fc-78a152bac049,Indonesia
6Uo10DO4QziBAFCGtpcLJQ,newborntown,p1776_49_1020_106461,Install,0.62,114.124.230.215,337e6b98-99db-407d-bf6f-43e0316c46c0,1557822903,2019-05-14 16:35:03,1557822976,2019-05-14 16:36:16,1557823007,b9bbcb4b-c697-4cef-be38-dee21cef8e2d__pspm,http://pspm.pingstart.com/api/v4/postback?from=1706&clickid=b9bbcb4b-c697-4cef-be38-dee21cef8e2d__pspm,idfa_337e6b98-99db-407d-bf6f-43e0316c46c0,English
6Uo10DO4QziBAFCGtpcLJQ,newborntown,p1776_49_1020_106461,Install,0.62,114.142.168.48,8dab2faf-7827-4305-ae65-bc13391b2662,1557822621,2019-05-14 16:30:21,1557823334,2019-05-14 16:42:14,1557823364,f4c5690a-f229-414b-8c53-d30c5009646f__pspm,http://pspm.pingstart.com/api/v4/postback?from=1706&clickid=f4c5690a-f229-414b-8c53-d30c5009646f__pspm,idfa_8dab2faf-7827-4305-ae65-bc13391b2662,Indonesia
6Uo10DO4QziBAFCGtpcLJQ,newborntown,p1776_49_1020_106461,Install,0.62,36.82.96.63,3e878aaa-904f-472a-987d-96bd2bfd8c39,1557823035,2019-05-14 16:37:15,1557823110,2019-05-14 16:38:30,1557823141,e77281b5-2257-4e84-90ff-5f40bd7e04c9__pspm,http://pspm.pingstart.com/api/v4/postback?from=1706&clickid=e77281b5-2257-4e84-90ff-5f40bd7e04c9__pspm,idfa_3e878aaa-904f-472a-987d-96bd2bfd8c39,Indonesia
6Uo10DO4QziBAFCGtpcLJQ,newborntown,p1776_49_1020_106461,Install,0.62,112.215.245.8,ad894345-dc93-4e5f-b47e-f65a3afeabad,1557822134,2019-05-14 16:22:14,1557822214,2019-05-14 16:23:34,1557822246,a41e431e-700f-4358-b73f-57b3f4c925fb__pspm,http://pspm.pingstart.com/api/v4/postback?from=1706&clickid=a41e431e-700f-4358-b73f-57b3f4c925fb__pspm,idfa_ad894345-dc93-4e5f-b47e-f65a3afeabad,Indonesia
6Uo10DO4QziBAFCGtpcLJQ,newborntown,p1776_49_1020_106461,Install,0.62,180.254.141.136,3832747b-bf90-4f49-84a2-43ed3638c019,1557822977,2019-05-14 16:36:17,1557823114,2019-05-14 16:38:34,1557823145,7f408eb4-5738-4759-bd2a-d73284f778b7__pspm,http://pspm.pingstart.com/api/v4/postback?from=1706&clickid=7f408eb4-5738-4759-bd2a-d73284f778b7__pspm,idfa_3832747b-bf90-4f49-84a2-43ed3638c019,Indonesia
6Uo10DO4QziBAFCGtpcLJQ,newborntown,p1776_49_1020_106461,Install,0.62,114.124.232.137,789a03af-3713-4675-8a90-aceb5f22b2ea,1557822307,2019-05-14 16:25:07,1557822371,2019-05-14 16:26:11,1557822402,05031ff3-9d9e-462b-a731-6c6fe509ed0a__pspm,http://pspm.pingstart.com/api/v4/postback?from=1706&clickid=05031ff3-9d9e-462b-a731-6c6fe509ed0a__pspm,idfa_789a03af-3713-4675-8a90-aceb5f22b2ea,Bahasa%20Indonesia
6Uo10DO4QziBAFCGtpcLJQ,newborntown,p1776_49_1020_106461,Install,0.62,116.206.36.1,e8e4a50b-034f-402c-9976-efca3acb41bf,1557822202,2019-05-14 16:23:22,1557822286,2019-05-14 16:24:46,1557822318,f79a750a-ce87-43e5-a8d5-9478f00d198a__pspm,http://pspm.pingstart.com/api/v4/postback?from=1706&clickid=f79a750a-ce87-43e5-a8d5-9478f00d198a__pspm,idfa_e8e4a50b-034f-402c-9976-efca3acb41bf,Indonesia
6Uo10DO4QziBAFCGtpcLJQ,newborntown,p1776_49_1020_106461,Install,0.62,182.1.36.216,cae15882-c469-4baf-97c4-45140b85f75a,1557823152,2019-05-14 16:39:12,1557823235,2019-05-14 16:40:35,1557823266,2914aae9-baf9-4f4c-85ac-8dfa8132f916__pspm,http://pspm.pingstart.com/api/v4/postback?from=1706&clickid=2914aae9-baf9-4f4c-85ac-8dfa8132f916__pspm,idfa_cae15882-c469-4baf-97c4-45140b85f75a,Indonesia
6Uo10DO4QziBAFCGtpcLJQ,newborntown,p1776_49_1020_106461,Install,0.62,103.213.130.201,91cc3ae9-14a1-48ce-ac10-fe9a945b37f6,1557822374,2019-05-14 16:26:14,1557822456,2019-05-14 16:27:36,1557822488,c30ce0f6-adb4-4132-b083-f14040c6b6e6__pspm,http://pspm.pingstart.com/api/v4/postback?from=1706&clickid=c30ce0f6-adb4-4132-b083-f14040c6b6e6__pspm,idfa_91cc3ae9-14a1-48ce-ac10-fe9a945b37f6,English
6Uo10DO4QziBAFCGtpcLJQ,newborntown,p1776_49_1020_106461,Install,0.62,125.165.152.46,ed9a4fc1-5aca-4ac5-a85f-72b3725c4f91,1557822032,2019-05-14 16:20:32,1557825066,2019-05-14 17:11:06,1557825098,30117955-a770-4c79-b4dc-551f99bd2fbe__pspm,http://pspm.pingstart.com/api/v4/postback?from=1706&clickid=30117955-a770-4c79-b4dc-551f99bd2fbe__pspm,idfa_ed9a4fc1-5aca-4ac5-a85f-72b3725c4f91,Bahasa%20Indonesia
6Uo10DO4QziBAFCGtpcLJQ,newborntown,p1776_49_1020_106461,Install,0.62,140.213.28.184,0992c8ee-e458-4a3d-b71c-9087c651f146,1557822076,2019-05-14 16:21:16,1557822151,2019-05-14 16:22:31,1557822191,a20b4bf4-b3a5-48a6-94dd-a6170eff804f__pspm,http://pspm.pingstart.com/api/v4/postback?from=1706&clickid=a20b4bf4-b3a5-48a6-94dd-a6170eff804f__pspm,idfa_0992c8ee-e458-4a3d-b71c-9087c651f146,Indonesia
6Uo10DO4QziBAFCGtpcLJQ,newborntown,p1776_49_1020_106461,Install,0.62,36.72.185.200,b2b430b8-6a9f-4a71-b11d-f78fddc8a9a7,1557822612,2019-05-14 16:30:12,1557822697,2019-05-14 16:31:37,1557823078,70d7f660-8c62-4b46-b5c4-ea6b2576f624__pspm,http://pspm.pingstart.com/api/v4/postback?from=1706&clickid=70d7f660-8c62-4b46-b5c4-ea6b2576f624__pspm,idfa_b2b430b8-6a9f-4a71-b11d-f78fddc8a9a7,Bahasa%20Indonesia
6Uo10DO4QziBAFCGtpcLJQ,newborntown,p1776_49_1020_106461,Install,0.62,36.90.153.134,53f40a69-8c87-4263-b0d6-a239ecead246,1557822273,2019-05-14 16:24:33,1557822337,2019-05-14 16:25:37,1557822368,6b56acae-1c4b-48c5-b080-c3f4c0d5540f__pspm,http://pspm.pingstart.com/api/v4/postback?from=1706&clickid=6b56acae-1c4b-48c5-b080-c3f4c0d5540f__pspm,idfa_53f40a69-8c87-4263-b0d6-a239ecead246,Bahasa%20Indonesia
6Uo10DO4QziBAFCGtpcLJQ,newborntown,p1776_49_1020_106461,Install,0.62,36.84.240.38,9f256650-5f0d-4d80-b410-2cac95b1fb30,1557822255,2019-05-14 16:24:15,1557823200,2019-05-14 16:40:00,1557823232,ff9b4ab0-db59-4a8e-9e6a-829c41509f25__pspm,http://pspm.pingstart.com/api/v4/postback?from=1706&clickid=ff9b4ab0-db59-4a8e-9e6a-829c41509f25__pspm,idfa_9f256650-5f0d-4d80-b410-2cac95b1fb30,Indonesia
6Uo10DO4QziBAFCGtpcLJQ,newborntown,p1776_49_1020_106461,Install,0.62,182.253.232.162,427a1d59-bfe8-47a6-9b96-21badfe36fa5,1557822611,2019-05-14 16:30:11,1557822694,2019-05-14 16:31:34,1557822725,d5cd1b5e-21ac-479f-822c-a72aa5869fb1__pspm,http://pspm.pingstart.com/api/v4/postback?from=1706&clickid=d5cd1b5e-21ac-479f-822c-a72aa5869fb1__pspm,idfa_427a1d59-bfe8-47a6-9b96-21badfe36fa5,Indonesia
6Uo10DO4QziBAFCGtpcLJQ,newborntown,p1776_49_1020_106461,Install,0.62,116.206.28.31,27d10e31-78dd-46bd-ad2b-ea6b1e1e3e06,1557822318,2019-05-14 16:25:18,1557822400,2019-05-14 16:26:40,1557822431,e52e3e71-389d-4fdd-a286-e1f68d95b605__pspm,http://pspm.pingstart.com/api/v4/postback?from=1706&clickid=e52e3e71-389d-4fdd-a286-e1f68d95b605__pspm,idfa_27d10e31-78dd-46bd-ad2b-ea6b1e1e3e06,English
6Uo10DO4QziBAFCGtpcLJQ,newborntown,p1776_49_1020_106461,Install,0.62,140.0.78.241,ad1a765c-6770-4718-b562-bea03eba5be1,1557823153,2019-05-14 16:39:13,1557823231,2019-05-14 16:40:31,1557823263,e2e4b64b-94d4-4eae-9cd5-8847e12fd1a9__pspm,http://pspm.pingstart.com/api/v4/postback?from=1706&clickid=e2e4b64b-94d4-4eae-9cd5-8847e12fd1a9__pspm,idfa_ad1a765c-6770-4718-b562-bea03eba5be1,English
6Uo10DO4QziBAFCGtpcLJQ,newborntown,p1776_49_1020_106461,Install,0.62,115.178.254.131,58b0d5d8-165e-45c7-8b6a-7b8be77cf6c1,1557823035,2019-05-14 16:37:15,1557823160,2019-05-14 16:39:20,1557823191,e918f8c2-bad9-40de-9052-9e00fe3b0073__pspm,http://pspm.pingstart.com/api/v4/postback?from=1706&clickid=e918f8c2-bad9-40de-9052-9e00fe3b0073__pspm,idfa_58b0d5d8-165e-45c7-8b6a-7b8be77cf6c1,Indonesia
6Uo10DO4QziBAFCGtpcLJQ,newborntown,p1776_49_1020_106461,Install,0.62,180.249.200.212,e672eff4-dba6-4066-ab57-fc18b83a7bc8,1557822257,2019-05-14 16:24:17,1557823174,2019-05-14 16:39:34,1557823205,64e21183-0135-43ed-8379-9cbb62fbea0e__pspm,http://pspm.pingstart.com/api/v4/postback?from=1706&clickid=64e21183-0135-43ed-8379-9cbb62fbea0e__pspm,idfa_e672eff4-dba6-4066-ab57-fc18b83a7bc8,Indonesia
6Uo10DO4QziBAFCGtpcLJQ,newborntown,p1776_49_1020_106461,Install,0.62,115.178.203.54,a4d01a9f-26e7-437e-a277-6c9db6c66b2a,1557822435,2019-05-14 16:27:15,1557822781,2019-05-14 16:33:01,1557822812,815879f1-10da-40a8-9314-c1932a6f56f8__pspm,http://pspm.pingstart.com/api/v4/postback?from=1706&clickid=815879f1-10da-40a8-9314-c1932a6f56f8__pspm,idfa_a4d01a9f-26e7-437e-a277-6c9db6c66b2a,Bahasa%20Indonesia
6Uo10DO4QziBAFCGtpcLJQ,newborntown,p1776_49_1020_106461,Install,0.62,112.215.209.48,ad0a3c0b-88d9-4795-a57a-ed123e17124d,1557822078,2019-05-14 16:21:18,1557822155,2019-05-14 16:22:35,1557822187,d2aa9be4-224a-4e5b-bfcc-deb552d6cb33__pspm,http://pspm.pingstart.com/api/v4/postback?from=1706&clickid=d2aa9be4-224a-4e5b-bfcc-deb552d6cb33__pspm,idfa_ad0a3c0b-88d9-4795-a57a-ed123e17124d,Bahasa%20Indonesia
6Uo10DO4QziBAFCGtpcLJQ,newborntown,p1776_49_1020_106461,Install,0.62,116.206.14.9,f42d525d-2bb5-43f0-94be-2f5e2d803e83,1557822436,2019-05-14 16:27:16,1557822513,2019-05-14 16:28:33,1557822545,02aeda7b-0de1-4d91-b2b8-fc5a460e6688__pspm,http://pspm.pingstart.com/api/v4/postback?from=1706&clickid=02aeda7b-0de1-4d91-b2b8-fc5a460e6688__pspm,idfa_f42d525d-2bb5-43f0-94be-2f5e2d803e83,English
6Uo10DO4QziBAFCGtpcLJQ,newborntown,p1776_49_1020_106461,Install,0.62,114.5.217.142,b17de33f-ff31-4671-8ecd-27c518be7687,1557823147,2019-05-14 16:39:07,1557823180,2019-05-14 16:39:40,1557823211,fa606dbf-6302-4541-8162-c9d4dd745c63__pspm,http://pspm.pingstart.com/api/v4/postback?from=1706&clickid=fa606dbf-6302-4541-8162-c9d4dd745c63__pspm,idfa_b17de33f-ff31-4671-8ecd-27c518be7687,Bahasa%20Indonesia
6Uo10DO4QziBAFCGtpcLJQ,newborntown,p1776_49_1020_106461,Install,0.62,114.124.196.223,05c82eba-0d15-47bd-a85c-a229116684e1,1557822917,2019-05-14 16:35:17,1557822998,2019-05-14 16:36:38,1557823030,3063b0b6-d13c-419b-9ef2-232057320c35__pspm,http://pspm.pingstart.com/api/v4/postback?from=1706&clickid=3063b0b6-d13c-419b-9ef2-232057320c35__pspm,idfa_05c82eba-0d15-47bd-a85c-a229116684e1,Bahasa%20Indonesia
6Uo10DO4QziBAFCGtpcLJQ,newborntown,p1776_49_1020_106461,Install,0.62,120.188.7.149,8c6053f4-b787-4142-a30d-bf7aa6e1c850,1557822530,2019-05-14 16:28:50,1557822960,2019-05-14 16:36:00,1557822991,a65e575d-1e4b-4264-bbd6-a480661b3890__pspm,http://pspm.pingstart.com/api/v4/postback?from=1706&clickid=a65e575d-1e4b-4264-bbd6-a480661b3890__pspm,idfa_8c6053f4-b787-4142-a30d-bf7aa6e1c850,English
6Uo10DO4QziBAFCGtpcLJQ,newborntown,p1776_49_1020_106461,Install,0.62,116.206.40.36,8a153b0d-b4ae-451b-baf7-aa8345bdfe52,1557822137,2019-05-14 16:22:17,1557822210,2019-05-14 16:23:30,1557822241,a82898c1-9852-4e7c-8e1a-ab5358fd8e94__pspm,http://pspm.pingstart.com/api/v4/postback?from=1706&clickid=a82898c1-9852-4e7c-8e1a-ab5358fd8e94__pspm,idfa_8a153b0d-b4ae-451b-baf7-aa8345bdfe52,Bahasa%20Indonesia
6Uo10DO4QziBAFCGtpcLJQ,newborntown,p1776_49_1020_106461,Install,0.62,140.213.9.142,2c07edb1-deb7-4bef-a03f-e16c8e66fdd5,1557822617,2019-05-14 16:30:17,1557822700,2019-05-14 16:31:40,1557822731,5737edf3-b6c3-430c-9ca3-ec3a1283683f__pspm,http://pspm.pingstart.com/api/v4/postback?from=1706&clickid=5737edf3-b6c3-430c-9ca3-ec3a1283683f__pspm,idfa_2c07edb1-deb7-4bef-a03f-e16c8e66fdd5,Bahasa%20Indonesia
6Uo10DO4QziBAFCGtpcLJQ,newborntown,p1776_49_1020_106461,Install,0.62,120.188.86.123,3f40e624-6f6c-4e9e-8d4c-b1f13e423971,1557822620,2019-05-14 16:30:20,1557822691,2019-05-14 16:31:31,1557822723,29d5bd46-44bc-4591-add3-c6a8a84dff38__pspm,http://pspm.pingstart.com/api/v4/postback?from=1706&clickid=29d5bd46-44bc-4591-add3-c6a8a84dff38__pspm,idfa_3f40e624-6f6c-4e9e-8d4c-b1f13e423971,Indonesia
6Uo10DO4QziBAFCGtpcLJQ,newborntown,p1776_49_1020_106461,Install,0.62,114.124.136.46,9936ac69-a0e7-49ae-a72b-a40c9b70ca9e,1557821691,2019-05-14 16:14:51,1557821766,2019-05-14 16:16:06,1557821797,852e2bbe-0c2a-45e6-9d64-8c4ad4c9069e__pspm,http://pspm.pingstart.com/api/v4/postback?from=1706&clickid=852e2bbe-0c2a-45e6-9d64-8c4ad4c9069e__pspm,idfa_9936ac69-a0e7-49ae-a72b-a40c9b70ca9e,Indonesia
6Uo10DO4QziBAFCGtpcLJQ,newborntown,p1776_49_1020_106461,Install,0.62,114.124.246.210,860c1fc1-a25a-49ca-819b-880c718258dc,1557822872,2019-05-14 16:34:32,1557823021,2019-05-14 16:37:01,1557823052,615ad384-7456-420a-9735-32809a8298eb__pspm,http://pspm.pingstart.com/api/v4/postback?from=1706&clickid=615ad384-7456-420a-9735-32809a8298eb__pspm,idfa_860c1fc1-a25a-49ca-819b-880c718258dc,Bahasa%20Indonesia
6Uo10DO4QziBAFCGtpcLJQ,newborntown,p1776_49_1020_106461,Install,0.62,180.248.120.203,1923cf2c-2150-49c2-bdd3-d8626cb25aff,1557822319,2019-05-14 16:25:19,1557822398,2019-05-14 16:26:38,1557822429,89a51b3c-07c3-4388-ade7-283f9437a596__pspm,http://pspm.pingstart.com/api/v4/postback?from=1706&clickid=89a51b3c-07c3-4388-ade7-283f9437a596__pspm,idfa_1923cf2c-2150-49c2-bdd3-d8626cb25aff,Indonesia
6Uo10DO4QziBAFCGtpcLJQ,newborntown,p1776_49_1020_106461,Install,0.62,114.125.202.214,0dd07c20-00f5-402e-bc60-5eec11b5ab41,1557823004,2019-05-14 16:36:44,1557823060,2019-05-14 16:37:40,1557823091,72f90e08-bdee-468b-86bd-a2181a071b34__pspm,http://pspm.pingstart.com/api/v4/postback?from=1706&clickid=72f90e08-bdee-468b-86bd-a2181a071b34__pspm,idfa_0dd07c20-00f5-402e-bc60-5eec11b5ab41,Indonesia
6Uo10DO4QziBAFCGtpcLJQ,newborntown,p1776_49_1020_106461,Install,0.62,140.213.23.27,4d5c0edd-3a43-480c-b458-7e2179444ff1,1557821924,2019-05-14 16:18:44,1557822009,2019-05-14 16:20:09,1557822040,8c962aab-7cf3-4aab-a249-43f311840591__pspm,http://pspm.pingstart.com/api/v4/postback?from=1706&clickid=8c962aab-7cf3-4aab-a249-43f311840591__pspm,idfa_4d5c0edd-3a43-480c-b458-7e2179444ff1,Bahasa%20Indonesia
6Uo10DO4QziBAFCGtpcLJQ,newborntown,p1776_49_1020_106461,Install,0.62,114.124.203.46,14801b01-33ce-47a1-b527-3eb336c0fe26,1557822976,2019-05-14 16:36:16,1557823053,2019-05-14 16:37:33,1557823083,759ea432-932f-4d68-a1ac-8448795b139d__pspm,http://pspm.pingstart.com/api/v4/postback?from=1706&clickid=759ea432-932f-4d68-a1ac-8448795b139d__pspm,idfa_14801b01-33ce-47a1-b527-3eb336c0fe26,Bahasa%20Indonesia
6Uo10DO4QziBAFCGtpcLJQ,newborntown,p1776_49_1020_106461,Install,0.62,114.124.176.55,eeb44c5a-660b-410e-9e5e-d37de1021a7f,1557822198,2019-05-14 16:23:18,1557822276,2019-05-14 16:24:36,1557822307,1201a941-cfa8-44f4-b51f-e254ded6f620__pspm,http://pspm.pingstart.com/api/v4/postback?from=1706&clickid=1201a941-cfa8-44f4-b51f-e254ded6f620__pspm,idfa_eeb44c5a-660b-410e-9e5e-d37de1021a7f,Bahasa%20Indonesia
6Uo10DO4QziBAFCGtpcLJQ,newborntown,p1776_49_1020_106461,Install,0.62,120.188.92.239,25cab23b-33ac-4bbb-b0eb-37a66a8671ba,1557822259,2019-05-14 16:24:19,1557822333,2019-05-14 16:25:33,1557822363,a5f2c25d-420b-4735-80e3-ac93c184ab35__pspm,http://pspm.pingstart.com/api/v4/postback?from=1706&clickid=a5f2c25d-420b-4735-80e3-ac93c184ab35__pspm,idfa_25cab23b-33ac-4bbb-b0eb-37a66a8671ba,Bahasa%20Indonesia
6Uo10DO4QziBAFCGtpcLJQ,newborntown,p1776_49_1020_106461,Install,0.62,36.77.105.113,a3e16ccb-696d-4102-9e92-c003efa6d33b,1557822569,2019-05-14 16:29:29,1557822637,2019-05-14 16:30:37,1557822668,d2a4ee97-386d-42a9-9123-b167d43bfd79__pspm,http://pspm.pingstart.com/api/v4/postback?from=1706&clickid=d2a4ee97-386d-42a9-9123-b167d43bfd79__pspm,idfa_a3e16ccb-696d-4102-9e92-c003efa6d33b,Indonesia
6Uo10DO4QziBAFCGtpcLJQ,newborntown,p1776_49_1020_106461,Install,0.62,202.67.41.222,be353586-af8f-4e0d-8c02-2634701e5f96,1557821782,2019-05-14 16:16:22,1557821871,2019-05-14 16:17:51,1557821903,42fc743c-bddf-4866-a588-72f392080f3a__pspm,http://pspm.pingstart.com/api/v4/postback?from=1706&clickid=42fc743c-bddf-4866-a588-72f392080f3a__pspm,idfa_be353586-af8f-4e0d-8c02-2634701e5f96,Bahasa%20Indonesia
6Uo10DO4QziBAFCGtpcLJQ,newborntown,p1776_49_1020_106461,Install,0.62,114.124.213.214,df075a91-4d59-42b1-9a32-f74ecedf0066,1557822075,2019-05-14 16:21:15,1557822165,2019-05-14 16:22:45,1557822196,51113c57-cbff-4c1b-9616-7803e3d1c53f__pspm,http://pspm.pingstart.com/api/v4/postback?from=1706&clickid=51113c57-cbff-4c1b-9616-7803e3d1c53f__pspm,idfa_df075a91-4d59-42b1-9a32-f74ecedf0066,Bahasa%20Indonesia
6Uo10DO4QziBAFCGtpcLJQ,newborntown,p1776_49_1020_106461,Install,0.62,112.215.175.115,580d4983-de66-4d9f-8127-eec3b9c09f82,1557822020,2019-05-14 16:20:20,1557822088,2019-05-14 16:21:28,1557822119,6b7eb6d5-f292-43a6-9d91-4c17d9ee419a__pspm,http://pspm.pingstart.com/api/v4/postback?from=1706&clickid=6b7eb6d5-f292-43a6-9d91-4c17d9ee419a__pspm,idfa_580d4983-de66-4d9f-8127-eec3b9c09f82,Bahasa%20Indonesia
6Uo10DO4QziBAFCGtpcLJQ,newborntown,p1776_49_1020_106461,Install,0.62,182.1.53.224,9547c9df-34d5-4573-90b8-b307109f6b94,1557822317,2019-05-14 16:25:17,1557822426,2019-05-14 16:27:06,1557822457,35221a24-752c-4637-811c-427915c04548__pspm,http://pspm.pingstart.com/api/v4/postback?from=1706&clickid=35221a24-752c-4637-811c-427915c04548__pspm,idfa_9547c9df-34d5-4573-90b8-b307109f6b94,Indonesia
6Uo10DO4QziBAFCGtpcLJQ,newborntown,p1776_49_1020_106461,Install,0.62,117.102.66.4,6f0b6ca3-8e8b-4628-8e39-1031dfd8b76d,1557822554,2019-05-14 16:29:14,1557822732,2019-05-14 16:32:12,1557822766,a5d1d502-61e8-4369-bd23-6921f6038586__pspm,http://pspm.pingstart.com/api/v4/postback?from=1706&clickid=a5d1d502-61e8-4369-bd23-6921f6038586__pspm,idfa_6f0b6ca3-8e8b-4628-8e39-1031dfd8b76d,Indonesia
6Uo10DO4QziBAFCGtpcLJQ,newborntown,p1776_49_1020_106461,Install,0.62,202.182.164.100,ca2fa190-e83b-4276-b618-43ab576e5fb2,1557821597,2019-05-14 16:13:17,1557821651,2019-05-14 16:14:11,1557821685,4852b568-8527-4a1b-b406-bda373d6157a__pspm,http://pspm.pingstart.com/api/v4/postback?from=1706&clickid=4852b568-8527-4a1b-b406-bda373d6157a__pspm,idfa_ca2fa190-e83b-4276-b618-43ab576e5fb2,Bahasa%20Indonesia
6Uo10DO4QziBAFCGtpcLJQ,newborntown,p1776_49_1020_106461,Install,0.62,202.67.43.33,a2f1c8b5-2862-4800-b6e0-fde1ec7663c0,1557822496,2019-05-14 16:28:16,1557822616,2019-05-14 16:30:16,1557822647,9ce752ef-ccdc-423b-8401-08682fe5be88__pspm,http://pspm.pingstart.com/api/v4/postback?from=1706&clickid=9ce752ef-ccdc-423b-8401-08682fe5be88__pspm,idfa_a2f1c8b5-2862-4800-b6e0-fde1ec7663c0,Bahasa%20Indonesia
6Uo10DO4QziBAFCGtpcLJQ,newborntown,p1776_49_1020_106461,Install,0.62,182.0.213.42,47e6c967-0552-409e-8260-54aace917765,1557821485,2019-05-14 16:11:25,1557821569,2019-05-14 16:12:49,1557821600,1bad6cf5-5a6f-4694-8be5-5c4b70cfaa35__pspm,http://pspm.pingstart.com/api/v4/postback?from=1706&clickid=1bad6cf5-5a6f-4694-8be5-5c4b70cfaa35__pspm,idfa_47e6c967-0552-409e-8260-54aace917765,Bahasa%20Indonesia
6Uo10DO4QziBAFCGtpcLJQ,newborntown,p1776_49_1020_106461,Install,0.62,140.213.45.101,3eaac5ce-e618-46de-a478-a4b7e8f4468c,1557822561,2019-05-14 16:29:21,1557822636,2019-05-14 16:30:36,1557822667,759ac822-2777-4266-80cb-ca71fd389e33__pspm,http://pspm.pingstart.com/api/v4/postback?from=1706&clickid=759ac822-2777-4266-80cb-ca71fd389e33__pspm,idfa_3eaac5ce-e618-46de-a478-a4b7e8f4468c,Indonesia
6Uo10DO4QziBAFCGtpcLJQ,newborntown,p1776_49_1020_106461,Install,0.62,114.125.175.246,f727891b-6a81-48fe-b733-4d2fcf761e54,1557822437,2019-05-14 16:27:17,1557822518,2019-05-14 16:28:38,1557822551,0f5acb04-9a10-4def-8e61-deddcdd005eb__pspm,http://pspm.pingstart.com/api/v4/postback?from=1706&clickid=0f5acb04-9a10-4def-8e61-deddcdd005eb__pspm,idfa_f727891b-6a81-48fe-b733-4d2fcf761e54,Indonesia
6Uo10DO4QziBAFCGtpcLJQ,newborntown,p1776_49_1020_106461,Install,0.62,112.215.230.85,4a321346-3197-49be-9198-3c9d221c4262,1557823034,2019-05-14 16:37:14,1557823113,2019-05-14 16:38:33,1557823144,0611ff4c-f5f3-4e56-8dbb-c35280a0d22a__pspm,http://pspm.pingstart.com/api/v4/postback?from=1706&clickid=0611ff4c-f5f3-4e56-8dbb-c35280a0d22a__pspm,idfa_4a321346-3197-49be-9198-3c9d221c4262,Indonesia
6Uo10DO4QziBAFCGtpcLJQ,newborntown,p1776_49_1020_106461,Install,0.62,114.142.168.1,ce684494-5bb5-4742-bed8-ffc8db3e5347,1557822407,2019-05-14 16:26:47,1557822851,2019-05-14 16:34:11,1557822882,7c16ec82-8a11-49dd-baaf-89a12f4242b9__pspm,http://pspm.pingstart.com/api/v4/postback?from=1706&clickid=7c16ec82-8a11-49dd-baaf-89a12f4242b9__pspm,idfa_ce684494-5bb5-4742-bed8-ffc8db3e5347,Bahasa%20Indonesia
