cid,partner_id,channel_id,action_id,cpi,ip,idfa,click time,click datetime,install time,install datetime,postback time,click id,postback url,unique user id
UCvDm7DoTRaejq4Y6wKGSQ,newborntown,p1865_8s__5nf2nuuuh46c4cff7err,Install,1.2,59.22.56.220,c570263c-77e1-47b0-8d36-2f68507c1df2,1559068458,2019-05-29 02:34:18,1559068603,2019-05-29 02:36:43,1559068636,f3c7e373-01a5-41d1-96a0-0dbae92dea01__pspm,http://pspm.pingstart.com/api/v4/postback?from=1706&clickid=f3c7e373-01a5-41d1-96a0-0dbae92dea01__pspm,idfa_c570263c-77e1-47b0-8d36-2f68507c1df2,%ED%95%9C%EA%B5%AD%EC%96%B4
UCvDm7DoTRaejq4Y6wKGSQ,newborntown,p1865_8s__5nf2nuuuh46c4cff7err,Install,1.2,175.116.32.51,da7d791b-02d7-4a2a-9ad4-623c7499d45b,1559069846,2019-05-29 02:57:26,1559070059,2019-05-29 03:00:59,1559070092,ef8c5d2e-1098-4704-97f7-23f93a71530a__pspm,http://pspm.pingstart.com/api/v4/postback?from=1706&clickid=ef8c5d2e-1098-4704-97f7-23f93a71530a__pspm,idfa_da7d791b-02d7-4a2a-9ad4-623c7499d45b,%ED%95%9C%EA%B5%AD%EC%96%B4
UCvDm7DoTRaejq4Y6wKGSQ,newborntown,p1865_8s__5nf2nuuuh46c4cff7err,Install,1.2,183.106.12.59,e68d7933-1e9a-4825-ab87-6fd014e833cf,1559068419,2019-05-29 02:33:39,1559068648,2019-05-29 02:37:28,1559068680,d022f5be-3ad2-421a-9ad7-f67c1467e056__pspm,http://pspm.pingstart.com/api/v4/postback?from=1706&clickid=d022f5be-3ad2-421a-9ad7-f67c1467e056__pspm,idfa_e68d7933-1e9a-4825-ab87-6fd014e833cf,%ED%95%9C%EA%B5%AD%EC%96%B4
UCvDm7DoTRaejq4Y6wKGSQ,newborntown,p1865_8s__5nf2nuuuh46c4cff7err,Install,1.2,221.148.61.230,48c20e2a-8160-4130-991c-a9483e6bcf23,1559074960,2019-05-29 04:22:40,1559075170,2019-05-29 04:26:10,1559075201,310d755e-8816-42fd-982a-dad6b0046657__pspm,http://pspm.pingstart.com/api/v4/postback?from=1706&clickid=310d755e-8816-42fd-982a-dad6b0046657__pspm,idfa_48c20e2a-8160-4130-991c-a9483e6bcf23,%ED%95%9C%EA%B5%AD%EC%96%B4
UCvDm7DoTRaejq4Y6wKGSQ,newborntown,p1865_8s__5nf2nuuuh46c4cff7err,Install,1.2,116.47.174.186,4b70964d-1d39-4f75-a3c9-5dd96c9d5f20,1559070112,2019-05-29 03:01:52,1559070323,2019-05-29 03:05:23,1559070354,4f7597fc-5bbb-48f6-9d21-3e5b56db0668__pspm,http://pspm.pingstart.com/api/v4/postback?from=1706&clickid=4f7597fc-5bbb-48f6-9d21-3e5b56db0668__pspm,idfa_4b70964d-1d39-4f75-a3c9-5dd96c9d5f20,%ED%95%9C%EA%B5%AD%EC%96%B4
UCvDm7DoTRaejq4Y6wKGSQ,newborntown,p1865_8s__5nf2nuuuh46c4cff7err,Install,1.2,118.36.198.188,6ab47f7d-f312-48d0-9982-750c9a19cbad,1559075321,2019-05-29 04:28:41,1559075503,2019-05-29 04:31:43,1559075535,0f273063-bdd0-4370-86d3-7f130d2ce7c5__pspm,http://pspm.pingstart.com/api/v4/postback?from=1706&clickid=0f273063-bdd0-4370-86d3-7f130d2ce7c5__pspm,idfa_6ab47f7d-f312-48d0-9982-750c9a19cbad,%ED%95%9C%EA%B5%AD%EC%96%B4
UCvDm7DoTRaejq4Y6wKGSQ,newborntown,p1865_8s__5nf2nuuuh46c4cff7err,Install,1.2,58.238.43.83,d396af11-c799-48e3-b00f-73b3bec42f98,1559070523,2019-05-29 03:08:43,1559070739,2019-05-29 03:12:19,1559070769,b9ff28a0-b517-4642-8976-8d860fe5d4cc__pspm,http://pspm.pingstart.com/api/v4/postback?from=1706&clickid=b9ff28a0-b517-4642-8976-8d860fe5d4cc__pspm,idfa_d396af11-c799-48e3-b00f-73b3bec42f98,%ED%95%9C%EA%B5%AD%EC%96%B4
UCvDm7DoTRaejq4Y6wKGSQ,newborntown,p1865_8s__5nf2nuuuh46c4cff7err,Install,1.2,121.200.71.245,1ceb79c8-d667-4a0a-bfac-9740b0609e86,1559067895,2019-05-29 02:24:55,1559068081,2019-05-29 02:28:01,1559068111,05179354-3ba8-406c-ab33-34076fa66cfc__pspm,http://pspm.pingstart.com/api/v4/postback?from=1706&clickid=05179354-3ba8-406c-ab33-34076fa66cfc__pspm,idfa_1ceb79c8-d667-4a0a-bfac-9740b0609e86,%ED%95%9C%EA%B5%AD%EC%96%B4
UCvDm7DoTRaejq4Y6wKGSQ,newborntown,p1865_8s__5nf2nuuuh46c4cff7err,Install,1.2,115.31.127.136,3a383378-43e5-43bf-a499-25af1edcfe1a,1559068684,2019-05-29 02:38:04,1559068847,2019-05-29 02:40:47,1559068878,13984d03-e154-4f1d-8d87-ffcf33616fb4__pspm,http://pspm.pingstart.com/api/v4/postback?from=1706&clickid=13984d03-e154-4f1d-8d87-ffcf33616fb4__pspm,idfa_3a383378-43e5-43bf-a499-25af1edcfe1a,%ED%95%9C%EA%B5%AD%EC%96%B4
UCvDm7DoTRaejq4Y6wKGSQ,newborntown,p1865_8s__5nf2nuuuh46c4cff7err,Install,1.2,14.5.162.254,6f066d5f-96e5-41dd-a4d1-0acc77e0334b,1559074417,2019-05-29 04:13:37,1559074627,2019-05-29 04:17:07,1559074657,32f1ab22-5062-4fc8-8ec1-a2155c92cc3a__pspm,http://pspm.pingstart.com/api/v4/postback?from=1706&clickid=32f1ab22-5062-4fc8-8ec1-a2155c92cc3a__pspm,idfa_6f066d5f-96e5-41dd-a4d1-0acc77e0334b,%ED%95%9C%EA%B5%AD%EC%96%B4
UCvDm7DoTRaejq4Y6wKGSQ,newborntown,p1865_8s__5nf2nuuuh46c4cff7err,Install,1.2,222.238.6.94,9f24e508-37b7-4225-b855-52eb637e7c91,1559070652,2019-05-29 03:10:52,1559070901,2019-05-29 03:15:01,1559070932,73ebba54-1bcc-4186-a775-f9f672abbdfd__pspm,http://pspm.pingstart.com/api/v4/postback?from=1706&clickid=73ebba54-1bcc-4186-a775-f9f672abbdfd__pspm,idfa_9f24e508-37b7-4225-b855-52eb637e7c91,%ED%95%9C%EA%B5%AD%EC%96%B4
UCvDm7DoTRaejq4Y6wKGSQ,newborntown,p1865_8s__5nf2nuuuh46c4cff7err,Install,1.2,118.221.40.197,d06ca3f3-e124-47b1-8850-e8e0bf361cce,1559070670,2019-05-29 03:11:10,1559070908,2019-05-29 03:15:08,1559070940,ae4043e4-30be-4003-9cd0-9feb772b7946__pspm,http://pspm.pingstart.com/api/v4/postback?from=1706&clickid=ae4043e4-30be-4003-9cd0-9feb772b7946__pspm,idfa_d06ca3f3-e124-47b1-8850-e8e0bf361cce,%ED%95%9C%EA%B5%AD%EC%96%B4
UCvDm7DoTRaejq4Y6wKGSQ,newborntown,p1865_8s__5nf2nuuuh46c4cff7err,Install,1.2,118.219.179.244,abfb60b4-7943-4c28-aa33-52ccb0e785a6,1559070519,2019-05-29 03:08:39,1559070743,2019-05-29 03:12:23,1559070774,46c6ab8a-34ff-475d-b592-efd50f3f3021__pspm,http://pspm.pingstart.com/api/v4/postback?from=1706&clickid=46c6ab8a-34ff-475d-b592-efd50f3f3021__pspm,idfa_abfb60b4-7943-4c28-aa33-52ccb0e785a6,%ED%95%9C%EA%B5%AD%EC%96%B4
UCvDm7DoTRaejq4Y6wKGSQ,newborntown,p1865_8s__5nf2nuuuh46c4cff7err,Install,1.2,218.148.177.10,022fc627-ea5d-4a1d-8edc-90330ce23d0b,1559068677,2019-05-29 02:37:57,1559068835,2019-05-29 02:40:35,1559068867,7f06d404-6b6d-4496-ac53-aef3c5dcc017__pspm,http://pspm.pingstart.com/api/v4/postback?from=1706&clickid=7f06d404-6b6d-4496-ac53-aef3c5dcc017__pspm,idfa_022fc627-ea5d-4a1d-8edc-90330ce23d0b,%ED%95%9C%EA%B5%AD%EC%96%B4
UCvDm7DoTRaejq4Y6wKGSQ,newborntown,p1865_8s__5nf2nuuuh46c4cff7err,Install,1.2,121.88.71.154,9c84af5e-5c21-47d7-9335-23eeb8c15f57,1559069066,2019-05-29 02:44:26,1559069280,2019-05-29 02:48:00,1559069310,647ea7f9-31b4-4f48-abd4-28096981fc20__pspm,http://pspm.pingstart.com/api/v4/postback?from=1706&clickid=647ea7f9-31b4-4f48-abd4-28096981fc20__pspm,idfa_9c84af5e-5c21-47d7-9335-23eeb8c15f57,%ED%95%9C%EA%B5%AD%EC%96%B4
UCvDm7DoTRaejq4Y6wKGSQ,newborntown,p1865_8s__5nf2nuuuh46c4cff7err,Install,1.2,116.40.159.198,9848a0a9-e0ce-423e-857f-ffb0c87a753d,1559069973,2019-05-29 02:59:33,1559070211,2019-05-29 03:03:31,1559070242,0254f1b5-569d-4c08-848c-d806a7017d49__pspm,http://pspm.pingstart.com/api/v4/postback?from=1706&clickid=0254f1b5-569d-4c08-848c-d806a7017d49__pspm,idfa_9848a0a9-e0ce-423e-857f-ffb0c87a753d,%ED%95%9C%EA%B5%AD%EC%96%B4
UCvDm7DoTRaejq4Y6wKGSQ,newborntown,p1865_8s__5nf2nuuuh46c4cff7err,Install,1.2,221.151.116.165,70b2d0e7-6b0c-4c45-add4-f386045d38c4,1559071179,2019-05-29 03:19:39,1559071400,2019-05-29 03:23:20,1559071431,43794719-8902-44f5-9293-a5c924bbf4a3__pspm,http://pspm.pingstart.com/api/v4/postback?from=1706&clickid=43794719-8902-44f5-9293-a5c924bbf4a3__pspm,idfa_70b2d0e7-6b0c-4c45-add4-f386045d38c4,%ED%95%9C%EA%B5%AD%EC%96%B4
UCvDm7DoTRaejq4Y6wKGSQ,newborntown,p1865_8s__5nf2nuuuh46c4cff7err,Install,1.2,124.49.72.82,3a06ada8-5e48-467e-a5ab-01d2265c9a03,1559068809,2019-05-29 02:40:09,1559069017,2019-05-29 02:43:37,1559069047,9d8c2871-096b-4b69-958a-9d77a01f33e7__pspm,http://pspm.pingstart.com/api/v4/postback?from=1706&clickid=9d8c2871-096b-4b69-958a-9d77a01f33e7__pspm,idfa_3a06ada8-5e48-467e-a5ab-01d2265c9a03,%ED%95%9C%EA%B5%AD%EC%96%B4
UCvDm7DoTRaejq4Y6wKGSQ,newborntown,p1865_8s__5nf2nuuuh46c4cff7err,Install,1.2,106.252.233.132,da9e7e86-8756-4876-b31d-fb655ad4446b,1559072729,2019-05-29 03:45:29,1559072917,2019-05-29 03:48:37,1559072947,aff9c68d-9a0e-41ed-965b-bc87f7d4d460__pspm,http://pspm.pingstart.com/api/v4/postback?from=1706&clickid=aff9c68d-9a0e-41ed-965b-bc87f7d4d460__pspm,idfa_da9e7e86-8756-4876-b31d-fb655ad4446b,%ED%95%9C%EA%B5%AD%EC%96%B4
UCvDm7DoTRaejq4Y6wKGSQ,newborntown,p1865_8s__5nf2nuuuh46c4cff7err,Install,1.2,119.65.179.82,7453bdd2-1984-4732-bb36-7875fb9f99e8,1559075066,2019-05-29 04:24:26,1559075288,2019-05-29 04:28:08,1559075318,6f3d46a4-8079-45f0-a498-6286f19f91d7__pspm,http://pspm.pingstart.com/api/v4/postback?from=1706&clickid=6f3d46a4-8079-45f0-a498-6286f19f91d7__pspm,idfa_7453bdd2-1984-4732-bb36-7875fb9f99e8,%ED%95%9C%EA%B5%AD%EC%96%B4
UCvDm7DoTRaejq4Y6wKGSQ,newborntown,p1865_8s__5nf2nuuuh46c4cff7err,Install,1.2,59.9.79.174,3d3f98ac-aad2-4de6-814b-af584946e9e1,1559071196,2019-05-29 03:19:56,1559071381,2019-05-29 03:23:01,1559071412,61d18239-ad31-4f91-9588-787fd7cb0c84__pspm,http://pspm.pingstart.com/api/v4/postback?from=1706&clickid=61d18239-ad31-4f91-9588-787fd7cb0c84__pspm,idfa_3d3f98ac-aad2-4de6-814b-af584946e9e1,%ED%95%9C%EA%B5%AD%EC%96%B4
UCvDm7DoTRaejq4Y6wKGSQ,newborntown,p1865_8s__5nf2nuuuh46c4cff7err,Install,1.2,106.252.233.132,81337837-3f46-4bd8-85fc-7dfeaac522a9,1559068424,2019-05-29 02:33:44,1559068621,2019-05-29 02:37:01,1559068652,20c0f900-a382-453d-bc9e-393bf0df4976__pspm,http://pspm.pingstart.com/api/v4/postback?from=1706&clickid=20c0f900-a382-453d-bc9e-393bf0df4976__pspm,idfa_81337837-3f46-4bd8-85fc-7dfeaac522a9,%ED%95%9C%EA%B5%AD%EC%96%B4
UCvDm7DoTRaejq4Y6wKGSQ,newborntown,p1865_8s__5nf2nuuuh46c4cff7err,Install,1.2,122.34.164.89,c809fcb6-7e30-4150-b8e8-186cce3864fb,1559075080,2019-05-29 04:24:40,1559075289,2019-05-29 04:28:09,1559075319,d67aaefa-45c9-4e5b-acc9-af5cfd567863__pspm,http://pspm.pingstart.com/api/v4/postback?from=1706&clickid=d67aaefa-45c9-4e5b-acc9-af5cfd567863__pspm,idfa_c809fcb6-7e30-4150-b8e8-186cce3864fb,%ED%95%9C%EA%B5%AD%EC%96%B4
