cid,partner_id,channel_id,action_id,cpi,ip,idfa,click time,click datetime,install time,install datetime,postback time,click id,postback url,unique user id
YtAHfaB_S0uXZXcDAzf9bg,newborntown,p1802_107173_2562_10017_12172,Install,1.8,118.128.253.118,575caeb7-dcc7-4cc1-a9cf-8d0bb50c60b6,1558236236,2019-05-19 11:23:56,1558236424,2019-05-19 11:27:04,1558236455,9e92626f-51fb-4937-ad98-1d148956c74a__pspm,http://pspm.pingstart.com/api/v4/postback?from=1706&clickid=9e92626f-51fb-4937-ad98-1d148956c74a__pspm,idfa_575caeb7-dcc7-4cc1-a9cf-8d0bb50c60b6,%ED%95%9C%EA%B5%AD%EC%96%B4
YtAHfaB_S0uXZXcDAzf9bg,newborntown,p1802_107173_2562_10017_12172,Install,1.8,39.112.26.27,c39832a1-292d-4b97-9e92-c29fd1271175,1558011625,2019-05-16 21:00:25,1558011791,2019-05-16 21:03:11,1558011823,9766b0fd-865d-4864-973b-8030c40c25ef__pspm,http://pspm.pingstart.com/api/v4/postback?from=1706&clickid=9766b0fd-865d-4864-973b-8030c40c25ef__pspm,idfa_c39832a1-292d-4b97-9e92-c29fd1271175,%ED%95%9C%EA%B5%AD%EC%96%B4
YtAHfaB_S0uXZXcDAzf9bg,newborntown,p1802_107173_2562_10017_12172,Install,1.8,58.120.126.155,935211dd-f80f-4856-97e4-5c334c125695,1558236066,2019-05-19 11:21:06,1558236224,2019-05-19 11:23:44,1558236255,5ee5e7d1-1c1b-42d7-9bb9-5ec13755392d__pspm,http://pspm.pingstart.com/api/v4/postback?from=1706&clickid=5ee5e7d1-1c1b-42d7-9bb9-5ec13755392d__pspm,idfa_935211dd-f80f-4856-97e4-5c334c125695,%ED%95%9C%EA%B5%AD%EC%96%B4
YtAHfaB_S0uXZXcDAzf9bg,newborntown,p1802_107173_2562_10017_12172,Install,1.8,118.46.210.94,dac4a082-2853-4155-9299-b534d2174f1c,1558007242,2019-05-16 19:47:22,1558007350,2019-05-16 19:49:10,1558007382,d6aaa762-0221-4136-9f40-a6cda7bc775c__pspm,http://pspm.pingstart.com/api/v4/postback?from=1706&clickid=d6aaa762-0221-4136-9f40-a6cda7bc775c__pspm,idfa_dac4a082-2853-4155-9299-b534d2174f1c,%ED%95%9C%EA%B5%AD%EC%96%B4
YtAHfaB_S0uXZXcDAzf9bg,newborntown,p1802_107173_2562_10017_12172,Install,1.8,222.100.67.191,13aadb72-8f67-4416-a002-939c053de9c0,1558007092,2019-05-16 19:44:52,1558007208,2019-05-16 19:46:48,1558007240,1e66a79e-fa32-42a0-b5da-e3e0346567bf__pspm,http://pspm.pingstart.com/api/v4/postback?from=1706&clickid=1e66a79e-fa32-42a0-b5da-e3e0346567bf__pspm,idfa_13aadb72-8f67-4416-a002-939c053de9c0,%ED%95%9C%EA%B5%AD%EC%96%B4
YtAHfaB_S0uXZXcDAzf9bg,newborntown,p1802_107173_2562_10017_12172,Install,1.8,49.165.132.144,c53baf98-a04d-4bf3-89b7-870878c80efa,1558010144,2019-05-16 20:35:44,1558010294,2019-05-16 20:38:14,1558010325,d93e6681-5660-4c66-b520-f1741e7c6f1c__pspm,http://pspm.pingstart.com/api/v4/postback?from=1706&clickid=d93e6681-5660-4c66-b520-f1741e7c6f1c__pspm,idfa_c53baf98-a04d-4bf3-89b7-870878c80efa,%ED%95%9C%EA%B5%AD%EC%96%B4
YtAHfaB_S0uXZXcDAzf9bg,newborntown,p1802_107173_2562_10017_12172,Install,1.8,218.234.139.113,d9b1d84f-de6a-3b03-8869-a65d9619c0d0,1558230652,2019-05-19 09:50:52,1558230829,2019-05-19 09:53:49,1558230891,dd7dbbd7-8599-4a7b-9e0b-a16d6fed2777__pspm,http://pspm.pingstart.com/api/v4/postback?from=1706&clickid=dd7dbbd7-8599-4a7b-9e0b-a16d6fed2777__pspm,idfa_d9b1d84f-de6a-3b03-8869-a65d9619c0d0,%ED%95%9C%EA%B5%AD%EC%96%B4
YtAHfaB_S0uXZXcDAzf9bg,newborntown,p1802_107173_2562_10017_12172,Install,1.8,59.14.203.248,e615fbae-327b-4472-9dd4-5214fb486caf,1558242929,2019-05-19 13:15:29,1558243162,2019-05-19 13:19:22,1558243194,cb58738a-41ee-48b6-8d79-3b4a172a9de9__pspm,http://pspm.pingstart.com/api/v4/postback?from=1706&clickid=cb58738a-41ee-48b6-8d79-3b4a172a9de9__pspm,idfa_e615fbae-327b-4472-9dd4-5214fb486caf,%ED%95%9C%EA%B5%AD%EC%96%B4
YtAHfaB_S0uXZXcDAzf9bg,newborntown,p1802_107173_2562_10017_12172,Install,1.8,1.229.19.112,14b10112-3f72-41ff-8b3e-864854d3685c,1558010878,2019-05-16 20:47:58,1558011032,2019-05-16 20:50:32,1558011063,dac2f4bb-1c8b-4196-83d4-9786064f7e5d__pspm,http://pspm.pingstart.com/api/v4/postback?from=1706&clickid=dac2f4bb-1c8b-4196-83d4-9786064f7e5d__pspm,idfa_14b10112-3f72-41ff-8b3e-864854d3685c,%ED%95%9C%EA%B5%AD%EC%96%B4
YtAHfaB_S0uXZXcDAzf9bg,newborntown,p1802_107173_2562_10017_12172,Install,1.8,125.190.241.151,663fcadb-c14f-40b5-b9c6-7723b5531e1a,1558237975,2019-05-19 11:52:55,1558238121,2019-05-19 11:55:21,1558238153,b97be921-8309-4d3e-b8ae-05087674399d__pspm,http://pspm.pingstart.com/api/v4/postback?from=1706&clickid=b97be921-8309-4d3e-b8ae-05087674399d__pspm,idfa_663fcadb-c14f-40b5-b9c6-7723b5531e1a,%ED%95%9C%EA%B5%AD%EC%96%B4
YtAHfaB_S0uXZXcDAzf9bg,newborntown,p1802_107173_2562_10017_12172,Install,1.8,122.42.32.49,347feb03-0260-4de9-9d3a-0d3f4424ed8d,1558234115,2019-05-19 10:48:35,1558234288,2019-05-19 10:51:28,1558234321,756c1014-151c-4200-ab53-34326759ac20__pspm,http://pspm.pingstart.com/api/v4/postback?from=1706&clickid=756c1014-151c-4200-ab53-34326759ac20__pspm,idfa_347feb03-0260-4de9-9d3a-0d3f4424ed8d,%ED%95%9C%EA%B5%AD%EC%96%B4
YtAHfaB_S0uXZXcDAzf9bg,newborntown,p1802_107173_2562_10017_12172,Install,1.8,218.150.34.6,89892138-9261-4fd5-a703-87be109003b9,1558012713,2019-05-16 21:18:33,1558012850,2019-05-16 21:20:50,1558012893,26ac7c6d-fa18-41b3-9636-94ed58b8b6e7__pspm,http://pspm.pingstart.com/api/v4/postback?from=1706&clickid=26ac7c6d-fa18-41b3-9636-94ed58b8b6e7__pspm,idfa_89892138-9261-4fd5-a703-87be109003b9,%ED%95%9C%EA%B5%AD%EC%96%B4
YtAHfaB_S0uXZXcDAzf9bg,newborntown,p1802_107173_2562_10017_12172,Install,1.8,1.228.234.59,cbe49f67-5be5-4983-86db-e760ccacfca6,1558011642,2019-05-16 21:00:42,1558011800,2019-05-16 21:03:20,1558011833,77d644a7-ec4b-47e1-b6c5-754ac8580baf__pspm,http://pspm.pingstart.com/api/v4/postback?from=1706&clickid=77d644a7-ec4b-47e1-b6c5-754ac8580baf__pspm,idfa_cbe49f67-5be5-4983-86db-e760ccacfca6,%ED%95%9C%EA%B5%AD%EC%96%B4
YtAHfaB_S0uXZXcDAzf9bg,newborntown,p1802_107173_2562_10017_12172,Install,1.8,14.42.66.248,51ef29ad-74b3-4c83-8d5a-3c0e6d22cfec,1558011639,2019-05-16 21:00:39,1558011770,2019-05-16 21:02:50,1558011801,ef4bdd0f-69c2-441a-a954-7d0ceb321d92__pspm,http://pspm.pingstart.com/api/v4/postback?from=1706&clickid=ef4bdd0f-69c2-441a-a954-7d0ceb321d92__pspm,idfa_51ef29ad-74b3-4c83-8d5a-3c0e6d22cfec,%ED%95%9C%EA%B5%AD%EC%96%B4
YtAHfaB_S0uXZXcDAzf9bg,newborntown,p1802_107173_2562_10017_12172,Install,1.8,121.135.220.253,f86901d5-3986-412b-9653-bde176332ce0,1558235881,2019-05-19 11:18:01,1558236017,2019-05-19 11:20:17,1558236047,df546fb2-a157-4329-9d20-bb544f6b6fea__pspm,http://pspm.pingstart.com/api/v4/postback?from=1706&clickid=df546fb2-a157-4329-9d20-bb544f6b6fea__pspm,idfa_f86901d5-3986-412b-9653-bde176332ce0,%ED%95%9C%EA%B5%AD%EC%96%B4
YtAHfaB_S0uXZXcDAzf9bg,newborntown,p1802_107173_2562_10017_12172,Install,1.8,27.118.81.243,12e7138c-e583-4c90-b83d-e681af6c9f98,1558012296,2019-05-16 21:11:36,1558012431,2019-05-16 21:13:51,1558012463,dd1944ba-c8ca-4a0d-9d3b-51d4d8557aa8__pspm,http://pspm.pingstart.com/api/v4/postback?from=1706&clickid=dd1944ba-c8ca-4a0d-9d3b-51d4d8557aa8__pspm,idfa_12e7138c-e583-4c90-b83d-e681af6c9f98,%ED%95%9C%EA%B5%AD%EC%96%B4
YtAHfaB_S0uXZXcDAzf9bg,newborntown,p1802_107173_2562_10017_12172,Install,1.8,211.250.3.95,91f051b9-f715-421a-bf26-e32347d4c91e,1558247437,2019-05-19 14:30:37,1558247559,2019-05-19 14:32:39,1558247590,f1ad7b46-0e63-4b1b-b174-733e5b80d2bd__pspm,http://pspm.pingstart.com/api/v4/postback?from=1706&clickid=f1ad7b46-0e63-4b1b-b174-733e5b80d2bd__pspm,idfa_91f051b9-f715-421a-bf26-e32347d4c91e,%ED%95%9C%EA%B5%AD%EC%96%B4
YtAHfaB_S0uXZXcDAzf9bg,newborntown,p1802_107173_2562_10017_12172,Install,1.8,61.253.29.93,0fae75d9-7316-4975-be71-ad2050912cbe,1558231900,2019-05-19 10:11:40,1558232085,2019-05-19 10:14:45,1558232198,39f087de-590b-429c-98c9-1623c813f6af__pspm,http://pspm.pingstart.com/api/v4/postback?from=1706&clickid=39f087de-590b-429c-98c9-1623c813f6af__pspm,idfa_0fae75d9-7316-4975-be71-ad2050912cbe,%ED%95%9C%EA%B5%AD%EC%96%B4
YtAHfaB_S0uXZXcDAzf9bg,newborntown,p1802_107173_2562_10017_12172,Install,1.8,124.199.186.5,f7360ba3-285b-4068-a613-fb0d79010b31,1558240094,2019-05-19 12:28:14,1558240301,2019-05-19 12:31:41,1558240331,9b79ab26-1743-498c-88e0-ee7225a3f0c6__pspm,http://pspm.pingstart.com/api/v4/postback?from=1706&clickid=9b79ab26-1743-498c-88e0-ee7225a3f0c6__pspm,idfa_f7360ba3-285b-4068-a613-fb0d79010b31,%ED%95%9C%EA%B5%AD%EC%96%B4
YtAHfaB_S0uXZXcDAzf9bg,newborntown,p1802_107173_2562_10017_12172,Install,1.8,118.33.104.170,6d098222-a48c-43fb-82a4-cfee159c4477,1558236072,2019-05-19 11:21:12,1558236259,2019-05-19 11:24:19,1558236289,37c8e7e5-5911-4435-b036-fc6e5fd116f6__pspm,http://pspm.pingstart.com/api/v4/postback?from=1706&clickid=37c8e7e5-5911-4435-b036-fc6e5fd116f6__pspm,idfa_6d098222-a48c-43fb-82a4-cfee159c4477,%ED%95%9C%EA%B5%AD%EC%96%B4
YtAHfaB_S0uXZXcDAzf9bg,newborntown,p1802_107173_2562_10017_12172,Install,1.8,118.222.46.16,258c9983-a4f8-4842-a999-bd4e6e75768d,1558236400,2019-05-19 11:26:40,1558236537,2019-05-19 11:28:57,1558236567,1652e8f6-b212-4c40-8d6d-2720ee3f9148__pspm,http://pspm.pingstart.com/api/v4/postback?from=1706&clickid=1652e8f6-b212-4c40-8d6d-2720ee3f9148__pspm,idfa_258c9983-a4f8-4842-a999-bd4e6e75768d,%ED%95%9C%EA%B5%AD%EC%96%B4
YtAHfaB_S0uXZXcDAzf9bg,newborntown,p1802_107173_2562_10017_12172,Install,1.8,111.118.84.112,97dd2203-0564-466c-848e-0121903a9859,1558240403,2019-05-19 12:33:23,1558240592,2019-05-19 12:36:32,1558240624,46bb1dd2-5144-4f11-9b70-e7f418a9ff3b__pspm,http://pspm.pingstart.com/api/v4/postback?from=1706&clickid=46bb1dd2-5144-4f11-9b70-e7f418a9ff3b__pspm,idfa_97dd2203-0564-466c-848e-0121903a9859,%ED%95%9C%EA%B5%AD%EC%96%B4
YtAHfaB_S0uXZXcDAzf9bg,newborntown,p1802_107173_2562_10017_12172,Install,1.8,117.123.20.247,0ddc49dc-0b1a-4897-82fa-c3fa523a9dfc,1558229739,2019-05-19 09:35:39,1558229892,2019-05-19 09:38:12,1558229923,6ef39bb7-1521-4939-834b-9cfad1fc34d0__pspm,http://pspm.pingstart.com/api/v4/postback?from=1706&clickid=6ef39bb7-1521-4939-834b-9cfad1fc34d0__pspm,idfa_0ddc49dc-0b1a-4897-82fa-c3fa523a9dfc,%ED%95%9C%EA%B5%AD%EC%96%B4
YtAHfaB_S0uXZXcDAzf9bg,newborntown,p1802_107173_2562_10017_12172,Install,1.8,183.99.162.30,cbe7ee42-ee1a-4fc4-89d4-ab24593e4e87,1558242470,2019-05-19 13:07:50,1558242660,2019-05-19 13:11:00,1558242691,e0261bb7-1642-42ab-bd13-2fc54ada5d23__pspm,http://pspm.pingstart.com/api/v4/postback?from=1706&clickid=e0261bb7-1642-42ab-bd13-2fc54ada5d23__pspm,idfa_cbe7ee42-ee1a-4fc4-89d4-ab24593e4e87,%ED%95%9C%EA%B5%AD%EC%96%B4
YtAHfaB_S0uXZXcDAzf9bg,newborntown,p1802_107173_2562_10017_12172,Install,1.8,118.128.253.96,fd228b92-e39d-4e6c-828a-36572b46a29f,1558246943,2019-05-19 14:22:23,1558247074,2019-05-19 14:24:34,1558247106,b8dc32db-0684-4357-b48d-86b1908200a4__pspm,http://pspm.pingstart.com/api/v4/postback?from=1706&clickid=b8dc32db-0684-4357-b48d-86b1908200a4__pspm,idfa_fd228b92-e39d-4e6c-828a-36572b46a29f,%ED%95%9C%EA%B5%AD%EC%96%B4
YtAHfaB_S0uXZXcDAzf9bg,newborntown,p1802_107173_2562_10017_12172,Install,1.8,58.236.58.54,f1f0836c-d281-4d5f-bfe9-28606d0f34e9,1558238614,2019-05-19 12:03:34,1558238773,2019-05-19 12:06:13,1558238809,144da951-e829-4119-b0f8-cbcf824bc10b__pspm,http://pspm.pingstart.com/api/v4/postback?from=1706&clickid=144da951-e829-4119-b0f8-cbcf824bc10b__pspm,idfa_f1f0836c-d281-4d5f-bfe9-28606d0f34e9,%ED%95%9C%EA%B5%AD%EC%96%B4
YtAHfaB_S0uXZXcDAzf9bg,newborntown,p1802_107173_2562_10017_12172,Install,1.8,58.149.224.172,438d0c7e-a33b-41ab-acbc-d68b90e6007a,1558237362,2019-05-19 11:42:42,1558237477,2019-05-19 11:44:37,1558237509,a05f2002-9296-49c1-be2c-2f1d96d79fbc__pspm,http://pspm.pingstart.com/api/v4/postback?from=1706&clickid=a05f2002-9296-49c1-be2c-2f1d96d79fbc__pspm,idfa_438d0c7e-a33b-41ab-acbc-d68b90e6007a,%ED%95%9C%EA%B5%AD%EC%96%B4
YtAHfaB_S0uXZXcDAzf9bg,newborntown,p1802_107173_2562_10017_12172,Install,1.8,182.230.79.77,f5692deb-8425-4159-9728-e94506244019,1558245062,2019-05-19 13:51:02,1558245306,2019-05-19 13:55:06,1558245337,17e4da67-4911-4474-b171-f8f608a17ddf__pspm,http://pspm.pingstart.com/api/v4/postback?from=1706&clickid=17e4da67-4911-4474-b171-f8f608a17ddf__pspm,idfa_f5692deb-8425-4159-9728-e94506244019,%ED%95%9C%EA%B5%AD%EC%96%B4
YtAHfaB_S0uXZXcDAzf9bg,newborntown,p1802_107173_2562_10017_12172,Install,1.8,125.185.231.165,9e0b9610-c52f-49bd-aeee-fc3ef1b8b2b5,1558247237,2019-05-19 14:27:17,1558247350,2019-05-19 14:29:10,1558247381,ba21a914-153d-49f6-83db-f1f1ff649d2f__pspm,http://pspm.pingstart.com/api/v4/postback?from=1706&clickid=ba21a914-153d-49f6-83db-f1f1ff649d2f__pspm,idfa_9e0b9610-c52f-49bd-aeee-fc3ef1b8b2b5,%ED%95%9C%EA%B5%AD%EC%96%B4
YtAHfaB_S0uXZXcDAzf9bg,newborntown,p1802_107173_2562_10017_12172,Install,1.8,180.68.28.56,9fe3f8a9-adac-40c4-8c96-1d9084341311,1558235178,2019-05-19 11:06:18,1558235350,2019-05-19 11:09:10,1558235396,1614fd84-1fcf-4d87-a805-36c23588ad84__pspm,http://pspm.pingstart.com/api/v4/postback?from=1706&clickid=1614fd84-1fcf-4d87-a805-36c23588ad84__pspm,idfa_9fe3f8a9-adac-40c4-8c96-1d9084341311,%ED%95%9C%EA%B5%AD%EC%96%B4
YtAHfaB_S0uXZXcDAzf9bg,newborntown,p1802_107173_2562_10017_12172,Install,1.8,119.193.124.95,7d131853-54f7-b858-8db4-9e6f13d1cba2,1558012454,2019-05-16 21:14:14,1558012605,2019-05-16 21:16:45,1558012635,7561947b-0ca1-4449-93c0-e9cdfdd38440__pspm,http://pspm.pingstart.com/api/v4/postback?from=1706&clickid=7561947b-0ca1-4449-93c0-e9cdfdd38440__pspm,idfa_7d131853-54f7-b858-8db4-9e6f13d1cba2,%ED%95%9C%EA%B5%AD%EC%96%B4
YtAHfaB_S0uXZXcDAzf9bg,newborntown,p1802_107173_2562_10017_12172,Install,1.8,112.185.121.162,5fabf14d-4b6c-4b5b-ad70-d7199260e4bf,1558236053,2019-05-19 11:20:53,1558236232,2019-05-19 11:23:52,1558236263,a0dde7a4-e849-478b-8795-cce2973d4545__pspm,http://pspm.pingstart.com/api/v4/postback?from=1706&clickid=a0dde7a4-e849-478b-8795-cce2973d4545__pspm,idfa_5fabf14d-4b6c-4b5b-ad70-d7199260e4bf,%ED%95%9C%EA%B5%AD%EC%96%B4
YtAHfaB_S0uXZXcDAzf9bg,newborntown,p1802_107173_2562_10017_12172,Install,1.8,118.39.121.105,428a2954-7995-4704-be35-0dfd42357d40,1558009098,2019-05-16 20:18:18,1558009195,2019-05-16 20:19:55,1558009225,dbf3cd83-44e4-4527-9f52-0a6545be055b__pspm,http://pspm.pingstart.com/api/v4/postback?from=1706&clickid=dbf3cd83-44e4-4527-9f52-0a6545be055b__pspm,idfa_428a2954-7995-4704-be35-0dfd42357d40,%ED%95%9C%EA%B5%AD%EC%96%B4
YtAHfaB_S0uXZXcDAzf9bg,newborntown,p1802_107173_2562_10017_12172,Install,1.8,119.198.78.107,b8a127cc-3248-4b11-9afa-6550280b0b92,1558013357,2019-05-16 21:29:17,1558013492,2019-05-16 21:31:32,1558013586,789958dd-90f2-4111-8d49-31696e0d2c8d__pspm,http://pspm.pingstart.com/api/v4/postback?from=1706&clickid=789958dd-90f2-4111-8d49-31696e0d2c8d__pspm,idfa_b8a127cc-3248-4b11-9afa-6550280b0b92,%ED%95%9C%EA%B5%AD%EC%96%B4
YtAHfaB_S0uXZXcDAzf9bg,newborntown,p1802_107173_2562_10017_12172,Install,1.8,221.152.95.12,547434ed-8e9a-4246-901a-cb3d75329e02,1558229379,2019-05-19 09:29:39,1558229592,2019-05-19 09:33:12,1558229625,88ff61cc-3056-4ffe-b66b-fff2a05fc743__pspm,http://pspm.pingstart.com/api/v4/postback?from=1706&clickid=88ff61cc-3056-4ffe-b66b-fff2a05fc743__pspm,idfa_547434ed-8e9a-4246-901a-cb3d75329e02,%ED%95%9C%EA%B5%AD%EC%96%B4
YtAHfaB_S0uXZXcDAzf9bg,newborntown,p1802_107173_2562_10017_12172,Install,1.8,39.119.48.97,61b06539-7461-4846-8f2d-cb02867c1f67,1558239580,2019-05-19 12:19:40,1558239732,2019-05-19 12:22:12,1558239763,20e0507c-5f24-40e8-8870-55d3b2f5da68__pspm,http://pspm.pingstart.com/api/v4/postback?from=1706&clickid=20e0507c-5f24-40e8-8870-55d3b2f5da68__pspm,idfa_61b06539-7461-4846-8f2d-cb02867c1f67,%ED%95%9C%EA%B5%AD%EC%96%B4
YtAHfaB_S0uXZXcDAzf9bg,newborntown,p1802_107173_2562_10017_12172,Install,1.8,121.181.192.102,a3ab7068-4de0-41a6-93c7-4d4ab7720ac2,1558245630,2019-05-19 14:00:30,1558245860,2019-05-19 14:04:20,1558245893,9bb47b3b-f959-471a-a10a-b8939062e18e__pspm,http://pspm.pingstart.com/api/v4/postback?from=1706&clickid=9bb47b3b-f959-471a-a10a-b8939062e18e__pspm,idfa_a3ab7068-4de0-41a6-93c7-4d4ab7720ac2,%ED%95%9C%EA%B5%AD%EC%96%B4
YtAHfaB_S0uXZXcDAzf9bg,newborntown,p1802_107173_2562_10017_12172,Install,1.8,115.40.206.116,279fcf1a-b30f-4eac-9fad-7812e944247b,1558241892,2019-05-19 12:58:12,1558242134,2019-05-19 13:02:14,1558242165,93638856-d48f-4ec5-9c07-cc5ec6dc0210__pspm,http://pspm.pingstart.com/api/v4/postback?from=1706&clickid=93638856-d48f-4ec5-9c07-cc5ec6dc0210__pspm,idfa_279fcf1a-b30f-4eac-9fad-7812e944247b,%ED%95%9C%EA%B5%AD%EC%96%B4
YtAHfaB_S0uXZXcDAzf9bg,newborntown,p1802_107173_2562_10017_12172,Install,1.8,59.12.130.155,4267822f-1b14-4da4-95e5-60a2cd031b4d,1558235152,2019-05-19 11:05:52,1558235333,2019-05-19 11:08:53,1558235363,b389a1f7-b30c-4f99-b6b8-7c20996a97b6__pspm,http://pspm.pingstart.com/api/v4/postback?from=1706&clickid=b389a1f7-b30c-4f99-b6b8-7c20996a97b6__pspm,idfa_4267822f-1b14-4da4-95e5-60a2cd031b4d,%ED%95%9C%EA%B5%AD%EC%96%B4
YtAHfaB_S0uXZXcDAzf9bg,newborntown,p1802_107173_2562_10017_12172,Install,1.8,175.223.22.31,025ce0ae-c9a9-475e-a867-3c220c5f189d,1558011955,2019-05-16 21:05:55,1558012071,2019-05-16 21:07:51,1558012103,9045bfa7-67fe-41e5-87b3-70649da67644__pspm,http://pspm.pingstart.com/api/v4/postback?from=1706&clickid=9045bfa7-67fe-41e5-87b3-70649da67644__pspm,idfa_025ce0ae-c9a9-475e-a867-3c220c5f189d,%ED%95%9C%EA%B5%AD%EC%96%B4
YtAHfaB_S0uXZXcDAzf9bg,newborntown,p1802_107173_2562_10017_12172,Install,1.8,1.229.40.24,3f79e291-51e9-41ad-9673-9ae68fe9ca4a,1558004141,2019-05-16 18:55:41,1558004298,2019-05-16 18:58:18,1558004329,3b4a56df-186c-40e3-93c1-d4a397ab16d9__pspm,http://pspm.pingstart.com/api/v4/postback?from=1706&clickid=3b4a56df-186c-40e3-93c1-d4a397ab16d9__pspm,idfa_3f79e291-51e9-41ad-9673-9ae68fe9ca4a,%ED%95%9C%EA%B5%AD%EC%96%B4
YtAHfaB_S0uXZXcDAzf9bg,newborntown,p1802_107173_2562_10017_12172,Install,1.8,121.152.91.151,878c3f30-7a3b-4acb-84c7-c13af933f05a,1558230479,2019-05-19 09:47:59,1558230638,2019-05-19 09:50:38,1558230729,3d5e3f91-1a2d-4084-a9c1-aaee1f6b20c0__pspm,http://pspm.pingstart.com/api/v4/postback?from=1706&clickid=3d5e3f91-1a2d-4084-a9c1-aaee1f6b20c0__pspm,idfa_878c3f30-7a3b-4acb-84c7-c13af933f05a,%ED%95%9C%EA%B5%AD%EC%96%B4
YtAHfaB_S0uXZXcDAzf9bg,newborntown,p1802_107173_2562_10017_12172,Install,1.8,121.191.41.178,276b985d-ebc2-4e95-b883-eb6c58154f34,1558230019,2019-05-19 09:40:19,1558230162,2019-05-19 09:42:42,1558230201,70913c6e-adcf-48c7-ba9b-9d549f1d75c0__pspm,http://pspm.pingstart.com/api/v4/postback?from=1706&clickid=70913c6e-adcf-48c7-ba9b-9d549f1d75c0__pspm,idfa_276b985d-ebc2-4e95-b883-eb6c58154f34,%ED%95%9C%EA%B5%AD%EC%96%B4
YtAHfaB_S0uXZXcDAzf9bg,newborntown,p1802_107173_2562_10017_12172,Install,1.8,101.235.30.197,d37e0c4d-af89-49a4-b9e7-083f4aceeb70,1558020811,2019-05-16 23:33:31,1558020937,2019-05-16 23:35:37,1558020968,2a5ff996-2301-4782-bca3-597d56ff853d__pspm,http://pspm.pingstart.com/api/v4/postback?from=1706&clickid=2a5ff996-2301-4782-bca3-597d56ff853d__pspm,idfa_d37e0c4d-af89-49a4-b9e7-083f4aceeb70,%ED%95%9C%EA%B5%AD%EC%96%B4
YtAHfaB_S0uXZXcDAzf9bg,newborntown,p1802_107173_2562_10017_12172,Install,1.8,110.9.41.120,27bfcfeb-ad50-40c4-8853-ba2cd7b62fcb,1558237831,2019-05-19 11:50:31,1558238033,2019-05-19 11:53:53,1558238065,686fc367-b5f1-4e0c-96e7-17b81335361c__pspm,http://pspm.pingstart.com/api/v4/postback?from=1706&clickid=686fc367-b5f1-4e0c-96e7-17b81335361c__pspm,idfa_27bfcfeb-ad50-40c4-8853-ba2cd7b62fcb,%ED%95%9C%EA%B5%AD%EC%96%B4
YtAHfaB_S0uXZXcDAzf9bg,newborntown,p1802_107173_2562_10017_12172,Install,1.8,182.228.32.67,666d2568-824b-4f9b-9486-e0f3a7cfd7ef,1558232080,2019-05-19 10:14:40,1558232265,2019-05-19 10:17:45,1558232297,e8cf4865-6ae4-4684-87b1-83145ba76321__pspm,http://pspm.pingstart.com/api/v4/postback?from=1706&clickid=e8cf4865-6ae4-4684-87b1-83145ba76321__pspm,idfa_666d2568-824b-4f9b-9486-e0f3a7cfd7ef,%ED%95%9C%EA%B5%AD%EC%96%B4
YtAHfaB_S0uXZXcDAzf9bg,newborntown,p1802_107173_2562_10017_12172,Install,1.8,59.14.218.150,92d37dd0-3f8e-b158-133d-38bb592b005f,1558237187,2019-05-19 11:39:47,1558237337,2019-05-19 11:42:17,1558237368,d688e4a8-2f38-4f25-9452-8b2313af4eaf__pspm,http://pspm.pingstart.com/api/v4/postback?from=1706&clickid=d688e4a8-2f38-4f25-9452-8b2313af4eaf__pspm,idfa_92d37dd0-3f8e-b158-133d-38bb592b005f,%ED%95%9C%EA%B5%AD%EC%96%B4
YtAHfaB_S0uXZXcDAzf9bg,newborntown,p1802_107173_2562_10017_12172,Install,1.8,39.115.128.83,45d10ecf-a41a-423e-a69a-e0f6a972930d,1558234109,2019-05-19 10:48:29,1558234283,2019-05-19 10:51:23,1558234314,c770de61-f791-4c73-992e-47bd36da31f7__pspm,http://pspm.pingstart.com/api/v4/postback?from=1706&clickid=c770de61-f791-4c73-992e-47bd36da31f7__pspm,idfa_45d10ecf-a41a-423e-a69a-e0f6a972930d,%ED%95%9C%EA%B5%AD%EC%96%B4
YtAHfaB_S0uXZXcDAzf9bg,newborntown,p1802_107173_2562_10017_12172,Install,1.8,14.4.161.208,34a0fa71-6f33-4ffe-a8fe-491906bfd403,1558020613,2019-05-16 23:30:13,1558020720,2019-05-16 23:32:00,1558020751,25d32911-ea4b-4bbf-a6d4-d4c61b17a6f8__pspm,http://pspm.pingstart.com/api/v4/postback?from=1706&clickid=25d32911-ea4b-4bbf-a6d4-d4c61b17a6f8__pspm,idfa_34a0fa71-6f33-4ffe-a8fe-491906bfd403,%ED%95%9C%EA%B5%AD%EC%96%B4
YtAHfaB_S0uXZXcDAzf9bg,newborntown,p1802_107173_2562_10017_12172,Install,1.8,118.222.222.200,e7f2ab72-2eef-4eca-8906-4182258cc54a,1558236780,2019-05-19 11:33:00,1558236974,2019-05-19 11:36:14,1558237005,a07151bc-aa1c-4e3d-a28e-f81f4b8e97c5__pspm,http://pspm.pingstart.com/api/v4/postback?from=1706&clickid=a07151bc-aa1c-4e3d-a28e-f81f4b8e97c5__pspm,idfa_e7f2ab72-2eef-4eca-8906-4182258cc54a,%ED%95%9C%EA%B5%AD%EC%96%B4
YtAHfaB_S0uXZXcDAzf9bg,newborntown,p1802_107173_2562_10017_12172,Install,1.8,121.155.103.55,8eab26d5-78c2-42c7-8f2f-fb9d2091689a,1558014086,2019-05-16 21:41:26,1558014205,2019-05-16 21:43:25,1558014238,a17f577d-e290-446b-b7ff-87adf8848549__pspm,http://pspm.pingstart.com/api/v4/postback?from=1706&clickid=a17f577d-e290-446b-b7ff-87adf8848549__pspm,idfa_8eab26d5-78c2-42c7-8f2f-fb9d2091689a,%ED%95%9C%EA%B5%AD%EC%96%B4
YtAHfaB_S0uXZXcDAzf9bg,newborntown,p1802_107173_2562_10017_12172,Install,1.8,61.75.19.208,1492a722-9434-48ab-8ef2-3249a4844940,1558230037,2019-05-19 09:40:37,1558230193,2019-05-19 09:43:13,1558230227,f4810a0e-9b1d-485c-86c2-52bcab3cc7df__pspm,http://pspm.pingstart.com/api/v4/postback?from=1706&clickid=f4810a0e-9b1d-485c-86c2-52bcab3cc7df__pspm,idfa_1492a722-9434-48ab-8ef2-3249a4844940,%ED%95%9C%EA%B5%AD%EC%96%B4
YtAHfaB_S0uXZXcDAzf9bg,newborntown,p1802_107173_2562_10017_12172,Install,1.8,119.197.121.46,79927339-0b20-a333-4ce4-ad25205d16f5,1558245332,2019-05-19 13:55:32,1558245511,2019-05-19 13:58:31,1558245542,b4a5bbf0-52ff-4b72-b156-7fecf09d9fd0__pspm,http://pspm.pingstart.com/api/v4/postback?from=1706&clickid=b4a5bbf0-52ff-4b72-b156-7fecf09d9fd0__pspm,idfa_79927339-0b20-a333-4ce4-ad25205d16f5,%ED%95%9C%EA%B5%AD%EC%96%B4
YtAHfaB_S0uXZXcDAzf9bg,newborntown,p1802_107173_2562_10017_12172,Install,1.8,110.12.129.18,0558b88a-1236-41e2-97f1-3f3b0cac89e2,1558013511,2019-05-16 21:31:51,1558013639,2019-05-16 21:33:59,1558013669,bb992080-0933-4751-9bd2-d5db1f553a55__pspm,http://pspm.pingstart.com/api/v4/postback?from=1706&clickid=bb992080-0933-4751-9bd2-d5db1f553a55__pspm,idfa_0558b88a-1236-41e2-97f1-3f3b0cac89e2,%ED%95%9C%EA%B5%AD%EC%96%B4
YtAHfaB_S0uXZXcDAzf9bg,newborntown,p1802_107173_2562_10017_12172,Install,1.8,61.99.40.134,73635d1c-c02a-439b-a565-92ba90317378,1558007064,2019-05-16 19:44:24,1558007211,2019-05-16 19:46:51,1558007249,641b40cd-ae98-4339-95ab-10dec38478d0__pspm,http://pspm.pingstart.com/api/v4/postback?from=1706&clickid=641b40cd-ae98-4339-95ab-10dec38478d0__pspm,idfa_73635d1c-c02a-439b-a565-92ba90317378,%ED%95%9C%EA%B5%AD%EC%96%B4
YtAHfaB_S0uXZXcDAzf9bg,newborntown,p1802_107173_2562_10017_12172,Install,1.8,14.36.8.182,06a9411b-6b61-4972-beeb-38b277977745,1558236626,2019-05-19 11:30:26,1558236831,2019-05-19 11:33:51,1558236862,8cbbdae6-6ace-44cf-a342-999164d9ed4a__pspm,http://pspm.pingstart.com/api/v4/postback?from=1706&clickid=8cbbdae6-6ace-44cf-a342-999164d9ed4a__pspm,idfa_06a9411b-6b61-4972-beeb-38b277977745,%ED%95%9C%EA%B5%AD%EC%96%B4
YtAHfaB_S0uXZXcDAzf9bg,newborntown,p1802_107173_2562_10017_12172,Install,1.8,221.160.110.148,391387a2-a178-431b-b7fe-23f719db8c4a,1558010299,2019-05-16 20:38:19,1558010392,2019-05-16 20:39:52,1558010423,102a2016-463e-4cc9-a852-a96542283cea__pspm,http://pspm.pingstart.com/api/v4/postback?from=1706&clickid=102a2016-463e-4cc9-a852-a96542283cea__pspm,idfa_391387a2-a178-431b-b7fe-23f719db8c4a,%ED%95%9C%EA%B5%AD%EC%96%B4
YtAHfaB_S0uXZXcDAzf9bg,newborntown,p1802_107173_2562_10017_12172,Install,1.8,211.52.239.156,3548d02b-5524-43fd-a2c1-ceb342bf835b,1558244439,2019-05-19 13:40:39,1558244630,2019-05-19 13:43:50,1558244661,f5a8191a-a87f-45a0-8dcb-130a944ceb1c__pspm,http://pspm.pingstart.com/api/v4/postback?from=1706&clickid=f5a8191a-a87f-45a0-8dcb-130a944ceb1c__pspm,idfa_3548d02b-5524-43fd-a2c1-ceb342bf835b,%ED%95%9C%EA%B5%AD%EC%96%B4
YtAHfaB_S0uXZXcDAzf9bg,newborntown,p1802_107173_2562_10017_12172,Install,1.8,1.246.91.68,1673ed9b-05df-747a-d093-f7cb3e2f30f9,1558010159,2019-05-16 20:35:59,1558010299,2019-05-16 20:38:19,1558010330,122c6d47-eb50-4f74-8816-70103c24cadd__pspm,http://pspm.pingstart.com/api/v4/postback?from=1706&clickid=122c6d47-eb50-4f74-8816-70103c24cadd__pspm,idfa_1673ed9b-05df-747a-d093-f7cb3e2f30f9,%ED%95%9C%EA%B5%AD%EC%96%B4
YtAHfaB_S0uXZXcDAzf9bg,newborntown,p1802_107173_2562_10017_12172,Install,1.8,222.117.48.36,e32fd00c-1a53-4ea0-b6eb-df451541e92f,1558242765,2019-05-19 13:12:45,1558242953,2019-05-19 13:15:53,1558242986,b1c7677e-c649-42af-8a4d-1a7d706d6832__pspm,http://pspm.pingstart.com/api/v4/postback?from=1706&clickid=b1c7677e-c649-42af-8a4d-1a7d706d6832__pspm,idfa_e32fd00c-1a53-4ea0-b6eb-df451541e92f,%ED%95%9C%EA%B5%AD%EC%96%B4
YtAHfaB_S0uXZXcDAzf9bg,newborntown,p1802_107173_2562_10017_12172,Install,1.8,220.121.217.9,d6eb6c25-fec5-4c53-9ad7-fcd9bea98e92,1558234697,2019-05-19 10:58:17,1558234887,2019-05-19 11:01:27,1558234918,51c4601c-8a7e-488c-a4b5-a225b336d227__pspm,http://pspm.pingstart.com/api/v4/postback?from=1706&clickid=51c4601c-8a7e-488c-a4b5-a225b336d227__pspm,idfa_d6eb6c25-fec5-4c53-9ad7-fcd9bea98e92,%ED%95%9C%EA%B5%AD%EC%96%B4
