cid,partner_id,channel_id,action_id,cpi,ip,idfa,click time,click datetime,install time,install datetime,postback time,click id,postback url,unique user id
K9sjgpAlSmmsSXzYIHj5Mg,newborntown,p1833_kchpgjl8lckzyrssdy0r,Install,4.4,123.0.231.3,a772efd8-d3cc-41f8-bd0b-faffe4400f80,1558846911,2019-05-26 13:01:51,1558847111,2019-05-26 13:05:11,1558847141,3c6f3948-ff11-41df-a349-f15fe4eec425__pspm,http://pspm.pingstart.com/api/v4/postback?from=1706&clickid=3c6f3948-ff11-41df-a349-f15fe4eec425__pspm,idfa_a772efd8-d3cc-41f8-bd0b-faffe4400f80,%E4%B8%AD%E6%96%87
K9sjgpAlSmmsSXzYIHj5Mg,newborntown,p1833_kchpgjl8lckzyrssdy0r,Install,4.4,182.235.145.105,f552ce11-3ad4-4d49-868f-5227cf6a5925,1558690817,2019-05-24 17:40:17,1558690967,2019-05-24 17:42:47,1558690998,f02bac9e-c866-4891-9344-b0965a89aff8__pspm,http://pspm.pingstart.com/api/v4/postback?from=1706&clickid=f02bac9e-c866-4891-9344-b0965a89aff8__pspm,idfa_f552ce11-3ad4-4d49-868f-5227cf6a5925,%E4%B8%AD%E6%96%87
K9sjgpAlSmmsSXzYIHj5Mg,newborntown,p1833_kchpgjl8lckzyrssdy0r,Install,4.4,123.193.45.95,360ec1f2-5390-4999-9bba-23c332509b45,1558846933,2019-05-26 13:02:13,1558847118,2019-05-26 13:05:18,1558847163,a7e0ad41-fba1-4818-9a57-d020e7dcaf6f__pspm,http://pspm.pingstart.com/api/v4/postback?from=1706&clickid=a7e0ad41-fba1-4818-9a57-d020e7dcaf6f__pspm,idfa_360ec1f2-5390-4999-9bba-23c332509b45,%E4%B8%AD%E6%96%87
K9sjgpAlSmmsSXzYIHj5Mg,newborntown,p1833_kchpgjl8lckzyrssdy0r,Install,4.4,106.107.242.240,7eb2ee8a-7d8b-43d1-9fbb-7d9517104ae1,1558842620,2019-05-26 11:50:20,1558842788,2019-05-26 11:53:08,1558842821,7c1f1a44-e50a-4d04-9dcb-f747d92774af__pspm,http://pspm.pingstart.com/api/v4/postback?from=1706&clickid=7c1f1a44-e50a-4d04-9dcb-f747d92774af__pspm,idfa_7eb2ee8a-7d8b-43d1-9fbb-7d9517104ae1,%E4%B8%AD%E6%96%87
K9sjgpAlSmmsSXzYIHj5Mg,newborntown,p1833_kchpgjl8lckzyrssdy0r,Install,4.4,150.117.45.126,967aaf0d-e6b1-4a6f-a6c7-9c4e70a5a10d,1558841947,2019-05-26 11:39:07,1558842131,2019-05-26 11:42:11,1558842161,62da4c5f-230f-4a2a-b0a7-49edc2f00019__pspm,http://pspm.pingstart.com/api/v4/postback?from=1706&clickid=62da4c5f-230f-4a2a-b0a7-49edc2f00019__pspm,idfa_967aaf0d-e6b1-4a6f-a6c7-9c4e70a5a10d,%E4%B8%AD%E6%96%87
K9sjgpAlSmmsSXzYIHj5Mg,newborntown,p1833_kchpgjl8lckzyrssdy0r,Install,4.4,106.107.190.180,804cfd34-d638-4684-8046-5736fe39a58c,1558845936,2019-05-26 12:45:36,1558846154,2019-05-26 12:49:14,1558846185,b60407c2-1a2b-4651-a325-f5004f13d098__pspm,http://pspm.pingstart.com/api/v4/postback?from=1706&clickid=b60407c2-1a2b-4651-a325-f5004f13d098__pspm,idfa_804cfd34-d638-4684-8046-5736fe39a58c,%E4%B8%AD%E6%96%87
K9sjgpAlSmmsSXzYIHj5Mg,newborntown,p1833_kchpgjl8lckzyrssdy0r,Install,4.4,220.129.147.152,1f2b79e9-cb0a-49a4-be84-25d32e2165e7,1558689821,2019-05-24 17:23:41,1558689990,2019-05-24 17:26:30,1558690021,00bf2a91-fd30-43a9-adc3-aac500181ed7__pspm,http://pspm.pingstart.com/api/v4/postback?from=1706&clickid=00bf2a91-fd30-43a9-adc3-aac500181ed7__pspm,idfa_1f2b79e9-cb0a-49a4-be84-25d32e2165e7,%E4%B8%AD%E6%96%87
K9sjgpAlSmmsSXzYIHj5Mg,newborntown,p1833_kchpgjl8lckzyrssdy0r,Install,4.4,49.216.11.49,cbfef45b-66e9-4bd0-b482-3260564bafe5,1558846591,2019-05-26 12:56:31,1558846736,2019-05-26 12:58:56,1558846766,e064e052-5a40-444d-8757-b3611d9f58b3__pspm,http://pspm.pingstart.com/api/v4/postback?from=1706&clickid=e064e052-5a40-444d-8757-b3611d9f58b3__pspm,idfa_cbfef45b-66e9-4bd0-b482-3260564bafe5,%E4%B8%AD%E6%96%87
K9sjgpAlSmmsSXzYIHj5Mg,newborntown,p1833_kchpgjl8lckzyrssdy0r,Install,4.4,1.163.13.252,4c04d1b1-727a-8fb3-8534-59758d87a947,1558842439,2019-05-26 11:47:19,1558842577,2019-05-26 11:49:37,1558842608,73007e6c-bb7b-4b3a-868e-578e4bdcb06c__pspm,http://pspm.pingstart.com/api/v4/postback?from=1706&clickid=73007e6c-bb7b-4b3a-868e-578e4bdcb06c__pspm,idfa_4c04d1b1-727a-8fb3-8534-59758d87a947,%E4%B8%AD%E6%96%87
K9sjgpAlSmmsSXzYIHj5Mg,newborntown,p1833_kchpgjl8lckzyrssdy0r,Install,4.4,110.28.227.158,528fc440-5f8a-fc7b-ecde-e3a50f90a1af,1558840526,2019-05-26 11:15:26,1558840752,2019-05-26 11:19:12,1558840783,373d5d8d-4054-43b0-b23d-b4bd72266521__pspm,http://pspm.pingstart.com/api/v4/postback?from=1706&clickid=373d5d8d-4054-43b0-b23d-b4bd72266521__pspm,idfa_528fc440-5f8a-fc7b-ecde-e3a50f90a1af,%E4%B8%AD%E6%96%87
K9sjgpAlSmmsSXzYIHj5Mg,newborntown,p1833_kchpgjl8lckzyrssdy0r,Install,4.4,36.239.158.223,24378fd1-e18c-44b5-bacf-6fbf96b92ee5,1558842429,2019-05-26 11:47:09,1558842567,2019-05-26 11:49:27,1558842598,00574f98-d8d0-4d73-bd20-03194f437488__pspm,http://pspm.pingstart.com/api/v4/postback?from=1706&clickid=00574f98-d8d0-4d73-bd20-03194f437488__pspm,idfa_24378fd1-e18c-44b5-bacf-6fbf96b92ee5,%E4%B8%AD%E6%96%87
K9sjgpAlSmmsSXzYIHj5Mg,newborntown,p1833_kchpgjl8lckzyrssdy0r,Install,4.4,140.125.201.87,75101af1-d70f-72dc-839d-ceb0e6d9e1ac,1558840672,2019-05-26 11:17:52,1558840848,2019-05-26 11:20:48,1558841173,627c1860-9266-4362-a16a-6f6ec48c972b__pspm,http://pspm.pingstart.com/api/v4/postback?from=1706&clickid=627c1860-9266-4362-a16a-6f6ec48c972b__pspm,idfa_75101af1-d70f-72dc-839d-ceb0e6d9e1ac,%E4%B8%AD%E6%96%87
K9sjgpAlSmmsSXzYIHj5Mg,newborntown,p1833_kchpgjl8lckzyrssdy0r,Install,4.4,1.161.240.212,b286b06d-86ff-4424-960d-4cf0e22e159a,1558843376,2019-05-26 12:02:56,1558843533,2019-05-26 12:05:33,1558843563,566db8c1-12a3-445f-b9a2-bce57b5debda__pspm,http://pspm.pingstart.com/api/v4/postback?from=1706&clickid=566db8c1-12a3-445f-b9a2-bce57b5debda__pspm,idfa_b286b06d-86ff-4424-960d-4cf0e22e159a,%E4%B8%AD%E6%96%87
K9sjgpAlSmmsSXzYIHj5Mg,newborntown,p1833_kchpgjl8lckzyrssdy0r,Install,4.4,180.177.24.254,7d31da6e-25e4-454e-97be-a5d0f9acfb6f,1558689974,2019-05-24 17:26:14,1558690113,2019-05-24 17:28:33,1558690143,bf488820-4cec-4037-ac84-4f0e5497a2c8__pspm,http://pspm.pingstart.com/api/v4/postback?from=1706&clickid=bf488820-4cec-4037-ac84-4f0e5497a2c8__pspm,idfa_7d31da6e-25e4-454e-97be-a5d0f9acfb6f,%E4%B8%AD%E6%96%87
K9sjgpAlSmmsSXzYIHj5Mg,newborntown,p1833_kchpgjl8lckzyrssdy0r,Install,4.4,125.230.76.42,d5f4450b-b1b6-4238-b663-54d284cd9993,1558846594,2019-05-26 12:56:34,1558846747,2019-05-26 12:59:07,1558846778,82aca8fe-6ad4-4d44-a359-e4b0735e90a0__pspm,http://pspm.pingstart.com/api/v4/postback?from=1706&clickid=82aca8fe-6ad4-4d44-a359-e4b0735e90a0__pspm,idfa_d5f4450b-b1b6-4238-b663-54d284cd9993,%E4%B8%AD%E6%96%87
K9sjgpAlSmmsSXzYIHj5Mg,newborntown,p1833_kchpgjl8lckzyrssdy0r,Install,4.4,125.224.39.173,a77c067d-3112-4605-a7c8-3d6602584aec,1558845922,2019-05-26 12:45:22,1558846064,2019-05-26 12:47:44,1558846095,f14997f1-ef40-48f1-bf08-4faafe6c7672__pspm,http://pspm.pingstart.com/api/v4/postback?from=1706&clickid=f14997f1-ef40-48f1-bf08-4faafe6c7672__pspm,idfa_a77c067d-3112-4605-a7c8-3d6602584aec,%E4%B8%AD%E6%96%87
K9sjgpAlSmmsSXzYIHj5Mg,newborntown,p1833_kchpgjl8lckzyrssdy0r,Install,4.4,118.171.8.9,7e1b130d-9e1a-440b-beb4-8ef739311e2d,1558770341,2019-05-25 15:45:41,1558770570,2019-05-25 15:49:30,1558770601,29f34480-dee8-4bd9-b444-b22eb3a65053__pspm,http://pspm.pingstart.com/api/v4/postback?from=1706&clickid=29f34480-dee8-4bd9-b444-b22eb3a65053__pspm,idfa_7e1b130d-9e1a-440b-beb4-8ef739311e2d,%E4%B8%AD%E6%96%87
K9sjgpAlSmmsSXzYIHj5Mg,newborntown,p1833_kchpgjl8lckzyrssdy0r,Install,4.4,1.169.66.132,0633826b-0ba2-78d1-3b92-7eefc7a72c14,1558843519,2019-05-26 12:05:19,1558843670,2019-05-26 12:07:50,1558843700,dc020827-29d5-456e-8129-fe95a8e886f5__pspm,http://pspm.pingstart.com/api/v4/postback?from=1706&clickid=dc020827-29d5-456e-8129-fe95a8e886f5__pspm,idfa_0633826b-0ba2-78d1-3b92-7eefc7a72c14,%E4%B8%AD%E6%96%87
K9sjgpAlSmmsSXzYIHj5Mg,newborntown,p1833_kchpgjl8lckzyrssdy0r,Install,4.4,140.112.215.88,feafd04a-6d8f-8942-5c67-9a2212dfe3a0,1558846457,2019-05-26 12:54:17,1558846588,2019-05-26 12:56:28,1558846619,98c10706-d97e-445c-9d2d-8b70d878f51d__pspm,http://pspm.pingstart.com/api/v4/postback?from=1706&clickid=98c10706-d97e-445c-9d2d-8b70d878f51d__pspm,idfa_feafd04a-6d8f-8942-5c67-9a2212dfe3a0,%E4%B8%AD%E6%96%87
K9sjgpAlSmmsSXzYIHj5Mg,newborntown,p1833_kchpgjl8lckzyrssdy0r,Install,4.4,220.134.71.125,00794489-f7c7-4adc-aeac-083bce56bf82,1558846454,2019-05-26 12:54:14,1558846606,2019-05-26 12:56:46,1558846638,169958a1-c57e-4bb8-b52d-d364c5ec42b1__pspm,http://pspm.pingstart.com/api/v4/postback?from=1706&clickid=169958a1-c57e-4bb8-b52d-d364c5ec42b1__pspm,idfa_00794489-f7c7-4adc-aeac-083bce56bf82,%E4%B8%AD%E6%96%87
K9sjgpAlSmmsSXzYIHj5Mg,newborntown,p1833_kchpgjl8lckzyrssdy0r,Install,4.4,1.173.148.41,c930da0b-0a2b-44f7-923b-bb55d6ff734e,1558687038,2019-05-24 16:37:18,1558687197,2019-05-24 16:39:57,1558687227,b29fa5c4-f7fa-400f-bf7c-d7397fb708bf__pspm,http://pspm.pingstart.com/api/v4/postback?from=1706&clickid=b29fa5c4-f7fa-400f-bf7c-d7397fb708bf__pspm,idfa_c930da0b-0a2b-44f7-923b-bb55d6ff734e,%E4%B8%AD%E6%96%87
K9sjgpAlSmmsSXzYIHj5Mg,newborntown,p1833_kchpgjl8lckzyrssdy0r,Install,4.4,123.50.58.27,5b870d57-f39b-40c9-8e28-9a78e18a553d,1558690373,2019-05-24 17:32:53,1558690504,2019-05-24 17:35:04,1558690540,20ac1c06-185d-46ea-9214-2571ad23578d__pspm,http://pspm.pingstart.com/api/v4/postback?from=1706&clickid=20ac1c06-185d-46ea-9214-2571ad23578d__pspm,idfa_5b870d57-f39b-40c9-8e28-9a78e18a553d,%E4%B8%AD%E6%96%87
K9sjgpAlSmmsSXzYIHj5Mg,newborntown,p1833_kchpgjl8lckzyrssdy0r,Install,4.4,36.225.106.142,077700bc-aa69-463c-9571-bb3972a2b318,1558692574,2019-05-24 18:09:34,1558692741,2019-05-24 18:12:21,1558692773,accc682d-0441-4ceb-9e63-eebd252f32aa__pspm,http://pspm.pingstart.com/api/v4/postback?from=1706&clickid=accc682d-0441-4ceb-9e63-eebd252f32aa__pspm,idfa_077700bc-aa69-463c-9571-bb3972a2b318,%E4%B8%AD%E6%96%87
K9sjgpAlSmmsSXzYIHj5Mg,newborntown,p1833_kchpgjl8lckzyrssdy0r,Install,4.4,61.65.162.183,ce6a9d33-9ecb-4496-82be-1fb7187c6040,1558846313,2019-05-26 12:51:53,1558846477,2019-05-26 12:54:37,1558846507,491d4f9a-e512-4fb1-8f6a-380d3258706e__pspm,http://pspm.pingstart.com/api/v4/postback?from=1706&clickid=491d4f9a-e512-4fb1-8f6a-380d3258706e__pspm,idfa_ce6a9d33-9ecb-4496-82be-1fb7187c6040,%E4%B8%AD%E6%96%87
K9sjgpAlSmmsSXzYIHj5Mg,newborntown,p1833_kchpgjl8lckzyrssdy0r,Install,4.4,1.165.23.28,3e5b9b84-3363-49e4-b1b8-596d7296fa4e,1558846584,2019-05-26 12:56:24,1558846728,2019-05-26 12:58:48,1558846758,f87e1fd5-4a3d-4f87-b692-0f5f563e9cc2__pspm,http://pspm.pingstart.com/api/v4/postback?from=1706&clickid=f87e1fd5-4a3d-4f87-b692-0f5f563e9cc2__pspm,idfa_3e5b9b84-3363-49e4-b1b8-596d7296fa4e,%E4%B8%AD%E6%96%87
K9sjgpAlSmmsSXzYIHj5Mg,newborntown,p1833_kchpgjl8lckzyrssdy0r,Install,4.4,123.50.58.27,e82c8e29-38d4-498d-8c4e-d2bdb3fec264,1558690517,2019-05-24 17:35:17,1558690692,2019-05-24 17:38:12,1558690722,138bf9ce-7fcc-48be-b83f-40ae9bbaaebd__pspm,http://pspm.pingstart.com/api/v4/postback?from=1706&clickid=138bf9ce-7fcc-48be-b83f-40ae9bbaaebd__pspm,idfa_e82c8e29-38d4-498d-8c4e-d2bdb3fec264,%E4%B8%AD%E6%96%87
K9sjgpAlSmmsSXzYIHj5Mg,newborntown,p1833_kchpgjl8lckzyrssdy0r,Install,4.4,118.165.159.203,dc71991a-c2cb-458e-8672-ba313ad983c9,1558689510,2019-05-24 17:18:30,1558689682,2019-05-24 17:21:22,1558689714,0457a3bc-7a62-4c15-a04e-e0deeb771c96__pspm,http://pspm.pingstart.com/api/v4/postback?from=1706&clickid=0457a3bc-7a62-4c15-a04e-e0deeb771c96__pspm,idfa_dc71991a-c2cb-458e-8672-ba313ad983c9,%E4%B8%AD%E6%96%87
K9sjgpAlSmmsSXzYIHj5Mg,newborntown,p1833_kchpgjl8lckzyrssdy0r,Install,4.4,36.226.59.150,0f8dcf11-63d9-47d9-bb81-306bedf78c94,1558846321,2019-05-26 12:52:01,1558846501,2019-05-26 12:55:01,1558846533,3446c059-9ace-4724-b526-1be427e3b1d6__pspm,http://pspm.pingstart.com/api/v4/postback?from=1706&clickid=3446c059-9ace-4724-b526-1be427e3b1d6__pspm,idfa_0f8dcf11-63d9-47d9-bb81-306bedf78c94,%E4%B8%AD%E6%96%87
K9sjgpAlSmmsSXzYIHj5Mg,newborntown,p1833_kchpgjl8lckzyrssdy0r,Install,4.4,122.118.210.125,118c79ad-d50b-6927-9c87-8aea7b3bf5b2,1558841378,2019-05-26 11:29:38,1558841552,2019-05-26 11:32:32,1558841583,7c07db27-7c1a-4e67-aac7-b35d1e160449__pspm,http://pspm.pingstart.com/api/v4/postback?from=1706&clickid=7c07db27-7c1a-4e67-aac7-b35d1e160449__pspm,idfa_118c79ad-d50b-6927-9c87-8aea7b3bf5b2,%E4%B8%AD%E6%96%87
K9sjgpAlSmmsSXzYIHj5Mg,newborntown,p1833_kchpgjl8lckzyrssdy0r,Install,4.4,59.115.121.133,9989356f-7620-4d3b-bce1-9ef7db92223a,1558846322,2019-05-26 12:52:02,1558846456,2019-05-26 12:54:16,1558846486,5ae5c332-b16e-4536-bec4-16129944e881__pspm,http://pspm.pingstart.com/api/v4/postback?from=1706&clickid=5ae5c332-b16e-4536-bec4-16129944e881__pspm,idfa_9989356f-7620-4d3b-bce1-9ef7db92223a,%E4%B8%AD%E6%96%87
K9sjgpAlSmmsSXzYIHj5Mg,newborntown,p1833_kchpgjl8lckzyrssdy0r,Install,4.4,36.233.17.216,15034eb4-bf34-4b0d-b519-9b209853e89f,1558699911,2019-05-24 20:11:51,1558700059,2019-05-24 20:14:19,1558700090,30f3fc19-5629-44b4-a187-7a131c30d036__pspm,http://pspm.pingstart.com/api/v4/postback?from=1706&clickid=30f3fc19-5629-44b4-a187-7a131c30d036__pspm,idfa_15034eb4-bf34-4b0d-b519-9b209853e89f,%E4%B8%AD%E6%96%87
K9sjgpAlSmmsSXzYIHj5Mg,newborntown,p1833_kchpgjl8lckzyrssdy0r,Install,4.4,1.165.184.178,65d2798a-bb90-4dc2-8808-1d4f6a7cb621,1558846328,2019-05-26 12:52:08,1558846461,2019-05-26 12:54:21,1558846492,8371f874-3b2f-4ae6-9818-e3c30f07c3e6__pspm,http://pspm.pingstart.com/api/v4/postback?from=1706&clickid=8371f874-3b2f-4ae6-9818-e3c30f07c3e6__pspm,idfa_65d2798a-bb90-4dc2-8808-1d4f6a7cb621,%E4%B8%AD%E6%96%87
K9sjgpAlSmmsSXzYIHj5Mg,newborntown,p1833_kchpgjl8lckzyrssdy0r,Install,4.4,42.72.159.134,b3d5a55d-940f-46bc-9155-7f08cb0093e1,1558702931,2019-05-24 21:02:11,1558703069,2019-05-24 21:04:29,1558703101,59f8ad32-37c6-4bcb-bb63-8559fb1cd1b1__pspm,http://pspm.pingstart.com/api/v4/postback?from=1706&clickid=59f8ad32-37c6-4bcb-bb63-8559fb1cd1b1__pspm,idfa_b3d5a55d-940f-46bc-9155-7f08cb0093e1,%E4%B8%AD%E6%96%87
K9sjgpAlSmmsSXzYIHj5Mg,newborntown,p1833_kchpgjl8lckzyrssdy0r,Install,4.4,59.102.138.169,5d4754e3-0f07-4829-bcb9-775ab684f7ef,1558846731,2019-05-26 12:58:51,1558846898,2019-05-26 13:01:38,1558846928,c33aef96-5954-408f-b86a-dccd61b6646e__pspm,http://pspm.pingstart.com/api/v4/postback?from=1706&clickid=c33aef96-5954-408f-b86a-dccd61b6646e__pspm,idfa_5d4754e3-0f07-4829-bcb9-775ab684f7ef,%E4%B8%AD%E6%96%87
