cid,partner_id,channel_id,action_id,cpi,ip,idfa,click time,click datetime,install time,install datetime,postback time,click id,postback url,unique user id
CFCgdFlNR12Wr6-ACAwFQw,newborntown,p1789_511-szll10000,Install,1.3,182.166.8.76,00000000-0000-0000-0000-000000000000,1557558287,2019-05-11 15:04:47,1557565303,2019-05-11 17:01:43,1557565303,1ae210ed-7073-44c4-bd99-b318051f9c48__pspm,http://pspm.pingstart.com/api/v4/postback?from=1706&clickid=1ae210ed-7073-44c4-bd99-b318051f9c48__pspm,idfa_00000000-0000-0000-0000-000000000000,ja
CFCgdFlNR12Wr6-ACAwFQw,newborntown,p1789_511-szll10000,Install,1.3,221.171.236.186,A6638C73-F1BC-48AC-BC5F-F25D1BD07858,1557215629,2019-05-07 15:53:49,1557216203,2019-05-07 16:03:23,1557216203,db64da0c-c5f5-4295-85f5-85910fde7022__pspm,http://pspm.pingstart.com/api/v4/postback?from=1706&clickid=db64da0c-c5f5-4295-85f5-85910fde7022__pspm,idfa_A6638C73-F1BC-48AC-BC5F-F25D1BD07858,ja
CFCgdFlNR12Wr6-ACAwFQw,newborntown,p1789_511-szll10000,Install,1.3,60.119.29.18,88503BBF-0757-4438-9121-3FD28076C60D,1557569586,2019-05-11 18:13:06,1557569673,2019-05-11 18:14:33,1557569673,98e5b563-ecc3-41d3-9336-7fc65bfca3a5__pspm,http://pspm.pingstart.com/api/v4/postback?from=1706&clickid=98e5b563-ecc3-41d3-9336-7fc65bfca3a5__pspm,idfa_88503BBF-0757-4438-9121-3FD28076C60D,ja
CFCgdFlNR12Wr6-ACAwFQw,newborntown,p1789_511-szll10000,Install,1.3,119.24.124.121,BB4A4B88-6C77-4A0F-8607-0E46E3BCEE9E,1557622179,2019-05-12 08:49:39,1557622361,2019-05-12 08:52:41,1557622361,62bc69c6-2ffa-4a72-a25e-92f59d273307__pspm,http://pspm.pingstart.com/api/v4/postback?from=1706&clickid=62bc69c6-2ffa-4a72-a25e-92f59d273307__pspm,idfa_BB4A4B88-6C77-4A0F-8607-0E46E3BCEE9E,ja
CFCgdFlNR12Wr6-ACAwFQw,newborntown,p1789_511-szll10000,Install,1.3,60.126.65.177,7E0ACECC-CB8E-4D79-B6B6-04D0C4765781,1557636775,2019-05-12 12:52:55,1557637152,2019-05-12 12:59:12,1557637152,98e68448-6b87-40c0-9ab8-1a6c789af055__pspm,http://pspm.pingstart.com/api/v4/postback?from=1706&clickid=98e68448-6b87-40c0-9ab8-1a6c789af055__pspm,idfa_7E0ACECC-CB8E-4D79-B6B6-04D0C4765781,ja
CFCgdFlNR12Wr6-ACAwFQw,newborntown,p1789_511-szll10000,Install,1.3,106.133.40.66,FAF393F7-D77A-4D4C-A4B4-7A3322475255,1557566276,2019-05-11 17:17:56,1557566974,2019-05-11 17:29:34,1557566974,1c3e8901-d2b8-4f15-a05e-5ef92a328e24__pspm,http://pspm.pingstart.com/api/v4/postback?from=1706&clickid=1c3e8901-d2b8-4f15-a05e-5ef92a328e24__pspm,idfa_FAF393F7-D77A-4D4C-A4B4-7A3322475255,ja
CFCgdFlNR12Wr6-ACAwFQw,newborntown,p1789_511-szll10000,Install,1.3,106.180.47.197,0F6ABFFB-8286-4071-B5C3-F5E467E25569,1557293489,2019-05-08 13:31:29,1557306490,2019-05-08 17:08:10,1557306490,0104f65f-9284-40ff-8474-f751f3319015__pspm,http://pspm.pingstart.com/api/v4/postback?from=1706&clickid=0104f65f-9284-40ff-8474-f751f3319015__pspm,idfa_0F6ABFFB-8286-4071-B5C3-F5E467E25569,ja
CFCgdFlNR12Wr6-ACAwFQw,newborntown,p1789_511-szll10000,Install,1.3,219.167.123.241,58428F65-DF67-4945-AE96-4E585D5DE647,1557623258,2019-05-12 09:07:38,1557623466,2019-05-12 09:11:06,1557623466,50a69ade-9e89-43fa-9b68-4cf1d35aaabe__pspm,http://pspm.pingstart.com/api/v4/postback?from=1706&clickid=50a69ade-9e89-43fa-9b68-4cf1d35aaabe__pspm,idfa_58428F65-DF67-4945-AE96-4E585D5DE647,ja
CFCgdFlNR12Wr6-ACAwFQw,newborntown,p1789_511-szll10000,Install,1.3,180.51.16.181,00000000-0000-0000-0000-000000000000,1557621307,2019-05-12 08:35:07,1557621579,2019-05-12 08:39:39,1557621579,cfa3c242-dd65-40e2-8b7f-76a32e3af07c__pspm,http://pspm.pingstart.com/api/v4/postback?from=1706&clickid=cfa3c242-dd65-40e2-8b7f-76a32e3af07c__pspm,idfa_00000000-0000-0000-0000-000000000000,ja
CFCgdFlNR12Wr6-ACAwFQw,newborntown,p1789_511-szll10000,Install,1.3,220.5.248.50,AFA4B65E-7BBB-44F1-B59A-6A33FE773B80,1557559697,2019-05-11 15:28:17,1557560069,2019-05-11 15:34:29,1557560069,52669848-1992-4564-897d-6a247427f88b__pspm,http://pspm.pingstart.com/api/v4/postback?from=1706&clickid=52669848-1992-4564-897d-6a247427f88b__pspm,idfa_AFA4B65E-7BBB-44F1-B59A-6A33FE773B80,ja
CFCgdFlNR12Wr6-ACAwFQw,newborntown,p1789_511-szll10000,Install,1.3,124.159.195.191,341FB774-BAD4-41CE-A6E2-FCD258B9EA5E,1557568938,2019-05-11 18:02:18,1557569322,2019-05-11 18:08:42,1557569322,12edcbe4-95d8-4874-859b-f570a727e053__pspm,http://pspm.pingstart.com/api/v4/postback?from=1706&clickid=12edcbe4-95d8-4874-859b-f570a727e053__pspm,idfa_341FB774-BAD4-41CE-A6E2-FCD258B9EA5E,ja
CFCgdFlNR12Wr6-ACAwFQw,newborntown,p1789_511-szll10000,Install,1.3,125.9.131.29,5E52DBF7-6771-420B-9F63-8DC2EC3C2764,1557561313,2019-05-11 15:55:13,1557572353,2019-05-11 18:59:13,1557572353,d435e208-fb42-4e77-acf5-f3077eff12fb__pspm,http://pspm.pingstart.com/api/v4/postback?from=1706&clickid=d435e208-fb42-4e77-acf5-f3077eff12fb__pspm,idfa_5E52DBF7-6771-420B-9F63-8DC2EC3C2764,ja
CFCgdFlNR12Wr6-ACAwFQw,newborntown,p1789_511-szll10000,Install,1.3,180.49.145.138,00000000-0000-0000-0000-000000000000,1557559945,2019-05-11 15:32:25,1557560236,2019-05-11 15:37:16,1557560236,a98af813-0212-4372-9fd5-8f45d08b2182__pspm,http://pspm.pingstart.com/api/v4/postback?from=1706&clickid=a98af813-0212-4372-9fd5-8f45d08b2182__pspm,idfa_00000000-0000-0000-0000-000000000000,ja
CFCgdFlNR12Wr6-ACAwFQw,newborntown,p1789_511-szll10000,Install,1.3,180.59.211.236,00000000-0000-0000-0000-000000000000,1557642794,2019-05-12 14:33:14,1557647152,2019-05-12 15:45:52,1557647152,d15aaac1-eace-4e5f-ab8b-3b2d80477001__pspm,http://pspm.pingstart.com/api/v4/postback?from=1706&clickid=d15aaac1-eace-4e5f-ab8b-3b2d80477001__pspm,idfa_00000000-0000-0000-0000-000000000000,ja
CFCgdFlNR12Wr6-ACAwFQw,newborntown,p1789_511-szll10000,Install,1.3,124.140.50.144,7B1BDB37-D344-4BE4-8B9D-6C4E4C98363E,1557541945,2019-05-11 10:32:25,1557551857,2019-05-11 13:17:37,1557551857,75c3f6d5-be2b-494b-ac01-7315ac90b816__pspm,http://pspm.pingstart.com/api/v4/postback?from=1706&clickid=75c3f6d5-be2b-494b-ac01-7315ac90b816__pspm,idfa_7B1BDB37-D344-4BE4-8B9D-6C4E4C98363E,ja
CFCgdFlNR12Wr6-ACAwFQw,newborntown,p1789_511-szll10000,Install,1.3,58.98.191.34,AFC2918A-DDF8-4B19-B193-D78A4AF11705,1557643596,2019-05-12 14:46:36,1557646641,2019-05-12 15:37:21,1557646641,ef39027c-439b-42c8-95dd-2ffe8a4c22ae__pspm,http://pspm.pingstart.com/api/v4/postback?from=1706&clickid=ef39027c-439b-42c8-95dd-2ffe8a4c22ae__pspm,idfa_AFC2918A-DDF8-4B19-B193-D78A4AF11705,ja
CFCgdFlNR12Wr6-ACAwFQw,newborntown,p1789_511-szll10000,Install,1.3,126.47.237.187,00000000-0000-0000-0000-000000000000,1557707724,2019-05-13 08:35:24,1557707795,2019-05-13 08:36:35,1557707795,0ca98b39-21c1-4915-900a-e1542dd88d4d__pspm,http://pspm.pingstart.com/api/v4/postback?from=1706&clickid=0ca98b39-21c1-4915-900a-e1542dd88d4d__pspm,idfa_00000000-0000-0000-0000-000000000000,ja
CFCgdFlNR12Wr6-ACAwFQw,newborntown,p1789_511-szll10000,Install,1.3,110.133.114.122,00000000-0000-0000-0000-000000000000,1557560067,2019-05-11 15:34:27,1557560556,2019-05-11 15:42:36,1557560556,7aedd91b-4e6f-4e1a-9a20-2e65acb8a9b7__pspm,http://pspm.pingstart.com/api/v4/postback?from=1706&clickid=7aedd91b-4e6f-4e1a-9a20-2e65acb8a9b7__pspm,idfa_00000000-0000-0000-0000-000000000000,ja
CFCgdFlNR12Wr6-ACAwFQw,newborntown,p1789_511-szll10000,Install,1.3,106.165.220.203,AC4BD6C8-32B4-427E-B244-F7421DE27119,1557570752,2019-05-11 18:32:32,1557570903,2019-05-11 18:35:03,1557570903,cbab4aaf-5526-432f-b2e5-6fd1c16ff3f3__pspm,http://pspm.pingstart.com/api/v4/postback?from=1706&clickid=cbab4aaf-5526-432f-b2e5-6fd1c16ff3f3__pspm,idfa_AC4BD6C8-32B4-427E-B244-F7421DE27119,ja
CFCgdFlNR12Wr6-ACAwFQw,newborntown,p1789_511-szll10000,Install,1.3,202.231.246.18,B9A154B2-14C8-4F7F-AA33-D5F97E4267BC,1557565830,2019-05-11 17:10:30,1557571090,2019-05-11 18:38:10,1557571090,7002cc20-27f5-47ed-a237-f163ca12dda2__pspm,http://pspm.pingstart.com/api/v4/postback?from=1706&clickid=7002cc20-27f5-47ed-a237-f163ca12dda2__pspm,idfa_B9A154B2-14C8-4F7F-AA33-D5F97E4267BC,ja
CFCgdFlNR12Wr6-ACAwFQw,newborntown,p1789_511-szll10000,Install,1.3,157.65.155.124,00000000-0000-0000-0000-000000000000,1557562136,2019-05-11 16:08:56,1557565477,2019-05-11 17:04:37,1557565477,368d8bcb-142a-4553-9afb-47700b7bef81__pspm,http://pspm.pingstart.com/api/v4/postback?from=1706&clickid=368d8bcb-142a-4553-9afb-47700b7bef81__pspm,idfa_00000000-0000-0000-0000-000000000000,ja
CFCgdFlNR12Wr6-ACAwFQw,newborntown,p1789_511-szll10000,Install,1.3,114.169.6.109,6EC7AE24-7BC8-4B0B-924F-BE0CC0AF0C7B,1557633253,2019-05-12 11:54:13,1557633575,2019-05-12 11:59:35,1557633575,b117a174-d19c-49ea-b5d8-282a489fcc16__pspm,http://pspm.pingstart.com/api/v4/postback?from=1706&clickid=b117a174-d19c-49ea-b5d8-282a489fcc16__pspm,idfa_6EC7AE24-7BC8-4B0B-924F-BE0CC0AF0C7B,ja
CFCgdFlNR12Wr6-ACAwFQw,newborntown,p1789_511-szll10000,Install,1.3,222.150.224.173,F90F8B93-0678-4B29-ACC3-5F47A3608691,1557568692,2019-05-11 17:58:12,1557570960,2019-05-11 18:36:00,1557570960,801176bd-950b-45c8-bdab-90f8bfb193c5__pspm,http://pspm.pingstart.com/api/v4/postback?from=1706&clickid=801176bd-950b-45c8-bdab-90f8bfb193c5__pspm,idfa_F90F8B93-0678-4B29-ACC3-5F47A3608691,ja
CFCgdFlNR12Wr6-ACAwFQw,newborntown,p1789_511-szll10000,Install,1.3,60.97.24.200,00000000-0000-0000-0000-000000000000,1557635913,2019-05-12 12:38:33,1557654774,2019-05-12 17:52:54,1557654774,8e3b67e3-ca76-471f-848d-ce3c24b50ddb__pspm,http://pspm.pingstart.com/api/v4/postback?from=1706&clickid=8e3b67e3-ca76-471f-848d-ce3c24b50ddb__pspm,idfa_00000000-0000-0000-0000-000000000000,ja
