cid,partner_id,channel_id,action_id,cpi,ip,idfa,click time,click datetime,install time,install datetime,postback time,click id,postback url,unique user id
p4J_GqjySSWGBJVVqnJYbQ,newborntown,p1548_110_63_823-387,install,1.1,106.251.154.154,474B29D8-D9E9-47E2-AF2F-6B010CDEFD78,1557925545,2019-05-15 21:05:45,1557925714,2019-05-15 21:08:34,1557893345,0659b0ed-1817-465e-8873-d8e01717ab45__pspm,http://pspm.pingstart.com/api/v4/postback?from=1706&clickid=0659b0ed-1817-465e-8873-d8e01717ab45__pspm,idfa_474B29D8-D9E9-47E2-AF2F-6B010CDEFD78,
p4J_GqjySSWGBJVVqnJYbQ,newborntown,p1548_110_63_823-387,install,1.1,106.245.93.130,3B3B0AE7-BCC2-41DA-B179-53EC34BD3B48,1557925021,2019-05-15 20:57:01,1557925132,2019-05-15 20:58:52,1557892744,c746e1a8-fb0b-4bc2-b178-836fc57accc7__pspm,http://pspm.pingstart.com/api/v4/postback?from=1706&clickid=c746e1a8-fb0b-4bc2-b178-836fc57accc7__pspm,idfa_3B3B0AE7-BCC2-41DA-B179-53EC34BD3B48,
p4J_GqjySSWGBJVVqnJYbQ,newborntown,p1548_110_63_823-387,install,1.1,180.69.132.138,EA467D08-1936-41E1-8471-51D9C80A90F0,1557925072,2019-05-15 20:57:52,1557925286,2019-05-15 21:01:26,1557892924,c712c618-0790-4988-846e-75824a5dcb7d__pspm,http://pspm.pingstart.com/api/v4/postback?from=1706&clickid=c712c618-0790-4988-846e-75824a5dcb7d__pspm,idfa_EA467D08-1936-41E1-8471-51D9C80A90F0,
p4J_GqjySSWGBJVVqnJYbQ,newborntown,p1548_110_63_823-387,install,1.1,124.111.220.96,AD051E7E-12DE-4DE3-9897-653A592889F3,1557924564,2019-05-15 20:49:24,1557924688,2019-05-15 20:51:28,1557892325,ea3905d9-361a-43c8-a428-bbb94ba89c4f__pspm,http://pspm.pingstart.com/api/v4/postback?from=1706&clickid=ea3905d9-361a-43c8-a428-bbb94ba89c4f__pspm,idfa_AD051E7E-12DE-4DE3-9897-653A592889F3,
p4J_GqjySSWGBJVVqnJYbQ,newborntown,p1548_110_63_823-387,install,1.1,124.60.57.57,DE6ED635-3967-4288-B96E-14B05993D0C4,1557924072,2019-05-15 20:41:12,1557924214,2019-05-15 20:43:34,1557891844,4fa7f994-bf0a-4782-81ad-e872f3692654__pspm,http://pspm.pingstart.com/api/v4/postback?from=1706&clickid=4fa7f994-bf0a-4782-81ad-e872f3692654__pspm,idfa_DE6ED635-3967-4288-B96E-14B05993D0C4,
p4J_GqjySSWGBJVVqnJYbQ,newborntown,p1548_110_63_823-387,install,1.1,175.205.170.160,552FE5E4-A142-48EE-920B-3BE3F099501F,1557924097,2019-05-15 20:41:37,1557924286,2019-05-15 20:44:46,1557891909,c37f372d-024e-432b-88c0-12a3d8fc2348__pspm,http://pspm.pingstart.com/api/v4/postback?from=1706&clickid=c37f372d-024e-432b-88c0-12a3d8fc2348__pspm,idfa_552FE5E4-A142-48EE-920B-3BE3F099501F,
p4J_GqjySSWGBJVVqnJYbQ,newborntown,p1548_110_63_823-387,install,1.1,118.47.56.42,3E4784C5-95A0-467E-8683-D5D2CAFD7E47,1557925077,2019-05-15 20:57:57,1557925198,2019-05-15 20:59:58,1557892808,38f6b20f-70e6-4e9c-9f8b-8407fa9046d1__pspm,http://pspm.pingstart.com/api/v4/postback?from=1706&clickid=38f6b20f-70e6-4e9c-9f8b-8407fa9046d1__pspm,idfa_3E4784C5-95A0-467E-8683-D5D2CAFD7E47,
p4J_GqjySSWGBJVVqnJYbQ,newborntown,p1548_110_63_823-387,install,1.1,183.101.92.192,DA89A3CD-2F75-4A83-9619-998B897DE659,1557924597,2019-05-15 20:49:57,1557924730,2019-05-15 20:52:10,1557892384,bde74106-3e6c-44ad-9162-fe3238342d96__pspm,http://pspm.pingstart.com/api/v4/postback?from=1706&clickid=bde74106-3e6c-44ad-9162-fe3238342d96__pspm,idfa_DA89A3CD-2F75-4A83-9619-998B897DE659,
p4J_GqjySSWGBJVVqnJYbQ,newborntown,p1548_110_63_823-387,install,1.1,122.45.72.51,07B542F8-1997-4327-9C4F-0DC165710EE8,1557924959,2019-05-15 20:55:59,1557925196,2019-05-15 20:59:56,1557892807,3a5cca38-520c-4896-a7be-2c2d1d4f7107__pspm,http://pspm.pingstart.com/api/v4/postback?from=1706&clickid=3a5cca38-520c-4896-a7be-2c2d1d4f7107__pspm,idfa_07B542F8-1997-4327-9C4F-0DC165710EE8,
p4J_GqjySSWGBJVVqnJYbQ,newborntown,p1548_110_63_823-387,install,1.1,121.184.248.157,D1AB8D12-17FA-4763-9094-79CE752AFE86,1557924578,2019-05-15 20:49:38,1557924738,2019-05-15 20:52:18,1557892386,e6401bd4-48d6-4b9a-8580-ed7389deaf3d__pspm,http://pspm.pingstart.com/api/v4/postback?from=1706&clickid=e6401bd4-48d6-4b9a-8580-ed7389deaf3d__pspm,idfa_D1AB8D12-17FA-4763-9094-79CE752AFE86,
p4J_GqjySSWGBJVVqnJYbQ,newborntown,p1548_110_63_823-387,install,1.1,210.179.34.22,EA8B12CE-C267-47BB-9FBD-060AA59AAEAB,1557925476,2019-05-15 21:04:36,1557925669,2019-05-15 21:07:49,1557893286,18d1b787-f3df-452e-b84d-776de882686e__pspm,http://pspm.pingstart.com/api/v4/postback?from=1706&clickid=18d1b787-f3df-452e-b84d-776de882686e__pspm,idfa_EA8B12CE-C267-47BB-9FBD-060AA59AAEAB,
p4J_GqjySSWGBJVVqnJYbQ,newborntown,p1548_110_63_823-387,install,1.1,175.198.138.56,115408E7-53C7-4228-A7E2-AD1D70E9D327,1557925581,2019-05-15 21:06:21,1557925712,2019-05-15 21:08:32,1557893345,fb6481c9-e390-4a0f-b1c0-9541efdb1c01__pspm,http://pspm.pingstart.com/api/v4/postback?from=1706&clickid=fb6481c9-e390-4a0f-b1c0-9541efdb1c01__pspm,idfa_115408E7-53C7-4228-A7E2-AD1D70E9D327,
p4J_GqjySSWGBJVVqnJYbQ,newborntown,p1548_110_63_823-387,install,1.1,119.199.86.86,FD4E6A6C-757F-4E3D-9B58-C1D2C9FDA1A1,1557924492,2019-05-15 20:48:12,1557924615,2019-05-15 20:50:15,1557892265,5d3515e8-fa17-4b23-bf49-3da1babc7a79__pspm,http://pspm.pingstart.com/api/v4/postback?from=1706&clickid=5d3515e8-fa17-4b23-bf49-3da1babc7a79__pspm,idfa_FD4E6A6C-757F-4E3D-9B58-C1D2C9FDA1A1,
p4J_GqjySSWGBJVVqnJYbQ,newborntown,p1548_110_63_823-387,install,1.1,220.70.31.156,01EA9A5A-B4B1-4FAC-A453-4D48F92AEB3A,1557925426,2019-05-15 21:03:46,1557925624,2019-05-15 21:07:04,1557893285,6d113851-1a9b-476e-8cb1-c986c552b8fc__pspm,http://pspm.pingstart.com/api/v4/postback?from=1706&clickid=6d113851-1a9b-476e-8cb1-c986c552b8fc__pspm,idfa_01EA9A5A-B4B1-4FAC-A453-4D48F92AEB3A,
p4J_GqjySSWGBJVVqnJYbQ,newborntown,p1548_110_63_823-387,install,1.1,121.157.133.243,7B5D7365-C920-4C01-812D-38BFB9B0B8F8,1557925043,2019-05-15 20:57:23,1557925182,2019-05-15 20:59:42,1557892807,f4f7c7e8-c5dd-4983-9031-25ed91ede05b__pspm,http://pspm.pingstart.com/api/v4/postback?from=1706&clickid=f4f7c7e8-c5dd-4983-9031-25ed91ede05b__pspm,idfa_7B5D7365-C920-4C01-812D-38BFB9B0B8F8,
p4J_GqjySSWGBJVVqnJYbQ,newborntown,p1548_110_63_823-387,install,1.1,128.134.18.136,909A390C-FE20-4D1C-80B1-40FC8F1ED0D6,1557924510,2019-05-15 20:48:30,1557924660,2019-05-15 20:51:00,1557892266,93a648c5-9ea3-451d-a70a-78b68a62f158__pspm,http://pspm.pingstart.com/api/v4/postback?from=1706&clickid=93a648c5-9ea3-451d-a70a-78b68a62f158__pspm,idfa_909A390C-FE20-4D1C-80B1-40FC8F1ED0D6,
p4J_GqjySSWGBJVVqnJYbQ,newborntown,p1548_110_63_823-387,install,1.1,112.222.212.83,7BFDBD75-61FF-4DA4-A4CB-BACEC891D439,1557924534,2019-05-15 20:48:54,1557924688,2019-05-15 20:51:28,1557892325,bda84c23-3cde-4efb-8e1e-250fad6df3ec__pspm,http://pspm.pingstart.com/api/v4/postback?from=1706&clickid=bda84c23-3cde-4efb-8e1e-250fad6df3ec__pspm,idfa_7BFDBD75-61FF-4DA4-A4CB-BACEC891D439,
p4J_GqjySSWGBJVVqnJYbQ,newborntown,p1548_110_63_823-387,install,1.1,115.90.125.66,56117741-9917-41CE-B072-7A3C0EB8B520,1557925545,2019-05-15 21:05:45,1557925668,2019-05-15 21:07:48,1557893286,5d1d1967-7c75-4996-8420-9f188016e231__pspm,http://pspm.pingstart.com/api/v4/postback?from=1706&clickid=5d1d1967-7c75-4996-8420-9f188016e231__pspm,idfa_56117741-9917-41CE-B072-7A3C0EB8B520,
p4J_GqjySSWGBJVVqnJYbQ,newborntown,p1548_110_63_823-387,install,1.1,121.159.138.196,A7B858B5-22F3-4A81-AF14-F3231030A322,1557923627,2019-05-15 20:33:47,1557923768,2019-05-15 20:36:08,1557891425,ac42d3b7-cd0e-4b24-bdd1-b3f88d91c01e__pspm,http://pspm.pingstart.com/api/v4/postback?from=1706&clickid=ac42d3b7-cd0e-4b24-bdd1-b3f88d91c01e__pspm,idfa_A7B858B5-22F3-4A81-AF14-F3231030A322,
p4J_GqjySSWGBJVVqnJYbQ,newborntown,p1548_110_63_823-387,install,1.1,125.177.184.132,9BF3DF54-82A8-4E24-A6E9-190DBCE33464,1557925593,2019-05-15 21:06:33,1557925760,2019-05-15 21:09:20,1557893407,cf4741ff-c02c-476b-b3eb-087cce9c40f7__pspm,http://pspm.pingstart.com/api/v4/postback?from=1706&clickid=cf4741ff-c02c-476b-b3eb-087cce9c40f7__pspm,idfa_9BF3DF54-82A8-4E24-A6E9-190DBCE33464,
p4J_GqjySSWGBJVVqnJYbQ,newborntown,p1548_110_63_823-387,install,1.1,175.211.96.213,F14F2D51-77E6-4DF3-92F8-5A29F52FA481,1557925064,2019-05-15 20:57:44,1557925196,2019-05-15 20:59:56,1557892807,9edfe2cb-b79f-4ee1-9539-95fd1fffcbca__pspm,http://pspm.pingstart.com/api/v4/postback?from=1706&clickid=9edfe2cb-b79f-4ee1-9539-95fd1fffcbca__pspm,idfa_F14F2D51-77E6-4DF3-92F8-5A29F52FA481,
p4J_GqjySSWGBJVVqnJYbQ,newborntown,p1548_110_63_823-387,install,1.1,222.251.244.41,EE8DB8FD-883F-4490-85DC-BF283C514E3A,1557923508,2019-05-15 20:31:48,1557923682,2019-05-15 20:34:42,1557891307,4768f4a9-6ebe-4e5e-af9a-fc3638781a81__pspm,http://pspm.pingstart.com/api/v4/postback?from=1706&clickid=4768f4a9-6ebe-4e5e-af9a-fc3638781a81__pspm,idfa_EE8DB8FD-883F-4490-85DC-BF283C514E3A,
p4J_GqjySSWGBJVVqnJYbQ,newborntown,p1548_110_63_823-387,install,1.1,61.83.1.153,99D5B736-54B4-4EDE-9B43-9945B9FEA8D0,1557925416,2019-05-15 21:03:36,1557925552,2019-05-15 21:05:52,1557893164,b3475237-d736-4d26-bb73-6697d0bf92d3__pspm,http://pspm.pingstart.com/api/v4/postback?from=1706&clickid=b3475237-d736-4d26-bb73-6697d0bf92d3__pspm,idfa_99D5B736-54B4-4EDE-9B43-9945B9FEA8D0,
p4J_GqjySSWGBJVVqnJYbQ,newborntown,p1548_110_63_823-387,install,1.1,121.161.9.41,748826D6-CA45-4800-A84E-16EA7D006B48,1557923625,2019-05-15 20:33:45,1557923721,2019-05-15 20:35:21,1557891365,486bc078-0785-41cd-abb6-323bffe46c5d__pspm,http://pspm.pingstart.com/api/v4/postback?from=1706&clickid=486bc078-0785-41cd-abb6-323bffe46c5d__pspm,idfa_748826D6-CA45-4800-A84E-16EA7D006B48,
p4J_GqjySSWGBJVVqnJYbQ,newborntown,p1548_110_63_823-387,install,1.1,211.179.98.158,8065312A-FAD5-4FEA-90DD-27D89C18A0DC,1557924626,2019-05-15 20:50:26,1557924740,2019-05-15 20:52:20,1557892386,22ed4ae9-1f6b-4856-a6c5-5a845f4f7905__pspm,http://pspm.pingstart.com/api/v4/postback?from=1706&clickid=22ed4ae9-1f6b-4856-a6c5-5a845f4f7905__pspm,idfa_8065312A-FAD5-4FEA-90DD-27D89C18A0DC,
p4J_GqjySSWGBJVVqnJYbQ,newborntown,p1548_110_63_823-387,install,1.1,1.215.83.91,A99208A2-D0DB-4E04-8F09-1211F840F760,1557924087,2019-05-15 20:41:27,1557924286,2019-05-15 20:44:46,1557891909,cb3040e0-3ddd-4435-b9e1-deae2e63015b__pspm,http://pspm.pingstart.com/api/v4/postback?from=1706&clickid=cb3040e0-3ddd-4435-b9e1-deae2e63015b__pspm,idfa_A99208A2-D0DB-4E04-8F09-1211F840F760,
p4J_GqjySSWGBJVVqnJYbQ,newborntown,p1548_110_63_823-387,install,1.1,121.135.194.223,C0C3A1A7-7803-4A56-B157-7A6303EEA5AC,1557925459,2019-05-15 21:04:19,1557925584,2019-05-15 21:06:24,1557893223,1ccd39a2-ee4a-4766-a29a-279c8a55c29b__pspm,http://pspm.pingstart.com/api/v4/postback?from=1706&clickid=1ccd39a2-ee4a-4766-a29a-279c8a55c29b__pspm,idfa_C0C3A1A7-7803-4A56-B157-7A6303EEA5AC,
p4J_GqjySSWGBJVVqnJYbQ,newborntown,p1548_110_63_823-387,install,1.1,14.51.236.247,C652AB80-60F6-4696-8A7C-2CC0F95FEFB1,1557924566,2019-05-15 20:49:26,1557924685,2019-05-15 20:51:25,1557892325,7a9a35c7-8728-4ee1-a09b-740f1c948077__pspm,http://pspm.pingstart.com/api/v4/postback?from=1706&clickid=7a9a35c7-8728-4ee1-a09b-740f1c948077__pspm,idfa_C652AB80-60F6-4696-8A7C-2CC0F95FEFB1,
p4J_GqjySSWGBJVVqnJYbQ,newborntown,p1548_110_63_823-387,install,1.1,175.121.88.101,B324BC0E-4208-4357-9B3E-917DBED05558,1557925545,2019-05-15 21:05:45,1557925640,2019-05-15 21:07:20,1557893286,a159aba7-7ac4-42e5-8fd4-b99f01d1820e__pspm,http://pspm.pingstart.com/api/v4/postback?from=1706&clickid=a159aba7-7ac4-42e5-8fd4-b99f01d1820e__pspm,idfa_B324BC0E-4208-4357-9B3E-917DBED05558,
p4J_GqjySSWGBJVVqnJYbQ,newborntown,p1548_110_63_823-387,install,1.1,221.149.104.247,01B26989-5382-4A77-B416-CCFD1E8A3C01,1557924026,2019-05-15 20:40:26,1557924217,2019-05-15 20:43:37,1557891845,628052be-b1cd-40c5-a749-a28a691da379__pspm,http://pspm.pingstart.com/api/v4/postback?from=1706&clickid=628052be-b1cd-40c5-a749-a28a691da379__pspm,idfa_01B26989-5382-4A77-B416-CCFD1E8A3C01,
p4J_GqjySSWGBJVVqnJYbQ,newborntown,p1548_110_63_823-387,install,1.1,14.34.31.165,B2E33D6E-2598-4405-B859-442B2B9A3AF1,1557925111,2019-05-15 20:58:31,1557925403,2019-05-15 21:03:23,1557893044,77e7e3fc-579b-48ad-b752-ee2650188603__pspm,http://pspm.pingstart.com/api/v4/postback?from=1706&clickid=77e7e3fc-579b-48ad-b752-ee2650188603__pspm,idfa_B2E33D6E-2598-4405-B859-442B2B9A3AF1,
p4J_GqjySSWGBJVVqnJYbQ,newborntown,p1548_110_63_823-387,install,1.1,59.26.73.200,EAD4BE80-A1B0-4194-92CB-977FDE738CE6,1557924674,2019-05-15 20:51:14,1557924821,2019-05-15 20:53:41,1557892447,59ae85ee-440a-4164-9fa6-9e0668424707__pspm,http://pspm.pingstart.com/api/v4/postback?from=1706&clickid=59ae85ee-440a-4164-9fa6-9e0668424707__pspm,idfa_EAD4BE80-A1B0-4194-92CB-977FDE738CE6,
p4J_GqjySSWGBJVVqnJYbQ,newborntown,p1548_110_63_823-387,install,1.1,125.130.67.139,40568121-CE73-46F5-8636-C25F91F82DFC,1557924975,2019-05-15 20:56:15,1557925134,2019-05-15 20:58:54,1557892745,aadddc26-94c7-4dc6-aaa1-e4bd39381fa9__pspm,http://pspm.pingstart.com/api/v4/postback?from=1706&clickid=aadddc26-94c7-4dc6-aaa1-e4bd39381fa9__pspm,idfa_40568121-CE73-46F5-8636-C25F91F82DFC,
p4J_GqjySSWGBJVVqnJYbQ,newborntown,p1548_110_63_823-387,install,1.1,180.65.252.250,5376A32A-D4A5-4111-9F63-74C0B7AC3695,1557925383,2019-05-15 21:03:03,1557925552,2019-05-15 21:05:52,1557893164,18c87b48-2b88-45f2-afad-2b66861f4707__pspm,http://pspm.pingstart.com/api/v4/postback?from=1706&clickid=18c87b48-2b88-45f2-afad-2b66861f4707__pspm,idfa_5376A32A-D4A5-4111-9F63-74C0B7AC3695,
p4J_GqjySSWGBJVVqnJYbQ,newborntown,p1548_110_63_823-387,install,1.1,61.109.13.177,4F95E6CF-53EE-4AF2-8382-A9047EDD106B,1557924808,2019-05-15 20:53:28,1557924900,2019-05-15 20:55:00,1557892511,a1b956d2-4e97-4c20-bcec-31f211b84679__pspm,http://pspm.pingstart.com/api/v4/postback?from=1706&clickid=a1b956d2-4e97-4c20-bcec-31f211b84679__pspm,idfa_4F95E6CF-53EE-4AF2-8382-A9047EDD106B,
p4J_GqjySSWGBJVVqnJYbQ,newborntown,p1548_110_63_823-387,install,1.1,118.131.207.27,03F9AA71-B719-4D50-A209-3AB76DF93B28,1557924487,2019-05-15 20:48:07,1557924600,2019-05-15 20:50:00,1557892209,d07191e3-0522-4b85-a471-1042b405c39d__pspm,http://pspm.pingstart.com/api/v4/postback?from=1706&clickid=d07191e3-0522-4b85-a471-1042b405c39d__pspm,idfa_03F9AA71-B719-4D50-A209-3AB76DF93B28,
p4J_GqjySSWGBJVVqnJYbQ,newborntown,p1548_110_63_823-387,install,1.1,39.119.164.32,A973CEE7-4128-42C5-91B0-12103F92728D,1557924104,2019-05-15 20:41:44,1557924331,2019-05-15 20:45:31,1557891965,8a024e1f-e541-4574-8620-912c48bacd7c__pspm,http://pspm.pingstart.com/api/v4/postback?from=1706&clickid=8a024e1f-e541-4574-8620-912c48bacd7c__pspm,idfa_A973CEE7-4128-42C5-91B0-12103F92728D,
p4J_GqjySSWGBJVVqnJYbQ,newborntown,p1548_110_63_823-387,install,1.1,218.234.115.13,7D4A5109-F570-4A3F-90B9-54B4757D9015,1557924486,2019-05-15 20:48:06,1557924660,2019-05-15 20:51:00,1557892266,d275d36e-70cc-4cc9-8e98-bf747deadeb9__pspm,http://pspm.pingstart.com/api/v4/postback?from=1706&clickid=d275d36e-70cc-4cc9-8e98-bf747deadeb9__pspm,idfa_7D4A5109-F570-4A3F-90B9-54B4757D9015,
p4J_GqjySSWGBJVVqnJYbQ,newborntown,p1548_110_63_823-387,install,1.1,175.197.51.109,BD720646-A4A2-4E4B-8785-670748A80E6A,1557925140,2019-05-15 20:59:00,1557925403,2019-05-15 21:03:23,1557893044,f35df383-7407-4802-a3d8-21cec1033bee__pspm,http://pspm.pingstart.com/api/v4/postback?from=1706&clickid=f35df383-7407-4802-a3d8-21cec1033bee__pspm,idfa_BD720646-A4A2-4E4B-8785-670748A80E6A,
p4J_GqjySSWGBJVVqnJYbQ,newborntown,p1548_110_63_823-387,install,1.1,121.171.152.13,9143B702-C70A-4375-9070-49A1BAF52108,1557922731,2019-05-15 20:18:51,1557922864,2019-05-15 20:21:04,1557890466,33ab2014-d221-43c7-a2a6-29182c11efc6__pspm,http://pspm.pingstart.com/api/v4/postback?from=1706&clickid=33ab2014-d221-43c7-a2a6-29182c11efc6__pspm,idfa_9143B702-C70A-4375-9070-49A1BAF52108,
p4J_GqjySSWGBJVVqnJYbQ,newborntown,p1548_110_63_823-387,install,1.1,182.226.173.212,FD06E251-4F03-40E7-A5BD-AD8C228353CD,1557924093,2019-05-15 20:41:33,1557924286,2019-05-15 20:44:46,1557891908,8b5e500f-f566-498f-954a-6a20b3463c48__pspm,http://pspm.pingstart.com/api/v4/postback?from=1706&clickid=8b5e500f-f566-498f-954a-6a20b3463c48__pspm,idfa_FD06E251-4F03-40E7-A5BD-AD8C228353CD,
p4J_GqjySSWGBJVVqnJYbQ,newborntown,p1548_110_63_823-387,install,1.1,125.128.154.38,A42C42EA-5C68-487E-8833-2D83F828449B,1557924031,2019-05-15 20:40:31,1557924156,2019-05-15 20:42:36,1557891784,02166301-d64e-48b9-a1cc-18142bd95aa9__pspm,http://pspm.pingstart.com/api/v4/postback?from=1706&clickid=02166301-d64e-48b9-a1cc-18142bd95aa9__pspm,idfa_A42C42EA-5C68-487E-8833-2D83F828449B,
p4J_GqjySSWGBJVVqnJYbQ,newborntown,p1548_110_63_823-387,install,1.1,175.119.117.17,B8F9D90C-7FFD-4D6B-BEC2-B51E13417DAB,1557924601,2019-05-15 20:50:01,1557924733,2019-05-15 20:52:13,1557892386,65a1e389-32c0-47fb-bb07-7f3b26b14bd1__pspm,http://pspm.pingstart.com/api/v4/postback?from=1706&clickid=65a1e389-32c0-47fb-bb07-7f3b26b14bd1__pspm,idfa_B8F9D90C-7FFD-4D6B-BEC2-B51E13417DAB,
p4J_GqjySSWGBJVVqnJYbQ,newborntown,p1548_110_63_823-387,install,1.1,222.118.229.97,E1E19991-8581-4239-B282-EDF76388D4DF,1557923666,2019-05-15 20:34:26,1557923858,2019-05-15 20:37:38,1557891485,031117c1-227d-48c6-8056-fbaae633a087__pspm,http://pspm.pingstart.com/api/v4/postback?from=1706&clickid=031117c1-227d-48c6-8056-fbaae633a087__pspm,idfa_E1E19991-8581-4239-B282-EDF76388D4DF,
p4J_GqjySSWGBJVVqnJYbQ,newborntown,p1548_110_63_823-387,install,1.1,115.94.139.106,BF155293-8D0D-47A4-B96B-89E4827EDF52,1557925094,2019-05-15 20:58:14,1557925228,2019-05-15 21:00:28,1557892864,17740b48-61d8-4a70-b212-fb5a9b9ee076__pspm,http://pspm.pingstart.com/api/v4/postback?from=1706&clickid=17740b48-61d8-4a70-b212-fb5a9b9ee076__pspm,idfa_BF155293-8D0D-47A4-B96B-89E4827EDF52,
p4J_GqjySSWGBJVVqnJYbQ,newborntown,p1548_110_63_823-387,install,1.1,119.64.198.212,6F845E67-3B9A-4F42-B9A2-F774905A7A42,1557924492,2019-05-15 20:48:12,1557924599,2019-05-15 20:49:59,1557892209,47b227c4-641f-47f4-92e9-aa3df6cdf20c__pspm,http://pspm.pingstart.com/api/v4/postback?from=1706&clickid=47b227c4-641f-47f4-92e9-aa3df6cdf20c__pspm,idfa_6F845E67-3B9A-4F42-B9A2-F774905A7A42,
p4J_GqjySSWGBJVVqnJYbQ,newborntown,p1548_110_63_823-387,install,1.1,115.23.81.26,02BD8AF0-4D22-486A-B88D-1583411B9A8C,1557925063,2019-05-15 20:57:43,1557925196,2019-05-15 20:59:56,1557892808,a80d9e29-c030-4421-a6e5-18defad52468__pspm,http://pspm.pingstart.com/api/v4/postback?from=1706&clickid=a80d9e29-c030-4421-a6e5-18defad52468__pspm,idfa_02BD8AF0-4D22-486A-B88D-1583411B9A8C,
p4J_GqjySSWGBJVVqnJYbQ,newborntown,p1548_110_63_823-387,install,1.1,59.14.121.134,2FE6AC1E-5BA5-4EF4-8AF7-C2E2B04FD064,1557924061,2019-05-15 20:41:01,1557924200,2019-05-15 20:43:20,1557891844,ed8bd90b-2309-4580-8b01-be2381c1a23d__pspm,http://pspm.pingstart.com/api/v4/postback?from=1706&clickid=ed8bd90b-2309-4580-8b01-be2381c1a23d__pspm,idfa_2FE6AC1E-5BA5-4EF4-8AF7-C2E2B04FD064,
p4J_GqjySSWGBJVVqnJYbQ,newborntown,p1548_110_63_823-387,install,1.1,211.182.146.221,49188808-9FF5-47EE-9ECE-D97A4770E4AB,1557923634,2019-05-15 20:33:54,1557923724,2019-05-15 20:35:24,1557891366,9357b1e0-f16d-47b1-8a2c-c7ffa14fb2d1__pspm,http://pspm.pingstart.com/api/v4/postback?from=1706&clickid=9357b1e0-f16d-47b1-8a2c-c7ffa14fb2d1__pspm,idfa_49188808-9FF5-47EE-9ECE-D97A4770E4AB,
p4J_GqjySSWGBJVVqnJYbQ,newborntown,p1548_110_63_823-387,install,1.1,220.76.219.28,758BEE8A-1D9D-4E2E-B1AE-875837F088F6,1557925465,2019-05-15 21:04:25,1557925616,2019-05-15 21:06:56,1557893224,734f35ad-a3b2-4846-b89e-28644817cf6e__pspm,http://pspm.pingstart.com/api/v4/postback?from=1706&clickid=734f35ad-a3b2-4846-b89e-28644817cf6e__pspm,idfa_758BEE8A-1D9D-4E2E-B1AE-875837F088F6,
p4J_GqjySSWGBJVVqnJYbQ,newborntown,p1548_110_63_823-387,install,1.1,116.41.54.216,20C7DF08-CCD8-4EA3-B055-0F1B00E82C30,1557924559,2019-05-15 20:49:19,1557924688,2019-05-15 20:51:28,1557892326,b4eebdc7-d442-40b8-ae67-9d0b95b0daeb__pspm,http://pspm.pingstart.com/api/v4/postback?from=1706&clickid=b4eebdc7-d442-40b8-ae67-9d0b95b0daeb__pspm,idfa_20C7DF08-CCD8-4EA3-B055-0F1B00E82C30,
p4J_GqjySSWGBJVVqnJYbQ,newborntown,p1548_110_63_823-387,install,1.1,114.204.237.109,CDBEF702-51E1-40D7-B9BB-1C9D4828D36C,1557924960,2019-05-15 20:56:00,1557925046,2019-05-15 20:57:26,1557892684,801d43b0-9aac-4067-9330-4deadf215131__pspm,http://pspm.pingstart.com/api/v4/postback?from=1706&clickid=801d43b0-9aac-4067-9330-4deadf215131__pspm,idfa_CDBEF702-51E1-40D7-B9BB-1C9D4828D36C,
p4J_GqjySSWGBJVVqnJYbQ,newborntown,p1548_110_63_823-387,install,1.1,223.62.215.58,A3B1E0E4-1750-40D6-80DE-AEEC8CB8AB0D,1557924551,2019-05-15 20:49:11,1557924688,2019-05-15 20:51:28,1557892326,7a30aefe-7519-4f9a-9576-c319fb6f092c__pspm,http://pspm.pingstart.com/api/v4/postback?from=1706&clickid=7a30aefe-7519-4f9a-9576-c319fb6f092c__pspm,idfa_A3B1E0E4-1750-40D6-80DE-AEEC8CB8AB0D,
p4J_GqjySSWGBJVVqnJYbQ,newborntown,p1548_110_63_823-387,install,1.1,182.227.157.111,2AD6A9BA-80E2-41F8-9A18-13960A348C7B,1557925465,2019-05-15 21:04:25,1557925624,2019-05-15 21:07:04,1557893285,6ce5fbf2-89d2-4104-ad62-70be5c948e10__pspm,http://pspm.pingstart.com/api/v4/postback?from=1706&clickid=6ce5fbf2-89d2-4104-ad62-70be5c948e10__pspm,idfa_2AD6A9BA-80E2-41F8-9A18-13960A348C7B,
p4J_GqjySSWGBJVVqnJYbQ,newborntown,p1548_110_63_823-387,install,1.1,112.172.253.151,24654D2A-13FA-4151-A191-4022F58DD93D,1557925579,2019-05-15 21:06:19,1557925712,2019-05-15 21:08:32,1557893344,ccf5b03e-559f-4989-b6b0-fd7a0ce66b70__pspm,http://pspm.pingstart.com/api/v4/postback?from=1706&clickid=ccf5b03e-559f-4989-b6b0-fd7a0ce66b70__pspm,idfa_24654D2A-13FA-4151-A191-4022F58DD93D,
p4J_GqjySSWGBJVVqnJYbQ,newborntown,p1548_110_63_823-387,install,1.1,183.106.223.249,0DBA10B4-92E8-4C66-9DED-37A14DFE29A6,1557925439,2019-05-15 21:03:59,1557925624,2019-05-15 21:07:04,1557893284,ad055f15-0d2b-4063-a401-5c8ca4d9b67d__pspm,http://pspm.pingstart.com/api/v4/postback?from=1706&clickid=ad055f15-0d2b-4063-a401-5c8ca4d9b67d__pspm,idfa_0DBA10B4-92E8-4C66-9DED-37A14DFE29A6,
p4J_GqjySSWGBJVVqnJYbQ,newborntown,p1548_110_63_823-387,install,1.1,121.66.14.138,862A3EC0-1E41-471D-8BBF-3D802796020B,1557924533,2019-05-15 20:48:53,1557924690,2019-05-15 20:51:30,1557892326,dc096dbd-97f7-40d5-a833-d719dc608eed__pspm,http://pspm.pingstart.com/api/v4/postback?from=1706&clickid=dc096dbd-97f7-40d5-a833-d719dc608eed__pspm,idfa_862A3EC0-1E41-471D-8BBF-3D802796020B,
p4J_GqjySSWGBJVVqnJYbQ,newborntown,p1548_110_63_823-387,install,1.1,121.128.167.128,5F4C4838-48B4-4679-96F6-8CD82525344E,1557925055,2019-05-15 20:57:35,1557925201,2019-05-15 21:00:01,1557892809,f1e6dc3f-715b-4f05-9101-0955c0465794__pspm,http://pspm.pingstart.com/api/v4/postback?from=1706&clickid=f1e6dc3f-715b-4f05-9101-0955c0465794__pspm,idfa_5F4C4838-48B4-4679-96F6-8CD82525344E,
p4J_GqjySSWGBJVVqnJYbQ,newborntown,p1548_110_63_823-387,install,1.1,219.249.103.219,17541A08-E504-4EEE-83A6-1A37DE200472,1557924068,2019-05-15 20:41:08,1557924286,2019-05-15 20:44:46,1557891908,b687de03-06a9-4567-9efe-af34f59f2988__pspm,http://pspm.pingstart.com/api/v4/postback?from=1706&clickid=b687de03-06a9-4567-9efe-af34f59f2988__pspm,idfa_17541A08-E504-4EEE-83A6-1A37DE200472,
p4J_GqjySSWGBJVVqnJYbQ,newborntown,p1548_110_63_823-387,install,1.1,119.203.117.253,966F2290-5BF4-49F8-A23A-CC827C95F3D7,1557924506,2019-05-15 20:48:26,1557924704,2019-05-15 20:51:44,1557892327,e81d01da-9dec-45ed-9e3d-36fea19292b7__pspm,http://pspm.pingstart.com/api/v4/postback?from=1706&clickid=e81d01da-9dec-45ed-9e3d-36fea19292b7__pspm,idfa_966F2290-5BF4-49F8-A23A-CC827C95F3D7,
p4J_GqjySSWGBJVVqnJYbQ,newborntown,p1548_110_63_823-387,install,1.1,211.231.7.117,FDB6EC28-3806-499E-B277-AEA8D2345976,1557924078,2019-05-15 20:41:18,1557924199,2019-05-15 20:43:19,1557891844,5bfa4e66-4e2e-41ba-9123-0bc953d9d51b__pspm,http://pspm.pingstart.com/api/v4/postback?from=1706&clickid=5bfa4e66-4e2e-41ba-9123-0bc953d9d51b__pspm,idfa_FDB6EC28-3806-499E-B277-AEA8D2345976,
p4J_GqjySSWGBJVVqnJYbQ,newborntown,p1548_110_63_823-387,install,1.1,203.229.234.53,89E99B0A-5BED-4B86-B202-C069D9C7F6BA,1557923906,2019-05-15 20:38:26,1557924128,2019-05-15 20:42:08,1557891784,ddcca520-5548-41ae-b7db-c7aa2d4847dd__pspm,http://pspm.pingstart.com/api/v4/postback?from=1706&clickid=ddcca520-5548-41ae-b7db-c7aa2d4847dd__pspm,idfa_89E99B0A-5BED-4B86-B202-C069D9C7F6BA,
p4J_GqjySSWGBJVVqnJYbQ,newborntown,p1548_110_63_823-387,install,1.1,115.145.101.89,5301FAB5-955E-45B1-94FD-7F604B1F657C,1557924120,2019-05-15 20:42:00,1557924286,2019-05-15 20:44:46,1557891909,0fd6a064-c20a-45fb-bc81-c1667db01086__pspm,http://pspm.pingstart.com/api/v4/postback?from=1706&clickid=0fd6a064-c20a-45fb-bc81-c1667db01086__pspm,idfa_5301FAB5-955E-45B1-94FD-7F604B1F657C,
p4J_GqjySSWGBJVVqnJYbQ,newborntown,p1548_110_63_823-387,install,1.1,182.221.150.93,F8E38AB5-F771-4564-BF42-09D7185A1206,1557924131,2019-05-15 20:42:11,1557924331,2019-05-15 20:45:31,1557891964,1d39c5d0-ecc9-4696-8431-50bb161fe502__pspm,http://pspm.pingstart.com/api/v4/postback?from=1706&clickid=1d39c5d0-ecc9-4696-8431-50bb161fe502__pspm,idfa_F8E38AB5-F771-4564-BF42-09D7185A1206,
p4J_GqjySSWGBJVVqnJYbQ,newborntown,p1548_110_63_823-387,install,1.1,211.222.143.4,FCB4282C-8C4E-4A30-A82C-BC7A994E46EC,1557923640,2019-05-15 20:34:00,1557923795,2019-05-15 20:36:35,1557891425,d4a02984-87e8-43e2-abf7-f7b2cc7cbdc0__pspm,http://pspm.pingstart.com/api/v4/postback?from=1706&clickid=d4a02984-87e8-43e2-abf7-f7b2cc7cbdc0__pspm,idfa_FCB4282C-8C4E-4A30-A82C-BC7A994E46EC,
p4J_GqjySSWGBJVVqnJYbQ,newborntown,p1548_110_63_823-387,install,1.1,118.33.211.101,89A328FA-DF58-4DFB-AF6F-1073D14D1058,1557925334,2019-05-15 21:02:14,1557925447,2019-05-15 21:04:07,1557893104,c6692616-7133-465d-b9e5-eebad206f3c2__pspm,http://pspm.pingstart.com/api/v4/postback?from=1706&clickid=c6692616-7133-465d-b9e5-eebad206f3c2__pspm,idfa_89A328FA-DF58-4DFB-AF6F-1073D14D1058,
p4J_GqjySSWGBJVVqnJYbQ,newborntown,p1548_110_63_823-387,install,1.1,118.46.97.161,2E3B6B24-C636-46D9-9827-0600A49FDEE0,1557925043,2019-05-15 20:57:23,1557925200,2019-05-15 21:00:00,1557892809,6b6ba46d-7636-4348-82cf-8973f17b7d29__pspm,http://pspm.pingstart.com/api/v4/postback?from=1706&clickid=6b6ba46d-7636-4348-82cf-8973f17b7d29__pspm,idfa_2E3B6B24-C636-46D9-9827-0600A49FDEE0,
p4J_GqjySSWGBJVVqnJYbQ,newborntown,p1548_110_63_823-387,install,1.1,106.252.44.117,B1612634-4A6D-4038-9CC3-7C29B7418D05,1557924503,2019-05-15 20:48:23,1557924732,2019-05-15 20:52:12,1557892384,1ed9b4b4-6ecb-4a60-a10a-9b477a2908ed__pspm,http://pspm.pingstart.com/api/v4/postback?from=1706&clickid=1ed9b4b4-6ecb-4a60-a10a-9b477a2908ed__pspm,idfa_B1612634-4A6D-4038-9CC3-7C29B7418D05,
p4J_GqjySSWGBJVVqnJYbQ,newborntown,p1548_110_63_823-387,install,1.1,218.54.142.248,C7426383-9113-412C-B89F-1C8723835939,1557924575,2019-05-15 20:49:35,1557924733,2019-05-15 20:52:13,1557892386,315ad167-6d94-4f68-9f1b-8f664aa336e2__pspm,http://pspm.pingstart.com/api/v4/postback?from=1706&clickid=315ad167-6d94-4f68-9f1b-8f664aa336e2__pspm,idfa_C7426383-9113-412C-B89F-1C8723835939,
p4J_GqjySSWGBJVVqnJYbQ,newborntown,p1548_110_63_823-387,install,1.1,211.200.250.220,DC19F88E-98D7-4AC5-B2F3-3915690AB465,1557924067,2019-05-15 20:41:07,1557924173,2019-05-15 20:42:53,1557891785,21b1da2e-b628-4329-967c-4428999e7117__pspm,http://pspm.pingstart.com/api/v4/postback?from=1706&clickid=21b1da2e-b628-4329-967c-4428999e7117__pspm,idfa_DC19F88E-98D7-4AC5-B2F3-3915690AB465,
p4J_GqjySSWGBJVVqnJYbQ,newborntown,p1548_110_63_823-387,install,1.1,39.7.50.173,59BFFA37-0FBA-4B38-B326-EB888D63EDB3,1557925664,2019-05-15 21:07:44,1557925805,2019-05-15 21:10:05,1557893409,3c670357-c26c-4686-bc16-bf139f2b09e2__pspm,http://pspm.pingstart.com/api/v4/postback?from=1706&clickid=3c670357-c26c-4686-bc16-bf139f2b09e2__pspm,idfa_59BFFA37-0FBA-4B38-B326-EB888D63EDB3,
p4J_GqjySSWGBJVVqnJYbQ,newborntown,p1548_110_63_823-387,install,1.1,218.148.74.196,3E293346-4898-4F39-BA11-93216E30B9CE,1557924027,2019-05-15 20:40:27,1557924169,2019-05-15 20:42:49,1557891785,ffd48483-ebf9-4c52-a773-5926dbb6f749__pspm,http://pspm.pingstart.com/api/v4/postback?from=1706&clickid=ffd48483-ebf9-4c52-a773-5926dbb6f749__pspm,idfa_3E293346-4898-4F39-BA11-93216E30B9CE,
p4J_GqjySSWGBJVVqnJYbQ,newborntown,p1548_110_63_823-387,install,1.1,221.142.126.30,8F45793F-681D-4D43-A2C2-C6ED97F476ED,1557924589,2019-05-15 20:49:49,1557924863,2019-05-15 20:54:23,1557892511,eab7bfe0-ef12-43f4-acac-24a1640eec64__pspm,http://pspm.pingstart.com/api/v4/postback?from=1706&clickid=eab7bfe0-ef12-43f4-acac-24a1640eec64__pspm,idfa_8F45793F-681D-4D43-A2C2-C6ED97F476ED,
p4J_GqjySSWGBJVVqnJYbQ,newborntown,p1548_110_63_823-387,install,1.1,211.179.98.158,6E6A4FC0-AECB-496C-9CD2-D2170789EBE5,1557924158,2019-05-15 20:42:38,1557924439,2019-05-15 20:47:19,1557892085,12aef031-9ea2-4cb6-a0a9-3b10b29952d7__pspm,http://pspm.pingstart.com/api/v4/postback?from=1706&clickid=12aef031-9ea2-4cb6-a0a9-3b10b29952d7__pspm,idfa_6E6A4FC0-AECB-496C-9CD2-D2170789EBE5,
p4J_GqjySSWGBJVVqnJYbQ,newborntown,p1548_110_63_823-387,install,1.1,106.246.189.217,8E788EC5-0AB1-4546-9A90-DF16B565B233,1557923668,2019-05-15 20:34:28,1557923858,2019-05-15 20:37:38,1557891487,9f908362-4907-4578-815d-c7e06e8415a1__pspm,http://pspm.pingstart.com/api/v4/postback?from=1706&clickid=9f908362-4907-4578-815d-c7e06e8415a1__pspm,idfa_8E788EC5-0AB1-4546-9A90-DF16B565B233,
p4J_GqjySSWGBJVVqnJYbQ,newborntown,p1548_110_63_823-387,install,1.1,220.81.225.110,A444E2E7-C690-434A-9A98-58E834556E4F,1557925384,2019-05-15 21:03:04,1557925477,2019-05-15 21:04:37,1557893104,4aca0b77-4a52-46ab-b041-5753f002cc6d__pspm,http://pspm.pingstart.com/api/v4/postback?from=1706&clickid=4aca0b77-4a52-46ab-b041-5753f002cc6d__pspm,idfa_A444E2E7-C690-434A-9A98-58E834556E4F,
p4J_GqjySSWGBJVVqnJYbQ,newborntown,p1548_110_63_823-387,install,1.1,180.68.169.175,5F3CDB09-38D8-4A87-ACBC-7D68E6D8A483,1557924569,2019-05-15 20:49:29,1557924686,2019-05-15 20:51:26,1557892325,055d4c52-0c3f-4cd5-b0d9-a516aeb99411__pspm,http://pspm.pingstart.com/api/v4/postback?from=1706&clickid=055d4c52-0c3f-4cd5-b0d9-a516aeb99411__pspm,idfa_5F3CDB09-38D8-4A87-ACBC-7D68E6D8A483,
p4J_GqjySSWGBJVVqnJYbQ,newborntown,p1548_110_63_823-387,install,1.1,124.50.61.92,A15CB391-FB9B-4C54-B65E-66B659194BD3,1557923668,2019-05-15 20:34:28,1557923796,2019-05-15 20:36:36,1557891425,60cc50b0-cc16-4de6-bb06-eaa9586e0d48__pspm,http://pspm.pingstart.com/api/v4/postback?from=1706&clickid=60cc50b0-cc16-4de6-bb06-eaa9586e0d48__pspm,idfa_A15CB391-FB9B-4C54-B65E-66B659194BD3,
p4J_GqjySSWGBJVVqnJYbQ,newborntown,p1548_110_63_823-387,install,1.1,121.189.70.71,977C9C6C-F09A-4B59-9FE9-A88C565FC51C,1557924101,2019-05-15 20:41:41,1557924258,2019-05-15 20:44:18,1557891907,2085680b-c7e9-471d-905e-42cc9cb3e3fa__pspm,http://pspm.pingstart.com/api/v4/postback?from=1706&clickid=2085680b-c7e9-471d-905e-42cc9cb3e3fa__pspm,idfa_977C9C6C-F09A-4B59-9FE9-A88C565FC51C,
p4J_GqjySSWGBJVVqnJYbQ,newborntown,p1548_110_63_823-387,install,1.1,112.222.95.194,228EDF2C-CBB5-4A19-950B-F76C36696B84,1557923635,2019-05-15 20:33:55,1557923862,2019-05-15 20:37:42,1557891485,1c7d3ef5-6ea8-4015-8668-8efa13475ab0__pspm,http://pspm.pingstart.com/api/v4/postback?from=1706&clickid=1c7d3ef5-6ea8-4015-8668-8efa13475ab0__pspm,idfa_228EDF2C-CBB5-4A19-950B-F76C36696B84,
p4J_GqjySSWGBJVVqnJYbQ,newborntown,p1548_110_63_823-387,install,1.1,27.126.29.245,1590D7AB-2B34-470B-9625-E09CD336E25E,1557924945,2019-05-15 20:55:45,1557925129,2019-05-15 20:58:49,1557892744,c95848f7-215b-4a95-ac47-01eade371b72__pspm,http://pspm.pingstart.com/api/v4/postback?from=1706&clickid=c95848f7-215b-4a95-ac47-01eade371b72__pspm,idfa_1590D7AB-2B34-470B-9625-E09CD336E25E,
p4J_GqjySSWGBJVVqnJYbQ,newborntown,p1548_110_63_823-387,install,1.1,121.171.166.6,252182F5-8BBE-40F9-96AA-6E01AD44550A,1557924065,2019-05-15 20:41:05,1557924215,2019-05-15 20:43:35,1557891845,9ac9ee0b-7f30-4268-a840-ad5c12c20212__pspm,http://pspm.pingstart.com/api/v4/postback?from=1706&clickid=9ac9ee0b-7f30-4268-a840-ad5c12c20212__pspm,idfa_252182F5-8BBE-40F9-96AA-6E01AD44550A,
