cid,partner_id,channel_id,action_id,cpi,ip,idfa,click time,click datetime,install time,install datetime,postback time,click id,postback url,unique user id
GeG2cucsReiA1RfcMgcPKA,newborntown,p1599_1064_4631-463114,install,1.7,58.237.189.114,3ba298b9-d10a-44af-a4b8-af8158a70a95,1558507238,2019-05-22 14:40:38,1558507278,2019-05-22 14:41:18,1558507310,685561aa-c2ee-4ef2-9c5a-2bcd7ebb80cc__pspm,http://pspm.pingstart.com/api/v4/postback?from=1706&clickid=685561aa-c2ee-4ef2-9c5a-2bcd7ebb80cc__pspm,idfa_3ba298b9-d10a-44af-a4b8-af8158a70a95,ko
GeG2cucsReiA1RfcMgcPKA,newborntown,p1599_1064_4631-463114,install,1.7,222.113.61.239,c863f1c1-f6f5-4f24-b7dc-37c5393e9bb4,1558507232,2019-05-22 14:40:32,1558507272,2019-05-22 14:41:12,1558507303,741b4291-7c4e-498c-bd2b-ed6a8fee64d4__pspm,http://pspm.pingstart.com/api/v4/postback?from=1706&clickid=741b4291-7c4e-498c-bd2b-ed6a8fee64d4__pspm,idfa_c863f1c1-f6f5-4f24-b7dc-37c5393e9bb4,ko
GeG2cucsReiA1RfcMgcPKA,newborntown,p1599_1064_4631-463114,install,1.7,122.38.74.204,de845704-55c4-4c6c-9aab-208b3d5011fe,1558507101,2019-05-22 14:38:21,1558507139,2019-05-22 14:38:59,1558507170,3231ddf4-3d39-4292-8c64-dbf62f52cb5d__pspm,http://pspm.pingstart.com/api/v4/postback?from=1706&clickid=3231ddf4-3d39-4292-8c64-dbf62f52cb5d__pspm,idfa_de845704-55c4-4c6c-9aab-208b3d5011fe,ko
GeG2cucsReiA1RfcMgcPKA,newborntown,p1599_1064_4631-463114,install,1.7,221.138.242.90,b39b80dc-0df7-4673-86ea-31959a935209,1558507364,2019-05-22 14:42:44,1558507401,2019-05-22 14:43:21,1558507432,8984aae0-8660-4990-b3c8-c84d60b9eff1__pspm,http://pspm.pingstart.com/api/v4/postback?from=1706&clickid=8984aae0-8660-4990-b3c8-c84d60b9eff1__pspm,idfa_b39b80dc-0df7-4673-86ea-31959a935209,ko
GeG2cucsReiA1RfcMgcPKA,newborntown,p1599_1064_4631-463114,install,1.7,218.239.34.75,39f8fa37-16ce-4220-8f36-cb6c4fb8beb0,1558507164,2019-05-22 14:39:24,1558507199,2019-05-22 14:39:59,1558507230,fea22078-830a-48f2-9456-d855bda8bcb8__pspm,http://pspm.pingstart.com/api/v4/postback?from=1706&clickid=fea22078-830a-48f2-9456-d855bda8bcb8__pspm,idfa_39f8fa37-16ce-4220-8f36-cb6c4fb8beb0,ko
GeG2cucsReiA1RfcMgcPKA,newborntown,p1599_1064_4631-463114,install,1.7,58.233.73.59,42fe6426-55dc-4be5-bd54-236569cc55f4,1558507243,2019-05-22 14:40:43,1558507278,2019-05-22 14:41:18,1558507309,22001344-2c7c-4ae0-bd11-c93509da30ac__pspm,http://pspm.pingstart.com/api/v4/postback?from=1706&clickid=22001344-2c7c-4ae0-bd11-c93509da30ac__pspm,idfa_42fe6426-55dc-4be5-bd54-236569cc55f4,ko
GeG2cucsReiA1RfcMgcPKA,newborntown,p1599_1064_4631-463114,install,1.7,39.112.239.85,51778587-824c-4db6-aca6-1a4880aad0ae,1558507035,2019-05-22 14:37:15,1558507075,2019-05-22 14:37:55,1558507105,0d1f6ea3-a991-4044-8bac-d4fc70f9d9cc__pspm,http://pspm.pingstart.com/api/v4/postback?from=1706&clickid=0d1f6ea3-a991-4044-8bac-d4fc70f9d9cc__pspm,idfa_51778587-824c-4db6-aca6-1a4880aad0ae,ko
GeG2cucsReiA1RfcMgcPKA,newborntown,p1599_1064_4631-463114,install,1.7,211.36.138.244,7b4718dc-fd2c-4a7e-9932-7f6a71a83430,1558507041,2019-05-22 14:37:21,1558507081,2019-05-22 14:38:01,1558507114,cebed882-c29f-4333-82ee-2b30fe2036d5__pspm,http://pspm.pingstart.com/api/v4/postback?from=1706&clickid=cebed882-c29f-4333-82ee-2b30fe2036d5__pspm,idfa_7b4718dc-fd2c-4a7e-9932-7f6a71a83430,ko
GeG2cucsReiA1RfcMgcPKA,newborntown,p1599_1064_4631-463114,install,1.7,223.38.17.187,e2e72bdb-3360-4251-87a2-d68862f27000,1558507423,2019-05-22 14:43:43,1558507462,2019-05-22 14:44:22,1558507493,40d14499-fb0f-4549-84b5-e20f367ec479__pspm,http://pspm.pingstart.com/api/v4/postback?from=1706&clickid=40d14499-fb0f-4549-84b5-e20f367ec479__pspm,idfa_e2e72bdb-3360-4251-87a2-d68862f27000,ko
GeG2cucsReiA1RfcMgcPKA,newborntown,p1599_1064_4631-463114,install,1.7,1.255.225.217,cd570c43-640c-40d1-86db-f01e37674750,1558506907,2019-05-22 14:35:07,1558506946,2019-05-22 14:35:46,1558506977,2feb03cd-f2c5-40c0-aafc-77e624d03ebb__pspm,http://pspm.pingstart.com/api/v4/postback?from=1706&clickid=2feb03cd-f2c5-40c0-aafc-77e624d03ebb__pspm,idfa_cd570c43-640c-40d1-86db-f01e37674750,ko
GeG2cucsReiA1RfcMgcPKA,newborntown,p1599_1064_4631-463114,install,1.7,175.223.23.86,7a20de3b-0e90-478f-9ec3-0517f7d4a55d,1558507246,2019-05-22 14:40:46,1558507284,2019-05-22 14:41:24,1558507316,4ced3730-7112-4808-a5e4-ef86ab15e50e__pspm,http://pspm.pingstart.com/api/v4/postback?from=1706&clickid=4ced3730-7112-4808-a5e4-ef86ab15e50e__pspm,idfa_7a20de3b-0e90-478f-9ec3-0517f7d4a55d,ko
GeG2cucsReiA1RfcMgcPKA,newborntown,p1599_1064_4631-463114,install,1.7,124.59.100.206,0bcde140-771f-453b-951c-fdee9ec82649,1558506780,2019-05-22 14:33:00,1558506818,2019-05-22 14:33:38,1558506849,72b5ed8c-afb3-4908-b240-020425745775__pspm,http://pspm.pingstart.com/api/v4/postback?from=1706&clickid=72b5ed8c-afb3-4908-b240-020425745775__pspm,idfa_0bcde140-771f-453b-951c-fdee9ec82649,ko
GeG2cucsReiA1RfcMgcPKA,newborntown,p1599_1064_4631-463114,install,1.7,116.41.163.21,2e06f876-4919-42f4-b081-77f808d43cca,1558507423,2019-05-22 14:43:43,1558507460,2019-05-22 14:44:20,1558507491,66e0f57f-8ebf-4c67-a72e-b70369dd8193__pspm,http://pspm.pingstart.com/api/v4/postback?from=1706&clickid=66e0f57f-8ebf-4c67-a72e-b70369dd8193__pspm,idfa_2e06f876-4919-42f4-b081-77f808d43cca,ko
GeG2cucsReiA1RfcMgcPKA,newborntown,p1599_1064_4631-463114,install,1.7,39.120.76.74,59053a7d-f86f-44cd-8509-8833601a1ed9,1558507038,2019-05-22 14:37:18,1558507076,2019-05-22 14:37:56,1558507108,14ce5e8e-4768-4085-bf5d-22fa6352d682__pspm,http://pspm.pingstart.com/api/v4/postback?from=1706&clickid=14ce5e8e-4768-4085-bf5d-22fa6352d682__pspm,idfa_59053a7d-f86f-44cd-8509-8833601a1ed9,ko
GeG2cucsReiA1RfcMgcPKA,newborntown,p1599_1064_4631-463114,install,1.7,121.183.93.204,1cee24b6-7fba-42dd-b194-8722d7a5c99e,1558506975,2019-05-22 14:36:15,1558507018,2019-05-22 14:36:58,1558507049,169f60ae-7838-4b88-b5e9-81ee74aa1be3__pspm,http://pspm.pingstart.com/api/v4/postback?from=1706&clickid=169f60ae-7838-4b88-b5e9-81ee74aa1be3__pspm,idfa_1cee24b6-7fba-42dd-b194-8722d7a5c99e,ko
GeG2cucsReiA1RfcMgcPKA,newborntown,p1599_1064_4631-463114,install,1.7,223.39.131.71,594ec23a-3d32-4a06-8517-d25a4db9d3dc,1558507424,2019-05-22 14:43:44,1558507460,2019-05-22 14:44:20,1558507491,1732dfd4-ccda-4d19-963b-835545af39c7__pspm,http://pspm.pingstart.com/api/v4/postback?from=1706&clickid=1732dfd4-ccda-4d19-963b-835545af39c7__pspm,idfa_594ec23a-3d32-4a06-8517-d25a4db9d3dc,ko
GeG2cucsReiA1RfcMgcPKA,newborntown,p1599_1064_4631-463114,install,1.7,175.223.34.193,4773ff4e-bfca-4e13-b6f0-47058ec22514,1558506849,2019-05-22 14:34:09,1558506889,2019-05-22 14:34:49,1558506920,036df24c-480d-4d66-9eab-b9b2d473560c__pspm,http://pspm.pingstart.com/api/v4/postback?from=1706&clickid=036df24c-480d-4d66-9eab-b9b2d473560c__pspm,idfa_4773ff4e-bfca-4e13-b6f0-47058ec22514,ko
GeG2cucsReiA1RfcMgcPKA,newborntown,p1599_1064_4631-463114,install,1.7,223.62.8.254,aa05a59f-31ee-4f66-8589-57bde6c547f2,1558507091,2019-05-22 14:38:11,1558507129,2019-05-22 14:38:49,1558507160,76d3cb84-10d8-411b-be45-9d5fe9a1e9fc__pspm,http://pspm.pingstart.com/api/v4/postback?from=1706&clickid=76d3cb84-10d8-411b-be45-9d5fe9a1e9fc__pspm,idfa_aa05a59f-31ee-4f66-8589-57bde6c547f2,ko
GeG2cucsReiA1RfcMgcPKA,newborntown,p1599_1064_4631-463114,install,1.7,117.111.20.3,513bce9f-33dc-4e03-aeb2-b51651ce42be,1558507361,2019-05-22 14:42:41,1558507398,2019-05-22 14:43:18,1558507429,950b6d6f-bcc2-40c6-bf7c-24698ada6f5b__pspm,http://pspm.pingstart.com/api/v4/postback?from=1706&clickid=950b6d6f-bcc2-40c6-bf7c-24698ada6f5b__pspm,idfa_513bce9f-33dc-4e03-aeb2-b51651ce42be,ko
GeG2cucsReiA1RfcMgcPKA,newborntown,p1599_1064_4631-463114,install,1.7,223.62.172.196,c1f2e345-a94f-4b03-ad93-8b161e6d0ee4,1558507103,2019-05-22 14:38:23,1558507151,2019-05-22 14:39:11,1558507182,b33bad0b-85d4-4d00-8e0d-88fe7220b548__pspm,http://pspm.pingstart.com/api/v4/postback?from=1706&clickid=b33bad0b-85d4-4d00-8e0d-88fe7220b548__pspm,idfa_c1f2e345-a94f-4b03-ad93-8b161e6d0ee4,ko
GeG2cucsReiA1RfcMgcPKA,newborntown,p1599_1064_4631-463114,install,1.7,211.36.141.167,a3220398-3095-4216-ad40-1079633b7e5c,1558507481,2019-05-22 14:44:41,1558507523,2019-05-22 14:45:23,1558507554,13f2c45c-d648-4dce-bf2a-487ab17d9be8__pspm,http://pspm.pingstart.com/api/v4/postback?from=1706&clickid=13f2c45c-d648-4dce-bf2a-487ab17d9be8__pspm,idfa_a3220398-3095-4216-ad40-1079633b7e5c,ko
GeG2cucsReiA1RfcMgcPKA,newborntown,p1599_1064_4631-463114,install,1.7,223.39.146.100,75875d21-26d2-4f5b-a031-a10f95333fb6,1558507245,2019-05-22 14:40:45,1558507278,2019-05-22 14:41:18,1558507309,4a6717f6-daaa-4e2d-822f-27c0878842d9__pspm,http://pspm.pingstart.com/api/v4/postback?from=1706&clickid=4a6717f6-daaa-4e2d-822f-27c0878842d9__pspm,idfa_75875d21-26d2-4f5b-a031-a10f95333fb6,ko
GeG2cucsReiA1RfcMgcPKA,newborntown,p1599_1064_4631-463114,install,1.7,220.120.119.43,8b8eddae-be91-453f-974d-c9b8d5534f70,1558507250,2019-05-22 14:40:50,1558507287,2019-05-22 14:41:27,1558507318,82933ba9-31f6-4b2f-8e9b-f4448d167b36__pspm,http://pspm.pingstart.com/api/v4/postback?from=1706&clickid=82933ba9-31f6-4b2f-8e9b-f4448d167b36__pspm,idfa_8b8eddae-be91-453f-974d-c9b8d5534f70,ko
GeG2cucsReiA1RfcMgcPKA,newborntown,p1599_1064_4631-463114,install,1.7,223.62.178.143,c3bd50dc-36bc-4b80-9255-4f10edf25e6a,1558507159,2019-05-22 14:39:19,1558507194,2019-05-22 14:39:54,1558507226,7b4d1048-f2e7-4e4b-aa11-86f2201858ed__pspm,http://pspm.pingstart.com/api/v4/postback?from=1706&clickid=7b4d1048-f2e7-4e4b-aa11-86f2201858ed__pspm,idfa_c3bd50dc-36bc-4b80-9255-4f10edf25e6a,ko
GeG2cucsReiA1RfcMgcPKA,newborntown,p1599_1064_4631-463114,install,1.7,210.99.32.125,0ae28413-e7a9-45df-a7d5-8e2f1279e51f,1558507417,2019-05-22 14:43:37,1558507454,2019-05-22 14:44:14,1558507484,cde83139-1664-4577-b7a4-4b0d83301e3b__pspm,http://pspm.pingstart.com/api/v4/postback?from=1706&clickid=cde83139-1664-4577-b7a4-4b0d83301e3b__pspm,idfa_0ae28413-e7a9-45df-a7d5-8e2f1279e51f,ko
GeG2cucsReiA1RfcMgcPKA,newborntown,p1599_1064_4631-463114,install,1.7,223.62.216.186,f14604a3-635a-42d6-9b4c-ced9002f4db4,1558507291,2019-05-22 14:41:31,1558507329,2019-05-22 14:42:09,1558507360,41e0a3e3-5ca3-453e-bc01-1021ebc5a235__pspm,http://pspm.pingstart.com/api/v4/postback?from=1706&clickid=41e0a3e3-5ca3-453e-bc01-1021ebc5a235__pspm,idfa_f14604a3-635a-42d6-9b4c-ced9002f4db4,ko
GeG2cucsReiA1RfcMgcPKA,newborntown,p1599_1064_4631-463114,install,1.7,61.74.109.140,48fcf1f1-d852-4812-8484-483c511c304f,1558507092,2019-05-22 14:38:12,1558507132,2019-05-22 14:38:52,1558507162,45687823-1aea-4776-b6ae-92ce8e70f306__pspm,http://pspm.pingstart.com/api/v4/postback?from=1706&clickid=45687823-1aea-4776-b6ae-92ce8e70f306__pspm,idfa_48fcf1f1-d852-4812-8484-483c511c304f,ko
GeG2cucsReiA1RfcMgcPKA,newborntown,p1599_1064_4631-463114,install,1.7,175.223.15.18,5b404087-127f-4ddc-be89-cc0e51e4336b,1558507100,2019-05-22 14:38:20,1558507148,2019-05-22 14:39:08,1558507180,e5dfbe69-6141-4325-ad3c-402627376b51__pspm,http://pspm.pingstart.com/api/v4/postback?from=1706&clickid=e5dfbe69-6141-4325-ad3c-402627376b51__pspm,idfa_5b404087-127f-4ddc-be89-cc0e51e4336b,ko
GeG2cucsReiA1RfcMgcPKA,newborntown,p1599_1064_4631-463114,install,1.7,119.194.221.14,0775e005-93ac-44d7-aa26-e2b89dee16ae,1558507162,2019-05-22 14:39:22,1558507446,2019-05-22 14:44:06,1558507476,e3bc666f-f228-416c-a57d-8e1f71da347c__pspm,http://pspm.pingstart.com/api/v4/postback?from=1706&clickid=e3bc666f-f228-416c-a57d-8e1f71da347c__pspm,idfa_0775e005-93ac-44d7-aa26-e2b89dee16ae,ko
GeG2cucsReiA1RfcMgcPKA,newborntown,p1599_1064_4631-463114,install,1.7,117.111.23.243,ac68da7e-0d52-4579-a094-958f53e68085,1558506654,2019-05-22 14:30:54,1558506689,2019-05-22 14:31:29,1558506720,c43b5adc-9080-4951-8559-355a6e870da3__pspm,http://pspm.pingstart.com/api/v4/postback?from=1706&clickid=c43b5adc-9080-4951-8559-355a6e870da3__pspm,idfa_ac68da7e-0d52-4579-a094-958f53e68085,ko
GeG2cucsReiA1RfcMgcPKA,newborntown,p1599_1064_4631-463114,install,1.7,117.111.13.205,a7778b9c-ab27-4325-bd2c-35d87895d030,1558507159,2019-05-22 14:39:19,1558507225,2019-05-22 14:40:25,1558507256,0e4f2a4e-565d-478c-824c-8960aefafba8__pspm,http://pspm.pingstart.com/api/v4/postback?from=1706&clickid=0e4f2a4e-565d-478c-824c-8960aefafba8__pspm,idfa_a7778b9c-ab27-4325-bd2c-35d87895d030,ko
GeG2cucsReiA1RfcMgcPKA,newborntown,p1599_1064_4631-463114,install,1.7,110.70.55.79,3e9e1989-e758-4336-9b86-04a42d07f312,1558506233,2019-05-22 14:23:53,1558506275,2019-05-22 14:24:35,1558506306,6707fb5b-51cf-4a81-81b3-2b8f7f29d576__pspm,http://pspm.pingstart.com/api/v4/postback?from=1706&clickid=6707fb5b-51cf-4a81-81b3-2b8f7f29d576__pspm,idfa_3e9e1989-e758-4336-9b86-04a42d07f312,ko
GeG2cucsReiA1RfcMgcPKA,newborntown,p1599_1064_4631-463114,install,1.7,116.35.154.245,3e7c81e9-a6ab-4fe5-9456-9255d7df26ac,1558507241,2019-05-22 14:40:41,1558507282,2019-05-22 14:41:22,1558507314,f4fec304-576a-4a5d-84ee-5f057d710184__pspm,http://pspm.pingstart.com/api/v4/postback?from=1706&clickid=f4fec304-576a-4a5d-84ee-5f057d710184__pspm,idfa_3e7c81e9-a6ab-4fe5-9456-9255d7df26ac,ko
GeG2cucsReiA1RfcMgcPKA,newborntown,p1599_1064_4631-463114,install,1.7,112.161.77.192,86ae9b88-1aa6-4766-83f9-8581ac3b0ad0,1558507483,2019-05-22 14:44:43,1558507525,2019-05-22 14:45:25,1558507556,20141efe-b00d-46e2-a982-ba4d9cca7965__pspm,http://pspm.pingstart.com/api/v4/postback?from=1706&clickid=20141efe-b00d-46e2-a982-ba4d9cca7965__pspm,idfa_86ae9b88-1aa6-4766-83f9-8581ac3b0ad0,ko
GeG2cucsReiA1RfcMgcPKA,newborntown,p1599_1064_4631-463114,install,1.7,223.38.18.254,b509c658-7388-404a-9fdf-336dc0ba0511,1558507542,2019-05-22 14:45:42,1558507585,2019-05-22 14:46:25,1558507616,0507e1eb-7b35-4e1e-834a-108b92a21ea4__pspm,http://pspm.pingstart.com/api/v4/postback?from=1706&clickid=0507e1eb-7b35-4e1e-834a-108b92a21ea4__pspm,idfa_b509c658-7388-404a-9fdf-336dc0ba0511,ko
GeG2cucsReiA1RfcMgcPKA,newborntown,p1599_1064_4631-463114,install,1.7,58.238.250.65,831e9712-3347-4357-810b-6e5d4cc82c95,1558507409,2019-05-22 14:43:29,1558507447,2019-05-22 14:44:07,1558507477,ce57045f-d6eb-49b1-af08-1f0f037d6b30__pspm,http://pspm.pingstart.com/api/v4/postback?from=1706&clickid=ce57045f-d6eb-49b1-af08-1f0f037d6b30__pspm,idfa_831e9712-3347-4357-810b-6e5d4cc82c95,ko
