cid,partner_id,channel_id,action_id,cpi,ip,idfa,click time,click datetime,install time,install datetime,postback time,click id,postback url,unique user id
_fYj9_-lRUaaLCL4RAK81Q,newborntown,p1767_20150164,install,1.4,210.104.167.68,5cce814e-a813-4a93-930a-17a107043cc5,1559028823,2019-05-28 15:33:43,1559039993,2019-05-28 18:39:53,1559040024,79bcf23d-c19c-4664-b8b8-cd91c6bb3ab1__pspm,http://pspm.pingstart.com/api/v4/postback?from=1706&clickid=79bcf23d-c19c-4664-b8b8-cd91c6bb3ab1__pspm,idfa_5cce814e-a813-4a93-930a-17a107043cc5,ko
_fYj9_-lRUaaLCL4RAK81Q,newborntown,p1767_20150153,install,1.4,175.208.76.4,94c6e951-61f1-453d-96ff-8b6b42f9452d,1559003208,2019-05-28 08:26:48,1559003208,2019-05-28 08:26:48,1559003239,a9dd2f43-0303-4e35-9bbb-28168a00e9f0__pspm,http://pspm.pingstart.com/api/v4/postback?from=1706&clickid=a9dd2f43-0303-4e35-9bbb-28168a00e9f0__pspm,idfa_94c6e951-61f1-453d-96ff-8b6b42f9452d,ko
