cid,partner_id,channel_id,action_id,cpi,ip,idfa,click time,click datetime,install time,install datetime,postback time,click id,postback url,unique user id
09NSfcIeSiSGG8dPLh0PsQ,newborntown,p1599_1509_1860,Install,1.6,182.224.57.21,5bb19361-6b8f-4c19-be7d-0b34b3b69d3e,1557424899,2019-05-10 02:01:39,1557424919,2019-05-10 02:01:59,1557424950,a5db74f4-8418-4b66-bf43-e0f1bbd95b44__pspm,http://pspm.pingstart.com/api/v4/postback?from=1706&clickid=a5db74f4-8418-4b66-bf43-e0f1bbd95b44__pspm,idfa_5bb19361-6b8f-4c19-be7d-0b34b3b69d3e,English
09NSfcIeSiSGG8dPLh0PsQ,newborntown,p1599_1509_1860,Install,1.6,119.201.26.171,76d68583-987c-4fcb-bd51-c4acc8d4d2ff,1557424545,2019-05-10 01:55:45,1557424568,2019-05-10 01:56:08,1557424599,c6c63a40-3aee-4b6a-9817-83070ef873ed__pspm,http://pspm.pingstart.com/api/v4/postback?from=1706&clickid=c6c63a40-3aee-4b6a-9817-83070ef873ed__pspm,idfa_76d68583-987c-4fcb-bd51-c4acc8d4d2ff,English
09NSfcIeSiSGG8dPLh0PsQ,newborntown,p1599_1509_1860,Install,1.6,210.124.155.49,960b218e-a835-43b4-a8db-15f31aea4ea2,1557423834,2019-05-10 01:43:54,1557423868,2019-05-10 01:44:28,1557423900,ca7885d7-6855-467f-8a27-be189669637e__pspm,http://pspm.pingstart.com/api/v4/postback?from=1706&clickid=ca7885d7-6855-467f-8a27-be189669637e__pspm,idfa_960b218e-a835-43b4-a8db-15f31aea4ea2,English
09NSfcIeSiSGG8dPLh0PsQ,newborntown,p1599_1509_1860,Install,1.6,14.37.220.127,f52e3bf9-dbe6-4c5c-8db9-c08ad4397bfd,1557350727,2019-05-09 05:25:27,1557350751,2019-05-09 05:25:51,1557350782,c5311444-a11e-432a-bc67-cbbf89ef8bc9__pspm,http://pspm.pingstart.com/api/v4/postback?from=1706&clickid=c5311444-a11e-432a-bc67-cbbf89ef8bc9__pspm,idfa_f52e3bf9-dbe6-4c5c-8db9-c08ad4397bfd,English
09NSfcIeSiSGG8dPLh0PsQ,newborntown,p1599_1509_1860,Install,1.6,203.229.68.45,51f6892a-c28a-4ea3-902d-0173d0d14016,1557423824,2019-05-10 01:43:44,1557423854,2019-05-10 01:44:14,1557423886,0e71651e-49c8-46a3-bb2c-222679e4004b__pspm,http://pspm.pingstart.com/api/v4/postback?from=1706&clickid=0e71651e-49c8-46a3-bb2c-222679e4004b__pspm,idfa_51f6892a-c28a-4ea3-902d-0173d0d14016,English
09NSfcIeSiSGG8dPLh0PsQ,newborntown,p1599_1509_1860,Install,1.6,182.161.226.21,382064ff-50ca-43c0-9245-749d966eba98,1557423753,2019-05-10 01:42:33,1557423781,2019-05-10 01:43:01,1557423812,5f582ff5-07f8-4a9e-97b2-78f04678aef7__pspm,http://pspm.pingstart.com/api/v4/postback?from=1706&clickid=5f582ff5-07f8-4a9e-97b2-78f04678aef7__pspm,idfa_382064ff-50ca-43c0-9245-749d966eba98,English
09NSfcIeSiSGG8dPLh0PsQ,newborntown,p1599_1509_1860,Install,1.6,118.220.180.24,09620a6e-02e9-4440-a34b-eabea4a5f2ec,1557424886,2019-05-10 02:01:26,1557424908,2019-05-10 02:01:48,1557424939,b3d23499-6651-423d-b0d3-b79064415466__pspm,http://pspm.pingstart.com/api/v4/postback?from=1706&clickid=b3d23499-6651-423d-b0d3-b79064415466__pspm,idfa_09620a6e-02e9-4440-a34b-eabea4a5f2ec,English
09NSfcIeSiSGG8dPLh0PsQ,newborntown,p1599_1509_1860,Install,1.6,143.248.120.250,8daff410-741d-4a07-a40e-4ed129914794,1557424898,2019-05-10 02:01:38,1557424942,2019-05-10 02:02:22,1557424973,f87146e5-67da-49b6-b23b-1bea937e4da7__pspm,http://pspm.pingstart.com/api/v4/postback?from=1706&clickid=f87146e5-67da-49b6-b23b-1bea937e4da7__pspm,idfa_8daff410-741d-4a07-a40e-4ed129914794,English
09NSfcIeSiSGG8dPLh0PsQ,newborntown,p1599_1509_1860,Install,1.6,220.116.9.233,26208f61-ec3b-415b-89e8-f10d82595822,1557424841,2019-05-10 02:00:41,1557424878,2019-05-10 02:01:18,1557424909,26ad8aa3-191d-45d5-bbef-7e081835d0e4__pspm,http://pspm.pingstart.com/api/v4/postback?from=1706&clickid=26ad8aa3-191d-45d5-bbef-7e081835d0e4__pspm,idfa_26208f61-ec3b-415b-89e8-f10d82595822,English
09NSfcIeSiSGG8dPLh0PsQ,newborntown,p1599_1509_1860,Install,1.6,125.31.162.230,cd66c3bd-a26a-4768-866c-a81b60484b81,1557424915,2019-05-10 02:01:55,1557424935,2019-05-10 02:02:15,1557424966,6c48ecc8-7302-44a4-adcd-e31a9ae6f215__pspm,http://pspm.pingstart.com/api/v4/postback?from=1706&clickid=6c48ecc8-7302-44a4-adcd-e31a9ae6f215__pspm,idfa_cd66c3bd-a26a-4768-866c-a81b60484b81,English
09NSfcIeSiSGG8dPLh0PsQ,newborntown,p1599_1509_1860,Install,1.6,1.225.185.31,b35785e6-a3d2-4b72-9c08-a54613709e8f,1557423865,2019-05-10 01:44:25,1557423888,2019-05-10 01:44:48,1557423920,ba848432-ae60-4b38-a232-296e72920d7e__pspm,http://pspm.pingstart.com/api/v4/postback?from=1706&clickid=ba848432-ae60-4b38-a232-296e72920d7e__pspm,idfa_b35785e6-a3d2-4b72-9c08-a54613709e8f,English
09NSfcIeSiSGG8dPLh0PsQ,newborntown,p1599_1509_1860,Install,1.6,58.233.81.4,a49f5b5a-a8c2-4c8d-ba22-3e12cfff92ce,1557423494,2019-05-10 01:38:14,1557423528,2019-05-10 01:38:48,1557423559,8e23b5d5-b646-49c7-968f-41540f620f47__pspm,http://pspm.pingstart.com/api/v4/postback?from=1706&clickid=8e23b5d5-b646-49c7-968f-41540f620f47__pspm,idfa_a49f5b5a-a8c2-4c8d-ba22-3e12cfff92ce,English
09NSfcIeSiSGG8dPLh0PsQ,newborntown,p1599_1509_1860,Install,1.6,220.123.210.130,3d98adee-cfc7-405d-b453-5e7403190158,1557424399,2019-05-10 01:53:19,1557424420,2019-05-10 01:53:40,1557424451,6a72599b-40c6-40eb-9739-bd4e0a65c15e__pspm,http://pspm.pingstart.com/api/v4/postback?from=1706&clickid=6a72599b-40c6-40eb-9739-bd4e0a65c15e__pspm,idfa_3d98adee-cfc7-405d-b453-5e7403190158,English
09NSfcIeSiSGG8dPLh0PsQ,newborntown,p1599_1509_1860,Install,1.6,110.10.255.166,79fc9afe-db34-49a5-963b-d35207f0cc07,1557350782,2019-05-09 05:26:22,1557350835,2019-05-09 05:27:15,1557350865,43e013fe-3ea8-4a84-982f-0016b0d65a07__pspm,http://pspm.pingstart.com/api/v4/postback?from=1706&clickid=43e013fe-3ea8-4a84-982f-0016b0d65a07__pspm,idfa_79fc9afe-db34-49a5-963b-d35207f0cc07,English
09NSfcIeSiSGG8dPLh0PsQ,newborntown,p1599_1509_1860,Install,1.6,180.65.10.23,598fd872-a1f7-44e4-92fa-1e7028b974ca,1557423766,2019-05-10 01:42:46,1557423796,2019-05-10 01:43:16,1557423827,e2d9abc9-2fd0-442e-809d-e284693aa090__pspm,http://pspm.pingstart.com/api/v4/postback?from=1706&clickid=e2d9abc9-2fd0-442e-809d-e284693aa090__pspm,idfa_598fd872-a1f7-44e4-92fa-1e7028b974ca,English
09NSfcIeSiSGG8dPLh0PsQ,newborntown,p1599_1509_1860,Install,1.6,175.122.12.91,a72b00f8-ed6d-420c-8071-efa962285902,1557424893,2019-05-10 02:01:33,1557424911,2019-05-10 02:01:51,1557424942,05153cbc-c200-4286-8543-9620fdc808bb__pspm,http://pspm.pingstart.com/api/v4/postback?from=1706&clickid=05153cbc-c200-4286-8543-9620fdc808bb__pspm,idfa_a72b00f8-ed6d-420c-8071-efa962285902,English
09NSfcIeSiSGG8dPLh0PsQ,newborntown,p1599_1509_1860,Install,1.6,118.222.123.186,3274f3e1-22e1-42f0-b86b-dc94be3a1ef9,1557424993,2019-05-10 02:03:13,1557425028,2019-05-10 02:03:48,1557425060,3325b5e6-af35-499d-b3ea-0280edbd4278__pspm,http://pspm.pingstart.com/api/v4/postback?from=1706&clickid=3325b5e6-af35-499d-b3ea-0280edbd4278__pspm,idfa_3274f3e1-22e1-42f0-b86b-dc94be3a1ef9,English
09NSfcIeSiSGG8dPLh0PsQ,newborntown,p1599_1509_1860,Install,1.6,58.234.186.7,645d95cc-5cc3-4069-8aa4-cf3a773dfbb8,1557423539,2019-05-10 01:38:59,1557423559,2019-05-10 01:39:19,1557423591,e70743bc-a1eb-4274-8475-4f3ae0e39bde__pspm,http://pspm.pingstart.com/api/v4/postback?from=1706&clickid=e70743bc-a1eb-4274-8475-4f3ae0e39bde__pspm,idfa_645d95cc-5cc3-4069-8aa4-cf3a773dfbb8,English
09NSfcIeSiSGG8dPLh0PsQ,newborntown,p1599_1509_1860,Install,1.6,222.119.56.95,dc8345df-8be1-497b-b1e2-53e090bb80ca,1557424079,2019-05-10 01:47:59,1557424099,2019-05-10 01:48:19,1557424130,d500882b-7c41-4843-b874-35067260d151__pspm,http://pspm.pingstart.com/api/v4/postback?from=1706&clickid=d500882b-7c41-4843-b874-35067260d151__pspm,idfa_dc8345df-8be1-497b-b1e2-53e090bb80ca,English
09NSfcIeSiSGG8dPLh0PsQ,newborntown,p1599_1509_1860,Install,1.6,211.246.68.215,b0b22392-f4a8-4d7c-a225-5cc35f498177,1557349503,2019-05-09 05:05:03,1557349622,2019-05-09 05:07:02,1557349653,8fc83c47-7caa-4de3-83d5-610a0faada36__pspm,http://pspm.pingstart.com/api/v4/postback?from=1706&clickid=8fc83c47-7caa-4de3-83d5-610a0faada36__pspm,idfa_b0b22392-f4a8-4d7c-a225-5cc35f498177,%ED%95%9C%EA%B5%AD%EC%96%B4
09NSfcIeSiSGG8dPLh0PsQ,newborntown,p1599_1509_1860,Install,1.6,211.248.90.99,0940b478-2802-40f6-8b05-7d8c8c24886a,1557424944,2019-05-10 02:02:24,1557424971,2019-05-10 02:02:51,1557425001,e9e4fbc3-f2fa-48f5-86cf-17a77de57af5__pspm,http://pspm.pingstart.com/api/v4/postback?from=1706&clickid=e9e4fbc3-f2fa-48f5-86cf-17a77de57af5__pspm,idfa_0940b478-2802-40f6-8b05-7d8c8c24886a,English
09NSfcIeSiSGG8dPLh0PsQ,newborntown,p1599_1509_1860,Install,1.6,218.236.105.198,e02e1186-d2b5-456b-964a-18ef8829194b,1557425021,2019-05-10 02:03:41,1557425041,2019-05-10 02:04:01,1557425072,5d9a04dd-a6eb-4fea-923e-140a1dc91974__pspm,http://pspm.pingstart.com/api/v4/postback?from=1706&clickid=5d9a04dd-a6eb-4fea-923e-140a1dc91974__pspm,idfa_e02e1186-d2b5-456b-964a-18ef8829194b,English
09NSfcIeSiSGG8dPLh0PsQ,newborntown,p1599_1509_1860,Install,1.6,211.229.104.80,614fb55d-9d49-42fa-9aa8-89759d3ab96d,1557423585,2019-05-10 01:39:45,1557423609,2019-05-10 01:40:09,1557423640,9f9e189a-7866-4690-957a-9dc8f53b3dfb__pspm,http://pspm.pingstart.com/api/v4/postback?from=1706&clickid=9f9e189a-7866-4690-957a-9dc8f53b3dfb__pspm,idfa_614fb55d-9d49-42fa-9aa8-89759d3ab96d,English
09NSfcIeSiSGG8dPLh0PsQ,newborntown,p1599_1509_1860,Install,1.6,180.69.44.58,57325c1b-9dd5-4217-bace-926502cb346e,1557424826,2019-05-10 02:00:26,1557424849,2019-05-10 02:00:49,1557424879,6659a750-fdfb-40fc-873f-4ad8bb8dbcf9__pspm,http://pspm.pingstart.com/api/v4/postback?from=1706&clickid=6659a750-fdfb-40fc-873f-4ad8bb8dbcf9__pspm,idfa_57325c1b-9dd5-4217-bace-926502cb346e,English
09NSfcIeSiSGG8dPLh0PsQ,newborntown,p1599_1509_1860,Install,1.6,211.104.182.241,f715d658-8b98-4374-af78-2bdc55ebdd0a,1557424693,2019-05-10 01:58:13,1557424714,2019-05-10 01:58:34,1557424745,ae28c2e2-030f-4f31-af97-7b4621bb2f4d__pspm,http://pspm.pingstart.com/api/v4/postback?from=1706&clickid=ae28c2e2-030f-4f31-af97-7b4621bb2f4d__pspm,idfa_f715d658-8b98-4374-af78-2bdc55ebdd0a,English
09NSfcIeSiSGG8dPLh0PsQ,newborntown,p1599_1509_1860,Install,1.6,121.175.221.160,a4426577-b21a-49b8-8f90-ef8e1d6c5590,1557423121,2019-05-10 01:32:01,1557423149,2019-05-10 01:32:29,1557423180,d8b22996-3496-4dc2-bebf-2212db817fe4__pspm,http://pspm.pingstart.com/api/v4/postback?from=1706&clickid=d8b22996-3496-4dc2-bebf-2212db817fe4__pspm,idfa_a4426577-b21a-49b8-8f90-ef8e1d6c5590,English
09NSfcIeSiSGG8dPLh0PsQ,newborntown,p1599_1509_1860,Install,1.6,175.223.49.138,ff78463d-d3db-49a5-b4eb-045a731450b3,1557345907,2019-05-09 04:05:07,1557345986,2019-05-09 04:06:26,1557346017,639bbd51-47ce-450f-ba48-e405a4b3242b__pspm,http://pspm.pingstart.com/api/v4/postback?from=1706&clickid=639bbd51-47ce-450f-ba48-e405a4b3242b__pspm,idfa_ff78463d-d3db-49a5-b4eb-045a731450b3,%ED%95%9C%EA%B5%AD%EC%96%B4
