cid,partner_id,channel_id,action_id,cpi,ip,idfa,click time,click datetime,install time,install datetime,postback time,click id,postback url,unique user id
PE9QXpHaQQKg5vd3vNReEQ,newborntown,p1865_7s__259,Install,3.8,1.170.52.217,3C85E0F4-F4DF-49DF-9075-503669132471,1557933334,2019-05-15 23:15:34,1557933370,2019-05-15 23:16:10,1557933401,2f8ba0db-69cc-4512-baa2-b4371cbf88ec__pspm,http://pspm.pingstart.com/api/v4/postback?from=1706&clickid=2f8ba0db-69cc-4512-baa2-b4371cbf88ec__pspm,idfa_3C85E0F4-F4DF-49DF-9075-503669132471,zh-Hant-TW
PE9QXpHaQQKg5vd3vNReEQ,newborntown,p1865_7s__259,Install,3.8,111.240.133.172,17400333-9794-4260-AAF7-2AEA5F640539,1557932243,2019-05-15 22:57:23,1557932278,2019-05-15 22:57:58,1557932309,a565d297-4990-465f-b3ec-94c127dd9157__pspm,http://pspm.pingstart.com/api/v4/postback?from=1706&clickid=a565d297-4990-465f-b3ec-94c127dd9157__pspm,idfa_17400333-9794-4260-AAF7-2AEA5F640539,zh-Hant-TW
PE9QXpHaQQKg5vd3vNReEQ,newborntown,p1865_7s__259,Install,3.8,1.173.230.62,CB11C408-C7F9-4B80-9238-5B4E87CD47AD,1557932574,2019-05-15 23:02:54,1557932613,2019-05-15 23:03:33,1557932644,c5986aea-e0f0-4480-9605-f905eedc0a44__pspm,http://pspm.pingstart.com/api/v4/postback?from=1706&clickid=c5986aea-e0f0-4480-9605-f905eedc0a44__pspm,idfa_CB11C408-C7F9-4B80-9238-5B4E87CD47AD,zh-Hant-TW
PE9QXpHaQQKg5vd3vNReEQ,newborntown,p1865_7s__259,Install,3.8,1.168.201.64,F775B29B-C14A-415E-93F3-BDEF4B587914,1557932880,2019-05-15 23:08:00,1557932930,2019-05-15 23:08:50,1557932967,cfca7373-bc47-41d6-a179-7e407fd7baf1__pspm,http://pspm.pingstart.com/api/v4/postback?from=1706&clickid=cfca7373-bc47-41d6-a179-7e407fd7baf1__pspm,idfa_F775B29B-C14A-415E-93F3-BDEF4B587914,zh-Hant-TW
PE9QXpHaQQKg5vd3vNReEQ,newborntown,p1865_7s__259,Install,3.8,118.171.227.135,22B70F85-56B3-4F1A-9477-9F3FBDEE34DF,1557932849,2019-05-15 23:07:29,1557932879,2019-05-15 23:07:59,1557932911,0cc447d8-6cef-46af-bca9-222fe1297195__pspm,http://pspm.pingstart.com/api/v4/postback?from=1706&clickid=0cc447d8-6cef-46af-bca9-222fe1297195__pspm,idfa_22B70F85-56B3-4F1A-9477-9F3FBDEE34DF,zh-Hant-TW
PE9QXpHaQQKg5vd3vNReEQ,newborntown,p1865_7s__259,Install,3.8,1.162.161.125,C2340E70-52A6-4B73-A719-609BE9259620,1557932370,2019-05-15 22:59:30,1557932409,2019-05-15 23:00:09,1557932440,a80d79c1-20bf-4d18-804c-83ede124822b__pspm,http://pspm.pingstart.com/api/v4/postback?from=1706&clickid=a80d79c1-20bf-4d18-804c-83ede124822b__pspm,idfa_C2340E70-52A6-4B73-A719-609BE9259620,zh-Hant-TW
PE9QXpHaQQKg5vd3vNReEQ,newborntown,p1865_7s__259,Install,3.8,1.162.63.158,2CD498FA-FC16-4C84-BAE2-08B80B54A722,1557932686,2019-05-15 23:04:46,1557932719,2019-05-15 23:05:19,1557932749,65591eab-cb84-4d1f-844a-6f049c0ff679__pspm,http://pspm.pingstart.com/api/v4/postback?from=1706&clickid=65591eab-cb84-4d1f-844a-6f049c0ff679__pspm,idfa_2CD498FA-FC16-4C84-BAE2-08B80B54A722,zh-Hant-TW
PE9QXpHaQQKg5vd3vNReEQ,newborntown,p1865_7s__259,Install,3.8,114.45.127.157,05A54487-A027-40E4-AFF0-C125D9106114,1557933253,2019-05-15 23:14:13,1557933295,2019-05-15 23:14:55,1557933325,62e5d0d8-1b9e-4fc5-a285-05c90315ca07__pspm,http://pspm.pingstart.com/api/v4/postback?from=1706&clickid=62e5d0d8-1b9e-4fc5-a285-05c90315ca07__pspm,idfa_05A54487-A027-40E4-AFF0-C125D9106114,zh-Hant-TW
PE9QXpHaQQKg5vd3vNReEQ,newborntown,p1865_7s__259,Install,3.8,1.175.171.211,5EB0515D-8A66-4979-AAFF-6CEF34167A0F,1557932856,2019-05-15 23:07:36,1557932889,2019-05-15 23:08:09,1557932920,17d74a29-22a9-4b35-bea6-05d0b807cd82__pspm,http://pspm.pingstart.com/api/v4/postback?from=1706&clickid=17d74a29-22a9-4b35-bea6-05d0b807cd82__pspm,idfa_5EB0515D-8A66-4979-AAFF-6CEF34167A0F,en-TW
PE9QXpHaQQKg5vd3vNReEQ,newborntown,p1865_7s__259,Install,3.8,1.168.48.189,97087FBB-1F08-4A8E-B89F-91234D795135,1557933060,2019-05-15 23:11:00,1557933113,2019-05-15 23:11:53,1557933143,f7fa4bfa-872a-4327-91a5-d9333c532594__pspm,http://pspm.pingstart.com/api/v4/postback?from=1706&clickid=f7fa4bfa-872a-4327-91a5-d9333c532594__pspm,idfa_97087FBB-1F08-4A8E-B89F-91234D795135,zh-Hant-TW
PE9QXpHaQQKg5vd3vNReEQ,newborntown,p1865_7s__259,Install,3.8,1.172.135.228,8F9E8DBC-FD82-452D-B804-0E27AE057380,1557932955,2019-05-15 23:09:15,1557933007,2019-05-15 23:10:07,1557933038,ce733afd-0d1d-46f3-8937-7b064ae672c0__pspm,http://pspm.pingstart.com/api/v4/postback?from=1706&clickid=ce733afd-0d1d-46f3-8937-7b064ae672c0__pspm,idfa_8F9E8DBC-FD82-452D-B804-0E27AE057380,zh-Hant-TW
PE9QXpHaQQKg5vd3vNReEQ,newborntown,p1865_7s__259,Install,3.8,1.172.12.91,799BD164-DD64-4BFF-AD13-933AF70823C4,1557933222,2019-05-15 23:13:42,1557933262,2019-05-15 23:14:22,1557933293,767a7d3d-19cc-4acc-936a-42d56d37d419__pspm,http://pspm.pingstart.com/api/v4/postback?from=1706&clickid=767a7d3d-19cc-4acc-936a-42d56d37d419__pspm,idfa_799BD164-DD64-4BFF-AD13-933AF70823C4,zh-Hant-TW
PE9QXpHaQQKg5vd3vNReEQ,newborntown,p1865_7s__259,Install,3.8,118.167.2.191,1DBF238D-9F9C-4D84-8070-1F8D14E0B0FD,1557933301,2019-05-15 23:15:01,1557933330,2019-05-15 23:15:30,1557933361,a2dbf2d3-62c2-4676-88c5-038bfde8ec6e__pspm,http://pspm.pingstart.com/api/v4/postback?from=1706&clickid=a2dbf2d3-62c2-4676-88c5-038bfde8ec6e__pspm,idfa_1DBF238D-9F9C-4D84-8070-1F8D14E0B0FD,zh-Hant-TW
PE9QXpHaQQKg5vd3vNReEQ,newborntown,p1865_7s__259,Install,3.8,1.168.226.116,AD312C3A-A203-46CB-A051-1880E71DD6ED,1557932950,2019-05-15 23:09:10,1557933031,2019-05-15 23:10:31,1557933062,1e4d3888-dd16-4c42-8e8f-005a7576466e__pspm,http://pspm.pingstart.com/api/v4/postback?from=1706&clickid=1e4d3888-dd16-4c42-8e8f-005a7576466e__pspm,idfa_AD312C3A-A203-46CB-A051-1880E71DD6ED,zh-Hant-TW
PE9QXpHaQQKg5vd3vNReEQ,newborntown,p1865_7s__259,Install,3.8,1.164.55.63,54C3EDCC-EE34-4158-AA13-DE9CC69C45E3,1557933410,2019-05-15 23:16:50,1557933460,2019-05-15 23:17:40,1557933492,f44eecb6-351e-426a-9a3e-422cdd8b4673__pspm,http://pspm.pingstart.com/api/v4/postback?from=1706&clickid=f44eecb6-351e-426a-9a3e-422cdd8b4673__pspm,idfa_54C3EDCC-EE34-4158-AA13-DE9CC69C45E3,zh-Hant-TW
PE9QXpHaQQKg5vd3vNReEQ,newborntown,p1865_7s__259,Install,3.8,111.240.98.204,FA60B262-532E-407B-8ADD-280A83873EAA,1557932679,2019-05-15 23:04:39,1557932712,2019-05-15 23:05:12,1557932743,e5c2cc0d-929f-418d-bb92-35f6bc3dab10__pspm,http://pspm.pingstart.com/api/v4/postback?from=1706&clickid=e5c2cc0d-929f-418d-bb92-35f6bc3dab10__pspm,idfa_FA60B262-532E-407B-8ADD-280A83873EAA,zh-Hant-TW
PE9QXpHaQQKg5vd3vNReEQ,newborntown,p1865_7s__259,Install,3.8,1.164.132.113,304E6995-84F0-4A0F-B91B-599B5FEC45CF,1557932854,2019-05-15 23:07:34,1557932907,2019-05-15 23:08:27,1557932947,ef213b42-3504-4bde-9553-2803f0b1d5f8__pspm,http://pspm.pingstart.com/api/v4/postback?from=1706&clickid=ef213b42-3504-4bde-9553-2803f0b1d5f8__pspm,idfa_304E6995-84F0-4A0F-B91B-599B5FEC45CF,zh-Hant-TW
PE9QXpHaQQKg5vd3vNReEQ,newborntown,p1865_7s__259,Install,3.8,1.170.66.159,5DFDC90A-7B92-438B-9F50-35ABD8CBEDA9,1557933099,2019-05-15 23:11:39,1557933150,2019-05-15 23:12:30,1557933181,31866596-4af1-4cca-8935-c55b473c3d73__pspm,http://pspm.pingstart.com/api/v4/postback?from=1706&clickid=31866596-4af1-4cca-8935-c55b473c3d73__pspm,idfa_5DFDC90A-7B92-438B-9F50-35ABD8CBEDA9,zh-Hant-TW
PE9QXpHaQQKg5vd3vNReEQ,newborntown,p1865_7s__259,Install,3.8,1.172.18.116,C4309F0C-04D5-4E01-B13F-CF4FBE1D58A7,1557933359,2019-05-15 23:15:59,1557933398,2019-05-15 23:16:38,1557933430,c9aaa09d-f35c-4188-998a-43c1a190fcc3__pspm,http://pspm.pingstart.com/api/v4/postback?from=1706&clickid=c9aaa09d-f35c-4188-998a-43c1a190fcc3__pspm,idfa_C4309F0C-04D5-4E01-B13F-CF4FBE1D58A7,zh-Hant-TW
PE9QXpHaQQKg5vd3vNReEQ,newborntown,p1865_7s__259,Install,3.8,114.36.19.177,C5C0B5E1-0FD8-46A6-ABDB-8E36179503F0,1557932745,2019-05-15 23:05:45,1557932774,2019-05-15 23:06:14,1557932804,6ce79071-e7ba-45a4-9ced-190d30dbc57d__pspm,http://pspm.pingstart.com/api/v4/postback?from=1706&clickid=6ce79071-e7ba-45a4-9ced-190d30dbc57d__pspm,idfa_C5C0B5E1-0FD8-46A6-ABDB-8E36179503F0,en-TW
PE9QXpHaQQKg5vd3vNReEQ,newborntown,p1865_7s__259,Install,3.8,1.174.161.41,8FA2EA56-3008-42C3-9D86-E1320DFD6F79,1557932923,2019-05-15 23:08:43,1557932966,2019-05-15 23:09:26,1557932999,d31b5b51-3ff8-4d2d-81c8-42fafa502df2__pspm,http://pspm.pingstart.com/api/v4/postback?from=1706&clickid=d31b5b51-3ff8-4d2d-81c8-42fafa502df2__pspm,idfa_8FA2EA56-3008-42C3-9D86-E1320DFD6F79,zh-Hant-TW
PE9QXpHaQQKg5vd3vNReEQ,newborntown,p1865_7s__259,Install,3.8,114.26.63.77,62040A6B-6140-4689-86FA-32435AAD98D2,1557933448,2019-05-15 23:17:28,1557933516,2019-05-15 23:18:36,1557933546,06c0933e-07f1-4eaa-8e4c-d577623a4bd6__pspm,http://pspm.pingstart.com/api/v4/postback?from=1706&clickid=06c0933e-07f1-4eaa-8e4c-d577623a4bd6__pspm,idfa_62040A6B-6140-4689-86FA-32435AAD98D2,zh-Hant-TW
PE9QXpHaQQKg5vd3vNReEQ,newborntown,p1865_7s__259,Install,3.8,1.161.187.72,3AC5F87F-0C46-4456-ABD3-5C5EDC02C5BC,1557932520,2019-05-15 23:02:00,1557932558,2019-05-15 23:02:38,1557932591,005e6b9d-26a6-4490-a0c3-3dcb4b4a791f__pspm,http://pspm.pingstart.com/api/v4/postback?from=1706&clickid=005e6b9d-26a6-4490-a0c3-3dcb4b4a791f__pspm,idfa_3AC5F87F-0C46-4456-ABD3-5C5EDC02C5BC,zh-Hant-TW
PE9QXpHaQQKg5vd3vNReEQ,newborntown,p1865_7s__259,Install,3.8,1.161.185.195,9AF37C79-EB1E-405D-B607-502537D488C6,1557932340,2019-05-15 22:59:00,1557932387,2019-05-15 22:59:47,1557932425,30417d43-5e2b-4741-90ca-f632f5f1cb51__pspm,http://pspm.pingstart.com/api/v4/postback?from=1706&clickid=30417d43-5e2b-4741-90ca-f632f5f1cb51__pspm,idfa_9AF37C79-EB1E-405D-B607-502537D488C6,zh-Hant-TW
PE9QXpHaQQKg5vd3vNReEQ,newborntown,p1865_7s__259,Install,3.8,36.231.43.91,211CA12B-CC02-4797-9B1D-12C692E796C5,1557932318,2019-05-15 22:58:38,1557932364,2019-05-15 22:59:24,1557932395,c4031567-eebe-47fc-9e7b-c82ec83e9280__pspm,http://pspm.pingstart.com/api/v4/postback?from=1706&clickid=c4031567-eebe-47fc-9e7b-c82ec83e9280__pspm,idfa_211CA12B-CC02-4797-9B1D-12C692E796C5,en-TW
PE9QXpHaQQKg5vd3vNReEQ,newborntown,p1865_7s__259,Install,3.8,1.168.135.106,E470F6A8-4711-4DB7-B3E8-5BDDE680445A,1557933317,2019-05-15 23:15:17,1557933349,2019-05-15 23:15:49,1557933380,79bc3212-791e-4286-8588-bf407325f451__pspm,http://pspm.pingstart.com/api/v4/postback?from=1706&clickid=79bc3212-791e-4286-8588-bf407325f451__pspm,idfa_E470F6A8-4711-4DB7-B3E8-5BDDE680445A,zh-Hant-TW
PE9QXpHaQQKg5vd3vNReEQ,newborntown,p1865_7s__259,Install,3.8,1.170.74.227,03B2DF60-81D7-44B1-AE59-706AFBAB0062,1557932617,2019-05-15 23:03:37,1557932668,2019-05-15 23:04:28,1557932699,35ceafc6-0e3b-4d97-a7fa-997ba8bcc8ea__pspm,http://pspm.pingstart.com/api/v4/postback?from=1706&clickid=35ceafc6-0e3b-4d97-a7fa-997ba8bcc8ea__pspm,idfa_03B2DF60-81D7-44B1-AE59-706AFBAB0062,zh-Hant-TW
PE9QXpHaQQKg5vd3vNReEQ,newborntown,p1865_7s__259,Install,3.8,111.249.134.153,E04246EB-740A-4FF2-9996-FFD0F69B1D85,1557933344,2019-05-15 23:15:44,1557933393,2019-05-15 23:16:33,1557933424,b476a6f5-7d60-4445-a9a9-d84c6d842398__pspm,http://pspm.pingstart.com/api/v4/postback?from=1706&clickid=b476a6f5-7d60-4445-a9a9-d84c6d842398__pspm,idfa_E04246EB-740A-4FF2-9996-FFD0F69B1D85,zh-Hant-TW
PE9QXpHaQQKg5vd3vNReEQ,newborntown,p1865_7s__259,Install,3.8,1.168.196.105,39C9E72E-0041-47A5-9A9E-C696A832868F,1557932361,2019-05-15 22:59:21,1557932409,2019-05-15 23:00:09,1557932441,8743a5d5-ab16-4400-a8b1-ff15f27aa445__pspm,http://pspm.pingstart.com/api/v4/postback?from=1706&clickid=8743a5d5-ab16-4400-a8b1-ff15f27aa445__pspm,idfa_39C9E72E-0041-47A5-9A9E-C696A832868F,zh-Hant-TW
PE9QXpHaQQKg5vd3vNReEQ,newborntown,p1865_7s__259,Install,3.8,218.166.248.74,94722BAF-1A3E-4C58-B3BB-C3DFBB9009BE,1557933160,2019-05-15 23:12:40,1557933184,2019-05-15 23:13:04,1557933215,552bfcc7-827f-42de-ac51-eac617f810fa__pspm,http://pspm.pingstart.com/api/v4/postback?from=1706&clickid=552bfcc7-827f-42de-ac51-eac617f810fa__pspm,idfa_94722BAF-1A3E-4C58-B3BB-C3DFBB9009BE,en-TW
PE9QXpHaQQKg5vd3vNReEQ,newborntown,p1865_7s__259,Install,3.8,61.223.21.1,4DC2E46C-1DE5-4CC7-B52C-F3CBEE5E2E47,1557933328,2019-05-15 23:15:28,1557933374,2019-05-15 23:16:14,1557933405,fb8b43fa-f268-4465-8ce5-eb23b8772625__pspm,http://pspm.pingstart.com/api/v4/postback?from=1706&clickid=fb8b43fa-f268-4465-8ce5-eb23b8772625__pspm,idfa_4DC2E46C-1DE5-4CC7-B52C-F3CBEE5E2E47,en-TW
PE9QXpHaQQKg5vd3vNReEQ,newborntown,p1865_7s__259,Install,3.8,111.254.128.11,7C295AF1-D1F8-474A-AB07-6256CE6ED466,1557933391,2019-05-15 23:16:31,1557933425,2019-05-15 23:17:05,1557933459,5d19ec7d-0712-464c-8aff-9e213c4460a5__pspm,http://pspm.pingstart.com/api/v4/postback?from=1706&clickid=5d19ec7d-0712-464c-8aff-9e213c4460a5__pspm,idfa_7C295AF1-D1F8-474A-AB07-6256CE6ED466,zh-Hant-TW
PE9QXpHaQQKg5vd3vNReEQ,newborntown,p1865_7s__259,Install,3.8,111.249.222.159,D9756CC8-84FB-457E-B381-293053584F4D,1557932559,2019-05-15 23:02:39,1557932594,2019-05-15 23:03:14,1557932628,3eb884d4-a3b4-4c3f-b11d-7d8056821317__pspm,http://pspm.pingstart.com/api/v4/postback?from=1706&clickid=3eb884d4-a3b4-4c3f-b11d-7d8056821317__pspm,idfa_D9756CC8-84FB-457E-B381-293053584F4D,en-TW
PE9QXpHaQQKg5vd3vNReEQ,newborntown,p1865_7s__259,Install,3.8,111.240.182.61,6CC380E3-3ACA-4196-B7A3-602F8129A808,1557932690,2019-05-15 23:04:50,1557932727,2019-05-15 23:05:27,1557932758,6e2c2f94-24c3-4c82-b6ec-f17282982269__pspm,http://pspm.pingstart.com/api/v4/postback?from=1706&clickid=6e2c2f94-24c3-4c82-b6ec-f17282982269__pspm,idfa_6CC380E3-3ACA-4196-B7A3-602F8129A808,zh-Hant-TW
PE9QXpHaQQKg5vd3vNReEQ,newborntown,p1865_7s__259,Install,3.8,1.172.131.253,8CEE39AE-B061-4C73-8EC8-89A51B114F8F,1557932282,2019-05-15 22:58:02,1557932332,2019-05-15 22:58:52,1557932370,df220cbe-e677-447a-8ca1-29cbc2a62b6b__pspm,http://pspm.pingstart.com/api/v4/postback?from=1706&clickid=df220cbe-e677-447a-8ca1-29cbc2a62b6b__pspm,idfa_8CEE39AE-B061-4C73-8EC8-89A51B114F8F,zh-Hant-TW
PE9QXpHaQQKg5vd3vNReEQ,newborntown,p1865_7s__259,Install,3.8,1.161.71.239,F4625061-942B-4411-B03E-3276ADDD0FE6,1557932921,2019-05-15 23:08:41,1557932957,2019-05-15 23:09:17,1557932988,226742f3-ec51-40c0-9cd4-00ac8aad92aa__pspm,http://pspm.pingstart.com/api/v4/postback?from=1706&clickid=226742f3-ec51-40c0-9cd4-00ac8aad92aa__pspm,idfa_F4625061-942B-4411-B03E-3276ADDD0FE6,zh-Hant-TW
PE9QXpHaQQKg5vd3vNReEQ,newborntown,p1865_7s__259,Install,3.8,1.164.39.4,5950757F-B2ED-44F2-AF11-A90F8B309E37,1557933024,2019-05-15 23:10:24,1557933070,2019-05-15 23:11:10,1557933101,4553a810-842a-461c-b310-d72270f6ac2e__pspm,http://pspm.pingstart.com/api/v4/postback?from=1706&clickid=4553a810-842a-461c-b310-d72270f6ac2e__pspm,idfa_5950757F-B2ED-44F2-AF11-A90F8B309E37,zh-Hant-TW
PE9QXpHaQQKg5vd3vNReEQ,newborntown,p1865_7s__259,Install,3.8,114.25.29.226,79C29818-C799-4470-BDB1-7E428DCCE13C,1557932293,2019-05-15 22:58:13,1557932322,2019-05-15 22:58:42,1557932363,208aa962-2abd-4d5e-b055-db48cc024c81__pspm,http://pspm.pingstart.com/api/v4/postback?from=1706&clickid=208aa962-2abd-4d5e-b055-db48cc024c81__pspm,idfa_79C29818-C799-4470-BDB1-7E428DCCE13C,zh-Hant-TW
PE9QXpHaQQKg5vd3vNReEQ,newborntown,p1865_7s__259,Install,3.8,114.41.55.109,2817ADEE-B951-4DDD-A1EF-0BD15E71BD7B,1557933397,2019-05-15 23:16:37,1557933425,2019-05-15 23:17:05,1557933455,abca076c-ca1f-4a1c-93f3-04c0ebc05109__pspm,http://pspm.pingstart.com/api/v4/postback?from=1706&clickid=abca076c-ca1f-4a1c-93f3-04c0ebc05109__pspm,idfa_2817ADEE-B951-4DDD-A1EF-0BD15E71BD7B,zh-Hant-TW
PE9QXpHaQQKg5vd3vNReEQ,newborntown,p1865_7s__259,Install,3.8,1.174.47.152,58B38DCE-8B1F-42B1-A6B6-F4F76D16C21A,1557933433,2019-05-15 23:17:13,1557933469,2019-05-15 23:17:49,1557933500,2f9697cb-b0f3-46c2-9545-5861089b5629__pspm,http://pspm.pingstart.com/api/v4/postback?from=1706&clickid=2f9697cb-b0f3-46c2-9545-5861089b5629__pspm,idfa_58B38DCE-8B1F-42B1-A6B6-F4F76D16C21A,zh-Hant-TW
PE9QXpHaQQKg5vd3vNReEQ,newborntown,p1865_7s__259,Install,3.8,111.250.18.59,A13E4997-BA14-4809-BC43-97193ACEBC2F,1557932395,2019-05-15 22:59:55,1557932432,2019-05-15 23:00:32,1557932469,50e76e72-f05b-4cab-be57-bd2eb1f47447__pspm,http://pspm.pingstart.com/api/v4/postback?from=1706&clickid=50e76e72-f05b-4cab-be57-bd2eb1f47447__pspm,idfa_A13E4997-BA14-4809-BC43-97193ACEBC2F,en-TW
PE9QXpHaQQKg5vd3vNReEQ,newborntown,p1865_7s__259,Install,3.8,1.172.137.202,4A7E10C8-1CAF-471A-8D31-735BDF6CBFFB,1557933075,2019-05-15 23:11:15,1557933115,2019-05-15 23:11:55,1557933146,edefbed3-ee2d-4f42-8b3e-c6f2b503a90a__pspm,http://pspm.pingstart.com/api/v4/postback?from=1706&clickid=edefbed3-ee2d-4f42-8b3e-c6f2b503a90a__pspm,idfa_4A7E10C8-1CAF-471A-8D31-735BDF6CBFFB,zh-Hant-TW
PE9QXpHaQQKg5vd3vNReEQ,newborntown,p1865_7s__259,Install,3.8,1.163.31.114,685BDE0E-A895-4E15-ACBD-7C4BE50FC19A,1557933280,2019-05-15 23:14:40,1557933327,2019-05-15 23:15:27,1557933358,a3733b77-2cd2-4e24-8599-aaf5964424ed__pspm,http://pspm.pingstart.com/api/v4/postback?from=1706&clickid=a3733b77-2cd2-4e24-8599-aaf5964424ed__pspm,idfa_685BDE0E-A895-4E15-ACBD-7C4BE50FC19A,zh-Hant-TW
PE9QXpHaQQKg5vd3vNReEQ,newborntown,p1865_7s__259,Install,3.8,1.161.170.211,C7A01C92-ACC6-40A7-AFFD-F702B14FEEB0,1557932377,2019-05-15 22:59:37,1557932431,2019-05-15 23:00:31,1557932462,3ba4c288-80e1-40d2-af0b-0d411dd09bee__pspm,http://pspm.pingstart.com/api/v4/postback?from=1706&clickid=3ba4c288-80e1-40d2-af0b-0d411dd09bee__pspm,idfa_C7A01C92-ACC6-40A7-AFFD-F702B14FEEB0,zh-Hant-TW
PE9QXpHaQQKg5vd3vNReEQ,newborntown,p1865_7s__259,Install,3.8,1.163.20.59,78448114-CE95-48EB-BF5F-A57D1B05767E,1557932686,2019-05-15 23:04:46,1557932742,2019-05-15 23:05:42,1557932772,f945837f-19fa-4d2e-9d31-6b2b197bfd59__pspm,http://pspm.pingstart.com/api/v4/postback?from=1706&clickid=f945837f-19fa-4d2e-9d31-6b2b197bfd59__pspm,idfa_78448114-CE95-48EB-BF5F-A57D1B05767E,zh-Hant-TW
PE9QXpHaQQKg5vd3vNReEQ,newborntown,p1865_7s__259,Install,3.8,1.173.145.197,C36EE9B3-C97C-4F2A-A9A1-B6A467C66D01,1557932812,2019-05-15 23:06:52,1557932847,2019-05-15 23:07:27,1557932879,5df0d3d7-6a9e-4032-b83b-988a9db85ba5__pspm,http://pspm.pingstart.com/api/v4/postback?from=1706&clickid=5df0d3d7-6a9e-4032-b83b-988a9db85ba5__pspm,idfa_C36EE9B3-C97C-4F2A-A9A1-B6A467C66D01,zh-Hant-TW
PE9QXpHaQQKg5vd3vNReEQ,newborntown,p1865_7s__259,Install,3.8,1.164.72.146,D19E3226-4CFA-4A40-A882-DE08937C5C17,1557932508,2019-05-15 23:01:48,1557932550,2019-05-15 23:02:30,1557932581,c22622e7-c9fc-4377-a3be-161df4b6b256__pspm,http://pspm.pingstart.com/api/v4/postback?from=1706&clickid=c22622e7-c9fc-4377-a3be-161df4b6b256__pspm,idfa_D19E3226-4CFA-4A40-A882-DE08937C5C17,zh-Hant-TW
PE9QXpHaQQKg5vd3vNReEQ,newborntown,p1865_7s__259,Install,3.8,1.172.131.76,C0B86100-557E-4DC3-919A-D33A3DC4CA97,1557932687,2019-05-15 23:04:47,1557932721,2019-05-15 23:05:21,1557932752,0b1e6dcf-e85e-41d8-880a-078b7e42e674__pspm,http://pspm.pingstart.com/api/v4/postback?from=1706&clickid=0b1e6dcf-e85e-41d8-880a-078b7e42e674__pspm,idfa_C0B86100-557E-4DC3-919A-D33A3DC4CA97,zh-Hant-TW
PE9QXpHaQQKg5vd3vNReEQ,newborntown,p1865_7s__259,Install,3.8,1.174.146.60,DB710D9D-35B7-4AC9-8050-66A07C840C03,1557932385,2019-05-15 22:59:45,1557932427,2019-05-15 23:00:27,1557932458,fe1b1467-1c4f-4545-b1cd-02d1e77bc540__pspm,http://pspm.pingstart.com/api/v4/postback?from=1706&clickid=fe1b1467-1c4f-4545-b1cd-02d1e77bc540__pspm,idfa_DB710D9D-35B7-4AC9-8050-66A07C840C03,zh-Hant-TW
PE9QXpHaQQKg5vd3vNReEQ,newborntown,p1865_7s__259,Install,3.8,1.168.196.31,26B50E6D-0AD0-49D2-88CF-7E8639E47BB6,1557932875,2019-05-15 23:07:55,1557932918,2019-05-15 23:08:38,1557932954,0efc06b3-a6aa-4055-8745-0e909b713cb3__pspm,http://pspm.pingstart.com/api/v4/postback?from=1706&clickid=0efc06b3-a6aa-4055-8745-0e909b713cb3__pspm,idfa_26B50E6D-0AD0-49D2-88CF-7E8639E47BB6,zh-Hant-TW
PE9QXpHaQQKg5vd3vNReEQ,newborntown,p1865_7s__259,Install,3.8,114.37.124.205,D61D2971-179F-4075-B107-FFD1C88020F7,1557932655,2019-05-15 23:04:15,1557932681,2019-05-15 23:04:41,1557932712,12ea8b03-57d6-412d-ab55-874be5a4f393__pspm,http://pspm.pingstart.com/api/v4/postback?from=1706&clickid=12ea8b03-57d6-412d-ab55-874be5a4f393__pspm,idfa_D61D2971-179F-4075-B107-FFD1C88020F7,zh-Hant-TW
PE9QXpHaQQKg5vd3vNReEQ,newborntown,p1865_7s__259,Install,3.8,1.169.149.234,DE4154D9-E7CA-4905-9140-B3AF829BF98C,1557932251,2019-05-15 22:57:31,1557932286,2019-05-15 22:58:06,1557932316,3201a48f-ce73-46dc-94b7-fb47ae9cb0f7__pspm,http://pspm.pingstart.com/api/v4/postback?from=1706&clickid=3201a48f-ce73-46dc-94b7-fb47ae9cb0f7__pspm,idfa_DE4154D9-E7CA-4905-9140-B3AF829BF98C,zh-Hant-TW
PE9QXpHaQQKg5vd3vNReEQ,newborntown,p1865_7s__259,Install,3.8,1.169.90.140,48C63B0A-AD39-4758-9FBA-85FD5DF08753,1557933395,2019-05-15 23:16:35,1557933430,2019-05-15 23:17:10,1557933461,c4e68ab1-8b30-4400-992d-1860ce2975ae__pspm,http://pspm.pingstart.com/api/v4/postback?from=1706&clickid=c4e68ab1-8b30-4400-992d-1860ce2975ae__pspm,idfa_48C63B0A-AD39-4758-9FBA-85FD5DF08753,zh-Hant-TW
PE9QXpHaQQKg5vd3vNReEQ,newborntown,p1865_7s__259,Install,3.8,1.160.58.52,D0FDA933-EC82-4E55-9F99-4E319597D1C0,1557933398,2019-05-15 23:16:38,1557933449,2019-05-15 23:17:29,1557933483,8a16868d-1199-4fa9-abc4-27890e04a629__pspm,http://pspm.pingstart.com/api/v4/postback?from=1706&clickid=8a16868d-1199-4fa9-abc4-27890e04a629__pspm,idfa_D0FDA933-EC82-4E55-9F99-4E319597D1C0,zh-Hant-TW
PE9QXpHaQQKg5vd3vNReEQ,newborntown,p1865_7s__259,Install,3.8,1.163.144.171,D15ECB6F-3907-4DDB-8ACE-E318FDB55F89,1557932497,2019-05-15 23:01:37,1557932531,2019-05-15 23:02:11,1557932578,67bec605-b800-47b7-99e5-2e3119b172ac__pspm,http://pspm.pingstart.com/api/v4/postback?from=1706&clickid=67bec605-b800-47b7-99e5-2e3119b172ac__pspm,idfa_D15ECB6F-3907-4DDB-8ACE-E318FDB55F89,zh-Hant-TW
PE9QXpHaQQKg5vd3vNReEQ,newborntown,p1865_7s__259,Install,3.8,1.172.131.253,3BA56EB3-5195-4F89-A585-1754FC4C58AF,1557932817,2019-05-15 23:06:57,1557932854,2019-05-15 23:07:34,1557933024,9c0c22f5-6bf1-45ab-b09a-6bda0bc76518__pspm,http://pspm.pingstart.com/api/v4/postback?from=1706&clickid=9c0c22f5-6bf1-45ab-b09a-6bda0bc76518__pspm,idfa_3BA56EB3-5195-4F89-A585-1754FC4C58AF,en-TW
PE9QXpHaQQKg5vd3vNReEQ,newborntown,p1865_7s__259,Install,3.8,218.173.162.73,F1992AD2-755A-4AF7-9705-8B6891056141,1557932609,2019-05-15 23:03:29,1557932642,2019-05-15 23:04:02,1557932673,1c9548f0-7e39-48e1-8e40-c27a45b8077d__pspm,http://pspm.pingstart.com/api/v4/postback?from=1706&clickid=1c9548f0-7e39-48e1-8e40-c27a45b8077d__pspm,idfa_F1992AD2-755A-4AF7-9705-8B6891056141,en-TW
PE9QXpHaQQKg5vd3vNReEQ,newborntown,p1865_7s__259,Install,3.8,1.174.96.248,CD8D02D8-455D-4230-BA61-488A50DDBBFE,1557933176,2019-05-15 23:12:56,1557933209,2019-05-15 23:13:29,1557933240,264b5857-dc0b-4c00-b888-270b4dd7621d__pspm,http://pspm.pingstart.com/api/v4/postback?from=1706&clickid=264b5857-dc0b-4c00-b888-270b4dd7621d__pspm,idfa_CD8D02D8-455D-4230-BA61-488A50DDBBFE,en-TW
PE9QXpHaQQKg5vd3vNReEQ,newborntown,p1865_7s__259,Install,3.8,1.168.121.87,535DF2E8-2069-43C3-B0E7-76DD7541FE8D,1557933475,2019-05-15 23:17:55,1557933514,2019-05-15 23:18:34,1557933545,afb07b02-5bb0-4ac7-9033-e8c5be087852__pspm,http://pspm.pingstart.com/api/v4/postback?from=1706&clickid=afb07b02-5bb0-4ac7-9033-e8c5be087852__pspm,idfa_535DF2E8-2069-43C3-B0E7-76DD7541FE8D,zh-Hant-TW
PE9QXpHaQQKg5vd3vNReEQ,newborntown,p1865_7s__259,Install,3.8,111.242.104.202,2E76147A-6FC9-4E63-BC54-ABA2A0EC304E,1557933385,2019-05-15 23:16:25,1557933417,2019-05-15 23:16:57,1557933451,4c75f0f3-4cb9-4374-874b-787a877d534c__pspm,http://pspm.pingstart.com/api/v4/postback?from=1706&clickid=4c75f0f3-4cb9-4374-874b-787a877d534c__pspm,idfa_2E76147A-6FC9-4E63-BC54-ABA2A0EC304E,zh-Hant-TW
PE9QXpHaQQKg5vd3vNReEQ,newborntown,p1865_7s__259,Install,3.8,1.174.35.214,E54BF947-734D-40F2-9950-7ADDBC8FB125,1557932250,2019-05-15 22:57:30,1557932292,2019-05-15 22:58:12,1557932326,afbee8a8-1098-413b-b815-f1eed080d58a__pspm,http://pspm.pingstart.com/api/v4/postback?from=1706&clickid=afbee8a8-1098-413b-b815-f1eed080d58a__pspm,idfa_E54BF947-734D-40F2-9950-7ADDBC8FB125,zh-Hant-TW
PE9QXpHaQQKg5vd3vNReEQ,newborntown,p1865_7s__259,Install,3.8,1.160.160.80,221B65E2-E2A1-4A86-9CE8-388D69B828D0,1557932804,2019-05-15 23:06:44,1557932858,2019-05-15 23:07:38,1557932889,2a23c3a0-8dca-462c-b551-d5d935901eb0__pspm,http://pspm.pingstart.com/api/v4/postback?from=1706&clickid=2a23c3a0-8dca-462c-b551-d5d935901eb0__pspm,idfa_221B65E2-E2A1-4A86-9CE8-388D69B828D0,zh-Hant-TW
PE9QXpHaQQKg5vd3vNReEQ,newborntown,p1865_7s__259,Install,3.8,1.160.86.105,5E135BC3-BF43-40B9-891E-21B650F31BA0,1557933054,2019-05-15 23:10:54,1557933105,2019-05-15 23:11:45,1557933135,3a752f85-c4a1-48fa-a7b3-cfd79b2e025e__pspm,http://pspm.pingstart.com/api/v4/postback?from=1706&clickid=3a752f85-c4a1-48fa-a7b3-cfd79b2e025e__pspm,idfa_5E135BC3-BF43-40B9-891E-21B650F31BA0,zh-Hant-TW
PE9QXpHaQQKg5vd3vNReEQ,newborntown,p1865_7s__259,Install,3.8,1.171.169.15,87E24756-69AE-4A42-B238-59B62D231A89,1557932776,2019-05-15 23:06:16,1557932823,2019-05-15 23:07:03,1557932854,d4c7b503-d56f-45ec-b71b-e9f57825931a__pspm,http://pspm.pingstart.com/api/v4/postback?from=1706&clickid=d4c7b503-d56f-45ec-b71b-e9f57825931a__pspm,idfa_87E24756-69AE-4A42-B238-59B62D231A89,zh-Hant-TW
