cid,partner_id,channel_id,action_id,cpi,ip,idfa,click time,click datetime,install time,install datetime,postback time,click id,postback url,unique user id
vCqBBhzLRjKzceuiGo99tA,newborntown,p1776_126_7_741-12917,Install,1.5,114.30.165.97,F0F6C681-0408-46A3-B278-E3CBB99E94EA,1559261254,2019-05-31 08:07:34,1559261331,2019-05-31 08:08:51,1559261339,759bd930-3459-43b5-ae39-b836914facd8__pspm,http://pspm.pingstart.com/api/v4/postback?from=1706&clickid=759bd930-3459-43b5-ae39-b836914facd8__pspm,idfa_F0F6C681-0408-46A3-B278-E3CBB99E94EA,ko
vCqBBhzLRjKzceuiGo99tA,newborntown,p1776_126_7_741-12917,Install,1.5,175.195.45.85,A685596C-3A1D-413B-BD72-1829D6EEC906,1559260583,2019-05-31 07:56:23,1559260669,2019-05-31 07:57:49,1559260677,1d413095-5586-4a84-94e1-8cfd550194d9__pspm,http://pspm.pingstart.com/api/v4/postback?from=1706&clickid=1d413095-5586-4a84-94e1-8cfd550194d9__pspm,idfa_A685596C-3A1D-413B-BD72-1829D6EEC906,ko
vCqBBhzLRjKzceuiGo99tA,newborntown,p1776_126_7_741-12917,Install,1.5,221.138.38.85,053C6164-9CD0-4BF0-BE3B-FC873CEFCEF4,1559261830,2019-05-31 08:17:10,1559261909,2019-05-31 08:18:29,1559261916,2901ff5c-f9e6-45d5-bdf3-f0c3b81e7132__pspm,http://pspm.pingstart.com/api/v4/postback?from=1706&clickid=2901ff5c-f9e6-45d5-bdf3-f0c3b81e7132__pspm,idfa_053C6164-9CD0-4BF0-BE3B-FC873CEFCEF4,ko
vCqBBhzLRjKzceuiGo99tA,newborntown,p1776_126_7_741-12917,Install,1.5,121.131.98.250,2AA78884-A3C3-40E5-BFB8-59EDBACEAE57,1559260371,2019-05-31 07:52:51,1559260449,2019-05-31 07:54:09,1559260455,8f5f39c6-7bcc-4c86-853e-45de4d26bc0d__pspm,http://pspm.pingstart.com/api/v4/postback?from=1706&clickid=8f5f39c6-7bcc-4c86-853e-45de4d26bc0d__pspm,idfa_2AA78884-A3C3-40E5-BFB8-59EDBACEAE57,ko
vCqBBhzLRjKzceuiGo99tA,newborntown,p1776_126_7_741-12917,Install,1.5,112.169.78.97,6BB3E710-5384-4C81-AE9A-B851CFF62B6F,1559260592,2019-05-31 07:56:32,1559260612,2019-05-31 07:56:52,1559260620,a1a00878-258a-4ee8-aefd-44055376c4f3__pspm,http://pspm.pingstart.com/api/v4/postback?from=1706&clickid=a1a00878-258a-4ee8-aefd-44055376c4f3__pspm,idfa_6BB3E710-5384-4C81-AE9A-B851CFF62B6F,ko
vCqBBhzLRjKzceuiGo99tA,newborntown,p1776_126_7_741-12917,Install,1.5,121.131.110.228,D505DDC4-72D1-4B13-A35C-087D63052EC7,1559260395,2019-05-31 07:53:15,1559260472,2019-05-31 07:54:32,1559260485,474a61c2-f7d5-4c95-a911-ceb7eb64d47b__pspm,http://pspm.pingstart.com/api/v4/postback?from=1706&clickid=474a61c2-f7d5-4c95-a911-ceb7eb64d47b__pspm,idfa_D505DDC4-72D1-4B13-A35C-087D63052EC7,ko
vCqBBhzLRjKzceuiGo99tA,newborntown,p1776_126_7_741-12917,Install,1.5,211.193.52.52,E1685BF1-780C-4859-8129-00C130B360F8,1559260823,2019-05-31 08:00:23,1559261003,2019-05-31 08:03:23,1559261010,0bbb0bae-f636-44bc-85bc-c34bb23f286a__pspm,http://pspm.pingstart.com/api/v4/postback?from=1706&clickid=0bbb0bae-f636-44bc-85bc-c34bb23f286a__pspm,idfa_E1685BF1-780C-4859-8129-00C130B360F8,ko
vCqBBhzLRjKzceuiGo99tA,newborntown,p1776_126_7_741-12917,Install,1.5,223.171.51.96,97027249-F31D-4F09-B189-B1F901BD9FCD,1559261338,2019-05-31 08:08:58,1559261428,2019-05-31 08:10:28,1559261435,fc5bccab-89fc-4464-b482-5cebd33fd5bb__pspm,http://pspm.pingstart.com/api/v4/postback?from=1706&clickid=fc5bccab-89fc-4464-b482-5cebd33fd5bb__pspm,idfa_97027249-F31D-4F09-B189-B1F901BD9FCD,ko
vCqBBhzLRjKzceuiGo99tA,newborntown,p1776_126_7_741-12917,Install,1.5,112.154.196.247,BD523F33-C6F0-431F-AC94-C904599F8D62,1559261528,2019-05-31 08:12:08,1559261605,2019-05-31 08:13:25,1559261614,b213405d-49e2-4582-8397-98b5c9d62e6b__pspm,http://pspm.pingstart.com/api/v4/postback?from=1706&clickid=b213405d-49e2-4582-8397-98b5c9d62e6b__pspm,idfa_BD523F33-C6F0-431F-AC94-C904599F8D62,ko
vCqBBhzLRjKzceuiGo99tA,newborntown,p1776_126_7_741-12917,Install,1.5,223.171.47.218,E3324EFC-E496-4895-BA1E-60B285E17CA0,1559260652,2019-05-31 07:57:32,1559260733,2019-05-31 07:58:53,1559260740,d93c4ff0-86c1-4e22-ba30-f3a8a9392721__pspm,http://pspm.pingstart.com/api/v4/postback?from=1706&clickid=d93c4ff0-86c1-4e22-ba30-f3a8a9392721__pspm,idfa_E3324EFC-E496-4895-BA1E-60B285E17CA0,ko
vCqBBhzLRjKzceuiGo99tA,newborntown,p1776_126_7_741-12917,Install,1.5,110.13.153.31,83BA7EFC-ACA1-45DC-94EF-FACC27A04820,1559260643,2019-05-31 07:57:23,1559260722,2019-05-31 07:58:42,1559260728,657e9ff7-53bf-4b2f-846d-a3bc95c290c0__pspm,http://pspm.pingstart.com/api/v4/postback?from=1706&clickid=657e9ff7-53bf-4b2f-846d-a3bc95c290c0__pspm,idfa_83BA7EFC-ACA1-45DC-94EF-FACC27A04820,ko
vCqBBhzLRjKzceuiGo99tA,newborntown,p1776_126_7_741-12917,Install,1.5,59.10.138.195,5CCDA883-873C-4FE8-B62C-2BDCDF715432,1559260651,2019-05-31 07:57:31,1559260725,2019-05-31 07:58:45,1559260737,f80c4b0e-3007-4618-a3cc-6501f23368ca__pspm,http://pspm.pingstart.com/api/v4/postback?from=1706&clickid=f80c4b0e-3007-4618-a3cc-6501f23368ca__pspm,idfa_5CCDA883-873C-4FE8-B62C-2BDCDF715432,ko
vCqBBhzLRjKzceuiGo99tA,newborntown,p1776_126_7_741-12917,Install,1.5,218.149.167.203,B39610DB-D77E-4917-AFF7-93D44A2455B2,1559260520,2019-05-31 07:55:20,1559260596,2019-05-31 07:56:36,1559260605,3c98e782-10b4-41d0-b2ae-79ee52cf9b90__pspm,http://pspm.pingstart.com/api/v4/postback?from=1706&clickid=3c98e782-10b4-41d0-b2ae-79ee52cf9b90__pspm,idfa_B39610DB-D77E-4917-AFF7-93D44A2455B2,ko
vCqBBhzLRjKzceuiGo99tA,newborntown,p1776_126_7_741-12917,Install,1.5,121.170.232.167,5EE87F0A-C52B-4985-A340-DF0AB375BB51,1559262140,2019-05-31 08:22:20,1559262221,2019-05-31 08:23:41,1559262227,29b7d433-3396-43e8-98db-5855345a6608__pspm,http://pspm.pingstart.com/api/v4/postback?from=1706&clickid=29b7d433-3396-43e8-98db-5855345a6608__pspm,idfa_5EE87F0A-C52B-4985-A340-DF0AB375BB51,ko
vCqBBhzLRjKzceuiGo99tA,newborntown,p1776_126_7_741-12917,Install,1.5,119.195.134.107,0CFE125D-B7C2-4B79-8B24-19BDC72616B2,1559261296,2019-05-31 08:08:16,1559261380,2019-05-31 08:09:40,1559261389,8b7c5805-d86b-485a-8d0d-fa040de9a736__pspm,http://pspm.pingstart.com/api/v4/postback?from=1706&clickid=8b7c5805-d86b-485a-8d0d-fa040de9a736__pspm,idfa_0CFE125D-B7C2-4B79-8B24-19BDC72616B2,ko
vCqBBhzLRjKzceuiGo99tA,newborntown,p1776_126_7_741-12917,Install,1.5,180.182.11.156,1B27E3A6-8C7C-403C-B370-0F8E94203455,1559261830,2019-05-31 08:17:10,1559261902,2019-05-31 08:18:22,1559261911,8a5c6b44-2486-4ad0-8af7-8b7e453a981e__pspm,http://pspm.pingstart.com/api/v4/postback?from=1706&clickid=8a5c6b44-2486-4ad0-8af7-8b7e453a981e__pspm,idfa_1B27E3A6-8C7C-403C-B370-0F8E94203455,ko
vCqBBhzLRjKzceuiGo99tA,newborntown,p1776_126_7_741-12917,Install,1.5,121.166.29.56,48CBDEA4-C1FF-432C-977F-6FCE48FDE276,1559261934,2019-05-31 08:18:54,1559262014,2019-05-31 08:20:14,1559262022,35303657-85c1-4d1c-92f2-ef26255dc279__pspm,http://pspm.pingstart.com/api/v4/postback?from=1706&clickid=35303657-85c1-4d1c-92f2-ef26255dc279__pspm,idfa_48CBDEA4-C1FF-432C-977F-6FCE48FDE276,ko
vCqBBhzLRjKzceuiGo99tA,newborntown,p1776_126_7_741-12917,Install,1.5,211.224.22.35,CDFF3852-75E0-470D-84FC-C6284FBAABC7,1559262472,2019-05-31 08:27:52,1559262563,2019-05-31 08:29:23,1559262572,b18cfd4a-cc7b-42c0-ba65-1aadaca0fa47__pspm,http://pspm.pingstart.com/api/v4/postback?from=1706&clickid=b18cfd4a-cc7b-42c0-ba65-1aadaca0fa47__pspm,idfa_CDFF3852-75E0-470D-84FC-C6284FBAABC7,ko
vCqBBhzLRjKzceuiGo99tA,newborntown,p1776_126_7_741-12917,Install,1.5,220.126.189.241,47D9CCD8-B358-4F1F-B21D-ED2D3BF71A99,1559262143,2019-05-31 08:22:23,1559262224,2019-05-31 08:23:44,1559262231,841b8b42-5910-49f2-9d75-26028a7b07a1__pspm,http://pspm.pingstart.com/api/v4/postback?from=1706&clickid=841b8b42-5910-49f2-9d75-26028a7b07a1__pspm,idfa_47D9CCD8-B358-4F1F-B21D-ED2D3BF71A99,ko
vCqBBhzLRjKzceuiGo99tA,newborntown,p1776_126_7_741-12917,Install,1.5,121.159.135.131,5FE386D1-64E8-4C97-B050-F28DC5D09276,1559262516,2019-05-31 08:28:36,1559262592,2019-05-31 08:29:52,1559262602,6d86c220-e4b4-4149-8806-721dbc643ed4__pspm,http://pspm.pingstart.com/api/v4/postback?from=1706&clickid=6d86c220-e4b4-4149-8806-721dbc643ed4__pspm,idfa_5FE386D1-64E8-4C97-B050-F28DC5D09276,ko
vCqBBhzLRjKzceuiGo99tA,newborntown,p1776_126_7_741-12917,Install,1.5,183.101.51.180,8785DA95-77E0-45FC-A614-59FB4F7B4817,1559260672,2019-05-31 07:57:52,1559260750,2019-05-31 07:59:10,1559260758,4f4e952b-f4c9-4f1c-8df4-02196145f428__pspm,http://pspm.pingstart.com/api/v4/postback?from=1706&clickid=4f4e952b-f4c9-4f1c-8df4-02196145f428__pspm,idfa_8785DA95-77E0-45FC-A614-59FB4F7B4817,ko
vCqBBhzLRjKzceuiGo99tA,newborntown,p1776_126_7_741-12917,Install,1.5,59.4.223.150,E1EAD655-8049-4213-9480-AC3375C21EF0,1559261389,2019-05-31 08:09:49,1559261466,2019-05-31 08:11:06,1559261473,a45d3d03-b878-4197-a7e2-211cef0ba76f__pspm,http://pspm.pingstart.com/api/v4/postback?from=1706&clickid=a45d3d03-b878-4197-a7e2-211cef0ba76f__pspm,idfa_E1EAD655-8049-4213-9480-AC3375C21EF0,ko
vCqBBhzLRjKzceuiGo99tA,newborntown,p1776_126_7_741-12917,Install,1.5,218.146.86.246,CDB83A6E-21B1-4071-82E6-08255D2DEEC6,1559261456,2019-05-31 08:10:56,1559261539,2019-05-31 08:12:19,1559261548,08a30225-03a5-4467-9e6b-f0c89b67032c__pspm,http://pspm.pingstart.com/api/v4/postback?from=1706&clickid=08a30225-03a5-4467-9e6b-f0c89b67032c__pspm,idfa_CDB83A6E-21B1-4071-82E6-08255D2DEEC6,ko
vCqBBhzLRjKzceuiGo99tA,newborntown,p1776_126_7_741-12917,Install,1.5,211.247.45.131,24CDFB46-7E21-42FD-AB23-8D2DD06392A4,1559260382,2019-05-31 07:53:02,1559260470,2019-05-31 07:54:30,1559260481,771bfb08-9bcb-4141-8da0-dbd3f4851399__pspm,http://pspm.pingstart.com/api/v4/postback?from=1706&clickid=771bfb08-9bcb-4141-8da0-dbd3f4851399__pspm,idfa_24CDFB46-7E21-42FD-AB23-8D2DD06392A4,ko
vCqBBhzLRjKzceuiGo99tA,newborntown,p1776_126_7_741-12917,Install,1.5,59.21.169.165,D091D521-4FAF-49CB-A289-1F007EA138C1,1559262147,2019-05-31 08:22:27,1559262227,2019-05-31 08:23:47,1559262235,feb93775-f05c-469f-9fbc-772135b3f1eb__pspm,http://pspm.pingstart.com/api/v4/postback?from=1706&clickid=feb93775-f05c-469f-9fbc-772135b3f1eb__pspm,idfa_D091D521-4FAF-49CB-A289-1F007EA138C1,ko
vCqBBhzLRjKzceuiGo99tA,newborntown,p1776_126_7_741-12917,Install,1.5,1.221.136.213,E6E73ADA-E19F-49DF-8E76-1E3BFF9CD668,1559260540,2019-05-31 07:55:40,1559260620,2019-05-31 07:57:00,1559260628,c1a67740-7919-4758-9516-09daf2572260__pspm,http://pspm.pingstart.com/api/v4/postback?from=1706&clickid=c1a67740-7919-4758-9516-09daf2572260__pspm,idfa_E6E73ADA-E19F-49DF-8E76-1E3BFF9CD668,ko
vCqBBhzLRjKzceuiGo99tA,newborntown,p1776_126_7_741-12917,Install,1.5,220.89.219.63,7588883E-91EA-4959-8A79-85D6CABC0151,1559261991,2019-05-31 08:19:51,1559262068,2019-05-31 08:21:08,1559262078,5a781069-eaad-4692-a5b6-af352c8c3159__pspm,http://pspm.pingstart.com/api/v4/postback?from=1706&clickid=5a781069-eaad-4692-a5b6-af352c8c3159__pspm,idfa_7588883E-91EA-4959-8A79-85D6CABC0151,ko
vCqBBhzLRjKzceuiGo99tA,newborntown,p1776_126_7_741-12917,Install,1.5,121.176.4.249,377B4376-B1C3-4EFC-951C-68BF630FABFC,1559261150,2019-05-31 08:05:50,1559261267,2019-05-31 08:07:47,1559261274,84d3e9b7-07d2-4456-aad0-165dd4438828__pspm,http://pspm.pingstart.com/api/v4/postback?from=1706&clickid=84d3e9b7-07d2-4456-aad0-165dd4438828__pspm,idfa_377B4376-B1C3-4EFC-951C-68BF630FABFC,ko
vCqBBhzLRjKzceuiGo99tA,newborntown,p1776_126_7_741-12917,Install,1.5,112.162.62.41,8CEC272A-F6C2-4469-B9ED-9156255EE249,1559261828,2019-05-31 08:17:08,1559261920,2019-05-31 08:18:40,1559261928,14f09e99-e898-4aba-a1a4-6de6eb6887c5__pspm,http://pspm.pingstart.com/api/v4/postback?from=1706&clickid=14f09e99-e898-4aba-a1a4-6de6eb6887c5__pspm,idfa_8CEC272A-F6C2-4469-B9ED-9156255EE249,ko
vCqBBhzLRjKzceuiGo99tA,newborntown,p1776_126_7_741-12917,Install,1.5,220.90.129.111,93BC7A7A-2757-4BE5-B373-87A3AD8B0EF1,1559262252,2019-05-31 08:24:12,1559262329,2019-05-31 08:25:29,1559262336,26ad8c15-c822-45b2-9679-21728653ce43__pspm,http://pspm.pingstart.com/api/v4/postback?from=1706&clickid=26ad8c15-c822-45b2-9679-21728653ce43__pspm,idfa_93BC7A7A-2757-4BE5-B373-87A3AD8B0EF1,ko
vCqBBhzLRjKzceuiGo99tA,newborntown,p1776_126_7_741-12917,Install,1.5,211.177.239.81,3EF2EF68-A849-4CE9-8E0E-ACCB8BEF044A,1559261677,2019-05-31 08:14:37,1559261733,2019-05-31 08:15:33,1559261739,dcc10c94-2e52-4693-a034-076102eca7d5__pspm,http://pspm.pingstart.com/api/v4/postback?from=1706&clickid=dcc10c94-2e52-4693-a034-076102eca7d5__pspm,idfa_3EF2EF68-A849-4CE9-8E0E-ACCB8BEF044A,ko
vCqBBhzLRjKzceuiGo99tA,newborntown,p1776_126_7_741-12917,Install,1.5,1.234.5.210,5177A10D-D052-45D7-82A2-2CF0A49909EB,1559262511,2019-05-31 08:28:31,1559262588,2019-05-31 08:29:48,1559262595,384bf761-7ff3-4bc2-8047-35ababe626b4__pspm,http://pspm.pingstart.com/api/v4/postback?from=1706&clickid=384bf761-7ff3-4bc2-8047-35ababe626b4__pspm,idfa_5177A10D-D052-45D7-82A2-2CF0A49909EB,ko
vCqBBhzLRjKzceuiGo99tA,newborntown,p1776_126_7_741-12917,Install,1.5,218.158.238.131,A684A787-AAEE-48DA-AA9D-9EDB3417E79F,1559261548,2019-05-31 08:12:28,1559261619,2019-05-31 08:13:39,1559261626,c4b35894-bd28-49bb-a9da-a1e9a17dc232__pspm,http://pspm.pingstart.com/api/v4/postback?from=1706&clickid=c4b35894-bd28-49bb-a9da-a1e9a17dc232__pspm,idfa_A684A787-AAEE-48DA-AA9D-9EDB3417E79F,ko
vCqBBhzLRjKzceuiGo99tA,newborntown,p1776_126_7_741-12917,Install,1.5,115.40.55.254,9839615E-133E-4286-B106-2B679484AD77,1559260670,2019-05-31 07:57:50,1559260736,2019-05-31 07:58:56,1559260743,17f64390-f19f-4e48-adfb-bb89a27f90e7__pspm,http://pspm.pingstart.com/api/v4/postback?from=1706&clickid=17f64390-f19f-4e48-adfb-bb89a27f90e7__pspm,idfa_9839615E-133E-4286-B106-2B679484AD77,ko
vCqBBhzLRjKzceuiGo99tA,newborntown,p1776_126_7_741-12917,Install,1.5,183.103.222.186,11C4D327-289A-415B-93E1-BA14A49306B7,1559262522,2019-05-31 08:28:42,1559262600,2019-05-31 08:30:00,1559262608,5a8ec56c-aeca-43e7-a421-651fe9edc2b7__pspm,http://pspm.pingstart.com/api/v4/postback?from=1706&clickid=5a8ec56c-aeca-43e7-a421-651fe9edc2b7__pspm,idfa_11C4D327-289A-415B-93E1-BA14A49306B7,ko
vCqBBhzLRjKzceuiGo99tA,newborntown,p1776_126_7_741-12917,Install,1.5,182.231.239.72,C3804D89-5B7C-4074-B7D0-D415817F6A85,1559262245,2019-05-31 08:24:05,1559262321,2019-05-31 08:25:21,1559262329,d9ee27d1-f96f-4685-943c-09a0b75e27b6__pspm,http://pspm.pingstart.com/api/v4/postback?from=1706&clickid=d9ee27d1-f96f-4685-943c-09a0b75e27b6__pspm,idfa_C3804D89-5B7C-4074-B7D0-D415817F6A85,ko
vCqBBhzLRjKzceuiGo99tA,newborntown,p1776_126_7_741-12917,Install,1.5,121.137.134.40,EAD10D1A-08AE-4D90-A945-092AA0CFAAFC,1559260530,2019-05-31 07:55:30,1559260607,2019-05-31 07:56:47,1559260616,3e641cc7-905b-4789-a23c-473c272dbc39__pspm,http://pspm.pingstart.com/api/v4/postback?from=1706&clickid=3e641cc7-905b-4789-a23c-473c272dbc39__pspm,idfa_EAD10D1A-08AE-4D90-A945-092AA0CFAAFC,ko
vCqBBhzLRjKzceuiGo99tA,newborntown,p1776_126_7_741-12917,Install,1.5,183.112.102.112,276D4F76-1DD1-40B6-B011-1278C12FF0A6,1559262198,2019-05-31 08:23:18,1559262277,2019-05-31 08:24:37,1559262283,7b938714-efd4-4397-9404-6378645ac604__pspm,http://pspm.pingstart.com/api/v4/postback?from=1706&clickid=7b938714-efd4-4397-9404-6378645ac604__pspm,idfa_276D4F76-1DD1-40B6-B011-1278C12FF0A6,ko
vCqBBhzLRjKzceuiGo99tA,newborntown,p1776_126_7_741-12917,Install,1.5,218.233.172.190,DC8D69A5-8476-41B4-8AA6-B7391432BF92,1559261397,2019-05-31 08:09:57,1559261471,2019-05-31 08:11:11,1559261479,e63f6eae-0665-49af-a79f-53c5315949dc__pspm,http://pspm.pingstart.com/api/v4/postback?from=1706&clickid=e63f6eae-0665-49af-a79f-53c5315949dc__pspm,idfa_DC8D69A5-8476-41B4-8AA6-B7391432BF92,ko
vCqBBhzLRjKzceuiGo99tA,newborntown,p1776_126_7_741-12917,Install,1.5,1.228.117.68,9346FCF9-210D-4CA5-BA2A-C73EBA4FC41A,1559260515,2019-05-31 07:55:15,1559260592,2019-05-31 07:56:32,1559260599,9120b18a-f0d1-4e30-9228-01a90bae64fc__pspm,http://pspm.pingstart.com/api/v4/postback?from=1706&clickid=9120b18a-f0d1-4e30-9228-01a90bae64fc__pspm,idfa_9346FCF9-210D-4CA5-BA2A-C73EBA4FC41A,ko
vCqBBhzLRjKzceuiGo99tA,newborntown,p1776_126_7_741-12917,Install,1.5,61.77.105.232,B615F8CA-53D4-4829-B5BB-58EAAADF83B9,1559261927,2019-05-31 08:18:47,1559262009,2019-05-31 08:20:09,1559262015,4643b44a-2346-41e4-8586-498ea817c155__pspm,http://pspm.pingstart.com/api/v4/postback?from=1706&clickid=4643b44a-2346-41e4-8586-498ea817c155__pspm,idfa_B615F8CA-53D4-4829-B5BB-58EAAADF83B9,ko
vCqBBhzLRjKzceuiGo99tA,newborntown,p1776_126_7_741-12917,Install,1.5,211.224.22.35,D7953C72-0829-4CC4-8840-A91DAC9BE3AB,1559261551,2019-05-31 08:12:31,1559261628,2019-05-31 08:13:48,1559261635,80423969-3751-4d2b-8d26-b31a2ae69bab__pspm,http://pspm.pingstart.com/api/v4/postback?from=1706&clickid=80423969-3751-4d2b-8d26-b31a2ae69bab__pspm,idfa_D7953C72-0829-4CC4-8840-A91DAC9BE3AB,ko
vCqBBhzLRjKzceuiGo99tA,newborntown,p1776_126_7_741-12917,Install,1.5,121.126.37.155,CCBFDADC-2A47-4DD9-AB9B-07021896BF65,1559262188,2019-05-31 08:23:08,1559262283,2019-05-31 08:24:43,1559262290,886e1c26-11a2-4ee7-abaf-879a03d810f6__pspm,http://pspm.pingstart.com/api/v4/postback?from=1706&clickid=886e1c26-11a2-4ee7-abaf-879a03d810f6__pspm,idfa_CCBFDADC-2A47-4DD9-AB9B-07021896BF65,ko
vCqBBhzLRjKzceuiGo99tA,newborntown,p1776_126_7_741-12917,Install,1.5,27.116.255.153,D7F2042A-9589-4B6B-9653-B874CBC072E5,1559260393,2019-05-31 07:53:13,1559260474,2019-05-31 07:54:34,1559260485,92273959-6902-4932-b811-2bcd96810add__pspm,http://pspm.pingstart.com/api/v4/postback?from=1706&clickid=92273959-6902-4932-b811-2bcd96810add__pspm,idfa_D7F2042A-9589-4B6B-9653-B874CBC072E5,ko
vCqBBhzLRjKzceuiGo99tA,newborntown,p1776_126_7_741-12917,Install,1.5,58.229.163.82,904150ED-4952-48E9-8389-1B3E6C869A07,1559260523,2019-05-31 07:55:23,1559260598,2019-05-31 07:56:38,1559260607,a5bc3e89-8894-46b0-ae14-94cc8e95c496__pspm,http://pspm.pingstart.com/api/v4/postback?from=1706&clickid=a5bc3e89-8894-46b0-ae14-94cc8e95c496__pspm,idfa_904150ED-4952-48E9-8389-1B3E6C869A07,ko
vCqBBhzLRjKzceuiGo99tA,newborntown,p1776_126_7_741-12917,Install,1.5,119.197.84.239,B7FE646F-8314-49A0-AA6C-58B6D9B4F2AB,1559260387,2019-05-31 07:53:07,1559260477,2019-05-31 07:54:37,1559260485,0d6f205e-e78b-4b59-a601-0359ebf80d69__pspm,http://pspm.pingstart.com/api/v4/postback?from=1706&clickid=0d6f205e-e78b-4b59-a601-0359ebf80d69__pspm,idfa_B7FE646F-8314-49A0-AA6C-58B6D9B4F2AB,ko
