cid,partner_id,channel_id,action_id,cpi,ip,idfa,click time,click datetime,install time,install datetime,postback time,click id,postback url,unique user id
YtAHfaB_S0uXZXcDAzf9bg,newborntown,p1886_958-10006_0369,Install,1.8,223.33.178.37,edfd631d-48cd-4ef1-9819-735344918eeb,1558984608,2019-05-28 03:16:48,1558984733,2019-05-28 03:18:53,1558984764,8160f22e-da23-46b5-8f91-2dd7f922320b__pspm,http://pspm.pingstart.com/api/v4/postback?from=1706&clickid=8160f22e-da23-46b5-8f91-2dd7f922320b__pspm,idfa_edfd631d-48cd-4ef1-9819-735344918eeb,%ED%95%9C%EA%B5%AD%EC%96%B4
YtAHfaB_S0uXZXcDAzf9bg,newborntown,p1886_958-10006_0369,Install,1.8,27.115.187.66,b5ce81b6-f68a-4568-bfcb-1fbaf916c9ce,1558984784,2019-05-28 03:19:44,1558985517,2019-05-28 03:31:57,1558985548,68743357-0bc6-4468-ad8e-40b467069629__pspm,http://pspm.pingstart.com/api/v4/postback?from=1706&clickid=68743357-0bc6-4468-ad8e-40b467069629__pspm,idfa_b5ce81b6-f68a-4568-bfcb-1fbaf916c9ce,%ED%95%9C%EA%B5%AD%EC%96%B4
YtAHfaB_S0uXZXcDAzf9bg,newborntown,p1886_958-10006_0369,Install,1.8,121.188.224.128,038efaca-6110-463f-9554-599a645ea2a5,1558984597,2019-05-28 03:16:37,1558984877,2019-05-28 03:21:17,1558984908,da2d67aa-387e-4d00-bf26-fb45275332f4__pspm,http://pspm.pingstart.com/api/v4/postback?from=1706&clickid=da2d67aa-387e-4d00-bf26-fb45275332f4__pspm,idfa_038efaca-6110-463f-9554-599a645ea2a5,%ED%95%9C%EA%B5%AD%EC%96%B4
YtAHfaB_S0uXZXcDAzf9bg,newborntown,p1886_958-10006_0369,Install,1.8,121.159.140.73,4bab0f06-c527-45da-9ab4-ad780a76a104,1558984373,2019-05-28 03:12:53,1558984844,2019-05-28 03:20:44,1558984875,7b1b37c4-83a5-468b-9551-c367338361df__pspm,http://pspm.pingstart.com/api/v4/postback?from=1706&clickid=7b1b37c4-83a5-468b-9551-c367338361df__pspm,idfa_4bab0f06-c527-45da-9ab4-ad780a76a104,%ED%95%9C%EA%B5%AD%EC%96%B4
YtAHfaB_S0uXZXcDAzf9bg,newborntown,p1886_958-10006_0369,Install,1.8,175.223.15.2,c0470c6c-a42e-4f4a-a0ca-f7d1e65f2e43,1558984441,2019-05-28 03:14:01,1558984925,2019-05-28 03:22:05,1558984956,b38d7304-c19d-41c9-89f8-88dd70ed706f__pspm,http://pspm.pingstart.com/api/v4/postback?from=1706&clickid=b38d7304-c19d-41c9-89f8-88dd70ed706f__pspm,idfa_c0470c6c-a42e-4f4a-a0ca-f7d1e65f2e43,%ED%95%9C%EA%B5%AD%EC%96%B4
YtAHfaB_S0uXZXcDAzf9bg,newborntown,p1886_958-10006_0369,Install,1.8,210.121.103.172,f3e9a6d3-2085-449e-82a2-83268c8c6f1b,1558984665,2019-05-28 03:17:45,1558984801,2019-05-28 03:20:01,1558984832,9c6f8085-266b-45cb-b6ca-2e6afdd0a018__pspm,http://pspm.pingstart.com/api/v4/postback?from=1706&clickid=9c6f8085-266b-45cb-b6ca-2e6afdd0a018__pspm,idfa_f3e9a6d3-2085-449e-82a2-83268c8c6f1b,%ED%95%9C%EA%B5%AD%EC%96%B4
YtAHfaB_S0uXZXcDAzf9bg,newborntown,p1886_958-10006_0369,Install,1.8,110.70.52.8,cc2ad25f-5d96-48ea-8cac-61ee549debf8,1558984768,2019-05-28 03:19:28,1558984991,2019-05-28 03:23:11,1558985025,b4da07e0-53eb-46fa-b0b5-63a83e6793ef__pspm,http://pspm.pingstart.com/api/v4/postback?from=1706&clickid=b4da07e0-53eb-46fa-b0b5-63a83e6793ef__pspm,idfa_cc2ad25f-5d96-48ea-8cac-61ee549debf8,%ED%95%9C%EA%B5%AD%EC%96%B4
YtAHfaB_S0uXZXcDAzf9bg,newborntown,p1886_958-10006_0369,Install,1.8,39.7.54.115,98e2feab-9dd6-4469-9f36-b79bef0414e5,1558984113,2019-05-28 03:08:33,1558984341,2019-05-28 03:12:21,1558984372,8955c2ec-4ecb-4a67-bc93-6f0dcf4a2392__pspm,http://pspm.pingstart.com/api/v4/postback?from=1706&clickid=8955c2ec-4ecb-4a67-bc93-6f0dcf4a2392__pspm,idfa_98e2feab-9dd6-4469-9f36-b79bef0414e5,%ED%95%9C%EA%B5%AD%EC%96%B4
YtAHfaB_S0uXZXcDAzf9bg,newborntown,p1886_958-10006_0369,Install,1.8,110.10.55.250,b389d503-ce96-445a-9576-4566a76dc14c,1558984696,2019-05-28 03:18:16,1558985055,2019-05-28 03:24:15,1558985086,731a15fa-6028-4ba5-869d-acc2bcba8b3e__pspm,http://pspm.pingstart.com/api/v4/postback?from=1706&clickid=731a15fa-6028-4ba5-869d-acc2bcba8b3e__pspm,idfa_b389d503-ce96-445a-9576-4566a76dc14c,%ED%95%9C%EA%B5%AD%EC%96%B4
YtAHfaB_S0uXZXcDAzf9bg,newborntown,p1886_958-10006_0369,Install,1.8,182.172.13.43,4dea767e-a450-46c4-9c27-5bf7f95b855b,1558984504,2019-05-28 03:15:04,1558984637,2019-05-28 03:17:17,1558984668,bec838ca-6e01-459c-808d-beea4475b242__pspm,http://pspm.pingstart.com/api/v4/postback?from=1706&clickid=bec838ca-6e01-459c-808d-beea4475b242__pspm,idfa_4dea767e-a450-46c4-9c27-5bf7f95b855b,%ED%95%9C%EA%B5%AD%EC%96%B4
YtAHfaB_S0uXZXcDAzf9bg,newborntown,p1886_958-10006_0369,Install,1.8,211.211.79.214,ed043e2d-7f74-495d-b247-a1b1ab86421f,1558984117,2019-05-28 03:08:37,1558984219,2019-05-28 03:10:19,1558984249,d6ae45d1-7a4d-4ad8-a10f-589a1b0831ef__pspm,http://pspm.pingstart.com/api/v4/postback?from=1706&clickid=d6ae45d1-7a4d-4ad8-a10f-589a1b0831ef__pspm,idfa_ed043e2d-7f74-495d-b247-a1b1ab86421f,%ED%95%9C%EA%B5%AD%EC%96%B4
YtAHfaB_S0uXZXcDAzf9bg,newborntown,p1886_958-10006_0369,Install,1.8,222.111.173.153,580cf396-cf3e-4373-99ff-7dec9ac7d3df,1558984105,2019-05-28 03:08:25,1558984221,2019-05-28 03:10:21,1558984252,659b39d0-46e3-4371-9f26-293927c276c2__pspm,http://pspm.pingstart.com/api/v4/postback?from=1706&clickid=659b39d0-46e3-4371-9f26-293927c276c2__pspm,idfa_580cf396-cf3e-4373-99ff-7dec9ac7d3df,%ED%95%9C%EA%B5%AD%EC%96%B4
YtAHfaB_S0uXZXcDAzf9bg,newborntown,p1886_958-10006_0369,Install,1.8,221.160.221.194,9055b127-e486-4624-922e-f3be4cbc0a2e,1558984892,2019-05-28 03:21:32,1558984991,2019-05-28 03:23:11,1558985024,12bcee15-d3df-41e5-bc0a-cbb27d59172b__pspm,http://pspm.pingstart.com/api/v4/postback?from=1706&clickid=12bcee15-d3df-41e5-bc0a-cbb27d59172b__pspm,idfa_9055b127-e486-4624-922e-f3be4cbc0a2e,%ED%95%9C%EA%B5%AD%EC%96%B4
YtAHfaB_S0uXZXcDAzf9bg,newborntown,p1886_958-10006_0369,Install,1.8,124.254.151.173,c8449a2e-b9ac-49bc-8e30-77e4f97c48d2,1558984827,2019-05-28 03:20:27,1558984927,2019-05-28 03:22:07,1558984958,376c5343-8693-42a6-96d7-ef1d3e703748__pspm,http://pspm.pingstart.com/api/v4/postback?from=1706&clickid=376c5343-8693-42a6-96d7-ef1d3e703748__pspm,idfa_c8449a2e-b9ac-49bc-8e30-77e4f97c48d2,%ED%95%9C%EA%B5%AD%EC%96%B4
YtAHfaB_S0uXZXcDAzf9bg,newborntown,p1886_958-10006_0369,Install,1.8,125.139.220.222,e6559085-38fa-4282-814e-224cd195037f,1558984824,2019-05-28 03:20:24,1558984921,2019-05-28 03:22:01,1558984952,21d2549d-bd6e-4432-b927-904a52b87b43__pspm,http://pspm.pingstart.com/api/v4/postback?from=1706&clickid=21d2549d-bd6e-4432-b927-904a52b87b43__pspm,idfa_e6559085-38fa-4282-814e-224cd195037f,%ED%95%9C%EA%B5%AD%EC%96%B4
YtAHfaB_S0uXZXcDAzf9bg,newborntown,p1886_958-10006_0369,Install,1.8,223.38.8.163,e9053b97-f8ca-4792-938a-a9362775f3f3,1558984548,2019-05-28 03:15:48,1558984646,2019-05-28 03:17:26,1558984677,0da554f3-29a6-404d-835c-0e3339011086__pspm,http://pspm.pingstart.com/api/v4/postback?from=1706&clickid=0da554f3-29a6-404d-835c-0e3339011086__pspm,idfa_e9053b97-f8ca-4792-938a-a9362775f3f3,%ED%95%9C%EA%B5%AD%EC%96%B4
YtAHfaB_S0uXZXcDAzf9bg,newborntown,p1886_958-10006_0369,Install,1.8,121.160.108.141,e201ac6f-7633-4ad9-9e4e-5a4cc48cac32,1558984593,2019-05-28 03:16:33,1558985167,2019-05-28 03:26:07,1558985198,c0a4f72f-4ed7-47fb-b822-d0d927bf19b0__pspm,http://pspm.pingstart.com/api/v4/postback?from=1706&clickid=c0a4f72f-4ed7-47fb-b822-d0d927bf19b0__pspm,idfa_e201ac6f-7633-4ad9-9e4e-5a4cc48cac32,%ED%95%9C%EA%B5%AD%EC%96%B4
YtAHfaB_S0uXZXcDAzf9bg,newborntown,p1886_958-10006_0369,Install,1.8,218.48.208.31,9eca29b5-fc17-43b0-92bf-e4bde62a11f8,1558984650,2019-05-28 03:17:30,1558984827,2019-05-28 03:20:27,1558984857,18cecffb-ddd5-45f0-839d-dc66aff12c90__pspm,http://pspm.pingstart.com/api/v4/postback?from=1706&clickid=18cecffb-ddd5-45f0-839d-dc66aff12c90__pspm,idfa_9eca29b5-fc17-43b0-92bf-e4bde62a11f8,%ED%95%9C%EA%B5%AD%EC%96%B4
YtAHfaB_S0uXZXcDAzf9bg,newborntown,p1886_958-10006_0369,Install,1.8,180.69.195.51,793956e6-81c9-4dc2-b129-642a908f01ea,1558984592,2019-05-28 03:16:32,1558984700,2019-05-28 03:18:20,1558984730,637adb4b-1cbd-4c9c-9e6b-aaf56387b0c2__pspm,http://pspm.pingstart.com/api/v4/postback?from=1706&clickid=637adb4b-1cbd-4c9c-9e6b-aaf56387b0c2__pspm,idfa_793956e6-81c9-4dc2-b129-642a908f01ea,%ED%95%9C%EA%B5%AD%EC%96%B4
YtAHfaB_S0uXZXcDAzf9bg,newborntown,p1886_958-10006_0369,Install,1.8,183.97.4.107,c4c0a12e-3d9b-484f-a440-d72ab76a008e,1558984114,2019-05-28 03:08:34,1558984874,2019-05-28 03:21:14,1558984905,e2f76db6-ba64-4875-9880-566816933277__pspm,http://pspm.pingstart.com/api/v4/postback?from=1706&clickid=e2f76db6-ba64-4875-9880-566816933277__pspm,idfa_c4c0a12e-3d9b-484f-a440-d72ab76a008e,%ED%95%9C%EA%B5%AD%EC%96%B4
YtAHfaB_S0uXZXcDAzf9bg,newborntown,p1886_958-10006_0369,Install,1.8,113.60.30.171,6c682cc1-aa90-481b-a788-7d35f1730361,1558984806,2019-05-28 03:20:06,1558984909,2019-05-28 03:21:49,1558984940,71e35c3f-d10e-4e8a-8ba2-de60af1157f1__pspm,http://pspm.pingstart.com/api/v4/postback?from=1706&clickid=71e35c3f-d10e-4e8a-8ba2-de60af1157f1__pspm,idfa_6c682cc1-aa90-481b-a788-7d35f1730361,%ED%95%9C%EA%B5%AD%EC%96%B4
YtAHfaB_S0uXZXcDAzf9bg,newborntown,p1886_958-10006_0369,Install,1.8,210.204.158.117,8051a0e2-26bc-46aa-8051-ac84e0ebf4d4,1558984719,2019-05-28 03:18:39,1558984825,2019-05-28 03:20:25,1558984855,06725e0a-ee69-46c6-8157-4d906e8fb9dd__pspm,http://pspm.pingstart.com/api/v4/postback?from=1706&clickid=06725e0a-ee69-46c6-8157-4d906e8fb9dd__pspm,idfa_8051a0e2-26bc-46aa-8051-ac84e0ebf4d4,%ED%95%9C%EA%B5%AD%EC%96%B4
YtAHfaB_S0uXZXcDAzf9bg,newborntown,p1886_958-10006_0369,Install,1.8,203.226.208.164,3212c6a8-8d79-44d7-ab32-59fe7cded17a,1558984777,2019-05-28 03:19:37,1558984876,2019-05-28 03:21:16,1558984907,3dc418fc-abae-4a99-b90b-21a2067e6752__pspm,http://pspm.pingstart.com/api/v4/postback?from=1706&clickid=3dc418fc-abae-4a99-b90b-21a2067e6752__pspm,idfa_3212c6a8-8d79-44d7-ab32-59fe7cded17a,%ED%95%9C%EA%B5%AD%EC%96%B4
YtAHfaB_S0uXZXcDAzf9bg,newborntown,p1886_958-10006_0369,Install,1.8,223.62.173.198,9fe5149b-7934-4f7c-95b0-f1db03ed3754,1558982880,2019-05-28 02:48:00,1558982980,2019-05-28 02:49:40,1558983011,ffb560b2-3f6c-4f87-845e-36890780364c__pspm,http://pspm.pingstart.com/api/v4/postback?from=1706&clickid=ffb560b2-3f6c-4f87-845e-36890780364c__pspm,idfa_9fe5149b-7934-4f7c-95b0-f1db03ed3754,%ED%95%9C%EA%B5%AD%EC%96%B4
YtAHfaB_S0uXZXcDAzf9bg,newborntown,p1886_958-10006_0369,Install,1.8,58.121.226.126,7ae661d7-a5cf-48b4-8269-b5e136ddebd5,1558984840,2019-05-28 03:20:40,1558984939,2019-05-28 03:22:19,1558984970,74984209-8fce-4b0f-b961-e015816cbdcb__pspm,http://pspm.pingstart.com/api/v4/postback?from=1706&clickid=74984209-8fce-4b0f-b961-e015816cbdcb__pspm,idfa_7ae661d7-a5cf-48b4-8269-b5e136ddebd5,%ED%95%9C%EA%B5%AD%EC%96%B4
YtAHfaB_S0uXZXcDAzf9bg,newborntown,p1886_958-10006_0369,Install,1.8,49.142.206.199,cc821ccf-fcae-47c7-a873-68094c31919e,1558984591,2019-05-28 03:16:31,1558984689,2019-05-28 03:18:09,1558984720,81680fe7-1890-43de-8b65-c0c0b5475f77__pspm,http://pspm.pingstart.com/api/v4/postback?from=1706&clickid=81680fe7-1890-43de-8b65-c0c0b5475f77__pspm,idfa_cc821ccf-fcae-47c7-a873-68094c31919e,%ED%95%9C%EA%B5%AD%EC%96%B4
