cid,partner_id,channel_id,action_id,cpi,ip,idfa,click time,click datetime,install time,install datetime,postback time,click id,postback url,unique user id
l-k--Uz5RJaLoHxfqCiGuQ,newborntown,p1789_451-10555,Install,4.0,27.247.193.169,4845ea1f-e9f0-4239-a48b-8da53c61dced,1558244873,2019-05-19 13:47:53,1558262409,2019-05-19 18:40:09,1558262440,d5afc266-9a7c-4745-851a-0a24faf6bde2__pspm,http://pspm.pingstart.com/api/v4/postback?from=1706&clickid=d5afc266-9a7c-4745-851a-0a24faf6bde2__pspm,idfa_4845ea1f-e9f0-4239-a48b-8da53c61dced,%E4%B8%AD%E6%96%87
l-k--Uz5RJaLoHxfqCiGuQ,newborntown,p1789_451-10555,Install,4.0,106.104.160.55,5e814177-ac90-469a-a759-c1070442737a,1558250598,2019-05-19 15:23:18,1558250772,2019-05-19 15:26:12,1558250802,1fcdbee1-e534-44e0-a3b3-5362f00531be__pspm,http://pspm.pingstart.com/api/v4/postback?from=1706&clickid=1fcdbee1-e534-44e0-a3b3-5362f00531be__pspm,idfa_5e814177-ac90-469a-a759-c1070442737a,%E4%B8%AD%E6%96%87
l-k--Uz5RJaLoHxfqCiGuQ,newborntown,p1789_451-10555,Install,4.0,125.230.71.10,20230f6d-7bf9-4d63-a6c0-eadeb8bc9596,1559125547,2019-05-29 18:25:47,1559125716,2019-05-29 18:28:36,1559125747,30c311c4-52f4-411c-b134-97e13b783fbb__pspm,http://pspm.pingstart.com/api/v4/postback?from=1706&clickid=30c311c4-52f4-411c-b134-97e13b783fbb__pspm,idfa_20230f6d-7bf9-4d63-a6c0-eadeb8bc9596,%E4%B8%AD%E6%96%87
l-k--Uz5RJaLoHxfqCiGuQ,newborntown,p1789_451-10555,Install,4.0,180.176.66.46,f5232031-6281-4023-a133-9bdb83452e78,1558870735,2019-05-26 19:38:55,1558872658,2019-05-26 20:10:58,1558872689,77df49c2-29d9-4e0d-a30f-2a52033e0f6b__pspm,http://pspm.pingstart.com/api/v4/postback?from=1706&clickid=77df49c2-29d9-4e0d-a30f-2a52033e0f6b__pspm,idfa_f5232031-6281-4023-a133-9bdb83452e78,%E4%B8%AD%E6%96%87
l-k--Uz5RJaLoHxfqCiGuQ,newborntown,p1789_451-10555,Install,4.0,114.38.153.236,d80c1887-f2e6-4413-b873-fee9871d7d0b,1557405249,2019-05-09 20:34:09,1557405544,2019-05-09 20:39:04,1557405575,341cc6a9-5553-451f-8f59-61edfaa4b14b__pspm,http://pspm.pingstart.com/api/v4/postback?from=1706&clickid=341cc6a9-5553-451f-8f59-61edfaa4b14b__pspm,idfa_d80c1887-f2e6-4413-b873-fee9871d7d0b,%E4%B8%AD%E6%96%87
l-k--Uz5RJaLoHxfqCiGuQ,newborntown,p1789_451-10555,Install,4.0,220.129.122.122,f1c8082b-60c7-4ea2-9ba7-1eac624d09e4,1558692262,2019-05-24 18:04:22,1558692441,2019-05-24 18:07:21,1558692472,ae66efca-6d16-41e3-809f-6cf72d6e2117__pspm,http://pspm.pingstart.com/api/v4/postback?from=1706&clickid=ae66efca-6d16-41e3-809f-6cf72d6e2117__pspm,idfa_f1c8082b-60c7-4ea2-9ba7-1eac624d09e4,%E4%B8%AD%E6%96%87
l-k--Uz5RJaLoHxfqCiGuQ,newborntown,p1789_451-10555,Install,4.0,101.137.199.141,d448c689-ca13-487f-b1d5-8067436e71b0,1558759103,2019-05-25 12:38:23,1558759161,2019-05-25 12:39:21,1558759192,c6789cb0-27d2-42d4-b45b-8b06f83e5754__pspm,http://pspm.pingstart.com/api/v4/postback?from=1706&clickid=c6789cb0-27d2-42d4-b45b-8b06f83e5754__pspm,idfa_d448c689-ca13-487f-b1d5-8067436e71b0,%E4%B8%AD%E6%96%87
l-k--Uz5RJaLoHxfqCiGuQ,newborntown,p1789_451-10555,Install,4.0,110.28.190.59,5d9239b4-4f77-44ba-aa44-caf093eca5be,1558446959,2019-05-21 21:55:59,1558447127,2019-05-21 21:58:47,1558447158,39adfbed-107f-4469-b229-26826eb3e23b__pspm,http://pspm.pingstart.com/api/v4/postback?from=1706&clickid=39adfbed-107f-4469-b229-26826eb3e23b__pspm,idfa_5d9239b4-4f77-44ba-aa44-caf093eca5be,%E4%B8%AD%E6%96%87
l-k--Uz5RJaLoHxfqCiGuQ,newborntown,p1789_451-10555,Install,4.0,111.246.208.89,93bdd294-4491-4ee8-8cc4-0017c6b975bb,1557150801,2019-05-06 21:53:21,1557150922,2019-05-06 21:55:22,1557150953,00ec1f14-da46-472c-b8dc-500724b5ca43__pspm,http://pspm.pingstart.com/api/v4/postback?from=1706&clickid=00ec1f14-da46-472c-b8dc-500724b5ca43__pspm,idfa_93bdd294-4491-4ee8-8cc4-0017c6b975bb,%E4%B8%AD%E6%96%87
l-k--Uz5RJaLoHxfqCiGuQ,newborntown,p1789_451-10555,Install,4.0,111.241.189.243,2be44c22-302b-4cbc-8521-0434a851fedb,1557834453,2019-05-14 19:47:33,1557840184,2019-05-14 21:23:04,1557840215,fd1ed1ba-dd40-42b8-be00-76a44cdb97e0__pspm,http://pspm.pingstart.com/api/v4/postback?from=1706&clickid=fd1ed1ba-dd40-42b8-be00-76a44cdb97e0__pspm,idfa_2be44c22-302b-4cbc-8521-0434a851fedb,%E4%B8%AD%E6%96%87
l-k--Uz5RJaLoHxfqCiGuQ,newborntown,p1789_451-10555,Install,4.0,114.137.98.174,f7e9e5f3-7617-46b0-a11e-2c02aec32424,1557039816,2019-05-05 15:03:36,1557039962,2019-05-05 15:06:02,1557039993,48672756-e3d7-4651-b2f2-81193ba5c643__pspm,http://pspm.pingstart.com/api/v4/postback?from=1706&clickid=48672756-e3d7-4651-b2f2-81193ba5c643__pspm,idfa_f7e9e5f3-7617-46b0-a11e-2c02aec32424,%E4%B8%AD%E6%96%87
l-k--Uz5RJaLoHxfqCiGuQ,newborntown,p1789_451-10555,Install,4.0,122.118.127.141,657c0921-4fad-416b-b5e7-ef8a3ad7d07c,1556966676,2019-05-04 18:44:36,1556966852,2019-05-04 18:47:32,1556967034,c210c0cb-80c5-4863-97fa-33792faea8d3__pspm,http://pspm.pingstart.com/api/v4/postback?from=1706&clickid=c210c0cb-80c5-4863-97fa-33792faea8d3__pspm,idfa_657c0921-4fad-416b-b5e7-ef8a3ad7d07c,%E4%B8%AD%E6%96%87
l-k--Uz5RJaLoHxfqCiGuQ,newborntown,p1789_451-10555,Install,4.0,111.83.254.6,c5c26d3a-dd0d-4f4a-8743-a02e1ac5d492,1557631822,2019-05-12 11:30:22,1557632516,2019-05-12 11:41:56,1557632547,477f79c1-6b86-4709-b144-6a4c4b31ca14__pspm,http://pspm.pingstart.com/api/v4/postback?from=1706&clickid=477f79c1-6b86-4709-b144-6a4c4b31ca14__pspm,idfa_c5c26d3a-dd0d-4f4a-8743-a02e1ac5d492,%E4%B8%AD%E6%96%87
l-k--Uz5RJaLoHxfqCiGuQ,newborntown,p1789_451-10555,Install,4.0,218.164.178.94,6f15bd88-efae-4466-9e75-6879a0b7307f,1558600542,2019-05-23 16:35:42,1558600804,2019-05-23 16:40:04,1558600835,096a7cbf-9eae-4c7a-9b66-4e87b63a60f1__pspm,http://pspm.pingstart.com/api/v4/postback?from=1706&clickid=096a7cbf-9eae-4c7a-9b66-4e87b63a60f1__pspm,idfa_6f15bd88-efae-4466-9e75-6879a0b7307f,%E4%B8%AD%E6%96%87
l-k--Uz5RJaLoHxfqCiGuQ,newborntown,p1789_451-10555,Install,4.0,36.227.222.52,1c960a19-9f84-40be-9ba7-1d7406af0580,1557062441,2019-05-05 21:20:41,1557083365,2019-05-06 03:09:25,1557083396,3c09d219-edb0-42b0-a4e9-7dd0183a57d0__pspm,http://pspm.pingstart.com/api/v4/postback?from=1706&clickid=3c09d219-edb0-42b0-a4e9-7dd0183a57d0__pspm,idfa_1c960a19-9f84-40be-9ba7-1d7406af0580,%E4%B8%AD%E6%96%87
l-k--Uz5RJaLoHxfqCiGuQ,newborntown,p1789_451-10555,Install,4.0,36.236.42.112,97552725-7aea-4e6f-8b04-c8fc7e4e1f67,1557160488,2019-05-07 00:34:48,1557160694,2019-05-07 00:38:14,1557160724,21c908f5-f2ef-454f-9733-96c442caf394__pspm,http://pspm.pingstart.com/api/v4/postback?from=1706&clickid=21c908f5-f2ef-454f-9733-96c442caf394__pspm,idfa_97552725-7aea-4e6f-8b04-c8fc7e4e1f67,%E4%B8%AD%E6%96%87
l-k--Uz5RJaLoHxfqCiGuQ,newborntown,p1789_451-10555,Install,4.0,116.59.248.122,f811e13b-6f2d-4bda-977f-b927a56a02e9,1557576391,2019-05-11 20:06:31,1557576570,2019-05-11 20:09:30,1557576601,ef59bb3e-b6e7-4dfc-8866-89ef84d1c3b7__pspm,http://pspm.pingstart.com/api/v4/postback?from=1706&clickid=ef59bb3e-b6e7-4dfc-8866-89ef84d1c3b7__pspm,idfa_f811e13b-6f2d-4bda-977f-b927a56a02e9,%E4%B8%AD%E6%96%87
l-k--Uz5RJaLoHxfqCiGuQ,newborntown,p1789_451-10555,Install,4.0,101.137.66.52,949c4adb-edb0-4971-b160-395ef17df39c,1558184089,2019-05-18 20:54:49,1558184461,2019-05-18 21:01:01,1558184492,114b1d60-9706-4417-ab07-dc8457d2f35a__pspm,http://pspm.pingstart.com/api/v4/postback?from=1706&clickid=114b1d60-9706-4417-ab07-dc8457d2f35a__pspm,idfa_949c4adb-edb0-4971-b160-395ef17df39c,%E4%B8%AD%E6%96%87
l-k--Uz5RJaLoHxfqCiGuQ,newborntown,p1789_451-10555,Install,4.0,1.200.222.237,d2634a4c-b107-4fd7-986c-09ff389b5117,1558698248,2019-05-24 19:44:08,1558701266,2019-05-24 20:34:26,1558701298,761c4199-0a09-4328-afc9-fcc048a57859__pspm,http://pspm.pingstart.com/api/v4/postback?from=1706&clickid=761c4199-0a09-4328-afc9-fcc048a57859__pspm,idfa_d2634a4c-b107-4fd7-986c-09ff389b5117,%E4%B8%AD%E6%96%87
l-k--Uz5RJaLoHxfqCiGuQ,newborntown,p1789_451-10555,Install,4.0,61.223.70.99,e2417c78-f02f-4077-8058-4bf34c2f2d98,1558152009,2019-05-18 12:00:09,1558152049,2019-05-18 12:00:49,1558152080,93406bb3-a7cc-48e8-910a-51fff14b5602__pspm,http://pspm.pingstart.com/api/v4/postback?from=1706&clickid=93406bb3-a7cc-48e8-910a-51fff14b5602__pspm,idfa_e2417c78-f02f-4077-8058-4bf34c2f2d98,%E4%B8%AD%E6%96%87
l-k--Uz5RJaLoHxfqCiGuQ,newborntown,p1789_451-10555,Install,4.0,1.162.191.77,7eef3076-cb17-4975-b285-e9bdebbcbeff,1558170459,2019-05-18 17:07:39,1558170889,2019-05-18 17:14:49,1558170919,d19f884d-dfe8-48ed-98d8-4a9a79df6aa6__pspm,http://pspm.pingstart.com/api/v4/postback?from=1706&clickid=d19f884d-dfe8-48ed-98d8-4a9a79df6aa6__pspm,idfa_7eef3076-cb17-4975-b285-e9bdebbcbeff,%E4%B8%AD%E6%96%87
