cid,partner_id,channel_id,action_id,cpi,ip,idfa,click time,click datetime,install time,install datetime,postback time,click id,postback url,unique user id
eKO-Q_QYSdi_WNLdQtSxhw,newborntown,p1789_966-10531966,Of81qbvWSPKfViI7CdMfcw,2.5,,9D0AFD8D-3B1A-43D4-A718-33447C2FA877,1559266850,2019-05-31 09:40:50,1559267004,2019-05-31 09:43:24,1559267004,d7ec2720-b1f9-4b1c-8de1-5c1386fe0646__pspm,http://pspm.pingstart.com/api/v4/postback?from=1706&clickid=d7ec2720-b1f9-4b1c-8de1-5c1386fe0646__pspm,idfa_9D0AFD8D-3B1A-43D4-A718-33447C2FA877,ja
eKO-Q_QYSdi_WNLdQtSxhw,newborntown,p1789_966-10531966,Of81qbvWSPKfViI7CdMfcw,2.5,,A6D3069C-9181-4471-AD13-5F74EFCF7690,1559267241,2019-05-31 09:47:21,1559267387,2019-05-31 09:49:47,1559267387,da2e9278-f0e9-42e2-9fa5-f1e9e53a89a0__pspm,http://pspm.pingstart.com/api/v4/postback?from=1706&clickid=da2e9278-f0e9-42e2-9fa5-f1e9e53a89a0__pspm,idfa_A6D3069C-9181-4471-AD13-5F74EFCF7690,ja
eKO-Q_QYSdi_WNLdQtSxhw,newborntown,p1789_966-10531966,Of81qbvWSPKfViI7CdMfcw,2.5,,D5C8685E-630F-4C2B-A002-C9B635015BCE,1559266125,2019-05-31 09:28:45,1559266274,2019-05-31 09:31:14,1559266274,1f751b1f-c6df-4295-a38e-ef1915dab220__pspm,http://pspm.pingstart.com/api/v4/postback?from=1706&clickid=1f751b1f-c6df-4295-a38e-ef1915dab220__pspm,idfa_D5C8685E-630F-4C2B-A002-C9B635015BCE,ja
eKO-Q_QYSdi_WNLdQtSxhw,newborntown,p1789_966-10531966,Of81qbvWSPKfViI7CdMfcw,2.5,,AF64A3C0-8A90-4E02-8E98-1111375AE3F4,1559239780,2019-05-31 02:09:40,1559239901,2019-05-31 02:11:41,1559239901,1bc7fba4-f55c-4969-86b3-0e47b4240aab__pspm,http://pspm.pingstart.com/api/v4/postback?from=1706&clickid=1bc7fba4-f55c-4969-86b3-0e47b4240aab__pspm,idfa_AF64A3C0-8A90-4E02-8E98-1111375AE3F4,ja
eKO-Q_QYSdi_WNLdQtSxhw,newborntown,p1789_966-10531966,Of81qbvWSPKfViI7CdMfcw,2.5,,B51667F5-F6FA-4697-B862-7F34117C340E,1559267251,2019-05-31 09:47:31,1559267417,2019-05-31 09:50:17,1559267417,3e1c8990-4216-4435-b514-47e003e35e85__pspm,http://pspm.pingstart.com/api/v4/postback?from=1706&clickid=3e1c8990-4216-4435-b514-47e003e35e85__pspm,idfa_B51667F5-F6FA-4697-B862-7F34117C340E,ja
eKO-Q_QYSdi_WNLdQtSxhw,newborntown,p1789_966-10531966,Of81qbvWSPKfViI7CdMfcw,2.5,,70AEF617-D13C-4D99-B80A-F5B89E2514BF,1559267233,2019-05-31 09:47:13,1559267348,2019-05-31 09:49:08,1559267348,6e99f5e5-60e0-487d-9e73-81ea2dcf31eb__pspm,http://pspm.pingstart.com/api/v4/postback?from=1706&clickid=6e99f5e5-60e0-487d-9e73-81ea2dcf31eb__pspm,idfa_70AEF617-D13C-4D99-B80A-F5B89E2514BF,ja
eKO-Q_QYSdi_WNLdQtSxhw,newborntown,p1789_966-10531966,Of81qbvWSPKfViI7CdMfcw,2.5,,287B61F9-A728-4BEA-A73C-6D78F75AA396,1559266800,2019-05-31 09:40:00,1559266946,2019-05-31 09:42:26,1559266946,cad488f8-cb10-462c-b07f-74b0c2711b29__pspm,http://pspm.pingstart.com/api/v4/postback?from=1706&clickid=cad488f8-cb10-462c-b07f-74b0c2711b29__pspm,idfa_287B61F9-A728-4BEA-A73C-6D78F75AA396,ja
eKO-Q_QYSdi_WNLdQtSxhw,newborntown,p1789_966-10531966,Of81qbvWSPKfViI7CdMfcw,2.5,,05C052BA-7E36-4017-A002-45420B74A297,1559266307,2019-05-31 09:31:47,1559266453,2019-05-31 09:34:13,1559266453,81c58fc2-9743-41ec-b793-b2a904dd9a7c__pspm,http://pspm.pingstart.com/api/v4/postback?from=1706&clickid=81c58fc2-9743-41ec-b793-b2a904dd9a7c__pspm,idfa_05C052BA-7E36-4017-A002-45420B74A297,ja
eKO-Q_QYSdi_WNLdQtSxhw,newborntown,p1789_966-10531966,Of81qbvWSPKfViI7CdMfcw,2.5,,D79F9B9E-1BE1-402C-A2F0-A0A58D3E1D6B,1559267238,2019-05-31 09:47:18,1559267396,2019-05-31 09:49:56,1559267396,13144933-1f44-44f8-9631-6a6a7f20cca8__pspm,http://pspm.pingstart.com/api/v4/postback?from=1706&clickid=13144933-1f44-44f8-9631-6a6a7f20cca8__pspm,idfa_D79F9B9E-1BE1-402C-A2F0-A0A58D3E1D6B,ja
eKO-Q_QYSdi_WNLdQtSxhw,newborntown,p1789_966-10531966,Of81qbvWSPKfViI7CdMfcw,2.5,,03AF4AF2-E481-40AB-8374-45CBCE3E2FD8,1559267236,2019-05-31 09:47:16,1559267396,2019-05-31 09:49:56,1559267396,f01b8f44-4e43-434e-b212-8beebf973ab3__pspm,http://pspm.pingstart.com/api/v4/postback?from=1706&clickid=f01b8f44-4e43-434e-b212-8beebf973ab3__pspm,idfa_03AF4AF2-E481-40AB-8374-45CBCE3E2FD8,ja
eKO-Q_QYSdi_WNLdQtSxhw,newborntown,p1789_966-10531966,Of81qbvWSPKfViI7CdMfcw,2.5,,0367715B-7478-4331-923F-EE5A6600D331,1559267239,2019-05-31 09:47:19,1559267398,2019-05-31 09:49:58,1559267398,8d567b98-623c-4ad5-81b8-5754e9fbed4f__pspm,http://pspm.pingstart.com/api/v4/postback?from=1706&clickid=8d567b98-623c-4ad5-81b8-5754e9fbed4f__pspm,idfa_0367715B-7478-4331-923F-EE5A6600D331,ja
eKO-Q_QYSdi_WNLdQtSxhw,newborntown,p1789_966-10531966,Of81qbvWSPKfViI7CdMfcw,2.5,,EB1A3EEF-2980-42FF-8FC3-68813BB89A74,1559266802,2019-05-31 09:40:02,1559266929,2019-05-31 09:42:09,1559266929,d7f33e5d-3980-4353-9ca1-f1f15c74fb33__pspm,http://pspm.pingstart.com/api/v4/postback?from=1706&clickid=d7f33e5d-3980-4353-9ca1-f1f15c74fb33__pspm,idfa_EB1A3EEF-2980-42FF-8FC3-68813BB89A74,ja
eKO-Q_QYSdi_WNLdQtSxhw,newborntown,p1789_966-10531966,Of81qbvWSPKfViI7CdMfcw,2.5,,1B43043E-397D-4CE4-9728-4A1B301E2737,1559267243,2019-05-31 09:47:23,1559267396,2019-05-31 09:49:56,1559267396,04694156-fd7c-4bb9-88c8-493879bef76e__pspm,http://pspm.pingstart.com/api/v4/postback?from=1706&clickid=04694156-fd7c-4bb9-88c8-493879bef76e__pspm,idfa_1B43043E-397D-4CE4-9728-4A1B301E2737,ja
eKO-Q_QYSdi_WNLdQtSxhw,newborntown,p1789_966-10531966,Of81qbvWSPKfViI7CdMfcw,2.5,,43BE3B39-3E16-4266-A47E-216B6EE2C3FD,1559266811,2019-05-31 09:40:11,1559266960,2019-05-31 09:42:40,1559266960,d6dff4fe-8054-4e48-be61-5e1986deb351__pspm,http://pspm.pingstart.com/api/v4/postback?from=1706&clickid=d6dff4fe-8054-4e48-be61-5e1986deb351__pspm,idfa_43BE3B39-3E16-4266-A47E-216B6EE2C3FD,ja
eKO-Q_QYSdi_WNLdQtSxhw,newborntown,p1789_966-10531966,Of81qbvWSPKfViI7CdMfcw,2.5,,5A56F407-9838-45DD-A1A6-355C6DFBF603,1559267318,2019-05-31 09:48:38,1559267474,2019-05-31 09:51:14,1559267474,3d45cbbd-30dd-4a15-87b0-d2814f6ebdb1__pspm,http://pspm.pingstart.com/api/v4/postback?from=1706&clickid=3d45cbbd-30dd-4a15-87b0-d2814f6ebdb1__pspm,idfa_5A56F407-9838-45DD-A1A6-355C6DFBF603,ja
eKO-Q_QYSdi_WNLdQtSxhw,newborntown,p1789_966-10531966,Of81qbvWSPKfViI7CdMfcw,2.5,,3ADD6997-D1C8-49E2-85FD-E6C38AD9F260,1559266802,2019-05-31 09:40:02,1559266950,2019-05-31 09:42:30,1559266950,81eb4753-f5e3-4104-8aad-10ba8cc529fc__pspm,http://pspm.pingstart.com/api/v4/postback?from=1706&clickid=81eb4753-f5e3-4104-8aad-10ba8cc529fc__pspm,idfa_3ADD6997-D1C8-49E2-85FD-E6C38AD9F260,ja
eKO-Q_QYSdi_WNLdQtSxhw,newborntown,p1789_966-10531966,Of81qbvWSPKfViI7CdMfcw,2.5,,C79C4B43-2CF5-4BEA-A019-034B69A229AD,1559266425,2019-05-31 09:33:45,1559266549,2019-05-31 09:35:49,1559266549,ee4f48be-f56e-4bd7-80a4-0fb4b5f203ff__pspm,http://pspm.pingstart.com/api/v4/postback?from=1706&clickid=ee4f48be-f56e-4bd7-80a4-0fb4b5f203ff__pspm,idfa_C79C4B43-2CF5-4BEA-A019-034B69A229AD,ja
eKO-Q_QYSdi_WNLdQtSxhw,newborntown,p1789_966-10531966,Of81qbvWSPKfViI7CdMfcw,2.5,,17593DDF-82ED-422D-AA1B-D90342F88773,1559266796,2019-05-31 09:39:56,1559266920,2019-05-31 09:42:00,1559266920,a7495ca8-76cb-4184-835f-a5c6823005a0__pspm,http://pspm.pingstart.com/api/v4/postback?from=1706&clickid=a7495ca8-76cb-4184-835f-a5c6823005a0__pspm,idfa_17593DDF-82ED-422D-AA1B-D90342F88773,ja
eKO-Q_QYSdi_WNLdQtSxhw,newborntown,p1789_966-10531966,Of81qbvWSPKfViI7CdMfcw,2.5,,F0E5D29F-D934-45B1-A0E2-051CE260F027,1559267228,2019-05-31 09:47:08,1559267390,2019-05-31 09:49:50,1559267390,bb3722ff-9a53-41c6-b761-d7806e61462b__pspm,http://pspm.pingstart.com/api/v4/postback?from=1706&clickid=bb3722ff-9a53-41c6-b761-d7806e61462b__pspm,idfa_F0E5D29F-D934-45B1-A0E2-051CE260F027,ja
eKO-Q_QYSdi_WNLdQtSxhw,newborntown,p1789_966-10531966,Of81qbvWSPKfViI7CdMfcw,2.5,,89381885-09E6-4C8C-A912-D05C6AE54F65,1559266386,2019-05-31 09:33:06,1559266488,2019-05-31 09:34:48,1559266488,f33f9ab4-be8a-4c4e-b661-3a104a822108__pspm,http://pspm.pingstart.com/api/v4/postback?from=1706&clickid=f33f9ab4-be8a-4c4e-b661-3a104a822108__pspm,idfa_89381885-09E6-4C8C-A912-D05C6AE54F65,ja
eKO-Q_QYSdi_WNLdQtSxhw,newborntown,p1789_966-10531966,Of81qbvWSPKfViI7CdMfcw,2.5,,26F766F8-5232-4FF8-9E8E-783408563295,1559267235,2019-05-31 09:47:15,1559267395,2019-05-31 09:49:55,1559267395,df132531-32bc-4a68-844e-4fb6d9d9369e__pspm,http://pspm.pingstart.com/api/v4/postback?from=1706&clickid=df132531-32bc-4a68-844e-4fb6d9d9369e__pspm,idfa_26F766F8-5232-4FF8-9E8E-783408563295,ja
eKO-Q_QYSdi_WNLdQtSxhw,newborntown,p1789_966-10531966,Of81qbvWSPKfViI7CdMfcw,2.5,,5B47DA0B-D9FA-4049-BA71-0EF70B9FE36A,1559266846,2019-05-31 09:40:46,1559266967,2019-05-31 09:42:47,1559266967,e25878d7-0842-426e-9a1d-ed73c82be282__pspm,http://pspm.pingstart.com/api/v4/postback?from=1706&clickid=e25878d7-0842-426e-9a1d-ed73c82be282__pspm,idfa_5B47DA0B-D9FA-4049-BA71-0EF70B9FE36A,ja
eKO-Q_QYSdi_WNLdQtSxhw,newborntown,p1789_966-10531966,Of81qbvWSPKfViI7CdMfcw,2.5,,D6F21DB7-43CB-4C7B-97F6-58EC111B1712,1559266371,2019-05-31 09:32:51,1559266494,2019-05-31 09:34:54,1559266494,5fdb81c5-440a-4ea3-88cc-112ef21bf813__pspm,http://pspm.pingstart.com/api/v4/postback?from=1706&clickid=5fdb81c5-440a-4ea3-88cc-112ef21bf813__pspm,idfa_D6F21DB7-43CB-4C7B-97F6-58EC111B1712,ja
eKO-Q_QYSdi_WNLdQtSxhw,newborntown,p1789_966-10531966,Of81qbvWSPKfViI7CdMfcw,2.5,,9DF4E7C1-FAF7-4D52-AEB4-464A4752996C,1559266297,2019-05-31 09:31:37,1559266414,2019-05-31 09:33:34,1559266414,a51ca0ca-eabf-4225-9a57-295fc87fd02a__pspm,http://pspm.pingstart.com/api/v4/postback?from=1706&clickid=a51ca0ca-eabf-4225-9a57-295fc87fd02a__pspm,idfa_9DF4E7C1-FAF7-4D52-AEB4-464A4752996C,ja
eKO-Q_QYSdi_WNLdQtSxhw,newborntown,p1789_966-10531966,Of81qbvWSPKfViI7CdMfcw,2.5,,BABAAB97-C0A7-47C9-80F7-1E47B694B6AD,1559266803,2019-05-31 09:40:03,1559266923,2019-05-31 09:42:03,1559266923,22333442-db84-452c-8566-e8fc20796262__pspm,http://pspm.pingstart.com/api/v4/postback?from=1706&clickid=22333442-db84-452c-8566-e8fc20796262__pspm,idfa_BABAAB97-C0A7-47C9-80F7-1E47B694B6AD,ja
eKO-Q_QYSdi_WNLdQtSxhw,newborntown,p1789_966-10531966,Of81qbvWSPKfViI7CdMfcw,2.5,,5FC276FD-D9EA-446B-800B-0D7AD708C55E,1559266804,2019-05-31 09:40:04,1559266962,2019-05-31 09:42:42,1559266962,7ed0587b-8746-41e5-8668-3899a861ea7d__pspm,http://pspm.pingstart.com/api/v4/postback?from=1706&clickid=7ed0587b-8746-41e5-8668-3899a861ea7d__pspm,idfa_5FC276FD-D9EA-446B-800B-0D7AD708C55E,ja
eKO-Q_QYSdi_WNLdQtSxhw,newborntown,p1789_966-10531966,Of81qbvWSPKfViI7CdMfcw,2.5,,435BB53C-651E-490E-9A67-F6392D924F34,1559266797,2019-05-31 09:39:57,1559266925,2019-05-31 09:42:05,1559266925,f71e5762-8ce7-456c-8193-fb69ec7538c4__pspm,http://pspm.pingstart.com/api/v4/postback?from=1706&clickid=f71e5762-8ce7-456c-8193-fb69ec7538c4__pspm,idfa_435BB53C-651E-490E-9A67-F6392D924F34,ja
eKO-Q_QYSdi_WNLdQtSxhw,newborntown,p1789_966-10531966,Of81qbvWSPKfViI7CdMfcw,2.5,,5EA77872-2BB7-41C6-AA97-3BC24DE180BE,1559267235,2019-05-31 09:47:15,1559267392,2019-05-31 09:49:52,1559267392,34a90f83-8e5a-4c5b-a007-b8004a74a6aa__pspm,http://pspm.pingstart.com/api/v4/postback?from=1706&clickid=34a90f83-8e5a-4c5b-a007-b8004a74a6aa__pspm,idfa_5EA77872-2BB7-41C6-AA97-3BC24DE180BE,ja
eKO-Q_QYSdi_WNLdQtSxhw,newborntown,p1789_966-10531966,Of81qbvWSPKfViI7CdMfcw,2.5,,7400F2AB-A6A4-4A7F-87E6-80DCB2B14516,1559265441,2019-05-31 09:17:21,1559265587,2019-05-31 09:19:47,1559265587,7d44acbf-9369-4287-942c-9fec2c700383__pspm,http://pspm.pingstart.com/api/v4/postback?from=1706&clickid=7d44acbf-9369-4287-942c-9fec2c700383__pspm,idfa_7400F2AB-A6A4-4A7F-87E6-80DCB2B14516,ja
eKO-Q_QYSdi_WNLdQtSxhw,newborntown,p1789_966-10531966,Of81qbvWSPKfViI7CdMfcw,2.5,,E6486165-FC04-4843-910B-1668E3C9C887,1559266802,2019-05-31 09:40:02,1559266962,2019-05-31 09:42:42,1559266962,524ca90f-8975-4c59-ac8c-bd19a7454bc0__pspm,http://pspm.pingstart.com/api/v4/postback?from=1706&clickid=524ca90f-8975-4c59-ac8c-bd19a7454bc0__pspm,idfa_E6486165-FC04-4843-910B-1668E3C9C887,ja
eKO-Q_QYSdi_WNLdQtSxhw,newborntown,p1789_966-10531966,Of81qbvWSPKfViI7CdMfcw,2.5,,4DD62F1E-98E0-470B-8019-EF62FC113C6A,1559266801,2019-05-31 09:40:01,1559266924,2019-05-31 09:42:04,1559266924,a40a2107-798e-4d50-ace3-c376032dd395__pspm,http://pspm.pingstart.com/api/v4/postback?from=1706&clickid=a40a2107-798e-4d50-ace3-c376032dd395__pspm,idfa_4DD62F1E-98E0-470B-8019-EF62FC113C6A,ja
eKO-Q_QYSdi_WNLdQtSxhw,newborntown,p1789_966-10531966,Of81qbvWSPKfViI7CdMfcw,2.5,,AB914D14-0F0E-48C3-9CE6-B79CD06DE0F3,1559250250,2019-05-31 05:04:10,1559250366,2019-05-31 05:06:06,1559250366,64214353-11ac-431e-8f7b-414b959ba0ec__pspm,http://pspm.pingstart.com/api/v4/postback?from=1706&clickid=64214353-11ac-431e-8f7b-414b959ba0ec__pspm,idfa_AB914D14-0F0E-48C3-9CE6-B79CD06DE0F3,ja
eKO-Q_QYSdi_WNLdQtSxhw,newborntown,p1789_966-10531966,Of81qbvWSPKfViI7CdMfcw,2.5,,F77C3897-238A-441C-9E03-37C24A33A07B,1559267241,2019-05-31 09:47:21,1559267387,2019-05-31 09:49:47,1559267387,d61a62d4-3b1a-4011-a719-218fb89b417d__pspm,http://pspm.pingstart.com/api/v4/postback?from=1706&clickid=d61a62d4-3b1a-4011-a719-218fb89b417d__pspm,idfa_F77C3897-238A-441C-9E03-37C24A33A07B,ja
eKO-Q_QYSdi_WNLdQtSxhw,newborntown,p1789_966-10531966,Of81qbvWSPKfViI7CdMfcw,2.5,,7AC20303-9156-4B6A-93B7-F05C5D0EE0AB,1559267238,2019-05-31 09:47:18,1559267391,2019-05-31 09:49:51,1559267391,6953e20c-50b1-4555-84f6-43224cc8aed4__pspm,http://pspm.pingstart.com/api/v4/postback?from=1706&clickid=6953e20c-50b1-4555-84f6-43224cc8aed4__pspm,idfa_7AC20303-9156-4B6A-93B7-F05C5D0EE0AB,ja
eKO-Q_QYSdi_WNLdQtSxhw,newborntown,p1789_966-10531966,Of81qbvWSPKfViI7CdMfcw,2.5,,EF24BE49-4B5E-4258-B28B-3590E03E0C4E,1559266333,2019-05-31 09:32:13,1559266453,2019-05-31 09:34:13,1559266453,7af2db1b-c388-42d2-bea6-e3abf4dc0ba0__pspm,http://pspm.pingstart.com/api/v4/postback?from=1706&clickid=7af2db1b-c388-42d2-bea6-e3abf4dc0ba0__pspm,idfa_EF24BE49-4B5E-4258-B28B-3590E03E0C4E,ja
eKO-Q_QYSdi_WNLdQtSxhw,newborntown,p1789_966-10531966,Of81qbvWSPKfViI7CdMfcw,2.5,,0FA2688A-FDEA-45C3-BBC8-0292DCBA92A5,1559267283,2019-05-31 09:48:03,1559267445,2019-05-31 09:50:45,1559267445,3b81859c-0486-4a56-bfef-99834898db5b__pspm,http://pspm.pingstart.com/api/v4/postback?from=1706&clickid=3b81859c-0486-4a56-bfef-99834898db5b__pspm,idfa_0FA2688A-FDEA-45C3-BBC8-0292DCBA92A5,ja
eKO-Q_QYSdi_WNLdQtSxhw,newborntown,p1789_966-10531966,Of81qbvWSPKfViI7CdMfcw,2.5,,7FE07DFD-0225-434D-9F26-8BBD9A59BD9B,1559266770,2019-05-31 09:39:30,1559266927,2019-05-31 09:42:07,1559266927,82750819-97e0-4019-926e-af1c28be529c__pspm,http://pspm.pingstart.com/api/v4/postback?from=1706&clickid=82750819-97e0-4019-926e-af1c28be529c__pspm,idfa_7FE07DFD-0225-434D-9F26-8BBD9A59BD9B,ja
eKO-Q_QYSdi_WNLdQtSxhw,newborntown,p1789_966-10531966,Of81qbvWSPKfViI7CdMfcw,2.5,,55D9A7A9-A92E-463B-BDF8-FE20E85A316A,1559267280,2019-05-31 09:48:00,1559267430,2019-05-31 09:50:30,1559267430,e7f02523-00f1-4c3c-a32c-6597567628f6__pspm,http://pspm.pingstart.com/api/v4/postback?from=1706&clickid=e7f02523-00f1-4c3c-a32c-6597567628f6__pspm,idfa_55D9A7A9-A92E-463B-BDF8-FE20E85A316A,ja
eKO-Q_QYSdi_WNLdQtSxhw,newborntown,p1789_966-10531966,Of81qbvWSPKfViI7CdMfcw,2.5,,8868DB9E-48E7-4B21-B909-0AACB7165C5A,1559266815,2019-05-31 09:40:15,1559266937,2019-05-31 09:42:17,1559266937,bb2462c4-d725-43aa-82e6-1c45e98bb69c__pspm,http://pspm.pingstart.com/api/v4/postback?from=1706&clickid=bb2462c4-d725-43aa-82e6-1c45e98bb69c__pspm,idfa_8868DB9E-48E7-4B21-B909-0AACB7165C5A,ja
eKO-Q_QYSdi_WNLdQtSxhw,newborntown,p1789_966-10531966,Of81qbvWSPKfViI7CdMfcw,2.5,,19603EE3-86A8-40A5-AF8B-867186ACD398,1559266430,2019-05-31 09:33:50,1559266576,2019-05-31 09:36:16,1559266576,702c083e-9625-4755-9c68-58c78bac23bc__pspm,http://pspm.pingstart.com/api/v4/postback?from=1706&clickid=702c083e-9625-4755-9c68-58c78bac23bc__pspm,idfa_19603EE3-86A8-40A5-AF8B-867186ACD398,ja
eKO-Q_QYSdi_WNLdQtSxhw,newborntown,p1789_966-10531966,Of81qbvWSPKfViI7CdMfcw,2.5,,0EE8AECE-6A72-4647-B718-4311E0B1C514,1559267242,2019-05-31 09:47:22,1559267389,2019-05-31 09:49:49,1559267389,e17c9fb6-90ca-4fb0-ac15-8524d86267e6__pspm,http://pspm.pingstart.com/api/v4/postback?from=1706&clickid=e17c9fb6-90ca-4fb0-ac15-8524d86267e6__pspm,idfa_0EE8AECE-6A72-4647-B718-4311E0B1C514,ja
eKO-Q_QYSdi_WNLdQtSxhw,newborntown,p1789_966-10531966,Of81qbvWSPKfViI7CdMfcw,2.5,,6E2F93C0-0B82-4A8A-91E2-D3DF48152FD9,1559267240,2019-05-31 09:47:20,1559267401,2019-05-31 09:50:01,1559267401,79013cd8-66f4-4f44-b2b5-3bb9523e149e__pspm,http://pspm.pingstart.com/api/v4/postback?from=1706&clickid=79013cd8-66f4-4f44-b2b5-3bb9523e149e__pspm,idfa_6E2F93C0-0B82-4A8A-91E2-D3DF48152FD9,ja
eKO-Q_QYSdi_WNLdQtSxhw,newborntown,p1789_966-10531966,Of81qbvWSPKfViI7CdMfcw,2.5,,83DA1DBD-161B-43F6-BAA8-FD8B05938D20,1559267232,2019-05-31 09:47:12,1559267392,2019-05-31 09:49:52,1559267392,8bcc7a69-a7f1-4890-9130-38eac2ea2ae2__pspm,http://pspm.pingstart.com/api/v4/postback?from=1706&clickid=8bcc7a69-a7f1-4890-9130-38eac2ea2ae2__pspm,idfa_83DA1DBD-161B-43F6-BAA8-FD8B05938D20,ja
eKO-Q_QYSdi_WNLdQtSxhw,newborntown,p1789_966-10531966,Of81qbvWSPKfViI7CdMfcw,2.5,,6847AA94-3237-48F4-891C-0E52982F5135,1559266353,2019-05-31 09:32:33,1559266503,2019-05-31 09:35:03,1559266503,4184a93f-ce0c-41ee-813a-f0d80256e41b__pspm,http://pspm.pingstart.com/api/v4/postback?from=1706&clickid=4184a93f-ce0c-41ee-813a-f0d80256e41b__pspm,idfa_6847AA94-3237-48F4-891C-0E52982F5135,ja
eKO-Q_QYSdi_WNLdQtSxhw,newborntown,p1789_966-10531966,Of81qbvWSPKfViI7CdMfcw,2.5,,97F11C12-1B4F-4198-999D-CCB0CB6428CA,1559266803,2019-05-31 09:40:03,1559266966,2019-05-31 09:42:46,1559266966,c7b734f3-8cfb-4559-895a-92df204ee2ab__pspm,http://pspm.pingstart.com/api/v4/postback?from=1706&clickid=c7b734f3-8cfb-4559-895a-92df204ee2ab__pspm,idfa_97F11C12-1B4F-4198-999D-CCB0CB6428CA,ja
eKO-Q_QYSdi_WNLdQtSxhw,newborntown,p1789_966-10531966,Of81qbvWSPKfViI7CdMfcw,2.5,,77C0B505-C876-47A7-A8E3-90BAB3A80089,1559266797,2019-05-31 09:39:57,1559266959,2019-05-31 09:42:39,1559266959,6df488ea-4e06-4fac-b27c-5bb37e65cf60__pspm,http://pspm.pingstart.com/api/v4/postback?from=1706&clickid=6df488ea-4e06-4fac-b27c-5bb37e65cf60__pspm,idfa_77C0B505-C876-47A7-A8E3-90BAB3A80089,ja
eKO-Q_QYSdi_WNLdQtSxhw,newborntown,p1789_966-10531966,Of81qbvWSPKfViI7CdMfcw,2.5,,CD4809B1-07FF-4802-B289-B9796A0CB9A8,1559266801,2019-05-31 09:40:01,1559266958,2019-05-31 09:42:38,1559266958,1509c082-29a2-4b4e-8ba7-c52ae6a1be7b__pspm,http://pspm.pingstart.com/api/v4/postback?from=1706&clickid=1509c082-29a2-4b4e-8ba7-c52ae6a1be7b__pspm,idfa_CD4809B1-07FF-4802-B289-B9796A0CB9A8,ja
