cid,partner_id,channel_id,action_id,cpi,ip,idfa,click time,click datetime,install time,install datetime,postback time,click id,postback url,unique user id
_fYj9_-lRUaaLCL4RAK81Q,newborntown,p1767_38609869,install,1.5,110.70.52.38,6838c50d-d9a0-4431-be89-72b665a2d96d,1559220502,2019-05-30 20:48:22,1559220601,2019-05-30 20:50:01,1559220633,373ace29-5a9d-494d-b204-bb756365a7e3__pspm,http://pspm.pingstart.com/api/v4/postback?from=1706&clickid=373ace29-5a9d-494d-b204-bb756365a7e3__pspm,idfa_6838c50d-d9a0-4431-be89-72b665a2d96d,ko
_fYj9_-lRUaaLCL4RAK81Q,newborntown,p1767_38609869,install,1.5,115.137.245.85,508f82c4-3ae2-47ad-8f4c-26dbcfd0ecde,1559221039,2019-05-30 20:57:19,1559221142,2019-05-30 20:59:02,1559221173,9836e159-a70b-4117-96e2-83fa869e599b__pspm,http://pspm.pingstart.com/api/v4/postback?from=1706&clickid=9836e159-a70b-4117-96e2-83fa869e599b__pspm,idfa_508f82c4-3ae2-47ad-8f4c-26dbcfd0ecde,ko
_fYj9_-lRUaaLCL4RAK81Q,newborntown,p1767_38609869,install,1.5,125.137.177.201,0c79fb7d-1f55-4863-8cc6-7980744f1343,1559220498,2019-05-30 20:48:18,1559220602,2019-05-30 20:50:02,1559220632,7a36e3f2-3000-467b-be29-818263e890fe__pspm,http://pspm.pingstart.com/api/v4/postback?from=1706&clickid=7a36e3f2-3000-467b-be29-818263e890fe__pspm,idfa_0c79fb7d-1f55-4863-8cc6-7980744f1343,ko
_fYj9_-lRUaaLCL4RAK81Q,newborntown,p1767_38609869,install,1.5,211.36.137.188,c4e31922-993c-4345-bdc4-0a0f7f1b73ba,1559220255,2019-05-30 20:44:15,1559220357,2019-05-30 20:45:57,1559220388,572afeb6-53c5-4e14-8c52-a4b049063881__pspm,http://pspm.pingstart.com/api/v4/postback?from=1706&clickid=572afeb6-53c5-4e14-8c52-a4b049063881__pspm,idfa_c4e31922-993c-4345-bdc4-0a0f7f1b73ba,ko
_fYj9_-lRUaaLCL4RAK81Q,newborntown,p1767_38609869,install,1.5,220.81.184.212,2a498892-2fe0-408d-a8c3-45c37f639ab2,1559221101,2019-05-30 20:58:21,1559221198,2019-05-30 20:59:58,1559221229,4bb8dfca-cd6a-40ba-bf54-c38e81b6c1bb__pspm,http://pspm.pingstart.com/api/v4/postback?from=1706&clickid=4bb8dfca-cd6a-40ba-bf54-c38e81b6c1bb__pspm,idfa_2a498892-2fe0-408d-a8c3-45c37f639ab2,ko
_fYj9_-lRUaaLCL4RAK81Q,newborntown,p1767_38609869,install,1.5,223.38.17.190,dd7a9bae-5d5e-4445-929f-e7273ee444aa,1559221281,2019-05-30 21:01:21,1559221380,2019-05-30 21:03:00,1559221412,46cd891c-e855-4fa7-84b6-1c5fdb0ceb1b__pspm,http://pspm.pingstart.com/api/v4/postback?from=1706&clickid=46cd891c-e855-4fa7-84b6-1c5fdb0ceb1b__pspm,idfa_dd7a9bae-5d5e-4445-929f-e7273ee444aa,ko
_fYj9_-lRUaaLCL4RAK81Q,newborntown,p1767_38609869,install,1.5,210.178.6.58,e3275f3a-a5cc-4003-93b4-fe30ea2abf4e,1559221166,2019-05-30 20:59:26,1559221269,2019-05-30 21:01:09,1559221300,17b7f3dc-d793-49f9-a953-9e1c73d9b911__pspm,http://pspm.pingstart.com/api/v4/postback?from=1706&clickid=17b7f3dc-d793-49f9-a953-9e1c73d9b911__pspm,idfa_e3275f3a-a5cc-4003-93b4-fe30ea2abf4e,ko
_fYj9_-lRUaaLCL4RAK81Q,newborntown,p1767_38609869,install,1.5,222.119.165.198,02ff7373-d9e6-4f50-a150-999a56bf1eef,1559220383,2019-05-30 20:46:23,1559220485,2019-05-30 20:48:05,1559220516,1deb61fa-c71e-4103-932e-c53d4c85b77d__pspm,http://pspm.pingstart.com/api/v4/postback?from=1706&clickid=1deb61fa-c71e-4103-932e-c53d4c85b77d__pspm,idfa_02ff7373-d9e6-4f50-a150-999a56bf1eef,ko
_fYj9_-lRUaaLCL4RAK81Q,newborntown,p1767_38609869,install,1.5,121.174.213.57,3b327256-c72c-49be-a4e8-6ed5ee1fd3a5,1559220336,2019-05-30 20:45:36,1559220722,2019-05-30 20:52:02,1559220754,8713410e-fe6e-4cbc-b3b0-ff7061284b46__pspm,http://pspm.pingstart.com/api/v4/postback?from=1706&clickid=8713410e-fe6e-4cbc-b3b0-ff7061284b46__pspm,idfa_3b327256-c72c-49be-a4e8-6ed5ee1fd3a5,ko
_fYj9_-lRUaaLCL4RAK81Q,newborntown,p1767_38609869,install,1.5,1.236.195.189,8c291227-7b5a-4458-be87-afbd8fbeb9a8,1559220736,2019-05-30 20:52:16,1559220839,2019-05-30 20:53:59,1559220870,68b4054a-489b-46d6-b497-6ebf65f58655__pspm,http://pspm.pingstart.com/api/v4/postback?from=1706&clickid=68b4054a-489b-46d6-b497-6ebf65f58655__pspm,idfa_8c291227-7b5a-4458-be87-afbd8fbeb9a8,ko
_fYj9_-lRUaaLCL4RAK81Q,newborntown,p1767_38609869,install,1.5,211.215.72.7,67f7dc83-4deb-4ab3-af94-794a088621c5,1559220677,2019-05-30 20:51:17,1559220781,2019-05-30 20:53:01,1559220812,fb1407ee-6816-4791-a852-5ac0d60931d8__pspm,http://pspm.pingstart.com/api/v4/postback?from=1706&clickid=fb1407ee-6816-4791-a852-5ac0d60931d8__pspm,idfa_67f7dc83-4deb-4ab3-af94-794a088621c5,ko
_fYj9_-lRUaaLCL4RAK81Q,newborntown,p1767_38609869,install,1.5,223.38.30.69,aa033e23-8c2d-4beb-8da0-2d76bd23cb6c,1559220318,2019-05-30 20:45:18,1559220421,2019-05-30 20:47:01,1559220453,8e1c8a77-2bfe-4436-bf55-ae0002b66335__pspm,http://pspm.pingstart.com/api/v4/postback?from=1706&clickid=8e1c8a77-2bfe-4436-bf55-ae0002b66335__pspm,idfa_aa033e23-8c2d-4beb-8da0-2d76bd23cb6c,ko
_fYj9_-lRUaaLCL4RAK81Q,newborntown,p1767_38609869,install,1.5,125.181.245.39,04ade171-d127-4d9b-92d6-29252f57c3d0,1559220265,2019-05-30 20:44:25,1559220358,2019-05-30 20:45:58,1559220389,55fec1b7-736c-4b31-9608-cbc1b93339dc__pspm,http://pspm.pingstart.com/api/v4/postback?from=1706&clickid=55fec1b7-736c-4b31-9608-cbc1b93339dc__pspm,idfa_04ade171-d127-4d9b-92d6-29252f57c3d0,ko
_fYj9_-lRUaaLCL4RAK81Q,newborntown,p1767_38609869,install,1.5,175.223.22.58,504544bb-5bb6-48a7-bdc1-8d04d171c438,1559220256,2019-05-30 20:44:16,1559220357,2019-05-30 20:45:57,1559220387,65aabdbd-775e-42d3-a5d4-a3eb674f9992__pspm,http://pspm.pingstart.com/api/v4/postback?from=1706&clickid=65aabdbd-775e-42d3-a5d4-a3eb674f9992__pspm,idfa_504544bb-5bb6-48a7-bdc1-8d04d171c438,ar
_fYj9_-lRUaaLCL4RAK81Q,newborntown,p1767_38609869,install,1.5,124.60.44.242,5e44a3a3-1beb-425c-9eae-9d09f60d9ea1,1559220079,2019-05-30 20:41:19,1559220190,2019-05-30 20:43:10,1559220221,a0e1769e-9bc8-408e-ab3f-1bd38bcdc4f1__pspm,http://pspm.pingstart.com/api/v4/postback?from=1706&clickid=a0e1769e-9bc8-408e-ab3f-1bd38bcdc4f1__pspm,idfa_5e44a3a3-1beb-425c-9eae-9d09f60d9ea1,ko
_fYj9_-lRUaaLCL4RAK81Q,newborntown,p1767_38609869,install,1.5,125.129.150.180,8a3c77a5-11cb-474d-80f2-ec32be2236f2,1559220737,2019-05-30 20:52:17,1559220839,2019-05-30 20:53:59,1559220870,16e21b1d-647e-4493-ba37-75a9a50d4286__pspm,http://pspm.pingstart.com/api/v4/postback?from=1706&clickid=16e21b1d-647e-4493-ba37-75a9a50d4286__pspm,idfa_8a3c77a5-11cb-474d-80f2-ec32be2236f2,ko
_fYj9_-lRUaaLCL4RAK81Q,newborntown,p1767_38609869,install,1.5,223.33.178.67,bd6d9d6d-3d39-4a2e-a648-fc049c0009d9,1559220622,2019-05-30 20:50:22,1559220722,2019-05-30 20:52:02,1559220753,e3d50792-3524-4915-b4d4-338a1d62282e__pspm,http://pspm.pingstart.com/api/v4/postback?from=1706&clickid=e3d50792-3524-4915-b4d4-338a1d62282e__pspm,idfa_bd6d9d6d-3d39-4a2e-a648-fc049c0009d9,ko
_fYj9_-lRUaaLCL4RAK81Q,newborntown,p1767_38609869,install,1.5,117.111.28.254,0f83b339-e95c-44eb-86d1-eee81b6b48a9,1559220564,2019-05-30 20:49:24,1559220663,2019-05-30 20:51:03,1559220693,ff92b79b-e476-452a-a351-7dcc10ec95d5__pspm,http://pspm.pingstart.com/api/v4/postback?from=1706&clickid=ff92b79b-e476-452a-a351-7dcc10ec95d5__pspm,idfa_0f83b339-e95c-44eb-86d1-eee81b6b48a9,ko
_fYj9_-lRUaaLCL4RAK81Q,newborntown,p1767_38609869,install,1.5,121.153.127.76,cf42047f-086f-45a6-8254-702284783be5,1559221097,2019-05-30 20:58:17,1559221202,2019-05-30 21:00:02,1559221234,e2a7278e-57d1-4657-9e84-bcc7710d3f25__pspm,http://pspm.pingstart.com/api/v4/postback?from=1706&clickid=e2a7278e-57d1-4657-9e84-bcc7710d3f25__pspm,idfa_cf42047f-086f-45a6-8254-702284783be5,ko
_fYj9_-lRUaaLCL4RAK81Q,newborntown,p1767_38609869,install,1.5,121.181.26.109,4489dc5b-e852-4805-8cad-df1f3ae764d4,1559220497,2019-05-30 20:48:17,1559220601,2019-05-30 20:50:01,1559220631,2d7c08e5-baa7-4fbb-b3cd-a0e9079f4e43__pspm,http://pspm.pingstart.com/api/v4/postback?from=1706&clickid=2d7c08e5-baa7-4fbb-b3cd-a0e9079f4e43__pspm,idfa_4489dc5b-e852-4805-8cad-df1f3ae764d4,ko
_fYj9_-lRUaaLCL4RAK81Q,newborntown,p1767_38609869,install,1.5,122.35.140.140,39b0d27d-d2f2-44a5-b28e-99b79c01da64,1559220559,2019-05-30 20:49:19,1559220898,2019-05-30 20:54:58,1559220929,07eebca8-9881-4d75-9f99-39f719799c45__pspm,http://pspm.pingstart.com/api/v4/postback?from=1706&clickid=07eebca8-9881-4d75-9f99-39f719799c45__pspm,idfa_39b0d27d-d2f2-44a5-b28e-99b79c01da64,ko
_fYj9_-lRUaaLCL4RAK81Q,newborntown,p1767_38609869,install,1.5,118.45.77.123,0870b4c3-f21e-4e01-88db-18ab3e929f91,1559220322,2019-05-30 20:45:22,1559220420,2019-05-30 20:47:00,1559220451,03a150e7-33b4-42ba-86c2-c81ab477eb67__pspm,http://pspm.pingstart.com/api/v4/postback?from=1706&clickid=03a150e7-33b4-42ba-86c2-c81ab477eb67__pspm,idfa_0870b4c3-f21e-4e01-88db-18ab3e929f91,ko
_fYj9_-lRUaaLCL4RAK81Q,newborntown,p1767_38609869,install,1.5,121.177.10.15,d91beec1-3c63-49a6-9aff-188407be58bf,1559220743,2019-05-30 20:52:23,1559220843,2019-05-30 20:54:03,1559220878,3be1ea2f-62ae-4a92-8d87-00ef2fef4279__pspm,http://pspm.pingstart.com/api/v4/postback?from=1706&clickid=3be1ea2f-62ae-4a92-8d87-00ef2fef4279__pspm,idfa_d91beec1-3c63-49a6-9aff-188407be58bf,ko
_fYj9_-lRUaaLCL4RAK81Q,newborntown,p1767_38609869,install,1.5,220.84.246.221,99e5c4aa-9417-4771-929b-e9a039429a31,1559221037,2019-05-30 20:57:17,1559221218,2019-05-30 21:00:18,1559221249,735b8ac4-1048-4b5a-8d57-5cbb1f7e520c__pspm,http://pspm.pingstart.com/api/v4/postback?from=1706&clickid=735b8ac4-1048-4b5a-8d57-5cbb1f7e520c__pspm,idfa_99e5c4aa-9417-4771-929b-e9a039429a31,id
_fYj9_-lRUaaLCL4RAK81Q,newborntown,p1767_38609869,install,1.5,223.33.160.154,30af5f3c-680f-4af1-abca-25a9f5cb10e6,1559220501,2019-05-30 20:48:21,1559220601,2019-05-30 20:50:01,1559220632,2b793744-895d-4a19-bdc1-640feea972b6__pspm,http://pspm.pingstart.com/api/v4/postback?from=1706&clickid=2b793744-895d-4a19-bdc1-640feea972b6__pspm,idfa_30af5f3c-680f-4af1-abca-25a9f5cb10e6,ko
_fYj9_-lRUaaLCL4RAK81Q,newborntown,p1767_38609869,install,1.5,182.214.158.208,de42d9bb-8edb-420c-8378-2cbcb0f0e3e0,1559220079,2019-05-30 20:41:19,1559220192,2019-05-30 20:43:12,1559220224,28525e61-b9a8-45db-b1ad-89d6c5d85ce6__pspm,http://pspm.pingstart.com/api/v4/postback?from=1706&clickid=28525e61-b9a8-45db-b1ad-89d6c5d85ce6__pspm,idfa_de42d9bb-8edb-420c-8378-2cbcb0f0e3e0,ko
_fYj9_-lRUaaLCL4RAK81Q,newborntown,p1767_38609869,install,1.5,118.38.200.205,5bb74e5a-217e-4717-890f-9ed2746a692b,1559220557,2019-05-30 20:49:17,1559221184,2019-05-30 20:59:44,1559221214,39d7187d-055e-46e6-bd00-7c7d6aeb9972__pspm,http://pspm.pingstart.com/api/v4/postback?from=1706&clickid=39d7187d-055e-46e6-bd00-7c7d6aeb9972__pspm,idfa_5bb74e5a-217e-4717-890f-9ed2746a692b,ko
_fYj9_-lRUaaLCL4RAK81Q,newborntown,p1767_38609869,install,1.5,121.174.6.60,04cb8545-aa2c-434f-83aa-0d113156bed8,1559220975,2019-05-30 20:56:15,1559221196,2019-05-30 20:59:56,1559221227,260b9123-a574-4477-bdb1-1494a57ab8a5__pspm,http://pspm.pingstart.com/api/v4/postback?from=1706&clickid=260b9123-a574-4477-bdb1-1494a57ab8a5__pspm,idfa_04cb8545-aa2c-434f-83aa-0d113156bed8,ko
_fYj9_-lRUaaLCL4RAK81Q,newborntown,p1767_38609869,install,1.5,121.186.190.141,60e5b249-8db2-4a85-a86a-aa7eaa26a1c4,1559220621,2019-05-30 20:50:21,1559220723,2019-05-30 20:52:03,1559220754,930f6a24-0aef-40f4-87df-2ac03da1ad8e__pspm,http://pspm.pingstart.com/api/v4/postback?from=1706&clickid=930f6a24-0aef-40f4-87df-2ac03da1ad8e__pspm,idfa_60e5b249-8db2-4a85-a86a-aa7eaa26a1c4,ko
_fYj9_-lRUaaLCL4RAK81Q,newborntown,p1767_38609869,install,1.5,211.36.156.66,e026a9f8-9808-438f-a7ec-a9825f546a09,1559220677,2019-05-30 20:51:17,1559220779,2019-05-30 20:52:59,1559220811,312fd55e-ba94-4d67-93f2-fb2f2db009c4__pspm,http://pspm.pingstart.com/api/v4/postback?from=1706&clickid=312fd55e-ba94-4d67-93f2-fb2f2db009c4__pspm,idfa_e026a9f8-9808-438f-a7ec-a9825f546a09,ko
_fYj9_-lRUaaLCL4RAK81Q,newborntown,p1767_38609869,install,1.5,114.30.160.15,00a8a001-1b24-4f14-8b64-75819cf5c129,1559220406,2019-05-30 20:46:46,1559220483,2019-05-30 20:48:03,1559220516,a3d13470-a881-4806-90fd-569dc8b53478__pspm,http://pspm.pingstart.com/api/v4/postback?from=1706&clickid=a3d13470-a881-4806-90fd-569dc8b53478__pspm,idfa_00a8a001-1b24-4f14-8b64-75819cf5c129,en
_fYj9_-lRUaaLCL4RAK81Q,newborntown,p1767_38609869,install,1.5,125.137.40.143,e759004c-6c1d-4e25-be42-2f4431922e72,1559221164,2019-05-30 20:59:24,1559221267,2019-05-30 21:01:07,1559221298,308bbf73-56c3-4ea9-b614-a8bcbe40794a__pspm,http://pspm.pingstart.com/api/v4/postback?from=1706&clickid=308bbf73-56c3-4ea9-b614-a8bcbe40794a__pspm,idfa_e759004c-6c1d-4e25-be42-2f4431922e72,ko
_fYj9_-lRUaaLCL4RAK81Q,newborntown,p1767_38609869,install,1.5,211.36.144.186,a78b6a14-2329-453e-a377-3079e3171462,1559221173,2019-05-30 20:59:33,1559221266,2019-05-30 21:01:06,1559221299,b37be520-96c0-4a55-9dd5-a4d3aa37c8da__pspm,http://pspm.pingstart.com/api/v4/postback?from=1706&clickid=b37be520-96c0-4a55-9dd5-a4d3aa37c8da__pspm,idfa_a78b6a14-2329-453e-a377-3079e3171462,ko
_fYj9_-lRUaaLCL4RAK81Q,newborntown,p1767_38609869,install,1.5,222.98.58.185,98f95232-a3f4-4891-a3f3-d02cbb43bcd5,1559220860,2019-05-30 20:54:20,1559220960,2019-05-30 20:56:00,1559220992,fa4625cc-5d53-42f8-ab19-962aeb9e4525__pspm,http://pspm.pingstart.com/api/v4/postback?from=1706&clickid=fa4625cc-5d53-42f8-ab19-962aeb9e4525__pspm,idfa_98f95232-a3f4-4891-a3f3-d02cbb43bcd5,ko
_fYj9_-lRUaaLCL4RAK81Q,newborntown,p1767_38609869,install,1.5,125.139.140.40,7c294a73-f6c2-4730-a473-ed8c189dfbb5,1559221037,2019-05-30 20:57:17,1559221150,2019-05-30 20:59:10,1559221181,0aedd660-f651-495f-861d-9d071d866d92__pspm,http://pspm.pingstart.com/api/v4/postback?from=1706&clickid=0aedd660-f651-495f-861d-9d071d866d92__pspm,idfa_7c294a73-f6c2-4730-a473-ed8c189dfbb5,ko
_fYj9_-lRUaaLCL4RAK81Q,newborntown,p1767_38609869,install,1.5,125.135.204.12,26887371-128a-4490-b4ca-c03e96daa539,1559220199,2019-05-30 20:43:19,1559220300,2019-05-30 20:45:00,1559220331,27fa3041-1e25-49fe-bfc9-2e69dcd83e3c__pspm,http://pspm.pingstart.com/api/v4/postback?from=1706&clickid=27fa3041-1e25-49fe-bfc9-2e69dcd83e3c__pspm,idfa_26887371-128a-4490-b4ca-c03e96daa539,ko
_fYj9_-lRUaaLCL4RAK81Q,newborntown,p1767_38609869,install,1.5,59.26.183.230,cffc1e82-11bf-4329-a22d-c34393f59ba5,1559220742,2019-05-30 20:52:22,1559220910,2019-05-30 20:55:10,1559220940,6aff02f2-8e55-4b57-bcda-b8ca95d6ff97__pspm,http://pspm.pingstart.com/api/v4/postback?from=1706&clickid=6aff02f2-8e55-4b57-bcda-b8ca95d6ff97__pspm,idfa_cffc1e82-11bf-4329-a22d-c34393f59ba5,ko
_fYj9_-lRUaaLCL4RAK81Q,newborntown,p1767_38609869,install,1.5,115.41.57.134,1a4ffc7d-bfd2-49af-8b70-5dc262419602,1559220078,2019-05-30 20:41:18,1559220180,2019-05-30 20:43:00,1559220211,61b76e3b-8c90-416e-9ac9-c1e20d79b082__pspm,http://pspm.pingstart.com/api/v4/postback?from=1706&clickid=61b76e3b-8c90-416e-9ac9-c1e20d79b082__pspm,idfa_1a4ffc7d-bfd2-49af-8b70-5dc262419602,ru
_fYj9_-lRUaaLCL4RAK81Q,newborntown,p1767_38609869,install,1.5,117.123.121.199,9e8704bb-dc51-4f20-967e-aebdbb5e38e6,1559220810,2019-05-30 20:53:30,1559221321,2019-05-30 21:02:01,1559221353,9ba991e8-56ef-4faf-8558-71a7bcb9cc4e__pspm,http://pspm.pingstart.com/api/v4/postback?from=1706&clickid=9ba991e8-56ef-4faf-8558-71a7bcb9cc4e__pspm,idfa_9e8704bb-dc51-4f20-967e-aebdbb5e38e6,ko
_fYj9_-lRUaaLCL4RAK81Q,newborntown,p1767_38609869,install,1.5,183.96.43.155,7ce7c9a4-e5e6-4c11-b26e-cd059c1d79cd,1559220380,2019-05-30 20:46:20,1559220485,2019-05-30 20:48:05,1559220516,86679334-e580-401f-a75c-b35c8ea39056__pspm,http://pspm.pingstart.com/api/v4/postback?from=1706&clickid=86679334-e580-401f-a75c-b35c8ea39056__pspm,idfa_7ce7c9a4-e5e6-4c11-b26e-cd059c1d79cd,ko
_fYj9_-lRUaaLCL4RAK81Q,newborntown,p1767_38609869,install,1.5,39.7.54.222,179393b5-b5da-4c71-9d25-ded8267ebb37,1559220747,2019-05-30 20:52:27,1559220841,2019-05-30 20:54:01,1559220872,c031d090-a844-4125-9344-57b9fb59132f__pspm,http://pspm.pingstart.com/api/v4/postback?from=1706&clickid=c031d090-a844-4125-9344-57b9fb59132f__pspm,idfa_179393b5-b5da-4c71-9d25-ded8267ebb37,ko
_fYj9_-lRUaaLCL4RAK81Q,newborntown,p1767_38609869,install,1.5,211.36.139.150,2cc59858-beab-4776-a912-b738937d8c72,1559221217,2019-05-30 21:00:17,1559221317,2019-05-30 21:01:57,1559221349,25c0a74e-1c29-4431-a9ff-19aaa846c390__pspm,http://pspm.pingstart.com/api/v4/postback?from=1706&clickid=25c0a74e-1c29-4431-a9ff-19aaa846c390__pspm,idfa_2cc59858-beab-4776-a912-b738937d8c72,ko
_fYj9_-lRUaaLCL4RAK81Q,newborntown,p1767_38609869,install,1.5,59.15.63.209,20b1b338-748d-4237-b001-3d05973ee268,1559221097,2019-05-30 20:58:17,1559221198,2019-05-30 20:59:58,1559221230,0fe5726a-0295-4f47-bcb0-3ea16ec20d97__pspm,http://pspm.pingstart.com/api/v4/postback?from=1706&clickid=0fe5726a-0295-4f47-bcb0-3ea16ec20d97__pspm,idfa_20b1b338-748d-4237-b001-3d05973ee268,ko
_fYj9_-lRUaaLCL4RAK81Q,newborntown,p1767_38609869,install,1.5,59.25.17.224,abe3733c-3b85-425e-a61c-5c5afea78953,1559221217,2019-05-30 21:00:17,1559221384,2019-05-30 21:03:04,1559221416,bcac77dd-3ed8-42f0-8879-4bccdca722f3__pspm,http://pspm.pingstart.com/api/v4/postback?from=1706&clickid=bcac77dd-3ed8-42f0-8879-4bccdca722f3__pspm,idfa_abe3733c-3b85-425e-a61c-5c5afea78953,ko
_fYj9_-lRUaaLCL4RAK81Q,newborntown,p1767_38609869,install,1.5,124.59.140.48,7776721e-5ee6-4e61-8e80-793338e9223a,1559220860,2019-05-30 20:54:20,1559220964,2019-05-30 20:56:04,1559220995,0517b024-36ee-47f2-b5d1-51cb2bad7c28__pspm,http://pspm.pingstart.com/api/v4/postback?from=1706&clickid=0517b024-36ee-47f2-b5d1-51cb2bad7c28__pspm,idfa_7776721e-5ee6-4e61-8e80-793338e9223a,ko
_fYj9_-lRUaaLCL4RAK81Q,newborntown,p1767_38609869,install,1.5,221.161.71.101,39a45fc0-ea8e-4af4-8f87-d1764c0f8433,1559220195,2019-05-30 20:43:15,1559220319,2019-05-30 20:45:19,1559220349,1a19a3a6-51cc-444f-b130-ea623201e5ad__pspm,http://pspm.pingstart.com/api/v4/postback?from=1706&clickid=1a19a3a6-51cc-444f-b130-ea623201e5ad__pspm,idfa_39a45fc0-ea8e-4af4-8f87-d1764c0f8433,ko
_fYj9_-lRUaaLCL4RAK81Q,newborntown,p1767_38609869,install,1.5,211.215.192.149,4587ef58-ed0c-411b-a18c-2cc67aa9c85f,1559220077,2019-05-30 20:41:17,1559220178,2019-05-30 20:42:58,1559220209,8720f006-75e9-424c-84fb-c6c3005bb556__pspm,http://pspm.pingstart.com/api/v4/postback?from=1706&clickid=8720f006-75e9-424c-84fb-c6c3005bb556__pspm,idfa_4587ef58-ed0c-411b-a18c-2cc67aa9c85f,ko
_fYj9_-lRUaaLCL4RAK81Q,newborntown,p1767_38609869,install,1.5,180.134.228.100,d21a0c98-1bd6-4505-82a7-d94764b96fd0,1559220981,2019-05-30 20:56:21,1559221082,2019-05-30 20:58:02,1559221113,d373967e-dc9f-4dd2-8108-d286a7e21ddb__pspm,http://pspm.pingstart.com/api/v4/postback?from=1706&clickid=d373967e-dc9f-4dd2-8108-d286a7e21ddb__pspm,idfa_d21a0c98-1bd6-4505-82a7-d94764b96fd0,ko
_fYj9_-lRUaaLCL4RAK81Q,newborntown,p1767_38609869,install,1.5,106.102.1.148,3c93881d-8029-4a10-bd9c-981f4b228ee7,1559220139,2019-05-30 20:42:19,1559220242,2019-05-30 20:44:02,1559220275,f8039fbd-25f9-41a7-93ce-a6a772b530dd__pspm,http://pspm.pingstart.com/api/v4/postback?from=1706&clickid=f8039fbd-25f9-41a7-93ce-a6a772b530dd__pspm,idfa_3c93881d-8029-4a10-bd9c-981f4b228ee7,ko
_fYj9_-lRUaaLCL4RAK81Q,newborntown,p1767_38609869,install,1.5,218.157.37.160,fe8de427-1f3f-409b-b4f0-6ee25c5abedd,1559221165,2019-05-30 20:59:25,1559221269,2019-05-30 21:01:09,1559221300,7704457b-7b68-4fbc-86ce-1109b5f0e71b__pspm,http://pspm.pingstart.com/api/v4/postback?from=1706&clickid=7704457b-7b68-4fbc-86ce-1109b5f0e71b__pspm,idfa_fe8de427-1f3f-409b-b4f0-6ee25c5abedd,en
_fYj9_-lRUaaLCL4RAK81Q,newborntown,p1767_38609869,install,1.5,115.89.251.98,ae9385a1-aeac-430d-a8e8-c710e5f2fd30,1559220916,2019-05-30 20:55:16,1559221018,2019-05-30 20:56:58,1559221048,ff2c3115-0e9b-42a6-9e5e-59909dbb76fb__pspm,http://pspm.pingstart.com/api/v4/postback?from=1706&clickid=ff2c3115-0e9b-42a6-9e5e-59909dbb76fb__pspm,idfa_ae9385a1-aeac-430d-a8e8-c710e5f2fd30,en
_fYj9_-lRUaaLCL4RAK81Q,newborntown,p1767_38609869,install,1.5,211.246.68.241,093ce0d3-b7dc-4c1c-adcd-7a81bcdfa12f,1559221041,2019-05-30 20:57:21,1559221143,2019-05-30 20:59:03,1559221174,ca4b9cac-6bb8-4f00-a3be-3b7ddc66b9db__pspm,http://pspm.pingstart.com/api/v4/postback?from=1706&clickid=ca4b9cac-6bb8-4f00-a3be-3b7ddc66b9db__pspm,idfa_093ce0d3-b7dc-4c1c-adcd-7a81bcdfa12f,ko
_fYj9_-lRUaaLCL4RAK81Q,newborntown,p1767_38609869,install,1.5,125.186.201.180,6bafeb0c-8070-4fda-a16a-0f9811e164b5,1559220917,2019-05-30 20:55:17,1559221020,2019-05-30 20:57:00,1559221052,3b4739bb-2753-4c25-9b23-c1801e93b5eb__pspm,http://pspm.pingstart.com/api/v4/postback?from=1706&clickid=3b4739bb-2753-4c25-9b23-c1801e93b5eb__pspm,idfa_6bafeb0c-8070-4fda-a16a-0f9811e164b5,ko
_fYj9_-lRUaaLCL4RAK81Q,newborntown,p1767_38609869,install,1.5,223.39.140.142,9e13b269-c77d-44bb-bbd8-ffb0dfc61db4,1559220196,2019-05-30 20:43:16,1559220298,2019-05-30 20:44:58,1559220330,98974d9e-b72c-4635-95ad-ab6827a4b09a__pspm,http://pspm.pingstart.com/api/v4/postback?from=1706&clickid=98974d9e-b72c-4635-95ad-ab6827a4b09a__pspm,idfa_9e13b269-c77d-44bb-bbd8-ffb0dfc61db4,ko
_fYj9_-lRUaaLCL4RAK81Q,newborntown,p1767_38609869,install,1.5,1.245.179.48,15ae2353-7fb3-4ff0-b3f1-b18c2d4aae12,1559220397,2019-05-30 20:46:37,1559220602,2019-05-30 20:50:02,1559220634,9c0bbc65-e993-44aa-b2a9-30d2377154af__pspm,http://pspm.pingstart.com/api/v4/postback?from=1706&clickid=9c0bbc65-e993-44aa-b2a9-30d2377154af__pspm,idfa_15ae2353-7fb3-4ff0-b3f1-b18c2d4aae12,ko
_fYj9_-lRUaaLCL4RAK81Q,newborntown,p1767_38609869,install,1.5,223.33.180.17,98f37cc4-0019-4617-abdb-69aeeaeb3cbb,1559220138,2019-05-30 20:42:18,1559220241,2019-05-30 20:44:01,1559220272,53ede4cb-3724-4991-b6a9-b099f0168ac1__pspm,http://pspm.pingstart.com/api/v4/postback?from=1706&clickid=53ede4cb-3724-4991-b6a9-b099f0168ac1__pspm,idfa_98f37cc4-0019-4617-abdb-69aeeaeb3cbb,ko
_fYj9_-lRUaaLCL4RAK81Q,newborntown,p1767_38609869,install,1.5,218.236.237.173,dd7ed4ed-af65-4a80-918e-19e3608c904d,1559220860,2019-05-30 20:54:20,1559220962,2019-05-30 20:56:02,1559220993,ef3f6d99-1829-486d-94e3-d5b17e5294ee__pspm,http://pspm.pingstart.com/api/v4/postback?from=1706&clickid=ef3f6d99-1829-486d-94e3-d5b17e5294ee__pspm,idfa_dd7ed4ed-af65-4a80-918e-19e3608c904d,ko
_fYj9_-lRUaaLCL4RAK81Q,newborntown,p1767_38609869,install,1.5,119.195.228.149,07e805fe-4038-47d7-8f3d-9396f31e22db,1559221216,2019-05-30 21:00:16,1559221333,2019-05-30 21:02:13,1559221364,1192f8dd-042d-484d-a17b-9502258171f0__pspm,http://pspm.pingstart.com/api/v4/postback?from=1706&clickid=1192f8dd-042d-484d-a17b-9502258171f0__pspm,idfa_07e805fe-4038-47d7-8f3d-9396f31e22db,ko
_fYj9_-lRUaaLCL4RAK81Q,newborntown,p1767_38609869,install,1.5,121.164.240.70,e21367a2-90ab-4255-abc6-4ca6488ba39c,1559220082,2019-05-30 20:41:22,1559220241,2019-05-30 20:44:01,1559220271,52632875-36d0-4ab6-8203-f51df26631d8__pspm,http://pspm.pingstart.com/api/v4/postback?from=1706&clickid=52632875-36d0-4ab6-8203-f51df26631d8__pspm,idfa_e21367a2-90ab-4255-abc6-4ca6488ba39c,ko
_fYj9_-lRUaaLCL4RAK81Q,newborntown,p1767_38609869,install,1.5,115.22.143.11,1861648c-9adc-4f07-b6ec-aa59b13f36b1,1559220322,2019-05-30 20:45:22,1559220422,2019-05-30 20:47:02,1559220453,6d280021-7c60-4bd9-9cdb-a9664c09e733__pspm,http://pspm.pingstart.com/api/v4/postback?from=1706&clickid=6d280021-7c60-4bd9-9cdb-a9664c09e733__pspm,idfa_1861648c-9adc-4f07-b6ec-aa59b13f36b1,ko
_fYj9_-lRUaaLCL4RAK81Q,newborntown,p1767_38609869,install,1.5,121.171.161.70,addb5546-bb43-4093-8aa3-c8ffefc23037,1559221281,2019-05-30 21:01:21,1559221387,2019-05-30 21:03:07,1559221419,563bbf48-9ea3-4b6b-b364-3b2ddc8fecb2__pspm,http://pspm.pingstart.com/api/v4/postback?from=1706&clickid=563bbf48-9ea3-4b6b-b364-3b2ddc8fecb2__pspm,idfa_addb5546-bb43-4093-8aa3-c8ffefc23037,ko
_fYj9_-lRUaaLCL4RAK81Q,newborntown,p1767_38609869,install,1.5,211.206.159.122,224b765c-1fab-41b0-8598-178e6c33eb0c,1559220862,2019-05-30 20:54:22,1559220958,2019-05-30 20:55:58,1559220990,1c0d8d92-7fc0-4db5-856a-0d46bfdaee9b__pspm,http://pspm.pingstart.com/api/v4/postback?from=1706&clickid=1c0d8d92-7fc0-4db5-856a-0d46bfdaee9b__pspm,idfa_224b765c-1fab-41b0-8598-178e6c33eb0c,ko
_fYj9_-lRUaaLCL4RAK81Q,newborntown,p1767_38609869,install,1.5,211.201.103.162,26caee2e-b1f6-4926-990b-f7f2f90d3f3d,1559220682,2019-05-30 20:51:22,1559220784,2019-05-30 20:53:04,1559220816,9528441d-148d-45d5-8082-be4da6a9d523__pspm,http://pspm.pingstart.com/api/v4/postback?from=1706&clickid=9528441d-148d-45d5-8082-be4da6a9d523__pspm,idfa_26caee2e-b1f6-4926-990b-f7f2f90d3f3d,ko
_fYj9_-lRUaaLCL4RAK81Q,newborntown,p1767_38609869,install,1.5,119.203.78.210,3c417691-49bf-4104-8887-026ba41727fe,1559220977,2019-05-30 20:56:17,1559221080,2019-05-30 20:58:00,1559221111,4b86641c-7c88-448b-93d0-81df55af8877__pspm,http://pspm.pingstart.com/api/v4/postback?from=1706&clickid=4b86641c-7c88-448b-93d0-81df55af8877__pspm,idfa_3c417691-49bf-4104-8887-026ba41727fe,ko
_fYj9_-lRUaaLCL4RAK81Q,newborntown,p1767_38609869,install,1.5,180.224.254.206,652497f0-f372-49b3-8136-243eb72a6441,1559220340,2019-05-30 20:45:40,1559221291,2019-05-30 21:01:31,1559221322,c65d2607-8bdc-4cce-967a-b33d990c304e__pspm,http://pspm.pingstart.com/api/v4/postback?from=1706&clickid=c65d2607-8bdc-4cce-967a-b33d990c304e__pspm,idfa_652497f0-f372-49b3-8136-243eb72a6441,ko
_fYj9_-lRUaaLCL4RAK81Q,newborntown,p1767_38609869,install,1.5,175.116.187.131,50051d44-37f4-422f-b450-86cdffc9d805,1559220140,2019-05-30 20:42:20,1559220241,2019-05-30 20:44:01,1559220271,591751bb-2058-458f-bf3e-da9294981e54__pspm,http://pspm.pingstart.com/api/v4/postback?from=1706&clickid=591751bb-2058-458f-bf3e-da9294981e54__pspm,idfa_50051d44-37f4-422f-b450-86cdffc9d805,ko
