cid,partner_id,channel_id,action_id,cpi,ip,idfa,click time,click datetime,install time,install datetime,postback time,click id,postback url,unique user id
blk7UXe-TK2JgRVyys6HTg,newborntown,p1789_966-1030_3046_,Install,2.4,180.6.243.209,,1558923560,2019-05-27 10:19:20,1558923614,2019-05-27 10:20:14,1558923644,9fac0d9e-039e-4285-a3b3-592cbfc2db86__pspm,http://pspm.pingstart.com/api/v4/postback?from=1706&clickid=9fac0d9e-039e-4285-a3b3-592cbfc2db86__pspm,ip_180.6.243.209,ja
blk7UXe-TK2JgRVyys6HTg,newborntown,p1789_966-1030_3046_,Install,2.4,143.189.200.82,9EB9F059-B63D-4BFF-BA9D-A4443A46AE5F,1558923440,2019-05-27 10:17:20,1558923487,2019-05-27 10:18:07,1558923517,01e44b1b-5483-4a6c-821c-c7f14cab61f4__pspm,http://pspm.pingstart.com/api/v4/postback?from=1706&clickid=01e44b1b-5483-4a6c-821c-c7f14cab61f4__pspm,idfa_9EB9F059-B63D-4BFF-BA9D-A4443A46AE5F,ja
blk7UXe-TK2JgRVyys6HTg,newborntown,p1789_966-1030_3046_,Install,2.4,126.77.17.48,C00D9D9E-8551-43A3-9C8D-4FBD559CCCD2,1558923269,2019-05-27 10:14:29,1558923319,2019-05-27 10:15:19,1558923349,81cd65a1-f796-4d6d-beb1-ad76498dadbd__pspm,http://pspm.pingstart.com/api/v4/postback?from=1706&clickid=81cd65a1-f796-4d6d-beb1-ad76498dadbd__pspm,idfa_C00D9D9E-8551-43A3-9C8D-4FBD559CCCD2,ja
blk7UXe-TK2JgRVyys6HTg,newborntown,p1789_966-1030_3046_,Install,2.4,180.199.210.70,5CA46CA7-C31A-4B1A-A28C-652D6DEDB9BD,1558923103,2019-05-27 10:11:43,1558923157,2019-05-27 10:12:37,1558923187,dc6891df-771c-44ba-985f-b026e1aed929__pspm,http://pspm.pingstart.com/api/v4/postback?from=1706&clickid=dc6891df-771c-44ba-985f-b026e1aed929__pspm,idfa_5CA46CA7-C31A-4B1A-A28C-652D6DEDB9BD,ja
blk7UXe-TK2JgRVyys6HTg,newborntown,p1789_966-1030_3046_,Install,2.4,126.115.227.122,2030E1BD-475C-4861-90A9-91686BC02B33,1558923307,2019-05-27 10:15:07,1558923357,2019-05-27 10:15:57,1558923387,bb0bbb07-07c2-4916-8c52-535b93d3346b__pspm,http://pspm.pingstart.com/api/v4/postback?from=1706&clickid=bb0bbb07-07c2-4916-8c52-535b93d3346b__pspm,idfa_2030E1BD-475C-4861-90A9-91686BC02B33,ja
blk7UXe-TK2JgRVyys6HTg,newborntown,p1789_966-1030_3046_,Install,2.4,118.241.103.62,4A3A92C0-E657-4B0C-BE80-27CA1CB822AE,1558923232,2019-05-27 10:13:52,1558923291,2019-05-27 10:14:51,1558923321,88518add-3108-4319-a602-83c36c72eb9b__pspm,http://pspm.pingstart.com/api/v4/postback?from=1706&clickid=88518add-3108-4319-a602-83c36c72eb9b__pspm,idfa_4A3A92C0-E657-4B0C-BE80-27CA1CB822AE,ja
blk7UXe-TK2JgRVyys6HTg,newborntown,p1789_966-1030_3046_,Install,2.4,203.136.27.120,60440CA9-7A18-4B27-AD7A-F3DD5C580F18,1558923908,2019-05-27 10:25:08,1558923959,2019-05-27 10:25:59,1558923989,91802e04-0a1e-4873-ac1b-cde38935a2a7__pspm,http://pspm.pingstart.com/api/v4/postback?from=1706&clickid=91802e04-0a1e-4873-ac1b-cde38935a2a7__pspm,idfa_60440CA9-7A18-4B27-AD7A-F3DD5C580F18,ja
blk7UXe-TK2JgRVyys6HTg,newborntown,p1789_966-1030_3046_,Install,2.4,27.81.89.126,3D64A772-EB1C-4422-B0AD-576E6ACBDC40,1558924108,2019-05-27 10:28:28,1558924161,2019-05-27 10:29:21,1558924192,f4117f57-0e9d-4071-b690-97842b009ccf__pspm,http://pspm.pingstart.com/api/v4/postback?from=1706&clickid=f4117f57-0e9d-4071-b690-97842b009ccf__pspm,idfa_3D64A772-EB1C-4422-B0AD-576E6ACBDC40,ja
blk7UXe-TK2JgRVyys6HTg,newborntown,p1789_966-1030_3046_,Install,2.4,123.198.233.108,0D7E46D3-596A-451E-BA05-8E8FD64CA73B,1558922826,2019-05-27 10:07:06,1558922874,2019-05-27 10:07:54,1558922904,97e852a5-8bb0-4be3-a236-340481c7b90f__pspm,http://pspm.pingstart.com/api/v4/postback?from=1706&clickid=97e852a5-8bb0-4be3-a236-340481c7b90f__pspm,idfa_0D7E46D3-596A-451E-BA05-8E8FD64CA73B,ja
blk7UXe-TK2JgRVyys6HTg,newborntown,p1789_966-1030_3046_,Install,2.4,59.138.68.139,AC40AE90-1EB4-4236-9D8D-B0B9958AB45D,1558923505,2019-05-27 10:18:25,1558923601,2019-05-27 10:20:01,1558923631,cd231ee2-7267-41be-a1e5-e08db4d2253a__pspm,http://pspm.pingstart.com/api/v4/postback?from=1706&clickid=cd231ee2-7267-41be-a1e5-e08db4d2253a__pspm,idfa_AC40AE90-1EB4-4236-9D8D-B0B9958AB45D,ja
blk7UXe-TK2JgRVyys6HTg,newborntown,p1789_966-1030_3046_,Install,2.4,119.170.46.184,197115CA-B1C1-44AF-8416-C83908B24921,1558923826,2019-05-27 10:23:46,1558923874,2019-05-27 10:24:34,1558923905,e8dad7c6-78ae-47aa-bf81-8a032452222f__pspm,http://pspm.pingstart.com/api/v4/postback?from=1706&clickid=e8dad7c6-78ae-47aa-bf81-8a032452222f__pspm,idfa_197115CA-B1C1-44AF-8416-C83908B24921,ja
blk7UXe-TK2JgRVyys6HTg,newborntown,p1789_966-1030_3046_,Install,2.4,27.82.202.111,1E330010-6E43-45DC-8AD0-5B3A7DA3EFA7,1558923966,2019-05-27 10:26:06,1558924011,2019-05-27 10:26:51,1558924042,de36dff9-0aa0-4cd0-8c2f-f83cdaa1b463__pspm,http://pspm.pingstart.com/api/v4/postback?from=1706&clickid=de36dff9-0aa0-4cd0-8c2f-f83cdaa1b463__pspm,idfa_1E330010-6E43-45DC-8AD0-5B3A7DA3EFA7,ja
blk7UXe-TK2JgRVyys6HTg,newborntown,p1789_966-1030_3046_,Install,2.4,126.66.105.172,03AB03F5-C22A-4FCF-83AD-42285468409C,1558922604,2019-05-27 10:03:24,1558922661,2019-05-27 10:04:21,1558922691,3e939955-a428-4f04-913a-af71ee9976eb__pspm,http://pspm.pingstart.com/api/v4/postback?from=1706&clickid=3e939955-a428-4f04-913a-af71ee9976eb__pspm,idfa_03AB03F5-C22A-4FCF-83AD-42285468409C,ja
blk7UXe-TK2JgRVyys6HTg,newborntown,p1789_966-1030_3046_,Install,2.4,180.6.243.209,5C770760-C20F-4909-B0C5-A0F342A7F138,1558923435,2019-05-27 10:17:15,1558923490,2019-05-27 10:18:10,1558923520,a7a49e53-8fc2-4a03-a187-1b0ce2cc95a4__pspm,http://pspm.pingstart.com/api/v4/postback?from=1706&clickid=a7a49e53-8fc2-4a03-a187-1b0ce2cc95a4__pspm,idfa_5C770760-C20F-4909-B0C5-A0F342A7F138,ja
blk7UXe-TK2JgRVyys6HTg,newborntown,p1789_966-1030_3046_,Install,2.4,143.189.200.82,76A11F1D-FF67-43F5-9644-6320604604D2,1558923566,2019-05-27 10:19:26,1558923616,2019-05-27 10:20:16,1558923646,4b2fe785-1658-4a6d-a621-786050d3aa16__pspm,http://pspm.pingstart.com/api/v4/postback?from=1706&clickid=4b2fe785-1658-4a6d-a621-786050d3aa16__pspm,idfa_76A11F1D-FF67-43F5-9644-6320604604D2,ja
blk7UXe-TK2JgRVyys6HTg,newborntown,p1789_966-1030_3046_,Install,2.4,211.132.97.33,1F266383-BFD4-4F49-8CEC-741BB0246685,1558924099,2019-05-27 10:28:19,1558924153,2019-05-27 10:29:13,1558924183,e6897597-b26a-4f65-80c8-8a61b1e0acde__pspm,http://pspm.pingstart.com/api/v4/postback?from=1706&clickid=e6897597-b26a-4f65-80c8-8a61b1e0acde__pspm,idfa_1F266383-BFD4-4F49-8CEC-741BB0246685,ja
blk7UXe-TK2JgRVyys6HTg,newborntown,p1789_966-1030_3046_,Install,2.4,114.142.59.243,7C246B36-CA60-4E51-8FA1-C6AB87AD3645,1558923837,2019-05-27 10:23:57,1558923884,2019-05-27 10:24:44,1558923914,9400a9da-133e-4376-a5eb-346f0422d807__pspm,http://pspm.pingstart.com/api/v4/postback?from=1706&clickid=9400a9da-133e-4376-a5eb-346f0422d807__pspm,idfa_7C246B36-CA60-4E51-8FA1-C6AB87AD3645,ja
blk7UXe-TK2JgRVyys6HTg,newborntown,p1789_966-1030_3046_,Install,2.4,218.42.200.187,4CDE7765-C70A-47F4-9F43-B330068A0735,1558923818,2019-05-27 10:23:38,1558923868,2019-05-27 10:24:28,1558923898,1b18d095-c63a-41f4-8d5f-a6dc604b8fa0__pspm,http://pspm.pingstart.com/api/v4/postback?from=1706&clickid=1b18d095-c63a-41f4-8d5f-a6dc604b8fa0__pspm,idfa_4CDE7765-C70A-47F4-9F43-B330068A0735,ja
blk7UXe-TK2JgRVyys6HTg,newborntown,p1789_966-1030_3046_,Install,2.4,218.251.126.228,29D7904A-F6D2-4407-8A5D-C213DDD31C62,1558924078,2019-05-27 10:27:58,1558924130,2019-05-27 10:28:50,1558924160,64e92a1b-1c6b-426e-8374-b7af6b8fe7f8__pspm,http://pspm.pingstart.com/api/v4/postback?from=1706&clickid=64e92a1b-1c6b-426e-8374-b7af6b8fe7f8__pspm,idfa_29D7904A-F6D2-4407-8A5D-C213DDD31C62,ja
blk7UXe-TK2JgRVyys6HTg,newborntown,p1789_966-1030_3046_,Install,2.4,126.115.227.122,,1558923168,2019-05-27 10:12:48,1558923219,2019-05-27 10:13:39,1558923249,d6754624-d910-43b8-b6bd-50a49907ee25__pspm,http://pspm.pingstart.com/api/v4/postback?from=1706&clickid=d6754624-d910-43b8-b6bd-50a49907ee25__pspm,ip_126.115.227.122,ja
blk7UXe-TK2JgRVyys6HTg,newborntown,p1789_966-1030_3046_,Install,2.4,124.150.215.33,04F9DB16-4DDB-4EAD-89E9-34FBB8007184,1558923821,2019-05-27 10:23:41,1558923872,2019-05-27 10:24:32,1558923902,895ffeab-b993-496c-8b5e-273d2ba6a3e6__pspm,http://pspm.pingstart.com/api/v4/postback?from=1706&clickid=895ffeab-b993-496c-8b5e-273d2ba6a3e6__pspm,idfa_04F9DB16-4DDB-4EAD-89E9-34FBB8007184,ja
blk7UXe-TK2JgRVyys6HTg,newborntown,p1789_966-1030_3046_,Install,2.4,133.130.210.53,CFBC078D-9ADE-4B80-A29D-00525AD1F109,1558924044,2019-05-27 10:27:24,1558924091,2019-05-27 10:28:11,1558924122,09914369-0285-43ec-9fe1-733ed1710bb3__pspm,http://pspm.pingstart.com/api/v4/postback?from=1706&clickid=09914369-0285-43ec-9fe1-733ed1710bb3__pspm,idfa_CFBC078D-9ADE-4B80-A29D-00525AD1F109,ja
blk7UXe-TK2JgRVyys6HTg,newborntown,p1789_966-1030_3046_,Install,2.4,219.125.226.169,7E7C3A0A-7200-4A8A-957D-C437723D9412,1558923680,2019-05-27 10:21:20,1558923731,2019-05-27 10:22:11,1558923761,8ea815b3-5fce-459d-8983-7f1c3e624586__pspm,http://pspm.pingstart.com/api/v4/postback?from=1706&clickid=8ea815b3-5fce-459d-8983-7f1c3e624586__pspm,idfa_7E7C3A0A-7200-4A8A-957D-C437723D9412,ja
blk7UXe-TK2JgRVyys6HTg,newborntown,p1789_966-1030_3046_,Install,2.4,220.100.56.82,8F8E8C2D-82AB-4C15-AD86-A1B728126729,1558923642,2019-05-27 10:20:42,1558923698,2019-05-27 10:21:38,1558923729,b6e672f2-f591-452b-a151-3eb39f513032__pspm,http://pspm.pingstart.com/api/v4/postback?from=1706&clickid=b6e672f2-f591-452b-a151-3eb39f513032__pspm,idfa_8F8E8C2D-82AB-4C15-AD86-A1B728126729,ja
blk7UXe-TK2JgRVyys6HTg,newborntown,p1789_966-1030_3046_,Install,2.4,118.241.103.62,B564CEC9-6843-4AE1-A31D-904650865AA7,1558923091,2019-05-27 10:11:31,1558923139,2019-05-27 10:12:19,1558923169,7fb6ab1b-2caa-410b-8b3b-a120e442a478__pspm,http://pspm.pingstart.com/api/v4/postback?from=1706&clickid=7fb6ab1b-2caa-410b-8b3b-a120e442a478__pspm,idfa_B564CEC9-6843-4AE1-A31D-904650865AA7,ja
blk7UXe-TK2JgRVyys6HTg,newborntown,p1789_966-1030_3046_,Install,2.4,133.130.210.53,D3D75DAE-B111-44BB-AED1-58BD46A44D43,1558924180,2019-05-27 10:29:40,1558924228,2019-05-27 10:30:28,1558924258,36415791-8cb5-4ca0-9c4a-26b9ca711a43__pspm,http://pspm.pingstart.com/api/v4/postback?from=1706&clickid=36415791-8cb5-4ca0-9c4a-26b9ca711a43__pspm,idfa_D3D75DAE-B111-44BB-AED1-58BD46A44D43,ja
blk7UXe-TK2JgRVyys6HTg,newborntown,p1789_966-1030_3046_,Install,2.4,116.220.33.131,ECB1FC29-A285-4291-B827-87C090B878AB,1558924075,2019-05-27 10:27:55,1558924126,2019-05-27 10:28:46,1558924156,afb37c3c-0e20-41a9-934f-813fbff09b52__pspm,http://pspm.pingstart.com/api/v4/postback?from=1706&clickid=afb37c3c-0e20-41a9-934f-813fbff09b52__pspm,idfa_ECB1FC29-A285-4291-B827-87C090B878AB,ja
blk7UXe-TK2JgRVyys6HTg,newborntown,p1789_966-1030_3046_,Install,2.4,219.125.226.169,2ECB0E8B-F3FA-4FFB-8425-84B6A4AAEB4C,1558923545,2019-05-27 10:19:05,1558923598,2019-05-27 10:19:58,1558923628,e054c0f1-b45a-4d1e-a9bb-a1c1da85b8e7__pspm,http://pspm.pingstart.com/api/v4/postback?from=1706&clickid=e054c0f1-b45a-4d1e-a9bb-a1c1da85b8e7__pspm,idfa_2ECB0E8B-F3FA-4FFB-8425-84B6A4AAEB4C,ja
blk7UXe-TK2JgRVyys6HTg,newborntown,p1789_966-1030_3046_,Install,2.4,14.8.35.128,38167F36-3B71-42A5-9369-A2052B1DE697,1558922863,2019-05-27 10:07:43,1558922913,2019-05-27 10:08:33,1558922944,f84a16b2-feee-4173-a0fb-05f1902fa141__pspm,http://pspm.pingstart.com/api/v4/postback?from=1706&clickid=f84a16b2-feee-4173-a0fb-05f1902fa141__pspm,idfa_38167F36-3B71-42A5-9369-A2052B1DE697,ja
blk7UXe-TK2JgRVyys6HTg,newborntown,p1789_966-1030_3046_,Install,2.4,182.165.28.189,09F5F295-DA38-4749-BC2C-2990455C6601,1558923789,2019-05-27 10:23:09,1558923847,2019-05-27 10:24:07,1558923879,ea440928-ca70-4e85-9467-986f4da3206a__pspm,http://pspm.pingstart.com/api/v4/postback?from=1706&clickid=ea440928-ca70-4e85-9467-986f4da3206a__pspm,idfa_09F5F295-DA38-4749-BC2C-2990455C6601,ja
blk7UXe-TK2JgRVyys6HTg,newborntown,p1789_966-1030_3046_,Install,2.4,124.150.215.33,358ED11D-3B07-4959-8BF7-BFFDB6F3C1A8,1558923960,2019-05-27 10:26:00,1558924016,2019-05-27 10:26:56,1558924046,2a40b796-cb44-49af-bf3b-40bc25b77250__pspm,http://pspm.pingstart.com/api/v4/postback?from=1706&clickid=2a40b796-cb44-49af-bf3b-40bc25b77250__pspm,idfa_358ED11D-3B07-4959-8BF7-BFFDB6F3C1A8,ja
blk7UXe-TK2JgRVyys6HTg,newborntown,p1789_966-1030_3046_,Install,2.4,126.235.107.124,5C8763F3-AAC9-49E2-AF53-AB557312B6A1,1558923574,2019-05-27 10:19:34,1558923626,2019-05-27 10:20:26,1558923656,69d05d18-aad1-4990-b503-423d84a8782f__pspm,http://pspm.pingstart.com/api/v4/postback?from=1706&clickid=69d05d18-aad1-4990-b503-423d84a8782f__pspm,idfa_5C8763F3-AAC9-49E2-AF53-AB557312B6A1,ja
blk7UXe-TK2JgRVyys6HTg,newborntown,p1789_966-1030_3046_,Install,2.4,220.100.56.82,C315F755-1A33-48C3-9BB4-2277338D528D,1558923499,2019-05-27 10:18:19,1558923552,2019-05-27 10:19:12,1558923582,9e35d87e-8750-4340-b6eb-64aaf01d2696__pspm,http://pspm.pingstart.com/api/v4/postback?from=1706&clickid=9e35d87e-8750-4340-b6eb-64aaf01d2696__pspm,idfa_C315F755-1A33-48C3-9BB4-2277338D528D,ja
blk7UXe-TK2JgRVyys6HTg,newborntown,p1789_966-1030_3046_,Install,2.4,182.165.28.189,3E99A091-3029-492A-8092-A438E83C6841,1558923936,2019-05-27 10:25:36,1558923993,2019-05-27 10:26:33,1558924023,ebfa2534-d49e-4a91-8ab2-981fd5d1562d__pspm,http://pspm.pingstart.com/api/v4/postback?from=1706&clickid=ebfa2534-d49e-4a91-8ab2-981fd5d1562d__pspm,idfa_3E99A091-3029-492A-8092-A438E83C6841,ja
blk7UXe-TK2JgRVyys6HTg,newborntown,p1789_966-1030_3046_,Install,2.4,180.199.210.70,4B0B9312-1386-4124-B721-123AE5EB2DAB,1558923236,2019-05-27 10:13:56,1558923286,2019-05-27 10:14:46,1558923316,ed97b6ec-03d7-4ed6-b5fe-7790de3d8036__pspm,http://pspm.pingstart.com/api/v4/postback?from=1706&clickid=ed97b6ec-03d7-4ed6-b5fe-7790de3d8036__pspm,idfa_4B0B9312-1386-4124-B721-123AE5EB2DAB,ja
blk7UXe-TK2JgRVyys6HTg,newborntown,p1789_966-1030_3046_,Install,2.4,14.8.35.128,3DAD8308-31ED-462C-B2C0-6158ADD34F7C,1558922994,2019-05-27 10:09:54,1558923046,2019-05-27 10:10:46,1558923076,629c2aa8-d8d0-4b06-816f-afacf8c80c29__pspm,http://pspm.pingstart.com/api/v4/postback?from=1706&clickid=629c2aa8-d8d0-4b06-816f-afacf8c80c29__pspm,idfa_3DAD8308-31ED-462C-B2C0-6158ADD34F7C,ja
blk7UXe-TK2JgRVyys6HTg,newborntown,p1789_966-1030_3046_,Install,2.4,126.235.107.124,481504B7-65C0-43ED-9A1C-FF9FABB3C324,1558923433,2019-05-27 10:17:13,1558923488,2019-05-27 10:18:08,1558923518,d3e1b277-c105-4288-889a-474a69e8655f__pspm,http://pspm.pingstart.com/api/v4/postback?from=1706&clickid=d3e1b277-c105-4288-889a-474a69e8655f__pspm,idfa_481504B7-65C0-43ED-9A1C-FF9FABB3C324,ja
blk7UXe-TK2JgRVyys6HTg,newborntown,p1789_966-1030_3046_,Install,2.4,203.136.27.120,91C5CB69-949A-4E4D-AA40-482C5BEEAA83,1558923754,2019-05-27 10:22:34,1558923805,2019-05-27 10:23:25,1558923835,7a59aaa4-af77-4431-abe8-762b1d711c65__pspm,http://pspm.pingstart.com/api/v4/postback?from=1706&clickid=7a59aaa4-af77-4431-abe8-762b1d711c65__pspm,idfa_91C5CB69-949A-4E4D-AA40-482C5BEEAA83,ja
blk7UXe-TK2JgRVyys6HTg,newborntown,p1789_966-1030_3046_,Install,2.4,114.186.114.192,231DCB4F-1F77-46FF-BA7A-1B2F535C94C5,1558922602,2019-05-27 10:03:22,1558922740,2019-05-27 10:05:40,1558922770,fc1fb19d-ed58-4144-b2c5-759254391a5f__pspm,http://pspm.pingstart.com/api/v4/postback?from=1706&clickid=fc1fb19d-ed58-4144-b2c5-759254391a5f__pspm,idfa_231DCB4F-1F77-46FF-BA7A-1B2F535C94C5,ja
blk7UXe-TK2JgRVyys6HTg,newborntown,p1789_966-1030_3046_,Install,2.4,123.198.233.108,22FB82ED-9990-40B0-A3D9-C86690521A35,1558922958,2019-05-27 10:09:18,1558923009,2019-05-27 10:10:09,1558923040,80295362-04d0-426b-85dc-65912a5016ef__pspm,http://pspm.pingstart.com/api/v4/postback?from=1706&clickid=80295362-04d0-426b-85dc-65912a5016ef__pspm,idfa_22FB82ED-9990-40B0-A3D9-C86690521A35,ja
blk7UXe-TK2JgRVyys6HTg,newborntown,p1789_966-1030_3046_,Install,2.4,126.77.17.48,4290C4FC-D24C-4835-80B5-DF20DFD5EB44,1558923402,2019-05-27 10:16:42,1558923454,2019-05-27 10:17:34,1558923484,5bcdd9be-4174-4c3d-b927-feb827359b20__pspm,http://pspm.pingstart.com/api/v4/postback?from=1706&clickid=5bcdd9be-4174-4c3d-b927-feb827359b20__pspm,idfa_4290C4FC-D24C-4835-80B5-DF20DFD5EB44,ja
blk7UXe-TK2JgRVyys6HTg,newborntown,p1789_966-1030_3046_,Install,2.4,118.243.140.9,9908CBAB-8164-4227-A869-B7590A13F6A3,1558922598,2019-05-27 10:03:18,1558922652,2019-05-27 10:04:12,1558922682,2bd5f142-4d49-43e0-8254-3d7960e4d243__pspm,http://pspm.pingstart.com/api/v4/postback?from=1706&clickid=2bd5f142-4d49-43e0-8254-3d7960e4d243__pspm,idfa_9908CBAB-8164-4227-A869-B7590A13F6A3,ja
blk7UXe-TK2JgRVyys6HTg,newborntown,p1789_966-1030_3046_,Install,2.4,110.233.39.143,B5F00C93-B866-466B-BB2A-F93621B4FFA1,1558922597,2019-05-27 10:03:17,1558922651,2019-05-27 10:04:11,1558922681,253aa510-cc17-43bb-ad4a-bfa1d6d286d0__pspm,http://pspm.pingstart.com/api/v4/postback?from=1706&clickid=253aa510-cc17-43bb-ad4a-bfa1d6d286d0__pspm,idfa_B5F00C93-B866-466B-BB2A-F93621B4FFA1,ja
blk7UXe-TK2JgRVyys6HTg,newborntown,p1789_966-1030_3046_,Install,2.4,114.142.59.243,BB1A8E7F-596D-45B2-9272-67592A3B492C,1558923969,2019-05-27 10:26:09,1558924020,2019-05-27 10:27:00,1558924051,07031b58-c2e4-4741-a8d5-b09a2a06802b__pspm,http://pspm.pingstart.com/api/v4/postback?from=1706&clickid=07031b58-c2e4-4741-a8d5-b09a2a06802b__pspm,idfa_BB1A8E7F-596D-45B2-9272-67592A3B492C,ja
blk7UXe-TK2JgRVyys6HTg,newborntown,p1789_966-1030_3046_,Install,2.4,119.170.46.184,B128E5B6-29F0-4702-BC74-7F2131FD379B,1558923950,2019-05-27 10:25:50,1558924001,2019-05-27 10:26:41,1558924031,1ada9208-5b14-47da-a298-8d70d00b4a10__pspm,http://pspm.pingstart.com/api/v4/postback?from=1706&clickid=1ada9208-5b14-47da-a298-8d70d00b4a10__pspm,idfa_B128E5B6-29F0-4702-BC74-7F2131FD379B,ja
