cid,partner_id,channel_id,action_id,cpi,ip,idfa,click time,click datetime,install time,install datetime,postback time,click id,postback url,unique user id
efzDHeOpRFOUNrxEb-h-XQ,newborntown,p1839_11_36_7_741-10529741,Install,1.8,220.76.203.140,429E5C26-D546-4B36-8373-1498A88A8CCF,1559090482,2019-05-29 08:41:22,1559090546,2019-05-29 08:42:26,1559090577,94650833-92c3-422d-ac4d-a644de4ed442__pspm,http://pspm.pingstart.com/api/v4/postback?from=1706&clickid=94650833-92c3-422d-ac4d-a644de4ed442__pspm,idfa_429E5C26-D546-4B36-8373-1498A88A8CCF,ko-KR
efzDHeOpRFOUNrxEb-h-XQ,newborntown,p1839_11_36_7_741-10529741,Install,1.8,125.143.229.253,1A4817D0-BA18-4CD3-83F2-0A708E390B97,1559089521,2019-05-29 08:25:21,1559089581,2019-05-29 08:26:21,1559089612,7ae028c3-77dc-4069-8a04-647a70a16b0b__pspm,http://pspm.pingstart.com/api/v4/postback?from=1706&clickid=7ae028c3-77dc-4069-8a04-647a70a16b0b__pspm,idfa_1A4817D0-BA18-4CD3-83F2-0A708E390B97,ko-KR
efzDHeOpRFOUNrxEb-h-XQ,newborntown,p1839_11_36_7_741-10529741,Install,1.8,183.98.233.92,96DE3DCC-0EC6-4599-84EF-4D33FA69550D,1559090444,2019-05-29 08:40:44,1559090514,2019-05-29 08:41:54,1559090544,85d88fa5-fd95-4292-9d0b-4895547be2e5__pspm,http://pspm.pingstart.com/api/v4/postback?from=1706&clickid=85d88fa5-fd95-4292-9d0b-4895547be2e5__pspm,idfa_96DE3DCC-0EC6-4599-84EF-4D33FA69550D,ko-KR
efzDHeOpRFOUNrxEb-h-XQ,newborntown,p1839_11_36_7_741-10529741,Install,1.8,116.120.58.199,D67067BD-80DA-415C-8EF3-D6723E7E7C59,1559089257,2019-05-29 08:20:57,1559089322,2019-05-29 08:22:02,1559089353,61791eb9-8853-4050-9c39-caf063bae72c__pspm,http://pspm.pingstart.com/api/v4/postback?from=1706&clickid=61791eb9-8853-4050-9c39-caf063bae72c__pspm,idfa_D67067BD-80DA-415C-8EF3-D6723E7E7C59,ko-KR
efzDHeOpRFOUNrxEb-h-XQ,newborntown,p1839_11_36_7_741-10529741,Install,1.8,58.225.75.222,A8B91F54-AD91-406D-926D-81EB3C8A6871,1559089657,2019-05-29 08:27:37,1559089719,2019-05-29 08:28:39,1559089750,8bac56fd-2e77-44a2-bac4-8b1fb7df78f7__pspm,http://pspm.pingstart.com/api/v4/postback?from=1706&clickid=8bac56fd-2e77-44a2-bac4-8b1fb7df78f7__pspm,idfa_A8B91F54-AD91-406D-926D-81EB3C8A6871,ko-KR
efzDHeOpRFOUNrxEb-h-XQ,newborntown,p1839_11_36_7_741-10529741,Install,1.8,114.30.203.253,EA741770-35F0-4BF9-AE35-F71E09C3D8A3,1559089014,2019-05-29 08:16:54,1559089078,2019-05-29 08:17:58,1559089109,8814e1be-167c-49ae-9655-5f449385201c__pspm,http://pspm.pingstart.com/api/v4/postback?from=1706&clickid=8814e1be-167c-49ae-9655-5f449385201c__pspm,idfa_EA741770-35F0-4BF9-AE35-F71E09C3D8A3,ko-KR
efzDHeOpRFOUNrxEb-h-XQ,newborntown,p1839_11_36_7_741-10529741,Install,1.8,220.76.251.168,151C3218-B471-4306-9EC6-F9CF3AD109A9,1559090402,2019-05-29 08:40:02,1559090472,2019-05-29 08:41:12,1559090502,dfb17b73-a669-4fd7-b346-098022785ab5__pspm,http://pspm.pingstart.com/api/v4/postback?from=1706&clickid=dfb17b73-a669-4fd7-b346-098022785ab5__pspm,idfa_151C3218-B471-4306-9EC6-F9CF3AD109A9,ko-KR
efzDHeOpRFOUNrxEb-h-XQ,newborntown,p1839_11_36_7_741-10529741,Install,1.8,14.48.200.83,2439C61B-DC46-4F0E-AB19-2646A5383D55,1559089509,2019-05-29 08:25:09,1559089569,2019-05-29 08:26:09,1559089600,1417766a-e669-4812-9340-f4421d3ea6df__pspm,http://pspm.pingstart.com/api/v4/postback?from=1706&clickid=1417766a-e669-4812-9340-f4421d3ea6df__pspm,idfa_2439C61B-DC46-4F0E-AB19-2646A5383D55,ko-KR
efzDHeOpRFOUNrxEb-h-XQ,newborntown,p1839_11_36_7_741-10529741,Install,1.8,218.144.17.223,34035BAE-240C-4541-8DDF-2963A7920EE4,1559090194,2019-05-29 08:36:34,1559090261,2019-05-29 08:37:41,1559090292,f7b5cbf2-3724-4fa3-b869-43f02e1e8340__pspm,http://pspm.pingstart.com/api/v4/postback?from=1706&clickid=f7b5cbf2-3724-4fa3-b869-43f02e1e8340__pspm,idfa_34035BAE-240C-4541-8DDF-2963A7920EE4,ko-KR
efzDHeOpRFOUNrxEb-h-XQ,newborntown,p1839_11_36_7_741-10529741,Install,1.8,211.182.112.240,F291034E-7072-47DB-84E6-A6E25F72493B,1559090922,2019-05-29 08:48:42,1559090980,2019-05-29 08:49:40,1559091011,6d6a564d-afcb-4509-9b7b-e24a50708252__pspm,http://pspm.pingstart.com/api/v4/postback?from=1706&clickid=6d6a564d-afcb-4509-9b7b-e24a50708252__pspm,idfa_F291034E-7072-47DB-84E6-A6E25F72493B,ko-KR
efzDHeOpRFOUNrxEb-h-XQ,newborntown,p1839_11_36_7_741-10529741,Install,1.8,121.151.86.155,56C6103B-5BAA-4A1C-B249-43ADDEC57038,1559089013,2019-05-29 08:16:53,1559089069,2019-05-29 08:17:49,1559089100,05d601b3-5a1f-4c1a-94f3-5e934602f5af__pspm,http://pspm.pingstart.com/api/v4/postback?from=1706&clickid=05d601b3-5a1f-4c1a-94f3-5e934602f5af__pspm,idfa_56C6103B-5BAA-4A1C-B249-43ADDEC57038,ko-KR
efzDHeOpRFOUNrxEb-h-XQ,newborntown,p1839_11_36_7_741-10529741,Install,1.8,222.108.143.193,B0E445BA-A290-4A65-82EC-3BDEF0BE3BC1,1559090417,2019-05-29 08:40:17,1559090484,2019-05-29 08:41:24,1559090515,6399f595-956f-44eb-a269-a9de2109c429__pspm,http://pspm.pingstart.com/api/v4/postback?from=1706&clickid=6399f595-956f-44eb-a269-a9de2109c429__pspm,idfa_B0E445BA-A290-4A65-82EC-3BDEF0BE3BC1,ko-KR
efzDHeOpRFOUNrxEb-h-XQ,newborntown,p1839_11_36_7_741-10529741,Install,1.8,58.225.75.222,050DE0B8-7557-4079-8569-504D0675EEC7,1559089646,2019-05-29 08:27:26,1559089702,2019-05-29 08:28:22,1559089732,3f2d8d2e-2221-4611-baaa-87d6caa91067__pspm,http://pspm.pingstart.com/api/v4/postback?from=1706&clickid=3f2d8d2e-2221-4611-baaa-87d6caa91067__pspm,idfa_050DE0B8-7557-4079-8569-504D0675EEC7,ko-KR
efzDHeOpRFOUNrxEb-h-XQ,newborntown,p1839_11_36_7_741-10529741,Install,1.8,180.70.220.13,657D44B1-39ED-45B3-BC71-748574DC8E65,1559089490,2019-05-29 08:24:50,1559089547,2019-05-29 08:25:47,1559089577,f1c18cc6-d871-4d2d-8692-bc835f6dc87a__pspm,http://pspm.pingstart.com/api/v4/postback?from=1706&clickid=f1c18cc6-d871-4d2d-8692-bc835f6dc87a__pspm,idfa_657D44B1-39ED-45B3-BC71-748574DC8E65,ko-KR
efzDHeOpRFOUNrxEb-h-XQ,newborntown,p1839_11_36_7_741-10529741,Install,1.8,114.30.203.48,2A4D5A9C-2E3F-479F-8B80-ED29D3A71F2B,1559089092,2019-05-29 08:18:12,1559089150,2019-05-29 08:19:10,1559089181,0312a810-d318-460f-9a23-7622bbfb6b51__pspm,http://pspm.pingstart.com/api/v4/postback?from=1706&clickid=0312a810-d318-460f-9a23-7622bbfb6b51__pspm,idfa_2A4D5A9C-2E3F-479F-8B80-ED29D3A71F2B,ko-KR
efzDHeOpRFOUNrxEb-h-XQ,newborntown,p1839_11_36_7_741-10529741,Install,1.8,59.21.169.165,FEC23219-E6BE-4010-B3B2-A5A3CAB708A8,1559091070,2019-05-29 08:51:10,1559091130,2019-05-29 08:52:10,1559091161,c3f4172f-7290-428d-b3fd-7f0e8e88566f__pspm,http://pspm.pingstart.com/api/v4/postback?from=1706&clickid=c3f4172f-7290-428d-b3fd-7f0e8e88566f__pspm,idfa_FEC23219-E6BE-4010-B3B2-A5A3CAB708A8,ko-KR
efzDHeOpRFOUNrxEb-h-XQ,newborntown,p1839_11_36_7_741-10529741,Install,1.8,121.182.120.157,E47C1516-8AA8-495E-987A-926F06D4E347,1559091026,2019-05-29 08:50:26,1559091086,2019-05-29 08:51:26,1559091117,6120968b-60ce-41b5-94d8-c21ed8cf4a3e__pspm,http://pspm.pingstart.com/api/v4/postback?from=1706&clickid=6120968b-60ce-41b5-94d8-c21ed8cf4a3e__pspm,idfa_E47C1516-8AA8-495E-987A-926F06D4E347,ko-KR
efzDHeOpRFOUNrxEb-h-XQ,newborntown,p1839_11_36_7_741-10529741,Install,1.8,218.234.198.91,9A6D0A8D-8B4E-4CE8-9109-52998CF0FE7E,1559090268,2019-05-29 08:37:48,1559090328,2019-05-29 08:38:48,1559090359,68da3c32-a126-4102-b3e2-27c6338f05b8__pspm,http://pspm.pingstart.com/api/v4/postback?from=1706&clickid=68da3c32-a126-4102-b3e2-27c6338f05b8__pspm,idfa_9A6D0A8D-8B4E-4CE8-9109-52998CF0FE7E,ko-KR
efzDHeOpRFOUNrxEb-h-XQ,newborntown,p1839_11_36_7_741-10529741,Install,1.8,118.63.20.103,2C79B41F-4465-4F0A-81A3-A1C074BE3115,1559090019,2019-05-29 08:33:39,1559090076,2019-05-29 08:34:36,1559090107,6c517811-d0dc-47ec-9e6c-6dffa604fcdd__pspm,http://pspm.pingstart.com/api/v4/postback?from=1706&clickid=6c517811-d0dc-47ec-9e6c-6dffa604fcdd__pspm,idfa_2C79B41F-4465-4F0A-81A3-A1C074BE3115,ko-KR
efzDHeOpRFOUNrxEb-h-XQ,newborntown,p1839_11_36_7_741-10529741,Install,1.8,222.119.162.251,48114E99-7021-4180-8C6B-A1D49D9E9623,1559089715,2019-05-29 08:28:35,1559089785,2019-05-29 08:29:45,1559089817,297fcd39-e242-48cd-b929-c9cfd4d1274d__pspm,http://pspm.pingstart.com/api/v4/postback?from=1706&clickid=297fcd39-e242-48cd-b929-c9cfd4d1274d__pspm,idfa_48114E99-7021-4180-8C6B-A1D49D9E9623,ko-KR
efzDHeOpRFOUNrxEb-h-XQ,newborntown,p1839_11_36_7_741-10529741,Install,1.8,222.100.130.21,CACE171B-91E3-4DFE-A8F8-5D5C798F1CBC,1559089689,2019-05-29 08:28:09,1559089754,2019-05-29 08:29:14,1559089786,ac810e27-bed9-44e4-a844-560963f4f746__pspm,http://pspm.pingstart.com/api/v4/postback?from=1706&clickid=ac810e27-bed9-44e4-a844-560963f4f746__pspm,idfa_CACE171B-91E3-4DFE-A8F8-5D5C798F1CBC,ko-KR
efzDHeOpRFOUNrxEb-h-XQ,newborntown,p1839_11_36_7_741-10529741,Install,1.8,218.50.84.75,E386976E-8976-45C7-8EE5-513C1F6AE392,1559090245,2019-05-29 08:37:25,1559090308,2019-05-29 08:38:28,1559090339,487f4cd6-1fbd-46fa-849f-206fae137b42__pspm,http://pspm.pingstart.com/api/v4/postback?from=1706&clickid=487f4cd6-1fbd-46fa-849f-206fae137b42__pspm,idfa_E386976E-8976-45C7-8EE5-513C1F6AE392,ko-KR
efzDHeOpRFOUNrxEb-h-XQ,newborntown,p1839_11_36_7_741-10529741,Install,1.8,121.145.120.3,831CF701-F4FB-4121-9BEA-3201D2CC8EF3,1559089368,2019-05-29 08:22:48,1559089421,2019-05-29 08:23:41,1559089452,ec05f3bc-6507-4831-8743-a0b2c8f57c91__pspm,http://pspm.pingstart.com/api/v4/postback?from=1706&clickid=ec05f3bc-6507-4831-8743-a0b2c8f57c91__pspm,idfa_831CF701-F4FB-4121-9BEA-3201D2CC8EF3,ko-KR
efzDHeOpRFOUNrxEb-h-XQ,newborntown,p1839_11_36_7_741-10529741,Install,1.8,110.10.152.10,81D685F5-D356-4647-898E-656F3F5EE5D2,1559089693,2019-05-29 08:28:13,1559089773,2019-05-29 08:29:33,1559089807,5ad1ccd9-ec7d-48ac-ad48-71113918dd65__pspm,http://pspm.pingstart.com/api/v4/postback?from=1706&clickid=5ad1ccd9-ec7d-48ac-ad48-71113918dd65__pspm,idfa_81D685F5-D356-4647-898E-656F3F5EE5D2,ko-KR
efzDHeOpRFOUNrxEb-h-XQ,newborntown,p1839_11_36_7_741-10529741,Install,1.8,119.66.102.7,6B908B1C-E672-4921-872B-398548C2D523,1559090730,2019-05-29 08:45:30,1559090787,2019-05-29 08:46:27,1559090819,93b489a4-f290-4718-a1b7-a72c74f5c4af__pspm,http://pspm.pingstart.com/api/v4/postback?from=1706&clickid=93b489a4-f290-4718-a1b7-a72c74f5c4af__pspm,idfa_6B908B1C-E672-4921-872B-398548C2D523,ko-KR
efzDHeOpRFOUNrxEb-h-XQ,newborntown,p1839_11_36_7_741-10529741,Install,1.8,114.30.165.112,EC46A4BF-5E08-4A1F-9920-73FA22CE9905,1559089544,2019-05-29 08:25:44,1559089606,2019-05-29 08:26:46,1559089637,301c0d58-f03b-475c-a465-6c9371891dac__pspm,http://pspm.pingstart.com/api/v4/postback?from=1706&clickid=301c0d58-f03b-475c-a465-6c9371891dac__pspm,idfa_EC46A4BF-5E08-4A1F-9920-73FA22CE9905,ko-KR
efzDHeOpRFOUNrxEb-h-XQ,newborntown,p1839_11_36_7_741-10529741,Install,1.8,119.66.102.7,E9E39D32-73D6-4668-B2CB-A471D14C3525,1559090748,2019-05-29 08:45:48,1559090804,2019-05-29 08:46:44,1559090835,be7308be-d9ed-4ee1-ac65-e47d1dcff852__pspm,http://pspm.pingstart.com/api/v4/postback?from=1706&clickid=be7308be-d9ed-4ee1-ac65-e47d1dcff852__pspm,idfa_E9E39D32-73D6-4668-B2CB-A471D14C3525,ko-KR
efzDHeOpRFOUNrxEb-h-XQ,newborntown,p1839_11_36_7_741-10529741,Install,1.8,125.141.67.74,99CA6BD9-A4E9-4233-BAFF-A9A4C0CA5FCA,1559090691,2019-05-29 08:44:51,1559090746,2019-05-29 08:45:46,1559090777,b60012ab-eae2-4fee-8020-f93b3f06a001__pspm,http://pspm.pingstart.com/api/v4/postback?from=1706&clickid=b60012ab-eae2-4fee-8020-f93b3f06a001__pspm,idfa_99CA6BD9-A4E9-4233-BAFF-A9A4C0CA5FCA,ko-KR
efzDHeOpRFOUNrxEb-h-XQ,newborntown,p1839_11_36_7_741-10529741,Install,1.8,125.135.252.3,3801E649-2A8F-4CDE-83C9-0B03282DF577,1559089005,2019-05-29 08:16:45,1559089070,2019-05-29 08:17:50,1559089101,fa3cd7d1-1978-46c0-9e0b-6fb800d0e947__pspm,http://pspm.pingstart.com/api/v4/postback?from=1706&clickid=fa3cd7d1-1978-46c0-9e0b-6fb800d0e947__pspm,idfa_3801E649-2A8F-4CDE-83C9-0B03282DF577,ko-KR
efzDHeOpRFOUNrxEb-h-XQ,newborntown,p1839_11_36_7_741-10529741,Install,1.8,211.49.81.10,BF2CD242-2CFA-4590-9ACC-E21BD3E328AC,1559089990,2019-05-29 08:33:10,1559090038,2019-05-29 08:33:58,1559090069,be318b09-4b27-4dda-ab7d-340ecd16f07c__pspm,http://pspm.pingstart.com/api/v4/postback?from=1706&clickid=be318b09-4b27-4dda-ab7d-340ecd16f07c__pspm,idfa_BF2CD242-2CFA-4590-9ACC-E21BD3E328AC,ko-KR
efzDHeOpRFOUNrxEb-h-XQ,newborntown,p1839_11_36_7_741-10529741,Install,1.8,114.30.221.132,360E5353-CE29-4368-A7A2-9C8B7238E471,1559089178,2019-05-29 08:19:38,1559089236,2019-05-29 08:20:36,1559089267,ec994394-7e9b-4920-8c7d-4b016f8e8b05__pspm,http://pspm.pingstart.com/api/v4/postback?from=1706&clickid=ec994394-7e9b-4920-8c7d-4b016f8e8b05__pspm,idfa_360E5353-CE29-4368-A7A2-9C8B7238E471,ko-KR
efzDHeOpRFOUNrxEb-h-XQ,newborntown,p1839_11_36_7_741-10529741,Install,1.8,106.255.253.178,60179082-BFBA-4076-9CA4-71502F0D95D8,1559089347,2019-05-29 08:22:27,1559089401,2019-05-29 08:23:21,1559089432,8d03f919-6bd0-48ca-8ca5-a3cbcdb84db9__pspm,http://pspm.pingstart.com/api/v4/postback?from=1706&clickid=8d03f919-6bd0-48ca-8ca5-a3cbcdb84db9__pspm,idfa_60179082-BFBA-4076-9CA4-71502F0D95D8,ko-KR
efzDHeOpRFOUNrxEb-h-XQ,newborntown,p1839_11_36_7_741-10529741,Install,1.8,116.120.58.199,B3BA6E23-5C21-4F3F-9517-D1025DA1964B,1559089256,2019-05-29 08:20:56,1559089312,2019-05-29 08:21:52,1559089343,0c437da9-fe4a-4cc6-82b5-74e5984483a8__pspm,http://pspm.pingstart.com/api/v4/postback?from=1706&clickid=0c437da9-fe4a-4cc6-82b5-74e5984483a8__pspm,idfa_B3BA6E23-5C21-4F3F-9517-D1025DA1964B,ko-KR
efzDHeOpRFOUNrxEb-h-XQ,newborntown,p1839_11_36_7_741-10529741,Install,1.8,118.44.169.247,B4087909-426B-4C36-9D66-6CDF3E6CD5C2,1559090688,2019-05-29 08:44:48,1559090748,2019-05-29 08:45:48,1559090778,7bfc66a7-bfe2-413c-a9d8-c28a811b5135__pspm,http://pspm.pingstart.com/api/v4/postback?from=1706&clickid=7bfc66a7-bfe2-413c-a9d8-c28a811b5135__pspm,idfa_B4087909-426B-4C36-9D66-6CDF3E6CD5C2,ko-KR
efzDHeOpRFOUNrxEb-h-XQ,newborntown,p1839_11_36_7_741-10529741,Install,1.8,115.94.73.2,F3094AF2-58D3-4DBA-942C-8482A6EE0F1A,1559089842,2019-05-29 08:30:42,1559089903,2019-05-29 08:31:43,1559089934,ecd96c11-395f-4ef4-996b-b93aa4f12ae7__pspm,http://pspm.pingstart.com/api/v4/postback?from=1706&clickid=ecd96c11-395f-4ef4-996b-b93aa4f12ae7__pspm,idfa_F3094AF2-58D3-4DBA-942C-8482A6EE0F1A,ko-KR
efzDHeOpRFOUNrxEb-h-XQ,newborntown,p1839_11_36_7_741-10529741,Install,1.8,218.146.86.246,89B4A37B-0492-4E47-9823-BC7E6C9270F7,1559089183,2019-05-29 08:19:43,1559089244,2019-05-29 08:20:44,1559089275,dad0ef8e-5560-4393-b7bf-f0166422a0bc__pspm,http://pspm.pingstart.com/api/v4/postback?from=1706&clickid=dad0ef8e-5560-4393-b7bf-f0166422a0bc__pspm,idfa_89B4A37B-0492-4E47-9823-BC7E6C9270F7,ko-KR
efzDHeOpRFOUNrxEb-h-XQ,newborntown,p1839_11_36_7_741-10529741,Install,1.8,119.204.177.120,5AD24C2D-D79F-4024-B41D-A11D945C7F72,1559089674,2019-05-29 08:27:54,1559089744,2019-05-29 08:29:04,1559089774,d683ec9d-03ab-43c6-8b1a-4046e6de3706__pspm,http://pspm.pingstart.com/api/v4/postback?from=1706&clickid=d683ec9d-03ab-43c6-8b1a-4046e6de3706__pspm,idfa_5AD24C2D-D79F-4024-B41D-A11D945C7F72,ko-KR
efzDHeOpRFOUNrxEb-h-XQ,newborntown,p1839_11_36_7_741-10529741,Install,1.8,211.221.155.6,FC45B111-EA71-40E5-83B4-E3AAE4A99176,1559090857,2019-05-29 08:47:37,1559090934,2019-05-29 08:48:54,1559090965,597710ea-0ef9-4858-809a-145edae7c1ea__pspm,http://pspm.pingstart.com/api/v4/postback?from=1706&clickid=597710ea-0ef9-4858-809a-145edae7c1ea__pspm,idfa_FC45B111-EA71-40E5-83B4-E3AAE4A99176,ko-KR
efzDHeOpRFOUNrxEb-h-XQ,newborntown,p1839_11_36_7_741-10529741,Install,1.8,175.230.254.62,5B0E33B2-1B80-49BC-A5CE-907F6564D542,1559090568,2019-05-29 08:42:48,1559090619,2019-05-29 08:43:39,1559090649,8e7afe33-cbce-4402-89a3-9ca319e07bb2__pspm,http://pspm.pingstart.com/api/v4/postback?from=1706&clickid=8e7afe33-cbce-4402-89a3-9ca319e07bb2__pspm,idfa_5B0E33B2-1B80-49BC-A5CE-907F6564D542,ko-KR
efzDHeOpRFOUNrxEb-h-XQ,newborntown,p1839_11_36_7_741-10529741,Install,1.8,1.234.5.210,47E1B60D-8635-48B7-A3EF-A6C13730C485,1559089855,2019-05-29 08:30:55,1559089914,2019-05-29 08:31:54,1559089945,5d828e33-f6fe-49cb-841e-d24db21bfb4b__pspm,http://pspm.pingstart.com/api/v4/postback?from=1706&clickid=5d828e33-f6fe-49cb-841e-d24db21bfb4b__pspm,idfa_47E1B60D-8635-48B7-A3EF-A6C13730C485,ko-KR
efzDHeOpRFOUNrxEb-h-XQ,newborntown,p1839_11_36_7_741-10529741,Install,1.8,114.30.203.48,5931D0FA-5E27-4462-9B3F-B200D631A483,1559089101,2019-05-29 08:18:21,1559089155,2019-05-29 08:19:15,1559089186,3287b9f0-5d85-4db7-ad97-4ec989270a05__pspm,http://pspm.pingstart.com/api/v4/postback?from=1706&clickid=3287b9f0-5d85-4db7-ad97-4ec989270a05__pspm,idfa_5931D0FA-5E27-4462-9B3F-B200D631A483,ko-KR
efzDHeOpRFOUNrxEb-h-XQ,newborntown,p1839_11_36_7_741-10529741,Install,1.8,119.56.233.115,37E5D808-9AA0-4F4C-A556-9ADC84202F28,1559090811,2019-05-29 08:46:51,1559090885,2019-05-29 08:48:05,1559090916,b6b38c14-bb64-487e-a1c9-181b289cf58d__pspm,http://pspm.pingstart.com/api/v4/postback?from=1706&clickid=b6b38c14-bb64-487e-a1c9-181b289cf58d__pspm,idfa_37E5D808-9AA0-4F4C-A556-9ADC84202F28,ko-KR
efzDHeOpRFOUNrxEb-h-XQ,newborntown,p1839_11_36_7_741-10529741,Install,1.8,59.15.185.17,C8EB02E8-6D98-43D2-9294-58AA5844F779,1559091110,2019-05-29 08:51:50,1559091171,2019-05-29 08:52:51,1559091202,28fdb0be-008e-4dfd-8904-f7716dbc8514__pspm,http://pspm.pingstart.com/api/v4/postback?from=1706&clickid=28fdb0be-008e-4dfd-8904-f7716dbc8514__pspm,idfa_C8EB02E8-6D98-43D2-9294-58AA5844F779,ko-KR
efzDHeOpRFOUNrxEb-h-XQ,newborntown,p1839_11_36_7_741-10529741,Install,1.8,112.222.215.198,A25559EA-48A5-4280-AEB4-4DAC638AB84F,1559089349,2019-05-29 08:22:29,1559089404,2019-05-29 08:23:24,1559089435,c88b2911-cd05-4545-af22-bae471799799__pspm,http://pspm.pingstart.com/api/v4/postback?from=1706&clickid=c88b2911-cd05-4545-af22-bae471799799__pspm,idfa_A25559EA-48A5-4280-AEB4-4DAC638AB84F,ko-KR
efzDHeOpRFOUNrxEb-h-XQ,newborntown,p1839_11_36_7_741-10529741,Install,1.8,211.54.74.50,DFE10493-1D8B-43AB-A5E4-801B9AEF6C0E,1559089892,2019-05-29 08:31:32,1559089955,2019-05-29 08:32:35,1559089986,14486bd0-a10b-43e0-97e6-03aaa25ee37d__pspm,http://pspm.pingstart.com/api/v4/postback?from=1706&clickid=14486bd0-a10b-43e0-97e6-03aaa25ee37d__pspm,idfa_DFE10493-1D8B-43AB-A5E4-801B9AEF6C0E,ko-KR
efzDHeOpRFOUNrxEb-h-XQ,newborntown,p1839_11_36_7_741-10529741,Install,1.8,211.54.74.50,9C1BEE93-F39D-4A53-A80F-4FD45C8CC587,1559090298,2019-05-29 08:38:18,1559090358,2019-05-29 08:39:18,1559090389,4cc4ee8b-cf5b-41c6-834a-0367cfbeb67b__pspm,http://pspm.pingstart.com/api/v4/postback?from=1706&clickid=4cc4ee8b-cf5b-41c6-834a-0367cfbeb67b__pspm,idfa_9C1BEE93-F39D-4A53-A80F-4FD45C8CC587,ko-KR
efzDHeOpRFOUNrxEb-h-XQ,newborntown,p1839_11_36_7_741-10529741,Install,1.8,221.138.38.85,0B59A2F7-8694-4761-91B5-E22FCC232DF3,1559090393,2019-05-29 08:39:53,1559090452,2019-05-29 08:40:52,1559090483,5eb378b8-fda7-4f01-abe7-d3a145870f91__pspm,http://pspm.pingstart.com/api/v4/postback?from=1706&clickid=5eb378b8-fda7-4f01-abe7-d3a145870f91__pspm,idfa_0B59A2F7-8694-4761-91B5-E22FCC232DF3,ko-KR
efzDHeOpRFOUNrxEb-h-XQ,newborntown,p1839_11_36_7_741-10529741,Install,1.8,58.238.212.11,4EBF3849-1784-43DC-8C6C-3ACAAC6BE937,1559090592,2019-05-29 08:43:12,1559090647,2019-05-29 08:44:07,1559090679,158ac71b-3e76-40aa-a600-f03b52bbfe7d__pspm,http://pspm.pingstart.com/api/v4/postback?from=1706&clickid=158ac71b-3e76-40aa-a600-f03b52bbfe7d__pspm,idfa_4EBF3849-1784-43DC-8C6C-3ACAAC6BE937,ko-KR
efzDHeOpRFOUNrxEb-h-XQ,newborntown,p1839_11_36_7_741-10529741,Install,1.8,180.70.220.13,3EA14ACE-6625-4FBC-AD54-16D8C43AC992,1559089493,2019-05-29 08:24:53,1559089556,2019-05-29 08:25:56,1559089587,0eda54d2-be53-4918-8540-8ab727361831__pspm,http://pspm.pingstart.com/api/v4/postback?from=1706&clickid=0eda54d2-be53-4918-8540-8ab727361831__pspm,idfa_3EA14ACE-6625-4FBC-AD54-16D8C43AC992,ko-KR
efzDHeOpRFOUNrxEb-h-XQ,newborntown,p1839_11_36_7_741-10529741,Install,1.8,27.116.125.146,263D5D89-90E8-4B5B-9327-2F3BAECC343F,1559089991,2019-05-29 08:33:11,1559090053,2019-05-29 08:34:13,1559090084,6a6b4d3a-15a7-4430-bf68-797ed223cf53__pspm,http://pspm.pingstart.com/api/v4/postback?from=1706&clickid=6a6b4d3a-15a7-4430-bf68-797ed223cf53__pspm,idfa_263D5D89-90E8-4B5B-9327-2F3BAECC343F,ko-KR
