cid,partner_id,channel_id,action_id,cpi,ip,idfa,click time,click datetime,install time,install datetime,postback time,click id,postback url,unique user id
y2lD5e3FTZmeIShsvAGifA,newborntown,p1839_570212_759623_05546-05544333410,Install,1.9,220.123.170.42,9A1052CC-EB37-4BCD-8E68-BDE848A251F5,1559012580,2019-05-28 11:03:00,1559012650,2019-05-28 11:04:10,1559012681,af8fa1d3-b06f-4360-bc54-6ee10db29b96__pspm,http://pspm.pingstart.com/api/v4/postback?from=1706&clickid=af8fa1d3-b06f-4360-bc54-6ee10db29b96__pspm,idfa_9A1052CC-EB37-4BCD-8E68-BDE848A251F5,ko-KR
y2lD5e3FTZmeIShsvAGifA,newborntown,p1839_570212_759623_05546-05544333410,Install,1.9,1.231.14.207,F0055D10-F6DE-4784-B002-38D1B1FA3B05,1559012933,2019-05-28 11:08:53,1559013004,2019-05-28 11:10:04,1559013035,6ef8633f-833c-4407-95a0-c5beb77d999e__pspm,http://pspm.pingstart.com/api/v4/postback?from=1706&clickid=6ef8633f-833c-4407-95a0-c5beb77d999e__pspm,idfa_F0055D10-F6DE-4784-B002-38D1B1FA3B05,ko-KR
y2lD5e3FTZmeIShsvAGifA,newborntown,p1839_570212_759623_05546-05544333410,Install,1.9,222.108.143.193,9A8CA7F2-6001-433B-A226-D309BFD4D55C,1559011909,2019-05-28 10:51:49,1559011972,2019-05-28 10:52:52,1559012042,0e5dc76f-4fed-4a65-a90e-54c5be6edf40__pspm,http://pspm.pingstart.com/api/v4/postback?from=1706&clickid=0e5dc76f-4fed-4a65-a90e-54c5be6edf40__pspm,idfa_9A8CA7F2-6001-433B-A226-D309BFD4D55C,ko-KR
y2lD5e3FTZmeIShsvAGifA,newborntown,p1839_570212_759623_05546-05544333410,Install,1.9,1.237.119.119,DBC6811A-6680-4949-BF20-FC9F2AB24C55,1559012982,2019-05-28 11:09:42,1559013053,2019-05-28 11:10:53,1559013085,ecefa668-ff01-4544-8d20-4db38fbddb95__pspm,http://pspm.pingstart.com/api/v4/postback?from=1706&clickid=ecefa668-ff01-4544-8d20-4db38fbddb95__pspm,idfa_DBC6811A-6680-4949-BF20-FC9F2AB24C55,ko-KR
y2lD5e3FTZmeIShsvAGifA,newborntown,p1839_570212_759623_05546-05544333410,Install,1.9,183.98.75.48,5E2540F4-4468-4E95-9145-50B3E920A6B9,1559012993,2019-05-28 11:09:53,1559013067,2019-05-28 11:11:07,1559013098,bda2c33a-8839-43f9-a0d1-ad18d8cb6e9a__pspm,http://pspm.pingstart.com/api/v4/postback?from=1706&clickid=bda2c33a-8839-43f9-a0d1-ad18d8cb6e9a__pspm,idfa_5E2540F4-4468-4E95-9145-50B3E920A6B9,ko-KR
y2lD5e3FTZmeIShsvAGifA,newborntown,p1839_570212_759623_05546-05544333410,Install,1.9,61.32.22.171,24738082-6A19-4DBC-A6AA-92D79A9D3411,1559012590,2019-05-28 11:03:10,1559012655,2019-05-28 11:04:15,1559012686,f4d13e10-1595-49cb-8264-09070dee0791__pspm,http://pspm.pingstart.com/api/v4/postback?from=1706&clickid=f4d13e10-1595-49cb-8264-09070dee0791__pspm,idfa_24738082-6A19-4DBC-A6AA-92D79A9D3411,ko-KR
y2lD5e3FTZmeIShsvAGifA,newborntown,p1839_570212_759623_05546-05544333410,Install,1.9,222.100.130.21,657B6EB9-5F0D-4B73-B7EA-336E4285CC65,1559012585,2019-05-28 11:03:05,1559012649,2019-05-28 11:04:09,1559012681,212ee8d7-ad71-472b-b099-dac4b361c582__pspm,http://pspm.pingstart.com/api/v4/postback?from=1706&clickid=212ee8d7-ad71-472b-b099-dac4b361c582__pspm,idfa_657B6EB9-5F0D-4B73-B7EA-336E4285CC65,ko-KR
y2lD5e3FTZmeIShsvAGifA,newborntown,p1839_570212_759623_05546-05544333410,Install,1.9,210.223.250.3,F9BC91F9-17FA-4158-81F8-C0A92C3AC1EB,1559012881,2019-05-28 11:08:01,1559012947,2019-05-28 11:09:07,1559012978,6f50730b-e873-41a2-8d63-b0782ddbe5dc__pspm,http://pspm.pingstart.com/api/v4/postback?from=1706&clickid=6f50730b-e873-41a2-8d63-b0782ddbe5dc__pspm,idfa_F9BC91F9-17FA-4158-81F8-C0A92C3AC1EB,ko-KR
y2lD5e3FTZmeIShsvAGifA,newborntown,p1839_570212_759623_05546-05544333410,Install,1.9,220.127.126.139,4730C45E-EDCB-4F8A-99A5-9D27B81FE783,1559012896,2019-05-28 11:08:16,1559012960,2019-05-28 11:09:20,1559012990,23979130-c488-43d8-80a5-4365a2dee777__pspm,http://pspm.pingstart.com/api/v4/postback?from=1706&clickid=23979130-c488-43d8-80a5-4365a2dee777__pspm,idfa_4730C45E-EDCB-4F8A-99A5-9D27B81FE783,ko-KR
y2lD5e3FTZmeIShsvAGifA,newborntown,p1839_570212_759623_05546-05544333410,Install,1.9,222.100.130.21,64484D81-B704-48D2-B1C9-04FA1BB249BE,1559011927,2019-05-28 10:52:07,1559011988,2019-05-28 10:53:08,1559012019,82a06746-c1ea-4de5-aced-83b2cd1fcf89__pspm,http://pspm.pingstart.com/api/v4/postback?from=1706&clickid=82a06746-c1ea-4de5-aced-83b2cd1fcf89__pspm,idfa_64484D81-B704-48D2-B1C9-04FA1BB249BE,ko-KR
y2lD5e3FTZmeIShsvAGifA,newborntown,p1839_570212_759623_05546-05544333410,Install,1.9,222.108.143.193,3EAD2608-4FBC-4886-8D40-3133874DFDEE,1559012640,2019-05-28 11:04:00,1559012711,2019-05-28 11:05:11,1559012742,6ec8bff5-5a0a-470a-8b41-b0c62ed42f1f__pspm,http://pspm.pingstart.com/api/v4/postback?from=1706&clickid=6ec8bff5-5a0a-470a-8b41-b0c62ed42f1f__pspm,idfa_3EAD2608-4FBC-4886-8D40-3133874DFDEE,ko-KR
y2lD5e3FTZmeIShsvAGifA,newborntown,p1839_570212_759623_05546-05544333410,Install,1.9,222.100.130.21,577A3EA6-EED9-4589-9A0C-9AB1654F1354,1559012297,2019-05-28 10:58:17,1559012356,2019-05-28 10:59:16,1559012387,ffe0c53c-7f43-4d0e-9eeb-a5857ddbf649__pspm,http://pspm.pingstart.com/api/v4/postback?from=1706&clickid=ffe0c53c-7f43-4d0e-9eeb-a5857ddbf649__pspm,idfa_577A3EA6-EED9-4589-9A0C-9AB1654F1354,ko-KR
y2lD5e3FTZmeIShsvAGifA,newborntown,p1839_570212_759623_05546-05544333410,Install,1.9,125.143.229.253,549F3F20-A017-42C4-AB01-C6EF607EC7B3,1559012550,2019-05-28 11:02:30,1559012617,2019-05-28 11:03:37,1559012648,ae335f82-680c-43fc-8705-17b8013c54da__pspm,http://pspm.pingstart.com/api/v4/postback?from=1706&clickid=ae335f82-680c-43fc-8705-17b8013c54da__pspm,idfa_549F3F20-A017-42C4-AB01-C6EF607EC7B3,ko-KR
y2lD5e3FTZmeIShsvAGifA,newborntown,p1839_570212_759623_05546-05544333410,Install,1.9,14.71.124.25,42C7073B-3BFC-4062-BD61-786CB6831BDC,1559012172,2019-05-28 10:56:12,1559012229,2019-05-28 10:57:09,1559012260,86dcb680-db24-4dbb-a566-f45a51e905f9__pspm,http://pspm.pingstart.com/api/v4/postback?from=1706&clickid=86dcb680-db24-4dbb-a566-f45a51e905f9__pspm,idfa_42C7073B-3BFC-4062-BD61-786CB6831BDC,ko-KR
y2lD5e3FTZmeIShsvAGifA,newborntown,p1839_570212_759623_05546-05544333410,Install,1.9,220.76.203.140,27A939EB-9B61-4B87-B71B-1D7287966000,1559012689,2019-05-28 11:04:49,1559012754,2019-05-28 11:05:54,1559012785,dc62e96a-2222-462b-8280-e8606bbf3912__pspm,http://pspm.pingstart.com/api/v4/postback?from=1706&clickid=dc62e96a-2222-462b-8280-e8606bbf3912__pspm,idfa_27A939EB-9B61-4B87-B71B-1D7287966000,ko-KR
y2lD5e3FTZmeIShsvAGifA,newborntown,p1839_570212_759623_05546-05544333410,Install,1.9,118.32.142.48,0762923A-2B89-435C-B07E-BC20DE546957,1559011822,2019-05-28 10:50:22,1559011880,2019-05-28 10:51:20,1559011911,8a8983cd-64ab-4df4-9048-934a61418956__pspm,http://pspm.pingstart.com/api/v4/postback?from=1706&clickid=8a8983cd-64ab-4df4-9048-934a61418956__pspm,idfa_0762923A-2B89-435C-B07E-BC20DE546957,ko-KR
y2lD5e3FTZmeIShsvAGifA,newborntown,p1839_570212_759623_05546-05544333410,Install,1.9,59.15.185.17,A84E9794-2FF5-4374-801D-B036B9A2E9F5,1559011818,2019-05-28 10:50:18,1559011881,2019-05-28 10:51:21,1559011912,b2989788-624a-4c7a-81dd-eb8bae426f7e__pspm,http://pspm.pingstart.com/api/v4/postback?from=1706&clickid=b2989788-624a-4c7a-81dd-eb8bae426f7e__pspm,idfa_A84E9794-2FF5-4374-801D-B036B9A2E9F5,ko-KR
y2lD5e3FTZmeIShsvAGifA,newborntown,p1839_570212_759623_05546-05544333410,Install,1.9,115.4.56.37,54EAE08C-AE03-4B9B-8C1A-D148B541A4A1,1559011809,2019-05-28 10:50:09,1559011863,2019-05-28 10:51:03,1559011893,3a0273c2-cf95-4a02-8121-d88bb953c3d7__pspm,http://pspm.pingstart.com/api/v4/postback?from=1706&clickid=3a0273c2-cf95-4a02-8121-d88bb953c3d7__pspm,idfa_54EAE08C-AE03-4B9B-8C1A-D148B541A4A1,ko-KR
y2lD5e3FTZmeIShsvAGifA,newborntown,p1839_570212_759623_05546-05544333410,Install,1.9,61.32.22.171,A6F6376E-BB02-479D-AA3A-E0B07C3BD621,1559012198,2019-05-28 10:56:38,1559012268,2019-05-28 10:57:48,1559012299,e1c63c52-6682-4eb5-8eaf-43ac7dae416c__pspm,http://pspm.pingstart.com/api/v4/postback?from=1706&clickid=e1c63c52-6682-4eb5-8eaf-43ac7dae416c__pspm,idfa_A6F6376E-BB02-479D-AA3A-E0B07C3BD621,ko-KR
y2lD5e3FTZmeIShsvAGifA,newborntown,p1839_570212_759623_05546-05544333410,Install,1.9,175.230.39.122,81E6292F-A81B-4B93-B320-B948FAAA30A0,1559012202,2019-05-28 10:56:42,1559012255,2019-05-28 10:57:35,1559012286,44ea436d-d282-4a0f-9c77-e30133e8d1ed__pspm,http://pspm.pingstart.com/api/v4/postback?from=1706&clickid=44ea436d-d282-4a0f-9c77-e30133e8d1ed__pspm,idfa_81E6292F-A81B-4B93-B320-B948FAAA30A0,ko-KR
y2lD5e3FTZmeIShsvAGifA,newborntown,p1839_570212_759623_05546-05544333410,Install,1.9,220.76.203.140,B8A54AF0-C45A-462E-8E63-426FFC04A50A,1559011807,2019-05-28 10:50:07,1559011861,2019-05-28 10:51:01,1559011895,9f402700-0e2c-4781-a1e9-1319fa26fdd3__pspm,http://pspm.pingstart.com/api/v4/postback?from=1706&clickid=9f402700-0e2c-4781-a1e9-1319fa26fdd3__pspm,idfa_B8A54AF0-C45A-462E-8E63-426FFC04A50A,ko-KR
y2lD5e3FTZmeIShsvAGifA,newborntown,p1839_570212_759623_05546-05544333410,Install,1.9,220.123.170.42,49FF1B35-41F4-453C-8589-1ACCB06C218E,1559012189,2019-05-28 10:56:29,1559012262,2019-05-28 10:57:42,1559012293,58f45516-ed87-4e56-929b-5e1fc2bc893c__pspm,http://pspm.pingstart.com/api/v4/postback?from=1706&clickid=58f45516-ed87-4e56-929b-5e1fc2bc893c__pspm,idfa_49FF1B35-41F4-453C-8589-1ACCB06C218E,ko-KR
y2lD5e3FTZmeIShsvAGifA,newborntown,p1839_570212_759623_05546-05544333410,Install,1.9,222.119.162.251,893CED9A-AA16-4D37-83AB-BAAB60F28D55,1559012320,2019-05-28 10:58:40,1559012385,2019-05-28 10:59:45,1559012416,bfa0bd8c-9acc-42ba-840a-69ef4eae18b6__pspm,http://pspm.pingstart.com/api/v4/postback?from=1706&clickid=bfa0bd8c-9acc-42ba-840a-69ef4eae18b6__pspm,idfa_893CED9A-AA16-4D37-83AB-BAAB60F28D55,ko-KR
