cid,partner_id,channel_id,action_id,cpi,ip,idfa,click time,click datetime,install time,install datetime,postback time,click id,postback url,unique user id
FzBblSdjRbWpbshHdLCdbQ,newborntown,p1336_10542_,install,1.5,106.132.83.219,A6C3CFED-FD63-4F22-A65D-8146E3880F5C,1556785401,2019-05-02 16:23:21,1556785432,2019-05-02 16:23:52,1556785462,6c78123e-9ffe-4b34-a0db-528250e54ac9__pspm,http://pspm.pingstart.com/api/v4/postback?from=1706&clickid=6c78123e-9ffe-4b34-a0db-528250e54ac9__pspm,idfa_A6C3CFED-FD63-4F22-A65D-8146E3880F5C,ja
FzBblSdjRbWpbshHdLCdbQ,newborntown,p1336_10542_,install,1.4,153.198.248.19,C72E6910-69D0-4D2D-B793-AFF6BB4FF97F,1557024175,2019-05-05 10:42:55,1557029809,2019-05-05 12:16:49,1557029839,6cb2dec5-bc1c-4dda-acea-b3d030815940__pspm,http://pspm.pingstart.com/api/v4/postback?from=1706&clickid=6cb2dec5-bc1c-4dda-acea-b3d030815940__pspm,idfa_C72E6910-69D0-4D2D-B793-AFF6BB4FF97F,ja
FzBblSdjRbWpbshHdLCdbQ,newborntown,p1336_10542_,install,1.4,180.4.80.195,8CA27C0B-0AFA-4C88-8488-85F0AEF0D1A1,1557387736,2019-05-09 15:42:16,1557387825,2019-05-09 15:43:45,1557387855,aab61a4a-940d-4c69-917e-2b46e4082bd1__pspm,http://pspm.pingstart.com/api/v4/postback?from=1706&clickid=aab61a4a-940d-4c69-917e-2b46e4082bd1__pspm,idfa_8CA27C0B-0AFA-4C88-8488-85F0AEF0D1A1,ja
FzBblSdjRbWpbshHdLCdbQ,newborntown,p1336_10542_,install,1.4,115.36.45.245,619EB6AA-4715-45A4-AA90-1C49D0148955,1557027810,2019-05-05 11:43:30,1557179677,2019-05-07 05:54:37,1557233601,20d644bc-7757-4b34-acdf-019c185817f3__pspm,http://pspm.pingstart.com/api/v4/postback?from=1706&clickid=20d644bc-7757-4b34-acdf-019c185817f3__pspm,idfa_619EB6AA-4715-45A4-AA90-1C49D0148955,ja
FzBblSdjRbWpbshHdLCdbQ,newborntown,p1336_10542_,install,1.4,126.233.165.53,AFDC9E86-7304-4785-9CEC-CA0910F1C56F,1557021716,2019-05-05 10:01:56,1557218473,2019-05-07 16:41:13,1557218504,2f607a94-824c-4755-ab83-540e90d0ca06__pspm,http://pspm.pingstart.com/api/v4/postback?from=1706&clickid=2f607a94-824c-4755-ab83-540e90d0ca06__pspm,idfa_AFDC9E86-7304-4785-9CEC-CA0910F1C56F,ja
FzBblSdjRbWpbshHdLCdbQ,newborntown,p1336_10542_,install,1.4,101.128.223.73,448DFE14-DFF0-475A-BC06-E39AE7F8A8E6,1556949197,2019-05-04 13:53:17,1556950471,2019-05-04 14:14:31,1556950501,d8594756-7ed6-4f64-8b07-4ad0f9e0e3d2__pspm,http://pspm.pingstart.com/api/v4/postback?from=1706&clickid=d8594756-7ed6-4f64-8b07-4ad0f9e0e3d2__pspm,idfa_448DFE14-DFF0-475A-BC06-E39AE7F8A8E6,ja
FzBblSdjRbWpbshHdLCdbQ,newborntown,p1336_10542_,install,1.4,118.15.1.235,CD065832-3EFD-4E4B-95C4-C58CD4C9C16D,1557124532,2019-05-06 14:35:32,1557124597,2019-05-06 14:36:37,1557124627,5350a36f-cf8f-47d1-9a5e-23573696b1a9__pspm,http://pspm.pingstart.com/api/v4/postback?from=1706&clickid=5350a36f-cf8f-47d1-9a5e-23573696b1a9__pspm,idfa_CD065832-3EFD-4E4B-95C4-C58CD4C9C16D,ja
FzBblSdjRbWpbshHdLCdbQ,newborntown,p1336_10542_,install,1.4,49.156.250.178,BD19572C-89E0-44A7-B8D2-6FF28D65BDC7,1557485181,2019-05-10 18:46:21,1557485405,2019-05-10 18:50:05,1557485435,06cf932f-48c1-42c9-b1db-c9ca4540eff1__pspm,http://pspm.pingstart.com/api/v4/postback?from=1706&clickid=06cf932f-48c1-42c9-b1db-c9ca4540eff1__pspm,idfa_BD19572C-89E0-44A7-B8D2-6FF28D65BDC7,ja
FzBblSdjRbWpbshHdLCdbQ,newborntown,p1336_10542_,install,1.4,60.94.168.230,1F5B0551-EBA1-439F-9CA3-E7B8D53FB75A,1557626942,2019-05-12 10:09:02,1557628244,2019-05-12 10:30:44,1557628275,539d5bd9-2c4d-4df5-9531-2d0d5d8b96cc__pspm,http://pspm.pingstart.com/api/v4/postback?from=1706&clickid=539d5bd9-2c4d-4df5-9531-2d0d5d8b96cc__pspm,idfa_1F5B0551-EBA1-439F-9CA3-E7B8D53FB75A,ja
FzBblSdjRbWpbshHdLCdbQ,newborntown,p1336_10542_,install,1.5,106.133.99.23,514F2322-ABE7-46DB-9386-9E53BC84BDC3,1557297520,2019-05-08 14:38:40,1557297553,2019-05-08 14:39:13,1557297584,add7bce1-0855-434d-8abe-ebe18614f4f2__pspm,http://pspm.pingstart.com/api/v4/postback?from=1706&clickid=add7bce1-0855-434d-8abe-ebe18614f4f2__pspm,idfa_514F2322-ABE7-46DB-9386-9E53BC84BDC3,ja
FzBblSdjRbWpbshHdLCdbQ,newborntown,p1336_10542_,install,1.4,126.199.29.231,74725E1B-86A2-4FC3-9746-5DBAE5D4A9EA,1557567248,2019-05-11 17:34:08,1557567426,2019-05-11 17:37:06,1557567456,57c73164-8c6e-4dcd-993a-21748e051060__pspm,http://pspm.pingstart.com/api/v4/postback?from=1706&clickid=57c73164-8c6e-4dcd-993a-21748e051060__pspm,idfa_74725E1B-86A2-4FC3-9746-5DBAE5D4A9EA,ja
FzBblSdjRbWpbshHdLCdbQ,newborntown,p1336_10542_,install,1.4,110.3.194.151,ABC6DE91-DAF9-48F6-9E3C-5FCD2DEA9039,1556787425,2019-05-02 16:57:05,1556801481,2019-05-02 20:51:21,1556801511,1ae35036-65cc-437e-9ae1-bac2b45ea0fe__pspm,http://pspm.pingstart.com/api/v4/postback?from=1706&clickid=1ae35036-65cc-437e-9ae1-bac2b45ea0fe__pspm,idfa_ABC6DE91-DAF9-48F6-9E3C-5FCD2DEA9039,ja
FzBblSdjRbWpbshHdLCdbQ,newborntown,p1336_10542_,install,1.5,220.148.123.70,78683E4E-160D-4A54-A3F7-ECA0185758A0,1556775920,2019-05-02 13:45:20,1556775998,2019-05-02 13:46:38,1556776029,d6f78b6a-c58e-4df1-983a-a01e4d1bf0cf__pspm,http://pspm.pingstart.com/api/v4/postback?from=1706&clickid=d6f78b6a-c58e-4df1-983a-a01e4d1bf0cf__pspm,idfa_78683E4E-160D-4A54-A3F7-ECA0185758A0,ja
FzBblSdjRbWpbshHdLCdbQ,newborntown,p1336_10542_,install,1.4,49.98.156.186,7F7DE810-D423-42A9-80D9-89A06E4C10D2,1557630042,2019-05-12 11:00:42,1557630202,2019-05-12 11:03:22,1557630232,8e506c9f-0c21-4173-954d-10ddc6f5b878__pspm,http://pspm.pingstart.com/api/v4/postback?from=1706&clickid=8e506c9f-0c21-4173-954d-10ddc6f5b878__pspm,idfa_7F7DE810-D423-42A9-80D9-89A06E4C10D2,ja
FzBblSdjRbWpbshHdLCdbQ,newborntown,p1336_10542_,install,1.4,118.4.163.110,D1D7EE02-72AE-4C77-B571-BB6707FB9A4E,1557473176,2019-05-10 15:26:16,1557473311,2019-05-10 15:28:31,1557473341,6114445e-5c38-40c3-a766-348a5213dd9a__pspm,http://pspm.pingstart.com/api/v4/postback?from=1706&clickid=6114445e-5c38-40c3-a766-348a5213dd9a__pspm,idfa_D1D7EE02-72AE-4C77-B571-BB6707FB9A4E,ja
FzBblSdjRbWpbshHdLCdbQ,newborntown,p1336_10542_,install,1.4,126.245.134.189,CFD2EE8E-1564-485D-B4B3-A0488C10B9BE,1557652195,2019-05-12 17:09:55,1557652270,2019-05-12 17:11:10,1557652300,1606197d-c333-4842-b6c0-7e90c39655df__pspm,http://pspm.pingstart.com/api/v4/postback?from=1706&clickid=1606197d-c333-4842-b6c0-7e90c39655df__pspm,idfa_CFD2EE8E-1564-485D-B4B3-A0488C10B9BE,ja
FzBblSdjRbWpbshHdLCdbQ,newborntown,p1336_10542_,install,1.5,49.106.188.228,7F418F7F-ACF8-4D62-8176-0423C7982F97,1556678476,2019-05-01 10:41:16,1556683551,2019-05-01 12:05:51,1556683581,68e8aed5-4fac-4b21-a964-0bc14a7afa06__pspm,http://pspm.pingstart.com/api/v4/postback?from=1706&clickid=68e8aed5-4fac-4b21-a964-0bc14a7afa06__pspm,idfa_7F418F7F-ACF8-4D62-8176-0423C7982F97,ja
FzBblSdjRbWpbshHdLCdbQ,newborntown,p1336_10542_,install,1.4,126.117.202.55,EA6FF452-F77B-4C7C-AEA4-1A09F5D4BC45,1557030972,2019-05-05 12:36:12,1557031034,2019-05-05 12:37:14,1557031064,7aeeca55-851e-4b57-8dd0-540659ba8d47__pspm,http://pspm.pingstart.com/api/v4/postback?from=1706&clickid=7aeeca55-851e-4b57-8dd0-540659ba8d47__pspm,idfa_EA6FF452-F77B-4C7C-AEA4-1A09F5D4BC45,ja
FzBblSdjRbWpbshHdLCdbQ,newborntown,p1336_10542_,install,1.4,106.129.136.111,EA3A85D6-7EE6-4792-8BBD-A2D0869F182B,1556788123,2019-05-02 17:08:43,1556807283,2019-05-02 22:28:03,1556807313,81b56188-a5ef-45b5-b3f0-494567ea3a0e__pspm,http://pspm.pingstart.com/api/v4/postback?from=1706&clickid=81b56188-a5ef-45b5-b3f0-494567ea3a0e__pspm,idfa_EA3A85D6-7EE6-4792-8BBD-A2D0869F182B,ja
FzBblSdjRbWpbshHdLCdbQ,newborntown,p1336_10542_,install,1.4,126.233.20.249,E9C050ED-2062-44B1-84BC-B6DE3A592863,1557123900,2019-05-06 14:25:00,1557284884,2019-05-08 11:08:04,1557284915,9ef78bf3-a818-45dc-88df-e508af896a9b__pspm,http://pspm.pingstart.com/api/v4/postback?from=1706&clickid=9ef78bf3-a818-45dc-88df-e508af896a9b__pspm,idfa_E9C050ED-2062-44B1-84BC-B6DE3A592863,ja
FzBblSdjRbWpbshHdLCdbQ,newborntown,p1336_10542_,install,1.4,106.165.236.77,41B44264-337E-4D6D-AC3A-6B0721E868DA,1557482229,2019-05-10 17:57:09,1557482463,2019-05-10 18:01:03,1557482493,b0de9623-c1fe-4888-9a4e-9e14d197a4c3__pspm,http://pspm.pingstart.com/api/v4/postback?from=1706&clickid=b0de9623-c1fe-4888-9a4e-9e14d197a4c3__pspm,idfa_41B44264-337E-4D6D-AC3A-6B0721E868DA,ja
FzBblSdjRbWpbshHdLCdbQ,newborntown,p1336_10542_,install,1.5,126.199.11.182,B2708AC4-00B4-45B8-9E05-ABB8243A2321,1557301690,2019-05-08 15:48:10,1557301729,2019-05-08 15:48:49,1557301760,e2622e8e-9a0c-4ecf-92a0-1749d98cfabc__pspm,http://pspm.pingstart.com/api/v4/postback?from=1706&clickid=e2622e8e-9a0c-4ecf-92a0-1749d98cfabc__pspm,idfa_B2708AC4-00B4-45B8-9E05-ABB8243A2321,ja
FzBblSdjRbWpbshHdLCdbQ,newborntown,p1336_10542_,install,1.4,106.180.3.41,9D2FA39C-3AF4-4AF8-8326-31154A0104E9,1556785988,2019-05-02 16:33:08,1557189702,2019-05-07 08:41:42,1557189733,0597fd43-68c8-48c7-8f5b-a66fa6bbc1df__pspm,http://pspm.pingstart.com/api/v4/postback?from=1706&clickid=0597fd43-68c8-48c7-8f5b-a66fa6bbc1df__pspm,idfa_9D2FA39C-3AF4-4AF8-8326-31154A0104E9,ja
FzBblSdjRbWpbshHdLCdbQ,newborntown,p1336_10542_,install,1.4,59.140.193.77,990DDB52-F831-4A50-9DB5-E8C0E404FE22,1557480877,2019-05-10 17:34:37,1557480904,2019-05-10 17:35:04,1557480934,43fa4c59-45c3-45d7-933f-12867eaf1969__pspm,http://pspm.pingstart.com/api/v4/postback?from=1706&clickid=43fa4c59-45c3-45d7-933f-12867eaf1969__pspm,idfa_990DDB52-F831-4A50-9DB5-E8C0E404FE22,ja
FzBblSdjRbWpbshHdLCdbQ,newborntown,p1336_10542_,install,1.5,60.38.102.94,F448005F-AD7D-471F-86D5-9AE211BA47DE,1556779542,2019-05-02 14:45:42,1556779766,2019-05-02 14:49:26,1556779796,bed65791-0b20-478c-942b-2d3a5f0f8e0e__pspm,http://pspm.pingstart.com/api/v4/postback?from=1706&clickid=bed65791-0b20-478c-942b-2d3a5f0f8e0e__pspm,idfa_F448005F-AD7D-471F-86D5-9AE211BA47DE,ja
FzBblSdjRbWpbshHdLCdbQ,newborntown,p1336_10542_,install,1.5,122.213.240.250,1FBB45AB-054B-4995-A6F2-2F7A3633EC97,1557302067,2019-05-08 15:54:27,1557302085,2019-05-08 15:54:45,1557302115,bf2c59d4-cc7c-4ba8-9988-35a6c63c9231__pspm,http://pspm.pingstart.com/api/v4/postback?from=1706&clickid=bf2c59d4-cc7c-4ba8-9988-35a6c63c9231__pspm,idfa_1FBB45AB-054B-4995-A6F2-2F7A3633EC97,ja
FzBblSdjRbWpbshHdLCdbQ,newborntown,p1336_10542_,install,1.4,14.12.34.96,DF382BA2-D62C-420A-B1D2-321C287684A3,1557569079,2019-05-11 18:04:39,1557569105,2019-05-11 18:05:05,1557569135,1ec7f3bc-068a-42c8-912e-58204dfe4761__pspm,http://pspm.pingstart.com/api/v4/postback?from=1706&clickid=1ec7f3bc-068a-42c8-912e-58204dfe4761__pspm,idfa_DF382BA2-D62C-420A-B1D2-321C287684A3,ja
FzBblSdjRbWpbshHdLCdbQ,newborntown,p1336_10542_,install,1.4,182.169.154.192,A2197A22-E342-4296-B4DD-61AC722B71F1,1557627572,2019-05-12 10:19:32,1557634566,2019-05-12 12:16:06,1557634596,87f9e955-da2f-4608-bd73-ebc6feb25117__pspm,http://pspm.pingstart.com/api/v4/postback?from=1706&clickid=87f9e955-da2f-4608-bd73-ebc6feb25117__pspm,idfa_A2197A22-E342-4296-B4DD-61AC722B71F1,ja
FzBblSdjRbWpbshHdLCdbQ,newborntown,p1336_10542_,install,1.4,221.89.62.195,463CA715-2106-4792-B867-8C7BA76DEAB1,1557484105,2019-05-10 18:28:25,1557485502,2019-05-10 18:51:42,1557485532,972560d9-b9ad-4749-b195-b77716b89562__pspm,http://pspm.pingstart.com/api/v4/postback?from=1706&clickid=972560d9-b9ad-4749-b195-b77716b89562__pspm,idfa_463CA715-2106-4792-B867-8C7BA76DEAB1,ja
FzBblSdjRbWpbshHdLCdbQ,newborntown,p1336_10542_,install,1.4,126.224.132.184,0748D9AE-0218-4134-84B0-AA791154F726,1557205639,2019-05-07 13:07:19,1557205769,2019-05-07 13:09:29,1557205799,65f49d64-8fbf-4a47-bd08-389d8206f547__pspm,http://pspm.pingstart.com/api/v4/postback?from=1706&clickid=65f49d64-8fbf-4a47-bd08-389d8206f547__pspm,idfa_0748D9AE-0218-4134-84B0-AA791154F726,ja
FzBblSdjRbWpbshHdLCdbQ,newborntown,p1336_10542_,install,1.4,182.251.123.120,C7D9A37B-B72B-4F7D-A3D8-FAB41EB8D5FE,1557378601,2019-05-09 13:10:01,1557379172,2019-05-09 13:19:32,1557379202,68ffb6ef-e16c-45cd-8ed5-d5a209087f23__pspm,http://pspm.pingstart.com/api/v4/postback?from=1706&clickid=68ffb6ef-e16c-45cd-8ed5-d5a209087f23__pspm,idfa_C7D9A37B-B72B-4F7D-A3D8-FAB41EB8D5FE,ja
FzBblSdjRbWpbshHdLCdbQ,newborntown,p1336_10542_,install,1.4,125.11.21.35,409979A4-560B-432E-B897-51A73EE4C66E,1557646456,2019-05-12 15:34:16,1557664254,2019-05-12 20:30:54,1557664285,85e1ff40-0ff8-41ed-b615-f25b9f3ecb78__pspm,http://pspm.pingstart.com/api/v4/postback?from=1706&clickid=85e1ff40-0ff8-41ed-b615-f25b9f3ecb78__pspm,idfa_409979A4-560B-432E-B897-51A73EE4C66E,ja
FzBblSdjRbWpbshHdLCdbQ,newborntown,p1336_10542_,install,1.4,61.46.172.252,727E7DEF-04F5-4F48-ACBD-BD22C2CCA629,1557651788,2019-05-12 17:03:08,1557652694,2019-05-12 17:18:14,1557652724,96770e58-e8ae-4196-ba84-fe0ec65ed59e__pspm,http://pspm.pingstart.com/api/v4/postback?from=1706&clickid=96770e58-e8ae-4196-ba84-fe0ec65ed59e__pspm,idfa_727E7DEF-04F5-4F48-ACBD-BD22C2CCA629,ja
FzBblSdjRbWpbshHdLCdbQ,newborntown,p1336_10542_,install,1.4,124.150.215.30,0C7C6749-F3FC-456A-B3D4-DAF220D942AE,1556958442,2019-05-04 16:27:22,1556958729,2019-05-04 16:32:09,1556958759,369981bd-8f2b-4072-8d64-1c1c5021044b__pspm,http://pspm.pingstart.com/api/v4/postback?from=1706&clickid=369981bd-8f2b-4072-8d64-1c1c5021044b__pspm,idfa_0C7C6749-F3FC-456A-B3D4-DAF220D942AE,ja
FzBblSdjRbWpbshHdLCdbQ,newborntown,p1336_10542_,install,1.5,110.92.38.244,AB7CB412-EA66-4B26-8B55-DAC9DEA62DE8,1556695592,2019-05-01 15:26:32,1556695716,2019-05-01 15:28:36,1556695746,5da2e84c-80f2-4538-a6c2-258a027c60fd__pspm,http://pspm.pingstart.com/api/v4/postback?from=1706&clickid=5da2e84c-80f2-4538-a6c2-258a027c60fd__pspm,idfa_AB7CB412-EA66-4B26-8B55-DAC9DEA62DE8,ja
FzBblSdjRbWpbshHdLCdbQ,newborntown,p1336_10542_,install,1.4,122.102.202.132,8232B6EA-3F7D-4761-AE83-8C5D6CBD79B0,1557117695,2019-05-06 12:41:35,1557229178,2019-05-07 19:39:38,1557229208,fd2d71f7-7fbe-4d2e-8f2a-e972443a5774__pspm,http://pspm.pingstart.com/api/v4/postback?from=1706&clickid=fd2d71f7-7fbe-4d2e-8f2a-e972443a5774__pspm,idfa_8232B6EA-3F7D-4761-AE83-8C5D6CBD79B0,ja
FzBblSdjRbWpbshHdLCdbQ,newborntown,p1336_10542_,install,1.4,119.104.93.43,708A65BB-EB6D-4871-BA0D-8F58964336F2,1557639390,2019-05-12 13:36:30,1557639523,2019-05-12 13:38:43,1557639553,c4a19d22-3e84-49db-901d-7db5f9d6a4e2__pspm,http://pspm.pingstart.com/api/v4/postback?from=1706&clickid=c4a19d22-3e84-49db-901d-7db5f9d6a4e2__pspm,idfa_708A65BB-EB6D-4871-BA0D-8F58964336F2,ja
FzBblSdjRbWpbshHdLCdbQ,newborntown,p1336_10542_,install,1.4,60.91.91.91,B3AD64A1-89EC-4DDE-AF06-F4B68B32BDFA,1557121888,2019-05-06 13:51:28,1557121914,2019-05-06 13:51:54,1557121944,da709e40-2a0b-4bf9-b2f7-b70159252da8__pspm,http://pspm.pingstart.com/api/v4/postback?from=1706&clickid=da709e40-2a0b-4bf9-b2f7-b70159252da8__pspm,idfa_B3AD64A1-89EC-4DDE-AF06-F4B68B32BDFA,ja
FzBblSdjRbWpbshHdLCdbQ,newborntown,p1336_10542_,install,1.4,180.17.32.44,E84982A1-01AE-4156-9666-77A28A3742B6,1557549343,2019-05-11 12:35:43,1557549369,2019-05-11 12:36:09,1557549399,0bc484be-3ac9-40f9-ba03-33b199ef91aa__pspm,http://pspm.pingstart.com/api/v4/postback?from=1706&clickid=0bc484be-3ac9-40f9-ba03-33b199ef91aa__pspm,idfa_E84982A1-01AE-4156-9666-77A28A3742B6,ja
FzBblSdjRbWpbshHdLCdbQ,newborntown,p1336_10542_,install,1.4,14.8.3.130,5D73D55D-4CCA-42E4-9A9D-9E84BCB411A0,1557030794,2019-05-05 12:33:14,1557030826,2019-05-05 12:33:46,1557030856,6a73a7a1-48b2-47ef-9e08-94d8b7471db8__pspm,http://pspm.pingstart.com/api/v4/postback?from=1706&clickid=6a73a7a1-48b2-47ef-9e08-94d8b7471db8__pspm,idfa_5D73D55D-4CCA-42E4-9A9D-9E84BCB411A0,ja
FzBblSdjRbWpbshHdLCdbQ,newborntown,p1336_10542_,install,1.5,106.133.90.215,BBB1618C-1641-4D9E-8D69-7C6F4262B8FF,1557300380,2019-05-08 15:26:20,1557300466,2019-05-08 15:27:46,1557300496,f1933b58-c1a2-4376-b43d-c3005556501a__pspm,http://pspm.pingstart.com/api/v4/postback?from=1706&clickid=f1933b58-c1a2-4376-b43d-c3005556501a__pspm,idfa_BBB1618C-1641-4D9E-8D69-7C6F4262B8FF,ja
FzBblSdjRbWpbshHdLCdbQ,newborntown,p1336_10542_,install,1.5,49.104.28.26,99A490EE-26D7-406C-91A7-C3AA2B8E442D,1557298779,2019-05-08 14:59:39,1557299155,2019-05-08 15:05:55,1557299185,29d01236-d085-47db-98d1-f3e89ff7ea96__pspm,http://pspm.pingstart.com/api/v4/postback?from=1706&clickid=29d01236-d085-47db-98d1-f3e89ff7ea96__pspm,idfa_99A490EE-26D7-406C-91A7-C3AA2B8E442D,ja
FzBblSdjRbWpbshHdLCdbQ,newborntown,p1336_10542_,install,1.4,49.104.43.164,1DA73B8A-9D91-4369-B2E8-78A06FE4BBFD,1556957875,2019-05-04 16:17:55,1556957963,2019-05-04 16:19:23,1556957993,892fb897-fd8c-450a-9445-6fd58550b5c2__pspm,http://pspm.pingstart.com/api/v4/postback?from=1706&clickid=892fb897-fd8c-450a-9445-6fd58550b5c2__pspm,idfa_1DA73B8A-9D91-4369-B2E8-78A06FE4BBFD,ja
FzBblSdjRbWpbshHdLCdbQ,newborntown,p1336_10542_,install,1.4,124.219.136.17,1421D4C1-6298-4D1F-BD73-21CC617D3D84,1557209794,2019-05-07 14:16:34,1557215309,2019-05-07 15:48:29,1557215339,c82b2224-aa51-4e47-8f43-0f9447ca4dcd__pspm,http://pspm.pingstart.com/api/v4/postback?from=1706&clickid=c82b2224-aa51-4e47-8f43-0f9447ca4dcd__pspm,idfa_1421D4C1-6298-4D1F-BD73-21CC617D3D84,ja
FzBblSdjRbWpbshHdLCdbQ,newborntown,p1336_10542_,install,1.4,218.227.17.138,58A0CDD8-D486-4AC7-B277-0AD8D99B9ACE,1557648273,2019-05-12 16:04:33,1557648298,2019-05-12 16:04:58,1557648328,be22940b-61fb-4b8e-9b3b-a2a0671a518b__pspm,http://pspm.pingstart.com/api/v4/postback?from=1706&clickid=be22940b-61fb-4b8e-9b3b-a2a0671a518b__pspm,idfa_58A0CDD8-D486-4AC7-B277-0AD8D99B9ACE,ja
FzBblSdjRbWpbshHdLCdbQ,newborntown,p1336_10542_,install,1.5,49.104.9.58,B518C523-31CE-49E5-B24D-1CDF5C38D454,1556768636,2019-05-02 11:43:56,1556769226,2019-05-02 11:53:46,1556769256,ed1be78f-bdc1-4b98-afaa-96d45d7feac6__pspm,http://pspm.pingstart.com/api/v4/postback?from=1706&clickid=ed1be78f-bdc1-4b98-afaa-96d45d7feac6__pspm,idfa_B518C523-31CE-49E5-B24D-1CDF5C38D454,ja
FzBblSdjRbWpbshHdLCdbQ,newborntown,p1336_10542_,install,1.5,59.139.137.127,3AAD5959-1A6B-4075-8371-BE68FD519EFC,1556695813,2019-05-01 15:30:13,1556695962,2019-05-01 15:32:42,1556695993,9d3d9a9a-6167-4781-a081-d268ae9d09ae__pspm,http://pspm.pingstart.com/api/v4/postback?from=1706&clickid=9d3d9a9a-6167-4781-a081-d268ae9d09ae__pspm,idfa_3AAD5959-1A6B-4075-8371-BE68FD519EFC,ja
FzBblSdjRbWpbshHdLCdbQ,newborntown,p1336_10542_,install,1.5,49.97.93.41,E1062C92-2628-40E3-BAF6-72D0115EE15A,1556680960,2019-05-01 11:22:40,1556681003,2019-05-01 11:23:23,1556681034,97a45d53-dd5b-4edf-8ec5-6a99d6be6943__pspm,http://pspm.pingstart.com/api/v4/postback?from=1706&clickid=97a45d53-dd5b-4edf-8ec5-6a99d6be6943__pspm,idfa_E1062C92-2628-40E3-BAF6-72D0115EE15A,ja
FzBblSdjRbWpbshHdLCdbQ,newborntown,p1336_10542_,install,1.4,182.251.56.207,D313CDCB-AE82-4A56-86E1-D641038FC4C4,1557124977,2019-05-06 14:42:57,1557125033,2019-05-06 14:43:53,1557125063,b3ddc136-8801-4114-b950-a16b3e044cf4__pspm,http://pspm.pingstart.com/api/v4/postback?from=1706&clickid=b3ddc136-8801-4114-b950-a16b3e044cf4__pspm,idfa_D313CDCB-AE82-4A56-86E1-D641038FC4C4,ja
FzBblSdjRbWpbshHdLCdbQ,newborntown,p1336_10542_,install,1.5,150.59.192.166,9257E80B-C19C-446D-8981-D2BFBFDF6C01,1557206338,2019-05-07 13:18:58,1557299995,2019-05-08 15:19:55,1557300025,64d2101c-bc3c-45eb-9498-fa39cdf41ad3__pspm,http://pspm.pingstart.com/api/v4/postback?from=1706&clickid=64d2101c-bc3c-45eb-9498-fa39cdf41ad3__pspm,idfa_9257E80B-C19C-446D-8981-D2BFBFDF6C01,ja
FzBblSdjRbWpbshHdLCdbQ,newborntown,p1336_10542_,install,1.4,49.106.192.61,DFECABB5-4FAF-4272-801F-02F5BAF9396C,1557478418,2019-05-10 16:53:38,1557478925,2019-05-10 17:02:05,1557478956,15bd4104-016b-456f-8e13-10a8c32f012e__pspm,http://pspm.pingstart.com/api/v4/postback?from=1706&clickid=15bd4104-016b-456f-8e13-10a8c32f012e__pspm,idfa_DFECABB5-4FAF-4272-801F-02F5BAF9396C,ja
FzBblSdjRbWpbshHdLCdbQ,newborntown,p1336_10542_,install,1.5,126.199.213.44,1E34A94A-EE99-4C09-B8F3-8054DAC8742F,1556680655,2019-05-01 11:17:35,1556680728,2019-05-01 11:18:48,1556680758,3b50100c-75ce-4bdf-8ed2-a9b2e0da21ed__pspm,http://pspm.pingstart.com/api/v4/postback?from=1706&clickid=3b50100c-75ce-4bdf-8ed2-a9b2e0da21ed__pspm,idfa_1E34A94A-EE99-4C09-B8F3-8054DAC8742F,ja
FzBblSdjRbWpbshHdLCdbQ,newborntown,p1336_10542_,install,1.4,219.121.130.122,C3D58C4A-20DD-4A7A-A184-536A71F5C214,1557311023,2019-05-08 18:23:43,1557312487,2019-05-08 18:48:07,1557312518,a1f81608-45ad-45aa-af02-07e2ce8bcaec__pspm,http://pspm.pingstart.com/api/v4/postback?from=1706&clickid=a1f81608-45ad-45aa-af02-07e2ce8bcaec__pspm,idfa_C3D58C4A-20DD-4A7A-A184-536A71F5C214,ja
FzBblSdjRbWpbshHdLCdbQ,newborntown,p1336_10542_,install,1.5,126.199.22.89,6C276167-A959-42F1-AB6B-2BCAFBF102E7,1556768122,2019-05-02 11:35:22,1556768248,2019-05-02 11:37:28,1556768278,612ca9d9-0950-40e1-b7be-9bd9def35495__pspm,http://pspm.pingstart.com/api/v4/postback?from=1706&clickid=612ca9d9-0950-40e1-b7be-9bd9def35495__pspm,idfa_6C276167-A959-42F1-AB6B-2BCAFBF102E7,ja
FzBblSdjRbWpbshHdLCdbQ,newborntown,p1336_10542_,install,1.5,183.74.205.6,592058EE-E734-4A63-9105-8A40B8EFBC7F,1556673610,2019-05-01 09:20:10,1556707782,2019-05-01 18:49:42,1556707812,5f31108e-e334-41ea-9918-68e41d43dd79__pspm,http://pspm.pingstart.com/api/v4/postback?from=1706&clickid=5f31108e-e334-41ea-9918-68e41d43dd79__pspm,idfa_592058EE-E734-4A63-9105-8A40B8EFBC7F,ja
FzBblSdjRbWpbshHdLCdbQ,newborntown,p1336_10542_,install,1.5,220.108.128.32,82680302-D94F-4995-B771-C00E04268EF8,1556780042,2019-05-02 14:54:02,1556780170,2019-05-02 14:56:10,1556780200,0df4212b-1ab9-4a05-93fe-08c054e8211c__pspm,http://pspm.pingstart.com/api/v4/postback?from=1706&clickid=0df4212b-1ab9-4a05-93fe-08c054e8211c__pspm,idfa_82680302-D94F-4995-B771-C00E04268EF8,ja
FzBblSdjRbWpbshHdLCdbQ,newborntown,p1336_10542_,install,1.4,219.121.153.141,42D87686-2C00-4AA7-BF1B-E5A861681B98,1557379196,2019-05-09 13:19:56,1557379307,2019-05-09 13:21:47,1557379337,07937cf1-0189-409c-aad3-0f64fe3692f2__pspm,http://pspm.pingstart.com/api/v4/postback?from=1706&clickid=07937cf1-0189-409c-aad3-0f64fe3692f2__pspm,idfa_42D87686-2C00-4AA7-BF1B-E5A861681B98,ja
FzBblSdjRbWpbshHdLCdbQ,newborntown,p1336_10542_,install,1.4,110.163.13.207,A40EF8AA-6883-45A1-B71D-8AE5C5677915,1556846370,2019-05-03 09:19:30,1556927120,2019-05-04 07:45:20,1556927150,5aed3708-3751-4842-ae2f-c3607f2a3ade__pspm,http://pspm.pingstart.com/api/v4/postback?from=1706&clickid=5aed3708-3751-4842-ae2f-c3607f2a3ade__pspm,idfa_A40EF8AA-6883-45A1-B71D-8AE5C5677915,ja
FzBblSdjRbWpbshHdLCdbQ,newborntown,p1336_10542_,install,1.4,49.97.104.166,BFB58F01-339A-4E5E-84CB-A0CA0CDB775F,1557635469,2019-05-12 12:31:09,1557635495,2019-05-12 12:31:35,1557635525,88f0acba-d17e-4143-8c7d-5877801ccbb9__pspm,http://pspm.pingstart.com/api/v4/postback?from=1706&clickid=88f0acba-d17e-4143-8c7d-5877801ccbb9__pspm,idfa_BFB58F01-339A-4E5E-84CB-A0CA0CDB775F,ja
FzBblSdjRbWpbshHdLCdbQ,newborntown,p1336_10542_,install,1.4,49.104.3.114,725E6A22-265F-4111-939C-1DC2386C6114,1557108057,2019-05-06 10:00:57,1557108101,2019-05-06 10:01:41,1557108131,c9a4c072-8449-480b-ac8c-40056b6018ff__pspm,http://pspm.pingstart.com/api/v4/postback?from=1706&clickid=c9a4c072-8449-480b-ac8c-40056b6018ff__pspm,idfa_725E6A22-265F-4111-939C-1DC2386C6114,ja
FzBblSdjRbWpbshHdLCdbQ,newborntown,p1336_10542_,install,1.4,42.145.101.50,0167036C-2CBB-4E2F-930D-605110066C9C,1557550822,2019-05-11 13:00:22,1557550938,2019-05-11 13:02:18,1557550968,4a0504b2-ff45-4b65-ae3e-dc99d1dfaf2c__pspm,http://pspm.pingstart.com/api/v4/postback?from=1706&clickid=4a0504b2-ff45-4b65-ae3e-dc99d1dfaf2c__pspm,idfa_0167036C-2CBB-4E2F-930D-605110066C9C,ja
FzBblSdjRbWpbshHdLCdbQ,newborntown,p1336_10542_,install,1.4,153.201.66.105,25550F4C-2C00-4E4A-B3D9-E9FD4F9501A2,1556957515,2019-05-04 16:11:55,1556966505,2019-05-04 18:41:45,1556966536,088b3925-7674-45a1-8b07-28652bcc464c__pspm,http://pspm.pingstart.com/api/v4/postback?from=1706&clickid=088b3925-7674-45a1-8b07-28652bcc464c__pspm,idfa_25550F4C-2C00-4E4A-B3D9-E9FD4F9501A2,ja
FzBblSdjRbWpbshHdLCdbQ,newborntown,p1336_10542_,install,1.5,202.25.99.65,09C9A30B-03FE-4CC9-BAF9-8BCF9EFE9DA8,1557291900,2019-05-08 13:05:00,1557292007,2019-05-08 13:06:47,1557292037,059073c1-4ea7-48a7-a6e6-9d6ee0be4717__pspm,http://pspm.pingstart.com/api/v4/postback?from=1706&clickid=059073c1-4ea7-48a7-a6e6-9d6ee0be4717__pspm,idfa_09C9A30B-03FE-4CC9-BAF9-8BCF9EFE9DA8,ja
FzBblSdjRbWpbshHdLCdbQ,newborntown,p1336_10542_,install,1.4,126.163.142.188,C83D2737-80C1-4653-81EC-79A9BA202DD4,1557541289,2019-05-11 10:21:29,1557561977,2019-05-11 16:06:17,1557562007,684e808d-8607-4854-b8e0-cd625cae145c__pspm,http://pspm.pingstart.com/api/v4/postback?from=1706&clickid=684e808d-8607-4854-b8e0-cd625cae145c__pspm,idfa_C83D2737-80C1-4653-81EC-79A9BA202DD4,ja
FzBblSdjRbWpbshHdLCdbQ,newborntown,p1336_10542_,install,1.4,101.141.95.145,BEEAD52A-210F-42A5-BEAC-8DA63354E71D,1557557982,2019-05-11 14:59:42,1557579974,2019-05-11 21:06:14,1557580004,87b6c055-3fe1-4be6-8495-513dbcb9d7c1__pspm,http://pspm.pingstart.com/api/v4/postback?from=1706&clickid=87b6c055-3fe1-4be6-8495-513dbcb9d7c1__pspm,idfa_BEEAD52A-210F-42A5-BEAC-8DA63354E71D,ja
FzBblSdjRbWpbshHdLCdbQ,newborntown,p1336_10542_,install,1.5,60.138.12.29,34540573-F693-4490-ADC3-5972219D693A,1557307444,2019-05-08 17:24:04,1557307789,2019-05-08 17:29:49,1557307819,ddfba5b4-c5f6-4b49-be37-89c4889f41b7__pspm,http://pspm.pingstart.com/api/v4/postback?from=1706&clickid=ddfba5b4-c5f6-4b49-be37-89c4889f41b7__pspm,idfa_34540573-F693-4490-ADC3-5972219D693A,ja
FzBblSdjRbWpbshHdLCdbQ,newborntown,p1336_10542_,install,1.5,126.193.7.143,26304236-6EFF-4DB7-8EA4-E79E2CB24073,1557310789,2019-05-08 18:19:49,1557310834,2019-05-08 18:20:34,1557310865,0a5daa35-c7f2-4bb1-b056-9d84a3b8488a__pspm,http://pspm.pingstart.com/api/v4/postback?from=1706&clickid=0a5daa35-c7f2-4bb1-b056-9d84a3b8488a__pspm,idfa_26304236-6EFF-4DB7-8EA4-E79E2CB24073,ja
FzBblSdjRbWpbshHdLCdbQ,newborntown,p1336_10542_,install,1.4,126.182.66.173,40918610-A016-4A7B-811D-A657FF926D29,1557571193,2019-05-11 18:39:53,1557571238,2019-05-11 18:40:38,1557571268,eddb98cb-e14a-4a03-af9c-8690ecbebe7f__pspm,http://pspm.pingstart.com/api/v4/postback?from=1706&clickid=eddb98cb-e14a-4a03-af9c-8690ecbebe7f__pspm,idfa_40918610-A016-4A7B-811D-A657FF926D29,ja
FzBblSdjRbWpbshHdLCdbQ,newborntown,p1336_10542_,install,1.4,60.158.220.189,1A6982D6-BE5A-492F-B299-7104EBD6CD4D,1557116344,2019-05-06 12:19:04,1557116479,2019-05-06 12:21:19,1557116509,c1eb16e1-b6bb-4ef1-a91f-d9a332db9ba0__pspm,http://pspm.pingstart.com/api/v4/postback?from=1706&clickid=c1eb16e1-b6bb-4ef1-a91f-d9a332db9ba0__pspm,idfa_1A6982D6-BE5A-492F-B299-7104EBD6CD4D,ja
FzBblSdjRbWpbshHdLCdbQ,newborntown,p1336_10542_,install,1.4,60.105.169.187,AB0C7E85-E2BE-4A10-8C76-FFC80EB404B6,1557559814,2019-05-11 15:30:14,1557559857,2019-05-11 15:30:57,1557559887,b959c98f-3e46-4561-9e4c-ceb6030f8559__pspm,http://pspm.pingstart.com/api/v4/postback?from=1706&clickid=b959c98f-3e46-4561-9e4c-ceb6030f8559__pspm,idfa_AB0C7E85-E2BE-4A10-8C76-FFC80EB404B6,ja
FzBblSdjRbWpbshHdLCdbQ,newborntown,p1336_10542_,install,1.4,126.227.231.114,87426229-92BC-4161-A1D9-4A666C652D95,1556785762,2019-05-02 16:29:22,1556871188,2019-05-03 16:13:08,1556871218,67f7e43b-75ec-4600-b786-bc46b7525d3b__pspm,http://pspm.pingstart.com/api/v4/postback?from=1706&clickid=67f7e43b-75ec-4600-b786-bc46b7525d3b__pspm,idfa_87426229-92BC-4161-A1D9-4A666C652D95,ja
FzBblSdjRbWpbshHdLCdbQ,newborntown,p1336_10542_,install,1.4,153.142.245.246,6189B297-6D7F-4FFC-B7E5-1ED2571BBBA7,1557388532,2019-05-09 15:55:32,1557388917,2019-05-09 16:01:57,1557388947,5a9fd1d6-50aa-4b3d-af39-9d60ce74e3ae__pspm,http://pspm.pingstart.com/api/v4/postback?from=1706&clickid=5a9fd1d6-50aa-4b3d-af39-9d60ce74e3ae__pspm,idfa_6189B297-6D7F-4FFC-B7E5-1ED2571BBBA7,ja
FzBblSdjRbWpbshHdLCdbQ,newborntown,p1336_10542_,install,1.4,153.202.73.12,C76DB1F6-3B7B-45B2-8821-3B2EC44C53C4,1557124992,2019-05-06 14:43:12,1557125260,2019-05-06 14:47:40,1557125290,3d344a19-b8a4-4967-bb2b-09c0a20ba6b0__pspm,http://pspm.pingstart.com/api/v4/postback?from=1706&clickid=3d344a19-b8a4-4967-bb2b-09c0a20ba6b0__pspm,idfa_C76DB1F6-3B7B-45B2-8821-3B2EC44C53C4,ja
FzBblSdjRbWpbshHdLCdbQ,newborntown,p1336_10542_,install,1.4,210.194.62.31,B3D2B32D-3B73-445E-AC9A-70EF51E5F260,1557117598,2019-05-06 12:39:58,1557119409,2019-05-06 13:10:09,1557119439,cbfab0e8-6d30-4c88-8e78-9dc04b9ea74c__pspm,http://pspm.pingstart.com/api/v4/postback?from=1706&clickid=cbfab0e8-6d30-4c88-8e78-9dc04b9ea74c__pspm,idfa_B3D2B32D-3B73-445E-AC9A-70EF51E5F260,ja
FzBblSdjRbWpbshHdLCdbQ,newborntown,p1336_10542_,install,1.4,113.159.230.130,30D6833D-C928-4A73-9F7E-D87CC4400218,1557559138,2019-05-11 15:18:58,1557559176,2019-05-11 15:19:36,1557559206,43a8715c-5be8-408f-b492-73d5fa93287b__pspm,http://pspm.pingstart.com/api/v4/postback?from=1706&clickid=43a8715c-5be8-408f-b492-73d5fa93287b__pspm,idfa_30D6833D-C928-4A73-9F7E-D87CC4400218,ja
FzBblSdjRbWpbshHdLCdbQ,newborntown,p1336_10542_,install,1.4,49.96.20.170,8D218323-5D36-4157-B7F7-267F198C05D6,1557383505,2019-05-09 14:31:45,1557383591,2019-05-09 14:33:11,1557383621,51399565-e8ff-4e2d-a0b3-cde5a70e181e__pspm,http://pspm.pingstart.com/api/v4/postback?from=1706&clickid=51399565-e8ff-4e2d-a0b3-cde5a70e181e__pspm,idfa_8D218323-5D36-4157-B7F7-267F198C05D6,ja
FzBblSdjRbWpbshHdLCdbQ,newborntown,p1336_10542_,install,1.4,210.237.113.129,B7541827-DC77-4B55-8EAB-A50770C3948B,1557639111,2019-05-12 13:31:51,1557639149,2019-05-12 13:32:29,1557639179,4cf02fc3-9d5a-46ad-8e22-0da1491a34bd__pspm,http://pspm.pingstart.com/api/v4/postback?from=1706&clickid=4cf02fc3-9d5a-46ad-8e22-0da1491a34bd__pspm,idfa_B7541827-DC77-4B55-8EAB-A50770C3948B,ja
FzBblSdjRbWpbshHdLCdbQ,newborntown,p1336_10542_,install,1.4,126.199.135.76,C650D251-082D-418C-B691-3C21C1547AB7,1557472883,2019-05-10 15:21:23,1557472914,2019-05-10 15:21:54,1557472944,5f7b54d9-6bb1-4564-b938-ab2bd114f4b2__pspm,http://pspm.pingstart.com/api/v4/postback?from=1706&clickid=5f7b54d9-6bb1-4564-b938-ab2bd114f4b2__pspm,idfa_C650D251-082D-418C-B691-3C21C1547AB7,ja
FzBblSdjRbWpbshHdLCdbQ,newborntown,p1336_10542_,install,1.4,126.147.150.113,DB8172A0-342A-4703-A062-04DB3C74171D,1557472274,2019-05-10 15:11:14,1557472479,2019-05-10 15:14:39,1557472509,96ed01ba-36ec-4e2c-9359-76a2affbf902__pspm,http://pspm.pingstart.com/api/v4/postback?from=1706&clickid=96ed01ba-36ec-4e2c-9359-76a2affbf902__pspm,idfa_DB8172A0-342A-4703-A062-04DB3C74171D,ja
FzBblSdjRbWpbshHdLCdbQ,newborntown,p1336_10542_,install,1.4,183.176.74.170,1CD8255E-AF12-4788-8783-7FC9ADA79ACD,1557567800,2019-05-11 17:43:20,1557567983,2019-05-11 17:46:23,1557568013,22f0e50e-7da0-4ab6-971a-e06d01b67c22__pspm,http://pspm.pingstart.com/api/v4/postback?from=1706&clickid=22f0e50e-7da0-4ab6-971a-e06d01b67c22__pspm,idfa_1CD8255E-AF12-4788-8783-7FC9ADA79ACD,ja
FzBblSdjRbWpbshHdLCdbQ,newborntown,p1336_10542_,install,1.4,158.201.245.201,E25CD08A-FC2C-441D-A8BE-F6DAF0F41380,1557111711,2019-05-06 11:01:51,1557112244,2019-05-06 11:10:44,1557112274,0c68eb66-5729-4534-b9f4-bb4fed2270d1__pspm,http://pspm.pingstart.com/api/v4/postback?from=1706&clickid=0c68eb66-5729-4534-b9f4-bb4fed2270d1__pspm,idfa_E25CD08A-FC2C-441D-A8BE-F6DAF0F41380,ja
FzBblSdjRbWpbshHdLCdbQ,newborntown,p1336_10542_,install,1.4,123.1.50.225,AD1FC177-9289-4D36-AF00-3599FD60B812,1557559636,2019-05-11 15:27:16,1557559707,2019-05-11 15:28:27,1557559737,80b957b5-220b-4806-9cee-3d756204121c__pspm,http://pspm.pingstart.com/api/v4/postback?from=1706&clickid=80b957b5-220b-4806-9cee-3d756204121c__pspm,idfa_AD1FC177-9289-4D36-AF00-3599FD60B812,ja
FzBblSdjRbWpbshHdLCdbQ,newborntown,p1336_10542_,install,1.4,106.156.94.67,466F4BCB-8866-4B79-886A-E706FA41D7B9,1557120550,2019-05-06 13:29:10,1557120601,2019-05-06 13:30:01,1557120631,5ffe744e-8c69-4652-8fc5-16a5c72f8557__pspm,http://pspm.pingstart.com/api/v4/postback?from=1706&clickid=5ffe744e-8c69-4652-8fc5-16a5c72f8557__pspm,idfa_466F4BCB-8866-4B79-886A-E706FA41D7B9,ja
FzBblSdjRbWpbshHdLCdbQ,newborntown,p1336_10542_,install,1.4,126.182.67.199,C865FEFE-40BF-4C68-8D28-6287962C08E0,1557030757,2019-05-05 12:32:37,1557030781,2019-05-05 12:33:01,1557030811,efb1a20a-c362-403a-938c-fdbeca862d11__pspm,http://pspm.pingstart.com/api/v4/postback?from=1706&clickid=efb1a20a-c362-403a-938c-fdbeca862d11__pspm,idfa_C865FEFE-40BF-4C68-8D28-6287962C08E0,ja
FzBblSdjRbWpbshHdLCdbQ,newborntown,p1336_10542_,install,1.4,126.163.129.37,057FCAB1-694A-4FB8-B57B-5029E8812036,1557109374,2019-05-06 10:22:54,1557216742,2019-05-07 16:12:22,1557216772,8e11dff1-bf9a-4ce2-90ab-0dea7705ba1d__pspm,http://pspm.pingstart.com/api/v4/postback?from=1706&clickid=8e11dff1-bf9a-4ce2-90ab-0dea7705ba1d__pspm,idfa_057FCAB1-694A-4FB8-B57B-5029E8812036,ja
FzBblSdjRbWpbshHdLCdbQ,newborntown,p1336_10542_,install,1.4,42.83.23.187,38B73BDD-588A-412B-9C8B-35FF6C728526,1557648356,2019-05-12 16:05:56,1557648445,2019-05-12 16:07:25,1557648475,21cad5b4-2861-4a42-a748-7bf9696b228a__pspm,http://pspm.pingstart.com/api/v4/postback?from=1706&clickid=21cad5b4-2861-4a42-a748-7bf9696b228a__pspm,idfa_38B73BDD-588A-412B-9C8B-35FF6C728526,ja
FzBblSdjRbWpbshHdLCdbQ,newborntown,p1336_10542_,install,1.4,211.1.223.21,3508C531-AD0A-47F0-84A0-AA91664ADBF7,1557026624,2019-05-05 11:23:44,1557027129,2019-05-05 11:32:09,1557027159,98b61b19-6bb2-4c71-ba8f-56790de8462c__pspm,http://pspm.pingstart.com/api/v4/postback?from=1706&clickid=98b61b19-6bb2-4c71-ba8f-56790de8462c__pspm,idfa_3508C531-AD0A-47F0-84A0-AA91664ADBF7,ja
FzBblSdjRbWpbshHdLCdbQ,newborntown,p1336_10542_,install,1.4,124.159.178.242,0D0C56BC-5747-45BB-9E21-B9ECCCF0C545,1557209955,2019-05-07 14:19:15,1557210721,2019-05-07 14:32:01,1557210751,323b6769-dadc-4875-977b-a03a97a1f520__pspm,http://pspm.pingstart.com/api/v4/postback?from=1706&clickid=323b6769-dadc-4875-977b-a03a97a1f520__pspm,idfa_0D0C56BC-5747-45BB-9E21-B9ECCCF0C545,ja
FzBblSdjRbWpbshHdLCdbQ,newborntown,p1336_10542_,install,1.4,124.142.125.252,AB3250E3-0D91-4668-A77B-0EE4F3FE0D6A,1557638084,2019-05-12 13:14:44,1557638140,2019-05-12 13:15:40,1557638170,9802c4a0-4128-4f85-87aa-2e90f275a0fe__pspm,http://pspm.pingstart.com/api/v4/postback?from=1706&clickid=9802c4a0-4128-4f85-87aa-2e90f275a0fe__pspm,idfa_AB3250E3-0D91-4668-A77B-0EE4F3FE0D6A,ja
FzBblSdjRbWpbshHdLCdbQ,newborntown,p1336_10542_,install,1.5,49.104.8.104,5F38250A-7DEC-42B4-850E-F109B986776A,1556767927,2019-05-02 11:32:07,1556767982,2019-05-02 11:33:02,1556768012,72e311be-6dbe-40e0-a6c6-a15626982eea__pspm,http://pspm.pingstart.com/api/v4/postback?from=1706&clickid=72e311be-6dbe-40e0-a6c6-a15626982eea__pspm,idfa_5F38250A-7DEC-42B4-850E-F109B986776A,ja
FzBblSdjRbWpbshHdLCdbQ,newborntown,p1336_10542_,install,1.4,183.74.207.233,B0971C59-04FE-4B66-8AEA-4A341A8B09C6,1557119668,2019-05-06 13:14:28,1557119733,2019-05-06 13:15:33,1557119763,94eebea4-748f-45ea-8311-118334b70187__pspm,http://pspm.pingstart.com/api/v4/postback?from=1706&clickid=94eebea4-748f-45ea-8311-118334b70187__pspm,idfa_B0971C59-04FE-4B66-8AEA-4A341A8B09C6,ja
FzBblSdjRbWpbshHdLCdbQ,newborntown,p1336_10542_,install,1.5,14.13.131.225,3A43941C-B51E-4E8B-8E7A-F720B8760E12,1556676808,2019-05-01 10:13:28,1556676865,2019-05-01 10:14:25,1556676895,bcd0089f-06ec-45a7-a006-ac6276ac1a60__pspm,http://pspm.pingstart.com/api/v4/postback?from=1706&clickid=bcd0089f-06ec-45a7-a006-ac6276ac1a60__pspm,idfa_3A43941C-B51E-4E8B-8E7A-F720B8760E12,ja
FzBblSdjRbWpbshHdLCdbQ,newborntown,p1336_10542_,install,1.4,126.21.172.16,E6F6AD3B-22BA-417A-8533-8A38F1CD58B0,1557483933,2019-05-10 18:25:33,1557484128,2019-05-10 18:28:48,1557484158,49c386a8-b643-4502-9e31-4c1d651f1744__pspm,http://pspm.pingstart.com/api/v4/postback?from=1706&clickid=49c386a8-b643-4502-9e31-4c1d651f1744__pspm,idfa_E6F6AD3B-22BA-417A-8533-8A38F1CD58B0,ja
FzBblSdjRbWpbshHdLCdbQ,newborntown,p1336_10542_,install,1.4,110.3.189.88,EAB2D178-C7F2-48C2-87BC-E505142BD781,1557638578,2019-05-12 13:22:58,1557638755,2019-05-12 13:25:55,1557638785,db1f7f13-0f78-4323-855d-ef73301fe0a4__pspm,http://pspm.pingstart.com/api/v4/postback?from=1706&clickid=db1f7f13-0f78-4323-855d-ef73301fe0a4__pspm,idfa_EAB2D178-C7F2-48C2-87BC-E505142BD781,ja
FzBblSdjRbWpbshHdLCdbQ,newborntown,p1336_10542_,install,1.4,133.6.28.35,B649353D-8FAE-4745-ADC9-583E7E22FF42,1557277735,2019-05-08 09:08:55,1557277883,2019-05-08 09:11:23,1557277913,f26a7bc2-df5e-4599-bc7c-abf065d2cc5a__pspm,http://pspm.pingstart.com/api/v4/postback?from=1706&clickid=f26a7bc2-df5e-4599-bc7c-abf065d2cc5a__pspm,idfa_B649353D-8FAE-4745-ADC9-583E7E22FF42,ja
FzBblSdjRbWpbshHdLCdbQ,newborntown,p1336_10542_,install,1.4,218.227.242.97,720798BA-948F-4C88-8BA9-7520623240EE,1556780547,2019-05-02 15:02:27,1556854063,2019-05-03 11:27:43,1556854093,88f5a207-cddf-4123-b921-d1fa814e7dc0__pspm,http://pspm.pingstart.com/api/v4/postback?from=1706&clickid=88f5a207-cddf-4123-b921-d1fa814e7dc0__pspm,idfa_720798BA-948F-4C88-8BA9-7520623240EE,ja
FzBblSdjRbWpbshHdLCdbQ,newborntown,p1336_10542_,install,1.4,126.161.135.216,C6242532-A335-450E-88CA-6D1C0CF93273,1556699879,2019-05-01 16:37:59,1557023636,2019-05-05 10:33:56,1557023666,2f17d516-630c-4795-8717-c91cdf65067e__pspm,http://pspm.pingstart.com/api/v4/postback?from=1706&clickid=2f17d516-630c-4795-8717-c91cdf65067e__pspm,idfa_C6242532-A335-450E-88CA-6D1C0CF93273,ja
FzBblSdjRbWpbshHdLCdbQ,newborntown,p1336_10542_,install,1.4,220.98.132.243,1839F5A3-3B79-438A-BACF-FCB2EF71FDF4,1557642014,2019-05-12 14:20:14,1557642252,2019-05-12 14:24:12,1557642283,8993be1a-1d25-4c5e-a00c-266f0cbb0f37__pspm,http://pspm.pingstart.com/api/v4/postback?from=1706&clickid=8993be1a-1d25-4c5e-a00c-266f0cbb0f37__pspm,idfa_1839F5A3-3B79-438A-BACF-FCB2EF71FDF4,ja
FzBblSdjRbWpbshHdLCdbQ,newborntown,p1336_10542_,install,1.4,1.72.6.146,23B8C85F-B6EC-4B05-A167-2B590C47E933,1557111150,2019-05-06 10:52:30,1557111179,2019-05-06 10:52:59,1557111210,17023e50-5e52-47bf-bdd7-c37116dd48f9__pspm,http://pspm.pingstart.com/api/v4/postback?from=1706&clickid=17023e50-5e52-47bf-bdd7-c37116dd48f9__pspm,idfa_23B8C85F-B6EC-4B05-A167-2B590C47E933,ja
FzBblSdjRbWpbshHdLCdbQ,newborntown,p1336_10542_,install,1.4,111.64.20.171,98573CBF-BE6C-4D3D-9C20-7100F4E2C393,1557025211,2019-05-05 11:00:11,1557025292,2019-05-05 11:01:32,1557025322,3cb80bfc-0cc3-4f34-b518-db34cb681de2__pspm,http://pspm.pingstart.com/api/v4/postback?from=1706&clickid=3cb80bfc-0cc3-4f34-b518-db34cb681de2__pspm,idfa_98573CBF-BE6C-4D3D-9C20-7100F4E2C393,ja
FzBblSdjRbWpbshHdLCdbQ,newborntown,p1336_10542_,install,1.4,124.140.239.102,B214C5CC-D7C1-44A3-A2C7-0C6475AB4184,1556851061,2019-05-03 10:37:41,1557315696,2019-05-08 19:41:36,1557315726,a623936c-2d85-4b19-8328-ee5bbaf8cd8a__pspm,http://pspm.pingstart.com/api/v4/postback?from=1706&clickid=a623936c-2d85-4b19-8328-ee5bbaf8cd8a__pspm,idfa_B214C5CC-D7C1-44A3-A2C7-0C6475AB4184,ja
FzBblSdjRbWpbshHdLCdbQ,newborntown,p1336_10542_,install,1.5,27.121.240.53,40406FC1-41D8-41FF-80FF-EE984F77DEB7,1557308708,2019-05-08 17:45:08,1557308816,2019-05-08 17:46:56,1557308847,123ef808-5693-4ecd-a7d8-8a7c9a484ad1__pspm,http://pspm.pingstart.com/api/v4/postback?from=1706&clickid=123ef808-5693-4ecd-a7d8-8a7c9a484ad1__pspm,idfa_40406FC1-41D8-41FF-80FF-EE984F77DEB7,ja
FzBblSdjRbWpbshHdLCdbQ,newborntown,p1336_10542_,install,1.4,106.130.48.226,C29EC350-532E-4AA6-9C61-94D0E7AA83D4,1557546252,2019-05-11 11:44:12,1557546273,2019-05-11 11:44:33,1557546303,c85d5ed6-8c93-4896-bd78-7e7891147ed8__pspm,http://pspm.pingstart.com/api/v4/postback?from=1706&clickid=c85d5ed6-8c93-4896-bd78-7e7891147ed8__pspm,idfa_C29EC350-532E-4AA6-9C61-94D0E7AA83D4,ja
FzBblSdjRbWpbshHdLCdbQ,newborntown,p1336_10542_,install,1.5,106.181.92.214,198597BF-564D-4881-ACE9-BA4EEC480099,1556780820,2019-05-02 15:07:00,1556780942,2019-05-02 15:09:02,1556780972,7ab297fd-82eb-46c9-9db9-1243e245b9bf__pspm,http://pspm.pingstart.com/api/v4/postback?from=1706&clickid=7ab297fd-82eb-46c9-9db9-1243e245b9bf__pspm,idfa_198597BF-564D-4881-ACE9-BA4EEC480099,ja
FzBblSdjRbWpbshHdLCdbQ,newborntown,p1336_10542_,install,1.4,182.251.182.149,275DC56D-D8D5-44D9-9436-D848E5E5E68F,1557644794,2019-05-12 15:06:34,1557644856,2019-05-12 15:07:36,1557644886,a9f3fe41-2f03-4238-a6a8-96d14051c319__pspm,http://pspm.pingstart.com/api/v4/postback?from=1706&clickid=a9f3fe41-2f03-4238-a6a8-96d14051c319__pspm,idfa_275DC56D-D8D5-44D9-9436-D848E5E5E68F,ja
FzBblSdjRbWpbshHdLCdbQ,newborntown,p1336_10542_,install,1.4,183.76.59.170,BA405365-AA43-4D1A-BC7B-F85F70914310,1557377351,2019-05-09 12:49:11,1557377414,2019-05-09 12:50:14,1557377444,3e433e8f-511e-41ac-86ce-265ae1c7e5e2__pspm,http://pspm.pingstart.com/api/v4/postback?from=1706&clickid=3e433e8f-511e-41ac-86ce-265ae1c7e5e2__pspm,idfa_BA405365-AA43-4D1A-BC7B-F85F70914310,ja
FzBblSdjRbWpbshHdLCdbQ,newborntown,p1336_10542_,install,1.5,49.106.188.170,CE8BC7CF-501D-4B53-9A22-B073DCEC8395,1557292755,2019-05-08 13:19:15,1557294710,2019-05-08 13:51:50,1557294740,290339e9-e977-4f76-a7f8-02e2388a90ba__pspm,http://pspm.pingstart.com/api/v4/postback?from=1706&clickid=290339e9-e977-4f76-a7f8-02e2388a90ba__pspm,idfa_CE8BC7CF-501D-4B53-9A22-B073DCEC8395,ja
FzBblSdjRbWpbshHdLCdbQ,newborntown,p1336_10542_,install,1.4,106.129.129.87,38A4832B-6CB6-4ABD-84F5-5771249B362F,1557552934,2019-05-11 13:35:34,1557552985,2019-05-11 13:36:25,1557553015,50b9446a-43b7-432f-9a14-c906e9eb96c0__pspm,http://pspm.pingstart.com/api/v4/postback?from=1706&clickid=50b9446a-43b7-432f-9a14-c906e9eb96c0__pspm,idfa_38A4832B-6CB6-4ABD-84F5-5771249B362F,ja
FzBblSdjRbWpbshHdLCdbQ,newborntown,p1336_10542_,install,1.4,118.157.139.227,D4A175B0-AE18-422F-9FF4-AA80C0CEC9DC,1556847700,2019-05-03 09:41:40,1557064953,2019-05-05 22:02:33,1557064983,5fe405d9-62db-4574-af3e-b4c4714335d7__pspm,http://pspm.pingstart.com/api/v4/postback?from=1706&clickid=5fe405d9-62db-4574-af3e-b4c4714335d7__pspm,idfa_D4A175B0-AE18-422F-9FF4-AA80C0CEC9DC,ja
FzBblSdjRbWpbshHdLCdbQ,newborntown,p1336_10542_,install,1.4,126.194.175.194,41246233-1D30-48FC-9722-BFD8AFB7570C,1556951591,2019-05-04 14:33:11,1556951695,2019-05-04 14:34:55,1556951736,ca12b001-2558-49d8-8829-5b0eb2f1ef5f__pspm,http://pspm.pingstart.com/api/v4/postback?from=1706&clickid=ca12b001-2558-49d8-8829-5b0eb2f1ef5f__pspm,idfa_41246233-1D30-48FC-9722-BFD8AFB7570C,ja
FzBblSdjRbWpbshHdLCdbQ,newborntown,p1336_10542_,install,1.4,126.233.26.146,43B9AD24-8BD7-4D5C-B490-D03940268D3D,1557567223,2019-05-11 17:33:43,1557567313,2019-05-11 17:35:13,1557567343,055b96d6-0a72-4fdb-9b5b-eaff17937338__pspm,http://pspm.pingstart.com/api/v4/postback?from=1706&clickid=055b96d6-0a72-4fdb-9b5b-eaff17937338__pspm,idfa_43B9AD24-8BD7-4D5C-B490-D03940268D3D,ja
FzBblSdjRbWpbshHdLCdbQ,newborntown,p1336_10542_,install,1.4,106.158.232.140,BDC0F28F-FB0B-473C-93E1-84340A6071B1,1557642216,2019-05-12 14:23:36,1557642276,2019-05-12 14:24:36,1557642306,fac1b4dd-4301-4006-8ee8-3ce22f3db75a__pspm,http://pspm.pingstart.com/api/v4/postback?from=1706&clickid=fac1b4dd-4301-4006-8ee8-3ce22f3db75a__pspm,idfa_BDC0F28F-FB0B-473C-93E1-84340A6071B1,ja
FzBblSdjRbWpbshHdLCdbQ,newborntown,p1336_10542_,install,1.4,221.118.76.129,9D85DA92-3264-4841-AE7C-A3620AD5CF56,1557564622,2019-05-11 16:50:22,1557564669,2019-05-11 16:51:09,1557564699,232ba9fb-ba0a-4ac1-b6ce-c36b3ca24372__pspm,http://pspm.pingstart.com/api/v4/postback?from=1706&clickid=232ba9fb-ba0a-4ac1-b6ce-c36b3ca24372__pspm,idfa_9D85DA92-3264-4841-AE7C-A3620AD5CF56,ja
FzBblSdjRbWpbshHdLCdbQ,newborntown,p1336_10542_,install,1.4,183.74.204.181,D1C269A5-FDB8-4686-B3D2-A56B1AEF5391,1557481290,2019-05-10 17:41:30,1557481318,2019-05-10 17:41:58,1557481349,553ef5f1-10e5-4c4f-bbaa-835c0a255847__pspm,http://pspm.pingstart.com/api/v4/postback?from=1706&clickid=553ef5f1-10e5-4c4f-bbaa-835c0a255847__pspm,idfa_D1C269A5-FDB8-4686-B3D2-A56B1AEF5391,ja
FzBblSdjRbWpbshHdLCdbQ,newborntown,p1336_10542_,install,1.4,126.225.108.10,2834E576-FC58-4491-BCE4-B038BB49B5DB,1556952912,2019-05-04 14:55:12,1556953098,2019-05-04 14:58:18,1556953128,49131958-04d7-41ae-b773-afb4808e6a04__pspm,http://pspm.pingstart.com/api/v4/postback?from=1706&clickid=49131958-04d7-41ae-b773-afb4808e6a04__pspm,idfa_2834E576-FC58-4491-BCE4-B038BB49B5DB,ja
FzBblSdjRbWpbshHdLCdbQ,newborntown,p1336_10542_,install,1.4,118.18.134.234,4B64F218-6772-447F-BA35-5A389C36A871,1557480374,2019-05-10 17:26:14,1557480419,2019-05-10 17:26:59,1557480449,fea4aece-16ad-464b-843c-c546bb5862e8__pspm,http://pspm.pingstart.com/api/v4/postback?from=1706&clickid=fea4aece-16ad-464b-843c-c546bb5862e8__pspm,idfa_4B64F218-6772-447F-BA35-5A389C36A871,ja
FzBblSdjRbWpbshHdLCdbQ,newborntown,p1336_10542_,install,1.4,60.60.51.135,7ECA4D1D-F08D-4733-B9B8-FEB61B2C64B2,1557642897,2019-05-12 14:34:57,1557642999,2019-05-12 14:36:39,1557643029,385878c9-e812-4676-980d-36d5bc5d9a74__pspm,http://pspm.pingstart.com/api/v4/postback?from=1706&clickid=385878c9-e812-4676-980d-36d5bc5d9a74__pspm,idfa_7ECA4D1D-F08D-4733-B9B8-FEB61B2C64B2,ja
FzBblSdjRbWpbshHdLCdbQ,newborntown,p1336_10542_,install,1.4,61.27.38.214,872E044A-D28C-4930-A828-607242176DC8,1557123105,2019-05-06 14:11:45,1557123181,2019-05-06 14:13:01,1557123211,050ca346-1132-4616-ad2a-e60e2d888325__pspm,http://pspm.pingstart.com/api/v4/postback?from=1706&clickid=050ca346-1132-4616-ad2a-e60e2d888325__pspm,idfa_872E044A-D28C-4930-A828-607242176DC8,ja
FzBblSdjRbWpbshHdLCdbQ,newborntown,p1336_10542_,install,1.4,120.74.169.246,BAFD5504-3073-4E36-9E2F-95EB5555EE58,1557551157,2019-05-11 13:05:57,1557551387,2019-05-11 13:09:47,1557551417,30f280b8-af1d-43cf-9fb8-3c7d07859fab__pspm,http://pspm.pingstart.com/api/v4/postback?from=1706&clickid=30f280b8-af1d-43cf-9fb8-3c7d07859fab__pspm,idfa_BAFD5504-3073-4E36-9E2F-95EB5555EE58,ja
FzBblSdjRbWpbshHdLCdbQ,newborntown,p1336_10542_,install,1.4,182.251.114.95,565A39B6-B6EC-4368-81AE-EACDCAA0508D,1557632212,2019-05-12 11:36:52,1557632372,2019-05-12 11:39:32,1557632402,da36db49-fde1-4602-8c18-f1aed114bcc0__pspm,http://pspm.pingstart.com/api/v4/postback?from=1706&clickid=da36db49-fde1-4602-8c18-f1aed114bcc0__pspm,idfa_565A39B6-B6EC-4368-81AE-EACDCAA0508D,ja
FzBblSdjRbWpbshHdLCdbQ,newborntown,p1336_10542_,install,1.4,114.187.34.230,E0748AB6-006E-4DC2-8DD6-367D4DD90B3F,1557486811,2019-05-10 19:13:31,1557486858,2019-05-10 19:14:18,1557486888,af3d473c-021a-4f5d-9a23-e3acd46f25ed__pspm,http://pspm.pingstart.com/api/v4/postback?from=1706&clickid=af3d473c-021a-4f5d-9a23-e3acd46f25ed__pspm,idfa_E0748AB6-006E-4DC2-8DD6-367D4DD90B3F,ja
FzBblSdjRbWpbshHdLCdbQ,newborntown,p1336_10542_,install,1.4,133.9.85.196,536CDC3B-9259-482E-AEA0-E336C9B834E9,1557033059,2019-05-05 13:10:59,1557223141,2019-05-07 17:59:01,1557223171,8b049ed0-b44a-4169-83d4-f704cf31b80d__pspm,http://pspm.pingstart.com/api/v4/postback?from=1706&clickid=8b049ed0-b44a-4169-83d4-f704cf31b80d__pspm,idfa_536CDC3B-9259-482E-AEA0-E336C9B834E9,ja
FzBblSdjRbWpbshHdLCdbQ,newborntown,p1336_10542_,install,1.4,121.101.124.138,A6AB4B61-6766-4F59-8386-62FEA2C850C5,1557631840,2019-05-12 11:30:40,1557632028,2019-05-12 11:33:48,1557632058,a9f7d237-69e9-4d6f-b657-e40e72aa38a1__pspm,http://pspm.pingstart.com/api/v4/postback?from=1706&clickid=a9f7d237-69e9-4d6f-b657-e40e72aa38a1__pspm,idfa_A6AB4B61-6766-4F59-8386-62FEA2C850C5,ja
FzBblSdjRbWpbshHdLCdbQ,newborntown,p1336_10542_,install,1.4,126.34.125.183,5EFC9D2B-1627-47E2-997D-D5B60B2F9D5B,1556856130,2019-05-03 12:02:10,1557015108,2019-05-05 08:11:48,1557015138,cca479a3-2a56-450c-85ce-aac21f00e2ec__pspm,http://pspm.pingstart.com/api/v4/postback?from=1706&clickid=cca479a3-2a56-450c-85ce-aac21f00e2ec__pspm,idfa_5EFC9D2B-1627-47E2-997D-D5B60B2F9D5B,ja
FzBblSdjRbWpbshHdLCdbQ,newborntown,p1336_10542_,install,1.4,153.190.163.23,BEC845D0-7326-4C80-A463-0F5E1A948A0F,1557312624,2019-05-08 18:50:24,1557312668,2019-05-08 18:51:08,1557312698,cde1c078-0cdc-41cf-803d-f4e65a9d7745__pspm,http://pspm.pingstart.com/api/v4/postback?from=1706&clickid=cde1c078-0cdc-41cf-803d-f4e65a9d7745__pspm,idfa_BEC845D0-7326-4C80-A463-0F5E1A948A0F,ja
FzBblSdjRbWpbshHdLCdbQ,newborntown,p1336_10542_,install,1.4,125.4.147.177,B6973AF0-B4DB-4635-8CB3-A8CFA7CF6CE5,1557567923,2019-05-11 17:45:23,1557568072,2019-05-11 17:47:52,1557568102,ece47d7a-d45e-4e3d-b5ba-65b6679d6c96__pspm,http://pspm.pingstart.com/api/v4/postback?from=1706&clickid=ece47d7a-d45e-4e3d-b5ba-65b6679d6c96__pspm,idfa_B6973AF0-B4DB-4635-8CB3-A8CFA7CF6CE5,ja
FzBblSdjRbWpbshHdLCdbQ,newborntown,p1336_10542_,install,1.4,118.10.68.228,520EB563-326D-4E08-A7E0-0CE1774F487F,1557123104,2019-05-06 14:11:44,1557123173,2019-05-06 14:12:53,1557123203,42b89cbf-d4f1-4d9f-982c-e9e0d004d469__pspm,http://pspm.pingstart.com/api/v4/postback?from=1706&clickid=42b89cbf-d4f1-4d9f-982c-e9e0d004d469__pspm,idfa_520EB563-326D-4E08-A7E0-0CE1774F487F,ja
FzBblSdjRbWpbshHdLCdbQ,newborntown,p1336_10542_,install,1.4,218.251.15.42,B87506E3-9ADB-400C-B982-085ED72A9131,1557473359,2019-05-10 15:29:19,1557476475,2019-05-10 16:21:15,1557476505,dc7cfa26-d67b-4110-8cc1-729fac97a652__pspm,http://pspm.pingstart.com/api/v4/postback?from=1706&clickid=dc7cfa26-d67b-4110-8cc1-729fac97a652__pspm,idfa_B87506E3-9ADB-400C-B982-085ED72A9131,ja
FzBblSdjRbWpbshHdLCdbQ,newborntown,p1336_10542_,install,1.4,126.245.150.84,C05BB138-88B3-4A70-B7C1-7C9893E6CCD7,1557112880,2019-05-06 11:21:20,1557112911,2019-05-06 11:21:51,1557112941,1cc58800-c0f6-4c20-9017-3142318ba399__pspm,http://pspm.pingstart.com/api/v4/postback?from=1706&clickid=1cc58800-c0f6-4c20-9017-3142318ba399__pspm,idfa_C05BB138-88B3-4A70-B7C1-7C9893E6CCD7,ja
FzBblSdjRbWpbshHdLCdbQ,newborntown,p1336_10542_,install,1.5,126.225.104.69,F2B7F7A3-0A44-4A86-B23A-D466CF0E89E5,1557311019,2019-05-08 18:23:39,1557311371,2019-05-08 18:29:31,1557311401,315757c2-4197-44cb-a9f1-c2f6f54c48d7__pspm,http://pspm.pingstart.com/api/v4/postback?from=1706&clickid=315757c2-4197-44cb-a9f1-c2f6f54c48d7__pspm,idfa_F2B7F7A3-0A44-4A86-B23A-D466CF0E89E5,ja
FzBblSdjRbWpbshHdLCdbQ,newborntown,p1336_10542_,install,1.5,128.28.150.237,759274F0-7D5D-4D83-BDD2-EFB30DE89B65,1556678530,2019-05-01 10:42:10,1556682260,2019-05-01 11:44:20,1556682290,9826338a-db92-416c-85c2-bee7c170d24f__pspm,http://pspm.pingstart.com/api/v4/postback?from=1706&clickid=9826338a-db92-416c-85c2-bee7c170d24f__pspm,idfa_759274F0-7D5D-4D83-BDD2-EFB30DE89B65,ja
FzBblSdjRbWpbshHdLCdbQ,newborntown,p1336_10542_,install,1.4,58.81.252.74,15FAAF2A-B20E-40F9-8ACE-8427561D37A7,1557210384,2019-05-07 14:26:24,1557217812,2019-05-07 16:30:12,1557217842,90c9d3ff-0416-4c1f-86fe-9775f4fe5877__pspm,http://pspm.pingstart.com/api/v4/postback?from=1706&clickid=90c9d3ff-0416-4c1f-86fe-9775f4fe5877__pspm,idfa_15FAAF2A-B20E-40F9-8ACE-8427561D37A7,ja
FzBblSdjRbWpbshHdLCdbQ,newborntown,p1336_10542_,install,1.4,49.98.44.178,26C87860-0C6C-4EFB-8202-EAA22E56A8BA,1557117842,2019-05-06 12:44:02,1557118279,2019-05-06 12:51:19,1557118309,3d3a5113-3fd3-4d5e-9b9b-1dd01a1271c5__pspm,http://pspm.pingstart.com/api/v4/postback?from=1706&clickid=3d3a5113-3fd3-4d5e-9b9b-1dd01a1271c5__pspm,idfa_26C87860-0C6C-4EFB-8202-EAA22E56A8BA,ja
FzBblSdjRbWpbshHdLCdbQ,newborntown,p1336_10542_,install,1.4,114.182.174.211,A8D82915-D1D4-460C-8F1A-B4A7996A0EE6,1557476926,2019-05-10 16:28:46,1557476987,2019-05-10 16:29:47,1557477017,25f6f066-b703-4896-856f-35f588480f00__pspm,http://pspm.pingstart.com/api/v4/postback?from=1706&clickid=25f6f066-b703-4896-856f-35f588480f00__pspm,idfa_A8D82915-D1D4-460C-8F1A-B4A7996A0EE6,ja
FzBblSdjRbWpbshHdLCdbQ,newborntown,p1336_10542_,install,1.4,42.146.253.65,87944BB9-FE42-4E1E-AA0B-8CB2DFF55F09,1557552919,2019-05-11 13:35:19,1557681904,2019-05-13 01:25:04,1557681934,67047810-4277-4faf-8bc4-412e270d6b48__pspm,http://pspm.pingstart.com/api/v4/postback?from=1706&clickid=67047810-4277-4faf-8bc4-412e270d6b48__pspm,idfa_87944BB9-FE42-4E1E-AA0B-8CB2DFF55F09,ja
FzBblSdjRbWpbshHdLCdbQ,newborntown,p1336_10542_,install,1.4,60.137.214.85,39C068DA-8985-4F12-8F3B-E90297A11B69,1557628431,2019-05-12 10:33:51,1557628518,2019-05-12 10:35:18,1557628548,d9efe0f1-5cc0-4778-8e23-e02e303fcb01__pspm,http://pspm.pingstart.com/api/v4/postback?from=1706&clickid=d9efe0f1-5cc0-4778-8e23-e02e303fcb01__pspm,idfa_39C068DA-8985-4F12-8F3B-E90297A11B69,ja
FzBblSdjRbWpbshHdLCdbQ,newborntown,p1336_10542_,install,1.4,160.237.1.1,BA2C746B-9A0C-4D15-85CB-3B7E92CCF82F,1556848266,2019-05-03 09:51:06,1557187258,2019-05-07 08:00:58,1557187288,85ccff27-851c-4379-9d58-b7be05e70e9f__pspm,http://pspm.pingstart.com/api/v4/postback?from=1706&clickid=85ccff27-851c-4379-9d58-b7be05e70e9f__pspm,idfa_BA2C746B-9A0C-4D15-85CB-3B7E92CCF82F,ja
FzBblSdjRbWpbshHdLCdbQ,newborntown,p1336_10542_,install,1.4,143.189.175.2,1F3FD2EC-F88F-4532-AD6B-8018A52F9CA6,1557639847,2019-05-12 13:44:07,1557639883,2019-05-12 13:44:43,1557639913,0fbacbf7-1739-4dc7-b849-ae165221063a__pspm,http://pspm.pingstart.com/api/v4/postback?from=1706&clickid=0fbacbf7-1739-4dc7-b849-ae165221063a__pspm,idfa_1F3FD2EC-F88F-4532-AD6B-8018A52F9CA6,ja
FzBblSdjRbWpbshHdLCdbQ,newborntown,p1336_10542_,install,1.4,126.220.43.246,59A05FBE-81EC-4312-9E35-AB77C6E34A16,1557558536,2019-05-11 15:08:56,1557565697,2019-05-11 17:08:17,1557565727,4987c880-fe4c-4bb7-80ce-170428e84405__pspm,http://pspm.pingstart.com/api/v4/postback?from=1706&clickid=4987c880-fe4c-4bb7-80ce-170428e84405__pspm,idfa_59A05FBE-81EC-4312-9E35-AB77C6E34A16,ja
FzBblSdjRbWpbshHdLCdbQ,newborntown,p1336_10542_,install,1.4,157.147.57.146,55F73A60-E12B-4F8B-B8EF-BF053789FCA4,1557649764,2019-05-12 16:29:24,1557650167,2019-05-12 16:36:07,1557650197,666b4bb6-5ab2-46e9-a013-24ec2757e1d0__pspm,http://pspm.pingstart.com/api/v4/postback?from=1706&clickid=666b4bb6-5ab2-46e9-a013-24ec2757e1d0__pspm,idfa_55F73A60-E12B-4F8B-B8EF-BF053789FCA4,ja
FzBblSdjRbWpbshHdLCdbQ,newborntown,p1336_10542_,install,1.5,126.233.150.58,D2B5A23B-0F4B-4364-9C66-FD05173A7BFA,1556700280,2019-05-01 16:44:40,1556705521,2019-05-01 18:12:01,1556705551,63aec48f-66e3-4c7d-a751-8c191053148e__pspm,http://pspm.pingstart.com/api/v4/postback?from=1706&clickid=63aec48f-66e3-4c7d-a751-8c191053148e__pspm,idfa_D2B5A23B-0F4B-4364-9C66-FD05173A7BFA,ja
FzBblSdjRbWpbshHdLCdbQ,newborntown,p1336_10542_,install,1.4,126.35.223.113,96FA97F9-C5A2-45AE-A9D8-4FDC4FA97844,1557565684,2019-05-11 17:08:04,1557565700,2019-05-11 17:08:20,1557565730,d1585619-cdd5-4eee-8118-bdc19c927548__pspm,http://pspm.pingstart.com/api/v4/postback?from=1706&clickid=d1585619-cdd5-4eee-8118-bdc19c927548__pspm,idfa_96FA97F9-C5A2-45AE-A9D8-4FDC4FA97844,ja
FzBblSdjRbWpbshHdLCdbQ,newborntown,p1336_10542_,install,1.5,110.165.131.64,C5FB6DAD-1EB7-4F67-B809-A38D10069C88,1557295936,2019-05-08 14:12:16,1557296493,2019-05-08 14:21:33,1557296524,3d47e802-d76f-4367-a4f8-55eb7a6c81ee__pspm,http://pspm.pingstart.com/api/v4/postback?from=1706&clickid=3d47e802-d76f-4367-a4f8-55eb7a6c81ee__pspm,idfa_C5FB6DAD-1EB7-4F67-B809-A38D10069C88,ja
FzBblSdjRbWpbshHdLCdbQ,newborntown,p1336_10542_,install,1.4,106.180.46.122,DF2A08B1-56E0-498D-9853-17C86FC040BF,1557287274,2019-05-08 11:47:54,1557361322,2019-05-09 08:22:02,1557361353,05a6a24b-e990-4c57-9912-d9e3294e14a6__pspm,http://pspm.pingstart.com/api/v4/postback?from=1706&clickid=05a6a24b-e990-4c57-9912-d9e3294e14a6__pspm,idfa_DF2A08B1-56E0-498D-9853-17C86FC040BF,ja
FzBblSdjRbWpbshHdLCdbQ,newborntown,p1336_10542_,install,1.4,126.199.28.177,5692976E-208A-4819-BD70-745E5B4FCC2B,1556776082,2019-05-02 13:48:02,1556974737,2019-05-04 20:58:57,1556974768,53f6071a-027e-445a-b04a-f43d28e88215__pspm,http://pspm.pingstart.com/api/v4/postback?from=1706&clickid=53f6071a-027e-445a-b04a-f43d28e88215__pspm,idfa_5692976E-208A-4819-BD70-745E5B4FCC2B,ja
FzBblSdjRbWpbshHdLCdbQ,newborntown,p1336_10542_,install,1.4,180.196.144.160,24FAC580-9332-4D71-AC6B-ED1EA0F9023D,1557111184,2019-05-06 10:53:04,1557111331,2019-05-06 10:55:31,1557111362,cd399a9c-d6ee-4531-85e3-60a6ad37fcf3__pspm,http://pspm.pingstart.com/api/v4/postback?from=1706&clickid=cd399a9c-d6ee-4531-85e3-60a6ad37fcf3__pspm,idfa_24FAC580-9332-4D71-AC6B-ED1EA0F9023D,ja
FzBblSdjRbWpbshHdLCdbQ,newborntown,p1336_10542_,install,1.4,126.159.206.221,643E6B76-C807-4A53-809E-5B1B78419E12,1557561778,2019-05-11 16:02:58,1557563088,2019-05-11 16:24:48,1557563118,4c8b7c32-2bd0-4a16-9f70-7ca125342510__pspm,http://pspm.pingstart.com/api/v4/postback?from=1706&clickid=4c8b7c32-2bd0-4a16-9f70-7ca125342510__pspm,idfa_643E6B76-C807-4A53-809E-5B1B78419E12,ja
FzBblSdjRbWpbshHdLCdbQ,newborntown,p1336_10542_,install,1.4,180.63.241.84,4AD5DEC3-0D3E-4EA8-AC38-2B2A97C6401B,1557111640,2019-05-06 11:00:40,1557111697,2019-05-06 11:01:37,1557111727,d4a758b9-ab4a-4be3-aef4-eb5207897e35__pspm,http://pspm.pingstart.com/api/v4/postback?from=1706&clickid=d4a758b9-ab4a-4be3-aef4-eb5207897e35__pspm,idfa_4AD5DEC3-0D3E-4EA8-AC38-2B2A97C6401B,ja
FzBblSdjRbWpbshHdLCdbQ,newborntown,p1336_10542_,install,1.4,123.223.8.218,F5F523B2-DE6B-4722-BCFE-1E5BD6B929A4,1557483409,2019-05-10 18:16:49,1557483463,2019-05-10 18:17:43,1557483493,4498e685-bb41-42aa-b674-a0363538eb88__pspm,http://pspm.pingstart.com/api/v4/postback?from=1706&clickid=4498e685-bb41-42aa-b674-a0363538eb88__pspm,idfa_F5F523B2-DE6B-4722-BCFE-1E5BD6B929A4,ja
FzBblSdjRbWpbshHdLCdbQ,newborntown,p1336_10542_,install,1.4,202.229.68.68,0A6082B8-0557-4FB0-9C5F-C1796EDCBA14,1557638051,2019-05-12 13:14:11,1557639245,2019-05-12 13:34:05,1557639275,6ec854a2-a9ee-46fd-af92-ed7f1a9ecc4c__pspm,http://pspm.pingstart.com/api/v4/postback?from=1706&clickid=6ec854a2-a9ee-46fd-af92-ed7f1a9ecc4c__pspm,idfa_0A6082B8-0557-4FB0-9C5F-C1796EDCBA14,ja
FzBblSdjRbWpbshHdLCdbQ,newborntown,p1336_10542_,install,1.5,125.15.140.228,B2280E58-2129-405B-88FE-9EEB4F4CFA42,1556785866,2019-05-02 16:31:06,1556785951,2019-05-02 16:32:31,1556785984,87520534-21c1-4c37-bf40-dee2833787f2__pspm,http://pspm.pingstart.com/api/v4/postback?from=1706&clickid=87520534-21c1-4c37-bf40-dee2833787f2__pspm,idfa_B2280E58-2129-405B-88FE-9EEB4F4CFA42,ja
FzBblSdjRbWpbshHdLCdbQ,newborntown,p1336_10542_,install,1.4,49.104.0.120,66D2F2C2-A520-492A-A5CA-81F9E90C845A,1556953438,2019-05-04 15:03:58,1556953535,2019-05-04 15:05:35,1556953565,b13f173d-1ab3-4d8a-b734-b57675a82205__pspm,http://pspm.pingstart.com/api/v4/postback?from=1706&clickid=b13f173d-1ab3-4d8a-b734-b57675a82205__pspm,idfa_66D2F2C2-A520-492A-A5CA-81F9E90C845A,ja
FzBblSdjRbWpbshHdLCdbQ,newborntown,p1336_10542_,install,1.4,49.106.188.54,A59885D8-C7B3-4BEF-9850-51F1B9BC58BD,1557117820,2019-05-06 12:43:40,1557199652,2019-05-07 11:27:32,1557199683,f61a604c-ff2e-4a15-b359-912114a5efe8__pspm,http://pspm.pingstart.com/api/v4/postback?from=1706&clickid=f61a604c-ff2e-4a15-b359-912114a5efe8__pspm,idfa_A59885D8-C7B3-4BEF-9850-51F1B9BC58BD,ja
FzBblSdjRbWpbshHdLCdbQ,newborntown,p1336_10542_,install,1.4,115.31.14.111,283912DA-96A1-4DC9-9D92-EAA9EE082675,1557121466,2019-05-06 13:44:26,1557121530,2019-05-06 13:45:30,1557121560,abf12f8f-0dd9-4c15-85c0-8083e6079ba8__pspm,http://pspm.pingstart.com/api/v4/postback?from=1706&clickid=abf12f8f-0dd9-4c15-85c0-8083e6079ba8__pspm,idfa_283912DA-96A1-4DC9-9D92-EAA9EE082675,ja
FzBblSdjRbWpbshHdLCdbQ,newborntown,p1336_10542_,install,1.4,182.165.164.61,13145728-1B5E-40FE-B3BB-F026E67BDD16,1557023455,2019-05-05 10:30:55,1557023617,2019-05-05 10:33:37,1557023647,49322039-83a3-4ec4-ae2a-c6ddb881fcde__pspm,http://pspm.pingstart.com/api/v4/postback?from=1706&clickid=49322039-83a3-4ec4-ae2a-c6ddb881fcde__pspm,idfa_13145728-1B5E-40FE-B3BB-F026E67BDD16,ja
FzBblSdjRbWpbshHdLCdbQ,newborntown,p1336_10542_,install,1.4,111.168.78.168,22DD2897-F0A5-4CA2-B774-D1ABA87E9183,1557121399,2019-05-06 13:43:19,1557122074,2019-05-06 13:54:34,1557122104,29b3a597-866e-441f-9209-84d120184768__pspm,http://pspm.pingstart.com/api/v4/postback?from=1706&clickid=29b3a597-866e-441f-9209-84d120184768__pspm,idfa_22DD2897-F0A5-4CA2-B774-D1ABA87E9183,ja
FzBblSdjRbWpbshHdLCdbQ,newborntown,p1336_10542_,install,1.4,222.14.250.10,9F18B540-3E14-4DD1-A059-654CF310FF95,1557554667,2019-05-11 14:04:27,1557554709,2019-05-11 14:05:09,1557554739,d5fd708f-7f2d-4899-ae27-2304f98dd119__pspm,http://pspm.pingstart.com/api/v4/postback?from=1706&clickid=d5fd708f-7f2d-4899-ae27-2304f98dd119__pspm,idfa_9F18B540-3E14-4DD1-A059-654CF310FF95,ja
FzBblSdjRbWpbshHdLCdbQ,newborntown,p1336_10542_,install,1.4,126.36.91.172,6A3CAFE6-BFE5-40C1-8120-2A7E9496164D,1557555243,2019-05-11 14:14:03,1557555332,2019-05-11 14:15:32,1557555362,3d4aa5e3-9d72-498f-b11c-f02f360e5371__pspm,http://pspm.pingstart.com/api/v4/postback?from=1706&clickid=3d4aa5e3-9d72-498f-b11c-f02f360e5371__pspm,idfa_6A3CAFE6-BFE5-40C1-8120-2A7E9496164D,ja
FzBblSdjRbWpbshHdLCdbQ,newborntown,p1336_10542_,install,1.4,180.54.213.131,4A84B34A-25FE-4C15-A1E7-2EFC2500D8E5,1557570981,2019-05-11 18:36:21,1557571120,2019-05-11 18:38:40,1557571150,05b186f0-9a21-4d6d-a1a1-3a440308400d__pspm,http://pspm.pingstart.com/api/v4/postback?from=1706&clickid=05b186f0-9a21-4d6d-a1a1-3a440308400d__pspm,idfa_4A84B34A-25FE-4C15-A1E7-2EFC2500D8E5,ja
FzBblSdjRbWpbshHdLCdbQ,newborntown,p1336_10542_,install,1.4,153.221.31.54,7601112A-8B2F-4C4A-8C16-01BAE67E3D10,1557638695,2019-05-12 13:24:55,1557638792,2019-05-12 13:26:32,1557638822,fbfe3db9-ece5-4fc9-9e10-0120b51903cf__pspm,http://pspm.pingstart.com/api/v4/postback?from=1706&clickid=fbfe3db9-ece5-4fc9-9e10-0120b51903cf__pspm,idfa_7601112A-8B2F-4C4A-8C16-01BAE67E3D10,ja
FzBblSdjRbWpbshHdLCdbQ,newborntown,p1336_10542_,install,1.4,1.75.215.37,7E3F966C-EA95-4C5E-AB75-DCC432C75B26,1557124503,2019-05-06 14:35:03,1557141788,2019-05-06 19:23:08,1557141818,6b5d7215-a748-4a78-b931-78de3b367da3__pspm,http://pspm.pingstart.com/api/v4/postback?from=1706&clickid=6b5d7215-a748-4a78-b931-78de3b367da3__pspm,idfa_7E3F966C-EA95-4C5E-AB75-DCC432C75B26,ja
FzBblSdjRbWpbshHdLCdbQ,newborntown,p1336_10542_,install,1.4,118.236.55.10,F1B5011D-880A-4881-A744-71BFC2398428,1557639866,2019-05-12 13:44:26,1557640263,2019-05-12 13:51:03,1557640295,c4aff3d7-22af-4a21-a4dd-ed4faa2213a3__pspm,http://pspm.pingstart.com/api/v4/postback?from=1706&clickid=c4aff3d7-22af-4a21-a4dd-ed4faa2213a3__pspm,idfa_F1B5011D-880A-4881-A744-71BFC2398428,ja
FzBblSdjRbWpbshHdLCdbQ,newborntown,p1336_10542_,install,1.4,119.170.157.38,04000AD4-C2EE-45D8-A365-559FE9B339E7,1556858432,2019-05-03 12:40:32,1556858467,2019-05-03 12:41:07,1556858497,c4e77267-b9b2-44f3-9b7d-d27b5958d438__pspm,http://pspm.pingstart.com/api/v4/postback?from=1706&clickid=c4e77267-b9b2-44f3-9b7d-d27b5958d438__pspm,idfa_04000AD4-C2EE-45D8-A365-559FE9B339E7,ja
FzBblSdjRbWpbshHdLCdbQ,newborntown,p1336_10542_,install,1.4,1.21.204.185,FD94A1E5-D973-4699-9207-955D5E2F0F85,1557384102,2019-05-09 14:41:42,1557384146,2019-05-09 14:42:26,1557384176,80ac48f0-2423-46d3-9703-3d36d4607ae3__pspm,http://pspm.pingstart.com/api/v4/postback?from=1706&clickid=80ac48f0-2423-46d3-9703-3d36d4607ae3__pspm,idfa_FD94A1E5-D973-4699-9207-955D5E2F0F85,ja
FzBblSdjRbWpbshHdLCdbQ,newborntown,p1336_10542_,install,1.4,101.142.52.194,4A09C13B-A2FA-4EB1-83B4-1FD1BC3D1927,1557028520,2019-05-05 11:55:20,1557028558,2019-05-05 11:55:58,1557028589,c6a862d6-8694-4df1-8431-2b6c8a497b10__pspm,http://pspm.pingstart.com/api/v4/postback?from=1706&clickid=c6a862d6-8694-4df1-8431-2b6c8a497b10__pspm,idfa_4A09C13B-A2FA-4EB1-83B4-1FD1BC3D1927,ja
FzBblSdjRbWpbshHdLCdbQ,newborntown,p1336_10542_,install,1.4,59.136.12.198,773E88C2-9D6D-4093-9758-E6BCE6DE355C,1557649631,2019-05-12 16:27:11,1557649705,2019-05-12 16:28:25,1557649735,8d8b0473-3d86-4bf8-ba9b-633d39fd1b8c__pspm,http://pspm.pingstart.com/api/v4/postback?from=1706&clickid=8d8b0473-3d86-4bf8-ba9b-633d39fd1b8c__pspm,idfa_773E88C2-9D6D-4093-9758-E6BCE6DE355C,ja
FzBblSdjRbWpbshHdLCdbQ,newborntown,p1336_10542_,install,1.4,126.194.184.202,0507617F-9F36-4242-9EAC-C0934AF03795,1557652313,2019-05-12 17:11:53,1557660285,2019-05-12 19:24:45,1557660316,b43f8cfe-f10e-4899-9cd7-3bf6da7d8c9d__pspm,http://pspm.pingstart.com/api/v4/postback?from=1706&clickid=b43f8cfe-f10e-4899-9cd7-3bf6da7d8c9d__pspm,idfa_0507617F-9F36-4242-9EAC-C0934AF03795,ja
FzBblSdjRbWpbshHdLCdbQ,newborntown,p1336_10542_,install,1.4,222.148.185.111,EFC72544-0E7A-4E72-80AF-261030435967,1557028177,2019-05-05 11:49:37,1557028311,2019-05-05 11:51:51,1557028341,de25e1a2-2238-44ec-bc8e-eaaaeb7a78fa__pspm,http://pspm.pingstart.com/api/v4/postback?from=1706&clickid=de25e1a2-2238-44ec-bc8e-eaaaeb7a78fa__pspm,idfa_EFC72544-0E7A-4E72-80AF-261030435967,ja
FzBblSdjRbWpbshHdLCdbQ,newborntown,p1336_10542_,install,1.4,60.151.215.15,5BDC4F1E-F62C-4E69-B271-FF70B6A49361,1557560506,2019-05-11 15:41:46,1557560770,2019-05-11 15:46:10,1557560800,08e97696-1ceb-41f3-aefa-a67e4ea9acb9__pspm,http://pspm.pingstart.com/api/v4/postback?from=1706&clickid=08e97696-1ceb-41f3-aefa-a67e4ea9acb9__pspm,idfa_5BDC4F1E-F62C-4E69-B271-FF70B6A49361,ja
FzBblSdjRbWpbshHdLCdbQ,newborntown,p1336_10542_,install,1.4,222.158.44.40,0D94632E-8B29-40A3-95E3-F6B0B0CA0140,1557312631,2019-05-08 18:50:31,1557314025,2019-05-08 19:13:45,1557314056,eff3613a-4315-4bc9-b37d-309b8ac028b8__pspm,http://pspm.pingstart.com/api/v4/postback?from=1706&clickid=eff3613a-4315-4bc9-b37d-309b8ac028b8__pspm,idfa_0D94632E-8B29-40A3-95E3-F6B0B0CA0140,ja
FzBblSdjRbWpbshHdLCdbQ,newborntown,p1336_10542_,install,1.4,106.133.95.205,41FE72C7-BC65-4A72-B4E9-B7C20EE1CBA5,1557381975,2019-05-09 14:06:15,1557396539,2019-05-09 18:08:59,1557396569,c8c863b7-a3b5-4c28-a320-6ab6f858db47__pspm,http://pspm.pingstart.com/api/v4/postback?from=1706&clickid=c8c863b7-a3b5-4c28-a320-6ab6f858db47__pspm,idfa_41FE72C7-BC65-4A72-B4E9-B7C20EE1CBA5,ja
FzBblSdjRbWpbshHdLCdbQ,newborntown,p1336_10542_,install,1.4,58.95.102.186,C3AB1834-715F-4C48-871D-6D88FE8D9EDD,1556860717,2019-05-03 13:18:37,1556860748,2019-05-03 13:19:08,1556860778,b3fb8260-15fa-4919-873c-d5533e6ae238__pspm,http://pspm.pingstart.com/api/v4/postback?from=1706&clickid=b3fb8260-15fa-4919-873c-d5533e6ae238__pspm,idfa_C3AB1834-715F-4C48-871D-6D88FE8D9EDD,ja
FzBblSdjRbWpbshHdLCdbQ,newborntown,p1336_10542_,install,1.5,219.98.123.103,21ECB1C8-B274-430E-B087-BE25C9E6E61D,1556763867,2019-05-02 10:24:27,1556763898,2019-05-02 10:24:58,1556763928,0d98c561-eedb-4a20-a9f4-08f12ab77c01__pspm,http://pspm.pingstart.com/api/v4/postback?from=1706&clickid=0d98c561-eedb-4a20-a9f4-08f12ab77c01__pspm,idfa_21ECB1C8-B274-430E-B087-BE25C9E6E61D,ja
FzBblSdjRbWpbshHdLCdbQ,newborntown,p1336_10542_,install,1.5,27.84.216.210,3E6205D4-17C7-4EC5-8DF3-4CA2494D0042,1556677862,2019-05-01 10:31:02,1556792783,2019-05-02 18:26:23,1556792813,83120848-ed4f-45db-82f6-2499434c1deb__pspm,http://pspm.pingstart.com/api/v4/postback?from=1706&clickid=83120848-ed4f-45db-82f6-2499434c1deb__pspm,idfa_3E6205D4-17C7-4EC5-8DF3-4CA2494D0042,ja
FzBblSdjRbWpbshHdLCdbQ,newborntown,p1336_10542_,install,1.4,49.98.208.184,60713C17-0E90-4549-A44E-9DE2542F0658,1557202703,2019-05-07 12:18:23,1557202788,2019-05-07 12:19:48,1557202818,e8ba19fe-d828-4a91-82bc-e84dc324e96a__pspm,http://pspm.pingstart.com/api/v4/postback?from=1706&clickid=e8ba19fe-d828-4a91-82bc-e84dc324e96a__pspm,idfa_60713C17-0E90-4549-A44E-9DE2542F0658,ja
FzBblSdjRbWpbshHdLCdbQ,newborntown,p1336_10542_,install,1.5,111.239.170.216,B5845B25-AF9F-481F-BB59-BAE970130720,1556675295,2019-05-01 09:48:15,1556675884,2019-05-01 09:58:04,1556675914,71b22fef-2df1-4dbd-9f80-5bc53461069c__pspm,http://pspm.pingstart.com/api/v4/postback?from=1706&clickid=71b22fef-2df1-4dbd-9f80-5bc53461069c__pspm,idfa_B5845B25-AF9F-481F-BB59-BAE970130720,ja
FzBblSdjRbWpbshHdLCdbQ,newborntown,p1336_10542_,install,1.4,124.18.229.144,9B50F640-EF83-498E-B448-626091FEF041,1557633844,2019-05-12 12:04:04,1557633856,2019-05-12 12:04:16,1557633886,473a8c57-d892-4856-bb3d-2638b27165b5__pspm,http://pspm.pingstart.com/api/v4/postback?from=1706&clickid=473a8c57-d892-4856-bb3d-2638b27165b5__pspm,idfa_9B50F640-EF83-498E-B448-626091FEF041,ja
FzBblSdjRbWpbshHdLCdbQ,newborntown,p1336_10542_,install,1.4,126.33.200.181,8EB58F32-13B3-4024-923E-5AB5882319E4,1557111446,2019-05-06 10:57:26,1557111494,2019-05-06 10:58:14,1557111524,12410b48-ae66-42de-943d-cf6254958225__pspm,http://pspm.pingstart.com/api/v4/postback?from=1706&clickid=12410b48-ae66-42de-943d-cf6254958225__pspm,idfa_8EB58F32-13B3-4024-923E-5AB5882319E4,ja
FzBblSdjRbWpbshHdLCdbQ,newborntown,p1336_10542_,install,1.5,153.178.80.5,16E715C9-72E8-401D-9EF2-AE8E5468FC67,1556771563,2019-05-02 12:32:43,1556771742,2019-05-02 12:35:42,1556771772,761b7feb-298e-4695-8cda-1a5d95f976ef__pspm,http://pspm.pingstart.com/api/v4/postback?from=1706&clickid=761b7feb-298e-4695-8cda-1a5d95f976ef__pspm,idfa_16E715C9-72E8-401D-9EF2-AE8E5468FC67,ja
FzBblSdjRbWpbshHdLCdbQ,newborntown,p1336_10542_,install,1.4,49.103.143.39,7B91FB4A-731E-470F-918F-848A34A74872,1557116776,2019-05-06 12:26:16,1557146011,2019-05-06 20:33:31,1557146041,b3c0d282-ed4f-485a-86d9-24bf26ac6967__pspm,http://pspm.pingstart.com/api/v4/postback?from=1706&clickid=b3c0d282-ed4f-485a-86d9-24bf26ac6967__pspm,idfa_7B91FB4A-731E-470F-918F-848A34A74872,ja
FzBblSdjRbWpbshHdLCdbQ,newborntown,p1336_10542_,install,1.4,111.87.58.233,55A81869-49EA-49D2-A1F5-57F359F0FC80,1557123276,2019-05-06 14:14:36,1557123565,2019-05-06 14:19:25,1557123595,aa555366-4e87-4017-bca3-8c5985b83608__pspm,http://pspm.pingstart.com/api/v4/postback?from=1706&clickid=aa555366-4e87-4017-bca3-8c5985b83608__pspm,idfa_55A81869-49EA-49D2-A1F5-57F359F0FC80,ja
FzBblSdjRbWpbshHdLCdbQ,newborntown,p1336_10542_,install,1.4,180.63.185.250,CA5958D9-6698-4970-9664-E28706DA2065,1556956768,2019-05-04 15:59:28,1556956822,2019-05-04 16:00:22,1556956852,063d6d9b-1a72-4e65-8657-109c35cab30a__pspm,http://pspm.pingstart.com/api/v4/postback?from=1706&clickid=063d6d9b-1a72-4e65-8657-109c35cab30a__pspm,idfa_CA5958D9-6698-4970-9664-E28706DA2065,ja
FzBblSdjRbWpbshHdLCdbQ,newborntown,p1336_10542_,install,1.4,218.216.229.37,84E533D9-6EA0-4518-A22F-5D42C49EAC3A,1557120447,2019-05-06 13:27:27,1557120514,2019-05-06 13:28:34,1557120544,1962d3af-4638-4e77-9731-6aa54f5f8885__pspm,http://pspm.pingstart.com/api/v4/postback?from=1706&clickid=1962d3af-4638-4e77-9731-6aa54f5f8885__pspm,idfa_84E533D9-6EA0-4518-A22F-5D42C49EAC3A,ja
FzBblSdjRbWpbshHdLCdbQ,newborntown,p1336_10542_,install,1.4,27.95.168.122,BFE847AA-7531-4722-9653-0AF90C034719,1557113153,2019-05-06 11:25:53,1557113217,2019-05-06 11:26:57,1557113247,93bf2872-cec6-46a9-a6b0-de4a7480b79a__pspm,http://pspm.pingstart.com/api/v4/postback?from=1706&clickid=93bf2872-cec6-46a9-a6b0-de4a7480b79a__pspm,idfa_BFE847AA-7531-4722-9653-0AF90C034719,ja
FzBblSdjRbWpbshHdLCdbQ,newborntown,p1336_10542_,install,1.4,111.90.93.87,4E1AA279-9FE0-4B1D-B13B-DAADF9ADB9CE,1557554193,2019-05-11 13:56:33,1557554676,2019-05-11 14:04:36,1557554707,8059d088-0e83-4537-8d76-90f98f00ef77__pspm,http://pspm.pingstart.com/api/v4/postback?from=1706&clickid=8059d088-0e83-4537-8d76-90f98f00ef77__pspm,idfa_4E1AA279-9FE0-4B1D-B13B-DAADF9ADB9CE,ja
FzBblSdjRbWpbshHdLCdbQ,newborntown,p1336_10542_,install,1.5,14.11.37.224,C5F37B24-F7BF-4FF6-BAAD-01527586F921,1556445480,2019-04-28 17:58:00,1556713171,2019-05-01 20:19:31,1556713201,d9174530-d3b6-4cc2-bc3b-dbe0a295009c__pspm,http://pspm.pingstart.com/api/v4/postback?from=1706&clickid=d9174530-d3b6-4cc2-bc3b-dbe0a295009c__pspm,idfa_C5F37B24-F7BF-4FF6-BAAD-01527586F921,ja
FzBblSdjRbWpbshHdLCdbQ,newborntown,p1336_10542_,install,1.4,111.239.175.47,372B5154-AEE7-486E-8309-D0E500AABEF2,1557477936,2019-05-10 16:45:36,1557482075,2019-05-10 17:54:35,1557482105,651094f8-d55b-46f0-9adb-6d12b1802622__pspm,http://pspm.pingstart.com/api/v4/postback?from=1706&clickid=651094f8-d55b-46f0-9adb-6d12b1802622__pspm,idfa_372B5154-AEE7-486E-8309-D0E500AABEF2,ja
FzBblSdjRbWpbshHdLCdbQ,newborntown,p1336_10542_,install,1.4,126.233.24.247,0AAFCA42-CB8F-47E0-8D24-DCC6539E47E8,1557202761,2019-05-07 12:19:21,1557203063,2019-05-07 12:24:23,1557203093,9ae21b1f-941e-4c7f-8269-0641730ef05a__pspm,http://pspm.pingstart.com/api/v4/postback?from=1706&clickid=9ae21b1f-941e-4c7f-8269-0641730ef05a__pspm,idfa_0AAFCA42-CB8F-47E0-8D24-DCC6539E47E8,ja
FzBblSdjRbWpbshHdLCdbQ,newborntown,p1336_10542_,install,1.4,182.158.86.90,729FCA68-436A-4E68-88C9-C9D31AF4F137,1557482479,2019-05-10 18:01:19,1557483204,2019-05-10 18:13:24,1557483234,1b869629-2de8-445d-ad3f-b53adeee330e__pspm,http://pspm.pingstart.com/api/v4/postback?from=1706&clickid=1b869629-2de8-445d-ad3f-b53adeee330e__pspm,idfa_729FCA68-436A-4E68-88C9-C9D31AF4F137,ja
FzBblSdjRbWpbshHdLCdbQ,newborntown,p1336_10542_,install,1.4,110.134.55.163,EF260D54-60D1-4913-B92D-F405B80225B2,1557629937,2019-05-12 10:58:57,1557631461,2019-05-12 11:24:21,1557631491,0297ca17-f68f-4c70-8e4d-8f375ee072ba__pspm,http://pspm.pingstart.com/api/v4/postback?from=1706&clickid=0297ca17-f68f-4c70-8e4d-8f375ee072ba__pspm,idfa_EF260D54-60D1-4913-B92D-F405B80225B2,ja
FzBblSdjRbWpbshHdLCdbQ,newborntown,p1336_10542_,install,1.4,126.193.19.154,89C06DD9-95E6-4002-B1C4-EC26465BBF01,1557024343,2019-05-05 10:45:43,1557026500,2019-05-05 11:21:40,1557026530,8dcb935f-a077-436e-b056-5fee4f99365b__pspm,http://pspm.pingstart.com/api/v4/postback?from=1706&clickid=8dcb935f-a077-436e-b056-5fee4f99365b__pspm,idfa_89C06DD9-95E6-4002-B1C4-EC26465BBF01,ja
FzBblSdjRbWpbshHdLCdbQ,newborntown,p1336_10542_,install,1.4,126.225.93.2,33590430-290C-40C6-AA38-340F60B48B57,1557031315,2019-05-05 12:41:55,1557587234,2019-05-11 23:07:14,1557587264,eaebc9ea-3739-4f43-b269-9593716aeea4__pspm,http://pspm.pingstart.com/api/v4/postback?from=1706&clickid=eaebc9ea-3739-4f43-b269-9593716aeea4__pspm,idfa_33590430-290C-40C6-AA38-340F60B48B57,ja
FzBblSdjRbWpbshHdLCdbQ,newborntown,p1336_10542_,install,1.4,180.38.66.146,5F1CCE55-A5C2-42B3-A09C-0D459B019B77,1557383938,2019-05-09 14:38:58,1557383963,2019-05-09 14:39:23,1557383994,e0ead33d-17a3-494d-90b9-d3692bc61c28__pspm,http://pspm.pingstart.com/api/v4/postback?from=1706&clickid=e0ead33d-17a3-494d-90b9-d3692bc61c28__pspm,idfa_5F1CCE55-A5C2-42B3-A09C-0D459B019B77,ja
FzBblSdjRbWpbshHdLCdbQ,newborntown,p1336_10542_,install,1.4,125.193.148.160,B9E40513-1627-4AF6-8619-41CEE63F5A17,1557287736,2019-05-08 11:55:36,1557287770,2019-05-08 11:56:10,1557287801,fb193a05-462b-42b1-9a97-db69b50c2295__pspm,http://pspm.pingstart.com/api/v4/postback?from=1706&clickid=fb193a05-462b-42b1-9a97-db69b50c2295__pspm,idfa_B9E40513-1627-4AF6-8619-41CEE63F5A17,ja
FzBblSdjRbWpbshHdLCdbQ,newborntown,p1336_10542_,install,1.4,106.130.121.18,60C0C906-BBA4-4481-849F-FB28810A5BFD,1557481582,2019-05-10 17:46:22,1557487407,2019-05-10 19:23:27,1557487437,8f15dacf-8437-4804-a5b2-e9c4dba0144e__pspm,http://pspm.pingstart.com/api/v4/postback?from=1706&clickid=8f15dacf-8437-4804-a5b2-e9c4dba0144e__pspm,idfa_60C0C906-BBA4-4481-849F-FB28810A5BFD,ja
FzBblSdjRbWpbshHdLCdbQ,newborntown,p1336_10542_,install,1.4,126.199.70.164,C15ACFC9-2C48-417C-8200-CFCEF9C0B6E2,1557546141,2019-05-11 11:42:21,1557547638,2019-05-11 12:07:18,1557547668,07e01ea7-39cb-47ed-9583-0001a8a4e2c2__pspm,http://pspm.pingstart.com/api/v4/postback?from=1706&clickid=07e01ea7-39cb-47ed-9583-0001a8a4e2c2__pspm,idfa_C15ACFC9-2C48-417C-8200-CFCEF9C0B6E2,ja
FzBblSdjRbWpbshHdLCdbQ,newborntown,p1336_10542_,install,1.4,126.225.78.201,84A430ED-CCE2-4FF4-B7E8-E00C688D6061,1557117073,2019-05-06 12:31:13,1557118358,2019-05-06 12:52:38,1557118388,9811c883-af49-4428-8d04-2dccdf975959__pspm,http://pspm.pingstart.com/api/v4/postback?from=1706&clickid=9811c883-af49-4428-8d04-2dccdf975959__pspm,idfa_84A430ED-CCE2-4FF4-B7E8-E00C688D6061,ja
FzBblSdjRbWpbshHdLCdbQ,newborntown,p1336_10542_,install,1.4,119.106.56.232,D7D4B516-05AF-4D77-95C8-64FA805E029D,1557628710,2019-05-12 10:38:30,1557628761,2019-05-12 10:39:21,1557628791,dd18f028-a4b0-47b9-b55c-937d6ba7ef44__pspm,http://pspm.pingstart.com/api/v4/postback?from=1706&clickid=dd18f028-a4b0-47b9-b55c-937d6ba7ef44__pspm,idfa_D7D4B516-05AF-4D77-95C8-64FA805E029D,ja
FzBblSdjRbWpbshHdLCdbQ,newborntown,p1336_10542_,install,1.4,126.241.248.239,72901C67-B69B-418F-97DF-FEE440C8A7AD,1557628050,2019-05-12 10:27:30,1557635528,2019-05-12 12:32:08,1557635558,4e689a03-328a-42fc-b444-d39d544a5271__pspm,http://pspm.pingstart.com/api/v4/postback?from=1706&clickid=4e689a03-328a-42fc-b444-d39d544a5271__pspm,idfa_72901C67-B69B-418F-97DF-FEE440C8A7AD,ja
FzBblSdjRbWpbshHdLCdbQ,newborntown,p1336_10542_,install,1.4,49.96.35.24,D0C316A7-7D82-4390-ABAE-8CF037257E79,1556861380,2019-05-03 13:29:40,1556973022,2019-05-04 20:30:22,1556973053,fb79f8b7-80b1-4ca0-b505-e04123f624bf__pspm,http://pspm.pingstart.com/api/v4/postback?from=1706&clickid=fb79f8b7-80b1-4ca0-b505-e04123f624bf__pspm,idfa_D0C316A7-7D82-4390-ABAE-8CF037257E79,ja
FzBblSdjRbWpbshHdLCdbQ,newborntown,p1336_10542_,install,1.4,106.180.27.246,69FF5C6D-47A4-4705-8182-C65007C50AC0,1557381126,2019-05-09 13:52:06,1557382102,2019-05-09 14:08:22,1557382132,64a87308-2aac-46c2-a0e7-7c47a8e6c51b__pspm,http://pspm.pingstart.com/api/v4/postback?from=1706&clickid=64a87308-2aac-46c2-a0e7-7c47a8e6c51b__pspm,idfa_69FF5C6D-47A4-4705-8182-C65007C50AC0,ja
FzBblSdjRbWpbshHdLCdbQ,newborntown,p1336_10542_,install,1.4,49.98.48.64,B1844690-F053-40AF-8205-05DBD73AC7FB,1557119127,2019-05-06 13:05:27,1557119167,2019-05-06 13:06:07,1557119197,6ae4faeb-7d25-434a-9dcb-2c72c3a5f5c7__pspm,http://pspm.pingstart.com/api/v4/postback?from=1706&clickid=6ae4faeb-7d25-434a-9dcb-2c72c3a5f5c7__pspm,idfa_B1844690-F053-40AF-8205-05DBD73AC7FB,ja
FzBblSdjRbWpbshHdLCdbQ,newborntown,p1336_10542_,install,1.5,114.142.74.40,D28486F1-9940-48A1-A188-27C263316D9D,1556773616,2019-05-02 13:06:56,1556773665,2019-05-02 13:07:45,1556773695,83e8ec02-714e-47e5-83e0-8c820ae74270__pspm,http://pspm.pingstart.com/api/v4/postback?from=1706&clickid=83e8ec02-714e-47e5-83e0-8c820ae74270__pspm,idfa_D28486F1-9940-48A1-A188-27C263316D9D,ja
FzBblSdjRbWpbshHdLCdbQ,newborntown,p1336_10542_,install,1.4,106.130.212.228,882BAE4E-ABAA-473C-9947-E8AEDCD265F2,1557568745,2019-05-11 17:59:05,1557568903,2019-05-11 18:01:43,1557568933,464facfe-9f56-4b47-9a35-c79a2d5c94a7__pspm,http://pspm.pingstart.com/api/v4/postback?from=1706&clickid=464facfe-9f56-4b47-9a35-c79a2d5c94a7__pspm,idfa_882BAE4E-ABAA-473C-9947-E8AEDCD265F2,ja
FzBblSdjRbWpbshHdLCdbQ,newborntown,p1336_10542_,install,1.4,126.193.78.182,BD5294FB-62EF-4B84-A78C-49A6D10D8489,1557639302,2019-05-12 13:35:02,1557639344,2019-05-12 13:35:44,1557639374,579d3264-58be-4981-9b34-2579cb628148__pspm,http://pspm.pingstart.com/api/v4/postback?from=1706&clickid=579d3264-58be-4981-9b34-2579cb628148__pspm,idfa_BD5294FB-62EF-4B84-A78C-49A6D10D8489,ja
FzBblSdjRbWpbshHdLCdbQ,newborntown,p1336_10542_,install,1.4,126.150.95.27,6138A977-BDAE-45E3-A68B-984FBD22E27C,1557112955,2019-05-06 11:22:35,1557113020,2019-05-06 11:23:40,1557113050,75ceb47d-aec5-4f03-b786-e825b7244a39__pspm,http://pspm.pingstart.com/api/v4/postback?from=1706&clickid=75ceb47d-aec5-4f03-b786-e825b7244a39__pspm,idfa_6138A977-BDAE-45E3-A68B-984FBD22E27C,ja
FzBblSdjRbWpbshHdLCdbQ,newborntown,p1336_10542_,install,1.4,111.239.252.171,0C1A1C29-68FE-494D-9C6A-DD0350D84F90,1556783400,2019-05-02 15:50:00,1556968469,2019-05-04 19:14:29,1556968499,db35ec48-6fc3-40fb-88cf-f9a90190d0bf__pspm,http://pspm.pingstart.com/api/v4/postback?from=1706&clickid=db35ec48-6fc3-40fb-88cf-f9a90190d0bf__pspm,idfa_0C1A1C29-68FE-494D-9C6A-DD0350D84F90,ja
FzBblSdjRbWpbshHdLCdbQ,newborntown,p1336_10542_,install,1.4,118.18.81.196,CC509C79-2B8B-49BA-BF9C-C40D38E0AAF5,1556950507,2019-05-04 14:15:07,1557314075,2019-05-08 19:14:35,1557314105,5c9f639e-accd-4e8d-bf6b-a2b19afdcb97__pspm,http://pspm.pingstart.com/api/v4/postback?from=1706&clickid=5c9f639e-accd-4e8d-bf6b-a2b19afdcb97__pspm,idfa_CC509C79-2B8B-49BA-BF9C-C40D38E0AAF5,ja
FzBblSdjRbWpbshHdLCdbQ,newborntown,p1336_10542_,install,1.4,106.128.18.26,8FF39276-6F7C-485A-B418-89BFE1E77FFB,1557636320,2019-05-12 12:45:20,1557636409,2019-05-12 12:46:49,1557636439,090b2235-f665-4e7d-a199-d8cbf478f19e__pspm,http://pspm.pingstart.com/api/v4/postback?from=1706&clickid=090b2235-f665-4e7d-a199-d8cbf478f19e__pspm,idfa_8FF39276-6F7C-485A-B418-89BFE1E77FFB,ja
FzBblSdjRbWpbshHdLCdbQ,newborntown,p1336_10542_,install,1.5,133.123.122.52,9324DE34-D6BB-4D8F-8D05-66F75C2C5B5F,1556700264,2019-05-01 16:44:24,1556700436,2019-05-01 16:47:16,1556700466,da17a8ed-9a07-4142-beab-97b8e63bc643__pspm,http://pspm.pingstart.com/api/v4/postback?from=1706&clickid=da17a8ed-9a07-4142-beab-97b8e63bc643__pspm,idfa_9324DE34-D6BB-4D8F-8D05-66F75C2C5B5F,ja
FzBblSdjRbWpbshHdLCdbQ,newborntown,p1336_10542_,install,1.4,125.203.24.251,D3310FFF-7D48-490F-8106-43C53BE4FE3A,1557031630,2019-05-05 12:47:10,1557031867,2019-05-05 12:51:07,1557031897,2095b95a-b06d-4ce5-a569-79249f13d36b__pspm,http://pspm.pingstart.com/api/v4/postback?from=1706&clickid=2095b95a-b06d-4ce5-a569-79249f13d36b__pspm,idfa_D3310FFF-7D48-490F-8106-43C53BE4FE3A,ja
FzBblSdjRbWpbshHdLCdbQ,newborntown,p1336_10542_,install,1.5,111.65.208.230,406C65F3-D2AB-4ACD-9AE4-EB73BBE39650,1557114296,2019-05-06 11:44:56,1557301882,2019-05-08 15:51:22,1557301912,5d26c38a-c795-4f51-beda-cf9dcbaab506__pspm,http://pspm.pingstart.com/api/v4/postback?from=1706&clickid=5d26c38a-c795-4f51-beda-cf9dcbaab506__pspm,idfa_406C65F3-D2AB-4ACD-9AE4-EB73BBE39650,ja
FzBblSdjRbWpbshHdLCdbQ,newborntown,p1336_10542_,install,1.4,110.233.45.180,F9935035-EFBD-4B65-84CB-ED8CD30A0B71,1557306269,2019-05-08 17:04:29,1557319385,2019-05-08 20:43:05,1557319415,fef1dcf1-4ef5-43c9-95a3-674ec059010e__pspm,http://pspm.pingstart.com/api/v4/postback?from=1706&clickid=fef1dcf1-4ef5-43c9-95a3-674ec059010e__pspm,idfa_F9935035-EFBD-4B65-84CB-ED8CD30A0B71,ja
FzBblSdjRbWpbshHdLCdbQ,newborntown,p1336_10542_,install,1.4,182.251.32.127,AEF41428-2E79-414B-8DE1-4BCAD07FCED9,1557121705,2019-05-06 13:48:25,1557121805,2019-05-06 13:50:05,1557121835,1bb67fb7-daf2-46dd-bff1-29de0c8faf2c__pspm,http://pspm.pingstart.com/api/v4/postback?from=1706&clickid=1bb67fb7-daf2-46dd-bff1-29de0c8faf2c__pspm,idfa_AEF41428-2E79-414B-8DE1-4BCAD07FCED9,ja
FzBblSdjRbWpbshHdLCdbQ,newborntown,p1336_10542_,install,1.4,182.170.123.18,8CE6671F-B2B0-41FF-BF72-368254EAF0FA,1557555737,2019-05-11 14:22:17,1557555769,2019-05-11 14:22:49,1557555800,d90f8b7e-3dd3-45a0-9745-c3e6b6c01f78__pspm,http://pspm.pingstart.com/api/v4/postback?from=1706&clickid=d90f8b7e-3dd3-45a0-9745-c3e6b6c01f78__pspm,idfa_8CE6671F-B2B0-41FF-BF72-368254EAF0FA,ja
FzBblSdjRbWpbshHdLCdbQ,newborntown,p1336_10542_,install,1.4,59.133.38.166,AB8ABAD8-EC5F-4183-BBE3-0340C333FF2A,1557123642,2019-05-06 14:20:42,1557123782,2019-05-06 14:23:02,1557123812,fedd42e3-cb4f-41b7-9a65-278356a72683__pspm,http://pspm.pingstart.com/api/v4/postback?from=1706&clickid=fedd42e3-cb4f-41b7-9a65-278356a72683__pspm,idfa_AB8ABAD8-EC5F-4183-BBE3-0340C333FF2A,ja
FzBblSdjRbWpbshHdLCdbQ,newborntown,p1336_10542_,install,1.5,110.5.1.44,6A5685ED-EF37-4EA0-8EA8-1D51927DBDF9,1556700054,2019-05-01 16:40:54,1556700099,2019-05-01 16:41:39,1556700129,a8749af3-3b6c-49e6-9cc2-a03dd4357438__pspm,http://pspm.pingstart.com/api/v4/postback?from=1706&clickid=a8749af3-3b6c-49e6-9cc2-a03dd4357438__pspm,idfa_6A5685ED-EF37-4EA0-8EA8-1D51927DBDF9,ja
FzBblSdjRbWpbshHdLCdbQ,newborntown,p1336_10542_,install,1.4,126.129.91.86,EB063C41-17A8-4A7F-85CA-0159EC3A095C,1557021920,2019-05-05 10:05:20,1557022367,2019-05-05 10:12:47,1557022398,07f8ab98-7d2a-45d9-972f-fdb05f8692d8__pspm,http://pspm.pingstart.com/api/v4/postback?from=1706&clickid=07f8ab98-7d2a-45d9-972f-fdb05f8692d8__pspm,idfa_EB063C41-17A8-4A7F-85CA-0159EC3A095C,ja
FzBblSdjRbWpbshHdLCdbQ,newborntown,p1336_10542_,install,1.4,106.156.109.243,3C327A46-FA42-4E5A-81F9-D0FEAFBA9566,1556850436,2019-05-03 10:27:16,1556877576,2019-05-03 17:59:36,1556877606,2fdea2cf-0fb6-4135-814e-70bca4d1b790__pspm,http://pspm.pingstart.com/api/v4/postback?from=1706&clickid=2fdea2cf-0fb6-4135-814e-70bca4d1b790__pspm,idfa_3C327A46-FA42-4E5A-81F9-D0FEAFBA9566,ja
FzBblSdjRbWpbshHdLCdbQ,newborntown,p1336_10542_,install,1.4,61.23.236.75,8FD84AE6-3B04-497C-86DA-442D6794DE46,1557289140,2019-05-08 12:19:00,1557289189,2019-05-08 12:19:49,1557289219,1d3d227e-dc6e-43f9-a3d6-c0ce6fc0d0fc__pspm,http://pspm.pingstart.com/api/v4/postback?from=1706&clickid=1d3d227e-dc6e-43f9-a3d6-c0ce6fc0d0fc__pspm,idfa_8FD84AE6-3B04-497C-86DA-442D6794DE46,ja
FzBblSdjRbWpbshHdLCdbQ,newborntown,p1336_10542_,install,1.4,106.132.87.39,91A1EE0F-5BB9-4478-937B-B7E01DFAC261,1557111153,2019-05-06 10:52:33,1557220575,2019-05-07 17:16:15,1557220605,98487b14-da73-46fa-a750-0a373f6931b4__pspm,http://pspm.pingstart.com/api/v4/postback?from=1706&clickid=98487b14-da73-46fa-a750-0a373f6931b4__pspm,idfa_91A1EE0F-5BB9-4478-937B-B7E01DFAC261,ja
FzBblSdjRbWpbshHdLCdbQ,newborntown,p1336_10542_,install,1.4,126.163.72.112,10B4330E-DEBB-4B64-805D-C18A9440B11A,1557029503,2019-05-05 12:11:43,1557030528,2019-05-05 12:28:48,1557030558,68b7a5e8-22a1-46d3-b3ae-284319262a79__pspm,http://pspm.pingstart.com/api/v4/postback?from=1706&clickid=68b7a5e8-22a1-46d3-b3ae-284319262a79__pspm,idfa_10B4330E-DEBB-4B64-805D-C18A9440B11A,ja
FzBblSdjRbWpbshHdLCdbQ,newborntown,p1336_10542_,install,1.4,211.1.200.129,C43E85E6-3EDE-4D73-B997-6B3983E5428B,1557648240,2019-05-12 16:04:00,1557648302,2019-05-12 16:05:02,1557648332,a9777499-dfa1-4edf-b4b1-547b79b8d9fb__pspm,http://pspm.pingstart.com/api/v4/postback?from=1706&clickid=a9777499-dfa1-4edf-b4b1-547b79b8d9fb__pspm,idfa_C43E85E6-3EDE-4D73-B997-6B3983E5428B,ja
FzBblSdjRbWpbshHdLCdbQ,newborntown,p1336_10542_,install,1.4,218.221.243.158,9746F1F4-EA59-4E29-A460-40B9B428742D,1557571065,2019-05-11 18:37:45,1557571096,2019-05-11 18:38:16,1557571126,6bddb00f-c498-45a8-9485-fb8e96a69cc1__pspm,http://pspm.pingstart.com/api/v4/postback?from=1706&clickid=6bddb00f-c498-45a8-9485-fb8e96a69cc1__pspm,idfa_9746F1F4-EA59-4E29-A460-40B9B428742D,ja
