cid,partner_id,channel_id,action_id,cpi,ip,idfa,click time,click datetime,install time,install datetime,postback time,click id,postback url,unique user id
oYDC5-wGRca-QxR4Np1iNQ,newborntown,p1789_544-391,install,1.5,222.108.143.193,96935F3F-806F-4677-A78A-E3C8571F070D,1558668991,2019-05-24 11:36:31,1558669053,2019-05-24 11:37:33,1558669085,9648e61c-96c9-460e-aa9b-9d24c8356bd9__pspm,http://pspm.pingstart.com/api/v4/postback?from=1706&clickid=9648e61c-96c9-460e-aa9b-9d24c8356bd9__pspm,idfa_96935F3F-806F-4677-A78A-E3C8571F070D,ko
oYDC5-wGRca-QxR4Np1iNQ,newborntown,p1789_544-391,install,1.5,182.208.90.83,43E01C36-26E8-4503-9BCB-2C4CC76D8848,1558669386,2019-05-24 11:43:06,1558669440,2019-05-24 11:44:00,1558669470,4acc20c2-3eb9-4836-b1f0-ec1a9729fa9c__pspm,http://pspm.pingstart.com/api/v4/postback?from=1706&clickid=4acc20c2-3eb9-4836-b1f0-ec1a9729fa9c__pspm,idfa_43E01C36-26E8-4503-9BCB-2C4CC76D8848,ko
oYDC5-wGRca-QxR4Np1iNQ,newborntown,p1789_544-391,install,1.5,106.242.93.226,CBDDF82A-6220-473D-A17A-D695CA309387,1558669780,2019-05-24 11:49:40,1558669830,2019-05-24 11:50:30,1558669860,6c721e05-fd23-4da6-be3e-3dc9c94c38ea__pspm,http://pspm.pingstart.com/api/v4/postback?from=1706&clickid=6c721e05-fd23-4da6-be3e-3dc9c94c38ea__pspm,idfa_CBDDF82A-6220-473D-A17A-D695CA309387,ko
oYDC5-wGRca-QxR4Np1iNQ,newborntown,p1789_544-391,install,1.5,59.6.184.142,81EF1052-90C2-4A46-8A97-52C207CBE1C2,1558670603,2019-05-24 12:03:23,1558670654,2019-05-24 12:04:14,1558670685,c1e2d923-169a-4df7-ab85-47d3af48e5e5__pspm,http://pspm.pingstart.com/api/v4/postback?from=1706&clickid=c1e2d923-169a-4df7-ab85-47d3af48e5e5__pspm,idfa_81EF1052-90C2-4A46-8A97-52C207CBE1C2,ko
oYDC5-wGRca-QxR4Np1iNQ,newborntown,p1789_544-391,install,1.5,114.30.165.99,A38671E0-9100-4AD4-AFCF-91A011B6390F,1558668828,2019-05-24 11:33:48,1558668905,2019-05-24 11:35:05,1558668935,12a09850-55a7-43a6-a7a5-4d51a239fbbe__pspm,http://pspm.pingstart.com/api/v4/postback?from=1706&clickid=12a09850-55a7-43a6-a7a5-4d51a239fbbe__pspm,idfa_A38671E0-9100-4AD4-AFCF-91A011B6390F,ko
oYDC5-wGRca-QxR4Np1iNQ,newborntown,p1789_544-391,install,1.5,59.15.185.17,1DEB4665-6752-47D2-9823-476B8F647450,1558670509,2019-05-24 12:01:49,1558670594,2019-05-24 12:03:14,1558670625,1376858f-1c17-4404-b5d5-ab9d9f20f2b5__pspm,http://pspm.pingstart.com/api/v4/postback?from=1706&clickid=1376858f-1c17-4404-b5d5-ab9d9f20f2b5__pspm,idfa_1DEB4665-6752-47D2-9823-476B8F647450,ko
oYDC5-wGRca-QxR4Np1iNQ,newborntown,p1789_544-391,install,1.5,183.109.79.6,321953E6-3E09-4516-AB23-136A8AFF0C16,1558668603,2019-05-24 11:30:03,1558668668,2019-05-24 11:31:08,1558668698,69484eda-8b75-4439-b5ff-20fc503328d9__pspm,http://pspm.pingstart.com/api/v4/postback?from=1706&clickid=69484eda-8b75-4439-b5ff-20fc503328d9__pspm,idfa_321953E6-3E09-4516-AB23-136A8AFF0C16,ko
oYDC5-wGRca-QxR4Np1iNQ,newborntown,p1789_544-391,install,1.5,61.81.115.75,49929237-22C6-4F1D-A943-65D98A13859B,1558669451,2019-05-24 11:44:11,1558669514,2019-05-24 11:45:14,1558669544,a1b89964-f199-4a92-87fb-f65530f9ccec__pspm,http://pspm.pingstart.com/api/v4/postback?from=1706&clickid=a1b89964-f199-4a92-87fb-f65530f9ccec__pspm,idfa_49929237-22C6-4F1D-A943-65D98A13859B,ko
oYDC5-wGRca-QxR4Np1iNQ,newborntown,p1789_544-391,install,1.5,112.216.15.226,786987B3-47E0-400B-811E-5027F515376A,1558670542,2019-05-24 12:02:22,1558670606,2019-05-24 12:03:26,1558670636,29014b9d-c4fc-48e3-bc51-6826ebb72000__pspm,http://pspm.pingstart.com/api/v4/postback?from=1706&clickid=29014b9d-c4fc-48e3-bc51-6826ebb72000__pspm,idfa_786987B3-47E0-400B-811E-5027F515376A,ko
oYDC5-wGRca-QxR4Np1iNQ,newborntown,p1789_544-391,install,1.5,220.89.135.7,1963192B-72A8-471A-8872-FDB1F96B7B13,1558603055,2019-05-23 17:17:35,1558603120,2019-05-23 17:18:40,1558603151,6ffb2d74-36b8-41d1-af42-bcc99c6ca5ee__pspm,http://pspm.pingstart.com/api/v4/postback?from=1706&clickid=6ffb2d74-36b8-41d1-af42-bcc99c6ca5ee__pspm,idfa_1963192B-72A8-471A-8872-FDB1F96B7B13,ko
oYDC5-wGRca-QxR4Np1iNQ,newborntown,p1789_544-391,install,1.5,220.83.54.195,90EE3FD4-DFAA-44C9-AC8C-3ADC0F21C0B6,1558602953,2019-05-23 17:15:53,1558603013,2019-05-23 17:16:53,1558603044,dd893291-c4aa-4711-bd2c-6210137ad553__pspm,http://pspm.pingstart.com/api/v4/postback?from=1706&clickid=dd893291-c4aa-4711-bd2c-6210137ad553__pspm,idfa_90EE3FD4-DFAA-44C9-AC8C-3ADC0F21C0B6,ko
oYDC5-wGRca-QxR4Np1iNQ,newborntown,p1789_544-391,install,1.5,121.146.118.236,91B6DAAE-DCB1-4F34-BD41-F9150E58C2A9,1558669016,2019-05-24 11:36:56,1558669078,2019-05-24 11:37:58,1558669109,56dba824-218f-43ca-9d05-3e487b682485__pspm,http://pspm.pingstart.com/api/v4/postback?from=1706&clickid=56dba824-218f-43ca-9d05-3e487b682485__pspm,idfa_91B6DAAE-DCB1-4F34-BD41-F9150E58C2A9,ko
oYDC5-wGRca-QxR4Np1iNQ,newborntown,p1789_544-391,install,1.5,1.214.47.130,6C8D3A51-9938-475E-BA0A-4DB22AE1DBB6,1558669253,2019-05-24 11:40:53,1558669357,2019-05-24 11:42:37,1558669388,4a1597a2-78f6-475f-9c4a-3c479ef32b13__pspm,http://pspm.pingstart.com/api/v4/postback?from=1706&clickid=4a1597a2-78f6-475f-9c4a-3c479ef32b13__pspm,idfa_6C8D3A51-9938-475E-BA0A-4DB22AE1DBB6,ko
oYDC5-wGRca-QxR4Np1iNQ,newborntown,p1789_544-391,install,1.5,211.169.209.130,55176FBB-1D8F-4660-BB4B-2155C0C804D9,1558669373,2019-05-24 11:42:53,1558669433,2019-05-24 11:43:53,1558669464,cb5d0351-5803-427a-b6de-26a7ba9ff842__pspm,http://pspm.pingstart.com/api/v4/postback?from=1706&clickid=cb5d0351-5803-427a-b6de-26a7ba9ff842__pspm,idfa_55176FBB-1D8F-4660-BB4B-2155C0C804D9,ko
oYDC5-wGRca-QxR4Np1iNQ,newborntown,p1789_544-391,install,1.5,121.146.118.236,5926DDA1-F99D-4CB4-9247-5ADB567782E3,1558602954,2019-05-23 17:15:54,1558603013,2019-05-23 17:16:53,1558603045,93ee93c8-8b31-44be-afbb-f07e17d5d422__pspm,http://pspm.pingstart.com/api/v4/postback?from=1706&clickid=93ee93c8-8b31-44be-afbb-f07e17d5d422__pspm,idfa_5926DDA1-F99D-4CB4-9247-5ADB567782E3,ko
oYDC5-wGRca-QxR4Np1iNQ,newborntown,p1789_544-391,install,1.5,220.127.126.139,E90157BA-CF8D-4AD8-A7E1-601BD4120DC5,1558668821,2019-05-24 11:33:41,1558668879,2019-05-24 11:34:39,1558668909,3112e8a7-14ad-464b-beb9-57394533b40c__pspm,http://pspm.pingstart.com/api/v4/postback?from=1706&clickid=3112e8a7-14ad-464b-beb9-57394533b40c__pspm,idfa_E90157BA-CF8D-4AD8-A7E1-601BD4120DC5,ko
oYDC5-wGRca-QxR4Np1iNQ,newborntown,p1789_544-391,install,1.5,175.236.156.204,E1BC89AC-5F5D-4B7D-AEA1-29F7A3CF54A2,1558670137,2019-05-24 11:55:37,1558670186,2019-05-24 11:56:26,1558670216,ee0df838-43f8-49e6-9b48-460bec8236bc__pspm,http://pspm.pingstart.com/api/v4/postback?from=1706&clickid=ee0df838-43f8-49e6-9b48-460bec8236bc__pspm,idfa_E1BC89AC-5F5D-4B7D-AEA1-29F7A3CF54A2,ko
oYDC5-wGRca-QxR4Np1iNQ,newborntown,p1789_544-391,install,1.5,175.192.140.241,F17E33D7-B934-46B6-AF35-3D4E19558D69,1558602951,2019-05-23 17:15:51,1558603012,2019-05-23 17:16:52,1558603043,6640c56f-fe8a-45d3-bf8b-0aad89e7bcdf__pspm,http://pspm.pingstart.com/api/v4/postback?from=1706&clickid=6640c56f-fe8a-45d3-bf8b-0aad89e7bcdf__pspm,idfa_F17E33D7-B934-46B6-AF35-3D4E19558D69,ko
oYDC5-wGRca-QxR4Np1iNQ,newborntown,p1789_544-391,install,1.5,118.63.20.103,DF05F9C8-A77D-4A60-AC18-532F992D070A,1558669760,2019-05-24 11:49:20,1558669809,2019-05-24 11:50:09,1558669840,e6f95e7b-f048-4e20-9136-4ef68d44fa67__pspm,http://pspm.pingstart.com/api/v4/postback?from=1706&clickid=e6f95e7b-f048-4e20-9136-4ef68d44fa67__pspm,idfa_DF05F9C8-A77D-4A60-AC18-532F992D070A,ko
oYDC5-wGRca-QxR4Np1iNQ,newborntown,p1789_544-391,install,1.5,211.54.74.50,51B5F470-5D27-456E-BADE-42095806D1C4,1558668613,2019-05-24 11:30:13,1558668672,2019-05-24 11:31:12,1558668703,e6aea79e-0c87-4cf4-af7f-cb16888a0cf8__pspm,http://pspm.pingstart.com/api/v4/postback?from=1706&clickid=e6aea79e-0c87-4cf4-af7f-cb16888a0cf8__pspm,idfa_51B5F470-5D27-456E-BADE-42095806D1C4,ko
oYDC5-wGRca-QxR4Np1iNQ,newborntown,p1789_544-391,install,1.5,115.12.177.66,8B790D54-85C6-4B51-8816-36EDDD0B7589,1558668694,2019-05-24 11:31:34,1558668742,2019-05-24 11:32:22,1558668773,e41ac855-9631-4a5e-bace-998db40c64ad__pspm,http://pspm.pingstart.com/api/v4/postback?from=1706&clickid=e41ac855-9631-4a5e-bace-998db40c64ad__pspm,idfa_8B790D54-85C6-4B51-8816-36EDDD0B7589,ko
oYDC5-wGRca-QxR4Np1iNQ,newborntown,p1789_544-391,install,1.5,121.135.142.250,E274DF35-2D37-4F21-8480-456143552931,1558669677,2019-05-24 11:47:57,1558669749,2019-05-24 11:49:09,1558669779,3eb21171-8a6f-4ec6-a1de-a3e348b24ea4__pspm,http://pspm.pingstart.com/api/v4/postback?from=1706&clickid=3eb21171-8a6f-4ec6-a1de-a3e348b24ea4__pspm,idfa_E274DF35-2D37-4F21-8480-456143552931,ko
oYDC5-wGRca-QxR4Np1iNQ,newborntown,p1789_544-391,install,1.5,183.109.79.6,6668C1DA-7800-4B27-9EE8-E847AB0E242A,1558670512,2019-05-24 12:01:52,1558670566,2019-05-24 12:02:46,1558670597,dabbab9a-8210-4215-af58-340fdc88168a__pspm,http://pspm.pingstart.com/api/v4/postback?from=1706&clickid=dabbab9a-8210-4215-af58-340fdc88168a__pspm,idfa_6668C1DA-7800-4B27-9EE8-E847AB0E242A,ko
oYDC5-wGRca-QxR4Np1iNQ,newborntown,p1789_544-391,install,1.5,221.166.217.25,22EEC003-4956-4A55-86ED-009ECEA25CF7,1558668835,2019-05-24 11:33:55,1558668921,2019-05-24 11:35:21,1558668952,6458fc59-e52a-47f1-903a-cba2b5dafa11__pspm,http://pspm.pingstart.com/api/v4/postback?from=1706&clickid=6458fc59-e52a-47f1-903a-cba2b5dafa11__pspm,idfa_22EEC003-4956-4A55-86ED-009ECEA25CF7,ko
oYDC5-wGRca-QxR4Np1iNQ,newborntown,p1789_544-391,install,1.5,119.66.102.7,CD518BA1-DEA1-41EF-B7D5-F207D3FABE80,1558669393,2019-05-24 11:43:13,1558669444,2019-05-24 11:44:04,1558669475,8bcd2e35-2093-413d-97f6-d53082960401__pspm,http://pspm.pingstart.com/api/v4/postback?from=1706&clickid=8bcd2e35-2093-413d-97f6-d53082960401__pspm,idfa_CD518BA1-DEA1-41EF-B7D5-F207D3FABE80,ko
oYDC5-wGRca-QxR4Np1iNQ,newborntown,p1789_544-391,install,1.5,175.230.39.122,EFE631E9-3283-4922-BF15-F33FF79BE287,1558669019,2019-05-24 11:36:59,1558669076,2019-05-24 11:37:56,1558669107,3a5bde7b-7086-4bc3-ae9c-7a412e62fc5b__pspm,http://pspm.pingstart.com/api/v4/postback?from=1706&clickid=3a5bde7b-7086-4bc3-ae9c-7a412e62fc5b__pspm,idfa_EFE631E9-3283-4922-BF15-F33FF79BE287,ko
oYDC5-wGRca-QxR4Np1iNQ,newborntown,p1789_544-391,install,1.5,106.247.228.50,4F567CAC-ADE2-4C67-8ACB-E125408D3FE3,1558670213,2019-05-24 11:56:53,1558670300,2019-05-24 11:58:20,1558670331,70272529-eee5-403b-b612-110b63a720de__pspm,http://pspm.pingstart.com/api/v4/postback?from=1706&clickid=70272529-eee5-403b-b612-110b63a720de__pspm,idfa_4F567CAC-ADE2-4C67-8ACB-E125408D3FE3,ko
oYDC5-wGRca-QxR4Np1iNQ,newborntown,p1789_544-391,install,1.5,61.81.121.62,8B39026D-D98F-42AD-AC26-FF25C502EFB6,1558670146,2019-05-24 11:55:46,1558670210,2019-05-24 11:56:50,1558670240,0e032041-9879-4468-86e6-5fd8ea50964b__pspm,http://pspm.pingstart.com/api/v4/postback?from=1706&clickid=0e032041-9879-4468-86e6-5fd8ea50964b__pspm,idfa_8B39026D-D98F-42AD-AC26-FF25C502EFB6,ko
oYDC5-wGRca-QxR4Np1iNQ,newborntown,p1789_544-391,install,1.5,211.221.155.6,02418D13-D244-4D9E-A355-67783632C7E9,1558670060,2019-05-24 11:54:20,1558670114,2019-05-24 11:55:14,1558670146,f63cc5ca-90b1-44d0-8c54-cab3340ddb28__pspm,http://pspm.pingstart.com/api/v4/postback?from=1706&clickid=f63cc5ca-90b1-44d0-8c54-cab3340ddb28__pspm,idfa_02418D13-D244-4D9E-A355-67783632C7E9,ko
oYDC5-wGRca-QxR4Np1iNQ,newborntown,p1789_544-391,install,1.5,183.123.140.105,7EED663A-25EA-4E40-B63B-039946897E9C,1558669260,2019-05-24 11:41:00,1558669308,2019-05-24 11:41:48,1558669338,d4652b92-5472-410b-8c1f-be5ddd0171a7__pspm,http://pspm.pingstart.com/api/v4/postback?from=1706&clickid=d4652b92-5472-410b-8c1f-be5ddd0171a7__pspm,idfa_7EED663A-25EA-4E40-B63B-039946897E9C,ko
oYDC5-wGRca-QxR4Np1iNQ,newborntown,p1789_544-391,install,1.5,61.37.41.130,08D70B86-0758-436B-9FBC-ED15D2E149BF,1558669041,2019-05-24 11:37:21,1558669093,2019-05-24 11:38:13,1558669123,347a0ab4-25a5-4355-b72b-784343233d7b__pspm,http://pspm.pingstart.com/api/v4/postback?from=1706&clickid=347a0ab4-25a5-4355-b72b-784343233d7b__pspm,idfa_08D70B86-0758-436B-9FBC-ED15D2E149BF,ko
oYDC5-wGRca-QxR4Np1iNQ,newborntown,p1789_544-391,install,1.5,112.179.141.189,98945832-0E62-4FC8-83AD-A0A3F9C06787,1558602951,2019-05-23 17:15:51,1558603000,2019-05-23 17:16:40,1558603031,ba15a04c-4f0d-44c7-9c09-f1c9040125ef__pspm,http://pspm.pingstart.com/api/v4/postback?from=1706&clickid=ba15a04c-4f0d-44c7-9c09-f1c9040125ef__pspm,idfa_98945832-0E62-4FC8-83AD-A0A3F9C06787,ko
oYDC5-wGRca-QxR4Np1iNQ,newborntown,p1789_544-391,install,1.5,183.123.129.74,2BE4463F-7F5B-4BA7-AE02-D4B5063FBC58,1558668821,2019-05-24 11:33:41,1558668905,2019-05-24 11:35:05,1558668936,6a582bfe-fd0e-4262-b488-60b20181fa9b__pspm,http://pspm.pingstart.com/api/v4/postback?from=1706&clickid=6a582bfe-fd0e-4262-b488-60b20181fa9b__pspm,idfa_2BE4463F-7F5B-4BA7-AE02-D4B5063FBC58,ko
oYDC5-wGRca-QxR4Np1iNQ,newborntown,p1789_544-391,install,1.5,220.116.230.50,F399535C-1A19-41E5-9831-7BA740586F80,1558668821,2019-05-24 11:33:41,1558668877,2019-05-24 11:34:37,1558668909,3336df29-42bf-497e-ac4a-cb1317976bc8__pspm,http://pspm.pingstart.com/api/v4/postback?from=1706&clickid=3336df29-42bf-497e-ac4a-cb1317976bc8__pspm,idfa_F399535C-1A19-41E5-9831-7BA740586F80,ko
oYDC5-wGRca-QxR4Np1iNQ,newborntown,p1789_544-391,install,1.5,112.216.15.226,92545344-0C7C-4593-8C48-9A958C8B613E,1558670567,2019-05-24 12:02:47,1558670640,2019-05-24 12:04:00,1558670671,577b0185-a1f0-4403-a781-2171fb239e7e__pspm,http://pspm.pingstart.com/api/v4/postback?from=1706&clickid=577b0185-a1f0-4403-a781-2171fb239e7e__pspm,idfa_92545344-0C7C-4593-8C48-9A958C8B613E,ko
oYDC5-wGRca-QxR4Np1iNQ,newborntown,p1789_544-391,install,1.5,121.154.166.249,1AFA28C4-DA73-4A81-9BD5-EB45027535AC,1558670556,2019-05-24 12:02:36,1558670627,2019-05-24 12:03:47,1558670658,2de8c957-bee2-4b49-b505-9720b4d7a2b9__pspm,http://pspm.pingstart.com/api/v4/postback?from=1706&clickid=2de8c957-bee2-4b49-b505-9720b4d7a2b9__pspm,idfa_1AFA28C4-DA73-4A81-9BD5-EB45027535AC,ko
oYDC5-wGRca-QxR4Np1iNQ,newborntown,p1789_544-391,install,1.5,1.214.204.50,D8F43546-637C-429B-97A4-954C32F723C0,1558670207,2019-05-24 11:56:47,1558670267,2019-05-24 11:57:47,1558670297,9a343944-6d27-41c0-bb97-10f49d6920db__pspm,http://pspm.pingstart.com/api/v4/postback?from=1706&clickid=9a343944-6d27-41c0-bb97-10f49d6920db__pspm,idfa_D8F43546-637C-429B-97A4-954C32F723C0,ko
oYDC5-wGRca-QxR4Np1iNQ,newborntown,p1789_544-391,install,1.5,121.135.142.250,1A8C2EF2-7BBC-493A-839D-FF1AAD6F5C4D,1558669830,2019-05-24 11:50:30,1558669884,2019-05-24 11:51:24,1558669915,00bd7661-140c-4ed1-b901-6c9b0100dafa__pspm,http://pspm.pingstart.com/api/v4/postback?from=1706&clickid=00bd7661-140c-4ed1-b901-6c9b0100dafa__pspm,idfa_1A8C2EF2-7BBC-493A-839D-FF1AAD6F5C4D,ko
oYDC5-wGRca-QxR4Np1iNQ,newborntown,p1789_544-391,install,1.5,112.222.184.51,2C8B6E40-3EDB-4ECB-B42B-8C7E54C74B49,1558668634,2019-05-24 11:30:34,1558668704,2019-05-24 11:31:44,1558668735,d78e18d5-e592-48ef-bfe7-6ecb1d2b35ad__pspm,http://pspm.pingstart.com/api/v4/postback?from=1706&clickid=d78e18d5-e592-48ef-bfe7-6ecb1d2b35ad__pspm,idfa_2C8B6E40-3EDB-4ECB-B42B-8C7E54C74B49,ko
oYDC5-wGRca-QxR4Np1iNQ,newborntown,p1789_544-391,install,1.5,175.230.39.122,F402AAF1-72ED-4E5A-BECE-E2BC83542482,1558669639,2019-05-24 11:47:19,1558669710,2019-05-24 11:48:30,1558669742,33a5f176-4987-4a68-96df-cb3c0d010fdc__pspm,http://pspm.pingstart.com/api/v4/postback?from=1706&clickid=33a5f176-4987-4a68-96df-cb3c0d010fdc__pspm,idfa_F402AAF1-72ED-4E5A-BECE-E2BC83542482,ko
oYDC5-wGRca-QxR4Np1iNQ,newborntown,p1789_544-391,install,1.5,14.72.119.3,93B307E7-54CB-4D9C-87BE-D76B0DBEDCC4,1558669771,2019-05-24 11:49:31,1558669840,2019-05-24 11:50:40,1558669871,883f8e3e-e559-450a-a9f1-a84b3eb5dfb0__pspm,http://pspm.pingstart.com/api/v4/postback?from=1706&clickid=883f8e3e-e559-450a-a9f1-a84b3eb5dfb0__pspm,idfa_93B307E7-54CB-4D9C-87BE-D76B0DBEDCC4,ko
oYDC5-wGRca-QxR4Np1iNQ,newborntown,p1789_544-391,install,1.5,121.135.142.250,C7E23E5A-B8C1-4C93-9674-8741531D3819,1558669251,2019-05-24 11:40:51,1558669297,2019-05-24 11:41:37,1558669327,90e4a018-8fb8-4181-b498-46559e2d1ccc__pspm,http://pspm.pingstart.com/api/v4/postback?from=1706&clickid=90e4a018-8fb8-4181-b498-46559e2d1ccc__pspm,idfa_C7E23E5A-B8C1-4C93-9674-8741531D3819,ko
oYDC5-wGRca-QxR4Np1iNQ,newborntown,p1789_544-391,install,1.5,203.255.32.133,DA9E2F5E-E166-4791-B2BE-9EDA64CCD4EA,1558668622,2019-05-24 11:30:22,1558668667,2019-05-24 11:31:07,1558668698,32e78bd6-3c07-4698-a5ba-6bc0e6f81027__pspm,http://pspm.pingstart.com/api/v4/postback?from=1706&clickid=32e78bd6-3c07-4698-a5ba-6bc0e6f81027__pspm,idfa_DA9E2F5E-E166-4791-B2BE-9EDA64CCD4EA,ko
oYDC5-wGRca-QxR4Np1iNQ,newborntown,p1789_544-391,install,1.5,210.223.250.3,5E5C3E8B-1052-40C5-A7D7-B4261E95F8B3,1558669242,2019-05-24 11:40:42,1558669321,2019-05-24 11:42:01,1558669351,0ba51639-d626-4a97-b536-5e4c11d62c0a__pspm,http://pspm.pingstart.com/api/v4/postback?from=1706&clickid=0ba51639-d626-4a97-b536-5e4c11d62c0a__pspm,idfa_5E5C3E8B-1052-40C5-A7D7-B4261E95F8B3,ko
oYDC5-wGRca-QxR4Np1iNQ,newborntown,p1789_544-391,install,1.5,220.71.29.247,F37C11C6-9E3A-4B98-B875-3ADB7081BE9B,1558669008,2019-05-24 11:36:48,1558669061,2019-05-24 11:37:41,1558669092,92284955-e710-4dfc-b08e-a5ab9e598235__pspm,http://pspm.pingstart.com/api/v4/postback?from=1706&clickid=92284955-e710-4dfc-b08e-a5ab9e598235__pspm,idfa_F37C11C6-9E3A-4B98-B875-3ADB7081BE9B,ko
oYDC5-wGRca-QxR4Np1iNQ,newborntown,p1789_544-391,install,1.5,220.89.135.7,ED9C7A1F-A15E-47D8-82CB-4002C16A8409,1558668612,2019-05-24 11:30:12,1558668667,2019-05-24 11:31:07,1558668698,f2dc0d43-c3fd-4fed-8936-c3468bb947c5__pspm,http://pspm.pingstart.com/api/v4/postback?from=1706&clickid=f2dc0d43-c3fd-4fed-8936-c3468bb947c5__pspm,idfa_ED9C7A1F-A15E-47D8-82CB-4002C16A8409,ko
oYDC5-wGRca-QxR4Np1iNQ,newborntown,p1789_544-391,install,1.5,112.220.86.122,D9CC916D-A347-4439-B2D2-15552E1C4366,1558669765,2019-05-24 11:49:25,1558669845,2019-05-24 11:50:45,1558669875,67fcd6c9-2349-4035-ba2e-ee1dfe6254b3__pspm,http://pspm.pingstart.com/api/v4/postback?from=1706&clickid=67fcd6c9-2349-4035-ba2e-ee1dfe6254b3__pspm,idfa_D9CC916D-A347-4439-B2D2-15552E1C4366,ko
oYDC5-wGRca-QxR4Np1iNQ,newborntown,p1789_544-391,install,1.5,61.81.115.75,313FB0A1-1190-4110-90EA-E63B993F5053,1558670583,2019-05-24 12:03:03,1558670649,2019-05-24 12:04:09,1558670680,5b65c5fa-b443-484c-9a4e-e680c24291b6__pspm,http://pspm.pingstart.com/api/v4/postback?from=1706&clickid=5b65c5fa-b443-484c-9a4e-e680c24291b6__pspm,idfa_313FB0A1-1190-4110-90EA-E63B993F5053,ko
oYDC5-wGRca-QxR4Np1iNQ,newborntown,p1789_544-391,install,1.5,175.201.12.200,9847158C-F332-4A93-B849-8C2F6CE1B596,1558669407,2019-05-24 11:43:27,1558669465,2019-05-24 11:44:25,1558669496,35c1864f-0771-44e6-8e31-66c74e4436b8__pspm,http://pspm.pingstart.com/api/v4/postback?from=1706&clickid=35c1864f-0771-44e6-8e31-66c74e4436b8__pspm,idfa_9847158C-F332-4A93-B849-8C2F6CE1B596,ko
oYDC5-wGRca-QxR4Np1iNQ,newborntown,p1789_544-391,install,1.5,220.116.230.50,4E5714B9-C92A-42F9-839F-BD43B64915ED,1558670678,2019-05-24 12:04:38,1558670741,2019-05-24 12:05:41,1558670772,650e174d-58d1-4861-b0ef-3fcfaca4d57e__pspm,http://pspm.pingstart.com/api/v4/postback?from=1706&clickid=650e174d-58d1-4861-b0ef-3fcfaca4d57e__pspm,idfa_4E5714B9-C92A-42F9-839F-BD43B64915ED,ko
oYDC5-wGRca-QxR4Np1iNQ,newborntown,p1789_544-391,install,1.5,112.175.232.147,92CC1E35-D59C-4841-A0EB-4F39FCDE0AE7,1558668619,2019-05-24 11:30:19,1558668672,2019-05-24 11:31:12,1558668704,48bf78d3-91cd-450d-94f3-fdee88bb4469__pspm,http://pspm.pingstart.com/api/v4/postback?from=1706&clickid=48bf78d3-91cd-450d-94f3-fdee88bb4469__pspm,idfa_92CC1E35-D59C-4841-A0EB-4F39FCDE0AE7,ko
oYDC5-wGRca-QxR4Np1iNQ,newborntown,p1789_544-391,install,1.5,118.42.115.142,93A1EEC4-0DB9-445E-978A-E18DBEAE6C9D,1558670501,2019-05-24 12:01:41,1558670555,2019-05-24 12:02:35,1558670585,2e2b21b6-a8f7-452a-b77a-9c0be8e19df1__pspm,http://pspm.pingstart.com/api/v4/postback?from=1706&clickid=2e2b21b6-a8f7-452a-b77a-9c0be8e19df1__pspm,idfa_93A1EEC4-0DB9-445E-978A-E18DBEAE6C9D,ko
oYDC5-wGRca-QxR4Np1iNQ,newborntown,p1789_544-391,install,1.5,211.43.60.60,E737D2E5-2993-4888-AA1F-027855981836,1558602952,2019-05-23 17:15:52,1558603005,2019-05-23 17:16:45,1558603036,9c3288d7-2a00-4812-81f1-461e6cf33d63__pspm,http://pspm.pingstart.com/api/v4/postback?from=1706&clickid=9c3288d7-2a00-4812-81f1-461e6cf33d63__pspm,idfa_E737D2E5-2993-4888-AA1F-027855981836,ko
oYDC5-wGRca-QxR4Np1iNQ,newborntown,p1789_544-391,install,1.5,14.85.88.4,7F852D01-8CBD-42C6-A26F-F5D2C39AB2F4,1558669719,2019-05-24 11:48:39,1558669801,2019-05-24 11:50:01,1558669831,327cb38d-8b85-4ea9-a8e8-3ad5889aaa72__pspm,http://pspm.pingstart.com/api/v4/postback?from=1706&clickid=327cb38d-8b85-4ea9-a8e8-3ad5889aaa72__pspm,idfa_7F852D01-8CBD-42C6-A26F-F5D2C39AB2F4,ko
oYDC5-wGRca-QxR4Np1iNQ,newborntown,p1789_544-391,install,1.5,220.116.230.50,231EC4E8-1D9D-4E69-B1C2-72E277AAFE32,1558669688,2019-05-24 11:48:08,1558669744,2019-05-24 11:49:04,1558669776,d24d4304-5a3f-43ac-a281-b24c3d1337aa__pspm,http://pspm.pingstart.com/api/v4/postback?from=1706&clickid=d24d4304-5a3f-43ac-a281-b24c3d1337aa__pspm,idfa_231EC4E8-1D9D-4E69-B1C2-72E277AAFE32,ko
oYDC5-wGRca-QxR4Np1iNQ,newborntown,p1789_544-391,install,1.5,121.137.134.40,01BB45B8-8EFF-4F56-AA7D-A85E3D188461,1558670298,2019-05-24 11:58:18,1558670358,2019-05-24 11:59:18,1558670389,efa38e9b-9737-46bc-bf10-70bb7aff0c47__pspm,http://pspm.pingstart.com/api/v4/postback?from=1706&clickid=efa38e9b-9737-46bc-bf10-70bb7aff0c47__pspm,idfa_01BB45B8-8EFF-4F56-AA7D-A85E3D188461,ko
oYDC5-wGRca-QxR4Np1iNQ,newborntown,p1789_544-391,install,1.5,119.199.178.218,EB74F670-A145-4E1C-85C7-3B95ED59D282,1558670138,2019-05-24 11:55:38,1558670211,2019-05-24 11:56:51,1558670243,3fb4820f-46cc-41a9-a779-c152b7a2552d__pspm,http://pspm.pingstart.com/api/v4/postback?from=1706&clickid=3fb4820f-46cc-41a9-a779-c152b7a2552d__pspm,idfa_EB74F670-A145-4E1C-85C7-3B95ED59D282,ko
oYDC5-wGRca-QxR4Np1iNQ,newborntown,p1789_544-391,install,1.5,211.38.74.103,D820FAD9-5AE9-4A33-92A7-DABF7D525A69,1558669709,2019-05-24 11:48:29,1558669768,2019-05-24 11:49:28,1558669799,f743b40c-86f2-45f3-852b-55c9397f05ea__pspm,http://pspm.pingstart.com/api/v4/postback?from=1706&clickid=f743b40c-86f2-45f3-852b-55c9397f05ea__pspm,idfa_D820FAD9-5AE9-4A33-92A7-DABF7D525A69,ko
oYDC5-wGRca-QxR4Np1iNQ,newborntown,p1789_544-391,install,1.5,121.168.191.190,0E3D438A-BCD5-41F3-8B32-BFCED4B33FE7,1558669092,2019-05-24 11:38:12,1558669141,2019-05-24 11:39:01,1558669171,07ade61e-7f20-4143-a4e4-3426b24d0d7f__pspm,http://pspm.pingstart.com/api/v4/postback?from=1706&clickid=07ade61e-7f20-4143-a4e4-3426b24d0d7f__pspm,idfa_0E3D438A-BCD5-41F3-8B32-BFCED4B33FE7,ko
oYDC5-wGRca-QxR4Np1iNQ,newborntown,p1789_544-391,install,1.5,211.221.155.6,C4EBA574-E4BC-4996-9ECB-0E12FF2677B4,1558669882,2019-05-24 11:51:22,1558669951,2019-05-24 11:52:31,1558669982,ab0592ec-f50a-41ab-94e6-2c9c4486c885__pspm,http://pspm.pingstart.com/api/v4/postback?from=1706&clickid=ab0592ec-f50a-41ab-94e6-2c9c4486c885__pspm,idfa_C4EBA574-E4BC-4996-9ECB-0E12FF2677B4,ko
oYDC5-wGRca-QxR4Np1iNQ,newborntown,p1789_544-391,install,1.5,175.236.156.204,7EF1E6FA-86EE-408C-8E52-6752E61EFF4C,1558669398,2019-05-24 11:43:18,1558669450,2019-05-24 11:44:10,1558669482,0aa37318-ea14-48f2-97a9-afb80936a242__pspm,http://pspm.pingstart.com/api/v4/postback?from=1706&clickid=0aa37318-ea14-48f2-97a9-afb80936a242__pspm,idfa_7EF1E6FA-86EE-408C-8E52-6752E61EFF4C,ko
oYDC5-wGRca-QxR4Np1iNQ,newborntown,p1789_544-391,install,1.5,114.30.165.101,324B3CCA-EF59-4202-98B9-C724F6298122,1558670598,2019-05-24 12:03:18,1558670650,2019-05-24 12:04:10,1558670680,3df6631f-cfd5-4216-95ef-14b578c4fd51__pspm,http://pspm.pingstart.com/api/v4/postback?from=1706&clickid=3df6631f-cfd5-4216-95ef-14b578c4fd51__pspm,idfa_324B3CCA-EF59-4202-98B9-C724F6298122,ko
oYDC5-wGRca-QxR4Np1iNQ,newborntown,p1789_544-391,install,1.5,118.62.9.2,9AF343DE-00A4-4D02-9312-47D5211AC2B1,1558668982,2019-05-24 11:36:22,1558669034,2019-05-24 11:37:14,1558669064,166b90ca-2585-450a-842a-e1d73fa47a40__pspm,http://pspm.pingstart.com/api/v4/postback?from=1706&clickid=166b90ca-2585-450a-842a-e1d73fa47a40__pspm,idfa_9AF343DE-00A4-4D02-9312-47D5211AC2B1,ko
oYDC5-wGRca-QxR4Np1iNQ,newborntown,p1789_544-391,install,1.5,222.108.143.193,C706736F-D6BA-4446-A29A-EF4F42B0E4D3,1558670618,2019-05-24 12:03:38,1558670677,2019-05-24 12:04:37,1558670708,4a2abbec-f99d-4352-a0f2-506d30251e47__pspm,http://pspm.pingstart.com/api/v4/postback?from=1706&clickid=4a2abbec-f99d-4352-a0f2-506d30251e47__pspm,idfa_C706736F-D6BA-4446-A29A-EF4F42B0E4D3,ko
oYDC5-wGRca-QxR4Np1iNQ,newborntown,p1789_544-391,install,1.5,121.131.98.250,E25417CB-12EE-4CD8-A2B1-81433F6527FE,1558670212,2019-05-24 11:56:52,1558670276,2019-05-24 11:57:56,1558670306,b98729b8-b182-437e-8e36-847dda9276ef__pspm,http://pspm.pingstart.com/api/v4/postback?from=1706&clickid=b98729b8-b182-437e-8e36-847dda9276ef__pspm,idfa_E25417CB-12EE-4CD8-A2B1-81433F6527FE,ko
oYDC5-wGRca-QxR4Np1iNQ,newborntown,p1789_544-391,install,1.5,112.220.210.10,C79D8E4A-3A27-43DA-A9F6-950A384E14F1,1558669302,2019-05-24 11:41:42,1558669386,2019-05-24 11:43:06,1558669418,1ad967b4-5ded-4830-8978-eb0e81869499__pspm,http://pspm.pingstart.com/api/v4/postback?from=1706&clickid=1ad967b4-5ded-4830-8978-eb0e81869499__pspm,idfa_C79D8E4A-3A27-43DA-A9F6-950A384E14F1,ko
oYDC5-wGRca-QxR4Np1iNQ,newborntown,p1789_544-391,install,1.5,220.89.135.7,C6AF87BB-55EE-4853-A6A0-99B44A7B8D70,1558602950,2019-05-23 17:15:50,1558603009,2019-05-23 17:16:49,1558603040,19e6fbd3-2cf1-4b17-b83e-6f4a966ff35a__pspm,http://pspm.pingstart.com/api/v4/postback?from=1706&clickid=19e6fbd3-2cf1-4b17-b83e-6f4a966ff35a__pspm,idfa_C6AF87BB-55EE-4853-A6A0-99B44A7B8D70,ko
oYDC5-wGRca-QxR4Np1iNQ,newborntown,p1789_544-391,install,1.5,14.71.124.25,14493B77-AB24-4671-BB7B-BCF5A1056A49,1558670604,2019-05-24 12:03:24,1558670654,2019-05-24 12:04:14,1558670685,5046f5e2-100b-464e-9b38-6b2a40666ad3__pspm,http://pspm.pingstart.com/api/v4/postback?from=1706&clickid=5046f5e2-100b-464e-9b38-6b2a40666ad3__pspm,idfa_14493B77-AB24-4671-BB7B-BCF5A1056A49,ko
oYDC5-wGRca-QxR4Np1iNQ,newborntown,p1789_544-391,install,1.5,220.116.230.50,3CB3A350-590E-44DB-8197-CAEB9EB36DFD,1558670434,2019-05-24 12:00:34,1558670503,2019-05-24 12:01:43,1558670534,121432e1-8e20-4d5c-b2e1-712ac87e45d0__pspm,http://pspm.pingstart.com/api/v4/postback?from=1706&clickid=121432e1-8e20-4d5c-b2e1-712ac87e45d0__pspm,idfa_3CB3A350-590E-44DB-8197-CAEB9EB36DFD,ko
oYDC5-wGRca-QxR4Np1iNQ,newborntown,p1789_544-391,install,1.5,183.98.233.92,454EE400-4DD3-46F8-816A-B94AF64568A3,1558670200,2019-05-24 11:56:40,1558670261,2019-05-24 11:57:41,1558670292,4d81a1eb-838a-4d51-8ace-6d7ef7650cec__pspm,http://pspm.pingstart.com/api/v4/postback?from=1706&clickid=4d81a1eb-838a-4d51-8ace-6d7ef7650cec__pspm,idfa_454EE400-4DD3-46F8-816A-B94AF64568A3,ko
oYDC5-wGRca-QxR4Np1iNQ,newborntown,p1789_544-391,install,1.5,183.112.115.66,9D9440F5-1192-4824-84CB-A9BFD061CB29,1558668997,2019-05-24 11:36:37,1558669056,2019-05-24 11:37:36,1558669087,52adf4d0-e986-4cec-9dc9-cb9907d5c7f3__pspm,http://pspm.pingstart.com/api/v4/postback?from=1706&clickid=52adf4d0-e986-4cec-9dc9-cb9907d5c7f3__pspm,idfa_9D9440F5-1192-4824-84CB-A9BFD061CB29,ko
oYDC5-wGRca-QxR4Np1iNQ,newborntown,p1789_544-391,install,1.5,14.72.119.3,5AE4E6B5-D1B2-4B76-94D6-4B4FD7AEDE87,1558670189,2019-05-24 11:56:29,1558670256,2019-05-24 11:57:36,1558670287,05747ecc-7724-4abc-bb2a-23b80bdf6559__pspm,http://pspm.pingstart.com/api/v4/postback?from=1706&clickid=05747ecc-7724-4abc-bb2a-23b80bdf6559__pspm,idfa_5AE4E6B5-D1B2-4B76-94D6-4B4FD7AEDE87,ko
oYDC5-wGRca-QxR4Np1iNQ,newborntown,p1789_544-391,install,1.5,121.135.142.250,F87C9F2F-4EB7-4B68-8659-D0E46C3693A0,1558670069,2019-05-24 11:54:29,1558670146,2019-05-24 11:55:46,1558670177,e39ab131-67f1-4d8f-9f1d-aceb563fe91e__pspm,http://pspm.pingstart.com/api/v4/postback?from=1706&clickid=e39ab131-67f1-4d8f-9f1d-aceb563fe91e__pspm,idfa_F87C9F2F-4EB7-4B68-8659-D0E46C3693A0,ko
oYDC5-wGRca-QxR4Np1iNQ,newborntown,p1789_544-391,install,1.5,59.15.185.17,E615D86D-D894-46A6-99CB-5469F32CCC75,1558669783,2019-05-24 11:49:43,1558669851,2019-05-24 11:50:51,1558669882,4564683a-49b3-45d1-a2dc-f06405a7bc01__pspm,http://pspm.pingstart.com/api/v4/postback?from=1706&clickid=4564683a-49b3-45d1-a2dc-f06405a7bc01__pspm,idfa_E615D86D-D894-46A6-99CB-5469F32CCC75,ko
oYDC5-wGRca-QxR4Np1iNQ,newborntown,p1789_544-391,install,1.5,112.216.55.178,94A67E95-215E-4952-A4CA-BDFEB5E48F46,1558669385,2019-05-24 11:43:05,1558669459,2019-05-24 11:44:19,1558669490,fad54158-540b-4090-9a74-4ced302562ec__pspm,http://pspm.pingstart.com/api/v4/postback?from=1706&clickid=fad54158-540b-4090-9a74-4ced302562ec__pspm,idfa_94A67E95-215E-4952-A4CA-BDFEB5E48F46,ko
