cid,partner_id,channel_id,action_id,cpi,ip,idfa,click time,click datetime,install time,install datetime,postback time,click id,postback url,unique user id
QYSI17orTIGv4lpySsbxQQ,newborntown,p1599_1018_110903_5_7_741-10502741,Install,1.7,125.141.67.74,5A876620-92C5-4A6B-8D4A-85F1F2D26837,1556767895,2019-05-02 11:31:35,1556767938,2019-05-02 11:32:18,1556767968,c28ef292-d7a0-44ba-a871-5ef13cc0a248__pspm,http://pspm.pingstart.com/api/v4/postback?from=1706&clickid=c28ef292-d7a0-44ba-a871-5ef13cc0a248__pspm,idfa_5A876620-92C5-4A6B-8D4A-85F1F2D26837,ko-KR
QYSI17orTIGv4lpySsbxQQ,newborntown,p1599_1018_110903_5_7_741-10502741,Install,1.7,220.123.170.42,C47D3478-C64A-45A6-8096-6E02C36F3C89,1556767127,2019-05-02 11:18:47,1556767174,2019-05-02 11:19:34,1556767205,3727ffa1-8ff0-4f39-8ad5-b3ac97ae6bb6__pspm,http://pspm.pingstart.com/api/v4/postback?from=1706&clickid=3727ffa1-8ff0-4f39-8ad5-b3ac97ae6bb6__pspm,idfa_C47D3478-C64A-45A6-8096-6E02C36F3C89,ko-KR
QYSI17orTIGv4lpySsbxQQ,newborntown,p1599_1018_110903_5_7_741-10502741,Install,1.7,59.24.91.168,ADDA96AB-28F5-4D2D-A7B0-D5494E1FEB58,1556767283,2019-05-02 11:21:23,1556767367,2019-05-02 11:22:47,1556767398,517c6884-f974-491e-9ea7-5260d543b2e4__pspm,http://pspm.pingstart.com/api/v4/postback?from=1706&clickid=517c6884-f974-491e-9ea7-5260d543b2e4__pspm,idfa_ADDA96AB-28F5-4D2D-A7B0-D5494E1FEB58,ko-KR
QYSI17orTIGv4lpySsbxQQ,newborntown,p1599_1018_110903_5_7_741-10502741,Install,1.7,182.208.90.83,819C3FFC-65B2-4DEF-BB17-623952801121,1556766566,2019-05-02 11:09:26,1556766642,2019-05-02 11:10:42,1556766672,98ddebcc-c11f-4972-a4c5-def0da06cc93__pspm,http://pspm.pingstart.com/api/v4/postback?from=1706&clickid=98ddebcc-c11f-4972-a4c5-def0da06cc93__pspm,idfa_819C3FFC-65B2-4DEF-BB17-623952801121,ko-KR
QYSI17orTIGv4lpySsbxQQ,newborntown,p1599_1018_110903_5_7_741-10502741,Install,1.7,121.135.142.250,7919525B-3327-4AF3-AA3C-64B248DF0E4D,1556767516,2019-05-02 11:25:16,1556767595,2019-05-02 11:26:35,1556767626,a4eb442b-6097-4c4f-8eb5-5a4150736992__pspm,http://pspm.pingstart.com/api/v4/postback?from=1706&clickid=a4eb442b-6097-4c4f-8eb5-5a4150736992__pspm,idfa_7919525B-3327-4AF3-AA3C-64B248DF0E4D,ko-KR
QYSI17orTIGv4lpySsbxQQ,newborntown,p1599_1018_110903_5_7_741-10502741,Install,1.7,211.250.42.74,776377D4-B49E-40DD-8123-74E0E993CEF8,1556767326,2019-05-02 11:22:06,1556767404,2019-05-02 11:23:24,1556767435,174b51f7-6a03-4eeb-aaf4-f6a0001e2729__pspm,http://pspm.pingstart.com/api/v4/postback?from=1706&clickid=174b51f7-6a03-4eeb-aaf4-f6a0001e2729__pspm,idfa_776377D4-B49E-40DD-8123-74E0E993CEF8,ko-KR
QYSI17orTIGv4lpySsbxQQ,newborntown,p1599_1018_110903_5_7_741-10502741,Install,1.7,61.81.115.75,21AFDB44-2A43-4040-AE3A-DEDC24DD870D,1556766032,2019-05-02 11:00:32,1556766111,2019-05-02 11:01:51,1556766141,cea1b313-c11f-4d56-a891-958b09944993__pspm,http://pspm.pingstart.com/api/v4/postback?from=1706&clickid=cea1b313-c11f-4d56-a891-958b09944993__pspm,idfa_21AFDB44-2A43-4040-AE3A-DEDC24DD870D,ko-KR
QYSI17orTIGv4lpySsbxQQ,newborntown,p1599_1018_110903_5_7_741-10502741,Install,1.7,220.76.138.57,00A9A87F-09B8-44A4-95F8-1756B0A55103,1556767288,2019-05-02 11:21:28,1556767351,2019-05-02 11:22:31,1556767381,79673137-46af-4698-a144-be6457f1d741__pspm,http://pspm.pingstart.com/api/v4/postback?from=1706&clickid=79673137-46af-4698-a144-be6457f1d741__pspm,idfa_00A9A87F-09B8-44A4-95F8-1756B0A55103,ko-KR
QYSI17orTIGv4lpySsbxQQ,newborntown,p1599_1018_110903_5_7_741-10502741,Install,1.7,182.208.90.83,50DE59C5-6482-4F65-93C7-9A7307D31FDC,1556766262,2019-05-02 11:04:22,1556766325,2019-05-02 11:05:25,1556766355,aa9205e6-b911-42d1-b1e6-30d0b61a8e21__pspm,http://pspm.pingstart.com/api/v4/postback?from=1706&clickid=aa9205e6-b911-42d1-b1e6-30d0b61a8e21__pspm,idfa_50DE59C5-6482-4F65-93C7-9A7307D31FDC,ko-KR
QYSI17orTIGv4lpySsbxQQ,newborntown,p1599_1018_110903_5_7_741-10502741,Install,1.7,203.228.17.2,54C64A36-CD63-4322-9012-FB0DBEF43887,1556767425,2019-05-02 11:23:45,1556767498,2019-05-02 11:24:58,1556767528,bd3a4b25-1cad-4783-a1b2-977a09084868__pspm,http://pspm.pingstart.com/api/v4/postback?from=1706&clickid=bd3a4b25-1cad-4783-a1b2-977a09084868__pspm,idfa_54C64A36-CD63-4322-9012-FB0DBEF43887,ko-KR
QYSI17orTIGv4lpySsbxQQ,newborntown,p1599_1018_110903_5_7_741-10502741,Install,1.7,112.184.217.126,6CA2C44B-3403-4B36-A034-8F2BE5588BD9,1556766878,2019-05-02 11:14:38,1556766954,2019-05-02 11:15:54,1556766984,3fbe576a-0909-45c6-b23b-f5dea7ed908e__pspm,http://pspm.pingstart.com/api/v4/postback?from=1706&clickid=3fbe576a-0909-45c6-b23b-f5dea7ed908e__pspm,idfa_6CA2C44B-3403-4B36-A034-8F2BE5588BD9,ko-KR
QYSI17orTIGv4lpySsbxQQ,newborntown,p1599_1018_110903_5_7_741-10502741,Install,1.7,222.97.214.195,3826A955-086C-43EB-A17C-BDE6A398FA84,1556766664,2019-05-02 11:11:04,1556766739,2019-05-02 11:12:19,1556766769,5d229e1d-6bcc-4ae2-ab85-4cd1950eff94__pspm,http://pspm.pingstart.com/api/v4/postback?from=1706&clickid=5d229e1d-6bcc-4ae2-ab85-4cd1950eff94__pspm,idfa_3826A955-086C-43EB-A17C-BDE6A398FA84,ko-KR
QYSI17orTIGv4lpySsbxQQ,newborntown,p1599_1018_110903_5_7_741-10502741,Install,1.7,114.30.165.112,C487E576-9F9A-4D40-8482-04245FFF7556,1556767529,2019-05-02 11:25:29,1556767607,2019-05-02 11:26:47,1556767637,cbbcefb5-b4f4-449a-abfe-799354654d64__pspm,http://pspm.pingstart.com/api/v4/postback?from=1706&clickid=cbbcefb5-b4f4-449a-abfe-799354654d64__pspm,idfa_C487E576-9F9A-4D40-8482-04245FFF7556,ko-KR
QYSI17orTIGv4lpySsbxQQ,newborntown,p1599_1018_110903_5_7_741-10502741,Install,1.7,210.113.30.36,CE7C9D4B-C3EF-43AA-8CA4-328E0780227A,1556767885,2019-05-02 11:31:25,1556767956,2019-05-02 11:32:36,1556767986,515da7a3-dcc8-4f97-b53e-24621cc309be__pspm,http://pspm.pingstart.com/api/v4/postback?from=1706&clickid=515da7a3-dcc8-4f97-b53e-24621cc309be__pspm,idfa_CE7C9D4B-C3EF-43AA-8CA4-328E0780227A,ko-KR
QYSI17orTIGv4lpySsbxQQ,newborntown,p1599_1018_110903_5_7_741-10502741,Install,1.7,211.181.72.238,A9C6F94F-BCD3-45D5-AB05-A87EDFBA1C9B,1556766332,2019-05-02 11:05:32,1556766438,2019-05-02 11:07:18,1556766468,86fb5352-0c39-4fc5-bfa8-689cd214f895__pspm,http://pspm.pingstart.com/api/v4/postback?from=1706&clickid=86fb5352-0c39-4fc5-bfa8-689cd214f895__pspm,idfa_A9C6F94F-BCD3-45D5-AB05-A87EDFBA1C9B,ko-KR
QYSI17orTIGv4lpySsbxQQ,newborntown,p1599_1018_110903_5_7_741-10502741,Install,1.7,14.85.41.26,BDE1FC1F-99A6-4125-AC35-572E19514591,1556767705,2019-05-02 11:28:25,1556767774,2019-05-02 11:29:34,1556767804,9f0dc01a-c437-4552-a401-84562c0c6cef__pspm,http://pspm.pingstart.com/api/v4/postback?from=1706&clickid=9f0dc01a-c437-4552-a401-84562c0c6cef__pspm,idfa_BDE1FC1F-99A6-4125-AC35-572E19514591,ko-KR
QYSI17orTIGv4lpySsbxQQ,newborntown,p1599_1018_110903_5_7_741-10502741,Install,1.7,220.116.230.50,A7107333-AEF0-4C37-921D-0E56C77E1737,1556766948,2019-05-02 11:15:48,1556767015,2019-05-02 11:16:55,1556767046,78e09e5b-38b2-4e59-8174-9d219ce07d7f__pspm,http://pspm.pingstart.com/api/v4/postback?from=1706&clickid=78e09e5b-38b2-4e59-8174-9d219ce07d7f__pspm,idfa_A7107333-AEF0-4C37-921D-0E56C77E1737,ko-KR
QYSI17orTIGv4lpySsbxQQ,newborntown,p1599_1018_110903_5_7_741-10502741,Install,1.7,118.41.9.209,6628D9A6-7CBA-4C8F-8F9D-7B98456A6CFD,1556767675,2019-05-02 11:27:55,1556767734,2019-05-02 11:28:54,1556767765,c463b82f-e56a-403c-bbbc-7b0f71cc79d7__pspm,http://pspm.pingstart.com/api/v4/postback?from=1706&clickid=c463b82f-e56a-403c-bbbc-7b0f71cc79d7__pspm,idfa_6628D9A6-7CBA-4C8F-8F9D-7B98456A6CFD,ko-KR
QYSI17orTIGv4lpySsbxQQ,newborntown,p1599_1018_110903_5_7_741-10502741,Install,1.7,220.76.203.140,F56D64EC-F821-46D5-B1C6-9AE4AA7B3753,1556766040,2019-05-02 11:00:40,1556766105,2019-05-02 11:01:45,1556766136,f2f69f54-ae38-4e55-a0e1-0558fee44150__pspm,http://pspm.pingstart.com/api/v4/postback?from=1706&clickid=f2f69f54-ae38-4e55-a0e1-0558fee44150__pspm,idfa_F56D64EC-F821-46D5-B1C6-9AE4AA7B3753,ko-KR
QYSI17orTIGv4lpySsbxQQ,newborntown,p1599_1018_110903_5_7_741-10502741,Install,1.7,222.119.130.144,D817B7A0-4F1F-433A-BBA2-9BC81A126BC2,1556767593,2019-05-02 11:26:33,1556767653,2019-05-02 11:27:33,1556767684,0c15c54b-f77f-43e0-b557-ac66f5814ac4__pspm,http://pspm.pingstart.com/api/v4/postback?from=1706&clickid=0c15c54b-f77f-43e0-b557-ac66f5814ac4__pspm,idfa_D817B7A0-4F1F-433A-BBA2-9BC81A126BC2,ko-KR
QYSI17orTIGv4lpySsbxQQ,newborntown,p1599_1018_110903_5_7_741-10502741,Install,1.7,220.123.133.113,112C2A9B-50AD-4BDD-ADCF-EDD3CAF9E552,1556766819,2019-05-02 11:13:39,1556766888,2019-05-02 11:14:48,1556766919,2c71e6c0-8b0d-40f6-bd8c-372774acb04c__pspm,http://pspm.pingstart.com/api/v4/postback?from=1706&clickid=2c71e6c0-8b0d-40f6-bd8c-372774acb04c__pspm,idfa_112C2A9B-50AD-4BDD-ADCF-EDD3CAF9E552,ko-KR
QYSI17orTIGv4lpySsbxQQ,newborntown,p1599_1018_110903_5_7_741-10502741,Install,1.7,221.166.217.25,C535D414-E1C0-45D5-B7CB-789BBD55B085,1556767880,2019-05-02 11:31:20,1556767947,2019-05-02 11:32:27,1556767977,e622282e-97d6-40a9-806c-dbc6c58a7a47__pspm,http://pspm.pingstart.com/api/v4/postback?from=1706&clickid=e622282e-97d6-40a9-806c-dbc6c58a7a47__pspm,idfa_C535D414-E1C0-45D5-B7CB-789BBD55B085,ko-KR
QYSI17orTIGv4lpySsbxQQ,newborntown,p1599_1018_110903_5_7_741-10502741,Install,1.7,220.123.133.113,6B2637FE-D0A0-460B-B044-64EFE1FCE38A,1556766571,2019-05-02 11:09:31,1556766640,2019-05-02 11:10:40,1556766671,2ff289ac-fb3d-4e70-8842-1ae26e6b57f9__pspm,http://pspm.pingstart.com/api/v4/postback?from=1706&clickid=2ff289ac-fb3d-4e70-8842-1ae26e6b57f9__pspm,idfa_6B2637FE-D0A0-460B-B044-64EFE1FCE38A,ko-KR
QYSI17orTIGv4lpySsbxQQ,newborntown,p1599_1018_110903_5_7_741-10502741,Install,1.7,59.5.55.190,42C3B2DE-9455-4F6A-98EA-08F5683266C0,1556766393,2019-05-02 11:06:33,1556766459,2019-05-02 11:07:39,1556766489,9646d0f6-d9fb-4710-8fa6-983f04c5aed0__pspm,http://pspm.pingstart.com/api/v4/postback?from=1706&clickid=9646d0f6-d9fb-4710-8fa6-983f04c5aed0__pspm,idfa_42C3B2DE-9455-4F6A-98EA-08F5683266C0,ko-KR
QYSI17orTIGv4lpySsbxQQ,newborntown,p1599_1018_110903_5_7_741-10502741,Install,1.7,61.73.222.69,75998469-B809-48A1-8BC6-9D079979F440,1556767391,2019-05-02 11:23:11,1556767458,2019-05-02 11:24:18,1556767488,6018726b-ad38-414a-a124-72adc75e335c__pspm,http://pspm.pingstart.com/api/v4/postback?from=1706&clickid=6018726b-ad38-414a-a124-72adc75e335c__pspm,idfa_75998469-B809-48A1-8BC6-9D079979F440,ko-KR
QYSI17orTIGv4lpySsbxQQ,newborntown,p1599_1018_110903_5_7_741-10502741,Install,1.7,220.83.54.195,AE39DB3D-2F4F-4540-84C0-9D45DCBC25E1,1556767940,2019-05-02 11:32:20,1556768010,2019-05-02 11:33:30,1556768040,88877321-b155-41f1-8fc8-7af41876a635__pspm,http://pspm.pingstart.com/api/v4/postback?from=1706&clickid=88877321-b155-41f1-8fc8-7af41876a635__pspm,idfa_AE39DB3D-2F4F-4540-84C0-9D45DCBC25E1,ko-KR
QYSI17orTIGv4lpySsbxQQ,newborntown,p1599_1018_110903_5_7_741-10502741,Install,1.7,59.21.169.165,A356C169-3751-4AA3-9F82-0D16B8F263E9,1556766019,2019-05-02 11:00:19,1556766086,2019-05-02 11:01:26,1556766116,99e3d8f8-04df-46d1-8007-a8c64b077788__pspm,http://pspm.pingstart.com/api/v4/postback?from=1706&clickid=99e3d8f8-04df-46d1-8007-a8c64b077788__pspm,idfa_A356C169-3751-4AA3-9F82-0D16B8F263E9,ko-KR
QYSI17orTIGv4lpySsbxQQ,newborntown,p1599_1018_110903_5_7_741-10502741,Install,1.7,220.76.203.140,54AF34DE-9DD7-497E-BE58-7AD42C095D8A,1556767831,2019-05-02 11:30:31,1556767896,2019-05-02 11:31:36,1556767931,aea8346f-f897-4907-bb3e-dd0527b93229__pspm,http://pspm.pingstart.com/api/v4/postback?from=1706&clickid=aea8346f-f897-4907-bb3e-dd0527b93229__pspm,idfa_54AF34DE-9DD7-497E-BE58-7AD42C095D8A,ko-KR
QYSI17orTIGv4lpySsbxQQ,newborntown,p1599_1018_110903_5_7_741-10502741,Install,1.7,203.228.17.2,530594EA-B9F5-4A91-A55C-8F8B183492BB,1556766963,2019-05-02 11:16:03,1556767026,2019-05-02 11:17:06,1556767057,d857b0ca-9a65-47de-9d5e-fc7c270effdf__pspm,http://pspm.pingstart.com/api/v4/postback?from=1706&clickid=d857b0ca-9a65-47de-9d5e-fc7c270effdf__pspm,idfa_530594EA-B9F5-4A91-A55C-8F8B183492BB,ko-KR
QYSI17orTIGv4lpySsbxQQ,newborntown,p1599_1018_110903_5_7_741-10502741,Install,1.7,211.182.112.240,51484EF6-5E24-4DEC-88F2-9AB9B3FA9F56,1556767946,2019-05-02 11:32:26,1556768001,2019-05-02 11:33:21,1556768031,b7a3a260-daff-4d9f-9e5f-03a97acd0102__pspm,http://pspm.pingstart.com/api/v4/postback?from=1706&clickid=b7a3a260-daff-4d9f-9e5f-03a97acd0102__pspm,idfa_51484EF6-5E24-4DEC-88F2-9AB9B3FA9F56,ko-KR
QYSI17orTIGv4lpySsbxQQ,newborntown,p1599_1018_110903_5_7_741-10502741,Install,1.7,61.73.222.69,A8EDCCC6-730F-4BF3-9CAC-1847A5F43491,1556766374,2019-05-02 11:06:14,1556766440,2019-05-02 11:07:20,1556766470,01619214-680f-4120-81a9-f84b910ee368__pspm,http://pspm.pingstart.com/api/v4/postback?from=1706&clickid=01619214-680f-4120-81a9-f84b910ee368__pspm,idfa_A8EDCCC6-730F-4BF3-9CAC-1847A5F43491,ko-KR
QYSI17orTIGv4lpySsbxQQ,newborntown,p1599_1018_110903_5_7_741-10502741,Install,1.7,220.116.230.50,E0319F90-44C1-438D-96E4-B416F99470CF,1556766508,2019-05-02 11:08:28,1556766582,2019-05-02 11:09:42,1556766612,197eb59a-6359-4e7a-97df-4e0de8819b9c__pspm,http://pspm.pingstart.com/api/v4/postback?from=1706&clickid=197eb59a-6359-4e7a-97df-4e0de8819b9c__pspm,idfa_E0319F90-44C1-438D-96E4-B416F99470CF,ko-KR
QYSI17orTIGv4lpySsbxQQ,newborntown,p1599_1018_110903_5_7_741-10502741,Install,1.7,14.85.88.4,10CE8E26-C325-420D-9193-BBCD3DC836CC,1556766022,2019-05-02 11:00:22,1556766100,2019-05-02 11:01:40,1556766132,ffbefd96-45ee-489d-a385-a285244e2e47__pspm,http://pspm.pingstart.com/api/v4/postback?from=1706&clickid=ffbefd96-45ee-489d-a385-a285244e2e47__pspm,idfa_10CE8E26-C325-420D-9193-BBCD3DC836CC,ko-KR
QYSI17orTIGv4lpySsbxQQ,newborntown,p1599_1018_110903_5_7_741-10502741,Install,1.7,211.224.188.72,D3E6DF54-C121-4FA9-B010-5D43666323A7,1556766909,2019-05-02 11:15:09,1556766981,2019-05-02 11:16:21,1556767012,2dd5196f-1f1b-4521-b563-b955776dc377__pspm,http://pspm.pingstart.com/api/v4/postback?from=1706&clickid=2dd5196f-1f1b-4521-b563-b955776dc377__pspm,idfa_D3E6DF54-C121-4FA9-B010-5D43666323A7,ko-KR
QYSI17orTIGv4lpySsbxQQ,newborntown,p1599_1018_110903_5_7_741-10502741,Install,1.7,121.182.120.157,BE53194B-3115-46A6-8A9C-F8B19D6E1D0C,1556766527,2019-05-02 11:08:47,1556766585,2019-05-02 11:09:45,1556766616,7aa39d7d-8522-4a8f-a4cc-4e8b722c5d27__pspm,http://pspm.pingstart.com/api/v4/postback?from=1706&clickid=7aa39d7d-8522-4a8f-a4cc-4e8b722c5d27__pspm,idfa_BE53194B-3115-46A6-8A9C-F8B19D6E1D0C,ko-KR
QYSI17orTIGv4lpySsbxQQ,newborntown,p1599_1018_110903_5_7_741-10502741,Install,1.7,121.135.142.250,88E3740E-09D8-4E39-9148-F7C09CF44CD8,1556767739,2019-05-02 11:28:59,1556767805,2019-05-02 11:30:05,1556767835,3226f2f8-4611-48a6-b560-4ecf1be14f94__pspm,http://pspm.pingstart.com/api/v4/postback?from=1706&clickid=3226f2f8-4611-48a6-b560-4ecf1be14f94__pspm,idfa_88E3740E-09D8-4E39-9148-F7C09CF44CD8,ko-KR
QYSI17orTIGv4lpySsbxQQ,newborntown,p1599_1018_110903_5_7_741-10502741,Install,1.7,211.38.74.103,DFFCE81D-57F9-44EB-9CFE-1B0A74499029,1556766940,2019-05-02 11:15:40,1556767008,2019-05-02 11:16:48,1556767038,aa784005-80f9-440e-938c-c0e9c1839b45__pspm,http://pspm.pingstart.com/api/v4/postback?from=1706&clickid=aa784005-80f9-440e-938c-c0e9c1839b45__pspm,idfa_DFFCE81D-57F9-44EB-9CFE-1B0A74499029,ko-KR
QYSI17orTIGv4lpySsbxQQ,newborntown,p1599_1018_110903_5_7_741-10502741,Install,1.7,220.116.230.50,5D3D2D3F-1900-45FE-B2D3-D5BF47222D9D,1556767350,2019-05-02 11:22:30,1556767419,2019-05-02 11:23:39,1556767450,be2787d8-1dfc-4b97-95c2-803230c2916d__pspm,http://pspm.pingstart.com/api/v4/postback?from=1706&clickid=be2787d8-1dfc-4b97-95c2-803230c2916d__pspm,idfa_5D3D2D3F-1900-45FE-B2D3-D5BF47222D9D,ko-KR
QYSI17orTIGv4lpySsbxQQ,newborntown,p1599_1018_110903_5_7_741-10502741,Install,1.7,211.38.74.103,233ADC24-4F18-4967-BDE1-1702011CB45B,1556767597,2019-05-02 11:26:37,1556767662,2019-05-02 11:27:42,1556767693,0874b310-8419-4b60-8321-f8baac0500fe__pspm,http://pspm.pingstart.com/api/v4/postback?from=1706&clickid=0874b310-8419-4b60-8321-f8baac0500fe__pspm,idfa_233ADC24-4F18-4967-BDE1-1702011CB45B,ko-KR
QYSI17orTIGv4lpySsbxQQ,newborntown,p1599_1018_110903_5_7_741-10502741,Install,1.7,115.94.73.2,EDA518C0-9732-4B3F-AF39-36079923C4DA,1556767157,2019-05-02 11:19:17,1556767235,2019-05-02 11:20:35,1556767266,90b24e74-aec5-452e-abad-6173a6e2f272__pspm,http://pspm.pingstart.com/api/v4/postback?from=1706&clickid=90b24e74-aec5-452e-abad-6173a6e2f272__pspm,idfa_EDA518C0-9732-4B3F-AF39-36079923C4DA,ko-KR
QYSI17orTIGv4lpySsbxQQ,newborntown,p1599_1018_110903_5_7_741-10502741,Install,1.7,61.40.194.10,077F4BF1-2D07-45AA-8D35-76B9D58D8D69,1556767943,2019-05-02 11:32:23,1556768004,2019-05-02 11:33:24,1556768034,37639aaf-4c1c-4452-8393-64b2741ccad5__pspm,http://pspm.pingstart.com/api/v4/postback?from=1706&clickid=37639aaf-4c1c-4452-8393-64b2741ccad5__pspm,idfa_077F4BF1-2D07-45AA-8D35-76B9D58D8D69,ko-KR
QYSI17orTIGv4lpySsbxQQ,newborntown,p1599_1018_110903_5_7_741-10502741,Install,1.7,61.40.194.10,5C67EB79-72FB-41C7-A7CE-E897AFE159A2,1556767445,2019-05-02 11:24:05,1556767511,2019-05-02 11:25:11,1556767541,d5d3665c-afd8-4c62-ba13-cfad62fe6143__pspm,http://pspm.pingstart.com/api/v4/postback?from=1706&clickid=d5d3665c-afd8-4c62-ba13-cfad62fe6143__pspm,idfa_5C67EB79-72FB-41C7-A7CE-E897AFE159A2,ko-KR
QYSI17orTIGv4lpySsbxQQ,newborntown,p1599_1018_110903_5_7_741-10502741,Install,1.7,112.164.177.205,E776846D-8835-4801-8B08-167D57543C73,1556767160,2019-05-02 11:19:20,1556767214,2019-05-02 11:20:14,1556767244,47469416-2daa-4d61-9016-fdf02bc1f6d7__pspm,http://pspm.pingstart.com/api/v4/postback?from=1706&clickid=47469416-2daa-4d61-9016-fdf02bc1f6d7__pspm,idfa_E776846D-8835-4801-8B08-167D57543C73,ko-KR
QYSI17orTIGv4lpySsbxQQ,newborntown,p1599_1018_110903_5_7_741-10502741,Install,1.7,221.166.217.25,D2344104-AD82-4016-86F7-BB756247236E,1556767892,2019-05-02 11:31:32,1556767985,2019-05-02 11:33:05,1556768015,6210d2b5-a416-43a7-bbbc-a9ec00d80725__pspm,http://pspm.pingstart.com/api/v4/postback?from=1706&clickid=6210d2b5-a416-43a7-bbbc-a9ec00d80725__pspm,idfa_D2344104-AD82-4016-86F7-BB756247236E,ko-KR
QYSI17orTIGv4lpySsbxQQ,newborntown,p1599_1018_110903_5_7_741-10502741,Install,1.7,183.109.79.6,EC67880B-253E-4C57-8AA5-66F1E2BE0C82,1556766773,2019-05-02 11:12:53,1556766851,2019-05-02 11:14:11,1556766882,920148ac-3a7b-4088-8030-60986a2ce4d0__pspm,http://pspm.pingstart.com/api/v4/postback?from=1706&clickid=920148ac-3a7b-4088-8030-60986a2ce4d0__pspm,idfa_EC67880B-253E-4C57-8AA5-66F1E2BE0C82,ko-KR
QYSI17orTIGv4lpySsbxQQ,newborntown,p1599_1018_110903_5_7_741-10502741,Install,1.7,119.204.177.120,C8F3675F-A5A3-4D40-901E-95CC2D119E74,1556766415,2019-05-02 11:06:55,1556766504,2019-05-02 11:08:24,1556766534,101a28db-6a39-44c3-a344-27141915eb87__pspm,http://pspm.pingstart.com/api/v4/postback?from=1706&clickid=101a28db-6a39-44c3-a344-27141915eb87__pspm,idfa_C8F3675F-A5A3-4D40-901E-95CC2D119E74,ko-KR
QYSI17orTIGv4lpySsbxQQ,newborntown,p1599_1018_110903_5_7_741-10502741,Install,1.7,106.255.229.171,D5936CBF-E0D8-4160-AB3B-9C40982BC198,1556767233,2019-05-02 11:20:33,1556767304,2019-05-02 11:21:44,1556767334,c741fea9-a2c3-4db9-a656-4a28fb827d86__pspm,http://pspm.pingstart.com/api/v4/postback?from=1706&clickid=c741fea9-a2c3-4db9-a656-4a28fb827d86__pspm,idfa_D5936CBF-E0D8-4160-AB3B-9C40982BC198,ko-KR
QYSI17orTIGv4lpySsbxQQ,newborntown,p1599_1018_110903_5_7_741-10502741,Install,1.7,61.74.59.248,F8EE2578-95FA-4548-B666-7418867FE0E9,1556766560,2019-05-02 11:09:20,1556766814,2019-05-02 11:13:34,1556766844,f7cea583-8e3a-4223-aef8-e2e4d5eaab8e__pspm,http://pspm.pingstart.com/api/v4/postback?from=1706&clickid=f7cea583-8e3a-4223-aef8-e2e4d5eaab8e__pspm,idfa_F8EE2578-95FA-4548-B666-7418867FE0E9,ko-KR
QYSI17orTIGv4lpySsbxQQ,newborntown,p1599_1018_110903_5_7_741-10502741,Install,1.7,220.76.251.168,07C7E101-D1F2-4FF5-BE9B-7ECDBD6AD84C,1556765981,2019-05-02 10:59:41,1556766047,2019-05-02 11:00:47,1556766078,be287a6b-5c40-45cd-a879-1815767473e0__pspm,http://pspm.pingstart.com/api/v4/postback?from=1706&clickid=be287a6b-5c40-45cd-a879-1815767473e0__pspm,idfa_07C7E101-D1F2-4FF5-BE9B-7ECDBD6AD84C,ko-KR
QYSI17orTIGv4lpySsbxQQ,newborntown,p1599_1018_110903_5_7_741-10502741,Install,1.7,123.200.114.253,B0CD81AB-1E9D-4910-94C3-49F7A46111BF,1556766543,2019-05-02 11:09:03,1556766600,2019-05-02 11:10:00,1556766631,dc353d51-cda8-47fb-bdf8-b5e74194c337__pspm,http://pspm.pingstart.com/api/v4/postback?from=1706&clickid=dc353d51-cda8-47fb-bdf8-b5e74194c337__pspm,idfa_B0CD81AB-1E9D-4910-94C3-49F7A46111BF,ko-KR
QYSI17orTIGv4lpySsbxQQ,newborntown,p1599_1018_110903_5_7_741-10502741,Install,1.7,114.30.165.112,D4FD68F0-D772-4231-9ABB-E00EAF2FD6FB,1556767517,2019-05-02 11:25:17,1556767582,2019-05-02 11:26:22,1556767613,0e104129-1c1d-492d-807d-0bc9c71b2125__pspm,http://pspm.pingstart.com/api/v4/postback?from=1706&clickid=0e104129-1c1d-492d-807d-0bc9c71b2125__pspm,idfa_D4FD68F0-D772-4231-9ABB-E00EAF2FD6FB,ko-KR
QYSI17orTIGv4lpySsbxQQ,newborntown,p1599_1018_110903_5_7_741-10502741,Install,1.7,114.30.165.105,249D315A-CFFC-4A2F-B8B7-AD208107B78D,1556766968,2019-05-02 11:16:08,1556767056,2019-05-02 11:17:36,1556767087,d99b9556-6d00-4f83-9a3a-f07f080cad24__pspm,http://pspm.pingstart.com/api/v4/postback?from=1706&clickid=d99b9556-6d00-4f83-9a3a-f07f080cad24__pspm,idfa_249D315A-CFFC-4A2F-B8B7-AD208107B78D,ko-KR
QYSI17orTIGv4lpySsbxQQ,newborntown,p1599_1018_110903_5_7_741-10502741,Install,1.7,220.76.203.140,EA5A4CA7-8323-4E3D-A351-EF8F93B35174,1556766763,2019-05-02 11:12:43,1556766822,2019-05-02 11:13:42,1556766852,3155134e-573f-4bc6-83c0-9a40bf8fd288__pspm,http://pspm.pingstart.com/api/v4/postback?from=1706&clickid=3155134e-573f-4bc6-83c0-9a40bf8fd288__pspm,idfa_EA5A4CA7-8323-4E3D-A351-EF8F93B35174,ko-KR
QYSI17orTIGv4lpySsbxQQ,newborntown,p1599_1018_110903_5_7_741-10502741,Install,1.7,121.182.166.82,C50FAE54-93D1-4568-8D98-DB85488D6872,1556767793,2019-05-02 11:29:53,1556767866,2019-05-02 11:31:06,1556767896,64631050-0447-43ed-89f3-036c3872d191__pspm,http://pspm.pingstart.com/api/v4/postback?from=1706&clickid=64631050-0447-43ed-89f3-036c3872d191__pspm,idfa_C50FAE54-93D1-4568-8D98-DB85488D6872,ko-KR
QYSI17orTIGv4lpySsbxQQ,newborntown,p1599_1018_110903_5_7_741-10502741,Install,1.7,115.41.66.216,5CDD0AA0-CAE6-43FA-AD46-AA663C3590E4,1556767461,2019-05-02 11:24:21,1556767526,2019-05-02 11:25:26,1556767556,877b6473-52e1-42b1-90de-d08f33988d6c__pspm,http://pspm.pingstart.com/api/v4/postback?from=1706&clickid=877b6473-52e1-42b1-90de-d08f33988d6c__pspm,idfa_5CDD0AA0-CAE6-43FA-AD46-AA663C3590E4,ko-KR
QYSI17orTIGv4lpySsbxQQ,newborntown,p1599_1018_110903_5_7_741-10502741,Install,1.7,61.40.194.10,A6B366B7-31B2-44B2-86B4-4E3837ED036F,1556766498,2019-05-02 11:08:18,1556766535,2019-05-02 11:08:55,1556766565,018b5674-9e6d-4a5e-9b04-8531ac3f4736__pspm,http://pspm.pingstart.com/api/v4/postback?from=1706&clickid=018b5674-9e6d-4a5e-9b04-8531ac3f4736__pspm,idfa_A6B366B7-31B2-44B2-86B4-4E3837ED036F,ko-KR
QYSI17orTIGv4lpySsbxQQ,newborntown,p1599_1018_110903_5_7_741-10502741,Install,1.7,182.216.29.134,3E9C12DF-C93A-4099-9BAD-04034FB31974,1556767125,2019-05-02 11:18:45,1556767194,2019-05-02 11:19:54,1556767225,fb2115f6-48d5-4545-8dad-c574a7a0bdb2__pspm,http://pspm.pingstart.com/api/v4/postback?from=1706&clickid=fb2115f6-48d5-4545-8dad-c574a7a0bdb2__pspm,idfa_3E9C12DF-C93A-4099-9BAD-04034FB31974,ko-KR
QYSI17orTIGv4lpySsbxQQ,newborntown,p1599_1018_110903_5_7_741-10502741,Install,1.7,61.40.194.10,388EEB1A-5DF7-4A11-B300-F2225D7FD95B,1556766414,2019-05-02 11:06:54,1556766500,2019-05-02 11:08:20,1556766540,7e2fb12e-c256-4507-aa84-7955d40c93ba__pspm,http://pspm.pingstart.com/api/v4/postback?from=1706&clickid=7e2fb12e-c256-4507-aa84-7955d40c93ba__pspm,idfa_388EEB1A-5DF7-4A11-B300-F2225D7FD95B,ko-KR
QYSI17orTIGv4lpySsbxQQ,newborntown,p1599_1018_110903_5_7_741-10502741,Install,1.7,220.76.203.140,EBAB1882-2752-4B24-AB9A-5DA5677A72E1,1556766080,2019-05-02 11:01:20,1556766139,2019-05-02 11:02:19,1556766169,910226f0-65f2-4164-b21a-24778520f538__pspm,http://pspm.pingstart.com/api/v4/postback?from=1706&clickid=910226f0-65f2-4164-b21a-24778520f538__pspm,idfa_EBAB1882-2752-4B24-AB9A-5DA5677A72E1,ko-KR
QYSI17orTIGv4lpySsbxQQ,newborntown,p1599_1018_110903_5_7_741-10502741,Install,1.7,125.178.39.249,D7ED76C2-2E04-4D4F-B6BF-AD364BC11BE0,1556767878,2019-05-02 11:31:18,1556767939,2019-05-02 11:32:19,1556767969,83733faa-9ec4-4bec-b271-024f1e32932e__pspm,http://pspm.pingstart.com/api/v4/postback?from=1706&clickid=83733faa-9ec4-4bec-b271-024f1e32932e__pspm,idfa_D7ED76C2-2E04-4D4F-B6BF-AD364BC11BE0,ko-KR
QYSI17orTIGv4lpySsbxQQ,newborntown,p1599_1018_110903_5_7_741-10502741,Install,1.7,203.228.17.2,D0067D08-4628-4C86-83E5-647920B4A78B,1556766738,2019-05-02 11:12:18,1556766765,2019-05-02 11:12:45,1556766796,9801be49-51cb-4b30-afdc-40a9b592f371__pspm,http://pspm.pingstart.com/api/v4/postback?from=1706&clickid=9801be49-51cb-4b30-afdc-40a9b592f371__pspm,idfa_D0067D08-4628-4C86-83E5-647920B4A78B,ko-KR
QYSI17orTIGv4lpySsbxQQ,newborntown,p1599_1018_110903_5_7_741-10502741,Install,1.7,106.255.229.171,61C8A481-242A-4723-A4F1-97F01A7FAF57,1556767103,2019-05-02 11:18:23,1556767178,2019-05-02 11:19:38,1556767208,28a73891-aba0-4c72-ab82-0923939099ba__pspm,http://pspm.pingstart.com/api/v4/postback?from=1706&clickid=28a73891-aba0-4c72-ab82-0923939099ba__pspm,idfa_61C8A481-242A-4723-A4F1-97F01A7FAF57,ko-KR
QYSI17orTIGv4lpySsbxQQ,newborntown,p1599_1018_110903_5_7_741-10502741,Install,1.7,211.216.48.158,899DEDE8-49EA-4D72-8669-B88DDEEE6F99,1556767097,2019-05-02 11:18:17,1556767176,2019-05-02 11:19:36,1556767206,48d64b40-ad7f-4d81-9089-0e9cbceb6f6b__pspm,http://pspm.pingstart.com/api/v4/postback?from=1706&clickid=48d64b40-ad7f-4d81-9089-0e9cbceb6f6b__pspm,idfa_899DEDE8-49EA-4D72-8669-B88DDEEE6F99,ko-KR
QYSI17orTIGv4lpySsbxQQ,newborntown,p1599_1018_110903_5_7_741-10502741,Install,1.7,101.79.5.184,A098FFE1-1186-4536-AEC0-FEC62E2EA341,1556766814,2019-05-02 11:13:34,1556766896,2019-05-02 11:14:56,1556766927,1e09dfff-4a1e-4067-9303-f5acc43f5e1a__pspm,http://pspm.pingstart.com/api/v4/postback?from=1706&clickid=1e09dfff-4a1e-4067-9303-f5acc43f5e1a__pspm,idfa_A098FFE1-1186-4536-AEC0-FEC62E2EA341,ko-KR
QYSI17orTIGv4lpySsbxQQ,newborntown,p1599_1018_110903_5_7_741-10502741,Install,1.7,27.116.255.153,47376CF9-A7A4-4F71-8D39-08210762502B,1556767464,2019-05-02 11:24:24,1556767534,2019-05-02 11:25:34,1556767564,52fd61a3-7e3b-45b5-9c6a-14544a5f7d9a__pspm,http://pspm.pingstart.com/api/v4/postback?from=1706&clickid=52fd61a3-7e3b-45b5-9c6a-14544a5f7d9a__pspm,idfa_47376CF9-A7A4-4F71-8D39-08210762502B,ko-KR
