cid,partner_id,channel_id,action_id,cpi,ip,idfa,click time,click datetime,install time,install datetime,postback time,click id,postback url,unique user id
jAXW4hckQmumQvk5ZW2Uxg,newborntown,p1789_920-5984622_767473889,install,1.5,221.19.66.109,7B943500-FCC8-48D5-BBE8-E93BD6CF89F7,1556944186,2019-05-04 12:29:46,1556946709,2019-05-04 13:11:49,1556946740,3c0b00cf-551f-48d4-b0e8-1a9d60d9fdc0__pspm,http://pspm.pingstart.com/api/v4/postback?from=1706&clickid=3c0b00cf-551f-48d4-b0e8-1a9d60d9fdc0__pspm,idfa_7B943500-FCC8-48D5-BBE8-E93BD6CF89F7,ja
jAXW4hckQmumQvk5ZW2Uxg,newborntown,p1789_920-5984622_767473889,install,1.5,125.196.84.128,981BEA52-8FF7-48C2-A501-3D919355F02C,1556933878,2019-05-04 09:37:58,1556935253,2019-05-04 10:00:53,1556935284,835a5260-716e-43e6-81e9-b5966a8139ca__pspm,http://pspm.pingstart.com/api/v4/postback?from=1706&clickid=835a5260-716e-43e6-81e9-b5966a8139ca__pspm,idfa_981BEA52-8FF7-48C2-A501-3D919355F02C,ja
jAXW4hckQmumQvk5ZW2Uxg,newborntown,p1789_920-5984622_767473889,install,1.5,121.86.130.50,198E54D7-FFF3-4732-BA03-E1EAE2C10EB2,1556932680,2019-05-04 09:18:00,1556935763,2019-05-04 10:09:23,1556935794,87430295-7b25-46ab-8a30-6fc38ba70dd0__pspm,http://pspm.pingstart.com/api/v4/postback?from=1706&clickid=87430295-7b25-46ab-8a30-6fc38ba70dd0__pspm,idfa_198E54D7-FFF3-4732-BA03-E1EAE2C10EB2,ja
jAXW4hckQmumQvk5ZW2Uxg,newborntown,p1789_920-5984622_767473889,install,1.5,150.249.100.18,92790975-0E6E-4572-B95C-B29834941687,1556941472,2019-05-04 11:44:32,1556941894,2019-05-04 11:51:34,1556941924,5893d51b-568f-480c-a440-1cd189a7c6f9__pspm,http://pspm.pingstart.com/api/v4/postback?from=1706&clickid=5893d51b-568f-480c-a440-1cd189a7c6f9__pspm,idfa_92790975-0E6E-4572-B95C-B29834941687,ja
jAXW4hckQmumQvk5ZW2Uxg,newborntown,p1789_920-5984622_767473889,install,1.5,118.20.208.154,71F1B49B-C1FA-4786-8350-91C989C391D5,1556938377,2019-05-04 10:52:57,1556940872,2019-05-04 11:34:32,1556940902,e7b1b459-90a0-40e3-ab4d-48984c447457__pspm,http://pspm.pingstart.com/api/v4/postback?from=1706&clickid=e7b1b459-90a0-40e3-ab4d-48984c447457__pspm,idfa_71F1B49B-C1FA-4786-8350-91C989C391D5,ja
jAXW4hckQmumQvk5ZW2Uxg,newborntown,p1789_920-5984622_767473889,install,1.5,126.122.184.238,B4456ED3-8A44-4A20-9C21-9E4FF5246071,1556938222,2019-05-04 10:50:22,1556938575,2019-05-04 10:56:15,1556938606,f22e6095-78c6-4f77-b540-88d8a7be07a2__pspm,http://pspm.pingstart.com/api/v4/postback?from=1706&clickid=f22e6095-78c6-4f77-b540-88d8a7be07a2__pspm,idfa_B4456ED3-8A44-4A20-9C21-9E4FF5246071,ja
jAXW4hckQmumQvk5ZW2Uxg,newborntown,p1789_920-5984622_767473889,install,1.5,60.132.127.151,45B23753-3513-4D89-A3CE-A6FE672E9AB4,1556933380,2019-05-04 09:29:40,1556933733,2019-05-04 09:35:33,1556933763,98e0a281-561e-40c5-a17b-9b08e15e2203__pspm,http://pspm.pingstart.com/api/v4/postback?from=1706&clickid=98e0a281-561e-40c5-a17b-9b08e15e2203__pspm,idfa_45B23753-3513-4D89-A3CE-A6FE672E9AB4,ja
jAXW4hckQmumQvk5ZW2Uxg,newborntown,p1789_920-5984622_767473889,install,1.5,112.70.136.217,C6F6BFD7-C694-4DEA-A630-615635082088,1556932008,2019-05-04 09:06:48,1556934997,2019-05-04 09:56:37,1556935028,84e3442d-9f4b-4012-b96e-038cf68bddd2__pspm,http://pspm.pingstart.com/api/v4/postback?from=1706&clickid=84e3442d-9f4b-4012-b96e-038cf68bddd2__pspm,idfa_C6F6BFD7-C694-4DEA-A630-615635082088,ja
jAXW4hckQmumQvk5ZW2Uxg,newborntown,p1789_920-5984622_767473889,install,1.5,60.67.194.110,273996DB-7E63-49D2-81C8-4416F02EFE37,1556935015,2019-05-04 09:56:55,1556935258,2019-05-04 10:00:58,1556935289,eb94764c-8488-4888-a491-e8a83f2dd8ab__pspm,http://pspm.pingstart.com/api/v4/postback?from=1706&clickid=eb94764c-8488-4888-a491-e8a83f2dd8ab__pspm,idfa_273996DB-7E63-49D2-81C8-4416F02EFE37,ja
jAXW4hckQmumQvk5ZW2Uxg,newborntown,p1789_920-5984622_767473889,install,1.5,126.26.203.222,E4689AA8-A478-44B6-9F07-3B480DFC1B5E,1556942435,2019-05-04 12:00:35,1556942640,2019-05-04 12:04:00,1556942671,b85f6091-0fc4-409b-8e40-de173962cda9__pspm,http://pspm.pingstart.com/api/v4/postback?from=1706&clickid=b85f6091-0fc4-409b-8e40-de173962cda9__pspm,idfa_E4689AA8-A478-44B6-9F07-3B480DFC1B5E,ja
jAXW4hckQmumQvk5ZW2Uxg,newborntown,p1789_920-5984622_767473889,install,1.5,14.10.65.96,2D0144C9-9B87-46F7-A036-3C1433B5BEE9,1556938405,2019-05-04 10:53:25,1556939598,2019-05-04 11:13:18,1556939628,f400813d-2d7f-48e3-b885-138ee75bbad3__pspm,http://pspm.pingstart.com/api/v4/postback?from=1706&clickid=f400813d-2d7f-48e3-b885-138ee75bbad3__pspm,idfa_2D0144C9-9B87-46F7-A036-3C1433B5BEE9,ja
jAXW4hckQmumQvk5ZW2Uxg,newborntown,p1789_920-5984622_767473889,install,1.5,27.89.110.113,F29D1A1F-FB1D-49BB-ADD9-69396F42FD89,1556936699,2019-05-04 10:24:59,1556936774,2019-05-04 10:26:14,1556936804,84bb4497-cf20-4a85-982e-84d76c6f0297__pspm,http://pspm.pingstart.com/api/v4/postback?from=1706&clickid=84bb4497-cf20-4a85-982e-84d76c6f0297__pspm,idfa_F29D1A1F-FB1D-49BB-ADD9-69396F42FD89,ja
jAXW4hckQmumQvk5ZW2Uxg,newborntown,p1789_920-5984622_767473889,install,1.5,118.20.208.154,1C01D6EF-55B4-4111-9CF7-B9AD42544959,1556939683,2019-05-04 11:14:43,1556941418,2019-05-04 11:43:38,1556941448,0fd88b4d-7750-4e28-8c10-845f5f4750d9__pspm,http://pspm.pingstart.com/api/v4/postback?from=1706&clickid=0fd88b4d-7750-4e28-8c10-845f5f4750d9__pspm,idfa_1C01D6EF-55B4-4111-9CF7-B9AD42544959,ja
jAXW4hckQmumQvk5ZW2Uxg,newborntown,p1789_920-5984622_767473889,install,1.5,60.127.248.67,A0C4BB96-4EB8-401B-AAA0-D6F8395CF3D3,1556932294,2019-05-04 09:11:34,1556933476,2019-05-04 09:31:16,1556933506,6dc3a246-de8f-466a-a696-9be94c42ca5b__pspm,http://pspm.pingstart.com/api/v4/postback?from=1706&clickid=6dc3a246-de8f-466a-a696-9be94c42ca5b__pspm,idfa_A0C4BB96-4EB8-401B-AAA0-D6F8395CF3D3,ja
jAXW4hckQmumQvk5ZW2Uxg,newborntown,p1789_920-5984622_767473889,install,1.5,60.67.194.110,02A44AD5-AB82-44BF-94AC-E93B13187D84,1556933375,2019-05-04 09:29:35,1556934526,2019-05-04 09:48:46,1556934557,edc04d68-20d9-4999-bbac-c224b3246a66__pspm,http://pspm.pingstart.com/api/v4/postback?from=1706&clickid=edc04d68-20d9-4999-bbac-c224b3246a66__pspm,idfa_02A44AD5-AB82-44BF-94AC-E93B13187D84,ja
jAXW4hckQmumQvk5ZW2Uxg,newborntown,p1789_920-5984622_767473889,install,1.5,126.162.44.148,065896BA-D84F-423F-B842-5645A1BCB9E8,1556942982,2019-05-04 12:09:42,1556946236,2019-05-04 13:03:56,1556946397,cc6bda3d-8d08-4b70-99b0-3eaa9f1b6046__pspm,http://pspm.pingstart.com/api/v4/postback?from=1706&clickid=cc6bda3d-8d08-4b70-99b0-3eaa9f1b6046__pspm,idfa_065896BA-D84F-423F-B842-5645A1BCB9E8,ja
jAXW4hckQmumQvk5ZW2Uxg,newborntown,p1789_920-5984622_767473889,install,1.5,124.103.41.190,E959FBEF-7C69-4E03-92AD-3844DA909B76,1556934257,2019-05-04 09:44:17,1556936012,2019-05-04 10:13:32,1556936042,78d0218a-6d37-4338-acd8-d6d31068051b__pspm,http://pspm.pingstart.com/api/v4/postback?from=1706&clickid=78d0218a-6d37-4338-acd8-d6d31068051b__pspm,idfa_E959FBEF-7C69-4E03-92AD-3844DA909B76,ja
jAXW4hckQmumQvk5ZW2Uxg,newborntown,p1789_920-5984622_767473889,install,1.5,210.199.190.25,56F3EB02-7EFC-4819-A3F9-2EFA56FDF2A4,1556942965,2019-05-04 12:09:25,1556945177,2019-05-04 12:46:17,1556945208,b00b8f88-c257-40e3-a26f-700d837bc3f1__pspm,http://pspm.pingstart.com/api/v4/postback?from=1706&clickid=b00b8f88-c257-40e3-a26f-700d837bc3f1__pspm,idfa_56F3EB02-7EFC-4819-A3F9-2EFA56FDF2A4,ja
jAXW4hckQmumQvk5ZW2Uxg,newborntown,p1789_920-5984622_767473889,install,1.5,114.177.173.157,2852F39A-0FCD-4310-B36D-C676BACE8797,1556938169,2019-05-04 10:49:29,1556938557,2019-05-04 10:55:57,1556938588,fac40834-07d5-413a-b880-e96c8fe08cfa__pspm,http://pspm.pingstart.com/api/v4/postback?from=1706&clickid=fac40834-07d5-413a-b880-e96c8fe08cfa__pspm,idfa_2852F39A-0FCD-4310-B36D-C676BACE8797,ja
jAXW4hckQmumQvk5ZW2Uxg,newborntown,p1789_920-5984622_767473889,install,1.5,180.23.239.240,EF09AD33-4D97-45BF-B59A-6D2EDD738C54,1556940003,2019-05-04 11:20:03,1556940366,2019-05-04 11:26:06,1556940396,c85fe54d-a739-4da9-9419-ac2ff0e08d87__pspm,http://pspm.pingstart.com/api/v4/postback?from=1706&clickid=c85fe54d-a739-4da9-9419-ac2ff0e08d87__pspm,idfa_EF09AD33-4D97-45BF-B59A-6D2EDD738C54,ja
jAXW4hckQmumQvk5ZW2Uxg,newborntown,p1789_920-5984622_767473889,install,1.5,27.141.218.26,BAE6A903-3AC0-42EE-9F39-BFAEB71C8B18,1556932770,2019-05-04 09:19:30,1556933000,2019-05-04 09:23:20,1556933031,0851463e-e6d1-4656-aa02-541a833199ba__pspm,http://pspm.pingstart.com/api/v4/postback?from=1706&clickid=0851463e-e6d1-4656-aa02-541a833199ba__pspm,idfa_BAE6A903-3AC0-42EE-9F39-BFAEB71C8B18,ja
jAXW4hckQmumQvk5ZW2Uxg,newborntown,p1789_920-5984622_767473889,install,1.5,27.139.35.213,0E4BE05E-6523-4C7C-B389-58AF01F2E331,1556941603,2019-05-04 11:46:43,1556942394,2019-05-04 11:59:54,1556942425,371f33da-2473-4de5-9ff0-f7ce54320c25__pspm,http://pspm.pingstart.com/api/v4/postback?from=1706&clickid=371f33da-2473-4de5-9ff0-f7ce54320c25__pspm,idfa_0E4BE05E-6523-4C7C-B389-58AF01F2E331,ja
jAXW4hckQmumQvk5ZW2Uxg,newborntown,p1789_920-5984622_767473889,install,1.5,121.110.206.23,2D25C66A-6FC4-495A-B3B6-4D04D4C5FC2F,1556937891,2019-05-04 10:44:51,1556939593,2019-05-04 11:13:13,1556939623,00a79ecc-400c-457b-a533-7aef63cf2b37__pspm,http://pspm.pingstart.com/api/v4/postback?from=1706&clickid=00a79ecc-400c-457b-a533-7aef63cf2b37__pspm,idfa_2D25C66A-6FC4-495A-B3B6-4D04D4C5FC2F,ja
jAXW4hckQmumQvk5ZW2Uxg,newborntown,p1789_920-5984622_767473889,install,1.5,113.147.20.10,52919989-5D6F-4E08-81B4-6AFA18390DE5,1556942012,2019-05-04 11:53:32,1556942888,2019-05-04 12:08:08,1556942918,b71cffc8-d8e3-43a1-8db4-1b1f76cbb19f__pspm,http://pspm.pingstart.com/api/v4/postback?from=1706&clickid=b71cffc8-d8e3-43a1-8db4-1b1f76cbb19f__pspm,idfa_52919989-5D6F-4E08-81B4-6AFA18390DE5,ja
jAXW4hckQmumQvk5ZW2Uxg,newborntown,p1789_920-5984622_767473889,install,1.5,126.241.210.23,AFEF6329-DE0F-45DB-88FB-B03C4E3BA740,1556941577,2019-05-04 11:46:17,1556944923,2019-05-04 12:42:03,1556944953,c7bfffee-944e-4cec-8cc2-2350c792aa65__pspm,http://pspm.pingstart.com/api/v4/postback?from=1706&clickid=c7bfffee-944e-4cec-8cc2-2350c792aa65__pspm,idfa_AFEF6329-DE0F-45DB-88FB-B03C4E3BA740,ja
jAXW4hckQmumQvk5ZW2Uxg,newborntown,p1789_920-5984622_767473889,install,1.5,106.73.65.128,6688CFF7-5047-4073-BF80-3790ECAC1767,1556940189,2019-05-04 11:23:09,1556940340,2019-05-04 11:25:40,1556940370,19274a12-0de6-4571-8b90-5b0f960e7a55__pspm,http://pspm.pingstart.com/api/v4/postback?from=1706&clickid=19274a12-0de6-4571-8b90-5b0f960e7a55__pspm,idfa_6688CFF7-5047-4073-BF80-3790ECAC1767,ja
jAXW4hckQmumQvk5ZW2Uxg,newborntown,p1789_920-5984622_767473889,install,1.5,119.230.76.125,658FD26F-0CB0-42E2-B12A-E6E190F088E5,1556931986,2019-05-04 09:06:26,1556933250,2019-05-04 09:27:30,1556933281,b7fbb4c8-cc89-4954-8c3e-2e6c7f05457e__pspm,http://pspm.pingstart.com/api/v4/postback?from=1706&clickid=b7fbb4c8-cc89-4954-8c3e-2e6c7f05457e__pspm,idfa_658FD26F-0CB0-42E2-B12A-E6E190F088E5,ja
jAXW4hckQmumQvk5ZW2Uxg,newborntown,p1789_920-5984622_767473889,install,1.5,60.139.148.169,DDF2B489-6760-4E11-9E9E-34DF7969394A,1556934095,2019-05-04 09:41:35,1556934251,2019-05-04 09:44:11,1556934282,9b3d72e1-beaa-44b4-a9d9-f378b91339c7__pspm,http://pspm.pingstart.com/api/v4/postback?from=1706&clickid=9b3d72e1-beaa-44b4-a9d9-f378b91339c7__pspm,idfa_DDF2B489-6760-4E11-9E9E-34DF7969394A,ja
jAXW4hckQmumQvk5ZW2Uxg,newborntown,p1789_920-5984622_767473889,install,1.5,118.243.236.247,549869AD-CF9E-4AD2-889C-E968BFE641D9,1556932417,2019-05-04 09:13:37,1556933246,2019-05-04 09:27:26,1556933276,ff938882-ca1d-4215-9a6f-42c1826a8a28__pspm,http://pspm.pingstart.com/api/v4/postback?from=1706&clickid=ff938882-ca1d-4215-9a6f-42c1826a8a28__pspm,idfa_549869AD-CF9E-4AD2-889C-E968BFE641D9,ja
jAXW4hckQmumQvk5ZW2Uxg,newborntown,p1789_920-5984622_767473889,install,1.5,153.199.5.76,7D34628F-13F1-4E80-9F5F-DFAB7F751F03,1556941907,2019-05-04 11:51:47,1556942905,2019-05-04 12:08:25,1556942936,2fd83888-be10-4174-93e3-534d9b751430__pspm,http://pspm.pingstart.com/api/v4/postback?from=1706&clickid=2fd83888-be10-4174-93e3-534d9b751430__pspm,idfa_7D34628F-13F1-4E80-9F5F-DFAB7F751F03,ja
jAXW4hckQmumQvk5ZW2Uxg,newborntown,p1789_920-5984622_767473889,install,1.5,175.179.197.25,3973F375-1BBD-4CB5-A744-BD634144C766,1556935631,2019-05-04 10:07:11,1556936014,2019-05-04 10:13:34,1556936045,da8651ca-7576-4345-9822-b6ba60368c94__pspm,http://pspm.pingstart.com/api/v4/postback?from=1706&clickid=da8651ca-7576-4345-9822-b6ba60368c94__pspm,idfa_3973F375-1BBD-4CB5-A744-BD634144C766,ja
jAXW4hckQmumQvk5ZW2Uxg,newborntown,p1789_920-5984622_767473889,install,1.5,202.91.147.154,3DBAD131-827E-4064-A38B-BD7A5D076AC5,1556931765,2019-05-04 09:02:45,1556931850,2019-05-04 09:04:10,1556931881,9d6fe36b-14c5-4dbd-be1d-8275c907ac72__pspm,http://pspm.pingstart.com/api/v4/postback?from=1706&clickid=9d6fe36b-14c5-4dbd-be1d-8275c907ac72__pspm,idfa_3DBAD131-827E-4064-A38B-BD7A5D076AC5,ja
jAXW4hckQmumQvk5ZW2Uxg,newborntown,p1789_920-5984622_767473889,install,1.5,111.239.245.115,89D28D17-59B1-4E62-A899-D040FFA63120,1556942511,2019-05-04 12:01:51,1556944685,2019-05-04 12:38:05,1556944715,13db1017-e652-4420-93df-fdd0bf529aae__pspm,http://pspm.pingstart.com/api/v4/postback?from=1706&clickid=13db1017-e652-4420-93df-fdd0bf529aae__pspm,idfa_89D28D17-59B1-4E62-A899-D040FFA63120,ja
jAXW4hckQmumQvk5ZW2Uxg,newborntown,p1789_920-5984622_767473889,install,1.5,118.159.53.76,C8752EF4-9D44-4F7F-843F-F4D7A23BC24A,1556940745,2019-05-04 11:32:25,1556940869,2019-05-04 11:34:29,1556940900,b0330515-edc1-4275-9c7e-21d3c315c234__pspm,http://pspm.pingstart.com/api/v4/postback?from=1706&clickid=b0330515-edc1-4275-9c7e-21d3c315c234__pspm,idfa_C8752EF4-9D44-4F7F-843F-F4D7A23BC24A,ja
jAXW4hckQmumQvk5ZW2Uxg,newborntown,p1789_920-5984622_767473889,install,1.5,60.90.207.89,EFC7FD2A-8B66-4ECD-B620-9DDB9486C079,1556933805,2019-05-04 09:36:45,1556934741,2019-05-04 09:52:21,1556934771,a7d1fd32-7f12-43ee-84a1-ec3e607b9eae__pspm,http://pspm.pingstart.com/api/v4/postback?from=1706&clickid=a7d1fd32-7f12-43ee-84a1-ec3e607b9eae__pspm,idfa_EFC7FD2A-8B66-4ECD-B620-9DDB9486C079,ja
jAXW4hckQmumQvk5ZW2Uxg,newborntown,p1789_920-5984622_767473889,install,1.5,14.13.69.64,099A16E7-FAA7-4C1F-A6ED-1125EC03B5C9,1556934803,2019-05-04 09:53:23,1556936518,2019-05-04 10:21:58,1556936549,c1353c34-6f83-4cf4-8950-3f9d7eafc86c__pspm,http://pspm.pingstart.com/api/v4/postback?from=1706&clickid=c1353c34-6f83-4cf4-8950-3f9d7eafc86c__pspm,idfa_099A16E7-FAA7-4C1F-A6ED-1125EC03B5C9,ja
jAXW4hckQmumQvk5ZW2Uxg,newborntown,p1789_920-5984622_767473889,install,1.5,110.132.221.222,950A5291-5901-429E-B4FC-C5EC08A6C194,1556935114,2019-05-04 09:58:34,1556935507,2019-05-04 10:05:07,1556935538,5d8663af-107e-4f1c-b58a-45a6b27ce991__pspm,http://pspm.pingstart.com/api/v4/postback?from=1706&clickid=5d8663af-107e-4f1c-b58a-45a6b27ce991__pspm,idfa_950A5291-5901-429E-B4FC-C5EC08A6C194,ja
jAXW4hckQmumQvk5ZW2Uxg,newborntown,p1789_920-5984622_767473889,install,1.5,111.239.164.143,1EDD68AE-19DA-4053-9C62-C23D4A78EF0D,1556936830,2019-05-04 10:27:10,1556938323,2019-05-04 10:52:03,1556938354,53d458cd-b04e-453c-b7b9-2c67fc410560__pspm,http://pspm.pingstart.com/api/v4/postback?from=1706&clickid=53d458cd-b04e-453c-b7b9-2c67fc410560__pspm,idfa_1EDD68AE-19DA-4053-9C62-C23D4A78EF0D,ja
jAXW4hckQmumQvk5ZW2Uxg,newborntown,p1789_920-5984622_767473889,install,1.5,118.5.225.110,CBBAE868-D8B8-457B-B704-E1E475FFC31F,1556939679,2019-05-04 11:14:39,1556940618,2019-05-04 11:30:18,1556940648,c973666c-4b3f-44a9-8fb8-69b19eb1607d__pspm,http://pspm.pingstart.com/api/v4/postback?from=1706&clickid=c973666c-4b3f-44a9-8fb8-69b19eb1607d__pspm,idfa_CBBAE868-D8B8-457B-B704-E1E475FFC31F,ja
jAXW4hckQmumQvk5ZW2Uxg,newborntown,p1789_920-5984622_767473889,install,1.5,220.213.47.6,581C9310-7B5C-4DD5-A1F5-0B6A3C13B298,1556934626,2019-05-04 09:50:26,1556936268,2019-05-04 10:17:48,1556936298,b5b4d4ec-508a-45a0-bb4b-e7c3b7a8b441__pspm,http://pspm.pingstart.com/api/v4/postback?from=1706&clickid=b5b4d4ec-508a-45a0-bb4b-e7c3b7a8b441__pspm,idfa_581C9310-7B5C-4DD5-A1F5-0B6A3C13B298,ja
jAXW4hckQmumQvk5ZW2Uxg,newborntown,p1789_920-5984622_767473889,install,1.5,180.145.79.1,154EFF05-49EF-47E2-83B8-1E8911C0BE80,1556933477,2019-05-04 09:31:17,1556933994,2019-05-04 09:39:54,1556934024,3b2ab415-0498-454c-87ce-39dd48ed6e1a__pspm,http://pspm.pingstart.com/api/v4/postback?from=1706&clickid=3b2ab415-0498-454c-87ce-39dd48ed6e1a__pspm,idfa_154EFF05-49EF-47E2-83B8-1E8911C0BE80,ja
jAXW4hckQmumQvk5ZW2Uxg,newborntown,p1789_920-5984622_767473889,install,1.5,219.116.195.207,E4C23C70-F702-43B6-8E3F-BD185904750C,1556942500,2019-05-04 12:01:40,1556943392,2019-05-04 12:16:32,1556943423,30cd3084-03ee-421a-a75f-925c36317ea4__pspm,http://pspm.pingstart.com/api/v4/postback?from=1706&clickid=30cd3084-03ee-421a-a75f-925c36317ea4__pspm,idfa_E4C23C70-F702-43B6-8E3F-BD185904750C,ja
jAXW4hckQmumQvk5ZW2Uxg,newborntown,p1789_920-5984622_767473889,install,1.5,114.170.124.77,32C0D4D6-844E-4BFE-8367-A43DBADD0D6B,1556931928,2019-05-04 09:05:28,1556932109,2019-05-04 09:08:29,1556932140,8bf9be97-bc8f-41b4-94a8-3a062c932a06__pspm,http://pspm.pingstart.com/api/v4/postback?from=1706&clickid=8bf9be97-bc8f-41b4-94a8-3a062c932a06__pspm,idfa_32C0D4D6-844E-4BFE-8367-A43DBADD0D6B,ja
jAXW4hckQmumQvk5ZW2Uxg,newborntown,p1789_920-5984622_767473889,install,1.5,65.99.9.161,3A83D731-1675-4812-B941-5703C73B741A,1556941872,2019-05-04 11:51:12,1556942378,2019-05-04 11:59:38,1556942408,8a4cccc7-fcd5-4d30-8cca-e018cc892322__pspm,http://pspm.pingstart.com/api/v4/postback?from=1706&clickid=8a4cccc7-fcd5-4d30-8cca-e018cc892322__pspm,idfa_3A83D731-1675-4812-B941-5703C73B741A,ja
jAXW4hckQmumQvk5ZW2Uxg,newborntown,p1789_920-5984622_767473889,install,1.5,175.131.182.63,61367149-1043-42BB-B922-CAE2417FBE04,1556944158,2019-05-04 12:29:18,1556946194,2019-05-04 13:03:14,1556946225,b6db42d1-024e-4787-8bc1-0a3356a06e27__pspm,http://pspm.pingstart.com/api/v4/postback?from=1706&clickid=b6db42d1-024e-4787-8bc1-0a3356a06e27__pspm,idfa_61367149-1043-42BB-B922-CAE2417FBE04,ja
jAXW4hckQmumQvk5ZW2Uxg,newborntown,p1789_920-5984622_767473889,install,1.5,118.86.32.142,E0206A43-9B8A-4E64-A1C7-70712D107877,1556944209,2019-05-04 12:30:09,1556947214,2019-05-04 13:20:14,1556947245,f2145e01-ccae-462d-89a0-b36eba4b6389__pspm,http://pspm.pingstart.com/api/v4/postback?from=1706&clickid=f2145e01-ccae-462d-89a0-b36eba4b6389__pspm,idfa_E0206A43-9B8A-4E64-A1C7-70712D107877,ja
jAXW4hckQmumQvk5ZW2Uxg,newborntown,p1789_920-5984622_767473889,install,1.5,60.142.31.46,4BD413F1-4A2D-4D31-8BDC-AFD98CD8A442,1556939652,2019-05-04 11:14:12,1556942648,2019-05-04 12:04:08,1556942678,dc687ec0-e7e3-49b5-9722-136ba1ff5813__pspm,http://pspm.pingstart.com/api/v4/postback?from=1706&clickid=dc687ec0-e7e3-49b5-9722-136ba1ff5813__pspm,idfa_4BD413F1-4A2D-4D31-8BDC-AFD98CD8A442,ja
jAXW4hckQmumQvk5ZW2Uxg,newborntown,p1789_920-5984622_767473889,install,1.5,133.207.208.32,353E0E63-F411-4005-AD3D-774C5F65C507,1556943047,2019-05-04 12:10:47,1556945450,2019-05-04 12:50:50,1556945480,818be19e-b8a4-49f6-a1bb-13657ceb5f55__pspm,http://pspm.pingstart.com/api/v4/postback?from=1706&clickid=818be19e-b8a4-49f6-a1bb-13657ceb5f55__pspm,idfa_353E0E63-F411-4005-AD3D-774C5F65C507,ja
jAXW4hckQmumQvk5ZW2Uxg,newborntown,p1789_920-5984622_767473889,install,1.5,111.239.157.59,103B5579-C073-4B9E-B101-E038F140E174,1556931827,2019-05-04 09:03:47,1556932712,2019-05-04 09:18:32,1556932743,412d1272-d485-4d50-b328-f568848f7d87__pspm,http://pspm.pingstart.com/api/v4/postback?from=1706&clickid=412d1272-d485-4d50-b328-f568848f7d87__pspm,idfa_103B5579-C073-4B9E-B101-E038F140E174,ja
jAXW4hckQmumQvk5ZW2Uxg,newborntown,p1789_920-5984622_767473889,install,1.5,111.239.241.122,B631F90E-1D09-4EAE-A3B8-73C39875CC6B,1556941254,2019-05-04 11:40:54,1556941650,2019-05-04 11:47:30,1556941680,5d1d1be3-3cd2-43ec-86c1-80343fa049a1__pspm,http://pspm.pingstart.com/api/v4/postback?from=1706&clickid=5d1d1be3-3cd2-43ec-86c1-80343fa049a1__pspm,idfa_B631F90E-1D09-4EAE-A3B8-73C39875CC6B,ja
jAXW4hckQmumQvk5ZW2Uxg,newborntown,p1789_920-5984622_767473889,install,1.5,60.100.211.179,F56C7635-5531-4265-8C39-44B81F0D5CB2,1556936283,2019-05-04 10:18:03,1556938837,2019-05-04 11:00:37,1556938868,49e19d2c-cbe6-41dc-ae59-ce6199460997__pspm,http://pspm.pingstart.com/api/v4/postback?from=1706&clickid=49e19d2c-cbe6-41dc-ae59-ce6199460997__pspm,idfa_F56C7635-5531-4265-8C39-44B81F0D5CB2,ja
jAXW4hckQmumQvk5ZW2Uxg,newborntown,p1789_920-5984622_767473889,install,1.5,106.73.19.224,B85FDAC9-F967-4D3E-8139-A70DD9D723AE,1556938193,2019-05-04 10:49:53,1556939093,2019-05-04 11:04:53,1556939125,85e077d8-6796-4f51-9aa7-756ba9e53af4__pspm,http://pspm.pingstart.com/api/v4/postback?from=1706&clickid=85e077d8-6796-4f51-9aa7-756ba9e53af4__pspm,idfa_B85FDAC9-F967-4D3E-8139-A70DD9D723AE,ja
jAXW4hckQmumQvk5ZW2Uxg,newborntown,p1789_920-5984622_767473889,install,1.5,60.101.84.125,8F9AA923-3EE3-4B40-9B38-0B1405509A33,1556936819,2019-05-04 10:26:59,1556937026,2019-05-04 10:30:26,1556937057,73133104-bc70-414e-afbf-046c27a74902__pspm,http://pspm.pingstart.com/api/v4/postback?from=1706&clickid=73133104-bc70-414e-afbf-046c27a74902__pspm,idfa_8F9AA923-3EE3-4B40-9B38-0B1405509A33,ja
jAXW4hckQmumQvk5ZW2Uxg,newborntown,p1789_920-5984622_767473889,install,1.5,219.121.3.183,22DD8B3A-48A1-4E80-BA9A-84BC8236A042,1556937060,2019-05-04 10:31:00,1556937285,2019-05-04 10:34:45,1556937315,eb3ecd88-22c2-4af2-a959-afe0bd733f17__pspm,http://pspm.pingstart.com/api/v4/postback?from=1706&clickid=eb3ecd88-22c2-4af2-a959-afe0bd733f17__pspm,idfa_22DD8B3A-48A1-4E80-BA9A-84BC8236A042,ja
jAXW4hckQmumQvk5ZW2Uxg,newborntown,p1789_920-5984622_767473889,install,1.5,106.154.45.145,1FBFCC53-86CE-4DD3-8F08-86A9F5FABC0F,1556932131,2019-05-04 09:08:51,1556933476,2019-05-04 09:31:16,1556933507,ecbb9f7a-a01c-4ece-b663-53b7e5c8b11c__pspm,http://pspm.pingstart.com/api/v4/postback?from=1706&clickid=ecbb9f7a-a01c-4ece-b663-53b7e5c8b11c__pspm,idfa_1FBFCC53-86CE-4DD3-8F08-86A9F5FABC0F,ja
jAXW4hckQmumQvk5ZW2Uxg,newborntown,p1789_920-5984622_767473889,install,1.5,122.135.194.142,AF1DDAC6-B194-47F4-9A42-99E5B8EBB42C,1556938627,2019-05-04 10:57:07,1556941127,2019-05-04 11:38:47,1556941157,6f687b3a-5cbb-48f6-af9c-12ad9fceb984__pspm,http://pspm.pingstart.com/api/v4/postback?from=1706&clickid=6f687b3a-5cbb-48f6-af9c-12ad9fceb984__pspm,idfa_AF1DDAC6-B194-47F4-9A42-99E5B8EBB42C,ja
jAXW4hckQmumQvk5ZW2Uxg,newborntown,p1789_920-5984622_767473889,install,1.5,111.89.51.41,A26309D4-EEBE-44DF-B526-93C301573FA6,1556937244,2019-05-04 10:34:04,1556939353,2019-05-04 11:09:13,1556939384,9e2c361b-6154-4bbd-ab8e-945be5c6a196__pspm,http://pspm.pingstart.com/api/v4/postback?from=1706&clickid=9e2c361b-6154-4bbd-ab8e-945be5c6a196__pspm,idfa_A26309D4-EEBE-44DF-B526-93C301573FA6,ja
jAXW4hckQmumQvk5ZW2Uxg,newborntown,p1789_920-5984622_767473889,install,1.5,143.189.126.80,7D7B14D4-9B6E-432B-BE57-AC396B873C15,1556943244,2019-05-04 12:14:04,1556943925,2019-05-04 12:25:25,1556943956,df8d3bfd-a26d-4f7e-8a5e-9c1cafa875a0__pspm,http://pspm.pingstart.com/api/v4/postback?from=1706&clickid=df8d3bfd-a26d-4f7e-8a5e-9c1cafa875a0__pspm,idfa_7D7B14D4-9B6E-432B-BE57-AC396B873C15,ja
jAXW4hckQmumQvk5ZW2Uxg,newborntown,p1789_920-5984622_767473889,install,1.5,49.240.241.181,5C7D34A7-7AC3-4A63-9EB7-B92404FF9B2E,1556938515,2019-05-04 10:55:15,1556938810,2019-05-04 11:00:10,1556938841,acb231d1-53fd-48df-84c8-6ee0d3b0ef5d__pspm,http://pspm.pingstart.com/api/v4/postback?from=1706&clickid=acb231d1-53fd-48df-84c8-6ee0d3b0ef5d__pspm,idfa_5C7D34A7-7AC3-4A63-9EB7-B92404FF9B2E,ja
jAXW4hckQmumQvk5ZW2Uxg,newborntown,p1789_920-5984622_767473889,install,1.5,111.89.51.41,23D8A463-91FB-4299-84D5-A3B9E0A89E1B,1556937389,2019-05-04 10:36:29,1556937794,2019-05-04 10:43:14,1556937826,d030581c-95fa-4556-80c4-bc535bf0540a__pspm,http://pspm.pingstart.com/api/v4/postback?from=1706&clickid=d030581c-95fa-4556-80c4-bc535bf0540a__pspm,idfa_23D8A463-91FB-4299-84D5-A3B9E0A89E1B,ja
jAXW4hckQmumQvk5ZW2Uxg,newborntown,p1789_920-5984622_767473889,install,1.5,59.129.218.135,551D7B47-546C-4FB3-AFDB-E6A6A4085CFE,1556939251,2019-05-04 11:07:31,1556939855,2019-05-04 11:17:35,1556939886,7e3fcd2f-3e5e-4f3b-bb12-ff1d0f65dd31__pspm,http://pspm.pingstart.com/api/v4/postback?from=1706&clickid=7e3fcd2f-3e5e-4f3b-bb12-ff1d0f65dd31__pspm,idfa_551D7B47-546C-4FB3-AFDB-E6A6A4085CFE,ja
jAXW4hckQmumQvk5ZW2Uxg,newborntown,p1789_920-5984622_767473889,install,1.5,220.100.54.55,3A2B1E7A-C10B-4742-AB6F-FB3F0CB66878,1556941190,2019-05-04 11:39:50,1556941876,2019-05-04 11:51:16,1556941907,2f26dca1-1241-4415-a8e0-8502f2602db2__pspm,http://pspm.pingstart.com/api/v4/postback?from=1706&clickid=2f26dca1-1241-4415-a8e0-8502f2602db2__pspm,idfa_3A2B1E7A-C10B-4742-AB6F-FB3F0CB66878,ja
jAXW4hckQmumQvk5ZW2Uxg,newborntown,p1789_920-5984622_767473889,install,1.5,116.58.181.3,D38A0DFF-7B6E-4DB4-A67F-9AB0428D0EC0,1556931772,2019-05-04 09:02:52,1556931860,2019-05-04 09:04:20,1556931891,59022472-3ddf-49d4-bd83-3b25db0477a0__pspm,http://pspm.pingstart.com/api/v4/postback?from=1706&clickid=59022472-3ddf-49d4-bd83-3b25db0477a0__pspm,idfa_D38A0DFF-7B6E-4DB4-A67F-9AB0428D0EC0,ja
jAXW4hckQmumQvk5ZW2Uxg,newborntown,p1789_920-5984622_767473889,install,1.5,219.98.71.19,F1710036-1A67-4F41-8F71-6A147A31040A,1556935661,2019-05-04 10:07:41,1556936521,2019-05-04 10:22:01,1556936552,b7bd4e2e-7f90-40d3-946e-df32a955c199__pspm,http://pspm.pingstart.com/api/v4/postback?from=1706&clickid=b7bd4e2e-7f90-40d3-946e-df32a955c199__pspm,idfa_F1710036-1A67-4F41-8F71-6A147A31040A,ja
jAXW4hckQmumQvk5ZW2Uxg,newborntown,p1789_920-5984622_767473889,install,1.5,180.199.214.85,D7184E99-0698-435D-9723-4387CA19D9C7,1556938238,2019-05-04 10:50:38,1556940082,2019-05-04 11:21:22,1556940112,95fff432-f5b1-4d0b-b8d1-583a07e9ec32__pspm,http://pspm.pingstart.com/api/v4/postback?from=1706&clickid=95fff432-f5b1-4d0b-b8d1-583a07e9ec32__pspm,idfa_D7184E99-0698-435D-9723-4387CA19D9C7,ja
jAXW4hckQmumQvk5ZW2Uxg,newborntown,p1789_920-5984622_767473889,install,1.5,125.196.169.215,A4A5B393-3234-4F74-9A2D-B80C7218EF6E,1556940998,2019-05-04 11:36:38,1556943137,2019-05-04 12:12:17,1556943168,87b318d7-4567-49fa-b4f9-d4e8eb969874__pspm,http://pspm.pingstart.com/api/v4/postback?from=1706&clickid=87b318d7-4567-49fa-b4f9-d4e8eb969874__pspm,idfa_A4A5B393-3234-4F74-9A2D-B80C7218EF6E,ja
jAXW4hckQmumQvk5ZW2Uxg,newborntown,p1789_920-5984622_767473889,install,1.5,91.207.174.171,BEA87EA6-5A54-4822-8DD0-5CF887565E32,1556940459,2019-05-04 11:27:39,1556941363,2019-05-04 11:42:43,1556941394,e8010d0b-a578-4cc4-a56e-2f4415d8a25b__pspm,http://pspm.pingstart.com/api/v4/postback?from=1706&clickid=e8010d0b-a578-4cc4-a56e-2f4415d8a25b__pspm,idfa_BEA87EA6-5A54-4822-8DD0-5CF887565E32,ja
jAXW4hckQmumQvk5ZW2Uxg,newborntown,p1789_920-5984622_767473889,install,1.5,27.82.239.9,61524055-9418-41D0-920C-F60B07598594,1556942986,2019-05-04 12:09:46,1556944178,2019-05-04 12:29:38,1556944208,c88fda44-2378-415b-8ee6-035bb174e90b__pspm,http://pspm.pingstart.com/api/v4/postback?from=1706&clickid=c88fda44-2378-415b-8ee6-035bb174e90b__pspm,idfa_61524055-9418-41D0-920C-F60B07598594,ja
jAXW4hckQmumQvk5ZW2Uxg,newborntown,p1789_920-5984622_767473889,install,1.5,60.105.145.247,A9CFD5F8-C49A-4ABC-92DF-62C3F3292425,1556932931,2019-05-04 09:22:11,1556934262,2019-05-04 09:44:22,1556934294,0f99593f-440f-4dfd-b14a-01ad52a3c1c2__pspm,http://pspm.pingstart.com/api/v4/postback?from=1706&clickid=0f99593f-440f-4dfd-b14a-01ad52a3c1c2__pspm,idfa_A9CFD5F8-C49A-4ABC-92DF-62C3F3292425,ja
jAXW4hckQmumQvk5ZW2Uxg,newborntown,p1789_920-5984622_767473889,install,1.5,126.63.212.214,95EE77E5-1E64-41A3-B42E-A70761AEC709,1556940569,2019-05-04 11:29:29,1556943157,2019-05-04 12:12:37,1556943188,e517e703-6a3f-4a18-aa88-9b81b62577ea__pspm,http://pspm.pingstart.com/api/v4/postback?from=1706&clickid=e517e703-6a3f-4a18-aa88-9b81b62577ea__pspm,idfa_95EE77E5-1E64-41A3-B42E-A70761AEC709,ja
jAXW4hckQmumQvk5ZW2Uxg,newborntown,p1789_920-5984622_767473889,install,1.5,124.18.212.148,18B1F317-A335-4C3D-ADA2-654CDAFD17F5,1556933753,2019-05-04 09:35:53,1556934008,2019-05-04 09:40:08,1556934038,5b786f1b-b512-482b-85c7-6c709111e13c__pspm,http://pspm.pingstart.com/api/v4/postback?from=1706&clickid=5b786f1b-b512-482b-85c7-6c709111e13c__pspm,idfa_18B1F317-A335-4C3D-ADA2-654CDAFD17F5,ja
jAXW4hckQmumQvk5ZW2Uxg,newborntown,p1789_920-5984622_767473889,install,1.5,219.115.209.216,11351A13-90D7-4E09-B21E-ADAD176737D1,1556942672,2019-05-04 12:04:32,1556944939,2019-05-04 12:42:19,1556945102,8498492d-0e44-4300-b303-6bef38085166__pspm,http://pspm.pingstart.com/api/v4/postback?from=1706&clickid=8498492d-0e44-4300-b303-6bef38085166__pspm,idfa_11351A13-90D7-4E09-B21E-ADAD176737D1,ja
jAXW4hckQmumQvk5ZW2Uxg,newborntown,p1789_920-5984622_767473889,install,1.5,126.58.234.176,6CEFBB67-484D-40A8-A1A5-FE952F5B8FA0,1556934944,2019-05-04 09:55:44,1556936269,2019-05-04 10:17:49,1556936300,d193959e-d92e-4d88-bb7f-914c07270853__pspm,http://pspm.pingstart.com/api/v4/postback?from=1706&clickid=d193959e-d92e-4d88-bb7f-914c07270853__pspm,idfa_6CEFBB67-484D-40A8-A1A5-FE952F5B8FA0,ja
jAXW4hckQmumQvk5ZW2Uxg,newborntown,p1789_920-5984622_767473889,install,1.5,126.23.245.209,2A472050-47A4-4687-93FD-576A24F1D917,1556942541,2019-05-04 12:02:21,1556945704,2019-05-04 12:55:04,1556945734,8bdeab84-ef87-44ee-abb7-bdb18cc26734__pspm,http://pspm.pingstart.com/api/v4/postback?from=1706&clickid=8bdeab84-ef87-44ee-abb7-bdb18cc26734__pspm,idfa_2A472050-47A4-4687-93FD-576A24F1D917,ja
jAXW4hckQmumQvk5ZW2Uxg,newborntown,p1789_920-5984622_767473889,install,1.5,39.110.173.8,94A3F7BD-77BB-4F45-A7E3-AAA065A58B2F,1556935201,2019-05-04 10:00:01,1556935763,2019-05-04 10:09:23,1556935794,5a8a5825-d508-49a6-82da-2e5cf6a4eb25__pspm,http://pspm.pingstart.com/api/v4/postback?from=1706&clickid=5a8a5825-d508-49a6-82da-2e5cf6a4eb25__pspm,idfa_94A3F7BD-77BB-4F45-A7E3-AAA065A58B2F,ja
