cid,partner_id,channel_id,action_id,cpi,ip,idfa,click time,click datetime,install time,install datetime,postback time,click id,postback url,unique user id
2m95ijYPSpqQxILfyxebkQ,newborntown,p1839_13_1169,Install,0.35,,e374366d-3ccf-4f34-a3c6-345b0c4cb258,1556922623,2019-05-04 06:30:23,1556922667,2019-05-04 06:31:07,1556922698,87a7049e-0223-46fe-8db0-b19bce945491__pspm,http://pspm.pingstart.com/api/v4/postback?from=1706&clickid=87a7049e-0223-46fe-8db0-b19bce945491__pspm,idfa_e374366d-3ccf-4f34-a3c6-345b0c4cb258,Indonesia
2m95ijYPSpqQxILfyxebkQ,newborntown,p1839_13_1169,Install,0.35,,ae1daa49-7c02-4f75-84cf-84f082786e9a,1556923175,2019-05-04 06:39:35,1556923217,2019-05-04 06:40:17,1556923248,01a13d36-0d7d-4bb2-8549-3ecb87a11ba7__pspm,http://pspm.pingstart.com/api/v4/postback?from=1706&clickid=01a13d36-0d7d-4bb2-8549-3ecb87a11ba7__pspm,idfa_ae1daa49-7c02-4f75-84cf-84f082786e9a,Bahasa%20Indonesia
2m95ijYPSpqQxILfyxebkQ,newborntown,p1839_13_1169,Install,0.35,,fc161101-7d26-4532-8dc1-abd83076e3d5,1556923179,2019-05-04 06:39:39,1556923220,2019-05-04 06:40:20,1556923251,e7f3c946-64c9-4287-bd7c-9f228601c18f__pspm,http://pspm.pingstart.com/api/v4/postback?from=1706&clickid=e7f3c946-64c9-4287-bd7c-9f228601c18f__pspm,idfa_fc161101-7d26-4532-8dc1-abd83076e3d5,Indonesia
2m95ijYPSpqQxILfyxebkQ,newborntown,p1839_13_1169,Install,0.35,,812aace8-cdd7-48cb-94ce-04de8a526692,1556923181,2019-05-04 06:39:41,1556923220,2019-05-04 06:40:20,1556923250,8d13bf01-7fc0-4a34-8729-fe4336c4413f__pspm,http://pspm.pingstart.com/api/v4/postback?from=1706&clickid=8d13bf01-7fc0-4a34-8729-fe4336c4413f__pspm,idfa_812aace8-cdd7-48cb-94ce-04de8a526692,Indonesia
2m95ijYPSpqQxILfyxebkQ,newborntown,p1839_13_1169,Install,0.35,,56932dc5-0bbe-43cf-b4d5-34559ef8f849,1556922578,2019-05-04 06:29:38,1556922613,2019-05-04 06:30:13,1556922644,bc35ac07-41d2-4e8d-818f-20e523eda1a2__pspm,http://pspm.pingstart.com/api/v4/postback?from=1706&clickid=bc35ac07-41d2-4e8d-818f-20e523eda1a2__pspm,idfa_56932dc5-0bbe-43cf-b4d5-34559ef8f849,English
2m95ijYPSpqQxILfyxebkQ,newborntown,p1839_13_1169,Install,0.35,,60046674-27d8-471d-bc14-ad0d1075fb80,1556922442,2019-05-04 06:27:22,1556922483,2019-05-04 06:28:03,1556922514,653cb8db-2d73-4bf4-94a4-09f996d5fd12__pspm,http://pspm.pingstart.com/api/v4/postback?from=1706&clickid=653cb8db-2d73-4bf4-94a4-09f996d5fd12__pspm,idfa_60046674-27d8-471d-bc14-ad0d1075fb80,Bahasa%20Indonesia
2m95ijYPSpqQxILfyxebkQ,newborntown,p1839_13_1169,Install,0.35,,fa6a96cf-1d72-4c09-bace-ad9dff914288,1556922035,2019-05-04 06:20:35,1556922086,2019-05-04 06:21:26,1556922116,e0e73438-c4eb-43ff-af0f-22943cee68d4__pspm,http://pspm.pingstart.com/api/v4/postback?from=1706&clickid=e0e73438-c4eb-43ff-af0f-22943cee68d4__pspm,idfa_fa6a96cf-1d72-4c09-bace-ad9dff914288,Bahasa%20Indonesia
2m95ijYPSpqQxILfyxebkQ,newborntown,p1839_13_1169,Install,0.35,,1aad7beb-0fd7-46db-975e-df8f9b3c5bcc,1556921905,2019-05-04 06:18:25,1556921949,2019-05-04 06:19:09,1556921980,6505303b-bb8b-4456-9c91-a1686188156a__pspm,http://pspm.pingstart.com/api/v4/postback?from=1706&clickid=6505303b-bb8b-4456-9c91-a1686188156a__pspm,idfa_1aad7beb-0fd7-46db-975e-df8f9b3c5bcc,Indonesia
2m95ijYPSpqQxILfyxebkQ,newborntown,p1839_13_1169,Install,0.35,,18db2d83-ac90-45b6-a0d9-0cd39fd55201,1556923052,2019-05-04 06:37:32,1556923085,2019-05-04 06:38:05,1556923116,cc6f41bd-f731-4b5f-a7a9-01b242a6e790__pspm,http://pspm.pingstart.com/api/v4/postback?from=1706&clickid=cc6f41bd-f731-4b5f-a7a9-01b242a6e790__pspm,idfa_18db2d83-ac90-45b6-a0d9-0cd39fd55201,Indonesia
2m95ijYPSpqQxILfyxebkQ,newborntown,p1839_13_1169,Install,0.35,,95e8998c-e832-4ca6-a073-64a02371b790,1556922641,2019-05-04 06:30:41,1556922675,2019-05-04 06:31:15,1556922706,86434b40-fe8c-46a0-aac4-92cd52fe2bdc__pspm,http://pspm.pingstart.com/api/v4/postback?from=1706&clickid=86434b40-fe8c-46a0-aac4-92cd52fe2bdc__pspm,idfa_95e8998c-e832-4ca6-a073-64a02371b790,Bahasa%20Indonesia
2m95ijYPSpqQxILfyxebkQ,newborntown,p1839_13_1169,Install,0.35,,184d8131-32b8-4c01-bb31-251921591eb5,1556922026,2019-05-04 06:20:26,1556922767,2019-05-04 06:32:47,1556922798,92dfa4a4-7799-4b51-8df6-330355bb3160__pspm,http://pspm.pingstart.com/api/v4/postback?from=1706&clickid=92dfa4a4-7799-4b51-8df6-330355bb3160__pspm,idfa_184d8131-32b8-4c01-bb31-251921591eb5,Bahasa%20Indonesia
2m95ijYPSpqQxILfyxebkQ,newborntown,p1839_13_1169,Install,0.35,,f4cc5b28-473f-4839-aabc-095f41752677,1556923041,2019-05-04 06:37:21,1556923081,2019-05-04 06:38:01,1556923112,1f0fa3a1-7afa-404d-ae7f-1dbb73fcc02e__pspm,http://pspm.pingstart.com/api/v4/postback?from=1706&clickid=1f0fa3a1-7afa-404d-ae7f-1dbb73fcc02e__pspm,idfa_f4cc5b28-473f-4839-aabc-095f41752677,Bahasa%20Indonesia
2m95ijYPSpqQxILfyxebkQ,newborntown,p1839_13_1169,Install,0.35,,27a114fb-c454-4ad6-b841-171eeaffecc0,1556923176,2019-05-04 06:39:36,1556923212,2019-05-04 06:40:12,1556923243,3d3e759a-ba5e-428b-9d0d-5462edff8906__pspm,http://pspm.pingstart.com/api/v4/postback?from=1706&clickid=3d3e759a-ba5e-428b-9d0d-5462edff8906__pspm,idfa_27a114fb-c454-4ad6-b841-171eeaffecc0,English
2m95ijYPSpqQxILfyxebkQ,newborntown,p1839_13_1169,Install,0.35,,fc61a36b-93c9-4497-978c-9df8801568a1,1556922694,2019-05-04 06:31:34,1556922729,2019-05-04 06:32:09,1556922759,67f4700b-1138-41cb-92a7-d013752c6a91__pspm,http://pspm.pingstart.com/api/v4/postback?from=1706&clickid=67f4700b-1138-41cb-92a7-d013752c6a91__pspm,idfa_fc61a36b-93c9-4497-978c-9df8801568a1,English
2m95ijYPSpqQxILfyxebkQ,newborntown,p1839_13_1169,Install,0.35,,74b26ef1-443e-4e6a-bee8-be269815fdf3,1556922856,2019-05-04 06:34:16,1556922916,2019-05-04 06:35:16,1556922947,faf406d8-2f32-49e9-a535-78789c6d6267__pspm,http://pspm.pingstart.com/api/v4/postback?from=1706&clickid=faf406d8-2f32-49e9-a535-78789c6d6267__pspm,idfa_74b26ef1-443e-4e6a-bee8-be269815fdf3,Indonesia
2m95ijYPSpqQxILfyxebkQ,newborntown,p1839_13_1169,Install,0.35,,c8ade99b-9218-4adc-8148-8df51547aa96,1556922551,2019-05-04 06:29:11,1556922597,2019-05-04 06:29:57,1556922627,328b5191-4fa2-4d57-b9d5-497cbafde0c5__pspm,http://pspm.pingstart.com/api/v4/postback?from=1706&clickid=328b5191-4fa2-4d57-b9d5-497cbafde0c5__pspm,idfa_c8ade99b-9218-4adc-8148-8df51547aa96,Bahasa%20Indonesia
2m95ijYPSpqQxILfyxebkQ,newborntown,p1839_13_1169,Install,0.35,,2565fe36-7f92-402e-b648-335713c5cbdf,1556922969,2019-05-04 06:36:09,1556923012,2019-05-04 06:36:52,1556923043,58b04901-842b-42f4-84e6-cff15148337a__pspm,http://pspm.pingstart.com/api/v4/postback?from=1706&clickid=58b04901-842b-42f4-84e6-cff15148337a__pspm,idfa_2565fe36-7f92-402e-b648-335713c5cbdf,Bahasa%20Indonesia
2m95ijYPSpqQxILfyxebkQ,newborntown,p1839_13_1169,Install,0.35,,34d0c014-200c-4e93-a163-043a402c8a56,1556922442,2019-05-04 06:27:22,1556922483,2019-05-04 06:28:03,1556922514,41e86070-66f5-4e84-8e14-8732ed205126__pspm,http://pspm.pingstart.com/api/v4/postback?from=1706&clickid=41e86070-66f5-4e84-8e14-8732ed205126__pspm,idfa_34d0c014-200c-4e93-a163-043a402c8a56,Indonesia
2m95ijYPSpqQxILfyxebkQ,newborntown,p1839_13_1169,Install,0.35,,714d9a17-5624-4117-9b02-aceeca95ce2f,1556922575,2019-05-04 06:29:35,1556922618,2019-05-04 06:30:18,1556922648,c72ba187-4321-4f77-9185-75cf146fd545__pspm,http://pspm.pingstart.com/api/v4/postback?from=1706&clickid=c72ba187-4321-4f77-9185-75cf146fd545__pspm,idfa_714d9a17-5624-4117-9b02-aceeca95ce2f,Indonesia
2m95ijYPSpqQxILfyxebkQ,newborntown,p1839_13_1169,Install,0.35,,e00e447d-218b-472c-97af-98f5594721cb,1556923178,2019-05-04 06:39:38,1556923221,2019-05-04 06:40:21,1556923251,24067523-5100-45b1-bb81-7a7ae8567b56__pspm,http://pspm.pingstart.com/api/v4/postback?from=1706&clickid=24067523-5100-45b1-bb81-7a7ae8567b56__pspm,idfa_e00e447d-218b-472c-97af-98f5594721cb,Indonesia
2m95ijYPSpqQxILfyxebkQ,newborntown,p1839_13_1169,Install,0.35,,223cc008-ae99-425f-834c-127f93b0002f,1556922442,2019-05-04 06:27:22,1556922483,2019-05-04 06:28:03,1556922514,ac58fd49-4d81-4111-811f-24b653a70df2__pspm,http://pspm.pingstart.com/api/v4/postback?from=1706&clickid=ac58fd49-4d81-4111-811f-24b653a70df2__pspm,idfa_223cc008-ae99-425f-834c-127f93b0002f,Indonesia
2m95ijYPSpqQxILfyxebkQ,newborntown,p1839_13_1169,Install,0.35,,fb399670-b4e6-48f6-9fa4-c0635ebae0c8,1556922624,2019-05-04 06:30:24,1556922665,2019-05-04 06:31:05,1556922696,aa0ad43c-09a2-4625-803a-f0bcdb304fd0__pspm,http://pspm.pingstart.com/api/v4/postback?from=1706&clickid=aa0ad43c-09a2-4625-803a-f0bcdb304fd0__pspm,idfa_fb399670-b4e6-48f6-9fa4-c0635ebae0c8,Bahasa%20Indonesia
2m95ijYPSpqQxILfyxebkQ,newborntown,p1839_13_1169,Install,0.35,,68cb4d0b-70b4-4f98-8fad-c367897044da,1556922504,2019-05-04 06:28:24,1556922578,2019-05-04 06:29:38,1556922829,91d63fab-48f0-48cf-8d85-0d48f4c591ad__pspm,http://pspm.pingstart.com/api/v4/postback?from=1706&clickid=91d63fab-48f0-48cf-8d85-0d48f4c591ad__pspm,idfa_68cb4d0b-70b4-4f98-8fad-c367897044da,Bahasa%20Indonesia
2m95ijYPSpqQxILfyxebkQ,newborntown,p1839_13_1169,Install,0.35,,765f626c-1c4b-4106-af92-de745c931996,1556922444,2019-05-04 06:27:24,1556922479,2019-05-04 06:27:59,1556922510,1855a73e-fe43-4497-829f-2e06bc26da56__pspm,http://pspm.pingstart.com/api/v4/postback?from=1706&clickid=1855a73e-fe43-4497-829f-2e06bc26da56__pspm,idfa_765f626c-1c4b-4106-af92-de745c931996,Indonesia
2m95ijYPSpqQxILfyxebkQ,newborntown,p1839_13_1169,Install,0.35,,cfcdc394-c1ce-4213-9c5c-f7392f262af5,1556923335,2019-05-04 06:42:15,1556923385,2019-05-04 06:43:05,1556923416,cca953d0-bb93-4f6e-808c-977cffe9a714__pspm,http://pspm.pingstart.com/api/v4/postback?from=1706&clickid=cca953d0-bb93-4f6e-808c-977cffe9a714__pspm,idfa_cfcdc394-c1ce-4213-9c5c-f7392f262af5,Indonesia
2m95ijYPSpqQxILfyxebkQ,newborntown,p1839_13_1169,Install,0.35,,98b62b78-73da-482c-8c72-0ea19c7a5ae7,1556922553,2019-05-04 06:29:13,1556922669,2019-05-04 06:31:09,1556922833,e26f8d38-68c0-4111-ae98-5bfac19f3ec8__pspm,http://pspm.pingstart.com/api/v4/postback?from=1706&clickid=e26f8d38-68c0-4111-ae98-5bfac19f3ec8__pspm,idfa_98b62b78-73da-482c-8c72-0ea19c7a5ae7,Bahasa%20Indonesia
2m95ijYPSpqQxILfyxebkQ,newborntown,p1839_13_1169,Install,0.35,,e33f1f13-436b-4cc7-9d59-3d25b8173df8,1556922985,2019-05-04 06:36:25,1556923029,2019-05-04 06:37:09,1556923059,2a9faf55-9746-497a-b5a8-a80f126d390e__pspm,http://pspm.pingstart.com/api/v4/postback?from=1706&clickid=2a9faf55-9746-497a-b5a8-a80f126d390e__pspm,idfa_e33f1f13-436b-4cc7-9d59-3d25b8173df8,English
2m95ijYPSpqQxILfyxebkQ,newborntown,p1839_13_1169,Install,0.35,,fd82af6d-bb8d-4bb7-b32a-2ff4e2139b14,1556922492,2019-05-04 06:28:12,1556922539,2019-05-04 06:28:59,1556922569,985d33b8-7d05-43f1-aeda-989f4095c16c__pspm,http://pspm.pingstart.com/api/v4/postback?from=1706&clickid=985d33b8-7d05-43f1-aeda-989f4095c16c__pspm,idfa_fd82af6d-bb8d-4bb7-b32a-2ff4e2139b14,Indonesia
2m95ijYPSpqQxILfyxebkQ,newborntown,p1839_13_1169,Install,0.35,,42dc8970-5249-4cd8-b21e-0dce1667db71,1556922981,2019-05-04 06:36:21,1556923218,2019-05-04 06:40:18,1556923249,cd7f8f45-9346-4558-b977-fe9c1e42005b__pspm,http://pspm.pingstart.com/api/v4/postback?from=1706&clickid=cd7f8f45-9346-4558-b977-fe9c1e42005b__pspm,idfa_42dc8970-5249-4cd8-b21e-0dce1667db71,Bahasa%20Indonesia
2m95ijYPSpqQxILfyxebkQ,newborntown,p1839_13_1169,Install,0.35,,8827d503-5fb6-4bd3-a7af-24a3092cfd9a,1556922673,2019-05-04 06:31:13,1556922711,2019-05-04 06:31:51,1556922742,c2b05b12-e2db-45b0-be11-d30d915d6687__pspm,http://pspm.pingstart.com/api/v4/postback?from=1706&clickid=c2b05b12-e2db-45b0-be11-d30d915d6687__pspm,idfa_8827d503-5fb6-4bd3-a7af-24a3092cfd9a,Bahasa%20Indonesia
2m95ijYPSpqQxILfyxebkQ,newborntown,p1839_13_1169,Install,0.35,,1e7c6281-3fa8-42b1-b9fb-270c00325d79,1556923175,2019-05-04 06:39:35,1556923215,2019-05-04 06:40:15,1556923245,395e1be3-ad0a-4b4e-9821-0bd3cd3a9212__pspm,http://pspm.pingstart.com/api/v4/postback?from=1706&clickid=395e1be3-ad0a-4b4e-9821-0bd3cd3a9212__pspm,idfa_1e7c6281-3fa8-42b1-b9fb-270c00325d79,English
2m95ijYPSpqQxILfyxebkQ,newborntown,p1839_13_1169,Install,0.35,,8939083a-84f3-41b7-9dfe-23edf05c7f47,1556922627,2019-05-04 06:30:27,1556922679,2019-05-04 06:31:19,1556922709,6adfb0d0-d281-43b7-95d7-b9eb5bbb8ae5__pspm,http://pspm.pingstart.com/api/v4/postback?from=1706&clickid=6adfb0d0-d281-43b7-95d7-b9eb5bbb8ae5__pspm,idfa_8939083a-84f3-41b7-9dfe-23edf05c7f47,Bahasa%20Indonesia
2m95ijYPSpqQxILfyxebkQ,newborntown,p1839_13_1169,Install,0.35,,db817ea1-5bec-40ee-a4a0-ffa91a6f309c,1556923276,2019-05-04 06:41:16,1556923314,2019-05-04 06:41:54,1556923345,616ff54d-2d61-4d57-ae40-352d23efb4a6__pspm,http://pspm.pingstart.com/api/v4/postback?from=1706&clickid=616ff54d-2d61-4d57-ae40-352d23efb4a6__pspm,idfa_db817ea1-5bec-40ee-a4a0-ffa91a6f309c,Indonesia
2m95ijYPSpqQxILfyxebkQ,newborntown,p1839_13_1169,Install,0.35,,1548f2dd-fcca-4d29-aebf-e99e8f2e26b8,1556923275,2019-05-04 06:41:15,1556923319,2019-05-04 06:41:59,1556923350,234cc02b-2532-4252-b149-039662c9aa0c__pspm,http://pspm.pingstart.com/api/v4/postback?from=1706&clickid=234cc02b-2532-4252-b149-039662c9aa0c__pspm,idfa_1548f2dd-fcca-4d29-aebf-e99e8f2e26b8,Bahasa%20Indonesia
2m95ijYPSpqQxILfyxebkQ,newborntown,p1839_13_1169,Install,0.35,,67e36fb1-9042-4cd8-938d-3732722dfa49,1556923167,2019-05-04 06:39:27,1556923275,2019-05-04 06:41:15,1556923306,eee582fa-8e9f-4e75-a1ec-f5fc1ef19cfe__pspm,http://pspm.pingstart.com/api/v4/postback?from=1706&clickid=eee582fa-8e9f-4e75-a1ec-f5fc1ef19cfe__pspm,idfa_67e36fb1-9042-4cd8-938d-3732722dfa49,Indonesia
2m95ijYPSpqQxILfyxebkQ,newborntown,p1839_13_1169,Install,0.35,,a112a7c7-eb1a-4f5e-b6f4-55fcc34f54cc,1556921856,2019-05-04 06:17:36,1556921893,2019-05-04 06:18:13,1556921923,985fb867-2142-4b7a-b163-4182c0c11966__pspm,http://pspm.pingstart.com/api/v4/postback?from=1706&clickid=985fb867-2142-4b7a-b163-4182c0c11966__pspm,idfa_a112a7c7-eb1a-4f5e-b6f4-55fcc34f54cc,Bahasa%20Indonesia
2m95ijYPSpqQxILfyxebkQ,newborntown,p1839_13_1169,Install,0.35,,4f437504-1518-48c5-ad0a-76dc71a0ed87,1556923356,2019-05-04 06:42:36,1556923410,2019-05-04 06:43:30,1556923441,ab20989f-c6e5-436e-b6de-790ab7bbc07f__pspm,http://pspm.pingstart.com/api/v4/postback?from=1706&clickid=ab20989f-c6e5-436e-b6de-790ab7bbc07f__pspm,idfa_4f437504-1518-48c5-ad0a-76dc71a0ed87,Bahasa%20Indonesia
2m95ijYPSpqQxILfyxebkQ,newborntown,p1839_13_1169,Install,0.35,,174454aa-3ee3-41a3-bf02-5bd0c5212598,1556923097,2019-05-04 06:38:17,1556923141,2019-05-04 06:39:01,1556923171,7c450003-5528-4818-bfbc-a56022d8245f__pspm,http://pspm.pingstart.com/api/v4/postback?from=1706&clickid=7c450003-5528-4818-bfbc-a56022d8245f__pspm,idfa_174454aa-3ee3-41a3-bf02-5bd0c5212598,Indonesia
2m95ijYPSpqQxILfyxebkQ,newborntown,p1839_13_1169,Install,0.35,,7ed5a611-4a95-4cc4-85c7-fb9a8e922443,1556922807,2019-05-04 06:33:27,1556923006,2019-05-04 06:36:46,1556923037,b2f44817-1e03-492d-9e1d-70b020684109__pspm,http://pspm.pingstart.com/api/v4/postback?from=1706&clickid=b2f44817-1e03-492d-9e1d-70b020684109__pspm,idfa_7ed5a611-4a95-4cc4-85c7-fb9a8e922443,Indonesia
2m95ijYPSpqQxILfyxebkQ,newborntown,p1839_13_1169,Install,0.35,,fcc4d170-1841-402b-96aa-a2938936d39b,1556923335,2019-05-04 06:42:15,1556923386,2019-05-04 06:43:06,1556923417,fc54941f-6cbd-47b8-a10d-fec14d93fb03__pspm,http://pspm.pingstart.com/api/v4/postback?from=1706&clickid=fc54941f-6cbd-47b8-a10d-fec14d93fb03__pspm,idfa_fcc4d170-1841-402b-96aa-a2938936d39b,Indonesia
2m95ijYPSpqQxILfyxebkQ,newborntown,p1839_13_1169,Install,0.35,,82a181f8-b285-44a7-89f9-3b82efdb504e,1556922610,2019-05-04 06:30:10,1556922664,2019-05-04 06:31:04,1556922694,e401cbe0-8811-4f65-bdff-275d5721976f__pspm,http://pspm.pingstart.com/api/v4/postback?from=1706&clickid=e401cbe0-8811-4f65-bdff-275d5721976f__pspm,idfa_82a181f8-b285-44a7-89f9-3b82efdb504e,Bahasa%20Indonesia
2m95ijYPSpqQxILfyxebkQ,newborntown,p1839_13_1169,Install,0.35,,9938a363-5a7a-4b6e-9f8d-da31f9cec867,1556922629,2019-05-04 06:30:29,1556922690,2019-05-04 06:31:30,1556922721,1c70c441-dcb1-4ad6-a7d9-359bbefb3e8c__pspm,http://pspm.pingstart.com/api/v4/postback?from=1706&clickid=1c70c441-dcb1-4ad6-a7d9-359bbefb3e8c__pspm,idfa_9938a363-5a7a-4b6e-9f8d-da31f9cec867,Bahasa%20Indonesia
2m95ijYPSpqQxILfyxebkQ,newborntown,p1839_13_1169,Install,0.35,,851a8a38-229d-4e95-9310-1c5fd1b456b4,1556923350,2019-05-04 06:42:30,1556923388,2019-05-04 06:43:08,1556923418,95d2df33-54c4-41f2-9a03-a3acfc935044__pspm,http://pspm.pingstart.com/api/v4/postback?from=1706&clickid=95d2df33-54c4-41f2-9a03-a3acfc935044__pspm,idfa_851a8a38-229d-4e95-9310-1c5fd1b456b4,Indonesia
2m95ijYPSpqQxILfyxebkQ,newborntown,p1839_13_1169,Install,0.35,,3c89a4f3-1821-4f1c-b3f2-d7413450ee66,1556923271,2019-05-04 06:41:11,1556923311,2019-05-04 06:41:51,1556923341,b143af15-2eb0-4e70-b2fc-2a220f552295__pspm,http://pspm.pingstart.com/api/v4/postback?from=1706&clickid=b143af15-2eb0-4e70-b2fc-2a220f552295__pspm,idfa_3c89a4f3-1821-4f1c-b3f2-d7413450ee66,Indonesia
2m95ijYPSpqQxILfyxebkQ,newborntown,p1839_13_1169,Install,0.35,,d0629b6d-c028-4ae5-896d-25857edc7a81,1556923098,2019-05-04 06:38:18,1556923133,2019-05-04 06:38:53,1556923164,0308d5f3-282b-4ebe-9600-26cd9e506ba3__pspm,http://pspm.pingstart.com/api/v4/postback?from=1706&clickid=0308d5f3-282b-4ebe-9600-26cd9e506ba3__pspm,idfa_d0629b6d-c028-4ae5-896d-25857edc7a81,Indonesia
2m95ijYPSpqQxILfyxebkQ,newborntown,p1839_13_1169,Install,0.35,,aa9a995e-27cb-4c84-84a9-4863d3f8d622,1556922961,2019-05-04 06:36:01,1556922999,2019-05-04 06:36:39,1556923030,82422837-29d1-4bfd-971d-1c90e528b9c0__pspm,http://pspm.pingstart.com/api/v4/postback?from=1706&clickid=82422837-29d1-4bfd-971d-1c90e528b9c0__pspm,idfa_aa9a995e-27cb-4c84-84a9-4863d3f8d622,Indonesia
2m95ijYPSpqQxILfyxebkQ,newborntown,p1839_13_1169,Install,0.35,,c42c59c1-affd-4b63-8986-761f2b8d6fa7,1556923280,2019-05-04 06:41:20,1556923318,2019-05-04 06:41:58,1556923348,d9efe85f-0c01-42ee-8d31-2faa5efed4ec__pspm,http://pspm.pingstart.com/api/v4/postback?from=1706&clickid=d9efe85f-0c01-42ee-8d31-2faa5efed4ec__pspm,idfa_c42c59c1-affd-4b63-8986-761f2b8d6fa7,Bahasa%20Indonesia
2m95ijYPSpqQxILfyxebkQ,newborntown,p1839_13_1169,Install,0.35,,7efc05b3-967b-418e-9c94-9e0dd5ed68bb,1556923159,2019-05-04 06:39:19,1556923193,2019-05-04 06:39:53,1556923223,38ba0832-a889-499f-87aa-9e903445c2da__pspm,http://pspm.pingstart.com/api/v4/postback?from=1706&clickid=38ba0832-a889-499f-87aa-9e903445c2da__pspm,idfa_7efc05b3-967b-418e-9c94-9e0dd5ed68bb,Indonesia
2m95ijYPSpqQxILfyxebkQ,newborntown,p1839_13_1169,Install,0.35,,62ccc366-7744-49d1-8f27-7fb134f90431,1556922900,2019-05-04 06:35:00,1556922940,2019-05-04 06:35:40,1556922971,039012f0-6f49-44b0-b440-3fcb7a863c07__pspm,http://pspm.pingstart.com/api/v4/postback?from=1706&clickid=039012f0-6f49-44b0-b440-3fcb7a863c07__pspm,idfa_62ccc366-7744-49d1-8f27-7fb134f90431,Bahasa%20Indonesia
2m95ijYPSpqQxILfyxebkQ,newborntown,p1839_13_1169,Install,0.35,,489a32fa-71be-46c3-a052-f56be4186215,1556922733,2019-05-04 06:32:13,1556922769,2019-05-04 06:32:49,1556922800,949eac26-62dc-4003-be5c-253f8a94c6f6__pspm,http://pspm.pingstart.com/api/v4/postback?from=1706&clickid=949eac26-62dc-4003-be5c-253f8a94c6f6__pspm,idfa_489a32fa-71be-46c3-a052-f56be4186215,Indonesia
2m95ijYPSpqQxILfyxebkQ,newborntown,p1839_13_1169,Install,0.35,,2fb76b6b-c757-4230-b021-9b2dad03e796,1556922915,2019-05-04 06:35:15,1556922956,2019-05-04 06:35:56,1556922987,1b97828a-415e-44aa-89e1-bfebe0ece723__pspm,http://pspm.pingstart.com/api/v4/postback?from=1706&clickid=1b97828a-415e-44aa-89e1-bfebe0ece723__pspm,idfa_2fb76b6b-c757-4230-b021-9b2dad03e796,Bahasa%20Indonesia
2m95ijYPSpqQxILfyxebkQ,newborntown,p1839_13_1169,Install,0.35,,9c250560-5d82-4e33-96c7-bde15bf88d00,1556922081,2019-05-04 06:21:21,1556922118,2019-05-04 06:21:58,1556922148,ad5f5b4f-e140-4794-94f5-cb7dcf26e809__pspm,http://pspm.pingstart.com/api/v4/postback?from=1706&clickid=ad5f5b4f-e140-4794-94f5-cb7dcf26e809__pspm,idfa_9c250560-5d82-4e33-96c7-bde15bf88d00,Indonesia
2m95ijYPSpqQxILfyxebkQ,newborntown,p1839_13_1169,Install,0.35,,66b019ff-e092-4ae9-a539-39d06fd62d8d,1556922867,2019-05-04 06:34:27,1556922902,2019-05-04 06:35:02,1556922933,a5dbbf68-71fe-4a2b-bee4-4ed855eb2907__pspm,http://pspm.pingstart.com/api/v4/postback?from=1706&clickid=a5dbbf68-71fe-4a2b-bee4-4ed855eb2907__pspm,idfa_66b019ff-e092-4ae9-a539-39d06fd62d8d,Indonesia
2m95ijYPSpqQxILfyxebkQ,newborntown,p1839_13_1169,Install,0.35,,3e13270c-cf0b-45d2-bbcf-492db9e1eb8c,1556922439,2019-05-04 06:27:19,1556922476,2019-05-04 06:27:56,1556922506,5edc0936-54bf-403f-b0b4-b35788ecfb44__pspm,http://pspm.pingstart.com/api/v4/postback?from=1706&clickid=5edc0936-54bf-403f-b0b4-b35788ecfb44__pspm,idfa_3e13270c-cf0b-45d2-bbcf-492db9e1eb8c,Indonesia
2m95ijYPSpqQxILfyxebkQ,newborntown,p1839_13_1169,Install,0.35,,6c120118-8d1e-4295-968e-fc319e1a3fde,1556922504,2019-05-04 06:28:24,1556922546,2019-05-04 06:29:06,1556922576,5ba5539b-95bc-455a-8eb8-05a25212d293__pspm,http://pspm.pingstart.com/api/v4/postback?from=1706&clickid=5ba5539b-95bc-455a-8eb8-05a25212d293__pspm,idfa_6c120118-8d1e-4295-968e-fc319e1a3fde,Bahasa%20Indonesia
2m95ijYPSpqQxILfyxebkQ,newborntown,p1839_13_1169,Install,0.35,,c7b636ab-9e75-457b-9b30-d98b4dc850b8,1556923218,2019-05-04 06:40:18,1556923256,2019-05-04 06:40:56,1556923286,3b7be9f2-a5f5-4371-b419-56c794ba7b9e__pspm,http://pspm.pingstart.com/api/v4/postback?from=1706&clickid=3b7be9f2-a5f5-4371-b419-56c794ba7b9e__pspm,idfa_c7b636ab-9e75-457b-9b30-d98b4dc850b8,Indonesia
2m95ijYPSpqQxILfyxebkQ,newborntown,p1839_13_1169,Install,0.35,,5033b7bb-31a4-4d14-b52d-79d6d0566cf1,1556922962,2019-05-04 06:36:02,1556923034,2019-05-04 06:37:14,1556923065,db772175-9638-40cb-8051-95bb3afb687c__pspm,http://pspm.pingstart.com/api/v4/postback?from=1706&clickid=db772175-9638-40cb-8051-95bb3afb687c__pspm,idfa_5033b7bb-31a4-4d14-b52d-79d6d0566cf1,Bahasa%20Indonesia
2m95ijYPSpqQxILfyxebkQ,newborntown,p1839_13_1169,Install,0.35,,1ffff3bd-1b88-4d85-829c-52891567ebff,1556923182,2019-05-04 06:39:42,1556923220,2019-05-04 06:40:20,1556923251,ffde8494-2fc2-4a03-b7a9-8697df146e08__pspm,http://pspm.pingstart.com/api/v4/postback?from=1706&clickid=ffde8494-2fc2-4a03-b7a9-8697df146e08__pspm,idfa_1ffff3bd-1b88-4d85-829c-52891567ebff,Bahasa%20Indonesia
2m95ijYPSpqQxILfyxebkQ,newborntown,p1839_13_1169,Install,0.35,,60a4cf31-1ef5-4423-a055-6e37ee3722c3,1556923276,2019-05-04 06:41:16,1556923314,2019-05-04 06:41:54,1556923344,c97a4d8a-e368-4af3-bfce-99ca5dccbcf7__pspm,http://pspm.pingstart.com/api/v4/postback?from=1706&clickid=c97a4d8a-e368-4af3-bfce-99ca5dccbcf7__pspm,idfa_60a4cf31-1ef5-4423-a055-6e37ee3722c3,Indonesia
2m95ijYPSpqQxILfyxebkQ,newborntown,p1839_13_1169,Install,0.35,,ec7e66fe-2c73-4dd3-9ac4-d25c7b719d43,1556922494,2019-05-04 06:28:14,1556922535,2019-05-04 06:28:55,1556922565,d32ad96a-35f9-4a94-9cdb-e59a246f1389__pspm,http://pspm.pingstart.com/api/v4/postback?from=1706&clickid=d32ad96a-35f9-4a94-9cdb-e59a246f1389__pspm,idfa_ec7e66fe-2c73-4dd3-9ac4-d25c7b719d43,Indonesia
2m95ijYPSpqQxILfyxebkQ,newborntown,p1839_13_1169,Install,0.35,,4de6c598-044d-4280-a8e6-f16a0709e5d6,1556922448,2019-05-04 06:27:28,1556922486,2019-05-04 06:28:06,1556922517,218a2406-17f1-4ea4-b363-d5bad3b37466__pspm,http://pspm.pingstart.com/api/v4/postback?from=1706&clickid=218a2406-17f1-4ea4-b363-d5bad3b37466__pspm,idfa_4de6c598-044d-4280-a8e6-f16a0709e5d6,Bahasa%20Indonesia
2m95ijYPSpqQxILfyxebkQ,newborntown,p1839_13_1169,Install,0.35,,3ca04983-1515-465a-9635-1b8818e9c7fa,1556922079,2019-05-04 06:21:19,1556922119,2019-05-04 06:21:59,1556922150,83e9ada0-6268-4ebd-bce7-5236374650e5__pspm,http://pspm.pingstart.com/api/v4/postback?from=1706&clickid=83e9ada0-6268-4ebd-bce7-5236374650e5__pspm,idfa_3ca04983-1515-465a-9635-1b8818e9c7fa,Indonesia
2m95ijYPSpqQxILfyxebkQ,newborntown,p1839_13_1169,Install,0.35,,9d87092a-f509-43c3-90e4-a611d1985f77,1556922925,2019-05-04 06:35:25,1556922964,2019-05-04 06:36:04,1556922995,72b4fb6c-ef82-4d0c-8ed3-9f030bc50682__pspm,http://pspm.pingstart.com/api/v4/postback?from=1706&clickid=72b4fb6c-ef82-4d0c-8ed3-9f030bc50682__pspm,idfa_9d87092a-f509-43c3-90e4-a611d1985f77,Indonesia
2m95ijYPSpqQxILfyxebkQ,newborntown,p1839_13_1169,Install,0.35,,1933ba0f-6bc5-4139-9d5b-927c716abb0f,1556921855,2019-05-04 06:17:35,1556921891,2019-05-04 06:18:11,1556921921,4cd2dcf1-8d6b-4d54-8fab-36cb3344dc29__pspm,http://pspm.pingstart.com/api/v4/postback?from=1706&clickid=4cd2dcf1-8d6b-4d54-8fab-36cb3344dc29__pspm,idfa_1933ba0f-6bc5-4139-9d5b-927c716abb0f,Bahasa%20Indonesia
