cid,partner_id,channel_id,action_id,cpi,ip,idfa,click time,click datetime,install time,install datetime,postback time,click id,postback url,unique user id
LErastUuRs6BwHhfLplDzg,newborntown,p1833_trpe6bowf0ii1w15hled,Install,1.2,121.128.211.21,6DBAC794-2BC6-4CBC-A502-2D8C54DFDAD0,1557541132,2019-05-11 10:18:52,1557541259,2019-05-11 10:20:59,1557541299,167f28e2-3b80-492a-941d-c99175257f54__pspm,http://pspm.pingstart.com/api/v4/postback?from=1706&clickid=167f28e2-3b80-492a-941d-c99175257f54__pspm,idfa_6DBAC794-2BC6-4CBC-A502-2D8C54DFDAD0,ko
LErastUuRs6BwHhfLplDzg,newborntown,p1833_trpe6bowf0ii1w15hled,Install,1.2,210.106.1.151,8D0DD708-9011-4449-A764-470A1C48314E,1557542740,2019-05-11 10:45:40,1557543002,2019-05-11 10:50:02,1557543043,6dbec524-f0cc-4528-b86c-ecc6d35e3785__pspm,http://pspm.pingstart.com/api/v4/postback?from=1706&clickid=6dbec524-f0cc-4528-b86c-ecc6d35e3785__pspm,idfa_8D0DD708-9011-4449-A764-470A1C48314E,ko
LErastUuRs6BwHhfLplDzg,newborntown,p1833_trpe6bowf0ii1w15hled,Install,1.2,119.192.145.35,23093880-4E0B-4EB1-9155-EC8C783089C3,1557540709,2019-05-11 10:11:49,1557540820,2019-05-11 10:13:40,1557540855,db7e990c-144f-42cb-aa1f-467e1a7a574a__pspm,http://pspm.pingstart.com/api/v4/postback?from=1706&clickid=db7e990c-144f-42cb-aa1f-467e1a7a574a__pspm,idfa_23093880-4E0B-4EB1-9155-EC8C783089C3,ko
LErastUuRs6BwHhfLplDzg,newborntown,p1833_trpe6bowf0ii1w15hled,Install,1.2,113.52.207.141,C6B4F145-D5C1-4D17-9BB1-242C1680F718,1557541599,2019-05-11 10:26:39,1557541720,2019-05-11 10:28:40,1557541756,da27a2da-e218-4d1e-9859-762e99850ada__pspm,http://pspm.pingstart.com/api/v4/postback?from=1706&clickid=da27a2da-e218-4d1e-9859-762e99850ada__pspm,idfa_C6B4F145-D5C1-4D17-9BB1-242C1680F718,ko
LErastUuRs6BwHhfLplDzg,newborntown,p1833_trpe6bowf0ii1w15hled,Install,1.2,125.178.66.175,AAA1AAFF-8B65-423E-BD88-B76D6B3E11CD,1557540569,2019-05-11 10:09:29,1557540661,2019-05-11 10:11:01,1557540698,260e9ede-20ef-4c78-a876-491c0f3792fc__pspm,http://pspm.pingstart.com/api/v4/postback?from=1706&clickid=260e9ede-20ef-4c78-a876-491c0f3792fc__pspm,idfa_AAA1AAFF-8B65-423E-BD88-B76D6B3E11CD,ko
LErastUuRs6BwHhfLplDzg,newborntown,p1833_trpe6bowf0ii1w15hled,Install,1.2,125.128.137.183,92E8B804-4303-47FD-B63D-2992B41006BE,1557542335,2019-05-11 10:38:55,1557542460,2019-05-11 10:41:00,1557542490,42fda583-c6c8-4006-a51c-c0d2370cc054__pspm,http://pspm.pingstart.com/api/v4/postback?from=1706&clickid=42fda583-c6c8-4006-a51c-c0d2370cc054__pspm,idfa_92E8B804-4303-47FD-B63D-2992B41006BE,ko
LErastUuRs6BwHhfLplDzg,newborntown,p1833_trpe6bowf0ii1w15hled,Install,1.2,59.8.243.18,7982E50D-CFC9-4BF3-A6D2-5C1340671DDC,1557543779,2019-05-11 11:02:59,1557543898,2019-05-11 11:04:58,1557543931,5cd68716-415b-461c-8906-b774f6a30fc7__pspm,http://pspm.pingstart.com/api/v4/postback?from=1706&clickid=5cd68716-415b-461c-8906-b774f6a30fc7__pspm,idfa_7982E50D-CFC9-4BF3-A6D2-5C1340671DDC,ko
LErastUuRs6BwHhfLplDzg,newborntown,p1833_trpe6bowf0ii1w15hled,Install,1.2,118.44.205.96,2969BA5B-E4EE-4E64-A1BC-9F564D78A1DB,1557542197,2019-05-11 10:36:37,1557542315,2019-05-11 10:38:35,1557542354,2af1031e-d3e3-4246-abc7-c7d83efeb07d__pspm,http://pspm.pingstart.com/api/v4/postback?from=1706&clickid=2af1031e-d3e3-4246-abc7-c7d83efeb07d__pspm,idfa_2969BA5B-E4EE-4E64-A1BC-9F564D78A1DB,ko
LErastUuRs6BwHhfLplDzg,newborntown,p1833_trpe6bowf0ii1w15hled,Install,1.2,175.211.43.243,58540271-AC57-41FB-89F8-68B00EF67F04,1557542337,2019-05-11 10:38:57,1557542445,2019-05-11 10:40:45,1557542486,2aeb37cc-d64f-4add-811e-84a17722d470__pspm,http://pspm.pingstart.com/api/v4/postback?from=1706&clickid=2aeb37cc-d64f-4add-811e-84a17722d470__pspm,idfa_58540271-AC57-41FB-89F8-68B00EF67F04,ko
LErastUuRs6BwHhfLplDzg,newborntown,p1833_trpe6bowf0ii1w15hled,Install,1.2,1.240.105.218,CE6DC9BF-D017-40D8-918D-F3A6C8AFA604,1557540583,2019-05-11 10:09:43,1557540686,2019-05-11 10:11:26,1557540717,d54b9561-2527-4785-8004-65889fa9f7e8__pspm,http://pspm.pingstart.com/api/v4/postback?from=1706&clickid=d54b9561-2527-4785-8004-65889fa9f7e8__pspm,idfa_CE6DC9BF-D017-40D8-918D-F3A6C8AFA604,ko
LErastUuRs6BwHhfLplDzg,newborntown,p1833_trpe6bowf0ii1w15hled,Install,1.2,121.163.52.95,D906DEF1-3E74-4C12-AEE9-E830779D6206,1557543167,2019-05-11 10:52:47,1557543306,2019-05-11 10:55:06,1557543338,34c084bf-6c41-4e72-a7c0-e1369fefb43b__pspm,http://pspm.pingstart.com/api/v4/postback?from=1706&clickid=34c084bf-6c41-4e72-a7c0-e1369fefb43b__pspm,idfa_D906DEF1-3E74-4C12-AEE9-E830779D6206,ko
LErastUuRs6BwHhfLplDzg,newborntown,p1833_trpe6bowf0ii1w15hled,Install,1.2,118.35.150.39,1F14DD0C-6D70-4F2B-8458-429F193E63F9,1557541894,2019-05-11 10:31:34,1557541998,2019-05-11 10:33:18,1557542030,201c9c35-66d7-480c-9bfa-0d1bcfde0f63__pspm,http://pspm.pingstart.com/api/v4/postback?from=1706&clickid=201c9c35-66d7-480c-9bfa-0d1bcfde0f63__pspm,idfa_1F14DD0C-6D70-4F2B-8458-429F193E63F9,ko
LErastUuRs6BwHhfLplDzg,newborntown,p1833_trpe6bowf0ii1w15hled,Install,1.2,59.23.199.5,2EDAC8B3-0A99-464D-B601-6BD688CD0680,1557541416,2019-05-11 10:23:36,1557541537,2019-05-11 10:25:37,1557541577,a9666c0a-4aa1-4a65-b087-a1763b424ba8__pspm,http://pspm.pingstart.com/api/v4/postback?from=1706&clickid=a9666c0a-4aa1-4a65-b087-a1763b424ba8__pspm,idfa_2EDAC8B3-0A99-464D-B601-6BD688CD0680,ko
LErastUuRs6BwHhfLplDzg,newborntown,p1833_trpe6bowf0ii1w15hled,Install,1.2,49.164.38.24,23A94FCB-2194-40EA-8F7F-A299B2B1F1BA,1557540268,2019-05-11 10:04:28,1557540386,2019-05-11 10:06:26,1557540416,5a7a02b3-6cca-4fd8-bc41-a797ebf70e06__pspm,http://pspm.pingstart.com/api/v4/postback?from=1706&clickid=5a7a02b3-6cca-4fd8-bc41-a797ebf70e06__pspm,idfa_23A94FCB-2194-40EA-8F7F-A299B2B1F1BA,ko
LErastUuRs6BwHhfLplDzg,newborntown,p1833_trpe6bowf0ii1w15hled,Install,1.2,221.146.69.63,423FC3AC-D25D-4909-BBCC-084BFB2DA2A1,1557541285,2019-05-11 10:21:25,1557541398,2019-05-11 10:23:18,1557541432,c4a50ac4-af31-4099-8111-115b36898baf__pspm,http://pspm.pingstart.com/api/v4/postback?from=1706&clickid=c4a50ac4-af31-4099-8111-115b36898baf__pspm,idfa_423FC3AC-D25D-4909-BBCC-084BFB2DA2A1,ko
LErastUuRs6BwHhfLplDzg,newborntown,p1833_trpe6bowf0ii1w15hled,Install,1.2,124.62.146.211,470FB21F-3CF9-445E-BCC7-5C46B4DC8E90,1557541711,2019-05-11 10:28:31,1557541810,2019-05-11 10:30:10,1557541841,69853efe-e506-4139-a589-216b08d086eb__pspm,http://pspm.pingstart.com/api/v4/postback?from=1706&clickid=69853efe-e506-4139-a589-216b08d086eb__pspm,idfa_470FB21F-3CF9-445E-BCC7-5C46B4DC8E90,ko
LErastUuRs6BwHhfLplDzg,newborntown,p1833_trpe6bowf0ii1w15hled,Install,1.2,14.55.203.174,979046C9-93FE-4E0F-B6E2-91F44BC43DB0,1557542035,2019-05-11 10:33:55,1557542200,2019-05-11 10:36:40,1557542230,cdbbcc8d-450a-42c9-8315-4eef7c510807__pspm,http://pspm.pingstart.com/api/v4/postback?from=1706&clickid=cdbbcc8d-450a-42c9-8315-4eef7c510807__pspm,idfa_979046C9-93FE-4E0F-B6E2-91F44BC43DB0,ko
LErastUuRs6BwHhfLplDzg,newborntown,p1833_trpe6bowf0ii1w15hled,Install,1.2,218.209.89.147,42D5CA88-4AC3-4377-BA0A-10DF35CA7484,1557543042,2019-05-11 10:50:42,1557543182,2019-05-11 10:53:02,1557543217,86f27211-ce4e-4757-a127-36973a49e7f8__pspm,http://pspm.pingstart.com/api/v4/postback?from=1706&clickid=86f27211-ce4e-4757-a127-36973a49e7f8__pspm,idfa_42D5CA88-4AC3-4377-BA0A-10DF35CA7484,ko
LErastUuRs6BwHhfLplDzg,newborntown,p1833_trpe6bowf0ii1w15hled,Install,1.2,124.49.250.178,29C8D2C3-C167-4F8F-90B9-E4BE3BE9AFBD,1557540568,2019-05-11 10:09:28,1557540715,2019-05-11 10:11:55,1557540748,b2ada10f-6ed7-4a4e-b534-45242f9de203__pspm,http://pspm.pingstart.com/api/v4/postback?from=1706&clickid=b2ada10f-6ed7-4a4e-b534-45242f9de203__pspm,idfa_29C8D2C3-C167-4F8F-90B9-E4BE3BE9AFBD,ko
LErastUuRs6BwHhfLplDzg,newborntown,p1833_trpe6bowf0ii1w15hled,Install,1.2,222.104.111.205,F39BBF6F-C387-4DC6-AFC8-BB200A98CF61,1557542509,2019-05-11 10:41:49,1557542706,2019-05-11 10:45:06,1557542748,ae1d521a-d5a3-4faa-a316-36ca5664941f__pspm,http://pspm.pingstart.com/api/v4/postback?from=1706&clickid=ae1d521a-d5a3-4faa-a316-36ca5664941f__pspm,idfa_F39BBF6F-C387-4DC6-AFC8-BB200A98CF61,ko
LErastUuRs6BwHhfLplDzg,newborntown,p1833_trpe6bowf0ii1w15hled,Install,1.2,180.66.222.60,95462103-F02D-41A4-8BEF-20D99094F66D,1557541876,2019-05-11 10:31:16,1557541975,2019-05-11 10:32:55,1557542012,37c48a29-2a3b-4abf-aeab-271ba58e133d__pspm,http://pspm.pingstart.com/api/v4/postback?from=1706&clickid=37c48a29-2a3b-4abf-aeab-271ba58e133d__pspm,idfa_95462103-F02D-41A4-8BEF-20D99094F66D,ko
LErastUuRs6BwHhfLplDzg,newborntown,p1833_trpe6bowf0ii1w15hled,Install,1.2,183.100.135.122,B731BB15-25A5-4C06-B567-11026B185201,1557541415,2019-05-11 10:23:35,1557541557,2019-05-11 10:25:57,1557541591,c7fcf08b-6b93-4934-b314-0d1c4600aafa__pspm,http://pspm.pingstart.com/api/v4/postback?from=1706&clickid=c7fcf08b-6b93-4934-b314-0d1c4600aafa__pspm,idfa_B731BB15-25A5-4C06-B567-11026B185201,ko
LErastUuRs6BwHhfLplDzg,newborntown,p1833_trpe6bowf0ii1w15hled,Install,1.2,175.203.23.131,FB4C8DF1-DEB0-41D1-88F8-3F60AAAC4DDF,1557540148,2019-05-11 10:02:28,1557540227,2019-05-11 10:03:47,1557540260,9b626467-a01f-442c-83d7-a71fde6dad13__pspm,http://pspm.pingstart.com/api/v4/postback?from=1706&clickid=9b626467-a01f-442c-83d7-a71fde6dad13__pspm,idfa_FB4C8DF1-DEB0-41D1-88F8-3F60AAAC4DDF,ko
LErastUuRs6BwHhfLplDzg,newborntown,p1833_trpe6bowf0ii1w15hled,Install,1.2,183.90.128.199,10FA0772-EEE0-4328-AD27-D50317B95190,1557541712,2019-05-11 10:28:32,1557541836,2019-05-11 10:30:36,1557541869,d3c505f3-0cf1-4c09-b5ed-cb62957e5bd4__pspm,http://pspm.pingstart.com/api/v4/postback?from=1706&clickid=d3c505f3-0cf1-4c09-b5ed-cb62957e5bd4__pspm,idfa_10FA0772-EEE0-4328-AD27-D50317B95190,ko
LErastUuRs6BwHhfLplDzg,newborntown,p1833_trpe6bowf0ii1w15hled,Install,1.2,222.100.218.122,A4DD033C-24B0-41D8-A539-AD5392251647,1557541875,2019-05-11 10:31:15,1557541978,2019-05-11 10:32:58,1557542010,9b148c09-400e-4c6d-a508-91f570a37faa__pspm,http://pspm.pingstart.com/api/v4/postback?from=1706&clickid=9b148c09-400e-4c6d-a508-91f570a37faa__pspm,idfa_A4DD033C-24B0-41D8-A539-AD5392251647,ko
LErastUuRs6BwHhfLplDzg,newborntown,p1833_trpe6bowf0ii1w15hled,Install,1.2,14.42.240.155,82E6E556-19CF-421C-9C7B-6D437618EE61,1557544069,2019-05-11 11:07:49,1557544138,2019-05-11 11:08:58,1557544178,9cd61bcc-4727-49ee-9b3e-9a32c682a846__pspm,http://pspm.pingstart.com/api/v4/postback?from=1706&clickid=9cd61bcc-4727-49ee-9b3e-9a32c682a846__pspm,idfa_82E6E556-19CF-421C-9C7B-6D437618EE61,ko
LErastUuRs6BwHhfLplDzg,newborntown,p1833_trpe6bowf0ii1w15hled,Install,1.2,112.185.166.159,7B54A61C-56FC-47DB-92F7-2504EEA711C6,1557543333,2019-05-11 10:55:33,1557543828,2019-05-11 11:03:48,1557543863,5a67fe13-2fdc-4c7e-a474-7a4776710f4b__pspm,http://pspm.pingstart.com/api/v4/postback?from=1706&clickid=5a67fe13-2fdc-4c7e-a474-7a4776710f4b__pspm,idfa_7B54A61C-56FC-47DB-92F7-2504EEA711C6,ko
LErastUuRs6BwHhfLplDzg,newborntown,p1833_trpe6bowf0ii1w15hled,Install,1.2,219.255.158.172,5B53DDB4-FBF8-4196-9638-15954C1D8FE7,1557541018,2019-05-11 10:16:58,1557541118,2019-05-11 10:18:38,1557541148,a3245cf3-2044-4d75-8371-1a613420946d__pspm,http://pspm.pingstart.com/api/v4/postback?from=1706&clickid=a3245cf3-2044-4d75-8371-1a613420946d__pspm,idfa_5B53DDB4-FBF8-4196-9638-15954C1D8FE7,ko
LErastUuRs6BwHhfLplDzg,newborntown,p1833_trpe6bowf0ii1w15hled,Install,1.2,106.240.243.218,35089BC3-DD42-41CB-87E8-946DED282EC0,1557542060,2019-05-11 10:34:20,1557542176,2019-05-11 10:36:16,1557542208,349f97f4-761a-42af-88c4-2a04108bc721__pspm,http://pspm.pingstart.com/api/v4/postback?from=1706&clickid=349f97f4-761a-42af-88c4-2a04108bc721__pspm,idfa_35089BC3-DD42-41CB-87E8-946DED282EC0,ko
LErastUuRs6BwHhfLplDzg,newborntown,p1833_trpe6bowf0ii1w15hled,Install,1.2,58.122.155.40,95124381-BAD3-4461-A5D5-9AAE6B15D41E,1557541281,2019-05-11 10:21:21,1557541398,2019-05-11 10:23:18,1557541428,17fe1368-c926-4058-bf95-49da8e798fc7__pspm,http://pspm.pingstart.com/api/v4/postback?from=1706&clickid=17fe1368-c926-4058-bf95-49da8e798fc7__pspm,idfa_95124381-BAD3-4461-A5D5-9AAE6B15D41E,ko
LErastUuRs6BwHhfLplDzg,newborntown,p1833_trpe6bowf0ii1w15hled,Install,1.2,211.229.46.178,E961F56B-ABDE-4205-89CC-9F80E380698E,1557540838,2019-05-11 10:13:58,1557540984,2019-05-11 10:16:24,1557541017,1e456575-70e1-4f15-8577-80848eceb71b__pspm,http://pspm.pingstart.com/api/v4/postback?from=1706&clickid=1e456575-70e1-4f15-8577-80848eceb71b__pspm,idfa_E961F56B-ABDE-4205-89CC-9F80E380698E,ko
LErastUuRs6BwHhfLplDzg,newborntown,p1833_trpe6bowf0ii1w15hled,Install,1.2,39.118.17.13,C07DEDA4-04C4-4BA9-AACD-F10118943FD4,1557541295,2019-05-11 10:21:35,1557541417,2019-05-11 10:23:37,1557541453,429ce2d3-8473-46e1-a4c9-1810f5bcd206__pspm,http://pspm.pingstart.com/api/v4/postback?from=1706&clickid=429ce2d3-8473-46e1-a4c9-1810f5bcd206__pspm,idfa_C07DEDA4-04C4-4BA9-AACD-F10118943FD4,ko
LErastUuRs6BwHhfLplDzg,newborntown,p1833_trpe6bowf0ii1w15hled,Install,1.2,118.217.246.126,FB0E5993-1F1A-4030-93DB-7D6472F12627,1557543959,2019-05-11 11:05:59,1557544077,2019-05-11 11:07:57,1557544108,92301f1e-9edc-45c2-b27d-c922647fcf75__pspm,http://pspm.pingstart.com/api/v4/postback?from=1706&clickid=92301f1e-9edc-45c2-b27d-c922647fcf75__pspm,idfa_FB0E5993-1F1A-4030-93DB-7D6472F12627,ko
LErastUuRs6BwHhfLplDzg,newborntown,p1833_trpe6bowf0ii1w15hled,Install,1.2,220.76.50.56,28169765-B8EF-4187-AF6E-1DA508E9AD44,1557540847,2019-05-11 10:14:07,1557540946,2019-05-11 10:15:46,1557540981,9ced9798-b2f4-423a-a854-192e95d515a6__pspm,http://pspm.pingstart.com/api/v4/postback?from=1706&clickid=9ced9798-b2f4-423a-a854-192e95d515a6__pspm,idfa_28169765-B8EF-4187-AF6E-1DA508E9AD44,ko
LErastUuRs6BwHhfLplDzg,newborntown,p1833_trpe6bowf0ii1w15hled,Install,1.2,125.142.160.34,5B6D8070-2182-43C3-A41F-B47D0B774F19,1557541018,2019-05-11 10:16:58,1557541164,2019-05-11 10:19:24,1557541204,b700dcf0-b690-4415-9423-b3272539d29e__pspm,http://pspm.pingstart.com/api/v4/postback?from=1706&clickid=b700dcf0-b690-4415-9423-b3272539d29e__pspm,idfa_5B6D8070-2182-43C3-A41F-B47D0B774F19,ko
LErastUuRs6BwHhfLplDzg,newborntown,p1833_trpe6bowf0ii1w15hled,Install,1.2,119.64.141.82,BD1A3D2A-8829-4328-A495-80FA29CAC73C,1557540931,2019-05-11 10:15:31,1557541024,2019-05-11 10:17:04,1557541060,49934bbc-daa8-492d-915e-8f8a5201b927__pspm,http://pspm.pingstart.com/api/v4/postback?from=1706&clickid=49934bbc-daa8-492d-915e-8f8a5201b927__pspm,idfa_BD1A3D2A-8829-4328-A495-80FA29CAC73C,ko
LErastUuRs6BwHhfLplDzg,newborntown,p1833_trpe6bowf0ii1w15hled,Install,1.2,120.142.101.99,8594679A-E482-4579-8B94-CB973FB25EE7,1557540719,2019-05-11 10:11:59,1557540854,2019-05-11 10:14:14,1557540888,5fedd33c-b96e-43f6-912b-7b1f647aa8e1__pspm,http://pspm.pingstart.com/api/v4/postback?from=1706&clickid=5fedd33c-b96e-43f6-912b-7b1f647aa8e1__pspm,idfa_8594679A-E482-4579-8B94-CB973FB25EE7,ko
