cid,partner_id,channel_id,action_id,cpi,ip,idfa,click time,click datetime,install time,install datetime,postback time,click id,postback url,unique user id
GeG2cucsReiA1RfcMgcPKA,newborntown,p1886_589-1509_467,install,1.7,121.127.151.217,64881c15-07ac-43f8-aca0-52a56224f1a3,1558988787,2019-05-28 04:26:27,1558988974,2019-05-28 04:29:34,1558989005,1693f967-91f2-46e6-aa5b-6cd752191283__pspm,http://pspm.pingstart.com/api/v4/postback?from=1706&clickid=1693f967-91f2-46e6-aa5b-6cd752191283__pspm,idfa_64881c15-07ac-43f8-aca0-52a56224f1a3,ko
GeG2cucsReiA1RfcMgcPKA,newborntown,p1886_589-1509_467,install,1.7,165.246.45.104,28d9a76a-56b5-442b-a799-c0a1c9acf675,1558989423,2019-05-28 04:37:03,1558989468,2019-05-28 04:37:48,1558989499,99e3539a-522e-4ffe-b475-73896c545871__pspm,http://pspm.pingstart.com/api/v4/postback?from=1706&clickid=99e3539a-522e-4ffe-b475-73896c545871__pspm,idfa_28d9a76a-56b5-442b-a799-c0a1c9acf675,ko
GeG2cucsReiA1RfcMgcPKA,newborntown,p1886_589-1509_467,install,1.7,106.102.142.224,cdc9851f-32ba-4a2d-8647-0b0c225d1a94,1558989318,2019-05-28 04:35:18,1558989601,2019-05-28 04:40:01,1558989634,9388a273-770c-4727-ad03-f95586dbcd79__pspm,http://pspm.pingstart.com/api/v4/postback?from=1706&clickid=9388a273-770c-4727-ad03-f95586dbcd79__pspm,idfa_cdc9851f-32ba-4a2d-8647-0b0c225d1a94,ko
GeG2cucsReiA1RfcMgcPKA,newborntown,p1886_589-1509_467,install,1.7,59.26.211.97,279c7f76-1974-4368-b5bd-25407f9d1210,1558990365,2019-05-28 04:52:45,1558990404,2019-05-28 04:53:24,1558990435,017bbe58-0829-48ba-a1a1-ef45026ac887__pspm,http://pspm.pingstart.com/api/v4/postback?from=1706&clickid=017bbe58-0829-48ba-a1a1-ef45026ac887__pspm,idfa_279c7f76-1974-4368-b5bd-25407f9d1210,ko
GeG2cucsReiA1RfcMgcPKA,newborntown,p1886_589-1509_467,install,1.7,49.174.92.3,39995dc6-7b56-4353-b058-b3262fd2f748,1558990052,2019-05-28 04:47:32,1558990093,2019-05-28 04:48:13,1558990124,c111a14e-f666-4d57-a62f-ffe0bf10f312__pspm,http://pspm.pingstart.com/api/v4/postback?from=1706&clickid=c111a14e-f666-4d57-a62f-ffe0bf10f312__pspm,idfa_39995dc6-7b56-4353-b058-b3262fd2f748,ko
GeG2cucsReiA1RfcMgcPKA,newborntown,p1886_589-1509_467,install,1.7,175.223.39.52,852136b9-050f-4b58-8b51-b8134eb3e2a9,1558989485,2019-05-28 04:38:05,1558989524,2019-05-28 04:38:44,1558989555,b77c0a97-4b99-4b4e-a06d-da59f09dff7c__pspm,http://pspm.pingstart.com/api/v4/postback?from=1706&clickid=b77c0a97-4b99-4b4e-a06d-da59f09dff7c__pspm,idfa_852136b9-050f-4b58-8b51-b8134eb3e2a9,ko
GeG2cucsReiA1RfcMgcPKA,newborntown,p1886_589-1509_467,install,1.7,110.47.77.9,817d5588-43ae-4d75-a45b-f31ec13e8732,1558990003,2019-05-28 04:46:43,1558990041,2019-05-28 04:47:21,1558990073,eea7ed68-41d3-46f4-9e00-3746002756f6__pspm,http://pspm.pingstart.com/api/v4/postback?from=1706&clickid=eea7ed68-41d3-46f4-9e00-3746002756f6__pspm,idfa_817d5588-43ae-4d75-a45b-f31ec13e8732,ko
GeG2cucsReiA1RfcMgcPKA,newborntown,p1886_589-1509_467,install,1.7,175.112.250.137,47121450-892a-4a03-bdfa-b92ba48fc3cd,1558990299,2019-05-28 04:51:39,1558990336,2019-05-28 04:52:16,1558990367,264cb14e-b241-42a6-9b5d-43fb41f39770__pspm,http://pspm.pingstart.com/api/v4/postback?from=1706&clickid=264cb14e-b241-42a6-9b5d-43fb41f39770__pspm,idfa_47121450-892a-4a03-bdfa-b92ba48fc3cd,ko
GeG2cucsReiA1RfcMgcPKA,newborntown,p1886_589-1509_467,install,1.7,223.63.151.75,152ea96e-6d49-4e8c-a463-2ee0ed69ba5a,1558990223,2019-05-28 04:50:23,1558990260,2019-05-28 04:51:00,1558990292,7e1202e4-040a-4318-b9f9-bf3047001ef0__pspm,http://pspm.pingstart.com/api/v4/postback?from=1706&clickid=7e1202e4-040a-4318-b9f9-bf3047001ef0__pspm,idfa_152ea96e-6d49-4e8c-a463-2ee0ed69ba5a,ko
GeG2cucsReiA1RfcMgcPKA,newborntown,p1886_589-1509_467,install,1.7,1.224.192.123,bc0727d1-d3d2-45f9-85f5-dcf9d858d38e,1558990714,2019-05-28 04:58:34,1558990753,2019-05-28 04:59:13,1558990784,afea2840-52bd-4e9f-ad92-90e43fd3216f__pspm,http://pspm.pingstart.com/api/v4/postback?from=1706&clickid=afea2840-52bd-4e9f-ad92-90e43fd3216f__pspm,idfa_bc0727d1-d3d2-45f9-85f5-dcf9d858d38e,ko
GeG2cucsReiA1RfcMgcPKA,newborntown,p1886_589-1509_467,install,1.7,58.140.64.208,fcb301aa-6608-48a2-9269-f4f8ec7861d0,1558990041,2019-05-28 04:47:21,1558990079,2019-05-28 04:47:59,1558990110,32e7a8b7-5c7d-4157-8bc0-1552109efddb__pspm,http://pspm.pingstart.com/api/v4/postback?from=1706&clickid=32e7a8b7-5c7d-4157-8bc0-1552109efddb__pspm,idfa_fcb301aa-6608-48a2-9269-f4f8ec7861d0,ko
GeG2cucsReiA1RfcMgcPKA,newborntown,p1886_589-1509_467,install,1.7,221.164.143.119,4aaff91d-e837-4bd9-b29c-8cb73b4e5f75,1558990359,2019-05-28 04:52:39,1558990397,2019-05-28 04:53:17,1558990428,73c36866-ee4c-4c81-aadd-cb632eb9eef5__pspm,http://pspm.pingstart.com/api/v4/postback?from=1706&clickid=73c36866-ee4c-4c81-aadd-cb632eb9eef5__pspm,idfa_4aaff91d-e837-4bd9-b29c-8cb73b4e5f75,ko
GeG2cucsReiA1RfcMgcPKA,newborntown,p1886_589-1509_467,install,1.7,112.72.145.95,e29ca674-bac9-4138-8c2c-fc123666e691,1558989979,2019-05-28 04:46:19,1558990018,2019-05-28 04:46:58,1558990049,8c5f62be-57c8-4a12-afde-bb54c1eaf0f4__pspm,http://pspm.pingstart.com/api/v4/postback?from=1706&clickid=8c5f62be-57c8-4a12-afde-bb54c1eaf0f4__pspm,idfa_e29ca674-bac9-4138-8c2c-fc123666e691,ko
GeG2cucsReiA1RfcMgcPKA,newborntown,p1886_589-1509_467,install,1.7,123.212.131.41,f607f5b8-d930-40c7-87ec-1f6d8d0e466b,1558988902,2019-05-28 04:28:22,1558988941,2019-05-28 04:29:01,1558988972,9f895736-9a1f-4313-ac24-6e2835db1be2__pspm,http://pspm.pingstart.com/api/v4/postback?from=1706&clickid=9f895736-9a1f-4313-ac24-6e2835db1be2__pspm,idfa_f607f5b8-d930-40c7-87ec-1f6d8d0e466b,ko
GeG2cucsReiA1RfcMgcPKA,newborntown,p1886_589-1509_467,install,1.7,123.212.222.4,11072dbd-c315-40ad-ace9-2e937c24e669,1558989651,2019-05-28 04:40:51,1558989689,2019-05-28 04:41:29,1558989720,3d1f62d8-2772-4647-a9a4-4e4fac5aa915__pspm,http://pspm.pingstart.com/api/v4/postback?from=1706&clickid=3d1f62d8-2772-4647-a9a4-4e4fac5aa915__pspm,idfa_11072dbd-c315-40ad-ace9-2e937c24e669,ko
GeG2cucsReiA1RfcMgcPKA,newborntown,p1886_589-1509_467,install,1.7,39.119.128.147,0a3b6ef6-ea61-4719-a5c3-84395019589d,1558989321,2019-05-28 04:35:21,1558989361,2019-05-28 04:36:01,1558989393,77fd791a-584e-4268-bf5e-83e2be280266__pspm,http://pspm.pingstart.com/api/v4/postback?from=1706&clickid=77fd791a-584e-4268-bf5e-83e2be280266__pspm,idfa_0a3b6ef6-ea61-4719-a5c3-84395019589d,ko
GeG2cucsReiA1RfcMgcPKA,newborntown,p1886_589-1509_467,install,1.7,218.235.144.41,9eeddc57-795c-4001-a261-e00351828e10,1558988834,2019-05-28 04:27:14,1558989128,2019-05-28 04:32:08,1558989160,be4263f2-d3b4-4fc7-9fec-ed4883ce3c22__pspm,http://pspm.pingstart.com/api/v4/postback?from=1706&clickid=be4263f2-d3b4-4fc7-9fec-ed4883ce3c22__pspm,idfa_9eeddc57-795c-4001-a261-e00351828e10,ko
GeG2cucsReiA1RfcMgcPKA,newborntown,p1886_589-1509_467,install,1.7,180.233.204.172,20e9109c-f508-4852-8104-9ecfed0fd60c,1558989146,2019-05-28 04:32:26,1558989187,2019-05-28 04:33:07,1558989218,fe1e3cf4-b160-4bad-92e2-3ae3b5f465c1__pspm,http://pspm.pingstart.com/api/v4/postback?from=1706&clickid=fe1e3cf4-b160-4bad-92e2-3ae3b5f465c1__pspm,idfa_20e9109c-f508-4852-8104-9ecfed0fd60c,ko
GeG2cucsReiA1RfcMgcPKA,newborntown,p1886_589-1509_467,install,1.7,223.62.178.117,2a0e1f8c-9198-4d3f-9c4f-38d19c04118b,1558990721,2019-05-28 04:58:41,1558990759,2019-05-28 04:59:19,1558990790,160d5242-e57c-4a45-b8b0-ca6f124729b9__pspm,http://pspm.pingstart.com/api/v4/postback?from=1706&clickid=160d5242-e57c-4a45-b8b0-ca6f124729b9__pspm,idfa_2a0e1f8c-9198-4d3f-9c4f-38d19c04118b,ko
GeG2cucsReiA1RfcMgcPKA,newborntown,p1886_589-1509_467,install,1.7,119.196.151.73,5a0c158d-081d-4ee0-ac6b-0cec446e5f79,1558989151,2019-05-28 04:32:31,1558989215,2019-05-28 04:33:35,1558989246,3d960f96-496d-43bf-b19f-7e76baeba4b6__pspm,http://pspm.pingstart.com/api/v4/postback?from=1706&clickid=3d960f96-496d-43bf-b19f-7e76baeba4b6__pspm,idfa_5a0c158d-081d-4ee0-ac6b-0cec446e5f79,ko
GeG2cucsReiA1RfcMgcPKA,newborntown,p1886_589-1509_467,install,1.7,122.46.22.139,74d4d851-4796-466c-9846-b386eb13628a,1558990301,2019-05-28 04:51:41,1558990343,2019-05-28 04:52:23,1558990374,8ee3a259-81c4-43ed-9281-abc090274d94__pspm,http://pspm.pingstart.com/api/v4/postback?from=1706&clickid=8ee3a259-81c4-43ed-9281-abc090274d94__pspm,idfa_74d4d851-4796-466c-9846-b386eb13628a,ko
GeG2cucsReiA1RfcMgcPKA,newborntown,p1886_589-1509_467,install,1.7,49.1.63.175,2a142441-258c-40a0-88c1-61c589d80e1b,1558990525,2019-05-28 04:55:25,1558990565,2019-05-28 04:56:05,1558990596,b7424988-628a-4317-a8f4-4f3b79adc0f1__pspm,http://pspm.pingstart.com/api/v4/postback?from=1706&clickid=b7424988-628a-4317-a8f4-4f3b79adc0f1__pspm,idfa_2a142441-258c-40a0-88c1-61c589d80e1b,ko
GeG2cucsReiA1RfcMgcPKA,newborntown,p1886_589-1509_467,install,1.7,112.151.14.94,695926fd-b026-497c-9d74-8c60c998b758,1558989332,2019-05-28 04:35:32,1558989367,2019-05-28 04:36:07,1558989398,873c1ae8-a858-4bcc-a7af-878b0de7e1d9__pspm,http://pspm.pingstart.com/api/v4/postback?from=1706&clickid=873c1ae8-a858-4bcc-a7af-878b0de7e1d9__pspm,idfa_695926fd-b026-497c-9d74-8c60c998b758,ko
GeG2cucsReiA1RfcMgcPKA,newborntown,p1886_589-1509_467,install,1.7,124.54.20.144,39a0538a-ac05-46d3-9b56-63bd970adc7e,1558990109,2019-05-28 04:48:29,1558990145,2019-05-28 04:49:05,1558990176,73f62284-e532-472a-8118-ac9ba29545db__pspm,http://pspm.pingstart.com/api/v4/postback?from=1706&clickid=73f62284-e532-472a-8118-ac9ba29545db__pspm,idfa_39a0538a-ac05-46d3-9b56-63bd970adc7e,ko
GeG2cucsReiA1RfcMgcPKA,newborntown,p1886_589-1509_467,install,1.7,183.98.205.206,f208c54f-5e15-436a-99b1-93ddce891f8c,1558990106,2019-05-28 04:48:26,1558990194,2019-05-28 04:49:54,1558990226,561e4064-8d47-4e46-a15a-d6b5aedff4e9__pspm,http://pspm.pingstart.com/api/v4/postback?from=1706&clickid=561e4064-8d47-4e46-a15a-d6b5aedff4e9__pspm,idfa_f208c54f-5e15-436a-99b1-93ddce891f8c,ko
GeG2cucsReiA1RfcMgcPKA,newborntown,p1886_589-1509_467,install,1.7,1.247.65.191,e43c7d1b-f9f4-4794-a34c-72964664e8d6,1558989269,2019-05-28 04:34:29,1558989302,2019-05-28 04:35:02,1558989334,68a6631d-5dd5-4ef8-9567-1e92c8775759__pspm,http://pspm.pingstart.com/api/v4/postback?from=1706&clickid=68a6631d-5dd5-4ef8-9567-1e92c8775759__pspm,idfa_e43c7d1b-f9f4-4794-a34c-72964664e8d6,ko
GeG2cucsReiA1RfcMgcPKA,newborntown,p1886_589-1509_467,install,1.7,124.28.8.170,1bbea2d1-e8eb-498c-9de6-6991777b9149,1558989285,2019-05-28 04:34:45,1558989325,2019-05-28 04:35:25,1558989356,8a08342d-d548-4de0-b8ce-0f5d4bae6fbe__pspm,http://pspm.pingstart.com/api/v4/postback?from=1706&clickid=8a08342d-d548-4de0-b8ce-0f5d4bae6fbe__pspm,idfa_1bbea2d1-e8eb-498c-9de6-6991777b9149,ko
GeG2cucsReiA1RfcMgcPKA,newborntown,p1886_589-1509_467,install,1.7,27.117.43.11,f484abf6-c0e0-45da-af80-57cb1aabed58,1558989542,2019-05-28 04:39:02,1558989622,2019-05-28 04:40:22,1558989655,3c805e58-6310-4fdf-9b62-8e055cafe3e3__pspm,http://pspm.pingstart.com/api/v4/postback?from=1706&clickid=3c805e58-6310-4fdf-9b62-8e055cafe3e3__pspm,idfa_f484abf6-c0e0-45da-af80-57cb1aabed58,ko
GeG2cucsReiA1RfcMgcPKA,newborntown,p1886_589-1509_467,install,1.7,117.111.2.73,4a8e2be8-e506-4a04-adfb-18d8361171e6,1558989266,2019-05-28 04:34:26,1558989304,2019-05-28 04:35:04,1558989334,7702a163-5c2d-489a-b14e-8e5adf9459e7__pspm,http://pspm.pingstart.com/api/v4/postback?from=1706&clickid=7702a163-5c2d-489a-b14e-8e5adf9459e7__pspm,idfa_4a8e2be8-e506-4a04-adfb-18d8361171e6,ko
GeG2cucsReiA1RfcMgcPKA,newborntown,p1886_589-1509_467,install,1.7,112.133.80.253,895f001c-22a2-408d-aa5e-8a4a5f6f8136,1558989331,2019-05-28 04:35:31,1558990006,2019-05-28 04:46:46,1558990037,49974b04-9897-4472-bee4-6990321d1ed1__pspm,http://pspm.pingstart.com/api/v4/postback?from=1706&clickid=49974b04-9897-4472-bee4-6990321d1ed1__pspm,idfa_895f001c-22a2-408d-aa5e-8a4a5f6f8136,ko
GeG2cucsReiA1RfcMgcPKA,newborntown,p1886_589-1509_467,install,1.7,211.36.158.223,580e82a3-4fdb-411a-9b6a-319703631af9,1558988899,2019-05-28 04:28:19,1558988937,2019-05-28 04:28:57,1558988968,7c7cb53a-08d7-4f4a-92b2-901e70cbd145__pspm,http://pspm.pingstart.com/api/v4/postback?from=1706&clickid=7c7cb53a-08d7-4f4a-92b2-901e70cbd145__pspm,idfa_580e82a3-4fdb-411a-9b6a-319703631af9,ko
GeG2cucsReiA1RfcMgcPKA,newborntown,p1886_589-1509_467,install,1.7,125.191.159.192,582df43b-1dd3-45b3-9bfb-4c8dd100e0ee,1558990044,2019-05-28 04:47:24,1558990078,2019-05-28 04:47:58,1558990109,25dfc9b1-63ab-4fb3-ae8c-02b49ed721d2__pspm,http://pspm.pingstart.com/api/v4/postback?from=1706&clickid=25dfc9b1-63ab-4fb3-ae8c-02b49ed721d2__pspm,idfa_582df43b-1dd3-45b3-9bfb-4c8dd100e0ee,ko
GeG2cucsReiA1RfcMgcPKA,newborntown,p1886_589-1509_467,install,1.7,59.29.28.100,db21ddad-48f2-449f-a97b-48d3dcd0f322,1558990303,2019-05-28 04:51:43,1558990339,2019-05-28 04:52:19,1558990370,cab504f2-205d-4a23-b478-7d804ffa7a71__pspm,http://pspm.pingstart.com/api/v4/postback?from=1706&clickid=cab504f2-205d-4a23-b478-7d804ffa7a71__pspm,idfa_db21ddad-48f2-449f-a97b-48d3dcd0f322,ko
GeG2cucsReiA1RfcMgcPKA,newborntown,p1886_589-1509_467,install,1.7,180.229.184.14,b980b157-0eec-4ced-be99-c3528500197f,1558989995,2019-05-28 04:46:35,1558990031,2019-05-28 04:47:11,1558990062,f4ef069e-ede3-4f2f-b71c-d4f2721be00b__pspm,http://pspm.pingstart.com/api/v4/postback?from=1706&clickid=f4ef069e-ede3-4f2f-b71c-d4f2721be00b__pspm,idfa_b980b157-0eec-4ced-be99-c3528500197f,ko
GeG2cucsReiA1RfcMgcPKA,newborntown,p1886_589-1509_467,install,1.7,116.36.182.20,2f79df42-80ab-453c-aa08-a6baabf6b0b8,1558990540,2019-05-28 04:55:40,1558990579,2019-05-28 04:56:19,1558990610,bd2995b4-b56c-41d7-9b35-73b8d00c6b81__pspm,http://pspm.pingstart.com/api/v4/postback?from=1706&clickid=bd2995b4-b56c-41d7-9b35-73b8d00c6b81__pspm,idfa_2f79df42-80ab-453c-aa08-a6baabf6b0b8,ko
GeG2cucsReiA1RfcMgcPKA,newborntown,p1886_589-1509_467,install,1.7,58.125.5.64,1b916268-4447-4415-b29d-40d60f63deca,1558988937,2019-05-28 04:28:57,1558988953,2019-05-28 04:29:13,1558989106,77645787-e68d-422b-af92-c3113552a957__pspm,http://pspm.pingstart.com/api/v4/postback?from=1706&clickid=77645787-e68d-422b-af92-c3113552a957__pspm,idfa_1b916268-4447-4415-b29d-40d60f63deca,ko
GeG2cucsReiA1RfcMgcPKA,newborntown,p1886_589-1509_467,install,1.7,14.48.145.25,fd7f0a49-f731-4d26-9705-b91c545394a3,1558988656,2019-05-28 04:24:16,1558988704,2019-05-28 04:25:04,1558988735,41482676-6689-448c-b87a-b9c82ffec01c__pspm,http://pspm.pingstart.com/api/v4/postback?from=1706&clickid=41482676-6689-448c-b87a-b9c82ffec01c__pspm,idfa_fd7f0a49-f731-4d26-9705-b91c545394a3,ko
GeG2cucsReiA1RfcMgcPKA,newborntown,p1886_589-1509_467,install,1.7,116.121.154.194,0b10f7b2-cf50-4364-9eb8-63aa20035145,1558989411,2019-05-28 04:36:51,1558989449,2019-05-28 04:37:29,1558989479,59a0ad06-40b9-478d-8c08-9e1e85832afa__pspm,http://pspm.pingstart.com/api/v4/postback?from=1706&clickid=59a0ad06-40b9-478d-8c08-9e1e85832afa__pspm,idfa_0b10f7b2-cf50-4364-9eb8-63aa20035145,ko
GeG2cucsReiA1RfcMgcPKA,newborntown,p1886_589-1509_467,install,1.7,124.54.112.36,32e44fb0-e0ea-462b-99cf-85299eaed821,1558989272,2019-05-28 04:34:32,1558989471,2019-05-28 04:37:51,1558989502,fde40ac1-ade4-451d-b151-a4e4691f53f1__pspm,http://pspm.pingstart.com/api/v4/postback?from=1706&clickid=fde40ac1-ade4-451d-b151-a4e4691f53f1__pspm,idfa_32e44fb0-e0ea-462b-99cf-85299eaed821,ko
GeG2cucsReiA1RfcMgcPKA,newborntown,p1886_589-1509_467,install,1.7,1.244.165.221,43a8aad2-9e82-478c-906a-2ea45aeb08d5,1558990550,2019-05-28 04:55:50,1558990591,2019-05-28 04:56:31,1558990624,1b2869c6-f827-49fc-a2af-198121bf6613__pspm,http://pspm.pingstart.com/api/v4/postback?from=1706&clickid=1b2869c6-f827-49fc-a2af-198121bf6613__pspm,idfa_43a8aad2-9e82-478c-906a-2ea45aeb08d5,ko
GeG2cucsReiA1RfcMgcPKA,newborntown,p1886_589-1509_467,install,1.7,218.49.45.166,31996e60-7014-440a-9f4c-a961b1d4f15c,1558989015,2019-05-28 04:30:15,1558989710,2019-05-28 04:41:50,1558989742,1ee8de85-d816-4be6-bc71-5a29cee92183__pspm,http://pspm.pingstart.com/api/v4/postback?from=1706&clickid=1ee8de85-d816-4be6-bc71-5a29cee92183__pspm,idfa_31996e60-7014-440a-9f4c-a961b1d4f15c,ko
GeG2cucsReiA1RfcMgcPKA,newborntown,p1886_589-1509_467,install,1.7,61.254.98.236,af41c527-ef2e-4676-9c71-d264c0862aca,1558989159,2019-05-28 04:32:39,1558989213,2019-05-28 04:33:33,1558989244,5e5539d1-e279-4332-be26-5dabbc91675b__pspm,http://pspm.pingstart.com/api/v4/postback?from=1706&clickid=5e5539d1-e279-4332-be26-5dabbc91675b__pspm,idfa_af41c527-ef2e-4676-9c71-d264c0862aca,ko
GeG2cucsReiA1RfcMgcPKA,newborntown,p1886_589-1509_467,install,1.7,122.38.128.201,025fc707-6b0a-495a-9afa-6c77d3d17271,1558990399,2019-05-28 04:53:19,1558990444,2019-05-28 04:54:04,1558990477,0d5a73b6-65ba-4406-a786-63911a5d39ca__pspm,http://pspm.pingstart.com/api/v4/postback?from=1706&clickid=0d5a73b6-65ba-4406-a786-63911a5d39ca__pspm,idfa_025fc707-6b0a-495a-9afa-6c77d3d17271,ko
GeG2cucsReiA1RfcMgcPKA,newborntown,p1886_589-1509_467,install,1.7,220.119.74.39,8f2e3f48-213b-445e-b51e-dbfa8f65edba,1558989524,2019-05-28 04:38:44,1558989560,2019-05-28 04:39:20,1558989591,cb5aa012-f954-4bca-bbeb-3fb4c215b709__pspm,http://pspm.pingstart.com/api/v4/postback?from=1706&clickid=cb5aa012-f954-4bca-bbeb-3fb4c215b709__pspm,idfa_8f2e3f48-213b-445e-b51e-dbfa8f65edba,ko
GeG2cucsReiA1RfcMgcPKA,newborntown,p1886_589-1509_467,install,1.7,223.33.181.114,9e124c95-4658-4029-98b4-107da2f89592,1558989987,2019-05-28 04:46:27,1558990023,2019-05-28 04:47:03,1558990054,bc8de12f-55da-4647-acba-b63213d4caa7__pspm,http://pspm.pingstart.com/api/v4/postback?from=1706&clickid=bc8de12f-55da-4647-acba-b63213d4caa7__pspm,idfa_9e124c95-4658-4029-98b4-107da2f89592,ko
GeG2cucsReiA1RfcMgcPKA,newborntown,p1886_589-1509_467,install,1.7,124.54.143.131,75df40d4-9c35-4648-a94d-f24f975e8870,1558990317,2019-05-28 04:51:57,1558990353,2019-05-28 04:52:33,1558990385,ebdb21bf-7e86-4984-bed1-50128d89750a__pspm,http://pspm.pingstart.com/api/v4/postback?from=1706&clickid=ebdb21bf-7e86-4984-bed1-50128d89750a__pspm,idfa_75df40d4-9c35-4648-a94d-f24f975e8870,ko
GeG2cucsReiA1RfcMgcPKA,newborntown,p1886_589-1509_467,install,1.7,180.228.56.205,eab68eee-87cf-4595-97a0-67fb8d5c6d92,1558990128,2019-05-28 04:48:48,1558990160,2019-05-28 04:49:20,1558990191,4caf988e-dba7-4b2e-9f87-c6cb380b9671__pspm,http://pspm.pingstart.com/api/v4/postback?from=1706&clickid=4caf988e-dba7-4b2e-9f87-c6cb380b9671__pspm,idfa_eab68eee-87cf-4595-97a0-67fb8d5c6d92,ko
GeG2cucsReiA1RfcMgcPKA,newborntown,p1886_589-1509_467,install,1.7,58.121.179.230,cf8f22af-50fb-4603-9545-527503da5002,1558990052,2019-05-28 04:47:32,1558990086,2019-05-28 04:48:06,1558990119,bdcad3b2-371a-47a5-9ce0-d732158a0e63__pspm,http://pspm.pingstart.com/api/v4/postback?from=1706&clickid=bdcad3b2-371a-47a5-9ce0-d732158a0e63__pspm,idfa_cf8f22af-50fb-4603-9545-527503da5002,ko
GeG2cucsReiA1RfcMgcPKA,newborntown,p1886_589-1509_467,install,1.7,220.93.118.210,8891e2f6-9f09-456e-ab34-659d5b7fb2ae,1558989342,2019-05-28 04:35:42,1558989382,2019-05-28 04:36:22,1558989413,0cc31091-e49b-44e6-8494-a0837742b2b5__pspm,http://pspm.pingstart.com/api/v4/postback?from=1706&clickid=0cc31091-e49b-44e6-8494-a0837742b2b5__pspm,idfa_8891e2f6-9f09-456e-ab34-659d5b7fb2ae,ko
GeG2cucsReiA1RfcMgcPKA,newborntown,p1886_589-1509_467,install,1.7,211.44.228.145,42354500-da6b-42f6-b277-6c930cda5a37,1558989777,2019-05-28 04:42:57,1558989817,2019-05-28 04:43:37,1558989848,770e0126-df89-46f9-a405-d0ac921679ae__pspm,http://pspm.pingstart.com/api/v4/postback?from=1706&clickid=770e0126-df89-46f9-a405-d0ac921679ae__pspm,idfa_42354500-da6b-42f6-b277-6c930cda5a37,ko
GeG2cucsReiA1RfcMgcPKA,newborntown,p1886_589-1509_467,install,1.7,117.111.12.207,eea1520a-2cb9-4e60-98f7-947fbfda1fee,1558987863,2019-05-28 04:11:03,1558987902,2019-05-28 04:11:42,1558987933,03ab3833-3289-44c4-adb4-e440b56f3034__pspm,http://pspm.pingstart.com/api/v4/postback?from=1706&clickid=03ab3833-3289-44c4-adb4-e440b56f3034__pspm,idfa_eea1520a-2cb9-4e60-98f7-947fbfda1fee,ko
GeG2cucsReiA1RfcMgcPKA,newborntown,p1886_589-1509_467,install,1.7,124.60.48.92,d7f92df4-3b5f-4dc2-bc8e-caa37fdba7a6,1558989163,2019-05-28 04:32:43,1558989204,2019-05-28 04:33:24,1558989235,d53cfbd3-8982-4e07-ac0c-772aad25dd6a__pspm,http://pspm.pingstart.com/api/v4/postback?from=1706&clickid=d53cfbd3-8982-4e07-ac0c-772aad25dd6a__pspm,idfa_d7f92df4-3b5f-4dc2-bc8e-caa37fdba7a6,ko
GeG2cucsReiA1RfcMgcPKA,newborntown,p1886_589-1509_467,install,1.7,183.106.38.174,34e8ebde-47ca-458a-af24-a258b589833a,1558990342,2019-05-28 04:52:22,1558990383,2019-05-28 04:53:03,1558990414,16be8639-0dc7-4f09-b558-2b2e25712145__pspm,http://pspm.pingstart.com/api/v4/postback?from=1706&clickid=16be8639-0dc7-4f09-b558-2b2e25712145__pspm,idfa_34e8ebde-47ca-458a-af24-a258b589833a,ko
GeG2cucsReiA1RfcMgcPKA,newborntown,p1886_589-1509_467,install,1.7,58.123.6.192,d2bb8821-1f60-4a80-a378-e2fc29672600,1558990586,2019-05-28 04:56:26,1558990696,2019-05-28 04:58:16,1558990727,5d9c0ccd-07f6-4b4d-8c6a-1349707beefe__pspm,http://pspm.pingstart.com/api/v4/postback?from=1706&clickid=5d9c0ccd-07f6-4b4d-8c6a-1349707beefe__pspm,idfa_d2bb8821-1f60-4a80-a378-e2fc29672600,ko
GeG2cucsReiA1RfcMgcPKA,newborntown,p1886_589-1509_467,install,1.7,115.139.218.253,15cbefef-923e-4e18-a0a0-d1b0ba176c63,1558990650,2019-05-28 04:57:30,1558990687,2019-05-28 04:58:07,1558990719,4d442635-a5a6-41a7-878f-d88efde730dc__pspm,http://pspm.pingstart.com/api/v4/postback?from=1706&clickid=4d442635-a5a6-41a7-878f-d88efde730dc__pspm,idfa_15cbefef-923e-4e18-a0a0-d1b0ba176c63,ko
GeG2cucsReiA1RfcMgcPKA,newborntown,p1886_589-1509_467,install,1.7,58.239.121.38,a70bf5db-fb20-41c3-907f-817c042d5aa4,1558990002,2019-05-28 04:46:42,1558990037,2019-05-28 04:47:17,1558990068,b6f725c8-ddbf-4c46-bd32-b4a4ab42aef3__pspm,http://pspm.pingstart.com/api/v4/postback?from=1706&clickid=b6f725c8-ddbf-4c46-bd32-b4a4ab42aef3__pspm,idfa_a70bf5db-fb20-41c3-907f-817c042d5aa4,ko
GeG2cucsReiA1RfcMgcPKA,newborntown,p1886_589-1509_467,install,1.7,14.34.147.221,e6127160-dbfb-42de-b6a6-603be102d9cb,1558989072,2019-05-28 04:31:12,1558989111,2019-05-28 04:31:51,1558989142,352e146a-0142-464c-8335-ec11341a0f85__pspm,http://pspm.pingstart.com/api/v4/postback?from=1706&clickid=352e146a-0142-464c-8335-ec11341a0f85__pspm,idfa_e6127160-dbfb-42de-b6a6-603be102d9cb,ko
GeG2cucsReiA1RfcMgcPKA,newborntown,p1886_589-1509_467,install,1.7,211.198.255.226,e10ef6a0-fbff-49e2-b227-3791b5e16782,1558989084,2019-05-28 04:31:24,1558989199,2019-05-28 04:33:19,1558989230,0851b462-614b-443b-841b-0c4a7fa52528__pspm,http://pspm.pingstart.com/api/v4/postback?from=1706&clickid=0851b462-614b-443b-841b-0c4a7fa52528__pspm,idfa_e10ef6a0-fbff-49e2-b227-3791b5e16782,ko
GeG2cucsReiA1RfcMgcPKA,newborntown,p1886_589-1509_467,install,1.7,223.62.213.128,a28d57c5-7668-4180-b51a-f68a2e277240,1558990405,2019-05-28 04:53:25,1558990470,2019-05-28 04:54:30,1558990501,dc5aaf5d-b96b-41ed-be53-4398550b22bc__pspm,http://pspm.pingstart.com/api/v4/postback?from=1706&clickid=dc5aaf5d-b96b-41ed-be53-4398550b22bc__pspm,idfa_a28d57c5-7668-4180-b51a-f68a2e277240,ko
