cid,partner_id,channel_id,action_id,cpi,ip,idfa,click time,click datetime,install time,install datetime,postback time,click id,postback url,unique user id
ZcR52VwISG-A2GmMOYx34Q,newborntown,p1599_1018_104640_app_239253251,Install,0.9,182.239.58.169,17937C3C-AF1D-4584-9ED2-4570777F2C6C,1557237411,2019-05-07 21:56:51,1557237529,2019-05-07 21:58:49,1557237559,7b0a146f-622d-4214-a0f1-2f744596ed6d__pspm,http://pspm.pingstart.com/api/v4/postback?from=1706&clickid=7b0a146f-622d-4214-a0f1-2f744596ed6d__pspm,idfa_17937C3C-AF1D-4584-9ED2-4570777F2C6C,zh
ZcR52VwISG-A2GmMOYx34Q,newborntown,p1599_1018_104640_app_239253251,Install,0.9,203.198.149.164,1EDF19F0-E377-4170-8D3F-AD85C36FF19C,1557284349,2019-05-08 10:59:09,1557284368,2019-05-08 10:59:28,1557284399,363d8a82-bb37-47b3-ac93-0e9e47ce3a11__pspm,http://pspm.pingstart.com/api/v4/postback?from=1706&clickid=363d8a82-bb37-47b3-ac93-0e9e47ce3a11__pspm,idfa_1EDF19F0-E377-4170-8D3F-AD85C36FF19C,en
ZcR52VwISG-A2GmMOYx34Q,newborntown,p1599_1018_104640_app_239253251,Install,0.9,182.239.58.166,1F8B27E6-5DDC-4DBB-925C-197B6CFBBEDA,1557284826,2019-05-08 11:07:06,1557284871,2019-05-08 11:07:51,1557284902,c140a6df-f60e-4496-ad79-85a36548a431__pspm,http://pspm.pingstart.com/api/v4/postback?from=1706&clickid=c140a6df-f60e-4496-ad79-85a36548a431__pspm,idfa_1F8B27E6-5DDC-4DBB-925C-197B6CFBBEDA,en
ZcR52VwISG-A2GmMOYx34Q,newborntown,p1599_1018_104640_app_239253251,Install,0.9,218.103.116.121,0A7B1035-B02B-478A-B563-AFDA8DB97E4B,1557284370,2019-05-08 10:59:30,1557284419,2019-05-08 11:00:19,1557284451,62bcd894-8812-4e69-accb-0c63426febcf__pspm,http://pspm.pingstart.com/api/v4/postback?from=1706&clickid=62bcd894-8812-4e69-accb-0c63426febcf__pspm,idfa_0A7B1035-B02B-478A-B563-AFDA8DB97E4B,zh
ZcR52VwISG-A2GmMOYx34Q,newborntown,p1599_1018_104640_app_239253251,Install,0.9,103.6.51.114,57B8B57E-69B2-4BF9-81AF-571D6CC22DE3,1557284350,2019-05-08 10:59:10,1557284379,2019-05-08 10:59:39,1557284410,8bf0c648-c836-40aa-a20c-e75eb1260f9c__pspm,http://pspm.pingstart.com/api/v4/postback?from=1706&clickid=8bf0c648-c836-40aa-a20c-e75eb1260f9c__pspm,idfa_57B8B57E-69B2-4BF9-81AF-571D6CC22DE3,en
ZcR52VwISG-A2GmMOYx34Q,newborntown,p1599_1018_104640_app_239253251,Install,0.9,203.198.150.167,2DA8A1A0-1765-4A20-94CB-7ED84971EA12,1557237721,2019-05-07 22:02:01,1557237814,2019-05-07 22:03:34,1557237844,921b2add-8835-4812-8411-ade42ca44df3__pspm,http://pspm.pingstart.com/api/v4/postback?from=1706&clickid=921b2add-8835-4812-8411-ade42ca44df3__pspm,idfa_2DA8A1A0-1765-4A20-94CB-7ED84971EA12,zh
ZcR52VwISG-A2GmMOYx34Q,newborntown,p1599_1018_104640_app_239253251,Install,0.9,202.82.230.225,D0115199-75EA-439C-80A7-67B36BA4CB3F,1557237406,2019-05-07 21:56:46,1557237511,2019-05-07 21:58:31,1557237541,b3d44dbc-2146-4a76-8cbd-220b065c1b3b__pspm,http://pspm.pingstart.com/api/v4/postback?from=1706&clickid=b3d44dbc-2146-4a76-8cbd-220b065c1b3b__pspm,idfa_D0115199-75EA-439C-80A7-67B36BA4CB3F,zh
ZcR52VwISG-A2GmMOYx34Q,newborntown,p1599_1018_104640_app_239253251,Install,0.9,223.197.223.161,D1194AAC-115F-426E-AF51-A024BD937D1C,1557238169,2019-05-07 22:09:29,1557238265,2019-05-07 22:11:05,1557238295,2dbd88fd-57d1-46ea-bbd3-95d3c00c9213__pspm,http://pspm.pingstart.com/api/v4/postback?from=1706&clickid=2dbd88fd-57d1-46ea-bbd3-95d3c00c9213__pspm,idfa_D1194AAC-115F-426E-AF51-A024BD937D1C,zh
ZcR52VwISG-A2GmMOYx34Q,newborntown,p1599_1018_104640_app_239253251,Install,0.9,1.64.58.40,194A470D-ADED-4959-A714-61E32C70C9B4,1557284308,2019-05-08 10:58:28,1557284329,2019-05-08 10:58:49,1557284360,b423d16b-4b6f-4334-ab5f-a9e499bdd926__pspm,http://pspm.pingstart.com/api/v4/postback?from=1706&clickid=b423d16b-4b6f-4334-ab5f-a9e499bdd926__pspm,idfa_194A470D-ADED-4959-A714-61E32C70C9B4,en
ZcR52VwISG-A2GmMOYx34Q,newborntown,p1599_1018_104640_app_239253251,Install,0.9,218.103.116.121,6FD16AAD-CDB3-4980-96E3-0FD5DF79DD9C,1557284887,2019-05-08 11:08:07,1557284920,2019-05-08 11:08:40,1557284951,29db763f-c6e3-4acb-8a07-cf62c7d01a99__pspm,http://pspm.pingstart.com/api/v4/postback?from=1706&clickid=29db763f-c6e3-4acb-8a07-cf62c7d01a99__pspm,idfa_6FD16AAD-CDB3-4980-96E3-0FD5DF79DD9C,zh
ZcR52VwISG-A2GmMOYx34Q,newborntown,p1599_1018_104640_app_239253251,Install,0.9,121.202.255.188,1BD0240A-4182-4247-BD53-4B02A3F5E859,1557284378,2019-05-08 10:59:38,1557284407,2019-05-08 11:00:07,1557284438,e5d0b496-0eae-4639-b758-a6b7d7cfc303__pspm,http://pspm.pingstart.com/api/v4/postback?from=1706&clickid=e5d0b496-0eae-4639-b758-a6b7d7cfc303__pspm,idfa_1BD0240A-4182-4247-BD53-4B02A3F5E859,en
ZcR52VwISG-A2GmMOYx34Q,newborntown,p1599_1018_104640_app_239253251,Install,0.9,113.255.228.230,77082E25-9AD7-4248-8E75-311AD7AC0A49,1557237420,2019-05-07 21:57:00,1557237510,2019-05-07 21:58:30,1557237540,90770a9d-d70e-4bd1-93a5-94fda21c0d53__pspm,http://pspm.pingstart.com/api/v4/postback?from=1706&clickid=90770a9d-d70e-4bd1-93a5-94fda21c0d53__pspm,idfa_77082E25-9AD7-4248-8E75-311AD7AC0A49,zh
ZcR52VwISG-A2GmMOYx34Q,newborntown,p1599_1018_104640_app_239253251,Install,0.9,112.120.82.175,FDC8BFB9-2EDB-43D1-8F45-010FF1E7333E,1557238145,2019-05-07 22:09:05,1557238230,2019-05-07 22:10:30,1557238260,894a10da-465f-41df-9e33-49761b5aacdd__pspm,http://pspm.pingstart.com/api/v4/postback?from=1706&clickid=894a10da-465f-41df-9e33-49761b5aacdd__pspm,idfa_FDC8BFB9-2EDB-43D1-8F45-010FF1E7333E,zh
ZcR52VwISG-A2GmMOYx34Q,newborntown,p1599_1018_104640_app_239253251,Install,0.9,59.148.210.242,EC872810-40F0-4AC0-A7B1-21FBF6F37DAB,1557238502,2019-05-07 22:15:02,1557238597,2019-05-07 22:16:37,1557238627,390f19c3-8785-4b6b-b615-29988568a471__pspm,http://pspm.pingstart.com/api/v4/postback?from=1706&clickid=390f19c3-8785-4b6b-b615-29988568a471__pspm,idfa_EC872810-40F0-4AC0-A7B1-21FBF6F37DAB,zh
ZcR52VwISG-A2GmMOYx34Q,newborntown,p1599_1018_104640_app_239253251,Install,0.9,125.59.107.85,B12B0BDE-5DCE-413A-B4B7-E8261682C27B,1557238292,2019-05-07 22:11:32,1557238399,2019-05-07 22:13:19,1557238429,0f15f18c-8130-4bd6-877a-80776aeb9354__pspm,http://pspm.pingstart.com/api/v4/postback?from=1706&clickid=0f15f18c-8130-4bd6-877a-80776aeb9354__pspm,idfa_B12B0BDE-5DCE-413A-B4B7-E8261682C27B,zh
ZcR52VwISG-A2GmMOYx34Q,newborntown,p1599_1018_104640_app_239253251,Install,0.9,59.148.210.242,6C9397D2-7AF9-4784-A953-66B97FC38305,1557237421,2019-05-07 21:57:01,1557237506,2019-05-07 21:58:26,1557237536,e36380b2-e75f-47aa-9632-cd9cb9ebdab1__pspm,http://pspm.pingstart.com/api/v4/postback?from=1706&clickid=e36380b2-e75f-47aa-9632-cd9cb9ebdab1__pspm,idfa_6C9397D2-7AF9-4784-A953-66B97FC38305,zh
ZcR52VwISG-A2GmMOYx34Q,newborntown,p1599_1018_104640_app_239253251,Install,0.9,223.197.163.246,445FE9FC-4F2A-49C9-AEB0-17E115A08DC2,1557237406,2019-05-07 21:56:46,1557237496,2019-05-07 21:58:16,1557237528,c3d12d61-2256-4532-867c-df4fcec155f3__pspm,http://pspm.pingstart.com/api/v4/postback?from=1706&clickid=c3d12d61-2256-4532-867c-df4fcec155f3__pspm,idfa_445FE9FC-4F2A-49C9-AEB0-17E115A08DC2,zh
ZcR52VwISG-A2GmMOYx34Q,newborntown,p1599_1018_104640_app_239253251,Install,0.9,103.6.51.114,32D9F826-DC33-432A-ACA8-443F97ED356A,1557284332,2019-05-08 10:58:52,1557284355,2019-05-08 10:59:15,1557284386,577bf1b4-58b3-45cc-8d17-56b561292991__pspm,http://pspm.pingstart.com/api/v4/postback?from=1706&clickid=577bf1b4-58b3-45cc-8d17-56b561292991__pspm,idfa_32D9F826-DC33-432A-ACA8-443F97ED356A,en
ZcR52VwISG-A2GmMOYx34Q,newborntown,p1599_1018_104640_app_239253251,Install,0.9,219.76.177.98,2AEDE616-7245-4979-BAA6-AF3A48D0647A,1557238484,2019-05-07 22:14:44,1557238567,2019-05-07 22:16:07,1557238597,e3bb75e0-d995-4656-bebe-9d0fc1a06bfe__pspm,http://pspm.pingstart.com/api/v4/postback?from=1706&clickid=e3bb75e0-d995-4656-bebe-9d0fc1a06bfe__pspm,idfa_2AEDE616-7245-4979-BAA6-AF3A48D0647A,zh
ZcR52VwISG-A2GmMOYx34Q,newborntown,p1599_1018_104640_app_239253251,Install,0.9,42.2.139.11,199F43BA-1139-41BC-B5BE-FED4994A5109,1557284830,2019-05-08 11:07:10,1557284854,2019-05-08 11:07:34,1557284885,f1480dbd-3362-4a95-99a5-c91b4249b1a6__pspm,http://pspm.pingstart.com/api/v4/postback?from=1706&clickid=f1480dbd-3362-4a95-99a5-c91b4249b1a6__pspm,idfa_199F43BA-1139-41BC-B5BE-FED4994A5109,en
ZcR52VwISG-A2GmMOYx34Q,newborntown,p1599_1018_104640_app_239253251,Install,0.9,42.200.215.124,3201A51E-73A2-43ED-B562-4479688E6E6A,1557238498,2019-05-07 22:14:58,1557238590,2019-05-07 22:16:30,1557238620,9cc73918-1174-471f-a120-ca943988c6e4__pspm,http://pspm.pingstart.com/api/v4/postback?from=1706&clickid=9cc73918-1174-471f-a120-ca943988c6e4__pspm,idfa_3201A51E-73A2-43ED-B562-4479688E6E6A,zh
ZcR52VwISG-A2GmMOYx34Q,newborntown,p1599_1018_104640_app_239253251,Install,0.9,223.197.223.165,983F6CF1-51F7-4967-8091-35E553E0FB83,1557284834,2019-05-08 11:07:14,1557284864,2019-05-08 11:07:44,1557284895,5da68bfc-523f-41d7-9d6a-7dc16857032b__pspm,http://pspm.pingstart.com/api/v4/postback?from=1706&clickid=5da68bfc-523f-41d7-9d6a-7dc16857032b__pspm,idfa_983F6CF1-51F7-4967-8091-35E553E0FB83,en
ZcR52VwISG-A2GmMOYx34Q,newborntown,p1599_1018_104640_app_239253251,Install,0.9,61.93.209.90,D9C6EB93-874C-4D94-8653-9028EACF4ECF,1557238254,2019-05-07 22:10:54,1557238349,2019-05-07 22:12:29,1557238379,c2f1a585-ea5e-4494-848a-b9e96215d856__pspm,http://pspm.pingstart.com/api/v4/postback?from=1706&clickid=c2f1a585-ea5e-4494-848a-b9e96215d856__pspm,idfa_D9C6EB93-874C-4D94-8653-9028EACF4ECF,zh
ZcR52VwISG-A2GmMOYx34Q,newborntown,p1599_1018_104640_app_239253251,Install,0.9,223.197.223.165,A7F3F2D9-6C6D-4759-8C1E-C897080014A8,1557238162,2019-05-07 22:09:22,1557238273,2019-05-07 22:11:13,1557238303,4933baa2-2cf5-440b-844a-92b72bbd6125__pspm,http://pspm.pingstart.com/api/v4/postback?from=1706&clickid=4933baa2-2cf5-440b-844a-92b72bbd6125__pspm,idfa_A7F3F2D9-6C6D-4759-8C1E-C897080014A8,zh
ZcR52VwISG-A2GmMOYx34Q,newborntown,p1599_1018_104640_app_239253251,Install,0.9,61.93.209.90,DFEFF63F-B583-49B1-92F4-3CF0FC0B2B48,1557237405,2019-05-07 21:56:45,1557237499,2019-05-07 21:58:19,1557237529,a5f4b83d-58d3-4bc6-a188-466c1315631e__pspm,http://pspm.pingstart.com/api/v4/postback?from=1706&clickid=a5f4b83d-58d3-4bc6-a188-466c1315631e__pspm,idfa_DFEFF63F-B583-49B1-92F4-3CF0FC0B2B48,zh
ZcR52VwISG-A2GmMOYx34Q,newborntown,p1599_1018_104640_app_239253251,Install,0.9,1.64.58.40,66DCDDC8-AADB-40E0-B7B6-7D427987B72E,1557284746,2019-05-08 11:05:46,1557284771,2019-05-08 11:06:11,1557284802,c837bcc1-ba6f-4051-8432-9c991d0e12d1__pspm,http://pspm.pingstart.com/api/v4/postback?from=1706&clickid=c837bcc1-ba6f-4051-8432-9c991d0e12d1__pspm,idfa_66DCDDC8-AADB-40E0-B7B6-7D427987B72E,en
ZcR52VwISG-A2GmMOYx34Q,newborntown,p1599_1018_104640_app_239253251,Install,0.9,103.6.178.202,4A32ED12-CA9F-4C43-ADD0-797B878BB3D9,1557284355,2019-05-08 10:59:15,1557284387,2019-05-08 10:59:47,1557284418,f0acd17e-ee7e-48d7-980d-4f724f7e32bb__pspm,http://pspm.pingstart.com/api/v4/postback?from=1706&clickid=f0acd17e-ee7e-48d7-980d-4f724f7e32bb__pspm,idfa_4A32ED12-CA9F-4C43-ADD0-797B878BB3D9,zh
ZcR52VwISG-A2GmMOYx34Q,newborntown,p1599_1018_104640_app_239253251,Install,0.9,61.244.114.180,E68D2C93-2758-489F-9BE9-6ED6EF1C3E1A,1557237509,2019-05-07 21:58:29,1557237592,2019-05-07 21:59:52,1557237623,96818077-3858-4215-8f65-4846b740af5b__pspm,http://pspm.pingstart.com/api/v4/postback?from=1706&clickid=96818077-3858-4215-8f65-4846b740af5b__pspm,idfa_E68D2C93-2758-489F-9BE9-6ED6EF1C3E1A,zh
ZcR52VwISG-A2GmMOYx34Q,newborntown,p1599_1018_104640_app_239253251,Install,0.9,223.197.162.15,8AE83FFB-D3E5-44B1-A97A-0F4D80F8DA60,1557238166,2019-05-07 22:09:26,1557238253,2019-05-07 22:10:53,1557238283,55f1aaa2-e179-4e54-90e2-52b3e29679bc__pspm,http://pspm.pingstart.com/api/v4/postback?from=1706&clickid=55f1aaa2-e179-4e54-90e2-52b3e29679bc__pspm,idfa_8AE83FFB-D3E5-44B1-A97A-0F4D80F8DA60,zh
ZcR52VwISG-A2GmMOYx34Q,newborntown,p1599_1018_104640_app_239253251,Install,0.9,203.198.124.70,D50D2E82-9589-4D01-9AD6-9A573A6F2B2C,1557284370,2019-05-08 10:59:30,1557284401,2019-05-08 11:00:01,1557284432,a22e6def-b043-4a3a-8fea-96689b6dae3f__pspm,http://pspm.pingstart.com/api/v4/postback?from=1706&clickid=a22e6def-b043-4a3a-8fea-96689b6dae3f__pspm,idfa_D50D2E82-9589-4D01-9AD6-9A573A6F2B2C,en
ZcR52VwISG-A2GmMOYx34Q,newborntown,p1599_1018_104640_app_239253251,Install,0.9,103.6.178.202,C41B2304-F4AF-4AFB-BBD7-6A6FE3F9F565,1557238162,2019-05-07 22:09:22,1557238274,2019-05-07 22:11:14,1557238304,73fc5342-be54-41a0-8438-d85c1b32644e__pspm,http://pspm.pingstart.com/api/v4/postback?from=1706&clickid=73fc5342-be54-41a0-8438-d85c1b32644e__pspm,idfa_C41B2304-F4AF-4AFB-BBD7-6A6FE3F9F565,zh
ZcR52VwISG-A2GmMOYx34Q,newborntown,p1599_1018_104640_app_239253251,Install,0.9,218.103.126.211,65370943-EB0E-4C3E-8C17-E212DB376B68,1557284789,2019-05-08 11:06:29,1557284812,2019-05-08 11:06:52,1557284843,659a1a18-2683-4450-b4ef-62ec2c11188d__pspm,http://pspm.pingstart.com/api/v4/postback?from=1706&clickid=659a1a18-2683-4450-b4ef-62ec2c11188d__pspm,idfa_65370943-EB0E-4C3E-8C17-E212DB376B68,en
ZcR52VwISG-A2GmMOYx34Q,newborntown,p1599_1018_104640_app_239253251,Install,0.9,218.103.116.121,22AFA461-C8AF-464E-9B2C-B42B3BD61B52,1557237423,2019-05-07 21:57:03,1557237513,2019-05-07 21:58:33,1557237543,22d95298-76fe-40e9-8afc-5b7f7379dc8a__pspm,http://pspm.pingstart.com/api/v4/postback?from=1706&clickid=22d95298-76fe-40e9-8afc-5b7f7379dc8a__pspm,idfa_22AFA461-C8AF-464E-9B2C-B42B3BD61B52,zh
ZcR52VwISG-A2GmMOYx34Q,newborntown,p1599_1018_104640_app_239253251,Install,0.9,223.197.142.140,FB7EC7C3-97D4-4E51-815E-90082A438BC5,1557238237,2019-05-07 22:10:37,1557238349,2019-05-07 22:12:29,1557238379,82fe9548-4134-49c8-8bdd-a4f11b32fbd4__pspm,http://pspm.pingstart.com/api/v4/postback?from=1706&clickid=82fe9548-4134-49c8-8bdd-a4f11b32fbd4__pspm,idfa_FB7EC7C3-97D4-4E51-815E-90082A438BC5,zh
ZcR52VwISG-A2GmMOYx34Q,newborntown,p1599_1018_104640_app_239253251,Install,0.9,103.6.51.114,499B8D51-2441-4688-A52B-2F5D501DF86B,1557238272,2019-05-07 22:11:12,1557238369,2019-05-07 22:12:49,1557238399,7b6fbcb8-62f5-4a64-8cb4-74e3b4317ab3__pspm,http://pspm.pingstart.com/api/v4/postback?from=1706&clickid=7b6fbcb8-62f5-4a64-8cb4-74e3b4317ab3__pspm,idfa_499B8D51-2441-4688-A52B-2F5D501DF86B,zh
ZcR52VwISG-A2GmMOYx34Q,newborntown,p1599_1018_104640_app_239253251,Install,0.9,43.240.117.239,F3E56EA3-420A-4350-9007-43B7A90088F7,1557238167,2019-05-07 22:09:27,1557238276,2019-05-07 22:11:16,1557238306,6518dd57-7743-4fc2-bf44-8372731f7fc7__pspm,http://pspm.pingstart.com/api/v4/postback?from=1706&clickid=6518dd57-7743-4fc2-bf44-8372731f7fc7__pspm,idfa_F3E56EA3-420A-4350-9007-43B7A90088F7,zh
ZcR52VwISG-A2GmMOYx34Q,newborntown,p1599_1018_104640_app_239253251,Install,0.9,203.198.151.85,75278EFB-EE87-4A1A-AD39-134BF5131351,1557238500,2019-05-07 22:15:00,1557238612,2019-05-07 22:16:52,1557238642,c1b2e0d8-19b2-4ab6-9c96-12b3ebc65ebc__pspm,http://pspm.pingstart.com/api/v4/postback?from=1706&clickid=c1b2e0d8-19b2-4ab6-9c96-12b3ebc65ebc__pspm,idfa_75278EFB-EE87-4A1A-AD39-134BF5131351,zh
ZcR52VwISG-A2GmMOYx34Q,newborntown,p1599_1018_104640_app_239253251,Install,0.9,202.82.230.225,81301948-9DBB-48A0-801C-CD7593B24220,1557237708,2019-05-07 22:01:48,1557237818,2019-05-07 22:03:38,1557237848,822f5cd6-5afe-436e-9a84-97eb4927ba85__pspm,http://pspm.pingstart.com/api/v4/postback?from=1706&clickid=822f5cd6-5afe-436e-9a84-97eb4927ba85__pspm,idfa_81301948-9DBB-48A0-801C-CD7593B24220,zh
ZcR52VwISG-A2GmMOYx34Q,newborntown,p1599_1018_104640_app_239253251,Install,0.9,223.18.164.10,A3A3F1D7-769B-4117-9336-C0E647DD47B1,1557284441,2019-05-08 11:00:41,1557284467,2019-05-08 11:01:07,1557284499,ce3450ab-e02b-4350-8b3d-013e18ed1f1e__pspm,http://pspm.pingstart.com/api/v4/postback?from=1706&clickid=ce3450ab-e02b-4350-8b3d-013e18ed1f1e__pspm,idfa_A3A3F1D7-769B-4117-9336-C0E647DD47B1,zh
ZcR52VwISG-A2GmMOYx34Q,newborntown,p1599_1018_104640_app_239253251,Install,0.9,203.198.149.164,7C5EEBE4-256B-4B40-BC66-78B5CA3ACA43,1557284360,2019-05-08 10:59:20,1557284389,2019-05-08 10:59:49,1557284419,f5bb051e-104f-45f0-aadc-d93a62beba41__pspm,http://pspm.pingstart.com/api/v4/postback?from=1706&clickid=f5bb051e-104f-45f0-aadc-d93a62beba41__pspm,idfa_7C5EEBE4-256B-4B40-BC66-78B5CA3ACA43,en
ZcR52VwISG-A2GmMOYx34Q,newborntown,p1599_1018_104640_app_239253251,Install,0.9,223.197.167.43,B0A329DC-69A8-4D6A-A7EE-066D2846CAF2,1557284888,2019-05-08 11:08:08,1557284913,2019-05-08 11:08:33,1557284944,f9b6919c-9c7d-40bb-a184-045eb633c62b__pspm,http://pspm.pingstart.com/api/v4/postback?from=1706&clickid=f9b6919c-9c7d-40bb-a184-045eb633c62b__pspm,idfa_B0A329DC-69A8-4D6A-A7EE-066D2846CAF2,en
ZcR52VwISG-A2GmMOYx34Q,newborntown,p1599_1018_104640_app_239253251,Install,0.9,43.240.117.239,E94FA35E-88E6-474F-9F09-FB621A976725,1557284359,2019-05-08 10:59:19,1557284390,2019-05-08 10:59:50,1557284421,54a9772c-268d-4ced-9f06-a24270638c4b__pspm,http://pspm.pingstart.com/api/v4/postback?from=1706&clickid=54a9772c-268d-4ced-9f06-a24270638c4b__pspm,idfa_E94FA35E-88E6-474F-9F09-FB621A976725,zh
ZcR52VwISG-A2GmMOYx34Q,newborntown,p1599_1018_104640_app_239253251,Install,0.9,112.120.82.232,4982F01D-D9AC-4557-8B4B-3CF99D20540D,1557284344,2019-05-08 10:59:04,1557284366,2019-05-08 10:59:26,1557284397,0ce00914-79be-4eaf-b8e3-0ad53c3b6487__pspm,http://pspm.pingstart.com/api/v4/postback?from=1706&clickid=0ce00914-79be-4eaf-b8e3-0ad53c3b6487__pspm,idfa_4982F01D-D9AC-4557-8B4B-3CF99D20540D,en
ZcR52VwISG-A2GmMOYx34Q,newborntown,p1599_1018_104640_app_239253251,Install,0.9,175.45.35.182,65FAE2E8-48B7-49D4-AE6B-11BA1B6FE462,1557284787,2019-05-08 11:06:27,1557284815,2019-05-08 11:06:55,1557284846,ec164e2e-60ea-46ff-9814-d753d570b345__pspm,http://pspm.pingstart.com/api/v4/postback?from=1706&clickid=ec164e2e-60ea-46ff-9814-d753d570b345__pspm,idfa_65FAE2E8-48B7-49D4-AE6B-11BA1B6FE462,en
ZcR52VwISG-A2GmMOYx34Q,newborntown,p1599_1018_104640_app_239253251,Install,0.9,59.148.210.242,34AECBBF-A30E-4FF2-AFE2-AE5A32857B1C,1557284803,2019-05-08 11:06:43,1557284824,2019-05-08 11:07:04,1557284855,649bcafd-e46f-462f-83da-add8c486bcd4__pspm,http://pspm.pingstart.com/api/v4/postback?from=1706&clickid=649bcafd-e46f-462f-83da-add8c486bcd4__pspm,idfa_34AECBBF-A30E-4FF2-AFE2-AE5A32857B1C,en
ZcR52VwISG-A2GmMOYx34Q,newborntown,p1599_1018_104640_app_239253251,Install,0.9,182.239.58.169,6332EA8F-7DCD-4B5E-962A-D6C4C852C221,1557238171,2019-05-07 22:09:31,1557238306,2019-05-07 22:11:46,1557238336,76697b04-af12-4c9d-8942-7b00c866ee75__pspm,http://pspm.pingstart.com/api/v4/postback?from=1706&clickid=76697b04-af12-4c9d-8942-7b00c866ee75__pspm,idfa_6332EA8F-7DCD-4B5E-962A-D6C4C852C221,zh
ZcR52VwISG-A2GmMOYx34Q,newborntown,p1599_1018_104640_app_239253251,Install,0.9,203.198.149.181,2225E0CE-3A48-42A5-942B-373A177706B2,1557238483,2019-05-07 22:14:43,1557238578,2019-05-07 22:16:18,1557238608,b6a87765-ff2e-48fa-9359-83e305e5172c__pspm,http://pspm.pingstart.com/api/v4/postback?from=1706&clickid=b6a87765-ff2e-48fa-9359-83e305e5172c__pspm,idfa_2225E0CE-3A48-42A5-942B-373A177706B2,zh
ZcR52VwISG-A2GmMOYx34Q,newborntown,p1599_1018_104640_app_239253251,Install,0.9,203.198.149.181,AAB427F1-7293-42A0-8DD7-373A8A3B7837,1557238478,2019-05-07 22:14:38,1557238569,2019-05-07 22:16:09,1557238600,ad0d7144-5a27-414a-82f4-50db29a4abd8__pspm,http://pspm.pingstart.com/api/v4/postback?from=1706&clickid=ad0d7144-5a27-414a-82f4-50db29a4abd8__pspm,idfa_AAB427F1-7293-42A0-8DD7-373A8A3B7837,zh
ZcR52VwISG-A2GmMOYx34Q,newborntown,p1599_1018_104640_app_239253251,Install,0.9,203.198.149.181,BB2AC0B8-2B26-46C1-8029-6A6E95668D15,1557284966,2019-05-08 11:09:26,1557284997,2019-05-08 11:09:57,1557285028,1551137c-0888-4d30-a2a7-ca47a38c8c7d__pspm,http://pspm.pingstart.com/api/v4/postback?from=1706&clickid=1551137c-0888-4d30-a2a7-ca47a38c8c7d__pspm,idfa_BB2AC0B8-2B26-46C1-8029-6A6E95668D15,en
ZcR52VwISG-A2GmMOYx34Q,newborntown,p1599_1018_104640_app_239253251,Install,0.9,175.45.35.182,73269587-EBAC-45BE-8110-7B50D54029F8,1557237597,2019-05-07 21:59:57,1557237694,2019-05-07 22:01:34,1557237724,73282637-9d17-4068-817c-943797d89b8a__pspm,http://pspm.pingstart.com/api/v4/postback?from=1706&clickid=73282637-9d17-4068-817c-943797d89b8a__pspm,idfa_73269587-EBAC-45BE-8110-7B50D54029F8,zh
ZcR52VwISG-A2GmMOYx34Q,newborntown,p1599_1018_104640_app_239253251,Install,0.9,203.198.148.196,4EFDFD61-5323-47AD-B8B8-C8F24426E7DC,1557284808,2019-05-08 11:06:48,1557284838,2019-05-08 11:07:18,1557284870,431bde73-f118-4d93-ad1b-7378526e3889__pspm,http://pspm.pingstart.com/api/v4/postback?from=1706&clickid=431bde73-f118-4d93-ad1b-7378526e3889__pspm,idfa_4EFDFD61-5323-47AD-B8B8-C8F24426E7DC,en
ZcR52VwISG-A2GmMOYx34Q,newborntown,p1599_1018_104640_app_239253251,Install,0.9,219.76.177.98,8316E217-DFD5-4B86-8107-A9C45F0ECC9F,1557284361,2019-05-08 10:59:21,1557284382,2019-05-08 10:59:42,1557284413,1e7597e9-4968-40df-9da1-3754b1de70cf__pspm,http://pspm.pingstart.com/api/v4/postback?from=1706&clickid=1e7597e9-4968-40df-9da1-3754b1de70cf__pspm,idfa_8316E217-DFD5-4B86-8107-A9C45F0ECC9F,en
ZcR52VwISG-A2GmMOYx34Q,newborntown,p1599_1018_104640_app_239253251,Install,0.9,116.48.159.160,658EB2F9-43E4-4BEC-A0F4-17E9FBF408A0,1557284793,2019-05-08 11:06:33,1557284820,2019-05-08 11:07:00,1557284851,74dd3402-c443-4a02-8c1b-baba7caac5a1__pspm,http://pspm.pingstart.com/api/v4/postback?from=1706&clickid=74dd3402-c443-4a02-8c1b-baba7caac5a1__pspm,idfa_658EB2F9-43E4-4BEC-A0F4-17E9FBF408A0,en
ZcR52VwISG-A2GmMOYx34Q,newborntown,p1599_1018_104640_app_239253251,Install,0.9,113.28.9.22,B63097A4-6EE0-4AFB-A512-6375A3FB0C55,1557238146,2019-05-07 22:09:06,1557238248,2019-05-07 22:10:48,1557238278,c76687f3-1fee-4e6f-8cf3-8fa49070c49d__pspm,http://pspm.pingstart.com/api/v4/postback?from=1706&clickid=c76687f3-1fee-4e6f-8cf3-8fa49070c49d__pspm,idfa_B63097A4-6EE0-4AFB-A512-6375A3FB0C55,zh
ZcR52VwISG-A2GmMOYx34Q,newborntown,p1599_1018_104640_app_239253251,Install,0.9,182.239.58.169,F3268660-7E90-487B-BFC5-68BFFEC8EFB8,1557238171,2019-05-07 22:09:31,1557238270,2019-05-07 22:11:10,1557238300,f6c68adb-7869-4cfe-a3ea-03c4e27c94a9__pspm,http://pspm.pingstart.com/api/v4/postback?from=1706&clickid=f6c68adb-7869-4cfe-a3ea-03c4e27c94a9__pspm,idfa_F3268660-7E90-487B-BFC5-68BFFEC8EFB8,zh
ZcR52VwISG-A2GmMOYx34Q,newborntown,p1599_1018_104640_app_239253251,Install,0.9,61.244.114.180,33B0AA50-9ACF-41A1-8C7E-B685D5D06FE4,1557284868,2019-05-08 11:07:48,1557284890,2019-05-08 11:08:10,1557284921,43603b4e-53a5-4aca-957c-0c8beb17254d__pspm,http://pspm.pingstart.com/api/v4/postback?from=1706&clickid=43603b4e-53a5-4aca-957c-0c8beb17254d__pspm,idfa_33B0AA50-9ACF-41A1-8C7E-B685D5D06FE4,en
ZcR52VwISG-A2GmMOYx34Q,newborntown,p1599_1018_104640_app_239253251,Install,0.9,210.176.61.250,FA697EF8-1D71-4247-9EFA-25994A5B40E5,1557284456,2019-05-08 11:00:56,1557284487,2019-05-08 11:01:27,1557284518,5e6a7332-5e8c-4e14-bcf9-b997619a655c__pspm,http://pspm.pingstart.com/api/v4/postback?from=1706&clickid=5e6a7332-5e8c-4e14-bcf9-b997619a655c__pspm,idfa_FA697EF8-1D71-4247-9EFA-25994A5B40E5,zh
ZcR52VwISG-A2GmMOYx34Q,newborntown,p1599_1018_104640_app_239253251,Install,0.9,113.255.228.230,AA6EC39C-0A62-44A3-AC46-CA5D5CD64EAC,1557237566,2019-05-07 21:59:26,1557237657,2019-05-07 22:00:57,1557237687,7df183f4-fd77-4f33-af5a-db9227fd90a7__pspm,http://pspm.pingstart.com/api/v4/postback?from=1706&clickid=7df183f4-fd77-4f33-af5a-db9227fd90a7__pspm,idfa_AA6EC39C-0A62-44A3-AC46-CA5D5CD64EAC,zh
ZcR52VwISG-A2GmMOYx34Q,newborntown,p1599_1018_104640_app_239253251,Install,0.9,223.197.223.219,8099CCDD-A45F-4016-8245-A338F48FFC6A,1557284757,2019-05-08 11:05:57,1557284785,2019-05-08 11:06:25,1557284816,9f4644f7-05cb-4db3-abb6-654118396f3a__pspm,http://pspm.pingstart.com/api/v4/postback?from=1706&clickid=9f4644f7-05cb-4db3-abb6-654118396f3a__pspm,idfa_8099CCDD-A45F-4016-8245-A338F48FFC6A,en
ZcR52VwISG-A2GmMOYx34Q,newborntown,p1599_1018_104640_app_239253251,Install,0.9,202.82.230.225,58164E63-14DB-411D-946A-40D4E7CC6A0F,1557284435,2019-05-08 11:00:35,1557284460,2019-05-08 11:01:00,1557284491,7147f23a-bb00-4871-93be-454b7a883122__pspm,http://pspm.pingstart.com/api/v4/postback?from=1706&clickid=7147f23a-bb00-4871-93be-454b7a883122__pspm,idfa_58164E63-14DB-411D-946A-40D4E7CC6A0F,zh
ZcR52VwISG-A2GmMOYx34Q,newborntown,p1599_1018_104640_app_239253251,Install,0.9,223.197.163.246,1FB09BE4-8433-4460-ABC1-1455F7FB3C62,1557284332,2019-05-08 10:58:52,1557284354,2019-05-08 10:59:14,1557284384,58cebe6f-7587-410f-a97e-a9a7c3026634__pspm,http://pspm.pingstart.com/api/v4/postback?from=1706&clickid=58cebe6f-7587-410f-a97e-a9a7c3026634__pspm,idfa_1FB09BE4-8433-4460-ABC1-1455F7FB3C62,en
ZcR52VwISG-A2GmMOYx34Q,newborntown,p1599_1018_104640_app_239253251,Install,0.9,202.82.230.225,FE3241D2-FD9E-4D54-B638-66CEDA7DAE71,1557237500,2019-05-07 21:58:20,1557237592,2019-05-07 21:59:52,1557237623,dcc1a0fd-0c08-4785-a607-3a0887669e4b__pspm,http://pspm.pingstart.com/api/v4/postback?from=1706&clickid=dcc1a0fd-0c08-4785-a607-3a0887669e4b__pspm,idfa_FE3241D2-FD9E-4D54-B638-66CEDA7DAE71,zh
ZcR52VwISG-A2GmMOYx34Q,newborntown,p1599_1018_104640_app_239253251,Install,0.9,203.198.124.70,2BF543FA-68B9-42AA-9F8B-2DC9A872AFB3,1557284351,2019-05-08 10:59:11,1557284379,2019-05-08 10:59:39,1557284410,c8b87da8-6471-42db-bd33-ddcb89647c30__pspm,http://pspm.pingstart.com/api/v4/postback?from=1706&clickid=c8b87da8-6471-42db-bd33-ddcb89647c30__pspm,idfa_2BF543FA-68B9-42AA-9F8B-2DC9A872AFB3,en
ZcR52VwISG-A2GmMOYx34Q,newborntown,p1599_1018_104640_app_239253251,Install,0.9,218.103.126.211,14A8DD93-DBE6-45C6-BB84-75AC887815DD,1557237416,2019-05-07 21:56:56,1557237517,2019-05-07 21:58:37,1557237547,84ce2145-df9d-4f71-a682-c058489bd467__pspm,http://pspm.pingstart.com/api/v4/postback?from=1706&clickid=84ce2145-df9d-4f71-a682-c058489bd467__pspm,idfa_14A8DD93-DBE6-45C6-BB84-75AC887815DD,zh
ZcR52VwISG-A2GmMOYx34Q,newborntown,p1599_1018_104640_app_239253251,Install,0.9,203.198.151.85,F64C9D24-4FBD-44ED-B2E7-12F6B7F4E9D9,1557237416,2019-05-07 21:56:56,1557237509,2019-05-07 21:58:29,1557237539,c5e0b8e1-3939-4ca0-ae87-8e84965412c2__pspm,http://pspm.pingstart.com/api/v4/postback?from=1706&clickid=c5e0b8e1-3939-4ca0-ae87-8e84965412c2__pspm,idfa_F64C9D24-4FBD-44ED-B2E7-12F6B7F4E9D9,zh
ZcR52VwISG-A2GmMOYx34Q,newborntown,p1599_1018_104640_app_239253251,Install,0.9,218.103.116.121,AA501CD7-783E-4652-823B-7C323F4E665A,1557284377,2019-05-08 10:59:37,1557284408,2019-05-08 11:00:08,1557284439,19af8523-b457-4960-877d-de446dd2a23f__pspm,http://pspm.pingstart.com/api/v4/postback?from=1706&clickid=19af8523-b457-4960-877d-de446dd2a23f__pspm,idfa_AA501CD7-783E-4652-823B-7C323F4E665A,en
ZcR52VwISG-A2GmMOYx34Q,newborntown,p1599_1018_104640_app_239253251,Install,0.9,223.197.223.29,04D3DCB0-F7AF-4976-9290-5ACD2A3225F9,1557284351,2019-05-08 10:59:11,1557284383,2019-05-08 10:59:43,1557284413,2034c939-b446-4f9f-aad6-1e5b36b6fa84__pspm,http://pspm.pingstart.com/api/v4/postback?from=1706&clickid=2034c939-b446-4f9f-aad6-1e5b36b6fa84__pspm,idfa_04D3DCB0-F7AF-4976-9290-5ACD2A3225F9,en
ZcR52VwISG-A2GmMOYx34Q,newborntown,p1599_1018_104640_app_239253251,Install,0.9,218.103.116.121,0716A225-85FB-46A0-8917-B36358BA6219,1557284844,2019-05-08 11:07:24,1557284882,2019-05-08 11:08:02,1557284912,77e8bf8f-443f-45a1-8e94-225fc4c8c2a7__pspm,http://pspm.pingstart.com/api/v4/postback?from=1706&clickid=77e8bf8f-443f-45a1-8e94-225fc4c8c2a7__pspm,idfa_0716A225-85FB-46A0-8917-B36358BA6219,zh
ZcR52VwISG-A2GmMOYx34Q,newborntown,p1599_1018_104640_app_239253251,Install,0.9,223.197.163.246,B274ACCD-BCF9-442E-8A34-20745FB3BD28,1557284519,2019-05-08 11:01:59,1557284540,2019-05-08 11:02:20,1557284571,19e378d2-2581-4b92-b970-64f89dec1fb7__pspm,http://pspm.pingstart.com/api/v4/postback?from=1706&clickid=19e378d2-2581-4b92-b970-64f89dec1fb7__pspm,idfa_B274ACCD-BCF9-442E-8A34-20745FB3BD28,en
ZcR52VwISG-A2GmMOYx34Q,newborntown,p1599_1018_104640_app_239253251,Install,0.9,223.197.223.29,D1617735-EE12-459E-9C57-2E63A0790350,1557284474,2019-05-08 11:01:14,1557284501,2019-05-08 11:01:41,1557284532,717ae0f4-e3a8-44ca-861c-f93f95b02bc5__pspm,http://pspm.pingstart.com/api/v4/postback?from=1706&clickid=717ae0f4-e3a8-44ca-861c-f93f95b02bc5__pspm,idfa_D1617735-EE12-459E-9C57-2E63A0790350,en
ZcR52VwISG-A2GmMOYx34Q,newborntown,p1599_1018_104640_app_239253251,Install,0.9,202.82.230.225,B81168F1-E9DC-40B3-BE0F-E3C42310EDBA,1557284756,2019-05-08 11:05:56,1557284781,2019-05-08 11:06:21,1557284812,713a0198-32f2-435b-8e9b-176cc3ff6e7b__pspm,http://pspm.pingstart.com/api/v4/postback?from=1706&clickid=713a0198-32f2-435b-8e9b-176cc3ff6e7b__pspm,idfa_B81168F1-E9DC-40B3-BE0F-E3C42310EDBA,en
ZcR52VwISG-A2GmMOYx34Q,newborntown,p1599_1018_104640_app_239253251,Install,0.9,112.120.82.232,F0D4C869-C32A-4661-B2AE-16AD1F2C4610,1557237415,2019-05-07 21:56:55,1557237509,2019-05-07 21:58:29,1557237539,4d922166-8582-4fb3-beb8-7b3a9b4fad36__pspm,http://pspm.pingstart.com/api/v4/postback?from=1706&clickid=4d922166-8582-4fb3-beb8-7b3a9b4fad36__pspm,idfa_F0D4C869-C32A-4661-B2AE-16AD1F2C4610,zh
ZcR52VwISG-A2GmMOYx34Q,newborntown,p1599_1018_104640_app_239253251,Install,0.9,203.198.148.196,B5351102-1F6A-48AF-B5D5-F741711641B1,1557238277,2019-05-07 22:11:17,1557238376,2019-05-07 22:12:56,1557238406,8effdb51-4dad-4c89-a6fb-26d00f075f32__pspm,http://pspm.pingstart.com/api/v4/postback?from=1706&clickid=8effdb51-4dad-4c89-a6fb-26d00f075f32__pspm,idfa_B5351102-1F6A-48AF-B5D5-F741711641B1,zh
ZcR52VwISG-A2GmMOYx34Q,newborntown,p1599_1018_104640_app_239253251,Install,0.9,223.197.142.140,A83D4291-4F8C-4628-A87E-BFD3E992AAF7,1557284722,2019-05-08 11:05:22,1557284741,2019-05-08 11:05:41,1557284772,3e81b628-8bef-44be-a60b-9e7c76a79b4f__pspm,http://pspm.pingstart.com/api/v4/postback?from=1706&clickid=3e81b628-8bef-44be-a60b-9e7c76a79b4f__pspm,idfa_A83D4291-4F8C-4628-A87E-BFD3E992AAF7,en
ZcR52VwISG-A2GmMOYx34Q,newborntown,p1599_1018_104640_app_239253251,Install,0.9,59.148.210.242,ED7EB9EA-60CF-4D3B-9B31-94A97FEA46B6,1557284793,2019-05-08 11:06:33,1557284823,2019-05-08 11:07:03,1557284853,98f5de81-1dbb-4653-b039-a6461a05624d__pspm,http://pspm.pingstart.com/api/v4/postback?from=1706&clickid=98f5de81-1dbb-4653-b039-a6461a05624d__pspm,idfa_ED7EB9EA-60CF-4D3B-9B31-94A97FEA46B6,zh
ZcR52VwISG-A2GmMOYx34Q,newborntown,p1599_1018_104640_app_239253251,Install,0.9,202.82.230.225,E6788CC3-0830-4258-8766-E4E50753FD4E,1557237400,2019-05-07 21:56:40,1557237491,2019-05-07 21:58:11,1557237522,a0e2e909-d521-44e3-8cb4-8aacf43f7404__pspm,http://pspm.pingstart.com/api/v4/postback?from=1706&clickid=a0e2e909-d521-44e3-8cb4-8aacf43f7404__pspm,idfa_E6788CC3-0830-4258-8766-E4E50753FD4E,zh
ZcR52VwISG-A2GmMOYx34Q,newborntown,p1599_1018_104640_app_239253251,Install,0.9,182.239.58.168,674D9151-142B-4EB8-906F-D6371DA6BDEB,1557238196,2019-05-07 22:09:56,1557238342,2019-05-07 22:12:22,1557238372,1858ab3d-1e24-47f4-871c-60cbd8493efb__pspm,http://pspm.pingstart.com/api/v4/postback?from=1706&clickid=1858ab3d-1e24-47f4-871c-60cbd8493efb__pspm,idfa_674D9151-142B-4EB8-906F-D6371DA6BDEB,zh
ZcR52VwISG-A2GmMOYx34Q,newborntown,p1599_1018_104640_app_239253251,Install,0.9,203.198.149.164,0C4B16A5-62DA-4A34-B7B8-B9F1D77ED7F6,1557237720,2019-05-07 22:02:00,1557237823,2019-05-07 22:03:43,1557237854,5c08db28-d71c-4b11-8f15-01cb41692af2__pspm,http://pspm.pingstart.com/api/v4/postback?from=1706&clickid=5c08db28-d71c-4b11-8f15-01cb41692af2__pspm,idfa_0C4B16A5-62DA-4A34-B7B8-B9F1D77ED7F6,zh
ZcR52VwISG-A2GmMOYx34Q,newborntown,p1599_1018_104640_app_239253251,Install,0.9,223.197.223.164,D810002F-8777-4F7B-BF22-793B27266AA3,1557238147,2019-05-07 22:09:07,1557238254,2019-05-07 22:10:54,1557238285,8f2eeafc-8600-4b56-8bd7-25b82ba6f760__pspm,http://pspm.pingstart.com/api/v4/postback?from=1706&clickid=8f2eeafc-8600-4b56-8bd7-25b82ba6f760__pspm,idfa_D810002F-8777-4F7B-BF22-793B27266AA3,zh
