cid,partner_id,channel_id,action_id,cpi,ip,idfa,click time,click datetime,install time,install datetime,postback time,click id,postback url,unique user id
1k602Ua6Themf8ieX1zcDA,newborntown,p1886_966-10530966,Install,0.9,121.178.119.66,C281A27D-7A33-4B8B-9D6A-B01359B2C3DD,1559221362,2019-05-30 21:02:42,1559233228,2019-05-31 00:20:28,1559233260,117ac57a-8471-4acc-b628-8a307441e487__pspm,http://pspm.pingstart.com/api/v4/postback?from=1706&clickid=117ac57a-8471-4acc-b628-8a307441e487__pspm,idfa_C281A27D-7A33-4B8B-9D6A-B01359B2C3DD,ko-KR
1k602Ua6Themf8ieX1zcDA,newborntown,p1886_921-1956137,Install,0.9,221.140.71.8,417A8FAF-D754-44EF-A2B2-0AFF9442B946,1559307912,2019-05-31 21:05:12,1559308032,2019-05-31 21:07:12,1559308063,b37d881a-3c94-4bd0-af6c-f63ba5a35c3b__pspm,http://pspm.pingstart.com/api/v4/postback?from=1706&clickid=b37d881a-3c94-4bd0-af6c-f63ba5a35c3b__pspm,idfa_417A8FAF-D754-44EF-A2B2-0AFF9442B946,ko-KR
1k602Ua6Themf8ieX1zcDA,newborntown,p1886_921-1956137,Install,0.9,59.5.236.120,EB83ADBC-3854-46B6-BDC4-108FBCD9E9FF,1559314720,2019-05-31 22:58:40,1559314928,2019-05-31 23:02:08,1559314959,c0629ef5-bdc7-453d-a44e-0ef90bcf8524__pspm,http://pspm.pingstart.com/api/v4/postback?from=1706&clickid=c0629ef5-bdc7-453d-a44e-0ef90bcf8524__pspm,idfa_EB83ADBC-3854-46B6-BDC4-108FBCD9E9FF,ko-KR
1k602Ua6Themf8ieX1zcDA,newborntown,p1886_921-1955089,Install,0.9,218.54.142.248,4740AB23-99B9-4DB7-875F-FB3965347995,1559300027,2019-05-31 18:53:47,1559300155,2019-05-31 18:55:55,1559300186,75dff338-a5ea-42ea-8d87-1c9975dd9185__pspm,http://pspm.pingstart.com/api/v4/postback?from=1706&clickid=75dff338-a5ea-42ea-8d87-1c9975dd9185__pspm,idfa_4740AB23-99B9-4DB7-875F-FB3965347995,ko-KR
