cid,partner_id,channel_id,action_id,cpi,ip,idfa,click time,click datetime,install time,install datetime,postback time,click id,postback url,unique user id
nGtISwDnTEK3S12GX4aiNA,newborntown,p1802_103107_2256,Install,0.6,,6BAA5682-265F-4056-A6B6-C93DBCA66DCA,1557456710,2019-05-10 10:51:50,1557470539,2019-05-10 14:42:19,1557470539,de9ee8de-5012-4bd4-9717-87627d3da85d__pspm,http://pspm.pingstart.com/api/v4/postback?from=1706&clickid=de9ee8de-5012-4bd4-9717-87627d3da85d__pspm,idfa_6BAA5682-265F-4056-A6B6-C93DBCA66DCA,
nGtISwDnTEK3S12GX4aiNA,newborntown,p1802_103107_70555291,Install,0.6,,A11363E8-10B6-4943-9A9E-4C6B8C17A211,1558066470,2019-05-17 12:14:30,1558074453,2019-05-17 14:27:33,1558074453,e29bdea6-6d1b-4ccd-ab4e-c4e3a9723018__pspm,http://pspm.pingstart.com/api/v4/postback?from=1706&clickid=e29bdea6-6d1b-4ccd-ab4e-c4e3a9723018__pspm,idfa_A11363E8-10B6-4943-9A9E-4C6B8C17A211,
nGtISwDnTEK3S12GX4aiNA,newborntown,p1802_103107_97689584,Install,0.6,,E4A98E2E-04FD-F8C1-51E8-122DC4FC2453,1557904257,2019-05-15 15:10:57,1557908944,2019-05-15 16:29:04,1557908944,07a4cf92-543a-4feb-80cf-4b81df8135ae__pspm,http://pspm.pingstart.com/api/v4/postback?from=1706&clickid=07a4cf92-543a-4feb-80cf-4b81df8135ae__pspm,idfa_E4A98E2E-04FD-F8C1-51E8-122DC4FC2453,
nGtISwDnTEK3S12GX4aiNA,newborntown,p1802_103107_30133956,Install,0.6,,D237F6C5-E5DA-4977-8536-9BF794F4BF1F,1556709144,2019-05-01 19:12:24,1556718679,2019-05-01 21:51:19,1556718679,64089563-5a9e-46b2-ac38-acb0b40aea33__pspm,http://pspm.pingstart.com/api/v4/postback?from=1706&clickid=64089563-5a9e-46b2-ac38-acb0b40aea33__pspm,idfa_D237F6C5-E5DA-4977-8536-9BF794F4BF1F,
nGtISwDnTEK3S12GX4aiNA,newborntown,p1802_103107_2256,Install,0.6,,6469B28B-0DF3-AB25-D856-617BF98C36DE,1557382399,2019-05-09 14:13:19,1557393430,2019-05-09 17:17:10,1557393430,131d7ce7-7807-4cb3-a109-8c9d5099c15b__pspm,http://pspm.pingstart.com/api/v4/postback?from=1706&clickid=131d7ce7-7807-4cb3-a109-8c9d5099c15b__pspm,idfa_6469B28B-0DF3-AB25-D856-617BF98C36DE,
nGtISwDnTEK3S12GX4aiNA,newborntown,p1802_103107_97689584,Install,0.6,,7473A361-A950-2489-31B3-BEE0E1C7F791,1557929367,2019-05-15 22:09:27,1557999744,2019-05-16 17:42:24,1557999744,7379ff71-c1eb-4419-93fd-f5f7e67e9047__pspm,http://pspm.pingstart.com/api/v4/postback?from=1706&clickid=7379ff71-c1eb-4419-93fd-f5f7e67e9047__pspm,idfa_7473A361-A950-2489-31B3-BEE0E1C7F791,
nGtISwDnTEK3S12GX4aiNA,newborntown,p1802_103107_2997,Install,0.6,,EFEB696A-E5B9-45E1-BA02-E682984D9ACA,1556950778,2019-05-04 14:19:38,1556988711,2019-05-05 00:51:51,1556988711,dc836833-c118-4624-8803-2f03704e2cc9__pspm,http://pspm.pingstart.com/api/v4/postback?from=1706&clickid=dc836833-c118-4624-8803-2f03704e2cc9__pspm,idfa_EFEB696A-E5B9-45E1-BA02-E682984D9ACA,
nGtISwDnTEK3S12GX4aiNA,newborntown,p1802_103107_97689584,Install,0.6,,BAD22F4B-3665-4CCB-8444-F642DEF5AA36,1556726906,2019-05-02 00:08:26,1556758012,2019-05-02 08:46:52,1556758012,774dcfad-d4c5-4c29-846b-5857b5180f73__pspm,http://pspm.pingstart.com/api/v4/postback?from=1706&clickid=774dcfad-d4c5-4c29-846b-5857b5180f73__pspm,idfa_BAD22F4B-3665-4CCB-8444-F642DEF5AA36,
nGtISwDnTEK3S12GX4aiNA,newborntown,p1802_103107_27929634,Install,0.6,,B6BFBFA8-B628-44A8-9D1C-793F1DCADD7C,1556719688,2019-05-01 22:08:08,1556722096,2019-05-01 22:48:16,1556722096,15d97a62-36e2-4965-ab7d-585d4e3d769d__pspm,http://pspm.pingstart.com/api/v4/postback?from=1706&clickid=15d97a62-36e2-4965-ab7d-585d4e3d769d__pspm,idfa_B6BFBFA8-B628-44A8-9D1C-793F1DCADD7C,
nGtISwDnTEK3S12GX4aiNA,newborntown,p1802_103107_41199605,Install,0.6,,2E736522-8786-42A8-9295-7EE8F27272FF,1557733591,2019-05-13 15:46:31,1557774386,2019-05-14 03:06:26,1557774386,f997fbf2-3a66-4ac8-bf93-4a3f464e96e8__pspm,http://pspm.pingstart.com/api/v4/postback?from=1706&clickid=f997fbf2-3a66-4ac8-bf93-4a3f464e96e8__pspm,idfa_2E736522-8786-42A8-9295-7EE8F27272FF,
nGtISwDnTEK3S12GX4aiNA,newborntown,p1802_103107_97689584,Install,0.6,,2FE7A1FD-B518-4D35-865E-6B523A51C42D,1556795389,2019-05-02 19:09:49,1556798990,2019-05-02 20:09:50,1556798990,d8ac8257-db42-4d7e-81f1-d2853b443601__pspm,http://pspm.pingstart.com/api/v4/postback?from=1706&clickid=d8ac8257-db42-4d7e-81f1-d2853b443601__pspm,idfa_2FE7A1FD-B518-4D35-865E-6B523A51C42D,
nGtISwDnTEK3S12GX4aiNA,newborntown,p1802_103107_95287663,Install,0.6,,E07986DD-2C5E-4FD0-B24E-52950D5E2EC9,1557393518,2019-05-09 17:18:38,1557398724,2019-05-09 18:45:24,1557398724,ea06481b-d171-4854-88df-62094f3f8eb8__pspm,http://pspm.pingstart.com/api/v4/postback?from=1706&clickid=ea06481b-d171-4854-88df-62094f3f8eb8__pspm,idfa_E07986DD-2C5E-4FD0-B24E-52950D5E2EC9,
nGtISwDnTEK3S12GX4aiNA,newborntown,p1802_103107_62724276,Install,0.6,,F29E8E41-DBB1-465D-AC20-278D1322BB7B,1557136919,2019-05-06 18:01:59,1557143793,2019-05-06 19:56:33,1557143793,2c5079d1-d022-48ac-81fe-8cfc1ef8931c__pspm,http://pspm.pingstart.com/api/v4/postback?from=1706&clickid=2c5079d1-d022-48ac-81fe-8cfc1ef8931c__pspm,idfa_F29E8E41-DBB1-465D-AC20-278D1322BB7B,
nGtISwDnTEK3S12GX4aiNA,newborntown,p1802_103107_27929634,Install,0.6,,78A63281-2F53-4914-83C0-731043684F00,1557368527,2019-05-09 10:22:07,1557374626,2019-05-09 12:03:46,1557374626,fe6da084-bb4e-45b6-9b04-9476bdfceaaa__pspm,http://pspm.pingstart.com/api/v4/postback?from=1706&clickid=fe6da084-bb4e-45b6-9b04-9476bdfceaaa__pspm,idfa_78A63281-2F53-4914-83C0-731043684F00,
nGtISwDnTEK3S12GX4aiNA,newborntown,p1802_103107_30133956,Install,0.6,,EA44D5DB-E212-4788-A137-EB22541BA7E2,1557154897,2019-05-06 23:01:37,1557155307,2019-05-06 23:08:27,1557155307,9e51342b-9bc0-400c-b6df-e851933888f2__pspm,http://pspm.pingstart.com/api/v4/postback?from=1706&clickid=9e51342b-9bc0-400c-b6df-e851933888f2__pspm,idfa_EA44D5DB-E212-4788-A137-EB22541BA7E2,
nGtISwDnTEK3S12GX4aiNA,newborntown,p1802_103107_97689584,Install,0.6,,5122D14C-25FE-2A5A-846B-5C72164A9608,1556803102,2019-05-02 21:18:22,1556837397,2019-05-03 06:49:57,1556837397,67bef2c9-abfa-4f19-9aed-41ea59f0b751__pspm,http://pspm.pingstart.com/api/v4/postback?from=1706&clickid=67bef2c9-abfa-4f19-9aed-41ea59f0b751__pspm,idfa_5122D14C-25FE-2A5A-846B-5C72164A9608,
nGtISwDnTEK3S12GX4aiNA,newborntown,p1802_103107_27929634,Install,0.6,,06C028D3-3E80-345D-FB5A-A4D543BA6994,1557646281,2019-05-12 15:31:21,1557646796,2019-05-12 15:39:56,1557646796,b397879b-8e95-4b79-b05c-26be086d9872__pspm,http://pspm.pingstart.com/api/v4/postback?from=1706&clickid=b397879b-8e95-4b79-b05c-26be086d9872__pspm,idfa_06C028D3-3E80-345D-FB5A-A4D543BA6994,
nGtISwDnTEK3S12GX4aiNA,newborntown,p1802_103107_27929634,Install,0.6,,DAC85D66-685F-4200-98E2-FA9EE8CCB82B,1557847494,2019-05-14 23:24:54,1557850022,2019-05-15 00:07:02,1557850022,78fc8de8-c15d-4ce4-b091-bd3f0f10b105__pspm,http://pspm.pingstart.com/api/v4/postback?from=1706&clickid=78fc8de8-c15d-4ce4-b091-bd3f0f10b105__pspm,idfa_DAC85D66-685F-4200-98E2-FA9EE8CCB82B,
nGtISwDnTEK3S12GX4aiNA,newborntown,p1802_103107_27929634,Install,0.6,,04F87D4A-3856-4A11-B802-ACC5D1775117,1557918485,2019-05-15 19:08:05,1557975259,2019-05-16 10:54:19,1557975259,1a94c647-14e0-4281-880e-c8709467a26d__pspm,http://pspm.pingstart.com/api/v4/postback?from=1706&clickid=1a94c647-14e0-4281-880e-c8709467a26d__pspm,idfa_04F87D4A-3856-4A11-B802-ACC5D1775117,
nGtISwDnTEK3S12GX4aiNA,newborntown,p1802_103107_30133956,Install,0.6,,C31CF387-2FDC-4402-9FBB-A78397B0A984,1558084975,2019-05-17 17:22:55,1558093979,2019-05-17 19:52:59,1558093979,50e2eda0-9072-433d-a5e5-c21c58571f92__pspm,http://pspm.pingstart.com/api/v4/postback?from=1706&clickid=50e2eda0-9072-433d-a5e5-c21c58571f92__pspm,idfa_C31CF387-2FDC-4402-9FBB-A78397B0A984,
nGtISwDnTEK3S12GX4aiNA,newborntown,p1802_103107_577,Install,0.6,,C784E256-2916-4507-A955-F3EBAAEF76CD,1557148128,2019-05-06 21:08:48,1557206338,2019-05-07 13:18:58,1557206338,8e97a55b-fdb2-40a1-b62e-202f701513fa__pspm,http://pspm.pingstart.com/api/v4/postback?from=1706&clickid=8e97a55b-fdb2-40a1-b62e-202f701513fa__pspm,idfa_C784E256-2916-4507-A955-F3EBAAEF76CD,
nGtISwDnTEK3S12GX4aiNA,newborntown,p1802_103107_55660433,Install,0.6,,B0400E62-131C-4D1A-9136-912095797B22,1557739094,2019-05-13 17:18:14,1557746391,2019-05-13 19:19:51,1557746391,a64581f8-0280-42ba-9f07-09ad6f37bc20__pspm,http://pspm.pingstart.com/api/v4/postback?from=1706&clickid=a64581f8-0280-42ba-9f07-09ad6f37bc20__pspm,idfa_B0400E62-131C-4D1A-9136-912095797B22,
nGtISwDnTEK3S12GX4aiNA,newborntown,p1802_103107_97689584,Install,0.6,,053E7C07-DF49-4EF9-8D49-153CFEE9B0BE,1557393878,2019-05-09 17:24:38,1557408963,2019-05-09 21:36:03,1557408963,d056e1e0-b09d-4d6f-a318-7d28ae4d2f44__pspm,http://pspm.pingstart.com/api/v4/postback?from=1706&clickid=d056e1e0-b09d-4d6f-a318-7d28ae4d2f44__pspm,idfa_053E7C07-DF49-4EF9-8D49-153CFEE9B0BE,
nGtISwDnTEK3S12GX4aiNA,newborntown,p1802_103107_30133956,Install,0.6,,8F9282A5-4C8A-4551-9A83-50BAFC17CD45,1558085396,2019-05-17 17:29:56,1558089682,2019-05-17 18:41:22,1558089682,0256a5f1-3662-4a2c-b83f-6bdefc32eb63__pspm,http://pspm.pingstart.com/api/v4/postback?from=1706&clickid=0256a5f1-3662-4a2c-b83f-6bdefc32eb63__pspm,idfa_8F9282A5-4C8A-4551-9A83-50BAFC17CD45,
nGtISwDnTEK3S12GX4aiNA,newborntown,p1802_103107_27929634,Install,0.6,,B20C0DDC-26CD-45D0-A746-AF33500E67A2,1557994802,2019-05-16 16:20:02,1557996998,2019-05-16 16:56:38,1557996998,6eda8bb0-cf3c-4ddb-9171-3ab5b8be126f__pspm,http://pspm.pingstart.com/api/v4/postback?from=1706&clickid=6eda8bb0-cf3c-4ddb-9171-3ab5b8be126f__pspm,idfa_B20C0DDC-26CD-45D0-A746-AF33500E67A2,
nGtISwDnTEK3S12GX4aiNA,newborntown,p1802_103107_869,Install,0.6,,7138D16D-FCA9-7A4F-1EDB-426C90CD6D3C,1556771099,2019-05-02 12:24:59,1556821226,2019-05-03 02:20:26,1556821226,d2900897-9e85-4170-bea7-1e4dfc75229f__pspm,http://pspm.pingstart.com/api/v4/postback?from=1706&clickid=d2900897-9e85-4170-bea7-1e4dfc75229f__pspm,idfa_7138D16D-FCA9-7A4F-1EDB-426C90CD6D3C,
nGtISwDnTEK3S12GX4aiNA,newborntown,p1802_103107_30133956,Install,0.6,,37A8864C-35FD-4AAC-8E3E-B8CE8BAC9ADB,1557652785,2019-05-12 17:19:45,1557654864,2019-05-12 17:54:24,1557654864,b4364944-9cfb-455c-828b-d06507483e1b__pspm,http://pspm.pingstart.com/api/v4/postback?from=1706&clickid=b4364944-9cfb-455c-828b-d06507483e1b__pspm,idfa_37A8864C-35FD-4AAC-8E3E-B8CE8BAC9ADB,
nGtISwDnTEK3S12GX4aiNA,newborntown,p1802_103107_33581959,Install,0.6,,96ECF527-58BB-4654-B268-C3BA6DF926BF,1557837159,2019-05-14 20:32:39,1557892558,2019-05-15 11:55:58,1557892558,8b8a007a-e43a-4dc1-9688-3b91a8efba60__pspm,http://pspm.pingstart.com/api/v4/postback?from=1706&clickid=8b8a007a-e43a-4dc1-9688-3b91a8efba60__pspm,idfa_96ECF527-58BB-4654-B268-C3BA6DF926BF,
