cid,partner_id,channel_id,action_id,cpi,ip,idfa,click time,click datetime,install time,install datetime,postback time,click id,postback url,unique user id
wpTJXeIBT46XzXCgndDFsg,newborntown,p1886_958-10006_0369,Install,0.0,120.188.94.204,a8e07ac9-0802-49f8-9e6c-0885efad9a41,1558370769,2019-05-21 00:46:09,1558370845,2019-05-21 00:47:25,1558370877,06afc116-b94d-4f99-a4de-b237f4ba54aa__pspm,http://pspm.pingstart.com/api/v4/postback?from=1706&clickid=06afc116-b94d-4f99-a4de-b237f4ba54aa__pspm,idfa_a8e07ac9-0802-49f8-9e6c-0885efad9a41,Bahasa%20Indonesia
wpTJXeIBT46XzXCgndDFsg,newborntown,p1886_958-10006_0369,Install,0.0,139.194.101.124,0d589cc5-84dc-470d-8da6-60bb27e053a7,1558370528,2019-05-21 00:42:08,1558370606,2019-05-21 00:43:26,1558370637,21ed98ed-e0ef-4f14-9d44-2e5ee6b7a66f__pspm,http://pspm.pingstart.com/api/v4/postback?from=1706&clickid=21ed98ed-e0ef-4f14-9d44-2e5ee6b7a66f__pspm,idfa_0d589cc5-84dc-470d-8da6-60bb27e053a7,English
wpTJXeIBT46XzXCgndDFsg,newborntown,p1886_958-10006_0369,Install,0.0,140.213.11.247,9f68589a-0c99-4932-ba1e-3b95ce697635,1558370215,2019-05-21 00:36:55,1558370291,2019-05-21 00:38:11,1558370322,c82f9db7-42ab-4b68-8057-04d2d54ff324__pspm,http://pspm.pingstart.com/api/v4/postback?from=1706&clickid=c82f9db7-42ab-4b68-8057-04d2d54ff324__pspm,idfa_9f68589a-0c99-4932-ba1e-3b95ce697635,English
wpTJXeIBT46XzXCgndDFsg,newborntown,p1886_958-10006_0369,Install,0.0,125.161.138.134,b6aad6f4-11a1-4916-8070-f1a01f882609,1558370636,2019-05-21 00:43:56,1558370672,2019-05-21 00:44:32,1558370703,c64cdfda-bc3f-40e8-8aa4-9e78b6413cf1__pspm,http://pspm.pingstart.com/api/v4/postback?from=1706&clickid=c64cdfda-bc3f-40e8-8aa4-9e78b6413cf1__pspm,idfa_b6aad6f4-11a1-4916-8070-f1a01f882609,Indonesia
wpTJXeIBT46XzXCgndDFsg,newborntown,p1886_958-10006_0369,Install,0.0,120.188.34.210,a6314722-5287-46fb-8f84-9f7afd204a5c,1558370217,2019-05-21 00:36:57,1558370296,2019-05-21 00:38:16,1558370327,9bead662-768c-4aef-bc9f-741e038f66dc__pspm,http://pspm.pingstart.com/api/v4/postback?from=1706&clickid=9bead662-768c-4aef-bc9f-741e038f66dc__pspm,idfa_a6314722-5287-46fb-8f84-9f7afd204a5c,Bahasa%20Indonesia
wpTJXeIBT46XzXCgndDFsg,newborntown,p1886_958-10006_0369,Install,0.0,182.0.133.68,d79b2bc5-d5a5-4db6-b20c-0b55a777c813,1558370711,2019-05-21 00:45:11,1558370791,2019-05-21 00:46:31,1558370822,ef5d4d15-ccfa-415d-b0f0-530828c443f7__pspm,http://pspm.pingstart.com/api/v4/postback?from=1706&clickid=ef5d4d15-ccfa-415d-b0f0-530828c443f7__pspm,idfa_d79b2bc5-d5a5-4db6-b20c-0b55a777c813,Bahasa%20Indonesia
wpTJXeIBT46XzXCgndDFsg,newborntown,p1886_958-10006_0369,Install,0.0,120.188.38.238,5256073d-518e-459c-8358-85e93e8a8ac4,1558370529,2019-05-21 00:42:09,1558370609,2019-05-21 00:43:29,1558370640,f2ed3572-213e-4851-8f51-ccf5fc3f9ea3__pspm,http://pspm.pingstart.com/api/v4/postback?from=1706&clickid=f2ed3572-213e-4851-8f51-ccf5fc3f9ea3__pspm,idfa_5256073d-518e-459c-8358-85e93e8a8ac4,Bahasa%20Indonesia
wpTJXeIBT46XzXCgndDFsg,newborntown,p1886_958-10006_0369,Install,0.0,112.215.238.188,b060cc94-a7b1-4426-b994-c221786ba4d5,1558370052,2019-05-21 00:34:12,1558370114,2019-05-21 00:35:14,1558370145,a3e58d18-9605-4526-8579-10b0cbb8e04f__pspm,http://pspm.pingstart.com/api/v4/postback?from=1706&clickid=a3e58d18-9605-4526-8579-10b0cbb8e04f__pspm,idfa_b060cc94-a7b1-4426-b994-c221786ba4d5,Indonesia
wpTJXeIBT46XzXCgndDFsg,newborntown,p1886_958-10006_0369,Install,0.0,202.80.217.136,1caa9f3d-f71b-4a57-a123-f88d3cf1dbe5,1558370587,2019-05-21 00:43:07,1558370666,2019-05-21 00:44:26,1558370697,f16c4fdb-fb92-4c7f-b82b-d3440d764f95__pspm,http://pspm.pingstart.com/api/v4/postback?from=1706&clickid=f16c4fdb-fb92-4c7f-b82b-d3440d764f95__pspm,idfa_1caa9f3d-f71b-4a57-a123-f88d3cf1dbe5,Bahasa%20Indonesia
wpTJXeIBT46XzXCgndDFsg,newborntown,p1886_958-10006_0369,Install,0.0,223.255.230.25,abf91e5c-a74a-47fa-b703-7322c8a255ca,1558370777,2019-05-21 00:46:17,1558370854,2019-05-21 00:47:34,1558370885,ee2b9e36-fb06-4d38-9859-f76c7c2e37b8__pspm,http://pspm.pingstart.com/api/v4/postback?from=1706&clickid=ee2b9e36-fb06-4d38-9859-f76c7c2e37b8__pspm,idfa_abf91e5c-a74a-47fa-b703-7322c8a255ca,Indonesia
wpTJXeIBT46XzXCgndDFsg,newborntown,p1886_958-10006_0369,Install,0.0,182.1.44.117,d3719c1f-5fbe-4d3a-b065-a27fb19dbe69,1558370888,2019-05-21 00:48:08,1558370966,2019-05-21 00:49:26,1558370997,e04914e4-403f-4431-b83f-03bb38333cff__pspm,http://pspm.pingstart.com/api/v4/postback?from=1706&clickid=e04914e4-403f-4431-b83f-03bb38333cff__pspm,idfa_d3719c1f-5fbe-4d3a-b065-a27fb19dbe69,Indonesia
wpTJXeIBT46XzXCgndDFsg,newborntown,p1886_958-10006_0369,Install,0.0,36.72.194.231,80e0a9bd-64d7-47ab-b3a3-f1c6f6c6a674,1558370781,2019-05-21 00:46:21,1558370847,2019-05-21 00:47:27,1558370878,7afea556-9df6-47f3-ab92-0a56a2c92f10__pspm,http://pspm.pingstart.com/api/v4/postback?from=1706&clickid=7afea556-9df6-47f3-ab92-0a56a2c92f10__pspm,idfa_80e0a9bd-64d7-47ab-b3a3-f1c6f6c6a674,English
wpTJXeIBT46XzXCgndDFsg,newborntown,p1886_958-10006_0369,Install,0.0,125.165.102.223,2e6e9e56-adc3-4671-af93-df5da2b64abe,1558370709,2019-05-21 00:45:09,1558370786,2019-05-21 00:46:26,1558370817,25f35f72-8d59-4507-ba4d-1a0699a37b54__pspm,http://pspm.pingstart.com/api/v4/postback?from=1706&clickid=25f35f72-8d59-4507-ba4d-1a0699a37b54__pspm,idfa_2e6e9e56-adc3-4671-af93-df5da2b64abe,Indonesia
wpTJXeIBT46XzXCgndDFsg,newborntown,p1886_958-10006_0369,Install,0.0,182.1.85.114,7307d212-aab0-4f87-94aa-091cddbb3ac7,1558370769,2019-05-21 00:46:09,1558370848,2019-05-21 00:47:28,1558370878,f6e4d285-6d4c-43d6-8455-d47797ab4f1a__pspm,http://pspm.pingstart.com/api/v4/postback?from=1706&clickid=f6e4d285-6d4c-43d6-8455-d47797ab4f1a__pspm,idfa_7307d212-aab0-4f87-94aa-091cddbb3ac7,Indonesia
wpTJXeIBT46XzXCgndDFsg,newborntown,p1886_958-10006_0369,Install,0.0,114.125.244.183,d190ae72-5474-46d2-950b-97e088ebf71c,1558370666,2019-05-21 00:44:26,1558370731,2019-05-21 00:45:31,1558370762,c8eb931b-9688-4bbc-b28e-a23d815a510e__pspm,http://pspm.pingstart.com/api/v4/postback?from=1706&clickid=c8eb931b-9688-4bbc-b28e-a23d815a510e__pspm,idfa_d190ae72-5474-46d2-950b-97e088ebf71c,Indonesia
wpTJXeIBT46XzXCgndDFsg,newborntown,p1886_958-10006_0369,Install,0.0,120.188.94.153,ebbe3c66-0b65-430c-917a-d63326a3151b,1558370632,2019-05-21 00:43:52,1558370672,2019-05-21 00:44:32,1558370703,c09804cc-0e01-434b-9398-7555863c5cbf__pspm,http://pspm.pingstart.com/api/v4/postback?from=1706&clickid=c09804cc-0e01-434b-9398-7555863c5cbf__pspm,idfa_ebbe3c66-0b65-430c-917a-d63326a3151b,Indonesia
wpTJXeIBT46XzXCgndDFsg,newborntown,p1886_958-10006_0369,Install,0.0,112.215.175.151,c8b44dba-950d-41e3-a404-e8f57e4602d0,1558370281,2019-05-21 00:38:01,1558370359,2019-05-21 00:39:19,1558370390,2df532b2-ccec-4359-b205-e9aded1b62cb__pspm,http://pspm.pingstart.com/api/v4/postback?from=1706&clickid=2df532b2-ccec-4359-b205-e9aded1b62cb__pspm,idfa_c8b44dba-950d-41e3-a404-e8f57e4602d0,English
wpTJXeIBT46XzXCgndDFsg,newborntown,p1886_958-10006_0369,Install,0.0,114.5.216.140,6761b796-dee0-4ea0-aced-ef25d3ad1960,1558370903,2019-05-21 00:48:23,1558370966,2019-05-21 00:49:26,1558370998,caaac542-95d6-44dd-af02-72a34ab8b19c__pspm,http://pspm.pingstart.com/api/v4/postback?from=1706&clickid=caaac542-95d6-44dd-af02-72a34ab8b19c__pspm,idfa_6761b796-dee0-4ea0-aced-ef25d3ad1960,Indonesia
wpTJXeIBT46XzXCgndDFsg,newborntown,p1886_958-10006_0369,Install,0.0,182.1.86.126,3fdb70d1-8cf6-49f0-8e0c-b9622e79a7f2,1558370770,2019-05-21 00:46:10,1558370844,2019-05-21 00:47:24,1558370875,237980c9-d3db-4329-9c89-d2ceab2f38e3__pspm,http://pspm.pingstart.com/api/v4/postback?from=1706&clickid=237980c9-d3db-4329-9c89-d2ceab2f38e3__pspm,idfa_3fdb70d1-8cf6-49f0-8e0c-b9622e79a7f2,Indonesia
wpTJXeIBT46XzXCgndDFsg,newborntown,p1886_958-10006_0369,Install,0.0,114.124.209.2,0e1f3e63-6b13-4a56-86df-7aa9fda417d7,1558370833,2019-05-21 00:47:13,1558370908,2019-05-21 00:48:28,1558370939,05ccf3b9-38a2-4877-8665-94f2216d59ce__pspm,http://pspm.pingstart.com/api/v4/postback?from=1706&clickid=05ccf3b9-38a2-4877-8665-94f2216d59ce__pspm,idfa_0e1f3e63-6b13-4a56-86df-7aa9fda417d7,Indonesia
wpTJXeIBT46XzXCgndDFsg,newborntown,p1886_958-10006_0369,Install,0.0,182.1.8.64,7ceabe0e-51b9-447b-95ba-9b98f9ae7c1f,1558370588,2019-05-21 00:43:08,1558370662,2019-05-21 00:44:22,1558370693,fc987a93-65af-4f2e-9582-2d4dea3541d5__pspm,http://pspm.pingstart.com/api/v4/postback?from=1706&clickid=fc987a93-65af-4f2e-9582-2d4dea3541d5__pspm,idfa_7ceabe0e-51b9-447b-95ba-9b98f9ae7c1f,Indonesia
wpTJXeIBT46XzXCgndDFsg,newborntown,p1886_958-10006_0369,Install,0.0,114.5.147.16,1afa05f2-ec91-4e65-bd48-178082b8c0eb,1558370036,2019-05-21 00:33:56,1558370122,2019-05-21 00:35:22,1558370155,621d1068-6c1d-42dd-90aa-b896a115ede1__pspm,http://pspm.pingstart.com/api/v4/postback?from=1706&clickid=621d1068-6c1d-42dd-90aa-b896a115ede1__pspm,idfa_1afa05f2-ec91-4e65-bd48-178082b8c0eb,Indonesia
wpTJXeIBT46XzXCgndDFsg,newborntown,p1886_958-10006_0369,Install,0.0,140.213.11.131,1805cc76-e9bc-427e-a81b-3e41ff19842b,1558370527,2019-05-21 00:42:07,1558370701,2019-05-21 00:45:01,1558370732,a106a423-47a1-429d-887b-17d93b496959__pspm,http://pspm.pingstart.com/api/v4/postback?from=1706&clickid=a106a423-47a1-429d-887b-17d93b496959__pspm,idfa_1805cc76-e9bc-427e-a81b-3e41ff19842b,Indonesia
wpTJXeIBT46XzXCgndDFsg,newborntown,p1886_958-10006_0369,Install,0.0,114.124.198.133,7f4feeb1-c387-4d11-8ab1-4a4e70de91a9,1558370591,2019-05-21 00:43:11,1558370666,2019-05-21 00:44:26,1558370697,1eb78029-e67c-40ce-b38e-608509595325__pspm,http://pspm.pingstart.com/api/v4/postback?from=1706&clickid=1eb78029-e67c-40ce-b38e-608509595325__pspm,idfa_7f4feeb1-c387-4d11-8ab1-4a4e70de91a9,Indonesia
wpTJXeIBT46XzXCgndDFsg,newborntown,p1886_958-10006_0369,Install,0.0,110.137.179.39,8a5fc2b6-02ec-4c19-91cd-80da37635ddd,1558370165,2019-05-21 00:36:05,1558370236,2019-05-21 00:37:16,1558370267,9fdb2779-f36d-45fd-a405-01d08d216244__pspm,http://pspm.pingstart.com/api/v4/postback?from=1706&clickid=9fdb2779-f36d-45fd-a405-01d08d216244__pspm,idfa_8a5fc2b6-02ec-4c19-91cd-80da37635ddd,Indonesia
wpTJXeIBT46XzXCgndDFsg,newborntown,p1886_958-10006_0369,Install,0.0,114.125.190.110,8ce123dd-1592-419c-9aa5-276cee3a7c9c,1558370653,2019-05-21 00:44:13,1558370721,2019-05-21 00:45:21,1558370751,0612d1c1-7af8-44ec-be57-0fb386717119__pspm,http://pspm.pingstart.com/api/v4/postback?from=1706&clickid=0612d1c1-7af8-44ec-be57-0fb386717119__pspm,idfa_8ce123dd-1592-419c-9aa5-276cee3a7c9c,Bahasa%20Indonesia
wpTJXeIBT46XzXCgndDFsg,newborntown,p1886_958-10006_0369,Install,0.0,115.178.252.110,622b5083-43bf-4964-a77d-2210e4a4f797,1558370830,2019-05-21 00:47:10,1558370913,2019-05-21 00:48:33,1558370944,9a852901-6a73-4d75-a6fa-754cf6fe5050__pspm,http://pspm.pingstart.com/api/v4/postback?from=1706&clickid=9a852901-6a73-4d75-a6fa-754cf6fe5050__pspm,idfa_622b5083-43bf-4964-a77d-2210e4a4f797,Indonesia
wpTJXeIBT46XzXCgndDFsg,newborntown,p1886_958-10006_0369,Install,0.0,114.142.169.55,1313fc13-f192-4e91-a4d0-2fb137a46f92,1558370588,2019-05-21 00:43:08,1558370667,2019-05-21 00:44:27,1558370699,90b820ee-85da-43b5-9269-fa73b335ab26__pspm,http://pspm.pingstart.com/api/v4/postback?from=1706&clickid=90b820ee-85da-43b5-9269-fa73b335ab26__pspm,idfa_1313fc13-f192-4e91-a4d0-2fb137a46f92,Bahasa%20Indonesia
wpTJXeIBT46XzXCgndDFsg,newborntown,p1886_958-10006_0369,Install,0.0,140.213.34.55,76dbabc7-7126-43f6-8ba6-e83465307146,1558370779,2019-05-21 00:46:19,1558370850,2019-05-21 00:47:30,1558370880,445e291c-ae8e-4fe5-b9fc-8247ab01ecf0__pspm,http://pspm.pingstart.com/api/v4/postback?from=1706&clickid=445e291c-ae8e-4fe5-b9fc-8247ab01ecf0__pspm,idfa_76dbabc7-7126-43f6-8ba6-e83465307146,Bahasa%20Indonesia
wpTJXeIBT46XzXCgndDFsg,newborntown,p1886_958-10006_0369,Install,0.0,140.213.56.81,0bbe7c2f-efbc-480d-b04b-3f2b1399fa26,1558370709,2019-05-21 00:45:09,1558370785,2019-05-21 00:46:25,1558370816,a43006ae-5c87-4760-993d-6f0b07759c0a__pspm,http://pspm.pingstart.com/api/v4/postback?from=1706&clickid=a43006ae-5c87-4760-993d-6f0b07759c0a__pspm,idfa_0bbe7c2f-efbc-480d-b04b-3f2b1399fa26,Indonesia
wpTJXeIBT46XzXCgndDFsg,newborntown,p1886_958-10006_0369,Install,0.0,120.188.81.90,6493fc78-564e-421c-855e-ba99a7f8e058,1558370535,2019-05-21 00:42:15,1558370612,2019-05-21 00:43:32,1558370643,83a0b716-41f4-476f-852a-805b8576c8a8__pspm,http://pspm.pingstart.com/api/v4/postback?from=1706&clickid=83a0b716-41f4-476f-852a-805b8576c8a8__pspm,idfa_6493fc78-564e-421c-855e-ba99a7f8e058,Indonesia
wpTJXeIBT46XzXCgndDFsg,newborntown,p1886_958-10006_0369,Install,0.0,36.84.241.86,1c7edc0b-2cff-4135-b03b-a0883f00b614,1558370549,2019-05-21 00:42:29,1558370605,2019-05-21 00:43:25,1558370636,dd72ff06-03c7-4cf1-8c39-257680160bde__pspm,http://pspm.pingstart.com/api/v4/postback?from=1706&clickid=dd72ff06-03c7-4cf1-8c39-257680160bde__pspm,idfa_1c7edc0b-2cff-4135-b03b-a0883f00b614,Bahasa%20Indonesia
wpTJXeIBT46XzXCgndDFsg,newborntown,p1886_958-10006_0369,Install,0.0,140.213.50.239,f8ed5f3d-7613-4c3f-a1ff-9c4e5932ea3c,1558369974,2019-05-21 00:32:54,1558370055,2019-05-21 00:34:15,1558370087,bc36a25b-5f18-4354-b67d-9f0310ba8e6b__pspm,http://pspm.pingstart.com/api/v4/postback?from=1706&clickid=bc36a25b-5f18-4354-b67d-9f0310ba8e6b__pspm,idfa_f8ed5f3d-7613-4c3f-a1ff-9c4e5932ea3c,English
wpTJXeIBT46XzXCgndDFsg,newborntown,p1886_958-10006_0369,Install,0.0,115.178.252.61,75c8d0e7-2916-476d-a6f1-87bfea8abb23,1558370175,2019-05-21 00:36:15,1558370238,2019-05-21 00:37:18,1558370269,9626b3cb-3cb5-4308-aec7-8cd084306ac8__pspm,http://pspm.pingstart.com/api/v4/postback?from=1706&clickid=9626b3cb-3cb5-4308-aec7-8cd084306ac8__pspm,idfa_75c8d0e7-2916-476d-a6f1-87bfea8abb23,Indonesia
wpTJXeIBT46XzXCgndDFsg,newborntown,p1886_958-10006_0369,Install,0.0,115.178.219.189,d4d14493-73ba-4229-b122-84d17e6152ee,1558370214,2019-05-21 00:36:54,1558370791,2019-05-21 00:46:31,1558370822,e837879e-7490-4288-97c6-3e9d767527dc__pspm,http://pspm.pingstart.com/api/v4/postback?from=1706&clickid=e837879e-7490-4288-97c6-3e9d767527dc__pspm,idfa_d4d14493-73ba-4229-b122-84d17e6152ee,Bahasa%20Indonesia
wpTJXeIBT46XzXCgndDFsg,newborntown,p1886_958-10006_0369,Install,0.0,182.1.175.55,4e8b0ce6-fde7-4c7e-a3a2-dac892aba4a0,1558370651,2019-05-21 00:44:11,1558370744,2019-05-21 00:45:44,1558370775,1dc58b70-a577-4d8f-b300-06480350ba7c__pspm,http://pspm.pingstart.com/api/v4/postback?from=1706&clickid=1dc58b70-a577-4d8f-b300-06480350ba7c__pspm,idfa_4e8b0ce6-fde7-4c7e-a3a2-dac892aba4a0,Bahasa%20Indonesia
wpTJXeIBT46XzXCgndDFsg,newborntown,p1886_958-10006_0369,Install,0.0,125.163.69.240,acb80af2-b0aa-42a0-9c25-58fa43793800,1558370277,2019-05-21 00:37:57,1558370493,2019-05-21 00:41:33,1558370524,0a85f4ba-d10f-4428-80ac-e922afdca252__pspm,http://pspm.pingstart.com/api/v4/postback?from=1706&clickid=0a85f4ba-d10f-4428-80ac-e922afdca252__pspm,idfa_acb80af2-b0aa-42a0-9c25-58fa43793800,Bahasa%20Indonesia
wpTJXeIBT46XzXCgndDFsg,newborntown,p1886_958-10006_0369,Install,0.0,114.124.138.33,160fca57-b67a-464f-9617-48b415ce3aa7,1558370833,2019-05-21 00:47:13,1558370910,2019-05-21 00:48:30,1558370942,89187bcc-a7e9-4ce6-8077-80dbfa2e00a7__pspm,http://pspm.pingstart.com/api/v4/postback?from=1706&clickid=89187bcc-a7e9-4ce6-8077-80dbfa2e00a7__pspm,idfa_160fca57-b67a-464f-9617-48b415ce3aa7,Indonesia
wpTJXeIBT46XzXCgndDFsg,newborntown,p1886_958-10006_0369,Install,0.0,125.163.41.226,a2d698ac-4538-49cf-9542-2f3c675bcc98,1558370833,2019-05-21 00:47:13,1558370910,2019-05-21 00:48:30,1558370942,78254dd2-93a1-43b4-bcb9-ea33a4b0b1a2__pspm,http://pspm.pingstart.com/api/v4/postback?from=1706&clickid=78254dd2-93a1-43b4-bcb9-ea33a4b0b1a2__pspm,idfa_a2d698ac-4538-49cf-9542-2f3c675bcc98,Indonesia
wpTJXeIBT46XzXCgndDFsg,newborntown,p1886_958-10006_0369,Install,0.0,140.213.10.143,d7bde57d-a0b8-42f9-b57e-0fb3b73baf89,1558370649,2019-05-21 00:44:09,1558370729,2019-05-21 00:45:29,1558370760,cdf258d6-b966-4e71-932a-d94eef0a97ad__pspm,http://pspm.pingstart.com/api/v4/postback?from=1706&clickid=cdf258d6-b966-4e71-932a-d94eef0a97ad__pspm,idfa_d7bde57d-a0b8-42f9-b57e-0fb3b73baf89,English
wpTJXeIBT46XzXCgndDFsg,newborntown,p1886_958-10006_0369,Install,0.0,180.244.209.150,4fdf53e4-6f78-47eb-89b7-04c58ae6b3b6,1558369983,2019-05-21 00:33:03,1558370052,2019-05-21 00:34:12,1558370084,85f4d34f-0931-44b4-b473-b1e8d7cdd6ae__pspm,http://pspm.pingstart.com/api/v4/postback?from=1706&clickid=85f4d34f-0931-44b4-b473-b1e8d7cdd6ae__pspm,idfa_4fdf53e4-6f78-47eb-89b7-04c58ae6b3b6,Bahasa%20Indonesia
wpTJXeIBT46XzXCgndDFsg,newborntown,p1886_958-10006_0369,Install,0.0,114.125.120.92,35208df2-cbc2-437b-a1a7-abdd0dfff800,1558370769,2019-05-21 00:46:09,1558370847,2019-05-21 00:47:27,1558370878,ee3410f7-f910-460b-90d9-a96b1db2942f__pspm,http://pspm.pingstart.com/api/v4/postback?from=1706&clickid=ee3410f7-f910-460b-90d9-a96b1db2942f__pspm,idfa_35208df2-cbc2-437b-a1a7-abdd0dfff800,Indonesia
wpTJXeIBT46XzXCgndDFsg,newborntown,p1886_958-10006_0369,Install,0.0,115.178.235.214,d6c79e60-2d2e-477e-acf5-195dd2f5b78f,1558370653,2019-05-21 00:44:13,1558370731,2019-05-21 00:45:31,1558370763,20f8da6b-a275-46a9-88e6-7ce49a231d9d__pspm,http://pspm.pingstart.com/api/v4/postback?from=1706&clickid=20f8da6b-a275-46a9-88e6-7ce49a231d9d__pspm,idfa_d6c79e60-2d2e-477e-acf5-195dd2f5b78f,Indonesia
wpTJXeIBT46XzXCgndDFsg,newborntown,p1886_958-10006_0369,Install,0.0,182.1.100.103,acd1773c-a1d3-496e-a0a0-686d22276f69,1558370655,2019-05-21 00:44:15,1558370726,2019-05-21 00:45:26,1558370757,6b44f314-1281-4071-8e78-8c42576e4c56__pspm,http://pspm.pingstart.com/api/v4/postback?from=1706&clickid=6b44f314-1281-4071-8e78-8c42576e4c56__pspm,idfa_acd1773c-a1d3-496e-a0a0-686d22276f69,Indonesia
wpTJXeIBT46XzXCgndDFsg,newborntown,p1886_958-10006_0369,Install,0.0,114.5.219.173,e66afa5c-8d02-45fd-93fa-a44960fe2462,1558370709,2019-05-21 00:45:09,1558370786,2019-05-21 00:46:26,1558370818,b8a936c7-68c0-467b-aba5-f97c7f74f81e__pspm,http://pspm.pingstart.com/api/v4/postback?from=1706&clickid=b8a936c7-68c0-467b-aba5-f97c7f74f81e__pspm,idfa_e66afa5c-8d02-45fd-93fa-a44960fe2462,Indonesia
wpTJXeIBT46XzXCgndDFsg,newborntown,p1886_958-10006_0369,Install,0.0,120.188.67.191,6f5193d5-1757-4747-a3aa-e2d21d50f642,1558370710,2019-05-21 00:45:10,1558370784,2019-05-21 00:46:24,1558370820,d01bc115-7d52-4c97-9d6f-5b561554ef74__pspm,http://pspm.pingstart.com/api/v4/postback?from=1706&clickid=d01bc115-7d52-4c97-9d6f-5b561554ef74__pspm,idfa_6f5193d5-1757-4747-a3aa-e2d21d50f642,Indonesia
wpTJXeIBT46XzXCgndDFsg,newborntown,p1886_958-10006_0369,Install,0.0,182.0.177.61,281f5682-cda2-4d54-adc3-9f1fdf95585b,1558370277,2019-05-21 00:37:57,1558370358,2019-05-21 00:39:18,1558370389,78404e0f-2198-48d0-a559-905c510f9958__pspm,http://pspm.pingstart.com/api/v4/postback?from=1706&clickid=78404e0f-2198-48d0-a559-905c510f9958__pspm,idfa_281f5682-cda2-4d54-adc3-9f1fdf95585b,English
wpTJXeIBT46XzXCgndDFsg,newborntown,p1886_958-10006_0369,Install,0.0,203.78.116.58,1594d884-9a4a-41ae-baed-a8e29bc53590,1558370727,2019-05-21 00:45:27,1558370789,2019-05-21 00:46:29,1558370820,e6c2109f-3be4-4390-9860-8d1de284a3d5__pspm,http://pspm.pingstart.com/api/v4/postback?from=1706&clickid=e6c2109f-3be4-4390-9860-8d1de284a3d5__pspm,idfa_1594d884-9a4a-41ae-baed-a8e29bc53590,Indonesia
wpTJXeIBT46XzXCgndDFsg,newborntown,p1886_958-10006_0369,Install,0.0,114.125.10.42,79823a84-7f49-41ee-b6a4-a3ee66c36494,1558370770,2019-05-21 00:46:10,1558370852,2019-05-21 00:47:32,1558370883,3c1fc961-d8b3-4438-b9c6-4cd54c738b3e__pspm,http://pspm.pingstart.com/api/v4/postback?from=1706&clickid=3c1fc961-d8b3-4438-b9c6-4cd54c738b3e__pspm,idfa_79823a84-7f49-41ee-b6a4-a3ee66c36494,Bahasa%20Indonesia
wpTJXeIBT46XzXCgndDFsg,newborntown,p1886_958-10006_0369,Install,0.0,182.0.197.135,5199a78e-8848-4631-9c0a-656babb2cae6,1558370923,2019-05-21 00:48:43,1558370977,2019-05-21 00:49:37,1558371007,800481bb-b0ab-4250-9899-780bdf883c45__pspm,http://pspm.pingstart.com/api/v4/postback?from=1706&clickid=800481bb-b0ab-4250-9899-780bdf883c45__pspm,idfa_5199a78e-8848-4631-9c0a-656babb2cae6,Bahasa%20Indonesia
wpTJXeIBT46XzXCgndDFsg,newborntown,p1886_958-10006_0369,Install,0.0,202.67.45.44,52527fe4-53e2-4296-a30e-de6f505cac38,1558370600,2019-05-21 00:43:20,1558370665,2019-05-21 00:44:25,1558370697,bcd6bfd0-3c72-4d5f-8fa0-5cd10a8581e4__pspm,http://pspm.pingstart.com/api/v4/postback?from=1706&clickid=bcd6bfd0-3c72-4d5f-8fa0-5cd10a8581e4__pspm,idfa_52527fe4-53e2-4296-a30e-de6f505cac38,Bahasa%20Indonesia
wpTJXeIBT46XzXCgndDFsg,newborntown,p1886_958-10006_0369,Install,0.0,114.4.212.153,65341df5-f752-497e-a3ce-6873babe9aa9,1558370829,2019-05-21 00:47:09,1558370906,2019-05-21 00:48:26,1558370938,1ed806d2-ea24-4025-aa7b-72abd52dcaa2__pspm,http://pspm.pingstart.com/api/v4/postback?from=1706&clickid=1ed806d2-ea24-4025-aa7b-72abd52dcaa2__pspm,idfa_65341df5-f752-497e-a3ce-6873babe9aa9,Indonesia
wpTJXeIBT46XzXCgndDFsg,newborntown,p1886_958-10006_0369,Install,0.0,114.4.213.120,b0e6087f-575f-440f-b4a6-0a406c9030d0,1558370773,2019-05-21 00:46:13,1558370847,2019-05-21 00:47:27,1558370878,c1ae11c7-614c-48b5-ab04-5fc4ceefb117__pspm,http://pspm.pingstart.com/api/v4/postback?from=1706&clickid=c1ae11c7-614c-48b5-ab04-5fc4ceefb117__pspm,idfa_b0e6087f-575f-440f-b4a6-0a406c9030d0,Bahasa%20Indonesia
wpTJXeIBT46XzXCgndDFsg,newborntown,p1886_958-10006_0369,Install,0.0,202.67.32.33,8140564c-b6ad-499c-beef-2e44e78029af,1558370950,2019-05-21 00:49:10,1558371039,2019-05-21 00:50:39,1558371071,ae03b1ab-8c98-4f8a-a636-456358a653df__pspm,http://pspm.pingstart.com/api/v4/postback?from=1706&clickid=ae03b1ab-8c98-4f8a-a636-456358a653df__pspm,idfa_8140564c-b6ad-499c-beef-2e44e78029af,Indonesia
wpTJXeIBT46XzXCgndDFsg,newborntown,p1886_958-10006_0369,Install,0.0,120.188.38.151,703be89e-fb10-4a1f-9f33-f143141abee9,1558370832,2019-05-21 00:47:12,1558370932,2019-05-21 00:48:52,1558370963,a6f53dcf-8f50-4657-9966-a5da20daea3e__pspm,http://pspm.pingstart.com/api/v4/postback?from=1706&clickid=a6f53dcf-8f50-4657-9966-a5da20daea3e__pspm,idfa_703be89e-fb10-4a1f-9f33-f143141abee9,Bahasa%20Indonesia
wpTJXeIBT46XzXCgndDFsg,newborntown,p1886_958-10006_0369,Install,0.0,223.255.225.78,1e1f342f-31ef-4604-81b1-56b186cfb4fe,1558370709,2019-05-21 00:45:09,1558370786,2019-05-21 00:46:26,1558370818,072de444-f302-4f11-879c-637ff7358844__pspm,http://pspm.pingstart.com/api/v4/postback?from=1706&clickid=072de444-f302-4f11-879c-637ff7358844__pspm,idfa_1e1f342f-31ef-4604-81b1-56b186cfb4fe,Indonesia
wpTJXeIBT46XzXCgndDFsg,newborntown,p1886_958-10006_0369,Install,0.0,140.213.42.149,07327705-ee2e-4bbe-911c-1547c81b7a0f,1558370832,2019-05-21 00:47:12,1558370915,2019-05-21 00:48:35,1558370946,4f587bf6-5bd8-4436-91b0-21a11fe6a661__pspm,http://pspm.pingstart.com/api/v4/postback?from=1706&clickid=4f587bf6-5bd8-4436-91b0-21a11fe6a661__pspm,idfa_07327705-ee2e-4bbe-911c-1547c81b7a0f,Bahasa%20Indonesia
wpTJXeIBT46XzXCgndDFsg,newborntown,p1886_958-10006_0369,Install,0.0,180.246.168.111,ad593930-d226-4bb3-a748-6e509c5106f3,1558370888,2019-05-21 00:48:08,1558370966,2019-05-21 00:49:26,1558370997,c5c0ef6d-4683-4e81-b414-3869e5fb8a29__pspm,http://pspm.pingstart.com/api/v4/postback?from=1706&clickid=c5c0ef6d-4683-4e81-b414-3869e5fb8a29__pspm,idfa_ad593930-d226-4bb3-a748-6e509c5106f3,Indonesia
wpTJXeIBT46XzXCgndDFsg,newborntown,p1886_958-10006_0369,Install,0.0,115.178.253.28,216348b9-3718-4ccc-a340-5952e7335a47,1558370714,2019-05-21 00:45:14,1558370790,2019-05-21 00:46:30,1558370823,9fb25b65-b506-4d95-b4d4-497441f9c93a__pspm,http://pspm.pingstart.com/api/v4/postback?from=1706&clickid=9fb25b65-b506-4d95-b4d4-497441f9c93a__pspm,idfa_216348b9-3718-4ccc-a340-5952e7335a47,Bahasa%20Indonesia
wpTJXeIBT46XzXCgndDFsg,newborntown,p1886_958-10006_0369,Install,0.0,140.213.49.112,84da5849-220c-4d2c-9d70-48c82f24ec0c,1558370781,2019-05-21 00:46:21,1558370852,2019-05-21 00:47:32,1558370883,db83cf52-7fe1-4236-8ca8-03fa7e1bf41c__pspm,http://pspm.pingstart.com/api/v4/postback?from=1706&clickid=db83cf52-7fe1-4236-8ca8-03fa7e1bf41c__pspm,idfa_84da5849-220c-4d2c-9d70-48c82f24ec0c,Bahasa%20Indonesia
wpTJXeIBT46XzXCgndDFsg,newborntown,p1886_958-10006_0369,Install,0.0,125.160.207.224,dcc687ca-4f8e-4992-815e-e2556ad2eb34,1558370715,2019-05-21 00:45:15,1558370816,2019-05-21 00:46:56,1558370848,9533a526-824b-4084-83e6-3d9610b7d611__pspm,http://pspm.pingstart.com/api/v4/postback?from=1706&clickid=9533a526-824b-4084-83e6-3d9610b7d611__pspm,idfa_dcc687ca-4f8e-4992-815e-e2556ad2eb34,Bahasa%20Indonesia
wpTJXeIBT46XzXCgndDFsg,newborntown,p1886_958-10006_0369,Install,0.0,114.5.146.212,03ac04d0-6e61-4c3d-aa2a-3574cfd06d2f,1558370775,2019-05-21 00:46:15,1558370858,2019-05-21 00:47:38,1558370894,655d9ee6-ab10-456b-9350-d30804916d66__pspm,http://pspm.pingstart.com/api/v4/postback?from=1706&clickid=655d9ee6-ab10-456b-9350-d30804916d66__pspm,idfa_03ac04d0-6e61-4c3d-aa2a-3574cfd06d2f,Bahasa%20Indonesia
wpTJXeIBT46XzXCgndDFsg,newborntown,p1886_958-10006_0369,Install,0.0,140.213.3.17,457a870a-6b65-4deb-bf74-23e9b153930a,1558370832,2019-05-21 00:47:12,1558370956,2019-05-21 00:49:16,1558370987,9e90b80b-158c-400a-9ae4-a2c103d869a2__pspm,http://pspm.pingstart.com/api/v4/postback?from=1706&clickid=9e90b80b-158c-400a-9ae4-a2c103d869a2__pspm,idfa_457a870a-6b65-4deb-bf74-23e9b153930a,Bahasa%20Indonesia
wpTJXeIBT46XzXCgndDFsg,newborntown,p1886_958-10006_0369,Install,0.0,36.82.101.126,ab80753f-5d41-4958-bcbd-ba0f4ac321bf,1558370588,2019-05-21 00:43:08,1558370669,2019-05-21 00:44:29,1558370700,d28610b6-2df3-4459-bd2c-59099cd69149__pspm,http://pspm.pingstart.com/api/v4/postback?from=1706&clickid=d28610b6-2df3-4459-bd2c-59099cd69149__pspm,idfa_ab80753f-5d41-4958-bcbd-ba0f4ac321bf,Bahasa%20Indonesia
wpTJXeIBT46XzXCgndDFsg,newborntown,p1886_958-10006_0369,Install,0.0,182.0.146.74,e86d0a0e-3f56-4de4-92b3-78c3376ed7c4,1558370648,2019-05-21 00:44:08,1558370726,2019-05-21 00:45:26,1558370758,1abf0a37-d164-4c74-a2e9-21b71fc6e5a1__pspm,http://pspm.pingstart.com/api/v4/postback?from=1706&clickid=1abf0a37-d164-4c74-a2e9-21b71fc6e5a1__pspm,idfa_e86d0a0e-3f56-4de4-92b3-78c3376ed7c4,Indonesia
wpTJXeIBT46XzXCgndDFsg,newborntown,p1886_958-10006_0369,Install,0.0,182.1.90.95,e0f4f282-9abe-4a3e-a9fc-a09a5fc2025f,1558370280,2019-05-21 00:38:00,1558370360,2019-05-21 00:39:20,1558370392,0965a2e1-cbd5-40b7-9753-b54c5940c91c__pspm,http://pspm.pingstart.com/api/v4/postback?from=1706&clickid=0965a2e1-cbd5-40b7-9753-b54c5940c91c__pspm,idfa_e0f4f282-9abe-4a3e-a9fc-a09a5fc2025f,Bahasa%20Indonesia
wpTJXeIBT46XzXCgndDFsg,newborntown,p1886_958-10006_0369,Install,0.0,36.76.93.17,fefcb1c3-3a8b-486b-a520-341be5fa77fe,1558370282,2019-05-21 00:38:02,1558370356,2019-05-21 00:39:16,1558370387,eeb5e1ca-deaa-482a-a0f4-7015de5b3234__pspm,http://pspm.pingstart.com/api/v4/postback?from=1706&clickid=eeb5e1ca-deaa-482a-a0f4-7015de5b3234__pspm,idfa_fefcb1c3-3a8b-486b-a520-341be5fa77fe,English
