cid,partner_id,channel_id,action_id,cpi,ip,idfa,click time,click datetime,install time,install datetime,postback time,click id,postback url,unique user id
blk7UXe-TK2JgRVyys6HTg,newborntown,p1789_966-10524966,Install,2.4,222.12.36.153,EAD1274F-D381-4DE0-9D38-8740E85255B0,1558689486,2019-05-24 17:18:06,1558689609,2019-05-24 17:20:09,1558689639,2ed0f0bc-ab31-433d-a446-abeed21c20d3__pspm,http://pspm.pingstart.com/api/v4/postback?from=1706&clickid=2ed0f0bc-ab31-433d-a446-abeed21c20d3__pspm,idfa_EAD1274F-D381-4DE0-9D38-8740E85255B0,ja
blk7UXe-TK2JgRVyys6HTg,newborntown,p1789_966-10524966,Install,2.4,113.147.92.173,9A38F7C4-1BD1-48DE-84F0-8E724F293CEF,1558689442,2019-05-24 17:17:22,1558689616,2019-05-24 17:20:16,1558689646,181e909c-6a8a-4d88-8187-a6b34e20b35a__pspm,http://pspm.pingstart.com/api/v4/postback?from=1706&clickid=181e909c-6a8a-4d88-8187-a6b34e20b35a__pspm,idfa_9A38F7C4-1BD1-48DE-84F0-8E724F293CEF,ja
blk7UXe-TK2JgRVyys6HTg,newborntown,p1789_966-10524966,Install,2.4,39.110.46.148,194270E2-6AD9-48FB-9E8A-AE47320FB37E,1558689531,2019-05-24 17:18:51,1558689644,2019-05-24 17:20:44,1558689674,672ab6a2-f88d-4cf3-a894-5a392b587ee6__pspm,http://pspm.pingstart.com/api/v4/postback?from=1706&clickid=672ab6a2-f88d-4cf3-a894-5a392b587ee6__pspm,idfa_194270E2-6AD9-48FB-9E8A-AE47320FB37E,ja
blk7UXe-TK2JgRVyys6HTg,newborntown,p1789_966-10524966,Install,2.4,125.9.40.74,F25CE96D-C0F8-44D4-8B95-4BF510A1D9B9,1558689439,2019-05-24 17:17:19,1558689694,2019-05-24 17:21:34,1558689724,f3335258-e7c6-4950-89fe-a3d318a71089__pspm,http://pspm.pingstart.com/api/v4/postback?from=1706&clickid=f3335258-e7c6-4950-89fe-a3d318a71089__pspm,idfa_F25CE96D-C0F8-44D4-8B95-4BF510A1D9B9,ja
blk7UXe-TK2JgRVyys6HTg,newborntown,p1789_966-10524966,Install,2.4,119.171.150.248,DEC3A737-805F-4DDF-93BD-B3F03CCCAE6E,1558689486,2019-05-24 17:18:06,1558689629,2019-05-24 17:20:29,1558689659,38722e4c-8fa8-4e20-8630-0393b0928833__pspm,http://pspm.pingstart.com/api/v4/postback?from=1706&clickid=38722e4c-8fa8-4e20-8630-0393b0928833__pspm,idfa_DEC3A737-805F-4DDF-93BD-B3F03CCCAE6E,ja
blk7UXe-TK2JgRVyys6HTg,newborntown,p1789_966-10524966,Install,2.4,126.146.44.121,27A52DCF-2D78-4342-8908-80401DFB5F27,1558689464,2019-05-24 17:17:44,1558689606,2019-05-24 17:20:06,1558689636,33e00cd2-9aa6-4bd8-916b-7c2ca0254c10__pspm,http://pspm.pingstart.com/api/v4/postback?from=1706&clickid=33e00cd2-9aa6-4bd8-916b-7c2ca0254c10__pspm,idfa_27A52DCF-2D78-4342-8908-80401DFB5F27,ja
blk7UXe-TK2JgRVyys6HTg,newborntown,p1789_966-10524966,Install,2.4,116.220.33.131,A8AD088A-2363-47C9-853D-5D28D32E20E6,1558689447,2019-05-24 17:17:27,1558689627,2019-05-24 17:20:27,1558689657,1c796598-dd27-45c1-aa84-d986fc6078fd__pspm,http://pspm.pingstart.com/api/v4/postback?from=1706&clickid=1c796598-dd27-45c1-aa84-d986fc6078fd__pspm,idfa_A8AD088A-2363-47C9-853D-5D28D32E20E6,ja
blk7UXe-TK2JgRVyys6HTg,newborntown,p1789_966-10524966,Install,2.4,118.4.216.134,E7066084-E636-4725-864F-AAABBDAE5DC8,1558689437,2019-05-24 17:17:17,1558689597,2019-05-24 17:19:57,1558689627,16e61195-32d9-44a4-a6b5-503e765b4699__pspm,http://pspm.pingstart.com/api/v4/postback?from=1706&clickid=16e61195-32d9-44a4-a6b5-503e765b4699__pspm,idfa_E7066084-E636-4725-864F-AAABBDAE5DC8,ja
blk7UXe-TK2JgRVyys6HTg,newborntown,p1789_966-10524966,Install,2.4,119.31.128.26,893F7CA6-4880-4184-8165-9F457D3C53AE,1558689435,2019-05-24 17:17:15,1558689612,2019-05-24 17:20:12,1558689642,1fae5be1-b13a-4f19-8931-bdd092c04ceb__pspm,http://pspm.pingstart.com/api/v4/postback?from=1706&clickid=1fae5be1-b13a-4f19-8931-bdd092c04ceb__pspm,idfa_893F7CA6-4880-4184-8165-9F457D3C53AE,ja
blk7UXe-TK2JgRVyys6HTg,newborntown,p1789_966-10524966,Install,2.4,36.8.135.47,D5C7CB87-2462-4371-BD7E-BF7CBD7B94F0,1558689641,2019-05-24 17:20:41,1558689753,2019-05-24 17:22:33,1558689783,7eea140f-5311-4a88-aae3-82bfc5443cbb__pspm,http://pspm.pingstart.com/api/v4/postback?from=1706&clickid=7eea140f-5311-4a88-aae3-82bfc5443cbb__pspm,idfa_D5C7CB87-2462-4371-BD7E-BF7CBD7B94F0,ja
blk7UXe-TK2JgRVyys6HTg,newborntown,p1789_966-10524966,Install,2.4,124.45.110.243,5211F79A-E094-4D87-A55A-F0B13DD3E2C5,1558689436,2019-05-24 17:17:16,1558689613,2019-05-24 17:20:13,1558689643,6cdaf242-79bc-4329-b038-c7cc64389263__pspm,http://pspm.pingstart.com/api/v4/postback?from=1706&clickid=6cdaf242-79bc-4329-b038-c7cc64389263__pspm,idfa_5211F79A-E094-4D87-A55A-F0B13DD3E2C5,ja
blk7UXe-TK2JgRVyys6HTg,newborntown,p1789_966-10524966,Install,2.4,60.71.3.120,011DB4AA-9E75-499A-88E1-3DA5C105F121,1558689483,2019-05-24 17:18:03,1558689627,2019-05-24 17:20:27,1558689657,ffe5d573-4f9b-4543-9b38-40638dbf7edb__pspm,http://pspm.pingstart.com/api/v4/postback?from=1706&clickid=ffe5d573-4f9b-4543-9b38-40638dbf7edb__pspm,idfa_011DB4AA-9E75-499A-88E1-3DA5C105F121,ja
blk7UXe-TK2JgRVyys6HTg,newborntown,p1789_966-10524966,Install,2.4,126.14.195.147,DE3021D9-E19E-4764-A38A-00F77FC5584C,1558689446,2019-05-24 17:17:26,1558689591,2019-05-24 17:19:51,1558689621,2b0e0754-11a7-4fd5-8a91-1742bc02b2ec__pspm,http://pspm.pingstart.com/api/v4/postback?from=1706&clickid=2b0e0754-11a7-4fd5-8a91-1742bc02b2ec__pspm,idfa_DE3021D9-E19E-4764-A38A-00F77FC5584C,ja
blk7UXe-TK2JgRVyys6HTg,newborntown,p1789_966-10524966,Install,2.4,118.108.66.178,5EA1C48F-0754-43A8-A6C0-EE510D5011D0,1558689460,2019-05-24 17:17:40,1558689595,2019-05-24 17:19:55,1558689625,7b13f51f-de3f-486d-9cf3-ff6df69ce89d__pspm,http://pspm.pingstart.com/api/v4/postback?from=1706&clickid=7b13f51f-de3f-486d-9cf3-ff6df69ce89d__pspm,idfa_5EA1C48F-0754-43A8-A6C0-EE510D5011D0,ja
blk7UXe-TK2JgRVyys6HTg,newborntown,p1789_966-10524966,Install,2.4,153.232.230.147,E3887DD4-8975-41D8-82BE-DC44F2B3CA61,1558689450,2019-05-24 17:17:30,1558689573,2019-05-24 17:19:33,1558689604,f8ed96ba-25aa-4abf-adc3-4d78a5e0f793__pspm,http://pspm.pingstart.com/api/v4/postback?from=1706&clickid=f8ed96ba-25aa-4abf-adc3-4d78a5e0f793__pspm,idfa_E3887DD4-8975-41D8-82BE-DC44F2B3CA61,ja
blk7UXe-TK2JgRVyys6HTg,newborntown,p1789_966-10524966,Install,2.4,111.239.162.67,2612BB62-EB4D-4733-BC75-481D7BC54809,1558689045,2019-05-24 17:10:45,1558689141,2019-05-24 17:12:21,1558689171,cabbaf37-279f-4631-b2b6-0d99ba55ed67__pspm,http://pspm.pingstart.com/api/v4/postback?from=1706&clickid=cabbaf37-279f-4631-b2b6-0d99ba55ed67__pspm,idfa_2612BB62-EB4D-4733-BC75-481D7BC54809,ja
blk7UXe-TK2JgRVyys6HTg,newborntown,p1789_966-10524966,Install,2.4,221.189.167.56,5D221203-149B-47FB-87F5-AB27C6C21167,1558689479,2019-05-24 17:17:59,1558689636,2019-05-24 17:20:36,1558689667,79752070-a04f-4dbb-8890-d5a462113b1b__pspm,http://pspm.pingstart.com/api/v4/postback?from=1706&clickid=79752070-a04f-4dbb-8890-d5a462113b1b__pspm,idfa_5D221203-149B-47FB-87F5-AB27C6C21167,ja
blk7UXe-TK2JgRVyys6HTg,newborntown,p1789_966-10524966,Install,2.4,115.37.70.52,5C3E3BC8-CF7B-4C38-86FC-594F526B002E,1558689442,2019-05-24 17:17:22,1558689569,2019-05-24 17:19:29,1558689599,3098dee6-8c21-4f06-96c1-e141e8a15c98__pspm,http://pspm.pingstart.com/api/v4/postback?from=1706&clickid=3098dee6-8c21-4f06-96c1-e141e8a15c98__pspm,idfa_5C3E3BC8-CF7B-4C38-86FC-594F526B002E,ja
blk7UXe-TK2JgRVyys6HTg,newborntown,p1789_966-10524966,Install,2.4,133.130.210.53,76830121-520E-4CBE-908D-BC161DD7E1A9,1558689457,2019-05-24 17:17:37,1558689617,2019-05-24 17:20:17,1558689647,2d22301d-4248-47ff-b877-54e9f0a10632__pspm,http://pspm.pingstart.com/api/v4/postback?from=1706&clickid=2d22301d-4248-47ff-b877-54e9f0a10632__pspm,idfa_76830121-520E-4CBE-908D-BC161DD7E1A9,ja
blk7UXe-TK2JgRVyys6HTg,newborntown,p1789_966-10524966,Install,2.4,111.239.165.27,D80B3D98-2429-46DA-865F-7F7258DB1606,1558689442,2019-05-24 17:17:22,1558689561,2019-05-24 17:19:21,1558689591,4a272096-6cf6-416e-b2ef-9b26fa7e5887__pspm,http://pspm.pingstart.com/api/v4/postback?from=1706&clickid=4a272096-6cf6-416e-b2ef-9b26fa7e5887__pspm,idfa_D80B3D98-2429-46DA-865F-7F7258DB1606,ja
blk7UXe-TK2JgRVyys6HTg,newborntown,p1789_966-10524966,Install,2.4,182.171.244.177,2F379717-045A-4E80-95AF-86C4E42862BE,1558689436,2019-05-24 17:17:16,1558689557,2019-05-24 17:19:17,1558689587,3758cb61-9a9e-4fd7-9cd3-72ffb16e2a56__pspm,http://pspm.pingstart.com/api/v4/postback?from=1706&clickid=3758cb61-9a9e-4fd7-9cd3-72ffb16e2a56__pspm,idfa_2F379717-045A-4E80-95AF-86C4E42862BE,ja
blk7UXe-TK2JgRVyys6HTg,newborntown,p1789_966-10524966,Install,2.4,182.169.52.176,9B06882C-9823-4FA9-845D-05954016E2AB,1558689447,2019-05-24 17:17:27,1558689615,2019-05-24 17:20:15,1558689645,aaf0d9e5-5ba8-4cc4-89da-bdefeba0e696__pspm,http://pspm.pingstart.com/api/v4/postback?from=1706&clickid=aaf0d9e5-5ba8-4cc4-89da-bdefeba0e696__pspm,idfa_9B06882C-9823-4FA9-845D-05954016E2AB,ja
blk7UXe-TK2JgRVyys6HTg,newborntown,p1789_966-10524966,Install,2.4,36.11.224.214,4FB0890C-FE83-437F-80CA-F4E781638217,1558689448,2019-05-24 17:17:28,1558689615,2019-05-24 17:20:15,1558689645,37c3acda-53a7-4aeb-8d19-25aff0b6af0f__pspm,http://pspm.pingstart.com/api/v4/postback?from=1706&clickid=37c3acda-53a7-4aeb-8d19-25aff0b6af0f__pspm,idfa_4FB0890C-FE83-437F-80CA-F4E781638217,ja
blk7UXe-TK2JgRVyys6HTg,newborntown,p1789_966-10524966,Install,2.4,125.13.134.101,E9FA66D1-CDD8-4FC7-A95D-2FA3859266F0,1558689439,2019-05-24 17:17:19,1558689534,2019-05-24 17:18:54,1558689564,c6bc3d11-29a5-4032-8ff9-e35ed7263bf0__pspm,http://pspm.pingstart.com/api/v4/postback?from=1706&clickid=c6bc3d11-29a5-4032-8ff9-e35ed7263bf0__pspm,idfa_E9FA66D1-CDD8-4FC7-A95D-2FA3859266F0,ja
blk7UXe-TK2JgRVyys6HTg,newborntown,p1789_966-10524966,Install,2.4,60.142.253.78,FFF0CD56-5C96-4E1F-8461-20278CE5FEF4,1558689482,2019-05-24 17:18:02,1558689633,2019-05-24 17:20:33,1558689663,687e2f29-3409-4915-8fe9-d08e666b5a3a__pspm,http://pspm.pingstart.com/api/v4/postback?from=1706&clickid=687e2f29-3409-4915-8fe9-d08e666b5a3a__pspm,idfa_FFF0CD56-5C96-4E1F-8461-20278CE5FEF4,ja
blk7UXe-TK2JgRVyys6HTg,newborntown,p1789_966-10524966,Install,2.4,221.37.195.44,45EA0608-78D2-4188-B92F-F868513ABD3C,1558689448,2019-05-24 17:17:28,1558689619,2019-05-24 17:20:19,1558689649,d87082f0-7c2b-4d40-92e6-f990cb5f0894__pspm,http://pspm.pingstart.com/api/v4/postback?from=1706&clickid=d87082f0-7c2b-4d40-92e6-f990cb5f0894__pspm,idfa_45EA0608-78D2-4188-B92F-F868513ABD3C,ja
blk7UXe-TK2JgRVyys6HTg,newborntown,p1789_966-10524966,Install,2.4,202.86.127.114,260DE4DB-368F-40F3-B682-A5DFD0364CCC,1558689638,2019-05-24 17:20:38,1558689736,2019-05-24 17:22:16,1558689766,41c6db40-5e72-4461-95c4-237e6f77ad15__pspm,http://pspm.pingstart.com/api/v4/postback?from=1706&clickid=41c6db40-5e72-4461-95c4-237e6f77ad15__pspm,idfa_260DE4DB-368F-40F3-B682-A5DFD0364CCC,ja
blk7UXe-TK2JgRVyys6HTg,newborntown,p1789_966-10524966,Install,2.4,60.56.216.210,5F8A174B-C002-4F31-AF35-3AA6FA74DE9E,1558689444,2019-05-24 17:17:24,1558689589,2019-05-24 17:19:49,1558689619,b3a545ba-f145-4451-aec4-9dd0d94a7b7e__pspm,http://pspm.pingstart.com/api/v4/postback?from=1706&clickid=b3a545ba-f145-4451-aec4-9dd0d94a7b7e__pspm,idfa_5F8A174B-C002-4F31-AF35-3AA6FA74DE9E,ja
blk7UXe-TK2JgRVyys6HTg,newborntown,p1789_966-10524966,Install,2.4,223.133.217.108,DD0C2CA9-C527-4F2F-8C5E-12D759F3A207,1558689438,2019-05-24 17:17:18,1558689587,2019-05-24 17:19:47,1558689618,bff36aaa-ffbf-429b-9b68-eae4eb54f205__pspm,http://pspm.pingstart.com/api/v4/postback?from=1706&clickid=bff36aaa-ffbf-429b-9b68-eae4eb54f205__pspm,idfa_DD0C2CA9-C527-4F2F-8C5E-12D759F3A207,ja
blk7UXe-TK2JgRVyys6HTg,newborntown,p1789_966-10524966,Install,2.4,106.165.237.229,45A45366-BCBE-4E6E-8FC5-9E08E38C43E8,1558689439,2019-05-24 17:17:19,1558689562,2019-05-24 17:19:22,1558689592,110eded7-f218-47e2-b655-2032ee61baee__pspm,http://pspm.pingstart.com/api/v4/postback?from=1706&clickid=110eded7-f218-47e2-b655-2032ee61baee__pspm,idfa_45A45366-BCBE-4E6E-8FC5-9E08E38C43E8,ja
blk7UXe-TK2JgRVyys6HTg,newborntown,p1789_966-10524966,Install,2.4,220.0.73.134,A0644FAA-010F-4BCD-8A12-F78E0ED76BAC,1558688586,2019-05-24 17:03:06,1558688726,2019-05-24 17:05:26,1558688756,d4a885ee-d6fe-439c-812e-b896865ec068__pspm,http://pspm.pingstart.com/api/v4/postback?from=1706&clickid=d4a885ee-d6fe-439c-812e-b896865ec068__pspm,idfa_A0644FAA-010F-4BCD-8A12-F78E0ED76BAC,ja
