cid,partner_id,channel_id,action_id,cpi,ip,idfa,click time,click datetime,install time,install datetime,postback time,click id,postback url,unique user id
FzBblSdjRbWpbshHdLCdbQ,newborntown,p1789_921-1954363,install,1.5,125.203.96.128,558FCAA4-7EE3-4BBE-ABD7-D2253A03CC05,1559284814,2019-05-31 14:40:14,1559284916,2019-05-31 14:41:56,1559284946,ff97cf9c-dea8-46d7-80d2-125d294dac15__pspm,http://pspm.pingstart.com/api/v4/postback?from=1706&clickid=ff97cf9c-dea8-46d7-80d2-125d294dac15__pspm,idfa_558FCAA4-7EE3-4BBE-ABD7-D2253A03CC05,ja
FzBblSdjRbWpbshHdLCdbQ,newborntown,p1789_921-1954363,install,1.5,220.148.212.158,9D72B7A2-C0E4-4DC0-A380-8360649B1D1D,1559283199,2019-05-31 14:13:19,1559283366,2019-05-31 14:16:06,1559283396,4d823f48-8923-419f-8a26-6ce14f5cc345__pspm,http://pspm.pingstart.com/api/v4/postback?from=1706&clickid=4d823f48-8923-419f-8a26-6ce14f5cc345__pspm,idfa_9D72B7A2-C0E4-4DC0-A380-8360649B1D1D,ja
FzBblSdjRbWpbshHdLCdbQ,newborntown,p1789_921-1954363,install,1.5,61.115.113.8,E8F46585-BFD5-4D2E-807E-EFE02865DA59,1559282243,2019-05-31 13:57:23,1559282355,2019-05-31 13:59:15,1559282385,46d70463-b6e1-43e9-ae9b-a4bedea11937__pspm,http://pspm.pingstart.com/api/v4/postback?from=1706&clickid=46d70463-b6e1-43e9-ae9b-a4bedea11937__pspm,idfa_E8F46585-BFD5-4D2E-807E-EFE02865DA59,ja
FzBblSdjRbWpbshHdLCdbQ,newborntown,p1789_921-1954363,install,1.5,114.153.50.39,4CE8E220-B37F-4BF3-875D-2104928DFC00,1559283772,2019-05-31 14:22:52,1559283874,2019-05-31 14:24:34,1559283905,70f5e962-612d-4713-9d61-c9ad627b7cf8__pspm,http://pspm.pingstart.com/api/v4/postback?from=1706&clickid=70f5e962-612d-4713-9d61-c9ad627b7cf8__pspm,idfa_4CE8E220-B37F-4BF3-875D-2104928DFC00,ja
FzBblSdjRbWpbshHdLCdbQ,newborntown,p1789_921-1954363,install,1.5,114.152.157.31,CB88C8D9-7768-44F3-AC8F-E3E8E825E41C,1559281473,2019-05-31 13:44:33,1559281596,2019-05-31 13:46:36,1559281626,e77e59d8-b86f-4945-a5c2-642a27404e07__pspm,http://pspm.pingstart.com/api/v4/postback?from=1706&clickid=e77e59d8-b86f-4945-a5c2-642a27404e07__pspm,idfa_CB88C8D9-7768-44F3-AC8F-E3E8E825E41C,ja
FzBblSdjRbWpbshHdLCdbQ,newborntown,p1789_921-1954363,install,1.5,122.223.8.135,4D77DAC7-D78B-4725-A915-51FD5291A361,1559279813,2019-05-31 13:16:53,1559279912,2019-05-31 13:18:32,1559279942,5aeaf632-0ae7-4313-b614-47c45963d700__pspm,http://pspm.pingstart.com/api/v4/postback?from=1706&clickid=5aeaf632-0ae7-4313-b614-47c45963d700__pspm,idfa_4D77DAC7-D78B-4725-A915-51FD5291A361,ja
FzBblSdjRbWpbshHdLCdbQ,newborntown,p1789_921-1954363,install,1.5,122.103.200.31,5ED8BAB1-F849-4FB3-BC0A-4749E1D3EF0B,1559280360,2019-05-31 13:26:00,1559280467,2019-05-31 13:27:47,1559280497,7e0667c1-bbb1-4b15-aa13-46fcb3f3ec12__pspm,http://pspm.pingstart.com/api/v4/postback?from=1706&clickid=7e0667c1-bbb1-4b15-aa13-46fcb3f3ec12__pspm,idfa_5ED8BAB1-F849-4FB3-BC0A-4749E1D3EF0B,ja
FzBblSdjRbWpbshHdLCdbQ,newborntown,p1789_921-1954363,install,1.5,153.201.243.241,6D1E6170-2A4A-4F1C-8EDB-AD1A84A15421,1559286311,2019-05-31 15:05:11,1559286420,2019-05-31 15:07:00,1559286451,fad38fa9-8f07-4ccb-9481-c46168336a5f__pspm,http://pspm.pingstart.com/api/v4/postback?from=1706&clickid=fad38fa9-8f07-4ccb-9481-c46168336a5f__pspm,idfa_6D1E6170-2A4A-4F1C-8EDB-AD1A84A15421,ja
FzBblSdjRbWpbshHdLCdbQ,newborntown,p1789_921-1954363,install,1.5,153.144.61.230,46EA9137-5BE3-4238-B053-7699D171A6D4,1559285224,2019-05-31 14:47:04,1559285328,2019-05-31 14:48:48,1559285358,c1f94153-c7f6-43fa-b666-539fbdf405d3__pspm,http://pspm.pingstart.com/api/v4/postback?from=1706&clickid=c1f94153-c7f6-43fa-b666-539fbdf405d3__pspm,idfa_46EA9137-5BE3-4238-B053-7699D171A6D4,ja
FzBblSdjRbWpbshHdLCdbQ,newborntown,p1789_921-1954363,install,1.5,126.57.123.180,F54489C6-764C-49D5-A8D3-9503097264C4,1559281957,2019-05-31 13:52:37,1559282077,2019-05-31 13:54:37,1559282136,17f101b6-f65d-4f4e-b970-cd2f891bd9b9__pspm,http://pspm.pingstart.com/api/v4/postback?from=1706&clickid=17f101b6-f65d-4f4e-b970-cd2f891bd9b9__pspm,idfa_F54489C6-764C-49D5-A8D3-9503097264C4,ja
FzBblSdjRbWpbshHdLCdbQ,newborntown,p1789_921-1954363,install,1.5,122.21.99.147,7B899474-4161-4A2C-A531-F545F017E356,1559280854,2019-05-31 13:34:14,1559281158,2019-05-31 13:39:18,1559281198,e48e38eb-5c52-4842-b149-4a9a94efdf06__pspm,http://pspm.pingstart.com/api/v4/postback?from=1706&clickid=e48e38eb-5c52-4842-b149-4a9a94efdf06__pspm,idfa_7B899474-4161-4A2C-A531-F545F017E356,ja
FzBblSdjRbWpbshHdLCdbQ,newborntown,p1789_921-1954363,install,1.5,219.75.142.80,B76F3F27-954F-44F4-A70A-A76362DA9A22,1559285803,2019-05-31 14:56:43,1559286075,2019-05-31 15:01:15,1559286105,57756935-1b0c-4e5c-9c16-36e6341d978f__pspm,http://pspm.pingstart.com/api/v4/postback?from=1706&clickid=57756935-1b0c-4e5c-9c16-36e6341d978f__pspm,idfa_B76F3F27-954F-44F4-A70A-A76362DA9A22,ja
FzBblSdjRbWpbshHdLCdbQ,newborntown,p1789_921-1954363,install,1.5,106.165.224.40,0B54B686-EC5C-4625-AAD6-0A8BF852CD14,1559280590,2019-05-31 13:29:50,1559280691,2019-05-31 13:31:31,1559280721,bf4d49f9-cf25-4e6f-8024-677fa24f0214__pspm,http://pspm.pingstart.com/api/v4/postback?from=1706&clickid=bf4d49f9-cf25-4e6f-8024-677fa24f0214__pspm,idfa_0B54B686-EC5C-4625-AAD6-0A8BF852CD14,ja
FzBblSdjRbWpbshHdLCdbQ,newborntown,p1789_921-1954363,install,1.5,118.7.147.101,B4A07894-33FE-4620-AB44-2BB2AD7F7E3B,1559280751,2019-05-31 13:32:31,1559280852,2019-05-31 13:34:12,1559280882,db839366-42a3-4aaa-aea8-74665ab13e6b__pspm,http://pspm.pingstart.com/api/v4/postback?from=1706&clickid=db839366-42a3-4aaa-aea8-74665ab13e6b__pspm,idfa_B4A07894-33FE-4620-AB44-2BB2AD7F7E3B,ja
FzBblSdjRbWpbshHdLCdbQ,newborntown,p1789_921-1954363,install,1.5,119.104.11.21,AB3574F1-5EFF-47AB-8695-C153CC34BEB7,1559285844,2019-05-31 14:57:24,1559285956,2019-05-31 14:59:16,1559285987,c32e8f28-34f9-48b7-a01c-71acdc556939__pspm,http://pspm.pingstart.com/api/v4/postback?from=1706&clickid=c32e8f28-34f9-48b7-a01c-71acdc556939__pspm,idfa_AB3574F1-5EFF-47AB-8695-C153CC34BEB7,ja
FzBblSdjRbWpbshHdLCdbQ,newborntown,p1789_921-1954363,install,1.5,133.218.227.19,9AB79961-5E9E-401F-A0A2-1B3A8E891728,1559281147,2019-05-31 13:39:07,1559281334,2019-05-31 13:42:14,1559281365,6c43ac1f-018a-4836-ada6-3f37f6d03914__pspm,http://pspm.pingstart.com/api/v4/postback?from=1706&clickid=6c43ac1f-018a-4836-ada6-3f37f6d03914__pspm,idfa_9AB79961-5E9E-401F-A0A2-1B3A8E891728,ja
FzBblSdjRbWpbshHdLCdbQ,newborntown,p1789_921-1954363,install,1.5,126.100.199.176,7F3BC808-599F-493E-9166-C270DA2451EF,1559280755,2019-05-31 13:32:35,1559280938,2019-05-31 13:35:38,1559280968,81e774fb-83e3-43d0-ba32-c7d1f665298f__pspm,http://pspm.pingstart.com/api/v4/postback?from=1706&clickid=81e774fb-83e3-43d0-ba32-c7d1f665298f__pspm,idfa_7F3BC808-599F-493E-9166-C270DA2451EF,ja
FzBblSdjRbWpbshHdLCdbQ,newborntown,p1789_921-1954363,install,1.5,219.121.142.123,8632786F-2283-40AB-8AA6-279F1D04E954,1559286481,2019-05-31 15:08:01,1559286608,2019-05-31 15:10:08,1559286638,dbd5aeca-37b3-4892-aac3-b5e23fcde39c__pspm,http://pspm.pingstart.com/api/v4/postback?from=1706&clickid=dbd5aeca-37b3-4892-aac3-b5e23fcde39c__pspm,idfa_8632786F-2283-40AB-8AA6-279F1D04E954,ja
FzBblSdjRbWpbshHdLCdbQ,newborntown,p1789_921-1954363,install,1.5,114.160.115.61,42432F65-B59E-4E2C-B563-38FD63773A37,1559280892,2019-05-31 13:34:52,1559280981,2019-05-31 13:36:21,1559281011,53f51be1-70b1-438d-8990-472a72f0bc48__pspm,http://pspm.pingstart.com/api/v4/postback?from=1706&clickid=53f51be1-70b1-438d-8990-472a72f0bc48__pspm,idfa_42432F65-B59E-4E2C-B563-38FD63773A37,ja
FzBblSdjRbWpbshHdLCdbQ,newborntown,p1789_921-1954363,install,1.5,114.19.141.251,C080F1D3-1728-4D38-A22C-3E92F0033399,1559279955,2019-05-31 13:19:15,1559280068,2019-05-31 13:21:08,1559280098,f2754b9c-fd49-4654-9bdd-242c4eed61c0__pspm,http://pspm.pingstart.com/api/v4/postback?from=1706&clickid=f2754b9c-fd49-4654-9bdd-242c4eed61c0__pspm,idfa_C080F1D3-1728-4D38-A22C-3E92F0033399,ja
FzBblSdjRbWpbshHdLCdbQ,newborntown,p1789_921-1954363,install,1.5,118.241.62.184,FAB27736-CB82-4362-A83E-176FE1828B7B,1559284440,2019-05-31 14:34:00,1559284552,2019-05-31 14:35:52,1559284582,965dafcf-30d1-41bb-bf5d-20a88fe7f026__pspm,http://pspm.pingstart.com/api/v4/postback?from=1706&clickid=965dafcf-30d1-41bb-bf5d-20a88fe7f026__pspm,idfa_FAB27736-CB82-4362-A83E-176FE1828B7B,ja
FzBblSdjRbWpbshHdLCdbQ,newborntown,p1789_921-1954363,install,1.5,60.141.36.127,A2055AB9-2962-497D-85AB-0D4F088B0230,1559281491,2019-05-31 13:44:51,1559281596,2019-05-31 13:46:36,1559281626,d19574b8-7b77-47c7-9ae1-f7dd54377ea6__pspm,http://pspm.pingstart.com/api/v4/postback?from=1706&clickid=d19574b8-7b77-47c7-9ae1-f7dd54377ea6__pspm,idfa_A2055AB9-2962-497D-85AB-0D4F088B0230,ja
FzBblSdjRbWpbshHdLCdbQ,newborntown,p1789_921-1954363,install,1.5,60.122.176.126,14055A3E-3497-49BE-BBF0-77DE43F11CEF,1559281751,2019-05-31 13:49:11,1559281845,2019-05-31 13:50:45,1559281875,94d8a780-55d9-439c-aa83-943522373e2f__pspm,http://pspm.pingstart.com/api/v4/postback?from=1706&clickid=94d8a780-55d9-439c-aa83-943522373e2f__pspm,idfa_14055A3E-3497-49BE-BBF0-77DE43F11CEF,ja
FzBblSdjRbWpbshHdLCdbQ,newborntown,p1789_921-1954363,install,1.5,60.35.53.81,BD0B3B7C-3ED5-4DFC-8871-22A020AF00AB,1559286307,2019-05-31 15:05:07,1559286594,2019-05-31 15:09:54,1559286624,41563381-6cce-46e4-85ea-4be1111687a4__pspm,http://pspm.pingstart.com/api/v4/postback?from=1706&clickid=41563381-6cce-46e4-85ea-4be1111687a4__pspm,idfa_BD0B3B7C-3ED5-4DFC-8871-22A020AF00AB,ja
