cid,partner_id,channel_id,action_id,cpi,ip,idfa,click time,click datetime,install time,install datetime,postback time,click id,postback url,unique user id
yQ5C_JolT2mG1utEiLRfpQ,newborntown,p1886_721-10529721,Install,3.0,220.246.39.206,944661E6-B896-4149-9E5C-6CF9C076E558,1559086268,2019-05-29 07:31:08,1559086300,2019-05-29 07:31:40,1559086331,988fdbd5-e055-4ff9-9697-69878fd14bcf__pspm,http://pspm.pingstart.com/api/v4/postback?from=1706&clickid=988fdbd5-e055-4ff9-9697-69878fd14bcf__pspm,idfa_944661E6-B896-4149-9E5C-6CF9C076E558,zh-HK-HK
yQ5C_JolT2mG1utEiLRfpQ,newborntown,p1886_721-10529721,Install,3.0,203.90.233.59,73C5637D-F663-4730-9071-330639CC34AE,1559085862,2019-05-29 07:24:22,1559085885,2019-05-29 07:24:45,1559085916,b44275d9-2e70-47eb-93f1-7dd90a4846dd__pspm,http://pspm.pingstart.com/api/v4/postback?from=1706&clickid=b44275d9-2e70-47eb-93f1-7dd90a4846dd__pspm,idfa_73C5637D-F663-4730-9071-330639CC34AE,zh-HK-HK
yQ5C_JolT2mG1utEiLRfpQ,newborntown,p1886_721-10529721,Install,3.0,223.197.168.2,085AAF07-D83A-4F25-A6F7-8A0CA5CE6A55,1559085751,2019-05-29 07:22:31,1559085784,2019-05-29 07:23:04,1559085815,58340f9b-0b1b-4828-b605-f273e500fc90__pspm,http://pspm.pingstart.com/api/v4/postback?from=1706&clickid=58340f9b-0b1b-4828-b605-f273e500fc90__pspm,idfa_085AAF07-D83A-4F25-A6F7-8A0CA5CE6A55,zh-HK-HK
yQ5C_JolT2mG1utEiLRfpQ,newborntown,p1886_721-10529721,Install,3.0,223.197.142.122,7321C765-8655-40F3-B8BA-121013E8FA54,1559086739,2019-05-29 07:38:59,1559086767,2019-05-29 07:39:27,1559086798,51dbfe41-7e5d-4d59-b468-965d421ad826__pspm,http://pspm.pingstart.com/api/v4/postback?from=1706&clickid=51dbfe41-7e5d-4d59-b468-965d421ad826__pspm,idfa_7321C765-8655-40F3-B8BA-121013E8FA54,zh-HK-HK
yQ5C_JolT2mG1utEiLRfpQ,newborntown,p1886_721-10529721,Install,3.0,42.200.215.190,5696F7B2-D398-41F9-9854-6EDD38674E4F,1559085638,2019-05-29 07:20:38,1559085667,2019-05-29 07:21:07,1559085698,f15453f9-c21f-4b50-9705-546d9fff50ed__pspm,http://pspm.pingstart.com/api/v4/postback?from=1706&clickid=f15453f9-c21f-4b50-9705-546d9fff50ed__pspm,idfa_5696F7B2-D398-41F9-9854-6EDD38674E4F,zh-HK-HK
yQ5C_JolT2mG1utEiLRfpQ,newborntown,p1886_721-10529721,Install,3.0,113.252.154.32,C5694A56-28E1-4EB2-9ADA-6E9F19F5D7EC,1559085673,2019-05-29 07:21:13,1559085702,2019-05-29 07:21:42,1559085733,07791261-6a03-41a5-86eb-92de85ee56e7__pspm,http://pspm.pingstart.com/api/v4/postback?from=1706&clickid=07791261-6a03-41a5-86eb-92de85ee56e7__pspm,idfa_C5694A56-28E1-4EB2-9ADA-6E9F19F5D7EC,zh-HK-HK
yQ5C_JolT2mG1utEiLRfpQ,newborntown,p1886_721-10529721,Install,3.0,223.197.223.164,32109C4E-B7E2-4E1D-AA8D-1E1C3BEEC586,1559085920,2019-05-29 07:25:20,1559085945,2019-05-29 07:25:45,1559085976,882fc870-8a14-4d04-9312-234153ebfb97__pspm,http://pspm.pingstart.com/api/v4/postback?from=1706&clickid=882fc870-8a14-4d04-9312-234153ebfb97__pspm,idfa_32109C4E-B7E2-4E1D-AA8D-1E1C3BEEC586,zh-HK-HK
yQ5C_JolT2mG1utEiLRfpQ,newborntown,p1886_721-10529721,Install,3.0,112.120.82.175,8C471C18-AE55-4266-ADE7-F8845BBFBD2E,1559087083,2019-05-29 07:44:43,1559087109,2019-05-29 07:45:09,1559087140,f92ead3e-f1ef-495a-9194-3eb3b346834b__pspm,http://pspm.pingstart.com/api/v4/postback?from=1706&clickid=f92ead3e-f1ef-495a-9194-3eb3b346834b__pspm,idfa_8C471C18-AE55-4266-ADE7-F8845BBFBD2E,zh-HK-HK
yQ5C_JolT2mG1utEiLRfpQ,newborntown,p1886_721-10529721,Install,3.0,103.6.178.202,B097DDE9-399E-4533-BF76-00CED14C6485,1559085580,2019-05-29 07:19:40,1559085615,2019-05-29 07:20:15,1559085646,bb0790c2-1a0d-44e2-b8df-535a12ff141b__pspm,http://pspm.pingstart.com/api/v4/postback?from=1706&clickid=bb0790c2-1a0d-44e2-b8df-535a12ff141b__pspm,idfa_B097DDE9-399E-4533-BF76-00CED14C6485,zh-HK-HK
yQ5C_JolT2mG1utEiLRfpQ,newborntown,p1886_721-10529721,Install,3.0,218.189.15.187,98406454-48EF-4BD1-8DA1-80C170954738,1559085721,2019-05-29 07:22:01,1559085754,2019-05-29 07:22:34,1559085785,d3bf6e77-8853-4a5e-b667-dd720fd48341__pspm,http://pspm.pingstart.com/api/v4/postback?from=1706&clickid=d3bf6e77-8853-4a5e-b667-dd720fd48341__pspm,idfa_98406454-48EF-4BD1-8DA1-80C170954738,zh-HK-HK
yQ5C_JolT2mG1utEiLRfpQ,newborntown,p1886_721-10529721,Install,3.0,203.198.148.196,B8789A28-6848-461F-9C00-A4EB107FADC3,1559085746,2019-05-29 07:22:26,1559085775,2019-05-29 07:22:55,1559085806,7fc4fd3a-6126-4792-94ae-d3edba1cbbac__pspm,http://pspm.pingstart.com/api/v4/postback?from=1706&clickid=7fc4fd3a-6126-4792-94ae-d3edba1cbbac__pspm,idfa_B8789A28-6848-461F-9C00-A4EB107FADC3,zh-HK-HK
yQ5C_JolT2mG1utEiLRfpQ,newborntown,p1886_721-10529721,Install,3.0,223.197.223.164,A99DF8E2-6B6E-472F-B364-A127B1889EAC,1559085322,2019-05-29 07:15:22,1559085369,2019-05-29 07:16:09,1559085400,8022321f-2ead-4b4b-802f-c2ce3f080378__pspm,http://pspm.pingstart.com/api/v4/postback?from=1706&clickid=8022321f-2ead-4b4b-802f-c2ce3f080378__pspm,idfa_A99DF8E2-6B6E-472F-B364-A127B1889EAC,zh-HK-HK
yQ5C_JolT2mG1utEiLRfpQ,newborntown,p1886_721-10529721,Install,3.0,58.152.59.95,097F0B1B-87D2-43DE-9F65-8BF8BDF727F1,1559086266,2019-05-29 07:31:06,1559086297,2019-05-29 07:31:37,1559086328,3f4c3db6-8c1c-422e-93bf-c587be0073e4__pspm,http://pspm.pingstart.com/api/v4/postback?from=1706&clickid=3f4c3db6-8c1c-422e-93bf-c587be0073e4__pspm,idfa_097F0B1B-87D2-43DE-9F65-8BF8BDF727F1,zh-HK-HK
yQ5C_JolT2mG1utEiLRfpQ,newborntown,p1886_721-10529721,Install,3.0,223.197.250.232,CE280079-B0D0-4D97-8C79-8A13EB8C6508,1559086586,2019-05-29 07:36:26,1559086611,2019-05-29 07:36:51,1559086643,d6035eb6-c308-4bce-8513-81792b425224__pspm,http://pspm.pingstart.com/api/v4/postback?from=1706&clickid=d6035eb6-c308-4bce-8513-81792b425224__pspm,idfa_CE280079-B0D0-4D97-8C79-8A13EB8C6508,zh-HK-HK
yQ5C_JolT2mG1utEiLRfpQ,newborntown,p1886_721-10529721,Install,3.0,218.103.121.13,41885671-C1BC-4FB1-9111-76BB78B3C025,1559086800,2019-05-29 07:40:00,1559086827,2019-05-29 07:40:27,1559086858,cdc9fc4c-50b3-4f51-9c53-42e1d4087114__pspm,http://pspm.pingstart.com/api/v4/postback?from=1706&clickid=cdc9fc4c-50b3-4f51-9c53-42e1d4087114__pspm,idfa_41885671-C1BC-4FB1-9111-76BB78B3C025,zh-HK-HK
yQ5C_JolT2mG1utEiLRfpQ,newborntown,p1886_721-10529721,Install,3.0,113.254.53.227,EA5E6711-51F1-4A0A-A4E2-4F2A68C1EE7A,1559086045,2019-05-29 07:27:25,1559086079,2019-05-29 07:27:59,1559086109,3cf3ad56-42da-4432-9f1c-ab0ecb407d16__pspm,http://pspm.pingstart.com/api/v4/postback?from=1706&clickid=3cf3ad56-42da-4432-9f1c-ab0ecb407d16__pspm,idfa_EA5E6711-51F1-4A0A-A4E2-4F2A68C1EE7A,zh-HK-HK
yQ5C_JolT2mG1utEiLRfpQ,newborntown,p1886_721-10529721,Install,3.0,203.198.151.85,34ABF9CC-AF80-41B9-A88D-45FDD90C1160,1559087057,2019-05-29 07:44:17,1559087087,2019-05-29 07:44:47,1559087117,dbaad298-6f87-4295-a513-9886c158803d__pspm,http://pspm.pingstart.com/api/v4/postback?from=1706&clickid=dbaad298-6f87-4295-a513-9886c158803d__pspm,idfa_34ABF9CC-AF80-41B9-A88D-45FDD90C1160,zh-HK-HK
yQ5C_JolT2mG1utEiLRfpQ,newborntown,p1886_721-10529721,Install,3.0,223.197.202.104,8F8439AF-B96B-4568-9BA5-4C6F9268B601,1559086701,2019-05-29 07:38:21,1559086733,2019-05-29 07:38:53,1559086763,55053cee-051a-47e6-b4cc-ab36e5e10e1a__pspm,http://pspm.pingstart.com/api/v4/postback?from=1706&clickid=55053cee-051a-47e6-b4cc-ab36e5e10e1a__pspm,idfa_8F8439AF-B96B-4568-9BA5-4C6F9268B601,zh-HK-HK
yQ5C_JolT2mG1utEiLRfpQ,newborntown,p1886_721-10529721,Install,3.0,42.200.215.124,2BDAED86-B7BD-4D8F-8F66-628A34F8BD3B,1559086517,2019-05-29 07:35:17,1559086547,2019-05-29 07:35:47,1559086577,eddcd6f3-96b2-4284-9d76-95844f33b2d8__pspm,http://pspm.pingstart.com/api/v4/postback?from=1706&clickid=eddcd6f3-96b2-4284-9d76-95844f33b2d8__pspm,idfa_2BDAED86-B7BD-4D8F-8F66-628A34F8BD3B,zh-HK-HK
yQ5C_JolT2mG1utEiLRfpQ,newborntown,p1886_721-10529721,Install,3.0,203.198.149.164,E6CF06EF-C31D-415B-89CA-BDC1AF6BDB71,1559086493,2019-05-29 07:34:53,1559086525,2019-05-29 07:35:25,1559086555,3bed2074-1920-4dd1-b015-bf11f02ad767__pspm,http://pspm.pingstart.com/api/v4/postback?from=1706&clickid=3bed2074-1920-4dd1-b015-bf11f02ad767__pspm,idfa_E6CF06EF-C31D-415B-89CA-BDC1AF6BDB71,zh-HK-HK
yQ5C_JolT2mG1utEiLRfpQ,newborntown,p1886_721-10529721,Install,3.0,61.239.38.39,C25567EF-B488-4E37-9F74-94CD69A4C1ED,1559085895,2019-05-29 07:24:55,1559086075,2019-05-29 07:27:55,1559086106,b9406058-3e13-4f91-9f50-07f3e009b368__pspm,http://pspm.pingstart.com/api/v4/postback?from=1706&clickid=b9406058-3e13-4f91-9f50-07f3e009b368__pspm,idfa_C25567EF-B488-4E37-9F74-94CD69A4C1ED,zh
yQ5C_JolT2mG1utEiLRfpQ,newborntown,p1886_721-10529721,Install,3.0,223.197.250.232,5EAF916F-BBCA-419F-82FC-133D021095C6,1559085691,2019-05-29 07:21:31,1559085716,2019-05-29 07:21:56,1559085747,c198685f-8009-45a9-b1b3-ca163612ce2b__pspm,http://pspm.pingstart.com/api/v4/postback?from=1706&clickid=c198685f-8009-45a9-b1b3-ca163612ce2b__pspm,idfa_5EAF916F-BBCA-419F-82FC-133D021095C6,zh-HK-HK
yQ5C_JolT2mG1utEiLRfpQ,newborntown,p1886_721-10529721,Install,3.0,218.103.126.211,975F6AD8-99A4-4F59-958C-23A7B6B45184,1559086099,2019-05-29 07:28:19,1559086125,2019-05-29 07:28:45,1559086156,f2e2133a-6ff8-4c88-beaf-0c60c969dfb4__pspm,http://pspm.pingstart.com/api/v4/postback?from=1706&clickid=f2e2133a-6ff8-4c88-beaf-0c60c969dfb4__pspm,idfa_975F6AD8-99A4-4F59-958C-23A7B6B45184,zh-HK-HK
yQ5C_JolT2mG1utEiLRfpQ,newborntown,p1886_721-10529721,Install,3.0,103.6.51.114,78C0CFD2-C278-4865-A220-75F064F823A2,1559086977,2019-05-29 07:42:57,1559087001,2019-05-29 07:43:21,1559087031,f09c7d02-e276-4fde-a085-306a3d4eb96f__pspm,http://pspm.pingstart.com/api/v4/postback?from=1706&clickid=f09c7d02-e276-4fde-a085-306a3d4eb96f__pspm,idfa_78C0CFD2-C278-4865-A220-75F064F823A2,zh-HK-HK
yQ5C_JolT2mG1utEiLRfpQ,newborntown,p1886_721-10529721,Install,3.0,202.82.133.61,82AD7BD0-A5C8-4249-925C-7D6323561139,1559085957,2019-05-29 07:25:57,1559085991,2019-05-29 07:26:31,1559086023,439b5cad-8cce-49a5-8343-698934c2ca29__pspm,http://pspm.pingstart.com/api/v4/postback?from=1706&clickid=439b5cad-8cce-49a5-8343-698934c2ca29__pspm,idfa_82AD7BD0-A5C8-4249-925C-7D6323561139,zh-HK-HK
yQ5C_JolT2mG1utEiLRfpQ,newborntown,p1886_721-10529721,Install,3.0,223.197.223.103,CBA9E0D4-6163-4E35-AD1F-E6475E239A19,1559085891,2019-05-29 07:24:51,1559085925,2019-05-29 07:25:25,1559085955,769eb906-4c6d-4164-aff9-9d455e1fe9c4__pspm,http://pspm.pingstart.com/api/v4/postback?from=1706&clickid=769eb906-4c6d-4164-aff9-9d455e1fe9c4__pspm,idfa_CBA9E0D4-6163-4E35-AD1F-E6475E239A19,zh-HK-HK
yQ5C_JolT2mG1utEiLRfpQ,newborntown,p1886_721-10529721,Install,3.0,223.197.167.43,CE037782-EF54-4328-89EB-5ACFDD5D5B27,1559086173,2019-05-29 07:29:33,1559086201,2019-05-29 07:30:01,1559086231,f133b26a-b2d1-4ad0-a2e7-55d9e1287914__pspm,http://pspm.pingstart.com/api/v4/postback?from=1706&clickid=f133b26a-b2d1-4ad0-a2e7-55d9e1287914__pspm,idfa_CE037782-EF54-4328-89EB-5ACFDD5D5B27,zh-HK-HK
yQ5C_JolT2mG1utEiLRfpQ,newborntown,p1886_721-10529721,Install,3.0,223.197.223.161,55755A0F-B5C2-42B7-ADA5-D17E1677B3C2,1559086882,2019-05-29 07:41:22,1559086911,2019-05-29 07:41:51,1559086941,3f999d1f-8afa-426f-a0a5-c1940da1f03d__pspm,http://pspm.pingstart.com/api/v4/postback?from=1706&clickid=3f999d1f-8afa-426f-a0a5-c1940da1f03d__pspm,idfa_55755A0F-B5C2-42B7-ADA5-D17E1677B3C2,zh-HK-HK
yQ5C_JolT2mG1utEiLRfpQ,newborntown,p1886_721-10529721,Install,3.0,218.189.15.187,8E7AE9C2-9C2A-48B6-BE86-547D08AFD135,1559086396,2019-05-29 07:33:16,1559086425,2019-05-29 07:33:45,1559086455,4ab78549-034c-48fd-aed1-7e5909572915__pspm,http://pspm.pingstart.com/api/v4/postback?from=1706&clickid=4ab78549-034c-48fd-aed1-7e5909572915__pspm,idfa_8E7AE9C2-9C2A-48B6-BE86-547D08AFD135,zh-HK-HK
yQ5C_JolT2mG1utEiLRfpQ,newborntown,p1886_721-10529721,Install,3.0,223.197.223.165,5809D45D-F066-46FE-BF69-9E9B47612BC1,1559086601,2019-05-29 07:36:41,1559086627,2019-05-29 07:37:07,1559086658,7eaade12-82df-4991-b03f-e82b4720e5b3__pspm,http://pspm.pingstart.com/api/v4/postback?from=1706&clickid=7eaade12-82df-4991-b03f-e82b4720e5b3__pspm,idfa_5809D45D-F066-46FE-BF69-9E9B47612BC1,zh-HK-HK
yQ5C_JolT2mG1utEiLRfpQ,newborntown,p1886_721-10529721,Install,3.0,103.254.210.60,13572BDE-49C2-49EE-B8FD-A2D0A3D37F4E,1559085637,2019-05-29 07:20:37,1559085667,2019-05-29 07:21:07,1559085698,e2b95457-029b-489b-94d8-e77ca6faf666__pspm,http://pspm.pingstart.com/api/v4/postback?from=1706&clickid=e2b95457-029b-489b-94d8-e77ca6faf666__pspm,idfa_13572BDE-49C2-49EE-B8FD-A2D0A3D37F4E,zh-HK-HK
yQ5C_JolT2mG1utEiLRfpQ,newborntown,p1886_721-10529721,Install,3.0,223.197.142.140,D9EE741B-A1B9-40C7-AE98-EF067ADF6FDB,1559085518,2019-05-29 07:18:38,1559085548,2019-05-29 07:19:08,1559085578,0a5ba4bd-ebef-46aa-9afb-b7ec1739e472__pspm,http://pspm.pingstart.com/api/v4/postback?from=1706&clickid=0a5ba4bd-ebef-46aa-9afb-b7ec1739e472__pspm,idfa_D9EE741B-A1B9-40C7-AE98-EF067ADF6FDB,zh-HK-HK
yQ5C_JolT2mG1utEiLRfpQ,newborntown,p1886_721-10529721,Install,3.0,113.254.53.227,5426AEBB-0E33-4CE0-9194-CFC21B404F90,1559086968,2019-05-29 07:42:48,1559086994,2019-05-29 07:43:14,1559087024,528c73b6-447e-4259-9fe1-208c12099b50__pspm,http://pspm.pingstart.com/api/v4/postback?from=1706&clickid=528c73b6-447e-4259-9fe1-208c12099b50__pspm,idfa_5426AEBB-0E33-4CE0-9194-CFC21B404F90,zh-HK-HK
yQ5C_JolT2mG1utEiLRfpQ,newborntown,p1886_721-10529721,Install,3.0,223.197.223.219,8F633B6D-E1AB-4C53-A32E-BA74143DFDEB,1559086312,2019-05-29 07:31:52,1559086345,2019-05-29 07:32:25,1559086375,1ad9266a-b33e-4c7b-b194-b001fcc4e1bc__pspm,http://pspm.pingstart.com/api/v4/postback?from=1706&clickid=1ad9266a-b33e-4c7b-b194-b001fcc4e1bc__pspm,idfa_8F633B6D-E1AB-4C53-A32E-BA74143DFDEB,zh-HK-HK
yQ5C_JolT2mG1utEiLRfpQ,newborntown,p1886_721-10529721,Install,3.0,118.141.39.242,FE8CB002-BB0A-4F4D-9499-DA8552E23588,1559085969,2019-05-29 07:26:09,1559086004,2019-05-29 07:26:44,1559086034,6ce8a561-f204-44b9-9359-435ab73af30d__pspm,http://pspm.pingstart.com/api/v4/postback?from=1706&clickid=6ce8a561-f204-44b9-9359-435ab73af30d__pspm,idfa_FE8CB002-BB0A-4F4D-9499-DA8552E23588,zh-HK-HK
yQ5C_JolT2mG1utEiLRfpQ,newborntown,p1886_721-10529721,Install,3.0,202.82.230.225,459EC8AF-D543-463A-8C82-756E03B8A840,1559086115,2019-05-29 07:28:35,1559086183,2019-05-29 07:29:43,1559086214,1dce6bc8-4125-4d2d-b2a5-f97a0241976c__pspm,http://pspm.pingstart.com/api/v4/postback?from=1706&clickid=1dce6bc8-4125-4d2d-b2a5-f97a0241976c__pspm,idfa_459EC8AF-D543-463A-8C82-756E03B8A840,zh-HK
yQ5C_JolT2mG1utEiLRfpQ,newborntown,p1886_721-10529721,Install,3.0,223.197.163.246,C91F9196-A610-4C60-8CE2-A5FF4AC9C0A8,1559086835,2019-05-29 07:40:35,1559086862,2019-05-29 07:41:02,1559086893,6627560e-0fc9-43b4-915e-33f9815cd0d9__pspm,http://pspm.pingstart.com/api/v4/postback?from=1706&clickid=6627560e-0fc9-43b4-915e-33f9815cd0d9__pspm,idfa_C91F9196-A610-4C60-8CE2-A5FF4AC9C0A8,zh-HK-HK
yQ5C_JolT2mG1utEiLRfpQ,newborntown,p1886_721-10529721,Install,3.0,223.197.202.104,02A21093-00B6-40F5-A0FB-763B051F4255,1559086216,2019-05-29 07:30:16,1559086242,2019-05-29 07:30:42,1559086273,1dee3bdd-16df-4abc-afdb-b8f2df9e4a80__pspm,http://pspm.pingstart.com/api/v4/postback?from=1706&clickid=1dee3bdd-16df-4abc-afdb-b8f2df9e4a80__pspm,idfa_02A21093-00B6-40F5-A0FB-763B051F4255,zh-HK-HK
yQ5C_JolT2mG1utEiLRfpQ,newborntown,p1886_721-10529721,Install,3.0,61.10.132.94,5DD1EF7D-7632-4A1A-B9F2-3CAC417BF7C3,1559086820,2019-05-29 07:40:20,1559087041,2019-05-29 07:44:01,1559087072,7cf68a80-744c-4bb4-92b8-1e919b2627fd__pspm,http://pspm.pingstart.com/api/v4/postback?from=1706&clickid=7cf68a80-744c-4bb4-92b8-1e919b2627fd__pspm,idfa_5DD1EF7D-7632-4A1A-B9F2-3CAC417BF7C3,zh
yQ5C_JolT2mG1utEiLRfpQ,newborntown,p1886_721-10529721,Install,3.0,14.0.229.126,BF6DE222-D400-4974-9D4A-63FDD0EEC0FA,1559082227,2019-05-29 06:23:47,1559082341,2019-05-29 06:25:41,1559082372,e7ee8638-b89a-4914-9112-71a2543615ac__pspm,http://pspm.pingstart.com/api/v4/postback?from=1706&clickid=e7ee8638-b89a-4914-9112-71a2543615ac__pspm,idfa_BF6DE222-D400-4974-9D4A-63FDD0EEC0FA,zh
yQ5C_JolT2mG1utEiLRfpQ,newborntown,p1886_721-10529721,Install,3.0,47.90.37.144,5B18BBB5-619D-434E-97EC-54A7F24FE184,1559086617,2019-05-29 07:36:57,1559086650,2019-05-29 07:37:30,1559086681,6972c48a-bb89-4312-a08c-f5d346968c3e__pspm,http://pspm.pingstart.com/api/v4/postback?from=1706&clickid=6972c48a-bb89-4312-a08c-f5d346968c3e__pspm,idfa_5B18BBB5-619D-434E-97EC-54A7F24FE184,zh-Hant-CN
yQ5C_JolT2mG1utEiLRfpQ,newborntown,p1886_721-10529721,Install,3.0,218.189.15.187,451974F8-8857-41CF-BF9B-D695C6478B66,1559087128,2019-05-29 07:45:28,1559087151,2019-05-29 07:45:51,1559087182,100f3f0a-a6a9-46b4-a296-717d8987e9ca__pspm,http://pspm.pingstart.com/api/v4/postback?from=1706&clickid=100f3f0a-a6a9-46b4-a296-717d8987e9ca__pspm,idfa_451974F8-8857-41CF-BF9B-D695C6478B66,zh-HK-HK
yQ5C_JolT2mG1utEiLRfpQ,newborntown,p1886_721-10529721,Install,3.0,43.240.117.239,1B19E8CD-9261-4580-8CF0-693BBFFDF122,1559086105,2019-05-29 07:28:25,1559086136,2019-05-29 07:28:56,1559086167,e4701fa5-c490-43c2-8f06-64c42e861659__pspm,http://pspm.pingstart.com/api/v4/postback?from=1706&clickid=e4701fa5-c490-43c2-8f06-64c42e861659__pspm,idfa_1B19E8CD-9261-4580-8CF0-693BBFFDF122,zh-HK-HK
yQ5C_JolT2mG1utEiLRfpQ,newborntown,p1886_721-10529721,Install,3.0,112.120.82.232,21B3AAC6-3570-46A6-BE4E-A24B5A8A5AB8,1559085846,2019-05-29 07:24:06,1559085874,2019-05-29 07:24:34,1559085904,5e1e2fd9-2c75-4203-81db-26beb8795429__pspm,http://pspm.pingstart.com/api/v4/postback?from=1706&clickid=5e1e2fd9-2c75-4203-81db-26beb8795429__pspm,idfa_21B3AAC6-3570-46A6-BE4E-A24B5A8A5AB8,zh-HK-HK
yQ5C_JolT2mG1utEiLRfpQ,newborntown,p1886_721-10529721,Install,3.0,223.197.223.103,6332EEC0-7888-4990-90DF-55D3AFE074C7,1559087001,2019-05-29 07:43:21,1559087029,2019-05-29 07:43:49,1559087060,877d40d6-ce90-4d30-9ce9-b0814b8f9776__pspm,http://pspm.pingstart.com/api/v4/postback?from=1706&clickid=877d40d6-ce90-4d30-9ce9-b0814b8f9776__pspm,idfa_6332EEC0-7888-4990-90DF-55D3AFE074C7,zh-HK-HK
yQ5C_JolT2mG1utEiLRfpQ,newborntown,p1886_721-10529721,Install,3.0,58.177.120.246,8FE9F7F8-12EE-4CDA-9530-7C03F137E6CB,1559086769,2019-05-29 07:39:29,1559086942,2019-05-29 07:42:22,1559086973,aef200e4-45f8-4973-9783-23bc291bd359__pspm,http://pspm.pingstart.com/api/v4/postback?from=1706&clickid=aef200e4-45f8-4973-9783-23bc291bd359__pspm,idfa_8FE9F7F8-12EE-4CDA-9530-7C03F137E6CB,zh
yQ5C_JolT2mG1utEiLRfpQ,newborntown,p1886_721-10529721,Install,3.0,58.152.59.95,DB485F1A-2648-4788-8E7A-27FD3739191D,1559086785,2019-05-29 07:39:45,1559086812,2019-05-29 07:40:12,1559086843,b01f462e-8508-4595-b5f1-f7b7979ce1ea__pspm,http://pspm.pingstart.com/api/v4/postback?from=1706&clickid=b01f462e-8508-4595-b5f1-f7b7979ce1ea__pspm,idfa_DB485F1A-2648-4788-8E7A-27FD3739191D,zh-HK-HK
yQ5C_JolT2mG1utEiLRfpQ,newborntown,p1886_721-10529721,Install,3.0,223.197.162.15,B48532CF-4251-4AB5-9ACB-89ECCB110D7A,1559086238,2019-05-29 07:30:38,1559086264,2019-05-29 07:31:04,1559086295,3d214d0d-14e0-4eae-9a77-16b2f5a5434c__pspm,http://pspm.pingstart.com/api/v4/postback?from=1706&clickid=3d214d0d-14e0-4eae-9a77-16b2f5a5434c__pspm,idfa_B48532CF-4251-4AB5-9ACB-89ECCB110D7A,zh-HK-HK
yQ5C_JolT2mG1utEiLRfpQ,newborntown,p1886_721-10529721,Install,3.0,218.103.126.211,4F757FB6-1BDA-4E5D-986B-04A88DA7B5D8,1559084632,2019-05-29 07:03:52,1559084677,2019-05-29 07:04:37,1559084707,b305febf-d7ac-4417-821d-a61505c5fab0__pspm,http://pspm.pingstart.com/api/v4/postback?from=1706&clickid=b305febf-d7ac-4417-821d-a61505c5fab0__pspm,idfa_4F757FB6-1BDA-4E5D-986B-04A88DA7B5D8,zh-HK-HK
yQ5C_JolT2mG1utEiLRfpQ,newborntown,p1886_721-10529721,Install,3.0,49.130.130.2,0EAFD68A-430C-40FD-A1EF-A51710FB0450,1559073241,2019-05-29 03:54:01,1559073452,2019-05-29 03:57:32,1559073483,f9c3f8c4-7fda-442b-8b5a-5c9b9d04b761__pspm,http://pspm.pingstart.com/api/v4/postback?from=1706&clickid=f9c3f8c4-7fda-442b-8b5a-5c9b9d04b761__pspm,idfa_0EAFD68A-430C-40FD-A1EF-A51710FB0450,zh
yQ5C_JolT2mG1utEiLRfpQ,newborntown,p1886_721-10529721,Install,3.0,210.3.173.34,16FD4494-A7E1-44EB-88DC-7F2911CE21BD,1559086414,2019-05-29 07:33:34,1559086443,2019-05-29 07:34:03,1559086473,10bf40b7-1be3-4166-8e1a-6b85a8c30936__pspm,http://pspm.pingstart.com/api/v4/postback?from=1706&clickid=10bf40b7-1be3-4166-8e1a-6b85a8c30936__pspm,idfa_16FD4494-A7E1-44EB-88DC-7F2911CE21BD,zh-HK-HK
yQ5C_JolT2mG1utEiLRfpQ,newborntown,p1886_721-10529721,Install,3.0,203.198.148.196,FEEE4A2A-140D-4D13-9069-29E7F39D7083,1559086437,2019-05-29 07:33:57,1559086462,2019-05-29 07:34:22,1559086492,6b170a5d-e948-4862-a5cb-4ade716fe1be__pspm,http://pspm.pingstart.com/api/v4/postback?from=1706&clickid=6b170a5d-e948-4862-a5cb-4ade716fe1be__pspm,idfa_FEEE4A2A-140D-4D13-9069-29E7F39D7083,zh-HK-HK
yQ5C_JolT2mG1utEiLRfpQ,newborntown,p1886_721-10529721,Install,3.0,223.197.223.164,B1D415DC-2B25-4B7B-A939-577F0E4348FC,1559086650,2019-05-29 07:37:30,1559086676,2019-05-29 07:37:56,1559086706,b1ae69e4-f1da-4f82-8dcf-b4bc0aa229d2__pspm,http://pspm.pingstart.com/api/v4/postback?from=1706&clickid=b1ae69e4-f1da-4f82-8dcf-b4bc0aa229d2__pspm,idfa_B1D415DC-2B25-4B7B-A939-577F0E4348FC,zh-HK-HK
yQ5C_JolT2mG1utEiLRfpQ,newborntown,p1886_721-10529721,Install,3.0,203.198.124.70,77ADAC6F-7044-4060-AD2B-96EF42D1E706,1559086346,2019-05-29 07:32:26,1559086369,2019-05-29 07:32:49,1559086400,102f5d1f-3677-4457-8523-094f143cdc4f__pspm,http://pspm.pingstart.com/api/v4/postback?from=1706&clickid=102f5d1f-3677-4457-8523-094f143cdc4f__pspm,idfa_77ADAC6F-7044-4060-AD2B-96EF42D1E706,zh-HK-HK
yQ5C_JolT2mG1utEiLRfpQ,newborntown,p1886_721-10529721,Install,3.0,223.197.223.219,7DE45EEB-DE28-4F6D-8723-47EC4DC08BB0,1559087135,2019-05-29 07:45:35,1559087160,2019-05-29 07:46:00,1559087191,5604615f-489b-434f-a8df-4e350474b78e__pspm,http://pspm.pingstart.com/api/v4/postback?from=1706&clickid=5604615f-489b-434f-a8df-4e350474b78e__pspm,idfa_7DE45EEB-DE28-4F6D-8723-47EC4DC08BB0,zh-HK-HK
yQ5C_JolT2mG1utEiLRfpQ,newborntown,p1886_721-10529721,Install,3.0,113.28.9.25,AF437C8F-6375-4A35-A71E-BD51A0AAD8EB,1559086143,2019-05-29 07:29:03,1559086178,2019-05-29 07:29:38,1559086208,0452c6c0-1454-41eb-b488-42822ba2a710__pspm,http://pspm.pingstart.com/api/v4/postback?from=1706&clickid=0452c6c0-1454-41eb-b488-42822ba2a710__pspm,idfa_AF437C8F-6375-4A35-A71E-BD51A0AAD8EB,zh-HK-HK
yQ5C_JolT2mG1utEiLRfpQ,newborntown,p1886_721-10529721,Install,3.0,103.6.178.202,F6882B6E-57C1-4C0C-93D8-DC218C3FBEE4,1559086577,2019-05-29 07:36:17,1559086604,2019-05-29 07:36:44,1559086634,408363b4-ee7a-4abc-83a6-4a4557c7fbbe__pspm,http://pspm.pingstart.com/api/v4/postback?from=1706&clickid=408363b4-ee7a-4abc-83a6-4a4557c7fbbe__pspm,idfa_F6882B6E-57C1-4C0C-93D8-DC218C3FBEE4,zh-HK-HK
yQ5C_JolT2mG1utEiLRfpQ,newborntown,p1886_721-10529721,Install,3.0,202.82.230.225,AAE8EB3E-EF66-4542-AEC2-4327DB8DCA20,1559087047,2019-05-29 07:44:07,1559087104,2019-05-29 07:45:04,1559087134,4cba26f6-79f4-423a-93ed-fec7d3f0db16__pspm,http://pspm.pingstart.com/api/v4/postback?from=1706&clickid=4cba26f6-79f4-423a-93ed-fec7d3f0db16__pspm,idfa_AAE8EB3E-EF66-4542-AEC2-4327DB8DCA20,zh-HK
