cid,partner_id,channel_id,action_id,cpi,ip,idfa,click time,click datetime,install time,install datetime,postback time,click id,postback url,unique user id
AohrWdFnS5O7gizBcQo0wA,newborntown,p1336_10425_,Install,1.0,175.208.237.135,c680d1a6-334f-4006-9f59-ff417fe06ae9,1559030046,2019-05-28 15:54:06,1559030153,2019-05-28 15:55:53,1559030187,7af04c67-653f-443e-b9af-a9bd1a16a46e__pspm,http://pspm.pingstart.com/api/v4/postback?from=1706&clickid=7af04c67-653f-443e-b9af-a9bd1a16a46e__pspm,idfa_c680d1a6-334f-4006-9f59-ff417fe06ae9,%ED%95%9C%EA%B5%AD%EC%96%B4
AohrWdFnS5O7gizBcQo0wA,newborntown,p1336_10425_,Install,1.0,119.206.54.10,43329559-f493-4f61-ad8d-048192248abc,1558939041,2019-05-27 14:37:21,1558939138,2019-05-27 14:38:58,1558939168,7507c8a9-2025-46f6-8e48-6952314a71c6__pspm,http://pspm.pingstart.com/api/v4/postback?from=1706&clickid=7507c8a9-2025-46f6-8e48-6952314a71c6__pspm,idfa_43329559-f493-4f61-ad8d-048192248abc,%ED%95%9C%EA%B5%AD%EC%96%B4
AohrWdFnS5O7gizBcQo0wA,newborntown,p1336_10425_,Install,1.0,175.125.241.236,8ef2e3f3-5eaf-42a2-98f4-dce69ac727a9,1558785917,2019-05-25 20:05:17,1558786040,2019-05-25 20:07:20,1558786070,6f710792-78e0-4399-a3c8-135958d1a19a__pspm,http://pspm.pingstart.com/api/v4/postback?from=1706&clickid=6f710792-78e0-4399-a3c8-135958d1a19a__pspm,idfa_8ef2e3f3-5eaf-42a2-98f4-dce69ac727a9,%ED%95%9C%EA%B5%AD%EC%96%B4
AohrWdFnS5O7gizBcQo0wA,newborntown,p1336_10425_,Install,1.0,182.230.122.162,907e9f39-4df5-43da-bf83-b66c1d8c70a7,1558966728,2019-05-27 22:18:48,1558966850,2019-05-27 22:20:50,1558966881,59e677d6-b1ab-431c-aec9-e1edf380b1ba__pspm,http://pspm.pingstart.com/api/v4/postback?from=1706&clickid=59e677d6-b1ab-431c-aec9-e1edf380b1ba__pspm,idfa_907e9f39-4df5-43da-bf83-b66c1d8c70a7,%ED%95%9C%EA%B5%AD%EC%96%B4
AohrWdFnS5O7gizBcQo0wA,newborntown,p1336_10425_,Install,1.0,175.200.73.68,27824870-2e50-44fe-b73d-15a1915cf178,1558941604,2019-05-27 15:20:04,1558941714,2019-05-27 15:21:54,1558941744,b4f1ad9d-e42c-4e99-9080-aaf7c4213452__pspm,http://pspm.pingstart.com/api/v4/postback?from=1706&clickid=b4f1ad9d-e42c-4e99-9080-aaf7c4213452__pspm,idfa_27824870-2e50-44fe-b73d-15a1915cf178,%ED%95%9C%EA%B5%AD%EC%96%B4
AohrWdFnS5O7gizBcQo0wA,newborntown,p1336_10425_,Install,1.0,175.196.171.190,357154eb-fbf2-4469-b0c6-d23648bab4f6,1558782928,2019-05-25 19:15:28,1558783050,2019-05-25 19:17:30,1558783081,8b12b739-0adf-4fa3-b298-ec37511e49e6__pspm,http://pspm.pingstart.com/api/v4/postback?from=1706&clickid=8b12b739-0adf-4fa3-b298-ec37511e49e6__pspm,idfa_357154eb-fbf2-4469-b0c6-d23648bab4f6,%ED%95%9C%EA%B5%AD%EC%96%B4
AohrWdFnS5O7gizBcQo0wA,newborntown,p1336_10425_,Install,1.0,211.177.66.199,6011e969-3f49-4161-b52a-412f5e702880,1558787268,2019-05-25 20:27:48,1558787390,2019-05-25 20:29:50,1558787421,9d8562cf-d04d-40a4-9965-e48cbad63892__pspm,http://pspm.pingstart.com/api/v4/postback?from=1706&clickid=9d8562cf-d04d-40a4-9965-e48cbad63892__pspm,idfa_6011e969-3f49-4161-b52a-412f5e702880,%ED%95%9C%EA%B5%AD%EC%96%B4
AohrWdFnS5O7gizBcQo0wA,newborntown,p1336_10425_,Install,1.0,220.118.167.115,c64cff79-c736-4b14-ac5c-c418978e1c92,1558969700,2019-05-27 23:08:20,1558969825,2019-05-27 23:10:25,1558969857,c5dc13da-0a37-4d31-a4f6-944c860fcf62__pspm,http://pspm.pingstart.com/api/v4/postback?from=1706&clickid=c5dc13da-0a37-4d31-a4f6-944c860fcf62__pspm,idfa_c64cff79-c736-4b14-ac5c-c418978e1c92,%ED%95%9C%EA%B5%AD%EC%96%B4
AohrWdFnS5O7gizBcQo0wA,newborntown,p1336_10425_,Install,1.0,220.116.172.97,5cb44c90-b8bb-4ec3-b408-0b6321654e3b,1559011599,2019-05-28 10:46:39,1559011726,2019-05-28 10:48:46,1559011757,72081170-4b86-41ef-b8a4-57c2451a1501__pspm,http://pspm.pingstart.com/api/v4/postback?from=1706&clickid=72081170-4b86-41ef-b8a4-57c2451a1501__pspm,idfa_5cb44c90-b8bb-4ec3-b408-0b6321654e3b,%ED%95%9C%EA%B5%AD%EC%96%B4
AohrWdFnS5O7gizBcQo0wA,newborntown,p1336_10425_,Install,1.0,121.129.102.171,f74cb196-fea8-452b-a3e0-70f9a0f96943,1559104921,2019-05-29 12:42:01,1559105037,2019-05-29 12:43:57,1559105070,40653a60-460a-4d08-9977-d0260541f783__pspm,http://pspm.pingstart.com/api/v4/postback?from=1706&clickid=40653a60-460a-4d08-9977-d0260541f783__pspm,idfa_f74cb196-fea8-452b-a3e0-70f9a0f96943,%ED%95%9C%EA%B5%AD%EC%96%B4
AohrWdFnS5O7gizBcQo0wA,newborntown,p1336_10425_,Install,1.0,211.252.110.99,35058f58-1bd2-46c0-ad5a-0fe1bbbb66e7,1559048530,2019-05-28 21:02:10,1559048610,2019-05-28 21:03:30,1559048640,f13851eb-0f70-47e5-a651-7919bdb01341__pspm,http://pspm.pingstart.com/api/v4/postback?from=1706&clickid=f13851eb-0f70-47e5-a651-7919bdb01341__pspm,idfa_35058f58-1bd2-46c0-ad5a-0fe1bbbb66e7,%ED%95%9C%EA%B5%AD%EC%96%B4
AohrWdFnS5O7gizBcQo0wA,newborntown,p1336_10425_,Install,1.0,222.102.108.188,55eeb6dc-c46c-4139-83ad-7f3d336f2920,1558786109,2019-05-25 20:08:29,1558786222,2019-05-25 20:10:22,1558786253,1153aedd-8179-4563-935a-9c4aee078767__pspm,http://pspm.pingstart.com/api/v4/postback?from=1706&clickid=1153aedd-8179-4563-935a-9c4aee078767__pspm,idfa_55eeb6dc-c46c-4139-83ad-7f3d336f2920,%ED%95%9C%EA%B5%AD%EC%96%B4
AohrWdFnS5O7gizBcQo0wA,newborntown,p1336_10425_,Install,1.0,175.115.61.133,1a11d924-f105-4504-bfdb-24b1a0e6fa62,1558784149,2019-05-25 19:35:49,1558784244,2019-05-25 19:37:24,1558784275,17ee2c29-fc6e-467f-a62c-2810bce28aa4__pspm,http://pspm.pingstart.com/api/v4/postback?from=1706&clickid=17ee2c29-fc6e-467f-a62c-2810bce28aa4__pspm,idfa_1a11d924-f105-4504-bfdb-24b1a0e6fa62,%ED%95%9C%EA%B5%AD%EC%96%B4
AohrWdFnS5O7gizBcQo0wA,newborntown,p1336_10425_,Install,1.0,221.160.211.152,6394a192-0897-49cc-a3ab-0a8116a9cbce,1558951294,2019-05-27 18:01:34,1558951405,2019-05-27 18:03:25,1558951436,14396b82-514d-4fd1-b62e-0a765ef90293__pspm,http://pspm.pingstart.com/api/v4/postback?from=1706&clickid=14396b82-514d-4fd1-b62e-0a765ef90293__pspm,idfa_6394a192-0897-49cc-a3ab-0a8116a9cbce,%ED%95%9C%EA%B5%AD%EC%96%B4
AohrWdFnS5O7gizBcQo0wA,newborntown,p1336_10425_,Install,1.0,119.195.140.117,7c6225f8-3c28-4290-8f5c-0b13a658fad2,1558945125,2019-05-27 16:18:45,1558945252,2019-05-27 16:20:52,1558945283,bcc85b43-2653-45df-94e0-c8982192cba8__pspm,http://pspm.pingstart.com/api/v4/postback?from=1706&clickid=bcc85b43-2653-45df-94e0-c8982192cba8__pspm,idfa_7c6225f8-3c28-4290-8f5c-0b13a658fad2,%ED%95%9C%EA%B5%AD%EC%96%B4
AohrWdFnS5O7gizBcQo0wA,newborntown,p1336_10425_,Install,1.0,58.126.54.137,4d191c59-3982-4056-be3b-7f21b2f3d6c6,1558941589,2019-05-27 15:19:49,1558941713,2019-05-27 15:21:53,1558941743,7730a10d-e91c-4dfe-afd7-e96b9a071f59__pspm,http://pspm.pingstart.com/api/v4/postback?from=1706&clickid=7730a10d-e91c-4dfe-afd7-e96b9a071f59__pspm,idfa_4d191c59-3982-4056-be3b-7f21b2f3d6c6,%ED%95%9C%EA%B5%AD%EC%96%B4
AohrWdFnS5O7gizBcQo0wA,newborntown,p1336_10425_,Install,1.0,118.45.136.132,ec5193a1-3779-4e4d-9f2b-10e6f989c43e,1559047729,2019-05-28 20:48:49,1559047838,2019-05-28 20:50:38,1559047872,902b182c-2312-46f5-8985-ffd89c401f9d__pspm,http://pspm.pingstart.com/api/v4/postback?from=1706&clickid=902b182c-2312-46f5-8985-ffd89c401f9d__pspm,idfa_ec5193a1-3779-4e4d-9f2b-10e6f989c43e,%ED%95%9C%EA%B5%AD%EC%96%B4
AohrWdFnS5O7gizBcQo0wA,newborntown,p1336_10425_,Install,1.0,222.117.55.91,53f4c4ca-7ada-4fc8-aa12-b234c0dff54b,1558964334,2019-05-27 21:38:54,1558964452,2019-05-27 21:40:52,1558964482,92efa16e-3e85-44ed-9474-b60390aed0ca__pspm,http://pspm.pingstart.com/api/v4/postback?from=1706&clickid=92efa16e-3e85-44ed-9474-b60390aed0ca__pspm,idfa_53f4c4ca-7ada-4fc8-aa12-b234c0dff54b,%ED%95%9C%EA%B5%AD%EC%96%B4
AohrWdFnS5O7gizBcQo0wA,newborntown,p1336_10425_,Install,1.0,220.69.240.66,7c239eea-a2db-4bf3-84aa-bad826ee5d2a,1559047387,2019-05-28 20:43:07,1559047489,2019-05-28 20:44:49,1559047520,40777d5d-f217-468d-8b7e-8517080a6695__pspm,http://pspm.pingstart.com/api/v4/postback?from=1706&clickid=40777d5d-f217-468d-8b7e-8517080a6695__pspm,idfa_7c239eea-a2db-4bf3-84aa-bad826ee5d2a,%ED%95%9C%EA%B5%AD%EC%96%B4
AohrWdFnS5O7gizBcQo0wA,newborntown,p1336_10425_,Install,1.0,182.226.101.181,67bb1054-d55a-4698-9f37-16bf1832f9bd,1559042234,2019-05-28 19:17:14,1559042313,2019-05-28 19:18:33,1559042344,4bfb0cc7-41c4-4bc0-8d5b-6c71646858a0__pspm,http://pspm.pingstart.com/api/v4/postback?from=1706&clickid=4bfb0cc7-41c4-4bc0-8d5b-6c71646858a0__pspm,idfa_67bb1054-d55a-4698-9f37-16bf1832f9bd,%ED%95%9C%EA%B5%AD%EC%96%B4
AohrWdFnS5O7gizBcQo0wA,newborntown,p1336_10425_,Install,1.0,59.31.255.63,4d089ee4-e36c-42b9-8a8a-d1adf6cf6cb8,1559047630,2019-05-28 20:47:10,1559047728,2019-05-28 20:48:48,1559047763,256fb545-c8e6-48bb-8fd9-fee127c46814__pspm,http://pspm.pingstart.com/api/v4/postback?from=1706&clickid=256fb545-c8e6-48bb-8fd9-fee127c46814__pspm,idfa_4d089ee4-e36c-42b9-8a8a-d1adf6cf6cb8,%ED%95%9C%EA%B5%AD%EC%96%B4
AohrWdFnS5O7gizBcQo0wA,newborntown,p1336_10425_,Install,1.0,58.124.63.154,f294b64e-5b42-4673-b30b-90bcbb3e78d0,1559021638,2019-05-28 13:33:58,1559021720,2019-05-28 13:35:20,1559021751,470b13d6-d1df-40a9-9f44-0422d885f4f2__pspm,http://pspm.pingstart.com/api/v4/postback?from=1706&clickid=470b13d6-d1df-40a9-9f44-0422d885f4f2__pspm,idfa_f294b64e-5b42-4673-b30b-90bcbb3e78d0,%ED%95%9C%EA%B5%AD%EC%96%B4
AohrWdFnS5O7gizBcQo0wA,newborntown,p1336_10425_,Install,1.0,1.212.143.10,b23195f3-bb75-4c89-a436-391c68495c38,1559107061,2019-05-29 13:17:41,1559107171,2019-05-29 13:19:31,1559107201,dfc89df2-a30a-4f9f-a3ff-35a0f05fe086__pspm,http://pspm.pingstart.com/api/v4/postback?from=1706&clickid=dfc89df2-a30a-4f9f-a3ff-35a0f05fe086__pspm,idfa_b23195f3-bb75-4c89-a436-391c68495c38,%ED%95%9C%EA%B5%AD%EC%96%B4
AohrWdFnS5O7gizBcQo0wA,newborntown,p1336_10425_,Install,1.0,121.168.180.74,7ffb8bed-7648-4254-8d05-c69304fea7df,1559037067,2019-05-28 17:51:07,1559037176,2019-05-28 17:52:56,1559037208,dbee98e9-e3de-4da1-acae-3b51a50db277__pspm,http://pspm.pingstart.com/api/v4/postback?from=1706&clickid=dbee98e9-e3de-4da1-acae-3b51a50db277__pspm,idfa_7ffb8bed-7648-4254-8d05-c69304fea7df,%ED%95%9C%EA%B5%AD%EC%96%B4
AohrWdFnS5O7gizBcQo0wA,newborntown,p1336_10425_,Install,1.0,211.185.75.137,250d46d6-1f93-4cc8-a76e-fa3519853796,1558942378,2019-05-27 15:32:58,1558942500,2019-05-27 15:35:00,1558942530,6f67ae45-d7b0-40dd-a7f9-f839cb9ad728__pspm,http://pspm.pingstart.com/api/v4/postback?from=1706&clickid=6f67ae45-d7b0-40dd-a7f9-f839cb9ad728__pspm,idfa_250d46d6-1f93-4cc8-a76e-fa3519853796,%ED%95%9C%EA%B5%AD%EC%96%B4
AohrWdFnS5O7gizBcQo0wA,newborntown,p1336_10425_,Install,1.0,39.7.53.2,61ea2552-978d-406d-8ea9-8263204d135e,1558967151,2019-05-27 22:25:51,1558967278,2019-05-27 22:27:58,1558967309,37ee24d2-6f56-40b6-a8f1-334f611d1957__pspm,http://pspm.pingstart.com/api/v4/postback?from=1706&clickid=37ee24d2-6f56-40b6-a8f1-334f611d1957__pspm,idfa_61ea2552-978d-406d-8ea9-8263204d135e,%ED%95%9C%EA%B5%AD%EC%96%B4
AohrWdFnS5O7gizBcQo0wA,newborntown,p1336_10425_,Install,1.0,121.151.74.34,a537d4c3-3b00-4146-8577-d80741fbe530,1558779752,2019-05-25 18:22:32,1558779867,2019-05-25 18:24:27,1558779900,b659d5fb-8a8d-4469-bc25-c3b20675cf03__pspm,http://pspm.pingstart.com/api/v4/postback?from=1706&clickid=b659d5fb-8a8d-4469-bc25-c3b20675cf03__pspm,idfa_a537d4c3-3b00-4146-8577-d80741fbe530,%ED%95%9C%EA%B5%AD%EC%96%B4
AohrWdFnS5O7gizBcQo0wA,newborntown,p1336_10425_,Install,1.0,49.175.18.108,a5e2c636-d2c8-47d7-b47e-23a81507b205,1559045731,2019-05-28 20:15:31,1559045827,2019-05-28 20:17:07,1559045873,d6521c03-6b7d-4353-9b76-1dc3f9472a5e__pspm,http://pspm.pingstart.com/api/v4/postback?from=1706&clickid=d6521c03-6b7d-4353-9b76-1dc3f9472a5e__pspm,idfa_a5e2c636-d2c8-47d7-b47e-23a81507b205,%ED%95%9C%EA%B5%AD%EC%96%B4
AohrWdFnS5O7gizBcQo0wA,newborntown,p1336_10425_,Install,1.0,59.27.239.2,b696f1b7-53a3-473a-b308-fb47ea02388f,1559042968,2019-05-28 19:29:28,1559043067,2019-05-28 19:31:07,1559043099,5c5ea6ca-1f52-4727-92a9-7892106d92e5__pspm,http://pspm.pingstart.com/api/v4/postback?from=1706&clickid=5c5ea6ca-1f52-4727-92a9-7892106d92e5__pspm,idfa_b696f1b7-53a3-473a-b308-fb47ea02388f,%ED%95%9C%EA%B5%AD%EC%96%B4
AohrWdFnS5O7gizBcQo0wA,newborntown,p1336_10425_,Install,1.0,61.82.248.65,b628d028-f639-4196-9be6-60bbdffbd2d7,1558940860,2019-05-27 15:07:40,1558940986,2019-05-27 15:09:46,1558941017,f2aaf22e-c9d4-4738-ad11-3ade3436137a__pspm,http://pspm.pingstart.com/api/v4/postback?from=1706&clickid=f2aaf22e-c9d4-4738-ad11-3ade3436137a__pspm,idfa_b628d028-f639-4196-9be6-60bbdffbd2d7,%ED%95%9C%EA%B5%AD%EC%96%B4
AohrWdFnS5O7gizBcQo0wA,newborntown,p1336_10425_,Install,1.0,222.118.2.177,c1fecc93-ed2f-48a2-8260-587419eb77b3,1558945450,2019-05-27 16:24:10,1558945575,2019-05-27 16:26:15,1558945607,fe2675bf-3756-42e6-89f6-bc7901d9eaa0__pspm,http://pspm.pingstart.com/api/v4/postback?from=1706&clickid=fe2675bf-3756-42e6-89f6-bc7901d9eaa0__pspm,idfa_c1fecc93-ed2f-48a2-8260-587419eb77b3,%ED%95%9C%EA%B5%AD%EC%96%B4
AohrWdFnS5O7gizBcQo0wA,newborntown,p1336_10425_,Install,1.0,220.81.254.134,bcd39e67-b6f3-4de2-b9fd-8aae21397228,1559044770,2019-05-28 19:59:30,1559044889,2019-05-28 20:01:29,1559044922,8090af56-dfe8-4923-9de7-7f11eda22764__pspm,http://pspm.pingstart.com/api/v4/postback?from=1706&clickid=8090af56-dfe8-4923-9de7-7f11eda22764__pspm,idfa_bcd39e67-b6f3-4de2-b9fd-8aae21397228,%ED%95%9C%EA%B5%AD%EC%96%B4
AohrWdFnS5O7gizBcQo0wA,newborntown,p1336_10425_,Install,1.0,211.210.140.153,235feaf3-62ac-40c8-ad1c-b598f14fd36e,1559045072,2019-05-28 20:04:32,1559045165,2019-05-28 20:06:05,1559045195,21155b8c-e87b-4555-a0d7-2af0f7af0b44__pspm,http://pspm.pingstart.com/api/v4/postback?from=1706&clickid=21155b8c-e87b-4555-a0d7-2af0f7af0b44__pspm,idfa_235feaf3-62ac-40c8-ad1c-b598f14fd36e,%ED%95%9C%EA%B5%AD%EC%96%B4
AohrWdFnS5O7gizBcQo0wA,newborntown,p1336_10425_,Install,1.0,59.17.139.45,b646a459-7940-4fa3-9652-f010b191ca8a,1558968723,2019-05-27 22:52:03,1558968825,2019-05-27 22:53:45,1558968855,51993315-4de8-4eb8-b219-cef263e424e1__pspm,http://pspm.pingstart.com/api/v4/postback?from=1706&clickid=51993315-4de8-4eb8-b219-cef263e424e1__pspm,idfa_b646a459-7940-4fa3-9652-f010b191ca8a,%ED%95%9C%EA%B5%AD%EC%96%B4
AohrWdFnS5O7gizBcQo0wA,newborntown,p1336_10425_,Install,1.0,223.62.222.119,9385a24f-bf78-4583-86e2-87f4b4fae34c,1559044936,2019-05-28 20:02:16,1559045040,2019-05-28 20:04:00,1559045070,10411784-96c8-4226-9c2b-13828acc9e52__pspm,http://pspm.pingstart.com/api/v4/postback?from=1706&clickid=10411784-96c8-4226-9c2b-13828acc9e52__pspm,idfa_9385a24f-bf78-4583-86e2-87f4b4fae34c,%ED%95%9C%EA%B5%AD%EC%96%B4
AohrWdFnS5O7gizBcQo0wA,newborntown,p1336_10425_,Install,1.0,210.178.68.152,d71555c8-afe6-4d8a-b860-9543e7e7fa74,1559036403,2019-05-28 17:40:03,1559036526,2019-05-28 17:42:06,1559036556,1a1b972e-c64b-4296-a702-a05e960ff9b6__pspm,http://pspm.pingstart.com/api/v4/postback?from=1706&clickid=1a1b972e-c64b-4296-a702-a05e960ff9b6__pspm,idfa_d71555c8-afe6-4d8a-b860-9543e7e7fa74,%ED%95%9C%EA%B5%AD%EC%96%B4
AohrWdFnS5O7gizBcQo0wA,newborntown,p1336_10425_,Install,1.0,115.161.72.9,378fdc38-48e0-44ed-8b94-1f74ef5dce32,1558844228,2019-05-26 12:17:08,1558844352,2019-05-26 12:19:12,1558844383,14c769c1-ccb3-4c72-ad13-4e612646637a__pspm,http://pspm.pingstart.com/api/v4/postback?from=1706&clickid=14c769c1-ccb3-4c72-ad13-4e612646637a__pspm,idfa_378fdc38-48e0-44ed-8b94-1f74ef5dce32,%ED%95%9C%EA%B5%AD%EC%96%B4
AohrWdFnS5O7gizBcQo0wA,newborntown,p1336_10425_,Install,1.0,116.42.123.142,69865e54-45c6-4ab4-84de-36a66a6ad62c,1558772285,2019-05-25 16:18:05,1558772403,2019-05-25 16:20:03,1558772435,41331646-33a4-4191-ae08-021d51856f06__pspm,http://pspm.pingstart.com/api/v4/postback?from=1706&clickid=41331646-33a4-4191-ae08-021d51856f06__pspm,idfa_69865e54-45c6-4ab4-84de-36a66a6ad62c,%ED%95%9C%EA%B5%AD%EC%96%B4
AohrWdFnS5O7gizBcQo0wA,newborntown,p1336_10425_,Install,1.0,175.197.47.194,c1b379d5-f1d8-42af-bde1-e600ff402ed5,1558843844,2019-05-26 12:10:44,1558843970,2019-05-26 12:12:50,1558844002,08ac590c-15f1-4c36-8476-8c6f648e34cb__pspm,http://pspm.pingstart.com/api/v4/postback?from=1706&clickid=08ac590c-15f1-4c36-8476-8c6f648e34cb__pspm,idfa_c1b379d5-f1d8-42af-bde1-e600ff402ed5,%ED%95%9C%EA%B5%AD%EC%96%B4
AohrWdFnS5O7gizBcQo0wA,newborntown,p1336_10425_,Install,1.0,14.32.21.10,85ddf0fa-2def-4ef5-a2a2-c44c3c23844f,1559021684,2019-05-28 13:34:44,1559021780,2019-05-28 13:36:20,1559021810,5bfee759-8a41-4594-9590-e46855a91688__pspm,http://pspm.pingstart.com/api/v4/postback?from=1706&clickid=5bfee759-8a41-4594-9590-e46855a91688__pspm,idfa_85ddf0fa-2def-4ef5-a2a2-c44c3c23844f,%ED%95%9C%EA%B5%AD%EC%96%B4
AohrWdFnS5O7gizBcQo0wA,newborntown,p1336_10425_,Install,1.0,125.132.54.218,a98559a7-f159-40dc-b27f-1799186a335d,1559106352,2019-05-29 13:05:52,1559106468,2019-05-29 13:07:48,1559106499,a32d1cef-6de9-4d98-a2ca-5c273d058831__pspm,http://pspm.pingstart.com/api/v4/postback?from=1706&clickid=a32d1cef-6de9-4d98-a2ca-5c273d058831__pspm,idfa_a98559a7-f159-40dc-b27f-1799186a335d,%ED%95%9C%EA%B5%AD%EC%96%B4
AohrWdFnS5O7gizBcQo0wA,newborntown,p1336_10425_,Install,1.0,112.163.192.100,f1c24bbd-0213-4bc0-afb6-0e28556d1ca7,1558772921,2019-05-25 16:28:41,1558773048,2019-05-25 16:30:48,1558773079,db52a0e0-1770-4dfa-863f-460a5d9644e2__pspm,http://pspm.pingstart.com/api/v4/postback?from=1706&clickid=db52a0e0-1770-4dfa-863f-460a5d9644e2__pspm,idfa_f1c24bbd-0213-4bc0-afb6-0e28556d1ca7,%ED%95%9C%EA%B5%AD%EC%96%B4
AohrWdFnS5O7gizBcQo0wA,newborntown,p1336_10425_,Install,1.0,180.67.155.44,a9f22ba9-05f7-4172-a0ba-c376448a9c80,1559048569,2019-05-28 21:02:49,1559048653,2019-05-28 21:04:13,1559048684,b2a6ae91-dc1b-4601-89ed-8ea8e8bb34ba__pspm,http://pspm.pingstart.com/api/v4/postback?from=1706&clickid=b2a6ae91-dc1b-4601-89ed-8ea8e8bb34ba__pspm,idfa_a9f22ba9-05f7-4172-a0ba-c376448a9c80,%ED%95%9C%EA%B5%AD%EC%96%B4
AohrWdFnS5O7gizBcQo0wA,newborntown,p1336_10425_,Install,1.0,116.44.218.107,b8b8d5e2-9294-4d45-ae87-f35cc07dbf49,1558771602,2019-05-25 16:06:42,1558771713,2019-05-25 16:08:33,1558771744,c5e6e7d4-f3cc-4948-8035-746f78cfcf8f__pspm,http://pspm.pingstart.com/api/v4/postback?from=1706&clickid=c5e6e7d4-f3cc-4948-8035-746f78cfcf8f__pspm,idfa_b8b8d5e2-9294-4d45-ae87-f35cc07dbf49,%ED%95%9C%EA%B5%AD%EC%96%B4
