cid,partner_id,channel_id,action_id,cpi,ip,idfa,click time,click datetime,install time,install datetime,postback time,click id,postback url,unique user id
jtEkyNDhRqeIZrPgFewlbA,newborntown,p1599_1064_936-10502936,Of81qbvWSPKfViI7CdMfcw,3.0,,4784a56b-254b-4429-97ea-f893e7c750d0,1556748549,2019-05-02 06:09:09,1556748609,2019-05-02 06:10:09,1556748609,65dceddf-b1cc-487f-8bb2-5469b2c658cf__pspm,http://pspm.pingstart.com/api/v4/postback?from=1706&clickid=65dceddf-b1cc-487f-8bb2-5469b2c658cf__pspm,idfa_4784a56b-254b-4429-97ea-f893e7c750d0,en
jtEkyNDhRqeIZrPgFewlbA,newborntown,p1599_1064_936-10502936,Of81qbvWSPKfViI7CdMfcw,3.0,,e97dc373-afef-4759-b6be-921818d06b69,1556755537,2019-05-02 08:05:37,1556755576,2019-05-02 08:06:16,1556755576,b666ea30-037b-48ff-8762-b41078f95a51__pspm,http://pspm.pingstart.com/api/v4/postback?from=1706&clickid=b666ea30-037b-48ff-8762-b41078f95a51__pspm,idfa_e97dc373-afef-4759-b6be-921818d06b69,en
jtEkyNDhRqeIZrPgFewlbA,newborntown,p1599_1064_936-10502936,Of81qbvWSPKfViI7CdMfcw,3.0,,3ac28574-9586-4367-b160-656b6792ff55,1556755577,2019-05-02 08:06:17,1556755603,2019-05-02 08:06:43,1556755603,d862c6c2-e5a9-44e3-b503-fdd0441d0e4c__pspm,http://pspm.pingstart.com/api/v4/postback?from=1706&clickid=d862c6c2-e5a9-44e3-b503-fdd0441d0e4c__pspm,idfa_3ac28574-9586-4367-b160-656b6792ff55,en
jtEkyNDhRqeIZrPgFewlbA,newborntown,p1599_1064_936-10502936,Of81qbvWSPKfViI7CdMfcw,3.0,,27af4b24-5170-4b69-ad2a-94f0d2d5ee2c,1556755708,2019-05-02 08:08:28,1556755725,2019-05-02 08:08:45,1556755725,4a4949b4-e4ad-4773-a224-e1c45c9afd3b__pspm,http://pspm.pingstart.com/api/v4/postback?from=1706&clickid=4a4949b4-e4ad-4773-a224-e1c45c9afd3b__pspm,idfa_27af4b24-5170-4b69-ad2a-94f0d2d5ee2c,en
jtEkyNDhRqeIZrPgFewlbA,newborntown,p1599_1064_936-10502936,Of81qbvWSPKfViI7CdMfcw,3.0,,a8eb2e96-3e71-4dac-8abb-74abf809b0c4,1556755653,2019-05-02 08:07:33,1556755696,2019-05-02 08:08:16,1556755696,d1fed4e1-1378-44ae-bae1-743d9c2bf117__pspm,http://pspm.pingstart.com/api/v4/postback?from=1706&clickid=d1fed4e1-1378-44ae-bae1-743d9c2bf117__pspm,idfa_a8eb2e96-3e71-4dac-8abb-74abf809b0c4,en
jtEkyNDhRqeIZrPgFewlbA,newborntown,p1599_1064_936-10502936,Of81qbvWSPKfViI7CdMfcw,3.0,,1613fb82-7c33-49f9-8508-05d2e749094a,1556755557,2019-05-02 08:05:57,1556755591,2019-05-02 08:06:31,1556755591,5ba6f193-b2a9-45a9-9ea6-c150a5429c63__pspm,http://pspm.pingstart.com/api/v4/postback?from=1706&clickid=5ba6f193-b2a9-45a9-9ea6-c150a5429c63__pspm,idfa_1613fb82-7c33-49f9-8508-05d2e749094a,en
jtEkyNDhRqeIZrPgFewlbA,newborntown,p1599_1064_936-10502936,Of81qbvWSPKfViI7CdMfcw,3.0,,357eb8a8-1c58-4506-8646-a1c74139278e,1556755653,2019-05-02 08:07:33,1556755680,2019-05-02 08:08:00,1556755680,29fc31b1-6040-4239-a0b1-df3c32836fdb__pspm,http://pspm.pingstart.com/api/v4/postback?from=1706&clickid=29fc31b1-6040-4239-a0b1-df3c32836fdb__pspm,idfa_357eb8a8-1c58-4506-8646-a1c74139278e,en
jtEkyNDhRqeIZrPgFewlbA,newborntown,p1599_1064_936-10502936,Of81qbvWSPKfViI7CdMfcw,3.0,,1372c238-582d-4282-ae86-f189b1f4bfe0,1556755527,2019-05-02 08:05:27,1556755548,2019-05-02 08:05:48,1556755548,3ae7e47e-768b-4517-9d28-10c143280e74__pspm,http://pspm.pingstart.com/api/v4/postback?from=1706&clickid=3ae7e47e-768b-4517-9d28-10c143280e74__pspm,idfa_1372c238-582d-4282-ae86-f189b1f4bfe0,en
jtEkyNDhRqeIZrPgFewlbA,newborntown,p1599_1064_936-10502936,Of81qbvWSPKfViI7CdMfcw,3.0,,c10e2334-cfdc-4319-baa6-e87f2179de56,1556748605,2019-05-02 06:10:05,1556748629,2019-05-02 06:10:29,1556748629,08b8dd70-e7f7-4e0c-aad3-f66572477c5c__pspm,http://pspm.pingstart.com/api/v4/postback?from=1706&clickid=08b8dd70-e7f7-4e0c-aad3-f66572477c5c__pspm,idfa_c10e2334-cfdc-4319-baa6-e87f2179de56,en
jtEkyNDhRqeIZrPgFewlbA,newborntown,p1599_1064_936-10502936,Of81qbvWSPKfViI7CdMfcw,3.0,,75f54e39-6d33-4665-9ab2-3f3ec6760b7e,1556755685,2019-05-02 08:08:05,1556755704,2019-05-02 08:08:24,1556755704,709c1cd6-6937-4ef2-aa0b-1e61ef993cd8__pspm,http://pspm.pingstart.com/api/v4/postback?from=1706&clickid=709c1cd6-6937-4ef2-aa0b-1e61ef993cd8__pspm,idfa_75f54e39-6d33-4665-9ab2-3f3ec6760b7e,en
jtEkyNDhRqeIZrPgFewlbA,newborntown,p1599_1064_936-10502936,Of81qbvWSPKfViI7CdMfcw,3.0,,5062dee0-c020-44f5-8576-ad0a06671476,1556755664,2019-05-02 08:07:44,1556755693,2019-05-02 08:08:13,1556755693,51ca91ea-aa61-4b68-9880-019fc82312f1__pspm,http://pspm.pingstart.com/api/v4/postback?from=1706&clickid=51ca91ea-aa61-4b68-9880-019fc82312f1__pspm,idfa_5062dee0-c020-44f5-8576-ad0a06671476,en
jtEkyNDhRqeIZrPgFewlbA,newborntown,p1599_1064_936-10502936,Of81qbvWSPKfViI7CdMfcw,3.0,,de1e248e-4a00-4249-b9c6-1573fa0323f6,1556755237,2019-05-02 08:00:37,1556755257,2019-05-02 08:00:57,1556755257,996db063-3715-4f01-9e65-70eee10eca14__pspm,http://pspm.pingstart.com/api/v4/postback?from=1706&clickid=996db063-3715-4f01-9e65-70eee10eca14__pspm,idfa_de1e248e-4a00-4249-b9c6-1573fa0323f6,en
jtEkyNDhRqeIZrPgFewlbA,newborntown,p1599_1064_936-10502936,Of81qbvWSPKfViI7CdMfcw,3.0,,6b3e84eb-7c92-4820-b2c7-a48d964f7b31,1556755577,2019-05-02 08:06:17,1556755603,2019-05-02 08:06:43,1556755603,bb68775a-8797-425e-8d4b-7314472353f4__pspm,http://pspm.pingstart.com/api/v4/postback?from=1706&clickid=bb68775a-8797-425e-8d4b-7314472353f4__pspm,idfa_6b3e84eb-7c92-4820-b2c7-a48d964f7b31,en
jtEkyNDhRqeIZrPgFewlbA,newborntown,p1599_1064_936-10502936,Of81qbvWSPKfViI7CdMfcw,3.0,,dda7ac12-b271-48d0-831c-c73a5a5d7f8f,1556755520,2019-05-02 08:05:20,1556755541,2019-05-02 08:05:41,1556755541,05546255-a40a-4963-848e-e437968b5fc0__pspm,http://pspm.pingstart.com/api/v4/postback?from=1706&clickid=05546255-a40a-4963-848e-e437968b5fc0__pspm,idfa_dda7ac12-b271-48d0-831c-c73a5a5d7f8f,en
jtEkyNDhRqeIZrPgFewlbA,newborntown,p1599_1064_936-10502936,Of81qbvWSPKfViI7CdMfcw,3.0,,2e263381-54c6-427b-a99c-6b79de4dcd54,1556755536,2019-05-02 08:05:36,1556755553,2019-05-02 08:05:53,1556755553,0370fb90-0e96-4a74-acde-d346bbbe1535__pspm,http://pspm.pingstart.com/api/v4/postback?from=1706&clickid=0370fb90-0e96-4a74-acde-d346bbbe1535__pspm,idfa_2e263381-54c6-427b-a99c-6b79de4dcd54,en
jtEkyNDhRqeIZrPgFewlbA,newborntown,p1599_1064_936-10502936,Of81qbvWSPKfViI7CdMfcw,3.0,,64e23689-a6de-41dd-81de-4855f1c71c33,1556755569,2019-05-02 08:06:09,1556755595,2019-05-02 08:06:35,1556755595,9d4763bf-e499-45e3-987e-6ec8b872b81b__pspm,http://pspm.pingstart.com/api/v4/postback?from=1706&clickid=9d4763bf-e499-45e3-987e-6ec8b872b81b__pspm,idfa_64e23689-a6de-41dd-81de-4855f1c71c33,en
jtEkyNDhRqeIZrPgFewlbA,newborntown,p1599_1064_936-10502936,Of81qbvWSPKfViI7CdMfcw,3.0,,087cd8a1-5b6b-4f41-b3ad-8ee27951adb1,1556755606,2019-05-02 08:06:46,1556755623,2019-05-02 08:07:03,1556755623,bfbce71c-dae7-4e59-a3cd-39e51f86deb5__pspm,http://pspm.pingstart.com/api/v4/postback?from=1706&clickid=bfbce71c-dae7-4e59-a3cd-39e51f86deb5__pspm,idfa_087cd8a1-5b6b-4f41-b3ad-8ee27951adb1,en
jtEkyNDhRqeIZrPgFewlbA,newborntown,p1599_1064_936-10502936,Of81qbvWSPKfViI7CdMfcw,3.0,,f9c1c28e-99e4-46a4-9980-a64142b403b1,1556755610,2019-05-02 08:06:50,1556755631,2019-05-02 08:07:11,1556755631,28f5961a-c3c0-457b-bf93-c14d2dcd62f5__pspm,http://pspm.pingstart.com/api/v4/postback?from=1706&clickid=28f5961a-c3c0-457b-bf93-c14d2dcd62f5__pspm,idfa_f9c1c28e-99e4-46a4-9980-a64142b403b1,en
jtEkyNDhRqeIZrPgFewlbA,newborntown,p1599_1064_936-10502936,Of81qbvWSPKfViI7CdMfcw,3.0,,36f2d882-1651-4e99-a221-fad5a773c2e3,1556755986,2019-05-02 08:13:06,1556756009,2019-05-02 08:13:29,1556756009,4b141802-0040-4c66-b38d-7d434cd9d14c__pspm,http://pspm.pingstart.com/api/v4/postback?from=1706&clickid=4b141802-0040-4c66-b38d-7d434cd9d14c__pspm,idfa_36f2d882-1651-4e99-a221-fad5a773c2e3,en
jtEkyNDhRqeIZrPgFewlbA,newborntown,p1599_1064_936-10502936,Of81qbvWSPKfViI7CdMfcw,3.0,,6085dd1a-1fa5-4261-a577-4bc66e70b15f,1556755713,2019-05-02 08:08:33,1556755737,2019-05-02 08:08:57,1556755737,10bbbb7a-1daa-4ed6-be36-b83b77c561cd__pspm,http://pspm.pingstart.com/api/v4/postback?from=1706&clickid=10bbbb7a-1daa-4ed6-be36-b83b77c561cd__pspm,idfa_6085dd1a-1fa5-4261-a577-4bc66e70b15f,en
jtEkyNDhRqeIZrPgFewlbA,newborntown,p1599_1064_936-10502936,Of81qbvWSPKfViI7CdMfcw,3.0,,01ef2500-2cbf-4329-953a-01b7a3187daf,1556755583,2019-05-02 08:06:23,1556755616,2019-05-02 08:06:56,1556755616,77bdbcac-9cad-431e-89fe-e003e0f129a0__pspm,http://pspm.pingstart.com/api/v4/postback?from=1706&clickid=77bdbcac-9cad-431e-89fe-e003e0f129a0__pspm,idfa_01ef2500-2cbf-4329-953a-01b7a3187daf,en
jtEkyNDhRqeIZrPgFewlbA,newborntown,p1599_1064_936-10502936,Of81qbvWSPKfViI7CdMfcw,3.0,,293a997b-69e4-40fc-80ba-18992c830620,1556755508,2019-05-02 08:05:08,1556755545,2019-05-02 08:05:45,1556755545,91054abc-4000-46e1-a9d2-f18c69dc139f__pspm,http://pspm.pingstart.com/api/v4/postback?from=1706&clickid=91054abc-4000-46e1-a9d2-f18c69dc139f__pspm,idfa_293a997b-69e4-40fc-80ba-18992c830620,en
jtEkyNDhRqeIZrPgFewlbA,newborntown,p1599_1064_936-10502936,Of81qbvWSPKfViI7CdMfcw,3.0,,cabe4c8d-420e-4054-868b-5e633c910a9b,1556755549,2019-05-02 08:05:49,1556755570,2019-05-02 08:06:10,1556755570,9d35a11f-64f5-4b01-a4bc-1ce515d0417e__pspm,http://pspm.pingstart.com/api/v4/postback?from=1706&clickid=9d35a11f-64f5-4b01-a4bc-1ce515d0417e__pspm,idfa_cabe4c8d-420e-4054-868b-5e633c910a9b,en
jtEkyNDhRqeIZrPgFewlbA,newborntown,p1599_1064_936-10502936,Of81qbvWSPKfViI7CdMfcw,3.0,,6d497476-148d-41dc-a641-567847d87442,1556755760,2019-05-02 08:09:20,1556755797,2019-05-02 08:09:57,1556755797,8b7e29f0-d0c6-4ed7-84e5-56bb8d84f141__pspm,http://pspm.pingstart.com/api/v4/postback?from=1706&clickid=8b7e29f0-d0c6-4ed7-84e5-56bb8d84f141__pspm,idfa_6d497476-148d-41dc-a641-567847d87442,en
jtEkyNDhRqeIZrPgFewlbA,newborntown,p1599_1064_936-10502936,Of81qbvWSPKfViI7CdMfcw,3.0,,d11889c2-edfb-4236-abac-c7a74966f9dc,1556755495,2019-05-02 08:04:55,1556755514,2019-05-02 08:05:14,1556755514,5f75279a-aeb3-40fe-b6e4-ce920e734a67__pspm,http://pspm.pingstart.com/api/v4/postback?from=1706&clickid=5f75279a-aeb3-40fe-b6e4-ce920e734a67__pspm,idfa_d11889c2-edfb-4236-abac-c7a74966f9dc,en
jtEkyNDhRqeIZrPgFewlbA,newborntown,p1599_1064_936-10502936,Of81qbvWSPKfViI7CdMfcw,3.0,,7a36a7d2-1ea0-4eb5-ae76-9bbf13651b01,1556755530,2019-05-02 08:05:30,1556755576,2019-05-02 08:06:16,1556755576,bc31fe56-1755-4a15-977d-45a15c7e85ce__pspm,http://pspm.pingstart.com/api/v4/postback?from=1706&clickid=bc31fe56-1755-4a15-977d-45a15c7e85ce__pspm,idfa_7a36a7d2-1ea0-4eb5-ae76-9bbf13651b01,en
jtEkyNDhRqeIZrPgFewlbA,newborntown,p1599_1064_936-10502936,Of81qbvWSPKfViI7CdMfcw,3.0,,4ecec528-473b-4770-b874-bbc2346ef192,1556755518,2019-05-02 08:05:18,1556755556,2019-05-02 08:05:56,1556755556,5be9fd59-905e-4b47-bd59-b2e30f86aa27__pspm,http://pspm.pingstart.com/api/v4/postback?from=1706&clickid=5be9fd59-905e-4b47-bd59-b2e30f86aa27__pspm,idfa_4ecec528-473b-4770-b874-bbc2346ef192,en
jtEkyNDhRqeIZrPgFewlbA,newborntown,p1599_1064_936-10502936,Of81qbvWSPKfViI7CdMfcw,3.0,,f1d788d7-acef-4a76-9e2b-226567ddbbda,1556755549,2019-05-02 08:05:49,1556755573,2019-05-02 08:06:13,1556755573,b29f92d0-3e3e-479e-904a-52f06662cfe9__pspm,http://pspm.pingstart.com/api/v4/postback?from=1706&clickid=b29f92d0-3e3e-479e-904a-52f06662cfe9__pspm,idfa_f1d788d7-acef-4a76-9e2b-226567ddbbda,en
jtEkyNDhRqeIZrPgFewlbA,newborntown,p1599_1064_936-10502936,Of81qbvWSPKfViI7CdMfcw,3.0,,1fa8ec05-4562-45f4-886d-c2d6d7a41c2c,1556755590,2019-05-02 08:06:30,1556755616,2019-05-02 08:06:56,1556755616,466279f2-b22c-42f4-ba5a-4c5ae1435793__pspm,http://pspm.pingstart.com/api/v4/postback?from=1706&clickid=466279f2-b22c-42f4-ba5a-4c5ae1435793__pspm,idfa_1fa8ec05-4562-45f4-886d-c2d6d7a41c2c,en
