cid,partner_id,channel_id,action_id,cpi,ip,idfa,click time,click datetime,install time,install datetime,postback time,click id,postback url,unique user id
yQ5C_JolT2mG1utEiLRfpQ,newborntown,p1886_973-10525973,Install,3.0,183.179.166.5,5DBF21C6-AEDA-4CD4-9358-ECCF95554CDE,1558780472,2019-05-25 18:34:32,1558780705,2019-05-25 18:38:25,1558780736,99a9cb78-9991-4683-aaab-1d9c12d92175__pspm,http://pspm.pingstart.com/api/v4/postback?from=1706&clickid=99a9cb78-9991-4683-aaab-1d9c12d92175__pspm,idfa_5DBF21C6-AEDA-4CD4-9358-ECCF95554CDE,zh-Hant-HK
yQ5C_JolT2mG1utEiLRfpQ,newborntown,p1886_973-10526973,Install,3.0,223.19.35.221,980B6130-0710-4D71-87DC-45AE90477724,1558836662,2019-05-26 10:11:02,1558836811,2019-05-26 10:13:31,1558836842,ad38df3b-3243-49d5-b86a-ad7025df4930__pspm,http://pspm.pingstart.com/api/v4/postback?from=1706&clickid=ad38df3b-3243-49d5-b86a-ad7025df4930__pspm,idfa_980B6130-0710-4D71-87DC-45AE90477724,zh-Hans-HK
yQ5C_JolT2mG1utEiLRfpQ,newborntown,p1886_973-10527973,Install,3.0,223.197.162.15,597982DA-920A-4463-AA0C-ECF9BE36849C,1558916741,2019-05-27 08:25:41,1558916770,2019-05-27 08:26:10,1558916801,fcbf35c7-4bd9-413b-8a0a-6298ff7b6319__pspm,http://pspm.pingstart.com/api/v4/postback?from=1706&clickid=fcbf35c7-4bd9-413b-8a0a-6298ff7b6319__pspm,idfa_597982DA-920A-4463-AA0C-ECF9BE36849C,zh-HK-HK
yQ5C_JolT2mG1utEiLRfpQ,newborntown,p1886_973-10525973,Install,3.0,14.199.39.156,AD666233-E1EC-481B-8D40-51179F2BD16B,1558762944,2019-05-25 13:42:24,1558763085,2019-05-25 13:44:45,1558763116,37160568-248b-4dbe-a07a-8baad16f95b8__pspm,http://pspm.pingstart.com/api/v4/postback?from=1706&clickid=37160568-248b-4dbe-a07a-8baad16f95b8__pspm,idfa_AD666233-E1EC-481B-8D40-51179F2BD16B,zh-Hans-HK
yQ5C_JolT2mG1utEiLRfpQ,newborntown,p1886_973-10525973,Install,3.0,61.239.157.36,83EE61FE-BC1A-4C76-96C4-9852D9AA7F59,1558778264,2019-05-25 17:57:44,1558778396,2019-05-25 17:59:56,1558778550,b965e8bf-2a3d-4d1c-a7a3-53130df4b9ed__pspm,http://pspm.pingstart.com/api/v4/postback?from=1706&clickid=b965e8bf-2a3d-4d1c-a7a3-53130df4b9ed__pspm,idfa_83EE61FE-BC1A-4C76-96C4-9852D9AA7F59,zh-Hans-HK
yQ5C_JolT2mG1utEiLRfpQ,newborntown,p1886_718-10526718,Install,3.0,1.64.251.83,BCC6390C-9F44-44A7-B061-2ABD21CA5BD7,1558837688,2019-05-26 10:28:08,1558837771,2019-05-26 10:29:31,1558837802,ba929d72-fc2b-471a-ba76-7bd02cb543af__pspm,http://pspm.pingstart.com/api/v4/postback?from=1706&clickid=ba929d72-fc2b-471a-ba76-7bd02cb543af__pspm,idfa_BCC6390C-9F44-44A7-B061-2ABD21CA5BD7,zh-Hant-HK
yQ5C_JolT2mG1utEiLRfpQ,newborntown,p1886_718-91_N_,Install,3.0,182.239.90.164,70D93BCE-E1DA-40FB-96ED-7FA386E7F949,1559082894,2019-05-29 06:34:54,1559083151,2019-05-29 06:39:11,1559083181,f05fe17d-dce2-49ed-811d-52f767450d82__pspm,http://pspm.pingstart.com/api/v4/postback?from=1706&clickid=f05fe17d-dce2-49ed-811d-52f767450d82__pspm,idfa_70D93BCE-E1DA-40FB-96ED-7FA386E7F949,zh
yQ5C_JolT2mG1utEiLRfpQ,newborntown,p1886_859-50,Install,3.0,203.145.95.95,,1558956378,2019-05-27 19:26:18,1558958858,2019-05-27 20:07:38,1558958888,d2669776-9125-46ea-babc-8b32e603c5f9__pspm,http://pspm.pingstart.com/api/v4/postback?from=1706&clickid=d2669776-9125-46ea-babc-8b32e603c5f9__pspm,ip_203.145.95.95,zh-HK
yQ5C_JolT2mG1utEiLRfpQ,newborntown,p1886_718-10527718,Install,3.0,124.244.34.228,68CCA529-6F75-4C10-9214-33CD8C709642,1558916495,2019-05-27 08:21:35,1558916521,2019-05-27 08:22:01,1558916553,504427f5-8d24-4f7b-8c4b-67475c7e27df__pspm,http://pspm.pingstart.com/api/v4/postback?from=1706&clickid=504427f5-8d24-4f7b-8c4b-67475c7e27df__pspm,idfa_68CCA529-6F75-4C10-9214-33CD8C709642,zh-HK-HK
yQ5C_JolT2mG1utEiLRfpQ,newborntown,p1886_718-10525718,Install,3.0,61.239.157.36,4F493B26-44CE-435E-8705-9CD3EBE0486B,1558772859,2019-05-25 16:27:39,1558772958,2019-05-25 16:29:18,1558772990,e963ac54-81bb-4704-a038-028f2a4e7ff0__pspm,http://pspm.pingstart.com/api/v4/postback?from=1706&clickid=e963ac54-81bb-4704-a038-028f2a4e7ff0__pspm,idfa_4F493B26-44CE-435E-8705-9CD3EBE0486B,zh-Hant-HK
yQ5C_JolT2mG1utEiLRfpQ,newborntown,p1886_718-58_N_mobc7a98d457e37eacd,Install,3.0,123.203.201.26,931BB85C-A705-4D7E-8A8C-50DA0345A514,1558761566,2019-05-25 13:19:26,1558761683,2019-05-25 13:21:23,1558761715,c339a12a-4a6f-449a-b9e2-addebb7c8099__pspm,http://pspm.pingstart.com/api/v4/postback?from=1706&clickid=c339a12a-4a6f-449a-b9e2-addebb7c8099__pspm,idfa_931BB85C-A705-4D7E-8A8C-50DA0345A514,zh-Hant-HK
yQ5C_JolT2mG1utEiLRfpQ,newborntown,p1886_718-10525718,Install,3.0,14.198.195.127,809A2A95-A8B6-45F9-B21C-BBBDAB7ADCC5,1558776488,2019-05-25 17:28:08,1558776691,2019-05-25 17:31:31,1558776722,f6da72f4-4cc4-49a6-b69e-45a0c0fd391e__pspm,http://pspm.pingstart.com/api/v4/postback?from=1706&clickid=f6da72f4-4cc4-49a6-b69e-45a0c0fd391e__pspm,idfa_809A2A95-A8B6-45F9-B21C-BBBDAB7ADCC5,zh-Hant-HK
yQ5C_JolT2mG1utEiLRfpQ,newborntown,p1886_718-10527718,Install,3.0,223.17.42.38,204FB978-566F-418E-8BF1-D93804BE1006,1558958902,2019-05-27 20:08:22,1558959549,2019-05-27 20:19:09,1558959580,732b0d45-3ad6-43a2-a695-643cc9424e5a__pspm,http://pspm.pingstart.com/api/v4/postback?from=1706&clickid=732b0d45-3ad6-43a2-a695-643cc9424e5a__pspm,idfa_204FB978-566F-418E-8BF1-D93804BE1006,zh-Hant-HK
yQ5C_JolT2mG1utEiLRfpQ,newborntown,p1886_718-93_N_1s__[source],Install,3.0,116.49.42.146,457D0CE3-DF35-4D68-BA30-347C0B01C4D5,1558659901,2019-05-24 09:05:01,1558660089,2019-05-24 09:08:09,1558660120,bdef9b26-ec6e-4f89-a915-1146696d1fbe__pspm,http://pspm.pingstart.com/api/v4/postback?from=1706&clickid=bdef9b26-ec6e-4f89-a915-1146696d1fbe__pspm,idfa_457D0CE3-DF35-4D68-BA30-347C0B01C4D5,zh
yQ5C_JolT2mG1utEiLRfpQ,newborntown,p1886_721-10525721,Install,3.0,223.197.202.104,A3E86297-C158-4580-9EB0-46DC356A5944,1558767992,2019-05-25 15:06:32,1558768040,2019-05-25 15:07:20,1558768072,2c23e5ee-6bfd-4364-b2b8-524f23bb5fee__pspm,http://pspm.pingstart.com/api/v4/postback?from=1706&clickid=2c23e5ee-6bfd-4364-b2b8-524f23bb5fee__pspm,idfa_A3E86297-C158-4580-9EB0-46DC356A5944,zh-HK-HK
yQ5C_JolT2mG1utEiLRfpQ,newborntown,p1886_718-58_N_mobc7a98d457e37eacd,Install,3.0,210.17.200.123,C45BAF23-7819-4757-8CD2-15DC24A49233,1558761542,2019-05-25 13:19:02,1558761681,2019-05-25 13:21:21,1558761713,b8a94ba3-b77f-4fc9-980e-e34cd8a465e5__pspm,http://pspm.pingstart.com/api/v4/postback?from=1706&clickid=b8a94ba3-b77f-4fc9-980e-e34cd8a465e5__pspm,idfa_C45BAF23-7819-4757-8CD2-15DC24A49233,zh-Hant-HK
yQ5C_JolT2mG1utEiLRfpQ,newborntown,p1886_718-10527718,Install,3.0,223.197.223.165,C812F5B1-C7E5-42BB-BCE1-99491802D5BD,1558917268,2019-05-27 08:34:28,1558917291,2019-05-27 08:34:51,1558917322,d445283a-b115-4599-9003-4fb314da4fc4__pspm,http://pspm.pingstart.com/api/v4/postback?from=1706&clickid=d445283a-b115-4599-9003-4fb314da4fc4__pspm,idfa_C812F5B1-C7E5-42BB-BCE1-99491802D5BD,zh-HK-HK
yQ5C_JolT2mG1utEiLRfpQ,newborntown,p1886_859-50,Install,3.0,124.217.189.138,47497895-01A1-4AE6-8DD6-1627FFB3C4E7,1559037848,2019-05-28 18:04:08,1559039971,2019-05-28 18:39:31,1559040002,b3083884-9475-4f23-9287-25de45b724c6__pspm,http://pspm.pingstart.com/api/v4/postback?from=1706&clickid=b3083884-9475-4f23-9287-25de45b724c6__pspm,idfa_47497895-01A1-4AE6-8DD6-1627FFB3C4E7,en-GB
yQ5C_JolT2mG1utEiLRfpQ,newborntown,p1886_718-91_N_,Install,3.0,180.240.136.50,4C9D88E2-91C0-41BF-A58E-D43EBBC93A22,1559070036,2019-05-29 03:00:36,1559070283,2019-05-29 03:04:43,1559070313,d8671dde-253f-49fe-8d1f-1dac0779b356__pspm,http://pspm.pingstart.com/api/v4/postback?from=1706&clickid=d8671dde-253f-49fe-8d1f-1dac0779b356__pspm,idfa_4C9D88E2-91C0-41BF-A58E-D43EBBC93A22,zh
yQ5C_JolT2mG1utEiLRfpQ,newborntown,p1886_718-10527718,Install,3.0,119.247.229.248,5F501489-F323-4EBD-B1D5-864BD86BA608,1558960358,2019-05-27 20:32:38,1558960508,2019-05-27 20:35:08,1558960538,1596d712-6cc6-4da7-b771-7a7ce75f3e4f__pspm,http://pspm.pingstart.com/api/v4/postback?from=1706&clickid=1596d712-6cc6-4da7-b771-7a7ce75f3e4f__pspm,idfa_5F501489-F323-4EBD-B1D5-864BD86BA608,zh-Hans-HK
yQ5C_JolT2mG1utEiLRfpQ,newborntown,p1886_718-10526718,Install,3.0,158.132.60.94,546037E4-3B15-489C-ABD8-2EC90CF40588,1558838424,2019-05-26 10:40:24,1558838552,2019-05-26 10:42:32,1558838583,93cb0501-26e5-4023-92a7-04f0b2f21147__pspm,http://pspm.pingstart.com/api/v4/postback?from=1706&clickid=93cb0501-26e5-4023-92a7-04f0b2f21147__pspm,idfa_546037E4-3B15-489C-ABD8-2EC90CF40588,zh-Hans-HK
yQ5C_JolT2mG1utEiLRfpQ,newborntown,p1886_973-10527973,Install,3.0,203.198.131.238,3B5B1A23-753B-4E37-9905-42513D52F56A,1558917073,2019-05-27 08:31:13,1558917097,2019-05-27 08:31:37,1558917128,aa199571-c6a4-4f91-a49c-f3862a4425e6__pspm,http://pspm.pingstart.com/api/v4/postback?from=1706&clickid=aa199571-c6a4-4f91-a49c-f3862a4425e6__pspm,idfa_3B5B1A23-753B-4E37-9905-42513D52F56A,zh-HK-HK
yQ5C_JolT2mG1utEiLRfpQ,newborntown,p1886_718-10525718,Install,3.0,210.6.123.222,15FD6793-9E41-4233-A7BD-355C70E960A5,1558730429,2019-05-25 04:40:29,1558730484,2019-05-25 04:41:24,1558730515,e4ac271a-034a-4cd9-99a5-586ed84416a4__pspm,http://pspm.pingstart.com/api/v4/postback?from=1706&clickid=e4ac271a-034a-4cd9-99a5-586ed84416a4__pspm,idfa_15FD6793-9E41-4233-A7BD-355C70E960A5,yue-HK
yQ5C_JolT2mG1utEiLRfpQ,newborntown,p1886_718-10526718,Install,3.0,119.247.154.157,91DD9A73-54AD-4157-B4E9-86F32A478079,1558837972,2019-05-26 10:32:52,1558838040,2019-05-26 10:34:00,1558838087,6f078639-123a-4480-ace4-b21b997948a2__pspm,http://pspm.pingstart.com/api/v4/postback?from=1706&clickid=6f078639-123a-4480-ace4-b21b997948a2__pspm,idfa_91DD9A73-54AD-4157-B4E9-86F32A478079,zh-Hant-HK
yQ5C_JolT2mG1utEiLRfpQ,newborntown,p1886_718-10527718,Install,3.0,118.141.35.156,5720CC81-633A-494D-80CF-A1F8131444DC,1558917201,2019-05-27 08:33:21,1558917227,2019-05-27 08:33:47,1558917258,d9e2e474-91ad-4222-9c68-9d7892001273__pspm,http://pspm.pingstart.com/api/v4/postback?from=1706&clickid=d9e2e474-91ad-4222-9c68-9d7892001273__pspm,idfa_5720CC81-633A-494D-80CF-A1F8131444DC,zh-HK-HK
yQ5C_JolT2mG1utEiLRfpQ,newborntown,p1886_718-10527718,Install,3.0,219.77.126.101,4C832793-61E0-4F4F-886F-678D52BBCDC2,1558957754,2019-05-27 19:49:14,1558957864,2019-05-27 19:51:04,1558957897,6e87b525-86c5-494b-bb50-1a62e7bee500__pspm,http://pspm.pingstart.com/api/v4/postback?from=1706&clickid=6e87b525-86c5-494b-bb50-1a62e7bee500__pspm,idfa_4C832793-61E0-4F4F-886F-678D52BBCDC2,zh-Hans-HK
yQ5C_JolT2mG1utEiLRfpQ,newborntown,p1886_718-10525718,Install,3.0,158.132.205.141,46E08575-8DEB-4FF8-A924-6C3A6F5D6EFA,1558773151,2019-05-25 16:32:31,1558773273,2019-05-25 16:34:33,1558773306,1c13fdcf-8f76-4e2b-9492-97e3d1a50652__pspm,http://pspm.pingstart.com/api/v4/postback?from=1706&clickid=1c13fdcf-8f76-4e2b-9492-97e3d1a50652__pspm,idfa_46E08575-8DEB-4FF8-A924-6C3A6F5D6EFA,zh-Hans-HK
yQ5C_JolT2mG1utEiLRfpQ,newborntown,p1886_718-10527718,Install,3.0,112.120.82.175,7A1F9F15-0126-4CB3-9780-6C45B0A65996,1558916639,2019-05-27 08:23:59,1558916661,2019-05-27 08:24:21,1558916692,a473590f-eb9e-498a-bc80-fe53a5958fe7__pspm,http://pspm.pingstart.com/api/v4/postback?from=1706&clickid=a473590f-eb9e-498a-bc80-fe53a5958fe7__pspm,idfa_7A1F9F15-0126-4CB3-9780-6C45B0A65996,zh-HK-HK
yQ5C_JolT2mG1utEiLRfpQ,newborntown,p1886_718-10527718,Install,3.0,203.198.149.164,9D4BF2DD-189E-4D1A-92A9-74191A8666C9,1558917043,2019-05-27 08:30:43,1558917068,2019-05-27 08:31:08,1558917099,6738f244-9fe5-40a1-b4f0-227eddc18d7d__pspm,http://pspm.pingstart.com/api/v4/postback?from=1706&clickid=6738f244-9fe5-40a1-b4f0-227eddc18d7d__pspm,idfa_9D4BF2DD-189E-4D1A-92A9-74191A8666C9,zh-HK-HK
yQ5C_JolT2mG1utEiLRfpQ,newborntown,p1886_718-58_N_mobc7a98d457e37eacd,Install,3.0,183.178.133.241,FD366764-E08D-40EB-A486-5951905585CE,1558762866,2019-05-25 13:41:06,1558763073,2019-05-25 13:44:33,1558763104,2f317734-7b86-44d1-ae71-c2ba0e3221ee__pspm,http://pspm.pingstart.com/api/v4/postback?from=1706&clickid=2f317734-7b86-44d1-ae71-c2ba0e3221ee__pspm,idfa_FD366764-E08D-40EB-A486-5951905585CE,zh-Hans-HK
yQ5C_JolT2mG1utEiLRfpQ,newborntown,p1886_973-10525973,Install,3.0,218.103.126.211,12904F09-C731-4CA6-B7DA-C530A0058E6E,1558768045,2019-05-25 15:07:25,1558768123,2019-05-25 15:08:43,1558768157,eda60eb5-0cbe-45fd-97a4-7d8689c8fb5f__pspm,http://pspm.pingstart.com/api/v4/postback?from=1706&clickid=eda60eb5-0cbe-45fd-97a4-7d8689c8fb5f__pspm,idfa_12904F09-C731-4CA6-B7DA-C530A0058E6E,zh-HK-HK
yQ5C_JolT2mG1utEiLRfpQ,newborntown,p1886_718-10527718,Install,3.0,113.253.132.91,0AD5DB77-B44F-41FA-81DA-225ACB8B432C,1558960847,2019-05-27 20:40:47,1558960958,2019-05-27 20:42:38,1558960989,0295f1ca-758c-424d-8638-45053cb07b66__pspm,http://pspm.pingstart.com/api/v4/postback?from=1706&clickid=0295f1ca-758c-424d-8638-45053cb07b66__pspm,idfa_0AD5DB77-B44F-41FA-81DA-225ACB8B432C,zh-Hant-HK
yQ5C_JolT2mG1utEiLRfpQ,newborntown,p1886_721-10525721,Install,3.0,221.124.20.120,E55035EF-6E82-4D70-9754-6E01BE88167D,1558773155,2019-05-25 16:32:35,1558773290,2019-05-25 16:34:50,1558773321,a0c6e50e-9d38-4216-9077-9cb51193cada__pspm,http://pspm.pingstart.com/api/v4/postback?from=1706&clickid=a0c6e50e-9d38-4216-9077-9cb51193cada__pspm,idfa_E55035EF-6E82-4D70-9754-6E01BE88167D,zh-Hant-HK
yQ5C_JolT2mG1utEiLRfpQ,newborntown,p1886_649-214,Install,3.0,124.244.116.53,99737552-8CD8-4FFA-A57B-123346BEBE2C,1558789343,2019-05-25 21:02:23,1558791933,2019-05-25 21:45:33,1558791965,8b45e1f2-a34d-4e2d-a13c-3868f5aade17__pspm,http://pspm.pingstart.com/api/v4/postback?from=1706&clickid=8b45e1f2-a34d-4e2d-a13c-3868f5aade17__pspm,idfa_99737552-8CD8-4FFA-A57B-123346BEBE2C,zh-Hant-HK
