cid,partner_id,channel_id,action_id,cpi,ip,idfa,click time,click datetime,install time,install datetime,postback time,click id,postback url,unique user id
y2lD5e3FTZmeIShsvAGifA,newborntown,p1839_12_1064_518-728048,Install,1.9,116.126.199.161,A42D4082-68C6-49F9-B886-A5727DB917DD,1557779608,2019-05-14 04:33:28,1557779708,2019-05-14 04:35:08,1557779739,75f58ab8-718b-452b-a771-01f64f1a7f5f__pspm,http://pspm.pingstart.com/api/v4/postback?from=1706&clickid=75f58ab8-718b-452b-a771-01f64f1a7f5f__pspm,idfa_A42D4082-68C6-49F9-B886-A5727DB917DD,ko-Kore-KR
y2lD5e3FTZmeIShsvAGifA,newborntown,p1839_12_1064_518-728048,Install,1.9,49.246.3.247,5E334A5E-854E-4278-8DFF-7131EA4F6EDA,1558571898,2019-05-23 08:38:18,1558571971,2019-05-23 08:39:31,1558572002,9036e954-4cd8-4bc0-8a6b-472486d1234e__pspm,http://pspm.pingstart.com/api/v4/postback?from=1706&clickid=9036e954-4cd8-4bc0-8a6b-472486d1234e__pspm,idfa_5E334A5E-854E-4278-8DFF-7131EA4F6EDA,ko-KR
y2lD5e3FTZmeIShsvAGifA,newborntown,p1839_570212_7_7_05741-0512820,Install,1.9,112.170.215.31,0BFAEBF6-8E64-4E72-B4A1-EE5AA42E37CB,1558841161,2019-05-26 11:26:01,1558841198,2019-05-26 11:26:38,1558841230,68fa2570-56f4-4143-b0a2-1a40343b28c8__pspm,http://pspm.pingstart.com/api/v4/postback?from=1706&clickid=68fa2570-56f4-4143-b0a2-1a40343b28c8__pspm,idfa_0BFAEBF6-8E64-4E72-B4A1-EE5AA42E37CB,ko-KR
y2lD5e3FTZmeIShsvAGifA,newborntown,p1839_570212_759623_05589-051002_10289,Install,1.9,211.174.239.195,FB00F258-A6CB-414E-94E3-CA235748067E,1559023309,2019-05-28 14:01:49,1559023437,2019-05-28 14:03:57,1559023468,38d5fdd2-06b6-40b9-8b1d-8379ea003f07__pspm,http://pspm.pingstart.com/api/v4/postback?from=1706&clickid=38d5fdd2-06b6-40b9-8b1d-8379ea003f07__pspm,idfa_FB00F258-A6CB-414E-94E3-CA235748067E,ko-Kore-KR
y2lD5e3FTZmeIShsvAGifA,newborntown,p1839_570212_759623_05933-051499_3107_ce3c4ca130fb,Install,1.9,211.213.124.176,3BE7685B-F8AB-406A-BA60-6E63937EFBDB,1559182739,2019-05-30 10:18:59,1559182842,2019-05-30 10:20:42,1559182872,0fc011c9-8650-4e5d-9876-e52ffaa7ed71__pspm,http://pspm.pingstart.com/api/v4/postback?from=1706&clickid=0fc011c9-8650-4e5d-9876-e52ffaa7ed71__pspm,idfa_3BE7685B-F8AB-406A-BA60-6E63937EFBDB,ko-KR
y2lD5e3FTZmeIShsvAGifA,newborntown,p1839_570212_7_15_05741-0512820,Install,1.9,218.152.41.111,E5CD8513-669E-4086-9230-1D329648499E,1558841221,2019-05-26 11:27:01,1558841253,2019-05-26 11:27:33,1558841284,26e4a9c6-b7dc-42b1-b59b-51698398ca64__pspm,http://pspm.pingstart.com/api/v4/postback?from=1706&clickid=26e4a9c6-b7dc-42b1-b59b-51698398ca64__pspm,idfa_E5CD8513-669E-4086-9230-1D329648499E,ko-KR
y2lD5e3FTZmeIShsvAGifA,newborntown,p1839_11_36_7_741-12350,Install,1.9,125.141.67.74,A7344F44-9B1F-403D-9018-5E161B53E8A2,1558548094,2019-05-23 02:01:34,1558548157,2019-05-23 02:02:37,1558548188,871a8351-a209-48fb-93d9-59a6dc08950a__pspm,http://pspm.pingstart.com/api/v4/postback?from=1706&clickid=871a8351-a209-48fb-93d9-59a6dc08950a__pspm,idfa_A7344F44-9B1F-403D-9018-5E161B53E8A2,ko-KR
y2lD5e3FTZmeIShsvAGifA,newborntown,p1839_11_36_7_741-12350,Install,1.9,183.109.79.6,2C6DD4BE-1BE2-460F-9026-8AC7D752A2D3,1558548071,2019-05-23 02:01:11,1558548140,2019-05-23 02:02:20,1558548171,54134037-3c6a-4c78-a6a0-9b4add6a0eb6__pspm,http://pspm.pingstart.com/api/v4/postback?from=1706&clickid=54134037-3c6a-4c78-a6a0-9b4add6a0eb6__pspm,idfa_2C6DD4BE-1BE2-460F-9026-8AC7D752A2D3,ko-KR
y2lD5e3FTZmeIShsvAGifA,newborntown,p1839_570212_759623_05933-051499_3107_acd5266ac9ab,Install,1.9,59.8.205.110,874864DB-9821-4AE9-A2F9-8B19872F022F,1559177322,2019-05-30 08:48:42,1559177437,2019-05-30 08:50:37,1559177468,61f8c7b1-7e7d-40d0-807d-1eb1b6dc967e__pspm,http://pspm.pingstart.com/api/v4/postback?from=1706&clickid=61f8c7b1-7e7d-40d0-807d-1eb1b6dc967e__pspm,idfa_874864DB-9821-4AE9-A2F9-8B19872F022F,ko-KR
y2lD5e3FTZmeIShsvAGifA,newborntown,p1839_570212_759623_05788-05562_2232505,Install,1.9,1.221.136.213,5BCE1B16-44C8-4474-BB72-E22E366FEC7B,1559187198,2019-05-30 11:33:18,1559187322,2019-05-30 11:35:22,1559187353,3aeed3ff-76c9-4e72-9af7-ea8cf6be50b5__pspm,http://pspm.pingstart.com/api/v4/postback?from=1706&clickid=3aeed3ff-76c9-4e72-9af7-ea8cf6be50b5__pspm,idfa_5BCE1B16-44C8-4474-BB72-E22E366FEC7B,ko-Kore-KR
y2lD5e3FTZmeIShsvAGifA,newborntown,p1839_570212_7_15_05565-05AT3or4mkirjrl80rocbqz063vin_jdxpxs0x6e88,Install,1.9,27.102.67.166,65BA70C8-35A3-4985-BBCF-4436529FDEC4,1558897464,2019-05-27 03:04:24,1558897574,2019-05-27 03:06:14,1558897605,54593996-38e9-4c2f-bb18-78c21298d3b7__pspm,http://pspm.pingstart.com/api/v4/postback?from=1706&clickid=54593996-38e9-4c2f-bb18-78c21298d3b7__pspm,idfa_65BA70C8-35A3-4985-BBCF-4436529FDEC4,ko-KR
y2lD5e3FTZmeIShsvAGifA,newborntown,p1839_11_36_7_741-12350,Install,1.9,211.182.112.240,7B2A0434-0722-4386-827F-591840AE92B8,1558548178,2019-05-23 02:02:58,1558548265,2019-05-23 02:04:25,1558548295,0c35cda9-a636-4f4b-9aa3-ede0490a2c8d__pspm,http://pspm.pingstart.com/api/v4/postback?from=1706&clickid=0c35cda9-a636-4f4b-9aa3-ede0490a2c8d__pspm,idfa_7B2A0434-0722-4386-827F-591840AE92B8,ko-KR
y2lD5e3FTZmeIShsvAGifA,newborntown,p1839_570212_7_7_05741-0512820,Install,1.9,221.139.1.21,91E718CD-55D4-4BAB-92DB-DEB8A27A9836,1558840810,2019-05-26 11:20:10,1558840850,2019-05-26 11:20:50,1558840881,b7621dde-46d2-441e-a0aa-fc18a2f6282a__pspm,http://pspm.pingstart.com/api/v4/postback?from=1706&clickid=b7621dde-46d2-441e-a0aa-fc18a2f6282a__pspm,idfa_91E718CD-55D4-4BAB-92DB-DEB8A27A9836,ko-KR
y2lD5e3FTZmeIShsvAGifA,newborntown,p1839_570212_7_15_05741-0512820,Install,1.9,222.239.251.60,D2F47ADB-E2D9-4BE5-AAA6-6BC46EC03283,1558840845,2019-05-26 11:20:45,1558840877,2019-05-26 11:21:17,1558840907,37458ed0-7c6f-42ae-86d2-69743cae227d__pspm,http://pspm.pingstart.com/api/v4/postback?from=1706&clickid=37458ed0-7c6f-42ae-86d2-69743cae227d__pspm,idfa_D2F47ADB-E2D9-4BE5-AAA6-6BC46EC03283,ko-KR
y2lD5e3FTZmeIShsvAGifA,newborntown,p1839_12_1064_518-728048,Install,1.9,110.35.154.197,91ACCEDE-EA73-404B-9469-48C86295E193,1558571941,2019-05-23 08:39:01,1558572030,2019-05-23 08:40:30,1558572061,8aed9d9f-7e75-4546-8415-4c1644d6ac4a__pspm,http://pspm.pingstart.com/api/v4/postback?from=1706&clickid=8aed9d9f-7e75-4546-8415-4c1644d6ac4a__pspm,idfa_91ACCEDE-EA73-404B-9469-48C86295E193,ko-Kore-KR
y2lD5e3FTZmeIShsvAGifA,newborntown,p1839_570212_759623_05788-05363_521,Install,1.9,121.173.219.181,CB692D30-42E1-4350-8F45-E9AC2E368BB6,1559190987,2019-05-30 12:36:27,1559191061,2019-05-30 12:37:41,1559191092,1e5b0a3e-0e8c-45e6-90d0-ac56653b69ec__pspm,http://pspm.pingstart.com/api/v4/postback?from=1706&clickid=1e5b0a3e-0e8c-45e6-90d0-ac56653b69ec__pspm,idfa_CB692D30-42E1-4350-8F45-E9AC2E368BB6,ko-KR
y2lD5e3FTZmeIShsvAGifA,newborntown,p1839_12_1064_05518-728048,Install,1.9,114.30.165.112,742A6B76-2F8F-4780-B344-5E44E9818B09,1558658751,2019-05-24 08:45:51,1558659032,2019-05-24 08:50:32,1558659064,7bfee5ba-ae22-4462-a739-d9a47868e081__pspm,http://pspm.pingstart.com/api/v4/postback?from=1706&clickid=7bfee5ba-ae22-4462-a739-d9a47868e081__pspm,idfa_742A6B76-2F8F-4780-B344-5E44E9818B09,ko-Kore-KR
y2lD5e3FTZmeIShsvAGifA,newborntown,p1839_570212_7_7_05565-05AT9zbax9kq3lwn0vtakwrtrccis_10j6ioiip03a,Install,1.9,180.64.47.167,C880665A-DD84-4F08-806D-E7D8320BE2FC,1559000943,2019-05-28 07:49:03,1559001032,2019-05-28 07:50:32,1559001063,d30da4bd-a432-4941-a6a6-1a48072a778e__pspm,http://pspm.pingstart.com/api/v4/postback?from=1706&clickid=d30da4bd-a432-4941-a6a6-1a48072a778e__pspm,idfa_C880665A-DD84-4F08-806D-E7D8320BE2FC,ko-KR
y2lD5e3FTZmeIShsvAGifA,newborntown,p1839_12_1064_518-728048,Install,1.9,121.166.29.56,8CC567AD-B089-48F0-BC5D-76EFB7C7FCD8,1557779511,2019-05-14 04:31:51,1557779628,2019-05-14 04:33:48,1557779659,aefe584a-2b3f-4a6b-a6ca-3f5a374bcbff__pspm,http://pspm.pingstart.com/api/v4/postback?from=1706&clickid=aefe584a-2b3f-4a6b-a6ca-3f5a374bcbff__pspm,idfa_8CC567AD-B089-48F0-BC5D-76EFB7C7FCD8,ko-Kore-KR
y2lD5e3FTZmeIShsvAGifA,newborntown,p1839_570212_759623_05956-053063_d12b6d4e146c,Install,1.9,218.39.42.86,A483EB3D-4948-4AD0-B6F4-D01CCBCC3A22,1559189565,2019-05-30 12:12:45,1559189654,2019-05-30 12:14:14,1559189764,a360706a-c01e-4bda-b87a-b96d5e451587__pspm,http://pspm.pingstart.com/api/v4/postback?from=1706&clickid=a360706a-c01e-4bda-b87a-b96d5e451587__pspm,idfa_A483EB3D-4948-4AD0-B6F4-D01CCBCC3A22,ko-KR
y2lD5e3FTZmeIShsvAGifA,newborntown,p1839_570212_759623_05565-05AT9zbax9kq3lwn0vtakwrtrccis_10j6ioiip03a,Install,1.9,182.208.63.115,33F2DF4C-ABC0-460C-A21D-A1CD8C64923A,1559167987,2019-05-30 06:13:07,1559168095,2019-05-30 06:14:55,1559168126,290c7dcc-732d-4fef-8e26-44eeb3534b26__pspm,http://pspm.pingstart.com/api/v4/postback?from=1706&clickid=290c7dcc-732d-4fef-8e26-44eeb3534b26__pspm,idfa_33F2DF4C-ABC0-460C-A21D-A1CD8C64923A,ko-KR
y2lD5e3FTZmeIShsvAGifA,newborntown,p1839_570212_759623_05546-05511042307,Install,1.9,175.125.17.157,3AECF2C3-B041-4B62-A296-A5A61E7C208A,1559026785,2019-05-28 14:59:45,1559026883,2019-05-28 15:01:23,1559026914,d97f8728-c59a-46ca-8a4f-112c3f070167__pspm,http://pspm.pingstart.com/api/v4/postback?from=1706&clickid=d97f8728-c59a-46ca-8a4f-112c3f070167__pspm,idfa_3AECF2C3-B041-4B62-A296-A5A61E7C208A,ko-KR
y2lD5e3FTZmeIShsvAGifA,newborntown,p1839_570212_759623_05546-05511042307,Install,1.9,175.223.33.15,8277E4E9-1AD5-4CD5-A034-D7135021E569,1559026628,2019-05-28 14:57:08,1559026721,2019-05-28 14:58:41,1559026752,eb89f2ec-c2bf-461f-8e4d-d7ea7e59e718__pspm,http://pspm.pingstart.com/api/v4/postback?from=1706&clickid=eb89f2ec-c2bf-461f-8e4d-d7ea7e59e718__pspm,idfa_8277E4E9-1AD5-4CD5-A034-D7135021E569,ko-KR
y2lD5e3FTZmeIShsvAGifA,newborntown,p1839_570212_759623_05518-05728048,Install,1.9,121.126.37.157,9ED8059A-B1FB-40FA-9075-0877D1703BCB,1558976505,2019-05-28 01:01:45,1558976620,2019-05-28 01:03:40,1558976651,8b6ce221-cc08-47c4-bdce-8f6af21a62dc__pspm,http://pspm.pingstart.com/api/v4/postback?from=1706&clickid=8b6ce221-cc08-47c4-bdce-8f6af21a62dc__pspm,idfa_9ED8059A-B1FB-40FA-9075-0877D1703BCB,ko-KR
y2lD5e3FTZmeIShsvAGifA,newborntown,p1839_570212_759623_05518-05728048,Install,1.9,114.199.37.238,14EBE7A5-F80C-410E-B725-E78B5095F63E,1559001414,2019-05-28 07:56:54,1559001512,2019-05-28 07:58:32,1559001542,b19e2f32-db13-4bb9-94f9-378c52c08e76__pspm,http://pspm.pingstart.com/api/v4/postback?from=1706&clickid=b19e2f32-db13-4bb9-94f9-378c52c08e76__pspm,idfa_14EBE7A5-F80C-410E-B725-E78B5095F63E,ko-Kore-KR
y2lD5e3FTZmeIShsvAGifA,newborntown,p1839_11_36_7_741-12350,Install,1.9,118.63.20.103,3C63D677-EC4B-4561-9039-491BDA76D950,1558548071,2019-05-23 02:01:11,1558548144,2019-05-23 02:02:24,1558548174,44b38797-222c-4ecf-9d46-6b186ef5f6c8__pspm,http://pspm.pingstart.com/api/v4/postback?from=1706&clickid=44b38797-222c-4ecf-9d46-6b186ef5f6c8__pspm,idfa_3C63D677-EC4B-4561-9039-491BDA76D950,ko-KR
y2lD5e3FTZmeIShsvAGifA,newborntown,p1839_11_36_7_741-12350,Install,1.9,175.198.96.83,57E96DC6-A0C8-4407-88E0-6AC64C11DA9C,1558548068,2019-05-23 02:01:08,1558548128,2019-05-23 02:02:08,1558548159,d5c8765c-95f2-4bd2-ad89-48d891fab71a__pspm,http://pspm.pingstart.com/api/v4/postback?from=1706&clickid=d5c8765c-95f2-4bd2-ad89-48d891fab71a__pspm,idfa_57E96DC6-A0C8-4407-88E0-6AC64C11DA9C,ko-KR
y2lD5e3FTZmeIShsvAGifA,newborntown,p1839_570212_7_15_05741-0512820,Install,1.9,183.123.140.105,2F8E135A-52B7-4871-BF2F-78547D724CF9,1558840323,2019-05-26 11:12:03,1558840354,2019-05-26 11:12:34,1558840387,5bd7d70f-cb80-4598-b65b-ca64a8652e3b__pspm,http://pspm.pingstart.com/api/v4/postback?from=1706&clickid=5bd7d70f-cb80-4598-b65b-ca64a8652e3b__pspm,idfa_2F8E135A-52B7-4871-BF2F-78547D724CF9,ko-KR
y2lD5e3FTZmeIShsvAGifA,newborntown,p1839_12_1064_451-40228,Install,1.9,222.106.87.95,A34DF7B0-08FE-4334-850A-D36283D4FA32,1557757809,2019-05-13 22:30:09,1557932842,2019-05-15 23:07:22,1557932875,fc8cc8b3-d3bd-41e2-abc0-855f7a4cba34__pspm,http://pspm.pingstart.com/api/v4/postback?from=1706&clickid=fc8cc8b3-d3bd-41e2-abc0-855f7a4cba34__pspm,idfa_A34DF7B0-08FE-4334-850A-D36283D4FA32,ko-KR
y2lD5e3FTZmeIShsvAGifA,newborntown,p1839_570212_759623_05788-05363_1458,Install,1.9,119.195.178.216,6CCC17FE-95C1-4F57-BAD0-448045DDEF52,1559180555,2019-05-30 09:42:35,1559180639,2019-05-30 09:43:59,1559180671,497f5ebe-90a5-4bf3-9b6e-b9786b686815__pspm,http://pspm.pingstart.com/api/v4/postback?from=1706&clickid=497f5ebe-90a5-4bf3-9b6e-b9786b686815__pspm,idfa_6CCC17FE-95C1-4F57-BAD0-448045DDEF52,ko-KR
y2lD5e3FTZmeIShsvAGifA,newborntown,p1839_570212_7_15_05741-0512820,Install,1.9,218.234.198.91,345308D9-8E76-468B-8748-95636BF37B5D,1558841389,2019-05-26 11:29:49,1558841420,2019-05-26 11:30:20,1558841451,521401e3-88ae-4825-b844-20551037cca1__pspm,http://pspm.pingstart.com/api/v4/postback?from=1706&clickid=521401e3-88ae-4825-b844-20551037cca1__pspm,idfa_345308D9-8E76-468B-8748-95636BF37B5D,ko-KR
y2lD5e3FTZmeIShsvAGifA,newborntown,p1839_570212_759623_05788-05363_521,Install,1.9,182.229.32.39,C2B2AAE1-0B21-4A05-B78C-8BE0E5035574,1559185342,2019-05-30 11:02:22,1559185452,2019-05-30 11:04:12,1559185484,51bb5420-ed73-4a2b-b1ae-aae37392fdc8__pspm,http://pspm.pingstart.com/api/v4/postback?from=1706&clickid=51bb5420-ed73-4a2b-b1ae-aae37392fdc8__pspm,idfa_C2B2AAE1-0B21-4A05-B78C-8BE0E5035574,ko-KR
y2lD5e3FTZmeIShsvAGifA,newborntown,p1839_570212_7_7_05741-0512820,Install,1.9,1.237.119.119,3FE1F47E-279B-4288-A9D0-94F26A2670DF,1558840620,2019-05-26 11:17:00,1558840653,2019-05-26 11:17:33,1558840684,e81779d7-e61e-4bc2-a32f-50a78ea6dcba__pspm,http://pspm.pingstart.com/api/v4/postback?from=1706&clickid=e81779d7-e61e-4bc2-a32f-50a78ea6dcba__pspm,idfa_3FE1F47E-279B-4288-A9D0-94F26A2670DF,ko-KR
y2lD5e3FTZmeIShsvAGifA,newborntown,p1839_11_36_7_741-12350,Install,1.9,59.5.55.190,217EBC63-1893-480C-929C-86BAF7B59ADF,1558548073,2019-05-23 02:01:13,1558548137,2019-05-23 02:02:17,1558548167,669fed9e-4c9e-4380-b7a0-e005ab3bcdec__pspm,http://pspm.pingstart.com/api/v4/postback?from=1706&clickid=669fed9e-4c9e-4380-b7a0-e005ab3bcdec__pspm,idfa_217EBC63-1893-480C-929C-86BAF7B59ADF,ko-KR
y2lD5e3FTZmeIShsvAGifA,newborntown,p1839_11_36_7_741-12350,Install,1.9,183.109.79.6,32C26F69-77AE-4D9F-A5BF-BAE4EB8D28A9,1558548182,2019-05-23 02:03:02,1558548262,2019-05-23 02:04:22,1558548293,eecf4ec2-7afb-4edd-b2d2-7bdac14514a2__pspm,http://pspm.pingstart.com/api/v4/postback?from=1706&clickid=eecf4ec2-7afb-4edd-b2d2-7bdac14514a2__pspm,idfa_32C26F69-77AE-4D9F-A5BF-BAE4EB8D28A9,ko-KR
y2lD5e3FTZmeIShsvAGifA,newborntown,p1839_11_36_7_741-12350,Install,1.9,220.127.126.139,6D1BA78A-C91F-4D13-B20D-B01626655211,1558548070,2019-05-23 02:01:10,1558548132,2019-05-23 02:02:12,1558548162,3ac2bea2-08a7-4288-b0a7-a111baa3a746__pspm,http://pspm.pingstart.com/api/v4/postback?from=1706&clickid=3ac2bea2-08a7-4288-b0a7-a111baa3a746__pspm,idfa_6D1BA78A-C91F-4D13-B20D-B01626655211,ko-KR
y2lD5e3FTZmeIShsvAGifA,newborntown,p1839_11_36_7_741-12350,Install,1.9,211.181.72.238,33797BA0-A729-4206-A8AB-69E898D44E37,1558548073,2019-05-23 02:01:13,1558548144,2019-05-23 02:02:24,1558548174,2beb7db0-6723-47fe-ac23-2ffe5c403b0a__pspm,http://pspm.pingstart.com/api/v4/postback?from=1706&clickid=2beb7db0-6723-47fe-ac23-2ffe5c403b0a__pspm,idfa_33797BA0-A729-4206-A8AB-69E898D44E37,ko-KR
y2lD5e3FTZmeIShsvAGifA,newborntown,p1839_570212_7_15_05602-05108,Install,1.9,218.149.228.144,,1558839537,2019-05-26 10:58:57,1558839560,2019-05-26 10:59:20,1558839591,2e2f1246-378d-4001-a5b1-28c080ecdde6__pspm,http://pspm.pingstart.com/api/v4/postback?from=1706&clickid=2e2f1246-378d-4001-a5b1-28c080ecdde6__pspm,ip_218.149.228.144,ko
y2lD5e3FTZmeIShsvAGifA,newborntown,p1839_570212_7_7_05565-05AT9zbax9kq3lwn0vtakwrtrccis_10j6ioiip03a,Install,1.9,123.142.197.5,B70414E9-4D68-4A05-82A3-C0DC4982A7DC,1558993760,2019-05-28 05:49:20,1558993854,2019-05-28 05:50:54,1558993885,a25704a3-c1c3-4856-a800-24fd454819a7__pspm,http://pspm.pingstart.com/api/v4/postback?from=1706&clickid=a25704a3-c1c3-4856-a800-24fd454819a7__pspm,idfa_B70414E9-4D68-4A05-82A3-C0DC4982A7DC,ko-KR
y2lD5e3FTZmeIShsvAGifA,newborntown,p1839_11_36_7_741-12350,Install,1.9,59.4.116.58,2A2EB405-3FBE-4A69-97E3-508315C09A61,1558548214,2019-05-23 02:03:34,1558548332,2019-05-23 02:05:32,1558548363,f9a54372-e594-448a-8747-5474b35bec0e__pspm,http://pspm.pingstart.com/api/v4/postback?from=1706&clickid=f9a54372-e594-448a-8747-5474b35bec0e__pspm,idfa_2A2EB405-3FBE-4A69-97E3-508315C09A61,ko-KR
y2lD5e3FTZmeIShsvAGifA,newborntown,p1839_570212_7_7_05649-05214,Install,1.9,175.223.49.171,B4071D8B-A249-4F00-AD86-E240338FFA89,1559003303,2019-05-28 08:28:23,1559013644,2019-05-28 11:20:44,1559013674,45a7ce8b-bbef-44fc-ba37-602e42a09b1a__pspm,http://pspm.pingstart.com/api/v4/postback?from=1706&clickid=45a7ce8b-bbef-44fc-ba37-602e42a09b1a__pspm,idfa_B4071D8B-A249-4F00-AD86-E240338FFA89,ko-KR
y2lD5e3FTZmeIShsvAGifA,newborntown,p1839_570212_759623_05706-052874,Install,1.9,211.180.158.70,AA7C83B9-7855-4A4D-A611-E67C4A807786,1559090774,2019-05-29 08:46:14,1559092695,2019-05-29 09:18:15,1559092725,26ec6b68-abea-49f8-84c2-6e6222c943a8__pspm,http://pspm.pingstart.com/api/v4/postback?from=1706&clickid=26ec6b68-abea-49f8-84c2-6e6222c943a8__pspm,idfa_AA7C83B9-7855-4A4D-A611-E67C4A807786,ko-KR
y2lD5e3FTZmeIShsvAGifA,newborntown,p1839_11_36_7_741-12350,Install,1.9,59.6.184.142,56DBA7E9-45A7-4436-B8C1-3396802475BD,1558548183,2019-05-23 02:03:03,1558548265,2019-05-23 02:04:25,1558548296,39f426de-67ac-4c31-baed-2b2f136ddfda__pspm,http://pspm.pingstart.com/api/v4/postback?from=1706&clickid=39f426de-67ac-4c31-baed-2b2f136ddfda__pspm,idfa_56DBA7E9-45A7-4436-B8C1-3396802475BD,ko-KR
y2lD5e3FTZmeIShsvAGifA,newborntown,p1839_11_36_7_741-12350,Install,1.9,210.94.80.108,5375DB5E-E14E-4A75-9D6E-932E0E19EA81,1558548199,2019-05-23 02:03:19,1558548289,2019-05-23 02:04:49,1558548319,ca5c5174-b30f-4195-85f1-df84eebdaab1__pspm,http://pspm.pingstart.com/api/v4/postback?from=1706&clickid=ca5c5174-b30f-4195-85f1-df84eebdaab1__pspm,idfa_5375DB5E-E14E-4A75-9D6E-932E0E19EA81,ko-KR
y2lD5e3FTZmeIShsvAGifA,newborntown,p1839_570212_759623_05518-05230128,Install,1.9,223.62.172.145,1AC1CF8E-F81C-488C-BDB4-64BE9F01194E,1559014178,2019-05-28 11:29:38,1559132509,2019-05-29 20:21:49,1559132540,5198de97-de91-4e01-92bf-fd7597a04a24__pspm,http://pspm.pingstart.com/api/v4/postback?from=1706&clickid=5198de97-de91-4e01-92bf-fd7597a04a24__pspm,idfa_1AC1CF8E-F81C-488C-BDB4-64BE9F01194E,ko-KR
y2lD5e3FTZmeIShsvAGifA,newborntown,p1839_11_36_7_741-12350,Install,1.9,218.144.17.223,157BA4B3-78E0-4FBE-B01E-B8D101BC0C87,1558548070,2019-05-23 02:01:10,1558548136,2019-05-23 02:02:16,1558548166,278eedd6-1bba-4ff5-b77e-be3cdb33f589__pspm,http://pspm.pingstart.com/api/v4/postback?from=1706&clickid=278eedd6-1bba-4ff5-b77e-be3cdb33f589__pspm,idfa_157BA4B3-78E0-4FBE-B01E-B8D101BC0C87,ko-KR
y2lD5e3FTZmeIShsvAGifA,newborntown,p1839_12_1064_05518-728048,Install,1.9,1.221.192.149,90425FAE-FB90-4409-9E35-DD3DEE737A6C,1558658589,2019-05-24 08:43:09,1558658660,2019-05-24 08:44:20,1558658692,9f32b7d5-f2b3-43d5-8638-00ffad641df6__pspm,http://pspm.pingstart.com/api/v4/postback?from=1706&clickid=9f32b7d5-f2b3-43d5-8638-00ffad641df6__pspm,idfa_90425FAE-FB90-4409-9E35-DD3DEE737A6C,ko-Kore-KR
y2lD5e3FTZmeIShsvAGifA,newborntown,p1839_570212_7_7_05741-0512820,Install,1.9,112.179.141.189,768897AC-8E9F-4EB9-83D6-CCAE4AC24684,1558840987,2019-05-26 11:23:07,1558841019,2019-05-26 11:23:39,1558841050,a9509a00-7ed7-4b3a-a728-1e68722d1435__pspm,http://pspm.pingstart.com/api/v4/postback?from=1706&clickid=a9509a00-7ed7-4b3a-a728-1e68722d1435__pspm,idfa_768897AC-8E9F-4EB9-83D6-CCAE4AC24684,ko-KR
y2lD5e3FTZmeIShsvAGifA,newborntown,p1839_570212_759623_05518-05728048,Install,1.9,121.176.4.249,3BA190CE-99D7-4EBA-BC8A-6714E82ECC62,1559002112,2019-05-28 08:08:32,1559002206,2019-05-28 08:10:06,1559002237,00425109-9177-4bbc-a60a-835ce1764016__pspm,http://pspm.pingstart.com/api/v4/postback?from=1706&clickid=00425109-9177-4bbc-a60a-835ce1764016__pspm,idfa_3BA190CE-99D7-4EBA-BC8A-6714E82ECC62,ko-Kore-KR
y2lD5e3FTZmeIShsvAGifA,newborntown,p1839_570212_7_15_05741-0512820,Install,1.9,211.171.103.130,02C0B756-BFDA-4B8A-A5AD-F2834481F5CD,1558841021,2019-05-26 11:23:41,1558841059,2019-05-26 11:24:19,1558841090,09e1bc95-8f02-4681-8303-6ea94d3eca1c__pspm,http://pspm.pingstart.com/api/v4/postback?from=1706&clickid=09e1bc95-8f02-4681-8303-6ea94d3eca1c__pspm,idfa_02C0B756-BFDA-4B8A-A5AD-F2834481F5CD,ko-KR
y2lD5e3FTZmeIShsvAGifA,newborntown,p1839_570212_7_15_05741-0512820,Install,1.9,59.15.185.17,12B0D69D-395B-4493-9E5B-9D1175AF3286,1558840150,2019-05-26 11:09:10,1558840193,2019-05-26 11:09:53,1558840223,39ae4e1c-dda0-4cf1-b149-c3bc0bd97745__pspm,http://pspm.pingstart.com/api/v4/postback?from=1706&clickid=39ae4e1c-dda0-4cf1-b149-c3bc0bd97745__pspm,idfa_12B0D69D-395B-4493-9E5B-9D1175AF3286,ko-KR
y2lD5e3FTZmeIShsvAGifA,newborntown,p1839_570212_759623_05823-05387,Install,1.9,115.93.120.187,B1DA548E-40D1-48F1-BA9F-2F5B72D13EA7,1559062719,2019-05-29 00:58:39,1559062881,2019-05-29 01:01:21,1559062912,9201c575-cb08-455f-9a63-3dbee356d285__pspm,http://pspm.pingstart.com/api/v4/postback?from=1706&clickid=9201c575-cb08-455f-9a63-3dbee356d285__pspm,idfa_B1DA548E-40D1-48F1-BA9F-2F5B72D13EA7,ko-KR
y2lD5e3FTZmeIShsvAGifA,newborntown,p1839_570212_759623_05546-05511042307,Install,1.9,125.179.10.52,93B02F7B-0E46-4BAC-8BA8-01DE7ACD5D8A,1559026622,2019-05-28 14:57:02,1559026709,2019-05-28 14:58:29,1559026740,e50513c5-570f-4ea5-95e7-bfd2bb631e9d__pspm,http://pspm.pingstart.com/api/v4/postback?from=1706&clickid=e50513c5-570f-4ea5-95e7-bfd2bb631e9d__pspm,idfa_93B02F7B-0E46-4BAC-8BA8-01DE7ACD5D8A,ko-KR
y2lD5e3FTZmeIShsvAGifA,newborntown,p1839_11_36_7_741-12350,Install,1.9,116.120.58.199,382877C1-2CED-441D-8DCE-23E872673320,1558548184,2019-05-23 02:03:04,1558548252,2019-05-23 02:04:12,1558548283,caff8735-505e-4a1e-bb04-aadd0603cfa9__pspm,http://pspm.pingstart.com/api/v4/postback?from=1706&clickid=caff8735-505e-4a1e-bb04-aadd0603cfa9__pspm,idfa_382877C1-2CED-441D-8DCE-23E872673320,ko-KR
y2lD5e3FTZmeIShsvAGifA,newborntown,p1839_570212_759623_05518-05728048,Install,1.9,112.171.69.24,B391AFBC-F4AC-4054-BEA7-EA5534EE50F8,1559013789,2019-05-28 11:23:09,1559013884,2019-05-28 11:24:44,1559013915,44c003d2-0845-44d9-ac89-2da82a697478__pspm,http://pspm.pingstart.com/api/v4/postback?from=1706&clickid=44c003d2-0845-44d9-ac89-2da82a697478__pspm,idfa_B391AFBC-F4AC-4054-BEA7-EA5534EE50F8,ko-Kore-KR
y2lD5e3FTZmeIShsvAGifA,newborntown,p1839_570212_7_15_05602-05108,Install,1.9,113.10.49.101,,1558838129,2019-05-26 10:35:29,1558838148,2019-05-26 10:35:48,1558838179,4bf6110f-feb5-4fbd-8f37-9afc9c5bb198__pspm,http://pspm.pingstart.com/api/v4/postback?from=1706&clickid=4bf6110f-feb5-4fbd-8f37-9afc9c5bb198__pspm,ip_113.10.49.101,ko
y2lD5e3FTZmeIShsvAGifA,newborntown,p1839_570212_759623_05788-05363_521,Install,1.9,106.248.37.154,4DF304E1-2C40-4323-8FC5-EE6DDD9E3DDA,1559181862,2019-05-30 10:04:22,1559181946,2019-05-30 10:05:46,1559181980,50a0ba81-9764-4f44-9a30-d96d72bc8aab__pspm,http://pspm.pingstart.com/api/v4/postback?from=1706&clickid=50a0ba81-9764-4f44-9a30-d96d72bc8aab__pspm,idfa_4DF304E1-2C40-4323-8FC5-EE6DDD9E3DDA,ko-KR
y2lD5e3FTZmeIShsvAGifA,newborntown,p1839_570212_7_15_05741-0512820,Install,1.9,112.170.215.31,80B6BAEB-88AC-4E57-91F2-32593340D56D,1558840678,2019-05-26 11:17:58,1558840710,2019-05-26 11:18:30,1558840742,5de82694-4a8f-40d5-a4a0-244081015a84__pspm,http://pspm.pingstart.com/api/v4/postback?from=1706&clickid=5de82694-4a8f-40d5-a4a0-244081015a84__pspm,idfa_80B6BAEB-88AC-4E57-91F2-32593340D56D,ko-KR
y2lD5e3FTZmeIShsvAGifA,newborntown,p1839_570212_7_15_05706-0556076613,Install,1.9,49.246.91.92,,1558888440,2019-05-27 00:34:00,1558950774,2019-05-27 17:52:54,1558950808,c1c4d8bd-5823-4ec1-8b01-3f0c641385b0__pspm,http://pspm.pingstart.com/api/v4/postback?from=1706&clickid=c1c4d8bd-5823-4ec1-8b01-3f0c641385b0__pspm,ip_49.246.91.92,ko-KR
y2lD5e3FTZmeIShsvAGifA,newborntown,p1839_570212_759623_05546-05539047001,Install,1.9,221.155.106.68,A32784AF-E918-456F-A737-189969B5AA19,1559026796,2019-05-28 14:59:56,1559026892,2019-05-28 15:01:32,1559026923,859c1bfd-7e8b-45e8-9641-6d3c0f03324c__pspm,http://pspm.pingstart.com/api/v4/postback?from=1706&clickid=859c1bfd-7e8b-45e8-9641-6d3c0f03324c__pspm,idfa_A32784AF-E918-456F-A737-189969B5AA19,ko-KR
y2lD5e3FTZmeIShsvAGifA,newborntown,p1839_570212_7_7_05546-05544335425,Install,1.9,49.164.45.226,572E735D-1E72-4CF2-92B9-6552095B31A8,1558990376,2019-05-28 04:52:56,1558990529,2019-05-28 04:55:29,1558990559,75429973-03e5-49d0-bbc3-1fee21571b1c__pspm,http://pspm.pingstart.com/api/v4/postback?from=1706&clickid=75429973-03e5-49d0-bbc3-1fee21571b1c__pspm,idfa_572E735D-1E72-4CF2-92B9-6552095B31A8,ko-KR
y2lD5e3FTZmeIShsvAGifA,newborntown,p1839_570212_759623_05546-05511042307,Install,1.9,221.157.24.174,51AE70BD-5F91-4380-997E-2B198D79F51C,1559025669,2019-05-28 14:41:09,1559025764,2019-05-28 14:42:44,1559025796,ef6d43ed-01f6-42c4-b065-edd97ee830c3__pspm,http://pspm.pingstart.com/api/v4/postback?from=1706&clickid=ef6d43ed-01f6-42c4-b065-edd97ee830c3__pspm,idfa_51AE70BD-5F91-4380-997E-2B198D79F51C,ko-KR
y2lD5e3FTZmeIShsvAGifA,newborntown,p1839_12_1064_518-286192,Install,1.9,112.161.25.140,1FBFED75-C35E-494B-9FE5-4E62B9FD2D79,1557792340,2019-05-14 08:05:40,1557792419,2019-05-14 08:06:59,1557792450,8bc92bfd-4d7d-4db0-9dbd-a1e9abae7f82__pspm,http://pspm.pingstart.com/api/v4/postback?from=1706&clickid=8bc92bfd-4d7d-4db0-9dbd-a1e9abae7f82__pspm,idfa_1FBFED75-C35E-494B-9FE5-4E62B9FD2D79,ko-Kore-KR
y2lD5e3FTZmeIShsvAGifA,newborntown,p1839_570212_759623_05956-053107_22dc60cde600,Install,1.9,180.65.108.43,11D7F607-BF63-4907-82AC-4F2E66A675EB,1559178342,2019-05-30 09:05:42,1559178424,2019-05-30 09:07:04,1559178455,6b3b2d65-4158-41d6-894c-30adca9663c4__pspm,http://pspm.pingstart.com/api/v4/postback?from=1706&clickid=6b3b2d65-4158-41d6-894c-30adca9663c4__pspm,idfa_11D7F607-BF63-4907-82AC-4F2E66A675EB,ko-KR
