cid,partner_id,channel_id,action_id,cpi,ip,idfa,click time,click datetime,install time,install datetime,postback time,click id,postback url,unique user id
vCqBBhzLRjKzceuiGo99tA,newborntown,p1472_,Install,1.7,61.253.68.220,B0CD58FD-A5C3-494F-852A-574042D6CD14,1557619882,2019-05-12 08:11:22,1557741523,2019-05-13 17:58:43,1557741530,068db449-2db2-4b4d-b62c-e280c6365978__pspm,http://pspm.pingstart.com/api/v4/postback?from=1706&clickid=068db449-2db2-4b4d-b62c-e280c6365978__pspm,idfa_B0CD58FD-A5C3-494F-852A-574042D6CD14,ko
vCqBBhzLRjKzceuiGo99tA,newborntown,p1472_,Install,1.7,49.169.73.28,03F61507-F6E1-4913-B1E1-7375CB1E4459,1557989034,2019-05-16 14:43:54,1558094376,2019-05-17 19:59:36,1558094383,105cca98-4728-4d8e-b8ea-ecb224aa9cc3__pspm,http://pspm.pingstart.com/api/v4/postback?from=1706&clickid=105cca98-4728-4d8e-b8ea-ecb224aa9cc3__pspm,idfa_03F61507-F6E1-4913-B1E1-7375CB1E4459,ko
vCqBBhzLRjKzceuiGo99tA,newborntown,p1472_,Install,1.7,49.172.122.184,E4D4A2B1-6377-4351-8ED9-E17B575A6283,1557626588,2019-05-12 10:03:08,1557651212,2019-05-12 16:53:32,1557651221,89f6cd2b-523f-44e7-8c3a-2bc29a245100__pspm,http://pspm.pingstart.com/api/v4/postback?from=1706&clickid=89f6cd2b-523f-44e7-8c3a-2bc29a245100__pspm,idfa_E4D4A2B1-6377-4351-8ED9-E17B575A6283,ko
vCqBBhzLRjKzceuiGo99tA,newborntown,p1472_,Install,1.7,223.39.140.60,24D28B8F-9D5C-4FE2-8225-81865DDD4B5A,1556932777,2019-05-04 09:19:37,1557013745,2019-05-05 07:49:05,1557013753,6956d9ba-4631-4aaf-8184-b4dc3ec1f77d__pspm,http://pspm.pingstart.com/api/v4/postback?from=1706&clickid=6956d9ba-4631-4aaf-8184-b4dc3ec1f77d__pspm,idfa_24D28B8F-9D5C-4FE2-8225-81865DDD4B5A,ko
vCqBBhzLRjKzceuiGo99tA,newborntown,p1472_,Install,1.7,119.70.18.161,4E042B9D-27E0-43D4-A069-43084B1E4E7F,1557795349,2019-05-14 08:55:49,1558186181,2019-05-18 21:29:41,1558186188,db023326-c453-4a76-8913-d927d54ee85e__pspm,http://pspm.pingstart.com/api/v4/postback?from=1706&clickid=db023326-c453-4a76-8913-d927d54ee85e__pspm,idfa_4E042B9D-27E0-43D4-A069-43084B1E4E7F,ko
vCqBBhzLRjKzceuiGo99tA,newborntown,p1472_,Install,1.7,180.231.18.204,5A007863-B352-4578-B20D-95BC86757218,1557800844,2019-05-14 10:27:24,1557928056,2019-05-15 21:47:36,1557928062,d7b3280d-009d-4fba-a37f-5b4b35f60428__pspm,http://pspm.pingstart.com/api/v4/postback?from=1706&clickid=d7b3280d-009d-4fba-a37f-5b4b35f60428__pspm,idfa_5A007863-B352-4578-B20D-95BC86757218,ko
vCqBBhzLRjKzceuiGo99tA,newborntown,p1472_,Install,1.7,58.237.175.235,5C7E3B6C-1F2F-4031-B2D6-CF4D2231A4EC,1557982633,2019-05-16 12:57:13,1557989302,2019-05-16 14:48:22,1557989312,2f72ce67-6d38-4b03-83d5-95f8c125cc08__pspm,http://pspm.pingstart.com/api/v4/postback?from=1706&clickid=2f72ce67-6d38-4b03-83d5-95f8c125cc08__pspm,idfa_5C7E3B6C-1F2F-4031-B2D6-CF4D2231A4EC,ko
vCqBBhzLRjKzceuiGo99tA,newborntown,p1472_,Install,1.7,39.7.56.94,A664F504-5C36-4BD7-A76B-26513FCE4455,1557590084,2019-05-11 23:54:44,1557789827,2019-05-14 07:23:47,1557789836,11522433-713a-47e4-baff-cb13574e7370__pspm,http://pspm.pingstart.com/api/v4/postback?from=1706&clickid=11522433-713a-47e4-baff-cb13574e7370__pspm,idfa_A664F504-5C36-4BD7-A76B-26513FCE4455,ko
vCqBBhzLRjKzceuiGo99tA,newborntown,p1472_,Install,1.7,223.38.27.32,AF7F10CE-2755-499D-A0C4-60E9B085551D,1557541317,2019-05-11 10:21:57,1557652508,2019-05-12 17:15:08,1557652517,22d2cbc2-69ad-4bf1-96fe-4c95fa13270c__pspm,http://pspm.pingstart.com/api/v4/postback?from=1706&clickid=22d2cbc2-69ad-4bf1-96fe-4c95fa13270c__pspm,idfa_AF7F10CE-2755-499D-A0C4-60E9B085551D,ko
vCqBBhzLRjKzceuiGo99tA,newborntown,p1472_,Install,1.6,59.28.49.44,F167CE10-94AD-4E3E-85AC-E71F62C2A467,1556183172,2019-04-25 17:06:12,1556713654,2019-05-01 20:27:34,1556713662,07cbe803-663c-47a5-8461-a9d28bc7c01d__pspm,http://pspm.pingstart.com/api/v4/postback?from=1706&clickid=07cbe803-663c-47a5-8461-a9d28bc7c01d__pspm,idfa_F167CE10-94AD-4E3E-85AC-E71F62C2A467,ko
vCqBBhzLRjKzceuiGo99tA,newborntown,p1472_,Install,1.7,223.39.150.196,1C6320CE-9157-4B0E-BD8E-00CD88B59969,1557998417,2019-05-16 17:20:17,1558159110,2019-05-18 13:58:30,1558159118,70945b49-3a7d-493c-a3f6-989abc9d4a31__pspm,http://pspm.pingstart.com/api/v4/postback?from=1706&clickid=70945b49-3a7d-493c-a3f6-989abc9d4a31__pspm,idfa_1C6320CE-9157-4B0E-BD8E-00CD88B59969,ko
vCqBBhzLRjKzceuiGo99tA,newborntown,p1472_,Install,1.7,61.254.111.133,07E221AA-59D2-41F5-A4E7-0F87503F1FD6,1557995925,2019-05-16 16:38:45,1558037338,2019-05-17 04:08:58,1558037345,d82df71e-ba41-4169-9338-ef3f6397aa8e__pspm,http://pspm.pingstart.com/api/v4/postback?from=1706&clickid=d82df71e-ba41-4169-9338-ef3f6397aa8e__pspm,idfa_07E221AA-59D2-41F5-A4E7-0F87503F1FD6,ko
vCqBBhzLRjKzceuiGo99tA,newborntown,p1472_,Install,1.7,58.123.114.87,08BDB9F3-EEB8-4D7E-AE54-C0B1CC5B2E19,1557534596,2019-05-11 08:29:56,1557589174,2019-05-11 23:39:34,1557589181,38c0109d-0668-44e3-8c37-797bfce62e72__pspm,http://pspm.pingstart.com/api/v4/postback?from=1706&clickid=38c0109d-0668-44e3-8c37-797bfce62e72__pspm,idfa_08BDB9F3-EEB8-4D7E-AE54-C0B1CC5B2E19,ko
vCqBBhzLRjKzceuiGo99tA,newborntown,p1472_,Install,1.7,122.47.234.197,02CB8B1E-DADD-4B1E-BCA8-AC72E5D2A036,1557800841,2019-05-14 10:27:21,1558043739,2019-05-17 05:55:39,1558043747,d3916dc9-b11b-4cc4-b75d-4256a787e468__pspm,http://pspm.pingstart.com/api/v4/postback?from=1706&clickid=d3916dc9-b11b-4cc4-b75d-4256a787e468__pspm,idfa_02CB8B1E-DADD-4B1E-BCA8-AC72E5D2A036,ko
vCqBBhzLRjKzceuiGo99tA,newborntown,p1472_,Install,1.7,117.111.13.34,172C4F44-3ED3-41A3-B41F-FFB8A68B9EA7,1557795393,2019-05-14 08:56:33,1557961360,2019-05-16 07:02:40,1557961368,416e4307-8849-4594-8911-175b6651f605__pspm,http://pspm.pingstart.com/api/v4/postback?from=1706&clickid=416e4307-8849-4594-8911-175b6651f605__pspm,idfa_172C4F44-3ED3-41A3-B41F-FFB8A68B9EA7,ko
vCqBBhzLRjKzceuiGo99tA,newborntown,p1472_,Install,1.7,182.222.43.124,6ED70E46-C011-46D7-8CB0-E9FCB40397CA,1557555825,2019-05-11 14:23:45,1558052889,2019-05-17 08:28:09,1558052898,22cd5807-9407-414f-899e-73bd7bfad516__pspm,http://pspm.pingstart.com/api/v4/postback?from=1706&clickid=22cd5807-9407-414f-899e-73bd7bfad516__pspm,idfa_6ED70E46-C011-46D7-8CB0-E9FCB40397CA,ko
vCqBBhzLRjKzceuiGo99tA,newborntown,p1472_,Install,1.7,175.223.37.218,AFA0F15D-DF9C-40F5-9D51-E86C92946511,1557378045,2019-05-09 13:00:45,1557392583,2019-05-09 17:03:03,1557392590,93517e4c-633d-4b15-854f-94528ac276a1__pspm,http://pspm.pingstart.com/api/v4/postback?from=1706&clickid=93517e4c-633d-4b15-854f-94528ac276a1__pspm,idfa_AFA0F15D-DF9C-40F5-9D51-E86C92946511,ko
vCqBBhzLRjKzceuiGo99tA,newborntown,p1472_,Install,1.7,121.186.170.190,11F70178-4298-44A2-A5C0-61D1BCE7E519,1557882141,2019-05-15 09:02:21,1558235860,2019-05-19 11:17:40,1558235868,1aaf6944-4d2e-46fa-87e1-e6b5ffe756c5__pspm,http://pspm.pingstart.com/api/v4/postback?from=1706&clickid=1aaf6944-4d2e-46fa-87e1-e6b5ffe756c5__pspm,idfa_11F70178-4298-44A2-A5C0-61D1BCE7E519,ko
vCqBBhzLRjKzceuiGo99tA,newborntown,p1472_,Install,1.7,112.163.137.166,AB1785B5-FAB1-4B40-AC44-C49B3321F6F0,1557995955,2019-05-16 16:39:15,1558044933,2019-05-17 06:15:33,1558044941,fe24f375-52e5-4a6b-aa34-8ea29f58dbb8__pspm,http://pspm.pingstart.com/api/v4/postback?from=1706&clickid=fe24f375-52e5-4a6b-aa34-8ea29f58dbb8__pspm,idfa_AB1785B5-FAB1-4B40-AC44-C49B3321F6F0,ko
vCqBBhzLRjKzceuiGo99tA,newborntown,p1472_,Install,1.7,117.111.2.58,0911D773-539D-44A1-B6EC-F69025C42837,1557592131,2019-05-12 00:28:51,1557912856,2019-05-15 17:34:16,1557912863,d363c1e4-484c-4433-b27b-1aaf0e7c1de3__pspm,http://pspm.pingstart.com/api/v4/postback?from=1706&clickid=d363c1e4-484c-4433-b27b-1aaf0e7c1de3__pspm,idfa_0911D773-539D-44A1-B6EC-F69025C42837,ko
vCqBBhzLRjKzceuiGo99tA,newborntown,p1472_,Install,1.7,223.33.164.224,72976349-B121-46B7-9304-841624C76ADF,1557589805,2019-05-11 23:50:05,1557703139,2019-05-13 07:18:59,1557703148,ee2feeb2-3160-4ef1-b74a-228123dcf59d__pspm,http://pspm.pingstart.com/api/v4/postback?from=1706&clickid=ee2feeb2-3160-4ef1-b74a-228123dcf59d__pspm,idfa_72976349-B121-46B7-9304-841624C76ADF,ko
vCqBBhzLRjKzceuiGo99tA,newborntown,p1472_,Install,1.7,183.99.159.203,DBB311E8-D97A-4C48-8959-AC321E52EE23,1558077636,2019-05-17 15:20:36,1558233647,2019-05-19 10:40:47,1558233661,685781bb-e8cf-488d-8100-dbfcdfe7b6f8__pspm,http://pspm.pingstart.com/api/v4/postback?from=1706&clickid=685781bb-e8cf-488d-8100-dbfcdfe7b6f8__pspm,idfa_DBB311E8-D97A-4C48-8959-AC321E52EE23,ko
vCqBBhzLRjKzceuiGo99tA,newborntown,p1472_,Install,1.7,114.205.80.156,D725D9EE-5F57-42B7-9D5B-6F7D73E49D52,1557802334,2019-05-14 10:52:14,1557922610,2019-05-15 20:16:50,1557922617,7227b0d2-4c4d-418d-8b19-1f5a6f0e296e__pspm,http://pspm.pingstart.com/api/v4/postback?from=1706&clickid=7227b0d2-4c4d-418d-8b19-1f5a6f0e296e__pspm,idfa_D725D9EE-5F57-42B7-9D5B-6F7D73E49D52,ko
vCqBBhzLRjKzceuiGo99tA,newborntown,p1472_,Install,1.7,1.250.74.33,EF221A93-19BC-422C-B951-FD40B683BC67,1557544136,2019-05-11 11:08:56,1557924232,2019-05-15 20:43:52,1557924240,c486402d-fadd-44ec-9f9c-af3f12361041__pspm,http://pspm.pingstart.com/api/v4/postback?from=1706&clickid=c486402d-fadd-44ec-9f9c-af3f12361041__pspm,idfa_EF221A93-19BC-422C-B951-FD40B683BC67,ko
vCqBBhzLRjKzceuiGo99tA,newborntown,p1472_,Install,1.7,222.118.110.180,764CC845-2690-447D-B63E-A317794CA98F,1557883295,2019-05-15 09:21:35,1558013154,2019-05-16 21:25:54,1558013167,de951c72-ffd9-45c3-adf2-2c6a1184df5e__pspm,http://pspm.pingstart.com/api/v4/postback?from=1706&clickid=de951c72-ffd9-45c3-adf2-2c6a1184df5e__pspm,idfa_764CC845-2690-447D-B63E-A317794CA98F,ko
vCqBBhzLRjKzceuiGo99tA,newborntown,p1472_,Install,1.7,27.118.92.4,608C52F9-F278-4051-A138-7C60C2885CC9,1557551997,2019-05-11 13:19:57,1557677502,2019-05-13 00:11:42,1557677513,c21296c5-febb-4760-9ca9-bdbc02c2cfa8__pspm,http://pspm.pingstart.com/api/v4/postback?from=1706&clickid=c21296c5-febb-4760-9ca9-bdbc02c2cfa8__pspm,idfa_608C52F9-F278-4051-A138-7C60C2885CC9,ko
vCqBBhzLRjKzceuiGo99tA,newborntown,p1472_,Install,1.7,117.111.1.197,A63516F7-BF46-4A98-A0C4-4830C82841B3,1557545757,2019-05-11 11:35:57,1558021076,2019-05-16 23:37:56,1558021083,207206a1-b9c9-457b-a169-187a56a4893b__pspm,http://pspm.pingstart.com/api/v4/postback?from=1706&clickid=207206a1-b9c9-457b-a169-187a56a4893b__pspm,idfa_A63516F7-BF46-4A98-A0C4-4830C82841B3,ko
vCqBBhzLRjKzceuiGo99tA,newborntown,p1472_,Install,1.7,115.86.109.64,95D2B879-CFFE-41DC-97E8-73835719B7E0,1557455866,2019-05-10 10:37:46,1557752360,2019-05-13 20:59:20,1557752368,bfe7a4b3-7a27-476f-beba-cbcb58620cc7__pspm,http://pspm.pingstart.com/api/v4/postback?from=1706&clickid=bfe7a4b3-7a27-476f-beba-cbcb58620cc7__pspm,idfa_95D2B879-CFFE-41DC-97E8-73835719B7E0,ko
vCqBBhzLRjKzceuiGo99tA,newborntown,p1472_,Install,1.7,1.227.26.22,38B8E962-1374-4F2F-8B75-029C23D67767,1557625486,2019-05-12 09:44:46,1558185774,2019-05-18 21:22:54,1558185782,ebc9de78-c4e5-4606-acf9-ff4d9558dd08__pspm,http://pspm.pingstart.com/api/v4/postback?from=1706&clickid=ebc9de78-c4e5-4606-acf9-ff4d9558dd08__pspm,idfa_38B8E962-1374-4F2F-8B75-029C23D67767,ko
vCqBBhzLRjKzceuiGo99tA,newborntown,p1472_,Install,1.7,211.246.69.252,27EB49B7-247F-4CFD-8A09-05F8169DD6C5,1557539320,2019-05-11 09:48:40,1557814910,2019-05-14 14:21:50,1557814918,1e3524f4-944e-42d7-840a-b38298a70d88__pspm,http://pspm.pingstart.com/api/v4/postback?from=1706&clickid=1e3524f4-944e-42d7-840a-b38298a70d88__pspm,idfa_27EB49B7-247F-4CFD-8A09-05F8169DD6C5,ko
vCqBBhzLRjKzceuiGo99tA,newborntown,p1472_,Install,1.7,223.62.190.24,6357A9E1-9F1B-4197-A039-A7B75C54C9B9,1557972883,2019-05-16 10:14:43,1558098870,2019-05-17 21:14:30,1558098878,10022632-a367-4d98-9885-77d01296c981__pspm,http://pspm.pingstart.com/api/v4/postback?from=1706&clickid=10022632-a367-4d98-9885-77d01296c981__pspm,idfa_6357A9E1-9F1B-4197-A039-A7B75C54C9B9,ko
vCqBBhzLRjKzceuiGo99tA,newborntown,p1472_,Install,1.7,182.216.241.9,7AF6CCFC-7696-42C6-9C0C-C083A2489119,1558106724,2019-05-17 23:25:24,1558198355,2019-05-19 00:52:35,1558198367,416cf3b6-c9f9-4eae-af15-de5d0c644744__pspm,http://pspm.pingstart.com/api/v4/postback?from=1706&clickid=416cf3b6-c9f9-4eae-af15-de5d0c644744__pspm,idfa_7AF6CCFC-7696-42C6-9C0C-C083A2489119,ko
vCqBBhzLRjKzceuiGo99tA,newborntown,p1472_,Install,1.7,125.177.239.10,21E60805-EA49-40A5-A6E9-B5150E34B375,1557981046,2019-05-16 12:30:46,1558078700,2019-05-17 15:38:20,1558078710,1c022e84-1c09-4956-b700-c6b089aad4fd__pspm,http://pspm.pingstart.com/api/v4/postback?from=1706&clickid=1c022e84-1c09-4956-b700-c6b089aad4fd__pspm,idfa_21E60805-EA49-40A5-A6E9-B5150E34B375,ko
vCqBBhzLRjKzceuiGo99tA,newborntown,p1472_,Install,1.7,110.70.14.80,FA055F65-4C10-4446-967F-B9502A5C4E8B,1557993913,2019-05-16 16:05:13,1558225701,2019-05-19 08:28:21,1558225708,f9726d37-3bdf-4097-968e-5567aaf710c1__pspm,http://pspm.pingstart.com/api/v4/postback?from=1706&clickid=f9726d37-3bdf-4097-968e-5567aaf710c1__pspm,idfa_FA055F65-4C10-4446-967F-B9502A5C4E8B,ko
vCqBBhzLRjKzceuiGo99tA,newborntown,p1472_,Install,1.7,211.36.150.187,1810743F-9733-4520-B131-6AF7080E7A8C,1557558195,2019-05-11 15:03:15,1557740931,2019-05-13 17:48:51,1557740938,548c36d1-61ce-4776-b3e8-c13d1c903e6a__pspm,http://pspm.pingstart.com/api/v4/postback?from=1706&clickid=548c36d1-61ce-4776-b3e8-c13d1c903e6a__pspm,idfa_1810743F-9733-4520-B131-6AF7080E7A8C,ko
vCqBBhzLRjKzceuiGo99tA,newborntown,p1472_,Install,1.7,106.102.0.51,1EA34284-A1E8-4B0E-917F-FA2ACEBB2F5C,1557417075,2019-05-09 23:51:15,1557548990,2019-05-11 12:29:50,1557548997,27a84d02-8272-4b10-bd4b-b81d36fbf88d__pspm,http://pspm.pingstart.com/api/v4/postback?from=1706&clickid=27a84d02-8272-4b10-bd4b-b81d36fbf88d__pspm,idfa_1EA34284-A1E8-4B0E-917F-FA2ACEBB2F5C,ko
vCqBBhzLRjKzceuiGo99tA,newborntown,p1472_,Install,1.7,175.223.17.25,71E0C571-8EAB-4BFC-AC99-D7444BD4C4E8,1557542422,2019-05-11 10:40:22,1557891030,2019-05-15 11:30:30,1557891039,f2554371-34f9-4ee6-b877-c720b26f0780__pspm,http://pspm.pingstart.com/api/v4/postback?from=1706&clickid=f2554371-34f9-4ee6-b877-c720b26f0780__pspm,idfa_71E0C571-8EAB-4BFC-AC99-D7444BD4C4E8,ko
vCqBBhzLRjKzceuiGo99tA,newborntown,p1472_,Install,1.7,222.97.131.89,AA7E1A91-A7AC-4D12-9E2E-703EB1D90ED1,1558012910,2019-05-16 21:21:50,1558170826,2019-05-18 17:13:46,1558170833,fb8931b9-182e-4042-b1d3-7985521c7aba__pspm,http://pspm.pingstart.com/api/v4/postback?from=1706&clickid=fb8931b9-182e-4042-b1d3-7985521c7aba__pspm,idfa_AA7E1A91-A7AC-4D12-9E2E-703EB1D90ED1,ko
vCqBBhzLRjKzceuiGo99tA,newborntown,p1472_,Install,1.7,222.109.167.73,5AB2B29E-5666-4B87-ACDF-6B3C953D74AC,1558001671,2019-05-16 18:14:31,1558179322,2019-05-18 19:35:22,1558179330,08e19aa2-cf98-468d-ad01-3d0d6780c6c1__pspm,http://pspm.pingstart.com/api/v4/postback?from=1706&clickid=08e19aa2-cf98-468d-ad01-3d0d6780c6c1__pspm,idfa_5AB2B29E-5666-4B87-ACDF-6B3C953D74AC,ko
vCqBBhzLRjKzceuiGo99tA,newborntown,p1472_,Install,1.7,114.108.0.58,E22F7A9F-8598-4242-93F1-2F996639128E,1557800786,2019-05-14 10:26:26,1557858976,2019-05-15 02:36:16,1557858983,56e7262c-fd93-4728-9706-df493cc2ae76__pspm,http://pspm.pingstart.com/api/v4/postback?from=1706&clickid=56e7262c-fd93-4728-9706-df493cc2ae76__pspm,idfa_E22F7A9F-8598-4242-93F1-2F996639128E,ko
vCqBBhzLRjKzceuiGo99tA,newborntown,p1472_,Install,1.7,58.142.221.77,FA4870A7-FA90-488E-AE7D-F384C4596334,1557595337,2019-05-12 01:22:17,1557756779,2019-05-13 22:12:59,1557756787,f503d9d0-6eb3-49c5-9477-bb0927ef1005__pspm,http://pspm.pingstart.com/api/v4/postback?from=1706&clickid=f503d9d0-6eb3-49c5-9477-bb0927ef1005__pspm,idfa_FA4870A7-FA90-488E-AE7D-F384C4596334,ko
vCqBBhzLRjKzceuiGo99tA,newborntown,p1472_,Install,1.7,39.122.21.13,2D96BE37-0D11-43D5-84CC-5424E9D6CE3F,1557800632,2019-05-14 10:23:52,1557806023,2019-05-14 11:53:43,1557806031,e9c5c8a4-d1f8-45b6-bfbf-f385525e3336__pspm,http://pspm.pingstart.com/api/v4/postback?from=1706&clickid=e9c5c8a4-d1f8-45b6-bfbf-f385525e3336__pspm,idfa_2D96BE37-0D11-43D5-84CC-5424E9D6CE3F,ko
vCqBBhzLRjKzceuiGo99tA,newborntown,p1472_,Install,1.7,218.149.91.218,95902F82-18D7-4AC8-802B-0E932EAF2024,1557455270,2019-05-10 10:27:50,1557486683,2019-05-10 19:11:23,1557486691,d9c166cb-bd7c-4bbd-828c-2745f0678d51__pspm,http://pspm.pingstart.com/api/v4/postback?from=1706&clickid=d9c166cb-bd7c-4bbd-828c-2745f0678d51__pspm,idfa_95902F82-18D7-4AC8-802B-0E932EAF2024,ko
vCqBBhzLRjKzceuiGo99tA,newborntown,p1472_,Install,1.7,211.36.132.224,37223C4C-D0D5-4F6D-8272-B9D7969F160A,1557409067,2019-05-09 21:37:47,1557922579,2019-05-15 20:16:19,1557922587,9db74ce6-f4bf-4b00-a4a2-3da546b585b1__pspm,http://pspm.pingstart.com/api/v4/postback?from=1706&clickid=9db74ce6-f4bf-4b00-a4a2-3da546b585b1__pspm,idfa_37223C4C-D0D5-4F6D-8272-B9D7969F160A,ko
vCqBBhzLRjKzceuiGo99tA,newborntown,p1472_,Install,1.7,211.36.141.117,055C35A4-402E-4A3A-BBC9-B46975158440,1557545913,2019-05-11 11:38:33,1557875298,2019-05-15 07:08:18,1557875306,15ad0002-1352-42f8-ae26-7659075d2864__pspm,http://pspm.pingstart.com/api/v4/postback?from=1706&clickid=15ad0002-1352-42f8-ae26-7659075d2864__pspm,idfa_055C35A4-402E-4A3A-BBC9-B46975158440,ko
vCqBBhzLRjKzceuiGo99tA,newborntown,p1472_,Install,1.7,175.210.6.87,3DA16C49-51B2-4111-A5F2-F0944228337B,1557801613,2019-05-14 10:40:13,1557878315,2019-05-15 07:58:35,1557878323,4c5002a7-ea87-4b75-8175-9a041161a435__pspm,http://pspm.pingstart.com/api/v4/postback?from=1706&clickid=4c5002a7-ea87-4b75-8175-9a041161a435__pspm,idfa_3DA16C49-51B2-4111-A5F2-F0944228337B,ko
vCqBBhzLRjKzceuiGo99tA,newborntown,p1472_,Install,1.7,175.213.80.3,2B314F8A-DB4E-4AFB-A352-9FA34A57B502,1557982624,2019-05-16 12:57:04,1558132610,2019-05-18 06:36:50,1558132621,e26f0edf-a54f-43d7-a5b5-f332affdb15b__pspm,http://pspm.pingstart.com/api/v4/postback?from=1706&clickid=e26f0edf-a54f-43d7-a5b5-f332affdb15b__pspm,idfa_2B314F8A-DB4E-4AFB-A352-9FA34A57B502,ko
vCqBBhzLRjKzceuiGo99tA,newborntown,p1472_,Install,1.7,175.223.45.82,4FC9A3D9-AE14-4369-89DF-FE98243E9310,1557984501,2019-05-16 13:28:21,1557984671,2019-05-16 13:31:11,1557984678,5766f170-d59f-47fa-b9cb-b3ac0417fd33__pspm,http://pspm.pingstart.com/api/v4/postback?from=1706&clickid=5766f170-d59f-47fa-b9cb-b3ac0417fd33__pspm,idfa_4FC9A3D9-AE14-4369-89DF-FE98243E9310,ko
vCqBBhzLRjKzceuiGo99tA,newborntown,p1472_,Install,1.7,125.135.163.209,99C78D7D-01B3-4A9F-A9F2-9908EF4A97D6,1557621659,2019-05-12 08:40:59,1558024141,2019-05-17 00:29:01,1558024150,d0979857-0982-4715-92a6-bc3b04832f36__pspm,http://pspm.pingstart.com/api/v4/postback?from=1706&clickid=d0979857-0982-4715-92a6-bc3b04832f36__pspm,idfa_99C78D7D-01B3-4A9F-A9F2-9908EF4A97D6,ko
vCqBBhzLRjKzceuiGo99tA,newborntown,p1472_,Install,1.7,175.223.10.251,68050C1F-4EDA-4164-B9B4-4B6B9248E7A3,1558055346,2019-05-17 09:09:06,1558167731,2019-05-18 16:22:11,1558167740,ab74b26b-9890-4779-aec8-979e269f6548__pspm,http://pspm.pingstart.com/api/v4/postback?from=1706&clickid=ab74b26b-9890-4779-aec8-979e269f6548__pspm,idfa_68050C1F-4EDA-4164-B9B4-4B6B9248E7A3,ko
vCqBBhzLRjKzceuiGo99tA,newborntown,p1472_,Install,1.7,175.202.125.78,B5EEA917-EE14-4750-AF0F-2A87E9E28353,1557537859,2019-05-11 09:24:19,1558068450,2019-05-17 12:47:30,1558068460,1129dda8-0940-4d69-bf80-2d79622c4d15__pspm,http://pspm.pingstart.com/api/v4/postback?from=1706&clickid=1129dda8-0940-4d69-bf80-2d79622c4d15__pspm,idfa_B5EEA917-EE14-4750-AF0F-2A87E9E28353,ko
vCqBBhzLRjKzceuiGo99tA,newborntown,p1472_,Install,1.7,110.70.57.202,06DCBD09-B582-4594-AFBE-B3723079014D,1557626818,2019-05-12 10:06:58,1557839258,2019-05-14 21:07:38,1557839266,9ff313e2-d115-4e3d-96fd-21fa8f849009__pspm,http://pspm.pingstart.com/api/v4/postback?from=1706&clickid=9ff313e2-d115-4e3d-96fd-21fa8f849009__pspm,idfa_06DCBD09-B582-4594-AFBE-B3723079014D,ko
vCqBBhzLRjKzceuiGo99tA,newborntown,p1472_,Install,1.7,182.212.198.59,AF7A0E99-5906-4AF0-978D-C7B04424815C,1557598703,2019-05-12 02:18:23,1557982891,2019-05-16 13:01:31,1557982899,8842194f-d65e-4613-8a1d-f4c9b46c9e71__pspm,http://pspm.pingstart.com/api/v4/postback?from=1706&clickid=8842194f-d65e-4613-8a1d-f4c9b46c9e71__pspm,idfa_AF7A0E99-5906-4AF0-978D-C7B04424815C,ko
vCqBBhzLRjKzceuiGo99tA,newborntown,p1472_,Install,1.7,223.63.117.204,5DE224DE-30A9-48ED-BF99-548C69B6AAD4,1558014260,2019-05-16 21:44:20,1558078397,2019-05-17 15:33:17,1558078406,ed4157ea-74d5-42af-b8f8-59e682641265__pspm,http://pspm.pingstart.com/api/v4/postback?from=1706&clickid=ed4157ea-74d5-42af-b8f8-59e682641265__pspm,idfa_5DE224DE-30A9-48ED-BF99-548C69B6AAD4,ko
