cid,partner_id,channel_id,action_id,cpi,ip,idfa,click time,click datetime,install time,install datetime,postback time,click id,postback url,unique user id
vfsQUKQ2Rb2OJ0Oe0o9iow,newborntown,p1855_8_1536_1071_13416_,Install,3.2,219.85.30.213,1F449153-945B-401D-80DB-6FAB5D56788A,1556642246,2019-05-01 00:37:26,1556642278,2019-05-01 00:37:58,1556642308,5d2835fb-34e8-4377-843c-9fec7703a592__pspm,http://pspm.pingstart.com/api/v4/postback?from=1706&clickid=5d2835fb-34e8-4377-843c-9fec7703a592__pspm,idfa_1F449153-945B-401D-80DB-6FAB5D56788A,zh-Hant-TW
vfsQUKQ2Rb2OJ0Oe0o9iow,newborntown,p1855_8_1536_1071_13416_,Install,3.2,36.225.167.85,188270B5-8A8A-4A2B-AEE3-EDD76C9F00AC,1556641637,2019-05-01 00:27:17,1556641666,2019-05-01 00:27:46,1556641696,9c57a8d3-0e5f-47a2-b3e2-d2f4f3ffa4e3__pspm,http://pspm.pingstart.com/api/v4/postback?from=1706&clickid=9c57a8d3-0e5f-47a2-b3e2-d2f4f3ffa4e3__pspm,idfa_188270B5-8A8A-4A2B-AEE3-EDD76C9F00AC,zh-Hant-TW
vfsQUKQ2Rb2OJ0Oe0o9iow,newborntown,p1855_8_1536_1071_13416_,Install,3.2,111.251.225.198,C8705214-5F9E-4FE9-8531-D63C91175962,1556642595,2019-05-01 00:43:15,1556642623,2019-05-01 00:43:43,1556642653,232dfd8c-9cc2-4938-a635-b7651d80e6f6__pspm,http://pspm.pingstart.com/api/v4/postback?from=1706&clickid=232dfd8c-9cc2-4938-a635-b7651d80e6f6__pspm,idfa_C8705214-5F9E-4FE9-8531-D63C91175962,zh-Hant-TW
vfsQUKQ2Rb2OJ0Oe0o9iow,newborntown,p1855_8_1536_1071_13416_,Install,3.2,61.230.130.124,2B13D032-7F7A-41E9-A847-9928DE9AB2B8,1556641812,2019-05-01 00:30:12,1556641855,2019-05-01 00:30:55,1556641885,42ecc6ba-6f04-414c-a9b2-5a240a06a896__pspm,http://pspm.pingstart.com/api/v4/postback?from=1706&clickid=42ecc6ba-6f04-414c-a9b2-5a240a06a896__pspm,idfa_2B13D032-7F7A-41E9-A847-9928DE9AB2B8,zh-Hant-TW
vfsQUKQ2Rb2OJ0Oe0o9iow,newborntown,p1855_8_1536_1071_13416_,Install,3.2,118.171.90.143,0FD77587-C6D3-4957-9FDA-3A1E75C6E5FD,1556642389,2019-05-01 00:39:49,1556642437,2019-05-01 00:40:37,1556642467,bb81af02-22bd-4c84-a1d9-ee15ea3a66a8__pspm,http://pspm.pingstart.com/api/v4/postback?from=1706&clickid=bb81af02-22bd-4c84-a1d9-ee15ea3a66a8__pspm,idfa_0FD77587-C6D3-4957-9FDA-3A1E75C6E5FD,zh-Hant-TW
vfsQUKQ2Rb2OJ0Oe0o9iow,newborntown,p1855_8_1536_1071_13416_,Install,3.2,1.168.219.85,FAEF54BD-1B39-444F-B49E-BCF5740E5EC8,1556641604,2019-05-01 00:26:44,1556641630,2019-05-01 00:27:10,1556641661,05a28c58-1522-404f-bfa1-8cad2ed42b5f__pspm,http://pspm.pingstart.com/api/v4/postback?from=1706&clickid=05a28c58-1522-404f-bfa1-8cad2ed42b5f__pspm,idfa_FAEF54BD-1B39-444F-B49E-BCF5740E5EC8,zh-Hant-TW
vfsQUKQ2Rb2OJ0Oe0o9iow,newborntown,p1855_8_1536_1071_13416_,Install,3.2,1.174.138.244,32D6E65B-6E38-4837-AA04-A70B11AFD572,1556642175,2019-05-01 00:36:15,1556642217,2019-05-01 00:36:57,1556642248,34adac08-2276-4165-b503-72f676836910__pspm,http://pspm.pingstart.com/api/v4/postback?from=1706&clickid=34adac08-2276-4165-b503-72f676836910__pspm,idfa_32D6E65B-6E38-4837-AA04-A70B11AFD572,zh-Hant-TW
vfsQUKQ2Rb2OJ0Oe0o9iow,newborntown,p1855_8_1536_1071_13416_,Install,3.2,36.234.123.227,360400B7-5DBC-4DE7-AE00-AA39D651EC59,1556641902,2019-05-01 00:31:42,1556641935,2019-05-01 00:32:15,1556641965,e02573e3-b517-4065-ba36-6712617617bc__pspm,http://pspm.pingstart.com/api/v4/postback?from=1706&clickid=e02573e3-b517-4065-ba36-6712617617bc__pspm,idfa_360400B7-5DBC-4DE7-AE00-AA39D651EC59,zh-Hant-TW
vfsQUKQ2Rb2OJ0Oe0o9iow,newborntown,p1855_8_1536_1071_13416_,Install,3.2,114.39.235.237,BBE707C4-B91C-4134-B0E6-6E7F6EAA2EF8,1556641718,2019-05-01 00:28:38,1556641745,2019-05-01 00:29:05,1556641775,4a71f5a8-f2d8-4378-b1b2-f469843daa01__pspm,http://pspm.pingstart.com/api/v4/postback?from=1706&clickid=4a71f5a8-f2d8-4378-b1b2-f469843daa01__pspm,idfa_BBE707C4-B91C-4134-B0E6-6E7F6EAA2EF8,zh-Hant-TW
vfsQUKQ2Rb2OJ0Oe0o9iow,newborntown,p1855_8_1536_1071_13416_,Install,3.2,61.62.72.196,FDF23FF2-F308-428A-907C-B03C0B8B727F,1556641615,2019-05-01 00:26:55,1556641655,2019-05-01 00:27:35,1556641686,38cd462b-7a4c-4b1d-9118-5de7639b31fc__pspm,http://pspm.pingstart.com/api/v4/postback?from=1706&clickid=38cd462b-7a4c-4b1d-9118-5de7639b31fc__pspm,idfa_FDF23FF2-F308-428A-907C-B03C0B8B727F,zh-Hant-TW
vfsQUKQ2Rb2OJ0Oe0o9iow,newborntown,p1855_8_1536_1071_13416_,Install,3.2,1.168.19.246,F5BA9C0C-E758-4AF7-8625-1D458ABA1E1C,1556641732,2019-05-01 00:28:52,1556641772,2019-05-01 00:29:32,1556641803,9eba5b0b-50fa-40d8-bfde-d0e73d810edd__pspm,http://pspm.pingstart.com/api/v4/postback?from=1706&clickid=9eba5b0b-50fa-40d8-bfde-d0e73d810edd__pspm,idfa_F5BA9C0C-E758-4AF7-8625-1D458ABA1E1C,zh-Hant-TW
vfsQUKQ2Rb2OJ0Oe0o9iow,newborntown,p1855_8_1536_1071_13416_,Install,3.2,36.232.47.200,FBE16105-8C03-4D20-AD22-517BD7FFB391,1556642475,2019-05-01 00:41:15,1556642498,2019-05-01 00:41:38,1556642528,d218172f-c2bc-430c-a214-764ae213f064__pspm,http://pspm.pingstart.com/api/v4/postback?from=1706&clickid=d218172f-c2bc-430c-a214-764ae213f064__pspm,idfa_FBE16105-8C03-4D20-AD22-517BD7FFB391,zh-Hant-TW
vfsQUKQ2Rb2OJ0Oe0o9iow,newborntown,p1855_8_1536_1071_13416_,Install,3.2,1.161.228.198,AA4AB7B4-1C6A-4395-9F4E-DF427A3EA1D6,1556641832,2019-05-01 00:30:32,1556641860,2019-05-01 00:31:00,1556641890,a32cc438-3dcb-401e-838c-b510ae02cca9__pspm,http://pspm.pingstart.com/api/v4/postback?from=1706&clickid=a32cc438-3dcb-401e-838c-b510ae02cca9__pspm,idfa_AA4AB7B4-1C6A-4395-9F4E-DF427A3EA1D6,zh-Hant-TW
vfsQUKQ2Rb2OJ0Oe0o9iow,newborntown,p1855_8_1536_1071_13416_,Install,3.2,203.70.79.37,D734EFFD-D681-4690-AF52-64C51A4CBE2B,1556642504,2019-05-01 00:41:44,1556642536,2019-05-01 00:42:16,1556642567,f3a316ae-2b2a-48de-861b-1ca7ec377997__pspm,http://pspm.pingstart.com/api/v4/postback?from=1706&clickid=f3a316ae-2b2a-48de-861b-1ca7ec377997__pspm,idfa_D734EFFD-D681-4690-AF52-64C51A4CBE2B,zh-Hant-TW
vfsQUKQ2Rb2OJ0Oe0o9iow,newborntown,p1855_8_1536_1071_13416_,Install,3.2,61.223.148.164,ABD29FEC-D210-4302-842F-5668A6ADE2EA,1556642173,2019-05-01 00:36:13,1556642213,2019-05-01 00:36:53,1556642243,789e37b2-a955-40ce-b9ea-d00dcce664b5__pspm,http://pspm.pingstart.com/api/v4/postback?from=1706&clickid=789e37b2-a955-40ce-b9ea-d00dcce664b5__pspm,idfa_ABD29FEC-D210-4302-842F-5668A6ADE2EA,zh-Hant-TW
vfsQUKQ2Rb2OJ0Oe0o9iow,newborntown,p1855_8_1536_1071_13416_,Install,3.2,1.175.142.8,D0E1E6E2-6B52-4A73-9AB9-7FC5D079C32A,1556642223,2019-05-01 00:37:03,1556642263,2019-05-01 00:37:43,1556642294,626c4ab2-530d-49fe-89df-7a9f70201a96__pspm,http://pspm.pingstart.com/api/v4/postback?from=1706&clickid=626c4ab2-530d-49fe-89df-7a9f70201a96__pspm,idfa_D0E1E6E2-6B52-4A73-9AB9-7FC5D079C32A,zh-Hant-TW
vfsQUKQ2Rb2OJ0Oe0o9iow,newborntown,p1855_8_1536_1071_13416_,Install,3.2,114.43.69.79,B65E315C-E6BC-4444-8F20-EB61EFDD6357,1556642261,2019-05-01 00:37:41,1556642311,2019-05-01 00:38:31,1556642345,8bc5b178-21c0-4122-8747-038b7bddf881__pspm,http://pspm.pingstart.com/api/v4/postback?from=1706&clickid=8bc5b178-21c0-4122-8747-038b7bddf881__pspm,idfa_B65E315C-E6BC-4444-8F20-EB61EFDD6357,zh-Hant-TW
vfsQUKQ2Rb2OJ0Oe0o9iow,newborntown,p1855_8_1536_1071_13416_,Install,3.2,36.224.6.77,9CD53296-8AB9-4249-8B2E-E02FF93FA8D2,1556641846,2019-05-01 00:30:46,1556641899,2019-05-01 00:31:39,1556641929,43e3957e-0733-4b9d-9c20-ab05235db1ed__pspm,http://pspm.pingstart.com/api/v4/postback?from=1706&clickid=43e3957e-0733-4b9d-9c20-ab05235db1ed__pspm,idfa_9CD53296-8AB9-4249-8B2E-E02FF93FA8D2,zh-Hant-TW
vfsQUKQ2Rb2OJ0Oe0o9iow,newborntown,p1855_8_1536_1071_13416_,Install,3.2,114.41.141.120,026FE9C2-8D8E-4580-9EC0-595F7EFBFCE2,1556641818,2019-05-01 00:30:18,1556641846,2019-05-01 00:30:46,1556641876,b66996c9-8aeb-4d63-a8ae-efdef9463438__pspm,http://pspm.pingstart.com/api/v4/postback?from=1706&clickid=b66996c9-8aeb-4d63-a8ae-efdef9463438__pspm,idfa_026FE9C2-8D8E-4580-9EC0-595F7EFBFCE2,zh-Hant-TW
vfsQUKQ2Rb2OJ0Oe0o9iow,newborntown,p1855_8_1536_1071_13416_,Install,3.2,36.227.86.173,048A0513-5AF1-49B5-9915-FD341967899E,1556642128,2019-05-01 00:35:28,1556642171,2019-05-01 00:36:11,1556642202,2ea90a14-0d50-4a72-a5f3-9790ec4aa71f__pspm,http://pspm.pingstart.com/api/v4/postback?from=1706&clickid=2ea90a14-0d50-4a72-a5f3-9790ec4aa71f__pspm,idfa_048A0513-5AF1-49B5-9915-FD341967899E,zh-Hant-TW
vfsQUKQ2Rb2OJ0Oe0o9iow,newborntown,p1855_8_1536_1071_13416_,Install,3.2,114.24.142.238,FE399CC7-2636-4E5D-A68C-6822D6B19844,1556641705,2019-05-01 00:28:25,1556641759,2019-05-01 00:29:19,1556641790,cabeb111-d9b2-46ea-9c08-d673725a6238__pspm,http://pspm.pingstart.com/api/v4/postback?from=1706&clickid=cabeb111-d9b2-46ea-9c08-d673725a6238__pspm,idfa_FE399CC7-2636-4E5D-A68C-6822D6B19844,zh-Hant-TW
vfsQUKQ2Rb2OJ0Oe0o9iow,newborntown,p1855_8_1536_1071_13416_,Install,3.2,61.228.185.148,A749D6A9-01FC-4DB7-B63F-1306067230F8,1556642301,2019-05-01 00:38:21,1556642329,2019-05-01 00:38:49,1556642359,4f0a9159-231b-4531-a701-7cd2b022c7d0__pspm,http://pspm.pingstart.com/api/v4/postback?from=1706&clickid=4f0a9159-231b-4531-a701-7cd2b022c7d0__pspm,idfa_A749D6A9-01FC-4DB7-B63F-1306067230F8,zh-Hant-TW
vfsQUKQ2Rb2OJ0Oe0o9iow,newborntown,p1855_8_1536_1071_13416_,Install,3.2,36.238.200.202,0AD0C41B-17E9-4594-BEEC-8FF1CED49528,1556642080,2019-05-01 00:34:40,1556642138,2019-05-01 00:35:38,1556642168,f14442b3-a3c3-45c3-a11a-32e854185ec6__pspm,http://pspm.pingstart.com/api/v4/postback?from=1706&clickid=f14442b3-a3c3-45c3-a11a-32e854185ec6__pspm,idfa_0AD0C41B-17E9-4594-BEEC-8FF1CED49528,zh-Hant-TW
vfsQUKQ2Rb2OJ0Oe0o9iow,newborntown,p1855_8_1536_1071_13416_,Install,3.2,111.242.53.127,E3F56524-2D95-44CF-ADC4-411F708F5EA8,1556642279,2019-05-01 00:37:59,1556642306,2019-05-01 00:38:26,1556642337,26082474-a4b1-46f5-b3f2-628a2d50e76c__pspm,http://pspm.pingstart.com/api/v4/postback?from=1706&clickid=26082474-a4b1-46f5-b3f2-628a2d50e76c__pspm,idfa_E3F56524-2D95-44CF-ADC4-411F708F5EA8,zh-Hant-TW
vfsQUKQ2Rb2OJ0Oe0o9iow,newborntown,p1855_8_1536_1071_13416_,Install,3.2,61.230.127.13,1CB5B5B6-01B6-47FB-AF2F-3538918BEFFD,1556641571,2019-05-01 00:26:11,1556641624,2019-05-01 00:27:04,1556641654,7a1a7616-db62-4861-9b72-4eb63e3c4c72__pspm,http://pspm.pingstart.com/api/v4/postback?from=1706&clickid=7a1a7616-db62-4861-9b72-4eb63e3c4c72__pspm,idfa_1CB5B5B6-01B6-47FB-AF2F-3538918BEFFD,zh-Hant-TW
vfsQUKQ2Rb2OJ0Oe0o9iow,newborntown,p1855_8_1536_1071_13416_,Install,3.2,114.27.4.149,AB895BDF-9E38-4408-9BA5-8B6347516792,1556641745,2019-05-01 00:29:05,1556641779,2019-05-01 00:29:39,1556641809,5e925a3c-a81a-4a8a-9879-3f8412ab3f90__pspm,http://pspm.pingstart.com/api/v4/postback?from=1706&clickid=5e925a3c-a81a-4a8a-9879-3f8412ab3f90__pspm,idfa_AB895BDF-9E38-4408-9BA5-8B6347516792,zh-Hant-TW
vfsQUKQ2Rb2OJ0Oe0o9iow,newborntown,p1855_8_1536_1071_13416_,Install,3.2,1.174.151.71,D4AF52D0-D962-4E2D-905D-C6B1E7A51035,1556641999,2019-05-01 00:33:19,1556642043,2019-05-01 00:34:03,1556642083,f4484344-a3d2-41e0-ae54-a7231c27f1a7__pspm,http://pspm.pingstart.com/api/v4/postback?from=1706&clickid=f4484344-a3d2-41e0-ae54-a7231c27f1a7__pspm,idfa_D4AF52D0-D962-4E2D-905D-C6B1E7A51035,zh-Hant-TW
vfsQUKQ2Rb2OJ0Oe0o9iow,newborntown,p1855_8_1536_1071_13416_,Install,3.2,1.168.192.110,667196CD-F5B2-425E-8B7B-0F572BBCE45F,1556641783,2019-05-01 00:29:43,1556641829,2019-05-01 00:30:29,1556641860,07bd0807-d24c-4ba6-99ba-a683db19362f__pspm,http://pspm.pingstart.com/api/v4/postback?from=1706&clickid=07bd0807-d24c-4ba6-99ba-a683db19362f__pspm,idfa_667196CD-F5B2-425E-8B7B-0F572BBCE45F,zh-Hant-TW
vfsQUKQ2Rb2OJ0Oe0o9iow,newborntown,p1855_8_1536_1071_13416_,Install,3.2,220.141.27.187,531F4FB4-144B-4499-979E-CF08B64D2CAC,1556642418,2019-05-01 00:40:18,1556642449,2019-05-01 00:40:49,1556642480,ae6532a8-042b-4c2c-ba5f-aab1c9ba25d6__pspm,http://pspm.pingstart.com/api/v4/postback?from=1706&clickid=ae6532a8-042b-4c2c-ba5f-aab1c9ba25d6__pspm,idfa_531F4FB4-144B-4499-979E-CF08B64D2CAC,zh-Hant-TW
vfsQUKQ2Rb2OJ0Oe0o9iow,newborntown,p1855_8_1536_1071_13416_,Install,3.2,114.24.98.104,F256BF70-5BA4-4483-BC25-9EABFB8591DC,1556642660,2019-05-01 00:44:20,1556642690,2019-05-01 00:44:50,1556642720,d49caabc-cfc9-4b1a-9b4e-9c9a13e6ccbb__pspm,http://pspm.pingstart.com/api/v4/postback?from=1706&clickid=d49caabc-cfc9-4b1a-9b4e-9c9a13e6ccbb__pspm,idfa_F256BF70-5BA4-4483-BC25-9EABFB8591DC,zh-Hant-TW
vfsQUKQ2Rb2OJ0Oe0o9iow,newborntown,p1855_8_1536_1071_13416_,Install,3.2,114.38.75.95,ECA31305-DE47-4649-A6F9-93D1872E4A22,1556642086,2019-05-01 00:34:46,1556642110,2019-05-01 00:35:10,1556642140,022cc214-965b-4e24-a4e7-78ae5a27e481__pspm,http://pspm.pingstart.com/api/v4/postback?from=1706&clickid=022cc214-965b-4e24-a4e7-78ae5a27e481__pspm,idfa_ECA31305-DE47-4649-A6F9-93D1872E4A22,zh-Hant-TW
vfsQUKQ2Rb2OJ0Oe0o9iow,newborntown,p1855_8_1536_1071_13416_,Install,3.2,111.251.5.37,0117BC79-E6F9-4EDE-BEFE-C14C1EF4DB3D,1556642563,2019-05-01 00:42:43,1556642599,2019-05-01 00:43:19,1556642629,74a7afd3-e72f-497d-a2b3-eb492cac9ebf__pspm,http://pspm.pingstart.com/api/v4/postback?from=1706&clickid=74a7afd3-e72f-497d-a2b3-eb492cac9ebf__pspm,idfa_0117BC79-E6F9-4EDE-BEFE-C14C1EF4DB3D,zh-Hant-TW
vfsQUKQ2Rb2OJ0Oe0o9iow,newborntown,p1855_8_1536_1071_13416_,Install,3.2,1.168.208.205,3E15F696-0D0B-4D9D-A840-3198D5F0EBF9,1556642662,2019-05-01 00:44:22,1556642709,2019-05-01 00:45:09,1556642739,102ef713-d4c4-44ee-93c0-3de12c89932c__pspm,http://pspm.pingstart.com/api/v4/postback?from=1706&clickid=102ef713-d4c4-44ee-93c0-3de12c89932c__pspm,idfa_3E15F696-0D0B-4D9D-A840-3198D5F0EBF9,zh-Hant-TW
vfsQUKQ2Rb2OJ0Oe0o9iow,newborntown,p1855_8_1536_1071_13416_,Install,3.2,114.42.42.171,800CA76D-311B-474A-BB2F-D2A1CE789313,1556642040,2019-05-01 00:34:00,1556642094,2019-05-01 00:34:54,1556642125,8e232199-297b-4409-80dc-67ed5cabe2ee__pspm,http://pspm.pingstart.com/api/v4/postback?from=1706&clickid=8e232199-297b-4409-80dc-67ed5cabe2ee__pspm,idfa_800CA76D-311B-474A-BB2F-D2A1CE789313,zh-Hant-TW
vfsQUKQ2Rb2OJ0Oe0o9iow,newborntown,p1855_8_1536_1071_13416_,Install,3.2,114.42.117.124,463AF5D4-52EB-4253-B83C-C4D62BBBF149,1556641566,2019-05-01 00:26:06,1556641628,2019-05-01 00:27:08,1556641659,f55c11f8-5d58-4167-997a-6f7a6f18502e__pspm,http://pspm.pingstart.com/api/v4/postback?from=1706&clickid=f55c11f8-5d58-4167-997a-6f7a6f18502e__pspm,idfa_463AF5D4-52EB-4253-B83C-C4D62BBBF149,zh-Hant-TW
vfsQUKQ2Rb2OJ0Oe0o9iow,newborntown,p1855_8_1536_1071_13416_,Install,3.2,36.234.179.6,B6AD078B-5885-412E-B328-6984BC7632F5,1556642357,2019-05-01 00:39:17,1556642399,2019-05-01 00:39:59,1556642429,a9d34f66-c4d7-41c6-876b-1098a13fc877__pspm,http://pspm.pingstart.com/api/v4/postback?from=1706&clickid=a9d34f66-c4d7-41c6-876b-1098a13fc877__pspm,idfa_B6AD078B-5885-412E-B328-6984BC7632F5,zh-Hant-TW
vfsQUKQ2Rb2OJ0Oe0o9iow,newborntown,p1855_8_1536_1071_13416_,Install,3.2,122.121.77.169,8E9D971B-967B-4775-B996-A6432237BE22,1556641704,2019-05-01 00:28:24,1556641753,2019-05-01 00:29:13,1556641783,30f8d7d1-b00b-4d59-aabf-5a0e9bf5ded5__pspm,http://pspm.pingstart.com/api/v4/postback?from=1706&clickid=30f8d7d1-b00b-4d59-aabf-5a0e9bf5ded5__pspm,idfa_8E9D971B-967B-4775-B996-A6432237BE22,zh-Hant-TW
vfsQUKQ2Rb2OJ0Oe0o9iow,newborntown,p1855_8_1536_1071_13416_,Install,3.2,114.36.141.22,1393E74F-9F30-44EC-8485-19680158BA5F,1556641915,2019-05-01 00:31:55,1556641983,2019-05-01 00:33:03,1556642014,ed4c79c0-4741-42b2-ac20-905ab9cd911b__pspm,http://pspm.pingstart.com/api/v4/postback?from=1706&clickid=ed4c79c0-4741-42b2-ac20-905ab9cd911b__pspm,idfa_1393E74F-9F30-44EC-8485-19680158BA5F,zh-Hant-TW
vfsQUKQ2Rb2OJ0Oe0o9iow,newborntown,p1855_8_1536_1071_13416_,Install,3.2,118.170.68.186,BC87B8F3-085E-4B55-B33A-5D64A0AB2369,1556641541,2019-05-01 00:25:41,1556641596,2019-05-01 00:26:36,1556641626,15718533-8b12-49a8-a46a-b3eff27e651b__pspm,http://pspm.pingstart.com/api/v4/postback?from=1706&clickid=15718533-8b12-49a8-a46a-b3eff27e651b__pspm,idfa_BC87B8F3-085E-4B55-B33A-5D64A0AB2369,zh-Hant-TW
vfsQUKQ2Rb2OJ0Oe0o9iow,newborntown,p1855_8_1536_1071_13416_,Install,3.2,118.163.97.19,03007569-2188-4A7C-AD87-448415D9670F,1556642580,2019-05-01 00:43:00,1556642607,2019-05-01 00:43:27,1556642637,35dec16d-90dd-4633-a397-b2c00224dcef__pspm,http://pspm.pingstart.com/api/v4/postback?from=1706&clickid=35dec16d-90dd-4633-a397-b2c00224dcef__pspm,idfa_03007569-2188-4A7C-AD87-448415D9670F,zh-Hant-TW
vfsQUKQ2Rb2OJ0Oe0o9iow,newborntown,p1855_8_1536_1071_13416_,Install,3.2,61.64.84.132,C989718E-CE28-4F63-8CBB-471D886FA35F,1556641513,2019-05-01 00:25:13,1556641549,2019-05-01 00:25:49,1556641579,b4d374ea-9758-4373-b3de-8588f2dcd9f3__pspm,http://pspm.pingstart.com/api/v4/postback?from=1706&clickid=b4d374ea-9758-4373-b3de-8588f2dcd9f3__pspm,idfa_C989718E-CE28-4F63-8CBB-471D886FA35F,zh-Hant-TW
vfsQUKQ2Rb2OJ0Oe0o9iow,newborntown,p1855_8_1536_1071_13416_,Install,3.2,61.227.1.164,4C56657B-D62C-4AB8-B2E4-7B7CAC6738AC,1556641941,2019-05-01 00:32:21,1556641985,2019-05-01 00:33:05,1556642015,6a77dcfe-afa8-416e-a14a-70dc19e0f7a8__pspm,http://pspm.pingstart.com/api/v4/postback?from=1706&clickid=6a77dcfe-afa8-416e-a14a-70dc19e0f7a8__pspm,idfa_4C56657B-D62C-4AB8-B2E4-7B7CAC6738AC,zh-Hant-TW
vfsQUKQ2Rb2OJ0Oe0o9iow,newborntown,p1855_8_1536_1071_13416_,Install,3.2,36.237.117.189,9C8F563D-52F1-452C-9D13-9EA3D7231BD5,1556642015,2019-05-01 00:33:35,1556642045,2019-05-01 00:34:05,1556642076,be0883ae-e3db-4ce0-b0fb-067b1a29b0ed__pspm,http://pspm.pingstart.com/api/v4/postback?from=1706&clickid=be0883ae-e3db-4ce0-b0fb-067b1a29b0ed__pspm,idfa_9C8F563D-52F1-452C-9D13-9EA3D7231BD5,zh-Hant-TW
