cid,partner_id,channel_id,action_id,cpi,ip,idfa,click time,click datetime,install time,install datetime,postback time,click id,postback url,unique user id
x8OUpO2oSN2jpeZ0isHMLg,newborntown,p1789_870-10525870,Install,1.15,140.213.59.120,029BCB54-1DB7-4D37-B074-52724573BB5B,1558742087,2019-05-25 07:54:47,1558742174,2019-05-25 07:56:14,1558742204,5f37c599-ee55-4ba8-a86e-efa362d50f55__pspm,http://pspm.pingstart.com/api/v4/postback?from=1706&clickid=5f37c599-ee55-4ba8-a86e-efa362d50f55__pspm,idfa_029BCB54-1DB7-4D37-B074-52724573BB5B,en
x8OUpO2oSN2jpeZ0isHMLg,newborntown,p1789_870-10525870,Install,1.15,118.137.60.245,C31CC1D8-C2F2-4F33-A5BE-1EC091A63B6B,1558744811,2019-05-25 08:40:11,1558744909,2019-05-25 08:41:49,1558744939,79dd2b45-f380-4d60-bcfc-f74c9481e5ae__pspm,http://pspm.pingstart.com/api/v4/postback?from=1706&clickid=79dd2b45-f380-4d60-bcfc-f74c9481e5ae__pspm,idfa_C31CC1D8-C2F2-4F33-A5BE-1EC091A63B6B,en
x8OUpO2oSN2jpeZ0isHMLg,newborntown,p1789_870-10525870,Install,1.15,222.124.121.227,09D9601D-D78F-47A0-8D25-9FDB9E20F48B,1558742937,2019-05-25 08:08:57,1558743024,2019-05-25 08:10:24,1558743054,faf56a7e-6cf3-4981-8f6d-ea9293e6ac1b__pspm,http://pspm.pingstart.com/api/v4/postback?from=1706&clickid=faf56a7e-6cf3-4981-8f6d-ea9293e6ac1b__pspm,idfa_09D9601D-D78F-47A0-8D25-9FDB9E20F48B,en
x8OUpO2oSN2jpeZ0isHMLg,newborntown,p1789_870-10525870,Install,1.15,36.91.190.3,CDAA3639-41E5-4168-BE75-D68C48FF583F,1558743311,2019-05-25 08:15:11,1558743409,2019-05-25 08:16:49,1558743441,010608d3-970d-4800-b9a0-692cb4c93a50__pspm,http://pspm.pingstart.com/api/v4/postback?from=1706&clickid=010608d3-970d-4800-b9a0-692cb4c93a50__pspm,idfa_CDAA3639-41E5-4168-BE75-D68C48FF583F,en
x8OUpO2oSN2jpeZ0isHMLg,newborntown,p1789_870-10525870,Install,1.15,202.182.53.205,19194270-721F-4B4C-8C05-5E4BE31CA0C1,1558742540,2019-05-25 08:02:20,1558742636,2019-05-25 08:03:56,1558742666,88ffbc7b-dc31-4da3-b1f0-e9a0df90aea7__pspm,http://pspm.pingstart.com/api/v4/postback?from=1706&clickid=88ffbc7b-dc31-4da3-b1f0-e9a0df90aea7__pspm,idfa_19194270-721F-4B4C-8C05-5E4BE31CA0C1,en
x8OUpO2oSN2jpeZ0isHMLg,newborntown,p1789_870-10525870,Install,1.15,180.250.166.10,693809D5-2C85-49E9-96D0-5BB2A8337ECD,1558745883,2019-05-25 08:58:03,1558745971,2019-05-25 08:59:31,1558746002,b9ff9772-425f-48b7-b59d-54c6a671c7ff__pspm,http://pspm.pingstart.com/api/v4/postback?from=1706&clickid=b9ff9772-425f-48b7-b59d-54c6a671c7ff__pspm,idfa_693809D5-2C85-49E9-96D0-5BB2A8337ECD,en
x8OUpO2oSN2jpeZ0isHMLg,newborntown,p1789_870-10525870,Install,1.15,36.65.163.67,E47B6105-AD4B-4444-900A-65A38926A563,1558741594,2019-05-25 07:46:34,1558741687,2019-05-25 07:48:07,1558741717,cd558c72-362d-48e5-8cb6-198ecc175629__pspm,http://pspm.pingstart.com/api/v4/postback?from=1706&clickid=cd558c72-362d-48e5-8cb6-198ecc175629__pspm,idfa_E47B6105-AD4B-4444-900A-65A38926A563,id
x8OUpO2oSN2jpeZ0isHMLg,newborntown,p1789_870-10525870,Install,1.15,36.92.18.141,89FDFA83-E84C-46B9-A2BB-05AA36261310,1558742568,2019-05-25 08:02:48,1558742655,2019-05-25 08:04:15,1558742685,6946f9ba-d111-400c-87b6-7e0b61e79e81__pspm,http://pspm.pingstart.com/api/v4/postback?from=1706&clickid=6946f9ba-d111-400c-87b6-7e0b61e79e81__pspm,idfa_89FDFA83-E84C-46B9-A2BB-05AA36261310,en
x8OUpO2oSN2jpeZ0isHMLg,newborntown,p1789_870-10525870,Install,1.15,139.192.20.81,5D54F214-350B-43FA-A969-36D48C8058A2,1558741867,2019-05-25 07:51:07,1558741966,2019-05-25 07:52:46,1558741996,a6c15399-96c1-45e6-9e79-5e1d2b153ebf__pspm,http://pspm.pingstart.com/api/v4/postback?from=1706&clickid=a6c15399-96c1-45e6-9e79-5e1d2b153ebf__pspm,idfa_5D54F214-350B-43FA-A969-36D48C8058A2,id
x8OUpO2oSN2jpeZ0isHMLg,newborntown,p1789_870-10525870,Install,1.15,118.99.106.22,18003FAE-A419-4CBE-B798-3CA07CB73F3D,1558743567,2019-05-25 08:19:27,1558743657,2019-05-25 08:20:57,1558743687,6d69aba9-a19a-406f-b405-8ba3ddf00fa4__pspm,http://pspm.pingstart.com/api/v4/postback?from=1706&clickid=6d69aba9-a19a-406f-b405-8ba3ddf00fa4__pspm,idfa_18003FAE-A419-4CBE-B798-3CA07CB73F3D,en
x8OUpO2oSN2jpeZ0isHMLg,newborntown,p1789_870-10525870,Install,1.15,158.140.165.22,16867FD7-867C-499C-A96E-81EC9D26C5AC,1558741322,2019-05-25 07:42:02,1558741418,2019-05-25 07:43:38,1558741448,5d0ff922-0a39-472a-add0-a876b2127872__pspm,http://pspm.pingstart.com/api/v4/postback?from=1706&clickid=5d0ff922-0a39-472a-add0-a876b2127872__pspm,idfa_16867FD7-867C-499C-A96E-81EC9D26C5AC,id
x8OUpO2oSN2jpeZ0isHMLg,newborntown,p1789_870-10525870,Install,1.15,125.165.159.107,1B7E872C-1D49-4E4A-B05A-8CDB104A9C19,1558742443,2019-05-25 08:00:43,1558742532,2019-05-25 08:02:12,1558742563,93ea693f-deed-4962-ae46-866d69be1eab__pspm,http://pspm.pingstart.com/api/v4/postback?from=1706&clickid=93ea693f-deed-4962-ae46-866d69be1eab__pspm,idfa_1B7E872C-1D49-4E4A-B05A-8CDB104A9C19,id
x8OUpO2oSN2jpeZ0isHMLg,newborntown,p1789_870-10525870,Install,1.15,180.253.38.5,D72C1D61-196E-4303-9A71-7C8FDDB1DA3C,1558742220,2019-05-25 07:57:00,1558742334,2019-05-25 07:58:54,1558742364,933b996c-d4d0-496e-96e8-1df2bf69291b__pspm,http://pspm.pingstart.com/api/v4/postback?from=1706&clickid=933b996c-d4d0-496e-96e8-1df2bf69291b__pspm,idfa_D72C1D61-196E-4303-9A71-7C8FDDB1DA3C,en
x8OUpO2oSN2jpeZ0isHMLg,newborntown,p1789_870-10525870,Install,1.15,202.154.180.171,3F5D856D-9161-447D-BE08-1B09FDD11780,1558743322,2019-05-25 08:15:22,1558743415,2019-05-25 08:16:55,1558743445,b96e9723-75f7-4c41-b50c-24c4a0da35c3__pspm,http://pspm.pingstart.com/api/v4/postback?from=1706&clickid=b96e9723-75f7-4c41-b50c-24c4a0da35c3__pspm,idfa_3F5D856D-9161-447D-BE08-1B09FDD11780,en
x8OUpO2oSN2jpeZ0isHMLg,newborntown,p1789_870-10525870,Install,1.15,110.139.169.186,5D023360-526C-40F2-9552-D38AA434B4E0,1558746278,2019-05-25 09:04:38,1558746365,2019-05-25 09:06:05,1558746395,32a88bb3-3d90-4488-a1db-ef30df80041f__pspm,http://pspm.pingstart.com/api/v4/postback?from=1706&clickid=32a88bb3-3d90-4488-a1db-ef30df80041f__pspm,idfa_5D023360-526C-40F2-9552-D38AA434B4E0,en
x8OUpO2oSN2jpeZ0isHMLg,newborntown,p1789_870-10525870,Install,1.15,36.79.83.254,EEDB1F5A-D6AF-408B-A15A-D5231EF278DB,1558744789,2019-05-25 08:39:49,1558744891,2019-05-25 08:41:31,1558744921,12df3d31-af31-4d4f-ba1e-bc88027f5444__pspm,http://pspm.pingstart.com/api/v4/postback?from=1706&clickid=12df3d31-af31-4d4f-ba1e-bc88027f5444__pspm,idfa_EEDB1F5A-D6AF-408B-A15A-D5231EF278DB,en
x8OUpO2oSN2jpeZ0isHMLg,newborntown,p1789_870-10525870,Install,1.15,36.73.126.91,3963977B-9B80-40AC-B759-3ED66C4C91EE,1558743358,2019-05-25 08:15:58,1558743460,2019-05-25 08:17:40,1558743491,f8809114-921e-4ce2-9a7a-9b7a4ca9c30b__pspm,http://pspm.pingstart.com/api/v4/postback?from=1706&clickid=f8809114-921e-4ce2-9a7a-9b7a4ca9c30b__pspm,idfa_3963977B-9B80-40AC-B759-3ED66C4C91EE,en
x8OUpO2oSN2jpeZ0isHMLg,newborntown,p1789_870-10525870,Install,1.15,110.136.27.186,05BB1042-5C3B-4947-9E60-97DFA9FF71BE,1558743268,2019-05-25 08:14:28,1558743383,2019-05-25 08:16:23,1558743413,c244fa62-099e-4486-9f17-e80562566ed6__pspm,http://pspm.pingstart.com/api/v4/postback?from=1706&clickid=c244fa62-099e-4486-9f17-e80562566ed6__pspm,idfa_05BB1042-5C3B-4947-9E60-97DFA9FF71BE,id
x8OUpO2oSN2jpeZ0isHMLg,newborntown,p1789_870-10525870,Install,1.15,118.99.106.54,79FC8DB4-6A68-42FB-8A98-2DF814A6044C,1558744068,2019-05-25 08:27:48,1558744165,2019-05-25 08:29:25,1558744195,be4bdd8e-8b0f-4431-83a9-485a44882482__pspm,http://pspm.pingstart.com/api/v4/postback?from=1706&clickid=be4bdd8e-8b0f-4431-83a9-485a44882482__pspm,idfa_79FC8DB4-6A68-42FB-8A98-2DF814A6044C,en
x8OUpO2oSN2jpeZ0isHMLg,newborntown,p1789_870-10525870,Install,1.15,125.166.171.31,226A4540-633E-4E0E-9A2E-A7C21982F43F,1558742800,2019-05-25 08:06:40,1558742884,2019-05-25 08:08:04,1558742914,74674f67-825d-4433-a1d0-515981e74ec4__pspm,http://pspm.pingstart.com/api/v4/postback?from=1706&clickid=74674f67-825d-4433-a1d0-515981e74ec4__pspm,idfa_226A4540-633E-4E0E-9A2E-A7C21982F43F,en
x8OUpO2oSN2jpeZ0isHMLg,newborntown,p1789_870-10525870,Install,1.15,36.82.96.50,F63BC0D6-76EC-4022-B6A7-FAA014A52F67,1558746560,2019-05-25 09:09:20,1558746662,2019-05-25 09:11:02,1558746693,c5718f6f-0bd8-456d-9f98-0fd02bd72a29__pspm,http://pspm.pingstart.com/api/v4/postback?from=1706&clickid=c5718f6f-0bd8-456d-9f98-0fd02bd72a29__pspm,idfa_F63BC0D6-76EC-4022-B6A7-FAA014A52F67,en
x8OUpO2oSN2jpeZ0isHMLg,newborntown,p1789_870-10525870,Install,1.15,180.254.96.166,88FCC195-EFFE-4776-9A1E-A016CF97AACD,1558745877,2019-05-25 08:57:57,1558745967,2019-05-25 08:59:27,1558745997,61f5f22c-7713-43c8-a18c-a2f0ba38fd12__pspm,http://pspm.pingstart.com/api/v4/postback?from=1706&clickid=61f5f22c-7713-43c8-a18c-a2f0ba38fd12__pspm,idfa_88FCC195-EFFE-4776-9A1E-A016CF97AACD,en
x8OUpO2oSN2jpeZ0isHMLg,newborntown,p1789_870-10525870,Install,1.15,36.65.171.196,529D2A37-1EF5-4966-998B-8BF3D9BC8949,1558746835,2019-05-25 09:13:55,1558746937,2019-05-25 09:15:37,1558746967,d93deddc-157d-4c9d-b279-9b65cf47b222__pspm,http://pspm.pingstart.com/api/v4/postback?from=1706&clickid=d93deddc-157d-4c9d-b279-9b65cf47b222__pspm,idfa_529D2A37-1EF5-4966-998B-8BF3D9BC8949,en
x8OUpO2oSN2jpeZ0isHMLg,newborntown,p1789_870-10525870,Install,1.15,110.138.224.184,345B1843-A724-477B-A73A-A0CB5BDB083A,1558743824,2019-05-25 08:23:44,1558743938,2019-05-25 08:25:38,1558743968,a7a16ef8-7244-490a-a3aa-a000d3765bcb__pspm,http://pspm.pingstart.com/api/v4/postback?from=1706&clickid=a7a16ef8-7244-490a-a3aa-a000d3765bcb__pspm,idfa_345B1843-A724-477B-A73A-A0CB5BDB083A,en
x8OUpO2oSN2jpeZ0isHMLg,newborntown,p1789_870-10525870,Install,1.15,180.254.154.196,CEEEC01B-05EB-4E11-BE7D-371F3BEB9C89,1558743571,2019-05-25 08:19:31,1558743659,2019-05-25 08:20:59,1558743689,6a4a02dd-83ca-4b4b-9ed3-4e19bc32e4c1__pspm,http://pspm.pingstart.com/api/v4/postback?from=1706&clickid=6a4a02dd-83ca-4b4b-9ed3-4e19bc32e4c1__pspm,idfa_CEEEC01B-05EB-4E11-BE7D-371F3BEB9C89,en
x8OUpO2oSN2jpeZ0isHMLg,newborntown,p1789_870-10525870,Install,1.15,180.250.251.170,0A3369B5-AFE0-449D-9023-12B4E82A850B,1558744099,2019-05-25 08:28:19,1558744195,2019-05-25 08:29:55,1558744225,fb3f0ac3-64ef-404c-a1b6-696a18ab09b3__pspm,http://pspm.pingstart.com/api/v4/postback?from=1706&clickid=fb3f0ac3-64ef-404c-a1b6-696a18ab09b3__pspm,idfa_0A3369B5-AFE0-449D-9023-12B4E82A850B,en
x8OUpO2oSN2jpeZ0isHMLg,newborntown,p1789_870-10525870,Install,1.15,139.194.210.202,2CD28381-3EC3-4B59-B063-B7DF753EA0B4,1558741048,2019-05-25 07:37:28,1558741147,2019-05-25 07:39:07,1558741177,fd33352d-a584-409b-bd62-aa0d2698d9be__pspm,http://pspm.pingstart.com/api/v4/postback?from=1706&clickid=fd33352d-a584-409b-bd62-aa0d2698d9be__pspm,idfa_2CD28381-3EC3-4B59-B063-B7DF753EA0B4,id
x8OUpO2oSN2jpeZ0isHMLg,newborntown,p1789_870-10525870,Install,1.15,180.249.200.116,98120AE8-C307-49AA-A7F8-CBBAF6D421D7,1558744059,2019-05-25 08:27:39,1558744155,2019-05-25 08:29:15,1558744185,12355645-398b-43ec-9b82-b90c5c180f0f__pspm,http://pspm.pingstart.com/api/v4/postback?from=1706&clickid=12355645-398b-43ec-9b82-b90c5c180f0f__pspm,idfa_98120AE8-C307-49AA-A7F8-CBBAF6D421D7,id
x8OUpO2oSN2jpeZ0isHMLg,newborntown,p1789_870-10525870,Install,1.15,111.95.111.89,B145369D-C10C-4523-AA4C-0833FA175AA1,1558741812,2019-05-25 07:50:12,1558741906,2019-05-25 07:51:46,1558741936,84f985fd-9101-4797-9eda-5ac9f22f74f5__pspm,http://pspm.pingstart.com/api/v4/postback?from=1706&clickid=84f985fd-9101-4797-9eda-5ac9f22f74f5__pspm,idfa_B145369D-C10C-4523-AA4C-0833FA175AA1,en
x8OUpO2oSN2jpeZ0isHMLg,newborntown,p1789_870-10525870,Install,1.15,36.90.2.85,1168A768-EFE2-45E5-A6F2-AD7638D46735,1558742983,2019-05-25 08:09:43,1558743070,2019-05-25 08:11:10,1558743101,3d01ded3-bb14-4e6b-8a1a-d48589382c13__pspm,http://pspm.pingstart.com/api/v4/postback?from=1706&clickid=3d01ded3-bb14-4e6b-8a1a-d48589382c13__pspm,idfa_1168A768-EFE2-45E5-A6F2-AD7638D46735,id
x8OUpO2oSN2jpeZ0isHMLg,newborntown,p1789_870-10525870,Install,1.15,103.69.197.1,3B8B6BBC-F4CF-42FD-8151-33D39B92E88E,1558744607,2019-05-25 08:36:47,1558744709,2019-05-25 08:38:29,1558744740,79e7eff9-b9fb-46d9-81be-811d1779b70b__pspm,http://pspm.pingstart.com/api/v4/postback?from=1706&clickid=79e7eff9-b9fb-46d9-81be-811d1779b70b__pspm,idfa_3B8B6BBC-F4CF-42FD-8151-33D39B92E88E,id
