cid,partner_id,channel_id,action_id,cpi,ip,idfa,click time,click datetime,install time,install datetime,postback time,click id,postback url,unique user id
QYSI17orTIGv4lpySsbxQQ,newborntown,p1599_1018_110800_6_7_625-13398,Install,1.7,122.42.4.59,9232B846-9324-41CF-8301-A848C102C4BF,1556749183,2019-05-02 06:19:43,1556749274,2019-05-02 06:21:14,1556749304,71a9a61d-eefd-437d-99d8-deec9360a236__pspm,http://pspm.pingstart.com/api/v4/postback?from=1706&clickid=71a9a61d-eefd-437d-99d8-deec9360a236__pspm,idfa_9232B846-9324-41CF-8301-A848C102C4BF,ko-KR
QYSI17orTIGv4lpySsbxQQ,newborntown,p1599_1018_110800_6_7_625-13398,Install,1.7,203.249.127.46,DCC517FC-F3A8-48E6-BDA7-0D85A01A4766,1556749139,2019-05-02 06:18:59,1556749232,2019-05-02 06:20:32,1556749263,19d10453-a933-4920-92eb-677fbdd64aed__pspm,http://pspm.pingstart.com/api/v4/postback?from=1706&clickid=19d10453-a933-4920-92eb-677fbdd64aed__pspm,idfa_DCC517FC-F3A8-48E6-BDA7-0D85A01A4766,ko-KR
QYSI17orTIGv4lpySsbxQQ,newborntown,p1599_1018_110800_6_7_625-13398,Install,1.7,110.9.96.146,0C7F14B1-741A-4623-911C-E1A4A3F15D95,1556749205,2019-05-02 06:20:05,1556749293,2019-05-02 06:21:33,1556749323,6d1677c4-4265-4332-8d5f-e0a9eea33f30__pspm,http://pspm.pingstart.com/api/v4/postback?from=1706&clickid=6d1677c4-4265-4332-8d5f-e0a9eea33f30__pspm,idfa_0C7F14B1-741A-4623-911C-E1A4A3F15D95,ko-KR
QYSI17orTIGv4lpySsbxQQ,newborntown,p1599_1018_110800_6_7_625-13398,Install,1.7,39.7.54.27,E39C3C42-E4FE-4CCC-A7CE-2D1FFDDAAF1E,1556749157,2019-05-02 06:19:17,1556749239,2019-05-02 06:20:39,1556749270,6dab7547-fd48-4b6b-b7f0-33c9d77397c4__pspm,http://pspm.pingstart.com/api/v4/postback?from=1706&clickid=6dab7547-fd48-4b6b-b7f0-33c9d77397c4__pspm,idfa_E39C3C42-E4FE-4CCC-A7CE-2D1FFDDAAF1E,ko-KR
QYSI17orTIGv4lpySsbxQQ,newborntown,p1599_1018_110903_5_7_741-13398,Install,1.7,61.79.24.136,564F51C8-1F93-49A6-AC6C-874E92C5732C,1556750936,2019-05-02 06:48:56,1556751057,2019-05-02 06:50:57,1556751088,fa6a1579-88a2-4118-a395-5a9bde62cd12__pspm,http://pspm.pingstart.com/api/v4/postback?from=1706&clickid=fa6a1579-88a2-4118-a395-5a9bde62cd12__pspm,idfa_564F51C8-1F93-49A6-AC6C-874E92C5732C,ko-KR
QYSI17orTIGv4lpySsbxQQ,newborntown,p1599_1018_110800_6_7_625-13398,Install,1.7,14.37.185.49,9C591CFF-B21D-4BE1-B6AE-0A4A78AE2ECA,1556749164,2019-05-02 06:19:24,1556749247,2019-05-02 06:20:47,1556749278,7de133f5-b396-4eee-8a9a-57f9f56c76da__pspm,http://pspm.pingstart.com/api/v4/postback?from=1706&clickid=7de133f5-b396-4eee-8a9a-57f9f56c76da__pspm,idfa_9C591CFF-B21D-4BE1-B6AE-0A4A78AE2ECA,ko-KR
QYSI17orTIGv4lpySsbxQQ,newborntown,p1599_1018_110903_5_7_741-13398,Install,1.7,14.34.33.122,6D44BEE8-38A4-492F-8E94-D3F5F9DCB7F7,1556764033,2019-05-02 10:27:13,1556764137,2019-05-02 10:28:57,1556764169,7fcebaf7-4d10-4aca-b43b-430d8e2dab53__pspm,http://pspm.pingstart.com/api/v4/postback?from=1706&clickid=7fcebaf7-4d10-4aca-b43b-430d8e2dab53__pspm,idfa_6D44BEE8-38A4-492F-8E94-D3F5F9DCB7F7,ko-KR
QYSI17orTIGv4lpySsbxQQ,newborntown,p1599_1018_110800_6_7_625-13398,Install,1.7,1.245.102.131,B68BC8D9-C287-4F4C-A482-D4D4BEF51097,1556749138,2019-05-02 06:18:58,1556749226,2019-05-02 06:20:26,1556749256,1d9cf119-9f50-4660-8b67-f798d82220ea__pspm,http://pspm.pingstart.com/api/v4/postback?from=1706&clickid=1d9cf119-9f50-4660-8b67-f798d82220ea__pspm,idfa_B68BC8D9-C287-4F4C-A482-D4D4BEF51097,ko-KR
QYSI17orTIGv4lpySsbxQQ,newborntown,p1599_1018_108646_10289_1256326,Install,1.7,61.43.153.120,38C5893E-0453-4417-B27E-AEFCF6ECDD21,1556726670,2019-05-02 00:04:30,1556726753,2019-05-02 00:05:53,1556726785,f89f8ca4-c5c7-4a31-ac98-504cf1a08ffe__pspm,http://pspm.pingstart.com/api/v4/postback?from=1706&clickid=f89f8ca4-c5c7-4a31-ac98-504cf1a08ffe__pspm,idfa_38C5893E-0453-4417-B27E-AEFCF6ECDD21,ko-KR
QYSI17orTIGv4lpySsbxQQ,newborntown,p1599_1018_111005_86s__10289_1256326,Install,1.7,182.219.204.105,6D28DF3D-E3F1-490E-BF8B-B5E7B087D86C,1556724491,2019-05-01 23:28:11,1556724569,2019-05-01 23:29:29,1556724600,a4720b4d-f287-471a-92d7-6fd0534b7e97__pspm,http://pspm.pingstart.com/api/v4/postback?from=1706&clickid=a4720b4d-f287-471a-92d7-6fd0534b7e97__pspm,idfa_6D28DF3D-E3F1-490E-BF8B-B5E7B087D86C,ko-KR
QYSI17orTIGv4lpySsbxQQ,newborntown,p1599_1018_110800_6_7_625-13398,Install,1.7,124.58.108.185,A4D41A72-B2CA-4D62-AE87-2392FEAA3DE2,1556749140,2019-05-02 06:19:00,1556749226,2019-05-02 06:20:26,1556749256,46adae1f-ff98-46e9-9b4e-7679b7a81a28__pspm,http://pspm.pingstart.com/api/v4/postback?from=1706&clickid=46adae1f-ff98-46e9-9b4e-7679b7a81a28__pspm,idfa_A4D41A72-B2CA-4D62-AE87-2392FEAA3DE2,ko-KR
QYSI17orTIGv4lpySsbxQQ,newborntown,p1599_1018_110800_6_7_625-13398,Install,1.7,175.196.210.2,4533AE18-FEDF-441C-A3F7-7F34FF946494,1556749134,2019-05-02 06:18:54,1556749223,2019-05-02 06:20:23,1556749254,c5a71ee2-4c03-4e57-969b-51eeba19d8b7__pspm,http://pspm.pingstart.com/api/v4/postback?from=1706&clickid=c5a71ee2-4c03-4e57-969b-51eeba19d8b7__pspm,idfa_4533AE18-FEDF-441C-A3F7-7F34FF946494,ko-KR
QYSI17orTIGv4lpySsbxQQ,newborntown,p1599_1018_103107_2507,Install,1.7,223.62.178.49,462FAD87-F5ED-4ED5-A882-EE471B1C6EAD,1556705042,2019-05-01 18:04:02,1556722809,2019-05-01 23:00:09,1556722840,a9f94d75-1b0a-4a9f-b796-4bd332d4f9e5__pspm,http://pspm.pingstart.com/api/v4/postback?from=1706&clickid=a9f94d75-1b0a-4a9f-b796-4bd332d4f9e5__pspm,idfa_462FAD87-F5ED-4ED5-A882-EE471B1C6EAD,ko-KR
QYSI17orTIGv4lpySsbxQQ,newborntown,p1599_1018_103107_32125229,Install,1.7,121.180.183.195,730D359C-99CE-4E43-8EE2-26B0679B7791,1556706912,2019-05-01 18:35:12,1556714059,2019-05-01 20:34:19,1556714090,b760fd53-d8df-42c1-aa07-19519976165a__pspm,http://pspm.pingstart.com/api/v4/postback?from=1706&clickid=b760fd53-d8df-42c1-aa07-19519976165a__pspm,idfa_730D359C-99CE-4E43-8EE2-26B0679B7791,ko-KR
QYSI17orTIGv4lpySsbxQQ,newborntown,p1599_1018_110800_6_7_625-13398,Install,1.7,14.34.244.51,30BB07A7-55C9-49AB-9025-44AC6719655D,1556748243,2019-05-02 06:04:03,1556748340,2019-05-02 06:05:40,1556748370,93750c74-9a6d-4a7c-b9b0-3badcd9b7399__pspm,http://pspm.pingstart.com/api/v4/postback?from=1706&clickid=93750c74-9a6d-4a7c-b9b0-3badcd9b7399__pspm,idfa_30BB07A7-55C9-49AB-9025-44AC6719655D,ko-KR
QYSI17orTIGv4lpySsbxQQ,newborntown,p1599_1018_110800_6_7_625-13398,Install,1.7,211.214.52.122,70856A56-8864-461E-8BD9-1DA5FA016517,1556749140,2019-05-02 06:19:00,1556749228,2019-05-02 06:20:28,1556749267,738000ce-961d-4cf8-bcbd-a4132e686efb__pspm,http://pspm.pingstart.com/api/v4/postback?from=1706&clickid=738000ce-961d-4cf8-bcbd-a4132e686efb__pspm,idfa_70856A56-8864-461E-8BD9-1DA5FA016517,ko-KR
QYSI17orTIGv4lpySsbxQQ,newborntown,p1599_1018_110800_6_7_625-13398,Install,1.7,1.247.73.144,E4B44741-1B7C-4A8B-8D5B-C300D85C0C44,1556749150,2019-05-02 06:19:10,1556749241,2019-05-02 06:20:41,1556749272,e2ac4a06-e964-4c46-bfb0-c54068d53fc8__pspm,http://pspm.pingstart.com/api/v4/postback?from=1706&clickid=e2ac4a06-e964-4c46-bfb0-c54068d53fc8__pspm,idfa_E4B44741-1B7C-4A8B-8D5B-C300D85C0C44,ko-KR
QYSI17orTIGv4lpySsbxQQ,newborntown,p1599_1018_110800_6_7_625-13398,Install,1.7,1.241.185.249,32FE2712-3283-459E-958E-91D5D0162913,1556749405,2019-05-02 06:23:25,1556749499,2019-05-02 06:24:59,1556749530,c20dfdb5-35dc-427b-aabb-2b9933274ef0__pspm,http://pspm.pingstart.com/api/v4/postback?from=1706&clickid=c20dfdb5-35dc-427b-aabb-2b9933274ef0__pspm,idfa_32FE2712-3283-459E-958E-91D5D0162913,ko-KR
QYSI17orTIGv4lpySsbxQQ,newborntown,p1599_1018_110800_6_7_625-13398,Install,1.7,218.156.213.29,6DD2732C-EE58-41B9-97DA-2322BDD43C0A,1556749145,2019-05-02 06:19:05,1556749231,2019-05-02 06:20:31,1556749262,718dc367-f49c-4509-8562-e7768e5e9f6e__pspm,http://pspm.pingstart.com/api/v4/postback?from=1706&clickid=718dc367-f49c-4509-8562-e7768e5e9f6e__pspm,idfa_6DD2732C-EE58-41B9-97DA-2322BDD43C0A,ko-KR
QYSI17orTIGv4lpySsbxQQ,newborntown,p1599_1018_110800_6_7_625-13398,Install,1.7,210.206.146.117,4F583921-E019-4724-B33A-E421037AFF70,1556749199,2019-05-02 06:19:59,1556749289,2019-05-02 06:21:29,1556749320,bc5a370d-8a11-40e8-b49e-531ae6487bd8__pspm,http://pspm.pingstart.com/api/v4/postback?from=1706&clickid=bc5a370d-8a11-40e8-b49e-531ae6487bd8__pspm,idfa_4F583921-E019-4724-B33A-E421037AFF70,ko-KR
QYSI17orTIGv4lpySsbxQQ,newborntown,p1599_1018_110800_6_7_625-13398,Install,1.7,210.103.59.79,43134CE3-DC5A-4EED-8C79-F5EB52BFD733,1556749244,2019-05-02 06:20:44,1556749341,2019-05-02 06:22:21,1556749372,4675a579-08a9-4579-a4e2-9b5760229ffa__pspm,http://pspm.pingstart.com/api/v4/postback?from=1706&clickid=4675a579-08a9-4579-a4e2-9b5760229ffa__pspm,idfa_43134CE3-DC5A-4EED-8C79-F5EB52BFD733,ko-KR
