cid,partner_id,channel_id,action_id,cpi,ip,idfa,click time,click datetime,install time,install datetime,postback time,click id,postback url,unique user id
PE9QXpHaQQKg5vd3vNReEQ,newborntown,p1855_7_961-10508961,Install,3.15,1.164.91.172,92DAF035-C4B5-4601-96B3-3AD2CAC144FC,1557329026,2019-05-08 23:23:46,1557329057,2019-05-08 23:24:17,1557329088,7b320893-7bd0-4a9a-852c-cec1268a4074__pspm,http://pspm.pingstart.com/api/v4/postback?from=1706&clickid=7b320893-7bd0-4a9a-852c-cec1268a4074__pspm,idfa_92DAF035-C4B5-4601-96B3-3AD2CAC144FC,zh-Hant-TW
PE9QXpHaQQKg5vd3vNReEQ,newborntown,p1855_7_961-10508961,Install,3.15,111.243.223.125,38449D28-313A-4C8D-B4D5-9A12A9D66BAA,1557329156,2019-05-08 23:25:56,1557329193,2019-05-08 23:26:33,1557329223,47d4ee62-082c-4ded-aa4c-4c17fb67bfac__pspm,http://pspm.pingstart.com/api/v4/postback?from=1706&clickid=47d4ee62-082c-4ded-aa4c-4c17fb67bfac__pspm,idfa_38449D28-313A-4C8D-B4D5-9A12A9D66BAA,zh-Hant-TW
PE9QXpHaQQKg5vd3vNReEQ,newborntown,p1855_7_961-10508961,Install,3.15,36.225.164.127,234114D2-6ABE-47B4-9C0A-4188142E01E9,1557328995,2019-05-08 23:23:15,1557329028,2019-05-08 23:23:48,1557329059,266630eb-61d8-43d3-8495-905703bdf110__pspm,http://pspm.pingstart.com/api/v4/postback?from=1706&clickid=266630eb-61d8-43d3-8495-905703bdf110__pspm,idfa_234114D2-6ABE-47B4-9C0A-4188142E01E9,zh-Hant-TW
PE9QXpHaQQKg5vd3vNReEQ,newborntown,p1855_7_961-10508961,Install,3.15,59.115.181.5,C4E57AE7-6504-4532-BE80-BD097FAF75E6,1557329147,2019-05-08 23:25:47,1557329196,2019-05-08 23:26:36,1557329226,01eb3b71-464f-42be-85f0-cf62b05c4fa6__pspm,http://pspm.pingstart.com/api/v4/postback?from=1706&clickid=01eb3b71-464f-42be-85f0-cf62b05c4fa6__pspm,idfa_C4E57AE7-6504-4532-BE80-BD097FAF75E6,zh-Hant-TW
PE9QXpHaQQKg5vd3vNReEQ,newborntown,p1855_7_961-10508961,Install,3.15,111.255.149.164,42A0E1FD-0E44-4773-B4BD-148E09C78BFC,1557329199,2019-05-08 23:26:39,1557329233,2019-05-08 23:27:13,1557329264,a4859502-6e84-4874-b655-cfd82c1c5693__pspm,http://pspm.pingstart.com/api/v4/postback?from=1706&clickid=a4859502-6e84-4874-b655-cfd82c1c5693__pspm,idfa_42A0E1FD-0E44-4773-B4BD-148E09C78BFC,zh-Hant-TW
PE9QXpHaQQKg5vd3vNReEQ,newborntown,p1855_7_961-10508961,Install,3.15,1.172.154.218,3310C2E4-B98A-4543-B4BD-A0D8A8CADA83,1557329121,2019-05-08 23:25:21,1557329184,2019-05-08 23:26:24,1557329215,92afa398-e5ce-4064-b6cb-09df52ab37c9__pspm,http://pspm.pingstart.com/api/v4/postback?from=1706&clickid=92afa398-e5ce-4064-b6cb-09df52ab37c9__pspm,idfa_3310C2E4-B98A-4543-B4BD-A0D8A8CADA83,zh-Hant-TW
PE9QXpHaQQKg5vd3vNReEQ,newborntown,p1855_7_961-10508961,Install,3.15,118.160.121.109,7104387E-A3EB-4038-8534-6E80BE18F239,1557328850,2019-05-08 23:20:50,1557328895,2019-05-08 23:21:35,1557328926,33cda18a-da94-4240-8f33-a582d274c430__pspm,http://pspm.pingstart.com/api/v4/postback?from=1706&clickid=33cda18a-da94-4240-8f33-a582d274c430__pspm,idfa_7104387E-A3EB-4038-8534-6E80BE18F239,zh-Hant-TW
PE9QXpHaQQKg5vd3vNReEQ,newborntown,p1855_7_961-10508961,Install,3.15,111.246.168.182,5E44B329-E962-445B-A323-7AEB5E6EFEC0,1557328660,2019-05-08 23:17:40,1557328734,2019-05-08 23:18:54,1557328765,592236f3-eb88-4cb9-a15a-1bcc58c0e38e__pspm,http://pspm.pingstart.com/api/v4/postback?from=1706&clickid=592236f3-eb88-4cb9-a15a-1bcc58c0e38e__pspm,idfa_5E44B329-E962-445B-A323-7AEB5E6EFEC0,zh-Hant-TW
PE9QXpHaQQKg5vd3vNReEQ,newborntown,p1855_7_961-10508961,Install,3.15,118.167.8.246,CAD578EE-E9BC-4E49-9C1E-680CBBB4C1C0,1557328675,2019-05-08 23:17:55,1557328711,2019-05-08 23:18:31,1557328743,7631847a-c53a-4b38-82b9-7857374f77f0__pspm,http://pspm.pingstart.com/api/v4/postback?from=1706&clickid=7631847a-c53a-4b38-82b9-7857374f77f0__pspm,idfa_CAD578EE-E9BC-4E49-9C1E-680CBBB4C1C0,zh-Hant-TW
PE9QXpHaQQKg5vd3vNReEQ,newborntown,p1855_7_961-10508961,Install,3.15,111.250.47.121,430E1359-F252-494F-86F6-D69A5C009F4B,1557328286,2019-05-08 23:11:26,1557328349,2019-05-08 23:12:29,1557328380,c37f38be-ae70-49de-9b1c-dc02e96c85f1__pspm,http://pspm.pingstart.com/api/v4/postback?from=1706&clickid=c37f38be-ae70-49de-9b1c-dc02e96c85f1__pspm,idfa_430E1359-F252-494F-86F6-D69A5C009F4B,zh-Hant-TW
PE9QXpHaQQKg5vd3vNReEQ,newborntown,p1855_7_961-10508961,Install,3.15,36.224.252.240,E029E508-7651-40B8-B9C5-229AECEDC3E0,1557328907,2019-05-08 23:21:47,1557328961,2019-05-08 23:22:41,1557328992,cc96f5b2-c579-4909-979e-58de42b3b834__pspm,http://pspm.pingstart.com/api/v4/postback?from=1706&clickid=cc96f5b2-c579-4909-979e-58de42b3b834__pspm,idfa_E029E508-7651-40B8-B9C5-229AECEDC3E0,zh-Hant-TW
PE9QXpHaQQKg5vd3vNReEQ,newborntown,p1855_7_961-10508961,Install,3.15,1.168.161.41,67136AD1-6262-46E5-BD89-0AADD0E7D32C,1557328568,2019-05-08 23:16:08,1557328598,2019-05-08 23:16:38,1557328628,09d5d621-c6b9-45f3-8800-5821a499b2cb__pspm,http://pspm.pingstart.com/api/v4/postback?from=1706&clickid=09d5d621-c6b9-45f3-8800-5821a499b2cb__pspm,idfa_67136AD1-6262-46E5-BD89-0AADD0E7D32C,zh-Hant-TW
PE9QXpHaQQKg5vd3vNReEQ,newborntown,p1855_7_961-10508961,Install,3.15,111.240.165.20,9BF6E673-BB0B-47A8-B882-D302FA25A2BD,1557329092,2019-05-08 23:24:52,1557329124,2019-05-08 23:25:24,1557329155,19ff7bfc-8578-4ed6-81da-85e57cc36a6a__pspm,http://pspm.pingstart.com/api/v4/postback?from=1706&clickid=19ff7bfc-8578-4ed6-81da-85e57cc36a6a__pspm,idfa_9BF6E673-BB0B-47A8-B882-D302FA25A2BD,zh-Hant-TW
PE9QXpHaQQKg5vd3vNReEQ,newborntown,p1855_7_961-10508961,Install,3.15,1.172.134.248,7765CD0F-587A-4C0A-A4F8-E0DECC41AB75,1557328459,2019-05-08 23:14:19,1557328489,2019-05-08 23:14:49,1557328519,439fb149-43ad-465f-8f8b-ea33a9c70209__pspm,http://pspm.pingstart.com/api/v4/postback?from=1706&clickid=439fb149-43ad-465f-8f8b-ea33a9c70209__pspm,idfa_7765CD0F-587A-4C0A-A4F8-E0DECC41AB75,zh-Hant-TW
PE9QXpHaQQKg5vd3vNReEQ,newborntown,p1855_7_961-10508961,Install,3.15,220.142.128.24,6F8B6581-9B96-4AD4-AEFE-CA4426B7F9CA,1557329050,2019-05-08 23:24:10,1557329086,2019-05-08 23:24:46,1557329117,7e26803d-1d37-44ef-a2e3-66c702244f9e__pspm,http://pspm.pingstart.com/api/v4/postback?from=1706&clickid=7e26803d-1d37-44ef-a2e3-66c702244f9e__pspm,idfa_6F8B6581-9B96-4AD4-AEFE-CA4426B7F9CA,zh-Hant-TW
PE9QXpHaQQKg5vd3vNReEQ,newborntown,p1855_7_961-10508961,Install,3.15,111.240.138.50,E11C612D-2D55-4F21-84EA-F193C7FF60A4,1557328642,2019-05-08 23:17:22,1557328682,2019-05-08 23:18:02,1557328713,ccacda66-5030-443b-8814-f906a40da666__pspm,http://pspm.pingstart.com/api/v4/postback?from=1706&clickid=ccacda66-5030-443b-8814-f906a40da666__pspm,idfa_E11C612D-2D55-4F21-84EA-F193C7FF60A4,zh-Hant-TW
PE9QXpHaQQKg5vd3vNReEQ,newborntown,p1855_7_961-10508961,Install,3.15,118.161.190.42,B30BE6CB-314F-45CE-98F8-611ACACB7E6B,1557328740,2019-05-08 23:19:00,1557328769,2019-05-08 23:19:29,1557328890,313ead7e-78bb-428f-a74e-0fef66f5cb31__pspm,http://pspm.pingstart.com/api/v4/postback?from=1706&clickid=313ead7e-78bb-428f-a74e-0fef66f5cb31__pspm,idfa_B30BE6CB-314F-45CE-98F8-611ACACB7E6B,zh-Hant-TW
PE9QXpHaQQKg5vd3vNReEQ,newborntown,p1855_7_961-10508961,Install,3.15,118.170.59.167,F32D77DE-6F61-4F3F-80D0-ED1E708DD00D,1557328820,2019-05-08 23:20:20,1557328872,2019-05-08 23:21:12,1557328919,ff0e50cd-47fd-4d3e-924f-2ec5542955bc__pspm,http://pspm.pingstart.com/api/v4/postback?from=1706&clickid=ff0e50cd-47fd-4d3e-924f-2ec5542955bc__pspm,idfa_F32D77DE-6F61-4F3F-80D0-ED1E708DD00D,zh-Hant-TW
PE9QXpHaQQKg5vd3vNReEQ,newborntown,p1855_7_961-10508961,Install,3.15,1.164.131.121,156D872A-4C6C-4392-92EC-7E923DCA5E5B,1557328726,2019-05-08 23:18:46,1557328755,2019-05-08 23:19:15,1557328794,508d511d-eae1-4a58-9e24-ebafe1b6fa6b__pspm,http://pspm.pingstart.com/api/v4/postback?from=1706&clickid=508d511d-eae1-4a58-9e24-ebafe1b6fa6b__pspm,idfa_156D872A-4C6C-4392-92EC-7E923DCA5E5B,zh-Hant-TW
PE9QXpHaQQKg5vd3vNReEQ,newborntown,p1855_7_961-10508961,Install,3.15,1.161.161.226,72F44D9C-8E5F-468D-A756-56DDA2A563EA,1557329090,2019-05-08 23:24:50,1557329124,2019-05-08 23:25:24,1557329154,65f8c411-2685-467e-96e8-12f3dc6319c5__pspm,http://pspm.pingstart.com/api/v4/postback?from=1706&clickid=65f8c411-2685-467e-96e8-12f3dc6319c5__pspm,idfa_72F44D9C-8E5F-468D-A756-56DDA2A563EA,zh-Hant-TW
PE9QXpHaQQKg5vd3vNReEQ,newborntown,p1855_7_961-10508961,Install,3.15,114.42.129.42,BE8C5D73-4980-46D1-8AD8-1112F83AC70B,1557328794,2019-05-08 23:19:54,1557328837,2019-05-08 23:20:37,1557328868,9bdeca8d-c1ea-4954-946e-10d77a89f0a2__pspm,http://pspm.pingstart.com/api/v4/postback?from=1706&clickid=9bdeca8d-c1ea-4954-946e-10d77a89f0a2__pspm,idfa_BE8C5D73-4980-46D1-8AD8-1112F83AC70B,zh-Hant-TW
PE9QXpHaQQKg5vd3vNReEQ,newborntown,p1855_7_961-10508961,Install,3.15,111.255.80.64,25D392FF-52E2-46A2-8E0F-F2678CE1274A,1557328658,2019-05-08 23:17:38,1557328694,2019-05-08 23:18:14,1557328728,4b62e706-4b9e-4d31-8c81-a2a8edd3b914__pspm,http://pspm.pingstart.com/api/v4/postback?from=1706&clickid=4b62e706-4b9e-4d31-8c81-a2a8edd3b914__pspm,idfa_25D392FF-52E2-46A2-8E0F-F2678CE1274A,zh-Hant-TW
PE9QXpHaQQKg5vd3vNReEQ,newborntown,p1855_7_961-10508961,Install,3.15,114.39.188.228,1CB4DAAB-7AC1-41CC-96FF-C5F8446C3571,1557329179,2019-05-08 23:26:19,1557329210,2019-05-08 23:26:50,1557329241,b3e3aad3-58af-4558-937b-a449ce62e155__pspm,http://pspm.pingstart.com/api/v4/postback?from=1706&clickid=b3e3aad3-58af-4558-937b-a449ce62e155__pspm,idfa_1CB4DAAB-7AC1-41CC-96FF-C5F8446C3571,zh-Hant-TW
PE9QXpHaQQKg5vd3vNReEQ,newborntown,p1855_7_961-10508961,Install,3.15,118.170.40.74,9AED59B6-CBB5-4772-9C20-8B18973F957E,1557328376,2019-05-08 23:12:56,1557328408,2019-05-08 23:13:28,1557328444,c1df1c1c-593d-4462-85cc-edc0de810bec__pspm,http://pspm.pingstart.com/api/v4/postback?from=1706&clickid=c1df1c1c-593d-4462-85cc-edc0de810bec__pspm,idfa_9AED59B6-CBB5-4772-9C20-8B18973F957E,zh-Hant-TW
PE9QXpHaQQKg5vd3vNReEQ,newborntown,p1855_7_961-10508961,Install,3.15,118.167.13.65,E9C7FDEB-9D4F-4EFC-9814-2C70F29ED368,1557328722,2019-05-08 23:18:42,1557328751,2019-05-08 23:19:11,1557328821,e67e261f-6ed9-40c1-8f60-1a9cbda9a8f6__pspm,http://pspm.pingstart.com/api/v4/postback?from=1706&clickid=e67e261f-6ed9-40c1-8f60-1a9cbda9a8f6__pspm,idfa_E9C7FDEB-9D4F-4EFC-9814-2C70F29ED368,zh-Hant-TW
PE9QXpHaQQKg5vd3vNReEQ,newborntown,p1855_7_961-10508961,Install,3.15,111.249.101.167,B07CE7B7-1FF0-4013-BB7A-A6F6E43513D3,1557329017,2019-05-08 23:23:37,1557329053,2019-05-08 23:24:13,1557329084,70d3cfe0-54e2-45db-83a0-cc37b195ecdf__pspm,http://pspm.pingstart.com/api/v4/postback?from=1706&clickid=70d3cfe0-54e2-45db-83a0-cc37b195ecdf__pspm,idfa_B07CE7B7-1FF0-4013-BB7A-A6F6E43513D3,zh-Hant-TW
PE9QXpHaQQKg5vd3vNReEQ,newborntown,p1855_7_961-10508961,Install,3.15,203.70.51.100,D400E2DC-FAA6-40CE-92E4-51F660FB1EE6,1557328690,2019-05-08 23:18:10,1557328732,2019-05-08 23:18:52,1557328763,e1e07d2d-c889-459f-b891-4c044b3d7f2f__pspm,http://pspm.pingstart.com/api/v4/postback?from=1706&clickid=e1e07d2d-c889-459f-b891-4c044b3d7f2f__pspm,idfa_D400E2DC-FAA6-40CE-92E4-51F660FB1EE6,zh-Hant-TW
PE9QXpHaQQKg5vd3vNReEQ,newborntown,p1855_7_961-10508961,Install,3.15,36.233.142.248,0F98CF6E-75BD-4096-AEF5-932B070BAE2E,1557328589,2019-05-08 23:16:29,1557328620,2019-05-08 23:17:00,1557328651,f4e4e9d8-3596-4854-9e95-fabfa811bf97__pspm,http://pspm.pingstart.com/api/v4/postback?from=1706&clickid=f4e4e9d8-3596-4854-9e95-fabfa811bf97__pspm,idfa_0F98CF6E-75BD-4096-AEF5-932B070BAE2E,zh-Hant-TW
PE9QXpHaQQKg5vd3vNReEQ,newborntown,p1855_7_961-10508961,Install,3.15,218.187.84.175,50E8CC84-E0D9-402B-B66B-71874079D756,1557328976,2019-05-08 23:22:56,1557329008,2019-05-08 23:23:28,1557329067,2535fd7d-c23b-4469-944b-c266c780b116__pspm,http://pspm.pingstart.com/api/v4/postback?from=1706&clickid=2535fd7d-c23b-4469-944b-c266c780b116__pspm,idfa_50E8CC84-E0D9-402B-B66B-71874079D756,zh-Hant-TW
PE9QXpHaQQKg5vd3vNReEQ,newborntown,p1855_7_961-10508961,Install,3.15,114.43.177.250,DC8111CB-8ED1-416E-9A48-544CF160CC1C,1557328827,2019-05-08 23:20:27,1557328891,2019-05-08 23:21:31,1557328922,2d965ad8-a3ef-4737-9fcb-be1f673b7fd8__pspm,http://pspm.pingstart.com/api/v4/postback?from=1706&clickid=2d965ad8-a3ef-4737-9fcb-be1f673b7fd8__pspm,idfa_DC8111CB-8ED1-416E-9A48-544CF160CC1C,zh-Hant-TW
PE9QXpHaQQKg5vd3vNReEQ,newborntown,p1855_7_961-10508961,Install,3.15,118.160.96.16,99ACCBB0-6BF3-453D-A8D0-DD259DE350EC,1557328694,2019-05-08 23:18:14,1557328726,2019-05-08 23:18:46,1557328758,f737a978-0b11-4ae1-85ae-f93685d2b8f0__pspm,http://pspm.pingstart.com/api/v4/postback?from=1706&clickid=f737a978-0b11-4ae1-85ae-f93685d2b8f0__pspm,idfa_99ACCBB0-6BF3-453D-A8D0-DD259DE350EC,zh-Hant-TW
PE9QXpHaQQKg5vd3vNReEQ,newborntown,p1855_7_961-10508961,Install,3.15,111.253.112.229,61375E98-EE32-479E-B9B1-38D4CA6DC2D6,1557328796,2019-05-08 23:19:56,1557328847,2019-05-08 23:20:47,1557328879,acfcc64f-05ce-431f-8547-e9f37ed14f61__pspm,http://pspm.pingstart.com/api/v4/postback?from=1706&clickid=acfcc64f-05ce-431f-8547-e9f37ed14f61__pspm,idfa_61375E98-EE32-479E-B9B1-38D4CA6DC2D6,zh-Hant-TW
PE9QXpHaQQKg5vd3vNReEQ,newborntown,p1855_7_961-10508961,Install,3.15,1.174.80.107,F9887BF1-1103-44C2-9100-EBE590468EF0,1557328384,2019-05-08 23:13:04,1557328442,2019-05-08 23:14:02,1557328674,63b2873f-be85-41af-a6bb-d04e9ce60970__pspm,http://pspm.pingstart.com/api/v4/postback?from=1706&clickid=63b2873f-be85-41af-a6bb-d04e9ce60970__pspm,idfa_F9887BF1-1103-44C2-9100-EBE590468EF0,zh-Hant-TW
PE9QXpHaQQKg5vd3vNReEQ,newborntown,p1855_7_961-10508961,Install,3.15,1.162.102.157,6014CB2E-EC1F-48DA-AE21-FFBE71AC67CC,1557328829,2019-05-08 23:20:29,1557328861,2019-05-08 23:21:01,1557328892,130c10a5-261c-4788-bdad-ae1a93fb931c__pspm,http://pspm.pingstart.com/api/v4/postback?from=1706&clickid=130c10a5-261c-4788-bdad-ae1a93fb931c__pspm,idfa_6014CB2E-EC1F-48DA-AE21-FFBE71AC67CC,zh-Hant-TW
PE9QXpHaQQKg5vd3vNReEQ,newborntown,p1855_7_961-10508961,Install,3.15,1.169.45.205,1AAC490E-8525-4827-AE1D-FEED8D8BDEF6,1557329265,2019-05-08 23:27:45,1557329297,2019-05-08 23:28:17,1557329328,0abaf224-78ee-4f00-b333-770b8eb2a71f__pspm,http://pspm.pingstart.com/api/v4/postback?from=1706&clickid=0abaf224-78ee-4f00-b333-770b8eb2a71f__pspm,idfa_1AAC490E-8525-4827-AE1D-FEED8D8BDEF6,zh-Hant-TW
PE9QXpHaQQKg5vd3vNReEQ,newborntown,p1855_7_961-10508961,Install,3.15,114.44.4.63,BC238286-4FCD-448E-A282-0F40B71BFE1F,1557328457,2019-05-08 23:14:17,1557328562,2019-05-08 23:16:02,1557328592,29a5643d-f416-4e14-b30d-041b9eee4ca2__pspm,http://pspm.pingstart.com/api/v4/postback?from=1706&clickid=29a5643d-f416-4e14-b30d-041b9eee4ca2__pspm,idfa_BC238286-4FCD-448E-A282-0F40B71BFE1F,zh-Hant-TW
PE9QXpHaQQKg5vd3vNReEQ,newborntown,p1855_7_961-10508961,Install,3.15,114.43.109.57,6494946D-F9B6-4087-A2C3-6DD659FCE3E3,1557328652,2019-05-08 23:17:32,1557328684,2019-05-08 23:18:04,1557328718,6a6d1f2c-ebdf-4a38-953a-9a586b6a81c1__pspm,http://pspm.pingstart.com/api/v4/postback?from=1706&clickid=6a6d1f2c-ebdf-4a38-953a-9a586b6a81c1__pspm,idfa_6494946D-F9B6-4087-A2C3-6DD659FCE3E3,zh-Hant-TW
PE9QXpHaQQKg5vd3vNReEQ,newborntown,p1855_7_961-10508961,Install,3.15,111.255.161.145,C1D3F323-7772-4BDF-964C-0B16FFD1A563,1557328986,2019-05-08 23:23:06,1557329023,2019-05-08 23:23:43,1557329055,077cd042-c202-42ba-b8fe-bd1768deeb47__pspm,http://pspm.pingstart.com/api/v4/postback?from=1706&clickid=077cd042-c202-42ba-b8fe-bd1768deeb47__pspm,idfa_C1D3F323-7772-4BDF-964C-0B16FFD1A563,zh-Hant-TW
PE9QXpHaQQKg5vd3vNReEQ,newborntown,p1855_7_961-10508961,Install,3.15,118.170.70.166,4E00638D-146C-4352-9563-9086CEDD6B91,1557328350,2019-05-08 23:12:30,1557328383,2019-05-08 23:13:03,1557328413,fad0efe8-afc4-40e4-bfb2-67249deddbf7__pspm,http://pspm.pingstart.com/api/v4/postback?from=1706&clickid=fad0efe8-afc4-40e4-bfb2-67249deddbf7__pspm,idfa_4E00638D-146C-4352-9563-9086CEDD6B91,zh-Hant-TW
PE9QXpHaQQKg5vd3vNReEQ,newborntown,p1855_7_961-10508961,Install,3.15,114.36.128.47,506D0A79-E678-4995-9E93-41C43122CABB,1557329176,2019-05-08 23:26:16,1557329214,2019-05-08 23:26:54,1557329245,404ad4d9-718e-4676-bcb7-7357796d0649__pspm,http://pspm.pingstart.com/api/v4/postback?from=1706&clickid=404ad4d9-718e-4676-bcb7-7357796d0649__pspm,idfa_506D0A79-E678-4995-9E93-41C43122CABB,zh-Hant-TW
PE9QXpHaQQKg5vd3vNReEQ,newborntown,p1855_7_961-10508961,Install,3.15,114.27.12.15,8B930A91-1B7B-422D-BC70-6E6BEA1E1E20,1557328431,2019-05-08 23:13:51,1557328472,2019-05-08 23:14:32,1557328503,8478b486-fee5-4e44-841a-3866441987f2__pspm,http://pspm.pingstart.com/api/v4/postback?from=1706&clickid=8478b486-fee5-4e44-841a-3866441987f2__pspm,idfa_8B930A91-1B7B-422D-BC70-6E6BEA1E1E20,zh-Hant-TW
PE9QXpHaQQKg5vd3vNReEQ,newborntown,p1855_7_961-10508961,Install,3.15,118.169.171.53,D33E6A34-E7B7-4768-9D87-8901242043CB,1557328994,2019-05-08 23:23:14,1557329031,2019-05-08 23:23:51,1557329061,595c99c0-5212-4541-ad9b-6790aad88cd6__pspm,http://pspm.pingstart.com/api/v4/postback?from=1706&clickid=595c99c0-5212-4541-ad9b-6790aad88cd6__pspm,idfa_D33E6A34-E7B7-4768-9D87-8901242043CB,zh-Hant-TW
PE9QXpHaQQKg5vd3vNReEQ,newborntown,p1855_7_961-10508961,Install,3.15,36.235.147.29,545D9106-5653-4209-B708-0BB764746A15,1557328906,2019-05-08 23:21:46,1557328944,2019-05-08 23:22:24,1557328974,fff7c58a-386f-40de-9304-6ad4599f37f7__pspm,http://pspm.pingstart.com/api/v4/postback?from=1706&clickid=fff7c58a-386f-40de-9304-6ad4599f37f7__pspm,idfa_545D9106-5653-4209-B708-0BB764746A15,zh-Hant-TW
PE9QXpHaQQKg5vd3vNReEQ,newborntown,p1855_7_961-10508961,Install,3.15,61.62.252.132,335E915F-2434-48E7-863E-039528D11031,1557328575,2019-05-08 23:16:15,1557328609,2019-05-08 23:16:49,1557328650,19b09730-451d-41f7-8f8c-0d384aeaf27f__pspm,http://pspm.pingstart.com/api/v4/postback?from=1706&clickid=19b09730-451d-41f7-8f8c-0d384aeaf27f__pspm,idfa_335E915F-2434-48E7-863E-039528D11031,zh-Hant-TW
PE9QXpHaQQKg5vd3vNReEQ,newborntown,p1855_7_961-10508961,Install,3.15,125.231.222.37,ED7AE492-5F92-4895-9CCD-F11B8C36D930,1557328939,2019-05-08 23:22:19,1557328971,2019-05-08 23:22:51,1557329001,bf7e868d-3550-4978-9c66-02a95b3380d2__pspm,http://pspm.pingstart.com/api/v4/postback?from=1706&clickid=bf7e868d-3550-4978-9c66-02a95b3380d2__pspm,idfa_ED7AE492-5F92-4895-9CCD-F11B8C36D930,zh-Hant-TW
PE9QXpHaQQKg5vd3vNReEQ,newborntown,p1855_7_961-10508961,Install,3.15,61.228.51.108,95598507-50F2-49F3-97C4-6BAEA0C2A5D0,1557328543,2019-05-08 23:15:43,1557328590,2019-05-08 23:16:30,1557328633,6b7ac129-ffc7-4bb3-90bd-33531d710c66__pspm,http://pspm.pingstart.com/api/v4/postback?from=1706&clickid=6b7ac129-ffc7-4bb3-90bd-33531d710c66__pspm,idfa_95598507-50F2-49F3-97C4-6BAEA0C2A5D0,zh-Hant-TW
PE9QXpHaQQKg5vd3vNReEQ,newborntown,p1855_7_961-10508961,Install,3.15,118.169.208.226,CE748EB4-6718-4902-9E0D-A1A7AA2BDF2B,1557329217,2019-05-08 23:26:57,1557329265,2019-05-08 23:27:45,1557329298,4138686b-2e61-43ee-9383-2770e22e57e0__pspm,http://pspm.pingstart.com/api/v4/postback?from=1706&clickid=4138686b-2e61-43ee-9383-2770e22e57e0__pspm,idfa_CE748EB4-6718-4902-9E0D-A1A7AA2BDF2B,zh-Hant-TW
PE9QXpHaQQKg5vd3vNReEQ,newborntown,p1855_7_961-10508961,Install,3.15,1.161.51.139,91038EDF-8FFE-46B9-A9A9-D73CB6E5C7B6,1557329090,2019-05-08 23:24:50,1557329116,2019-05-08 23:25:16,1557329152,52cf5cb7-06b7-4592-9e63-164ce45865db__pspm,http://pspm.pingstart.com/api/v4/postback?from=1706&clickid=52cf5cb7-06b7-4592-9e63-164ce45865db__pspm,idfa_91038EDF-8FFE-46B9-A9A9-D73CB6E5C7B6,zh-Hant-TW
PE9QXpHaQQKg5vd3vNReEQ,newborntown,p1855_7_961-10508961,Install,3.15,125.230.2.74,2613C552-425C-4616-8657-8614E305AFD7,1557328617,2019-05-08 23:16:57,1557328664,2019-05-08 23:17:44,1557328695,a8dd014b-364d-4fa1-b7f9-d0c42dc46396__pspm,http://pspm.pingstart.com/api/v4/postback?from=1706&clickid=a8dd014b-364d-4fa1-b7f9-d0c42dc46396__pspm,idfa_2613C552-425C-4616-8657-8614E305AFD7,zh-Hant-TW
PE9QXpHaQQKg5vd3vNReEQ,newborntown,p1855_7_961-10508961,Install,3.15,61.227.86.28,E5B1E960-4CC8-4562-AE2D-FB9AA25F30A9,1557329041,2019-05-08 23:24:01,1557329079,2019-05-08 23:24:39,1557329110,bdfbdfdc-f4dd-46ba-8a10-fb42c12dfa35__pspm,http://pspm.pingstart.com/api/v4/postback?from=1706&clickid=bdfbdfdc-f4dd-46ba-8a10-fb42c12dfa35__pspm,idfa_E5B1E960-4CC8-4562-AE2D-FB9AA25F30A9,zh-Hant-TW
PE9QXpHaQQKg5vd3vNReEQ,newborntown,p1855_7_961-10508961,Install,3.15,111.249.51.81,572C8388-FA70-4BD7-A76E-C3D8AE1108D5,1557328906,2019-05-08 23:21:46,1557328941,2019-05-08 23:22:21,1557329024,06492bb0-6529-4d48-a9a8-ec3005a1aa6e__pspm,http://pspm.pingstart.com/api/v4/postback?from=1706&clickid=06492bb0-6529-4d48-a9a8-ec3005a1aa6e__pspm,idfa_572C8388-FA70-4BD7-A76E-C3D8AE1108D5,zh-Hant-TW
PE9QXpHaQQKg5vd3vNReEQ,newborntown,p1855_7_961-10508961,Install,3.15,36.231.216.59,CEE00F48-EC8C-40F5-AAC7-1803E57B2731,1557328499,2019-05-08 23:14:59,1557328536,2019-05-08 23:15:36,1557328567,495b8406-b461-421e-97a9-c8983e28da3c__pspm,http://pspm.pingstart.com/api/v4/postback?from=1706&clickid=495b8406-b461-421e-97a9-c8983e28da3c__pspm,idfa_CEE00F48-EC8C-40F5-AAC7-1803E57B2731,zh-Hant-TW
PE9QXpHaQQKg5vd3vNReEQ,newborntown,p1855_7_961-10508961,Install,3.15,1.160.140.126,A77C6C11-33CD-4C03-9616-B1E5E6A1E68E,1557328888,2019-05-08 23:21:28,1557328926,2019-05-08 23:22:06,1557328956,33a489d9-ecc1-4dc1-875e-0564f0f6634c__pspm,http://pspm.pingstart.com/api/v4/postback?from=1706&clickid=33a489d9-ecc1-4dc1-875e-0564f0f6634c__pspm,idfa_A77C6C11-33CD-4C03-9616-B1E5E6A1E68E,zh-Hant-TW
PE9QXpHaQQKg5vd3vNReEQ,newborntown,p1855_7_961-10508961,Install,3.15,118.171.182.13,FF454F9B-6110-4083-ABB7-E242AA2C0F68,1557328748,2019-05-08 23:19:08,1557328785,2019-05-08 23:19:45,1557328816,90996af2-4ee3-4204-b029-4c1c193d477f__pspm,http://pspm.pingstart.com/api/v4/postback?from=1706&clickid=90996af2-4ee3-4204-b029-4c1c193d477f__pspm,idfa_FF454F9B-6110-4083-ABB7-E242AA2C0F68,zh-Hant-TW
PE9QXpHaQQKg5vd3vNReEQ,newborntown,p1855_7_961-10508961,Install,3.15,218.173.81.182,3E85B21E-8A08-41D2-94C0-3666A92EAA57,1557328776,2019-05-08 23:19:36,1557328804,2019-05-08 23:20:04,1557328835,d9e94295-fbb8-412d-9d0f-9700cd7bc714__pspm,http://pspm.pingstart.com/api/v4/postback?from=1706&clickid=d9e94295-fbb8-412d-9d0f-9700cd7bc714__pspm,idfa_3E85B21E-8A08-41D2-94C0-3666A92EAA57,zh-Hant-TW
PE9QXpHaQQKg5vd3vNReEQ,newborntown,p1855_7_961-10508961,Install,3.15,36.229.160.62,3BB071A2-0E5E-431A-BDDC-3D3323037742,1557328857,2019-05-08 23:20:57,1557328894,2019-05-08 23:21:34,1557328924,2c150bfb-e4ac-43f3-a723-b93453c2045e__pspm,http://pspm.pingstart.com/api/v4/postback?from=1706&clickid=2c150bfb-e4ac-43f3-a723-b93453c2045e__pspm,idfa_3BB071A2-0E5E-431A-BDDC-3D3323037742,zh-Hant-TW
PE9QXpHaQQKg5vd3vNReEQ,newborntown,p1855_7_961-10508961,Install,3.15,114.47.225.165,9BEEED10-1438-4401-B01E-4726D6330740,1557328807,2019-05-08 23:20:07,1557328843,2019-05-08 23:20:43,1557328874,cbca060c-565a-4f4d-a50a-855f27945610__pspm,http://pspm.pingstart.com/api/v4/postback?from=1706&clickid=cbca060c-565a-4f4d-a50a-855f27945610__pspm,idfa_9BEEED10-1438-4401-B01E-4726D6330740,zh-Hant-TW
PE9QXpHaQQKg5vd3vNReEQ,newborntown,p1855_7_961-10508961,Install,3.15,1.169.7.45,431E9DAA-55CB-4CF7-A68C-A7017A032D3E,1557329223,2019-05-08 23:27:03,1557329255,2019-05-08 23:27:35,1557329286,4f0c7382-fb73-41ce-9942-952d704e9852__pspm,http://pspm.pingstart.com/api/v4/postback?from=1706&clickid=4f0c7382-fb73-41ce-9942-952d704e9852__pspm,idfa_431E9DAA-55CB-4CF7-A68C-A7017A032D3E,zh-Hant-TW
PE9QXpHaQQKg5vd3vNReEQ,newborntown,p1855_7_961-10508961,Install,3.15,1.165.63.145,866816DB-58CD-400D-8176-653896F52A5C,1557329143,2019-05-08 23:25:43,1557329174,2019-05-08 23:26:14,1557329204,cc86ce5b-05f0-4912-9ff6-7ed25eef15b8__pspm,http://pspm.pingstart.com/api/v4/postback?from=1706&clickid=cc86ce5b-05f0-4912-9ff6-7ed25eef15b8__pspm,idfa_866816DB-58CD-400D-8176-653896F52A5C,zh-Hant-TW
PE9QXpHaQQKg5vd3vNReEQ,newborntown,p1855_7_961-10508961,Install,3.15,1.171.209.208,2DF10CD7-485F-4FB9-881E-923A4853CAF3,1557328426,2019-05-08 23:13:46,1557328484,2019-05-08 23:14:44,1557328515,eb260881-d070-4c51-8090-76f1eb42adc9__pspm,http://pspm.pingstart.com/api/v4/postback?from=1706&clickid=eb260881-d070-4c51-8090-76f1eb42adc9__pspm,idfa_2DF10CD7-485F-4FB9-881E-923A4853CAF3,zh-Hant-TW
PE9QXpHaQQKg5vd3vNReEQ,newborntown,p1855_7_961-10508961,Install,3.15,1.168.224.135,CF36123A-16D9-4408-9007-07E2342AF6FC,1557328706,2019-05-08 23:18:26,1557328755,2019-05-08 23:19:15,1557328794,39c2529d-b9a3-4880-acb4-a980be1bf34a__pspm,http://pspm.pingstart.com/api/v4/postback?from=1706&clickid=39c2529d-b9a3-4880-acb4-a980be1bf34a__pspm,idfa_CF36123A-16D9-4408-9007-07E2342AF6FC,zh-Hant-TW
PE9QXpHaQQKg5vd3vNReEQ,newborntown,p1855_7_961-10508961,Install,3.15,59.115.46.60,74CACB56-7B4D-4BD7-8647-51B14E6465C3,1557328930,2019-05-08 23:22:10,1557328971,2019-05-08 23:22:51,1557329002,e3728b3b-14e3-47c1-a27d-5d081fc707e6__pspm,http://pspm.pingstart.com/api/v4/postback?from=1706&clickid=e3728b3b-14e3-47c1-a27d-5d081fc707e6__pspm,idfa_74CACB56-7B4D-4BD7-8647-51B14E6465C3,zh-Hant-TW
PE9QXpHaQQKg5vd3vNReEQ,newborntown,p1855_7_961-10508961,Install,3.15,118.167.134.14,727C8BC1-83E1-404D-9771-347D63313C44,1557329177,2019-05-08 23:26:17,1557329214,2019-05-08 23:26:54,1557329245,88fc9513-5a51-4e34-a72e-c68f1568abf8__pspm,http://pspm.pingstart.com/api/v4/postback?from=1706&clickid=88fc9513-5a51-4e34-a72e-c68f1568abf8__pspm,idfa_727C8BC1-83E1-404D-9771-347D63313C44,zh-Hant-TW
PE9QXpHaQQKg5vd3vNReEQ,newborntown,p1855_7_961-10508961,Install,3.15,61.223.18.168,55CC3BFA-17E2-46C5-B6A5-7EB296EEF354,1557328636,2019-05-08 23:17:16,1557328673,2019-05-08 23:17:53,1557328704,656eb745-fc20-499f-b050-6b0022aec30c__pspm,http://pspm.pingstart.com/api/v4/postback?from=1706&clickid=656eb745-fc20-499f-b050-6b0022aec30c__pspm,idfa_55CC3BFA-17E2-46C5-B6A5-7EB296EEF354,zh-Hant-TW
PE9QXpHaQQKg5vd3vNReEQ,newborntown,p1855_7_961-10508961,Install,3.15,1.172.78.58,8A61FC24-A69F-42C9-8233-FBF3F7C97C6B,1557328931,2019-05-08 23:22:11,1557328969,2019-05-08 23:22:49,1557329000,7dd79211-cbbf-428b-a5f2-3c28f79bc03c__pspm,http://pspm.pingstart.com/api/v4/postback?from=1706&clickid=7dd79211-cbbf-428b-a5f2-3c28f79bc03c__pspm,idfa_8A61FC24-A69F-42C9-8233-FBF3F7C97C6B,zh-Hant-TW
PE9QXpHaQQKg5vd3vNReEQ,newborntown,p1855_7_961-10508961,Install,3.15,1.174.40.91,72B56DDF-7719-48F2-A5FB-30C2F7689A75,1557328346,2019-05-08 23:12:26,1557328386,2019-05-08 23:13:06,1557328417,7d9b0a5e-2813-478e-ac93-d49e79368a5c__pspm,http://pspm.pingstart.com/api/v4/postback?from=1706&clickid=7d9b0a5e-2813-478e-ac93-d49e79368a5c__pspm,idfa_72B56DDF-7719-48F2-A5FB-30C2F7689A75,zh-Hant-TW
PE9QXpHaQQKg5vd3vNReEQ,newborntown,p1855_7_961-10508961,Install,3.15,111.240.181.202,42CC6391-E63E-41EA-96B6-B4A24FFBBF0E,1557329060,2019-05-08 23:24:20,1557329090,2019-05-08 23:24:50,1557329121,887c7f7b-7fd8-4086-877d-3910ae4975f6__pspm,http://pspm.pingstart.com/api/v4/postback?from=1706&clickid=887c7f7b-7fd8-4086-877d-3910ae4975f6__pspm,idfa_42CC6391-E63E-41EA-96B6-B4A24FFBBF0E,zh-Hant-TW
PE9QXpHaQQKg5vd3vNReEQ,newborntown,p1855_7_961-10508961,Install,3.15,118.168.19.236,63F36AB2-A8AA-46B2-9E52-F748CC5E07D1,1557328739,2019-05-08 23:18:59,1557328781,2019-05-08 23:19:41,1557328811,38ea367c-e355-4add-bdd8-a7b84456128f__pspm,http://pspm.pingstart.com/api/v4/postback?from=1706&clickid=38ea367c-e355-4add-bdd8-a7b84456128f__pspm,idfa_63F36AB2-A8AA-46B2-9E52-F748CC5E07D1,zh-Hant-TW
PE9QXpHaQQKg5vd3vNReEQ,newborntown,p1855_7_961-10508961,Install,3.15,111.250.42.21,3FB9C1EB-0E1F-4ABA-921D-400C405D2BF6,1557328982,2019-05-08 23:23:02,1557329017,2019-05-08 23:23:37,1557329047,b0d1dced-b837-42c8-98d0-a58fe99d3e0c__pspm,http://pspm.pingstart.com/api/v4/postback?from=1706&clickid=b0d1dced-b837-42c8-98d0-a58fe99d3e0c__pspm,idfa_3FB9C1EB-0E1F-4ABA-921D-400C405D2BF6,zh-Hant-TW
PE9QXpHaQQKg5vd3vNReEQ,newborntown,p1855_7_961-10508961,Install,3.15,114.44.5.161,71F2D1DC-2407-4C0B-A839-AC1CA7C312F4,1557329112,2019-05-08 23:25:12,1557329145,2019-05-08 23:25:45,1557329176,4967539f-74ff-4136-94a1-4c14584cf1db__pspm,http://pspm.pingstart.com/api/v4/postback?from=1706&clickid=4967539f-74ff-4136-94a1-4c14584cf1db__pspm,idfa_71F2D1DC-2407-4C0B-A839-AC1CA7C312F4,zh-Hant-TW
PE9QXpHaQQKg5vd3vNReEQ,newborntown,p1855_7_961-10508961,Install,3.15,111.250.15.196,A9B95D2C-377A-477C-9FA4-A8FEA410F86F,1557329155,2019-05-08 23:25:55,1557329189,2019-05-08 23:26:29,1557329220,ae002775-e1e5-4081-ba23-82e9090d11ae__pspm,http://pspm.pingstart.com/api/v4/postback?from=1706&clickid=ae002775-e1e5-4081-ba23-82e9090d11ae__pspm,idfa_A9B95D2C-377A-477C-9FA4-A8FEA410F86F,zh-Hant-TW
PE9QXpHaQQKg5vd3vNReEQ,newborntown,p1855_7_961-10508961,Install,3.15,118.166.214.41,94493A47-2B01-4249-A466-B8A299555F2F,1557328937,2019-05-08 23:22:17,1557328970,2019-05-08 23:22:50,1557329000,ba64e2f3-125c-4b64-b211-289bd6fd60b3__pspm,http://pspm.pingstart.com/api/v4/postback?from=1706&clickid=ba64e2f3-125c-4b64-b211-289bd6fd60b3__pspm,idfa_94493A47-2B01-4249-A466-B8A299555F2F,zh-Hant-TW
PE9QXpHaQQKg5vd3vNReEQ,newborntown,p1855_7_961-10508961,Install,3.15,111.250.42.183,001A692B-6511-41D4-9A06-2881FC01C336,1557328851,2019-05-08 23:20:51,1557328895,2019-05-08 23:21:35,1557328925,77a39f6b-5d17-42e3-b042-34ddf730d951__pspm,http://pspm.pingstart.com/api/v4/postback?from=1706&clickid=77a39f6b-5d17-42e3-b042-34ddf730d951__pspm,idfa_001A692B-6511-41D4-9A06-2881FC01C336,zh-Hant-TW
PE9QXpHaQQKg5vd3vNReEQ,newborntown,p1855_7_961-10508961,Install,3.15,1.163.141.114,121E50FB-97A8-4957-B9E5-73473555AC89,1557329000,2019-05-08 23:23:20,1557329042,2019-05-08 23:24:02,1557329072,9e6f9fd3-07f9-48e4-aed4-8cd87f6b71a3__pspm,http://pspm.pingstart.com/api/v4/postback?from=1706&clickid=9e6f9fd3-07f9-48e4-aed4-8cd87f6b71a3__pspm,idfa_121E50FB-97A8-4957-B9E5-73473555AC89,zh-Hant-TW
PE9QXpHaQQKg5vd3vNReEQ,newborntown,p1855_7_961-10508961,Install,3.15,118.163.135.17,DE8EF936-9747-4C4E-AA60-8EB1B53F4F63,1557328455,2019-05-08 23:14:15,1557328479,2019-05-08 23:14:39,1557328510,40b4de96-fd08-4620-8ae5-bf657dd9a694__pspm,http://pspm.pingstart.com/api/v4/postback?from=1706&clickid=40b4de96-fd08-4620-8ae5-bf657dd9a694__pspm,idfa_DE8EF936-9747-4C4E-AA60-8EB1B53F4F63,zh-Hant-TW
PE9QXpHaQQKg5vd3vNReEQ,newborntown,p1855_7_961-10508961,Install,3.15,114.26.67.142,D92D6474-ABDA-4E32-AA60-FF28EC68ECDE,1557328642,2019-05-08 23:17:22,1557328690,2019-05-08 23:18:10,1557328723,0e7ce8a4-5360-4d26-b422-7e2de6851789__pspm,http://pspm.pingstart.com/api/v4/postback?from=1706&clickid=0e7ce8a4-5360-4d26-b422-7e2de6851789__pspm,idfa_D92D6474-ABDA-4E32-AA60-FF28EC68ECDE,zh-Hant-TW
PE9QXpHaQQKg5vd3vNReEQ,newborntown,p1855_7_961-10508961,Install,3.15,111.241.138.144,47E03126-F0C8-42E7-AF70-297E48581949,1557329133,2019-05-08 23:25:33,1557329165,2019-05-08 23:26:05,1557329196,f9a098c9-af88-472d-92aa-749b2408bbc8__pspm,http://pspm.pingstart.com/api/v4/postback?from=1706&clickid=f9a098c9-af88-472d-92aa-749b2408bbc8__pspm,idfa_47E03126-F0C8-42E7-AF70-297E48581949,zh-Hant-TW
