cid,partner_id,channel_id,action_id,cpi,ip,idfa,click time,click datetime,install time,install datetime,postback time,click id,postback url,unique user id
2m95ijYPSpqQxILfyxebkQ,newborntown,p1776_122_9527,Install,0.465,,488d97ac-513d-469d-a4f4-8e51732fd2c4,1558506850,2019-05-22 14:34:10,1558506898,2019-05-22 14:34:58,1558506929,d91778bc-5c3e-4e67-8527-ec7056720dae__pspm,http://pspm.pingstart.com/api/v4/postback?from=1706&clickid=d91778bc-5c3e-4e67-8527-ec7056720dae__pspm,idfa_488d97ac-513d-469d-a4f4-8e51732fd2c4,Indonesia
2m95ijYPSpqQxILfyxebkQ,newborntown,p1776_122_9527,Install,0.465,,cfb7ddb9-0751-4e9c-919f-4babad746ebc,1558506915,2019-05-22 14:35:15,1558506957,2019-05-22 14:35:57,1558506999,01b6a023-6515-46f4-b08e-6cb17e27c745__pspm,http://pspm.pingstart.com/api/v4/postback?from=1706&clickid=01b6a023-6515-46f4-b08e-6cb17e27c745__pspm,idfa_cfb7ddb9-0751-4e9c-919f-4babad746ebc,Indonesia
2m95ijYPSpqQxILfyxebkQ,newborntown,p1776_122_9527,Install,0.465,,ca0840aa-6034-4afc-8e0e-a4e0f544c869,1558506848,2019-05-22 14:34:08,1558506885,2019-05-22 14:34:45,1558506915,e02f4f76-d391-487c-a919-3d931b54d9f3__pspm,http://pspm.pingstart.com/api/v4/postback?from=1706&clickid=e02f4f76-d391-487c-a919-3d931b54d9f3__pspm,idfa_ca0840aa-6034-4afc-8e0e-a4e0f544c869,Bahasa%20Indonesia
2m95ijYPSpqQxILfyxebkQ,newborntown,p1776_122_9527,Install,0.465,,c56163e9-a74f-42c7-a5ca-956d01c1cb5f,1558507149,2019-05-22 14:39:09,1558507190,2019-05-22 14:39:50,1558507221,74ead4aa-604c-4750-8dfd-42518a02cd44__pspm,http://pspm.pingstart.com/api/v4/postback?from=1706&clickid=74ead4aa-604c-4750-8dfd-42518a02cd44__pspm,idfa_c56163e9-a74f-42c7-a5ca-956d01c1cb5f,Indonesia
2m95ijYPSpqQxILfyxebkQ,newborntown,p1776_122_9527,Install,0.465,,84ae6c1d-1f5d-44a6-a502-944fe77f9a0f,1558506971,2019-05-22 14:36:11,1558507010,2019-05-22 14:36:50,1558507041,de61881c-d331-4bc4-b795-9055c79d574f__pspm,http://pspm.pingstart.com/api/v4/postback?from=1706&clickid=de61881c-d331-4bc4-b795-9055c79d574f__pspm,idfa_84ae6c1d-1f5d-44a6-a502-944fe77f9a0f,Indonesia
2m95ijYPSpqQxILfyxebkQ,newborntown,p1776_122_9527,Install,0.465,,7b2707ad-0670-4a8f-a8e0-c971f9d4fe56,1558506847,2019-05-22 14:34:07,1558506887,2019-05-22 14:34:47,1558506918,bf4dfd40-4468-4751-835f-923d9665ed94__pspm,http://pspm.pingstart.com/api/v4/postback?from=1706&clickid=bf4dfd40-4468-4751-835f-923d9665ed94__pspm,idfa_7b2707ad-0670-4a8f-a8e0-c971f9d4fe56,Indonesia
2m95ijYPSpqQxILfyxebkQ,newborntown,p1776_122_9527,Install,0.465,,e42d7a4c-9cfd-4170-af3a-dcbf812eabd5,1558506907,2019-05-22 14:35:07,1558506950,2019-05-22 14:35:50,1558506981,3e521cf4-4298-4591-82ae-b268d39b5a5b__pspm,http://pspm.pingstart.com/api/v4/postback?from=1706&clickid=3e521cf4-4298-4591-82ae-b268d39b5a5b__pspm,idfa_e42d7a4c-9cfd-4170-af3a-dcbf812eabd5,Bahasa%20Indonesia
2m95ijYPSpqQxILfyxebkQ,newborntown,p1776_122_9527,Install,0.465,,3d2610c0-854c-4a40-931c-c5675fa6e9ac,1558507156,2019-05-22 14:39:16,1558507196,2019-05-22 14:39:56,1558507227,9a97a1d5-60ea-4782-b88d-b32484b9045b__pspm,http://pspm.pingstart.com/api/v4/postback?from=1706&clickid=9a97a1d5-60ea-4782-b88d-b32484b9045b__pspm,idfa_3d2610c0-854c-4a40-931c-c5675fa6e9ac,Indonesia
2m95ijYPSpqQxILfyxebkQ,newborntown,p1776_122_9527,Install,0.465,,2fdefab6-3096-401f-9977-fc1d5071b26a,1558507151,2019-05-22 14:39:11,1558507197,2019-05-22 14:39:57,1558507228,53f0e090-5485-48c3-8c61-e8873fb0c0e2__pspm,http://pspm.pingstart.com/api/v4/postback?from=1706&clickid=53f0e090-5485-48c3-8c61-e8873fb0c0e2__pspm,idfa_2fdefab6-3096-401f-9977-fc1d5071b26a,Bahasa%20Indonesia
2m95ijYPSpqQxILfyxebkQ,newborntown,p1776_122_9527,Install,0.465,,30980a84-3ea4-42e3-901b-4ec08206c90e,1558507034,2019-05-22 14:37:14,1558507078,2019-05-22 14:37:58,1558507109,732c8f69-9a8f-4f95-a790-2904460dd0bc__pspm,http://pspm.pingstart.com/api/v4/postback?from=1706&clickid=732c8f69-9a8f-4f95-a790-2904460dd0bc__pspm,idfa_30980a84-3ea4-42e3-901b-4ec08206c90e,Indonesia
2m95ijYPSpqQxILfyxebkQ,newborntown,p1776_122_9527,Install,0.465,,f5956ab7-7b9b-4eef-92cc-1a593b3bb949,1558507032,2019-05-22 14:37:12,1558507078,2019-05-22 14:37:58,1558507108,ae9b2ad5-ae14-45ba-9ac3-0ed065aecc16__pspm,http://pspm.pingstart.com/api/v4/postback?from=1706&clickid=ae9b2ad5-ae14-45ba-9ac3-0ed065aecc16__pspm,idfa_f5956ab7-7b9b-4eef-92cc-1a593b3bb949,English
2m95ijYPSpqQxILfyxebkQ,newborntown,p1776_122_9527,Install,0.465,,d030e081-285a-448f-ab24-1e432aacb689,1558507027,2019-05-22 14:37:07,1558507069,2019-05-22 14:37:49,1558507099,fb3198f3-4f97-44b0-8885-0d248817dca3__pspm,http://pspm.pingstart.com/api/v4/postback?from=1706&clickid=fb3198f3-4f97-44b0-8885-0d248817dca3__pspm,idfa_d030e081-285a-448f-ab24-1e432aacb689,Indonesia
2m95ijYPSpqQxILfyxebkQ,newborntown,p1776_122_9527,Install,0.465,,610fff45-0156-4a32-8826-8ef381ba2315,1558507094,2019-05-22 14:38:14,1558507128,2019-05-22 14:38:48,1558507159,7fe57026-d893-4bed-82a4-7a67c519f719__pspm,http://pspm.pingstart.com/api/v4/postback?from=1706&clickid=7fe57026-d893-4bed-82a4-7a67c519f719__pspm,idfa_610fff45-0156-4a32-8826-8ef381ba2315,English
2m95ijYPSpqQxILfyxebkQ,newborntown,p1776_122_9527,Install,0.465,,54b19ba0-c6ef-4f68-9229-7acdf1c8a395,1558506914,2019-05-22 14:35:14,1558506957,2019-05-22 14:35:57,1558506988,36c940e4-4063-48a9-9631-f2b01fbe041d__pspm,http://pspm.pingstart.com/api/v4/postback?from=1706&clickid=36c940e4-4063-48a9-9631-f2b01fbe041d__pspm,idfa_54b19ba0-c6ef-4f68-9229-7acdf1c8a395,Bahasa%20Indonesia
2m95ijYPSpqQxILfyxebkQ,newborntown,p1776_122_9527,Install,0.465,,36e1a976-504b-4af9-94fa-962be6a228bc,1558505903,2019-05-22 14:18:23,1558506115,2019-05-22 14:21:55,1558506145,1686c850-db4a-4426-80ad-a7e80f84dd0f__pspm,http://pspm.pingstart.com/api/v4/postback?from=1706&clickid=1686c850-db4a-4426-80ad-a7e80f84dd0f__pspm,idfa_36e1a976-504b-4af9-94fa-962be6a228bc,Indonesia
2m95ijYPSpqQxILfyxebkQ,newborntown,p1776_122_9527,Install,0.465,,8f347387-37f5-4724-bf43-e620a028b847,1558506910,2019-05-22 14:35:10,1558506949,2019-05-22 14:35:49,1558506980,783bbe68-b19e-4af9-a950-34fecb7b885c__pspm,http://pspm.pingstart.com/api/v4/postback?from=1706&clickid=783bbe68-b19e-4af9-a950-34fecb7b885c__pspm,idfa_8f347387-37f5-4724-bf43-e620a028b847,Indonesia
2m95ijYPSpqQxILfyxebkQ,newborntown,p1776_122_9527,Install,0.465,,e251b8f5-7e3a-4beb-9d5d-4dd86f134dbe,1558506015,2019-05-22 14:20:15,1558506054,2019-05-22 14:20:54,1558506087,94a31f49-b64f-4b32-b8c8-53a426cc93d2__pspm,http://pspm.pingstart.com/api/v4/postback?from=1706&clickid=94a31f49-b64f-4b32-b8c8-53a426cc93d2__pspm,idfa_e251b8f5-7e3a-4beb-9d5d-4dd86f134dbe,Indonesia
2m95ijYPSpqQxILfyxebkQ,newborntown,p1776_122_9527,Install,0.465,,26afa40f-5289-4e1a-9e54-8eae58b5bd30,1558507150,2019-05-22 14:39:10,1558507195,2019-05-22 14:39:55,1558507226,e65c4415-5c38-4190-bfb1-8775a4ac931c__pspm,http://pspm.pingstart.com/api/v4/postback?from=1706&clickid=e65c4415-5c38-4190-bfb1-8775a4ac931c__pspm,idfa_26afa40f-5289-4e1a-9e54-8eae58b5bd30,Bahasa%20Indonesia
2m95ijYPSpqQxILfyxebkQ,newborntown,p1776_122_9527,Install,0.465,,13c1a06c-e015-4223-9881-4a00ac07eef7,1558506855,2019-05-22 14:34:15,1558506892,2019-05-22 14:34:52,1558506922,35a38301-21be-4b1d-9c1f-594be36d36ac__pspm,http://pspm.pingstart.com/api/v4/postback?from=1706&clickid=35a38301-21be-4b1d-9c1f-594be36d36ac__pspm,idfa_13c1a06c-e015-4223-9881-4a00ac07eef7,Indonesia
2m95ijYPSpqQxILfyxebkQ,newborntown,p1776_122_9527,Install,0.465,,6f613cfc-35d3-4182-b10e-e9915e0dd46e,1558506909,2019-05-22 14:35:09,1558506955,2019-05-22 14:35:55,1558506985,a5e67111-e710-46eb-95d6-e9b6c022d7f6__pspm,http://pspm.pingstart.com/api/v4/postback?from=1706&clickid=a5e67111-e710-46eb-95d6-e9b6c022d7f6__pspm,idfa_6f613cfc-35d3-4182-b10e-e9915e0dd46e,Indonesia
2m95ijYPSpqQxILfyxebkQ,newborntown,p1776_122_9527,Install,0.465,,e74a0dca-7dd4-4759-b87a-d47f2d0f25d2,1558505960,2019-05-22 14:19:20,1558505996,2019-05-22 14:19:56,1558506030,321bdf29-b350-40df-b196-49b7f1ac431c__pspm,http://pspm.pingstart.com/api/v4/postback?from=1706&clickid=321bdf29-b350-40df-b196-49b7f1ac431c__pspm,idfa_e74a0dca-7dd4-4759-b87a-d47f2d0f25d2,Indonesia
2m95ijYPSpqQxILfyxebkQ,newborntown,p1776_122_9527,Install,0.465,,aa2fb814-cccf-4fa9-a923-e49a421ecc6a,1558506088,2019-05-22 14:21:28,1558506120,2019-05-22 14:22:00,1558506151,b2b533fe-8ece-4535-bec4-ec9f37893c95__pspm,http://pspm.pingstart.com/api/v4/postback?from=1706&clickid=b2b533fe-8ece-4535-bec4-ec9f37893c95__pspm,idfa_aa2fb814-cccf-4fa9-a923-e49a421ecc6a,Indonesia
2m95ijYPSpqQxILfyxebkQ,newborntown,p1776_122_9527,Install,0.465,,bc47d116-1966-4e3f-ac20-8cdbbd39c2a3,1558506021,2019-05-22 14:20:21,1558506103,2019-05-22 14:21:43,1558506134,7b770e25-3861-4c04-9a70-1552d48874bf__pspm,http://pspm.pingstart.com/api/v4/postback?from=1706&clickid=7b770e25-3861-4c04-9a70-1552d48874bf__pspm,idfa_bc47d116-1966-4e3f-ac20-8cdbbd39c2a3,Indonesia
2m95ijYPSpqQxILfyxebkQ,newborntown,p1776_122_9527,Install,0.465,,552dc3c3-74f4-432d-beac-68df13576f30,1558506918,2019-05-22 14:35:18,1558506950,2019-05-22 14:35:50,1558506981,95d2c90d-98d0-48a9-a2d0-80aebc3e604a__pspm,http://pspm.pingstart.com/api/v4/postback?from=1706&clickid=95d2c90d-98d0-48a9-a2d0-80aebc3e604a__pspm,idfa_552dc3c3-74f4-432d-beac-68df13576f30,Indonesia
2m95ijYPSpqQxILfyxebkQ,newborntown,p1776_122_9527,Install,0.465,,e27503df-16dc-481d-83e7-469487b42e08,1558507210,2019-05-22 14:40:10,1558507250,2019-05-22 14:40:50,1558507281,44b0d17b-6610-430c-a1c0-bd01ec0cd6b9__pspm,http://pspm.pingstart.com/api/v4/postback?from=1706&clickid=44b0d17b-6610-430c-a1c0-bd01ec0cd6b9__pspm,idfa_e27503df-16dc-481d-83e7-469487b42e08,Bahasa%20Indonesia
2m95ijYPSpqQxILfyxebkQ,newborntown,p1776_122_9527,Install,0.465,,ac0f6929-344c-4fa9-9ea6-09caab486df7,1558507153,2019-05-22 14:39:13,1558507197,2019-05-22 14:39:57,1558507228,946f8819-f09b-49e2-9978-3a16cea7c1e6__pspm,http://pspm.pingstart.com/api/v4/postback?from=1706&clickid=946f8819-f09b-49e2-9978-3a16cea7c1e6__pspm,idfa_ac0f6929-344c-4fa9-9ea6-09caab486df7,Indonesia
2m95ijYPSpqQxILfyxebkQ,newborntown,p1776_122_9527,Install,0.465,,448a4098-b454-40a1-ae2f-9b5f9915b9ed,1558507151,2019-05-22 14:39:11,1558507188,2019-05-22 14:39:48,1558507220,a42ea77b-2765-44d4-942f-88be1a479a8f__pspm,http://pspm.pingstart.com/api/v4/postback?from=1706&clickid=a42ea77b-2765-44d4-942f-88be1a479a8f__pspm,idfa_448a4098-b454-40a1-ae2f-9b5f9915b9ed,Indonesia
2m95ijYPSpqQxILfyxebkQ,newborntown,p1776_122_9527,Install,0.465,,bf5488bb-e349-44ff-8dc7-97831d5168e4,1558507094,2019-05-22 14:38:14,1558507125,2019-05-22 14:38:45,1558507156,6a0ca123-1dc0-40de-a0f4-5bade1fce47b__pspm,http://pspm.pingstart.com/api/v4/postback?from=1706&clickid=6a0ca123-1dc0-40de-a0f4-5bade1fce47b__pspm,idfa_bf5488bb-e349-44ff-8dc7-97831d5168e4,Indonesia
2m95ijYPSpqQxILfyxebkQ,newborntown,p1776_122_9527,Install,0.465,,10a214d0-79fc-42a1-8eb9-e8d4ab51cbcb,1558507031,2019-05-22 14:37:11,1558507063,2019-05-22 14:37:43,1558507094,2c163bfa-b8c3-43ab-902e-c2fe596d21f1__pspm,http://pspm.pingstart.com/api/v4/postback?from=1706&clickid=2c163bfa-b8c3-43ab-902e-c2fe596d21f1__pspm,idfa_10a214d0-79fc-42a1-8eb9-e8d4ab51cbcb,Indonesia
2m95ijYPSpqQxILfyxebkQ,newborntown,p1776_122_9527,Install,0.465,,1f5bd3ac-2eee-4096-9a11-12ecb87a99e3,1558507027,2019-05-22 14:37:07,1558507071,2019-05-22 14:37:51,1558507102,f19cda0f-63dd-4457-bac7-4bdd2c45802a__pspm,http://pspm.pingstart.com/api/v4/postback?from=1706&clickid=f19cda0f-63dd-4457-bac7-4bdd2c45802a__pspm,idfa_1f5bd3ac-2eee-4096-9a11-12ecb87a99e3,Indonesia
2m95ijYPSpqQxILfyxebkQ,newborntown,p1776_122_9527,Install,0.465,,fb2a4295-836f-4c57-86e1-9ed9192e23b7,1558506968,2019-05-22 14:36:08,1558507006,2019-05-22 14:36:46,1558507037,5c47931d-90ed-438d-ba99-23acd4ff7735__pspm,http://pspm.pingstart.com/api/v4/postback?from=1706&clickid=5c47931d-90ed-438d-ba99-23acd4ff7735__pspm,idfa_fb2a4295-836f-4c57-86e1-9ed9192e23b7,Bahasa%20Indonesia
2m95ijYPSpqQxILfyxebkQ,newborntown,p1776_122_9527,Install,0.465,,4ed1fa2d-2c86-4932-8a72-b0d20903217c,1558506075,2019-05-22 14:21:15,1558506116,2019-05-22 14:21:56,1558506149,eddb295a-15f9-482a-9ca1-965d6f1efb28__pspm,http://pspm.pingstart.com/api/v4/postback?from=1706&clickid=eddb295a-15f9-482a-9ca1-965d6f1efb28__pspm,idfa_4ed1fa2d-2c86-4932-8a72-b0d20903217c,Indonesia
2m95ijYPSpqQxILfyxebkQ,newborntown,p1776_122_9527,Install,0.465,,ff0c4549-86f7-4ef3-8eb5-c367c5ebd61b,1558505789,2019-05-22 14:16:29,1558505838,2019-05-22 14:17:18,1558505868,8dd98fff-0731-4dd2-9740-989d6f2235d8__pspm,http://pspm.pingstart.com/api/v4/postback?from=1706&clickid=8dd98fff-0731-4dd2-9740-989d6f2235d8__pspm,idfa_ff0c4549-86f7-4ef3-8eb5-c367c5ebd61b,Bahasa%20Indonesia
2m95ijYPSpqQxILfyxebkQ,newborntown,p1776_122_9527,Install,0.465,,32e09ab9-8acd-4b73-9bd9-823a7a7a6022,1558507089,2019-05-22 14:38:09,1558507128,2019-05-22 14:38:48,1558507158,95a63091-1226-4300-9f8b-b85ef08f27d2__pspm,http://pspm.pingstart.com/api/v4/postback?from=1706&clickid=95a63091-1226-4300-9f8b-b85ef08f27d2__pspm,idfa_32e09ab9-8acd-4b73-9bd9-823a7a7a6022,Indonesia
2m95ijYPSpqQxILfyxebkQ,newborntown,p1776_122_9527,Install,0.465,,b5f2ec93-3447-4b10-804f-b4e891cd45e5,1558506018,2019-05-22 14:20:18,1558506068,2019-05-22 14:21:08,1558506099,b59cd09e-fa44-4239-b80d-39c23d95dd44__pspm,http://pspm.pingstart.com/api/v4/postback?from=1706&clickid=b59cd09e-fa44-4239-b80d-39c23d95dd44__pspm,idfa_b5f2ec93-3447-4b10-804f-b4e891cd45e5,Indonesia
2m95ijYPSpqQxILfyxebkQ,newborntown,p1776_122_9527,Install,0.465,,b40a6723-8943-4505-b807-a40e93875ce2,1558506912,2019-05-22 14:35:12,1558506943,2019-05-22 14:35:43,1558506974,a1df2c7e-e025-4dcc-ac84-20d8a385d498__pspm,http://pspm.pingstart.com/api/v4/postback?from=1706&clickid=a1df2c7e-e025-4dcc-ac84-20d8a385d498__pspm,idfa_b40a6723-8943-4505-b807-a40e93875ce2,Indonesia
2m95ijYPSpqQxILfyxebkQ,newborntown,p1776_122_9527,Install,0.465,,fbdad56b-0c38-4966-8666-f78b09fc1b64,1558506909,2019-05-22 14:35:09,1558506946,2019-05-22 14:35:46,1558506977,736bcc83-cce0-428b-9150-acfe9ab5560b__pspm,http://pspm.pingstart.com/api/v4/postback?from=1706&clickid=736bcc83-cce0-428b-9150-acfe9ab5560b__pspm,idfa_fbdad56b-0c38-4966-8666-f78b09fc1b64,Bahasa%20Indonesia
2m95ijYPSpqQxILfyxebkQ,newborntown,p1776_122_9527,Install,0.465,,4f137748-93cd-4c1d-b111-bb875735a412,1558507090,2019-05-22 14:38:10,1558507132,2019-05-22 14:38:52,1558507162,8bd12a68-b948-447c-a017-d64e30a93a39__pspm,http://pspm.pingstart.com/api/v4/postback?from=1706&clickid=8bd12a68-b948-447c-a017-d64e30a93a39__pspm,idfa_4f137748-93cd-4c1d-b111-bb875735a412,Indonesia
2m95ijYPSpqQxILfyxebkQ,newborntown,p1776_122_9527,Install,0.465,,988590c7-765e-40dc-aee9-0b505e3ad542,1558506847,2019-05-22 14:34:07,1558506886,2019-05-22 14:34:46,1558506916,c7f4a0b7-ee92-4c2b-9381-6322e212ce89__pspm,http://pspm.pingstart.com/api/v4/postback?from=1706&clickid=c7f4a0b7-ee92-4c2b-9381-6322e212ce89__pspm,idfa_988590c7-765e-40dc-aee9-0b505e3ad542,Bahasa%20Indonesia
2m95ijYPSpqQxILfyxebkQ,newborntown,p1776_122_9527,Install,0.465,,6c150369-7ce1-456c-9043-f1f3f15f4b17,1558507089,2019-05-22 14:38:09,1558507124,2019-05-22 14:38:44,1558507154,571f487f-a119-4f43-ba26-131bb872e0a6__pspm,http://pspm.pingstart.com/api/v4/postback?from=1706&clickid=571f487f-a119-4f43-ba26-131bb872e0a6__pspm,idfa_6c150369-7ce1-456c-9043-f1f3f15f4b17,Bahasa%20Indonesia
2m95ijYPSpqQxILfyxebkQ,newborntown,p1776_122_9527,Install,0.465,,124ec25c-52c2-4308-9435-590f6828b4b3,1558507158,2019-05-22 14:39:18,1558507191,2019-05-22 14:39:51,1558507222,9c0054d0-e8cd-4313-837d-0645eab803a2__pspm,http://pspm.pingstart.com/api/v4/postback?from=1706&clickid=9c0054d0-e8cd-4313-837d-0645eab803a2__pspm,idfa_124ec25c-52c2-4308-9435-590f6828b4b3,Indonesia
