cid,partner_id,channel_id,action_id,cpi,ip,idfa,click time,click datetime,install time,install datetime,postback time,click id,postback url,unique user id
_fYj9_-lRUaaLCL4RAK81Q,newborntown,p1776_126_3_16_1509_0369,install,1.5,175.112.252.182,3e667336-e721-421d-acb0-d7331a51a738,1558667339,2019-05-24 11:08:59,1558667358,2019-05-24 11:09:18,1558667444,e8ea72db-fe37-4c22-bacb-bcb5bbc1f222__pspm,http://pspm.pingstart.com/api/v4/postback?from=1706&clickid=e8ea72db-fe37-4c22-bacb-bcb5bbc1f222__pspm,idfa_3e667336-e721-421d-acb0-d7331a51a738,en
_fYj9_-lRUaaLCL4RAK81Q,newborntown,p1776_126_7_948-7_52_4,install,1.5,125.180.22.191,025a4528-34c9-4559-ad8c-21b080d616b1,1558583609,2019-05-23 11:53:29,1558583709,2019-05-23 11:55:09,1558583740,7565e801-2d1a-4e94-8f10-0180c1930c2d__pspm,http://pspm.pingstart.com/api/v4/postback?from=1706&clickid=7565e801-2d1a-4e94-8f10-0180c1930c2d__pspm,idfa_025a4528-34c9-4559-ad8c-21b080d616b1,en
_fYj9_-lRUaaLCL4RAK81Q,newborntown,p1776_49_1020_106461,install,1.5,125.137.62.176,954fff42-2ed6-49d1-ad39-41a8952e4c85,1558407674,2019-05-21 11:01:14,1558407690,2019-05-21 11:01:30,1558407777,dafe93c3-8399-4f3a-958a-17ef376622c2__pspm,http://pspm.pingstart.com/api/v4/postback?from=1706&clickid=dafe93c3-8399-4f3a-958a-17ef376622c2__pspm,idfa_954fff42-2ed6-49d1-ad39-41a8952e4c85,en
_fYj9_-lRUaaLCL4RAK81Q,newborntown,p1776_126_7_948-4_122_4,install,1.5,182.208.3.42,9b1f51bd-317f-4c9f-b981-3a38ca157701,1558936746,2019-05-27 13:59:06,1558936776,2019-05-27 13:59:36,1558936856,443b670e-12ee-4bad-9e3c-f75f8cf9a696__pspm,http://pspm.pingstart.com/api/v4/postback?from=1706&clickid=443b670e-12ee-4bad-9e3c-f75f8cf9a696__pspm,idfa_9b1f51bd-317f-4c9f-b981-3a38ca157701,en
_fYj9_-lRUaaLCL4RAK81Q,newborntown,p1776_126_7_948-4_122_2,install,1.5,220.127.61.4,3230676c-44e0-4f1b-a76d-363cf3daac09,1558849564,2019-05-26 13:46:04,1558849597,2019-05-26 13:46:37,1558849680,a7f53d2f-03a1-4d83-bbe9-c22883dbfdae__pspm,http://pspm.pingstart.com/api/v4/postback?from=1706&clickid=a7f53d2f-03a1-4d83-bbe9-c22883dbfdae__pspm,idfa_3230676c-44e0-4f1b-a76d-363cf3daac09,en
_fYj9_-lRUaaLCL4RAK81Q,newborntown,p1776_126_7_948-4_122_8,install,1.5,221.138.193.243,d94a4884-bdbc-4de4-a65c-0be5dff7bba5,1558849768,2019-05-26 13:49:28,1558849794,2019-05-26 13:49:54,1558849875,ba3f2dd9-f633-4b0b-ba93-aeb6ca10a928__pspm,http://pspm.pingstart.com/api/v4/postback?from=1706&clickid=ba3f2dd9-f633-4b0b-ba93-aeb6ca10a928__pspm,idfa_d94a4884-bdbc-4de4-a65c-0be5dff7bba5,en
_fYj9_-lRUaaLCL4RAK81Q,newborntown,p1776_126_7_948-7_52_5,install,1.5,223.33.181.194,4e6a6323-cb22-4028-b90c-6137ffe6eb68,1558584202,2019-05-23 12:03:22,1558584330,2019-05-23 12:05:30,1558584361,cf24066c-20a7-402f-b511-e2ddb27c66f2__pspm,http://pspm.pingstart.com/api/v4/postback?from=1706&clickid=cf24066c-20a7-402f-b511-e2ddb27c66f2__pspm,idfa_4e6a6323-cb22-4028-b90c-6137ffe6eb68,ko
_fYj9_-lRUaaLCL4RAK81Q,newborntown,p1776_49_1020_106461,install,1.5,1.230.123.41,4d61df48-70d2-44bd-86b7-c5bfd16c0e2d,1558407972,2019-05-21 11:06:12,1558407992,2019-05-21 11:06:32,1558408075,61f63647-a827-416e-8a62-49a51f5c2e20__pspm,http://pspm.pingstart.com/api/v4/postback?from=1706&clickid=61f63647-a827-416e-8a62-49a51f5c2e20__pspm,idfa_4d61df48-70d2-44bd-86b7-c5bfd16c0e2d,en
_fYj9_-lRUaaLCL4RAK81Q,newborntown,p1776_53_16_1509_9527,install,1.5,211.108.237.29,6fb55860-a44b-4eae-ace4-1b87732f4fff,1558351739,2019-05-20 19:28:59,1558351888,2019-05-20 19:31:28,1558351921,9f94a9ca-0ac9-4927-92b7-f452033d160f__pspm,http://pspm.pingstart.com/api/v4/postback?from=1706&clickid=9f94a9ca-0ac9-4927-92b7-f452033d160f__pspm,idfa_6fb55860-a44b-4eae-ace4-1b87732f4fff,ko
_fYj9_-lRUaaLCL4RAK81Q,newborntown,p1776_126_7_823-441,install,1.5,175.210.148.15,1cd08e38-2a9d-4822-8f3b-c6eafc698c56,1558428457,2019-05-21 16:47:37,1558428571,2019-05-21 16:49:31,1558428604,bdbeccbf-c9d6-4657-81f6-cf79a77349aa__pspm,http://pspm.pingstart.com/api/v4/postback?from=1706&clickid=bdbeccbf-c9d6-4657-81f6-cf79a77349aa__pspm,idfa_1cd08e38-2a9d-4822-8f3b-c6eafc698c56,en
_fYj9_-lRUaaLCL4RAK81Q,newborntown,p1776_49_1020_106461,install,1.5,222.98.100.113,93a1feac-3585-42a8-aba3-9c1b91b41caa,1558409315,2019-05-21 11:28:35,1558409339,2019-05-21 11:28:59,1558409419,f092f92c-59a1-4561-b184-e6d443f8220e__pspm,http://pspm.pingstart.com/api/v4/postback?from=1706&clickid=f092f92c-59a1-4561-b184-e6d443f8220e__pspm,idfa_93a1feac-3585-42a8-aba3-9c1b91b41caa,en
_fYj9_-lRUaaLCL4RAK81Q,newborntown,p1776_130_10015_883554_130_10015_883554_49_1020_106461,install,1.5,121.129.72.203,6cf5b537-edf8-4d7a-b719-d996781f857e,1558436094,2019-05-21 18:54:54,1558436124,2019-05-21 18:55:24,1558436211,5bc631f2-2836-481e-bc23-d40fc22410f6__pspm,http://pspm.pingstart.com/api/v4/postback?from=1706&clickid=5bc631f2-2836-481e-bc23-d40fc22410f6__pspm,idfa_6cf5b537-edf8-4d7a-b719-d996781f857e,en
_fYj9_-lRUaaLCL4RAK81Q,newborntown,p1776_126_7_948-4_122_2,install,1.5,211.252.103.33,9b0537c7-e11a-4d05-9065-ee6701f3cfaa,1558933049,2019-05-27 12:57:29,1558933086,2019-05-27 12:58:06,1558933174,52c8e023-ca97-4257-95c9-d6cde481b3bf__pspm,http://pspm.pingstart.com/api/v4/postback?from=1706&clickid=52c8e023-ca97-4257-95c9-d6cde481b3bf__pspm,idfa_9b0537c7-e11a-4d05-9065-ee6701f3cfaa,en
_fYj9_-lRUaaLCL4RAK81Q,newborntown,p1776_49_1020_106461,install,1.5,115.94.109.99,055700eb-43e1-4953-a283-6658155ce1a6,1558408941,2019-05-21 11:22:21,1558408993,2019-05-21 11:23:13,1558409073,55527885-629b-4899-ac3f-365d66aabab3__pspm,http://pspm.pingstart.com/api/v4/postback?from=1706&clickid=55527885-629b-4899-ac3f-365d66aabab3__pspm,idfa_055700eb-43e1-4953-a283-6658155ce1a6,en
_fYj9_-lRUaaLCL4RAK81Q,newborntown,p1776_126_3_16_1509_9527,install,1.5,211.105.107.99,dfe6b5ae-3411-4b66-a133-559f4cc78c98,1558666991,2019-05-24 11:03:11,1558667025,2019-05-24 11:03:45,1558667103,20b8449a-87fa-4d7a-abb9-d1215a2dac39__pspm,http://pspm.pingstart.com/api/v4/postback?from=1706&clickid=20b8449a-87fa-4d7a-abb9-d1215a2dac39__pspm,idfa_dfe6b5ae-3411-4b66-a133-559f4cc78c98,en
_fYj9_-lRUaaLCL4RAK81Q,newborntown,p1776_126_7_948-4_122_2,install,1.5,116.124.67.38,6fd05057-f4c6-40d2-8af4-19b0535002ca,1558848872,2019-05-26 13:34:32,1558848895,2019-05-26 13:34:55,1558848980,8d578ce1-8ae1-44ed-832b-074967a27d28__pspm,http://pspm.pingstart.com/api/v4/postback?from=1706&clickid=8d578ce1-8ae1-44ed-832b-074967a27d28__pspm,idfa_6fd05057-f4c6-40d2-8af4-19b0535002ca,en
_fYj9_-lRUaaLCL4RAK81Q,newborntown,p1776_126_7_948-4_122_2,install,1.5,121.181.58.176,96d7ca06-0c76-4f1b-96cb-a723dd20a4a7,1558935233,2019-05-27 13:33:53,1558935264,2019-05-27 13:34:24,1558935348,cf940e51-f77d-496d-ad85-8d6c7de08729__pspm,http://pspm.pingstart.com/api/v4/postback?from=1706&clickid=cf940e51-f77d-496d-ad85-8d6c7de08729__pspm,idfa_96d7ca06-0c76-4f1b-96cb-a723dd20a4a7,en
_fYj9_-lRUaaLCL4RAK81Q,newborntown,p1776_126_3_16_1509_9527,install,1.5,112.146.238.46,c9067853-a743-4fe1-9f5f-b862893b4f42,1558667784,2019-05-24 11:16:24,1558667809,2019-05-24 11:16:49,1558667893,96c52909-692b-4971-9443-d0f83a12406b__pspm,http://pspm.pingstart.com/api/v4/postback?from=1706&clickid=96c52909-692b-4971-9443-d0f83a12406b__pspm,idfa_c9067853-a743-4fe1-9f5f-b862893b4f42,en
_fYj9_-lRUaaLCL4RAK81Q,newborntown,p1776_126_17_10006_9527,install,1.5,116.33.218.69,b9e68c4c-abe6-455d-82db-06abb2749ee6,1558768211,2019-05-25 15:10:11,1558768238,2019-05-25 15:10:38,1558768271,f49d4080-3e62-4d74-9899-6abee89b5012__pspm,http://pspm.pingstart.com/api/v4/postback?from=1706&clickid=f49d4080-3e62-4d74-9899-6abee89b5012__pspm,idfa_b9e68c4c-abe6-455d-82db-06abb2749ee6,ko
_fYj9_-lRUaaLCL4RAK81Q,newborntown,p1776_126_7_948-7_52_5,install,1.5,1.238.57.190,5c935337-7c6f-49cc-b6ca-41fa5636fc6c,1558583664,2019-05-23 11:54:24,1558583769,2019-05-23 11:56:09,1558583802,da11c4e2-7bea-46e7-a30e-23e9f151f180__pspm,http://pspm.pingstart.com/api/v4/postback?from=1706&clickid=da11c4e2-7bea-46e7-a30e-23e9f151f180__pspm,idfa_5c935337-7c6f-49cc-b6ca-41fa5636fc6c,ko
_fYj9_-lRUaaLCL4RAK81Q,newborntown,p1776_126_7_948-7_52_4,install,1.5,222.112.156.162,5fd68784-68c3-4686-b4ce-60a74e8efcd6,1558584139,2019-05-23 12:02:19,1558585162,2019-05-23 12:19:22,1558585193,2a7ffbd7-1cac-48b8-b2ad-4dc0c75e6346__pspm,http://pspm.pingstart.com/api/v4/postback?from=1706&clickid=2a7ffbd7-1cac-48b8-b2ad-4dc0c75e6346__pspm,idfa_5fd68784-68c3-4686-b4ce-60a74e8efcd6,ko
_fYj9_-lRUaaLCL4RAK81Q,newborntown,p1776_126_7_948-4_130,install,1.4,58.123.238.170,b737d348-16e1-48e1-bc9d-92008633b725,1559118701,2019-05-29 16:31:41,1559118720,2019-05-29 16:32:00,1559118803,f5162f11-df68-499f-94cf-68fa186c2181__pspm,http://pspm.pingstart.com/api/v4/postback?from=1706&clickid=f5162f11-df68-499f-94cf-68fa186c2181__pspm,idfa_b737d348-16e1-48e1-bc9d-92008633b725,en
_fYj9_-lRUaaLCL4RAK81Q,newborntown,p1776_126_7_948-4_122_4,install,1.5,180.66.222.60,b4c2d609-ce19-46fd-8878-b6b9770832c4,1558850012,2019-05-26 13:53:32,1558850030,2019-05-26 13:53:50,1558850116,a7b889f2-c7e5-4492-a62c-9399c1730f04__pspm,http://pspm.pingstart.com/api/v4/postback?from=1706&clickid=a7b889f2-c7e5-4492-a62c-9399c1730f04__pspm,idfa_b4c2d609-ce19-46fd-8878-b6b9770832c4,en
_fYj9_-lRUaaLCL4RAK81Q,newborntown,p1776_49_1020_106461,install,1.5,119.149.153.46,6c0f8b00-de43-40a0-93bc-17d0c8f93a06,1558409353,2019-05-21 11:29:13,1558409372,2019-05-21 11:29:32,1558409452,a618ca67-2cd1-42e4-aad9-5be2c86cfb5f__pspm,http://pspm.pingstart.com/api/v4/postback?from=1706&clickid=a618ca67-2cd1-42e4-aad9-5be2c86cfb5f__pspm,idfa_6c0f8b00-de43-40a0-93bc-17d0c8f93a06,en
_fYj9_-lRUaaLCL4RAK81Q,newborntown,p1776_126_3_16_1509_0369,install,1.5,222.106.161.30,01e85822-f04a-4791-a4b0-9637830e1da2,1558667007,2019-05-24 11:03:27,1558667047,2019-05-24 11:04:07,1558667128,065d6cf8-f5b4-4897-a2f9-489e87129199__pspm,http://pspm.pingstart.com/api/v4/postback?from=1706&clickid=065d6cf8-f5b4-4897-a2f9-489e87129199__pspm,idfa_01e85822-f04a-4791-a4b0-9637830e1da2,en
_fYj9_-lRUaaLCL4RAK81Q,newborntown,p1776_126_17_10006_1860,install,1.5,59.1.44.45,61748611-f57f-4b43-acba-0979b55b8045,1558765742,2019-05-25 14:29:02,1558765779,2019-05-25 14:29:39,1558765901,7c2e4e77-ebdb-40b6-93b3-119dd741523d__pspm,http://pspm.pingstart.com/api/v4/postback?from=1706&clickid=7c2e4e77-ebdb-40b6-93b3-119dd741523d__pspm,idfa_61748611-f57f-4b43-acba-0979b55b8045,ko
_fYj9_-lRUaaLCL4RAK81Q,newborntown,p1776_126_7_948-4_122_8,install,1.5,1.233.106.67,4eb09513-fad9-4dc8-ab1b-9155f0ac85af,1558849685,2019-05-26 13:48:05,1558849745,2019-05-26 13:49:05,1558849828,d1cfb7ff-6cae-4a31-a0b6-b31bb0426f10__pspm,http://pspm.pingstart.com/api/v4/postback?from=1706&clickid=d1cfb7ff-6cae-4a31-a0b6-b31bb0426f10__pspm,idfa_4eb09513-fad9-4dc8-ab1b-9155f0ac85af,en
_fYj9_-lRUaaLCL4RAK81Q,newborntown,p1776_126_7_948-7_52_5,install,1.5,110.70.15.17,e5756f08-ea8f-4325-94cd-6a6e4bd3c402,1558583834,2019-05-23 11:57:14,1558583936,2019-05-23 11:58:56,1558583967,87a4fc00-07af-4e2a-8803-685cc1309ee9__pspm,http://pspm.pingstart.com/api/v4/postback?from=1706&clickid=87a4fc00-07af-4e2a-8803-685cc1309ee9__pspm,idfa_e5756f08-ea8f-4325-94cd-6a6e4bd3c402,ko
_fYj9_-lRUaaLCL4RAK81Q,newborntown,p1776_126_7_948-4_122,install,1.4,220.79.198.187,06837302-50da-4c83-8e2c-268365473e32,1559116955,2019-05-29 16:02:35,1559117020,2019-05-29 16:03:40,1559117062,2463db7c-433b-421b-92a6-0e024a303329__pspm,http://pspm.pingstart.com/api/v4/postback?from=1706&clickid=2463db7c-433b-421b-92a6-0e024a303329__pspm,idfa_06837302-50da-4c83-8e2c-268365473e32,ko
_fYj9_-lRUaaLCL4RAK81Q,newborntown,p1776_49_1020_106461,install,1.5,27.1.175.121,342c713b-7017-4950-ac39-4b0ff0d8ca1b,1558408569,2019-05-21 11:16:09,1558408607,2019-05-21 11:16:47,1558408689,5b7f8e73-abd8-46ba-8eb2-74ba4f086cdb__pspm,http://pspm.pingstart.com/api/v4/postback?from=1706&clickid=5b7f8e73-abd8-46ba-8eb2-74ba4f086cdb__pspm,idfa_342c713b-7017-4950-ac39-4b0ff0d8ca1b,en
_fYj9_-lRUaaLCL4RAK81Q,newborntown,p1776_126_7_948-4_122_8,install,1.5,49.171.208.149,fa5bece4-7565-410b-ae3e-51601f9f330a,1558849763,2019-05-26 13:49:23,1558849786,2019-05-26 13:49:46,1558849869,dff852a9-2907-43e5-988e-cce0a52636bd__pspm,http://pspm.pingstart.com/api/v4/postback?from=1706&clickid=dff852a9-2907-43e5-988e-cce0a52636bd__pspm,idfa_fa5bece4-7565-410b-ae3e-51601f9f330a,en
_fYj9_-lRUaaLCL4RAK81Q,newborntown,p1776_126_7_948-7_52_5,install,1.5,59.24.133.194,9ab9e605-f6af-476a-80cc-a856d10c87c1,1558583838,2019-05-23 11:57:18,1558583945,2019-05-23 11:59:05,1558583977,8f4962fc-7f7b-4bc6-876e-595c2cb36224__pspm,http://pspm.pingstart.com/api/v4/postback?from=1706&clickid=8f4962fc-7f7b-4bc6-876e-595c2cb36224__pspm,idfa_9ab9e605-f6af-476a-80cc-a856d10c87c1,ko
_fYj9_-lRUaaLCL4RAK81Q,newborntown,p1776_126_7_948-4_130,install,1.4,175.125.217.221,95d80366-df4c-4991-8836-8031a0b87ed9,1559118888,2019-05-29 16:34:48,1559118913,2019-05-29 16:35:13,1559119002,a5612060-c593-46fe-92b1-dfb312518aac__pspm,http://pspm.pingstart.com/api/v4/postback?from=1706&clickid=a5612060-c593-46fe-92b1-dfb312518aac__pspm,idfa_95d80366-df4c-4991-8836-8031a0b87ed9,en
_fYj9_-lRUaaLCL4RAK81Q,newborntown,p1776_49_1020_106461,install,1.5,121.181.200.226,7e9ec7bc-34fb-4477-9192-3ffb0cf5fc2b,1558409277,2019-05-21 11:27:57,1558409303,2019-05-21 11:28:23,1558409384,775a61cb-86bc-4a34-b55d-2204714ef055__pspm,http://pspm.pingstart.com/api/v4/postback?from=1706&clickid=775a61cb-86bc-4a34-b55d-2204714ef055__pspm,idfa_7e9ec7bc-34fb-4477-9192-3ffb0cf5fc2b,en
_fYj9_-lRUaaLCL4RAK81Q,newborntown,p1776_126_7_948-7_52_4,install,1.5,125.191.92.131,b8043fbc-5cb5-4706-b1f1-a33772f68eac,1558584198,2019-05-23 12:03:18,1558584300,2019-05-23 12:05:00,1558584331,6341f1ef-16d6-4b96-b6cd-5f3cbfeb8e5f__pspm,http://pspm.pingstart.com/api/v4/postback?from=1706&clickid=6341f1ef-16d6-4b96-b6cd-5f3cbfeb8e5f__pspm,idfa_b8043fbc-5cb5-4706-b1f1-a33772f68eac,ko
_fYj9_-lRUaaLCL4RAK81Q,newborntown,p1776_49_1020_106461,install,1.5,182.31.142.147,c5820943-7ed9-47fa-87e6-f079609118ad,1558407733,2019-05-21 11:02:13,1558407774,2019-05-21 11:02:54,1558407855,127838c0-93b7-4aab-b228-fd43d1e545cf__pspm,http://pspm.pingstart.com/api/v4/postback?from=1706&clickid=127838c0-93b7-4aab-b228-fd43d1e545cf__pspm,idfa_c5820943-7ed9-47fa-87e6-f079609118ad,en
_fYj9_-lRUaaLCL4RAK81Q,newborntown,p1776_126_7_948-4_130,install,1.4,125.128.137.183,38549ea0-33e8-4993-b666-91f8c2455ebe,1559120460,2019-05-29 17:01:00,1559120480,2019-05-29 17:01:20,1559120569,4c363696-5365-4037-9a34-ba9ef8151627__pspm,http://pspm.pingstart.com/api/v4/postback?from=1706&clickid=4c363696-5365-4037-9a34-ba9ef8151627__pspm,idfa_38549ea0-33e8-4993-b666-91f8c2455ebe,en
_fYj9_-lRUaaLCL4RAK81Q,newborntown,p1776_126_7_948-7_52_4,install,1.5,211.106.91.155,98fbc530-aca9-4c62-a046-b5efb54b70b0,1558584130,2019-05-23 12:02:10,1558584727,2019-05-23 12:12:07,1558584757,afb4e304-35a0-4ac3-a06b-305810f8802c__pspm,http://pspm.pingstart.com/api/v4/postback?from=1706&clickid=afb4e304-35a0-4ac3-a06b-305810f8802c__pspm,idfa_98fbc530-aca9-4c62-a046-b5efb54b70b0,ko
_fYj9_-lRUaaLCL4RAK81Q,newborntown,p1776_126_7_944-10_1848_1560,install,1.4,211.184.221.179,941a85a2-f2d3-4b96-bb14-d779ea53d33e,1558668207,2019-05-24 11:23:27,1559185047,2019-05-30 10:57:27,1559185077,d8efb555-a66d-43e5-aae2-beff7e295c42__pspm,http://pspm.pingstart.com/api/v4/postback?from=1706&clickid=d8efb555-a66d-43e5-aae2-beff7e295c42__pspm,idfa_941a85a2-f2d3-4b96-bb14-d779ea53d33e,ko
_fYj9_-lRUaaLCL4RAK81Q,newborntown,p1776_126_7_948-7_52_4,install,1.5,211.202.27.52,59a0e8e2-8327-4eff-85cf-893b1ef6e919,1558584077,2019-05-23 12:01:17,1558584181,2019-05-23 12:03:01,1558584214,be856f8f-fc20-440e-b2dd-cc242f36c998__pspm,http://pspm.pingstart.com/api/v4/postback?from=1706&clickid=be856f8f-fc20-440e-b2dd-cc242f36c998__pspm,idfa_59a0e8e2-8327-4eff-85cf-893b1ef6e919,ko
_fYj9_-lRUaaLCL4RAK81Q,newborntown,p1776_126_7_755-16_1509_1860,install,1.5,221.156.195.104,55800363-7766-43af-b926-cbf9c3d347c5,1558669125,2019-05-24 11:38:45,1558669164,2019-05-24 11:39:24,1558669256,2390f878-5071-44af-9b3b-22d1407fcfdf__pspm,http://pspm.pingstart.com/api/v4/postback?from=1706&clickid=2390f878-5071-44af-9b3b-22d1407fcfdf__pspm,idfa_55800363-7766-43af-b926-cbf9c3d347c5,en
_fYj9_-lRUaaLCL4RAK81Q,newborntown,p1776_126_7_948-4_122_2,install,1.5,58.180.105.198,77f6f211-7b78-41d6-ba9f-0c225f2dd987,1558936826,2019-05-27 14:00:26,1558936851,2019-05-27 14:00:51,1558936935,e233f7e1-39c0-4b2f-a1d2-584e8b743d2d__pspm,http://pspm.pingstart.com/api/v4/postback?from=1706&clickid=e233f7e1-39c0-4b2f-a1d2-584e8b743d2d__pspm,idfa_77f6f211-7b78-41d6-ba9f-0c225f2dd987,en
_fYj9_-lRUaaLCL4RAK81Q,newborntown,p1776_126_7_823-441,install,1.5,1.234.178.33,455c8dfb-325a-42af-bd8e-f39ada0bf8d3,1558924374,2019-05-27 10:32:54,1558924497,2019-05-27 10:34:57,1558924530,9dbc836e-1c3d-4426-9280-b8ba03b6fcd0__pspm,http://pspm.pingstart.com/api/v4/postback?from=1706&clickid=9dbc836e-1c3d-4426-9280-b8ba03b6fcd0__pspm,idfa_455c8dfb-325a-42af-bd8e-f39ada0bf8d3,en
_fYj9_-lRUaaLCL4RAK81Q,newborntown,p1776_126_7_948-7_52_5,install,1.5,223.62.222.113,658e3b79-7754-45b9-9a81-6eb3d76bbd52,1558583711,2019-05-23 11:55:11,1558583815,2019-05-23 11:56:55,1558583847,9b593e63-60be-4188-bcde-97f4d2b54a60__pspm,http://pspm.pingstart.com/api/v4/postback?from=1706&clickid=9b593e63-60be-4188-bcde-97f4d2b54a60__pspm,idfa_658e3b79-7754-45b9-9a81-6eb3d76bbd52,ko
_fYj9_-lRUaaLCL4RAK81Q,newborntown,p1776_49_1020_106461,install,1.5,211.220.65.140,c2dc9f07-55cf-41b1-af9c-3a0e38909997,1558411023,2019-05-21 11:57:03,1558411063,2019-05-21 11:57:43,1558411148,faed2d8d-505a-4792-bf20-a23681ea5cf8__pspm,http://pspm.pingstart.com/api/v4/postback?from=1706&clickid=faed2d8d-505a-4792-bf20-a23681ea5cf8__pspm,idfa_c2dc9f07-55cf-41b1-af9c-3a0e38909997,en
_fYj9_-lRUaaLCL4RAK81Q,newborntown,p1776_126_7_948-4_122_2,install,1.5,222.108.179.29,461fe03c-d25c-4363-b168-27537e5b35c7,1558849704,2019-05-26 13:48:24,1558849721,2019-05-26 13:48:41,1558849804,e09de229-b9ec-48d9-b9d6-a62f819af00b__pspm,http://pspm.pingstart.com/api/v4/postback?from=1706&clickid=e09de229-b9ec-48d9-b9d6-a62f819af00b__pspm,idfa_461fe03c-d25c-4363-b168-27537e5b35c7,en
_fYj9_-lRUaaLCL4RAK81Q,newborntown,p1776_126_7_948-4_122_8,install,1.5,175.211.211.55,c051fd36-e958-4c65-9e97-40baefd686e7,1558935239,2019-05-27 13:33:59,1558935260,2019-05-27 13:34:20,1558935342,3f83d035-5842-4ed9-8550-4b4db5df2e49__pspm,http://pspm.pingstart.com/api/v4/postback?from=1706&clickid=3f83d035-5842-4ed9-8550-4b4db5df2e49__pspm,idfa_c051fd36-e958-4c65-9e97-40baefd686e7,en
_fYj9_-lRUaaLCL4RAK81Q,newborntown,p1776_49_1020_106461,install,1.5,211.250.15.105,4676d396-14bf-4fd6-8f49-10ca1ad1abe1,1558406276,2019-05-21 10:37:56,1558406317,2019-05-21 10:38:37,1558406401,79eb4a48-52e2-4343-ac3b-b41437e278dc__pspm,http://pspm.pingstart.com/api/v4/postback?from=1706&clickid=79eb4a48-52e2-4343-ac3b-b41437e278dc__pspm,idfa_4676d396-14bf-4fd6-8f49-10ca1ad1abe1,en
_fYj9_-lRUaaLCL4RAK81Q,newborntown,p1776_126_7_948-4_122_4,install,1.5,59.19.179.63,f5263385-93f1-4a35-bd85-3d18c050fd2e,1558934527,2019-05-27 13:22:07,1558934551,2019-05-27 13:22:31,1558934631,4b60d9e4-8bde-4a83-b8d1-ff1108b3f2f6__pspm,http://pspm.pingstart.com/api/v4/postback?from=1706&clickid=4b60d9e4-8bde-4a83-b8d1-ff1108b3f2f6__pspm,idfa_f5263385-93f1-4a35-bd85-3d18c050fd2e,en
_fYj9_-lRUaaLCL4RAK81Q,newborntown,p1776_49_1020_106461,install,1.5,14.138.172.159,803259a7-6b2d-4c85-a05a-95c8477c2db5,1558408683,2019-05-21 11:18:03,1558408705,2019-05-21 11:18:25,1558408789,6a07bf64-9613-4357-aeff-7461818bb4ae__pspm,http://pspm.pingstart.com/api/v4/postback?from=1706&clickid=6a07bf64-9613-4357-aeff-7461818bb4ae__pspm,idfa_803259a7-6b2d-4c85-a05a-95c8477c2db5,en
_fYj9_-lRUaaLCL4RAK81Q,newborntown,p1776_126_17_10006_1860,install,1.5,220.125.170.139,067e3300-fd18-45ba-850c-84820256a189,1558434946,2019-05-21 18:35:46,1558434963,2019-05-21 18:36:03,1558435043,e2a314de-29af-46a3-b5bf-7c0a4b9134a4__pspm,http://pspm.pingstart.com/api/v4/postback?from=1706&clickid=e2a314de-29af-46a3-b5bf-7c0a4b9134a4__pspm,idfa_067e3300-fd18-45ba-850c-84820256a189,en
_fYj9_-lRUaaLCL4RAK81Q,newborntown,p1776_49_1020_106461,install,1.5,221.163.201.37,9686489c-76f9-422c-8a4b-6f7d05c79775,1558408512,2019-05-21 11:15:12,1558408572,2019-05-21 11:16:12,1558408656,059ea720-5b9a-412e-9c23-ae24f5d50009__pspm,http://pspm.pingstart.com/api/v4/postback?from=1706&clickid=059ea720-5b9a-412e-9c23-ae24f5d50009__pspm,idfa_9686489c-76f9-422c-8a4b-6f7d05c79775,en
_fYj9_-lRUaaLCL4RAK81Q,newborntown,p1776_126_7_948-4_122_4,install,1.5,175.112.226.108,4c95a216-cf1d-4ab5-a1e0-7ebc8d144386,1558934114,2019-05-27 13:15:14,1558934151,2019-05-27 13:15:51,1558934236,a9fc3836-f8fc-4c6c-862d-e41f71fecdb5__pspm,http://pspm.pingstart.com/api/v4/postback?from=1706&clickid=a9fc3836-f8fc-4c6c-862d-e41f71fecdb5__pspm,idfa_4c95a216-cf1d-4ab5-a1e0-7ebc8d144386,en
_fYj9_-lRUaaLCL4RAK81Q,newborntown,p1776_126_7_948-4_122_2,install,1.5,175.215.18.69,525686c7-59e2-453c-bfd8-eda4fbc5eda4,1558938144,2019-05-27 14:22:24,1558938160,2019-05-27 14:22:40,1558938241,ce074a00-2c46-4943-a90b-1046ff2bfc46__pspm,http://pspm.pingstart.com/api/v4/postback?from=1706&clickid=ce074a00-2c46-4943-a90b-1046ff2bfc46__pspm,idfa_525686c7-59e2-453c-bfd8-eda4fbc5eda4,en
_fYj9_-lRUaaLCL4RAK81Q,newborntown,p1776_126_7_948-7_52_4,install,1.5,175.223.17.79,0dc58f20-e3a7-4b3e-aaf9-70c697308369,1558583831,2019-05-23 11:57:11,1558583932,2019-05-23 11:58:52,1558583963,1a5f3bb9-f7d5-4392-b5ec-cfca7ff8c0b0__pspm,http://pspm.pingstart.com/api/v4/postback?from=1706&clickid=1a5f3bb9-f7d5-4392-b5ec-cfca7ff8c0b0__pspm,idfa_0dc58f20-e3a7-4b3e-aaf9-70c697308369,ko
_fYj9_-lRUaaLCL4RAK81Q,newborntown,p1776_126_7_948-7_52_4,install,1.5,106.243.206.42,5d334b3f-2e3b-4a88-a8c7-3a722c67692a,1558584143,2019-05-23 12:02:23,1558584417,2019-05-23 12:06:57,1558584449,ae39e9ed-cea8-4dc5-a676-d64af0e175e5__pspm,http://pspm.pingstart.com/api/v4/postback?from=1706&clickid=ae39e9ed-cea8-4dc5-a676-d64af0e175e5__pspm,idfa_5d334b3f-2e3b-4a88-a8c7-3a722c67692a,ko
_fYj9_-lRUaaLCL4RAK81Q,newborntown,p1776_49_1020_106461,install,1.5,211.213.34.9,a3ac2742-b488-4e95-8b73-9be8ad6a9d67,1558409639,2019-05-21 11:33:59,1558409659,2019-05-21 11:34:19,1558409740,31ee1633-b00b-4c98-a21b-955cecc57273__pspm,http://pspm.pingstart.com/api/v4/postback?from=1706&clickid=31ee1633-b00b-4c98-a21b-955cecc57273__pspm,idfa_a3ac2742-b488-4e95-8b73-9be8ad6a9d67,en
_fYj9_-lRUaaLCL4RAK81Q,newborntown,p1776_126_7_948-4_122_8,install,1.5,211.36.156.164,84b68632-30cb-47f2-8bb3-8a2ddfcc1c01,1558936952,2019-05-27 14:02:32,1558936969,2019-05-27 14:02:49,1558937056,31990c61-5f26-40bc-b624-5e103f4bc393__pspm,http://pspm.pingstart.com/api/v4/postback?from=1706&clickid=31990c61-5f26-40bc-b624-5e103f4bc393__pspm,idfa_84b68632-30cb-47f2-8bb3-8a2ddfcc1c01,en
_fYj9_-lRUaaLCL4RAK81Q,newborntown,p1776_126_7_948-7_52_5,install,1.5,59.12.71.248,68aa488d-0b29-41c6-ad33-123ec851b8ce,1558584203,2019-05-23 12:03:23,1558584301,2019-05-23 12:05:01,1558584332,6e461fdc-d71c-40e1-9299-718ae3990602__pspm,http://pspm.pingstart.com/api/v4/postback?from=1706&clickid=6e461fdc-d71c-40e1-9299-718ae3990602__pspm,idfa_68aa488d-0b29-41c6-ad33-123ec851b8ce,ko
_fYj9_-lRUaaLCL4RAK81Q,newborntown,p1776_130_10015_883554_130_10015_883554_49_1020_106461,install,1.5,219.249.61.123,1c9ab651-7999-4f94-a0e0-5bff9e7262d3,1558435611,2019-05-21 18:46:51,1558435627,2019-05-21 18:47:07,1558435710,848a3b41-ac1b-4a0d-ab26-4bc712d3a16e__pspm,http://pspm.pingstart.com/api/v4/postback?from=1706&clickid=848a3b41-ac1b-4a0d-ab26-4bc712d3a16e__pspm,idfa_1c9ab651-7999-4f94-a0e0-5bff9e7262d3,en
_fYj9_-lRUaaLCL4RAK81Q,newborntown,p1776_126_7_948-4_122_2,install,1.5,112.223.138.138,85182c27-449e-4a98-8a94-ac5a49c78618,1558938086,2019-05-27 14:21:26,1558938107,2019-05-27 14:21:47,1558938187,005d8a69-7268-456f-aab7-0c6588d42645__pspm,http://pspm.pingstart.com/api/v4/postback?from=1706&clickid=005d8a69-7268-456f-aab7-0c6588d42645__pspm,idfa_85182c27-449e-4a98-8a94-ac5a49c78618,en
_fYj9_-lRUaaLCL4RAK81Q,newborntown,p1776_126_7_948-4_122_2,install,1.5,106.244.16.188,e1b05fa1-76ff-4028-80f9-45c0c13ae704,1558937427,2019-05-27 14:10:27,1558937479,2019-05-27 14:11:19,1558937567,e73a85d1-819e-4f00-b890-09482cb46b93__pspm,http://pspm.pingstart.com/api/v4/postback?from=1706&clickid=e73a85d1-819e-4f00-b890-09482cb46b93__pspm,idfa_e1b05fa1-76ff-4028-80f9-45c0c13ae704,en
_fYj9_-lRUaaLCL4RAK81Q,newborntown,p1776_126_7_948-4_122_4,install,1.5,112.173.114.51,17737f71-e721-46fc-a46d-c85c65bb7d31,1558937671,2019-05-27 14:14:31,1558937699,2019-05-27 14:14:59,1558937777,9a9aac94-543e-4bb8-b6b2-d78bb81fc776__pspm,http://pspm.pingstart.com/api/v4/postback?from=1706&clickid=9a9aac94-543e-4bb8-b6b2-d78bb81fc776__pspm,idfa_17737f71-e721-46fc-a46d-c85c65bb7d31,en
_fYj9_-lRUaaLCL4RAK81Q,newborntown,p1776_126_7_948-7_52_5,install,1.5,182.216.29.102,4caf0bff-08df-4fca-891e-ebae16da8261,1558583664,2019-05-23 11:54:24,1558583762,2019-05-23 11:56:02,1558583794,235a8256-c560-416a-b4e8-9ee57cbfead4__pspm,http://pspm.pingstart.com/api/v4/postback?from=1706&clickid=235a8256-c560-416a-b4e8-9ee57cbfead4__pspm,idfa_4caf0bff-08df-4fca-891e-ebae16da8261,ko
_fYj9_-lRUaaLCL4RAK81Q,newborntown,p1776_126_17_10006_0369,install,1.5,121.129.130.11,ba9e3f9a-39f5-405b-8cae-f08579c92266,1558921796,2019-05-27 09:49:56,1558922048,2019-05-27 09:54:08,1558922098,759df8c7-2155-4347-a354-159d70c7b3db__pspm,http://pspm.pingstart.com/api/v4/postback?from=1706&clickid=759df8c7-2155-4347-a354-159d70c7b3db__pspm,idfa_ba9e3f9a-39f5-405b-8cae-f08579c92266,ko
_fYj9_-lRUaaLCL4RAK81Q,newborntown,p1776_126_7_948-4_122_2,install,1.5,61.101.170.11,29d2bd55-2e52-4a24-8623-334aad700cb1,1558849851,2019-05-26 13:50:51,1558849873,2019-05-26 13:51:13,1558849956,3684a33e-cff0-463b-8a84-619fe25b8e31__pspm,http://pspm.pingstart.com/api/v4/postback?from=1706&clickid=3684a33e-cff0-463b-8a84-619fe25b8e31__pspm,idfa_29d2bd55-2e52-4a24-8623-334aad700cb1,en
_fYj9_-lRUaaLCL4RAK81Q,newborntown,p1776_126_7_948-4_122_8,install,1.5,180.231.245.3,d9bb0493-077f-43a4-9240-5721cf2af377,1558935246,2019-05-27 13:34:06,1558935263,2019-05-27 13:34:23,1558935359,0809b97e-d716-4f53-bae2-df5f63ba8da4__pspm,http://pspm.pingstart.com/api/v4/postback?from=1706&clickid=0809b97e-d716-4f53-bae2-df5f63ba8da4__pspm,idfa_d9bb0493-077f-43a4-9240-5721cf2af377,en
_fYj9_-lRUaaLCL4RAK81Q,newborntown,p1776_126_3_16_1509_9527,install,1.5,112.171.75.39,12a26340-a53b-4aad-8480-7bc068f2c8d7,1558666859,2019-05-24 11:00:59,1558666880,2019-05-24 11:01:20,1558666962,8719849c-7ecf-4f8b-94f0-d8e2f12a6997__pspm,http://pspm.pingstart.com/api/v4/postback?from=1706&clickid=8719849c-7ecf-4f8b-94f0-d8e2f12a6997__pspm,idfa_12a26340-a53b-4aad-8480-7bc068f2c8d7,en
_fYj9_-lRUaaLCL4RAK81Q,newborntown,p1776_126_7_948-4_122_8,install,1.5,125.188.60.178,cb353007-96a0-475e-9f6c-3d9a8be7a228,1558935645,2019-05-27 13:40:45,1558935668,2019-05-27 13:41:08,1558935752,7b2093ee-dd65-497e-8585-4bb18a23260d__pspm,http://pspm.pingstart.com/api/v4/postback?from=1706&clickid=7b2093ee-dd65-497e-8585-4bb18a23260d__pspm,idfa_cb353007-96a0-475e-9f6c-3d9a8be7a228,en
_fYj9_-lRUaaLCL4RAK81Q,newborntown,p1776_126_3_16_1509_0369,install,1.5,182.213.126.189,b1eb2528-d04a-401c-b92a-71d4841dfb60,1558667740,2019-05-24 11:15:40,1558667760,2019-05-24 11:16:00,1558667843,239a38a0-52cb-42a5-98c3-c89837d3adae__pspm,http://pspm.pingstart.com/api/v4/postback?from=1706&clickid=239a38a0-52cb-42a5-98c3-c89837d3adae__pspm,idfa_b1eb2528-d04a-401c-b92a-71d4841dfb60,en
_fYj9_-lRUaaLCL4RAK81Q,newborntown,p1776_126_7_948-4_122_4,install,1.5,111.65.177.198,9696a4d1-ba34-4fd8-8439-ed0ea10b7c44,1558849169,2019-05-26 13:39:29,1558849194,2019-05-26 13:39:54,1558849280,64ebea17-137a-44cd-b1af-69963b341b93__pspm,http://pspm.pingstart.com/api/v4/postback?from=1706&clickid=64ebea17-137a-44cd-b1af-69963b341b93__pspm,idfa_9696a4d1-ba34-4fd8-8439-ed0ea10b7c44,en
_fYj9_-lRUaaLCL4RAK81Q,newborntown,p1776_126_7_948-4_122_2,install,1.5,211.250.27.65,30aceb35-b7aa-489f-a625-ba46763b15c9,1558934058,2019-05-27 13:14:18,1558934082,2019-05-27 13:14:42,1558934161,b0cb0470-98cc-4a60-9ba2-17a098de3d46__pspm,http://pspm.pingstart.com/api/v4/postback?from=1706&clickid=b0cb0470-98cc-4a60-9ba2-17a098de3d46__pspm,idfa_30aceb35-b7aa-489f-a625-ba46763b15c9,en
_fYj9_-lRUaaLCL4RAK81Q,newborntown,p1776_126_7_823-441,install,1.5,118.47.168.212,1d7193df-4936-4edf-906a-abfa861db56f,1558664758,2019-05-24 10:25:58,1558664870,2019-05-24 10:27:50,1558664903,75846a5f-44ea-435b-a652-5a5f1650502f__pspm,http://pspm.pingstart.com/api/v4/postback?from=1706&clickid=75846a5f-44ea-435b-a652-5a5f1650502f__pspm,idfa_1d7193df-4936-4edf-906a-abfa861db56f,en
_fYj9_-lRUaaLCL4RAK81Q,newborntown,p1776_126_7_948-7_52_5,install,1.5,110.70.47.111,2ec3b43e-98de-4ad7-b808-48a34fb080a6,1558583709,2019-05-23 11:55:09,1558583884,2019-05-23 11:58:04,1558583917,2c617d77-987f-4fdf-aba0-d32df6aa006e__pspm,http://pspm.pingstart.com/api/v4/postback?from=1706&clickid=2c617d77-987f-4fdf-aba0-d32df6aa006e__pspm,idfa_2ec3b43e-98de-4ad7-b808-48a34fb080a6,ko
_fYj9_-lRUaaLCL4RAK81Q,newborntown,p1776_126_17_10006_1860,install,1.5,221.141.31.164,08687654-6870-40f0-8ebc-b7d8e9277a92,1558753154,2019-05-25 10:59:14,1558753213,2019-05-25 11:00:13,1558753322,6fae215b-d114-40e6-8ea1-af2b5e9d8830__pspm,http://pspm.pingstart.com/api/v4/postback?from=1706&clickid=6fae215b-d114-40e6-8ea1-af2b5e9d8830__pspm,idfa_08687654-6870-40f0-8ebc-b7d8e9277a92,ko
_fYj9_-lRUaaLCL4RAK81Q,newborntown,p1776_126_7_948-7_52_5,install,1.5,118.103.196.39,2079d191-42d8-44d5-81af-688bcaa39382,1558584075,2019-05-23 12:01:15,1558584177,2019-05-23 12:02:57,1558584209,e5c5e515-0995-43c8-8370-94009b01d586__pspm,http://pspm.pingstart.com/api/v4/postback?from=1706&clickid=e5c5e515-0995-43c8-8370-94009b01d586__pspm,idfa_2079d191-42d8-44d5-81af-688bcaa39382,zh
_fYj9_-lRUaaLCL4RAK81Q,newborntown,p1776_126_7_948-7_52_4,install,1.5,210.92.141.254,94045580-c218-4f21-88d9-7b7f9bf3aef8,1558584155,2019-05-23 12:02:35,1558584356,2019-05-23 12:05:56,1558584387,40b1e071-e7fb-4f7b-adac-96cb7f2ec0cf__pspm,http://pspm.pingstart.com/api/v4/postback?from=1706&clickid=40b1e071-e7fb-4f7b-adac-96cb7f2ec0cf__pspm,idfa_94045580-c218-4f21-88d9-7b7f9bf3aef8,ko
_fYj9_-lRUaaLCL4RAK81Q,newborntown,p1776_126_7_948-4_122_8,install,1.5,125.188.60.178,8a9f2a30-f506-43b4-ad80-e64196cf29b3,1558934454,2019-05-27 13:20:54,1558934471,2019-05-27 13:21:11,1558934554,4ce195b0-8e55-4cb2-bf5e-c4a70fc57182__pspm,http://pspm.pingstart.com/api/v4/postback?from=1706&clickid=4ce195b0-8e55-4cb2-bf5e-c4a70fc57182__pspm,idfa_8a9f2a30-f506-43b4-ad80-e64196cf29b3,en
_fYj9_-lRUaaLCL4RAK81Q,newborntown,p1776_49_1020_106461,install,1.5,219.241.102.97,4c1f2e46-a202-425b-b1de-4b8f3961621e,1558401738,2019-05-21 09:22:18,1558401759,2019-05-21 09:22:39,1558401842,df87ad0c-d333-47c1-bf5c-83d8b065518e__pspm,http://pspm.pingstart.com/api/v4/postback?from=1706&clickid=df87ad0c-d333-47c1-bf5c-83d8b065518e__pspm,idfa_4c1f2e46-a202-425b-b1de-4b8f3961621e,en
_fYj9_-lRUaaLCL4RAK81Q,newborntown,p1776_126_7_948-4_122_4,install,1.5,14.6.211.50,8131de15-86fa-46c5-9a2f-06e8c32fe925,1558496197,2019-05-22 11:36:37,1558496246,2019-05-22 11:37:26,1558496298,0f3d88aa-dc14-47a7-81a2-4f6f31df3d2c__pspm,http://pspm.pingstart.com/api/v4/postback?from=1706&clickid=0f3d88aa-dc14-47a7-81a2-4f6f31df3d2c__pspm,idfa_8131de15-86fa-46c5-9a2f-06e8c32fe925,ko
_fYj9_-lRUaaLCL4RAK81Q,newborntown,p1776_126_7_944-10_1848_1560,install,1.5,112.186.238.65,2b3946cc-72ae-43d0-b6ca-9176a853d4ce,1558669322,2019-05-24 11:42:02,1559264093,2019-05-31 08:54:53,1559264124,a774daec-f8b1-40dd-b816-c7d56a053657__pspm,http://pspm.pingstart.com/api/v4/postback?from=1706&clickid=a774daec-f8b1-40dd-b816-c7d56a053657__pspm,idfa_2b3946cc-72ae-43d0-b6ca-9176a853d4ce,ko
_fYj9_-lRUaaLCL4RAK81Q,newborntown,p1776_126_7_948-4_122_2,install,1.5,112.140.244.123,148b76a1-220d-4989-add9-f7deca602a78,1558935457,2019-05-27 13:37:37,1558935490,2019-05-27 13:38:10,1558935579,90543678-2816-4772-825f-661c1098e881__pspm,http://pspm.pingstart.com/api/v4/postback?from=1706&clickid=90543678-2816-4772-825f-661c1098e881__pspm,idfa_148b76a1-220d-4989-add9-f7deca602a78,en
_fYj9_-lRUaaLCL4RAK81Q,newborntown,p1776_126_7_948-7_52_4,install,1.5,14.50.111.218,93972d97-fb7b-498d-b730-3881c2e339ac,1558583891,2019-05-23 11:58:11,1558583993,2019-05-23 11:59:53,1558584024,7cc1270c-c927-4fb1-95a1-11a410e00eeb__pspm,http://pspm.pingstart.com/api/v4/postback?from=1706&clickid=7cc1270c-c927-4fb1-95a1-11a410e00eeb__pspm,idfa_93972d97-fb7b-498d-b730-3881c2e339ac,ko
_fYj9_-lRUaaLCL4RAK81Q,newborntown,p1776_126_7_948-4_130,install,1.4,211.250.15.149,27155d08-1bac-44c5-80e0-0a01ad151cef,1559121280,2019-05-29 17:14:40,1559121299,2019-05-29 17:14:59,1559121381,5a07f7c5-71ce-45c9-91dd-1a29cd9202d3__pspm,http://pspm.pingstart.com/api/v4/postback?from=1706&clickid=5a07f7c5-71ce-45c9-91dd-1a29cd9202d3__pspm,idfa_27155d08-1bac-44c5-80e0-0a01ad151cef,en
_fYj9_-lRUaaLCL4RAK81Q,newborntown,p1776_126_17_10006_0369,install,1.5,117.111.11.166,a2c739bc-186c-4ce9-a85f-14b9a6730cb9,1558768832,2019-05-25 15:20:32,1558768848,2019-05-25 15:20:48,1558768890,6eb8011a-b781-4ebe-b7a2-65913c9c6b51__pspm,http://pspm.pingstart.com/api/v4/postback?from=1706&clickid=6eb8011a-b781-4ebe-b7a2-65913c9c6b51__pspm,idfa_a2c739bc-186c-4ce9-a85f-14b9a6730cb9,ko
_fYj9_-lRUaaLCL4RAK81Q,newborntown,p1776_126_7_948-7_52_5,install,1.5,223.38.29.117,efea784b-a88e-47e0-8644-0adbcab043e8,1558583711,2019-05-23 11:55:11,1558583868,2019-05-23 11:57:48,1558583899,5e59557a-08cf-425b-89de-492d95435c49__pspm,http://pspm.pingstart.com/api/v4/postback?from=1706&clickid=5e59557a-08cf-425b-89de-492d95435c49__pspm,idfa_efea784b-a88e-47e0-8644-0adbcab043e8,ko
_fYj9_-lRUaaLCL4RAK81Q,newborntown,p1776_126_7_948-4_130,install,1.4,223.33.70.245,9cff8d7b-3bef-42f9-8312-75c749af52b2,1559121046,2019-05-29 17:10:46,1559121281,2019-05-29 17:14:41,1559121313,7c0acae5-6442-4d17-a6ef-dca9e24feec8__pspm,http://pspm.pingstart.com/api/v4/postback?from=1706&clickid=7c0acae5-6442-4d17-a6ef-dca9e24feec8__pspm,idfa_9cff8d7b-3bef-42f9-8312-75c749af52b2,ko
_fYj9_-lRUaaLCL4RAK81Q,newborntown,p1776_126_3_16_1509_0369,install,1.5,119.149.153.43,f403ae93-3e7f-43ad-b43d-9b73131e7226,1558668040,2019-05-24 11:20:40,1558668060,2019-05-24 11:21:00,1558668145,0b637c71-d423-42c6-af7d-20ac36da8c89__pspm,http://pspm.pingstart.com/api/v4/postback?from=1706&clickid=0b637c71-d423-42c6-af7d-20ac36da8c89__pspm,idfa_f403ae93-3e7f-43ad-b43d-9b73131e7226,en
_fYj9_-lRUaaLCL4RAK81Q,newborntown,p1776_126_7_948-4_122_4,install,1.5,61.99.213.80,8c2d7367-65d4-419a-a50e-a99799d04e64,1558936488,2019-05-27 13:54:48,1558936505,2019-05-27 13:55:05,1558936585,3a42de41-9be5-40da-a384-a3930bb54171__pspm,http://pspm.pingstart.com/api/v4/postback?from=1706&clickid=3a42de41-9be5-40da-a384-a3930bb54171__pspm,idfa_8c2d7367-65d4-419a-a50e-a99799d04e64,en
_fYj9_-lRUaaLCL4RAK81Q,newborntown,p1776_126_7_948-7_52_4,install,1.5,27.173.138.117,ab99430d-a915-4d15-b004-19c6c530609c,1558584201,2019-05-23 12:03:21,1558584304,2019-05-23 12:05:04,1558584336,46f63697-ab46-415d-b3fb-23c555d5d000__pspm,http://pspm.pingstart.com/api/v4/postback?from=1706&clickid=46f63697-ab46-415d-b3fb-23c555d5d000__pspm,idfa_ab99430d-a915-4d15-b004-19c6c530609c,ko
_fYj9_-lRUaaLCL4RAK81Q,newborntown,p1776_126_7_948-7_52_5,install,1.5,175.223.48.19,41eb81f4-ec32-4a9f-b788-d8ed2f376f9b,1558584198,2019-05-23 12:03:18,1558584442,2019-05-23 12:07:22,1558584475,bf7a6d04-591b-43a2-81f0-9e2b8097ed7b__pspm,http://pspm.pingstart.com/api/v4/postback?from=1706&clickid=bf7a6d04-591b-43a2-81f0-9e2b8097ed7b__pspm,idfa_41eb81f4-ec32-4a9f-b788-d8ed2f376f9b,ko
_fYj9_-lRUaaLCL4RAK81Q,newborntown,p1776_126_17_10010_26_1843_38712,install,1.5,125.181.37.179,a80d75ec-bb05-4c80-9cf8-b9d2726f164a,1558426299,2019-05-21 16:11:39,1558426906,2019-05-21 16:21:46,1558426946,b57b3acc-6180-46e3-b29a-6a3eca91a40c__pspm,http://pspm.pingstart.com/api/v4/postback?from=1706&clickid=b57b3acc-6180-46e3-b29a-6a3eca91a40c__pspm,idfa_a80d75ec-bb05-4c80-9cf8-b9d2726f164a,ko
_fYj9_-lRUaaLCL4RAK81Q,newborntown,p1776_126_7_948-7_52_4,install,1.5,223.38.27.184,757f1a42-a86f-45f3-be32-6ee9952b4ba8,1558583952,2019-05-23 11:59:12,1558584314,2019-05-23 12:05:14,1558584355,f446d772-6548-4ae5-8077-c565d26a3da2__pspm,http://pspm.pingstart.com/api/v4/postback?from=1706&clickid=f446d772-6548-4ae5-8077-c565d26a3da2__pspm,idfa_757f1a42-a86f-45f3-be32-6ee9952b4ba8,ko
_fYj9_-lRUaaLCL4RAK81Q,newborntown,p1776_49_1020_106461,install,1.5,112.187.196.201,20170cbc-e84a-41d1-96bf-9dc051e6c52f,1558409125,2019-05-21 11:25:25,1558409152,2019-05-21 11:25:52,1558409239,6dfd31d0-2d7a-4fff-9d62-1ed443f607f1__pspm,http://pspm.pingstart.com/api/v4/postback?from=1706&clickid=6dfd31d0-2d7a-4fff-9d62-1ed443f607f1__pspm,idfa_20170cbc-e84a-41d1-96bf-9dc051e6c52f,en
_fYj9_-lRUaaLCL4RAK81Q,newborntown,p1776_126_7_948-4_122_4,install,1.5,221.138.101.9,f136b083-dd0b-4a49-b526-bb9fe5b71978,1558938061,2019-05-27 14:21:01,1558938079,2019-05-27 14:21:19,1558938162,ef36871d-8733-4d94-81c2-94b3a1dada16__pspm,http://pspm.pingstart.com/api/v4/postback?from=1706&clickid=ef36871d-8733-4d94-81c2-94b3a1dada16__pspm,idfa_f136b083-dd0b-4a49-b526-bb9fe5b71978,en
_fYj9_-lRUaaLCL4RAK81Q,newborntown,p1776_126_7_948-7_52_4,install,1.5,120.143.161.184,d7474d87-419d-4a05-84c7-f52ef837d3c1,1558583771,2019-05-23 11:56:11,1558583872,2019-05-23 11:57:52,1558583903,1be8f36a-e96f-4848-9cfe-859065797f59__pspm,http://pspm.pingstart.com/api/v4/postback?from=1706&clickid=1be8f36a-e96f-4848-9cfe-859065797f59__pspm,idfa_d7474d87-419d-4a05-84c7-f52ef837d3c1,ko
_fYj9_-lRUaaLCL4RAK81Q,newborntown,p1776_49_1020_106461,install,1.5,121.133.169.106,9521ce22-a902-43cb-8e12-e9896dbd98c1,1558408657,2019-05-21 11:17:37,1558408687,2019-05-21 11:18:07,1558408773,d4c37457-1deb-44a5-96df-946e47eff54c__pspm,http://pspm.pingstart.com/api/v4/postback?from=1706&clickid=d4c37457-1deb-44a5-96df-946e47eff54c__pspm,idfa_9521ce22-a902-43cb-8e12-e9896dbd98c1,en
_fYj9_-lRUaaLCL4RAK81Q,newborntown,p1776_126_17_10006_0369,install,1.5,121.190.80.92,c2cc447b-2637-4c18-b903-fe650c32b874,1558492923,2019-05-22 10:42:03,1558492975,2019-05-22 10:42:55,1558493061,61cfc343-2499-46d5-b547-b264aa051490__pspm,http://pspm.pingstart.com/api/v4/postback?from=1706&clickid=61cfc343-2499-46d5-b547-b264aa051490__pspm,idfa_c2cc447b-2637-4c18-b903-fe650c32b874,ko
_fYj9_-lRUaaLCL4RAK81Q,newborntown,p1776_126_7_948-4_122_8,install,1.4,123.111.122.103,39ba0789-259a-466a-ae52-9444b5f99831,1558849004,2019-05-26 13:36:44,1559033155,2019-05-28 16:45:55,1559033188,15cadd0c-8a44-4241-9d72-40e3aea8d10a__pspm,http://pspm.pingstart.com/api/v4/postback?from=1706&clickid=15cadd0c-8a44-4241-9d72-40e3aea8d10a__pspm,idfa_39ba0789-259a-466a-ae52-9444b5f99831,ko
_fYj9_-lRUaaLCL4RAK81Q,newborntown,p1776_126_7_948-7_52_2,install,1.5,117.111.16.65,d0934343-a454-4bb1-b9fc-b55f1703d225,1558584077,2019-05-23 12:01:17,1558584177,2019-05-23 12:02:57,1558584209,937b1e57-05f7-4bce-a0a6-03926e46c849__pspm,http://pspm.pingstart.com/api/v4/postback?from=1706&clickid=937b1e57-05f7-4bce-a0a6-03926e46c849__pspm,idfa_d0934343-a454-4bb1-b9fc-b55f1703d225,ko
_fYj9_-lRUaaLCL4RAK81Q,newborntown,p1776_126_17_10006_0369,install,1.5,218.237.218.34,4b76e45a-2bba-44de-a7d8-e71c7bc3f038,1558434773,2019-05-21 18:32:53,1558434829,2019-05-21 18:33:49,1558434910,e2bab2e9-b08f-46c0-99b4-1f7fcf5dfff7__pspm,http://pspm.pingstart.com/api/v4/postback?from=1706&clickid=e2bab2e9-b08f-46c0-99b4-1f7fcf5dfff7__pspm,idfa_4b76e45a-2bba-44de-a7d8-e71c7bc3f038,en
_fYj9_-lRUaaLCL4RAK81Q,newborntown,p1776_126_7_948-4_122_4,install,1.5,222.233.103.183,1dcdd2fb-85b9-4734-9939-952d58648535,1558935019,2019-05-27 13:30:19,1558935041,2019-05-27 13:30:41,1558935123,79a4a20c-26ce-4dfa-bf4c-fd4417383cc0__pspm,http://pspm.pingstart.com/api/v4/postback?from=1706&clickid=79a4a20c-26ce-4dfa-bf4c-fd4417383cc0__pspm,idfa_1dcdd2fb-85b9-4734-9939-952d58648535,en
_fYj9_-lRUaaLCL4RAK81Q,newborntown,p1776_126_7_823-441,install,1.5,121.148.213.172,aaea373b-13e1-411e-8f0a-9fd047ca03de,1558429512,2019-05-21 17:05:12,1558429661,2019-05-21 17:07:41,1558429695,d0eeafec-65c9-494e-80e5-2890913674c9__pspm,http://pspm.pingstart.com/api/v4/postback?from=1706&clickid=d0eeafec-65c9-494e-80e5-2890913674c9__pspm,idfa_aaea373b-13e1-411e-8f0a-9fd047ca03de,en
_fYj9_-lRUaaLCL4RAK81Q,newborntown,p1776_49_1020_106461,install,1.5,118.45.142.178,db21e6cd-a4ca-4741-9e37-0732d9f046e3,1558408845,2019-05-21 11:20:45,1558408877,2019-05-21 11:21:17,1558408957,bd4bb71b-a790-45c0-9e88-699c11adad5b__pspm,http://pspm.pingstart.com/api/v4/postback?from=1706&clickid=bd4bb71b-a790-45c0-9e88-699c11adad5b__pspm,idfa_db21e6cd-a4ca-4741-9e37-0732d9f046e3,en
_fYj9_-lRUaaLCL4RAK81Q,newborntown,p1776_126_7_948-4_122_4,install,1.5,121.146.29.24,bce9b404-a55e-46cb-9d42-e040ffdf1e72,1558933717,2019-05-27 13:08:37,1558933740,2019-05-27 13:09:00,1558933829,8bf7e130-16cd-44f0-b1db-0018d2136825__pspm,http://pspm.pingstart.com/api/v4/postback?from=1706&clickid=8bf7e130-16cd-44f0-b1db-0018d2136825__pspm,idfa_bce9b404-a55e-46cb-9d42-e040ffdf1e72,en
_fYj9_-lRUaaLCL4RAK81Q,newborntown,p1776_49_1020_106461,install,1.5,118.43.199.37,b99d8604-286a-45a4-9dd2-6b50985146ef,1558411857,2019-05-21 12:10:57,1558411873,2019-05-21 12:11:13,1558411954,bb5554bc-e1a2-4b26-b4a9-748430238366__pspm,http://pspm.pingstart.com/api/v4/postback?from=1706&clickid=bb5554bc-e1a2-4b26-b4a9-748430238366__pspm,idfa_b99d8604-286a-45a4-9dd2-6b50985146ef,en
_fYj9_-lRUaaLCL4RAK81Q,newborntown,p1776_126_7_948-4_122_2,install,1.5,121.174.191.32,2d2dd472-3171-494d-ab4b-82daa2cc67ea,1558938112,2019-05-27 14:21:52,1558938136,2019-05-27 14:22:16,1558938218,c3517935-b040-4a73-b4ca-503d996e5e4e__pspm,http://pspm.pingstart.com/api/v4/postback?from=1706&clickid=c3517935-b040-4a73-b4ca-503d996e5e4e__pspm,idfa_2d2dd472-3171-494d-ab4b-82daa2cc67ea,en
_fYj9_-lRUaaLCL4RAK81Q,newborntown,p1776_126_7_823-441,install,1.5,121.148.9.14,87afaad3-074d-40a5-b8b9-24333fe32cd7,1558673043,2019-05-24 12:44:03,1558673218,2019-05-24 12:46:58,1558673251,8f639ffa-c1d7-4f6e-a953-00a205d7cb08__pspm,http://pspm.pingstart.com/api/v4/postback?from=1706&clickid=8f639ffa-c1d7-4f6e-a953-00a205d7cb08__pspm,idfa_87afaad3-074d-40a5-b8b9-24333fe32cd7,en
_fYj9_-lRUaaLCL4RAK81Q,newborntown,p1776_126_7_823-441,install,1.5,121.160.180.108,2e4950be-99b9-4fff-a845-93cb188f5379,1558671457,2019-05-24 12:17:37,1558671631,2019-05-24 12:20:31,1558671665,8b26df0d-72de-4b31-bb7a-9f0529fc4357__pspm,http://pspm.pingstart.com/api/v4/postback?from=1706&clickid=8b26df0d-72de-4b31-bb7a-9f0529fc4357__pspm,idfa_2e4950be-99b9-4fff-a845-93cb188f5379,en
_fYj9_-lRUaaLCL4RAK81Q,newborntown,p1776_126_7_823-441,install,1.5,59.13.152.227,f2796596-4cec-450d-a24d-21224145a862,1558671270,2019-05-24 12:14:30,1558671433,2019-05-24 12:17:13,1558671466,5e93b50f-b6e8-428c-9391-13db46d2106f__pspm,http://pspm.pingstart.com/api/v4/postback?from=1706&clickid=5e93b50f-b6e8-428c-9391-13db46d2106f__pspm,idfa_f2796596-4cec-450d-a24d-21224145a862,en
_fYj9_-lRUaaLCL4RAK81Q,newborntown,p1776_49_1020_106461,install,1.5,222.102.173.197,cf2ada29-6867-450c-9404-a35ad413dd7f,1558409351,2019-05-21 11:29:11,1558409381,2019-05-21 11:29:41,1558409464,5b51426c-6f36-4ef8-b6e0-14025c99b7e0__pspm,http://pspm.pingstart.com/api/v4/postback?from=1706&clickid=5b51426c-6f36-4ef8-b6e0-14025c99b7e0__pspm,idfa_cf2ada29-6867-450c-9404-a35ad413dd7f,en
_fYj9_-lRUaaLCL4RAK81Q,newborntown,p1776_126_7_948-4_122_8,install,1.5,218.152.184.147,53d6266b-cec6-464b-b166-671c3080b08e,1558850024,2019-05-26 13:53:44,1558850049,2019-05-26 13:54:09,1558850136,5483c1c8-eb16-4ee7-a764-f25b0544060b__pspm,http://pspm.pingstart.com/api/v4/postback?from=1706&clickid=5483c1c8-eb16-4ee7-a764-f25b0544060b__pspm,idfa_53d6266b-cec6-464b-b166-671c3080b08e,en
_fYj9_-lRUaaLCL4RAK81Q,newborntown,p1776_126_7_823-441,install,1.5,119.192.125.178,6305fa03-4d7e-4cc8-9650-bf22010136a3,1558431787,2019-05-21 17:43:07,1558431909,2019-05-21 17:45:09,1558431942,7845cc88-4be9-4b65-aff2-291ff8d87092__pspm,http://pspm.pingstart.com/api/v4/postback?from=1706&clickid=7845cc88-4be9-4b65-aff2-291ff8d87092__pspm,idfa_6305fa03-4d7e-4cc8-9650-bf22010136a3,en
_fYj9_-lRUaaLCL4RAK81Q,newborntown,p1776_49_1020_106461,install,1.5,124.49.107.182,9ea5164a-73ba-4310-bc69-0b796ddd361d,1558408569,2019-05-21 11:16:09,1558408595,2019-05-21 11:16:35,1558408682,116a64d5-e5f9-4918-9196-dbd5fe037c46__pspm,http://pspm.pingstart.com/api/v4/postback?from=1706&clickid=116a64d5-e5f9-4918-9196-dbd5fe037c46__pspm,idfa_9ea5164a-73ba-4310-bc69-0b796ddd361d,en
_fYj9_-lRUaaLCL4RAK81Q,newborntown,p1776_130_10015_883554_130_10015_883554_49_1020_106461,install,1.5,1.252.83.206,bb0fffe8-fcb3-4f1d-b0a5-9005138019de,1558435528,2019-05-21 18:45:28,1558435546,2019-05-21 18:45:46,1558435627,4b325a91-b30f-427a-b451-e567331441eb__pspm,http://pspm.pingstart.com/api/v4/postback?from=1706&clickid=4b325a91-b30f-427a-b451-e567331441eb__pspm,idfa_bb0fffe8-fcb3-4f1d-b0a5-9005138019de,en
_fYj9_-lRUaaLCL4RAK81Q,newborntown,p1776_126_7_948-4_122_4,install,1.5,39.119.218.33,a1d05f6e-4aed-4bb9-a69c-45b99f6e8de0,1558935903,2019-05-27 13:45:03,1558935930,2019-05-27 13:45:30,1558936009,2a1ec5ab-60dd-4f31-9356-dc9d3783af3e__pspm,http://pspm.pingstart.com/api/v4/postback?from=1706&clickid=2a1ec5ab-60dd-4f31-9356-dc9d3783af3e__pspm,idfa_a1d05f6e-4aed-4bb9-a69c-45b99f6e8de0,en
_fYj9_-lRUaaLCL4RAK81Q,newborntown,p1776_126_17_10006_9527,install,1.5,118.41.189.140,ee3ed6eb-8879-49b4-b54a-a3a2d6fdb6ca,1558430906,2019-05-21 17:28:26,1558430963,2019-05-21 17:29:23,1558430996,e14d24e7-7879-42f8-b3bf-f7a40e4f71ad__pspm,http://pspm.pingstart.com/api/v4/postback?from=1706&clickid=e14d24e7-7879-42f8-b3bf-f7a40e4f71ad__pspm,idfa_ee3ed6eb-8879-49b4-b54a-a3a2d6fdb6ca,ko
_fYj9_-lRUaaLCL4RAK81Q,newborntown,p1776_126_7_948-7_52_2,install,1.5,223.39.138.170,7be5fde1-0815-41e7-a7ee-d7748280d637,1558583663,2019-05-23 11:54:23,1558583765,2019-05-23 11:56:05,1558583796,15eb8859-1d86-4464-b7ed-97fc3b7199fa__pspm,http://pspm.pingstart.com/api/v4/postback?from=1706&clickid=15eb8859-1d86-4464-b7ed-97fc3b7199fa__pspm,idfa_7be5fde1-0815-41e7-a7ee-d7748280d637,ko
_fYj9_-lRUaaLCL4RAK81Q,newborntown,p1776_126_7_948-4_122_2,install,1.5,49.165.195.192,85f4cd9c-5743-4687-aa54-03055473886d,1558849322,2019-05-26 13:42:02,1558849350,2019-05-26 13:42:30,1558849446,4962e438-f550-46d3-8383-adf0ebdb6b20__pspm,http://pspm.pingstart.com/api/v4/postback?from=1706&clickid=4962e438-f550-46d3-8383-adf0ebdb6b20__pspm,idfa_85f4cd9c-5743-4687-aa54-03055473886d,en
_fYj9_-lRUaaLCL4RAK81Q,newborntown,p1776_126_7_823-441,install,1.5,210.183.130.215,20552b70-83fe-4548-9c59-b16763b9708d,1558929006,2019-05-27 11:50:06,1558929122,2019-05-27 11:52:02,1558929156,adb54083-391e-4126-9ada-ea6a3f787af1__pspm,http://pspm.pingstart.com/api/v4/postback?from=1706&clickid=adb54083-391e-4126-9ada-ea6a3f787af1__pspm,idfa_20552b70-83fe-4548-9c59-b16763b9708d,en
_fYj9_-lRUaaLCL4RAK81Q,newborntown,p1776_49_1020_106461,install,1.5,61.42.136.83,b5fc7a70-5075-476e-bb62-4e6b44cc935a,1558411252,2019-05-21 12:00:52,1558411286,2019-05-21 12:01:26,1558411373,d5a88ec6-0f74-428c-8315-2bf7b1ff2a40__pspm,http://pspm.pingstart.com/api/v4/postback?from=1706&clickid=d5a88ec6-0f74-428c-8315-2bf7b1ff2a40__pspm,idfa_b5fc7a70-5075-476e-bb62-4e6b44cc935a,en
_fYj9_-lRUaaLCL4RAK81Q,newborntown,p1776_126_3_16_1509_9527,install,1.5,163.152.29.156,d5e852f5-5e7e-4062-82a0-dc8ccc5cbd86,1558667688,2019-05-24 11:14:48,1558667707,2019-05-24 11:15:07,1558667790,946eab63-8712-48a1-a404-f490563db510__pspm,http://pspm.pingstart.com/api/v4/postback?from=1706&clickid=946eab63-8712-48a1-a404-f490563db510__pspm,idfa_d5e852f5-5e7e-4062-82a0-dc8ccc5cbd86,en
_fYj9_-lRUaaLCL4RAK81Q,newborntown,p1776_126_7_823-441,install,1.4,118.35.160.81,e3aff04b-d299-406e-8fec-6e72c6fe3218,1559013682,2019-05-28 11:21:22,1559013830,2019-05-28 11:23:50,1559013863,80bf7f5b-1cc8-48e3-b726-b9a4a0a82455__pspm,http://pspm.pingstart.com/api/v4/postback?from=1706&clickid=80bf7f5b-1cc8-48e3-b726-b9a4a0a82455__pspm,idfa_e3aff04b-d299-406e-8fec-6e72c6fe3218,en
_fYj9_-lRUaaLCL4RAK81Q,newborntown,p1776_49_1020_106461,install,1.5,121.143.181.215,b0df42f7-0757-4a21-ae7b-8906c50daeb2,1558410607,2019-05-21 11:50:07,1558410629,2019-05-21 11:50:29,1558410710,79704396-837c-4e6f-a7e3-19d111140b5c__pspm,http://pspm.pingstart.com/api/v4/postback?from=1706&clickid=79704396-837c-4e6f-a7e3-19d111140b5c__pspm,idfa_b0df42f7-0757-4a21-ae7b-8906c50daeb2,en
_fYj9_-lRUaaLCL4RAK81Q,newborntown,p1776_49_1020_106461,install,1.5,220.116.152.101,0cf71e84-ad8b-49ff-8ac0-2f157bd85222,1558409003,2019-05-21 11:23:23,1558409026,2019-05-21 11:23:46,1558409110,d8a8247a-ea08-4c1a-bf9c-ed0638989af8__pspm,http://pspm.pingstart.com/api/v4/postback?from=1706&clickid=d8a8247a-ea08-4c1a-bf9c-ed0638989af8__pspm,idfa_0cf71e84-ad8b-49ff-8ac0-2f157bd85222,en
_fYj9_-lRUaaLCL4RAK81Q,newborntown,p1776_126_7_948-7_52_4,install,1.5,119.194.40.71,9b940aa3-bc43-4d26-954f-7f41005575c8,1558584130,2019-05-23 12:02:10,1558584296,2019-05-23 12:04:56,1558584326,5c4bff5d-146a-46a0-afb1-256b0510719d__pspm,http://pspm.pingstart.com/api/v4/postback?from=1706&clickid=5c4bff5d-146a-46a0-afb1-256b0510719d__pspm,idfa_9b940aa3-bc43-4d26-954f-7f41005575c8,ko
_fYj9_-lRUaaLCL4RAK81Q,newborntown,p1776_49_1020_106461,install,1.5,59.23.199.5,befb8460-d835-433b-8df6-606a80597d4f,1558409672,2019-05-21 11:34:32,1558409689,2019-05-21 11:34:49,1558409775,b2249a0f-30ce-4508-8cdf-548edf08374d__pspm,http://pspm.pingstart.com/api/v4/postback?from=1706&clickid=b2249a0f-30ce-4508-8cdf-548edf08374d__pspm,idfa_befb8460-d835-433b-8df6-606a80597d4f,en
_fYj9_-lRUaaLCL4RAK81Q,newborntown,p1776_126_7_948-7_52_5,install,1.5,211.246.68.85,5e14d4f8-fa0d-4582-ba8a-5cbf7671fade,1558583897,2019-05-23 11:58:17,1558583996,2019-05-23 11:59:56,1558584029,c5e57062-40ac-47d6-96e0-c03e2707b186__pspm,http://pspm.pingstart.com/api/v4/postback?from=1706&clickid=c5e57062-40ac-47d6-96e0-c03e2707b186__pspm,idfa_5e14d4f8-fa0d-4582-ba8a-5cbf7671fade,ko
_fYj9_-lRUaaLCL4RAK81Q,newborntown,p1776_126_7_546-540999167,install,1.5,121.126.37.155,95ebefd6-4183-4cad-bded-76ba861afb94,1558671323,2019-05-24 12:15:23,1558671389,2019-05-24 12:16:29,1558671422,8fabfaa2-86ba-46ff-9db9-8e1f7d542c2b__pspm,http://pspm.pingstart.com/api/v4/postback?from=1706&clickid=8fabfaa2-86ba-46ff-9db9-8e1f7d542c2b__pspm,idfa_95ebefd6-4183-4cad-bded-76ba861afb94,en
_fYj9_-lRUaaLCL4RAK81Q,newborntown,p1776_126_7_948-4_122_2,install,1.5,125.134.81.33,df7c837f-40cf-40ec-a364-a2be3cbbf995,1558935149,2019-05-27 13:32:29,1558935174,2019-05-27 13:32:54,1558935254,4f61750f-5292-477d-9859-ea4ef0a4e9da__pspm,http://pspm.pingstart.com/api/v4/postback?from=1706&clickid=4f61750f-5292-477d-9859-ea4ef0a4e9da__pspm,idfa_df7c837f-40cf-40ec-a364-a2be3cbbf995,en
_fYj9_-lRUaaLCL4RAK81Q,newborntown,p1776_126_7_788-562_2234225,install,1.4,117.111.27.123,263ccdea-159c-41f0-bfc7-0efa7ce16bfa,1559117369,2019-05-29 16:09:29,1559117481,2019-05-29 16:11:21,1559117517,1749df10-88b4-4e33-a3d1-fa93c53c2470__pspm,http://pspm.pingstart.com/api/v4/postback?from=1706&clickid=1749df10-88b4-4e33-a3d1-fa93c53c2470__pspm,idfa_263ccdea-159c-41f0-bfc7-0efa7ce16bfa,ko
_fYj9_-lRUaaLCL4RAK81Q,newborntown,p1776_126_7_948-4_122_8,install,1.5,39.123.18.254,453aba7d-eedd-47df-b0f0-23b796657828,1558846009,2019-05-26 12:46:49,1558846031,2019-05-26 12:47:11,1558846062,b3db53e9-7771-45e5-b1ce-fa13cf264768__pspm,http://pspm.pingstart.com/api/v4/postback?from=1706&clickid=b3db53e9-7771-45e5-b1ce-fa13cf264768__pspm,idfa_453aba7d-eedd-47df-b0f0-23b796657828,ko
_fYj9_-lRUaaLCL4RAK81Q,newborntown,p1776_126_7_948-4_122_8,install,1.5,106.244.23.172,80681d9c-8d18-4711-b704-39bb3f2a952d,1558934893,2019-05-27 13:28:13,1558934912,2019-05-27 13:28:32,1558934994,fe7bd64b-6783-47ff-b046-21d224035a57__pspm,http://pspm.pingstart.com/api/v4/postback?from=1706&clickid=fe7bd64b-6783-47ff-b046-21d224035a57__pspm,idfa_80681d9c-8d18-4711-b704-39bb3f2a952d,en
_fYj9_-lRUaaLCL4RAK81Q,newborntown,p1776_126_7_948-4_122_2,install,1.5,211.205.7.37,891fcc18-83da-42ed-ac2a-ab3b2c5c5a91,1558848036,2019-05-26 13:20:36,1558848064,2019-05-26 13:21:04,1558848144,ba245029-88b9-43fc-93ba-192e02d18e21__pspm,http://pspm.pingstart.com/api/v4/postback?from=1706&clickid=ba245029-88b9-43fc-93ba-192e02d18e21__pspm,idfa_891fcc18-83da-42ed-ac2a-ab3b2c5c5a91,en
_fYj9_-lRUaaLCL4RAK81Q,newborntown,p1776_126_17_10006_1860,install,1.5,59.14.172.33,d0df79b4-877f-4683-a589-b40c4f237ee4,1558504932,2019-05-22 14:02:12,1558504994,2019-05-22 14:03:14,1558505025,9de5a0e8-5fb2-42e3-9cc7-49bf204c8c42__pspm,http://pspm.pingstart.com/api/v4/postback?from=1706&clickid=9de5a0e8-5fb2-42e3-9cc7-49bf204c8c42__pspm,idfa_d0df79b4-877f-4683-a589-b40c4f237ee4,ko
_fYj9_-lRUaaLCL4RAK81Q,newborntown,p1776_126_17_10006_1860,install,1.5,59.25.52.125,513c94d6-86e8-41af-a116-e3da40533a18,1558579245,2019-05-23 10:40:45,1558579292,2019-05-23 10:41:32,1558579323,27c47c8e-a845-4a13-b679-f43c1f8390d9__pspm,http://pspm.pingstart.com/api/v4/postback?from=1706&clickid=27c47c8e-a845-4a13-b679-f43c1f8390d9__pspm,idfa_513c94d6-86e8-41af-a116-e3da40533a18,ko
_fYj9_-lRUaaLCL4RAK81Q,newborntown,p1776_126_17_10006_1860,install,1.5,1.239.135.218,9c3a7cb4-7f83-42f6-b31f-f525d0501906,1558434374,2019-05-21 18:26:14,1558434408,2019-05-21 18:26:48,1558434492,5a3f326b-1739-43ef-82e6-14a6a651dc44__pspm,http://pspm.pingstart.com/api/v4/postback?from=1706&clickid=5a3f326b-1739-43ef-82e6-14a6a651dc44__pspm,idfa_9c3a7cb4-7f83-42f6-b31f-f525d0501906,en
_fYj9_-lRUaaLCL4RAK81Q,newborntown,p1776_126_7_867-e2870532f4d2b1d0a5cc171a6e0ba4fa,install,1.5,221.162.46.19,4434e037-d7f7-484f-934a-406d769298f9,1558751244,2019-05-25 10:27:24,1558751345,2019-05-25 10:29:05,1558751391,61e6cd4b-c856-4b8f-8b51-c9753d15af65__pspm,http://pspm.pingstart.com/api/v4/postback?from=1706&clickid=61e6cd4b-c856-4b8f-8b51-c9753d15af65__pspm,idfa_4434e037-d7f7-484f-934a-406d769298f9,ko
_fYj9_-lRUaaLCL4RAK81Q,newborntown,p1776_49_1020_106461,install,1.5,220.120.132.146,d4bc7f97-ef66-430d-9631-b64e8770eb00,1558408436,2019-05-21 11:13:56,1558408461,2019-05-21 11:14:21,1558408548,5ee3cd3c-18ec-40f5-b234-617155e9c850__pspm,http://pspm.pingstart.com/api/v4/postback?from=1706&clickid=5ee3cd3c-18ec-40f5-b234-617155e9c850__pspm,idfa_d4bc7f97-ef66-430d-9631-b64e8770eb00,en
_fYj9_-lRUaaLCL4RAK81Q,newborntown,p1776_126_7_948-4_122_2,install,1.5,115.126.217.32,f3de6a02-9908-427f-b879-d9618456f203,1558849786,2019-05-26 13:49:46,1558849812,2019-05-26 13:50:12,1558849949,21e3e86d-55d1-4640-b063-9024fb0a31f1__pspm,http://pspm.pingstart.com/api/v4/postback?from=1706&clickid=21e3e86d-55d1-4640-b063-9024fb0a31f1__pspm,idfa_f3de6a02-9908-427f-b879-d9618456f203,en
_fYj9_-lRUaaLCL4RAK81Q,newborntown,p1776_126_7_948-4_122_8,install,1.5,183.96.24.42,7060153f-9bc6-42e4-8a1b-607c1e0075c1,1558935617,2019-05-27 13:40:17,1558935675,2019-05-27 13:41:15,1558935759,ad7ff944-9fc4-4b6b-96b9-ee1f21057517__pspm,http://pspm.pingstart.com/api/v4/postback?from=1706&clickid=ad7ff944-9fc4-4b6b-96b9-ee1f21057517__pspm,idfa_7060153f-9bc6-42e4-8a1b-607c1e0075c1,en
_fYj9_-lRUaaLCL4RAK81Q,newborntown,p1776_126_7_948-4_130,install,1.4,222.232.8.182,fa554e37-7a54-445e-8344-7d44535be6cf,1559121657,2019-05-29 17:20:57,1559121683,2019-05-29 17:21:23,1559121764,329467d4-24be-45a7-bed2-969e3a55185e__pspm,http://pspm.pingstart.com/api/v4/postback?from=1706&clickid=329467d4-24be-45a7-bed2-969e3a55185e__pspm,idfa_fa554e37-7a54-445e-8344-7d44535be6cf,en
_fYj9_-lRUaaLCL4RAK81Q,newborntown,p1776_130_10015_883554_130_10015_883554_49_1020_106461,install,1.5,175.209.185.154,427fd0b2-3022-4cf9-b226-549539a95727,1558436133,2019-05-21 18:55:33,1558436150,2019-05-21 18:55:50,1558436231,dedafba3-d0c9-49a7-9118-f6b160c71805__pspm,http://pspm.pingstart.com/api/v4/postback?from=1706&clickid=dedafba3-d0c9-49a7-9118-f6b160c71805__pspm,idfa_427fd0b2-3022-4cf9-b226-549539a95727,en
_fYj9_-lRUaaLCL4RAK81Q,newborntown,p1776_126_7_823-441,install,1.5,175.113.163.96,f93fc62d-44c1-4a59-971f-47689053e962,1558429662,2019-05-21 17:07:42,1558429787,2019-05-21 17:09:47,1558429819,92d2405a-0bed-47ac-9656-e713a03cf46a__pspm,http://pspm.pingstart.com/api/v4/postback?from=1706&clickid=92d2405a-0bed-47ac-9656-e713a03cf46a__pspm,idfa_f93fc62d-44c1-4a59-971f-47689053e962,en
_fYj9_-lRUaaLCL4RAK81Q,newborntown,p1776_126_7_948-4_122_4,install,1.5,218.158.104.136,5cd99c05-3ca4-48ba-b081-8450b3b4c248,1558936024,2019-05-27 13:47:04,1558936043,2019-05-27 13:47:23,1558936127,33e7886d-2f41-4bb2-9764-c8ce24d07b31__pspm,http://pspm.pingstart.com/api/v4/postback?from=1706&clickid=33e7886d-2f41-4bb2-9764-c8ce24d07b31__pspm,idfa_5cd99c05-3ca4-48ba-b081-8450b3b4c248,en
_fYj9_-lRUaaLCL4RAK81Q,newborntown,p1776_126_7_948-7_16_2,install,1.5,175.223.17.65,fbd1270b-80d0-465a-b185-1889c055243f,1558670436,2019-05-24 12:00:36,1558670543,2019-05-24 12:02:23,1558670674,d2bf7ce6-2f40-43b6-8284-f28d776b809f__pspm,http://pspm.pingstart.com/api/v4/postback?from=1706&clickid=d2bf7ce6-2f40-43b6-8284-f28d776b809f__pspm,idfa_fbd1270b-80d0-465a-b185-1889c055243f,ko
_fYj9_-lRUaaLCL4RAK81Q,newborntown,p1776_126_7_948-7_52_4,install,1.5,211.36.157.217,5900da18-9644-4300-a482-9475c310db55,1558583952,2019-05-23 11:59:12,1558584133,2019-05-23 12:02:13,1558584164,a42c1671-ef6c-4f7f-bb17-2bfce9fb2ab3__pspm,http://pspm.pingstart.com/api/v4/postback?from=1706&clickid=a42c1671-ef6c-4f7f-bb17-2bfce9fb2ab3__pspm,idfa_5900da18-9644-4300-a482-9475c310db55,ko
_fYj9_-lRUaaLCL4RAK81Q,newborntown,p1776_126_7_960-130_24,install,1.5,125.189.216.171,6df8afd9-36af-4e0e-b573-624c0c7b47e6,1558939944,2019-05-27 14:52:24,1559266202,2019-05-31 09:30:02,1559266234,b47bef20-1e0c-44e6-9335-2f5a04cb0fca__pspm,http://pspm.pingstart.com/api/v4/postback?from=1706&clickid=b47bef20-1e0c-44e6-9335-2f5a04cb0fca__pspm,idfa_6df8afd9-36af-4e0e-b573-624c0c7b47e6,ko
_fYj9_-lRUaaLCL4RAK81Q,newborntown,p1776_126_17_10006_9527,install,1.4,61.101.18.120,ca754b93-f744-4a07-8268-7ff25a47a146,1559115500,2019-05-29 15:38:20,1559115536,2019-05-29 15:38:56,1559126363,0c872d3f-affe-44fa-8029-b5866cbf13d5__pspm,http://pspm.pingstart.com/api/v4/postback?from=1706&clickid=0c872d3f-affe-44fa-8029-b5866cbf13d5__pspm,idfa_ca754b93-f744-4a07-8268-7ff25a47a146,ko
_fYj9_-lRUaaLCL4RAK81Q,newborntown,p1776_126_17_10006_0369,install,1.5,125.184.201.131,cfc8ed3d-a2a2-4328-84eb-efc950f96680,1558434835,2019-05-21 18:33:55,1558434863,2019-05-21 18:34:23,1558434944,7be47d18-37aa-4ab5-a6f3-415b0852d478__pspm,http://pspm.pingstart.com/api/v4/postback?from=1706&clickid=7be47d18-37aa-4ab5-a6f3-415b0852d478__pspm,idfa_cfc8ed3d-a2a2-4328-84eb-efc950f96680,en
_fYj9_-lRUaaLCL4RAK81Q,newborntown,p1776_49_1020_106461,install,1.5,58.127.68.76,17c8f8bf-b741-477e-b034-992d216a5748,1558408758,2019-05-21 11:19:18,1558408777,2019-05-21 11:19:37,1558408858,7021750e-eae4-4c75-a247-eff9b677e7ec__pspm,http://pspm.pingstart.com/api/v4/postback?from=1706&clickid=7021750e-eae4-4c75-a247-eff9b677e7ec__pspm,idfa_17c8f8bf-b741-477e-b034-992d216a5748,en
_fYj9_-lRUaaLCL4RAK81Q,newborntown,p1776_126_7_948-4_122_8,install,1.5,222.98.54.238,544c51ed-536c-4ee1-984c-c7a05ceaa04b,1558935628,2019-05-27 13:40:28,1558935647,2019-05-27 13:40:47,1558935731,96bee746-7138-4808-8fa5-4a9527025a2d__pspm,http://pspm.pingstart.com/api/v4/postback?from=1706&clickid=96bee746-7138-4808-8fa5-4a9527025a2d__pspm,idfa_544c51ed-536c-4ee1-984c-c7a05ceaa04b,en
_fYj9_-lRUaaLCL4RAK81Q,newborntown,p1776_130_10006_0369,install,1.5,118.235.8.207,b01e63be-6414-4b11-9b20-8d4b1052d3e5,1558402648,2019-05-21 09:37:28,1558460211,2019-05-22 01:36:51,1558460244,98614e6b-ef5d-459f-b2f3-2064c3615a9b__pspm,http://pspm.pingstart.com/api/v4/postback?from=1706&clickid=98614e6b-ef5d-459f-b2f3-2064c3615a9b__pspm,idfa_b01e63be-6414-4b11-9b20-8d4b1052d3e5,ko
_fYj9_-lRUaaLCL4RAK81Q,newborntown,p1776_126_7_948-4_122_4,install,1.5,222.106.147.178,b9f8810c-7334-47e7-a552-3e2c3ac74024,1558847637,2019-05-26 13:13:57,1558847668,2019-05-26 13:14:28,1558847754,476cd115-4bf1-4723-84bf-05c77ea83404__pspm,http://pspm.pingstart.com/api/v4/postback?from=1706&clickid=476cd115-4bf1-4723-84bf-05c77ea83404__pspm,idfa_b9f8810c-7334-47e7-a552-3e2c3ac74024,en
_fYj9_-lRUaaLCL4RAK81Q,newborntown,p1776_126_7_948-4_122_2,install,1.5,182.208.236.227,728caae4-0ce7-491d-81dc-4720752efc1a,1558937785,2019-05-27 14:16:25,1558937803,2019-05-27 14:16:43,1558937887,a790eaa7-0037-4370-8e17-2279d406a11b__pspm,http://pspm.pingstart.com/api/v4/postback?from=1706&clickid=a790eaa7-0037-4370-8e17-2279d406a11b__pspm,idfa_728caae4-0ce7-491d-81dc-4720752efc1a,en
_fYj9_-lRUaaLCL4RAK81Q,newborntown,p1776_126_7_948-4_122_4,install,1.5,123.215.53.49,feeae18b-6165-4cbc-b758-4abb9508f428,1558934449,2019-05-27 13:20:49,1558934472,2019-05-27 13:21:12,1558934556,1b1237b9-1918-488d-834b-83b98b2d60a5__pspm,http://pspm.pingstart.com/api/v4/postback?from=1706&clickid=1b1237b9-1918-488d-834b-83b98b2d60a5__pspm,idfa_feeae18b-6165-4cbc-b758-4abb9508f428,en
_fYj9_-lRUaaLCL4RAK81Q,newborntown,p1776_126_7_755-16_1509_9527,install,1.5,121.172.247.162,406553d5-2458-4d41-bbe5-3d255c7719b7,1558669013,2019-05-24 11:36:53,1558669040,2019-05-24 11:37:20,1558669121,0a697ff5-8910-4f2b-b52d-86fc304c8f82__pspm,http://pspm.pingstart.com/api/v4/postback?from=1706&clickid=0a697ff5-8910-4f2b-b52d-86fc304c8f82__pspm,idfa_406553d5-2458-4d41-bbe5-3d255c7719b7,en
_fYj9_-lRUaaLCL4RAK81Q,newborntown,p1776_126_17_10006_9527,install,1.5,14.39.29.204,e5517515-c5fa-4806-8978-0c0a875c4907,1558434967,2019-05-21 18:36:07,1558434995,2019-05-21 18:36:35,1558435075,02ee7a45-5e99-4089-9924-129867cb663a__pspm,http://pspm.pingstart.com/api/v4/postback?from=1706&clickid=02ee7a45-5e99-4089-9924-129867cb663a__pspm,idfa_e5517515-c5fa-4806-8978-0c0a875c4907,en
_fYj9_-lRUaaLCL4RAK81Q,newborntown,p1776_126_7_948-7_52_2,install,1.5,59.7.147.31,80309275-1395-48ca-8319-17d6d9424364,1558584075,2019-05-23 12:01:15,1558584177,2019-05-23 12:02:57,1558584208,c623f2d2-f3f5-42fe-837a-d7ec994db7e9__pspm,http://pspm.pingstart.com/api/v4/postback?from=1706&clickid=c623f2d2-f3f5-42fe-837a-d7ec994db7e9__pspm,idfa_80309275-1395-48ca-8319-17d6d9424364,en
_fYj9_-lRUaaLCL4RAK81Q,newborntown,p1776_126_7_948-4_122_2,install,1.5,119.194.201.221,d76882fa-c462-4984-a0f5-49c75cb6bf74,1558849784,2019-05-26 13:49:44,1558849804,2019-05-26 13:50:04,1558849888,b96981cd-d423-4092-9103-74199d3f4805__pspm,http://pspm.pingstart.com/api/v4/postback?from=1706&clickid=b96981cd-d423-4092-9103-74199d3f4805__pspm,idfa_d76882fa-c462-4984-a0f5-49c75cb6bf74,en
_fYj9_-lRUaaLCL4RAK81Q,newborntown,p1776_53_16_1509_1860,install,1.5,211.208.35.169,4673a701-7e0a-47ba-a9a4-7838474573cd,1558431066,2019-05-21 17:31:06,1558431131,2019-05-21 17:32:11,1558431163,33629394-761a-4b92-8d00-a4c65ba82c0a__pspm,http://pspm.pingstart.com/api/v4/postback?from=1706&clickid=33629394-761a-4b92-8d00-a4c65ba82c0a__pspm,idfa_4673a701-7e0a-47ba-a9a4-7838474573cd,ko
_fYj9_-lRUaaLCL4RAK81Q,newborntown,p1776_126_7_948-4_122_4,install,1.5,39.120.10.40,10709210-df24-449b-8e13-cddcd3c8f5a3,1558847887,2019-05-26 13:18:07,1558847910,2019-05-26 13:18:30,1558847989,193a3fb6-cbc6-4061-a278-b3eaaf3edf5a__pspm,http://pspm.pingstart.com/api/v4/postback?from=1706&clickid=193a3fb6-cbc6-4061-a278-b3eaaf3edf5a__pspm,idfa_10709210-df24-449b-8e13-cddcd3c8f5a3,en
_fYj9_-lRUaaLCL4RAK81Q,newborntown,p1776_126_17_10006_1860,install,1.5,121.180.81.241,fa5f7832-b8da-4fec-8861-1813359a1bf3,1558834258,2019-05-26 09:30:58,1558834335,2019-05-26 09:32:15,1558834537,33f612a1-7f90-46c7-b267-55a07faeed58__pspm,http://pspm.pingstart.com/api/v4/postback?from=1706&clickid=33f612a1-7f90-46c7-b267-55a07faeed58__pspm,idfa_fa5f7832-b8da-4fec-8861-1813359a1bf3,ko
_fYj9_-lRUaaLCL4RAK81Q,newborntown,p1776_126_7_948-4_122_4,install,1.5,1.252.188.20,9cc09870-de32-41d1-bfa6-6be2522336cc,1558848574,2019-05-26 13:29:34,1558848618,2019-05-26 13:30:18,1558848698,0172a7fb-552f-4abb-9fe2-ef92d25d8e78__pspm,http://pspm.pingstart.com/api/v4/postback?from=1706&clickid=0172a7fb-552f-4abb-9fe2-ef92d25d8e78__pspm,idfa_9cc09870-de32-41d1-bfa6-6be2522336cc,en
_fYj9_-lRUaaLCL4RAK81Q,newborntown,p1776_126_7_948-7_52_4,install,1.5,223.62.178.205,cf775fbb-7773-4b95-9424-6067c189aaab,1558584018,2019-05-23 12:00:18,1558602801,2019-05-23 17:13:21,1558602833,765e0405-6b52-438a-956c-78b8d425b92f__pspm,http://pspm.pingstart.com/api/v4/postback?from=1706&clickid=765e0405-6b52-438a-956c-78b8d425b92f__pspm,idfa_cf775fbb-7773-4b95-9424-6067c189aaab,th
_fYj9_-lRUaaLCL4RAK81Q,newborntown,p1776_126_7_948-7_52_4,install,1.5,175.223.18.61,05abd388-929b-4219-ab65-b40c9be632bb,1558583610,2019-05-23 11:53:30,1558583719,2019-05-23 11:55:19,1558583751,9a39724c-1bcb-4647-9176-107dd1f86ff4__pspm,http://pspm.pingstart.com/api/v4/postback?from=1706&clickid=9a39724c-1bcb-4647-9176-107dd1f86ff4__pspm,idfa_05abd388-929b-4219-ab65-b40c9be632bb,ko
_fYj9_-lRUaaLCL4RAK81Q,newborntown,p1776_53_16_1509_0369,install,1.5,211.36.140.100,36b0911c-f9ba-4bb6-8b3d-9a2d04260cb7,1558354236,2019-05-20 20:10:36,1558875516,2019-05-26 20:58:36,1558875551,06e8d576-ef7a-4b03-be03-53e54c68ba23__pspm,http://pspm.pingstart.com/api/v4/postback?from=1706&clickid=06e8d576-ef7a-4b03-be03-53e54c68ba23__pspm,idfa_36b0911c-f9ba-4bb6-8b3d-9a2d04260cb7,ko
_fYj9_-lRUaaLCL4RAK81Q,newborntown,p1776_126_17_10006_0369,install,1.5,218.239.102.18,05b6d870-4dda-4557-bdd8-afa041237be3,1558836493,2019-05-26 10:08:13,1558836521,2019-05-26 10:08:41,1558836589,d8ba5c4e-a144-47d2-824b-229338e85c9b__pspm,http://pspm.pingstart.com/api/v4/postback?from=1706&clickid=d8ba5c4e-a144-47d2-824b-229338e85c9b__pspm,idfa_05b6d870-4dda-4557-bdd8-afa041237be3,ko
_fYj9_-lRUaaLCL4RAK81Q,newborntown,p1776_49_1020_106461,install,1.5,220.83.90.174,d109c309-19b3-4280-9147-d4fd98efb4b4,1558408810,2019-05-21 11:20:10,1558408826,2019-05-21 11:20:26,1558408907,7d3ed2eb-ad2e-484a-ab65-3fef13d1c52c__pspm,http://pspm.pingstart.com/api/v4/postback?from=1706&clickid=7d3ed2eb-ad2e-484a-ab65-3fef13d1c52c__pspm,idfa_d109c309-19b3-4280-9147-d4fd98efb4b4,en
_fYj9_-lRUaaLCL4RAK81Q,newborntown,p1776_113_69954371,install,1.5,122.43.73.94,e6504f77-8c3b-4239-a8bf-41ca277e1199,1558501154,2019-05-22 12:59:14,1558501249,2019-05-22 13:00:49,1558501281,43072a19-acbc-49e9-82ad-5f297a2d4005__pspm,http://pspm.pingstart.com/api/v4/postback?from=1706&clickid=43072a19-acbc-49e9-82ad-5f297a2d4005__pspm,idfa_e6504f77-8c3b-4239-a8bf-41ca277e1199,ko
_fYj9_-lRUaaLCL4RAK81Q,newborntown,p1776_126_17_10006_0369,install,1.5,220.77.178.147,c14afe08-211f-4991-a1ec-9665b03b712c,1558415068,2019-05-21 13:04:28,1558415107,2019-05-21 13:05:07,1558415251,43f32247-77f2-4007-a538-6e74442d82e8__pspm,http://pspm.pingstart.com/api/v4/postback?from=1706&clickid=43f32247-77f2-4007-a538-6e74442d82e8__pspm,idfa_c14afe08-211f-4991-a1ec-9665b03b712c,ko
_fYj9_-lRUaaLCL4RAK81Q,newborntown,p1776_126_7_948-4_122,install,1.4,112.161.73.47,3a07725a-8cae-4a78-b117-46d5dfabaf38,1559013109,2019-05-28 11:11:49,1559013142,2019-05-28 11:12:22,1559013231,68d37e87-8476-4d48-9c24-314e93debecc__pspm,http://pspm.pingstart.com/api/v4/postback?from=1706&clickid=68d37e87-8476-4d48-9c24-314e93debecc__pspm,idfa_3a07725a-8cae-4a78-b117-46d5dfabaf38,ko
_fYj9_-lRUaaLCL4RAK81Q,newborntown,p1776_126_7_948-7_52_5,install,1.5,175.223.26.178,d4b78f56-8e1d-4f24-adb4-e8acd0fabdbe,1558583952,2019-05-23 11:59:12,1558585682,2019-05-23 12:28:02,1558585713,b6d661aa-9b99-4487-8028-17ef5177c50a__pspm,http://pspm.pingstart.com/api/v4/postback?from=1706&clickid=b6d661aa-9b99-4487-8028-17ef5177c50a__pspm,idfa_d4b78f56-8e1d-4f24-adb4-e8acd0fabdbe,ko
_fYj9_-lRUaaLCL4RAK81Q,newborntown,p1776_126_7_948-7_52_5,install,1.5,116.121.165.236,daf7093d-27f9-4251-9cac-3f00f1aaf4c6,1558583610,2019-05-23 11:53:30,1558583728,2019-05-23 11:55:28,1558583759,8dee92cb-43ea-47e5-b7fc-b7ebf5b4ef94__pspm,http://pspm.pingstart.com/api/v4/postback?from=1706&clickid=8dee92cb-43ea-47e5-b7fc-b7ebf5b4ef94__pspm,idfa_daf7093d-27f9-4251-9cac-3f00f1aaf4c6,ko
_fYj9_-lRUaaLCL4RAK81Q,newborntown,p1776_126_7_948-7_52_2,install,1.5,59.16.163.200,224d99ce-c0ce-45fb-b86e-d1b0fa689947,1558584131,2019-05-23 12:02:11,1558584246,2019-05-23 12:04:06,1558584277,8424310f-370f-4ca4-8a55-646697502e40__pspm,http://pspm.pingstart.com/api/v4/postback?from=1706&clickid=8424310f-370f-4ca4-8a55-646697502e40__pspm,idfa_224d99ce-c0ce-45fb-b86e-d1b0fa689947,ko
