cid,partner_id,channel_id,action_id,cpi,ip,idfa,click time,click datetime,install time,install datetime,postback time,click id,postback url,unique user id
e6wBIko3RbKrC_lqKeNcRQ,newborntown,p1789_640-122_9527,Install,0.65,171.252.113.203,89bc1a1a-ecbf-4489-af3e-076d6c9b75c7,1558062265,2019-05-17 11:04:25,1558062355,2019-05-17 11:05:55,1558062389,8ae7e0ba-f424-491b-94d0-9bb05a990623__pspm,http://pspm.pingstart.com/api/v4/postback?from=1706&clickid=8ae7e0ba-f424-491b-94d0-9bb05a990623__pspm,idfa_89bc1a1a-ecbf-4489-af3e-076d6c9b75c7,Ti%E1%BA%BFng%20Vi%E1%BB%87t
e6wBIko3RbKrC_lqKeNcRQ,newborntown,p1789_640-122_9527,Install,0.65,171.255.131.15,9d42e264-0f01-4f18-8f03-f9044c74c43a,1558059571,2019-05-17 10:19:31,1558059660,2019-05-17 10:21:00,1558059693,a44112cb-f2ef-4c77-838b-36844118f4c8__pspm,http://pspm.pingstart.com/api/v4/postback?from=1706&clickid=a44112cb-f2ef-4c77-838b-36844118f4c8__pspm,idfa_9d42e264-0f01-4f18-8f03-f9044c74c43a,Ti%E1%BA%BFng%20Vi%E1%BB%87t
e6wBIko3RbKrC_lqKeNcRQ,newborntown,p1789_640-122_9527,Install,0.65,14.188.67.53,25fe9144-f0bd-42a1-8664-ae1e7e29d49d,1558056621,2019-05-17 09:30:21,1558056720,2019-05-17 09:32:00,1558056751,f9dc99a5-1c35-4d92-a949-55095742667b__pspm,http://pspm.pingstart.com/api/v4/postback?from=1706&clickid=f9dc99a5-1c35-4d92-a949-55095742667b__pspm,idfa_25fe9144-f0bd-42a1-8664-ae1e7e29d49d,Ti%E1%BA%BFng%20Vi%E1%BB%87t
e6wBIko3RbKrC_lqKeNcRQ,newborntown,p1789_640-122_9527,Install,0.65,171.253.16.127,6a06e6bd-ef9b-4764-9393-ea2ad2b8c7c3,1558059406,2019-05-17 10:16:46,1558059489,2019-05-17 10:18:09,1558059521,dc8996f5-f932-4aae-8f7e-e09b16a5a10f__pspm,http://pspm.pingstart.com/api/v4/postback?from=1706&clickid=dc8996f5-f932-4aae-8f7e-e09b16a5a10f__pspm,idfa_6a06e6bd-ef9b-4764-9393-ea2ad2b8c7c3,Ti%E1%BA%BFng%20Vi%E1%BB%87t
e6wBIko3RbKrC_lqKeNcRQ,newborntown,p1789_640-122_9527,Install,0.65,113.169.0.31,ad124368-365b-4097-bde3-1d1860321640,1558061966,2019-05-17 10:59:26,1558062052,2019-05-17 11:00:52,1558062083,c6f9f54f-23cd-40f0-b6f6-1de8c74e81f5__pspm,http://pspm.pingstart.com/api/v4/postback?from=1706&clickid=c6f9f54f-23cd-40f0-b6f6-1de8c74e81f5__pspm,idfa_ad124368-365b-4097-bde3-1d1860321640,Ti%E1%BA%BFng%20Vi%E1%BB%87t
e6wBIko3RbKrC_lqKeNcRQ,newborntown,p1789_640-122_9527,Install,0.65,171.255.70.93,8092ae0e-786d-43c5-95d4-e80c3dae1eed,1558056023,2019-05-17 09:20:23,1558056108,2019-05-17 09:21:48,1558056145,1cb0b828-2c95-40ee-8dd7-a0ac234ebc31__pspm,http://pspm.pingstart.com/api/v4/postback?from=1706&clickid=1cb0b828-2c95-40ee-8dd7-a0ac234ebc31__pspm,idfa_8092ae0e-786d-43c5-95d4-e80c3dae1eed,Ti%E1%BA%BFng%20Vi%E1%BB%87t
e6wBIko3RbKrC_lqKeNcRQ,newborntown,p1789_640-122_9527,Install,0.65,27.68.83.148,2f99dabc-4072-480a-a72e-60af110b9736,1558057352,2019-05-17 09:42:32,1558057450,2019-05-17 09:44:10,1558057482,639b70a9-b9eb-458c-b370-741b19ed77fd__pspm,http://pspm.pingstart.com/api/v4/postback?from=1706&clickid=639b70a9-b9eb-458c-b370-741b19ed77fd__pspm,idfa_2f99dabc-4072-480a-a72e-60af110b9736,Ti%E1%BA%BFng%20Vi%E1%BB%87t
e6wBIko3RbKrC_lqKeNcRQ,newborntown,p1789_640-122_9527,Install,0.65,1.54.212.144,86dba96e-af14-4bd1-a422-e19657521767,1558054847,2019-05-17 09:00:47,1558054937,2019-05-17 09:02:17,1558054977,27c29ef8-9e0d-4131-8dc6-14749663a1bb__pspm,http://pspm.pingstart.com/api/v4/postback?from=1706&clickid=27c29ef8-9e0d-4131-8dc6-14749663a1bb__pspm,idfa_86dba96e-af14-4bd1-a422-e19657521767,Ti%E1%BA%BFng%20Vi%E1%BB%87t
e6wBIko3RbKrC_lqKeNcRQ,newborntown,p1789_640-122_9527,Install,0.65,171.235.243.155,fece432e-22b2-433e-89b1-e8b50ac93285,1558062264,2019-05-17 11:04:24,1558062359,2019-05-17 11:05:59,1558062391,6db5f757-2b1c-4ee5-8deb-5c739162bb0a__pspm,http://pspm.pingstart.com/api/v4/postback?from=1706&clickid=6db5f757-2b1c-4ee5-8deb-5c739162bb0a__pspm,idfa_fece432e-22b2-433e-89b1-e8b50ac93285,Ti%E1%BA%BFng%20Vi%E1%BB%87t
e6wBIko3RbKrC_lqKeNcRQ,newborntown,p1789_640-122_9527,Install,0.65,14.188.178.97,c794bd3e-408b-4e06-846d-a11e80b7426e,1558054253,2019-05-17 08:50:53,1558054376,2019-05-17 08:52:56,1558054415,af17f4e1-57ad-4440-bd70-de22f5d81a50__pspm,http://pspm.pingstart.com/api/v4/postback?from=1706&clickid=af17f4e1-57ad-4440-bd70-de22f5d81a50__pspm,idfa_c794bd3e-408b-4e06-846d-a11e80b7426e,Ti%E1%BA%BFng%20Vi%E1%BB%87t
e6wBIko3RbKrC_lqKeNcRQ,newborntown,p1789_640-122_9527,Install,0.65,171.255.134.231,e69d0076-fa05-45ab-8212-518399e03ba6,1558058494,2019-05-17 10:01:34,1558058587,2019-05-17 10:03:07,1558058619,5c41457f-1089-448d-8fa6-310e1045463a__pspm,http://pspm.pingstart.com/api/v4/postback?from=1706&clickid=5c41457f-1089-448d-8fa6-310e1045463a__pspm,idfa_e69d0076-fa05-45ab-8212-518399e03ba6,Ti%E1%BA%BFng%20Vi%E1%BB%87t
e6wBIko3RbKrC_lqKeNcRQ,newborntown,p1789_640-122_9527,Install,0.65,103.129.191.16,38bd3270-237a-4526-9043-b5741a613518,1558062206,2019-05-17 11:03:26,1558068130,2019-05-17 12:42:10,1558068161,a76b365d-df85-4327-a49c-dc82979a4158__pspm,http://pspm.pingstart.com/api/v4/postback?from=1706&clickid=a76b365d-df85-4327-a49c-dc82979a4158__pspm,idfa_38bd3270-237a-4526-9043-b5741a613518,Ti%E1%BA%BFng%20Vi%E1%BB%87t
e6wBIko3RbKrC_lqKeNcRQ,newborntown,p1789_640-122_9527,Install,0.65,123.28.7.203,94cd8e5c-3b39-45ee-aa15-ff36e3183ae3,1558287826,2019-05-20 01:43:46,1558287848,2019-05-20 01:44:08,1558287879,728ed1d8-8d25-4509-b1e8-05504c0132f4__pspm,http://pspm.pingstart.com/api/v4/postback?from=1706&clickid=728ed1d8-8d25-4509-b1e8-05504c0132f4__pspm,idfa_94cd8e5c-3b39-45ee-aa15-ff36e3183ae3,Ti%E1%BA%BFng%20Vi%E1%BB%87t
e6wBIko3RbKrC_lqKeNcRQ,newborntown,p1789_640-122_9527,Install,0.65,116.100.160.167,5ebff1b9-c7de-4a58-b197-d72346ffaaca,1558288908,2019-05-20 02:01:48,1558288938,2019-05-20 02:02:18,1558288969,6c57959c-fb5c-4240-a9df-e3800f15e063__pspm,http://pspm.pingstart.com/api/v4/postback?from=1706&clickid=6c57959c-fb5c-4240-a9df-e3800f15e063__pspm,idfa_5ebff1b9-c7de-4a58-b197-d72346ffaaca,Ti%E1%BA%BFng%20Vi%E1%BB%87t
e6wBIko3RbKrC_lqKeNcRQ,newborntown,p1789_640-122_9527,Install,0.65,14.187.110.234,fa0ded06-3c0f-40d2-bdc9-e1eabd8f002f,1558288861,2019-05-20 02:01:01,1558288898,2019-05-20 02:01:38,1558288929,3cdf73d2-1252-4dce-8998-b026719fdead__pspm,http://pspm.pingstart.com/api/v4/postback?from=1706&clickid=3cdf73d2-1252-4dce-8998-b026719fdead__pspm,idfa_fa0ded06-3c0f-40d2-bdc9-e1eabd8f002f,Ti%E1%BA%BFng%20Vi%E1%BB%87t
e6wBIko3RbKrC_lqKeNcRQ,newborntown,p1789_640-122_9527,Install,0.65,14.248.166.240,f6743db3-f83a-4f7f-92f7-2458e7853dd7,1558062741,2019-05-17 11:12:21,1558062896,2019-05-17 11:14:56,1558062927,d410dd9f-477d-4262-bc3f-71760b30b47c__pspm,http://pspm.pingstart.com/api/v4/postback?from=1706&clickid=d410dd9f-477d-4262-bc3f-71760b30b47c__pspm,idfa_f6743db3-f83a-4f7f-92f7-2458e7853dd7,Ti%E1%BA%BFng%20Vi%E1%BB%87t
e6wBIko3RbKrC_lqKeNcRQ,newborntown,p1789_640-122_9527,Install,0.65,171.228.255.27,40a078b2-cfc2-4e68-bda2-381e4d0deada,1558056020,2019-05-17 09:20:20,1558056119,2019-05-17 09:21:59,1558056151,a8ef8e25-3b97-4920-b59a-9fb14a99e6c7__pspm,http://pspm.pingstart.com/api/v4/postback?from=1706&clickid=a8ef8e25-3b97-4920-b59a-9fb14a99e6c7__pspm,idfa_40a078b2-cfc2-4e68-bda2-381e4d0deada,Ti%E1%BA%BFng%20Vi%E1%BB%87t
e6wBIko3RbKrC_lqKeNcRQ,newborntown,p1789_640-122_9527,Install,0.65,123.24.219.229,f26bfe8a-97e6-42be-a361-0b72e834e74a,1558061785,2019-05-17 10:56:25,1558062212,2019-05-17 11:03:32,1558062244,6a110f70-ad94-4994-b809-634d205d7eab__pspm,http://pspm.pingstart.com/api/v4/postback?from=1706&clickid=6a110f70-ad94-4994-b809-634d205d7eab__pspm,idfa_f26bfe8a-97e6-42be-a361-0b72e834e74a,Ti%E1%BA%BFng%20Vi%E1%BB%87t
e6wBIko3RbKrC_lqKeNcRQ,newborntown,p1789_640-122_9527,Install,0.65,171.253.16.127,a71c8bd8-a573-4f4d-8e24-01eb9389a7ec,1558062805,2019-05-17 11:13:25,1558062894,2019-05-17 11:14:54,1558062927,2e0b319e-d582-414e-b4a7-dac52d10c952__pspm,http://pspm.pingstart.com/api/v4/postback?from=1706&clickid=2e0b319e-d582-414e-b4a7-dac52d10c952__pspm,idfa_a71c8bd8-a573-4f4d-8e24-01eb9389a7ec,Ti%E1%BA%BFng%20Vi%E1%BB%87t
e6wBIko3RbKrC_lqKeNcRQ,newborntown,p1789_640-122_9527,Install,0.65,116.108.74.169,aea6c6b2-8b2c-4dad-a3f2-e894943e1121,1558057836,2019-05-17 09:50:36,1558057930,2019-05-17 09:52:10,1558057961,1cced00f-3631-436f-8286-43a81dbbf117__pspm,http://pspm.pingstart.com/api/v4/postback?from=1706&clickid=1cced00f-3631-436f-8286-43a81dbbf117__pspm,idfa_aea6c6b2-8b2c-4dad-a3f2-e894943e1121,English
e6wBIko3RbKrC_lqKeNcRQ,newborntown,p1789_640-122_9527,Install,0.65,113.172.78.10,9a4a47ff-f927-40b2-9f66-c31b525af280,1558056441,2019-05-17 09:27:21,1558056536,2019-05-17 09:28:56,1558056567,05a08772-6a70-4f12-94ef-5196a5a5a445__pspm,http://pspm.pingstart.com/api/v4/postback?from=1706&clickid=05a08772-6a70-4f12-94ef-5196a5a5a445__pspm,idfa_9a4a47ff-f927-40b2-9f66-c31b525af280,Ti%E1%BA%BFng%20Vi%E1%BB%87t
e6wBIko3RbKrC_lqKeNcRQ,newborntown,p1789_640-122_9527,Install,0.65,171.241.115.56,b968df67-2be1-4d55-8dee-0579b6b2da52,1558287718,2019-05-20 01:41:58,1558287748,2019-05-20 01:42:28,1558287780,26f1b499-c076-48a9-9afc-b7cc88863a80__pspm,http://pspm.pingstart.com/api/v4/postback?from=1706&clickid=26f1b499-c076-48a9-9afc-b7cc88863a80__pspm,idfa_b968df67-2be1-4d55-8dee-0579b6b2da52,Ti%E1%BA%BFng%20Vi%E1%BB%87t
