cid,partner_id,channel_id,action_id,cpi,ip,idfa,click time,click datetime,install time,install datetime,postback time,click id,postback url,unique user id
gjoPx4t8RGakEc5UKpheSw,newborntown,p1833_8ruxd6r4de8nr2pecqhr,Install,1.9,175.115.153.180,ad1e8042-b4b4-450e-ad5e-3792b6150e89,1557338396,2019-05-09 01:59:56,1557338601,2019-05-09 02:03:21,1557338632,8adae64c-3b94-4959-be9f-b8de09744ac8__pspm,http://pspm.pingstart.com/api/v4/postback?from=1706&clickid=8adae64c-3b94-4959-be9f-b8de09744ac8__pspm,idfa_ad1e8042-b4b4-450e-ad5e-3792b6150e89,%ED%95%9C%EA%B5%AD%EC%96%B4
gjoPx4t8RGakEc5UKpheSw,newborntown,p1833_8ruxd6r4de8nr2pecqhr,Install,1.9,119.204.85.107,c4ff945e-d9cd-40c0-83b7-743aa0c1de5b,1557353792,2019-05-09 06:16:32,1557354032,2019-05-09 06:20:32,1557354064,e3fb8ab7-c6bf-43f5-93d9-eac4cea77ed1__pspm,http://pspm.pingstart.com/api/v4/postback?from=1706&clickid=e3fb8ab7-c6bf-43f5-93d9-eac4cea77ed1__pspm,idfa_c4ff945e-d9cd-40c0-83b7-743aa0c1de5b,%ED%95%9C%EA%B5%AD%EC%96%B4
gjoPx4t8RGakEc5UKpheSw,newborntown,p1833_8ruxd6r4de8nr2pecqhr,Install,1.9,124.62.146.211,68438ecf-4f20-45f9-b161-29669ba3dede,1557342821,2019-05-09 03:13:41,1557343033,2019-05-09 03:17:13,1557343064,ccbef879-8a75-4af7-9ddc-5a8dff92749c__pspm,http://pspm.pingstart.com/api/v4/postback?from=1706&clickid=ccbef879-8a75-4af7-9ddc-5a8dff92749c__pspm,idfa_68438ecf-4f20-45f9-b161-29669ba3dede,%ED%95%9C%EA%B5%AD%EC%96%B4
gjoPx4t8RGakEc5UKpheSw,newborntown,p1833_8ruxd6r4de8nr2pecqhr,Install,1.9,112.144.28.61,8c4dc209-a8a6-484e-8e9e-ba033987dbd0,1557341194,2019-05-09 02:46:34,1557341406,2019-05-09 02:50:06,1557341437,92a98b49-178a-462f-b4af-dfd710781a8b__pspm,http://pspm.pingstart.com/api/v4/postback?from=1706&clickid=92a98b49-178a-462f-b4af-dfd710781a8b__pspm,idfa_8c4dc209-a8a6-484e-8e9e-ba033987dbd0,%ED%95%9C%EA%B5%AD%EC%96%B4
gjoPx4t8RGakEc5UKpheSw,newborntown,p1833_8ruxd6r4de8nr2pecqhr,Install,1.9,1.225.230.255,8a9e609c-a7cc-462f-a27a-f8dc905701b8,1557341847,2019-05-09 02:57:27,1557342060,2019-05-09 03:01:00,1557342092,8c8e5d61-bb02-432f-aade-d30e6d4a14ec__pspm,http://pspm.pingstart.com/api/v4/postback?from=1706&clickid=8c8e5d61-bb02-432f-aade-d30e6d4a14ec__pspm,idfa_8a9e609c-a7cc-462f-a27a-f8dc905701b8,%ED%95%9C%EA%B5%AD%EC%96%B4
gjoPx4t8RGakEc5UKpheSw,newborntown,p1833_8ruxd6r4de8nr2pecqhr,Install,1.9,119.82.50.129,b295d02f-d5d1-4cde-9aa8-2884e3608be3,1557340555,2019-05-09 02:35:55,1557340815,2019-05-09 02:40:15,1557340845,b8016572-ee0a-4775-a455-d883fab2f67c__pspm,http://pspm.pingstart.com/api/v4/postback?from=1706&clickid=b8016572-ee0a-4775-a455-d883fab2f67c__pspm,idfa_b295d02f-d5d1-4cde-9aa8-2884e3608be3,%ED%95%9C%EA%B5%AD%EC%96%B4
gjoPx4t8RGakEc5UKpheSw,newborntown,p1833_8ruxd6r4de8nr2pecqhr,Install,1.9,121.186.160.69,ef59ce4b-afdd-4be1-a323-6f7bd45f0e9b,1557353357,2019-05-09 06:09:17,1557353494,2019-05-09 06:11:34,1557353524,b6d266ce-5458-462b-84f2-d6250bd2231c__pspm,http://pspm.pingstart.com/api/v4/postback?from=1706&clickid=b6d266ce-5458-462b-84f2-d6250bd2231c__pspm,idfa_ef59ce4b-afdd-4be1-a323-6f7bd45f0e9b,%ED%95%9C%EA%B5%AD%EC%96%B4
gjoPx4t8RGakEc5UKpheSw,newborntown,p1833_8ruxd6r4de8nr2pecqhr,Install,1.9,211.250.5.219,1b34159e-0448-4df5-9ec9-5b411184e77c,1557352082,2019-05-09 05:48:02,1557352283,2019-05-09 05:51:23,1557352314,45a68ddf-452f-4c26-9d67-51b0f749fbec__pspm,http://pspm.pingstart.com/api/v4/postback?from=1706&clickid=45a68ddf-452f-4c26-9d67-51b0f749fbec__pspm,idfa_1b34159e-0448-4df5-9ec9-5b411184e77c,%ED%95%9C%EA%B5%AD%EC%96%B4
gjoPx4t8RGakEc5UKpheSw,newborntown,p1833_8ruxd6r4de8nr2pecqhr,Install,1.9,39.125.49.177,a1e7a6bc-ce78-4674-88ae-c243a0ee874a,1557342510,2019-05-09 03:08:30,1557342744,2019-05-09 03:12:24,1557342775,7c55eeda-1d96-4c81-9cec-6bb457adab68__pspm,http://pspm.pingstart.com/api/v4/postback?from=1706&clickid=7c55eeda-1d96-4c81-9cec-6bb457adab68__pspm,idfa_a1e7a6bc-ce78-4674-88ae-c243a0ee874a,%ED%95%9C%EA%B5%AD%EC%96%B4
gjoPx4t8RGakEc5UKpheSw,newborntown,p1833_8ruxd6r4de8nr2pecqhr,Install,1.9,61.42.71.10,9cf61e16-df54-4e3f-a4cb-2fb36d7de0d7,1557341121,2019-05-09 02:45:21,1557341341,2019-05-09 02:49:01,1557341372,8b73d377-9e7a-4b66-a3ac-acbe6a531958__pspm,http://pspm.pingstart.com/api/v4/postback?from=1706&clickid=8b73d377-9e7a-4b66-a3ac-acbe6a531958__pspm,idfa_9cf61e16-df54-4e3f-a4cb-2fb36d7de0d7,%ED%95%9C%EA%B5%AD%EC%96%B4
gjoPx4t8RGakEc5UKpheSw,newborntown,p1833_8ruxd6r4de8nr2pecqhr,Install,1.9,175.116.94.12,76bce379-3a97-4972-b1c3-edbdc431d305,1557337524,2019-05-09 01:45:24,1557337825,2019-05-09 01:50:25,1557337855,a155a3ea-4263-4e37-bc14-3077854c54d5__pspm,http://pspm.pingstart.com/api/v4/postback?from=1706&clickid=a155a3ea-4263-4e37-bc14-3077854c54d5__pspm,idfa_76bce379-3a97-4972-b1c3-edbdc431d305,%ED%95%9C%EA%B5%AD%EC%96%B4
gjoPx4t8RGakEc5UKpheSw,newborntown,p1833_8ruxd6r4de8nr2pecqhr,Install,1.9,118.91.68.78,26ca75fc-57f0-453f-aa57-3d7410d54cc5,1557339602,2019-05-09 02:20:02,1557339829,2019-05-09 02:23:49,1557339859,791593ba-98f2-4d68-a702-ddf8da866a8f__pspm,http://pspm.pingstart.com/api/v4/postback?from=1706&clickid=791593ba-98f2-4d68-a702-ddf8da866a8f__pspm,idfa_26ca75fc-57f0-453f-aa57-3d7410d54cc5,%ED%95%9C%EA%B5%AD%EC%96%B4
gjoPx4t8RGakEc5UKpheSw,newborntown,p1833_8ruxd6r4de8nr2pecqhr,Install,1.9,175.211.43.129,c02a86b7-61f7-4ef4-aad5-6196cf6d2cf2,1557341448,2019-05-09 02:50:48,1557341674,2019-05-09 02:54:34,1557341705,9080a5b6-2903-4bfe-a05e-9f7384ea5265__pspm,http://pspm.pingstart.com/api/v4/postback?from=1706&clickid=9080a5b6-2903-4bfe-a05e-9f7384ea5265__pspm,idfa_c02a86b7-61f7-4ef4-aad5-6196cf6d2cf2,%ED%95%9C%EA%B5%AD%EC%96%B4
gjoPx4t8RGakEc5UKpheSw,newborntown,p1833_8ruxd6r4de8nr2pecqhr,Install,1.9,211.63.34.201,adce4205-5317-4488-95fa-0a375321e45a,1557340525,2019-05-09 02:35:25,1557340792,2019-05-09 02:39:52,1557340823,cc213a87-9465-41c4-a828-5f74370210f0__pspm,http://pspm.pingstart.com/api/v4/postback?from=1706&clickid=cc213a87-9465-41c4-a828-5f74370210f0__pspm,idfa_adce4205-5317-4488-95fa-0a375321e45a,%ED%95%9C%EA%B5%AD%EC%96%B4
gjoPx4t8RGakEc5UKpheSw,newborntown,p1833_8ruxd6r4de8nr2pecqhr,Install,1.9,121.140.188.10,815312e0-e19f-4d6e-ae67-9c2d70beb749,1557340429,2019-05-09 02:33:49,1557340589,2019-05-09 02:36:29,1557340620,b9eacf3c-5d4f-44e0-ae96-51899c77b449__pspm,http://pspm.pingstart.com/api/v4/postback?from=1706&clickid=b9eacf3c-5d4f-44e0-ae96-51899c77b449__pspm,idfa_815312e0-e19f-4d6e-ae67-9c2d70beb749,%ED%95%9C%EA%B5%AD%EC%96%B4
gjoPx4t8RGakEc5UKpheSw,newborntown,p1833_8ruxd6r4de8nr2pecqhr,Install,1.9,124.80.188.126,6c8fee09-16fb-4432-ad2b-8a3961a5d4aa,1557337851,2019-05-09 01:50:51,1557338090,2019-05-09 01:54:50,1557338120,37b86e86-4d35-4ff3-821b-0e3f299d923a__pspm,http://pspm.pingstart.com/api/v4/postback?from=1706&clickid=37b86e86-4d35-4ff3-821b-0e3f299d923a__pspm,idfa_6c8fee09-16fb-4432-ad2b-8a3961a5d4aa,%ED%95%9C%EA%B5%AD%EC%96%B4
gjoPx4t8RGakEc5UKpheSw,newborntown,p1833_8ruxd6r4de8nr2pecqhr,Install,1.9,221.133.142.42,581d07c3-359c-4c6d-b640-09aa18c34273,1557348773,2019-05-09 04:52:53,1557348896,2019-05-09 04:54:56,1557348927,628919c1-e93d-4479-99b0-16f8382a4e28__pspm,http://pspm.pingstart.com/api/v4/postback?from=1706&clickid=628919c1-e93d-4479-99b0-16f8382a4e28__pspm,idfa_581d07c3-359c-4c6d-b640-09aa18c34273,%ED%95%9C%EA%B5%AD%EC%96%B4
gjoPx4t8RGakEc5UKpheSw,newborntown,p1833_8ruxd6r4de8nr2pecqhr,Install,1.9,182.222.156.50,fd11a4f0-4ce6-469b-8621-3ee6059833f2,1557350660,2019-05-09 05:24:20,1557350885,2019-05-09 05:28:05,1557350917,283f329c-26a4-4b39-a43a-745b6aa5a5e2__pspm,http://pspm.pingstart.com/api/v4/postback?from=1706&clickid=283f329c-26a4-4b39-a43a-745b6aa5a5e2__pspm,idfa_fd11a4f0-4ce6-469b-8621-3ee6059833f2,%ED%95%9C%EA%B5%AD%EC%96%B4
gjoPx4t8RGakEc5UKpheSw,newborntown,p1833_8ruxd6r4de8nr2pecqhr,Install,1.9,121.140.188.10,94fe5890-6f40-493b-a5f5-ba40b80faa34,1557347125,2019-05-09 04:25:25,1557347299,2019-05-09 04:28:19,1557347329,f61f10e0-0a25-4d7b-b76a-82f3d624a09b__pspm,http://pspm.pingstart.com/api/v4/postback?from=1706&clickid=f61f10e0-0a25-4d7b-b76a-82f3d624a09b__pspm,idfa_94fe5890-6f40-493b-a5f5-ba40b80faa34,%ED%95%9C%EA%B5%AD%EC%96%B4
gjoPx4t8RGakEc5UKpheSw,newborntown,p1833_8ruxd6r4de8nr2pecqhr,Install,1.9,118.43.217.103,7d70504c-ea2e-4766-9f0d-1a7f8b9c79c7,1557345989,2019-05-09 04:06:29,1557346187,2019-05-09 04:09:47,1557346217,f2106a0a-9da6-4c76-8d4d-e9e7c150018b__pspm,http://pspm.pingstart.com/api/v4/postback?from=1706&clickid=f2106a0a-9da6-4c76-8d4d-e9e7c150018b__pspm,idfa_7d70504c-ea2e-4766-9f0d-1a7f8b9c79c7,%ED%95%9C%EA%B5%AD%EC%96%B4
gjoPx4t8RGakEc5UKpheSw,newborntown,p1833_8ruxd6r4de8nr2pecqhr,Install,1.9,14.41.6.119,80242928-6e67-4868-a2cd-04869ea7bc96,1557345336,2019-05-09 03:55:36,1557345576,2019-05-09 03:59:36,1557345607,ed17f63c-5b80-4be0-ac4b-675c37190953__pspm,http://pspm.pingstart.com/api/v4/postback?from=1706&clickid=ed17f63c-5b80-4be0-ac4b-675c37190953__pspm,idfa_80242928-6e67-4868-a2cd-04869ea7bc96,%ED%95%9C%EA%B5%AD%EC%96%B4
gjoPx4t8RGakEc5UKpheSw,newborntown,p1833_8ruxd6r4de8nr2pecqhr,Install,1.9,121.143.163.73,95355d9c-942a-481a-9ab6-6f18c4cba17b,1557352600,2019-05-09 05:56:40,1557352810,2019-05-09 06:00:10,1557352841,8d8ec52f-00a0-4cbc-bd8d-3086ebe27a38__pspm,http://pspm.pingstart.com/api/v4/postback?from=1706&clickid=8d8ec52f-00a0-4cbc-bd8d-3086ebe27a38__pspm,idfa_95355d9c-942a-481a-9ab6-6f18c4cba17b,%ED%95%9C%EA%B5%AD%EC%96%B4
gjoPx4t8RGakEc5UKpheSw,newborntown,p1833_8ruxd6r4de8nr2pecqhr,Install,1.9,182.229.206.4,1ef896d5-9745-44a2-96c0-54c314b4169f,1557342968,2019-05-09 03:16:08,1557343193,2019-05-09 03:19:53,1557343224,ad26faf5-94fd-4a75-b940-37b044980dba__pspm,http://pspm.pingstart.com/api/v4/postback?from=1706&clickid=ad26faf5-94fd-4a75-b940-37b044980dba__pspm,idfa_1ef896d5-9745-44a2-96c0-54c314b4169f,%ED%95%9C%EA%B5%AD%EC%96%B4
