cid,partner_id,channel_id,action_id,cpi,ip,idfa,click time,click datetime,install time,install datetime,postback time,click id,postback url,unique user id
_aBtkX5VTAGEH8di3s0qFQ,newborntown,p1843_10425_,Install,1.3,112.152.5.32,b8c22951-47b5-47cd-846d-b2152acf8af9,1558131178,2019-05-18 06:12:58,1558132654,2019-05-18 06:37:34,1558132685,6fb75418-323a-4c18-81ff-7e19fbd7dd3a__pspm,http://pspm.pingstart.com/api/v4/postback?from=1706&clickid=6fb75418-323a-4c18-81ff-7e19fbd7dd3a__pspm,idfa_b8c22951-47b5-47cd-846d-b2152acf8af9,%ED%95%9C%EA%B5%AD%EC%96%B4
_aBtkX5VTAGEH8di3s0qFQ,newborntown,p1843_10425_,Install,1.3,221.162.17.223,06c77f77-d33c-45b0-b60a-0e151b2f990c,1558129989,2019-05-18 05:53:09,1558130210,2019-05-18 05:56:50,1558130241,568326db-9dc8-48d1-b286-96a0ab87e2b3__pspm,http://pspm.pingstart.com/api/v4/postback?from=1706&clickid=568326db-9dc8-48d1-b286-96a0ab87e2b3__pspm,idfa_06c77f77-d33c-45b0-b60a-0e151b2f990c,%ED%95%9C%EA%B5%AD%EC%96%B4
_aBtkX5VTAGEH8di3s0qFQ,newborntown,p1843_10425_,Install,1.3,218.49.122.26,69d81f91-438f-4875-9b2d-2e8b39f164ff,1558131689,2019-05-18 06:21:29,1558132254,2019-05-18 06:30:54,1558132286,4d09bdf0-8537-4b03-8866-3b8ba93b703b__pspm,http://pspm.pingstart.com/api/v4/postback?from=1706&clickid=4d09bdf0-8537-4b03-8866-3b8ba93b703b__pspm,idfa_69d81f91-438f-4875-9b2d-2e8b39f164ff,%ED%95%9C%EA%B5%AD%EC%96%B4
_aBtkX5VTAGEH8di3s0qFQ,newborntown,p1843_10425_,Install,1.3,1.225.245.26,fcdeb790-1321-4664-9677-5026ee2c303b,1558131016,2019-05-18 06:10:16,1558131183,2019-05-18 06:13:03,1558131214,bd6a9eeb-f9f2-4a64-b745-53a9b83e0564__pspm,http://pspm.pingstart.com/api/v4/postback?from=1706&clickid=bd6a9eeb-f9f2-4a64-b745-53a9b83e0564__pspm,idfa_fcdeb790-1321-4664-9677-5026ee2c303b,%ED%95%9C%EA%B5%AD%EC%96%B4
_aBtkX5VTAGEH8di3s0qFQ,newborntown,p1843_10425_,Install,1.3,175.223.35.216,9ee77e9d-5943-4c5f-9eab-d635ccdeccaa,1558131017,2019-05-18 06:10:17,1558131547,2019-05-18 06:19:07,1558131578,5387835d-e5d4-40cb-85c8-acd338199dad__pspm,http://pspm.pingstart.com/api/v4/postback?from=1706&clickid=5387835d-e5d4-40cb-85c8-acd338199dad__pspm,idfa_9ee77e9d-5943-4c5f-9eab-d635ccdeccaa,%ED%95%9C%EA%B5%AD%EC%96%B4
_aBtkX5VTAGEH8di3s0qFQ,newborntown,p1843_10425_,Install,1.3,223.38.24.237,31686ff4-5a33-4134-a42f-dfbd70218bd1,1558129144,2019-05-18 05:39:04,1558129334,2019-05-18 05:42:14,1558129364,1cdaae7f-2b57-4358-9bd9-c7316cf21bc0__pspm,http://pspm.pingstart.com/api/v4/postback?from=1706&clickid=1cdaae7f-2b57-4358-9bd9-c7316cf21bc0__pspm,idfa_31686ff4-5a33-4134-a42f-dfbd70218bd1,%ED%95%9C%EA%B5%AD%EC%96%B4
_aBtkX5VTAGEH8di3s0qFQ,newborntown,p1843_10425_,Install,1.3,223.62.202.201,3ef22456-78fc-4e5f-a9e9-efb1714fdfaf,1558130354,2019-05-18 05:59:14,1558130519,2019-05-18 06:01:59,1558130550,b2b3b038-9df2-428c-9b91-12023a29e1f6__pspm,http://pspm.pingstart.com/api/v4/postback?from=1706&clickid=b2b3b038-9df2-428c-9b91-12023a29e1f6__pspm,idfa_3ef22456-78fc-4e5f-a9e9-efb1714fdfaf,%ED%95%9C%EA%B5%AD%EC%96%B4
_aBtkX5VTAGEH8di3s0qFQ,newborntown,p1843_10425_,Install,1.3,220.118.72.206,381786bd-05ec-4b4b-945a-bac649f4f3eb,1558263610,2019-05-19 19:00:10,1558263635,2019-05-19 19:00:35,1558263666,f6dffb9a-db4a-49d7-b560-374af8acd951__pspm,http://pspm.pingstart.com/api/v4/postback?from=1706&clickid=f6dffb9a-db4a-49d7-b560-374af8acd951__pspm,idfa_381786bd-05ec-4b4b-945a-bac649f4f3eb,English
_aBtkX5VTAGEH8di3s0qFQ,newborntown,p1843_10425_,Install,1.3,110.70.15.75,da97a952-e5f3-4ea6-bc0b-ecbc0002360e,1558131321,2019-05-18 06:15:21,1558131605,2019-05-18 06:20:05,1558131638,bba628e9-cc1a-432b-aa81-8d34ba871bb0__pspm,http://pspm.pingstart.com/api/v4/postback?from=1706&clickid=bba628e9-cc1a-432b-aa81-8d34ba871bb0__pspm,idfa_da97a952-e5f3-4ea6-bc0b-ecbc0002360e,%ED%95%9C%EA%B5%AD%EC%96%B4
_aBtkX5VTAGEH8di3s0qFQ,newborntown,p1843_10425_,Install,1.3,125.179.152.163,72084f27-bbdf-448c-b10a-03e6af2c4f90,1558263632,2019-05-19 19:00:32,1558263673,2019-05-19 19:01:13,1558263704,0f2fd746-2d93-41b5-9133-4efa64c648bc__pspm,http://pspm.pingstart.com/api/v4/postback?from=1706&clickid=0f2fd746-2d93-41b5-9133-4efa64c648bc__pspm,idfa_72084f27-bbdf-448c-b10a-03e6af2c4f90,English
_aBtkX5VTAGEH8di3s0qFQ,newborntown,p1843_10425_,Install,1.3,175.223.31.50,9e97cc7d-08b3-4b0b-b482-95b68575fd92,1558263619,2019-05-19 19:00:19,1558263656,2019-05-19 19:00:56,1558263687,8f872f05-2d15-42d9-b5f9-ac1fcbcc2e70__pspm,http://pspm.pingstart.com/api/v4/postback?from=1706&clickid=8f872f05-2d15-42d9-b5f9-ac1fcbcc2e70__pspm,idfa_9e97cc7d-08b3-4b0b-b482-95b68575fd92,English
_aBtkX5VTAGEH8di3s0qFQ,newborntown,p1843_10425_,Install,1.3,125.183.168.70,e842fa02-4888-4bb2-a80a-274496341e31,1558131437,2019-05-18 06:17:17,1558131699,2019-05-18 06:21:39,1558131731,14917eea-f426-4407-9d81-b4dc6f3a6993__pspm,http://pspm.pingstart.com/api/v4/postback?from=1706&clickid=14917eea-f426-4407-9d81-b4dc6f3a6993__pspm,idfa_e842fa02-4888-4bb2-a80a-274496341e31,%ED%95%9C%EA%B5%AD%EC%96%B4
_aBtkX5VTAGEH8di3s0qFQ,newborntown,p1843_10425_,Install,1.3,180.67.85.37,75c2ba46-e6a1-4a75-b17e-f55b1a0cbae4,1558130111,2019-05-18 05:55:11,1558130281,2019-05-18 05:58:01,1558130311,7d6a3b19-ebe0-488e-81f5-4871c00d62d0__pspm,http://pspm.pingstart.com/api/v4/postback?from=1706&clickid=7d6a3b19-ebe0-488e-81f5-4871c00d62d0__pspm,idfa_75c2ba46-e6a1-4a75-b17e-f55b1a0cbae4,%ED%95%9C%EA%B5%AD%EC%96%B4
_aBtkX5VTAGEH8di3s0qFQ,newborntown,p1843_10425_,Install,1.3,175.208.191.133,8a9aa99e-60f1-4b21-a2f1-f3b8e934b81a,1558131559,2019-05-18 06:19:19,1558131849,2019-05-18 06:24:09,1558131880,4091d998-5add-499b-b60f-0934d0b9b90f__pspm,http://pspm.pingstart.com/api/v4/postback?from=1706&clickid=4091d998-5add-499b-b60f-0934d0b9b90f__pspm,idfa_8a9aa99e-60f1-4b21-a2f1-f3b8e934b81a,%ED%95%9C%EA%B5%AD%EC%96%B4
_aBtkX5VTAGEH8di3s0qFQ,newborntown,p1843_10425_,Install,1.3,211.235.48.21,1962335b-55b7-40d7-9e65-4b540a72f210,1558131556,2019-05-18 06:19:16,1558131725,2019-05-18 06:22:05,1558131756,6aa7d53e-5323-4dea-b130-b3c6ccea266e__pspm,http://pspm.pingstart.com/api/v4/postback?from=1706&clickid=6aa7d53e-5323-4dea-b130-b3c6ccea266e__pspm,idfa_1962335b-55b7-40d7-9e65-4b540a72f210,%ED%95%9C%EA%B5%AD%EC%96%B4
_aBtkX5VTAGEH8di3s0qFQ,newborntown,p1843_10425_,Install,1.3,112.164.213.66,f1c729d0-5f12-4a62-8ccf-b2932b3a66fd,1558263633,2019-05-19 19:00:33,1558263665,2019-05-19 19:01:05,1558263696,2f44c91b-b1c6-4730-a553-0519431da894__pspm,http://pspm.pingstart.com/api/v4/postback?from=1706&clickid=2f44c91b-b1c6-4730-a553-0519431da894__pspm,idfa_f1c729d0-5f12-4a62-8ccf-b2932b3a66fd,English
_aBtkX5VTAGEH8di3s0qFQ,newborntown,p1843_10425_,Install,1.3,125.181.80.173,052cad55-c9aa-4732-a344-d5709c9c9c8c,1558235670,2019-05-19 11:14:30,1558235684,2019-05-19 11:14:44,1558235718,17ca34af-24be-4178-8a24-61586f53df83__pspm,http://pspm.pingstart.com/api/v4/postback?from=1706&clickid=17ca34af-24be-4178-8a24-61586f53df83__pspm,idfa_052cad55-c9aa-4732-a344-d5709c9c9c8c,%ED%95%9C%EA%B5%AD%EC%96%B4
_aBtkX5VTAGEH8di3s0qFQ,newborntown,p1843_10425_,Install,1.3,1.239.33.73,49eddb38-2b53-4032-9d87-442890760edf,1558130601,2019-05-18 06:03:21,1558130767,2019-05-18 06:06:07,1558130797,67c1d47e-4147-4e4c-a1c9-3ef96bfcd4b3__pspm,http://pspm.pingstart.com/api/v4/postback?from=1706&clickid=67c1d47e-4147-4e4c-a1c9-3ef96bfcd4b3__pspm,idfa_49eddb38-2b53-4032-9d87-442890760edf,%ED%95%9C%EA%B5%AD%EC%96%B4
_aBtkX5VTAGEH8di3s0qFQ,newborntown,p1843_10425_,Install,1.3,218.38.156.102,32a30c32-b653-4fe2-ae97-ad093d5584e9,1558131197,2019-05-18 06:13:17,1558131700,2019-05-18 06:21:40,1558131731,a3da25e7-cf10-4345-839a-1987f9f6e5f8__pspm,http://pspm.pingstart.com/api/v4/postback?from=1706&clickid=a3da25e7-cf10-4345-839a-1987f9f6e5f8__pspm,idfa_32a30c32-b653-4fe2-ae97-ad093d5584e9,%ED%95%9C%EA%B5%AD%EC%96%B4
_aBtkX5VTAGEH8di3s0qFQ,newborntown,p1843_10425_,Install,1.3,14.38.201.178,f269f74d-6fa4-468d-8458-7c67f63b527a,1558131610,2019-05-18 06:20:10,1558131791,2019-05-18 06:23:11,1558131822,2b29971e-daa9-4423-8478-712fc223de18__pspm,http://pspm.pingstart.com/api/v4/postback?from=1706&clickid=2b29971e-daa9-4423-8478-712fc223de18__pspm,idfa_f269f74d-6fa4-468d-8458-7c67f63b527a,%ED%95%9C%EA%B5%AD%EC%96%B4
_aBtkX5VTAGEH8di3s0qFQ,newborntown,p1843_10425_,Install,1.3,112.152.33.252,f544f4d6-5131-4591-8cec-cd74010193f0,1558263443,2019-05-19 18:57:23,1558263478,2019-05-19 18:57:58,1558263510,b88035c9-83d8-4a19-aa8d-8e88859d0289__pspm,http://pspm.pingstart.com/api/v4/postback?from=1706&clickid=b88035c9-83d8-4a19-aa8d-8e88859d0289__pspm,idfa_f544f4d6-5131-4591-8cec-cd74010193f0,English
_aBtkX5VTAGEH8di3s0qFQ,newborntown,p1843_10425_,Install,1.3,210.205.26.43,961a4d30-7c5a-4841-9820-36f84350cea3,1558263606,2019-05-19 19:00:06,1558263639,2019-05-19 19:00:39,1558263670,83e504c9-8dd9-4a32-875b-83aa6f082f0d__pspm,http://pspm.pingstart.com/api/v4/postback?from=1706&clickid=83e504c9-8dd9-4a32-875b-83aa6f082f0d__pspm,idfa_961a4d30-7c5a-4841-9820-36f84350cea3,English
_aBtkX5VTAGEH8di3s0qFQ,newborntown,p1843_10425_,Install,1.3,211.36.148.136,bae1f7e1-1708-42c0-80cb-8c21232a4718,1558131438,2019-05-18 06:17:18,1558131607,2019-05-18 06:20:07,1558131638,d95770d6-e607-4f97-80d1-7ba424d20abc__pspm,http://pspm.pingstart.com/api/v4/postback?from=1706&clickid=d95770d6-e607-4f97-80d1-7ba424d20abc__pspm,idfa_bae1f7e1-1708-42c0-80cb-8c21232a4718,%ED%95%9C%EA%B5%AD%EC%96%B4
_aBtkX5VTAGEH8di3s0qFQ,newborntown,p1843_10425_,Install,1.3,49.168.202.30,cded9dff-3049-48c5-83a2-caa7add62160,1558130050,2019-05-18 05:54:10,1558130216,2019-05-18 05:56:56,1558130248,ce460aa8-d9d3-4f36-affa-3db2ca220df8__pspm,http://pspm.pingstart.com/api/v4/postback?from=1706&clickid=ce460aa8-d9d3-4f36-affa-3db2ca220df8__pspm,idfa_cded9dff-3049-48c5-83a2-caa7add62160,%ED%95%9C%EA%B5%AD%EC%96%B4
_aBtkX5VTAGEH8di3s0qFQ,newborntown,p1843_10425_,Install,1.3,118.35.154.100,0654b65a-625f-4f11-bc23-c7d63788fcfa,1558263582,2019-05-19 18:59:42,1558263611,2019-05-19 19:00:11,1558263642,d64bb21e-4f19-43b1-a619-0a8be92f3de4__pspm,http://pspm.pingstart.com/api/v4/postback?from=1706&clickid=d64bb21e-4f19-43b1-a619-0a8be92f3de4__pspm,idfa_0654b65a-625f-4f11-bc23-c7d63788fcfa,English
_aBtkX5VTAGEH8di3s0qFQ,newborntown,p1843_10425_,Install,1.3,218.237.176.180,b645b1b0-8e94-414b-9307-d3bec5476ca8,1558130898,2019-05-18 06:08:18,1558131072,2019-05-18 06:11:12,1558131103,94fa413b-6f9e-4b70-8ef1-90ca04ca663a__pspm,http://pspm.pingstart.com/api/v4/postback?from=1706&clickid=94fa413b-6f9e-4b70-8ef1-90ca04ca663a__pspm,idfa_b645b1b0-8e94-414b-9307-d3bec5476ca8,%ED%95%9C%EA%B5%AD%EC%96%B4
_aBtkX5VTAGEH8di3s0qFQ,newborntown,p1843_10425_,Install,1.3,210.94.74.94,ed61bb6d-2889-477f-a3ff-8085e4ab36e1,1558130598,2019-05-18 06:03:18,1558130895,2019-05-18 06:08:15,1558130925,72a15ecd-cc6e-4182-8e80-da219519f8e6__pspm,http://pspm.pingstart.com/api/v4/postback?from=1706&clickid=72a15ecd-cc6e-4182-8e80-da219519f8e6__pspm,idfa_ed61bb6d-2889-477f-a3ff-8085e4ab36e1,%ED%95%9C%EA%B5%AD%EC%96%B4
_aBtkX5VTAGEH8di3s0qFQ,newborntown,p1843_10425_,Install,1.3,110.12.57.190,12bfc9c3-2260-4dad-8bf8-54be4e6d3db6,1558263628,2019-05-19 19:00:28,1558263708,2019-05-19 19:01:48,1558263739,4c101750-f70e-4bd4-be0e-c213b7fc69c9__pspm,http://pspm.pingstart.com/api/v4/postback?from=1706&clickid=4c101750-f70e-4bd4-be0e-c213b7fc69c9__pspm,idfa_12bfc9c3-2260-4dad-8bf8-54be4e6d3db6,English
_aBtkX5VTAGEH8di3s0qFQ,newborntown,p1843_10425_,Install,1.3,223.38.28.148,58e15055-b7b2-42bd-99b7-9c2a424f0c04,1558130234,2019-05-18 05:57:14,1558130397,2019-05-18 05:59:57,1558130429,1ee16ef5-3bfc-4b74-97f8-9814ca8b98ab__pspm,http://pspm.pingstart.com/api/v4/postback?from=1706&clickid=1ee16ef5-3bfc-4b74-97f8-9814ca8b98ab__pspm,idfa_58e15055-b7b2-42bd-99b7-9c2a424f0c04,%ED%95%9C%EA%B5%AD%EC%96%B4
_aBtkX5VTAGEH8di3s0qFQ,newborntown,p1843_10425_,Install,1.3,112.218.21.194,08b1e193-72ce-4e77-bbd3-c8b7345cdd2b,1558130657,2019-05-18 06:04:17,1558130826,2019-05-18 06:07:06,1558130857,b661c8f6-2158-49ef-8bec-975e8ad6c333__pspm,http://pspm.pingstart.com/api/v4/postback?from=1706&clickid=b661c8f6-2158-49ef-8bec-975e8ad6c333__pspm,idfa_08b1e193-72ce-4e77-bbd3-c8b7345cdd2b,%ED%95%9C%EA%B5%AD%EC%96%B4
_aBtkX5VTAGEH8di3s0qFQ,newborntown,p1843_10425_,Install,1.3,211.36.141.16,d9b11c47-fbf7-4b79-9351-d0611b315019,1558131501,2019-05-18 06:18:21,1558131722,2019-05-18 06:22:02,1558131752,e3bf5771-1c88-4d16-a533-33e05aca5853__pspm,http://pspm.pingstart.com/api/v4/postback?from=1706&clickid=e3bf5771-1c88-4d16-a533-33e05aca5853__pspm,idfa_d9b11c47-fbf7-4b79-9351-d0611b315019,%ED%95%9C%EA%B5%AD%EC%96%B4
_aBtkX5VTAGEH8di3s0qFQ,newborntown,p1843_10425_,Install,1.3,112.148.4.83,5e413e44-2a5d-4c27-bf59-403d96399013,1558131674,2019-05-18 06:21:14,1558132848,2019-05-18 06:40:48,1558132878,7cbc3139-7fbe-454e-8b8b-e1905a3d1f8f__pspm,http://pspm.pingstart.com/api/v4/postback?from=1706&clickid=7cbc3139-7fbe-454e-8b8b-e1905a3d1f8f__pspm,idfa_5e413e44-2a5d-4c27-bf59-403d96399013,%ED%95%9C%EA%B5%AD%EC%96%B4
_aBtkX5VTAGEH8di3s0qFQ,newborntown,p1843_10425_,Install,1.3,121.168.1.28,e2e1d633-ab3f-4b19-952f-1b5b50f5156d,1558263593,2019-05-19 18:59:53,1558263632,2019-05-19 19:00:32,1558263663,3dadbe3f-4759-45ef-9cd0-956dde1b5674__pspm,http://pspm.pingstart.com/api/v4/postback?from=1706&clickid=3dadbe3f-4759-45ef-9cd0-956dde1b5674__pspm,idfa_e2e1d633-ab3f-4b19-952f-1b5b50f5156d,English
_aBtkX5VTAGEH8di3s0qFQ,newborntown,p1843_10425_,Install,1.3,222.251.218.18,f8005f11-5293-4557-baf8-12e58f477d0e,1558130411,2019-05-18 06:00:11,1558131184,2019-05-18 06:13:04,1558131215,26751347-0f60-48e8-a727-17806dd4e313__pspm,http://pspm.pingstart.com/api/v4/postback?from=1706&clickid=26751347-0f60-48e8-a727-17806dd4e313__pspm,idfa_f8005f11-5293-4557-baf8-12e58f477d0e,%ED%95%9C%EA%B5%AD%EC%96%B4
_aBtkX5VTAGEH8di3s0qFQ,newborntown,p1843_10425_,Install,1.3,116.44.12.154,2a39c47a-114c-461b-ad7f-53257e698d22,1558130293,2019-05-18 05:58:13,1558130462,2019-05-18 06:01:02,1558130493,8de3adc0-2f37-4208-9def-58f49a6848ea__pspm,http://pspm.pingstart.com/api/v4/postback?from=1706&clickid=8de3adc0-2f37-4208-9def-58f49a6848ea__pspm,idfa_2a39c47a-114c-461b-ad7f-53257e698d22,%ED%95%9C%EA%B5%AD%EC%96%B4
_aBtkX5VTAGEH8di3s0qFQ,newborntown,p1843_10425_,Install,1.3,59.19.48.236,093c3c32-1ddb-4ecd-ad81-dc29b09f5877,1558130957,2019-05-18 06:09:17,1558131127,2019-05-18 06:12:07,1558131158,1da6e572-a46c-467c-9d78-923c2ada01c1__pspm,http://pspm.pingstart.com/api/v4/postback?from=1706&clickid=1da6e572-a46c-467c-9d78-923c2ada01c1__pspm,idfa_093c3c32-1ddb-4ecd-ad81-dc29b09f5877,%ED%95%9C%EA%B5%AD%EC%96%B4
_aBtkX5VTAGEH8di3s0qFQ,newborntown,p1843_10425_,Install,1.3,39.117.165.199,b4de45b8-67d5-4a2e-aff4-d46dc721621c,1558263574,2019-05-19 18:59:34,1558263598,2019-05-19 18:59:58,1558263631,0d5d8ce3-20e2-41b0-8c8a-1c4fb4d98306__pspm,http://pspm.pingstart.com/api/v4/postback?from=1706&clickid=0d5d8ce3-20e2-41b0-8c8a-1c4fb4d98306__pspm,idfa_b4de45b8-67d5-4a2e-aff4-d46dc721621c,English
_aBtkX5VTAGEH8di3s0qFQ,newborntown,p1843_10425_,Install,1.3,110.12.129.18,dc07a5ba-bece-42ae-8619-61947613e9e4,1558263619,2019-05-19 19:00:19,1558263642,2019-05-19 19:00:42,1558263673,d67237a6-82c3-4b11-8ae3-8f4a091a73bb__pspm,http://pspm.pingstart.com/api/v4/postback?from=1706&clickid=d67237a6-82c3-4b11-8ae3-8f4a091a73bb__pspm,idfa_dc07a5ba-bece-42ae-8619-61947613e9e4,English
_aBtkX5VTAGEH8di3s0qFQ,newborntown,p1843_10425_,Install,1.3,180.65.109.143,5b049d7c-b17a-48d7-b4a1-6c8de28bbff8,1558253314,2019-05-19 16:08:34,1558253991,2019-05-19 16:19:51,1558254021,71ec919f-649f-40a3-9cbd-b414ab435aa2__pspm,http://pspm.pingstart.com/api/v4/postback?from=1706&clickid=71ec919f-649f-40a3-9cbd-b414ab435aa2__pspm,idfa_5b049d7c-b17a-48d7-b4a1-6c8de28bbff8,%ED%95%9C%EA%B5%AD%EC%96%B4
_aBtkX5VTAGEH8di3s0qFQ,newborntown,p1843_10425_,Install,1.3,118.176.246.177,61736c1f-0555-43ba-9b49-9b142e43ac16,1558130714,2019-05-18 06:05:14,1558130966,2019-05-18 06:09:26,1558130997,c3cc6c03-539c-468b-9712-cd3802b0d615__pspm,http://pspm.pingstart.com/api/v4/postback?from=1706&clickid=c3cc6c03-539c-468b-9712-cd3802b0d615__pspm,idfa_61736c1f-0555-43ba-9b49-9b142e43ac16,%D8%A7%D9%84%D8%B9%D8%B1%D8%A8%D9%8A%D8%A9
_aBtkX5VTAGEH8di3s0qFQ,newborntown,p1843_10425_,Install,1.3,219.250.224.173,a3e8c918-877b-4494-9781-7f2c6aa9287f,1558263575,2019-05-19 18:59:35,1558263599,2019-05-19 18:59:59,1558263630,73b03a79-1f54-40ca-be09-dda853b6780a__pspm,http://pspm.pingstart.com/api/v4/postback?from=1706&clickid=73b03a79-1f54-40ca-be09-dda853b6780a__pspm,idfa_a3e8c918-877b-4494-9781-7f2c6aa9287f,English
_aBtkX5VTAGEH8di3s0qFQ,newborntown,p1843_10425_,Install,1.3,121.165.67.195,f1386964-dfc6-4e2f-bfd9-b7614f93b664,1558130535,2019-05-18 06:02:15,1558130776,2019-05-18 06:06:16,1558130807,90953d7f-1dd9-4a6a-8ef8-e62c46cf58c8__pspm,http://pspm.pingstart.com/api/v4/postback?from=1706&clickid=90953d7f-1dd9-4a6a-8ef8-e62c46cf58c8__pspm,idfa_f1386964-dfc6-4e2f-bfd9-b7614f93b664,%ED%95%9C%EA%B5%AD%EC%96%B4
_aBtkX5VTAGEH8di3s0qFQ,newborntown,p1843_10425_,Install,1.3,121.164.127.118,69b05d81-5306-4b55-aa15-7947274a7bf1,1558130841,2019-05-18 06:07:21,1558132248,2019-05-18 06:30:48,1558132279,52c20e5f-5176-4847-9bbe-a50e62de3c14__pspm,http://pspm.pingstart.com/api/v4/postback?from=1706&clickid=52c20e5f-5176-4847-9bbe-a50e62de3c14__pspm,idfa_69b05d81-5306-4b55-aa15-7947274a7bf1,English
_aBtkX5VTAGEH8di3s0qFQ,newborntown,p1843_10425_,Install,1.3,175.120.126.142,09a89473-e9cb-428c-a694-74b1020eef36,1558129144,2019-05-18 05:39:04,1558129382,2019-05-18 05:43:02,1558129413,419a3f2c-4e97-43d0-8d97-3669bcfbfeaa__pspm,http://pspm.pingstart.com/api/v4/postback?from=1706&clickid=419a3f2c-4e97-43d0-8d97-3669bcfbfeaa__pspm,idfa_09a89473-e9cb-428c-a694-74b1020eef36,Indonesia
_aBtkX5VTAGEH8di3s0qFQ,newborntown,p1843_10425_,Install,1.3,175.117.247.227,03df8203-c238-4b3b-b90a-2e2449243c95,1558263621,2019-05-19 19:00:21,1558263655,2019-05-19 19:00:55,1558263686,38bf4e3f-e670-40e8-8f18-a1a05937bdb5__pspm,http://pspm.pingstart.com/api/v4/postback?from=1706&clickid=38bf4e3f-e670-40e8-8f18-a1a05937bdb5__pspm,idfa_03df8203-c238-4b3b-b90a-2e2449243c95,English
_aBtkX5VTAGEH8di3s0qFQ,newborntown,p1843_10425_,Install,1.3,61.37.246.148,e0b9e2b8-b535-4fac-a544-3049fa393f72,1558237530,2019-05-19 11:45:30,1558237584,2019-05-19 11:46:24,1558237620,e5d04ea5-3db9-4639-8bfe-27ea88a4f971__pspm,http://pspm.pingstart.com/api/v4/postback?from=1706&clickid=e5d04ea5-3db9-4639-8bfe-27ea88a4f971__pspm,idfa_e0b9e2b8-b535-4fac-a544-3049fa393f72,%ED%95%9C%EA%B5%AD%EC%96%B4
