cid,partner_id,channel_id,action_id,cpi,ip,idfa,click time,click datetime,install time,install datetime,postback time,click id,postback url,unique user id
_XWTsZgzQuaPrgBPHMPTZA,newborntown,p1789_589-1509_951,Of81qbvWSPKfViI7CdMfcw,3.0,,0fc48307-a883-4667-ac86-bb1619cb1cc1,1557078647,2019-05-06 01:50:47,1557078696,2019-05-06 01:51:36,1557078696,0dae7874-b7e7-4509-9696-22d59424bcba__pspm,http://pspm.pingstart.com/api/v4/postback?from=1706&clickid=0dae7874-b7e7-4509-9696-22d59424bcba__pspm,idfa_0fc48307-a883-4667-ac86-bb1619cb1cc1,ja
_XWTsZgzQuaPrgBPHMPTZA,newborntown,p1789_589-1509_951,Of81qbvWSPKfViI7CdMfcw,3.0,,34236588-b0c7-451a-9774-f2349f12c433,1556989047,2019-05-05 00:57:27,1556989069,2019-05-05 00:57:49,1556989069,8ab381d1-5d0f-4e62-9de5-3c9bcc8e5872__pspm,http://pspm.pingstart.com/api/v4/postback?from=1706&clickid=8ab381d1-5d0f-4e62-9de5-3c9bcc8e5872__pspm,idfa_34236588-b0c7-451a-9774-f2349f12c433,en
_XWTsZgzQuaPrgBPHMPTZA,newborntown,p1789_589-1509_951,Of81qbvWSPKfViI7CdMfcw,3.0,,ac76afd7-bbf8-49f0-a652-cc151302ebbb,1556989293,2019-05-05 01:01:33,1556989308,2019-05-05 01:01:48,1556989308,ef423194-16fe-4bc9-b5dc-6817c1109440__pspm,http://pspm.pingstart.com/api/v4/postback?from=1706&clickid=ef423194-16fe-4bc9-b5dc-6817c1109440__pspm,idfa_ac76afd7-bbf8-49f0-a652-cc151302ebbb,ja
_XWTsZgzQuaPrgBPHMPTZA,newborntown,p1789_589-1509_951,Of81qbvWSPKfViI7CdMfcw,3.0,,61bacf32-8bbc-47fc-ac0e-a164b3388731,1557077905,2019-05-06 01:38:25,1557077930,2019-05-06 01:38:50,1557077930,49a36f09-5e7a-4999-9257-80849f11c735__pspm,http://pspm.pingstart.com/api/v4/postback?from=1706&clickid=49a36f09-5e7a-4999-9257-80849f11c735__pspm,idfa_61bacf32-8bbc-47fc-ac0e-a164b3388731,ja
_XWTsZgzQuaPrgBPHMPTZA,newborntown,p1789_589-1509_951,Of81qbvWSPKfViI7CdMfcw,3.0,,39f3f423-19ed-48e2-93aa-0cd1da012170,1557076995,2019-05-06 01:23:15,1557077017,2019-05-06 01:23:37,1557077017,cc57b904-9188-4418-a5dc-5d0bbd66cfe6__pspm,http://pspm.pingstart.com/api/v4/postback?from=1706&clickid=cc57b904-9188-4418-a5dc-5d0bbd66cfe6__pspm,idfa_39f3f423-19ed-48e2-93aa-0cd1da012170,en
_XWTsZgzQuaPrgBPHMPTZA,newborntown,p1789_589-1509_951,Of81qbvWSPKfViI7CdMfcw,3.0,,9b96a0a7-5c65-4dd9-8d9b-e6d3793841e2,1556989092,2019-05-05 00:58:12,1556989109,2019-05-05 00:58:29,1556989109,a6018fce-c2a9-4a67-b19a-61ddc0f674e5__pspm,http://pspm.pingstart.com/api/v4/postback?from=1706&clickid=a6018fce-c2a9-4a67-b19a-61ddc0f674e5__pspm,idfa_9b96a0a7-5c65-4dd9-8d9b-e6d3793841e2,ja
_XWTsZgzQuaPrgBPHMPTZA,newborntown,p1789_589-1509_951,Of81qbvWSPKfViI7CdMfcw,3.0,,f1e4a445-7b14-4443-882b-32a8639f6f5f,1556989197,2019-05-05 00:59:57,1556989216,2019-05-05 01:00:16,1556989216,d8035812-173f-459e-87f9-5ce5186b41ae__pspm,http://pspm.pingstart.com/api/v4/postback?from=1706&clickid=d8035812-173f-459e-87f9-5ce5186b41ae__pspm,idfa_f1e4a445-7b14-4443-882b-32a8639f6f5f,ja
_XWTsZgzQuaPrgBPHMPTZA,newborntown,p1789_589-1509_951,Of81qbvWSPKfViI7CdMfcw,3.0,,99033bb2-7624-440c-8180-5762133986d3,1556989884,2019-05-05 01:11:24,1556989912,2019-05-05 01:11:52,1556989912,a9727b89-e922-4cf0-a276-8033af06c2f8__pspm,http://pspm.pingstart.com/api/v4/postback?from=1706&clickid=a9727b89-e922-4cf0-a276-8033af06c2f8__pspm,idfa_99033bb2-7624-440c-8180-5762133986d3,en
_XWTsZgzQuaPrgBPHMPTZA,newborntown,p1789_589-1509_951,Of81qbvWSPKfViI7CdMfcw,3.0,,b942ec6a-6ba2-4d28-9d2a-5c0ff479ae92,1557076891,2019-05-06 01:21:31,1557076912,2019-05-06 01:21:52,1557076912,579f33ae-9f18-4879-8108-d4232ff42491__pspm,http://pspm.pingstart.com/api/v4/postback?from=1706&clickid=579f33ae-9f18-4879-8108-d4232ff42491__pspm,idfa_b942ec6a-6ba2-4d28-9d2a-5c0ff479ae92,ja
_XWTsZgzQuaPrgBPHMPTZA,newborntown,p1789_589-1509_951,Of81qbvWSPKfViI7CdMfcw,3.0,,2c675094-e7bf-4455-9677-4624229c54ae,1556988948,2019-05-05 00:55:48,1556988973,2019-05-05 00:56:13,1556988973,8d539fe1-3a2d-43c7-a76b-9ffd2b8ad524__pspm,http://pspm.pingstart.com/api/v4/postback?from=1706&clickid=8d539fe1-3a2d-43c7-a76b-9ffd2b8ad524__pspm,idfa_2c675094-e7bf-4455-9677-4624229c54ae,ja
_XWTsZgzQuaPrgBPHMPTZA,newborntown,p1789_589-1509_951,Of81qbvWSPKfViI7CdMfcw,3.0,,ca204413-361a-47fe-84cf-37ff6749b51f,1556988993,2019-05-05 00:56:33,1556989046,2019-05-05 00:57:26,1556989046,829c3f65-d83f-4a8c-8780-3b388600c485__pspm,http://pspm.pingstart.com/api/v4/postback?from=1706&clickid=829c3f65-d83f-4a8c-8780-3b388600c485__pspm,idfa_ca204413-361a-47fe-84cf-37ff6749b51f,en
_XWTsZgzQuaPrgBPHMPTZA,newborntown,p1789_589-1509_951,Of81qbvWSPKfViI7CdMfcw,3.0,,3ccf5e9a-dc4e-4bb2-9dd4-bd7bb899961f,1556989754,2019-05-05 01:09:14,1556989788,2019-05-05 01:09:48,1556989788,aa0483a9-1429-4adb-995d-f0cb8478dfcc__pspm,http://pspm.pingstart.com/api/v4/postback?from=1706&clickid=aa0483a9-1429-4adb-995d-f0cb8478dfcc__pspm,idfa_3ccf5e9a-dc4e-4bb2-9dd4-bd7bb899961f,ja
_XWTsZgzQuaPrgBPHMPTZA,newborntown,p1789_589-1509_951,Of81qbvWSPKfViI7CdMfcw,3.0,,34e40229-6f02-4864-8ae6-68c072d8b8d2,1557078879,2019-05-06 01:54:39,1557078909,2019-05-06 01:55:09,1557078909,e817e151-27d9-44d4-ba1c-b2d86fbae49d__pspm,http://pspm.pingstart.com/api/v4/postback?from=1706&clickid=e817e151-27d9-44d4-ba1c-b2d86fbae49d__pspm,idfa_34e40229-6f02-4864-8ae6-68c072d8b8d2,en
_XWTsZgzQuaPrgBPHMPTZA,newborntown,p1789_589-1509_951,Of81qbvWSPKfViI7CdMfcw,3.0,,9490d6ae-c10c-4d5a-b475-ac73af26eb4f,1556989021,2019-05-05 00:57:01,1556989038,2019-05-05 00:57:18,1556989038,27b8ddf2-d884-4e45-b404-857b36de08b8__pspm,http://pspm.pingstart.com/api/v4/postback?from=1706&clickid=27b8ddf2-d884-4e45-b404-857b36de08b8__pspm,idfa_9490d6ae-c10c-4d5a-b475-ac73af26eb4f,ja
_XWTsZgzQuaPrgBPHMPTZA,newborntown,p1789_589-1509_951,Of81qbvWSPKfViI7CdMfcw,3.0,,a802ea8c-9a17-4a5e-bee8-1920c746f1d6,1556989814,2019-05-05 01:10:14,1556989838,2019-05-05 01:10:38,1556989838,f58f7b8f-9fb4-4558-a979-af4fbde01212__pspm,http://pspm.pingstart.com/api/v4/postback?from=1706&clickid=f58f7b8f-9fb4-4558-a979-af4fbde01212__pspm,idfa_a802ea8c-9a17-4a5e-bee8-1920c746f1d6,ja
_XWTsZgzQuaPrgBPHMPTZA,newborntown,p1789_589-1509_951,Of81qbvWSPKfViI7CdMfcw,3.0,,b3c70c53-a43f-4b1b-8c8d-2aa3893d3b28,1557077243,2019-05-06 01:27:23,1557077263,2019-05-06 01:27:43,1557077263,aaad9ebe-b050-4bdf-9858-9e686073553f__pspm,http://pspm.pingstart.com/api/v4/postback?from=1706&clickid=aaad9ebe-b050-4bdf-9858-9e686073553f__pspm,idfa_b3c70c53-a43f-4b1b-8c8d-2aa3893d3b28,ja
_XWTsZgzQuaPrgBPHMPTZA,newborntown,p1789_589-1509_951,Of81qbvWSPKfViI7CdMfcw,3.0,,8eeeea8b-5c11-429e-8701-4363fdace5cc,1556989281,2019-05-05 01:01:21,1556989300,2019-05-05 01:01:40,1556989300,ebbe6cfd-c69f-430d-9957-574b3d83ab0d__pspm,http://pspm.pingstart.com/api/v4/postback?from=1706&clickid=ebbe6cfd-c69f-430d-9957-574b3d83ab0d__pspm,idfa_8eeeea8b-5c11-429e-8701-4363fdace5cc,ja
_XWTsZgzQuaPrgBPHMPTZA,newborntown,p1789_589-1509_951,Of81qbvWSPKfViI7CdMfcw,3.0,,ed775fe5-b1a7-4899-92cc-10f59f4acaac,1557076848,2019-05-06 01:20:48,1557076869,2019-05-06 01:21:09,1557076869,961b361a-b38e-4097-874f-3a53df84f328__pspm,http://pspm.pingstart.com/api/v4/postback?from=1706&clickid=961b361a-b38e-4097-874f-3a53df84f328__pspm,idfa_ed775fe5-b1a7-4899-92cc-10f59f4acaac,ja
_XWTsZgzQuaPrgBPHMPTZA,newborntown,p1789_589-1509_951,Of81qbvWSPKfViI7CdMfcw,3.0,,06c0cdd8-0d77-4b5c-9212-a9bc10a89dc9,1557078913,2019-05-06 01:55:13,1557078931,2019-05-06 01:55:31,1557078931,8efd0137-1019-4726-bd9a-546b1d7ba86f__pspm,http://pspm.pingstart.com/api/v4/postback?from=1706&clickid=8efd0137-1019-4726-bd9a-546b1d7ba86f__pspm,idfa_06c0cdd8-0d77-4b5c-9212-a9bc10a89dc9,en
_XWTsZgzQuaPrgBPHMPTZA,newborntown,p1789_589-1509_951,Of81qbvWSPKfViI7CdMfcw,3.0,,eb1543d5-e4d4-406f-8594-415a62521ed5,1556989218,2019-05-05 01:00:18,1556989237,2019-05-05 01:00:37,1556989237,12f1d907-59aa-4361-8a96-45fc69b4f511__pspm,http://pspm.pingstart.com/api/v4/postback?from=1706&clickid=12f1d907-59aa-4361-8a96-45fc69b4f511__pspm,idfa_eb1543d5-e4d4-406f-8594-415a62521ed5,ja
_XWTsZgzQuaPrgBPHMPTZA,newborntown,p1789_589-1509_951,Of81qbvWSPKfViI7CdMfcw,3.0,,8daaf45d-4af8-44d1-98b9-324281322b50,1557078339,2019-05-06 01:45:39,1557078359,2019-05-06 01:45:59,1557078359,a0e18877-17eb-4328-8767-db803e0e4261__pspm,http://pspm.pingstart.com/api/v4/postback?from=1706&clickid=a0e18877-17eb-4328-8767-db803e0e4261__pspm,idfa_8daaf45d-4af8-44d1-98b9-324281322b50,ja
_XWTsZgzQuaPrgBPHMPTZA,newborntown,p1789_589-1509_951,Of81qbvWSPKfViI7CdMfcw,3.0,,53881b6c-beed-4ace-92dc-91b0540aa1c1,1557078650,2019-05-06 01:50:50,1557078666,2019-05-06 01:51:06,1557078666,5866409e-5b50-4402-9b75-4790ef400fbf__pspm,http://pspm.pingstart.com/api/v4/postback?from=1706&clickid=5866409e-5b50-4402-9b75-4790ef400fbf__pspm,idfa_53881b6c-beed-4ace-92dc-91b0540aa1c1,en
_XWTsZgzQuaPrgBPHMPTZA,newborntown,p1789_589-1509_951,Of81qbvWSPKfViI7CdMfcw,3.0,,40dd8133-c8ef-449f-b8ce-9dd507068d26,1556989460,2019-05-05 01:04:20,1556989481,2019-05-05 01:04:41,1556989481,b40f9d13-fe59-4979-a36d-e51003a2ccfc__pspm,http://pspm.pingstart.com/api/v4/postback?from=1706&clickid=b40f9d13-fe59-4979-a36d-e51003a2ccfc__pspm,idfa_40dd8133-c8ef-449f-b8ce-9dd507068d26,ja
_XWTsZgzQuaPrgBPHMPTZA,newborntown,p1789_589-1509_951,Of81qbvWSPKfViI7CdMfcw,3.0,,f70a5e31-dd11-4bea-a7f2-7602f9f76a7a,1556989466,2019-05-05 01:04:26,1556989508,2019-05-05 01:05:08,1556989508,e6be3b03-d7af-49e2-822d-2dde599582ea__pspm,http://pspm.pingstart.com/api/v4/postback?from=1706&clickid=e6be3b03-d7af-49e2-822d-2dde599582ea__pspm,idfa_f70a5e31-dd11-4bea-a7f2-7602f9f76a7a,ja
_XWTsZgzQuaPrgBPHMPTZA,newborntown,p1789_589-1509_951,Of81qbvWSPKfViI7CdMfcw,3.0,,4ea5d255-fa7b-4e93-bf93-c2575a7ac9fa,1557076520,2019-05-06 01:15:20,1557076542,2019-05-06 01:15:42,1557076542,1286d824-e570-496a-854a-5badbe7b700f__pspm,http://pspm.pingstart.com/api/v4/postback?from=1706&clickid=1286d824-e570-496a-854a-5badbe7b700f__pspm,idfa_4ea5d255-fa7b-4e93-bf93-c2575a7ac9fa,en
_XWTsZgzQuaPrgBPHMPTZA,newborntown,p1789_589-1509_951,Of81qbvWSPKfViI7CdMfcw,3.0,,ca44e56d-b1e7-4d86-8958-c620cf963205,1556988903,2019-05-05 00:55:03,1556988925,2019-05-05 00:55:25,1556988925,c72f2db7-f073-441d-a534-c8a3f4b93b95__pspm,http://pspm.pingstart.com/api/v4/postback?from=1706&clickid=c72f2db7-f073-441d-a534-c8a3f4b93b95__pspm,idfa_ca44e56d-b1e7-4d86-8958-c620cf963205,ja
_XWTsZgzQuaPrgBPHMPTZA,newborntown,p1789_589-1509_951,Of81qbvWSPKfViI7CdMfcw,3.0,,91525402-0e66-4ee6-be84-a2e0cedd1df3,1556989223,2019-05-05 01:00:23,1556989268,2019-05-05 01:01:08,1556989268,5f710eee-dd59-4559-b8f7-e9d87dd5b521__pspm,http://pspm.pingstart.com/api/v4/postback?from=1706&clickid=5f710eee-dd59-4559-b8f7-e9d87dd5b521__pspm,idfa_91525402-0e66-4ee6-be84-a2e0cedd1df3,en
_XWTsZgzQuaPrgBPHMPTZA,newborntown,p1789_589-1509_951,Of81qbvWSPKfViI7CdMfcw,3.0,,0264cc45-c8fc-463d-ac48-1141ac80664b,1557076624,2019-05-06 01:17:04,1557076649,2019-05-06 01:17:29,1557076649,cde6d9ca-b2b2-4c85-984c-98d371e3c1b1__pspm,http://pspm.pingstart.com/api/v4/postback?from=1706&clickid=cde6d9ca-b2b2-4c85-984c-98d371e3c1b1__pspm,idfa_0264cc45-c8fc-463d-ac48-1141ac80664b,ja
_XWTsZgzQuaPrgBPHMPTZA,newborntown,p1789_589-1509_951,Of81qbvWSPKfViI7CdMfcw,3.0,,2e09af98-d40c-4a7d-97e9-f142f34ba93c,1556989368,2019-05-05 01:02:48,1556989384,2019-05-05 01:03:04,1556989384,1d4d1699-a5aa-4338-a682-8b8e5567ab93__pspm,http://pspm.pingstart.com/api/v4/postback?from=1706&clickid=1d4d1699-a5aa-4338-a682-8b8e5567ab93__pspm,idfa_2e09af98-d40c-4a7d-97e9-f142f34ba93c,ja
_XWTsZgzQuaPrgBPHMPTZA,newborntown,p1789_589-1509_951,Of81qbvWSPKfViI7CdMfcw,3.0,,4a7b6bcf-8779-4d28-9de1-c146f48ecccd,1556988903,2019-05-05 00:55:03,1556988931,2019-05-05 00:55:31,1556988931,5f6d7403-c2ae-4f27-94cf-2a474aba1b43__pspm,http://pspm.pingstart.com/api/v4/postback?from=1706&clickid=5f6d7403-c2ae-4f27-94cf-2a474aba1b43__pspm,idfa_4a7b6bcf-8779-4d28-9de1-c146f48ecccd,ja
_XWTsZgzQuaPrgBPHMPTZA,newborntown,p1789_589-1509_951,Of81qbvWSPKfViI7CdMfcw,3.0,,3e8b4fc6-f1eb-4d11-a728-27b3a72d0f4d,1556989496,2019-05-05 01:04:56,1556989521,2019-05-05 01:05:21,1556989521,acb76ccc-c5bd-416f-a618-854af62f9b81__pspm,http://pspm.pingstart.com/api/v4/postback?from=1706&clickid=acb76ccc-c5bd-416f-a618-854af62f9b81__pspm,idfa_3e8b4fc6-f1eb-4d11-a728-27b3a72d0f4d,en
_XWTsZgzQuaPrgBPHMPTZA,newborntown,p1789_589-1509_951,Of81qbvWSPKfViI7CdMfcw,3.0,,7bb83efa-87fe-40ef-be50-c47e506cc8f0,1557078826,2019-05-06 01:53:46,1557078848,2019-05-06 01:54:08,1557078848,d937541f-feb4-4895-b860-8e2b20def55e__pspm,http://pspm.pingstart.com/api/v4/postback?from=1706&clickid=d937541f-feb4-4895-b860-8e2b20def55e__pspm,idfa_7bb83efa-87fe-40ef-be50-c47e506cc8f0,ja
_XWTsZgzQuaPrgBPHMPTZA,newborntown,p1789_589-1509_951,Of81qbvWSPKfViI7CdMfcw,3.0,,c82a24c3-2873-4457-b558-9f846528e6b7,1557078782,2019-05-06 01:53:02,1557078805,2019-05-06 01:53:25,1557078805,28af6089-3a0a-4d68-87d4-cbb70d86622c__pspm,http://pspm.pingstart.com/api/v4/postback?from=1706&clickid=28af6089-3a0a-4d68-87d4-cbb70d86622c__pspm,idfa_c82a24c3-2873-4457-b558-9f846528e6b7,en
_XWTsZgzQuaPrgBPHMPTZA,newborntown,p1789_589-1509_951,Of81qbvWSPKfViI7CdMfcw,3.0,,310f6d9b-c6c5-4c31-95bb-01df36ea4400,1557078837,2019-05-06 01:53:57,1557078857,2019-05-06 01:54:17,1557078857,46508d03-70d9-4cba-baaa-9d07f7e07d6c__pspm,http://pspm.pingstart.com/api/v4/postback?from=1706&clickid=46508d03-70d9-4cba-baaa-9d07f7e07d6c__pspm,idfa_310f6d9b-c6c5-4c31-95bb-01df36ea4400,en
_XWTsZgzQuaPrgBPHMPTZA,newborntown,p1789_589-1509_951,Of81qbvWSPKfViI7CdMfcw,3.0,,18ce1581-ee57-4df7-97a1-9e4fb6bd10e6,1556989045,2019-05-05 00:57:25,1556989065,2019-05-05 00:57:45,1556989065,912ea981-c42e-4559-853f-a722736c2002__pspm,http://pspm.pingstart.com/api/v4/postback?from=1706&clickid=912ea981-c42e-4559-853f-a722736c2002__pspm,idfa_18ce1581-ee57-4df7-97a1-9e4fb6bd10e6,ja
_XWTsZgzQuaPrgBPHMPTZA,newborntown,p1789_589-1509_951,Of81qbvWSPKfViI7CdMfcw,3.0,,31a558ab-c1c8-4334-a01e-4bf6a4f0954c,1556988940,2019-05-05 00:55:40,1556988980,2019-05-05 00:56:20,1556988980,141f924b-6682-4194-894d-3152fd87df45__pspm,http://pspm.pingstart.com/api/v4/postback?from=1706&clickid=141f924b-6682-4194-894d-3152fd87df45__pspm,idfa_31a558ab-c1c8-4334-a01e-4bf6a4f0954c,ja
_XWTsZgzQuaPrgBPHMPTZA,newborntown,p1789_589-1509_951,Of81qbvWSPKfViI7CdMfcw,3.0,,1763c782-9a76-4b6d-a7dc-4df97f960fa1,1557079164,2019-05-06 01:59:24,1557079186,2019-05-06 01:59:46,1557079186,dc0a40e8-071d-4322-a581-3494c22d15d2__pspm,http://pspm.pingstart.com/api/v4/postback?from=1706&clickid=dc0a40e8-071d-4322-a581-3494c22d15d2__pspm,idfa_1763c782-9a76-4b6d-a7dc-4df97f960fa1,ja
_XWTsZgzQuaPrgBPHMPTZA,newborntown,p1789_589-1509_951,Of81qbvWSPKfViI7CdMfcw,3.0,,9690458a-1d6f-411f-aae1-a38934710861,1557076753,2019-05-06 01:19:13,1557076770,2019-05-06 01:19:30,1557076770,f87d5139-d18f-4abe-b5fa-1af81dfb6134__pspm,http://pspm.pingstart.com/api/v4/postback?from=1706&clickid=f87d5139-d18f-4abe-b5fa-1af81dfb6134__pspm,idfa_9690458a-1d6f-411f-aae1-a38934710861,en
_XWTsZgzQuaPrgBPHMPTZA,newborntown,p1789_589-1509_951,Of81qbvWSPKfViI7CdMfcw,3.0,,ec18c6d0-b24d-4875-b371-0058c941d6c0,1556989229,2019-05-05 01:00:29,1556989254,2019-05-05 01:00:54,1556989254,ae68110f-5a08-4d78-a524-a223736dd318__pspm,http://pspm.pingstart.com/api/v4/postback?from=1706&clickid=ae68110f-5a08-4d78-a524-a223736dd318__pspm,idfa_ec18c6d0-b24d-4875-b371-0058c941d6c0,ja
_XWTsZgzQuaPrgBPHMPTZA,newborntown,p1789_589-1509_951,Of81qbvWSPKfViI7CdMfcw,3.0,,d61eee69-8416-4915-9772-eb59b832c397,1557078998,2019-05-06 01:56:38,1557079042,2019-05-06 01:57:22,1557079042,c78653af-90e8-498d-b405-1e559863a07a__pspm,http://pspm.pingstart.com/api/v4/postback?from=1706&clickid=c78653af-90e8-498d-b405-1e559863a07a__pspm,idfa_d61eee69-8416-4915-9772-eb59b832c397,en
_XWTsZgzQuaPrgBPHMPTZA,newborntown,p1789_589-1509_951,Of81qbvWSPKfViI7CdMfcw,3.0,,fa7b4ae7-6c9c-4b04-8636-0f199b86ef69,1557076452,2019-05-06 01:14:12,1557076467,2019-05-06 01:14:27,1557076467,cb4ecf9b-a592-49a4-aa57-0ced8ce88711__pspm,http://pspm.pingstart.com/api/v4/postback?from=1706&clickid=cb4ecf9b-a592-49a4-aa57-0ced8ce88711__pspm,idfa_fa7b4ae7-6c9c-4b04-8636-0f199b86ef69,ja
_XWTsZgzQuaPrgBPHMPTZA,newborntown,p1789_589-1509_951,Of81qbvWSPKfViI7CdMfcw,3.0,,7d78b152-e839-4066-a438-d1a30c9bc11b,1557078953,2019-05-06 01:55:53,1557078976,2019-05-06 01:56:16,1557078976,de3f346f-5d98-4f89-941b-c7350239413c__pspm,http://pspm.pingstart.com/api/v4/postback?from=1706&clickid=de3f346f-5d98-4f89-941b-c7350239413c__pspm,idfa_7d78b152-e839-4066-a438-d1a30c9bc11b,en
_XWTsZgzQuaPrgBPHMPTZA,newborntown,p1789_589-1509_951,Of81qbvWSPKfViI7CdMfcw,3.0,,1aa10a19-ded4-4d9b-bf14-e9cb6d0f10af,1557076647,2019-05-06 01:17:27,1557076671,2019-05-06 01:17:51,1557076671,fca6b132-1bce-4405-9e23-d3bebd0234a0__pspm,http://pspm.pingstart.com/api/v4/postback?from=1706&clickid=fca6b132-1bce-4405-9e23-d3bebd0234a0__pspm,idfa_1aa10a19-ded4-4d9b-bf14-e9cb6d0f10af,ja
_XWTsZgzQuaPrgBPHMPTZA,newborntown,p1789_589-1509_951,Of81qbvWSPKfViI7CdMfcw,3.0,,32b1a460-b35a-48a1-9255-d16e55e5a58e,1556989051,2019-05-05 00:57:31,1556989072,2019-05-05 00:57:52,1556989072,4ac6b729-b383-4679-b3e8-0a010a1e8d47__pspm,http://pspm.pingstart.com/api/v4/postback?from=1706&clickid=4ac6b729-b383-4679-b3e8-0a010a1e8d47__pspm,idfa_32b1a460-b35a-48a1-9255-d16e55e5a58e,ja
_XWTsZgzQuaPrgBPHMPTZA,newborntown,p1789_589-1509_951,Of81qbvWSPKfViI7CdMfcw,3.0,,2ec13317-28b9-4f62-a399-8837f1ef752a,1557078988,2019-05-06 01:56:28,1557079012,2019-05-06 01:56:52,1557079012,fddf0cfb-57d2-4f76-a171-e7d47d65f716__pspm,http://pspm.pingstart.com/api/v4/postback?from=1706&clickid=fddf0cfb-57d2-4f76-a171-e7d47d65f716__pspm,idfa_2ec13317-28b9-4f62-a399-8837f1ef752a,ja
_XWTsZgzQuaPrgBPHMPTZA,newborntown,p1789_589-1509_951,Of81qbvWSPKfViI7CdMfcw,3.0,,75cfd487-caa2-4d54-8f32-756dd1b2fb04,1557076291,2019-05-06 01:11:31,1557076315,2019-05-06 01:11:55,1557076315,fda61539-93eb-40d6-b0ec-d85e10fdb082__pspm,http://pspm.pingstart.com/api/v4/postback?from=1706&clickid=fda61539-93eb-40d6-b0ec-d85e10fdb082__pspm,idfa_75cfd487-caa2-4d54-8f32-756dd1b2fb04,ja
_XWTsZgzQuaPrgBPHMPTZA,newborntown,p1789_589-1509_951,Of81qbvWSPKfViI7CdMfcw,3.0,,a0f07b19-9b7d-4581-b534-95028fab8962,1557076934,2019-05-06 01:22:14,1557076955,2019-05-06 01:22:35,1557076955,6a8a5187-2c4f-404b-9b19-38047ed2f7f8__pspm,http://pspm.pingstart.com/api/v4/postback?from=1706&clickid=6a8a5187-2c4f-404b-9b19-38047ed2f7f8__pspm,idfa_a0f07b19-9b7d-4581-b534-95028fab8962,ja
_XWTsZgzQuaPrgBPHMPTZA,newborntown,p1789_589-1509_951,Of81qbvWSPKfViI7CdMfcw,3.0,,2af621da-f588-414d-abc0-43624a77ce72,1556989117,2019-05-05 00:58:37,1556989133,2019-05-05 00:58:53,1556989133,150e96dc-499d-4282-b48f-e55b972cbf7f__pspm,http://pspm.pingstart.com/api/v4/postback?from=1706&clickid=150e96dc-499d-4282-b48f-e55b972cbf7f__pspm,idfa_2af621da-f588-414d-abc0-43624a77ce72,ja
_XWTsZgzQuaPrgBPHMPTZA,newborntown,p1789_589-1509_951,Of81qbvWSPKfViI7CdMfcw,3.0,,6e9c2ad8-79fa-445f-ac5d-d9c97073212e,1556989916,2019-05-05 01:11:56,1556989938,2019-05-05 01:12:18,1556989938,a3268551-660e-46e7-a38e-57bab50ba455__pspm,http://pspm.pingstart.com/api/v4/postback?from=1706&clickid=a3268551-660e-46e7-a38e-57bab50ba455__pspm,idfa_6e9c2ad8-79fa-445f-ac5d-d9c97073212e,ja
_XWTsZgzQuaPrgBPHMPTZA,newborntown,p1789_589-1509_951,Of81qbvWSPKfViI7CdMfcw,3.0,,92eda2f9-3788-467d-8e75-f42318fa3e7e,1557078062,2019-05-06 01:41:02,1557078081,2019-05-06 01:41:21,1557078081,f2ed45de-80cb-4c61-9004-25366162fa19__pspm,http://pspm.pingstart.com/api/v4/postback?from=1706&clickid=f2ed45de-80cb-4c61-9004-25366162fa19__pspm,idfa_92eda2f9-3788-467d-8e75-f42318fa3e7e,en
_XWTsZgzQuaPrgBPHMPTZA,newborntown,p1789_589-1509_951,Of81qbvWSPKfViI7CdMfcw,3.0,,839a4437-92ea-46f6-941e-dddce914d7e4,1556989893,2019-05-05 01:11:33,1556989917,2019-05-05 01:11:57,1556989917,0107a76d-d3ab-428d-b210-6ccd9f9a3c5c__pspm,http://pspm.pingstart.com/api/v4/postback?from=1706&clickid=0107a76d-d3ab-428d-b210-6ccd9f9a3c5c__pspm,idfa_839a4437-92ea-46f6-941e-dddce914d7e4,ja
_XWTsZgzQuaPrgBPHMPTZA,newborntown,p1789_589-1509_951,Of81qbvWSPKfViI7CdMfcw,3.0,,e8d95997-1f71-4cda-a1c3-79e720a99169,1557078950,2019-05-06 01:55:50,1557079012,2019-05-06 01:56:52,1557079012,f858b4bb-5b59-43c7-9dba-7c642be4dd89__pspm,http://pspm.pingstart.com/api/v4/postback?from=1706&clickid=f858b4bb-5b59-43c7-9dba-7c642be4dd89__pspm,idfa_e8d95997-1f71-4cda-a1c3-79e720a99169,ja
_XWTsZgzQuaPrgBPHMPTZA,newborntown,p1789_589-1509_951,Of81qbvWSPKfViI7CdMfcw,3.0,,495eb56c-3af5-48ea-aeca-7ae0e172cf03,1557076102,2019-05-06 01:08:22,1557076141,2019-05-06 01:09:01,1557076141,1104dfb1-37ad-450e-94fe-4d126102f92c__pspm,http://pspm.pingstart.com/api/v4/postback?from=1706&clickid=1104dfb1-37ad-450e-94fe-4d126102f92c__pspm,idfa_495eb56c-3af5-48ea-aeca-7ae0e172cf03,ja
_XWTsZgzQuaPrgBPHMPTZA,newborntown,p1789_589-1509_951,Of81qbvWSPKfViI7CdMfcw,3.0,,f1263508-aacc-4aaf-b0c5-21224c2289f0,1557077213,2019-05-06 01:26:53,1557077247,2019-05-06 01:27:27,1557077247,6a02d20c-7de3-4cd4-9440-19f77cbfe0c8__pspm,http://pspm.pingstart.com/api/v4/postback?from=1706&clickid=6a02d20c-7de3-4cd4-9440-19f77cbfe0c8__pspm,idfa_f1263508-aacc-4aaf-b0c5-21224c2289f0,ja
_XWTsZgzQuaPrgBPHMPTZA,newborntown,p1789_589-1509_951,Of81qbvWSPKfViI7CdMfcw,3.0,,c817a626-d082-4103-a4c5-0402c931d1fd,1556989105,2019-05-05 00:58:25,1556989137,2019-05-05 00:58:57,1556989137,e9e7917a-8a3a-4fda-ac36-5c22053a0dca__pspm,http://pspm.pingstart.com/api/v4/postback?from=1706&clickid=e9e7917a-8a3a-4fda-ac36-5c22053a0dca__pspm,idfa_c817a626-d082-4103-a4c5-0402c931d1fd,en
_XWTsZgzQuaPrgBPHMPTZA,newborntown,p1789_589-1509_951,Of81qbvWSPKfViI7CdMfcw,3.0,,929f6b5c-627a-4ce4-97f6-e6872027f885,1557076923,2019-05-06 01:22:03,1557076946,2019-05-06 01:22:26,1557076946,6e24bd3a-fd2d-406b-9f6f-1f080b27d878__pspm,http://pspm.pingstart.com/api/v4/postback?from=1706&clickid=6e24bd3a-fd2d-406b-9f6f-1f080b27d878__pspm,idfa_929f6b5c-627a-4ce4-97f6-e6872027f885,ja
_XWTsZgzQuaPrgBPHMPTZA,newborntown,p1789_589-1509_951,Of81qbvWSPKfViI7CdMfcw,3.0,,ee87a04b-4919-4329-8c42-f54876783e13,1556989276,2019-05-05 01:01:16,1556989299,2019-05-05 01:01:39,1556989299,81e83d4f-5717-4630-bc2f-c3a1a369a133__pspm,http://pspm.pingstart.com/api/v4/postback?from=1706&clickid=81e83d4f-5717-4630-bc2f-c3a1a369a133__pspm,idfa_ee87a04b-4919-4329-8c42-f54876783e13,ja
_XWTsZgzQuaPrgBPHMPTZA,newborntown,p1789_589-1509_951,Of81qbvWSPKfViI7CdMfcw,3.0,,bd19d1fa-bece-41a5-97cc-9829eb1afa34,1556989023,2019-05-05 00:57:03,1556989041,2019-05-05 00:57:21,1556989041,f270b97d-4992-4cdf-b060-d7d1d9042a62__pspm,http://pspm.pingstart.com/api/v4/postback?from=1706&clickid=f270b97d-4992-4cdf-b060-d7d1d9042a62__pspm,idfa_bd19d1fa-bece-41a5-97cc-9829eb1afa34,ja
_XWTsZgzQuaPrgBPHMPTZA,newborntown,p1789_589-1509_951,Of81qbvWSPKfViI7CdMfcw,3.0,,2cc06a73-0183-4c6a-a4e3-620aeaf3c25a,1557076912,2019-05-06 01:21:52,1557076930,2019-05-06 01:22:10,1557076930,83c9b150-9ece-4fbc-92fc-93cb5062ac22__pspm,http://pspm.pingstart.com/api/v4/postback?from=1706&clickid=83c9b150-9ece-4fbc-92fc-93cb5062ac22__pspm,idfa_2cc06a73-0183-4c6a-a4e3-620aeaf3c25a,ja
_XWTsZgzQuaPrgBPHMPTZA,newborntown,p1789_589-1509_951,Of81qbvWSPKfViI7CdMfcw,3.0,,47f5d668-2bcf-4257-95d3-66bd183025aa,1557078851,2019-05-06 01:54:11,1557078872,2019-05-06 01:54:32,1557078872,2febc5e3-813f-4819-9f24-94ef758886ef__pspm,http://pspm.pingstart.com/api/v4/postback?from=1706&clickid=2febc5e3-813f-4819-9f24-94ef758886ef__pspm,idfa_47f5d668-2bcf-4257-95d3-66bd183025aa,en
_XWTsZgzQuaPrgBPHMPTZA,newborntown,p1789_589-1509_951,Of81qbvWSPKfViI7CdMfcw,3.0,,cc340851-7872-473f-b0bc-a18ffb92904a,1557078196,2019-05-06 01:43:16,1557078218,2019-05-06 01:43:38,1557078218,8b7b77f0-bff1-4056-9608-34bd6c6780fa__pspm,http://pspm.pingstart.com/api/v4/postback?from=1706&clickid=8b7b77f0-bff1-4056-9608-34bd6c6780fa__pspm,idfa_cc340851-7872-473f-b0bc-a18ffb92904a,ja
_XWTsZgzQuaPrgBPHMPTZA,newborntown,p1789_589-1509_951,Of81qbvWSPKfViI7CdMfcw,3.0,,21d80dcc-32e6-4dc3-bd6f-6466eb2f2851,1557078992,2019-05-06 01:56:32,1557079018,2019-05-06 01:56:58,1557079018,5d212017-28d1-4035-b992-ee97e9a6d9c6__pspm,http://pspm.pingstart.com/api/v4/postback?from=1706&clickid=5d212017-28d1-4035-b992-ee97e9a6d9c6__pspm,idfa_21d80dcc-32e6-4dc3-bd6f-6466eb2f2851,ja
_XWTsZgzQuaPrgBPHMPTZA,newborntown,p1789_589-1509_951,Of81qbvWSPKfViI7CdMfcw,3.0,,f6a5a7c5-d97b-4e0d-aac4-2e3ebaa5a534,1556989194,2019-05-05 00:59:54,1556989219,2019-05-05 01:00:19,1556989219,c0b02103-162c-4fc1-aecc-c2e1203538aa__pspm,http://pspm.pingstart.com/api/v4/postback?from=1706&clickid=c0b02103-162c-4fc1-aecc-c2e1203538aa__pspm,idfa_f6a5a7c5-d97b-4e0d-aac4-2e3ebaa5a534,ja
_XWTsZgzQuaPrgBPHMPTZA,newborntown,p1789_589-1509_951,Of81qbvWSPKfViI7CdMfcw,3.0,,40568b3c-4cf8-4d7c-9285-f37279be72b4,1556989145,2019-05-05 00:59:05,1556989207,2019-05-05 01:00:07,1556989207,1b713f56-5667-4b9b-92b4-8a7ed91e157a__pspm,http://pspm.pingstart.com/api/v4/postback?from=1706&clickid=1b713f56-5667-4b9b-92b4-8a7ed91e157a__pspm,idfa_40568b3c-4cf8-4d7c-9285-f37279be72b4,en
_XWTsZgzQuaPrgBPHMPTZA,newborntown,p1789_589-1509_951,Of81qbvWSPKfViI7CdMfcw,3.0,,b531e4f8-0dca-436b-ab29-99c90923f9af,1557076801,2019-05-06 01:20:01,1557076824,2019-05-06 01:20:24,1557076824,a727812d-6539-46ec-a577-39b82d30deba__pspm,http://pspm.pingstart.com/api/v4/postback?from=1706&clickid=a727812d-6539-46ec-a577-39b82d30deba__pspm,idfa_b531e4f8-0dca-436b-ab29-99c90923f9af,ja
_XWTsZgzQuaPrgBPHMPTZA,newborntown,p1789_589-1509_951,Of81qbvWSPKfViI7CdMfcw,3.0,,fbdfe80c-c7ac-42c1-a37d-c55d1b0aed24,1557078938,2019-05-06 01:55:38,1557078958,2019-05-06 01:55:58,1557078958,badf8dcd-56f0-4779-b89e-56867ae9083a__pspm,http://pspm.pingstart.com/api/v4/postback?from=1706&clickid=badf8dcd-56f0-4779-b89e-56867ae9083a__pspm,idfa_fbdfe80c-c7ac-42c1-a37d-c55d1b0aed24,ja
_XWTsZgzQuaPrgBPHMPTZA,newborntown,p1789_589-1509_951,Of81qbvWSPKfViI7CdMfcw,3.0,,0afd7358-059a-4f02-99a9-3ac02eb8b227,1557076322,2019-05-06 01:12:02,1557076342,2019-05-06 01:12:22,1557076342,db09d897-2e40-47f0-acf2-fbf231cf572e__pspm,http://pspm.pingstart.com/api/v4/postback?from=1706&clickid=db09d897-2e40-47f0-acf2-fbf231cf572e__pspm,idfa_0afd7358-059a-4f02-99a9-3ac02eb8b227,ja
_XWTsZgzQuaPrgBPHMPTZA,newborntown,p1789_589-1509_951,Of81qbvWSPKfViI7CdMfcw,3.0,,4009e347-bd2f-4d69-9491-fea58023987a,1557079086,2019-05-06 01:58:06,1557079112,2019-05-06 01:58:32,1557079112,14b061fc-7a81-48d0-acfd-4b3d177285d4__pspm,http://pspm.pingstart.com/api/v4/postback?from=1706&clickid=14b061fc-7a81-48d0-acfd-4b3d177285d4__pspm,idfa_4009e347-bd2f-4d69-9491-fea58023987a,en
_XWTsZgzQuaPrgBPHMPTZA,newborntown,p1789_589-1509_951,Of81qbvWSPKfViI7CdMfcw,3.0,,4819b677-7ca8-4232-af90-0ae040ed56f9,1556989894,2019-05-05 01:11:34,1556989912,2019-05-05 01:11:52,1556989912,4d364d80-9beb-4dbf-9f97-bd36b67f56f1__pspm,http://pspm.pingstart.com/api/v4/postback?from=1706&clickid=4d364d80-9beb-4dbf-9f97-bd36b67f56f1__pspm,idfa_4819b677-7ca8-4232-af90-0ae040ed56f9,ja
_XWTsZgzQuaPrgBPHMPTZA,newborntown,p1789_589-1509_951,Of81qbvWSPKfViI7CdMfcw,3.0,,6dbf00b2-246f-474b-9b41-206ee43bded7,1556988567,2019-05-05 00:49:27,1556988582,2019-05-05 00:49:42,1556988582,0b2bec1c-0a30-457e-b3ae-3a5d7a0590c4__pspm,http://pspm.pingstart.com/api/v4/postback?from=1706&clickid=0b2bec1c-0a30-457e-b3ae-3a5d7a0590c4__pspm,idfa_6dbf00b2-246f-474b-9b41-206ee43bded7,ja
_XWTsZgzQuaPrgBPHMPTZA,newborntown,p1789_589-1509_951,Of81qbvWSPKfViI7CdMfcw,3.0,,c1ba4bc6-3e81-4663-8641-1876a2f7500f,1556989784,2019-05-05 01:09:44,1556989808,2019-05-05 01:10:08,1556989808,22504ad6-cef7-410f-8e8a-304d0e483bd1__pspm,http://pspm.pingstart.com/api/v4/postback?from=1706&clickid=22504ad6-cef7-410f-8e8a-304d0e483bd1__pspm,idfa_c1ba4bc6-3e81-4663-8641-1876a2f7500f,en
_XWTsZgzQuaPrgBPHMPTZA,newborntown,p1789_589-1509_951,Of81qbvWSPKfViI7CdMfcw,3.0,,467d919a-9a9a-47e6-9456-02f7988922bc,1557079049,2019-05-06 01:57:29,1557079067,2019-05-06 01:57:47,1557079067,37fc482b-f6fa-4c8a-95f5-acec0364777e__pspm,http://pspm.pingstart.com/api/v4/postback?from=1706&clickid=37fc482b-f6fa-4c8a-95f5-acec0364777e__pspm,idfa_467d919a-9a9a-47e6-9456-02f7988922bc,ja
_XWTsZgzQuaPrgBPHMPTZA,newborntown,p1789_589-1509_951,Of81qbvWSPKfViI7CdMfcw,3.0,,46b98153-9a64-4736-995e-021a81708aa0,1557078800,2019-05-06 01:53:20,1557078824,2019-05-06 01:53:44,1557078824,be2ff932-9674-4af4-8c63-a577014a24b4__pspm,http://pspm.pingstart.com/api/v4/postback?from=1706&clickid=be2ff932-9674-4af4-8c63-a577014a24b4__pspm,idfa_46b98153-9a64-4736-995e-021a81708aa0,ja
_XWTsZgzQuaPrgBPHMPTZA,newborntown,p1789_589-1509_951,Of81qbvWSPKfViI7CdMfcw,3.0,,66212514-020b-467b-b25f-cef9999a9c4f,1556989467,2019-05-05 01:04:27,1556989487,2019-05-05 01:04:47,1556989487,6f6355bf-85ca-46c1-98ac-e01bdf1e9eb8__pspm,http://pspm.pingstart.com/api/v4/postback?from=1706&clickid=6f6355bf-85ca-46c1-98ac-e01bdf1e9eb8__pspm,idfa_66212514-020b-467b-b25f-cef9999a9c4f,ja
_XWTsZgzQuaPrgBPHMPTZA,newborntown,p1789_589-1509_951,Of81qbvWSPKfViI7CdMfcw,3.0,,90ee59a8-65cf-419d-90e9-d19256049859,1556989345,2019-05-05 01:02:25,1556989365,2019-05-05 01:02:45,1556989365,638c19a5-c0b4-45af-8ae2-eac394778b96__pspm,http://pspm.pingstart.com/api/v4/postback?from=1706&clickid=638c19a5-c0b4-45af-8ae2-eac394778b96__pspm,idfa_90ee59a8-65cf-419d-90e9-d19256049859,ja
_XWTsZgzQuaPrgBPHMPTZA,newborntown,p1789_589-1509_951,Of81qbvWSPKfViI7CdMfcw,3.0,,0e222a42-a1e3-4323-bbd9-7381d29fda26,1556989600,2019-05-05 01:06:40,1556989618,2019-05-05 01:06:58,1556989618,4df64ec6-e948-485a-a973-6791db4c0061__pspm,http://pspm.pingstart.com/api/v4/postback?from=1706&clickid=4df64ec6-e948-485a-a973-6791db4c0061__pspm,idfa_0e222a42-a1e3-4323-bbd9-7381d29fda26,ja
_XWTsZgzQuaPrgBPHMPTZA,newborntown,p1789_589-1509_951,Of81qbvWSPKfViI7CdMfcw,3.0,,876c1002-8aa8-4c88-b8ea-b9bc17d5030e,1557076873,2019-05-06 01:21:13,1557076891,2019-05-06 01:21:31,1557076891,3c0d9cd3-9114-48d3-9d3c-9e83c5b2158e__pspm,http://pspm.pingstart.com/api/v4/postback?from=1706&clickid=3c0d9cd3-9114-48d3-9d3c-9e83c5b2158e__pspm,idfa_876c1002-8aa8-4c88-b8ea-b9bc17d5030e,ja
_XWTsZgzQuaPrgBPHMPTZA,newborntown,p1789_589-1509_951,Of81qbvWSPKfViI7CdMfcw,3.0,,468ed6cd-fadb-412e-a97a-0ccb1407f1b5,1556988870,2019-05-05 00:54:30,1556988910,2019-05-05 00:55:10,1556988910,441b5e9a-32a6-4cf5-8462-8cc8385242af__pspm,http://pspm.pingstart.com/api/v4/postback?from=1706&clickid=441b5e9a-32a6-4cf5-8462-8cc8385242af__pspm,idfa_468ed6cd-fadb-412e-a97a-0ccb1407f1b5,en
_XWTsZgzQuaPrgBPHMPTZA,newborntown,p1789_589-1509_951,Of81qbvWSPKfViI7CdMfcw,3.0,,d85f91b0-4cd7-4c57-b5f9-81b1deb15e69,1556988958,2019-05-05 00:55:58,1556989001,2019-05-05 00:56:41,1556989001,499d0627-7586-4236-b9ed-22b6e0b5d381__pspm,http://pspm.pingstart.com/api/v4/postback?from=1706&clickid=499d0627-7586-4236-b9ed-22b6e0b5d381__pspm,idfa_d85f91b0-4cd7-4c57-b5f9-81b1deb15e69,ja
_XWTsZgzQuaPrgBPHMPTZA,newborntown,p1789_589-1509_951,Of81qbvWSPKfViI7CdMfcw,3.0,,172b169a-4580-4974-8363-71eb640917e5,1557077701,2019-05-06 01:35:01,1557077719,2019-05-06 01:35:19,1557077719,76210f85-49a4-4e58-ad8c-b94c38fbcd3f__pspm,http://pspm.pingstart.com/api/v4/postback?from=1706&clickid=76210f85-49a4-4e58-ad8c-b94c38fbcd3f__pspm,idfa_172b169a-4580-4974-8363-71eb640917e5,en
_XWTsZgzQuaPrgBPHMPTZA,newborntown,p1789_589-1509_951,Of81qbvWSPKfViI7CdMfcw,3.0,,387f3da4-707c-4245-b3f9-c3cbee8bcd29,1556988920,2019-05-05 00:55:20,1556988943,2019-05-05 00:55:43,1556988943,c1b4ee47-61c9-48db-a2df-4a4dc8f971fd__pspm,http://pspm.pingstart.com/api/v4/postback?from=1706&clickid=c1b4ee47-61c9-48db-a2df-4a4dc8f971fd__pspm,idfa_387f3da4-707c-4245-b3f9-c3cbee8bcd29,en
_XWTsZgzQuaPrgBPHMPTZA,newborntown,p1789_589-1509_951,Of81qbvWSPKfViI7CdMfcw,3.0,,a81ad36d-7a95-476f-8fc5-5f3fca1eb60e,1557078029,2019-05-06 01:40:29,1557078053,2019-05-06 01:40:53,1557078053,cdba01d8-cd7a-4ac7-8094-01b07c1e48e4__pspm,http://pspm.pingstart.com/api/v4/postback?from=1706&clickid=cdba01d8-cd7a-4ac7-8094-01b07c1e48e4__pspm,idfa_a81ad36d-7a95-476f-8fc5-5f3fca1eb60e,ja
_XWTsZgzQuaPrgBPHMPTZA,newborntown,p1789_589-1509_951,Of81qbvWSPKfViI7CdMfcw,3.0,,de33099c-5a6e-4d72-8c68-16292aefc247,1556989472,2019-05-05 01:04:32,1556989494,2019-05-05 01:04:54,1556989494,969208a1-8806-4af5-b7c3-a1cef62a6201__pspm,http://pspm.pingstart.com/api/v4/postback?from=1706&clickid=969208a1-8806-4af5-b7c3-a1cef62a6201__pspm,idfa_de33099c-5a6e-4d72-8c68-16292aefc247,en
_XWTsZgzQuaPrgBPHMPTZA,newborntown,p1789_589-1509_951,Of81qbvWSPKfViI7CdMfcw,3.0,,d8640cbc-59a5-4a6e-b66d-cdc3729befce,1556989114,2019-05-05 00:58:34,1556989135,2019-05-05 00:58:55,1556989135,cfed3b18-8634-430b-9ac4-3b3035dd93d8__pspm,http://pspm.pingstart.com/api/v4/postback?from=1706&clickid=cfed3b18-8634-430b-9ac4-3b3035dd93d8__pspm,idfa_d8640cbc-59a5-4a6e-b66d-cdc3729befce,ja
_XWTsZgzQuaPrgBPHMPTZA,newborntown,p1789_589-1509_951,Of81qbvWSPKfViI7CdMfcw,3.0,,7981ad47-c9d7-4d26-af81-5ff252c32855,1557078818,2019-05-06 01:53:38,1557078836,2019-05-06 01:53:56,1557078836,00721834-e7fb-4389-9cbf-2dc8c51d3fd9__pspm,http://pspm.pingstart.com/api/v4/postback?from=1706&clickid=00721834-e7fb-4389-9cbf-2dc8c51d3fd9__pspm,idfa_7981ad47-c9d7-4d26-af81-5ff252c32855,ja
_XWTsZgzQuaPrgBPHMPTZA,newborntown,p1789_589-1509_951,Of81qbvWSPKfViI7CdMfcw,3.0,,c0e6750a-366f-4640-b084-7ae18d503a5c,1556989532,2019-05-05 01:05:32,1556989549,2019-05-05 01:05:49,1556989549,045bc02c-7f82-486a-87e9-be3e975321db__pspm,http://pspm.pingstart.com/api/v4/postback?from=1706&clickid=045bc02c-7f82-486a-87e9-be3e975321db__pspm,idfa_c0e6750a-366f-4640-b084-7ae18d503a5c,en
_XWTsZgzQuaPrgBPHMPTZA,newborntown,p1789_589-1509_951,Of81qbvWSPKfViI7CdMfcw,3.0,,be4f060c-f20c-4fb2-8a48-1a3dcdc0ea4d,1556989051,2019-05-05 00:57:31,1556989111,2019-05-05 00:58:31,1556989111,b1513f60-abdb-4340-914e-323ada71fe81__pspm,http://pspm.pingstart.com/api/v4/postback?from=1706&clickid=b1513f60-abdb-4340-914e-323ada71fe81__pspm,idfa_be4f060c-f20c-4fb2-8a48-1a3dcdc0ea4d,en
_XWTsZgzQuaPrgBPHMPTZA,newborntown,p1789_589-1509_951,Of81qbvWSPKfViI7CdMfcw,3.0,,323c8567-3aeb-4b8c-bc66-8ed9ab09d0f0,1556989185,2019-05-05 00:59:45,1556989201,2019-05-05 01:00:01,1556989201,19e6cc3d-59cb-41ae-93e3-8458f62bce35__pspm,http://pspm.pingstart.com/api/v4/postback?from=1706&clickid=19e6cc3d-59cb-41ae-93e3-8458f62bce35__pspm,idfa_323c8567-3aeb-4b8c-bc66-8ed9ab09d0f0,ja
_XWTsZgzQuaPrgBPHMPTZA,newborntown,p1789_589-1509_951,Of81qbvWSPKfViI7CdMfcw,3.0,,1e076388-9fd5-4f76-ad7b-58500de878af,1557076029,2019-05-06 01:07:09,1557076055,2019-05-06 01:07:35,1557076055,db009f5b-4d8b-4ade-8a93-542e613693e4__pspm,http://pspm.pingstart.com/api/v4/postback?from=1706&clickid=db009f5b-4d8b-4ade-8a93-542e613693e4__pspm,idfa_1e076388-9fd5-4f76-ad7b-58500de878af,ja
_XWTsZgzQuaPrgBPHMPTZA,newborntown,p1789_589-1509_951,Of81qbvWSPKfViI7CdMfcw,3.0,,41a287b2-8bc4-4080-832b-032c1b82973d,1557079091,2019-05-06 01:58:11,1557079122,2019-05-06 01:58:42,1557079122,f1ec4690-1760-4d3e-825e-d863ffe3c0af__pspm,http://pspm.pingstart.com/api/v4/postback?from=1706&clickid=f1ec4690-1760-4d3e-825e-d863ffe3c0af__pspm,idfa_41a287b2-8bc4-4080-832b-032c1b82973d,en
_XWTsZgzQuaPrgBPHMPTZA,newborntown,p1789_589-1509_951,Of81qbvWSPKfViI7CdMfcw,3.0,,d36c2025-b238-4a86-a6a8-fd0eb20ca2d5,1556989397,2019-05-05 01:03:17,1556989425,2019-05-05 01:03:45,1556989425,1576a69e-db89-4001-bd5a-930e385ac41e__pspm,http://pspm.pingstart.com/api/v4/postback?from=1706&clickid=1576a69e-db89-4001-bd5a-930e385ac41e__pspm,idfa_d36c2025-b238-4a86-a6a8-fd0eb20ca2d5,ja
_XWTsZgzQuaPrgBPHMPTZA,newborntown,p1789_589-1509_951,Of81qbvWSPKfViI7CdMfcw,3.0,,dac6fc98-2aa2-400d-9561-6bca81b5bcba,1556988901,2019-05-05 00:55:01,1556988928,2019-05-05 00:55:28,1556988928,7751b398-a74f-42cc-b484-cb55d83c4d6e__pspm,http://pspm.pingstart.com/api/v4/postback?from=1706&clickid=7751b398-a74f-42cc-b484-cb55d83c4d6e__pspm,idfa_dac6fc98-2aa2-400d-9561-6bca81b5bcba,en
_XWTsZgzQuaPrgBPHMPTZA,newborntown,p1789_589-1509_951,Of81qbvWSPKfViI7CdMfcw,3.0,,e09f06b0-58cb-4919-be3b-094543ff979e,1556989386,2019-05-05 01:03:06,1556989408,2019-05-05 01:03:28,1556989408,cac5c67f-1680-47e3-8806-40bd536c5556__pspm,http://pspm.pingstart.com/api/v4/postback?from=1706&clickid=cac5c67f-1680-47e3-8806-40bd536c5556__pspm,idfa_e09f06b0-58cb-4919-be3b-094543ff979e,ja
_XWTsZgzQuaPrgBPHMPTZA,newborntown,p1789_589-1509_951,Of81qbvWSPKfViI7CdMfcw,3.0,,e20859f9-58f7-469d-86bd-5d8f255598c5,1556989112,2019-05-05 00:58:32,1556989132,2019-05-05 00:58:52,1556989132,775d0586-22ad-4839-8e8d-082f74bc9273__pspm,http://pspm.pingstart.com/api/v4/postback?from=1706&clickid=775d0586-22ad-4839-8e8d-082f74bc9273__pspm,idfa_e20859f9-58f7-469d-86bd-5d8f255598c5,ja
_XWTsZgzQuaPrgBPHMPTZA,newborntown,p1789_589-1509_951,Of81qbvWSPKfViI7CdMfcw,3.0,,d491afa4-3e67-4801-ae6e-8ce508f87634,1557076991,2019-05-06 01:23:11,1557077017,2019-05-06 01:23:37,1557077017,bb399302-39ea-4fe7-a14f-e054b9f031e5__pspm,http://pspm.pingstart.com/api/v4/postback?from=1706&clickid=bb399302-39ea-4fe7-a14f-e054b9f031e5__pspm,idfa_d491afa4-3e67-4801-ae6e-8ce508f87634,ja
_XWTsZgzQuaPrgBPHMPTZA,newborntown,p1789_589-1509_951,Of81qbvWSPKfViI7CdMfcw,3.0,,2993c554-06af-41d8-9a41-be06bd595c60,1557079018,2019-05-06 01:56:58,1557079040,2019-05-06 01:57:20,1557079040,3c3e8d2c-87f8-466b-b96d-30bef2249681__pspm,http://pspm.pingstart.com/api/v4/postback?from=1706&clickid=3c3e8d2c-87f8-466b-b96d-30bef2249681__pspm,idfa_2993c554-06af-41d8-9a41-be06bd595c60,en
_XWTsZgzQuaPrgBPHMPTZA,newborntown,p1789_589-1509_951,Of81qbvWSPKfViI7CdMfcw,3.0,,2205925d-f852-4629-918a-e87f9b5f8034,1557078983,2019-05-06 01:56:23,1557079003,2019-05-06 01:56:43,1557079003,be89ec89-180c-49e1-8e9e-b1d02e0a6494__pspm,http://pspm.pingstart.com/api/v4/postback?from=1706&clickid=be89ec89-180c-49e1-8e9e-b1d02e0a6494__pspm,idfa_2205925d-f852-4629-918a-e87f9b5f8034,ja
_XWTsZgzQuaPrgBPHMPTZA,newborntown,p1789_589-1509_951,Of81qbvWSPKfViI7CdMfcw,3.0,,a830707b-2bd1-45a6-bae0-26624fa96221,1556989322,2019-05-05 01:02:02,1556989344,2019-05-05 01:02:24,1556989344,8fc3c284-4b1a-4dd4-8faf-728928d5a1ee__pspm,http://pspm.pingstart.com/api/v4/postback?from=1706&clickid=8fc3c284-4b1a-4dd4-8faf-728928d5a1ee__pspm,idfa_a830707b-2bd1-45a6-bae0-26624fa96221,ja
_XWTsZgzQuaPrgBPHMPTZA,newborntown,p1789_589-1509_951,Of81qbvWSPKfViI7CdMfcw,3.0,,2e9d0138-3793-411e-8434-60a1769c67ca,1556989864,2019-05-05 01:11:04,1556989886,2019-05-05 01:11:26,1556989886,7cb6e47b-0b05-4150-933e-49ee0ae198c9__pspm,http://pspm.pingstart.com/api/v4/postback?from=1706&clickid=7cb6e47b-0b05-4150-933e-49ee0ae198c9__pspm,idfa_2e9d0138-3793-411e-8434-60a1769c67ca,ja
_XWTsZgzQuaPrgBPHMPTZA,newborntown,p1789_589-1509_951,Of81qbvWSPKfViI7CdMfcw,3.0,,d19937e7-e12c-4670-9aac-d84381fa6f45,1556989475,2019-05-05 01:04:35,1556989499,2019-05-05 01:04:59,1556989499,fcc42d85-8fc0-494b-bbb0-26c39153719b__pspm,http://pspm.pingstart.com/api/v4/postback?from=1706&clickid=fcc42d85-8fc0-494b-bbb0-26c39153719b__pspm,idfa_d19937e7-e12c-4670-9aac-d84381fa6f45,ja
_XWTsZgzQuaPrgBPHMPTZA,newborntown,p1789_589-1509_951,Of81qbvWSPKfViI7CdMfcw,3.0,,161fa871-0c79-43cc-8a7a-20ab4c74b95d,1556989124,2019-05-05 00:58:44,1556989141,2019-05-05 00:59:01,1556989141,31ffb1ec-a8d8-4d96-9d50-5ca9cb72d5a5__pspm,http://pspm.pingstart.com/api/v4/postback?from=1706&clickid=31ffb1ec-a8d8-4d96-9d50-5ca9cb72d5a5__pspm,idfa_161fa871-0c79-43cc-8a7a-20ab4c74b95d,ja
_XWTsZgzQuaPrgBPHMPTZA,newborntown,p1789_589-1509_951,Of81qbvWSPKfViI7CdMfcw,3.0,,bcc83438-1cf3-4fe4-bde0-8c32df9782aa,1556989629,2019-05-05 01:07:09,1556989657,2019-05-05 01:07:37,1556989657,28cc28b9-4ac6-4ac9-b016-38c320d9c3c1__pspm,http://pspm.pingstart.com/api/v4/postback?from=1706&clickid=28cc28b9-4ac6-4ac9-b016-38c320d9c3c1__pspm,idfa_bcc83438-1cf3-4fe4-bde0-8c32df9782aa,ja
_XWTsZgzQuaPrgBPHMPTZA,newborntown,p1789_589-1509_951,Of81qbvWSPKfViI7CdMfcw,3.0,,cb1a3195-a7a5-4ed8-b13c-fbef1952b2b4,1556989762,2019-05-05 01:09:22,1556989790,2019-05-05 01:09:50,1556989790,6bb11054-da9e-47e4-9250-4c6a876d4c27__pspm,http://pspm.pingstart.com/api/v4/postback?from=1706&clickid=6bb11054-da9e-47e4-9250-4c6a876d4c27__pspm,idfa_cb1a3195-a7a5-4ed8-b13c-fbef1952b2b4,ja
_XWTsZgzQuaPrgBPHMPTZA,newborntown,p1789_589-1509_951,Of81qbvWSPKfViI7CdMfcw,3.0,,5274c522-3077-4415-946e-df1fb27cde3e,1557076599,2019-05-06 01:16:39,1557076631,2019-05-06 01:17:11,1557076631,148d4c78-dd35-44aa-9454-ece5e3b6cd2d__pspm,http://pspm.pingstart.com/api/v4/postback?from=1706&clickid=148d4c78-dd35-44aa-9454-ece5e3b6cd2d__pspm,idfa_5274c522-3077-4415-946e-df1fb27cde3e,ja
_XWTsZgzQuaPrgBPHMPTZA,newborntown,p1789_589-1509_951,Of81qbvWSPKfViI7CdMfcw,3.0,,59cc3a69-b2ef-40ef-9495-fecb806473a1,1557076803,2019-05-06 01:20:03,1557076820,2019-05-06 01:20:20,1557076820,34633f3f-fe3d-419c-bd15-55da4d60d066__pspm,http://pspm.pingstart.com/api/v4/postback?from=1706&clickid=34633f3f-fe3d-419c-bd15-55da4d60d066__pspm,idfa_59cc3a69-b2ef-40ef-9495-fecb806473a1,ja
_XWTsZgzQuaPrgBPHMPTZA,newborntown,p1789_589-1509_951,Of81qbvWSPKfViI7CdMfcw,3.0,,b8ffbdcb-3e83-4227-8e71-3f8fae849f68,1557077272,2019-05-06 01:27:52,1557077300,2019-05-06 01:28:20,1557077300,a1d45ba8-6fdb-4468-9478-3bd97ab3745c__pspm,http://pspm.pingstart.com/api/v4/postback?from=1706&clickid=a1d45ba8-6fdb-4468-9478-3bd97ab3745c__pspm,idfa_b8ffbdcb-3e83-4227-8e71-3f8fae849f68,ja
_XWTsZgzQuaPrgBPHMPTZA,newborntown,p1789_589-1509_951,Of81qbvWSPKfViI7CdMfcw,3.0,,7a1131a4-bf1d-47fc-9d9d-b2b9ae42426a,1557077084,2019-05-06 01:24:44,1557077122,2019-05-06 01:25:22,1557077122,b3fdaa34-a7e5-47de-9891-b3328579fee1__pspm,http://pspm.pingstart.com/api/v4/postback?from=1706&clickid=b3fdaa34-a7e5-47de-9891-b3328579fee1__pspm,idfa_7a1131a4-bf1d-47fc-9d9d-b2b9ae42426a,en
_XWTsZgzQuaPrgBPHMPTZA,newborntown,p1789_589-1509_951,Of81qbvWSPKfViI7CdMfcw,3.0,,f3708b7d-4141-49cc-8817-5c14bc8d90f8,1557079002,2019-05-06 01:56:42,1557079018,2019-05-06 01:56:58,1557079018,c327c4c1-20f9-49c3-8594-77b6bc6fc398__pspm,http://pspm.pingstart.com/api/v4/postback?from=1706&clickid=c327c4c1-20f9-49c3-8594-77b6bc6fc398__pspm,idfa_f3708b7d-4141-49cc-8817-5c14bc8d90f8,ja
_XWTsZgzQuaPrgBPHMPTZA,newborntown,p1789_589-1509_951,Of81qbvWSPKfViI7CdMfcw,3.0,,76af8906-51a8-4069-a73c-8a6e43aa8c36,1557077210,2019-05-06 01:26:50,1557077229,2019-05-06 01:27:09,1557077229,3693b1eb-127a-49b5-827d-1516990d17b9__pspm,http://pspm.pingstart.com/api/v4/postback?from=1706&clickid=3693b1eb-127a-49b5-827d-1516990d17b9__pspm,idfa_76af8906-51a8-4069-a73c-8a6e43aa8c36,ja
_XWTsZgzQuaPrgBPHMPTZA,newborntown,p1789_589-1509_951,Of81qbvWSPKfViI7CdMfcw,3.0,,edbe40dc-094c-4e19-bac4-55abf9333f65,1557076471,2019-05-06 01:14:31,1557076488,2019-05-06 01:14:48,1557076488,9670f87b-786c-4234-96ba-a3d3db118f16__pspm,http://pspm.pingstart.com/api/v4/postback?from=1706&clickid=9670f87b-786c-4234-96ba-a3d3db118f16__pspm,idfa_edbe40dc-094c-4e19-bac4-55abf9333f65,ja
_XWTsZgzQuaPrgBPHMPTZA,newborntown,p1789_589-1509_951,Of81qbvWSPKfViI7CdMfcw,3.0,,a542863b-a833-47cd-b73f-bdb7a19f531b,1557076672,2019-05-06 01:17:52,1557076697,2019-05-06 01:18:17,1557076697,2d88742f-a15f-4a64-b2ad-b7f5f4b20012__pspm,http://pspm.pingstart.com/api/v4/postback?from=1706&clickid=2d88742f-a15f-4a64-b2ad-b7f5f4b20012__pspm,idfa_a542863b-a833-47cd-b73f-bdb7a19f531b,ja
