cid,partner_id,channel_id,action_id,cpi,ip,idfa,click time,click datetime,install time,install datetime,postback time,click id,postback url,unique user id
_XWTsZgzQuaPrgBPHMPTZA,newborntown,p1789_816-2008_p1472_,Of81qbvWSPKfViI7CdMfcw,3.0,,a7e3ebfd-b9b0-44ee-95c9-7914efb5020b,1556707045,2019-05-01 18:37:25,1556707674,2019-05-01 18:47:54,1556707674,4d429fa7-671b-4158-b529-50de00abfe92__pspm,http://pspm.pingstart.com/api/v4/postback?from=1706&clickid=4d429fa7-671b-4158-b529-50de00abfe92__pspm,idfa_a7e3ebfd-b9b0-44ee-95c9-7914efb5020b,ja
_XWTsZgzQuaPrgBPHMPTZA,newborntown,p1789_589-1020_12009,Of81qbvWSPKfViI7CdMfcw,3.0,,868265c3-ba94-4f55-bbd4-037e751edf94,1557035865,2019-05-05 13:57:45,1557035939,2019-05-05 13:58:59,1557035939,d7470e9b-2f94-42ce-bb84-56673e65e277__pspm,http://pspm.pingstart.com/api/v4/postback?from=1706&clickid=d7470e9b-2f94-42ce-bb84-56673e65e277__pspm,idfa_868265c3-ba94-4f55-bbd4-037e751edf94,ja
_XWTsZgzQuaPrgBPHMPTZA,newborntown,p1789_816-2008_p1472_,Of81qbvWSPKfViI7CdMfcw,3.0,,914b7523-9b01-4f73-b2ca-dd29e5ba2661,1557021597,2019-05-05 09:59:57,1557024062,2019-05-05 10:41:02,1557024062,dc3b31d9-2b39-4ebe-9895-7107533738c5__pspm,http://pspm.pingstart.com/api/v4/postback?from=1706&clickid=dc3b31d9-2b39-4ebe-9895-7107533738c5__pspm,idfa_914b7523-9b01-4f73-b2ca-dd29e5ba2661,ja
