cid,partner_id,channel_id,action_id,cpi,ip,idfa,click time,click datetime,install time,install datetime,postback time,click id,postback url,unique user id
McnCP3NBSsS4-4rpv3-c8A,newborntown,p1789_966-1030_3046_,Of81qbvWSPKfViI7CdMfcw,2.5,,402E2057-4B89-457D-B359-8B7A4C5254AC,1558691885,2019-05-24 17:58:05,1558691962,2019-05-24 17:59:22,1558691962,d8b9d0c4-c878-4b8a-9df6-77167dc9b37d__pspm,http://pspm.pingstart.com/api/v4/postback?from=1706&clickid=d8b9d0c4-c878-4b8a-9df6-77167dc9b37d__pspm,idfa_402E2057-4B89-457D-B359-8B7A4C5254AC,ja
McnCP3NBSsS4-4rpv3-c8A,newborntown,p1789_966-1030_3046_,Of81qbvWSPKfViI7CdMfcw,2.5,,0F46C9D1-609B-405C-A5CD-16ADAA569487,1558693916,2019-05-24 18:31:56,1558693987,2019-05-24 18:33:07,1558693987,efa6b238-bb47-4997-95ba-1c910b1fde32__pspm,http://pspm.pingstart.com/api/v4/postback?from=1706&clickid=efa6b238-bb47-4997-95ba-1c910b1fde32__pspm,idfa_0F46C9D1-609B-405C-A5CD-16ADAA569487,ja
McnCP3NBSsS4-4rpv3-c8A,newborntown,p1789_966-1030_3046_,Of81qbvWSPKfViI7CdMfcw,2.5,,1ADB4529-2AEF-423E-B7B4-09B1183F0FB4,1558693904,2019-05-24 18:31:44,1558693974,2019-05-24 18:32:54,1558693974,f9c25191-7f85-4124-a1c7-634dd1e67a10__pspm,http://pspm.pingstart.com/api/v4/postback?from=1706&clickid=f9c25191-7f85-4124-a1c7-634dd1e67a10__pspm,idfa_1ADB4529-2AEF-423E-B7B4-09B1183F0FB4,ja
McnCP3NBSsS4-4rpv3-c8A,newborntown,p1789_966-1030_3046_,Of81qbvWSPKfViI7CdMfcw,2.5,,E9185B7D-2B5E-4A24-B9E3-B9C512BE9C19,1558692266,2019-05-24 18:04:26,1558692343,2019-05-24 18:05:43,1558692343,48566b95-6398-4176-92b1-4e078d3e70af__pspm,http://pspm.pingstart.com/api/v4/postback?from=1706&clickid=48566b95-6398-4176-92b1-4e078d3e70af__pspm,idfa_E9185B7D-2B5E-4A24-B9E3-B9C512BE9C19,ja
McnCP3NBSsS4-4rpv3-c8A,newborntown,p1789_966-1030_3046_,Of81qbvWSPKfViI7CdMfcw,2.5,,38C4DB99-7044-4438-8CEA-ED40BB3855C3,1558691740,2019-05-24 17:55:40,1558691814,2019-05-24 17:56:54,1558691814,70404f91-85f7-4a10-adbb-c07a29c65086__pspm,http://pspm.pingstart.com/api/v4/postback?from=1706&clickid=70404f91-85f7-4a10-adbb-c07a29c65086__pspm,idfa_38C4DB99-7044-4438-8CEA-ED40BB3855C3,ja
McnCP3NBSsS4-4rpv3-c8A,newborntown,p1789_966-1030_3046_,Of81qbvWSPKfViI7CdMfcw,2.5,,B763D769-9CA9-42DD-AF78-7634F1A39713,1558692369,2019-05-24 18:06:09,1558692445,2019-05-24 18:07:25,1558692445,fa4b0e41-ebbf-4a29-9acf-c6a633dfe964__pspm,http://pspm.pingstart.com/api/v4/postback?from=1706&clickid=fa4b0e41-ebbf-4a29-9acf-c6a633dfe964__pspm,idfa_B763D769-9CA9-42DD-AF78-7634F1A39713,ja
McnCP3NBSsS4-4rpv3-c8A,newborntown,p1789_966-1030_3046_,Of81qbvWSPKfViI7CdMfcw,2.5,,95245753-1E1A-4704-ACA4-748CD7527FDB,1558693738,2019-05-24 18:28:58,1558693811,2019-05-24 18:30:11,1558693811,c4174a29-2a63-4ff0-89b5-4aa95e147a72__pspm,http://pspm.pingstart.com/api/v4/postback?from=1706&clickid=c4174a29-2a63-4ff0-89b5-4aa95e147a72__pspm,idfa_95245753-1E1A-4704-ACA4-748CD7527FDB,ja
McnCP3NBSsS4-4rpv3-c8A,newborntown,p1789_966-1030_3046_,Of81qbvWSPKfViI7CdMfcw,2.5,,FB32197C-C172-4E8A-ABF4-76760CBCAA30,1558694558,2019-05-24 18:42:38,1558694630,2019-05-24 18:43:50,1558694630,fb9fc516-7705-49b4-b654-edda4e2c7a7e__pspm,http://pspm.pingstart.com/api/v4/postback?from=1706&clickid=fb9fc516-7705-49b4-b654-edda4e2c7a7e__pspm,idfa_FB32197C-C172-4E8A-ABF4-76760CBCAA30,ja
McnCP3NBSsS4-4rpv3-c8A,newborntown,p1789_966-1030_3046_,Of81qbvWSPKfViI7CdMfcw,2.5,,B251B2E1-91ED-4560-9CF2-B3EDE4713643,1558692498,2019-05-24 18:08:18,1558692573,2019-05-24 18:09:33,1558692573,64de981b-4500-4c0a-853c-c66fde30ec98__pspm,http://pspm.pingstart.com/api/v4/postback?from=1706&clickid=64de981b-4500-4c0a-853c-c66fde30ec98__pspm,idfa_B251B2E1-91ED-4560-9CF2-B3EDE4713643,ja
McnCP3NBSsS4-4rpv3-c8A,newborntown,p1789_966-1030_3046_,Of81qbvWSPKfViI7CdMfcw,2.5,,6664729D-1BE1-4186-B667-B441E9B2F5F7,1558694686,2019-05-24 18:44:46,1558694761,2019-05-24 18:46:01,1558694761,3323da65-ffed-4485-b20e-b61f23ecfd4e__pspm,http://pspm.pingstart.com/api/v4/postback?from=1706&clickid=3323da65-ffed-4485-b20e-b61f23ecfd4e__pspm,idfa_6664729D-1BE1-4186-B667-B441E9B2F5F7,ja
McnCP3NBSsS4-4rpv3-c8A,newborntown,p1789_966-1030_3046_,Of81qbvWSPKfViI7CdMfcw,2.5,,6FD5A9AC-7D7A-4DA3-A7A2-09D198FF67F2,1558693310,2019-05-24 18:21:50,1558693382,2019-05-24 18:23:02,1558693382,dcd213dd-3953-401e-b857-6679833620b2__pspm,http://pspm.pingstart.com/api/v4/postback?from=1706&clickid=dcd213dd-3953-401e-b857-6679833620b2__pspm,idfa_6FD5A9AC-7D7A-4DA3-A7A2-09D198FF67F2,ja
McnCP3NBSsS4-4rpv3-c8A,newborntown,p1789_966-1030_3046_,Of81qbvWSPKfViI7CdMfcw,2.5,,3B4C2112-B84F-4586-8FA0-B29CFF2B4ADF,1558692694,2019-05-24 18:11:34,1558692771,2019-05-24 18:12:51,1558692771,10437748-a5cc-4132-85a3-d72de88c3d3f__pspm,http://pspm.pingstart.com/api/v4/postback?from=1706&clickid=10437748-a5cc-4132-85a3-d72de88c3d3f__pspm,idfa_3B4C2112-B84F-4586-8FA0-B29CFF2B4ADF,ja
McnCP3NBSsS4-4rpv3-c8A,newborntown,p1789_966-1030_3046_,Of81qbvWSPKfViI7CdMfcw,2.5,,50BCBF77-AF6C-4209-B098-086167EEA367,1558693150,2019-05-24 18:19:10,1558693230,2019-05-24 18:20:30,1558693230,9a1ab040-5492-4750-819d-0a47e4baedb8__pspm,http://pspm.pingstart.com/api/v4/postback?from=1706&clickid=9a1ab040-5492-4750-819d-0a47e4baedb8__pspm,idfa_50BCBF77-AF6C-4209-B098-086167EEA367,ja
McnCP3NBSsS4-4rpv3-c8A,newborntown,p1789_966-1030_3046_,Of81qbvWSPKfViI7CdMfcw,2.5,,CFEB4AC7-C360-41CA-AB8B-4D21DA44F595,1558693623,2019-05-24 18:27:03,1558693698,2019-05-24 18:28:18,1558693698,2f463d63-2182-42e6-a648-77b36ce552e8__pspm,http://pspm.pingstart.com/api/v4/postback?from=1706&clickid=2f463d63-2182-42e6-a648-77b36ce552e8__pspm,idfa_CFEB4AC7-C360-41CA-AB8B-4D21DA44F595,ja
McnCP3NBSsS4-4rpv3-c8A,newborntown,p1789_966-1030_3046_,Of81qbvWSPKfViI7CdMfcw,2.5,,6DFD843A-7A92-43CB-921B-1DAB1B069F5F,1558693291,2019-05-24 18:21:31,1558693367,2019-05-24 18:22:47,1558693367,9d824d3a-c234-499b-b3bd-4666fbdfc4ab__pspm,http://pspm.pingstart.com/api/v4/postback?from=1706&clickid=9d824d3a-c234-499b-b3bd-4666fbdfc4ab__pspm,idfa_6DFD843A-7A92-43CB-921B-1DAB1B069F5F,ja
McnCP3NBSsS4-4rpv3-c8A,newborntown,p1789_966-1030_3046_,Of81qbvWSPKfViI7CdMfcw,2.5,,56FF3C06-8188-4194-A534-01A1E99F2F3D,1558692524,2019-05-24 18:08:44,1558692596,2019-05-24 18:09:56,1558692596,e8759eec-7e8d-4d95-a6e5-0f5c5f5c5c2f__pspm,http://pspm.pingstart.com/api/v4/postback?from=1706&clickid=e8759eec-7e8d-4d95-a6e5-0f5c5f5c5c2f__pspm,idfa_56FF3C06-8188-4194-A534-01A1E99F2F3D,ja
McnCP3NBSsS4-4rpv3-c8A,newborntown,p1789_966-1030_3046_,Of81qbvWSPKfViI7CdMfcw,2.5,,5D4720E1-9A7F-4423-B3E4-B92160C2DC43,1558693162,2019-05-24 18:19:22,1558693240,2019-05-24 18:20:40,1558693240,f5d20216-8b8c-48d1-8eaa-dc8af9d8aca7__pspm,http://pspm.pingstart.com/api/v4/postback?from=1706&clickid=f5d20216-8b8c-48d1-8eaa-dc8af9d8aca7__pspm,idfa_5D4720E1-9A7F-4423-B3E4-B92160C2DC43,ja
McnCP3NBSsS4-4rpv3-c8A,newborntown,p1789_966-1030_3046_,Of81qbvWSPKfViI7CdMfcw,2.5,,BA85D675-8CCC-44BD-BDD0-16FFBC82D9BE,1558692985,2019-05-24 18:16:25,1558693057,2019-05-24 18:17:37,1558693057,41bc954e-2fe7-4874-93f0-9eb1d7625f80__pspm,http://pspm.pingstart.com/api/v4/postback?from=1706&clickid=41bc954e-2fe7-4874-93f0-9eb1d7625f80__pspm,idfa_BA85D675-8CCC-44BD-BDD0-16FFBC82D9BE,ja
McnCP3NBSsS4-4rpv3-c8A,newborntown,p1789_966-1030_3046_,Of81qbvWSPKfViI7CdMfcw,2.5,,99032CCD-03F3-47F5-A009-05CCFA02CA5B,1558692385,2019-05-24 18:06:25,1558692464,2019-05-24 18:07:44,1558692464,90c31876-177d-4ed9-8daf-59f688b636ff__pspm,http://pspm.pingstart.com/api/v4/postback?from=1706&clickid=90c31876-177d-4ed9-8daf-59f688b636ff__pspm,idfa_99032CCD-03F3-47F5-A009-05CCFA02CA5B,ja
McnCP3NBSsS4-4rpv3-c8A,newborntown,p1789_966-1030_3046_,Of81qbvWSPKfViI7CdMfcw,2.5,,87702B87-CDBB-4193-998F-02F1B73B7496,1558692112,2019-05-24 18:01:52,1558692188,2019-05-24 18:03:08,1558692188,de92c35b-fa0b-448e-8714-6d1287e90d11__pspm,http://pspm.pingstart.com/api/v4/postback?from=1706&clickid=de92c35b-fa0b-448e-8714-6d1287e90d11__pspm,idfa_87702B87-CDBB-4193-998F-02F1B73B7496,ja
McnCP3NBSsS4-4rpv3-c8A,newborntown,p1789_966-1030_3046_,Of81qbvWSPKfViI7CdMfcw,2.5,,279F1AC3-A551-4738-9CFE-AD0EFD6B3147,1558694172,2019-05-24 18:36:12,1558694247,2019-05-24 18:37:27,1558694247,8c99fb79-2bc5-4140-95b3-6eb4162a860c__pspm,http://pspm.pingstart.com/api/v4/postback?from=1706&clickid=8c99fb79-2bc5-4140-95b3-6eb4162a860c__pspm,idfa_279F1AC3-A551-4738-9CFE-AD0EFD6B3147,ja
McnCP3NBSsS4-4rpv3-c8A,newborntown,p1789_966-1030_3046_,Of81qbvWSPKfViI7CdMfcw,2.5,,2360F176-1F17-44E3-A2F8-1D706D8BD76E,1558694248,2019-05-24 18:37:28,1558694324,2019-05-24 18:38:44,1558694324,df38a9c8-d58c-4ce8-bd3b-3b5726485380__pspm,http://pspm.pingstart.com/api/v4/postback?from=1706&clickid=df38a9c8-d58c-4ce8-bd3b-3b5726485380__pspm,idfa_2360F176-1F17-44E3-A2F8-1D706D8BD76E,ja
McnCP3NBSsS4-4rpv3-c8A,newborntown,p1789_966-1030_3046_,Of81qbvWSPKfViI7CdMfcw,2.5,,5C080D7F-264A-4CA2-8D4E-065E4097F281,1558693073,2019-05-24 18:17:53,1558693145,2019-05-24 18:19:05,1558693145,bb44e7ea-ea21-4287-8f5b-f740590f7c0b__pspm,http://pspm.pingstart.com/api/v4/postback?from=1706&clickid=bb44e7ea-ea21-4287-8f5b-f740590f7c0b__pspm,idfa_5C080D7F-264A-4CA2-8D4E-065E4097F281,ja
McnCP3NBSsS4-4rpv3-c8A,newborntown,p1789_966-1030_3046_,Of81qbvWSPKfViI7CdMfcw,2.5,,D2E716D3-CA4C-41DE-BE54-EA78452BF562,1558692257,2019-05-24 18:04:17,1558692331,2019-05-24 18:05:31,1558692331,76817835-d8fe-41e4-8ae9-3015e479f5d5__pspm,http://pspm.pingstart.com/api/v4/postback?from=1706&clickid=76817835-d8fe-41e4-8ae9-3015e479f5d5__pspm,idfa_D2E716D3-CA4C-41DE-BE54-EA78452BF562,ja
McnCP3NBSsS4-4rpv3-c8A,newborntown,p1789_966-1030_3046_,Of81qbvWSPKfViI7CdMfcw,2.5,,,1558694685,2019-05-24 18:44:45,1558694759,2019-05-24 18:45:59,1558694759,ecfc3649-eb56-4685-8b66-a60c50e860c1__pspm,http://pspm.pingstart.com/api/v4/postback?from=1706&clickid=ecfc3649-eb56-4685-8b66-a60c50e860c1__pspm,random_IbsZ7gGUQVeaXwpmtxFjyQ,ja
McnCP3NBSsS4-4rpv3-c8A,newborntown,p1789_966-1030_3046_,Of81qbvWSPKfViI7CdMfcw,2.5,,8009DC6D-F6D7-49FC-870B-E4700C744458,1558694489,2019-05-24 18:41:29,1558694559,2019-05-24 18:42:39,1558694559,3c1e7339-25cb-43c1-89cf-c746f5921c07__pspm,http://pspm.pingstart.com/api/v4/postback?from=1706&clickid=3c1e7339-25cb-43c1-89cf-c746f5921c07__pspm,idfa_8009DC6D-F6D7-49FC-870B-E4700C744458,ja
McnCP3NBSsS4-4rpv3-c8A,newborntown,p1789_966-1030_3046_,Of81qbvWSPKfViI7CdMfcw,2.5,,6DD33C4E-F1CF-41AE-B5D1-F45246CFB59B,1558693024,2019-05-24 18:17:04,1558693096,2019-05-24 18:18:16,1558693096,a0e9a352-2cd2-447e-b953-6e0655da93e4__pspm,http://pspm.pingstart.com/api/v4/postback?from=1706&clickid=a0e9a352-2cd2-447e-b953-6e0655da93e4__pspm,idfa_6DD33C4E-F1CF-41AE-B5D1-F45246CFB59B,ja
McnCP3NBSsS4-4rpv3-c8A,newborntown,p1789_966-1030_3046_,Of81qbvWSPKfViI7CdMfcw,2.5,,ABAA4FFA-D6D4-4D13-AED4-3549BE484AAE,1558694319,2019-05-24 18:38:39,1558694393,2019-05-24 18:39:53,1558694393,9fc3af4a-cf2e-4b96-82e1-a788905f4c0c__pspm,http://pspm.pingstart.com/api/v4/postback?from=1706&clickid=9fc3af4a-cf2e-4b96-82e1-a788905f4c0c__pspm,idfa_ABAA4FFA-D6D4-4D13-AED4-3549BE484AAE,ja
McnCP3NBSsS4-4rpv3-c8A,newborntown,p1789_966-1030_3046_,Of81qbvWSPKfViI7CdMfcw,2.5,,07CF2F9C-BC87-48D4-91E4-C70DE2CE6691,1558693957,2019-05-24 18:32:37,1558694035,2019-05-24 18:33:55,1558694035,36e62d0c-7928-470a-be96-c348e59aa307__pspm,http://pspm.pingstart.com/api/v4/postback?from=1706&clickid=36e62d0c-7928-470a-be96-c348e59aa307__pspm,idfa_07CF2F9C-BC87-48D4-91E4-C70DE2CE6691,ja
McnCP3NBSsS4-4rpv3-c8A,newborntown,p1789_966-1030_3046_,Of81qbvWSPKfViI7CdMfcw,2.5,,2593A626-DD90-4231-91E7-4F678D7D121F,1558694606,2019-05-24 18:43:26,1558694682,2019-05-24 18:44:42,1558694682,8050cb76-a9d4-430a-a9b1-5ddff2a543e8__pspm,http://pspm.pingstart.com/api/v4/postback?from=1706&clickid=8050cb76-a9d4-430a-a9b1-5ddff2a543e8__pspm,idfa_2593A626-DD90-4231-91E7-4F678D7D121F,ja
McnCP3NBSsS4-4rpv3-c8A,newborntown,p1789_966-1030_3046_,Of81qbvWSPKfViI7CdMfcw,2.5,,CA38E4C0-9DCD-4819-8F2E-BEB3503BF085,1558694295,2019-05-24 18:38:15,1558694369,2019-05-24 18:39:29,1558694369,0f779450-fcab-495d-8a84-27e1243f6ae0__pspm,http://pspm.pingstart.com/api/v4/postback?from=1706&clickid=0f779450-fcab-495d-8a84-27e1243f6ae0__pspm,idfa_CA38E4C0-9DCD-4819-8F2E-BEB3503BF085,ja
McnCP3NBSsS4-4rpv3-c8A,newborntown,p1789_966-1030_3046_,Of81qbvWSPKfViI7CdMfcw,2.5,,2A97605B-6D93-45B6-906B-E41D6A79791F,1558693658,2019-05-24 18:27:38,1558693734,2019-05-24 18:28:54,1558693734,9e0341de-aedf-4f5e-be4f-0209f69bba46__pspm,http://pspm.pingstart.com/api/v4/postback?from=1706&clickid=9e0341de-aedf-4f5e-be4f-0209f69bba46__pspm,idfa_2A97605B-6D93-45B6-906B-E41D6A79791F,ja
McnCP3NBSsS4-4rpv3-c8A,newborntown,p1789_966-1030_3046_,Of81qbvWSPKfViI7CdMfcw,2.5,,1959D41B-DD82-44CA-B398-EC5B77F5C7DB,1558691743,2019-05-24 17:55:43,1558691822,2019-05-24 17:57:02,1558691822,6ad0e948-476c-4c68-8e2c-cc99c1edf74b__pspm,http://pspm.pingstart.com/api/v4/postback?from=1706&clickid=6ad0e948-476c-4c68-8e2c-cc99c1edf74b__pspm,idfa_1959D41B-DD82-44CA-B398-EC5B77F5C7DB,ja
McnCP3NBSsS4-4rpv3-c8A,newborntown,p1789_966-1030_3046_,Of81qbvWSPKfViI7CdMfcw,2.5,,77A27628-3713-4499-B760-E7818F95F0DD,1558692840,2019-05-24 18:14:00,1558692914,2019-05-24 18:15:14,1558692914,ecfa123a-8f7c-42fb-b2f7-d45a576d268b__pspm,http://pspm.pingstart.com/api/v4/postback?from=1706&clickid=ecfa123a-8f7c-42fb-b2f7-d45a576d268b__pspm,idfa_77A27628-3713-4499-B760-E7818F95F0DD,ja
McnCP3NBSsS4-4rpv3-c8A,newborntown,p1789_966-1030_3046_,Of81qbvWSPKfViI7CdMfcw,2.5,,BFF09A1B-531E-414C-8911-880FFFF8C231,1558692350,2019-05-24 18:05:50,1558692429,2019-05-24 18:07:09,1558692429,1e874ed3-cf19-4ecc-a3c1-3026fc839d3a__pspm,http://pspm.pingstart.com/api/v4/postback?from=1706&clickid=1e874ed3-cf19-4ecc-a3c1-3026fc839d3a__pspm,idfa_BFF09A1B-531E-414C-8911-880FFFF8C231,ja
McnCP3NBSsS4-4rpv3-c8A,newborntown,p1789_966-1030_3046_,Of81qbvWSPKfViI7CdMfcw,2.5,,3D2DF793-9C72-42D7-B3E3-3CFB50E73732,1558692220,2019-05-24 18:03:40,1558692295,2019-05-24 18:04:55,1558692295,79b75ec8-4a53-41e2-bc1d-197012317621__pspm,http://pspm.pingstart.com/api/v4/postback?from=1706&clickid=79b75ec8-4a53-41e2-bc1d-197012317621__pspm,idfa_3D2DF793-9C72-42D7-B3E3-3CFB50E73732,ja
McnCP3NBSsS4-4rpv3-c8A,newborntown,p1789_966-1030_3046_,Of81qbvWSPKfViI7CdMfcw,2.5,,3C4F1203-ED42-4568-BC6A-EFE768054575,1558694162,2019-05-24 18:36:02,1558694237,2019-05-24 18:37:17,1558694237,41f1f321-d28e-4afd-ae9e-667da1923cb9__pspm,http://pspm.pingstart.com/api/v4/postback?from=1706&clickid=41f1f321-d28e-4afd-ae9e-667da1923cb9__pspm,idfa_3C4F1203-ED42-4568-BC6A-EFE768054575,ja
McnCP3NBSsS4-4rpv3-c8A,newborntown,p1789_966-1030_3046_,Of81qbvWSPKfViI7CdMfcw,2.5,,C4125B87-218A-4CDF-B997-1FE78561201D,1558693453,2019-05-24 18:24:13,1558693528,2019-05-24 18:25:28,1558693528,0e98ac27-d40d-4b71-a2c5-08e2d115a0f3__pspm,http://pspm.pingstart.com/api/v4/postback?from=1706&clickid=0e98ac27-d40d-4b71-a2c5-08e2d115a0f3__pspm,idfa_C4125B87-218A-4CDF-B997-1FE78561201D,ja
McnCP3NBSsS4-4rpv3-c8A,newborntown,p1789_966-1030_3046_,Of81qbvWSPKfViI7CdMfcw,2.5,,A8CD37C8-A2FD-4B61-B22C-514F4F2421C3,1558693129,2019-05-24 18:18:49,1558693206,2019-05-24 18:20:06,1558693206,d1a2d1af-0863-4e0d-9564-beb6335be7df__pspm,http://pspm.pingstart.com/api/v4/postback?from=1706&clickid=d1a2d1af-0863-4e0d-9564-beb6335be7df__pspm,idfa_A8CD37C8-A2FD-4B61-B22C-514F4F2421C3,ja
McnCP3NBSsS4-4rpv3-c8A,newborntown,p1789_966-1030_3046_,Of81qbvWSPKfViI7CdMfcw,2.5,,CB0DCE05-874C-4F53-8372-BB5C28177858,1558692411,2019-05-24 18:06:51,1558692485,2019-05-24 18:08:05,1558692485,c0820cf2-c71d-49c2-98d2-ffe1262b1575__pspm,http://pspm.pingstart.com/api/v4/postback?from=1706&clickid=c0820cf2-c71d-49c2-98d2-ffe1262b1575__pspm,idfa_CB0DCE05-874C-4F53-8372-BB5C28177858,ja
McnCP3NBSsS4-4rpv3-c8A,newborntown,p1789_966-1030_3046_,Of81qbvWSPKfViI7CdMfcw,2.5,,7DDE3030-EE1E-48CD-8C02-218AE25CB718,1558692545,2019-05-24 18:09:05,1558692626,2019-05-24 18:10:26,1558692626,23676671-8d4c-493a-aa9b-ef745faabcab__pspm,http://pspm.pingstart.com/api/v4/postback?from=1706&clickid=23676671-8d4c-493a-aa9b-ef745faabcab__pspm,idfa_7DDE3030-EE1E-48CD-8C02-218AE25CB718,ja
McnCP3NBSsS4-4rpv3-c8A,newborntown,p1789_966-1030_3046_,Of81qbvWSPKfViI7CdMfcw,2.5,,513A13B1-17EB-4863-93BA-FB88248E1AAD,1558692660,2019-05-24 18:11:00,1558692732,2019-05-24 18:12:12,1558692732,d8a94421-2cd6-410a-8733-5264cb288ad8__pspm,http://pspm.pingstart.com/api/v4/postback?from=1706&clickid=d8a94421-2cd6-410a-8733-5264cb288ad8__pspm,idfa_513A13B1-17EB-4863-93BA-FB88248E1AAD,ja
McnCP3NBSsS4-4rpv3-c8A,newborntown,p1789_966-1030_3046_,Of81qbvWSPKfViI7CdMfcw,2.5,,C5CC9BF3-E42D-4A1A-83C8-FAC413992606,1558693593,2019-05-24 18:26:33,1558693664,2019-05-24 18:27:44,1558693664,96575c2b-6bb8-4b03-90f1-66d37bcd7a45__pspm,http://pspm.pingstart.com/api/v4/postback?from=1706&clickid=96575c2b-6bb8-4b03-90f1-66d37bcd7a45__pspm,idfa_C5CC9BF3-E42D-4A1A-83C8-FAC413992606,ja
McnCP3NBSsS4-4rpv3-c8A,newborntown,p1789_966-1030_3046_,Of81qbvWSPKfViI7CdMfcw,2.5,,9A1D6836-93A9-4E59-AAC2-A7FBC5AC75D9,1558692552,2019-05-24 18:09:12,1558692626,2019-05-24 18:10:26,1558692626,3a5b064c-531f-4a39-b05b-1801c9db30a1__pspm,http://pspm.pingstart.com/api/v4/postback?from=1706&clickid=3a5b064c-531f-4a39-b05b-1801c9db30a1__pspm,idfa_9A1D6836-93A9-4E59-AAC2-A7FBC5AC75D9,ja
McnCP3NBSsS4-4rpv3-c8A,newborntown,p1789_966-1030_3046_,Of81qbvWSPKfViI7CdMfcw,2.5,,F25CB5DC-44D0-4331-AD12-0E92DC72F256,1558692402,2019-05-24 18:06:42,1558692478,2019-05-24 18:07:58,1558692478,7475a3c0-fd2e-4532-b07e-a22bc81dc186__pspm,http://pspm.pingstart.com/api/v4/postback?from=1706&clickid=7475a3c0-fd2e-4532-b07e-a22bc81dc186__pspm,idfa_F25CB5DC-44D0-4331-AD12-0E92DC72F256,ja
McnCP3NBSsS4-4rpv3-c8A,newborntown,p1789_966-1030_3046_,Of81qbvWSPKfViI7CdMfcw,2.5,,79CE466A-3E7C-4D70-BDBE-A8BA180F3CA9,1558694538,2019-05-24 18:42:18,1558694618,2019-05-24 18:43:38,1558694618,84ffbf1d-53a2-4fd4-b1a2-0e77c814f529__pspm,http://pspm.pingstart.com/api/v4/postback?from=1706&clickid=84ffbf1d-53a2-4fd4-b1a2-0e77c814f529__pspm,idfa_79CE466A-3E7C-4D70-BDBE-A8BA180F3CA9,ja
McnCP3NBSsS4-4rpv3-c8A,newborntown,p1789_966-1030_3046_,Of81qbvWSPKfViI7CdMfcw,2.5,,988C173B-6560-4E52-AD51-4E0CD05A1761,1558691894,2019-05-24 17:58:14,1558691971,2019-05-24 17:59:31,1558691971,e8972023-cbc6-42aa-ab1c-0451047db55c__pspm,http://pspm.pingstart.com/api/v4/postback?from=1706&clickid=e8972023-cbc6-42aa-ab1c-0451047db55c__pspm,idfa_988C173B-6560-4E52-AD51-4E0CD05A1761,ja
McnCP3NBSsS4-4rpv3-c8A,newborntown,p1789_966-1030_3046_,Of81qbvWSPKfViI7CdMfcw,2.5,,D61B25BC-5F1F-454B-BC4A-FF21EA915E1B,1558692764,2019-05-24 18:12:44,1558692838,2019-05-24 18:13:58,1558692838,ca63d2e8-81af-4d9b-ae45-55c7a06ad687__pspm,http://pspm.pingstart.com/api/v4/postback?from=1706&clickid=ca63d2e8-81af-4d9b-ae45-55c7a06ad687__pspm,idfa_D61B25BC-5F1F-454B-BC4A-FF21EA915E1B,ja
McnCP3NBSsS4-4rpv3-c8A,newborntown,p1789_966-1030_3046_,Of81qbvWSPKfViI7CdMfcw,2.5,,2A2781A1-7018-4DAD-B303-4DE3EE9B9483,1558694054,2019-05-24 18:34:14,1558694125,2019-05-24 18:35:25,1558694125,29121b31-3a6c-45f3-b532-a6b9057cf4f6__pspm,http://pspm.pingstart.com/api/v4/postback?from=1706&clickid=29121b31-3a6c-45f3-b532-a6b9057cf4f6__pspm,idfa_2A2781A1-7018-4DAD-B303-4DE3EE9B9483,ja
McnCP3NBSsS4-4rpv3-c8A,newborntown,p1789_966-1030_3046_,Of81qbvWSPKfViI7CdMfcw,2.5,,8C22B97E-93C1-41D4-9E48-2E7C620AB4D5,1558692491,2019-05-24 18:08:11,1558692564,2019-05-24 18:09:24,1558692564,69474044-2d1e-44f8-a8f5-54c8bf83d1e5__pspm,http://pspm.pingstart.com/api/v4/postback?from=1706&clickid=69474044-2d1e-44f8-a8f5-54c8bf83d1e5__pspm,idfa_8C22B97E-93C1-41D4-9E48-2E7C620AB4D5,ja
McnCP3NBSsS4-4rpv3-c8A,newborntown,p1789_966-1030_3046_,Of81qbvWSPKfViI7CdMfcw,2.5,,4412F8DC-0B68-45A1-8F2A-EE32DAC973C4,1558694624,2019-05-24 18:43:44,1558694691,2019-05-24 18:44:51,1558694691,ea8475e5-0aee-42de-b4ce-3d0843020df5__pspm,http://pspm.pingstart.com/api/v4/postback?from=1706&clickid=ea8475e5-0aee-42de-b4ce-3d0843020df5__pspm,idfa_4412F8DC-0B68-45A1-8F2A-EE32DAC973C4,ja
McnCP3NBSsS4-4rpv3-c8A,newborntown,p1789_966-1030_3046_,Of81qbvWSPKfViI7CdMfcw,2.5,,BAD87451-D73D-4DE9-A0C3-2E09650250BA,1558692122,2019-05-24 18:02:02,1558692198,2019-05-24 18:03:18,1558692198,e70487db-7c99-44c2-aff2-570067dd1c78__pspm,http://pspm.pingstart.com/api/v4/postback?from=1706&clickid=e70487db-7c99-44c2-aff2-570067dd1c78__pspm,idfa_BAD87451-D73D-4DE9-A0C3-2E09650250BA,ja
McnCP3NBSsS4-4rpv3-c8A,newborntown,p1789_966-1030_3046_,Of81qbvWSPKfViI7CdMfcw,2.5,,,1558693418,2019-05-24 18:23:38,1558693492,2019-05-24 18:24:52,1558693492,5d6d33a1-a975-418f-901f-32f310220ebe__pspm,http://pspm.pingstart.com/api/v4/postback?from=1706&clickid=5d6d33a1-a975-418f-901f-32f310220ebe__pspm,random_C_86PVSYTO6RG_7JDvyThQ,ja
McnCP3NBSsS4-4rpv3-c8A,newborntown,p1789_966-1030_3046_,Of81qbvWSPKfViI7CdMfcw,2.5,,33CC9C7A-390D-459A-B300-B48542D72827,1558692089,2019-05-24 18:01:29,1558692165,2019-05-24 18:02:45,1558692165,13403e8b-e918-49d1-8a99-07e59ecf303e__pspm,http://pspm.pingstart.com/api/v4/postback?from=1706&clickid=13403e8b-e918-49d1-8a99-07e59ecf303e__pspm,idfa_33CC9C7A-390D-459A-B300-B48542D72827,ja
McnCP3NBSsS4-4rpv3-c8A,newborntown,p1789_966-1030_3046_,Of81qbvWSPKfViI7CdMfcw,2.5,,7E7ED083-5DEA-4F42-9087-434A88A25168,1558692799,2019-05-24 18:13:19,1558692872,2019-05-24 18:14:32,1558692872,796e37d0-0ffa-4f45-9f67-568558d63f4f__pspm,http://pspm.pingstart.com/api/v4/postback?from=1706&clickid=796e37d0-0ffa-4f45-9f67-568558d63f4f__pspm,idfa_7E7ED083-5DEA-4F42-9087-434A88A25168,ja
McnCP3NBSsS4-4rpv3-c8A,newborntown,p1789_966-1030_3046_,Of81qbvWSPKfViI7CdMfcw,2.5,,0210AEE0-A578-4D2D-AD81-BF4241B9D1BE,1558694028,2019-05-24 18:33:48,1558694103,2019-05-24 18:35:03,1558694103,7255d99a-fb80-4f3c-9898-f346950f018f__pspm,http://pspm.pingstart.com/api/v4/postback?from=1706&clickid=7255d99a-fb80-4f3c-9898-f346950f018f__pspm,idfa_0210AEE0-A578-4D2D-AD81-BF4241B9D1BE,ja
