cid,partner_id,channel_id,action_id,cpi,ip,idfa,click time,click datetime,install time,install datetime,postback time,click id,postback url,unique user id
kn3qPZKDQ_2dyPKb1avAAQ,newborntown,p1839_570212_7_7_05625-0512798,Install,3.0,223.197.250.232,4D4272C3-3656-43ED-81D1-AE0B8A353916,1557980390,2019-05-16 12:19:50,1557980486,2019-05-16 12:21:26,1557980517,e8372efb-b5fd-4846-95c5-805ae8847e0a__pspm,http://pspm.pingstart.com/api/v4/postback?from=1706&clickid=e8372efb-b5fd-4846-95c5-805ae8847e0a__pspm,idfa_4D4272C3-3656-43ED-81D1-AE0B8A353916,zh-HK-HK
kn3qPZKDQ_2dyPKb1avAAQ,newborntown,p1839_570212_7_7_05625-0512798,Install,3.0,103.6.178.202,3B68365F-B215-4830-8C8E-D1E979FD4B5B,1557978944,2019-05-16 11:55:44,1557979008,2019-05-16 11:56:48,1557979039,ba588c16-50f9-49bf-9275-2834e4744196__pspm,http://pspm.pingstart.com/api/v4/postback?from=1706&clickid=ba588c16-50f9-49bf-9275-2834e4744196__pspm,idfa_3B68365F-B215-4830-8C8E-D1E979FD4B5B,zh-HK-HK
kn3qPZKDQ_2dyPKb1avAAQ,newborntown,p1839_570212_7_7_05625-0512798,Install,3.0,202.82.230.225,BFAFB56A-6109-43C6-AF4E-2A2D63A08DBD,1557979439,2019-05-16 12:03:59,1557979506,2019-05-16 12:05:06,1557979537,a68905f3-8a00-4b98-a865-b7a72e52f4ca__pspm,http://pspm.pingstart.com/api/v4/postback?from=1706&clickid=a68905f3-8a00-4b98-a865-b7a72e52f4ca__pspm,idfa_BFAFB56A-6109-43C6-AF4E-2A2D63A08DBD,zh-HK-HK
kn3qPZKDQ_2dyPKb1avAAQ,newborntown,p1839_570212_7_7_05625-0512798,Install,3.0,223.197.223.103,745951ED-96F6-44C3-A762-D2FB0E439D85,1557978764,2019-05-16 11:52:44,1557978862,2019-05-16 11:54:22,1557978893,55f72324-5a95-424f-8e72-6107c382ce3b__pspm,http://pspm.pingstart.com/api/v4/postback?from=1706&clickid=55f72324-5a95-424f-8e72-6107c382ce3b__pspm,idfa_745951ED-96F6-44C3-A762-D2FB0E439D85,zh-HK-HK
kn3qPZKDQ_2dyPKb1avAAQ,newborntown,p1839_570212_7_7_05625-0512798,Install,3.0,61.244.114.180,90D0FCAF-8795-4554-AFE4-0DB9916E4B27,1557978731,2019-05-16 11:52:11,1557978881,2019-05-16 11:54:41,1557978912,e63c3cf0-3cc0-46a9-80a9-87f07c3f6433__pspm,http://pspm.pingstart.com/api/v4/postback?from=1706&clickid=e63c3cf0-3cc0-46a9-80a9-87f07c3f6433__pspm,idfa_90D0FCAF-8795-4554-AFE4-0DB9916E4B27,zh-HK-HK
kn3qPZKDQ_2dyPKb1avAAQ,newborntown,p1839_570212_7_7_05625-0512798,Install,3.0,203.198.151.85,3421C8A8-9186-4CFD-84F8-D5FED263FDD0,1557978702,2019-05-16 11:51:42,1557978785,2019-05-16 11:53:05,1557978816,3fb069f1-15e2-44c6-9bb8-702df854af71__pspm,http://pspm.pingstart.com/api/v4/postback?from=1706&clickid=3fb069f1-15e2-44c6-9bb8-702df854af71__pspm,idfa_3421C8A8-9186-4CFD-84F8-D5FED263FDD0,zh-HK-HK
kn3qPZKDQ_2dyPKb1avAAQ,newborntown,p1839_570212_7_7_05625-0512798,Install,3.0,202.82.230.225,FA6BB069-D382-4B5B-A577-0AB6C21D4FE8,1557979693,2019-05-16 12:08:13,1557979756,2019-05-16 12:09:16,1557979787,a8adc276-20ed-4aad-8c8d-8165920b9bf4__pspm,http://pspm.pingstart.com/api/v4/postback?from=1706&clickid=a8adc276-20ed-4aad-8c8d-8165920b9bf4__pspm,idfa_FA6BB069-D382-4B5B-A577-0AB6C21D4FE8,zh-HK-HK
kn3qPZKDQ_2dyPKb1avAAQ,newborntown,p1839_570212_7_7_05625-0512798,Install,3.0,202.82.230.225,A09192C4-9EC9-4930-9A2C-1EB56B168103,1557980087,2019-05-16 12:14:47,1557980156,2019-05-16 12:15:56,1557980187,0b8c2ead-8fa9-420a-bfe9-5b519bf338c0__pspm,http://pspm.pingstart.com/api/v4/postback?from=1706&clickid=0b8c2ead-8fa9-420a-bfe9-5b519bf338c0__pspm,idfa_A09192C4-9EC9-4930-9A2C-1EB56B168103,zh-HK-HK
kn3qPZKDQ_2dyPKb1avAAQ,newborntown,p1839_570212_7_7_05625-0512798,Install,3.0,42.200.215.190,226E8B35-975A-43C1-A9A6-E4F839623AC9,1557980684,2019-05-16 12:24:44,1557980766,2019-05-16 12:26:06,1557980799,766b6599-e664-4cc1-b401-e17c4758aa2a__pspm,http://pspm.pingstart.com/api/v4/postback?from=1706&clickid=766b6599-e664-4cc1-b401-e17c4758aa2a__pspm,idfa_226E8B35-975A-43C1-A9A6-E4F839623AC9,zh-HK-HK
kn3qPZKDQ_2dyPKb1avAAQ,newborntown,p1839_570212_7_7_05625-0512798,Install,3.0,112.120.82.232,2FAED925-F733-4795-A4A6-2564BC73A581,1557979705,2019-05-16 12:08:25,1557979782,2019-05-16 12:09:42,1557979813,42d42fa9-b34a-4ccb-94fb-a9592b729ffb__pspm,http://pspm.pingstart.com/api/v4/postback?from=1706&clickid=42d42fa9-b34a-4ccb-94fb-a9592b729ffb__pspm,idfa_2FAED925-F733-4795-A4A6-2564BC73A581,zh-HK-HK
kn3qPZKDQ_2dyPKb1avAAQ,newborntown,p1839_570212_7_7_05625-0512798,Install,3.0,210.56.56.213,DE7211DC-08BA-4FE2-BB9E-B193E834253A,1557979450,2019-05-16 12:04:10,1557979515,2019-05-16 12:05:15,1557979546,d8ab50ab-c0c8-4b69-8402-d982f0ab710e__pspm,http://pspm.pingstart.com/api/v4/postback?from=1706&clickid=d8ab50ab-c0c8-4b69-8402-d982f0ab710e__pspm,idfa_DE7211DC-08BA-4FE2-BB9E-B193E834253A,zh-HK-HK
kn3qPZKDQ_2dyPKb1avAAQ,newborntown,p1839_570212_7_7_05625-0512798,Install,3.0,223.197.223.164,6A18C261-912F-4CB8-8EAF-A6A2F98EFFB1,1557980424,2019-05-16 12:20:24,1557980485,2019-05-16 12:21:25,1557980516,9d9761c7-90a0-488e-90f0-8774e8518930__pspm,http://pspm.pingstart.com/api/v4/postback?from=1706&clickid=9d9761c7-90a0-488e-90f0-8774e8518930__pspm,idfa_6A18C261-912F-4CB8-8EAF-A6A2F98EFFB1,zh-HK-HK
kn3qPZKDQ_2dyPKb1avAAQ,newborntown,p1839_570212_7_7_05625-0512798,Install,3.0,223.197.223.219,A07DAF9B-FD8F-49DA-9D11-0086FA7B9827,1557980436,2019-05-16 12:20:36,1557980497,2019-05-16 12:21:37,1557980530,d8b669e0-8efe-4ed7-bf28-05ea45034470__pspm,http://pspm.pingstart.com/api/v4/postback?from=1706&clickid=d8b669e0-8efe-4ed7-bf28-05ea45034470__pspm,idfa_A07DAF9B-FD8F-49DA-9D11-0086FA7B9827,zh-HK-HK
kn3qPZKDQ_2dyPKb1avAAQ,newborntown,p1839_570212_7_7_05625-0512798,Install,3.0,218.255.189.26,0F9BAB5E-16FB-4193-8AED-CED7139DD71C,1557979366,2019-05-16 12:02:46,1557979440,2019-05-16 12:04:00,1557979471,b82f5511-96aa-4124-9f51-af6bbf519b37__pspm,http://pspm.pingstart.com/api/v4/postback?from=1706&clickid=b82f5511-96aa-4124-9f51-af6bbf519b37__pspm,idfa_0F9BAB5E-16FB-4193-8AED-CED7139DD71C,zh-HK-HK
kn3qPZKDQ_2dyPKb1avAAQ,newborntown,p1839_570212_7_7_05625-0512798,Install,3.0,116.48.159.160,1D30A431-21A1-436D-8936-1455FC92CFAF,1557979622,2019-05-16 12:07:02,1557979775,2019-05-16 12:09:35,1557979806,66ff7223-a168-40f6-8598-385ef1e34f13__pspm,http://pspm.pingstart.com/api/v4/postback?from=1706&clickid=66ff7223-a168-40f6-8598-385ef1e34f13__pspm,idfa_1D30A431-21A1-436D-8936-1455FC92CFAF,zh-HK-HK
kn3qPZKDQ_2dyPKb1avAAQ,newborntown,p1839_570212_7_7_05625-0512798,Install,3.0,210.3.173.34,10161D88-1989-437D-9723-D72EF8343147,1557980700,2019-05-16 12:25:00,1557980766,2019-05-16 12:26:06,1557980796,854248b0-1576-49eb-9a96-3513bcefc763__pspm,http://pspm.pingstart.com/api/v4/postback?from=1706&clickid=854248b0-1576-49eb-9a96-3513bcefc763__pspm,idfa_10161D88-1989-437D-9723-D72EF8343147,zh-HK-HK
kn3qPZKDQ_2dyPKb1avAAQ,newborntown,p1839_570212_7_7_05625-0512798,Install,3.0,223.197.133.27,E0D44F28-C64D-4DA7-86FD-F08866A818AE,1557979212,2019-05-16 12:00:12,1557979285,2019-05-16 12:01:25,1557979316,21d3381b-2d9f-4821-aa53-354f5c005e2a__pspm,http://pspm.pingstart.com/api/v4/postback?from=1706&clickid=21d3381b-2d9f-4821-aa53-354f5c005e2a__pspm,idfa_E0D44F28-C64D-4DA7-86FD-F08866A818AE,zh-HK-HK
kn3qPZKDQ_2dyPKb1avAAQ,newborntown,p1839_570212_7_7_05625-0512798,Install,3.0,218.103.126.211,7F475696-2F07-4A6A-AE1F-44047A3B762C,1557980697,2019-05-16 12:24:57,1557980763,2019-05-16 12:26:03,1557980795,9065e713-c900-42cf-a572-6f642e488f4a__pspm,http://pspm.pingstart.com/api/v4/postback?from=1706&clickid=9065e713-c900-42cf-a572-6f642e488f4a__pspm,idfa_7F475696-2F07-4A6A-AE1F-44047A3B762C,zh-HK-HK
kn3qPZKDQ_2dyPKb1avAAQ,newborntown,p1839_570212_7_7_05625-0512798,Install,3.0,223.197.223.29,AD6CF25A-34E3-4126-8960-9736EAB5D4C6,1557979961,2019-05-16 12:12:41,1557980028,2019-05-16 12:13:48,1557980058,a701fc5d-1ab1-4656-9c20-1df77c56c133__pspm,http://pspm.pingstart.com/api/v4/postback?from=1706&clickid=a701fc5d-1ab1-4656-9c20-1df77c56c133__pspm,idfa_AD6CF25A-34E3-4126-8960-9736EAB5D4C6,zh-HK-HK
kn3qPZKDQ_2dyPKb1avAAQ,newborntown,p1839_570212_7_7_05625-0512798,Install,3.0,43.240.117.239,AD80CD33-6509-4D74-8512-37C26E129A16,1557978689,2019-05-16 11:51:29,1557978775,2019-05-16 11:52:55,1557978809,2343494d-dea4-4fa3-bc2d-db45cb1b9ded__pspm,http://pspm.pingstart.com/api/v4/postback?from=1706&clickid=2343494d-dea4-4fa3-bc2d-db45cb1b9ded__pspm,idfa_AD80CD33-6509-4D74-8512-37C26E129A16,zh-HK-HK
kn3qPZKDQ_2dyPKb1avAAQ,newborntown,p1839_570212_7_7_05625-0512798,Install,3.0,203.90.233.59,FC62CC19-3339-4002-BA1C-0952CAAE1872,1557980018,2019-05-16 12:13:38,1557980110,2019-05-16 12:15:10,1557980141,c3a1148c-7514-4a61-b167-a703c5650ea3__pspm,http://pspm.pingstart.com/api/v4/postback?from=1706&clickid=c3a1148c-7514-4a61-b167-a703c5650ea3__pspm,idfa_FC62CC19-3339-4002-BA1C-0952CAAE1872,zh-HK-HK
kn3qPZKDQ_2dyPKb1avAAQ,newborntown,p1839_570212_7_7_05625-0512798,Install,3.0,124.244.34.228,C79C4733-FAF9-4D83-A830-393EFF571317,1557979078,2019-05-16 11:57:58,1557979185,2019-05-16 11:59:45,1557979216,56512580-9f00-429e-b5da-2c632c2501ed__pspm,http://pspm.pingstart.com/api/v4/postback?from=1706&clickid=56512580-9f00-429e-b5da-2c632c2501ed__pspm,idfa_C79C4733-FAF9-4D83-A830-393EFF571317,zh-HK-HK
kn3qPZKDQ_2dyPKb1avAAQ,newborntown,p1839_570212_7_7_05625-0512798,Install,3.0,218.189.15.187,1A315DF0-2E53-4F40-9547-4DFCEE76C17F,1557980454,2019-05-16 12:20:54,1557980519,2019-05-16 12:21:59,1557980553,1c326e0e-66b5-4609-a691-c8a199c75f2c__pspm,http://pspm.pingstart.com/api/v4/postback?from=1706&clickid=1c326e0e-66b5-4609-a691-c8a199c75f2c__pspm,idfa_1A315DF0-2E53-4F40-9547-4DFCEE76C17F,zh-HK-HK
kn3qPZKDQ_2dyPKb1avAAQ,newborntown,p1839_570212_7_7_05625-0512798,Install,3.0,202.82.230.225,45415980-C086-4975-BB0D-D60D2AA1DA06,1557979011,2019-05-16 11:56:51,1557979060,2019-05-16 11:57:40,1557979092,a9a56369-8186-4505-a828-a71bf319fc53__pspm,http://pspm.pingstart.com/api/v4/postback?from=1706&clickid=a9a56369-8186-4505-a828-a71bf319fc53__pspm,idfa_45415980-C086-4975-BB0D-D60D2AA1DA06,zh-HK-HK
kn3qPZKDQ_2dyPKb1avAAQ,newborntown,p1839_570212_7_7_05625-0512798,Install,3.0,219.76.177.98,2F85F7D7-2FF2-4BDE-A5CC-78689B27C2A6,1557980097,2019-05-16 12:14:57,1557980189,2019-05-16 12:16:29,1557980223,5ca53893-7557-4d73-993f-4df6cdd259ad__pspm,http://pspm.pingstart.com/api/v4/postback?from=1706&clickid=5ca53893-7557-4d73-993f-4df6cdd259ad__pspm,idfa_2F85F7D7-2FF2-4BDE-A5CC-78689B27C2A6,zh-HK-HK
kn3qPZKDQ_2dyPKb1avAAQ,newborntown,p1839_570212_7_7_05625-0512798,Install,3.0,223.197.223.165,BB6143A0-40A3-4D75-A625-8ACC1862A66E,1557979580,2019-05-16 12:06:20,1557979663,2019-05-16 12:07:43,1557979694,0c4d26c2-b53a-4722-9a0c-18f46fdfc683__pspm,http://pspm.pingstart.com/api/v4/postback?from=1706&clickid=0c4d26c2-b53a-4722-9a0c-18f46fdfc683__pspm,idfa_BB6143A0-40A3-4D75-A625-8ACC1862A66E,zh-HK-HK
kn3qPZKDQ_2dyPKb1avAAQ,newborntown,p1839_570212_7_7_05625-0512798,Install,3.0,103.254.210.60,021E6A52-A046-4FB3-AAA0-64AD96258AF7,1557979196,2019-05-16 11:59:56,1557979258,2019-05-16 12:00:58,1557979290,f918a422-114c-47de-be69-c31c8bb08bc4__pspm,http://pspm.pingstart.com/api/v4/postback?from=1706&clickid=f918a422-114c-47de-be69-c31c8bb08bc4__pspm,idfa_021E6A52-A046-4FB3-AAA0-64AD96258AF7,zh-HK-HK
kn3qPZKDQ_2dyPKb1avAAQ,newborntown,p1839_570212_7_7_05625-0512798,Install,3.0,203.198.148.196,D745857A-4484-4121-8ED1-A26CA6BB40EF,1557980201,2019-05-16 12:16:41,1557980270,2019-05-16 12:17:50,1557980301,fc137ee3-040d-42b9-88f5-300f027267f4__pspm,http://pspm.pingstart.com/api/v4/postback?from=1706&clickid=fc137ee3-040d-42b9-88f5-300f027267f4__pspm,idfa_D745857A-4484-4121-8ED1-A26CA6BB40EF,zh-HK-HK
kn3qPZKDQ_2dyPKb1avAAQ,newborntown,p1839_570212_7_7_05625-0512798,Install,3.0,223.19.66.165,2BDF7ACB-110E-4854-992F-AAACF7152418,1557979838,2019-05-16 12:10:38,1557979914,2019-05-16 12:11:54,1557979945,716f1afd-be8e-4075-bb82-4d336d38f6ff__pspm,http://pspm.pingstart.com/api/v4/postback?from=1706&clickid=716f1afd-be8e-4075-bb82-4d336d38f6ff__pspm,idfa_2BDF7ACB-110E-4854-992F-AAACF7152418,zh-HK-HK
kn3qPZKDQ_2dyPKb1avAAQ,newborntown,p1839_570212_7_7_05625-0512798,Install,3.0,182.239.58.169,D294D21E-B162-4E1D-8CE9-A3E4FF28969E,1557979314,2019-05-16 12:01:54,1557979403,2019-05-16 12:03:23,1557979433,ba28bd7d-da2a-4a02-90cb-fe8cb738959f__pspm,http://pspm.pingstart.com/api/v4/postback?from=1706&clickid=ba28bd7d-da2a-4a02-90cb-fe8cb738959f__pspm,idfa_D294D21E-B162-4E1D-8CE9-A3E4FF28969E,zh-HK-HK
