cid,partner_id,channel_id,action_id,cpi,ip,idfa,click time,click datetime,install time,install datetime,postback time,click id,postback url,unique user id
SELB2RIFRuiMwBgaOdKrVw,newborntown,p1993_,install,1.4,220.215.253.118,F829BB5B-DC5E-4681-9706-852F9461BFE1,1557040883,2019-05-05 15:21:23,1557040970,2019-05-05 15:22:50,1557041001,f8b303da-88a4-4d7a-84d4-cd84a2864dac__pspm,http://pspm.pingstart.com/api/v4/postback?from=1706&clickid=f8b303da-88a4-4d7a-84d4-cd84a2864dac__pspm,idfa_F829BB5B-DC5E-4681-9706-852F9461BFE1,ja
SELB2RIFRuiMwBgaOdKrVw,newborntown,p1993_,install,1.4,180.22.26.221,269FB5E7-F509-4244-AC88-1D21FCAB9834,1557038672,2019-05-05 14:44:32,1557038764,2019-05-05 14:46:04,1557038794,49599825-e36f-4380-8b62-d99ac215635c__pspm,http://pspm.pingstart.com/api/v4/postback?from=1706&clickid=49599825-e36f-4380-8b62-d99ac215635c__pspm,idfa_269FB5E7-F509-4244-AC88-1D21FCAB9834,ja
SELB2RIFRuiMwBgaOdKrVw,newborntown,p1993_,install,1.4,114.166.176.119,8F76DCE0-D26C-458A-B6F7-7EBDD05589D7,1557039138,2019-05-05 14:52:18,1557039257,2019-05-05 14:54:17,1557039287,1f561d6f-d428-48e6-a33c-2b0c326a3ff5__pspm,http://pspm.pingstart.com/api/v4/postback?from=1706&clickid=1f561d6f-d428-48e6-a33c-2b0c326a3ff5__pspm,idfa_8F76DCE0-D26C-458A-B6F7-7EBDD05589D7,ja
SELB2RIFRuiMwBgaOdKrVw,newborntown,p1993_,install,1.4,126.31.200.54,AA718434-1E6C-4120-B5AE-648849AFD53D,1557038161,2019-05-05 14:36:01,1557038265,2019-05-05 14:37:45,1557038295,3628d3b9-84e9-46ed-b794-dc3cf840e7ef__pspm,http://pspm.pingstart.com/api/v4/postback?from=1706&clickid=3628d3b9-84e9-46ed-b794-dc3cf840e7ef__pspm,idfa_AA718434-1E6C-4120-B5AE-648849AFD53D,ja
SELB2RIFRuiMwBgaOdKrVw,newborntown,p1993_,install,1.4,106.158.91.102,6BAA846B-1F1D-4D2E-A67D-A03CC39371CB,1557038508,2019-05-05 14:41:48,1557038587,2019-05-05 14:43:07,1557038617,651641de-cc3c-437b-939d-27965087a361__pspm,http://pspm.pingstart.com/api/v4/postback?from=1706&clickid=651641de-cc3c-437b-939d-27965087a361__pspm,idfa_6BAA846B-1F1D-4D2E-A67D-A03CC39371CB,ja
SELB2RIFRuiMwBgaOdKrVw,newborntown,p1993_,install,1.4,106.161.245.157,81F38DA5-41A5-414D-B096-57C54A3356BD,1557039454,2019-05-05 14:57:34,1557039537,2019-05-05 14:58:57,1557039567,9d4bbc00-7439-4741-9f66-3f44889525f0__pspm,http://pspm.pingstart.com/api/v4/postback?from=1706&clickid=9d4bbc00-7439-4741-9f66-3f44889525f0__pspm,idfa_81F38DA5-41A5-414D-B096-57C54A3356BD,ja
SELB2RIFRuiMwBgaOdKrVw,newborntown,p1993_,install,1.4,59.146.144.46,4C58CE59-B741-4309-9976-3788FC1E023C,1557039937,2019-05-05 15:05:37,1557040017,2019-05-05 15:06:57,1557040047,f7da6ac4-8512-42aa-8435-4f4fc0b4e328__pspm,http://pspm.pingstart.com/api/v4/postback?from=1706&clickid=f7da6ac4-8512-42aa-8435-4f4fc0b4e328__pspm,idfa_4C58CE59-B741-4309-9976-3788FC1E023C,ja
SELB2RIFRuiMwBgaOdKrVw,newborntown,p1993_,install,1.4,126.224.135.13,B871D8B2-F045-4D2D-841D-6FC3A05C7D7D,1557039341,2019-05-05 14:55:41,1557039423,2019-05-05 14:57:03,1557039454,b8b55930-0b39-4140-a0f4-2e406291802b__pspm,http://pspm.pingstart.com/api/v4/postback?from=1706&clickid=b8b55930-0b39-4140-a0f4-2e406291802b__pspm,idfa_B871D8B2-F045-4D2D-841D-6FC3A05C7D7D,ja
SELB2RIFRuiMwBgaOdKrVw,newborntown,p1993_,install,1.4,219.23.88.23,92B16776-9514-4753-AF5E-B05999BEEDE9,1557035490,2019-05-05 13:51:30,1557035577,2019-05-05 13:52:57,1557035607,41046d64-8b29-47cb-8a80-a66d6bba751f__pspm,http://pspm.pingstart.com/api/v4/postback?from=1706&clickid=41046d64-8b29-47cb-8a80-a66d6bba751f__pspm,idfa_92B16776-9514-4753-AF5E-B05999BEEDE9,ja
SELB2RIFRuiMwBgaOdKrVw,newborntown,p1993_,install,1.4,126.94.243.17,3C55F7EE-0908-4828-A546-065449FE4E9C,1557036399,2019-05-05 14:06:39,1557036513,2019-05-05 14:08:33,1557036543,635b6350-146a-4d44-b765-bc9e97192782__pspm,http://pspm.pingstart.com/api/v4/postback?from=1706&clickid=635b6350-146a-4d44-b765-bc9e97192782__pspm,idfa_3C55F7EE-0908-4828-A546-065449FE4E9C,ja
SELB2RIFRuiMwBgaOdKrVw,newborntown,p1993_,install,1.4,126.151.54.155,859A93FD-6A09-405F-A9CF-D600838F78B5,1557040401,2019-05-05 15:13:21,1557040465,2019-05-05 15:14:25,1557040495,1dea88f0-09e5-439d-add6-8ef1e5d47826__pspm,http://pspm.pingstart.com/api/v4/postback?from=1706&clickid=1dea88f0-09e5-439d-add6-8ef1e5d47826__pspm,idfa_859A93FD-6A09-405F-A9CF-D600838F78B5,ja
SELB2RIFRuiMwBgaOdKrVw,newborntown,p1993_,install,1.4,147.192.22.54,D49CD31D-D3D3-485F-823D-F55068A18C13,1557035944,2019-05-05 13:59:04,1557036032,2019-05-05 14:00:32,1557036062,61997e0b-ec49-4184-94da-248aab1b830f__pspm,http://pspm.pingstart.com/api/v4/postback?from=1706&clickid=61997e0b-ec49-4184-94da-248aab1b830f__pspm,idfa_D49CD31D-D3D3-485F-823D-F55068A18C13,ja
SELB2RIFRuiMwBgaOdKrVw,newborntown,p1993_,install,1.4,49.240.241.181,5BBBCE1F-6DDA-42B1-B182-98436B6A610A,1557035683,2019-05-05 13:54:43,1557035777,2019-05-05 13:56:17,1557035807,f98a3128-f05a-4396-99ee-b647a8244b09__pspm,http://pspm.pingstart.com/api/v4/postback?from=1706&clickid=f98a3128-f05a-4396-99ee-b647a8244b09__pspm,idfa_5BBBCE1F-6DDA-42B1-B182-98436B6A610A,ja
SELB2RIFRuiMwBgaOdKrVw,newborntown,p1993_,install,1.4,153.232.104.205,4C07BEA3-A317-48E0-8C9E-E127DCA5833D,1557036940,2019-05-05 14:15:40,1557037023,2019-05-05 14:17:03,1557037053,c73f2d6d-b78d-467e-9ceb-192c233209cf__pspm,http://pspm.pingstart.com/api/v4/postback?from=1706&clickid=c73f2d6d-b78d-467e-9ceb-192c233209cf__pspm,idfa_4C07BEA3-A317-48E0-8C9E-E127DCA5833D,ja
SELB2RIFRuiMwBgaOdKrVw,newborntown,p1993_,install,1.4,180.196.98.76,CBB4114B-0264-427B-9D05-0E1A2A38FDF8,1557035474,2019-05-05 13:51:14,1557035633,2019-05-05 13:53:53,1557035663,7fe8df27-58ea-4aef-a95f-97e1eea0320d__pspm,http://pspm.pingstart.com/api/v4/postback?from=1706&clickid=7fe8df27-58ea-4aef-a95f-97e1eea0320d__pspm,idfa_CBB4114B-0264-427B-9D05-0E1A2A38FDF8,ja
SELB2RIFRuiMwBgaOdKrVw,newborntown,p1993_,install,1.4,59.128.157.4,14584CA7-1FF1-456B-92DE-7192DF55A6B2,1557037162,2019-05-05 14:19:22,1557037269,2019-05-05 14:21:09,1557037418,7f468332-5254-4b61-83b6-30a34a698132__pspm,http://pspm.pingstart.com/api/v4/postback?from=1706&clickid=7f468332-5254-4b61-83b6-30a34a698132__pspm,idfa_14584CA7-1FF1-456B-92DE-7192DF55A6B2,ja
SELB2RIFRuiMwBgaOdKrVw,newborntown,p1993_,install,1.4,126.147.162.111,E4B67265-D50C-4A52-8FB9-F9DC2023F915,1557041016,2019-05-05 15:23:36,1557041099,2019-05-05 15:24:59,1557041129,46d4b8f8-2208-45ca-830c-a6a7a1b28663__pspm,http://pspm.pingstart.com/api/v4/postback?from=1706&clickid=46d4b8f8-2208-45ca-830c-a6a7a1b28663__pspm,idfa_E4B67265-D50C-4A52-8FB9-F9DC2023F915,ja
SELB2RIFRuiMwBgaOdKrVw,newborntown,p1993_,install,1.4,27.134.68.155,59BE87A7-CE4E-4F9A-AC36-8FF71D12DC4E,1557038992,2019-05-05 14:49:52,1557039070,2019-05-05 14:51:10,1557039100,2bd89a12-5a49-4115-bd02-6d87b001ff70__pspm,http://pspm.pingstart.com/api/v4/postback?from=1706&clickid=2bd89a12-5a49-4115-bd02-6d87b001ff70__pspm,idfa_59BE87A7-CE4E-4F9A-AC36-8FF71D12DC4E,ja
SELB2RIFRuiMwBgaOdKrVw,newborntown,p1993_,install,1.4,220.104.19.121,5AFFFAF8-66D4-48CB-9941-DB3E27C0BC0C,1557037855,2019-05-05 14:30:55,1557037940,2019-05-05 14:32:20,1557037970,3cd5f48f-85d3-4446-bf5b-662519f29cb3__pspm,http://pspm.pingstart.com/api/v4/postback?from=1706&clickid=3cd5f48f-85d3-4446-bf5b-662519f29cb3__pspm,idfa_5AFFFAF8-66D4-48CB-9941-DB3E27C0BC0C,ja
SELB2RIFRuiMwBgaOdKrVw,newborntown,p1993_,install,1.4,210.229.77.185,ECF667A7-AAEB-407B-8560-5EC1BD420F81,1557035934,2019-05-05 13:58:54,1557036010,2019-05-05 14:00:10,1557036040,c94fb629-fe57-46a3-ac7a-67c2a9707ef1__pspm,http://pspm.pingstart.com/api/v4/postback?from=1706&clickid=c94fb629-fe57-46a3-ac7a-67c2a9707ef1__pspm,idfa_ECF667A7-AAEB-407B-8560-5EC1BD420F81,ja
SELB2RIFRuiMwBgaOdKrVw,newborntown,p1993_,install,1.4,60.128.170.166,22AFA806-D006-41CC-A22D-F62ED38D1AB1,1557035223,2019-05-05 13:47:03,1557035304,2019-05-05 13:48:24,1557035334,f81c8bb4-06b3-4719-b5c7-34618a20b32b__pspm,http://pspm.pingstart.com/api/v4/postback?from=1706&clickid=f81c8bb4-06b3-4719-b5c7-34618a20b32b__pspm,idfa_22AFA806-D006-41CC-A22D-F62ED38D1AB1,ja
SELB2RIFRuiMwBgaOdKrVw,newborntown,p1993_,install,1.4,118.241.209.157,EA1B8A25-AE94-4DE2-B15C-D6D635F83A63,1557040290,2019-05-05 15:11:30,1557040400,2019-05-05 15:13:20,1557040430,242e73f4-9e4c-492e-8ed2-dc3456851e50__pspm,http://pspm.pingstart.com/api/v4/postback?from=1706&clickid=242e73f4-9e4c-492e-8ed2-dc3456851e50__pspm,idfa_EA1B8A25-AE94-4DE2-B15C-D6D635F83A63,ja
SELB2RIFRuiMwBgaOdKrVw,newborntown,p1993_,install,1.4,60.139.71.45,01DF070D-26F2-4C34-B950-04B738F5420C,1557037673,2019-05-05 14:27:53,1557037776,2019-05-05 14:29:36,1557037806,7a5b7540-5e29-42e0-970c-6eddee0409b5__pspm,http://pspm.pingstart.com/api/v4/postback?from=1706&clickid=7a5b7540-5e29-42e0-970c-6eddee0409b5__pspm,idfa_01DF070D-26F2-4C34-B950-04B738F5420C,ja
SELB2RIFRuiMwBgaOdKrVw,newborntown,p1993_,install,1.4,14.3.109.160,74A8EB0A-DBDD-4112-A51C-FBD48E4EFFEB,1557039825,2019-05-05 15:03:45,1557039918,2019-05-05 15:05:18,1557039948,25e0c8e1-9d89-4233-87e4-8aa562b2a246__pspm,http://pspm.pingstart.com/api/v4/postback?from=1706&clickid=25e0c8e1-9d89-4233-87e4-8aa562b2a246__pspm,idfa_74A8EB0A-DBDD-4112-A51C-FBD48E4EFFEB,ja
SELB2RIFRuiMwBgaOdKrVw,newborntown,p1993_,install,1.4,126.110.114.84,5F9911CC-99EB-4314-912E-7EA4C0D7E00A,1557024311,2019-05-05 10:45:11,1557024408,2019-05-05 10:46:48,1557024438,7645b4cd-f1da-43d0-9ec5-e54e1ebf753a__pspm,http://pspm.pingstart.com/api/v4/postback?from=1706&clickid=7645b4cd-f1da-43d0-9ec5-e54e1ebf753a__pspm,idfa_5F9911CC-99EB-4314-912E-7EA4C0D7E00A,ja
SELB2RIFRuiMwBgaOdKrVw,newborntown,p1993_,install,1.4,118.241.209.157,1CB1258A-208B-461B-8448-85B55E0CAF13,1557035920,2019-05-05 13:58:40,1557036051,2019-05-05 14:00:51,1557036236,629746ce-cc7e-445c-a6cd-8f05c3596608__pspm,http://pspm.pingstart.com/api/v4/postback?from=1706&clickid=629746ce-cc7e-445c-a6cd-8f05c3596608__pspm,idfa_1CB1258A-208B-461B-8448-85B55E0CAF13,ja
SELB2RIFRuiMwBgaOdKrVw,newborntown,p1993_,install,1.4,111.239.253.102,90E7F12D-0FB3-49AE-8B32-324830B2C668,1557036434,2019-05-05 14:07:14,1557036526,2019-05-05 14:08:46,1557036556,7b497b4a-42ba-4ad4-8153-38a641e370bc__pspm,http://pspm.pingstart.com/api/v4/postback?from=1706&clickid=7b497b4a-42ba-4ad4-8153-38a641e370bc__pspm,idfa_90E7F12D-0FB3-49AE-8B32-324830B2C668,ja
SELB2RIFRuiMwBgaOdKrVw,newborntown,p1993_,install,1.4,60.79.194.47,02107DD6-6B0F-4955-A1EE-B96570974CE4,1557040829,2019-05-05 15:20:29,1557040934,2019-05-05 15:22:14,1557040964,6592fb8d-a6d4-4ca4-a76c-9cb10309772e__pspm,http://pspm.pingstart.com/api/v4/postback?from=1706&clickid=6592fb8d-a6d4-4ca4-a76c-9cb10309772e__pspm,idfa_02107DD6-6B0F-4955-A1EE-B96570974CE4,ja
SELB2RIFRuiMwBgaOdKrVw,newborntown,p1993_,install,1.4,218.110.230.7,6E015DEB-53ED-4D53-B3CA-BBA3F6775945,1557037401,2019-05-05 14:23:21,1557037479,2019-05-05 14:24:39,1557037509,5132242b-5eec-4bb9-aaa3-3509b144df95__pspm,http://pspm.pingstart.com/api/v4/postback?from=1706&clickid=5132242b-5eec-4bb9-aaa3-3509b144df95__pspm,idfa_6E015DEB-53ED-4D53-B3CA-BBA3F6775945,ja
