cid,partner_id,channel_id,action_id,cpi,ip,idfa,click time,click datetime,install time,install datetime,postback time,click id,postback url,unique user id
DvWmqkVTQCWT-Iqm_b1s_A,newborntown,p1599_1064_721-10512721,Install,0.29,47.247.130.85,17638b87-ba6e-4a5a-8931-cfcd2b1c4a88,1557616835,2019-05-12 07:20:35,1557616874,2019-05-12 07:21:14,1557616904,1ae48002-a076-4721-a47d-e68d7794e830__pspm,http://pspm.pingstart.com/api/v4/postback?from=1706&clickid=1ae48002-a076-4721-a47d-e68d7794e830__pspm,idfa_17638b87-ba6e-4a5a-8931-cfcd2b1c4a88,English
DvWmqkVTQCWT-Iqm_b1s_A,newborntown,p1599_1064_721-10512721,Install,0.29,157.48.197.167,c8780b2e-4d32-499c-b900-cff8636ffb65,1557616678,2019-05-12 07:17:58,1557616717,2019-05-12 07:18:37,1557616749,d28543e4-3f93-4969-8719-d3eaf41d0b8c__pspm,http://pspm.pingstart.com/api/v4/postback?from=1706&clickid=d28543e4-3f93-4969-8719-d3eaf41d0b8c__pspm,idfa_c8780b2e-4d32-499c-b900-cff8636ffb65,English
DvWmqkVTQCWT-Iqm_b1s_A,newborntown,p1599_1064_721-10512721,Install,0.29,223.237.11.102,d283e8ea-8e24-429f-9d02-d60794f032c9,1557600601,2019-05-12 02:50:01,1557600640,2019-05-12 02:50:40,1557600671,78b435d9-5746-42d4-a5fc-34784b1629fb__pspm,http://pspm.pingstart.com/api/v4/postback?from=1706&clickid=78b435d9-5746-42d4-a5fc-34784b1629fb__pspm,idfa_d283e8ea-8e24-429f-9d02-d60794f032c9,English
DvWmqkVTQCWT-Iqm_b1s_A,newborntown,p1599_1064_721-10512721,Install,0.29,47.15.135.211,8ccae636-ba89-4272-baee-8dd2f29b318c,1557599441,2019-05-12 02:30:41,1557599476,2019-05-12 02:31:16,1557599508,79346103-8143-4d4c-9300-3a44e30b31cc__pspm,http://pspm.pingstart.com/api/v4/postback?from=1706&clickid=79346103-8143-4d4c-9300-3a44e30b31cc__pspm,idfa_8ccae636-ba89-4272-baee-8dd2f29b318c,English
DvWmqkVTQCWT-Iqm_b1s_A,newborntown,p1599_1064_721-10512721,Install,0.29,47.29.111.59,184510a7-bb13-4437-a337-006874bbfca8,1557616748,2019-05-12 07:19:08,1557616772,2019-05-12 07:19:32,1557616803,d0f8538b-8999-456a-8f08-992572b51e1d__pspm,http://pspm.pingstart.com/api/v4/postback?from=1706&clickid=d0f8538b-8999-456a-8f08-992572b51e1d__pspm,idfa_184510a7-bb13-4437-a337-006874bbfca8,English
DvWmqkVTQCWT-Iqm_b1s_A,newborntown,p1599_1064_721-10512721,Install,0.29,137.97.33.99,4e7bdfd5-1c3c-4f03-9a2c-a8ef0f226714,1557616608,2019-05-12 07:16:48,1557616640,2019-05-12 07:17:20,1557616672,0bcd1c56-86b1-47da-9fb1-4f0a522e6e80__pspm,http://pspm.pingstart.com/api/v4/postback?from=1706&clickid=0bcd1c56-86b1-47da-9fb1-4f0a522e6e80__pspm,idfa_4e7bdfd5-1c3c-4f03-9a2c-a8ef0f226714,English
DvWmqkVTQCWT-Iqm_b1s_A,newborntown,p1599_1064_721-10512721,Install,0.29,42.110.150.174,4646d07b-c34a-4b12-959c-18bf00adfa6c,1557616835,2019-05-12 07:20:35,1557616867,2019-05-12 07:21:07,1557616898,4a8d22fc-1a1a-4c67-bd48-413be3952109__pspm,http://pspm.pingstart.com/api/v4/postback?from=1706&clickid=4a8d22fc-1a1a-4c67-bd48-413be3952109__pspm,idfa_4646d07b-c34a-4b12-959c-18bf00adfa6c,English
DvWmqkVTQCWT-Iqm_b1s_A,newborntown,p1599_1064_721-10512721,Install,0.29,27.59.102.139,cb151e86-3e42-46a4-94b9-6beee650f81b,1557599624,2019-05-12 02:33:44,1557599656,2019-05-12 02:34:16,1557599687,800264ca-8eef-4061-b320-0f06f949dfc8__pspm,http://pspm.pingstart.com/api/v4/postback?from=1706&clickid=800264ca-8eef-4061-b320-0f06f949dfc8__pspm,idfa_cb151e86-3e42-46a4-94b9-6beee650f81b,English
DvWmqkVTQCWT-Iqm_b1s_A,newborntown,p1599_1064_721-10512721,Install,0.29,27.56.241.37,ba64a4e2-6901-45cc-ad28-a98e52f7c26a,1557599391,2019-05-12 02:29:51,1557599429,2019-05-12 02:30:29,1557599460,f9442af1-1f00-4755-8183-6e1d029bebce__pspm,http://pspm.pingstart.com/api/v4/postback?from=1706&clickid=f9442af1-1f00-4755-8183-6e1d029bebce__pspm,idfa_ba64a4e2-6901-45cc-ad28-a98e52f7c26a,English
DvWmqkVTQCWT-Iqm_b1s_A,newborntown,p1599_1064_721-10512721,Install,0.29,223.186.29.45,aae39bf3-78ce-4d85-8019-35346e4fd229,1557616676,2019-05-12 07:17:56,1557616717,2019-05-12 07:18:37,1557616748,39bba395-0f6f-4176-81f0-ee04ff4286df__pspm,http://pspm.pingstart.com/api/v4/postback?from=1706&clickid=39bba395-0f6f-4176-81f0-ee04ff4286df__pspm,idfa_aae39bf3-78ce-4d85-8019-35346e4fd229,English
DvWmqkVTQCWT-Iqm_b1s_A,newborntown,p1599_1064_721-10512721,Install,0.29,106.197.145.19,02bdf1e7-10c8-4489-822d-50b659b52e0b,1557616718,2019-05-12 07:18:38,1557616756,2019-05-12 07:19:16,1557616788,08dc576a-fe3c-4c10-899a-19f8015c444f__pspm,http://pspm.pingstart.com/api/v4/postback?from=1706&clickid=08dc576a-fe3c-4c10-899a-19f8015c444f__pspm,idfa_02bdf1e7-10c8-4489-822d-50b659b52e0b,English
DvWmqkVTQCWT-Iqm_b1s_A,newborntown,p1599_1064_721-10512721,Install,0.29,106.76.9.103,082f2fce-a8fd-463a-91e5-b6a379aa6012,1557600953,2019-05-12 02:55:53,1557601041,2019-05-12 02:57:21,1557601073,474dc231-0782-4d89-857a-a049ef97b56a__pspm,http://pspm.pingstart.com/api/v4/postback?from=1706&clickid=474dc231-0782-4d89-857a-a049ef97b56a__pspm,idfa_082f2fce-a8fd-463a-91e5-b6a379aa6012,English
DvWmqkVTQCWT-Iqm_b1s_A,newborntown,p1599_1064_721-10512721,Install,0.29,157.50.5.211,7c9ba7ba-ad23-431e-90d7-8155bffa5dc1,1557616852,2019-05-12 07:20:52,1557616898,2019-05-12 07:21:38,1557616930,b16b5663-0ac2-4c5a-906f-9a6ec040fa4b__pspm,http://pspm.pingstart.com/api/v4/postback?from=1706&clickid=b16b5663-0ac2-4c5a-906f-9a6ec040fa4b__pspm,idfa_7c9ba7ba-ad23-431e-90d7-8155bffa5dc1,English
DvWmqkVTQCWT-Iqm_b1s_A,newborntown,p1599_1064_721-10512721,Install,0.29,27.61.117.209,dbdb7fed-f383-453f-b7a4-04f5951ab056,1557616724,2019-05-12 07:18:44,1557616765,2019-05-12 07:19:25,1557616795,e4339b4d-a714-4557-9e7d-d9664a95fb8c__pspm,http://pspm.pingstart.com/api/v4/postback?from=1706&clickid=e4339b4d-a714-4557-9e7d-d9664a95fb8c__pspm,idfa_dbdb7fed-f383-453f-b7a4-04f5951ab056,English
DvWmqkVTQCWT-Iqm_b1s_A,newborntown,p1599_1064_721-10512721,Install,0.29,27.97.180.247,a4c555e9-e998-48ee-a44d-17b4d42e8624,1557599991,2019-05-12 02:39:51,1557600017,2019-05-12 02:40:17,1557600048,5175dfed-1704-4372-bf96-26cef07f2aa9__pspm,http://pspm.pingstart.com/api/v4/postback?from=1706&clickid=5175dfed-1704-4372-bf96-26cef07f2aa9__pspm,idfa_a4c555e9-e998-48ee-a44d-17b4d42e8624,English
DvWmqkVTQCWT-Iqm_b1s_A,newborntown,p1599_1064_721-10512721,Install,0.29,157.47.209.182,40943665-b612-4062-92d2-283fef31b4b9,1557600910,2019-05-12 02:55:10,1557601010,2019-05-12 02:56:50,1557601040,5967f730-7bce-4308-acf0-6618257b828b__pspm,http://pspm.pingstart.com/api/v4/postback?from=1706&clickid=5967f730-7bce-4308-acf0-6618257b828b__pspm,idfa_40943665-b612-4062-92d2-283fef31b4b9,English
DvWmqkVTQCWT-Iqm_b1s_A,newborntown,p1599_1064_721-10512721,Install,0.29,112.79.228.19,4eb4aaa2-880f-4ea1-8882-e84c799980af,1557605815,2019-05-12 04:16:55,1557605860,2019-05-12 04:17:40,1557605891,a51aee73-6603-4072-b263-3918e57d3a70__pspm,http://pspm.pingstart.com/api/v4/postback?from=1706&clickid=a51aee73-6603-4072-b263-3918e57d3a70__pspm,idfa_4eb4aaa2-880f-4ea1-8882-e84c799980af,English
DvWmqkVTQCWT-Iqm_b1s_A,newborntown,p1599_1064_721-10512721,Install,0.29,27.61.167.99,6d728be6-bf44-4b00-a047-5f285dc065c1,1557599131,2019-05-12 02:25:31,1557599168,2019-05-12 02:26:08,1557599198,ebfea5bd-70a7-4121-b36d-6f44522898c9__pspm,http://pspm.pingstart.com/api/v4/postback?from=1706&clickid=ebfea5bd-70a7-4121-b36d-6f44522898c9__pspm,idfa_6d728be6-bf44-4b00-a047-5f285dc065c1,English
DvWmqkVTQCWT-Iqm_b1s_A,newborntown,p1599_1064_721-10512721,Install,0.29,112.110.119.16,7a014bbe-cd7b-488c-9776-757b5c376693,1557616678,2019-05-12 07:17:58,1557616712,2019-05-12 07:18:32,1557616743,9dae7823-634a-48fc-9075-b9bbfe453e1f__pspm,http://pspm.pingstart.com/api/v4/postback?from=1706&clickid=9dae7823-634a-48fc-9075-b9bbfe453e1f__pspm,idfa_7a014bbe-cd7b-488c-9776-757b5c376693,English
DvWmqkVTQCWT-Iqm_b1s_A,newborntown,p1599_1064_721-10512721,Install,0.29,27.61.120.115,6e0cb6de-936a-4bcc-916e-99bacd71635d,1557616778,2019-05-12 07:19:38,1557616817,2019-05-12 07:20:17,1557616849,fc128894-5378-4463-9fb1-7cb053fa61ee__pspm,http://pspm.pingstart.com/api/v4/postback?from=1706&clickid=fc128894-5378-4463-9fb1-7cb053fa61ee__pspm,idfa_6e0cb6de-936a-4bcc-916e-99bacd71635d,English
DvWmqkVTQCWT-Iqm_b1s_A,newborntown,p1599_1064_721-10512721,Install,0.29,223.184.222.179,9e2f3909-0eb3-4875-86c8-2104d252d7b4,1557616836,2019-05-12 07:20:36,1557616907,2019-05-12 07:21:47,1557616938,34d31c7b-b03e-489f-942b-cf45d9b161e4__pspm,http://pspm.pingstart.com/api/v4/postback?from=1706&clickid=34d31c7b-b03e-489f-942b-cf45d9b161e4__pspm,idfa_9e2f3909-0eb3-4875-86c8-2104d252d7b4,English
DvWmqkVTQCWT-Iqm_b1s_A,newborntown,p1599_1064_721-10512721,Install,0.29,103.48.68.13,4f5013aa-cf22-4c3e-afab-440dd912ff7c,1557616618,2019-05-12 07:16:58,1557616659,2019-05-12 07:17:39,1557616690,dd7109b5-3336-40e9-95f9-25e244341f83__pspm,http://pspm.pingstart.com/api/v4/postback?from=1706&clickid=dd7109b5-3336-40e9-95f9-25e244341f83__pspm,idfa_4f5013aa-cf22-4c3e-afab-440dd912ff7c,English
DvWmqkVTQCWT-Iqm_b1s_A,newborntown,p1599_1064_721-10512721,Install,0.29,47.247.121.106,8c789074-f5b6-4524-8dde-381a944aed22,1557616671,2019-05-12 07:17:51,1557616752,2019-05-12 07:19:12,1557616783,2454cc8f-de83-4865-b4a9-aac7e6c9c28d__pspm,http://pspm.pingstart.com/api/v4/postback?from=1706&clickid=2454cc8f-de83-4865-b4a9-aac7e6c9c28d__pspm,idfa_8c789074-f5b6-4524-8dde-381a944aed22,English
DvWmqkVTQCWT-Iqm_b1s_A,newborntown,p1599_1064_721-10512721,Install,0.29,157.49.219.198,a78e0441-2433-4e99-92f7-d303514c8989,1557616835,2019-05-12 07:20:35,1557616880,2019-05-12 07:21:20,1557616911,0a8824b2-7b83-4e89-95de-01d26f923256__pspm,http://pspm.pingstart.com/api/v4/postback?from=1706&clickid=0a8824b2-7b83-4e89-95de-01d26f923256__pspm,idfa_a78e0441-2433-4e99-92f7-d303514c8989,English
DvWmqkVTQCWT-Iqm_b1s_A,newborntown,p1599_1064_721-10512721,Install,0.29,157.50.221.247,ef031467-20fd-47ba-95be-2af2de0e3828,1557616779,2019-05-12 07:19:39,1557616820,2019-05-12 07:20:20,1557616851,18a849b0-6b6a-4584-86c3-94ba8d3244ea__pspm,http://pspm.pingstart.com/api/v4/postback?from=1706&clickid=18a849b0-6b6a-4584-86c3-94ba8d3244ea__pspm,idfa_ef031467-20fd-47ba-95be-2af2de0e3828,English
DvWmqkVTQCWT-Iqm_b1s_A,newborntown,p1599_1064_721-10512721,Install,0.29,223.185.33.77,4ddbf8c2-af2e-4628-a06f-de6251230b7d,1557616773,2019-05-12 07:19:33,1557616811,2019-05-12 07:20:11,1557616843,8f3e44f4-9f2e-4593-86e1-78fe2c8c9c81__pspm,http://pspm.pingstart.com/api/v4/postback?from=1706&clickid=8f3e44f4-9f2e-4593-86e1-78fe2c8c9c81__pspm,idfa_4ddbf8c2-af2e-4628-a06f-de6251230b7d,English
DvWmqkVTQCWT-Iqm_b1s_A,newborntown,p1599_1064_721-10512721,Install,0.29,49.34.156.16,ca828b82-2257-4f86-9638-cc4d74027b84,1557616683,2019-05-12 07:18:03,1557616716,2019-05-12 07:18:36,1557616747,40d53886-23a8-4672-bfa0-8582d0e6de4e__pspm,http://pspm.pingstart.com/api/v4/postback?from=1706&clickid=40d53886-23a8-4672-bfa0-8582d0e6de4e__pspm,idfa_ca828b82-2257-4f86-9638-cc4d74027b84,English
DvWmqkVTQCWT-Iqm_b1s_A,newborntown,p1599_1064_721-10512721,Install,0.29,223.230.130.173,11049142-478c-4059-a19f-17aadd374b5d,1557603594,2019-05-12 03:39:54,1557603625,2019-05-12 03:40:25,1557603657,deb4c5ac-b3b8-45cf-b193-9c79d45f27db__pspm,http://pspm.pingstart.com/api/v4/postback?from=1706&clickid=deb4c5ac-b3b8-45cf-b193-9c79d45f27db__pspm,idfa_11049142-478c-4059-a19f-17aadd374b5d,English
DvWmqkVTQCWT-Iqm_b1s_A,newborntown,p1599_1064_721-10512721,Install,0.29,47.31.117.180,921b2271-2886-4b44-a0b7-2f13f4737eed,1557599390,2019-05-12 02:29:50,1557599427,2019-05-12 02:30:27,1557599462,d059a0db-02e3-4e0a-bba3-2fade07f25e8__pspm,http://pspm.pingstart.com/api/v4/postback?from=1706&clickid=d059a0db-02e3-4e0a-bba3-2fade07f25e8__pspm,idfa_921b2271-2886-4b44-a0b7-2f13f4737eed,English
DvWmqkVTQCWT-Iqm_b1s_A,newborntown,p1599_1064_721-10512721,Install,0.29,106.193.153.196,045801a4-0106-4e55-b9fc-dfa5ebac6ee4,1557616660,2019-05-12 07:17:40,1557616694,2019-05-12 07:18:14,1557616725,abb166fa-b9b7-4ce9-a01f-d01adc622c9d__pspm,http://pspm.pingstart.com/api/v4/postback?from=1706&clickid=abb166fa-b9b7-4ce9-a01f-d01adc622c9d__pspm,idfa_045801a4-0106-4e55-b9fc-dfa5ebac6ee4,English
DvWmqkVTQCWT-Iqm_b1s_A,newborntown,p1599_1064_721-10512721,Install,0.29,157.48.10.102,653d463b-78b4-439e-8b09-5413c7d16b99,1557597512,2019-05-12 01:58:32,1557597556,2019-05-12 01:59:16,1557597586,55e94b14-8182-4165-8fc7-6047414bb57f__pspm,http://pspm.pingstart.com/api/v4/postback?from=1706&clickid=55e94b14-8182-4165-8fc7-6047414bb57f__pspm,idfa_653d463b-78b4-439e-8b09-5413c7d16b99,English
DvWmqkVTQCWT-Iqm_b1s_A,newborntown,p1599_1064_721-10512721,Install,0.29,137.97.164.31,6f9525e5-4c17-4c07-946a-2e0af87e3b13,1557616737,2019-05-12 07:18:57,1557616775,2019-05-12 07:19:35,1557616806,0f2e20b9-6608-4710-abd5-9e9b45fecd22__pspm,http://pspm.pingstart.com/api/v4/postback?from=1706&clickid=0f2e20b9-6608-4710-abd5-9e9b45fecd22__pspm,idfa_6f9525e5-4c17-4c07-946a-2e0af87e3b13,English
DvWmqkVTQCWT-Iqm_b1s_A,newborntown,p1599_1064_721-10512721,Install,0.29,103.87.58.19,2ff9202c-02e8-44ef-8b35-066a6baf408a,1557616850,2019-05-12 07:20:50,1557616894,2019-05-12 07:21:34,1557616925,e76e024f-06f0-4112-b8f9-42ac6bfe980c__pspm,http://pspm.pingstart.com/api/v4/postback?from=1706&clickid=e76e024f-06f0-4112-b8f9-42ac6bfe980c__pspm,idfa_2ff9202c-02e8-44ef-8b35-066a6baf408a,English
DvWmqkVTQCWT-Iqm_b1s_A,newborntown,p1599_1064_721-10512721,Install,0.29,47.30.184.191,1f31fe67-e73d-41a9-a762-30307cf62e93,1557616778,2019-05-12 07:19:38,1557616835,2019-05-12 07:20:35,1557616866,3f8372b0-0033-480d-9542-1cf26e56153b__pspm,http://pspm.pingstart.com/api/v4/postback?from=1706&clickid=3f8372b0-0033-480d-9542-1cf26e56153b__pspm,idfa_1f31fe67-e73d-41a9-a762-30307cf62e93,English
DvWmqkVTQCWT-Iqm_b1s_A,newborntown,p1599_1064_721-10512721,Install,0.29,106.206.35.72,21b22aed-1dad-4c72-ae20-ad734c691c18,1557616798,2019-05-12 07:19:58,1557616837,2019-05-12 07:20:37,1557616868,f880aed7-7a7e-4d84-adfa-f515cdd6dca8__pspm,http://pspm.pingstart.com/api/v4/postback?from=1706&clickid=f880aed7-7a7e-4d84-adfa-f515cdd6dca8__pspm,idfa_21b22aed-1dad-4c72-ae20-ad734c691c18,English
DvWmqkVTQCWT-Iqm_b1s_A,newborntown,p1599_1064_721-10512721,Install,0.29,106.51.170.112,e9c3064f-aeb2-4083-bcb3-598a39961946,1557616604,2019-05-12 07:16:44,1557616646,2019-05-12 07:17:26,1557616678,132f10f8-4fbd-4b69-9694-5fa329dd5139__pspm,http://pspm.pingstart.com/api/v4/postback?from=1706&clickid=132f10f8-4fbd-4b69-9694-5fa329dd5139__pspm,idfa_e9c3064f-aeb2-4083-bcb3-598a39961946,English
DvWmqkVTQCWT-Iqm_b1s_A,newborntown,p1599_1064_721-10512721,Install,0.29,49.33.254.86,fcfe5aa6-3054-4297-86eb-e35ea10fa129,1557600238,2019-05-12 02:43:58,1557600274,2019-05-12 02:44:34,1557600305,4d144bcc-f7f8-4647-a42b-040d64692030__pspm,http://pspm.pingstart.com/api/v4/postback?from=1706&clickid=4d144bcc-f7f8-4647-a42b-040d64692030__pspm,idfa_fcfe5aa6-3054-4297-86eb-e35ea10fa129,English
DvWmqkVTQCWT-Iqm_b1s_A,newborntown,p1599_1064_721-10512721,Install,0.29,42.107.239.4,a9c43eae-aa0a-423d-b3e6-244844d27c55,1557616741,2019-05-12 07:19:01,1557616778,2019-05-12 07:19:38,1557616809,48eccca6-91a3-4366-8c6c-6340a758a265__pspm,http://pspm.pingstart.com/api/v4/postback?from=1706&clickid=48eccca6-91a3-4366-8c6c-6340a758a265__pspm,idfa_a9c43eae-aa0a-423d-b3e6-244844d27c55,English
DvWmqkVTQCWT-Iqm_b1s_A,newborntown,p1599_1064_721-10512721,Install,0.29,157.50.195.24,ff149416-b106-467c-997a-584ce7ef8b9b,1557616729,2019-05-12 07:18:49,1557616765,2019-05-12 07:19:25,1557616796,aa8d958e-1837-40a3-8bf6-a1e517b41022__pspm,http://pspm.pingstart.com/api/v4/postback?from=1706&clickid=aa8d958e-1837-40a3-8bf6-a1e517b41022__pspm,idfa_ff149416-b106-467c-997a-584ce7ef8b9b,English
DvWmqkVTQCWT-Iqm_b1s_A,newborntown,p1599_1064_721-10512721,Install,0.29,223.185.48.62,69b1ac6a-7a7f-4b16-89a9-c8401043b394,1557616721,2019-05-12 07:18:41,1557616759,2019-05-12 07:19:19,1557616790,2188ffeb-de31-4fe6-8683-4e1637681312__pspm,http://pspm.pingstart.com/api/v4/postback?from=1706&clickid=2188ffeb-de31-4fe6-8683-4e1637681312__pspm,idfa_69b1ac6a-7a7f-4b16-89a9-c8401043b394,English
DvWmqkVTQCWT-Iqm_b1s_A,newborntown,p1599_1064_721-10512721,Install,0.29,223.238.68.140,95a0bb18-8efa-413c-bbbb-37c78af01774,1557616654,2019-05-12 07:17:34,1557616724,2019-05-12 07:18:44,1557616755,5ab18661-7e52-4b16-b3c9-2f04e273f269__pspm,http://pspm.pingstart.com/api/v4/postback?from=1706&clickid=5ab18661-7e52-4b16-b3c9-2f04e273f269__pspm,idfa_95a0bb18-8efa-413c-bbbb-37c78af01774,English
DvWmqkVTQCWT-Iqm_b1s_A,newborntown,p1599_1064_721-10512721,Install,0.29,157.49.245.204,54b3d398-64c8-4c34-96d1-7394e646f1d4,1557616781,2019-05-12 07:19:41,1557616860,2019-05-12 07:21:00,1557616891,00105358-3b9a-4336-8f25-31bf7b7aac1c__pspm,http://pspm.pingstart.com/api/v4/postback?from=1706&clickid=00105358-3b9a-4336-8f25-31bf7b7aac1c__pspm,idfa_54b3d398-64c8-4c34-96d1-7394e646f1d4,English
DvWmqkVTQCWT-Iqm_b1s_A,newborntown,p1599_1064_721-10512721,Install,0.29,223.181.36.120,4c72618d-f7a0-4fed-84a9-84d4f3dfb5df,1557600337,2019-05-12 02:45:37,1557600374,2019-05-12 02:46:14,1557600405,4cb3df84-48ce-41f4-bf70-460c14538f7f__pspm,http://pspm.pingstart.com/api/v4/postback?from=1706&clickid=4cb3df84-48ce-41f4-bf70-460c14538f7f__pspm,idfa_4c72618d-f7a0-4fed-84a9-84d4f3dfb5df,English
DvWmqkVTQCWT-Iqm_b1s_A,newborntown,p1599_1064_721-10512721,Install,0.29,49.35.121.12,90e93a15-2a12-4e02-872b-5c0bdb94a62b,1557616825,2019-05-12 07:20:25,1557616906,2019-05-12 07:21:46,1557616937,3fbba961-5fae-4601-b52b-282d81213400__pspm,http://pspm.pingstart.com/api/v4/postback?from=1706&clickid=3fbba961-5fae-4601-b52b-282d81213400__pspm,idfa_90e93a15-2a12-4e02-872b-5c0bdb94a62b,English
DvWmqkVTQCWT-Iqm_b1s_A,newborntown,p1599_1064_721-10512721,Install,0.29,49.15.91.49,68353198-b8d0-4aa3-93b0-3c16ba05bc55,1557616819,2019-05-12 07:20:19,1557616856,2019-05-12 07:20:56,1557616887,cb0303e3-1422-482d-96c2-feb97d0088ef__pspm,http://pspm.pingstart.com/api/v4/postback?from=1706&clickid=cb0303e3-1422-482d-96c2-feb97d0088ef__pspm,idfa_68353198-b8d0-4aa3-93b0-3c16ba05bc55,English
DvWmqkVTQCWT-Iqm_b1s_A,newborntown,p1599_1064_721-10512721,Install,0.29,223.182.202.245,86785b78-1074-4498-ba17-3057dd6e7fb7,1557599727,2019-05-12 02:35:27,1557599763,2019-05-12 02:36:03,1557599794,4a0aaeed-32b0-4b83-8fb0-588c5dfe1bdf__pspm,http://pspm.pingstart.com/api/v4/postback?from=1706&clickid=4a0aaeed-32b0-4b83-8fb0-588c5dfe1bdf__pspm,idfa_86785b78-1074-4498-ba17-3057dd6e7fb7,English
DvWmqkVTQCWT-Iqm_b1s_A,newborntown,p1599_1064_721-10512721,Install,0.29,106.78.181.153,d5270858-c273-41b5-b4eb-0963e177e943,1557616624,2019-05-12 07:17:04,1557616657,2019-05-12 07:17:37,1557616688,4b0970b1-e13c-4a24-b0ae-22571885f334__pspm,http://pspm.pingstart.com/api/v4/postback?from=1706&clickid=4b0970b1-e13c-4a24-b0ae-22571885f334__pspm,idfa_d5270858-c273-41b5-b4eb-0963e177e943,English
DvWmqkVTQCWT-Iqm_b1s_A,newborntown,p1599_1064_721-10512721,Install,0.29,47.9.71.113,c30abe2c-d93c-424d-8282-563f47a1a9c9,1557599201,2019-05-12 02:26:41,1557599245,2019-05-12 02:27:25,1557599276,b0bd1019-b18f-4edf-8232-206328bcc0e0__pspm,http://pspm.pingstart.com/api/v4/postback?from=1706&clickid=b0bd1019-b18f-4edf-8232-206328bcc0e0__pspm,idfa_c30abe2c-d93c-424d-8282-563f47a1a9c9,English
DvWmqkVTQCWT-Iqm_b1s_A,newborntown,p1599_1064_721-10512721,Install,0.29,157.49.175.43,2e83eb72-6972-45b1-8e34-f175c98f21d8,1557616609,2019-05-12 07:16:49,1557616644,2019-05-12 07:17:24,1557616676,18edcca9-871a-48e1-ab87-2e8a593dfcb3__pspm,http://pspm.pingstart.com/api/v4/postback?from=1706&clickid=18edcca9-871a-48e1-ab87-2e8a593dfcb3__pspm,idfa_2e83eb72-6972-45b1-8e34-f175c98f21d8,English
DvWmqkVTQCWT-Iqm_b1s_A,newborntown,p1599_1064_721-10512721,Install,0.29,47.8.168.202,93e75ca9-7aaa-44de-82e4-b0b719149a93,1557616857,2019-05-12 07:20:57,1557616894,2019-05-12 07:21:34,1557616925,f1240848-9f7d-41d2-8907-2d0988e4c24a__pspm,http://pspm.pingstart.com/api/v4/postback?from=1706&clickid=f1240848-9f7d-41d2-8907-2d0988e4c24a__pspm,idfa_93e75ca9-7aaa-44de-82e4-b0b719149a93,English
DvWmqkVTQCWT-Iqm_b1s_A,newborntown,p1599_1064_721-10512721,Install,0.29,106.77.113.161,22b5de9e-8864-4c2d-a8a0-3821c31ab826,1557616665,2019-05-12 07:17:45,1557616703,2019-05-12 07:18:23,1557616735,112ad670-c25d-471f-8cf6-8eca577fabff__pspm,http://pspm.pingstart.com/api/v4/postback?from=1706&clickid=112ad670-c25d-471f-8cf6-8eca577fabff__pspm,idfa_22b5de9e-8864-4c2d-a8a0-3821c31ab826,English
DvWmqkVTQCWT-Iqm_b1s_A,newborntown,p1599_1064_721-10512721,Install,0.29,157.49.232.169,707a05dd-3590-4523-8d28-888129f767d7,1557616652,2019-05-12 07:17:32,1557616683,2019-05-12 07:18:03,1557616715,d49dfdd6-1a46-4a2f-bdd7-0f562c92d11f__pspm,http://pspm.pingstart.com/api/v4/postback?from=1706&clickid=d49dfdd6-1a46-4a2f-bdd7-0f562c92d11f__pspm,idfa_707a05dd-3590-4523-8d28-888129f767d7,English
DvWmqkVTQCWT-Iqm_b1s_A,newborntown,p1599_1064_721-10512721,Install,0.29,106.66.166.231,6aceee68-bfcf-4276-ae73-df07448223a1,1557616638,2019-05-12 07:17:18,1557616674,2019-05-12 07:17:54,1557616705,05684d1e-b93c-47d1-a1b2-677b3766f617__pspm,http://pspm.pingstart.com/api/v4/postback?from=1706&clickid=05684d1e-b93c-47d1-a1b2-677b3766f617__pspm,idfa_6aceee68-bfcf-4276-ae73-df07448223a1,English
DvWmqkVTQCWT-Iqm_b1s_A,newborntown,p1599_1064_721-10512721,Install,0.29,27.59.181.242,60482250-491c-4a34-9b8d-0842a43f5ade,1557605753,2019-05-12 04:15:53,1557605791,2019-05-12 04:16:31,1557605822,e5e3de65-9a30-49f0-857d-304d4b3a10cf__pspm,http://pspm.pingstart.com/api/v4/postback?from=1706&clickid=e5e3de65-9a30-49f0-857d-304d4b3a10cf__pspm,idfa_60482250-491c-4a34-9b8d-0842a43f5ade,English
DvWmqkVTQCWT-Iqm_b1s_A,newborntown,p1599_1064_721-10512721,Install,0.29,223.186.84.168,60eb6364-038f-4e03-8d7c-5fd09132a9b8,1557616608,2019-05-12 07:16:48,1557616646,2019-05-12 07:17:26,1557616678,59f75f10-12b0-4784-b3a0-94473df49249__pspm,http://pspm.pingstart.com/api/v4/postback?from=1706&clickid=59f75f10-12b0-4784-b3a0-94473df49249__pspm,idfa_60eb6364-038f-4e03-8d7c-5fd09132a9b8,English
DvWmqkVTQCWT-Iqm_b1s_A,newborntown,p1599_1064_721-10512721,Install,0.29,106.198.242.43,cc7b10a0-c911-42db-8d4e-42dbd316756e,1557600094,2019-05-12 02:41:34,1557600134,2019-05-12 02:42:14,1557600165,680e84c8-18d5-4483-9026-6ea57331359b__pspm,http://pspm.pingstart.com/api/v4/postback?from=1706&clickid=680e84c8-18d5-4483-9026-6ea57331359b__pspm,idfa_cc7b10a0-c911-42db-8d4e-42dbd316756e,English
DvWmqkVTQCWT-Iqm_b1s_A,newborntown,p1599_1064_721-10512721,Install,0.29,223.228.58.129,f26cb72b-7a65-4396-b3f3-e79527b132f3,1557599090,2019-05-12 02:24:50,1557599125,2019-05-12 02:25:25,1557599156,56bd8195-b53d-4972-b620-9b4b3c4aef94__pspm,http://pspm.pingstart.com/api/v4/postback?from=1706&clickid=56bd8195-b53d-4972-b620-9b4b3c4aef94__pspm,idfa_f26cb72b-7a65-4396-b3f3-e79527b132f3,English
DvWmqkVTQCWT-Iqm_b1s_A,newborntown,p1599_1064_721-10512721,Install,0.29,47.31.85.102,5d92d9cb-0311-491f-8423-e03ffc886d54,1557616678,2019-05-12 07:17:58,1557616714,2019-05-12 07:18:34,1557616746,6083df78-184d-4000-9a3a-c358eb4bc884__pspm,http://pspm.pingstart.com/api/v4/postback?from=1706&clickid=6083df78-184d-4000-9a3a-c358eb4bc884__pspm,idfa_5d92d9cb-0311-491f-8423-e03ffc886d54,English
DvWmqkVTQCWT-Iqm_b1s_A,newborntown,p1599_1064_721-10512721,Install,0.29,157.50.254.13,c985fe34-7346-403e-a00a-cdee9d18661f,1557600414,2019-05-12 02:46:54,1557600441,2019-05-12 02:47:21,1557600474,567c96d1-0a32-4455-a910-03c1828057a5__pspm,http://pspm.pingstart.com/api/v4/postback?from=1706&clickid=567c96d1-0a32-4455-a910-03c1828057a5__pspm,idfa_c985fe34-7346-403e-a00a-cdee9d18661f,English
DvWmqkVTQCWT-Iqm_b1s_A,newborntown,p1599_1064_721-10512721,Install,0.29,106.76.238.136,3e82184b-e676-42c5-a971-41c68c158bf5,1557599857,2019-05-12 02:37:37,1557599892,2019-05-12 02:38:12,1557599923,5df815d2-59af-4cfb-b1b8-5564654049de__pspm,http://pspm.pingstart.com/api/v4/postback?from=1706&clickid=5df815d2-59af-4cfb-b1b8-5564654049de__pspm,idfa_3e82184b-e676-42c5-a971-41c68c158bf5,English
DvWmqkVTQCWT-Iqm_b1s_A,newborntown,p1599_1064_721-10512721,Install,0.29,1.187.253.189,0ce90392-8b97-4b4f-97ff-ad142a8a13f7,1557616752,2019-05-12 07:19:12,1557616891,2019-05-12 07:21:31,1557616922,5345d7bd-80d8-4ad4-8b9b-20f8e86837de__pspm,http://pspm.pingstart.com/api/v4/postback?from=1706&clickid=5345d7bd-80d8-4ad4-8b9b-20f8e86837de__pspm,idfa_0ce90392-8b97-4b4f-97ff-ad142a8a13f7,English
DvWmqkVTQCWT-Iqm_b1s_A,newborntown,p1599_1064_721-10512721,Install,0.29,106.193.153.161,b496f4e0-262e-409b-b1a8-b0ac2c2da9ef,1557601199,2019-05-12 02:59:59,1557601240,2019-05-12 03:00:40,1557601270,048b7e26-977e-4bbc-92bf-8feae2c47d37__pspm,http://pspm.pingstart.com/api/v4/postback?from=1706&clickid=048b7e26-977e-4bbc-92bf-8feae2c47d37__pspm,idfa_b496f4e0-262e-409b-b1a8-b0ac2c2da9ef,English
DvWmqkVTQCWT-Iqm_b1s_A,newborntown,p1599_1064_721-10512721,Install,0.29,42.110.144.46,2c9a13c1-5f4a-43cb-ae4e-11de74b1043f,1557604866,2019-05-12 04:01:06,1557604902,2019-05-12 04:01:42,1557604933,5b2e108a-c815-4937-82ee-67f454d5f4a0__pspm,http://pspm.pingstart.com/api/v4/postback?from=1706&clickid=5b2e108a-c815-4937-82ee-67f454d5f4a0__pspm,idfa_2c9a13c1-5f4a-43cb-ae4e-11de74b1043f,English
DvWmqkVTQCWT-Iqm_b1s_A,newborntown,p1599_1064_721-10512721,Install,0.29,157.48.44.23,de669021-2960-4834-a9db-a8b1f07c5044,1557616734,2019-05-12 07:18:54,1557616772,2019-05-12 07:19:32,1557616803,d4676091-faf2-454d-a2b5-291a3a9b91dc__pspm,http://pspm.pingstart.com/api/v4/postback?from=1706&clickid=d4676091-faf2-454d-a2b5-291a3a9b91dc__pspm,idfa_de669021-2960-4834-a9db-a8b1f07c5044,English
DvWmqkVTQCWT-Iqm_b1s_A,newborntown,p1599_1064_721-10512721,Install,0.29,42.108.239.9,5e16a64a-06b0-4d0c-aef5-ab190a0795f7,1557601792,2019-05-12 03:09:52,1557601837,2019-05-12 03:10:37,1557601868,e7d56a2f-e076-4eaa-b145-3a88d610d4b9__pspm,http://pspm.pingstart.com/api/v4/postback?from=1706&clickid=e7d56a2f-e076-4eaa-b145-3a88d610d4b9__pspm,idfa_5e16a64a-06b0-4d0c-aef5-ab190a0795f7,English
DvWmqkVTQCWT-Iqm_b1s_A,newborntown,p1599_1064_721-10512721,Install,0.29,47.9.196.19,72765377-9181-4836-925c-4cba9a470a37,1557616596,2019-05-12 07:16:36,1557616632,2019-05-12 07:17:12,1557616663,8ad169ba-753a-4660-9d15-3027e1850cce__pspm,http://pspm.pingstart.com/api/v4/postback?from=1706&clickid=8ad169ba-753a-4660-9d15-3027e1850cce__pspm,idfa_72765377-9181-4836-925c-4cba9a470a37,English
DvWmqkVTQCWT-Iqm_b1s_A,newborntown,p1599_1064_721-10512721,Install,0.29,49.35.28.187,79979433-b3f0-441f-aa6d-fc94154658b4,1557599071,2019-05-12 02:24:31,1557599107,2019-05-12 02:25:07,1557599138,730081b4-335a-4227-9643-b3a263d996a1__pspm,http://pspm.pingstart.com/api/v4/postback?from=1706&clickid=730081b4-335a-4227-9643-b3a263d996a1__pspm,idfa_79979433-b3f0-441f-aa6d-fc94154658b4,English
DvWmqkVTQCWT-Iqm_b1s_A,newborntown,p1599_1064_721-10512721,Install,0.29,1.38.15.1,cc118d96-e829-4407-aee2-62293ee555b6,1557616811,2019-05-12 07:20:11,1557616859,2019-05-12 07:20:59,1557616890,eca098c6-af54-42aa-bc72-2a339bc6f0d6__pspm,http://pspm.pingstart.com/api/v4/postback?from=1706&clickid=eca098c6-af54-42aa-bc72-2a339bc6f0d6__pspm,idfa_cc118d96-e829-4407-aee2-62293ee555b6,English
DvWmqkVTQCWT-Iqm_b1s_A,newborntown,p1599_1064_721-10512721,Install,0.29,27.61.109.47,154e105b-1744-4b1e-8bd1-a1156e57b2db,1557616627,2019-05-12 07:17:07,1557616664,2019-05-12 07:17:44,1557616696,91982c58-7273-47b0-bf6a-f471eebfffc5__pspm,http://pspm.pingstart.com/api/v4/postback?from=1706&clickid=91982c58-7273-47b0-bf6a-f471eebfffc5__pspm,idfa_154e105b-1744-4b1e-8bd1-a1156e57b2db,English
DvWmqkVTQCWT-Iqm_b1s_A,newborntown,p1599_1064_721-10512721,Install,0.29,27.62.203.63,84bab4d2-5142-43ec-b64c-5f631e38ee41,1557600961,2019-05-12 02:56:01,1557601054,2019-05-12 02:57:34,1557601084,d8c8fe4e-6bb2-4c23-9777-444d1d984228__pspm,http://pspm.pingstart.com/api/v4/postback?from=1706&clickid=d8c8fe4e-6bb2-4c23-9777-444d1d984228__pspm,idfa_84bab4d2-5142-43ec-b64c-5f631e38ee41,English
DvWmqkVTQCWT-Iqm_b1s_A,newborntown,p1599_1064_721-10512721,Install,0.29,42.106.198.40,7d18ad60-d691-4608-840f-1d293cd6d4f4,1557616681,2019-05-12 07:18:01,1557616718,2019-05-12 07:18:38,1557616749,eecedf6e-9e77-4b0b-b15c-6d9c3ae865a8__pspm,http://pspm.pingstart.com/api/v4/postback?from=1706&clickid=eecedf6e-9e77-4b0b-b15c-6d9c3ae865a8__pspm,idfa_7d18ad60-d691-4608-840f-1d293cd6d4f4,English
DvWmqkVTQCWT-Iqm_b1s_A,newborntown,p1599_1064_721-10512721,Install,0.29,42.109.155.107,cbb0ae9a-4b61-45d7-9d32-41bd779a9b2d,1557604385,2019-05-12 03:53:05,1557604416,2019-05-12 03:53:36,1557604447,e0469c54-453c-446c-b3f8-e2f906d55e0f__pspm,http://pspm.pingstart.com/api/v4/postback?from=1706&clickid=e0469c54-453c-446c-b3f8-e2f906d55e0f__pspm,idfa_cbb0ae9a-4b61-45d7-9d32-41bd779a9b2d,English
DvWmqkVTQCWT-Iqm_b1s_A,newborntown,p1599_1064_721-10512721,Install,0.29,49.32.227.58,ef9898cc-3c48-49b2-a7fc-e00259a209cb,1557616830,2019-05-12 07:20:30,1557616872,2019-05-12 07:21:12,1557616903,bfb60f7e-3fde-4b1c-af32-db8fb40e0cad__pspm,http://pspm.pingstart.com/api/v4/postback?from=1706&clickid=bfb60f7e-3fde-4b1c-af32-db8fb40e0cad__pspm,idfa_ef9898cc-3c48-49b2-a7fc-e00259a209cb,English
DvWmqkVTQCWT-Iqm_b1s_A,newborntown,p1599_1064_721-10512721,Install,0.29,223.225.64.143,a49d28e7-c42a-409e-8a9a-9b2de0cc39fd,1557599194,2019-05-12 02:26:34,1557599237,2019-05-12 02:27:17,1557599268,7bc0e561-79dc-44f1-89ce-fd44ccf0c863__pspm,http://pspm.pingstart.com/api/v4/postback?from=1706&clickid=7bc0e561-79dc-44f1-89ce-fd44ccf0c863__pspm,idfa_a49d28e7-c42a-409e-8a9a-9b2de0cc39fd,English
DvWmqkVTQCWT-Iqm_b1s_A,newborntown,p1599_1064_721-10512721,Install,0.29,42.108.196.222,7818da98-f255-40a1-9070-f6584ed77c63,1557601990,2019-05-12 03:13:10,1557602033,2019-05-12 03:13:53,1557602063,a61ef596-d471-42a3-a47d-b1303a046253__pspm,http://pspm.pingstart.com/api/v4/postback?from=1706&clickid=a61ef596-d471-42a3-a47d-b1303a046253__pspm,idfa_7818da98-f255-40a1-9070-f6584ed77c63,English
DvWmqkVTQCWT-Iqm_b1s_A,newborntown,p1599_1064_721-10512721,Install,0.29,157.49.235.160,7127a752-4f6c-4857-867e-7e1985ea726b,1557616775,2019-05-12 07:19:35,1557616811,2019-05-12 07:20:11,1557616842,9c0c73c6-2f63-4d9c-b873-caaabc566726__pspm,http://pspm.pingstart.com/api/v4/postback?from=1706&clickid=9c0c73c6-2f63-4d9c-b873-caaabc566726__pspm,idfa_7127a752-4f6c-4857-867e-7e1985ea726b,English
DvWmqkVTQCWT-Iqm_b1s_A,newborntown,p1599_1064_721-10512721,Install,0.29,106.219.1.82,0af20647-9351-4b08-b393-15417c9f3129,1557616623,2019-05-12 07:17:03,1557616657,2019-05-12 07:17:37,1557616688,8b84c1db-7e19-4caa-a427-a39723a49727__pspm,http://pspm.pingstart.com/api/v4/postback?from=1706&clickid=8b84c1db-7e19-4caa-a427-a39723a49727__pspm,idfa_0af20647-9351-4b08-b393-15417c9f3129,English
DvWmqkVTQCWT-Iqm_b1s_A,newborntown,p1599_1064_721-10512721,Install,0.29,42.108.252.235,531433ce-e36e-4a8b-92a3-8e6c3e31fb5b,1557605948,2019-05-12 04:19:08,1557605983,2019-05-12 04:19:43,1557606014,f047be5c-b844-487d-9137-2c75335e4ac6__pspm,http://pspm.pingstart.com/api/v4/postback?from=1706&clickid=f047be5c-b844-487d-9137-2c75335e4ac6__pspm,idfa_531433ce-e36e-4a8b-92a3-8e6c3e31fb5b,English
DvWmqkVTQCWT-Iqm_b1s_A,newborntown,p1599_1064_721-10512721,Install,0.29,106.77.64.133,a114a81e-4bc8-4882-bb82-fced9438aa19,1557616652,2019-05-12 07:17:32,1557616695,2019-05-12 07:18:15,1557616726,6d4ab50a-0426-44f0-a55d-f11064f288d5__pspm,http://pspm.pingstart.com/api/v4/postback?from=1706&clickid=6d4ab50a-0426-44f0-a55d-f11064f288d5__pspm,idfa_a114a81e-4bc8-4882-bb82-fced9438aa19,English
DvWmqkVTQCWT-Iqm_b1s_A,newborntown,p1599_1064_721-10512721,Install,0.29,106.77.91.80,abd29850-d8d6-45ec-8b49-c6d8367eae51,1557616783,2019-05-12 07:19:43,1557616837,2019-05-12 07:20:37,1557616868,58eef3b4-3466-4cf6-a9cc-19f7861227f5__pspm,http://pspm.pingstart.com/api/v4/postback?from=1706&clickid=58eef3b4-3466-4cf6-a9cc-19f7861227f5__pspm,idfa_abd29850-d8d6-45ec-8b49-c6d8367eae51,English
DvWmqkVTQCWT-Iqm_b1s_A,newborntown,p1599_1064_721-10512721,Install,0.29,1.186.127.185,b537483c-89de-4e8f-a6b9-fbabfb445a8f,1557616709,2019-05-12 07:18:29,1557616751,2019-05-12 07:19:11,1557616783,2501de8e-b325-4425-ab7d-a19eb3a0b7f0__pspm,http://pspm.pingstart.com/api/v4/postback?from=1706&clickid=2501de8e-b325-4425-ab7d-a19eb3a0b7f0__pspm,idfa_b537483c-89de-4e8f-a6b9-fbabfb445a8f,English
DvWmqkVTQCWT-Iqm_b1s_A,newborntown,p1599_1064_721-10512721,Install,0.29,106.76.154.221,e7bfb3aa-f6bd-4cc5-b7c5-c10f35a3d63a,1557616842,2019-05-12 07:20:42,1557616883,2019-05-12 07:21:23,1557616914,92480554-03b3-4875-8ab9-9f92e579283a__pspm,http://pspm.pingstart.com/api/v4/postback?from=1706&clickid=92480554-03b3-4875-8ab9-9f92e579283a__pspm,idfa_e7bfb3aa-f6bd-4cc5-b7c5-c10f35a3d63a,English
DvWmqkVTQCWT-Iqm_b1s_A,newborntown,p1599_1064_721-10512721,Install,0.29,223.230.153.156,1bd1033e-35cd-4a6d-9451-24a1105a43ca,1557616607,2019-05-12 07:16:47,1557616662,2019-05-12 07:17:42,1557616693,22f3ad86-6317-4695-85dd-bb097d36c3e3__pspm,http://pspm.pingstart.com/api/v4/postback?from=1706&clickid=22f3ad86-6317-4695-85dd-bb097d36c3e3__pspm,idfa_1bd1033e-35cd-4a6d-9451-24a1105a43ca,English
DvWmqkVTQCWT-Iqm_b1s_A,newborntown,p1599_1064_721-10512721,Install,0.29,47.9.245.200,159f4cae-5fbf-4896-8d58-49aa0edc2c99,1557616780,2019-05-12 07:19:40,1557616813,2019-05-12 07:20:13,1557616844,1ca8ee16-2d37-4045-9841-b0ad7a897e69__pspm,http://pspm.pingstart.com/api/v4/postback?from=1706&clickid=1ca8ee16-2d37-4045-9841-b0ad7a897e69__pspm,idfa_159f4cae-5fbf-4896-8d58-49aa0edc2c99,English
DvWmqkVTQCWT-Iqm_b1s_A,newborntown,p1599_1064_721-10512721,Install,0.29,42.106.44.224,0cb00341-59c2-4a03-a603-2c639c1281ac,1557616817,2019-05-12 07:20:17,1557616849,2019-05-12 07:20:49,1557616880,2b996482-0779-4edb-b8db-f916a802803e__pspm,http://pspm.pingstart.com/api/v4/postback?from=1706&clickid=2b996482-0779-4edb-b8db-f916a802803e__pspm,idfa_0cb00341-59c2-4a03-a603-2c639c1281ac,English
DvWmqkVTQCWT-Iqm_b1s_A,newborntown,p1599_1064_721-10512721,Install,0.29,42.108.250.17,c3f8c7ec-51a0-4dd3-ad94-51d6c8cb986e,1557616748,2019-05-12 07:19:08,1557616785,2019-05-12 07:19:45,1557616816,fdf30916-ee8f-43b7-9c61-55d11b3b05ef__pspm,http://pspm.pingstart.com/api/v4/postback?from=1706&clickid=fdf30916-ee8f-43b7-9c61-55d11b3b05ef__pspm,idfa_c3f8c7ec-51a0-4dd3-ad94-51d6c8cb986e,English
DvWmqkVTQCWT-Iqm_b1s_A,newborntown,p1599_1064_721-10512721,Install,0.29,27.56.247.156,9d61bd25-8e31-400a-ba44-6f13fdc7c0e1,1557616824,2019-05-12 07:20:24,1557616867,2019-05-12 07:21:07,1557616898,a1b2dc35-6ff8-4234-9f39-fb0e5cdd0fc6__pspm,http://pspm.pingstart.com/api/v4/postback?from=1706&clickid=a1b2dc35-6ff8-4234-9f39-fb0e5cdd0fc6__pspm,idfa_9d61bd25-8e31-400a-ba44-6f13fdc7c0e1,English
