cid,partner_id,channel_id,action_id,cpi,ip,idfa,click time,click datetime,install time,install datetime,postback time,click id,postback url,unique user id
lDux04yPQvmzCdIlD6UbNQ,newborntown,p1848_110924_174,Install,1.5,119.200.229.33,e4acb667-8046-4dd4-8352-b06b89a2ae01,1559030271,2019-05-28 15:57:51,1559030340,2019-05-28 15:59:00,1559030347,621778cf-45bf-439b-8ee4-f69a457482be__pspm,http://pspm.pingstart.com/api/v4/postback?from=1706&clickid=621778cf-45bf-439b-8ee4-f69a457482be__pspm,idfa_e4acb667-8046-4dd4-8352-b06b89a2ae01,ko
lDux04yPQvmzCdIlD6UbNQ,newborntown,p1848_110924_174,Install,1.5,183.109.88.54,b8b9e59f-9636-4c54-b66b-9058994ab610,1559033358,2019-05-28 16:49:18,1559033419,2019-05-28 16:50:19,1559033427,6c8f2384-2a52-4aaf-a740-1a0b8424f3fb__pspm,http://pspm.pingstart.com/api/v4/postback?from=1706&clickid=6c8f2384-2a52-4aaf-a740-1a0b8424f3fb__pspm,idfa_b8b9e59f-9636-4c54-b66b-9058994ab610,ko
lDux04yPQvmzCdIlD6UbNQ,newborntown,p1848_110924_174,Install,1.6,120.29.142.240,86304b3e-6cee-41be-bbaf-4bcd742c59f1,1558698525,2019-05-24 19:48:45,1558698908,2019-05-24 19:55:08,1558698915,7bb38ecb-298e-457c-87a5-a98a41058e62__pspm,http://pspm.pingstart.com/api/v4/postback?from=1706&clickid=7bb38ecb-298e-457c-87a5-a98a41058e62__pspm,idfa_86304b3e-6cee-41be-bbaf-4bcd742c59f1,ko
lDux04yPQvmzCdIlD6UbNQ,newborntown,p1848_110924_174,Install,1.6,220.69.180.249,c07a5b05-584f-491e-aff5-f6d76291ed21,1558700310,2019-05-24 20:18:30,1558700367,2019-05-24 20:19:27,1558700374,a15d8b8e-0ea7-4467-ba22-97f923502431__pspm,http://pspm.pingstart.com/api/v4/postback?from=1706&clickid=a15d8b8e-0ea7-4467-ba22-97f923502431__pspm,idfa_c07a5b05-584f-491e-aff5-f6d76291ed21,ko
lDux04yPQvmzCdIlD6UbNQ,newborntown,p1848_110924_174,Install,1.5,118.33.122.60,6f43f9bd-1260-4e30-81de-253aca1e6c72,1559031667,2019-05-28 16:21:07,1559031726,2019-05-28 16:22:06,1559031734,ccd941c2-61fc-41d6-a8dc-5a251679d244__pspm,http://pspm.pingstart.com/api/v4/postback?from=1706&clickid=ccd941c2-61fc-41d6-a8dc-5a251679d244__pspm,idfa_6f43f9bd-1260-4e30-81de-253aca1e6c72,ko
lDux04yPQvmzCdIlD6UbNQ,newborntown,p1848_110924_174,Install,1.6,112.164.148.59,804f9c2f-7648-47b9-bb12-cf9170fd0810,1558698862,2019-05-24 19:54:22,1558698921,2019-05-24 19:55:21,1558698931,5f109535-d3b8-45df-9611-43de2684302d__pspm,http://pspm.pingstart.com/api/v4/postback?from=1706&clickid=5f109535-d3b8-45df-9611-43de2684302d__pspm,idfa_804f9c2f-7648-47b9-bb12-cf9170fd0810,ko
lDux04yPQvmzCdIlD6UbNQ,newborntown,p1848_110924_174,Install,1.6,152.149.69.126,a9aad73d-6ca5-45b9-95ee-963b78f4c22a,1558701088,2019-05-24 20:31:28,1558701155,2019-05-24 20:32:35,1558701162,fb7027a5-6d29-4a25-89b4-ed08e6290ea8__pspm,http://pspm.pingstart.com/api/v4/postback?from=1706&clickid=fb7027a5-6d29-4a25-89b4-ed08e6290ea8__pspm,idfa_a9aad73d-6ca5-45b9-95ee-963b78f4c22a,ko
lDux04yPQvmzCdIlD6UbNQ,newborntown,p1848_110924_174,Install,1.5,218.158.238.131,3ccfd0dd-6c97-4df9-a407-392776db1ed7,1559033545,2019-05-28 16:52:25,1559033606,2019-05-28 16:53:26,1559033614,7fd06121-f103-4938-a095-db42073e7603__pspm,http://pspm.pingstart.com/api/v4/postback?from=1706&clickid=7fd06121-f103-4938-a095-db42073e7603__pspm,idfa_3ccfd0dd-6c97-4df9-a407-392776db1ed7,ko
lDux04yPQvmzCdIlD6UbNQ,newborntown,p1848_110924_174,Install,1.6,60.253.12.90,aaf7a374-5dc2-488f-aa91-189f1763a6b8,1558699290,2019-05-24 20:01:30,1558699351,2019-05-24 20:02:31,1558699357,3f750ce6-d235-49de-a8b7-d5edc643e5c6__pspm,http://pspm.pingstart.com/api/v4/postback?from=1706&clickid=3f750ce6-d235-49de-a8b7-d5edc643e5c6__pspm,idfa_aaf7a374-5dc2-488f-aa91-189f1763a6b8,ko
lDux04yPQvmzCdIlD6UbNQ,newborntown,p1848_110924_174,Install,1.5,211.171.103.130,860a6e17-6a71-4c69-9695-5fc908dccf25,1559030327,2019-05-28 15:58:47,1559030462,2019-05-28 16:01:02,1559030470,64cb8859-2638-4b1d-868e-4f853b6c59b0__pspm,http://pspm.pingstart.com/api/v4/postback?from=1706&clickid=64cb8859-2638-4b1d-868e-4f853b6c59b0__pspm,idfa_860a6e17-6a71-4c69-9695-5fc908dccf25,ko
lDux04yPQvmzCdIlD6UbNQ,newborntown,p1848_110924_174,Install,1.5,211.180.176.22,7e0cdd57-3abb-41f4-bebf-926e7b23b9c7,1559031620,2019-05-28 16:20:20,1559031686,2019-05-28 16:21:26,1559031695,dba05a87-7317-4e21-9262-8c66e846eb3f__pspm,http://pspm.pingstart.com/api/v4/postback?from=1706&clickid=dba05a87-7317-4e21-9262-8c66e846eb3f__pspm,idfa_7e0cdd57-3abb-41f4-bebf-926e7b23b9c7,ko
lDux04yPQvmzCdIlD6UbNQ,newborntown,p1848_110924_174,Install,1.6,220.89.135.7,b81ca9da-5d31-471d-a960-da3332026a91,1558698492,2019-05-24 19:48:12,1558698560,2019-05-24 19:49:20,1558698567,4f19bb21-a5c2-47ae-96fb-5f0e7799779a__pspm,http://pspm.pingstart.com/api/v4/postback?from=1706&clickid=4f19bb21-a5c2-47ae-96fb-5f0e7799779a__pspm,idfa_b81ca9da-5d31-471d-a960-da3332026a91,ko
lDux04yPQvmzCdIlD6UbNQ,newborntown,p1848_110924_174,Install,1.5,117.4.33.230,a5393039-98f6-4ac9-a295-1561a44c0847,1559032024,2019-05-28 16:27:04,1559032076,2019-05-28 16:27:56,1559032086,5bea59d9-fcbd-4323-96b0-e5bc8a631f64__pspm,http://pspm.pingstart.com/api/v4/postback?from=1706&clickid=5bea59d9-fcbd-4323-96b0-e5bc8a631f64__pspm,idfa_a5393039-98f6-4ac9-a295-1561a44c0847,ko
lDux04yPQvmzCdIlD6UbNQ,newborntown,p1848_110924_174,Install,1.6,117.4.33.230,e08df302-2a61-4e66-8e31-42d274ae3e23,1558698044,2019-05-24 19:40:44,1558698101,2019-05-24 19:41:41,1558698109,0e25ef40-8ad8-4cd8-8ac8-ae0dad10579b__pspm,http://pspm.pingstart.com/api/v4/postback?from=1706&clickid=0e25ef40-8ad8-4cd8-8ac8-ae0dad10579b__pspm,idfa_e08df302-2a61-4e66-8e31-42d274ae3e23,ko
lDux04yPQvmzCdIlD6UbNQ,newborntown,p1848_110924_174,Install,1.5,175.118.69.8,0e1d7996-fdd1-4f81-8a73-376fb6b40c81,1559031182,2019-05-28 16:13:02,1559031240,2019-05-28 16:14:00,1559031247,441f7add-2fb9-4456-9a20-bdbf37ec8a45__pspm,http://pspm.pingstart.com/api/v4/postback?from=1706&clickid=441f7add-2fb9-4456-9a20-bdbf37ec8a45__pspm,idfa_0e1d7996-fdd1-4f81-8a73-376fb6b40c81,ko
lDux04yPQvmzCdIlD6UbNQ,newborntown,p1848_110924_174,Install,1.6,211.180.176.37,5a15a74a-0001-471a-8a15-c9282936b230,1558700123,2019-05-24 20:15:23,1558700191,2019-05-24 20:16:31,1558700202,896e267c-9820-4c35-b3bd-8a3b1223b3da__pspm,http://pspm.pingstart.com/api/v4/postback?from=1706&clickid=896e267c-9820-4c35-b3bd-8a3b1223b3da__pspm,idfa_5a15a74a-0001-471a-8a15-c9282936b230,ko
lDux04yPQvmzCdIlD6UbNQ,newborntown,p1848_110924_174,Install,1.6,218.38.136.99,c9464e1b-8927-4d7a-ae18-53cecde508d5,1558700627,2019-05-24 20:23:47,1558700694,2019-05-24 20:24:54,1558700703,ebf181e6-9f7c-43ea-a78b-8aa2fe346881__pspm,http://pspm.pingstart.com/api/v4/postback?from=1706&clickid=ebf181e6-9f7c-43ea-a78b-8aa2fe346881__pspm,idfa_c9464e1b-8927-4d7a-ae18-53cecde508d5,ko
lDux04yPQvmzCdIlD6UbNQ,newborntown,p1848_110924_174,Install,1.6,175.226.157.65,0fa7979c-43b0-4cc3-b4c9-448179a93fdf,1558699296,2019-05-24 20:01:36,1558699358,2019-05-24 20:02:38,1558699366,e95ae484-25cc-4455-a900-f209ee7b7cba__pspm,http://pspm.pingstart.com/api/v4/postback?from=1706&clickid=e95ae484-25cc-4455-a900-f209ee7b7cba__pspm,idfa_0fa7979c-43b0-4cc3-b4c9-448179a93fdf,ko
lDux04yPQvmzCdIlD6UbNQ,newborntown,p1848_110924_174,Install,1.6,210.102.195.249,385ce2e2-15fc-46cd-b860-c1de87513bb1,1558699673,2019-05-24 20:07:53,1558699739,2019-05-24 20:08:59,1558699747,0674e931-5a73-4e2c-b2a7-e37f004b583f__pspm,http://pspm.pingstart.com/api/v4/postback?from=1706&clickid=0674e931-5a73-4e2c-b2a7-e37f004b583f__pspm,idfa_385ce2e2-15fc-46cd-b860-c1de87513bb1,ko
lDux04yPQvmzCdIlD6UbNQ,newborntown,p1848_110924_174,Install,1.6,121.66.93.195,203c7708-5931-40ed-8ede-7b11ffdb7106,1558698054,2019-05-24 19:40:54,1558698166,2019-05-24 19:42:46,1558698173,2f68bab7-66b3-45c8-a063-70cc35900c2a__pspm,http://pspm.pingstart.com/api/v4/postback?from=1706&clickid=2f68bab7-66b3-45c8-a063-70cc35900c2a__pspm,idfa_203c7708-5931-40ed-8ede-7b11ffdb7106,ko
lDux04yPQvmzCdIlD6UbNQ,newborntown,p1848_110924_174,Install,1.6,117.4.33.230,cc03ce5d-d9f5-4351-880a-63ec3fcab0a6,1558698846,2019-05-24 19:54:06,1558698895,2019-05-24 19:54:55,1558698904,7516281a-844c-453c-9796-234a80b76801__pspm,http://pspm.pingstart.com/api/v4/postback?from=1706&clickid=7516281a-844c-453c-9796-234a80b76801__pspm,idfa_cc03ce5d-d9f5-4351-880a-63ec3fcab0a6,ko
lDux04yPQvmzCdIlD6UbNQ,newborntown,p1848_110924_174,Install,1.5,121.186.96.167,907aa337-8f0c-4821-87f5-8a13cddd58de,1559033420,2019-05-28 16:50:20,1559033480,2019-05-28 16:51:20,1559033488,bb87641a-5f98-474b-9baa-4c56f9f93660__pspm,http://pspm.pingstart.com/api/v4/postback?from=1706&clickid=bb87641a-5f98-474b-9baa-4c56f9f93660__pspm,idfa_907aa337-8f0c-4821-87f5-8a13cddd58de,ko
lDux04yPQvmzCdIlD6UbNQ,newborntown,p1848_110924_174,Install,1.5,211.54.74.50,108b40bd-e575-4d20-84a6-18140ab8b155,1559032836,2019-05-28 16:40:36,1559033015,2019-05-28 16:43:35,1559033023,0708c922-0431-4066-a991-0ae8544b5c28__pspm,http://pspm.pingstart.com/api/v4/postback?from=1706&clickid=0708c922-0431-4066-a991-0ae8544b5c28__pspm,idfa_108b40bd-e575-4d20-84a6-18140ab8b155,ko
lDux04yPQvmzCdIlD6UbNQ,newborntown,p1848_110924_174,Install,1.5,221.165.126.138,8b6758da-038d-4a62-a964-12a44648594a,1559032490,2019-05-28 16:34:50,1559032552,2019-05-28 16:35:52,1559032558,97381402-91b5-4dc2-82fb-fe95dca32516__pspm,http://pspm.pingstart.com/api/v4/postback?from=1706&clickid=97381402-91b5-4dc2-82fb-fe95dca32516__pspm,idfa_8b6758da-038d-4a62-a964-12a44648594a,ko
lDux04yPQvmzCdIlD6UbNQ,newborntown,p1848_110924_174,Install,1.5,211.169.180.254,ae15ef76-aee7-4040-bc5c-e8c70826666b,1559030732,2019-05-28 16:05:32,1559030798,2019-05-28 16:06:38,1559030806,55052bfb-e4dc-4129-ab44-41485d81343f__pspm,http://pspm.pingstart.com/api/v4/postback?from=1706&clickid=55052bfb-e4dc-4129-ab44-41485d81343f__pspm,idfa_ae15ef76-aee7-4040-bc5c-e8c70826666b,ko
lDux04yPQvmzCdIlD6UbNQ,newborntown,p1848_110924_174,Install,1.6,117.4.33.230,ccef3e03-f64c-4419-b200-40d75fa30258,1558699913,2019-05-24 20:11:53,1558699971,2019-05-24 20:12:51,1558699980,791ff9f4-8c1c-4d15-9994-6ddf37092eb2__pspm,http://pspm.pingstart.com/api/v4/postback?from=1706&clickid=791ff9f4-8c1c-4d15-9994-6ddf37092eb2__pspm,idfa_ccef3e03-f64c-4419-b200-40d75fa30258,ko
lDux04yPQvmzCdIlD6UbNQ,newborntown,p1848_110924_174,Install,1.6,175.230.39.122,1dc19c16-4859-405e-ada7-ab9fa31ebbd9,1558699493,2019-05-24 20:04:53,1558699627,2019-05-24 20:07:07,1558699636,54debc66-5eda-4426-9900-a4a4952d5f67__pspm,http://pspm.pingstart.com/api/v4/postback?from=1706&clickid=54debc66-5eda-4426-9900-a4a4952d5f67__pspm,idfa_1dc19c16-4859-405e-ada7-ab9fa31ebbd9,ko
lDux04yPQvmzCdIlD6UbNQ,newborntown,p1848_110924_174,Install,1.5,210.216.14.29,fe2e645f-f2c6-4869-becc-dfc8196765bc,1559031209,2019-05-28 16:13:29,1559031271,2019-05-28 16:14:31,1559031278,01bf8e19-5c6c-4b5e-8036-493653fda0f2__pspm,http://pspm.pingstart.com/api/v4/postback?from=1706&clickid=01bf8e19-5c6c-4b5e-8036-493653fda0f2__pspm,idfa_fe2e645f-f2c6-4869-becc-dfc8196765bc,ko
lDux04yPQvmzCdIlD6UbNQ,newborntown,p1848_110924_174,Install,1.6,121.153.74.28,11adcc0f-a7dd-479b-8709-00c556c6eeff,1558700979,2019-05-24 20:29:39,1558701042,2019-05-24 20:30:42,1558701048,009e9f4f-c3e8-4db4-90f7-fe47f6f373c6__pspm,http://pspm.pingstart.com/api/v4/postback?from=1706&clickid=009e9f4f-c3e8-4db4-90f7-fe47f6f373c6__pspm,idfa_11adcc0f-a7dd-479b-8709-00c556c6eeff,ko
lDux04yPQvmzCdIlD6UbNQ,newborntown,p1848_110924_174,Install,1.6,222.110.155.108,0e384491-da87-47f1-b34d-e9e8dacf5165,1558700653,2019-05-24 20:24:13,1558700715,2019-05-24 20:25:15,1558700724,0b9a162c-2600-4cd1-a3cb-9a433a0f7f0a__pspm,http://pspm.pingstart.com/api/v4/postback?from=1706&clickid=0b9a162c-2600-4cd1-a3cb-9a433a0f7f0a__pspm,idfa_0e384491-da87-47f1-b34d-e9e8dacf5165,ko
lDux04yPQvmzCdIlD6UbNQ,newborntown,p1848_110924_174,Install,1.5,118.218.82.70,758cc24b-3fe5-4472-ad80-7538559005be,1559032467,2019-05-28 16:34:27,1559032539,2019-05-28 16:35:39,1559032547,ce3ec46f-a09e-4daf-ab1f-6283448e035f__pspm,http://pspm.pingstart.com/api/v4/postback?from=1706&clickid=ce3ec46f-a09e-4daf-ab1f-6283448e035f__pspm,idfa_758cc24b-3fe5-4472-ad80-7538559005be,ko
lDux04yPQvmzCdIlD6UbNQ,newborntown,p1848_110924_174,Install,1.5,211.48.9.120,c70624b2-786b-4ab3-a88a-4b574355b614,1559032003,2019-05-28 16:26:43,1559032080,2019-05-28 16:28:00,1559032088,6d43dcc9-e8c7-4cc6-829a-1592dfb339a0__pspm,http://pspm.pingstart.com/api/v4/postback?from=1706&clickid=6d43dcc9-e8c7-4cc6-829a-1592dfb339a0__pspm,idfa_c70624b2-786b-4ab3-a88a-4b574355b614,ko
lDux04yPQvmzCdIlD6UbNQ,newborntown,p1848_110924_174,Install,1.5,183.109.79.6,193a0af8-c92d-4cc3-90e5-184adc71c409,1559030224,2019-05-28 15:57:04,1559030293,2019-05-28 15:58:13,1559030303,d0ee054d-6240-430f-b206-ea38ee7211ab__pspm,http://pspm.pingstart.com/api/v4/postback?from=1706&clickid=d0ee054d-6240-430f-b206-ea38ee7211ab__pspm,idfa_193a0af8-c92d-4cc3-90e5-184adc71c409,ko
lDux04yPQvmzCdIlD6UbNQ,newborntown,p1848_110924_174,Install,1.5,152.149.69.126,9df9dd8b-b8f5-4ac5-a050-1b1aa6a275d4,1559032021,2019-05-28 16:27:01,1559032083,2019-05-28 16:28:03,1559032091,45c47eac-e587-451a-9f60-c9cd67161251__pspm,http://pspm.pingstart.com/api/v4/postback?from=1706&clickid=45c47eac-e587-451a-9f60-c9cd67161251__pspm,idfa_9df9dd8b-b8f5-4ac5-a050-1b1aa6a275d4,ko
lDux04yPQvmzCdIlD6UbNQ,newborntown,p1848_110924_174,Install,1.6,14.85.41.26,80635fbd-4464-4c05-bc7d-ae98fbae596e,1558698542,2019-05-24 19:49:02,1558698898,2019-05-24 19:54:58,1558698906,05b4f7f9-a052-4661-a70e-a95a74429c49__pspm,http://pspm.pingstart.com/api/v4/postback?from=1706&clickid=05b4f7f9-a052-4661-a70e-a95a74429c49__pspm,idfa_80635fbd-4464-4c05-bc7d-ae98fbae596e,ko
lDux04yPQvmzCdIlD6UbNQ,newborntown,p1848_110924_174,Install,1.5,112.171.248.197,5f65734d-b6cc-4ba1-ab99-ecb0ce5c94b8,1559033026,2019-05-28 16:43:46,1559033144,2019-05-28 16:45:44,1559033153,b3371cd4-ff53-4c4f-8f45-b933d4bde8c5__pspm,http://pspm.pingstart.com/api/v4/postback?from=1706&clickid=b3371cd4-ff53-4c4f-8f45-b933d4bde8c5__pspm,idfa_5f65734d-b6cc-4ba1-ab99-ecb0ce5c94b8,ko
lDux04yPQvmzCdIlD6UbNQ,newborntown,p1848_110924_174,Install,1.6,59.15.185.17,90c57041-2c0c-4932-a226-977c9151af16,1558701101,2019-05-24 20:31:41,1558701170,2019-05-24 20:32:50,1558701182,b0f03dc0-8ab3-42e3-aa94-b627f6c68ccb__pspm,http://pspm.pingstart.com/api/v4/postback?from=1706&clickid=b0f03dc0-8ab3-42e3-aa94-b627f6c68ccb__pspm,idfa_90c57041-2c0c-4932-a226-977c9151af16,ko
lDux04yPQvmzCdIlD6UbNQ,newborntown,p1848_110924_174,Install,1.6,119.56.251.123,76c929dc-e724-40e3-adbc-9695486ecbc4,1558699443,2019-05-24 20:04:03,1558699536,2019-05-24 20:05:36,1558699542,80a6acfc-859f-403c-bdcd-c940455af3d9__pspm,http://pspm.pingstart.com/api/v4/postback?from=1706&clickid=80a6acfc-859f-403c-bdcd-c940455af3d9__pspm,idfa_76c929dc-e724-40e3-adbc-9695486ecbc4,ko
lDux04yPQvmzCdIlD6UbNQ,newborntown,p1848_110924_174,Install,1.5,14.85.41.26,454b64ad-5602-4fa4-8c53-9ddecc8c8659,1559032180,2019-05-28 16:29:40,1559032239,2019-05-28 16:30:39,1559032253,aa76ec60-dff6-4047-82e8-587a2efc7ef4__pspm,http://pspm.pingstart.com/api/v4/postback?from=1706&clickid=aa76ec60-dff6-4047-82e8-587a2efc7ef4__pspm,idfa_454b64ad-5602-4fa4-8c53-9ddecc8c8659,ko
lDux04yPQvmzCdIlD6UbNQ,newborntown,p1848_110924_174,Install,1.6,61.39.117.33,dc20f535-d2ee-4b45-8c64-1184b381df71,1558698068,2019-05-24 19:41:08,1558698139,2019-05-24 19:42:19,1558698148,c3a887db-f975-484a-95b1-a7f38ba6a167__pspm,http://pspm.pingstart.com/api/v4/postback?from=1706&clickid=c3a887db-f975-484a-95b1-a7f38ba6a167__pspm,idfa_dc20f535-d2ee-4b45-8c64-1184b381df71,ko
lDux04yPQvmzCdIlD6UbNQ,newborntown,p1848_110924_174,Install,1.5,110.13.153.31,7ba71464-ced1-4824-9231-472b398e31ba,1559033470,2019-05-28 16:51:10,1559033538,2019-05-28 16:52:18,1559033545,dd94f897-073e-40dc-a917-476f11854a9d__pspm,http://pspm.pingstart.com/api/v4/postback?from=1706&clickid=dd94f897-073e-40dc-a917-476f11854a9d__pspm,idfa_7ba71464-ced1-4824-9231-472b398e31ba,ko
lDux04yPQvmzCdIlD6UbNQ,newborntown,p1848_110924_174,Install,1.5,183.103.205.76,35b32a75-626c-4f3e-811e-f638a263e33b,1559032105,2019-05-28 16:28:25,1559032164,2019-05-28 16:29:24,1559032173,279ec499-c890-45df-b640-65c31609ee66__pspm,http://pspm.pingstart.com/api/v4/postback?from=1706&clickid=279ec499-c890-45df-b640-65c31609ee66__pspm,idfa_35b32a75-626c-4f3e-811e-f638a263e33b,ko
lDux04yPQvmzCdIlD6UbNQ,newborntown,p1848_110924_174,Install,1.5,221.158.88.250,f8ed8131-2d44-4c9d-bbf8-6eccad2f466d,1559032199,2019-05-28 16:29:59,1559032526,2019-05-28 16:35:26,1559032533,8eb1ea54-0280-4966-aa17-cd424710eb5f__pspm,http://pspm.pingstart.com/api/v4/postback?from=1706&clickid=8eb1ea54-0280-4966-aa17-cd424710eb5f__pspm,idfa_f8ed8131-2d44-4c9d-bbf8-6eccad2f466d,ko
lDux04yPQvmzCdIlD6UbNQ,newborntown,p1848_110924_174,Install,1.5,60.253.12.114,59611fd0-aef5-48cb-b657-29c1c3d71075,1559032953,2019-05-28 16:42:33,1559033056,2019-05-28 16:44:16,1559033063,4a066579-82ed-49e3-ac77-ee7542083eb2__pspm,http://pspm.pingstart.com/api/v4/postback?from=1706&clickid=4a066579-82ed-49e3-ac77-ee7542083eb2__pspm,idfa_59611fd0-aef5-48cb-b657-29c1c3d71075,ko
lDux04yPQvmzCdIlD6UbNQ,newborntown,p1848_110924_174,Install,1.5,114.30.165.112,c04a8e2b-97b2-4edb-9775-fa51608ba650,1559031588,2019-05-28 16:19:48,1559032077,2019-05-28 16:27:57,1559032085,0f8e5264-9eea-47cb-9db8-d78cfc785f20__pspm,http://pspm.pingstart.com/api/v4/postback?from=1706&clickid=0f8e5264-9eea-47cb-9db8-d78cfc785f20__pspm,idfa_c04a8e2b-97b2-4edb-9775-fa51608ba650,ko
lDux04yPQvmzCdIlD6UbNQ,newborntown,p1848_110924_174,Install,1.6,211.169.209.130,6ff19670-b705-4684-b399-3ba60d747dd3,1558699227,2019-05-24 20:00:27,1558699292,2019-05-24 20:01:32,1558699298,96cb5360-c6b6-495f-8fad-19b6507ceae8__pspm,http://pspm.pingstart.com/api/v4/postback?from=1706&clickid=96cb5360-c6b6-495f-8fad-19b6507ceae8__pspm,idfa_6ff19670-b705-4684-b399-3ba60d747dd3,ko
lDux04yPQvmzCdIlD6UbNQ,newborntown,p1848_110924_174,Install,1.6,122.202.32.118,ec658391-f9ab-40e9-b77d-e58b5e491260,1558700852,2019-05-24 20:27:32,1558700922,2019-05-24 20:28:42,1558700928,4e3d8c39-9109-4e4e-b0dd-5a2411fe1789__pspm,http://pspm.pingstart.com/api/v4/postback?from=1706&clickid=4e3d8c39-9109-4e4e-b0dd-5a2411fe1789__pspm,idfa_ec658391-f9ab-40e9-b77d-e58b5e491260,ko
lDux04yPQvmzCdIlD6UbNQ,newborntown,p1848_110924_174,Install,1.5,121.182.120.157,8b03b27d-92f0-42f2-9f75-a4a7bc738c01,1559032554,2019-05-28 16:35:54,1559032612,2019-05-28 16:36:52,1559032619,a02601a6-538c-4048-b698-7490f71ff56b__pspm,http://pspm.pingstart.com/api/v4/postback?from=1706&clickid=a02601a6-538c-4048-b698-7490f71ff56b__pspm,idfa_8b03b27d-92f0-42f2-9f75-a4a7bc738c01,ko
lDux04yPQvmzCdIlD6UbNQ,newborntown,p1848_110924_174,Install,1.5,117.4.33.230,70985b84-2332-40b3-89c1-3982994c1639,1559032981,2019-05-28 16:43:01,1559033036,2019-05-28 16:43:56,1559033044,7eee4609-657b-4293-84bf-8863f7dc97b4__pspm,http://pspm.pingstart.com/api/v4/postback?from=1706&clickid=7eee4609-657b-4293-84bf-8863f7dc97b4__pspm,idfa_70985b84-2332-40b3-89c1-3982994c1639,ko
lDux04yPQvmzCdIlD6UbNQ,newborntown,p1848_110924_174,Install,1.6,1.214.196.154,e2884771-a90c-456b-943d-175918eb1f60,1558700140,2019-05-24 20:15:40,1558700210,2019-05-24 20:16:50,1558700219,df022be0-7589-455d-8b4b-ddad12c54cb8__pspm,http://pspm.pingstart.com/api/v4/postback?from=1706&clickid=df022be0-7589-455d-8b4b-ddad12c54cb8__pspm,idfa_e2884771-a90c-456b-943d-175918eb1f60,ko
lDux04yPQvmzCdIlD6UbNQ,newborntown,p1848_110924_174,Install,1.5,61.81.115.75,54d08066-6b92-4950-872c-c62ebaf15421,1559033045,2019-05-28 16:44:05,1559033105,2019-05-28 16:45:05,1559033112,751b3135-5a8a-4651-a384-6aed1aa32bc1__pspm,http://pspm.pingstart.com/api/v4/postback?from=1706&clickid=751b3135-5a8a-4651-a384-6aed1aa32bc1__pspm,idfa_54d08066-6b92-4950-872c-c62ebaf15421,ko
lDux04yPQvmzCdIlD6UbNQ,newborntown,p1848_110924_174,Install,1.6,58.229.163.82,df654af5-b371-4102-8c0b-ae220d55f779,1558699735,2019-05-24 20:08:55,1558699794,2019-05-24 20:09:54,1558699802,30f32d4a-577d-4fdd-aff5-c59df8f6e76c__pspm,http://pspm.pingstart.com/api/v4/postback?from=1706&clickid=30f32d4a-577d-4fdd-aff5-c59df8f6e76c__pspm,idfa_df654af5-b371-4102-8c0b-ae220d55f779,ko
lDux04yPQvmzCdIlD6UbNQ,newborntown,p1848_110924_174,Install,1.6,117.4.33.230,d4e5e7c8-a300-4267-9329-e743a7c07c99,1558699933,2019-05-24 20:12:13,1558699987,2019-05-24 20:13:07,1558699997,385c80aa-33c9-4e1a-a5a8-98a391a9fc6a__pspm,http://pspm.pingstart.com/api/v4/postback?from=1706&clickid=385c80aa-33c9-4e1a-a5a8-98a391a9fc6a__pspm,idfa_d4e5e7c8-a300-4267-9329-e743a7c07c99,ko
lDux04yPQvmzCdIlD6UbNQ,newborntown,p1848_110924_174,Install,1.5,211.54.74.50,52db0a85-90d3-47fd-a065-cd995c31ffde,1559031449,2019-05-28 16:17:29,1559031511,2019-05-28 16:18:31,1559031518,d1f100c6-a27f-4163-96c5-95740d8e4576__pspm,http://pspm.pingstart.com/api/v4/postback?from=1706&clickid=d1f100c6-a27f-4163-96c5-95740d8e4576__pspm,idfa_52db0a85-90d3-47fd-a065-cd995c31ffde,ko
lDux04yPQvmzCdIlD6UbNQ,newborntown,p1848_110924_174,Install,1.5,117.4.33.230,9ff88ed8-bc15-4706-bb63-9c2c7b5bad7b,1559032452,2019-05-28 16:34:12,1559032525,2019-05-28 16:35:25,1559032536,429fe94c-4799-453a-be52-4c86ea4d0d69__pspm,http://pspm.pingstart.com/api/v4/postback?from=1706&clickid=429fe94c-4799-453a-be52-4c86ea4d0d69__pspm,idfa_9ff88ed8-bc15-4706-bb63-9c2c7b5bad7b,ko
lDux04yPQvmzCdIlD6UbNQ,newborntown,p1848_110924_174,Install,1.6,112.216.55.178,741e04fb-005e-490c-89e7-cde52869b387,1558700508,2019-05-24 20:21:48,1558700576,2019-05-24 20:22:56,1558700585,60eb6fbf-d79c-4cf5-9a90-f81716d1beb4__pspm,http://pspm.pingstart.com/api/v4/postback?from=1706&clickid=60eb6fbf-d79c-4cf5-9a90-f81716d1beb4__pspm,idfa_741e04fb-005e-490c-89e7-cde52869b387,ko
lDux04yPQvmzCdIlD6UbNQ,newborntown,p1848_110924_174,Install,1.6,117.4.33.230,f87acec7-d36b-43c8-b14e-cd3266b768df,1558700492,2019-05-24 20:21:32,1558700542,2019-05-24 20:22:22,1558700550,f3b6490e-16a7-4e7d-a5b4-39be7bd57328__pspm,http://pspm.pingstart.com/api/v4/postback?from=1706&clickid=f3b6490e-16a7-4e7d-a5b4-39be7bd57328__pspm,idfa_f87acec7-d36b-43c8-b14e-cd3266b768df,ko
lDux04yPQvmzCdIlD6UbNQ,newborntown,p1848_110924_174,Install,1.6,116.126.199.161,4d4a4d07-0a65-425d-998e-0717ad46b0e7,1558698988,2019-05-24 19:56:28,1558699048,2019-05-24 19:57:28,1558699056,21667d39-3c1a-4fee-8fb9-d65f8a8841e5__pspm,http://pspm.pingstart.com/api/v4/postback?from=1706&clickid=21667d39-3c1a-4fee-8fb9-d65f8a8841e5__pspm,idfa_4d4a4d07-0a65-425d-998e-0717ad46b0e7,ko
lDux04yPQvmzCdIlD6UbNQ,newborntown,p1848_110924_174,Install,1.6,117.4.33.230,deaf5c60-b247-4e26-98f2-a503d3ed538d,1558699735,2019-05-24 20:08:55,1558699788,2019-05-24 20:09:48,1558699795,091977d4-34bb-4ddb-b28f-43a82616f1a6__pspm,http://pspm.pingstart.com/api/v4/postback?from=1706&clickid=091977d4-34bb-4ddb-b28f-43a82616f1a6__pspm,idfa_deaf5c60-b247-4e26-98f2-a503d3ed538d,ko
lDux04yPQvmzCdIlD6UbNQ,newborntown,p1848_110924_174,Install,1.6,49.246.3.247,606985ca-96b0-421f-b139-afe4c13b182c,1558698065,2019-05-24 19:41:05,1558698144,2019-05-24 19:42:24,1558698152,001377e4-86ec-44c2-b419-b4a066d132fc__pspm,http://pspm.pingstart.com/api/v4/postback?from=1706&clickid=001377e4-86ec-44c2-b419-b4a066d132fc__pspm,idfa_606985ca-96b0-421f-b139-afe4c13b182c,ko
lDux04yPQvmzCdIlD6UbNQ,newborntown,p1848_110924_174,Install,1.6,175.200.81.33,74437cd3-f074-4241-9860-606edad66da8,1558700811,2019-05-24 20:26:51,1558700875,2019-05-24 20:27:55,1558700883,13089c14-0527-4357-9919-e5e6430cdc9a__pspm,http://pspm.pingstart.com/api/v4/postback?from=1706&clickid=13089c14-0527-4357-9919-e5e6430cdc9a__pspm,idfa_74437cd3-f074-4241-9860-606edad66da8,ko
lDux04yPQvmzCdIlD6UbNQ,newborntown,p1848_110924_174,Install,1.5,222.231.27.242,b33666b6-129c-46b0-afba-29aa646f3c8c,1559031570,2019-05-28 16:19:30,1559031629,2019-05-28 16:20:29,1559031641,a67ba051-7209-434b-922d-98c068550819__pspm,http://pspm.pingstart.com/api/v4/postback?from=1706&clickid=a67ba051-7209-434b-922d-98c068550819__pspm,idfa_b33666b6-129c-46b0-afba-29aa646f3c8c,ko
lDux04yPQvmzCdIlD6UbNQ,newborntown,p1848_110924_174,Install,1.5,49.246.68.220,78fffda9-2cf5-4593-b310-cbb1378621aa,1559033445,2019-05-28 16:50:45,1559033503,2019-05-28 16:51:43,1559033511,00524ad3-8b31-458f-b266-41fd5621b50a__pspm,http://pspm.pingstart.com/api/v4/postback?from=1706&clickid=00524ad3-8b31-458f-b266-41fd5621b50a__pspm,idfa_78fffda9-2cf5-4593-b310-cbb1378621aa,ko
lDux04yPQvmzCdIlD6UbNQ,newborntown,p1848_110924_174,Install,1.5,117.4.33.230,70b2e1fe-32aa-4b01-89c2-643400f23e50,1559030871,2019-05-28 16:07:51,1559030926,2019-05-28 16:08:46,1559030933,da451803-aaf5-4aa8-9483-3ad6b810c45d__pspm,http://pspm.pingstart.com/api/v4/postback?from=1706&clickid=da451803-aaf5-4aa8-9483-3ad6b810c45d__pspm,idfa_70b2e1fe-32aa-4b01-89c2-643400f23e50,ko
lDux04yPQvmzCdIlD6UbNQ,newborntown,p1848_110924_174,Install,1.5,112.220.20.170,a639f5d5-01d5-4a65-9dbe-1ed2a2fcc0ee,1559033194,2019-05-28 16:46:34,1559033256,2019-05-28 16:47:36,1559033264,646738c0-efde-41af-963f-7ce11bd69249__pspm,http://pspm.pingstart.com/api/v4/postback?from=1706&clickid=646738c0-efde-41af-963f-7ce11bd69249__pspm,idfa_a639f5d5-01d5-4a65-9dbe-1ed2a2fcc0ee,ko
lDux04yPQvmzCdIlD6UbNQ,newborntown,p1848_110924_174,Install,1.5,121.189.198.60,5c358258-a299-4434-9d07-b1cd2a9b1eb4,1559030681,2019-05-28 16:04:41,1559030738,2019-05-28 16:05:38,1559030746,4d165d8b-8bbc-45b5-87f5-b1d7d3302e54__pspm,http://pspm.pingstart.com/api/v4/postback?from=1706&clickid=4d165d8b-8bbc-45b5-87f5-b1d7d3302e54__pspm,idfa_5c358258-a299-4434-9d07-b1cd2a9b1eb4,ko
lDux04yPQvmzCdIlD6UbNQ,newborntown,p1848_110924_174,Install,1.5,183.104.192.162,dfbc7807-3175-4ba8-8593-26e1014aba9d,1559033523,2019-05-28 16:52:03,1559033585,2019-05-28 16:53:05,1559033598,156e0485-b096-46cb-846c-86320c7ff452__pspm,http://pspm.pingstart.com/api/v4/postback?from=1706&clickid=156e0485-b096-46cb-846c-86320c7ff452__pspm,idfa_dfbc7807-3175-4ba8-8593-26e1014aba9d,ko
lDux04yPQvmzCdIlD6UbNQ,newborntown,p1848_110924_174,Install,1.6,123.200.126.205,1b1d8a7c-7cdc-46ed-98b8-cba6c10a99d6,1558698048,2019-05-24 19:40:48,1558698115,2019-05-24 19:41:55,1558698122,15438231-1fb1-44dc-b238-fb2c8228cc36__pspm,http://pspm.pingstart.com/api/v4/postback?from=1706&clickid=15438231-1fb1-44dc-b238-fb2c8228cc36__pspm,idfa_1b1d8a7c-7cdc-46ed-98b8-cba6c10a99d6,ko
lDux04yPQvmzCdIlD6UbNQ,newborntown,p1848_110924_174,Install,1.5,112.218.155.92,4783d5fc-0e22-4d0d-b4dd-a603f953a94e,1559030238,2019-05-28 15:57:18,1559030296,2019-05-28 15:58:16,1559030311,579312af-3a54-4955-8463-7d55c4308aab__pspm,http://pspm.pingstart.com/api/v4/postback?from=1706&clickid=579312af-3a54-4955-8463-7d55c4308aab__pspm,idfa_4783d5fc-0e22-4d0d-b4dd-a603f953a94e,ko
lDux04yPQvmzCdIlD6UbNQ,newborntown,p1848_110924_174,Install,1.6,112.220.86.122,97ac206f-03de-4ab9-8142-8aa45ea1b030,1558700372,2019-05-24 20:19:32,1558700428,2019-05-24 20:20:28,1558700437,1f3b5dcc-697b-4fff-962a-61c810aee240__pspm,http://pspm.pingstart.com/api/v4/postback?from=1706&clickid=1f3b5dcc-697b-4fff-962a-61c810aee240__pspm,idfa_97ac206f-03de-4ab9-8142-8aa45ea1b030,ko
lDux04yPQvmzCdIlD6UbNQ,newborntown,p1848_110924_174,Install,1.5,211.222.34.1,881a3a57-63c8-459e-b04a-11d3b934a5d9,1559030670,2019-05-28 16:04:30,1559030729,2019-05-28 16:05:29,1559030737,7ba96d1a-a73f-4b62-b46d-87bbf57e1885__pspm,http://pspm.pingstart.com/api/v4/postback?from=1706&clickid=7ba96d1a-a73f-4b62-b46d-87bbf57e1885__pspm,idfa_881a3a57-63c8-459e-b04a-11d3b934a5d9,ko
lDux04yPQvmzCdIlD6UbNQ,newborntown,p1848_110924_174,Install,1.5,220.73.80.174,ef35dfce-7eeb-417e-a185-ea7b966c6bf8,1559031135,2019-05-28 16:12:15,1559031200,2019-05-28 16:13:20,1559031210,8eff2798-ba95-477b-acc2-1d208dd600c0__pspm,http://pspm.pingstart.com/api/v4/postback?from=1706&clickid=8eff2798-ba95-477b-acc2-1d208dd600c0__pspm,idfa_ef35dfce-7eeb-417e-a185-ea7b966c6bf8,ko
lDux04yPQvmzCdIlD6UbNQ,newborntown,p1848_110924_174,Install,1.6,211.182.112.240,83f72e7e-ca6d-484e-a735-eae53dfec0c1,1558698026,2019-05-24 19:40:26,1558698092,2019-05-24 19:41:32,1558698099,5054f95f-8c60-4c99-9d96-65daafda8792__pspm,http://pspm.pingstart.com/api/v4/postback?from=1706&clickid=5054f95f-8c60-4c99-9d96-65daafda8792__pspm,idfa_83f72e7e-ca6d-484e-a735-eae53dfec0c1,ko
lDux04yPQvmzCdIlD6UbNQ,newborntown,p1848_110924_174,Install,1.6,121.140.69.73,f40e842e-750e-4805-af86-49536904f00a,1558699447,2019-05-24 20:04:07,1558699508,2019-05-24 20:05:08,1558699515,46fed10d-c3c2-44ae-a5c8-985990427c57__pspm,http://pspm.pingstart.com/api/v4/postback?from=1706&clickid=46fed10d-c3c2-44ae-a5c8-985990427c57__pspm,idfa_f40e842e-750e-4805-af86-49536904f00a,ko
lDux04yPQvmzCdIlD6UbNQ,newborntown,p1848_110924_174,Install,1.5,211.241.160.234,b7a9980a-234c-4038-b1c6-86dc4843eb3e,1559032014,2019-05-28 16:26:54,1559032072,2019-05-28 16:27:52,1559032081,8be3aea5-776c-47d6-b709-c190e53101c1__pspm,http://pspm.pingstart.com/api/v4/postback?from=1706&clickid=8be3aea5-776c-47d6-b709-c190e53101c1__pspm,idfa_b7a9980a-234c-4038-b1c6-86dc4843eb3e,ko
