cid,partner_id,channel_id,action_id,cpi,ip,idfa,click time,click datetime,install time,install datetime,postback time,click id,postback url,unique user id
AohrWdFnS5O7gizBcQo0wA,newborntown,p1789_451-10520451,Install,1.0,58.232.171.102,e19144b7-f52c-4f2f-bbad-96fe2211e868,1558358565,2019-05-20 21:22:45,1558412661,2019-05-21 12:24:21,1558412692,180457ec-f707-4836-b3f6-001c4e96c555__pspm,http://pspm.pingstart.com/api/v4/postback?from=1706&clickid=180457ec-f707-4836-b3f6-001c4e96c555__pspm,idfa_e19144b7-f52c-4f2f-bbad-96fe2211e868,%ED%95%9C%EA%B5%AD%EC%96%B4
AohrWdFnS5O7gizBcQo0wA,newborntown,p1789_451-10520451,Install,1.0,218.38.225.238,a60ab447-850c-4546-9ab0-569dd3826c18,1558313704,2019-05-20 08:55:04,1558317816,2019-05-20 10:03:36,1558317849,d338b5c6-b24d-4f33-b4c2-be8c83011b68__pspm,http://pspm.pingstart.com/api/v4/postback?from=1706&clickid=d338b5c6-b24d-4f33-b4c2-be8c83011b68__pspm,idfa_a60ab447-850c-4546-9ab0-569dd3826c18,%ED%95%9C%EA%B5%AD%EC%96%B4
AohrWdFnS5O7gizBcQo0wA,newborntown,p1789_451-10520451,Install,1.0,58.126.230.86,1b57b443-6371-4933-ac21-31a223e5b627,1558349023,2019-05-20 18:43:43,1558349036,2019-05-20 18:43:56,1558349069,6691de69-9837-42ba-aeca-66274f098ec9__pspm,http://pspm.pingstart.com/api/v4/postback?from=1706&clickid=6691de69-9837-42ba-aeca-66274f098ec9__pspm,idfa_1b57b443-6371-4933-ac21-31a223e5b627,%ED%95%9C%EA%B5%AD%EC%96%B4
AohrWdFnS5O7gizBcQo0wA,newborntown,p1789_451-10520451,Install,1.0,211.36.140.79,a967dbde-216f-462b-adf3-9dbd8c50f16b,1558362765,2019-05-20 22:32:45,1558362780,2019-05-20 22:33:00,1558362811,8d472f6c-ff06-42d3-99c2-fc3646dc07f3__pspm,http://pspm.pingstart.com/api/v4/postback?from=1706&clickid=8d472f6c-ff06-42d3-99c2-fc3646dc07f3__pspm,idfa_a967dbde-216f-462b-adf3-9dbd8c50f16b,%ED%95%9C%EA%B5%AD%EC%96%B4
AohrWdFnS5O7gizBcQo0wA,newborntown,p1789_451-10520451,Install,1.0,182.228.110.17,5e5fbb98-5ea5-47d2-8672-bca34cb7bd36,1558353458,2019-05-20 19:57:38,1558353501,2019-05-20 19:58:21,1558353532,17d306a3-59e3-4b65-bf29-eee31dc20e1a__pspm,http://pspm.pingstart.com/api/v4/postback?from=1706&clickid=17d306a3-59e3-4b65-bf29-eee31dc20e1a__pspm,idfa_5e5fbb98-5ea5-47d2-8672-bca34cb7bd36,%ED%95%9C%EA%B5%AD%EC%96%B4
AohrWdFnS5O7gizBcQo0wA,newborntown,p1789_451-10520451,Install,1.0,110.70.47.138,0f100057-b6db-4bc9-953e-7965930f5691,1558313686,2019-05-20 08:54:46,1558313790,2019-05-20 08:56:30,1558313821,1b66ff40-c3cb-4a1e-ab5d-a39f6238a86a__pspm,http://pspm.pingstart.com/api/v4/postback?from=1706&clickid=1b66ff40-c3cb-4a1e-ab5d-a39f6238a86a__pspm,idfa_0f100057-b6db-4bc9-953e-7965930f5691,%ED%95%9C%EA%B5%AD%EC%96%B4
AohrWdFnS5O7gizBcQo0wA,newborntown,p1789_451-10520451,Install,1.0,125.135.98.7,97b756f5-fba5-4c7b-94e0-ec1a80661daf,1558289116,2019-05-20 02:05:16,1558289205,2019-05-20 02:06:45,1558289236,78310cee-e71e-43de-97f3-e96d0d997448__pspm,http://pspm.pingstart.com/api/v4/postback?from=1706&clickid=78310cee-e71e-43de-97f3-e96d0d997448__pspm,idfa_97b756f5-fba5-4c7b-94e0-ec1a80661daf,%ED%95%9C%EA%B5%AD%EC%96%B4
AohrWdFnS5O7gizBcQo0wA,newborntown,p1789_451-10520451,Install,1.0,123.213.189.69,8869f2c3-c0b1-4e0d-b998-d04f4baa2c66,1558351777,2019-05-20 19:29:37,1558351787,2019-05-20 19:29:47,1558351819,0af09656-08e1-46bd-bce2-7704baed0a69__pspm,http://pspm.pingstart.com/api/v4/postback?from=1706&clickid=0af09656-08e1-46bd-bce2-7704baed0a69__pspm,idfa_8869f2c3-c0b1-4e0d-b998-d04f4baa2c66,%ED%95%9C%EA%B5%AD%EC%96%B4
AohrWdFnS5O7gizBcQo0wA,newborntown,p1789_451-10520451,Install,1.0,175.114.210.97,d6b03553-3d82-4ac8-9eb1-87e0bc2e0b11,1558355755,2019-05-20 20:35:55,1558355853,2019-05-20 20:37:33,1558355924,40bc9af6-0592-4387-9eaa-4ed78eae50a0__pspm,http://pspm.pingstart.com/api/v4/postback?from=1706&clickid=40bc9af6-0592-4387-9eaa-4ed78eae50a0__pspm,idfa_d6b03553-3d82-4ac8-9eb1-87e0bc2e0b11,%ED%95%9C%EA%B5%AD%EC%96%B4
AohrWdFnS5O7gizBcQo0wA,newborntown,p1789_451-10520451,Install,1.0,223.38.27.7,1945575f-997d-435b-8d18-cd232f4b8175,1558361013,2019-05-20 22:03:33,1558361029,2019-05-20 22:03:49,1558361067,97e1390d-737e-46e0-ade1-6db6dadf691a__pspm,http://pspm.pingstart.com/api/v4/postback?from=1706&clickid=97e1390d-737e-46e0-ade1-6db6dadf691a__pspm,idfa_1945575f-997d-435b-8d18-cd232f4b8175,%ED%95%9C%EA%B5%AD%EC%96%B4
AohrWdFnS5O7gizBcQo0wA,newborntown,p1789_451-10520451,Install,1.0,182.224.181.146,8ce3916f-dad3-4b01-8edc-ff2dadacf3f0,1558364571,2019-05-20 23:02:51,1558364707,2019-05-20 23:05:07,1558364738,74d73859-2307-45e2-8e74-562231c2f277__pspm,http://pspm.pingstart.com/api/v4/postback?from=1706&clickid=74d73859-2307-45e2-8e74-562231c2f277__pspm,idfa_8ce3916f-dad3-4b01-8edc-ff2dadacf3f0,%ED%95%9C%EA%B5%AD%EC%96%B4
AohrWdFnS5O7gizBcQo0wA,newborntown,p1789_451-10520451,Install,1.0,121.158.169.56,366a90d1-37af-4175-a2e4-60680fb9cfae,1558356249,2019-05-20 20:44:09,1558356291,2019-05-20 20:44:51,1558356411,d93629c8-5cab-4791-84b3-937ac2eec1e4__pspm,http://pspm.pingstart.com/api/v4/postback?from=1706&clickid=d93629c8-5cab-4791-84b3-937ac2eec1e4__pspm,idfa_366a90d1-37af-4175-a2e4-60680fb9cfae,%ED%95%9C%EA%B5%AD%EC%96%B4
AohrWdFnS5O7gizBcQo0wA,newborntown,p1789_451-10520451,Install,1.0,118.44.193.244,8727f02c-974d-4a43-82b6-6772448908e5,1558351629,2019-05-20 19:27:09,1558351668,2019-05-20 19:27:48,1558351708,f6f47bbf-38a2-4ea4-a086-9a544e61d7cd__pspm,http://pspm.pingstart.com/api/v4/postback?from=1706&clickid=f6f47bbf-38a2-4ea4-a086-9a544e61d7cd__pspm,idfa_8727f02c-974d-4a43-82b6-6772448908e5,%ED%95%9C%EA%B5%AD%EC%96%B4
AohrWdFnS5O7gizBcQo0wA,newborntown,p1789_451-10520451,Install,1.0,223.39.149.26,faa35061-963f-42d3-88fe-d50d6e62bbae,1558346005,2019-05-20 17:53:25,1558346280,2019-05-20 17:58:00,1558346311,4d1b5f84-44cd-4f63-a11b-8c639708dc69__pspm,http://pspm.pingstart.com/api/v4/postback?from=1706&clickid=4d1b5f84-44cd-4f63-a11b-8c639708dc69__pspm,idfa_faa35061-963f-42d3-88fe-d50d6e62bbae,%ED%95%9C%EA%B5%AD%EC%96%B4
AohrWdFnS5O7gizBcQo0wA,newborntown,p1789_451-10520451,Install,1.0,49.167.192.194,b180349a-5045-4321-b947-677476498fc6,1558351819,2019-05-20 19:30:19,1558351888,2019-05-20 19:31:28,1558351922,2e914fa5-6288-489b-b62c-bcba352f7455__pspm,http://pspm.pingstart.com/api/v4/postback?from=1706&clickid=2e914fa5-6288-489b-b62c-bcba352f7455__pspm,idfa_b180349a-5045-4321-b947-677476498fc6,%ED%95%9C%EA%B5%AD%EC%96%B4
AohrWdFnS5O7gizBcQo0wA,newborntown,p1789_451-10520451,Install,1.0,180.228.21.234,94a2762d-c9f9-4275-b689-cf930a41327a,1558357226,2019-05-20 21:00:26,1558357287,2019-05-20 21:01:27,1558357319,c2f2d27b-14b2-483e-9042-e3b2fb75cefb__pspm,http://pspm.pingstart.com/api/v4/postback?from=1706&clickid=c2f2d27b-14b2-483e-9042-e3b2fb75cefb__pspm,idfa_94a2762d-c9f9-4275-b689-cf930a41327a,%ED%95%9C%EA%B5%AD%EC%96%B4
AohrWdFnS5O7gizBcQo0wA,newborntown,p1789_451-10520451,Install,1.0,182.218.154.90,b7d52e29-c9af-46b7-961c-9973f1104f5b,1558342599,2019-05-20 16:56:39,1558342636,2019-05-20 16:57:16,1558342667,3276d2da-7b20-418b-91bb-9d4f7e760aab__pspm,http://pspm.pingstart.com/api/v4/postback?from=1706&clickid=3276d2da-7b20-418b-91bb-9d4f7e760aab__pspm,idfa_b7d52e29-c9af-46b7-961c-9973f1104f5b,%ED%95%9C%EA%B5%AD%EC%96%B4
AohrWdFnS5O7gizBcQo0wA,newborntown,p1789_451-10520451,Install,1.0,14.40.58.226,984aaf64-0f16-4724-84a1-9c8b781887c8,1558339755,2019-05-20 16:09:15,1558340121,2019-05-20 16:15:21,1558340153,10035b2e-bc43-4e38-8b0c-6a87b7599082__pspm,http://pspm.pingstart.com/api/v4/postback?from=1706&clickid=10035b2e-bc43-4e38-8b0c-6a87b7599082__pspm,idfa_984aaf64-0f16-4724-84a1-9c8b781887c8,%ED%95%9C%EA%B5%AD%EC%96%B4
AohrWdFnS5O7gizBcQo0wA,newborntown,p1789_451-10520451,Install,1.0,122.44.143.213,7cb49c10-c654-43ab-a1da-740e5aa37449,1558367598,2019-05-20 23:53:18,1558367633,2019-05-20 23:53:53,1558367664,ad6fdc47-eb6b-4a92-a246-aec19643cf84__pspm,http://pspm.pingstart.com/api/v4/postback?from=1706&clickid=ad6fdc47-eb6b-4a92-a246-aec19643cf84__pspm,idfa_7cb49c10-c654-43ab-a1da-740e5aa37449,%ED%95%9C%EA%B5%AD%EC%96%B4
AohrWdFnS5O7gizBcQo0wA,newborntown,p1789_451-10520451,Install,1.0,110.70.59.170,1b27fe42-e193-44bf-97c2-a3b597ffdf02,1558334194,2019-05-20 14:36:34,1558334208,2019-05-20 14:36:48,1558334239,57ee371a-2fb3-466e-aa35-837b8c126469__pspm,http://pspm.pingstart.com/api/v4/postback?from=1706&clickid=57ee371a-2fb3-466e-aa35-837b8c126469__pspm,idfa_1b27fe42-e193-44bf-97c2-a3b597ffdf02,%ED%95%9C%EA%B5%AD%EC%96%B4
AohrWdFnS5O7gizBcQo0wA,newborntown,p1789_451-10520451,Install,1.0,1.243.246.139,c824297d-d70f-4c29-8746-9a5553b17bce,1558288666,2019-05-20 01:57:46,1558288904,2019-05-20 02:01:44,1558288935,4a9c0447-8000-40bb-b991-f7e2e000623d__pspm,http://pspm.pingstart.com/api/v4/postback?from=1706&clickid=4a9c0447-8000-40bb-b991-f7e2e000623d__pspm,idfa_c824297d-d70f-4c29-8746-9a5553b17bce,%ED%95%9C%EA%B5%AD%EC%96%B4
AohrWdFnS5O7gizBcQo0wA,newborntown,p1789_451-10520451,Install,1.0,183.100.175.250,7fc7a1cd-8110-4335-ac04-3e57b422ff90,1558351620,2019-05-20 19:27:00,1558351673,2019-05-20 19:27:53,1558351704,e021b024-7ba6-4499-a241-9482308fd662__pspm,http://pspm.pingstart.com/api/v4/postback?from=1706&clickid=e021b024-7ba6-4499-a241-9482308fd662__pspm,idfa_7fc7a1cd-8110-4335-ac04-3e57b422ff90,%ED%95%9C%EA%B5%AD%EC%96%B4
AohrWdFnS5O7gizBcQo0wA,newborntown,p1789_451-10520451,Install,1.0,175.117.156.108,e4a4c92b-6720-4a55-a969-27ed101ac8cf,1558287952,2019-05-20 01:45:52,1558288082,2019-05-20 01:48:02,1558288112,2c0958be-46fa-4712-a40e-41def9a03c5c__pspm,http://pspm.pingstart.com/api/v4/postback?from=1706&clickid=2c0958be-46fa-4712-a40e-41def9a03c5c__pspm,idfa_e4a4c92b-6720-4a55-a969-27ed101ac8cf,%ED%95%9C%EA%B5%AD%EC%96%B4
AohrWdFnS5O7gizBcQo0wA,newborntown,p1789_451-10520451,Install,1.0,219.249.166.72,a2f93a01-9494-46fd-a4a1-c4216cee6580,1558350967,2019-05-20 19:16:07,1558350978,2019-05-20 19:16:18,1558351010,b3a8c831-dd3b-42c9-873e-6c84db561be5__pspm,http://pspm.pingstart.com/api/v4/postback?from=1706&clickid=b3a8c831-dd3b-42c9-873e-6c84db561be5__pspm,idfa_a2f93a01-9494-46fd-a4a1-c4216cee6580,%ED%95%9C%EA%B5%AD%EC%96%B4
AohrWdFnS5O7gizBcQo0wA,newborntown,p1789_451-10520451,Install,1.0,117.123.186.85,1cced525-9830-4c3c-88b2-6cc437ca7cda,1558287195,2019-05-20 01:33:15,1558287235,2019-05-20 01:33:55,1558287266,ac8b5599-2280-479d-9c23-e47ae721e2e7__pspm,http://pspm.pingstart.com/api/v4/postback?from=1706&clickid=ac8b5599-2280-479d-9c23-e47ae721e2e7__pspm,idfa_1cced525-9830-4c3c-88b2-6cc437ca7cda,%ED%95%9C%EA%B5%AD%EC%96%B4
AohrWdFnS5O7gizBcQo0wA,newborntown,p1789_451-10520451,Install,1.0,110.70.47.163,8051bf61-aac9-4a35-92e7-3243459d6104,1558342291,2019-05-20 16:51:31,1558342302,2019-05-20 16:51:42,1558342333,0644d82c-2dd1-431c-9cf5-6923efedb971__pspm,http://pspm.pingstart.com/api/v4/postback?from=1706&clickid=0644d82c-2dd1-431c-9cf5-6923efedb971__pspm,idfa_8051bf61-aac9-4a35-92e7-3243459d6104,%ED%95%9C%EA%B5%AD%EC%96%B4
AohrWdFnS5O7gizBcQo0wA,newborntown,p1789_451-10520451,Install,1.0,223.62.175.71,7e473ba9-3cfb-4b7c-af4f-f3c0572836e4,1558356767,2019-05-20 20:52:47,1558357538,2019-05-20 21:05:38,1558357569,10f46b5a-c30f-458c-80ce-eda97c97b50b__pspm,http://pspm.pingstart.com/api/v4/postback?from=1706&clickid=10f46b5a-c30f-458c-80ce-eda97c97b50b__pspm,idfa_7e473ba9-3cfb-4b7c-af4f-f3c0572836e4,%ED%95%9C%EA%B5%AD%EC%96%B4
AohrWdFnS5O7gizBcQo0wA,newborntown,p1789_451-10520451,Install,1.0,112.165.51.9,00e6b100-f78c-4319-bb88-4dd248ec15c9,1558355826,2019-05-20 20:37:06,1558355844,2019-05-20 20:37:24,1558355875,8de70198-9cb6-46d8-a916-31137395a2c8__pspm,http://pspm.pingstart.com/api/v4/postback?from=1706&clickid=8de70198-9cb6-46d8-a916-31137395a2c8__pspm,idfa_00e6b100-f78c-4319-bb88-4dd248ec15c9,%ED%95%9C%EA%B5%AD%EC%96%B4
AohrWdFnS5O7gizBcQo0wA,newborntown,p1789_451-10520451,Install,1.0,223.62.212.229,52fb7263-23f7-4192-abf2-ff51fdef2d3d,1558314866,2019-05-20 09:14:26,1558316111,2019-05-20 09:35:11,1558316142,9cba3ded-9fa5-46b7-ab23-e9fca4af19b9__pspm,http://pspm.pingstart.com/api/v4/postback?from=1706&clickid=9cba3ded-9fa5-46b7-ab23-e9fca4af19b9__pspm,idfa_52fb7263-23f7-4192-abf2-ff51fdef2d3d,%ED%95%9C%EA%B5%AD%EC%96%B4
AohrWdFnS5O7gizBcQo0wA,newborntown,p1789_451-10520451,Install,1.0,223.33.180.78,a813ebfe-7bb1-4f5e-8a39-caf1dee37db3,1558342562,2019-05-20 16:56:02,1558342587,2019-05-20 16:56:27,1558342618,bf913b21-39a9-43eb-a5b2-7c53c11bb451__pspm,http://pspm.pingstart.com/api/v4/postback?from=1706&clickid=bf913b21-39a9-43eb-a5b2-7c53c11bb451__pspm,idfa_a813ebfe-7bb1-4f5e-8a39-caf1dee37db3,%ED%95%9C%EA%B5%AD%EC%96%B4
AohrWdFnS5O7gizBcQo0wA,newborntown,p1789_451-10520451,Install,1.0,223.39.131.201,9fc7cf73-660f-4125-88e6-1422a0b27e4d,1558348440,2019-05-20 18:34:00,1558348483,2019-05-20 18:34:43,1558348514,fbcc9e1b-f742-498d-8c87-c8a8e04b7068__pspm,http://pspm.pingstart.com/api/v4/postback?from=1706&clickid=fbcc9e1b-f742-498d-8c87-c8a8e04b7068__pspm,idfa_9fc7cf73-660f-4125-88e6-1422a0b27e4d,%ED%95%9C%EA%B5%AD%EC%96%B4
AohrWdFnS5O7gizBcQo0wA,newborntown,p1789_451-10520451,Install,1.0,175.223.49.132,1636b5d5-be37-410a-8355-51bc96746e92,1558325068,2019-05-20 12:04:28,1558325092,2019-05-20 12:04:52,1558325123,5959bd23-9acc-479e-b61a-50923566956b__pspm,http://pspm.pingstart.com/api/v4/postback?from=1706&clickid=5959bd23-9acc-479e-b61a-50923566956b__pspm,idfa_1636b5d5-be37-410a-8355-51bc96746e92,%ED%95%9C%EA%B5%AD%EC%96%B4
AohrWdFnS5O7gizBcQo0wA,newborntown,p1789_451-10520451,Install,1.0,125.178.58.67,ce481565-159b-4d26-b333-5c4e8d82147f,1558352380,2019-05-20 19:39:40,1558352477,2019-05-20 19:41:17,1558352508,fcfc5895-90ae-4251-ab72-f7c97be7b458__pspm,http://pspm.pingstart.com/api/v4/postback?from=1706&clickid=fcfc5895-90ae-4251-ab72-f7c97be7b458__pspm,idfa_ce481565-159b-4d26-b333-5c4e8d82147f,%ED%95%9C%EA%B5%AD%EC%96%B4
AohrWdFnS5O7gizBcQo0wA,newborntown,p1789_451-10520451,Install,1.0,223.38.28.161,1b85469a-035c-4193-9dcf-c430f708baa0,1558342815,2019-05-20 17:00:15,1558342829,2019-05-20 17:00:29,1558342860,5c8e0da7-e61a-4274-b48d-6a7a08e982ad__pspm,http://pspm.pingstart.com/api/v4/postback?from=1706&clickid=5c8e0da7-e61a-4274-b48d-6a7a08e982ad__pspm,idfa_1b85469a-035c-4193-9dcf-c430f708baa0,%ED%95%9C%EA%B5%AD%EC%96%B4
AohrWdFnS5O7gizBcQo0wA,newborntown,p1789_451-10520451,Install,1.0,1.239.167.218,7022d537-eb9b-4551-9feb-065380dd666c,1558338942,2019-05-20 15:55:42,1558338955,2019-05-20 15:55:55,1558338987,b78cf1db-2d31-4c13-b06c-e88a8e7c8728__pspm,http://pspm.pingstart.com/api/v4/postback?from=1706&clickid=b78cf1db-2d31-4c13-b06c-e88a8e7c8728__pspm,idfa_7022d537-eb9b-4551-9feb-065380dd666c,%ED%95%9C%EA%B5%AD%EC%96%B4
AohrWdFnS5O7gizBcQo0wA,newborntown,p1789_451-10520451,Install,1.0,39.7.46.84,400db945-3041-48df-bc86-1b43c297b964,1558334371,2019-05-20 14:39:31,1558334417,2019-05-20 14:40:17,1558334448,8697304b-3c3a-432f-8cd6-03fee4dd6209__pspm,http://pspm.pingstart.com/api/v4/postback?from=1706&clickid=8697304b-3c3a-432f-8cd6-03fee4dd6209__pspm,idfa_400db945-3041-48df-bc86-1b43c297b964,%ED%95%9C%EA%B5%AD%EC%96%B4
AohrWdFnS5O7gizBcQo0wA,newborntown,p1789_451-10520451,Install,1.0,110.70.55.32,02fc6b28-5793-41be-a9e3-528de1937d00,1558362171,2019-05-20 22:22:51,1558362365,2019-05-20 22:26:05,1558362396,40adcb96-9aeb-4843-9a08-0b9b62100f2a__pspm,http://pspm.pingstart.com/api/v4/postback?from=1706&clickid=40adcb96-9aeb-4843-9a08-0b9b62100f2a__pspm,idfa_02fc6b28-5793-41be-a9e3-528de1937d00,%ED%95%9C%EA%B5%AD%EC%96%B4
AohrWdFnS5O7gizBcQo0wA,newborntown,p1789_451-10520451,Install,1.0,121.254.38.203,243bc946-bb5f-4b1e-b175-51a51d6182b9,1558319778,2019-05-20 10:36:18,1558319877,2019-05-20 10:37:57,1558319915,cbaa3973-ccf3-4b97-b474-58fbc9c1749c__pspm,http://pspm.pingstart.com/api/v4/postback?from=1706&clickid=cbaa3973-ccf3-4b97-b474-58fbc9c1749c__pspm,idfa_243bc946-bb5f-4b1e-b175-51a51d6182b9,%ED%95%9C%EA%B5%AD%EC%96%B4
AohrWdFnS5O7gizBcQo0wA,newborntown,p1789_451-10520451,Install,1.0,211.36.141.112,bbab316b-89c6-4e51-8360-5648c6856096,1558336959,2019-05-20 15:22:39,1558336992,2019-05-20 15:23:12,1558337023,5f5029e3-d5e9-43dd-a306-8f517bda4bc8__pspm,http://pspm.pingstart.com/api/v4/postback?from=1706&clickid=5f5029e3-d5e9-43dd-a306-8f517bda4bc8__pspm,idfa_bbab316b-89c6-4e51-8360-5648c6856096,%ED%95%9C%EA%B5%AD%EC%96%B4
