cid,partner_id,channel_id,action_id,cpi,ip,idfa,click time,click datetime,install time,install datetime,postback time,click id,postback url,unique user id
IDFDZFneQX25MacppdtBEA,newborntown,p1839_570212_5_8_1509_1860,install,1.4,1.75.237.160,6b7880d0-8e29-40f0-b63e-f9521e9de7b5,1558577473,2019-05-23 10:11:13,1558577511,2019-05-23 10:11:51,1558577543,075ac578-ca3b-4761-b206-bbd733d8c99a__pspm,http://pspm.pingstart.com/api/v4/postback?from=1706&clickid=075ac578-ca3b-4761-b206-bbd733d8c99a__pspm,idfa_6b7880d0-8e29-40f0-b63e-f9521e9de7b5,ja
IDFDZFneQX25MacppdtBEA,newborntown,p1839_570212_5_8_1509_1860,install,1.4,150.66.64.133,af6a721e-57d5-4184-acef-eca8f9f378bc,1558577614,2019-05-23 10:13:34,1558577845,2019-05-23 10:17:25,1558577876,ab8bad3c-2593-4daa-8299-1059bb392e53__pspm,http://pspm.pingstart.com/api/v4/postback?from=1706&clickid=ab8bad3c-2593-4daa-8299-1059bb392e53__pspm,idfa_af6a721e-57d5-4184-acef-eca8f9f378bc,ja
IDFDZFneQX25MacppdtBEA,newborntown,p1839_570212_5_8_1509_1860,install,1.4,126.212.144.38,53713830-439b-4205-b253-c7fc91ef8b9d,1558577368,2019-05-23 10:09:28,1558577403,2019-05-23 10:10:03,1558577434,68144b2e-1d7c-460b-bc77-6de2687085aa__pspm,http://pspm.pingstart.com/api/v4/postback?from=1706&clickid=68144b2e-1d7c-460b-bc77-6de2687085aa__pspm,idfa_53713830-439b-4205-b253-c7fc91ef8b9d,ja
IDFDZFneQX25MacppdtBEA,newborntown,p1839_570212_5_8_1509_1860,install,1.4,106.130.208.223,56da99a2-4283-4546-906b-762755ea3d9e,1558577534,2019-05-23 10:12:14,1558577574,2019-05-23 10:12:54,1558577606,dc767839-dda7-4309-a573-726c518b0000__pspm,http://pspm.pingstart.com/api/v4/postback?from=1706&clickid=dc767839-dda7-4309-a573-726c518b0000__pspm,idfa_56da99a2-4283-4546-906b-762755ea3d9e,ja
IDFDZFneQX25MacppdtBEA,newborntown,p1839_570212_5_8_1509_1860,install,1.4,183.74.206.119,18a9c226-e09f-410f-ad03-c9fd69a5f2c1,1558577377,2019-05-23 10:09:37,1558577414,2019-05-23 10:10:14,1558577444,e96afa15-4b43-4fe1-8f2c-d824fdfb1a91__pspm,http://pspm.pingstart.com/api/v4/postback?from=1706&clickid=e96afa15-4b43-4fe1-8f2c-d824fdfb1a91__pspm,idfa_18a9c226-e09f-410f-ad03-c9fd69a5f2c1,ja
IDFDZFneQX25MacppdtBEA,newborntown,p1839_570212_5_8_1509_1860,install,1.4,49.96.19.40,80b1adcf-6706-40eb-ad75-1567b48f22bb,1558577427,2019-05-23 10:10:27,1558577466,2019-05-23 10:11:06,1558577497,e81a19de-d3bf-4fe3-afbf-fa31755bd380__pspm,http://pspm.pingstart.com/api/v4/postback?from=1706&clickid=e81a19de-d3bf-4fe3-afbf-fa31755bd380__pspm,idfa_80b1adcf-6706-40eb-ad75-1567b48f22bb,ja
IDFDZFneQX25MacppdtBEA,newborntown,p1839_570212_5_8_1509_1860,install,1.4,49.98.79.217,d0286985-2314-41a2-94d6-d1219694d471,1558577375,2019-05-23 10:09:35,1558577413,2019-05-23 10:10:13,1558577444,5308388b-c39d-48cc-af2b-4120c3a890ff__pspm,http://pspm.pingstart.com/api/v4/postback?from=1706&clickid=5308388b-c39d-48cc-af2b-4120c3a890ff__pspm,idfa_d0286985-2314-41a2-94d6-d1219694d471,ja
IDFDZFneQX25MacppdtBEA,newborntown,p1839_570212_5_8_1509_1860,install,1.4,210.165.120.185,cbcfaa08-e236-4b8d-b06c-8104c0d0a4d9,1558577498,2019-05-23 10:11:38,1558577534,2019-05-23 10:12:14,1558577566,95b246c9-b67d-4ed0-a775-2a35151d9cac__pspm,http://pspm.pingstart.com/api/v4/postback?from=1706&clickid=95b246c9-b67d-4ed0-a775-2a35151d9cac__pspm,idfa_cbcfaa08-e236-4b8d-b06c-8104c0d0a4d9,ja
IDFDZFneQX25MacppdtBEA,newborntown,p1839_570212_5_8_1509_1860,install,1.4,133.91.253.102,79fa613a-42c3-4b54-80e5-7318f838467e,1558577645,2019-05-23 10:14:05,1558577684,2019-05-23 10:14:44,1558577715,44da582c-bfe3-4f41-ab7e-bee226a26742__pspm,http://pspm.pingstart.com/api/v4/postback?from=1706&clickid=44da582c-bfe3-4f41-ab7e-bee226a26742__pspm,idfa_79fa613a-42c3-4b54-80e5-7318f838467e,ja
IDFDZFneQX25MacppdtBEA,newborntown,p1839_570212_5_8_1509_1860,install,1.4,49.97.94.228,3f38ccb0-a39a-4e15-89a2-e6dd818d09b1,1558577580,2019-05-23 10:13:00,1558577612,2019-05-23 10:13:32,1558577642,54cbb74e-acc2-42b4-945f-aebf855e1fa9__pspm,http://pspm.pingstart.com/api/v4/postback?from=1706&clickid=54cbb74e-acc2-42b4-945f-aebf855e1fa9__pspm,idfa_3f38ccb0-a39a-4e15-89a2-e6dd818d09b1,ja
IDFDZFneQX25MacppdtBEA,newborntown,p1839_570212_5_8_1509_1860,install,1.4,106.159.235.190,70b8be2a-7855-4401-89de-8815668b545f,1558577482,2019-05-23 10:11:22,1558577529,2019-05-23 10:12:09,1558577561,66121083-5b90-40d0-9b6d-a3a74cc6db10__pspm,http://pspm.pingstart.com/api/v4/postback?from=1706&clickid=66121083-5b90-40d0-9b6d-a3a74cc6db10__pspm,idfa_70b8be2a-7855-4401-89de-8815668b545f,ja
IDFDZFneQX25MacppdtBEA,newborntown,p1839_570212_5_8_1509_1860,install,1.4,39.110.172.205,e92410cf-fb72-4cea-9f42-ff9ecfed230c,1558577689,2019-05-23 10:14:49,1558577719,2019-05-23 10:15:19,1558577754,affaaa1e-ef3e-4457-b65b-dd1e3f7511d3__pspm,http://pspm.pingstart.com/api/v4/postback?from=1706&clickid=affaaa1e-ef3e-4457-b65b-dd1e3f7511d3__pspm,idfa_e92410cf-fb72-4cea-9f42-ff9ecfed230c,ja
IDFDZFneQX25MacppdtBEA,newborntown,p1839_570212_5_8_1509_1860,install,1.4,126.205.64.240,70dcb389-877d-41ed-872f-068f648c651e,1558577535,2019-05-23 10:12:15,1558577782,2019-05-23 10:16:22,1558577813,91dc66a3-1527-4601-86da-fcec46d78ff4__pspm,http://pspm.pingstart.com/api/v4/postback?from=1706&clickid=91dc66a3-1527-4601-86da-fcec46d78ff4__pspm,idfa_70dcb389-877d-41ed-872f-068f648c651e,ja
IDFDZFneQX25MacppdtBEA,newborntown,p1839_570212_5_8_1509_1860,install,1.4,106.132.84.151,6b8a9d05-57da-49ff-b479-a7dd655cf13f,1558577472,2019-05-23 10:11:12,1558577508,2019-05-23 10:11:48,1558577539,1f979d13-1257-40ff-881d-aacc5d6bb3f3__pspm,http://pspm.pingstart.com/api/v4/postback?from=1706&clickid=1f979d13-1257-40ff-881d-aacc5d6bb3f3__pspm,idfa_6b8a9d05-57da-49ff-b479-a7dd655cf13f,ja
IDFDZFneQX25MacppdtBEA,newborntown,p1839_570212_5_8_1509_1860,install,1.4,153.137.82.143,bed1aa26-1d72-41e2-a184-6d07066dec8b,1558577555,2019-05-23 10:12:35,1558577930,2019-05-23 10:18:50,1558577961,87b73403-6133-4ab8-aa1a-a6a1747d556a__pspm,http://pspm.pingstart.com/api/v4/postback?from=1706&clickid=87b73403-6133-4ab8-aa1a-a6a1747d556a__pspm,idfa_bed1aa26-1d72-41e2-a184-6d07066dec8b,ja
IDFDZFneQX25MacppdtBEA,newborntown,p1839_570212_5_8_1509_1860,install,1.4,49.97.93.245,93d62fc2-2b03-475b-8e12-bcf3cebd72e1,1558577440,2019-05-23 10:10:40,1558577484,2019-05-23 10:11:24,1558577516,1185ef3f-705a-4cb2-bafe-88545c739482__pspm,http://pspm.pingstart.com/api/v4/postback?from=1706&clickid=1185ef3f-705a-4cb2-bafe-88545c739482__pspm,idfa_93d62fc2-2b03-475b-8e12-bcf3cebd72e1,ja
IDFDZFneQX25MacppdtBEA,newborntown,p1839_570212_5_8_1509_1860,install,1.4,126.133.245.243,8ee36ab9-d7ea-452d-85db-e2ad9890a239,1558577680,2019-05-23 10:14:40,1558577714,2019-05-23 10:15:14,1558577745,b3337efc-f024-4584-bace-fd5a2f231adf__pspm,http://pspm.pingstart.com/api/v4/postback?from=1706&clickid=b3337efc-f024-4584-bace-fd5a2f231adf__pspm,idfa_8ee36ab9-d7ea-452d-85db-e2ad9890a239,ja
IDFDZFneQX25MacppdtBEA,newborntown,p1839_570212_5_8_1509_1860,install,1.4,1.75.237.226,ff57359c-912f-45e1-9e36-baa1f4888d6c,1558577614,2019-05-23 10:13:34,1558577650,2019-05-23 10:14:10,1558577681,105ba771-1f6d-440c-8c94-58d47fc5710e__pspm,http://pspm.pingstart.com/api/v4/postback?from=1706&clickid=105ba771-1f6d-440c-8c94-58d47fc5710e__pspm,idfa_ff57359c-912f-45e1-9e36-baa1f4888d6c,ja
IDFDZFneQX25MacppdtBEA,newborntown,p1839_570212_5_8_1509_1860,install,1.4,118.158.168.54,71605e01-0e82-4305-b63a-f7b61169b49f,1558577497,2019-05-23 10:11:37,1558577630,2019-05-23 10:13:50,1558577661,744b7aa0-91e9-4803-8228-8c39ad13de17__pspm,http://pspm.pingstart.com/api/v4/postback?from=1706&clickid=744b7aa0-91e9-4803-8228-8c39ad13de17__pspm,idfa_71605e01-0e82-4305-b63a-f7b61169b49f,ja
IDFDZFneQX25MacppdtBEA,newborntown,p1839_570212_5_8_1509_1860,install,1.4,157.16.90.57,b1dad443-1c64-47c8-8de0-0af6c556af68,1558577649,2019-05-23 10:14:09,1558577812,2019-05-23 10:16:52,1558577843,ac79cfee-6879-403b-a162-1d20c6addd67__pspm,http://pspm.pingstart.com/api/v4/postback?from=1706&clickid=ac79cfee-6879-403b-a162-1d20c6addd67__pspm,idfa_b1dad443-1c64-47c8-8de0-0af6c556af68,ja
IDFDZFneQX25MacppdtBEA,newborntown,p1839_570212_5_8_1509_1860,install,1.4,14.13.226.34,3ddaf064-ad40-415f-993f-37705d089f93,1558577528,2019-05-23 10:12:08,1558577566,2019-05-23 10:12:46,1558577597,c540171a-4fb8-4134-bb98-e9cabac17b8d__pspm,http://pspm.pingstart.com/api/v4/postback?from=1706&clickid=c540171a-4fb8-4134-bb98-e9cabac17b8d__pspm,idfa_3ddaf064-ad40-415f-993f-37705d089f93,ja
IDFDZFneQX25MacppdtBEA,newborntown,p1839_570212_5_8_1509_1860,install,1.4,202.176.19.243,3c1d02c5-ee18-4db0-b9e7-477376f674b7,1558577514,2019-05-23 10:11:54,1558577554,2019-05-23 10:12:34,1558577586,a96ad6ed-3109-4860-9814-f34b1a89e0ca__pspm,http://pspm.pingstart.com/api/v4/postback?from=1706&clickid=a96ad6ed-3109-4860-9814-f34b1a89e0ca__pspm,idfa_3c1d02c5-ee18-4db0-b9e7-477376f674b7,ja
IDFDZFneQX25MacppdtBEA,newborntown,p1839_570212_5_8_1509_1860,install,1.4,126.211.1.47,116168b2-73f3-443c-b874-255a0d2200be,1558577437,2019-05-23 10:10:37,1558577474,2019-05-23 10:11:14,1558577505,a823b001-b682-4a0c-b99c-386c2c110040__pspm,http://pspm.pingstart.com/api/v4/postback?from=1706&clickid=a823b001-b682-4a0c-b99c-386c2c110040__pspm,idfa_116168b2-73f3-443c-b874-255a0d2200be,ja
