cid,partner_id,channel_id,action_id,cpi,ip,idfa,click time,click datetime,install time,install datetime,postback time,click id,postback url,unique user id
McnCP3NBSsS4-4rpv3-c8A,newborntown,p1789_721-10501721,Of81qbvWSPKfViI7CdMfcw,3.0,,F8C4B8E7-3134-42E9-9E01-153AEB0E92D3,1556668519,2019-05-01 07:55:19,1556668557,2019-05-01 07:55:57,1556668557,7e52c0e1-daec-4c1d-94bc-e0666bc94539__pspm,http://pspm.pingstart.com/api/v4/postback?from=1706&clickid=7e52c0e1-daec-4c1d-94bc-e0666bc94539__pspm,idfa_F8C4B8E7-3134-42E9-9E01-153AEB0E92D3,ja
McnCP3NBSsS4-4rpv3-c8A,newborntown,p1789_721-10501721,Of81qbvWSPKfViI7CdMfcw,3.0,,37AFC97A-EB8C-4562-B02B-31DBCE86EFE8,1556668486,2019-05-01 07:54:46,1556668508,2019-05-01 07:55:08,1556668508,64499c60-b7f1-4cb7-a91e-5f1145d6a510__pspm,http://pspm.pingstart.com/api/v4/postback?from=1706&clickid=64499c60-b7f1-4cb7-a91e-5f1145d6a510__pspm,idfa_37AFC97A-EB8C-4562-B02B-31DBCE86EFE8,ja
McnCP3NBSsS4-4rpv3-c8A,newborntown,p1789_921-2161965,Of81qbvWSPKfViI7CdMfcw,2.5,,FA6F9B80-B866-4B3F-BAFF-446FF28D08BC,1558749317,2019-05-25 09:55:17,1558749391,2019-05-25 09:56:31,1558749391,26a71b98-f04e-41ec-bcc3-603581110082__pspm,http://pspm.pingstart.com/api/v4/postback?from=1706&clickid=26a71b98-f04e-41ec-bcc3-603581110082__pspm,idfa_FA6F9B80-B866-4B3F-BAFF-446FF28D08BC,ja
McnCP3NBSsS4-4rpv3-c8A,newborntown,p1789_966-1048_103107_10250697,Of81qbvWSPKfViI7CdMfcw,2.8,,24B7608D-AD06-4F91-8875-E4BC2944A048,1558416531,2019-05-21 13:28:51,1558421010,2019-05-21 14:43:30,1558421010,e457babf-a518-4e74-80ea-16e2a0859d4a__pspm,http://pspm.pingstart.com/api/v4/postback?from=1706&clickid=e457babf-a518-4e74-80ea-16e2a0859d4a__pspm,idfa_24B7608D-AD06-4F91-8875-E4BC2944A048,ja
McnCP3NBSsS4-4rpv3-c8A,newborntown,p1789_966-1053_1000011_{channel_id},Of81qbvWSPKfViI7CdMfcw,3.0,,A39048B2-49A3-4F5A-9529-F353B7E30B05,1557993339,2019-05-16 15:55:39,1558130890,2019-05-18 06:08:10,1558130890,b8d62fd3-f229-4c60-b655-2a8b4e4c6bad__pspm,http://pspm.pingstart.com/api/v4/postback?from=1706&clickid=b8d62fd3-f229-4c60-b655-2a8b4e4c6bad__pspm,idfa_A39048B2-49A3-4F5A-9529-F353B7E30B05,ja
McnCP3NBSsS4-4rpv3-c8A,newborntown,p1789_921-2161965,Of81qbvWSPKfViI7CdMfcw,2.5,,62B99A9D-FFD7-4113-8300-29CAD7F30FE1,1558750162,2019-05-25 10:09:22,1558750234,2019-05-25 10:10:34,1558750234,f021a434-853c-4c69-85d5-4b6d9b1e1f9f__pspm,http://pspm.pingstart.com/api/v4/postback?from=1706&clickid=f021a434-853c-4c69-85d5-4b6d9b1e1f9f__pspm,idfa_62B99A9D-FFD7-4113-8300-29CAD7F30FE1,ja
McnCP3NBSsS4-4rpv3-c8A,newborntown,p1789_944-611925_40203,Of81qbvWSPKfViI7CdMfcw,3.0,,974B2F1A-E8A3-4A03-8CE5-9F44EEA00653,1556697322,2019-05-01 15:55:22,1556777823,2019-05-02 14:17:03,1556777823,bf13f80c-8455-49c4-9da3-10ab13511aa0__pspm,http://pspm.pingstart.com/api/v4/postback?from=1706&clickid=bf13f80c-8455-49c4-9da3-10ab13511aa0__pspm,idfa_974B2F1A-E8A3-4A03-8CE5-9F44EEA00653,ja
McnCP3NBSsS4-4rpv3-c8A,newborntown,p1789_944-611925_40203,Of81qbvWSPKfViI7CdMfcw,3.0,,B0744773-7EE0-4B15-BD69-C2B3D2761087,1556696642,2019-05-01 15:44:02,1556754339,2019-05-02 07:45:39,1556754339,b684aed5-e5fc-4bdb-a38f-7ba2545ff97a__pspm,http://pspm.pingstart.com/api/v4/postback?from=1706&clickid=b684aed5-e5fc-4bdb-a38f-7ba2545ff97a__pspm,idfa_B0744773-7EE0-4B15-BD69-C2B3D2761087,ja
McnCP3NBSsS4-4rpv3-c8A,newborntown,p1789_966-1048_103107_84662337,Of81qbvWSPKfViI7CdMfcw,2.8,,D7191CFB-4D20-4041-ABBC-60A85F80BC69,1558420126,2019-05-21 14:28:46,1558425715,2019-05-21 16:01:55,1558425715,6e2fc223-2f8b-450f-b40d-fe7a3fd24124__pspm,http://pspm.pingstart.com/api/v4/postback?from=1706&clickid=6e2fc223-2f8b-450f-b40d-fe7a3fd24124__pspm,idfa_D7191CFB-4D20-4041-ABBC-60A85F80BC69,ja
McnCP3NBSsS4-4rpv3-c8A,newborntown,p1789_944-611925_40203,Of81qbvWSPKfViI7CdMfcw,3.0,,DC32F366-6924-41FA-985E-D7935181E4BF,1556697020,2019-05-01 15:50:20,1556880331,2019-05-03 18:45:31,1556880331,3c81b5a4-c75f-49c7-af65-28a69af007e3__pspm,http://pspm.pingstart.com/api/v4/postback?from=1706&clickid=3c81b5a4-c75f-49c7-af65-28a69af007e3__pspm,idfa_DC32F366-6924-41FA-985E-D7935181E4BF,ja
McnCP3NBSsS4-4rpv3-c8A,newborntown,p1789_921-2161965,Of81qbvWSPKfViI7CdMfcw,2.5,,216DC1B7-315D-4368-87ED-516973CDB582,1558749469,2019-05-25 09:57:49,1558749541,2019-05-25 09:59:01,1558749541,f26a3273-15ba-4e19-a248-e03345c1adf6__pspm,http://pspm.pingstart.com/api/v4/postback?from=1706&clickid=f26a3273-15ba-4e19-a248-e03345c1adf6__pspm,idfa_216DC1B7-315D-4368-87ED-516973CDB582,ja
McnCP3NBSsS4-4rpv3-c8A,newborntown,p1789_944-188144,Of81qbvWSPKfViI7CdMfcw,3.0,,9D72D4BF-9241-4B00-905D-80EF23AD4B20,1557445197,2019-05-10 07:39:57,1557445236,2019-05-10 07:40:36,1557445236,51817f2b-ca97-47ca-b49f-416c8a2d15b9__pspm,http://pspm.pingstart.com/api/v4/postback?from=1706&clickid=51817f2b-ca97-47ca-b49f-416c8a2d15b9__pspm,idfa_9D72D4BF-9241-4B00-905D-80EF23AD4B20,ja
McnCP3NBSsS4-4rpv3-c8A,newborntown,p1789_721-10501721,Of81qbvWSPKfViI7CdMfcw,3.0,,33E6639F-A6CD-4B2A-BC4A-654157BFEDE7,1556670313,2019-05-01 08:25:13,1556670367,2019-05-01 08:26:07,1556670367,4f48ff74-0c3c-4cfc-95e7-17d5493de915__pspm,http://pspm.pingstart.com/api/v4/postback?from=1706&clickid=4f48ff74-0c3c-4cfc-95e7-17d5493de915__pspm,idfa_33E6639F-A6CD-4B2A-BC4A-654157BFEDE7,ja
McnCP3NBSsS4-4rpv3-c8A,newborntown,p1789_944-611925_40203,Of81qbvWSPKfViI7CdMfcw,3.0,,37100A01-B657-4498-A1BD-3167825E5820,1556695932,2019-05-01 15:32:12,1556794490,2019-05-02 18:54:50,1556794490,1b4e11e4-d76b-4c03-855b-dfea81701c90__pspm,http://pspm.pingstart.com/api/v4/postback?from=1706&clickid=1b4e11e4-d76b-4c03-855b-dfea81701c90__pspm,idfa_37100A01-B657-4498-A1BD-3167825E5820,ja
McnCP3NBSsS4-4rpv3-c8A,newborntown,p1789_721-10511721,Of81qbvWSPKfViI7CdMfcw,3.0,,755AB51A-6FCB-4081-A5CE-3CB68BE02EA0,1557571229,2019-05-11 18:40:29,1557571341,2019-05-11 18:42:21,1557571341,2bb447bb-80e9-442d-b9e5-141dbb11179c__pspm,http://pspm.pingstart.com/api/v4/postback?from=1706&clickid=2bb447bb-80e9-442d-b9e5-141dbb11179c__pspm,idfa_755AB51A-6FCB-4081-A5CE-3CB68BE02EA0,ja
McnCP3NBSsS4-4rpv3-c8A,newborntown,p1789_944-611925_40203,Of81qbvWSPKfViI7CdMfcw,3.0,,0B322DA5-C467-4BE9-BEF6-A83C04BAD8F5,1556605158,2019-04-30 14:19:18,1556643031,2019-05-01 00:50:31,1556643031,051cafdc-eff8-448b-a2c7-e030ed09cb38__pspm,http://pspm.pingstart.com/api/v4/postback?from=1706&clickid=051cafdc-eff8-448b-a2c7-e030ed09cb38__pspm,idfa_0B322DA5-C467-4BE9-BEF6-A83C04BAD8F5,ja
McnCP3NBSsS4-4rpv3-c8A,newborntown,p1789_921-2161965,Of81qbvWSPKfViI7CdMfcw,2.5,,67EBAE11-4009-4009-9EE3-1DBFC6973611,1558749829,2019-05-25 10:03:49,1558749905,2019-05-25 10:05:05,1558749905,0ff26061-0fda-4a8b-9f96-15e82ae7967b__pspm,http://pspm.pingstart.com/api/v4/postback?from=1706&clickid=0ff26061-0fda-4a8b-9f96-15e82ae7967b__pspm,idfa_67EBAE11-4009-4009-9EE3-1DBFC6973611,ja
McnCP3NBSsS4-4rpv3-c8A,newborntown,p1789_966-1048_103107_84662337,Of81qbvWSPKfViI7CdMfcw,3.0,,3D960770-B906-432F-95AF-D843ACAC4996,1558008259,2019-05-16 20:04:19,1558175448,2019-05-18 18:30:48,1558175448,3fe7ca3b-6de4-44b7-a39b-061bb1bc8c03__pspm,http://pspm.pingstart.com/api/v4/postback?from=1706&clickid=3fe7ca3b-6de4-44b7-a39b-061bb1bc8c03__pspm,idfa_3D960770-B906-432F-95AF-D843ACAC4996,ja
McnCP3NBSsS4-4rpv3-c8A,newborntown,p1789_921-2161965,Of81qbvWSPKfViI7CdMfcw,2.5,,DF466264-F922-472D-8EDB-089341761A50,1558750122,2019-05-25 10:08:42,1558750200,2019-05-25 10:10:00,1558750200,b99651df-cdfd-4045-80b5-c3cb61bf2d0f__pspm,http://pspm.pingstart.com/api/v4/postback?from=1706&clickid=b99651df-cdfd-4045-80b5-c3cb61bf2d0f__pspm,idfa_DF466264-F922-472D-8EDB-089341761A50,ja
McnCP3NBSsS4-4rpv3-c8A,newborntown,p1789_921-2161965,Of81qbvWSPKfViI7CdMfcw,2.5,,01B9DBF7-761B-4982-A618-7140BB707CAC,1558749968,2019-05-25 10:06:08,1558750049,2019-05-25 10:07:29,1558750049,77b9b32f-d6a3-4289-b64e-03c8a7ad4848__pspm,http://pspm.pingstart.com/api/v4/postback?from=1706&clickid=77b9b32f-d6a3-4289-b64e-03c8a7ad4848__pspm,idfa_01B9DBF7-761B-4982-A618-7140BB707CAC,ja
McnCP3NBSsS4-4rpv3-c8A,newborntown,p1789_944-188144,Of81qbvWSPKfViI7CdMfcw,3.0,,318BB954-30AC-4FA8-833B-9457279C1545,1557473402,2019-05-10 15:30:02,1557473421,2019-05-10 15:30:21,1557473421,009590b5-68d8-4403-8d39-126fba04e9b6__pspm,http://pspm.pingstart.com/api/v4/postback?from=1706&clickid=009590b5-68d8-4403-8d39-126fba04e9b6__pspm,idfa_318BB954-30AC-4FA8-833B-9457279C1545,ja
McnCP3NBSsS4-4rpv3-c8A,newborntown,p1789_921-2161965,Of81qbvWSPKfViI7CdMfcw,2.5,,912A7CE5-E08E-4D3E-8533-08171C555103,1558750026,2019-05-25 10:07:06,1558750096,2019-05-25 10:08:16,1558750096,c592a1e2-b788-4bf3-8033-e1c0eb96b01c__pspm,http://pspm.pingstart.com/api/v4/postback?from=1706&clickid=c592a1e2-b788-4bf3-8033-e1c0eb96b01c__pspm,idfa_912A7CE5-E08E-4D3E-8533-08171C555103,ja
McnCP3NBSsS4-4rpv3-c8A,newborntown,p1789_721-10430721,Of81qbvWSPKfViI7CdMfcw,3.0,,8FF9D49B-1054-4E1B-858B-DF80FDBC928C,1556597152,2019-04-30 12:05:52,1556889434,2019-05-03 21:17:14,1556889434,438d28c8-feed-4d01-87c0-d9e75ca16b2e__pspm,http://pspm.pingstart.com/api/v4/postback?from=1706&clickid=438d28c8-feed-4d01-87c0-d9e75ca16b2e__pspm,idfa_8FF9D49B-1054-4E1B-858B-DF80FDBC928C,ja
McnCP3NBSsS4-4rpv3-c8A,newborntown,p1789_511-szll10000,Of81qbvWSPKfViI7CdMfcw,2.5,,9267BD08-38EA-40ED-87FB-0F1D06FE0E48,1558748343,2019-05-25 09:39:03,1558748361,2019-05-25 09:39:21,1558748361,ab9efeab-f372-4097-9a1b-e2a161e9af9e__pspm,http://pspm.pingstart.com/api/v4/postback?from=1706&clickid=ab9efeab-f372-4097-9a1b-e2a161e9af9e__pspm,idfa_9267BD08-38EA-40ED-87FB-0F1D06FE0E48,ja
McnCP3NBSsS4-4rpv3-c8A,newborntown,p1789_944-611925_40203,Of81qbvWSPKfViI7CdMfcw,3.0,,2BCBCC7C-10AC-4141-9693-321EE8D92E94,1556696744,2019-05-01 15:45:44,1556944849,2019-05-04 12:40:49,1556944849,2a49b204-e1a7-4d38-b82b-c70693c525b5__pspm,http://pspm.pingstart.com/api/v4/postback?from=1706&clickid=2a49b204-e1a7-4d38-b82b-c70693c525b5__pspm,idfa_2BCBCC7C-10AC-4141-9693-321EE8D92E94,ja
McnCP3NBSsS4-4rpv3-c8A,newborntown,p1789_921-2161965,Of81qbvWSPKfViI7CdMfcw,2.5,,D030323D-600A-4F7A-AE7B-44DADE7CBCAF,1558749267,2019-05-25 09:54:27,1558749342,2019-05-25 09:55:42,1558749342,8fc3f580-f148-4248-b2c9-c49f1cc5411e__pspm,http://pspm.pingstart.com/api/v4/postback?from=1706&clickid=8fc3f580-f148-4248-b2c9-c49f1cc5411e__pspm,idfa_D030323D-600A-4F7A-AE7B-44DADE7CBCAF,ja
McnCP3NBSsS4-4rpv3-c8A,newborntown,p1789_966-1037_2144_22386438,Of81qbvWSPKfViI7CdMfcw,2.5,,E9BCEF6C-705B-4634-9E18-625988608E5D,1558417287,2019-05-21 13:41:27,1558610484,2019-05-23 19:21:24,1558610484,014fecf5-2665-4b80-a54c-414024b84527__pspm,http://pspm.pingstart.com/api/v4/postback?from=1706&clickid=014fecf5-2665-4b80-a54c-414024b84527__pspm,idfa_E9BCEF6C-705B-4634-9E18-625988608E5D,ja
McnCP3NBSsS4-4rpv3-c8A,newborntown,p1789_511-szll10000,Of81qbvWSPKfViI7CdMfcw,3.0,,B0AAB46A-24FC-43AE-9B3B-FDCEE195CBB3,1556703755,2019-05-01 17:42:35,1556703797,2019-05-01 17:43:17,1556703797,9696ba15-2a6a-4448-ac17-32c698aa0628__pspm,http://pspm.pingstart.com/api/v4/postback?from=1706&clickid=9696ba15-2a6a-4448-ac17-32c698aa0628__pspm,idfa_B0AAB46A-24FC-43AE-9B3B-FDCEE195CBB3,ja
McnCP3NBSsS4-4rpv3-c8A,newborntown,p1789_966-1048_103107_84662337,Of81qbvWSPKfViI7CdMfcw,3.0,,D1E8F3D5-646C-4523-B25A-36A314328CCB,1558005459,2019-05-16 19:17:39,1558227391,2019-05-19 08:56:31,1558227391,8284bfc1-e27a-41cc-9e0e-4bb9efa90e9d__pspm,http://pspm.pingstart.com/api/v4/postback?from=1706&clickid=8284bfc1-e27a-41cc-9e0e-4bb9efa90e9d__pspm,idfa_D1E8F3D5-646C-4523-B25A-36A314328CCB,ja
McnCP3NBSsS4-4rpv3-c8A,newborntown,p1789_721-10510721,Of81qbvWSPKfViI7CdMfcw,3.0,,8311B831-0B0B-4297-934D-F05C9633B9E2,1557455501,2019-05-10 10:31:41,1557455627,2019-05-10 10:33:47,1557455627,82ebc349-9446-4a43-8b68-bc61657e701d__pspm,http://pspm.pingstart.com/api/v4/postback?from=1706&clickid=82ebc349-9446-4a43-8b68-bc61657e701d__pspm,idfa_8311B831-0B0B-4297-934D-F05C9633B9E2,ja
McnCP3NBSsS4-4rpv3-c8A,newborntown,p1789_921-2161965,Of81qbvWSPKfViI7CdMfcw,2.5,,E3FF525E-2B11-4372-B917-F029912DF451,1558749724,2019-05-25 10:02:04,1558749794,2019-05-25 10:03:14,1558749794,de930506-b125-4933-874d-71221f91ae5e__pspm,http://pspm.pingstart.com/api/v4/postback?from=1706&clickid=de930506-b125-4933-874d-71221f91ae5e__pspm,idfa_E3FF525E-2B11-4372-B917-F029912DF451,ja
McnCP3NBSsS4-4rpv3-c8A,newborntown,p1789_944-611925_40203,Of81qbvWSPKfViI7CdMfcw,3.0,,3B8816F4-836D-40B3-9865-FF20C7348336,1556696293,2019-05-01 15:38:13,1556947803,2019-05-04 13:30:03,1556947803,00fa7947-f456-4b55-8562-6766267179a7__pspm,http://pspm.pingstart.com/api/v4/postback?from=1706&clickid=00fa7947-f456-4b55-8562-6766267179a7__pspm,idfa_3B8816F4-836D-40B3-9865-FF20C7348336,ja
McnCP3NBSsS4-4rpv3-c8A,newborntown,p1789_966-1048_103107_84662337,Of81qbvWSPKfViI7CdMfcw,3.0,,7EBEF21C-6A98-4154-9885-09A0533BEBDC,1557992976,2019-05-16 15:49:36,1558194347,2019-05-18 23:45:47,1558194347,a66a6149-2854-497d-9630-6cc6fc4b7169__pspm,http://pspm.pingstart.com/api/v4/postback?from=1706&clickid=a66a6149-2854-497d-9630-6cc6fc4b7169__pspm,idfa_7EBEF21C-6A98-4154-9885-09A0533BEBDC,ja
McnCP3NBSsS4-4rpv3-c8A,newborntown,p1789_921-2161965,Of81qbvWSPKfViI7CdMfcw,2.5,,6A3A8895-909F-4195-B729-318BAD36AA49,1558749466,2019-05-25 09:57:46,1558749537,2019-05-25 09:58:57,1558749537,e53908d0-c6e9-4076-9312-1bb636e0380d__pspm,http://pspm.pingstart.com/api/v4/postback?from=1706&clickid=e53908d0-c6e9-4076-9312-1bb636e0380d__pspm,idfa_6A3A8895-909F-4195-B729-318BAD36AA49,ja
McnCP3NBSsS4-4rpv3-c8A,newborntown,p1789_921-2161965,Of81qbvWSPKfViI7CdMfcw,2.5,,CFAD63F1-EBF2-4A01-B522-7336BAF96018,1558749479,2019-05-25 09:57:59,1558749556,2019-05-25 09:59:16,1558749556,78af219e-2891-4183-877d-6fc9911481c6__pspm,http://pspm.pingstart.com/api/v4/postback?from=1706&clickid=78af219e-2891-4183-877d-6fc9911481c6__pspm,idfa_CFAD63F1-EBF2-4A01-B522-7336BAF96018,ja
McnCP3NBSsS4-4rpv3-c8A,newborntown,p1789_721-10510721,Of81qbvWSPKfViI7CdMfcw,3.0,,EC87B534-EBD5-40A6-A14C-62FC8AD99F5E,1557463206,2019-05-10 12:40:06,1557463352,2019-05-10 12:42:32,1557463352,569b26e4-17ee-4965-817e-75859aa4fd14__pspm,http://pspm.pingstart.com/api/v4/postback?from=1706&clickid=569b26e4-17ee-4965-817e-75859aa4fd14__pspm,idfa_EC87B534-EBD5-40A6-A14C-62FC8AD99F5E,ja
McnCP3NBSsS4-4rpv3-c8A,newborntown,p1789_511-szll10000,Of81qbvWSPKfViI7CdMfcw,3.0,,F009CDC1-3429-4ED1-9782-736E5D3C9852,1557051687,2019-05-05 18:21:27,1557052023,2019-05-05 18:27:03,1557052023,27866fa2-2320-4b87-8357-26ace2670db5__pspm,http://pspm.pingstart.com/api/v4/postback?from=1706&clickid=27866fa2-2320-4b87-8357-26ace2670db5__pspm,idfa_F009CDC1-3429-4ED1-9782-736E5D3C9852,ja
McnCP3NBSsS4-4rpv3-c8A,newborntown,p1789_966-1048_103107_10250697,Of81qbvWSPKfViI7CdMfcw,3.0,,32824F11-C9DF-7E60-FB1E-8E83621662C1,1557992229,2019-05-16 15:37:09,1557992824,2019-05-16 15:47:04,1557992824,44ca842c-b54f-4160-be54-2523dffceae5__pspm,http://pspm.pingstart.com/api/v4/postback?from=1706&clickid=44ca842c-b54f-4160-be54-2523dffceae5__pspm,idfa_32824F11-C9DF-7E60-FB1E-8E83621662C1,ja
McnCP3NBSsS4-4rpv3-c8A,newborntown,p1789_921-2161965,Of81qbvWSPKfViI7CdMfcw,2.5,,E2451927-6DCF-4338-9983-0240A80757E7,1558750275,2019-05-25 10:11:15,1558750355,2019-05-25 10:12:35,1558750355,43f72345-9265-4358-a444-fa8c3af12b34__pspm,http://pspm.pingstart.com/api/v4/postback?from=1706&clickid=43f72345-9265-4358-a444-fa8c3af12b34__pspm,idfa_E2451927-6DCF-4338-9983-0240A80757E7,ja
McnCP3NBSsS4-4rpv3-c8A,newborntown,p1789_921-1200634,Of81qbvWSPKfViI7CdMfcw,2.5,,50719917-0F5A-4E49-96B8-49F5F3CF45B7,1558750140,2019-05-25 10:09:00,1558750287,2019-05-25 10:11:27,1558750287,86b752b0-5d1d-43f9-9802-a9d7a943e80a__pspm,http://pspm.pingstart.com/api/v4/postback?from=1706&clickid=86b752b0-5d1d-43f9-9802-a9d7a943e80a__pspm,idfa_50719917-0F5A-4E49-96B8-49F5F3CF45B7,ja
McnCP3NBSsS4-4rpv3-c8A,newborntown,p1789_511-szll10000,Of81qbvWSPKfViI7CdMfcw,3.0,,B830BDA8-FC68-406A-8D14-2F1D6A0489C6,1556731590,2019-05-02 01:26:30,1556731637,2019-05-02 01:27:17,1556731637,9dc09903-94b4-4597-984a-cca057421fb9__pspm,http://pspm.pingstart.com/api/v4/postback?from=1706&clickid=9dc09903-94b4-4597-984a-cca057421fb9__pspm,idfa_B830BDA8-FC68-406A-8D14-2F1D6A0489C6,ja
