cid,partner_id,channel_id,action_id,cpi,ip,idfa,click time,click datetime,install time,install datetime,postback time,click id,postback url,unique user id
55RCoN7iR5ypqpLcB2NQHA,newborntown,p1789_712-137_336,Of81qbvWSPKfViI7CdMfcw,3.2,,F7F9B094-411D-4F65-83E4-28223332ABB6,1556924999,2019-05-04 07:09:59,1556925105,2019-05-04 07:11:45,1556925105,876302fd-951a-4426-aebf-54b119081933__pspm,http://pspm.pingstart.com/api/v4/postback?from=1706&clickid=876302fd-951a-4426-aebf-54b119081933__pspm,idfa_F7F9B094-411D-4F65-83E4-28223332ABB6,ja
55RCoN7iR5ypqpLcB2NQHA,newborntown,p1789_712-137_336,Of81qbvWSPKfViI7CdMfcw,3.2,,069225CC-57AB-4D9A-BBB6-48B9627ACBD4,1556924559,2019-05-04 07:02:39,1556924715,2019-05-04 07:05:15,1556924715,7c42bbc2-6034-49f9-9209-146916d2af63__pspm,http://pspm.pingstart.com/api/v4/postback?from=1706&clickid=7c42bbc2-6034-49f9-9209-146916d2af63__pspm,idfa_069225CC-57AB-4D9A-BBB6-48B9627ACBD4,ja
55RCoN7iR5ypqpLcB2NQHA,newborntown,p1789_712-137_336,Of81qbvWSPKfViI7CdMfcw,3.2,,79ADC532-95D9-42AD-8433-C0132D64B24E,1556867387,2019-05-03 15:09:47,1556867505,2019-05-03 15:11:45,1556867505,85f05d7e-9557-40e4-8cc4-e45de08c8bc0__pspm,http://pspm.pingstart.com/api/v4/postback?from=1706&clickid=85f05d7e-9557-40e4-8cc4-e45de08c8bc0__pspm,idfa_79ADC532-95D9-42AD-8433-C0132D64B24E,ja
55RCoN7iR5ypqpLcB2NQHA,newborntown,p1789_712-137_336,Of81qbvWSPKfViI7CdMfcw,3.2,,1F406FDA-6505-43E6-BDB0-908B7F6676B6,1556924991,2019-05-04 07:09:51,1556925148,2019-05-04 07:12:28,1556925148,1f596832-d5e4-48e0-902e-d95d64173923__pspm,http://pspm.pingstart.com/api/v4/postback?from=1706&clickid=1f596832-d5e4-48e0-902e-d95d64173923__pspm,idfa_1F406FDA-6505-43E6-BDB0-908B7F6676B6,ja
55RCoN7iR5ypqpLcB2NQHA,newborntown,p1789_712-137_336,Of81qbvWSPKfViI7CdMfcw,3.2,,32D09D44-5A5C-47D7-B6A3-25857BAC0651,1556924588,2019-05-04 07:03:08,1556924700,2019-05-04 07:05:00,1556924700,021e0c0e-6a5f-457c-a0c1-641adffa37e9__pspm,http://pspm.pingstart.com/api/v4/postback?from=1706&clickid=021e0c0e-6a5f-457c-a0c1-641adffa37e9__pspm,idfa_32D09D44-5A5C-47D7-B6A3-25857BAC0651,ja
55RCoN7iR5ypqpLcB2NQHA,newborntown,p1789_712-137_336,Of81qbvWSPKfViI7CdMfcw,3.2,,9F8BA358-D340-4FE6-A2E0-00874A07F2AA,1556867384,2019-05-03 15:09:44,1556867526,2019-05-03 15:12:06,1556867526,20d44f08-b970-464d-b0a5-7f5aa6ad2d96__pspm,http://pspm.pingstart.com/api/v4/postback?from=1706&clickid=20d44f08-b970-464d-b0a5-7f5aa6ad2d96__pspm,idfa_9F8BA358-D340-4FE6-A2E0-00874A07F2AA,ja
55RCoN7iR5ypqpLcB2NQHA,newborntown,p1789_712-137_336,Of81qbvWSPKfViI7CdMfcw,3.2,,1248409A-FFFE-4121-ADAB-43453D097F24,1556924247,2019-05-04 06:57:27,1556924354,2019-05-04 06:59:14,1556924354,8456beeb-1fa1-49dd-947d-7ca9ccbabf65__pspm,http://pspm.pingstart.com/api/v4/postback?from=1706&clickid=8456beeb-1fa1-49dd-947d-7ca9ccbabf65__pspm,idfa_1248409A-FFFE-4121-ADAB-43453D097F24,ja
55RCoN7iR5ypqpLcB2NQHA,newborntown,p1789_712-137_336,Of81qbvWSPKfViI7CdMfcw,3.2,,B6F274CC-F4ED-4B97-80C6-0F72E7F8CF62,1556867434,2019-05-03 15:10:34,1556867576,2019-05-03 15:12:56,1556867576,4e3379ec-720e-49fa-acfa-1ed54958d1d5__pspm,http://pspm.pingstart.com/api/v4/postback?from=1706&clickid=4e3379ec-720e-49fa-acfa-1ed54958d1d5__pspm,idfa_B6F274CC-F4ED-4B97-80C6-0F72E7F8CF62,ja
55RCoN7iR5ypqpLcB2NQHA,newborntown,p1789_712-137_336,Of81qbvWSPKfViI7CdMfcw,3.2,,EF3AC013-B992-4045-97AE-C98C9784B4ED,1556911598,2019-05-04 03:26:38,1556911748,2019-05-04 03:29:08,1556911748,db79a3fe-4ebb-46e3-a651-f716757233ca__pspm,http://pspm.pingstart.com/api/v4/postback?from=1706&clickid=db79a3fe-4ebb-46e3-a651-f716757233ca__pspm,idfa_EF3AC013-B992-4045-97AE-C98C9784B4ED,ja
55RCoN7iR5ypqpLcB2NQHA,newborntown,p1789_712-137_336,Of81qbvWSPKfViI7CdMfcw,3.2,,AEB2DAB2-84DE-45CE-8EF5-8CA51925688D,1556924591,2019-05-04 07:03:11,1556924750,2019-05-04 07:05:50,1556924750,ec335313-88d9-4005-82c5-665486b21949__pspm,http://pspm.pingstart.com/api/v4/postback?from=1706&clickid=ec335313-88d9-4005-82c5-665486b21949__pspm,idfa_AEB2DAB2-84DE-45CE-8EF5-8CA51925688D,ja
55RCoN7iR5ypqpLcB2NQHA,newborntown,p1789_712-137_336,Of81qbvWSPKfViI7CdMfcw,3.2,,6686AF5D-77D5-421D-8079-73A318718597,1556929459,2019-05-04 08:24:19,1556929566,2019-05-04 08:26:06,1556929566,43fb2db1-aaa1-4059-b245-3aff0236356d__pspm,http://pspm.pingstart.com/api/v4/postback?from=1706&clickid=43fb2db1-aaa1-4059-b245-3aff0236356d__pspm,idfa_6686AF5D-77D5-421D-8079-73A318718597,ja
55RCoN7iR5ypqpLcB2NQHA,newborntown,p1789_712-137_336,Of81qbvWSPKfViI7CdMfcw,3.2,,B40B18A6-8E6F-4E6A-8AEF-44E55BE7E431,1556928604,2019-05-04 08:10:04,1556928746,2019-05-04 08:12:26,1556928746,ce8adc35-47e6-4673-8fe8-d78509d93bd6__pspm,http://pspm.pingstart.com/api/v4/postback?from=1706&clickid=ce8adc35-47e6-4673-8fe8-d78509d93bd6__pspm,idfa_B40B18A6-8E6F-4E6A-8AEF-44E55BE7E431,ja
55RCoN7iR5ypqpLcB2NQHA,newborntown,p1789_712-137_336,Of81qbvWSPKfViI7CdMfcw,3.2,,7F78A16A-25DD-4D4C-8361-96A391747460,1556866979,2019-05-03 15:02:59,1556867132,2019-05-03 15:05:32,1556867132,5c821d5a-c9e8-48c8-a0a8-3fc05df23040__pspm,http://pspm.pingstart.com/api/v4/postback?from=1706&clickid=5c821d5a-c9e8-48c8-a0a8-3fc05df23040__pspm,idfa_7F78A16A-25DD-4D4C-8361-96A391747460,ja
55RCoN7iR5ypqpLcB2NQHA,newborntown,p1789_712-137_336,Of81qbvWSPKfViI7CdMfcw,3.2,,8D8777A2-8DEF-4D30-A839-C89CC9E7F255,1556866532,2019-05-03 14:55:32,1556866676,2019-05-03 14:57:56,1556866676,db2aca60-30a1-4e51-90b7-67f3a4dab169__pspm,http://pspm.pingstart.com/api/v4/postback?from=1706&clickid=db2aca60-30a1-4e51-90b7-67f3a4dab169__pspm,idfa_8D8777A2-8DEF-4D30-A839-C89CC9E7F255,ja
55RCoN7iR5ypqpLcB2NQHA,newborntown,p1789_712-137_336,Of81qbvWSPKfViI7CdMfcw,3.2,,1319CB09-FC3D-4B16-B83D-8E05B5ABA984,1556924575,2019-05-04 07:02:55,1556924730,2019-05-04 07:05:30,1556924730,136442bc-971a-4610-92f1-76d842df30cb__pspm,http://pspm.pingstart.com/api/v4/postback?from=1706&clickid=136442bc-971a-4610-92f1-76d842df30cb__pspm,idfa_1319CB09-FC3D-4B16-B83D-8E05B5ABA984,ja
55RCoN7iR5ypqpLcB2NQHA,newborntown,p1789_712-137_336,Of81qbvWSPKfViI7CdMfcw,3.2,,C2883306-0159-4F67-B77D-41DA4AB0AE85,1556864737,2019-05-03 14:25:37,1556864831,2019-05-03 14:27:11,1556864831,0c005220-eb60-4391-ab06-5459fe45946b__pspm,http://pspm.pingstart.com/api/v4/postback?from=1706&clickid=0c005220-eb60-4391-ab06-5459fe45946b__pspm,idfa_C2883306-0159-4F67-B77D-41DA4AB0AE85,ja
55RCoN7iR5ypqpLcB2NQHA,newborntown,p1789_712-137_336,Of81qbvWSPKfViI7CdMfcw,3.2,,E7832DD0-0001-4B1D-8DC7-868566DA9490,1556867394,2019-05-03 15:09:54,1556867526,2019-05-03 15:12:06,1556867526,a36bd6cb-e8be-46be-b32b-d489e200b4f1__pspm,http://pspm.pingstart.com/api/v4/postback?from=1706&clickid=a36bd6cb-e8be-46be-b32b-d489e200b4f1__pspm,idfa_E7832DD0-0001-4B1D-8DC7-868566DA9490,ja
55RCoN7iR5ypqpLcB2NQHA,newborntown,p1789_712-137_336,Of81qbvWSPKfViI7CdMfcw,3.2,,46833666-0F69-4BC5-B40E-12A92F564D0E,1556928642,2019-05-04 08:10:42,1556928749,2019-05-04 08:12:29,1556928749,806dc57b-84e8-4036-9546-2969efed49ff__pspm,http://pspm.pingstart.com/api/v4/postback?from=1706&clickid=806dc57b-84e8-4036-9546-2969efed49ff__pspm,idfa_46833666-0F69-4BC5-B40E-12A92F564D0E,ja
55RCoN7iR5ypqpLcB2NQHA,newborntown,p1789_712-137_336,Of81qbvWSPKfViI7CdMfcw,3.2,,298DC464-26D5-4CAB-9CB3-B601C274E7C5,1556867389,2019-05-03 15:09:49,1556867526,2019-05-03 15:12:06,1556867526,d1393275-9ea6-475c-abd3-34f5d540bf0b__pspm,http://pspm.pingstart.com/api/v4/postback?from=1706&clickid=d1393275-9ea6-475c-abd3-34f5d540bf0b__pspm,idfa_298DC464-26D5-4CAB-9CB3-B601C274E7C5,ja
55RCoN7iR5ypqpLcB2NQHA,newborntown,p1789_712-137_336,Of81qbvWSPKfViI7CdMfcw,3.2,,AA856029-C2FB-4D1A-8B80-C7F368EC369D,1556933055,2019-05-04 09:24:15,1556933205,2019-05-04 09:26:45,1556933205,66d83bd9-03a5-4b64-935a-9fb57eea0252__pspm,http://pspm.pingstart.com/api/v4/postback?from=1706&clickid=66d83bd9-03a5-4b64-935a-9fb57eea0252__pspm,idfa_AA856029-C2FB-4D1A-8B80-C7F368EC369D,ja
55RCoN7iR5ypqpLcB2NQHA,newborntown,p1789_712-137_336,Of81qbvWSPKfViI7CdMfcw,3.2,,8707E2BA-BC50-45C9-B371-0E663969D0DC,1556866991,2019-05-03 15:03:11,1556867132,2019-05-03 15:05:32,1556867132,4545e6fa-37f2-4a37-b31f-152d33bdb1b2__pspm,http://pspm.pingstart.com/api/v4/postback?from=1706&clickid=4545e6fa-37f2-4a37-b31f-152d33bdb1b2__pspm,idfa_8707E2BA-BC50-45C9-B371-0E663969D0DC,ja
55RCoN7iR5ypqpLcB2NQHA,newborntown,p1789_712-137_336,Of81qbvWSPKfViI7CdMfcw,3.2,,F8D0612F-725F-4C95-A038-E8D590366218,1556867429,2019-05-03 15:10:29,1556867584,2019-05-03 15:13:04,1556867584,0a6e3040-2aa5-4775-b6f7-02a0ffdd1f18__pspm,http://pspm.pingstart.com/api/v4/postback?from=1706&clickid=0a6e3040-2aa5-4775-b6f7-02a0ffdd1f18__pspm,idfa_F8D0612F-725F-4C95-A038-E8D590366218,ja
55RCoN7iR5ypqpLcB2NQHA,newborntown,p1789_712-137_336,Of81qbvWSPKfViI7CdMfcw,3.2,,25D1E5A7-06D1-46F7-A7DB-C435C1C6E12C,1556867433,2019-05-03 15:10:33,1556867568,2019-05-03 15:12:48,1556867568,6688c77a-5165-4205-ab13-23b33b8fa8be__pspm,http://pspm.pingstart.com/api/v4/postback?from=1706&clickid=6688c77a-5165-4205-ab13-23b33b8fa8be__pspm,idfa_25D1E5A7-06D1-46F7-A7DB-C435C1C6E12C,ja
55RCoN7iR5ypqpLcB2NQHA,newborntown,p1789_712-137_336,Of81qbvWSPKfViI7CdMfcw,3.2,,25B0BC87-3CFA-404C-9061-F567A5D13E15,1556932218,2019-05-04 09:10:18,1556932384,2019-05-04 09:13:04,1556932384,307d0952-3b15-4d7a-a668-4846b7cfc58b__pspm,http://pspm.pingstart.com/api/v4/postback?from=1706&clickid=307d0952-3b15-4d7a-a668-4846b7cfc58b__pspm,idfa_25B0BC87-3CFA-404C-9061-F567A5D13E15,ja
55RCoN7iR5ypqpLcB2NQHA,newborntown,p1789_712-137_336,Of81qbvWSPKfViI7CdMfcw,3.2,,A01962CC-70C5-420B-AEBC-1823FAF06998,1556928592,2019-05-04 08:09:52,1556928752,2019-05-04 08:12:32,1556928752,bc0c8f03-9f4e-4003-bcae-59e5e8dc8e5b__pspm,http://pspm.pingstart.com/api/v4/postback?from=1706&clickid=bc0c8f03-9f4e-4003-bcae-59e5e8dc8e5b__pspm,idfa_A01962CC-70C5-420B-AEBC-1823FAF06998,ja
55RCoN7iR5ypqpLcB2NQHA,newborntown,p1789_712-137_336,Of81qbvWSPKfViI7CdMfcw,3.2,,BACBB2F1-909B-44E2-A596-E480FC4C4955,1556928202,2019-05-04 08:03:22,1556928317,2019-05-04 08:05:17,1556928317,7ead1846-0e34-43ae-b7e8-44d747549daa__pspm,http://pspm.pingstart.com/api/v4/postback?from=1706&clickid=7ead1846-0e34-43ae-b7e8-44d747549daa__pspm,idfa_BACBB2F1-909B-44E2-A596-E480FC4C4955,ja
55RCoN7iR5ypqpLcB2NQHA,newborntown,p1789_712-137_336,Of81qbvWSPKfViI7CdMfcw,3.2,,F9BE0364-AB05-421E-A4D4-365ABC22EBE5,1556932819,2019-05-04 09:20:19,1556932982,2019-05-04 09:23:02,1556932982,4f663f1c-1f66-40d6-8991-c201806a9b91__pspm,http://pspm.pingstart.com/api/v4/postback?from=1706&clickid=4f663f1c-1f66-40d6-8991-c201806a9b91__pspm,idfa_F9BE0364-AB05-421E-A4D4-365ABC22EBE5,ja
55RCoN7iR5ypqpLcB2NQHA,newborntown,p1789_712-137_336,Of81qbvWSPKfViI7CdMfcw,3.2,,5DDED197-92F9-4925-BC13-A07D6691AD64,1556931463,2019-05-04 08:57:43,1556931592,2019-05-04 08:59:52,1556931592,d5104620-4b03-43b5-bddc-0a4d6e47f507__pspm,http://pspm.pingstart.com/api/v4/postback?from=1706&clickid=d5104620-4b03-43b5-bddc-0a4d6e47f507__pspm,idfa_5DDED197-92F9-4925-BC13-A07D6691AD64,ja
55RCoN7iR5ypqpLcB2NQHA,newborntown,p1789_712-137_336,Of81qbvWSPKfViI7CdMfcw,3.2,,62F8B46A-9CBB-4F04-AE18-1F6A9ADE6B97,1556867434,2019-05-03 15:10:34,1556867581,2019-05-03 15:13:01,1556867581,ea700d4d-3350-475e-a247-358730841aa5__pspm,http://pspm.pingstart.com/api/v4/postback?from=1706&clickid=ea700d4d-3350-475e-a247-358730841aa5__pspm,idfa_62F8B46A-9CBB-4F04-AE18-1F6A9ADE6B97,ja
55RCoN7iR5ypqpLcB2NQHA,newborntown,p1789_712-137_336,Of81qbvWSPKfViI7CdMfcw,3.2,,5AAEC351-14B1-492B-A322-C048BC5E6B0D,1556866991,2019-05-03 15:03:11,1556867140,2019-05-03 15:05:40,1556867140,cba103eb-7b0e-4a67-9eab-0ed8468d6ac0__pspm,http://pspm.pingstart.com/api/v4/postback?from=1706&clickid=cba103eb-7b0e-4a67-9eab-0ed8468d6ac0__pspm,idfa_5AAEC351-14B1-492B-A322-C048BC5E6B0D,ja
55RCoN7iR5ypqpLcB2NQHA,newborntown,p1789_712-137_336,Of81qbvWSPKfViI7CdMfcw,3.2,,76DB8633-F318-4CBF-AE5B-C38DA49A2BC2,1556867388,2019-05-03 15:09:48,1556867536,2019-05-03 15:12:16,1556867536,800a390c-40b7-4beb-8442-d6db13b3d8a0__pspm,http://pspm.pingstart.com/api/v4/postback?from=1706&clickid=800a390c-40b7-4beb-8442-d6db13b3d8a0__pspm,idfa_76DB8633-F318-4CBF-AE5B-C38DA49A2BC2,ja
55RCoN7iR5ypqpLcB2NQHA,newborntown,p1789_712-137_336,Of81qbvWSPKfViI7CdMfcw,3.2,,B105C66F-8F36-4A1C-98A6-BED11101E063,1556931818,2019-05-04 09:03:38,1556931977,2019-05-04 09:06:17,1556931977,6f9f78e5-2950-4a4f-abd3-0904edba6c27__pspm,http://pspm.pingstart.com/api/v4/postback?from=1706&clickid=6f9f78e5-2950-4a4f-abd3-0904edba6c27__pspm,idfa_B105C66F-8F36-4A1C-98A6-BED11101E063,ja
55RCoN7iR5ypqpLcB2NQHA,newborntown,p1789_712-137_336,Of81qbvWSPKfViI7CdMfcw,3.2,,32C657D3-7542-4CFB-A05C-FF06592A76C8,1556885416,2019-05-03 20:10:16,1556885545,2019-05-03 20:12:25,1556885545,63b8c75c-e2aa-40e4-90a4-762475041f50__pspm,http://pspm.pingstart.com/api/v4/postback?from=1706&clickid=63b8c75c-e2aa-40e4-90a4-762475041f50__pspm,idfa_32C657D3-7542-4CFB-A05C-FF06592A76C8,ja
55RCoN7iR5ypqpLcB2NQHA,newborntown,p1789_712-137_336,Of81qbvWSPKfViI7CdMfcw,3.2,,190B3F9F-A099-4C29-BF9F-C278AF650581,1556928199,2019-05-04 08:03:19,1556928312,2019-05-04 08:05:12,1556928312,e7e25a65-d1f8-466d-9bf3-fb1108b9075b__pspm,http://pspm.pingstart.com/api/v4/postback?from=1706&clickid=e7e25a65-d1f8-466d-9bf3-fb1108b9075b__pspm,idfa_190B3F9F-A099-4C29-BF9F-C278AF650581,ja
55RCoN7iR5ypqpLcB2NQHA,newborntown,p1789_712-137_336,Of81qbvWSPKfViI7CdMfcw,3.2,,071E457E-3B45-42D8-B09C-514A773FFBB6,1556866473,2019-05-03 14:54:33,1556866618,2019-05-03 14:56:58,1556866618,288f9208-51ba-465c-a763-645a6dcd7bb5__pspm,http://pspm.pingstart.com/api/v4/postback?from=1706&clickid=288f9208-51ba-465c-a763-645a6dcd7bb5__pspm,idfa_071E457E-3B45-42D8-B09C-514A773FFBB6,ja
55RCoN7iR5ypqpLcB2NQHA,newborntown,p1789_712-137_336,Of81qbvWSPKfViI7CdMfcw,3.2,,358D1EA1-FB0C-4245-80C0-62A4D5DCC0C5,1556924581,2019-05-04 07:03:01,1556924732,2019-05-04 07:05:32,1556924732,11acf299-7716-46a4-bed7-9f73e09b02f6__pspm,http://pspm.pingstart.com/api/v4/postback?from=1706&clickid=11acf299-7716-46a4-bed7-9f73e09b02f6__pspm,idfa_358D1EA1-FB0C-4245-80C0-62A4D5DCC0C5,ja
55RCoN7iR5ypqpLcB2NQHA,newborntown,p1789_712-137_336,Of81qbvWSPKfViI7CdMfcw,3.2,,4ED09F7E-72A9-450C-94C5-292F2602B9D7,1556928185,2019-05-04 08:03:05,1556928295,2019-05-04 08:04:55,1556928295,3887287b-69bc-43cc-8296-73bafe3ca422__pspm,http://pspm.pingstart.com/api/v4/postback?from=1706&clickid=3887287b-69bc-43cc-8296-73bafe3ca422__pspm,idfa_4ED09F7E-72A9-450C-94C5-292F2602B9D7,ja
55RCoN7iR5ypqpLcB2NQHA,newborntown,p1789_712-137_336,Of81qbvWSPKfViI7CdMfcw,3.2,,ACC0C173-4F72-4E10-8906-9E785D7BFF6A,1556867438,2019-05-03 15:10:38,1556867578,2019-05-03 15:12:58,1556867578,ee7b1a80-81f3-429e-885a-c398205f6f20__pspm,http://pspm.pingstart.com/api/v4/postback?from=1706&clickid=ee7b1a80-81f3-429e-885a-c398205f6f20__pspm,idfa_ACC0C173-4F72-4E10-8906-9E785D7BFF6A,ja
55RCoN7iR5ypqpLcB2NQHA,newborntown,p1789_712-137_336,Of81qbvWSPKfViI7CdMfcw,3.2,,497F53B1-8BB7-4562-BED0-7EE6213570A2,1556866476,2019-05-03 14:54:36,1556866625,2019-05-03 14:57:05,1556866625,2eae119e-ff1f-499a-a7a3-3dcb2bcb9b7e__pspm,http://pspm.pingstart.com/api/v4/postback?from=1706&clickid=2eae119e-ff1f-499a-a7a3-3dcb2bcb9b7e__pspm,idfa_497F53B1-8BB7-4562-BED0-7EE6213570A2,ja
55RCoN7iR5ypqpLcB2NQHA,newborntown,p1789_712-137_336,Of81qbvWSPKfViI7CdMfcw,3.2,,C05A5D9D-31E5-4796-AE9D-1ECE71EAF072,1556931814,2019-05-04 09:03:34,1556931956,2019-05-04 09:05:56,1556931956,f525a962-f6cf-4711-a079-5d827a95d7ae__pspm,http://pspm.pingstart.com/api/v4/postback?from=1706&clickid=f525a962-f6cf-4711-a079-5d827a95d7ae__pspm,idfa_C05A5D9D-31E5-4796-AE9D-1ECE71EAF072,ja
55RCoN7iR5ypqpLcB2NQHA,newborntown,p1789_712-137_336,Of81qbvWSPKfViI7CdMfcw,3.2,,ACD2301B-082D-4B77-8454-857D29AA0593,1556867428,2019-05-03 15:10:28,1556867571,2019-05-03 15:12:51,1556867571,7c235763-c856-4db4-93bc-f818af33e35c__pspm,http://pspm.pingstart.com/api/v4/postback?from=1706&clickid=7c235763-c856-4db4-93bc-f818af33e35c__pspm,idfa_ACD2301B-082D-4B77-8454-857D29AA0593,ja
55RCoN7iR5ypqpLcB2NQHA,newborntown,p1789_712-137_336,Of81qbvWSPKfViI7CdMfcw,3.2,,A06962DC-860F-437A-9A3F-AD3564A09F91,1556924587,2019-05-04 07:03:07,1556924703,2019-05-04 07:05:03,1556924703,4ef908c3-4d9c-416e-9354-9490b4704b1d__pspm,http://pspm.pingstart.com/api/v4/postback?from=1706&clickid=4ef908c3-4d9c-416e-9354-9490b4704b1d__pspm,idfa_A06962DC-860F-437A-9A3F-AD3564A09F91,ja
55RCoN7iR5ypqpLcB2NQHA,newborntown,p1789_712-137_336,Of81qbvWSPKfViI7CdMfcw,3.2,,23C5EBF0-318D-4809-9D69-99975091E026,1556867389,2019-05-03 15:09:49,1556867547,2019-05-03 15:12:27,1556867547,d9837ab5-1b59-4d0e-8f40-97e11ccb3df0__pspm,http://pspm.pingstart.com/api/v4/postback?from=1706&clickid=d9837ab5-1b59-4d0e-8f40-97e11ccb3df0__pspm,idfa_23C5EBF0-318D-4809-9D69-99975091E026,ja
55RCoN7iR5ypqpLcB2NQHA,newborntown,p1789_712-137_336,Of81qbvWSPKfViI7CdMfcw,3.2,,63E9B8FD-1083-4E32-8D18-502FA5B3CE81,1556932206,2019-05-04 09:10:06,1556932368,2019-05-04 09:12:48,1556932368,4e22f49b-1949-4331-a3b6-86409af637e9__pspm,http://pspm.pingstart.com/api/v4/postback?from=1706&clickid=4e22f49b-1949-4331-a3b6-86409af637e9__pspm,idfa_63E9B8FD-1083-4E32-8D18-502FA5B3CE81,ja
55RCoN7iR5ypqpLcB2NQHA,newborntown,p1789_712-137_336,Of81qbvWSPKfViI7CdMfcw,3.2,,1E622D0D-FE41-44D2-A7DF-139B79AB45A7,1556928214,2019-05-04 08:03:34,1556928326,2019-05-04 08:05:26,1556928326,307dd322-10e8-4a6a-b2fc-17ad215fa5eb__pspm,http://pspm.pingstart.com/api/v4/postback?from=1706&clickid=307dd322-10e8-4a6a-b2fc-17ad215fa5eb__pspm,idfa_1E622D0D-FE41-44D2-A7DF-139B79AB45A7,ja
55RCoN7iR5ypqpLcB2NQHA,newborntown,p1789_712-137_336,Of81qbvWSPKfViI7CdMfcw,3.2,,4DE5C3D8-22DC-4FCC-B3A0-0592F93AE85F,1556928596,2019-05-04 08:09:56,1556928735,2019-05-04 08:12:15,1556928735,510cddb1-179a-4b2a-811e-dfd30f23931c__pspm,http://pspm.pingstart.com/api/v4/postback?from=1706&clickid=510cddb1-179a-4b2a-811e-dfd30f23931c__pspm,idfa_4DE5C3D8-22DC-4FCC-B3A0-0592F93AE85F,ja
55RCoN7iR5ypqpLcB2NQHA,newborntown,p1789_712-137_336,Of81qbvWSPKfViI7CdMfcw,3.2,,6B2D01DB-1234-4E6F-916D-683E6F706F76,1556866950,2019-05-03 15:02:30,1556867099,2019-05-03 15:04:59,1556867099,fd9c0379-ef01-4261-ad20-e3344bf92a5b__pspm,http://pspm.pingstart.com/api/v4/postback?from=1706&clickid=fd9c0379-ef01-4261-ad20-e3344bf92a5b__pspm,idfa_6B2D01DB-1234-4E6F-916D-683E6F706F76,ja
55RCoN7iR5ypqpLcB2NQHA,newborntown,p1789_712-137_336,Of81qbvWSPKfViI7CdMfcw,3.2,,51B18794-4B72-4595-8996-17CD8CF45159,1556932648,2019-05-04 09:17:28,1556932799,2019-05-04 09:19:59,1556932799,4c8f4c65-5dbd-4791-9e87-473c420dd657__pspm,http://pspm.pingstart.com/api/v4/postback?from=1706&clickid=4c8f4c65-5dbd-4791-9e87-473c420dd657__pspm,idfa_51B18794-4B72-4595-8996-17CD8CF45159,ja
55RCoN7iR5ypqpLcB2NQHA,newborntown,p1789_712-137_336,Of81qbvWSPKfViI7CdMfcw,3.2,,5DDB7F6B-4DEF-4088-AF3E-D5AA2D6CC95F,1556925000,2019-05-04 07:10:00,1556925131,2019-05-04 07:12:11,1556925131,225a9fdb-529f-46d2-9b28-f0f4938329ea__pspm,http://pspm.pingstart.com/api/v4/postback?from=1706&clickid=225a9fdb-529f-46d2-9b28-f0f4938329ea__pspm,idfa_5DDB7F6B-4DEF-4088-AF3E-D5AA2D6CC95F,ja
55RCoN7iR5ypqpLcB2NQHA,newborntown,p1789_712-137_336,Of81qbvWSPKfViI7CdMfcw,3.2,,54EF1F79-FFF9-41E4-B705-40BE1E8E1D64,1556931819,2019-05-04 09:03:39,1556931968,2019-05-04 09:06:08,1556931968,4a042433-965a-493a-a342-b71ea5249560__pspm,http://pspm.pingstart.com/api/v4/postback?from=1706&clickid=4a042433-965a-493a-a342-b71ea5249560__pspm,idfa_54EF1F79-FFF9-41E4-B705-40BE1E8E1D64,ja
55RCoN7iR5ypqpLcB2NQHA,newborntown,p1789_712-137_336,Of81qbvWSPKfViI7CdMfcw,3.2,,81854679-3C2C-4A44-A692-8949F4EE45ED,1556924615,2019-05-04 07:03:35,1556924777,2019-05-04 07:06:17,1556924777,c94d5518-7b5f-4189-ad3b-d8cbe48e2831__pspm,http://pspm.pingstart.com/api/v4/postback?from=1706&clickid=c94d5518-7b5f-4189-ad3b-d8cbe48e2831__pspm,idfa_81854679-3C2C-4A44-A692-8949F4EE45ED,ja
55RCoN7iR5ypqpLcB2NQHA,newborntown,p1789_712-137_336,Of81qbvWSPKfViI7CdMfcw,3.2,,0B4FD450-C8F9-44B0-86E1-C912D602252D,1556928187,2019-05-04 08:03:07,1556928327,2019-05-04 08:05:27,1556928327,5f391e3f-af4d-4895-ae21-33ac925172b7__pspm,http://pspm.pingstart.com/api/v4/postback?from=1706&clickid=5f391e3f-af4d-4895-ae21-33ac925172b7__pspm,idfa_0B4FD450-C8F9-44B0-86E1-C912D602252D,ja
55RCoN7iR5ypqpLcB2NQHA,newborntown,p1789_712-137_336,Of81qbvWSPKfViI7CdMfcw,3.2,,CF226EE7-D354-4535-AEC9-B48C30C1E2D5,1556866473,2019-05-03 14:54:33,1556866585,2019-05-03 14:56:25,1556866585,1929d39e-ff5b-4b44-9111-6e7b5d96cabf__pspm,http://pspm.pingstart.com/api/v4/postback?from=1706&clickid=1929d39e-ff5b-4b44-9111-6e7b5d96cabf__pspm,idfa_CF226EE7-D354-4535-AEC9-B48C30C1E2D5,ja
55RCoN7iR5ypqpLcB2NQHA,newborntown,p1789_712-137_336,Of81qbvWSPKfViI7CdMfcw,3.2,,8DE1160F-CADE-44D9-A30D-F5705006A6D2,1556924563,2019-05-04 07:02:43,1556924676,2019-05-04 07:04:36,1556924676,410133de-7de6-477a-a4e0-2809eb06963a__pspm,http://pspm.pingstart.com/api/v4/postback?from=1706&clickid=410133de-7de6-477a-a4e0-2809eb06963a__pspm,idfa_8DE1160F-CADE-44D9-A30D-F5705006A6D2,ja
55RCoN7iR5ypqpLcB2NQHA,newborntown,p1789_712-137_336,Of81qbvWSPKfViI7CdMfcw,3.2,,F0976702-0B06-45FB-BC5D-65281F3BA627,1556931336,2019-05-04 08:55:36,1556931486,2019-05-04 08:58:06,1556931486,d0f4d9a5-6e7d-4530-8f44-e3411ce14432__pspm,http://pspm.pingstart.com/api/v4/postback?from=1706&clickid=d0f4d9a5-6e7d-4530-8f44-e3411ce14432__pspm,idfa_F0976702-0B06-45FB-BC5D-65281F3BA627,ja
55RCoN7iR5ypqpLcB2NQHA,newborntown,p1789_712-137_336,Of81qbvWSPKfViI7CdMfcw,3.2,,A620D85F-56FD-434E-88A0-CCE739AD081F,1556928230,2019-05-04 08:03:50,1556928392,2019-05-04 08:06:32,1556928392,93861a3a-6ae3-45ea-a007-b195d45aedfd__pspm,http://pspm.pingstart.com/api/v4/postback?from=1706&clickid=93861a3a-6ae3-45ea-a007-b195d45aedfd__pspm,idfa_A620D85F-56FD-434E-88A0-CCE739AD081F,ja
55RCoN7iR5ypqpLcB2NQHA,newborntown,p1789_712-137_336,Of81qbvWSPKfViI7CdMfcw,3.2,,78408734-0EAB-484C-B019-2A60B24156B7,1556932659,2019-05-04 09:17:39,1556932800,2019-05-04 09:20:00,1556932800,f19088b0-1d2b-46b7-93d9-db4fac6973fe__pspm,http://pspm.pingstart.com/api/v4/postback?from=1706&clickid=f19088b0-1d2b-46b7-93d9-db4fac6973fe__pspm,idfa_78408734-0EAB-484C-B019-2A60B24156B7,ja
55RCoN7iR5ypqpLcB2NQHA,newborntown,p1789_712-137_336,Of81qbvWSPKfViI7CdMfcw,3.2,,CDCB2F5E-5182-410B-AAB2-4AB0EE5DB584,1556866949,2019-05-03 15:02:29,1556867092,2019-05-03 15:04:52,1556867092,73c6f8d6-f0f3-4494-909e-aedf6d90224b__pspm,http://pspm.pingstart.com/api/v4/postback?from=1706&clickid=73c6f8d6-f0f3-4494-909e-aedf6d90224b__pspm,idfa_CDCB2F5E-5182-410B-AAB2-4AB0EE5DB584,ja
55RCoN7iR5ypqpLcB2NQHA,newborntown,p1789_712-137_336,Of81qbvWSPKfViI7CdMfcw,3.2,,6EEB3450-7FA1-4749-BA86-5B9247DD6808,1556867402,2019-05-03 15:10:02,1556867547,2019-05-03 15:12:27,1556867547,2780844a-6087-4132-8c41-ec47e48f429c__pspm,http://pspm.pingstart.com/api/v4/postback?from=1706&clickid=2780844a-6087-4132-8c41-ec47e48f429c__pspm,idfa_6EEB3450-7FA1-4749-BA86-5B9247DD6808,ja
55RCoN7iR5ypqpLcB2NQHA,newborntown,p1789_712-137_336,Of81qbvWSPKfViI7CdMfcw,3.2,,3648C868-708D-4E80-AD15-B5EAB1C92199,1556925000,2019-05-04 07:10:00,1556925151,2019-05-04 07:12:31,1556925151,5e9a4cbd-95f5-4cc5-9fec-9dc4a1542a88__pspm,http://pspm.pingstart.com/api/v4/postback?from=1706&clickid=5e9a4cbd-95f5-4cc5-9fec-9dc4a1542a88__pspm,idfa_3648C868-708D-4E80-AD15-B5EAB1C92199,ja
55RCoN7iR5ypqpLcB2NQHA,newborntown,p1789_712-137_336,Of81qbvWSPKfViI7CdMfcw,3.2,,F001A0BE-918F-4796-B2E2-4A1864ABBF0C,1556931284,2019-05-04 08:54:44,1556931410,2019-05-04 08:56:50,1556931410,6dbab157-2c1f-4a15-8601-70d8b5b6124c__pspm,http://pspm.pingstart.com/api/v4/postback?from=1706&clickid=6dbab157-2c1f-4a15-8601-70d8b5b6124c__pspm,idfa_F001A0BE-918F-4796-B2E2-4A1864ABBF0C,ja
55RCoN7iR5ypqpLcB2NQHA,newborntown,p1789_712-137_336,Of81qbvWSPKfViI7CdMfcw,3.2,,58774B02-1F63-436E-BF21-B6A5424D85A1,1556866998,2019-05-03 15:03:18,1556867132,2019-05-03 15:05:32,1556867132,5e96bbf3-3411-48e0-97c4-c51e17543202__pspm,http://pspm.pingstart.com/api/v4/postback?from=1706&clickid=5e96bbf3-3411-48e0-97c4-c51e17543202__pspm,idfa_58774B02-1F63-436E-BF21-B6A5424D85A1,ja
55RCoN7iR5ypqpLcB2NQHA,newborntown,p1789_712-137_336,Of81qbvWSPKfViI7CdMfcw,3.2,,61CA2ED0-B157-490B-856B-9106C4654F68,1556924581,2019-05-04 07:03:01,1556924697,2019-05-04 07:04:57,1556924697,8adfef39-70a7-4d01-abdd-09f6b4b4945a__pspm,http://pspm.pingstart.com/api/v4/postback?from=1706&clickid=8adfef39-70a7-4d01-abdd-09f6b4b4945a__pspm,idfa_61CA2ED0-B157-490B-856B-9106C4654F68,ja
55RCoN7iR5ypqpLcB2NQHA,newborntown,p1789_712-137_336,Of81qbvWSPKfViI7CdMfcw,3.2,,B0BBF245-26FE-43EB-983A-08666CC2C0C5,1556866993,2019-05-03 15:03:13,1556867149,2019-05-03 15:05:49,1556867149,463d4491-9754-421f-b835-10053444c5d6__pspm,http://pspm.pingstart.com/api/v4/postback?from=1706&clickid=463d4491-9754-421f-b835-10053444c5d6__pspm,idfa_B0BBF245-26FE-43EB-983A-08666CC2C0C5,ja
55RCoN7iR5ypqpLcB2NQHA,newborntown,p1789_712-137_336,Of81qbvWSPKfViI7CdMfcw,3.2,,AEB9C38C-060B-4C02-ABBB-0920CB705AAD,1556932218,2019-05-04 09:10:18,1556932371,2019-05-04 09:12:51,1556932371,69aa27ca-4111-45a5-b2d3-66f8719d9747__pspm,http://pspm.pingstart.com/api/v4/postback?from=1706&clickid=69aa27ca-4111-45a5-b2d3-66f8719d9747__pspm,idfa_AEB9C38C-060B-4C02-ABBB-0920CB705AAD,ja
55RCoN7iR5ypqpLcB2NQHA,newborntown,p1789_712-137_336,Of81qbvWSPKfViI7CdMfcw,3.2,,3B5C1689-D447-4112-92B2-0AAAE3E03631,1556867409,2019-05-03 15:10:09,1556867544,2019-05-03 15:12:24,1556867544,925d80cb-43d0-4ba5-aed0-6f7fcfe2968e__pspm,http://pspm.pingstart.com/api/v4/postback?from=1706&clickid=925d80cb-43d0-4ba5-aed0-6f7fcfe2968e__pspm,idfa_3B5C1689-D447-4112-92B2-0AAAE3E03631,ja
55RCoN7iR5ypqpLcB2NQHA,newborntown,p1789_712-137_336,Of81qbvWSPKfViI7CdMfcw,3.2,,9FF766BF-068D-430A-966A-BC57AC307BA7,1556866978,2019-05-03 15:02:58,1556867129,2019-05-03 15:05:29,1556867129,a77295e1-373c-4ba6-94c5-d15f219db88d__pspm,http://pspm.pingstart.com/api/v4/postback?from=1706&clickid=a77295e1-373c-4ba6-94c5-d15f219db88d__pspm,idfa_9FF766BF-068D-430A-966A-BC57AC307BA7,ja
55RCoN7iR5ypqpLcB2NQHA,newborntown,p1789_712-137_336,Of81qbvWSPKfViI7CdMfcw,3.2,,75561D5C-17AC-46E5-9596-8A82E41E34F9,1556928216,2019-05-04 08:03:36,1556928328,2019-05-04 08:05:28,1556928328,a7696c4f-4099-443e-a27a-df118b700929__pspm,http://pspm.pingstart.com/api/v4/postback?from=1706&clickid=a7696c4f-4099-443e-a27a-df118b700929__pspm,idfa_75561D5C-17AC-46E5-9596-8A82E41E34F9,ja
55RCoN7iR5ypqpLcB2NQHA,newborntown,p1789_712-137_336,Of81qbvWSPKfViI7CdMfcw,3.2,,592DF910-1591-41E5-97BC-DB5EE1B5576B,1556867375,2019-05-03 15:09:35,1556867520,2019-05-03 15:12:00,1556867520,14c553ca-f553-4942-9613-c52f1c9347c2__pspm,http://pspm.pingstart.com/api/v4/postback?from=1706&clickid=14c553ca-f553-4942-9613-c52f1c9347c2__pspm,idfa_592DF910-1591-41E5-97BC-DB5EE1B5576B,ja
55RCoN7iR5ypqpLcB2NQHA,newborntown,p1789_712-137_336,Of81qbvWSPKfViI7CdMfcw,3.2,,60AA6BDB-F4D0-43E8-83F0-5966F26134BB,1556866983,2019-05-03 15:03:03,1556867140,2019-05-03 15:05:40,1556867140,6c3258cc-bcef-45c0-96d1-90f97fbe0ffe__pspm,http://pspm.pingstart.com/api/v4/postback?from=1706&clickid=6c3258cc-bcef-45c0-96d1-90f97fbe0ffe__pspm,idfa_60AA6BDB-F4D0-43E8-83F0-5966F26134BB,ja
55RCoN7iR5ypqpLcB2NQHA,newborntown,p1789_712-137_336,Of81qbvWSPKfViI7CdMfcw,3.2,,1D19CA31-12E5-48E5-90CA-48265FACDAF8,1556925000,2019-05-04 07:10:00,1556925136,2019-05-04 07:12:16,1556925136,60e1dd1f-64da-4468-9300-4090a6190ecd__pspm,http://pspm.pingstart.com/api/v4/postback?from=1706&clickid=60e1dd1f-64da-4468-9300-4090a6190ecd__pspm,idfa_1D19CA31-12E5-48E5-90CA-48265FACDAF8,ja
55RCoN7iR5ypqpLcB2NQHA,newborntown,p1789_712-137_336,Of81qbvWSPKfViI7CdMfcw,3.2,,A0A63494-D040-4F53-9D56-3C9EC5C8FEC9,1556932224,2019-05-04 09:10:24,1556932351,2019-05-04 09:12:31,1556932351,1aa3eddd-705e-4ca4-8f67-58d2070cd323__pspm,http://pspm.pingstart.com/api/v4/postback?from=1706&clickid=1aa3eddd-705e-4ca4-8f67-58d2070cd323__pspm,idfa_A0A63494-D040-4F53-9D56-3C9EC5C8FEC9,ja
55RCoN7iR5ypqpLcB2NQHA,newborntown,p1789_712-137_336,Of81qbvWSPKfViI7CdMfcw,3.2,,E47DDC48-F10F-45E5-9C71-3704A1BFC359,1556932641,2019-05-04 09:17:21,1556932793,2019-05-04 09:19:53,1556932793,a8841163-99df-439f-b640-4b422dc37a99__pspm,http://pspm.pingstart.com/api/v4/postback?from=1706&clickid=a8841163-99df-439f-b640-4b422dc37a99__pspm,idfa_E47DDC48-F10F-45E5-9C71-3704A1BFC359,ja
55RCoN7iR5ypqpLcB2NQHA,newborntown,p1789_712-137_336,Of81qbvWSPKfViI7CdMfcw,3.2,,255D8E85-0408-496B-B6A2-92F83E61CDA0,1556933076,2019-05-04 09:24:36,1556933228,2019-05-04 09:27:08,1556933228,1c0aa22c-d389-4ef6-a291-426c3e64196a__pspm,http://pspm.pingstart.com/api/v4/postback?from=1706&clickid=1c0aa22c-d389-4ef6-a291-426c3e64196a__pspm,idfa_255D8E85-0408-496B-B6A2-92F83E61CDA0,ja
55RCoN7iR5ypqpLcB2NQHA,newborntown,p1789_712-137_336,Of81qbvWSPKfViI7CdMfcw,3.2,,01F55412-1A44-45DD-B5AD-A4A71127F949,1556933087,2019-05-04 09:24:47,1556933241,2019-05-04 09:27:21,1556933241,a6ab353e-f636-43c2-9e26-ab677b80c38a__pspm,http://pspm.pingstart.com/api/v4/postback?from=1706&clickid=a6ab353e-f636-43c2-9e26-ab677b80c38a__pspm,idfa_01F55412-1A44-45DD-B5AD-A4A71127F949,ja
55RCoN7iR5ypqpLcB2NQHA,newborntown,p1789_712-137_336,Of81qbvWSPKfViI7CdMfcw,3.2,,0081C544-2A32-440F-9A91-63E57ED1A199,1556924983,2019-05-04 07:09:43,1556925138,2019-05-04 07:12:18,1556925138,e94275a1-f3d8-4443-a20e-da08da56226a__pspm,http://pspm.pingstart.com/api/v4/postback?from=1706&clickid=e94275a1-f3d8-4443-a20e-da08da56226a__pspm,idfa_0081C544-2A32-440F-9A91-63E57ED1A199,ja
55RCoN7iR5ypqpLcB2NQHA,newborntown,p1789_712-137_336,Of81qbvWSPKfViI7CdMfcw,3.2,,AB4B3843-FB0D-4AAF-8701-4390CE1BA8B0,1556924992,2019-05-04 07:09:52,1556925147,2019-05-04 07:12:27,1556925147,9fb98cb4-bc9c-406e-9154-93ba3081e075__pspm,http://pspm.pingstart.com/api/v4/postback?from=1706&clickid=9fb98cb4-bc9c-406e-9154-93ba3081e075__pspm,idfa_AB4B3843-FB0D-4AAF-8701-4390CE1BA8B0,ja
55RCoN7iR5ypqpLcB2NQHA,newborntown,p1789_712-137_336,Of81qbvWSPKfViI7CdMfcw,3.2,,9DD8A13F-3823-44D0-845E-F55073AE9C87,1556867388,2019-05-03 15:09:48,1556867542,2019-05-03 15:12:22,1556867542,f2e9962f-7a8a-4a57-a6e0-0f01f8eae2e9__pspm,http://pspm.pingstart.com/api/v4/postback?from=1706&clickid=f2e9962f-7a8a-4a57-a6e0-0f01f8eae2e9__pspm,idfa_9DD8A13F-3823-44D0-845E-F55073AE9C87,ja
55RCoN7iR5ypqpLcB2NQHA,newborntown,p1789_712-137_336,Of81qbvWSPKfViI7CdMfcw,3.2,,CEC1F9A3-DA82-4F89-946B-A8B0BF18E7E2,1556864664,2019-05-03 14:24:24,1556864795,2019-05-03 14:26:35,1556864795,0692c389-5ee5-476c-ba84-9c39aebfa4fa__pspm,http://pspm.pingstart.com/api/v4/postback?from=1706&clickid=0692c389-5ee5-476c-ba84-9c39aebfa4fa__pspm,idfa_CEC1F9A3-DA82-4F89-946B-A8B0BF18E7E2,ja
55RCoN7iR5ypqpLcB2NQHA,newborntown,p1789_712-137_336,Of81qbvWSPKfViI7CdMfcw,3.2,,8D3F0200-15E9-4607-A365-7C8368872955,1556933087,2019-05-04 09:24:47,1556933252,2019-05-04 09:27:32,1556933252,6fc45f3a-ae35-44c3-a4ab-5fa4a672e68e__pspm,http://pspm.pingstart.com/api/v4/postback?from=1706&clickid=6fc45f3a-ae35-44c3-a4ab-5fa4a672e68e__pspm,idfa_8D3F0200-15E9-4607-A365-7C8368872955,ja
55RCoN7iR5ypqpLcB2NQHA,newborntown,p1789_712-137_336,Of81qbvWSPKfViI7CdMfcw,3.2,,6A01B07E-7BDA-4BEF-922E-4525BD7D76C1,1556924584,2019-05-04 07:03:04,1556924697,2019-05-04 07:04:57,1556924697,d112285f-0a93-490c-be1b-61d1004b1c91__pspm,http://pspm.pingstart.com/api/v4/postback?from=1706&clickid=d112285f-0a93-490c-be1b-61d1004b1c91__pspm,idfa_6A01B07E-7BDA-4BEF-922E-4525BD7D76C1,ja
55RCoN7iR5ypqpLcB2NQHA,newborntown,p1789_712-137_336,Of81qbvWSPKfViI7CdMfcw,3.2,,78D1DCEE-E947-4F28-8048-D39488B96BEB,1556867432,2019-05-03 15:10:32,1556867579,2019-05-03 15:12:59,1556867579,78626a99-b079-405c-acb4-5559c10ac3f6__pspm,http://pspm.pingstart.com/api/v4/postback?from=1706&clickid=78626a99-b079-405c-acb4-5559c10ac3f6__pspm,idfa_78D1DCEE-E947-4F28-8048-D39488B96BEB,ja
55RCoN7iR5ypqpLcB2NQHA,newborntown,p1789_712-137_336,Of81qbvWSPKfViI7CdMfcw,3.2,,3B500B6E-3C40-4FB8-842C-B5A0D658B9B6,1556866475,2019-05-03 14:54:35,1556866588,2019-05-03 14:56:28,1556866588,156f9ff0-5f09-436c-a686-df2c065fa5ed__pspm,http://pspm.pingstart.com/api/v4/postback?from=1706&clickid=156f9ff0-5f09-436c-a686-df2c065fa5ed__pspm,idfa_3B500B6E-3C40-4FB8-842C-B5A0D658B9B6,ja
55RCoN7iR5ypqpLcB2NQHA,newborntown,p1789_712-137_336,Of81qbvWSPKfViI7CdMfcw,3.2,,53BE9C59-6A7D-4DCC-A73A-CEEE136DC672,1556931820,2019-05-04 09:03:40,1556931970,2019-05-04 09:06:10,1556931970,81e691fc-fef9-40ab-94fd-63ac528195a2__pspm,http://pspm.pingstart.com/api/v4/postback?from=1706&clickid=81e691fc-fef9-40ab-94fd-63ac528195a2__pspm,idfa_53BE9C59-6A7D-4DCC-A73A-CEEE136DC672,ja
55RCoN7iR5ypqpLcB2NQHA,newborntown,p1789_712-137_336,Of81qbvWSPKfViI7CdMfcw,3.2,,6754668D-C133-47FE-AA94-2F1EEF71D3E0,1556924578,2019-05-04 07:02:58,1556924692,2019-05-04 07:04:52,1556924692,dbc5f91c-295d-44d8-ab5d-0ede42ee580f__pspm,http://pspm.pingstart.com/api/v4/postback?from=1706&clickid=dbc5f91c-295d-44d8-ab5d-0ede42ee580f__pspm,idfa_6754668D-C133-47FE-AA94-2F1EEF71D3E0,ja
55RCoN7iR5ypqpLcB2NQHA,newborntown,p1789_712-137_336,Of81qbvWSPKfViI7CdMfcw,3.2,,3DBDD5EE-FDDD-48BB-BD31-72262FABC2D6,1556922251,2019-05-04 06:24:11,1556922361,2019-05-04 06:26:01,1556922361,97636317-84c0-4737-b2d8-84cda1631cd0__pspm,http://pspm.pingstart.com/api/v4/postback?from=1706&clickid=97636317-84c0-4737-b2d8-84cda1631cd0__pspm,idfa_3DBDD5EE-FDDD-48BB-BD31-72262FABC2D6,ja
55RCoN7iR5ypqpLcB2NQHA,newborntown,p1789_712-137_336,Of81qbvWSPKfViI7CdMfcw,3.2,,888FAF2B-219B-4E0C-88D5-7459A889AC07,1556866941,2019-05-03 15:02:21,1556867046,2019-05-03 15:04:06,1556867046,e0a2f1fa-1da1-4fef-8218-439894f89b1d__pspm,http://pspm.pingstart.com/api/v4/postback?from=1706&clickid=e0a2f1fa-1da1-4fef-8218-439894f89b1d__pspm,idfa_888FAF2B-219B-4E0C-88D5-7459A889AC07,ja
55RCoN7iR5ypqpLcB2NQHA,newborntown,p1789_712-137_336,Of81qbvWSPKfViI7CdMfcw,3.2,,4375677D-4AF0-4FAC-96F5-B7D28C97136E,1556888999,2019-05-03 21:09:59,1556889151,2019-05-03 21:12:31,1556889151,fe31b340-bc3c-46b9-993a-9a8d5993cf75__pspm,http://pspm.pingstart.com/api/v4/postback?from=1706&clickid=fe31b340-bc3c-46b9-993a-9a8d5993cf75__pspm,idfa_4375677D-4AF0-4FAC-96F5-B7D28C97136E,ja
55RCoN7iR5ypqpLcB2NQHA,newborntown,p1789_712-137_336,Of81qbvWSPKfViI7CdMfcw,3.2,,5EFA76C2-62E1-4517-A6D2-BEE4272971D7,1556866614,2019-05-03 14:56:54,1556866772,2019-05-03 14:59:32,1556866772,3e9065b8-a8a9-40fc-a0f0-8cac9dd90c7f__pspm,http://pspm.pingstart.com/api/v4/postback?from=1706&clickid=3e9065b8-a8a9-40fc-a0f0-8cac9dd90c7f__pspm,idfa_5EFA76C2-62E1-4517-A6D2-BEE4272971D7,ja
55RCoN7iR5ypqpLcB2NQHA,newborntown,p1789_712-137_336,Of81qbvWSPKfViI7CdMfcw,3.2,,72391696-7D30-4979-9AA6-17C9F44C245F,1556925015,2019-05-04 07:10:15,1556925162,2019-05-04 07:12:42,1556925162,8cc9ed24-316a-4845-aa07-75ae5b171da5__pspm,http://pspm.pingstart.com/api/v4/postback?from=1706&clickid=8cc9ed24-316a-4845-aa07-75ae5b171da5__pspm,idfa_72391696-7D30-4979-9AA6-17C9F44C245F,ja
55RCoN7iR5ypqpLcB2NQHA,newborntown,p1789_712-137_336,Of81qbvWSPKfViI7CdMfcw,3.2,,3FA75842-EA58-4136-83B9-B6152EE0FFF6,1556866706,2019-05-03 14:58:26,1556866832,2019-05-03 15:00:32,1556866832,594dc841-7dd1-4cc5-b1b6-622538501a6e__pspm,http://pspm.pingstart.com/api/v4/postback?from=1706&clickid=594dc841-7dd1-4cc5-b1b6-622538501a6e__pspm,idfa_3FA75842-EA58-4136-83B9-B6152EE0FFF6,ja
55RCoN7iR5ypqpLcB2NQHA,newborntown,p1789_712-137_336,Of81qbvWSPKfViI7CdMfcw,3.2,,33A608F2-45DB-4F1A-9518-0E22DE4B9A62,1556932210,2019-05-04 09:10:10,1556932367,2019-05-04 09:12:47,1556932367,37b650f1-c469-40e4-baa0-39c480c22f0d__pspm,http://pspm.pingstart.com/api/v4/postback?from=1706&clickid=37b650f1-c469-40e4-baa0-39c480c22f0d__pspm,idfa_33A608F2-45DB-4F1A-9518-0E22DE4B9A62,ja
55RCoN7iR5ypqpLcB2NQHA,newborntown,p1789_712-137_336,Of81qbvWSPKfViI7CdMfcw,3.2,,8ED780A5-111D-4293-BE36-6BEFFE050823,1556866983,2019-05-03 15:03:03,1556867129,2019-05-03 15:05:29,1556867129,874a675e-06e2-46a8-8cdb-aea3ff0f4293__pspm,http://pspm.pingstart.com/api/v4/postback?from=1706&clickid=874a675e-06e2-46a8-8cdb-aea3ff0f4293__pspm,idfa_8ED780A5-111D-4293-BE36-6BEFFE050823,ja
55RCoN7iR5ypqpLcB2NQHA,newborntown,p1789_712-137_336,Of81qbvWSPKfViI7CdMfcw,3.2,,4DAD54DB-A36E-4580-948F-85BE8AF3B679,1556928192,2019-05-04 08:03:12,1556928340,2019-05-04 08:05:40,1556928340,59e9441a-22d4-43dc-97ae-01b4b75ddef4__pspm,http://pspm.pingstart.com/api/v4/postback?from=1706&clickid=59e9441a-22d4-43dc-97ae-01b4b75ddef4__pspm,idfa_4DAD54DB-A36E-4580-948F-85BE8AF3B679,ja
55RCoN7iR5ypqpLcB2NQHA,newborntown,p1789_712-137_336,Of81qbvWSPKfViI7CdMfcw,3.2,,2CB30252-652D-46AE-9490-FB6AAB2CB9AF,1556866992,2019-05-03 15:03:12,1556867132,2019-05-03 15:05:32,1556867132,e7553328-63c8-4a5a-823c-168c9f301a9f__pspm,http://pspm.pingstart.com/api/v4/postback?from=1706&clickid=e7553328-63c8-4a5a-823c-168c9f301a9f__pspm,idfa_2CB30252-652D-46AE-9490-FB6AAB2CB9AF,ja
55RCoN7iR5ypqpLcB2NQHA,newborntown,p1789_712-137_336,Of81qbvWSPKfViI7CdMfcw,3.2,,625ADE59-FE78-4BA0-A4B1-8C94526DC0B4,1556866979,2019-05-03 15:02:59,1556867126,2019-05-03 15:05:26,1556867126,7ea3e784-24c4-4c33-b469-123a18374e7a__pspm,http://pspm.pingstart.com/api/v4/postback?from=1706&clickid=7ea3e784-24c4-4c33-b469-123a18374e7a__pspm,idfa_625ADE59-FE78-4BA0-A4B1-8C94526DC0B4,ja
55RCoN7iR5ypqpLcB2NQHA,newborntown,p1789_712-137_336,Of81qbvWSPKfViI7CdMfcw,3.2,,795A0F82-3745-4014-9A50-BF503F0F5350,1556867393,2019-05-03 15:09:53,1556867538,2019-05-03 15:12:18,1556867538,4fe4f496-dde2-4d0f-8302-cd469fda0c61__pspm,http://pspm.pingstart.com/api/v4/postback?from=1706&clickid=4fe4f496-dde2-4d0f-8302-cd469fda0c61__pspm,idfa_795A0F82-3745-4014-9A50-BF503F0F5350,ja
55RCoN7iR5ypqpLcB2NQHA,newborntown,p1789_712-137_336,Of81qbvWSPKfViI7CdMfcw,3.2,,4C4E27A6-8A83-4FAB-8DB1-6DBA8433278A,1556932653,2019-05-04 09:17:33,1556932808,2019-05-04 09:20:08,1556932808,1b0f10a7-fb2f-43f8-b79a-372254c25827__pspm,http://pspm.pingstart.com/api/v4/postback?from=1706&clickid=1b0f10a7-fb2f-43f8-b79a-372254c25827__pspm,idfa_4C4E27A6-8A83-4FAB-8DB1-6DBA8433278A,ja
55RCoN7iR5ypqpLcB2NQHA,newborntown,p1789_712-137_336,Of81qbvWSPKfViI7CdMfcw,3.2,,28D347C4-F9C0-44E2-BBE9-501BFB695A9C,1556900668,2019-05-04 00:24:28,1556900814,2019-05-04 00:26:54,1556900814,83884de9-69d6-4b46-8995-eaf79754f16f__pspm,http://pspm.pingstart.com/api/v4/postback?from=1706&clickid=83884de9-69d6-4b46-8995-eaf79754f16f__pspm,idfa_28D347C4-F9C0-44E2-BBE9-501BFB695A9C,ja
55RCoN7iR5ypqpLcB2NQHA,newborntown,p1789_712-137_336,Of81qbvWSPKfViI7CdMfcw,3.2,,8BBDBCD8-FB61-48E0-BCFF-636E742AA1CB,1556867411,2019-05-03 15:10:11,1556867548,2019-05-03 15:12:28,1556867548,e055daba-43ea-4fba-b7c8-2a0e6fde58b2__pspm,http://pspm.pingstart.com/api/v4/postback?from=1706&clickid=e055daba-43ea-4fba-b7c8-2a0e6fde58b2__pspm,idfa_8BBDBCD8-FB61-48E0-BCFF-636E742AA1CB,ja
55RCoN7iR5ypqpLcB2NQHA,newborntown,p1789_712-137_336,Of81qbvWSPKfViI7CdMfcw,3.2,,577F5442-4AE0-4B07-9BF8-4458009D2BC1,1556925010,2019-05-04 07:10:10,1556925158,2019-05-04 07:12:38,1556925158,fa6e9588-4c50-489f-84bb-3590a75ef08c__pspm,http://pspm.pingstart.com/api/v4/postback?from=1706&clickid=fa6e9588-4c50-489f-84bb-3590a75ef08c__pspm,idfa_577F5442-4AE0-4B07-9BF8-4458009D2BC1,ja
55RCoN7iR5ypqpLcB2NQHA,newborntown,p1789_712-137_336,Of81qbvWSPKfViI7CdMfcw,3.2,,C0FE8BE6-EBC6-44CB-87E9-5541F8A7D246,1556932647,2019-05-04 09:17:27,1556932797,2019-05-04 09:19:57,1556932797,8c37ed40-8fe7-4bac-a5e9-15a950bfebe3__pspm,http://pspm.pingstart.com/api/v4/postback?from=1706&clickid=8c37ed40-8fe7-4bac-a5e9-15a950bfebe3__pspm,idfa_C0FE8BE6-EBC6-44CB-87E9-5541F8A7D246,ja
55RCoN7iR5ypqpLcB2NQHA,newborntown,p1789_712-137_336,Of81qbvWSPKfViI7CdMfcw,3.2,,4F847C66-476B-4958-8FFA-9277FC8EBCDD,1556910823,2019-05-04 03:13:43,1556910975,2019-05-04 03:16:15,1556910975,2b92865b-431d-4da6-9e80-294b84da533a__pspm,http://pspm.pingstart.com/api/v4/postback?from=1706&clickid=2b92865b-431d-4da6-9e80-294b84da533a__pspm,idfa_4F847C66-476B-4958-8FFA-9277FC8EBCDD,ja
55RCoN7iR5ypqpLcB2NQHA,newborntown,p1789_712-137_336,Of81qbvWSPKfViI7CdMfcw,3.2,,60D9D365-1E79-4C91-9FD4-D3F1FE219BAE,1556928593,2019-05-04 08:09:53,1556928701,2019-05-04 08:11:41,1556928701,07cf1203-90e2-4513-afca-6a64f8573b10__pspm,http://pspm.pingstart.com/api/v4/postback?from=1706&clickid=07cf1203-90e2-4513-afca-6a64f8573b10__pspm,idfa_60D9D365-1E79-4C91-9FD4-D3F1FE219BAE,ja
55RCoN7iR5ypqpLcB2NQHA,newborntown,p1789_712-137_336,Of81qbvWSPKfViI7CdMfcw,3.2,,A3201A28-F76D-43E9-8820-2890A48115C5,1556867414,2019-05-03 15:10:14,1556867559,2019-05-03 15:12:39,1556867559,1d206d3d-0338-4875-8c24-411af493a02e__pspm,http://pspm.pingstart.com/api/v4/postback?from=1706&clickid=1d206d3d-0338-4875-8c24-411af493a02e__pspm,idfa_A3201A28-F76D-43E9-8820-2890A48115C5,ja
55RCoN7iR5ypqpLcB2NQHA,newborntown,p1789_712-137_336,Of81qbvWSPKfViI7CdMfcw,3.2,,3EE866BE-F42A-497C-AE60-07ED6653A69C,1556924587,2019-05-04 07:03:07,1556924755,2019-05-04 07:05:55,1556924755,1d17094b-ec7e-4532-bb49-7c2658da8a3c__pspm,http://pspm.pingstart.com/api/v4/postback?from=1706&clickid=1d17094b-ec7e-4532-bb49-7c2658da8a3c__pspm,idfa_3EE866BE-F42A-497C-AE60-07ED6653A69C,ja
55RCoN7iR5ypqpLcB2NQHA,newborntown,p1789_712-137_336,Of81qbvWSPKfViI7CdMfcw,3.2,,ED829F10-43A8-4E05-AABF-BB1B0D472505,1556866652,2019-05-03 14:57:32,1556866802,2019-05-03 15:00:02,1556866802,1f77d8f6-1256-4ba0-9425-42ddbcf2710a__pspm,http://pspm.pingstart.com/api/v4/postback?from=1706&clickid=1f77d8f6-1256-4ba0-9425-42ddbcf2710a__pspm,idfa_ED829F10-43A8-4E05-AABF-BB1B0D472505,ja
55RCoN7iR5ypqpLcB2NQHA,newborntown,p1789_712-137_336,Of81qbvWSPKfViI7CdMfcw,3.2,,931DD7AD-EC4D-4E52-AF50-45F634FD0718,1556866978,2019-05-03 15:02:58,1556867077,2019-05-03 15:04:37,1556867077,7c0e2fd3-1d02-44d6-9b10-5252e31fb17f__pspm,http://pspm.pingstart.com/api/v4/postback?from=1706&clickid=7c0e2fd3-1d02-44d6-9b10-5252e31fb17f__pspm,idfa_931DD7AD-EC4D-4E52-AF50-45F634FD0718,ja
55RCoN7iR5ypqpLcB2NQHA,newborntown,p1789_712-137_336,Of81qbvWSPKfViI7CdMfcw,3.2,,5B5315E1-CF6C-49E3-B27F-05F40CE3ABB0,1556866470,2019-05-03 14:54:30,1556866615,2019-05-03 14:56:55,1556866615,7b838716-48e4-45e2-a1cc-77a676804def__pspm,http://pspm.pingstart.com/api/v4/postback?from=1706&clickid=7b838716-48e4-45e2-a1cc-77a676804def__pspm,idfa_5B5315E1-CF6C-49E3-B27F-05F40CE3ABB0,ja
55RCoN7iR5ypqpLcB2NQHA,newborntown,p1789_712-137_336,Of81qbvWSPKfViI7CdMfcw,3.2,,4C405ABE-CD3D-4CAC-8FC5-11584D6F4622,1556924982,2019-05-04 07:09:42,1556925136,2019-05-04 07:12:16,1556925136,f650183f-4664-4cfa-808e-453ccf6e9dee__pspm,http://pspm.pingstart.com/api/v4/postback?from=1706&clickid=f650183f-4664-4cfa-808e-453ccf6e9dee__pspm,idfa_4C405ABE-CD3D-4CAC-8FC5-11584D6F4622,ja
55RCoN7iR5ypqpLcB2NQHA,newborntown,p1789_712-137_336,Of81qbvWSPKfViI7CdMfcw,3.2,,61C6DD05-F10F-43FE-9D93-0E09A32B6157,1556867521,2019-05-03 15:12:01,1556867669,2019-05-03 15:14:29,1556867669,b8057bc8-7f15-4959-aa7a-985c2ced19e0__pspm,http://pspm.pingstart.com/api/v4/postback?from=1706&clickid=b8057bc8-7f15-4959-aa7a-985c2ced19e0__pspm,idfa_61C6DD05-F10F-43FE-9D93-0E09A32B6157,ja
55RCoN7iR5ypqpLcB2NQHA,newborntown,p1789_712-137_336,Of81qbvWSPKfViI7CdMfcw,3.2,,B072B662-4940-443E-A4DC-60AEFD8A8CC3,1556932645,2019-05-04 09:17:25,1556932809,2019-05-04 09:20:09,1556932809,aa587e0c-da12-481f-93cd-3ffeb5877205__pspm,http://pspm.pingstart.com/api/v4/postback?from=1706&clickid=aa587e0c-da12-481f-93cd-3ffeb5877205__pspm,idfa_B072B662-4940-443E-A4DC-60AEFD8A8CC3,ja
55RCoN7iR5ypqpLcB2NQHA,newborntown,p1789_712-137_336,Of81qbvWSPKfViI7CdMfcw,3.2,,4742891C-07E5-4727-BC32-C0C506C7C17D,1556867406,2019-05-03 15:10:06,1556867556,2019-05-03 15:12:36,1556867556,fe881af7-7d77-43c9-9c75-5092d809dc32__pspm,http://pspm.pingstart.com/api/v4/postback?from=1706&clickid=fe881af7-7d77-43c9-9c75-5092d809dc32__pspm,idfa_4742891C-07E5-4727-BC32-C0C506C7C17D,ja
55RCoN7iR5ypqpLcB2NQHA,newborntown,p1789_712-137_336,Of81qbvWSPKfViI7CdMfcw,3.2,,6AF89057-60A5-4357-8DC6-A6C52EBF3727,1556924989,2019-05-04 07:09:49,1556925138,2019-05-04 07:12:18,1556925138,e5cb573b-39b6-4326-bffe-933d0312f8f8__pspm,http://pspm.pingstart.com/api/v4/postback?from=1706&clickid=e5cb573b-39b6-4326-bffe-933d0312f8f8__pspm,idfa_6AF89057-60A5-4357-8DC6-A6C52EBF3727,ja
55RCoN7iR5ypqpLcB2NQHA,newborntown,p1789_712-137_336,Of81qbvWSPKfViI7CdMfcw,3.2,,41F25A93-87F4-4511-AF49-2710EB45DD58,1556866952,2019-05-03 15:02:32,1556867071,2019-05-03 15:04:31,1556867071,f75fb4c8-d929-436d-9bb4-3045316b95ff__pspm,http://pspm.pingstart.com/api/v4/postback?from=1706&clickid=f75fb4c8-d929-436d-9bb4-3045316b95ff__pspm,idfa_41F25A93-87F4-4511-AF49-2710EB45DD58,ja
55RCoN7iR5ypqpLcB2NQHA,newborntown,p1789_712-137_336,Of81qbvWSPKfViI7CdMfcw,3.2,,EC30F616-57CB-44DB-A841-63CA18245470,1556867379,2019-05-03 15:09:39,1556867523,2019-05-03 15:12:03,1556867523,a141f98a-2106-4998-8f07-4a0dc4e049c1__pspm,http://pspm.pingstart.com/api/v4/postback?from=1706&clickid=a141f98a-2106-4998-8f07-4a0dc4e049c1__pspm,idfa_EC30F616-57CB-44DB-A841-63CA18245470,ja
55RCoN7iR5ypqpLcB2NQHA,newborntown,p1789_712-137_336,Of81qbvWSPKfViI7CdMfcw,3.2,,3ED929EF-4A7A-4F2A-9483-E0DAA1DAE6E3,1556867386,2019-05-03 15:09:46,1556867532,2019-05-03 15:12:12,1556867532,5245d03c-5c35-4052-adb0-56fe098cce62__pspm,http://pspm.pingstart.com/api/v4/postback?from=1706&clickid=5245d03c-5c35-4052-adb0-56fe098cce62__pspm,idfa_3ED929EF-4A7A-4F2A-9483-E0DAA1DAE6E3,ja
55RCoN7iR5ypqpLcB2NQHA,newborntown,p1789_712-137_336,Of81qbvWSPKfViI7CdMfcw,3.2,,B3E25D2A-B70C-40AF-932D-77BFA4B2EE4D,1556863937,2019-05-03 14:12:17,1556864088,2019-05-03 14:14:48,1556864088,68aff6fe-ba01-41cd-9245-6b063c254a79__pspm,http://pspm.pingstart.com/api/v4/postback?from=1706&clickid=68aff6fe-ba01-41cd-9245-6b063c254a79__pspm,idfa_B3E25D2A-B70C-40AF-932D-77BFA4B2EE4D,ja
55RCoN7iR5ypqpLcB2NQHA,newborntown,p1789_712-137_336,Of81qbvWSPKfViI7CdMfcw,3.2,,A8841516-DBFB-4C50-9D64-9999B380F100,1556866956,2019-05-03 15:02:36,1556867096,2019-05-03 15:04:56,1556867096,6f9f4cbc-b5cb-4038-9949-c259be686911__pspm,http://pspm.pingstart.com/api/v4/postback?from=1706&clickid=6f9f4cbc-b5cb-4038-9949-c259be686911__pspm,idfa_A8841516-DBFB-4C50-9D64-9999B380F100,ja
55RCoN7iR5ypqpLcB2NQHA,newborntown,p1789_712-137_336,Of81qbvWSPKfViI7CdMfcw,3.2,,01384872-A1A5-4906-AE19-C96F7E20ED58,1556932666,2019-05-04 09:17:46,1556932825,2019-05-04 09:20:25,1556932825,c43049ba-36fd-4edc-a2b1-ee53e632d5e7__pspm,http://pspm.pingstart.com/api/v4/postback?from=1706&clickid=c43049ba-36fd-4edc-a2b1-ee53e632d5e7__pspm,idfa_01384872-A1A5-4906-AE19-C96F7E20ED58,ja
55RCoN7iR5ypqpLcB2NQHA,newborntown,p1789_712-137_336,Of81qbvWSPKfViI7CdMfcw,3.2,,3965B49A-2E9A-4F41-812E-AC3C0BC6CD30,1556931284,2019-05-04 08:54:44,1556931411,2019-05-04 08:56:51,1556931411,f6c0f20c-dd22-4b6b-ac19-17b12ba3f8aa__pspm,http://pspm.pingstart.com/api/v4/postback?from=1706&clickid=f6c0f20c-dd22-4b6b-ac19-17b12ba3f8aa__pspm,idfa_3965B49A-2E9A-4F41-812E-AC3C0BC6CD30,ja
55RCoN7iR5ypqpLcB2NQHA,newborntown,p1789_712-137_336,Of81qbvWSPKfViI7CdMfcw,3.2,,9BDCBFDD-6B6F-43CF-BD61-154EC02A4918,1556915312,2019-05-04 04:28:32,1556915413,2019-05-04 04:30:13,1556915413,79c7a458-dd49-4237-920f-a39ad191ac07__pspm,http://pspm.pingstart.com/api/v4/postback?from=1706&clickid=79c7a458-dd49-4237-920f-a39ad191ac07__pspm,idfa_9BDCBFDD-6B6F-43CF-BD61-154EC02A4918,ja
55RCoN7iR5ypqpLcB2NQHA,newborntown,p1789_712-137_336,Of81qbvWSPKfViI7CdMfcw,3.2,,565F7872-279C-4FE3-8BFD-81A7B8A47675,1556928590,2019-05-04 08:09:50,1556928734,2019-05-04 08:12:14,1556928734,108f4456-71c8-419c-a89f-54afc97600cf__pspm,http://pspm.pingstart.com/api/v4/postback?from=1706&clickid=108f4456-71c8-419c-a89f-54afc97600cf__pspm,idfa_565F7872-279C-4FE3-8BFD-81A7B8A47675,ja
55RCoN7iR5ypqpLcB2NQHA,newborntown,p1789_712-137_336,Of81qbvWSPKfViI7CdMfcw,3.2,,293FAFB4-DD9A-4E5B-AB6F-4B85216394BD,1556866988,2019-05-03 15:03:08,1556867143,2019-05-03 15:05:43,1556867143,ec01208a-66ed-479f-8979-32b0a105a89f__pspm,http://pspm.pingstart.com/api/v4/postback?from=1706&clickid=ec01208a-66ed-479f-8979-32b0a105a89f__pspm,idfa_293FAFB4-DD9A-4E5B-AB6F-4B85216394BD,ja
55RCoN7iR5ypqpLcB2NQHA,newborntown,p1789_712-137_336,Of81qbvWSPKfViI7CdMfcw,3.2,,9C12E0D0-C1FC-4A82-B50E-898024F69E19,1556866956,2019-05-03 15:02:36,1556867089,2019-05-03 15:04:49,1556867089,fbf3de53-db2d-489b-9fc5-62ac79337680__pspm,http://pspm.pingstart.com/api/v4/postback?from=1706&clickid=fbf3de53-db2d-489b-9fc5-62ac79337680__pspm,idfa_9C12E0D0-C1FC-4A82-B50E-898024F69E19,ja
55RCoN7iR5ypqpLcB2NQHA,newborntown,p1789_712-137_336,Of81qbvWSPKfViI7CdMfcw,3.2,,93136D7F-A2D4-40BA-9D04-7D10508A0129,1556866985,2019-05-03 15:03:05,1556867140,2019-05-03 15:05:40,1556867140,84bc2bf2-09d0-4b6b-a936-e7a7dba672ff__pspm,http://pspm.pingstart.com/api/v4/postback?from=1706&clickid=84bc2bf2-09d0-4b6b-a936-e7a7dba672ff__pspm,idfa_93136D7F-A2D4-40BA-9D04-7D10508A0129,ja
55RCoN7iR5ypqpLcB2NQHA,newborntown,p1789_712-137_336,Of81qbvWSPKfViI7CdMfcw,3.2,,262FFE20-11DF-42FA-9939-5BA989D75FE3,1556925072,2019-05-04 07:11:12,1556925231,2019-05-04 07:13:51,1556925231,2dac2587-2eb4-4e41-b7ed-653ad96f6c43__pspm,http://pspm.pingstart.com/api/v4/postback?from=1706&clickid=2dac2587-2eb4-4e41-b7ed-653ad96f6c43__pspm,idfa_262FFE20-11DF-42FA-9939-5BA989D75FE3,ja
55RCoN7iR5ypqpLcB2NQHA,newborntown,p1789_712-137_336,Of81qbvWSPKfViI7CdMfcw,3.2,,CFD96357-099A-42E1-93A6-1EDB0587C2DB,1556931298,2019-05-04 08:54:58,1556931460,2019-05-04 08:57:40,1556931460,fae5dfaa-be7b-4a1f-8703-7266516f4f0f__pspm,http://pspm.pingstart.com/api/v4/postback?from=1706&clickid=fae5dfaa-be7b-4a1f-8703-7266516f4f0f__pspm,idfa_CFD96357-099A-42E1-93A6-1EDB0587C2DB,ja
55RCoN7iR5ypqpLcB2NQHA,newborntown,p1789_712-137_336,Of81qbvWSPKfViI7CdMfcw,3.2,,4C8E69C1-3537-4178-A8EA-63BBC990C1D9,1556866960,2019-05-03 15:02:40,1556867116,2019-05-03 15:05:16,1556867116,fbbe1184-6371-4712-9005-dc8575159032__pspm,http://pspm.pingstart.com/api/v4/postback?from=1706&clickid=fbbe1184-6371-4712-9005-dc8575159032__pspm,idfa_4C8E69C1-3537-4178-A8EA-63BBC990C1D9,ja
55RCoN7iR5ypqpLcB2NQHA,newborntown,p1789_712-137_336,Of81qbvWSPKfViI7CdMfcw,3.2,,45F765A7-E04B-4F3D-BFDA-D2DE6D7BF4D1,1556924569,2019-05-04 07:02:49,1556924685,2019-05-04 07:04:45,1556924685,af63cc55-6f7c-4aff-9354-30620a57759b__pspm,http://pspm.pingstart.com/api/v4/postback?from=1706&clickid=af63cc55-6f7c-4aff-9354-30620a57759b__pspm,idfa_45F765A7-E04B-4F3D-BFDA-D2DE6D7BF4D1,ja
55RCoN7iR5ypqpLcB2NQHA,newborntown,p1789_712-137_336,Of81qbvWSPKfViI7CdMfcw,3.2,,6E17D29D-8BE9-4A28-8DF6-77269A1CD685,1556928594,2019-05-04 08:09:54,1556928747,2019-05-04 08:12:27,1556928747,c34ea04f-b4b8-4e57-b381-a19f916a2d6f__pspm,http://pspm.pingstart.com/api/v4/postback?from=1706&clickid=c34ea04f-b4b8-4e57-b381-a19f916a2d6f__pspm,idfa_6E17D29D-8BE9-4A28-8DF6-77269A1CD685,ja
55RCoN7iR5ypqpLcB2NQHA,newborntown,p1789_712-137_336,Of81qbvWSPKfViI7CdMfcw,3.2,,D7ABEE97-33EF-4789-91A9-272A5AFFA474,1556931826,2019-05-04 09:03:46,1556931981,2019-05-04 09:06:21,1556931981,3a70d04a-0f88-482e-b91a-ed457479b0cd__pspm,http://pspm.pingstart.com/api/v4/postback?from=1706&clickid=3a70d04a-0f88-482e-b91a-ed457479b0cd__pspm,idfa_D7ABEE97-33EF-4789-91A9-272A5AFFA474,ja
55RCoN7iR5ypqpLcB2NQHA,newborntown,p1789_712-137_336,Of81qbvWSPKfViI7CdMfcw,3.2,,409DA319-5C4C-43BB-B80B-ECED1B76B2B3,1556932205,2019-05-04 09:10:05,1556932334,2019-05-04 09:12:14,1556932334,c360d5a3-de91-43a2-9a0a-d0cae14847d8__pspm,http://pspm.pingstart.com/api/v4/postback?from=1706&clickid=c360d5a3-de91-43a2-9a0a-d0cae14847d8__pspm,idfa_409DA319-5C4C-43BB-B80B-ECED1B76B2B3,ja
55RCoN7iR5ypqpLcB2NQHA,newborntown,p1789_712-137_336,Of81qbvWSPKfViI7CdMfcw,3.2,,4C7C69A1-D4F4-43F6-A836-817B31D3E4DB,1556928206,2019-05-04 08:03:26,1556928346,2019-05-04 08:05:46,1556928346,9ab64615-cbe8-4dbc-9804-9c4268809eff__pspm,http://pspm.pingstart.com/api/v4/postback?from=1706&clickid=9ab64615-cbe8-4dbc-9804-9c4268809eff__pspm,idfa_4C7C69A1-D4F4-43F6-A836-817B31D3E4DB,ja
55RCoN7iR5ypqpLcB2NQHA,newborntown,p1789_712-137_336,Of81qbvWSPKfViI7CdMfcw,3.2,,D4B72753-2DBB-48E3-AB37-DA842447356C,1556867419,2019-05-03 15:10:19,1556867559,2019-05-03 15:12:39,1556867559,7b56162b-0bf2-445c-8167-7e3cb1fcf2b8__pspm,http://pspm.pingstart.com/api/v4/postback?from=1706&clickid=7b56162b-0bf2-445c-8167-7e3cb1fcf2b8__pspm,idfa_D4B72753-2DBB-48E3-AB37-DA842447356C,ja
55RCoN7iR5ypqpLcB2NQHA,newborntown,p1789_712-137_336,Of81qbvWSPKfViI7CdMfcw,3.2,,844D780B-3524-48F2-8BF1-451FE3AE42A3,1556928628,2019-05-04 08:10:28,1556928773,2019-05-04 08:12:53,1556928773,8963c6a6-93cf-4b8e-a898-f9c70a345c95__pspm,http://pspm.pingstart.com/api/v4/postback?from=1706&clickid=8963c6a6-93cf-4b8e-a898-f9c70a345c95__pspm,idfa_844D780B-3524-48F2-8BF1-451FE3AE42A3,ja
55RCoN7iR5ypqpLcB2NQHA,newborntown,p1789_712-137_336,Of81qbvWSPKfViI7CdMfcw,3.2,,122D503C-E90A-489D-9ADA-003D8C8FCCCD,1556867394,2019-05-03 15:09:54,1556867544,2019-05-03 15:12:24,1556867544,a6642919-f630-4cda-82d8-67fe3635ca65__pspm,http://pspm.pingstart.com/api/v4/postback?from=1706&clickid=a6642919-f630-4cda-82d8-67fe3635ca65__pspm,idfa_122D503C-E90A-489D-9ADA-003D8C8FCCCD,ja
55RCoN7iR5ypqpLcB2NQHA,newborntown,p1789_712-137_336,Of81qbvWSPKfViI7CdMfcw,3.2,,2FC841B8-DC96-4238-98B9-91880020E61B,1556867383,2019-05-03 15:09:43,1556867536,2019-05-03 15:12:16,1556867536,0a997c3b-9c6b-4bcc-aec9-33c4b727c77e__pspm,http://pspm.pingstart.com/api/v4/postback?from=1706&clickid=0a997c3b-9c6b-4bcc-aec9-33c4b727c77e__pspm,idfa_2FC841B8-DC96-4238-98B9-91880020E61B,ja
55RCoN7iR5ypqpLcB2NQHA,newborntown,p1789_712-137_336,Of81qbvWSPKfViI7CdMfcw,3.2,,321817A1-F2BB-4FE2-A0C6-DB31787B0022,1556867435,2019-05-03 15:10:35,1556867580,2019-05-03 15:13:00,1556867580,bd3be942-98d6-4246-8404-ae0aaf48fe93__pspm,http://pspm.pingstart.com/api/v4/postback?from=1706&clickid=bd3be942-98d6-4246-8404-ae0aaf48fe93__pspm,idfa_321817A1-F2BB-4FE2-A0C6-DB31787B0022,ja
55RCoN7iR5ypqpLcB2NQHA,newborntown,p1789_712-137_336,Of81qbvWSPKfViI7CdMfcw,3.2,,26646E21-6C1C-45AC-B113-6E9D92E09350,1556867020,2019-05-03 15:03:40,1556867161,2019-05-03 15:06:01,1556867161,cc2222e5-bc96-4d68-a71b-c9e967d68bc0__pspm,http://pspm.pingstart.com/api/v4/postback?from=1706&clickid=cc2222e5-bc96-4d68-a71b-c9e967d68bc0__pspm,idfa_26646E21-6C1C-45AC-B113-6E9D92E09350,ja
55RCoN7iR5ypqpLcB2NQHA,newborntown,p1789_712-137_336,Of81qbvWSPKfViI7CdMfcw,3.2,,4A4A6039-9E4C-40C8-81AB-1B6CC59DFEBC,1556925001,2019-05-04 07:10:01,1556925139,2019-05-04 07:12:19,1556925139,ecc6f78b-5a02-4150-8f57-49bf79af0ba6__pspm,http://pspm.pingstart.com/api/v4/postback?from=1706&clickid=ecc6f78b-5a02-4150-8f57-49bf79af0ba6__pspm,idfa_4A4A6039-9E4C-40C8-81AB-1B6CC59DFEBC,ja
55RCoN7iR5ypqpLcB2NQHA,newborntown,p1789_712-137_336,Of81qbvWSPKfViI7CdMfcw,3.2,,4DCE5F22-9468-4EA5-A047-0357055DA12D,1556867398,2019-05-03 15:09:58,1556867536,2019-05-03 15:12:16,1556867536,b050523b-d222-4583-b93b-429697db3575__pspm,http://pspm.pingstart.com/api/v4/postback?from=1706&clickid=b050523b-d222-4583-b93b-429697db3575__pspm,idfa_4DCE5F22-9468-4EA5-A047-0357055DA12D,ja
55RCoN7iR5ypqpLcB2NQHA,newborntown,p1789_712-137_336,Of81qbvWSPKfViI7CdMfcw,3.2,,8C926C64-6C3B-4412-8BBB-DF6F09F09107,1556867402,2019-05-03 15:10:02,1556867557,2019-05-03 15:12:37,1556867557,4cf4b322-8d30-446d-9d77-5d22b13bced5__pspm,http://pspm.pingstart.com/api/v4/postback?from=1706&clickid=4cf4b322-8d30-446d-9d77-5d22b13bced5__pspm,idfa_8C926C64-6C3B-4412-8BBB-DF6F09F09107,ja
55RCoN7iR5ypqpLcB2NQHA,newborntown,p1789_712-137_336,Of81qbvWSPKfViI7CdMfcw,3.2,,DB9E7083-551A-4FBB-BDAE-45AFF33461B1,1556932687,2019-05-04 09:18:07,1556932830,2019-05-04 09:20:30,1556932830,08e32d5b-1f8d-4b41-9a00-cb444d8c5263__pspm,http://pspm.pingstart.com/api/v4/postback?from=1706&clickid=08e32d5b-1f8d-4b41-9a00-cb444d8c5263__pspm,idfa_DB9E7083-551A-4FBB-BDAE-45AFF33461B1,ja
55RCoN7iR5ypqpLcB2NQHA,newborntown,p1789_712-137_336,Of81qbvWSPKfViI7CdMfcw,3.2,,A7A1E6D4-E42F-4A53-BAC8-FCB22AA5BCA3,1556866468,2019-05-03 14:54:28,1556866612,2019-05-03 14:56:52,1556866612,632141a0-ea2c-4efa-881e-41ec13c23e34__pspm,http://pspm.pingstart.com/api/v4/postback?from=1706&clickid=632141a0-ea2c-4efa-881e-41ec13c23e34__pspm,idfa_A7A1E6D4-E42F-4A53-BAC8-FCB22AA5BCA3,ja
55RCoN7iR5ypqpLcB2NQHA,newborntown,p1789_712-137_336,Of81qbvWSPKfViI7CdMfcw,3.2,,E99501B1-7189-4131-9F87-B4B748ACB06D,1556924552,2019-05-04 07:02:32,1556924663,2019-05-04 07:04:23,1556924663,fcad4214-f189-4a30-adb5-a2c01ade531e__pspm,http://pspm.pingstart.com/api/v4/postback?from=1706&clickid=fcad4214-f189-4a30-adb5-a2c01ade531e__pspm,idfa_E99501B1-7189-4131-9F87-B4B748ACB06D,ja
55RCoN7iR5ypqpLcB2NQHA,newborntown,p1789_712-137_336,Of81qbvWSPKfViI7CdMfcw,3.2,,664D3DF1-F8D9-4DEC-BFD5-083BAB6F2995,1556867401,2019-05-03 15:10:01,1556867544,2019-05-03 15:12:24,1556867544,8ebf354a-eaf4-47e3-a84e-e51d177bd766__pspm,http://pspm.pingstart.com/api/v4/postback?from=1706&clickid=8ebf354a-eaf4-47e3-a84e-e51d177bd766__pspm,idfa_664D3DF1-F8D9-4DEC-BFD5-083BAB6F2995,ja
55RCoN7iR5ypqpLcB2NQHA,newborntown,p1789_712-137_336,Of81qbvWSPKfViI7CdMfcw,3.2,,57F2B6A2-35CC-4825-84A0-6851F9C7CF0B,1556893496,2019-05-03 22:24:56,1556893584,2019-05-03 22:26:24,1556893584,723dfe60-16c2-4faa-a3cc-b004a1e862fb__pspm,http://pspm.pingstart.com/api/v4/postback?from=1706&clickid=723dfe60-16c2-4faa-a3cc-b004a1e862fb__pspm,idfa_57F2B6A2-35CC-4825-84A0-6851F9C7CF0B,ja
55RCoN7iR5ypqpLcB2NQHA,newborntown,p1789_712-137_336,Of81qbvWSPKfViI7CdMfcw,3.2,,289DC4E9-8D9D-40C2-8C7A-F6BAA00AAE9F,1556931798,2019-05-04 09:03:18,1556931919,2019-05-04 09:05:19,1556931919,53a8b453-bbd1-448b-ba0d-1f4b3308ee36__pspm,http://pspm.pingstart.com/api/v4/postback?from=1706&clickid=53a8b453-bbd1-448b-ba0d-1f4b3308ee36__pspm,idfa_289DC4E9-8D9D-40C2-8C7A-F6BAA00AAE9F,ja
55RCoN7iR5ypqpLcB2NQHA,newborntown,p1789_712-137_336,Of81qbvWSPKfViI7CdMfcw,3.2,,2D7AEF71-98EC-4DE0-AAAD-E4AA37B36832,1556932432,2019-05-04 09:13:52,1556932583,2019-05-04 09:16:23,1556932583,eeef0fb8-3d9b-41a0-b0b5-76f9f20280e4__pspm,http://pspm.pingstart.com/api/v4/postback?from=1706&clickid=eeef0fb8-3d9b-41a0-b0b5-76f9f20280e4__pspm,idfa_2D7AEF71-98EC-4DE0-AAAD-E4AA37B36832,ja
55RCoN7iR5ypqpLcB2NQHA,newborntown,p1789_712-137_336,Of81qbvWSPKfViI7CdMfcw,3.2,,1BD9D337-E0E1-486E-BA65-C6594447E5B2,1556881472,2019-05-03 19:04:32,1556881630,2019-05-03 19:07:10,1556881630,9b6088ba-be02-42eb-a3c8-5a6827d5d0ca__pspm,http://pspm.pingstart.com/api/v4/postback?from=1706&clickid=9b6088ba-be02-42eb-a3c8-5a6827d5d0ca__pspm,idfa_1BD9D337-E0E1-486E-BA65-C6594447E5B2,ja
55RCoN7iR5ypqpLcB2NQHA,newborntown,p1789_712-137_336,Of81qbvWSPKfViI7CdMfcw,3.2,,7D4EDD9A-D2C7-4C6F-B4AF-BDDB13F6BFF5,1556931793,2019-05-04 09:03:13,1556931919,2019-05-04 09:05:19,1556931919,d5052657-49ce-4cda-b41c-b28eb9eddbf4__pspm,http://pspm.pingstart.com/api/v4/postback?from=1706&clickid=d5052657-49ce-4cda-b41c-b28eb9eddbf4__pspm,idfa_7D4EDD9A-D2C7-4C6F-B4AF-BDDB13F6BFF5,ja
55RCoN7iR5ypqpLcB2NQHA,newborntown,p1789_712-137_336,Of81qbvWSPKfViI7CdMfcw,3.2,,AC7EBC66-682B-4015-A838-303BA43677CC,1556925007,2019-05-04 07:10:07,1556925156,2019-05-04 07:12:36,1556925156,d7e95ea5-bdbb-4c44-9e0e-01df0a235926__pspm,http://pspm.pingstart.com/api/v4/postback?from=1706&clickid=d7e95ea5-bdbb-4c44-9e0e-01df0a235926__pspm,idfa_AC7EBC66-682B-4015-A838-303BA43677CC,ja
55RCoN7iR5ypqpLcB2NQHA,newborntown,p1789_712-137_336,Of81qbvWSPKfViI7CdMfcw,3.2,,D886539D-5DF6-4DDC-8235-92BD641990C3,1556924996,2019-05-04 07:09:56,1556925141,2019-05-04 07:12:21,1556925141,b27a2f61-5e0a-4687-82bc-f882e216f971__pspm,http://pspm.pingstart.com/api/v4/postback?from=1706&clickid=b27a2f61-5e0a-4687-82bc-f882e216f971__pspm,idfa_D886539D-5DF6-4DDC-8235-92BD641990C3,ja
55RCoN7iR5ypqpLcB2NQHA,newborntown,p1789_712-137_336,Of81qbvWSPKfViI7CdMfcw,3.2,,6115BBAE-80C7-41BF-BE0C-5B7B5C547EC5,1556928598,2019-05-04 08:09:58,1556928754,2019-05-04 08:12:34,1556928754,3cd5bd7b-ff53-4f92-9324-18c76cc56070__pspm,http://pspm.pingstart.com/api/v4/postback?from=1706&clickid=3cd5bd7b-ff53-4f92-9324-18c76cc56070__pspm,idfa_6115BBAE-80C7-41BF-BE0C-5B7B5C547EC5,ja
55RCoN7iR5ypqpLcB2NQHA,newborntown,p1789_712-137_336,Of81qbvWSPKfViI7CdMfcw,3.2,,CF0AD4C1-3FB6-4302-9EA2-CE463BA45614,1556866999,2019-05-03 15:03:19,1556867133,2019-05-03 15:05:33,1556867133,b6474725-95f0-4ece-ac1f-154226047c32__pspm,http://pspm.pingstart.com/api/v4/postback?from=1706&clickid=b6474725-95f0-4ece-ac1f-154226047c32__pspm,idfa_CF0AD4C1-3FB6-4302-9EA2-CE463BA45614,ja
55RCoN7iR5ypqpLcB2NQHA,newborntown,p1789_712-137_336,Of81qbvWSPKfViI7CdMfcw,3.2,,6B82BF37-28B2-4307-B850-AA3ED07C110F,1556866557,2019-05-03 14:55:57,1556866713,2019-05-03 14:58:33,1556866713,964ef40e-ded3-4328-a34e-944c576341f4__pspm,http://pspm.pingstart.com/api/v4/postback?from=1706&clickid=964ef40e-ded3-4328-a34e-944c576341f4__pspm,idfa_6B82BF37-28B2-4307-B850-AA3ED07C110F,ja
55RCoN7iR5ypqpLcB2NQHA,newborntown,p1789_712-137_336,Of81qbvWSPKfViI7CdMfcw,3.2,,30D11ABD-EA5F-4D92-8CE4-69CFD6EAD239,1556867394,2019-05-03 15:09:54,1556867538,2019-05-03 15:12:18,1556867538,eedc7764-a20b-4d7a-a97a-2176e9d57f4e__pspm,http://pspm.pingstart.com/api/v4/postback?from=1706&clickid=eedc7764-a20b-4d7a-a97a-2176e9d57f4e__pspm,idfa_30D11ABD-EA5F-4D92-8CE4-69CFD6EAD239,ja
55RCoN7iR5ypqpLcB2NQHA,newborntown,p1789_712-137_336,Of81qbvWSPKfViI7CdMfcw,3.2,,E048D020-4398-47EB-B1FE-4E241C0ECAA1,1556928692,2019-05-04 08:11:32,1556928829,2019-05-04 08:13:49,1556928829,461bba9d-9544-4cd7-ae2a-c947ae06da6d__pspm,http://pspm.pingstart.com/api/v4/postback?from=1706&clickid=461bba9d-9544-4cd7-ae2a-c947ae06da6d__pspm,idfa_E048D020-4398-47EB-B1FE-4E241C0ECAA1,ja
55RCoN7iR5ypqpLcB2NQHA,newborntown,p1789_712-137_336,Of81qbvWSPKfViI7CdMfcw,3.2,,85163C59-5543-43B2-8690-B27EFB9FF448,1556928600,2019-05-04 08:10:00,1556928749,2019-05-04 08:12:29,1556928749,cb143106-bf05-45d4-b482-4464484460f9__pspm,http://pspm.pingstart.com/api/v4/postback?from=1706&clickid=cb143106-bf05-45d4-b482-4464484460f9__pspm,idfa_85163C59-5543-43B2-8690-B27EFB9FF448,ja
55RCoN7iR5ypqpLcB2NQHA,newborntown,p1789_712-137_336,Of81qbvWSPKfViI7CdMfcw,3.2,,75F9E7F0-6577-4E67-A467-A9F9EEF2B247,1556885833,2019-05-03 20:17:13,1556885986,2019-05-03 20:19:46,1556885986,9bc2207d-4c13-48f8-b215-aa890a4f8fb0__pspm,http://pspm.pingstart.com/api/v4/postback?from=1706&clickid=9bc2207d-4c13-48f8-b215-aa890a4f8fb0__pspm,idfa_75F9E7F0-6577-4E67-A467-A9F9EEF2B247,ja
55RCoN7iR5ypqpLcB2NQHA,newborntown,p1789_712-137_336,Of81qbvWSPKfViI7CdMfcw,3.2,,63621D8B-F56E-4ACF-A989-429FF5FC3F4E,1556932661,2019-05-04 09:17:41,1556932821,2019-05-04 09:20:21,1556932821,9afeaa13-94c4-4c87-963c-893dd4dccd1f__pspm,http://pspm.pingstart.com/api/v4/postback?from=1706&clickid=9afeaa13-94c4-4c87-963c-893dd4dccd1f__pspm,idfa_63621D8B-F56E-4ACF-A989-429FF5FC3F4E,ja
55RCoN7iR5ypqpLcB2NQHA,newborntown,p1789_712-137_336,Of81qbvWSPKfViI7CdMfcw,3.2,,541ABA22-88AB-4374-B5B1-DD389EA0E2E0,1556932258,2019-05-04 09:10:58,1556932414,2019-05-04 09:13:34,1556932414,2996dbe5-ec2d-42c1-b412-46096a68563b__pspm,http://pspm.pingstart.com/api/v4/postback?from=1706&clickid=2996dbe5-ec2d-42c1-b412-46096a68563b__pspm,idfa_541ABA22-88AB-4374-B5B1-DD389EA0E2E0,ja
55RCoN7iR5ypqpLcB2NQHA,newborntown,p1789_712-137_336,Of81qbvWSPKfViI7CdMfcw,3.2,,6AE32B96-3CC4-4DD8-9CD7-E20877CF4798,1556867380,2019-05-03 15:09:40,1556867523,2019-05-03 15:12:03,1556867523,f4debb97-3458-4e4c-8ee5-838ea0ffa349__pspm,http://pspm.pingstart.com/api/v4/postback?from=1706&clickid=f4debb97-3458-4e4c-8ee5-838ea0ffa349__pspm,idfa_6AE32B96-3CC4-4DD8-9CD7-E20877CF4798,ja
55RCoN7iR5ypqpLcB2NQHA,newborntown,p1789_712-137_336,Of81qbvWSPKfViI7CdMfcw,3.2,,F7C7BDDA-13EF-4AFC-9C0E-3FE811CC7617,1556866985,2019-05-03 15:03:05,1556867143,2019-05-03 15:05:43,1556867143,1b415ddd-e529-454f-aeb2-2a82dfcee753__pspm,http://pspm.pingstart.com/api/v4/postback?from=1706&clickid=1b415ddd-e529-454f-aeb2-2a82dfcee753__pspm,idfa_F7C7BDDA-13EF-4AFC-9C0E-3FE811CC7617,ja
55RCoN7iR5ypqpLcB2NQHA,newborntown,p1789_712-137_336,Of81qbvWSPKfViI7CdMfcw,3.2,,75F73D6D-F0E6-4B24-9082-76A9741C5F78,1556924692,2019-05-04 07:04:52,1556924805,2019-05-04 07:06:45,1556924805,e491c1c2-e862-4ad2-b82a-9c348c2b2a6d__pspm,http://pspm.pingstart.com/api/v4/postback?from=1706&clickid=e491c1c2-e862-4ad2-b82a-9c348c2b2a6d__pspm,idfa_75F73D6D-F0E6-4B24-9082-76A9741C5F78,ja
55RCoN7iR5ypqpLcB2NQHA,newborntown,p1789_712-137_336,Of81qbvWSPKfViI7CdMfcw,3.2,,BBA5CCD9-3CF9-488D-A2D0-D7C97B78D60A,1556931819,2019-05-04 09:03:39,1556931960,2019-05-04 09:06:00,1556931960,bfc52265-7a7b-4cc9-901f-1afec12798db__pspm,http://pspm.pingstart.com/api/v4/postback?from=1706&clickid=bfc52265-7a7b-4cc9-901f-1afec12798db__pspm,idfa_BBA5CCD9-3CF9-488D-A2D0-D7C97B78D60A,ja
55RCoN7iR5ypqpLcB2NQHA,newborntown,p1789_712-137_336,Of81qbvWSPKfViI7CdMfcw,3.2,,C2EE85C3-142C-403E-B1B4-98D9C0734ADE,1556866473,2019-05-03 14:54:33,1556866618,2019-05-03 14:56:58,1556866618,d1ae84b7-4633-48aa-8d56-efe8663be8ac__pspm,http://pspm.pingstart.com/api/v4/postback?from=1706&clickid=d1ae84b7-4633-48aa-8d56-efe8663be8ac__pspm,idfa_C2EE85C3-142C-403E-B1B4-98D9C0734ADE,ja
55RCoN7iR5ypqpLcB2NQHA,newborntown,p1789_712-137_336,Of81qbvWSPKfViI7CdMfcw,3.2,,48E3440F-9F3F-4437-B5FB-796DCD21BC57,1556866960,2019-05-03 15:02:40,1556867071,2019-05-03 15:04:31,1556867071,a8366901-f20b-4c65-af5f-d240647cced7__pspm,http://pspm.pingstart.com/api/v4/postback?from=1706&clickid=a8366901-f20b-4c65-af5f-d240647cced7__pspm,idfa_48E3440F-9F3F-4437-B5FB-796DCD21BC57,ja
55RCoN7iR5ypqpLcB2NQHA,newborntown,p1789_712-137_336,Of81qbvWSPKfViI7CdMfcw,3.2,,92BAD55E-C612-46F8-8D19-DC6229BD5082,1556867397,2019-05-03 15:09:57,1556867545,2019-05-03 15:12:25,1556867545,9d97e17f-3d78-4615-9b81-daaf6859697b__pspm,http://pspm.pingstart.com/api/v4/postback?from=1706&clickid=9d97e17f-3d78-4615-9b81-daaf6859697b__pspm,idfa_92BAD55E-C612-46F8-8D19-DC6229BD5082,ja
55RCoN7iR5ypqpLcB2NQHA,newborntown,p1789_712-137_336,Of81qbvWSPKfViI7CdMfcw,3.2,,95F39CA3-FC4F-479A-ABBE-AF2E010CD975,1556932649,2019-05-04 09:17:29,1556932794,2019-05-04 09:19:54,1556932794,c596989c-3d7b-4063-b88b-1e5603b98047__pspm,http://pspm.pingstart.com/api/v4/postback?from=1706&clickid=c596989c-3d7b-4063-b88b-1e5603b98047__pspm,idfa_95F39CA3-FC4F-479A-ABBE-AF2E010CD975,ja
55RCoN7iR5ypqpLcB2NQHA,newborntown,p1789_712-137_336,Of81qbvWSPKfViI7CdMfcw,3.2,,C18D94A1-65BD-437B-A620-7658AFCB934F,1556925007,2019-05-04 07:10:07,1556925157,2019-05-04 07:12:37,1556925157,36e28525-3e37-4818-9f18-773eac8db002__pspm,http://pspm.pingstart.com/api/v4/postback?from=1706&clickid=36e28525-3e37-4818-9f18-773eac8db002__pspm,idfa_C18D94A1-65BD-437B-A620-7658AFCB934F,ja
55RCoN7iR5ypqpLcB2NQHA,newborntown,p1789_712-137_336,Of81qbvWSPKfViI7CdMfcw,3.2,,13EAD91D-F431-4007-B7E3-2DC9EE176933,1556866471,2019-05-03 14:54:31,1556866624,2019-05-03 14:57:04,1556866624,5caabbfc-a690-47c8-a70d-2c8ef9bfef59__pspm,http://pspm.pingstart.com/api/v4/postback?from=1706&clickid=5caabbfc-a690-47c8-a70d-2c8ef9bfef59__pspm,idfa_13EAD91D-F431-4007-B7E3-2DC9EE176933,ja
55RCoN7iR5ypqpLcB2NQHA,newborntown,p1789_712-137_336,Of81qbvWSPKfViI7CdMfcw,3.2,,C263C1D5-7208-4623-8E1A-5018BAA0A04F,1556867384,2019-05-03 15:09:44,1556867526,2019-05-03 15:12:06,1556867526,7a752032-b7f8-4155-8b9c-12d2f75b2ae0__pspm,http://pspm.pingstart.com/api/v4/postback?from=1706&clickid=7a752032-b7f8-4155-8b9c-12d2f75b2ae0__pspm,idfa_C263C1D5-7208-4623-8E1A-5018BAA0A04F,ja
55RCoN7iR5ypqpLcB2NQHA,newborntown,p1789_712-137_336,Of81qbvWSPKfViI7CdMfcw,3.2,,4E555716-7338-4EBB-BDE9-9359AC9EF0D0,1556924570,2019-05-04 07:02:50,1556924715,2019-05-04 07:05:15,1556924715,9dd85bcf-e721-47b7-8a4e-82c82b2f4a15__pspm,http://pspm.pingstart.com/api/v4/postback?from=1706&clickid=9dd85bcf-e721-47b7-8a4e-82c82b2f4a15__pspm,idfa_4E555716-7338-4EBB-BDE9-9359AC9EF0D0,ja
55RCoN7iR5ypqpLcB2NQHA,newborntown,p1789_712-137_336,Of81qbvWSPKfViI7CdMfcw,3.2,,8E8CE86B-E62B-4C4D-A13D-038F630A6FCF,1556867018,2019-05-03 15:03:38,1556867161,2019-05-03 15:06:01,1556867161,a460d561-4e0b-4afb-a814-36acf1399a1b__pspm,http://pspm.pingstart.com/api/v4/postback?from=1706&clickid=a460d561-4e0b-4afb-a814-36acf1399a1b__pspm,idfa_8E8CE86B-E62B-4C4D-A13D-038F630A6FCF,ja
55RCoN7iR5ypqpLcB2NQHA,newborntown,p1789_712-137_336,Of81qbvWSPKfViI7CdMfcw,3.2,,ECFB3C14-D682-4896-85DB-A32CEC2E3C13,1556924557,2019-05-04 07:02:37,1556924703,2019-05-04 07:05:03,1556924703,e3b5b824-c24d-405b-8e09-2e215cd262d5__pspm,http://pspm.pingstart.com/api/v4/postback?from=1706&clickid=e3b5b824-c24d-405b-8e09-2e215cd262d5__pspm,idfa_ECFB3C14-D682-4896-85DB-A32CEC2E3C13,ja
55RCoN7iR5ypqpLcB2NQHA,newborntown,p1789_712-137_336,Of81qbvWSPKfViI7CdMfcw,3.2,,3F4A73B9-E4D5-4FC7-8D59-01D69CC37472,1556931312,2019-05-04 08:55:12,1556931473,2019-05-04 08:57:53,1556931473,ef826e94-6421-49a7-9779-83a8ca03be76__pspm,http://pspm.pingstart.com/api/v4/postback?from=1706&clickid=ef826e94-6421-49a7-9779-83a8ca03be76__pspm,idfa_3F4A73B9-E4D5-4FC7-8D59-01D69CC37472,ja
55RCoN7iR5ypqpLcB2NQHA,newborntown,p1789_712-137_336,Of81qbvWSPKfViI7CdMfcw,3.2,,F227041C-C563-4DD3-8AD9-AA3F0A9A1502,1556933075,2019-05-04 09:24:35,1556933241,2019-05-04 09:27:21,1556933241,19472403-d69c-429d-8958-e8110c69d2a8__pspm,http://pspm.pingstart.com/api/v4/postback?from=1706&clickid=19472403-d69c-429d-8958-e8110c69d2a8__pspm,idfa_F227041C-C563-4DD3-8AD9-AA3F0A9A1502,ja
55RCoN7iR5ypqpLcB2NQHA,newborntown,p1789_712-137_336,Of81qbvWSPKfViI7CdMfcw,3.2,,F1641018-0123-408C-B499-3D75DE3465B0,1556866991,2019-05-03 15:03:11,1556867131,2019-05-03 15:05:31,1556867131,36f4b9df-2f1d-4a29-a670-7ec7372716ff__pspm,http://pspm.pingstart.com/api/v4/postback?from=1706&clickid=36f4b9df-2f1d-4a29-a670-7ec7372716ff__pspm,idfa_F1641018-0123-408C-B499-3D75DE3465B0,ja
55RCoN7iR5ypqpLcB2NQHA,newborntown,p1789_712-137_336,Of81qbvWSPKfViI7CdMfcw,3.2,,CED59AAD-2DA8-4B58-B3B4-156CEB27940C,1556886696,2019-05-03 20:31:36,1556886800,2019-05-03 20:33:20,1556886800,915b7a3c-0ee6-4759-a5ff-83be44526389__pspm,http://pspm.pingstart.com/api/v4/postback?from=1706&clickid=915b7a3c-0ee6-4759-a5ff-83be44526389__pspm,idfa_CED59AAD-2DA8-4B58-B3B4-156CEB27940C,ja
55RCoN7iR5ypqpLcB2NQHA,newborntown,p1789_712-137_336,Of81qbvWSPKfViI7CdMfcw,3.2,,9CE69694-6B86-45D4-9F19-B47D1081A57A,1556932204,2019-05-04 09:10:04,1556932335,2019-05-04 09:12:15,1556932335,1f60c2b6-4ab1-4ce7-a17a-e55db2e30f60__pspm,http://pspm.pingstart.com/api/v4/postback?from=1706&clickid=1f60c2b6-4ab1-4ce7-a17a-e55db2e30f60__pspm,idfa_9CE69694-6B86-45D4-9F19-B47D1081A57A,ja
55RCoN7iR5ypqpLcB2NQHA,newborntown,p1789_712-137_336,Of81qbvWSPKfViI7CdMfcw,3.2,,D648FC66-1266-4D38-A263-DBAE786032D0,1556925069,2019-05-04 07:11:09,1556925223,2019-05-04 07:13:43,1556925223,69c05d9c-f69c-4315-81d1-913ff4c77ea3__pspm,http://pspm.pingstart.com/api/v4/postback?from=1706&clickid=69c05d9c-f69c-4315-81d1-913ff4c77ea3__pspm,idfa_D648FC66-1266-4D38-A263-DBAE786032D0,ja
55RCoN7iR5ypqpLcB2NQHA,newborntown,p1789_712-137_336,Of81qbvWSPKfViI7CdMfcw,3.2,,A6A103D3-BC5C-49F4-88FA-799196888E4F,1556928637,2019-05-04 08:10:37,1556928779,2019-05-04 08:12:59,1556928779,f77b0a1c-1091-4b07-ad92-77fab547c10a__pspm,http://pspm.pingstart.com/api/v4/postback?from=1706&clickid=f77b0a1c-1091-4b07-ad92-77fab547c10a__pspm,idfa_A6A103D3-BC5C-49F4-88FA-799196888E4F,ja
55RCoN7iR5ypqpLcB2NQHA,newborntown,p1789_712-137_336,Of81qbvWSPKfViI7CdMfcw,3.2,,4DAB37A6-2A52-434B-809F-3D59EF7BA02C,1556932625,2019-05-04 09:17:05,1556932773,2019-05-04 09:19:33,1556932773,b5c12fdb-b3d5-4ed9-9e3f-b35b1d529658__pspm,http://pspm.pingstart.com/api/v4/postback?from=1706&clickid=b5c12fdb-b3d5-4ed9-9e3f-b35b1d529658__pspm,idfa_4DAB37A6-2A52-434B-809F-3D59EF7BA02C,ja
55RCoN7iR5ypqpLcB2NQHA,newborntown,p1789_712-137_336,Of81qbvWSPKfViI7CdMfcw,3.2,,B42676D9-BA73-45FF-81F4-35ADB6A716C7,1556866956,2019-05-03 15:02:36,1556867107,2019-05-03 15:05:07,1556867107,effdc50b-92c1-4ba3-8c44-10358d197235__pspm,http://pspm.pingstart.com/api/v4/postback?from=1706&clickid=effdc50b-92c1-4ba3-8c44-10358d197235__pspm,idfa_B42676D9-BA73-45FF-81F4-35ADB6A716C7,ja
55RCoN7iR5ypqpLcB2NQHA,newborntown,p1789_712-137_336,Of81qbvWSPKfViI7CdMfcw,3.2,,44A29279-D168-415D-B0D6-852AD75DAA5A,1556932213,2019-05-04 09:10:13,1556932370,2019-05-04 09:12:50,1556932370,97306e44-75c1-45cc-9396-98c0d164b27b__pspm,http://pspm.pingstart.com/api/v4/postback?from=1706&clickid=97306e44-75c1-45cc-9396-98c0d164b27b__pspm,idfa_44A29279-D168-415D-B0D6-852AD75DAA5A,ja
55RCoN7iR5ypqpLcB2NQHA,newborntown,p1789_712-137_336,Of81qbvWSPKfViI7CdMfcw,3.2,,FDE6F473-DA47-4C3F-BFE7-0AD6D66535B3,1556866468,2019-05-03 14:54:28,1556866625,2019-05-03 14:57:05,1556866625,4bf3c68b-53de-4571-9f29-6e249b7982d5__pspm,http://pspm.pingstart.com/api/v4/postback?from=1706&clickid=4bf3c68b-53de-4571-9f29-6e249b7982d5__pspm,idfa_FDE6F473-DA47-4C3F-BFE7-0AD6D66535B3,ja
55RCoN7iR5ypqpLcB2NQHA,newborntown,p1789_712-137_336,Of81qbvWSPKfViI7CdMfcw,3.2,,8531C274-0CE1-45A9-A8B3-95651C470E8E,1556884960,2019-05-03 20:02:40,1556885115,2019-05-03 20:05:15,1556885115,1c232141-16f5-4379-a0c7-03503959be8b__pspm,http://pspm.pingstart.com/api/v4/postback?from=1706&clickid=1c232141-16f5-4379-a0c7-03503959be8b__pspm,idfa_8531C274-0CE1-45A9-A8B3-95651C470E8E,ja
55RCoN7iR5ypqpLcB2NQHA,newborntown,p1789_712-137_336,Of81qbvWSPKfViI7CdMfcw,3.2,,6D3D32A3-DA18-4F82-95B9-9B0D4D4E12A2,1556928190,2019-05-04 08:03:10,1556928303,2019-05-04 08:05:03,1556928303,f1eb5ac4-1a66-4a50-98c8-daa9665f46dc__pspm,http://pspm.pingstart.com/api/v4/postback?from=1706&clickid=f1eb5ac4-1a66-4a50-98c8-daa9665f46dc__pspm,idfa_6D3D32A3-DA18-4F82-95B9-9B0D4D4E12A2,ja
55RCoN7iR5ypqpLcB2NQHA,newborntown,p1789_712-137_336,Of81qbvWSPKfViI7CdMfcw,3.2,,AB35B585-D267-4E68-888C-5FD03A269788,1556932678,2019-05-04 09:17:58,1556932842,2019-05-04 09:20:42,1556932842,f2e5d8b7-3a03-4179-9843-ebc0af0d9ac0__pspm,http://pspm.pingstart.com/api/v4/postback?from=1706&clickid=f2e5d8b7-3a03-4179-9843-ebc0af0d9ac0__pspm,idfa_AB35B585-D267-4E68-888C-5FD03A269788,ja
55RCoN7iR5ypqpLcB2NQHA,newborntown,p1789_712-137_336,Of81qbvWSPKfViI7CdMfcw,3.2,,FF8926F8-B531-48E4-9035-D4DFAB81AF62,1556932665,2019-05-04 09:17:45,1556932811,2019-05-04 09:20:11,1556932811,e7b6ddc5-ba9a-4093-b582-89d27f2ecf70__pspm,http://pspm.pingstart.com/api/v4/postback?from=1706&clickid=e7b6ddc5-ba9a-4093-b582-89d27f2ecf70__pspm,idfa_FF8926F8-B531-48E4-9035-D4DFAB81AF62,ja
55RCoN7iR5ypqpLcB2NQHA,newborntown,p1789_712-137_336,Of81qbvWSPKfViI7CdMfcw,3.2,,6F7D4340-C8D3-4302-94DA-EBE266CCD2F0,1556866957,2019-05-03 15:02:37,1556867098,2019-05-03 15:04:58,1556867098,214447db-e96e-4ce6-8a4c-137b3ecbd17a__pspm,http://pspm.pingstart.com/api/v4/postback?from=1706&clickid=214447db-e96e-4ce6-8a4c-137b3ecbd17a__pspm,idfa_6F7D4340-C8D3-4302-94DA-EBE266CCD2F0,ja
55RCoN7iR5ypqpLcB2NQHA,newborntown,p1789_712-137_336,Of81qbvWSPKfViI7CdMfcw,3.2,,1E106B62-B05F-46AA-92FD-5C2F9045A5F6,1556925174,2019-05-04 07:12:54,1556925323,2019-05-04 07:15:23,1556925323,0e42395d-81c0-4825-a209-a952810737b5__pspm,http://pspm.pingstart.com/api/v4/postback?from=1706&clickid=0e42395d-81c0-4825-a209-a952810737b5__pspm,idfa_1E106B62-B05F-46AA-92FD-5C2F9045A5F6,ja
55RCoN7iR5ypqpLcB2NQHA,newborntown,p1789_712-137_336,Of81qbvWSPKfViI7CdMfcw,3.2,,C3A88767-9AC7-44DE-9D4F-35273A4ACE67,1556932620,2019-05-04 09:17:00,1556932767,2019-05-04 09:19:27,1556932767,6c3ac43a-94ce-45d7-9fd3-7cc2b813cdc5__pspm,http://pspm.pingstart.com/api/v4/postback?from=1706&clickid=6c3ac43a-94ce-45d7-9fd3-7cc2b813cdc5__pspm,idfa_C3A88767-9AC7-44DE-9D4F-35273A4ACE67,ja
55RCoN7iR5ypqpLcB2NQHA,newborntown,p1789_712-137_336,Of81qbvWSPKfViI7CdMfcw,3.2,,624D9731-9EB7-4C63-B27B-424F6EAAC214,1556928597,2019-05-04 08:09:57,1556928708,2019-05-04 08:11:48,1556928708,c1a6fae5-9689-4fb1-88b9-01a77c6dc4a3__pspm,http://pspm.pingstart.com/api/v4/postback?from=1706&clickid=c1a6fae5-9689-4fb1-88b9-01a77c6dc4a3__pspm,idfa_624D9731-9EB7-4C63-B27B-424F6EAAC214,ja
55RCoN7iR5ypqpLcB2NQHA,newborntown,p1789_712-137_336,Of81qbvWSPKfViI7CdMfcw,3.2,,BD6B7AE1-A87F-41CF-BD5F-8D00782446A1,1556867388,2019-05-03 15:09:48,1556867536,2019-05-03 15:12:16,1556867536,7b713b9c-73ed-4991-baca-95593c3243fe__pspm,http://pspm.pingstart.com/api/v4/postback?from=1706&clickid=7b713b9c-73ed-4991-baca-95593c3243fe__pspm,idfa_BD6B7AE1-A87F-41CF-BD5F-8D00782446A1,ja
55RCoN7iR5ypqpLcB2NQHA,newborntown,p1789_712-137_336,Of81qbvWSPKfViI7CdMfcw,3.2,,617BDC5A-4107-4AD5-8A70-1ECD8095DCD6,1556924991,2019-05-04 07:09:51,1556925138,2019-05-04 07:12:18,1556925138,6a98710e-b358-4413-ad65-f8049bde597b__pspm,http://pspm.pingstart.com/api/v4/postback?from=1706&clickid=6a98710e-b358-4413-ad65-f8049bde597b__pspm,idfa_617BDC5A-4107-4AD5-8A70-1ECD8095DCD6,ja
55RCoN7iR5ypqpLcB2NQHA,newborntown,p1789_712-137_336,Of81qbvWSPKfViI7CdMfcw,3.2,,D5B344F8-512D-4E5A-8304-311C4DB62915,1556866478,2019-05-03 14:54:38,1556866621,2019-05-03 14:57:01,1556866621,b6fbda1f-6d17-436b-85bb-cd509dd73db2__pspm,http://pspm.pingstart.com/api/v4/postback?from=1706&clickid=b6fbda1f-6d17-436b-85bb-cd509dd73db2__pspm,idfa_D5B344F8-512D-4E5A-8304-311C4DB62915,ja
55RCoN7iR5ypqpLcB2NQHA,newborntown,p1789_712-137_336,Of81qbvWSPKfViI7CdMfcw,3.2,,44F86BFB-0D14-43D4-863D-AB96946C0FC5,1556924596,2019-05-04 07:03:16,1556924709,2019-05-04 07:05:09,1556924709,a80186da-97ba-4303-aa1f-ac66b39ffa1e__pspm,http://pspm.pingstart.com/api/v4/postback?from=1706&clickid=a80186da-97ba-4303-aa1f-ac66b39ffa1e__pspm,idfa_44F86BFB-0D14-43D4-863D-AB96946C0FC5,ja
55RCoN7iR5ypqpLcB2NQHA,newborntown,p1789_712-137_336,Of81qbvWSPKfViI7CdMfcw,3.2,,1D84CCC9-EA52-43F0-A34E-D0B6CD6E4924,1556867397,2019-05-03 15:09:57,1556867547,2019-05-03 15:12:27,1556867547,9d855c07-f93c-449f-a5bf-6d6dc412cb34__pspm,http://pspm.pingstart.com/api/v4/postback?from=1706&clickid=9d855c07-f93c-449f-a5bf-6d6dc412cb34__pspm,idfa_1D84CCC9-EA52-43F0-A34E-D0B6CD6E4924,ja
55RCoN7iR5ypqpLcB2NQHA,newborntown,p1789_712-137_336,Of81qbvWSPKfViI7CdMfcw,3.2,,14020E67-ECC5-4A58-8795-D4CDB98DAB64,1556916538,2019-05-04 04:48:58,1556916646,2019-05-04 04:50:46,1556916646,a5ad17ec-276e-4235-9351-abb4df4c4574__pspm,http://pspm.pingstart.com/api/v4/postback?from=1706&clickid=a5ad17ec-276e-4235-9351-abb4df4c4574__pspm,idfa_14020E67-ECC5-4A58-8795-D4CDB98DAB64,ja
55RCoN7iR5ypqpLcB2NQHA,newborntown,p1789_712-137_336,Of81qbvWSPKfViI7CdMfcw,3.2,,22FADE8A-A9CB-4704-AF11-A7C42C5D9BC5,1556866972,2019-05-03 15:02:52,1556867120,2019-05-03 15:05:20,1556867120,d51b167c-d8ff-47e6-bff7-f4f25e606936__pspm,http://pspm.pingstart.com/api/v4/postback?from=1706&clickid=d51b167c-d8ff-47e6-bff7-f4f25e606936__pspm,idfa_22FADE8A-A9CB-4704-AF11-A7C42C5D9BC5,ja
55RCoN7iR5ypqpLcB2NQHA,newborntown,p1789_712-137_336,Of81qbvWSPKfViI7CdMfcw,3.2,,AB2ED5B7-E535-4005-9DED-AC5B074C092C,1556924585,2019-05-04 07:03:05,1556924709,2019-05-04 07:05:09,1556924709,da449514-70af-46ae-9ee4-4aaab12c2592__pspm,http://pspm.pingstart.com/api/v4/postback?from=1706&clickid=da449514-70af-46ae-9ee4-4aaab12c2592__pspm,idfa_AB2ED5B7-E535-4005-9DED-AC5B074C092C,ja
