cid,partner_id,channel_id,action_id,cpi,ip,idfa,click time,click datetime,install time,install datetime,postback time,click id,postback url,unique user id
vfsQUKQ2Rb2OJ0Oe0o9iow,newborntown,p1599_1050_31942226,Install,3.2,111.243.230.251,E772A250-E6AA-4848-B82B-DC417B927B6B,1557294391,2019-05-08 13:46:31,1557294434,2019-05-08 13:47:14,1557294466,230c10f1-c8af-484b-9606-73f9e97f8a85__pspm,http://pspm.pingstart.com/api/v4/postback?from=1706&clickid=230c10f1-c8af-484b-9606-73f9e97f8a85__pspm,idfa_E772A250-E6AA-4848-B82B-DC417B927B6B,zh-Hant-TW
vfsQUKQ2Rb2OJ0Oe0o9iow,newborntown,p1599_1050_31942226,Install,3.2,1.161.174.219,6D4D7907-306B-48DE-8DF5-58080AB56964,1557294227,2019-05-08 13:43:47,1557294273,2019-05-08 13:44:33,1557294303,92d24788-5605-4f79-a254-1172bf56f954__pspm,http://pspm.pingstart.com/api/v4/postback?from=1706&clickid=92d24788-5605-4f79-a254-1172bf56f954__pspm,idfa_6D4D7907-306B-48DE-8DF5-58080AB56964,zh-Hant-TW
vfsQUKQ2Rb2OJ0Oe0o9iow,newborntown,p1599_1050_31942226,Install,3.2,1.165.240.82,62012407-51FF-44DC-8617-B4103119D8A9,1557294434,2019-05-08 13:47:14,1557294470,2019-05-08 13:47:50,1557294500,e3bd11f8-be54-4929-b6ec-412c88d775b6__pspm,http://pspm.pingstart.com/api/v4/postback?from=1706&clickid=e3bd11f8-be54-4929-b6ec-412c88d775b6__pspm,idfa_62012407-51FF-44DC-8617-B4103119D8A9,zh-Hant-TW
vfsQUKQ2Rb2OJ0Oe0o9iow,newborntown,p1599_1050_31942226,Install,3.2,1.164.37.169,03F3C36D-267E-4CC7-9157-39EADBFFC0C8,1557293823,2019-05-08 13:37:03,1557293863,2019-05-08 13:37:43,1557293893,45b78996-0726-4415-b9fc-66143f71c1c0__pspm,http://pspm.pingstart.com/api/v4/postback?from=1706&clickid=45b78996-0726-4415-b9fc-66143f71c1c0__pspm,idfa_03F3C36D-267E-4CC7-9157-39EADBFFC0C8,zh-Hant-TW
vfsQUKQ2Rb2OJ0Oe0o9iow,newborntown,p1599_1050_31942226,Install,3.2,114.25.27.39,687886AC-8E91-496D-8470-CCF657341F30,1557295065,2019-05-08 13:57:45,1557295095,2019-05-08 13:58:15,1557295125,27ce3b5d-9c63-4f44-b5bf-6577438f9ade__pspm,http://pspm.pingstart.com/api/v4/postback?from=1706&clickid=27ce3b5d-9c63-4f44-b5bf-6577438f9ade__pspm,idfa_687886AC-8E91-496D-8470-CCF657341F30,zh-Hant-TW
vfsQUKQ2Rb2OJ0Oe0o9iow,newborntown,p1599_1050_31942226,Install,3.2,1.161.43.249,3CF25D71-959A-4ADA-970A-24DE66533BB6,1557294913,2019-05-08 13:55:13,1557294946,2019-05-08 13:55:46,1557294976,3a4d774b-75ab-4606-8769-a6592573ede5__pspm,http://pspm.pingstart.com/api/v4/postback?from=1706&clickid=3a4d774b-75ab-4606-8769-a6592573ede5__pspm,idfa_3CF25D71-959A-4ADA-970A-24DE66533BB6,zh-Hant-TW
vfsQUKQ2Rb2OJ0Oe0o9iow,newborntown,p1599_1050_31942226,Install,3.2,114.43.109.57,6B6277C6-1597-44CD-8A8C-26598D489D51,1557293749,2019-05-08 13:35:49,1557293792,2019-05-08 13:36:32,1557293823,b9d91b7a-cef5-405c-91d0-4be5f35358a3__pspm,http://pspm.pingstart.com/api/v4/postback?from=1706&clickid=b9d91b7a-cef5-405c-91d0-4be5f35358a3__pspm,idfa_6B6277C6-1597-44CD-8A8C-26598D489D51,zh-Hant-TW
vfsQUKQ2Rb2OJ0Oe0o9iow,newborntown,p1599_1050_31942226,Install,3.2,182.233.85.234,19B737F0-8F87-428F-9FDD-42373382A2D2,1557294101,2019-05-08 13:41:41,1557294130,2019-05-08 13:42:10,1557294160,269ccdcb-1f61-44db-84f2-f73139779b81__pspm,http://pspm.pingstart.com/api/v4/postback?from=1706&clickid=269ccdcb-1f61-44db-84f2-f73139779b81__pspm,idfa_19B737F0-8F87-428F-9FDD-42373382A2D2,zh-Hant-TW
vfsQUKQ2Rb2OJ0Oe0o9iow,newborntown,p1599_1050_31942226,Install,3.2,1.172.91.170,76F677CC-9776-46C6-B6FA-F2A322BA449F,1557293853,2019-05-08 13:37:33,1557293928,2019-05-08 13:38:48,1557293959,591cb535-703f-4a6e-abfc-3e6470d28e3d__pspm,http://pspm.pingstart.com/api/v4/postback?from=1706&clickid=591cb535-703f-4a6e-abfc-3e6470d28e3d__pspm,idfa_76F677CC-9776-46C6-B6FA-F2A322BA449F,zh-Hant-TW
vfsQUKQ2Rb2OJ0Oe0o9iow,newborntown,p1599_1050_31942226,Install,3.2,1.160.68.165,B4271BC0-8AEE-4687-BEF8-1B03FC0F3862,1557294643,2019-05-08 13:50:43,1557294666,2019-05-08 13:51:06,1557294697,9accdb95-2982-461c-b700-1e10f0531c84__pspm,http://pspm.pingstart.com/api/v4/postback?from=1706&clickid=9accdb95-2982-461c-b700-1e10f0531c84__pspm,idfa_B4271BC0-8AEE-4687-BEF8-1B03FC0F3862,zh-Hant-TW
vfsQUKQ2Rb2OJ0Oe0o9iow,newborntown,p1599_1050_31942226,Install,3.2,118.168.77.36,3DD7E70E-438B-4546-B6C7-F4C67D32259A,1557293885,2019-05-08 13:38:05,1557293922,2019-05-08 13:38:42,1557293953,98d1284f-040a-4f29-833d-885e4e4424b7__pspm,http://pspm.pingstart.com/api/v4/postback?from=1706&clickid=98d1284f-040a-4f29-833d-885e4e4424b7__pspm,idfa_3DD7E70E-438B-4546-B6C7-F4C67D32259A,zh-Hant-TW
vfsQUKQ2Rb2OJ0Oe0o9iow,newborntown,p1599_1050_31942226,Install,3.2,114.43.180.147,5CE38601-3937-4F14-AD60-1DE370A52E51,1557295181,2019-05-08 13:59:41,1557295210,2019-05-08 14:00:10,1557295240,5c6b682e-7b53-4818-9279-634bca576129__pspm,http://pspm.pingstart.com/api/v4/postback?from=1706&clickid=5c6b682e-7b53-4818-9279-634bca576129__pspm,idfa_5CE38601-3937-4F14-AD60-1DE370A52E51,zh-Hant-TW
vfsQUKQ2Rb2OJ0Oe0o9iow,newborntown,p1599_1050_31942226,Install,3.2,36.224.15.200,06A02F89-B74E-41A8-9DC5-44B24B587D47,1557295114,2019-05-08 13:58:34,1557295141,2019-05-08 13:59:01,1557295184,0f79253f-a3df-4915-9642-1a80c58068da__pspm,http://pspm.pingstart.com/api/v4/postback?from=1706&clickid=0f79253f-a3df-4915-9642-1a80c58068da__pspm,idfa_06A02F89-B74E-41A8-9DC5-44B24B587D47,zh-Hant-TW
vfsQUKQ2Rb2OJ0Oe0o9iow,newborntown,p1599_1050_31942226,Install,3.2,61.230.130.157,76FFEEBB-B915-4617-9B8E-F8E7DA5207ED,1557294846,2019-05-08 13:54:06,1557294874,2019-05-08 13:54:34,1557294905,0b191330-4b71-4695-9e4d-4a720630c985__pspm,http://pspm.pingstart.com/api/v4/postback?from=1706&clickid=0b191330-4b71-4695-9e4d-4a720630c985__pspm,idfa_76FFEEBB-B915-4617-9B8E-F8E7DA5207ED,zh-Hant-TW
vfsQUKQ2Rb2OJ0Oe0o9iow,newborntown,p1599_1050_31942226,Install,3.2,36.228.158.235,D9E4C3F5-AE61-4825-BC6F-ACF7A492681E,1557294598,2019-05-08 13:49:58,1557294643,2019-05-08 13:50:43,1557294674,766bf7e7-4fb1-4f80-a60c-8aa80918fd25__pspm,http://pspm.pingstart.com/api/v4/postback?from=1706&clickid=766bf7e7-4fb1-4f80-a60c-8aa80918fd25__pspm,idfa_D9E4C3F5-AE61-4825-BC6F-ACF7A492681E,zh-Hant-TW
vfsQUKQ2Rb2OJ0Oe0o9iow,newborntown,p1599_1050_31942226,Install,3.2,114.44.251.236,A2F1B321-08B4-40A6-A8A1-BB136433B0D3,1557293871,2019-05-08 13:37:51,1557293914,2019-05-08 13:38:34,1557293944,83881eda-707a-4195-903b-520b6899d93a__pspm,http://pspm.pingstart.com/api/v4/postback?from=1706&clickid=83881eda-707a-4195-903b-520b6899d93a__pspm,idfa_A2F1B321-08B4-40A6-A8A1-BB136433B0D3,zh-Hant-TW
vfsQUKQ2Rb2OJ0Oe0o9iow,newborntown,p1599_1050_31942226,Install,3.2,114.41.0.226,9F9101A3-BC20-4667-AC25-96053D4DAC23,1557294272,2019-05-08 13:44:32,1557294298,2019-05-08 13:44:58,1557294329,d1c1d764-c8c6-4195-89af-9f6e5fdfc51c__pspm,http://pspm.pingstart.com/api/v4/postback?from=1706&clickid=d1c1d764-c8c6-4195-89af-9f6e5fdfc51c__pspm,idfa_9F9101A3-BC20-4667-AC25-96053D4DAC23,zh-Hant-TW
vfsQUKQ2Rb2OJ0Oe0o9iow,newborntown,p1599_1050_31942226,Install,3.2,220.141.24.52,13910C4A-7C9B-455B-8445-D31A52FD4D9D,1557295020,2019-05-08 13:57:00,1557295046,2019-05-08 13:57:26,1557295076,12cd31f6-bc01-4d0b-b33d-0c8034c37223__pspm,http://pspm.pingstart.com/api/v4/postback?from=1706&clickid=12cd31f6-bc01-4d0b-b33d-0c8034c37223__pspm,idfa_13910C4A-7C9B-455B-8445-D31A52FD4D9D,zh-Hant-TW
vfsQUKQ2Rb2OJ0Oe0o9iow,newborntown,p1599_1050_31942226,Install,3.2,118.171.149.85,ABA82436-DDA0-4F63-98E7-497D79D5D2D6,1557295210,2019-05-08 14:00:10,1557295236,2019-05-08 14:00:36,1557295267,3d7427a0-e97f-4b1a-8659-b0d83309c427__pspm,http://pspm.pingstart.com/api/v4/postback?from=1706&clickid=3d7427a0-e97f-4b1a-8659-b0d83309c427__pspm,idfa_ABA82436-DDA0-4F63-98E7-497D79D5D2D6,zh-Hant-TW
vfsQUKQ2Rb2OJ0Oe0o9iow,newborntown,p1599_1050_31942226,Install,3.2,114.47.33.136,AD9EEC75-01FD-4A89-B2F3-588293EA7FBD,1557294495,2019-05-08 13:48:15,1557294540,2019-05-08 13:49:00,1557294570,52ee0db1-4ed1-4fd4-ac8e-7bc05f307434__pspm,http://pspm.pingstart.com/api/v4/postback?from=1706&clickid=52ee0db1-4ed1-4fd4-ac8e-7bc05f307434__pspm,idfa_AD9EEC75-01FD-4A89-B2F3-588293EA7FBD,zh-Hant-TW
vfsQUKQ2Rb2OJ0Oe0o9iow,newborntown,p1599_1050_31942226,Install,3.2,36.229.151.86,24142882-1D9F-432F-ABD1-2A8CD2FEB9D0,1557294831,2019-05-08 13:53:51,1557294875,2019-05-08 13:54:35,1557294906,e94c1188-7292-4797-9e55-4440f47911b0__pspm,http://pspm.pingstart.com/api/v4/postback?from=1706&clickid=e94c1188-7292-4797-9e55-4440f47911b0__pspm,idfa_24142882-1D9F-432F-ABD1-2A8CD2FEB9D0,zh-Hant-TW
vfsQUKQ2Rb2OJ0Oe0o9iow,newborntown,p1599_1050_31942226,Install,3.2,114.44.244.109,A532526A-D146-434A-8B50-088A4C04B9FE,1557295291,2019-05-08 14:01:31,1557295323,2019-05-08 14:02:03,1557295354,cd6d8d79-7918-4cf2-988f-59efd23280ce__pspm,http://pspm.pingstart.com/api/v4/postback?from=1706&clickid=cd6d8d79-7918-4cf2-988f-59efd23280ce__pspm,idfa_A532526A-D146-434A-8B50-088A4C04B9FE,zh-Hant-TW
vfsQUKQ2Rb2OJ0Oe0o9iow,newborntown,p1599_1050_31942226,Install,3.2,1.168.141.173,F1B2C872-57AB-4D60-892E-5EFA5171B4AB,1557295223,2019-05-08 14:00:23,1557295274,2019-05-08 14:01:14,1557295304,fbbd5f95-23e3-46ed-b8e3-25bcc450f393__pspm,http://pspm.pingstart.com/api/v4/postback?from=1706&clickid=fbbd5f95-23e3-46ed-b8e3-25bcc450f393__pspm,idfa_F1B2C872-57AB-4D60-892E-5EFA5171B4AB,zh-Hant-TW
vfsQUKQ2Rb2OJ0Oe0o9iow,newborntown,p1599_1050_31942226,Install,3.2,114.42.153.48,83068AB2-D4A2-4470-829A-5B5453906926,1557295123,2019-05-08 13:58:43,1557295156,2019-05-08 13:59:16,1557295186,0df119ec-696c-45c9-b9c2-7abae11e9766__pspm,http://pspm.pingstart.com/api/v4/postback?from=1706&clickid=0df119ec-696c-45c9-b9c2-7abae11e9766__pspm,idfa_83068AB2-D4A2-4470-829A-5B5453906926,zh-Hant-TW
vfsQUKQ2Rb2OJ0Oe0o9iow,newborntown,p1599_1050_31942226,Install,3.2,118.169.162.45,1C3058A8-A6DC-48B2-87FF-65103D0949D1,1557294016,2019-05-08 13:40:16,1557294058,2019-05-08 13:40:58,1557294089,6dfbb0b4-af82-4bad-970f-108050db123a__pspm,http://pspm.pingstart.com/api/v4/postback?from=1706&clickid=6dfbb0b4-af82-4bad-970f-108050db123a__pspm,idfa_1C3058A8-A6DC-48B2-87FF-65103D0949D1,zh-Hant-TW
vfsQUKQ2Rb2OJ0Oe0o9iow,newborntown,p1599_1050_31942226,Install,3.2,61.31.160.33,DD3C1FFA-813B-4561-A9D1-F32CD7CF621A,1557295024,2019-05-08 13:57:04,1557295059,2019-05-08 13:57:39,1557295089,ba272ca6-508a-4c14-a14d-bce3e536d4fd__pspm,http://pspm.pingstart.com/api/v4/postback?from=1706&clickid=ba272ca6-508a-4c14-a14d-bce3e536d4fd__pspm,idfa_DD3C1FFA-813B-4561-A9D1-F32CD7CF621A,zh-Hant-TW
vfsQUKQ2Rb2OJ0Oe0o9iow,newborntown,p1599_1050_31942226,Install,3.2,60.249.241.202,B59B8CC6-A5D1-4E9D-A0C4-35EAD320B36B,1557294911,2019-05-08 13:55:11,1557294934,2019-05-08 13:55:34,1557294965,e40276d0-55c8-4b15-85bd-f533e2b78cae__pspm,http://pspm.pingstart.com/api/v4/postback?from=1706&clickid=e40276d0-55c8-4b15-85bd-f533e2b78cae__pspm,idfa_B59B8CC6-A5D1-4E9D-A0C4-35EAD320B36B,zh-Hant-TW
vfsQUKQ2Rb2OJ0Oe0o9iow,newborntown,p1599_1050_31942226,Install,3.2,36.233.21.123,B046F0AC-3E05-4B5F-94F0-A49EEA945BC0,1557294734,2019-05-08 13:52:14,1557294763,2019-05-08 13:52:43,1557294793,486b603d-1ab7-47a3-aca9-03a708ae9243__pspm,http://pspm.pingstart.com/api/v4/postback?from=1706&clickid=486b603d-1ab7-47a3-aca9-03a708ae9243__pspm,idfa_B046F0AC-3E05-4B5F-94F0-A49EEA945BC0,zh-Hant-TW
vfsQUKQ2Rb2OJ0Oe0o9iow,newborntown,p1599_1050_31942226,Install,3.2,111.250.98.101,6491922A-FDA7-4F8B-A7E7-80471E24F2C0,1557295069,2019-05-08 13:57:49,1557295100,2019-05-08 13:58:20,1557295134,613e27f8-6929-4f2d-8a0e-32f0b984e5ea__pspm,http://pspm.pingstart.com/api/v4/postback?from=1706&clickid=613e27f8-6929-4f2d-8a0e-32f0b984e5ea__pspm,idfa_6491922A-FDA7-4F8B-A7E7-80471E24F2C0,zh-Hant-TW
vfsQUKQ2Rb2OJ0Oe0o9iow,newborntown,p1599_1050_31942226,Install,3.2,111.253.112.233,6BBB29B1-D46D-4249-AD0D-2A46EB32AB07,1557293981,2019-05-08 13:39:41,1557294024,2019-05-08 13:40:24,1557294054,7c031476-cddc-46c6-bfe1-e8149b5d7a06__pspm,http://pspm.pingstart.com/api/v4/postback?from=1706&clickid=7c031476-cddc-46c6-bfe1-e8149b5d7a06__pspm,idfa_6BBB29B1-D46D-4249-AD0D-2A46EB32AB07,zh-Hant-TW
vfsQUKQ2Rb2OJ0Oe0o9iow,newborntown,p1599_1050_31942226,Install,3.2,111.248.205.211,234A99DB-BCA8-4BAC-99D7-73354CBF1499,1557294450,2019-05-08 13:47:30,1557294489,2019-05-08 13:48:09,1557294540,9e89409d-5bf0-4642-9501-1b20433b8a80__pspm,http://pspm.pingstart.com/api/v4/postback?from=1706&clickid=9e89409d-5bf0-4642-9501-1b20433b8a80__pspm,idfa_234A99DB-BCA8-4BAC-99D7-73354CBF1499,zh-Hant-TW
vfsQUKQ2Rb2OJ0Oe0o9iow,newborntown,p1599_1050_31942226,Install,3.2,114.26.208.129,872A6CE0-4D05-408F-BA8D-E72D6BFE660C,1557294749,2019-05-08 13:52:29,1557294789,2019-05-08 13:53:09,1557294819,ac4f2b0a-caa0-4bbb-ba2d-fee33b53a841__pspm,http://pspm.pingstart.com/api/v4/postback?from=1706&clickid=ac4f2b0a-caa0-4bbb-ba2d-fee33b53a841__pspm,idfa_872A6CE0-4D05-408F-BA8D-E72D6BFE660C,zh-Hant-TW
vfsQUKQ2Rb2OJ0Oe0o9iow,newborntown,p1599_1050_31942226,Install,3.2,59.115.181.5,D1728074-F82F-4F5A-81F9-0A6FD79BB1D8,1557294663,2019-05-08 13:51:03,1557294701,2019-05-08 13:51:41,1557294731,86c9a958-e451-4342-a07c-cd4e96f6e62e__pspm,http://pspm.pingstart.com/api/v4/postback?from=1706&clickid=86c9a958-e451-4342-a07c-cd4e96f6e62e__pspm,idfa_D1728074-F82F-4F5A-81F9-0A6FD79BB1D8,zh-Hant-TW
vfsQUKQ2Rb2OJ0Oe0o9iow,newborntown,p1599_1050_31942226,Install,3.2,61.230.77.252,E59E275D-B8FE-46CD-8CF8-C9DACA325C87,1557294782,2019-05-08 13:53:02,1557294828,2019-05-08 13:53:48,1557294858,32625f92-6e87-4701-88a8-fa08ec907620__pspm,http://pspm.pingstart.com/api/v4/postback?from=1706&clickid=32625f92-6e87-4701-88a8-fa08ec907620__pspm,idfa_E59E275D-B8FE-46CD-8CF8-C9DACA325C87,zh-Hant-TW
vfsQUKQ2Rb2OJ0Oe0o9iow,newborntown,p1599_1050_31942226,Install,3.2,27.105.235.186,1ED1B1A3-C511-4AD3-BC74-8B7EE7D3E9B4,1557294739,2019-05-08 13:52:19,1557294773,2019-05-08 13:52:53,1557294803,401cbb3a-1be4-463a-a454-de673d12f60f__pspm,http://pspm.pingstart.com/api/v4/postback?from=1706&clickid=401cbb3a-1be4-463a-a454-de673d12f60f__pspm,idfa_1ED1B1A3-C511-4AD3-BC74-8B7EE7D3E9B4,zh-Hant-TW
vfsQUKQ2Rb2OJ0Oe0o9iow,newborntown,p1599_1050_31942226,Install,3.2,111.250.5.165,A2AA7E24-78F7-46E0-8F7C-5A4CA4718EDC,1557295070,2019-05-08 13:57:50,1557295120,2019-05-08 13:58:40,1557295150,dea1fb49-28bd-4f0c-8551-22f2eb623a8b__pspm,http://pspm.pingstart.com/api/v4/postback?from=1706&clickid=dea1fb49-28bd-4f0c-8551-22f2eb623a8b__pspm,idfa_A2AA7E24-78F7-46E0-8F7C-5A4CA4718EDC,zh-Hant-TW
vfsQUKQ2Rb2OJ0Oe0o9iow,newborntown,p1599_1050_31942226,Install,3.2,118.163.97.19,7C11522C-714F-4961-A0FD-2AF2438DDCDE,1557295139,2019-05-08 13:58:59,1557295162,2019-05-08 13:59:22,1557295193,5c4aa8c5-d497-43b4-b4d0-01a360049ec9__pspm,http://pspm.pingstart.com/api/v4/postback?from=1706&clickid=5c4aa8c5-d497-43b4-b4d0-01a360049ec9__pspm,idfa_7C11522C-714F-4961-A0FD-2AF2438DDCDE,zh-Hant-TW
vfsQUKQ2Rb2OJ0Oe0o9iow,newborntown,p1599_1050_31942226,Install,3.2,1.161.232.144,D9BC5BED-B465-4104-A93A-32EB9424D304,1557295308,2019-05-08 14:01:48,1557295346,2019-05-08 14:02:26,1557295377,713bb352-28e8-48c5-bc8c-835064460b12__pspm,http://pspm.pingstart.com/api/v4/postback?from=1706&clickid=713bb352-28e8-48c5-bc8c-835064460b12__pspm,idfa_D9BC5BED-B465-4104-A93A-32EB9424D304,zh-Hant-TW
vfsQUKQ2Rb2OJ0Oe0o9iow,newborntown,p1599_1050_31942226,Install,3.2,118.170.71.250,52078F6B-0731-4A14-A664-45B6960C3E1A,1557294301,2019-05-08 13:45:01,1557294347,2019-05-08 13:45:47,1557294377,2b4ebbc3-681e-477d-96bc-56c1871b4cb0__pspm,http://pspm.pingstart.com/api/v4/postback?from=1706&clickid=2b4ebbc3-681e-477d-96bc-56c1871b4cb0__pspm,idfa_52078F6B-0731-4A14-A664-45B6960C3E1A,zh-Hant-TW
vfsQUKQ2Rb2OJ0Oe0o9iow,newborntown,p1599_1050_31942226,Install,3.2,36.226.15.9,8D36188E-64D7-4C0D-956D-49D36A341655,1557295211,2019-05-08 14:00:11,1557295238,2019-05-08 14:00:38,1557295268,61bb1a3a-00f4-4d1c-953c-d094d5716187__pspm,http://pspm.pingstart.com/api/v4/postback?from=1706&clickid=61bb1a3a-00f4-4d1c-953c-d094d5716187__pspm,idfa_8D36188E-64D7-4C0D-956D-49D36A341655,zh-Hant-TW
vfsQUKQ2Rb2OJ0Oe0o9iow,newborntown,p1599_1050_31942226,Install,3.2,36.225.141.69,DD3C452F-EA8E-4A71-BEF9-DFBF55739EA6,1557294855,2019-05-08 13:54:15,1557294887,2019-05-08 13:54:47,1557294917,64043619-3655-4d67-acfc-8100e196ae08__pspm,http://pspm.pingstart.com/api/v4/postback?from=1706&clickid=64043619-3655-4d67-acfc-8100e196ae08__pspm,idfa_DD3C452F-EA8E-4A71-BEF9-DFBF55739EA6,zh-Hant-TW
vfsQUKQ2Rb2OJ0Oe0o9iow,newborntown,p1599_1050_31942226,Install,3.2,1.163.235.36,4328A483-328D-4164-8A8B-6C204AB9725C,1557295346,2019-05-08 14:02:26,1557295397,2019-05-08 14:03:17,1557295428,448ca1e7-8db9-473b-8281-60ad4b194254__pspm,http://pspm.pingstart.com/api/v4/postback?from=1706&clickid=448ca1e7-8db9-473b-8281-60ad4b194254__pspm,idfa_4328A483-328D-4164-8A8B-6C204AB9725C,ja-TW
vfsQUKQ2Rb2OJ0Oe0o9iow,newborntown,p1599_1050_31942226,Install,3.2,36.233.165.226,47ABA718-532B-403E-ABEC-7D3AAEDA8C44,1557294092,2019-05-08 13:41:32,1557294117,2019-05-08 13:41:57,1557294179,edf4eb98-9640-49a6-abfb-1c600ee622d1__pspm,http://pspm.pingstart.com/api/v4/postback?from=1706&clickid=edf4eb98-9640-49a6-abfb-1c600ee622d1__pspm,idfa_47ABA718-532B-403E-ABEC-7D3AAEDA8C44,zh-Hant-TW
vfsQUKQ2Rb2OJ0Oe0o9iow,newborntown,p1599_1050_31942226,Install,3.2,36.237.27.20,4DCC5F19-FB4F-4181-9370-7212BE081CE5,1557295292,2019-05-08 14:01:32,1557295319,2019-05-08 14:01:59,1557295350,6bbc2d58-5b2c-4cb4-88f7-ba70618ac7f3__pspm,http://pspm.pingstart.com/api/v4/postback?from=1706&clickid=6bbc2d58-5b2c-4cb4-88f7-ba70618ac7f3__pspm,idfa_4DCC5F19-FB4F-4181-9370-7212BE081CE5,zh-Hant-TW
vfsQUKQ2Rb2OJ0Oe0o9iow,newborntown,p1599_1050_31942226,Install,3.2,59.104.48.17,3AFC056B-12B9-4492-8904-E7690BA089D0,1557293863,2019-05-08 13:37:43,1557293904,2019-05-08 13:38:24,1557293934,240fa1b8-ad21-4bee-85fc-ca9f06b1d138__pspm,http://pspm.pingstart.com/api/v4/postback?from=1706&clickid=240fa1b8-ad21-4bee-85fc-ca9f06b1d138__pspm,idfa_3AFC056B-12B9-4492-8904-E7690BA089D0,zh-Hant-TW
vfsQUKQ2Rb2OJ0Oe0o9iow,newborntown,p1599_1050_31942226,Install,3.2,61.228.131.169,4CC47702-B4D3-4D6E-8523-34F2369800E6,1557294513,2019-05-08 13:48:33,1557294540,2019-05-08 13:49:00,1557294571,6cbc0c02-549b-4e73-8125-4f6ea4b95ba6__pspm,http://pspm.pingstart.com/api/v4/postback?from=1706&clickid=6cbc0c02-549b-4e73-8125-4f6ea4b95ba6__pspm,idfa_4CC47702-B4D3-4D6E-8523-34F2369800E6,zh-Hant-TW
vfsQUKQ2Rb2OJ0Oe0o9iow,newborntown,p1599_1050_31942226,Install,3.2,124.9.192.125,4E373CD9-8D44-4650-8249-9D79AE36F823,1557294202,2019-05-08 13:43:22,1557294235,2019-05-08 13:43:55,1557294265,dc1c4926-3dfe-4feb-848a-f34da2356414__pspm,http://pspm.pingstart.com/api/v4/postback?from=1706&clickid=dc1c4926-3dfe-4feb-848a-f34da2356414__pspm,idfa_4E373CD9-8D44-4650-8249-9D79AE36F823,zh-Hant-TW
vfsQUKQ2Rb2OJ0Oe0o9iow,newborntown,p1599_1050_31942226,Install,3.2,114.37.241.89,3E0B5378-5D71-4085-B80E-4679B6C8A081,1557295000,2019-05-08 13:56:40,1557295029,2019-05-08 13:57:09,1557295060,9e5e2b44-726c-416a-b57b-c2f85de7071e__pspm,http://pspm.pingstart.com/api/v4/postback?from=1706&clickid=9e5e2b44-726c-416a-b57b-c2f85de7071e__pspm,idfa_3E0B5378-5D71-4085-B80E-4679B6C8A081,zh-Hant-TW
vfsQUKQ2Rb2OJ0Oe0o9iow,newborntown,p1599_1050_31942226,Install,3.2,111.251.46.248,D0173C2E-7E0C-4722-9F2B-2B1A0ADC7E6C,1557295252,2019-05-08 14:00:52,1557295289,2019-05-08 14:01:29,1557295320,36b755a9-1e7b-4609-9b72-c48cb33fd480__pspm,http://pspm.pingstart.com/api/v4/postback?from=1706&clickid=36b755a9-1e7b-4609-9b72-c48cb33fd480__pspm,idfa_D0173C2E-7E0C-4722-9F2B-2B1A0ADC7E6C,zh-Hant-TW
vfsQUKQ2Rb2OJ0Oe0o9iow,newborntown,p1599_1050_31942226,Install,3.2,111.240.133.195,BCDC863D-7E55-4AA8-B201-A8642EB9DC5B,1557295289,2019-05-08 14:01:29,1557295317,2019-05-08 14:01:57,1557295347,009b896e-cac2-4d7e-a87a-1c3944d3f18b__pspm,http://pspm.pingstart.com/api/v4/postback?from=1706&clickid=009b896e-cac2-4d7e-a87a-1c3944d3f18b__pspm,idfa_BCDC863D-7E55-4AA8-B201-A8642EB9DC5B,zh-Hant-TW
vfsQUKQ2Rb2OJ0Oe0o9iow,newborntown,p1599_1050_31942226,Install,3.2,114.41.143.1,C95A7E94-B486-4ECB-91AC-38B897CA8D7D,1557295344,2019-05-08 14:02:24,1557295374,2019-05-08 14:02:54,1557295404,9dc8b664-43f4-49b2-815d-918035117093__pspm,http://pspm.pingstart.com/api/v4/postback?from=1706&clickid=9dc8b664-43f4-49b2-815d-918035117093__pspm,idfa_C95A7E94-B486-4ECB-91AC-38B897CA8D7D,zh-Hant-TW
vfsQUKQ2Rb2OJ0Oe0o9iow,newborntown,p1599_1050_31942226,Install,3.2,1.172.159.36,90BA1D4C-FA57-4CF9-AAC2-7DA92E2B8D41,1557294898,2019-05-08 13:54:58,1557294929,2019-05-08 13:55:29,1557294960,ae829eb8-7531-43cf-aeee-791beec540f0__pspm,http://pspm.pingstart.com/api/v4/postback?from=1706&clickid=ae829eb8-7531-43cf-aeee-791beec540f0__pspm,idfa_90BA1D4C-FA57-4CF9-AAC2-7DA92E2B8D41,zh-Hant-TW
vfsQUKQ2Rb2OJ0Oe0o9iow,newborntown,p1599_1050_31942226,Install,3.2,218.187.103.117,471E3377-97AD-438B-8F24-609CA46B331F,1557293752,2019-05-08 13:35:52,1557293791,2019-05-08 13:36:31,1557294480,671cebf2-5724-4676-906c-a1ddfe6c5c1c__pspm,http://pspm.pingstart.com/api/v4/postback?from=1706&clickid=671cebf2-5724-4676-906c-a1ddfe6c5c1c__pspm,idfa_471E3377-97AD-438B-8F24-609CA46B331F,zh-Hant-TW
vfsQUKQ2Rb2OJ0Oe0o9iow,newborntown,p1599_1050_31942226,Install,3.2,114.37.211.20,D82877B3-CD1F-4F31-AAC9-0997FBE0F5E2,1557293946,2019-05-08 13:39:06,1557293984,2019-05-08 13:39:44,1557294253,c6089c24-f7fd-48fd-a332-32dc38963159__pspm,http://pspm.pingstart.com/api/v4/postback?from=1706&clickid=c6089c24-f7fd-48fd-a332-32dc38963159__pspm,idfa_D82877B3-CD1F-4F31-AAC9-0997FBE0F5E2,zh-Hant-TW
vfsQUKQ2Rb2OJ0Oe0o9iow,newborntown,p1599_1050_31942226,Install,3.2,114.27.119.206,098E09D5-9C58-4578-9D4A-FD605E58099A,1557294772,2019-05-08 13:52:52,1557294825,2019-05-08 13:53:45,1557294856,2c427e76-5d2d-45d1-b127-26418db9dec6__pspm,http://pspm.pingstart.com/api/v4/postback?from=1706&clickid=2c427e76-5d2d-45d1-b127-26418db9dec6__pspm,idfa_098E09D5-9C58-4578-9D4A-FD605E58099A,zh-Hant-TW
vfsQUKQ2Rb2OJ0Oe0o9iow,newborntown,p1599_1050_31942226,Install,3.2,61.62.36.163,4CDFE026-F1CE-4C10-BD8C-7010881DA316,1557294880,2019-05-08 13:54:40,1557294939,2019-05-08 13:55:39,1557294969,3b9e916e-24d0-4c1c-bc2d-9f5b40e80322__pspm,http://pspm.pingstart.com/api/v4/postback?from=1706&clickid=3b9e916e-24d0-4c1c-bc2d-9f5b40e80322__pspm,idfa_4CDFE026-F1CE-4C10-BD8C-7010881DA316,zh-Hant-TW
vfsQUKQ2Rb2OJ0Oe0o9iow,newborntown,p1599_1050_31942226,Install,3.2,114.36.4.60,8E7B28A6-1B33-44E9-A080-872D5E233F55,1557294299,2019-05-08 13:44:59,1557294347,2019-05-08 13:45:47,1557294392,ea7e211c-750e-4ae0-b93b-0c2da99613d5__pspm,http://pspm.pingstart.com/api/v4/postback?from=1706&clickid=ea7e211c-750e-4ae0-b93b-0c2da99613d5__pspm,idfa_8E7B28A6-1B33-44E9-A080-872D5E233F55,zh-Hant-TW
vfsQUKQ2Rb2OJ0Oe0o9iow,newborntown,p1599_1050_31942226,Install,3.2,1.164.88.103,05B7E25C-F8C8-4466-9A8C-2EAF9B92DEF9,1557295130,2019-05-08 13:58:50,1557295213,2019-05-08 14:00:13,1557295244,b8879b62-8c68-42e9-9047-c8ceeab6c3f5__pspm,http://pspm.pingstart.com/api/v4/postback?from=1706&clickid=b8879b62-8c68-42e9-9047-c8ceeab6c3f5__pspm,idfa_05B7E25C-F8C8-4466-9A8C-2EAF9B92DEF9,zh-Hant-TW
vfsQUKQ2Rb2OJ0Oe0o9iow,newborntown,p1599_1050_31942226,Install,3.2,114.24.230.148,DE4D1E86-A6C9-40F2-8AA9-353D06AD4DCF,1557294795,2019-05-08 13:53:15,1557294822,2019-05-08 13:53:42,1557294852,f43992e8-a545-4e93-bcf8-c8021a2172fd__pspm,http://pspm.pingstart.com/api/v4/postback?from=1706&clickid=f43992e8-a545-4e93-bcf8-c8021a2172fd__pspm,idfa_DE4D1E86-A6C9-40F2-8AA9-353D06AD4DCF,zh-Hant-TW
vfsQUKQ2Rb2OJ0Oe0o9iow,newborntown,p1599_1050_31942226,Install,3.2,114.46.59.239,B68749C6-D2F5-4415-BEC4-77D3BC88A0DA,1557293754,2019-05-08 13:35:54,1557293795,2019-05-08 13:36:35,1557293825,e0ad98f9-918f-4046-be28-9e8ae72fd61d__pspm,http://pspm.pingstart.com/api/v4/postback?from=1706&clickid=e0ad98f9-918f-4046-be28-9e8ae72fd61d__pspm,idfa_B68749C6-D2F5-4415-BEC4-77D3BC88A0DA,zh-Hant-TW
vfsQUKQ2Rb2OJ0Oe0o9iow,newborntown,p1599_1050_31942226,Install,3.2,61.231.41.124,94C1B843-5B50-4D77-B31D-62A6E2DCEDA2,1557294842,2019-05-08 13:54:02,1557294868,2019-05-08 13:54:28,1557294898,8f1231db-d3b3-4420-aced-ed1ab99cd65d__pspm,http://pspm.pingstart.com/api/v4/postback?from=1706&clickid=8f1231db-d3b3-4420-aced-ed1ab99cd65d__pspm,idfa_94C1B843-5B50-4D77-B31D-62A6E2DCEDA2,zh-Hant-TW
vfsQUKQ2Rb2OJ0Oe0o9iow,newborntown,p1599_1050_31942226,Install,3.2,36.224.2.17,5AD7F6C0-163F-49ED-A3D7-9F3A27D43621,1557295114,2019-05-08 13:58:34,1557295142,2019-05-08 13:59:02,1557295173,c4533579-c05e-416f-845d-33f0893dc46d__pspm,http://pspm.pingstart.com/api/v4/postback?from=1706&clickid=c4533579-c05e-416f-845d-33f0893dc46d__pspm,idfa_5AD7F6C0-163F-49ED-A3D7-9F3A27D43621,zh-Hant-TW
vfsQUKQ2Rb2OJ0Oe0o9iow,newborntown,p1599_1050_31942226,Install,3.2,118.169.109.172,8F4B15BA-0429-47DB-BC65-008DD63DBBC8,1557295061,2019-05-08 13:57:41,1557295085,2019-05-08 13:58:05,1557295115,5a6c6e76-3223-452b-9150-e6c7cb0d8324__pspm,http://pspm.pingstart.com/api/v4/postback?from=1706&clickid=5a6c6e76-3223-452b-9150-e6c7cb0d8324__pspm,idfa_8F4B15BA-0429-47DB-BC65-008DD63DBBC8,zh-Hant-TW
vfsQUKQ2Rb2OJ0Oe0o9iow,newborntown,p1599_1050_31942226,Install,3.2,114.44.71.141,2ADAAB59-BA11-4086-A02A-64C9FA6B24A6,1557294167,2019-05-08 13:42:47,1557294251,2019-05-08 13:44:11,1557294282,029239c7-9a8e-4419-bb50-a43355137498__pspm,http://pspm.pingstart.com/api/v4/postback?from=1706&clickid=029239c7-9a8e-4419-bb50-a43355137498__pspm,idfa_2ADAAB59-BA11-4086-A02A-64C9FA6B24A6,zh-Hant-TW
vfsQUKQ2Rb2OJ0Oe0o9iow,newborntown,p1599_1050_31942226,Install,3.2,36.227.18.192,A6B3C91C-8F95-4888-B69F-DEF1F37F94AA,1557294322,2019-05-08 13:45:22,1557294370,2019-05-08 13:46:10,1557294400,8823c50b-1308-4210-9c78-663cf8bc6d5a__pspm,http://pspm.pingstart.com/api/v4/postback?from=1706&clickid=8823c50b-1308-4210-9c78-663cf8bc6d5a__pspm,idfa_A6B3C91C-8F95-4888-B69F-DEF1F37F94AA,zh-Hant-TW
vfsQUKQ2Rb2OJ0Oe0o9iow,newborntown,p1599_1050_31942226,Install,3.2,36.229.17.151,047F83A6-84FA-4B0B-A698-10C84490CDD5,1557293954,2019-05-08 13:39:14,1557293977,2019-05-08 13:39:37,1557294009,9ed9c74b-668c-4710-b5d2-bbe56c6d24c4__pspm,http://pspm.pingstart.com/api/v4/postback?from=1706&clickid=9ed9c74b-668c-4710-b5d2-bbe56c6d24c4__pspm,idfa_047F83A6-84FA-4B0B-A698-10C84490CDD5,zh-Hant-TW
vfsQUKQ2Rb2OJ0Oe0o9iow,newborntown,p1599_1050_31942226,Install,3.2,118.169.170.196,DD7351F4-F022-4E00-8649-0D0A217B2387,1557294446,2019-05-08 13:47:26,1557294475,2019-05-08 13:47:55,1557294506,f5962f34-92c8-4b4f-94d2-beca15a9df22__pspm,http://pspm.pingstart.com/api/v4/postback?from=1706&clickid=f5962f34-92c8-4b4f-94d2-beca15a9df22__pspm,idfa_DD7351F4-F022-4E00-8649-0D0A217B2387,zh-Hant-TW
vfsQUKQ2Rb2OJ0Oe0o9iow,newborntown,p1599_1050_31942226,Install,3.2,114.42.95.240,9DCDB499-BB11-41E0-96B1-F2D5E0155D3E,1557294604,2019-05-08 13:50:04,1557294629,2019-05-08 13:50:29,1557294659,9f5a4cd6-a3ee-49b7-abc2-319d0d006320__pspm,http://pspm.pingstart.com/api/v4/postback?from=1706&clickid=9f5a4cd6-a3ee-49b7-abc2-319d0d006320__pspm,idfa_9DCDB499-BB11-41E0-96B1-F2D5E0155D3E,zh-Hant-TW
vfsQUKQ2Rb2OJ0Oe0o9iow,newborntown,p1599_1050_31942226,Install,3.2,118.166.121.252,3D2227DE-8651-4051-801A-01B3AA5FA4C4,1557294512,2019-05-08 13:48:32,1557294579,2019-05-08 13:49:39,1557294610,248e31fa-c483-401d-834a-6f95540aa255__pspm,http://pspm.pingstart.com/api/v4/postback?from=1706&clickid=248e31fa-c483-401d-834a-6f95540aa255__pspm,idfa_3D2227DE-8651-4051-801A-01B3AA5FA4C4,zh-Hant-TW
vfsQUKQ2Rb2OJ0Oe0o9iow,newborntown,p1599_1050_31942226,Install,3.2,118.167.8.246,5814366B-B76E-4FE1-AD93-F156DB659146,1557295317,2019-05-08 14:01:57,1557295359,2019-05-08 14:02:39,1557295389,58e317d5-93a9-4d13-9ebe-3648eb2c9371__pspm,http://pspm.pingstart.com/api/v4/postback?from=1706&clickid=58e317d5-93a9-4d13-9ebe-3648eb2c9371__pspm,idfa_5814366B-B76E-4FE1-AD93-F156DB659146,zh-Hant-TW
vfsQUKQ2Rb2OJ0Oe0o9iow,newborntown,p1599_1050_31942226,Install,3.2,114.40.232.134,892563D7-4348-4256-A183-07D16A79399B,1557294170,2019-05-08 13:42:50,1557294230,2019-05-08 13:43:50,1557294262,84270708-92c6-42b2-ba0b-f4369a51a35e__pspm,http://pspm.pingstart.com/api/v4/postback?from=1706&clickid=84270708-92c6-42b2-ba0b-f4369a51a35e__pspm,idfa_892563D7-4348-4256-A183-07D16A79399B,zh-Hant-TW
vfsQUKQ2Rb2OJ0Oe0o9iow,newborntown,p1599_1050_31942226,Install,3.2,1.162.160.198,2C307F65-CA71-4141-A7A6-ACDDE13F55F4,1557294543,2019-05-08 13:49:03,1557294587,2019-05-08 13:49:47,1557294623,0ec810cd-e1ff-46ce-ab99-10934e2efd8a__pspm,http://pspm.pingstart.com/api/v4/postback?from=1706&clickid=0ec810cd-e1ff-46ce-ab99-10934e2efd8a__pspm,idfa_2C307F65-CA71-4141-A7A6-ACDDE13F55F4,zh-Hant-TW
vfsQUKQ2Rb2OJ0Oe0o9iow,newborntown,p1599_1050_31942226,Install,3.2,36.234.144.26,504AC15F-E98B-4A53-9D58-6A70E51F6728,1557295284,2019-05-08 14:01:24,1557295339,2019-05-08 14:02:19,1557295369,f3a394f3-9ea4-4574-81f0-54af27c4ddb4__pspm,http://pspm.pingstart.com/api/v4/postback?from=1706&clickid=f3a394f3-9ea4-4574-81f0-54af27c4ddb4__pspm,idfa_504AC15F-E98B-4A53-9D58-6A70E51F6728,zh-Hant-TW
vfsQUKQ2Rb2OJ0Oe0o9iow,newborntown,p1599_1050_31942226,Install,3.2,36.227.128.168,85BB4248-7B62-4DF4-AB63-57A21EB9CDA2,1557295259,2019-05-08 14:00:59,1557295297,2019-05-08 14:01:37,1557295328,bd5f97d5-a6d4-4e49-9f99-1d1eaab5a8a2__pspm,http://pspm.pingstart.com/api/v4/postback?from=1706&clickid=bd5f97d5-a6d4-4e49-9f99-1d1eaab5a8a2__pspm,idfa_85BB4248-7B62-4DF4-AB63-57A21EB9CDA2,zh-Hant-TW
vfsQUKQ2Rb2OJ0Oe0o9iow,newborntown,p1599_1050_31942226,Install,3.2,111.252.200.225,DE570A69-0B85-45B7-9527-03F52ECE8750,1557295320,2019-05-08 14:02:00,1557295350,2019-05-08 14:02:30,1557295380,74fca77a-1218-4810-be79-6dbc00792344__pspm,http://pspm.pingstart.com/api/v4/postback?from=1706&clickid=74fca77a-1218-4810-be79-6dbc00792344__pspm,idfa_DE570A69-0B85-45B7-9527-03F52ECE8750,zh-Hant-TW
vfsQUKQ2Rb2OJ0Oe0o9iow,newborntown,p1599_1050_31942226,Install,3.2,1.160.81.39,5EB573D8-B09A-4264-B5B0-917881B20D7F,1557294745,2019-05-08 13:52:25,1557294785,2019-05-08 13:53:05,1557294816,0bdec260-3fa1-411d-966a-f955edc8d201__pspm,http://pspm.pingstart.com/api/v4/postback?from=1706&clickid=0bdec260-3fa1-411d-966a-f955edc8d201__pspm,idfa_5EB573D8-B09A-4264-B5B0-917881B20D7F,zh-Hant-TW
vfsQUKQ2Rb2OJ0Oe0o9iow,newborntown,p1599_1050_31942226,Install,3.2,59.115.93.126,0CAB0D1C-16EC-4F55-B3BD-AA8C2A62B27E,1557294348,2019-05-08 13:45:48,1557294391,2019-05-08 13:46:31,1557294421,54d9bd13-574d-45f2-84b3-5f1606121c6f__pspm,http://pspm.pingstart.com/api/v4/postback?from=1706&clickid=54d9bd13-574d-45f2-84b3-5f1606121c6f__pspm,idfa_0CAB0D1C-16EC-4F55-B3BD-AA8C2A62B27E,zh-Hant-TW
vfsQUKQ2Rb2OJ0Oe0o9iow,newborntown,p1599_1050_31942226,Install,3.2,36.227.224.1,3770ED66-31DE-4612-96AC-1CDAAAE1C565,1557294982,2019-05-08 13:56:22,1557295020,2019-05-08 13:57:00,1557295050,779fdab6-df2b-4b25-aab4-ce13746d7f26__pspm,http://pspm.pingstart.com/api/v4/postback?from=1706&clickid=779fdab6-df2b-4b25-aab4-ce13746d7f26__pspm,idfa_3770ED66-31DE-4612-96AC-1CDAAAE1C565,zh-Hant-TW
vfsQUKQ2Rb2OJ0Oe0o9iow,newborntown,p1599_1050_31942226,Install,3.2,1.174.33.100,4CC3DE5D-69E1-4EB9-8FA0-88D75ADB0DEB,1557294414,2019-05-08 13:46:54,1557294445,2019-05-08 13:47:25,1557294476,3c0562f3-ab13-426a-ab9c-3a1f28aa4660__pspm,http://pspm.pingstart.com/api/v4/postback?from=1706&clickid=3c0562f3-ab13-426a-ab9c-3a1f28aa4660__pspm,idfa_4CC3DE5D-69E1-4EB9-8FA0-88D75ADB0DEB,zh-Hant-TW
vfsQUKQ2Rb2OJ0Oe0o9iow,newborntown,p1599_1050_31942226,Install,3.2,114.36.24.87,18FA21E1-4DF2-47F6-A3DF-C6437C4D4F3E,1557295049,2019-05-08 13:57:29,1557295090,2019-05-08 13:58:10,1557295120,eec54a49-3941-499a-ab52-c53bbf0d8eb0__pspm,http://pspm.pingstart.com/api/v4/postback?from=1706&clickid=eec54a49-3941-499a-ab52-c53bbf0d8eb0__pspm,idfa_18FA21E1-4DF2-47F6-A3DF-C6437C4D4F3E,zh-Hant-TW
vfsQUKQ2Rb2OJ0Oe0o9iow,newborntown,p1599_1050_31942226,Install,3.2,114.41.48.76,FC511CE0-6867-44B2-BA9A-954389175F9C,1557294555,2019-05-08 13:49:15,1557294580,2019-05-08 13:49:40,1557294610,9a4c631d-d61d-47aa-a120-291235889d1d__pspm,http://pspm.pingstart.com/api/v4/postback?from=1706&clickid=9a4c631d-d61d-47aa-a120-291235889d1d__pspm,idfa_FC511CE0-6867-44B2-BA9A-954389175F9C,zh-Hant-TW
vfsQUKQ2Rb2OJ0Oe0o9iow,newborntown,p1599_1050_31942226,Install,3.2,114.41.176.216,F91DFC44-5E77-4BA2-8CC5-37CC386677C8,1557294802,2019-05-08 13:53:22,1557294831,2019-05-08 13:53:51,1557294861,bea60a76-8cd6-47fb-a990-1795f1c7ffd5__pspm,http://pspm.pingstart.com/api/v4/postback?from=1706&clickid=bea60a76-8cd6-47fb-a990-1795f1c7ffd5__pspm,idfa_F91DFC44-5E77-4BA2-8CC5-37CC386677C8,zh-Hant-TW
vfsQUKQ2Rb2OJ0Oe0o9iow,newborntown,p1599_1050_31942226,Install,3.2,1.163.154.197,C4849391-DCC6-4D7A-9D97-62C89A2C2A58,1557293907,2019-05-08 13:38:27,1557293948,2019-05-08 13:39:08,1557293979,59cb8af4-a6d2-4f66-a9fc-849841bbcde0__pspm,http://pspm.pingstart.com/api/v4/postback?from=1706&clickid=59cb8af4-a6d2-4f66-a9fc-849841bbcde0__pspm,idfa_C4849391-DCC6-4D7A-9D97-62C89A2C2A58,zh-Hant-TW
vfsQUKQ2Rb2OJ0Oe0o9iow,newborntown,p1599_1050_31942226,Install,3.2,114.37.187.153,FD714694-1ABF-4013-855C-31C2CF0F9260,1557295294,2019-05-08 14:01:34,1557295318,2019-05-08 14:01:58,1557295349,4f0f9ec9-ab65-46b0-a640-2b6c3aa3b2cd__pspm,http://pspm.pingstart.com/api/v4/postback?from=1706&clickid=4f0f9ec9-ab65-46b0-a640-2b6c3aa3b2cd__pspm,idfa_FD714694-1ABF-4013-855C-31C2CF0F9260,zh-Hant-TW
vfsQUKQ2Rb2OJ0Oe0o9iow,newborntown,p1599_1050_31942226,Install,3.2,118.170.198.169,A10CC3FD-798D-4DF3-9B51-FC77F18B664F,1557294624,2019-05-08 13:50:24,1557294652,2019-05-08 13:50:52,1557294683,a1318b71-f9a1-4c80-95e6-4eb6b2b7684b__pspm,http://pspm.pingstart.com/api/v4/postback?from=1706&clickid=a1318b71-f9a1-4c80-95e6-4eb6b2b7684b__pspm,idfa_A10CC3FD-798D-4DF3-9B51-FC77F18B664F,zh-Hant-TW
vfsQUKQ2Rb2OJ0Oe0o9iow,newborntown,p1599_1050_31942226,Install,3.2,59.115.245.230,E818BA52-9D17-4EB9-A0C5-98F791CEDF80,1557295337,2019-05-08 14:02:17,1557295367,2019-05-08 14:02:47,1557295398,a3285f9d-839f-445b-b1f5-e74bca479f36__pspm,http://pspm.pingstart.com/api/v4/postback?from=1706&clickid=a3285f9d-839f-445b-b1f5-e74bca479f36__pspm,idfa_E818BA52-9D17-4EB9-A0C5-98F791CEDF80,zh-Hant-TW
vfsQUKQ2Rb2OJ0Oe0o9iow,newborntown,p1599_1050_31942226,Install,3.2,61.227.87.193,2DCF2432-DBD4-4E08-BEA3-467D2EDC6A9A,1557294067,2019-05-08 13:41:07,1557294104,2019-05-08 13:41:44,1557294169,d93d3295-e0e9-4c14-b532-f5d93f3579ed__pspm,http://pspm.pingstart.com/api/v4/postback?from=1706&clickid=d93d3295-e0e9-4c14-b532-f5d93f3579ed__pspm,idfa_2DCF2432-DBD4-4E08-BEA3-467D2EDC6A9A,zh-Hant-TW
vfsQUKQ2Rb2OJ0Oe0o9iow,newborntown,p1599_1050_31942226,Install,3.2,114.37.209.53,56A9F83C-F14A-4EC3-BBE4-940EAB2BDA10,1557294926,2019-05-08 13:55:26,1557294959,2019-05-08 13:55:59,1557294990,e84d5409-a298-41af-8b3b-70e9176e47ba__pspm,http://pspm.pingstart.com/api/v4/postback?from=1706&clickid=e84d5409-a298-41af-8b3b-70e9176e47ba__pspm,idfa_56A9F83C-F14A-4EC3-BBE4-940EAB2BDA10,zh-Hant-TW
vfsQUKQ2Rb2OJ0Oe0o9iow,newborntown,p1599_1050_31942226,Install,3.2,1.162.167.171,3D9BC8F7-929E-401D-A091-F1D2CFE821BF,1557295278,2019-05-08 14:01:18,1557295335,2019-05-08 14:02:15,1557295365,47ee7343-7149-46b3-9cc6-38dc6702fddd__pspm,http://pspm.pingstart.com/api/v4/postback?from=1706&clickid=47ee7343-7149-46b3-9cc6-38dc6702fddd__pspm,idfa_3D9BC8F7-929E-401D-A091-F1D2CFE821BF,zh-Hant-TW
vfsQUKQ2Rb2OJ0Oe0o9iow,newborntown,p1599_1050_31942226,Install,3.2,111.253.11.134,E7DFD34B-C001-4127-BA65-C23675C92BE2,1557294990,2019-05-08 13:56:30,1557295020,2019-05-08 13:57:00,1557295050,9b84b8d6-c9b7-4792-9989-f242ec51a6c6__pspm,http://pspm.pingstart.com/api/v4/postback?from=1706&clickid=9b84b8d6-c9b7-4792-9989-f242ec51a6c6__pspm,idfa_E7DFD34B-C001-4127-BA65-C23675C92BE2,zh-Hant-TW
