cid,partner_id,channel_id,action_id,cpi,ip,idfa,click time,click datetime,install time,install datetime,postback time,click id,postback url,unique user id
I6RZQcqbQaK8cIpuaif_cA,newborntown,p1599_1509_1860,Install,0.37,58.11.198.48,602b1f17-3558-41c6-a91e-0668cab1939c,1556761171,2019-05-02 09:39:31,1556761223,2019-05-02 09:40:23,1556761262,a1c7fd6d-90f7-4516-8d33-51ecad357874__pspm,http://pspm.pingstart.com/api/v4/postback?from=1706&clickid=a1c7fd6d-90f7-4516-8d33-51ecad357874__pspm,idfa_602b1f17-3558-41c6-a91e-0668cab1939c,English
I6RZQcqbQaK8cIpuaif_cA,newborntown,p1599_1509_1860,Install,0.37,27.145.195.219,c445ddba-bdb9-42b1-a316-c3b567677f9d,1556761856,2019-05-02 09:50:56,1556761894,2019-05-02 09:51:34,1556761983,9258e959-8319-4776-b4cc-2d97fb55954b__pspm,http://pspm.pingstart.com/api/v4/postback?from=1706&clickid=9258e959-8319-4776-b4cc-2d97fb55954b__pspm,idfa_c445ddba-bdb9-42b1-a316-c3b567677f9d,%E0%B9%84%E0%B8%97%E0%B8%A2
I6RZQcqbQaK8cIpuaif_cA,newborntown,p1599_1509_1860,Install,0.37,223.206.130.246,dfad8624-50a4-4be5-892a-3fdd502afeaf,1556761859,2019-05-02 09:50:59,1556761899,2019-05-02 09:51:39,1556761930,b14124b3-3fbd-446b-a0a1-c5debbe1d10e__pspm,http://pspm.pingstart.com/api/v4/postback?from=1706&clickid=b14124b3-3fbd-446b-a0a1-c5debbe1d10e__pspm,idfa_dfad8624-50a4-4be5-892a-3fdd502afeaf,%E0%B9%84%E0%B8%97%E0%B8%A2
I6RZQcqbQaK8cIpuaif_cA,newborntown,p1599_1509_1860,Install,0.37,184.22.69.247,26a94b33-eeca-464e-ac81-23b8a5828442,1556759950,2019-05-02 09:19:10,1556759993,2019-05-02 09:19:53,1556760066,822ff3fd-6d94-4767-8180-2092cb925e62__pspm,http://pspm.pingstart.com/api/v4/postback?from=1706&clickid=822ff3fd-6d94-4767-8180-2092cb925e62__pspm,idfa_26a94b33-eeca-464e-ac81-23b8a5828442,%E0%B9%84%E0%B8%97%E0%B8%A2
I6RZQcqbQaK8cIpuaif_cA,newborntown,p1599_1509_1860,Install,0.37,182.232.24.1,73bc6d3d-5a82-48ff-9dc5-d34879dca996,1556759570,2019-05-02 09:12:50,1556759662,2019-05-02 09:14:22,1556759693,64244999-e207-4347-a782-28b8f0d12d43__pspm,http://pspm.pingstart.com/api/v4/postback?from=1706&clickid=64244999-e207-4347-a782-28b8f0d12d43__pspm,idfa_73bc6d3d-5a82-48ff-9dc5-d34879dca996,%E0%B9%84%E0%B8%97%E0%B8%A2
I6RZQcqbQaK8cIpuaif_cA,newborntown,p1599_1509_1860,Install,0.37,58.11.55.157,29e3e67e-4666-4cc7-96ef-3e599ff01861,1556761750,2019-05-02 09:49:10,1556761779,2019-05-02 09:49:39,1556761833,44b3b30c-0b12-4dc7-a9c6-f8d20eb7ad4f__pspm,http://pspm.pingstart.com/api/v4/postback?from=1706&clickid=44b3b30c-0b12-4dc7-a9c6-f8d20eb7ad4f__pspm,idfa_29e3e67e-4666-4cc7-96ef-3e599ff01861,%E0%B9%84%E0%B8%97%E0%B8%A2
I6RZQcqbQaK8cIpuaif_cA,newborntown,p1599_1509_1860,Install,0.37,171.97.74.206,fcd8db7a-2949-4ca0-8a7b-2e02e8aa17b5,1556761043,2019-05-02 09:37:23,1556761078,2019-05-02 09:37:58,1556761109,6e11c26f-8708-46d6-8554-6ea01c1eed7e__pspm,http://pspm.pingstart.com/api/v4/postback?from=1706&clickid=6e11c26f-8708-46d6-8554-6ea01c1eed7e__pspm,idfa_fcd8db7a-2949-4ca0-8a7b-2e02e8aa17b5,%E0%B9%84%E0%B8%97%E0%B8%A2
I6RZQcqbQaK8cIpuaif_cA,newborntown,p1599_1509_1860,Install,0.37,223.207.113.119,78749ef4-ec43-4d3e-bc00-b7609fdfc8fc,1556758107,2019-05-02 08:48:27,1556758152,2019-05-02 08:49:12,1556758183,a738d223-a191-4b63-8512-7df6d162f16f__pspm,http://pspm.pingstart.com/api/v4/postback?from=1706&clickid=a738d223-a191-4b63-8512-7df6d162f16f__pspm,idfa_78749ef4-ec43-4d3e-bc00-b7609fdfc8fc,%E0%B9%84%E0%B8%97%E0%B8%A2
I6RZQcqbQaK8cIpuaif_cA,newborntown,p1599_1509_1860,Install,0.37,1.46.192.100,49072825-2145-40f8-bc8b-8df2ec46d4a8,1556761845,2019-05-02 09:50:45,1556761888,2019-05-02 09:51:28,1556761919,c8293a22-30d5-42fd-b63d-3db5a8c44ef9__pspm,http://pspm.pingstart.com/api/v4/postback?from=1706&clickid=c8293a22-30d5-42fd-b63d-3db5a8c44ef9__pspm,idfa_49072825-2145-40f8-bc8b-8df2ec46d4a8,%E1%9E%81%E1%9F%92%E1%9E%98%E1%9F%82%E1%9E%9A
I6RZQcqbQaK8cIpuaif_cA,newborntown,p1599_1509_1860,Install,0.37,14.207.120.170,f2c4c029-6abc-42dc-b9aa-e257daccb3b8,1556759550,2019-05-02 09:12:30,1556759756,2019-05-02 09:15:56,1556759787,25697342-fc92-43a0-9195-c1e77dc95d8c__pspm,http://pspm.pingstart.com/api/v4/postback?from=1706&clickid=25697342-fc92-43a0-9195-c1e77dc95d8c__pspm,idfa_f2c4c029-6abc-42dc-b9aa-e257daccb3b8,%E0%B9%84%E0%B8%97%E0%B8%A2
I6RZQcqbQaK8cIpuaif_cA,newborntown,p1599_1509_1860,Install,0.37,223.24.153.146,b4b44154-e717-405e-9f6d-7b4699c2f117,1556759410,2019-05-02 09:10:10,1556759453,2019-05-02 09:10:53,1556759485,2d8f7753-e3ae-440f-91f0-e76e1a4d0c3d__pspm,http://pspm.pingstart.com/api/v4/postback?from=1706&clickid=2d8f7753-e3ae-440f-91f0-e76e1a4d0c3d__pspm,idfa_b4b44154-e717-405e-9f6d-7b4699c2f117,%E0%B9%84%E0%B8%97%E0%B8%A2
I6RZQcqbQaK8cIpuaif_cA,newborntown,p1599_1509_1860,Install,0.37,122.155.46.49,d6fa470d-9b81-4195-a695-bdcde14621e2,1556759734,2019-05-02 09:15:34,1556759777,2019-05-02 09:16:17,1556759808,660a0b0c-a761-4b24-8107-913ebf3b7ac9__pspm,http://pspm.pingstart.com/api/v4/postback?from=1706&clickid=660a0b0c-a761-4b24-8107-913ebf3b7ac9__pspm,idfa_d6fa470d-9b81-4195-a695-bdcde14621e2,%E0%B9%84%E0%B8%97%E0%B8%A2
I6RZQcqbQaK8cIpuaif_cA,newborntown,p1599_1509_1860,Install,0.37,184.22.104.179,8dedac47-e761-4cdf-bbcb-7e0963c6af08,1556761837,2019-05-02 09:50:37,1556761885,2019-05-02 09:51:25,1556761916,b2dd97a1-819f-4231-a69e-b8d0a8d5773e__pspm,http://pspm.pingstart.com/api/v4/postback?from=1706&clickid=b2dd97a1-819f-4231-a69e-b8d0a8d5773e__pspm,idfa_8dedac47-e761-4cdf-bbcb-7e0963c6af08,%E0%B9%84%E0%B8%97%E0%B8%A2
I6RZQcqbQaK8cIpuaif_cA,newborntown,p1599_1509_1860,Install,0.37,171.96.38.190,820bc96a-e68d-4722-bda9-e4954bdf5bbc,1556760106,2019-05-02 09:21:46,1556760147,2019-05-02 09:22:27,1556760289,5b80b283-01b8-4e01-b42b-5ff43a90e9ae__pspm,http://pspm.pingstart.com/api/v4/postback?from=1706&clickid=5b80b283-01b8-4e01-b42b-5ff43a90e9ae__pspm,idfa_820bc96a-e68d-4722-bda9-e4954bdf5bbc,%E0%B9%84%E0%B8%97%E0%B8%A2
I6RZQcqbQaK8cIpuaif_cA,newborntown,p1599_1509_1860,Install,0.37,1.47.3.71,41b202da-0179-46fb-ab6d-a7a05d389853,1556759064,2019-05-02 09:04:24,1556759821,2019-05-02 09:17:01,1556759852,6de504ac-67d2-46a6-9053-ac4ead514b27__pspm,http://pspm.pingstart.com/api/v4/postback?from=1706&clickid=6de504ac-67d2-46a6-9053-ac4ead514b27__pspm,idfa_41b202da-0179-46fb-ab6d-a7a05d389853,English
I6RZQcqbQaK8cIpuaif_cA,newborntown,p1599_1509_1860,Install,0.37,122.155.45.102,f69e8add-02d4-4b14-8dc0-3d85472c2865,1556761393,2019-05-02 09:43:13,1556761436,2019-05-02 09:43:56,1556761468,633935b4-4aef-4934-b501-10e67b4b49b1__pspm,http://pspm.pingstart.com/api/v4/postback?from=1706&clickid=633935b4-4aef-4934-b501-10e67b4b49b1__pspm,idfa_f69e8add-02d4-4b14-8dc0-3d85472c2865,%E0%B9%84%E0%B8%97%E0%B8%A2
I6RZQcqbQaK8cIpuaif_cA,newborntown,p1599_1509_1860,Install,0.37,182.232.196.223,14a733f7-afcd-4fa5-80ae-31efc7618d3b,1556758874,2019-05-02 09:01:14,1556758915,2019-05-02 09:01:55,1556758946,186ee620-51a6-460f-becd-8f8243d66772__pspm,http://pspm.pingstart.com/api/v4/postback?from=1706&clickid=186ee620-51a6-460f-becd-8f8243d66772__pspm,idfa_14a733f7-afcd-4fa5-80ae-31efc7618d3b,%E0%B9%84%E0%B8%97%E0%B8%A2
I6RZQcqbQaK8cIpuaif_cA,newborntown,p1599_1509_1860,Install,0.37,49.230.61.247,28038812-c582-404a-9f86-de9f146f794c,1556758279,2019-05-02 08:51:19,1556758335,2019-05-02 08:52:15,1556758366,57ab41ae-e124-4f67-be1f-bcfd6c8d7c05__pspm,http://pspm.pingstart.com/api/v4/postback?from=1706&clickid=57ab41ae-e124-4f67-be1f-bcfd6c8d7c05__pspm,idfa_28038812-c582-404a-9f86-de9f146f794c,%E0%B9%84%E0%B8%97%E0%B8%A2
I6RZQcqbQaK8cIpuaif_cA,newborntown,p1599_1509_1860,Install,0.37,124.120.178.217,6855531d-fceb-407e-b607-89f42f0e767a,1556761840,2019-05-02 09:50:40,1556761881,2019-05-02 09:51:21,1556761912,f4be4139-4ff0-48ff-94c4-744a93097209__pspm,http://pspm.pingstart.com/api/v4/postback?from=1706&clickid=f4be4139-4ff0-48ff-94c4-744a93097209__pspm,idfa_6855531d-fceb-407e-b607-89f42f0e767a,%E1%80%BB%E1%80%99%E1%80%94%E1%80%B9%E1%80%99%E1%80%AC
I6RZQcqbQaK8cIpuaif_cA,newborntown,p1599_1509_1860,Install,0.37,223.24.27.248,4bbd2cb6-b80e-4d0c-8b4a-d4e77b40a18c,1556758229,2019-05-02 08:50:29,1556758269,2019-05-02 08:51:09,1556758324,8ddee11d-1c4f-45e1-bdff-fdd821643ac0__pspm,http://pspm.pingstart.com/api/v4/postback?from=1706&clickid=8ddee11d-1c4f-45e1-bdff-fdd821643ac0__pspm,idfa_4bbd2cb6-b80e-4d0c-8b4a-d4e77b40a18c,%E0%B9%84%E0%B8%97%E0%B8%A2
I6RZQcqbQaK8cIpuaif_cA,newborntown,p1599_1509_1860,Install,0.37,58.10.106.197,50d3d98d-8d94-4a9f-b59b-0d353780baf3,1556761156,2019-05-02 09:39:16,1556761201,2019-05-02 09:40:01,1556761232,bb63f386-6d6b-4298-80ed-bfea1273bd4d__pspm,http://pspm.pingstart.com/api/v4/postback?from=1706&clickid=bb63f386-6d6b-4298-80ed-bfea1273bd4d__pspm,idfa_50d3d98d-8d94-4a9f-b59b-0d353780baf3,%E0%B9%84%E0%B8%97%E0%B8%A2
I6RZQcqbQaK8cIpuaif_cA,newborntown,p1599_1509_1860,Install,0.37,1.46.166.134,b3e25a67-44d3-4614-a4fc-787d4865bc24,1556761014,2019-05-02 09:36:54,1556761058,2019-05-02 09:37:38,1556761145,9993dd19-fc52-4816-b0ed-bd5372aaeedb__pspm,http://pspm.pingstart.com/api/v4/postback?from=1706&clickid=9993dd19-fc52-4816-b0ed-bd5372aaeedb__pspm,idfa_b3e25a67-44d3-4614-a4fc-787d4865bc24,%E0%B9%84%E0%B8%97%E0%B8%A2
I6RZQcqbQaK8cIpuaif_cA,newborntown,p1599_1509_1860,Install,0.37,223.24.63.153,aa332d2f-6928-4901-93c6-f62572755a4e,1556761856,2019-05-02 09:50:56,1556761908,2019-05-02 09:51:48,1556761940,98330150-2e07-44a2-be62-454cbea21c90__pspm,http://pspm.pingstart.com/api/v4/postback?from=1706&clickid=98330150-2e07-44a2-be62-454cbea21c90__pspm,idfa_aa332d2f-6928-4901-93c6-f62572755a4e,%E0%B9%84%E0%B8%97%E0%B8%A2
I6RZQcqbQaK8cIpuaif_cA,newborntown,p1599_1509_1860,Install,0.37,184.22.224.60,0af10621-84dc-4e93-bcfc-b9c075130051,1556761840,2019-05-02 09:50:40,1556761886,2019-05-02 09:51:26,1556761917,c33a9181-075f-44bb-a9de-db9025a6e1a1__pspm,http://pspm.pingstart.com/api/v4/postback?from=1706&clickid=c33a9181-075f-44bb-a9de-db9025a6e1a1__pspm,idfa_0af10621-84dc-4e93-bcfc-b9c075130051,%E0%B9%84%E0%B8%97%E0%B8%A2
I6RZQcqbQaK8cIpuaif_cA,newborntown,p1599_1509_1860,Install,0.37,223.24.164.55,15fe8f7a-2d7f-4be4-8c23-ff28fb88e5cb,1556761792,2019-05-02 09:49:52,1556761838,2019-05-02 09:50:38,1556761869,ea8348d0-6cf4-4220-b53f-2a39630f76ca__pspm,http://pspm.pingstart.com/api/v4/postback?from=1706&clickid=ea8348d0-6cf4-4220-b53f-2a39630f76ca__pspm,idfa_15fe8f7a-2d7f-4be4-8c23-ff28fb88e5cb,%E0%B9%84%E0%B8%97%E0%B8%A2
