cid,partner_id,channel_id,action_id,cpi,ip,idfa,click time,click datetime,install time,install datetime,postback time,click id,postback url,unique user id
b8SmcPbMQLSEQAgvWQ4JmA,phono,529_,Install,1.0,1.214.47.130,a6012e8b-8294-4d78-9b94-d350327e863b,1558453504,2019-05-21 23:45:04,1558453606,2019-05-21 23:46:46,1558453636,NaxbwAHtX10ZRqk0C8T6HhMW100u90,http://phono.offerstrack.net/advBack.php?click_id=NaxbwAHtX10ZRqk0C8T6HhMW100u90,idfa_a6012e8b-8294-4d78-9b94-d350327e863b,%ED%95%9C%EA%B5%AD%EC%96%B4
b8SmcPbMQLSEQAgvWQ4JmA,phono,529_,Install,1.0,183.109.79.6,0a76fc68-6e58-478d-b359-0c01a15bb476,1558455103,2019-05-22 00:11:43,1558455197,2019-05-22 00:13:17,1558455228,A80yN01nt10X7TUZHojmHabwxLw080,http://phono.offerstrack.net/advBack.php?click_id=A80yN01nt10X7TUZHojmHabwxLw080,idfa_0a76fc68-6e58-478d-b359-0c01a15bb476,%ED%95%9C%EA%B5%AD%EC%96%B4
b8SmcPbMQLSEQAgvWQ4JmA,phono,529_,Install,1.0,112.179.141.189,77c14bfe-cd06-4ce3-9151-8d7701fc39fd,1558457993,2019-05-22 00:59:53,1558458110,2019-05-22 01:01:50,1558458143,CJX701Z018xHY8q0Pgtba80n0wNThZ,http://phono.offerstrack.net/advBack.php?click_id=CJX701Z018xHY8q0Pgtba80n0wNThZ,idfa_77c14bfe-cd06-4ce3-9151-8d7701fc39fd,%ED%95%9C%EA%B5%AD%EC%96%B4
b8SmcPbMQLSEQAgvWQ4JmA,phono,529_,Install,1.0,210.91.87.86,29ccdc90-4b70-4ec5-9d5d-38e234cf6631,1558457324,2019-05-22 00:48:44,1558457417,2019-05-22 00:50:17,1558457448,z0b0RbXxWEw8HT40iM20170t1Zkj4Z,http://phono.offerstrack.net/advBack.php?click_id=z0b0RbXxWEw8HT40iM20170t1Zkj4Z,idfa_29ccdc90-4b70-4ec5-9d5d-38e234cf6631,%ED%95%9C%EA%B5%AD%EC%96%B4
b8SmcPbMQLSEQAgvWQ4JmA,phono,529_,Install,1.0,211.54.74.50,30f34fe1-90ab-4421-b4e1-c09cc09a2bc6,1558454755,2019-05-22 00:05:55,1558454837,2019-05-22 00:07:17,1558454868,O14qg0V8101Mx7btXT90V0kBoZHiw0,http://phono.offerstrack.net/advBack.php?click_id=O14qg0V8101Mx7btXT90V0kBoZHiw0,idfa_30f34fe1-90ab-4421-b4e1-c09cc09a2bc6,%ED%95%9C%EA%B5%AD%EC%96%B4
b8SmcPbMQLSEQAgvWQ4JmA,phono,529_,Install,1.0,211.217.99.62,f910c13f-b643-46a8-9476-a462ed74025b,1558455186,2019-05-22 00:13:06,1558455266,2019-05-22 00:14:26,1558455299,g1f4njb7wFm0gO001HUZ0TXN3088xt,http://phono.offerstrack.net/advBack.php?click_id=g1f4njb7wFm0gO001HUZ0TXN3088xt,idfa_f910c13f-b643-46a8-9476-a462ed74025b,%ED%95%9C%EA%B5%AD%EC%96%B4
b8SmcPbMQLSEQAgvWQ4JmA,phono,529_,Install,1.0,211.60.149.16,fd4b0dde-92c2-4937-a004-2cd710ea5b17,1558457638,2019-05-22 00:53:58,1558457719,2019-05-22 00:55:19,1558457749,m8bZX000t1mx1jMtbAH0sxHG80NT1w,http://phono.offerstrack.net/advBack.php?click_id=m8bZX000t1mx1jMtbAH0sxHG80NT1w,idfa_fd4b0dde-92c2-4937-a004-2cd710ea5b17,%ED%95%9C%EA%B5%AD%EC%96%B4
b8SmcPbMQLSEQAgvWQ4JmA,phono,529_,Install,1.0,182.162.146.211,4b219a03-9d44-41e4-8289-58e688db38e9,1558456070,2019-05-22 00:27:50,1558456151,2019-05-22 00:29:11,1558456181,H001vcxHcTCf01ibNZX0c7ot8wg03i,http://phono.offerstrack.net/advBack.php?click_id=H001vcxHcTCf01ibNZX0c7ot8wg03i,idfa_4b219a03-9d44-41e4-8289-58e688db38e9,%ED%95%9C%EA%B5%AD%EC%96%B4
b8SmcPbMQLSEQAgvWQ4JmA,phono,529_,Install,1.0,211.206.123.161,b3989a4b-5bab-40a7-9475-47eee10fd993,1558457733,2019-05-22 00:55:33,1558457823,2019-05-22 00:57:03,1558457856,uVFI1p1w80E10X0tk08HK8WxZ0U2Tb,http://phono.offerstrack.net/advBack.php?click_id=uVFI1p1w80E10X0tk08HK8WxZ0U2Tb,idfa_b3989a4b-5bab-40a7-9475-47eee10fd993,%ED%95%9C%EA%B5%AD%EC%96%B4
b8SmcPbMQLSEQAgvWQ4JmA,phono,529_,Install,1.0,221.138.38.85,056a21f3-7ccb-4808-bb15-7352f56124d6,1558453473,2019-05-21 23:44:33,1558453596,2019-05-21 23:46:36,1558453626,X61xtI1807H10w0bEtT60kXfHZe0VW,http://phono.offerstrack.net/advBack.php?click_id=X61xtI1807H10w0bEtT60kXfHZe0VW,idfa_056a21f3-7ccb-4808-bb15-7352f56124d6,%ED%95%9C%EA%B5%AD%EC%96%B4
b8SmcPbMQLSEQAgvWQ4JmA,phono,529_,Install,1.0,211.202.42.39,2776ba24-b768-48a5-82e0-37bfb50e1269,1558455247,2019-05-22 00:14:07,1558455334,2019-05-22 00:15:34,1558455365,holXwt010Qt1x8T0HZ007UuzJ0Zbi5,http://phono.offerstrack.net/advBack.php?click_id=holXwt010Qt1x8T0HZ007UuzJ0Zbi5,idfa_2776ba24-b768-48a5-82e0-37bfb50e1269,%ED%95%9C%EA%B5%AD%EC%96%B4
b8SmcPbMQLSEQAgvWQ4JmA,phono,529_,Install,1.0,121.131.98.250,48835226-625c-4c0c-b04e-44ccf94f4820,1558456470,2019-05-22 00:34:30,1558456551,2019-05-22 00:35:51,1558456582,Q171CTxXqt0xVC0t0Zw0jI8HG40Jbb,http://phono.offerstrack.net/advBack.php?click_id=Q171CTxXqt0xVC0t0Zw0jI8HG40Jbb,idfa_48835226-625c-4c0c-b04e-44ccf94f4820,%ED%95%9C%EA%B5%AD%EC%96%B4
b8SmcPbMQLSEQAgvWQ4JmA,phono,529_,Install,1.0,211.171.108.130,2346ccf1-cce4-4f9e-a92e-826afb5badec,1558431919,2019-05-21 17:45:19,1558432013,2019-05-21 17:46:53,1558432048,z0b0HLXxkBw8HT70l2p0110t19EieZ,http://phono.offerstrack.net/advBack.php?click_id=z0b0HLXxkBw8HT70l2p0110t19EieZ,idfa_2346ccf1-cce4-4f9e-a92e-826afb5badec,%ED%95%9C%EA%B5%AD%EC%96%B4
b8SmcPbMQLSEQAgvWQ4JmA,phono,529_,Install,1.0,125.131.85.175,671bd906-aff3-4052-b95c-20182fe91dd6,1558456887,2019-05-22 00:41:27,1558456981,2019-05-22 00:43:01,1558457011,I00TNi71b0XxPF1wjZuLHB50800lt0,http://phono.offerstrack.net/advBack.php?click_id=I00TNi71b0XxPF1wjZuLHB50800lt0,idfa_671bd906-aff3-4052-b95c-20182fe91dd6,%ED%95%9C%EA%B5%AD%EC%96%B4
b8SmcPbMQLSEQAgvWQ4JmA,phono,529_,Install,1.0,220.116.112.76,609f7974-c543-4d63-85e1-6ac8488c4fbf,1558453927,2019-05-21 23:52:07,1558454011,2019-05-21 23:53:31,1558454041,00HCab0T1t0CX0Zwix1V305078RDLj,http://phono.offerstrack.net/advBack.php?click_id=00HCab0T1t0CX0Zwix1V305078RDLj,idfa_609f7974-c543-4d63-85e1-6ac8488c4fbf,%ED%95%9C%EA%B5%AD%EC%96%B4
b8SmcPbMQLSEQAgvWQ4JmA,phono,529_,Install,1.0,119.66.102.7,4d95224e-b05a-426b-8477-1c07518bd8a0,1558455575,2019-05-22 00:19:35,1558455659,2019-05-22 00:20:59,1558455690,50t100b7vcuxXT28dI3HM0ZV01iwU0,http://phono.offerstrack.net/advBack.php?click_id=50t100b7vcuxXT28dI3HM0ZV01iwU0,idfa_4d95224e-b05a-426b-8477-1c07518bd8a0,%ED%95%9C%EA%B5%AD%EC%96%B4
b8SmcPbMQLSEQAgvWQ4JmA,phono,529_,Install,1.0,222.121.170.21,3ff7ad44-c2e8-47da-9de0-c982f87db10e,1558454606,2019-05-22 00:03:26,1558454735,2019-05-22 00:05:35,1558454765,tx0xa11ZebwhSR00ozKTtXb80LHH07,http://phono.offerstrack.net/advBack.php?click_id=tx0xa11ZebwhSR00ozKTtXb80LHH07,idfa_3ff7ad44-c2e8-47da-9de0-c982f87db10e,%ED%95%9C%EA%B5%AD%EC%96%B4
b8SmcPbMQLSEQAgvWQ4JmA,phono,529_,Install,1.0,121.152.137.21,c2b624f6-da6f-481f-b354-756bb87c9955,1558454331,2019-05-21 23:58:51,1558454423,2019-05-22 00:00:23,1558454454,1V00H70tsP812T10na1wxZbJkX0wuO,http://phono.offerstrack.net/advBack.php?click_id=1V00H70tsP812T10na1wxZbJkX0wuO,idfa_c2b624f6-da6f-481f-b354-756bb87c9955,%ED%95%9C%EA%B5%AD%EC%96%B4
b8SmcPbMQLSEQAgvWQ4JmA,phono,529_,Install,1.0,211.202.42.111,2e5f7013-3be4-4625-92dd-aec135a0891c,1558454346,2019-05-21 23:59:06,1558454439,2019-05-22 00:00:39,1558454470,ra7gcc0T0iV8H00t1X0c1wbNFptKZx,http://phono.offerstrack.net/advBack.php?click_id=ra7gcc0T0iV8H00t1X0c1wbNFptKZx,idfa_2e5f7013-3be4-4625-92dd-aec135a0891c,%ED%95%9C%EA%B5%AD%EC%96%B4
b8SmcPbMQLSEQAgvWQ4JmA,phono,529_,Install,1.0,61.74.226.7,150a451d-382b-40f3-8a35-e65878df7a90,1558453917,2019-05-21 23:51:57,1558453999,2019-05-21 23:53:19,1558454030,y0130tNjg8d1JH0bSG0wZT70Xr3NUx,http://phono.offerstrack.net/advBack.php?click_id=y0130tNjg8d1JH0bSG0wZT70Xr3NUx,idfa_150a451d-382b-40f3-8a35-e65878df7a90,%ED%95%9C%EA%B5%AD%EC%96%B4
b8SmcPbMQLSEQAgvWQ4JmA,phono,529_,Install,1.0,220.123.170.42,1d6e4a55-afa0-4395-9ab7-83a8b5105f90,1558455653,2019-05-22 00:20:53,1558455737,2019-05-22 00:22:17,1558455767,e5Cq8UbhmT0w1xvn00g10XddZ7HBt0,http://phono.offerstrack.net/advBack.php?click_id=e5Cq8UbhmT0w1xvn00g10XddZ7HBt0,idfa_1d6e4a55-afa0-4395-9ab7-83a8b5105f90,%ED%95%9C%EA%B5%AD%EC%96%B4
b8SmcPbMQLSEQAgvWQ4JmA,phono,529_,Install,1.0,112.162.62.41,b904606b-29a7-479d-80ed-257fd26c2dad,1558454825,2019-05-22 00:07:05,1558454915,2019-05-22 00:08:35,1558454946,P801Aa8tc0W0OhTZ9wb41X0HH570xh,http://phono.offerstrack.net/advBack.php?click_id=P801Aa8tc0W0OhTZ9wb41X0HH570xh,idfa_b904606b-29a7-479d-80ed-257fd26c2dad,%ED%95%9C%EA%B5%AD%EC%96%B4
b8SmcPbMQLSEQAgvWQ4JmA,phono,529_,Install,1.0,218.50.84.75,895ab813-d313-4ed0-9e58-4dc0f50e6ee9,1558456792,2019-05-22 00:39:52,1558456895,2019-05-22 00:41:35,1558456925,g1tgNkb7wyf0pL001H1Z0TXV40M8xt,http://phono.offerstrack.net/advBack.php?click_id=g1tgNkb7wyf0pL001H1Z0TXV40M8xt,idfa_895ab813-d313-4ed0-9e58-4dc0f50e6ee9,%ED%95%9C%EA%B5%AD%EC%96%B4
b8SmcPbMQLSEQAgvWQ4JmA,phono,529_,Install,1.0,106.247.228.50,067370c5-af46-479c-9f76-da9a98c7b25e,1558457240,2019-05-22 00:47:20,1558457323,2019-05-22 00:48:43,1558457353,90XM1Zl0Uw7jZH0xb8w1t01TE0xHjx,http://phono.offerstrack.net/advBack.php?click_id=90XM1Zl0Uw7jZH0xb8w1t01TE0xHjx,idfa_067370c5-af46-479c-9f76-da9a98c7b25e,%ED%95%9C%EA%B5%AD%EC%96%B4
b8SmcPbMQLSEQAgvWQ4JmA,phono,529_,Install,1.0,211.182.112.240,968cc349-a7f5-4b7f-a6f7-abad61e494e5,1558457524,2019-05-22 00:52:04,1558457614,2019-05-22 00:53:34,1558457644,Yz00I08wZUTH0LjtZX71XS00Pbx1oN,http://phono.offerstrack.net/advBack.php?click_id=Yz00I08wZUTH0LjtZX71XS00Pbx1oN,idfa_968cc349-a7f5-4b7f-a6f7-abad61e494e5,%ED%95%9C%EA%B5%AD%EC%96%B4
b8SmcPbMQLSEQAgvWQ4JmA,phono,529_,Install,1.0,39.114.151.83,4a581543-5c35-4335-befe-2088559f6ec5,1558453582,2019-05-21 23:46:22,1558453684,2019-05-21 23:48:04,1558453715,O1acX0V810Uox6btXT90N0j4TZH2w0,http://phono.offerstrack.net/advBack.php?click_id=O1acX0V810Uox6btXT90N0j4TZH2w0,idfa_4a581543-5c35-4335-befe-2088559f6ec5,%ED%95%9C%EA%B5%AD%EC%96%B4
b8SmcPbMQLSEQAgvWQ4JmA,phono,529_,Install,1.0,222.112.82.67,7963aa9b-f536-444d-a2c8-ead7eab076e9,1558455976,2019-05-22 00:26:16,1558456055,2019-05-22 00:27:35,1558456086,g1mMAhb7wQH07E001HaZ0TXHs0K8xt,http://phono.offerstrack.net/advBack.php?click_id=g1mMAhb7wQH07E001HaZ0TXHs0K8xt,idfa_7963aa9b-f536-444d-a2c8-ead7eab076e9,%ED%95%9C%EA%B5%AD%EC%96%B4
b8SmcPbMQLSEQAgvWQ4JmA,phono,529_,Install,1.0,218.233.172.190,8a8cd9ec-7772-4b10-98f5-9b6d10bd0ed7,1558454074,2019-05-21 23:54:34,1558454200,2019-05-21 23:56:40,1558454230,y0150t9i08M1eH0bjp0wZT70XWcYgx,http://phono.offerstrack.net/advBack.php?click_id=y0150t9i08M1eH0bjp0wZT70XWcYgx,idfa_8a8cd9ec-7772-4b10-98f5-9b6d10bd0ed7,%ED%95%9C%EA%B5%AD%EC%96%B4
b8SmcPbMQLSEQAgvWQ4JmA,phono,529_,Install,1.0,220.126.189.241,88de3ebd-c7b2-47ca-b266-f5f7dd349f17,1558456402,2019-05-22 00:33:22,1558456481,2019-05-22 00:34:41,1558456511,si0wTH1VHUXrj1X05ixbZ0080t17w0,http://phono.offerstrack.net/advBack.php?click_id=si0wTH1VHUXrj1X05ixbZ0080t17w0,idfa_88de3ebd-c7b2-47ca-b266-f5f7dd349f17,%ED%95%9C%EA%B5%AD%EC%96%B4
b8SmcPbMQLSEQAgvWQ4JmA,phono,529_,Install,1.0,218.152.41.111,55cc0aaa-7cac-4f63-8ceb-56a763ff7d0b,1558458144,2019-05-22 01:02:24,1558458230,2019-05-22 01:03:50,1558458260,d111T0gdRw08gH0bYX0i0CZSF8xM9t,http://phono.offerstrack.net/advBack.php?click_id=d111T0gdRw08gH0bYX0i0CZSF8xM9t,idfa_55cc0aaa-7cac-4f63-8ceb-56a763ff7d0b,%ED%95%9C%EA%B5%AD%EC%96%B4
