cid,partner_id,channel_id,action_id,cpi,ip,idfa,click time,click datetime,install time,install datetime,postback time,click id,postback url,unique user id
ngC2wqrsSPiIbWYwANCBPw,redclickstar,321486_337_1029_in-app5_,Install,1.9,114.204.17.163,2a27ed13-da49-49f5-b167-b1d609bbc665,1557630488,2019-05-12 11:08:08,1557630653,2019-05-12 11:10:53,1557630684,bHi0451rpJ0X0fZiOE0P03H8WCZ0SE_rtbs1_rtbs2_rtbs30ORIGIN23729759end_rtbaff321486_rtboffer23729759_rtbsub337_1029_in-app5,http://www.redclickstarventures.com/pixel.php?aff=9&aff_sub=bHi0451rpJ0X0fZiOE0P03H8WCZ0SE_rtbs1_rtbs2_rtbs30ORIGIN23729759end_rtbaff321486_rtboffer23729759_rtbsub337_1029_in-app5,idfa_2a27ed13-da49-49f5-b167-b1d609bbc665,%ED%95%9C%EA%B5%AD%EC%96%B4
ngC2wqrsSPiIbWYwANCBPw,redclickstar,321486_337_1029_in-app5_,Install,1.9,220.124.223.3,acce44a9-71a6-4190-bda6-8cb376741b29,1557632307,2019-05-12 11:38:27,1557632480,2019-05-12 11:41:20,1557632810,ipC0Sx0mXHhrF0c4ZAH1OfZJJ0jO50_rtbs1_rtbs2_rtbs30ORIGIN23729759end_rtbaff321486_rtboffer23729759_rtbsub337_1029_in-app5,http://www.redclickstarventures.com/pixel.php?aff=9&aff_sub=ipC0Sx0mXHhrF0c4ZAH1OfZJJ0jO50_rtbs1_rtbs2_rtbs30ORIGIN23729759end_rtbaff321486_rtboffer23729759_rtbsub337_1029_in-app5,idfa_acce44a9-71a6-4190-bda6-8cb376741b29,%ED%95%9C%EA%B5%AD%EC%96%B4
ngC2wqrsSPiIbWYwANCBPw,redclickstar,321486_337_1029_in-app5_,Install,1.9,211.222.34.1,51aec0b3-202c-486c-8cf3-aab7e7d3a472,1557632797,2019-05-12 11:46:37,1557632961,2019-05-12 11:49:21,1557633219,y04r0pRi35x1bH0JpM0CZXF0OtWojr_rtbs1_rtbs2_rtbs30ORIGIN23729759end_rtbaff321486_rtboffer23729759_rtbsub337_1029_in-app5,http://www.redclickstarventures.com/pixel.php?aff=9&aff_sub=y04r0pRi35x1bH0JpM0CZXF0OtWojr_rtbs1_rtbs2_rtbs30ORIGIN23729759end_rtbaff321486_rtboffer23729759_rtbsub337_1029_in-app5,idfa_51aec0b3-202c-486c-8cf3-aab7e7d3a472,%ED%95%9C%EA%B5%AD%EC%96%B4
ngC2wqrsSPiIbWYwANCBPw,redclickstar,321486_337_1029_in-app5_,Install,1.9,221.143.44.151,024e325e-ab98-42b3-b90f-172d5f0f6c4b,1557629749,2019-05-12 10:55:49,1557629918,2019-05-12 10:58:38,1557629954,y04E0pYiS5f1NH0Jh00CZXE0O3o7Yr_rtbs1_rtbs2_rtbs30ORIGIN23729759end_rtbaff321486_rtboffer23729759_rtbsub337_1029_in-app5,http://www.redclickstarventures.com/pixel.php?aff=9&aff_sub=y04E0pYiS5f1NH0Jh00CZXE0O3o7Yr_rtbs1_rtbs2_rtbs30ORIGIN23729759end_rtbaff321486_rtboffer23729759_rtbsub337_1029_in-app5,idfa_024e325e-ab98-42b3-b90f-172d5f0f6c4b,%ED%95%9C%EA%B5%AD%EC%96%B4
ngC2wqrsSPiIbWYwANCBPw,redclickstar,321486_337_1029_in-app5_,Install,1.9,110.10.152.10,6620d447-44e9-4a30-b6de-c3fcbac68c6b,1557633730,2019-05-12 12:02:10,1557633865,2019-05-12 12:04:25,1557633895,rGFOxQ0X0jw5H00C4O021CJwv0pDZr_rtbs1_rtbs2_rtbs30ORIGIN23729759end_rtbaff321486_rtboffer23729759_rtbsub337_1029_in-app5,http://www.redclickstarventures.com/pixel.php?aff=9&aff_sub=rGFOxQ0X0jw5H00C4O021CJwv0pDZr_rtbs1_rtbs2_rtbs30ORIGIN23729759end_rtbaff321486_rtboffer23729759_rtbsub337_1029_in-app5,idfa_6620d447-44e9-4a30-b6de-c3fcbac68c6b,%ED%95%9C%EA%B5%AD%EC%96%B4
ngC2wqrsSPiIbWYwANCBPw,redclickstar,321486_337_1029_in-app5_,Install,1.9,175.236.156.204,b4c8a3aa-7e58-4e83-8577-059c999fec6e,1557628401,2019-05-12 10:33:21,1557628529,2019-05-12 10:35:29,1557628560,piZ0Oq5rqHJ1040LY0XpHxQEEj0CpX_rtbs1_rtbs2_rtbs30ORIGIN23729759end_rtbaff321486_rtboffer23729759_rtbsub337_1029_in-app5,http://www.redclickstarventures.com/pixel.php?aff=9&aff_sub=piZ0Oq5rqHJ1040LY0XpHxQEEj0CpX_rtbs1_rtbs2_rtbs30ORIGIN23729759end_rtbaff321486_rtboffer23729759_rtbsub337_1029_in-app5,idfa_b4c8a3aa-7e58-4e83-8577-059c999fec6e,%ED%95%9C%EA%B5%AD%EC%96%B4
ngC2wqrsSPiIbWYwANCBPw,redclickstar,321486_337_1029_in-app5_,Install,1.9,121.161.73.41,0eff4258-2318-439c-8cb7-e9f25da9b27c,1557630025,2019-05-12 11:00:25,1557630146,2019-05-12 11:02:26,1557630177,hImOCV040Qp1r5X0HH00EYJelgZJiS_rtbs1_rtbs2_rtbs30ORIGIN23729759end_rtbaff321486_rtboffer23729759_rtbsub337_1029_in-app5,http://www.redclickstarventures.com/pixel.php?aff=9&aff_sub=hImOCV040Qp1r5X0HH00EYJelgZJiS_rtbs1_rtbs2_rtbs30ORIGIN23729759end_rtbaff321486_rtboffer23729759_rtbsub337_1029_in-app5,idfa_0eff4258-2318-439c-8cb7-e9f25da9b27c,%ED%95%9C%EA%B5%AD%EC%96%B4
ngC2wqrsSPiIbWYwANCBPw,redclickstar,321486_337_1029_in-app5_,Install,1.9,14.47.0.104,7bc89f9a-a4fd-403b-891f-448a892acc19,1557629104,2019-05-12 10:45:04,1557629266,2019-05-12 10:47:46,1557629296,H004UHrHGXtI01jJgZO05EBp5Cj0dz_rtbs1_rtbs2_rtbs30ORIGIN23729759end_rtbaff321486_rtboffer23729759_rtbsub337_1029_in-app5,http://www.redclickstarventures.com/pixel.php?aff=9&aff_sub=H004UHrHGXtI01jJgZO05EBp5Cj0dz_rtbs1_rtbs2_rtbs30ORIGIN23729759end_rtbaff321486_rtboffer23729759_rtbsub337_1029_in-app5,idfa_7bc89f9a-a4fd-403b-891f-448a892acc19,%ED%95%9C%EA%B5%AD%EC%96%B4
ngC2wqrsSPiIbWYwANCBPw,redclickstar,321486_337_1029_in-app5_,Install,1.9,101.235.30.186,979fee4b-a7d1-449a-8084-8877631e4c56,1557627412,2019-05-12 10:16:52,1557627531,2019-05-12 10:18:51,1557627565,Xj4rhDN50O210C0JzpXE0jOCHZc062_rtbs1_rtbs2_rtbs30ORIGIN23729759end_rtbaff321486_rtboffer23729759_rtbsub337_1029_in-app5,http://www.redclickstarventures.com/pixel.php?aff=9&aff_sub=Xj4rhDN50O210C0JzpXE0jOCHZc062_rtbs1_rtbs2_rtbs30ORIGIN23729759end_rtbaff321486_rtboffer23729759_rtbsub337_1029_in-app5,idfa_979fee4b-a7d1-449a-8084-8877631e4c56,%ED%95%9C%EA%B5%AD%EC%96%B4
ngC2wqrsSPiIbWYwANCBPw,redclickstar,321486_337_1029_in-app5_,Install,1.9,182.226.23.14,fde20076-8248-45e5-a3b4-bcd15bf51fa1,1557630257,2019-05-12 11:04:17,1557630388,2019-05-12 11:06:28,1557630418,w0Cj4JHq2ptO004rX1a5Du7p0Zi0ME_rtbs1_rtbs2_rtbs30ORIGIN23729759end_rtbaff321486_rtboffer23729759_rtbsub337_1029_in-app5,http://www.redclickstarventures.com/pixel.php?aff=9&aff_sub=w0Cj4JHq2ptO004rX1a5Du7p0Zi0ME_rtbs1_rtbs2_rtbs30ORIGIN23729759end_rtbaff321486_rtboffer23729759_rtbsub337_1029_in-app5,idfa_fde20076-8248-45e5-a3b4-bcd15bf51fa1,%ED%95%9C%EA%B5%AD%EC%96%B4
ngC2wqrsSPiIbWYwANCBPw,redclickstar,321486_337_1029_in-app5_,Install,1.9,14.48.200.83,3efd0392-bb9b-45be-81ab-3d1e32ee5925,1557632219,2019-05-12 11:36:59,1557632393,2019-05-12 11:39:53,1557632423,vC0O16UGjMprN0hFOX094F0L5CZJH0_rtbs1_rtbs2_rtbs30ORIGIN23729759end_rtbaff321486_rtboffer23729759_rtbsub337_1029_in-app5,http://www.redclickstarventures.com/pixel.php?aff=9&aff_sub=vC0O16UGjMprN0hFOX094F0L5CZJH0_rtbs1_rtbs2_rtbs30ORIGIN23729759end_rtbaff321486_rtboffer23729759_rtbsub337_1029_in-app5,idfa_3efd0392-bb9b-45be-81ab-3d1e32ee5925,%ED%95%9C%EA%B5%AD%EC%96%B4
ngC2wqrsSPiIbWYwANCBPw,redclickstar,321486_337_1029_in-app5_,Install,1.9,112.154.125.177,38a5c913-ddb5-47aa-bfda-db5c435431b8,1557628642,2019-05-12 10:37:22,1557628801,2019-05-12 10:40:01,1557628832,XO4rKTq50E510C0JrpXE0jOdHZu0Hm_rtbs1_rtbs2_rtbs30ORIGIN23729759end_rtbaff321486_rtboffer23729759_rtbsub337_1029_in-app5,http://www.redclickstarventures.com/pixel.php?aff=9&aff_sub=XO4rKTq50E510C0JrpXE0jOdHZu0Hm_rtbs1_rtbs2_rtbs30ORIGIN23729759end_rtbaff321486_rtboffer23729759_rtbsub337_1029_in-app5,idfa_38a5c913-ddb5-47aa-bfda-db5c435431b8,%ED%95%9C%EA%B5%AD%EC%96%B4
ngC2wqrsSPiIbWYwANCBPw,redclickstar,321486_337_1029_in-app5_,Install,1.9,211.46.223.240,79e1852b-9d1d-45b3-8983-3b90b5ea1074,1557631247,2019-05-12 11:20:47,1557631392,2019-05-12 11:23:12,1557631423,p2Z0O85rbnJ1040ie0XpHEmpFh0Cct_rtbs1_rtbs2_rtbs30ORIGIN23729759end_rtbaff321486_rtboffer23729759_rtbsub337_1029_in-app5,http://www.redclickstarventures.com/pixel.php?aff=9&aff_sub=p2Z0O85rbnJ1040ie0XpHEmpFh0Cct_rtbs1_rtbs2_rtbs30ORIGIN23729759end_rtbaff321486_rtboffer23729759_rtbsub337_1029_in-app5,idfa_79e1852b-9d1d-45b3-8983-3b90b5ea1074,%ED%95%9C%EA%B5%AD%EC%96%B4
ngC2wqrsSPiIbWYwANCBPw,redclickstar,321486_337_1029_in-app5_,Install,1.9,112.162.62.41,3110f3da-bb82-4deb-bacc-0cc60186d122,1557627892,2019-05-12 10:24:52,1557628033,2019-05-12 10:27:13,1557628068,raEw900X0kK5H00m4O0f1CJKxIpgZr_rtbs1_rtbs2_rtbs30ORIGIN23729759end_rtbaff321486_rtboffer23729759_rtbsub337_1029_in-app5,http://www.redclickstarventures.com/pixel.php?aff=9&aff_sub=raEw900X0kK5H00m4O0f1CJKxIpgZr_rtbs1_rtbs2_rtbs30ORIGIN23729759end_rtbaff321486_rtboffer23729759_rtbsub337_1029_in-app5,idfa_3110f3da-bb82-4deb-bacc-0cc60186d122,%ED%95%9C%EA%B5%AD%EC%96%B4
ngC2wqrsSPiIbWYwANCBPw,redclickstar,321486_337_1029_in-app5_,Install,1.9,203.123.209.54,5edbc080-862a-4cac-adc9-3d4bc30350db,1557632307,2019-05-12 11:38:27,1557632499,2019-05-12 11:41:39,1557632529,CROj04Z01QrHYFd0pJpJc50w0CCXjj_rtbs1_rtbs2_rtbs30ORIGIN23729759end_rtbaff321486_rtboffer23729759_rtbsub337_1029_in-app5,http://www.redclickstarventures.com/pixel.php?aff=9&aff_sub=CROj04Z01QrHYFd0pJpJc50w0CCXjj_rtbs1_rtbs2_rtbs30ORIGIN23729759end_rtbaff321486_rtboffer23729759_rtbsub337_1029_in-app5,idfa_5edbc080-862a-4cac-adc9-3d4bc30350db,%ED%95%9C%EA%B5%AD%EC%96%B4
ngC2wqrsSPiIbWYwANCBPw,redclickstar,321486_337_1029_in-app5_,Install,1.9,222.110.193.239,1a0ad47d-4d36-4872-9fcf-67f2457596dd,1557629287,2019-05-12 10:48:07,1557629436,2019-05-12 10:50:36,1557629475,ipC0vd0AXYkrE034ZKH1OZ0MJ0wx50_rtbs1_rtbs2_rtbs30ORIGIN23729759end_rtbaff321486_rtboffer23729759_rtbsub337_1029_in-app5,http://www.redclickstarventures.com/pixel.php?aff=9&aff_sub=ipC0vd0AXYkrE034ZKH1OZ0MJ0wx50_rtbs1_rtbs2_rtbs30ORIGIN23729759end_rtbaff321486_rtboffer23729759_rtbsub337_1029_in-app5,idfa_1a0ad47d-4d36-4872-9fcf-67f2457596dd,%ED%95%9C%EA%B5%AD%EC%96%B4
ngC2wqrsSPiIbWYwANCBPw,redclickstar,321486_337_1029_in-app5_,Install,1.9,1.242.81.12,7fa27809-784f-4d62-9ad6-2ed001fc8062,1557631083,2019-05-12 11:18:03,1557631242,2019-05-12 11:20:42,1557631272,Us0Ha448CJp5D1K4iOZ0o00UXZ0Erh_rtbs1_rtbs2_rtbs30ORIGIN23729759end_rtbaff321486_rtboffer23729759_rtbsub337_1029_in-app5,http://www.redclickstarventures.com/pixel.php?aff=9&aff_sub=Us0Ha448CJp5D1K4iOZ0o00UXZ0Erh_rtbs1_rtbs2_rtbs30ORIGIN23729759end_rtbaff321486_rtboffer23729759_rtbsub337_1029_in-app5,idfa_7fa27809-784f-4d62-9ad6-2ed001fc8062,%ED%95%9C%EA%B5%AD%EC%96%B4
ngC2wqrsSPiIbWYwANCBPw,redclickstar,321486_337_1029_in-app5_,Install,1.9,1.237.58.199,2c8da9b3-5e2a-4ef9-af35-3f523cd6c459,1557631226,2019-05-12 11:20:26,1557631388,2019-05-12 11:23:08,1557631419,GBLHm0ag14ZFtr1010OX0p0Ji6l5xC_rtbs1_rtbs2_rtbs30ORIGIN23729759end_rtbaff321486_rtboffer23729759_rtbsub337_1029_in-app5,http://www.redclickstarventures.com/pixel.php?aff=9&aff_sub=GBLHm0ag14ZFtr1010OX0p0Ji6l5xC_rtbs1_rtbs2_rtbs30ORIGIN23729759end_rtbaff321486_rtboffer23729759_rtbsub337_1029_in-app5,idfa_2c8da9b3-5e2a-4ef9-af35-3f523cd6c459,%ED%95%9C%EA%B5%AD%EC%96%B4
ngC2wqrsSPiIbWYwANCBPw,redclickstar,321486_337_1029_in-app5_,Install,1.9,218.151.86.112,8c80be85-2610-4dd9-a7fe-f2ab807136e9,1557630523,2019-05-12 11:08:43,1557630693,2019-05-12 11:11:33,1557630723,Yl00Y05CZZXHdQhpQOE1HS00GJr4rA_rtbs1_rtbs2_rtbs30ORIGIN23729759end_rtbaff321486_rtboffer23729759_rtbsub337_1029_in-app5,http://www.redclickstarventures.com/pixel.php?aff=9&aff_sub=Yl00Y05CZZXHdQhpQOE1HS00GJr4rA_rtbs1_rtbs2_rtbs30ORIGIN23729759end_rtbaff321486_rtboffer23729759_rtbsub337_1029_in-app5,idfa_8c80be85-2610-4dd9-a7fe-f2ab807136e9,%ED%95%9C%EA%B5%AD%EC%96%B4
ngC2wqrsSPiIbWYwANCBPw,redclickstar,321486_337_1029_in-app5_,Install,1.9,211.34.33.184,f2112ea2-4fd0-4e12-9664-0c600dbbc5aa,1557632932,2019-05-12 11:48:52,1557633085,2019-05-12 11:51:25,1557633116,o8r1JO0dCFCR0Z4fZ20AtXHp0h5m0G_rtbs1_rtbs2_rtbs30ORIGIN23729759end_rtbaff321486_rtboffer23729759_rtbsub337_1029_in-app5,http://www.redclickstarventures.com/pixel.php?aff=9&aff_sub=o8r1JO0dCFCR0Z4fZ20AtXHp0h5m0G_rtbs1_rtbs2_rtbs30ORIGIN23729759end_rtbaff321486_rtboffer23729759_rtbsub337_1029_in-app5,idfa_f2112ea2-4fd0-4e12-9664-0c600dbbc5aa,%ED%95%9C%EA%B5%AD%EC%96%B4
ngC2wqrsSPiIbWYwANCBPw,redclickstar,321486_337_1029_in-app5_,Install,1.9,175.125.70.55,fe282ef3-d262-40c2-8a32-927a34a4fc5b,1557626984,2019-05-12 10:09:44,1557627116,2019-05-12 10:11:56,1557627150,d14KX0IOLC054H0JKO0h0vZQ4Dr0Vp_rtbs1_rtbs2_rtbs30ORIGIN23729759end_rtbaff321486_rtboffer23729759_rtbsub337_1029_in-app5,http://www.redclickstarventures.com/pixel.php?aff=9&aff_sub=d14KX0IOLC054H0JKO0h0vZQ4Dr0Vp_rtbs1_rtbs2_rtbs30ORIGIN23729759end_rtbaff321486_rtboffer23729759_rtbsub337_1029_in-app5,idfa_fe282ef3-d262-40c2-8a32-927a34a4fc5b,%ED%95%9C%EA%B5%AD%EC%96%B4
ngC2wqrsSPiIbWYwANCBPw,redclickstar,321486_337_1029_in-app5_,Install,1.9,118.220.104.208,4ddf0e80-1004-4370-a068-205383a151ea,1557628515,2019-05-12 10:35:15,1557628666,2019-05-12 10:37:46,1557628983,TJ0CZ00BD1rpP4mC0hOXk02yrE5E5H_rtbs1_rtbs2_rtbs30ORIGIN23729759end_rtbaff321486_rtboffer23729759_rtbsub337_1029_in-app5,http://www.redclickstarventures.com/pixel.php?aff=9&aff_sub=TJ0CZ00BD1rpP4mC0hOXk02yrE5E5H_rtbs1_rtbs2_rtbs30ORIGIN23729759end_rtbaff321486_rtboffer23729759_rtbsub337_1029_in-app5,idfa_4ddf0e80-1004-4370-a068-205383a151ea,%ED%95%9C%EA%B5%AD%EC%96%B4
ngC2wqrsSPiIbWYwANCBPw,redclickstar,321486_337_1029_in-app5_,Install,1.9,14.41.115.27,3ffd23ac-018f-4d82-ade7-5b6d57e1c348,1557629548,2019-05-12 10:52:28,1557629683,2019-05-12 10:54:43,1557629718,A50EK01Qp40OEX0ZHrkAx4JCrMO0V0_rtbs1_rtbs2_rtbs30ORIGIN23729759end_rtbaff321486_rtboffer23729759_rtbsub337_1029_in-app5,http://www.redclickstarventures.com/pixel.php?aff=9&aff_sub=A50EK01Qp40OEX0ZHrkAx4JCrMO0V0_rtbs1_rtbs2_rtbs30ORIGIN23729759end_rtbaff321486_rtboffer23729759_rtbsub337_1029_in-app5,idfa_3ffd23ac-018f-4d82-ade7-5b6d57e1c348,%ED%95%9C%EA%B5%AD%EC%96%B4
ngC2wqrsSPiIbWYwANCBPw,redclickstar,321486_337_1029_in-app5_,Install,1.9,203.255.24.38,b836086e-1cba-4a7a-97f8-1a31ed6e533c,1557627553,2019-05-12 10:19:13,1557627694,2019-05-12 10:21:34,1557627739,jr0EiCMO4p5Jl010Bh4H0ZjFHOX4J0_rtbs1_rtbs2_rtbs30ORIGIN23729759end_rtbaff321486_rtboffer23729759_rtbsub337_1029_in-app5,http://www.redclickstarventures.com/pixel.php?aff=9&aff_sub=jr0EiCMO4p5Jl010Bh4H0ZjFHOX4J0_rtbs1_rtbs2_rtbs30ORIGIN23729759end_rtbaff321486_rtboffer23729759_rtbsub337_1029_in-app5,idfa_b836086e-1cba-4a7a-97f8-1a31ed6e533c,%ED%95%9C%EA%B5%AD%EC%96%B4
ngC2wqrsSPiIbWYwANCBPw,redclickstar,321486_337_1029_in-app5_,Install,1.9,203.243.52.18,6ef98a91-7ed6-42f2-8d99-8570f588886b,1557627535,2019-05-12 10:18:55,1557627687,2019-05-12 10:21:27,1557627717,jr0EjCZO4p5JI010GlGH0ZgmdqX4O0_rtbs1_rtbs2_rtbs30ORIGIN23729759end_rtbaff321486_rtboffer23729759_rtbsub337_1029_in-app5,http://www.redclickstarventures.com/pixel.php?aff=9&aff_sub=jr0EjCZO4p5JI010GlGH0ZgmdqX4O0_rtbs1_rtbs2_rtbs30ORIGIN23729759end_rtbaff321486_rtboffer23729759_rtbsub337_1029_in-app5,idfa_6ef98a91-7ed6-42f2-8d99-8570f588886b,%ED%95%9C%EA%B5%AD%EC%96%B4
ngC2wqrsSPiIbWYwANCBPw,redclickstar,321486_337_1029_in-app5_,Install,1.9,59.28.140.15,5ead4ff4-2a87-416e-9b82-f554658627d5,1557628844,2019-05-12 10:40:44,1557628972,2019-05-12 10:42:52,1557629002,Zt6r0O3JkH1N0mCE4pJZNX0pj0V05C_rtbs1_rtbs2_rtbs30ORIGIN23729759end_rtbaff321486_rtboffer23729759_rtbsub337_1029_in-app5,http://www.redclickstarventures.com/pixel.php?aff=9&aff_sub=Zt6r0O3JkH1N0mCE4pJZNX0pj0V05C_rtbs1_rtbs2_rtbs30ORIGIN23729759end_rtbaff321486_rtboffer23729759_rtbsub337_1029_in-app5,idfa_5ead4ff4-2a87-416e-9b82-f554658627d5,%ED%95%9C%EA%B5%AD%EC%96%B4
ngC2wqrsSPiIbWYwANCBPw,redclickstar,321486_337_1029_in-app5_,Install,1.9,119.204.60.185,49459ed6-c4f6-4be9-9e63-3e2be02e9b87,1557633304,2019-05-12 11:55:04,1557633437,2019-05-12 11:57:17,1557633468,hz1OCA040Cp1r5X0Hz00F6nc6NZJjX_rtbs1_rtbs2_rtbs30ORIGIN23729759end_rtbaff321486_rtboffer23729759_rtbsub337_1029_in-app5,http://www.redclickstarventures.com/pixel.php?aff=9&aff_sub=hz1OCA040Cp1r5X0Hz00F6nc6NZJjX_rtbs1_rtbs2_rtbs30ORIGIN23729759end_rtbaff321486_rtboffer23729759_rtbsub337_1029_in-app5,idfa_49459ed6-c4f6-4be9-9e63-3e2be02e9b87,%ED%95%9C%EA%B5%AD%EC%96%B4
