cid,partner_id,channel_id,action_id,cpi,ip,idfa,click time,click datetime,install time,install datetime,postback time,click id,postback url,unique user id
ngC2wqrsSPiIbWYwANCBPw,redclickstar,334198_10932_in-app6_,Install,1.9,175.213.26.248,65c83b74-4316-42a4-82f2-0ba88937eba0,1556961681,2019-05-04 17:21:21,1556961840,2019-05-04 17:24:00,1556961870,5ccd598b02870600012b7593_rtbs1_rtbs2_rtbs30ORIGIN23729759end_rtbaff334198_rtboffer23729759_rtbsub10932_in-app6,http://www.redclickstarventures.com/pixel.php?aff=9&aff_sub=5ccd598b02870600012b7593_rtbs1_rtbs2_rtbs30ORIGIN23729759end_rtbaff334198_rtboffer23729759_rtbsub10932_in-app6,idfa_65c83b74-4316-42a4-82f2-0ba88937eba0,%ED%95%9C%EA%B5%AD%EC%96%B4
ngC2wqrsSPiIbWYwANCBPw,redclickstar,334198_10932_in-app6_,Install,1.9,121.160.188.114,4becc02d-704a-4f1b-a84b-b9792668344d,1556963457,2019-05-04 17:50:57,1556963728,2019-05-04 17:55:28,1556963758,5ccd607802870600012bff1f_rtbs1_rtbs2_rtbs30ORIGIN23729759end_rtbaff334198_rtboffer23729759_rtbsub10932_in-app6,http://www.redclickstarventures.com/pixel.php?aff=9&aff_sub=5ccd607802870600012bff1f_rtbs1_rtbs2_rtbs30ORIGIN23729759end_rtbaff334198_rtboffer23729759_rtbsub10932_in-app6,idfa_4becc02d-704a-4f1b-a84b-b9792668344d,%ED%95%9C%EA%B5%AD%EC%96%B4
ngC2wqrsSPiIbWYwANCBPw,redclickstar,334198_10932_in-app6_,Install,1.9,14.32.19.245,65d41393-d02c-4d1b-beb2-053ff18463d8,1556963360,2019-05-04 17:49:20,1556963473,2019-05-04 17:51:13,1556963503,5ccd601b02870600012bf9dc_rtbs1_rtbs2_rtbs30ORIGIN23729759end_rtbaff334198_rtboffer23729759_rtbsub10932_in-app6,http://www.redclickstarventures.com/pixel.php?aff=9&aff_sub=5ccd601b02870600012bf9dc_rtbs1_rtbs2_rtbs30ORIGIN23729759end_rtbaff334198_rtboffer23729759_rtbsub10932_in-app6,idfa_65d41393-d02c-4d1b-beb2-053ff18463d8,%ED%95%9C%EA%B5%AD%EC%96%B4
ngC2wqrsSPiIbWYwANCBPw,redclickstar,334198_10932_in-app6_,Install,1.9,61.77.105.232,4c64c4f5-9c35-4002-bac9-bb5521b81d3b,1556966224,2019-05-04 18:37:04,1556966485,2019-05-04 18:41:25,1556966516,5ccd6b4102870600012d0d0d_rtbs1_rtbs2_rtbs30ORIGIN23729759end_rtbaff334198_rtboffer23729759_rtbsub10932_in-app6,http://www.redclickstarventures.com/pixel.php?aff=9&aff_sub=5ccd6b4102870600012d0d0d_rtbs1_rtbs2_rtbs30ORIGIN23729759end_rtbaff334198_rtboffer23729759_rtbsub10932_in-app6,idfa_4c64c4f5-9c35-4002-bac9-bb5521b81d3b,%ED%95%9C%EA%B5%AD%EC%96%B4
ngC2wqrsSPiIbWYwANCBPw,redclickstar,334198_10932_in-app6_,Install,1.9,116.120.58.199,a382c777-99d0-4be5-ac9e-a97ab4aae6b8,1556966229,2019-05-04 18:37:09,1556966477,2019-05-04 18:41:17,1556966508,5ccd6b0a02870600012d060a_rtbs1_rtbs2_rtbs30ORIGIN23729759end_rtbaff334198_rtboffer23729759_rtbsub10932_in-app6,http://www.redclickstarventures.com/pixel.php?aff=9&aff_sub=5ccd6b0a02870600012d060a_rtbs1_rtbs2_rtbs30ORIGIN23729759end_rtbaff334198_rtboffer23729759_rtbsub10932_in-app6,idfa_a382c777-99d0-4be5-ac9e-a97ab4aae6b8,%ED%95%9C%EA%B5%AD%EC%96%B4
ngC2wqrsSPiIbWYwANCBPw,redclickstar,334198_10932_in-app6_,Install,1.9,211.216.48.158,13470805-fc4f-4009-a79e-5d506386f0e2,1556963779,2019-05-04 17:56:19,1556963905,2019-05-04 17:58:25,1556963935,5ccd61bd02870600012c17b5_rtbs1_rtbs2_rtbs30ORIGIN23729759end_rtbaff334198_rtboffer23729759_rtbsub10932_in-app6,http://www.redclickstarventures.com/pixel.php?aff=9&aff_sub=5ccd61bd02870600012c17b5_rtbs1_rtbs2_rtbs30ORIGIN23729759end_rtbaff334198_rtboffer23729759_rtbsub10932_in-app6,idfa_13470805-fc4f-4009-a79e-5d506386f0e2,%ED%95%9C%EA%B5%AD%EC%96%B4
ngC2wqrsSPiIbWYwANCBPw,redclickstar,334198_10932_in-app6_,Install,1.9,124.46.250.76,aaf7e0c6-53af-46ef-920b-6789b656d15a,1556964059,2019-05-04 18:00:59,1556964210,2019-05-04 18:03:30,1556964241,5ccd62d302870600012c383f_rtbs1_rtbs2_rtbs30ORIGIN23729759end_rtbaff334198_rtboffer23729759_rtbsub10932_in-app6,http://www.redclickstarventures.com/pixel.php?aff=9&aff_sub=5ccd62d302870600012c383f_rtbs1_rtbs2_rtbs30ORIGIN23729759end_rtbaff334198_rtboffer23729759_rtbsub10932_in-app6,idfa_aaf7e0c6-53af-46ef-920b-6789b656d15a,%ED%95%9C%EA%B5%AD%EC%96%B4
ngC2wqrsSPiIbWYwANCBPw,redclickstar,334198_10932_in-app6_,Install,1.9,114.30.209.71,7800abaf-9abe-49b6-a880-236bb1df09ad,1556966214,2019-05-04 18:36:54,1556966473,2019-05-04 18:41:13,1556966503,5ccd6b3e02870600012d0ccf_rtbs1_rtbs2_rtbs30ORIGIN23729759end_rtbaff334198_rtboffer23729759_rtbsub10932_in-app6,http://www.redclickstarventures.com/pixel.php?aff=9&aff_sub=5ccd6b3e02870600012d0ccf_rtbs1_rtbs2_rtbs30ORIGIN23729759end_rtbaff334198_rtboffer23729759_rtbsub10932_in-app6,idfa_7800abaf-9abe-49b6-a880-236bb1df09ad,%ED%95%9C%EA%B5%AD%EC%96%B4
ngC2wqrsSPiIbWYwANCBPw,redclickstar,334198_10932_in-app6_,Install,1.9,211.224.188.72,4f87693e-a3b2-4a35-80b2-8352076750b4,1556962612,2019-05-04 17:36:52,1556962812,2019-05-04 17:40:12,1556962843,5ccd5ccd02870600012bb9fd_rtbs1_rtbs2_rtbs30ORIGIN23729759end_rtbaff334198_rtboffer23729759_rtbsub10932_in-app6,http://www.redclickstarventures.com/pixel.php?aff=9&aff_sub=5ccd5ccd02870600012bb9fd_rtbs1_rtbs2_rtbs30ORIGIN23729759end_rtbaff334198_rtboffer23729759_rtbsub10932_in-app6,idfa_4f87693e-a3b2-4a35-80b2-8352076750b4,%ED%95%9C%EA%B5%AD%EC%96%B4
ngC2wqrsSPiIbWYwANCBPw,redclickstar,334198_10932_in-app6_,Install,1.9,59.10.138.195,bc782df8-2e03-48d1-a59d-f3c26545acf6,1556964425,2019-05-04 18:07:05,1556964575,2019-05-04 18:09:35,1556964606,5ccd644202870600012c62b3_rtbs1_rtbs2_rtbs30ORIGIN23729759end_rtbaff334198_rtboffer23729759_rtbsub10932_in-app6,http://www.redclickstarventures.com/pixel.php?aff=9&aff_sub=5ccd644202870600012c62b3_rtbs1_rtbs2_rtbs30ORIGIN23729759end_rtbaff334198_rtboffer23729759_rtbsub10932_in-app6,idfa_bc782df8-2e03-48d1-a59d-f3c26545acf6,%ED%95%9C%EA%B5%AD%EC%96%B4
ngC2wqrsSPiIbWYwANCBPw,redclickstar,334198_10932_in-app6_,Install,1.9,121.151.86.155,0a9c5112-f6a5-4abc-ba58-ceb5f315a749,1556962639,2019-05-04 17:37:19,1556962822,2019-05-04 17:40:22,1556962853,5ccd5d4702870600012bc5cb_rtbs1_rtbs2_rtbs30ORIGIN23729759end_rtbaff334198_rtboffer23729759_rtbsub10932_in-app6,http://www.redclickstarventures.com/pixel.php?aff=9&aff_sub=5ccd5d4702870600012bc5cb_rtbs1_rtbs2_rtbs30ORIGIN23729759end_rtbaff334198_rtboffer23729759_rtbsub10932_in-app6,idfa_0a9c5112-f6a5-4abc-ba58-ceb5f315a749,%ED%95%9C%EA%B5%AD%EC%96%B4
ngC2wqrsSPiIbWYwANCBPw,redclickstar,334198_10932_in-app6_,Install,1.9,175.226.157.65,d7e4a55b-668d-404d-9341-25c744963ac5,1556965840,2019-05-04 18:30:40,1556966031,2019-05-04 18:33:51,1556966062,5ccd69b402870600012ce761_rtbs1_rtbs2_rtbs30ORIGIN23729759end_rtbaff334198_rtboffer23729759_rtbsub10932_in-app6,http://www.redclickstarventures.com/pixel.php?aff=9&aff_sub=5ccd69b402870600012ce761_rtbs1_rtbs2_rtbs30ORIGIN23729759end_rtbaff334198_rtboffer23729759_rtbsub10932_in-app6,idfa_d7e4a55b-668d-404d-9341-25c744963ac5,%ED%95%9C%EA%B5%AD%EC%96%B4
ngC2wqrsSPiIbWYwANCBPw,redclickstar,334198_10932_in-app6_,Install,1.9,211.171.108.130,92c7e992-827d-4b12-9a28-2871409acbd7,1556963922,2019-05-04 17:58:42,1556964068,2019-05-04 18:01:08,1556964099,5ccd624702870600012c22a8_rtbs1_rtbs2_rtbs30ORIGIN23729759end_rtbaff334198_rtboffer23729759_rtbsub10932_in-app6,http://www.redclickstarventures.com/pixel.php?aff=9&aff_sub=5ccd624702870600012c22a8_rtbs1_rtbs2_rtbs30ORIGIN23729759end_rtbaff334198_rtboffer23729759_rtbsub10932_in-app6,idfa_92c7e992-827d-4b12-9a28-2871409acbd7,%ED%95%9C%EA%B5%AD%EC%96%B4
ngC2wqrsSPiIbWYwANCBPw,redclickstar,334198_10932_in-app6_,Install,1.9,180.66.58.111,5aa26feb-9372-49b1-b283-f9e88c8f0fbf,1556963476,2019-05-04 17:51:16,1556963666,2019-05-04 17:54:26,1556963696,5ccd608902870600012c000c_rtbs1_rtbs2_rtbs30ORIGIN23729759end_rtbaff334198_rtboffer23729759_rtbsub10932_in-app6,http://www.redclickstarventures.com/pixel.php?aff=9&aff_sub=5ccd608902870600012c000c_rtbs1_rtbs2_rtbs30ORIGIN23729759end_rtbaff334198_rtboffer23729759_rtbsub10932_in-app6,idfa_5aa26feb-9372-49b1-b283-f9e88c8f0fbf,%ED%95%9C%EA%B5%AD%EC%96%B4
ngC2wqrsSPiIbWYwANCBPw,redclickstar,334198_10932_in-app6_,Install,1.9,112.216.15.226,694b3374-6694-4e43-ae94-241b692cdc1e,1556965579,2019-05-04 18:26:19,1556965803,2019-05-04 18:30:03,1556965833,5ccd68c302870600012cd73b_rtbs1_rtbs2_rtbs30ORIGIN23729759end_rtbaff334198_rtboffer23729759_rtbsub10932_in-app6,http://www.redclickstarventures.com/pixel.php?aff=9&aff_sub=5ccd68c302870600012cd73b_rtbs1_rtbs2_rtbs30ORIGIN23729759end_rtbaff334198_rtboffer23729759_rtbsub10932_in-app6,idfa_694b3374-6694-4e43-ae94-241b692cdc1e,%ED%95%9C%EA%B5%AD%EC%96%B4
ngC2wqrsSPiIbWYwANCBPw,redclickstar,334198_10932_in-app6_,Install,1.9,203.255.32.133,77323cbf-e688-4f41-9382-73afe9e59383,1556961652,2019-05-04 17:20:52,1556961831,2019-05-04 17:23:51,1556961861,5ccd593b02870600012b6fbf_rtbs1_rtbs2_rtbs30ORIGIN23729759end_rtbaff334198_rtboffer23729759_rtbsub10932_in-app6,http://www.redclickstarventures.com/pixel.php?aff=9&aff_sub=5ccd593b02870600012b6fbf_rtbs1_rtbs2_rtbs30ORIGIN23729759end_rtbaff334198_rtboffer23729759_rtbsub10932_in-app6,idfa_77323cbf-e688-4f41-9382-73afe9e59383,%ED%95%9C%EA%B5%AD%EC%96%B4
ngC2wqrsSPiIbWYwANCBPw,redclickstar,334198_10932_in-app6_,Install,1.9,175.198.24.215,c2006771-df86-4f67-87a8-18ec64227519,1556964542,2019-05-04 18:09:02,1556964693,2019-05-04 18:11:33,1556964723,5ccd64b102870600012c726d_rtbs1_rtbs2_rtbs30ORIGIN23729759end_rtbaff334198_rtboffer23729759_rtbsub10932_in-app6,http://www.redclickstarventures.com/pixel.php?aff=9&aff_sub=5ccd64b102870600012c726d_rtbs1_rtbs2_rtbs30ORIGIN23729759end_rtbaff334198_rtboffer23729759_rtbsub10932_in-app6,idfa_c2006771-df86-4f67-87a8-18ec64227519,%ED%95%9C%EA%B5%AD%EC%96%B4
ngC2wqrsSPiIbWYwANCBPw,redclickstar,334198_10932_in-app6_,Install,1.9,180.70.220.13,b6eda899-bd6a-4a54-a295-1ed972ed4606,1556965134,2019-05-04 18:18:54,1556965367,2019-05-04 18:22:47,1556965397,5ccd66b902870600012c9f38_rtbs1_rtbs2_rtbs30ORIGIN23729759end_rtbaff334198_rtboffer23729759_rtbsub10932_in-app6,http://www.redclickstarventures.com/pixel.php?aff=9&aff_sub=5ccd66b902870600012c9f38_rtbs1_rtbs2_rtbs30ORIGIN23729759end_rtbaff334198_rtboffer23729759_rtbsub10932_in-app6,idfa_b6eda899-bd6a-4a54-a295-1ed972ed4606,%ED%95%9C%EA%B5%AD%EC%96%B4
ngC2wqrsSPiIbWYwANCBPw,redclickstar,334198_10932_in-app6_,Install,1.9,220.116.112.76,45bd2868-8d2c-4ebd-b1b9-08e749a3dd2a,1556964862,2019-05-04 18:14:22,1556964980,2019-05-04 18:16:20,1556965010,5ccd65fa02870600012c8b02_rtbs1_rtbs2_rtbs30ORIGIN23729759end_rtbaff334198_rtboffer23729759_rtbsub10932_in-app6,http://www.redclickstarventures.com/pixel.php?aff=9&aff_sub=5ccd65fa02870600012c8b02_rtbs1_rtbs2_rtbs30ORIGIN23729759end_rtbaff334198_rtboffer23729759_rtbsub10932_in-app6,idfa_45bd2868-8d2c-4ebd-b1b9-08e749a3dd2a,%ED%95%9C%EA%B5%AD%EC%96%B4
ngC2wqrsSPiIbWYwANCBPw,redclickstar,334198_10932_in-app6_,Install,1.9,183.102.3.58,720149b1-86dd-4d8a-a892-10859a1b59b6,1556964680,2019-05-04 18:11:20,1556964869,2019-05-04 18:14:29,1556964901,5ccd653f02870600012c7cee_rtbs1_rtbs2_rtbs30ORIGIN23729759end_rtbaff334198_rtboffer23729759_rtbsub10932_in-app6,http://www.redclickstarventures.com/pixel.php?aff=9&aff_sub=5ccd653f02870600012c7cee_rtbs1_rtbs2_rtbs30ORIGIN23729759end_rtbaff334198_rtboffer23729759_rtbsub10932_in-app6,idfa_720149b1-86dd-4d8a-a892-10859a1b59b6,%ED%95%9C%EA%B5%AD%EC%96%B4
ngC2wqrsSPiIbWYwANCBPw,redclickstar,334198_10932_in-app6_,Install,1.9,112.222.184.51,0ac5ef50-0abe-4949-9481-ac56f024ec66,1556966025,2019-05-04 18:33:45,1556966300,2019-05-04 18:38:20,1556966331,5ccd6a8502870600012cfb98_rtbs1_rtbs2_rtbs30ORIGIN23729759end_rtbaff334198_rtboffer23729759_rtbsub10932_in-app6,http://www.redclickstarventures.com/pixel.php?aff=9&aff_sub=5ccd6a8502870600012cfb98_rtbs1_rtbs2_rtbs30ORIGIN23729759end_rtbaff334198_rtboffer23729759_rtbsub10932_in-app6,idfa_0ac5ef50-0abe-4949-9481-ac56f024ec66,%ED%95%9C%EA%B5%AD%EC%96%B4
ngC2wqrsSPiIbWYwANCBPw,redclickstar,334198_10932_in-app6_,Install,1.9,39.114.151.83,c190abaa-00f4-40a8-a040-d77984150199,1556963077,2019-05-04 17:44:37,1556963246,2019-05-04 17:47:26,1556963313,5ccd5ecf02870600012be2a7_rtbs1_rtbs2_rtbs30ORIGIN23729759end_rtbaff334198_rtboffer23729759_rtbsub10932_in-app6,http://www.redclickstarventures.com/pixel.php?aff=9&aff_sub=5ccd5ecf02870600012be2a7_rtbs1_rtbs2_rtbs30ORIGIN23729759end_rtbaff334198_rtboffer23729759_rtbsub10932_in-app6,idfa_c190abaa-00f4-40a8-a040-d77984150199,%ED%95%9C%EA%B5%AD%EC%96%B4
ngC2wqrsSPiIbWYwANCBPw,redclickstar,334198_10932_in-app6_,Install,1.9,220.66.155.2,d42e43f8-b2dd-4a65-b301-33ece9227581,1556965733,2019-05-04 18:28:53,1556965867,2019-05-04 18:31:07,1556965898,5ccd695502870600012ce17b_rtbs1_rtbs2_rtbs30ORIGIN23729759end_rtbaff334198_rtboffer23729759_rtbsub10932_in-app6,http://www.redclickstarventures.com/pixel.php?aff=9&aff_sub=5ccd695502870600012ce17b_rtbs1_rtbs2_rtbs30ORIGIN23729759end_rtbaff334198_rtboffer23729759_rtbsub10932_in-app6,idfa_d42e43f8-b2dd-4a65-b301-33ece9227581,%ED%95%9C%EA%B5%AD%EC%96%B4
ngC2wqrsSPiIbWYwANCBPw,redclickstar,334198_10932_in-app6_,Install,1.9,121.182.120.157,4b469531-883b-4745-918f-1fe04d8c7375,1556967210,2019-05-04 18:53:30,1556967408,2019-05-04 18:56:48,1556967439,5ccd6f1902870600012d7ecf_rtbs1_rtbs2_rtbs30ORIGIN23729759end_rtbaff334198_rtboffer23729759_rtbsub10932_in-app6,http://www.redclickstarventures.com/pixel.php?aff=9&aff_sub=5ccd6f1902870600012d7ecf_rtbs1_rtbs2_rtbs30ORIGIN23729759end_rtbaff334198_rtboffer23729759_rtbsub10932_in-app6,idfa_4b469531-883b-4745-918f-1fe04d8c7375,%ED%95%9C%EA%B5%AD%EC%96%B4
ngC2wqrsSPiIbWYwANCBPw,redclickstar,334198_10932_in-app6_,Install,1.9,121.134.233.200,67adbe3a-1453-4b7b-be2b-e88d61af5dd4,1556964976,2019-05-04 18:16:16,1556965105,2019-05-04 18:18:25,1556965135,5ccd666c02870600012c984d_rtbs1_rtbs2_rtbs30ORIGIN23729759end_rtbaff334198_rtboffer23729759_rtbsub10932_in-app6,http://www.redclickstarventures.com/pixel.php?aff=9&aff_sub=5ccd666c02870600012c984d_rtbs1_rtbs2_rtbs30ORIGIN23729759end_rtbaff334198_rtboffer23729759_rtbsub10932_in-app6,idfa_67adbe3a-1453-4b7b-be2b-e88d61af5dd4,%ED%95%9C%EA%B5%AD%EC%96%B4
ngC2wqrsSPiIbWYwANCBPw,redclickstar,334198_10932_in-app6_,Install,1.9,182.226.35.57,8bb553c1-5c72-45b2-8975-5e3acc49ea10,1556965250,2019-05-04 18:20:50,1556965400,2019-05-04 18:23:20,1556965431,5ccd677b02870600012cb35a_rtbs1_rtbs2_rtbs30ORIGIN23729759end_rtbaff334198_rtboffer23729759_rtbsub10932_in-app6,http://www.redclickstarventures.com/pixel.php?aff=9&aff_sub=5ccd677b02870600012cb35a_rtbs1_rtbs2_rtbs30ORIGIN23729759end_rtbaff334198_rtboffer23729759_rtbsub10932_in-app6,idfa_8bb553c1-5c72-45b2-8975-5e3acc49ea10,%ED%95%9C%EA%B5%AD%EC%96%B4
ngC2wqrsSPiIbWYwANCBPw,redclickstar,334198_10932_in-app6_,Install,1.9,1.209.187.2,16b3d1cf-9cdc-4baa-84b8-bcac82c5ffb8,1556961997,2019-05-04 17:26:37,1556962162,2019-05-04 17:29:22,1556962192,5ccd5ac902870600012b93db_rtbs1_rtbs2_rtbs30ORIGIN23729759end_rtbaff334198_rtboffer23729759_rtbsub10932_in-app6,http://www.redclickstarventures.com/pixel.php?aff=9&aff_sub=5ccd5ac902870600012b93db_rtbs1_rtbs2_rtbs30ORIGIN23729759end_rtbaff334198_rtboffer23729759_rtbsub10932_in-app6,idfa_16b3d1cf-9cdc-4baa-84b8-bcac82c5ffb8,%ED%95%9C%EA%B5%AD%EC%96%B4
ngC2wqrsSPiIbWYwANCBPw,redclickstar,334198_10932_in-app6_,Install,1.9,121.126.37.156,442e6526-6603-4789-a29d-8af51a26462c,1556965389,2019-05-04 18:23:09,1556965629,2019-05-04 18:27:09,1556965659,5ccd67fe02870600012cc7e6_rtbs1_rtbs2_rtbs30ORIGIN23729759end_rtbaff334198_rtboffer23729759_rtbsub10932_in-app6,http://www.redclickstarventures.com/pixel.php?aff=9&aff_sub=5ccd67fe02870600012cc7e6_rtbs1_rtbs2_rtbs30ORIGIN23729759end_rtbaff334198_rtboffer23729759_rtbsub10932_in-app6,idfa_442e6526-6603-4789-a29d-8af51a26462c,%ED%95%9C%EA%B5%AD%EC%96%B4
ngC2wqrsSPiIbWYwANCBPw,redclickstar,334198_10932_in-app6_,Install,1.9,119.194.7.26,c2aa9662-528e-4275-ad9e-149dbd028702,1556964399,2019-05-04 18:06:39,1556964573,2019-05-04 18:09:33,1556964604,5ccd642902870600012c6002_rtbs1_rtbs2_rtbs30ORIGIN23729759end_rtbaff334198_rtboffer23729759_rtbsub10932_in-app6,http://www.redclickstarventures.com/pixel.php?aff=9&aff_sub=5ccd642902870600012c6002_rtbs1_rtbs2_rtbs30ORIGIN23729759end_rtbaff334198_rtboffer23729759_rtbsub10932_in-app6,idfa_c2aa9662-528e-4275-ad9e-149dbd028702,%ED%95%9C%EA%B5%AD%EC%96%B4
ngC2wqrsSPiIbWYwANCBPw,redclickstar,334198_10932_in-app6_,Install,1.9,121.131.110.228,63a47908-df48-4815-9bb4-a78c60397dc7,1556965441,2019-05-04 18:24:01,1556965625,2019-05-04 18:27:05,1556965656,5ccd683102870600012ccce1_rtbs1_rtbs2_rtbs30ORIGIN23729759end_rtbaff334198_rtboffer23729759_rtbsub10932_in-app6,http://www.redclickstarventures.com/pixel.php?aff=9&aff_sub=5ccd683102870600012ccce1_rtbs1_rtbs2_rtbs30ORIGIN23729759end_rtbaff334198_rtboffer23729759_rtbsub10932_in-app6,idfa_63a47908-df48-4815-9bb4-a78c60397dc7,%ED%95%9C%EA%B5%AD%EC%96%B4
