cid,partner_id,channel_id,action_id,cpi,ip,idfa,click time,click datetime,install time,install datetime,postback time,click id,postback url,unique user id
ngC2wqrsSPiIbWYwANCBPw,redclickstar,330425__,Install,1.9,59.12.38.116,42c9ed7b-900d-451f-b2ab-03214faf9baa,1556868076,2019-05-03 15:21:16,1556868147,2019-05-03 15:22:27,1556868177,cff89ba725bae1a3c12ccf556fed9e01_rtbs1_rtbs2_rtbs30ORIGIN23729759end_rtbaff330425_rtboffer23729759_rtbsub,http://www.redclickstarventures.com/pixel.php?aff=9&aff_sub=cff89ba725bae1a3c12ccf556fed9e01_rtbs1_rtbs2_rtbs30ORIGIN23729759end_rtbaff330425_rtboffer23729759_rtbsub,idfa_42c9ed7b-900d-451f-b2ab-03214faf9baa,%ED%95%9C%EA%B5%AD%EC%96%B4
ngC2wqrsSPiIbWYwANCBPw,redclickstar,330425__,Install,1.9,114.30.165.123,523c7bbb-3f56-43f2-800f-1bd1e86f22f7,1557199963,2019-05-07 11:32:43,1557200066,2019-05-07 11:34:26,1557200097,O9VCnfJKXXX7NmkS6o_rtbs1_rtbs2_rtbs30ORIGIN23729759end_rtbaff330425_rtboffer23729759_rtbsub,http://www.redclickstarventures.com/pixel.php?aff=9&aff_sub=O9VCnfJKXXX7NmkS6o_rtbs1_rtbs2_rtbs30ORIGIN23729759end_rtbaff330425_rtboffer23729759_rtbsub,idfa_523c7bbb-3f56-43f2-800f-1bd1e86f22f7,%ED%95%9C%EA%B5%AD%EC%96%B4
ngC2wqrsSPiIbWYwANCBPw,redclickstar,330425__,Install,1.9,220.71.231.42,4178766f-00e4-45e9-a8be-e92456e6245d,1556869538,2019-05-03 15:45:38,1556869613,2019-05-03 15:46:53,1556869643,747eb5a7a75669ef165cd36e8a76f60b_rtbs1_rtbs2_rtbs30ORIGIN23729759end_rtbaff330425_rtboffer23729759_rtbsub,http://www.redclickstarventures.com/pixel.php?aff=9&aff_sub=747eb5a7a75669ef165cd36e8a76f60b_rtbs1_rtbs2_rtbs30ORIGIN23729759end_rtbaff330425_rtboffer23729759_rtbsub,idfa_4178766f-00e4-45e9-a8be-e92456e6245d,%ED%95%9C%EA%B5%AD%EC%96%B4
ngC2wqrsSPiIbWYwANCBPw,redclickstar,330425__,Install,1.9,218.233.172.190,e5e9a299-c5a9-4905-9c17-5d936e1c9690,1557196952,2019-05-07 10:42:32,1557197022,2019-05-07 10:43:42,1557197052,jTQ71roXxLOUsmJyMj_rtbs1_rtbs2_rtbs30ORIGIN23729759end_rtbaff330425_rtboffer23729759_rtbsub,http://www.redclickstarventures.com/pixel.php?aff=9&aff_sub=jTQ71roXxLOUsmJyMj_rtbs1_rtbs2_rtbs30ORIGIN23729759end_rtbaff330425_rtboffer23729759_rtbsub,idfa_e5e9a299-c5a9-4905-9c17-5d936e1c9690,%ED%95%9C%EA%B5%AD%EC%96%B4
ngC2wqrsSPiIbWYwANCBPw,redclickstar,330425__,Install,1.9,121.161.73.41,861b02a6-9322-4a9b-b6eb-614ec9b619a8,1556867439,2019-05-03 15:10:39,1556867514,2019-05-03 15:11:54,1556867545,bb2096812be67e82d351b37d7fc67fd2_rtbs1_rtbs2_rtbs30ORIGIN23729759end_rtbaff330425_rtboffer23729759_rtbsub,http://www.redclickstarventures.com/pixel.php?aff=9&aff_sub=bb2096812be67e82d351b37d7fc67fd2_rtbs1_rtbs2_rtbs30ORIGIN23729759end_rtbaff330425_rtboffer23729759_rtbsub,idfa_861b02a6-9322-4a9b-b6eb-614ec9b619a8,%ED%95%9C%EA%B5%AD%EC%96%B4
ngC2wqrsSPiIbWYwANCBPw,redclickstar,330425__,Install,1.9,112.168.233.51,fe922217-a934-4854-9be5-e69b022749ae,1556873182,2019-05-03 16:46:22,1556873356,2019-05-03 16:49:16,1556873387,b303e4554440144e57fe3024df93f2f0_rtbs1_rtbs2_rtbs30ORIGIN23729759end_rtbaff330425_rtboffer23729759_rtbsub,http://www.redclickstarventures.com/pixel.php?aff=9&aff_sub=b303e4554440144e57fe3024df93f2f0_rtbs1_rtbs2_rtbs30ORIGIN23729759end_rtbaff330425_rtboffer23729759_rtbsub,idfa_fe922217-a934-4854-9be5-e69b022749ae,%ED%95%9C%EA%B5%AD%EC%96%B4
ngC2wqrsSPiIbWYwANCBPw,redclickstar,330425__,Install,1.9,111.118.20.118,171a65a9-c962-4102-a018-1fb904ac9bd4,1557198748,2019-05-07 11:12:28,1557198814,2019-05-07 11:13:34,1557198845,tVLJiASGHnLNazKH7N_rtbs1_rtbs2_rtbs30ORIGIN23729759end_rtbaff330425_rtboffer23729759_rtbsub,http://www.redclickstarventures.com/pixel.php?aff=9&aff_sub=tVLJiASGHnLNazKH7N_rtbs1_rtbs2_rtbs30ORIGIN23729759end_rtbaff330425_rtboffer23729759_rtbsub,idfa_171a65a9-c962-4102-a018-1fb904ac9bd4,%ED%95%9C%EA%B5%AD%EC%96%B4
ngC2wqrsSPiIbWYwANCBPw,redclickstar,330425__,Install,1.9,183.109.79.6,cffd39fc-4002-4e55-8993-6445ed8738b7,1557200559,2019-05-07 11:42:39,1557200624,2019-05-07 11:43:44,1557200654,tQcXYOjib7950rW9yj_rtbs1_rtbs2_rtbs30ORIGIN23729759end_rtbaff330425_rtboffer23729759_rtbsub,http://www.redclickstarventures.com/pixel.php?aff=9&aff_sub=tQcXYOjib7950rW9yj_rtbs1_rtbs2_rtbs30ORIGIN23729759end_rtbaff330425_rtboffer23729759_rtbsub,idfa_cffd39fc-4002-4e55-8993-6445ed8738b7,%ED%95%9C%EA%B5%AD%EC%96%B4
ngC2wqrsSPiIbWYwANCBPw,redclickstar,330425__,Install,1.9,183.109.88.54,06bd2a9a-a943-4a11-bed5-db0fc4ae9ad7,1557200296,2019-05-07 11:38:16,1557200371,2019-05-07 11:39:31,1557200401,IoXgoWY8iLz24eK0d7_rtbs1_rtbs2_rtbs30ORIGIN23729759end_rtbaff330425_rtboffer23729759_rtbsub,http://www.redclickstarventures.com/pixel.php?aff=9&aff_sub=IoXgoWY8iLz24eK0d7_rtbs1_rtbs2_rtbs30ORIGIN23729759end_rtbaff330425_rtboffer23729759_rtbsub,idfa_06bd2a9a-a943-4a11-bed5-db0fc4ae9ad7,%ED%95%9C%EA%B5%AD%EC%96%B4
ngC2wqrsSPiIbWYwANCBPw,redclickstar,330425__,Install,1.9,223.28.243.244,bdeadad0-04d2-4047-9693-948ee2457dac,1557197900,2019-05-07 10:58:20,1557197970,2019-05-07 10:59:30,1557198000,JIR7TzIQfZVQSNcNsr_rtbs1_rtbs2_rtbs30ORIGIN23729759end_rtbaff330425_rtboffer23729759_rtbsub,http://www.redclickstarventures.com/pixel.php?aff=9&aff_sub=JIR7TzIQfZVQSNcNsr_rtbs1_rtbs2_rtbs30ORIGIN23729759end_rtbaff330425_rtboffer23729759_rtbsub,idfa_bdeadad0-04d2-4047-9693-948ee2457dac,%ED%95%9C%EA%B5%AD%EC%96%B4
ngC2wqrsSPiIbWYwANCBPw,redclickstar,330425__,Install,1.9,1.221.192.149,6e01ba44-9da8-4ee1-9106-4133aef91432,1556871397,2019-05-03 16:16:37,1556871555,2019-05-03 16:19:15,1556871585,9550d5d6beddd1f38ed258e843ca2919_rtbs1_rtbs2_rtbs30ORIGIN23729759end_rtbaff330425_rtboffer23729759_rtbsub,http://www.redclickstarventures.com/pixel.php?aff=9&aff_sub=9550d5d6beddd1f38ed258e843ca2919_rtbs1_rtbs2_rtbs30ORIGIN23729759end_rtbaff330425_rtboffer23729759_rtbsub,idfa_6e01ba44-9da8-4ee1-9106-4133aef91432,%ED%95%9C%EA%B5%AD%EC%96%B4
ngC2wqrsSPiIbWYwANCBPw,redclickstar,330425__,Install,1.9,220.83.54.195,7ec71974-e0a9-43d0-9d24-bc8df0da626d,1556870694,2019-05-03 16:04:54,1556870791,2019-05-03 16:06:31,1556870821,ef1f85b35348e6ac6832b6d074b417a2_rtbs1_rtbs2_rtbs30ORIGIN23729759end_rtbaff330425_rtboffer23729759_rtbsub,http://www.redclickstarventures.com/pixel.php?aff=9&aff_sub=ef1f85b35348e6ac6832b6d074b417a2_rtbs1_rtbs2_rtbs30ORIGIN23729759end_rtbaff330425_rtboffer23729759_rtbsub,idfa_7ec71974-e0a9-43d0-9d24-bc8df0da626d,%ED%95%9C%EA%B5%AD%EC%96%B4
ngC2wqrsSPiIbWYwANCBPw,redclickstar,330425__,Install,1.9,106.247.228.50,bc6611ca-f2ad-478c-b84f-fb0af0d0cb92,1557195213,2019-05-07 10:13:33,1557195375,2019-05-07 10:16:15,1557195406,3nf9f6KNZVqT7C4s4O_rtbs1_rtbs2_rtbs30ORIGIN23729759end_rtbaff330425_rtboffer23729759_rtbsub,http://www.redclickstarventures.com/pixel.php?aff=9&aff_sub=3nf9f6KNZVqT7C4s4O_rtbs1_rtbs2_rtbs30ORIGIN23729759end_rtbaff330425_rtboffer23729759_rtbsub,idfa_bc6611ca-f2ad-478c-b84f-fb0af0d0cb92,%ED%95%9C%EA%B5%AD%EC%96%B4
ngC2wqrsSPiIbWYwANCBPw,redclickstar,330425__,Install,1.9,49.173.168.108,b284cb79-f030-4ede-b285-d6db2bbb1673,1556872231,2019-05-03 16:30:31,1556872435,2019-05-03 16:33:55,1556872466,12db35b9bf263c0f52175592cf250bbe_rtbs1_rtbs2_rtbs30ORIGIN23729759end_rtbaff330425_rtboffer23729759_rtbsub,http://www.redclickstarventures.com/pixel.php?aff=9&aff_sub=12db35b9bf263c0f52175592cf250bbe_rtbs1_rtbs2_rtbs30ORIGIN23729759end_rtbaff330425_rtboffer23729759_rtbsub,idfa_b284cb79-f030-4ede-b285-d6db2bbb1673,%ED%95%9C%EA%B5%AD%EC%96%B4
ngC2wqrsSPiIbWYwANCBPw,redclickstar,330425__,Install,1.9,211.216.58.204,4ce495a2-27b3-4085-81f4-cb048554a0fe,1557199657,2019-05-07 11:27:37,1557199731,2019-05-07 11:28:51,1557199762,1NHeY7xBlzkfy2koXE_rtbs1_rtbs2_rtbs30ORIGIN23729759end_rtbaff330425_rtboffer23729759_rtbsub,http://www.redclickstarventures.com/pixel.php?aff=9&aff_sub=1NHeY7xBlzkfy2koXE_rtbs1_rtbs2_rtbs30ORIGIN23729759end_rtbaff330425_rtboffer23729759_rtbsub,idfa_4ce495a2-27b3-4085-81f4-cb048554a0fe,%ED%95%9C%EA%B5%AD%EC%96%B4
ngC2wqrsSPiIbWYwANCBPw,redclickstar,330425__,Install,1.9,61.37.41.130,7a83cd1c-5000-4471-9a1f-d1ea910eef04,1557104318,2019-05-06 08:58:38,1557104392,2019-05-06 08:59:52,1557104422,yq8OP0JUUZu0NbvNPi_rtbs1_rtbs2_rtbs30ORIGIN23729759end_rtbaff330425_rtboffer23729759_rtbsub,http://www.redclickstarventures.com/pixel.php?aff=9&aff_sub=yq8OP0JUUZu0NbvNPi_rtbs1_rtbs2_rtbs30ORIGIN23729759end_rtbaff330425_rtboffer23729759_rtbsub,idfa_7a83cd1c-5000-4471-9a1f-d1ea910eef04,%ED%95%9C%EA%B5%AD%EC%96%B4
ngC2wqrsSPiIbWYwANCBPw,redclickstar,330425__,Install,1.9,49.246.89.251,f7d43703-bf81-46d0-8da9-e7ffb8f3c0d6,1556871838,2019-05-03 16:23:58,1556871996,2019-05-03 16:26:36,1556872026,7d80c58f300672ce797a350f8987bee0_rtbs1_rtbs2_rtbs30ORIGIN23729759end_rtbaff330425_rtboffer23729759_rtbsub,http://www.redclickstarventures.com/pixel.php?aff=9&aff_sub=7d80c58f300672ce797a350f8987bee0_rtbs1_rtbs2_rtbs30ORIGIN23729759end_rtbaff330425_rtboffer23729759_rtbsub,idfa_f7d43703-bf81-46d0-8da9-e7ffb8f3c0d6,%ED%95%9C%EA%B5%AD%EC%96%B4
ngC2wqrsSPiIbWYwANCBPw,redclickstar,330425__,Install,1.9,112.222.142.154,e0c39b4a-9126-4bba-836b-7409eee10e22,1556877072,2019-05-03 17:51:12,1556877135,2019-05-03 17:52:15,1556877166,13aeb7d0a4421deb4a61d9119cf9ee21_rtbs1_rtbs2_rtbs30ORIGIN23729759end_rtbaff330425_rtboffer23729759_rtbsub,http://www.redclickstarventures.com/pixel.php?aff=9&aff_sub=13aeb7d0a4421deb4a61d9119cf9ee21_rtbs1_rtbs2_rtbs30ORIGIN23729759end_rtbaff330425_rtboffer23729759_rtbsub,idfa_e0c39b4a-9126-4bba-836b-7409eee10e22,%ED%95%9C%EA%B5%AD%EC%96%B4
ngC2wqrsSPiIbWYwANCBPw,redclickstar,330425__,Install,1.9,220.116.112.76,4d77f652-8d57-4fee-9e4a-637eb53d9d49,1556874637,2019-05-03 17:10:37,1556874742,2019-05-03 17:12:22,1556874772,ec481cb0efbb80d66ca167ad28dedf16_rtbs1_rtbs2_rtbs30ORIGIN23729759end_rtbaff330425_rtboffer23729759_rtbsub,http://www.redclickstarventures.com/pixel.php?aff=9&aff_sub=ec481cb0efbb80d66ca167ad28dedf16_rtbs1_rtbs2_rtbs30ORIGIN23729759end_rtbaff330425_rtboffer23729759_rtbsub,idfa_4d77f652-8d57-4fee-9e4a-637eb53d9d49,%ED%95%9C%EA%B5%AD%EC%96%B4
ngC2wqrsSPiIbWYwANCBPw,redclickstar,330425__,Install,1.9,223.28.243.244,836b457c-7eda-4ae2-a883-6370701f94be,1556868703,2019-05-03 15:31:43,1556868845,2019-05-03 15:34:05,1556868876,d1b7c0717bb43d88b8ca0628609450c3_rtbs1_rtbs2_rtbs30ORIGIN23729759end_rtbaff330425_rtboffer23729759_rtbsub,http://www.redclickstarventures.com/pixel.php?aff=9&aff_sub=d1b7c0717bb43d88b8ca0628609450c3_rtbs1_rtbs2_rtbs30ORIGIN23729759end_rtbaff330425_rtboffer23729759_rtbsub,idfa_836b457c-7eda-4ae2-a883-6370701f94be,%ED%95%9C%EA%B5%AD%EC%96%B4
ngC2wqrsSPiIbWYwANCBPw,redclickstar,330425__,Install,1.9,222.110.155.108,8baad67c-9cfd-4980-ae4b-b7025638f993,1557200972,2019-05-07 11:49:32,1557201050,2019-05-07 11:50:50,1557201080,kdMGBAA5J60Yd96QPR_rtbs1_rtbs2_rtbs30ORIGIN23729759end_rtbaff330425_rtboffer23729759_rtbsub,http://www.redclickstarventures.com/pixel.php?aff=9&aff_sub=kdMGBAA5J60Yd96QPR_rtbs1_rtbs2_rtbs30ORIGIN23729759end_rtbaff330425_rtboffer23729759_rtbsub,idfa_8baad67c-9cfd-4980-ae4b-b7025638f993,%ED%95%9C%EA%B5%AD%EC%96%B4
ngC2wqrsSPiIbWYwANCBPw,redclickstar,330425__,Install,1.9,175.201.12.200,20bf1cba-fdec-419c-83f6-09c6f7d64d58,1556873793,2019-05-03 16:56:33,1556873869,2019-05-03 16:57:49,1556873900,4e9976de7bb4988758ede45bc302f23c_rtbs1_rtbs2_rtbs30ORIGIN23729759end_rtbaff330425_rtboffer23729759_rtbsub,http://www.redclickstarventures.com/pixel.php?aff=9&aff_sub=4e9976de7bb4988758ede45bc302f23c_rtbs1_rtbs2_rtbs30ORIGIN23729759end_rtbaff330425_rtboffer23729759_rtbsub,idfa_20bf1cba-fdec-419c-83f6-09c6f7d64d58,%ED%95%9C%EA%B5%AD%EC%96%B4
ngC2wqrsSPiIbWYwANCBPw,redclickstar,330425__,Install,1.9,49.171.119.51,7b70568e-c726-4e09-bf92-23a4483493fe,1556875872,2019-05-03 17:31:12,1556875993,2019-05-03 17:33:13,1556876024,c558c64e916b929fe9a8cde8a405dfef_rtbs1_rtbs2_rtbs30ORIGIN23729759end_rtbaff330425_rtboffer23729759_rtbsub,http://www.redclickstarventures.com/pixel.php?aff=9&aff_sub=c558c64e916b929fe9a8cde8a405dfef_rtbs1_rtbs2_rtbs30ORIGIN23729759end_rtbaff330425_rtboffer23729759_rtbsub,idfa_7b70568e-c726-4e09-bf92-23a4483493fe,%ED%95%9C%EA%B5%AD%EC%96%B4
ngC2wqrsSPiIbWYwANCBPw,redclickstar,330425__,Install,1.9,27.116.125.146,57211303-611b-4b3c-baa9-8bc3750c2e78,1557191286,2019-05-07 09:08:06,1557191379,2019-05-07 09:09:39,1557191409,8ySgOGpM98T2DknR4T_rtbs1_rtbs2_rtbs30ORIGIN23729759end_rtbaff330425_rtboffer23729759_rtbsub,http://www.redclickstarventures.com/pixel.php?aff=9&aff_sub=8ySgOGpM98T2DknR4T_rtbs1_rtbs2_rtbs30ORIGIN23729759end_rtbaff330425_rtboffer23729759_rtbsub,idfa_57211303-611b-4b3c-baa9-8bc3750c2e78,%ED%95%9C%EA%B5%AD%EC%96%B4
ngC2wqrsSPiIbWYwANCBPw,redclickstar,330425__,Install,1.9,218.52.0.138,b8cb39be-4c15-4556-be4d-e412b461788b,1557190168,2019-05-07 08:49:28,1557190243,2019-05-07 08:50:43,1557190496,1L9cE9RlLIJ0RytHMx_rtbs1_rtbs2_rtbs30ORIGIN23729759end_rtbaff330425_rtboffer23729759_rtbsub,http://www.redclickstarventures.com/pixel.php?aff=9&aff_sub=1L9cE9RlLIJ0RytHMx_rtbs1_rtbs2_rtbs30ORIGIN23729759end_rtbaff330425_rtboffer23729759_rtbsub,idfa_b8cb39be-4c15-4556-be4d-e412b461788b,%ED%95%9C%EA%B5%AD%EC%96%B4
ngC2wqrsSPiIbWYwANCBPw,redclickstar,330425__,Install,1.9,211.250.42.74,7ce09ac0-56a6-46a7-9bf2-b2ada48741b6,1556867190,2019-05-03 15:06:30,1556867287,2019-05-03 15:08:07,1556867317,c6d049c4cbed61d25af15242edd9b7ed_rtbs1_rtbs2_rtbs30ORIGIN23729759end_rtbaff330425_rtboffer23729759_rtbsub,http://www.redclickstarventures.com/pixel.php?aff=9&aff_sub=c6d049c4cbed61d25af15242edd9b7ed_rtbs1_rtbs2_rtbs30ORIGIN23729759end_rtbaff330425_rtboffer23729759_rtbsub,idfa_7ce09ac0-56a6-46a7-9bf2-b2ada48741b6,%ED%95%9C%EA%B5%AD%EC%96%B4
ngC2wqrsSPiIbWYwANCBPw,redclickstar,330425__,Install,1.9,211.54.74.50,121308ad-177c-4f31-afe7-e8f15795029d,1557191980,2019-05-07 09:19:40,1557192051,2019-05-07 09:20:51,1557192081,k1z42hLxPbvjfmHZRI_rtbs1_rtbs2_rtbs30ORIGIN23729759end_rtbaff330425_rtboffer23729759_rtbsub,http://www.redclickstarventures.com/pixel.php?aff=9&aff_sub=k1z42hLxPbvjfmHZRI_rtbs1_rtbs2_rtbs30ORIGIN23729759end_rtbaff330425_rtboffer23729759_rtbsub,idfa_121308ad-177c-4f31-afe7-e8f15795029d,%ED%95%9C%EA%B5%AD%EC%96%B4
ngC2wqrsSPiIbWYwANCBPw,redclickstar,330425__,Install,1.9,211.38.13.83,e9253348-024a-4893-9db0-7a1e365ec2ee,1557191374,2019-05-07 09:09:34,1557191452,2019-05-07 09:10:52,1557191482,Yh5SK6o9fkPLAJBFl3_rtbs1_rtbs2_rtbs30ORIGIN23729759end_rtbaff330425_rtboffer23729759_rtbsub,http://www.redclickstarventures.com/pixel.php?aff=9&aff_sub=Yh5SK6o9fkPLAJBFl3_rtbs1_rtbs2_rtbs30ORIGIN23729759end_rtbaff330425_rtboffer23729759_rtbsub,idfa_e9253348-024a-4893-9db0-7a1e365ec2ee,%ED%95%9C%EA%B5%AD%EC%96%B4
ngC2wqrsSPiIbWYwANCBPw,redclickstar,330425__,Install,1.9,218.149.228.169,9c5c3ecd-f8d7-410c-b0f4-5f829582b198,1557195606,2019-05-07 10:20:06,1557195705,2019-05-07 10:21:45,1557195736,vnss6NTJptz3wjF6MU_rtbs1_rtbs2_rtbs30ORIGIN23729759end_rtbaff330425_rtboffer23729759_rtbsub,http://www.redclickstarventures.com/pixel.php?aff=9&aff_sub=vnss6NTJptz3wjF6MU_rtbs1_rtbs2_rtbs30ORIGIN23729759end_rtbaff330425_rtboffer23729759_rtbsub,idfa_9c5c3ecd-f8d7-410c-b0f4-5f829582b198,%ED%95%9C%EA%B5%AD%EC%96%B4
ngC2wqrsSPiIbWYwANCBPw,redclickstar,330425__,Install,1.9,221.139.1.21,6d30abca-76aa-40db-a963-146de2421982,1557196428,2019-05-07 10:33:48,1557196599,2019-05-07 10:36:39,1557196630,oKBIHMu4ZYg959NJmv_rtbs1_rtbs2_rtbs30ORIGIN23729759end_rtbaff330425_rtboffer23729759_rtbsub,http://www.redclickstarventures.com/pixel.php?aff=9&aff_sub=oKBIHMu4ZYg959NJmv_rtbs1_rtbs2_rtbs30ORIGIN23729759end_rtbaff330425_rtboffer23729759_rtbsub,idfa_6d30abca-76aa-40db-a963-146de2421982,%ED%95%9C%EA%B5%AD%EC%96%B4
ngC2wqrsSPiIbWYwANCBPw,redclickstar,330425__,Install,1.9,112.171.248.197,f985a16a-1f4f-4283-96a3-6fef5e6cd64e,1556871535,2019-05-03 16:18:55,1556871643,2019-05-03 16:20:43,1556871673,2dbeeaeb90d01719ef2457c377db8dff_rtbs1_rtbs2_rtbs30ORIGIN23729759end_rtbaff330425_rtboffer23729759_rtbsub,http://www.redclickstarventures.com/pixel.php?aff=9&aff_sub=2dbeeaeb90d01719ef2457c377db8dff_rtbs1_rtbs2_rtbs30ORIGIN23729759end_rtbaff330425_rtboffer23729759_rtbsub,idfa_f985a16a-1f4f-4283-96a3-6fef5e6cd64e,%ED%95%9C%EA%B5%AD%EC%96%B4
ngC2wqrsSPiIbWYwANCBPw,redclickstar,330425__,Install,1.9,125.177.66.21,3986525d-e299-497f-b204-af75fdec39f7,1556868351,2019-05-03 15:25:51,1556868413,2019-05-03 15:26:53,1556868443,39e159bc9109b566ed15dc3a74486772_rtbs1_rtbs2_rtbs30ORIGIN23729759end_rtbaff330425_rtboffer23729759_rtbsub,http://www.redclickstarventures.com/pixel.php?aff=9&aff_sub=39e159bc9109b566ed15dc3a74486772_rtbs1_rtbs2_rtbs30ORIGIN23729759end_rtbaff330425_rtboffer23729759_rtbsub,idfa_3986525d-e299-497f-b204-af75fdec39f7,%ED%95%9C%EA%B5%AD%EC%96%B4
ngC2wqrsSPiIbWYwANCBPw,redclickstar,330425__,Install,1.9,61.74.59.248,29c53813-27a5-4f15-a88f-180f1c135a40,1557198766,2019-05-07 11:12:46,1557198855,2019-05-07 11:14:15,1557198885,XpSmNMs5i70VIGLvZx_rtbs1_rtbs2_rtbs30ORIGIN23729759end_rtbaff330425_rtboffer23729759_rtbsub,http://www.redclickstarventures.com/pixel.php?aff=9&aff_sub=XpSmNMs5i70VIGLvZx_rtbs1_rtbs2_rtbs30ORIGIN23729759end_rtbaff330425_rtboffer23729759_rtbsub,idfa_29c53813-27a5-4f15-a88f-180f1c135a40,%ED%95%9C%EA%B5%AD%EC%96%B4
ngC2wqrsSPiIbWYwANCBPw,redclickstar,330425__,Install,1.9,113.198.1.118,2675c851-8528-4e65-904d-8d0ed728352b,1557194948,2019-05-07 10:09:08,1557195036,2019-05-07 10:10:36,1557195066,shWTvWuPExFcKBsYfb_rtbs1_rtbs2_rtbs30ORIGIN23729759end_rtbaff330425_rtboffer23729759_rtbsub,http://www.redclickstarventures.com/pixel.php?aff=9&aff_sub=shWTvWuPExFcKBsYfb_rtbs1_rtbs2_rtbs30ORIGIN23729759end_rtbaff330425_rtboffer23729759_rtbsub,idfa_2675c851-8528-4e65-904d-8d0ed728352b,%ED%95%9C%EA%B5%AD%EC%96%B4
ngC2wqrsSPiIbWYwANCBPw,redclickstar,330425__,Install,1.9,211.54.74.50,49becbfa-6f85-4e01-b3c1-29b4e58c735d,1556866840,2019-05-03 15:00:40,1556866904,2019-05-03 15:01:44,1556866934,131630145f872b93615e1c9e3beadef1_rtbs1_rtbs2_rtbs30ORIGIN23729759end_rtbaff330425_rtboffer23729759_rtbsub,http://www.redclickstarventures.com/pixel.php?aff=9&aff_sub=131630145f872b93615e1c9e3beadef1_rtbs1_rtbs2_rtbs30ORIGIN23729759end_rtbaff330425_rtboffer23729759_rtbsub,idfa_49becbfa-6f85-4e01-b3c1-29b4e58c735d,%ED%95%9C%EA%B5%AD%EC%96%B4
ngC2wqrsSPiIbWYwANCBPw,redclickstar,330425__,Install,1.9,27.116.255.153,a0f024ec-d7cf-49ca-a273-45e6d57a86f4,1557193840,2019-05-07 09:50:40,1557193987,2019-05-07 09:53:07,1557194017,3ox0d7ltafggYt5fwY_rtbs1_rtbs2_rtbs30ORIGIN23729759end_rtbaff330425_rtboffer23729759_rtbsub,http://www.redclickstarventures.com/pixel.php?aff=9&aff_sub=3ox0d7ltafggYt5fwY_rtbs1_rtbs2_rtbs30ORIGIN23729759end_rtbaff330425_rtboffer23729759_rtbsub,idfa_a0f024ec-d7cf-49ca-a273-45e6d57a86f4,%ED%95%9C%EA%B5%AD%EC%96%B4
ngC2wqrsSPiIbWYwANCBPw,redclickstar,330425__,Install,1.9,175.112.188.68,72fbdf41-4726-4b28-8de2-cb302f8bbdcd,1556875312,2019-05-03 17:21:52,1556875390,2019-05-03 17:23:10,1556875420,8dd024bf55236aa4a91e3aaf0a64eadd_rtbs1_rtbs2_rtbs30ORIGIN23729759end_rtbaff330425_rtboffer23729759_rtbsub,http://www.redclickstarventures.com/pixel.php?aff=9&aff_sub=8dd024bf55236aa4a91e3aaf0a64eadd_rtbs1_rtbs2_rtbs30ORIGIN23729759end_rtbaff330425_rtboffer23729759_rtbsub,idfa_72fbdf41-4726-4b28-8de2-cb302f8bbdcd,%ED%95%9C%EA%B5%AD%EC%96%B4
ngC2wqrsSPiIbWYwANCBPw,redclickstar,330425__,Install,1.9,175.230.39.122,c6cba261-12d4-435d-82d4-4ca8291ee1d5,1557198162,2019-05-07 11:02:42,1557198237,2019-05-07 11:03:57,1557198267,9g6uD355vKqbE42Hfc_rtbs1_rtbs2_rtbs30ORIGIN23729759end_rtbaff330425_rtboffer23729759_rtbsub,http://www.redclickstarventures.com/pixel.php?aff=9&aff_sub=9g6uD355vKqbE42Hfc_rtbs1_rtbs2_rtbs30ORIGIN23729759end_rtbaff330425_rtboffer23729759_rtbsub,idfa_c6cba261-12d4-435d-82d4-4ca8291ee1d5,%ED%95%9C%EA%B5%AD%EC%96%B4
ngC2wqrsSPiIbWYwANCBPw,redclickstar,330425__,Install,1.9,112.216.15.226,7f97d371-62d5-4028-ac36-1b0a41486e3c,1556868045,2019-05-03 15:20:45,1556868220,2019-05-03 15:23:40,1556868250,ba2d48d6754f4aee1ca68c4c179f7b89_rtbs1_rtbs2_rtbs30ORIGIN23729759end_rtbaff330425_rtboffer23729759_rtbsub,http://www.redclickstarventures.com/pixel.php?aff=9&aff_sub=ba2d48d6754f4aee1ca68c4c179f7b89_rtbs1_rtbs2_rtbs30ORIGIN23729759end_rtbaff330425_rtboffer23729759_rtbsub,idfa_7f97d371-62d5-4028-ac36-1b0a41486e3c,%ED%95%9C%EA%B5%AD%EC%96%B4
ngC2wqrsSPiIbWYwANCBPw,redclickstar,330425__,Install,1.9,112.162.62.41,7f752c9e-2da4-4bf1-85b1-90505b882583,1556869686,2019-05-03 15:48:06,1556869752,2019-05-03 15:49:12,1556869782,848e8bdca027b8b633bee0f2551c8137_rtbs1_rtbs2_rtbs30ORIGIN23729759end_rtbaff330425_rtboffer23729759_rtbsub,http://www.redclickstarventures.com/pixel.php?aff=9&aff_sub=848e8bdca027b8b633bee0f2551c8137_rtbs1_rtbs2_rtbs30ORIGIN23729759end_rtbaff330425_rtboffer23729759_rtbsub,idfa_7f752c9e-2da4-4bf1-85b1-90505b882583,%ED%95%9C%EA%B5%AD%EC%96%B4
ngC2wqrsSPiIbWYwANCBPw,redclickstar,330425__,Install,1.9,110.10.152.10,833943fe-bd6e-474e-b51c-cd029d4ce605,1556872563,2019-05-03 16:36:03,1556872678,2019-05-03 16:37:58,1556872711,e249174d18a1503d2e45ab86f3f7cc0e_rtbs1_rtbs2_rtbs30ORIGIN23729759end_rtbaff330425_rtboffer23729759_rtbsub,http://www.redclickstarventures.com/pixel.php?aff=9&aff_sub=e249174d18a1503d2e45ab86f3f7cc0e_rtbs1_rtbs2_rtbs30ORIGIN23729759end_rtbaff330425_rtboffer23729759_rtbsub,idfa_833943fe-bd6e-474e-b51c-cd029d4ce605,%ED%95%9C%EA%B5%AD%EC%96%B4
ngC2wqrsSPiIbWYwANCBPw,redclickstar,330425__,Install,1.9,39.118.105.154,20b59eb5-ca9e-4e92-8d21-8c0ceb980446,1557193065,2019-05-07 09:37:45,1557193242,2019-05-07 09:40:42,1557193272,arFAx4okrNJ7vdEHOG_rtbs1_rtbs2_rtbs30ORIGIN23729759end_rtbaff330425_rtboffer23729759_rtbsub,http://www.redclickstarventures.com/pixel.php?aff=9&aff_sub=arFAx4okrNJ7vdEHOG_rtbs1_rtbs2_rtbs30ORIGIN23729759end_rtbaff330425_rtboffer23729759_rtbsub,idfa_20b59eb5-ca9e-4e92-8d21-8c0ceb980446,%ED%95%9C%EA%B5%AD%EC%96%B4
ngC2wqrsSPiIbWYwANCBPw,redclickstar,330425__,Install,1.9,112.175.9.49,02a40ab6-6067-41af-b7eb-adac823d3d6f,1556873466,2019-05-03 16:51:06,1556873561,2019-05-03 16:52:41,1556873592,c89932f2a6c1990a783c96f09a99aaf9_rtbs1_rtbs2_rtbs30ORIGIN23729759end_rtbaff330425_rtboffer23729759_rtbsub,http://www.redclickstarventures.com/pixel.php?aff=9&aff_sub=c89932f2a6c1990a783c96f09a99aaf9_rtbs1_rtbs2_rtbs30ORIGIN23729759end_rtbaff330425_rtboffer23729759_rtbsub,idfa_02a40ab6-6067-41af-b7eb-adac823d3d6f,%ED%95%9C%EA%B5%AD%EC%96%B4
ngC2wqrsSPiIbWYwANCBPw,redclickstar,330425__,Install,1.9,175.215.84.119,41a2958a-780d-491d-bc2b-7544d7281306,1557190852,2019-05-07 09:00:52,1557190938,2019-05-07 09:02:18,1557190970,u7gRtybOmJ7xo0mLGo_rtbs1_rtbs2_rtbs30ORIGIN23729759end_rtbaff330425_rtboffer23729759_rtbsub,http://www.redclickstarventures.com/pixel.php?aff=9&aff_sub=u7gRtybOmJ7xo0mLGo_rtbs1_rtbs2_rtbs30ORIGIN23729759end_rtbaff330425_rtboffer23729759_rtbsub,idfa_41a2958a-780d-491d-bc2b-7544d7281306,%ED%95%9C%EA%B5%AD%EC%96%B4
ngC2wqrsSPiIbWYwANCBPw,redclickstar,330425__,Install,1.9,61.37.150.6,045f50d6-4f28-47db-b345-9219986b430c,1557188458,2019-05-07 08:20:58,1557188553,2019-05-07 08:22:33,1557188584,6YjMfT91dxXpuWRQl0_rtbs1_rtbs2_rtbs30ORIGIN23729759end_rtbaff330425_rtboffer23729759_rtbsub,http://www.redclickstarventures.com/pixel.php?aff=9&aff_sub=6YjMfT91dxXpuWRQl0_rtbs1_rtbs2_rtbs30ORIGIN23729759end_rtbaff330425_rtboffer23729759_rtbsub,idfa_045f50d6-4f28-47db-b345-9219986b430c,%ED%95%9C%EA%B5%AD%EC%96%B4
ngC2wqrsSPiIbWYwANCBPw,redclickstar,330425__,Install,1.9,211.236.192.234,25259265-a108-4fac-b1ea-95484f43966a,1557197248,2019-05-07 10:47:28,1557197323,2019-05-07 10:48:43,1557197354,TLJYaxCFmIkYoTPhq3_rtbs1_rtbs2_rtbs30ORIGIN23729759end_rtbaff330425_rtboffer23729759_rtbsub,http://www.redclickstarventures.com/pixel.php?aff=9&aff_sub=TLJYaxCFmIkYoTPhq3_rtbs1_rtbs2_rtbs30ORIGIN23729759end_rtbaff330425_rtboffer23729759_rtbsub,idfa_25259265-a108-4fac-b1ea-95484f43966a,%ED%95%9C%EA%B5%AD%EC%96%B4
ngC2wqrsSPiIbWYwANCBPw,redclickstar,330425__,Install,1.9,14.48.200.83,2dbf8e8e-8f0b-4ee6-a37c-f4c9ba08d816,1556857777,2019-05-03 12:29:37,1556857848,2019-05-03 12:30:48,1556857879,f09a405b44345123e6c5d750f29a9f58_rtbs1_rtbs2_rtbs30ORIGIN23729759end_rtbaff330425_rtboffer23729759_rtbsub,http://www.redclickstarventures.com/pixel.php?aff=9&aff_sub=f09a405b44345123e6c5d750f29a9f58_rtbs1_rtbs2_rtbs30ORIGIN23729759end_rtbaff330425_rtboffer23729759_rtbsub,idfa_2dbf8e8e-8f0b-4ee6-a37c-f4c9ba08d816,%ED%95%9C%EA%B5%AD%EC%96%B4
ngC2wqrsSPiIbWYwANCBPw,redclickstar,330425__,Install,1.9,112.222.184.51,6ce09624-679e-4cbe-a702-14913fae11f5,1556857897,2019-05-03 12:31:37,1556857973,2019-05-03 12:32:53,1556858009,6780dc9dbad8fc566e9324802e597aef_rtbs1_rtbs2_rtbs30ORIGIN23729759end_rtbaff330425_rtboffer23729759_rtbsub,http://www.redclickstarventures.com/pixel.php?aff=9&aff_sub=6780dc9dbad8fc566e9324802e597aef_rtbs1_rtbs2_rtbs30ORIGIN23729759end_rtbaff330425_rtboffer23729759_rtbsub,idfa_6ce09624-679e-4cbe-a702-14913fae11f5,%ED%95%9C%EA%B5%AD%EC%96%B4
ngC2wqrsSPiIbWYwANCBPw,redclickstar,330425__,Install,1.9,211.254.220.237,3f09d2cc-aee3-4e0d-9497-e7ab3896cebf,1557188494,2019-05-07 08:21:34,1557188594,2019-05-07 08:23:14,1557188624,1uQAuX8NLKIBX02RjB_rtbs1_rtbs2_rtbs30ORIGIN23729759end_rtbaff330425_rtboffer23729759_rtbsub,http://www.redclickstarventures.com/pixel.php?aff=9&aff_sub=1uQAuX8NLKIBX02RjB_rtbs1_rtbs2_rtbs30ORIGIN23729759end_rtbaff330425_rtboffer23729759_rtbsub,idfa_3f09d2cc-aee3-4e0d-9497-e7ab3896cebf,%ED%95%9C%EA%B5%AD%EC%96%B4
ngC2wqrsSPiIbWYwANCBPw,redclickstar,330425__,Install,1.9,14.51.77.244,8889cfd2-12a5-49ed-8674-554b985dbd38,1556856863,2019-05-03 12:14:23,1556856955,2019-05-03 12:15:55,1556856986,ab1bbe407f2b84fae73d47e040088c5f_rtbs1_rtbs2_rtbs30ORIGIN23729759end_rtbaff330425_rtboffer23729759_rtbsub,http://www.redclickstarventures.com/pixel.php?aff=9&aff_sub=ab1bbe407f2b84fae73d47e040088c5f_rtbs1_rtbs2_rtbs30ORIGIN23729759end_rtbaff330425_rtboffer23729759_rtbsub,idfa_8889cfd2-12a5-49ed-8674-554b985dbd38,%ED%95%9C%EA%B5%AD%EC%96%B4
ngC2wqrsSPiIbWYwANCBPw,redclickstar,330425__,Install,1.9,112.187.122.213,fa2d0288-02dd-4951-b420-b5d22ad0cd93,1557198468,2019-05-07 11:07:48,1557198538,2019-05-07 11:08:58,1557198569,mN2LpDpXwhEcgoCIRF_rtbs1_rtbs2_rtbs30ORIGIN23729759end_rtbaff330425_rtboffer23729759_rtbsub,http://www.redclickstarventures.com/pixel.php?aff=9&aff_sub=mN2LpDpXwhEcgoCIRF_rtbs1_rtbs2_rtbs30ORIGIN23729759end_rtbaff330425_rtboffer23729759_rtbsub,idfa_fa2d0288-02dd-4951-b420-b5d22ad0cd93,%ED%95%9C%EA%B5%AD%EC%96%B4
ngC2wqrsSPiIbWYwANCBPw,redclickstar,330425__,Install,1.9,112.221.173.170,136079c1-c06a-41c2-a1b7-4687fd3385f3,1556867738,2019-05-03 15:15:38,1556867806,2019-05-03 15:16:46,1556867836,f16b886f5a0375cdce2ac42147ca554a_rtbs1_rtbs2_rtbs30ORIGIN23729759end_rtbaff330425_rtboffer23729759_rtbsub,http://www.redclickstarventures.com/pixel.php?aff=9&aff_sub=f16b886f5a0375cdce2ac42147ca554a_rtbs1_rtbs2_rtbs30ORIGIN23729759end_rtbaff330425_rtboffer23729759_rtbsub,idfa_136079c1-c06a-41c2-a1b7-4687fd3385f3,%ED%95%9C%EA%B5%AD%EC%96%B4
ngC2wqrsSPiIbWYwANCBPw,redclickstar,330425__,Install,1.9,112.220.86.122,066466bc-ff1e-462d-b3f7-8ff7f78ecc06,1556872831,2019-05-03 16:40:31,1556872923,2019-05-03 16:42:03,1556872953,1226cc7b8b4ccfc2169a2cca677ba284_rtbs1_rtbs2_rtbs30ORIGIN23729759end_rtbaff330425_rtboffer23729759_rtbsub,http://www.redclickstarventures.com/pixel.php?aff=9&aff_sub=1226cc7b8b4ccfc2169a2cca677ba284_rtbs1_rtbs2_rtbs30ORIGIN23729759end_rtbaff330425_rtboffer23729759_rtbsub,idfa_066466bc-ff1e-462d-b3f7-8ff7f78ecc06,%ED%95%9C%EA%B5%AD%EC%96%B4
ngC2wqrsSPiIbWYwANCBPw,redclickstar,330425__,Install,1.9,14.32.186.49,b036c48f-294a-45e2-822f-b63cd56e3bd7,1557190458,2019-05-07 08:54:18,1557190580,2019-05-07 08:56:20,1557190610,16BqIMNeJmmzMi6pfU_rtbs1_rtbs2_rtbs30ORIGIN23729759end_rtbaff330425_rtboffer23729759_rtbsub,http://www.redclickstarventures.com/pixel.php?aff=9&aff_sub=16BqIMNeJmmzMi6pfU_rtbs1_rtbs2_rtbs30ORIGIN23729759end_rtbaff330425_rtboffer23729759_rtbsub,idfa_b036c48f-294a-45e2-822f-b63cd56e3bd7,%ED%95%9C%EA%B5%AD%EC%96%B4
ngC2wqrsSPiIbWYwANCBPw,redclickstar,330425__,Install,1.9,121.166.29.56,a0120706-8976-47ed-abc8-6f4d07dbb7fa,1557188247,2019-05-07 08:17:27,1557188404,2019-05-07 08:20:04,1557188434,yBEA4ThkLzdhU2LAqJ_rtbs1_rtbs2_rtbs30ORIGIN23729759end_rtbaff330425_rtboffer23729759_rtbsub,http://www.redclickstarventures.com/pixel.php?aff=9&aff_sub=yBEA4ThkLzdhU2LAqJ_rtbs1_rtbs2_rtbs30ORIGIN23729759end_rtbaff330425_rtboffer23729759_rtbsub,idfa_a0120706-8976-47ed-abc8-6f4d07dbb7fa,%ED%95%9C%EA%B5%AD%EC%96%B4
ngC2wqrsSPiIbWYwANCBPw,redclickstar,330425__,Install,1.9,125.135.252.3,0aa9c208-ce6e-4e65-9064-021bcbb41e26,1556870789,2019-05-03 16:06:29,1556870874,2019-05-03 16:07:54,1556870907,f8c5960a518cbbe2bff7cba3dd379f12_rtbs1_rtbs2_rtbs30ORIGIN23729759end_rtbaff330425_rtboffer23729759_rtbsub,http://www.redclickstarventures.com/pixel.php?aff=9&aff_sub=f8c5960a518cbbe2bff7cba3dd379f12_rtbs1_rtbs2_rtbs30ORIGIN23729759end_rtbaff330425_rtboffer23729759_rtbsub,idfa_0aa9c208-ce6e-4e65-9064-021bcbb41e26,%ED%95%9C%EA%B5%AD%EC%96%B4
ngC2wqrsSPiIbWYwANCBPw,redclickstar,330425__,Install,1.9,211.180.176.22,c039340e-4c6c-498f-aef8-154aceee7c4f,1556868965,2019-05-03 15:36:05,1556869032,2019-05-03 15:37:12,1556869063,9fcb5f28789fc97aec7572ae2c655b50_rtbs1_rtbs2_rtbs30ORIGIN23729759end_rtbaff330425_rtboffer23729759_rtbsub,http://www.redclickstarventures.com/pixel.php?aff=9&aff_sub=9fcb5f28789fc97aec7572ae2c655b50_rtbs1_rtbs2_rtbs30ORIGIN23729759end_rtbaff330425_rtboffer23729759_rtbsub,idfa_c039340e-4c6c-498f-aef8-154aceee7c4f,%ED%95%9C%EA%B5%AD%EC%96%B4
ngC2wqrsSPiIbWYwANCBPw,redclickstar,330425__,Install,1.9,221.133.129.163,75ab914d-3698-46a8-810a-39814ee4d33a,1557188004,2019-05-07 08:13:24,1557188091,2019-05-07 08:14:51,1557188122,8A2qdwd8zinEHCD1Va_rtbs1_rtbs2_rtbs30ORIGIN23729759end_rtbaff330425_rtboffer23729759_rtbsub,http://www.redclickstarventures.com/pixel.php?aff=9&aff_sub=8A2qdwd8zinEHCD1Va_rtbs1_rtbs2_rtbs30ORIGIN23729759end_rtbaff330425_rtboffer23729759_rtbsub,idfa_75ab914d-3698-46a8-810a-39814ee4d33a,%ED%95%9C%EA%B5%AD%EC%96%B4
ngC2wqrsSPiIbWYwANCBPw,redclickstar,330425__,Install,1.9,125.131.149.4,2d9fbf5a-27f5-4314-b684-4bd9478afdc1,1556858075,2019-05-03 12:34:35,1556858130,2019-05-03 12:35:30,1556858160,f9f3921dfcb81b2976934aa1106f4472_rtbs1_rtbs2_rtbs30ORIGIN23729759end_rtbaff330425_rtboffer23729759_rtbsub,http://www.redclickstarventures.com/pixel.php?aff=9&aff_sub=f9f3921dfcb81b2976934aa1106f4472_rtbs1_rtbs2_rtbs30ORIGIN23729759end_rtbaff330425_rtboffer23729759_rtbsub,idfa_2d9fbf5a-27f5-4314-b684-4bd9478afdc1,%ED%95%9C%EA%B5%AD%EC%96%B4
ngC2wqrsSPiIbWYwANCBPw,redclickstar,330425__,Install,1.9,121.183.116.252,d035415f-bc6c-4876-b514-0bab6f86738b,1556868705,2019-05-03 15:31:45,1556868827,2019-05-03 15:33:47,1556868857,d67b0a217ae2a2bc2686d82b6def3040_rtbs1_rtbs2_rtbs30ORIGIN23729759end_rtbaff330425_rtboffer23729759_rtbsub,http://www.redclickstarventures.com/pixel.php?aff=9&aff_sub=d67b0a217ae2a2bc2686d82b6def3040_rtbs1_rtbs2_rtbs30ORIGIN23729759end_rtbaff330425_rtboffer23729759_rtbsub,idfa_d035415f-bc6c-4876-b514-0bab6f86738b,%ED%95%9C%EA%B5%AD%EC%96%B4
ngC2wqrsSPiIbWYwANCBPw,redclickstar,330425__,Install,1.9,211.180.176.21,89a2c764-91b1-4cfb-96a5-6e3fcb64715e,1557192647,2019-05-07 09:30:47,1557192717,2019-05-07 09:31:57,1557192748,1nukdBkLK1LodXdiwF_rtbs1_rtbs2_rtbs30ORIGIN23729759end_rtbaff330425_rtboffer23729759_rtbsub,http://www.redclickstarventures.com/pixel.php?aff=9&aff_sub=1nukdBkLK1LodXdiwF_rtbs1_rtbs2_rtbs30ORIGIN23729759end_rtbaff330425_rtboffer23729759_rtbsub,idfa_89a2c764-91b1-4cfb-96a5-6e3fcb64715e,%ED%95%9C%EA%B5%AD%EC%96%B4
ngC2wqrsSPiIbWYwANCBPw,redclickstar,330425__,Install,1.9,121.136.181.58,62d60034-9629-4bc4-8a50-e5266118f56a,1557193361,2019-05-07 09:42:41,1557193465,2019-05-07 09:44:25,1557193495,tdk1x2C1L1SJqzNgXk_rtbs1_rtbs2_rtbs30ORIGIN23729759end_rtbaff330425_rtboffer23729759_rtbsub,http://www.redclickstarventures.com/pixel.php?aff=9&aff_sub=tdk1x2C1L1SJqzNgXk_rtbs1_rtbs2_rtbs30ORIGIN23729759end_rtbaff330425_rtboffer23729759_rtbsub,idfa_62d60034-9629-4bc4-8a50-e5266118f56a,%ED%95%9C%EA%B5%AD%EC%96%B4
ngC2wqrsSPiIbWYwANCBPw,redclickstar,330425__,Install,1.9,175.212.238.6,3b1ce855-c681-49fa-819f-7be988973e0f,1557192920,2019-05-07 09:35:20,1557193055,2019-05-07 09:37:35,1557193086,bhP6YD9P6ZtlSrSB1a_rtbs1_rtbs2_rtbs30ORIGIN23729759end_rtbaff330425_rtboffer23729759_rtbsub,http://www.redclickstarventures.com/pixel.php?aff=9&aff_sub=bhP6YD9P6ZtlSrSB1a_rtbs1_rtbs2_rtbs30ORIGIN23729759end_rtbaff330425_rtboffer23729759_rtbsub,idfa_3b1ce855-c681-49fa-819f-7be988973e0f,%ED%95%9C%EA%B5%AD%EC%96%B4
ngC2wqrsSPiIbWYwANCBPw,redclickstar,330425__,Install,1.9,60.253.12.90,6a8513fe-13b9-450b-96c7-6f1cb288cb89,1556856864,2019-05-03 12:14:24,1556857002,2019-05-03 12:16:42,1556857033,f4df67f77f9c404b922a1b35ce598dea_rtbs1_rtbs2_rtbs30ORIGIN23729759end_rtbaff330425_rtboffer23729759_rtbsub,http://www.redclickstarventures.com/pixel.php?aff=9&aff_sub=f4df67f77f9c404b922a1b35ce598dea_rtbs1_rtbs2_rtbs30ORIGIN23729759end_rtbaff330425_rtboffer23729759_rtbsub,idfa_6a8513fe-13b9-450b-96c7-6f1cb288cb89,%ED%95%9C%EA%B5%AD%EC%96%B4
ngC2wqrsSPiIbWYwANCBPw,redclickstar,330425__,Install,1.9,61.74.59.248,c2b2c0fc-0efc-46cb-913a-6e844f040f5d,1556876157,2019-05-03 17:35:57,1556876221,2019-05-03 17:37:01,1556876251,c163fd3d50ec97f6af304f7ac3be3875_rtbs1_rtbs2_rtbs30ORIGIN23729759end_rtbaff330425_rtboffer23729759_rtbsub,http://www.redclickstarventures.com/pixel.php?aff=9&aff_sub=c163fd3d50ec97f6af304f7ac3be3875_rtbs1_rtbs2_rtbs30ORIGIN23729759end_rtbaff330425_rtboffer23729759_rtbsub,idfa_c2b2c0fc-0efc-46cb-913a-6e844f040f5d,%ED%95%9C%EA%B5%AD%EC%96%B4
ngC2wqrsSPiIbWYwANCBPw,redclickstar,330425__,Install,1.9,14.42.51.32,45be6a1f-ada1-425e-9c2a-fbe304fb0715,1557196657,2019-05-07 10:37:37,1557196722,2019-05-07 10:38:42,1557196753,A0Cy2ppAoYMQHLbCDt_rtbs1_rtbs2_rtbs30ORIGIN23729759end_rtbaff330425_rtboffer23729759_rtbsub,http://www.redclickstarventures.com/pixel.php?aff=9&aff_sub=A0Cy2ppAoYMQHLbCDt_rtbs1_rtbs2_rtbs30ORIGIN23729759end_rtbaff330425_rtboffer23729759_rtbsub,idfa_45be6a1f-ada1-425e-9c2a-fbe304fb0715,%ED%95%9C%EA%B5%AD%EC%96%B4
ngC2wqrsSPiIbWYwANCBPw,redclickstar,330425__,Install,1.9,220.66.155.2,950430b7-578f-42a7-bc03-6e80b44f93c8,1556856315,2019-05-03 12:05:15,1556856407,2019-05-03 12:06:47,1556856438,25b730fc29840064770e50c5556a9330_rtbs1_rtbs2_rtbs30ORIGIN23729759end_rtbaff330425_rtboffer23729759_rtbsub,http://www.redclickstarventures.com/pixel.php?aff=9&aff_sub=25b730fc29840064770e50c5556a9330_rtbs1_rtbs2_rtbs30ORIGIN23729759end_rtbaff330425_rtboffer23729759_rtbsub,idfa_950430b7-578f-42a7-bc03-6e80b44f93c8,%ED%95%9C%EA%B5%AD%EC%96%B4
ngC2wqrsSPiIbWYwANCBPw,redclickstar,330425__,Install,1.9,112.175.232.147,a84e15ef-f580-4e75-ba9c-e7b1de9a55a6,1557196137,2019-05-07 10:28:57,1557196216,2019-05-07 10:30:16,1557196247,FDAHAELkPaJq0grkx6_rtbs1_rtbs2_rtbs30ORIGIN23729759end_rtbaff330425_rtboffer23729759_rtbsub,http://www.redclickstarventures.com/pixel.php?aff=9&aff_sub=FDAHAELkPaJq0grkx6_rtbs1_rtbs2_rtbs30ORIGIN23729759end_rtbaff330425_rtboffer23729759_rtbsub,idfa_a84e15ef-f580-4e75-ba9c-e7b1de9a55a6,%ED%95%9C%EA%B5%AD%EC%96%B4
ngC2wqrsSPiIbWYwANCBPw,redclickstar,330425__,Install,1.9,106.245.142.82,71311b11-3ba1-4927-8007-0b8c377e392d,1557200852,2019-05-07 11:47:32,1557200965,2019-05-07 11:49:25,1557200995,sXJdkuaJWw4uBzJadl_rtbs1_rtbs2_rtbs30ORIGIN23729759end_rtbaff330425_rtboffer23729759_rtbsub,http://www.redclickstarventures.com/pixel.php?aff=9&aff_sub=sXJdkuaJWw4uBzJadl_rtbs1_rtbs2_rtbs30ORIGIN23729759end_rtbaff330425_rtboffer23729759_rtbsub,idfa_71311b11-3ba1-4927-8007-0b8c377e392d,%ED%95%9C%EA%B5%AD%EC%96%B4
ngC2wqrsSPiIbWYwANCBPw,redclickstar,330425__,Install,1.9,112.72.128.57,975d5832-e679-4bba-9daa-36a5a8e24095,1557189502,2019-05-07 08:38:22,1557189605,2019-05-07 08:40:05,1557189636,DMprHbHOPuXsYwZQrK_rtbs1_rtbs2_rtbs30ORIGIN23729759end_rtbaff330425_rtboffer23729759_rtbsub,http://www.redclickstarventures.com/pixel.php?aff=9&aff_sub=DMprHbHOPuXsYwZQrK_rtbs1_rtbs2_rtbs30ORIGIN23729759end_rtbaff330425_rtboffer23729759_rtbsub,idfa_975d5832-e679-4bba-9daa-36a5a8e24095,%ED%95%9C%EA%B5%AD%EC%96%B4
ngC2wqrsSPiIbWYwANCBPw,redclickstar,330425__,Install,1.9,119.199.178.218,b76874c2-dee9-4ee1-a794-61ea263f860f,1556866544,2019-05-03 14:55:44,1556866649,2019-05-03 14:57:29,1556866679,b954fceb39ee5886353d45a600ff036e_rtbs1_rtbs2_rtbs30ORIGIN23729759end_rtbaff330425_rtboffer23729759_rtbsub,http://www.redclickstarventures.com/pixel.php?aff=9&aff_sub=b954fceb39ee5886353d45a600ff036e_rtbs1_rtbs2_rtbs30ORIGIN23729759end_rtbaff330425_rtboffer23729759_rtbsub,idfa_b76874c2-dee9-4ee1-a794-61ea263f860f,%ED%95%9C%EA%B5%AD%EC%96%B4
ngC2wqrsSPiIbWYwANCBPw,redclickstar,330425__,Install,1.9,114.199.37.238,ff0b1f3d-a7e7-40db-b3ae-974a0d896a5e,1557194253,2019-05-07 09:57:33,1557194335,2019-05-07 09:58:55,1557194366,KkMgWrpz1Bs2DVL7Fk_rtbs1_rtbs2_rtbs30ORIGIN23729759end_rtbaff330425_rtboffer23729759_rtbsub,http://www.redclickstarventures.com/pixel.php?aff=9&aff_sub=KkMgWrpz1Bs2DVL7Fk_rtbs1_rtbs2_rtbs30ORIGIN23729759end_rtbaff330425_rtboffer23729759_rtbsub,idfa_ff0b1f3d-a7e7-40db-b3ae-974a0d896a5e,%ED%95%9C%EA%B5%AD%EC%96%B4
ngC2wqrsSPiIbWYwANCBPw,redclickstar,330425__,Install,1.9,211.254.220.237,81e2fd21-ff81-4c4d-97bb-7c5da1c394d6,1557189306,2019-05-07 08:35:06,1557189429,2019-05-07 08:37:09,1557189460,ia7UMBU18V0Q6q3azE_rtbs1_rtbs2_rtbs30ORIGIN23729759end_rtbaff330425_rtboffer23729759_rtbsub,http://www.redclickstarventures.com/pixel.php?aff=9&aff_sub=ia7UMBU18V0Q6q3azE_rtbs1_rtbs2_rtbs30ORIGIN23729759end_rtbaff330425_rtboffer23729759_rtbsub,idfa_81e2fd21-ff81-4c4d-97bb-7c5da1c394d6,%ED%95%9C%EA%B5%AD%EC%96%B4
ngC2wqrsSPiIbWYwANCBPw,redclickstar,330425__,Install,1.9,1.231.14.207,89215472-1eda-43f9-92a2-c514de49fb56,1557195470,2019-05-07 10:17:50,1557195539,2019-05-07 10:18:59,1557195569,EBdrXhlIwkoWuktrz0_rtbs1_rtbs2_rtbs30ORIGIN23729759end_rtbaff330425_rtboffer23729759_rtbsub,http://www.redclickstarventures.com/pixel.php?aff=9&aff_sub=EBdrXhlIwkoWuktrz0_rtbs1_rtbs2_rtbs30ORIGIN23729759end_rtbaff330425_rtboffer23729759_rtbsub,idfa_89215472-1eda-43f9-92a2-c514de49fb56,%ED%95%9C%EA%B5%AD%EC%96%B4
ngC2wqrsSPiIbWYwANCBPw,redclickstar,330425__,Install,1.9,220.81.21.171,2a8698fb-1c28-45f9-8e79-55bacaa7f97c,1556874634,2019-05-03 17:10:34,1556874710,2019-05-03 17:11:50,1556874741,de6931475a538bb6135562d149644233_rtbs1_rtbs2_rtbs30ORIGIN23729759end_rtbaff330425_rtboffer23729759_rtbsub,http://www.redclickstarventures.com/pixel.php?aff=9&aff_sub=de6931475a538bb6135562d149644233_rtbs1_rtbs2_rtbs30ORIGIN23729759end_rtbaff330425_rtboffer23729759_rtbsub,idfa_2a8698fb-1c28-45f9-8e79-55bacaa7f97c,%ED%95%9C%EA%B5%AD%EC%96%B4
