cid,partner_id,channel_id,action_id,cpi,ip,idfa,click time,click datetime,install time,install datetime,postback time,click id,postback url,unique user id
ngC2wqrsSPiIbWYwANCBPw,redclickstar,321486_337_1029_in-app48_,Install,1.9,218.158.238.131,9851772f-704e-4cb4-8034-a440c8c07b78,1557573942,2019-05-11 19:25:42,1557574093,2019-05-11 19:28:13,1557574123,bhh0451rpJ0X0EeAOCm80ZHggCZ0Kq_rtbs1_rtbs2_rtbs30ORIGIN23729759end_rtbaff321486_rtboffer23729759_rtbsub337_1029_in-app48,http://www.redclickstarventures.com/pixel.php?aff=9&aff_sub=bhh0451rpJ0X0EeAOCm80ZHggCZ0Kq_rtbs1_rtbs2_rtbs30ORIGIN23729759end_rtbaff321486_rtboffer23729759_rtbsub337_1029_in-app48,idfa_9851772f-704e-4cb4-8034-a440c8c07b78,%ED%95%9C%EA%B5%AD%EC%96%B4
ngC2wqrsSPiIbWYwANCBPw,redclickstar,321486_337_1029_in-app48_,Install,1.9,112.218.155.92,d9644c3b-c7f4-49e2-9ff0-95e4edde9788,1557571907,2019-05-11 18:51:47,1557572122,2019-05-11 18:55:22,1557572152,apr0gQU004wJ0HXjp5FCC1SBxm0OZ4_rtbs1_rtbs2_rtbs30ORIGIN23729759end_rtbaff321486_rtboffer23729759_rtbsub337_1029_in-app48,http://www.redclickstarventures.com/pixel.php?aff=9&aff_sub=apr0gQU004wJ0HXjp5FCC1SBxm0OZ4_rtbs1_rtbs2_rtbs30ORIGIN23729759end_rtbaff321486_rtboffer23729759_rtbsub337_1029_in-app48,idfa_d9644c3b-c7f4-49e2-9ff0-95e4edde9788,%ED%95%9C%EA%B5%AD%EC%96%B4
ngC2wqrsSPiIbWYwANCBPw,redclickstar,321486_337_1029_in-app48_,Install,1.9,218.157.37.25,5eb2cf09-cf43-41d8-9720-42a93c3b251a,1557571843,2019-05-11 18:50:43,1557572065,2019-05-11 18:54:25,1557572096,mpJZO000pAci4j0V02H04r6q50AX1C_rtbs1_rtbs2_rtbs30ORIGIN23729759end_rtbaff321486_rtboffer23729759_rtbsub337_1029_in-app48,http://www.redclickstarventures.com/pixel.php?aff=9&aff_sub=mpJZO000pAci4j0V02H04r6q50AX1C_rtbs1_rtbs2_rtbs30ORIGIN23729759end_rtbaff321486_rtboffer23729759_rtbsub337_1029_in-app48,idfa_5eb2cf09-cf43-41d8-9720-42a93c3b251a,%ED%95%9C%EA%B5%AD%EC%96%B4
ngC2wqrsSPiIbWYwANCBPw,redclickstar,321486_337_1029_in-app48_,Install,1.9,112.222.68.235,72f081d7-8878-403c-987a-38416d3a4936,1557572926,2019-05-11 19:08:46,1557573063,2019-05-11 19:11:03,1557573093,jr0phCRORp5JX010QmZH0ZAUuyX4P0_rtbs1_rtbs2_rtbs30ORIGIN23729759end_rtbaff321486_rtboffer23729759_rtbsub337_1029_in-app48,http://www.redclickstarventures.com/pixel.php?aff=9&aff_sub=jr0phCRORp5JX010QmZH0ZAUuyX4P0_rtbs1_rtbs2_rtbs30ORIGIN23729759end_rtbaff321486_rtboffer23729759_rtbsub337_1029_in-app48,idfa_72f081d7-8878-403c-987a-38416d3a4936,%ED%95%9C%EA%B5%AD%EC%96%B4
ngC2wqrsSPiIbWYwANCBPw,redclickstar,321486_337_1029_in-app48_,Install,1.9,121.151.86.155,6d68d186-69a6-4c6a-8d9c-ad36ee12b631,1557571959,2019-05-11 18:52:39,1557572118,2019-05-11 18:55:18,1557572149,8r0v0g30CH0rOpZJP5XDhodSB401Bp_rtbs1_rtbs2_rtbs30ORIGIN23729759end_rtbaff321486_rtboffer23729759_rtbsub337_1029_in-app48,http://www.redclickstarventures.com/pixel.php?aff=9&aff_sub=8r0v0g30CH0rOpZJP5XDhodSB401Bp_rtbs1_rtbs2_rtbs30ORIGIN23729759end_rtbaff321486_rtboffer23729759_rtbsub337_1029_in-app48,idfa_6d68d186-69a6-4c6a-8d9c-ad36ee12b631,%ED%95%9C%EA%B5%AD%EC%96%B4
ngC2wqrsSPiIbWYwANCBPw,redclickstar,321486_337_1029_in-app48_,Install,1.9,183.104.44.131,43a64157-1f63-4723-8876-5f70d94abc61,1557571515,2019-05-11 18:45:15,1557571694,2019-05-11 18:48:14,1557571724,Mv0ri5JpZpn0H00J0gCZ114uYcugXO_rtbs1_rtbs2_rtbs30ORIGIN23729759end_rtbaff321486_rtboffer23729759_rtbsub337_1029_in-app48,http://www.redclickstarventures.com/pixel.php?aff=9&aff_sub=Mv0ri5JpZpn0H00J0gCZ114uYcugXO_rtbs1_rtbs2_rtbs30ORIGIN23729759end_rtbaff321486_rtboffer23729759_rtbsub337_1029_in-app48,idfa_43a64157-1f63-4723-8876-5f70d94abc61,%ED%95%9C%EA%B5%AD%EC%96%B4
ngC2wqrsSPiIbWYwANCBPw,redclickstar,321486_337_1029_in-app48_,Install,1.9,14.50.174.250,e63d333e-1547-4801-8ec3-0b9164ff6f28,1557573162,2019-05-11 19:12:42,1557573371,2019-05-11 19:16:11,1557573401,o7r1JO0nTpCM0g4OZe0aVXHp0i5l0u_rtbs1_rtbs2_rtbs30ORIGIN23729759end_rtbaff321486_rtboffer23729759_rtbsub337_1029_in-app48,http://www.redclickstarventures.com/pixel.php?aff=9&aff_sub=o7r1JO0nTpCM0g4OZe0aVXHp0i5l0u_rtbs1_rtbs2_rtbs30ORIGIN23729759end_rtbaff321486_rtboffer23729759_rtbsub337_1029_in-app48,idfa_e63d333e-1547-4801-8ec3-0b9164ff6f28,%ED%95%9C%EA%B5%AD%EC%96%B4
ngC2wqrsSPiIbWYwANCBPw,redclickstar,321486_337_1029_in-app48_,Install,1.9,211.199.50.77,c4cb855c-f0b6-48b0-a2c5-b7e8b86774cb,1557574117,2019-05-11 19:28:37,1557574269,2019-05-11 19:31:09,1557574300,aqr0prn004vJ0HXhp5M6C1caiD0OZO_rtbs1_rtbs2_rtbs30ORIGIN23729759end_rtbaff321486_rtboffer23729759_rtbsub337_1029_in-app48,http://www.redclickstarventures.com/pixel.php?aff=9&aff_sub=aqr0prn004vJ0HXhp5M6C1caiD0OZO_rtbs1_rtbs2_rtbs30ORIGIN23729759end_rtbaff321486_rtboffer23729759_rtbsub337_1029_in-app48,idfa_c4cb855c-f0b6-48b0-a2c5-b7e8b86774cb,%ED%95%9C%EA%B5%AD%EC%96%B4
ngC2wqrsSPiIbWYwANCBPw,redclickstar,321486_337_1029_in-app48_,Install,1.9,118.34.26.107,d9d0af0b-613c-4d8b-98a3-d01a0da04631,1557571498,2019-05-11 18:44:58,1557571659,2019-05-11 18:47:39,1557571690,bQj0451rpJ0X08X6Owku0NHfzCZ0Pp_rtbs1_rtbs2_rtbs30ORIGIN23729759end_rtbaff321486_rtboffer23729759_rtbsub337_1029_in-app48,http://www.redclickstarventures.com/pixel.php?aff=9&aff_sub=bQj0451rpJ0X08X6Owku0NHfzCZ0Pp_rtbs1_rtbs2_rtbs30ORIGIN23729759end_rtbaff321486_rtboffer23729759_rtbsub337_1029_in-app48,idfa_d9d0af0b-613c-4d8b-98a3-d01a0da04631,%ED%95%9C%EA%B5%AD%EC%96%B4
ngC2wqrsSPiIbWYwANCBPw,redclickstar,321486_337_1029_in-app48_,Install,1.9,1.177.118.210,bf306b88-c068-487f-9fbc-47b5512df905,1557572236,2019-05-11 18:57:16,1557572398,2019-05-11 18:59:58,1557572429,apr0MVN004fJ0HXip5WjC1QGoy0OZq_rtbs1_rtbs2_rtbs30ORIGIN23729759end_rtbaff321486_rtboffer23729759_rtbsub337_1029_in-app48,http://www.redclickstarventures.com/pixel.php?aff=9&aff_sub=apr0MVN004fJ0HXip5WjC1QGoy0OZq_rtbs1_rtbs2_rtbs30ORIGIN23729759end_rtbaff321486_rtboffer23729759_rtbsub337_1029_in-app48,idfa_bf306b88-c068-487f-9fbc-47b5512df905,%ED%95%9C%EA%B5%AD%EC%96%B4
ngC2wqrsSPiIbWYwANCBPw,redclickstar,321486_337_1029_in-app48_,Install,1.9,125.139.180.128,946dc964-a3eb-45b3-8bfd-f909b6e38084,1557573381,2019-05-11 19:16:21,1557573509,2019-05-11 19:18:29,1557573539,b8j0451rpJ0X0lp6OAFZ0NHmdCZ0kp_rtbs1_rtbs2_rtbs30ORIGIN23729759end_rtbaff321486_rtboffer23729759_rtbsub337_1029_in-app48,http://www.redclickstarventures.com/pixel.php?aff=9&aff_sub=b8j0451rpJ0X0lp6OAFZ0NHmdCZ0kp_rtbs1_rtbs2_rtbs30ORIGIN23729759end_rtbaff321486_rtboffer23729759_rtbsub337_1029_in-app48,idfa_946dc964-a3eb-45b3-8bfd-f909b6e38084,%ED%95%9C%EA%B5%AD%EC%96%B4
ngC2wqrsSPiIbWYwANCBPw,redclickstar,321486_337_1029_in-app48_,Install,1.9,220.66.155.2,4e125ee7-841a-466c-8bc9-0700cf4dfc46,1557572459,2019-05-11 19:00:59,1557572602,2019-05-11 19:03:22,1557572638,tr0gg14ZKJCiR300j1QXpO950EaH0p_rtbs1_rtbs2_rtbs30ORIGIN23729759end_rtbaff321486_rtboffer23729759_rtbsub337_1029_in-app48,http://www.redclickstarventures.com/pixel.php?aff=9&aff_sub=tr0gg14ZKJCiR300j1QXpO950EaH0p_rtbs1_rtbs2_rtbs30ORIGIN23729759end_rtbaff321486_rtboffer23729759_rtbsub337_1029_in-app48,idfa_4e125ee7-841a-466c-8bc9-0700cf4dfc46,%ED%95%9C%EA%B5%AD%EC%96%B4
ngC2wqrsSPiIbWYwANCBPw,redclickstar,321486_337_1029_in-app48_,Install,1.9,14.42.105.160,4480bc5a-3375-4d51-ad24-f2c902e6577a,1557570892,2019-05-11 18:34:52,1557571045,2019-05-11 18:37:25,1557571075,B14X00rNpk0Jm1jc0EZHi0OSoCa5pO_rtbs1_rtbs2_rtbs30ORIGIN23729759end_rtbaff321486_rtboffer23729759_rtbsub337_1029_in-app48,http://www.redclickstarventures.com/pixel.php?aff=9&aff_sub=B14X00rNpk0Jm1jc0EZHi0OSoCa5pO_rtbs1_rtbs2_rtbs30ORIGIN23729759end_rtbaff321486_rtboffer23729759_rtbsub337_1029_in-app48,idfa_4480bc5a-3375-4d51-ad24-f2c902e6577a,%ED%95%9C%EA%B5%AD%EC%96%B4
ngC2wqrsSPiIbWYwANCBPw,redclickstar,321486_337_1029_in-app48_,Install,1.9,121.179.189.226,a7ba97ba-508a-4c88-8bf2-f2ec7d91f85e,1557571837,2019-05-11 18:50:37,1557572066,2019-05-11 18:54:26,1557572097,eYb552JizX0C4rzR00C10OgmZpH9p0_rtbs1_rtbs2_rtbs30ORIGIN23729759end_rtbaff321486_rtboffer23729759_rtbsub337_1029_in-app48,http://www.redclickstarventures.com/pixel.php?aff=9&aff_sub=eYb552JizX0C4rzR00C10OgmZpH9p0_rtbs1_rtbs2_rtbs30ORIGIN23729759end_rtbaff321486_rtboffer23729759_rtbsub337_1029_in-app48,idfa_a7ba97ba-508a-4c88-8bf2-f2ec7d91f85e,%ED%95%9C%EA%B5%AD%EC%96%B4
ngC2wqrsSPiIbWYwANCBPw,redclickstar,321486_337_1029_in-app48_,Install,1.9,59.21.169.165,24c6b7ef-6d8b-4892-afd7-e6585c24ac6d,1557572927,2019-05-11 19:08:47,1557573082,2019-05-11 19:11:22,1557573112,TJ0HZ00nr19pv4ZC0hOXR0Q3rMEp5H_rtbs1_rtbs2_rtbs30ORIGIN23729759end_rtbaff321486_rtboffer23729759_rtbsub337_1029_in-app48,http://www.redclickstarventures.com/pixel.php?aff=9&aff_sub=TJ0HZ00nr19pv4ZC0hOXR0Q3rMEp5H_rtbs1_rtbs2_rtbs30ORIGIN23729759end_rtbaff321486_rtboffer23729759_rtbsub337_1029_in-app48,idfa_24c6b7ef-6d8b-4892-afd7-e6585c24ac6d,%ED%95%9C%EA%B5%AD%EC%96%B4
ngC2wqrsSPiIbWYwANCBPw,redclickstar,321486_337_1029_in-app48_,Install,1.9,116.126.165.218,e69b5c6b-205f-4c9e-b228-a6e9840b0a5e,1557573801,2019-05-11 19:23:21,1557574018,2019-05-11 19:26:58,1557574065,1w00Hq0pvS51LXQ0H54CrZJhjO0qJk_rtbs1_rtbs2_rtbs30ORIGIN23729759end_rtbaff321486_rtboffer23729759_rtbsub337_1029_in-app48,http://www.redclickstarventures.com/pixel.php?aff=9&aff_sub=1w00Hq0pvS51LXQ0H54CrZJhjO0qJk_rtbs1_rtbs2_rtbs30ORIGIN23729759end_rtbaff321486_rtboffer23729759_rtbsub337_1029_in-app48,idfa_e69b5c6b-205f-4c9e-b228-a6e9840b0a5e,%ED%95%9C%EA%B5%AD%EC%96%B4
ngC2wqrsSPiIbWYwANCBPw,redclickstar,321486_337_1029_in-app48_,Install,1.9,182.218.203.142,12583ea6-bbfd-4f9f-bf3c-816dee9f697c,1557573503,2019-05-11 19:18:23,1557573670,2019-05-11 19:21:10,1557573701,30pRQC5JaO0q6Hk0irG1Zz000X0gA4_rtbs1_rtbs2_rtbs30ORIGIN23729759end_rtbaff321486_rtboffer23729759_rtbsub337_1029_in-app48,http://www.redclickstarventures.com/pixel.php?aff=9&aff_sub=30pRQC5JaO0q6Hk0irG1Zz000X0gA4_rtbs1_rtbs2_rtbs30ORIGIN23729759end_rtbaff321486_rtboffer23729759_rtbsub337_1029_in-app48,idfa_12583ea6-bbfd-4f9f-bf3c-816dee9f697c,%ED%95%9C%EA%B5%AD%EC%96%B4
ngC2wqrsSPiIbWYwANCBPw,redclickstar,321486_337_1029_in-app48_,Install,1.9,211.210.61.183,bbef2051-944a-4ab6-a67f-ec58b5660d7b,1557572184,2019-05-11 18:56:24,1557572361,2019-05-11 18:59:21,1557572392,kJ450UirCm0pHXZ10c00OWSYOZpFnr_rtbs1_rtbs2_rtbs30ORIGIN23729759end_rtbaff321486_rtboffer23729759_rtbsub337_1029_in-app48,http://www.redclickstarventures.com/pixel.php?aff=9&aff_sub=kJ450UirCm0pHXZ10c00OWSYOZpFnr_rtbs1_rtbs2_rtbs30ORIGIN23729759end_rtbaff321486_rtboffer23729759_rtbsub337_1029_in-app48,idfa_bbef2051-944a-4ab6-a67f-ec58b5660d7b,%ED%95%9C%EA%B5%AD%EC%96%B4
ngC2wqrsSPiIbWYwANCBPw,redclickstar,321486_337_1029_in-app48_,Install,1.9,175.112.188.68,bb38083c-d766-4124-8b44-af43c71acab2,1557571030,2019-05-11 18:37:10,1557571154,2019-05-11 18:39:14,1557571184,kJ450yjrC60pHXS10N00Re2uOZpnMe_rtbs1_rtbs2_rtbs30ORIGIN23729759end_rtbaff321486_rtboffer23729759_rtbsub337_1029_in-app48,http://www.redclickstarventures.com/pixel.php?aff=9&aff_sub=kJ450yjrC60pHXS10N00Re2uOZpnMe_rtbs1_rtbs2_rtbs30ORIGIN23729759end_rtbaff321486_rtboffer23729759_rtbsub337_1029_in-app48,idfa_bb38083c-d766-4124-8b44-af43c71acab2,%ED%95%9C%EA%B5%AD%EC%96%B4
ngC2wqrsSPiIbWYwANCBPw,redclickstar,321486_337_1029_in-app48_,Install,1.9,175.125.211.189,3a46cda7-dff2-47d5-997b-313d724cfba9,1557572865,2019-05-11 19:07:45,1557573036,2019-05-11 19:10:36,1557573066,VBWXZ4z0Pi050JQjpQp00hnOrHg0C1_rtbs1_rtbs2_rtbs30ORIGIN23729759end_rtbaff321486_rtboffer23729759_rtbsub337_1029_in-app48,http://www.redclickstarventures.com/pixel.php?aff=9&aff_sub=VBWXZ4z0Pi050JQjpQp00hnOrHg0C1_rtbs1_rtbs2_rtbs30ORIGIN23729759end_rtbaff321486_rtboffer23729759_rtbsub337_1029_in-app48,idfa_3a46cda7-dff2-47d5-997b-313d724cfba9,%ED%95%9C%EA%B5%AD%EC%96%B4
ngC2wqrsSPiIbWYwANCBPw,redclickstar,321486_337_1029_in-app48_,Install,1.9,211.54.74.50,5ef8bbe6-d302-48f4-8583-fbee59a7fdaa,1557574102,2019-05-11 19:28:22,1557574258,2019-05-11 19:30:58,1557574289,UN0Hn4hJCJp5M1n84Oa0L00AXZ0qrh_rtbs1_rtbs2_rtbs30ORIGIN23729759end_rtbaff321486_rtboffer23729759_rtbsub337_1029_in-app48,http://www.redclickstarventures.com/pixel.php?aff=9&aff_sub=UN0Hn4hJCJp5M1n84Oa0L00AXZ0qrh_rtbs1_rtbs2_rtbs30ORIGIN23729759end_rtbaff321486_rtboffer23729759_rtbsub337_1029_in-app48,idfa_5ef8bbe6-d302-48f4-8583-fbee59a7fdaa,%ED%95%9C%EA%B5%AD%EC%96%B4
