cid,partner_id,channel_id,action_id,cpi,ip,idfa,click time,click datetime,install time,install datetime,postback time,click id,postback url,unique user id
Y-p9Yo4qTV2B9DzrZi31xA,redclickstar,324305_4579_218_,Install,1.7,220.76.251.168,1a0c8597-5d57-4cf1-a514-ac69ec923260,1558623417,2019-05-23 22:56:57,1558623523,2019-05-23 22:58:43,1558623525,10190523145627143c81ch220762511681_rtbs1_rtbs2_rtbs30ORIGIN23933865end_rtbaff324305_rtboffer23933865_rtbsub4579_218,http://www.redclickstarventures.com/pixel.php?aff=9&aff_sub=10190523145627143c81ch220762511681_rtbs1_rtbs2_rtbs30ORIGIN23933865end_rtbaff324305_rtboffer23933865_rtbsub4579_218,idfa_1a0c8597-5d57-4cf1-a514-ac69ec923260,ko
Y-p9Yo4qTV2B9DzrZi31xA,redclickstar,324305_4579_218_,Install,1.7,175.236.156.204,f93f3b02-3a3d-40a4-b044-1967c7020ca8,1558623432,2019-05-23 22:57:12,1558623509,2019-05-23 22:58:29,1558623511,15190523145727143c81se1752361562041_rtbs1_rtbs2_rtbs30ORIGIN23933865end_rtbaff324305_rtboffer23933865_rtbsub4579_218,http://www.redclickstarventures.com/pixel.php?aff=9&aff_sub=15190523145727143c81se1752361562041_rtbs1_rtbs2_rtbs30ORIGIN23933865end_rtbaff324305_rtboffer23933865_rtbsub4579_218,idfa_f93f3b02-3a3d-40a4-b044-1967c7020ca8,ko
Y-p9Yo4qTV2B9DzrZi31xA,redclickstar,324305_4579_218_,Install,1.7,211.169.209.130,8a965ba2-ba56-4fa2-96a1-83ede3caf52e,1558626292,2019-05-23 23:44:52,1558626350,2019-05-23 23:45:50,1558626351,11190523154427143c81se2111692091301_rtbs1_rtbs2_rtbs30ORIGIN23933865end_rtbaff324305_rtboffer23933865_rtbsub4579_218,http://www.redclickstarventures.com/pixel.php?aff=9&aff_sub=11190523154427143c81se2111692091301_rtbs1_rtbs2_rtbs30ORIGIN23933865end_rtbaff324305_rtboffer23933865_rtbsub4579_218,idfa_8a965ba2-ba56-4fa2-96a1-83ede3caf52e,ko
Y-p9Yo4qTV2B9DzrZi31xA,redclickstar,324305_4579_218_,Install,1.7,210.95.214.130,b2c27ca3-13a7-46d1-b682-6648fb2eb6f2,1558624902,2019-05-23 23:21:42,1558624988,2019-05-23 23:23:08,1558624989,15190523152127143c81ch210952141301_rtbs1_rtbs2_rtbs30ORIGIN23933865end_rtbaff324305_rtboffer23933865_rtbsub4579_218,http://www.redclickstarventures.com/pixel.php?aff=9&aff_sub=15190523152127143c81ch210952141301_rtbs1_rtbs2_rtbs30ORIGIN23933865end_rtbaff324305_rtboffer23933865_rtbsub4579_218,idfa_b2c27ca3-13a7-46d1-b682-6648fb2eb6f2,ko
Y-p9Yo4qTV2B9DzrZi31xA,redclickstar,324305_4579_218_,Install,1.7,183.103.205.76,842067e9-60bb-47f7-870c-c4fc28d872f5,1558628070,2019-05-24 00:14:30,1558628176,2019-05-24 00:16:16,1558628178,5190523161427143c81ch183103205761_rtbs1_rtbs2_rtbs30ORIGIN23933865end_rtbaff324305_rtboffer23933865_rtbsub4579_218,http://www.redclickstarventures.com/pixel.php?aff=9&aff_sub=5190523161427143c81ch183103205761_rtbs1_rtbs2_rtbs30ORIGIN23933865end_rtbaff324305_rtboffer23933865_rtbsub4579_218,idfa_842067e9-60bb-47f7-870c-c4fc28d872f5,ko
Y-p9Yo4qTV2B9DzrZi31xA,redclickstar,324305_4579_218_,Install,1.7,114.30.165.109,d6224e80-ec7f-4aa1-85ba-43c8572d0b48,1558625254,2019-05-23 23:27:34,1558625426,2019-05-23 23:30:26,1558625427,17190523152727143c81se114301651091_rtbs1_rtbs2_rtbs30ORIGIN23933865end_rtbaff324305_rtboffer23933865_rtbsub4579_218,http://www.redclickstarventures.com/pixel.php?aff=9&aff_sub=17190523152727143c81se114301651091_rtbs1_rtbs2_rtbs30ORIGIN23933865end_rtbaff324305_rtboffer23933865_rtbsub4579_218,idfa_d6224e80-ec7f-4aa1-85ba-43c8572d0b48,ko
Y-p9Yo4qTV2B9DzrZi31xA,redclickstar,324305_4579_218_,Install,1.7,121.131.98.250,9e88392a-f045-4bd8-a644-f9af6a7a70ae,1558627610,2019-05-24 00:06:50,1558627726,2019-05-24 00:08:46,1558627727,12190523160627143c81ch121131982501_rtbs1_rtbs2_rtbs30ORIGIN23933865end_rtbaff324305_rtboffer23933865_rtbsub4579_218,http://www.redclickstarventures.com/pixel.php?aff=9&aff_sub=12190523160627143c81ch121131982501_rtbs1_rtbs2_rtbs30ORIGIN23933865end_rtbaff324305_rtboffer23933865_rtbsub4579_218,idfa_9e88392a-f045-4bd8-a644-f9af6a7a70ae,ko
Y-p9Yo4qTV2B9DzrZi31xA,redclickstar,324305_4579_218_,Install,1.7,113.198.1.118,506221bb-7d2a-420f-a2bf-eac04382a4b6,1558626620,2019-05-23 23:50:20,1558626733,2019-05-23 23:52:13,1558626736,12190523155027143c81se11319811181_rtbs1_rtbs2_rtbs30ORIGIN23933865end_rtbaff324305_rtboffer23933865_rtbsub4579_218,http://www.redclickstarventures.com/pixel.php?aff=9&aff_sub=12190523155027143c81se11319811181_rtbs1_rtbs2_rtbs30ORIGIN23933865end_rtbaff324305_rtboffer23933865_rtbsub4579_218,idfa_506221bb-7d2a-420f-a2bf-eac04382a4b6,ko
Y-p9Yo4qTV2B9DzrZi31xA,redclickstar,324305_4579_218_,Install,1.7,1.255.70.114,ad794e0b-f98b-4fcc-bbc3-de77781e4277,1558625911,2019-05-23 23:38:31,1558625958,2019-05-23 23:39:18,1558625961,14190523153827143c81ch1255701141_rtbs1_rtbs2_rtbs30ORIGIN23933865end_rtbaff324305_rtboffer23933865_rtbsub4579_218,http://www.redclickstarventures.com/pixel.php?aff=9&aff_sub=14190523153827143c81ch1255701141_rtbs1_rtbs2_rtbs30ORIGIN23933865end_rtbaff324305_rtboffer23933865_rtbsub4579_218,idfa_ad794e0b-f98b-4fcc-bbc3-de77781e4277,ko
Y-p9Yo4qTV2B9DzrZi31xA,redclickstar,324305_4579_218_,Install,1.7,112.216.15.226,8a423647-3d8b-46da-90b8-21b5a53bf6e7,1558628118,2019-05-24 00:15:18,1558628199,2019-05-24 00:16:39,1558628200,16190523161527143c81ch112216152261_rtbs1_rtbs2_rtbs30ORIGIN23933865end_rtbaff324305_rtboffer23933865_rtbsub4579_218,http://www.redclickstarventures.com/pixel.php?aff=9&aff_sub=16190523161527143c81ch112216152261_rtbs1_rtbs2_rtbs30ORIGIN23933865end_rtbaff324305_rtboffer23933865_rtbsub4579_218,idfa_8a423647-3d8b-46da-90b8-21b5a53bf6e7,ko
Y-p9Yo4qTV2B9DzrZi31xA,redclickstar,324305_4579_218_,Install,1.7,183.97.106.140,d96dec72-d52e-4b6e-bba0-2be0228c665f,1558624478,2019-05-23 23:14:38,1558624591,2019-05-23 23:16:31,1558624592,7190523151427143c81se183971061401_rtbs1_rtbs2_rtbs30ORIGIN23933865end_rtbaff324305_rtboffer23933865_rtbsub4579_218,http://www.redclickstarventures.com/pixel.php?aff=9&aff_sub=7190523151427143c81se183971061401_rtbs1_rtbs2_rtbs30ORIGIN23933865end_rtbaff324305_rtboffer23933865_rtbsub4579_218,idfa_d96dec72-d52e-4b6e-bba0-2be0228c665f,ko
Y-p9Yo4qTV2B9DzrZi31xA,redclickstar,324305_4579_218_,Install,1.7,118.63.20.103,a259fdc8-4c0f-46e5-8202-ab3005c44c62,1558626612,2019-05-23 23:50:12,1558626797,2019-05-23 23:53:17,1558626798,7190523154927143c81se11863201031_rtbs1_rtbs2_rtbs30ORIGIN23933865end_rtbaff324305_rtboffer23933865_rtbsub4579_218,http://www.redclickstarventures.com/pixel.php?aff=9&aff_sub=7190523154927143c81se11863201031_rtbs1_rtbs2_rtbs30ORIGIN23933865end_rtbaff324305_rtboffer23933865_rtbsub4579_218,idfa_a259fdc8-4c0f-46e5-8202-ab3005c44c62,ko
Y-p9Yo4qTV2B9DzrZi31xA,redclickstar,324305_4579_218_,Install,1.7,211.221.155.6,f1f94c17-a65f-4808-94ca-0342585dd3dc,1558628379,2019-05-24 00:19:39,1558628497,2019-05-24 00:21:37,1558628499,9190523161927143c81ch21122115561_rtbs1_rtbs2_rtbs30ORIGIN23933865end_rtbaff324305_rtboffer23933865_rtbsub4579_218,http://www.redclickstarventures.com/pixel.php?aff=9&aff_sub=9190523161927143c81ch21122115561_rtbs1_rtbs2_rtbs30ORIGIN23933865end_rtbaff324305_rtboffer23933865_rtbsub4579_218,idfa_f1f94c17-a65f-4808-94ca-0342585dd3dc,ko
Y-p9Yo4qTV2B9DzrZi31xA,redclickstar,324305_4579_218_,Install,1.7,118.33.122.60,3c1af314-fe4a-4944-b418-6b560f951328,1558627537,2019-05-24 00:05:37,1558627693,2019-05-24 00:08:13,1558627696,0190523160527143c81se11833122601_rtbs1_rtbs2_rtbs30ORIGIN23933865end_rtbaff324305_rtboffer23933865_rtbsub4579_218,http://www.redclickstarventures.com/pixel.php?aff=9&aff_sub=0190523160527143c81se11833122601_rtbs1_rtbs2_rtbs30ORIGIN23933865end_rtbaff324305_rtboffer23933865_rtbsub4579_218,idfa_3c1af314-fe4a-4944-b418-6b560f951328,ko
Y-p9Yo4qTV2B9DzrZi31xA,redclickstar,324305_4579_218_,Install,1.7,220.73.80.174,2e37cf28-a886-4a7b-b7eb-de66ad13485e,1558627236,2019-05-24 00:00:36,1558627300,2019-05-24 00:01:40,1558627302,4190523160027143c81ch22073801741_rtbs1_rtbs2_rtbs30ORIGIN23933865end_rtbaff324305_rtboffer23933865_rtbsub4579_218,http://www.redclickstarventures.com/pixel.php?aff=9&aff_sub=4190523160027143c81ch22073801741_rtbs1_rtbs2_rtbs30ORIGIN23933865end_rtbaff324305_rtboffer23933865_rtbsub4579_218,idfa_2e37cf28-a886-4a7b-b7eb-de66ad13485e,ko
Y-p9Yo4qTV2B9DzrZi31xA,redclickstar,324305_4579_218_,Install,1.7,220.76.251.168,ae4f6c7a-c256-4d34-90bf-d5d093b8ecf4,1558623956,2019-05-23 23:05:56,1558624071,2019-05-23 23:07:51,1558624072,5190523150527143c81se220762511681_rtbs1_rtbs2_rtbs30ORIGIN23933865end_rtbaff324305_rtboffer23933865_rtbsub4579_218,http://www.redclickstarventures.com/pixel.php?aff=9&aff_sub=5190523150527143c81se220762511681_rtbs1_rtbs2_rtbs30ORIGIN23933865end_rtbaff324305_rtboffer23933865_rtbsub4579_218,idfa_ae4f6c7a-c256-4d34-90bf-d5d093b8ecf4,ko
Y-p9Yo4qTV2B9DzrZi31xA,redclickstar,324305_4579_218_,Install,1.7,49.246.89.251,63173c6f-7474-46a7-87d5-a0e2df44e112,1558625416,2019-05-23 23:30:16,1558625482,2019-05-23 23:31:22,1558625483,9190523153027143c81se49246892511_rtbs1_rtbs2_rtbs30ORIGIN23933865end_rtbaff324305_rtboffer23933865_rtbsub4579_218,http://www.redclickstarventures.com/pixel.php?aff=9&aff_sub=9190523153027143c81se49246892511_rtbs1_rtbs2_rtbs30ORIGIN23933865end_rtbaff324305_rtboffer23933865_rtbsub4579_218,idfa_63173c6f-7474-46a7-87d5-a0e2df44e112,ko
Y-p9Yo4qTV2B9DzrZi31xA,redclickstar,324305_4579_218_,Install,1.7,222.121.170.21,d29eee3f-c173-4e1c-b604-a03a393f2200,1558626609,2019-05-23 23:50:09,1558626726,2019-05-23 23:52:06,1558626728,16190523154927143c81se222121170211_rtbs1_rtbs2_rtbs30ORIGIN23933865end_rtbaff324305_rtboffer23933865_rtbsub4579_218,http://www.redclickstarventures.com/pixel.php?aff=9&aff_sub=16190523154927143c81se222121170211_rtbs1_rtbs2_rtbs30ORIGIN23933865end_rtbaff324305_rtboffer23933865_rtbsub4579_218,idfa_d29eee3f-c173-4e1c-b604-a03a393f2200,ko
Y-p9Yo4qTV2B9DzrZi31xA,redclickstar,324305_4579_218_,Install,1.7,220.69.182.253,3578b8d8-2c0f-4a5f-9878-e12860d00afb,1558623330,2019-05-23 22:55:30,1558623494,2019-05-23 22:58:14,1558623501,8190523145527143c81ch220691822531_rtbs1_rtbs2_rtbs30ORIGIN23933865end_rtbaff324305_rtboffer23933865_rtbsub4579_218,http://www.redclickstarventures.com/pixel.php?aff=9&aff_sub=8190523145527143c81ch220691822531_rtbs1_rtbs2_rtbs30ORIGIN23933865end_rtbaff324305_rtboffer23933865_rtbsub4579_218,idfa_3578b8d8-2c0f-4a5f-9878-e12860d00afb,ko
Y-p9Yo4qTV2B9DzrZi31xA,redclickstar,324305_4579_218_,Install,1.7,175.230.39.122,6a57a628-2049-4c92-8aeb-4cf28f47e32b,1558622548,2019-05-23 22:42:28,1558622601,2019-05-23 22:43:21,1558622603,18190523144227143c81ch175230391221_rtbs1_rtbs2_rtbs30ORIGIN23933865end_rtbaff324305_rtboffer23933865_rtbsub4579_218,http://www.redclickstarventures.com/pixel.php?aff=9&aff_sub=18190523144227143c81ch175230391221_rtbs1_rtbs2_rtbs30ORIGIN23933865end_rtbaff324305_rtboffer23933865_rtbsub4579_218,idfa_6a57a628-2049-4c92-8aeb-4cf28f47e32b,ko
Y-p9Yo4qTV2B9DzrZi31xA,redclickstar,324305_4579_218_,Install,1.7,119.66.102.7,ad89ee1f-f9a4-444c-9b9f-6b0eca8307a1,1558624425,2019-05-23 23:13:45,1558624496,2019-05-23 23:14:56,1558624497,11190523151327143c81se1196610271_rtbs1_rtbs2_rtbs30ORIGIN23933865end_rtbaff324305_rtboffer23933865_rtbsub4579_218,http://www.redclickstarventures.com/pixel.php?aff=9&aff_sub=11190523151327143c81se1196610271_rtbs1_rtbs2_rtbs30ORIGIN23933865end_rtbaff324305_rtboffer23933865_rtbsub4579_218,idfa_ad89ee1f-f9a4-444c-9b9f-6b0eca8307a1,ko
Y-p9Yo4qTV2B9DzrZi31xA,redclickstar,324305_4579_218_,Install,1.7,211.224.188.72,810153d0-2b8b-477f-a93a-e47a4f645b8d,1558624635,2019-05-23 23:17:15,1558624753,2019-05-23 23:19:13,1558624755,2190523151727143c81ch211224188721_rtbs1_rtbs2_rtbs30ORIGIN23933865end_rtbaff324305_rtboffer23933865_rtbsub4579_218,http://www.redclickstarventures.com/pixel.php?aff=9&aff_sub=2190523151727143c81ch211224188721_rtbs1_rtbs2_rtbs30ORIGIN23933865end_rtbaff324305_rtboffer23933865_rtbsub4579_218,idfa_810153d0-2b8b-477f-a93a-e47a4f645b8d,ko
Y-p9Yo4qTV2B9DzrZi31xA,redclickstar,324305_4579_218_,Install,1.7,27.116.255.152,8a3bf1c1-40f4-4eeb-9c08-deda3c90c476,1558625301,2019-05-23 23:28:21,1558625357,2019-05-23 23:29:17,1558625359,14190523152827143c81se271162551521_rtbs1_rtbs2_rtbs30ORIGIN23933865end_rtbaff324305_rtboffer23933865_rtbsub4579_218,http://www.redclickstarventures.com/pixel.php?aff=9&aff_sub=14190523152827143c81se271162551521_rtbs1_rtbs2_rtbs30ORIGIN23933865end_rtbaff324305_rtboffer23933865_rtbsub4579_218,idfa_8a3bf1c1-40f4-4eeb-9c08-deda3c90c476,ko
Y-p9Yo4qTV2B9DzrZi31xA,redclickstar,324305_4579_218_,Install,1.7,1.234.82.100,6e576493-27fb-4c14-a7d5-2b0a54fb8750,1558625076,2019-05-23 23:24:36,1558625203,2019-05-23 23:26:43,1558625204,9190523152427143c81ch1234821001_rtbs1_rtbs2_rtbs30ORIGIN23933865end_rtbaff324305_rtboffer23933865_rtbsub4579_218,http://www.redclickstarventures.com/pixel.php?aff=9&aff_sub=9190523152427143c81ch1234821001_rtbs1_rtbs2_rtbs30ORIGIN23933865end_rtbaff324305_rtboffer23933865_rtbsub4579_218,idfa_6e576493-27fb-4c14-a7d5-2b0a54fb8750,ko
Y-p9Yo4qTV2B9DzrZi31xA,redclickstar,324305_4579_218_,Install,1.7,211.171.103.130,5377fa54-95bb-499d-9066-07092bd4185c,1558626193,2019-05-23 23:43:13,1558626310,2019-05-23 23:45:10,1558626312,13190523154327143c81ch2111711031301_rtbs1_rtbs2_rtbs30ORIGIN23933865end_rtbaff324305_rtboffer23933865_rtbsub4579_218,http://www.redclickstarventures.com/pixel.php?aff=9&aff_sub=13190523154327143c81ch2111711031301_rtbs1_rtbs2_rtbs30ORIGIN23933865end_rtbaff324305_rtboffer23933865_rtbsub4579_218,idfa_5377fa54-95bb-499d-9066-07092bd4185c,ko
Y-p9Yo4qTV2B9DzrZi31xA,redclickstar,324305_4579_218_,Install,1.7,1.214.196.154,d84df107-5646-4793-814f-35138faeeee5,1558623821,2019-05-23 23:03:41,1558623882,2019-05-23 23:04:42,1558623883,11190523150327143c81se12141961541_rtbs1_rtbs2_rtbs30ORIGIN23933865end_rtbaff324305_rtboffer23933865_rtbsub4579_218,http://www.redclickstarventures.com/pixel.php?aff=9&aff_sub=11190523150327143c81se12141961541_rtbs1_rtbs2_rtbs30ORIGIN23933865end_rtbaff324305_rtboffer23933865_rtbsub4579_218,idfa_d84df107-5646-4793-814f-35138faeeee5,ko
Y-p9Yo4qTV2B9DzrZi31xA,redclickstar,324305_4579_218_,Install,1.7,121.175.45.58,c9c3e80c-ff13-437e-9b23-84ba77c8b0db,1558628647,2019-05-24 00:24:07,1558628708,2019-05-24 00:25:08,1558628709,1190523162427143c81se12117545581_rtbs1_rtbs2_rtbs30ORIGIN23933865end_rtbaff324305_rtboffer23933865_rtbsub4579_218,http://www.redclickstarventures.com/pixel.php?aff=9&aff_sub=1190523162427143c81se12117545581_rtbs1_rtbs2_rtbs30ORIGIN23933865end_rtbaff324305_rtboffer23933865_rtbsub4579_218,idfa_c9c3e80c-ff13-437e-9b23-84ba77c8b0db,ko
Y-p9Yo4qTV2B9DzrZi31xA,redclickstar,324305_4579_218_,Install,1.7,59.5.55.190,b8dc6bae-3759-436e-a570-bd585e54aed3,1558627298,2019-05-24 00:01:38,1558627389,2019-05-24 00:03:09,1558627390,2190523160127143c81se595551901_rtbs1_rtbs2_rtbs30ORIGIN23933865end_rtbaff324305_rtboffer23933865_rtbsub4579_218,http://www.redclickstarventures.com/pixel.php?aff=9&aff_sub=2190523160127143c81se595551901_rtbs1_rtbs2_rtbs30ORIGIN23933865end_rtbaff324305_rtboffer23933865_rtbsub4579_218,idfa_b8dc6bae-3759-436e-a570-bd585e54aed3,ko
Y-p9Yo4qTV2B9DzrZi31xA,redclickstar,324305_4579_218_,Install,1.7,203.237.218.253,70f54265-ee86-4d7c-8456-3dc7ce9a8dae,1558623991,2019-05-23 23:06:31,1558624050,2019-05-23 23:07:30,1558624052,13190523150627143c81se2032372182531_rtbs1_rtbs2_rtbs30ORIGIN23933865end_rtbaff324305_rtboffer23933865_rtbsub4579_218,http://www.redclickstarventures.com/pixel.php?aff=9&aff_sub=13190523150627143c81se2032372182531_rtbs1_rtbs2_rtbs30ORIGIN23933865end_rtbaff324305_rtboffer23933865_rtbsub4579_218,idfa_70f54265-ee86-4d7c-8456-3dc7ce9a8dae,ko
