cid,partner_id,channel_id,action_id,cpi,ip,idfa,click time,click datetime,install time,install datetime,postback time,click id,postback url,unique user id
ngC2wqrsSPiIbWYwANCBPw,redclickstar,321486_337_1029_in-app44_,Install,1.9,220.89.219.63,175ff022-8754-485e-bece-81f5fff3e2d2,1557546108,2019-05-11 11:41:48,1557546243,2019-05-11 11:44:03,1557546275,d14SX0WImC05cH0JmO0i0jZZ6irjTp_rtbs1_rtbs2_rtbs30ORIGIN23729759end_rtbaff321486_rtboffer23729759_rtbsub337_1029_in-app44,http://www.redclickstarventures.com/pixel.php?aff=9&aff_sub=d14SX0WImC05cH0JmO0i0jZZ6irjTp_rtbs1_rtbs2_rtbs30ORIGIN23729759end_rtbaff321486_rtboffer23729759_rtbsub337_1029_in-app44,idfa_175ff022-8754-485e-bece-81f5fff3e2d2,%ED%95%9C%EA%B5%AD%EC%96%B4
ngC2wqrsSPiIbWYwANCBPw,redclickstar,321486_337_1029_in-app44_,Install,1.9,222.101.22.68,0e846f8b-b2fc-41ea-aece-6cfda8032ee7,1557544387,2019-05-11 11:13:07,1557544552,2019-05-11 11:15:52,1557544582,g4GErjJiCSD0gg001HmZ0XOqB0y5rp_rtbs1_rtbs2_rtbs30ORIGIN23729759end_rtbaff321486_rtboffer23729759_rtbsub337_1029_in-app44,http://www.redclickstarventures.com/pixel.php?aff=9&aff_sub=g4GErjJiCSD0gg001HmZ0XOqB0y5rp_rtbs1_rtbs2_rtbs30ORIGIN23729759end_rtbaff321486_rtboffer23729759_rtbsub337_1029_in-app44,idfa_0e846f8b-b2fc-41ea-aece-6cfda8032ee7,%ED%95%9C%EA%B5%AD%EC%96%B4
ngC2wqrsSPiIbWYwANCBPw,redclickstar,321486_337_1029_in-app44_,Install,1.9,182.226.35.57,d89565dd-1ce9-45eb-b182-e5c7bfcfd9c8,1557545079,2019-05-11 11:24:39,1557545222,2019-05-11 11:27:02,1557545252,90Ov4Lq0C4iXZH0uJ5C1p0mXD0rrhr_rtbs1_rtbs2_rtbs30ORIGIN23729759end_rtbaff321486_rtboffer23729759_rtbsub337_1029_in-app44,http://www.redclickstarventures.com/pixel.php?aff=9&aff_sub=90Ov4Lq0C4iXZH0uJ5C1p0mXD0rrhr_rtbs1_rtbs2_rtbs30ORIGIN23729759end_rtbaff321486_rtboffer23729759_rtbsub337_1029_in-app44,idfa_d89565dd-1ce9-45eb-b182-e5c7bfcfd9c8,%ED%95%9C%EA%B5%AD%EC%96%B4
ngC2wqrsSPiIbWYwANCBPw,redclickstar,321486_337_1029_in-app44_,Install,1.9,218.52.0.138,edeedd91-3ff4-466d-af95-0b6c3a7aa76d,1557546588,2019-05-11 11:49:48,1557546723,2019-05-11 11:52:03,1557546754,V15XZ4nnR8050Jhhj1p0016OrHg0C1_rtbs1_rtbs2_rtbs30ORIGIN23729759end_rtbaff321486_rtboffer23729759_rtbsub337_1029_in-app44,http://www.redclickstarventures.com/pixel.php?aff=9&aff_sub=V15XZ4nnR8050Jhhj1p0016OrHg0C1_rtbs1_rtbs2_rtbs30ORIGIN23729759end_rtbaff321486_rtboffer23729759_rtbsub337_1029_in-app44,idfa_edeedd91-3ff4-466d-af95-0b6c3a7aa76d,%ED%95%9C%EA%B5%AD%EC%96%B4
ngC2wqrsSPiIbWYwANCBPw,redclickstar,321486_337_1029_in-app44_,Install,1.9,125.182.199.14,21002623-a43e-47ad-a095-72379ce53fae,1557546863,2019-05-11 11:54:23,1557547045,2019-05-11 11:57:25,1557547076,I0PXtDj1J0Or5W4ChZ2RHkd45008p0_rtbs1_rtbs2_rtbs30ORIGIN23729759end_rtbaff321486_rtboffer23729759_rtbsub337_1029_in-app44,http://www.redclickstarventures.com/pixel.php?aff=9&aff_sub=I0PXtDj1J0Or5W4ChZ2RHkd45008p0_rtbs1_rtbs2_rtbs30ORIGIN23729759end_rtbaff321486_rtboffer23729759_rtbsub337_1029_in-app44,idfa_21002623-a43e-47ad-a095-72379ce53fae,%ED%95%9C%EA%B5%AD%EC%96%B4
ngC2wqrsSPiIbWYwANCBPw,redclickstar,321486_337_1029_in-app44_,Install,1.9,59.10.138.195,91e1849f-f2d7-49ab-8022-48f2ead65ec4,1557541359,2019-05-11 10:22:39,1557541493,2019-05-11 10:24:53,1557541525,G8IHD0vrE4ZhKr9010OX0p0Jh435AC_rtbs1_rtbs2_rtbs30ORIGIN23729759end_rtbaff321486_rtboffer23729759_rtbsub337_1029_in-app44,http://www.redclickstarventures.com/pixel.php?aff=9&aff_sub=G8IHD0vrE4ZhKr9010OX0p0Jh435AC_rtbs1_rtbs2_rtbs30ORIGIN23729759end_rtbaff321486_rtboffer23729759_rtbsub337_1029_in-app44,idfa_91e1849f-f2d7-49ab-8022-48f2ead65ec4,%ED%95%9C%EA%B5%AD%EC%96%B4
ngC2wqrsSPiIbWYwANCBPw,redclickstar,321486_337_1029_in-app44_,Install,1.9,59.24.8.231,5823c5cd-b0ea-4651-bb6e-bb505682b351,1557547443,2019-05-11 12:04:03,1557547623,2019-05-11 12:07:03,1557547654,Xy4rNsg50qE10C0JXpXj0iOlHZ10Ye_rtbs1_rtbs2_rtbs30ORIGIN23729759end_rtbaff321486_rtboffer23729759_rtbsub337_1029_in-app44,http://www.redclickstarventures.com/pixel.php?aff=9&aff_sub=Xy4rNsg50qE10C0JXpXj0iOlHZ10Ye_rtbs1_rtbs2_rtbs30ORIGIN23729759end_rtbaff321486_rtboffer23729759_rtbsub337_1029_in-app44,idfa_5823c5cd-b0ea-4651-bb6e-bb505682b351,%ED%95%9C%EA%B5%AD%EC%96%B4
ngC2wqrsSPiIbWYwANCBPw,redclickstar,321486_337_1029_in-app44_,Install,1.9,175.205.185.56,1be30220-d46b-49a2-8984-18f7df567daf,1557547986,2019-05-11 12:13:06,1557548131,2019-05-11 12:15:31,1557548161,tr03V14ZnJCidq00mSbXpOn50rfH0j_rtbs1_rtbs2_rtbs30ORIGIN23729759end_rtbaff321486_rtboffer23729759_rtbsub337_1029_in-app44,http://www.redclickstarventures.com/pixel.php?aff=9&aff_sub=tr03V14ZnJCidq00mSbXpOn50rfH0j_rtbs1_rtbs2_rtbs30ORIGIN23729759end_rtbaff321486_rtboffer23729759_rtbsub337_1029_in-app44,idfa_1be30220-d46b-49a2-8984-18f7df567daf,%ED%95%9C%EA%B5%AD%EC%96%B4
ngC2wqrsSPiIbWYwANCBPw,redclickstar,321486_337_1029_in-app44_,Install,1.9,175.215.84.119,00f52104-f295-4428-92cf-922a0647f96b,1557547187,2019-05-11 11:59:47,1557547306,2019-05-11 12:01:46,1557547336,VJLXZ4QnC8050Jxhjap00ozOrHN0C1_rtbs1_rtbs2_rtbs30ORIGIN23729759end_rtbaff321486_rtboffer23729759_rtbsub337_1029_in-app44,http://www.redclickstarventures.com/pixel.php?aff=9&aff_sub=VJLXZ4QnC8050Jxhjap00ozOrHN0C1_rtbs1_rtbs2_rtbs30ORIGIN23729759end_rtbaff321486_rtboffer23729759_rtbsub337_1029_in-app44,idfa_00f52104-f295-4428-92cf-922a0647f96b,%ED%95%9C%EA%B5%AD%EC%96%B4
ngC2wqrsSPiIbWYwANCBPw,redclickstar,321486_337_1029_in-app44_,Install,1.9,210.218.180.35,0fca906e-eb5a-4378-b8ef-e94eaf8e76d3,1557543742,2019-05-11 11:02:22,1557543928,2019-05-11 11:05:28,1557543958,Q1i4ZXnO8p0rHT0j0ZC0jg5HeG0YJI_rtbs1_rtbs2_rtbs30ORIGIN23729759end_rtbaff321486_rtboffer23729759_rtbsub337_1029_in-app44,http://www.redclickstarventures.com/pixel.php?aff=9&aff_sub=Q1i4ZXnO8p0rHT0j0ZC0jg5HeG0YJI_rtbs1_rtbs2_rtbs30ORIGIN23729759end_rtbaff321486_rtboffer23729759_rtbsub337_1029_in-app44,idfa_0fca906e-eb5a-4378-b8ef-e94eaf8e76d3,%ED%95%9C%EA%B5%AD%EC%96%B4
ngC2wqrsSPiIbWYwANCBPw,redclickstar,321486_337_1029_in-app44_,Install,1.9,182.227.20.82,89721f57-24a8-4590-9adb-4323b4bc41e7,1557540480,2019-05-11 10:08:00,1557540652,2019-05-11 10:10:52,1557540716,VgKXZ4XlDS050Jvjhqp00G9OrHM0C1_rtbs1_rtbs2_rtbs30ORIGIN23729759end_rtbaff321486_rtboffer23729759_rtbsub337_1029_in-app44,http://www.redclickstarventures.com/pixel.php?aff=9&aff_sub=VgKXZ4XlDS050Jvjhqp00G9OrHM0C1_rtbs1_rtbs2_rtbs30ORIGIN23729759end_rtbaff321486_rtboffer23729759_rtbsub337_1029_in-app44,idfa_89721f57-24a8-4590-9adb-4323b4bc41e7,%ED%95%9C%EA%B5%AD%EC%96%B4
ngC2wqrsSPiIbWYwANCBPw,redclickstar,321486_337_1029_in-app44_,Install,1.9,112.172.126.15,5bf382d4-600b-4ab1-bf0a-33c1f8293954,1557546952,2019-05-11 11:55:52,1557547116,2019-05-11 11:58:36,1557547146,00HEsJaX4p0oO0ZCgr1C60j0j5OLBi_rtbs1_rtbs2_rtbs30ORIGIN23729759end_rtbaff321486_rtboffer23729759_rtbsub337_1029_in-app44,http://www.redclickstarventures.com/pixel.php?aff=9&aff_sub=00HEsJaX4p0oO0ZCgr1C60j0j5OLBi_rtbs1_rtbs2_rtbs30ORIGIN23729759end_rtbaff321486_rtboffer23729759_rtbsub337_1029_in-app44,idfa_5bf382d4-600b-4ab1-bf0a-33c1f8293954,%ED%95%9C%EA%B5%AD%EC%96%B4
ngC2wqrsSPiIbWYwANCBPw,redclickstar,321486_337_1029_in-app44_,Install,1.9,117.123.47.221,2636d892-d7d2-4232-aed4-f705a62d5c1b,1557543154,2019-05-11 10:52:34,1557543292,2019-05-11 10:54:52,1557543323,jr0ihCeO7p5Jh010cIfH0ZXnkSX490_rtbs1_rtbs2_rtbs30ORIGIN23729759end_rtbaff321486_rtboffer23729759_rtbsub337_1029_in-app44,http://www.redclickstarventures.com/pixel.php?aff=9&aff_sub=jr0ihCeO7p5Jh010cIfH0ZXnkSX490_rtbs1_rtbs2_rtbs30ORIGIN23729759end_rtbaff321486_rtboffer23729759_rtbsub337_1029_in-app44,idfa_2636d892-d7d2-4232-aed4-f705a62d5c1b,%ED%95%9C%EA%B5%AD%EC%96%B4
ngC2wqrsSPiIbWYwANCBPw,redclickstar,321486_337_1029_in-app44_,Install,1.9,175.214.23.23,2c8aed38-21b4-4720-8efc-d82f846f907a,1557547704,2019-05-11 12:08:24,1557547912,2019-05-11 12:11:52,1557547943,bJj0451rpJ0X0WX6O7yi0NHZJCZ0ij_rtbs1_rtbs2_rtbs30ORIGIN23729759end_rtbaff321486_rtboffer23729759_rtbsub337_1029_in-app44,http://www.redclickstarventures.com/pixel.php?aff=9&aff_sub=bJj0451rpJ0X0WX6O7yi0NHZJCZ0ij_rtbs1_rtbs2_rtbs30ORIGIN23729759end_rtbaff321486_rtboffer23729759_rtbsub337_1029_in-app44,idfa_2c8aed38-21b4-4720-8efc-d82f846f907a,%ED%95%9C%EA%B5%AD%EC%96%B4
ngC2wqrsSPiIbWYwANCBPw,redclickstar,321486_337_1029_in-app44_,Install,1.9,125.178.69.69,9eb3ca74-8ece-4e29-ae46-bd68023f70da,1557541710,2019-05-11 10:28:30,1557541854,2019-05-11 10:30:54,1557541885,g4yEKjJhCjZ0r7001HqZ0XOHK0S5rp_rtbs1_rtbs2_rtbs30ORIGIN23729759end_rtbaff321486_rtboffer23729759_rtbsub337_1029_in-app44,http://www.redclickstarventures.com/pixel.php?aff=9&aff_sub=g4yEKjJhCjZ0r7001HqZ0XOHK0S5rp_rtbs1_rtbs2_rtbs30ORIGIN23729759end_rtbaff321486_rtboffer23729759_rtbsub337_1029_in-app44,idfa_9eb3ca74-8ece-4e29-ae46-bd68023f70da,%ED%95%9C%EA%B5%AD%EC%96%B4
ngC2wqrsSPiIbWYwANCBPw,redclickstar,321486_337_1029_in-app44_,Install,1.9,14.42.21.216,86b39b75-df6c-45a3-b22f-ad827aa75fd5,1557545573,2019-05-11 11:32:53,1557545727,2019-05-11 11:35:27,1557545757,N8rJCjnpO10ZToC0X5XiHhmK400St0_rtbs1_rtbs2_rtbs30ORIGIN23729759end_rtbaff321486_rtboffer23729759_rtbsub337_1029_in-app44,http://www.redclickstarventures.com/pixel.php?aff=9&aff_sub=N8rJCjnpO10ZToC0X5XiHhmK400St0_rtbs1_rtbs2_rtbs30ORIGIN23729759end_rtbaff321486_rtboffer23729759_rtbsub337_1029_in-app44,idfa_86b39b75-df6c-45a3-b22f-ad827aa75fd5,%ED%95%9C%EA%B5%AD%EC%96%B4
ngC2wqrsSPiIbWYwANCBPw,redclickstar,321486_337_1029_in-app44_,Install,1.9,222.106.16.201,eb1e4a23-e154-4b03-8b1d-f7ae6eea440e,1557545023,2019-05-11 11:23:43,1557545185,2019-05-11 11:26:25,1557545216,nO8JCh40IBi1000XkxpPvOp5rHrZi0_rtbs1_rtbs2_rtbs30ORIGIN23729759end_rtbaff321486_rtboffer23729759_rtbsub337_1029_in-app44,http://www.redclickstarventures.com/pixel.php?aff=9&aff_sub=nO8JCh40IBi1000XkxpPvOp5rHrZi0_rtbs1_rtbs2_rtbs30ORIGIN23729759end_rtbaff321486_rtboffer23729759_rtbsub337_1029_in-app44,idfa_eb1e4a23-e154-4b03-8b1d-f7ae6eea440e,%ED%95%9C%EA%B5%AD%EC%96%B4
ngC2wqrsSPiIbWYwANCBPw,redclickstar,321486_337_1029_in-app44_,Install,1.9,211.54.74.50,a53ea8e6-d857-46b2-a74e-066b7c1ad913,1557543081,2019-05-11 10:51:21,1557543229,2019-05-11 10:53:49,1557543259,H004DvrHfX6901hJXZO0zijp5Cb0fJ_rtbs1_rtbs2_rtbs30ORIGIN23729759end_rtbaff321486_rtboffer23729759_rtbsub337_1029_in-app44,http://www.redclickstarventures.com/pixel.php?aff=9&aff_sub=H004DvrHfX6901hJXZO0zijp5Cb0fJ_rtbs1_rtbs2_rtbs30ORIGIN23729759end_rtbaff321486_rtboffer23729759_rtbsub337_1029_in-app44,idfa_a53ea8e6-d857-46b2-a74e-066b7c1ad913,%ED%95%9C%EA%B5%AD%EC%96%B4
ngC2wqrsSPiIbWYwANCBPw,redclickstar,321486_337_1029_in-app44_,Install,1.9,183.123.129.74,dd3bdc8d-06d9-46cd-8d7a-818f88087536,1557539467,2019-05-11 09:51:07,1557539638,2019-05-11 09:53:58,1557539672,Lp00avqh51eXzrOQZJCEHHj07u0C40_rtbs1_rtbs2_rtbs30ORIGIN23729759end_rtbaff321486_rtboffer23729759_rtbsub337_1029_in-app44,http://www.redclickstarventures.com/pixel.php?aff=9&aff_sub=Lp00avqh51eXzrOQZJCEHHj07u0C40_rtbs1_rtbs2_rtbs30ORIGIN23729759end_rtbaff321486_rtboffer23729759_rtbsub337_1029_in-app44,idfa_dd3bdc8d-06d9-46cd-8d7a-818f88087536,%ED%95%9C%EA%B5%AD%EC%96%B4
ngC2wqrsSPiIbWYwANCBPw,redclickstar,321486_337_1029_in-app44_,Install,1.9,220.116.13.86,ce47735b-d6d9-432a-8bd1-e53ba8e01348,1557545633,2019-05-11 11:33:53,1557545794,2019-05-11 11:36:34,1557545825,oKr1JO0pciCY0c4RZ90mLXHp0i5G0W_rtbs1_rtbs2_rtbs30ORIGIN23729759end_rtbaff321486_rtboffer23729759_rtbsub337_1029_in-app44,http://www.redclickstarventures.com/pixel.php?aff=9&aff_sub=oKr1JO0pciCY0c4RZ90mLXHp0i5G0W_rtbs1_rtbs2_rtbs30ORIGIN23729759end_rtbaff321486_rtboffer23729759_rtbsub337_1029_in-app44,idfa_ce47735b-d6d9-432a-8bd1-e53ba8e01348,%ED%95%9C%EA%B5%AD%EC%96%B4
ngC2wqrsSPiIbWYwANCBPw,redclickstar,321486_337_1029_in-app44_,Install,1.9,61.39.138.203,199ff60d-4e9a-40e4-a394-a9709d4b3c6d,1557542010,2019-05-11 10:33:30,1557542154,2019-05-11 10:35:54,1557542184,5rp100JhGUOrOXr5MdVHt0Z004hCv0_rtbs1_rtbs2_rtbs30ORIGIN23729759end_rtbaff321486_rtboffer23729759_rtbsub337_1029_in-app44,http://www.redclickstarventures.com/pixel.php?aff=9&aff_sub=5rp100JhGUOrOXr5MdVHt0Z004hCv0_rtbs1_rtbs2_rtbs30ORIGIN23729759end_rtbaff321486_rtboffer23729759_rtbsub337_1029_in-app44,idfa_199ff60d-4e9a-40e4-a394-a9709d4b3c6d,%ED%95%9C%EA%B5%AD%EC%96%B4
ngC2wqrsSPiIbWYwANCBPw,redclickstar,321486_337_1029_in-app44_,Install,1.9,1.209.187.2,3acee9e2-ab5e-46d2-a6f7-3a8e40e79c1d,1557540025,2019-05-11 10:00:25,1557540198,2019-05-11 10:03:18,1557540302,y04j0pThd5v1qH0J510CZXh0O79AZr_rtbs1_rtbs2_rtbs30ORIGIN23729759end_rtbaff321486_rtboffer23729759_rtbsub337_1029_in-app44,http://www.redclickstarventures.com/pixel.php?aff=9&aff_sub=y04j0pThd5v1qH0J510CZXh0O79AZr_rtbs1_rtbs2_rtbs30ORIGIN23729759end_rtbaff321486_rtboffer23729759_rtbsub337_1029_in-app44,idfa_3acee9e2-ab5e-46d2-a6f7-3a8e40e79c1d,%ED%95%9C%EA%B5%AD%EC%96%B4
ngC2wqrsSPiIbWYwANCBPw,redclickstar,321486_337_1029_in-app44_,Install,1.9,211.216.48.158,7803d9e4-18df-42f0-b50c-9295635f4572,1557546706,2019-05-11 11:51:46,1557546836,2019-05-11 11:53:56,1557546867,Zj6r0OuJbH1N0TRj42UZHX0pj0M05C_rtbs1_rtbs2_rtbs30ORIGIN23729759end_rtbaff321486_rtboffer23729759_rtbsub337_1029_in-app44,http://www.redclickstarventures.com/pixel.php?aff=9&aff_sub=Zj6r0OuJbH1N0TRj42UZHX0pj0M05C_rtbs1_rtbs2_rtbs30ORIGIN23729759end_rtbaff321486_rtboffer23729759_rtbsub337_1029_in-app44,idfa_7803d9e4-18df-42f0-b50c-9295635f4572,%ED%95%9C%EA%B5%AD%EC%96%B4
ngC2wqrsSPiIbWYwANCBPw,redclickstar,321486_337_1029_in-app44_,Install,1.9,118.35.49.226,7eb9c512-c52e-4e7c-a245-f3f4fe4fb057,1557545731,2019-05-11 11:35:31,1557545860,2019-05-11 11:37:40,1557545890,tr0wZ14ZMJChpN00P45XpOS506AH0i_rtbs1_rtbs2_rtbs30ORIGIN23729759end_rtbaff321486_rtboffer23729759_rtbsub337_1029_in-app44,http://www.redclickstarventures.com/pixel.php?aff=9&aff_sub=tr0wZ14ZMJChpN00P45XpOS506AH0i_rtbs1_rtbs2_rtbs30ORIGIN23729759end_rtbaff321486_rtboffer23729759_rtbsub337_1029_in-app44,idfa_7eb9c512-c52e-4e7c-a245-f3f4fe4fb057,%ED%95%9C%EA%B5%AD%EC%96%B4
ngC2wqrsSPiIbWYwANCBPw,redclickstar,321486_337_1029_in-app44_,Install,1.9,110.15.50.242,53f3e3f6-6a81-4185-8aa3-84fda388ef2f,1557547716,2019-05-11 12:08:36,1557547915,2019-05-11 12:11:55,1557547946,00H1uJfX4p0dO0ZCur1Cj0x0j5t9Bh_rtbs1_rtbs2_rtbs30ORIGIN23729759end_rtbaff321486_rtboffer23729759_rtbsub337_1029_in-app44,http://www.redclickstarventures.com/pixel.php?aff=9&aff_sub=00H1uJfX4p0dO0ZCur1Cj0x0j5t9Bh_rtbs1_rtbs2_rtbs30ORIGIN23729759end_rtbaff321486_rtboffer23729759_rtbsub337_1029_in-app44,idfa_53f3e3f6-6a81-4185-8aa3-84fda388ef2f,%ED%95%9C%EA%B5%AD%EC%96%B4
ngC2wqrsSPiIbWYwANCBPw,redclickstar,321486_337_1029_in-app44_,Install,1.9,218.149.228.178,36ece29b-c4b3-4956-ad1a-21bf1a93e815,1557545617,2019-05-11 11:33:37,1557545779,2019-05-11 11:36:19,1557545809,Q1i4EXpOUp0rHJ0f0ZC0iK5Hba0EJg_rtbs1_rtbs2_rtbs30ORIGIN23729759end_rtbaff321486_rtboffer23729759_rtbsub337_1029_in-app44,http://www.redclickstarventures.com/pixel.php?aff=9&aff_sub=Q1i4EXpOUp0rHJ0f0ZC0iK5Hba0EJg_rtbs1_rtbs2_rtbs30ORIGIN23729759end_rtbaff321486_rtboffer23729759_rtbsub337_1029_in-app44,idfa_36ece29b-c4b3-4956-ad1a-21bf1a93e815,%ED%95%9C%EA%B5%AD%EC%96%B4
ngC2wqrsSPiIbWYwANCBPw,redclickstar,321486_337_1029_in-app44_,Install,1.9,14.42.51.32,d62d7dc3-1f1a-49cf-b92f-4841e6a598d1,1557542190,2019-05-11 10:36:30,1557542318,2019-05-11 10:38:38,1557542349,qjSNsX5T0H40rphp0Z1O0V04J9g67C_rtbs1_rtbs2_rtbs30ORIGIN23729759end_rtbaff321486_rtboffer23729759_rtbsub337_1029_in-app44,http://www.redclickstarventures.com/pixel.php?aff=9&aff_sub=qjSNsX5T0H40rphp0Z1O0V04J9g67C_rtbs1_rtbs2_rtbs30ORIGIN23729759end_rtbaff321486_rtboffer23729759_rtbsub337_1029_in-app44,idfa_d62d7dc3-1f1a-49cf-b92f-4841e6a598d1,%ED%95%9C%EA%B5%AD%EC%96%B4
ngC2wqrsSPiIbWYwANCBPw,redclickstar,321486_337_1029_in-app44_,Install,1.9,121.129.167.62,1da44cff-f652-44c9-bee1-7e1be2a02bfb,1557546790,2019-05-11 11:53:10,1557546959,2019-05-11 11:55:59,1557546990,F01j0jA4sVrq0uh0p0OJCHX4PZ5Z4a_rtbs1_rtbs2_rtbs30ORIGIN23729759end_rtbaff321486_rtboffer23729759_rtbsub337_1029_in-app44,http://www.redclickstarventures.com/pixel.php?aff=9&aff_sub=F01j0jA4sVrq0uh0p0OJCHX4PZ5Z4a_rtbs1_rtbs2_rtbs30ORIGIN23729759end_rtbaff321486_rtboffer23729759_rtbsub337_1029_in-app44,idfa_1da44cff-f652-44c9-bee1-7e1be2a02bfb,%ED%95%9C%EA%B5%AD%EC%96%B4
ngC2wqrsSPiIbWYwANCBPw,redclickstar,321486_337_1029_in-app44_,Install,1.9,121.133.62.230,1c04d11d-4039-4c0d-ab58-d0660fd75baa,1557548019,2019-05-11 12:13:39,1557548190,2019-05-11 12:16:30,1557548221,qincwX5l0Hh0rOjp0Z1O0T04JQ6msC_rtbs1_rtbs2_rtbs30ORIGIN23729759end_rtbaff321486_rtboffer23729759_rtbsub337_1029_in-app44,http://www.redclickstarventures.com/pixel.php?aff=9&aff_sub=qincwX5l0Hh0rOjp0Z1O0T04JQ6msC_rtbs1_rtbs2_rtbs30ORIGIN23729759end_rtbaff321486_rtboffer23729759_rtbsub337_1029_in-app44,idfa_1c04d11d-4039-4c0d-ab58-d0660fd75baa,%ED%95%9C%EA%B5%AD%EC%96%B4
ngC2wqrsSPiIbWYwANCBPw,redclickstar,321486_337_1029_in-app44_,Install,1.9,112.161.25.140,cb8e03bf-22b0-4d94-9288-3c2ed6468da7,1557543348,2019-05-11 10:55:48,1557543468,2019-05-11 10:57:48,1557543499,JKihN405pY0Z0CX1rV5JaAHT0ZOtK0_rtbs1_rtbs2_rtbs30ORIGIN23729759end_rtbaff321486_rtboffer23729759_rtbsub337_1029_in-app44,http://www.redclickstarventures.com/pixel.php?aff=9&aff_sub=JKihN405pY0Z0CX1rV5JaAHT0ZOtK0_rtbs1_rtbs2_rtbs30ORIGIN23729759end_rtbaff321486_rtboffer23729759_rtbsub337_1029_in-app44,idfa_cb8e03bf-22b0-4d94-9288-3c2ed6468da7,%ED%95%9C%EA%B5%AD%EC%96%B4
ngC2wqrsSPiIbWYwANCBPw,redclickstar,321486_337_1029_in-app44_,Install,1.9,218.37.8.85,29e28805-a812-41a1-80ae-d09c133008da,1557545945,2019-05-11 11:39:05,1557546114,2019-05-11 11:41:54,1557546146,qhQZIX5F0He0ruip0Z1O0904JaRABC_rtbs1_rtbs2_rtbs30ORIGIN23729759end_rtbaff321486_rtboffer23729759_rtbsub337_1029_in-app44,http://www.redclickstarventures.com/pixel.php?aff=9&aff_sub=qhQZIX5F0He0ruip0Z1O0904JaRABC_rtbs1_rtbs2_rtbs30ORIGIN23729759end_rtbaff321486_rtboffer23729759_rtbsub337_1029_in-app44,idfa_29e28805-a812-41a1-80ae-d09c133008da,%ED%95%9C%EA%B5%AD%EC%96%B4
ngC2wqrsSPiIbWYwANCBPw,redclickstar,321486_337_1029_in-app44_,Install,1.9,106.244.232.198,d9348948-3b34-431e-926a-5ed92d2ae898,1557545230,2019-05-11 11:27:10,1557545349,2019-05-11 11:29:09,1557545379,jr0ijC3OFp5JE010fVSH0ZlcDeX4Y0_rtbs1_rtbs2_rtbs30ORIGIN23729759end_rtbaff321486_rtboffer23729759_rtbsub337_1029_in-app44,http://www.redclickstarventures.com/pixel.php?aff=9&aff_sub=jr0ijC3OFp5JE010fVSH0ZlcDeX4Y0_rtbs1_rtbs2_rtbs30ORIGIN23729759end_rtbaff321486_rtboffer23729759_rtbsub337_1029_in-app44,idfa_d9348948-3b34-431e-926a-5ed92d2ae898,%ED%95%9C%EA%B5%AD%EC%96%B4
ngC2wqrsSPiIbWYwANCBPw,redclickstar,321486_337_1029_in-app44_,Install,1.9,121.161.73.41,dea3c1ff-c441-49c6-8f3f-f146800003f3,1557540971,2019-05-11 10:16:11,1557541101,2019-05-11 10:18:21,1557541368,5pp100JhwsyrOXX5GhPHO0ZE04iCO0_rtbs1_rtbs2_rtbs30ORIGIN23729759end_rtbaff321486_rtboffer23729759_rtbsub337_1029_in-app44,http://www.redclickstarventures.com/pixel.php?aff=9&aff_sub=5pp100JhwsyrOXX5GhPHO0ZE04iCO0_rtbs1_rtbs2_rtbs30ORIGIN23729759end_rtbaff321486_rtboffer23729759_rtbsub337_1029_in-app44,idfa_dea3c1ff-c441-49c6-8f3f-f146800003f3,%ED%95%9C%EA%B5%AD%EC%96%B4
ngC2wqrsSPiIbWYwANCBPw,redclickstar,321486_337_1029_in-app44_,Install,1.9,211.202.205.245,f0bfb9e3-f23b-422e-b13b-d08a4dc94287,1557542020,2019-05-11 10:33:40,1557542223,2019-05-11 10:37:03,1557542255,RPZpwhAROHh31O000C0Xn5BC4J80hr_rtbs1_rtbs2_rtbs30ORIGIN23729759end_rtbaff321486_rtboffer23729759_rtbsub337_1029_in-app44,http://www.redclickstarventures.com/pixel.php?aff=9&aff_sub=RPZpwhAROHh31O000C0Xn5BC4J80hr_rtbs1_rtbs2_rtbs30ORIGIN23729759end_rtbaff321486_rtboffer23729759_rtbsub337_1029_in-app44,idfa_f0bfb9e3-f23b-422e-b13b-d08a4dc94287,%ED%95%9C%EA%B5%AD%EC%96%B4
ngC2wqrsSPiIbWYwANCBPw,redclickstar,321486_337_1029_in-app44_,Install,1.9,183.112.102.112,f84427b1-1496-40fe-97d9-c75cde9292fb,1557547530,2019-05-11 12:05:30,1557547654,2019-05-11 12:07:34,1557547684,O193g04540NOrjJpOXX040i6mZHJC0_rtbs1_rtbs2_rtbs30ORIGIN23729759end_rtbaff321486_rtboffer23729759_rtbsub337_1029_in-app44,http://www.redclickstarventures.com/pixel.php?aff=9&aff_sub=O193g04540NOrjJpOXX040i6mZHJC0_rtbs1_rtbs2_rtbs30ORIGIN23729759end_rtbaff321486_rtboffer23729759_rtbsub337_1029_in-app44,idfa_f84427b1-1496-40fe-97d9-c75cde9292fb,%ED%95%9C%EA%B5%AD%EC%96%B4
ngC2wqrsSPiIbWYwANCBPw,redclickstar,321486_337_1029_in-app44_,Install,1.9,121.179.158.249,89b6329f-916c-4442-b1f0-7faf21f37333,1557547092,2019-05-11 11:58:12,1557547217,2019-05-11 12:00:17,1557547247,30pNbC5JvO0jYHr9hrR1Zp006X0rv4_rtbs1_rtbs2_rtbs30ORIGIN23729759end_rtbaff321486_rtboffer23729759_rtbsub337_1029_in-app44,http://www.redclickstarventures.com/pixel.php?aff=9&aff_sub=30pNbC5JvO0jYHr9hrR1Zp006X0rv4_rtbs1_rtbs2_rtbs30ORIGIN23729759end_rtbaff321486_rtboffer23729759_rtbsub337_1029_in-app44,idfa_89b6329f-916c-4442-b1f0-7faf21f37333,%ED%95%9C%EA%B5%AD%EC%96%B4
ngC2wqrsSPiIbWYwANCBPw,redclickstar,321486_337_1029_in-app44_,Install,1.9,118.220.38.24,a9b4decd-5a74-4099-892a-8234989c7bc2,1557546183,2019-05-11 11:43:03,1557546322,2019-05-11 11:45:22,1557546353,tr0Fg14ZUJCigi00fdEXpOl50BaH0i_rtbs1_rtbs2_rtbs30ORIGIN23729759end_rtbaff321486_rtboffer23729759_rtbsub337_1029_in-app44,http://www.redclickstarventures.com/pixel.php?aff=9&aff_sub=tr0Fg14ZUJCigi00fdEXpOl50BaH0i_rtbs1_rtbs2_rtbs30ORIGIN23729759end_rtbaff321486_rtboffer23729759_rtbsub337_1029_in-app44,idfa_a9b4decd-5a74-4099-892a-8234989c7bc2,%ED%95%9C%EA%B5%AD%EC%96%B4
ngC2wqrsSPiIbWYwANCBPw,redclickstar,321486_337_1029_in-app44_,Install,1.9,220.123.170.42,02c8f6fd-b685-4135-8750-f269960df504,1557542882,2019-05-11 10:48:02,1557543038,2019-05-11 10:50:38,1557543069,ipC0bc0fX4hri0N4ZXH1ORfmJ03U50_rtbs1_rtbs2_rtbs30ORIGIN23729759end_rtbaff321486_rtboffer23729759_rtbsub337_1029_in-app44,http://www.redclickstarventures.com/pixel.php?aff=9&aff_sub=ipC0bc0fX4hri0N4ZXH1ORfmJ03U50_rtbs1_rtbs2_rtbs30ORIGIN23729759end_rtbaff321486_rtboffer23729759_rtbsub337_1029_in-app44,idfa_02c8f6fd-b685-4135-8750-f269960df504,%ED%95%9C%EA%B5%AD%EC%96%B4
ngC2wqrsSPiIbWYwANCBPw,redclickstar,321486_337_1029_in-app44_,Install,1.9,121.126.37.157,c2bebfed-fcb2-42b9-8984-96c0a0586ff4,1557546225,2019-05-11 11:43:45,1557546363,2019-05-11 11:46:03,1557546395,w0C04JHWZNOO00irX115r0vp0Zj0Ui_rtbs1_rtbs2_rtbs30ORIGIN23729759end_rtbaff321486_rtboffer23729759_rtbsub337_1029_in-app44,http://www.redclickstarventures.com/pixel.php?aff=9&aff_sub=w0C04JHWZNOO00irX115r0vp0Zj0Ui_rtbs1_rtbs2_rtbs30ORIGIN23729759end_rtbaff321486_rtboffer23729759_rtbsub337_1029_in-app44,idfa_c2bebfed-fcb2-42b9-8984-96c0a0586ff4,%ED%95%9C%EA%B5%AD%EC%96%B4
ngC2wqrsSPiIbWYwANCBPw,redclickstar,321486_337_1029_in-app44_,Install,1.9,211.60.149.16,b93ce851-2cdd-4dda-afd8-97dd2a2cf155,1557541930,2019-05-11 10:32:10,1557542067,2019-05-11 10:34:27,1557542222,YX00K05CZrXH1JhpNOh1X600tJr4Rv_rtbs1_rtbs2_rtbs30ORIGIN23729759end_rtbaff321486_rtboffer23729759_rtbsub337_1029_in-app44,http://www.redclickstarventures.com/pixel.php?aff=9&aff_sub=YX00K05CZrXH1JhpNOh1X600tJr4Rv_rtbs1_rtbs2_rtbs30ORIGIN23729759end_rtbaff321486_rtboffer23729759_rtbsub337_1029_in-app44,idfa_b93ce851-2cdd-4dda-afd8-97dd2a2cf155,%ED%95%9C%EA%B5%AD%EC%96%B4
ngC2wqrsSPiIbWYwANCBPw,redclickstar,321486_337_1029_in-app44_,Install,1.9,218.38.136.99,ae44426c-a521-49ec-9631-8c3272793c6b,1557547901,2019-05-11 12:11:41,1557548061,2019-05-11 12:14:21,1557548092,I0fXIuj1J0OrmN4ChZReHhJF5005p0_rtbs1_rtbs2_rtbs30ORIGIN23729759end_rtbaff321486_rtboffer23729759_rtbsub337_1029_in-app44,http://www.redclickstarventures.com/pixel.php?aff=9&aff_sub=I0fXIuj1J0OrmN4ChZReHhJF5005p0_rtbs1_rtbs2_rtbs30ORIGIN23729759end_rtbaff321486_rtboffer23729759_rtbsub337_1029_in-app44,idfa_ae44426c-a521-49ec-9631-8c3272793c6b,%ED%95%9C%EA%B5%AD%EC%96%B4
ngC2wqrsSPiIbWYwANCBPw,redclickstar,321486_337_1029_in-app44_,Install,1.9,210.223.250.3,a17d5ce0-f368-4706-994b-0ae7cd786282,1557542419,2019-05-11 10:40:19,1557542539,2019-05-11 10:42:19,1557542571,vC0V11FCh9prW0VhOX064L015vZJH0_rtbs1_rtbs2_rtbs30ORIGIN23729759end_rtbaff321486_rtboffer23729759_rtbsub337_1029_in-app44,http://www.redclickstarventures.com/pixel.php?aff=9&aff_sub=vC0V11FCh9prW0VhOX064L015vZJH0_rtbs1_rtbs2_rtbs30ORIGIN23729759end_rtbaff321486_rtboffer23729759_rtbsub337_1029_in-app44,idfa_a17d5ce0-f368-4706-994b-0ae7cd786282,%ED%95%9C%EA%B5%AD%EC%96%B4
ngC2wqrsSPiIbWYwANCBPw,redclickstar,321486_337_1029_in-app44_,Install,1.9,101.235.30.186,e8c3ce64-0a55-429d-8467-9af17a58c43f,1557539439,2019-05-11 09:50:39,1557539624,2019-05-11 09:53:44,1557539703,YM00K05CZSXH13jp9Oh10W00hJr4Nl_rtbs1_rtbs2_rtbs30ORIGIN23729759end_rtbaff321486_rtboffer23729759_rtbsub337_1029_in-app44,http://www.redclickstarventures.com/pixel.php?aff=9&aff_sub=YM00K05CZSXH13jp9Oh10W00hJr4Nl_rtbs1_rtbs2_rtbs30ORIGIN23729759end_rtbaff321486_rtboffer23729759_rtbsub337_1029_in-app44,idfa_e8c3ce64-0a55-429d-8467-9af17a58c43f,%ED%95%9C%EA%B5%AD%EC%96%B4
ngC2wqrsSPiIbWYwANCBPw,redclickstar,321486_337_1029_in-app44_,Install,1.9,49.171.119.51,61744820-f298-49c0-b648-36200759d49c,1557543555,2019-05-11 10:59:15,1557543690,2019-05-11 11:01:30,1557543720,V9uXZ4JlbS050JIjiep00toOrHG0C1_rtbs1_rtbs2_rtbs30ORIGIN23729759end_rtbaff321486_rtboffer23729759_rtbsub337_1029_in-app44,http://www.redclickstarventures.com/pixel.php?aff=9&aff_sub=V9uXZ4JlbS050JIjiep00toOrHG0C1_rtbs1_rtbs2_rtbs30ORIGIN23729759end_rtbaff321486_rtboffer23729759_rtbsub337_1029_in-app44,idfa_61744820-f298-49c0-b648-36200759d49c,%ED%95%9C%EA%B5%AD%EC%96%B4
ngC2wqrsSPiIbWYwANCBPw,redclickstar,321486_337_1029_in-app44_,Install,1.9,113.10.49.101,e28e31a4-8a5d-4ec4-868d-964ab77b2739,1557539762,2019-05-11 09:56:02,1557539892,2019-05-11 09:58:12,1557539935,2K0CoO956yvY0rpZ400Haher20hJX1_rtbs1_rtbs2_rtbs30ORIGIN23729759end_rtbaff321486_rtboffer23729759_rtbsub337_1029_in-app44,http://www.redclickstarventures.com/pixel.php?aff=9&aff_sub=2K0CoO956yvY0rpZ400Haher20hJX1_rtbs1_rtbs2_rtbs30ORIGIN23729759end_rtbaff321486_rtboffer23729759_rtbsub337_1029_in-app44,idfa_e28e31a4-8a5d-4ec4-868d-964ab77b2739,%ED%95%9C%EA%B5%AD%EC%96%B4
ngC2wqrsSPiIbWYwANCBPw,redclickstar,321486_337_1029_in-app44_,Install,1.9,1.231.187.37,504c2cd9-fb6c-4ce0-b81a-646659acdb7b,1557544020,2019-05-11 11:07:00,1557544179,2019-05-11 11:09:39,1557544210,rli2yV0X0iZ5H00G4O0F1CJfnmprZr_rtbs1_rtbs2_rtbs30ORIGIN23729759end_rtbaff321486_rtboffer23729759_rtbsub337_1029_in-app44,http://www.redclickstarventures.com/pixel.php?aff=9&aff_sub=rli2yV0X0iZ5H00G4O0F1CJfnmprZr_rtbs1_rtbs2_rtbs30ORIGIN23729759end_rtbaff321486_rtboffer23729759_rtbsub337_1029_in-app44,idfa_504c2cd9-fb6c-4ce0-b81a-646659acdb7b,%ED%95%9C%EA%B5%AD%EC%96%B4
