cid,partner_id,channel_id,action_id,cpi,ip,idfa,click time,click datetime,install time,install datetime,postback time,click id,postback url,unique user id
ngC2wqrsSPiIbWYwANCBPw,redclickstar,321486_360__,Install,1.9,122.36.216.150,e65254fa-adf4-4711-9e9a-02dda3c791fb,1557367090,2019-05-09 09:58:10,1557367194,2019-05-09 09:59:54,1557367226,lj2a1YC800VE4J0oHOi0XZy0O5dB50_rtbs1_rtbs2_rtbs30ORIGIN23729759end_rtbaff321486_rtboffer23729759_rtbsub360_,http://www.redclickstarventures.com/pixel.php?aff=9&aff_sub=lj2a1YC800VE4J0oHOi0XZy0O5dB50_rtbs1_rtbs2_rtbs30ORIGIN23729759end_rtbaff321486_rtboffer23729759_rtbsub360_,idfa_e65254fa-adf4-4711-9e9a-02dda3c791fb,%ED%95%9C%EA%B5%AD%EC%96%B4
ngC2wqrsSPiIbWYwANCBPw,redclickstar,321486_360__,Install,1.9,220.81.241.70,f35f2a9c-7a89-48ef-89d1-902be34d4934,1557366150,2019-05-09 09:42:30,1557366293,2019-05-09 09:44:53,1557366327,TJ02Z00pz1lo64UC0jOX40saOIGy5H_rtbs1_rtbs2_rtbs30ORIGIN23729759end_rtbaff321486_rtboffer23729759_rtbsub360_,http://www.redclickstarventures.com/pixel.php?aff=9&aff_sub=TJ02Z00pz1lo64UC0jOX40saOIGy5H_rtbs1_rtbs2_rtbs30ORIGIN23729759end_rtbaff321486_rtboffer23729759_rtbsub360_,idfa_f35f2a9c-7a89-48ef-89d1-902be34d4934,%ED%95%9C%EA%B5%AD%EC%96%B4
ngC2wqrsSPiIbWYwANCBPw,redclickstar,321486_360__,Install,1.9,220.123.170.42,35f463f9-eaf9-41a8-b023-069923933a0c,1557364610,2019-05-09 09:16:50,1557364798,2019-05-09 09:19:58,1557364828,g4RSFhJxCek0IL001HuZ0XOxx0f5Oo_rtbs1_rtbs2_rtbs30ORIGIN23729759end_rtbaff321486_rtboffer23729759_rtbsub360_,http://www.redclickstarventures.com/pixel.php?aff=9&aff_sub=g4RSFhJxCek0IL001HuZ0XOxx0f5Oo_rtbs1_rtbs2_rtbs30ORIGIN23729759end_rtbaff321486_rtboffer23729759_rtbsub360_,idfa_35f463f9-eaf9-41a8-b023-069923933a0c,%ED%95%9C%EA%B5%AD%EC%96%B4
ngC2wqrsSPiIbWYwANCBPw,redclickstar,321486_360__,Install,1.9,175.209.173.73,d339aaf6-4537-4025-93ba-d71d0cf6f53b,1557366765,2019-05-09 09:52:45,1557366927,2019-05-09 09:55:27,1557366958,VtQXZ4WW2c050Jajyeo00GDOOHH0C1_rtbs1_rtbs2_rtbs30ORIGIN23729759end_rtbaff321486_rtboffer23729759_rtbsub360_,http://www.redclickstarventures.com/pixel.php?aff=9&aff_sub=VtQXZ4WW2c050Jajyeo00GDOOHH0C1_rtbs1_rtbs2_rtbs30ORIGIN23729759end_rtbaff321486_rtboffer23729759_rtbsub360_,idfa_d339aaf6-4537-4025-93ba-d71d0cf6f53b,%ED%95%9C%EA%B5%AD%EC%96%B4
ngC2wqrsSPiIbWYwANCBPw,redclickstar,321486_360__,Install,1.9,218.50.35.196,f84962df-7909-4664-8a2a-9d69ff136473,1557368266,2019-05-09 10:17:46,1557368420,2019-05-09 10:20:20,1557368452,Q1y4DX9OIo0OSO020ZC0hC5HQ10jJW_rtbs1_rtbs2_rtbs30ORIGIN23729759end_rtbaff321486_rtboffer23729759_rtbsub360_,http://www.redclickstarventures.com/pixel.php?aff=9&aff_sub=Q1y4DX9OIo0OSO020ZC0hC5HQ10jJW_rtbs1_rtbs2_rtbs30ORIGIN23729759end_rtbaff321486_rtboffer23729759_rtbsub360_,idfa_f84962df-7909-4664-8a2a-9d69ff136473,%ED%95%9C%EA%B5%AD%EC%96%B4
ngC2wqrsSPiIbWYwANCBPw,redclickstar,321486_360__,Install,1.9,121.150.14.143,ec7fc833-d279-4966-9c38-b2b55a61ded1,1557366793,2019-05-09 09:53:13,1557366964,2019-05-09 09:56:04,1557366995,c00XuZnjJXh5R0o0Cy6e0uO4o1vxOH_rtbs1_rtbs2_rtbs30ORIGIN23729759end_rtbaff321486_rtboffer23729759_rtbsub360_,http://www.redclickstarventures.com/pixel.php?aff=9&aff_sub=c00XuZnjJXh5R0o0Cy6e0uO4o1vxOH_rtbs1_rtbs2_rtbs30ORIGIN23729759end_rtbaff321486_rtboffer23729759_rtbsub360_,idfa_ec7fc833-d279-4966-9c38-b2b55a61ded1,%ED%95%9C%EA%B5%AD%EC%96%B4
ngC2wqrsSPiIbWYwANCBPw,redclickstar,321486_360__,Install,1.9,110.10.130.19,23f750f7-2517-4790-a6b9-a5a88f257a4b,1557631400,2019-05-12 11:23:20,1557631500,2019-05-12 11:25:00,1557631531,O1uE501540N6OFJpOXf060jGmZHBC0_rtbs1_rtbs2_rtbs30ORIGIN23729759end_rtbaff321486_rtboffer23729759_rtbsub360_,http://www.redclickstarventures.com/pixel.php?aff=9&aff_sub=O1uE501540N6OFJpOXf060jGmZHBC0_rtbs1_rtbs2_rtbs30ORIGIN23729759end_rtbaff321486_rtboffer23729759_rtbsub360_,idfa_23f750f7-2517-4790-a6b9-a5a88f257a4b,%ED%95%9C%EA%B5%AD%EC%96%B4
ngC2wqrsSPiIbWYwANCBPw,redclickstar,321486_360__,Install,1.9,211.184.139.159,29b3ad1f-ad2c-4058-98fd-dff2da1c6d5a,1557367630,2019-05-09 10:07:10,1557367799,2019-05-09 10:09:59,1557367829,oLO1JO0vMyCE0i4gZO00sXHo0j5i06_rtbs1_rtbs2_rtbs30ORIGIN23729759end_rtbaff321486_rtboffer23729759_rtbsub360_,http://www.redclickstarventures.com/pixel.php?aff=9&aff_sub=oLO1JO0vMyCE0i4gZO00sXHo0j5i06_rtbs1_rtbs2_rtbs30ORIGIN23729759end_rtbaff321486_rtboffer23729759_rtbsub360_,idfa_29b3ad1f-ad2c-4058-98fd-dff2da1c6d5a,%ED%95%9C%EA%B5%AD%EC%96%B4
ngC2wqrsSPiIbWYwANCBPw,redclickstar,321486_360__,Install,1.9,222.233.161.232,52aa1273-6105-496b-943b-4d19e132f95b,1557367895,2019-05-09 10:11:35,1557368030,2019-05-09 10:13:50,1557368061,nWIJCd40Kwy1000X0ice3Oo5OHFZj0_rtbs1_rtbs2_rtbs30ORIGIN23729759end_rtbaff321486_rtboffer23729759_rtbsub360_,http://www.redclickstarventures.com/pixel.php?aff=9&aff_sub=nWIJCd40Kwy1000X0ice3Oo5OHFZj0_rtbs1_rtbs2_rtbs30ORIGIN23729759end_rtbaff321486_rtboffer23729759_rtbsub360_,idfa_52aa1273-6105-496b-943b-4d19e132f95b,%ED%95%9C%EA%B5%AD%EC%96%B4
ngC2wqrsSPiIbWYwANCBPw,redclickstar,321486_360__,Install,1.9,121.170.67.180,05d3e84c-244d-46eb-ab27-ef1321c71ce6,1557367635,2019-05-09 10:07:15,1557367797,2019-05-09 10:09:57,1557367827,00HlSJVX4o0WO0ZCDO1Xs0R0y5Jgzi_rtbs1_rtbs2_rtbs30ORIGIN23729759end_rtbaff321486_rtboffer23729759_rtbsub360_,http://www.redclickstarventures.com/pixel.php?aff=9&aff_sub=00HlSJVX4o0WO0ZCDO1Xs0R0y5Jgzi_rtbs1_rtbs2_rtbs30ORIGIN23729759end_rtbaff321486_rtboffer23729759_rtbsub360_,idfa_05d3e84c-244d-46eb-ab27-ef1321c71ce6,%ED%95%9C%EA%B5%AD%EC%96%B4
ngC2wqrsSPiIbWYwANCBPw,redclickstar,321486_360__,Install,1.9,124.49.10.198,4e1a1dc6-052c-4d1d-8aee-170e757ada78,1557624503,2019-05-12 09:28:23,1557624590,2019-05-12 09:29:50,1557624630,30pbOC5J0O0DWHYhjOx1Ze00AX0iy4_rtbs1_rtbs2_rtbs30ORIGIN23729759end_rtbaff321486_rtboffer23729759_rtbsub360_,http://www.redclickstarventures.com/pixel.php?aff=9&aff_sub=30pbOC5J0O0DWHYhjOx1Ze00AX0iy4_rtbs1_rtbs2_rtbs30ORIGIN23729759end_rtbaff321486_rtboffer23729759_rtbsub360_,idfa_4e1a1dc6-052c-4d1d-8aee-170e757ada78,%ED%95%9C%EA%B5%AD%EC%96%B4
ngC2wqrsSPiIbWYwANCBPw,redclickstar,321486_360__,Install,1.9,106.255.128.141,081937b6-691c-49f0-b4ef-aa94b96c1815,1557367968,2019-05-09 10:12:48,1557368093,2019-05-09 10:14:53,1557368123,O1svx0B540uaOyJoOXm0x0h4xZH0C0_rtbs1_rtbs2_rtbs30ORIGIN23729759end_rtbaff321486_rtboffer23729759_rtbsub360_,http://www.redclickstarventures.com/pixel.php?aff=9&aff_sub=O1svx0B540uaOyJoOXm0x0h4xZH0C0_rtbs1_rtbs2_rtbs30ORIGIN23729759end_rtbaff321486_rtboffer23729759_rtbsub360_,idfa_081937b6-691c-49f0-b4ef-aa94b96c1815,%ED%95%9C%EA%B5%AD%EC%96%B4
ngC2wqrsSPiIbWYwANCBPw,redclickstar,321486_360__,Install,1.9,175.118.37.32,114453bc-037e-44cd-901d-ec334bb42274,1557367616,2019-05-09 10:06:56,1557367788,2019-05-09 10:09:48,1557367818,g4byshJyC1l0Js001HWZ0XO170P5Oo_rtbs1_rtbs2_rtbs30ORIGIN23729759end_rtbaff321486_rtboffer23729759_rtbsub360_,http://www.redclickstarventures.com/pixel.php?aff=9&aff_sub=g4byshJyC1l0Js001HWZ0XO170P5Oo_rtbs1_rtbs2_rtbs30ORIGIN23729759end_rtbaff321486_rtboffer23729759_rtbsub360_,idfa_114453bc-037e-44cd-901d-ec334bb42274,%ED%95%9C%EA%B5%AD%EC%96%B4
ngC2wqrsSPiIbWYwANCBPw,redclickstar,321486_360__,Install,1.9,211.170.59.247,08f8c93a-c36f-4784-bb18-6c2fbc2efd99,1557366779,2019-05-09 09:52:59,1557366891,2019-05-09 09:54:51,1557366923,peZ0Ou5OkpJ1040z70XoHOsIyh0C63_rtbs1_rtbs2_rtbs30ORIGIN23729759end_rtbaff321486_rtboffer23729759_rtbsub360_,http://www.redclickstarventures.com/pixel.php?aff=9&aff_sub=peZ0Ou5OkpJ1040z70XoHOsIyh0C63_rtbs1_rtbs2_rtbs30ORIGIN23729759end_rtbaff321486_rtboffer23729759_rtbsub360_,idfa_08f8c93a-c36f-4784-bb18-6c2fbc2efd99,%ED%95%9C%EA%B5%AD%EC%96%B4
ngC2wqrsSPiIbWYwANCBPw,redclickstar,321486_360__,Install,1.9,220.76.251.168,1dd61a45-3ffd-47d2-b366-afcb0a2a9fdd,1557631990,2019-05-12 11:33:10,1557632105,2019-05-12 11:35:05,1557632137,Lp00e2YF51qXxOOOZJHF7Hi0QL0C40_rtbs1_rtbs2_rtbs30ORIGIN23729759end_rtbaff321486_rtboffer23729759_rtbsub360_,http://www.redclickstarventures.com/pixel.php?aff=9&aff_sub=Lp00e2YF51qXxOOOZJHF7Hi0QL0C40_rtbs1_rtbs2_rtbs30ORIGIN23729759end_rtbaff321486_rtboffer23729759_rtbsub360_,idfa_1dd61a45-3ffd-47d2-b366-afcb0a2a9fdd,%ED%95%9C%EA%B5%AD%EC%96%B4
ngC2wqrsSPiIbWYwANCBPw,redclickstar,321486_360__,Install,1.9,121.131.41.171,379249a8-67de-450c-a691-092d2a1de3ea,1557366794,2019-05-09 09:53:14,1557366976,2019-05-09 09:56:16,1557367006,N8OJC5noO10ZxmP0C5XyHhVe4004K0_rtbs1_rtbs2_rtbs30ORIGIN23729759end_rtbaff321486_rtboffer23729759_rtbsub360_,http://www.redclickstarventures.com/pixel.php?aff=9&aff_sub=N8OJC5noO10ZxmP0C5XyHhVe4004K0_rtbs1_rtbs2_rtbs30ORIGIN23729759end_rtbaff321486_rtboffer23729759_rtbsub360_,idfa_379249a8-67de-450c-a691-092d2a1de3ea,%ED%95%9C%EA%B5%AD%EC%96%B4
ngC2wqrsSPiIbWYwANCBPw,redclickstar,321486_360__,Install,1.9,123.143.4.25,f629b518-f813-424b-9349-ba3a5ea71889,1557366128,2019-05-09 09:42:08,1557366273,2019-05-09 09:44:33,1557366304,00HebJdX4o0ZO0ZCJO1o40a0y5jvLj_rtbs1_rtbs2_rtbs30ORIGIN23729759end_rtbaff321486_rtboffer23729759_rtbsub360_,http://www.redclickstarventures.com/pixel.php?aff=9&aff_sub=00HebJdX4o0ZO0ZCJO1o40a0y5jvLj_rtbs1_rtbs2_rtbs30ORIGIN23729759end_rtbaff321486_rtboffer23729759_rtbsub360_,idfa_f629b518-f813-424b-9349-ba3a5ea71889,%ED%95%9C%EA%B5%AD%EC%96%B4
ngC2wqrsSPiIbWYwANCBPw,redclickstar,321486_360__,Install,1.9,106.242.93.226,b8b90c27-2fd5-4f9f-b819-c00529286300,1557366173,2019-05-09 09:42:53,1557366388,2019-05-09 09:46:28,1557366419,l58v1JCZ0Lb64J0oHOh0XZy0O5yC50_rtbs1_rtbs2_rtbs30ORIGIN23729759end_rtbaff321486_rtboffer23729759_rtbsub360_,http://www.redclickstarventures.com/pixel.php?aff=9&aff_sub=l58v1JCZ0Lb64J0oHOh0XZy0O5yC50_rtbs1_rtbs2_rtbs30ORIGIN23729759end_rtbaff321486_rtboffer23729759_rtbsub360_,idfa_b8b90c27-2fd5-4f9f-b819-c00529286300,%ED%95%9C%EA%B5%AD%EC%96%B4
ngC2wqrsSPiIbWYwANCBPw,redclickstar,321486_360__,Install,1.9,121.129.206.120,760328e6-e618-4b93-b53f-55474ef113a0,1557368231,2019-05-09 10:17:11,1557368341,2019-05-09 10:19:01,1557368376,ioC0P705XHhOy0q4ZxH1OMuaJ0C250_rtbs1_rtbs2_rtbs30ORIGIN23729759end_rtbaff321486_rtboffer23729759_rtbsub360_,http://www.redclickstarventures.com/pixel.php?aff=9&aff_sub=ioC0P705XHhOy0q4ZxH1OMuaJ0C250_rtbs1_rtbs2_rtbs30ORIGIN23729759end_rtbaff321486_rtboffer23729759_rtbsub360_,idfa_760328e6-e618-4b93-b53f-55474ef113a0,%ED%95%9C%EA%B5%AD%EC%96%B4
ngC2wqrsSPiIbWYwANCBPw,redclickstar,321486_360__,Install,1.9,116.120.40.82,61a86c2c-032f-47b3-93e1-b0dd0e15a416,1557367662,2019-05-09 10:07:42,1557367819,2019-05-09 10:10:19,1557367850,VPdXZ4Aw4Q050Jhjyso00zbOOHQ0C1_rtbs1_rtbs2_rtbs30ORIGIN23729759end_rtbaff321486_rtboffer23729759_rtbsub360_,http://www.redclickstarventures.com/pixel.php?aff=9&aff_sub=VPdXZ4Aw4Q050Jhjyso00zbOOHQ0C1_rtbs1_rtbs2_rtbs30ORIGIN23729759end_rtbaff321486_rtboffer23729759_rtbsub360_,idfa_61a86c2c-032f-47b3-93e1-b0dd0e15a416,%ED%95%9C%EA%B5%AD%EC%96%B4
ngC2wqrsSPiIbWYwANCBPw,redclickstar,321486_360__,Install,1.9,116.37.70.151,5f0b269b-1de1-4f82-a9a5-c47970cfdc00,1557368239,2019-05-09 10:17:19,1557368399,2019-05-09 10:19:59,1557368429,jO0yiCGOCo5J9010YEhH0Zs9NIX4B0_rtbs1_rtbs2_rtbs30ORIGIN23729759end_rtbaff321486_rtboffer23729759_rtbsub360_,http://www.redclickstarventures.com/pixel.php?aff=9&aff_sub=jO0yiCGOCo5J9010YEhH0Zs9NIX4B0_rtbs1_rtbs2_rtbs30ORIGIN23729759end_rtbaff321486_rtboffer23729759_rtbsub360_,idfa_5f0b269b-1de1-4f82-a9a5-c47970cfdc00,%ED%95%9C%EA%B5%AD%EC%96%B4
ngC2wqrsSPiIbWYwANCBPw,redclickstar,321486_360__,Install,1.9,112.173.75.154,385adafa-eba5-4578-b842-a51b27f1d8bb,1557367039,2019-05-09 09:57:19,1557367176,2019-05-09 09:59:36,1557367207,Q1y4VX4Oto0O8G0U0ZC0ji5Hld0rJJ_rtbs1_rtbs2_rtbs30ORIGIN23729759end_rtbaff321486_rtboffer23729759_rtbsub360_,http://www.redclickstarventures.com/pixel.php?aff=9&aff_sub=Q1y4VX4Oto0O8G0U0ZC0ji5Hld0rJJ_rtbs1_rtbs2_rtbs30ORIGIN23729759end_rtbaff321486_rtboffer23729759_rtbsub360_,idfa_385adafa-eba5-4578-b842-a51b27f1d8bb,%ED%95%9C%EA%B5%AD%EC%96%B4
ngC2wqrsSPiIbWYwANCBPw,redclickstar,321486_360__,Install,1.9,221.149.104.247,312b5f60-c815-4c83-9c2a-82108429e4e9,1557366603,2019-05-09 09:50:03,1557366778,2019-05-09 09:52:58,1557366812,z0J0dkOOb1C5HXc0pI001y0o4jJisZ_rtbs1_rtbs2_rtbs30ORIGIN23729759end_rtbaff321486_rtboffer23729759_rtbsub360_,http://www.redclickstarventures.com/pixel.php?aff=9&aff_sub=z0J0dkOOb1C5HXc0pI001y0o4jJisZ_rtbs1_rtbs2_rtbs30ORIGIN23729759end_rtbaff321486_rtboffer23729759_rtbsub360_,idfa_312b5f60-c815-4c83-9c2a-82108429e4e9,%ED%95%9C%EA%B5%AD%EC%96%B4
ngC2wqrsSPiIbWYwANCBPw,redclickstar,321486_360__,Install,1.9,125.137.69.179,557952a4-7b37-4631-a77e-349417627058,1557367976,2019-05-09 10:12:56,1557368122,2019-05-09 10:15:22,1557368152,z0J0YIOOyAC5HXB0lgz01y0o4D0jwZ_rtbs1_rtbs2_rtbs30ORIGIN23729759end_rtbaff321486_rtboffer23729759_rtbsub360_,http://www.redclickstarventures.com/pixel.php?aff=9&aff_sub=z0J0YIOOyAC5HXB0lgz01y0o4D0jwZ_rtbs1_rtbs2_rtbs30ORIGIN23729759end_rtbaff321486_rtboffer23729759_rtbsub360_,idfa_557952a4-7b37-4631-a77e-349417627058,%ED%95%9C%EA%B5%AD%EC%96%B4
ngC2wqrsSPiIbWYwANCBPw,redclickstar,321486_360__,Install,1.9,221.144.62.186,738b97a3-adb1-48d2-9727-7bbc57d24997,1557367546,2019-05-09 10:05:46,1557367687,2019-05-09 10:08:07,1557367718,ioC03v04XRhOy0n4ZpH1OLuHJ0r250_rtbs1_rtbs2_rtbs30ORIGIN23729759end_rtbaff321486_rtboffer23729759_rtbsub360_,http://www.redclickstarventures.com/pixel.php?aff=9&aff_sub=ioC03v04XRhOy0n4ZpH1OLuHJ0r250_rtbs1_rtbs2_rtbs30ORIGIN23729759end_rtbaff321486_rtboffer23729759_rtbsub360_,idfa_738b97a3-adb1-48d2-9727-7bbc57d24997,%ED%95%9C%EA%B5%AD%EC%96%B4
ngC2wqrsSPiIbWYwANCBPw,redclickstar,321486_360__,Install,1.9,221.146.69.63,2cbb11d6-e607-4b93-a7ee-5d2638082e72,1557554965,2019-05-11 14:09:25,1557554975,2019-05-11 14:09:35,1557555006,RaZp6TtxOHhW1c000C0Xn5sa4J80lO_rtbs1_rtbs2_rtbs30ORIGIN23729759end_rtbaff321486_rtboffer23729759_rtbsub360_,http://www.redclickstarventures.com/pixel.php?aff=9&aff_sub=RaZp6TtxOHhW1c000C0Xn5sa4J80lO_rtbs1_rtbs2_rtbs30ORIGIN23729759end_rtbaff321486_rtboffer23729759_rtbsub360_,idfa_2cbb11d6-e607-4b93-a7ee-5d2638082e72,%ED%95%9C%EA%B5%AD%EC%96%B4
ngC2wqrsSPiIbWYwANCBPw,redclickstar,321486_360__,Install,1.9,59.28.114.235,26dd2b2b-2b8e-45cb-a2b0-57c1bff00f45,1557366144,2019-05-09 09:42:24,1557366288,2019-05-09 09:44:48,1557366318,4OV1x0oJhj00Z8P0u4n04O5yXHhECb_rtbs1_rtbs2_rtbs30ORIGIN23729759end_rtbaff321486_rtboffer23729759_rtbsub360_,http://www.redclickstarventures.com/pixel.php?aff=9&aff_sub=4OV1x0oJhj00Z8P0u4n04O5yXHhECb_rtbs1_rtbs2_rtbs30ORIGIN23729759end_rtbaff321486_rtboffer23729759_rtbsub360_,idfa_26dd2b2b-2b8e-45cb-a2b0-57c1bff00f45,%ED%95%9C%EA%B5%AD%EC%96%B4
ngC2wqrsSPiIbWYwANCBPw,redclickstar,321486_360__,Install,1.9,121.160.227.120,b2eb501b-92b1-4af1-bb90-9fef08958ef5,1557571711,2019-05-11 18:48:31,1557571721,2019-05-11 18:48:41,1557571751,bfh0451OpJ0X0YlvO0by0rHUjCZ0Hp_rtbs1_rtbs2_rtbs30ORIGIN23729759end_rtbaff321486_rtboffer23729759_rtbsub360_,http://www.redclickstarventures.com/pixel.php?aff=9&aff_sub=bfh0451OpJ0X0YlvO0by0rHUjCZ0Hp_rtbs1_rtbs2_rtbs30ORIGIN23729759end_rtbaff321486_rtboffer23729759_rtbsub360_,idfa_b2eb501b-92b1-4af1-bb90-9fef08958ef5,%ED%95%9C%EA%B5%AD%EC%96%B4
ngC2wqrsSPiIbWYwANCBPw,redclickstar,321486_360__,Install,1.9,39.118.38.114,927c982c-6d64-4971-b8a7-26c60f485eab,1557366483,2019-05-09 09:48:03,1557366636,2019-05-09 09:50:36,1557366667,TJ0mZ00Yu1Eox4yC0hOX90NUOqsy5H_rtbs1_rtbs2_rtbs30ORIGIN23729759end_rtbaff321486_rtboffer23729759_rtbsub360_,http://www.redclickstarventures.com/pixel.php?aff=9&aff_sub=TJ0mZ00Yu1Eox4yC0hOX90NUOqsy5H_rtbs1_rtbs2_rtbs30ORIGIN23729759end_rtbaff321486_rtboffer23729759_rtbsub360_,idfa_927c982c-6d64-4971-b8a7-26c60f485eab,%ED%95%9C%EA%B5%AD%EC%96%B4
ngC2wqrsSPiIbWYwANCBPw,redclickstar,321486_360__,Install,1.9,175.193.30.30,71bc9cd2-1160-4559-bec4-9d2210f3f2d3,1557367603,2019-05-09 10:06:43,1557367728,2019-05-09 10:08:48,1557367759,bAj0451OoJ0X0JSuOXZr0WHvYCZ0Qy_rtbs1_rtbs2_rtbs30ORIGIN23729759end_rtbaff321486_rtboffer23729759_rtbsub360_,http://www.redclickstarventures.com/pixel.php?aff=9&aff_sub=bAj0451OoJ0X0JSuOXZr0WHvYCZ0Qy_rtbs1_rtbs2_rtbs30ORIGIN23729759end_rtbaff321486_rtboffer23729759_rtbsub360_,idfa_71bc9cd2-1160-4559-bec4-9d2210f3f2d3,%ED%95%9C%EA%B5%AD%EC%96%B4
ngC2wqrsSPiIbWYwANCBPw,redclickstar,321486_360__,Install,1.9,14.33.245.82,b3c905f4-24c9-47c9-90e2-7c5b268ea830,1557368266,2019-05-09 10:17:46,1557368419,2019-05-09 10:20:19,1557368451,JcyhW405of0Z0CX1OZ1JCxHh0uOdz0_rtbs1_rtbs2_rtbs30ORIGIN23729759end_rtbaff321486_rtboffer23729759_rtbsub360_,http://www.redclickstarventures.com/pixel.php?aff=9&aff_sub=JcyhW405of0Z0CX1OZ1JCxHh0uOdz0_rtbs1_rtbs2_rtbs30ORIGIN23729759end_rtbaff321486_rtboffer23729759_rtbsub360_,idfa_b3c905f4-24c9-47c9-90e2-7c5b268ea830,%ED%95%9C%EA%B5%AD%EC%96%B4
ngC2wqrsSPiIbWYwANCBPw,redclickstar,321486_360__,Install,1.9,121.153.4.151,0e460713-3fa8-4433-a50a-9a9f21ac0058,1557366801,2019-05-09 09:53:21,1557367031,2019-05-09 09:57:11,1557367074,5Bo100JyU3fOOXc5p82Hg0Z604iC50_rtbs1_rtbs2_rtbs30ORIGIN23729759end_rtbaff321486_rtboffer23729759_rtbsub360_,http://www.redclickstarventures.com/pixel.php?aff=9&aff_sub=5Bo100JyU3fOOXc5p82Hg0Z604iC50_rtbs1_rtbs2_rtbs30ORIGIN23729759end_rtbaff321486_rtboffer23729759_rtbsub360_,idfa_0e460713-3fa8-4433-a50a-9a9f21ac0058,%ED%95%9C%EA%B5%AD%EC%96%B4
ngC2wqrsSPiIbWYwANCBPw,redclickstar,321486_360__,Install,1.9,124.49.138.135,16a66098-08ec-410b-ba4a-c99d6c821895,1557367301,2019-05-09 10:01:41,1557367448,2019-05-09 10:04:08,1557367479,I0nX48y1J0OOnZ4ChZluHNe05008o0_rtbs1_rtbs2_rtbs30ORIGIN23729759end_rtbaff321486_rtboffer23729759_rtbsub360_,http://www.redclickstarventures.com/pixel.php?aff=9&aff_sub=I0nX48y1J0OOnZ4ChZluHNe05008o0_rtbs1_rtbs2_rtbs30ORIGIN23729759end_rtbaff321486_rtboffer23729759_rtbsub360_,idfa_16a66098-08ec-410b-ba4a-c99d6c821895,%ED%95%9C%EA%B5%AD%EC%96%B4
ngC2wqrsSPiIbWYwANCBPw,redclickstar,321486_360__,Install,1.9,39.114.223.119,4ade3d72-6b83-4cd2-aba9-ebae15bb8084,1557621145,2019-05-12 08:32:25,1557621190,2019-05-12 08:33:10,1557621220,30pVAC5JnO0CUHuphOD1ZG005X08I4_rtbs1_rtbs2_rtbs30ORIGIN23729759end_rtbaff321486_rtboffer23729759_rtbsub360_,http://www.redclickstarventures.com/pixel.php?aff=9&aff_sub=30pVAC5JnO0CUHuphOD1ZG005X08I4_rtbs1_rtbs2_rtbs30ORIGIN23729759end_rtbaff321486_rtboffer23729759_rtbsub360_,idfa_4ade3d72-6b83-4cd2-aba9-ebae15bb8084,%ED%95%9C%EA%B5%AD%EC%96%B4
ngC2wqrsSPiIbWYwANCBPw,redclickstar,321486_360__,Install,1.9,221.150.165.195,3c8df6bc-2862-4b6d-91fe-7c8374f618de,1557366131,2019-05-09 09:42:11,1557366283,2019-05-09 09:44:43,1557366315,XT4O0fW50d610C0JioXy0hOiHZ9014_rtbs1_rtbs2_rtbs30ORIGIN23729759end_rtbaff321486_rtboffer23729759_rtbsub360_,http://www.redclickstarventures.com/pixel.php?aff=9&aff_sub=XT4O0fW50d610C0JioXy0hOiHZ9014_rtbs1_rtbs2_rtbs30ORIGIN23729759end_rtbaff321486_rtboffer23729759_rtbsub360_,idfa_3c8df6bc-2862-4b6d-91fe-7c8374f618de,%ED%95%9C%EA%B5%AD%EC%96%B4
ngC2wqrsSPiIbWYwANCBPw,redclickstar,321486_360__,Install,1.9,118.220.64.41,a57ff20d-3712-4087-8fef-6b6b38b2f647,1557631693,2019-05-12 11:28:13,1557631816,2019-05-12 11:30:16,1557631846,nPCJCm4079F1000XhIDNzOp5OHBZh0_rtbs1_rtbs2_rtbs30ORIGIN23729759end_rtbaff321486_rtboffer23729759_rtbsub360_,http://www.redclickstarventures.com/pixel.php?aff=9&aff_sub=nPCJCm4079F1000XhIDNzOp5OHBZh0_rtbs1_rtbs2_rtbs30ORIGIN23729759end_rtbaff321486_rtboffer23729759_rtbsub360_,idfa_a57ff20d-3712-4087-8fef-6b6b38b2f647,%ED%95%9C%EA%B5%AD%EC%96%B4
ngC2wqrsSPiIbWYwANCBPw,redclickstar,321486_360__,Install,1.9,222.106.235.189,69e46ef5-d488-4f7a-9468-f83c43345555,1557365994,2019-05-09 09:39:54,1557366111,2019-05-09 09:41:51,1557366142,MM0Oj51ylo60H00J0iCZq1420YzpXO_rtbs1_rtbs2_rtbs30ORIGIN23729759end_rtbaff321486_rtboffer23729759_rtbsub360_,http://www.redclickstarventures.com/pixel.php?aff=9&aff_sub=MM0Oj51ylo60H00J0iCZq1420YzpXO_rtbs1_rtbs2_rtbs30ORIGIN23729759end_rtbaff321486_rtboffer23729759_rtbsub360_,idfa_69e46ef5-d488-4f7a-9468-f83c43345555,%ED%95%9C%EA%B5%AD%EC%96%B4
ngC2wqrsSPiIbWYwANCBPw,redclickstar,321486_360__,Install,1.9,122.43.14.139,84bd53bc-5e88-4db5-b020-e4f5e626327a,1557367607,2019-05-09 10:06:47,1557367756,2019-05-09 10:09:16,1557367787,TJ0tZ00Y81Mon46C0hOXs03zOpcy5H_rtbs1_rtbs2_rtbs30ORIGIN23729759end_rtbaff321486_rtboffer23729759_rtbsub360_,http://www.redclickstarventures.com/pixel.php?aff=9&aff_sub=TJ0tZ00Y81Mon46C0hOXs03zOpcy5H_rtbs1_rtbs2_rtbs30ORIGIN23729759end_rtbaff321486_rtboffer23729759_rtbsub360_,idfa_84bd53bc-5e88-4db5-b020-e4f5e626327a,%ED%95%9C%EA%B5%AD%EC%96%B4
ngC2wqrsSPiIbWYwANCBPw,redclickstar,321486_360__,Install,1.9,119.204.243.114,d06a201b-85a4-4cd1-b85f-2637430368cd,1557366167,2019-05-09 09:42:47,1557366296,2019-05-09 09:44:56,1557366328,jO0yiCHO4o5Js010wggH0ZYFF6X4K0_rtbs1_rtbs2_rtbs30ORIGIN23729759end_rtbaff321486_rtboffer23729759_rtbsub360_,http://www.redclickstarventures.com/pixel.php?aff=9&aff_sub=jO0yiCHO4o5Js010wggH0ZYFF6X4K0_rtbs1_rtbs2_rtbs30ORIGIN23729759end_rtbaff321486_rtboffer23729759_rtbsub360_,idfa_d06a201b-85a4-4cd1-b85f-2637430368cd,%ED%95%9C%EA%B5%AD%EC%96%B4
ngC2wqrsSPiIbWYwANCBPw,redclickstar,321486_360__,Install,1.9,220.94.155.128,59a7792f-c98f-4e84-9ca8-451f48858c05,1557367633,2019-05-09 10:07:13,1557367764,2019-05-09 10:09:24,1557367794,hshOC9040mo1O5X0HP00y5IvqCZJh3_rtbs1_rtbs2_rtbs30ORIGIN23729759end_rtbaff321486_rtboffer23729759_rtbsub360_,http://www.redclickstarventures.com/pixel.php?aff=9&aff_sub=hshOC9040mo1O5X0HP00y5IvqCZJh3_rtbs1_rtbs2_rtbs30ORIGIN23729759end_rtbaff321486_rtboffer23729759_rtbsub360_,idfa_59a7792f-c98f-4e84-9ca8-451f48858c05,%ED%95%9C%EA%B5%AD%EC%96%B4
ngC2wqrsSPiIbWYwANCBPw,redclickstar,321486_360__,Install,1.9,116.42.97.30,4886368f-7654-40c8-97c4-f6448454bd28,1557366769,2019-05-09 09:52:49,1557366950,2019-05-09 09:55:50,1557366983,ioC0pB0xXfjOy0X4ZTH1OY6uJ0eM50_rtbs1_rtbs2_rtbs30ORIGIN23729759end_rtbaff321486_rtboffer23729759_rtbsub360_,http://www.redclickstarventures.com/pixel.php?aff=9&aff_sub=ioC0pB0xXfjOy0X4ZTH1OY6uJ0eM50_rtbs1_rtbs2_rtbs30ORIGIN23729759end_rtbaff321486_rtboffer23729759_rtbsub360_,idfa_4886368f-7654-40c8-97c4-f6448454bd28,%ED%95%9C%EA%B5%AD%EC%96%B4
ngC2wqrsSPiIbWYwANCBPw,redclickstar,321486_360__,Install,1.9,222.251.206.231,68d82668-5e76-491f-a2d4-2c4552b2dde3,1557366788,2019-05-09 09:53:08,1557366930,2019-05-09 09:55:30,1557366961,Lo00ekiy51MXBOOAZJst0Hj0MC0C40_rtbs1_rtbs2_rtbs30ORIGIN23729759end_rtbaff321486_rtboffer23729759_rtbsub360_,http://www.redclickstarventures.com/pixel.php?aff=9&aff_sub=Lo00ekiy51MXBOOAZJst0Hj0MC0C40_rtbs1_rtbs2_rtbs30ORIGIN23729759end_rtbaff321486_rtboffer23729759_rtbsub360_,idfa_68d82668-5e76-491f-a2d4-2c4552b2dde3,%ED%95%9C%EA%B5%AD%EC%96%B4
ngC2wqrsSPiIbWYwANCBPw,redclickstar,321486_360__,Install,1.9,116.39.82.120,b57d1727-8be0-4874-b233-5e3b126e7467,1557368275,2019-05-09 10:17:55,1557368454,2019-05-09 10:20:54,1557368485,VFBXZ4Anc8050JvhyCo00PuOOH60C1_rtbs1_rtbs2_rtbs30ORIGIN23729759end_rtbaff321486_rtboffer23729759_rtbsub360_,http://www.redclickstarventures.com/pixel.php?aff=9&aff_sub=VFBXZ4Anc8050JvhyCo00PuOOH60C1_rtbs1_rtbs2_rtbs30ORIGIN23729759end_rtbaff321486_rtboffer23729759_rtbsub360_,idfa_b57d1727-8be0-4874-b233-5e3b126e7467,%ED%95%9C%EA%B5%AD%EC%96%B4
ngC2wqrsSPiIbWYwANCBPw,redclickstar,321486_360__,Install,1.9,121.190.230.71,2282d679-421f-4ec3-a924-6c2998954cff,1557368249,2019-05-09 10:17:29,1557368415,2019-05-09 10:20:15,1557368451,kJ450ZjOCu0yHXd10W000UWiOZoCLg_rtbs1_rtbs2_rtbs30ORIGIN23729759end_rtbaff321486_rtboffer23729759_rtbsub360_,http://www.redclickstarventures.com/pixel.php?aff=9&aff_sub=kJ450ZjOCu0yHXd10W000UWiOZoCLg_rtbs1_rtbs2_rtbs30ORIGIN23729759end_rtbaff321486_rtboffer23729759_rtbsub360_,idfa_2282d679-421f-4ec3-a924-6c2998954cff,%ED%95%9C%EA%B5%AD%EC%96%B4
ngC2wqrsSPiIbWYwANCBPw,redclickstar,321486_360__,Install,1.9,112.216.134.18,2bb41b8e-7082-4491-b805-055ef37f7447,1557368238,2019-05-09 10:17:18,1557368409,2019-05-09 10:20:09,1557368439,TJ0GZ00hw1boF4yC0iOXC09EOjMy5H_rtbs1_rtbs2_rtbs30ORIGIN23729759end_rtbaff321486_rtboffer23729759_rtbsub360_,http://www.redclickstarventures.com/pixel.php?aff=9&aff_sub=TJ0GZ00hw1boF4yC0iOXC09EOjMy5H_rtbs1_rtbs2_rtbs30ORIGIN23729759end_rtbaff321486_rtboffer23729759_rtbsub360_,idfa_2bb41b8e-7082-4491-b805-055ef37f7447,%ED%95%9C%EA%B5%AD%EC%96%B4
ngC2wqrsSPiIbWYwANCBPw,redclickstar,321486_360__,Install,1.9,49.173.15.50,9a74a6ea-f829-42a1-8319-23e36d4a1532,1557562794,2019-05-11 16:19:54,1557562807,2019-05-11 16:20:07,1557562837,VsRXZ4gPwD050Jqhnep00ljOOHe0C1_rtbs1_rtbs2_rtbs30ORIGIN23729759end_rtbaff321486_rtboffer23729759_rtbsub360_,http://www.redclickstarventures.com/pixel.php?aff=9&aff_sub=VsRXZ4gPwD050Jqhnep00ljOOHe0C1_rtbs1_rtbs2_rtbs30ORIGIN23729759end_rtbaff321486_rtboffer23729759_rtbsub360_,idfa_9a74a6ea-f829-42a1-8319-23e36d4a1532,%ED%95%9C%EA%B5%AD%EC%96%B4
ngC2wqrsSPiIbWYwANCBPw,redclickstar,321486_360__,Install,1.9,219.248.230.248,753181d2-bf3a-43d4-b971-dbd6e3df1e8c,1557366166,2019-05-09 09:42:46,1557366330,2019-05-09 09:45:30,1557366361,d14qX0HoVC05iH0JkO0h0KZrFyO04o_rtbs1_rtbs2_rtbs30ORIGIN23729759end_rtbaff321486_rtboffer23729759_rtbsub360_,http://www.redclickstarventures.com/pixel.php?aff=9&aff_sub=d14qX0HoVC05iH0JkO0h0KZrFyO04o_rtbs1_rtbs2_rtbs30ORIGIN23729759end_rtbaff321486_rtboffer23729759_rtbsub360_,idfa_753181d2-bf3a-43d4-b971-dbd6e3df1e8c,%ED%95%9C%EA%B5%AD%EC%96%B4
ngC2wqrsSPiIbWYwANCBPw,redclickstar,321486_360__,Install,1.9,211.35.179.17,8794c6b3-9525-4270-aaf0-3121061fc4a2,1557368263,2019-05-09 10:17:43,1557368434,2019-05-09 10:20:34,1557368507,bSh0451OoJ0X0Yc5OkBC0CHUiCZ08y_rtbs1_rtbs2_rtbs30ORIGIN23729759end_rtbaff321486_rtboffer23729759_rtbsub360_,http://www.redclickstarventures.com/pixel.php?aff=9&aff_sub=bSh0451OoJ0X0Yc5OkBC0CHUiCZ08y_rtbs1_rtbs2_rtbs30ORIGIN23729759end_rtbaff321486_rtboffer23729759_rtbsub360_,idfa_8794c6b3-9525-4270-aaf0-3121061fc4a2,%ED%95%9C%EA%B5%AD%EC%96%B4
ngC2wqrsSPiIbWYwANCBPw,redclickstar,321486_360__,Install,1.9,223.38.22.55,5138f256-f49e-432f-bee1-cd08c0483780,1557367426,2019-05-09 10:03:46,1557367566,2019-05-09 10:06:06,1557367597,P501GhpoL0507pXZFCJd4O0sHNy0Oi_rtbs1_rtbs2_rtbs30ORIGIN23729759end_rtbaff321486_rtboffer23729759_rtbsub360_,http://www.redclickstarventures.com/pixel.php?aff=9&aff_sub=P501GhpoL0507pXZFCJd4O0sHNy0Oi_rtbs1_rtbs2_rtbs30ORIGIN23729759end_rtbaff321486_rtboffer23729759_rtbsub360_,idfa_5138f256-f49e-432f-bee1-cd08c0483780,%ED%95%9C%EA%B5%AD%EC%96%B4
ngC2wqrsSPiIbWYwANCBPw,redclickstar,321486_360__,Install,1.9,115.140.208.17,bfb73e75-ce8e-4d69-902d-07effd929338,1557368061,2019-05-09 10:14:21,1557368351,2019-05-09 10:19:11,1557368381,x0t5Tj6ZOHOoUC104B0m0ye6fJ0XzT_rtbs1_rtbs2_rtbs30ORIGIN23729759end_rtbaff321486_rtboffer23729759_rtbsub360_,http://www.redclickstarventures.com/pixel.php?aff=9&aff_sub=x0t5Tj6ZOHOoUC104B0m0ye6fJ0XzT_rtbs1_rtbs2_rtbs30ORIGIN23729759end_rtbaff321486_rtboffer23729759_rtbsub360_,idfa_bfb73e75-ce8e-4d69-902d-07effd929338,%ED%95%9C%EA%B5%AD%EC%96%B4
ngC2wqrsSPiIbWYwANCBPw,redclickstar,321486_360__,Install,1.9,14.34.126.20,f67bb84d-98c3-466f-9412-e0efb0ce2639,1557367546,2019-05-09 10:05:46,1557367889,2019-05-09 10:11:29,1557367934,WJ0H4jgdqotyCc0JO1OC05ZG010XJN_rtbs1_rtbs2_rtbs30ORIGIN23729759end_rtbaff321486_rtboffer23729759_rtbsub360_,http://www.redclickstarventures.com/pixel.php?aff=9&aff_sub=WJ0H4jgdqotyCc0JO1OC05ZG010XJN_rtbs1_rtbs2_rtbs30ORIGIN23729759end_rtbaff321486_rtboffer23729759_rtbsub360_,idfa_f67bb84d-98c3-466f-9412-e0efb0ce2639,%ED%95%9C%EA%B5%AD%EC%96%B4
ngC2wqrsSPiIbWYwANCBPw,redclickstar,321486_360__,Install,1.9,58.238.50.164,1b21aa75-e218-4339-a4a9-cc46ea8da93d,1557366779,2019-05-09 09:52:59,1557366963,2019-05-09 09:56:03,1557366993,G1BHr0Wce4ZyuOj010OX0o0Jjlk5HC_rtbs1_rtbs2_rtbs30ORIGIN23729759end_rtbaff321486_rtboffer23729759_rtbsub360_,http://www.redclickstarventures.com/pixel.php?aff=9&aff_sub=G1BHr0Wce4ZyuOj010OX0o0Jjlk5HC_rtbs1_rtbs2_rtbs30ORIGIN23729759end_rtbaff321486_rtboffer23729759_rtbsub360_,idfa_1b21aa75-e218-4339-a4a9-cc46ea8da93d,%ED%95%9C%EA%B5%AD%EC%96%B4
ngC2wqrsSPiIbWYwANCBPw,redclickstar,321486_360__,Install,1.9,112.162.2.203,ae213d25-7df0-43ca-8325-7b6724ba9587,1557366451,2019-05-09 09:47:31,1557366600,2019-05-09 09:50:00,1557366631,y0490ohim5F1TH0Jjt0CZXy0Om0VDO_rtbs1_rtbs2_rtbs30ORIGIN23729759end_rtbaff321486_rtboffer23729759_rtbsub360_,http://www.redclickstarventures.com/pixel.php?aff=9&aff_sub=y0490ohim5F1TH0Jjt0CZXy0Om0VDO_rtbs1_rtbs2_rtbs30ORIGIN23729759end_rtbaff321486_rtboffer23729759_rtbsub360_,idfa_ae213d25-7df0-43ca-8325-7b6724ba9587,%ED%95%9C%EA%B5%AD%EC%96%B4
ngC2wqrsSPiIbWYwANCBPw,redclickstar,321486_360__,Install,1.9,221.146.12.33,76f5fce0-6158-410c-86f2-c664dbeb931e,1557368083,2019-05-09 10:14:43,1557368382,2019-05-09 10:19:42,1557368415,K00ZQInOyJ5o31Xh0QC4C5O0yHL0Hz_rtbs1_rtbs2_rtbs30ORIGIN23729759end_rtbaff321486_rtboffer23729759_rtbsub360_,http://www.redclickstarventures.com/pixel.php?aff=9&aff_sub=K00ZQInOyJ5o31Xh0QC4C5O0yHL0Hz_rtbs1_rtbs2_rtbs30ORIGIN23729759end_rtbaff321486_rtboffer23729759_rtbsub360_,idfa_76f5fce0-6158-410c-86f2-c664dbeb931e,%ED%95%9C%EA%B5%AD%EC%96%B4
ngC2wqrsSPiIbWYwANCBPw,redclickstar,321486_360__,Install,1.9,218.155.54.161,9088d120-920d-4ee0-bf7c-e01c80dde516,1557627864,2019-05-12 10:24:24,1557628052,2019-05-12 10:27:32,1557628083,A50iP01Np40OEXDZHrhageJCOT00Z0_rtbs1_rtbs2_rtbs30ORIGIN23729759end_rtbaff321486_rtboffer23729759_rtbsub360_,http://www.redclickstarventures.com/pixel.php?aff=9&aff_sub=A50iP01Np40OEXDZHrhageJCOT00Z0_rtbs1_rtbs2_rtbs30ORIGIN23729759end_rtbaff321486_rtboffer23729759_rtbsub360_,idfa_9088d120-920d-4ee0-bf7c-e01c80dde516,%ED%95%9C%EA%B5%AD%EC%96%B4
ngC2wqrsSPiIbWYwANCBPw,redclickstar,321486_360__,Install,1.9,61.4.201.244,1cf5653e-632a-4dc1-bc5b-cbf385c5669a,1557368053,2019-05-09 10:14:13,1557368218,2019-05-09 10:16:58,1557368248,6rJxyZW0004hoOiz0X580CX4OH0a1u_rtbs1_rtbs2_rtbs30ORIGIN23729759end_rtbaff321486_rtboffer23729759_rtbsub360_,http://www.redclickstarventures.com/pixel.php?aff=9&aff_sub=6rJxyZW0004hoOiz0X580CX4OH0a1u_rtbs1_rtbs2_rtbs30ORIGIN23729759end_rtbaff321486_rtboffer23729759_rtbsub360_,idfa_1cf5653e-632a-4dc1-bc5b-cbf385c5669a,%ED%95%9C%EA%B5%AD%EC%96%B4
ngC2wqrsSPiIbWYwANCBPw,redclickstar,321486_360__,Install,1.9,183.102.81.72,7371bb49-34b0-4e17-a793-d9bb99b99153,1557366445,2019-05-09 09:47:25,1557366571,2019-05-09 09:49:31,1557366601,CpO904Z01BOHPy80iaoJk5050CxXiZ_rtbs1_rtbs2_rtbs30ORIGIN23729759end_rtbaff321486_rtboffer23729759_rtbsub360_,http://www.redclickstarventures.com/pixel.php?aff=9&aff_sub=CpO904Z01BOHPy80iaoJk5050CxXiZ_rtbs1_rtbs2_rtbs30ORIGIN23729759end_rtbaff321486_rtboffer23729759_rtbsub360_,idfa_7371bb49-34b0-4e17-a793-d9bb99b99153,%ED%95%9C%EA%B5%AD%EC%96%B4
ngC2wqrsSPiIbWYwANCBPw,redclickstar,321486_360__,Install,1.9,1.11.70.2,a8187644-9838-4eae-889d-3fc55117f774,1557366184,2019-05-09 09:43:04,1557366513,2019-05-09 09:48:33,1557366543,g4to5iJyCvd0e2001HkZ0XOcx0X5Oo_rtbs1_rtbs2_rtbs30ORIGIN23729759end_rtbaff321486_rtboffer23729759_rtbsub360_,http://www.redclickstarventures.com/pixel.php?aff=9&aff_sub=g4to5iJyCvd0e2001HkZ0XOcx0X5Oo_rtbs1_rtbs2_rtbs30ORIGIN23729759end_rtbaff321486_rtboffer23729759_rtbsub360_,idfa_a8187644-9838-4eae-889d-3fc55117f774,%ED%95%9C%EA%B5%AD%EC%96%B4
