cid,partner_id,channel_id,action_id,cpi,ip,idfa,click time,click datetime,install time,install datetime,postback time,click id,postback url,unique user id
LJ-ZT7xvTiy2ImQ1BQSyTg,revmob_cpi,_5a6f9bf7a30c3b1c882e0bdb_ci86pdkymvqxzf8pykfhs6lc4,Install,0.5,222.252.12.76,322D7F88-B102-4778-B321-D872C64FFDF2,1557108392,2019-05-06 10:06:32,1557108411,2019-05-06 10:06:51,1557108442,96b1efa6-0303-5159,https://s2s.revmob.com/api/v4/conversion/96b1efa6-0303-5159/conversion.json,idfa_322D7F88-B102-4778-B321-D872C64FFDF2,vi-VN
LJ-ZT7xvTiy2ImQ1BQSyTg,revmob_cpi,_5a6f9bf7a30c3b1c882e0bdb_ci86pdkymvqxzf8pykfhs6lc4,Install,0.5,27.76.184.238,45774ADB-9CD8-40DD-8FC7-1EE444E41C59,1557108487,2019-05-06 10:08:07,1557108504,2019-05-06 10:08:24,1557108534,9661efa6-9b73-8e4c,https://s2s.revmob.com/api/v4/conversion/9661efa6-9b73-8e4c/conversion.json,idfa_45774ADB-9CD8-40DD-8FC7-1EE444E41C59,vi-VN
LJ-ZT7xvTiy2ImQ1BQSyTg,revmob_cpi,_5a6f9bf7a30c3b1c882e0bdb_ci86pdkymvqxzf8pykfhs6lc4,Install,0.5,171.242.66.208,0EB0FABD-85BA-4F27-B074-18EFF8C8721B,1557110133,2019-05-06 10:35:33,1557110157,2019-05-06 10:35:57,1557110189,9671efa4-c887-8369,https://s2s.revmob.com/api/v4/conversion/9671efa4-c887-8369/conversion.json,idfa_0EB0FABD-85BA-4F27-B074-18EFF8C8721B,vi-VN
LJ-ZT7xvTiy2ImQ1BQSyTg,revmob_cpi,_5a6f9bf7a30c3b1c882e0bdb_ci86pdkymvqxzf8pykfhs6lc4,Install,0.5,171.228.138.55,82977998-BA86-4A54-97D5-985DC9660BB8,1557109609,2019-05-06 10:26:49,1557109634,2019-05-06 10:27:14,1557109665,96f1efab-5d86-8156,https://s2s.revmob.com/api/v4/conversion/96f1efab-5d86-8156/conversion.json,idfa_82977998-BA86-4A54-97D5-985DC9660BB8,vi-VN
LJ-ZT7xvTiy2ImQ1BQSyTg,revmob_cpi,_5a6f9bf7a30c3b1c882e0bdb_ci86pdkymvqxzf8pykfhs6lc4,Install,0.5,171.224.172.9,0BDC8E7C-9F2C-4E94-8C1D-10D7C27DB42B,1557111192,2019-05-06 10:53:12,1557111215,2019-05-06 10:53:35,1557111246,9681efa5-58ea-7e71,https://s2s.revmob.com/api/v4/conversion/9681efa5-58ea-7e71/conversion.json,idfa_0BDC8E7C-9F2C-4E94-8C1D-10D7C27DB42B,vi-VN
LJ-ZT7xvTiy2ImQ1BQSyTg,revmob_cpi,_5a6f9bf7a30c3b1c882e0bdb_ci86pdkymvqxzf8pykfhs6lc4,Install,0.5,171.224.202.166,BB543AD7-D56E-4739-A38F-BCD958AC289B,1557109628,2019-05-06 10:27:08,1557109651,2019-05-06 10:27:31,1557109682,9641efaf-1626-9167,https://s2s.revmob.com/api/v4/conversion/9641efaf-1626-9167/conversion.json,idfa_BB543AD7-D56E-4739-A38F-BCD958AC289B,vi-VN
LJ-ZT7xvTiy2ImQ1BQSyTg,revmob_cpi,_5a6f9bf7a30c3b1c882e0bdb_ci86pdkymvqxzf8pykfhs6lc4,Install,0.5,116.96.167.51,B3823568-5A40-4E10-B1A0-39C3F04A5220,1557109625,2019-05-06 10:27:05,1557109644,2019-05-06 10:27:24,1557109674,9651efaa-f076-5756,https://s2s.revmob.com/api/v4/conversion/9651efaa-f076-5756/conversion.json,idfa_B3823568-5A40-4E10-B1A0-39C3F04A5220,vi-VN
LJ-ZT7xvTiy2ImQ1BQSyTg,revmob_cpi,_5a6f9bf7a30c3b1c882e0bdb_ci86pdkymvqxzf8pykfhs6lc4,Install,0.5,123.21.25.11,3F5516B9-61D2-4628-9826-B467D371954C,1557107871,2019-05-06 09:57:51,1557107892,2019-05-06 09:58:12,1557107922,96b1efa4-9682-12d5,https://s2s.revmob.com/api/v4/conversion/96b1efa4-9682-12d5/conversion.json,idfa_3F5516B9-61D2-4628-9826-B467D371954C,vi-VN
LJ-ZT7xvTiy2ImQ1BQSyTg,revmob_cpi,_5a6f9bf7a30c3b1c882e0bdb_ci86pdkymvqxzf8pykfhs6lc4,Install,0.5,171.228.83.178,09DBAC02-F51A-430C-A632-8B11C416168A,1557110419,2019-05-06 10:40:19,1557110442,2019-05-06 10:40:42,1557110482,9681efae-8d98-5504,https://s2s.revmob.com/api/v4/conversion/9681efae-8d98-5504/conversion.json,idfa_09DBAC02-F51A-430C-A632-8B11C416168A,vi-VN
LJ-ZT7xvTiy2ImQ1BQSyTg,revmob_cpi,_5a6f9bf7a30c3b1c882e0bdb_ci86pdkymvqxzf8pykfhs6lc4,Install,0.5,171.229.196.58,3BE5CBB1-7418-48C1-A652-C0BE01BAD628,1557108141,2019-05-06 10:02:21,1557108159,2019-05-06 10:02:39,1557108189,9621efab-bbe2-360f,https://s2s.revmob.com/api/v4/conversion/9621efab-bbe2-360f/conversion.json,idfa_3BE5CBB1-7418-48C1-A652-C0BE01BAD628,vi-VN
LJ-ZT7xvTiy2ImQ1BQSyTg,revmob_cpi,_5a6f9bf7a30c3b1c882e0bdb_ci86pdkymvqxzf8pykfhs6lc4,Install,0.5,27.73.145.131,0AFCCC3E-6682-4408-8A9A-C3902939903F,1557109986,2019-05-06 10:33:06,1557110005,2019-05-06 10:33:25,1557110035,9651efa9-6b07-ab04,https://s2s.revmob.com/api/v4/conversion/9651efa9-6b07-ab04/conversion.json,idfa_0AFCCC3E-6682-4408-8A9A-C3902939903F,vi-VN
LJ-ZT7xvTiy2ImQ1BQSyTg,revmob_cpi,_5a6f9bf7a30c3b1c882e0bdb_ci86pdkymvqxzf8pykfhs6lc4,Install,0.5,117.5.216.166,05F1DA6A-E471-4F90-8584-9C5D522CFB8D,1557108657,2019-05-06 10:10:57,1557108682,2019-05-06 10:11:22,1557108713,9631efae-eab4-ee82,https://s2s.revmob.com/api/v4/conversion/9631efae-eab4-ee82/conversion.json,idfa_05F1DA6A-E471-4F90-8584-9C5D522CFB8D,vi-VN
LJ-ZT7xvTiy2ImQ1BQSyTg,revmob_cpi,_5a6f9bf7a30c3b1c882e0bdb_ci86pdkymvqxzf8pykfhs6lc4,Install,0.5,113.161.145.177,92C23838-13C9-4311-B25E-928B0AB6788C,1557114512,2019-05-06 11:48:32,1557114538,2019-05-06 11:48:58,1557114568,9671efb5-0e41-da5d,https://s2s.revmob.com/api/v4/conversion/9671efb5-0e41-da5d/conversion.json,idfa_92C23838-13C9-4311-B25E-928B0AB6788C,vi-VN
LJ-ZT7xvTiy2ImQ1BQSyTg,revmob_cpi,_5a6f9bf7a30c3b1c882e0bdb_ci86pdkymvqxzf8pykfhs6lc4,Install,0.5,14.186.37.48,30312C88-B428-4DF6-8875-E7C3566A083A,1557109996,2019-05-06 10:33:16,1557110015,2019-05-06 10:33:35,1557110045,9671efa3-cf67-aed4,https://s2s.revmob.com/api/v4/conversion/9671efa3-cf67-aed4/conversion.json,idfa_30312C88-B428-4DF6-8875-E7C3566A083A,vi-VN
LJ-ZT7xvTiy2ImQ1BQSyTg,revmob_cpi,_5a6f9bf7a30c3b1c882e0bdb_ci86pdkymvqxzf8pykfhs6lc4,Install,0.5,14.186.7.174,51A49DE5-2975-4F7F-B46C-2FF1E3D13536,1557108140,2019-05-06 10:02:20,1557108167,2019-05-06 10:02:47,1557108197,96f1efa7-9192-152f,https://s2s.revmob.com/api/v4/conversion/96f1efa7-9192-152f/conversion.json,idfa_51A49DE5-2975-4F7F-B46C-2FF1E3D13536,vi-VN
LJ-ZT7xvTiy2ImQ1BQSyTg,revmob_cpi,_5a6f9bf7a30c3b1c882e0bdb_ci86pdkymvqxzf8pykfhs6lc4,Install,0.5,171.237.121.193,C869CE8E-0990-47CC-B5AC-511AFE248944,1557114502,2019-05-06 11:48:22,1557114520,2019-05-06 11:48:40,1557114550,9621efbd-a3f1-fd5c,https://s2s.revmob.com/api/v4/conversion/9621efbd-a3f1-fd5c/conversion.json,idfa_C869CE8E-0990-47CC-B5AC-511AFE248944,vi-VN
LJ-ZT7xvTiy2ImQ1BQSyTg,revmob_cpi,_5a6f9bf7a30c3b1c882e0bdb_ci86pdkymvqxzf8pykfhs6lc4,Install,0.5,113.172.16.202,277DF64E-B13F-4B0C-9EBB-00F61E972419,1557110436,2019-05-06 10:40:36,1557110475,2019-05-06 10:41:15,1557110506,9661efaa-23e8-90c5,https://s2s.revmob.com/api/v4/conversion/9661efaa-23e8-90c5/conversion.json,idfa_277DF64E-B13F-4B0C-9EBB-00F61E972419,vi-VN
LJ-ZT7xvTiy2ImQ1BQSyTg,revmob_cpi,_5a6f9bf7a30c3b1c882e0bdb_ci86pdkymvqxzf8pykfhs6lc4,Install,0.5,171.234.192.221,3A877527-9D3C-4639-997F-1243DEF400D5,1557110334,2019-05-06 10:38:54,1557110350,2019-05-06 10:39:10,1557110380,9601efa0-6ee8-81a1,https://s2s.revmob.com/api/v4/conversion/9601efa0-6ee8-81a1/conversion.json,idfa_3A877527-9D3C-4639-997F-1243DEF400D5,vi-VN
LJ-ZT7xvTiy2ImQ1BQSyTg,revmob_cpi,_5a6f9bf7a30c3b1c882e0bdb_ci86pdkymvqxzf8pykfhs6lc4,Install,0.5,14.231.224.82,08E2B1DA-7FFF-4AB4-BC02-D66FF9922D3E,1557110628,2019-05-06 10:43:48,1557110647,2019-05-06 10:44:07,1557111643,9621efae-5a58-f0ec,https://s2s.revmob.com/api/v4/conversion/9621efae-5a58-f0ec/conversion.json,idfa_08E2B1DA-7FFF-4AB4-BC02-D66FF9922D3E,vi-VN
LJ-ZT7xvTiy2ImQ1BQSyTg,revmob_cpi,_5a6f9bf7a30c3b1c882e0bdb_ci86pdkymvqxzf8pykfhs6lc4,Install,0.5,123.24.74.205,BB058790-4606-4019-8CE9-32B3D7725960,1557107882,2019-05-06 09:58:02,1557107901,2019-05-06 09:58:21,1557107940,9631efa0-0b12-0236,https://s2s.revmob.com/api/v4/conversion/9631efa0-0b12-0236/conversion.json,idfa_BB058790-4606-4019-8CE9-32B3D7725960,vi-VN
LJ-ZT7xvTiy2ImQ1BQSyTg,revmob_cpi,_5a6f9bf7a30c3b1c882e0bdb_ci86pdkymvqxzf8pykfhs6lc4,Install,0.5,116.96.164.45,B061030D-18F5-4A68-A139-7C9A5B3B0D26,1557111000,2019-05-06 10:50:00,1557111016,2019-05-06 10:50:16,1557111046,9621efa0-3b89-9d7a,https://s2s.revmob.com/api/v4/conversion/9621efa0-3b89-9d7a/conversion.json,idfa_B061030D-18F5-4A68-A139-7C9A5B3B0D26,vi-VN
LJ-ZT7xvTiy2ImQ1BQSyTg,revmob_cpi,_5a6f9bf7a30c3b1c882e0bdb_ci86pdkymvqxzf8pykfhs6lc4,Install,0.5,113.172.57.10,D05CBDF0-979E-475B-942C-02263F36BE96,1557114519,2019-05-06 11:48:39,1557114541,2019-05-06 11:49:01,1557114571,9641efbc-4d01-bd5d,https://s2s.revmob.com/api/v4/conversion/9641efbc-4d01-bd5d/conversion.json,idfa_D05CBDF0-979E-475B-942C-02263F36BE96,vi-VN
LJ-ZT7xvTiy2ImQ1BQSyTg,revmob_cpi,_5a6f9bf7a30c3b1c882e0bdb_ci86pdkymvqxzf8pykfhs6lc4,Install,0.5,14.166.191.176,B0B23F53-7EE8-4B07-AD1D-2C5368B96B88,1557109886,2019-05-06 10:31:26,1557109906,2019-05-06 10:31:46,1557109936,96e1efa3-a6e7-0e80,https://s2s.revmob.com/api/v4/conversion/96e1efa3-a6e7-0e80/conversion.json,idfa_B0B23F53-7EE8-4B07-AD1D-2C5368B96B88,vi-VN
LJ-ZT7xvTiy2ImQ1BQSyTg,revmob_cpi,_5a6f9bf7a30c3b1c882e0bdb_ci86pdkymvqxzf8pykfhs6lc4,Install,0.5,171.253.56.192,D97A12AD-E9F0-4B80-BEBC-B67623FE3DEE,1557114516,2019-05-06 11:48:36,1557114539,2019-05-06 11:48:59,1557114569,9601efb1-3711-37dd,https://s2s.revmob.com/api/v4/conversion/9601efb1-3711-37dd/conversion.json,idfa_D97A12AD-E9F0-4B80-BEBC-B67623FE3DEE,vi-VN
LJ-ZT7xvTiy2ImQ1BQSyTg,revmob_cpi,_5a6f9bf7a30c3b1c882e0bdb_ci86pdkymvqxzf8pykfhs6lc4,Install,0.5,113.173.9.226,FD66113B-8102-4E6F-9162-997505AF6CA6,1557111080,2019-05-06 10:51:20,1557111104,2019-05-06 10:51:44,1557111135,9621efa4-2359-b98d,https://s2s.revmob.com/api/v4/conversion/9621efa4-2359-b98d/conversion.json,idfa_FD66113B-8102-4E6F-9162-997505AF6CA6,vi-VN
LJ-ZT7xvTiy2ImQ1BQSyTg,revmob_cpi,_5a6f9bf7a30c3b1c882e0bdb_ci86pdkymvqxzf8pykfhs6lc4,Install,0.5,113.172.158.212,1376DBDE-797E-4244-AFD8-921BB3E3AA63,1557111051,2019-05-06 10:50:51,1557111077,2019-05-06 10:51:17,1557111108,9641efad-13c9-26ac,https://s2s.revmob.com/api/v4/conversion/9641efad-13c9-26ac/conversion.json,idfa_1376DBDE-797E-4244-AFD8-921BB3E3AA63,vi-VN
LJ-ZT7xvTiy2ImQ1BQSyTg,revmob_cpi,_5a6f9bf7a30c3b1c882e0bdb_ci86pdkymvqxzf8pykfhs6lc4,Install,0.5,27.3.134.3,D276FA3C-BB1B-41C0-BD73-F39B13AA2748,1557109871,2019-05-06 10:31:11,1557109893,2019-05-06 10:31:33,1557109923,96a1efa5-13b7-a120,https://s2s.revmob.com/api/v4/conversion/96a1efa5-13b7-a120/conversion.json,idfa_D276FA3C-BB1B-41C0-BD73-F39B13AA2748,vi-VN
LJ-ZT7xvTiy2ImQ1BQSyTg,revmob_cpi,_5a6f9bf7a30c3b1c882e0bdb_ci86pdkymvqxzf8pykfhs6lc4,Install,0.5,27.3.134.3,2BEF13EB-CF62-4BF9-847E-5BF2F30258DE,1557109620,2019-05-06 10:27:00,1557109639,2019-05-06 10:27:19,1557109669,96c1efab-b056-9836,https://s2s.revmob.com/api/v4/conversion/96c1efab-b056-9836/conversion.json,idfa_2BEF13EB-CF62-4BF9-847E-5BF2F30258DE,vi-VN
LJ-ZT7xvTiy2ImQ1BQSyTg,revmob_cpi,_5a6f9bf7a30c3b1c882e0bdb_ci86pdkymvqxzf8pykfhs6lc4,Install,0.5,117.5.38.25,65C3B36C-302B-4B3B-AA90-518B38009B70,1557110777,2019-05-06 10:46:17,1557110811,2019-05-06 10:46:51,1557110842,9641efa9-e6c9-6061,https://s2s.revmob.com/api/v4/conversion/9641efa9-e6c9-6061/conversion.json,idfa_65C3B36C-302B-4B3B-AA90-518B38009B70,vi-VN
LJ-ZT7xvTiy2ImQ1BQSyTg,revmob_cpi,_5a6f9bf7a30c3b1c882e0bdb_ci86pdkymvqxzf8pykfhs6lc4,Install,0.5,171.241.162.71,6B0B0ABD-931F-4AF8-9FE2-3038163BC3C7,1557110279,2019-05-06 10:37:59,1557110293,2019-05-06 10:38:13,1557110324,96a1efae-5387-cf1f,https://s2s.revmob.com/api/v4/conversion/96a1efae-5387-cf1f/conversion.json,idfa_6B0B0ABD-931F-4AF8-9FE2-3038163BC3C7,vi-VN
LJ-ZT7xvTiy2ImQ1BQSyTg,revmob_cpi,_5a6f9bf7a30c3b1c882e0bdb_ci86pdkymvqxzf8pykfhs6lc4,Install,0.5,27.76.236.24,E0DC462D-E8C0-4575-9E0E-29C8F6F05751,1557110715,2019-05-06 10:45:15,1557110741,2019-05-06 10:45:41,1557110771,9621efa6-9ce8-b78f,https://s2s.revmob.com/api/v4/conversion/9621efa6-9ce8-b78f/conversion.json,idfa_E0DC462D-E8C0-4575-9E0E-29C8F6F05751,vi-VN
LJ-ZT7xvTiy2ImQ1BQSyTg,revmob_cpi,_5a6f9bf7a30c3b1c882e0bdb_ci86pdkymvqxzf8pykfhs6lc4,Install,0.5,117.5.152.96,EF98565A-FE7F-48E7-BB41-B68AFE54E923,1557110500,2019-05-06 10:41:40,1557110519,2019-05-06 10:41:59,1557110551,96b1efaa-8798-92a7,https://s2s.revmob.com/api/v4/conversion/96b1efaa-8798-92a7/conversion.json,idfa_EF98565A-FE7F-48E7-BB41-B68AFE54E923,vi-VN
LJ-ZT7xvTiy2ImQ1BQSyTg,revmob_cpi,_5a6f9bf7a30c3b1c882e0bdb_ci86pdkymvqxzf8pykfhs6lc4,Install,0.5,117.0.140.178,44621D4E-9769-4A3F-BA3D-6A3AD72B85FC,1557109880,2019-05-06 10:31:20,1557109907,2019-05-06 10:31:47,1557109938,96b1efae-7507-fb60,https://s2s.revmob.com/api/v4/conversion/96b1efae-7507-fb60/conversion.json,idfa_44621D4E-9769-4A3F-BA3D-6A3AD72B85FC,vi-VN
LJ-ZT7xvTiy2ImQ1BQSyTg,revmob_cpi,_5a6f9bf7a30c3b1c882e0bdb_ci86pdkymvqxzf8pykfhs6lc4,Install,0.5,123.20.49.5,6E261693-FDB0-4632-9A04-AE600EF304C5,1557107882,2019-05-06 09:58:02,1557107904,2019-05-06 09:58:24,1557107934,9651efa9-0132-b156,https://s2s.revmob.com/api/v4/conversion/9651efa9-0132-b156/conversion.json,idfa_6E261693-FDB0-4632-9A04-AE600EF304C5,vi-VN
LJ-ZT7xvTiy2ImQ1BQSyTg,revmob_cpi,_5a6f9bf7a30c3b1c882e0bdb_ci86pdkymvqxzf8pykfhs6lc4,Install,0.5,14.169.208.128,4CDC66F0-5E33-416C-862E-A8B24C64F010,1557111340,2019-05-06 10:55:40,1557111358,2019-05-06 10:55:58,1557111389,9681efa0-d0ea-62c6,https://s2s.revmob.com/api/v4/conversion/9681efa0-d0ea-62c6/conversion.json,idfa_4CDC66F0-5E33-416C-862E-A8B24C64F010,vi-VN
