cid,partner_id,channel_id,action_id,cpi,ip,idfa,click time,click datetime,install time,install datetime,postback time,click id,postback url,unique user id
hF1H-TRbRraToVWwE51K7Q,revmob_cpi,_5b578d78f146325def5ca311_6p6yj5ollgr5mdw7ptoju7d5o,Install,0.8,222.110.155.108,79c334b0-2d5c-4e3e-b094-2188fd3e25b9,1557013027,2019-05-05 07:37:07,1557013117,2019-05-05 07:38:37,1557013147,9651eec2-6bd5-9638,https://s2s.revmob.com/api/v4/conversion/9651eec2-6bd5-9638/conversion.json,idfa_79c334b0-2d5c-4e3e-b094-2188fd3e25b9,%ED%95%9C%EA%B5%AD%EC%96%B4
hF1H-TRbRraToVWwE51K7Q,revmob_cpi,_5b578d78f146325def5ca311_6p6yj5ollgr5mdw7ptoju7d5o,Install,0.8,118.36.97.181,725e1d8c-cfec-4617-b1a5-6787c530cad8,1557012646,2019-05-05 07:30:46,1557012810,2019-05-05 07:33:30,1557012841,96e1eecb-1e44-74fa,https://s2s.revmob.com/api/v4/conversion/96e1eecb-1e44-74fa/conversion.json,idfa_725e1d8c-cfec-4617-b1a5-6787c530cad8,%ED%95%9C%EA%B5%AD%EC%96%B4
hF1H-TRbRraToVWwE51K7Q,revmob_cpi,_5b578d78f146325def5ca311_6p6yj5ollgr5mdw7ptoju7d5o,Install,0.8,211.54.74.50,0cd132a8-0885-4197-8425-7a0dbd57f625,1557012684,2019-05-05 07:31:24,1557012922,2019-05-05 07:35:22,1557012952,96a1eec3-7dc4-6e4b,https://s2s.revmob.com/api/v4/conversion/96a1eec3-7dc4-6e4b/conversion.json,idfa_0cd132a8-0885-4197-8425-7a0dbd57f625,%ED%95%9C%EA%B5%AD%EC%96%B4
hF1H-TRbRraToVWwE51K7Q,revmob_cpi,_5b578d78f146325def5ca311_6p6yj5ollgr5mdw7ptoju7d5o,Install,1.0,112.218.232.51,ca83afc4-2d88-44fc-8a04-428092d3d473,1557736609,2019-05-13 16:36:49,1557736741,2019-05-13 16:39:01,1557736771,97d1e55e-78fa-6043,https://s2s.revmob.com/api/v4/conversion/97d1e55e-78fa-6043/conversion.json,idfa_ca83afc4-2d88-44fc-8a04-428092d3d473,%ED%95%9C%EA%B5%AD%EC%96%B4
hF1H-TRbRraToVWwE51K7Q,revmob_cpi,_5b578d78f146325def5ca311_6p6yj5ollgr5mdw7ptoju7d5o,Install,0.8,220.123.170.42,e32cfd4d-4052-4271-bac7-144574734913,1557014037,2019-05-05 07:53:57,1557014129,2019-05-05 07:55:29,1557014160,96a1eec7-c677-ba7d,https://s2s.revmob.com/api/v4/conversion/96a1eec7-c677-ba7d/conversion.json,idfa_e32cfd4d-4052-4271-bac7-144574734913,%ED%95%9C%EA%B5%AD%EC%96%B4
hF1H-TRbRraToVWwE51K7Q,revmob_cpi,_5b578d78f146325def5ca311_6p6yj5ollgr5mdw7ptoju7d5o,Install,1.0,220.125.240.141,06a2f780-a6a6-44c5-9868-6b507b8e1581,1557734473,2019-05-13 16:01:13,1557734553,2019-05-13 16:02:33,1557734584,97c1e554-e7e5-ae23,https://s2s.revmob.com/api/v4/conversion/97c1e554-e7e5-ae23/conversion.json,idfa_06a2f780-a6a6-44c5-9868-6b507b8e1581,%ED%95%9C%EA%B5%AD%EC%96%B4
hF1H-TRbRraToVWwE51K7Q,revmob_cpi,_5b578d78f146325def5ca311_6p6yj5ollgr5mdw7ptoju7d5o,Install,0.8,58.229.163.82,386d4e5a-ec9d-4092-9c7f-447aba791a9a,1557013221,2019-05-05 07:40:21,1557013510,2019-05-05 07:45:10,1557013540,9621eec7-5335-73ef,https://s2s.revmob.com/api/v4/conversion/9621eec7-5335-73ef/conversion.json,idfa_386d4e5a-ec9d-4092-9c7f-447aba791a9a,%ED%95%9C%EA%B5%AD%EC%96%B4
hF1H-TRbRraToVWwE51K7Q,revmob_cpi,_5b578d78f146325def5ca311_6p6yj5ollgr5mdw7ptoju7d5o,Install,0.8,183.102.80.100,786c61fa-621b-421d-ae84-05d747f67acf,1557013233,2019-05-05 07:40:33,1557013327,2019-05-05 07:42:07,1557013357,9631eec8-0ea6-ea60,https://s2s.revmob.com/api/v4/conversion/9631eec8-0ea6-ea60/conversion.json,idfa_786c61fa-621b-421d-ae84-05d747f67acf,%ED%95%9C%EA%B5%AD%EC%96%B4
hF1H-TRbRraToVWwE51K7Q,revmob_cpi,_5b578d78f146325def5ca311_6p6yj5ollgr5mdw7ptoju7d5o,Install,1.0,210.216.14.25,11c094cc-b85f-425b-a0f6-332f3a5eefd6,1557736816,2019-05-13 16:40:16,1557736912,2019-05-13 16:41:52,1557736975,9721e55f-9aba-d9eb,https://s2s.revmob.com/api/v4/conversion/9721e55f-9aba-d9eb/conversion.json,idfa_11c094cc-b85f-425b-a0f6-332f3a5eefd6,%ED%95%9C%EA%B5%AD%EC%96%B4
hF1H-TRbRraToVWwE51K7Q,revmob_cpi,_5b578d78f146325def5ca311_6p6yj5ollgr5mdw7ptoju7d5o,Install,1.0,221.158.88.250,9de6989e-118b-4401-8679-575317faaabb,1557736213,2019-05-13 16:30:13,1557736312,2019-05-13 16:31:52,1557736342,9751e55d-a0d9-a3a4,https://s2s.revmob.com/api/v4/conversion/9751e55d-a0d9-a3a4/conversion.json,idfa_9de6989e-118b-4401-8679-575317faaabb,%ED%95%9C%EA%B5%AD%EC%96%B4
hF1H-TRbRraToVWwE51K7Q,revmob_cpi,_5b578d78f146325def5ca311_6p6yj5ollgr5mdw7ptoju7d5o,Install,0.8,61.74.59.248,98c9c02b-212d-4296-8679-208cbae5413e,1557013592,2019-05-05 07:46:32,1557013686,2019-05-05 07:48:06,1557013716,96f1eecf-5de6-4a3d,https://s2s.revmob.com/api/v4/conversion/96f1eecf-5de6-4a3d/conversion.json,idfa_98c9c02b-212d-4296-8679-208cbae5413e,%ED%95%9C%EA%B5%AD%EC%96%B4
hF1H-TRbRraToVWwE51K7Q,revmob_cpi,_5b578d78f146325def5ca311_6p6yj5ollgr5mdw7ptoju7d5o,Install,0.8,183.123.129.74,8c00383e-9971-47b4-aae9-e18e5e7663cc,1557011724,2019-05-05 07:15:24,1557011881,2019-05-05 07:18:01,1557011912,9641eec9-d1b2-3027,https://s2s.revmob.com/api/v4/conversion/9641eec9-d1b2-3027/conversion.json,idfa_8c00383e-9971-47b4-aae9-e18e5e7663cc,%ED%95%9C%EA%B5%AD%EC%96%B4
hF1H-TRbRraToVWwE51K7Q,revmob_cpi,_5b578d78f146325def5ca311_6p6yj5ollgr5mdw7ptoju7d5o,Install,0.8,59.8.184.8,a0569077-5da2-4832-8075-1d69b6dc823f,1557013880,2019-05-05 07:51:20,1557013961,2019-05-05 07:52:41,1557013991,9631eeca-28f7-8088,https://s2s.revmob.com/api/v4/conversion/9631eeca-28f7-8088/conversion.json,idfa_a0569077-5da2-4832-8075-1d69b6dc823f,%ED%95%9C%EA%B5%AD%EC%96%B4
hF1H-TRbRraToVWwE51K7Q,revmob_cpi,_5b578d78f146325def5ca311_6p6yj5ollgr5mdw7ptoju7d5o,Install,1.0,114.30.203.10,00a36023-2906-4965-ad42-cd6957931dd5,1557735450,2019-05-13 16:17:30,1557735532,2019-05-13 16:18:52,1557735563,9791e554-bcf7-0d18,https://s2s.revmob.com/api/v4/conversion/9791e554-bcf7-0d18/conversion.json,idfa_00a36023-2906-4965-ad42-cd6957931dd5,%ED%95%9C%EA%B5%AD%EC%96%B4
hF1H-TRbRraToVWwE51K7Q,revmob_cpi,_5b578d78f146325def5ca311_6p6yj5ollgr5mdw7ptoju7d5o,Install,0.8,211.46.223.240,bf73f45b-8dc1-4765-b51b-076f9f555ddd,1557013955,2019-05-05 07:52:35,1557014037,2019-05-05 07:53:57,1557014068,96d1eecb-eca7-103a,https://s2s.revmob.com/api/v4/conversion/96d1eecb-eca7-103a/conversion.json,idfa_bf73f45b-8dc1-4765-b51b-076f9f555ddd,%ED%95%9C%EA%B5%AD%EC%96%B4
hF1H-TRbRraToVWwE51K7Q,revmob_cpi,_5b578d78f146325def5ca311_6p6yj5ollgr5mdw7ptoju7d5o,Install,0.8,116.126.199.161,1d0f787e-8b75-41a0-b2e0-717040efc3b5,1557013179,2019-05-05 07:39:39,1557013272,2019-05-05 07:41:12,1557013303,9681eec6-0395-630e,https://s2s.revmob.com/api/v4/conversion/9681eec6-0395-630e/conversion.json,idfa_1d0f787e-8b75-41a0-b2e0-717040efc3b5,%ED%95%9C%EA%B5%AD%EC%96%B4
hF1H-TRbRraToVWwE51K7Q,revmob_cpi,_5b578d78f146325def5ca311_6p6yj5ollgr5mdw7ptoju7d5o,Install,0.8,112.220.210.10,213fd279-0161-4337-8efa-08ed280c4490,1557013149,2019-05-05 07:39:09,1557013308,2019-05-05 07:41:48,1557013338,96a1eecf-edd5-fccc,https://s2s.revmob.com/api/v4/conversion/96a1eecf-edd5-fccc/conversion.json,idfa_213fd279-0161-4337-8efa-08ed280c4490,%ED%95%9C%EA%B5%AD%EC%96%B4
hF1H-TRbRraToVWwE51K7Q,revmob_cpi,_5b578d78f146325def5ca311_6p6yj5ollgr5mdw7ptoju7d5o,Install,0.8,203.255.32.133,a4df1c27-71ce-4ead-9cea-89f9b706d0c3,1557012230,2019-05-05 07:23:50,1557012352,2019-05-05 07:25:52,1557012383,9661eec7-9413-254a,https://s2s.revmob.com/api/v4/conversion/9661eec7-9413-254a/conversion.json,idfa_a4df1c27-71ce-4ead-9cea-89f9b706d0c3,%ED%95%9C%EA%B5%AD%EC%96%B4
hF1H-TRbRraToVWwE51K7Q,revmob_cpi,_5b578d78f146325def5ca311_6p6yj5ollgr5mdw7ptoju7d5o,Install,0.8,221.138.38.85,8d004180-0387-49e3-b897-61f657a42d24,1557013471,2019-05-05 07:44:31,1557013707,2019-05-05 07:48:27,1557013737,9601eeca-8eb6-e478,https://s2s.revmob.com/api/v4/conversion/9601eeca-8eb6-e478/conversion.json,idfa_8d004180-0387-49e3-b897-61f657a42d24,%ED%95%9C%EA%B5%AD%EC%96%B4
hF1H-TRbRraToVWwE51K7Q,revmob_cpi,_5b578d78f146325def5ca311_6p6yj5ollgr5mdw7ptoju7d5o,Install,0.8,182.162.146.211,767fd8e9-858d-4599-9931-1c7cda464400,1557012366,2019-05-05 07:26:06,1557012468,2019-05-05 07:27:48,1557012498,9601eecc-ce73-380f,https://s2s.revmob.com/api/v4/conversion/9601eecc-ce73-380f/conversion.json,idfa_767fd8e9-858d-4599-9931-1c7cda464400,%ED%95%9C%EA%B5%AD%EC%96%B4
hF1H-TRbRraToVWwE51K7Q,revmob_cpi,_5b578d78f146325def5ca311_6p6yj5ollgr5mdw7ptoju7d5o,Install,0.8,112.220.22.106,d60a7fbd-d81d-4cc2-94f8-0ea88ef14010,1557013096,2019-05-05 07:38:16,1557013185,2019-05-05 07:39:45,1557013216,9671eec4-e895-65ba,https://s2s.revmob.com/api/v4/conversion/9671eec4-e895-65ba/conversion.json,idfa_d60a7fbd-d81d-4cc2-94f8-0ea88ef14010,%ED%95%9C%EA%B5%AD%EC%96%B4
hF1H-TRbRraToVWwE51K7Q,revmob_cpi,_5b578d78f146325def5ca311_6p6yj5ollgr5mdw7ptoju7d5o,Install,0.8,112.175.9.49,246491a4-0b47-4907-99ca-c6e1e8d83b6c,1557012656,2019-05-05 07:30:56,1557012928,2019-05-05 07:35:28,1557012959,96c1eece-7674-c41a,https://s2s.revmob.com/api/v4/conversion/96c1eece-7674-c41a/conversion.json,idfa_246491a4-0b47-4907-99ca-c6e1e8d83b6c,%ED%95%9C%EA%B5%AD%EC%96%B4
hF1H-TRbRraToVWwE51K7Q,revmob_cpi,_5b578d78f146325def5ca311_6p6yj5ollgr5mdw7ptoju7d5o,Install,1.0,210.223.250.3,eabfa495-2c9d-4cb0-8ecf-a2ef1102998d,1557730907,2019-05-13 15:01:47,1557730978,2019-05-13 15:02:58,1557731009,9701e542-6f2c-72af,https://s2s.revmob.com/api/v4/conversion/9701e542-6f2c-72af/conversion.json,idfa_eabfa495-2c9d-4cb0-8ecf-a2ef1102998d,%ED%95%9C%EA%B5%AD%EC%96%B4
hF1H-TRbRraToVWwE51K7Q,revmob_cpi,_5b578d78f146325def5ca311_6p6yj5ollgr5mdw7ptoju7d5o,Install,0.8,113.10.49.101,eb8518a9-9d04-42aa-b079-6427e2fe6132,1557012672,2019-05-05 07:31:12,1557012920,2019-05-05 07:35:20,1557012951,9651eece-fde4-c2aa,https://s2s.revmob.com/api/v4/conversion/9651eece-fde4-c2aa/conversion.json,idfa_eb8518a9-9d04-42aa-b079-6427e2fe6132,%ED%95%9C%EA%B5%AD%EC%96%B4
hF1H-TRbRraToVWwE51K7Q,revmob_cpi,_5b578d78f146325def5ca311_6p6yj5ollgr5mdw7ptoju7d5o,Install,1.0,59.5.55.190,4b82ae11-0527-4f71-816d-4a1fe037ffa8,1557734661,2019-05-13 16:04:21,1557734748,2019-05-13 16:05:48,1557734779,9721e55d-4085-6f3b,https://s2s.revmob.com/api/v4/conversion/9721e55d-4085-6f3b/conversion.json,idfa_4b82ae11-0527-4f71-816d-4a1fe037ffa8,%ED%95%9C%EA%B5%AD%EC%96%B4
hF1H-TRbRraToVWwE51K7Q,revmob_cpi,_5b578d78f146325def5ca311_6p6yj5ollgr5mdw7ptoju7d5o,Install,1.0,112.220.20.170,0b2b9750-0dff-4454-a3ea-8fc9d2575124,1557736645,2019-05-13 16:37:25,1557736725,2019-05-13 16:38:45,1557736755,9771e557-387a-8d45,https://s2s.revmob.com/api/v4/conversion/9771e557-387a-8d45/conversion.json,idfa_0b2b9750-0dff-4454-a3ea-8fc9d2575124,%ED%95%9C%EA%B5%AD%EC%96%B4
hF1H-TRbRraToVWwE51K7Q,revmob_cpi,_5b578d78f146325def5ca311_6p6yj5ollgr5mdw7ptoju7d5o,Install,0.8,121.126.37.155,f6db8de3-9761-489c-b855-c688d53782d5,1557011261,2019-05-05 07:07:41,1557011378,2019-05-05 07:09:38,1557011409,9651eec8-9511-5b86,https://s2s.revmob.com/api/v4/conversion/9651eec8-9511-5b86/conversion.json,idfa_f6db8de3-9761-489c-b855-c688d53782d5,%ED%95%9C%EA%B5%AD%EC%96%B4
hF1H-TRbRraToVWwE51K7Q,revmob_cpi,_5b578d78f146325def5ca311_6p6yj5ollgr5mdw7ptoju7d5o,Install,0.8,112.175.9.49,5890480e-d0b7-4d91-89fd-aa499ff11276,1557013635,2019-05-05 07:47:15,1557013818,2019-05-05 07:50:18,1557013848,9611eec5-e8c6-1ebd,https://s2s.revmob.com/api/v4/conversion/9611eec5-e8c6-1ebd/conversion.json,idfa_5890480e-d0b7-4d91-89fd-aa499ff11276,%ED%95%9C%EA%B5%AD%EC%96%B4
hF1H-TRbRraToVWwE51K7Q,revmob_cpi,_5b578d78f146325def5ca311_6p6yj5ollgr5mdw7ptoju7d5o,Install,0.8,223.171.42.109,32e659fe-0e20-4583-b7d9-bb06f5eb38bd,1557013572,2019-05-05 07:46:12,1557013793,2019-05-05 07:49:53,1557013824,96d1eec1-3c96-ea4c,https://s2s.revmob.com/api/v4/conversion/96d1eec1-3c96-ea4c/conversion.json,idfa_32e659fe-0e20-4583-b7d9-bb06f5eb38bd,%ED%95%9C%EA%B5%AD%EC%96%B4
hF1H-TRbRraToVWwE51K7Q,revmob_cpi,_5b578d78f146325def5ca311_6p6yj5ollgr5mdw7ptoju7d5o,Install,1.0,211.203.39.112,01765bd3-a443-4c04-92f6-0d756819d75a,1557735678,2019-05-13 16:21:18,1557735813,2019-05-13 16:23:33,1557735843,9791e550-c348-1c80,https://s2s.revmob.com/api/v4/conversion/9791e550-c348-1c80/conversion.json,idfa_01765bd3-a443-4c04-92f6-0d756819d75a,%ED%95%9C%EA%B5%AD%EC%96%B4
hF1H-TRbRraToVWwE51K7Q,revmob_cpi,_5b578d78f146325def5ca311_6p6yj5ollgr5mdw7ptoju7d5o,Install,1.0,180.68.169.175,0c7b75fd-d03a-4447-8a50-2fdb554fbb61,1557736594,2019-05-13 16:36:34,1557736688,2019-05-13 16:38:08,1557736718,9741e55d-01ca-9993,https://s2s.revmob.com/api/v4/conversion/9741e55d-01ca-9993/conversion.json,idfa_0c7b75fd-d03a-4447-8a50-2fdb554fbb61,%ED%95%9C%EA%B5%AD%EC%96%B4
hF1H-TRbRraToVWwE51K7Q,revmob_cpi,_5b578d78f146325def5ca311_6p6yj5ollgr5mdw7ptoju7d5o,Install,0.8,220.127.126.139,870cb509-d089-4de5-b148-a2b763871b7b,1557013257,2019-05-05 07:40:57,1557013456,2019-05-05 07:44:16,1557013486,9631eec7-c9b6-1960,https://s2s.revmob.com/api/v4/conversion/9631eec7-c9b6-1960/conversion.json,idfa_870cb509-d089-4de5-b148-a2b763871b7b,%ED%95%9C%EA%B5%AD%EC%96%B4
hF1H-TRbRraToVWwE51K7Q,revmob_cpi,_5b578d78f146325def5ca311_6p6yj5ollgr5mdw7ptoju7d5o,Install,0.8,106.255.253.178,e0983820-73d6-4454-b75b-29c368def969,1557012658,2019-05-05 07:30:58,1557012751,2019-05-05 07:32:31,1557012781,96e1eec8-8bd4-af5a,https://s2s.revmob.com/api/v4/conversion/96e1eec8-8bd4-af5a/conversion.json,idfa_e0983820-73d6-4454-b75b-29c368def969,%ED%95%9C%EA%B5%AD%EC%96%B4
hF1H-TRbRraToVWwE51K7Q,revmob_cpi,_5b578d78f146325def5ca311_6p6yj5ollgr5mdw7ptoju7d5o,Install,0.8,183.123.129.74,a4c5a9ed-94cd-4f7e-8a51-63b98364b052,1557012732,2019-05-05 07:32:12,1557012925,2019-05-05 07:35:25,1557012956,9641eec2-e3e4-c11c,https://s2s.revmob.com/api/v4/conversion/9641eec2-e3e4-c11c/conversion.json,idfa_a4c5a9ed-94cd-4f7e-8a51-63b98364b052,%ED%95%9C%EA%B5%AD%EC%96%B4
hF1H-TRbRraToVWwE51K7Q,revmob_cpi,_5b578d78f146325def5ca311_6p6yj5ollgr5mdw7ptoju7d5o,Install,0.8,112.220.86.122,4dbb0dd9-0dff-4784-b86d-f9e6ba51a720,1557012808,2019-05-05 07:33:28,1557012893,2019-05-05 07:34:53,1557012924,9651eecb-3475-73c0,https://s2s.revmob.com/api/v4/conversion/9651eecb-3475-73c0/conversion.json,idfa_4dbb0dd9-0dff-4784-b86d-f9e6ba51a720,%ED%95%9C%EA%B5%AD%EC%96%B4
hF1H-TRbRraToVWwE51K7Q,revmob_cpi,_5b578d78f146325def5ca311_6p6yj5ollgr5mdw7ptoju7d5o,Install,0.8,211.216.48.158,5f6da885-cba3-40e4-81c4-3791fa01be18,1557012661,2019-05-05 07:31:01,1557012871,2019-05-05 07:34:31,1557012902,9691eecd-af34-e6ca,https://s2s.revmob.com/api/v4/conversion/9691eecd-af34-e6ca/conversion.json,idfa_5f6da885-cba3-40e4-81c4-3791fa01be18,%ED%95%9C%EA%B5%AD%EC%96%B4
hF1H-TRbRraToVWwE51K7Q,revmob_cpi,_5b578d78f146325def5ca311_6p6yj5ollgr5mdw7ptoju7d5o,Install,0.8,182.208.90.83,6141cc61-3b1c-4f15-b7e5-1633d49ce2a5,1557011275,2019-05-05 07:07:55,1557011418,2019-05-05 07:10:18,1557011449,9681eec6-1251-5a47,https://s2s.revmob.com/api/v4/conversion/9681eec6-1251-5a47/conversion.json,idfa_6141cc61-3b1c-4f15-b7e5-1633d49ce2a5,%ED%95%9C%EA%B5%AD%EC%96%B4
hF1H-TRbRraToVWwE51K7Q,revmob_cpi,_5b578d78f146325def5ca311_6p6yj5ollgr5mdw7ptoju7d5o,Install,0.8,210.216.14.25,e248c353-1ba9-482e-bffb-066fe0647e4a,1557013521,2019-05-05 07:45:21,1557013754,2019-05-05 07:49:14,1557013784,9681eec8-7ba6-aefa,https://s2s.revmob.com/api/v4/conversion/9681eec8-7ba6-aefa/conversion.json,idfa_e248c353-1ba9-482e-bffb-066fe0647e4a,%ED%95%9C%EA%B5%AD%EC%96%B4
hF1H-TRbRraToVWwE51K7Q,revmob_cpi,_5b578d78f146325def5ca311_6p6yj5ollgr5mdw7ptoju7d5o,Install,0.8,211.216.48.158,1660fca6-26d5-4344-a84b-98fca6f995ee,1557013910,2019-05-05 07:51:50,1557014072,2019-05-05 07:54:32,1557014103,96a1eec4-1037-a4a9,https://s2s.revmob.com/api/v4/conversion/96a1eec4-1037-a4a9/conversion.json,idfa_1660fca6-26d5-4344-a84b-98fca6f995ee,%ED%95%9C%EA%B5%AD%EC%96%B4
hF1H-TRbRraToVWwE51K7Q,revmob_cpi,_5b578d78f146325def5ca311_6p6yj5ollgr5mdw7ptoju7d5o,Install,0.8,118.44.9.61,53fa5cb9-98fa-4caa-b0c2-7646f7e4e99d,1557013674,2019-05-05 07:47:54,1557013852,2019-05-05 07:50:52,1557013883,9671eec9-fcf6-f25f,https://s2s.revmob.com/api/v4/conversion/9671eec9-fcf6-f25f/conversion.json,idfa_53fa5cb9-98fa-4caa-b0c2-7646f7e4e99d,%ED%95%9C%EA%B5%AD%EC%96%B4
hF1H-TRbRraToVWwE51K7Q,revmob_cpi,_5b578d78f146325def5ca311_6p6yj5ollgr5mdw7ptoju7d5o,Install,0.8,211.47.68.238,fada572c-bada-4b76-bf49-952d14f69b31,1557011727,2019-05-05 07:15:27,1557011868,2019-05-05 07:17:48,1557011899,9641eec7-f222-64a7,https://s2s.revmob.com/api/v4/conversion/9641eec7-f222-64a7/conversion.json,idfa_fada572c-bada-4b76-bf49-952d14f69b31,%ED%95%9C%EA%B5%AD%EC%96%B4
hF1H-TRbRraToVWwE51K7Q,revmob_cpi,_5b578d78f146325def5ca311_6p6yj5ollgr5mdw7ptoju7d5o,Install,0.8,114.30.209.71,908b178e-7a74-4105-b37c-47d1aa927f7d,1557011768,2019-05-05 07:16:08,1557011888,2019-05-05 07:18:08,1557011918,96e1eec0-5642-1a59,https://s2s.revmob.com/api/v4/conversion/96e1eec0-5642-1a59/conversion.json,idfa_908b178e-7a74-4105-b37c-47d1aa927f7d,%ED%95%9C%EA%B5%AD%EC%96%B4
hF1H-TRbRraToVWwE51K7Q,revmob_cpi,_5b578d78f146325def5ca311_6p6yj5ollgr5mdw7ptoju7d5o,Install,1.0,112.220.22.162,bd636599-f86a-4669-b379-e26407d9a4f9,1557736028,2019-05-13 16:27:08,1557736105,2019-05-13 16:28:25,1557736135,97c1e557-cb28-89dd,https://s2s.revmob.com/api/v4/conversion/97c1e557-cb28-89dd/conversion.json,idfa_bd636599-f86a-4669-b379-e26407d9a4f9,%ED%95%9C%EA%B5%AD%EC%96%B4
hF1H-TRbRraToVWwE51K7Q,revmob_cpi,_5b578d78f146325def5ca311_6p6yj5ollgr5mdw7ptoju7d5o,Install,1.0,114.30.165.96,19d4155f-2298-4127-b71f-104cfd08a6eb,1557735160,2019-05-13 16:12:40,1557735242,2019-05-13 16:14:02,1557735273,9731e552-b516-3e5d,https://s2s.revmob.com/api/v4/conversion/9731e552-b516-3e5d/conversion.json,idfa_19d4155f-2298-4127-b71f-104cfd08a6eb,%ED%95%9C%EA%B5%AD%EC%96%B4
hF1H-TRbRraToVWwE51K7Q,revmob_cpi,_5b578d78f146325def5ca311_6p6yj5ollgr5mdw7ptoju7d5o,Install,0.8,59.15.185.17,0dcae1f6-b9e1-4cea-b36f-bd806e809192,1557013687,2019-05-05 07:48:07,1557013801,2019-05-05 07:50:01,1557013832,96e1eec8-6207-9070,https://s2s.revmob.com/api/v4/conversion/96e1eec8-6207-9070/conversion.json,idfa_0dcae1f6-b9e1-4cea-b36f-bd806e809192,%ED%95%9C%EA%B5%AD%EC%96%B4
hF1H-TRbRraToVWwE51K7Q,revmob_cpi,_5b578d78f146325def5ca311_6p6yj5ollgr5mdw7ptoju7d5o,Install,0.8,182.208.90.83,fcd864c6-dfb8-41b9-b22e-a3129783283e,1557013941,2019-05-05 07:52:21,1557014107,2019-05-05 07:55:07,1557014137,9601eec6-6b47-47ea,https://s2s.revmob.com/api/v4/conversion/9601eec6-6b47-47ea/conversion.json,idfa_fcd864c6-dfb8-41b9-b22e-a3129783283e,%ED%95%9C%EA%B5%AD%EC%96%B4
hF1H-TRbRraToVWwE51K7Q,revmob_cpi,_5b578d78f146325def5ca311_6p6yj5ollgr5mdw7ptoju7d5o,Install,0.8,175.112.188.68,d30fd32f-2ddb-414e-88a3-0901024d89dc,1557013981,2019-05-05 07:53:01,1557014134,2019-05-05 07:55:34,1557014165,96f1eec1-cfe7-326b,https://s2s.revmob.com/api/v4/conversion/96f1eec1-cfe7-326b/conversion.json,idfa_d30fd32f-2ddb-414e-88a3-0901024d89dc,%ED%95%9C%EA%B5%AD%EC%96%B4
hF1H-TRbRraToVWwE51K7Q,revmob_cpi,_5b578d78f146325def5ca311_6p6yj5ollgr5mdw7ptoju7d5o,Install,0.8,61.32.61.197,adbbf53c-c1f2-4b82-9834-c2e84d80fdb6,1557012196,2019-05-05 07:23:16,1557012301,2019-05-05 07:25:01,1557012332,9601eec3-6a83-2c79,https://s2s.revmob.com/api/v4/conversion/9601eec3-6a83-2c79/conversion.json,idfa_adbbf53c-c1f2-4b82-9834-c2e84d80fdb6,%ED%95%9C%EA%B5%AD%EC%96%B4
hF1H-TRbRraToVWwE51K7Q,revmob_cpi,_5b578d78f146325def5ca311_6p6yj5ollgr5mdw7ptoju7d5o,Install,0.8,14.85.41.26,ebce3a5c-09fa-4ed1-a0a8-25a837a69327,1557013782,2019-05-05 07:49:42,1557013944,2019-05-05 07:52:24,1557013975,96e1eecb-30e7-6914,https://s2s.revmob.com/api/v4/conversion/96e1eecb-30e7-6914/conversion.json,idfa_ebce3a5c-09fa-4ed1-a0a8-25a837a69327,%ED%95%9C%EA%B5%AD%EC%96%B4
hF1H-TRbRraToVWwE51K7Q,revmob_cpi,_5b578d78f146325def5ca311_6p6yj5ollgr5mdw7ptoju7d5o,Install,1.0,124.80.239.75,e9b1eaec-f563-4371-800c-f3ce479ece7b,1557736316,2019-05-13 16:31:56,1557736443,2019-05-13 16:34:03,1557736473,9791e55a-9ba9-16a8,https://s2s.revmob.com/api/v4/conversion/9791e55a-9ba9-16a8/conversion.json,idfa_e9b1eaec-f563-4371-800c-f3ce479ece7b,%ED%95%9C%EA%B5%AD%EC%96%B4
hF1H-TRbRraToVWwE51K7Q,revmob_cpi,_5b578d78f146325def5ca311_6p6yj5ollgr5mdw7ptoju7d5o,Install,0.8,220.85.51.84,36cd1786-f762-4269-8878-98591d9c82e4,1557012209,2019-05-05 07:23:29,1557012323,2019-05-05 07:25:23,1557012357,9621eec6-bf83-bb19,https://s2s.revmob.com/api/v4/conversion/9621eec6-bf83-bb19/conversion.json,idfa_36cd1786-f762-4269-8878-98591d9c82e4,%ED%95%9C%EA%B5%AD%EC%96%B4
hF1H-TRbRraToVWwE51K7Q,revmob_cpi,_5b578d78f146325def5ca311_6p6yj5ollgr5mdw7ptoju7d5o,Install,0.8,175.230.254.62,c0ff40b8-2ea5-46dc-8676-fddd782c9053,1557013513,2019-05-05 07:45:13,1557013607,2019-05-05 07:46:47,1557013638,96c1eec0-7a86-ae7a,https://s2s.revmob.com/api/v4/conversion/96c1eec0-7a86-ae7a/conversion.json,idfa_c0ff40b8-2ea5-46dc-8676-fddd782c9053,%ED%95%9C%EA%B5%AD%EC%96%B4
hF1H-TRbRraToVWwE51K7Q,revmob_cpi,_5b578d78f146325def5ca311_6p6yj5ollgr5mdw7ptoju7d5o,Install,1.0,112.170.215.31,443ae966-c132-4ea6-8668-8cfc0ccdc372,1557735131,2019-05-13 16:12:11,1557735208,2019-05-13 16:13:28,1557735263,9771e55b-b686-28ec,https://s2s.revmob.com/api/v4/conversion/9771e55b-b686-28ec/conversion.json,idfa_443ae966-c132-4ea6-8668-8cfc0ccdc372,%ED%95%9C%EA%B5%AD%EC%96%B4
hF1H-TRbRraToVWwE51K7Q,revmob_cpi,_5b578d78f146325def5ca311_6p6yj5ollgr5mdw7ptoju7d5o,Install,0.8,182.226.35.57,6235bcb4-6a52-413a-9283-e978b7df53d9,1557011719,2019-05-05 07:15:19,1557011866,2019-05-05 07:17:46,1557011897,9631eec1-af52-a1a7,https://s2s.revmob.com/api/v4/conversion/9631eec1-af52-a1a7/conversion.json,idfa_6235bcb4-6a52-413a-9283-e978b7df53d9,%ED%95%9C%EA%B5%AD%EC%96%B4
hF1H-TRbRraToVWwE51K7Q,revmob_cpi,_5b578d78f146325def5ca311_6p6yj5ollgr5mdw7ptoju7d5o,Install,1.0,183.123.129.74,fce421ae-b16e-4799-8c42-1809bcb72003,1557735672,2019-05-13 16:21:12,1557735738,2019-05-13 16:22:18,1557735918,97a1e555-f828-0c70,https://s2s.revmob.com/api/v4/conversion/97a1e555-f828-0c70/conversion.json,idfa_fce421ae-b16e-4799-8c42-1809bcb72003,%ED%95%9C%EA%B5%AD%EC%96%B4
hF1H-TRbRraToVWwE51K7Q,revmob_cpi,_5b578d78f146325def5ca311_6p6yj5ollgr5mdw7ptoju7d5o,Install,0.8,125.141.67.74,1db60c1a-bf3a-4726-acf5-0904ff0c53d2,1557012691,2019-05-05 07:31:31,1557012883,2019-05-05 07:34:43,1557012913,96f1eecb-b5f4-dacb,https://s2s.revmob.com/api/v4/conversion/96f1eecb-b5f4-dacb/conversion.json,idfa_1db60c1a-bf3a-4726-acf5-0904ff0c53d2,%ED%95%9C%EA%B5%AD%EC%96%B4
hF1H-TRbRraToVWwE51K7Q,revmob_cpi,_5b578d78f146325def5ca311_6p6yj5ollgr5mdw7ptoju7d5o,Install,1.0,218.146.86.246,307c0b50-d179-4ab9-8b6c-90c86092fc62,1557734211,2019-05-13 15:56:51,1557734310,2019-05-13 15:58:30,1557734342,9701e55d-9ae4-98da,https://s2s.revmob.com/api/v4/conversion/9701e55d-9ae4-98da/conversion.json,idfa_307c0b50-d179-4ab9-8b6c-90c86092fc62,%ED%95%9C%EA%B5%AD%EC%96%B4
hF1H-TRbRraToVWwE51K7Q,revmob_cpi,_5b578d78f146325def5ca311_6p6yj5ollgr5mdw7ptoju7d5o,Install,1.0,106.254.218.37,b51c20c0-9b54-42c7-8a1b-ee968b4083c5,1557735469,2019-05-13 16:17:49,1557735591,2019-05-13 16:19:51,1557735623,9701e55d-05d7-6369,https://s2s.revmob.com/api/v4/conversion/9701e55d-05d7-6369/conversion.json,idfa_b51c20c0-9b54-42c7-8a1b-ee968b4083c5,%ED%95%9C%EA%B5%AD%EC%96%B4
hF1H-TRbRraToVWwE51K7Q,revmob_cpi,_5b578d78f146325def5ca311_6p6yj5ollgr5mdw7ptoju7d5o,Install,1.0,221.158.18.203,4f6ab366-2544-4f3e-a360-40cf9d2d732f,1557735809,2019-05-13 16:23:29,1557735926,2019-05-13 16:25:26,1557736008,9781e558-89a8-20b5,https://s2s.revmob.com/api/v4/conversion/9781e558-89a8-20b5/conversion.json,idfa_4f6ab366-2544-4f3e-a360-40cf9d2d732f,%ED%95%9C%EA%B5%AD%EC%96%B4
hF1H-TRbRraToVWwE51K7Q,revmob_cpi,_5b578d78f146325def5ca311_6p6yj5ollgr5mdw7ptoju7d5o,Install,0.8,218.38.136.99,d6f36b5b-d1bf-4230-8bf8-5db77ac62ded,1557013476,2019-05-05 07:44:36,1557013653,2019-05-05 07:47:33,1557013683,9671eecc-4366-e188,https://s2s.revmob.com/api/v4/conversion/9671eecc-4366-e188/conversion.json,idfa_d6f36b5b-d1bf-4230-8bf8-5db77ac62ded,%ED%95%9C%EA%B5%AD%EC%96%B4
hF1H-TRbRraToVWwE51K7Q,revmob_cpi,_5b578d78f146325def5ca311_6p6yj5ollgr5mdw7ptoju7d5o,Install,0.8,221.139.1.21,7455af1b-8420-4b80-9417-a9e4cd3291be,1557012725,2019-05-05 07:32:05,1557012850,2019-05-05 07:34:10,1557012881,9681eec6-8574-dc8c,https://s2s.revmob.com/api/v4/conversion/9681eec6-8574-dc8c/conversion.json,idfa_7455af1b-8420-4b80-9417-a9e4cd3291be,%ED%95%9C%EA%B5%AD%EC%96%B4
hF1H-TRbRraToVWwE51K7Q,revmob_cpi,_5b578d78f146325def5ca311_6p6yj5ollgr5mdw7ptoju7d5o,Install,0.8,58.229.163.82,be83af3d-cf5e-4191-a136-287b39566557,1557011294,2019-05-05 07:08:14,1557011419,2019-05-05 07:10:19,1557011449,96f1eeca-caa1-e367,https://s2s.revmob.com/api/v4/conversion/96f1eeca-caa1-e367/conversion.json,idfa_be83af3d-cf5e-4191-a136-287b39566557,%ED%95%9C%EA%B5%AD%EC%96%B4
hF1H-TRbRraToVWwE51K7Q,revmob_cpi,_5b578d78f146325def5ca311_6p6yj5ollgr5mdw7ptoju7d5o,Install,1.0,119.66.102.7,2e46b361-37c2-4ff8-822b-ba34cdbd6f27,1557734361,2019-05-13 15:59:21,1557734432,2019-05-13 16:00:32,1557734464,9731e552-2d75-fca0,https://s2s.revmob.com/api/v4/conversion/9731e552-2d75-fca0/conversion.json,idfa_2e46b361-37c2-4ff8-822b-ba34cdbd6f27,%ED%95%9C%EA%B5%AD%EC%96%B4
hF1H-TRbRraToVWwE51K7Q,revmob_cpi,_5b578d78f146325def5ca311_6p6yj5ollgr5mdw7ptoju7d5o,Install,1.0,211.224.188.72,f1e2e4c6-eb22-4e83-bcb1-bb7c8d36fe5c,1557736289,2019-05-13 16:31:29,1557736371,2019-05-13 16:32:51,1557736401,97e1e558-c6b9-c2f7,https://s2s.revmob.com/api/v4/conversion/97e1e558-c6b9-c2f7/conversion.json,idfa_f1e2e4c6-eb22-4e83-bcb1-bb7c8d36fe5c,%ED%95%9C%EA%B5%AD%EC%96%B4
hF1H-TRbRraToVWwE51K7Q,revmob_cpi,_5b578d78f146325def5ca311_6p6yj5ollgr5mdw7ptoju7d5o,Install,0.8,222.239.251.60,095d6faa-9c00-475e-9b8f-3753cc96efee,1557013210,2019-05-05 07:40:10,1557013383,2019-05-05 07:43:03,1557013414,96d1eecb-da35-6a9e,https://s2s.revmob.com/api/v4/conversion/96d1eecb-da35-6a9e/conversion.json,idfa_095d6faa-9c00-475e-9b8f-3753cc96efee,%ED%95%9C%EA%B5%AD%EC%96%B4
hF1H-TRbRraToVWwE51K7Q,revmob_cpi,_5b578d78f146325def5ca311_6p6yj5ollgr5mdw7ptoju7d5o,Install,0.8,220.127.126.139,c4d48266-daa5-46d0-9401-7d55b1f0544f,1557012622,2019-05-05 07:30:22,1557012709,2019-05-05 07:31:49,1557012739,9601eece-4074-4e49,https://s2s.revmob.com/api/v4/conversion/9601eece-4074-4e49/conversion.json,idfa_c4d48266-daa5-46d0-9401-7d55b1f0544f,%ED%95%9C%EA%B5%AD%EC%96%B4
hF1H-TRbRraToVWwE51K7Q,revmob_cpi,_5b578d78f146325def5ca311_6p6yj5ollgr5mdw7ptoju7d5o,Install,1.0,183.112.102.112,64334a23-40fd-4de6-bcd6-7394248bfe88,1557734770,2019-05-13 16:06:10,1557734878,2019-05-13 16:07:58,1557734910,97c1e559-fec5-3a2e,https://s2s.revmob.com/api/v4/conversion/97c1e559-fec5-3a2e/conversion.json,idfa_64334a23-40fd-4de6-bcd6-7394248bfe88,%ED%95%9C%EA%B5%AD%EC%96%B4
hF1H-TRbRraToVWwE51K7Q,revmob_cpi,_5b578d78f146325def5ca311_6p6yj5ollgr5mdw7ptoju7d5o,Install,1.0,59.21.169.153,50836da5-8902-40ab-a806-67cb4ccd9c3c,1557730927,2019-05-13 15:02:07,1557731020,2019-05-13 15:03:40,1557731051,9711e54e-2b2d-00c0,https://s2s.revmob.com/api/v4/conversion/9711e54e-2b2d-00c0/conversion.json,idfa_50836da5-8902-40ab-a806-67cb4ccd9c3c,%ED%95%9C%EA%B5%AD%EC%96%B4
hF1H-TRbRraToVWwE51K7Q,revmob_cpi,_5b578d78f146325def5ca311_6p6yj5ollgr5mdw7ptoju7d5o,Install,0.8,58.227.42.57,895c7179-53c2-4ce9-90ca-1c0d3e01829b,1557013859,2019-05-05 07:50:59,1557014012,2019-05-05 07:53:32,1557014042,96b1eec8-1ff7-d387,https://s2s.revmob.com/api/v4/conversion/96b1eec8-1ff7-d387/conversion.json,idfa_895c7179-53c2-4ce9-90ca-1c0d3e01829b,%ED%95%9C%EA%B5%AD%EC%96%B4
hF1H-TRbRraToVWwE51K7Q,revmob_cpi,_5b578d78f146325def5ca311_6p6yj5ollgr5mdw7ptoju7d5o,Install,0.8,121.167.7.140,7ab538dd-7ea2-4d5d-82df-447254b3ab75,1557012915,2019-05-05 07:35:15,1557013049,2019-05-05 07:37:29,1557013080,9611eec0-3695-d504,https://s2s.revmob.com/api/v4/conversion/9611eec0-3695-d504/conversion.json,idfa_7ab538dd-7ea2-4d5d-82df-447254b3ab75,%ED%95%9C%EA%B5%AD%EC%96%B4
