cid,partner_id,channel_id,action_id,cpi,ip,idfa,click time,click datetime,install time,install datetime,postback time,click id,postback url,unique user id
hF1H-TRbRraToVWwE51K7Q,revmob_cpi,_598c6a12e4612d0e79c93316_94nvfgw7medjmho51kjtqa4fa,Install,1.0,58.229.163.82,bfd84a6c-6305-4aed-8cd7-e8174575f09e,1557212214,2019-05-07 14:56:54,1557212318,2019-05-07 14:58:38,1557212348,9761e098-24a5-2fc4,https://s2s.revmob.com/api/v4/conversion/9761e098-24a5-2fc4/conversion.json,idfa_bfd84a6c-6305-4aed-8cd7-e8174575f09e,%ED%95%9C%EA%B5%AD%EC%96%B4
hF1H-TRbRraToVWwE51K7Q,revmob_cpi,_598c6a12e4612d0e79c93316_94nvfgw7medjmho51kjtqa4fa,Install,1.0,114.30.165.123,3fc207a5-f314-4229-aa46-f6b7b5ba3543,1557211940,2019-05-07 14:52:20,1557212038,2019-05-07 14:53:58,1557212068,97e1e09f-5f54-e2da,https://s2s.revmob.com/api/v4/conversion/97e1e09f-5f54-e2da/conversion.json,idfa_3fc207a5-f314-4229-aa46-f6b7b5ba3543,%ED%95%9C%EA%B5%AD%EC%96%B4
hF1H-TRbRraToVWwE51K7Q,revmob_cpi,_598c6a12e4612d0e79c93316_94nvfgw7medjmho51kjtqa4fa,Install,1.0,183.112.115.66,c039fd60-bf71-41c9-a732-1dbbe79913f9,1557211010,2019-05-07 14:36:50,1557211118,2019-05-07 14:38:38,1557211148,9771e091-a132-3567,https://s2s.revmob.com/api/v4/conversion/9771e091-a132-3567/conversion.json,idfa_c039fd60-bf71-41c9-a732-1dbbe79913f9,%ED%95%9C%EA%B5%AD%EC%96%B4
hF1H-TRbRraToVWwE51K7Q,revmob_cpi,_598c6a12e4612d0e79c93316_94nvfgw7medjmho51kjtqa4fa,Install,1.0,115.4.56.37,357afda8-cd18-45d8-9db5-4fb2b1abf86d,1557211938,2019-05-07 14:52:18,1557212052,2019-05-07 14:54:12,1557212083,9781e091-4964-c8ba,https://s2s.revmob.com/api/v4/conversion/9781e091-4964-c8ba/conversion.json,idfa_357afda8-cd18-45d8-9db5-4fb2b1abf86d,%ED%95%9C%EA%B5%AD%EC%96%B4
hF1H-TRbRraToVWwE51K7Q,revmob_cpi,_598c6a12e4612d0e79c93316_94nvfgw7medjmho51kjtqa4fa,Install,1.0,114.30.165.111,93cb726b-f2cc-4c11-9c7b-a71594ce3244,1557211146,2019-05-07 14:39:06,1557211241,2019-05-07 14:40:41,1557211271,9731e09d-b202-2f3c,https://s2s.revmob.com/api/v4/conversion/9731e09d-b202-2f3c/conversion.json,idfa_93cb726b-f2cc-4c11-9c7b-a71594ce3244,%ED%95%9C%EA%B5%AD%EC%96%B4
hF1H-TRbRraToVWwE51K7Q,revmob_cpi,_598c6a12e4612d0e79c93316_94nvfgw7medjmho51kjtqa4fa,Install,1.0,112.220.210.10,eb6ae7c5-de78-44ea-85c6-58cf59b27220,1557211491,2019-05-07 14:44:51,1557211606,2019-05-07 14:46:46,1557211637,9781e098-a3e3-6469,https://s2s.revmob.com/api/v4/conversion/9781e098-a3e3-6469/conversion.json,idfa_eb6ae7c5-de78-44ea-85c6-58cf59b27220,%ED%95%9C%EA%B5%AD%EC%96%B4
hF1H-TRbRraToVWwE51K7Q,revmob_cpi,_598c6a12e4612d0e79c93316_94nvfgw7medjmho51kjtqa4fa,Install,1.0,1.214.47.130,03b633a9-4749-4490-8f01-0b1450d6a72d,1557210675,2019-05-07 14:31:15,1557210789,2019-05-07 14:33:09,1557210819,97d1e09f-4d61-bd0b,https://s2s.revmob.com/api/v4/conversion/97d1e09f-4d61-bd0b/conversion.json,idfa_03b633a9-4749-4490-8f01-0b1450d6a72d,%ED%95%9C%EA%B5%AD%EC%96%B4
hF1H-TRbRraToVWwE51K7Q,revmob_cpi,_598c6a12e4612d0e79c93316_94nvfgw7medjmho51kjtqa4fa,Install,1.0,112.222.184.51,33a35371-08d7-46a5-8a2d-6fcffbad6b2f,1557211166,2019-05-07 14:39:26,1557211270,2019-05-07 14:41:10,1557211301,9771e090-52f2-e41d,https://s2s.revmob.com/api/v4/conversion/9771e090-52f2-e41d/conversion.json,idfa_33a35371-08d7-46a5-8a2d-6fcffbad6b2f,%ED%95%9C%EA%B5%AD%EC%96%B4
hF1H-TRbRraToVWwE51K7Q,revmob_cpi,_598c6a12e4612d0e79c93316_94nvfgw7medjmho51kjtqa4fa,Install,1.0,121.151.86.155,e6e48a8f-0d96-459c-a60a-30cb7e325632,1557211000,2019-05-07 14:36:40,1557211123,2019-05-07 14:38:43,1557211154,97d1e09c-4052-ec87,https://s2s.revmob.com/api/v4/conversion/97d1e09c-4052-ec87/conversion.json,idfa_e6e48a8f-0d96-459c-a60a-30cb7e325632,%ED%95%9C%EA%B5%AD%EC%96%B4
hF1H-TRbRraToVWwE51K7Q,revmob_cpi,_598c6a12e4612d0e79c93316_94nvfgw7medjmho51kjtqa4fa,Install,1.0,114.30.165.109,581b5eeb-d197-4dff-a1a6-4953ce400fbb,1557211277,2019-05-07 14:41:17,1557211376,2019-05-07 14:42:56,1557211406,9791e092-cbe3-13c0,https://s2s.revmob.com/api/v4/conversion/9791e092-cbe3-13c0/conversion.json,idfa_581b5eeb-d197-4dff-a1a6-4953ce400fbb,%ED%95%9C%EA%B5%AD%EC%96%B4
hF1H-TRbRraToVWwE51K7Q,revmob_cpi,_598c6a12e4612d0e79c93316_94nvfgw7medjmho51kjtqa4fa,Install,1.0,183.112.102.112,789770e4-062e-49f3-9232-2f979581eeba,1557211598,2019-05-07 14:46:38,1557211695,2019-05-07 14:48:15,1557211725,97a1e091-7d03-3cad,https://s2s.revmob.com/api/v4/conversion/97a1e091-7d03-3cad/conversion.json,idfa_789770e4-062e-49f3-9232-2f979581eeba,%ED%95%9C%EA%B5%AD%EC%96%B4
hF1H-TRbRraToVWwE51K7Q,revmob_cpi,_598c6a12e4612d0e79c93316_94nvfgw7medjmho51kjtqa4fa,Install,1.0,211.181.72.238,637edf73-3d45-4e88-80e2-12e9fcbda2a7,1557211382,2019-05-07 14:43:02,1557211471,2019-05-07 14:44:31,1557211502,9721e09f-a283-4705,https://s2s.revmob.com/api/v4/conversion/9721e09f-a283-4705/conversion.json,idfa_637edf73-3d45-4e88-80e2-12e9fcbda2a7,%ED%95%9C%EA%B5%AD%EC%96%B4
hF1H-TRbRraToVWwE51K7Q,revmob_cpi,_598c6a12e4612d0e79c93316_94nvfgw7medjmho51kjtqa4fa,Install,1.0,175.201.12.200,d9c26c0e-13e8-40ba-9780-41bf06364741,1557212185,2019-05-07 14:56:25,1557212274,2019-05-07 14:57:54,1557212304,97b1e095-71e5-6543,https://s2s.revmob.com/api/v4/conversion/97b1e095-71e5-6543/conversion.json,idfa_d9c26c0e-13e8-40ba-9780-41bf06364741,%ED%95%9C%EA%B5%AD%EC%96%B4
hF1H-TRbRraToVWwE51K7Q,revmob_cpi,_598c6a12e4612d0e79c93316_94nvfgw7medjmho51kjtqa4fa,Install,1.0,220.85.51.84,d08dabbb-49e0-45e4-b4d2-9d22fc1bf817,1557211344,2019-05-07 14:42:24,1557211442,2019-05-07 14:44:02,1557211472,97c1e09f-df43-00d3,https://s2s.revmob.com/api/v4/conversion/97c1e09f-df43-00d3/conversion.json,idfa_d08dabbb-49e0-45e4-b4d2-9d22fc1bf817,%ED%95%9C%EA%B5%AD%EC%96%B4
hF1H-TRbRraToVWwE51K7Q,revmob_cpi,_598c6a12e4612d0e79c93316_94nvfgw7medjmho51kjtqa4fa,Install,1.0,220.83.54.195,9ac93699-6ead-44d1-b4e1-ceb60404b24b,1557212043,2019-05-07 14:54:03,1557212140,2019-05-07 14:55:40,1557212170,9751e094-3ed4-bd7e,https://s2s.revmob.com/api/v4/conversion/9751e094-3ed4-bd7e/conversion.json,idfa_9ac93699-6ead-44d1-b4e1-ceb60404b24b,%ED%95%9C%EA%B5%AD%EC%96%B4
hF1H-TRbRraToVWwE51K7Q,revmob_cpi,_598c6a12e4612d0e79c93316_94nvfgw7medjmho51kjtqa4fa,Install,1.0,211.182.112.240,64071828-2a3b-4660-9b24-6443f9f3d220,1557212143,2019-05-07 14:55:43,1557212231,2019-05-07 14:57:11,1557212261,9781e09b-3655-3221,https://s2s.revmob.com/api/v4/conversion/9781e09b-3655-3221/conversion.json,idfa_64071828-2a3b-4660-9b24-6443f9f3d220,%ED%95%9C%EA%B5%AD%EC%96%B4
hF1H-TRbRraToVWwE51K7Q,revmob_cpi,_598c6a12e4612d0e79c93316_94nvfgw7medjmho51kjtqa4fa,Install,1.0,116.126.199.161,9894e880-9601-4b7b-8cb0-b04e111e31d6,1557211151,2019-05-07 14:39:11,1557211267,2019-05-07 14:41:07,1557211298,9721e099-f922-93dc,https://s2s.revmob.com/api/v4/conversion/9721e099-f922-93dc/conversion.json,idfa_9894e880-9601-4b7b-8cb0-b04e111e31d6,%ED%95%9C%EA%B5%AD%EC%96%B4
hF1H-TRbRraToVWwE51K7Q,revmob_cpi,_598c6a12e4612d0e79c93316_94nvfgw7medjmho51kjtqa4fa,Install,1.0,183.97.106.140,820d6bb2-736e-4a28-8425-9b17948406e1,1557211694,2019-05-07 14:48:14,1557211804,2019-05-07 14:50:04,1557211835,9781e09d-1584-c801,https://s2s.revmob.com/api/v4/conversion/9781e09d-1584-c801/conversion.json,idfa_820d6bb2-736e-4a28-8425-9b17948406e1,%ED%95%9C%EA%B5%AD%EC%96%B4
hF1H-TRbRraToVWwE51K7Q,revmob_cpi,_598c6a12e4612d0e79c93316_94nvfgw7medjmho51kjtqa4fa,Install,1.0,211.47.68.238,9d629f6e-b483-4ace-ad9b-72767ece8004,1557211267,2019-05-07 14:41:07,1557211354,2019-05-07 14:42:34,1557211385,9731e094-e393-2820,https://s2s.revmob.com/api/v4/conversion/9731e094-e393-2820/conversion.json,idfa_9d629f6e-b483-4ace-ad9b-72767ece8004,%ED%95%9C%EA%B5%AD%EC%96%B4
hF1H-TRbRraToVWwE51K7Q,revmob_cpi,_598c6a12e4612d0e79c93316_94nvfgw7medjmho51kjtqa4fa,Install,1.0,14.7.165.143,99c08555-71f2-495b-8e19-cf6c3156af80,1557212016,2019-05-07 14:53:36,1557212105,2019-05-07 14:55:05,1557212135,9741e09c-43e4-37cd,https://s2s.revmob.com/api/v4/conversion/9741e09c-43e4-37cd/conversion.json,idfa_99c08555-71f2-495b-8e19-cf6c3156af80,%ED%95%9C%EA%B5%AD%EC%96%B4
hF1H-TRbRraToVWwE51K7Q,revmob_cpi,_598c6a12e4612d0e79c93316_94nvfgw7medjmho51kjtqa4fa,Install,1.0,123.200.126.205,f3397dc0-0c5b-44db-afaf-9847a6050043,1557211190,2019-05-07 14:39:50,1557211318,2019-05-07 14:41:58,1557211348,97f1e097-02a2-b90e,https://s2s.revmob.com/api/v4/conversion/97f1e097-02a2-b90e/conversion.json,idfa_f3397dc0-0c5b-44db-afaf-9847a6050043,%ED%95%9C%EA%B5%AD%EC%96%B4
hF1H-TRbRraToVWwE51K7Q,revmob_cpi,_598c6a12e4612d0e79c93316_94nvfgw7medjmho51kjtqa4fa,Install,1.0,61.40.194.10,adf7f9c2-0c54-4ed9-8618-aee19900a8ce,1557211702,2019-05-07 14:48:22,1557211811,2019-05-07 14:50:11,1557211841,9791e09c-8fb4-48a1,https://s2s.revmob.com/api/v4/conversion/9791e09c-8fb4-48a1/conversion.json,idfa_adf7f9c2-0c54-4ed9-8618-aee19900a8ce,%ED%95%9C%EA%B5%AD%EC%96%B4
hF1H-TRbRraToVWwE51K7Q,revmob_cpi,_598c6a12e4612d0e79c93316_94nvfgw7medjmho51kjtqa4fa,Install,1.0,222.97.214.195,66786a43-bda7-442f-9dd6-a86f53c417e6,1557210917,2019-05-07 14:35:17,1557211046,2019-05-07 14:37:26,1557211077,9741e09f-d222-07c3,https://s2s.revmob.com/api/v4/conversion/9741e09f-d222-07c3/conversion.json,idfa_66786a43-bda7-442f-9dd6-a86f53c417e6,%ED%95%9C%EA%B5%AD%EC%96%B4
hF1H-TRbRraToVWwE51K7Q,revmob_cpi,_598c6a12e4612d0e79c93316_94nvfgw7medjmho51kjtqa4fa,Install,1.0,211.216.58.204,53e1f211-0eaf-4f95-8fc2-db5109376307,1557210902,2019-05-07 14:35:02,1557211023,2019-05-07 14:37:03,1557211053,97b1e098-af12-7283,https://s2s.revmob.com/api/v4/conversion/97b1e098-af12-7283/conversion.json,idfa_53e1f211-0eaf-4f95-8fc2-db5109376307,%ED%95%9C%EA%B5%AD%EC%96%B4
hF1H-TRbRraToVWwE51K7Q,revmob_cpi,_598c6a12e4612d0e79c93316_94nvfgw7medjmho51kjtqa4fa,Install,1.0,182.208.90.83,53a3b077-0af1-463e-9811-4b49a01b0d41,1557211108,2019-05-07 14:38:28,1557211197,2019-05-07 14:39:57,1557211227,97f1e096-6712-b6cb,https://s2s.revmob.com/api/v4/conversion/97f1e096-6712-b6cb/conversion.json,idfa_53a3b077-0af1-463e-9811-4b49a01b0d41,%ED%95%9C%EA%B5%AD%EC%96%B4
hF1H-TRbRraToVWwE51K7Q,revmob_cpi,_598c6a12e4612d0e79c93316_94nvfgw7medjmho51kjtqa4fa,Install,1.0,211.169.180.254,a89f169d-532d-4d60-8c14-b85d2b57a337,1557211928,2019-05-07 14:52:08,1557212023,2019-05-07 14:53:43,1557212053,9741e091-0ce4-65ba,https://s2s.revmob.com/api/v4/conversion/9741e091-0ce4-65ba/conversion.json,idfa_a89f169d-532d-4d60-8c14-b85d2b57a337,%ED%95%9C%EA%B5%AD%EC%96%B4
hF1H-TRbRraToVWwE51K7Q,revmob_cpi,_598c6a12e4612d0e79c93316_94nvfgw7medjmho51kjtqa4fa,Install,1.0,106.255.253.178,5bf3b9b7-a27a-41aa-a0de-59c6f346f2a1,1557211892,2019-05-07 14:51:32,1557212001,2019-05-07 14:53:21,1557212032,97c1e091-96d4-7798,https://s2s.revmob.com/api/v4/conversion/97c1e091-96d4-7798/conversion.json,idfa_5bf3b9b7-a27a-41aa-a0de-59c6f346f2a1,%ED%95%9C%EA%B5%AD%EC%96%B4
hF1H-TRbRraToVWwE51K7Q,revmob_cpi,_598c6a12e4612d0e79c93316_94nvfgw7medjmho51kjtqa4fa,Install,1.0,210.223.250.3,ff55827c-bf36-4f3e-b3ff-aad609354c93,1557211359,2019-05-07 14:42:39,1557211446,2019-05-07 14:44:06,1557211476,97f1e095-b9e3-4d34,https://s2s.revmob.com/api/v4/conversion/97f1e095-b9e3-4d34/conversion.json,idfa_ff55827c-bf36-4f3e-b3ff-aad609354c93,%ED%95%9C%EA%B5%AD%EC%96%B4
hF1H-TRbRraToVWwE51K7Q,revmob_cpi,_598c6a12e4612d0e79c93316_94nvfgw7medjmho51kjtqa4fa,Install,1.0,121.131.98.250,8ed8e47a-c8cd-45b2-bfa6-3932bbbc1c21,1557211722,2019-05-07 14:48:42,1557211812,2019-05-07 14:50:12,1557211843,9731e095-50e4-2a82,https://s2s.revmob.com/api/v4/conversion/9731e095-50e4-2a82/conversion.json,idfa_8ed8e47a-c8cd-45b2-bfa6-3932bbbc1c21,%ED%95%9C%EA%B5%AD%EC%96%B4
hF1H-TRbRraToVWwE51K7Q,revmob_cpi,_598c6a12e4612d0e79c93316_94nvfgw7medjmho51kjtqa4fa,Install,1.0,211.54.74.50,704c187f-cfe9-467e-b54d-2f5033acdc44,1557211607,2019-05-07 14:46:47,1557211707,2019-05-07 14:48:27,1557211738,97f1e097-eed3-fd9d,https://s2s.revmob.com/api/v4/conversion/97f1e097-eed3-fd9d/conversion.json,idfa_704c187f-cfe9-467e-b54d-2f5033acdc44,%ED%95%9C%EA%B5%AD%EC%96%B4
hF1H-TRbRraToVWwE51K7Q,revmob_cpi,_598c6a12e4612d0e79c93316_94nvfgw7medjmho51kjtqa4fa,Install,1.0,218.38.136.99,550e78bb-0fda-446f-97b3-f9834e27614e,1557211824,2019-05-07 14:50:24,1557211925,2019-05-07 14:52:05,1557211956,97d1e098-d5a4-3385,https://s2s.revmob.com/api/v4/conversion/97d1e098-d5a4-3385/conversion.json,idfa_550e78bb-0fda-446f-97b3-f9834e27614e,%ED%95%9C%EA%B5%AD%EC%96%B4
hF1H-TRbRraToVWwE51K7Q,revmob_cpi,_598c6a12e4612d0e79c93316_94nvfgw7medjmho51kjtqa4fa,Install,1.0,110.10.130.19,7a981493-0db8-4022-935a-d23c2b9d8e83,1557210899,2019-05-07 14:34:59,1557211021,2019-05-07 14:37:01,1557211052,9761e090-9272-3e03,https://s2s.revmob.com/api/v4/conversion/9761e090-9272-3e03/conversion.json,idfa_7a981493-0db8-4022-935a-d23c2b9d8e83,%ED%95%9C%EA%B5%AD%EC%96%B4
hF1H-TRbRraToVWwE51K7Q,revmob_cpi,_598c6a12e4612d0e79c93316_94nvfgw7medjmho51kjtqa4fa,Install,1.0,61.37.41.130,a5e2a206-6fb6-41b0-9902-f964fafa7dd3,1557212192,2019-05-07 14:56:32,1557212311,2019-05-07 14:58:31,1557212341,9771e09d-b2e5-4a13,https://s2s.revmob.com/api/v4/conversion/9771e09d-b2e5-4a13/conversion.json,idfa_a5e2a206-6fb6-41b0-9902-f964fafa7dd3,%ED%95%9C%EA%B5%AD%EC%96%B4
hF1H-TRbRraToVWwE51K7Q,revmob_cpi,_598c6a12e4612d0e79c93316_94nvfgw7medjmho51kjtqa4fa,Install,1.0,211.236.192.234,0c1b4d4a-9e7b-41eb-94ae-3a29a82d54e5,1557210685,2019-05-07 14:31:25,1557210783,2019-05-07 14:33:03,1557210814,9771e09f-76b1-f94b,https://s2s.revmob.com/api/v4/conversion/9771e09f-76b1-f94b/conversion.json,idfa_0c1b4d4a-9e7b-41eb-94ae-3a29a82d54e5,%ED%95%9C%EA%B5%AD%EC%96%B4
