cid,partner_id,channel_id,action_id,cpi,ip,idfa,click time,click datetime,install time,install datetime,postback time,click id,postback url,unique user id
hF1H-TRbRraToVWwE51K7Q,revmob_cpi,_5b74a117f146325def5ca3b1_81awijsk4mgrbi4sh3a27qpew,Install,1.0,211.217.99.62,43c4aa61-a19d-4393-952e-48925d30d9ee,1557282196,2019-05-08 10:23:16,1557282310,2019-05-08 10:25:10,1557282340,9771e130-b658-e7d3,https://s2s.revmob.com/api/v4/conversion/9771e130-b658-e7d3/conversion.json,idfa_43c4aa61-a19d-4393-952e-48925d30d9ee,%ED%95%9C%EA%B5%AD%EC%96%B4
hF1H-TRbRraToVWwE51K7Q,revmob_cpi,_5b74a117f146325def5ca3b1_81awijsk4mgrbi4sh3a27qpew,Install,1.0,61.74.226.7,cfd92050-202c-4118-9b96-e03c0e756296,1557211201,2019-05-07 14:40:01,1557211301,2019-05-07 14:41:41,1557211331,9701e097-f7d2-f78e,https://s2s.revmob.com/api/v4/conversion/9701e097-f7d2-f78e/conversion.json,idfa_cfd92050-202c-4118-9b96-e03c0e756296,%ED%95%9C%EA%B5%AD%EC%96%B4
hF1H-TRbRraToVWwE51K7Q,revmob_cpi,_5b74a117f146325def5ca3b1_81awijsk4mgrbi4sh3a27qpew,Install,1.0,220.88.222.151,cbbfa8ef-db2f-4b44-9410-4980bc18c24e,1557282200,2019-05-08 10:23:20,1557282301,2019-05-08 10:25:01,1557282335,97d1e134-d598-6303,https://s2s.revmob.com/api/v4/conversion/97d1e134-d598-6303/conversion.json,idfa_cbbfa8ef-db2f-4b44-9410-4980bc18c24e,%ED%95%9C%EA%B5%AD%EC%96%B4
hF1H-TRbRraToVWwE51K7Q,revmob_cpi,_5b74a117f146325def5ca3b1_81awijsk4mgrbi4sh3a27qpew,Install,1.0,121.151.84.66,69286723-54bd-4ed3-9de8-e41f5e4d8209,1557282198,2019-05-08 10:23:18,1557282296,2019-05-08 10:24:56,1557282558,9791e135-c2a8-a463,https://s2s.revmob.com/api/v4/conversion/9791e135-c2a8-a463/conversion.json,idfa_69286723-54bd-4ed3-9de8-e41f5e4d8209,%ED%95%9C%EA%B5%AD%EC%96%B4
hF1H-TRbRraToVWwE51K7Q,revmob_cpi,_5b74a117f146325def5ca3b1_81awijsk4mgrbi4sh3a27qpew,Install,1.0,59.21.169.165,dd196918-2e77-4b47-984e-16e2576942a6,1557283293,2019-05-08 10:41:33,1557283377,2019-05-08 10:42:57,1557283407,97c1e134-80fa-a6bc,https://s2s.revmob.com/api/v4/conversion/97c1e134-80fa-a6bc/conversion.json,idfa_dd196918-2e77-4b47-984e-16e2576942a6,%ED%95%9C%EA%B5%AD%EC%96%B4
hF1H-TRbRraToVWwE51K7Q,revmob_cpi,_5b74a117f146325def5ca3b1_81awijsk4mgrbi4sh3a27qpew,Install,1.0,119.204.177.120,49be228b-93e4-47a5-9158-039eef1f274d,1557282611,2019-05-08 10:30:11,1557282691,2019-05-08 10:31:31,1557282722,9741e137-2bb9-bbf3,https://s2s.revmob.com/api/v4/conversion/9741e137-2bb9-bbf3/conversion.json,idfa_49be228b-93e4-47a5-9158-039eef1f274d,%ED%95%9C%EA%B5%AD%EC%96%B4
hF1H-TRbRraToVWwE51K7Q,revmob_cpi,_5b74a117f146325def5ca3b1_81awijsk4mgrbi4sh3a27qpew,Install,1.0,114.30.203.71,af0630ed-f826-455f-82ad-d48be1f44b2b,1557283566,2019-05-08 10:46:06,1557283644,2019-05-08 10:47:24,1557283675,9741e133-a5fb-8446,https://s2s.revmob.com/api/v4/conversion/9741e133-a5fb-8446/conversion.json,idfa_af0630ed-f826-455f-82ad-d48be1f44b2b,%ED%95%9C%EA%B5%AD%EC%96%B4
hF1H-TRbRraToVWwE51K7Q,revmob_cpi,_5b74a117f146325def5ca3b1_81awijsk4mgrbi4sh3a27qpew,Install,1.0,211.180.176.22,1cf56155-7796-4afa-b01d-64904ffafc54,1557282410,2019-05-08 10:26:50,1557282485,2019-05-08 10:28:05,1557282515,97f1e138-a7f8-b34b,https://s2s.revmob.com/api/v4/conversion/97f1e138-a7f8-b34b/conversion.json,idfa_1cf56155-7796-4afa-b01d-64904ffafc54,%ED%95%9C%EA%B5%AD%EC%96%B4
hF1H-TRbRraToVWwE51K7Q,revmob_cpi,_5b74a117f146325def5ca3b1_81awijsk4mgrbi4sh3a27qpew,Install,1.0,118.41.145.181,e76e856e-b9b0-4bdb-b10d-06e7de201bc7,1557282960,2019-05-08 10:36:00,1557283048,2019-05-08 10:37:28,1557283079,9781e139-2fda-0140,https://s2s.revmob.com/api/v4/conversion/9781e139-2fda-0140/conversion.json,idfa_e76e856e-b9b0-4bdb-b10d-06e7de201bc7,%ED%95%9C%EA%B5%AD%EC%96%B4
hF1H-TRbRraToVWwE51K7Q,revmob_cpi,_5b74a117f146325def5ca3b1_81awijsk4mgrbi4sh3a27qpew,Install,1.0,220.123.170.42,1c85b3f3-4044-4dcc-8d64-b6be4f1f9581,1557282579,2019-05-08 10:29:39,1557282659,2019-05-08 10:30:59,1557282692,9781e138-f8a9-2381,https://s2s.revmob.com/api/v4/conversion/9781e138-f8a9-2381/conversion.json,idfa_1c85b3f3-4044-4dcc-8d64-b6be4f1f9581,%ED%95%9C%EA%B5%AD%EC%96%B4
hF1H-TRbRraToVWwE51K7Q,revmob_cpi,_5b74a117f146325def5ca3b1_81awijsk4mgrbi4sh3a27qpew,Install,1.0,223.28.243.244,59f220ce-eee0-4df9-b622-86bab525822c,1557210807,2019-05-07 14:33:27,1557210896,2019-05-07 14:34:56,1557210926,9771e09a-4452-e460,https://s2s.revmob.com/api/v4/conversion/9771e09a-4452-e460/conversion.json,idfa_59f220ce-eee0-4df9-b622-86bab525822c,%ED%95%9C%EA%B5%AD%EC%96%B4
hF1H-TRbRraToVWwE51K7Q,revmob_cpi,_5b74a117f146325def5ca3b1_81awijsk4mgrbi4sh3a27qpew,Install,1.0,114.30.165.96,58f7c9f6-64fc-4b83-8dd3-088d15c65e82,1557283426,2019-05-08 10:43:46,1557283514,2019-05-08 10:45:14,1557283555,9761e132-6fcb-8761,https://s2s.revmob.com/api/v4/conversion/9761e132-6fcb-8761/conversion.json,idfa_58f7c9f6-64fc-4b83-8dd3-088d15c65e82,%ED%95%9C%EA%B5%AD%EC%96%B4
hF1H-TRbRraToVWwE51K7Q,revmob_cpi,_5b74a117f146325def5ca3b1_81awijsk4mgrbi4sh3a27qpew,Install,1.0,203.228.17.2,db8b9172-014a-4e21-a42a-2ebf8167a3c9,1557284215,2019-05-08 10:56:55,1557284295,2019-05-08 10:58:15,1557284326,97e1e13e-d3ac-b74e,https://s2s.revmob.com/api/v4/conversion/97e1e13e-d3ac-b74e/conversion.json,idfa_db8b9172-014a-4e21-a42a-2ebf8167a3c9,%ED%95%9C%EA%B5%AD%EC%96%B4
hF1H-TRbRraToVWwE51K7Q,revmob_cpi,_5b74a117f146325def5ca3b1_81awijsk4mgrbi4sh3a27qpew,Install,1.0,175.204.125.198,307d4cb9-2c64-4672-8cc3-21654a225512,1557211205,2019-05-07 14:40:05,1557211286,2019-05-07 14:41:26,1557211316,9761e090-10b2-bfff,https://s2s.revmob.com/api/v4/conversion/9761e090-10b2-bfff/conversion.json,idfa_307d4cb9-2c64-4672-8cc3-21654a225512,%ED%95%9C%EA%B5%AD%EC%96%B4
hF1H-TRbRraToVWwE51K7Q,revmob_cpi,_5b74a117f146325def5ca3b1_81awijsk4mgrbi4sh3a27qpew,Install,1.0,119.204.177.120,6919be16-123c-40ab-a00b-f597eaef4ffe,1557207752,2019-05-07 13:42:32,1557207853,2019-05-07 13:44:13,1557207883,9711e089-7dda-ffbe,https://s2s.revmob.com/api/v4/conversion/9711e089-7dda-ffbe/conversion.json,idfa_6919be16-123c-40ab-a00b-f597eaef4ffe,%ED%95%9C%EA%B5%AD%EC%96%B4
hF1H-TRbRraToVWwE51K7Q,revmob_cpi,_5b74a117f146325def5ca3b1_81awijsk4mgrbi4sh3a27qpew,Install,1.0,220.116.112.76,c19f8beb-8497-4262-b17a-f65549c5b75b,1557283031,2019-05-08 10:37:11,1557283111,2019-05-08 10:38:31,1557283147,97e1e137-c91a-9be2,https://s2s.revmob.com/api/v4/conversion/97e1e137-c91a-9be2/conversion.json,idfa_c19f8beb-8497-4262-b17a-f65549c5b75b,%ED%95%9C%EA%B5%AD%EC%96%B4
hF1H-TRbRraToVWwE51K7Q,revmob_cpi,_5b74a117f146325def5ca3b1_81awijsk4mgrbi4sh3a27qpew,Install,1.0,112.218.202.158,3a7630bf-94cc-4edc-a68b-a44809d181f9,1557283866,2019-05-08 10:51:06,1557283942,2019-05-08 10:52:22,1557283972,9721e132-e6ac-f991,https://s2s.revmob.com/api/v4/conversion/9721e132-e6ac-f991/conversion.json,idfa_3a7630bf-94cc-4edc-a68b-a44809d181f9,%ED%95%9C%EA%B5%AD%EC%96%B4
hF1H-TRbRraToVWwE51K7Q,revmob_cpi,_5b74a117f146325def5ca3b1_81awijsk4mgrbi4sh3a27qpew,Install,1.0,175.211.241.123,bd756054-fed5-427e-8c80-baf46b136a42,1557206820,2019-05-07 13:27:00,1557206918,2019-05-07 13:28:38,1557206949,97b1e083-a7e8-a88b,https://s2s.revmob.com/api/v4/conversion/97b1e083-a7e8-a88b/conversion.json,idfa_bd756054-fed5-427e-8c80-baf46b136a42,%ED%95%9C%EA%B5%AD%EC%96%B4
hF1H-TRbRraToVWwE51K7Q,revmob_cpi,_5b74a117f146325def5ca3b1_81awijsk4mgrbi4sh3a27qpew,Install,1.0,211.180.176.21,dcd381be-4dd7-4e51-8762-61fdfabdca05,1557283660,2019-05-08 10:47:40,1557283764,2019-05-08 10:49:24,1557283795,97b1e130-231b-d55a,https://s2s.revmob.com/api/v4/conversion/97b1e130-231b-d55a/conversion.json,idfa_dcd381be-4dd7-4e51-8762-61fdfabdca05,%ED%95%9C%EA%B5%AD%EC%96%B4
hF1H-TRbRraToVWwE51K7Q,revmob_cpi,_5b74a117f146325def5ca3b1_81awijsk4mgrbi4sh3a27qpew,Install,1.0,115.4.56.37,2b2e24d0-d222-45c8-8325-28360b2ed863,1557281791,2019-05-08 10:16:31,1557281892,2019-05-08 10:18:12,1557281924,9721e134-a637-cf84,https://s2s.revmob.com/api/v4/conversion/9721e134-a637-cf84/conversion.json,idfa_2b2e24d0-d222-45c8-8325-28360b2ed863,%ED%95%9C%EA%B5%AD%EC%96%B4
hF1H-TRbRraToVWwE51K7Q,revmob_cpi,_5b74a117f146325def5ca3b1_81awijsk4mgrbi4sh3a27qpew,Install,1.0,121.160.191.45,baf8f2e0-1330-4e16-9cbb-49f366af2c1e,1557282606,2019-05-08 10:30:06,1557282730,2019-05-08 10:32:10,1557282761,9701e134-a1c9-5262,https://s2s.revmob.com/api/v4/conversion/9701e134-a1c9-5262/conversion.json,idfa_baf8f2e0-1330-4e16-9cbb-49f366af2c1e,%ED%95%9C%EA%B5%AD%EC%96%B4
hF1H-TRbRraToVWwE51K7Q,revmob_cpi,_5b74a117f146325def5ca3b1_81awijsk4mgrbi4sh3a27qpew,Install,1.0,121.66.93.195,007bb6b9-8be5-4a6d-8a67-609e512681f5,1557283896,2019-05-08 10:51:36,1557283981,2019-05-08 10:53:01,1557284261,9711e130-0f0c-8933,https://s2s.revmob.com/api/v4/conversion/9711e130-0f0c-8933/conversion.json,idfa_007bb6b9-8be5-4a6d-8a67-609e512681f5,%ED%95%9C%EA%B5%AD%EC%96%B4
hF1H-TRbRraToVWwE51K7Q,revmob_cpi,_5b74a117f146325def5ca3b1_81awijsk4mgrbi4sh3a27qpew,Install,1.0,27.116.255.152,fb792a3a-35e5-412e-9ea8-a3629bade141,1557281794,2019-05-08 10:16:34,1557281895,2019-05-08 10:18:15,1557281925,97e1e134-bb57-5e94,https://s2s.revmob.com/api/v4/conversion/97e1e134-bb57-5e94/conversion.json,idfa_fb792a3a-35e5-412e-9ea8-a3629bade141,%ED%95%9C%EA%B5%AD%EC%96%B4
hF1H-TRbRraToVWwE51K7Q,revmob_cpi,_5b74a117f146325def5ca3b1_81awijsk4mgrbi4sh3a27qpew,Install,1.0,116.37.16.55,4a06b3a5-9178-4040-ad69-3881ce91d935,1557211241,2019-05-07 14:40:41,1557211394,2019-05-07 14:43:14,1557211425,97f1e097-6d43-1750,https://s2s.revmob.com/api/v4/conversion/97f1e097-6d43-1750/conversion.json,idfa_4a06b3a5-9178-4040-ad69-3881ce91d935,%ED%95%9C%EA%B5%AD%EC%96%B4
hF1H-TRbRraToVWwE51K7Q,revmob_cpi,_5b74a117f146325def5ca3b1_81awijsk4mgrbi4sh3a27qpew,Install,1.0,211.110.1.65,66435331-cad0-4fde-b6f7-8ac628964dde,1557283422,2019-05-08 10:43:42,1557283508,2019-05-08 10:45:08,1557283539,9741e137-62fb-3be1,https://s2s.revmob.com/api/v4/conversion/9741e137-62fb-3be1/conversion.json,idfa_66435331-cad0-4fde-b6f7-8ac628964dde,%ED%95%9C%EA%B5%AD%EC%96%B4
hF1H-TRbRraToVWwE51K7Q,revmob_cpi,_5b74a117f146325def5ca3b1_81awijsk4mgrbi4sh3a27qpew,Install,1.0,211.181.72.236,bb50dd83-62fe-46b5-9777-929b75290c3f,1557284050,2019-05-08 10:54:10,1557284144,2019-05-08 10:55:44,1557284174,9731e136-a1ac-2da8,https://s2s.revmob.com/api/v4/conversion/9731e136-a1ac-2da8/conversion.json,idfa_bb50dd83-62fe-46b5-9777-929b75290c3f,%ED%95%9C%EA%B5%AD%EC%96%B4
hF1H-TRbRraToVWwE51K7Q,revmob_cpi,_5b74a117f146325def5ca3b1_81awijsk4mgrbi4sh3a27qpew,Install,1.0,121.126.37.156,d5c10917-27fe-461f-b073-c164ebcd18a9,1557283000,2019-05-08 10:36:40,1557283108,2019-05-08 10:38:28,1557283152,9701e131-289a-b0d1,https://s2s.revmob.com/api/v4/conversion/9701e131-289a-b0d1/conversion.json,idfa_d5c10917-27fe-461f-b073-c164ebcd18a9,%ED%95%9C%EA%B5%AD%EC%96%B4
hF1H-TRbRraToVWwE51K7Q,revmob_cpi,_5b74a117f146325def5ca3b1_81awijsk4mgrbi4sh3a27qpew,Install,1.0,112.171.248.197,6f17f0f4-5277-4ffb-8c44-4bc1f4493f5b,1557284033,2019-05-08 10:53:53,1557284124,2019-05-08 10:55:24,1557284155,9761e13e-2a3c-3848,https://s2s.revmob.com/api/v4/conversion/9761e13e-2a3c-3848/conversion.json,idfa_6f17f0f4-5277-4ffb-8c44-4bc1f4493f5b,%ED%95%9C%EA%B5%AD%EC%96%B4
hF1H-TRbRraToVWwE51K7Q,revmob_cpi,_5b74a117f146325def5ca3b1_81awijsk4mgrbi4sh3a27qpew,Install,1.0,211.222.34.1,c8fb497c-99d8-4a6f-99f1-c4a4fba832f0,1557281794,2019-05-08 10:16:34,1557281892,2019-05-08 10:18:12,1557282098,9781e13c-9cd7-2194,https://s2s.revmob.com/api/v4/conversion/9781e13c-9cd7-2194/conversion.json,idfa_c8fb497c-99d8-4a6f-99f1-c4a4fba832f0,%ED%95%9C%EA%B5%AD%EC%96%B4
hF1H-TRbRraToVWwE51K7Q,revmob_cpi,_5b74a117f146325def5ca3b1_81awijsk4mgrbi4sh3a27qpew,Install,1.0,39.114.151.83,2c007bcc-4bbd-4e38-bbbf-10246bc7bb21,1557283011,2019-05-08 10:36:51,1557283101,2019-05-08 10:38:21,1557283132,9741e134-109a-8e12,https://s2s.revmob.com/api/v4/conversion/9741e134-109a-8e12/conversion.json,idfa_2c007bcc-4bbd-4e38-bbbf-10246bc7bb21,%ED%95%9C%EA%B5%AD%EC%96%B4
hF1H-TRbRraToVWwE51K7Q,revmob_cpi,_5b74a117f146325def5ca3b1_81awijsk4mgrbi4sh3a27qpew,Install,1.0,175.230.39.122,8b4061c6-d0b2-4c05-99d6-5376a60f467c,1557284648,2019-05-08 11:04:08,1557284732,2019-05-08 11:05:32,1557284762,9791e13b-00bd-329f,https://s2s.revmob.com/api/v4/conversion/9791e13b-00bd-329f/conversion.json,idfa_8b4061c6-d0b2-4c05-99d6-5376a60f467c,%ED%95%9C%EA%B5%AD%EC%96%B4
hF1H-TRbRraToVWwE51K7Q,revmob_cpi,_5b74a117f146325def5ca3b1_81awijsk4mgrbi4sh3a27qpew,Install,1.0,220.126.189.241,190177f0-fb45-46ac-95f7-64b43da61325,1557284185,2019-05-08 10:56:25,1557284266,2019-05-08 10:57:46,1557284296,97d1e13d-c16c-8f4d,https://s2s.revmob.com/api/v4/conversion/97d1e13d-c16c-8f4d/conversion.json,idfa_190177f0-fb45-46ac-95f7-64b43da61325,%ED%95%9C%EA%B5%AD%EC%96%B4
hF1H-TRbRraToVWwE51K7Q,revmob_cpi,_5b74a117f146325def5ca3b1_81awijsk4mgrbi4sh3a27qpew,Install,1.0,211.224.188.72,2019273c-42a1-4d8f-9319-6a04fc0db208,1557210951,2019-05-07 14:35:51,1557211028,2019-05-07 14:37:08,1557211059,97d1e09f-9322-4b65,https://s2s.revmob.com/api/v4/conversion/97d1e09f-9322-4b65/conversion.json,idfa_2019273c-42a1-4d8f-9319-6a04fc0db208,%ED%95%9C%EA%B5%AD%EC%96%B4
hF1H-TRbRraToVWwE51K7Q,revmob_cpi,_5b74a117f146325def5ca3b1_81awijsk4mgrbi4sh3a27qpew,Install,1.0,114.199.37.238,e1b97e57-55b0-4b63-8816-fbf947f61f91,1557282654,2019-05-08 10:30:54,1557282734,2019-05-08 10:32:14,1557282765,9781e13d-c449-f084,https://s2s.revmob.com/api/v4/conversion/9781e13d-c449-f084/conversion.json,idfa_e1b97e57-55b0-4b63-8816-fbf947f61f91,%ED%95%9C%EA%B5%AD%EC%96%B4
hF1H-TRbRraToVWwE51K7Q,revmob_cpi,_5b74a117f146325def5ca3b1_81awijsk4mgrbi4sh3a27qpew,Install,1.0,175.200.81.33,18dec4b5-8963-4922-8150-a61236df60e3,1557282066,2019-05-08 10:21:06,1557282165,2019-05-08 10:22:45,1557282195,9751e13b-db07-73de,https://s2s.revmob.com/api/v4/conversion/9751e13b-db07-73de/conversion.json,idfa_18dec4b5-8963-4922-8150-a61236df60e3,%ED%95%9C%EA%B5%AD%EC%96%B4
hF1H-TRbRraToVWwE51K7Q,revmob_cpi,_5b74a117f146325def5ca3b1_81awijsk4mgrbi4sh3a27qpew,Install,1.0,183.109.79.6,641fad1d-db65-451a-b4ad-15229cd2ad7b,1557282180,2019-05-08 10:23:00,1557282263,2019-05-08 10:24:23,1557282295,9721e13d-23a8-0c73,https://s2s.revmob.com/api/v4/conversion/9721e13d-23a8-0c73/conversion.json,idfa_641fad1d-db65-451a-b4ad-15229cd2ad7b,%ED%95%9C%EA%B5%AD%EC%96%B4
hF1H-TRbRraToVWwE51K7Q,revmob_cpi,_5b74a117f146325def5ca3b1_81awijsk4mgrbi4sh3a27qpew,Install,1.0,122.202.32.118,b8404670-7cbf-46aa-858d-e3119861ac27,1557282073,2019-05-08 10:21:13,1557282181,2019-05-08 10:23:01,1557282215,97b1e133-1b47-aacf,https://s2s.revmob.com/api/v4/conversion/97b1e133-1b47-aacf/conversion.json,idfa_b8404670-7cbf-46aa-858d-e3119861ac27,%ED%95%9C%EA%B5%AD%EC%96%B4
hF1H-TRbRraToVWwE51K7Q,revmob_cpi,_5b74a117f146325def5ca3b1_81awijsk4mgrbi4sh3a27qpew,Install,1.0,175.197.136.164,6c70357d-572b-4bb8-a13e-449fc1c7d703,1557282102,2019-05-08 10:21:42,1557282226,2019-05-08 10:23:46,1557282293,9751e132-33c8-d6b0,https://s2s.revmob.com/api/v4/conversion/9751e132-33c8-d6b0/conversion.json,idfa_6c70357d-572b-4bb8-a13e-449fc1c7d703,%ED%95%9C%EA%B5%AD%EC%96%B4
hF1H-TRbRraToVWwE51K7Q,revmob_cpi,_5b74a117f146325def5ca3b1_81awijsk4mgrbi4sh3a27qpew,Install,1.0,61.37.150.6,a33fcbd8-7b67-4c81-8cd4-cb007e2b75e4,1557281844,2019-05-08 10:17:24,1557281950,2019-05-08 10:19:10,1557281981,9741e138-1247-4e55,https://s2s.revmob.com/api/v4/conversion/9741e138-1247-4e55/conversion.json,idfa_a33fcbd8-7b67-4c81-8cd4-cb007e2b75e4,%ED%95%9C%EA%B5%AD%EC%96%B4
hF1H-TRbRraToVWwE51K7Q,revmob_cpi,_5b74a117f146325def5ca3b1_81awijsk4mgrbi4sh3a27qpew,Install,1.0,182.219.204.105,6389c9a2-e455-458c-9a0c-522001563a13,1557283774,2019-05-08 10:49:34,1557283848,2019-05-08 10:50:48,1557283879,97b1e134-776b-7afe,https://s2s.revmob.com/api/v4/conversion/97b1e134-776b-7afe/conversion.json,idfa_6389c9a2-e455-458c-9a0c-522001563a13,%ED%95%9C%EA%B5%AD%EC%96%B4
hF1H-TRbRraToVWwE51K7Q,revmob_cpi,_5b74a117f146325def5ca3b1_81awijsk4mgrbi4sh3a27qpew,Install,1.0,175.198.24.215,4b756650-f8d3-425b-87a6-32d4cb433947,1557284252,2019-05-08 10:57:32,1557284336,2019-05-08 10:58:56,1557284367,9791e13f-4ebd-a650,https://s2s.revmob.com/api/v4/conversion/9791e13f-4ebd-a650/conversion.json,idfa_4b756650-f8d3-425b-87a6-32d4cb433947,%ED%95%9C%EA%B5%AD%EC%96%B4
hF1H-TRbRraToVWwE51K7Q,revmob_cpi,_5b74a117f146325def5ca3b1_81awijsk4mgrbi4sh3a27qpew,Install,1.0,112.220.210.10,a87cf367-07f9-4445-b41e-7d904daa0f8d,1557283173,2019-05-08 10:39:33,1557283249,2019-05-08 10:40:49,1557283280,9741e13e-15fa-da18,https://s2s.revmob.com/api/v4/conversion/9741e13e-15fa-da18/conversion.json,idfa_a87cf367-07f9-4445-b41e-7d904daa0f8d,%ED%95%9C%EA%B5%AD%EC%96%B4
hF1H-TRbRraToVWwE51K7Q,revmob_cpi,_5b74a117f146325def5ca3b1_81awijsk4mgrbi4sh3a27qpew,Install,1.0,114.30.203.10,8a702af8-b48d-45b8-8851-e9022c1b6ef6,1557283368,2019-05-08 10:42:48,1557283447,2019-05-08 10:44:07,1557283478,9791e139-1d8a-b0ff,https://s2s.revmob.com/api/v4/conversion/9791e139-1d8a-b0ff/conversion.json,idfa_8a702af8-b48d-45b8-8851-e9022c1b6ef6,%ED%95%9C%EA%B5%AD%EC%96%B4
hF1H-TRbRraToVWwE51K7Q,revmob_cpi,_5b74a117f146325def5ca3b1_81awijsk4mgrbi4sh3a27qpew,Install,1.0,211.116.120.251,18983fe6-9f14-4ac7-ae0e-7e974411a0bb,1557284457,2019-05-08 11:00:57,1557284534,2019-05-08 11:02:14,1557284569,97c1e132-e1ed-5757,https://s2s.revmob.com/api/v4/conversion/97c1e132-e1ed-5757/conversion.json,idfa_18983fe6-9f14-4ac7-ae0e-7e974411a0bb,%ED%95%9C%EA%B5%AD%EC%96%B4
hF1H-TRbRraToVWwE51K7Q,revmob_cpi,_5b74a117f146325def5ca3b1_81awijsk4mgrbi4sh3a27qpew,Install,1.0,223.171.38.144,4be7802a-1da6-4df5-b3b9-7a429026e37c,1557210842,2019-05-07 14:34:02,1557210941,2019-05-07 14:35:41,1557210971,9701e092-72e2-25a1,https://s2s.revmob.com/api/v4/conversion/9701e092-72e2-25a1/conversion.json,idfa_4be7802a-1da6-4df5-b3b9-7a429026e37c,%ED%95%9C%EA%B5%AD%EC%96%B4
hF1H-TRbRraToVWwE51K7Q,revmob_cpi,_5b74a117f146325def5ca3b1_81awijsk4mgrbi4sh3a27qpew,Install,1.0,183.109.88.54,38d89443-d2b0-4687-a0ca-f12e0811b1cc,1557282796,2019-05-08 10:33:16,1557282872,2019-05-08 10:34:32,1557282903,9711e135-12e9-5f9a,https://s2s.revmob.com/api/v4/conversion/9711e135-12e9-5f9a/conversion.json,idfa_38d89443-d2b0-4687-a0ca-f12e0811b1cc,%ED%95%9C%EA%B5%AD%EC%96%B4
hF1H-TRbRraToVWwE51K7Q,revmob_cpi,_5b74a117f146325def5ca3b1_81awijsk4mgrbi4sh3a27qpew,Install,1.0,119.197.84.239,7f7f1378-1caf-4548-89ff-f06d198109eb,1557283739,2019-05-08 10:48:59,1557283814,2019-05-08 10:50:14,1557283844,97f1e138-214b-c72d,https://s2s.revmob.com/api/v4/conversion/97f1e138-214b-c72d/conversion.json,idfa_7f7f1378-1caf-4548-89ff-f06d198109eb,%ED%95%9C%EA%B5%AD%EC%96%B4
hF1H-TRbRraToVWwE51K7Q,revmob_cpi,_5b74a117f146325def5ca3b1_81awijsk4mgrbi4sh3a27qpew,Install,1.0,119.206.67.143,c2aa4cd7-be1d-43fe-bdec-efcc715bcbb0,1557284505,2019-05-08 11:01:45,1557284584,2019-05-08 11:03:04,1557284695,97f1e130-b1bd-5959,https://s2s.revmob.com/api/v4/conversion/97f1e130-b1bd-5959/conversion.json,idfa_c2aa4cd7-be1d-43fe-bdec-efcc715bcbb0,%ED%95%9C%EA%B5%AD%EC%96%B4
hF1H-TRbRraToVWwE51K7Q,revmob_cpi,_5b74a117f146325def5ca3b1_81awijsk4mgrbi4sh3a27qpew,Install,1.0,123.111.26.213,890ca86b-22cc-45eb-9283-e6f03d64672a,1557283401,2019-05-08 10:43:21,1557283516,2019-05-08 10:45:16,1557283547,97b1e139-23ab-8c00,https://s2s.revmob.com/api/v4/conversion/97b1e139-23ab-8c00/conversion.json,idfa_890ca86b-22cc-45eb-9283-e6f03d64672a,%ED%95%9C%EA%B5%AD%EC%96%B4
hF1H-TRbRraToVWwE51K7Q,revmob_cpi,_5b74a117f146325def5ca3b1_81awijsk4mgrbi4sh3a27qpew,Install,1.0,211.180.176.22,b2ac3744-058d-4f4d-9d5f-e2198b846e70,1557283096,2019-05-08 10:38:16,1557283179,2019-05-08 10:39:39,1557283254,97c1e133-377a-19c5,https://s2s.revmob.com/api/v4/conversion/97c1e133-377a-19c5/conversion.json,idfa_b2ac3744-058d-4f4d-9d5f-e2198b846e70,%ED%95%9C%EA%B5%AD%EC%96%B4
hF1H-TRbRraToVWwE51K7Q,revmob_cpi,_5b74a117f146325def5ca3b1_81awijsk4mgrbi4sh3a27qpew,Install,1.0,61.74.226.7,2c8e0cb3-4320-427b-a6bd-f973356a6fc5,1557282596,2019-05-08 10:29:56,1557282687,2019-05-08 10:31:27,1557282717,97c1e139-93a9-a632,https://s2s.revmob.com/api/v4/conversion/97c1e139-93a9-a632/conversion.json,idfa_2c8e0cb3-4320-427b-a6bd-f973356a6fc5,%ED%95%9C%EA%B5%AD%EC%96%B4
hF1H-TRbRraToVWwE51K7Q,revmob_cpi,_5b74a117f146325def5ca3b1_81awijsk4mgrbi4sh3a27qpew,Install,1.0,14.32.186.49,1f473483-f0d4-4836-8da0-e89c4b5b8426,1557282607,2019-05-08 10:30:07,1557282720,2019-05-08 10:32:00,1557282768,97b1e137-bf19-e962,https://s2s.revmob.com/api/v4/conversion/97b1e137-bf19-e962/conversion.json,idfa_1f473483-f0d4-4836-8da0-e89c4b5b8426,%ED%95%9C%EA%B5%AD%EC%96%B4
hF1H-TRbRraToVWwE51K7Q,revmob_cpi,_5b74a117f146325def5ca3b1_81awijsk4mgrbi4sh3a27qpew,Install,1.0,112.72.128.57,deebb479-3087-4415-acbc-f264638f2e7c,1557282612,2019-05-08 10:30:12,1557282735,2019-05-08 10:32:15,1557282765,9731e131-2b09-7bd3,https://s2s.revmob.com/api/v4/conversion/9731e131-2b09-7bd3/conversion.json,idfa_deebb479-3087-4415-acbc-f264638f2e7c,%ED%95%9C%EA%B5%AD%EC%96%B4
hF1H-TRbRraToVWwE51K7Q,revmob_cpi,_5b74a117f146325def5ca3b1_81awijsk4mgrbi4sh3a27qpew,Install,1.0,119.199.178.218,66e35985-c97e-4a33-849c-3c49985aad31,1557211357,2019-05-07 14:42:37,1557211450,2019-05-07 14:44:10,1557211480,97a1e09a-bfd3-b8c4,https://s2s.revmob.com/api/v4/conversion/97a1e09a-bfd3-b8c4/conversion.json,idfa_66e35985-c97e-4a33-849c-3c49985aad31,%ED%95%9C%EA%B5%AD%EC%96%B4
hF1H-TRbRraToVWwE51K7Q,revmob_cpi,_5b74a117f146325def5ca3b1_81awijsk4mgrbi4sh3a27qpew,Install,1.0,203.254.158.46,a2857021-f6fe-44db-8041-40d9aa858e91,1557283817,2019-05-08 10:50:17,1557283903,2019-05-08 10:51:43,1557283934,97b1e135-168c-82c0,https://s2s.revmob.com/api/v4/conversion/97b1e135-168c-82c0/conversion.json,idfa_a2857021-f6fe-44db-8041-40d9aa858e91,%ED%95%9C%EA%B5%AD%EC%96%B4
hF1H-TRbRraToVWwE51K7Q,revmob_cpi,_5b74a117f146325def5ca3b1_81awijsk4mgrbi4sh3a27qpew,Install,1.0,165.132.123.30,7b897e57-8f23-4171-af27-31ce8f96b232,1557284208,2019-05-08 10:56:48,1557284286,2019-05-08 10:58:06,1557284335,9761e13a-ad0c-804e,https://s2s.revmob.com/api/v4/conversion/9761e13a-ad0c-804e/conversion.json,idfa_7b897e57-8f23-4171-af27-31ce8f96b232,%ED%95%9C%EA%B5%AD%EC%96%B4
hF1H-TRbRraToVWwE51K7Q,revmob_cpi,_5b74a117f146325def5ca3b1_81awijsk4mgrbi4sh3a27qpew,Install,1.0,211.54.74.50,98306b0c-d985-4472-ae0e-6a92fdf04c79,1557284522,2019-05-08 11:02:02,1557284599,2019-05-08 11:03:19,1557284630,9731e138-513d-0c5a,https://s2s.revmob.com/api/v4/conversion/9731e138-513d-0c5a/conversion.json,idfa_98306b0c-d985-4472-ae0e-6a92fdf04c79,%ED%95%9C%EA%B5%AD%EC%96%B4
hF1H-TRbRraToVWwE51K7Q,revmob_cpi,_5b74a117f146325def5ca3b1_81awijsk4mgrbi4sh3a27qpew,Install,1.0,121.167.7.141,1f5b5784-86ca-4f12-ba5d-1cdfd97ccb14,1557283096,2019-05-08 10:38:16,1557283173,2019-05-08 10:39:33,1557283231,9781e136-36ba-6e65,https://s2s.revmob.com/api/v4/conversion/9781e136-36ba-6e65/conversion.json,idfa_1f5b5784-86ca-4f12-ba5d-1cdfd97ccb14,%ED%95%9C%EA%B5%AD%EC%96%B4
hF1H-TRbRraToVWwE51K7Q,revmob_cpi,_5b74a117f146325def5ca3b1_81awijsk4mgrbi4sh3a27qpew,Install,1.0,121.150.105.136,2e492c65-ecc9-4665-a8e1-ff709d5ebc34,1557283491,2019-05-08 10:44:51,1557283568,2019-05-08 10:46:08,1557283598,97b1e133-e1db-45b3,https://s2s.revmob.com/api/v4/conversion/97b1e133-e1db-45b3/conversion.json,idfa_2e492c65-ecc9-4665-a8e1-ff709d5ebc34,%ED%95%9C%EA%B5%AD%EC%96%B4
hF1H-TRbRraToVWwE51K7Q,revmob_cpi,_5b74a117f146325def5ca3b1_81awijsk4mgrbi4sh3a27qpew,Install,1.0,119.200.229.33,b5840ca2-092a-44a1-a723-136025f4a1c6,1557207292,2019-05-07 13:34:52,1557207379,2019-05-07 13:36:19,1557207410,9751e085-5469-08fd,https://s2s.revmob.com/api/v4/conversion/9751e085-5469-08fd/conversion.json,idfa_b5840ca2-092a-44a1-a723-136025f4a1c6,%ED%95%9C%EA%B5%AD%EC%96%B4
hF1H-TRbRraToVWwE51K7Q,revmob_cpi,_5b74a117f146325def5ca3b1_81awijsk4mgrbi4sh3a27qpew,Install,1.0,119.204.60.185,e188a419-0aa6-4f60-986d-6ab6d94c8113,1557282101,2019-05-08 10:21:41,1557282227,2019-05-08 10:23:47,1557282257,9741e13d-2d08-4790,https://s2s.revmob.com/api/v4/conversion/9741e13d-2d08-4790/conversion.json,idfa_e188a419-0aa6-4f60-986d-6ab6d94c8113,%ED%95%9C%EA%B5%AD%EC%96%B4
hF1H-TRbRraToVWwE51K7Q,revmob_cpi,_5b74a117f146325def5ca3b1_81awijsk4mgrbi4sh3a27qpew,Install,1.0,112.220.210.10,f8d25f87-d345-4a46-ad11-8dc29415b7bb,1557282092,2019-05-08 10:21:32,1557282215,2019-05-08 10:23:35,1557282245,9781e13d-c727-7e0f,https://s2s.revmob.com/api/v4/conversion/9781e13d-c727-7e0f/conversion.json,idfa_f8d25f87-d345-4a46-ad11-8dc29415b7bb,%ED%95%9C%EA%B5%AD%EC%96%B4
hF1H-TRbRraToVWwE51K7Q,revmob_cpi,_5b74a117f146325def5ca3b1_81awijsk4mgrbi4sh3a27qpew,Install,1.0,183.112.102.112,a7779fa8-5e47-495b-ba76-2dcae2222e8e,1557284264,2019-05-08 10:57:44,1557284354,2019-05-08 10:59:14,1557284384,97e1e131-be2d-0b30,https://s2s.revmob.com/api/v4/conversion/97e1e131-be2d-0b30/conversion.json,idfa_a7779fa8-5e47-495b-ba76-2dcae2222e8e,%ED%95%9C%EA%B5%AD%EC%96%B4
hF1H-TRbRraToVWwE51K7Q,revmob_cpi,_5b74a117f146325def5ca3b1_81awijsk4mgrbi4sh3a27qpew,Install,1.0,211.38.74.103,bfd3da81-60ae-462f-9286-351820295d5a,1557282548,2019-05-08 10:29:08,1557282646,2019-05-08 10:30:46,1557282679,9791e134-c469-7dc0,https://s2s.revmob.com/api/v4/conversion/9791e134-c469-7dc0/conversion.json,idfa_bfd3da81-60ae-462f-9286-351820295d5a,%ED%95%9C%EA%B5%AD%EC%96%B4
hF1H-TRbRraToVWwE51K7Q,revmob_cpi,_5b74a117f146325def5ca3b1_81awijsk4mgrbi4sh3a27qpew,Install,1.0,175.197.136.164,bcb22e25-40d2-4ffd-8e6f-9f4deefb00c4,1557284117,2019-05-08 10:55:17,1557284199,2019-05-08 10:56:39,1557284274,97b1e131-462c-32bb,https://s2s.revmob.com/api/v4/conversion/97b1e131-462c-32bb/conversion.json,idfa_bcb22e25-40d2-4ffd-8e6f-9f4deefb00c4,%ED%95%9C%EA%B5%AD%EC%96%B4
