cid,partner_id,channel_id,action_id,cpi,ip,idfa,click time,click datetime,install time,install datetime,postback time,click id,postback url,unique user id
gxiHou8WSSiJmosrBI8v4g,revmob_cpi,_5ad7b4e8a30c3b1c882e626b_amhg2rwi6e7jlmvi9sb4in5p1,Install,1.5,150.242.181.133,5677B9CE-98D1-47DE-8FE9-E40A5BF8E738,1557627619,2019-05-12 10:20:19,1557629193,2019-05-12 10:46:33,1557629224,97e1e456-8dec-a667,https://s2s.revmob.com/api/v4/conversion/97e1e456-8dec-a667/conversion.json,idfa_5677B9CE-98D1-47DE-8FE9-E40A5BF8E738,ms
gxiHou8WSSiJmosrBI8v4g,revmob_cpi,_5ad7b4e8a30c3b1c882e626b_amhg2rwi6e7jlmvi9sb4in5p1,Install,1.5,150.242.181.133,B5BD7A0B-1305-4337-B5ED-35F491059215,1557626994,2019-05-12 10:09:54,1557629841,2019-05-12 10:57:21,1557629872,9751e451-437b-10c0,https://s2s.revmob.com/api/v4/conversion/9751e451-437b-10c0/conversion.json,idfa_B5BD7A0B-1305-4337-B5ED-35F491059215,ms
gxiHou8WSSiJmosrBI8v4g,revmob_cpi,_5ad7b4e8a30c3b1c882e626b_amhg2rwi6e7jlmvi9sb4in5p1,Install,1.5,121.123.153.26,B9064F08-81A9-4ADF-B3D6-761920BFB6D2,1557627529,2019-05-12 10:18:49,1557627632,2019-05-12 10:20:32,1557627663,97e1e45c-300c-3e64,https://s2s.revmob.com/api/v4/conversion/97e1e45c-300c-3e64/conversion.json,idfa_B9064F08-81A9-4ADF-B3D6-761920BFB6D2,ms
gxiHou8WSSiJmosrBI8v4g,revmob_cpi,_5ad7b4e8a30c3b1c882e626b_amhg2rwi6e7jlmvi9sb4in5p1,Install,1.5,175.139.164.215,132560CC-146A-4B3A-B5E9-4C477FE82EB4,1557627998,2019-05-12 10:26:38,1557631689,2019-05-12 11:28:09,1557631719,9701e455-d2dd-dc55,https://s2s.revmob.com/api/v4/conversion/9701e455-d2dd-dc55/conversion.json,idfa_132560CC-146A-4B3A-B5E9-4C477FE82EB4,ms
gxiHou8WSSiJmosrBI8v4g,revmob_cpi,_5ad7b4e8a30c3b1c882e626b_amhg2rwi6e7jlmvi9sb4in5p1,Install,1.5,14.192.248.5,EF596A41-8683-416A-A465-82E8CB795D3C,1557627341,2019-05-12 10:15:41,1557632058,2019-05-12 11:34:18,1557632088,97c1e458-314b-d97d,https://s2s.revmob.com/api/v4/conversion/97c1e458-314b-d97d/conversion.json,idfa_EF596A41-8683-416A-A465-82E8CB795D3C,ms
gxiHou8WSSiJmosrBI8v4g,revmob_cpi,_5ad7b4e8a30c3b1c882e626b_amhg2rwi6e7jlmvi9sb4in5p1,Install,1.5,175.136.225.42,CFBE9DE0-D27D-4DAA-9E3F-0E1FB30708DB,1557627049,2019-05-12 10:10:49,1557627158,2019-05-12 10:12:38,1557627189,97a1e455-364b-47b2,https://s2s.revmob.com/api/v4/conversion/97a1e455-364b-47b2/conversion.json,idfa_CFBE9DE0-D27D-4DAA-9E3F-0E1FB30708DB,ms
gxiHou8WSSiJmosrBI8v4g,revmob_cpi,_5ad7b4e8a30c3b1c882e626b_amhg2rwi6e7jlmvi9sb4in5p1,Install,1.5,175.139.254.65,E09A436A-5A87-49CA-8725-D920B70A2A9C,1557626794,2019-05-12 10:06:34,1557626894,2019-05-12 10:08:14,1557626925,9771e45f-db4a-2058,https://s2s.revmob.com/api/v4/conversion/9771e45f-db4a-2058/conversion.json,idfa_E09A436A-5A87-49CA-8725-D920B70A2A9C,ms
gxiHou8WSSiJmosrBI8v4g,revmob_cpi,_5ad7b4e8a30c3b1c882e626b_amhg2rwi6e7jlmvi9sb4in5p1,Install,1.5,175.139.254.65,8983C209-10B2-4CCA-AA78-ECFA117621C1,1557627300,2019-05-12 10:15:00,1557631854,2019-05-12 11:30:54,1557631887,97c1e455-a6eb-18ab,https://s2s.revmob.com/api/v4/conversion/97c1e455-a6eb-18ab/conversion.json,idfa_8983C209-10B2-4CCA-AA78-ECFA117621C1,en
gxiHou8WSSiJmosrBI8v4g,revmob_cpi,_5ad7b4e8a30c3b1c882e626b_amhg2rwi6e7jlmvi9sb4in5p1,Install,1.5,175.139.182.145,474CA6E9-F91E-4625-A609-6698433A4A28,1557627993,2019-05-12 10:26:33,1557631210,2019-05-12 11:20:10,1557631241,97d1e452-783d-be65,https://s2s.revmob.com/api/v4/conversion/97d1e452-783d-be65/conversion.json,idfa_474CA6E9-F91E-4625-A609-6698433A4A28,en
gxiHou8WSSiJmosrBI8v4g,revmob_cpi,_5ad7b4e8a30c3b1c882e626b_amhg2rwi6e7jlmvi9sb4in5p1,Install,1.5,150.242.181.133,6614088C-CCB3-43AE-A4CC-F37923509DB9,1557627417,2019-05-12 10:16:57,1557627499,2019-05-12 10:18:19,1557627530,97f1e457-04bc-8ac0,https://s2s.revmob.com/api/v4/conversion/97f1e457-04bc-8ac0/conversion.json,idfa_6614088C-CCB3-43AE-A4CC-F37923509DB9,ms
gxiHou8WSSiJmosrBI8v4g,revmob_cpi,_5ad7b4e8a30c3b1c882e626b_amhg2rwi6e7jlmvi9sb4in5p1,Install,1.5,150.242.181.133,ACB4EE55-E4BA-4559-BF6A-466A67A3D1EB,1557628118,2019-05-12 10:28:38,1557629563,2019-05-12 10:52:43,1557629594,9741e456-264d-cbca,https://s2s.revmob.com/api/v4/conversion/9741e456-264d-cbca/conversion.json,idfa_ACB4EE55-E4BA-4559-BF6A-466A67A3D1EB,ms
gxiHou8WSSiJmosrBI8v4g,revmob_cpi,_5ad7b4e8a30c3b1c882e626b_amhg2rwi6e7jlmvi9sb4in5p1,Install,1.5,60.52.162.201,40F5F15C-827E-429D-9D85-47456E281061,1557627325,2019-05-12 10:15:25,1557627338,2019-05-12 10:15:38,1557627369,9751e45f-7e5b-68ac,https://s2s.revmob.com/api/v4/conversion/9751e45f-7e5b-68ac/conversion.json,idfa_40F5F15C-827E-429D-9D85-47456E281061,ms
gxiHou8WSSiJmosrBI8v4g,revmob_cpi,_5ad7b4e8a30c3b1c882e626b_amhg2rwi6e7jlmvi9sb4in5p1,Install,1.5,150.242.181.133,70C54ADE-D6ED-41B3-AFFA-1EE42C1ACB16,1557627459,2019-05-12 10:17:39,1557633343,2019-05-12 11:55:43,1557633374,9771e455-92dc-82b1,https://s2s.revmob.com/api/v4/conversion/9771e455-92dc-82b1/conversion.json,idfa_70C54ADE-D6ED-41B3-AFFA-1EE42C1ACB16,ms
gxiHou8WSSiJmosrBI8v4g,revmob_cpi,_5ad7b4e8a30c3b1c882e626b_amhg2rwi6e7jlmvi9sb4in5p1,Install,1.5,150.242.181.133,7C291242-CBEB-4D67-B6E2-2AEEEC5D53B5,1557627580,2019-05-12 10:19:40,1557628625,2019-05-12 10:37:05,1557628657,97c1e45d-178c-6786,https://s2s.revmob.com/api/v4/conversion/97c1e45d-178c-6786/conversion.json,idfa_7C291242-CBEB-4D67-B6E2-2AEEEC5D53B5,ms
gxiHou8WSSiJmosrBI8v4g,revmob_cpi,_5ad7b4e8a30c3b1c882e626b_amhg2rwi6e7jlmvi9sb4in5p1,Install,1.5,118.100.48.222,F5CF6C7A-35B1-45FA-8B93-6E64364E5ECC,1557627724,2019-05-12 10:22:04,1557627790,2019-05-12 10:23:10,1557627821,97c1e454-91dc-958b,https://s2s.revmob.com/api/v4/conversion/97c1e454-91dc-958b/conversion.json,idfa_F5CF6C7A-35B1-45FA-8B93-6E64364E5ECC,ms
gxiHou8WSSiJmosrBI8v4g,revmob_cpi,_5ad7b4e8a30c3b1c882e626b_amhg2rwi6e7jlmvi9sb4in5p1,Install,1.5,175.138.91.105,40963E66-67DF-4DC2-8E9D-A196267A9B7D,1557627285,2019-05-12 10:14:45,1557631375,2019-05-12 11:22:55,1557631407,9721e455-278b-012b,https://s2s.revmob.com/api/v4/conversion/9721e455-278b-012b/conversion.json,idfa_40963E66-67DF-4DC2-8E9D-A196267A9B7D,en
gxiHou8WSSiJmosrBI8v4g,revmob_cpi,_5ad7b4e8a30c3b1c882e626b_amhg2rwi6e7jlmvi9sb4in5p1,Install,1.5,14.192.246.220,668B352F-1F1E-4D2F-A1A3-D4C08C69731D,1557627221,2019-05-12 10:13:41,1557627320,2019-05-12 10:15:20,1557627351,9781e45b-e90b-93f8,https://s2s.revmob.com/api/v4/conversion/9781e45b-e90b-93f8/conversion.json,idfa_668B352F-1F1E-4D2F-A1A3-D4C08C69731D,ms
gxiHou8WSSiJmosrBI8v4g,revmob_cpi,_5ad7b4e8a30c3b1c882e626b_amhg2rwi6e7jlmvi9sb4in5p1,Install,1.5,202.75.4.161,3343B092-E18E-4FC7-9AD0-BF3104F05F69,1557628198,2019-05-12 10:29:58,1557631628,2019-05-12 11:27:08,1557631659,97a1e45e-23bd-2aed,https://s2s.revmob.com/api/v4/conversion/97a1e45e-23bd-2aed/conversion.json,idfa_3343B092-E18E-4FC7-9AD0-BF3104F05F69,en
gxiHou8WSSiJmosrBI8v4g,revmob_cpi,_5ad7b4e8a30c3b1c882e626b_amhg2rwi6e7jlmvi9sb4in5p1,Install,1.5,202.122.148.114,3FA0CA0C-4780-437A-A6F6-930E2904535E,1557627704,2019-05-12 10:21:44,1557627821,2019-05-12 10:23:41,1557627851,9711e450-cc0c-f24a,https://s2s.revmob.com/api/v4/conversion/9711e450-cc0c-f24a/conversion.json,idfa_3FA0CA0C-4780-437A-A6F6-930E2904535E,ms
gxiHou8WSSiJmosrBI8v4g,revmob_cpi,_5ad7b4e8a30c3b1c882e626b_amhg2rwi6e7jlmvi9sb4in5p1,Install,1.5,121.120.83.246,4E7F58A5-E5CE-430F-A77B-C47AB36F8F51,1557627190,2019-05-12 10:13:10,1557631539,2019-05-12 11:25:39,1557631570,9721e459-936b-2c97,https://s2s.revmob.com/api/v4/conversion/9721e459-936b-2c97/conversion.json,idfa_4E7F58A5-E5CE-430F-A77B-C47AB36F8F51,en
gxiHou8WSSiJmosrBI8v4g,revmob_cpi,_5ad7b4e8a30c3b1c882e626b_amhg2rwi6e7jlmvi9sb4in5p1,Install,1.5,150.242.181.133,C47BB8EB-5FDC-4AAE-89FD-2673508270BE,1557627842,2019-05-12 10:24:02,1557630727,2019-05-12 11:12:07,1557630758,97f1e45e-dd7c-936f,https://s2s.revmob.com/api/v4/conversion/97f1e45e-dd7c-936f/conversion.json,idfa_C47BB8EB-5FDC-4AAE-89FD-2673508270BE,ms
gxiHou8WSSiJmosrBI8v4g,revmob_cpi,_5ad7b4e8a30c3b1c882e626b_amhg2rwi6e7jlmvi9sb4in5p1,Install,1.5,203.142.33.14,B2D777F1-133E-4B4C-9787-468B75B882DD,1557626794,2019-05-12 10:06:34,1557626875,2019-05-12 10:07:55,1557626906,97a1e452-d56a-6148,https://s2s.revmob.com/api/v4/conversion/97a1e452-d56a-6148/conversion.json,idfa_B2D777F1-133E-4B4C-9787-468B75B882DD,ms
gxiHou8WSSiJmosrBI8v4g,revmob_cpi,_5ad7b4e8a30c3b1c882e626b_amhg2rwi6e7jlmvi9sb4in5p1,Install,1.5,150.242.181.133,1958937A-6CA5-4375-8EE7-C117BBD194E0,1557626984,2019-05-12 10:09:44,1557633403,2019-05-12 11:56:43,1557633434,9761e451-ffaa-958f,https://s2s.revmob.com/api/v4/conversion/9761e451-ffaa-958f/conversion.json,idfa_1958937A-6CA5-4375-8EE7-C117BBD194E0,ms
gxiHou8WSSiJmosrBI8v4g,revmob_cpi,_5ad7b4e8a30c3b1c882e626b_amhg2rwi6e7jlmvi9sb4in5p1,Install,1.5,150.242.181.133,25402773-E154-46F8-9CF7-4F4BA1BB3697,1557628143,2019-05-12 10:29:03,1557629480,2019-05-12 10:51:20,1557629510,97c1e45e-1e5d-b0cb,https://s2s.revmob.com/api/v4/conversion/97c1e45e-1e5d-b0cb/conversion.json,idfa_25402773-E154-46F8-9CF7-4F4BA1BB3697,vi
gxiHou8WSSiJmosrBI8v4g,revmob_cpi,_5ad7b4e8a30c3b1c882e626b_amhg2rwi6e7jlmvi9sb4in5p1,Install,1.5,150.242.181.133,69902195-1FC4-4E47-BFE9-7D8D17193720,1557627559,2019-05-12 10:19:19,1557629789,2019-05-12 10:56:29,1557629821,9751e450-4b6c-30a5,https://s2s.revmob.com/api/v4/conversion/9751e450-4b6c-30a5/conversion.json,idfa_69902195-1FC4-4E47-BFE9-7D8D17193720,vi
gxiHou8WSSiJmosrBI8v4g,revmob_cpi,_5ad7b4e8a30c3b1c882e626b_amhg2rwi6e7jlmvi9sb4in5p1,Install,1.5,1.9.141.246,C03833CA-AEFB-4765-97E9-72271A6D3A6C,1557626842,2019-05-12 10:07:22,1557626916,2019-05-12 10:08:36,1557626948,97f1e456-65da-306a,https://s2s.revmob.com/api/v4/conversion/97f1e456-65da-306a/conversion.json,idfa_C03833CA-AEFB-4765-97E9-72271A6D3A6C,ms
gxiHou8WSSiJmosrBI8v4g,revmob_cpi,_5ad7b4e8a30c3b1c882e626b_amhg2rwi6e7jlmvi9sb4in5p1,Install,1.5,121.120.83.250,7EDFBFE8-A9E0-4645-ABBE-59F13257B329,1557628086,2019-05-12 10:28:06,1557628191,2019-05-12 10:29:51,1557628222,97e1e452-f2dd-ef08,https://s2s.revmob.com/api/v4/conversion/97e1e452-f2dd-ef08/conversion.json,idfa_7EDFBFE8-A9E0-4645-ABBE-59F13257B329,ms
gxiHou8WSSiJmosrBI8v4g,revmob_cpi,_5ad7b4e8a30c3b1c882e626b_amhg2rwi6e7jlmvi9sb4in5p1,Install,1.5,175.138.91.105,2024D1A4-A1A6-47BE-A411-43FDD21B141B,1557627502,2019-05-12 10:18:22,1557641286,2019-05-12 14:08:06,1557641316,97f1e456-24fc-7f43,https://s2s.revmob.com/api/v4/conversion/97f1e456-24fc-7f43/conversion.json,idfa_2024D1A4-A1A6-47BE-A411-43FDD21B141B,ar
gxiHou8WSSiJmosrBI8v4g,revmob_cpi,_5ad7b4e8a30c3b1c882e626b_amhg2rwi6e7jlmvi9sb4in5p1,Install,1.5,1.9.139.33,57195238-57BC-4AB1-8F60-CE2EE091C17B,1557627100,2019-05-12 10:11:40,1557627567,2019-05-12 10:19:27,1557627598,97b1e454-358b-cc94,https://s2s.revmob.com/api/v4/conversion/97b1e454-358b-cc94/conversion.json,idfa_57195238-57BC-4AB1-8F60-CE2EE091C17B,ms
gxiHou8WSSiJmosrBI8v4g,revmob_cpi,_5ad7b4e8a30c3b1c882e626b_amhg2rwi6e7jlmvi9sb4in5p1,Install,1.5,202.146.85.2,F1FFB3B1-D18D-4788-8E50-6B5C6AD71C82,1557626835,2019-05-12 10:07:15,1557626958,2019-05-12 10:09:18,1557626990,9761e456-63aa-60ba,https://s2s.revmob.com/api/v4/conversion/9761e456-63aa-60ba/conversion.json,idfa_F1FFB3B1-D18D-4788-8E50-6B5C6AD71C82,ms
gxiHou8WSSiJmosrBI8v4g,revmob_cpi,_5ad7b4e8a30c3b1c882e626b_amhg2rwi6e7jlmvi9sb4in5p1,Install,1.5,1.9.141.246,2045EE56-7AC0-4F90-9DEB-5BC1B0C5E233,1557628189,2019-05-12 10:29:49,1557628288,2019-05-12 10:31:28,1557628318,9731e456-ef1d-b19c,https://s2s.revmob.com/api/v4/conversion/9731e456-ef1d-b19c/conversion.json,idfa_2045EE56-7AC0-4F90-9DEB-5BC1B0C5E233,ms
gxiHou8WSSiJmosrBI8v4g,revmob_cpi,_5ad7b4e8a30c3b1c882e626b_amhg2rwi6e7jlmvi9sb4in5p1,Install,1.5,203.142.57.247,361494AC-BC8A-4147-B6D8-2A6A632A267F,1557627879,2019-05-12 10:24:39,1557631207,2019-05-12 11:20:07,1557631238,9751e45b-2e8d-9131,https://s2s.revmob.com/api/v4/conversion/9751e45b-2e8d-9131/conversion.json,idfa_361494AC-BC8A-4147-B6D8-2A6A632A267F,en
gxiHou8WSSiJmosrBI8v4g,revmob_cpi,_5ad7b4e8a30c3b1c882e626b_amhg2rwi6e7jlmvi9sb4in5p1,Install,1.5,175.136.225.42,BB9EABD2-D488-4EB2-BDDE-A0DAB2224845,1557627648,2019-05-12 10:20:48,1557627753,2019-05-12 10:22:33,1557627784,9781e455-c59c-74f8,https://s2s.revmob.com/api/v4/conversion/9781e455-c59c-74f8/conversion.json,idfa_BB9EABD2-D488-4EB2-BDDE-A0DAB2224845,ms
gxiHou8WSSiJmosrBI8v4g,revmob_cpi,_5ad7b4e8a30c3b1c882e626b_amhg2rwi6e7jlmvi9sb4in5p1,Install,1.5,1.9.139.33,3757EBBE-231D-44C0-8935-292D40507B06,1557627476,2019-05-12 10:17:56,1557635822,2019-05-12 12:37:02,1557635854,9751e45a-39dc-3492,https://s2s.revmob.com/api/v4/conversion/9751e45a-39dc-3492/conversion.json,idfa_3757EBBE-231D-44C0-8935-292D40507B06,ms
gxiHou8WSSiJmosrBI8v4g,revmob_cpi,_5ad7b4e8a30c3b1c882e626b_amhg2rwi6e7jlmvi9sb4in5p1,Install,1.5,60.52.146.129,0431F48E-DFE2-414E-8D61-714AE2928B28,1557628158,2019-05-12 10:29:18,1557628284,2019-05-12 10:31:24,1557628315,97f1e452-901d-a12b,https://s2s.revmob.com/api/v4/conversion/97f1e452-901d-a12b/conversion.json,idfa_0431F48E-DFE2-414E-8D61-714AE2928B28,ms
gxiHou8WSSiJmosrBI8v4g,revmob_cpi,_5ad7b4e8a30c3b1c882e626b_amhg2rwi6e7jlmvi9sb4in5p1,Install,1.5,58.71.225.163,924D4DDC-E7F1-490E-9616-A1DF9BF8F2A1,1557627309,2019-05-12 10:15:09,1557631011,2019-05-12 11:16:51,1557631043,9771e453-053b-2f9c,https://s2s.revmob.com/api/v4/conversion/9771e453-053b-2f9c/conversion.json,idfa_924D4DDC-E7F1-490E-9616-A1DF9BF8F2A1,ms
gxiHou8WSSiJmosrBI8v4g,revmob_cpi,_5ad7b4e8a30c3b1c882e626b_amhg2rwi6e7jlmvi9sb4in5p1,Install,1.5,202.122.148.114,C8BB5F2E-7869-4922-86DF-B9A9B2D845A7,1557627732,2019-05-12 10:22:12,1557627810,2019-05-12 10:23:30,1557627841,9731e45e-c2dc-78fb,https://s2s.revmob.com/api/v4/conversion/9731e45e-c2dc-78fb/conversion.json,idfa_C8BB5F2E-7869-4922-86DF-B9A9B2D845A7,ms
gxiHou8WSSiJmosrBI8v4g,revmob_cpi,_5ad7b4e8a30c3b1c882e626b_amhg2rwi6e7jlmvi9sb4in5p1,Install,1.5,1.9.139.33,9D0956B6-D0D0-4B6E-998B-25FC0F49495D,1557627198,2019-05-12 10:13:18,1557633800,2019-05-12 12:03:20,1557633830,9781e456-dedb-9b07,https://s2s.revmob.com/api/v4/conversion/9781e456-dedb-9b07/conversion.json,idfa_9D0956B6-D0D0-4B6E-998B-25FC0F49495D,ms
gxiHou8WSSiJmosrBI8v4g,revmob_cpi,_5ad7b4e8a30c3b1c882e626b_amhg2rwi6e7jlmvi9sb4in5p1,Install,1.5,14.192.248.5,A1C7A417-1DDC-40F0-8F7C-11FE4EA579B4,1557628019,2019-05-12 10:26:59,1557631090,2019-05-12 11:18:10,1557631121,9721e458-739d-e396,https://s2s.revmob.com/api/v4/conversion/9721e458-739d-e396/conversion.json,idfa_A1C7A417-1DDC-40F0-8F7C-11FE4EA579B4,en
