cid,partner_id,channel_id,action_id,cpi,ip,idfa,click time,click datetime,install time,install datetime,postback time,click id,postback url,unique user id
j0BXwc4HQTK2--j418f8sA,rtbdemand,333146_60_10024_1373665023,Install,1.0,112.171.69.24,6b7a9891-6363-4791-9f2a-451b1688fbaf,1557116639,2019-05-06 12:23:59,1557116725,2019-05-06 12:25:25,1557116755,5ccfb6db789a5200014a93ce_rtbs1_rtbs2_rtbs30ORIGIN23103749end_rtbaff333146_rtboffer23103749_rtbsub60_10024_1373665023,http://www.retail9.com/pixel.php?aff=7&aff_sub=5ccfb6db789a5200014a93ce_rtbs1_rtbs2_rtbs30ORIGIN23103749end_rtbaff333146_rtboffer23103749_rtbsub60_10024_1373665023&fire=1,idfa_6b7a9891-6363-4791-9f2a-451b1688fbaf,%ED%95%9C%EA%B5%AD%EC%96%B4
j0BXwc4HQTK2--j418f8sA,rtbdemand,333146_60_10024_1373665023,Install,1.0,211.180.176.22,0d514f5d-2abe-4bc2-9238-a687db2a07d5,1557116616,2019-05-06 12:23:36,1557116702,2019-05-06 12:25:02,1557116732,5ccfb6c4789a5200014a92bd_rtbs1_rtbs2_rtbs30ORIGIN23103749end_rtbaff333146_rtboffer23103749_rtbsub60_10024_1373665023,http://www.retail9.com/pixel.php?aff=7&aff_sub=5ccfb6c4789a5200014a92bd_rtbs1_rtbs2_rtbs30ORIGIN23103749end_rtbaff333146_rtboffer23103749_rtbsub60_10024_1373665023&fire=1,idfa_0d514f5d-2abe-4bc2-9238-a687db2a07d5,%ED%95%9C%EA%B5%AD%EC%96%B4
j0BXwc4HQTK2--j418f8sA,rtbdemand,333146_60_10024_1373665023,Install,1.0,115.89.11.34,73873c5e-297d-4036-b2c3-6842d028801b,1557117035,2019-05-06 12:30:35,1557117113,2019-05-06 12:31:53,1557117143,5ccfb866789a5200014aa88e_rtbs1_rtbs2_rtbs30ORIGIN23103749end_rtbaff333146_rtboffer23103749_rtbsub60_10024_1373665023,http://www.retail9.com/pixel.php?aff=7&aff_sub=5ccfb866789a5200014aa88e_rtbs1_rtbs2_rtbs30ORIGIN23103749end_rtbaff333146_rtboffer23103749_rtbsub60_10024_1373665023&fire=1,idfa_73873c5e-297d-4036-b2c3-6842d028801b,%ED%95%9C%EA%B5%AD%EC%96%B4
j0BXwc4HQTK2--j418f8sA,rtbdemand,333146_60_10024_1373665023,Install,1.0,61.81.121.62,8867d869-56dc-4b40-9e6c-46a0a5ee577e,1557115615,2019-05-06 12:06:55,1557115690,2019-05-06 12:08:10,1557115720,5ccfb2da789a5200014a5539_rtbs1_rtbs2_rtbs30ORIGIN23103749end_rtbaff333146_rtboffer23103749_rtbsub60_10024_1373665023,http://www.retail9.com/pixel.php?aff=7&aff_sub=5ccfb2da789a5200014a5539_rtbs1_rtbs2_rtbs30ORIGIN23103749end_rtbaff333146_rtboffer23103749_rtbsub60_10024_1373665023&fire=1,idfa_8867d869-56dc-4b40-9e6c-46a0a5ee577e,%ED%95%9C%EA%B5%AD%EC%96%B4
j0BXwc4HQTK2--j418f8sA,rtbdemand,333146_60_10024_1373665023,Install,1.0,116.37.16.55,71b5ba8a-9184-49da-b865-db5881359171,1557116658,2019-05-06 12:24:18,1557116761,2019-05-06 12:26:01,1557116791,5ccfb6ee789a5200014a94c7_rtbs1_rtbs2_rtbs30ORIGIN23103749end_rtbaff333146_rtboffer23103749_rtbsub60_10024_1373665023,http://www.retail9.com/pixel.php?aff=7&aff_sub=5ccfb6ee789a5200014a94c7_rtbs1_rtbs2_rtbs30ORIGIN23103749end_rtbaff333146_rtboffer23103749_rtbsub60_10024_1373665023&fire=1,idfa_71b5ba8a-9184-49da-b865-db5881359171,%ED%95%9C%EA%B5%AD%EC%96%B4
j0BXwc4HQTK2--j418f8sA,rtbdemand,333146_60_10024_1373665023,Install,1.0,115.94.73.2,5cdc3ce5-1b6f-4660-9873-5a46dc749e9c,1557116652,2019-05-06 12:24:12,1557116747,2019-05-06 12:25:47,1557116778,5ccfb6e7789a5200014a945b_rtbs1_rtbs2_rtbs30ORIGIN23103749end_rtbaff333146_rtboffer23103749_rtbsub60_10024_1373665023,http://www.retail9.com/pixel.php?aff=7&aff_sub=5ccfb6e7789a5200014a945b_rtbs1_rtbs2_rtbs30ORIGIN23103749end_rtbaff333146_rtboffer23103749_rtbsub60_10024_1373665023&fire=1,idfa_5cdc3ce5-1b6f-4660-9873-5a46dc749e9c,%ED%95%9C%EA%B5%AD%EC%96%B4
j0BXwc4HQTK2--j418f8sA,rtbdemand,333146_60_10024_1373665023,Install,1.0,121.131.110.228,9166bd8c-3a60-475b-9446-95ce9aea57e6,1557117562,2019-05-06 12:39:22,1557117646,2019-05-06 12:40:46,1557117676,5ccfba76789a5200014ad3c5_rtbs1_rtbs2_rtbs30ORIGIN23103749end_rtbaff333146_rtboffer23103749_rtbsub60_10024_1373665023,http://www.retail9.com/pixel.php?aff=7&aff_sub=5ccfba76789a5200014ad3c5_rtbs1_rtbs2_rtbs30ORIGIN23103749end_rtbaff333146_rtboffer23103749_rtbsub60_10024_1373665023&fire=1,idfa_9166bd8c-3a60-475b-9446-95ce9aea57e6,%ED%95%9C%EA%B5%AD%EC%96%B4
j0BXwc4HQTK2--j418f8sA,rtbdemand,333146_60_10024_1373665023,Install,1.0,211.169.209.130,fa3406c1-8814-430c-8640-4dba8b5e9ed3,1557117117,2019-05-06 12:31:57,1557117217,2019-05-06 12:33:37,1557117247,5ccfb8b9789a5200014aad14_rtbs1_rtbs2_rtbs30ORIGIN23103749end_rtbaff333146_rtboffer23103749_rtbsub60_10024_1373665023,http://www.retail9.com/pixel.php?aff=7&aff_sub=5ccfb8b9789a5200014aad14_rtbs1_rtbs2_rtbs30ORIGIN23103749end_rtbaff333146_rtboffer23103749_rtbsub60_10024_1373665023&fire=1,idfa_fa3406c1-8814-430c-8640-4dba8b5e9ed3,%ED%95%9C%EA%B5%AD%EC%96%B4
j0BXwc4HQTK2--j418f8sA,rtbdemand,333146_60_10024_1373665023,Install,1.0,220.66.155.2,85909fc2-9361-4308-bf0f-15cad9448dc4,1557116080,2019-05-06 12:14:40,1557116160,2019-05-06 12:16:00,1557116190,5ccfb4ab789a5200014a719e_rtbs1_rtbs2_rtbs30ORIGIN23103749end_rtbaff333146_rtboffer23103749_rtbsub60_10024_1373665023,http://www.retail9.com/pixel.php?aff=7&aff_sub=5ccfb4ab789a5200014a719e_rtbs1_rtbs2_rtbs30ORIGIN23103749end_rtbaff333146_rtboffer23103749_rtbsub60_10024_1373665023&fire=1,idfa_85909fc2-9361-4308-bf0f-15cad9448dc4,%ED%95%9C%EA%B5%AD%EC%96%B4
j0BXwc4HQTK2--j418f8sA,rtbdemand,333146_60_10024_1373665023,Install,1.0,59.21.169.165,f38290f5-7639-4d40-998c-ca7fd291c210,1557117600,2019-05-06 12:40:00,1557117687,2019-05-06 12:41:27,1557117718,5ccfba9c789a5200014ad667_rtbs1_rtbs2_rtbs30ORIGIN23103749end_rtbaff333146_rtboffer23103749_rtbsub60_10024_1373665023,http://www.retail9.com/pixel.php?aff=7&aff_sub=5ccfba9c789a5200014ad667_rtbs1_rtbs2_rtbs30ORIGIN23103749end_rtbaff333146_rtboffer23103749_rtbsub60_10024_1373665023&fire=1,idfa_f38290f5-7639-4d40-998c-ca7fd291c210,%ED%95%9C%EA%B5%AD%EC%96%B4
j0BXwc4HQTK2--j418f8sA,rtbdemand,333146_60_10024_1373665023,Install,0.8,211.216.48.158,f0bf7893-35ce-41b4-b131-574b97d80363,1557102741,2019-05-06 08:32:21,1557102827,2019-05-06 08:33:47,1557102857,5ccf8090789a520001473f55_rtbs1_rtbs2_rtbs30ORIGIN23103749end_rtbaff333146_rtboffer23103749_rtbsub60_10024_1373665023,http://www.retail9.com/pixel.php?aff=7&aff_sub=5ccf8090789a520001473f55_rtbs1_rtbs2_rtbs30ORIGIN23103749end_rtbaff333146_rtboffer23103749_rtbsub60_10024_1373665023&fire=1,idfa_f0bf7893-35ce-41b4-b131-574b97d80363,%ED%95%9C%EA%B5%AD%EC%96%B4
j0BXwc4HQTK2--j418f8sA,rtbdemand,333146_60_10024_1373665023,Install,1.0,211.228.181.37,12bd58a2-6fb1-4412-9062-8522840c9e26,1557117104,2019-05-06 12:31:44,1557117193,2019-05-06 12:33:13,1557117223,5ccfb8ab789a5200014aac66_rtbs1_rtbs2_rtbs30ORIGIN23103749end_rtbaff333146_rtboffer23103749_rtbsub60_10024_1373665023,http://www.retail9.com/pixel.php?aff=7&aff_sub=5ccfb8ab789a5200014aac66_rtbs1_rtbs2_rtbs30ORIGIN23103749end_rtbaff333146_rtboffer23103749_rtbsub60_10024_1373665023&fire=1,idfa_12bd58a2-6fb1-4412-9062-8522840c9e26,%ED%95%9C%EA%B5%AD%EC%96%B4
j0BXwc4HQTK2--j418f8sA,rtbdemand,333146_60_10024_1373665023,Install,1.0,1.11.71.21,40a1d536-2048-463e-b2e8-fd2014cc928a,1557116536,2019-05-06 12:22:16,1557116626,2019-05-06 12:23:46,1557116656,5ccfb674789a5200014a8ee1_rtbs1_rtbs2_rtbs30ORIGIN23103749end_rtbaff333146_rtboffer23103749_rtbsub60_10024_1373665023,http://www.retail9.com/pixel.php?aff=7&aff_sub=5ccfb674789a5200014a8ee1_rtbs1_rtbs2_rtbs30ORIGIN23103749end_rtbaff333146_rtboffer23103749_rtbsub60_10024_1373665023&fire=1,idfa_40a1d536-2048-463e-b2e8-fd2014cc928a,%ED%95%9C%EA%B5%AD%EC%96%B4
j0BXwc4HQTK2--j418f8sA,rtbdemand,333146_60_10024_1373665023,Install,1.0,221.133.129.163,9ac2e94e-255f-4c66-91de-14f35eab0d6e,1557114329,2019-05-06 11:45:29,1557114434,2019-05-06 11:47:14,1557114465,5ccfadd4789a52000149fcf4_rtbs1_rtbs2_rtbs30ORIGIN23103749end_rtbaff333146_rtboffer23103749_rtbsub60_10024_1373665023,http://www.retail9.com/pixel.php?aff=7&aff_sub=5ccfadd4789a52000149fcf4_rtbs1_rtbs2_rtbs30ORIGIN23103749end_rtbaff333146_rtboffer23103749_rtbsub60_10024_1373665023&fire=1,idfa_9ac2e94e-255f-4c66-91de-14f35eab0d6e,%ED%95%9C%EA%B5%AD%EC%96%B4
j0BXwc4HQTK2--j418f8sA,rtbdemand,333146_60_10024_1373665023,Install,1.0,211.223.116.46,2ce56367-2fae-4b44-a8e2-6de1b083f2db,1557116144,2019-05-06 12:15:44,1557116234,2019-05-06 12:17:14,1557116265,5ccfb4ec789a5200014a760e_rtbs1_rtbs2_rtbs30ORIGIN23103749end_rtbaff333146_rtboffer23103749_rtbsub60_10024_1373665023,http://www.retail9.com/pixel.php?aff=7&aff_sub=5ccfb4ec789a5200014a760e_rtbs1_rtbs2_rtbs30ORIGIN23103749end_rtbaff333146_rtboffer23103749_rtbsub60_10024_1373665023&fire=1,idfa_2ce56367-2fae-4b44-a8e2-6de1b083f2db,%ED%95%9C%EA%B5%AD%EC%96%B4
j0BXwc4HQTK2--j418f8sA,rtbdemand,333146_60_10024_1373665023,Install,0.8,112.220.22.106,a71254d8-b604-4eb0-99de-17e1721fe371,1557103840,2019-05-06 08:50:40,1557103947,2019-05-06 08:52:27,1557103978,5ccf84db789a5200014770e4_rtbs1_rtbs2_rtbs30ORIGIN23103749end_rtbaff333146_rtboffer23103749_rtbsub60_10024_1373665023,http://www.retail9.com/pixel.php?aff=7&aff_sub=5ccf84db789a5200014770e4_rtbs1_rtbs2_rtbs30ORIGIN23103749end_rtbaff333146_rtboffer23103749_rtbsub60_10024_1373665023&fire=1,idfa_a71254d8-b604-4eb0-99de-17e1721fe371,%ED%95%9C%EA%B5%AD%EC%96%B4
j0BXwc4HQTK2--j418f8sA,rtbdemand,333146_60_10024_1373665023,Install,1.0,175.204.125.198,9c0530ab-c158-4639-a791-8214d16a2e60,1557116267,2019-05-06 12:17:47,1557116359,2019-05-06 12:19:19,1557116389,5ccfb567789a5200014a7d18_rtbs1_rtbs2_rtbs30ORIGIN23103749end_rtbaff333146_rtboffer23103749_rtbsub60_10024_1373665023,http://www.retail9.com/pixel.php?aff=7&aff_sub=5ccfb567789a5200014a7d18_rtbs1_rtbs2_rtbs30ORIGIN23103749end_rtbaff333146_rtboffer23103749_rtbsub60_10024_1373665023&fire=1,idfa_9c0530ab-c158-4639-a791-8214d16a2e60,%ED%95%9C%EA%B5%AD%EC%96%B4
j0BXwc4HQTK2--j418f8sA,rtbdemand,333146_60_10024_1373665023,Install,1.0,220.116.112.76,44ff0965-43bb-4061-afd6-f86c2bdb4552,1557117586,2019-05-06 12:39:46,1557117674,2019-05-06 12:41:14,1557117704,5ccfba8e789a5200014ad565_rtbs1_rtbs2_rtbs30ORIGIN23103749end_rtbaff333146_rtboffer23103749_rtbsub60_10024_1373665023,http://www.retail9.com/pixel.php?aff=7&aff_sub=5ccfba8e789a5200014ad565_rtbs1_rtbs2_rtbs30ORIGIN23103749end_rtbaff333146_rtboffer23103749_rtbsub60_10024_1373665023&fire=1,idfa_44ff0965-43bb-4061-afd6-f86c2bdb4552,%ED%95%9C%EA%B5%AD%EC%96%B4
j0BXwc4HQTK2--j418f8sA,rtbdemand,333146_60_10024_1373665023,Install,1.0,121.151.86.155,f7f6ae22-8d22-40f6-b248-317f0fc5b899,1557114982,2019-05-06 11:56:22,1557115065,2019-05-06 11:57:45,1557115096,5ccfb061789a5200014a2842_rtbs1_rtbs2_rtbs30ORIGIN23103749end_rtbaff333146_rtboffer23103749_rtbsub60_10024_1373665023,http://www.retail9.com/pixel.php?aff=7&aff_sub=5ccfb061789a5200014a2842_rtbs1_rtbs2_rtbs30ORIGIN23103749end_rtbaff333146_rtboffer23103749_rtbsub60_10024_1373665023&fire=1,idfa_f7f6ae22-8d22-40f6-b248-317f0fc5b899,%ED%95%9C%EA%B5%AD%EC%96%B4
j0BXwc4HQTK2--j418f8sA,rtbdemand,333146_60_10024_1373665023,Install,1.0,112.168.233.51,8627543e-59e7-4b6d-8499-acab55cf5d1b,1557115415,2019-05-06 12:03:35,1557115501,2019-05-06 12:05:01,1557115537,5ccfb213789a5200014a4808_rtbs1_rtbs2_rtbs30ORIGIN23103749end_rtbaff333146_rtboffer23103749_rtbsub60_10024_1373665023,http://www.retail9.com/pixel.php?aff=7&aff_sub=5ccfb213789a5200014a4808_rtbs1_rtbs2_rtbs30ORIGIN23103749end_rtbaff333146_rtboffer23103749_rtbsub60_10024_1373665023&fire=1,idfa_8627543e-59e7-4b6d-8499-acab55cf5d1b,%ED%95%9C%EA%B5%AD%EC%96%B4
j0BXwc4HQTK2--j418f8sA,rtbdemand,333146_60_10024_1373665023,Install,1.0,1.228.117.68,ed763200-f76b-4564-9393-0e0ae1f66c0c,1557114193,2019-05-06 11:43:13,1557114293,2019-05-06 11:44:53,1557114324,5ccfad4d789a52000149f52a_rtbs1_rtbs2_rtbs30ORIGIN23103749end_rtbaff333146_rtboffer23103749_rtbsub60_10024_1373665023,http://www.retail9.com/pixel.php?aff=7&aff_sub=5ccfad4d789a52000149f52a_rtbs1_rtbs2_rtbs30ORIGIN23103749end_rtbaff333146_rtboffer23103749_rtbsub60_10024_1373665023&fire=1,idfa_ed763200-f76b-4564-9393-0e0ae1f66c0c,%ED%95%9C%EA%B5%AD%EC%96%B4
j0BXwc4HQTK2--j418f8sA,rtbdemand,333146_60_10024_1373665023,Install,0.8,61.40.77.125,805918e8-33e5-4a2f-9599-577638c95591,1557113632,2019-05-06 11:33:52,1557113721,2019-05-06 11:35:21,1557113751,5ccfab1c789a52000149d111_rtbs1_rtbs2_rtbs30ORIGIN23103749end_rtbaff333146_rtboffer23103749_rtbsub60_10024_1373665023,http://www.retail9.com/pixel.php?aff=7&aff_sub=5ccfab1c789a52000149d111_rtbs1_rtbs2_rtbs30ORIGIN23103749end_rtbaff333146_rtboffer23103749_rtbsub60_10024_1373665023&fire=1,idfa_805918e8-33e5-4a2f-9599-577638c95591,%ED%95%9C%EA%B5%AD%EC%96%B4
j0BXwc4HQTK2--j418f8sA,rtbdemand,333146_60_10024_1373665023,Install,1.0,121.185.29.138,5d99770f-7c32-4491-9d28-a98b7016f281,1557115339,2019-05-06 12:02:19,1557115531,2019-05-06 12:05:31,1557115561,5ccfb1c3789a5200014a41cd_rtbs1_rtbs2_rtbs30ORIGIN23103749end_rtbaff333146_rtboffer23103749_rtbsub60_10024_1373665023,http://www.retail9.com/pixel.php?aff=7&aff_sub=5ccfb1c3789a5200014a41cd_rtbs1_rtbs2_rtbs30ORIGIN23103749end_rtbaff333146_rtboffer23103749_rtbsub60_10024_1373665023&fire=1,idfa_5d99770f-7c32-4491-9d28-a98b7016f281,%ED%95%9C%EA%B5%AD%EC%96%B4
j0BXwc4HQTK2--j418f8sA,rtbdemand,333146_60_10024_1373665023,Install,1.0,121.128.135.75,0830e24d-c023-4580-aff3-050c93b98f50,1557116991,2019-05-06 12:29:51,1557117076,2019-05-06 12:31:16,1557117106,5ccfb839789a5200014aa63c_rtbs1_rtbs2_rtbs30ORIGIN23103749end_rtbaff333146_rtboffer23103749_rtbsub60_10024_1373665023,http://www.retail9.com/pixel.php?aff=7&aff_sub=5ccfb839789a5200014aa63c_rtbs1_rtbs2_rtbs30ORIGIN23103749end_rtbaff333146_rtboffer23103749_rtbsub60_10024_1373665023&fire=1,idfa_0830e24d-c023-4580-aff3-050c93b98f50,%ED%95%9C%EA%B5%AD%EC%96%B4
j0BXwc4HQTK2--j418f8sA,rtbdemand,333146_60_10024_1373665023,Install,0.8,1.209.187.2,38b4e11e-4edb-45e1-9929-ac59390ea282,1557103194,2019-05-06 08:39:54,1557103282,2019-05-06 08:41:22,1557103313,5ccf8256789a520001475478_rtbs1_rtbs2_rtbs30ORIGIN23103749end_rtbaff333146_rtboffer23103749_rtbsub60_10024_1373665023,http://www.retail9.com/pixel.php?aff=7&aff_sub=5ccf8256789a520001475478_rtbs1_rtbs2_rtbs30ORIGIN23103749end_rtbaff333146_rtboffer23103749_rtbsub60_10024_1373665023&fire=1,idfa_38b4e11e-4edb-45e1-9929-ac59390ea282,%ED%95%9C%EA%B5%AD%EC%96%B4
j0BXwc4HQTK2--j418f8sA,rtbdemand,333146_60_10024_1373665023,Install,1.0,211.180.176.37,a74ace97-ab54-439a-9732-9c037e038a80,1557116732,2019-05-06 12:25:32,1557116850,2019-05-06 12:27:30,1557116881,5ccfb734789a5200014a9872_rtbs1_rtbs2_rtbs30ORIGIN23103749end_rtbaff333146_rtboffer23103749_rtbsub60_10024_1373665023,http://www.retail9.com/pixel.php?aff=7&aff_sub=5ccfb734789a5200014a9872_rtbs1_rtbs2_rtbs30ORIGIN23103749end_rtbaff333146_rtboffer23103749_rtbsub60_10024_1373665023&fire=1,idfa_a74ace97-ab54-439a-9732-9c037e038a80,%ED%95%9C%EA%B5%AD%EC%96%B4
j0BXwc4HQTK2--j418f8sA,rtbdemand,333146_60_10024_1373665023,Install,1.0,120.29.142.240,cbd642aa-0b6d-472d-b47d-2d2f3d1ccb9b,1557117229,2019-05-06 12:33:49,1557117312,2019-05-06 12:35:12,1557117343,5ccfb929789a5200014ab392_rtbs1_rtbs2_rtbs30ORIGIN23103749end_rtbaff333146_rtboffer23103749_rtbsub60_10024_1373665023,http://www.retail9.com/pixel.php?aff=7&aff_sub=5ccfb929789a5200014ab392_rtbs1_rtbs2_rtbs30ORIGIN23103749end_rtbaff333146_rtboffer23103749_rtbsub60_10024_1373665023&fire=1,idfa_cbd642aa-0b6d-472d-b47d-2d2f3d1ccb9b,%ED%95%9C%EA%B5%AD%EC%96%B4
j0BXwc4HQTK2--j418f8sA,rtbdemand,333146_60_10024_1373665023,Install,1.0,1.238.106.137,aabba491-615d-4d3d-961d-d79dd49d0add,1557114956,2019-05-06 11:55:56,1557115042,2019-05-06 11:57:22,1557115072,5ccfb045789a5200014a25ff_rtbs1_rtbs2_rtbs30ORIGIN23103749end_rtbaff333146_rtboffer23103749_rtbsub60_10024_1373665023,http://www.retail9.com/pixel.php?aff=7&aff_sub=5ccfb045789a5200014a25ff_rtbs1_rtbs2_rtbs30ORIGIN23103749end_rtbaff333146_rtboffer23103749_rtbsub60_10024_1373665023&fire=1,idfa_aabba491-615d-4d3d-961d-d79dd49d0add,%ED%95%9C%EA%B5%AD%EC%96%B4
j0BXwc4HQTK2--j418f8sA,rtbdemand,333146_60_10024_1373665023,Install,0.8,121.166.29.56,edd713e0-aa84-4638-a115-1b3121daa0ea,1557103608,2019-05-06 08:46:48,1557103688,2019-05-06 08:48:08,1557103718,5ccf83f4789a52000147678d_rtbs1_rtbs2_rtbs30ORIGIN23103749end_rtbaff333146_rtboffer23103749_rtbsub60_10024_1373665023,http://www.retail9.com/pixel.php?aff=7&aff_sub=5ccf83f4789a52000147678d_rtbs1_rtbs2_rtbs30ORIGIN23103749end_rtbaff333146_rtboffer23103749_rtbsub60_10024_1373665023&fire=1,idfa_edd713e0-aa84-4638-a115-1b3121daa0ea,%ED%95%9C%EA%B5%AD%EC%96%B4
j0BXwc4HQTK2--j418f8sA,rtbdemand,333146_60_10024_1373665023,Install,1.0,175.226.157.65,3455ea8f-53b3-4ed2-8144-bd0e13f4081d,1557114827,2019-05-06 11:53:47,1557114920,2019-05-06 11:55:20,1557114951,5ccfafc4789a5200014a1c1f_rtbs1_rtbs2_rtbs30ORIGIN23103749end_rtbaff333146_rtboffer23103749_rtbsub60_10024_1373665023,http://www.retail9.com/pixel.php?aff=7&aff_sub=5ccfafc4789a5200014a1c1f_rtbs1_rtbs2_rtbs30ORIGIN23103749end_rtbaff333146_rtboffer23103749_rtbsub60_10024_1373665023&fire=1,idfa_3455ea8f-53b3-4ed2-8144-bd0e13f4081d,%ED%95%9C%EA%B5%AD%EC%96%B4
j0BXwc4HQTK2--j418f8sA,rtbdemand,333146_60_10024_1373665023,Install,1.0,121.178.215.6,97b82d93-11b3-4fc3-b6f7-86f307b38aa2,1557114623,2019-05-06 11:50:23,1557114765,2019-05-06 11:52:45,1557114795,5ccfaeef789a5200014a0e18_rtbs1_rtbs2_rtbs30ORIGIN23103749end_rtbaff333146_rtboffer23103749_rtbsub60_10024_1373665023,http://www.retail9.com/pixel.php?aff=7&aff_sub=5ccfaeef789a5200014a0e18_rtbs1_rtbs2_rtbs30ORIGIN23103749end_rtbaff333146_rtboffer23103749_rtbsub60_10024_1373665023&fire=1,idfa_97b82d93-11b3-4fc3-b6f7-86f307b38aa2,%ED%95%9C%EA%B5%AD%EC%96%B4
j0BXwc4HQTK2--j418f8sA,rtbdemand,333146_60_10024_1373665023,Install,0.8,183.123.129.74,415213be-261d-4b32-9d6e-427de7f9d524,1557103351,2019-05-06 08:42:31,1557103441,2019-05-06 08:44:01,1557103472,5ccf82f3789a520001475ba2_rtbs1_rtbs2_rtbs30ORIGIN23103749end_rtbaff333146_rtboffer23103749_rtbsub60_10024_1373665023,http://www.retail9.com/pixel.php?aff=7&aff_sub=5ccf82f3789a520001475ba2_rtbs1_rtbs2_rtbs30ORIGIN23103749end_rtbaff333146_rtboffer23103749_rtbsub60_10024_1373665023&fire=1,idfa_415213be-261d-4b32-9d6e-427de7f9d524,%ED%95%9C%EA%B5%AD%EC%96%B4
j0BXwc4HQTK2--j418f8sA,rtbdemand,333146_60_10024_1373665023,Install,1.0,112.150.97.47,e885016b-7953-4a82-b4a4-c5cac5b4ce91,1557117116,2019-05-06 12:31:56,1557117218,2019-05-06 12:33:38,1557117248,5ccfb8b8789a5200014aad02_rtbs1_rtbs2_rtbs30ORIGIN23103749end_rtbaff333146_rtboffer23103749_rtbsub60_10024_1373665023,http://www.retail9.com/pixel.php?aff=7&aff_sub=5ccfb8b8789a5200014aad02_rtbs1_rtbs2_rtbs30ORIGIN23103749end_rtbaff333146_rtboffer23103749_rtbsub60_10024_1373665023&fire=1,idfa_e885016b-7953-4a82-b4a4-c5cac5b4ce91,%ED%95%9C%EA%B5%AD%EC%96%B4
j0BXwc4HQTK2--j418f8sA,rtbdemand,333146_60_10024_1373665023,Install,0.8,14.32.19.245,e35da4ce-284b-429d-bc12-2642ceac2980,1557112454,2019-05-06 11:14:14,1557112557,2019-05-06 11:15:57,1557112587,5ccfa67e789a520001497ca2_rtbs1_rtbs2_rtbs30ORIGIN23103749end_rtbaff333146_rtboffer23103749_rtbsub60_10024_1373665023,http://www.retail9.com/pixel.php?aff=7&aff_sub=5ccfa67e789a520001497ca2_rtbs1_rtbs2_rtbs30ORIGIN23103749end_rtbaff333146_rtboffer23103749_rtbsub60_10024_1373665023&fire=1,idfa_e35da4ce-284b-429d-bc12-2642ceac2980,%ED%95%9C%EA%B5%AD%EC%96%B4
