cid,partner_id,channel_id,action_id,cpi,ip,idfa,click time,click datetime,install time,install datetime,postback time,click id,postback url,unique user id
CLxWh3TtRW-olK8FT-0dGQ,rulead,3df5a114dc7de4426f479f127293a444_,Install,3.5,118.83.212.214,69A28D27-2FE7-4294-9AEF-0DDC131E5907,1559185435,2019-05-30 11:03:55,1559185517,2019-05-30 11:05:17,1559185548,acbeb4e86042fae4134a4af514589f2b,https://cpa.rulead.com/s2s?token=074caac6-5613-11e9-8e3c-901b0ededfcf&transaction_id=acbeb4e86042fae4134a4af514589f2b,idfa_69A28D27-2FE7-4294-9AEF-0DDC131E5907,ja-JP
CLxWh3TtRW-olK8FT-0dGQ,rulead,3df5a114dc7de4426f479f127293a444_,Install,3.5,125.198.226.224,A669A84B-8D64-40D4-94DC-5FE25AC2BA5F,1559186989,2019-05-30 11:29:49,1559187065,2019-05-30 11:31:05,1559187096,dda3e3f75c8fcaccbd3f1c079de8af3e,https://cpa.rulead.com/s2s?token=074caac6-5613-11e9-8e3c-901b0ededfcf&transaction_id=dda3e3f75c8fcaccbd3f1c079de8af3e,idfa_A669A84B-8D64-40D4-94DC-5FE25AC2BA5F,ja-JP
CLxWh3TtRW-olK8FT-0dGQ,rulead,3df5a114dc7de4426f479f127293a444_,Install,3.5,121.86.151.222,6D03E02D-B8A7-456E-A1D1-BDF3B259AF63,1559189645,2019-05-30 12:14:05,1559189723,2019-05-30 12:15:23,1559189754,6b63caf468dcbc2aa3999e0906028441,https://cpa.rulead.com/s2s?token=074caac6-5613-11e9-8e3c-901b0ededfcf&transaction_id=6b63caf468dcbc2aa3999e0906028441,idfa_6D03E02D-B8A7-456E-A1D1-BDF3B259AF63,ja-JP
CLxWh3TtRW-olK8FT-0dGQ,rulead,3df5a114dc7de4426f479f127293a444_,Install,3.5,116.68.221.37,417C857C-DB24-4EB5-B4F4-11A835D7F71C,1559186601,2019-05-30 11:23:21,1559186686,2019-05-30 11:24:46,1559186718,b8cd5f3eea104a09b2778f48ad2865ba,https://cpa.rulead.com/s2s?token=074caac6-5613-11e9-8e3c-901b0ededfcf&transaction_id=b8cd5f3eea104a09b2778f48ad2865ba,idfa_417C857C-DB24-4EB5-B4F4-11A835D7F71C,ja-JP
CLxWh3TtRW-olK8FT-0dGQ,rulead,3df5a114dc7de4426f479f127293a444_,Install,3.5,114.153.17.113,91BD12CB-37C2-4286-AC45-22ABC6FACA53,1559191084,2019-05-30 12:38:04,1559191195,2019-05-30 12:39:55,1559191225,26823117417c3436942c76f44661366b,https://cpa.rulead.com/s2s?token=074caac6-5613-11e9-8e3c-901b0ededfcf&transaction_id=26823117417c3436942c76f44661366b,idfa_91BD12CB-37C2-4286-AC45-22ABC6FACA53,en
CLxWh3TtRW-olK8FT-0dGQ,rulead,3df5a114dc7de4426f479f127293a444_,Install,3.5,219.102.225.108,B702BE38-1E1C-4D28-9519-E07558185D1A,1559185173,2019-05-30 10:59:33,1559185249,2019-05-30 11:00:49,1559185280,d53196fadbf13457dfaea3b4e8c07a74,https://cpa.rulead.com/s2s?token=074caac6-5613-11e9-8e3c-901b0ededfcf&transaction_id=d53196fadbf13457dfaea3b4e8c07a74,idfa_B702BE38-1E1C-4D28-9519-E07558185D1A,ja-JP
CLxWh3TtRW-olK8FT-0dGQ,rulead,3df5a114dc7de4426f479f127293a444_,Install,3.5,175.28.151.60,32DC44A9-9709-4A59-A59C-B8DFEF83EC26,1559188364,2019-05-30 11:52:44,1559188440,2019-05-30 11:54:00,1559188471,63551e62ffdbd307e32fa8ee78946e6c,https://cpa.rulead.com/s2s?token=074caac6-5613-11e9-8e3c-901b0ededfcf&transaction_id=63551e62ffdbd307e32fa8ee78946e6c,idfa_32DC44A9-9709-4A59-A59C-B8DFEF83EC26,ja-JP
CLxWh3TtRW-olK8FT-0dGQ,rulead,3df5a114dc7de4426f479f127293a444_,Install,3.5,210.229.7.96,E9470BDA-43FA-4BBB-A033-884698C15FF9,1559186063,2019-05-30 11:14:23,1559186149,2019-05-30 11:15:49,1559186179,aae1a3a000a25d33bc0b20b6896f083b,https://cpa.rulead.com/s2s?token=074caac6-5613-11e9-8e3c-901b0ededfcf&transaction_id=aae1a3a000a25d33bc0b20b6896f083b,idfa_E9470BDA-43FA-4BBB-A033-884698C15FF9,ja-JP
CLxWh3TtRW-olK8FT-0dGQ,rulead,3df5a114dc7de4426f479f127293a444_,Install,3.5,153.229.110.247,2DA7DFE2-390E-4765-82A4-D56313BB0C8D,1559186869,2019-05-30 11:27:49,1559186951,2019-05-30 11:29:11,1559186981,e160275aba6980b978fe3c3c3572433b,https://cpa.rulead.com/s2s?token=074caac6-5613-11e9-8e3c-901b0ededfcf&transaction_id=e160275aba6980b978fe3c3c3572433b,idfa_2DA7DFE2-390E-4765-82A4-D56313BB0C8D,ja-JP
CLxWh3TtRW-olK8FT-0dGQ,rulead,3df5a114dc7de4426f479f127293a444_,Install,3.5,160.86.178.153,734675F5-8586-448D-870E-5AEF28D1A52D,1559187871,2019-05-30 11:44:31,1559187953,2019-05-30 11:45:53,1559187983,d5f039f86521e868e0d7d88f4c435cf3,https://cpa.rulead.com/s2s?token=074caac6-5613-11e9-8e3c-901b0ededfcf&transaction_id=d5f039f86521e868e0d7d88f4c435cf3,idfa_734675F5-8586-448D-870E-5AEF28D1A52D,ja-JP
CLxWh3TtRW-olK8FT-0dGQ,rulead,3df5a114dc7de4426f479f127293a444_,Install,3.5,219.119.14.30,16ACBFF8-2D8D-4038-A541-540125BF2FDE,1559189912,2019-05-30 12:18:32,1559190035,2019-05-30 12:20:35,1559190066,7c7cb24833f4bc8dc55bfb367d025ff6,https://cpa.rulead.com/s2s?token=074caac6-5613-11e9-8e3c-901b0ededfcf&transaction_id=7c7cb24833f4bc8dc55bfb367d025ff6,idfa_16ACBFF8-2D8D-4038-A541-540125BF2FDE,en
CLxWh3TtRW-olK8FT-0dGQ,rulead,3df5a114dc7de4426f479f127293a444_,Install,3.5,126.149.81.69,66812335-B497-46C4-92BD-145E0CA1B76E,1559189951,2019-05-30 12:19:11,1559190024,2019-05-30 12:20:24,1559190055,5471c44e634c01fbc710c8647dcf2474,https://cpa.rulead.com/s2s?token=074caac6-5613-11e9-8e3c-901b0ededfcf&transaction_id=5471c44e634c01fbc710c8647dcf2474,idfa_66812335-B497-46C4-92BD-145E0CA1B76E,ja-JP
CLxWh3TtRW-olK8FT-0dGQ,rulead,3df5a114dc7de4426f479f127293a444_,Install,3.5,147.192.168.29,A67FF130-C35D-4343-BAA4-C04DF8902C9B,1559189353,2019-05-30 12:09:13,1559189435,2019-05-30 12:10:35,1559189466,9da1a0cd3146945cc8615db61af8a602,https://cpa.rulead.com/s2s?token=074caac6-5613-11e9-8e3c-901b0ededfcf&transaction_id=9da1a0cd3146945cc8615db61af8a602,idfa_A67FF130-C35D-4343-BAA4-C04DF8902C9B,ja-JP
CLxWh3TtRW-olK8FT-0dGQ,rulead,3df5a114dc7de4426f479f127293a444_,Install,3.5,219.189.78.246,6CA38552-B9DA-4C99-8102-0C5BB2F67754,1559188050,2019-05-30 11:47:30,1559188127,2019-05-30 11:48:47,1559188158,6c5ebbce14084ce142795430cb72f9d2,https://cpa.rulead.com/s2s?token=074caac6-5613-11e9-8e3c-901b0ededfcf&transaction_id=6c5ebbce14084ce142795430cb72f9d2,idfa_6CA38552-B9DA-4C99-8102-0C5BB2F67754,ja-JP
CLxWh3TtRW-olK8FT-0dGQ,rulead,3df5a114dc7de4426f479f127293a444_,Install,3.5,126.74.55.190,E3DA8BEA-3923-4253-9E77-2C5BD95B4A38,1559188490,2019-05-30 11:54:50,1559188572,2019-05-30 11:56:12,1559188603,b0f0df91c1b3d7eae98cd57a3f417bda,https://cpa.rulead.com/s2s?token=074caac6-5613-11e9-8e3c-901b0ededfcf&transaction_id=b0f0df91c1b3d7eae98cd57a3f417bda,idfa_E3DA8BEA-3923-4253-9E77-2C5BD95B4A38,ja-JP
CLxWh3TtRW-olK8FT-0dGQ,rulead,3df5a114dc7de4426f479f127293a444_,Install,3.5,210.165.112.98,87408020-9F8F-47B6-A72F-A89CE39382B7,1559189294,2019-05-30 12:08:14,1559189412,2019-05-30 12:10:12,1559189443,d8cadd1f4720cb8d70bc2a36e9782110,https://cpa.rulead.com/s2s?token=074caac6-5613-11e9-8e3c-901b0ededfcf&transaction_id=d8cadd1f4720cb8d70bc2a36e9782110,idfa_87408020-9F8F-47B6-A72F-A89CE39382B7,en
CLxWh3TtRW-olK8FT-0dGQ,rulead,3df5a114dc7de4426f479f127293a444_,Install,3.5,219.208.2.62,41374B7E-637F-4D0D-9FD2-B62AD60F167B,1559187259,2019-05-30 11:34:19,1559187337,2019-05-30 11:35:37,1559187368,27cd78c1b0c04dc694c946e2e5420364,https://cpa.rulead.com/s2s?token=074caac6-5613-11e9-8e3c-901b0ededfcf&transaction_id=27cd78c1b0c04dc694c946e2e5420364,idfa_41374B7E-637F-4D0D-9FD2-B62AD60F167B,ja-JP
CLxWh3TtRW-olK8FT-0dGQ,rulead,3df5a114dc7de4426f479f127293a444_,Install,3.5,61.207.201.9,C0B9DF38-91A4-41E0-860D-8F460AF02F7F,1559189989,2019-05-30 12:19:49,1559190110,2019-05-30 12:21:50,1559190141,56abe830a243184fe3ffa777f6c82eea,https://cpa.rulead.com/s2s?token=074caac6-5613-11e9-8e3c-901b0ededfcf&transaction_id=56abe830a243184fe3ffa777f6c82eea,idfa_C0B9DF38-91A4-41E0-860D-8F460AF02F7F,en
CLxWh3TtRW-olK8FT-0dGQ,rulead,3df5a114dc7de4426f479f127293a444_,Install,3.5,202.229.49.239,01E0195F-FA7E-4367-A053-55E699415F79,1559184981,2019-05-30 10:56:21,1559185035,2019-05-30 10:57:15,1559185395,84a997984fc0fbe9730a885f062f8fb1,https://cpa.rulead.com/s2s?token=074caac6-5613-11e9-8e3c-901b0ededfcf&transaction_id=84a997984fc0fbe9730a885f062f8fb1,idfa_01E0195F-FA7E-4367-A053-55E699415F79,ja-JP
CLxWh3TtRW-olK8FT-0dGQ,rulead,3df5a114dc7de4426f479f127293a444_,Install,3.5,60.103.229.194,1A305584-27FD-4F8B-9851-91B0B309E6CC,1559187455,2019-05-30 11:37:35,1559187538,2019-05-30 11:38:58,1559187569,dc2d3b2c77179983d750682ec17677c5,https://cpa.rulead.com/s2s?token=074caac6-5613-11e9-8e3c-901b0ededfcf&transaction_id=dc2d3b2c77179983d750682ec17677c5,idfa_1A305584-27FD-4F8B-9851-91B0B309E6CC,ja-JP
CLxWh3TtRW-olK8FT-0dGQ,rulead,3df5a114dc7de4426f479f127293a444_,Install,3.5,143.189.37.208,5E423C93-5A6E-4331-82CC-CCE29C7ED431,1559187557,2019-05-30 11:39:17,1559187649,2019-05-30 11:40:49,1559187680,5a7d27650ae06b909a712eaba2f7145f,https://cpa.rulead.com/s2s?token=074caac6-5613-11e9-8e3c-901b0ededfcf&transaction_id=5a7d27650ae06b909a712eaba2f7145f,idfa_5E423C93-5A6E-4331-82CC-CCE29C7ED431,ja-JP
CLxWh3TtRW-olK8FT-0dGQ,rulead,3df5a114dc7de4426f479f127293a444_,Install,3.5,118.241.62.184,BA2D72C4-FDD0-451D-823F-8EEE51CC41A7,1559191162,2019-05-30 12:39:22,1559191269,2019-05-30 12:41:09,1559191299,5246961ee7aea5fc4cca719083e9d93e,https://cpa.rulead.com/s2s?token=074caac6-5613-11e9-8e3c-901b0ededfcf&transaction_id=5246961ee7aea5fc4cca719083e9d93e,idfa_BA2D72C4-FDD0-451D-823F-8EEE51CC41A7,en
CLxWh3TtRW-olK8FT-0dGQ,rulead,3df5a114dc7de4426f479f127293a444_,Install,3.5,123.255.128.227,CF12FD01-8CC7-4CA4-ABDA-67C744DFCF12,1559186340,2019-05-30 11:19:00,1559186423,2019-05-30 11:20:23,1559186493,4f37b58b807ab3088a16a1e5ed3b145d,https://cpa.rulead.com/s2s?token=074caac6-5613-11e9-8e3c-901b0ededfcf&transaction_id=4f37b58b807ab3088a16a1e5ed3b145d,idfa_CF12FD01-8CC7-4CA4-ABDA-67C744DFCF12,ja-JP
CLxWh3TtRW-olK8FT-0dGQ,rulead,3df5a114dc7de4426f479f127293a444_,Install,3.5,220.158.24.226,BC3C3226-91C2-4D03-A106-1B700B3CFC25,1559187199,2019-05-30 11:33:19,1559187275,2019-05-30 11:34:35,1559187647,8a0d0c1da135f75dbf367cf67617493e,https://cpa.rulead.com/s2s?token=074caac6-5613-11e9-8e3c-901b0ededfcf&transaction_id=8a0d0c1da135f75dbf367cf67617493e,idfa_BC3C3226-91C2-4D03-A106-1B700B3CFC25,ja-JP
CLxWh3TtRW-olK8FT-0dGQ,rulead,3df5a114dc7de4426f479f127293a444_,Install,3.5,36.52.183.46,B35203EF-FB21-4A39-AA67-A2DA9EA2DEF0,1559189064,2019-05-30 12:04:24,1559189146,2019-05-30 12:05:46,1559189176,1e9cf1fc58fd2814bd9c803cc76629cd,https://cpa.rulead.com/s2s?token=074caac6-5613-11e9-8e3c-901b0ededfcf&transaction_id=1e9cf1fc58fd2814bd9c803cc76629cd,idfa_B35203EF-FB21-4A39-AA67-A2DA9EA2DEF0,ja-JP
CLxWh3TtRW-olK8FT-0dGQ,rulead,3df5a114dc7de4426f479f127293a444_,Install,3.5,126.0.236.158,78F2E1F0-BA62-48A0-BD17-995F0593853C,1559185699,2019-05-30 11:08:19,1559185788,2019-05-30 11:09:48,1559185819,e8698f9ca7f6168ed84d7e006b7508cb,https://cpa.rulead.com/s2s?token=074caac6-5613-11e9-8e3c-901b0ededfcf&transaction_id=e8698f9ca7f6168ed84d7e006b7508cb,idfa_78F2E1F0-BA62-48A0-BD17-995F0593853C,ja-JP
CLxWh3TtRW-olK8FT-0dGQ,rulead,3df5a114dc7de4426f479f127293a444_,Install,3.5,128.53.228.48,8F29AD33-3223-4A09-A878-60885ECEB8AB,1559189174,2019-05-30 12:06:14,1559189263,2019-05-30 12:07:43,1559189294,c3e654f92c9a1374fb4018d6d5197dbe,https://cpa.rulead.com/s2s?token=074caac6-5613-11e9-8e3c-901b0ededfcf&transaction_id=c3e654f92c9a1374fb4018d6d5197dbe,idfa_8F29AD33-3223-4A09-A878-60885ECEB8AB,ja-JP
CLxWh3TtRW-olK8FT-0dGQ,rulead,3df5a114dc7de4426f479f127293a444_,Install,3.5,150.246.223.93,794680F3-50BC-4EF6-B716-2DC63412FC38,1559188146,2019-05-30 11:49:06,1559188228,2019-05-30 11:50:28,1559188259,171b29c05373b51bdca446bba066b922,https://cpa.rulead.com/s2s?token=074caac6-5613-11e9-8e3c-901b0ededfcf&transaction_id=171b29c05373b51bdca446bba066b922,idfa_794680F3-50BC-4EF6-B716-2DC63412FC38,ja-JP
CLxWh3TtRW-olK8FT-0dGQ,rulead,3df5a114dc7de4426f479f127293a444_,Install,3.5,60.154.106.202,46E43D4E-6BE9-4FD6-A3B5-693819F5DB82,1559190349,2019-05-30 12:25:49,1559190461,2019-05-30 12:27:41,1559190491,d5c22f2920f8abbafbc80dacf73c05ca,https://cpa.rulead.com/s2s?token=074caac6-5613-11e9-8e3c-901b0ededfcf&transaction_id=d5c22f2920f8abbafbc80dacf73c05ca,idfa_46E43D4E-6BE9-4FD6-A3B5-693819F5DB82,en
CLxWh3TtRW-olK8FT-0dGQ,rulead,3df5a114dc7de4426f479f127293a444_,Install,3.5,114.157.218.46,655A70C0-F491-41B3-8405-80F802AFA971,1559187782,2019-05-30 11:43:02,1559187859,2019-05-30 11:44:19,1559187890,166bea196e02249c951133e32e70472e,https://cpa.rulead.com/s2s?token=074caac6-5613-11e9-8e3c-901b0ededfcf&transaction_id=166bea196e02249c951133e32e70472e,idfa_655A70C0-F491-41B3-8405-80F802AFA971,ja-JP
CLxWh3TtRW-olK8FT-0dGQ,rulead,3df5a114dc7de4426f479f127293a444_,Install,3.5,110.66.91.241,8E085E8C-0EFB-4CE3-A0C6-79753DB8AB5E,1559185970,2019-05-30 11:12:50,1559186056,2019-05-30 11:14:16,1559186087,bdff540c3b4fac0982340277bb8a090d,https://cpa.rulead.com/s2s?token=074caac6-5613-11e9-8e3c-901b0ededfcf&transaction_id=bdff540c3b4fac0982340277bb8a090d,idfa_8E085E8C-0EFB-4CE3-A0C6-79753DB8AB5E,ja-JP
CLxWh3TtRW-olK8FT-0dGQ,rulead,3df5a114dc7de4426f479f127293a444_,Install,3.5,60.86.199.48,8E87FA18-1E42-4C92-879F-1B9F5E2294E1,1559186612,2019-05-30 11:23:32,1559186686,2019-05-30 11:24:46,1559186716,6d0bf2b1a375de466bb6ab5c0770d241,https://cpa.rulead.com/s2s?token=074caac6-5613-11e9-8e3c-901b0ededfcf&transaction_id=6d0bf2b1a375de466bb6ab5c0770d241,idfa_8E87FA18-1E42-4C92-879F-1B9F5E2294E1,ja-JP
CLxWh3TtRW-olK8FT-0dGQ,rulead,3df5a114dc7de4426f479f127293a444_,Install,3.5,133.209.146.125,FBE28389-D919-4C49-B566-361D77C64E6A,1559185767,2019-05-30 11:09:27,1559185944,2019-05-30 11:12:24,1559185975,b083ba822a040ac69000a530e0c004fa,https://cpa.rulead.com/s2s?token=074caac6-5613-11e9-8e3c-901b0ededfcf&transaction_id=b083ba822a040ac69000a530e0c004fa,idfa_FBE28389-D919-4C49-B566-361D77C64E6A,ja-JP
CLxWh3TtRW-olK8FT-0dGQ,rulead,3df5a114dc7de4426f479f127293a444_,Install,3.5,157.14.175.145,EAF4EB73-0221-416C-88ED-67A8B643314C,1559189753,2019-05-30 12:15:53,1559189841,2019-05-30 12:17:21,1559189872,7b0c909c6328ec7821538a8996a74527,https://cpa.rulead.com/s2s?token=074caac6-5613-11e9-8e3c-901b0ededfcf&transaction_id=7b0c909c6328ec7821538a8996a74527,idfa_EAF4EB73-0221-416C-88ED-67A8B643314C,ja-JP
CLxWh3TtRW-olK8FT-0dGQ,rulead,3df5a114dc7de4426f479f127293a444_,Install,3.5,157.107.72.215,A877E6BD-33D3-42B9-BB74-D15D4AF78125,1559191396,2019-05-30 12:43:16,1559191516,2019-05-30 12:45:16,1559191547,883a2ba03685a66d09cf6246546fa9b7,https://cpa.rulead.com/s2s?token=074caac6-5613-11e9-8e3c-901b0ededfcf&transaction_id=883a2ba03685a66d09cf6246546fa9b7,idfa_A877E6BD-33D3-42B9-BB74-D15D4AF78125,en
CLxWh3TtRW-olK8FT-0dGQ,rulead,3df5a114dc7de4426f479f127293a444_,Install,3.5,202.215.178.164,46E9CF87-3550-4264-B895-993184522590,1559186314,2019-05-30 11:18:34,1559186393,2019-05-30 11:19:53,1559186423,5df9541f47cbe8a23701ab596cb8943b,https://cpa.rulead.com/s2s?token=074caac6-5613-11e9-8e3c-901b0ededfcf&transaction_id=5df9541f47cbe8a23701ab596cb8943b,idfa_46E9CF87-3550-4264-B895-993184522590,ja-JP
