cid,partner_id,channel_id,action_id,cpi,ip,idfa,click time,click datetime,install time,install datetime,postback time,click id,postback url,unique user id
DXSuOpeqRIOyUaof_iyf8Q,rulead,10badcd686c8bff9f8f4b294fc64f22b_,Install,2.1,121.141.140.75,2077d984-5172-49a0-b2a1-560699d3cbd4,1559202321,2019-05-30 15:45:21,1559202412,2019-05-30 15:46:52,1559202443,86d47c0a9fc7328021aa9700fd778eb4,https://cpa.rulead.com/s2s?token=074caac6-5613-11e9-8e3c-901b0ededfcf&transaction_id=86d47c0a9fc7328021aa9700fd778eb4,idfa_2077d984-5172-49a0-b2a1-560699d3cbd4,%ED%95%9C%EA%B5%AD%EC%96%B4
DXSuOpeqRIOyUaof_iyf8Q,rulead,10badcd686c8bff9f8f4b294fc64f22b_,Install,2.1,39.117.86.122,95f26d13-a87c-40ff-8ad1-d6e009044589,1559201760,2019-05-30 15:36:00,1559201856,2019-05-30 15:37:36,1559201886,5649c690f14dcfd6d1450eee3a49855e,https://cpa.rulead.com/s2s?token=074caac6-5613-11e9-8e3c-901b0ededfcf&transaction_id=5649c690f14dcfd6d1450eee3a49855e,idfa_95f26d13-a87c-40ff-8ad1-d6e009044589,%ED%95%9C%EA%B5%AD%EC%96%B4
DXSuOpeqRIOyUaof_iyf8Q,rulead,10badcd686c8bff9f8f4b294fc64f22b_,Install,2.1,218.158.5.15,04f7aec4-7635-46fd-b32d-457b96edb3eb,1559202312,2019-05-30 15:45:12,1559202407,2019-05-30 15:46:47,1559202438,d3880049c29e29e69f9b301f08a594b9,https://cpa.rulead.com/s2s?token=074caac6-5613-11e9-8e3c-901b0ededfcf&transaction_id=d3880049c29e29e69f9b301f08a594b9,idfa_04f7aec4-7635-46fd-b32d-457b96edb3eb,%ED%95%9C%EA%B5%AD%EC%96%B4
DXSuOpeqRIOyUaof_iyf8Q,rulead,10badcd686c8bff9f8f4b294fc64f22b_,Install,2.1,223.38.33.213,a0209cd7-ced6-4355-8694-d10884295ee7,1559202971,2019-05-30 15:56:11,1559203118,2019-05-30 15:58:38,1559203149,d3b7da62dd258d9a4a67a699ed39b80c,https://cpa.rulead.com/s2s?token=074caac6-5613-11e9-8e3c-901b0ededfcf&transaction_id=d3b7da62dd258d9a4a67a699ed39b80c,idfa_a0209cd7-ced6-4355-8694-d10884295ee7,%ED%95%9C%EA%B5%AD%EC%96%B4
DXSuOpeqRIOyUaof_iyf8Q,rulead,10badcd686c8bff9f8f4b294fc64f22b_,Install,2.1,180.69.101.50,f105db8a-b5a9-4b62-b13a-81b1347dfdf3,1559203091,2019-05-30 15:58:11,1559203193,2019-05-30 15:59:53,1559203224,d09160d9b993b5f3336dd7b5545e5942,https://cpa.rulead.com/s2s?token=074caac6-5613-11e9-8e3c-901b0ededfcf&transaction_id=d09160d9b993b5f3336dd7b5545e5942,idfa_f105db8a-b5a9-4b62-b13a-81b1347dfdf3,%ED%95%9C%EA%B5%AD%EC%96%B4
DXSuOpeqRIOyUaof_iyf8Q,rulead,10badcd686c8bff9f8f4b294fc64f22b_,Install,2.1,211.36.159.144,968c169b-adfe-4ab8-baa5-634a58b81639,1559202371,2019-05-30 15:46:11,1559202468,2019-05-30 15:47:48,1559202499,fd9f6a4addb8a373ccce07fe30f9759b,https://cpa.rulead.com/s2s?token=074caac6-5613-11e9-8e3c-901b0ededfcf&transaction_id=fd9f6a4addb8a373ccce07fe30f9759b,idfa_968c169b-adfe-4ab8-baa5-634a58b81639,%ED%95%9C%EA%B5%AD%EC%96%B4
DXSuOpeqRIOyUaof_iyf8Q,rulead,10badcd686c8bff9f8f4b294fc64f22b_,Install,2.1,211.59.27.115,13afc6ef-9797-4d71-82bd-4bc0e8c3789b,1559202795,2019-05-30 15:53:15,1559202923,2019-05-30 15:55:23,1559202954,932d65f57c6f30385338b82a989c2aae,https://cpa.rulead.com/s2s?token=074caac6-5613-11e9-8e3c-901b0ededfcf&transaction_id=932d65f57c6f30385338b82a989c2aae,idfa_13afc6ef-9797-4d71-82bd-4bc0e8c3789b,%ED%95%9C%EA%B5%AD%EC%96%B4
DXSuOpeqRIOyUaof_iyf8Q,rulead,10badcd686c8bff9f8f4b294fc64f22b_,Install,2.1,121.186.53.44,71ab77cc-89b7-4ad5-9080-1e7f58bb08ef,1559202491,2019-05-30 15:48:11,1559202609,2019-05-30 15:50:09,1559202640,38c3eb89e3b0f853a73c12ee7f2c4d3f,https://cpa.rulead.com/s2s?token=074caac6-5613-11e9-8e3c-901b0ededfcf&transaction_id=38c3eb89e3b0f853a73c12ee7f2c4d3f,idfa_71ab77cc-89b7-4ad5-9080-1e7f58bb08ef,%ED%95%9C%EA%B5%AD%EC%96%B4
DXSuOpeqRIOyUaof_iyf8Q,rulead,10badcd686c8bff9f8f4b294fc64f22b_,Install,2.1,223.62.203.248,697ba506-9958-44f5-9b0c-86d43807e89b,1559202556,2019-05-30 15:49:16,1559202648,2019-05-30 15:50:48,1559202679,923d2dcfaff5a2c99b7f8dd0848e53db,https://cpa.rulead.com/s2s?token=074caac6-5613-11e9-8e3c-901b0ededfcf&transaction_id=923d2dcfaff5a2c99b7f8dd0848e53db,idfa_697ba506-9958-44f5-9b0c-86d43807e89b,%ED%95%9C%EA%B5%AD%EC%96%B4
DXSuOpeqRIOyUaof_iyf8Q,rulead,10badcd686c8bff9f8f4b294fc64f22b_,Install,2.1,119.77.104.67,de8e2715-a35e-4fd6-91db-da30130a920b,1559202914,2019-05-30 15:55:14,1559203156,2019-05-30 15:59:16,1559203187,63237a8706df1f16715ffedb7101232c,https://cpa.rulead.com/s2s?token=074caac6-5613-11e9-8e3c-901b0ededfcf&transaction_id=63237a8706df1f16715ffedb7101232c,idfa_de8e2715-a35e-4fd6-91db-da30130a920b,%ED%95%9C%EA%B5%AD%EC%96%B4
DXSuOpeqRIOyUaof_iyf8Q,rulead,10badcd686c8bff9f8f4b294fc64f22b_,Install,2.1,118.41.74.241,23405228-fa77-48ec-9a0c-6010632b9277,1559203936,2019-05-30 16:12:16,1559204033,2019-05-30 16:13:53,1559204064,6ea736cadca7532e9467d1d46e647d6a,https://cpa.rulead.com/s2s?token=074caac6-5613-11e9-8e3c-901b0ededfcf&transaction_id=6ea736cadca7532e9467d1d46e647d6a,idfa_23405228-fa77-48ec-9a0c-6010632b9277,%ED%95%9C%EA%B5%AD%EC%96%B4
DXSuOpeqRIOyUaof_iyf8Q,rulead,10badcd686c8bff9f8f4b294fc64f22b_,Install,2.1,58.238.49.64,88c7ec39-f08b-4b10-821a-aa7064130c6f,1559203278,2019-05-30 16:01:18,1559203381,2019-05-30 16:03:01,1559203413,f7d8cb68b81b2085535ae87aa7e9eb34,https://cpa.rulead.com/s2s?token=074caac6-5613-11e9-8e3c-901b0ededfcf&transaction_id=f7d8cb68b81b2085535ae87aa7e9eb34,idfa_88c7ec39-f08b-4b10-821a-aa7064130c6f,%ED%95%9C%EA%B5%AD%EC%96%B4
DXSuOpeqRIOyUaof_iyf8Q,rulead,10badcd686c8bff9f8f4b294fc64f22b_,Install,2.1,122.38.96.205,cfc36490-9f67-443e-981a-2ce2d21d2ac9,1559203817,2019-05-30 16:10:17,1559203914,2019-05-30 16:11:54,1559203945,22070beb51893c74c0ae4d5a3f128cdf,https://cpa.rulead.com/s2s?token=074caac6-5613-11e9-8e3c-901b0ededfcf&transaction_id=22070beb51893c74c0ae4d5a3f128cdf,idfa_cfc36490-9f67-443e-981a-2ce2d21d2ac9,%ED%95%9C%EA%B5%AD%EC%96%B4
DXSuOpeqRIOyUaof_iyf8Q,rulead,10badcd686c8bff9f8f4b294fc64f22b_,Install,2.1,223.62.175.115,ae9459a9-984c-4b13-9000-70a0c77ad836,1559203091,2019-05-30 15:58:11,1559203704,2019-05-30 16:08:24,1559203736,7e325ef716e75132818b8846363f3fe7,https://cpa.rulead.com/s2s?token=074caac6-5613-11e9-8e3c-901b0ededfcf&transaction_id=7e325ef716e75132818b8846363f3fe7,idfa_ae9459a9-984c-4b13-9000-70a0c77ad836,%ED%95%9C%EA%B5%AD%EC%96%B4
DXSuOpeqRIOyUaof_iyf8Q,rulead,10badcd686c8bff9f8f4b294fc64f22b_,Install,2.1,223.39.131.197,24700ce2-daae-4e48-b168-c4fba99aa13e,1559203051,2019-05-30 15:57:31,1559203147,2019-05-30 15:59:07,1559203179,80e705af6d36aeff17a75212596fee38,https://cpa.rulead.com/s2s?token=074caac6-5613-11e9-8e3c-901b0ededfcf&transaction_id=80e705af6d36aeff17a75212596fee38,idfa_24700ce2-daae-4e48-b168-c4fba99aa13e,%ED%95%9C%EA%B5%AD%EC%96%B4
DXSuOpeqRIOyUaof_iyf8Q,rulead,10badcd686c8bff9f8f4b294fc64f22b_,Install,2.1,211.36.138.188,4928fbc4-87d9-49b7-9572-ff7589295c8d,1559202693,2019-05-30 15:51:33,1559202772,2019-05-30 15:52:52,1559202803,004fa0c6450e10e7ee2c797f7005de97,https://cpa.rulead.com/s2s?token=074caac6-5613-11e9-8e3c-901b0ededfcf&transaction_id=004fa0c6450e10e7ee2c797f7005de97,idfa_4928fbc4-87d9-49b7-9572-ff7589295c8d,%ED%95%9C%EA%B5%AD%EC%96%B4
DXSuOpeqRIOyUaof_iyf8Q,rulead,10badcd686c8bff9f8f4b294fc64f22b_,Install,2.1,175.223.39.183,382bc938-6f2d-4792-a693-ff4ee20cdb92,1559203412,2019-05-30 16:03:32,1559203506,2019-05-30 16:05:06,1559203538,2bc5c6ab2663e3e863c21ab24503248b,https://cpa.rulead.com/s2s?token=074caac6-5613-11e9-8e3c-901b0ededfcf&transaction_id=2bc5c6ab2663e3e863c21ab24503248b,idfa_382bc938-6f2d-4792-a693-ff4ee20cdb92,%ED%95%9C%EA%B5%AD%EC%96%B4
DXSuOpeqRIOyUaof_iyf8Q,rulead,10badcd686c8bff9f8f4b294fc64f22b_,Install,2.1,210.218.50.69,50bfc144-4da6-417f-9230-1c43a8ea3297,1559203943,2019-05-30 16:12:23,1559204110,2019-05-30 16:15:10,1559204141,b90e4b4ec5ff1cc050625a931f403487,https://cpa.rulead.com/s2s?token=074caac6-5613-11e9-8e3c-901b0ededfcf&transaction_id=b90e4b4ec5ff1cc050625a931f403487,idfa_50bfc144-4da6-417f-9230-1c43a8ea3297,%ED%95%9C%EA%B5%AD%EC%96%B4
DXSuOpeqRIOyUaof_iyf8Q,rulead,10badcd686c8bff9f8f4b294fc64f22b_,Install,2.1,218.237.207.153,eaea3532-3736-4d54-b62e-acddd8e482f6,1559203155,2019-05-30 15:59:15,1559203257,2019-05-30 16:00:57,1559203287,8c13934021d8ffe01a720102abffbd02,https://cpa.rulead.com/s2s?token=074caac6-5613-11e9-8e3c-901b0ededfcf&transaction_id=8c13934021d8ffe01a720102abffbd02,idfa_eaea3532-3736-4d54-b62e-acddd8e482f6,%ED%95%9C%EA%B5%AD%EC%96%B4
DXSuOpeqRIOyUaof_iyf8Q,rulead,10badcd686c8bff9f8f4b294fc64f22b_,Install,2.1,211.46.211.101,472ed699-bf63-4b31-b3b8-de6017ad5cbe,1559201879,2019-05-30 15:37:59,1559201988,2019-05-30 15:39:48,1559202020,e147c894e1820bacbeb45c09dcb35853,https://cpa.rulead.com/s2s?token=074caac6-5613-11e9-8e3c-901b0ededfcf&transaction_id=e147c894e1820bacbeb45c09dcb35853,idfa_472ed699-bf63-4b31-b3b8-de6017ad5cbe,%ED%95%9C%EA%B5%AD%EC%96%B4
DXSuOpeqRIOyUaof_iyf8Q,rulead,10badcd686c8bff9f8f4b294fc64f22b_,Install,2.1,112.186.21.21,56657add-3174-4989-b08f-b9518b62b58a,1559203456,2019-05-30 16:04:16,1559203556,2019-05-30 16:05:56,1559203587,9c2f820dfb35ed1075619f51ff1d43cf,https://cpa.rulead.com/s2s?token=074caac6-5613-11e9-8e3c-901b0ededfcf&transaction_id=9c2f820dfb35ed1075619f51ff1d43cf,idfa_56657add-3174-4989-b08f-b9518b62b58a,%ED%95%9C%EA%B5%AD%EC%96%B4
DXSuOpeqRIOyUaof_iyf8Q,rulead,10badcd686c8bff9f8f4b294fc64f22b_,Install,2.1,117.111.27.15,ff28ceed-0f6f-42f2-87c0-33a833c6b78a,1559203879,2019-05-30 16:11:19,1559204168,2019-05-30 16:16:08,1559204199,d56ea99763345773428c786a691d0ff9,https://cpa.rulead.com/s2s?token=074caac6-5613-11e9-8e3c-901b0ededfcf&transaction_id=d56ea99763345773428c786a691d0ff9,idfa_ff28ceed-0f6f-42f2-87c0-33a833c6b78a,%ED%95%9C%EA%B5%AD%EC%96%B4
DXSuOpeqRIOyUaof_iyf8Q,rulead,10badcd686c8bff9f8f4b294fc64f22b_,Install,2.1,39.7.48.121,88a22ae0-a556-4d5b-947c-5216f2fe863c,1559203035,2019-05-30 15:57:15,1559203248,2019-05-30 16:00:48,1559203278,bcad814ba5ef84703fb6f842a8338b31,https://cpa.rulead.com/s2s?token=074caac6-5613-11e9-8e3c-901b0ededfcf&transaction_id=bcad814ba5ef84703fb6f842a8338b31,idfa_88a22ae0-a556-4d5b-947c-5216f2fe863c,%ED%95%9C%EA%B5%AD%EC%96%B4
DXSuOpeqRIOyUaof_iyf8Q,rulead,10badcd686c8bff9f8f4b294fc64f22b_,Install,2.1,223.39.131.231,2023d2f2-668e-48e2-83b6-ea8d00dfaf6c,1559202493,2019-05-30 15:48:13,1559202864,2019-05-30 15:54:24,1559202895,6b0c4b0ef9ee250912e51739107c8061,https://cpa.rulead.com/s2s?token=074caac6-5613-11e9-8e3c-901b0ededfcf&transaction_id=6b0c4b0ef9ee250912e51739107c8061,idfa_2023d2f2-668e-48e2-83b6-ea8d00dfaf6c,%ED%95%9C%EA%B5%AD%EC%96%B4
DXSuOpeqRIOyUaof_iyf8Q,rulead,10badcd686c8bff9f8f4b294fc64f22b_,Install,2.1,39.7.28.134,49bfa2da-f83d-404e-9afb-30077de3d8df,1559202735,2019-05-30 15:52:15,1559202830,2019-05-30 15:53:50,1559202861,809495447da2fa5da55cb29bc87a24a2,https://cpa.rulead.com/s2s?token=074caac6-5613-11e9-8e3c-901b0ededfcf&transaction_id=809495447da2fa5da55cb29bc87a24a2,idfa_49bfa2da-f83d-404e-9afb-30077de3d8df,%ED%95%9C%EA%B5%AD%EC%96%B4
DXSuOpeqRIOyUaof_iyf8Q,rulead,10badcd686c8bff9f8f4b294fc64f22b_,Install,2.1,211.36.132.36,cecd9c40-30d9-4a02-bba4-0b97b1ffcb98,1559203697,2019-05-30 16:08:17,1559203793,2019-05-30 16:09:53,1559203825,da6b2c323bea96cc88afc9e5a9842bb8,https://cpa.rulead.com/s2s?token=074caac6-5613-11e9-8e3c-901b0ededfcf&transaction_id=da6b2c323bea96cc88afc9e5a9842bb8,idfa_cecd9c40-30d9-4a02-bba4-0b97b1ffcb98,%ED%95%9C%EA%B5%AD%EC%96%B4
DXSuOpeqRIOyUaof_iyf8Q,rulead,10badcd686c8bff9f8f4b294fc64f22b_,Install,2.1,211.36.144.126,27c3c7bf-24a6-4756-9c22-0b12cd807e9b,1559201719,2019-05-30 15:35:19,1559201812,2019-05-30 15:36:52,1559201843,954afb7787766e472986bf88a8210168,https://cpa.rulead.com/s2s?token=074caac6-5613-11e9-8e3c-901b0ededfcf&transaction_id=954afb7787766e472986bf88a8210168,idfa_27c3c7bf-24a6-4756-9c22-0b12cd807e9b,%ED%95%9C%EA%B5%AD%EC%96%B4
DXSuOpeqRIOyUaof_iyf8Q,rulead,10badcd686c8bff9f8f4b294fc64f22b_,Install,2.1,223.39.149.62,91b058d5-18f8-4684-938b-a60bd0b0daa9,1559202671,2019-05-30 15:51:11,1559203142,2019-05-30 15:59:02,1559203173,2259738e8fa1825c25a8ae2aecdb1346,https://cpa.rulead.com/s2s?token=074caac6-5613-11e9-8e3c-901b0ededfcf&transaction_id=2259738e8fa1825c25a8ae2aecdb1346,idfa_91b058d5-18f8-4684-938b-a60bd0b0daa9,%ED%95%9C%EA%B5%AD%EC%96%B4
DXSuOpeqRIOyUaof_iyf8Q,rulead,10badcd686c8bff9f8f4b294fc64f22b_,Install,2.1,59.22.72.249,37471fdd-6c26-4a31-ac98-ede7685083c1,1559203156,2019-05-30 15:59:16,1559203433,2019-05-30 16:03:53,1559203464,7da358295173db4818d700068bf25080,https://cpa.rulead.com/s2s?token=074caac6-5613-11e9-8e3c-901b0ededfcf&transaction_id=7da358295173db4818d700068bf25080,idfa_37471fdd-6c26-4a31-ac98-ede7685083c1,%ED%95%9C%EA%B5%AD%EC%96%B4
DXSuOpeqRIOyUaof_iyf8Q,rulead,10badcd686c8bff9f8f4b294fc64f22b_,Install,2.1,175.223.11.100,9485eb30-8a72-415c-917b-e354dc608bca,1559203577,2019-05-30 16:06:17,1559205441,2019-05-30 16:37:21,1559205471,f9766618daca26f106532263badc918e,https://cpa.rulead.com/s2s?token=074caac6-5613-11e9-8e3c-901b0ededfcf&transaction_id=f9766618daca26f106532263badc918e,idfa_9485eb30-8a72-415c-917b-e354dc608bca,%ED%95%9C%EA%B5%AD%EC%96%B4
DXSuOpeqRIOyUaof_iyf8Q,rulead,10badcd686c8bff9f8f4b294fc64f22b_,Install,2.1,183.78.255.34,1e1ac2dc-14ca-4933-8c85-dfe5d9d20efd,1559202130,2019-05-30 15:42:10,1559202731,2019-05-30 15:52:11,1559202762,0b83e5c5be8dd26e085d8b0313cb05aa,https://cpa.rulead.com/s2s?token=074caac6-5613-11e9-8e3c-901b0ededfcf&transaction_id=0b83e5c5be8dd26e085d8b0313cb05aa,idfa_1e1ac2dc-14ca-4933-8c85-dfe5d9d20efd,%ED%95%9C%EA%B5%AD%EC%96%B4
DXSuOpeqRIOyUaof_iyf8Q,rulead,10badcd686c8bff9f8f4b294fc64f22b_,Install,2.1,14.55.175.95,89e1e13b-d72c-44dc-a60d-ac15a7a484ec,1559202493,2019-05-30 15:48:13,1559202601,2019-05-30 15:50:01,1559202632,f03918db9f20a3844aaebc24a7e0a9c8,https://cpa.rulead.com/s2s?token=074caac6-5613-11e9-8e3c-901b0ededfcf&transaction_id=f03918db9f20a3844aaebc24a7e0a9c8,idfa_89e1e13b-d72c-44dc-a60d-ac15a7a484ec,%ED%95%9C%EA%B5%AD%EC%96%B4
