cid,partner_id,channel_id,action_id,cpi,ip,idfa,click time,click datetime,install time,install datetime,postback time,click id,postback url,unique user id
L1QveInOQcu2cj5SPsrMbA,rulead,5483_2179,Install,0.7,180.147.70.79,ec405058-cde5-48bb-87de-af31824b79aa,1558658082,2019-05-24 08:34:42,1558658282,2019-05-24 08:38:02,1558658282,10c7099e8d2cb83207a2fcdd2b4ecf1b,https://cpa.rulead.com/s2s?token=074caac6-5613-11e9-8e3c-901b0ededfcf&transaction_id=10c7099e8d2cb83207a2fcdd2b4ecf1b,idfa_ec405058-cde5-48bb-87de-af31824b79aa,ja
L1QveInOQcu2cj5SPsrMbA,rulead,5483_2179,Install,0.7,157.107.83.97,7a17e173-b31d-4142-bea5-a9d94ecb960b,1558660400,2019-05-24 09:13:20,1558660595,2019-05-24 09:16:35,1558660595,f9b2741b45b369ea26c9f150687aa71a,https://cpa.rulead.com/s2s?token=074caac6-5613-11e9-8e3c-901b0ededfcf&transaction_id=f9b2741b45b369ea26c9f150687aa71a,idfa_7a17e173-b31d-4142-bea5-a9d94ecb960b,ja
L1QveInOQcu2cj5SPsrMbA,rulead,5483_2179,Install,0.7,126.58.92.107,1beb11a4-d4cd-4944-acde-fb481d5d8a2e,1558656811,2019-05-24 08:13:31,1558656946,2019-05-24 08:15:46,1558656946,21685e6b0eb5eb3924823d74ebe7df62,https://cpa.rulead.com/s2s?token=074caac6-5613-11e9-8e3c-901b0ededfcf&transaction_id=21685e6b0eb5eb3924823d74ebe7df62,idfa_1beb11a4-d4cd-4944-acde-fb481d5d8a2e,ja
L1QveInOQcu2cj5SPsrMbA,rulead,5483_2179,Install,0.7,60.56.216.84,ed30ee31-651e-4eb5-9a90-7976669980c3,1558656757,2019-05-24 08:12:37,1558656899,2019-05-24 08:14:59,1558656899,c342f2e558714ad35a344e03a588fed8,https://cpa.rulead.com/s2s?token=074caac6-5613-11e9-8e3c-901b0ededfcf&transaction_id=c342f2e558714ad35a344e03a588fed8,idfa_ed30ee31-651e-4eb5-9a90-7976669980c3,ja
L1QveInOQcu2cj5SPsrMbA,rulead,5483_2179,Install,0.7,126.207.29.183,22f7effa-5888-4f6a-8e68-fd2f73321574,1558658479,2019-05-24 08:41:19,1558658613,2019-05-24 08:43:33,1558658613,7483e30c61d4268a17a61e6156ca562a,https://cpa.rulead.com/s2s?token=074caac6-5613-11e9-8e3c-901b0ededfcf&transaction_id=7483e30c61d4268a17a61e6156ca562a,idfa_22f7effa-5888-4f6a-8e68-fd2f73321574,ja
L1QveInOQcu2cj5SPsrMbA,rulead,5483_2179,Install,0.7,114.184.31.31,bee6dd28-4b1d-4105-af43-6ebb103b1437,1558657114,2019-05-24 08:18:34,1558657303,2019-05-24 08:21:43,1558657303,c8f1cddffe57980e07d9f3e9e046b798,https://cpa.rulead.com/s2s?token=074caac6-5613-11e9-8e3c-901b0ededfcf&transaction_id=c8f1cddffe57980e07d9f3e9e046b798,idfa_bee6dd28-4b1d-4105-af43-6ebb103b1437,ja
L1QveInOQcu2cj5SPsrMbA,rulead,5483_2179,Install,0.7,14.133.83.20,f279c8f6-72e6-463d-828b-ae8f5f819de1,1558657862,2019-05-24 08:31:02,1558658053,2019-05-24 08:34:13,1558658053,72ef6cff6bf34788498d07b679d1fd64,https://cpa.rulead.com/s2s?token=074caac6-5613-11e9-8e3c-901b0ededfcf&transaction_id=72ef6cff6bf34788498d07b679d1fd64,idfa_f279c8f6-72e6-463d-828b-ae8f5f819de1,ja
L1QveInOQcu2cj5SPsrMbA,rulead,5483_2179,Install,0.7,118.105.43.160,d9115803-b7b5-4634-be9d-8e87e344b475,1558657713,2019-05-24 08:28:33,1558657897,2019-05-24 08:31:37,1558657897,69960483780a64c313f6148fe89ce582,https://cpa.rulead.com/s2s?token=074caac6-5613-11e9-8e3c-901b0ededfcf&transaction_id=69960483780a64c313f6148fe89ce582,idfa_d9115803-b7b5-4634-be9d-8e87e344b475,ja
L1QveInOQcu2cj5SPsrMbA,rulead,5483_2179,Install,0.7,218.227.181.64,937211fb-9d96-477e-9bc3-d3bef12156d7,1558656856,2019-05-24 08:14:16,1558657069,2019-05-24 08:17:49,1558657069,7b65480b9470cba0293aa3a0afffdfba,https://cpa.rulead.com/s2s?token=074caac6-5613-11e9-8e3c-901b0ededfcf&transaction_id=7b65480b9470cba0293aa3a0afffdfba,idfa_937211fb-9d96-477e-9bc3-d3bef12156d7,ja
L1QveInOQcu2cj5SPsrMbA,rulead,5483_2179,Install,0.7,202.125.51.38,1d90fd1d-6e40-4a57-b29f-7a63e01277f9,1558660325,2019-05-24 09:12:05,1558660536,2019-05-24 09:15:36,1558660536,9638717bda3f16cec45f3f77935f8d85,https://cpa.rulead.com/s2s?token=074caac6-5613-11e9-8e3c-901b0ededfcf&transaction_id=9638717bda3f16cec45f3f77935f8d85,idfa_1d90fd1d-6e40-4a57-b29f-7a63e01277f9,ja
L1QveInOQcu2cj5SPsrMbA,rulead,5483_2179,Install,0.7,106.73.233.224,41865dc1-2cdd-42a0-99c0-95dafa2f3287,1558660010,2019-05-24 09:06:50,1558660153,2019-05-24 09:09:13,1558660153,26b5c0533361b5410861f5a5f0ee58e5,https://cpa.rulead.com/s2s?token=074caac6-5613-11e9-8e3c-901b0ededfcf&transaction_id=26b5c0533361b5410861f5a5f0ee58e5,idfa_41865dc1-2cdd-42a0-99c0-95dafa2f3287,ja
L1QveInOQcu2cj5SPsrMbA,rulead,5483_2179,Install,0.7,218.218.54.254,77d6d2d4-1f3a-4096-92d5-36faf02946aa,1558660666,2019-05-24 09:17:46,1558660854,2019-05-24 09:20:54,1558660854,6aa39e962369f6944c82bf4e76820de3,https://cpa.rulead.com/s2s?token=074caac6-5613-11e9-8e3c-901b0ededfcf&transaction_id=6aa39e962369f6944c82bf4e76820de3,idfa_77d6d2d4-1f3a-4096-92d5-36faf02946aa,ja
L1QveInOQcu2cj5SPsrMbA,rulead,5483_2179,Install,0.7,223.135.7.111,03e093e2-f884-4a04-b6e6-03fc09bf7e4e,1558656453,2019-05-24 08:07:33,1558656682,2019-05-24 08:11:22,1558656682,808c9fa3642d465725f358ea5819f5cf,https://cpa.rulead.com/s2s?token=074caac6-5613-11e9-8e3c-901b0ededfcf&transaction_id=808c9fa3642d465725f358ea5819f5cf,idfa_03e093e2-f884-4a04-b6e6-03fc09bf7e4e,ja
L1QveInOQcu2cj5SPsrMbA,rulead,5483_2179,Install,0.7,133.137.151.204,d9426afc-a847-46e1-b8d1-f8a8200032b0,1558659207,2019-05-24 08:53:27,1558659350,2019-05-24 08:55:50,1558659350,2e8a615f01ee6976ab0d6594e8c31753,https://cpa.rulead.com/s2s?token=074caac6-5613-11e9-8e3c-901b0ededfcf&transaction_id=2e8a615f01ee6976ab0d6594e8c31753,idfa_d9426afc-a847-46e1-b8d1-f8a8200032b0,ja
L1QveInOQcu2cj5SPsrMbA,rulead,5483_2179,Install,0.7,210.149.158.27,f8d1737d-9412-4fdd-bae0-d6ce835e5c5f,1558660344,2019-05-24 09:12:24,1558660507,2019-05-24 09:15:07,1558660507,439827e5a9b37814f616cb452917f453,https://cpa.rulead.com/s2s?token=074caac6-5613-11e9-8e3c-901b0ededfcf&transaction_id=439827e5a9b37814f616cb452917f453,idfa_f8d1737d-9412-4fdd-bae0-d6ce835e5c5f,ja
L1QveInOQcu2cj5SPsrMbA,rulead,5483_2179,Install,0.7,114.153.50.39,639414a4-8db5-480d-b819-31bbe51f2359,1558659788,2019-05-24 09:03:08,1558659919,2019-05-24 09:05:19,1558659919,3f8d724ec576505623eab2db571f907e,https://cpa.rulead.com/s2s?token=074caac6-5613-11e9-8e3c-901b0ededfcf&transaction_id=3f8d724ec576505623eab2db571f907e,idfa_639414a4-8db5-480d-b819-31bbe51f2359,ja
L1QveInOQcu2cj5SPsrMbA,rulead,5483_2179,Install,0.7,60.105.184.66,fa88e5c1-c82c-46ad-bdb6-119d63729c67,1558656549,2019-05-24 08:09:09,1558656688,2019-05-24 08:11:28,1558656688,aa655d44d4d12b8e35ed6095768530c8,https://cpa.rulead.com/s2s?token=074caac6-5613-11e9-8e3c-901b0ededfcf&transaction_id=aa655d44d4d12b8e35ed6095768530c8,idfa_fa88e5c1-c82c-46ad-bdb6-119d63729c67,ja
L1QveInOQcu2cj5SPsrMbA,rulead,5483_2179,Install,0.7,118.2.207.160,8b1149ed-894b-475c-b718-0dad8a825e97,1558657728,2019-05-24 08:28:48,1558657915,2019-05-24 08:31:55,1558657915,df1abbc0f670e84caec20bb977dcb462,https://cpa.rulead.com/s2s?token=074caac6-5613-11e9-8e3c-901b0ededfcf&transaction_id=df1abbc0f670e84caec20bb977dcb462,idfa_8b1149ed-894b-475c-b718-0dad8a825e97,ja
L1QveInOQcu2cj5SPsrMbA,rulead,5483_2179,Install,0.7,114.170.34.128,7c6817ed-5116-41a8-b65b-50e742cfc865,1558659026,2019-05-24 08:50:26,1558659156,2019-05-24 08:52:36,1558659156,0c8abe297e0e042f4a71a875c50a45d7,https://cpa.rulead.com/s2s?token=074caac6-5613-11e9-8e3c-901b0ededfcf&transaction_id=0c8abe297e0e042f4a71a875c50a45d7,idfa_7c6817ed-5116-41a8-b65b-50e742cfc865,ja
L1QveInOQcu2cj5SPsrMbA,rulead,5483_2179,Install,0.7,60.46.17.104,b9e29c05-14ba-4b61-8f1a-fad836737d5a,1558660979,2019-05-24 09:22:59,1558661325,2019-05-24 09:28:45,1558661325,626c675d786431e875e00180833f6983,https://cpa.rulead.com/s2s?token=074caac6-5613-11e9-8e3c-901b0ededfcf&transaction_id=626c675d786431e875e00180833f6983,idfa_b9e29c05-14ba-4b61-8f1a-fad836737d5a,ja
L1QveInOQcu2cj5SPsrMbA,rulead,5483_2179,Install,0.7,36.12.110.245,b0beda19-3441-4b52-b949-d206cc735c56,1558657119,2019-05-24 08:18:39,1558657309,2019-05-24 08:21:49,1558657309,de9dd61ca53866507eabceddd7197e31,https://cpa.rulead.com/s2s?token=074caac6-5613-11e9-8e3c-901b0ededfcf&transaction_id=de9dd61ca53866507eabceddd7197e31,idfa_b0beda19-3441-4b52-b949-d206cc735c56,ja
L1QveInOQcu2cj5SPsrMbA,rulead,5483_2179,Install,0.7,153.230.250.124,17441a01-908a-4bdd-a7f4-10d516a832f8,1558658332,2019-05-24 08:38:52,1558659602,2019-05-24 09:00:02,1558659602,139379ff41057ed6c64f2ee4da31876e,https://cpa.rulead.com/s2s?token=074caac6-5613-11e9-8e3c-901b0ededfcf&transaction_id=139379ff41057ed6c64f2ee4da31876e,idfa_17441a01-908a-4bdd-a7f4-10d516a832f8,ja
L1QveInOQcu2cj5SPsrMbA,rulead,5483_2179,Install,0.7,114.188.208.222,79382238-62a9-4de6-8dc6-4dd75f417b1a,1558659937,2019-05-24 09:05:37,1558660141,2019-05-24 09:09:01,1558660141,90fb3f06718663fb7621540b70995585,https://cpa.rulead.com/s2s?token=074caac6-5613-11e9-8e3c-901b0ededfcf&transaction_id=90fb3f06718663fb7621540b70995585,idfa_79382238-62a9-4de6-8dc6-4dd75f417b1a,ja
L1QveInOQcu2cj5SPsrMbA,rulead,5483_2179,Install,0.7,111.239.183.213,76c193c2-ce2c-4cc9-8de1-ce364b66403d,1558658822,2019-05-24 08:47:02,1558658995,2019-05-24 08:49:55,1558658995,569e8ffa1b12089732dedb5d4b8eddf7,https://cpa.rulead.com/s2s?token=074caac6-5613-11e9-8e3c-901b0ededfcf&transaction_id=569e8ffa1b12089732dedb5d4b8eddf7,idfa_76c193c2-ce2c-4cc9-8de1-ce364b66403d,ja
L1QveInOQcu2cj5SPsrMbA,rulead,5483_2179,Install,0.7,163.58.185.224,e233724e-49d5-436f-be72-42587bfdfa69,1558657847,2019-05-24 08:30:47,1558659463,2019-05-24 08:57:43,1558659463,feeaef33071ef051a25eea43ee508a27,https://cpa.rulead.com/s2s?token=074caac6-5613-11e9-8e3c-901b0ededfcf&transaction_id=feeaef33071ef051a25eea43ee508a27,idfa_e233724e-49d5-436f-be72-42587bfdfa69,ja
L1QveInOQcu2cj5SPsrMbA,rulead,5483_2179,Install,0.7,219.113.126.14,3b957d93-351e-4aff-8aa4-6d2d1d905413,1558659780,2019-05-24 09:03:00,1558659877,2019-05-24 09:04:37,1558659877,3c57d7511b118ba746d4b6688a6ead71,https://cpa.rulead.com/s2s?token=074caac6-5613-11e9-8e3c-901b0ededfcf&transaction_id=3c57d7511b118ba746d4b6688a6ead71,idfa_3b957d93-351e-4aff-8aa4-6d2d1d905413,ja
