cid,partner_id,channel_id,action_id,cpi,ip,idfa,click time,click datetime,install time,install datetime,postback time,click id,postback url,unique user id
L1QveInOQcu2cj5SPsrMbA,rulead,5301_1340,Install,0.7,157.107.83.97,66a2acfc-3332-41c2-8071-197e107413a3,1557017277,2019-05-05 08:47:57,1557017441,2019-05-05 08:50:41,1557017441,3db7a1ef3125faed756c525c805e60ec,https://cpa.rulead.com/s2s?token=074caac6-5613-11e9-8e3c-901b0ededfcf&transaction_id=3db7a1ef3125faed756c525c805e60ec,idfa_66a2acfc-3332-41c2-8071-197e107413a3,ja
L1QveInOQcu2cj5SPsrMbA,rulead,5301_1340,Install,0.7,119.173.88.121,d548da3d-5c8d-495f-86df-b9bd17989ff7,1557016545,2019-05-05 08:35:45,1557016697,2019-05-05 08:38:17,1557016697,d3de76f994fe2d5016aa5ae4eebe431c,https://cpa.rulead.com/s2s?token=074caac6-5613-11e9-8e3c-901b0ededfcf&transaction_id=d3de76f994fe2d5016aa5ae4eebe431c,idfa_d548da3d-5c8d-495f-86df-b9bd17989ff7,ja
L1QveInOQcu2cj5SPsrMbA,rulead,5301_1340,Install,0.7,116.70.143.101,8546ee0d-d777-4381-ad02-1410cf63646e,1557017723,2019-05-05 08:55:23,1557018994,2019-05-05 09:16:34,1557018994,5f9da55f81722e8393591992ffac263f,https://cpa.rulead.com/s2s?token=074caac6-5613-11e9-8e3c-901b0ededfcf&transaction_id=5f9da55f81722e8393591992ffac263f,idfa_8546ee0d-d777-4381-ad02-1410cf63646e,ja
L1QveInOQcu2cj5SPsrMbA,rulead,5301_1340,Install,0.7,114.160.115.104,de61ffb6-bca2-49a1-ac6a-adb2928fce80,1557018491,2019-05-05 09:08:11,1557018630,2019-05-05 09:10:30,1557018630,84384438d4c6c87bd404088988038d0f,https://cpa.rulead.com/s2s?token=074caac6-5613-11e9-8e3c-901b0ededfcf&transaction_id=84384438d4c6c87bd404088988038d0f,idfa_de61ffb6-bca2-49a1-ac6a-adb2928fce80,ja
L1QveInOQcu2cj5SPsrMbA,rulead,5301_1340,Install,0.7,60.104.83.245,572b564b-8a92-49bd-96a3-705d55afc969,1557017341,2019-05-05 08:49:01,1557017522,2019-05-05 08:52:02,1557017522,f27fda50333752ffddb534920e119d66,https://cpa.rulead.com/s2s?token=074caac6-5613-11e9-8e3c-901b0ededfcf&transaction_id=f27fda50333752ffddb534920e119d66,idfa_572b564b-8a92-49bd-96a3-705d55afc969,ja
L1QveInOQcu2cj5SPsrMbA,rulead,5301_1340,Install,0.7,126.121.7.35,38330ba4-83c5-4fe2-aac2-59df2545ed4b,1557016694,2019-05-05 08:38:14,1557016899,2019-05-05 08:41:39,1557016899,3ee3c9563657b34397c45c5cf10c059e,https://cpa.rulead.com/s2s?token=074caac6-5613-11e9-8e3c-901b0ededfcf&transaction_id=3ee3c9563657b34397c45c5cf10c059e,idfa_38330ba4-83c5-4fe2-aac2-59df2545ed4b,ja
L1QveInOQcu2cj5SPsrMbA,rulead,5301_1340,Install,0.7,211.128.197.183,95f7302c-666f-479a-b423-f1bbbea61d07,1557017951,2019-05-05 08:59:11,1557018080,2019-05-05 09:01:20,1557018080,1a6932671da1cc5a9dc46df85efbd7e7,https://cpa.rulead.com/s2s?token=074caac6-5613-11e9-8e3c-901b0ededfcf&transaction_id=1a6932671da1cc5a9dc46df85efbd7e7,idfa_95f7302c-666f-479a-b423-f1bbbea61d07,ja
L1QveInOQcu2cj5SPsrMbA,rulead,5301_1340,Install,0.7,118.240.140.186,a400e00c-bfd5-4a78-bac3-5e3f4953f1ef,1557017970,2019-05-05 08:59:30,1557018109,2019-05-05 09:01:49,1557018109,dd26f62c905a274f714bdb0ae0539463,https://cpa.rulead.com/s2s?token=074caac6-5613-11e9-8e3c-901b0ededfcf&transaction_id=dd26f62c905a274f714bdb0ae0539463,idfa_a400e00c-bfd5-4a78-bac3-5e3f4953f1ef,ja
L1QveInOQcu2cj5SPsrMbA,rulead,5301_1340,Install,0.7,126.241.24.14,2bff4fcd-b882-4a67-923a-00dee7bfe2e4,1557019511,2019-05-05 09:25:11,1557019728,2019-05-05 09:28:48,1557019728,d268501351779e703a1baf2059d2f54f,https://cpa.rulead.com/s2s?token=074caac6-5613-11e9-8e3c-901b0ededfcf&transaction_id=d268501351779e703a1baf2059d2f54f,idfa_2bff4fcd-b882-4a67-923a-00dee7bfe2e4,ja
L1QveInOQcu2cj5SPsrMbA,rulead,5301_1340,Install,0.7,125.1.121.138,4d10bedb-0571-4a42-906a-c4a8f93df9ca,1557016730,2019-05-05 08:38:50,1557016868,2019-05-05 08:41:08,1557016868,6db6c85e4b0c27dca55dd0b64e0048a6,https://cpa.rulead.com/s2s?token=074caac6-5613-11e9-8e3c-901b0ededfcf&transaction_id=6db6c85e4b0c27dca55dd0b64e0048a6,idfa_4d10bedb-0571-4a42-906a-c4a8f93df9ca,ja
L1QveInOQcu2cj5SPsrMbA,rulead,5301_1340,Install,0.7,115.31.86.54,16c996c3-c4eb-4755-b0eb-446faf7cc797,1557019579,2019-05-05 09:26:19,1557019767,2019-05-05 09:29:27,1557019767,1c8d3e75d1846e903c2eab6c874b3a85,https://cpa.rulead.com/s2s?token=074caac6-5613-11e9-8e3c-901b0ededfcf&transaction_id=1c8d3e75d1846e903c2eab6c874b3a85,idfa_16c996c3-c4eb-4755-b0eb-446faf7cc797,ja
L1QveInOQcu2cj5SPsrMbA,rulead,5301_1340,Install,0.7,124.140.91.182,242b19f9-942f-4bcc-8e7f-f28b9ca76c9b,1557017382,2019-05-05 08:49:42,1557017553,2019-05-05 08:52:33,1557017553,726e878e5eea7373f413b22aea4481b2,https://cpa.rulead.com/s2s?token=074caac6-5613-11e9-8e3c-901b0ededfcf&transaction_id=726e878e5eea7373f413b22aea4481b2,idfa_242b19f9-942f-4bcc-8e7f-f28b9ca76c9b,ja
L1QveInOQcu2cj5SPsrMbA,rulead,5301_1340,Install,0.7,27.94.188.216,8cb2a9c2-4981-432a-b7ed-838e263265a1,1557019358,2019-05-05 09:22:38,1557019541,2019-05-05 09:25:41,1557019541,0a7883dfe3b9d382dae2eb22ef17ab36,https://cpa.rulead.com/s2s?token=074caac6-5613-11e9-8e3c-901b0ededfcf&transaction_id=0a7883dfe3b9d382dae2eb22ef17ab36,idfa_8cb2a9c2-4981-432a-b7ed-838e263265a1,ja
L1QveInOQcu2cj5SPsrMbA,rulead,5301_1340,Install,0.7,125.52.80.190,7ca950c3-f918-49f2-a2af-696dea90deb4,1557015833,2019-05-05 08:23:53,1557016031,2019-05-05 08:27:11,1557016031,576772474ad23748fa283769ef7c14d7,https://cpa.rulead.com/s2s?token=074caac6-5613-11e9-8e3c-901b0ededfcf&transaction_id=576772474ad23748fa283769ef7c14d7,idfa_7ca950c3-f918-49f2-a2af-696dea90deb4,ja
L1QveInOQcu2cj5SPsrMbA,rulead,5301_1340,Install,0.7,122.222.95.57,fcedead6-62bb-4441-ab8b-8c46acb5bbb5,1557019018,2019-05-05 09:16:58,1557019173,2019-05-05 09:19:33,1557019173,2f67d6a5a9d431cc5bbe456b0b2c071e,https://cpa.rulead.com/s2s?token=074caac6-5613-11e9-8e3c-901b0ededfcf&transaction_id=2f67d6a5a9d431cc5bbe456b0b2c071e,idfa_fcedead6-62bb-4441-ab8b-8c46acb5bbb5,ja
L1QveInOQcu2cj5SPsrMbA,rulead,5301_1340,Install,0.7,131.213.63.144,d674a928-3475-46f0-9ebc-9dd310a27ece,1557019856,2019-05-05 09:30:56,1557020093,2019-05-05 09:34:53,1557020093,5c924965568f98030efc1f41669b76e6,https://cpa.rulead.com/s2s?token=074caac6-5613-11e9-8e3c-901b0ededfcf&transaction_id=5c924965568f98030efc1f41669b76e6,idfa_d674a928-3475-46f0-9ebc-9dd310a27ece,ja
L1QveInOQcu2cj5SPsrMbA,rulead,5301_1340,Install,0.7,60.35.211.53,c41f170d-279b-490b-b35c-fef4eea3ced1,1557019103,2019-05-05 09:18:23,1557019246,2019-05-05 09:20:46,1557019246,812ba0d2067c47443887e8f9b9435bdc,https://cpa.rulead.com/s2s?token=074caac6-5613-11e9-8e3c-901b0ededfcf&transaction_id=812ba0d2067c47443887e8f9b9435bdc,idfa_c41f170d-279b-490b-b35c-fef4eea3ced1,ja
L1QveInOQcu2cj5SPsrMbA,rulead,5301_1340,Install,0.7,60.32.21.15,30d74212-3e9a-4374-88ea-d328384bf04f,1557016166,2019-05-05 08:29:26,1557016350,2019-05-05 08:32:30,1557016350,0226afcc3117ec15912df8b45905380c,https://cpa.rulead.com/s2s?token=074caac6-5613-11e9-8e3c-901b0ededfcf&transaction_id=0226afcc3117ec15912df8b45905380c,idfa_30d74212-3e9a-4374-88ea-d328384bf04f,ja
L1QveInOQcu2cj5SPsrMbA,rulead,5301_1340,Install,0.7,114.170.0.72,474ba4ef-7647-4207-9c43-0b626f0d0a13,1557019677,2019-05-05 09:27:57,1557019920,2019-05-05 09:32:00,1557019920,230d173b95b6c5132940b5965f2cc554,https://cpa.rulead.com/s2s?token=074caac6-5613-11e9-8e3c-901b0ededfcf&transaction_id=230d173b95b6c5132940b5965f2cc554,idfa_474ba4ef-7647-4207-9c43-0b626f0d0a13,ja
L1QveInOQcu2cj5SPsrMbA,rulead,5301_1340,Install,0.7,114.191.108.151,a20215d8-e740-4155-b33d-b955d49601c9,1557016294,2019-05-05 08:31:34,1557016433,2019-05-05 08:33:53,1557016433,608b0d89ce3e3eeccecfaed81a46b0d4,https://cpa.rulead.com/s2s?token=074caac6-5613-11e9-8e3c-901b0ededfcf&transaction_id=608b0d89ce3e3eeccecfaed81a46b0d4,idfa_a20215d8-e740-4155-b33d-b955d49601c9,ja
L1QveInOQcu2cj5SPsrMbA,rulead,5301_1340,Install,0.7,121.117.138.176,e832165e-1761-4a8b-8c0c-e8a0aafb04f5,1557019096,2019-05-05 09:18:16,1557019543,2019-05-05 09:25:43,1557019543,5420d02b593d8973daa074e00cf26e23,https://cpa.rulead.com/s2s?token=074caac6-5613-11e9-8e3c-901b0ededfcf&transaction_id=5420d02b593d8973daa074e00cf26e23,idfa_e832165e-1761-4a8b-8c0c-e8a0aafb04f5,ja
L1QveInOQcu2cj5SPsrMbA,rulead,5301_1340,Install,0.7,60.124.49.181,bf6af3d7-8378-42c2-aa13-ced3d84f60e5,1557016339,2019-05-05 08:32:19,1557016482,2019-05-05 08:34:42,1557016482,4cbccfb1fde54eb1f317d374205fc835,https://cpa.rulead.com/s2s?token=074caac6-5613-11e9-8e3c-901b0ededfcf&transaction_id=4cbccfb1fde54eb1f317d374205fc835,idfa_bf6af3d7-8378-42c2-aa13-ced3d84f60e5,ja
L1QveInOQcu2cj5SPsrMbA,rulead,5301_1340,Install,0.7,223.133.192.61,5053e133-e750-4887-a996-418585834160,1557016843,2019-05-05 08:40:43,1557016970,2019-05-05 08:42:50,1557016970,d75bab2c95067e2b231a4ebec9385043,https://cpa.rulead.com/s2s?token=074caac6-5613-11e9-8e3c-901b0ededfcf&transaction_id=d75bab2c95067e2b231a4ebec9385043,idfa_5053e133-e750-4887-a996-418585834160,ja
L1QveInOQcu2cj5SPsrMbA,rulead,5301_1340,Install,0.7,180.196.70.38,d33f9ffc-670f-43aa-ad4b-3c9b7f42c5ff,1557018938,2019-05-05 09:15:38,1557019128,2019-05-05 09:18:48,1557019128,427532b8d85fc4ff724fbb51337fa687,https://cpa.rulead.com/s2s?token=074caac6-5613-11e9-8e3c-901b0ededfcf&transaction_id=427532b8d85fc4ff724fbb51337fa687,idfa_d33f9ffc-670f-43aa-ad4b-3c9b7f42c5ff,ja
L1QveInOQcu2cj5SPsrMbA,rulead,5301_1340,Install,0.7,126.141.201.167,6ae95816-bb19-4ff9-85fb-5723f861a12e,1557017395,2019-05-05 08:49:55,1557017540,2019-05-05 08:52:20,1557017540,107999ab217d1c453c235a99a4510c57,https://cpa.rulead.com/s2s?token=074caac6-5613-11e9-8e3c-901b0ededfcf&transaction_id=107999ab217d1c453c235a99a4510c57,idfa_6ae95816-bb19-4ff9-85fb-5723f861a12e,ja
L1QveInOQcu2cj5SPsrMbA,rulead,5301_1340,Install,0.7,58.1.204.103,5d18a662-8250-4ce7-8a67-93ec0a64162e,1557018126,2019-05-05 09:02:06,1557018341,2019-05-05 09:05:41,1557018341,f58209a77bc0fb4bf13414a473d3b020,https://cpa.rulead.com/s2s?token=074caac6-5613-11e9-8e3c-901b0ededfcf&transaction_id=f58209a77bc0fb4bf13414a473d3b020,idfa_5d18a662-8250-4ce7-8a67-93ec0a64162e,ja
L1QveInOQcu2cj5SPsrMbA,rulead,5301_1340,Install,0.7,121.200.180.104,569b16e4-8a3b-4697-bf6f-d2bb6102cefd,1557015940,2019-05-05 08:25:40,1557016091,2019-05-05 08:28:11,1557016091,69badb3b40218169273d29dc5fa13fc4,https://cpa.rulead.com/s2s?token=074caac6-5613-11e9-8e3c-901b0ededfcf&transaction_id=69badb3b40218169273d29dc5fa13fc4,idfa_569b16e4-8a3b-4697-bf6f-d2bb6102cefd,ja
L1QveInOQcu2cj5SPsrMbA,rulead,5301_1340,Install,0.7,182.165.132.14,a044b1bc-e0b1-4722-bc35-6ddd224a146b,1557018557,2019-05-05 09:09:17,1557018686,2019-05-05 09:11:26,1557018686,2349628440bfa68b5138f231d9d5894c,https://cpa.rulead.com/s2s?token=074caac6-5613-11e9-8e3c-901b0ededfcf&transaction_id=2349628440bfa68b5138f231d9d5894c,idfa_a044b1bc-e0b1-4722-bc35-6ddd224a146b,ja
L1QveInOQcu2cj5SPsrMbA,rulead,5301_1340,Install,0.7,219.105.127.223,177a4f1e-cdb5-4738-8d63-669a5a387895,1557017940,2019-05-05 08:59:00,1557018106,2019-05-05 09:01:46,1557018106,d7ca35a139cb3f183337c1ee6a682145,https://cpa.rulead.com/s2s?token=074caac6-5613-11e9-8e3c-901b0ededfcf&transaction_id=d7ca35a139cb3f183337c1ee6a682145,idfa_177a4f1e-cdb5-4738-8d63-669a5a387895,ja
L1QveInOQcu2cj5SPsrMbA,rulead,5301_1340,Install,0.7,210.237.99.225,fb3ba3e9-59fc-4598-9cf9-a41b7f3599ed,1557016616,2019-05-05 08:36:56,1557017423,2019-05-05 08:50:23,1557017423,1bf8c4e8aad71fb1ddb0fb594821afa2,https://cpa.rulead.com/s2s?token=074caac6-5613-11e9-8e3c-901b0ededfcf&transaction_id=1bf8c4e8aad71fb1ddb0fb594821afa2,idfa_fb3ba3e9-59fc-4598-9cf9-a41b7f3599ed,ja
L1QveInOQcu2cj5SPsrMbA,rulead,5301_1340,Install,0.7,121.102.9.133,41a9df74-6b1e-4490-9e0c-8845d1108bbc,1557018185,2019-05-05 09:03:05,1557018324,2019-05-05 09:05:24,1557018324,aca70065a6c2a34b1739a3802772d9f0,https://cpa.rulead.com/s2s?token=074caac6-5613-11e9-8e3c-901b0ededfcf&transaction_id=aca70065a6c2a34b1739a3802772d9f0,idfa_41a9df74-6b1e-4490-9e0c-8845d1108bbc,ja
L1QveInOQcu2cj5SPsrMbA,rulead,5301_1340,Install,0.7,118.241.133.192,94f7e218-59f4-42fb-b008-9a482462100d,1557018532,2019-05-05 09:08:52,1557018686,2019-05-05 09:11:26,1557018686,faf4f8eae7137a10754a3a836abe40af,https://cpa.rulead.com/s2s?token=074caac6-5613-11e9-8e3c-901b0ededfcf&transaction_id=faf4f8eae7137a10754a3a836abe40af,idfa_94f7e218-59f4-42fb-b008-9a482462100d,ja
L1QveInOQcu2cj5SPsrMbA,rulead,5301_1340,Install,0.7,60.34.167.103,13d7b2ea-9866-4473-a720-82b5968ce910,1557016641,2019-05-05 08:37:21,1557016798,2019-05-05 08:39:58,1557016798,0056d24290436a04b6a42607e474bab0,https://cpa.rulead.com/s2s?token=074caac6-5613-11e9-8e3c-901b0ededfcf&transaction_id=0056d24290436a04b6a42607e474bab0,idfa_13d7b2ea-9866-4473-a720-82b5968ce910,ja
L1QveInOQcu2cj5SPsrMbA,rulead,5301_1340,Install,0.7,118.240.200.158,6c634782-9784-436c-ad28-a083caa849c7,1557016972,2019-05-05 08:42:52,1557017107,2019-05-05 08:45:07,1557017107,514f5b6616c862199958dd656d96a6b5,https://cpa.rulead.com/s2s?token=074caac6-5613-11e9-8e3c-901b0ededfcf&transaction_id=514f5b6616c862199958dd656d96a6b5,idfa_6c634782-9784-436c-ad28-a083caa849c7,ja
