cid,partner_id,channel_id,action_id,cpi,ip,idfa,click time,click datetime,install time,install datetime,postback time,click id,postback url,unique user id
L1QveInOQcu2cj5SPsrMbA,rulead,5301_2218,Install,0.7,202.215.107.12,d1de3bbc-0cfa-443d-9420-48af0f2bd6a1,1557027719,2019-05-05 11:41:59,1557027862,2019-05-05 11:44:22,1557027862,e44224803ce581803d34409d83ef7f07,https://cpa.rulead.com/s2s?token=074caac6-5613-11e9-8e3c-901b0ededfcf&transaction_id=e44224803ce581803d34409d83ef7f07,idfa_d1de3bbc-0cfa-443d-9420-48af0f2bd6a1,ja
L1QveInOQcu2cj5SPsrMbA,rulead,5301_2218,Install,0.7,153.200.66.124,23fb943d-5af2-4588-8fa9-843ca158a6b2,1557025922,2019-05-05 11:12:02,1557026156,2019-05-05 11:15:56,1557026156,da2c45385dddee7acef9fd4630307260,https://cpa.rulead.com/s2s?token=074caac6-5613-11e9-8e3c-901b0ededfcf&transaction_id=da2c45385dddee7acef9fd4630307260,idfa_23fb943d-5af2-4588-8fa9-843ca158a6b2,ja
L1QveInOQcu2cj5SPsrMbA,rulead,5301_2218,Install,0.7,130.69.244.64,15d0fdd5-746b-47d5-ab92-d6ccb0ead958,1557022102,2019-05-05 10:08:22,1557022252,2019-05-05 10:10:52,1557022252,0c80e1627814ef88e04c5bd8d9611fbc,https://cpa.rulead.com/s2s?token=074caac6-5613-11e9-8e3c-901b0ededfcf&transaction_id=0c80e1627814ef88e04c5bd8d9611fbc,idfa_15d0fdd5-746b-47d5-ab92-d6ccb0ead958,ja
L1QveInOQcu2cj5SPsrMbA,rulead,5301_2218,Install,0.7,133.200.38.96,9ec1b6cc-aade-4f3e-a353-6ba200e3ff8b,1557025630,2019-05-05 11:07:10,1557025817,2019-05-05 11:10:17,1557025817,9de1853540f70c51c3d9116490596e85,https://cpa.rulead.com/s2s?token=074caac6-5613-11e9-8e3c-901b0ededfcf&transaction_id=9de1853540f70c51c3d9116490596e85,idfa_9ec1b6cc-aade-4f3e-a353-6ba200e3ff8b,ja
L1QveInOQcu2cj5SPsrMbA,rulead,5301_2218,Install,0.7,14.9.149.224,9e493d6d-6e31-4a74-935a-b5818fa302b1,1557025513,2019-05-05 11:05:13,1557025654,2019-05-05 11:07:34,1557025654,01467fddc7d54be7415390197ee953ad,https://cpa.rulead.com/s2s?token=074caac6-5613-11e9-8e3c-901b0ededfcf&transaction_id=01467fddc7d54be7415390197ee953ad,idfa_9e493d6d-6e31-4a74-935a-b5818fa302b1,ja
L1QveInOQcu2cj5SPsrMbA,rulead,5301_2218,Install,0.7,114.171.5.80,d600df80-303e-4509-af55-b18df3d1e758,1557029541,2019-05-05 12:12:21,1557029701,2019-05-05 12:15:01,1557029701,8b0e4d16544ec7a539bcc1cf6acfbf36,https://cpa.rulead.com/s2s?token=074caac6-5613-11e9-8e3c-901b0ededfcf&transaction_id=8b0e4d16544ec7a539bcc1cf6acfbf36,idfa_d600df80-303e-4509-af55-b18df3d1e758,ja
L1QveInOQcu2cj5SPsrMbA,rulead,5301_2218,Install,0.7,219.107.108.240,2c72519d-0374-40f6-912a-6d85d42acb2c,1557024855,2019-05-05 10:54:15,1557024985,2019-05-05 10:56:25,1557024985,1e265a96218e4a803ff2fd78220419fc,https://cpa.rulead.com/s2s?token=074caac6-5613-11e9-8e3c-901b0ededfcf&transaction_id=1e265a96218e4a803ff2fd78220419fc,idfa_2c72519d-0374-40f6-912a-6d85d42acb2c,ja
L1QveInOQcu2cj5SPsrMbA,rulead,5301_2218,Install,0.7,153.227.96.96,27182068-222d-4d4f-9d56-b14b39ab9ff3,1557030756,2019-05-05 12:32:36,1557030938,2019-05-05 12:35:38,1557030938,704921106c9f3b53e727dd9656c1c8d6,https://cpa.rulead.com/s2s?token=074caac6-5613-11e9-8e3c-901b0ededfcf&transaction_id=704921106c9f3b53e727dd9656c1c8d6,idfa_27182068-222d-4d4f-9d56-b14b39ab9ff3,ja
L1QveInOQcu2cj5SPsrMbA,rulead,5301_2218,Install,0.7,60.65.127.95,e049095e-2ad2-4bb1-aa58-ae0aac8ada40,1557030250,2019-05-05 12:24:10,1557030368,2019-05-05 12:26:08,1557030368,0d1ea2a0af56674d138db4315b2931b0,https://cpa.rulead.com/s2s?token=074caac6-5613-11e9-8e3c-901b0ededfcf&transaction_id=0d1ea2a0af56674d138db4315b2931b0,idfa_e049095e-2ad2-4bb1-aa58-ae0aac8ada40,ja
L1QveInOQcu2cj5SPsrMbA,rulead,5301_2218,Install,0.7,175.177.41.47,739db1fe-026f-4133-986e-a62722223f20,1557029815,2019-05-05 12:16:55,1557029959,2019-05-05 12:19:19,1557029959,845dc1fda65f65a30567b23e75ea0d77,https://cpa.rulead.com/s2s?token=074caac6-5613-11e9-8e3c-901b0ededfcf&transaction_id=845dc1fda65f65a30567b23e75ea0d77,idfa_739db1fe-026f-4133-986e-a62722223f20,ja
L1QveInOQcu2cj5SPsrMbA,rulead,5301_2218,Install,0.7,60.90.68.76,68cb6c79-4686-4eee-8774-64d18bcfce8c,1557026256,2019-05-05 11:17:36,1557026417,2019-05-05 11:20:17,1557026417,51d9de909e81ee521b7cc8da19a74589,https://cpa.rulead.com/s2s?token=074caac6-5613-11e9-8e3c-901b0ededfcf&transaction_id=51d9de909e81ee521b7cc8da19a74589,idfa_68cb6c79-4686-4eee-8774-64d18bcfce8c,ja
L1QveInOQcu2cj5SPsrMbA,rulead,5301_2218,Install,0.7,121.92.246.253,e689d72c-4b5c-4c3c-836d-94307c7a4b51,1557030846,2019-05-05 12:34:06,1557031208,2019-05-05 12:40:08,1557031208,e8f76d1eeb2e266eb3b24d302e22ce41,https://cpa.rulead.com/s2s?token=074caac6-5613-11e9-8e3c-901b0ededfcf&transaction_id=e8f76d1eeb2e266eb3b24d302e22ce41,idfa_e689d72c-4b5c-4c3c-836d-94307c7a4b51,ja
L1QveInOQcu2cj5SPsrMbA,rulead,5301_2218,Install,0.7,121.103.216.230,cacc7f5a-a69d-430d-8399-bbbdf4bbc56a,1557027928,2019-05-05 11:45:28,1557028029,2019-05-05 11:47:09,1557028029,2b11c15765bb77b69122747e1db7936f,https://cpa.rulead.com/s2s?token=074caac6-5613-11e9-8e3c-901b0ededfcf&transaction_id=2b11c15765bb77b69122747e1db7936f,idfa_cacc7f5a-a69d-430d-8399-bbbdf4bbc56a,ja
L1QveInOQcu2cj5SPsrMbA,rulead,5301_2218,Install,0.7,182.168.83.20,b298715f-8bc5-4c85-8bc5-96a0a4f00861,1557025071,2019-05-05 10:57:51,1557025333,2019-05-05 11:02:13,1557025333,84407765c1e477ae1c4b0ea21e5d588c,https://cpa.rulead.com/s2s?token=074caac6-5613-11e9-8e3c-901b0ededfcf&transaction_id=84407765c1e477ae1c4b0ea21e5d588c,idfa_b298715f-8bc5-4c85-8bc5-96a0a4f00861,ja
L1QveInOQcu2cj5SPsrMbA,rulead,5301_2218,Install,0.7,114.161.217.28,166c0101-accd-480e-959f-b0e32171668f,1557028430,2019-05-05 11:53:50,1557028538,2019-05-05 11:55:38,1557028538,f8c8868a574ac7e80595024a1d56c5dd,https://cpa.rulead.com/s2s?token=074caac6-5613-11e9-8e3c-901b0ededfcf&transaction_id=f8c8868a574ac7e80595024a1d56c5dd,idfa_166c0101-accd-480e-959f-b0e32171668f,ja
L1QveInOQcu2cj5SPsrMbA,rulead,5301_2218,Install,0.7,153.192.106.245,9b650978-0b9f-4ee2-9447-9bf6b86bf18f,1557027434,2019-05-05 11:37:14,1557027545,2019-05-05 11:39:05,1557027545,099bf086dd357ef66e5db66ba11377af,https://cpa.rulead.com/s2s?token=074caac6-5613-11e9-8e3c-901b0ededfcf&transaction_id=099bf086dd357ef66e5db66ba11377af,idfa_9b650978-0b9f-4ee2-9447-9bf6b86bf18f,ja
L1QveInOQcu2cj5SPsrMbA,rulead,5301_2218,Install,0.7,118.159.6.227,20890f49-96c1-46b2-a9ad-25170a4166c7,1557033797,2019-05-05 13:23:17,1557033939,2019-05-05 13:25:39,1557033939,6edbc3083f57ca936ef44880327c6bb8,https://cpa.rulead.com/s2s?token=074caac6-5613-11e9-8e3c-901b0ededfcf&transaction_id=6edbc3083f57ca936ef44880327c6bb8,idfa_20890f49-96c1-46b2-a9ad-25170a4166c7,ja
L1QveInOQcu2cj5SPsrMbA,rulead,5301_2218,Install,0.7,124.142.135.201,06c5dfb3-2627-4ee7-936d-73e6026dcc79,1557026914,2019-05-05 11:28:34,1557027065,2019-05-05 11:31:05,1557027065,a8dcd7cc87eb5e22d5f9815b9d49a912,https://cpa.rulead.com/s2s?token=074caac6-5613-11e9-8e3c-901b0ededfcf&transaction_id=a8dcd7cc87eb5e22d5f9815b9d49a912,idfa_06c5dfb3-2627-4ee7-936d-73e6026dcc79,ja
L1QveInOQcu2cj5SPsrMbA,rulead,5301_2218,Install,0.7,180.145.178.239,3d3ee017-84c6-4abb-b6d9-85440ca6f95c,1557030794,2019-05-05 12:33:14,1557030979,2019-05-05 12:36:19,1557030979,f2e5cf69853bb0a4242dc4889f8a8831,https://cpa.rulead.com/s2s?token=074caac6-5613-11e9-8e3c-901b0ededfcf&transaction_id=f2e5cf69853bb0a4242dc4889f8a8831,idfa_3d3ee017-84c6-4abb-b6d9-85440ca6f95c,ja
L1QveInOQcu2cj5SPsrMbA,rulead,5301_2218,Install,0.7,130.34.22.98,1675e9fd-0f2f-48dd-9de9-6cd13802aa13,1557029094,2019-05-05 12:04:54,1557029267,2019-05-05 12:07:47,1557029267,2cbdd9d3d24f60898d9a1600b5374190,https://cpa.rulead.com/s2s?token=074caac6-5613-11e9-8e3c-901b0ededfcf&transaction_id=2cbdd9d3d24f60898d9a1600b5374190,idfa_1675e9fd-0f2f-48dd-9de9-6cd13802aa13,ja
L1QveInOQcu2cj5SPsrMbA,rulead,5301_2218,Install,0.7,60.127.54.51,abfde3f4-55f3-4451-b223-a005cf1d5d6d,1557024603,2019-05-05 10:50:03,1557024764,2019-05-05 10:52:44,1557024764,a9949ae6de1f2e11c1058677628b667b,https://cpa.rulead.com/s2s?token=074caac6-5613-11e9-8e3c-901b0ededfcf&transaction_id=a9949ae6de1f2e11c1058677628b667b,idfa_abfde3f4-55f3-4451-b223-a005cf1d5d6d,ja
L1QveInOQcu2cj5SPsrMbA,rulead,5301_2218,Install,0.7,125.197.18.94,33ac60d5-3a0f-4d11-89d2-1925311b7c06,1557027831,2019-05-05 11:43:51,1557028017,2019-05-05 11:46:57,1557028017,5e0339745d5b25a0fac95ada50d47da0,https://cpa.rulead.com/s2s?token=074caac6-5613-11e9-8e3c-901b0ededfcf&transaction_id=5e0339745d5b25a0fac95ada50d47da0,idfa_33ac60d5-3a0f-4d11-89d2-1925311b7c06,ja
L1QveInOQcu2cj5SPsrMbA,rulead,5301_2218,Install,0.7,60.104.83.245,e13c4a6b-86d4-4155-869e-3a059cd9f574,1557033826,2019-05-05 13:23:46,1557033986,2019-05-05 13:26:26,1557033986,bdd4eb8b676cbf0cf0b3b8d5d1d97170,https://cpa.rulead.com/s2s?token=074caac6-5613-11e9-8e3c-901b0ededfcf&transaction_id=bdd4eb8b676cbf0cf0b3b8d5d1d97170,idfa_e13c4a6b-86d4-4155-869e-3a059cd9f574,ja
L1QveInOQcu2cj5SPsrMbA,rulead,5301_2218,Install,0.7,14.232.163.135,efb0ea80-11f2-44fa-91fd-5b206d2ebd42,1557024042,2019-05-05 10:40:42,1557024161,2019-05-05 10:42:41,1557024161,2cbf77110683e5b5437637785b82c908,https://cpa.rulead.com/s2s?token=074caac6-5613-11e9-8e3c-901b0ededfcf&transaction_id=2cbf77110683e5b5437637785b82c908,idfa_efb0ea80-11f2-44fa-91fd-5b206d2ebd42,ja
L1QveInOQcu2cj5SPsrMbA,rulead,5301_2218,Install,0.7,182.166.14.198,dc3c383a-0b88-4d93-bc7b-4f4a8a67139e,1557028995,2019-05-05 12:03:15,1557029127,2019-05-05 12:05:27,1557029127,3bdda925badae2d10a1cf9abca774012,https://cpa.rulead.com/s2s?token=074caac6-5613-11e9-8e3c-901b0ededfcf&transaction_id=3bdda925badae2d10a1cf9abca774012,idfa_dc3c383a-0b88-4d93-bc7b-4f4a8a67139e,ja
L1QveInOQcu2cj5SPsrMbA,rulead,5301_2218,Install,0.7,14.13.129.64,fdce5e9f-3c8a-481f-808d-e66ab2a7fecf,1557033174,2019-05-05 13:12:54,1557033393,2019-05-05 13:16:33,1557033393,ea6ba1cedbbd24c51dbf12d35235e421,https://cpa.rulead.com/s2s?token=074caac6-5613-11e9-8e3c-901b0ededfcf&transaction_id=ea6ba1cedbbd24c51dbf12d35235e421,idfa_fdce5e9f-3c8a-481f-808d-e66ab2a7fecf,ja
L1QveInOQcu2cj5SPsrMbA,rulead,5301_2218,Install,0.7,180.200.65.212,37c1ff08-2c32-45e0-88cc-9eabc5f1b2fe,1557032907,2019-05-05 13:08:27,1557033052,2019-05-05 13:10:52,1557033052,2c076d34ade1badd4a7ca5e8e2f69d96,https://cpa.rulead.com/s2s?token=074caac6-5613-11e9-8e3c-901b0ededfcf&transaction_id=2c076d34ade1badd4a7ca5e8e2f69d96,idfa_37c1ff08-2c32-45e0-88cc-9eabc5f1b2fe,ja
L1QveInOQcu2cj5SPsrMbA,rulead,5301_2218,Install,0.7,150.249.169.198,25a60917-67ab-468a-a76e-bc9390a200d0,1557030533,2019-05-05 12:28:53,1557030741,2019-05-05 12:32:21,1557030741,d820665237d23561268249f29c5399c9,https://cpa.rulead.com/s2s?token=074caac6-5613-11e9-8e3c-901b0ededfcf&transaction_id=d820665237d23561268249f29c5399c9,idfa_25a60917-67ab-468a-a76e-bc9390a200d0,ja
L1QveInOQcu2cj5SPsrMbA,rulead,5301_2218,Install,0.7,114.154.244.7,22f428e2-870a-4143-aa7c-f8dfa75cda00,1557031739,2019-05-05 12:48:59,1557031946,2019-05-05 12:52:26,1557031946,a3b06a8c31359eed0dc780215e9a75d2,https://cpa.rulead.com/s2s?token=074caac6-5613-11e9-8e3c-901b0ededfcf&transaction_id=a3b06a8c31359eed0dc780215e9a75d2,idfa_22f428e2-870a-4143-aa7c-f8dfa75cda00,ja
L1QveInOQcu2cj5SPsrMbA,rulead,5301_2218,Install,0.7,61.7.39.188,841dc909-c725-41c8-8132-649df899345e,1557025998,2019-05-05 11:13:18,1557026152,2019-05-05 11:15:52,1557026152,c3502cf29c815b8c8ea873e44b5c8165,https://cpa.rulead.com/s2s?token=074caac6-5613-11e9-8e3c-901b0ededfcf&transaction_id=c3502cf29c815b8c8ea873e44b5c8165,idfa_841dc909-c725-41c8-8132-649df899345e,ja
L1QveInOQcu2cj5SPsrMbA,rulead,5301_2218,Install,0.7,61.213.34.35,6ae0f55f-4572-4cd1-9d89-7d763cff16e6,1557024402,2019-05-05 10:46:42,1557024581,2019-05-05 10:49:41,1557024581,325d53d2cd06b22abfd96433424f0840,https://cpa.rulead.com/s2s?token=074caac6-5613-11e9-8e3c-901b0ededfcf&transaction_id=325d53d2cd06b22abfd96433424f0840,idfa_6ae0f55f-4572-4cd1-9d89-7d763cff16e6,ja
L1QveInOQcu2cj5SPsrMbA,rulead,5301_2218,Install,0.7,218.47.244.22,f76ede33-f4d6-45db-905c-28a01367d2e6,1557026968,2019-05-05 11:29:28,1557027167,2019-05-05 11:32:47,1557027167,89b8d1ba0664a1409fc4d0acf5babdb9,https://cpa.rulead.com/s2s?token=074caac6-5613-11e9-8e3c-901b0ededfcf&transaction_id=89b8d1ba0664a1409fc4d0acf5babdb9,idfa_f76ede33-f4d6-45db-905c-28a01367d2e6,ja
L1QveInOQcu2cj5SPsrMbA,rulead,5301_2218,Install,0.7,180.16.122.94,ecf61676-12ea-475c-9296-412b7cf7e877,1557028399,2019-05-05 11:53:19,1557028556,2019-05-05 11:55:56,1557028556,117e2190f35c299a3319e27c501535ed,https://cpa.rulead.com/s2s?token=074caac6-5613-11e9-8e3c-901b0ededfcf&transaction_id=117e2190f35c299a3319e27c501535ed,idfa_ecf61676-12ea-475c-9296-412b7cf7e877,ja
L1QveInOQcu2cj5SPsrMbA,rulead,5301_2218,Install,0.7,118.21.88.211,d54d6a3b-9d32-48cd-ae49-e87724707761,1557033583,2019-05-05 13:19:43,1557033682,2019-05-05 13:21:22,1557033682,cc6f9615ac6b8a92d75f63007c600e8e,https://cpa.rulead.com/s2s?token=074caac6-5613-11e9-8e3c-901b0ededfcf&transaction_id=cc6f9615ac6b8a92d75f63007c600e8e,idfa_d54d6a3b-9d32-48cd-ae49-e87724707761,ja
L1QveInOQcu2cj5SPsrMbA,rulead,5301_2218,Install,0.7,180.57.203.90,7397e3cf-776d-4296-b18d-1e0c6c130d59,1557022743,2019-05-05 10:19:03,1557022912,2019-05-05 10:21:52,1557022912,bc703b4b5361805ee6146454e122fac5,https://cpa.rulead.com/s2s?token=074caac6-5613-11e9-8e3c-901b0ededfcf&transaction_id=bc703b4b5361805ee6146454e122fac5,idfa_7397e3cf-776d-4296-b18d-1e0c6c130d59,ja
L1QveInOQcu2cj5SPsrMbA,rulead,5301_2218,Install,0.7,118.156.112.220,7dc9a514-879c-40c9-b93d-e1a149ec1563,1557028924,2019-05-05 12:02:04,1557029042,2019-05-05 12:04:02,1557029042,cab1fe1d22652015f0fdc0d4c786ce71,https://cpa.rulead.com/s2s?token=074caac6-5613-11e9-8e3c-901b0ededfcf&transaction_id=cab1fe1d22652015f0fdc0d4c786ce71,idfa_7dc9a514-879c-40c9-b93d-e1a149ec1563,ja
L1QveInOQcu2cj5SPsrMbA,rulead,5301_2218,Install,0.7,118.159.6.227,f69db649-ef8e-4a26-b2c4-44cb1f152f26,1557026952,2019-05-05 11:29:12,1557027106,2019-05-05 11:31:46,1557027106,9e86d49da71ad888a4d5f9d6b28e186a,https://cpa.rulead.com/s2s?token=074caac6-5613-11e9-8e3c-901b0ededfcf&transaction_id=9e86d49da71ad888a4d5f9d6b28e186a,idfa_f69db649-ef8e-4a26-b2c4-44cb1f152f26,ja
L1QveInOQcu2cj5SPsrMbA,rulead,5301_2218,Install,0.7,1.21.56.222,08fe5daa-1c09-49d0-9f6c-fba74d13a3e4,1557033190,2019-05-05 13:13:10,1557033392,2019-05-05 13:16:32,1557033392,a08c7a696a202866614074d4fc05a32c,https://cpa.rulead.com/s2s?token=074caac6-5613-11e9-8e3c-901b0ededfcf&transaction_id=a08c7a696a202866614074d4fc05a32c,idfa_08fe5daa-1c09-49d0-9f6c-fba74d13a3e4,ja
L1QveInOQcu2cj5SPsrMbA,rulead,5301_2218,Install,0.7,125.30.5.143,2d5b3a33-ee8c-46fe-8fe1-0c2c11e0e606,1557024906,2019-05-05 10:55:06,1557025024,2019-05-05 10:57:04,1557025024,7587992b624c047296156354830545c6,https://cpa.rulead.com/s2s?token=074caac6-5613-11e9-8e3c-901b0ededfcf&transaction_id=7587992b624c047296156354830545c6,idfa_2d5b3a33-ee8c-46fe-8fe1-0c2c11e0e606,ja
L1QveInOQcu2cj5SPsrMbA,rulead,5301_2218,Install,0.7,126.164.139.27,2b4719d8-e275-438a-9e22-636897c7b981,1557022098,2019-05-05 10:08:18,1557022307,2019-05-05 10:11:47,1557022307,e45a3f84bf763c08bd919f4b760e7ca7,https://cpa.rulead.com/s2s?token=074caac6-5613-11e9-8e3c-901b0ededfcf&transaction_id=e45a3f84bf763c08bd919f4b760e7ca7,idfa_2b4719d8-e275-438a-9e22-636897c7b981,ja
L1QveInOQcu2cj5SPsrMbA,rulead,5301_2218,Install,0.7,58.89.37.209,db8f57d5-cfc2-49d6-848d-f789faa18b79,1557033106,2019-05-05 13:11:46,1557033239,2019-05-05 13:13:59,1557033239,3b5889eb91007909db8b729861be0173,https://cpa.rulead.com/s2s?token=074caac6-5613-11e9-8e3c-901b0ededfcf&transaction_id=3b5889eb91007909db8b729861be0173,idfa_db8f57d5-cfc2-49d6-848d-f789faa18b79,ja
L1QveInOQcu2cj5SPsrMbA,rulead,5301_2218,Install,0.7,60.117.93.224,124f2e3a-269e-4813-980d-5032cf030516,1557029020,2019-05-05 12:03:40,1557029155,2019-05-05 12:05:55,1557029155,989a57c99e84a5a07286aba4443948fa,https://cpa.rulead.com/s2s?token=074caac6-5613-11e9-8e3c-901b0ededfcf&transaction_id=989a57c99e84a5a07286aba4443948fa,idfa_124f2e3a-269e-4813-980d-5032cf030516,ja
L1QveInOQcu2cj5SPsrMbA,rulead,5301_2218,Install,0.7,27.81.207.122,c9b9353e-0644-4e0d-a9bd-56297b88dc0c,1557023067,2019-05-05 10:24:27,1557023274,2019-05-05 10:27:54,1557023274,84942e751cbde2f3336a2cfe52c0248d,https://cpa.rulead.com/s2s?token=074caac6-5613-11e9-8e3c-901b0ededfcf&transaction_id=84942e751cbde2f3336a2cfe52c0248d,idfa_c9b9353e-0644-4e0d-a9bd-56297b88dc0c,ja
L1QveInOQcu2cj5SPsrMbA,rulead,5301_2218,Install,0.7,106.159.161.28,c3afe269-c2a6-4720-bc17-5cfc8ff3e098,1557022327,2019-05-05 10:12:07,1557022607,2019-05-05 10:16:47,1557022607,e4bf1e0961664e7cca328a8d0454cec2,https://cpa.rulead.com/s2s?token=074caac6-5613-11e9-8e3c-901b0ededfcf&transaction_id=e4bf1e0961664e7cca328a8d0454cec2,idfa_c3afe269-c2a6-4720-bc17-5cfc8ff3e098,ja
L1QveInOQcu2cj5SPsrMbA,rulead,5301_2218,Install,0.7,222.2.166.37,23a80ed8-984f-4e30-9c74-efa914fced64,1557031581,2019-05-05 12:46:21,1557031709,2019-05-05 12:48:29,1557031709,d04f88d26c3825ae2ec22560aadddab8,https://cpa.rulead.com/s2s?token=074caac6-5613-11e9-8e3c-901b0ededfcf&transaction_id=d04f88d26c3825ae2ec22560aadddab8,idfa_23a80ed8-984f-4e30-9c74-efa914fced64,ja
L1QveInOQcu2cj5SPsrMbA,rulead,5301_2218,Install,0.7,221.133.83.67,0e6bcf3e-5b50-4b24-9133-e5c9f6f1ca2d,1557026625,2019-05-05 11:23:45,1557026765,2019-05-05 11:26:05,1557026765,79eff23f234d045136ab5f09ae0b887b,https://cpa.rulead.com/s2s?token=074caac6-5613-11e9-8e3c-901b0ededfcf&transaction_id=79eff23f234d045136ab5f09ae0b887b,idfa_0e6bcf3e-5b50-4b24-9133-e5c9f6f1ca2d,ja
L1QveInOQcu2cj5SPsrMbA,rulead,5301_2218,Install,0.7,119.230.185.4,12e17b04-e00d-4c0a-871f-621e14551b33,1557029533,2019-05-05 12:12:13,1557029669,2019-05-05 12:14:29,1557029669,c50e4e6736aeba5516780db65e9f3c7a,https://cpa.rulead.com/s2s?token=074caac6-5613-11e9-8e3c-901b0ededfcf&transaction_id=c50e4e6736aeba5516780db65e9f3c7a,idfa_12e17b04-e00d-4c0a-871f-621e14551b33,ja
L1QveInOQcu2cj5SPsrMbA,rulead,5301_2218,Install,0.7,153.145.8.219,9d02839d-045d-4567-92dd-d17a175a9a5c,1557029042,2019-05-05 12:04:02,1557029149,2019-05-05 12:05:49,1557029149,e9ed0b6a21024fd40696645baa1664b8,https://cpa.rulead.com/s2s?token=074caac6-5613-11e9-8e3c-901b0ededfcf&transaction_id=e9ed0b6a21024fd40696645baa1664b8,idfa_9d02839d-045d-4567-92dd-d17a175a9a5c,ja
L1QveInOQcu2cj5SPsrMbA,rulead,5301_2218,Install,0.7,202.215.211.18,1bbf81a9-340b-48dc-92e6-d9492353d79e,1557027387,2019-05-05 11:36:27,1557027495,2019-05-05 11:38:15,1557027495,f60efce533a4d27b98a2a0d083a45b87,https://cpa.rulead.com/s2s?token=074caac6-5613-11e9-8e3c-901b0ededfcf&transaction_id=f60efce533a4d27b98a2a0d083a45b87,idfa_1bbf81a9-340b-48dc-92e6-d9492353d79e,ja
L1QveInOQcu2cj5SPsrMbA,rulead,5301_2218,Install,0.7,110.134.238.215,9783c00a-a9a9-4aa7-86a5-89168c2cb356,1557028452,2019-05-05 11:54:12,1557028608,2019-05-05 11:56:48,1557028608,aeb407b9954ee2a997b6db4c2b57bf74,https://cpa.rulead.com/s2s?token=074caac6-5613-11e9-8e3c-901b0ededfcf&transaction_id=aeb407b9954ee2a997b6db4c2b57bf74,idfa_9783c00a-a9a9-4aa7-86a5-89168c2cb356,ja
L1QveInOQcu2cj5SPsrMbA,rulead,5301_2218,Install,0.7,133.236.39.246,081064df-fccd-4f41-a7f9-2596a823348b,1557032973,2019-05-05 13:09:33,1557033086,2019-05-05 13:11:26,1557033086,6d013a1e7011480c522f50b0f4343e65,https://cpa.rulead.com/s2s?token=074caac6-5613-11e9-8e3c-901b0ededfcf&transaction_id=6d013a1e7011480c522f50b0f4343e65,idfa_081064df-fccd-4f41-a7f9-2596a823348b,ja
L1QveInOQcu2cj5SPsrMbA,rulead,5301_2218,Install,0.7,14.8.67.0,4e3be14c-94b1-4852-8e04-810e7a8e4140,1557032589,2019-05-05 13:03:09,1557032748,2019-05-05 13:05:48,1557032748,8af5ffcae7bdc697e3a6372ad1f7bc99,https://cpa.rulead.com/s2s?token=074caac6-5613-11e9-8e3c-901b0ededfcf&transaction_id=8af5ffcae7bdc697e3a6372ad1f7bc99,idfa_4e3be14c-94b1-4852-8e04-810e7a8e4140,ja
L1QveInOQcu2cj5SPsrMbA,rulead,5301_2218,Install,0.7,126.141.201.167,11aafd4b-23d4-4a96-bff6-fb5ec75921a4,1557025408,2019-05-05 11:03:28,1557025523,2019-05-05 11:05:23,1557025523,49a56de93cb429848acef208478356c5,https://cpa.rulead.com/s2s?token=074caac6-5613-11e9-8e3c-901b0ededfcf&transaction_id=49a56de93cb429848acef208478356c5,idfa_11aafd4b-23d4-4a96-bff6-fb5ec75921a4,ja
L1QveInOQcu2cj5SPsrMbA,rulead,5301_2218,Install,0.7,58.3.127.225,dda1cece-f96c-44ab-95dd-785a6efb7b92,1557022109,2019-05-05 10:08:29,1557022267,2019-05-05 10:11:07,1557022267,18f4625e9227629704376fae8c503ad5,https://cpa.rulead.com/s2s?token=074caac6-5613-11e9-8e3c-901b0ededfcf&transaction_id=18f4625e9227629704376fae8c503ad5,idfa_dda1cece-f96c-44ab-95dd-785a6efb7b92,ja
L1QveInOQcu2cj5SPsrMbA,rulead,5301_2218,Install,0.7,180.145.222.222,3d060198-dc82-40ef-9b88-1773fb54c4f8,1557025264,2019-05-05 11:01:04,1557027419,2019-05-05 11:36:59,1557027419,8621555b31a820a9d9c218470a6a66d6,https://cpa.rulead.com/s2s?token=074caac6-5613-11e9-8e3c-901b0ededfcf&transaction_id=8621555b31a820a9d9c218470a6a66d6,idfa_3d060198-dc82-40ef-9b88-1773fb54c4f8,ja
L1QveInOQcu2cj5SPsrMbA,rulead,5301_2218,Install,0.7,60.71.3.120,c085e362-26c7-448a-aff5-42749e611042,1557024405,2019-05-05 10:46:45,1557024562,2019-05-05 10:49:22,1557024562,a7ee042de60612a947b3071599f66d8b,https://cpa.rulead.com/s2s?token=074caac6-5613-11e9-8e3c-901b0ededfcf&transaction_id=a7ee042de60612a947b3071599f66d8b,idfa_c085e362-26c7-448a-aff5-42749e611042,ja
L1QveInOQcu2cj5SPsrMbA,rulead,5301_2218,Install,0.7,60.148.229.240,d952d6ae-0d7f-44e4-9bab-8df09c040f4c,1557030195,2019-05-05 12:23:15,1557030350,2019-05-05 12:25:50,1557030350,1fd41bc14e5a8d8b1dea290905ce2161,https://cpa.rulead.com/s2s?token=074caac6-5613-11e9-8e3c-901b0ededfcf&transaction_id=1fd41bc14e5a8d8b1dea290905ce2161,idfa_d952d6ae-0d7f-44e4-9bab-8df09c040f4c,ja
L1QveInOQcu2cj5SPsrMbA,rulead,5301_2218,Install,0.7,210.20.225.222,617c349c-7920-49ee-a92c-7110f72197ce,1557033376,2019-05-05 13:16:16,1557033551,2019-05-05 13:19:11,1557033551,bf6a3b3fcc4b3d913798324ef014772e,https://cpa.rulead.com/s2s?token=074caac6-5613-11e9-8e3c-901b0ededfcf&transaction_id=bf6a3b3fcc4b3d913798324ef014772e,idfa_617c349c-7920-49ee-a92c-7110f72197ce,ja
L1QveInOQcu2cj5SPsrMbA,rulead,5301_2218,Install,0.7,126.113.39.110,86b0ccea-4052-4ba1-bb23-075208dfa6cb,1557030043,2019-05-05 12:20:43,1557030158,2019-05-05 12:22:38,1557030158,8207f83c20b9c545bb2790919a9b7630,https://cpa.rulead.com/s2s?token=074caac6-5613-11e9-8e3c-901b0ededfcf&transaction_id=8207f83c20b9c545bb2790919a9b7630,idfa_86b0ccea-4052-4ba1-bb23-075208dfa6cb,ja
L1QveInOQcu2cj5SPsrMbA,rulead,5301_2218,Install,0.7,118.241.125.16,430d987d-dba3-423a-8148-023f0344f02c,1557029591,2019-05-05 12:13:11,1557029778,2019-05-05 12:16:18,1557029778,2d8c521f442534d98dce677b4268875b,https://cpa.rulead.com/s2s?token=074caac6-5613-11e9-8e3c-901b0ededfcf&transaction_id=2d8c521f442534d98dce677b4268875b,idfa_430d987d-dba3-423a-8148-023f0344f02c,ja
L1QveInOQcu2cj5SPsrMbA,rulead,5301_2218,Install,0.7,112.69.146.64,deeb9bbb-af09-45ee-98e5-be0bca5ca08d,1557033173,2019-05-05 13:12:53,1557033328,2019-05-05 13:15:28,1557033328,d135eeecfca8a4d4f442950abc304eb5,https://cpa.rulead.com/s2s?token=074caac6-5613-11e9-8e3c-901b0ededfcf&transaction_id=d135eeecfca8a4d4f442950abc304eb5,idfa_deeb9bbb-af09-45ee-98e5-be0bca5ca08d,ja
L1QveInOQcu2cj5SPsrMbA,rulead,5301_2218,Install,0.7,218.42.200.187,6d11e396-cf55-48ba-b61c-b1c4c2d2837e,1557031777,2019-05-05 12:49:37,1557031915,2019-05-05 12:51:55,1557031915,49949a2b3b281c731da03b31894a7a64,https://cpa.rulead.com/s2s?token=074caac6-5613-11e9-8e3c-901b0ededfcf&transaction_id=49949a2b3b281c731da03b31894a7a64,idfa_6d11e396-cf55-48ba-b61c-b1c4c2d2837e,ja
L1QveInOQcu2cj5SPsrMbA,rulead,5301_2218,Install,0.7,121.2.192.48,650575fe-37df-4e51-92b9-63bcaedf5323,1557024455,2019-05-05 10:47:35,1557024614,2019-05-05 10:50:14,1557024614,332acbd2887f0b0f48b3fcf922656105,https://cpa.rulead.com/s2s?token=074caac6-5613-11e9-8e3c-901b0ededfcf&transaction_id=332acbd2887f0b0f48b3fcf922656105,idfa_650575fe-37df-4e51-92b9-63bcaedf5323,ja
L1QveInOQcu2cj5SPsrMbA,rulead,5301_2218,Install,0.7,59.138.68.139,bb658bff-9de2-45e8-a42a-be3a848bc79a,1557025441,2019-05-05 11:04:01,1557025605,2019-05-05 11:06:45,1557025605,3044361d7e983c52e0e3e1a6d391b48d,https://cpa.rulead.com/s2s?token=074caac6-5613-11e9-8e3c-901b0ededfcf&transaction_id=3044361d7e983c52e0e3e1a6d391b48d,idfa_bb658bff-9de2-45e8-a42a-be3a848bc79a,ja
L1QveInOQcu2cj5SPsrMbA,rulead,5301_2218,Install,0.7,110.135.127.192,0509545b-3fe1-4b3f-82c1-7554015fd900,1557026386,2019-05-05 11:19:46,1557026575,2019-05-05 11:22:55,1557026575,3832b29039e40b921853238d959da946,https://cpa.rulead.com/s2s?token=074caac6-5613-11e9-8e3c-901b0ededfcf&transaction_id=3832b29039e40b921853238d959da946,idfa_0509545b-3fe1-4b3f-82c1-7554015fd900,ja
L1QveInOQcu2cj5SPsrMbA,rulead,5301_2218,Install,0.7,60.129.80.232,9eaedd9d-8674-47fa-b923-aecf2114d5ea,1557027485,2019-05-05 11:38:05,1557027633,2019-05-05 11:40:33,1557027633,0f6c34716aea01c75f55d10bae19b1be,https://cpa.rulead.com/s2s?token=074caac6-5613-11e9-8e3c-901b0ededfcf&transaction_id=0f6c34716aea01c75f55d10bae19b1be,idfa_9eaedd9d-8674-47fa-b923-aecf2114d5ea,ja
L1QveInOQcu2cj5SPsrMbA,rulead,5301_2218,Install,0.7,126.153.81.36,ca26bd76-c3be-4d22-86de-5a39148c6a10,1557030208,2019-05-05 12:23:28,1557030365,2019-05-05 12:26:05,1557030365,153155b30788cca45b3a8f3b8b86ec4e,https://cpa.rulead.com/s2s?token=074caac6-5613-11e9-8e3c-901b0ededfcf&transaction_id=153155b30788cca45b3a8f3b8b86ec4e,idfa_ca26bd76-c3be-4d22-86de-5a39148c6a10,ja
L1QveInOQcu2cj5SPsrMbA,rulead,5301_2218,Install,0.7,153.167.98.195,c79c3dc7-413a-400f-81aa-006323152d21,1557031738,2019-05-05 12:48:58,1557031879,2019-05-05 12:51:19,1557031879,e711594475303ec46d7526a44bd07501,https://cpa.rulead.com/s2s?token=074caac6-5613-11e9-8e3c-901b0ededfcf&transaction_id=e711594475303ec46d7526a44bd07501,idfa_c79c3dc7-413a-400f-81aa-006323152d21,ja
L1QveInOQcu2cj5SPsrMbA,rulead,5301_2218,Install,0.7,113.35.160.244,127b2df6-af13-4ead-b5f2-ed931a621d6b,1557025939,2019-05-05 11:12:19,1557026032,2019-05-05 11:13:52,1557026032,c6f8c7709295ff8ff814b0de5d9b0ccf,https://cpa.rulead.com/s2s?token=074caac6-5613-11e9-8e3c-901b0ededfcf&transaction_id=c6f8c7709295ff8ff814b0de5d9b0ccf,idfa_127b2df6-af13-4ead-b5f2-ed931a621d6b,ja
L1QveInOQcu2cj5SPsrMbA,rulead,5301_2218,Install,0.7,223.135.6.93,312ff49b-f225-4f5a-910a-85116e5d871d,1557026719,2019-05-05 11:25:19,1557026862,2019-05-05 11:27:42,1557026862,46b794e0832511b251679fc4a7f36fbe,https://cpa.rulead.com/s2s?token=074caac6-5613-11e9-8e3c-901b0ededfcf&transaction_id=46b794e0832511b251679fc4a7f36fbe,idfa_312ff49b-f225-4f5a-910a-85116e5d871d,ja
L1QveInOQcu2cj5SPsrMbA,rulead,5301_2218,Install,0.7,60.56.208.233,3a22574a-ea31-43c5-9f85-f1313c3ef70f,1557023335,2019-05-05 10:28:55,1557024644,2019-05-05 10:50:44,1557024644,3a87b0f6b04fa336875c42ad278fc2c8,https://cpa.rulead.com/s2s?token=074caac6-5613-11e9-8e3c-901b0ededfcf&transaction_id=3a87b0f6b04fa336875c42ad278fc2c8,idfa_3a22574a-ea31-43c5-9f85-f1313c3ef70f,ja
L1QveInOQcu2cj5SPsrMbA,rulead,5301_2218,Install,0.7,121.111.79.129,e144eec1-4fec-4a7f-b3f7-1f1d9e13efcb,1557022178,2019-05-05 10:09:38,1557022313,2019-05-05 10:11:53,1557022313,5919b9887ca62e267e3bf366b5f074e5,https://cpa.rulead.com/s2s?token=074caac6-5613-11e9-8e3c-901b0ededfcf&transaction_id=5919b9887ca62e267e3bf366b5f074e5,idfa_e144eec1-4fec-4a7f-b3f7-1f1d9e13efcb,ja
L1QveInOQcu2cj5SPsrMbA,rulead,5301_2218,Install,0.7,221.191.128.90,2b143517-450c-4a0c-9cc3-8bd1744389c7,1557030203,2019-05-05 12:23:23,1557030420,2019-05-05 12:27:00,1557030420,f57a57cff6479e8815b4382a818f8e2d,https://cpa.rulead.com/s2s?token=074caac6-5613-11e9-8e3c-901b0ededfcf&transaction_id=f57a57cff6479e8815b4382a818f8e2d,idfa_2b143517-450c-4a0c-9cc3-8bd1744389c7,ja
L1QveInOQcu2cj5SPsrMbA,rulead,5301_2218,Install,0.7,126.127.152.158,f2bd720d-4840-4b47-a172-719494a24282,1557031737,2019-05-05 12:48:57,1557031827,2019-05-05 12:50:27,1557031827,ae81c85c59ee0bf9be87d4ffe45d1ad7,https://cpa.rulead.com/s2s?token=074caac6-5613-11e9-8e3c-901b0ededfcf&transaction_id=ae81c85c59ee0bf9be87d4ffe45d1ad7,idfa_f2bd720d-4840-4b47-a172-719494a24282,ja
L1QveInOQcu2cj5SPsrMbA,rulead,5301_2218,Install,0.7,60.128.111.102,64efc3ac-7700-4074-b6e4-c943cb584487,1557031714,2019-05-05 12:48:34,1557031812,2019-05-05 12:50:12,1557031812,ff0cfae5d1077fbccb3373a6ea4e675e,https://cpa.rulead.com/s2s?token=074caac6-5613-11e9-8e3c-901b0ededfcf&transaction_id=ff0cfae5d1077fbccb3373a6ea4e675e,idfa_64efc3ac-7700-4074-b6e4-c943cb584487,ja
L1QveInOQcu2cj5SPsrMbA,rulead,5301_2218,Install,0.7,103.31.13.76,afd10944-fcaa-4dfd-8126-8ebab996b863,1557033714,2019-05-05 13:21:54,1557033866,2019-05-05 13:24:26,1557033866,fd3f0d7ad574a6996ccd6ff6c6e5475d,https://cpa.rulead.com/s2s?token=074caac6-5613-11e9-8e3c-901b0ededfcf&transaction_id=fd3f0d7ad574a6996ccd6ff6c6e5475d,idfa_afd10944-fcaa-4dfd-8126-8ebab996b863,ja
L1QveInOQcu2cj5SPsrMbA,rulead,5301_2218,Install,0.7,60.47.217.102,775fdaa5-be1c-4a05-abc9-5639904285f7,1557025931,2019-05-05 11:12:11,1557026058,2019-05-05 11:14:18,1557026058,4a7f959e3ba602f8affad865f9e78119,https://cpa.rulead.com/s2s?token=074caac6-5613-11e9-8e3c-901b0ededfcf&transaction_id=4a7f959e3ba602f8affad865f9e78119,idfa_775fdaa5-be1c-4a05-abc9-5639904285f7,ja
L1QveInOQcu2cj5SPsrMbA,rulead,5301_2218,Install,0.7,157.65.95.142,9773351a-d44c-40f3-aa6f-69bd8775ca40,1557025686,2019-05-05 11:08:06,1557025829,2019-05-05 11:10:29,1557025829,090c57c7f66899c7a1ecd76347fdc900,https://cpa.rulead.com/s2s?token=074caac6-5613-11e9-8e3c-901b0ededfcf&transaction_id=090c57c7f66899c7a1ecd76347fdc900,idfa_9773351a-d44c-40f3-aa6f-69bd8775ca40,ja
L1QveInOQcu2cj5SPsrMbA,rulead,5301_2218,Install,0.7,210.136.244.254,ea08780f-a237-4344-ac3a-f2c5990ab7a5,1557027036,2019-05-05 11:30:36,1557027402,2019-05-05 11:36:42,1557027402,c052d7e5d05a30c5e032a2b79027ff6e,https://cpa.rulead.com/s2s?token=074caac6-5613-11e9-8e3c-901b0ededfcf&transaction_id=c052d7e5d05a30c5e032a2b79027ff6e,idfa_ea08780f-a237-4344-ac3a-f2c5990ab7a5,ja
L1QveInOQcu2cj5SPsrMbA,rulead,5301_2218,Install,0.7,111.89.168.3,9f1bccf7-6749-4cac-afef-1ad96a4dbe0a,1557029434,2019-05-05 12:10:34,1557029557,2019-05-05 12:12:37,1557029557,86d305aa1ff7609fcc718045dbcb43ba,https://cpa.rulead.com/s2s?token=074caac6-5613-11e9-8e3c-901b0ededfcf&transaction_id=86d305aa1ff7609fcc718045dbcb43ba,idfa_9f1bccf7-6749-4cac-afef-1ad96a4dbe0a,ja
L1QveInOQcu2cj5SPsrMbA,rulead,5301_2218,Install,0.7,111.97.180.227,5d534747-22fd-4ff2-8453-4b07770aaec3,1557025410,2019-05-05 11:03:30,1557025522,2019-05-05 11:05:22,1557025522,83ccd2ad2bab0acb860bd6310df45503,https://cpa.rulead.com/s2s?token=074caac6-5613-11e9-8e3c-901b0ededfcf&transaction_id=83ccd2ad2bab0acb860bd6310df45503,idfa_5d534747-22fd-4ff2-8453-4b07770aaec3,ja
L1QveInOQcu2cj5SPsrMbA,rulead,5301_2218,Install,0.7,219.121.153.161,75d3246c-7c22-4024-93c9-d797483d787d,1557026085,2019-05-05 11:14:45,1557026253,2019-05-05 11:17:33,1557026253,65934be7e767856c59287f55907c056d,https://cpa.rulead.com/s2s?token=074caac6-5613-11e9-8e3c-901b0ededfcf&transaction_id=65934be7e767856c59287f55907c056d,idfa_75d3246c-7c22-4024-93c9-d797483d787d,ja
L1QveInOQcu2cj5SPsrMbA,rulead,5301_2218,Install,0.7,14.9.149.224,3192be3b-c882-4256-b460-45f8763910d1,1557030269,2019-05-05 12:24:29,1557030444,2019-05-05 12:27:24,1557030444,6ca2459f7e9891e9f53c650e40e0aadb,https://cpa.rulead.com/s2s?token=074caac6-5613-11e9-8e3c-901b0ededfcf&transaction_id=6ca2459f7e9891e9f53c650e40e0aadb,idfa_3192be3b-c882-4256-b460-45f8763910d1,ja
L1QveInOQcu2cj5SPsrMbA,rulead,5301_2218,Install,0.7,61.200.110.42,9613d707-89c5-4bf2-b8e8-12e224ef5b67,1557032589,2019-05-05 13:03:09,1557032689,2019-05-05 13:04:49,1557032689,4005011a0866a101702f113a31ddb818,https://cpa.rulead.com/s2s?token=074caac6-5613-11e9-8e3c-901b0ededfcf&transaction_id=4005011a0866a101702f113a31ddb818,idfa_9613d707-89c5-4bf2-b8e8-12e224ef5b67,ja
L1QveInOQcu2cj5SPsrMbA,rulead,5301_2218,Install,0.7,60.145.191.92,d559c32d-bbc3-4865-96bc-172907e24108,1557027051,2019-05-05 11:30:51,1557027164,2019-05-05 11:32:44,1557027164,917302ae03c9fd8884e6df355e44de75,https://cpa.rulead.com/s2s?token=074caac6-5613-11e9-8e3c-901b0ededfcf&transaction_id=917302ae03c9fd8884e6df355e44de75,idfa_d559c32d-bbc3-4865-96bc-172907e24108,ja
L1QveInOQcu2cj5SPsrMbA,rulead,5301_2218,Install,0.7,115.124.246.98,b57d898e-4bfa-456c-b073-8746aa0adce6,1557024891,2019-05-05 10:54:51,1557024997,2019-05-05 10:56:37,1557024997,613ed387bc2c2e14614a2f419ec0408c,https://cpa.rulead.com/s2s?token=074caac6-5613-11e9-8e3c-901b0ededfcf&transaction_id=613ed387bc2c2e14614a2f419ec0408c,idfa_b57d898e-4bfa-456c-b073-8746aa0adce6,ja
L1QveInOQcu2cj5SPsrMbA,rulead,5301_2218,Install,0.7,157.192.85.149,2a492a96-ae8f-49e2-ae92-add7a81578ed,1557026572,2019-05-05 11:22:52,1557026673,2019-05-05 11:24:33,1557026673,1e30f9d714b3919ddb2643edac021ba1,https://cpa.rulead.com/s2s?token=074caac6-5613-11e9-8e3c-901b0ededfcf&transaction_id=1e30f9d714b3919ddb2643edac021ba1,idfa_2a492a96-ae8f-49e2-ae92-add7a81578ed,ja
L1QveInOQcu2cj5SPsrMbA,rulead,5301_2218,Install,0.7,126.242.179.205,d72d1d03-1da0-4ff0-9f6c-d00883a1a52f,1557032904,2019-05-05 13:08:24,1557033000,2019-05-05 13:10:00,1557033000,2690b7642938380a904d2927bca97ce7,https://cpa.rulead.com/s2s?token=074caac6-5613-11e9-8e3c-901b0ededfcf&transaction_id=2690b7642938380a904d2927bca97ce7,idfa_d72d1d03-1da0-4ff0-9f6c-d00883a1a52f,ja
L1QveInOQcu2cj5SPsrMbA,rulead,5301_2218,Install,0.7,126.58.221.56,56f18070-987b-4151-b64b-39c65a9a6be6,1557024659,2019-05-05 10:50:59,1557024820,2019-05-05 10:53:40,1557024820,007df5b05dc1dfe58bf501e45ebf09d1,https://cpa.rulead.com/s2s?token=074caac6-5613-11e9-8e3c-901b0ededfcf&transaction_id=007df5b05dc1dfe58bf501e45ebf09d1,idfa_56f18070-987b-4151-b64b-39c65a9a6be6,ja
L1QveInOQcu2cj5SPsrMbA,rulead,5301_2218,Install,0.7,202.177.123.144,248d4852-5c99-4ff4-ab81-2c0e2a27e8fd,1557028385,2019-05-05 11:53:05,1557028494,2019-05-05 11:54:54,1557028494,2c8351d320dc692809bd742be6926f0c,https://cpa.rulead.com/s2s?token=074caac6-5613-11e9-8e3c-901b0ededfcf&transaction_id=2c8351d320dc692809bd742be6926f0c,idfa_248d4852-5c99-4ff4-ab81-2c0e2a27e8fd,ja
L1QveInOQcu2cj5SPsrMbA,rulead,5301_2218,Install,0.7,126.237.182.45,c65d1d37-4803-402d-a884-8bcaa527f3b4,1557033091,2019-05-05 13:11:31,1557033209,2019-05-05 13:13:29,1557033209,1290ae1dde99d18083e871c91af12f5c,https://cpa.rulead.com/s2s?token=074caac6-5613-11e9-8e3c-901b0ededfcf&transaction_id=1290ae1dde99d18083e871c91af12f5c,idfa_c65d1d37-4803-402d-a884-8bcaa527f3b4,ja
L1QveInOQcu2cj5SPsrMbA,rulead,5301_2218,Install,0.7,36.11.224.10,f228f9f9-77ff-4a87-af56-9883040821bc,1557022284,2019-05-05 10:11:24,1557022453,2019-05-05 10:14:13,1557022453,548af132ac84097f5eca98ae9094bde1,https://cpa.rulead.com/s2s?token=074caac6-5613-11e9-8e3c-901b0ededfcf&transaction_id=548af132ac84097f5eca98ae9094bde1,idfa_f228f9f9-77ff-4a87-af56-9883040821bc,ja
L1QveInOQcu2cj5SPsrMbA,rulead,5301_2218,Install,0.7,202.223.21.15,43380644-a3ac-4fac-94cd-93ccff1036a7,1557026319,2019-05-05 11:18:39,1557026473,2019-05-05 11:21:13,1557026473,47908d70399fe33611330dfab115fc7a,https://cpa.rulead.com/s2s?token=074caac6-5613-11e9-8e3c-901b0ededfcf&transaction_id=47908d70399fe33611330dfab115fc7a,idfa_43380644-a3ac-4fac-94cd-93ccff1036a7,ja
L1QveInOQcu2cj5SPsrMbA,rulead,5301_2218,Install,0.7,123.48.182.194,4b20ab44-071a-4f12-82e9-fdc1a92abe98,1557033229,2019-05-05 13:13:49,1557033394,2019-05-05 13:16:34,1557033394,a21e4f4b1bff7ff7199bc13361d7f5a9,https://cpa.rulead.com/s2s?token=074caac6-5613-11e9-8e3c-901b0ededfcf&transaction_id=a21e4f4b1bff7ff7199bc13361d7f5a9,idfa_4b20ab44-071a-4f12-82e9-fdc1a92abe98,ja
L1QveInOQcu2cj5SPsrMbA,rulead,5301_2218,Install,0.7,153.184.25.125,bc312aff-280a-43a0-934a-7a9be8ebb471,1557026690,2019-05-05 11:24:50,1557026816,2019-05-05 11:26:56,1557026816,c5df374d1afca5939fee52e22ed78db8,https://cpa.rulead.com/s2s?token=074caac6-5613-11e9-8e3c-901b0ededfcf&transaction_id=c5df374d1afca5939fee52e22ed78db8,idfa_bc312aff-280a-43a0-934a-7a9be8ebb471,ja
L1QveInOQcu2cj5SPsrMbA,rulead,5301_2218,Install,0.7,111.99.168.217,56b2a85b-01fe-4a7a-8d9d-82e2e3710f66,1557030556,2019-05-05 12:29:16,1557030666,2019-05-05 12:31:06,1557030666,339f0ee2586fd618134e05a6b5404e7e,https://cpa.rulead.com/s2s?token=074caac6-5613-11e9-8e3c-901b0ededfcf&transaction_id=339f0ee2586fd618134e05a6b5404e7e,idfa_56b2a85b-01fe-4a7a-8d9d-82e2e3710f66,ja
L1QveInOQcu2cj5SPsrMbA,rulead,5301_2218,Install,0.7,210.254.118.81,b550c525-25b2-488d-ad03-d80bf3132d66,1557025756,2019-05-05 11:09:16,1557025914,2019-05-05 11:11:54,1557025914,975b9efd8d6dac5aaf6b09f144f3c988,https://cpa.rulead.com/s2s?token=074caac6-5613-11e9-8e3c-901b0ededfcf&transaction_id=975b9efd8d6dac5aaf6b09f144f3c988,idfa_b550c525-25b2-488d-ad03-d80bf3132d66,ja
L1QveInOQcu2cj5SPsrMbA,rulead,5301_2218,Install,0.7,111.100.19.12,8d7d7419-4f6e-4d73-9e45-3f6ac760da14,1557024852,2019-05-05 10:54:12,1557024997,2019-05-05 10:56:37,1557024997,4af4336d5c788c3105e48b2c25d2456a,https://cpa.rulead.com/s2s?token=074caac6-5613-11e9-8e3c-901b0ededfcf&transaction_id=4af4336d5c788c3105e48b2c25d2456a,idfa_8d7d7419-4f6e-4d73-9e45-3f6ac760da14,ja
L1QveInOQcu2cj5SPsrMbA,rulead,5301_2218,Install,0.7,61.45.19.15,dc891e1b-273c-4b77-8a0b-08a2462ac1cd,1557028937,2019-05-05 12:02:17,1557029042,2019-05-05 12:04:02,1557029042,79e35309c45e03b4f006e4839738edd1,https://cpa.rulead.com/s2s?token=074caac6-5613-11e9-8e3c-901b0ededfcf&transaction_id=79e35309c45e03b4f006e4839738edd1,idfa_dc891e1b-273c-4b77-8a0b-08a2462ac1cd,ja
L1QveInOQcu2cj5SPsrMbA,rulead,5301_2218,Install,0.7,126.217.139.99,399db460-b850-4bc7-bed0-56a96a7d5714,1557023619,2019-05-05 10:33:39,1557023782,2019-05-05 10:36:22,1557023782,6a54a93c87ba5e64b56397184223da5f,https://cpa.rulead.com/s2s?token=074caac6-5613-11e9-8e3c-901b0ededfcf&transaction_id=6a54a93c87ba5e64b56397184223da5f,idfa_399db460-b850-4bc7-bed0-56a96a7d5714,ja
L1QveInOQcu2cj5SPsrMbA,rulead,5301_2218,Install,0.7,60.148.194.7,a2d3042f-9693-4b53-ba18-397f80e3f5a1,1557029691,2019-05-05 12:14:51,1557029797,2019-05-05 12:16:37,1557029797,f92add0dc56e90b8eb3d5df510a93b3f,https://cpa.rulead.com/s2s?token=074caac6-5613-11e9-8e3c-901b0ededfcf&transaction_id=f92add0dc56e90b8eb3d5df510a93b3f,idfa_a2d3042f-9693-4b53-ba18-397f80e3f5a1,ja
L1QveInOQcu2cj5SPsrMbA,rulead,5301_2218,Install,0.7,210.237.119.225,26716f7a-58b3-4905-8ba4-ddf7c576100d,1557031031,2019-05-05 12:37:11,1557031207,2019-05-05 12:40:07,1557031207,54ee7670be6579e982ea5efb45a358f5,https://cpa.rulead.com/s2s?token=074caac6-5613-11e9-8e3c-901b0ededfcf&transaction_id=54ee7670be6579e982ea5efb45a358f5,idfa_26716f7a-58b3-4905-8ba4-ddf7c576100d,ja
L1QveInOQcu2cj5SPsrMbA,rulead,5301_2218,Install,0.7,118.154.17.229,dd7efb9f-cf0f-4a48-98bd-97e35192b154,1557029021,2019-05-05 12:03:41,1557029250,2019-05-05 12:07:30,1557029250,30bb253e29625cf9fc1970cff8ea5340,https://cpa.rulead.com/s2s?token=074caac6-5613-11e9-8e3c-901b0ededfcf&transaction_id=30bb253e29625cf9fc1970cff8ea5340,idfa_dd7efb9f-cf0f-4a48-98bd-97e35192b154,ja
L1QveInOQcu2cj5SPsrMbA,rulead,5301_2218,Install,0.7,121.87.70.39,7de15198-6a40-4cc5-9de7-73d6b088af7b,1557032548,2019-05-05 13:02:28,1557032707,2019-05-05 13:05:07,1557032707,f0b9451831e2fd555733066157a52313,https://cpa.rulead.com/s2s?token=074caac6-5613-11e9-8e3c-901b0ededfcf&transaction_id=f0b9451831e2fd555733066157a52313,idfa_7de15198-6a40-4cc5-9de7-73d6b088af7b,ja
L1QveInOQcu2cj5SPsrMbA,rulead,5301_2218,Install,0.7,125.194.224.169,77f40ae5-02bd-4454-a808-99dcc75aea04,1557032584,2019-05-05 13:03:04,1557032734,2019-05-05 13:05:34,1557032734,43a0a7e25e7287e34e74f9dc68bb94e3,https://cpa.rulead.com/s2s?token=074caac6-5613-11e9-8e3c-901b0ededfcf&transaction_id=43a0a7e25e7287e34e74f9dc68bb94e3,idfa_77f40ae5-02bd-4454-a808-99dcc75aea04,ja
L1QveInOQcu2cj5SPsrMbA,rulead,5301_2218,Install,0.7,126.113.39.110,7049e281-3f2d-41a4-8aad-b3403cac2926,1557031336,2019-05-05 12:42:16,1557032790,2019-05-05 13:06:30,1557032790,4fbb11aeb2d3dd54599ed82c59399144,https://cpa.rulead.com/s2s?token=074caac6-5613-11e9-8e3c-901b0ededfcf&transaction_id=4fbb11aeb2d3dd54599ed82c59399144,idfa_7049e281-3f2d-41a4-8aad-b3403cac2926,ja
L1QveInOQcu2cj5SPsrMbA,rulead,5301_2218,Install,0.7,128.53.146.57,523b6a41-4934-4454-80f8-c36d30d91294,1557025580,2019-05-05 11:06:20,1557025845,2019-05-05 11:10:45,1557025845,c8220feda5c18d9d14f2c018714a4132,https://cpa.rulead.com/s2s?token=074caac6-5613-11e9-8e3c-901b0ededfcf&transaction_id=c8220feda5c18d9d14f2c018714a4132,idfa_523b6a41-4934-4454-80f8-c36d30d91294,ja
L1QveInOQcu2cj5SPsrMbA,rulead,5301_2218,Install,0.7,180.146.193.34,00e372ea-167c-4c12-a544-87e880a1848e,1557023331,2019-05-05 10:28:51,1557023494,2019-05-05 10:31:34,1557023494,799d50583fcb7936a2d04400078f0864,https://cpa.rulead.com/s2s?token=074caac6-5613-11e9-8e3c-901b0ededfcf&transaction_id=799d50583fcb7936a2d04400078f0864,idfa_00e372ea-167c-4c12-a544-87e880a1848e,ja
L1QveInOQcu2cj5SPsrMbA,rulead,5301_2218,Install,0.7,14.10.58.96,e3908c1a-6d0e-4f51-8029-3f0708e56fe3,1557029004,2019-05-05 12:03:24,1557029152,2019-05-05 12:05:52,1557029152,39483fe00dc67115016722a3715a993b,https://cpa.rulead.com/s2s?token=074caac6-5613-11e9-8e3c-901b0ededfcf&transaction_id=39483fe00dc67115016722a3715a993b,idfa_e3908c1a-6d0e-4f51-8029-3f0708e56fe3,ja
L1QveInOQcu2cj5SPsrMbA,rulead,5301_2218,Install,0.7,60.119.124.252,631dc617-6766-4f71-a9f9-6bf0a9a36526,1557033719,2019-05-05 13:21:59,1557033871,2019-05-05 13:24:31,1557033871,d0fd51700bba775d27c9829ed7fd4640,https://cpa.rulead.com/s2s?token=074caac6-5613-11e9-8e3c-901b0ededfcf&transaction_id=d0fd51700bba775d27c9829ed7fd4640,idfa_631dc617-6766-4f71-a9f9-6bf0a9a36526,ja
L1QveInOQcu2cj5SPsrMbA,rulead,5301_2218,Install,0.7,210.136.244.254,179cdcef-f80a-490b-811c-06c78e794b21,1557027890,2019-05-05 11:44:50,1557028013,2019-05-05 11:46:53,1557028013,ff3475e8faba3caa4fa87ab69a2bb1e0,https://cpa.rulead.com/s2s?token=074caac6-5613-11e9-8e3c-901b0ededfcf&transaction_id=ff3475e8faba3caa4fa87ab69a2bb1e0,idfa_179cdcef-f80a-490b-811c-06c78e794b21,ja
L1QveInOQcu2cj5SPsrMbA,rulead,5301_2218,Install,0.7,59.168.149.32,28f6a65a-63e1-401b-b38e-d9ebedd07fdf,1557031740,2019-05-05 12:49:00,1557031931,2019-05-05 12:52:11,1557031931,44576a663d05bcaef48c0827f5aa84fb,https://cpa.rulead.com/s2s?token=074caac6-5613-11e9-8e3c-901b0ededfcf&transaction_id=44576a663d05bcaef48c0827f5aa84fb,idfa_28f6a65a-63e1-401b-b38e-d9ebedd07fdf,ja
L1QveInOQcu2cj5SPsrMbA,rulead,5301_2218,Install,0.7,60.34.167.103,0065015c-0fa6-4d4f-a39d-00445a5b31fa,1557023054,2019-05-05 10:24:14,1557023229,2019-05-05 10:27:09,1557023229,6a13af49407d52605d433b332df5b208,https://cpa.rulead.com/s2s?token=074caac6-5613-11e9-8e3c-901b0ededfcf&transaction_id=6a13af49407d52605d433b332df5b208,idfa_0065015c-0fa6-4d4f-a39d-00445a5b31fa,ja
L1QveInOQcu2cj5SPsrMbA,rulead,5301_2218,Install,0.7,59.168.179.132,44527de0-08b4-4f9b-a937-2c71225a1091,1557030126,2019-05-05 12:22:06,1557030263,2019-05-05 12:24:23,1557030263,25f9dae5c2997d89bf03978d08b7aa32,https://cpa.rulead.com/s2s?token=074caac6-5613-11e9-8e3c-901b0ededfcf&transaction_id=25f9dae5c2997d89bf03978d08b7aa32,idfa_44527de0-08b4-4f9b-a937-2c71225a1091,ja
L1QveInOQcu2cj5SPsrMbA,rulead,5301_2218,Install,0.7,125.9.40.74,af207a36-be44-4f8d-8344-7190aeb524e6,1557027251,2019-05-05 11:34:11,1557027417,2019-05-05 11:36:57,1557027417,8b05533b2ecd437c5709e2aa4e1b7783,https://cpa.rulead.com/s2s?token=074caac6-5613-11e9-8e3c-901b0ededfcf&transaction_id=8b05533b2ecd437c5709e2aa4e1b7783,idfa_af207a36-be44-4f8d-8344-7190aeb524e6,ja
L1QveInOQcu2cj5SPsrMbA,rulead,5301_2218,Install,0.7,61.46.108.168,bce00875-6385-46b4-9a86-eac88d8d51d5,1557022714,2019-05-05 10:18:34,1557022899,2019-05-05 10:21:39,1557022899,603a4034d7b9d482223d6cadc69d48e0,https://cpa.rulead.com/s2s?token=074caac6-5613-11e9-8e3c-901b0ededfcf&transaction_id=603a4034d7b9d482223d6cadc69d48e0,idfa_bce00875-6385-46b4-9a86-eac88d8d51d5,ja
L1QveInOQcu2cj5SPsrMbA,rulead,5301_2218,Install,0.7,210.237.99.225,499b1a5d-f861-48a3-b41e-31951d77802d,1557022895,2019-05-05 10:21:35,1557023037,2019-05-05 10:23:57,1557023037,d00465c1e14088a4b8eb186c9fd26a0c,https://cpa.rulead.com/s2s?token=074caac6-5613-11e9-8e3c-901b0ededfcf&transaction_id=d00465c1e14088a4b8eb186c9fd26a0c,idfa_499b1a5d-f861-48a3-b41e-31951d77802d,ja
L1QveInOQcu2cj5SPsrMbA,rulead,5301_2218,Install,0.7,106.160.66.84,248ec8d1-37fc-4ffb-b828-a4d256e2f848,1557022980,2019-05-05 10:23:00,1557023160,2019-05-05 10:26:00,1557023160,13126ee1ae12d3d8f11ccf6c999c708e,https://cpa.rulead.com/s2s?token=074caac6-5613-11e9-8e3c-901b0ededfcf&transaction_id=13126ee1ae12d3d8f11ccf6c999c708e,idfa_248ec8d1-37fc-4ffb-b828-a4d256e2f848,ja
L1QveInOQcu2cj5SPsrMbA,rulead,5301_2218,Install,0.7,218.40.70.109,6abdfda3-4116-4dc8-b1b4-03bab5a8d4b0,1557030810,2019-05-05 12:33:30,1557031024,2019-05-05 12:37:04,1557031024,d4b613a6a70a1e203083f98ca9527d93,https://cpa.rulead.com/s2s?token=074caac6-5613-11e9-8e3c-901b0ededfcf&transaction_id=d4b613a6a70a1e203083f98ca9527d93,idfa_6abdfda3-4116-4dc8-b1b4-03bab5a8d4b0,ja
L1QveInOQcu2cj5SPsrMbA,rulead,5301_2218,Install,0.7,218.220.169.121,34d6c4c5-8530-40b3-8ec8-5474b00128a5,1557026319,2019-05-05 11:18:39,1557026477,2019-05-05 11:21:17,1557026477,89091d6f13ce51bcca5dc635f13fba06,https://cpa.rulead.com/s2s?token=074caac6-5613-11e9-8e3c-901b0ededfcf&transaction_id=89091d6f13ce51bcca5dc635f13fba06,idfa_34d6c4c5-8530-40b3-8ec8-5474b00128a5,ja
L1QveInOQcu2cj5SPsrMbA,rulead,5301_2218,Install,0.7,42.147.199.106,d4cd6b3a-9ef9-41d6-b5f0-562ac8f00d5e,1557033495,2019-05-05 13:18:15,1557033617,2019-05-05 13:20:17,1557033617,595b7b9a2544a8339f09d0979a51c085,https://cpa.rulead.com/s2s?token=074caac6-5613-11e9-8e3c-901b0ededfcf&transaction_id=595b7b9a2544a8339f09d0979a51c085,idfa_d4cd6b3a-9ef9-41d6-b5f0-562ac8f00d5e,ja
L1QveInOQcu2cj5SPsrMbA,rulead,5301_2218,Install,0.7,180.144.189.250,ed7360d5-2a51-476d-8da4-833cac0a2c26,1557030748,2019-05-05 12:32:28,1557030879,2019-05-05 12:34:39,1557030879,1009fdfe9a24d0718bdabda229a26611,https://cpa.rulead.com/s2s?token=074caac6-5613-11e9-8e3c-901b0ededfcf&transaction_id=1009fdfe9a24d0718bdabda229a26611,idfa_ed7360d5-2a51-476d-8da4-833cac0a2c26,ja
L1QveInOQcu2cj5SPsrMbA,rulead,5301_2218,Install,0.7,111.239.148.235,b7b02b4d-a551-49a4-bee5-bd8f909c2eef,1557023354,2019-05-05 10:29:14,1557023540,2019-05-05 10:32:20,1557023540,92d7ed7177de5bd4a2c12e4575e758b5,https://cpa.rulead.com/s2s?token=074caac6-5613-11e9-8e3c-901b0ededfcf&transaction_id=92d7ed7177de5bd4a2c12e4575e758b5,idfa_b7b02b4d-a551-49a4-bee5-bd8f909c2eef,ja
L1QveInOQcu2cj5SPsrMbA,rulead,5301_2218,Install,0.7,122.24.188.153,25ab78f4-ff9c-4b1a-88ef-28eaf5b62347,1557025354,2019-05-05 11:02:34,1557025517,2019-05-05 11:05:17,1557025517,f4463eb825b33169265a4b22e06e627c,https://cpa.rulead.com/s2s?token=074caac6-5613-11e9-8e3c-901b0ededfcf&transaction_id=f4463eb825b33169265a4b22e06e627c,idfa_25ab78f4-ff9c-4b1a-88ef-28eaf5b62347,ja
L1QveInOQcu2cj5SPsrMbA,rulead,5301_2218,Install,0.7,14.13.144.32,4fc3260d-b7af-487f-a42b-5c14b8c00015,1557026323,2019-05-05 11:18:43,1557026526,2019-05-05 11:22:06,1557026526,62312070b2d845a8fc6dc09417cce76e,https://cpa.rulead.com/s2s?token=074caac6-5613-11e9-8e3c-901b0ededfcf&transaction_id=62312070b2d845a8fc6dc09417cce76e,idfa_4fc3260d-b7af-487f-a42b-5c14b8c00015,ja
L1QveInOQcu2cj5SPsrMbA,rulead,5301_2218,Install,0.7,123.224.96.187,efb9d01e-ffbc-47c7-9463-35c9bbff8180,1557033946,2019-05-05 13:25:46,1557034051,2019-05-05 13:27:31,1557034051,e05a0454f32ee39893e998dcdf5607b6,https://cpa.rulead.com/s2s?token=074caac6-5613-11e9-8e3c-901b0ededfcf&transaction_id=e05a0454f32ee39893e998dcdf5607b6,idfa_efb9d01e-ffbc-47c7-9463-35c9bbff8180,ja
L1QveInOQcu2cj5SPsrMbA,rulead,5301_2218,Install,0.7,175.108.195.124,78a9aeda-7d92-4985-ae40-61b00ead0407,1557028442,2019-05-05 11:54:02,1557028577,2019-05-05 11:56:17,1557028577,522c33c68bd3d4623f3af7a4b34e8853,https://cpa.rulead.com/s2s?token=074caac6-5613-11e9-8e3c-901b0ededfcf&transaction_id=522c33c68bd3d4623f3af7a4b34e8853,idfa_78a9aeda-7d92-4985-ae40-61b00ead0407,ja
L1QveInOQcu2cj5SPsrMbA,rulead,5301_2218,Install,0.7,125.13.134.101,1d61bdbf-196d-48ed-abd4-d04e30cf44fd,1557027536,2019-05-05 11:38:56,1557027652,2019-05-05 11:40:52,1557027652,228798cf593c378bbf0b64c9d9c28f20,https://cpa.rulead.com/s2s?token=074caac6-5613-11e9-8e3c-901b0ededfcf&transaction_id=228798cf593c378bbf0b64c9d9c28f20,idfa_1d61bdbf-196d-48ed-abd4-d04e30cf44fd,ja
L1QveInOQcu2cj5SPsrMbA,rulead,5301_2218,Install,0.7,106.157.101.98,0d1d04e9-e795-443d-ba23-c807258004d0,1557026932,2019-05-05 11:28:52,1557027030,2019-05-05 11:30:30,1557027030,210d7c6879a09eea2c66bc719f0fef99,https://cpa.rulead.com/s2s?token=074caac6-5613-11e9-8e3c-901b0ededfcf&transaction_id=210d7c6879a09eea2c66bc719f0fef99,idfa_0d1d04e9-e795-443d-ba23-c807258004d0,ja
L1QveInOQcu2cj5SPsrMbA,rulead,5301_2218,Install,0.7,180.23.99.45,65fe5fe9-a882-4a3a-a1b5-c499ab184ae5,1557027485,2019-05-05 11:38:05,1557027638,2019-05-05 11:40:38,1557027638,7c1b8f6a81c34e38b1b6ab91b405fd49,https://cpa.rulead.com/s2s?token=074caac6-5613-11e9-8e3c-901b0ededfcf&transaction_id=7c1b8f6a81c34e38b1b6ab91b405fd49,idfa_65fe5fe9-a882-4a3a-a1b5-c499ab184ae5,ja
L1QveInOQcu2cj5SPsrMbA,rulead,5301_2218,Install,0.7,14.232.163.135,4cb92bb7-a67f-4f84-9722-252e73dc7899,1557023635,2019-05-05 10:33:55,1557023767,2019-05-05 10:36:07,1557023767,5f75c1278ad043f9999fef4e24aed460,https://cpa.rulead.com/s2s?token=074caac6-5613-11e9-8e3c-901b0ededfcf&transaction_id=5f75c1278ad043f9999fef4e24aed460,idfa_4cb92bb7-a67f-4f84-9722-252e73dc7899,ja
L1QveInOQcu2cj5SPsrMbA,rulead,5301_2218,Install,0.7,219.165.252.129,6134fb45-665e-475c-9cc4-98630dcc0cfe,1557026228,2019-05-05 11:17:08,1557026336,2019-05-05 11:18:56,1557026336,9e8038c719efd82a3f6cc1b25b70f856,https://cpa.rulead.com/s2s?token=074caac6-5613-11e9-8e3c-901b0ededfcf&transaction_id=9e8038c719efd82a3f6cc1b25b70f856,idfa_6134fb45-665e-475c-9cc4-98630dcc0cfe,ja
