cid,partner_id,channel_id,action_id,cpi,ip,idfa,click time,click datetime,install time,install datetime,postback time,click id,postback url,unique user id
L1QveInOQcu2cj5SPsrMbA,rulead,5248_4250,Install,0.7,101.110.42.60,5f65f538-7dad-41a3-b856-a93d1b9285bb,1556863643,2019-05-03 14:07:23,1556863759,2019-05-03 14:09:19,1556863759,5ba701033a456a950e9154e4cbba3da9,https://cpa.rulead.com/s2s?token=074caac6-5613-11e9-8e3c-901b0ededfcf&transaction_id=5ba701033a456a950e9154e4cbba3da9,idfa_5f65f538-7dad-41a3-b856-a93d1b9285bb,ja
L1QveInOQcu2cj5SPsrMbA,rulead,5248_4250,Install,0.7,126.189.24.122,47fbc684-a3a1-4d37-9102-970588f8ac0d,1556859799,2019-05-03 13:03:19,1556859928,2019-05-03 13:05:28,1556859928,3697ae481b4dc972dcf5b5d69c5595e4,https://cpa.rulead.com/s2s?token=074caac6-5613-11e9-8e3c-901b0ededfcf&transaction_id=3697ae481b4dc972dcf5b5d69c5595e4,idfa_47fbc684-a3a1-4d37-9102-970588f8ac0d,ja
L1QveInOQcu2cj5SPsrMbA,rulead,5248_4250,Install,0.7,58.183.178.139,b5bfa336-e773-4c5b-931c-22f54f52cbb0,1556863943,2019-05-03 14:12:23,1556864054,2019-05-03 14:14:14,1556864054,65b1cb1219edd228d40de025a455c91e,https://cpa.rulead.com/s2s?token=074caac6-5613-11e9-8e3c-901b0ededfcf&transaction_id=65b1cb1219edd228d40de025a455c91e,idfa_b5bfa336-e773-4c5b-931c-22f54f52cbb0,ja
L1QveInOQcu2cj5SPsrMbA,rulead,5248_4250,Install,0.7,222.4.56.206,4ad67e5a-26d1-4530-ac3a-045022295fff,1556864139,2019-05-03 14:15:39,1556864236,2019-05-03 14:17:16,1556864236,748bb704b5747cd37fac2e93b7269da0,https://cpa.rulead.com/s2s?token=074caac6-5613-11e9-8e3c-901b0ededfcf&transaction_id=748bb704b5747cd37fac2e93b7269da0,idfa_4ad67e5a-26d1-4530-ac3a-045022295fff,ja
L1QveInOQcu2cj5SPsrMbA,rulead,5248_4250,Install,0.7,60.148.220.154,741d0626-10ab-4c14-b333-f45c7f80d756,1556862367,2019-05-03 13:46:07,1556862508,2019-05-03 13:48:28,1556862508,b9dd22876b10670e013a5f351505fefa,https://cpa.rulead.com/s2s?token=074caac6-5613-11e9-8e3c-901b0ededfcf&transaction_id=b9dd22876b10670e013a5f351505fefa,idfa_741d0626-10ab-4c14-b333-f45c7f80d756,ja
L1QveInOQcu2cj5SPsrMbA,rulead,5248_4250,Install,0.7,27.92.157.135,26777a98-deda-4b5e-b773-fa153be7295b,1556858536,2019-05-03 12:42:16,1556858660,2019-05-03 12:44:20,1556858660,867483f1a19cd9d92c3d994522f74f6f,https://cpa.rulead.com/s2s?token=074caac6-5613-11e9-8e3c-901b0ededfcf&transaction_id=867483f1a19cd9d92c3d994522f74f6f,idfa_26777a98-deda-4b5e-b773-fa153be7295b,ja
L1QveInOQcu2cj5SPsrMbA,rulead,5248_4250,Install,0.7,111.239.178.228,79caad97-ebb3-4f85-80ea-6b7ce3a9845a,1556861827,2019-05-03 13:37:07,1556861935,2019-05-03 13:38:55,1556861935,66f57a497ab465e1d7f92b7ebd50a974,https://cpa.rulead.com/s2s?token=074caac6-5613-11e9-8e3c-901b0ededfcf&transaction_id=66f57a497ab465e1d7f92b7ebd50a974,idfa_79caad97-ebb3-4f85-80ea-6b7ce3a9845a,ja
L1QveInOQcu2cj5SPsrMbA,rulead,5248_4250,Install,0.7,180.214.225.85,861b93d0-abdc-4809-8788-5d7d36875232,1556858555,2019-05-03 12:42:35,1556858653,2019-05-03 12:44:13,1556858653,258b9741ff960ad54d3bf9ca56a8cf64,https://cpa.rulead.com/s2s?token=074caac6-5613-11e9-8e3c-901b0ededfcf&transaction_id=258b9741ff960ad54d3bf9ca56a8cf64,idfa_861b93d0-abdc-4809-8788-5d7d36875232,ja
L1QveInOQcu2cj5SPsrMbA,rulead,5248_4250,Install,0.7,118.105.75.217,3de86715-d9ce-40dc-a407-2580d877df0d,1556862334,2019-05-03 13:45:34,1556862445,2019-05-03 13:47:25,1556862445,3e907480990f7e521809552e1df765cd,https://cpa.rulead.com/s2s?token=074caac6-5613-11e9-8e3c-901b0ededfcf&transaction_id=3e907480990f7e521809552e1df765cd,idfa_3de86715-d9ce-40dc-a407-2580d877df0d,ja
L1QveInOQcu2cj5SPsrMbA,rulead,5248_4250,Install,0.7,211.124.132.184,4d42f0d7-16b5-4d68-9d29-13f40aa5d398,1556862349,2019-05-03 13:45:49,1556862605,2019-05-03 13:50:05,1556862605,eda4e789cf8672828cd3c5fd6c7205a3,https://cpa.rulead.com/s2s?token=074caac6-5613-11e9-8e3c-901b0ededfcf&transaction_id=eda4e789cf8672828cd3c5fd6c7205a3,idfa_4d42f0d7-16b5-4d68-9d29-13f40aa5d398,ja
L1QveInOQcu2cj5SPsrMbA,rulead,5248_4250,Install,0.7,42.148.70.43,d7b24dd9-8853-4cc8-ba24-661af95a8ac8,1556863937,2019-05-03 14:12:17,1556864049,2019-05-03 14:14:09,1556864049,ecfc842ecd1b90e58a8e13ced604bc45,https://cpa.rulead.com/s2s?token=074caac6-5613-11e9-8e3c-901b0ededfcf&transaction_id=ecfc842ecd1b90e58a8e13ced604bc45,idfa_d7b24dd9-8853-4cc8-ba24-661af95a8ac8,ja
L1QveInOQcu2cj5SPsrMbA,rulead,5248_4250,Install,0.7,121.117.138.176,f410cc02-a8d4-4b0d-9997-26a8a540fbeb,1556859588,2019-05-03 12:59:48,1556859707,2019-05-03 13:01:47,1556859707,fd1d2a3e097b5bc41bb339782634046d,https://cpa.rulead.com/s2s?token=074caac6-5613-11e9-8e3c-901b0ededfcf&transaction_id=fd1d2a3e097b5bc41bb339782634046d,idfa_f410cc02-a8d4-4b0d-9997-26a8a540fbeb,ja
L1QveInOQcu2cj5SPsrMbA,rulead,5248_4250,Install,0.7,211.124.132.184,4f61fcd8-4752-4054-84fe-15382ee0b5ab,1556863418,2019-05-03 14:03:38,1556863555,2019-05-03 14:05:55,1556863555,accfde5fd11276c35b871ce5ea2acbc7,https://cpa.rulead.com/s2s?token=074caac6-5613-11e9-8e3c-901b0ededfcf&transaction_id=accfde5fd11276c35b871ce5ea2acbc7,idfa_4f61fcd8-4752-4054-84fe-15382ee0b5ab,ja
L1QveInOQcu2cj5SPsrMbA,rulead,5248_4250,Install,0.7,14.13.176.65,75711c58-9f71-4df8-8b3a-efbfc5f4d50d,1556864442,2019-05-03 14:20:42,1556864545,2019-05-03 14:22:25,1556864545,069a68474b3fb153d201d7522b6d2e55,https://cpa.rulead.com/s2s?token=074caac6-5613-11e9-8e3c-901b0ededfcf&transaction_id=069a68474b3fb153d201d7522b6d2e55,idfa_75711c58-9f71-4df8-8b3a-efbfc5f4d50d,ja
L1QveInOQcu2cj5SPsrMbA,rulead,5248_4250,Install,0.7,218.47.130.63,53d1499d-1ad5-48ab-80ad-29c18013cd70,1556861805,2019-05-03 13:36:45,1556861934,2019-05-03 13:38:54,1556861934,9d840501a52e24af517a49e49f41d1a1,https://cpa.rulead.com/s2s?token=074caac6-5613-11e9-8e3c-901b0ededfcf&transaction_id=9d840501a52e24af517a49e49f41d1a1,idfa_53d1499d-1ad5-48ab-80ad-29c18013cd70,ja
L1QveInOQcu2cj5SPsrMbA,rulead,5248_4250,Install,0.7,111.99.227.158,7f7ed9dd-266d-4a97-8d20-20589fc01795,1556859780,2019-05-03 13:03:00,1556859931,2019-05-03 13:05:31,1556859931,de9ded2568c6a149d8147ada23e1908a,https://cpa.rulead.com/s2s?token=074caac6-5613-11e9-8e3c-901b0ededfcf&transaction_id=de9ded2568c6a149d8147ada23e1908a,idfa_7f7ed9dd-266d-4a97-8d20-20589fc01795,ja
L1QveInOQcu2cj5SPsrMbA,rulead,5248_4250,Install,0.7,121.2.159.89,79bbbeb1-dc9d-471f-a4df-2e67792e8b71,1556861845,2019-05-03 13:37:25,1556861969,2019-05-03 13:39:29,1556861969,61fcfd21c6a691c80decfa969fd1e84b,https://cpa.rulead.com/s2s?token=074caac6-5613-11e9-8e3c-901b0ededfcf&transaction_id=61fcfd21c6a691c80decfa969fd1e84b,idfa_79bbbeb1-dc9d-471f-a4df-2e67792e8b71,ja
L1QveInOQcu2cj5SPsrMbA,rulead,5248_4250,Install,0.7,133.218.43.240,3dbc94eb-1423-45a9-8bee-607378252561,1556861815,2019-05-03 13:36:55,1556861935,2019-05-03 13:38:55,1556861935,8a47878afcdf40c49839c038e3afd13f,https://cpa.rulead.com/s2s?token=074caac6-5613-11e9-8e3c-901b0ededfcf&transaction_id=8a47878afcdf40c49839c038e3afd13f,idfa_3dbc94eb-1423-45a9-8bee-607378252561,ja
L1QveInOQcu2cj5SPsrMbA,rulead,5248_4250,Install,0.7,210.237.119.195,20b47929-b60f-4496-8576-3582b0e6e9fe,1556858437,2019-05-03 12:40:37,1556858591,2019-05-03 12:43:11,1556858591,95a759904f8fb2cccb85f9798d6f2aaf,https://cpa.rulead.com/s2s?token=074caac6-5613-11e9-8e3c-901b0ededfcf&transaction_id=95a759904f8fb2cccb85f9798d6f2aaf,idfa_20b47929-b60f-4496-8576-3582b0e6e9fe,ja
L1QveInOQcu2cj5SPsrMbA,rulead,5248_4250,Install,0.7,114.145.250.175,0d4b4e71-099e-4757-bd80-241ff92233d9,1556864064,2019-05-03 14:14:24,1556864195,2019-05-03 14:16:35,1556864195,3413e7c56ecdd0d431d4b570ef32b818,https://cpa.rulead.com/s2s?token=074caac6-5613-11e9-8e3c-901b0ededfcf&transaction_id=3413e7c56ecdd0d431d4b570ef32b818,idfa_0d4b4e71-099e-4757-bd80-241ff92233d9,ja
L1QveInOQcu2cj5SPsrMbA,rulead,5248_4250,Install,0.7,106.73.232.33,cc36352e-d585-47a8-9dad-df460041568e,1556863593,2019-05-03 14:06:33,1556863672,2019-05-03 14:07:52,1556863672,1aea436a2933bc36059326e441f48f72,https://cpa.rulead.com/s2s?token=074caac6-5613-11e9-8e3c-901b0ededfcf&transaction_id=1aea436a2933bc36059326e441f48f72,idfa_cc36352e-d585-47a8-9dad-df460041568e,ja
L1QveInOQcu2cj5SPsrMbA,rulead,5248_4250,Install,0.7,126.207.29.183,53bfd44f-2ef6-4e34-bbd4-9a86d4d3af07,1556858595,2019-05-03 12:43:15,1556858717,2019-05-03 12:45:17,1556858717,66a415424279d31815b2375c5d28491b,https://cpa.rulead.com/s2s?token=074caac6-5613-11e9-8e3c-901b0ededfcf&transaction_id=66a415424279d31815b2375c5d28491b,idfa_53bfd44f-2ef6-4e34-bbd4-9a86d4d3af07,ja
L1QveInOQcu2cj5SPsrMbA,rulead,5248_4250,Install,0.7,27.139.166.6,fd7d64d0-2755-4cbb-b00c-4a17b1cbad08,1556861820,2019-05-03 13:37:00,1556862242,2019-05-03 13:44:02,1556862242,517e0ef2a4199b283682659b1002fc70,https://cpa.rulead.com/s2s?token=074caac6-5613-11e9-8e3c-901b0ededfcf&transaction_id=517e0ef2a4199b283682659b1002fc70,idfa_fd7d64d0-2755-4cbb-b00c-4a17b1cbad08,ja
L1QveInOQcu2cj5SPsrMbA,rulead,5248_4250,Install,0.7,126.142.121.244,45b0de3c-e1dd-4064-8af2-9cc2b0274d20,1556858750,2019-05-03 12:45:50,1556858872,2019-05-03 12:47:52,1556858872,2cdafa62008dd55e6dd2389a50e35cb7,https://cpa.rulead.com/s2s?token=074caac6-5613-11e9-8e3c-901b0ededfcf&transaction_id=2cdafa62008dd55e6dd2389a50e35cb7,idfa_45b0de3c-e1dd-4064-8af2-9cc2b0274d20,ja
L1QveInOQcu2cj5SPsrMbA,rulead,5248_4250,Install,0.7,125.197.197.8,c6ed3ccd-050e-4365-b87a-f8f4547d29b5,1556864437,2019-05-03 14:20:37,1556864570,2019-05-03 14:22:50,1556864570,98f171ee953af0f4111d3f8859d5171d,https://cpa.rulead.com/s2s?token=074caac6-5613-11e9-8e3c-901b0ededfcf&transaction_id=98f171ee953af0f4111d3f8859d5171d,idfa_c6ed3ccd-050e-4365-b87a-f8f4547d29b5,ja
L1QveInOQcu2cj5SPsrMbA,rulead,5248_4250,Install,0.7,202.215.107.12,4dc7c06d-374d-409d-b36b-8bee5295be07,1556863157,2019-05-03 13:59:17,1556863267,2019-05-03 14:01:07,1556863267,d5c0f4642c3fe16a076fe6ce5d89efaa,https://cpa.rulead.com/s2s?token=074caac6-5613-11e9-8e3c-901b0ededfcf&transaction_id=d5c0f4642c3fe16a076fe6ce5d89efaa,idfa_4dc7c06d-374d-409d-b36b-8bee5295be07,ja
L1QveInOQcu2cj5SPsrMbA,rulead,5248_4250,Install,0.7,60.150.155.94,73225931-0c08-4668-a6b7-2f589f1beb99,1556863399,2019-05-03 14:03:19,1556863507,2019-05-03 14:05:07,1556863507,e30d932743e33aec4d0af95bef57e755,https://cpa.rulead.com/s2s?token=074caac6-5613-11e9-8e3c-901b0ededfcf&transaction_id=e30d932743e33aec4d0af95bef57e755,idfa_73225931-0c08-4668-a6b7-2f589f1beb99,ja
L1QveInOQcu2cj5SPsrMbA,rulead,5248_4250,Install,0.7,218.216.252.49,bac8024a-bf70-4ccb-b24f-74720650c72b,1556864393,2019-05-03 14:19:53,1556864533,2019-05-03 14:22:13,1556864533,9eb900e648e98d08de51ad58b20c9424,https://cpa.rulead.com/s2s?token=074caac6-5613-11e9-8e3c-901b0ededfcf&transaction_id=9eb900e648e98d08de51ad58b20c9424,idfa_bac8024a-bf70-4ccb-b24f-74720650c72b,ja
L1QveInOQcu2cj5SPsrMbA,rulead,5248_4250,Install,0.7,126.207.29.183,f11b67f8-5ed1-4ca3-8400-77cd32fdfb5c,1556861815,2019-05-03 13:36:55,1556861966,2019-05-03 13:39:26,1556861966,be790c606d33fcd4a7de3d20159341fa,https://cpa.rulead.com/s2s?token=074caac6-5613-11e9-8e3c-901b0ededfcf&transaction_id=be790c606d33fcd4a7de3d20159341fa,idfa_f11b67f8-5ed1-4ca3-8400-77cd32fdfb5c,ja
L1QveInOQcu2cj5SPsrMbA,rulead,5248_4250,Install,0.7,180.21.28.14,279b32d6-dd39-46ce-ad3d-84ba7fd9248c,1556862614,2019-05-03 13:50:14,1556862788,2019-05-03 13:53:08,1556862788,29d8b92e49a4854707405e5e623f13c6,https://cpa.rulead.com/s2s?token=074caac6-5613-11e9-8e3c-901b0ededfcf&transaction_id=29d8b92e49a4854707405e5e623f13c6,idfa_279b32d6-dd39-46ce-ad3d-84ba7fd9248c,ja
L1QveInOQcu2cj5SPsrMbA,rulead,5248_4250,Install,0.7,60.120.144.164,2e6abd2c-cafc-4ac1-ad3e-054fb3971bbb,1556862868,2019-05-03 13:54:28,1556862996,2019-05-03 13:56:36,1556862996,b21cca75bdc15801469ea481455288e5,https://cpa.rulead.com/s2s?token=074caac6-5613-11e9-8e3c-901b0ededfcf&transaction_id=b21cca75bdc15801469ea481455288e5,idfa_2e6abd2c-cafc-4ac1-ad3e-054fb3971bbb,ja
L1QveInOQcu2cj5SPsrMbA,rulead,5248_4250,Install,0.7,210.128.19.45,7e02fe17-071b-4d2c-a8c1-046e5d1c3ae3,1556863848,2019-05-03 14:10:48,1556863978,2019-05-03 14:12:58,1556863978,16b23a0fe5d6c5ecfa36ea136a9cc1c9,https://cpa.rulead.com/s2s?token=074caac6-5613-11e9-8e3c-901b0ededfcf&transaction_id=16b23a0fe5d6c5ecfa36ea136a9cc1c9,idfa_7e02fe17-071b-4d2c-a8c1-046e5d1c3ae3,ja
L1QveInOQcu2cj5SPsrMbA,rulead,5248_4250,Install,0.7,153.208.111.154,c163ceba-0e0a-4f1a-a273-482e909de3f0,1556859783,2019-05-03 13:03:03,1556859895,2019-05-03 13:04:55,1556859895,98746fd255a2a41801a0c92887a69328,https://cpa.rulead.com/s2s?token=074caac6-5613-11e9-8e3c-901b0ededfcf&transaction_id=98746fd255a2a41801a0c92887a69328,idfa_c163ceba-0e0a-4f1a-a273-482e909de3f0,ja
