cid,partner_id,channel_id,action_id,cpi,ip,idfa,click time,click datetime,install time,install datetime,postback time,click id,postback url,unique user id
L1QveInOQcu2cj5SPsrMbA,rulead,5483_3306,Install,0.7,198.144.138.21,d93cee59-e2c9-490b-8026-055b650ba879,1558097716,2019-05-17 20:55:16,1558097924,2019-05-17 20:58:44,1558097924,5f5ab40daac6ea09f256aa0a96a1dfef,https://cpa.rulead.com/s2s?token=074caac6-5613-11e9-8e3c-901b0ededfcf&transaction_id=5f5ab40daac6ea09f256aa0a96a1dfef,idfa_d93cee59-e2c9-490b-8026-055b650ba879,ja
L1QveInOQcu2cj5SPsrMbA,rulead,5483_3306,Install,0.7,60.83.64.94,797f5e95-a4a4-41af-b84a-900aaf75b136,1558095132,2019-05-17 20:12:12,1558097236,2019-05-17 20:47:16,1558097236,82f6f4dab4ee0fcc7feb3d1b61cac37c,https://cpa.rulead.com/s2s?token=074caac6-5613-11e9-8e3c-901b0ededfcf&transaction_id=82f6f4dab4ee0fcc7feb3d1b61cac37c,idfa_797f5e95-a4a4-41af-b84a-900aaf75b136,ja
L1QveInOQcu2cj5SPsrMbA,rulead,5483_3306,Install,0.7,118.240.207.135,f1d4d2e6-7d3e-4635-9ed6-1a9ab926be6e,1558096347,2019-05-17 20:32:27,1558096522,2019-05-17 20:35:22,1558096522,658153dde87e03c96974134d8c0c2ac4,https://cpa.rulead.com/s2s?token=074caac6-5613-11e9-8e3c-901b0ededfcf&transaction_id=658153dde87e03c96974134d8c0c2ac4,idfa_f1d4d2e6-7d3e-4635-9ed6-1a9ab926be6e,ja
L1QveInOQcu2cj5SPsrMbA,rulead,5483_3306,Install,0.7,14.177.239.38,6188301d-cf48-420b-9457-e53af20446d2,1558095314,2019-05-17 20:15:14,1558095544,2019-05-17 20:19:04,1558095544,8e32b46ae4afe51bffc79b630d9f0840,https://cpa.rulead.com/s2s?token=074caac6-5613-11e9-8e3c-901b0ededfcf&transaction_id=8e32b46ae4afe51bffc79b630d9f0840,idfa_6188301d-cf48-420b-9457-e53af20446d2,ja
L1QveInOQcu2cj5SPsrMbA,rulead,5483_3306,Install,0.7,118.240.187.63,0c228460-ef9d-4218-8e60-ab456c3d4f86,1558095609,2019-05-17 20:20:09,1558096429,2019-05-17 20:33:49,1558096429,369a35f84a2fbeb5c934274d20e6e2d9,https://cpa.rulead.com/s2s?token=074caac6-5613-11e9-8e3c-901b0ededfcf&transaction_id=369a35f84a2fbeb5c934274d20e6e2d9,idfa_0c228460-ef9d-4218-8e60-ab456c3d4f86,ja
L1QveInOQcu2cj5SPsrMbA,rulead,5483_3306,Install,0.7,114.176.82.233,84b79971-2db9-4fe4-8aa8-1f96fd09dde5,1558094232,2019-05-17 19:57:12,1558094386,2019-05-17 19:59:46,1558094386,5af153257bbf82967fd2ad763a0e53f5,https://cpa.rulead.com/s2s?token=074caac6-5613-11e9-8e3c-901b0ededfcf&transaction_id=5af153257bbf82967fd2ad763a0e53f5,idfa_84b79971-2db9-4fe4-8aa8-1f96fd09dde5,ja
L1QveInOQcu2cj5SPsrMbA,rulead,5483_3306,Install,0.7,114.170.124.76,abaf1750-3cba-40bc-9a82-eb648b3be9cd,1558094983,2019-05-17 20:09:43,1558095190,2019-05-17 20:13:10,1558095190,36b408dbdffd25f359e42cb4703fdd39,https://cpa.rulead.com/s2s?token=074caac6-5613-11e9-8e3c-901b0ededfcf&transaction_id=36b408dbdffd25f359e42cb4703fdd39,idfa_abaf1750-3cba-40bc-9a82-eb648b3be9cd,ja
L1QveInOQcu2cj5SPsrMbA,rulead,5483_3306,Install,0.7,118.158.53.19,6ad3ac1c-f0b4-406c-8617-ba0273b7ad0c,1558095095,2019-05-17 20:11:35,1558095273,2019-05-17 20:14:33,1558095273,edea0ae47f82d684a93013bb26cca507,https://cpa.rulead.com/s2s?token=074caac6-5613-11e9-8e3c-901b0ededfcf&transaction_id=edea0ae47f82d684a93013bb26cca507,idfa_6ad3ac1c-f0b4-406c-8617-ba0273b7ad0c,ja
L1QveInOQcu2cj5SPsrMbA,rulead,5483_3306,Install,0.7,153.163.27.150,1023d865-736b-4343-a230-c0635f307f86,1558095630,2019-05-17 20:20:30,1558096403,2019-05-17 20:33:23,1558096403,5f1f30d567f597d9e1f6023b154f98bb,https://cpa.rulead.com/s2s?token=074caac6-5613-11e9-8e3c-901b0ededfcf&transaction_id=5f1f30d567f597d9e1f6023b154f98bb,idfa_1023d865-736b-4343-a230-c0635f307f86,ja
L1QveInOQcu2cj5SPsrMbA,rulead,5483_3306,Install,0.7,126.12.234.245,3a42cc6f-e14b-4516-856e-c95caa26f696,1558095667,2019-05-17 20:21:07,1558095837,2019-05-17 20:23:57,1558095837,1c577913debec3b1647e24c4838c42e5,https://cpa.rulead.com/s2s?token=074caac6-5613-11e9-8e3c-901b0ededfcf&transaction_id=1c577913debec3b1647e24c4838c42e5,idfa_3a42cc6f-e14b-4516-856e-c95caa26f696,ja
L1QveInOQcu2cj5SPsrMbA,rulead,5483_3306,Install,0.7,14.232.163.135,32edf008-0738-4bec-ab70-18d8a1be65ee,1558097495,2019-05-17 20:51:35,1558097696,2019-05-17 20:54:56,1558097696,fa5cddb54388ffb709750bc27651da4b,https://cpa.rulead.com/s2s?token=074caac6-5613-11e9-8e3c-901b0ededfcf&transaction_id=fa5cddb54388ffb709750bc27651da4b,idfa_32edf008-0738-4bec-ab70-18d8a1be65ee,ja
L1QveInOQcu2cj5SPsrMbA,rulead,5483_3306,Install,0.7,114.149.168.81,a436bf0b-383e-4b85-8d23-ff27433dbb53,1558094354,2019-05-17 19:59:14,1558094841,2019-05-17 20:07:21,1558094841,075808b2acab3ba145d2b9392198c15d,https://cpa.rulead.com/s2s?token=074caac6-5613-11e9-8e3c-901b0ededfcf&transaction_id=075808b2acab3ba145d2b9392198c15d,idfa_a436bf0b-383e-4b85-8d23-ff27433dbb53,ja
L1QveInOQcu2cj5SPsrMbA,rulead,5483_3306,Install,0.7,163.58.185.224,4b0f93bb-4d52-4b49-bd82-7c6a8a0c7a22,1558095140,2019-05-17 20:12:20,1558095401,2019-05-17 20:16:41,1558095401,77e14f8536710535d2f7f550e78339c2,https://cpa.rulead.com/s2s?token=074caac6-5613-11e9-8e3c-901b0ededfcf&transaction_id=77e14f8536710535d2f7f550e78339c2,idfa_4b0f93bb-4d52-4b49-bd82-7c6a8a0c7a22,ja
L1QveInOQcu2cj5SPsrMbA,rulead,5483_3306,Install,0.7,60.125.218.223,a597a58e-7e17-44f9-9b18-5a5072af7731,1558094967,2019-05-17 20:09:27,1558095171,2019-05-17 20:12:51,1558095171,4bc446a89da6e5223187f21d6d8c6857,https://cpa.rulead.com/s2s?token=074caac6-5613-11e9-8e3c-901b0ededfcf&transaction_id=4bc446a89da6e5223187f21d6d8c6857,idfa_a597a58e-7e17-44f9-9b18-5a5072af7731,ja
L1QveInOQcu2cj5SPsrMbA,rulead,5483_3306,Install,0.7,114.189.181.233,af3394db-5b97-4624-a5cb-8dc99485087d,1558094473,2019-05-17 20:01:13,1558094668,2019-05-17 20:04:28,1558094668,7b99201c45ff239c65777ab01318463a,https://cpa.rulead.com/s2s?token=074caac6-5613-11e9-8e3c-901b0ededfcf&transaction_id=7b99201c45ff239c65777ab01318463a,idfa_af3394db-5b97-4624-a5cb-8dc99485087d,ja
L1QveInOQcu2cj5SPsrMbA,rulead,5483_3306,Install,0.7,126.123.202.5,d5acc2c6-3fda-4aae-9499-64120dad2daa,1558094871,2019-05-17 20:07:51,1558095082,2019-05-17 20:11:22,1558095082,b3802209e33cc3592accbf03d0ff3998,https://cpa.rulead.com/s2s?token=074caac6-5613-11e9-8e3c-901b0ededfcf&transaction_id=b3802209e33cc3592accbf03d0ff3998,idfa_d5acc2c6-3fda-4aae-9499-64120dad2daa,ja
L1QveInOQcu2cj5SPsrMbA,rulead,5483_3306,Install,0.7,153.156.231.132,bd5404fd-93f8-41c6-b523-9471a2b4d532,1558094288,2019-05-17 19:58:08,1558094489,2019-05-17 20:01:29,1558094489,11cc54a7d2019e4a09d46b594f4cb89f,https://cpa.rulead.com/s2s?token=074caac6-5613-11e9-8e3c-901b0ededfcf&transaction_id=11cc54a7d2019e4a09d46b594f4cb89f,idfa_bd5404fd-93f8-41c6-b523-9471a2b4d532,ja
L1QveInOQcu2cj5SPsrMbA,rulead,5483_3306,Install,0.7,14.13.197.0,fc6c0554-debf-44a2-9ad0-39b1d8ed9c5f,1558094105,2019-05-17 19:55:05,1558094295,2019-05-17 19:58:15,1558094295,ad50203a84c45d7e065f2ab53908df94,https://cpa.rulead.com/s2s?token=074caac6-5613-11e9-8e3c-901b0ededfcf&transaction_id=ad50203a84c45d7e065f2ab53908df94,idfa_fc6c0554-debf-44a2-9ad0-39b1d8ed9c5f,ja
L1QveInOQcu2cj5SPsrMbA,rulead,5483_3306,Install,0.7,182.167.145.234,50b57c8b-ef0e-4899-8ae7-984cc0674acf,1558094279,2019-05-17 19:57:59,1558094489,2019-05-17 20:01:29,1558094489,5bf2f57e21beeb2cf1d7acba24760783,https://cpa.rulead.com/s2s?token=074caac6-5613-11e9-8e3c-901b0ededfcf&transaction_id=5bf2f57e21beeb2cf1d7acba24760783,idfa_50b57c8b-ef0e-4899-8ae7-984cc0674acf,ja
L1QveInOQcu2cj5SPsrMbA,rulead,5483_3306,Install,0.7,59.168.241.100,fbbff9e2-cf7b-4784-aa16-e9c02e5208c0,1558094970,2019-05-17 20:09:30,1558095180,2019-05-17 20:13:00,1558095180,b96b4cdbe6264330d61a863f9164ff1d,https://cpa.rulead.com/s2s?token=074caac6-5613-11e9-8e3c-901b0ededfcf&transaction_id=b96b4cdbe6264330d61a863f9164ff1d,idfa_fbbff9e2-cf7b-4784-aa16-e9c02e5208c0,ja
L1QveInOQcu2cj5SPsrMbA,rulead,5483_3306,Install,0.7,220.109.76.234,8dc87e16-ef1a-49f6-9030-26d33097e02a,1558094258,2019-05-17 19:57:38,1558094446,2019-05-17 20:00:46,1558094446,2835b0876fa757ad07bb0642da99ddc4,https://cpa.rulead.com/s2s?token=074caac6-5613-11e9-8e3c-901b0ededfcf&transaction_id=2835b0876fa757ad07bb0642da99ddc4,idfa_8dc87e16-ef1a-49f6-9030-26d33097e02a,ja
L1QveInOQcu2cj5SPsrMbA,rulead,5483_3306,Install,0.7,60.134.64.100,bde0650b-1e9e-4dd9-907e-10944831e956,1558096403,2019-05-17 20:33:23,1558096622,2019-05-17 20:37:02,1558096622,a4f1ce8644d7ce5f102b6bb3c6588826,https://cpa.rulead.com/s2s?token=074caac6-5613-11e9-8e3c-901b0ededfcf&transaction_id=a4f1ce8644d7ce5f102b6bb3c6588826,idfa_bde0650b-1e9e-4dd9-907e-10944831e956,ja
L1QveInOQcu2cj5SPsrMbA,rulead,5483_3306,Install,0.7,220.108.212.3,45d20031-ac6d-433e-b994-7a8e61506abf,1558097771,2019-05-17 20:56:11,1558097918,2019-05-17 20:58:38,1558097918,22afe9b086257e89080523c0066a9088,https://cpa.rulead.com/s2s?token=074caac6-5613-11e9-8e3c-901b0ededfcf&transaction_id=22afe9b086257e89080523c0066a9088,idfa_45d20031-ac6d-433e-b994-7a8e61506abf,ja
L1QveInOQcu2cj5SPsrMbA,rulead,5483_3306,Install,0.7,118.2.91.100,07d48f1e-5f12-4714-a192-f887fea51d98,1558094281,2019-05-17 19:58:01,1558094507,2019-05-17 20:01:47,1558094507,90ea8a483f6f2b08752437b2e3463568,https://cpa.rulead.com/s2s?token=074caac6-5613-11e9-8e3c-901b0ededfcf&transaction_id=90ea8a483f6f2b08752437b2e3463568,idfa_07d48f1e-5f12-4714-a192-f887fea51d98,ja
