cid,partner_id,channel_id,action_id,cpi,ip,idfa,click time,click datetime,install time,install datetime,postback time,click id,postback url,unique user id
L1QveInOQcu2cj5SPsrMbA,rulead,5301_5640,Install,0.7,119.106.56.154,1dbe6bd8-9257-417a-9dce-f33f0409997c,1557113502,2019-05-06 11:31:42,1557113657,2019-05-06 11:34:17,1557113657,efb86ad64ff45b4c48d0aefc96fd789a,https://cpa.rulead.com/s2s?token=074caac6-5613-11e9-8e3c-901b0ededfcf&transaction_id=efb86ad64ff45b4c48d0aefc96fd789a,idfa_1dbe6bd8-9257-417a-9dce-f33f0409997c,ja
L1QveInOQcu2cj5SPsrMbA,rulead,5301_5640,Install,0.7,153.142.230.140,1e7ced7d-add0-42ad-adbb-30403e7a413a,1557110641,2019-05-06 10:44:01,1557110797,2019-05-06 10:46:37,1557110797,d6ef38c447072c10948c37c8062a876a,https://cpa.rulead.com/s2s?token=074caac6-5613-11e9-8e3c-901b0ededfcf&transaction_id=d6ef38c447072c10948c37c8062a876a,idfa_1e7ced7d-add0-42ad-adbb-30403e7a413a,ja
L1QveInOQcu2cj5SPsrMbA,rulead,5301_5640,Install,0.7,221.29.42.45,d88dd17c-7afb-488c-8609-9c445c5e9e2f,1557113572,2019-05-06 11:32:52,1557113723,2019-05-06 11:35:23,1557113723,e3799961387cf52a63067e26fff4e02b,https://cpa.rulead.com/s2s?token=074caac6-5613-11e9-8e3c-901b0ededfcf&transaction_id=e3799961387cf52a63067e26fff4e02b,idfa_d88dd17c-7afb-488c-8609-9c445c5e9e2f,ja
L1QveInOQcu2cj5SPsrMbA,rulead,5301_5640,Install,0.7,113.153.50.167,bf8f6e14-875c-438f-b6cc-66664b60f56f,1557109147,2019-05-06 10:19:07,1557109403,2019-05-06 10:23:23,1557109403,45945eae82977e53664c3d5dba91570c,https://cpa.rulead.com/s2s?token=074caac6-5613-11e9-8e3c-901b0ededfcf&transaction_id=45945eae82977e53664c3d5dba91570c,idfa_bf8f6e14-875c-438f-b6cc-66664b60f56f,ja
L1QveInOQcu2cj5SPsrMbA,rulead,5301_5640,Install,0.7,126.7.140.132,d860c8f9-0dfb-4c35-907e-28e03bd0bd65,1557111255,2019-05-06 10:54:15,1557111412,2019-05-06 10:56:52,1557111412,3db00a0092ae2341116cb2c2adf1bb39,https://cpa.rulead.com/s2s?token=074caac6-5613-11e9-8e3c-901b0ededfcf&transaction_id=3db00a0092ae2341116cb2c2adf1bb39,idfa_d860c8f9-0dfb-4c35-907e-28e03bd0bd65,ja
L1QveInOQcu2cj5SPsrMbA,rulead,5301_5640,Install,0.7,14.232.163.135,beb3fbd9-9e74-4fa9-8616-21cee03a153d,1557111861,2019-05-06 11:04:21,1557111982,2019-05-06 11:06:22,1557111982,95c1317b299527c549cd60b8315b9782,https://cpa.rulead.com/s2s?token=074caac6-5613-11e9-8e3c-901b0ededfcf&transaction_id=95c1317b299527c549cd60b8315b9782,idfa_beb3fbd9-9e74-4fa9-8616-21cee03a153d,ja
L1QveInOQcu2cj5SPsrMbA,rulead,5301_5640,Install,0.7,60.139.50.155,db97c604-2917-4fce-9167-61175a3ad987,1557108190,2019-05-06 10:03:10,1557108317,2019-05-06 10:05:17,1557108317,01c33eb8d6a0a7fc1097e719c48876ef,https://cpa.rulead.com/s2s?token=074caac6-5613-11e9-8e3c-901b0ededfcf&transaction_id=01c33eb8d6a0a7fc1097e719c48876ef,idfa_db97c604-2917-4fce-9167-61175a3ad987,ja
L1QveInOQcu2cj5SPsrMbA,rulead,5301_5640,Install,0.7,118.83.17.174,89897b57-c9ee-4e57-8449-de222b85e5fc,1557111039,2019-05-06 10:50:39,1557111172,2019-05-06 10:52:52,1557111172,a8e3c791587ba2f87777e2d692b95862,https://cpa.rulead.com/s2s?token=074caac6-5613-11e9-8e3c-901b0ededfcf&transaction_id=a8e3c791587ba2f87777e2d692b95862,idfa_89897b57-c9ee-4e57-8449-de222b85e5fc,ja
L1QveInOQcu2cj5SPsrMbA,rulead,5301_5640,Install,0.7,183.86.87.35,e31face5-6188-4d54-a753-6fb80df55fa8,1557111947,2019-05-06 11:05:47,1557112240,2019-05-06 11:10:40,1557112240,029007a29b2c81e0a6144f8010cff5c0,https://cpa.rulead.com/s2s?token=074caac6-5613-11e9-8e3c-901b0ededfcf&transaction_id=029007a29b2c81e0a6144f8010cff5c0,idfa_e31face5-6188-4d54-a753-6fb80df55fa8,ja
L1QveInOQcu2cj5SPsrMbA,rulead,5301_5640,Install,0.7,60.90.23.79,ffb4a9d6-058d-417c-af55-39055b5f2232,1557113369,2019-05-06 11:29:29,1557113484,2019-05-06 11:31:24,1557113484,09437256152f01c88ab19f9566021263,https://cpa.rulead.com/s2s?token=074caac6-5613-11e9-8e3c-901b0ededfcf&transaction_id=09437256152f01c88ab19f9566021263,idfa_ffb4a9d6-058d-417c-af55-39055b5f2232,ja
L1QveInOQcu2cj5SPsrMbA,rulead,5301_5640,Install,0.7,211.132.42.93,4af1a574-9dae-46cc-9188-e8c130466383,1557107592,2019-05-06 09:53:12,1557107715,2019-05-06 09:55:15,1557107715,f9813df7d4fe6c35f743802c47b192a4,https://cpa.rulead.com/s2s?token=074caac6-5613-11e9-8e3c-901b0ededfcf&transaction_id=f9813df7d4fe6c35f743802c47b192a4,idfa_4af1a574-9dae-46cc-9188-e8c130466383,ja
L1QveInOQcu2cj5SPsrMbA,rulead,5301_5640,Install,0.7,118.105.16.183,5284ed0a-d09b-410c-9f4f-48fb02a06f52,1557108883,2019-05-06 10:14:43,1557108990,2019-05-06 10:16:30,1557108990,20bc56c2d7cab328892d59d6fee47b32,https://cpa.rulead.com/s2s?token=074caac6-5613-11e9-8e3c-901b0ededfcf&transaction_id=20bc56c2d7cab328892d59d6fee47b32,idfa_5284ed0a-d09b-410c-9f4f-48fb02a06f52,ja
L1QveInOQcu2cj5SPsrMbA,rulead,5301_5640,Install,0.7,60.142.222.188,5a640e02-2127-4e49-8e2e-49418272f423,1557111089,2019-05-06 10:51:29,1557111293,2019-05-06 10:54:53,1557111293,147a7cbacb023ec418ae40797ff42482,https://cpa.rulead.com/s2s?token=074caac6-5613-11e9-8e3c-901b0ededfcf&transaction_id=147a7cbacb023ec418ae40797ff42482,idfa_5a640e02-2127-4e49-8e2e-49418272f423,ja
L1QveInOQcu2cj5SPsrMbA,rulead,5301_5640,Install,0.7,223.216.58.198,44411e4f-18a6-4198-8767-ef0a64d8f3d6,1557108425,2019-05-06 10:07:05,1557108693,2019-05-06 10:11:33,1557108693,7100f1aa47428b3fecf9f8511b8a381f,https://cpa.rulead.com/s2s?token=074caac6-5613-11e9-8e3c-901b0ededfcf&transaction_id=7100f1aa47428b3fecf9f8511b8a381f,idfa_44411e4f-18a6-4198-8767-ef0a64d8f3d6,ja
L1QveInOQcu2cj5SPsrMbA,rulead,5301_5640,Install,0.7,122.30.91.69,d4c70d58-a7c5-4822-b7bd-6a55b4a314d7,1557110627,2019-05-06 10:43:47,1557110764,2019-05-06 10:46:04,1557110764,dd148152ccd7fb4c2e1df23ac14ef883,https://cpa.rulead.com/s2s?token=074caac6-5613-11e9-8e3c-901b0ededfcf&transaction_id=dd148152ccd7fb4c2e1df23ac14ef883,idfa_d4c70d58-a7c5-4822-b7bd-6a55b4a314d7,ja
L1QveInOQcu2cj5SPsrMbA,rulead,5301_5640,Install,0.7,121.116.235.57,78ecd1fe-6190-42a7-98ba-4070d4a5747e,1557110826,2019-05-06 10:47:06,1557110962,2019-05-06 10:49:22,1557110962,3c529cb88dc0b986167c3146d742efb6,https://cpa.rulead.com/s2s?token=074caac6-5613-11e9-8e3c-901b0ededfcf&transaction_id=3c529cb88dc0b986167c3146d742efb6,idfa_78ecd1fe-6190-42a7-98ba-4070d4a5747e,ja
L1QveInOQcu2cj5SPsrMbA,rulead,5301_5640,Install,0.7,123.255.234.21,07625cd7-32af-429b-ae74-79abf46483ba,1557112302,2019-05-06 11:11:42,1557112524,2019-05-06 11:15:24,1557112524,ace0633ffa7605d5536f8f3d18c97f92,https://cpa.rulead.com/s2s?token=074caac6-5613-11e9-8e3c-901b0ededfcf&transaction_id=ace0633ffa7605d5536f8f3d18c97f92,idfa_07625cd7-32af-429b-ae74-79abf46483ba,ja
L1QveInOQcu2cj5SPsrMbA,rulead,5301_5640,Install,0.7,125.207.220.237,5e9176f8-49e5-490f-a991-ff68ff970254,1557108823,2019-05-06 10:13:43,1557109059,2019-05-06 10:17:39,1557109059,b3794f312d96b14074bfbcaf80be279f,https://cpa.rulead.com/s2s?token=074caac6-5613-11e9-8e3c-901b0ededfcf&transaction_id=b3794f312d96b14074bfbcaf80be279f,idfa_5e9176f8-49e5-490f-a991-ff68ff970254,ja
L1QveInOQcu2cj5SPsrMbA,rulead,5301_5640,Install,0.7,61.197.165.41,fdab1850-30fb-4943-90ae-d4126b488fd3,1557110427,2019-05-06 10:40:27,1557110601,2019-05-06 10:43:21,1557110601,8a63e8993e825791ff978e38d569947f,https://cpa.rulead.com/s2s?token=074caac6-5613-11e9-8e3c-901b0ededfcf&transaction_id=8a63e8993e825791ff978e38d569947f,idfa_fdab1850-30fb-4943-90ae-d4126b488fd3,ja
L1QveInOQcu2cj5SPsrMbA,rulead,5301_5640,Install,0.7,60.34.167.103,e39b3695-c80a-4714-b6c8-87b56f993230,1557110659,2019-05-06 10:44:19,1557110803,2019-05-06 10:46:43,1557110803,69b11b691dcee0f54dd2661e0e6ef763,https://cpa.rulead.com/s2s?token=074caac6-5613-11e9-8e3c-901b0ededfcf&transaction_id=69b11b691dcee0f54dd2661e0e6ef763,idfa_e39b3695-c80a-4714-b6c8-87b56f993230,ja
L1QveInOQcu2cj5SPsrMbA,rulead,5301_5640,Install,0.7,14.8.8.64,975596cd-b825-4a1a-add1-34d02e2a1917,1557112416,2019-05-06 11:13:36,1557112668,2019-05-06 11:17:48,1557112668,efc1158f49c8c486d9c4d3336f011ce8,https://cpa.rulead.com/s2s?token=074caac6-5613-11e9-8e3c-901b0ededfcf&transaction_id=efc1158f49c8c486d9c4d3336f011ce8,idfa_975596cd-b825-4a1a-add1-34d02e2a1917,ja
L1QveInOQcu2cj5SPsrMbA,rulead,5301_5640,Install,0.7,118.152.161.79,91543260-fdc1-432d-b555-d31e76be746b,1557109152,2019-05-06 10:19:12,1557109436,2019-05-06 10:23:56,1557109436,8e341182f8646a286c579a698a20b838,https://cpa.rulead.com/s2s?token=074caac6-5613-11e9-8e3c-901b0ededfcf&transaction_id=8e341182f8646a286c579a698a20b838,idfa_91543260-fdc1-432d-b555-d31e76be746b,ja
L1QveInOQcu2cj5SPsrMbA,rulead,5301_5640,Install,0.7,60.41.222.245,fd5b81e4-9f67-49b0-8638-741c9a555a38,1557110800,2019-05-06 10:46:40,1557111042,2019-05-06 10:50:42,1557111042,53a42cc8a7e2606145402003fbad29f1,https://cpa.rulead.com/s2s?token=074caac6-5613-11e9-8e3c-901b0ededfcf&transaction_id=53a42cc8a7e2606145402003fbad29f1,idfa_fd5b81e4-9f67-49b0-8638-741c9a555a38,ja
L1QveInOQcu2cj5SPsrMbA,rulead,5301_5640,Install,0.7,183.86.179.5,acb6640c-301e-420c-a5fd-efb961db5f59,1557112961,2019-05-06 11:22:41,1557113100,2019-05-06 11:25:00,1557113100,732c4af96cb5bbae92c3017e74ad7ae6,https://cpa.rulead.com/s2s?token=074caac6-5613-11e9-8e3c-901b0ededfcf&transaction_id=732c4af96cb5bbae92c3017e74ad7ae6,idfa_acb6640c-301e-420c-a5fd-efb961db5f59,ja
L1QveInOQcu2cj5SPsrMbA,rulead,5301_5640,Install,0.7,175.132.54.203,99cd8fb9-d50e-4cf2-a084-e88aa608c216,1557112458,2019-05-06 11:14:18,1557112630,2019-05-06 11:17:10,1557112630,b64b0fae0e6dd3cc6f9d977bae43bc3e,https://cpa.rulead.com/s2s?token=074caac6-5613-11e9-8e3c-901b0ededfcf&transaction_id=b64b0fae0e6dd3cc6f9d977bae43bc3e,idfa_99cd8fb9-d50e-4cf2-a084-e88aa608c216,ja
L1QveInOQcu2cj5SPsrMbA,rulead,5301_5640,Install,0.7,36.12.34.169,1906385f-07d9-4612-8a00-31e63116f20a,1557113480,2019-05-06 11:31:20,1557113695,2019-05-06 11:34:55,1557113695,5dc90f5b313b8dc38fdec8b030bdde8a,https://cpa.rulead.com/s2s?token=074caac6-5613-11e9-8e3c-901b0ededfcf&transaction_id=5dc90f5b313b8dc38fdec8b030bdde8a,idfa_1906385f-07d9-4612-8a00-31e63116f20a,ja
L1QveInOQcu2cj5SPsrMbA,rulead,5301_5640,Install,0.7,126.75.41.247,03055996-c834-4953-9dd8-d50d70d8a875,1557110637,2019-05-06 10:43:57,1557110800,2019-05-06 10:46:40,1557110800,9903fbd64ef530e7ecafe24091643588,https://cpa.rulead.com/s2s?token=074caac6-5613-11e9-8e3c-901b0ededfcf&transaction_id=9903fbd64ef530e7ecafe24091643588,idfa_03055996-c834-4953-9dd8-d50d70d8a875,ja
L1QveInOQcu2cj5SPsrMbA,rulead,5301_5640,Install,0.7,117.18.131.205,1775daf8-be43-4c80-ae1e-8b9e2879bf77,1557110019,2019-05-06 10:33:39,1557110172,2019-05-06 10:36:12,1557110172,fad18db31ee243d112a1e54346731383,https://cpa.rulead.com/s2s?token=074caac6-5613-11e9-8e3c-901b0ededfcf&transaction_id=fad18db31ee243d112a1e54346731383,idfa_1775daf8-be43-4c80-ae1e-8b9e2879bf77,ja
L1QveInOQcu2cj5SPsrMbA,rulead,5301_5640,Install,0.7,111.100.19.12,477663d2-9704-4358-b5f2-011b1ca1ced2,1557112102,2019-05-06 11:08:22,1557112390,2019-05-06 11:13:10,1557112390,97e7aa69f1d888689017009f345b2b36,https://cpa.rulead.com/s2s?token=074caac6-5613-11e9-8e3c-901b0ededfcf&transaction_id=97e7aa69f1d888689017009f345b2b36,idfa_477663d2-9704-4358-b5f2-011b1ca1ced2,ja
L1QveInOQcu2cj5SPsrMbA,rulead,5301_5640,Install,0.7,111.96.17.107,fe930a64-8e79-4a0c-9ee5-93f873fa6cde,1557109898,2019-05-06 10:31:38,1557110067,2019-05-06 10:34:27,1557110067,1219c3fb2f9e3f5e9ac77b77b5575dca,https://cpa.rulead.com/s2s?token=074caac6-5613-11e9-8e3c-901b0ededfcf&transaction_id=1219c3fb2f9e3f5e9ac77b77b5575dca,idfa_fe930a64-8e79-4a0c-9ee5-93f873fa6cde,ja
L1QveInOQcu2cj5SPsrMbA,rulead,5301_5640,Install,0.7,58.93.55.163,39555856-7d2a-424a-a7b5-dab87cc03e23,1557110479,2019-05-06 10:41:19,1557110649,2019-05-06 10:44:09,1557110649,b6b090cd2ebb43660924cba5326281d9,https://cpa.rulead.com/s2s?token=074caac6-5613-11e9-8e3c-901b0ededfcf&transaction_id=b6b090cd2ebb43660924cba5326281d9,idfa_39555856-7d2a-424a-a7b5-dab87cc03e23,ja
L1QveInOQcu2cj5SPsrMbA,rulead,5301_5640,Install,0.7,111.106.183.226,0196df60-1622-435b-afd1-04ec59fd93f6,1557110513,2019-05-06 10:41:53,1557110690,2019-05-06 10:44:50,1557110690,dcbb6d258122e22ef3c34d81aac872ec,https://cpa.rulead.com/s2s?token=074caac6-5613-11e9-8e3c-901b0ededfcf&transaction_id=dcbb6d258122e22ef3c34d81aac872ec,idfa_0196df60-1622-435b-afd1-04ec59fd93f6,ja
L1QveInOQcu2cj5SPsrMbA,rulead,5301_5640,Install,0.7,118.7.48.131,11e1e35c-514a-4b18-971d-237a6dab4870,1557111683,2019-05-06 11:01:23,1557111873,2019-05-06 11:04:33,1557111873,673219cbd30adbf5eb1da0c0146f8c5c,https://cpa.rulead.com/s2s?token=074caac6-5613-11e9-8e3c-901b0ededfcf&transaction_id=673219cbd30adbf5eb1da0c0146f8c5c,idfa_11e1e35c-514a-4b18-971d-237a6dab4870,ja
L1QveInOQcu2cj5SPsrMbA,rulead,5301_5640,Install,0.7,126.159.253.161,69f9b6c2-a9bc-42b5-b0cc-bc7ac4773865,1557110045,2019-05-06 10:34:05,1557110166,2019-05-06 10:36:06,1557110166,9ba6a77c8ed9fc14026dadb96d4c3c2c,https://cpa.rulead.com/s2s?token=074caac6-5613-11e9-8e3c-901b0ededfcf&transaction_id=9ba6a77c8ed9fc14026dadb96d4c3c2c,idfa_69f9b6c2-a9bc-42b5-b0cc-bc7ac4773865,ja
L1QveInOQcu2cj5SPsrMbA,rulead,5301_5640,Install,0.7,114.19.214.89,c73a7e5e-8637-4f3c-8ec3-8b26edd64da6,1557108686,2019-05-06 10:11:26,1557108820,2019-05-06 10:13:40,1557108820,6e4fde485e3d16000b3f28c5c10c3b7d,https://cpa.rulead.com/s2s?token=074caac6-5613-11e9-8e3c-901b0ededfcf&transaction_id=6e4fde485e3d16000b3f28c5c10c3b7d,idfa_c73a7e5e-8637-4f3c-8ec3-8b26edd64da6,ja
L1QveInOQcu2cj5SPsrMbA,rulead,5301_5640,Install,0.7,116.58.161.42,703fb80c-607a-4892-ac9e-4c86ae9d2c8e,1557108335,2019-05-06 10:05:35,1557108460,2019-05-06 10:07:40,1557108460,46d83e1c87cafa214550425c1c4caedc,https://cpa.rulead.com/s2s?token=074caac6-5613-11e9-8e3c-901b0ededfcf&transaction_id=46d83e1c87cafa214550425c1c4caedc,idfa_703fb80c-607a-4892-ac9e-4c86ae9d2c8e,ja
L1QveInOQcu2cj5SPsrMbA,rulead,5301_5640,Install,0.7,126.72.104.156,7f1c2efd-727e-4287-a9c4-7f595760ebb7,1557112303,2019-05-06 11:11:43,1557112431,2019-05-06 11:13:51,1557112431,316ec8c32a52b4aea3481be9e0b543c1,https://cpa.rulead.com/s2s?token=074caac6-5613-11e9-8e3c-901b0ededfcf&transaction_id=316ec8c32a52b4aea3481be9e0b543c1,idfa_7f1c2efd-727e-4287-a9c4-7f595760ebb7,ja
L1QveInOQcu2cj5SPsrMbA,rulead,5301_5640,Install,0.7,114.183.98.215,f51665bb-064b-4a88-920c-82ae00a981a1,1557112690,2019-05-06 11:18:10,1557113095,2019-05-06 11:24:55,1557113095,631abbc9182e3774e8569e4fddb56f90,https://cpa.rulead.com/s2s?token=074caac6-5613-11e9-8e3c-901b0ededfcf&transaction_id=631abbc9182e3774e8569e4fddb56f90,idfa_f51665bb-064b-4a88-920c-82ae00a981a1,ja
L1QveInOQcu2cj5SPsrMbA,rulead,5301_5640,Install,0.7,183.180.155.41,c2722312-d829-4a67-b877-fc63f801d309,1557109219,2019-05-06 10:20:19,1557109364,2019-05-06 10:22:44,1557109364,27197eb02735d05ac01ecf61ca9921ef,https://cpa.rulead.com/s2s?token=074caac6-5613-11e9-8e3c-901b0ededfcf&transaction_id=27197eb02735d05ac01ecf61ca9921ef,idfa_c2722312-d829-4a67-b877-fc63f801d309,ja
L1QveInOQcu2cj5SPsrMbA,rulead,5301_5640,Install,0.7,64.64.108.80,768058cd-aa76-43fb-b04a-8fe23533bfaa,1557112897,2019-05-06 11:21:37,1557113730,2019-05-06 11:35:30,1557113730,608924b3516bd28292ea1f34a5ad6e2d,https://cpa.rulead.com/s2s?token=074caac6-5613-11e9-8e3c-901b0ededfcf&transaction_id=608924b3516bd28292ea1f34a5ad6e2d,idfa_768058cd-aa76-43fb-b04a-8fe23533bfaa,ja
L1QveInOQcu2cj5SPsrMbA,rulead,5301_5640,Install,0.7,202.223.21.247,4772c8cf-a29f-4c06-a026-eaac2cf1fd62,1557107558,2019-05-06 09:52:38,1557107703,2019-05-06 09:55:03,1557107703,cec45616f23024f105af4a622fd34b08,https://cpa.rulead.com/s2s?token=074caac6-5613-11e9-8e3c-901b0ededfcf&transaction_id=cec45616f23024f105af4a622fd34b08,idfa_4772c8cf-a29f-4c06-a026-eaac2cf1fd62,ja
L1QveInOQcu2cj5SPsrMbA,rulead,5301_5640,Install,0.7,14.13.144.32,51a1f685-d745-4173-ab30-8eaebdb04912,1557111843,2019-05-06 11:04:03,1557112041,2019-05-06 11:07:21,1557112041,8b83f66d26a101da7d0f91bcc5f6b8d9,https://cpa.rulead.com/s2s?token=074caac6-5613-11e9-8e3c-901b0ededfcf&transaction_id=8b83f66d26a101da7d0f91bcc5f6b8d9,idfa_51a1f685-d745-4173-ab30-8eaebdb04912,ja
L1QveInOQcu2cj5SPsrMbA,rulead,5301_5640,Install,0.7,126.74.183.200,891b0fbe-b625-4787-bb95-869235717bf0,1557108145,2019-05-06 10:02:25,1557108308,2019-05-06 10:05:08,1557108308,abe1ef81e62a9cd111464fe93bfe99b7,https://cpa.rulead.com/s2s?token=074caac6-5613-11e9-8e3c-901b0ededfcf&transaction_id=abe1ef81e62a9cd111464fe93bfe99b7,idfa_891b0fbe-b625-4787-bb95-869235717bf0,ja
L1QveInOQcu2cj5SPsrMbA,rulead,5301_5640,Install,0.7,124.210.166.49,61ca3baf-5b92-45b0-a9de-a9e679cba409,1557108263,2019-05-06 10:04:23,1557108404,2019-05-06 10:06:44,1557108404,0576dcae311ce161f0dde4783dcd6c96,https://cpa.rulead.com/s2s?token=074caac6-5613-11e9-8e3c-901b0ededfcf&transaction_id=0576dcae311ce161f0dde4783dcd6c96,idfa_61ca3baf-5b92-45b0-a9de-a9e679cba409,ja
L1QveInOQcu2cj5SPsrMbA,rulead,5301_5640,Install,0.7,223.133.217.108,74bc770b-64e7-4a3d-9610-0ccd6d4356a2,1557108173,2019-05-06 10:02:53,1557108356,2019-05-06 10:05:56,1557108356,7e91d35715a429209b895f31f79d19ed,https://cpa.rulead.com/s2s?token=074caac6-5613-11e9-8e3c-901b0ededfcf&transaction_id=7e91d35715a429209b895f31f79d19ed,idfa_74bc770b-64e7-4a3d-9610-0ccd6d4356a2,ja
L1QveInOQcu2cj5SPsrMbA,rulead,5301_5640,Install,0.7,183.76.16.44,e7cd9a94-9c16-4f4e-bda9-428b8f16d18a,1557109910,2019-05-06 10:31:50,1557110050,2019-05-06 10:34:10,1557110050,17656916a748ac49af0d9c67854f77b0,https://cpa.rulead.com/s2s?token=074caac6-5613-11e9-8e3c-901b0ededfcf&transaction_id=17656916a748ac49af0d9c67854f77b0,idfa_e7cd9a94-9c16-4f4e-bda9-428b8f16d18a,ja
L1QveInOQcu2cj5SPsrMbA,rulead,5301_5640,Install,0.7,116.94.72.143,824a172a-5b85-461a-9347-9e4848269c19,1557113816,2019-05-06 11:36:56,1557113956,2019-05-06 11:39:16,1557113956,fa5c0dd3140b50e7b2aef1b2a307fc28,https://cpa.rulead.com/s2s?token=074caac6-5613-11e9-8e3c-901b0ededfcf&transaction_id=fa5c0dd3140b50e7b2aef1b2a307fc28,idfa_824a172a-5b85-461a-9347-9e4848269c19,ja
L1QveInOQcu2cj5SPsrMbA,rulead,5301_5640,Install,0.7,210.147.78.12,a0ae905c-bd51-4a18-97ea-a621306196ef,1557110006,2019-05-06 10:33:26,1557110239,2019-05-06 10:37:19,1557110239,b407d942075c319cde552c28ba30c275,https://cpa.rulead.com/s2s?token=074caac6-5613-11e9-8e3c-901b0ededfcf&transaction_id=b407d942075c319cde552c28ba30c275,idfa_a0ae905c-bd51-4a18-97ea-a621306196ef,ja
L1QveInOQcu2cj5SPsrMbA,rulead,5301_5640,Install,0.7,125.52.80.190,24fcb2b8-abd6-4cb3-8bb4-fd0490b85301,1557113807,2019-05-06 11:36:47,1557113957,2019-05-06 11:39:17,1557113957,43d0c0df672ab121d40d930988bf6a3b,https://cpa.rulead.com/s2s?token=074caac6-5613-11e9-8e3c-901b0ededfcf&transaction_id=43d0c0df672ab121d40d930988bf6a3b,idfa_24fcb2b8-abd6-4cb3-8bb4-fd0490b85301,ja
L1QveInOQcu2cj5SPsrMbA,rulead,5301_5640,Install,0.7,180.196.70.38,46f7f852-72d6-4ac0-8e34-bb24fa2b169c,1557113128,2019-05-06 11:25:28,1557113258,2019-05-06 11:27:38,1557113258,58f28f75beb8ca3ab2f47cc508317bf6,https://cpa.rulead.com/s2s?token=074caac6-5613-11e9-8e3c-901b0ededfcf&transaction_id=58f28f75beb8ca3ab2f47cc508317bf6,idfa_46f7f852-72d6-4ac0-8e34-bb24fa2b169c,ja
L1QveInOQcu2cj5SPsrMbA,rulead,5301_5640,Install,0.7,113.154.136.33,edc38e8d-dbbe-477a-b785-52ec58bfc7bb,1557107518,2019-05-06 09:51:58,1557107706,2019-05-06 09:55:06,1557107706,c05eba1f94514072fa388764d94ac123,https://cpa.rulead.com/s2s?token=074caac6-5613-11e9-8e3c-901b0ededfcf&transaction_id=c05eba1f94514072fa388764d94ac123,idfa_edc38e8d-dbbe-477a-b785-52ec58bfc7bb,ja
L1QveInOQcu2cj5SPsrMbA,rulead,5301_5640,Install,0.7,60.124.86.158,1a5e9158-9c4e-46d0-a9c1-32fc7b55d1b0,1557113276,2019-05-06 11:27:56,1557113384,2019-05-06 11:29:44,1557113384,efc2cbfca0ddefe7399a11a5e24cb45e,https://cpa.rulead.com/s2s?token=074caac6-5613-11e9-8e3c-901b0ededfcf&transaction_id=efc2cbfca0ddefe7399a11a5e24cb45e,idfa_1a5e9158-9c4e-46d0-a9c1-32fc7b55d1b0,ja
L1QveInOQcu2cj5SPsrMbA,rulead,5301_5640,Install,0.7,153.187.130.78,a31a80de-dafd-40ee-a7ae-71fbdd4fbdf9,1557110412,2019-05-06 10:40:12,1557110609,2019-05-06 10:43:29,1557110609,58ec33fadd26b86badb5bbfa7820cd1e,https://cpa.rulead.com/s2s?token=074caac6-5613-11e9-8e3c-901b0ededfcf&transaction_id=58ec33fadd26b86badb5bbfa7820cd1e,idfa_a31a80de-dafd-40ee-a7ae-71fbdd4fbdf9,ja
L1QveInOQcu2cj5SPsrMbA,rulead,5301_5640,Install,0.7,210.145.140.212,5d7d2645-d7a3-4249-8a89-ed1b4bd66fb6,1557110648,2019-05-06 10:44:08,1557110801,2019-05-06 10:46:41,1557110801,0bf0d40acf0a1e85be49ef97eb84a642,https://cpa.rulead.com/s2s?token=074caac6-5613-11e9-8e3c-901b0ededfcf&transaction_id=0bf0d40acf0a1e85be49ef97eb84a642,idfa_5d7d2645-d7a3-4249-8a89-ed1b4bd66fb6,ja
L1QveInOQcu2cj5SPsrMbA,rulead,5301_5640,Install,0.7,118.241.146.23,3cebed0e-25a7-4407-b07d-29ce25a3c2a7,1557108249,2019-05-06 10:04:09,1557108408,2019-05-06 10:06:48,1557108408,bba2cccd8a5bc688b7f87382f47fdcbe,https://cpa.rulead.com/s2s?token=074caac6-5613-11e9-8e3c-901b0ededfcf&transaction_id=bba2cccd8a5bc688b7f87382f47fdcbe,idfa_3cebed0e-25a7-4407-b07d-29ce25a3c2a7,ja
L1QveInOQcu2cj5SPsrMbA,rulead,5301_5640,Install,0.7,14.8.19.192,f3324061-7392-4218-9204-fff579b2c117,1557110039,2019-05-06 10:33:59,1557110187,2019-05-06 10:36:27,1557110187,1dacd7a967d085b8befe3e0266d72b64,https://cpa.rulead.com/s2s?token=074caac6-5613-11e9-8e3c-901b0ededfcf&transaction_id=1dacd7a967d085b8befe3e0266d72b64,idfa_f3324061-7392-4218-9204-fff579b2c117,ja
L1QveInOQcu2cj5SPsrMbA,rulead,5301_5640,Install,0.7,106.181.222.54,ea6e92bb-4e88-4353-b786-31e0020cbc1c,1557109880,2019-05-06 10:31:20,1557110027,2019-05-06 10:33:47,1557110027,3bf5c06b76561e58eaf6fdc82beb1180,https://cpa.rulead.com/s2s?token=074caac6-5613-11e9-8e3c-901b0ededfcf&transaction_id=3bf5c06b76561e58eaf6fdc82beb1180,idfa_ea6e92bb-4e88-4353-b786-31e0020cbc1c,ja
L1QveInOQcu2cj5SPsrMbA,rulead,5301_5640,Install,0.7,126.241.11.38,97f77fbc-629b-4c97-bd8b-9d795bf10a23,1557111238,2019-05-06 10:53:58,1557111421,2019-05-06 10:57:01,1557111421,e99c54c4ede819627e7d60e2679f73d4,https://cpa.rulead.com/s2s?token=074caac6-5613-11e9-8e3c-901b0ededfcf&transaction_id=e99c54c4ede819627e7d60e2679f73d4,idfa_97f77fbc-629b-4c97-bd8b-9d795bf10a23,ja
L1QveInOQcu2cj5SPsrMbA,rulead,5301_5640,Install,0.7,153.232.229.183,8d25b3d9-95f6-4286-9dff-c03ad78fe629,1557108255,2019-05-06 10:04:15,1557108428,2019-05-06 10:07:08,1557108428,1a4003500c3bce4b83165dd973b7a5cd,https://cpa.rulead.com/s2s?token=074caac6-5613-11e9-8e3c-901b0ededfcf&transaction_id=1a4003500c3bce4b83165dd973b7a5cd,idfa_8d25b3d9-95f6-4286-9dff-c03ad78fe629,ja
L1QveInOQcu2cj5SPsrMbA,rulead,5301_5640,Install,0.7,58.3.147.14,3d1c4a63-d876-4cd6-b259-5c2815ff0ed8,1557108570,2019-05-06 10:09:30,1557108708,2019-05-06 10:11:48,1557108708,54c003905a1e8c4abd96fcce8cbe1a93,https://cpa.rulead.com/s2s?token=074caac6-5613-11e9-8e3c-901b0ededfcf&transaction_id=54c003905a1e8c4abd96fcce8cbe1a93,idfa_3d1c4a63-d876-4cd6-b259-5c2815ff0ed8,ja
L1QveInOQcu2cj5SPsrMbA,rulead,5301_5640,Install,0.7,122.24.34.84,534976c1-6f68-4888-8c10-cfe3364866da,1557110452,2019-05-06 10:40:52,1557110610,2019-05-06 10:43:30,1557110610,638e050623f9f583f826bdbedffa8e19,https://cpa.rulead.com/s2s?token=074caac6-5613-11e9-8e3c-901b0ededfcf&transaction_id=638e050623f9f583f826bdbedffa8e19,idfa_534976c1-6f68-4888-8c10-cfe3364866da,ja
L1QveInOQcu2cj5SPsrMbA,rulead,5301_5640,Install,0.7,153.142.90.116,281fa1a1-8878-43ef-93f2-1a5b18e741c6,1557108808,2019-05-06 10:13:28,1557109152,2019-05-06 10:19:12,1557109152,d5bf1d63f7adc46f4486181dbab19f0c,https://cpa.rulead.com/s2s?token=074caac6-5613-11e9-8e3c-901b0ededfcf&transaction_id=d5bf1d63f7adc46f4486181dbab19f0c,idfa_281fa1a1-8878-43ef-93f2-1a5b18e741c6,ja
L1QveInOQcu2cj5SPsrMbA,rulead,5301_5640,Install,0.7,218.47.244.22,2cf2e2e2-3897-4a81-b656-79cd2ca96137,1557112778,2019-05-06 11:19:38,1557112884,2019-05-06 11:21:24,1557112884,c3251ef3f2ec1ecefcc8c31034728b39,https://cpa.rulead.com/s2s?token=074caac6-5613-11e9-8e3c-901b0ededfcf&transaction_id=c3251ef3f2ec1ecefcc8c31034728b39,idfa_2cf2e2e2-3897-4a81-b656-79cd2ca96137,ja
L1QveInOQcu2cj5SPsrMbA,rulead,5301_5640,Install,0.7,210.254.118.81,7a8d394c-e809-402d-9a58-cf318d478896,1557107969,2019-05-06 09:59:29,1557108144,2019-05-06 10:02:24,1557108144,721fc6bf9d3ad3000a75dce938df9c88,https://cpa.rulead.com/s2s?token=074caac6-5613-11e9-8e3c-901b0ededfcf&transaction_id=721fc6bf9d3ad3000a75dce938df9c88,idfa_7a8d394c-e809-402d-9a58-cf318d478896,ja
L1QveInOQcu2cj5SPsrMbA,rulead,5301_5640,Install,0.7,14.232.163.135,cc957700-475a-421e-9f76-ffe58222362b,1557107600,2019-05-06 09:53:20,1557107714,2019-05-06 09:55:14,1557107714,5ae156bb7c9239ff0565e60ea2022802,https://cpa.rulead.com/s2s?token=074caac6-5613-11e9-8e3c-901b0ededfcf&transaction_id=5ae156bb7c9239ff0565e60ea2022802,idfa_cc957700-475a-421e-9f76-ffe58222362b,ja
L1QveInOQcu2cj5SPsrMbA,rulead,5301_5640,Install,0.7,14.8.35.128,4c425a02-bc41-4671-8cf4-0c216ca199e8,1557112675,2019-05-06 11:17:55,1557112859,2019-05-06 11:20:59,1557112859,d7b83734de9f43702828e692ffa99cf1,https://cpa.rulead.com/s2s?token=074caac6-5613-11e9-8e3c-901b0ededfcf&transaction_id=d7b83734de9f43702828e692ffa99cf1,idfa_4c425a02-bc41-4671-8cf4-0c216ca199e8,ja
L1QveInOQcu2cj5SPsrMbA,rulead,5301_5640,Install,0.7,114.183.98.215,b37ef899-3777-4b5d-8418-e8d1085b8ff8,1557111058,2019-05-06 10:50:58,1557111181,2019-05-06 10:53:01,1557111181,c987ce348c8778801abc3915b58f9ad3,https://cpa.rulead.com/s2s?token=074caac6-5613-11e9-8e3c-901b0ededfcf&transaction_id=c987ce348c8778801abc3915b58f9ad3,idfa_b37ef899-3777-4b5d-8418-e8d1085b8ff8,ja
L1QveInOQcu2cj5SPsrMbA,rulead,5301_5640,Install,0.7,121.105.221.189,22d3375b-909e-4674-bb77-f38463348cc3,1557111706,2019-05-06 11:01:46,1557111882,2019-05-06 11:04:42,1557111882,6741e755857d2feae4e4ff0f7229bea1,https://cpa.rulead.com/s2s?token=074caac6-5613-11e9-8e3c-901b0ededfcf&transaction_id=6741e755857d2feae4e4ff0f7229bea1,idfa_22d3375b-909e-4674-bb77-f38463348cc3,ja
L1QveInOQcu2cj5SPsrMbA,rulead,5301_5640,Install,0.7,220.106.232.91,409315ba-21cd-4a50-be38-15015032eeaf,1557112784,2019-05-06 11:19:44,1557112944,2019-05-06 11:22:24,1557112944,0dcf367c706c9e7ba481b41b4b4bb53f,https://cpa.rulead.com/s2s?token=074caac6-5613-11e9-8e3c-901b0ededfcf&transaction_id=0dcf367c706c9e7ba481b41b4b4bb53f,idfa_409315ba-21cd-4a50-be38-15015032eeaf,ja
L1QveInOQcu2cj5SPsrMbA,rulead,5301_5640,Install,0.7,59.129.142.116,221c51e1-7900-46cf-b45e-0d96ffeaa1a7,1557113499,2019-05-06 11:31:39,1557113632,2019-05-06 11:33:52,1557113632,a081ee562d82ac44734bdd6fe8ecd37b,https://cpa.rulead.com/s2s?token=074caac6-5613-11e9-8e3c-901b0ededfcf&transaction_id=a081ee562d82ac44734bdd6fe8ecd37b,idfa_221c51e1-7900-46cf-b45e-0d96ffeaa1a7,ja
L1QveInOQcu2cj5SPsrMbA,rulead,5301_5640,Install,0.7,14.177.239.38,3b4ae212-3b32-4b96-99a5-2bee873be730,1557108360,2019-05-06 10:06:00,1557108471,2019-05-06 10:07:51,1557108471,38a9d21c2e50db8395c5fbb47e68a94e,https://cpa.rulead.com/s2s?token=074caac6-5613-11e9-8e3c-901b0ededfcf&transaction_id=38a9d21c2e50db8395c5fbb47e68a94e,idfa_3b4ae212-3b32-4b96-99a5-2bee873be730,ja
L1QveInOQcu2cj5SPsrMbA,rulead,5301_5640,Install,0.7,106.181.108.236,6ba6392d-da0e-4244-b1f1-3eb21cdef70a,1557111798,2019-05-06 11:03:18,1557111992,2019-05-06 11:06:32,1557111992,61a7023ad8fd02e4f5af3a45a925f1a2,https://cpa.rulead.com/s2s?token=074caac6-5613-11e9-8e3c-901b0ededfcf&transaction_id=61a7023ad8fd02e4f5af3a45a925f1a2,idfa_6ba6392d-da0e-4244-b1f1-3eb21cdef70a,ja
L1QveInOQcu2cj5SPsrMbA,rulead,5301_5640,Install,0.7,126.161.159.5,7f93bfcc-319e-4155-a7b6-86a3f75dcf1c,1557112713,2019-05-06 11:18:33,1557112878,2019-05-06 11:21:18,1557112878,3e0b630342180bba57ff0ea80fea849e,https://cpa.rulead.com/s2s?token=074caac6-5613-11e9-8e3c-901b0ededfcf&transaction_id=3e0b630342180bba57ff0ea80fea849e,idfa_7f93bfcc-319e-4155-a7b6-86a3f75dcf1c,ja
L1QveInOQcu2cj5SPsrMbA,rulead,5301_5640,Install,0.7,58.87.211.115,69a1a5df-a1bc-47f8-b482-36843b813c2f,1557112438,2019-05-06 11:13:58,1557112569,2019-05-06 11:16:09,1557112569,6d2a52ceae2ca88bba9461e1850cc44d,https://cpa.rulead.com/s2s?token=074caac6-5613-11e9-8e3c-901b0ededfcf&transaction_id=6d2a52ceae2ca88bba9461e1850cc44d,idfa_69a1a5df-a1bc-47f8-b482-36843b813c2f,ja
L1QveInOQcu2cj5SPsrMbA,rulead,5301_5640,Install,0.7,182.167.18.191,1024d32c-4c7d-4dc2-84e4-2241bb572a18,1557109379,2019-05-06 10:22:59,1557109497,2019-05-06 10:24:57,1557109497,38f76d8abfeddbb0804d07ec7f572833,https://cpa.rulead.com/s2s?token=074caac6-5613-11e9-8e3c-901b0ededfcf&transaction_id=38f76d8abfeddbb0804d07ec7f572833,idfa_1024d32c-4c7d-4dc2-84e4-2241bb572a18,ja
L1QveInOQcu2cj5SPsrMbA,rulead,5301_5640,Install,0.7,42.83.56.42,bbbcb631-0a5e-444e-95b6-f1e1f148e93c,1557111735,2019-05-06 11:02:15,1557111870,2019-05-06 11:04:30,1557111870,79c0910a8de54ff581b9cd06094052ca,https://cpa.rulead.com/s2s?token=074caac6-5613-11e9-8e3c-901b0ededfcf&transaction_id=79c0910a8de54ff581b9cd06094052ca,idfa_bbbcb631-0a5e-444e-95b6-f1e1f148e93c,ja
L1QveInOQcu2cj5SPsrMbA,rulead,5301_5640,Install,0.7,60.42.182.23,1e5b672c-2cfe-46c6-a80c-7f8727ec4b1b,1557111234,2019-05-06 10:53:54,1557111408,2019-05-06 10:56:48,1557111408,40de44bcc5c6e7ef81e7a5533b502d05,https://cpa.rulead.com/s2s?token=074caac6-5613-11e9-8e3c-901b0ededfcf&transaction_id=40de44bcc5c6e7ef81e7a5533b502d05,idfa_1e5b672c-2cfe-46c6-a80c-7f8727ec4b1b,ja
L1QveInOQcu2cj5SPsrMbA,rulead,5301_5640,Install,0.7,222.150.210.145,b679e08f-33a8-44ef-bc6b-0e27a48ef7ed,1557109831,2019-05-06 10:30:31,1557109977,2019-05-06 10:32:57,1557109977,4f1170ff016fedce4c70e9673622643d,https://cpa.rulead.com/s2s?token=074caac6-5613-11e9-8e3c-901b0ededfcf&transaction_id=4f1170ff016fedce4c70e9673622643d,idfa_b679e08f-33a8-44ef-bc6b-0e27a48ef7ed,ja
L1QveInOQcu2cj5SPsrMbA,rulead,5301_5640,Install,0.7,118.10.201.62,3961993c-0341-4f1c-b95e-2cf3622fa96d,1557108867,2019-05-06 10:14:27,1557108987,2019-05-06 10:16:27,1557108987,ccd221a5734e5c897741ad1d11d2260b,https://cpa.rulead.com/s2s?token=074caac6-5613-11e9-8e3c-901b0ededfcf&transaction_id=ccd221a5734e5c897741ad1d11d2260b,idfa_3961993c-0341-4f1c-b95e-2cf3622fa96d,ja
L1QveInOQcu2cj5SPsrMbA,rulead,5301_5640,Install,0.7,60.119.124.252,f1c724a1-31f0-4f1a-b405-b66d319fb515,1557112254,2019-05-06 11:10:54,1557112374,2019-05-06 11:12:54,1557112374,1e293dd49878370a70a8a18b508834ac,https://cpa.rulead.com/s2s?token=074caac6-5613-11e9-8e3c-901b0ededfcf&transaction_id=1e293dd49878370a70a8a18b508834ac,idfa_f1c724a1-31f0-4f1a-b405-b66d319fb515,ja
L1QveInOQcu2cj5SPsrMbA,rulead,5301_5640,Install,0.7,111.99.227.158,1038eec4-93cf-4be2-85d5-ff6bd242c935,1557112812,2019-05-06 11:20:12,1557113043,2019-05-06 11:24:03,1557113043,ba20a94ae6929d4fc6919177422c9eac,https://cpa.rulead.com/s2s?token=074caac6-5613-11e9-8e3c-901b0ededfcf&transaction_id=ba20a94ae6929d4fc6919177422c9eac,idfa_1038eec4-93cf-4be2-85d5-ff6bd242c935,ja
L1QveInOQcu2cj5SPsrMbA,rulead,5301_5640,Install,0.7,221.240.178.24,af61e209-3a34-4c47-9e0c-97a85aabd8b9,1557109896,2019-05-06 10:31:36,1557110043,2019-05-06 10:34:03,1557110043,e393d1ee05dd033a785a3b06637d0976,https://cpa.rulead.com/s2s?token=074caac6-5613-11e9-8e3c-901b0ededfcf&transaction_id=e393d1ee05dd033a785a3b06637d0976,idfa_af61e209-3a34-4c47-9e0c-97a85aabd8b9,ja
L1QveInOQcu2cj5SPsrMbA,rulead,5301_5640,Install,0.7,1.33.217.80,0f1c0c69-6f60-490a-91b8-af992d052972,1557108169,2019-05-06 10:02:49,1557108321,2019-05-06 10:05:21,1557108321,66569790cc066a15c903663d0ad616c6,https://cpa.rulead.com/s2s?token=074caac6-5613-11e9-8e3c-901b0ededfcf&transaction_id=66569790cc066a15c903663d0ad616c6,idfa_0f1c0c69-6f60-490a-91b8-af992d052972,ja
L1QveInOQcu2cj5SPsrMbA,rulead,5301_5640,Install,0.7,14.8.19.65,78d7eb52-7206-482f-af11-138cb24d1e22,1557113063,2019-05-06 11:24:23,1557113202,2019-05-06 11:26:42,1557113202,96d813f69308ad038072c6a643c8dd4e,https://cpa.rulead.com/s2s?token=074caac6-5613-11e9-8e3c-901b0ededfcf&transaction_id=96d813f69308ad038072c6a643c8dd4e,idfa_78d7eb52-7206-482f-af11-138cb24d1e22,ja
