cid,partner_id,channel_id,action_id,cpi,ip,idfa,click time,click datetime,install time,install datetime,postback time,click id,postback url,unique user id
CLxWh3TtRW-olK8FT-0dGQ,rulead,84d2f00a42f662547f5c9d78c7feaaac_,Install,13.5,126.80.65.188,4A17EF43-FA4C-4BA8-8CDB-B7893050D5CC,1559211089,2019-05-30 18:11:29,1559211159,2019-05-30 18:12:39,1559211189,10f04fdbb7b879c14e72dfa36941675e,https://cpa.rulead.com/s2s?token=074caac6-5613-11e9-8e3c-901b0ededfcf&transaction_id=10f04fdbb7b879c14e72dfa36941675e,idfa_4A17EF43-FA4C-4BA8-8CDB-B7893050D5CC,ja-JP
CLxWh3TtRW-olK8FT-0dGQ,rulead,84d2f00a42f662547f5c9d78c7feaaac_,Install,13.5,133.155.226.84,1C7E346E-26ED-4EF5-830C-1E229CF742D0,1559214305,2019-05-30 19:05:05,1559214376,2019-05-30 19:06:16,1559214407,84587428a86080d9d370693d3eb04ad4,https://cpa.rulead.com/s2s?token=074caac6-5613-11e9-8e3c-901b0ededfcf&transaction_id=84587428a86080d9d370693d3eb04ad4,idfa_1C7E346E-26ED-4EF5-830C-1E229CF742D0,ja-JP
CLxWh3TtRW-olK8FT-0dGQ,rulead,84d2f00a42f662547f5c9d78c7feaaac_,Install,13.5,221.118.87.59,1E7B8F93-8E01-45DE-A201-B735B896500E,1559210741,2019-05-30 18:05:41,1559210795,2019-05-30 18:06:35,1559210826,a3dbfdeed8dc60399f23dda8cc35399f,https://cpa.rulead.com/s2s?token=074caac6-5613-11e9-8e3c-901b0ededfcf&transaction_id=a3dbfdeed8dc60399f23dda8cc35399f,idfa_1E7B8F93-8E01-45DE-A201-B735B896500E,ja
CLxWh3TtRW-olK8FT-0dGQ,rulead,84d2f00a42f662547f5c9d78c7feaaac_,Install,13.5,118.4.243.48,DE5A4C77-0729-45BA-A4BC-167BC97DF311,1559214845,2019-05-30 19:14:05,1559214904,2019-05-30 19:15:04,1559214935,daa35805133c4b28e1c2b1f87712c45f,https://cpa.rulead.com/s2s?token=074caac6-5613-11e9-8e3c-901b0ededfcf&transaction_id=daa35805133c4b28e1c2b1f87712c45f,idfa_DE5A4C77-0729-45BA-A4BC-167BC97DF311,ja
CLxWh3TtRW-olK8FT-0dGQ,rulead,84d2f00a42f662547f5c9d78c7feaaac_,Install,13.5,180.36.62.10,BA282FAD-FF8E-4833-A865-2CEA79A30E7B,1559212128,2019-05-30 18:28:48,1559212207,2019-05-30 18:30:07,1559212238,a890f9d0f07c9c3bc2764e37913ef9e3,https://cpa.rulead.com/s2s?token=074caac6-5613-11e9-8e3c-901b0ededfcf&transaction_id=a890f9d0f07c9c3bc2764e37913ef9e3,idfa_BA282FAD-FF8E-4833-A865-2CEA79A30E7B,ja-JP
CLxWh3TtRW-olK8FT-0dGQ,rulead,84d2f00a42f662547f5c9d78c7feaaac_,Install,13.5,112.68.116.253,717E6959-9561-4425-9060-2436A4CD1250,1559212946,2019-05-30 18:42:26,1559213009,2019-05-30 18:43:29,1559213040,ada44d9e93b4120e1fb298749c8ae2a6,https://cpa.rulead.com/s2s?token=074caac6-5613-11e9-8e3c-901b0ededfcf&transaction_id=ada44d9e93b4120e1fb298749c8ae2a6,idfa_717E6959-9561-4425-9060-2436A4CD1250,ja-JP
CLxWh3TtRW-olK8FT-0dGQ,rulead,84d2f00a42f662547f5c9d78c7feaaac_,Install,13.5,150.246.223.93,7D4DEDFB-8C42-49F2-B382-33707F6F139A,1559211542,2019-05-30 18:19:02,1559211605,2019-05-30 18:20:05,1559211644,92b851c27a8e6f31630f45646dfc93e1,https://cpa.rulead.com/s2s?token=074caac6-5613-11e9-8e3c-901b0ededfcf&transaction_id=92b851c27a8e6f31630f45646dfc93e1,idfa_7D4DEDFB-8C42-49F2-B382-33707F6F139A,ja-JP
CLxWh3TtRW-olK8FT-0dGQ,rulead,84d2f00a42f662547f5c9d78c7feaaac_,Install,13.5,182.168.61.94,1F5229BA-6A70-4E28-8A4A-C279F4E7FCD9,1559215328,2019-05-30 19:22:08,1559215389,2019-05-30 19:23:09,1559215419,5d59a698cce971b79a2a2c9bc74c309c,https://cpa.rulead.com/s2s?token=074caac6-5613-11e9-8e3c-901b0ededfcf&transaction_id=5d59a698cce971b79a2a2c9bc74c309c,idfa_1F5229BA-6A70-4E28-8A4A-C279F4E7FCD9,ja
CLxWh3TtRW-olK8FT-0dGQ,rulead,84d2f00a42f662547f5c9d78c7feaaac_,Install,13.5,116.12.3.59,B925B68B-5E33-4AEE-A26C-312A869B753A,1559215652,2019-05-30 19:27:32,1559215735,2019-05-30 19:28:55,1559215766,3c4556dafed7289ffe836ad5b9cdaa7d,https://cpa.rulead.com/s2s?token=074caac6-5613-11e9-8e3c-901b0ededfcf&transaction_id=3c4556dafed7289ffe836ad5b9cdaa7d,idfa_B925B68B-5E33-4AEE-A26C-312A869B753A,ja-JP
CLxWh3TtRW-olK8FT-0dGQ,rulead,84d2f00a42f662547f5c9d78c7feaaac_,Install,13.5,126.31.27.71,737013B8-CBBC-4115-A927-EA69BEFAD3B0,1559213555,2019-05-30 18:52:35,1559213621,2019-05-30 18:53:41,1559213652,5ca9f29bbfc506d52438df20cfd5f920,https://cpa.rulead.com/s2s?token=074caac6-5613-11e9-8e3c-901b0ededfcf&transaction_id=5ca9f29bbfc506d52438df20cfd5f920,idfa_737013B8-CBBC-4115-A927-EA69BEFAD3B0,ja-JP
CLxWh3TtRW-olK8FT-0dGQ,rulead,84d2f00a42f662547f5c9d78c7feaaac_,Install,13.5,27.84.176.64,83BD839D-1C93-411D-A196-FE4CA0CBEFAC,1559212999,2019-05-30 18:43:19,1559213077,2019-05-30 18:44:37,1559213108,b23d1a583a636b4d3191c84afd997fa3,https://cpa.rulead.com/s2s?token=074caac6-5613-11e9-8e3c-901b0ededfcf&transaction_id=b23d1a583a636b4d3191c84afd997fa3,idfa_83BD839D-1C93-411D-A196-FE4CA0CBEFAC,ja-JP
CLxWh3TtRW-olK8FT-0dGQ,rulead,84d2f00a42f662547f5c9d78c7feaaac_,Install,13.5,222.12.199.73,D4C46728-6C1D-4E62-ABBA-91D0CDDB8679,1559215605,2019-05-30 19:26:45,1559215661,2019-05-30 19:27:41,1559215692,2195cc0eea9c478b4cfd944cc44358a8,https://cpa.rulead.com/s2s?token=074caac6-5613-11e9-8e3c-901b0ededfcf&transaction_id=2195cc0eea9c478b4cfd944cc44358a8,idfa_D4C46728-6C1D-4E62-ABBA-91D0CDDB8679,ja-JP
CLxWh3TtRW-olK8FT-0dGQ,rulead,84d2f00a42f662547f5c9d78c7feaaac_,Install,13.5,126.19.231.233,D4AF8660-8FD7-4729-89A3-2323B6347983,1559214241,2019-05-30 19:04:01,1559214300,2019-05-30 19:05:00,1559214331,e28deaf44bbcc24db1c799a1e01962db,https://cpa.rulead.com/s2s?token=074caac6-5613-11e9-8e3c-901b0ededfcf&transaction_id=e28deaf44bbcc24db1c799a1e01962db,idfa_D4AF8660-8FD7-4729-89A3-2323B6347983,ja-JP
CLxWh3TtRW-olK8FT-0dGQ,rulead,84d2f00a42f662547f5c9d78c7feaaac_,Install,13.5,14.13.18.32,CE551EFE-A066-4F50-B7BE-229149086124,1559214624,2019-05-30 19:10:24,1559214690,2019-05-30 19:11:30,1559214815,269eca6b5b7e88beabd8d264cf0f7b07,https://cpa.rulead.com/s2s?token=074caac6-5613-11e9-8e3c-901b0ededfcf&transaction_id=269eca6b5b7e88beabd8d264cf0f7b07,idfa_CE551EFE-A066-4F50-B7BE-229149086124,ja-JP
CLxWh3TtRW-olK8FT-0dGQ,rulead,84d2f00a42f662547f5c9d78c7feaaac_,Install,13.5,124.47.245.154,72B435C8-C0F7-426C-B6BB-53E2464C8C2D,1559214123,2019-05-30 19:02:03,1559214191,2019-05-30 19:03:11,1559214222,fbcba660891381f21459a1b21edf80be,https://cpa.rulead.com/s2s?token=074caac6-5613-11e9-8e3c-901b0ededfcf&transaction_id=fbcba660891381f21459a1b21edf80be,idfa_72B435C8-C0F7-426C-B6BB-53E2464C8C2D,ja-JP
CLxWh3TtRW-olK8FT-0dGQ,rulead,84d2f00a42f662547f5c9d78c7feaaac_,Install,13.5,59.138.193.146,D333D6D1-A1C7-4FCE-9864-350D80B1E815,1559212137,2019-05-30 18:28:57,1559212193,2019-05-30 18:29:53,1559212225,ebf0000332f040b7e9cbce17e75f5e55,https://cpa.rulead.com/s2s?token=074caac6-5613-11e9-8e3c-901b0ededfcf&transaction_id=ebf0000332f040b7e9cbce17e75f5e55,idfa_D333D6D1-A1C7-4FCE-9864-350D80B1E815,ja
CLxWh3TtRW-olK8FT-0dGQ,rulead,84d2f00a42f662547f5c9d78c7feaaac_,Install,13.5,221.184.82.143,8801EC9D-750B-42A6-BDE0-8F9A15F78F82,1559215329,2019-05-30 19:22:09,1559215384,2019-05-30 19:23:04,1559215415,3cf2f2e55773a9593742fa2ba6f89493,https://cpa.rulead.com/s2s?token=074caac6-5613-11e9-8e3c-901b0ededfcf&transaction_id=3cf2f2e55773a9593742fa2ba6f89493,idfa_8801EC9D-750B-42A6-BDE0-8F9A15F78F82,ja-JP
CLxWh3TtRW-olK8FT-0dGQ,rulead,84d2f00a42f662547f5c9d78c7feaaac_,Install,13.5,219.214.94.88,F60D7E60-7300-4B8B-9EFE-28001767B4DF,1559212514,2019-05-30 18:35:14,1559212571,2019-05-30 18:36:11,1559212601,8d38241b5b827d8622b68b7ecc09afdb,https://cpa.rulead.com/s2s?token=074caac6-5613-11e9-8e3c-901b0ededfcf&transaction_id=8d38241b5b827d8622b68b7ecc09afdb,idfa_F60D7E60-7300-4B8B-9EFE-28001767B4DF,ja
CLxWh3TtRW-olK8FT-0dGQ,rulead,84d2f00a42f662547f5c9d78c7feaaac_,Install,13.5,106.186.201.177,B0CE7023-9F9A-40A4-9762-57C73148110A,1559212964,2019-05-30 18:42:44,1559213023,2019-05-30 18:43:43,1559213055,443ad23110275a8236a18c5a29325da8,https://cpa.rulead.com/s2s?token=074caac6-5613-11e9-8e3c-901b0ededfcf&transaction_id=443ad23110275a8236a18c5a29325da8,idfa_B0CE7023-9F9A-40A4-9762-57C73148110A,ja
CLxWh3TtRW-olK8FT-0dGQ,rulead,84d2f00a42f662547f5c9d78c7feaaac_,Install,13.5,103.31.13.76,E9ABB6B8-8DB8-4A13-B8FF-9BA2513A177A,1559213560,2019-05-30 18:52:40,1559213622,2019-05-30 18:53:42,1559213653,05cbb2b1f4ce379e6c9ba4d357260e4d,https://cpa.rulead.com/s2s?token=074caac6-5613-11e9-8e3c-901b0ededfcf&transaction_id=05cbb2b1f4ce379e6c9ba4d357260e4d,idfa_E9ABB6B8-8DB8-4A13-B8FF-9BA2513A177A,ja
CLxWh3TtRW-olK8FT-0dGQ,rulead,84d2f00a42f662547f5c9d78c7feaaac_,Install,13.5,160.86.141.240,FD86BCF0-3077-4BFE-B337-C6D983E1817C,1559211462,2019-05-30 18:17:42,1559211538,2019-05-30 18:18:58,1559211570,d4d2ec9414202fe45d831175c9c507d1,https://cpa.rulead.com/s2s?token=074caac6-5613-11e9-8e3c-901b0ededfcf&transaction_id=d4d2ec9414202fe45d831175c9c507d1,idfa_FD86BCF0-3077-4BFE-B337-C6D983E1817C,ja
CLxWh3TtRW-olK8FT-0dGQ,rulead,84d2f00a42f662547f5c9d78c7feaaac_,Install,13.5,60.236.134.54,194D3007-BD44-423C-9D5D-D820A8E9641A,1559215810,2019-05-30 19:30:10,1559215871,2019-05-30 19:31:11,1559215917,a838dbb8c0b2ec7deac006114f457f69,https://cpa.rulead.com/s2s?token=074caac6-5613-11e9-8e3c-901b0ededfcf&transaction_id=a838dbb8c0b2ec7deac006114f457f69,idfa_194D3007-BD44-423C-9D5D-D820A8E9641A,ja-JP
CLxWh3TtRW-olK8FT-0dGQ,rulead,84d2f00a42f662547f5c9d78c7feaaac_,Install,13.5,180.14.197.143,6D8BE185-D987-477E-AC9A-55A1B3525E9C,1559214845,2019-05-30 19:14:05,1559214902,2019-05-30 19:15:02,1559214934,64828ed651da543cd16a090e75fcfcf1,https://cpa.rulead.com/s2s?token=074caac6-5613-11e9-8e3c-901b0ededfcf&transaction_id=64828ed651da543cd16a090e75fcfcf1,idfa_6D8BE185-D987-477E-AC9A-55A1B3525E9C,ja-JP
CLxWh3TtRW-olK8FT-0dGQ,rulead,84d2f00a42f662547f5c9d78c7feaaac_,Install,13.5,114.188.52.254,A13BC7B9-6BAF-4E42-9F38-6F6F0D4DF6CC,1559212347,2019-05-30 18:32:27,1559212423,2019-05-30 18:33:43,1559212453,75e201d1c89b07864fa00fcfd2518c38,https://cpa.rulead.com/s2s?token=074caac6-5613-11e9-8e3c-901b0ededfcf&transaction_id=75e201d1c89b07864fa00fcfd2518c38,idfa_A13BC7B9-6BAF-4E42-9F38-6F6F0D4DF6CC,ja-JP
CLxWh3TtRW-olK8FT-0dGQ,rulead,84d2f00a42f662547f5c9d78c7feaaac_,Install,13.5,218.40.132.132,668728B6-3EA8-481D-897C-9A7394AACA40,1559212592,2019-05-30 18:36:32,1559212648,2019-05-30 18:37:28,1559212679,dc50e4dd164661c74a5965df314a337e,https://cpa.rulead.com/s2s?token=074caac6-5613-11e9-8e3c-901b0ededfcf&transaction_id=dc50e4dd164661c74a5965df314a337e,idfa_668728B6-3EA8-481D-897C-9A7394AACA40,ja-JP
CLxWh3TtRW-olK8FT-0dGQ,rulead,84d2f00a42f662547f5c9d78c7feaaac_,Install,13.5,126.65.177.142,51A014EF-02B2-400A-A8A9-32A348DF97B0,1559214360,2019-05-30 19:06:00,1559214416,2019-05-30 19:06:56,1559214449,1fe4bd9c9b68fa49fd3d8047f7c32f35,https://cpa.rulead.com/s2s?token=074caac6-5613-11e9-8e3c-901b0ededfcf&transaction_id=1fe4bd9c9b68fa49fd3d8047f7c32f35,idfa_51A014EF-02B2-400A-A8A9-32A348DF97B0,ja-JP
CLxWh3TtRW-olK8FT-0dGQ,rulead,84d2f00a42f662547f5c9d78c7feaaac_,Install,13.5,131.147.25.166,2DD8A2EB-4F87-46CA-B167-C6239A974724,1559214246,2019-05-30 19:04:06,1559214307,2019-05-30 19:05:07,1559214337,c6eeb7ea5f210634ffc52ffb3a234783,https://cpa.rulead.com/s2s?token=074caac6-5613-11e9-8e3c-901b0ededfcf&transaction_id=c6eeb7ea5f210634ffc52ffb3a234783,idfa_2DD8A2EB-4F87-46CA-B167-C6239A974724,ja
CLxWh3TtRW-olK8FT-0dGQ,rulead,84d2f00a42f662547f5c9d78c7feaaac_,Install,13.5,126.78.221.5,003A8521-B258-4F2E-B92D-92C55397E66C,1559215257,2019-05-30 19:20:57,1559215315,2019-05-30 19:21:55,1559215345,3e40e9e2fb269d4be06ab5bfd27811f0,https://cpa.rulead.com/s2s?token=074caac6-5613-11e9-8e3c-901b0ededfcf&transaction_id=3e40e9e2fb269d4be06ab5bfd27811f0,idfa_003A8521-B258-4F2E-B92D-92C55397E66C,ja
CLxWh3TtRW-olK8FT-0dGQ,rulead,84d2f00a42f662547f5c9d78c7feaaac_,Install,13.5,222.2.112.216,783679AB-7E73-400B-A301-D62A57192D12,1559215817,2019-05-30 19:30:17,1559215865,2019-05-30 19:31:05,1559215897,dc63772a55f7f76367ffdf2c6bf636b4,https://cpa.rulead.com/s2s?token=074caac6-5613-11e9-8e3c-901b0ededfcf&transaction_id=dc63772a55f7f76367ffdf2c6bf636b4,idfa_783679AB-7E73-400B-A301-D62A57192D12,ja
CLxWh3TtRW-olK8FT-0dGQ,rulead,84d2f00a42f662547f5c9d78c7feaaac_,Install,13.5,222.150.31.120,BEEEA32C-A693-4B68-B43F-624533B0AB1B,1559215168,2019-05-30 19:19:28,1559215223,2019-05-30 19:20:23,1559215254,a273049f445ca7953d225c38b580e331,https://cpa.rulead.com/s2s?token=074caac6-5613-11e9-8e3c-901b0ededfcf&transaction_id=a273049f445ca7953d225c38b580e331,idfa_BEEEA32C-A693-4B68-B43F-624533B0AB1B,ja-JP
CLxWh3TtRW-olK8FT-0dGQ,rulead,84d2f00a42f662547f5c9d78c7feaaac_,Install,13.5,14.13.145.32,89C24FF6-5DAE-4ED2-BBB7-9C2D7146DC57,1559215743,2019-05-30 19:29:03,1559215801,2019-05-30 19:30:01,1559215831,f89674a9246dae43cdcf4f7c7319f561,https://cpa.rulead.com/s2s?token=074caac6-5613-11e9-8e3c-901b0ededfcf&transaction_id=f89674a9246dae43cdcf4f7c7319f561,idfa_89C24FF6-5DAE-4ED2-BBB7-9C2D7146DC57,ja
CLxWh3TtRW-olK8FT-0dGQ,rulead,84d2f00a42f662547f5c9d78c7feaaac_,Install,13.5,111.106.14.8,B8359027-8D7D-4689-BEE7-78B18CF3D8EF,1559214835,2019-05-30 19:13:55,1559214917,2019-05-30 19:15:17,1559214948,4ff27ee18c6a0bfbf68837d015fa2d9f,https://cpa.rulead.com/s2s?token=074caac6-5613-11e9-8e3c-901b0ededfcf&transaction_id=4ff27ee18c6a0bfbf68837d015fa2d9f,idfa_B8359027-8D7D-4689-BEE7-78B18CF3D8EF,ja-JP
