cid,partner_id,channel_id,action_id,cpi,ip,idfa,click time,click datetime,install time,install datetime,postback time,click id,postback url,unique user id
wLMQ6QF9QJaq6YHN8i3acQ,tapgerine,7821_2409_175_,Install,0.8,175.214.218.240,e9894d28-db31-43fb-ad47-88ac9fc14402,1556854706,2019-05-03 11:38:26,1556854917,2019-05-03 11:41:57,1556854947,b7c5dc18571471aad320cd7986b68914,http://postback.tapgerine.net/?token=RIYouh9UbZojpbkYoqKL707uUy3buGie&transaction_id=b7c5dc18571471aad320cd7986b68914,idfa_e9894d28-db31-43fb-ad47-88ac9fc14402,%ED%95%9C%EA%B5%AD%EC%96%B4
wLMQ6QF9QJaq6YHN8i3acQ,tapgerine,7821_2409_175_,Install,0.8,220.75.236.126,d115a396-7a8c-4116-a688-296bb34c1802,1556854335,2019-05-03 11:32:15,1556854575,2019-05-03 11:36:15,1556854605,a88262a8ed69543cc856c488cb6b53fc,http://postback.tapgerine.net/?token=RIYouh9UbZojpbkYoqKL707uUy3buGie&transaction_id=a88262a8ed69543cc856c488cb6b53fc,idfa_d115a396-7a8c-4116-a688-296bb34c1802,%ED%95%9C%EA%B5%AD%EC%96%B4
wLMQ6QF9QJaq6YHN8i3acQ,tapgerine,7821_2409_175_,Install,0.8,125.182.82.3,7add33f5-8527-4686-9562-28a0ac90ca46,1556854334,2019-05-03 11:32:14,1556854558,2019-05-03 11:35:58,1556854589,36554d595340f0e72e90f7932d5036f1,http://postback.tapgerine.net/?token=RIYouh9UbZojpbkYoqKL707uUy3buGie&transaction_id=36554d595340f0e72e90f7932d5036f1,idfa_7add33f5-8527-4686-9562-28a0ac90ca46,%ED%95%9C%EA%B5%AD%EC%96%B4
wLMQ6QF9QJaq6YHN8i3acQ,tapgerine,7821_2409_175_,Install,0.8,220.87.230.124,62e3e78b-705a-4bde-9654-679e8d9acdb3,1556852498,2019-05-03 11:01:38,1556852686,2019-05-03 11:04:46,1556852716,3b79e162cd4fb42d2cdd962ba70371d9,http://postback.tapgerine.net/?token=RIYouh9UbZojpbkYoqKL707uUy3buGie&transaction_id=3b79e162cd4fb42d2cdd962ba70371d9,idfa_62e3e78b-705a-4bde-9654-679e8d9acdb3,%ED%95%9C%EA%B5%AD%EC%96%B4
wLMQ6QF9QJaq6YHN8i3acQ,tapgerine,7821_2409_175_,Install,0.8,118.37.244.202,49106c74-1888-4172-a020-7fcb59cf397d,1556852878,2019-05-03 11:07:58,1556853072,2019-05-03 11:11:12,1556853102,77f1382d692aa7d302092bfcb086ad08,http://postback.tapgerine.net/?token=RIYouh9UbZojpbkYoqKL707uUy3buGie&transaction_id=77f1382d692aa7d302092bfcb086ad08,idfa_49106c74-1888-4172-a020-7fcb59cf397d,%ED%95%9C%EA%B5%AD%EC%96%B4
wLMQ6QF9QJaq6YHN8i3acQ,tapgerine,7821_2409_175_,Install,0.8,121.156.169.135,3804db07-2306-4f6c-9fa2-e3026f04f8e2,1556852874,2019-05-03 11:07:54,1556853110,2019-05-03 11:11:50,1556853141,2565acd5cf0613f8a29f463bf15f79ed,http://postback.tapgerine.net/?token=RIYouh9UbZojpbkYoqKL707uUy3buGie&transaction_id=2565acd5cf0613f8a29f463bf15f79ed,idfa_3804db07-2306-4f6c-9fa2-e3026f04f8e2,%ED%95%9C%EA%B5%AD%EC%96%B4
wLMQ6QF9QJaq6YHN8i3acQ,tapgerine,7821_2409_175_,Install,0.8,27.102.127.25,46d7a0e6-ffe3-4848-8db3-eaf8d4f671db,1556851814,2019-05-03 10:50:14,1556852039,2019-05-03 10:53:59,1556852070,855ec8979778acad82501de042ea334d,http://postback.tapgerine.net/?token=RIYouh9UbZojpbkYoqKL707uUy3buGie&transaction_id=855ec8979778acad82501de042ea334d,idfa_46d7a0e6-ffe3-4848-8db3-eaf8d4f671db,%ED%95%9C%EA%B5%AD%EC%96%B4
wLMQ6QF9QJaq6YHN8i3acQ,tapgerine,7821_2409_175_,Install,0.8,211.179.40.55,779b5d52-be6e-471a-9c2d-d5886a97b157,1556851809,2019-05-03 10:50:09,1556851964,2019-05-03 10:52:44,1556852205,aba0fce8421e768e5366d1fafd6c65cc,http://postback.tapgerine.net/?token=RIYouh9UbZojpbkYoqKL707uUy3buGie&transaction_id=aba0fce8421e768e5366d1fafd6c65cc,idfa_779b5d52-be6e-471a-9c2d-d5886a97b157,%ED%95%9C%EA%B5%AD%EC%96%B4
wLMQ6QF9QJaq6YHN8i3acQ,tapgerine,7821_2409_175_,Install,0.8,222.111.33.90,ecdf0e24-ffc7-4493-8527-b1f3119e7377,1556851809,2019-05-03 10:50:09,1556852028,2019-05-03 10:53:48,1556852059,2d37fb54292d5b181b9914620262e4f6,http://postback.tapgerine.net/?token=RIYouh9UbZojpbkYoqKL707uUy3buGie&transaction_id=2d37fb54292d5b181b9914620262e4f6,idfa_ecdf0e24-ffc7-4493-8527-b1f3119e7377,%ED%95%9C%EA%B5%AD%EC%96%B4
wLMQ6QF9QJaq6YHN8i3acQ,tapgerine,7821_2409_175_,Install,0.8,112.167.206.149,f39c3dc6-4a17-4207-bc4f-38de2ac9b7d2,1556853243,2019-05-03 11:14:03,1556853484,2019-05-03 11:18:04,1556853524,e05621c1557ac53b4ff241cdfd592ee5,http://postback.tapgerine.net/?token=RIYouh9UbZojpbkYoqKL707uUy3buGie&transaction_id=e05621c1557ac53b4ff241cdfd592ee5,idfa_f39c3dc6-4a17-4207-bc4f-38de2ac9b7d2,%ED%95%9C%EA%B5%AD%EC%96%B4
wLMQ6QF9QJaq6YHN8i3acQ,tapgerine,7821_2409_175_,Install,0.8,58.151.103.234,16dd1b19-dfc0-4c10-8513-4eabf79f7ec9,1556851814,2019-05-03 10:50:14,1556852046,2019-05-03 10:54:06,1556852108,8b7428be794c1c7a8fba16799ff1ab02,http://postback.tapgerine.net/?token=RIYouh9UbZojpbkYoqKL707uUy3buGie&transaction_id=8b7428be794c1c7a8fba16799ff1ab02,idfa_16dd1b19-dfc0-4c10-8513-4eabf79f7ec9,%ED%95%9C%EA%B5%AD%EC%96%B4
wLMQ6QF9QJaq6YHN8i3acQ,tapgerine,7821_2409_175_,Install,0.8,211.227.193.24,d4f51879-76da-42a1-9b0e-f2e64f7313d4,1556853618,2019-05-03 11:20:18,1556853825,2019-05-03 11:23:45,1556853856,7f1aa2f3e2d6685b5bf9091b84c2e291,http://postback.tapgerine.net/?token=RIYouh9UbZojpbkYoqKL707uUy3buGie&transaction_id=7f1aa2f3e2d6685b5bf9091b84c2e291,idfa_d4f51879-76da-42a1-9b0e-f2e64f7313d4,%ED%95%9C%EA%B5%AD%EC%96%B4
wLMQ6QF9QJaq6YHN8i3acQ,tapgerine,7821_2409_175_,Install,0.8,211.215.183.18,6b7f73a5-2114-448b-9ed7-c096f1742525,1556854325,2019-05-03 11:32:05,1556854559,2019-05-03 11:35:59,1556854589,5fc33b1946f2ff358f9028ef6eea6d7c,http://postback.tapgerine.net/?token=RIYouh9UbZojpbkYoqKL707uUy3buGie&transaction_id=5fc33b1946f2ff358f9028ef6eea6d7c,idfa_6b7f73a5-2114-448b-9ed7-c096f1742525,%ED%95%9C%EA%B5%AD%EC%96%B4
wLMQ6QF9QJaq6YHN8i3acQ,tapgerine,7821_2409_175_,Install,0.8,122.35.240.103,12ce4445-5199-4079-a732-d5f8d6f41a09,1556851808,2019-05-03 10:50:08,1556851965,2019-05-03 10:52:45,1556851996,f6ca09841ef9e78c193efee206dc9b8e,http://postback.tapgerine.net/?token=RIYouh9UbZojpbkYoqKL707uUy3buGie&transaction_id=f6ca09841ef9e78c193efee206dc9b8e,idfa_12ce4445-5199-4079-a732-d5f8d6f41a09,%ED%95%9C%EA%B5%AD%EC%96%B4
wLMQ6QF9QJaq6YHN8i3acQ,tapgerine,7821_2409_175_,Install,0.8,211.231.7.117,fed4e984-ac16-48fb-86aa-4700b824e7ab,1556853613,2019-05-03 11:20:13,1556853713,2019-05-03 11:21:53,1556853743,d9d9795ade5b14078f708a7d52d7e145,http://postback.tapgerine.net/?token=RIYouh9UbZojpbkYoqKL707uUy3buGie&transaction_id=d9d9795ade5b14078f708a7d52d7e145,idfa_fed4e984-ac16-48fb-86aa-4700b824e7ab,%ED%95%9C%EA%B5%AD%EC%96%B4
wLMQ6QF9QJaq6YHN8i3acQ,tapgerine,7821_2409_175_,Install,0.8,122.46.59.233,943156fa-f7f3-4b30-b155-6656b40c248a,1556853250,2019-05-03 11:14:10,1556853482,2019-05-03 11:18:02,1556853624,b5c79fdb045852371eb3955de07e5aef,http://postback.tapgerine.net/?token=RIYouh9UbZojpbkYoqKL707uUy3buGie&transaction_id=b5c79fdb045852371eb3955de07e5aef,idfa_943156fa-f7f3-4b30-b155-6656b40c248a,%ED%95%9C%EA%B5%AD%EC%96%B4
wLMQ6QF9QJaq6YHN8i3acQ,tapgerine,7821_2409_175_,Install,0.8,211.216.215.160,aca1b115-3ee0-4914-8299-487d715c85a9,1556854000,2019-05-03 11:26:40,1556854189,2019-05-03 11:29:49,1556854219,ac6899a35f40de24148ee3fc9248d38e,http://postback.tapgerine.net/?token=RIYouh9UbZojpbkYoqKL707uUy3buGie&transaction_id=ac6899a35f40de24148ee3fc9248d38e,idfa_aca1b115-3ee0-4914-8299-487d715c85a9,%ED%95%9C%EA%B5%AD%EC%96%B4
wLMQ6QF9QJaq6YHN8i3acQ,tapgerine,7821_2409_175_,Install,0.8,39.116.25.222,112ac5cd-a1cd-4cd4-ac5d-b62cc31ec749,1556852186,2019-05-03 10:56:26,1556852378,2019-05-03 10:59:38,1556852408,82181ed9d3f8034f89593782daad4655,http://postback.tapgerine.net/?token=RIYouh9UbZojpbkYoqKL707uUy3buGie&transaction_id=82181ed9d3f8034f89593782daad4655,idfa_112ac5cd-a1cd-4cd4-ac5d-b62cc31ec749,%ED%95%9C%EA%B5%AD%EC%96%B4
wLMQ6QF9QJaq6YHN8i3acQ,tapgerine,7821_2409_175_,Install,0.8,175.208.194.243,5fa7f481-8fcf-4390-9367-7ee40fd9ea6a,1556854709,2019-05-03 11:38:29,1556854911,2019-05-03 11:41:51,1556854941,1324df015d391c406351e4ed79b5816a,http://postback.tapgerine.net/?token=RIYouh9UbZojpbkYoqKL707uUy3buGie&transaction_id=1324df015d391c406351e4ed79b5816a,idfa_5fa7f481-8fcf-4390-9367-7ee40fd9ea6a,%ED%95%9C%EA%B5%AD%EC%96%B4
wLMQ6QF9QJaq6YHN8i3acQ,tapgerine,7821_2409_175_,Install,0.8,106.254.0.218,4704cb0c-4e50-4543-8c4c-c58b7285c6ef,1556852175,2019-05-03 10:56:15,1556852377,2019-05-03 10:59:37,1556852407,a7b29178500a267b593e958720db3add,http://postback.tapgerine.net/?token=RIYouh9UbZojpbkYoqKL707uUy3buGie&transaction_id=a7b29178500a267b593e958720db3add,idfa_4704cb0c-4e50-4543-8c4c-c58b7285c6ef,%ED%95%9C%EA%B5%AD%EC%96%B4
wLMQ6QF9QJaq6YHN8i3acQ,tapgerine,7821_2409_175_,Install,0.8,175.118.139.83,8c9828f3-438b-4f76-982f-594f8e55568f,1556852867,2019-05-03 11:07:47,1556853051,2019-05-03 11:10:51,1556853081,5aad52053512444fbdef27c38e22908e,http://postback.tapgerine.net/?token=RIYouh9UbZojpbkYoqKL707uUy3buGie&transaction_id=5aad52053512444fbdef27c38e22908e,idfa_8c9828f3-438b-4f76-982f-594f8e55568f,%ED%95%9C%EA%B5%AD%EC%96%B4
wLMQ6QF9QJaq6YHN8i3acQ,tapgerine,7821_2409_175_,Install,0.8,221.147.96.208,c3eef258-46dc-4669-be6e-4c89d21b373a,1556852867,2019-05-03 11:07:47,1556853111,2019-05-03 11:11:51,1556853141,c1e8060b7814737c6f7d6a883215c4ee,http://postback.tapgerine.net/?token=RIYouh9UbZojpbkYoqKL707uUy3buGie&transaction_id=c1e8060b7814737c6f7d6a883215c4ee,idfa_c3eef258-46dc-4669-be6e-4c89d21b373a,%ED%95%9C%EA%B5%AD%EC%96%B4
wLMQ6QF9QJaq6YHN8i3acQ,tapgerine,7821_2409_175_,Install,0.8,211.195.34.191,7b3df079-5c9d-4d10-bdbf-7068c6869302,1556853993,2019-05-03 11:26:33,1556854123,2019-05-03 11:28:43,1556854153,aa32cb32740a9838100c9ab5a588268f,http://postback.tapgerine.net/?token=RIYouh9UbZojpbkYoqKL707uUy3buGie&transaction_id=aa32cb32740a9838100c9ab5a588268f,idfa_7b3df079-5c9d-4d10-bdbf-7068c6869302,%ED%95%9C%EA%B5%AD%EC%96%B4
wLMQ6QF9QJaq6YHN8i3acQ,tapgerine,7821_2409_175_,Install,0.8,14.32.56.3,f7de12e5-c2bc-46b9-8b9a-2b22ae0fefcc,1556854001,2019-05-03 11:26:41,1556854167,2019-05-03 11:29:27,1556854198,20398533c4ca49908cd805aabf5c9216,http://postback.tapgerine.net/?token=RIYouh9UbZojpbkYoqKL707uUy3buGie&transaction_id=20398533c4ca49908cd805aabf5c9216,idfa_f7de12e5-c2bc-46b9-8b9a-2b22ae0fefcc,%ED%95%9C%EA%B5%AD%EC%96%B4
wLMQ6QF9QJaq6YHN8i3acQ,tapgerine,7821_2409_175_,Install,0.8,210.178.104.171,f495e98e-a28c-4729-b89e-9b815610f57d,1556851906,2019-05-03 10:51:46,1556852055,2019-05-03 10:54:15,1556852085,cdf193cafb759c01366fa55736ea404d,http://postback.tapgerine.net/?token=RIYouh9UbZojpbkYoqKL707uUy3buGie&transaction_id=cdf193cafb759c01366fa55736ea404d,idfa_f495e98e-a28c-4729-b89e-9b815610f57d,%ED%95%9C%EA%B5%AD%EC%96%B4
wLMQ6QF9QJaq6YHN8i3acQ,tapgerine,7821_2409_175_,Install,0.8,112.155.237.157,e21e76e0-d0b1-4d7a-945c-0ec58f51ac12,1556853614,2019-05-03 11:20:14,1556853799,2019-05-03 11:23:19,1556853829,052abe1a12eef11d14d9fae2d9ee4c79,http://postback.tapgerine.net/?token=RIYouh9UbZojpbkYoqKL707uUy3buGie&transaction_id=052abe1a12eef11d14d9fae2d9ee4c79,idfa_e21e76e0-d0b1-4d7a-945c-0ec58f51ac12,%ED%95%9C%EA%B5%AD%EC%96%B4
wLMQ6QF9QJaq6YHN8i3acQ,tapgerine,7821_2409_175_,Install,0.8,203.230.112.217,46504456-89a0-4415-a299-5aaf4d06aadc,1556852877,2019-05-03 11:07:57,1556853085,2019-05-03 11:11:25,1556853115,44f2473f3d2822503ae1f52c6eef1cdc,http://postback.tapgerine.net/?token=RIYouh9UbZojpbkYoqKL707uUy3buGie&transaction_id=44f2473f3d2822503ae1f52c6eef1cdc,idfa_46504456-89a0-4415-a299-5aaf4d06aadc,%ED%95%9C%EA%B5%AD%EC%96%B4
wLMQ6QF9QJaq6YHN8i3acQ,tapgerine,7821_2409_175_,Install,0.8,182.230.243.49,18b5fd2c-e2fb-4cd8-b063-1764a68fa7c4,1556851814,2019-05-03 10:50:14,1556851992,2019-05-03 10:53:12,1556852023,3c7d1318976499d27ca7302101c55692,http://postback.tapgerine.net/?token=RIYouh9UbZojpbkYoqKL707uUy3buGie&transaction_id=3c7d1318976499d27ca7302101c55692,idfa_18b5fd2c-e2fb-4cd8-b063-1764a68fa7c4,%ED%95%9C%EA%B5%AD%EC%96%B4
wLMQ6QF9QJaq6YHN8i3acQ,tapgerine,7821_2409_175_,Install,0.8,222.110.102.114,a5864a4b-2a13-4914-9359-d41b88a6b577,1556852501,2019-05-03 11:01:41,1556852662,2019-05-03 11:04:22,1556852692,5663a3303d0bf2641216878745ad43af,http://postback.tapgerine.net/?token=RIYouh9UbZojpbkYoqKL707uUy3buGie&transaction_id=5663a3303d0bf2641216878745ad43af,idfa_a5864a4b-2a13-4914-9359-d41b88a6b577,%ED%95%9C%EA%B5%AD%EC%96%B4
wLMQ6QF9QJaq6YHN8i3acQ,tapgerine,7821_2409_175_,Install,0.8,110.70.59.177,3a32396e-a5bf-4aee-bf8e-268c55803e23,1556854715,2019-05-03 11:38:35,1556854911,2019-05-03 11:41:51,1556854942,7c5b655d54dfa68a63b8ea9c94ac693f,http://postback.tapgerine.net/?token=RIYouh9UbZojpbkYoqKL707uUy3buGie&transaction_id=7c5b655d54dfa68a63b8ea9c94ac693f,idfa_3a32396e-a5bf-4aee-bf8e-268c55803e23,%ED%95%9C%EA%B5%AD%EC%96%B4
wLMQ6QF9QJaq6YHN8i3acQ,tapgerine,7821_2409_175_,Install,0.8,125.187.155.210,49e5667d-e830-4ec0-be57-a795a313c911,1556854344,2019-05-03 11:32:24,1556854561,2019-05-03 11:36:01,1556854592,e9df17568931b13e695c8f890be638a7,http://postback.tapgerine.net/?token=RIYouh9UbZojpbkYoqKL707uUy3buGie&transaction_id=e9df17568931b13e695c8f890be638a7,idfa_49e5667d-e830-4ec0-be57-a795a313c911,%ED%95%9C%EA%B5%AD%EC%96%B4
wLMQ6QF9QJaq6YHN8i3acQ,tapgerine,7821_2409_175_,Install,0.8,14.4.129.186,a5d7608d-30d1-426d-8ca1-265171881b19,1556854345,2019-05-03 11:32:25,1556854540,2019-05-03 11:35:40,1556854570,9f595858b69adcedd5efb989484a099d,http://postback.tapgerine.net/?token=RIYouh9UbZojpbkYoqKL707uUy3buGie&transaction_id=9f595858b69adcedd5efb989484a099d,idfa_a5d7608d-30d1-426d-8ca1-265171881b19,%ED%95%9C%EA%B5%AD%EC%96%B4
wLMQ6QF9QJaq6YHN8i3acQ,tapgerine,7821_2409_175_,Install,0.8,211.114.156.113,66f8090c-0786-49f4-8437-a8e935507c76,1556853241,2019-05-03 11:14:01,1556853482,2019-05-03 11:18:02,1556853512,d710a81e91bdfdbf57f3461c20d51112,http://postback.tapgerine.net/?token=RIYouh9UbZojpbkYoqKL707uUy3buGie&transaction_id=d710a81e91bdfdbf57f3461c20d51112,idfa_66f8090c-0786-49f4-8437-a8e935507c76,%ED%95%9C%EA%B5%AD%EC%96%B4
wLMQ6QF9QJaq6YHN8i3acQ,tapgerine,7821_2409_175_,Install,0.8,61.101.186.162,f13ab3cb-f120-43d3-b069-567abb35517f,1556852864,2019-05-03 11:07:44,1556853113,2019-05-03 11:11:53,1556853244,cb59f5d0cecf7f76e44055fcc83f6371,http://postback.tapgerine.net/?token=RIYouh9UbZojpbkYoqKL707uUy3buGie&transaction_id=cb59f5d0cecf7f76e44055fcc83f6371,idfa_f13ab3cb-f120-43d3-b069-567abb35517f,%ED%95%9C%EA%B5%AD%EC%96%B4
wLMQ6QF9QJaq6YHN8i3acQ,tapgerine,7821_2409_175_,Install,0.8,59.9.70.247,0ff09241-9728-4c40-b6f1-1457a7a09176,1556854702,2019-05-03 11:38:22,1556854877,2019-05-03 11:41:17,1556854907,5811507600f9d349bf350aed575e1d11,http://postback.tapgerine.net/?token=RIYouh9UbZojpbkYoqKL707uUy3buGie&transaction_id=5811507600f9d349bf350aed575e1d11,idfa_0ff09241-9728-4c40-b6f1-1457a7a09176,%ED%95%9C%EA%B5%AD%EC%96%B4
wLMQ6QF9QJaq6YHN8i3acQ,tapgerine,7821_2409_175_,Install,0.8,1.177.49.65,70ae6b96-b5bc-4d76-a16a-10d1e487e09e,1556853619,2019-05-03 11:20:19,1556853828,2019-05-03 11:23:48,1556853858,40eda780e3d605c99f2d59e27480f6b6,http://postback.tapgerine.net/?token=RIYouh9UbZojpbkYoqKL707uUy3buGie&transaction_id=40eda780e3d605c99f2d59e27480f6b6,idfa_70ae6b96-b5bc-4d76-a16a-10d1e487e09e,%ED%95%9C%EA%B5%AD%EC%96%B4
wLMQ6QF9QJaq6YHN8i3acQ,tapgerine,7821_2409_175_,Install,0.8,1.252.9.12,2802b860-468b-4de0-a972-344df919ff4b,1556852542,2019-05-03 11:02:22,1556852679,2019-05-03 11:04:39,1556852711,bfe034973cd2e94b2d2a7edf84ee9581,http://postback.tapgerine.net/?token=RIYouh9UbZojpbkYoqKL707uUy3buGie&transaction_id=bfe034973cd2e94b2d2a7edf84ee9581,idfa_2802b860-468b-4de0-a972-344df919ff4b,%ED%95%9C%EA%B5%AD%EC%96%B4
wLMQ6QF9QJaq6YHN8i3acQ,tapgerine,7821_2409_175_,Install,0.8,122.199.82.12,2c175af6-a13e-4c77-ac08-e70a4a4990c0,1556852865,2019-05-03 11:07:45,1556852956,2019-05-03 11:09:16,1556852986,cadedc9be32c99ee9650ba2d6485ea5a,http://postback.tapgerine.net/?token=RIYouh9UbZojpbkYoqKL707uUy3buGie&transaction_id=cadedc9be32c99ee9650ba2d6485ea5a,idfa_2c175af6-a13e-4c77-ac08-e70a4a4990c0,%ED%95%9C%EA%B5%AD%EC%96%B4
wLMQ6QF9QJaq6YHN8i3acQ,tapgerine,7821_2409_175_,Install,0.8,221.140.241.81,addec88f-1e82-403a-9d24-e6d2fb215119,1556853988,2019-05-03 11:26:28,1556854172,2019-05-03 11:29:32,1556854202,48f9d956aad62203f25b08b8a3fac88b,http://postback.tapgerine.net/?token=RIYouh9UbZojpbkYoqKL707uUy3buGie&transaction_id=48f9d956aad62203f25b08b8a3fac88b,idfa_addec88f-1e82-403a-9d24-e6d2fb215119,%ED%95%9C%EA%B5%AD%EC%96%B4
wLMQ6QF9QJaq6YHN8i3acQ,tapgerine,7821_2409_175_,Install,0.8,220.85.248.89,ea59f001-8324-4c67-9568-e0750b0186bd,1556854806,2019-05-03 11:40:06,1556854959,2019-05-03 11:42:39,1556854989,c33ad1256086056863d729a5e048d915,http://postback.tapgerine.net/?token=RIYouh9UbZojpbkYoqKL707uUy3buGie&transaction_id=c33ad1256086056863d729a5e048d915,idfa_ea59f001-8324-4c67-9568-e0750b0186bd,%ED%95%9C%EA%B5%AD%EC%96%B4
wLMQ6QF9QJaq6YHN8i3acQ,tapgerine,7821_2409_175_,Install,0.8,218.144.118.107,c1fe7728-3edf-40d1-b5c4-25e6c321c634,1556852878,2019-05-03 11:07:58,1556853113,2019-05-03 11:11:53,1556853144,b8d4c7ec70fa8793a212a0ac3e25c5bb,http://postback.tapgerine.net/?token=RIYouh9UbZojpbkYoqKL707uUy3buGie&transaction_id=b8d4c7ec70fa8793a212a0ac3e25c5bb,idfa_c1fe7728-3edf-40d1-b5c4-25e6c321c634,%ED%95%9C%EA%B5%AD%EC%96%B4
wLMQ6QF9QJaq6YHN8i3acQ,tapgerine,7821_2409_175_,Install,0.8,121.165.115.178,b3c0324c-8ca5-4e6e-a4e1-b21fb97b10cb,1556853245,2019-05-03 11:14:05,1556853458,2019-05-03 11:17:38,1556853488,2f240cbecb84d5e5b4c312eac67a42cc,http://postback.tapgerine.net/?token=RIYouh9UbZojpbkYoqKL707uUy3buGie&transaction_id=2f240cbecb84d5e5b4c312eac67a42cc,idfa_b3c0324c-8ca5-4e6e-a4e1-b21fb97b10cb,%ED%95%9C%EA%B5%AD%EC%96%B4
wLMQ6QF9QJaq6YHN8i3acQ,tapgerine,7821_2409_175_,Install,0.8,58.150.125.251,bd4bd2d9-900a-4c4f-b054-c583408d019a,1556853623,2019-05-03 11:20:23,1556853855,2019-05-03 11:24:15,1556853911,d5726f6f893a922a831c5e0e6904840f,http://postback.tapgerine.net/?token=RIYouh9UbZojpbkYoqKL707uUy3buGie&transaction_id=d5726f6f893a922a831c5e0e6904840f,idfa_bd4bd2d9-900a-4c4f-b054-c583408d019a,%ED%95%9C%EA%B5%AD%EC%96%B4
wLMQ6QF9QJaq6YHN8i3acQ,tapgerine,7821_2409_175_,Install,0.8,221.142.104.155,2224a3e4-30f0-4f9b-afdd-72a369e7d818,1556852508,2019-05-03 11:01:48,1556852687,2019-05-03 11:04:47,1556852893,2836279796021ef42b1c9bacfd6d8e73,http://postback.tapgerine.net/?token=RIYouh9UbZojpbkYoqKL707uUy3buGie&transaction_id=2836279796021ef42b1c9bacfd6d8e73,idfa_2224a3e4-30f0-4f9b-afdd-72a369e7d818,%ED%95%9C%EA%B5%AD%EC%96%B4
wLMQ6QF9QJaq6YHN8i3acQ,tapgerine,7821_2409_175_,Install,0.8,211.107.113.99,92ed931e-8ad2-456c-952a-9849a374ad0b,1556854698,2019-05-03 11:38:18,1556854814,2019-05-03 11:40:14,1556854845,e64233b68a24f50fe92ac03365ac3b90,http://postback.tapgerine.net/?token=RIYouh9UbZojpbkYoqKL707uUy3buGie&transaction_id=e64233b68a24f50fe92ac03365ac3b90,idfa_92ed931e-8ad2-456c-952a-9849a374ad0b,%ED%95%9C%EA%B5%AD%EC%96%B4
wLMQ6QF9QJaq6YHN8i3acQ,tapgerine,7821_2409_175_,Install,0.8,211.116.23.198,d97cdaf0-b548-4735-b406-dc75624d2a2e,1556852024,2019-05-03 10:53:44,1556852113,2019-05-03 10:55:13,1556852158,f20a5723d8979dc3e9e419044b68d702,http://postback.tapgerine.net/?token=RIYouh9UbZojpbkYoqKL707uUy3buGie&transaction_id=f20a5723d8979dc3e9e419044b68d702,idfa_d97cdaf0-b548-4735-b406-dc75624d2a2e,%ED%95%9C%EA%B5%AD%EC%96%B4
wLMQ6QF9QJaq6YHN8i3acQ,tapgerine,7821_2409_175_,Install,0.8,116.40.21.244,923f53e1-df8d-40aa-8cf8-58c1d51b3cbc,1556854700,2019-05-03 11:38:20,1556854912,2019-05-03 11:41:52,1556854943,d2fbec59162552a051a3aa32cec4deb2,http://postback.tapgerine.net/?token=RIYouh9UbZojpbkYoqKL707uUy3buGie&transaction_id=d2fbec59162552a051a3aa32cec4deb2,idfa_923f53e1-df8d-40aa-8cf8-58c1d51b3cbc,%ED%95%9C%EA%B5%AD%EC%96%B4
wLMQ6QF9QJaq6YHN8i3acQ,tapgerine,7821_2409_175_,Install,0.8,183.109.151.92,2ac9032a-1690-4a56-8d97-163c70cf8816,1556853620,2019-05-03 11:20:20,1556853838,2019-05-03 11:23:58,1556853868,7bc5b7bf61cc3389c2dccba3685947cb,http://postback.tapgerine.net/?token=RIYouh9UbZojpbkYoqKL707uUy3buGie&transaction_id=7bc5b7bf61cc3389c2dccba3685947cb,idfa_2ac9032a-1690-4a56-8d97-163c70cf8816,%ED%95%9C%EA%B5%AD%EC%96%B4
wLMQ6QF9QJaq6YHN8i3acQ,tapgerine,7821_2409_175_,Install,0.8,222.238.244.191,b74f80f0-b0f3-442e-89f3-6b625d8378b7,1556852506,2019-05-03 11:01:46,1556852677,2019-05-03 11:04:37,1556852707,65e7d9f6c0393b90950c9e329bc28bed,http://postback.tapgerine.net/?token=RIYouh9UbZojpbkYoqKL707uUy3buGie&transaction_id=65e7d9f6c0393b90950c9e329bc28bed,idfa_b74f80f0-b0f3-442e-89f3-6b625d8378b7,%ED%95%9C%EA%B5%AD%EC%96%B4
wLMQ6QF9QJaq6YHN8i3acQ,tapgerine,7821_2409_175_,Install,0.8,211.104.91.193,077085a2-d722-4380-9ba6-b8f039953833,1556854334,2019-05-03 11:32:14,1556854560,2019-05-03 11:36:00,1556854590,c8956dbe75820b7cdde2883667c507e2,http://postback.tapgerine.net/?token=RIYouh9UbZojpbkYoqKL707uUy3buGie&transaction_id=c8956dbe75820b7cdde2883667c507e2,idfa_077085a2-d722-4380-9ba6-b8f039953833,%ED%95%9C%EA%B5%AD%EC%96%B4
wLMQ6QF9QJaq6YHN8i3acQ,tapgerine,7821_2409_175_,Install,0.8,117.111.28.184,21500402-75c8-48fd-836e-6d9c6e717716,1556854013,2019-05-03 11:26:53,1556854179,2019-05-03 11:29:39,1556854210,a4d87a3b80a3db6c969bc0c12336f690,http://postback.tapgerine.net/?token=RIYouh9UbZojpbkYoqKL707uUy3buGie&transaction_id=a4d87a3b80a3db6c969bc0c12336f690,idfa_21500402-75c8-48fd-836e-6d9c6e717716,%ED%95%9C%EA%B5%AD%EC%96%B4
wLMQ6QF9QJaq6YHN8i3acQ,tapgerine,7821_2409_175_,Install,0.8,175.196.203.53,0e7589b8-71e4-4832-9473-7e04668f74ce,1556854696,2019-05-03 11:38:16,1556854915,2019-05-03 11:41:55,1556854945,7551dd52d0b1b02891b03e9f470c2411,http://postback.tapgerine.net/?token=RIYouh9UbZojpbkYoqKL707uUy3buGie&transaction_id=7551dd52d0b1b02891b03e9f470c2411,idfa_0e7589b8-71e4-4832-9473-7e04668f74ce,%ED%95%9C%EA%B5%AD%EC%96%B4
wLMQ6QF9QJaq6YHN8i3acQ,tapgerine,7821_2409_175_,Install,0.8,183.99.32.142,04c79072-f7e1-4eda-a294-9019b6db42c0,1556852881,2019-05-03 11:08:01,1556853106,2019-05-03 11:11:46,1556853137,b6f3aa1aa00982e9ea085e2dae532324,http://postback.tapgerine.net/?token=RIYouh9UbZojpbkYoqKL707uUy3buGie&transaction_id=b6f3aa1aa00982e9ea085e2dae532324,idfa_04c79072-f7e1-4eda-a294-9019b6db42c0,%ED%95%9C%EA%B5%AD%EC%96%B4
wLMQ6QF9QJaq6YHN8i3acQ,tapgerine,7821_2409_175_,Install,0.8,59.1.167.15,4bd73a8b-dcfd-45c5-b17b-45c31d8da26f,1556854694,2019-05-03 11:38:14,1556854835,2019-05-03 11:40:35,1556854869,c92f28fb822d234a58591c6a5f1d0680,http://postback.tapgerine.net/?token=RIYouh9UbZojpbkYoqKL707uUy3buGie&transaction_id=c92f28fb822d234a58591c6a5f1d0680,idfa_4bd73a8b-dcfd-45c5-b17b-45c31d8da26f,%ED%95%9C%EA%B5%AD%EC%96%B4
wLMQ6QF9QJaq6YHN8i3acQ,tapgerine,7821_2409_175_,Install,0.8,175.121.168.74,8405b5da-c4cd-4ebb-82a1-3177bf5a0904,1556852881,2019-05-03 11:08:01,1556853127,2019-05-03 11:12:07,1556853157,63db564e2b73fb93200eb741b92df0f0,http://postback.tapgerine.net/?token=RIYouh9UbZojpbkYoqKL707uUy3buGie&transaction_id=63db564e2b73fb93200eb741b92df0f0,idfa_8405b5da-c4cd-4ebb-82a1-3177bf5a0904,%ED%95%9C%EA%B5%AD%EC%96%B4
