cid,partner_id,channel_id,action_id,cpi,ip,idfa,click time,click datetime,install time,install datetime,postback time,click id,postback url,unique user id
qa_YDqg1RrqN7R4pEz6_nQ,tapgerine,970_AP_12523,Install,1.4,192.228.231.177,F01FD070-FF06-4C63-BCC5-2437E70B3609,1559309021,2019-05-31 21:23:41,1559309055,2019-05-31 21:24:15,1559309086,4d7d08c706d3b5e27b560420b038ffea,http://postback.tapgerine.net/?token=RIYouh9UbZojpbkYoqKL707uUy3buGie&transaction_id=4d7d08c706d3b5e27b560420b038ffea,idfa_F01FD070-FF06-4C63-BCC5-2437E70B3609,en
qa_YDqg1RrqN7R4pEz6_nQ,tapgerine,970_AP_12523,Install,1.4,175.136.208.23,82C409B1-663C-481A-9BAB-A868CDC11BBD,1559310553,2019-05-31 21:49:13,1559310586,2019-05-31 21:49:46,1559310617,2a80fe730cb15aaa17623d92d253c11a,http://postback.tapgerine.net/?token=RIYouh9UbZojpbkYoqKL707uUy3buGie&transaction_id=2a80fe730cb15aaa17623d92d253c11a,idfa_82C409B1-663C-481A-9BAB-A868CDC11BBD,en
qa_YDqg1RrqN7R4pEz6_nQ,tapgerine,970_AP_12523,Install,1.4,121.120.83.246,EC3003B9-C763-4284-9A7F-EF125FE7484C,1559310873,2019-05-31 21:54:33,1559310907,2019-05-31 21:55:07,1559310937,a36ab20379f669033813318218480ecb,http://postback.tapgerine.net/?token=RIYouh9UbZojpbkYoqKL707uUy3buGie&transaction_id=a36ab20379f669033813318218480ecb,idfa_EC3003B9-C763-4284-9A7F-EF125FE7484C,en
qa_YDqg1RrqN7R4pEz6_nQ,tapgerine,970_AP_12523,Install,1.4,14.192.212.205,052C15BC-B403-46C2-A824-CD94982DB384,1559310252,2019-05-31 21:44:12,1559310275,2019-05-31 21:44:35,1559310306,1e382e9f71d52482a25009cdc7f7ca8e,http://postback.tapgerine.net/?token=RIYouh9UbZojpbkYoqKL707uUy3buGie&transaction_id=1e382e9f71d52482a25009cdc7f7ca8e,idfa_052C15BC-B403-46C2-A824-CD94982DB384,en
qa_YDqg1RrqN7R4pEz6_nQ,tapgerine,970_AP_12523,Install,1.4,121.121.107.59,BDA19338-04CC-4408-95BC-EF6BD7632EE3,1559309256,2019-05-31 21:27:36,1559309289,2019-05-31 21:28:09,1559309320,89ea88664ae384b3d6aa0e15cc1567d1,http://postback.tapgerine.net/?token=RIYouh9UbZojpbkYoqKL707uUy3buGie&transaction_id=89ea88664ae384b3d6aa0e15cc1567d1,idfa_BDA19338-04CC-4408-95BC-EF6BD7632EE3,en
qa_YDqg1RrqN7R4pEz6_nQ,tapgerine,970_AP_12523,Install,1.4,210.186.155.122,A2591F5F-D64E-4CD2-8019-E628EA5FA3A3,1559307808,2019-05-31 21:03:28,1559307848,2019-05-31 21:04:08,1559307879,ca7bc205cb661f102c39d5aaebb3daa6,http://postback.tapgerine.net/?token=RIYouh9UbZojpbkYoqKL707uUy3buGie&transaction_id=ca7bc205cb661f102c39d5aaebb3daa6,idfa_A2591F5F-D64E-4CD2-8019-E628EA5FA3A3,en
qa_YDqg1RrqN7R4pEz6_nQ,tapgerine,970_AP_12523,Install,1.4,61.6.43.107,00006EBB-ADE6-430A-8784-3EBA8FEC5EEA,1559309343,2019-05-31 21:29:03,1559309384,2019-05-31 21:29:44,1559309415,34c59f751ac2d6e9ee6ae4c490f6ab97,http://postback.tapgerine.net/?token=RIYouh9UbZojpbkYoqKL707uUy3buGie&transaction_id=34c59f751ac2d6e9ee6ae4c490f6ab97,idfa_00006EBB-ADE6-430A-8784-3EBA8FEC5EEA,en
qa_YDqg1RrqN7R4pEz6_nQ,tapgerine,970_AP_12523,Install,1.4,219.92.253.4,6C581336-9994-4CC2-BBD4-314AFE3E70E3,1559308973,2019-05-31 21:22:53,1559309007,2019-05-31 21:23:27,1559309038,4a4339a8bf19b1bac9df2944355f450d,http://postback.tapgerine.net/?token=RIYouh9UbZojpbkYoqKL707uUy3buGie&transaction_id=4a4339a8bf19b1bac9df2944355f450d,idfa_6C581336-9994-4CC2-BBD4-314AFE3E70E3,en
qa_YDqg1RrqN7R4pEz6_nQ,tapgerine,970_AP_12523,Install,1.4,210.187.237.173,F7D638A4-F2CA-4583-92BC-BC201D54B8ED,1559311054,2019-05-31 21:57:34,1559311079,2019-05-31 21:57:59,1559311109,af62f64f6bcd86e73a45420d88bbddb9,http://postback.tapgerine.net/?token=RIYouh9UbZojpbkYoqKL707uUy3buGie&transaction_id=af62f64f6bcd86e73a45420d88bbddb9,idfa_F7D638A4-F2CA-4583-92BC-BC201D54B8ED,en
qa_YDqg1RrqN7R4pEz6_nQ,tapgerine,970_AP_12523,Install,1.4,60.51.32.130,F5D40DF3-A7F0-4EE3-86E4-18B66B3DF9FA,1559309710,2019-05-31 21:35:10,1559309744,2019-05-31 21:35:44,1559309774,fe6eefab0529fb656047adec08b2ff64,http://postback.tapgerine.net/?token=RIYouh9UbZojpbkYoqKL707uUy3buGie&transaction_id=fe6eefab0529fb656047adec08b2ff64,idfa_F5D40DF3-A7F0-4EE3-86E4-18B66B3DF9FA,en
qa_YDqg1RrqN7R4pEz6_nQ,tapgerine,970_AP_12523,Install,1.4,60.51.77.198,D7245446-95DB-4C50-8A80-8592004FB5AE,1559305563,2019-05-31 20:26:03,1559307588,2019-05-31 20:59:48,1559307620,a4c186186d8356c9e7e0e3c7549c9ce1,http://postback.tapgerine.net/?token=RIYouh9UbZojpbkYoqKL707uUy3buGie&transaction_id=a4c186186d8356c9e7e0e3c7549c9ce1,idfa_D7245446-95DB-4C50-8A80-8592004FB5AE,en
qa_YDqg1RrqN7R4pEz6_nQ,tapgerine,970_AP_12523,Install,1.4,14.192.207.43,1CCE2866-68E8-4228-B816-F8568FF61AA2,1559307936,2019-05-31 21:05:36,1559307962,2019-05-31 21:06:02,1559307993,0f2d25a5616bac6b4cdde053501f96bb,http://postback.tapgerine.net/?token=RIYouh9UbZojpbkYoqKL707uUy3buGie&transaction_id=0f2d25a5616bac6b4cdde053501f96bb,idfa_1CCE2866-68E8-4228-B816-F8568FF61AA2,en
qa_YDqg1RrqN7R4pEz6_nQ,tapgerine,970_AP_12523,Install,1.4,42.189.196.122,8714E586-75F8-40C1-A9A5-44770679D0CF,1559308555,2019-05-31 21:15:55,1559308606,2019-05-31 21:16:46,1559308637,0fee38ca0b0a60cf7b695ed6e28b8a1e,http://postback.tapgerine.net/?token=RIYouh9UbZojpbkYoqKL707uUy3buGie&transaction_id=0fee38ca0b0a60cf7b695ed6e28b8a1e,idfa_8714E586-75F8-40C1-A9A5-44770679D0CF,en
qa_YDqg1RrqN7R4pEz6_nQ,tapgerine,970_AP_12523,Install,1.4,210.195.50.249,5082C7D4-76A6-4489-9C86-E65C3F794F7E,1559308270,2019-05-31 21:11:10,1559308293,2019-05-31 21:11:33,1559308324,3c5998403ead13fd7a3373133f26af4d,http://postback.tapgerine.net/?token=RIYouh9UbZojpbkYoqKL707uUy3buGie&transaction_id=3c5998403ead13fd7a3373133f26af4d,idfa_5082C7D4-76A6-4489-9C86-E65C3F794F7E,en
qa_YDqg1RrqN7R4pEz6_nQ,tapgerine,970_AP_12523,Install,1.4,61.6.114.31,3AB650D6-3A18-40B2-B14D-4EF7B06C0B70,1559308707,2019-05-31 21:18:27,1559308755,2019-05-31 21:19:15,1559308786,2cd6bcbc94a84847e9c25c3dbd258b4e,http://postback.tapgerine.net/?token=RIYouh9UbZojpbkYoqKL707uUy3buGie&transaction_id=2cd6bcbc94a84847e9c25c3dbd258b4e,idfa_3AB650D6-3A18-40B2-B14D-4EF7B06C0B70,en
qa_YDqg1RrqN7R4pEz6_nQ,tapgerine,970_AP_12523,Install,1.4,60.48.164.99,025BB261-0ABF-4EE1-8E93-56EEF464864D,1559307676,2019-05-31 21:01:16,1559307709,2019-05-31 21:01:49,1559307740,304f99030f5beb315659829d6acf7e30,http://postback.tapgerine.net/?token=RIYouh9UbZojpbkYoqKL707uUy3buGie&transaction_id=304f99030f5beb315659829d6acf7e30,idfa_025BB261-0ABF-4EE1-8E93-56EEF464864D,en
qa_YDqg1RrqN7R4pEz6_nQ,tapgerine,970_AP_12523,Install,1.4,1.32.66.84,655F6EEB-8F06-4E57-8C0A-2CC4F32FE9C4,1559308123,2019-05-31 21:08:43,1559308161,2019-05-31 21:09:21,1559308192,d18b44765f01cd68419154892a379358,http://postback.tapgerine.net/?token=RIYouh9UbZojpbkYoqKL707uUy3buGie&transaction_id=d18b44765f01cd68419154892a379358,idfa_655F6EEB-8F06-4E57-8C0A-2CC4F32FE9C4,en
qa_YDqg1RrqN7R4pEz6_nQ,tapgerine,970_AP_12523,Install,1.4,1.32.66.84,4198FB18-9E7A-4D2B-8BB4-8A30BCFB8923,1559307826,2019-05-31 21:03:46,1559307863,2019-05-31 21:04:23,1559307894,b890a74cdda60c258d86388a7b58d3e9,http://postback.tapgerine.net/?token=RIYouh9UbZojpbkYoqKL707uUy3buGie&transaction_id=b890a74cdda60c258d86388a7b58d3e9,idfa_4198FB18-9E7A-4D2B-8BB4-8A30BCFB8923,en
qa_YDqg1RrqN7R4pEz6_nQ,tapgerine,970_AP_12523,Install,1.4,115.133.35.64,03B1F46B-C702-4268-B02F-477A6448D1C7,1559308562,2019-05-31 21:16:02,1559308582,2019-05-31 21:16:22,1559308614,db230e4f768b5be960653a045dcab472,http://postback.tapgerine.net/?token=RIYouh9UbZojpbkYoqKL707uUy3buGie&transaction_id=db230e4f768b5be960653a045dcab472,idfa_03B1F46B-C702-4268-B02F-477A6448D1C7,en
qa_YDqg1RrqN7R4pEz6_nQ,tapgerine,970_AP_12523,Install,1.4,115.164.40.58,FFE41DB1-D6F6-4A39-A119-C06A6FC17AE0,1559307826,2019-05-31 21:03:46,1559307858,2019-05-31 21:04:18,1559307889,a07a19a66832c71e6e4a07d86709873d,http://postback.tapgerine.net/?token=RIYouh9UbZojpbkYoqKL707uUy3buGie&transaction_id=a07a19a66832c71e6e4a07d86709873d,idfa_FFE41DB1-D6F6-4A39-A119-C06A6FC17AE0,en
qa_YDqg1RrqN7R4pEz6_nQ,tapgerine,970_AP_12523,Install,1.4,202.190.149.99,B6704B0A-E839-431B-9329-FAF7926D872A,1559307962,2019-05-31 21:06:02,1559307986,2019-05-31 21:06:26,1559308017,5a72773b75de510fad168bce968a0b51,http://postback.tapgerine.net/?token=RIYouh9UbZojpbkYoqKL707uUy3buGie&transaction_id=5a72773b75de510fad168bce968a0b51,idfa_B6704B0A-E839-431B-9329-FAF7926D872A,en
qa_YDqg1RrqN7R4pEz6_nQ,tapgerine,970_AP_12523,Install,1.4,175.139.164.237,B2CE86B1-D263-41BA-A3D6-99351D2799A0,1559307230,2019-05-31 20:53:50,1559307264,2019-05-31 20:54:24,1559307294,ff2a6305a98bafa6bbfeaeae1151a3c8,http://postback.tapgerine.net/?token=RIYouh9UbZojpbkYoqKL707uUy3buGie&transaction_id=ff2a6305a98bafa6bbfeaeae1151a3c8,idfa_B2CE86B1-D263-41BA-A3D6-99351D2799A0,en
qa_YDqg1RrqN7R4pEz6_nQ,tapgerine,970_AP_12523,Install,1.4,121.120.83.250,999D0338-E207-4AFA-B2C0-582FB72187B4,1559310007,2019-05-31 21:40:07,1559310038,2019-05-31 21:40:38,1559310069,fa2e5d0a2bab447427f6a648251d9f1b,http://postback.tapgerine.net/?token=RIYouh9UbZojpbkYoqKL707uUy3buGie&transaction_id=fa2e5d0a2bab447427f6a648251d9f1b,idfa_999D0338-E207-4AFA-B2C0-582FB72187B4,en
qa_YDqg1RrqN7R4pEz6_nQ,tapgerine,970_AP_12523,Install,1.4,1.32.120.173,647F87DF-307C-4143-A914-107B060E27D9,1559310904,2019-05-31 21:55:04,1559310930,2019-05-31 21:55:30,1559310962,248e9fd0079a470a244a66e92a733a3e,http://postback.tapgerine.net/?token=RIYouh9UbZojpbkYoqKL707uUy3buGie&transaction_id=248e9fd0079a470a244a66e92a733a3e,idfa_647F87DF-307C-4143-A914-107B060E27D9,en
qa_YDqg1RrqN7R4pEz6_nQ,tapgerine,970_AP_12523,Install,1.4,175.145.84.76,2AA50BC5-20F5-4E00-82C2-CF6B35E2DB8B,1559310025,2019-05-31 21:40:25,1559310070,2019-05-31 21:41:10,1559310101,001b0e0b039e80246fd6c78e02b68709,http://postback.tapgerine.net/?token=RIYouh9UbZojpbkYoqKL707uUy3buGie&transaction_id=001b0e0b039e80246fd6c78e02b68709,idfa_2AA50BC5-20F5-4E00-82C2-CF6B35E2DB8B,en
qa_YDqg1RrqN7R4pEz6_nQ,tapgerine,970_AP_12523,Install,1.4,219.92.94.93,18ED977B-8A1C-4924-A226-C3FAB582CA55,1559309758,2019-05-31 21:35:58,1559309786,2019-05-31 21:36:26,1559309817,6eadd8e9bae70a00b3439511ca7e8545,http://postback.tapgerine.net/?token=RIYouh9UbZojpbkYoqKL707uUy3buGie&transaction_id=6eadd8e9bae70a00b3439511ca7e8545,idfa_18ED977B-8A1C-4924-A226-C3FAB582CA55,en
