cid,partner_id,channel_id,action_id,cpi,ip,idfa,click time,click datetime,install time,install datetime,postback time,click id,postback url,unique user id
H7z9OBfMQV-8YFegg6-fKQ,upsmobi,159_df85g14d356f14g386fg,Install,1.0,222.234.55.93,63306811-5cf6-1c4e-3c66-d66f0eb0681a,1558155989,2019-05-18 13:06:29,1558156243,2019-05-18 13:10:43,1558156274,7a6e2f317cac1e20a73eb452df920b50-1558156638731,http://postback.upsmobi.com/pb/lsr?transaction_id=7a6e2f317cac1e20a73eb452df920b50-1558156638731,idfa_63306811-5cf6-1c4e-3c66-d66f0eb0681a,%ED%95%9C%EA%B5%AD%EC%96%B4
H7z9OBfMQV-8YFegg6-fKQ,upsmobi,159_df85g14d356f14g386fg,Install,1.0,211.34.167.59,3420891c-c07c-40d9-874b-0b55fea48fa0,1558147489,2019-05-18 10:44:49,1558147713,2019-05-18 10:48:33,1558147743,6f1389a92d618b11063d331b108bb53d-1558147757501,http://postback.upsmobi.com/pb/lsr?transaction_id=6f1389a92d618b11063d331b108bb53d-1558147757501,idfa_3420891c-c07c-40d9-874b-0b55fea48fa0,%ED%95%9C%EA%B5%AD%EC%96%B4
H7z9OBfMQV-8YFegg6-fKQ,upsmobi,159_df85g14d356f14g386fg,Install,1.0,123.109.102.40,b0968e58-4ec2-4863-a672-c7c1b47f6b82,1558153836,2019-05-18 12:30:36,1558154095,2019-05-18 12:34:55,1558154158,88375e491935c3fc2500cdd34313de1a-1558154483641,http://postback.upsmobi.com/pb/lsr?transaction_id=88375e491935c3fc2500cdd34313de1a-1558154483641,idfa_b0968e58-4ec2-4863-a672-c7c1b47f6b82,%ED%95%9C%EA%B5%AD%EC%96%B4
H7z9OBfMQV-8YFegg6-fKQ,upsmobi,159_df85g14d356f14g386fg,Install,1.0,121.134.70.19,51ca5a31-7a29-ee3d-7f0c-1f6c77293d05,1558154130,2019-05-18 12:35:30,1558154352,2019-05-18 12:39:12,1558154383,66ef1eed3ba69084287e3e60a57dd8cd-1558154777244,http://postback.upsmobi.com/pb/lsr?transaction_id=66ef1eed3ba69084287e3e60a57dd8cd-1558154777244,idfa_51ca5a31-7a29-ee3d-7f0c-1f6c77293d05,%ED%95%9C%EA%B5%AD%EC%96%B4
H7z9OBfMQV-8YFegg6-fKQ,upsmobi,159_df85g14d356f14g386fg,Install,1.0,121.183.109.203,34bf2dd0-dc29-4c62-beef-7593264c1ed1,1558151459,2019-05-18 11:50:59,1558151634,2019-05-18 11:53:54,1558151670,be1a4e7fca2a3e40ed1027a839c1e0bc-1558152116394,http://postback.upsmobi.com/pb/lsr?transaction_id=be1a4e7fca2a3e40ed1027a839c1e0bc-1558152116394,idfa_34bf2dd0-dc29-4c62-beef-7593264c1ed1,%ED%95%9C%EA%B5%AD%EC%96%B4
H7z9OBfMQV-8YFegg6-fKQ,upsmobi,159_df85g14d356f14g386fg,Install,1.0,49.174.91.239,d2db63ce-37eb-4c77-81af-2cd9ac73f04c,1558156838,2019-05-18 13:20:38,1558157116,2019-05-18 13:25:16,1558157147,bb615b06c196120dbdee93e9cb2a76ff-1558157128272,http://postback.upsmobi.com/pb/lsr?transaction_id=bb615b06c196120dbdee93e9cb2a76ff-1558157128272,idfa_d2db63ce-37eb-4c77-81af-2cd9ac73f04c,%ED%95%9C%EA%B5%AD%EC%96%B4
H7z9OBfMQV-8YFegg6-fKQ,upsmobi,159_df85g14d356f14g386fg,Install,1.0,58.233.193.11,73c1ddb2-7c60-4f79-9cf1-861a50bd21fc,1558146811,2019-05-18 10:33:31,1558146958,2019-05-18 10:35:58,1558146988,69657f408527df4955512f60142ebc45-1558147106605,http://postback.upsmobi.com/pb/lsr?transaction_id=69657f408527df4955512f60142ebc45-1558147106605,idfa_73c1ddb2-7c60-4f79-9cf1-861a50bd21fc,%ED%95%9C%EA%B5%AD%EC%96%B4
H7z9OBfMQV-8YFegg6-fKQ,upsmobi,159_df85g14d356f14g386fg,Install,1.0,14.34.190.205,24dc27aa-e736-42d2-a03b-1c627cb20b01,1558153673,2019-05-18 12:27:53,1558153886,2019-05-18 12:31:26,1558153918,7f57291729b3871d7079c990e076400f-1558154323726,http://postback.upsmobi.com/pb/lsr?transaction_id=7f57291729b3871d7079c990e076400f-1558154323726,idfa_24dc27aa-e736-42d2-a03b-1c627cb20b01,%ED%95%9C%EA%B5%AD%EC%96%B4
H7z9OBfMQV-8YFegg6-fKQ,upsmobi,159_df85g14d356f14g386fg,Install,1.0,122.45.144.173,8cf764e8-877a-37b5-e806-b95a2b867377,1558156689,2019-05-18 13:18:09,1558156909,2019-05-18 13:21:49,1558156939,b6ae66403d09f071bb9c35db1b22f894-1558156972681,http://postback.upsmobi.com/pb/lsr?transaction_id=b6ae66403d09f071bb9c35db1b22f894-1558156972681,idfa_8cf764e8-877a-37b5-e806-b95a2b867377,%ED%95%9C%EA%B5%AD%EC%96%B4
H7z9OBfMQV-8YFegg6-fKQ,upsmobi,159_df85g14d356f14g386fg,Install,1.0,121.171.205.204,5b5e8068-8cfb-5654-5df0-9aaf125b8612,1558149245,2019-05-18 11:14:05,1558149437,2019-05-18 11:17:17,1558149469,2e2c264945a2c0e8bca840d6d3ba017a-1558149895874,http://postback.upsmobi.com/pb/lsr?transaction_id=2e2c264945a2c0e8bca840d6d3ba017a-1558149895874,idfa_5b5e8068-8cfb-5654-5df0-9aaf125b8612,%ED%95%9C%EA%B5%AD%EC%96%B4
H7z9OBfMQV-8YFegg6-fKQ,upsmobi,159_df85g14d356f14g386fg,Install,1.0,218.156.188.30,1e31aac6-cafd-4ce4-9d26-b59b149bd068,1558151971,2019-05-18 11:59:31,1558152199,2019-05-18 12:03:19,1558152229,f036c548554fa4d765f7e4d102558bc8-1558152266937,http://postback.upsmobi.com/pb/lsr?transaction_id=f036c548554fa4d765f7e4d102558bc8-1558152266937,idfa_1e31aac6-cafd-4ce4-9d26-b59b149bd068,%ED%95%9C%EA%B5%AD%EC%96%B4
H7z9OBfMQV-8YFegg6-fKQ,upsmobi,159_df85g14d356f14g386fg,Install,1.0,211.250.3.95,4ae35e5f-dea6-4bf9-b777-c72c0679d4fa,1558155031,2019-05-18 12:50:31,1558155294,2019-05-18 12:54:54,1558155415,af9e9903453504223f3f9154aae5aa0a-1558155675937,http://postback.upsmobi.com/pb/lsr?transaction_id=af9e9903453504223f3f9154aae5aa0a-1558155675937,idfa_4ae35e5f-dea6-4bf9-b777-c72c0679d4fa,%ED%95%9C%EA%B5%AD%EC%96%B4
H7z9OBfMQV-8YFegg6-fKQ,upsmobi,159_df85g14d356f14g386fg,Install,1.0,49.170.149.233,b347d6d1-dbf4-4e08-b365-67cb7c9fa20b,1558148638,2019-05-18 11:03:58,1558148862,2019-05-18 11:07:42,1558148892,35c4425b56f8bb69d636f0464e113840-1558148933883,http://postback.upsmobi.com/pb/lsr?transaction_id=35c4425b56f8bb69d636f0464e113840-1558148933883,idfa_b347d6d1-dbf4-4e08-b365-67cb7c9fa20b,%ED%95%9C%EA%B5%AD%EC%96%B4
H7z9OBfMQV-8YFegg6-fKQ,upsmobi,159_df85g14d356f14g386fg,Install,1.0,203.228.12.248,7e546000-bef3-4b08-ad0e-50b98557367b,1558156474,2019-05-18 13:14:34,1558156727,2019-05-18 13:18:47,1558156759,4ce0bc863b5aa3d9f5fb74349ef2646a-1558156762242,http://postback.upsmobi.com/pb/lsr?transaction_id=4ce0bc863b5aa3d9f5fb74349ef2646a-1558156762242,idfa_7e546000-bef3-4b08-ad0e-50b98557367b,%ED%95%9C%EA%B5%AD%EC%96%B4
H7z9OBfMQV-8YFegg6-fKQ,upsmobi,159_df85g14d356f14g386fg,Install,1.0,122.252.66.118,40765f24-4c12-4084-a6f5-2fab9e41bd71,1558147932,2019-05-18 10:52:12,1558148119,2019-05-18 10:55:19,1558148150,d235472646f03d4e335b4057694b73f7-1558148221263,http://postback.upsmobi.com/pb/lsr?transaction_id=d235472646f03d4e335b4057694b73f7-1558148221263,idfa_40765f24-4c12-4084-a6f5-2fab9e41bd71,%ED%95%9C%EA%B5%AD%EC%96%B4
H7z9OBfMQV-8YFegg6-fKQ,upsmobi,159_df85g14d356f14g386fg,Install,1.0,116.44.99.24,604f4e08-368f-4cb6-88a0-40f26e5d6600,1558149416,2019-05-18 11:16:56,1558149714,2019-05-18 11:21:54,1558149745,187582ebf61a803fee07d1b344b840bc-1558150071480,http://postback.upsmobi.com/pb/lsr?transaction_id=187582ebf61a803fee07d1b344b840bc-1558150071480,idfa_604f4e08-368f-4cb6-88a0-40f26e5d6600,%ED%95%9C%EA%B5%AD%EC%96%B4
H7z9OBfMQV-8YFegg6-fKQ,upsmobi,159_df85g14d356f14g386fg,Install,1.0,210.204.142.114,b18275b6-cff7-4333-8166-64811cb8955d,1558153926,2019-05-18 12:32:06,1558154181,2019-05-18 12:36:21,1558154212,38f9e9bb77e83717089eb6e5a5841ab4-1558154218431,http://postback.upsmobi.com/pb/lsr?transaction_id=38f9e9bb77e83717089eb6e5a5841ab4-1558154218431,idfa_b18275b6-cff7-4333-8166-64811cb8955d,%ED%95%9C%EA%B5%AD%EC%96%B4
H7z9OBfMQV-8YFegg6-fKQ,upsmobi,159_df85g14d356f14g386fg,Install,1.0,219.249.61.123,7efd72e5-2941-4462-b930-ecc33bd669d2,1558149950,2019-05-18 11:25:50,1558150152,2019-05-18 11:29:12,1558150182,ebbb411f7333878770f4df0ac7346f79-1558150573780,http://postback.upsmobi.com/pb/lsr?transaction_id=ebbb411f7333878770f4df0ac7346f79-1558150573780,idfa_7efd72e5-2941-4462-b930-ecc33bd669d2,%ED%95%9C%EA%B5%AD%EC%96%B4
H7z9OBfMQV-8YFegg6-fKQ,upsmobi,159_df85g14d356f14g386fg,Install,1.0,218.48.33.106,198c291a-d9d1-4849-9c90-eb21fee0ca28,1558147327,2019-05-18 10:42:07,1558147558,2019-05-18 10:45:58,1558147589,2c1eb3cc708ace5b82b5866f6cfc941b-1558147979083,http://postback.upsmobi.com/pb/lsr?transaction_id=2c1eb3cc708ace5b82b5866f6cfc941b-1558147979083,idfa_198c291a-d9d1-4849-9c90-eb21fee0ca28,%ED%95%9C%EA%B5%AD%EC%96%B4
H7z9OBfMQV-8YFegg6-fKQ,upsmobi,159_df85g14d356f14g386fg,Install,1.0,61.74.171.18,ea825b54-1ba9-4204-bdf6-c9cb4b22eabf,1558147467,2019-05-18 10:44:27,1558147643,2019-05-18 10:47:23,1558147708,78d740fa0e9fce4271deac582b9d510d-1558147756647,http://postback.upsmobi.com/pb/lsr?transaction_id=78d740fa0e9fce4271deac582b9d510d-1558147756647,idfa_ea825b54-1ba9-4204-bdf6-c9cb4b22eabf,%ED%95%9C%EA%B5%AD%EC%96%B4
H7z9OBfMQV-8YFegg6-fKQ,upsmobi,159_df85g14d356f14g386fg,Install,1.0,59.25.210.236,f40f308c-80b5-4564-80ee-ad950fe3ee81,1558147805,2019-05-18 10:50:05,1558148016,2019-05-18 10:53:36,1558148048,c2589c99d4761cfbca519c7268b131eb-1558148080690,http://postback.upsmobi.com/pb/lsr?transaction_id=c2589c99d4761cfbca519c7268b131eb-1558148080690,idfa_f40f308c-80b5-4564-80ee-ad950fe3ee81,%ED%95%9C%EA%B5%AD%EC%96%B4
H7z9OBfMQV-8YFegg6-fKQ,upsmobi,159_df85g14d356f14g386fg,Install,1.0,121.146.35.76,80643a53-45fe-20c3-c473-4d9e6b393947,1558149118,2019-05-18 11:11:58,1558149326,2019-05-18 11:15:26,1558149358,4b9c72dcd8bf3e1a7df454ffe22ddaa6-1558149768986,http://postback.upsmobi.com/pb/lsr?transaction_id=4b9c72dcd8bf3e1a7df454ffe22ddaa6-1558149768986,idfa_80643a53-45fe-20c3-c473-4d9e6b393947,%ED%95%9C%EA%B5%AD%EC%96%B4
H7z9OBfMQV-8YFegg6-fKQ,upsmobi,159_df85g14d356f14g386fg,Install,1.0,125.132.19.5,221c1e67-c5bb-4c67-971c-c2df270b0169,1558151204,2019-05-18 11:46:44,1558151379,2019-05-18 11:49:39,1558151410,21a9e27f8c3c7f19b77e3c927df34627-1558151858955,http://postback.upsmobi.com/pb/lsr?transaction_id=21a9e27f8c3c7f19b77e3c927df34627-1558151858955,idfa_221c1e67-c5bb-4c67-971c-c2df270b0169,%ED%95%9C%EA%B5%AD%EC%96%B4
H7z9OBfMQV-8YFegg6-fKQ,upsmobi,159_df85g14d356f14g386fg,Install,1.0,112.150.48.44,88974b07-b7fd-f984-a212-245b55a42a6c,1558147038,2019-05-18 10:37:18,1558147298,2019-05-18 10:41:38,1558147329,42545ad7241086e981552b07f2278df6-1558147329590,http://postback.upsmobi.com/pb/lsr?transaction_id=42545ad7241086e981552b07f2278df6-1558147329590,idfa_88974b07-b7fd-f984-a212-245b55a42a6c,%ED%95%9C%EA%B5%AD%EC%96%B4
H7z9OBfMQV-8YFegg6-fKQ,upsmobi,159_df85g14d356f14g386fg,Install,1.0,211.250.43.56,7d7f3e09-6bc8-197b-11e9-c4aff6033676,1558146637,2019-05-18 10:30:37,1558146824,2019-05-18 10:33:44,1558146854,21dd74b0767321367778c912e8bed9a7-1558146904870,http://postback.upsmobi.com/pb/lsr?transaction_id=21dd74b0767321367778c912e8bed9a7-1558146904870,idfa_7d7f3e09-6bc8-197b-11e9-c4aff6033676,%ED%95%9C%EA%B5%AD%EC%96%B4
