cid,partner_id,channel_id,action_id,cpi,ip,idfa,click time,click datetime,install time,install datetime,postback time,click id,postback url,unique user id
H7z9OBfMQV-8YFegg6-fKQ,upsmobi,159_j4wajwkh5fumu5wm7e3j,Install,1.1,1.241.73.29,6e4748dd-dda8-4fad-9102-d10ee01cc3f2,1559280313,2019-05-31 13:25:13,1559280477,2019-05-31 13:27:57,1559280508,28b32029e6c737cab2e0ebd629d8fa50-1559280914049,http://postback.upsmobi.com/pb/lsr?transaction_id=28b32029e6c737cab2e0ebd629d8fa50-1559280914049,idfa_6e4748dd-dda8-4fad-9102-d10ee01cc3f2,%ED%95%9C%EA%B5%AD%EC%96%B4
H7z9OBfMQV-8YFegg6-fKQ,upsmobi,159_j4wajwkh5fumu5wm7e3j,Install,1.1,39.113.89.237,6cbd7ed4-10e6-4464-a6cb-5673e1464c43,1559286989,2019-05-31 15:16:29,1559287170,2019-05-31 15:19:30,1559287201,c1a2364bba8541157d3c93c984c7e7c2-1559287290236,http://postback.upsmobi.com/pb/lsr?transaction_id=c1a2364bba8541157d3c93c984c7e7c2-1559287290236,idfa_6cbd7ed4-10e6-4464-a6cb-5673e1464c43,%ED%95%9C%EA%B5%AD%EC%96%B4
H7z9OBfMQV-8YFegg6-fKQ,upsmobi,159_j4wajwkh5fumu5wm7e3j,Install,1.1,220.121.65.204,a175aec2-d9f6-4de1-b09d-c66fe7b33a06,1559281488,2019-05-31 13:44:48,1559281655,2019-05-31 13:47:35,1559281686,7932489d8e5a472ff254e74a3638c33a-1559281790313,http://postback.upsmobi.com/pb/lsr?transaction_id=7932489d8e5a472ff254e74a3638c33a-1559281790313,idfa_a175aec2-d9f6-4de1-b09d-c66fe7b33a06,%ED%95%9C%EA%B5%AD%EC%96%B4
H7z9OBfMQV-8YFegg6-fKQ,upsmobi,159_j4wajwkh5fumu5wm7e3j,Install,1.1,1.217.40.74,ba02cde5-53ba-477a-8741-fb9af7f93805,1559283705,2019-05-31 14:21:45,1559283921,2019-05-31 14:25:21,1559283953,1df6537641ca4b3202186dfefc0617ce-1559284364776,http://postback.upsmobi.com/pb/lsr?transaction_id=1df6537641ca4b3202186dfefc0617ce-1559284364776,idfa_ba02cde5-53ba-477a-8741-fb9af7f93805,%ED%95%9C%EA%B5%AD%EC%96%B4
H7z9OBfMQV-8YFegg6-fKQ,upsmobi,159_j4wajwkh5fumu5wm7e3j,Install,1.1,222.110.8.30,a52d3570-6d18-4a25-9bdd-73bdcd3261dc,1559282269,2019-05-31 13:57:49,1559282509,2019-05-31 14:01:49,1559282540,f466fd9de39995fe43ec5594e49af666-1559282928828,http://postback.upsmobi.com/pb/lsr?transaction_id=f466fd9de39995fe43ec5594e49af666-1559282928828,idfa_a52d3570-6d18-4a25-9bdd-73bdcd3261dc,%ED%95%9C%EA%B5%AD%EC%96%B4
H7z9OBfMQV-8YFegg6-fKQ,upsmobi,159_j4wajwkh5fumu5wm7e3j,Install,1.1,175.223.39.77,bbd097d9-994b-47ee-813b-1c0569035022,1559281884,2019-05-31 13:51:24,1559282072,2019-05-31 13:54:32,1559282103,befe5ad662728e871b3e8c6bc9482534-1559282183259,http://postback.upsmobi.com/pb/lsr?transaction_id=befe5ad662728e871b3e8c6bc9482534-1559282183259,idfa_bbd097d9-994b-47ee-813b-1c0569035022,%ED%95%9C%EA%B5%AD%EC%96%B4
H7z9OBfMQV-8YFegg6-fKQ,upsmobi,159_j4wajwkh5fumu5wm7e3j,Install,1.1,119.65.40.198,7da6add0-a152-4086-8b10-4d4241b0f6cd,1559288797,2019-05-31 15:46:37,1559289003,2019-05-31 15:50:03,1559289034,411798219a8af6536c136f8410beca7b-1559289100351,http://postback.upsmobi.com/pb/lsr?transaction_id=411798219a8af6536c136f8410beca7b-1559289100351,idfa_7da6add0-a152-4086-8b10-4d4241b0f6cd,%ED%95%9C%EA%B5%AD%EC%96%B4
H7z9OBfMQV-8YFegg6-fKQ,upsmobi,159_j4wajwkh5fumu5wm7e3j,Install,1.1,49.173.43.26,d7ee56a2-d564-4502-8995-c73599beed4a,1559281232,2019-05-31 13:40:32,1559281469,2019-05-31 13:44:29,1559281499,ac1adb542135d533cbba82d7ca258ba7-1559281532719,http://postback.upsmobi.com/pb/lsr?transaction_id=ac1adb542135d533cbba82d7ca258ba7-1559281532719,idfa_d7ee56a2-d564-4502-8995-c73599beed4a,%ED%95%9C%EA%B5%AD%EC%96%B4
H7z9OBfMQV-8YFegg6-fKQ,upsmobi,159_j4wajwkh5fumu5wm7e3j,Install,1.1,58.75.19.196,186d80a9-72aa-4959-ba0d-cc538d0ddd99,1559283052,2019-05-31 14:10:52,1559283258,2019-05-31 14:14:18,1559283288,b6a25eae8cb164a86f87f9565d6bdaa8-1559283711133,http://postback.upsmobi.com/pb/lsr?transaction_id=b6a25eae8cb164a86f87f9565d6bdaa8-1559283711133,idfa_186d80a9-72aa-4959-ba0d-cc538d0ddd99,%ED%95%9C%EA%B5%AD%EC%96%B4
H7z9OBfMQV-8YFegg6-fKQ,upsmobi,159_j4wajwkh5fumu5wm7e3j,Install,1.1,221.164.123.97,2955a49a-866e-4c31-81fc-0bfea1ef3cd9,1559282276,2019-05-31 13:57:56,1559282498,2019-05-31 14:01:38,1559282530,ed13b0107f00f76c93b99231963cc8e8-1559282572001,http://postback.upsmobi.com/pb/lsr?transaction_id=ed13b0107f00f76c93b99231963cc8e8-1559282572001,idfa_2955a49a-866e-4c31-81fc-0bfea1ef3cd9,%ED%95%9C%EA%B5%AD%EC%96%B4
H7z9OBfMQV-8YFegg6-fKQ,upsmobi,159_j4wajwkh5fumu5wm7e3j,Install,1.1,123.214.186.210,babadaec-0afa-429d-8a4a-5bd576805c7d,1559286713,2019-05-31 15:11:53,1559286896,2019-05-31 15:14:56,1559286928,1a22f5f5f266dd819a1feccb856b0822-1559287371911,http://postback.upsmobi.com/pb/lsr?transaction_id=1a22f5f5f266dd819a1feccb856b0822-1559287371911,idfa_babadaec-0afa-429d-8a4a-5bd576805c7d,%ED%95%9C%EA%B5%AD%EC%96%B4
H7z9OBfMQV-8YFegg6-fKQ,upsmobi,159_j4wajwkh5fumu5wm7e3j,Install,1.1,119.199.248.122,2c6e7c15-b210-4fdb-b3a6-e1c4daa65739,1559278904,2019-05-31 13:01:44,1559279130,2019-05-31 13:05:30,1559279161,00ddb6bc45c5ea670cf026943b3f89de-1559279202943,http://postback.upsmobi.com/pb/lsr?transaction_id=00ddb6bc45c5ea670cf026943b3f89de-1559279202943,idfa_2c6e7c15-b210-4fdb-b3a6-e1c4daa65739,%ED%95%9C%EA%B5%AD%EC%96%B4
H7z9OBfMQV-8YFegg6-fKQ,upsmobi,159_j4wajwkh5fumu5wm7e3j,Install,1.1,211.213.204.175,fe59574d-1873-4e75-8806-0d0b765554a6,1559284089,2019-05-31 14:28:09,1559284270,2019-05-31 14:31:10,1559284301,5d1fd552db42af5765c6a702bf44beed-1559284749430,http://postback.upsmobi.com/pb/lsr?transaction_id=5d1fd552db42af5765c6a702bf44beed-1559284749430,idfa_fe59574d-1873-4e75-8806-0d0b765554a6,%ED%95%9C%EA%B5%AD%EC%96%B4
H7z9OBfMQV-8YFegg6-fKQ,upsmobi,159_j4wajwkh5fumu5wm7e3j,Install,1.1,1.246.238.82,ea010641-f1df-434e-b708-8bd188bb0860,1559284219,2019-05-31 14:30:19,1559284408,2019-05-31 14:33:28,1559284438,8ca9f35d74ac4430d7058efe2641f148-1559284521676,http://postback.upsmobi.com/pb/lsr?transaction_id=8ca9f35d74ac4430d7058efe2641f148-1559284521676,idfa_ea010641-f1df-434e-b708-8bd188bb0860,%ED%95%9C%EA%B5%AD%EC%96%B4
H7z9OBfMQV-8YFegg6-fKQ,upsmobi,159_j4wajwkh5fumu5wm7e3j,Install,1.1,211.202.32.229,eeaf304f-3e89-4323-8345-4faf02c4532a,1559290302,2019-05-31 16:11:42,1559290513,2019-05-31 16:15:13,1559290547,87a2efe3d2d145c66542a0566cac0c68-1559290596927,http://postback.upsmobi.com/pb/lsr?transaction_id=87a2efe3d2d145c66542a0566cac0c68-1559290596927,idfa_eeaf304f-3e89-4323-8345-4faf02c4532a,%ED%95%9C%EA%B5%AD%EC%96%B4
H7z9OBfMQV-8YFegg6-fKQ,upsmobi,159_j4wajwkh5fumu5wm7e3j,Install,1.1,121.148.178.222,960ce3b3-c605-4600-8df3-e825e4e3712d,1559289208,2019-05-31 15:53:28,1559289376,2019-05-31 15:56:16,1559289406,b38833fb0a87072e92da3ce70d909b9b-1559289492898,http://postback.upsmobi.com/pb/lsr?transaction_id=b38833fb0a87072e92da3ce70d909b9b-1559289492898,idfa_960ce3b3-c605-4600-8df3-e825e4e3712d,%ED%95%9C%EA%B5%AD%EC%96%B4
H7z9OBfMQV-8YFegg6-fKQ,upsmobi,159_j4wajwkh5fumu5wm7e3j,Install,1.1,1.222.23.210,91f3bad2-3d16-45cd-beca-ebdcab4aef8e,1559281823,2019-05-31 13:50:23,1559282030,2019-05-31 13:53:50,1559282061,1a3a42e6a807b1cbbadd8faa38c87ebd-1559282096135,http://postback.upsmobi.com/pb/lsr?transaction_id=1a3a42e6a807b1cbbadd8faa38c87ebd-1559282096135,idfa_91f3bad2-3d16-45cd-beca-ebdcab4aef8e,%ED%95%9C%EA%B5%AD%EC%96%B4
H7z9OBfMQV-8YFegg6-fKQ,upsmobi,159_j4wajwkh5fumu5wm7e3j,Install,1.1,121.174.146.153,80847996-99d0-4103-b752-569a08679e76,1559288541,2019-05-31 15:42:21,1559288733,2019-05-31 15:45:33,1559288764,e06588e5ee809147de9070c85030ffdf-1559289200085,http://postback.upsmobi.com/pb/lsr?transaction_id=e06588e5ee809147de9070c85030ffdf-1559289200085,idfa_80847996-99d0-4103-b752-569a08679e76,%ED%95%9C%EA%B5%AD%EC%96%B4
H7z9OBfMQV-8YFegg6-fKQ,upsmobi,159_j4wajwkh5fumu5wm7e3j,Install,1.1,218.237.249.88,86213ae1-f96f-4edd-b40d-8d9810842b6d,1559281876,2019-05-31 13:51:16,1559282109,2019-05-31 13:55:09,1559282139,9851a3a90be7099d2f3652597b47c414-1559282179256,http://postback.upsmobi.com/pb/lsr?transaction_id=9851a3a90be7099d2f3652597b47c414-1559282179256,idfa_86213ae1-f96f-4edd-b40d-8d9810842b6d,%ED%95%9C%EA%B5%AD%EC%96%B4
H7z9OBfMQV-8YFegg6-fKQ,upsmobi,159_j4wajwkh5fumu5wm7e3j,Install,1.1,220.78.201.229,76031ace-57d0-44bd-8fc5-9d60d0b49e6a,1559282551,2019-05-31 14:02:31,1559282734,2019-05-31 14:05:34,1559282765,a25ac4caf69b79d1b79a25aa9737f03b-1559283207495,http://postback.upsmobi.com/pb/lsr?transaction_id=a25ac4caf69b79d1b79a25aa9737f03b-1559283207495,idfa_76031ace-57d0-44bd-8fc5-9d60d0b49e6a,%ED%95%9C%EA%B5%AD%EC%96%B4
H7z9OBfMQV-8YFegg6-fKQ,upsmobi,159_j4wajwkh5fumu5wm7e3j,Install,1.1,115.88.95.29,daac679f-b36c-4d69-b2bf-1c24f2ff24a7,1559281099,2019-05-31 13:38:19,1559281291,2019-05-31 13:41:31,1559281322,412cd6a80d2cfe4505483185e3f10447-1559281758772,http://postback.upsmobi.com/pb/lsr?transaction_id=412cd6a80d2cfe4505483185e3f10447-1559281758772,idfa_daac679f-b36c-4d69-b2bf-1c24f2ff24a7,%ED%95%9C%EA%B5%AD%EC%96%B4
H7z9OBfMQV-8YFegg6-fKQ,upsmobi,159_j4wajwkh5fumu5wm7e3j,Install,1.1,112.133.111.65,a661aa60-8e19-402e-83d4-5d9acd0ebba1,1559290001,2019-05-31 16:06:41,1559290181,2019-05-31 16:09:41,1559290212,624782e3de73e1dcae138fd3ac0b6d08-1559290643096,http://postback.upsmobi.com/pb/lsr?transaction_id=624782e3de73e1dcae138fd3ac0b6d08-1559290643096,idfa_a661aa60-8e19-402e-83d4-5d9acd0ebba1,%ED%95%9C%EA%B5%AD%EC%96%B4
