cid,partner_id,channel_id,action_id,cpi,ip,idfa,click time,click datetime,install time,install datetime,postback time,click id,postback url,unique user id
6WQze695S_GsZo-XUVQ1Hg,upsmobi,151_11232,Install,2.8,220.106.15.45,C3EAF344-6553-420F-9A09-B6B24DB9947E,1559077404,2019-05-29 05:03:24,1559077658,2019-05-29 05:07:38,1559077689,183dd3c68fffbde0632a0efe89d66871-1559077698812,http://postback.upsmobi.com/pb/lsr?transaction_id=183dd3c68fffbde0632a0efe89d66871-1559077698812,idfa_C3EAF344-6553-420F-9A09-B6B24DB9947E,ja-JP
6WQze695S_GsZo-XUVQ1Hg,upsmobi,151_11232,Install,2.8,113.32.212.27,762F1642-B1FD-417F-B6C8-44A05FD0618A,1559077400,2019-05-29 05:03:20,1559077608,2019-05-29 05:06:48,1559077639,a5464d2bc990ffe5af176711851b4769-1559077695117,http://postback.upsmobi.com/pb/lsr?transaction_id=a5464d2bc990ffe5af176711851b4769-1559077695117,idfa_762F1642-B1FD-417F-B6C8-44A05FD0618A,ja-JP
6WQze695S_GsZo-XUVQ1Hg,upsmobi,151_11232,Install,2.8,153.207.239.114,1F937176-82D6-4C89-9672-66DF59EC5B2F,1559077911,2019-05-29 05:11:51,1559078043,2019-05-29 05:14:03,1559078073,a29eddbb6e4b8ff22e6e6c9c77380faa-1559078199267,http://postback.upsmobi.com/pb/lsr?transaction_id=a29eddbb6e4b8ff22e6e6c9c77380faa-1559078199267,idfa_1F937176-82D6-4C89-9672-66DF59EC5B2F,ja-JP
6WQze695S_GsZo-XUVQ1Hg,upsmobi,151_11232,Install,2.8,222.5.180.62,87A15F8E-1CBE-46C0-974A-FBC9E935DA79,1559060553,2019-05-29 00:22:33,1559061742,2019-05-29 00:42:22,1559061773,b62c63103acfe252269cdd75903253a9-1559060858165,http://postback.upsmobi.com/pb/lsr?transaction_id=b62c63103acfe252269cdd75903253a9-1559060858165,idfa_87A15F8E-1CBE-46C0-974A-FBC9E935DA79,ja-JP
6WQze695S_GsZo-XUVQ1Hg,upsmobi,151_11232,Install,2.8,118.152.161.79,86DACBAA-335E-4924-94AD-48BFC1A6CAAB,1559077789,2019-05-29 05:09:49,1559078077,2019-05-29 05:14:37,1559078108,158eb7996ebe698ba5001c67202f62bb-1559078083244,http://postback.upsmobi.com/pb/lsr?transaction_id=158eb7996ebe698ba5001c67202f62bb-1559078083244,idfa_86DACBAA-335E-4924-94AD-48BFC1A6CAAB,ja-JP
6WQze695S_GsZo-XUVQ1Hg,upsmobi,151_11232,Install,2.8,121.83.19.184,7FF99D77-6791-4417-85C0-C70B73B4352E,1559077786,2019-05-29 05:09:46,1559078012,2019-05-29 05:13:32,1559078043,e27e9c1fad32a6db7f97f7837fdfc443-1559078439332,http://postback.upsmobi.com/pb/lsr?transaction_id=e27e9c1fad32a6db7f97f7837fdfc443-1559078439332,idfa_7FF99D77-6791-4417-85C0-C70B73B4352E,ja-JP
6WQze695S_GsZo-XUVQ1Hg,upsmobi,151_11232,Install,2.8,118.106.178.79,22E0CB14-70FF-4C4D-A85F-4B946335EC28,1559077744,2019-05-29 05:09:04,1559078022,2019-05-29 05:13:42,1559078053,a55d51b258bdd4becec78ca6d2d1fe53-1559078039679,http://postback.upsmobi.com/pb/lsr?transaction_id=a55d51b258bdd4becec78ca6d2d1fe53-1559078039679,idfa_22E0CB14-70FF-4C4D-A85F-4B946335EC28,ja-JP
6WQze695S_GsZo-XUVQ1Hg,upsmobi,151_11232,Install,2.8,60.95.4.59,C7DC591E-5CAF-42B4-ACD3-6F31D68B6C16,1559071171,2019-05-29 03:19:31,1559071507,2019-05-29 03:25:07,1559071538,e57f4b5a9e8b9dbf66ad6956e333462a-1559071465198,http://postback.upsmobi.com/pb/lsr?transaction_id=e57f4b5a9e8b9dbf66ad6956e333462a-1559071465198,idfa_C7DC591E-5CAF-42B4-ACD3-6F31D68B6C16,ja-JP
6WQze695S_GsZo-XUVQ1Hg,upsmobi,151_11232,Install,2.8,60.43.4.196,423DA5AA-A610-4A68-9BFB-1FDAA0079C1E,1559072489,2019-05-29 03:41:29,1559072702,2019-05-29 03:45:02,1559072733,039a16b10f1a5b9fa7d647a16d7c299a-1559072782164,http://postback.upsmobi.com/pb/lsr?transaction_id=039a16b10f1a5b9fa7d647a16d7c299a-1559072782164,idfa_423DA5AA-A610-4A68-9BFB-1FDAA0079C1E,ja-JP
6WQze695S_GsZo-XUVQ1Hg,upsmobi,151_11232,Install,2.8,106.158.91.87,485E8E7F-A283-4C46-BF8D-FD3D8DBA7B2F,1559071165,2019-05-29 03:19:25,1559071450,2019-05-29 03:24:10,1559071482,e46036475e3676bbaef121a4c7d8f913-1559071459981,http://postback.upsmobi.com/pb/lsr?transaction_id=e46036475e3676bbaef121a4c7d8f913-1559071459981,idfa_485E8E7F-A283-4C46-BF8D-FD3D8DBA7B2F,ja-JP
6WQze695S_GsZo-XUVQ1Hg,upsmobi,151_11232,Install,2.8,114.171.183.5,7814DCD1-FC4F-43E9-887D-CFF225C1267E,1559077779,2019-05-29 05:09:39,1559077975,2019-05-29 05:12:55,1559078006,5482183121e97d4f6078069ecf8b63d4-1559078434170,http://postback.upsmobi.com/pb/lsr?transaction_id=5482183121e97d4f6078069ecf8b63d4-1559078434170,idfa_7814DCD1-FC4F-43E9-887D-CFF225C1267E,ja-JP
6WQze695S_GsZo-XUVQ1Hg,upsmobi,151_11232,Install,2.8,121.82.122.26,9410AD63-F4E5-4F09-B28F-664E8BE11F78,1559076513,2019-05-29 04:48:33,1559076660,2019-05-29 04:51:00,1559076691,385ecf6eee5160fa59254f4701b432ed-1559076806985,http://postback.upsmobi.com/pb/lsr?transaction_id=385ecf6eee5160fa59254f4701b432ed-1559076806985,idfa_9410AD63-F4E5-4F09-B28F-664E8BE11F78,ja-JP
6WQze695S_GsZo-XUVQ1Hg,upsmobi,151_11232,Install,2.8,131.147.96.194,6226F539-B4F9-46D6-A72C-EA167021EE9A,1559077605,2019-05-29 05:06:45,1559077797,2019-05-29 05:09:57,1559077828,40e8850a546a0fff927de45c8d46b598-1559077899664,http://postback.upsmobi.com/pb/lsr?transaction_id=40e8850a546a0fff927de45c8d46b598-1559077899664,idfa_6226F539-B4F9-46D6-A72C-EA167021EE9A,ja-JP
6WQze695S_GsZo-XUVQ1Hg,upsmobi,151_11232,Install,2.8,106.154.122.235,985D16E0-9FEF-4CFA-BF6C-979E185C8E11,1559077730,2019-05-29 05:08:50,1559077899,2019-05-29 05:11:39,1559077930,dadbc41bf3be3e448a80e6faaee0c31f-1559078381423,http://postback.upsmobi.com/pb/lsr?transaction_id=dadbc41bf3be3e448a80e6faaee0c31f-1559078381423,idfa_985D16E0-9FEF-4CFA-BF6C-979E185C8E11,ja-JP
6WQze695S_GsZo-XUVQ1Hg,upsmobi,151_11232,Install,2.8,210.251.99.112,3EA8C69D-C08D-4C73-9DDB-5D5BD5D5A4A8,1559071262,2019-05-29 03:21:02,1559071511,2019-05-29 03:25:11,1559071542,8fe0698a9bb3b0bbf8cfdc177a0b1bd8-1559071915495,http://postback.upsmobi.com/pb/lsr?transaction_id=8fe0698a9bb3b0bbf8cfdc177a0b1bd8-1559071915495,idfa_3EA8C69D-C08D-4C73-9DDB-5D5BD5D5A4A8,ja-JP
6WQze695S_GsZo-XUVQ1Hg,upsmobi,151_11232,Install,2.8,59.129.249.46,98AA102D-14C0-4E7F-BB0D-600D3FA053A5,1559072010,2019-05-29 03:33:30,1559072161,2019-05-29 03:36:01,1559072192,f9f7dc5047ec209b88252e2cdd89cae8-1559072657391,http://postback.upsmobi.com/pb/lsr?transaction_id=f9f7dc5047ec209b88252e2cdd89cae8-1559072657391,idfa_98AA102D-14C0-4E7F-BB0D-600D3FA053A5,ja-JP
6WQze695S_GsZo-XUVQ1Hg,upsmobi,151_11232,Install,2.8,220.156.25.204,B84C2B98-55FC-4A8E-A56F-0EC7DDD774F3,1559077781,2019-05-29 05:09:41,1559078050,2019-05-29 05:14:10,1559078081,f7f7fd63a7871c86012269dedd700028-1559078434994,http://postback.upsmobi.com/pb/lsr?transaction_id=f7f7fd63a7871c86012269dedd700028-1559078434994,idfa_B84C2B98-55FC-4A8E-A56F-0EC7DDD774F3,ja-JP
6WQze695S_GsZo-XUVQ1Hg,upsmobi,151_11232,Install,2.8,219.100.239.108,219B6E5D-4FDE-4E22-8C5D-02C4FD36E285,1559077400,2019-05-29 05:03:20,1559077674,2019-05-29 05:07:54,1559077705,37baff08c285b264da1296c73539b497-1559078053474,http://postback.upsmobi.com/pb/lsr?transaction_id=37baff08c285b264da1296c73539b497-1559078053474,idfa_219B6E5D-4FDE-4E22-8C5D-02C4FD36E285,ja-JP
6WQze695S_GsZo-XUVQ1Hg,upsmobi,151_11232,Install,2.8,123.198.146.28,3C0B91CF-6246-45B7-94E1-C3F2EBF05AC3,1559071162,2019-05-29 03:19:22,1559071427,2019-05-29 03:23:47,1559071458,a512c21474ee66b2aca7d07084ed16d7-1559071456773,http://postback.upsmobi.com/pb/lsr?transaction_id=a512c21474ee66b2aca7d07084ed16d7-1559071456773,idfa_3C0B91CF-6246-45B7-94E1-C3F2EBF05AC3,ja-JP
6WQze695S_GsZo-XUVQ1Hg,upsmobi,151_11232,Install,2.8,110.134.238.215,4858C3C9-E045-47B0-B01E-2C9C37DD5DE4,1559071174,2019-05-29 03:19:34,1559071384,2019-05-29 03:23:04,1559071415,5db05b12d0374c509fc2a9ac754bc4bd-1559071469293,http://postback.upsmobi.com/pb/lsr?transaction_id=5db05b12d0374c509fc2a9ac754bc4bd-1559071469293,idfa_4858C3C9-E045-47B0-B01E-2C9C37DD5DE4,ja-JP
6WQze695S_GsZo-XUVQ1Hg,upsmobi,151_11232,Install,2.8,60.119.223.159,7683458A-FBC9-44BB-9A68-F06923695494,1559076538,2019-05-29 04:48:58,1559076751,2019-05-29 04:52:31,1559076782,2aaa060df869403b417f3d61cf9836e3-1559076831846,http://postback.upsmobi.com/pb/lsr?transaction_id=2aaa060df869403b417f3d61cf9836e3-1559076831846,idfa_7683458A-FBC9-44BB-9A68-F06923695494,ja-JP
6WQze695S_GsZo-XUVQ1Hg,upsmobi,151_11232,Install,2.8,27.81.40.193,638A5C18-F1EF-4F55-B89F-2E047371EF75,1559071985,2019-05-29 03:33:05,1559072113,2019-05-29 03:35:13,1559072144,bea058d900d01c1b5b08373c5c273bf5-1559072637313,http://postback.upsmobi.com/pb/lsr?transaction_id=bea058d900d01c1b5b08373c5c273bf5-1559072637313,idfa_638A5C18-F1EF-4F55-B89F-2E047371EF75,ja-JP
6WQze695S_GsZo-XUVQ1Hg,upsmobi,151_11232,Install,2.8,39.111.46.158,94B2E4F0-47D9-44FF-B3F8-C0269DBA8968,1559077404,2019-05-29 05:03:24,1559077637,2019-05-29 05:07:17,1559077671,e50ef3dc0988d74828caa2515371e7a7-1559078058162,http://postback.upsmobi.com/pb/lsr?transaction_id=e50ef3dc0988d74828caa2515371e7a7-1559078058162,idfa_94B2E4F0-47D9-44FF-B3F8-C0269DBA8968,ja-JP
6WQze695S_GsZo-XUVQ1Hg,upsmobi,151_11232,Install,2.8,219.109.153.199,D03B52BE-2827-488B-8EDD-D58C825A2427,1559077780,2019-05-29 05:09:40,1559078015,2019-05-29 05:13:35,1559078046,eb96692bb249c76fbfab50cebea0c44b-1559078074343,http://postback.upsmobi.com/pb/lsr?transaction_id=eb96692bb249c76fbfab50cebea0c44b-1559078074343,idfa_D03B52BE-2827-488B-8EDD-D58C825A2427,ja-JP
6WQze695S_GsZo-XUVQ1Hg,upsmobi,151_11232,Install,2.8,116.0.201.100,94A2DB2C-1A0E-4CD5-B7F6-4F7DA298647C,1559077775,2019-05-29 05:09:35,1559077967,2019-05-29 05:12:47,1559077997,915b962cdc05d442a7ca76038492b912-1559078069954,http://postback.upsmobi.com/pb/lsr?transaction_id=915b962cdc05d442a7ca76038492b912-1559078069954,idfa_94A2DB2C-1A0E-4CD5-B7F6-4F7DA298647C,ja-JP
6WQze695S_GsZo-XUVQ1Hg,upsmobi,151_11232,Install,2.8,124.159.48.49,9D5A6DF5-BDED-4293-8F47-F5926D577058,1559065493,2019-05-29 01:44:53,1559065715,2019-05-29 01:48:35,1559065746,9d831326de8da720671aa30cd1765ecb-1559065786864,http://postback.upsmobi.com/pb/lsr?transaction_id=9d831326de8da720671aa30cd1765ecb-1559065786864,idfa_9D5A6DF5-BDED-4293-8F47-F5926D577058,ja-JP
6WQze695S_GsZo-XUVQ1Hg,upsmobi,151_11232,Install,2.8,221.39.65.121,6354EE08-A3EE-43D2-87E0-0F9A7C5D6329,1559076020,2019-05-29 04:40:20,1559076262,2019-05-29 04:44:22,1559076293,d847469b28af5e59ad0cdb793380c1c5-1559076670610,http://postback.upsmobi.com/pb/lsr?transaction_id=d847469b28af5e59ad0cdb793380c1c5-1559076670610,idfa_6354EE08-A3EE-43D2-87E0-0F9A7C5D6329,ja-JP
6WQze695S_GsZo-XUVQ1Hg,upsmobi,151_11232,Install,2.8,114.186.114.192,278D5520-6490-43CE-9B84-47ACA4CC94FF,1559070179,2019-05-29 03:02:59,1559070387,2019-05-29 03:06:27,1559070419,67f10e471a0616c83dd270f1432f656f-1559070471756,http://postback.upsmobi.com/pb/lsr?transaction_id=67f10e471a0616c83dd270f1432f656f-1559070471756,idfa_278D5520-6490-43CE-9B84-47ACA4CC94FF,ja-JP
6WQze695S_GsZo-XUVQ1Hg,upsmobi,151_11232,Install,2.8,221.76.114.147,38137384-2CD0-4886-BED5-409BF6E553D5,1559077784,2019-05-29 05:09:44,1559077995,2019-05-29 05:13:15,1559078026,c2d323e741200dbf3d58e24623d00c10-1559078437622,http://postback.upsmobi.com/pb/lsr?transaction_id=c2d323e741200dbf3d58e24623d00c10-1559078437622,idfa_38137384-2CD0-4886-BED5-409BF6E553D5,ja-JP
6WQze695S_GsZo-XUVQ1Hg,upsmobi,151_11232,Install,2.8,211.124.132.184,4777D766-D01E-4546-B3AB-1D4786B41BD1,1559077411,2019-05-29 05:03:31,1559077639,2019-05-29 05:07:19,1559077670,15d709c9cff229062e25f3b2627297af-1559078064853,http://postback.upsmobi.com/pb/lsr?transaction_id=15d709c9cff229062e25f3b2627297af-1559078064853,idfa_4777D766-D01E-4546-B3AB-1D4786B41BD1,ja-JP
6WQze695S_GsZo-XUVQ1Hg,upsmobi,151_11232,Install,2.8,118.21.162.33,92012570-E7DB-49B1-825F-79B4F3233890,1559071169,2019-05-29 03:19:29,1559071415,2019-05-29 03:23:35,1559071445,8ca3869598e4b930da6fdd529842b67c-1559071463739,http://postback.upsmobi.com/pb/lsr?transaction_id=8ca3869598e4b930da6fdd529842b67c-1559071463739,idfa_92012570-E7DB-49B1-825F-79B4F3233890,ja-JP
6WQze695S_GsZo-XUVQ1Hg,upsmobi,151_11232,Install,2.8,36.3.226.206,1247AFC1-B722-4E3D-86BB-ACB307E0AF43,1559077503,2019-05-29 05:05:03,1559077645,2019-05-29 05:07:25,1559077676,0ddfd1e1e630f449c2e255a6c5941340-1559078155340,http://postback.upsmobi.com/pb/lsr?transaction_id=0ddfd1e1e630f449c2e255a6c5941340-1559078155340,idfa_1247AFC1-B722-4E3D-86BB-ACB307E0AF43,ja-JP
6WQze695S_GsZo-XUVQ1Hg,upsmobi,151_11232,Install,2.8,113.144.183.83,B5B19A2C-E792-4DBB-94EF-A666D225C834,1559077413,2019-05-29 05:03:33,1559077695,2019-05-29 05:08:15,1559077726,7ff5c68228ea883df8fb529a71d365a8-1559078065590,http://postback.upsmobi.com/pb/lsr?transaction_id=7ff5c68228ea883df8fb529a71d365a8-1559078065590,idfa_B5B19A2C-E792-4DBB-94EF-A666D225C834,ja-JP
6WQze695S_GsZo-XUVQ1Hg,upsmobi,151_11232,Install,2.8,121.2.178.221,2D9A6582-DC70-46DB-A42F-F43802C17821,1559071171,2019-05-29 03:19:31,1559071422,2019-05-29 03:23:42,1559071454,c6d9d38d370a6e365208511b3fef8235-1559071464160,http://postback.upsmobi.com/pb/lsr?transaction_id=c6d9d38d370a6e365208511b3fef8235-1559071464160,idfa_2D9A6582-DC70-46DB-A42F-F43802C17821,ja-JP
6WQze695S_GsZo-XUVQ1Hg,upsmobi,151_11232,Install,2.8,101.140.207.249,275F173B-82F1-42B3-8F52-D319B727BE2C,1559077408,2019-05-29 05:03:28,1559077620,2019-05-29 05:07:00,1559077651,64036b5a48ae23de1964473b26352312-1559078062177,http://postback.upsmobi.com/pb/lsr?transaction_id=64036b5a48ae23de1964473b26352312-1559078062177,idfa_275F173B-82F1-42B3-8F52-D319B727BE2C,ja-JP
