cid,partner_id,channel_id,action_id,cpi,ip,idfa,click time,click datetime,install time,install datetime,postback time,click id,postback url,unique user id
JrZVYu2kT82MYFtvb9vgwQ,upsmobi,155_10004,Install,2.0,122.34.97.214,071dff3d-6560-4538-83ce-b8539c5ca156,1558630668,2019-05-24 00:57:48,1558630772,2019-05-24 00:59:32,1558630810,d3f121fa31f9b46223ea50cadd345b9c-1558631332837,http://postback.upsmobi.com/pb/lsr?transaction_id=d3f121fa31f9b46223ea50cadd345b9c-1558631332837,idfa_071dff3d-6560-4538-83ce-b8539c5ca156,%ED%95%9C%EA%B5%AD%EC%96%B4
JrZVYu2kT82MYFtvb9vgwQ,upsmobi,155_10004,Install,2.0,223.62.212.98,c0835845-541e-4628-840f-64ef84d6e9ec,1558630490,2019-05-24 00:54:50,1558630595,2019-05-24 00:56:35,1558630627,7af37d1c590aa1d1949ec25a9491339e-1558631155300,http://postback.upsmobi.com/pb/lsr?transaction_id=7af37d1c590aa1d1949ec25a9491339e-1558631155300,idfa_c0835845-541e-4628-840f-64ef84d6e9ec,%ED%95%9C%EA%B5%AD%EC%96%B4
JrZVYu2kT82MYFtvb9vgwQ,upsmobi,155_10004,Install,2.0,1.248.65.41,61ccfd4f-8243-49a6-9c56-b944d0b21ae4,1558630194,2019-05-24 00:49:54,1558630288,2019-05-24 00:51:28,1558630320,c17ceb4317bc03ce544803029aaa3abb-1558630498242,http://postback.upsmobi.com/pb/lsr?transaction_id=c17ceb4317bc03ce544803029aaa3abb-1558630498242,idfa_61ccfd4f-8243-49a6-9c56-b944d0b21ae4,%ED%95%9C%EA%B5%AD%EC%96%B4
JrZVYu2kT82MYFtvb9vgwQ,upsmobi,155_10004,Install,2.0,114.201.255.133,3c65d63a-7f69-48df-9226-103cd5244199,1558630878,2019-05-24 01:01:18,1558630976,2019-05-24 01:02:56,1558631007,64b57050ac49a47cdd3eedff7888e7b4-1558631183749,http://postback.upsmobi.com/pb/lsr?transaction_id=64b57050ac49a47cdd3eedff7888e7b4-1558631183749,idfa_3c65d63a-7f69-48df-9226-103cd5244199,%ED%95%9C%EA%B5%AD%EC%96%B4
JrZVYu2kT82MYFtvb9vgwQ,upsmobi,155_10004,Install,2.0,182.226.126.159,7665a559-2ba9-4433-9496-c6bfb0e30038,1558630303,2019-05-24 00:51:43,1558630407,2019-05-24 00:53:27,1558630438,c0a924fe8bfe3f382b41f8fedf7162df-1558630968349,http://postback.upsmobi.com/pb/lsr?transaction_id=c0a924fe8bfe3f382b41f8fedf7162df-1558630968349,idfa_7665a559-2ba9-4433-9496-c6bfb0e30038,%ED%95%9C%EA%B5%AD%EC%96%B4
JrZVYu2kT82MYFtvb9vgwQ,upsmobi,155_10004,Install,2.0,180.68.135.250,6befd375-bb11-4c46-8232-8858b4383abe,1558630429,2019-05-24 00:53:49,1558630528,2019-05-24 00:55:28,1558630560,68178d9be89f3072865c792dead4cada-1558631094583,http://postback.upsmobi.com/pb/lsr?transaction_id=68178d9be89f3072865c792dead4cada-1558631094583,idfa_6befd375-bb11-4c46-8232-8858b4383abe,%ED%95%9C%EA%B5%AD%EC%96%B4
JrZVYu2kT82MYFtvb9vgwQ,upsmobi,155_10004,Install,2.0,61.98.173.25,97b3381a-1800-4faf-84f2-844d2e813a01,1558630824,2019-05-24 01:00:24,1558630921,2019-05-24 01:02:01,1558630952,9102b0e0e491b9c9cd8fc8491a08f364-1558631129035,http://postback.upsmobi.com/pb/lsr?transaction_id=9102b0e0e491b9c9cd8fc8491a08f364-1558631129035,idfa_97b3381a-1800-4faf-84f2-844d2e813a01,%ED%95%9C%EA%B5%AD%EC%96%B4
JrZVYu2kT82MYFtvb9vgwQ,upsmobi,155_10004,Install,2.0,175.223.35.120,b9d3e14a-58d5-4dea-96fb-27a9b3acd479,1558630082,2019-05-24 00:48:02,1558630182,2019-05-24 00:49:42,1558630213,585bd9439692cad6771900cf4e28c140-1558630747499,http://postback.upsmobi.com/pb/lsr?transaction_id=585bd9439692cad6771900cf4e28c140-1558630747499,idfa_b9d3e14a-58d5-4dea-96fb-27a9b3acd479,%ED%95%9C%EA%B5%AD%EC%96%B4
JrZVYu2kT82MYFtvb9vgwQ,upsmobi,155_10004,Install,2.0,221.140.78.4,9c0a9792-5e4b-4cb3-ab80-f1e05dd8b651,1558630818,2019-05-24 01:00:18,1558630918,2019-05-24 01:01:58,1558630949,eea8ed453824245afc3a9fc07098c0af-1558631483672,http://postback.upsmobi.com/pb/lsr?transaction_id=eea8ed453824245afc3a9fc07098c0af-1558631483672,idfa_9c0a9792-5e4b-4cb3-ab80-f1e05dd8b651,%ED%95%9C%EA%B5%AD%EC%96%B4
JrZVYu2kT82MYFtvb9vgwQ,upsmobi,155_10004,Install,2.0,125.128.246.170,52e7c241-8377-476a-a251-0bf820a0818e,1558630304,2019-05-24 00:51:44,1558630480,2019-05-24 00:54:40,1558630511,9e1d8f89121aef5570d8ce6f74dff178-1558630970434,http://postback.upsmobi.com/pb/lsr?transaction_id=9e1d8f89121aef5570d8ce6f74dff178-1558630970434,idfa_52e7c241-8377-476a-a251-0bf820a0818e,%ED%95%9C%EA%B5%AD%EC%96%B4
JrZVYu2kT82MYFtvb9vgwQ,upsmobi,155_10004,Install,2.0,124.111.129.167,62549015-b334-4d55-8240-de74aaa2ee3b,1558630350,2019-05-24 00:52:30,1558630520,2019-05-24 00:55:20,1558630551,924034b74ccc04f878b3445914606cd4-1558630655308,http://postback.upsmobi.com/pb/lsr?transaction_id=924034b74ccc04f878b3445914606cd4-1558630655308,idfa_62549015-b334-4d55-8240-de74aaa2ee3b,%ED%95%9C%EA%B5%AD%EC%96%B4
JrZVYu2kT82MYFtvb9vgwQ,upsmobi,155_10004,Install,2.0,210.111.188.205,71c75451-6153-4d5d-81c9-58fc3e3f358d,1558630673,2019-05-24 00:57:53,1558630771,2019-05-24 00:59:31,1558630802,e7b6c50c255bee210ddc8603ea659c39-1558630977197,http://postback.upsmobi.com/pb/lsr?transaction_id=e7b6c50c255bee210ddc8603ea659c39-1558630977197,idfa_71c75451-6153-4d5d-81c9-58fc3e3f358d,%ED%95%9C%EA%B5%AD%EC%96%B4
JrZVYu2kT82MYFtvb9vgwQ,upsmobi,155_10004,Install,2.0,106.102.11.244,10a13e97-76d0-4bc4-8ab9-e06e52f11a01,1558593606,2019-05-23 14:40:06,1558617297,2019-05-23 21:14:57,1558617327,a8b0aa331071bc14682482f76b11ede9-1558594272008,http://postback.upsmobi.com/pb/lsr?transaction_id=a8b0aa331071bc14682482f76b11ede9-1558594272008,idfa_10a13e97-76d0-4bc4-8ab9-e06e52f11a01,%ED%95%9C%EA%B5%AD%EC%96%B4
JrZVYu2kT82MYFtvb9vgwQ,upsmobi,155_10004,Install,2.0,175.126.180.149,14ecf8c9-8e54-4a89-ae0a-5338bb5af65e,1558630084,2019-05-24 00:48:04,1558630298,2019-05-24 00:51:38,1558630330,d0b067b46045572c2509d3e7558a4c06-1558630749848,http://postback.upsmobi.com/pb/lsr?transaction_id=d0b067b46045572c2509d3e7558a4c06-1558630749848,idfa_14ecf8c9-8e54-4a89-ae0a-5338bb5af65e,%ED%95%9C%EA%B5%AD%EC%96%B4
JrZVYu2kT82MYFtvb9vgwQ,upsmobi,155_10004,Install,2.0,222.114.116.56,8a52cfd3-ba48-43b2-8117-595bb21c9f30,1558630887,2019-05-24 01:01:27,1558631081,2019-05-24 01:04:41,1558631112,c2684e4ce91c6129d1d6993b4b56572e-1558631192994,http://postback.upsmobi.com/pb/lsr?transaction_id=c2684e4ce91c6129d1d6993b4b56572e-1558631192994,idfa_8a52cfd3-ba48-43b2-8117-595bb21c9f30,%ED%95%9C%EA%B5%AD%EC%96%B4
JrZVYu2kT82MYFtvb9vgwQ,upsmobi,155_10004,Install,2.0,121.127.178.199,eee22cd4-61a8-4f2e-bca6-415d41ee869e,1558630194,2019-05-24 00:49:54,1558630291,2019-05-24 00:51:31,1558630324,c65baf8b84f5bb14c6d220b71de013bd-1558630859438,http://postback.upsmobi.com/pb/lsr?transaction_id=c65baf8b84f5bb14c6d220b71de013bd-1558630859438,idfa_eee22cd4-61a8-4f2e-bca6-415d41ee869e,%ED%95%9C%EA%B5%AD%EC%96%B4
JrZVYu2kT82MYFtvb9vgwQ,upsmobi,155_10004,Install,2.0,1.247.84.134,29cef96c-8bf1-4896-8079-602594b0a925,1558630305,2019-05-24 00:51:45,1558630406,2019-05-24 00:53:26,1558630438,2f78587d9f914c7fff32d9d172607dc0-1558630970696,http://postback.upsmobi.com/pb/lsr?transaction_id=2f78587d9f914c7fff32d9d172607dc0-1558630970696,idfa_29cef96c-8bf1-4896-8079-602594b0a925,%ED%95%9C%EA%B5%AD%EC%96%B4
JrZVYu2kT82MYFtvb9vgwQ,upsmobi,155_10004,Install,2.0,125.130.202.16,c2178c0c-96fa-4730-b8a9-6445c7e3e1b8,1558630612,2019-05-24 00:56:52,1558630715,2019-05-24 00:58:35,1558630747,8e6ad25869eb939b7c4d6cf08a7f79e6-1558631278002,http://postback.upsmobi.com/pb/lsr?transaction_id=8e6ad25869eb939b7c4d6cf08a7f79e6-1558631278002,idfa_c2178c0c-96fa-4730-b8a9-6445c7e3e1b8,%ED%95%9C%EA%B5%AD%EC%96%B4
JrZVYu2kT82MYFtvb9vgwQ,upsmobi,155_10004,Install,2.0,183.78.197.30,b22c2b67-cfa9-4430-806e-48d083adb190,1558630873,2019-05-24 01:01:13,1558630970,2019-05-24 01:02:50,1558631000,68ad9e2dedb8a2a16514bb9ce75a9926-1558631177999,http://postback.upsmobi.com/pb/lsr?transaction_id=68ad9e2dedb8a2a16514bb9ce75a9926-1558631177999,idfa_b22c2b67-cfa9-4430-806e-48d083adb190,%ED%95%9C%EA%B5%AD%EC%96%B4
JrZVYu2kT82MYFtvb9vgwQ,upsmobi,155_10004,Install,2.0,119.202.152.93,6649be44-d766-4807-aa23-afc8dceb6554,1558630820,2019-05-24 01:00:20,1558630919,2019-05-24 01:01:59,1558630950,5fb998208bd9cceb659e6b10551b481e-1558631125143,http://postback.upsmobi.com/pb/lsr?transaction_id=5fb998208bd9cceb659e6b10551b481e-1558631125143,idfa_6649be44-d766-4807-aa23-afc8dceb6554,%ED%95%9C%EA%B5%AD%EC%96%B4
JrZVYu2kT82MYFtvb9vgwQ,upsmobi,155_10004,Install,2.0,182.226.217.53,a8312fb3-2d72-41fb-9c89-26f968a33cb2,1558630616,2019-05-24 00:56:56,1558630718,2019-05-24 00:58:38,1558630748,2cc1a626528d0d16b6061dbb36568bb0-1558630921443,http://postback.upsmobi.com/pb/lsr?transaction_id=2cc1a626528d0d16b6061dbb36568bb0-1558630921443,idfa_a8312fb3-2d72-41fb-9c89-26f968a33cb2,%ED%95%9C%EA%B5%AD%EC%96%B4
JrZVYu2kT82MYFtvb9vgwQ,upsmobi,155_10004,Install,2.0,117.111.7.241,360a7b88-dc5b-47d7-a2ca-16a1c2b02e48,1558630375,2019-05-24 00:52:55,1558630475,2019-05-24 00:54:35,1558630506,1664548ff50cb153a1635fd505b4cea9-1558630679468,http://postback.upsmobi.com/pb/lsr?transaction_id=1664548ff50cb153a1635fd505b4cea9-1558630679468,idfa_360a7b88-dc5b-47d7-a2ca-16a1c2b02e48,%ED%95%9C%EA%B5%AD%EC%96%B4
JrZVYu2kT82MYFtvb9vgwQ,upsmobi,155_10004,Install,2.0,218.50.175.19,e318ab1a-508b-481b-a53a-abbedb74dd5b,1558630198,2019-05-24 00:49:58,1558630296,2019-05-24 00:51:36,1558630327,995a574a130757af4fc30fe8cd3d81db-1558630503233,http://postback.upsmobi.com/pb/lsr?transaction_id=995a574a130757af4fc30fe8cd3d81db-1558630503233,idfa_e318ab1a-508b-481b-a53a-abbedb74dd5b,%ED%95%9C%EA%B5%AD%EC%96%B4
JrZVYu2kT82MYFtvb9vgwQ,upsmobi,155_10004,Install,2.0,39.112.119.129,911873a3-bcce-40d5-b398-2ed2bfaa8720,1558630676,2019-05-24 00:57:56,1558630781,2019-05-24 00:59:41,1558630817,e3611cce74907fd1dfd33ce8e81823e6-1558631341231,http://postback.upsmobi.com/pb/lsr?transaction_id=e3611cce74907fd1dfd33ce8e81823e6-1558631341231,idfa_911873a3-bcce-40d5-b398-2ed2bfaa8720,%ED%95%9C%EA%B5%AD%EC%96%B4
JrZVYu2kT82MYFtvb9vgwQ,upsmobi,155_10004,Install,2.0,175.223.18.51,6cdb1681-17bb-49c6-ad56-37bb2caa9e3c,1558630130,2019-05-24 00:48:50,1558630228,2019-05-24 00:50:28,1558630259,835e1d90b1fb630376ca8f7f506fd252-1558630435513,http://postback.upsmobi.com/pb/lsr?transaction_id=835e1d90b1fb630376ca8f7f506fd252-1558630435513,idfa_6cdb1681-17bb-49c6-ad56-37bb2caa9e3c,%ED%95%9C%EA%B5%AD%EC%96%B4
JrZVYu2kT82MYFtvb9vgwQ,upsmobi,155_10004,Install,2.0,39.7.28.223,d528be2b-7f2c-4d00-84f9-5c224d20a59b,1558630377,2019-05-24 00:52:57,1558630486,2019-05-24 00:54:46,1558630517,dbbaa02856e845e73c01535966e7e10a-1558631043225,http://postback.upsmobi.com/pb/lsr?transaction_id=dbbaa02856e845e73c01535966e7e10a-1558631043225,idfa_d528be2b-7f2c-4d00-84f9-5c224d20a59b,%ED%95%9C%EA%B5%AD%EC%96%B4
JrZVYu2kT82MYFtvb9vgwQ,upsmobi,155_10004,Install,2.0,106.102.1.122,036d349c-f586-44de-a38d-00f4eb7bf632,1558630614,2019-05-24 00:56:54,1558630913,2019-05-24 01:01:53,1558631080,38c1915e564e717aaf8e68621aad5ace-1558630918561,http://postback.upsmobi.com/pb/lsr?transaction_id=38c1915e564e717aaf8e68621aad5ace-1558630918561,idfa_036d349c-f586-44de-a38d-00f4eb7bf632,%ED%95%9C%EA%B5%AD%EC%96%B4
JrZVYu2kT82MYFtvb9vgwQ,upsmobi,155_10004,Install,2.0,211.251.205.116,f633866b-ab13-479e-9f67-e5e73b4430e9,1558630895,2019-05-24 01:01:35,1558630979,2019-05-24 01:02:59,1558631010,2aa8cd0ebc0f6743468bcec031378bfd-1558631190474,http://postback.upsmobi.com/pb/lsr?transaction_id=2aa8cd0ebc0f6743468bcec031378bfd-1558631190474,idfa_f633866b-ab13-479e-9f67-e5e73b4430e9,%ED%95%9C%EA%B5%AD%EC%96%B4
JrZVYu2kT82MYFtvb9vgwQ,upsmobi,155_10004,Install,2.0,1.254.208.110,cca9f711-c5fe-4975-8291-f8a5dd0449be,1558630812,2019-05-24 01:00:12,1558630912,2019-05-24 01:01:52,1558630942,2e53c18b19296f5a611445c91b8ada8d-1558631117501,http://postback.upsmobi.com/pb/lsr?transaction_id=2e53c18b19296f5a611445c91b8ada8d-1558631117501,idfa_cca9f711-c5fe-4975-8291-f8a5dd0449be,%ED%95%9C%EA%B5%AD%EC%96%B4
JrZVYu2kT82MYFtvb9vgwQ,upsmobi,155_10004,Install,2.0,220.94.63.176,355ce75d-cc5f-4d76-a1bf-b78268451a1d,1558630816,2019-05-24 01:00:16,1558630918,2019-05-24 01:01:58,1558630948,8b71c2e3ab07251886482c6e254f5ae7-1558631121259,http://postback.upsmobi.com/pb/lsr?transaction_id=8b71c2e3ab07251886482c6e254f5ae7-1558631121259,idfa_355ce75d-cc5f-4d76-a1bf-b78268451a1d,%ED%95%9C%EA%B5%AD%EC%96%B4
JrZVYu2kT82MYFtvb9vgwQ,upsmobi,155_10004,Install,2.0,61.102.202.144,62409b0c-3da8-4e76-88cf-066900e8c400,1558630554,2019-05-24 00:55:54,1558630928,2019-05-24 01:02:08,1558630959,8b2d84b85fede6ca3b763173cd7f3039-1558631218444,http://postback.upsmobi.com/pb/lsr?transaction_id=8b2d84b85fede6ca3b763173cd7f3039-1558631218444,idfa_62409b0c-3da8-4e76-88cf-066900e8c400,%ED%95%9C%EA%B5%AD%EC%96%B4
JrZVYu2kT82MYFtvb9vgwQ,upsmobi,155_10004,Install,2.0,49.174.183.163,c7afca2b-e49f-40f3-9542-20c6408c4765,1558630735,2019-05-24 00:58:55,1558630877,2019-05-24 01:01:17,1558630911,c282c4a8243c3fc17ba649392d677413-1558631040684,http://postback.upsmobi.com/pb/lsr?transaction_id=c282c4a8243c3fc17ba649392d677413-1558631040684,idfa_c7afca2b-e49f-40f3-9542-20c6408c4765,%ED%95%9C%EA%B5%AD%EC%96%B4
JrZVYu2kT82MYFtvb9vgwQ,upsmobi,155_10004,Install,2.0,175.198.191.199,05558824-109a-41bd-b1ce-18c8dd7e2dca,1558630825,2019-05-24 01:00:25,1558631212,2019-05-24 01:06:52,1558631244,011df3b69fb78f1db820204879c059d2-1558631130297,http://postback.upsmobi.com/pb/lsr?transaction_id=011df3b69fb78f1db820204879c059d2-1558631130297,idfa_05558824-109a-41bd-b1ce-18c8dd7e2dca,%ED%95%9C%EA%B5%AD%EC%96%B4
JrZVYu2kT82MYFtvb9vgwQ,upsmobi,155_10004,Install,2.0,223.62.8.163,3d17a2da-2a24-41f6-9806-e47dd8ca6929,1558630871,2019-05-24 01:01:11,1558630971,2019-05-24 01:02:51,1558631002,b0ee6e1e5b381a8d1a798f6360925799-1558631176047,http://postback.upsmobi.com/pb/lsr?transaction_id=b0ee6e1e5b381a8d1a798f6360925799-1558631176047,idfa_3d17a2da-2a24-41f6-9806-e47dd8ca6929,%ED%95%9C%EA%B5%AD%EC%96%B4
JrZVYu2kT82MYFtvb9vgwQ,upsmobi,155_10004,Install,2.0,123.214.32.97,baf18c61-5232-4208-8407-a6d0d5edb0a4,1558630821,2019-05-24 01:00:21,1558630919,2019-05-24 01:01:59,1558630950,571567aca7f611108bcbf288de72ed87-1558631125843,http://postback.upsmobi.com/pb/lsr?transaction_id=571567aca7f611108bcbf288de72ed87-1558631125843,idfa_baf18c61-5232-4208-8407-a6d0d5edb0a4,%ED%95%9C%EA%B5%AD%EC%96%B4
JrZVYu2kT82MYFtvb9vgwQ,upsmobi,155_10004,Install,2.0,211.36.147.85,e4273904-c6d2-4b5f-9a00-dc19b2dff11d,1558630671,2019-05-24 00:57:51,1558630769,2019-05-24 00:59:29,1558630800,80f91a5318d6f15a093acf584bf099c3-1558630975371,http://postback.upsmobi.com/pb/lsr?transaction_id=80f91a5318d6f15a093acf584bf099c3-1558630975371,idfa_e4273904-c6d2-4b5f-9a00-dc19b2dff11d,%ED%95%9C%EA%B5%AD%EC%96%B4
