cid,partner_id,channel_id,action_id,cpi,ip,idfa,click time,click datetime,install time,install datetime,postback time,click id,postback url,unique user id
TpXeod6RS1-zpqLqiwxiaQ,webeye,10418_,Install,1.6,115.21.110.94,771977ea-c276-4a3e-b57b-b5253a36a066,1557766169,2019-05-14 00:49:29,1557766396,2019-05-14 00:53:16,1557766428,f772765c-b4e8-4f7a-b7ba-e526fd44489f,http://pb01.webeyemob.com/v1/ad/postback/?source=1342&key=4XNN0AZC&clickid=f772765c-b4e8-4f7a-b7ba-e526fd44489f,idfa_771977ea-c276-4a3e-b57b-b5253a36a066,%ED%95%9C%EA%B5%AD%EC%96%B4
TpXeod6RS1-zpqLqiwxiaQ,webeye,10418_,Install,1.6,221.167.254.205,8eef09e0-3997-4013-8855-0a7eadc44b7b,1557758259,2019-05-13 22:37:39,1557758356,2019-05-13 22:39:16,1557758387,d73709cc-d4a3-448b-b426-52d7b937704a,http://pb01.webeyemob.com/v1/ad/postback/?source=1342&key=4XNN0AZC&clickid=d73709cc-d4a3-448b-b426-52d7b937704a,idfa_8eef09e0-3997-4013-8855-0a7eadc44b7b,%ED%95%9C%EA%B5%AD%EC%96%B4
TpXeod6RS1-zpqLqiwxiaQ,webeye,10418_,Install,1.6,211.178.241.113,b7045ded-44ed-4588-8b15-f97040ca6259,1557769887,2019-05-14 01:51:27,1557769987,2019-05-14 01:53:07,1557770018,19cc58a8-9280-4db3-8f09-b8eb0e54529c,http://pb01.webeyemob.com/v1/ad/postback/?source=1342&key=4XNN0AZC&clickid=19cc58a8-9280-4db3-8f09-b8eb0e54529c,idfa_b7045ded-44ed-4588-8b15-f97040ca6259,%ED%95%9C%EA%B5%AD%EC%96%B4
TpXeod6RS1-zpqLqiwxiaQ,webeye,10418_,Install,1.6,124.61.46.61,331dae78-1ba8-48aa-9859-d2280f7ef322,1557755441,2019-05-13 21:50:41,1557755546,2019-05-13 21:52:26,1557755581,3427c819-5eb3-4485-8109-505167356823,http://pb01.webeyemob.com/v1/ad/postback/?source=1342&key=4XNN0AZC&clickid=3427c819-5eb3-4485-8109-505167356823,idfa_331dae78-1ba8-48aa-9859-d2280f7ef322,%ED%95%9C%EA%B5%AD%EC%96%B4
TpXeod6RS1-zpqLqiwxiaQ,webeye,10418_,Install,1.6,118.217.88.46,28dff861-fe23-4cb8-9ebe-e2c230b8ec19,1557771001,2019-05-14 02:10:01,1557771104,2019-05-14 02:11:44,1557771134,742ca686-28e9-48db-9d06-38ed8b57c57e,http://pb01.webeyemob.com/v1/ad/postback/?source=1342&key=4XNN0AZC&clickid=742ca686-28e9-48db-9d06-38ed8b57c57e,idfa_28dff861-fe23-4cb8-9ebe-e2c230b8ec19,%ED%95%9C%EA%B5%AD%EC%96%B4
TpXeod6RS1-zpqLqiwxiaQ,webeye,10418_,Install,1.6,59.21.102.113,b0c7dbbd-4ca9-4e6d-99be-2d33dc3b1f0b,1557772024,2019-05-14 02:27:04,1557772116,2019-05-14 02:28:36,1557772147,a529a3ad-28d8-4cc8-8f74-ec020ee92f33,http://pb01.webeyemob.com/v1/ad/postback/?source=1342&key=4XNN0AZC&clickid=a529a3ad-28d8-4cc8-8f74-ec020ee92f33,idfa_b0c7dbbd-4ca9-4e6d-99be-2d33dc3b1f0b,%ED%95%9C%EA%B5%AD%EC%96%B4
TpXeod6RS1-zpqLqiwxiaQ,webeye,10418_,Install,1.6,183.102.56.149,a20bc20d-95cf-4937-8301-186a01d0bc0d,1557755809,2019-05-13 21:56:49,1557755900,2019-05-13 21:58:20,1557755933,6ace99df-2cc0-444a-a489-bae3f0182315,http://pb01.webeyemob.com/v1/ad/postback/?source=1342&key=4XNN0AZC&clickid=6ace99df-2cc0-444a-a489-bae3f0182315,idfa_a20bc20d-95cf-4937-8301-186a01d0bc0d,%ED%95%9C%EA%B5%AD%EC%96%B4
TpXeod6RS1-zpqLqiwxiaQ,webeye,10418_,Install,1.6,125.142.49.243,8ab9951a-8b0d-4fb7-b4df-8e7a02b15253,1557770865,2019-05-14 02:07:45,1557770964,2019-05-14 02:09:24,1557770994,8b07bdd3-cbc8-4dae-82f6-076c5b826130,http://pb01.webeyemob.com/v1/ad/postback/?source=1342&key=4XNN0AZC&clickid=8b07bdd3-cbc8-4dae-82f6-076c5b826130,idfa_8ab9951a-8b0d-4fb7-b4df-8e7a02b15253,%ED%95%9C%EA%B5%AD%EC%96%B4
TpXeod6RS1-zpqLqiwxiaQ,webeye,10418_,Install,1.6,110.46.39.13,7a9ff81d-07b6-4866-bcb4-b9de7e5b14fe,1557772186,2019-05-14 02:29:46,1557772278,2019-05-14 02:31:18,1557772308,f4703173-7cde-4198-b5e1-da3036780000,http://pb01.webeyemob.com/v1/ad/postback/?source=1342&key=4XNN0AZC&clickid=f4703173-7cde-4198-b5e1-da3036780000,idfa_7a9ff81d-07b6-4866-bcb4-b9de7e5b14fe,%ED%95%9C%EA%B5%AD%EC%96%B4
TpXeod6RS1-zpqLqiwxiaQ,webeye,10418_,Install,1.6,61.101.5.174,29516d0c-c2df-422d-bc3d-3bb2e76444b6,1557754917,2019-05-13 21:41:57,1557755010,2019-05-13 21:43:30,1557755040,4c89d880-4e18-4b21-b8ec-5c7d03d6e906,http://pb01.webeyemob.com/v1/ad/postback/?source=1342&key=4XNN0AZC&clickid=4c89d880-4e18-4b21-b8ec-5c7d03d6e906,idfa_29516d0c-c2df-422d-bc3d-3bb2e76444b6,%ED%95%9C%EA%B5%AD%EC%96%B4
TpXeod6RS1-zpqLqiwxiaQ,webeye,10418_,Install,1.6,1.231.227.171,d315942c-0800-4fa7-9306-0050f55953d7,1557758552,2019-05-13 22:42:32,1557758646,2019-05-13 22:44:06,1557758679,5054aceb-47c3-4f8b-a3ef-79a93d42d94b,http://pb01.webeyemob.com/v1/ad/postback/?source=1342&key=4XNN0AZC&clickid=5054aceb-47c3-4f8b-a3ef-79a93d42d94b,idfa_d315942c-0800-4fa7-9306-0050f55953d7,%ED%95%9C%EA%B5%AD%EC%96%B4
TpXeod6RS1-zpqLqiwxiaQ,webeye,10418_,Install,1.6,58.79.113.29,c149086e-3724-473a-b2e7-8da7f085f71f,1557765322,2019-05-14 00:35:22,1557765417,2019-05-14 00:36:57,1557765588,f9e8d2d5-5d43-4439-82eb-aba014cf78a7,http://pb01.webeyemob.com/v1/ad/postback/?source=1342&key=4XNN0AZC&clickid=f9e8d2d5-5d43-4439-82eb-aba014cf78a7,idfa_c149086e-3724-473a-b2e7-8da7f085f71f,%ED%95%9C%EA%B5%AD%EC%96%B4
TpXeod6RS1-zpqLqiwxiaQ,webeye,10418_,Install,1.6,123.200.97.149,209d9ccb-397d-411a-8aa8-dfecde3800be,1557764726,2019-05-14 00:25:26,1557764814,2019-05-14 00:26:54,1557764844,b993b744-5f45-4d19-8f27-9244d657d3be,http://pb01.webeyemob.com/v1/ad/postback/?source=1342&key=4XNN0AZC&clickid=b993b744-5f45-4d19-8f27-9244d657d3be,idfa_209d9ccb-397d-411a-8aa8-dfecde3800be,%ED%95%9C%EA%B5%AD%EC%96%B4
TpXeod6RS1-zpqLqiwxiaQ,webeye,10418_,Install,1.6,211.232.224.175,c060fc63-58bc-4cae-8d7c-990fd51b89c1,1557767569,2019-05-14 01:12:49,1557767648,2019-05-14 01:14:08,1557767679,1a00dfe1-636a-480e-9f35-726259c26d41,http://pb01.webeyemob.com/v1/ad/postback/?source=1342&key=4XNN0AZC&clickid=1a00dfe1-636a-480e-9f35-726259c26d41,idfa_c060fc63-58bc-4cae-8d7c-990fd51b89c1,%ED%95%9C%EA%B5%AD%EC%96%B4
TpXeod6RS1-zpqLqiwxiaQ,webeye,10418_,Install,1.6,49.175.170.130,da9a8715-9f2c-4c9a-ba11-6e09b36e8cc5,1557765741,2019-05-14 00:42:21,1557765841,2019-05-14 00:44:01,1557765872,8e41065a-22fe-431f-8efa-65a0ba968a76,http://pb01.webeyemob.com/v1/ad/postback/?source=1342&key=4XNN0AZC&clickid=8e41065a-22fe-431f-8efa-65a0ba968a76,idfa_da9a8715-9f2c-4c9a-ba11-6e09b36e8cc5,%ED%95%9C%EA%B5%AD%EC%96%B4
TpXeod6RS1-zpqLqiwxiaQ,webeye,10418_,Install,1.6,222.105.40.130,9c5b7018-6090-43e5-9896-d3ab5f19d98d,1557768609,2019-05-14 01:30:09,1557768706,2019-05-14 01:31:46,1557768736,5cfcfa20-729d-4a0f-8267-5e020ada12a2,http://pb01.webeyemob.com/v1/ad/postback/?source=1342&key=4XNN0AZC&clickid=5cfcfa20-729d-4a0f-8267-5e020ada12a2,idfa_9c5b7018-6090-43e5-9896-d3ab5f19d98d,%ED%95%9C%EA%B5%AD%EC%96%B4
TpXeod6RS1-zpqLqiwxiaQ,webeye,10418_,Install,1.6,112.221.237.45,d5060bd8-11cc-4810-a8b4-6099d404d137,1557768161,2019-05-14 01:22:41,1557768255,2019-05-14 01:24:15,1557768286,63a0a560-1f4e-4dfe-a772-0ec646fe121d,http://pb01.webeyemob.com/v1/ad/postback/?source=1342&key=4XNN0AZC&clickid=63a0a560-1f4e-4dfe-a772-0ec646fe121d,idfa_d5060bd8-11cc-4810-a8b4-6099d404d137,%ED%95%9C%EA%B5%AD%EC%96%B4
TpXeod6RS1-zpqLqiwxiaQ,webeye,10418_,Install,1.6,14.39.241.12,fe02744c-25c8-4525-a1b3-49bce82ac1cc,1557764935,2019-05-14 00:28:55,1557765022,2019-05-14 00:30:22,1557765052,52127bac-dc22-498b-9ef9-cbf1fdca5d49,http://pb01.webeyemob.com/v1/ad/postback/?source=1342&key=4XNN0AZC&clickid=52127bac-dc22-498b-9ef9-cbf1fdca5d49,idfa_fe02744c-25c8-4525-a1b3-49bce82ac1cc,%ED%95%9C%EA%B5%AD%EC%96%B4
TpXeod6RS1-zpqLqiwxiaQ,webeye,10418_,Install,1.6,211.211.251.83,df836fb3-bd6f-4703-9d08-dadb126ef20c,1557762809,2019-05-13 23:53:29,1557762914,2019-05-13 23:55:14,1557762944,2d0f175f-1201-4b07-be7a-31e7798fdf26,http://pb01.webeyemob.com/v1/ad/postback/?source=1342&key=4XNN0AZC&clickid=2d0f175f-1201-4b07-be7a-31e7798fdf26,idfa_df836fb3-bd6f-4703-9d08-dadb126ef20c,%ED%95%9C%EA%B5%AD%EC%96%B4
TpXeod6RS1-zpqLqiwxiaQ,webeye,10418_,Install,1.6,180.65.219.4,fbd57294-979e-45ba-83e0-4338e5ae3a6f,1557772220,2019-05-14 02:30:20,1557772319,2019-05-14 02:31:59,1557772349,d0d41c24-2ed9-4f82-87aa-453d1831d2ef,http://pb01.webeyemob.com/v1/ad/postback/?source=1342&key=4XNN0AZC&clickid=d0d41c24-2ed9-4f82-87aa-453d1831d2ef,idfa_fbd57294-979e-45ba-83e0-4338e5ae3a6f,%ED%95%9C%EA%B5%AD%EC%96%B4
TpXeod6RS1-zpqLqiwxiaQ,webeye,10418_,Install,1.6,61.101.104.18,01243196-9faf-4ace-a37b-967a26e7ea3d,1557751987,2019-05-13 20:53:07,1557752101,2019-05-13 20:55:01,1557752132,57177d51-cc0b-42ef-bf46-f07a9290f6fe,http://pb01.webeyemob.com/v1/ad/postback/?source=1342&key=4XNN0AZC&clickid=57177d51-cc0b-42ef-bf46-f07a9290f6fe,idfa_01243196-9faf-4ace-a37b-967a26e7ea3d,%ED%95%9C%EA%B5%AD%EC%96%B4
TpXeod6RS1-zpqLqiwxiaQ,webeye,10418_,Install,1.6,211.225.54.68,7cde963e-00cd-4126-b999-9d730f4b6488,1557764048,2019-05-14 00:14:08,1557764147,2019-05-14 00:15:47,1557764177,9bb500e7-1014-4ee1-93d5-960654b5dae2,http://pb01.webeyemob.com/v1/ad/postback/?source=1342&key=4XNN0AZC&clickid=9bb500e7-1014-4ee1-93d5-960654b5dae2,idfa_7cde963e-00cd-4126-b999-9d730f4b6488,%ED%95%9C%EA%B5%AD%EC%96%B4
TpXeod6RS1-zpqLqiwxiaQ,webeye,10418_,Install,1.6,121.131.144.221,2bf1169f-14f9-4b65-af8a-3deafeb95572,1557771028,2019-05-14 02:10:28,1557771125,2019-05-14 02:12:05,1557771155,bba5fcd9-2625-43da-b919-54c4f9a7d358,http://pb01.webeyemob.com/v1/ad/postback/?source=1342&key=4XNN0AZC&clickid=bba5fcd9-2625-43da-b919-54c4f9a7d358,idfa_2bf1169f-14f9-4b65-af8a-3deafeb95572,%ED%95%9C%EA%B5%AD%EC%96%B4
TpXeod6RS1-zpqLqiwxiaQ,webeye,10418_,Install,1.6,218.238.210.17,a7f28346-0ea9-4de6-9f8a-455cd72e1c10,1557766709,2019-05-14 00:58:29,1557766957,2019-05-14 01:02:37,1557766988,cc21b76f-d0d3-4724-af35-445d0db0674f,http://pb01.webeyemob.com/v1/ad/postback/?source=1342&key=4XNN0AZC&clickid=cc21b76f-d0d3-4724-af35-445d0db0674f,idfa_a7f28346-0ea9-4de6-9f8a-455cd72e1c10,%ED%95%9C%EA%B5%AD%EC%96%B4
TpXeod6RS1-zpqLqiwxiaQ,webeye,10418_,Install,1.6,210.94.86.11,fa8cf0e3-53e9-438d-b63d-c8411a196854,1557758424,2019-05-13 22:40:24,1557758521,2019-05-13 22:42:01,1557758553,e5028dc6-5c2d-40e2-bf4c-23ec92303eac,http://pb01.webeyemob.com/v1/ad/postback/?source=1342&key=4XNN0AZC&clickid=e5028dc6-5c2d-40e2-bf4c-23ec92303eac,idfa_fa8cf0e3-53e9-438d-b63d-c8411a196854,%ED%95%9C%EA%B5%AD%EC%96%B4
TpXeod6RS1-zpqLqiwxiaQ,webeye,10418_,Install,1.6,121.146.123.40,a1561b79-1723-4b49-a9cd-f2c8136bd637,1557755935,2019-05-13 21:58:55,1557756022,2019-05-13 22:00:22,1557756052,3820488b-0ea9-42fe-918d-6866ade6ed66,http://pb01.webeyemob.com/v1/ad/postback/?source=1342&key=4XNN0AZC&clickid=3820488b-0ea9-42fe-918d-6866ade6ed66,idfa_a1561b79-1723-4b49-a9cd-f2c8136bd637,%ED%95%9C%EA%B5%AD%EC%96%B4
TpXeod6RS1-zpqLqiwxiaQ,webeye,10418_,Install,1.6,58.239.46.149,40fa891c-6ae4-4ddf-8048-b2aed377133d,1557769479,2019-05-14 01:44:39,1557769574,2019-05-14 01:46:14,1557769666,7f00f4cc-6e50-4220-9a23-f3bf7cfffa90,http://pb01.webeyemob.com/v1/ad/postback/?source=1342&key=4XNN0AZC&clickid=7f00f4cc-6e50-4220-9a23-f3bf7cfffa90,idfa_40fa891c-6ae4-4ddf-8048-b2aed377133d,%ED%95%9C%EA%B5%AD%EC%96%B4
TpXeod6RS1-zpqLqiwxiaQ,webeye,10418_,Install,1.6,118.42.128.32,e56a1992-4435-4d99-a010-4879fd9ba7c5,1557756036,2019-05-13 22:00:36,1557756126,2019-05-13 22:02:06,1557756157,aac38fe6-d9d9-41cf-ba8a-d22f57e95c2e,http://pb01.webeyemob.com/v1/ad/postback/?source=1342&key=4XNN0AZC&clickid=aac38fe6-d9d9-41cf-ba8a-d22f57e95c2e,idfa_e56a1992-4435-4d99-a010-4879fd9ba7c5,%ED%95%9C%EA%B5%AD%EC%96%B4
TpXeod6RS1-zpqLqiwxiaQ,webeye,10418_,Install,1.6,14.35.223.117,13b45c49-7b85-410c-b566-8d47c7beb88b,1557768702,2019-05-14 01:31:42,1557768802,2019-05-14 01:33:22,1557768834,8a9420c3-7387-42bf-b313-83b5ef2b0b95,http://pb01.webeyemob.com/v1/ad/postback/?source=1342&key=4XNN0AZC&clickid=8a9420c3-7387-42bf-b313-83b5ef2b0b95,idfa_13b45c49-7b85-410c-b566-8d47c7beb88b,%ED%95%9C%EA%B5%AD%EC%96%B4
