cid,partner_id,channel_id,action_id,cpi,ip,idfa,click time,click datetime,install time,install datetime,postback time,click id,postback url,unique user id
JLsfbwkDQ-C-dPjG5fRBcA,webeye,40228_,install,1.6,126.245.201.81,114ACF50-8540-4613-BF39-7CB372690980,1557884592,2019-05-15 09:43:12,1557886266,2019-05-15 10:11:06,1557886297,fde96890-8a9a-412f-a7e9-ce942f3a302b,http://pb01.webeyemob.com/v1/ad/postback/?source=1342&key=4XNN0AZC&clickid=fde96890-8a9a-412f-a7e9-ce942f3a302b,idfa_114ACF50-8540-4613-BF39-7CB372690980,ja
JLsfbwkDQ-C-dPjG5fRBcA,webeye,40228_,install,1.6,180.221.242.200,4C7A71A6-9527-46CD-ACB3-1CF0BF644AC2,1557714862,2019-05-13 10:34:22,1557757545,2019-05-13 22:25:45,1557757575,31bf30bf-75df-4b56-a0df-5a494dc42fde,http://pb01.webeyemob.com/v1/ad/postback/?source=1342&key=4XNN0AZC&clickid=31bf30bf-75df-4b56-a0df-5a494dc42fde,idfa_4C7A71A6-9527-46CD-ACB3-1CF0BF644AC2,ja
JLsfbwkDQ-C-dPjG5fRBcA,webeye,40228_,install,1.6,115.69.236.228,52882631-B2DA-43AB-A688-8E9641E1D98D,1557803388,2019-05-14 11:09:48,1557838045,2019-05-14 20:47:25,1557838076,d49ec370-9300-423d-bcc1-2ceba395dc8d,http://pb01.webeyemob.com/v1/ad/postback/?source=1342&key=4XNN0AZC&clickid=d49ec370-9300-423d-bcc1-2ceba395dc8d,idfa_52882631-B2DA-43AB-A688-8E9641E1D98D,ja
JLsfbwkDQ-C-dPjG5fRBcA,webeye,40228_,install,1.7,126.199.8.244,74B548B1-68FC-4973-866C-0DF3D395C537,1557379430,2019-05-09 13:23:50,1557389635,2019-05-09 16:13:55,1557389667,9fdbf5a8-c0a4-44be-ae30-d2735982b43a,http://pb01.webeyemob.com/v1/ad/postback/?source=1342&key=4XNN0AZC&clickid=9fdbf5a8-c0a4-44be-ae30-d2735982b43a,idfa_74B548B1-68FC-4973-866C-0DF3D395C537,ja
JLsfbwkDQ-C-dPjG5fRBcA,webeye,40228_,install,1.7,110.232.136.216,B3BD5F3E-5F53-4082-A45D-550FE85D26C6,1557493540,2019-05-10 21:05:40,1557577243,2019-05-11 20:20:43,1557577274,82741075-e98f-47ba-8e4b-aac5cea0f023,http://pb01.webeyemob.com/v1/ad/postback/?source=1342&key=4XNN0AZC&clickid=82741075-e98f-47ba-8e4b-aac5cea0f023,idfa_B3BD5F3E-5F53-4082-A45D-550FE85D26C6,ja
JLsfbwkDQ-C-dPjG5fRBcA,webeye,40228_,install,1.6,203.179.200.202,7503B9BB-80D7-42F5-B31A-43AFE6C1D114,1557383522,2019-05-09 14:32:02,1557814440,2019-05-14 14:14:00,1557814470,ca0ca19a-a488-46fc-a39e-572308b3ff36,http://pb01.webeyemob.com/v1/ad/postback/?source=1342&key=4XNN0AZC&clickid=ca0ca19a-a488-46fc-a39e-572308b3ff36,idfa_7503B9BB-80D7-42F5-B31A-43AFE6C1D114,ja
JLsfbwkDQ-C-dPjG5fRBcA,webeye,40228_,install,1.6,126.2.132.116,3C30DA1C-A7A9-4355-8403-66BCB703A830,1557709994,2019-05-13 09:13:14,1557855012,2019-05-15 01:30:12,1557855042,d6b708b1-0ff0-474b-be41-f61a71e73615,http://pb01.webeyemob.com/v1/ad/postback/?source=1342&key=4XNN0AZC&clickid=d6b708b1-0ff0-474b-be41-f61a71e73615,idfa_3C30DA1C-A7A9-4355-8403-66BCB703A830,ja
JLsfbwkDQ-C-dPjG5fRBcA,webeye,40228_,install,1.6,114.162.163.3,20C70E95-5A79-4FA8-BFFD-A1E82ABC64A8,1557803974,2019-05-14 11:19:34,1557830646,2019-05-14 18:44:06,1557830676,ec810401-e79b-41d9-8178-da257523e1a7,http://pb01.webeyemob.com/v1/ad/postback/?source=1342&key=4XNN0AZC&clickid=ec810401-e79b-41d9-8178-da257523e1a7,idfa_20C70E95-5A79-4FA8-BFFD-A1E82ABC64A8,ja
JLsfbwkDQ-C-dPjG5fRBcA,webeye,40228_,install,1.7,60.108.213.40,FA1ECA73-2FE4-4C81-B12B-7ECECF2B8BC5,1557470934,2019-05-10 14:48:54,1557648941,2019-05-12 16:15:41,1557648971,6ab812ae-c3ad-42d5-b05a-b0819ec30658,http://pb01.webeyemob.com/v1/ad/postback/?source=1342&key=4XNN0AZC&clickid=6ab812ae-c3ad-42d5-b05a-b0819ec30658,idfa_FA1ECA73-2FE4-4C81-B12B-7ECECF2B8BC5,ja
JLsfbwkDQ-C-dPjG5fRBcA,webeye,40228_,install,1.7,183.176.84.92,805176B8-B4A7-4231-A288-92972B5DBAFB,1557644932,2019-05-12 15:08:52,1557657127,2019-05-12 18:32:07,1557657157,9dab4c72-2e27-4de7-80fa-a55a2218fa21,http://pb01.webeyemob.com/v1/ad/postback/?source=1342&key=4XNN0AZC&clickid=9dab4c72-2e27-4de7-80fa-a55a2218fa21,idfa_805176B8-B4A7-4231-A288-92972B5DBAFB,ja
JLsfbwkDQ-C-dPjG5fRBcA,webeye,40228_,install,1.7,219.122.236.171,B484DB40-A07E-4AE7-AAA1-B257258A771A,1557705873,2019-05-13 08:04:33,1557740918,2019-05-13 17:48:38,1557740950,f33d5107-7730-4363-ad97-608b4b1fd781,http://pb01.webeyemob.com/v1/ad/postback/?source=1342&key=4XNN0AZC&clickid=f33d5107-7730-4363-ad97-608b4b1fd781,idfa_B484DB40-A07E-4AE7-AAA1-B257258A771A,ja
JLsfbwkDQ-C-dPjG5fRBcA,webeye,40228_,install,1.7,133.207.39.192,F4711053-C5A5-4BB6-A588-835E54867AF8,1557481779,2019-05-10 17:49:39,1557737064,2019-05-13 16:44:24,1557737094,7e522a9b-06f8-4e8d-8c00-992d485d5122,http://pb01.webeyemob.com/v1/ad/postback/?source=1342&key=4XNN0AZC&clickid=7e522a9b-06f8-4e8d-8c00-992d485d5122,idfa_F4711053-C5A5-4BB6-A588-835E54867AF8,ja
JLsfbwkDQ-C-dPjG5fRBcA,webeye,40228_,install,1.7,153.182.80.141,A474A9D2-1538-43A8-B121-FCFB2966EE07,1557489345,2019-05-10 19:55:45,1557734438,2019-05-13 16:00:38,1557734468,6d6b2c09-7f44-4e78-897b-5ee5d2d8a29b,http://pb01.webeyemob.com/v1/ad/postback/?source=1342&key=4XNN0AZC&clickid=6d6b2c09-7f44-4e78-897b-5ee5d2d8a29b,idfa_A474A9D2-1538-43A8-B121-FCFB2966EE07,ja
JLsfbwkDQ-C-dPjG5fRBcA,webeye,40228_,install,1.7,126.218.112.172,97FFB6D9-9B1B-4429-B99D-9A66EC999E5A,1557481177,2019-05-10 17:39:37,1557541864,2019-05-11 10:31:04,1557541894,569c74bf-2ed9-4a91-aa9f-28c327502b58,http://pb01.webeyemob.com/v1/ad/postback/?source=1342&key=4XNN0AZC&clickid=569c74bf-2ed9-4a91-aa9f-28c327502b58,idfa_97FFB6D9-9B1B-4429-B99D-9A66EC999E5A,ja
JLsfbwkDQ-C-dPjG5fRBcA,webeye,40228_,install,1.7,125.102.198.9,77FCB91D-3886-494B-9D20-E9D4E8F07554,1557386108,2019-05-09 15:15:08,1557407330,2019-05-09 21:08:50,1557407361,e645c310-017f-46a0-a463-97e89d018d30,http://pb01.webeyemob.com/v1/ad/postback/?source=1342&key=4XNN0AZC&clickid=e645c310-017f-46a0-a463-97e89d018d30,idfa_77FCB91D-3886-494B-9D20-E9D4E8F07554,ja
JLsfbwkDQ-C-dPjG5fRBcA,webeye,40228_,install,1.7,202.214.198.92,AF7B7D22-B6EF-4310-897B-E58A49F41C8B,1557263088,2019-05-08 05:04:48,1557331368,2019-05-09 00:02:48,1557331398,2f08b302-4464-4303-a3ac-059dd93dce53,http://pb01.webeyemob.com/v1/ad/postback/?source=1342&key=4XNN0AZC&clickid=2f08b302-4464-4303-a3ac-059dd93dce53,idfa_AF7B7D22-B6EF-4310-897B-E58A49F41C8B,ja
JLsfbwkDQ-C-dPjG5fRBcA,webeye,40228_,install,1.7,111.239.40.108,09951D02-072A-497D-A5F6-FD20F47EBD28,1557354584,2019-05-09 06:29:44,1557401190,2019-05-09 19:26:30,1557401220,caec6caf-2049-4071-96f4-d9e112e78cbb,http://pb01.webeyemob.com/v1/ad/postback/?source=1342&key=4XNN0AZC&clickid=caec6caf-2049-4071-96f4-d9e112e78cbb,idfa_09951D02-072A-497D-A5F6-FD20F47EBD28,ja
JLsfbwkDQ-C-dPjG5fRBcA,webeye,40228_,install,1.6,133.31.89.9,C4A12B57-786B-4461-96BE-959F9327D7D7,1557708438,2019-05-13 08:47:18,1557790490,2019-05-14 07:34:50,1557790520,b17c9a33-832a-430f-a51f-20bd8393baec,http://pb01.webeyemob.com/v1/ad/postback/?source=1342&key=4XNN0AZC&clickid=b17c9a33-832a-430f-a51f-20bd8393baec,idfa_C4A12B57-786B-4461-96BE-959F9327D7D7,ja
JLsfbwkDQ-C-dPjG5fRBcA,webeye,40228_,install,1.7,115.162.120.170,428C4478-07F2-4F54-8E88-4B8A01EF0391,1557493882,2019-05-10 21:11:22,1557526042,2019-05-11 06:07:22,1557526072,6859c949-d710-4852-95cd-7696c2d0ec8a,http://pb01.webeyemob.com/v1/ad/postback/?source=1342&key=4XNN0AZC&clickid=6859c949-d710-4852-95cd-7696c2d0ec8a,idfa_428C4478-07F2-4F54-8E88-4B8A01EF0391,ja
JLsfbwkDQ-C-dPjG5fRBcA,webeye,40228_,install,1.7,1.66.105.85,051C4D49-57E8-48DA-BA26-9D283ADE2143,1557570260,2019-05-11 18:24:20,1557580308,2019-05-11 21:11:48,1557580338,dc8d2849-3058-4bc1-95ff-0adcd8e22c05,http://pb01.webeyemob.com/v1/ad/postback/?source=1342&key=4XNN0AZC&clickid=dc8d2849-3058-4bc1-95ff-0adcd8e22c05,idfa_051C4D49-57E8-48DA-BA26-9D283ADE2143,ja
JLsfbwkDQ-C-dPjG5fRBcA,webeye,40228_,install,1.6,60.107.215.35,9F8BC143-2F65-4D0A-9C93-9C7CFB11A007,1557769026,2019-05-14 01:37:06,1557817047,2019-05-14 14:57:27,1557817077,8b094321-e3d0-4920-bd80-f6af9e6cbd9c,http://pb01.webeyemob.com/v1/ad/postback/?source=1342&key=4XNN0AZC&clickid=8b094321-e3d0-4920-bd80-f6af9e6cbd9c,idfa_9F8BC143-2F65-4D0A-9C93-9C7CFB11A007,ja
JLsfbwkDQ-C-dPjG5fRBcA,webeye,40228_,install,1.7,106.154.88.95,E7A7D35E-174B-48B7-BAFC-FEDA641459AF,1557374443,2019-05-09 12:00:43,1557399421,2019-05-09 18:57:01,1557399451,c323efad-db5d-4235-a066-c364debe19bf,http://pb01.webeyemob.com/v1/ad/postback/?source=1342&key=4XNN0AZC&clickid=c323efad-db5d-4235-a066-c364debe19bf,idfa_E7A7D35E-174B-48B7-BAFC-FEDA641459AF,ja
JLsfbwkDQ-C-dPjG5fRBcA,webeye,40228_,install,1.6,59.169.194.82,09F32450-85F6-4E7F-BE0B-F32440EE8C7D,1557677535,2019-05-13 00:12:15,1557745760,2019-05-13 19:09:20,1557745791,98d01494-9a54-468d-af83-be24e7df8a14,http://pb01.webeyemob.com/v1/ad/postback/?source=1342&key=4XNN0AZC&clickid=98d01494-9a54-468d-af83-be24e7df8a14,idfa_09F32450-85F6-4E7F-BE0B-F32440EE8C7D,ja
JLsfbwkDQ-C-dPjG5fRBcA,webeye,40228_,install,1.7,180.220.196.12,74D00323-C165-4EA0-9F11-5D59CA36B595,1557491219,2019-05-10 20:26:59,1557592286,2019-05-12 00:31:26,1557592316,a913bbb9-1804-4ac5-8927-a8dd5e2dff36,http://pb01.webeyemob.com/v1/ad/postback/?source=1342&key=4XNN0AZC&clickid=a913bbb9-1804-4ac5-8927-a8dd5e2dff36,idfa_74D00323-C165-4EA0-9F11-5D59CA36B595,ja
JLsfbwkDQ-C-dPjG5fRBcA,webeye,40228_,install,1.7,14.12.150.32,82BD0D25-B9B7-447E-8454-83BDF8D9C57F,1557647586,2019-05-12 15:53:06,1557663668,2019-05-12 20:21:08,1557663698,53516322-1163-4e62-871d-658d10327d0d,http://pb01.webeyemob.com/v1/ad/postback/?source=1342&key=4XNN0AZC&clickid=53516322-1163-4e62-871d-658d10327d0d,idfa_82BD0D25-B9B7-447E-8454-83BDF8D9C57F,ja
JLsfbwkDQ-C-dPjG5fRBcA,webeye,40228_,install,1.7,126.225.88.57,54D06100-03C2-4208-AC00-1DD7F82D85B4,1557643947,2019-05-12 14:52:27,1557672135,2019-05-12 22:42:15,1557672165,72ca4194-2920-4c4f-99db-128cda869d79,http://pb01.webeyemob.com/v1/ad/postback/?source=1342&key=4XNN0AZC&clickid=72ca4194-2920-4c4f-99db-128cda869d79,idfa_54D06100-03C2-4208-AC00-1DD7F82D85B4,ja
JLsfbwkDQ-C-dPjG5fRBcA,webeye,40228_,install,1.6,124.35.44.106,1AD3A6D7-56DE-496D-AF3A-370C6F373B4F,1557891557,2019-05-15 11:39:17,1557893973,2019-05-15 12:19:33,1557894003,f2973f6e-527e-431b-a32e-dc86e873949d,http://pb01.webeyemob.com/v1/ad/postback/?source=1342&key=4XNN0AZC&clickid=f2973f6e-527e-431b-a32e-dc86e873949d,idfa_1AD3A6D7-56DE-496D-AF3A-370C6F373B4F,ja
JLsfbwkDQ-C-dPjG5fRBcA,webeye,40228_,install,1.6,126.199.77.204,DAC07B26-0AD4-46B0-B52B-29F9D6D04AF0,1557729955,2019-05-13 14:45:55,1557834243,2019-05-14 19:44:03,1557834273,8fee229a-e5d8-4dfd-8d2b-bf77b77ec668,http://pb01.webeyemob.com/v1/ad/postback/?source=1342&key=4XNN0AZC&clickid=8fee229a-e5d8-4dfd-8d2b-bf77b77ec668,idfa_DAC07B26-0AD4-46B0-B52B-29F9D6D04AF0,ja
JLsfbwkDQ-C-dPjG5fRBcA,webeye,40228_,install,1.7,175.134.92.155,E5181D34-D241-4C1F-AD5B-C6A2D837DDC9,1557550081,2019-05-11 12:48:01,1557592788,2019-05-12 00:39:48,1557592818,9a83f466-7f3b-4fef-a608-06d116c71838,http://pb01.webeyemob.com/v1/ad/postback/?source=1342&key=4XNN0AZC&clickid=9a83f466-7f3b-4fef-a608-06d116c71838,idfa_E5181D34-D241-4C1F-AD5B-C6A2D837DDC9,ja
JLsfbwkDQ-C-dPjG5fRBcA,webeye,40228_,install,1.6,124.35.44.106,6AEFB874-79E3-4674-AD1B-FD5981C3C8C6,1557767926,2019-05-14 01:18:46,1557801712,2019-05-14 10:41:52,1557801743,318f3c3d-1119-492d-b930-b47a35a105c8,http://pb01.webeyemob.com/v1/ad/postback/?source=1342&key=4XNN0AZC&clickid=318f3c3d-1119-492d-b930-b47a35a105c8,idfa_6AEFB874-79E3-4674-AD1B-FD5981C3C8C6,ja
JLsfbwkDQ-C-dPjG5fRBcA,webeye,40228_,install,1.7,223.218.39.211,A17C0034-FED5-43F5-B472-C745DB990551,1557713080,2019-05-13 10:04:40,1557730129,2019-05-13 14:48:49,1557730159,1fa1a735-41d9-47c3-9e16-2b06b8fac707,http://pb01.webeyemob.com/v1/ad/postback/?source=1342&key=4XNN0AZC&clickid=1fa1a735-41d9-47c3-9e16-2b06b8fac707,idfa_A17C0034-FED5-43F5-B472-C745DB990551,ja
JLsfbwkDQ-C-dPjG5fRBcA,webeye,40228_,install,1.6,106.180.22.233,3BD2DF3D-1AC1-4C6A-9010-4D385B8876B8,1557733521,2019-05-13 15:45:21,1557786917,2019-05-14 06:35:17,1557786947,302d99f7-b56f-4997-b84b-32d71edc578a,http://pb01.webeyemob.com/v1/ad/postback/?source=1342&key=4XNN0AZC&clickid=302d99f7-b56f-4997-b84b-32d71edc578a,idfa_3BD2DF3D-1AC1-4C6A-9010-4D385B8876B8,ja
JLsfbwkDQ-C-dPjG5fRBcA,webeye,40228_,install,1.6,1.75.3.18,C39757AA-A880-486F-9797-D1B6EF60F5DE,1557492736,2019-05-10 20:52:16,1557819317,2019-05-14 15:35:17,1557819347,828ea2b3-9162-488e-aa72-8324168ebac9,http://pb01.webeyemob.com/v1/ad/postback/?source=1342&key=4XNN0AZC&clickid=828ea2b3-9162-488e-aa72-8324168ebac9,idfa_C39757AA-A880-486F-9797-D1B6EF60F5DE,ja
JLsfbwkDQ-C-dPjG5fRBcA,webeye,40228_,install,1.7,125.15.201.20,AA1EF714-AFAD-470C-A217-D0489467AF74,1557441034,2019-05-10 06:30:34,1557486152,2019-05-10 19:02:32,1557486182,17bb89d8-136f-45da-b70c-243d344ef53f,http://pb01.webeyemob.com/v1/ad/postback/?source=1342&key=4XNN0AZC&clickid=17bb89d8-136f-45da-b70c-243d344ef53f,idfa_AA1EF714-AFAD-470C-A217-D0489467AF74,ja
JLsfbwkDQ-C-dPjG5fRBcA,webeye,40228_,install,1.7,114.19.90.44,01A446BD-89B8-47FE-A737-CDF374BC7DF7,1557443868,2019-05-10 07:17:48,1557579907,2019-05-11 21:05:07,1557579937,dfb1d2ef-7d72-4f8b-9e19-2e2f1e855f26,http://pb01.webeyemob.com/v1/ad/postback/?source=1342&key=4XNN0AZC&clickid=dfb1d2ef-7d72-4f8b-9e19-2e2f1e855f26,idfa_01A446BD-89B8-47FE-A737-CDF374BC7DF7,ja
JLsfbwkDQ-C-dPjG5fRBcA,webeye,40228_,install,1.6,124.99.130.198,13D999CA-60A5-4048-BB6D-B193330BACDF,1557696204,2019-05-13 05:23:24,1557824798,2019-05-14 17:06:38,1557824828,e940ba32-e64f-49e5-b47f-f4f504cd15df,http://pb01.webeyemob.com/v1/ad/postback/?source=1342&key=4XNN0AZC&clickid=e940ba32-e64f-49e5-b47f-f4f504cd15df,idfa_13D999CA-60A5-4048-BB6D-B193330BACDF,ja
JLsfbwkDQ-C-dPjG5fRBcA,webeye,40228_,install,1.6,49.106.200.155,32542B51-26DC-4253-B83E-DD8AAD48B6B3,1557838115,2019-05-14 20:48:35,1557891845,2019-05-15 11:44:05,1557891875,ec9a5e2c-0451-4ab3-8717-0df8a8ef0d2d,http://pb01.webeyemob.com/v1/ad/postback/?source=1342&key=4XNN0AZC&clickid=ec9a5e2c-0451-4ab3-8717-0df8a8ef0d2d,idfa_32542B51-26DC-4253-B83E-DD8AAD48B6B3,ja
JLsfbwkDQ-C-dPjG5fRBcA,webeye,40228_,install,1.7,116.65.103.144,A4045BD8-5459-493A-9B26-E8FDE1165515,1557272818,2019-05-08 07:46:58,1557498409,2019-05-10 22:26:49,1557498440,8f3835bb-c9eb-4595-9ad1-9929e8626c30,http://pb01.webeyemob.com/v1/ad/postback/?source=1342&key=4XNN0AZC&clickid=8f3835bb-c9eb-4595-9ad1-9929e8626c30,idfa_A4045BD8-5459-493A-9B26-E8FDE1165515,ja
JLsfbwkDQ-C-dPjG5fRBcA,webeye,40228_,install,1.6,183.74.206.133,B5EC6D13-8ACA-4EDF-BFA2-8DFB66F289CF,1557681238,2019-05-13 01:13:58,1557792973,2019-05-14 08:16:13,1557793004,fc1283c8-e914-49be-8b57-bbc4564f7644,http://pb01.webeyemob.com/v1/ad/postback/?source=1342&key=4XNN0AZC&clickid=fc1283c8-e914-49be-8b57-bbc4564f7644,idfa_B5EC6D13-8ACA-4EDF-BFA2-8DFB66F289CF,ja
JLsfbwkDQ-C-dPjG5fRBcA,webeye,40228_,install,1.6,153.192.162.72,A463ACD8-30FA-45CA-8AFD-EBE08157738E,1557678524,2019-05-13 00:28:44,1557884144,2019-05-15 09:35:44,1557884175,5b369e22-7b6b-41d3-9a88-a411c22effe8,http://pb01.webeyemob.com/v1/ad/postback/?source=1342&key=4XNN0AZC&clickid=5b369e22-7b6b-41d3-9a88-a411c22effe8,idfa_A463ACD8-30FA-45CA-8AFD-EBE08157738E,ja
JLsfbwkDQ-C-dPjG5fRBcA,webeye,40228_,install,1.7,126.35.69.49,D559F726-FA89-4733-8294-A4FCF16BA72E,1557615341,2019-05-12 06:55:41,1557649374,2019-05-12 16:22:54,1557649404,b0e49f47-8ea9-4bc8-991c-43d00199c680,http://pb01.webeyemob.com/v1/ad/postback/?source=1342&key=4XNN0AZC&clickid=b0e49f47-8ea9-4bc8-991c-43d00199c680,idfa_D559F726-FA89-4733-8294-A4FCF16BA72E,ja
JLsfbwkDQ-C-dPjG5fRBcA,webeye,40228_,install,1.7,126.199.131.246,BE2559A2-0EE0-44A4-A40E-9496B77DD724,1557278200,2019-05-08 09:16:40,1557289842,2019-05-08 12:30:42,1557289872,ad011f9a-b811-4209-9f6f-25d691f37e80,http://pb01.webeyemob.com/v1/ad/postback/?source=1342&key=4XNN0AZC&clickid=ad011f9a-b811-4209-9f6f-25d691f37e80,idfa_BE2559A2-0EE0-44A4-A40E-9496B77DD724,ja
JLsfbwkDQ-C-dPjG5fRBcA,webeye,40228_,install,1.7,49.251.234.74,6086ECF6-40E2-4557-ACF3-02A712CD46AA,1557292448,2019-05-08 13:14:08,1557480294,2019-05-10 17:24:54,1557480324,97f18fcb-c602-45ca-b084-5fa307d925a2,http://pb01.webeyemob.com/v1/ad/postback/?source=1342&key=4XNN0AZC&clickid=97f18fcb-c602-45ca-b084-5fa307d925a2,idfa_6086ECF6-40E2-4557-ACF3-02A712CD46AA,ja
JLsfbwkDQ-C-dPjG5fRBcA,webeye,40228_,install,1.6,175.133.6.167,D658538E-D6B9-4FD9-B480-7DEC7836EC58,1557806542,2019-05-14 12:02:22,1557807399,2019-05-14 12:16:39,1557807429,103f3975-cbd2-4c32-a302-b3968a6b25f4,http://pb01.webeyemob.com/v1/ad/postback/?source=1342&key=4XNN0AZC&clickid=103f3975-cbd2-4c32-a302-b3968a6b25f4,idfa_D658538E-D6B9-4FD9-B480-7DEC7836EC58,ja
JLsfbwkDQ-C-dPjG5fRBcA,webeye,40228_,install,1.7,106.180.3.115,17088011-1067-43ED-8915-457C369D8ABC,1557562843,2019-05-11 16:20:43,1557579212,2019-05-11 20:53:32,1557579242,20353150-92a0-4eda-8341-19d47aa7e75c,http://pb01.webeyemob.com/v1/ad/postback/?source=1342&key=4XNN0AZC&clickid=20353150-92a0-4eda-8341-19d47aa7e75c,idfa_17088011-1067-43ED-8915-457C369D8ABC,ja
JLsfbwkDQ-C-dPjG5fRBcA,webeye,40228_,install,1.6,126.152.225.44,34D15418-4CD7-493A-8216-56997FAE6EBD,1557709881,2019-05-13 09:11:21,1557748869,2019-05-13 20:01:09,1557748899,092e2b7a-9afc-4a15-9108-1f726ebeefaa,http://pb01.webeyemob.com/v1/ad/postback/?source=1342&key=4XNN0AZC&clickid=092e2b7a-9afc-4a15-9108-1f726ebeefaa,idfa_34D15418-4CD7-493A-8216-56997FAE6EBD,ja
JLsfbwkDQ-C-dPjG5fRBcA,webeye,40228_,install,1.6,106.130.13.207,BE2B64EB-0524-4971-A014-C0C11D9A5206,1557791225,2019-05-14 07:47:05,1557802643,2019-05-14 10:57:23,1557802673,bd820de6-a8a6-41c5-b327-1ae2fe6a81cc,http://pb01.webeyemob.com/v1/ad/postback/?source=1342&key=4XNN0AZC&clickid=bd820de6-a8a6-41c5-b327-1ae2fe6a81cc,idfa_BE2B64EB-0524-4971-A014-C0C11D9A5206,ja
JLsfbwkDQ-C-dPjG5fRBcA,webeye,40228_,install,1.6,133.43.244.201,88730DE9-7CCB-4F31-A185-D6A4EACCDA84,1557736039,2019-05-13 16:27:19,1557797654,2019-05-14 09:34:14,1557797684,9f92e45a-6739-4d26-8d99-021441b0e98b,http://pb01.webeyemob.com/v1/ad/postback/?source=1342&key=4XNN0AZC&clickid=9f92e45a-6739-4d26-8d99-021441b0e98b,idfa_88730DE9-7CCB-4F31-A185-D6A4EACCDA84,ja
JLsfbwkDQ-C-dPjG5fRBcA,webeye,40228_,install,1.6,49.98.85.138,7AA22F32-7EB3-437D-9C1C-49C71D816D34,1557811019,2019-05-14 13:16:59,1557884604,2019-05-15 09:43:24,1557884634,9a4d8e2d-34f6-480d-b160-e97122a49301,http://pb01.webeyemob.com/v1/ad/postback/?source=1342&key=4XNN0AZC&clickid=9a4d8e2d-34f6-480d-b160-e97122a49301,idfa_7AA22F32-7EB3-437D-9C1C-49C71D816D34,ja
JLsfbwkDQ-C-dPjG5fRBcA,webeye,40228_,install,1.6,175.177.5.36,D8678802-6AB8-40D0-B4CC-4D0F7BE8FA60,1557677508,2019-05-13 00:11:48,1557816197,2019-05-14 14:43:17,1557816227,fe11b5a2-325e-4c6d-9d41-c4c28f0e98bb,http://pb01.webeyemob.com/v1/ad/postback/?source=1342&key=4XNN0AZC&clickid=fe11b5a2-325e-4c6d-9d41-c4c28f0e98bb,idfa_D8678802-6AB8-40D0-B4CC-4D0F7BE8FA60,ja
JLsfbwkDQ-C-dPjG5fRBcA,webeye,40228_,install,1.6,150.89.160.67,1404356A-E954-4052-9C37-3EACA47FAB2D,1557780218,2019-05-14 04:43:38,1557818986,2019-05-14 15:29:46,1557819016,d121bec6-0ad1-4360-8cee-4ced6c51f7e7,http://pb01.webeyemob.com/v1/ad/postback/?source=1342&key=4XNN0AZC&clickid=d121bec6-0ad1-4360-8cee-4ced6c51f7e7,idfa_1404356A-E954-4052-9C37-3EACA47FAB2D,ja
JLsfbwkDQ-C-dPjG5fRBcA,webeye,40228_,install,1.6,14.13.6.64,0B6E6191-FD3A-41D1-8627-07CCC53F7967,1557765612,2019-05-14 00:40:12,1557842577,2019-05-14 22:02:57,1557842607,84fecf98-f549-4652-9a00-98b2709c3bfc,http://pb01.webeyemob.com/v1/ad/postback/?source=1342&key=4XNN0AZC&clickid=84fecf98-f549-4652-9a00-98b2709c3bfc,idfa_0B6E6191-FD3A-41D1-8627-07CCC53F7967,ja
JLsfbwkDQ-C-dPjG5fRBcA,webeye,40228_,install,1.7,119.241.134.64,CBF6969F-AE27-464D-81FF-23006CF49AFE,1557384504,2019-05-09 14:48:24,1557533883,2019-05-11 08:18:03,1557533913,84528510-e288-4d0a-88f3-5623f8be80cc,http://pb01.webeyemob.com/v1/ad/postback/?source=1342&key=4XNN0AZC&clickid=84528510-e288-4d0a-88f3-5623f8be80cc,idfa_CBF6969F-AE27-464D-81FF-23006CF49AFE,ja
JLsfbwkDQ-C-dPjG5fRBcA,webeye,40228_,install,1.6,126.33.93.217,7E863B7D-8138-46D2-87A4-E277C8C35B5C,1557763372,2019-05-14 00:02:52,1557840924,2019-05-14 21:35:24,1557840954,e5b257e1-279a-4ce6-82ef-befa3531c92a,http://pb01.webeyemob.com/v1/ad/postback/?source=1342&key=4XNN0AZC&clickid=e5b257e1-279a-4ce6-82ef-befa3531c92a,idfa_7E863B7D-8138-46D2-87A4-E277C8C35B5C,ja
JLsfbwkDQ-C-dPjG5fRBcA,webeye,40228_,install,1.6,121.114.54.196,DC9DA17C-E607-42D5-ACF8-1C06485AAEB6,1557817099,2019-05-14 14:58:19,1557838231,2019-05-14 20:50:31,1557838261,8084da62-b025-4a82-a3f9-6c163722a396,http://pb01.webeyemob.com/v1/ad/postback/?source=1342&key=4XNN0AZC&clickid=8084da62-b025-4a82-a3f9-6c163722a396,idfa_DC9DA17C-E607-42D5-ACF8-1C06485AAEB6,ja
JLsfbwkDQ-C-dPjG5fRBcA,webeye,40228_,install,1.7,126.209.47.98,4F1402C1-95D8-473F-A18C-E3904F1F4FE1,1557547222,2019-05-11 12:00:22,1557590619,2019-05-12 00:03:39,1557590650,2a3556b3-9e70-4aa9-a27a-79156983c9be,http://pb01.webeyemob.com/v1/ad/postback/?source=1342&key=4XNN0AZC&clickid=2a3556b3-9e70-4aa9-a27a-79156983c9be,idfa_4F1402C1-95D8-473F-A18C-E3904F1F4FE1,ja
JLsfbwkDQ-C-dPjG5fRBcA,webeye,40228_,install,1.6,158.201.245.201,D1EF3FFB-6451-475A-BE7A-058E960ACAB6,1557840864,2019-05-14 21:34:24,1557848734,2019-05-14 23:45:34,1557848765,28b85583-f31f-43e2-a3ac-3a2043a4a8b8,http://pb01.webeyemob.com/v1/ad/postback/?source=1342&key=4XNN0AZC&clickid=28b85583-f31f-43e2-a3ac-3a2043a4a8b8,idfa_D1EF3FFB-6451-475A-BE7A-058E960ACAB6,ja
JLsfbwkDQ-C-dPjG5fRBcA,webeye,40228_,install,1.7,126.245.217.218,10230CC9-5EDA-475D-B499-83AC3E7EECFF,1557694611,2019-05-13 04:56:51,1557744506,2019-05-13 18:48:26,1557744536,0985cd5c-6449-4dfe-b48b-8fbe6aa4a329,http://pb01.webeyemob.com/v1/ad/postback/?source=1342&key=4XNN0AZC&clickid=0985cd5c-6449-4dfe-b48b-8fbe6aa4a329,idfa_10230CC9-5EDA-475D-B499-83AC3E7EECFF,ja
JLsfbwkDQ-C-dPjG5fRBcA,webeye,40228_,install,1.7,126.220.21.88,BAADD8D3-7F9B-4ECD-838C-7E9FA5FC7C05,1557733178,2019-05-13 15:39:38,1557739841,2019-05-13 17:30:41,1557739871,dee35d04-8d50-4488-b52c-dbdf25647652,http://pb01.webeyemob.com/v1/ad/postback/?source=1342&key=4XNN0AZC&clickid=dee35d04-8d50-4488-b52c-dbdf25647652,idfa_BAADD8D3-7F9B-4ECD-838C-7E9FA5FC7C05,ja
JLsfbwkDQ-C-dPjG5fRBcA,webeye,40228_,install,1.7,126.28.179.96,94EA9D90-81FE-4244-A2E0-2123C14C6680,1557496187,2019-05-10 21:49:47,1557525126,2019-05-11 05:52:06,1557525156,32b18566-e147-468a-96c3-84fff0f0f0e8,http://pb01.webeyemob.com/v1/ad/postback/?source=1342&key=4XNN0AZC&clickid=32b18566-e147-468a-96c3-84fff0f0f0e8,idfa_94EA9D90-81FE-4244-A2E0-2123C14C6680,ja
JLsfbwkDQ-C-dPjG5fRBcA,webeye,40228_,install,1.7,153.220.195.140,15658015-C03E-44A4-8902-3BDFCF6E2FC2,1557535575,2019-05-11 08:46:15,1557740341,2019-05-13 17:39:01,1557740371,d4703d50-4d0e-4753-a336-f8dff9de349b,http://pb01.webeyemob.com/v1/ad/postback/?source=1342&key=4XNN0AZC&clickid=d4703d50-4d0e-4753-a336-f8dff9de349b,idfa_15658015-C03E-44A4-8902-3BDFCF6E2FC2,ja
JLsfbwkDQ-C-dPjG5fRBcA,webeye,40228_,install,1.7,60.157.88.168,EE2572AD-00CE-466F-96F8-F83E2F82E406,1557383568,2019-05-09 14:32:48,1557491182,2019-05-10 20:26:22,1557491213,da7a0580-411f-41ff-add5-2fb8bf68e66b,http://pb01.webeyemob.com/v1/ad/postback/?source=1342&key=4XNN0AZC&clickid=da7a0580-411f-41ff-add5-2fb8bf68e66b,idfa_EE2572AD-00CE-466F-96F8-F83E2F82E406,ja
JLsfbwkDQ-C-dPjG5fRBcA,webeye,40228_,install,1.7,153.181.55.72,CA7396D2-7D72-489F-B0DA-90FBC83F88A3,1557703862,2019-05-13 07:31:02,1557721305,2019-05-13 12:21:45,1557721335,212fcd5f-4540-4807-a14f-afecfcc55474,http://pb01.webeyemob.com/v1/ad/postback/?source=1342&key=4XNN0AZC&clickid=212fcd5f-4540-4807-a14f-afecfcc55474,idfa_CA7396D2-7D72-489F-B0DA-90FBC83F88A3,ja
JLsfbwkDQ-C-dPjG5fRBcA,webeye,40228_,install,1.7,49.104.44.136,A010A6A3-BF12-4668-B8E9-F8BADE60E76D,1557592359,2019-05-12 00:32:39,1557672345,2019-05-12 22:45:45,1557672375,81f70e99-9526-451f-b895-9e3123e113ef,http://pb01.webeyemob.com/v1/ad/postback/?source=1342&key=4XNN0AZC&clickid=81f70e99-9526-451f-b895-9e3123e113ef,idfa_A010A6A3-BF12-4668-B8E9-F8BADE60E76D,ja
JLsfbwkDQ-C-dPjG5fRBcA,webeye,40228_,install,1.6,49.104.2.120,E93725B2-7F20-40D5-B771-D9609409EEE0,1557804494,2019-05-14 11:28:14,1557826472,2019-05-14 17:34:32,1557826502,f4ff03a6-d829-4185-a285-3be66796f475,http://pb01.webeyemob.com/v1/ad/postback/?source=1342&key=4XNN0AZC&clickid=f4ff03a6-d829-4185-a285-3be66796f475,idfa_E93725B2-7F20-40D5-B771-D9609409EEE0,ja
JLsfbwkDQ-C-dPjG5fRBcA,webeye,40228_,install,1.7,49.106.203.87,60D2735A-FE76-460B-BA76-9C4EC1EEE6FE,1557388573,2019-05-09 15:56:13,1557393605,2019-05-09 17:20:05,1557393636,8359e92a-70fa-4685-8b01-38da9c913909,http://pb01.webeyemob.com/v1/ad/postback/?source=1342&key=4XNN0AZC&clickid=8359e92a-70fa-4685-8b01-38da9c913909,idfa_60D2735A-FE76-460B-BA76-9C4EC1EEE6FE,ja
JLsfbwkDQ-C-dPjG5fRBcA,webeye,40228_,install,1.7,106.166.60.171,6FC779DE-9AA6-4736-8322-7750E53AD4F1,1557643816,2019-05-12 14:50:16,1557649535,2019-05-12 16:25:35,1557649565,891665a8-ced3-40cf-846b-4447cfda7597,http://pb01.webeyemob.com/v1/ad/postback/?source=1342&key=4XNN0AZC&clickid=891665a8-ced3-40cf-846b-4447cfda7597,idfa_6FC779DE-9AA6-4736-8322-7750E53AD4F1,ja
JLsfbwkDQ-C-dPjG5fRBcA,webeye,40228_,install,1.7,59.129.135.143,09AFCB20-A040-49DE-A11C-277A64777C2A,1557704733,2019-05-13 07:45:33,1557731615,2019-05-13 15:13:35,1557731645,d319985c-e20e-4894-a0b7-8ef93d2bc308,http://pb01.webeyemob.com/v1/ad/postback/?source=1342&key=4XNN0AZC&clickid=d319985c-e20e-4894-a0b7-8ef93d2bc308,idfa_09AFCB20-A040-49DE-A11C-277A64777C2A,ja
JLsfbwkDQ-C-dPjG5fRBcA,webeye,40228_,install,1.7,153.169.217.78,0B71B32E-AA65-423D-8C90-B2FF8E887416,1557649270,2019-05-12 16:21:10,1557654250,2019-05-12 17:44:10,1557654280,29316f37-b9c1-4fc1-88a8-22428efc2af1,http://pb01.webeyemob.com/v1/ad/postback/?source=1342&key=4XNN0AZC&clickid=29316f37-b9c1-4fc1-88a8-22428efc2af1,idfa_0B71B32E-AA65-423D-8C90-B2FF8E887416,ja
JLsfbwkDQ-C-dPjG5fRBcA,webeye,40228_,install,1.6,106.130.54.114,E8A3AB3D-4942-4E74-B61B-9FBEF07796AC,1557267815,2019-05-08 06:23:35,1557816665,2019-05-14 14:51:05,1557816696,d754b604-2880-407f-9613-add844bee284,http://pb01.webeyemob.com/v1/ad/postback/?source=1342&key=4XNN0AZC&clickid=d754b604-2880-407f-9613-add844bee284,idfa_E8A3AB3D-4942-4E74-B61B-9FBEF07796AC,ja
JLsfbwkDQ-C-dPjG5fRBcA,webeye,40228_,install,1.7,202.95.39.88,B72BD7F5-C121-4036-8278-47F28CE40CF5,1557454764,2019-05-10 10:19:24,1557543474,2019-05-11 10:57:54,1557543504,2d4f712d-7731-459e-817e-1321eb3c0f30,http://pb01.webeyemob.com/v1/ad/postback/?source=1342&key=4XNN0AZC&clickid=2d4f712d-7731-459e-817e-1321eb3c0f30,idfa_B72BD7F5-C121-4036-8278-47F28CE40CF5,ja
JLsfbwkDQ-C-dPjG5fRBcA,webeye,40228_,install,1.6,61.21.153.159,B5BECADD-4199-432A-ACA5-90C5D637CA6E,1557614695,2019-05-12 06:44:55,1557748770,2019-05-13 19:59:30,1557748801,9ae1fc1f-bd36-4935-8462-cc64ff11183b,http://pb01.webeyemob.com/v1/ad/postback/?source=1342&key=4XNN0AZC&clickid=9ae1fc1f-bd36-4935-8462-cc64ff11183b,idfa_B5BECADD-4199-432A-ACA5-90C5D637CA6E,ja
JLsfbwkDQ-C-dPjG5fRBcA,webeye,40228_,install,1.7,153.197.71.119,AD8DC570-8E3D-4DD3-995C-2EBDB8894D02,1557266348,2019-05-08 05:59:08,1557402727,2019-05-09 19:52:07,1557402761,bab35e00-00e4-428a-82a3-af442357ba15,http://pb01.webeyemob.com/v1/ad/postback/?source=1342&key=4XNN0AZC&clickid=bab35e00-00e4-428a-82a3-af442357ba15,idfa_AD8DC570-8E3D-4DD3-995C-2EBDB8894D02,ja
JLsfbwkDQ-C-dPjG5fRBcA,webeye,40228_,install,1.7,36.11.224.207,209BBA3C-9C83-40F4-A4B5-6B1FA3920559,1557711034,2019-05-13 09:30:34,1557719236,2019-05-13 11:47:16,1557719266,71f01985-56e4-46d0-b8aa-b024449eb92b,http://pb01.webeyemob.com/v1/ad/postback/?source=1342&key=4XNN0AZC&clickid=71f01985-56e4-46d0-b8aa-b024449eb92b,idfa_209BBA3C-9C83-40F4-A4B5-6B1FA3920559,ja
JLsfbwkDQ-C-dPjG5fRBcA,webeye,40228_,install,1.7,210.136.105.18,0ECEEA3F-A240-4683-9F23-7AADE6BF581F,1557632117,2019-05-12 11:35:17,1557644382,2019-05-12 14:59:42,1557644412,7c406fa2-433b-4f52-aced-629a68803ed2,http://pb01.webeyemob.com/v1/ad/postback/?source=1342&key=4XNN0AZC&clickid=7c406fa2-433b-4f52-aced-629a68803ed2,idfa_0ECEEA3F-A240-4683-9F23-7AADE6BF581F,ja
JLsfbwkDQ-C-dPjG5fRBcA,webeye,40228_,install,1.7,60.103.233.110,4510EC85-F032-487C-B023-1C16174FA6CC,1557593369,2019-05-12 00:49:29,1557594972,2019-05-12 01:16:12,1557595002,d61c92b7-1027-4e3e-93d7-e8585be7d3ce,http://pb01.webeyemob.com/v1/ad/postback/?source=1342&key=4XNN0AZC&clickid=d61c92b7-1027-4e3e-93d7-e8585be7d3ce,idfa_4510EC85-F032-487C-B023-1C16174FA6CC,ja
JLsfbwkDQ-C-dPjG5fRBcA,webeye,40228_,install,1.6,133.42.210.72,8F050FA5-9B66-41BB-99E3-43BCB8ED1EAC,1557610477,2019-05-12 05:34:37,1557888060,2019-05-15 10:41:00,1557888091,b35c1539-012d-445b-a439-fdc9ca8e7ede,http://pb01.webeyemob.com/v1/ad/postback/?source=1342&key=4XNN0AZC&clickid=b35c1539-012d-445b-a439-fdc9ca8e7ede,idfa_8F050FA5-9B66-41BB-99E3-43BCB8ED1EAC,ja
JLsfbwkDQ-C-dPjG5fRBcA,webeye,40228_,install,1.7,126.243.125.29,A13AFACB-2EA1-4007-A14F-A0D530AE860C,1557644464,2019-05-12 15:01:04,1557736046,2019-05-13 16:27:26,1557736076,282f25f9-c389-485e-9261-6b54d1a70530,http://pb01.webeyemob.com/v1/ad/postback/?source=1342&key=4XNN0AZC&clickid=282f25f9-c389-485e-9261-6b54d1a70530,idfa_A13AFACB-2EA1-4007-A14F-A0D530AE860C,ja
JLsfbwkDQ-C-dPjG5fRBcA,webeye,40228_,install,1.6,106.132.205.180,40D13ED0-8CC3-4803-999C-88E3D3BAEE71,1557381368,2019-05-09 13:56:08,1557869637,2019-05-15 05:33:57,1557869667,a8bcbe5f-20ee-48b9-b462-9264685ec1e1,http://pb01.webeyemob.com/v1/ad/postback/?source=1342&key=4XNN0AZC&clickid=a8bcbe5f-20ee-48b9-b462-9264685ec1e1,idfa_40D13ED0-8CC3-4803-999C-88E3D3BAEE71,ja
JLsfbwkDQ-C-dPjG5fRBcA,webeye,40228_,install,1.7,182.251.126.229,90BC9F2C-75C0-4806-A59D-62B1FE843FFF,1557629318,2019-05-12 10:48:38,1557635442,2019-05-12 12:30:42,1557635472,3fc64812-64c6-44a2-801e-e22d55214838,http://pb01.webeyemob.com/v1/ad/postback/?source=1342&key=4XNN0AZC&clickid=3fc64812-64c6-44a2-801e-e22d55214838,idfa_90BC9F2C-75C0-4806-A59D-62B1FE843FFF,ja
JLsfbwkDQ-C-dPjG5fRBcA,webeye,40228_,install,1.6,115.38.226.23,FC98A2C9-8436-402C-AACE-793A0247BA63,1557593357,2019-05-12 00:49:17,1557745428,2019-05-13 19:03:48,1557745458,e6bd6cda-24f1-439b-9658-5c09dbe6792d,http://pb01.webeyemob.com/v1/ad/postback/?source=1342&key=4XNN0AZC&clickid=e6bd6cda-24f1-439b-9658-5c09dbe6792d,idfa_FC98A2C9-8436-402C-AACE-793A0247BA63,ja
JLsfbwkDQ-C-dPjG5fRBcA,webeye,40228_,install,1.6,126.33.24.52,015B69D0-8DF0-49A7-9AE3-814D5C89EFE4,1557571185,2019-05-11 18:39:45,1557828520,2019-05-14 18:08:40,1557828550,920fdd0e-aa04-4308-9a1b-0b8e3e9772d1,http://pb01.webeyemob.com/v1/ad/postback/?source=1342&key=4XNN0AZC&clickid=920fdd0e-aa04-4308-9a1b-0b8e3e9772d1,idfa_015B69D0-8DF0-49A7-9AE3-814D5C89EFE4,ja
JLsfbwkDQ-C-dPjG5fRBcA,webeye,40228_,install,1.6,114.178.87.200,AE572C8D-618E-4940-9BC6-4720F0530F02,1557486896,2019-05-10 19:14:56,1557798675,2019-05-14 09:51:15,1557798705,e431b28d-dd83-4e07-8874-0f69bbd4414e,http://pb01.webeyemob.com/v1/ad/postback/?source=1342&key=4XNN0AZC&clickid=e431b28d-dd83-4e07-8874-0f69bbd4414e,idfa_AE572C8D-618E-4940-9BC6-4720F0530F02,ja
JLsfbwkDQ-C-dPjG5fRBcA,webeye,40228_,install,1.7,49.97.104.137,F457CDBB-4C81-40D0-8D20-12668817B65E,1557700357,2019-05-13 06:32:37,1557725221,2019-05-13 13:27:01,1557725252,9abba935-1a4a-432a-8929-f97878a3e1a3,http://pb01.webeyemob.com/v1/ad/postback/?source=1342&key=4XNN0AZC&clickid=9abba935-1a4a-432a-8929-f97878a3e1a3,idfa_F457CDBB-4C81-40D0-8D20-12668817B65E,ja
JLsfbwkDQ-C-dPjG5fRBcA,webeye,40228_,install,1.7,126.161.129.239,8C06B510-3C9B-4302-BC7E-D395A05E627C,1557359073,2019-05-09 07:44:33,1557422395,2019-05-10 01:19:55,1557422425,a22c4ef5-0de9-4d59-8cfd-d7b27bfa497d,http://pb01.webeyemob.com/v1/ad/postback/?source=1342&key=4XNN0AZC&clickid=a22c4ef5-0de9-4d59-8cfd-d7b27bfa497d,idfa_8C06B510-3C9B-4302-BC7E-D395A05E627C,ja
JLsfbwkDQ-C-dPjG5fRBcA,webeye,40228_,install,1.7,60.145.15.201,56F69602-4753-4D89-9C9E-BCA520F44D56,1557383932,2019-05-09 14:38:52,1557442026,2019-05-10 06:47:06,1557442056,05cbd06e-fdcc-440f-a8c7-19c42e9b18ec,http://pb01.webeyemob.com/v1/ad/postback/?source=1342&key=4XNN0AZC&clickid=05cbd06e-fdcc-440f-a8c7-19c42e9b18ec,idfa_56F69602-4753-4D89-9C9E-BCA520F44D56,ja
JLsfbwkDQ-C-dPjG5fRBcA,webeye,40228_,install,1.6,126.164.86.128,DDD9B44C-CEF4-4BC2-8115-7860C5ACE72E,1557713956,2019-05-13 10:19:16,1557753157,2019-05-13 21:12:37,1557753187,90c1d2b3-6144-4b66-8071-3c0b44a3d2c1,http://pb01.webeyemob.com/v1/ad/postback/?source=1342&key=4XNN0AZC&clickid=90c1d2b3-6144-4b66-8071-3c0b44a3d2c1,idfa_DDD9B44C-CEF4-4BC2-8115-7860C5ACE72E,ja
JLsfbwkDQ-C-dPjG5fRBcA,webeye,40228_,install,1.7,182.251.36.93,3A1C35BE-CBE5-43A0-BD01-A82F0EC90016,1557484412,2019-05-10 18:33:32,1557513948,2019-05-11 02:45:48,1557513978,f7cb7578-7b16-4281-9d40-91828dddc6c6,http://pb01.webeyemob.com/v1/ad/postback/?source=1342&key=4XNN0AZC&clickid=f7cb7578-7b16-4281-9d40-91828dddc6c6,idfa_3A1C35BE-CBE5-43A0-BD01-A82F0EC90016,ja
JLsfbwkDQ-C-dPjG5fRBcA,webeye,40228_,install,1.6,182.167.44.225,DD68CDA0-E4EA-465F-95C0-92E5E7127C05,1557691498,2019-05-13 04:04:58,1557833454,2019-05-14 19:30:54,1557833484,fc028959-d91d-4b43-856c-081dc64f9ed7,http://pb01.webeyemob.com/v1/ad/postback/?source=1342&key=4XNN0AZC&clickid=fc028959-d91d-4b43-856c-081dc64f9ed7,idfa_DD68CDA0-E4EA-465F-95C0-92E5E7127C05,ja
JLsfbwkDQ-C-dPjG5fRBcA,webeye,40228_,install,1.7,58.3.246.202,289D7CAC-2DF9-4132-8C02-44A823AF8E6A,1557496740,2019-05-10 21:59:00,1557581774,2019-05-11 21:36:14,1557581804,1bd181eb-ca5a-4478-a32d-e4d9dfa32a29,http://pb01.webeyemob.com/v1/ad/postback/?source=1342&key=4XNN0AZC&clickid=1bd181eb-ca5a-4478-a32d-e4d9dfa32a29,idfa_289D7CAC-2DF9-4132-8C02-44A823AF8E6A,ja
JLsfbwkDQ-C-dPjG5fRBcA,webeye,40228_,install,1.7,126.35.1.216,8D5E26B0-E992-4782-ABBB-900710D85CE1,1557440622,2019-05-10 06:23:42,1557484699,2019-05-10 18:38:19,1557484730,edcc26ff-be42-4520-a398-1115266d055a,http://pb01.webeyemob.com/v1/ad/postback/?source=1342&key=4XNN0AZC&clickid=edcc26ff-be42-4520-a398-1115266d055a,idfa_8D5E26B0-E992-4782-ABBB-900710D85CE1,ja
JLsfbwkDQ-C-dPjG5fRBcA,webeye,40228_,install,1.7,126.199.74.53,2795762B-0280-44BA-A20A-6757F4949B6D,1557495266,2019-05-10 21:34:26,1557588642,2019-05-11 23:30:42,1557588673,2f3a2436-1bac-46a5-a122-fcb108b9b5fc,http://pb01.webeyemob.com/v1/ad/postback/?source=1342&key=4XNN0AZC&clickid=2f3a2436-1bac-46a5-a122-fcb108b9b5fc,idfa_2795762B-0280-44BA-A20A-6757F4949B6D,ja
JLsfbwkDQ-C-dPjG5fRBcA,webeye,40228_,install,1.6,133.14.221.176,98BF0348-63F7-41DC-B952-6F5DEB9FE770,1557825525,2019-05-14 17:18:45,1557888757,2019-05-15 10:52:37,1557888787,d688df81-3913-4223-aba3-4f6eeca9755a,http://pb01.webeyemob.com/v1/ad/postback/?source=1342&key=4XNN0AZC&clickid=d688df81-3913-4223-aba3-4f6eeca9755a,idfa_98BF0348-63F7-41DC-B952-6F5DEB9FE770,ja
JLsfbwkDQ-C-dPjG5fRBcA,webeye,40228_,install,1.7,221.170.179.25,36A0241C-B257-482B-98D5-661C08187B37,1557384305,2019-05-09 14:45:05,1557737950,2019-05-13 16:59:10,1557737980,cca5f594-c3fe-4a7c-baae-d3878099f398,http://pb01.webeyemob.com/v1/ad/postback/?source=1342&key=4XNN0AZC&clickid=cca5f594-c3fe-4a7c-baae-d3878099f398,idfa_36A0241C-B257-482B-98D5-661C08187B37,ja
JLsfbwkDQ-C-dPjG5fRBcA,webeye,40228_,install,1.7,113.43.8.17,99F39C73-E349-40DF-B3D2-B97E2982BFA6,1557534334,2019-05-11 08:25:34,1557625023,2019-05-12 09:37:03,1557625053,1fdb55a6-7aba-43cc-a6d6-c64385ac96d2,http://pb01.webeyemob.com/v1/ad/postback/?source=1342&key=4XNN0AZC&clickid=1fdb55a6-7aba-43cc-a6d6-c64385ac96d2,idfa_99F39C73-E349-40DF-B3D2-B97E2982BFA6,ja
JLsfbwkDQ-C-dPjG5fRBcA,webeye,40228_,install,1.7,60.114.64.208,194D96B5-A71C-4925-894B-ABFFD7E641E2,1557636879,2019-05-12 12:54:39,1557743494,2019-05-13 18:31:34,1557743524,03c03bb4-dd2e-4761-9aa3-d65b10ec2472,http://pb01.webeyemob.com/v1/ad/postback/?source=1342&key=4XNN0AZC&clickid=03c03bb4-dd2e-4761-9aa3-d65b10ec2472,idfa_194D96B5-A71C-4925-894B-ABFFD7E641E2,ja
JLsfbwkDQ-C-dPjG5fRBcA,webeye,40228_,install,1.7,122.217.118.106,1FFC1C6F-6534-431A-934F-E58C72A51520,1557455802,2019-05-10 10:36:42,1557642095,2019-05-12 14:21:35,1557642125,b27e1bc9-516c-4919-9921-14341862267d,http://pb01.webeyemob.com/v1/ad/postback/?source=1342&key=4XNN0AZC&clickid=b27e1bc9-516c-4919-9921-14341862267d,idfa_1FFC1C6F-6534-431A-934F-E58C72A51520,ja
JLsfbwkDQ-C-dPjG5fRBcA,webeye,40228_,install,1.6,126.141.250.255,9D843CFC-A772-47A9-9529-962F2D56ADDB,1557479765,2019-05-10 17:16:05,1557756742,2019-05-13 22:12:22,1557756772,1b189377-059e-4498-91e0-a5e6b7f33861,http://pb01.webeyemob.com/v1/ad/postback/?source=1342&key=4XNN0AZC&clickid=1b189377-059e-4498-91e0-a5e6b7f33861,idfa_9D843CFC-A772-47A9-9529-962F2D56ADDB,ja
JLsfbwkDQ-C-dPjG5fRBcA,webeye,40228_,install,1.6,133.19.169.6,D6571C13-B7BC-4E23-BBFF-197A16D5CD7F,1557805518,2019-05-14 11:45:18,1557810325,2019-05-14 13:05:25,1557810355,0b30f536-597a-4ca9-a982-86ed89af4fd9,http://pb01.webeyemob.com/v1/ad/postback/?source=1342&key=4XNN0AZC&clickid=0b30f536-597a-4ca9-a982-86ed89af4fd9,idfa_D6571C13-B7BC-4E23-BBFF-197A16D5CD7F,ja
JLsfbwkDQ-C-dPjG5fRBcA,webeye,40228_,install,1.7,14.8.135.160,16ABE10D-7DB1-4D15-9D72-FC4E0E527002,1557438915,2019-05-10 05:55:15,1557624672,2019-05-12 09:31:12,1557624702,68634e1c-7d82-4d1a-b20e-5528af8e725c,http://pb01.webeyemob.com/v1/ad/postback/?source=1342&key=4XNN0AZC&clickid=68634e1c-7d82-4d1a-b20e-5528af8e725c,idfa_16ABE10D-7DB1-4D15-9D72-FC4E0E527002,ja
JLsfbwkDQ-C-dPjG5fRBcA,webeye,40228_,install,1.6,211.127.192.169,58CA217A-986C-4807-9B46-F14071255BBB,1557841948,2019-05-14 21:52:28,1557875219,2019-05-15 07:06:59,1557875249,67818812-eee9-44ca-a678-5319aba2c707,http://pb01.webeyemob.com/v1/ad/postback/?source=1342&key=4XNN0AZC&clickid=67818812-eee9-44ca-a678-5319aba2c707,idfa_58CA217A-986C-4807-9B46-F14071255BBB,ja
JLsfbwkDQ-C-dPjG5fRBcA,webeye,40228_,install,1.6,126.233.84.152,CD304490-3683-4A34-BADE-1B931CAFA690,1557763248,2019-05-14 00:00:48,1557892603,2019-05-15 11:56:43,1557892634,584b3f71-c6d2-44ef-a3b6-c4a84403812c,http://pb01.webeyemob.com/v1/ad/postback/?source=1342&key=4XNN0AZC&clickid=584b3f71-c6d2-44ef-a3b6-c4a84403812c,idfa_CD304490-3683-4A34-BADE-1B931CAFA690,ja
JLsfbwkDQ-C-dPjG5fRBcA,webeye,40228_,install,1.6,175.132.58.17,BC12B365-44C1-49EC-9DF3-F4A009535484,1557707570,2019-05-13 08:32:50,1557752367,2019-05-13 20:59:27,1557752397,8e9b94a3-6c6a-493a-8ebe-74a823bfcc05,http://pb01.webeyemob.com/v1/ad/postback/?source=1342&key=4XNN0AZC&clickid=8e9b94a3-6c6a-493a-8ebe-74a823bfcc05,idfa_BC12B365-44C1-49EC-9DF3-F4A009535484,ja
JLsfbwkDQ-C-dPjG5fRBcA,webeye,40228_,install,1.6,113.43.200.146,BE1BC515-D7AA-45C7-803E-4519C7C17B92,1557792132,2019-05-14 08:02:12,1557888252,2019-05-15 10:44:12,1557888282,576f3ee0-cd78-4f78-ae88-2585a583116b,http://pb01.webeyemob.com/v1/ad/postback/?source=1342&key=4XNN0AZC&clickid=576f3ee0-cd78-4f78-ae88-2585a583116b,idfa_BE1BC515-D7AA-45C7-803E-4519C7C17B92,ja
JLsfbwkDQ-C-dPjG5fRBcA,webeye,40228_,install,1.7,210.194.168.106,931729AA-1BBA-42D2-9622-CA2357B7582B,1557646691,2019-05-12 15:38:11,1557674779,2019-05-12 23:26:19,1557674809,54557cb4-3e2f-42f1-86d4-f5eb395574d1,http://pb01.webeyemob.com/v1/ad/postback/?source=1342&key=4XNN0AZC&clickid=54557cb4-3e2f-42f1-86d4-f5eb395574d1,idfa_931729AA-1BBA-42D2-9622-CA2357B7582B,ja
JLsfbwkDQ-C-dPjG5fRBcA,webeye,40228_,install,1.6,118.13.232.225,3349C0E2-3581-4CBF-96E2-3557C8068EFC,1557611994,2019-05-12 05:59:54,1557891809,2019-05-15 11:43:29,1557891839,794a5a84-f003-461d-a321-cf1c15cb45d1,http://pb01.webeyemob.com/v1/ad/postback/?source=1342&key=4XNN0AZC&clickid=794a5a84-f003-461d-a321-cf1c15cb45d1,idfa_3349C0E2-3581-4CBF-96E2-3557C8068EFC,ja
JLsfbwkDQ-C-dPjG5fRBcA,webeye,40228_,install,1.7,139.101.163.35,D1AAF9FC-A038-4DBB-A4E6-4256D00111E3,1557421912,2019-05-10 01:11:52,1557594503,2019-05-12 01:08:23,1557594533,8fe78d11-1aa6-4c40-9b86-8edd33c44fec,http://pb01.webeyemob.com/v1/ad/postback/?source=1342&key=4XNN0AZC&clickid=8fe78d11-1aa6-4c40-9b86-8edd33c44fec,idfa_D1AAF9FC-A038-4DBB-A4E6-4256D00111E3,ja
JLsfbwkDQ-C-dPjG5fRBcA,webeye,40228_,install,1.7,126.33.219.21,B0F1C7F0-0F76-4CBA-A402-3622EB79AD2C,1557676212,2019-05-12 23:50:12,1557682843,2019-05-13 01:40:43,1557682873,e4ff3ade-36da-44c0-9cb1-401f58e20fa4,http://pb01.webeyemob.com/v1/ad/postback/?source=1342&key=4XNN0AZC&clickid=e4ff3ade-36da-44c0-9cb1-401f58e20fa4,idfa_B0F1C7F0-0F76-4CBA-A402-3622EB79AD2C,ja
JLsfbwkDQ-C-dPjG5fRBcA,webeye,40228_,install,1.7,175.177.6.51,969D07E5-609E-4A08-B47C-DC1E070CD3A6,1557370847,2019-05-09 11:00:47,1557491340,2019-05-10 20:29:00,1557491371,665eecf9-335d-4191-b055-39edfe33b8c1,http://pb01.webeyemob.com/v1/ad/postback/?source=1342&key=4XNN0AZC&clickid=665eecf9-335d-4191-b055-39edfe33b8c1,idfa_969D07E5-609E-4A08-B47C-DC1E070CD3A6,ja
JLsfbwkDQ-C-dPjG5fRBcA,webeye,40228_,install,1.7,14.10.96.193,0BCE6C29-BFF8-48DE-8E6E-AE30351D18D2,1557613992,2019-05-12 06:33:12,1557628870,2019-05-12 10:41:10,1557628901,8306f8f1-9c93-4de7-9cd2-3836638a40bd,http://pb01.webeyemob.com/v1/ad/postback/?source=1342&key=4XNN0AZC&clickid=8306f8f1-9c93-4de7-9cd2-3836638a40bd,idfa_0BCE6C29-BFF8-48DE-8E6E-AE30351D18D2,ja
JLsfbwkDQ-C-dPjG5fRBcA,webeye,40228_,install,1.7,60.130.162.142,B82FEF62-C0B1-40F8-B1E1-B06B09C3CAEB,1557592332,2019-05-12 00:32:12,1557657766,2019-05-12 18:42:46,1557657796,edd64349-a85d-43ae-b3f4-ad687e34df9c,http://pb01.webeyemob.com/v1/ad/postback/?source=1342&key=4XNN0AZC&clickid=edd64349-a85d-43ae-b3f4-ad687e34df9c,idfa_B82FEF62-C0B1-40F8-B1E1-B06B09C3CAEB,ja
JLsfbwkDQ-C-dPjG5fRBcA,webeye,40228_,install,1.6,49.96.38.218,3184FC1C-AE5D-413F-BBCD-C180E4E9F1F9,1557825661,2019-05-14 17:21:01,1557843311,2019-05-14 22:15:11,1557843341,d5787014-c788-46ae-af9d-31151ea3c636,http://pb01.webeyemob.com/v1/ad/postback/?source=1342&key=4XNN0AZC&clickid=d5787014-c788-46ae-af9d-31151ea3c636,idfa_3184FC1C-AE5D-413F-BBCD-C180E4E9F1F9,ja
JLsfbwkDQ-C-dPjG5fRBcA,webeye,40228_,install,1.6,220.106.11.180,D98C347A-DB90-4599-B092-5D93E3182F8A,1557787939,2019-05-14 06:52:19,1557895060,2019-05-15 12:37:40,1557895090,77ab3dbe-d713-4f41-a2b0-f5f54bad9c09,http://pb01.webeyemob.com/v1/ad/postback/?source=1342&key=4XNN0AZC&clickid=77ab3dbe-d713-4f41-a2b0-f5f54bad9c09,idfa_D98C347A-DB90-4599-B092-5D93E3182F8A,ja
JLsfbwkDQ-C-dPjG5fRBcA,webeye,40228_,install,1.7,14.8.97.224,32457D27-F377-4A8A-A768-A08AF4EE43AF,1557621792,2019-05-12 08:43:12,1557625303,2019-05-12 09:41:43,1557625334,484efb91-6110-4a2f-b338-5c461660d5c0,http://pb01.webeyemob.com/v1/ad/postback/?source=1342&key=4XNN0AZC&clickid=484efb91-6110-4a2f-b338-5c461660d5c0,idfa_32457D27-F377-4A8A-A768-A08AF4EE43AF,ja
JLsfbwkDQ-C-dPjG5fRBcA,webeye,40228_,install,1.6,126.182.66.248,74AA628A-C3F6-4CA2-A9B4-B5EE2BC81B54,1557715701,2019-05-13 10:48:21,1557830696,2019-05-14 18:44:56,1557830727,12d2aa6f-bcc2-4171-929d-4d4904951162,http://pb01.webeyemob.com/v1/ad/postback/?source=1342&key=4XNN0AZC&clickid=12d2aa6f-bcc2-4171-929d-4d4904951162,idfa_74AA628A-C3F6-4CA2-A9B4-B5EE2BC81B54,ja
JLsfbwkDQ-C-dPjG5fRBcA,webeye,40228_,install,1.6,126.35.132.42,47FF2330-2549-414E-9004-CE0D2C4241DE,1557821945,2019-05-14 16:19:05,1557833834,2019-05-14 19:37:14,1557833864,fcedf878-7842-4914-9954-070bf099b555,http://pb01.webeyemob.com/v1/ad/postback/?source=1342&key=4XNN0AZC&clickid=fcedf878-7842-4914-9954-070bf099b555,idfa_47FF2330-2549-414E-9004-CE0D2C4241DE,ja
JLsfbwkDQ-C-dPjG5fRBcA,webeye,40228_,install,1.7,220.107.151.169,A3A55591-219D-470C-BAA4-C813FB02DFC7,1557317232,2019-05-08 20:07:12,1557397824,2019-05-09 18:30:24,1557397854,6e388507-74a5-4ca2-8d15-d7f74610c4be,http://pb01.webeyemob.com/v1/ad/postback/?source=1342&key=4XNN0AZC&clickid=6e388507-74a5-4ca2-8d15-d7f74610c4be,idfa_A3A55591-219D-470C-BAA4-C813FB02DFC7,ja
JLsfbwkDQ-C-dPjG5fRBcA,webeye,40228_,install,1.7,59.169.131.238,CC939708-285C-41CD-9525-D1E7499786DF,1557380066,2019-05-09 13:34:26,1557482493,2019-05-10 18:01:33,1557482524,643a1b91-51fe-4e8c-a122-42671378c76d,http://pb01.webeyemob.com/v1/ad/postback/?source=1342&key=4XNN0AZC&clickid=643a1b91-51fe-4e8c-a122-42671378c76d,idfa_CC939708-285C-41CD-9525-D1E7499786DF,ja
JLsfbwkDQ-C-dPjG5fRBcA,webeye,40228_,install,1.6,180.221.144.248,4789D9E3-93E8-4FDE-9567-84D49BA224CB,1557762289,2019-05-13 23:44:49,1557793913,2019-05-14 08:31:53,1557793943,80418c7d-d4a9-4058-93ad-80d73d360a13,http://pb01.webeyemob.com/v1/ad/postback/?source=1342&key=4XNN0AZC&clickid=80418c7d-d4a9-4058-93ad-80d73d360a13,idfa_4789D9E3-93E8-4FDE-9567-84D49BA224CB,ja
JLsfbwkDQ-C-dPjG5fRBcA,webeye,40228_,install,1.7,219.107.84.71,0847F3A3-0EC8-44BE-A9FE-DBFA727FCC69,1557315645,2019-05-08 19:40:45,1557326233,2019-05-08 22:37:13,1557326263,f0b9d135-fb0c-4384-95e4-401adc483fdb,http://pb01.webeyemob.com/v1/ad/postback/?source=1342&key=4XNN0AZC&clickid=f0b9d135-fb0c-4384-95e4-401adc483fdb,idfa_0847F3A3-0EC8-44BE-A9FE-DBFA727FCC69,ja
JLsfbwkDQ-C-dPjG5fRBcA,webeye,40228_,install,1.6,60.238.74.206,E729EE74-8180-4F1F-9C0D-F2CC07ABCCBC,1557654323,2019-05-12 17:45:23,1557751440,2019-05-13 20:44:00,1557751471,e382ee7c-3f7e-417b-b96c-a7634af5d9e5,http://pb01.webeyemob.com/v1/ad/postback/?source=1342&key=4XNN0AZC&clickid=e382ee7c-3f7e-417b-b96c-a7634af5d9e5,idfa_E729EE74-8180-4F1F-9C0D-F2CC07ABCCBC,ja
JLsfbwkDQ-C-dPjG5fRBcA,webeye,40228_,install,1.7,49.106.203.53,B5B223E3-07D4-4033-BF03-3AAECCB8B6E2,1557632594,2019-05-12 11:43:14,1557656937,2019-05-12 18:28:57,1557656967,6ea4895a-0a1a-4525-9714-a90478f6294e,http://pb01.webeyemob.com/v1/ad/postback/?source=1342&key=4XNN0AZC&clickid=6ea4895a-0a1a-4525-9714-a90478f6294e,idfa_B5B223E3-07D4-4033-BF03-3AAECCB8B6E2,ja
JLsfbwkDQ-C-dPjG5fRBcA,webeye,40228_,install,1.6,49.106.206.202,45037F49-8A8E-4DFC-83EB-2B01850DE29E,1557451224,2019-05-10 09:20:24,1557815716,2019-05-14 14:35:16,1557815746,d430a80a-0ec0-47ad-9096-97f43e672014,http://pb01.webeyemob.com/v1/ad/postback/?source=1342&key=4XNN0AZC&clickid=d430a80a-0ec0-47ad-9096-97f43e672014,idfa_45037F49-8A8E-4DFC-83EB-2B01850DE29E,ja
JLsfbwkDQ-C-dPjG5fRBcA,webeye,40228_,install,1.6,1.75.248.10,B7DE221F-B139-45F3-AC79-1666F75A2499,1557806404,2019-05-14 12:00:04,1557872488,2019-05-15 06:21:28,1557872518,5ef18157-2590-4b5d-80bc-48ae948e4d9f,http://pb01.webeyemob.com/v1/ad/postback/?source=1342&key=4XNN0AZC&clickid=5ef18157-2590-4b5d-80bc-48ae948e4d9f,idfa_B7DE221F-B139-45F3-AC79-1666F75A2499,ja
JLsfbwkDQ-C-dPjG5fRBcA,webeye,40228_,install,1.6,175.131.42.206,79E731B3-96A5-4E92-9A07-2BDFF04D7864,1557773110,2019-05-14 02:45:10,1557825721,2019-05-14 17:22:01,1557825751,4d34b6fa-dbaf-4ae1-87b9-bffa229cced1,http://pb01.webeyemob.com/v1/ad/postback/?source=1342&key=4XNN0AZC&clickid=4d34b6fa-dbaf-4ae1-87b9-bffa229cced1,idfa_79E731B3-96A5-4E92-9A07-2BDFF04D7864,ja
JLsfbwkDQ-C-dPjG5fRBcA,webeye,40228_,install,1.6,121.105.170.145,B5D211D2-3B73-4D78-9D10-E2758A697383,1557785525,2019-05-14 06:12:05,1557852691,2019-05-15 00:51:31,1557852721,3a64ee13-4c80-4232-80e9-785d6833d8f5,http://pb01.webeyemob.com/v1/ad/postback/?source=1342&key=4XNN0AZC&clickid=3a64ee13-4c80-4232-80e9-785d6833d8f5,idfa_B5D211D2-3B73-4D78-9D10-E2758A697383,ja
JLsfbwkDQ-C-dPjG5fRBcA,webeye,40228_,install,1.7,126.247.219.229,1593FFF2-3632-41A1-9265-E513910B6294,1557488091,2019-05-10 19:34:51,1557741075,2019-05-13 17:51:15,1557741105,52abf134-eecd-4071-b159-1907a47c8d59,http://pb01.webeyemob.com/v1/ad/postback/?source=1342&key=4XNN0AZC&clickid=52abf134-eecd-4071-b159-1907a47c8d59,idfa_1593FFF2-3632-41A1-9265-E513910B6294,ja
JLsfbwkDQ-C-dPjG5fRBcA,webeye,40228_,install,1.6,121.114.45.76,786B8522-CE76-4865-B3A5-156CA8EB4240,1557825183,2019-05-14 17:13:03,1557833695,2019-05-14 19:34:55,1557833725,8ffd9a0e-203f-4f43-a5a7-00f4220d3b76,http://pb01.webeyemob.com/v1/ad/postback/?source=1342&key=4XNN0AZC&clickid=8ffd9a0e-203f-4f43-a5a7-00f4220d3b76,idfa_786B8522-CE76-4865-B3A5-156CA8EB4240,ja
JLsfbwkDQ-C-dPjG5fRBcA,webeye,40228_,install,1.7,180.146.23.96,76DC593A-3232-4999-8D42-58B62F19CF1C,1557590982,2019-05-12 00:09:42,1557662855,2019-05-12 20:07:35,1557662886,87e675b4-57ed-4f63-96d7-331c9d711c80,http://pb01.webeyemob.com/v1/ad/postback/?source=1342&key=4XNN0AZC&clickid=87e675b4-57ed-4f63-96d7-331c9d711c80,idfa_76DC593A-3232-4999-8D42-58B62F19CF1C,ja
JLsfbwkDQ-C-dPjG5fRBcA,webeye,40228_,install,1.7,60.127.38.225,7AC65CDE-E171-42A6-8B94-C21913A5CEF6,1557555811,2019-05-11 14:23:31,1557742742,2019-05-13 18:19:02,1557742773,e2965017-9a53-42fe-a854-b3d3a07723a9,http://pb01.webeyemob.com/v1/ad/postback/?source=1342&key=4XNN0AZC&clickid=e2965017-9a53-42fe-a854-b3d3a07723a9,idfa_7AC65CDE-E171-42A6-8B94-C21913A5CEF6,ja
JLsfbwkDQ-C-dPjG5fRBcA,webeye,40228_,install,1.6,49.104.19.49,9624B97E-0128-4138-ADA1-797ED1301AC1,1557735231,2019-05-13 16:13:51,1557830441,2019-05-14 18:40:41,1557830472,dac4ca70-dec5-4e62-a4e7-f57859b71846,http://pb01.webeyemob.com/v1/ad/postback/?source=1342&key=4XNN0AZC&clickid=dac4ca70-dec5-4e62-a4e7-f57859b71846,idfa_9624B97E-0128-4138-ADA1-797ED1301AC1,ja
JLsfbwkDQ-C-dPjG5fRBcA,webeye,40228_,install,1.6,106.172.102.222,6A419D4C-57CC-46F6-8A8D-14CDA6CD7C04,1557649390,2019-05-12 16:23:10,1557752998,2019-05-13 21:09:58,1557753028,ee5c5642-4cb5-45cb-8e20-5713ed4585ae,http://pb01.webeyemob.com/v1/ad/postback/?source=1342&key=4XNN0AZC&clickid=ee5c5642-4cb5-45cb-8e20-5713ed4585ae,idfa_6A419D4C-57CC-46F6-8A8D-14CDA6CD7C04,ja
JLsfbwkDQ-C-dPjG5fRBcA,webeye,40228_,install,1.6,182.166.251.170,91E5D3F0-34FD-42D2-AAAB-213C0FA1C6F3,1557704446,2019-05-13 07:40:46,1557760278,2019-05-13 23:11:18,1557760308,a59e5c75-58cf-4b61-8d32-8fec56aba4de,http://pb01.webeyemob.com/v1/ad/postback/?source=1342&key=4XNN0AZC&clickid=a59e5c75-58cf-4b61-8d32-8fec56aba4de,idfa_91E5D3F0-34FD-42D2-AAAB-213C0FA1C6F3,ja
JLsfbwkDQ-C-dPjG5fRBcA,webeye,40228_,install,1.7,126.182.64.190,067A5FC9-B09C-4CB3-906C-1C4B4408EB3B,1557709348,2019-05-13 09:02:28,1557736251,2019-05-13 16:30:51,1557736281,d54c7818-45fe-4e51-ab32-e26fb004e3f4,http://pb01.webeyemob.com/v1/ad/postback/?source=1342&key=4XNN0AZC&clickid=d54c7818-45fe-4e51-ab32-e26fb004e3f4,idfa_067A5FC9-B09C-4CB3-906C-1C4B4408EB3B,ja
JLsfbwkDQ-C-dPjG5fRBcA,webeye,40228_,install,1.6,126.35.18.39,BB187DA8-EABE-4DC7-9ECE-A9337C1EB893,1557713516,2019-05-13 10:11:56,1557893820,2019-05-15 12:17:00,1557893851,48b429fb-626f-4a13-bd40-a7df9ff02bde,http://pb01.webeyemob.com/v1/ad/postback/?source=1342&key=4XNN0AZC&clickid=48b429fb-626f-4a13-bd40-a7df9ff02bde,idfa_BB187DA8-EABE-4DC7-9ECE-A9337C1EB893,ja
JLsfbwkDQ-C-dPjG5fRBcA,webeye,40228_,install,1.7,219.118.140.237,1F315C5B-9AC6-49F0-A2BD-45A45E0E040D,1557495206,2019-05-10 21:33:26,1557531126,2019-05-11 07:32:06,1557531156,9433aa67-859e-4f93-8d2b-b82c81c9d25c,http://pb01.webeyemob.com/v1/ad/postback/?source=1342&key=4XNN0AZC&clickid=9433aa67-859e-4f93-8d2b-b82c81c9d25c,idfa_1F315C5B-9AC6-49F0-A2BD-45A45E0E040D,ja
JLsfbwkDQ-C-dPjG5fRBcA,webeye,40228_,install,1.6,180.199.232.2,7BCA7484-FADA-4A54-A374-7FE70B6F4B0A,1557728125,2019-05-13 14:15:25,1557749882,2019-05-13 20:18:02,1557749913,ece7b30f-f4f4-498e-8e20-1d1f90dd180e,http://pb01.webeyemob.com/v1/ad/postback/?source=1342&key=4XNN0AZC&clickid=ece7b30f-f4f4-498e-8e20-1d1f90dd180e,idfa_7BCA7484-FADA-4A54-A374-7FE70B6F4B0A,ja
JLsfbwkDQ-C-dPjG5fRBcA,webeye,40228_,install,1.7,60.130.199.148,7DCF50B6-9BB5-47A4-AE01-53EB7D2B5D45,1557591810,2019-05-12 00:23:30,1557599222,2019-05-12 02:27:02,1557599252,05dc7e1a-d2aa-4f50-adcb-7ed8ef16f2c1,http://pb01.webeyemob.com/v1/ad/postback/?source=1342&key=4XNN0AZC&clickid=05dc7e1a-d2aa-4f50-adcb-7ed8ef16f2c1,idfa_7DCF50B6-9BB5-47A4-AE01-53EB7D2B5D45,ja
JLsfbwkDQ-C-dPjG5fRBcA,webeye,40228_,install,1.6,126.199.80.118,D09E82AE-290B-4885-9DC3-6C0D4A6D8FB4,1557707938,2019-05-13 08:38:58,1557749814,2019-05-13 20:16:54,1557749844,5c9a13d4-15ed-4465-9aba-06c9cb992e5b,http://pb01.webeyemob.com/v1/ad/postback/?source=1342&key=4XNN0AZC&clickid=5c9a13d4-15ed-4465-9aba-06c9cb992e5b,idfa_D09E82AE-290B-4885-9DC3-6C0D4A6D8FB4,ja
JLsfbwkDQ-C-dPjG5fRBcA,webeye,40228_,install,1.7,106.180.51.242,32FAEDBA-417A-45DB-8CCE-19A72A96F2E5,1557645611,2019-05-12 15:20:11,1557734543,2019-05-13 16:02:23,1557734573,1a039edd-4d37-41a8-aca3-05699b2d1dad,http://pb01.webeyemob.com/v1/ad/postback/?source=1342&key=4XNN0AZC&clickid=1a039edd-4d37-41a8-aca3-05699b2d1dad,idfa_32FAEDBA-417A-45DB-8CCE-19A72A96F2E5,ja
JLsfbwkDQ-C-dPjG5fRBcA,webeye,40228_,install,1.7,112.139.53.96,FA4A72D9-A5C7-4730-BDB5-B7126650175E,1557470636,2019-05-10 14:43:56,1557527889,2019-05-11 06:38:09,1557527919,879d75ab-1303-4039-9eb5-b198e1df33c3,http://pb01.webeyemob.com/v1/ad/postback/?source=1342&key=4XNN0AZC&clickid=879d75ab-1303-4039-9eb5-b198e1df33c3,idfa_FA4A72D9-A5C7-4730-BDB5-B7126650175E,ja
JLsfbwkDQ-C-dPjG5fRBcA,webeye,40228_,install,1.6,180.0.0.67,FF8199A7-955F-485E-81EB-84DB6B0C9778,1557735574,2019-05-13 16:19:34,1557854075,2019-05-15 01:14:35,1557854105,0d91accd-54df-4e56-b7b1-efe33b261586,http://pb01.webeyemob.com/v1/ad/postback/?source=1342&key=4XNN0AZC&clickid=0d91accd-54df-4e56-b7b1-efe33b261586,idfa_FF8199A7-955F-485E-81EB-84DB6B0C9778,ja
JLsfbwkDQ-C-dPjG5fRBcA,webeye,40228_,install,1.7,126.75.254.13,4F78694F-9D58-430D-B41F-9B5D4DE8083A,1557374014,2019-05-09 11:53:34,1557406612,2019-05-09 20:56:52,1557406643,386e7e45-7596-42aa-814f-2cf68425149a,http://pb01.webeyemob.com/v1/ad/postback/?source=1342&key=4XNN0AZC&clickid=386e7e45-7596-42aa-814f-2cf68425149a,idfa_4F78694F-9D58-430D-B41F-9B5D4DE8083A,ja
JLsfbwkDQ-C-dPjG5fRBcA,webeye,40228_,install,1.7,113.41.181.35,62BF4782-1F1A-47DE-93CB-225A93FAD8AF,1557423786,2019-05-10 01:43:06,1557480343,2019-05-10 17:25:43,1557480373,7279ff34-3b2a-4e9e-bbae-2f0e620bd13a,http://pb01.webeyemob.com/v1/ad/postback/?source=1342&key=4XNN0AZC&clickid=7279ff34-3b2a-4e9e-bbae-2f0e620bd13a,idfa_62BF4782-1F1A-47DE-93CB-225A93FAD8AF,ja
JLsfbwkDQ-C-dPjG5fRBcA,webeye,40228_,install,1.7,126.233.149.135,D2678A27-71BF-4BA5-B4C1-60336F9E1EA6,1557697124,2019-05-13 05:38:44,1557718988,2019-05-13 11:43:08,1557719018,6a6f3baf-38a2-4211-9caf-afe9ab85ef1b,http://pb01.webeyemob.com/v1/ad/postback/?source=1342&key=4XNN0AZC&clickid=6a6f3baf-38a2-4211-9caf-afe9ab85ef1b,idfa_D2678A27-71BF-4BA5-B4C1-60336F9E1EA6,ja
JLsfbwkDQ-C-dPjG5fRBcA,webeye,40228_,install,1.7,126.193.85.32,0E96E2E9-77E1-4FC8-88A2-42850A3FC72B,1557461594,2019-05-10 12:13:14,1557551959,2019-05-11 13:19:19,1557551990,ff7f9cd0-1504-43f0-affb-e2a84e1a89f4,http://pb01.webeyemob.com/v1/ad/postback/?source=1342&key=4XNN0AZC&clickid=ff7f9cd0-1504-43f0-affb-e2a84e1a89f4,idfa_0E96E2E9-77E1-4FC8-88A2-42850A3FC72B,ja
JLsfbwkDQ-C-dPjG5fRBcA,webeye,40228_,install,1.6,106.130.132.28,4437B314-2CCA-4C4E-A11C-D5CC2E0F5720,1557838125,2019-05-14 20:48:45,1557853337,2019-05-15 01:02:17,1557853367,3e574a50-16af-4c04-a198-d56e952169a1,http://pb01.webeyemob.com/v1/ad/postback/?source=1342&key=4XNN0AZC&clickid=3e574a50-16af-4c04-a198-d56e952169a1,idfa_4437B314-2CCA-4C4E-A11C-D5CC2E0F5720,ja
JLsfbwkDQ-C-dPjG5fRBcA,webeye,40228_,install,1.7,126.199.150.129,BAC4ED7F-3000-464A-AB50-D6E33B78948C,1557706162,2019-05-13 08:09:22,1557712977,2019-05-13 10:02:57,1557713008,1002152c-ee76-4f43-856e-2416da47d61c,http://pb01.webeyemob.com/v1/ad/postback/?source=1342&key=4XNN0AZC&clickid=1002152c-ee76-4f43-856e-2416da47d61c,idfa_BAC4ED7F-3000-464A-AB50-D6E33B78948C,ja
JLsfbwkDQ-C-dPjG5fRBcA,webeye,40228_,install,1.7,126.243.76.173,96B7A1A9-77E4-4AD7-B59D-1F6B0156A873,1557496057,2019-05-10 21:47:37,1557640784,2019-05-12 13:59:44,1557640815,45e1659b-bd68-4998-900f-15186ef3a140,http://pb01.webeyemob.com/v1/ad/postback/?source=1342&key=4XNN0AZC&clickid=45e1659b-bd68-4998-900f-15186ef3a140,idfa_96B7A1A9-77E4-4AD7-B59D-1F6B0156A873,ja
JLsfbwkDQ-C-dPjG5fRBcA,webeye,40228_,install,1.6,126.193.3.125,5E7A18D6-DD30-4146-9224-745778F206F4,1557798985,2019-05-14 09:56:25,1557844537,2019-05-14 22:35:37,1557844567,4e79441c-9dac-4c0b-99b3-aad06b060adf,http://pb01.webeyemob.com/v1/ad/postback/?source=1342&key=4XNN0AZC&clickid=4e79441c-9dac-4c0b-99b3-aad06b060adf,idfa_5E7A18D6-DD30-4146-9224-745778F206F4,ja
JLsfbwkDQ-C-dPjG5fRBcA,webeye,40228_,install,1.7,49.98.55.2,64251627-29A8-42B2-B3DC-F3FB5C4D5B37,1557435518,2019-05-10 04:58:38,1557557524,2019-05-11 14:52:04,1557557555,35a26b72-14ef-4473-a615-79eb1b3dea67,http://pb01.webeyemob.com/v1/ad/postback/?source=1342&key=4XNN0AZC&clickid=35a26b72-14ef-4473-a615-79eb1b3dea67,idfa_64251627-29A8-42B2-B3DC-F3FB5C4D5B37,ja
JLsfbwkDQ-C-dPjG5fRBcA,webeye,40228_,install,1.7,1.0.72.241,0BA15A74-17BC-40A8-A517-43D256FBEA62,1557544678,2019-05-11 11:17:58,1557549733,2019-05-11 12:42:13,1557549763,565369ad-5402-4335-8075-9be0412ef350,http://pb01.webeyemob.com/v1/ad/postback/?source=1342&key=4XNN0AZC&clickid=565369ad-5402-4335-8075-9be0412ef350,idfa_0BA15A74-17BC-40A8-A517-43D256FBEA62,ja
JLsfbwkDQ-C-dPjG5fRBcA,webeye,40228_,install,1.6,1.75.10.13,5DC0E574-4680-4DD2-B38F-55710B8FF144,1557647292,2019-05-12 15:48:12,1557888733,2019-05-15 10:52:13,1557888763,b2b4a48a-ec9e-45f9-955e-d0e6e80cf5c8,http://pb01.webeyemob.com/v1/ad/postback/?source=1342&key=4XNN0AZC&clickid=b2b4a48a-ec9e-45f9-955e-d0e6e80cf5c8,idfa_5DC0E574-4680-4DD2-B38F-55710B8FF144,ja
JLsfbwkDQ-C-dPjG5fRBcA,webeye,40228_,install,1.6,106.132.86.128,26C0DF34-69B2-40B0-8DA7-5DBAFF96AC08,1557719499,2019-05-13 11:51:39,1557891971,2019-05-15 11:46:11,1557892001,157c2349-5928-465f-bb4d-3c7c0e98fb46,http://pb01.webeyemob.com/v1/ad/postback/?source=1342&key=4XNN0AZC&clickid=157c2349-5928-465f-bb4d-3c7c0e98fb46,idfa_26C0DF34-69B2-40B0-8DA7-5DBAFF96AC08,ja
JLsfbwkDQ-C-dPjG5fRBcA,webeye,40228_,install,1.6,126.94.224.161,142D6D65-9244-4493-A675-55B0D1F1D7F9,1557838294,2019-05-14 20:51:34,1557841653,2019-05-14 21:47:33,1557841683,c301fb17-75f2-4d2a-9e62-7de21447eb6a,http://pb01.webeyemob.com/v1/ad/postback/?source=1342&key=4XNN0AZC&clickid=c301fb17-75f2-4d2a-9e62-7de21447eb6a,idfa_142D6D65-9244-4493-A675-55B0D1F1D7F9,ja
JLsfbwkDQ-C-dPjG5fRBcA,webeye,40228_,install,1.7,126.35.135.130,05D2E1E2-4E38-4168-8A72-FBCABF8560F0,1557535151,2019-05-11 08:39:11,1557624527,2019-05-12 09:28:47,1557624557,e628a130-90ed-4b8d-8c32-8cbec5f86431,http://pb01.webeyemob.com/v1/ad/postback/?source=1342&key=4XNN0AZC&clickid=e628a130-90ed-4b8d-8c32-8cbec5f86431,idfa_05D2E1E2-4E38-4168-8A72-FBCABF8560F0,ja
JLsfbwkDQ-C-dPjG5fRBcA,webeye,40228_,install,1.6,111.239.180.251,9B003CC8-B714-4CA2-8264-37C403E4B65C,1557313906,2019-05-08 19:11:46,1557840401,2019-05-14 21:26:41,1557840431,6bd84341-db26-4e4b-a9b5-b2668f57d367,http://pb01.webeyemob.com/v1/ad/postback/?source=1342&key=4XNN0AZC&clickid=6bd84341-db26-4e4b-a9b5-b2668f57d367,idfa_9B003CC8-B714-4CA2-8264-37C403E4B65C,ja
