cid,partner_id,channel_id,action_id,cpi,ip,idfa,click time,click datetime,install time,install datetime,postback time,click id,postback url,unique user id
4w8utVQHQv-gzvCKdrqXlQ,webeye,10418_,Install,0.624385,114.5.144.161,56148199-292a-4e20-9d64-08fe843974c6,1558683156,2019-05-24 15:32:36,1558683223,2019-05-24 15:33:43,1558683254,b57b4573-41a4-48c7-8088-09aae51ef246,http://pb01.webeyemob.com/v1/ad/postback/?source=1342&key=4XNN0AZC&clickid=b57b4573-41a4-48c7-8088-09aae51ef246,idfa_56148199-292a-4e20-9d64-08fe843974c6,Bahasa%20Indonesia
4w8utVQHQv-gzvCKdrqXlQ,webeye,10418_,Install,0.624385,114.125.85.213,3edea9e0-565d-428f-be24-50ad39b096ba,1558683448,2019-05-24 15:37:28,1558683561,2019-05-24 15:39:21,1558683592,c52e88c2-8bff-4b44-a00d-18360a9ccd9e,http://pb01.webeyemob.com/v1/ad/postback/?source=1342&key=4XNN0AZC&clickid=c52e88c2-8bff-4b44-a00d-18360a9ccd9e,idfa_3edea9e0-565d-428f-be24-50ad39b096ba,Bahasa%20Indonesia
4w8utVQHQv-gzvCKdrqXlQ,webeye,10418_,Install,0.624385,223.255.225.74,abb50129-10d9-4fe5-aceb-d5019ef9e33b,1558684073,2019-05-24 15:47:53,1558684124,2019-05-24 15:48:44,1558684155,3c3efde2-e7ee-4c7a-8088-8cfa289b8596,http://pb01.webeyemob.com/v1/ad/postback/?source=1342&key=4XNN0AZC&clickid=3c3efde2-e7ee-4c7a-8088-8cfa289b8596,idfa_abb50129-10d9-4fe5-aceb-d5019ef9e33b,Indonesia
4w8utVQHQv-gzvCKdrqXlQ,webeye,10418_,Install,0.624385,114.124.198.179,73255bcb-6476-42d5-8875-41d442a971e8,1558683450,2019-05-24 15:37:30,1558683554,2019-05-24 15:39:14,1558683585,fc5f5714-234c-4955-95f8-c3ab05a76df8,http://pb01.webeyemob.com/v1/ad/postback/?source=1342&key=4XNN0AZC&clickid=fc5f5714-234c-4955-95f8-c3ab05a76df8,idfa_73255bcb-6476-42d5-8875-41d442a971e8,Bahasa%20Indonesia
4w8utVQHQv-gzvCKdrqXlQ,webeye,10418_,Install,0.624385,114.124.239.118,e77b9722-33cf-4b20-9ace-12d0c4da35a3,1558683327,2019-05-24 15:35:27,1558683403,2019-05-24 15:36:43,1558683434,21a32833-e41e-4c69-befb-b635484d008a,http://pb01.webeyemob.com/v1/ad/postback/?source=1342&key=4XNN0AZC&clickid=21a32833-e41e-4c69-befb-b635484d008a,idfa_e77b9722-33cf-4b20-9ace-12d0c4da35a3,Indonesia
4w8utVQHQv-gzvCKdrqXlQ,webeye,10418_,Install,0.624385,115.178.255.79,dff1bb9d-907b-4d31-904d-d751e15de8ab,1558683164,2019-05-24 15:32:44,1558683240,2019-05-24 15:34:00,1558683270,fb9645a0-9583-40b1-941e-2ab17f3e2f19,http://pb01.webeyemob.com/v1/ad/postback/?source=1342&key=4XNN0AZC&clickid=fb9645a0-9583-40b1-941e-2ab17f3e2f19,idfa_dff1bb9d-907b-4d31-904d-d751e15de8ab,Bahasa%20Indonesia
4w8utVQHQv-gzvCKdrqXlQ,webeye,10418_,Install,0.624385,114.4.220.89,adc55c4f-cfca-4a65-9bfd-ecc3dd62f9bf,1558686524,2019-05-24 16:28:44,1558686536,2019-05-24 16:28:56,1558686570,d28bfc56-b190-46c0-8cb6-c95522733d6c,http://pb01.webeyemob.com/v1/ad/postback/?source=1342&key=4XNN0AZC&clickid=d28bfc56-b190-46c0-8cb6-c95522733d6c,idfa_adc55c4f-cfca-4a65-9bfd-ecc3dd62f9bf,Bahasa%20Indonesia
4w8utVQHQv-gzvCKdrqXlQ,webeye,10418_,Install,0.624385,115.178.237.143,1514de86-59eb-4e6e-9087-5d8e4b961761,1558683285,2019-05-24 15:34:45,1558683357,2019-05-24 15:35:57,1558683447,7c14633b-c8db-4a18-94e3-bc70f70b8c4f,http://pb01.webeyemob.com/v1/ad/postback/?source=1342&key=4XNN0AZC&clickid=7c14633b-c8db-4a18-94e3-bc70f70b8c4f,idfa_1514de86-59eb-4e6e-9087-5d8e4b961761,Indonesia
4w8utVQHQv-gzvCKdrqXlQ,webeye,10418_,Install,0.624385,114.5.223.67,5aa8682c-48f3-4650-8c03-e3764af1b2cc,1558683331,2019-05-24 15:35:31,1558683412,2019-05-24 15:36:52,1558683443,78775934-acce-4b14-9a7d-7d503170ad03,http://pb01.webeyemob.com/v1/ad/postback/?source=1342&key=4XNN0AZC&clickid=78775934-acce-4b14-9a7d-7d503170ad03,idfa_5aa8682c-48f3-4650-8c03-e3764af1b2cc,Indonesia
4w8utVQHQv-gzvCKdrqXlQ,webeye,10418_,Install,0.624385,115.178.234.149,3202ff9c-0b78-45e2-8f93-df14ad085f4f,1558683367,2019-05-24 15:36:07,1558683413,2019-05-24 15:36:53,1558683444,4b85547b-8b2c-40a1-8c1d-2686fab8a46e,http://pb01.webeyemob.com/v1/ad/postback/?source=1342&key=4XNN0AZC&clickid=4b85547b-8b2c-40a1-8c1d-2686fab8a46e,idfa_3202ff9c-0b78-45e2-8f93-df14ad085f4f,Indonesia
4w8utVQHQv-gzvCKdrqXlQ,webeye,10418_,Install,0.624385,182.0.209.108,b769bead-0d9c-4f1d-9d0b-13a37bfeab44,1558683275,2019-05-24 15:34:35,1558683352,2019-05-24 15:35:52,1558683382,65286b25-c4c3-4379-9d51-f60ef4bc082d,http://pb01.webeyemob.com/v1/ad/postback/?source=1342&key=4XNN0AZC&clickid=65286b25-c4c3-4379-9d51-f60ef4bc082d,idfa_b769bead-0d9c-4f1d-9d0b-13a37bfeab44,Indonesia
4w8utVQHQv-gzvCKdrqXlQ,webeye,10418_,Install,0.624385,118.96.206.191,a5ba1bf3-7eb4-4067-9d8b-60ac76b6eb73,1558683210,2019-05-24 15:33:30,1558683284,2019-05-24 15:34:44,1558683316,e297f792-9460-4af2-8522-c2dd1c10fe1b,http://pb01.webeyemob.com/v1/ad/postback/?source=1342&key=4XNN0AZC&clickid=e297f792-9460-4af2-8522-c2dd1c10fe1b,idfa_a5ba1bf3-7eb4-4067-9d8b-60ac76b6eb73,Indonesia
4w8utVQHQv-gzvCKdrqXlQ,webeye,10418_,Install,0.624385,115.178.252.56,a5c230d9-b6c9-4952-968e-c2075006da70,1558683397,2019-05-24 15:36:37,1558683474,2019-05-24 15:37:54,1558683505,64298f59-8b53-4fbf-a66c-0c0104defd75,http://pb01.webeyemob.com/v1/ad/postback/?source=1342&key=4XNN0AZC&clickid=64298f59-8b53-4fbf-a66c-0c0104defd75,idfa_a5c230d9-b6c9-4952-968e-c2075006da70,Indonesia
4w8utVQHQv-gzvCKdrqXlQ,webeye,10418_,Install,0.624385,36.74.98.7,2c4ce0ab-58dc-4ba9-be97-e97f971fc35e,1558683333,2019-05-24 15:35:33,1558683409,2019-05-24 15:36:49,1558683441,33513ae6-2a0f-4544-b01a-bba7bd754eee,http://pb01.webeyemob.com/v1/ad/postback/?source=1342&key=4XNN0AZC&clickid=33513ae6-2a0f-4544-b01a-bba7bd754eee,idfa_2c4ce0ab-58dc-4ba9-be97-e97f971fc35e,Indonesia
4w8utVQHQv-gzvCKdrqXlQ,webeye,10418_,Install,0.624385,182.1.218.173,731a82cd-47cd-491c-9119-f8c8092e9844,1558683199,2019-05-24 15:33:19,1558683691,2019-05-24 15:41:31,1558683722,8c84b632-0e46-447c-b765-288d3eccc4cd,http://pb01.webeyemob.com/v1/ad/postback/?source=1342&key=4XNN0AZC&clickid=8c84b632-0e46-447c-b765-288d3eccc4cd,idfa_731a82cd-47cd-491c-9119-f8c8092e9844,Bahasa%20Indonesia
4w8utVQHQv-gzvCKdrqXlQ,webeye,10418_,Install,0.624385,182.1.122.184,6f9b3e8f-ec5c-4740-9dfc-4a9d6a4d726a,1558683453,2019-05-24 15:37:33,1558683538,2019-05-24 15:38:58,1558683571,70b2a1e9-f9e3-45bb-8482-8df935a72239,http://pb01.webeyemob.com/v1/ad/postback/?source=1342&key=4XNN0AZC&clickid=70b2a1e9-f9e3-45bb-8482-8df935a72239,idfa_6f9b3e8f-ec5c-4740-9dfc-4a9d6a4d726a,Bahasa%20Indonesia
4w8utVQHQv-gzvCKdrqXlQ,webeye,10418_,Install,0.624385,114.125.43.155,494fa547-573d-41c4-a7a1-0065c3d39f6b,1558683275,2019-05-24 15:34:35,1558683354,2019-05-24 15:35:54,1558683386,7b0de5de-1dad-4246-917d-4f116f662259,http://pb01.webeyemob.com/v1/ad/postback/?source=1342&key=4XNN0AZC&clickid=7b0de5de-1dad-4246-917d-4f116f662259,idfa_494fa547-573d-41c4-a7a1-0065c3d39f6b,English
4w8utVQHQv-gzvCKdrqXlQ,webeye,10418_,Install,0.624385,182.1.18.56,1c52a7ea-12e3-4b21-8ce3-59477ee8fb62,1558686292,2019-05-24 16:24:52,1558686533,2019-05-24 16:28:53,1558686564,6ef46b11-c639-4a65-b887-251411e0fb76,http://pb01.webeyemob.com/v1/ad/postback/?source=1342&key=4XNN0AZC&clickid=6ef46b11-c639-4a65-b887-251411e0fb76,idfa_1c52a7ea-12e3-4b21-8ce3-59477ee8fb62,Bahasa%20Indonesia
4w8utVQHQv-gzvCKdrqXlQ,webeye,10418_,Install,0.624385,182.1.174.88,6f5adb97-8a37-4263-9c63-fd0c537a7cb9,1558683173,2019-05-24 15:32:53,1558683232,2019-05-24 15:33:52,1558683264,7b884594-0037-434e-8f34-5c276f946b8d,http://pb01.webeyemob.com/v1/ad/postback/?source=1342&key=4XNN0AZC&clickid=7b884594-0037-434e-8f34-5c276f946b8d,idfa_6f5adb97-8a37-4263-9c63-fd0c537a7cb9,Bahasa%20Indonesia
4w8utVQHQv-gzvCKdrqXlQ,webeye,10418_,Install,0.624385,116.206.14.10,6637837f-68d0-4e92-b89a-df02d6710e13,1558683209,2019-05-24 15:33:29,1558683287,2019-05-24 15:34:47,1558683318,d9196ee9-6df5-4f3e-9f2d-f2c6f0a4125b,http://pb01.webeyemob.com/v1/ad/postback/?source=1342&key=4XNN0AZC&clickid=d9196ee9-6df5-4f3e-9f2d-f2c6f0a4125b,idfa_6637837f-68d0-4e92-b89a-df02d6710e13,Bahasa%20Indonesia
4w8utVQHQv-gzvCKdrqXlQ,webeye,10418_,Install,0.624385,116.206.33.59,54a01f71-e47d-4df8-a73a-87d5e6ff1219,1558683396,2019-05-24 15:36:36,1558683461,2019-05-24 15:37:41,1558683492,79821966-6d06-422b-9ead-805615d3430d,http://pb01.webeyemob.com/v1/ad/postback/?source=1342&key=4XNN0AZC&clickid=79821966-6d06-422b-9ead-805615d3430d,idfa_54a01f71-e47d-4df8-a73a-87d5e6ff1219,Bahasa%20Indonesia
4w8utVQHQv-gzvCKdrqXlQ,webeye,10418_,Install,0.624385,180.245.187.232,88b16bf9-f34b-4e3f-b810-91e3153622e8,1558683328,2019-05-24 15:35:28,1558683406,2019-05-24 15:36:46,1558683436,6ff26b47-fdbe-4eb6-a969-3276c274f7cb,http://pb01.webeyemob.com/v1/ad/postback/?source=1342&key=4XNN0AZC&clickid=6ff26b47-fdbe-4eb6-a969-3276c274f7cb,idfa_88b16bf9-f34b-4e3f-b810-91e3153622e8,Indonesia
4w8utVQHQv-gzvCKdrqXlQ,webeye,10418_,Install,0.624385,36.75.195.116,075bb938-2ec5-45c3-93a9-22aaf62a2c4d,1558683455,2019-05-24 15:37:35,1558683528,2019-05-24 15:38:48,1558683560,80396fcf-4524-48b3-9fe3-d0395218d0dc,http://pb01.webeyemob.com/v1/ad/postback/?source=1342&key=4XNN0AZC&clickid=80396fcf-4524-48b3-9fe3-d0395218d0dc,idfa_075bb938-2ec5-45c3-93a9-22aaf62a2c4d,Bahasa%20Indonesia
4w8utVQHQv-gzvCKdrqXlQ,webeye,10418_,Install,0.624385,36.84.242.116,bcf92948-3eb9-4be7-a072-7c47b28099b0,1558683385,2019-05-24 15:36:25,1558683464,2019-05-24 15:37:44,1558683496,db8d5c30-4dac-4d89-87ea-0dcd8d200799,http://pb01.webeyemob.com/v1/ad/postback/?source=1342&key=4XNN0AZC&clickid=db8d5c30-4dac-4d89-87ea-0dcd8d200799,idfa_bcf92948-3eb9-4be7-a072-7c47b28099b0,Indonesia
4w8utVQHQv-gzvCKdrqXlQ,webeye,10418_,Install,0.624385,36.70.244.165,305469c5-15d4-4422-840b-9b7775a49d43,1558683276,2019-05-24 15:34:36,1558687338,2019-05-24 16:42:18,1558687369,8dfb59d9-4e92-4edc-a2e7-b51f5c468955,http://pb01.webeyemob.com/v1/ad/postback/?source=1342&key=4XNN0AZC&clickid=8dfb59d9-4e92-4edc-a2e7-b51f5c468955,idfa_305469c5-15d4-4422-840b-9b7775a49d43,English
4w8utVQHQv-gzvCKdrqXlQ,webeye,10418_,Install,0.624385,202.80.215.129,03bc488b-06e0-442e-9680-6a12a255f159,1558686134,2019-05-24 16:22:14,1558686460,2019-05-24 16:27:40,1558686491,169a88a1-9062-406d-9ae0-6ec365518dd3,http://pb01.webeyemob.com/v1/ad/postback/?source=1342&key=4XNN0AZC&clickid=169a88a1-9062-406d-9ae0-6ec365518dd3,idfa_03bc488b-06e0-442e-9680-6a12a255f159,Indonesia
4w8utVQHQv-gzvCKdrqXlQ,webeye,10418_,Install,0.624385,115.178.221.90,64dd6afc-9abc-4dce-98ba-891840313577,1558683381,2019-05-24 15:36:21,1558683408,2019-05-24 15:36:48,1558683439,c7921d8d-803b-4180-b2a6-160083087c12,http://pb01.webeyemob.com/v1/ad/postback/?source=1342&key=4XNN0AZC&clickid=c7921d8d-803b-4180-b2a6-160083087c12,idfa_64dd6afc-9abc-4dce-98ba-891840313577,Bahasa%20Indonesia
4w8utVQHQv-gzvCKdrqXlQ,webeye,10418_,Install,0.624385,36.70.143.56,0a12e59d-a629-494e-86c8-f40a65806588,1558676915,2019-05-24 13:48:35,1558676928,2019-05-24 13:48:48,1558676959,b6fd34f4-759d-4e44-b800-9f1e3cab1dc7,http://pb01.webeyemob.com/v1/ad/postback/?source=1342&key=4XNN0AZC&clickid=b6fd34f4-759d-4e44-b800-9f1e3cab1dc7,idfa_0a12e59d-a629-494e-86c8-f40a65806588,English
4w8utVQHQv-gzvCKdrqXlQ,webeye,10418_,Install,0.624385,182.1.223.241,dd99f810-b05d-4492-aceb-ee83b2e05193,1558683388,2019-05-24 15:36:28,1558683459,2019-05-24 15:37:39,1558683490,4659546f-b45f-4dc9-af36-0c2092483a19,http://pb01.webeyemob.com/v1/ad/postback/?source=1342&key=4XNN0AZC&clickid=4659546f-b45f-4dc9-af36-0c2092483a19,idfa_dd99f810-b05d-4492-aceb-ee83b2e05193,Indonesia
4w8utVQHQv-gzvCKdrqXlQ,webeye,10418_,Install,0.624385,115.178.203.106,c7f2b1af-aca1-4016-aefe-0d179d8d606a,1558683150,2019-05-24 15:32:30,1558683230,2019-05-24 15:33:50,1558683261,7abdec6d-15c2-4dfb-b076-490e1d62670a,http://pb01.webeyemob.com/v1/ad/postback/?source=1342&key=4XNN0AZC&clickid=7abdec6d-15c2-4dfb-b076-490e1d62670a,idfa_c7f2b1af-aca1-4016-aefe-0d179d8d606a,Indonesia
4w8utVQHQv-gzvCKdrqXlQ,webeye,10418_,Install,0.624385,182.1.33.192,daf2c305-d588-47cb-92c1-6123fc394179,1558683330,2019-05-24 15:35:30,1558683403,2019-05-24 15:36:43,1558683435,67db9ae6-367a-4d96-b99c-7a5a1fe616b1,http://pb01.webeyemob.com/v1/ad/postback/?source=1342&key=4XNN0AZC&clickid=67db9ae6-367a-4d96-b99c-7a5a1fe616b1,idfa_daf2c305-d588-47cb-92c1-6123fc394179,Bahasa%20Indonesia
4w8utVQHQv-gzvCKdrqXlQ,webeye,10418_,Install,0.624385,36.83.209.165,a0fc5068-647f-4be0-9f3e-a8013fc8483f,1558683275,2019-05-24 15:34:35,1558683351,2019-05-24 15:35:51,1558683382,176e1191-0b95-4152-bdb8-2b5e3a36e879,http://pb01.webeyemob.com/v1/ad/postback/?source=1342&key=4XNN0AZC&clickid=176e1191-0b95-4152-bdb8-2b5e3a36e879,idfa_a0fc5068-647f-4be0-9f3e-a8013fc8483f,Bahasa%20Indonesia
4w8utVQHQv-gzvCKdrqXlQ,webeye,10418_,Install,0.624385,180.247.43.106,e2fbb61b-f521-43b7-aa5b-418f23c95563,1558683403,2019-05-24 15:36:43,1558683478,2019-05-24 15:37:58,1558683509,735d9c58-be62-4553-ad53-9bfd6c9d8883,http://pb01.webeyemob.com/v1/ad/postback/?source=1342&key=4XNN0AZC&clickid=735d9c58-be62-4553-ad53-9bfd6c9d8883,idfa_e2fbb61b-f521-43b7-aa5b-418f23c95563,Bahasa%20Indonesia
4w8utVQHQv-gzvCKdrqXlQ,webeye,10418_,Install,0.624385,36.71.235.65,3d0830e2-8694-4dd5-a2b5-9fdee26f31f7,1558683148,2019-05-24 15:32:28,1558683239,2019-05-24 15:33:59,1558683270,1b641c3d-ff00-4e84-8e5e-866bca97870c,http://pb01.webeyemob.com/v1/ad/postback/?source=1342&key=4XNN0AZC&clickid=1b641c3d-ff00-4e84-8e5e-866bca97870c,idfa_3d0830e2-8694-4dd5-a2b5-9fdee26f31f7,Bahasa%20Indonesia
4w8utVQHQv-gzvCKdrqXlQ,webeye,10418_,Install,0.624385,120.188.95.217,e3f03459-81aa-402f-a194-ab37fc321b6e,1558683215,2019-05-24 15:33:35,1558683291,2019-05-24 15:34:51,1558683323,ce7ea77d-8a9e-47a1-8caf-c097eea5810b,http://pb01.webeyemob.com/v1/ad/postback/?source=1342&key=4XNN0AZC&clickid=ce7ea77d-8a9e-47a1-8caf-c097eea5810b,idfa_e3f03459-81aa-402f-a194-ab37fc321b6e,English
4w8utVQHQv-gzvCKdrqXlQ,webeye,10418_,Install,0.624385,116.206.15.43,3f9141b6-2f11-4233-942b-ca9896f07657,1558683147,2019-05-24 15:32:27,1558683236,2019-05-24 15:33:56,1558683267,da81f852-4007-48fe-b518-b63c30d31e28,http://pb01.webeyemob.com/v1/ad/postback/?source=1342&key=4XNN0AZC&clickid=da81f852-4007-48fe-b518-b63c30d31e28,idfa_3f9141b6-2f11-4233-942b-ca9896f07657,Bahasa%20Indonesia
4w8utVQHQv-gzvCKdrqXlQ,webeye,10418_,Install,0.624385,140.213.43.25,c4b9d893-e89b-460d-8f9a-3f19a1d22760,1558683281,2019-05-24 15:34:41,1558683353,2019-05-24 15:35:53,1558683384,1220c342-780c-4466-aa8d-dc73fe53b4be,http://pb01.webeyemob.com/v1/ad/postback/?source=1342&key=4XNN0AZC&clickid=1220c342-780c-4466-aa8d-dc73fe53b4be,idfa_c4b9d893-e89b-460d-8f9a-3f19a1d22760,Indonesia
4w8utVQHQv-gzvCKdrqXlQ,webeye,10418_,Install,0.624385,223.255.230.15,63cfe1da-d678-44ec-9370-35a3b998d02a,1558683290,2019-05-24 15:34:50,1558683361,2019-05-24 15:36:01,1558683393,64a73edf-3c2f-4f1c-af37-2cbd9d187fcf,http://pb01.webeyemob.com/v1/ad/postback/?source=1342&key=4XNN0AZC&clickid=64a73edf-3c2f-4f1c-af37-2cbd9d187fcf,idfa_63cfe1da-d678-44ec-9370-35a3b998d02a,Indonesia
4w8utVQHQv-gzvCKdrqXlQ,webeye,10418_,Install,0.624385,114.142.168.18,efb6ad35-adaa-483d-9ff8-d4d17fc39f9b,1558683327,2019-05-24 15:35:27,1558683406,2019-05-24 15:36:46,1558683437,f66cf7e0-425c-4bab-9121-0e501fad9e8b,http://pb01.webeyemob.com/v1/ad/postback/?source=1342&key=4XNN0AZC&clickid=f66cf7e0-425c-4bab-9121-0e501fad9e8b,idfa_efb6ad35-adaa-483d-9ff8-d4d17fc39f9b,Bahasa%20Indonesia
4w8utVQHQv-gzvCKdrqXlQ,webeye,10418_,Install,0.624385,182.0.183.71,43d4f466-df88-4f8c-9965-0950ec47ac3c,1558683449,2019-05-24 15:37:29,1558683540,2019-05-24 15:39:00,1558683571,d395dc37-15e8-4287-bbb3-6ac40f6af8a9,http://pb01.webeyemob.com/v1/ad/postback/?source=1342&key=4XNN0AZC&clickid=d395dc37-15e8-4287-bbb3-6ac40f6af8a9,idfa_43d4f466-df88-4f8c-9965-0950ec47ac3c,Bahasa%20Indonesia
4w8utVQHQv-gzvCKdrqXlQ,webeye,10418_,Install,0.624385,182.0.202.92,5af23958-ad5a-4c54-8c82-933e3fbdbafc,1558683273,2019-05-24 15:34:33,1558683350,2019-05-24 15:35:50,1558683382,990ac629-0be0-4808-97c4-6c4b781c347f,http://pb01.webeyemob.com/v1/ad/postback/?source=1342&key=4XNN0AZC&clickid=990ac629-0be0-4808-97c4-6c4b781c347f,idfa_5af23958-ad5a-4c54-8c82-933e3fbdbafc,Indonesia
4w8utVQHQv-gzvCKdrqXlQ,webeye,10418_,Install,0.624385,114.125.7.227,917e14e2-98f9-4e83-b118-baf897d05235,1558683449,2019-05-24 15:37:29,1558683524,2019-05-24 15:38:44,1558683555,31084c28-f907-48b6-bb43-b13f5daf38aa,http://pb01.webeyemob.com/v1/ad/postback/?source=1342&key=4XNN0AZC&clickid=31084c28-f907-48b6-bb43-b13f5daf38aa,idfa_917e14e2-98f9-4e83-b118-baf897d05235,Indonesia
4w8utVQHQv-gzvCKdrqXlQ,webeye,10418_,Install,0.624385,116.206.9.47,b8ea4997-a739-4e4c-943b-e25844b699eb,1558683244,2019-05-24 15:34:04,1558683286,2019-05-24 15:34:46,1558683317,c7008e69-6c6a-4c0b-9b6d-edc89cafd770,http://pb01.webeyemob.com/v1/ad/postback/?source=1342&key=4XNN0AZC&clickid=c7008e69-6c6a-4c0b-9b6d-edc89cafd770,idfa_b8ea4997-a739-4e4c-943b-e25844b699eb,Bahasa%20Indonesia
