cid,partner_id,channel_id,action_id,cpi,ip,idfa,click time,click datetime,install time,install datetime,postback time,click id,postback url,unique user id
HfzxxPQZRR-NAwaCa3WTGA,webeye,40228_,Install,0.8,59.11.179.149,4349919A-0053-4721-BFAA-A08048F5FAC3,1557249777,2019-05-08 01:22:57,1557409083,2019-05-09 21:38:03,1557409114,227d7ad1-61c1-4d4f-b5c4-efa29b1fd610,http://pb01.webeyemob.com/v1/ad/postback/?source=1342&key=4XNN0AZC&clickid=227d7ad1-61c1-4d4f-b5c4-efa29b1fd610,idfa_4349919A-0053-4721-BFAA-A08048F5FAC3,ko-KR
HfzxxPQZRR-NAwaCa3WTGA,webeye,40228_,Install,0.8,1.254.243.27,0E185B37-4FA7-4C8E-ACD3-FDA94F493935,1557377554,2019-05-09 12:52:34,1557379319,2019-05-09 13:21:59,1557379358,08d9df0b-e0c5-45b3-9461-a05d0d52c58f,http://pb01.webeyemob.com/v1/ad/postback/?source=1342&key=4XNN0AZC&clickid=08d9df0b-e0c5-45b3-9461-a05d0d52c58f,idfa_0E185B37-4FA7-4C8E-ACD3-FDA94F493935,ko-KR
HfzxxPQZRR-NAwaCa3WTGA,webeye,40228_,Install,0.8,1.250.10.145,6C2585D9-C012-498A-83EE-6EBD9CC89C2B,1557239655,2019-05-07 22:34:15,1557291285,2019-05-08 12:54:45,1557291317,b63a47e2-6d2f-49de-a20b-94f63b4fff59,http://pb01.webeyemob.com/v1/ad/postback/?source=1342&key=4XNN0AZC&clickid=b63a47e2-6d2f-49de-a20b-94f63b4fff59,idfa_6C2585D9-C012-498A-83EE-6EBD9CC89C2B,ko-KR
HfzxxPQZRR-NAwaCa3WTGA,webeye,40228_,Install,0.8,180.134.172.37,F410BB90-7F31-4DFF-98F1-5288200F5F87,1557241966,2019-05-07 23:12:46,1557434588,2019-05-10 04:43:08,1557434618,789442ea-da78-434f-8b6c-feed81db61ad,http://pb01.webeyemob.com/v1/ad/postback/?source=1342&key=4XNN0AZC&clickid=789442ea-da78-434f-8b6c-feed81db61ad,idfa_F410BB90-7F31-4DFF-98F1-5288200F5F87,ko-KR
HfzxxPQZRR-NAwaCa3WTGA,webeye,40228_,Install,0.8,180.70.179.24,250F6F3C-9598-4896-8448-DB5453E62501,1557389411,2019-05-09 16:10:11,1557407848,2019-05-09 21:17:28,1557407879,e110c541-e916-4545-ac97-361ed25e13be,http://pb01.webeyemob.com/v1/ad/postback/?source=1342&key=4XNN0AZC&clickid=e110c541-e916-4545-ac97-361ed25e13be,idfa_250F6F3C-9598-4896-8448-DB5453E62501,ko-KR
HfzxxPQZRR-NAwaCa3WTGA,webeye,40228_,Install,0.8,223.38.28.33,5B443A4A-B98A-4CC9-92DE-0F0F6747CEF2,1557271619,2019-05-08 07:26:59,1557397028,2019-05-09 18:17:08,1557397058,1aaba158-8077-4ad0-8055-6f6c305bce14,http://pb01.webeyemob.com/v1/ad/postback/?source=1342&key=4XNN0AZC&clickid=1aaba158-8077-4ad0-8055-6f6c305bce14,idfa_5B443A4A-B98A-4CC9-92DE-0F0F6747CEF2,ko-KR
HfzxxPQZRR-NAwaCa3WTGA,webeye,40228_,Install,0.8,112.155.219.90,A8DFFBDB-421D-4F91-B157-DE5B880962B1,1557400684,2019-05-09 19:18:04,1557410348,2019-05-09 21:59:08,1557410378,4af2abc7-21fe-4712-876b-56de7434e895,http://pb01.webeyemob.com/v1/ad/postback/?source=1342&key=4XNN0AZC&clickid=4af2abc7-21fe-4712-876b-56de7434e895,idfa_A8DFFBDB-421D-4F91-B157-DE5B880962B1,ko-KR
HfzxxPQZRR-NAwaCa3WTGA,webeye,40228_,Install,0.8,14.42.130.199,575ED5FB-A6A8-4E98-857C-64A01084D539,1557401004,2019-05-09 19:23:24,1557407037,2019-05-09 21:03:57,1557407068,20186a41-00ef-4367-84d4-c61572a81988,http://pb01.webeyemob.com/v1/ad/postback/?source=1342&key=4XNN0AZC&clickid=20186a41-00ef-4367-84d4-c61572a81988,idfa_575ED5FB-A6A8-4E98-857C-64A01084D539,ko-KR
HfzxxPQZRR-NAwaCa3WTGA,webeye,40228_,Install,0.8,175.223.3.230,FC71178C-54A5-4DC8-8E49-D2E97F7ADAB8,1557268826,2019-05-08 06:40:26,1557269250,2019-05-08 06:47:30,1557269281,988c0b74-8b39-4887-8c01-383c509d1891,http://pb01.webeyemob.com/v1/ad/postback/?source=1342&key=4XNN0AZC&clickid=988c0b74-8b39-4887-8c01-383c509d1891,idfa_FC71178C-54A5-4DC8-8E49-D2E97F7ADAB8,ko-KR
HfzxxPQZRR-NAwaCa3WTGA,webeye,40228_,Install,0.8,182.225.85.173,BC58CE5E-D698-4648-B2C0-4E596D496932,1557291315,2019-05-08 12:55:15,1557291593,2019-05-08 12:59:53,1557291632,bb490d24-9001-4f06-ae64-426072059ebb,http://pb01.webeyemob.com/v1/ad/postback/?source=1342&key=4XNN0AZC&clickid=bb490d24-9001-4f06-ae64-426072059ebb,idfa_BC58CE5E-D698-4648-B2C0-4E596D496932,ko-KR
HfzxxPQZRR-NAwaCa3WTGA,webeye,40228_,Install,0.8,125.142.7.234,A0FE7075-8A99-4FA2-BD30-0C9B178DFEF9,1557378409,2019-05-09 13:06:49,1557408730,2019-05-09 21:32:10,1557408762,18ffc1fc-9335-41ef-aa54-512fadf25e45,http://pb01.webeyemob.com/v1/ad/postback/?source=1342&key=4XNN0AZC&clickid=18ffc1fc-9335-41ef-aa54-512fadf25e45,idfa_A0FE7075-8A99-4FA2-BD30-0C9B178DFEF9,ko-KR
HfzxxPQZRR-NAwaCa3WTGA,webeye,40228_,Install,0.8,223.38.8.176,CDD11958-F150-422B-82E9-70003D60E7CC,1557409229,2019-05-09 21:40:29,1557419198,2019-05-10 00:26:38,1557419228,65278552-ca93-4e33-bec2-c39437f2c331,http://pb01.webeyemob.com/v1/ad/postback/?source=1342&key=4XNN0AZC&clickid=65278552-ca93-4e33-bec2-c39437f2c331,idfa_CDD11958-F150-422B-82E9-70003D60E7CC,ko-KR
HfzxxPQZRR-NAwaCa3WTGA,webeye,40228_,Install,0.8,175.123.36.145,84CE8C35-A996-417D-A886-DE2F788AF4D4,1557247578,2019-05-08 00:46:18,1557247787,2019-05-08 00:49:47,1557247817,9e17c7e0-7636-494e-8bcc-3ec0733c1c72,http://pb01.webeyemob.com/v1/ad/postback/?source=1342&key=4XNN0AZC&clickid=9e17c7e0-7636-494e-8bcc-3ec0733c1c72,idfa_84CE8C35-A996-417D-A886-DE2F788AF4D4,ko-KR
HfzxxPQZRR-NAwaCa3WTGA,webeye,40228_,Install,0.8,220.76.242.198,D99943EA-04CB-43C7-8B60-0658D3173C33,1557241432,2019-05-07 23:03:52,1557322435,2019-05-08 21:33:55,1557322466,011b4c19-1aa4-40c0-973b-d269303ccb8d,http://pb01.webeyemob.com/v1/ad/postback/?source=1342&key=4XNN0AZC&clickid=011b4c19-1aa4-40c0-973b-d269303ccb8d,idfa_D99943EA-04CB-43C7-8B60-0658D3173C33,ko-KR
HfzxxPQZRR-NAwaCa3WTGA,webeye,40228_,Install,0.8,59.23.82.49,577CC218-BEF9-449B-8FF0-75A2EBB9F5A1,1557260894,2019-05-08 04:28:14,1557261524,2019-05-08 04:38:44,1557261554,31825921-d4e4-4617-ab80-f2e9f13805ce,http://pb01.webeyemob.com/v1/ad/postback/?source=1342&key=4XNN0AZC&clickid=31825921-d4e4-4617-ab80-f2e9f13805ce,idfa_577CC218-BEF9-449B-8FF0-75A2EBB9F5A1,ko-KR
HfzxxPQZRR-NAwaCa3WTGA,webeye,40228_,Install,0.8,218.148.236.102,9359CBF7-7CFA-4473-82D4-1A155030DB7A,1557375854,2019-05-09 12:24:14,1557407419,2019-05-09 21:10:19,1557407449,1aa8401b-b6bc-48f6-b6a6-82820b0ec7b8,http://pb01.webeyemob.com/v1/ad/postback/?source=1342&key=4XNN0AZC&clickid=1aa8401b-b6bc-48f6-b6a6-82820b0ec7b8,idfa_9359CBF7-7CFA-4473-82D4-1A155030DB7A,ko-KR
HfzxxPQZRR-NAwaCa3WTGA,webeye,40228_,Install,0.8,122.34.151.234,26DB189B-B49C-40ED-8885-9481F67C0219,1557246257,2019-05-08 00:24:17,1557247255,2019-05-08 00:40:55,1557247286,f9c1b914-c11a-4e94-a5fb-670cc0598e41,http://pb01.webeyemob.com/v1/ad/postback/?source=1342&key=4XNN0AZC&clickid=f9c1b914-c11a-4e94-a5fb-670cc0598e41,idfa_26DB189B-B49C-40ED-8885-9481F67C0219,ko-KR
HfzxxPQZRR-NAwaCa3WTGA,webeye,40228_,Install,0.8,175.223.34.59,5D26B7C6-66A0-4463-AA7D-7A8B21838559,1557265909,2019-05-08 05:51:49,1557459337,2019-05-10 11:35:37,1557459367,00737422-c20e-4347-b7e9-198ce44a5e0f,http://pb01.webeyemob.com/v1/ad/postback/?source=1342&key=4XNN0AZC&clickid=00737422-c20e-4347-b7e9-198ce44a5e0f,idfa_5D26B7C6-66A0-4463-AA7D-7A8B21838559,ko-KR
HfzxxPQZRR-NAwaCa3WTGA,webeye,40228_,Install,0.8,59.7.116.94,4817875B-CC04-444F-AD57-3541C354035A,1557408510,2019-05-09 21:28:30,1557426973,2019-05-10 02:36:13,1557427003,f63a0639-e6d2-400f-8d41-f5c45b7484b2,http://pb01.webeyemob.com/v1/ad/postback/?source=1342&key=4XNN0AZC&clickid=f63a0639-e6d2-400f-8d41-f5c45b7484b2,idfa_4817875B-CC04-444F-AD57-3541C354035A,ko-KR
HfzxxPQZRR-NAwaCa3WTGA,webeye,40228_,Install,0.8,182.230.50.66,4751BA5A-5552-4E27-96D3-AAE3582FC426,1557414931,2019-05-09 23:15:31,1557415089,2019-05-09 23:18:09,1557415122,fff4dc9b-7099-4a5a-b960-0d81aee7e34a,http://pb01.webeyemob.com/v1/ad/postback/?source=1342&key=4XNN0AZC&clickid=fff4dc9b-7099-4a5a-b960-0d81aee7e34a,idfa_4751BA5A-5552-4E27-96D3-AAE3582FC426,ko-KR
HfzxxPQZRR-NAwaCa3WTGA,webeye,40228_,Install,0.8,220.86.0.17,FFA737C1-1F36-4035-A71D-5560854E1BDA,1557249617,2019-05-08 01:20:17,1557249807,2019-05-08 01:23:27,1557249838,054f8b8b-c6d6-4920-b392-b928d0bba829,http://pb01.webeyemob.com/v1/ad/postback/?source=1342&key=4XNN0AZC&clickid=054f8b8b-c6d6-4920-b392-b928d0bba829,idfa_FFA737C1-1F36-4035-A71D-5560854E1BDA,ko-KR
HfzxxPQZRR-NAwaCa3WTGA,webeye,40228_,Install,0.8,223.33.165.187,AFA18858-90D8-406B-948D-CF98343DBB5F,1557295883,2019-05-08 14:11:23,1557296903,2019-05-08 14:28:23,1557296934,b30959a4-d961-4648-9586-d2ad459a4aca,http://pb01.webeyemob.com/v1/ad/postback/?source=1342&key=4XNN0AZC&clickid=b30959a4-d961-4648-9586-d2ad459a4aca,idfa_AFA18858-90D8-406B-948D-CF98343DBB5F,ko-KR
HfzxxPQZRR-NAwaCa3WTGA,webeye,40228_,Install,0.8,113.198.180.197,1DCF8412-AC82-4D36-B71F-F1D7C452B623,1557270501,2019-05-08 07:08:21,1557288268,2019-05-08 12:04:28,1557288299,404bbdfc-2540-432a-849b-33453a57c0d9,http://pb01.webeyemob.com/v1/ad/postback/?source=1342&key=4XNN0AZC&clickid=404bbdfc-2540-432a-849b-33453a57c0d9,idfa_1DCF8412-AC82-4D36-B71F-F1D7C452B623,ko-KR
HfzxxPQZRR-NAwaCa3WTGA,webeye,40228_,Install,0.8,121.166.126.157,0AA225CA-E648-4E49-9B27-28314431F81D,1557416347,2019-05-09 23:39:07,1557416423,2019-05-09 23:40:23,1557416454,9510a24a-ea80-4a85-b8a2-eb6b869c9f86,http://pb01.webeyemob.com/v1/ad/postback/?source=1342&key=4XNN0AZC&clickid=9510a24a-ea80-4a85-b8a2-eb6b869c9f86,idfa_0AA225CA-E648-4E49-9B27-28314431F81D,ko-KR
HfzxxPQZRR-NAwaCa3WTGA,webeye,40228_,Install,0.8,223.62.212.198,CDE283B6-871B-4DE5-B378-A764CA6E0711,1557258392,2019-05-08 03:46:32,1557378372,2019-05-09 13:06:12,1557378403,c88bdc3f-e753-4b02-930e-164ebe5ed006,http://pb01.webeyemob.com/v1/ad/postback/?source=1342&key=4XNN0AZC&clickid=c88bdc3f-e753-4b02-930e-164ebe5ed006,idfa_CDE283B6-871B-4DE5-B378-A764CA6E0711,ko-KR
HfzxxPQZRR-NAwaCa3WTGA,webeye,40228_,Install,0.8,112.151.116.40,35589FA7-0081-4262-9EB4-E8FF91EE88BA,1557227830,2019-05-07 19:17:10,1557232653,2019-05-07 20:37:33,1557232684,fafcf596-b18a-4ae4-a1ff-3deeba97361c,http://pb01.webeyemob.com/v1/ad/postback/?source=1342&key=4XNN0AZC&clickid=fafcf596-b18a-4ae4-a1ff-3deeba97361c,idfa_35589FA7-0081-4262-9EB4-E8FF91EE88BA,ko-KR
HfzxxPQZRR-NAwaCa3WTGA,webeye,40228_,Install,0.8,180.68.239.201,37CCA4B7-5C54-4798-A8BD-F2C0CEE641F9,1557392354,2019-05-09 16:59:14,1557395606,2019-05-09 17:53:26,1557395643,191718cc-1a1a-46a2-9d9c-65bcffe76959,http://pb01.webeyemob.com/v1/ad/postback/?source=1342&key=4XNN0AZC&clickid=191718cc-1a1a-46a2-9d9c-65bcffe76959,idfa_37CCA4B7-5C54-4798-A8BD-F2C0CEE641F9,ko-KR
HfzxxPQZRR-NAwaCa3WTGA,webeye,40228_,Install,0.8,1.228.124.61,FA7E1A9D-7345-447E-879B-8215F216CFB1,1557267503,2019-05-08 06:18:23,1557371221,2019-05-09 11:07:01,1557371253,aa019830-b2c4-461c-9b4b-e13a45831fba,http://pb01.webeyemob.com/v1/ad/postback/?source=1342&key=4XNN0AZC&clickid=aa019830-b2c4-461c-9b4b-e13a45831fba,idfa_FA7E1A9D-7345-447E-879B-8215F216CFB1,ko-KR
HfzxxPQZRR-NAwaCa3WTGA,webeye,40228_,Install,0.8,121.140.51.139,BCEBC9DB-6B5A-44FF-A12F-E32CC5D9060C,1557243396,2019-05-07 23:36:36,1557415621,2019-05-09 23:27:01,1557415652,3a7b229f-0bb8-45d8-941c-3f79cb9b8f1e,http://pb01.webeyemob.com/v1/ad/postback/?source=1342&key=4XNN0AZC&clickid=3a7b229f-0bb8-45d8-941c-3f79cb9b8f1e,idfa_BCEBC9DB-6B5A-44FF-A12F-E32CC5D9060C,ko-KR
HfzxxPQZRR-NAwaCa3WTGA,webeye,40228_,Install,0.8,118.36.187.217,3D44A142-322A-4BB0-BEBA-5082D49377BF,1557260164,2019-05-08 04:16:04,1557261306,2019-05-08 04:35:06,1557261336,db81b519-59b1-4b86-9382-84187bb8b017,http://pb01.webeyemob.com/v1/ad/postback/?source=1342&key=4XNN0AZC&clickid=db81b519-59b1-4b86-9382-84187bb8b017,idfa_3D44A142-322A-4BB0-BEBA-5082D49377BF,ko-KR
HfzxxPQZRR-NAwaCa3WTGA,webeye,40228_,Install,0.8,182.221.72.224,06A1C4DC-7B89-4AFF-A450-2D0CED237581,1557229927,2019-05-07 19:52:07,1557336521,2019-05-09 01:28:41,1557336552,f2cc899c-aab5-4579-875a-72b8c7455c18,http://pb01.webeyemob.com/v1/ad/postback/?source=1342&key=4XNN0AZC&clickid=f2cc899c-aab5-4579-875a-72b8c7455c18,idfa_06A1C4DC-7B89-4AFF-A450-2D0CED237581,ko-KR
HfzxxPQZRR-NAwaCa3WTGA,webeye,40228_,Install,0.8,1.239.225.231,8C84CF16-E423-4872-A0C3-87807077B0D7,1557225755,2019-05-07 18:42:35,1557293928,2019-05-08 13:38:48,1557293959,c53acc1a-be23-4f49-acc9-5f8993614705,http://pb01.webeyemob.com/v1/ad/postback/?source=1342&key=4XNN0AZC&clickid=c53acc1a-be23-4f49-acc9-5f8993614705,idfa_8C84CF16-E423-4872-A0C3-87807077B0D7,ko-KR
HfzxxPQZRR-NAwaCa3WTGA,webeye,40228_,Install,0.8,211.228.134.48,2ABD59D1-1B4C-4D28-9918-2F4DCED0163E,1557241369,2019-05-07 23:02:49,1557328534,2019-05-08 23:15:34,1557328569,93b97f36-681d-4c61-a080-0f0df8a059e2,http://pb01.webeyemob.com/v1/ad/postback/?source=1342&key=4XNN0AZC&clickid=93b97f36-681d-4c61-a080-0f0df8a059e2,idfa_2ABD59D1-1B4C-4D28-9918-2F4DCED0163E,ko-KR
HfzxxPQZRR-NAwaCa3WTGA,webeye,40228_,Install,0.8,175.198.23.246,198DBF30-BB56-4EBE-9103-435453B17D67,1557248290,2019-05-08 00:58:10,1557324351,2019-05-08 22:05:51,1557324381,4cb63e0c-5f84-4491-b560-8bd96c1ecf20,http://pb01.webeyemob.com/v1/ad/postback/?source=1342&key=4XNN0AZC&clickid=4cb63e0c-5f84-4491-b560-8bd96c1ecf20,idfa_198DBF30-BB56-4EBE-9103-435453B17D67,ko-KR
HfzxxPQZRR-NAwaCa3WTGA,webeye,40228_,Install,0.8,116.127.210.134,291F369D-B64A-4815-8A75-7859C346D790,1557386000,2019-05-09 15:13:20,1557387468,2019-05-09 15:37:48,1557387498,251cf830-359b-49ec-8052-ed1dee85e734,http://pb01.webeyemob.com/v1/ad/postback/?source=1342&key=4XNN0AZC&clickid=251cf830-359b-49ec-8052-ed1dee85e734,idfa_291F369D-B64A-4815-8A75-7859C346D790,ko-KR
HfzxxPQZRR-NAwaCa3WTGA,webeye,40228_,Install,0.8,110.70.15.140,9F550436-C7D2-4B08-9A67-42466E506D85,1557371047,2019-05-09 11:04:07,1557391106,2019-05-09 16:38:26,1557391136,788794e1-9988-414e-b5a5-9705602e09b9,http://pb01.webeyemob.com/v1/ad/postback/?source=1342&key=4XNN0AZC&clickid=788794e1-9988-414e-b5a5-9705602e09b9,idfa_9F550436-C7D2-4B08-9A67-42466E506D85,ko-KR
HfzxxPQZRR-NAwaCa3WTGA,webeye,40228_,Install,0.8,112.186.244.146,AFB93DC1-DF43-43C4-AFF0-242D8BD6C988,1557374300,2019-05-09 11:58:20,1557374656,2019-05-09 12:04:16,1557374686,44afafd5-bf55-4d92-97fe-b1245809522a,http://pb01.webeyemob.com/v1/ad/postback/?source=1342&key=4XNN0AZC&clickid=44afafd5-bf55-4d92-97fe-b1245809522a,idfa_AFB93DC1-DF43-43C4-AFF0-242D8BD6C988,ko-KR
