cid,partner_id,channel_id,action_id,cpi,ip,idfa,click time,click datetime,install time,install datetime,postback time,click id,postback url,unique user id
RqjbqCuJRsatH54ENARvxw,webeye,10569_,install,1.8,216.52.24.153,8362cbf2-2387-4155-86b0-f4ebb594b834,1559103608,2019-05-29 12:20:08,1559103677,2019-05-29 12:21:17,1559103707,eacf33b2-315e-4f3a-917c-3c0c21ec1a81,http://pb01.webeyemob.com/v1/ad/postback/?source=1342&key=4XNN0AZC&clickid=eacf33b2-315e-4f3a-917c-3c0c21ec1a81,idfa_8362cbf2-2387-4155-86b0-f4ebb594b834,en
RqjbqCuJRsatH54ENARvxw,webeye,10569_,install,1.8,24.38.233.209,41c4c801-6492-4f71-8814-bbffd15ad53e,1559103715,2019-05-29 12:21:55,1559103738,2019-05-29 12:22:18,1559103770,0acaeabc-be9b-44c6-852d-0fbdd99790f8,http://pb01.webeyemob.com/v1/ad/postback/?source=1342&key=4XNN0AZC&clickid=0acaeabc-be9b-44c6-852d-0fbdd99790f8,idfa_41c4c801-6492-4f71-8814-bbffd15ad53e,en
RqjbqCuJRsatH54ENARvxw,webeye,10569_,install,1.8,172.58.74.19,672b8c06-c323-4a3d-81df-c101d3bc227b,1559103454,2019-05-29 12:17:34,1559103498,2019-05-29 12:18:18,1559103531,a4b856d8-8c4d-4756-b439-04d7e1afceb0,http://pb01.webeyemob.com/v1/ad/postback/?source=1342&key=4XNN0AZC&clickid=a4b856d8-8c4d-4756-b439-04d7e1afceb0,idfa_672b8c06-c323-4a3d-81df-c101d3bc227b,en
RqjbqCuJRsatH54ENARvxw,webeye,10569_,install,1.8,158.222.151.200,ac5f8f7d-b3ff-45fa-b8e3-19feb0945a96,1559102701,2019-05-29 12:05:01,1559102740,2019-05-29 12:05:40,1559102771,c4b254fd-9376-416d-ac9a-608a6a167bba,http://pb01.webeyemob.com/v1/ad/postback/?source=1342&key=4XNN0AZC&clickid=c4b254fd-9376-416d-ac9a-608a6a167bba,idfa_ac5f8f7d-b3ff-45fa-b8e3-19feb0945a96,en
RqjbqCuJRsatH54ENARvxw,webeye,10569_,install,1.8,165.225.0.63,f8579771-a9d6-4366-bc1c-0bc8c78bf1bd,1559102947,2019-05-29 12:09:07,1559103146,2019-05-29 12:12:26,1559103178,e27bbe9c-118e-41e1-b90b-b55e40e991e3,http://pb01.webeyemob.com/v1/ad/postback/?source=1342&key=4XNN0AZC&clickid=e27bbe9c-118e-41e1-b90b-b55e40e991e3,idfa_f8579771-a9d6-4366-bc1c-0bc8c78bf1bd,es
RqjbqCuJRsatH54ENARvxw,webeye,10569_,install,1.8,173.23.119.120,71c28f56-b6b2-43a4-8363-89f193675361,1559103498,2019-05-29 12:18:18,1559103518,2019-05-29 12:18:38,1559103551,d750c509-ebfb-46a6-87e1-cb52a02dd5ca,http://pb01.webeyemob.com/v1/ad/postback/?source=1342&key=4XNN0AZC&clickid=d750c509-ebfb-46a6-87e1-cb52a02dd5ca,idfa_71c28f56-b6b2-43a4-8363-89f193675361,en
RqjbqCuJRsatH54ENARvxw,webeye,10569_,install,1.8,76.182.125.217,bdb4e9c0-1fc6-40e7-9d49-34a37867af1d,1559103239,2019-05-29 12:13:59,1559103260,2019-05-29 12:14:20,1559103293,15989817-74da-4a95-81fd-98839727b201,http://pb01.webeyemob.com/v1/ad/postback/?source=1342&key=4XNN0AZC&clickid=15989817-74da-4a95-81fd-98839727b201,idfa_bdb4e9c0-1fc6-40e7-9d49-34a37867af1d,en
RqjbqCuJRsatH54ENARvxw,webeye,10569_,install,1.8,68.39.150.5,877d909d-2663-4798-8e8e-fca1ab0bce73,1559103082,2019-05-29 12:11:22,1559103139,2019-05-29 12:12:19,1559103184,a2f1942c-152c-43d8-9106-ac40cf623481,http://pb01.webeyemob.com/v1/ad/postback/?source=1342&key=4XNN0AZC&clickid=a2f1942c-152c-43d8-9106-ac40cf623481,idfa_877d909d-2663-4798-8e8e-fca1ab0bce73,en
RqjbqCuJRsatH54ENARvxw,webeye,10569_,install,1.8,107.77.173.10,759a35bc-e34d-46cf-b1a2-01f93c2a321a,1559102853,2019-05-29 12:07:33,1559102919,2019-05-29 12:08:39,1559102950,7bd8b13a-f3aa-42a8-86b6-b047fe4cfc26,http://pb01.webeyemob.com/v1/ad/postback/?source=1342&key=4XNN0AZC&clickid=7bd8b13a-f3aa-42a8-86b6-b047fe4cfc26,idfa_759a35bc-e34d-46cf-b1a2-01f93c2a321a,es
RqjbqCuJRsatH54ENARvxw,webeye,10569_,install,1.8,172.58.225.116,efa9a9e4-684a-475e-ad30-64ebab0da5e6,1559103245,2019-05-29 12:14:05,1559103312,2019-05-29 12:15:12,1559103342,15120ce2-0b59-4d03-baed-9b214b1608ff,http://pb01.webeyemob.com/v1/ad/postback/?source=1342&key=4XNN0AZC&clickid=15120ce2-0b59-4d03-baed-9b214b1608ff,idfa_efa9a9e4-684a-475e-ad30-64ebab0da5e6,en
RqjbqCuJRsatH54ENARvxw,webeye,10569_,install,1.8,157.230.82.4,478e6967-dc3d-4238-ad8f-3cd74bfc9b34,1559103551,2019-05-29 12:19:11,1559103688,2019-05-29 12:21:28,1559103720,cee0f67c-6cc1-41fb-989d-e184258d700d,http://pb01.webeyemob.com/v1/ad/postback/?source=1342&key=4XNN0AZC&clickid=cee0f67c-6cc1-41fb-989d-e184258d700d,idfa_478e6967-dc3d-4238-ad8f-3cd74bfc9b34,es
RqjbqCuJRsatH54ENARvxw,webeye,10569_,install,1.8,71.199.3.64,7d995d90-9230-43a1-9976-ef0790f07e1a,1559103847,2019-05-29 12:24:07,1559104381,2019-05-29 12:33:01,1559104411,43fc8a2e-b714-4c3f-8c3d-e4fc1eec853a,http://pb01.webeyemob.com/v1/ad/postback/?source=1342&key=4XNN0AZC&clickid=43fc8a2e-b714-4c3f-8c3d-e4fc1eec853a,idfa_7d995d90-9230-43a1-9976-ef0790f07e1a,pt
RqjbqCuJRsatH54ENARvxw,webeye,10569_,install,1.8,107.77.233.235,51577d9e-1550-4bf2-a988-27e8944d60d3,1559103011,2019-05-29 12:10:11,1559103076,2019-05-29 12:11:16,1559103107,cd8253ca-f81b-4a69-ae67-3f6f05d003c4,http://pb01.webeyemob.com/v1/ad/postback/?source=1342&key=4XNN0AZC&clickid=cd8253ca-f81b-4a69-ae67-3f6f05d003c4,idfa_51577d9e-1550-4bf2-a988-27e8944d60d3,en
RqjbqCuJRsatH54ENARvxw,webeye,10569_,install,1.8,104.14.82.164,de7880d5-dc77-471a-98fa-4d0dfc09ba5d,1559103331,2019-05-29 12:15:31,1559103388,2019-05-29 12:16:28,1559103419,78592247-e88f-42b5-a3e5-f3bb052a2e43,http://pb01.webeyemob.com/v1/ad/postback/?source=1342&key=4XNN0AZC&clickid=78592247-e88f-42b5-a3e5-f3bb052a2e43,idfa_de7880d5-dc77-471a-98fa-4d0dfc09ba5d,en
RqjbqCuJRsatH54ENARvxw,webeye,10569_,install,1.8,172.58.187.195,f8ad57f1-c59c-41cc-bad8-93a3af6cc5ea,1559103727,2019-05-29 12:22:07,1559103866,2019-05-29 12:24:26,1559103897,7daf14e3-9c88-481b-8a0c-38cac73fb6c3,http://pb01.webeyemob.com/v1/ad/postback/?source=1342&key=4XNN0AZC&clickid=7daf14e3-9c88-481b-8a0c-38cac73fb6c3,idfa_f8ad57f1-c59c-41cc-bad8-93a3af6cc5ea,es
RqjbqCuJRsatH54ENARvxw,webeye,10569_,install,1.8,24.117.185.251,45ead3f0-e2df-4084-bda2-965e1a58f25c,1559103424,2019-05-29 12:17:04,1559103493,2019-05-29 12:18:13,1559103523,ee2cc555-5400-455f-ac3f-2e4167565fc6,http://pb01.webeyemob.com/v1/ad/postback/?source=1342&key=4XNN0AZC&clickid=ee2cc555-5400-455f-ac3f-2e4167565fc6,idfa_45ead3f0-e2df-4084-bda2-965e1a58f25c,en
RqjbqCuJRsatH54ENARvxw,webeye,10569_,install,1.8,173.217.91.241,8fa9dd9e-8774-4a55-9cb7-6097f49c240a,1559102735,2019-05-29 12:05:35,1559102805,2019-05-29 12:06:45,1559102835,145487cb-6e1b-49db-b9d6-0c0c1ff80d9a,http://pb01.webeyemob.com/v1/ad/postback/?source=1342&key=4XNN0AZC&clickid=145487cb-6e1b-49db-b9d6-0c0c1ff80d9a,idfa_8fa9dd9e-8774-4a55-9cb7-6097f49c240a,en
RqjbqCuJRsatH54ENARvxw,webeye,10569_,install,1.8,107.77.193.42,391bb501-6dc1-4268-a0e1-96025db92147,1559103307,2019-05-29 12:15:07,1559103375,2019-05-29 12:16:15,1559103406,94726016-f378-4d61-81f0-d9fd743ee94d,http://pb01.webeyemob.com/v1/ad/postback/?source=1342&key=4XNN0AZC&clickid=94726016-f378-4d61-81f0-d9fd743ee94d,idfa_391bb501-6dc1-4268-a0e1-96025db92147,en
RqjbqCuJRsatH54ENARvxw,webeye,10569_,install,1.8,172.58.175.151,9bbb932c-a0b8-4ac8-833c-761de5f705b6,1559103007,2019-05-29 12:10:07,1559103076,2019-05-29 12:11:16,1559103108,881d4575-e6c4-4107-89f3-d96648a95951,http://pb01.webeyemob.com/v1/ad/postback/?source=1342&key=4XNN0AZC&clickid=881d4575-e6c4-4107-89f3-d96648a95951,idfa_9bbb932c-a0b8-4ac8-833c-761de5f705b6,en
RqjbqCuJRsatH54ENARvxw,webeye,10569_,install,1.8,174.223.128.108,53674597-88cc-4b8c-b221-4a70d10daa94,1559103367,2019-05-29 12:16:07,1559103438,2019-05-29 12:17:18,1559103468,e651a844-4f2e-4de9-aa44-9f80ff5593a6,http://pb01.webeyemob.com/v1/ad/postback/?source=1342&key=4XNN0AZC&clickid=e651a844-4f2e-4de9-aa44-9f80ff5593a6,idfa_53674597-88cc-4b8c-b221-4a70d10daa94,en
RqjbqCuJRsatH54ENARvxw,webeye,10569_,install,1.8,71.215.99.26,d87f5f84-2b69-4baa-9f28-ccfceaef08f6,1559103139,2019-05-29 12:12:19,1559103156,2019-05-29 12:12:36,1559103189,05fa38ed-d200-4767-9b89-86d04bb2b8f1,http://pb01.webeyemob.com/v1/ad/postback/?source=1342&key=4XNN0AZC&clickid=05fa38ed-d200-4767-9b89-86d04bb2b8f1,idfa_d87f5f84-2b69-4baa-9f28-ccfceaef08f6,en
RqjbqCuJRsatH54ENARvxw,webeye,10569_,install,1.8,70.115.172.12,55941406-0d6a-4a4e-a737-5240d2b51e88,1559103128,2019-05-29 12:12:08,1559103197,2019-05-29 12:13:17,1559103228,45dc12cd-8103-4d9d-b968-c24472168442,http://pb01.webeyemob.com/v1/ad/postback/?source=1342&key=4XNN0AZC&clickid=45dc12cd-8103-4d9d-b968-c24472168442,idfa_55941406-0d6a-4a4e-a737-5240d2b51e88,en
RqjbqCuJRsatH54ENARvxw,webeye,10569_,install,1.8,71.192.83.97,23699e47-adc2-4614-b03e-9e37e16a447b,1559103127,2019-05-29 12:12:07,1559103194,2019-05-29 12:13:14,1559103225,f89ca34d-8560-43a7-947c-041d39cec359,http://pb01.webeyemob.com/v1/ad/postback/?source=1342&key=4XNN0AZC&clickid=f89ca34d-8560-43a7-947c-041d39cec359,idfa_23699e47-adc2-4614-b03e-9e37e16a447b,es
RqjbqCuJRsatH54ENARvxw,webeye,10569_,install,1.8,208.54.44.157,bbd6b7a7-a4ef-49d9-a744-364419fce659,1559103606,2019-05-29 12:20:06,1559103679,2019-05-29 12:21:19,1559103709,5df3c4c4-37c4-4dec-a048-e149c91085a3,http://pb01.webeyemob.com/v1/ad/postback/?source=1342&key=4XNN0AZC&clickid=5df3c4c4-37c4-4dec-a048-e149c91085a3,idfa_bbd6b7a7-a4ef-49d9-a744-364419fce659,en
RqjbqCuJRsatH54ENARvxw,webeye,10569_,install,1.8,96.40.240.30,8bdb842c-0664-4b5b-ae76-6c148d1ab5a0,1559102616,2019-05-29 12:03:36,1559102693,2019-05-29 12:04:53,1559102724,a7f0be09-d642-4ff8-b48d-f311ad56165e,http://pb01.webeyemob.com/v1/ad/postback/?source=1342&key=4XNN0AZC&clickid=a7f0be09-d642-4ff8-b48d-f311ad56165e,idfa_8bdb842c-0664-4b5b-ae76-6c148d1ab5a0,en
RqjbqCuJRsatH54ENARvxw,webeye,10569_,install,1.8,172.58.67.157,b50e07f8-e96c-4553-bb6f-80d614b47e5e,1559103069,2019-05-29 12:11:09,1559103136,2019-05-29 12:12:16,1559103167,e5e92136-8042-4603-801b-ca323dc841ee,http://pb01.webeyemob.com/v1/ad/postback/?source=1342&key=4XNN0AZC&clickid=e5e92136-8042-4603-801b-ca323dc841ee,idfa_b50e07f8-e96c-4553-bb6f-80d614b47e5e,en
RqjbqCuJRsatH54ENARvxw,webeye,10569_,install,1.8,209.234.253.126,b6aa4184-dd11-44bc-9b3a-9392ffc1857b,1559103133,2019-05-29 12:12:13,1559103200,2019-05-29 12:13:20,1559103231,094263b4-4e7f-4a2c-8fe5-701dc50a4026,http://pb01.webeyemob.com/v1/ad/postback/?source=1342&key=4XNN0AZC&clickid=094263b4-4e7f-4a2c-8fe5-701dc50a4026,idfa_b6aa4184-dd11-44bc-9b3a-9392ffc1857b,en
RqjbqCuJRsatH54ENARvxw,webeye,10569_,install,1.8,108.91.139.171,9851c501-dd55-4da2-939f-6d02447498bb,1559103067,2019-05-29 12:11:07,1559103136,2019-05-29 12:12:16,1559103168,07decd23-791e-4990-be94-33549c5c26ab,http://pb01.webeyemob.com/v1/ad/postback/?source=1342&key=4XNN0AZC&clickid=07decd23-791e-4990-be94-33549c5c26ab,idfa_9851c501-dd55-4da2-939f-6d02447498bb,en
RqjbqCuJRsatH54ENARvxw,webeye,10569_,install,1.8,98.114.233.168,0026d88b-d866-4744-81f5-1718274a916e,1559103190,2019-05-29 12:13:10,1559103254,2019-05-29 12:14:14,1559103284,86afdf9e-6aba-4afd-92b7-1c529bb3cd36,http://pb01.webeyemob.com/v1/ad/postback/?source=1342&key=4XNN0AZC&clickid=86afdf9e-6aba-4afd-92b7-1c529bb3cd36,idfa_0026d88b-d866-4744-81f5-1718274a916e,es
RqjbqCuJRsatH54ENARvxw,webeye,10569_,install,1.8,67.60.221.210,44831695-1f2f-4269-bb0b-a061c7adc82d,1559103130,2019-05-29 12:12:10,1559103197,2019-05-29 12:13:17,1559103228,f066c770-35e6-4bdc-a69b-885c9429b155,http://pb01.webeyemob.com/v1/ad/postback/?source=1342&key=4XNN0AZC&clickid=f066c770-35e6-4bdc-a69b-885c9429b155,idfa_44831695-1f2f-4269-bb0b-a061c7adc82d,en
RqjbqCuJRsatH54ENARvxw,webeye,10569_,install,1.8,73.231.73.140,c3075798-7d0f-46a5-81c6-46440c4b5963,1559103187,2019-05-29 12:13:07,1559103255,2019-05-29 12:14:15,1559103286,a2911a38-f2f2-4c8c-b79f-a0db00427407,http://pb01.webeyemob.com/v1/ad/postback/?source=1342&key=4XNN0AZC&clickid=a2911a38-f2f2-4c8c-b79f-a0db00427407,idfa_c3075798-7d0f-46a5-81c6-46440c4b5963,en
RqjbqCuJRsatH54ENARvxw,webeye,10569_,install,1.8,69.246.213.116,ee45e847-8bcb-4e92-a5e8-454a8f1b229b,1559102741,2019-05-29 12:05:41,1559102805,2019-05-29 12:06:45,1559102837,7b20553a-9883-4f2e-bf04-4a7a59872ee3,http://pb01.webeyemob.com/v1/ad/postback/?source=1342&key=4XNN0AZC&clickid=7b20553a-9883-4f2e-bf04-4a7a59872ee3,idfa_ee45e847-8bcb-4e92-a5e8-454a8f1b229b,es
RqjbqCuJRsatH54ENARvxw,webeye,10569_,install,1.8,174.127.175.118,f608e444-89f8-4263-b830-265ef8a273b7,1559102824,2019-05-29 12:07:04,1559102898,2019-05-29 12:08:18,1559102928,0e2ef736-2dce-4f3d-8738-062ed9baca89,http://pb01.webeyemob.com/v1/ad/postback/?source=1342&key=4XNN0AZC&clickid=0e2ef736-2dce-4f3d-8738-062ed9baca89,idfa_f608e444-89f8-4263-b830-265ef8a273b7,en
RqjbqCuJRsatH54ENARvxw,webeye,10569_,install,1.8,172.58.110.100,310ed404-6680-4e75-a173-ec2a25c09677,1559103489,2019-05-29 12:18:09,1559103557,2019-05-29 12:19:17,1559103590,ec29832e-95fc-414a-8f6f-920666b89f50,http://pb01.webeyemob.com/v1/ad/postback/?source=1342&key=4XNN0AZC&clickid=ec29832e-95fc-414a-8f6f-920666b89f50,idfa_310ed404-6680-4e75-a173-ec2a25c09677,es
RqjbqCuJRsatH54ENARvxw,webeye,10569_,install,1.8,172.116.100.137,27bc5c30-0d2e-465d-8a35-7e7984009093,1559103672,2019-05-29 12:21:12,1559103734,2019-05-29 12:22:14,1559103764,354be085-1307-47fc-9755-bcf0e38f8078,http://pb01.webeyemob.com/v1/ad/postback/?source=1342&key=4XNN0AZC&clickid=354be085-1307-47fc-9755-bcf0e38f8078,idfa_27bc5c30-0d2e-465d-8a35-7e7984009093,en
RqjbqCuJRsatH54ENARvxw,webeye,10569_,install,1.8,72.218.227.62,a3df792e-c118-4cea-b4cc-1c73f5528332,1559103007,2019-05-29 12:10:07,1559103085,2019-05-29 12:11:25,1559103116,5975c4d4-caad-4489-ba53-bcd98f114d94,http://pb01.webeyemob.com/v1/ad/postback/?source=1342&key=4XNN0AZC&clickid=5975c4d4-caad-4489-ba53-bcd98f114d94,idfa_a3df792e-c118-4cea-b4cc-1c73f5528332,en
RqjbqCuJRsatH54ENARvxw,webeye,10569_,install,1.8,69.122.235.99,a465cb7c-b1ee-4441-933d-d0bd0e221500,1559103487,2019-05-29 12:18:07,1559103557,2019-05-29 12:19:17,1559103587,4843d6f9-9e0d-4353-905e-1184b4c5fcbd,http://pb01.webeyemob.com/v1/ad/postback/?source=1342&key=4XNN0AZC&clickid=4843d6f9-9e0d-4353-905e-1184b4c5fcbd,idfa_a465cb7c-b1ee-4441-933d-d0bd0e221500,en
RqjbqCuJRsatH54ENARvxw,webeye,10569_,install,1.8,71.194.96.199,40b98330-7749-4393-8435-2048c1273817,1559103126,2019-05-29 12:12:06,1559103199,2019-05-29 12:13:19,1559103229,80d65431-37a3-4361-a2b5-fc23284615a6,http://pb01.webeyemob.com/v1/ad/postback/?source=1342&key=4XNN0AZC&clickid=80d65431-37a3-4361-a2b5-fc23284615a6,idfa_40b98330-7749-4393-8435-2048c1273817,ar
RqjbqCuJRsatH54ENARvxw,webeye,10569_,install,1.8,47.135.70.205,3813f374-b1e6-45d4-898e-fb0e39cb183b,1559103607,2019-05-29 12:20:07,1559103717,2019-05-29 12:21:57,1559103748,d5979b4a-d750-46a6-8085-95d0220761cc,http://pb01.webeyemob.com/v1/ad/postback/?source=1342&key=4XNN0AZC&clickid=d5979b4a-d750-46a6-8085-95d0220761cc,idfa_3813f374-b1e6-45d4-898e-fb0e39cb183b,es
RqjbqCuJRsatH54ENARvxw,webeye,10569_,install,1.8,108.228.59.34,7b5736db-0632-43f6-95f4-3f3dfad1831d,1559103312,2019-05-29 12:15:12,1559103379,2019-05-29 12:16:19,1559103410,bd309ee6-8ead-4f33-914e-d1162b006c15,http://pb01.webeyemob.com/v1/ad/postback/?source=1342&key=4XNN0AZC&clickid=bd309ee6-8ead-4f33-914e-d1162b006c15,idfa_7b5736db-0632-43f6-95f4-3f3dfad1831d,en
RqjbqCuJRsatH54ENARvxw,webeye,10569_,install,1.8,76.91.147.209,3310a64f-09f1-4fee-9ca0-446f9fd35985,1559103785,2019-05-29 12:23:05,1559103855,2019-05-29 12:24:15,1559103886,e7a54bae-ba92-4f5a-851f-fe5327332f67,http://pb01.webeyemob.com/v1/ad/postback/?source=1342&key=4XNN0AZC&clickid=e7a54bae-ba92-4f5a-851f-fe5327332f67,idfa_3310a64f-09f1-4fee-9ca0-446f9fd35985,en
RqjbqCuJRsatH54ENARvxw,webeye,10569_,install,1.8,68.105.63.87,e1ca30ed-7b28-40a2-b22e-368edf5aba6c,1559103846,2019-05-29 12:24:06,1559103913,2019-05-29 12:25:13,1559103943,5e066e21-16ce-4ad1-bd69-99c333da379d,http://pb01.webeyemob.com/v1/ad/postback/?source=1342&key=4XNN0AZC&clickid=5e066e21-16ce-4ad1-bd69-99c333da379d,idfa_e1ca30ed-7b28-40a2-b22e-368edf5aba6c,en
RqjbqCuJRsatH54ENARvxw,webeye,10569_,install,1.8,208.54.37.135,5903d1e1-27c5-4b10-9dc9-a464f9cf0114,1559103368,2019-05-29 12:16:08,1559103434,2019-05-29 12:17:14,1559103466,b74b6e40-e023-49e6-a73f-20e5f2b57546,http://pb01.webeyemob.com/v1/ad/postback/?source=1342&key=4XNN0AZC&clickid=b74b6e40-e023-49e6-a73f-20e5f2b57546,idfa_5903d1e1-27c5-4b10-9dc9-a464f9cf0114,ar
RqjbqCuJRsatH54ENARvxw,webeye,10569_,install,1.8,67.4.43.178,2356f991-445a-48cd-a75f-22ae3c29ec71,1559103247,2019-05-29 12:14:07,1559103317,2019-05-29 12:15:17,1559103347,a2c6f1dc-2fd9-4207-a4bc-1da6269a4bb0,http://pb01.webeyemob.com/v1/ad/postback/?source=1342&key=4XNN0AZC&clickid=a2c6f1dc-2fd9-4207-a4bc-1da6269a4bb0,idfa_2356f991-445a-48cd-a75f-22ae3c29ec71,es
RqjbqCuJRsatH54ENARvxw,webeye,10569_,install,1.8,75.97.150.107,faf95a6b-86d1-4189-aa14-86db830990a7,1559102947,2019-05-29 12:09:07,1559103062,2019-05-29 12:11:02,1559103092,e1470602-6e02-4616-a529-0934c381073a,http://pb01.webeyemob.com/v1/ad/postback/?source=1342&key=4XNN0AZC&clickid=e1470602-6e02-4616-a529-0934c381073a,idfa_faf95a6b-86d1-4189-aa14-86db830990a7,en
RqjbqCuJRsatH54ENARvxw,webeye,10569_,install,1.8,24.1.176.236,d139e0cb-f611-4bb5-96ad-1eda677cddb7,1559102908,2019-05-29 12:08:28,1559102979,2019-05-29 12:09:39,1559103010,9e0be7a5-b68e-4ddf-92a9-616ca50aaad2,http://pb01.webeyemob.com/v1/ad/postback/?source=1342&key=4XNN0AZC&clickid=9e0be7a5-b68e-4ddf-92a9-616ca50aaad2,idfa_d139e0cb-f611-4bb5-96ad-1eda677cddb7,en
RqjbqCuJRsatH54ENARvxw,webeye,10569_,install,1.8,146.115.138.169,6705d385-5a82-4fed-b964-ff2523844672,1559102615,2019-05-29 12:03:35,1559102684,2019-05-29 12:04:44,1559102715,703cae5a-6fb4-4e2d-a0be-232d42131546,http://pb01.webeyemob.com/v1/ad/postback/?source=1342&key=4XNN0AZC&clickid=703cae5a-6fb4-4e2d-a0be-232d42131546,idfa_6705d385-5a82-4fed-b964-ff2523844672,en
RqjbqCuJRsatH54ENARvxw,webeye,10569_,install,1.8,99.203.32.21,17de9ade-3f46-4833-9e17-d4a52e2badc4,1559103788,2019-05-29 12:23:08,1559103859,2019-05-29 12:24:19,1559103890,6d430f8a-fc54-4184-bc40-4717681ff95b,http://pb01.webeyemob.com/v1/ad/postback/?source=1342&key=4XNN0AZC&clickid=6d430f8a-fc54-4184-bc40-4717681ff95b,idfa_17de9ade-3f46-4833-9e17-d4a52e2badc4,en
RqjbqCuJRsatH54ENARvxw,webeye,10569_,install,1.8,73.228.18.206,dc715cf6-36e4-4ef1-8d87-a67d281f9f77,1559102803,2019-05-29 12:06:43,1559102865,2019-05-29 12:07:45,1559102896,aae19b9f-2dda-444a-814b-34ae4eac7a03,http://pb01.webeyemob.com/v1/ad/postback/?source=1342&key=4XNN0AZC&clickid=aae19b9f-2dda-444a-814b-34ae4eac7a03,idfa_dc715cf6-36e4-4ef1-8d87-a67d281f9f77,en
