cid,partner_id,channel_id,action_id,cpi,ip,idfa,click time,click datetime,install time,install datetime,postback time,click id,postback url,unique user id
lCEuFs-WRBqUH8euOdg-tg,youmi,10062_10582,Install,0.32,,8f7d3c32-3fbb-463c-bc95-fac445054908,1557447234,2019-05-10 08:13:54,1557447288,2019-05-10 08:14:48,1557447318,dej5a0dP3osW6gQOAoIDo3_TLqw0AZ-dcaNQdjNk,http://track.miadx.net/aff_lsr?transaction_id=dej5a0dP3osW6gQOAoIDo3_TLqw0AZ-dcaNQdjNk,idfa_8f7d3c32-3fbb-463c-bc95-fac445054908,%E1%80%99%E1%80%BC%E1%80%94%E1%80%BA%E1%80%99%E1%80%AC
lCEuFs-WRBqUH8euOdg-tg,youmi,10062_10582,Install,0.2,,af5c6208-f784-4532-a352-c402d2a9e163,1557894026,2019-05-15 12:20:26,1557894153,2019-05-15 12:22:33,1557894185,42j5f4knPosW6gQOAoIDo3_TLqw0ASjLRJNQdjNk,http://track.miadx.net/aff_lsr?transaction_id=42j5f4knPosW6gQOAoIDo3_TLqw0ASjLRJNQdjNk,idfa_af5c6208-f784-4532-a352-c402d2a9e163,%E1%80%97%E1%80%99%E1%80%AC
lCEuFs-WRBqUH8euOdg-tg,youmi,10062_10582,Install,0.32,,ed5ca0ed-008e-4f78-8f9e-c887bbfacd6b,1557444127,2019-05-10 07:22:07,1557444235,2019-05-10 07:23:55,1557444266,d5j59nlR8osW6gQOAoIDo3_TLqw0Ay1FTw9QdjNk,http://track.miadx.net/aff_lsr?transaction_id=d5j59nlR8osW6gQOAoIDo3_TLqw0Ay1FTw9QdjNk,idfa_ed5ca0ed-008e-4f78-8f9e-c887bbfacd6b,%E1%80%97%E1%80%99%E1%80%AC
lCEuFs-WRBqUH8euOdg-tg,youmi,10062_10582,Install,0.2,,25de34fc-f054-4e70-b232-3b933a9299b2,1557876001,2019-05-15 07:20:01,1557876091,2019-05-15 07:21:31,1557876121,d2j5enjWyosW6gQOAoIDo3_TLqw0AZyrYK9QdjNk,http://track.miadx.net/aff_lsr?transaction_id=d2j5enjWyosW6gQOAoIDo3_TLqw0AZyrYK9QdjNk,idfa_25de34fc-f054-4e70-b232-3b933a9299b2,%E1%80%97%E1%80%99%E1%80%AC
lCEuFs-WRBqUH8euOdg-tg,youmi,10062_10582,Install,0.32,,4e49aa44-4942-47a4-9b52-32a9ed183a8a,1557440486,2019-05-10 06:21:26,1557440635,2019-05-10 06:23:55,1557440666,78j59mlauosW6gQOAoIDo3_TLqw0AZ9Ue3NQdjNk,http://track.miadx.net/aff_lsr?transaction_id=78j59mlauosW6gQOAoIDo3_TLqw0AZ9Ue3NQdjNk,idfa_4e49aa44-4942-47a4-9b52-32a9ed183a8a,%E1%80%97%E1%80%99%E1%80%AC
lCEuFs-WRBqUH8euOdg-tg,youmi,10062_10582,Install,0.2,,8641fdbb-4817-4511-bcad-cffb19f9cfac,1557704282,2019-05-13 07:38:02,1557704397,2019-05-13 07:39:57,1557704428,5aj5cnBODosW6gQOAoIDo3_TLqw0AZ3QM8tQdjNk,http://track.miadx.net/aff_lsr?transaction_id=5aj5cnBODosW6gQOAoIDo3_TLqw0AZ3QM8tQdjNk,idfa_8641fdbb-4817-4511-bcad-cffb19f9cfac,%E1%80%97%E1%80%99%E1%80%AC
lCEuFs-WRBqUH8euOdg-tg,youmi,10062_10582,Install,0.2,,b2cfe466-0a34-4272-ae3f-1b1d8a3cfd29,1557612834,2019-05-12 06:13:54,1557612945,2019-05-12 06:15:45,1557612976,89j5bmdF9osW6gQOAoIDo3_TLqw0AevhvUtQdjNk,http://track.miadx.net/aff_lsr?transaction_id=89j5bmdF9osW6gQOAoIDo3_TLqw0AevhvUtQdjNk,idfa_b2cfe466-0a34-4272-ae3f-1b1d8a3cfd29,%E1%80%97%E1%80%99%E1%80%AC
lCEuFs-WRBqUH8euOdg-tg,youmi,10062_10582,Install,0.2,,399d30fa-453f-46ba-b606-271d4c359dd3,1557676666,2019-05-12 23:57:46,1557676777,2019-05-12 23:59:37,1557676854,ddj5cfVxwosW6gQOAoIDo3_TLqw0AZyrY5NQdjNk,http://track.miadx.net/aff_lsr?transaction_id=ddj5cfVxwosW6gQOAoIDo3_TLqw0AZyrY5NQdjNk,idfa_399d30fa-453f-46ba-b606-271d4c359dd3,%E1%80%97%E1%80%99%E1%80%AC
lCEuFs-WRBqUH8euOdg-tg,youmi,10062_10582,Install,0.32,,bba1758d-7e6f-4a57-af4f-bc2f7e75ca87,1557444842,2019-05-10 07:34:02,1557444949,2019-05-10 07:35:49,1557444980,61j59nxLIosW6gQOAoIDo3_TLqw0Ay1FTw9QdjNk,http://track.miadx.net/aff_lsr?transaction_id=61j59nxLIosW6gQOAoIDo3_TLqw0Ay1FTw9QdjNk,idfa_bba1758d-7e6f-4a57-af4f-bc2f7e75ca87,%E1%80%97%E1%80%99%E1%80%AC
lCEuFs-WRBqUH8euOdg-tg,youmi,10062_10582,Install,0.2,,21ac5ddf-a962-40bf-b674-effaad5baa1a,1557872950,2019-05-15 06:29:10,1557873065,2019-05-15 06:31:05,1557873095,03j5emsT7osW6gQOAoIDo3_TLqw0ARaADtdQdjNk,http://track.miadx.net/aff_lsr?transaction_id=03j5emsT7osW6gQOAoIDo3_TLqw0ARaADtdQdjNk,idfa_21ac5ddf-a962-40bf-b674-effaad5baa1a,%E1%80%97%E1%80%99%E1%80%AC
lCEuFs-WRBqUH8euOdg-tg,youmi,10062_10582,Install,0.32,,814ed5d3-8570-44a9-9b4c-d1c44d6876f4,1557445990,2019-05-10 07:53:10,1557446105,2019-05-10 07:55:05,1557446136,acj59nR45osW6gQOAoIDo3_TLqw0Ay1FH6dQdjNk,http://track.miadx.net/aff_lsr?transaction_id=acj59nR45osW6gQOAoIDo3_TLqw0Ay1FH6dQdjNk,idfa_814ed5d3-8570-44a9-9b4c-d1c44d6876f4,%E1%80%97%E1%80%99%E1%80%AC
lCEuFs-WRBqUH8euOdg-tg,youmi,10062_10582,Install,0.2,,2b5ae36e-c1bb-4db5-98d9-6f9c0848d2dd,1557614919,2019-05-12 06:48:39,1557615014,2019-05-12 06:50:14,1557615044,edj5bmMpiosW6gQOAoIDo3_TLqw0AZ8iHTNQdjNk,http://track.miadx.net/aff_lsr?transaction_id=edj5bmMpiosW6gQOAoIDo3_TLqw0AZ8iHTNQdjNk,idfa_2b5ae36e-c1bb-4db5-98d9-6f9c0848d2dd,%E1%80%97%E1%80%99%E1%80%AC
lCEuFs-WRBqUH8euOdg-tg,youmi,10062_10582,Install,0.32,,7091a828-74c9-41cd-aa7a-a3d2296aa90d,1557441834,2019-05-10 06:43:54,1557441945,2019-05-10 06:45:45,1557441976,a3j59mHPiosW6gQOAoIDo3_TLqw0AdM6K9tQdjNk,http://track.miadx.net/aff_lsr?transaction_id=a3j59mHPiosW6gQOAoIDo3_TLqw0AdM6K9tQdjNk,idfa_7091a828-74c9-41cd-aa7a-a3d2296aa90d,%E1%80%97%E1%80%99%E1%80%AC
lCEuFs-WRBqUH8euOdg-tg,youmi,10062_10582,Install,0.2,,08809d06-6c15-48c4-ba06-f8d50a1ff013,1557619245,2019-05-12 08:00:45,1557619372,2019-05-12 08:02:52,1557619403,0aj5c00weosW6gQOAoIDo3_TLqw0AZ3QM_dQdjNk,http://track.miadx.net/aff_lsr?transaction_id=0aj5c00weosW6gQOAoIDo3_TLqw0AZ3QM_dQdjNk,idfa_08809d06-6c15-48c4-ba06-f8d50a1ff013,%E1%80%97%E1%80%99%E1%80%AC
lCEuFs-WRBqUH8euOdg-tg,youmi,10062_10582,Install,0.32,,c0816fbd-52f3-4b70-a1f0-2118032b8aa7,1557441871,2019-05-10 06:44:31,1557442021,2019-05-10 06:47:01,1557442052,a4j59mIqoosW6gQOAoIDo3_TLqw0AdM6K9tQdjNk,http://track.miadx.net/aff_lsr?transaction_id=a4j59mIqoosW6gQOAoIDo3_TLqw0AdM6K9tQdjNk,idfa_c0816fbd-52f3-4b70-a1f0-2118032b8aa7,%E1%80%97%E1%80%99%E1%80%AC
lCEuFs-WRBqUH8euOdg-tg,youmi,10062_10582,Install,0.2,,c8cdf4ad-874a-4f03-b64e-3d0359fbbf43,1557619714,2019-05-12 08:08:34,1557619833,2019-05-12 08:10:33,1557619866,f3j5c08lAosW6gQOAoIDo3_TLqw0Ay1FYv9QdjNk,http://track.miadx.net/aff_lsr?transaction_id=f3j5c08lAosW6gQOAoIDo3_TLqw0Ay1FYv9QdjNk,idfa_c8cdf4ad-874a-4f03-b64e-3d0359fbbf43,%E1%80%97%E1%80%99%E1%80%AC
lCEuFs-WRBqUH8euOdg-tg,youmi,10062_10582,Install,0.2,,b48fb7a9-ac56-4f2b-995b-c68e027ef791,1557749756,2019-05-13 20:15:56,1557749861,2019-05-13 20:17:41,1557749892,75j5dcfQiosW6gQOAoIDo3_TLqw0AZ9mc39QdjNk,http://track.miadx.net/aff_lsr?transaction_id=75j5dcfQiosW6gQOAoIDo3_TLqw0AZ9mc39QdjNk,idfa_b48fb7a9-ac56-4f2b-995b-c68e027ef791,%E1%80%97%E1%80%99%E1%80%AC
lCEuFs-WRBqUH8euOdg-tg,youmi,10062_10582,Install,0.32,,306dc6d1-e6d4-4461-8013-a3086e1934ef,1557445954,2019-05-10 07:52:34,1557446037,2019-05-10 07:53:57,1557446067,58j59nQvUosW6gQOAoIDo3_TLqw0Ay1FH6dQdjNk,http://track.miadx.net/aff_lsr?transaction_id=58j59nQvUosW6gQOAoIDo3_TLqw0Ay1FH6dQdjNk,idfa_306dc6d1-e6d4-4461-8013-a3086e1934ef,%E1%80%97%E1%80%99%E1%80%AC
lCEuFs-WRBqUH8euOdg-tg,youmi,10062_10582,Install,0.2,,8cb52b71-87c8-4c03-9e4d-b55896bcc1be,1557703763,2019-05-13 07:29:23,1557703856,2019-05-13 07:30:56,1557703887,61j5cntdmosW6gQOAoIDo3_TLqw0AdM6JStQdjNk,http://track.miadx.net/aff_lsr?transaction_id=61j5cntdmosW6gQOAoIDo3_TLqw0AdM6JStQdjNk,idfa_8cb52b71-87c8-4c03-9e4d-b55896bcc1be,%E1%80%97%E1%80%99%E1%80%AC
lCEuFs-WRBqUH8euOdg-tg,youmi,10062_10582,Install,0.2,,2a1ee2dd-7cc0-4d09-b0d1-a9cd32060a94,1557619303,2019-05-12 08:01:43,1557619402,2019-05-12 08:03:22,1557619433,9ej5c01EMosW6gQOAoIDo3_TLqw0AZ4FMANQdjNk,http://track.miadx.net/aff_lsr?transaction_id=9ej5c01EMosW6gQOAoIDo3_TLqw0AZ4FMANQdjNk,idfa_2a1ee2dd-7cc0-4d09-b0d1-a9cd32060a94,%E1%80%97%E1%80%99%E1%80%AC
lCEuFs-WRBqUH8euOdg-tg,youmi,10062_10582,Install,0.2,,b6fe48c2-4eea-46d3-a0b0-d52381e1eb5c,1557619334,2019-05-12 08:02:14,1557619433,2019-05-12 08:03:53,1557619464,70j5c01SVosW6gQOAoIDo3_TLqw0Aevht19QdjNk,http://track.miadx.net/aff_lsr?transaction_id=70j5c01SVosW6gQOAoIDo3_TLqw0Aevht19QdjNk,idfa_b6fe48c2-4eea-46d3-a0b0-d52381e1eb5c,%E1%80%97%E1%80%99%E1%80%AC
