cid,partner_id,channel_id,action_id,cpi,ip,idfa,click time,click datetime,install time,install datetime,postback time,click id,postback url,unique user id
TLTdFp9fTRK2AeMeIcb-AA,youmi,955902_1290,Install,1.3,203.218.35.167,8746EDF8-AFEA-45EE-9D5B-E7BC632783CD,1558111234,2019-05-18 00:40:34,1558111351,2019-05-18 00:42:31,1558111381,00j5hgEht0tPchAT-qzoAy9ojp9QdjNk,http://track.miadx.net/aff_lsr?transaction_id=00j5hgEht0tPchAT-qzoAy9ojp9QdjNk,idfa_8746EDF8-AFEA-45EE-9D5B-E7BC632783CD,zh
TLTdFp9fTRK2AeMeIcb-AA,youmi,955902_1290,Install,1.3,223.197.241.106,12574103-2C2C-436D-9DCF-766BC1883E29,1558110444,2019-05-18 00:27:24,1558110577,2019-05-18 00:29:37,1558110607,cdj5hgr3t0tPchAT-qzoA38XxatQdjNk,http://track.miadx.net/aff_lsr?transaction_id=cdj5hgr3t0tPchAT-qzoA38XxatQdjNk,idfa_12574103-2C2C-436D-9DCF-766BC1883E29,zh
TLTdFp9fTRK2AeMeIcb-AA,youmi,955902_1290,Install,1.3,218.191.2.101,CC65224C-E1A0-4BA0-B22D-13BC719754F4,1558109725,2019-05-18 00:15:25,1558109839,2019-05-18 00:17:19,1558109870,aej5hgeDt0tPchAT-qzoA2r8CZdQdjNk,http://track.miadx.net/aff_lsr?transaction_id=aej5hgeDt0tPchAT-qzoA2r8CZdQdjNk,idfa_CC65224C-E1A0-4BA0-B22D-13BC719754F4,zh
TLTdFp9fTRK2AeMeIcb-AA,youmi,955902_1290,Install,1.3,14.0.225.2,C014E58E-FE5C-4D32-AEA1-4E54E35F4709,1558110851,2019-05-18 00:34:11,1558111002,2019-05-18 00:36:42,1558111032,06j5hgxIt0tPchAT-qzoADgDhAtQdjNk,http://track.miadx.net/aff_lsr?transaction_id=06j5hgxIt0tPchAT-qzoADgDhAtQdjNk,idfa_C014E58E-FE5C-4D32-AEA1-4E54E35F4709,zh
TLTdFp9fTRK2AeMeIcb-AA,youmi,955902_1290,Install,1.3,58.176.36.58,74B6B62E-7109-4436-B22C-A23ABFA0F1C9,1558110798,2019-05-18 00:33:18,1558111013,2019-05-18 00:36:53,1558111066,fdj5hgx3t0tPchAT-qzoAOrAkOtQdjNk,http://track.miadx.net/aff_lsr?transaction_id=fdj5hgx3t0tPchAT-qzoAOrAkOtQdjNk,idfa_74B6B62E-7109-4436-B22C-A23ABFA0F1C9,zh
TLTdFp9fTRK2AeMeIcb-AA,youmi,955902_1290,Install,1.3,119.236.251.121,2653B1A9-B705-4BE1-9263-B9B1445A66B2,1558111245,2019-05-18 00:40:45,1558111446,2019-05-18 00:44:06,1558111476,b8j5hgEpt0tPchAT-qzoAd-z7edQdjNk,http://track.miadx.net/aff_lsr?transaction_id=b8j5hgEpt0tPchAT-qzoAd-z7edQdjNk,idfa_2653B1A9-B705-4BE1-9263-B9B1445A66B2,zh
TLTdFp9fTRK2AeMeIcb-AA,youmi,955902_1290,Install,1.3,119.246.19.81,8948285A-1FBD-479B-9490-742CB343382B,1558111295,2019-05-18 00:41:35,1558111453,2019-05-18 00:44:13,1558111483,84j5hgFit0tPchAT-qzoAd_YTUdQdjNk,http://track.miadx.net/aff_lsr?transaction_id=84j5hgFit0tPchAT-qzoAd_YTUdQdjNk,idfa_8948285A-1FBD-479B-9490-742CB343382B,zh
TLTdFp9fTRK2AeMeIcb-AA,youmi,955902_1290,Install,1.3,119.237.83.210,AEF90E24-6613-49C9-BABC-2558E2C361EC,1558111244,2019-05-18 00:40:44,1558111393,2019-05-18 00:43:13,1558111423,d7j5hgEqt0tPchAT-qzoAd-1T0tQdjNk,http://track.miadx.net/aff_lsr?transaction_id=d7j5hgEqt0tPchAT-qzoAd-1T0tQdjNk,idfa_AEF90E24-6613-49C9-BABC-2558E2C361EC,zh
TLTdFp9fTRK2AeMeIcb-AA,youmi,955902_1290,Install,1.3,42.200.150.87,F9C1424A-BCC4-432E-91AE-FFCA09C9D861,1558110670,2019-05-18 00:31:10,1558110792,2019-05-18 00:33:12,1558110822,2ej5hguQt0tPchAT-qzoAKsiWV9QdjNk,http://track.miadx.net/aff_lsr?transaction_id=2ej5hguQt0tPchAT-qzoAKsiWV9QdjNk,idfa_F9C1424A-BCC4-432E-91AE-FFCA09C9D861,zh
TLTdFp9fTRK2AeMeIcb-AA,youmi,955902_1290,Install,1.3,183.178.175.126,EB565D38-2319-4767-A236-F6AC1E0B4B0B,1558110672,2019-05-18 00:31:12,1558110811,2019-05-18 00:33:31,1558110841,6aj5hguTt0tPchAT-qzoAt7KvftQdjNk,http://track.miadx.net/aff_lsr?transaction_id=6aj5hguTt0tPchAT-qzoAt7KvftQdjNk,idfa_EB565D38-2319-4767-A236-F6AC1E0B4B0B,zh
TLTdFp9fTRK2AeMeIcb-AA,youmi,955902_1290,Install,1.3,220.246.71.147,DC8923DC-61AD-4A5E-83C0-8097D72BF3C2,1558111309,2019-05-18 00:41:49,1558111475,2019-05-18 00:44:35,1558111505,bdj5hgFwt0tPchAT-qzoA3PZHk9QdjNk,http://track.miadx.net/aff_lsr?transaction_id=bdj5hgFwt0tPchAT-qzoA3PZHk9QdjNk,idfa_DC8923DC-61AD-4A5E-83C0-8097D72BF3C2,zh
TLTdFp9fTRK2AeMeIcb-AA,youmi,955902_1290,Install,1.3,168.70.112.227,A00845BE-9A29-45E2-9ABB-351F13F50F81,1558110730,2019-05-18 00:32:10,1558110843,2019-05-18 00:34:03,1558110873,8bj5hgvQt0tPchAT-qzoAqEZw49QdjNk,http://track.miadx.net/aff_lsr?transaction_id=8bj5hgvQt0tPchAT-qzoAqEZw49QdjNk,idfa_A00845BE-9A29-45E2-9ABB-351F13F50F81,zh
TLTdFp9fTRK2AeMeIcb-AA,youmi,955902_1290,Install,1.3,112.120.188.10,3B09C4D0-A34C-4161-BC92-2FBA0618E4B7,1558110734,2019-05-18 00:32:14,1558110856,2019-05-18 00:34:16,1558110886,a0j5hgvWt0tPchAT-qzoAcHi8CtQdjNk,http://track.miadx.net/aff_lsr?transaction_id=a0j5hgvWt0tPchAT-qzoAcHi8CtQdjNk,idfa_3B09C4D0-A34C-4161-BC92-2FBA0618E4B7,zh
TLTdFp9fTRK2AeMeIcb-AA,youmi,955902_1290,Install,1.3,219.77.225.14,6A59BACF-F6F8-4793-9C6D-F2D76BECEC40,1558110835,2019-05-18 00:33:55,1558110992,2019-05-18 00:36:32,1558111022,82j5hgxyt0tPchAT-qzoA203hDtQdjNk,http://track.miadx.net/aff_lsr?transaction_id=82j5hgxyt0tPchAT-qzoA203hDtQdjNk,idfa_6A59BACF-F6F8-4793-9C6D-F2D76BECEC40,zh
TLTdFp9fTRK2AeMeIcb-AA,youmi,955902_1290,Install,1.3,138.19.116.136,DA48105A-1991-4B08-85C2-6411A2A1F949,1558110744,2019-05-18 00:32:24,1558110948,2019-05-18 00:35:48,1558110978,8aj5hgvXt0tPchAT-qzoAihN0iNQdjNk,http://track.miadx.net/aff_lsr?transaction_id=8aj5hgvXt0tPchAT-qzoAihN0iNQdjNk,idfa_DA48105A-1991-4B08-85C2-6411A2A1F949,zh
TLTdFp9fTRK2AeMeIcb-AA,youmi,955902_1290,Install,1.3,59.149.169.13,634D70DC-6773-4D24-8BAD-6CF791ED7C6A,1558110776,2019-05-18 00:32:56,1558110947,2019-05-18 00:35:47,1558110977,d7j5hgwBt0tPchAT-qzoAO5WpDdQdjNk,http://track.miadx.net/aff_lsr?transaction_id=d7j5hgwBt0tPchAT-qzoAO5WpDdQdjNk,idfa_634D70DC-6773-4D24-8BAD-6CF791ED7C6A,zh
TLTdFp9fTRK2AeMeIcb-AA,youmi,955902_1290,Install,1.3,58.152.236.151,BA1014A0-BAB2-4206-83C1-C7A3F008CFE9,1558110188,2019-05-18 00:23:08,1558110376,2019-05-18 00:26:16,1558110406,6bj5hgmMt0tPchAT-qzoAOpjsl9QdjNk,http://track.miadx.net/aff_lsr?transaction_id=6bj5hgmMt0tPchAT-qzoAOpjsl9QdjNk,idfa_BA1014A0-BAB2-4206-83C1-C7A3F008CFE9,zh
TLTdFp9fTRK2AeMeIcb-AA,youmi,955902_1290,Install,1.3,218.252.151.227,AE662991-1867-4812-B8FF-742819BD5BAA,1558110743,2019-05-18 00:32:23,1558110953,2019-05-18 00:35:53,1558110983,daj5hgw2t0tPchAT-qzoA2vyX49QdjNk,http://track.miadx.net/aff_lsr?transaction_id=daj5hgw2t0tPchAT-qzoA2vyX49QdjNk,idfa_AE662991-1867-4812-B8FF-742819BD5BAA,zh
TLTdFp9fTRK2AeMeIcb-AA,youmi,955902_1290,Install,1.3,138.19.22.173,46BF6E2C-7C82-488C-8F42-E0DC79CBFCA7,1558111227,2019-05-18 00:40:27,1558111356,2019-05-18 00:42:36,1558111387,83j5hgEct0tPchAT-qzoAihMWrdQdjNk,http://track.miadx.net/aff_lsr?transaction_id=83j5hgEct0tPchAT-qzoAihMWrdQdjNk,idfa_46BF6E2C-7C82-488C-8F42-E0DC79CBFCA7,zh
TLTdFp9fTRK2AeMeIcb-AA,youmi,955902_1290,Install,1.3,158.132.60.94,08A412B6-8748-4663-959F-89BADEA51C0E,1558111228,2019-05-18 00:40:28,1558111386,2019-05-18 00:43:06,1558111416,6dj5hgEat0tPchAT-qzoAnoQ8XtQdjNk,http://track.miadx.net/aff_lsr?transaction_id=6dj5hgEat0tPchAT-qzoAnoQ8XtQdjNk,idfa_08A412B6-8748-4663-959F-89BADEA51C0E,zh
TLTdFp9fTRK2AeMeIcb-AA,youmi,955902_1290,Install,1.3,158.132.151.9,B1A09A32-0AC8-4C33-8BBD-5486F824B771,1558111220,2019-05-18 00:40:20,1558111420,2019-05-18 00:43:40,1558111451,dej5hgE3t0tPchAT-qzoAnoSXCdQdjNk,http://track.miadx.net/aff_lsr?transaction_id=dej5hgE3t0tPchAT-qzoAnoSXCdQdjNk,idfa_B1A09A32-0AC8-4C33-8BBD-5486F824B771,zh
TLTdFp9fTRK2AeMeIcb-AA,youmi,955902_1290,Install,1.3,210.6.138.44,AD050A92-7FEF-4AD5-80C6-FD0CFD343C70,1558111239,2019-05-18 00:40:39,1558111453,2019-05-18 00:44:13,1558111483,b8j5hgEct0tPchAT-qzoA0gaKLNQdjNk,http://track.miadx.net/aff_lsr?transaction_id=b8j5hgEct0tPchAT-qzoA0gaKLNQdjNk,idfa_AD050A92-7FEF-4AD5-80C6-FD0CFD343C70,zh
TLTdFp9fTRK2AeMeIcb-AA,youmi,955902_1290,Install,1.3,58.177.104.125,375F7832-B47E-40F5-B9A7-1D8DD4569FC7,1558110738,2019-05-18 00:32:18,1558110922,2019-05-18 00:35:22,1558110953,05j5hgvXt0tPchAT-qzoAOrFofdQdjNk,http://track.miadx.net/aff_lsr?transaction_id=05j5hgvXt0tPchAT-qzoAOrFofdQdjNk,idfa_375F7832-B47E-40F5-B9A7-1D8DD4569FC7,zh
TLTdFp9fTRK2AeMeIcb-AA,youmi,955902_1290,Install,1.3,123.202.101.80,7C337AAB-8CE3-4A0D-9AB6-B14123A517BC,1558110819,2019-05-18 00:33:39,1558110961,2019-05-18 00:36:01,1558110991,b4j5hgxft0tPchAT-qzoAe8plUNQdjNk,http://track.miadx.net/aff_lsr?transaction_id=b4j5hgxft0tPchAT-qzoAe8plUNQdjNk,idfa_7C337AAB-8CE3-4A0D-9AB6-B14123A517BC,zh
